Analysis/New Tests_CMB/wrd01_d2s01_new/cmb08_ch35.csv

#Digilent WaveForms Oscilloscope Acquisition
#Device Name: ADP3450
#Serial Number: SN:210018B9D9B0
#Date Time: 2024-08-14 17:43:54.173.328.340
#Sample rate: 5.88235e+06Hz
#Samples: 32768
#Trigger: Source: Channel 3 Type: Edge Condition: Rising Level: 60 mV Hyst.: Auto HoldOff: 0 s
#Channel 3: Range: 100 mV/div Offset: 0 V Attenuation: 1 X Coupling: DC Bandwidth: 0 Hz Sample Mode: Average

Time (s),Channel 3 (V)
-0.003798456208269099,0.2137306583609301
-0.003798286208269098,0.2270935628093226
-0.003798116208269098,0.2387120486966771
-0.003797946208269098,0.249211473620358
-0.003797776208269098,0.2576373444055233
-0.003797606208269098,0.2653391169200756
-0.003797436208269099,0.2704736319297866
-0.003797266208269098,0.2744890859758518
-0.003797096208269098,0.2770234299229483
-0.003796926208269098,0.2783728857908801
-0.003796756208269098,0.2782741451176158
-0.003796586208269098,0.2778462688668074
-0.003796416208269099,0.275937282517043
-0.003796246208269098,0.2734029385699317
-0.003796076208269098,0.2705394590452827
-0.003795906208269098,0.2669847948077966
-0.003795736208269098,0.2631997356660217
-0.003795566208269098,0.2589538867156916
-0.003795396208269099,0.2549384326696356
-0.003795226208269098,0.2502317939107164
-0.003795056208269098,0.2454264144785591
-0.003794886208269098,0.2428262434159509
-0.003794716208269098,0.2386133080233679
-0.003794546208269098,0.2345649404195647
-0.003794376208269098,0.2315039795483909
-0.003794206208269099,0.2275214390600968
-0.003794036208269098,0.2242629968423741
-0.003793866208269098,0.2203462834695907
-0.003793696208269098,0.217416976829434
-0.003793526208269098,0.2138623125919483
-0.003793356208269098,0.2104722161432289
-0.003793186208269099,0.2065225892126893
-0.003793016208269098,0.2026058758398803
-0.003792846208269098,0.2000057047772714
-0.003792676208269098,0.1954307202493915
-0.003792506208269098,0.1927976356290318
-0.003792336208269098,0.1895062798535761
-0.003792166208269099,0.1863465783091443
-0.003791996208269098,0.1831210496491828
-0.003791826208269098,0.180586705702087
-0.003791656208269098,0.1783485837747772
-0.003791486208269098,0.1761433754052259
-0.003791316208269098,0.1737077721313887
-0.003791146208269099,0.1713050824153103
-0.003790976208269098,0.1688694791414605
-0.003790806208269098,0.1665984436564001
-0.003790636208269098,0.1642615810558263
-0.003790466208269098,0.161793064224239
-0.003790296208269098,0.1589624982573471
-0.003790126208269099,0.1561319322904552
-0.003789956208269098,0.1532026256502883
-0.003789786208269098,0.1501087512213655
-0.003789616208269098,0.1469819632346827
-0.003789446208269098,0.1438880888057599
-0.003789276208269098,0.1409587821656043
-0.003789106208269099,0.1383586111029943
-0.003788936208269098,0.1354951315783386
-0.003788766208269098,0.1329607876312432
-0.003788596208269098,0.1308872334927061
-0.003788426208269098,0.128846592911923
-0.003788256208269098,0.1264768167535992
-0.003788086208269099,0.1244361761728167
-0.003787916208269098,0.1228563254005891
-0.003787746208269098,0.1204207221267579
-0.003787576208269098,0.1188737849122935
-0.003787406208269098,0.1171951934668104
-0.003787236208269098,0.1151545528860316
-0.003787066208269099,0.1131468258630036
-0.003786896208269098,0.111961937783832
-0.003786726208269098,0.1098883836452948
-0.003786556208269098,0.1077819159490082
-0.003786386208269098,0.1063666329655619
-0.003786216208269098,0.1047867821933461
-0.003786046208269099,0.1030423636323546
-0.003785876208269098,0.1016270806489069
-0.003785706208269098,0.1011662908403382
-0.003785536208269098,0.09935604516384069
-0.003785366208269098,0.09744705881407864
-0.003785196208269098,0.09678878765898868
-0.003785026208269099,0.09636091140817946
-0.003784856208269098,0.09487980130922032
-0.003784686208269098,0.09376074034556357
-0.003784516208269098,0.09214797601559412
-0.003784346208269098,0.09102891505193936
-0.003784176208269098,0.09000859476154993
-0.003784006208269098,0.08869205245136766
-0.003783836208269099,0.08721094235241528
-0.003783666208269098,0.08569691869569793
-0.003783496208269098,0.08431454927000832
-0.003783326208269098,0.08253721715126296
-0.003783156208269098,0.08115484772557408
-0.003782986208269098,0.07950916983784623
-0.003782816208269099,0.07799514618113934
-0.003782646208269098,0.07674443098646042
-0.003782476208269098,0.07592159204259799
-0.003782306208269098,0.07509875309873412
-0.003782136208269098,0.0743088277126262
-0.003781966208269098,0.07342016165325316
-0.003781796208269099,0.07249858203612723
-0.003781626208269098,0.07167574309225935
-0.003781456208269098,0.07105038549492336
-0.003781286208269098,0.07012880587779557
-0.003781116208269098,0.06910848558740618
-0.003780946208269098,0.06742989414192377
-0.003780776208269099,0.06683745010234282
-0.003780606208269098,0.06575130269643678
-0.003780436208269098,0.06450058750176686
-0.003780266208269098,0.06377648923116563
-0.003780096208269098,0.06252577403649476
-0.003779926208269098,0.06206498422793095
-0.003779756208269099,0.06071552835999411
-0.003779586208269098,0.05969520806960152
-0.003779416208269098,0.05933315893430073
-0.003779246208269098,0.058247011528401
-0.003779076208269098,0.05752291325780207
-0.003778906208269098,0.05643676585190169
-0.003778736208269099,0.05561392690803776
-0.003778566208269098,0.05498856931069626
-0.003778396208269098,0.05363911344276331
-0.003778226208269098,0.05307958296093602
-0.003778056208269098,0.05261879315237234
-0.003777886208269098,0.05222383045931837
-0.003777716208269099,0.05192760843952736
-0.003777546208269098,0.05136807795769834
-0.003777376208269098,0.05094020170689011
-0.003777206208269098,0.05064397968709897
-0.003777036208269098,0.05028193055179801
-0.003776866208269098,0.04945909160793558
-0.003776696208269099,0.04919578314589912
-0.003776526208269098,0.04899830179937046
-0.003776356208269098,0.0486362526640671
-0.003776186208269098,0.04738553746940069
-0.003776016208269098,0.04860333910631494
-0.003775846208269098,0.04741845102715304
-0.003775676208269099,0.04715514256511658
-0.003775506208269098,0.04636521717900637
-0.003775336208269098,0.04613482227472424
-0.003775166208269098,0.04583860025493316
-0.003774996208269098,0.04521324265759664
-0.003774826208269098,0.04462079861801568
-0.003774656208269099,0.04406126813618821
-0.003774486208269098,0.04277763938375965
-0.003774316208269098,0.04254724447947607
-0.003774146208269098,0.04185605976663163
-0.003773976208269098,0.04116487505378646
-0.003773806208269098,0.0407699123607325
-0.003773636208269098,0.04017746832115048
-0.003773466208269099,0.03955211072381502
-0.003773296208269098,0.03915714803075621
-0.003773126208269098,0.03833430908689336
-0.003772956208269098,0.03728107523874777
-0.003772786208269098,0.03635949562162185
-0.003772616208269098,0.03603036004407627
-0.003772446208269099,0.03553665667775881
-0.003772276208269098,0.0361949278328408
-0.003772106208269098,0.03392389234778546
-0.003771936208269098,0.03438468215634746
-0.003771766208269098,0.03385806523227551
-0.003771596208269098,0.03300231273065703
-0.003771426208269099,0.03254152292209406
-0.003771256208269098,0.03211364667128219
-0.003771086208269098,0.03161994330496389
-0.003770916208269098,0.03066545013008185
-0.003770746208269098,0.02977678407071043
-0.003770576208269098,0.02934890781990119
-0.003770406208269099,0.02892103156909272
-0.003770236208269098,0.02898685868460094
-0.003770066208269098,0.0289539451268468
-0.003769896208269098,0.02911851291561988
-0.003769726208269098,0.02944764849316486
-0.003769556208269098,0.0296451298396922
-0.003769386208269099,0.03020466032151967
-0.003769216208269098,0.0305337958990662
-0.003769046208269098,0.03079710436110296
-0.003768876208269098,0.0314882890739474
-0.003768706208269098,0.0314882890739474
-0.003768536208269098,0.03145537551619284
-0.003768366208269099,0.03185033820924753
-0.003768196208269098,0.0316857704204751
-0.003768026208269098,0.03178451109373943
-0.003767856208269098,0.03234404157556475
-0.003767686208269098,0.03171868397822761
-0.003767516208269098,0.0307971043611017
-0.003767346208269099,0.0312578941696655
-0.003767176208269098,0.02990843830172997
-0.003767006208269098,0.03027048743702711
-0.003766836208269098,0.02934890781990274
-0.003766666208269098,0.03020466032151739
-0.003766496208269098,0.0289539451268465
-0.003766326208269099,0.02869063666481004
-0.003766156208269098,0.02803236550971842
-0.003765986208269098,0.02790071127870091
-0.003765816208269098,0.02796653839420937
-0.003765646208269098,0.02773614348992771
-0.003765476208269098,0.02763740281666422
-0.003765306208269099,0.02760448925890966
-0.003765136208269098,0.0276044892589093
-0.003764966208269098,0.02750574858564551
-0.003764796208269098,0.02737409435462806
-0.003764626208269098,0.02753866214340096
-0.003764456208269098,0.02776905704768244
-0.003764286208269099,0.02770322993217333
-0.003764116208269098,0.02763740281666482
-0.003763946208269098,0.027801970605437
-0.003763776208269098,0.02780197060543742
-0.003763606208269098,0.02803236550971854
-0.003763436208269098,0.02783488416319156
-0.003763266208269099,0.02763740281666422
-0.003763096208269099,0.02711078589259226
-0.003762926208269098,0.02684747743055461
-0.003762756208269098,0.02678165031504549
-0.003762586208269098,0.02664999608402702
-0.003762416208269098,0.02638668762199104
-0.003762246208269098,0.02602463848669092
-0.003762076208269099,0.02609046560219991
-0.003761906208269098,0.02638668762198973
-0.003761736208269098,0.02602463848669056
-0.003761566208269098,0.0258271571401637
-0.003761396208269098,0.02589298425567269
-0.003761226208269098,0.0252676266583361
-0.003761056208269099,0.0252347131005816
-0.003760886208269098,0.02546510800486285
-0.003760716208269098,0.02530054021609
-0.003760546208269098,0.02493849108078987
-0.003760376208269098,0.02457644194549041
-0.003760206208269098,0.02431313348345395
-0.003760036208269099,0.02421439281019046
-0.003759866208269098,0.0242143928101898
-0.003759696208269098,0.02408273857917229
-0.003759526208269098,0.0242143928101898
-0.003759356208269098,0.02395108434815382
-0.003759186208269098,0.02437896059896306
-0.003759016208269099,0.02421439281019058
-0.003758846208269098,0.02431313348345167
-0.003758676208269098,0.02368777588611748
-0.003758506208269098,0.02375360300162636
-0.003758336208269098,0.02368777588611736
-0.003758166208269098,0.02372068944387192
-0.003757996208269099,0.02322698607755356
-0.003757826208269098,0.02319407251979649
-0.003757656208269098,0.02250288780695384
-0.003757486208269098,0.02279910982674115
-0.003757316208269098,0.02105469126575579
-0.003757146208269098,0.02270036915348065
-0.003756976208269099,0.02220666578716229
-0.003756806208269098,0.02161422174757919
-0.003756636208269098,0.02131799972778799
-0.003756466208269098,0.02062681501494289
-0.003756296208269098,0.02026476587964259
-0.003756126208269098,0.01980397607107963
-0.003755956208269099,0.01924444558925215
-0.003755786208269098,0.01950775405128849
-0.003755616208269098,0.01947484049353286
-0.003755446208269098,0.01914570491598842
-0.003755276208269098,0.01911279135823429
-0.003755106208269098,0.01931027270476127
-0.003754936208269099,0.01931027270476127
-0.003754766208269098,0.02000145741760972
-0.003754596208269098,0.02075846924596346
-0.003754426208269098,0.02121925905452678
-0.003754256208269098,0.02187753020961636
-0.003754086208269098,0.02168004886308938
-0.003753916208269099,0.02177878953635305
-0.003753746208269098,0.02171296242084406
-0.003753576208269098,0.02174587597859873
-0.003753406208269098,0.02181170309410713
-0.003753236208269098,0.02154839463207169
-0.003753066208269098,0.02184461665186217
-0.003752896208269099,0.02181170309410761
-0.003752726208269099,0.02210792511389808
-0.003752556208269098,0.02207501155614418
-0.003752386208269098,0.02210792511389784
-0.003752216208269098,0.02168004886308902
-0.003752046208269098,0.02148256751656204
-0.003751876208269098,0.02184461665186217
-0.003751706208269099,0.02158130818982619
-0.003751536208269098,0.02171296242084202
-0.003751366208269098,0.0211863454967718
-0.003751196208269098,0.02161422174757979
-0.003751026208269098,0.02135091328554381
-0.003750856208269098,0.02079138280371634
-0.003750686208269099,0.02065972857269835
-0.003750516208269098,0.0200672845331144
-0.003750346208269098,0.0196064947245524
-0.003750176208269098,0.01967232184006026
-0.003750006208269098,0.01904696424272481
-0.003749836208269098,0.01898113712721569
-0.003749666208269099,0.01852034731865274
-0.003749496208269098,0.01805955751008822
-0.003749326208269098,0.01809247106784259
-0.003749156208269098,0.01805955751008738
-0.003748986208269098,0.01766459481703341
-0.003748816208269098,0.01776333549029708
-0.003748646208269099,0.01786207616356058
-0.003748476208269098,0.01802664395233342
-0.003748306208269098,0.01799373039457958
-0.003748136208269098,0.01832286597212234
-0.003747966208269098,0.01710506433520594
-0.003747796208269098,0.01819121174110632
-0.003747626208269099,0.01878365578068835
-0.003747456208269098,0.01868491510742432
-0.003747286208269098,0.01858617443416107
-0.003747116208269098,0.01861908799191617
-0.003746946208269098,0.01894822356946114
-0.003746776208269098,0.01842160664538823
-0.003746606208269099,0.01825703885661544
-0.003746436208269098,0.01799373039457982
-0.003746266208269098,0.01822412529886011
-0.003746096208269098,0.01779624904805122
-0.003745926208269098,0.01756585414376986
-0.003745756208269098,0.01763168125927886
-0.003745586208269099,0.01802664395233354
-0.003745416208269098,0.01809247106784493
-0.003745246208269098,0.01871782866518128
-0.003745076208269098,0.01927735914700737
-0.003744906208269098,0.01963940828230768
-0.003744736208269098,0.02010019809087064
-0.003744566208269099,0.02026476587964342
-0.003744396208269098,0.02089012347697917
-0.003744226208269098,0.02065972857269811
-0.003744056208269098,0.02065972857269805
-0.003743886208269098,0.0206268150149423
-0.003743716208269098,0.01993563030209785
-0.003743546208269099,0.01993563030209785
-0.003743376208269098,0.01921153203149484
-0.003743206208269098,0.01845452020314122
-0.003743036208269098,0.01802664395233222
-0.003742866208269098,0.01730254568173352
-0.003742696208269098,0.01743419991275151
-0.003742526208269099,0.0171379778929605
-0.003742356208269098,0.01694049654643352
-0.003742186208269098,0.01703923721969683
-0.003742016208269098,0.01703923721969701
-0.003741846208269098,0.01713797789295972
-0.003741676208269098,0.01671010164215126
-0.003741506208269098,0.0169075829886786
-0.003741336208269099,0.01628222539134315
-0.003741166208269098,0.01674301519990581
-0.003740996208269098,0.01674301519990605
-0.003740826208269098,0.01687466943092368
-0.003740656208269098,0.0166771880843967
-0.003740486208269098,0.01638096606460569
-0.003740316208269099,0.01687466943092314
-0.003740146208269098,0.01707215077745186
-0.003739976208269098,0.01720380500847039
-0.003739806208269098,0.01763168125927981
-0.003739636208269098,0.01815829818335177
-0.003739466208269098,0.01815829818335177
-0.003739296208269099,0.01878365578068722
-0.003739126208269098,0.01934318626251906
-0.003738956208269098,0.02023185232188923
-0.003738786208269098,0.02042933366841603
-0.003738616208269098,0.02033059299515254
-0.003738446208269098,0.0194419269357795
-0.003738276208269099,0.02082429636146838
-0.003738106208269098,0.02102177770799692
-0.003737936208269098,0.02065972857269901
-0.003737766208269098,0.02115343193901581
-0.003737596208269098,0.02079138280371634
-0.003737426208269098,0.020593901457189
-0.003737256208269099,0.02056098789943444
-0.003737086208269098,0.02019893876413383
-0.003736916208269098,0.02006728453311656
-0.003736746208269098,0.0203305929951508
-0.003736576208269098,0.01937609982027038
-0.003736406208269098,0.01911279135823393
-0.003736236208269099,0.01914570491598848
-0.003736066208269098,0.01865200154966893
-0.003735896208269098,0.01832286597212468
-0.003735726208269098,0.01838869308763319
-0.003735556208269098,0.01812538462559781
-0.003735386208269098,0.01845452020314278
-0.003735216208269099,0.01786207616356076
-0.003735046208269098,0.01763168125927754
-0.003734876208269098,0.01726963212397669
-0.003734706208269098,0.01615057116032396
-0.003734536208269098,0.01624931183358662
-0.003734366208269098,0.01578852202502366
-0.003734196208269099,0.01582143558277821
-0.003734026208269098,0.01542647288972173
-0.003733856208269098,0.0149327695234029
-0.003733686208269098,0.01430741192607038
-0.003733516208269098,0.01529481865870452
-0.003733346208269098,0.01486694240789606
-0.003733176208269099,0.01572269490951454
-0.003733006208269098,0.01647970673787067
-0.003732836208269098,0.01684175587317344
-0.003732666208269098,0.01792790327907155
-0.003732496208269098,0.01884948289619783
-0.003732326208269098,0.01904696424272481
-0.003732156208269099,0.02013311164862519
-0.003731986208269098,0.0205609878994348
-0.003731816208269098,0.02065972857269931
-0.003731646208269098,0.0209888641502435
-0.003731476208269098,0.02089012347697995
-0.003731306208269098,0.02085720991922545
-0.003731136208269098,0.02042933366841621
-0.003730966208269099,0.02085720991922467
-0.003730796208269098,0.01937609982027086
-0.003730626208269098,0.01950775405128801
-0.003730456208269098,0.01917861847374202
-0.003730286208269098,0.01861908799191557
-0.003730116208269098,0.01822412529886088
-0.003729946208269099,0.0179937303945794
-0.003729776208269098,0.01789498972131495
-0.003729606208269098,0.01779624904805146
-0.003729436208269098,0.01769750837478689
-0.003729266208269098,0.01710506433520594
-0.003729096208269098,0.01539355933196897
-0.003728926208269099,0.01611765760256791
-0.003728756208269098,0.01690758298867584
-0.003728586208269098,0.01615057116032336
-0.003728416208269098,0.01592017625604159
-0.003728246208269098,0.0157556084672691
-0.003728076208269098,0.0155252135629872
-0.003727906208269099,0.01480111529238826
-0.003727736208269098,0.01430741192607326
-0.003727566208269098,0.01559104067849572
-0.003727396208269098,0.01526190510095044
-0.003727226208269098,0.01509733731217796
-0.003727056208269098,0.0164467931801148
-0.003726886208269099,0.01588726269828733
-0.003726716208269098,0.01782916260580788
-0.003726546208269098,0.01828995241437138
-0.003726376208269098,0.01904696424272607
-0.003726206208269098,0.01973814895557051
-0.003726036208269098,0.02079138280371634
-0.003725866208269099,0.02131799972778925
-0.003725696208269098,0.02184461665186444
-0.003725526208269098,0.0224699742492
-0.003725356208269098,0.02316115896204421
-0.003725186208269098,0.02302950473102748
-0.003725016208269098,0.02372068944387192
-0.003724846208269099,0.0236548623283628
-0.003724676208269098,0.02421439281019064
-0.003724506208269098,0.02431313348345425
-0.003724336208269098,0.02447770127222619
-0.003724166208269098,0.024181479252435
-0.003723996208269098,0.02378651655938104
-0.003723826208269099,0.02329281319306268
-0.003723656208269098,0.02246997424919839
-0.003723486208269098,0.02237123357593448
-0.003723316208269098,0.022206665787162
-0.003723146208269098,0.02204209799838819
-0.003722976208269098,0.02131799972778925
-0.003722806208269099,0.02098886415024368
-0.003722636208269098,0.02056098789943276
-0.003722466208269098,0.02010019809086836
-0.003722296208269098,0.01947484049353298
-0.003722126208269098,0.01888239645395053
-0.003721956208269098,0.0180595575100881
-0.003721786208269099,0.01763168125927886
-0.003721616208269098,0.01680884231541265
-0.003721446208269098,0.01618348471807595
-0.003721276208269098,0.01552521356298672
-0.003721106208269098,0.01526190510095015
-0.003720936208269098,0.01493276952340517
-0.003720766208269098,0.01526190510095074
-0.003720596208269099,0.01568978135175921
-0.003720426208269098,0.01631513894909849
-0.003720256208269098,0.01684175587316954
-0.003720086208269098,0.01687466943092416
-0.003719916208269098,0.01694049654643316
-0.003719746208269098,0.01710506433520594
-0.003719576208269099,0.01575560846727155
-0.003719406208269098,0.01822412529886065
-0.003719236208269098,0.01815829818335207
-0.003719066208269098,0.01832286597212492
-0.003718896208269098,0.0185203473186519
