Analysis/New Tests_CMB/wrd01_d2s01_new/cmb07_ch46.csv

#Digilent WaveForms Oscilloscope Acquisition
#Device Name: ADP3450
#Serial Number: SN:210018B9D9B0
#Date Time: 2024-08-15 12:39:50.214.983.130
#Sample rate: 5.88235e+06Hz
#Samples: 32768
#Trigger: Source: Channel 3 Type: Edge Condition: Rising Level: 40 mV Hyst.: Auto HoldOff: 0 s
#Channel 3: Range: 100 mV/div Offset: 0 V Attenuation: 1 X Coupling: DC Bandwidth: 0 Hz Sample Mode: Average

Time (s),Channel 3 (V)
-0.003168828139838223,0.02000145741760697
-0.003168658139838223,0.01934318626251522
-0.003168488139838223,0.01901405068497026
-0.003168318139838223,0.01845452020314278
-0.003168148139838223,0.01789498972131412
-0.003167978139838223,0.01723671856622417
-0.003167808139838223,0.01687466943092404
-0.003167638139838223,0.01582143558277755
-0.003167468139838223,0.01545938644747809
-0.003167298139838223,0.01489985596565062
-0.003167128139838223,0.01522899154319523
-0.003166958139838223,0.01470237461912327
-0.003166788139838223,0.01447197971484137
-0.003166618139838223,0.01430741192606925
-0.003166448139838223,0.01466946106136872
-0.003166278139838223,0.01480111529238694
-0.003166108139838223,0.01476820173463275
-0.003165938139838223,0.01496568308115973
-0.003165768139838223,0.01582143558277821
-0.003165598139838223,0.01434032548382428
-0.003165428139838223,0.01496568308115973
-0.003165258139838223,0.01410993057954124
-0.003165088139838223,0.01384662211750527
-0.003164918139838223,0.01279338826935896
-0.003164748139838223,0.01223385778753149
-0.003164578139838223,0.01157558663244154
-0.003164408139838223,0.01042361211103085
-0.003164238139838223,0.009469118936148692
-0.003164068139838223,0.008185490183723301
-0.003163898139838223,0.007329737682102481
-0.003163728139838223,0.006704380084765896
-0.003163558139838223,0.006013195371921453
-0.003163388139838223,0.005124529312547154
-0.003163218139838223,0.005157442870301712
-0.003163048139838223,0.005486578447846684
-0.003162878139838223,0.005124529312547154
-0.003162708139838223,0.005322010659074497
-0.003162538139838223,0.005947368256409945
-0.003162368139838223,0.00630941739171121
-0.003162198139838223,0.008580452876775651
-0.003162028139838223,0.007625959701895231
-0.003161858139838223,0.009074156243094007
-0.003161688139838223,0.01048943922653996
-0.003161518139838223,0.01032487143776748
-0.003161348139838223,0.01167432730570402
-0.003161178139838223,0.01157558663244035
-0.003161008139838223,0.01164141374794934
-0.003160838139838223,0.01193763576774048
-0.003160668139838223,0.01190472220998592
-0.003160498139838223,0.01144393240142212
-0.003160328139838223,0.01124645105489478
-0.003160158139838223,0.01068692057306731
-0.003159988139838223,0.01029195788001262
-0.003159818139838223,0.009370378262885021
-0.003159648139838223,0.008975415569830336
-0.003159478139838223,0.008777934223302994
-0.003159308139838223,0.008679193550038723
-0.003159138139838223,0.008350057972493751
-0.003158968139838223,0.007889268163929951
-0.003158798139838223,0.007856354606174017
-0.003158628139838223,0.007099342777820581
-0.003158458139838223,0.006868947873538681
-0.003158288139838223,0.006737293642520513
-0.003158118139838223,0.00677020720027501
-0.003157948139838223,0.006836034315784124
-0.003157778139838223,0.006934774989047795
-0.003157608139838223,0.006934774989047795
-0.003157438139838223,0.006901861431293239
-0.003157268139838223,0.007099342777820162
-0.003157098139838223,0.006868947873538681
-0.003156928139838223,0.006868947873538681
-0.003156758139838223,0.006408158064976439
-0.003156588139838223,0.007263910566593366
-0.003156418139838223,0.007198083451084253
-0.003156248139838223,0.0073297376821026
-0.003156078139838223,0.007395564797611595
-0.003155908139838223,0.00802092239494818
-0.003155738139838223,0.00769178681740219
-0.003155568139838223,0.007461391913120709
-0.003155398139838223,0.007856354606175394
-0.003155228139838223,0.008152576625967188
-0.003155058139838223,0.008580452876775651
-0.003154888139838223,0.009436205378394135
-0.003154718139838223,0.009304551147376147
-0.003154548139838223,0.009896995186957936
-0.003154378139838223,0.009600773167166921
-0.003154208139838223,0.01002864941797538
-0.003154038139838223,0.009929908744712493
-0.003153868139838223,0.01009447653348528
-0.003153698139838223,0.01058817989980274
-0.003153528139838223,0.01032487143776718
-0.003153358139838223,0.01065400701531275
-0.003153188139838223,0.01075274768857624
-0.003153018139838223,0.01042361211103085
-0.003152848139838223,0.01029195788001262
-0.003152678139838223,0.009962822302467648
-0.003152508139838223,0.009403291820639578
-0.003152338139838223,0.008646279992284765
-0.003152168139838223,0.008350057972494291
-0.003151998139838223,0.008284230856984636
-0.003151828139838223,0.007658873259648051
-0.003151658139838223,0.007230997008839587
-0.003151488139838223,0.007033515662311467
-0.003151318139838223,0.006276503833956653
-0.003151148139838223,0.006046108929675172
-0.003150978139838223,0.005947368256411082
-0.003150808139838223,0.00653981229599311
-0.003150638139838223,0.00653981229599311
-0.003150468139838223,0.006868947873538681
-0.003150298139838223,0.006737293642520453
-0.003150128139838223,0.00677020720027501
-0.003149958139838223,0.006441071622729439
-0.003149788139838223,0.00677020720027501
-0.003149618139838223,0.006408158064974882
-0.003149448139838223,0.005354924216829054
-0.003149278139838223,0.004927047966019811
-0.003149108139838223,0.004466258157456012
-0.003148938139838223,0.004202949695419555
-0.003148768139838223,0.004071295464401327
-0.003148598139838223,0.004235863253174112
-0.003148428139838223,0.004795393735000206
-0.003148258139838223,0.00403838190664677
-0.003148088139838223,0.00482830729275614
-0.003147918139838223,0.004894134408265674
-0.003147748139838223,0.005124529312547154
-0.003147578139838223,0.004992875081528926
-0.003147408139838223,0.00505870219703804
-0.003147238139838223,0.00505870219703804
-0.003147068139838223,0.00482830729275614
-0.003146898139838223,0.004795393735001104
-0.003146728139838223,0.004532085272965126
-0.003146558139838223,0.004235863253174112
-0.003146388139838223,0.004499171715211228
-0.003146218139838223,0.004861220850510698
-0.003146048139838223,0.005091615754792597
-0.003145878139838223,0.005058702197038399
-0.003145708139838223,0.005256183543565383
-0.003145538139838223,0.005716973352129182
-0.003145368139838223,0.005684059794374625
-0.003145198139838223,0.005684059794374625
-0.003145028139838223,0.00574988690988374
-0.003144858139838223,0.005585319121110954
-0.003144688139838223,0.005585319121110954
-0.003144518139838223,0.005815714025392853
-0.003144348139838223,0.005585319121111433
-0.003144178139838223,0.005848627583147411
-0.003144008139838223,0.005782800467638296
-0.003143838139838223,0.005552405563356816
-0.003143668139838223,0.005453664890092726
-0.003143498139838223,0.005190356428056269
-0.003143328139838223,0.005749886909882722
-0.003143158139838223,0.00607902248742931
-0.003142988139838223,0.00630941739171121
-0.003142818139838223,0.006737293642519675
-0.003142648139838223,0.00700060210455691
-0.003142478139838223,0.007461391913120709
-0.003142308139838223,0.007428478355366212
-0.003142138139838223,0.007593046144138938
-0.003141968139838223,0.007099342777820581
-0.003141798139838223,0.00759304614413804
-0.003141628139838223,0.007625959701893495
-0.003141458139838223,0.007494305470875266
-0.003141288139838223,0.007099342777821299
-0.003141118139838223,0.006408158064974882
-0.003140948139838223,0.006111936045183867
-0.003140778139838223,0.00512452931254895
-0.003140608139838223,0.004959961523774369
-0.003140438139838223,0.004795393735001583
-0.003140268139838223,0.004170036137666136
-0.003140098139838223,0.003544678540328413
-0.003139928139838223,0.002886407385237271
-0.003139758139838223,0.002491444692182586
-0.003139588139838223,0.002096481999127901
-0.003139418139838223,0.002063568441373343
-0.003139248139838223,0.001569865075054987
-0.003139078139838223,0.001339470170773087
-0.003138908139838223,0.001141988824245744
-0.003138738139838223,0.0006811990156819448
-0.003138568139838223,0.0005495447846637165
-0.003138398139838223,0.000714112573436502
-0.003138228139838223,0.0005166312269091594
-0.003138058139838223,0.0006811990156824238
-0.003137888139838223,0.0009445074777184018
-0.003137718139838223,0.001141988824245744
-0.003137548139838223,0.001372383728528303
-0.003137378139838223,0.001734432863827772
-0.003137208139838223,0.002063568441373343
-0.003137038139838223,0.001833173537093
-0.003136868139838223,0.002688926038709928
-0.003136698139838223,0.002425617576673472
-0.003136528139838223,0.002853493827483851
-0.003136358139838223,0.003478851424819299
-0.003136188139838223,0.003775073444610313
-0.003136018139838223,0.003775073444611271
-0.003135848139838223,0.004301690368683227
-0.003135678139838223,0.00482830729275614
-0.003135508139838223,0.005256183543565443
-0.003135338139838223,0.00528909710131994
-0.003135168139838223,0.006901861431293239
-0.003134998139838223,0.006506898738238493
-0.003134828139838223,0.006473985180483996
-0.003134658139838223,0.007165169893329695
-0.003134488139838223,0.007329737682103259
-0.003134318139838223,0.007757613932911723
-0.003134148139838223,0.008053835952702737
-0.003133978139838223,0.008152576625967307
-0.003133808139838223,0.008646279992284765
-0.003133638139838223,0.008843761338812107
-0.003133468139838223,0.009008329127584593
-0.003133298139838223,0.009172896916357679
-0.003133128139838223,0.009403291820639578
-0.003132958139838223,0.009304551147376088
-0.003132788139838223,0.00881084778105755
-0.003132618139838223,0.009139983358603122
-0.003132448139838223,0.008843761338812647
-0.003132278139838223,0.008843761338812107
-0.003132108139838223,0.00904124268533945
-0.003131938139838223,0.009172896916357439
-0.003131768139838223,0.009205810474112236
-0.003131598139838223,0.008547539319021094
-0.003131428139838223,0.008843761338811568
-0.003131258139838223,0.008415885088002865
-0.003131088139838223,0.008679193550039321
-0.003130918139838223,0.00821840374147636
-0.003130748139838223,0.008514625761266537
-0.003130578139838223,0.007724700375157166
-0.003130408139838223,0.007296824124348702
-0.003130238139838223,0.00630941739171121
-0.003130068139838223,0.005486578447847282
-0.003129898139838223,0.00479539373500284
-0.003129728139838223,0.003906727675628541
-0.003129558139838223,0.003248456520537399
-0.003129388139838223,0.002425617576674968
-0.003129218139838223,0.001438210844036758
-0.003129048139838223,0.0004837176691546022
-0.003128878139838223,-0.0003062077169547683
-0.003128708139838223,-0.0009644788720459105
-0.003128538139838223,-0.001622750027137053
-0.003128368139838223,-0.002281021182228195
-0.003128198139838223,-0.002248107624473638
-0.003128028139838223,-0.003202600799355794
-0.003127858139838223,-0.002313934739982752
-0.003127688139838223,-0.002182280508963685
-0.003127518139838223,-0.001721490700400724
-0.003127348139838223,-0.001096133103064139
-0.003127178139838223,-0.0003720348324617871
-0.003127008139838223,0.0007799396889456162
-0.003126838139838223,0.001372383728527644
-0.003126668139838223,0.002162309114638871
-0.003126498139838223,0.003182629405028285
-0.003126328139838223,0.004170036137664999
-0.003126158139838223,0.005256183543565682
-0.003125988139838223,0.005420751332338168
-0.003125818139838223,0.006177763160692982
-0.003125648139838223,0.007066429220066562
-0.003125478139838223,0.007362651239857037
-0.003125308139838223,0.00779052749066628
-0.003125138139838223,0.008020922394948119
-0.003124968139838223,0.007988008837193623
-0.003124798139838223,0.007988008837193623
-0.003124628139838223,0.007955095279437569
-0.003124458139838223,0.007132256335575138
-0.003124288139838223,0.006704380084765896
-0.003124118139838223,0.006046108929673137
-0.003123948139838223,0.005157442870301712
-0.003123778139838223,0.004466258157456012
-0.003123608139838223,0.003643419213591067
-0.003123438139838223,0.003083888731764614
-0.003123268139838223,0.001471124401791315
-0.003123098139838223,0.001569865075054807
-0.003122928139838223,0.001635692190564101
-0.003122758139838223,0.001174902382000301
-0.003122588139838223,0.001109075266491307
-0.003122418139838223,0.0003520634381363738
-0.003122248139838223,0.000714112573436502
-0.003122078139838223,0.0008786803622089882
-0.003121908139838223,0.00130655661301853
-0.003121738139838223,0.001701519306073215
-0.003121568139838223,0.00235979046116316
-0.003121398139838223,0.0027876667119736
-0.003121228139838223,0.003676332771346642
-0.003121058139838223,0.004729566619490553
-0.003120888139838223,0.005157442870301712
-0.003120718139838223,0.006276503833956653
-0.003120548139838223,0.007066429220064586
-0.003120378139838223,0.007856354606175394
-0.003120208139838223,0.008679193550039321
-0.003120038139838223,0.008810847781057311
-0.003119868139838223,0.009205810474112236
-0.003119698139838223,0.009403291820639578
-0.003119528139838223,0.009074156243094605
-0.003119358139838223,0.008580452876775651
-0.003119188139838223,0.008580452876775651
-0.003119018139838223,0.008284230856985176
-0.003118848139838223,0.007691786817402609
-0.003118678139838223,0.00700060210455691
-0.003118508139838223,0.006473985180483996
-0.003118338139838223,0.006013195371920196
-0.003118168139838223,0.00607902248742931
-0.003117998139838223,0.005848627583147411
-0.003117828139838223,0.005881541140901968
-0.003117658139838223,0.005848627583147411
-0.003117488139838223,0.006441071622729439
-0.003117318139838223,0.006177763160692982
-0.003117148139838223,0.006375244507220324
-0.003116978139838223,0.006276503833956653
-0.003116808139838223,0.006144849602937707
-0.003116638139838223,0.00574988690988374
-0.003116468139838223,0.00528909710131994
-0.003116298139838223,0.006704380084760448
-0.003116128139838223,0.003709246329101199
-0.003115958139838223,0.004630825946228797
-0.003115788139838223,0.004959961523773292
-0.003115618139838223,0.004367517484192341
-0.003115448139838223,0.004137122579910441
-0.003115278139838223,0.004137122579910261
-0.003115108139838223,0.00403838190664677
-0.003114938139838223,0.003939641233383098
-0.003114768139838223,0.003742159886856115
-0.003114598139838223,0.003939641233383098
-0.003114428139838223,0.003544678540328413
-0.003114258139838223,0.003215542962782782
-0.003114088139838223,0.003182629405028285
-0.003113918139838223,0.002623098923200814
-0.003113748139838223,0.002359790461165794
-0.003113578139838223,0.003149715847273728
-0.003113408139838223,0.003182629405028285
-0.003113238139838223,0.002853493827482235
-0.003113068139838223,0.002590185365446257
-0.003112898139838223,0.002919320942991828
-0.003112728139838223,0.003248456520536441
-0.003112558139838223,0.002721839596464486
-0.003112388139838223,0.002524358249937143
-0.003112218139838223,0.002721839596464127
-0.003112048139838223,0.003182629405028285
-0.003111878139838223,0.002919320942991828
-0.003111708139838223,0.00301806161625532
-0.003111538139838223,0.003380110751555628
-0.003111368139838223,0.003314283636046514
-0.003111198139838223,0.003083888731765033
-0.003111028139838223,0.004005468348892213
-0.003110858139838223,0.003149715847273728
-0.003110688139838223,0.003511764982573198
-0.003110518139838223,0.003610505655837527
-0.003110348139838223,0.003281370078291956
-0.003110178139838223,0.003380110751555448
-0.003110008139838223,0.003215542962782842
-0.003109838139838223,0.003413024309310185
-0.003109668139838223,0.00334719719380119
-0.003109498139838223,0.003083888731764614
-0.003109328139838223,0.003840900560119427
-0.003109158139838223,0.004466258157454875
-0.003108988139838223,0.004992875081528926
-0.003108818139838223,0.00528909710131994
-0.003108648139838223,0.00551949200560142
-0.003108478139838223,0.005025788639283483
-0.003108308139838223,0.004959961523774369
-0.003108138139838223,0.004334603926438921
-0.003107968139838223,0.004071295464401327
-0.003107798139838223,0.003544678540328413
-0.003107628139838223,0.003050975174010056
-0.003107458139838223,0.002656012480955371
-0.003107288139838223,0.002721839596464486
-0.003107118139838223,0.002721839596464486
-0.003106948139838223,0.003050975174010056
-0.003106778139838223,0.003083888731764614
-0.003106608139838223,0.003610505655837527
-0.003106438139838223,0.004762480177248464
-0.003106268139838223,0.005552405563356397
-0.003106098139838223,0.00700060210455691
-0.003105928139838223,0.007527219028631141
-0.003105758139838223,0.008251317299230079
-0.003105588139838223,0.008909588454321223
-0.003105418139838223,0.009139983358603901
-0.003105248139838223,0.009567859609412364
-0.003105078139838223,0.009370378262885021
-0.003104908139838223,0.009074156243093169
-0.003104738139838223,0.008613366434530208
-0.003104568139838223,0.00811966306821185
-0.003104398139838223,0.006473985180483696
-0.003104228139838223,0.00630941739171121
-0.003104058139838223,0.006013195371920196
-0.003103888139838223,0.005387837774582054
-0.003103718139838223,0.004532085272965126
-0.003103548139838223,0.004005468348892213
-0.003103378139838223,0.00338011075155449
-0.003103208139838223,0.002754753154219042
-0.003103038139838223,0.0023268769034098
-0.003102868139838223,0.002326876903408902
-0.003102698139838223,0.001833173537091444
-0.003102528139838223,0.001010334593227516
-0.003102358139838223,0.001569865075054867
-0.003102188139838223,0.001504037959545873
-0.003102018139838223,0.001438210844036758
-0.003101848139838223,0.001635692190563742
-0.003101678139838223,0.001833173537091444
-0.003101508139838223,0.0023268769034098
-0.003101338139838223,0.002392704018918795
-0.003101168139838223,0.003281370078291956
-0.003100998139838223,0.003906727675628541
-0.003100828139838223,0.003610505655838066
-0.003100658139838223,0.003413024309310185
-0.003100488139838223,0.00357759209808297
-0.003100318139838223,0.003182629405029004
-0.003100148139838223,0.003380110751555628
-0.003099978139838223,0.002853493827482714
-0.003099808139838223,0.003116802289518692
-0.003099638139838223,0.002721839596464486
-0.003099468139838223,0.002293963345655243
-0.003099298139838223,0.001866087094846779
-0.003099128139838223,0.001043248150982073
-0.003098958139838223,0.0008786803622092876
-0.003098788139838223,0.0004178905536463262
-0.003098618139838223,0.0002204092071181454
-0.003098448139838223,0.0005166312269091594
-0.003098278139838223,0.0009115939199631261
-0.003098108139838223,0.001504037959545873
-0.003097938139838223,0.001504037959545873
-0.003097768139838223,0.001800259979336348
-0.003097598139838223,0.002129395556882458
-0.003097428139838223,0.002425617576673472
-0.003097258139838223,0.003050975174010056
-0.003097088139838223,0.003906727675628541
-0.003096918139838223,0.004762480177247026
-0.003096748139838223,0.005716973352129182
-0.003096578139838223,0.006506898738238553
-0.003096408139838223,0.007132256335575138
-0.003096238139838223,0.007362651239857037
-0.003096068139838223,0.007922181721684508
-0.003095898139838223,0.008152576625966409
-0.003095728139838223,0.008547539319021094
-0.003095558139838223,0.008185490183720426
-0.003095388139838223,0.007889268163929951
-0.003095218139838223,0.007428478355366152
-0.003095048139838223,0.007263910566590911
-0.003094878139838223,0.005914454698656525
-0.003094708139838223,0.006177763160692982
-0.003094538139838223,0.005980281814165579
-0.003094368139838223,0.005947368256411082
-0.003094198139838223,0.005585319121110954
-0.003094028139838223,0.005749886909884757
-0.003093858139838223,0.00630941739171121
-0.003093688139838223,0.006375244507220324
-0.003093518139838223,0.006276503833956114
-0.003093348139838223,0.005980281814165639
-0.003093178139838223,0.005980281814165639
-0.003093008139838223,0.005782800467638955
-0.003092838139838223,0.006144849602938425
-0.003092668139838223,0.006243590276202096
-0.003092498139838223,0.005980281814164322
-0.003092328139838223,0.005256183543565383
-0.003092158139838223,0.005223269985810825
-0.003091988139838223,0.005190356428055371
-0.003091818139838223,0.004696653061737912
-0.003091648139838223,0.004630825946228797
-0.003091478139838223,0.004663739503983954
-0.003091308139838223,0.004992875081528926
