Analysis/New Tests_CMB/wrd01_d2s01_new/cmb06_ch28.csv

#Digilent WaveForms Oscilloscope Acquisition
#Device Name: ADP3450
#Serial Number: SN:210018B9D9B0
#Date Time: 2024-08-14 15:46:42.115.690.220
#Sample rate: 5.88235e+06Hz
#Samples: 32768
#Trigger: Source: Channel 3 Type: Edge Condition: Rising Level: 60 mV Hyst.: Auto HoldOff: 0 s
#Channel 3: Range: 100 mV/div Offset: 0 V Attenuation: 1 X Coupling: DC Bandwidth: 0 Hz Sample Mode: Average

Time (s),Channel 3 (V)
-0.003798416415900904,0.2057984909420818
-0.003798246415900903,0.2196221851990409
-0.003798076415900903,0.2320305964725008
-0.003797906415900903,0.2422008858186377
-0.003797736415900903,0.250857151508084
-0.003797566415900904,0.2582627020028458
-0.003797396415900904,0.263528871243575
-0.003797226415900903,0.2674784981741318
-0.003797056415900903,0.2702103234677546
-0.003796886415900903,0.2714610386624242
-0.003796716415900903,0.2719876555864956
-0.003796546415900904,0.2716585200089506
-0.003796376415900904,0.2702761505832592
-0.003796206415900903,0.2678405473094131
-0.003796036415900903,0.2654049440355736
-0.003795866415900903,0.2623439831644051
-0.003795696415900903,0.2591513680622129
-0.003795526415900904,0.2558600122867632
-0.003795356415900904,0.2513837684321434
-0.003795186415900903,0.2484544617919735
-0.003795016415900903,0.2445048348614255
-0.003794846415900903,0.2402589859110973
-0.003794676415900903,0.2370663708089049
-0.003794506415900904,0.2336762743601917
-0.003794336415900904,0.2298912152184176
-0.003794166415900904,0.2265340323274589
-0.003793996415900903,0.2229793680899466
-0.003793826415900903,0.2191284818326716
-0.003793656415900903,0.2159029531727252
-0.003793486415900904,0.2128090787438025
-0.003793316415900904,0.209353155179574
-0.003793146415900904,0.2063580214239147
-0.003792976415900903,0.2032970605527245
-0.003792806415900903,0.2002690132393098
-0.003792636415900903,0.1967143490018184
-0.003792466415900904,0.1936204745728957
-0.003792296415900904,0.1925672407247499
-0.003792126415900904,0.1877289477348388
-0.003791956415900903,0.184240110612835
-0.003791786415900903,0.1809487548373852
-0.003791616415900903,0.1776573990619296
-0.003791446415900904,0.1744318704019889
-0.003791276415900904,0.1714038230885697
-0.003791106415900904,0.1681782944286289
-0.003790936415900903,0.164854025095401
-0.003790766415900903,0.1616284964354607
-0.003790596415900903,0.1586004491220397
-0.003790426415900904,0.1546508221915001
-0.003790256415900904,0.1520177375711355
-0.003790086415900904,0.1488909495844526
-0.003789916415900903,0.1462907785218334
-0.003789746415900903,0.143756434574736
-0.003789576415900903,0.1406296465880539
-0.003789406415900903,0.1379307348521851
-0.003789236415900904,0.1348368604232567
-0.003789066415900904,0.132137948687383
-0.003788896415900903,0.129735258971293
-0.003788726415900903,0.1276946183905145
-0.003788556415900903,0.1258514591562594
-0.003788386415900903,0.1240741270375131
-0.003788216415900904,0.1221651406877522
-0.003788046415900904,0.1211119068396064
-0.003787876415900903,0.1202232407802295
-0.003787706415900903,0.1191700069320855
-0.003787536415900903,0.1180509459684306
-0.003787366415900903,0.1169647985625299
-0.003787196415900904,0.1156811698101045
-0.003787026415900904,0.1144304546154313
-0.003786856415900903,0.1131139123052448
-0.003786686415900903,0.1119619377838325
-0.003786516415900903,0.1100200378763166
-0.003786346415900903,0.1077819159490084
-0.003786176415900904,0.1064653736388285
-0.003786006415900904,0.1045563872890642
-0.003785836415900903,0.1026144873815368
-0.003785666415900903,0.1002776247809656
-0.003785496415900903,0.09859903333548597
-0.003785326415900903,0.09675587410123061
-0.003785156415900904,0.09481397419371526
-0.003784986415900904,0.09339869121026931
-0.003784816415900903,0.09145679130274255
-0.003784646415900903,0.08928449649094179
-0.003784476415900903,0.08711220167914507
-0.003784306415900903,0.08500573398285347
-0.003784136415900904,0.08293217984432016
-0.003783966415900904,0.0812206748410832
-0.003783796415900904,0.07934460204907684
-0.003783626415900903,0.07825845464316802
-0.003783456415900903,0.07687608521747961
-0.003783286415900903,0.07575702425382504
-0.003783116415900904,0.07483544463669911
-0.003782946415900904,0.07355181588427137
-0.003782776415900904,0.07532914800301423
-0.003782606415900903,0.07131369395696126
-0.003782436415900903,0.07124786684145028
-0.003782266415900903,0.0700958923200415
-0.003782096415900904,0.06933888049168807
-0.003781926415900904,0.06887809068312428
-0.003781756415900904,0.0684173008745613
-0.003781586415900903,0.0678906839504872
-0.003781416415900903,0.06779194327722261
-0.003781246415900903,0.06710075856437873
-0.003781076415900904,0.06739698058416921
-0.003780906415900904,0.0664754009670416
-0.003780736415900904,0.06578421625419716
-0.003780566415900903,0.06509303154134626
-0.003780396415900903,0.0640068841354481
-0.003780226415900903,0.06305239096056545
-0.003780056415900904,0.06183458932364905
-0.003779886415900904,0.06028765210918487
-0.003779716415900904,0.05916859114552993
-0.003779546415900903,0.05791787595085268
-0.003779376415900903,0.05679881498719965
-0.003779206415900903,0.05561392690803584
-0.003779036415900904,0.05456069305989193
-0.003778866415900904,0.05337580498072787
-0.003778696415900904,0.05275044738339129
-0.003778526415900903,0.05215800334380758
-0.003778356415900903,0.05169721353524313
-0.003778186415900903,0.05041358478281623
-0.003778016415900903,0.04959074583895297
-0.003777846415900904,0.04912995603039001
-0.003777676415900904,0.04781341372020773
-0.003777506415900903,0.04718805612286815
-0.003777336415900903,0.04636521717900607
-0.003777166415900903,0.04573985958166817
-0.003776996415900903,0.04439040371373384
-0.003776826415900904,0.04442331727148834
-0.003776656415900904,0.04386378678966087
-0.003776486415900903,0.04281055294151516
-0.003776316415900903,0.04284346649926637
-0.003776146415900903,0.04195480043989476
-0.003775976415900903,0.04096739370725925
-0.003775806415900904,0.04063825812971427
-0.003775636415900904,0.0403091225521687
-0.003775466415900903,0.04017746832115131
-0.003775296415900903,0.04040786322543154
-0.003775126415900903,0.04017746832114982
-0.003774956415900903,0.03981541918585071
-0.003774786415900904,0.04001290053237769
-0.003774616415900904,0.04014455476339591
-0.003774446415900903,0.03984833274360406
-0.003774276415900903,0.03961793783932337
-0.003774106415900903,0.03971667851258506
-0.003773936415900903,0.03882801245321393
-0.003773766415900904,0.03899258024198642
-0.003773596415900904,0.03856470399117717
-0.003773426415900904,0.0395191971660576
-0.003773256415900903,0.03836722264464468
-0.003773086415900903,0.0369519396612016
-0.003772916415900903,0.03570122446652927
-0.003772746415900904,0.03491129908042134
-0.003772576415900904,0.03477964484940311
-0.003772406415900904,0.03454924994512162
-0.003772236415900903,0.03477964484940047
-0.003772066415900903,0.03405554657880273
-0.003771896415900903,0.03398971946329326
-0.003771726415900904,0.03372641100125728
-0.003771556415900904,0.03316688051942981
-0.003771386415900904,0.03375932455901076
-0.003771216415900903,0.03323270763493868
-0.003771046415900903,0.03316688051942885
-0.003770876415900903,0.03264026359535492
-0.003770706415900904,0.03155411618945651
-0.003770536415900904,0.0312578941696655
-0.003770366415900904,0.03043505522580307
-0.003770196415900903,0.02941473493540527
-0.003770026415900903,0.02803236550971806
-0.003769856415900903,0.027571575701153
-0.003769686415900904,0.0264196011797456
-0.003769516415900904,0.0261892062754637
-0.003769346415900904,0.0250372317540542
-0.003769176415900903,0.02464226906099952
-0.003769006415900903,0.02464226906099976
-0.003768836415900903,0.02477392329201727
-0.003768666415900904,0.02451061482998129
-0.003768496415900904,0.0248068368497723
-0.003768326415900904,0.02533345377384522
-0.003768156415900903,0.02503723175405516
-0.003767986415900903,0.02530054021609144
-0.003767816415900903,0.02572841646690038
-0.003767646415900903,0.0259917249289372
-0.003767476415900904,0.02645251473750016
-0.003767306415900904,0.02661708252627295
-0.003767136415900903,0.02707787233483471
-0.003766966415900903,0.02651834185300874
-0.003766796415900903,0.02622211983321814
-0.003766626415900903,0.02615629271770843
-0.003766456415900904,0.02576133002465446
-0.003766286415900904,0.02576133002465446
-0.003766116415900903,0.02503723175405504
-0.003765946415900903,0.02526762665833323
-0.003765776415900903,0.02447770127222727
-0.003765606415900903,0.02477392329201673
-0.003765436415900904,0.02421439281019028
-0.003765266415900904,0.02401691146366293
-0.003765096415900903,0.02368777588611521
-0.003764926415900903,0.0230953318465345
-0.003764756415900903,0.02286493694225254
-0.003764586415900903,0.02237123357593424
-0.003764416415900904,0.02191044376737128
-0.003764246415900904,0.02131799972778925
-0.003764076415900903,0.02089012347696576
-0.003763906415900903,0.01697341010419992
-0.003763736415900903,0.02033059299515122
-0.003763566415900903,0.01960649472455132
-0.003763396415900904,0.01907987780047937
-0.003763226415900904,0.01812538462559721
-0.003763056415900904,0.01799373039457922
-0.003762886415900903,0.01736837279723976
-0.003762716415900903,0.0166442745266407
-0.003762546415900903,0.01585434914053265
-0.003762376415900904,0.01578852202502366
-0.003762206415900904,0.01513025086993251
-0.003762036415900904,0.01499859663891453
-0.003761866415900903,0.01437323904157854
-0.003761696415900903,0.01460363394586032
-0.003761526415900903,0.0149985966389162
-0.003761356415900904,0.01605183048706011
-0.003761186415900904,0.01588726269828733
-0.003761016415900904,0.01690758298867674
-0.003760846415900903,0.01763168125928101
-0.003760676415900903,0.01822412529886244
-0.003760506415900903,0.01907987780048033
-0.003760336415900904,0.01960649472455228
-0.003760166415900904,0.02023185232188887
-0.003759996415900904,0.02049516078392484
-0.003759826415900903,0.02115343193901886
-0.003759656415900903,0.02181170309410791
-0.003759486415900903,0.02197627088288159
-0.003759316415900904,0.02263454203797154
-0.003759146415900904,0.02306241828878078
-0.003758976415900904,0.02266745559572681
-0.003758806415900903,0.02233832001817968
-0.003758636415900903,0.02210792511389724
-0.003758466415900903,0.02135091328554255
-0.003758296415900904,0.02065972857269811
-0.003758126415900904,0.02026476587964342
-0.003757956415900904,0.01957358116679772
-0.003757786415900903,0.01871782866517529
-0.003757616415900903,0.01763168125927825
-0.003757446415900903,0.01730254568173209
-0.003757276415900903,0.01664427452664106
-0.003757106415900904,0.01605183048706011
-0.003756936415900904,0.01572269490951454
-0.003756766415900903,0.01549230000523073
-0.003756596415900903,0.01496568308115973
-0.003756426415900903,0.01496568308115979
-0.003756256415900903,0.01499859663891453
-0.003756086415900904,0.01513025086993251
-0.003755916415900904,0.01595308981379644
-0.003755746415900903,0.01588726269828937
-0.003755576415900903,0.01644679318011671
-0.003755406415900903,0.01697341010418801
-0.003755236415900903,0.01713797789296038
-0.003755066415900904,0.01707215077745139
-0.003754896415900904,0.01661136096888758
-0.003754726415900903,0.01657844741113841
-0.003754556415900903,0.01805955751008558
-0.003754386415900903,0.01736837279723988
-0.003754216415900903,0.01598600337154962
-0.003754046415900904,0.01522899154319619
-0.003753876415900904,0.01509733731217796
-0.003753706415900903,0.01489985596565133
-0.003753536415900903,0.01509733731217736
-0.003753366415900903,0.01493276952340607
-0.003753196415900903,0.01542647288972341
-0.003753026415900904,0.01536064577421441
-0.003752856415900904,0.01568978135175999
-0.003752686415900904,0.0155252135629875
-0.003752516415900903,0.01532773221646046
-0.003752346415900903,0.01549230000523252
-0.003752176415900903,0.01542647288972377
-0.003752006415900904,0.01555812712074176
-0.003751836415900904,0.01526190510095074
-0.003751666415900904,0.01549230000523222
-0.003751496415900903,0.01499859663891357
-0.003751326415900903,0.01480111529238682
-0.003751156415900903,0.01473528817687759
-0.003750986415900904,0.0146036339458596
-0.003750816415900904,0.01470237461912327
-0.003750646415900904,0.01493276952340475
-0.003750476415900903,0.01506442375442256
-0.003750306415900903,0.01483402885014216
-0.003750136415900903,0.01519607798544085
-0.003749966415900904,0.01476820173463239
-0.003749796415900904,0.01434032548382314
-0.003749626415900904,0.01407701702178717
-0.003749456415900903,0.01420867125280552
-0.003749286415900903,0.01437323904157776
-0.003749116415900903,0.01440615259933268
-0.003748946415900904,0.01463654750361416
-0.003748776415900904,0.01457072038810504
-0.003748606415900904,0.01493276952340451
-0.003748436415900903,0.01536064577421753
-0.003748266415900903,0.01621639827583326
-0.003748096415900903,0.01641387962236024
-0.003747926415900904,0.01641387962236024
-0.003747756415900904,0.01694049654643316
-0.003747586415900904,0.01746711347050607
-0.003747416415900903,0.01730254568173388
-0.003747246415900903,0.01746711347050679
-0.003747076415900903,0.01786207616356063
-0.003746906415900903,0.01779624904805164
-0.003746736415900904,0.01733545923948784
-0.003746566415900904,0.01766459481703341
-0.003746396415900903,0.01710506433520534
-0.003746226415900903,0.01694049654643303
-0.003746056415900903,0.01687466943092398
-0.003745886415900903,0.01684175587316793
-0.003745716415900904,0.015986003371551
-0.003745546415900904,0.01585434914053277
-0.003745376415900903,0.01572269490951287
-0.003745206415900903,0.01526190510094512
-0.003745036415900903,0.01371496788648889
-0.003744866415900903,0.01499859663891189
-0.003744696415900904,0.013682054328732
-0.003744526415900904,0.01509733731217796
-0.003744356415900903,0.01447197971484173
-0.003744186415900903,0.01457072038810684
-0.003744016415900903,0.01506442375442268
-0.003743846415900903,0.01466946106137051
-0.003743676415900904,0.01565686779400543
-0.003743506415900904,0.01555812712074176
-0.003743336415900903,0.01542647288972401
-0.003743166415900903,0.01555812712074738
-0.003742996415900903,0.01710506433520582
-0.003742826415900903,0.01703923721969808
-0.003742656415900904,0.01773042193254253
-0.003742486415900904,0.01789498972131531
-0.003742316415900903,0.01789498972131603
-0.003742146415900903,0.01809247106784026
-0.003741976415900903,0.01743419991275205
-0.003741806415900903,0.01773042193254216
-0.003741636415900904,0.01753294058601518
-0.003741466415900904,0.01674301519990581
-0.003741296415900904,0.01657844741113332
-0.003741126415900903,0.01598600337155112
-0.003740956415900903,0.0160189169293046
-0.003740786415900903,0.01549230000523169
-0.003740616415900904,0.01496568308115973
-0.003740446415900904,0.0148340288501415
-0.003740276415900904,0.01424158481056055
-0.003740106415900903,0.0134845729822055
-0.003739936415900903,0.01371496788648632
-0.003739766415900903,0.01358331365546839
-0.003739596415900904,0.01361622721322289
-0.003739426415900904,0.01325417807792276
-0.003739256415900904,0.01332000519343175
-0.003739086415900903,0.01335291875118607
-0.003738916415900903,0.01325417807792234
-0.003738746415900903,0.01302378317364074
-0.003738576415900904,0.01295795605813175
-0.003738406415900904,0.01269464759609529
-0.003738236415900904,0.0125300798073228
-0.003738066415900903,0.01246425269181231
-0.003737896415900903,0.01216803067202184
-0.003737726415900903,0.01187180865223118
-0.003737556415900904,0.01177306797896769
-0.003737386415900904,0.01174015442121313
-0.003737216415900904,0.01197054932549503
-0.003737046415900903,0.01226677134528569
-0.003736876415900903,0.01216803067202219
-0.003736706415900903,0.012069289998759
-0.003736536415900903,0.01223385778753149
-0.003736366415900904,0.01220094422977693
-0.003736196415900904,0.0120692899987587
-0.003736026415900903,0.0123325984607972
-0.003735856415900903,0.01289212894262305
-0.003735686415900903,0.01312252384690878
-0.003735516415900903,0.01545938644747749
-0.003735346415900904,0.01513025086993251
-0.003735176415900904,0.0143732390415777
-0.003735006415900903,0.0152619051009523
-0.003734836415900903,0.01568978135176172
-0.003734666415900903,0.01664427452664232
-0.003734496415900903,0.01674301519990713
-0.003734326415900904,0.01746711347050607
-0.003734156415900904,0.01799373039457898
-0.003733986415900903,0.0180924710678417
-0.003733816415900903,0.0178291626058068
-0.003733646415900903,0.01799373039457779
-0.003733476415900903,0.0173354592394876
-0.003733306415900904,0.01720380500846961
-0.003733136415900904,0.01674301519990581
-0.003732966415900903,0.01631513894909525
-0.003732796415900903,0.01595308981379513
-0.003732626415900903,0.01559104067849584
-0.003732456415900903,0.01532773221645974
-0.003732286415900904,0.01526190510095074
-0.003732116415900904,0.01443906615708682
-0.003731946415900903,0.01434032548382278
-0.003731776415900903,0.01424158481055888
-0.003731606415900903,0.01407701702178591
-0.003731436415900903,0.01364914077097745
-0.003731266415900904,0.01364914077097745
-0.003731096415900904,0.01358331365546833
-0.003730926415900904,0.01345165942445034
-0.003730756415900903,0.01358331365546749
-0.003730586415900903,0.01335291875118739
-0.003730416415900903,0.01387953567525815
-0.003730246415900904,0.0132212645201682
-0.003730076415900904,0.013682054328732
-0.003729906415900904,0.01351748653995952
-0.003729736415900903,0.01335291875118607
-0.003729566415900903,0.01325417807792324
-0.003729396415900903,0.01351748653995898
-0.003729226415900904,0.01338583230894099
-0.003729056415900904,0.01358331365546833
-0.003728886415900904,0.0140111899062768
-0.003728716415900903,0.01368205432873272
-0.003728546415900903,0.01387953567525946
-0.003728376415900903,0.01394536279076924
-0.003728206415900904,0.0143732390415777
-0.003728036415900904,0.01404410346403213
-0.003727866415900904,0.01414284413729562
-0.003727696415900903,0.01443906615708777
-0.003727526415900903,0.01470237461912387
-0.003727356415900903,0.01503151019666908
-0.003727186415900904,0.01516316442768707
-0.003727016415900904,0.01536064577421441
-0.003726846415900904,0.01559104067849632
-0.003726676415900903,0.01516316442768575
-0.003726506415900903,0.01480111529238718
-0.003726336415900903,0.01493276952340374
-0.003726166415900904,0.0141428441372958
-0.003725996415900904,0.01325417807792276
-0.003725826415900904,0.01351748653995922
-0.003725656415900903,0.01305669673139374
-0.003725486415900903,0.01259590692283078
-0.003725316415900903,0.01213511711426854
-0.003725146415900903,0.01253007980732238
-0.003724976415900904,0.01246425269181339
-0.003724806415900904,0.0118388950944768
-0.003724636415900903,0.01203637644100403
-0.003724466415900903,0.01200346288325037
-0.003724296415900903,0.01243133913405775
-0.003724126415900903,0.01183889509447728
-0.003723956415900904,0.01210220355651326
-0.003723786415900904,0.01216803067202238
-0.003723616415900903,0.01187180865223196
-0.003723446415900903,0.01203637644100391
-0.003723276415900903,0.01197054932549485
-0.003723106415900903,0.01187180865223196
-0.003722936415900904,0.01220094422977693
-0.003722766415900904,0.0120692899987587
-0.003722596415900903,0.01266173403833822
-0.003722426415900903,0.01197054932549467
-0.003722256415900903,0.01187180865223226
-0.003722086415900903,0.01236551201854978
-0.003721916415900904,0.01239842557630427
-0.003721746415900904,0.01170724086345858
-0.003721576415900903,0.01167432730570306
-0.003721406415900903,0.01141101884366648
-0.003721236415900903,0.01111479682387721
-0.003721066415900903,0.01147684595917662
-0.003720896415900904,0.01144393240142212
-0.003720726415900904,0.01147684595917668
-0.003720556415900904,0.01170724086345816
-0.003720386415900903,0.01164141374794922
-0.003720216415900903,0.01157558663244089
-0.003720046415900903,0.01187180865223232
-0.003719876415900904,0.01239842557630427
-0.003719706415900904,0.01266173403834073
-0.003719536415900904,0.01328709163567618
-0.003719366415900903,0.013714967886488
-0.003719196415900903,0.01410993057954166
-0.003719026415900903,0.01434032548382404
-0.003718856415900904,0.0148340288501415
