Analysis/New Tests_CMB/wrd01_d2s01_new/cmb02_ch42.csv

#Digilent WaveForms Oscilloscope Acquisition
#Device Name: ADP3450
#Serial Number: SN:210018B9D9B0
#Date Time: 2024-08-14 16:44:19.406.946.940
#Sample rate: 5.88235e+06Hz
#Samples: 32768
#Trigger: Source: Channel 3 Type: Edge Condition: Rising Level: 60 mV Hyst.: Auto HoldOff: 0 s
#Channel 3: Range: 100 mV/div Offset: 0 V Attenuation: 1 X Coupling: DC Bandwidth: 0 Hz Sample Mode: Average

Time (s),Channel 3 (V)
-0.003798399194719665,0.2090240196020284
-0.003798229194719665,0.2222552698193814
-0.003798059194719665,0.2338079285912099
-0.003797889194719665,0.2428262434159586
-0.003797719194719665,0.2520749531450011
-0.003797549194719665,0.2586576646959006
-0.003797379194719665,0.2642858830719298
-0.003797209194719665,0.2683342506757455
-0.003797039194719665,0.2711319030848777
-0.003796869194719665,0.2727117538570965
-0.003796699194719665,0.2731725436656589
-0.003796529194719665,0.2724155318373054
-0.003796359194719665,0.270736940391823
-0.003796189194719665,0.2688608675998077
-0.003796019194719665,0.2657999067286395
-0.003795849194719665,0.2626402051842019
-0.003795679194719665,0.2591184545044576
-0.003795509194719665,0.2553992224781994
-0.003795339194719665,0.2516470768941799
-0.003795169194719665,0.24773036352138
-0.003794999194719665,0.2435503416865588
-0.003794829194719665,0.2390740978319391
-0.003794659194719665,0.2355194335944534
-0.003794489194719665,0.2313394117596181
-0.003794319194719665,0.2269289950205075
-0.003794149194719665,0.2233414172252673
-0.003793979194719665,0.219457617410223
-0.003793809194719665,0.2161004345192582
-0.003793639194719665,0.2120849804732095
-0.003793469194719665,0.2087936246977465
-0.003793299194719665,0.2054364418067817
-0.003793129194719665,0.20161846910726
-0.003792959194719665,0.1984587675628156
-0.003792789194719665,0.1953319795761327
-0.003792619194719665,0.1919089695696649
-0.003792449194719665,0.1888809222562395
-0.003792279194719665,0.1858528749428202
-0.003792109194719665,0.1828906547449155
-0.003791939194719665,0.1802904836823001
-0.003791769194719665,0.1776244855041809
-0.003791599194719665,0.1745635246330127
-0.003791429194719665,0.1723583162634518
-0.003791259194719665,0.1687707384682051
-0.003791089194719665,0.1660718267323363
-0.003790919194719665,0.1627475573991211
-0.003790749194719665,0.1595549422969291
-0.003790579194719665,0.1568231170033058
-0.003790409194719665,0.1538938103631453
-0.003790239194719665,0.1509315901652351
-0.003790069194719665,0.1480681106405887
-0.003789899194719665,0.1453362853469604
-0.003789729194719665,0.1425715464955776
-0.003789559194719665,0.1397409805286857
-0.003789389194719665,0.138161129756467
-0.003789219194719665,0.1354951315783479
-0.003789049194719665,0.1330266147467561
-0.003788879194719665,0.1312492826280054
-0.003788709194719665,0.1287478522386636
-0.003788539194719665,0.127233828581954
-0.003788369194719665,0.1227575847273326
-0.003788199194719665,0.1218689186679612
-0.003788029194719665,0.1199270187604423
-0.003787859194719665,0.1183142544304661
-0.003787689194719665,0.1166685765427412
-0.003787519194719665,0.1151545528860316
-0.003787349194719665,0.1137392699025836
-0.003787179194719665,0.1126202089389307
-0.003787009194719665,0.1113365801865029
-0.003786839194719665,0.1099871243185634
-0.003786669194719665,0.108506014219611
-0.003786499194719665,0.1063008058500557
-0.003786329194719665,0.1042601652692702
-0.003786159194719665,0.1026144873815453
-0.003785989194719665,0.1006725874740264
-0.003785819194719665,0.09853320621997692
-0.003785649194719665,0.09672296054347959
-0.003785479194719665,0.09504436909799718
-0.003785309194719665,0.0933657776525105
-0.003785139194719665,0.09102891505194122
-0.003784969194719665,0.0894161507219679
-0.003784799194719665,0.0873755101411814
-0.003784629194719665,0.0852032153293846
-0.003784459194719665,0.08355753744165675
-0.003784289194719665,0.08184603243842287
-0.003784119194719665,0.08023326810844647
-0.003783949194719665,0.07855467666296406
-0.003783779194719665,0.07681025810197571
-0.003783609194719665,0.0752962344452629
-0.003783439194719665,0.07391386501957151
-0.003783269194719665,0.07230110068960115
-0.003783099194719665,0.0710832990526796
-0.003782929194719665,0.07029337366657024
-0.003782759194719665,0.06904265847189933
-0.003782589194719665,0.06798942462375124
-0.003782419194719665,0.06663996875581438
-0.003782249194719665,0.06614626538949693
-0.003782079194719665,0.06535634000338666
-0.003781909194719665,0.06380940278892247
-0.003781739194719665,0.06400688413544947
-0.003781569194719665,0.06301947740281311
-0.003781399194719665,0.06209789778568551
-0.003781229194719665,0.06150545374610455
-0.003781059194719665,0.06032056566693942
-0.003780889194719665,0.06022182499367575
-0.003780719194719665,0.05930024537654983
-0.003780549194719665,0.05887236912573891
-0.003780379194719665,0.05788496239310219
-0.003780209194719665,0.05646967940965882
-0.003780039194719665,0.05561392690803776
-0.003779869194719665,0.0539682490203099
-0.003779699194719665,0.05265170671012762
-0.003779529194719665,0.05100602882239976
-0.003779359194719665,0.04978822718548115
-0.003779189194719665,0.04853751199080798
-0.003779019194719665,0.04715514256511658
-0.003778849194719665,0.04689183410308012
-0.003778679194719665,0.04577277313942518
-0.003778509194719665,0.04494993419556125
-0.003778339194719665,0.04363339188537897
-0.003778169194719665,0.0428434664992696
-0.003777999194719665,0.04208645467091431
-0.003777829194719665,0.04182314620887833
-0.003777659194719665,0.04152692418908732
-0.003777489194719665,0.041230702169296
-0.003777319194719665,0.04106613438052351
-0.003777149194719665,0.04011164120564136
-0.003776979194719665,0.04004581409013117
-0.003776809194719665,0.03945337005055022
-0.003776639194719665,0.03965085139707756
-0.003776469194719665,0.03932171581953223
-0.003776299194719665,0.03945337005055022
-0.003776129194719665,0.0398483327436049
-0.003775959194719665,0.04001290053237805
-0.003775789194719665,0.04021038187890503
-0.003775619194719665,0.04017746832115048
-0.003775449194719665,0.04047369034094143
-0.003775279194719665,0.04044077678318693
-0.003775109194719665,0.0403091225521687
-0.003774939194719665,0.04037494966767692
-0.003774769194719665,0.03988124630135946
-0.003774599194719665,0.03935462937728654
-0.003774429194719665,0.03886092601096645
-0.003774259194719665,0.03790643283608603
-0.003774089194719665,0.03695193966120388
-0.003773919194719665,0.03619492783284738
-0.003773749194719665,0.03527334821572146
-0.003773579194719665,0.03477964484940311
-0.003773409194719665,0.03389097879003168
-0.003773239194719665,0.0333314483082026
-0.003773069194719665,0.03234404157556588
-0.003772899194719665,0.03191616532475742
-0.003772729194719665,0.03096167214987448
-0.003772559194719665,0.03063253657232891
-0.003772389194719665,0.03043505522580193
-0.003772219194719665,0.03023757387927423
-0.003772049194719665,0.02980969762846498
-0.003771879194719665,0.02925016714663853
-0.003771709194719665,0.02908559935786473
-0.003771539194719665,0.02882229089582827
-0.003771369194719665,0.02829567397175631
-0.003771199194719665,0.02829567397175536
-0.003771029194719665,0.02790071127870067
-0.003770859194719665,0.02819693329849115
-0.003770689194719665,0.02730826723911865
-0.003770519194719665,0.02737409435462776
-0.003770349194719665,0.02714369945034628
-0.003770179194719665,0.02714369945034586
-0.003770009194719665,0.02720952656585497
-0.003769839194719665,0.02743992147013645
-0.003769669194719665,0.0287235502225646
-0.003769499194719665,0.02582715714016358
-0.003769329194719665,0.02724244012360953
-0.003769159194719665,0.02701204521932763
-0.003768989194719665,0.0271107858925913
-0.003768819194719665,0.02632086050648193
-0.003768649194719665,0.02592589781342725
-0.003768479194719665,0.02530054021609066
-0.003768309194719665,0.02507014531180876
-0.003768139194719665,0.02431313348345395
-0.003767969194719665,0.02375360300162648
-0.003767799194719665,0.02273328271123521
-0.003767629194719665,0.02355612165509578
-0.003767459194719665,0.02171296242084393
-0.003767289194719665,0.02144965395880748
-0.003767119194719665,0.02098886415024344
-0.003766949194719665,0.02085720991922545
-0.003766779194719665,0.02062681501494355
-0.003766609194719665,0.02056098789943354
-0.003766439194719665,0.02006728453311608
-0.003766269194719665,0.01934318626251582
-0.003766099194719665,0.01957358116679719
-0.003765929194719665,0.01927735914700671
-0.003765759194719665,0.01904696424272481
-0.003765589194719665,0.0189482235694615
-0.003765419194719665,0.01914570491598848
-0.003765249194719665,0.01914570491598848
-0.003765079194719665,0.01954066760904311
-0.003764909194719665,0.01950775405128861
-0.003764739194719665,0.01947484049353405
-0.003764569194719665,0.01934318626251606
-0.003764399194719665,0.01947484049353405
-0.003764229194719665,0.01855326087640645
-0.003764059194719665,0.01921153203149802
-0.003763889194719665,0.0194419269357795
-0.003763719194719665,0.01881656933844291
-0.003763549194719665,0.01973814895556901
-0.003763379194719665,0.01891531001170658
-0.003763209194719665,0.01789498972131531
-0.003763039194719665,0.01750002702826135
-0.003762869194719665,0.01694049654643316
-0.003762699194719665,0.01624931183358745
-0.003762529194719665,0.01532773221646153
-0.003762359194719665,0.01470237461912327
-0.003762189194719665,0.01381370855975023
-0.003762019194719665,0.01387953567525923
-0.003761849194719665,0.01305669673139542
-0.003761679194719665,0.0129908696158863
-0.003761509194719665,0.01210220355651488
-0.003761339194719665,0.01285921538486808
-0.003761169194719665,0.01279338826935896
-0.003760999194719665,0.012266771345287
-0.003760829194719665,0.01285921538486808
-0.003760659194719665,0.01328709163567732
-0.003760489194719665,0.01341874586669531
-0.003760319194719665,0.01348457298220466
-0.003760149194719665,0.01355040009771377
-0.003759979194719665,0.0144719797148397
-0.003759809194719665,0.01447197971484137
-0.003759639194719665,0.01466946106136872
-0.003759469194719665,0.01457072038810522
-0.003759299194719665,0.01463654750361416
-0.003759129194719665,0.01410993057954124
-0.003758959194719665,0.01420867125280474
-0.003758789194719665,0.01374788144424112
-0.003758619194719665,0.01404410346403213
-0.003758449194719665,0.01387953567525935
-0.003758279194719665,0.01384662211750479
-0.003758109194719665,0.0148340288501415
-0.003757939194719665,0.01545938644747809
-0.003757769194719665,0.01592017625604189
-0.003757599194719665,0.01654553385337847
-0.003757429194719665,0.01733545923948784
-0.003757259194719665,0.01763168125927939
-0.003757089194719665,0.01792790327906987
-0.003756919194719665,0.0178291626058062
-0.003756749194719665,0.01769750837478911
-0.003756579194719665,0.01832286597212456
-0.003756409194719665,0.01799373039457898
-0.003756239194719665,0.01743419991275098
-0.003756069194719665,0.0171379778929605
-0.003755899194719665,0.01684175587316948
-0.003755729194719665,0.01638096606460395
-0.003755559194719665,0.01542647288972353
-0.003755389194719665,0.01503151019666884
-0.003755219194719665,0.01470237461912196
-0.003755049194719665,0.01397827634852302
-0.003754879194719665,0.01338583230894099
-0.003754709194719665,0.01318835096241299
-0.003754539194719665,0.01282630182711352
-0.003754369194719665,0.01269464759609529
-0.003754199194719665,0.01322126452016814
-0.003754029194719665,0.01318835096241365
-0.003753859194719665,0.01332000519343187
-0.003753689194719665,0.01322126452016886
-0.003753519194719665,0.01358331365546833
-0.003753349194719665,0.0139124492330139
-0.003753179194719665,0.01410993057954322
-0.003753009194719665,0.01519607798544163
-0.003752839194719665,0.01578852202502366
-0.003752669194719665,0.01628222539134112
-0.003752499194719665,0.0162163982758329
-0.003752329194719665,0.01631513894909657
-0.003752159194719665,0.01628222539134207
-0.003751989194719665,0.01565686779400543
-0.003751819194719665,0.01536064577421441
-0.003751649194719665,0.01493276952340595
-0.003751479194719665,0.01410993057954124
-0.003751309194719665,0.01394536279076846
-0.003751139194719665,0.01355040009771449
-0.003750969194719665,0.01308961028914997
-0.003750799194719665,0.01364914077097745
-0.003750629194719665,0.01131227817040814
-0.003750459194719665,0.01289212894262263
-0.003750289194719665,0.0122996849030406
-0.003750119194719665,0.01239842557630409
-0.003749949194719665,0.01203637644100415
-0.003749779194719665,0.01249716624956795
-0.003749609194719665,0.01233259846079546
-0.003749439194719665,0.01236551201854972
-0.003749269194719665,0.01239842557630427
-0.003749099194719665,0.01259590692283126
-0.003748929194719665,0.01246425269181339
-0.003748759194719665,0.01141101884366756
-0.003748589194719665,0.01101605615061359
-0.003748419194719665,0.01029195788001262
-0.003748249194719665,0.009962822302467049
-0.003748079194719665,0.009469118936148692
-0.003747909194719665,0.008909588454321223
-0.003747739194719665,0.008251317299230079
-0.003747569194719665,0.008218403741475522
-0.003747399194719665,0.007922181721684508
-0.003747229194719665,0.007329737682102481
-0.003747059194719665,0.007198083451084253
-0.003746889194719665,0.007198083451084253
-0.003746719194719665,0.007230997008838809
-0.003746549194719665,0.007955095279439066
-0.003746379194719665,0.008514625761267196
-0.003746209194719665,0.008876674896566664
-0.003746039194719665,0.009403291820639578
-0.003745869194719665,0.009633686724922675
-0.003745699194719665,0.01029195788001262
-0.003745529194719665,0.01062109345755819
-0.003745359194719665,0.01114771038163254
-0.003745189194719665,0.01193763576774048
-0.003745019194719665,0.01187180865223136
-0.003744849194719665,0.01262882048058623
-0.003744679194719665,0.01266173403834073
-0.003744509194719665,0.01259590692283162
-0.003744339194719665,0.01272756115384793
-0.003744169194719665,0.01167432730570402
-0.003743999194719665,0.0116085001901949
-0.003743829194719665,0.01058817989980244
-0.003743659194719665,0.009929908744712493
-0.003743489194719665,0.009304551147375908
-0.003743319194719665,0.008613366434530208
-0.003743149194719665,0.008613366434530208
-0.003742979194719665,0.007757613932911723
-0.003742809194719665,0.006836034315783885
-0.003742639194719665,0.006704380084765896
-0.003742469194719665,0.006671466527011338
-0.003742299194719665,0.006836034315785082
-0.003742129194719665,0.007362651239857037
-0.003741959194719665,0.007658873259648051
-0.003741789194719665,0.007856354606175035
-0.003741619194719665,0.00871210710779388
-0.003741449194719665,0.008942502012075779
-0.003741279194719665,0.01095022903510011
-0.003741109194719665,0.008679193550039321
-0.003740939194719665,0.01088440191959465
-0.003740769194719665,0.01157558663243909
-0.003740599194719665,0.01226677134528605
-0.003740429194719665,0.01318835096241365
-0.003740259194719665,0.01341874586669513
-0.003740089194719665,0.01450489327259593
-0.003739919194719665,0.01526190510095074
-0.003739749194719665,0.01568978135175921
-0.003739579194719665,0.01572269490951454
-0.003739409194719665,0.0152948186587053
-0.003739239194719665,0.01565686779400477
-0.003739069194719665,0.01565686779400543
-0.003738899194719665,0.01555812712074176
-0.003738729194719665,0.01516316442768779
-0.003738559194719665,0.01457072038810504
-0.003738389194719665,0.01394536279076846
-0.003738219194719665,0.01305669673139703
-0.003738049194719665,0.01262882048058617
-0.003737879194719665,0.01233259846079516
-0.003737709194719665,0.01111479682387876
-0.003737539194719665,0.01022613076450351
-0.003737369194719665,0.00973242739818515
-0.003737199194719665,0.009469118936148692
-0.003737029194719665,0.008843761338812107
-0.003736859194719665,0.008415885088002865
-0.003736689194719665,0.008251317299230079
-0.003736519194719665,0.007889268163929951
-0.003736349194719665,0.007856354606175394
-0.003736179194719665,0.007922181721684508
-0.003736009194719665,0.007955095279438168
-0.003735839194719665,0.007461391913120709
-0.003735669194719665,0.007988008837193623
-0.003735499194719665,0.008448798645757302
-0.003735329194719665,0.008382971530248308
-0.003735159194719665,0.007988008837193623
-0.003734989194719665,0.008317144414739373
-0.003734819194719665,0.008415885088002865
-0.003734649194719665,0.007066429220066024
-0.003734479194719665,0.008185490183719888
-0.003734309194719665,0.007593046144138938
-0.003734139194719665,0.00779052749066628
-0.003733969194719665,0.007625959701892657
-0.003733799194719665,0.007165169893329695
-0.003733629194719665,0.007494305470875266
-0.003733459194719665,0.007823441048421018
-0.003733289194719665,0.007922181721684508
-0.003733119194719665,0.008448798645757422
-0.003732949194719665,0.009304551147376926
-0.003732779194719665,0.009864081629203377
-0.003732609194719665,0.01068692057306731
-0.003732439194719665,0.01052235278429518
-0.003732269194719665,0.01088440191959465
-0.003732099194719665,0.01134519172815845
-0.003731929194719665,0.01137810528591564
-0.003731759194719665,0.01282630182711352
-0.003731589194719665,0.01124645105489478
-0.003731419194719665,0.01193763576773922
-0.003731249194719665,0.01190472220998592
-0.003731079194719665,0.01197054932549503
-0.003730909194719665,0.01243133913405799
-0.003730739194719665,0.01295795605813175
-0.003730569194719665,0.01256299336507706
-0.003730399194719665,0.01246425269181357
-0.003730229194719665,0.01236551201854972
-0.003730059194719665,0.01203637644100415
-0.003729889194719665,0.0125629933650761
-0.003729719194719665,0.01220094422977693
-0.003729549194719665,0.01190472220998592
-0.003729379194719665,0.01190472220998592
-0.003729209194719665,0.01134519172815845
-0.003729039194719665,0.01134519172815845
-0.003728869194719665,0.01127936461264945
-0.003728699194719665,0.01042361211103085
-0.003728529194719665,0.01029195788001262
-0.003728359194719665,0.01006156297573114
-0.003728189194719665,0.009107069800848565
-0.003728019194719665,0.009271637589621349
-0.003727849194719665,0.008745020665549394
-0.003727679194719665,0.008646279992284765
-0.003727509194719665,0.008909588454321223
-0.003727339194719665,0.008975415569830216
-0.003727169194719665,0.008448798645757422
-0.003726999194719665,0.008251317299230079
-0.003726829194719665,0.007988008837193623
-0.003726659194719665,0.008185490183720966
-0.003726489194719665,0.007988008837193623
-0.003726319194719665,0.008646279992284765
-0.003726149194719665,0.008646279992284765
-0.003725979194719665,0.00904124268533945
-0.003725809194719665,0.009633686724921478
-0.003725639194719665,0.01025904432225806
-0.003725469194719665,0.01062109345755819
-0.003725299194719665,0.01124645105489478
-0.003725129194719665,0.01164141374794982
-0.003724959194719665,0.0118388950944768
-0.003724789194719665,0.0125300798073225
-0.003724619194719665,0.01289212894262269
-0.003724449194719665,0.01292504250037719
-0.003724279194719665,0.01266173403834073
-0.003724109194719665,0.01299086961588564
-0.003723939194719665,0.01262882048058617
-0.003723769194719665,0.01226677134528605
-0.003723599194719665,0.0121680306720213
-0.003723429194719665,0.01157558663244035
-0.003723259194719665,0.01147684595917668
-0.003723089194719665,0.01124645105489442
-0.003722919194719665,0.01104896970836743
-0.003722749194719665,0.01085148836184009
-0.003722579194719665,0.01052235278429242
-0.003722409194719665,0.009370378262885021
-0.003722239194719665,0.01197054932549503
-0.003722069194719665,0.01085148836184009
-0.003721899194719665,0.01085148836184009
-0.003721729194719665,0.01157558663244035
-0.003721559194719665,0.01071983413082336
-0.003721389194719665,0.01154267307468579
-0.003721219194719665,0.01157558663244035
-0.003721049194719665,0.01164141374795018
-0.003720879194719665,0.01203637644100415
-0.003720709194719665,0.01154267307468579
-0.003720539194719665,0.01127936461264981
-0.003720369194719665,0.01078566124633098
-0.003720199194719665,0.01062109345755819
-0.003720029194719665,0.00992990874471375
-0.003719859194719665,0.00983116807144882
-0.003719689194719665,0.009271637589621349
-0.003719519194719665,0.009271637589621349
-0.003719349194719665,0.008843761338812107
-0.003719179194719665,0.008382971530248308
