Analysis/New Tests_CMB/wrd01_d2s01_new/cmb02_ch31.csv

#Digilent WaveForms Oscilloscope Acquisition
#Device Name: ADP3450
#Serial Number: SN:210018B9D9B0
#Date Time: 2024-08-14 16:40:21.451.681.920
#Sample rate: 5.88235e+06Hz
#Samples: 32768
#Trigger: Source: Channel 3 Type: Edge Condition: Rising Level: 60 mV Hyst.: Auto HoldOff: 0 s
#Channel 3: Range: 100 mV/div Offset: 0 V Attenuation: 1 X Coupling: DC Bandwidth: 0 Hz Sample Mode: Average

Time (s),Channel 3 (V)
-0.00379838485890808,0.2065884163281912
-0.003798214858908079,0.2185360377931151
-0.00379804485890808,0.2293645982943447
-0.00379787485890808,0.2380866910993024
-0.003797704858908079,0.2461505127491795
-0.00379753485890808,0.2519762124717255
-0.00379736485890808,0.256913246134909
-0.003797194858908079,0.2599083798905783
-0.00379702485890808,0.2624427238376746
-0.00379685485890808,0.2626731187419565
-0.003796684858908079,0.2632326492237823
-0.00379651485890808,0.2622781560489018
-0.00379634485890808,0.2607312188344376
-0.003796174858908079,0.2579993935408049
-0.00379600485890808,0.2554979631514631
-0.00379583485890808,0.2520420395872346
-0.003795664858908079,0.2480924126566817
-0.00379549485890808,0.2447681433234774
-0.00379532485890808,0.2403577265843668
-0.003795154858908079,0.2361447911917768
-0.00379498485890808,0.2324584727232731
-0.00379481485890808,0.2281797102151807
-0.00379464485890808,0.224427564631168
-0.00379447485890808,0.2207741597204053
-0.00379430485890808,0.2169891005786312
-0.00379413485890808,0.2134673498989
-0.00379396485890808,0.2100443398924197
-0.00379379485890808,0.2071479468100187
-0.00379362485890808,0.2036920232457964
-0.00379345485890808,0.2002031861238071
-0.00379328485890808,0.1979321506387427
-0.00379311485890808,0.1950028439985924
-0.00379294485890808,0.1921393644739406
-0.00379277485890808,0.1894733662958215
-0.00379260485890808,0.1868731952332162
-0.00379243485890808,0.1839438885930559
-0.00379226485890808,0.1813437175304459
-0.00379209485890808,0.1773282634843972
-0.00379192485890808,0.177097868580108
-0.00379175485890808,0.1728849331875247
-0.00379158485890808,0.1706138977024644
-0.00379141485890808,0.1669275792339499
-0.00379124485890808,0.1633400014387032
-0.00379107485890808,0.1595878558546905
-0.00379090485890808,0.1565268949835098
-0.00379073485890808,0.1530709714192813
-0.00379056485890808,0.1497137885283226
-0.00379039485890808,0.1470807039079519
-0.00379022485890808,0.1444476192875874
-0.00379005485890808,0.1420120160137502
-0.00378988485890808,0.1393131042778765
-0.00378971485890808,0.137042068792812
-0.00378954485890808,0.1347710333077476
-0.00378937485890808,0.1331253554200197
-0.00378920485890808,0.1311834555125009
-0.00378903485890808,0.1291757284894729
-0.00378886485890808,0.126970520119913
-0.00378869485890808,0.1244690897305712
-0.00378852485890808,0.1228234118428434
-0.003788354858908079,0.1203219814534926
-0.00378818485890808,0.1178863781796598
-0.00378801485890808,0.1155495155790862
-0.003787844858908079,0.1129493445164704
-0.00378767485890808,0.1097567294142842
-0.00378750485890808,0.1070907312361651
-0.003787334858908079,0.1045563872890603
-0.00378716485890808,0.102417006035018
-0.00378699485890808,0.1002776247809717
-0.003786824858908079,0.09807241641141223
-0.00378665485890808,0.09576846736859743
-0.00378648485890808,0.09432027082739691
-0.003786314858908079,0.09247711159313901
-0.00378614485890808,0.09099600149418666
-0.00378597485890808,0.08918575581768601
-0.003785804858908079,0.08842874398932803
-0.00378563485890808,0.08668432542833968
-0.00378546485890808,0.08523612888713916
-0.003785294858908079,0.08391958657695363
-0.00378512485890808,0.08214225445821077
-0.00378495485890808,0.08066114435925573
-0.003784784858908079,0.07950916983784372
-0.00378461485890808,0.07812680041215481
-0.00378444485890808,0.07812680041215481
-0.00378427485890808,0.07700773944850191
-0.00378410485890808,0.07684317165972709
-0.00378393485890808,0.0762178140623905
-0.00378376485890808,0.07572411069607306
-0.00378359485890808,0.07572411069607216
-0.00378342485890808,0.07473670396343543
-0.00378325485890808,0.07447339550139946
-0.00378308485890808,0.07394677857732607
-0.00378291485890808,0.07351890232651681
-0.00378274485890808,0.07318976674897186
-0.00378257485890808,0.07170865665001619
-0.00378240485890808,0.07154408886124339
-0.00378223485890808,0.07052376857085399
-0.00378206485890808,0.06996423808902466
-0.00378189485890808,0.06871352289435148
-0.00378172485890808,0.06759446193069858
-0.00378155485890808,0.06693619077560539
-0.00378138485890808,0.06578421625419589
-0.00378121485890808,0.06469806884829749
-0.00378104485890808,0.06354609432688602
-0.00378087485890808,0.06173584865038538
-0.00378070485890808,0.06035347922469649
-0.00378053485890808,0.05920150470328448
-0.00378036485890808,0.05732543191127473
-0.00378019485890808,0.05567975402354986
-0.00378002485890808,0.05413281680908269
-0.00377985485890808,0.05252005247910939
-0.00377968485890808,0.05054523901383596
-0.00377951485890808,0.04922869670365368
-0.00377934485890808,0.04820837641326241
-0.00377917485890808,0.0472209696806257
-0.00377900485890808,0.04620064939023442
-0.00377883485890808,0.04527906977310683
-0.00377866485890808,0.04458788506026112
-0.00377849485890808,0.04373213255864264
-0.00377832485890808,0.04337008342334251
-0.00377815485890808,0.04343591053885162
-0.003777984858908079,0.04330425630783322
-0.00377781485890808,0.04320551563456973
-0.00377764485890808,0.04310677496130606
-0.003777474858908079,0.04284346649926882
-0.00377730485890808,0.04241559024846036
-0.00377713485890808,0.04277763938376049
-0.003776964858908079,0.04202062755540555
-0.00377679485890808,0.04195480043989656
-0.00377662485890808,0.04116487505378719
-0.003776454858908079,0.04030912255216811
-0.00377628485890808,0.03997998697462313
-0.00377611485890808,0.0386963582221954
-0.003775944858908079,0.03797225995159323
-0.00377577485890808,0.03691902610344932
-0.00377560485890808,0.03593161937081261
-0.003775434858908079,0.03527334821572003
-0.00377526485890808,0.03448342282961209
-0.00377509485890808,0.03431885504083931
-0.003774924858908079,0.03303522628841092
-0.00377475485890808,0.03267317715311145
-0.00377458485890808,0.03211364667128398
-0.003774414858908079,0.03185033820924657
-0.00377424485890808,0.03132372128517461
-0.00377407485890808,0.0312578941696655
-0.003773904858908079,0.03040214166804725
-0.00377373485890808,0.03053379589906524
-0.00377356485890808,0.030105919648256
-0.00377339485890808,0.03043505522580097
-0.00377322485890808,0.03007300609050144
-0.00377305485890808,0.02990843830172865
-0.00377288485890808,0.03066545013008209
-0.00377271485890808,0.02957930272418309
-0.00377254485890808,0.02984261118621954
-0.00377237485890808,0.02938182137765658
-0.00377220485890808,0.0289539451268465
-0.00377203485890808,0.02862480954930093
-0.00377186485890808,0.02806527906747448
-0.00377169485890808,0.02750574858564599
-0.00377152485890808,0.02717661300810041
-0.00377135485890808,0.02707787233483692
-0.00377118485890808,0.02645251473750016
-0.00377101485890808,0.02589298425567269
-0.00377084485890808,0.02441187415672031
-0.00377067485890808,0.02411565213692661
-0.00377050485890808,0.02339155386632635
-0.00377033485890808,0.02256871492246392
-0.00377016485890808,0.02204209799838951
-0.00376999485890808,0.02164713530533482
-0.00376982485890808,0.02141674040105334
-0.00376965485890808,0.02121925905452558
-0.00376948485890808,0.02138382684329837
-0.00376931485890808,0.02171296242084393
-0.00376914485890808,0.02200918444063495
-0.00376897485890808,0.02200918444063495
-0.00376880485890808,0.02191044376737128
-0.00376863485890808,0.02184461665186217
-0.00376846485890808,0.02125217261228014
-0.00376829485890808,0.02125217261228014
-0.00376812485890808,0.02121925905452558
-0.00376795485890808,0.02082429636147089
-0.00376778485890808,0.02095595059248912
-0.00376761485890808,0.02052807434167892
-0.00376744485890808,0.02000145741760697
-0.00376727485890808,0.0199027167443433
-0.003767104858908079,0.01950775405128795
-0.00376693485890808,0.01914570491598848
-0.00376676485890808,0.01894822356946114
-0.003766594858908079,0.01904696424272343
-0.00376642485890808,0.01828995241437
-0.00376625485890808,0.0185203473186519
-0.003766084858908079,0.01842160664538757
-0.00376591485890808,0.0180595575100881
-0.00376574485890808,0.01796081683682443
-0.003765574858908079,0.01812538462559649
-0.00376540485890808,0.01773042193254253
-0.00376523485890808,0.01746711347050607
-0.003765064858908079,0.01726963212397843
-0.00376489485890808,0.01710506433520594
-0.00376472485890808,0.01618348471807834
-0.003764554858908079,0.01700632366194125
-0.00376438485890808,0.0164467931801148
-0.00376421485890808,0.0166771880843967
-0.003764044858908079,0.01671010164215048
-0.00376387485890808,0.01628222539134202
-0.00376370485890808,0.01680884231541493
-0.003763534858908079,0.01592017625604003
-0.00376336485890808,0.01489985596565062
-0.00376319485890808,0.01562395423625087
-0.00376302485890808,0.01595308981379584
-0.00376285485890808,0.01595308981379644
-0.00376268485890808,0.01509733731217796
-0.00376251485890808,0.01499859663891447
-0.00376234485890808,0.01424158481055947
-0.00376217485890808,0.01407701702178669
-0.00376200485890808,0.01381370855975071
-0.00376183485890808,0.0141428441372958
-0.00376166485890808,0.01338583230894099
-0.00376149485890808,0.01308961028915051
-0.00376132485890808,0.01272756115384985
-0.00376115485890808,0.01335291875118643
-0.00376098485890808,0.0137478814442404
-0.00376081485890808,0.01328709163567732
-0.00376064485890808,0.0134516594244501
-0.00376047485890808,0.01394536279076756
-0.00376030485890808,0.0139124492330139
-0.00376013485890808,0.01397827634852302
-0.00375996485890808,0.01404410346403201
-0.00375979485890808,0.01378079500199567
-0.00375962485890808,0.01364914077097745
-0.00375945485890808,0.01364914077097745
-0.00375928485890808,0.01361622721322289
-0.00375911485890808,0.0129908696158863
-0.00375894485890808,0.01259590692283234
-0.00375877485890808,0.01141101884366756
-0.00375860485890808,0.01111479682387655
-0.00375843485890808,0.01025904432225806
-0.00375826485890808,0.009896995186957936
-0.00375809485890808,0.009271637589621349
-0.00375792485890808,0.009008329127584893
-0.00375775485890808,0.00871210710779388
-0.00375758485890808,0.008843761338812107
-0.00375741485890808,0.00973242739818515
-0.00375724485890808,0.008284230856985295
-0.00375707485890808,0.008646279992284765
-0.00375690485890808,0.008251317299230079
-0.003756734858908079,0.008514625761266837
-0.00375656485890808,0.008679193550039321
-0.00375639485890808,0.009205810474112236
-0.003756224858908079,0.009633686724921238
-0.00375605485890808,0.00950203249390325
-0.00375588485890808,0.00950203249390325
-0.003755714858908079,0.00999573586021993
-0.00375554485890808,0.009074156243094007
-0.00375537485890808,0.009765340955939707
-0.003755204858908079,0.009666600282675915
-0.00375503485890808,0.009600773167166921
-0.00375486485890808,0.009139983358603122
-0.003754694858908079,0.009139983358603061
-0.00375452485890808,0.009107069800848565
-0.00375435485890808,0.008876674896566664
-0.003754184858908079,0.009205810474113073
-0.00375401485890808,0.009666600282676035
-0.00375384485890808,0.008975415569830336
-0.003753674858908079,0.009699513840431013
-0.00375350485890808,0.009929908744712493
-0.00375333485890808,0.01009447653348528
-0.003753164858908079,0.01088440191959615
-0.00375299485890808,0.01170724086345858
-0.00375282485890808,0.01170724086345858
-0.00375265485890808,0.01213511711426704
-0.00375248485890808,0.01266173403834073
-0.00375231485890808,0.01285921538486808
-0.00375214485890808,0.01308961028914955
-0.00375197485890808,0.01397827634852302
-0.00375180485890808,0.01397827634852302
-0.00375163485890808,0.01447197971484047
-0.00375146485890808,0.01473528817687783
-0.00375129485890808,0.01480111529238694
-0.00375112485890808,0.01516316442768641
-0.00375095485890808,0.01545938644747809
-0.00375078485890808,0.01549230000523264
-0.00375061485890808,0.01529481865870566
-0.00375044485890808,0.01493276952340517
-0.00375027485890808,0.01499859663891429
-0.00375010485890808,0.01427449836831535
-0.00374993485890808,0.01410993057954124
-0.00374976485890808,0.01358331365546833
-0.00374959485890808,0.01295795605813288
-0.00374942485890808,0.01236551201854972
-0.00374925485890808,0.01154267307468579
-0.00374908485890808,0.01098314259285934
-0.00374891485890808,0.01025904432225806
-0.00374874485890808,0.01032487143776718
-0.00374857485890808,0.01025904432225818
-0.00374840485890808,0.009798254513694264
-0.00374823485890808,0.009600773167166921
-0.00374806485890808,0.00973242739818515
-0.00374789485890808,0.009469118936148692
-0.00374772485890808,0.00950203249390325
-0.00374755485890808,0.009238724031866792
-0.00374738485890808,0.01009447653348528
-0.00374721485890808,0.01009447653348528
-0.00374704485890808,0.01025904432225806
-0.00374687485890808,0.01039069855327629
-0.00374670485890808,0.01042361211103085
-0.00374653485890808,0.01032487143776718
-0.003746364858908079,0.01019321720674853
-0.00374619485890808,0.009962822302467049
-0.00374602485890808,0.01022613076450351
-0.003745854858908079,0.01025904432225794
-0.00374568485890808,0.01019321720674895
-0.00374551485890808,0.01042361211103085
-0.003745344858908079,0.01016030364899415
-0.00374517485890808,0.01002864941797616
-0.00374500485890808,0.01009447653348528
-0.003744834858908079,0.01210220355650542
-0.00374466485890808,0.00779052749066628
-0.00374449485890808,0.009798254513694264
-0.003744324858908079,0.009633686724919563
-0.00374415485890808,0.008580452876775651
-0.00374398485890808,0.00811966306821185
-0.003743814858908079,0.007527219028629704
-0.00374364485890808,0.007461391913120709
-0.00374347485890808,0.007198083451084253
-0.003743304858908079,0.007296824124348163
-0.00374313485890808,0.007428478355366152
-0.00374296485890808,0.007889268163929951
-0.003742794858908079,0.007922181721685585
-0.00374262485890808,0.008514625761266537
-0.00374245485890808,0.008745020665548437
-0.003742284858908079,0.009337464705130284
-0.00374211485890808,0.009238724031866792
-0.00374194485890808,0.009370378262885021
-0.00374177485890808,0.009403291820639518
-0.00374160485890808,0.009666600282676035
-0.00374143485890808,0.009337464705130465
-0.00374126485890808,0.009041242685339989
-0.00374109485890808,0.008777934223302994
-0.00374092485890808,0.00871210710779388
-0.00374075485890808,0.008613366434530388
-0.00374058485890808,0.008350057972493751
-0.00374041485890808,0.008317144414739193
-0.00374024485890808,0.009008329127583635
-0.00374007485890808,0.008876674896566664
-0.00373990485890808,0.009304551147375908
-0.00373973485890808,0.009205810474112416
-0.00373956485890808,0.009469118936148692
-0.00373939485890808,0.009107069800848565
-0.00373922485890808,0.01025904432225597
-0.00373905485890808,0.009798254513694264
-0.00373888485890808,0.01091731547734921
-0.00373871485890808,0.01104896970836719
-0.00373854485890808,0.01025904432225806
-0.00373837485890808,0.009995735860221606
-0.00373820485890808,0.009732427398185629
-0.00373803485890808,0.009567859609412364
-0.00373786485890808,0.00950203249390325
-0.00373769485890808,0.009436205378394255
-0.00373752485890808,0.009238724031866792
-0.00373735485890808,0.009666600282676035
-0.00373718485890808,0.009929908744712493
-0.00373701485890808,0.009995735860221606
-0.00373684485890808,0.009864081629203377
-0.00373667485890808,0.01012739009123984
-0.00373650485890808,0.009765340955939707
-0.00373633485890808,0.009271637589621349
-0.00373616485890808,0.008580452876775651
-0.00373599485890808,0.008514625761264202
-0.00373582485890808,0.007230997008838809
-0.00373565485890808,0.00630941739171121
-0.003735484858908079,0.005354924216826719
-0.00373531485890808,0.004071295464401327
-0.00373514485890808,0.004564998830719684
-0.003734974858908079,0.003413024309311741
-0.00373480485890808,0.00426877681092867
-0.00373463485890808,0.003775073444610313
-0.003734464858908079,0.003807987002365589
-0.00373429485890808,0.004202949695419555
-0.00373412485890808,0.004729566619492469
-0.003733954858908079,0.005124529312548351
-0.00373378485890808,0.005782800467638296
-0.00373361485890808,0.006210676718447538
-0.003733444858908079,0.006967688546801814
-0.00373327485890808,0.006671466527011338
-0.00373310485890808,0.006934774989047795
-0.003732934858908079,0.007000602104557329
-0.00373276485890808,0.007230997008838809
-0.00373259485890808,0.007198083451084253
-0.003732424858908079,0.007165169893330114
-0.00373225485890808,0.007395564797611595
-0.00373208485890808,0.007691786817402609
-0.003731914858908079,0.007988008837194341
-0.00373174485890808,0.008382971530248308
-0.00373157485890808,0.008514625761266537
-0.00373140485890808,0.008481712203512039
-0.00373123485890808,0.008975415569830336
-0.00373106485890808,0.008415885088002865
-0.00373089485890808,0.008613366434529849
-0.00373072485890808,0.009139983358603122
-0.00373055485890808,0.009008329127584893
-0.00373038485890808,0.008251317299231457
-0.00373021485890808,0.007955095279439066
-0.00373004485890808,0.007922181721684508
-0.00372987485890808,0.00742847835536705
-0.00372970485890808,0.007625959701893495
-0.00372953485890808,0.007362651239857037
-0.00372936485890808,0.008843761338809413
-0.00372919485890808,0.008547539319021094
-0.00372902485890808,0.008942502012075779
-0.00372885485890808,0.00953494605165673
-0.00372868485890808,0.009172896916357679
-0.00372851485890808,0.009699513840430593
-0.00372834485890808,0.01002864941797556
-0.00372817485890808,0.01002864941797616
-0.00372800485890808,0.009995735860221606
-0.00372783485890808,0.01019321720674859
-0.00372766485890808,0.009896995186957936
-0.00372749485890808,0.009765340955939707
-0.00372732485890808,0.00996282230246669
-0.00372715485890808,0.009567859609412364
-0.00372698485890808,0.009666600282676035
-0.00372681485890808,0.00881084778105755
-0.00372664485890808,0.009469118936148692
-0.00372647485890808,0.008646279992284765
-0.00372630485890808,0.008251317299230079
-0.00372613485890808,0.007988008837193623
-0.00372596485890808,0.006704380084765896
-0.00372579485890808,0.009238724031866792
-0.00372562485890808,0.007362651239857037
-0.00372545485890808,0.007099342777820581
-0.00372528485890808,0.00700060210455691
-0.003725114858908079,0.006901861431293598
-0.00372494485890808,0.007099342777820581
-0.00372477485890808,0.007198083451084253
-0.003724604858908079,0.007165169893330233
-0.00372443485890808,0.007461391913120709
-0.00372426485890808,0.007625959701893495
-0.003724094858908079,0.00798800883719482
-0.00372392485890808,0.008646279992284765
-0.00372375485890808,0.009436205378394135
-0.003723584858908079,0.009831168071449958
-0.00372341485890808,0.01045652566878541
-0.00372324485890808,0.01075274768857642
-0.003723074858908079,0.01124645105489501
-0.00372290485890808,0.011378105285913
-0.00372273485890808,0.01180598153672225
-0.003722564858908079,0.01167432730570426
-0.00372239485890808,0.01180598153672225
-0.00372222485890808,0.0122996849030406
-0.003722054858908079,0.01187180865223142
-0.00372188485890808,0.01190472220998592
-0.00372171485890808,0.01141101884366756
-0.003721544858908079,0.01180598153671961
-0.00372137485890808,0.01035778499552173
-0.00372120485890808,0.01006156297573072
-0.003721034858908079,0.009798254513692527
-0.00372086485890808,0.008843761338812107
-0.00372069485890808,0.009304551147375908
-0.00372052485890808,0.008086749510459509
-0.00372035485890808,0.008284230856984636
-0.00372018485890808,0.007955095279439066
-0.00372001485890808,0.008185490183720546
-0.00371984485890808,0.008218403741475522
-0.00371967485890808,0.00802092239494818
-0.00371950485890808,0.008415885088002147
-0.00371933485890808,0.008580452876775651
-0.00371916485890808,0.008876674896566664
-0.00371899485890808,0.009205810474111637
-0.00371882485890808,0.00973242739818515
-0.00371865485890808,0.00973242739818515
-0.00371848485890808,0.009995735860221127
-0.00371831485890808,0.009962822302467049
-0.00371814485890808,0.01025904432225806
-0.00371797485890808,0.009831168071449599
