Analysis/New Tests_CMB/wrd01_d2s01_new/cmb07_ch12.csv

#Digilent WaveForms Oscilloscope Acquisition
#Device Name: ADP3450
#Serial Number: SN:210018B9D9B0
#Date Time: 2024-08-15 12:24:24.884.249.530
#Sample rate: 5.88235e+06Hz
#Samples: 32768
#Trigger: Source: Channel 3 Type: Edge Condition: Rising Level: 40 mV Hyst.: Auto HoldOff: 0 s
#Channel 3: Range: 100 mV/div Offset: 0 V Attenuation: 1 X Coupling: DC Bandwidth: 0 Hz Sample Mode: Average

Time (s),Channel 3 (V)
-0.003168892202592093,0.02319407251979901
-0.003168722202592093,0.0238852572326459
-0.003168552202592093,0.02454352838773585
-0.003168382202592093,0.02543219444710889
-0.003168212202592093,0.0259258978134282
-0.003168042202592093,0.02645251473750016
-0.003167872202592093,0.02697913166157307
-0.003167702202592093,0.02743992147013783
-0.003167532202592093,0.02796653839420979
-0.003167362202592093,0.02786779772094612
-0.003167192202592093,0.02776905704768221
-0.003167022202592093,0.02763740281666422
-0.003166852202592093,0.02750574858564599
-0.003166682202592092,0.02697913166157241
-0.003166512202592093,0.02661708252627295
-0.003166342202592093,0.02559676223588167
-0.003166172202592092,0.02546510800486171
-0.003166002202592093,0.02451061482998129
-0.003165832202592093,0.02428021992569939
-0.003165662202592092,0.02345738098183438
-0.003165492202592093,0.02286493694225343
-0.003165322202592093,0.02312824540428989
-0.003165152202592093,0.0218446166518645
-0.003164982202592093,0.02191044376737128
-0.003164812202592093,0.02151548107431659
-0.003164642202592093,0.0214496539588076
-0.003164472202592093,0.02006728453311608
-0.003164302202592093,0.02095595059248912
-0.003164132202592093,0.02089012347698013
-0.003163962202592093,0.02042933366841621
-0.003163792202592093,0.02046224722617077
-0.003163622202592093,0.01960649472455384
-0.003163452202592093,0.01845452020314278
-0.003163282202592093,0.01884948289619747
-0.003163112202592093,0.01789498972131705
-0.003162942202592093,0.01730254568173328
-0.003162772202592093,0.01651262029562391
-0.003162602202592093,0.01575560846727048
-0.003162432202592093,0.01496568308115973
-0.003162262202592093,0.01447197971484137
-0.003162092202592093,0.01424158481055989
-0.003161922202592093,0.01318835096241365
-0.003161752202592093,0.01295795605813175
-0.003161582202592093,0.0123325984607963
-0.003161412202592093,0.01216803067202238
-0.003161242202592093,0.01233259846079516
-0.003161072202592093,0.01226677134528617
-0.003160902202592093,0.0125300798073225
-0.003160732202592093,0.01285921538486808
-0.003160562202592093,0.01292504250037719
-0.003160392202592093,0.01305669673139542
-0.003160222202592093,0.01348457298220466
-0.003160052202592093,0.01358331365546833
-0.003159882202592093,0.01410993057954124
-0.003159712202592093,0.01404410346403213
-0.003159542202592093,0.01463654750361416
-0.003159372202592093,0.0145378068303521
-0.003159202202592093,0.01542647288972353
-0.003159032202592093,0.0155252135629872
-0.003158862202592093,0.0157556084672691
-0.003158692202592093,0.0157556084672691
-0.003158522202592093,0.01572269490951454
-0.003158352202592093,0.01578852202502306
-0.003158182202592093,0.01545938644747809
-0.003158012202592093,0.01559104067849632
-0.003157842202592093,0.01519607798544223
-0.003157672202592093,0.0155252135629872
-0.003157502202592093,0.01605183048706011
-0.003157332202592093,0.01601891692930526
-0.003157162202592093,0.01585434914053277
-0.003156992202592093,0.01611765760256923
-0.003156822202592093,0.01572269490951424
-0.003156652202592093,0.01555812712074176
-0.003156482202592093,0.01588726269828733
-0.003156312202592093,0.01592017625604087
-0.003156142202592093,0.01536064577421441
-0.003155972202592093,0.0155252135629872
-0.003155802202592092,0.01549230000523228
-0.003155632202592093,0.0152948186587053
-0.003155462202592093,0.01503151019666884
-0.003155292202592092,0.01443906615708514
-0.003155122202592093,0.01351748653995922
-0.003154952202592093,0.01424158481055947
-0.003154782202592093,0.01401118990627799
-0.003154612202592093,0.01348457298220466
-0.003154442202592093,0.0132212645201682
-0.003154272202592093,0.01276047471160524
-0.003154102202592093,0.01246425269181339
-0.003153932202592093,0.01190472220998592
-0.003153762202592093,0.01193763576774041
-0.003153592202592093,0.01190472220998592
-0.003153422202592093,0.0118388950944768
-0.003153252202592093,0.0119376357677403
-0.003153082202592093,0.01167432730570402
-0.003152912202592093,0.01177306797896769
-0.003152742202592093,0.01190472220998568
-0.003152572202592093,0.01187180865223136
-0.003152402202592093,0.01164141374794946
-0.003152232202592093,0.01131227817040449
-0.003152062202592093,0.0116085001901949
-0.003151892202592093,0.01193763576774048
-0.003151722202592093,0.01197054932549497
-0.003151552202592093,0.01246425269181339
-0.003151382202592093,0.01226677134528605
-0.003151212202592093,0.01256299336507652
-0.003151042202592093,0.01289212894262263
-0.003150872202592093,0.01332000519343187
-0.003150702202592093,0.01345165942444986
-0.003150532202592093,0.01384662211750479
-0.003150362202592093,0.01397827634852302
-0.003150192202592093,0.01420867125280492
-0.003150022202592093,0.01381370855975023
-0.003149852202592093,0.01361622721322289
-0.003149682202592093,0.01453780683035049
-0.003149512202592093,0.01410993057954124
-0.003149342202592093,0.0146036339458596
-0.003149172202592093,0.01457072038810504
-0.003149002202592093,0.0141428441372958
-0.003148832202592093,0.01387953567525935
-0.003148662202592093,0.013682054328732
-0.003148492202592093,0.01335291875118733
-0.003148322202592093,0.01384662211750479
-0.003148152202592093,0.01318835096241365
-0.003147982202592093,0.01341874586669507
-0.003147812202592093,0.01315543740465909
-0.003147642202592093,0.01292504250037719
-0.003147472202592093,0.012760474711605
-0.003147302202592093,0.01308961028914997
-0.003147132202592093,0.01272756115384985
-0.003146962202592093,0.01289212894262299
-0.003146792202592093,0.01308961028914997
-0.003146622202592093,0.01325417807792276
-0.003146452202592093,0.01443906615708352
-0.003146282202592093,0.01262882048058617
-0.003146112202592093,0.01279338826935896
-0.003145942202592093,0.01351748653995724
-0.003145772202592093,0.01243133913405883
-0.003145602202592093,0.01358331365546833
-0.003145432202592092,0.01341874586669327
-0.003145262202592093,0.01216803067202238
-0.003145092202592093,0.0120692899987587
-0.003144922202592092,0.01154267307468483
-0.003144752202592093,0.01101605615061288
-0.003144582202592093,0.01042361211103085
-0.003144412202592092,0.01019321720674811
-0.003144242202592093,0.00973242739818515
-0.003144072202592093,0.009666600282676035
-0.003143902202592093,0.009370378262885561
-0.003143732202592093,0.00950203249390325
-0.003143562202592093,0.009205810474112236
-0.003143392202592093,0.009699513840429694
-0.003143222202592093,0.009896995186957936
-0.003143052202592093,0.00973242739818515
-0.003142882202592093,0.00973242739818515
-0.003142712202592093,0.01006156297573072
-0.003142542202592093,0.01019321720674895
-0.003142372202592093,0.01022613076450344
-0.003142202202592093,0.01025904432225806
-0.003142032202592093,0.01052235278429452
-0.003141862202592093,0.01062109345755801
-0.003141692202592093,0.01035778499552173
-0.003141522202592093,0.01058817989980363
-0.003141352202592093,0.01042361211103115
-0.003141182202592093,0.01032487143776718
-0.003141012202592093,0.01025904432225806
-0.003140842202592093,0.01019321720674907
-0.003140672202592093,0.01002864941797616
-0.003140502202592093,0.009864081629203377
-0.003140332202592093,0.009864081629203377
-0.003140162202592093,0.009666600282676035
-0.003139992202592093,0.009896995186957936
-0.003139822202592093,0.009995735860221606
-0.003139652202592093,0.00950203249390325
-0.003139482202592093,0.01019321720674895
-0.003139312202592093,0.01048943922653996
-0.003139142202592093,0.01032487143776718
-0.003138972202592093,0.01022613076450351
-0.003138802202592093,0.01048943922653996
-0.003138632202592093,0.01025904432225806
-0.003138462202592093,0.01019321720674895
-0.003138292202592093,0.01048943922653996
-0.003138122202592093,0.0104894392265405
-0.003137952202592093,0.01078566124633098
-0.003137782202592093,0.01085148836184009
-0.003137612202592093,0.01048943922654122
-0.003137442202592093,0.01118062393938566
-0.003137272202592093,0.01088440191959465
-0.003137102202592093,0.01104896970836743
-0.003136932202592093,0.01104896970836743
-0.003136762202592093,0.01068692057306731
-0.003136592202592093,0.011016056150613
-0.003136422202592093,0.01108188326612199
-0.003136252202592093,0.01095022903510376
-0.003136082202592093,0.01200346288324881
-0.003135912202592093,0.01157558663244035
-0.003135742202592093,0.01167432730570402
-0.003135572202592093,0.01210220355651434
-0.003135402202592093,0.01269464759609529
-0.003135232202592093,0.01256299336507706
-0.003135062202592092,0.01279338826935974
-0.003134892202592093,0.0132212645201682
-0.003134722202592093,0.01305669673139542
-0.003134552202592092,0.01312252384690447
-0.003134382202592093,0.01308961028914997
-0.003134212202592093,0.0125300798073225
-0.003134042202592092,0.01253007980732191
-0.003133872202592093,0.01220094422977693
-0.003133702202592093,0.01197054932549503
-0.003133532202592093,0.01154267307468657
-0.003133362202592093,0.01200346288324959
-0.003133192202592093,0.0122996849030406
-0.003133022202592093,0.01213511711426812
-0.003132852202592093,0.01236551201854972
-0.003132682202592093,0.01279338826935896
-0.003132512202592093,0.0135504000977124
-0.003132342202592093,0.0143732390415777
-0.003132172202592093,0.01470237461912327
-0.003132002202592093,0.0155581271207402
-0.003131832202592093,0.01592017625604189
-0.003131662202592093,0.01634805250685113
-0.003131492202592093,0.01710506433520457
-0.003131322202592093,0.0173683727972424
-0.003131152202592093,0.01654553385337847
-0.003130982202592093,0.01690758298867794
-0.003130812202592093,0.01605183048706011
-0.003130642202592093,0.01539355933196897
-0.003130472202592093,0.01578852202502294
-0.003130302202592093,0.01545938644747809
-0.003130132202592093,0.0150644237544234
-0.003129962202592093,0.01440615259933346
-0.003129792202592093,0.01401118990627757
-0.003129622202592093,0.01341874586669555
-0.003129452202592093,0.01315543740465957
-0.003129282202592093,0.01378079500199567
-0.003129112202592093,0.01308961028914997
-0.003128942202592093,0.01305669673139542
-0.003128772202592093,0.01295795605813175
-0.003128602202592093,0.01226677134528605
-0.003128432202592093,0.01193763576774048
-0.003128262202592093,0.01200346288324959
-0.003128092202592093,0.01154267307468579
-0.003127922202592093,0.01164141374794946
-0.003127752202592093,0.01114771038163152
-0.003127582202592093,0.011378105285913
-0.003127412202592093,0.01167432730570402
-0.003127242202592093,0.01203637644100558
-0.003127072202592093,0.01282630182711352
-0.003126902202592093,0.0125300798073225
-0.003126732202592093,0.01213511711426913
-0.003126562202592093,0.01285921538486808
-0.003126392202592093,0.01351748653995922
-0.003126222202592093,0.01381370855975059
-0.003126052202592093,0.01401118990627757
-0.003125882202592093,0.01378079500199567
-0.003125712202592093,0.01312252384690381
-0.003125542202592093,0.01272756115384985
-0.003125372202592093,0.01180598153672225
-0.003125202202592093,0.01058817989980124
-0.003125032202592093,0.009271637589621349
-0.003124862202592093,0.008481712203511979
-0.003124692202592093,0.007428478355364116
-0.003124522202592093,0.00630941739171121
-0.003124352202592093,0.005947368256411082
-0.003124182202592092,0.00505870219703828
-0.003124012202592093,0.005190356428056269
-0.003123842202592093,0.004927047966019811
-0.003123672202592092,0.00515744287030231
-0.003123502202592093,0.005486578447847282
-0.003123332202592093,0.006803120758029567
-0.003123162202592093,0.007724700375155489
-0.003122992202592093,0.008679193550039321
-0.003122822202592093,0.009436205378394135
-0.003122652202592093,0.01078566124632852
-0.003122482202592093,0.01062109345755819
-0.003122312202592093,0.01213511711426782
-0.003122142202592093,0.0123984255763038
-0.003121972202592093,0.01272756115384985
-0.003121802202592093,0.01305669673139542
-0.003121632202592093,0.01348457298220388
-0.003121462202592093,0.01236551201854972
-0.003121292202592093,0.0127604747116044
-0.003121122202592093,0.01239842557630493
-0.003120952202592093,0.01147684595917668
-0.003120782202592093,0.01213511711426782
-0.003120612202592093,0.01108188326612391
-0.003120442202592093,0.01118062393938566
-0.003120272202592093,0.01048943922653996
-0.003120102202592093,0.01032487143776748
-0.003119932202592093,0.01019321720674895
-0.003119762202592093,0.009567859609412364
-0.003119592202592093,0.009403291820639878
-0.003119422202592093,0.009666600282676035
-0.003119252202592093,0.009238724031866792
-0.003119082202592093,0.009205810474112296
-0.003118912202592093,0.00871210710779388
-0.003118742202592093,0.008580452876775651
-0.003118572202592093,0.008317144414739193
-0.003118402202592093,0.008382971530248308
-0.003118232202592093,0.008218403741475522
-0.003118062202592093,0.00811966306821185
-0.003117892202592093,0.008613366434530208
-0.003117722202592093,0.008613366434530208
-0.003117552202592093,0.008942502012075779
-0.003117382202592093,0.009370378262885021
-0.003117212202592093,0.009962822302467049
-0.003117042202592093,0.01009447653348528
-0.003116872202592093,0.009732427398185629
-0.003116702202592093,0.009995735860221606
-0.003116532202592093,0.01006156297573072
-0.003116362202592093,0.01002864941797592
-0.003116192202592093,0.009896995186957936
-0.003116022202592093,0.009864081629203377
-0.003115852202592093,0.009798254513693545
-0.003115682202592093,0.009403291820639578
-0.003115512202592093,0.009008329127584893
-0.003115342202592093,0.009107069800847307
-0.003115172202592093,0.008415885088002865
-0.003115002202592093,0.007889268163929951
-0.003114832202592093,0.007296824124347804
-0.003114662202592093,0.007230997008838809
-0.003114492202592093,0.007198083451084253
-0.003114322202592093,0.007099342777819624
-0.003114152202592093,0.006572725853747667
-0.003113982202592093,0.00653981229599311
-0.003113812202592092,0.00673729364252147
-0.003113642202592093,0.007296824124347924
-0.003113472202592093,0.007362651239857037
-0.003113302202592092,0.008185490183721266
-0.003113132202592093,0.008350057972493751
-0.003112962202592093,0.00973242739818515
-0.003112792202592092,0.01025904432225986
-0.003112622202592093,0.01124645105489478
-0.003112452202592093,0.01174015442121313
-0.003112282202592093,0.01233259846079408
-0.003112112202592093,0.0132212645201682
-0.003111942202592093,0.01348457298220466
-0.003111772202592093,0.01394536279076762
-0.003111602202592093,0.01410993057954124
-0.003111432202592093,0.0141428441372958
-0.003111262202592093,0.01394536279076882
-0.003111092202592093,0.01394536279076846
-0.003110922202592093,0.01394536279076846
-0.003110752202592093,0.01401118990627745
-0.003110582202592093,0.0127604747116044
-0.003110412202592093,0.01305669673139542
-0.003110242202592093,0.01279338826935944
-0.003110072202592093,0.01249716624956795
-0.003109902202592093,0.01269464759609529
-0.003109732202592093,0.01305669673139476
-0.003109562202592093,0.01295795605813175
-0.003109392202592093,0.01378079500199567
-0.003109222202592093,0.01358331365546869
-0.003109052202592093,0.01341874586669555
-0.003108882202592093,0.01355040009771377
-0.003108712202592093,0.0144061525993307
-0.003108542202592093,0.01335291875118643
-0.003108372202592093,0.01361622721322289
-0.003108202202592093,0.01328709163567792
-0.003108032202592093,0.01285921538486808
-0.003107862202592093,0.01285921538486808
-0.003107692202592093,0.0122996849030406
-0.003107522202592093,0.01197054932549503
-0.003107352202592093,0.01111479682387655
-0.003107182202592093,0.01075274768857642
-0.003107012202592093,0.01104896970836743
-0.003106842202592093,0.01114771038163111
-0.003106672202592093,0.01108188326612199
-0.003106502202592093,0.01095022903510382
-0.003106332202592093,0.01098314259285832
-0.003106162202592093,0.01042361211103085
-0.003105992202592093,0.01035778499552347
-0.003105822202592093,0.01131227817040389
-0.003105652202592093,0.009995735860221606
-0.003105482202592093,0.01035778499552215
-0.003105312202592093,0.01058817989980363
-0.003105142202592093,0.01098314259285832
-0.003104972202592093,0.01081857480408583
-0.003104802202592093,0.01098314259285832
-0.003104632202592093,0.01095022903510376
-0.003104462202592093,0.01150975951693183
-0.003104292202592093,0.0118388950944768
-0.003104122202592093,0.01177306797896769
-0.003103952202592093,0.01220094422977687
-0.003103782202592093,0.01216803067202238
-0.003103612202592093,0.01239842557630427
-0.003103442202592093,0.01305669673139506
-0.003103272202592093,0.01285921538486808
-0.003103102202592093,0.01338583230894099
-0.003102932202592092,0.01397827634852349
-0.003102762202592093,0.01424158481055947
-0.003102592202592093,0.01700632366194227
-0.003102422202592092,0.01266173403834151
-0.003102252202592093,0.01308961028914997
-0.003102082202592093,0.01503151019666884
-0.003101912202592093,0.01424158481056091
-0.003101742202592093,0.01447197971484137
-0.003101572202592093,0.0143732390415777
-0.003101402202592093,0.01476820173463167
-0.003101232202592093,0.01473528817687783
-0.003101062202592093,0.01489985596565062
-0.003100892202592093,0.01483402885014162
-0.003100722202592093,0.01473528817687783
-0.003100552202592093,0.0150644237544234
-0.003100382202592093,0.0150644237544234
-0.003100212202592093,0.0152948186587053
-0.003100042202592093,0.01503151019666884
-0.003099872202592093,0.01463654750361488
-0.003099702202592093,0.01424158481055947
-0.003099532202592093,0.01358331365546833
-0.003099362202592093,0.01318835096241436
-0.003099192202592093,0.01266173403834073
-0.003099022202592093,0.0122996849030406
-0.003098852202592093,0.01167432730570516
-0.003098682202592093,0.01177306797896769
-0.003098512202592093,0.01141101884366756
-0.003098342202592093,0.01042361211103264
-0.003098172202592093,0.01052235278429452
-0.003098002202592093,0.01035778499552173
-0.003097832202592093,0.009962822302467767
-0.003097662202592093,0.009798254513694264
-0.003097492202592093,0.01006156297573072
-0.003097322202592093,0.01012739009123984
-0.003097152202592093,0.01062109345755819
-0.003096982202592093,0.01108188326612199
-0.003096812202592093,0.01114771038163111
-0.003096642202592093,0.01164141374794946
-0.003096472202592093,0.01197054932549503
-0.003096302202592093,0.01203637644100415
-0.003096132202592093,0.0122996849030406
-0.003095962202592093,0.01213511711426782
-0.003095792202592093,0.0118388950944768
-0.003095622202592093,0.01150975951693147
-0.003095452202592093,0.01164141374794946
-0.003095282202592093,0.01131227817040389
-0.003095112202592093,0.01124645105489382
-0.003094942202592093,0.01071983413082186
-0.003094772202592093,0.01048943922653996
-0.003094602202592093,0.01058817989980393
-0.003094432202592093,0.01075274768857642
-0.003094262202592093,0.01068692057306731
-0.003094092202592093,0.01088440191959441
-0.003093922202592093,0.01075274768857642
-0.003093752202592093,0.01101605615061288
-0.003093582202592093,0.01137810528591229
-0.003093412202592093,0.01098314259285832
-0.003093242202592093,0.01118062393938566
-0.003093072202592093,0.01216803067202172
-0.003092902202592093,0.01180598153672225
-0.003092732202592093,0.01203637644100415
-0.003092562202592092,0.01262882048058629
-0.003092392202592093,0.01269464759609529
-0.003092222202592093,0.01302378317364086
-0.003092052202592092,0.01315543740465903
-0.003091882202592093,0.01312252384690453
-0.003091712202592093,0.01312252384690453
-0.003091542202592092,0.01223385778753179
-0.003091372202592093,0.01239842557630427
-0.003091202202592093,0.01203637644100415
-0.003091032202592093,0.01157558663244119
-0.003090862202592093,0.01131227817040389
-0.003090692202592093,0.01081857480408553
-0.003090522202592093,0.01025904432225908
-0.003090352202592093,0.009534946051657807
-0.003090182202592093,0.009139983358603122
-0.003090012202592093,0.008679193550040159
-0.003089842202592093,0.008679193550039321
