Analysis/New Tests_CMB/wrd01_d2s01_new/cmb07_ch37.csv

#Digilent WaveForms Oscilloscope Acquisition
#Device Name: ADP3450
#Serial Number: SN:210018B9D9B0
#Date Time: 2024-08-15 12:36:56.075.238.930
#Sample rate: 5.88235e+06Hz
#Samples: 32768
#Trigger: Source: Channel 3 Type: Edge Condition: Rising Level: 40 mV Hyst.: Auto HoldOff: 0 s
#Channel 3: Range: 100 mV/div Offset: 0 V Attenuation: 1 X Coupling: DC Bandwidth: 0 Hz Sample Mode: Average

Time (s),Channel 3 (V)
-0.0031688669961147,0.02095595059248912
-0.0031686969961147,0.0204293336684186
-0.0031685269961147,0.0217458759785985
-0.0031683569961147,0.02033059299515254
-0.0031681869961147,0.02065972857269841
-0.0031680169961147,0.02082429636147089
-0.0031678469961147,0.02098886415024368
-0.0031676769961147,0.02102177770799896
-0.0031675069961147,0.02141674040105292
-0.0031673369961147,0.02118634549677102
-0.0031671669961147,0.0210217777079977
-0.0031669969961147,0.02072555568820722
-0.0031668269961147,0.02013311164862519
-0.0031666569961147,0.01993563030209684
-0.0031664869961147,0.01937609982027038
-0.0031663169961147,0.01911279135823393
-0.0031661469961147,0.01822412529885981
-0.0031659769961147,0.01763168125927886
-0.0031658069961147,0.01753294058601518
-0.0031656369961147,0.01736837279724276
-0.0031654669961147,0.01756585414376974
-0.0031652969961147,0.0175987677015243
-0.003165126996114701,0.01746711347050631
-0.0031649569961147,0.01756585414376974
-0.0031647869961147,0.0178291626058062
-0.003164616996114701,0.01805955751008768
-0.0031644469961147,0.01838869308763367
-0.0031642769961147,0.01845452020314278
-0.003164106996114701,0.01842160664538828
-0.0031639369961147,0.01868491510742468
-0.0031637669961147,0.01878365578068835
-0.003163596996114701,0.01852034731865237
-0.0031634269961147,0.01858617443416101
-0.0031632569961147,0.01894822356946114
-0.003163086996114701,0.01881656933844315
-0.0031629169961147,0.01848743376089734
-0.0031627469961147,0.01799373039457898
-0.003162576996114701,0.01855326087640544
-0.0031624069961147,0.01947484049353405
-0.0031622369961147,0.01901405068497026
-0.003162066996114701,0.0184545202031438
-0.0031618969961147,0.01812538462559721
-0.0031617269961147,0.01605183048706011
-0.003161556996114701,0.017434199912749
-0.0031613869961147,0.01723671856622417
-0.0031612169961147,0.01638096606460569
-0.003161046996114701,0.01601891692930622
-0.0031608769961147,0.01624931183358745
-0.0031607069961147,0.01585434914053277
-0.003160536996114701,0.0157556084672691
-0.0031603669961147,0.0157556084672691
-0.0031601969961147,0.01532773221645986
-0.003160026996114701,0.01424158481055947
-0.0031598569961147,0.01447197971484137
-0.0031596869961147,0.01335291875118643
-0.003159516996114701,0.01282630182711352
-0.0031593469961147,0.01226677134528599
-0.0031591769961147,0.01223385778753149
-0.003159006996114701,0.01180598153672225
-0.0031588369961147,0.01124645105489424
-0.0031586669961147,0.01095022903510376
-0.0031584969961147,0.01055526634204908
-0.0031583269961147,0.01035778499552161
-0.0031581569961147,0.01029195788001262
-0.0031579869961147,0.01042361211103085
-0.0031578169961147,0.01016030364899565
-0.0031576469961147,0.01085148836184009
-0.0031574769961147,0.01068692057306731
-0.0031573069961147,0.01104896970836821
-0.0031571369961147,0.01147684595917668
-0.0031569669961147,0.01216803067202238
-0.0031567969961147,0.01239842557630499
-0.0031566269961147,0.01279338826935896
-0.0031564569961147,0.01282630182711352
-0.0031562869961147,0.01299086961588798
-0.0031561169961147,0.0139124492330139
-0.0031559469961147,0.01361622721322289
-0.0031557769961147,0.01414284413729604
-0.0031556069961147,0.01427449836831403
-0.0031554369961147,0.01476820173463239
-0.0031552669961147,0.01509733731217772
-0.0031550969961147,0.01496568308115973
-0.0031549269961147,0.01499859663891429
-0.003154756996114701,0.01532773221645926
-0.0031545869961147,0.0148340288501415
-0.0031544169961147,0.01470237461912327
-0.003154246996114701,0.0143732390415783
-0.0031540769961147,0.01378079500199567
-0.0031539069961147,0.01315543740465909
-0.003153736996114701,0.01282630182711412
-0.0031535669961147,0.01239842557630427
-0.0031533969961147,0.01190472220998592
-0.003153226996114701,0.01127936461265047
-0.0031530569961147,0.01048943922653996
-0.0031528869961147,0.01019321720674895
-0.003152716996114701,0.01025904432225794
-0.0031525469961147,0.01101605615061288
-0.0031523769961147,0.01243133913405883
-0.003152206996114701,0.01371496788648422
-0.0031520369961147,0.01239842557630427
-0.0031518669961147,0.01302378317364086
-0.003151696996114701,0.01315543740465885
-0.0031515269961147,0.01312252384690453
-0.0031513569961147,0.01239842557630427
-0.003151186996114701,0.0120692899987593
-0.0031510169961147,0.01121353749714022
-0.0031508469961147,0.01114771038163111
-0.003150676996114701,0.01065400701531365
-0.0031505069961147,0.01006156297573072
-0.0031503369961147,0.01098314259285832
-0.003150166996114701,0.01012739009123984
-0.0031499969961147,0.009929908744712493
-0.0031498269961147,0.009304551147375908
-0.003149656996114701,0.009337464705130465
-0.0031494869961147,0.00950203249390325
-0.0031493169961147,0.009534946051657807
-0.003149146996114701,0.009304551147375908
-0.0031489769961147,0.00983116807144882
-0.0031488069961147,0.009600773167166921
-0.003148636996114701,0.009699513840430593
-0.0031484669961147,0.01006156297573138
-0.0031482969961147,0.01042361211103085
-0.0031481269961147,0.01062109345755819
-0.0031479569961147,0.01091731547734933
-0.0031477869961147,0.01098314259285832
-0.0031476169961147,0.01104896970836743
-0.0031474469961147,0.01137810528591971
-0.0031472769961147,0.0150644237544234
-0.0031471069961147,0.01085148836184009
-0.0031469369961147,0.009864081629205473
-0.0031467669961147,0.01101605615061288
-0.0031465969961147,0.01052235278429452
-0.0031464269961147,0.01111479682387697
-0.0031462569961147,0.01134519172815845
-0.0031460869961147,0.01164141374794946
-0.0031459169961147,0.01150975951693141
-0.0031457469961147,0.0116085001901949
-0.0031455769961147,0.01121353749714022
-0.0031454069961147,0.01078566124633044
-0.0031452369961147,0.01048943922653996
-0.0031450669961147,0.009765340955939707
-0.0031448969961147,0.009172896916357439
-0.0031447269961147,0.00904124268533945
-0.0031445569961147,0.008251317299230079
-0.0031443869961147,0.007461391913119572
-0.0031442169961147,0.006836034315784124
-0.0031440469961147,0.006210676718447538
-0.003143876996114701,0.005815714025393571
-0.0031437069961147,0.005387837774583611
-0.0031435369961147,0.005486578447847282
-0.003143366996114701,0.005058702197038818
-0.0031431969961147,0.005585319121110954
-0.0031430269961147,0.004992875081528926
-0.003142856996114701,0.004992875081528926
-0.0031426869961147,0.004959961523774369
-0.0031425169961147,0.005716973352129182
-0.003142346996114701,0.006770207200273094
-0.0031421769961147,0.006967688546802352
-0.0031420069961147,0.007362651239857037
-0.003141836996114701,0.007296824124348044
-0.0031416669961147,0.007428478355366152
-0.0031414969961147,0.007691786817402609
-0.003141326996114701,0.007757613932911603
-0.0031411569961147,0.007362651239857037
-0.0031409869961147,0.00779052749066628
-0.003140816996114701,0.008119663068211252
-0.0031406469961147,0.008448798645757422
-0.0031404769961147,0.00904124268533945
-0.003140306996114701,0.0096336867249204
-0.0031401369961147,0.00950203249390325
-0.0031399669961147,0.009633686724921478
-0.003139796996114701,0.009896995186957936
-0.0031396269961147,0.009765340955939707
-0.0031394569961147,0.009436205378394135
-0.003139286996114701,0.008613366434530208
-0.0031391169961147,0.007955095279439066
-0.0031389469961147,0.007922181721684508
-0.003138776996114701,0.008152576625966409
-0.0031386069961147,0.008152576625966409
-0.0031384369961147,0.00811966306821185
-0.003138266996114701,0.008350057972493751
-0.0031380969961147,0.008350057972493512
-0.0031379269961147,0.008218403741475522
-0.0031377569961147,0.007955095279439066
-0.0031375869961147,0.007625959701893734
-0.0031374169961147,0.007757613932911723
-0.0031372469961147,0.008218403741475522
-0.0031370769961147,0.008152576625967965
-0.0031369069961147,0.009008329127584893
-0.0031367369961147,0.00973242739818515
-0.0031365669961147,0.01039069855327629
-0.0031363969961147,0.01039069855327629
-0.0031362269961147,0.00983116807144882
-0.0031360569961147,0.009798254513694083
-0.0031358869961147,0.009699513840430593
-0.0031357169961147,0.009929908744712493
-0.0031355469961147,0.01022613076450351
-0.0031353769961147,0.01022613076450351
-0.0031352069961147,0.01006156297573072
-0.0031350369961147,0.01016030364899427
-0.0031348669961147,0.01009447653348528
-0.0031346969961147,0.009666600282676035
-0.0031345269961147,0.009139983358602763
-0.0031343569961147,0.008942502012075779
-0.0031341869961147,0.008317144414739193
-0.0031340169961147,0.008350057972494411
-0.0031338469961147,0.00871210710779388
-0.0031336769961147,0.009074156243094007
-0.003133506996114701,0.008942502012076019
-0.0031333369961147,0.009995735860221606
-0.0031331669961147,0.00973242739818515
-0.003132996996114701,0.009172896916358697
-0.0031328269961147,0.008613366434530208
-0.0031326569961147,0.008613366434530208
-0.003132486996114701,0.009436205378392638
-0.0031323169961147,0.01081857480408553
-0.0031321469961147,0.011378105285913
-0.003131976996114701,0.01095022903510454
-0.0031318069961147,0.01062109345755819
-0.0031316369961147,0.01042361211103085
-0.003131466996114701,0.01025904432225836
-0.0031312969961147,0.009534946051657807
-0.0031311269961147,0.009139983358603122
-0.003130956996114701,0.008810847781058149
-0.0031307869961147,0.008843761338812107
-0.0031306169961147,0.009436205378394135
-0.003130446996114701,0.01019321720674757
-0.0031302769961147,0.01006156297573072
-0.0031301069961147,0.01032487143776718
-0.003129936996114701,0.01019321720674919
-0.0031297669961147,0.009798254513694264
-0.0031295969961147,0.009238724031866792
-0.003129426996114701,0.009798254513693245
-0.0031292569961147,0.00983116807144882
-0.0031290869961147,0.01035778499552173
-0.003128916996114701,0.01042361211103085
-0.0031287469961147,0.009765340955939707
-0.0031285769961147,0.009699513840430593
-0.003128406996114701,0.009995735860221606
-0.0031282369961147,0.01016030364899439
-0.0031280669961147,0.01002864941797616
-0.003127896996114701,0.01022613076450351
-0.0031277269961147,0.01085148836183841
-0.0031275569961147,0.009929908744712493
-0.003127386996114701,0.009929908744712493
-0.0031272169961147,0.01012739009123918
-0.0031270469961147,0.009765340955939707
-0.0031268769961147,0.009469118936148692
-0.0031267069961147,0.009337464705129746
-0.0031265369961147,0.008942502012075779
-0.0031263669961147,0.008547539319021094
-0.0031261969961147,0.008613366434531405
-0.0031260269961147,0.009271637589621349
-0.0031258569961147,0.008547539319021094
-0.0031256869961147,0.009337464705129148
-0.0031255169961147,0.008613366434530208
-0.0031253469961147,0.008745020665548437
-0.0031251769961147,0.008382971530248728
-0.0031250069961147,0.008613366434530208
-0.0031248369961147,0.00871210710779388
-0.0031246669961147,0.008481712203511739
-0.0031244969961147,0.008350057972493751
-0.0031243269961147,0.00881084778105755
-0.0031241569961147,0.008152576625966768
-0.0031239869961147,0.008350057972493751
-0.0031238169961147,0.008909588454321223
-0.0031236469961147,0.007724700375155789
-0.0031234769961147,0.006967688546802352
-0.0031233069961147,0.006868947873538681
-0.003123136996114701,0.006309417391712227
-0.0031229669961147,0.006441071622729439
-0.0031227969961147,0.006243590276202096
-0.003122626996114701,0.005354924216830671
-0.0031224569961147,0.004795393735001583
-0.0031222869961147,0.004630825946228797
-0.003122116996114701,0.004564998830719804
-0.0031219469961147,0.005519492005601839
-0.0031217769961147,0.005519492005601839
-0.003121606996114701,0.005684059794374326
-0.0031214369961147,0.005914454698656525
-0.0031212669961147,0.006704380084765896
-0.003121096996114701,0.007395564797610337
-0.0031209269961147,0.00811966306821185
-0.0031207569961147,0.008942502012075779
-0.003120586996114701,0.00976534095593821
-0.0031204169961147,0.01101605615061288
-0.0031202469961147,0.01223385778753149
-0.003120076996114701,0.01236551201854948
-0.0031199069961147,0.01239842557630427
-0.0031197369961147,0.01233259846079516
-0.003119566996114701,0.0118059815367232
-0.0031193969961147,0.01141101884366756
-0.0031192269961147,0.009534946051657807
-0.003119056996114701,0.01055526634204722
-0.0031188869961147,0.009896995186957936
-0.0031187169961147,0.009107069800848565
-0.003118546996114701,0.009205810474112236
-0.0031183769961147,0.00871210710779388
-0.0031182069961147,0.008086749510457293
-0.003118036996114701,0.007395564797611595
-0.0031178669961147,0.00700060210455691
-0.0031176969961147,0.006605639411502225
-0.003117526996114701,0.006046108929674754
-0.0031173569961147,0.006342330949465767
-0.0031171869961147,0.006243590276202096
-0.003117016996114701,0.00607902248742931
-0.0031168469961147,0.006144849602938545
-0.0031166769961147,0.006210676718447538
-0.0031165069961147,0.006375244507220324
-0.0031163369961147,0.006309417391710671
-0.0031161669961147,0.006013195371920196
-0.0031159969961147,0.006013195371920196
-0.0031158269961147,0.005223269985810945
-0.0031156569961147,0.00528909710131994
-0.0031154869961147,0.005651146236620068
-0.0031153169961147,0.005881541140901908
-0.0031151469961147,0.005848627583147411
-0.0031149769961147,0.006144849602938425
-0.0031148069961147,0.00653981229599335
-0.0031146369961147,0.006671466527011338
-0.0031144669961147,0.008251317299230079
-0.0031142969961147,0.008777934223302693
-0.0031141269961147,0.008613366434530208
-0.0031139569961147,0.009205810474112236
-0.0031137869961147,0.009567859609412664
-0.0031136169961147,0.00973242739818515
-0.0031134469961147,0.01035778499552173
-0.0031132769961147,0.01104896970836713
-0.0031131069961147,0.01088440191959465
-0.0031129369961147,0.01104896970836743
-0.0031127669961147,0.01098314259285802
-0.0031125969961147,0.01081857480408553
-0.0031124269961147,0.01002864941797616
-0.003112256996114701,0.01022613076450315
-0.0031120869961147,0.01045652566878541
-0.0031119169961147,0.01144393240142212
-0.003111746996114701,0.01101605615061365
-0.0031115769961147,0.01114771038163111
-0.0031114069961147,0.01062109345755819
-0.003111236996114701,0.01101605615061216
-0.0031110669961147,0.01088440191959465
-0.0031108969961147,0.01012739009123984
-0.003110726996114701,0.009074156243095922
-0.0031105569961147,0.00811966306821185
-0.0031103869961147,0.007658873259648051
-0.003110216996114701,0.007955095279438527
-0.0031100469961147,0.008350057972493751
-0.0031098769961147,0.007922181721684508
-0.003109706996114701,0.007296824124349061
-0.0031095369961147,0.007461391913120709
-0.0031093669961147,0.007329737682102481
-0.003109196996114701,0.007362651239856978
-0.0031090269961147,0.007988008837193623
-0.0031088569961147,0.008382971530248308
-0.003108686996114701,0.0096666002826737
-0.0031085169961147,0.009469118936148692
-0.0031083469961147,0.00973242739818515
-0.003108176996114701,0.0102590443222571
-0.0031080069961147,0.01081857480408553
-0.0031078369961147,0.01131227817040389
-0.003107666996114701,0.01167432730570402
-0.0031074969961147,0.01121353749714022
-0.0031073269961147,0.01039069855327629
-0.003107156996114701,0.01039069855327629
-0.0031069869961147,0.01029195788001262
-0.0031068169961147,0.009995735860221606
-0.003106646996114701,0.009469118936148692
-0.0031064769961147,0.008613366434529668
-0.0031063069961147,0.008317144414739193
-0.0031061369961147,0.008152576625966409
-0.0031059669961147,0.008086749510456993
-0.0031057969961147,0.007922181721684508
-0.0031056269961147,0.00756013258638438
-0.0031054569961147,0.00788926816392989
-0.0031052869961147,0.007856354606175394
-0.0031051169961147,0.007856354606175394
-0.0031049469961147,0.006539812295997002
-0.0031047769961147,0.008679193550039321
-0.0031046069961147,0.009172896916357679
-0.0031044369961147,0.009403291820640237
-0.0031042669961147,0.009765340955939707
-0.0031040969961147,0.01052235278429452
-0.0031039269961147,0.01068692057306743
-0.0031037569961147,0.01075274768857642
-0.0031035869961147,0.01098314259285832
-0.0031034169961147,0.01085148836184033
-0.0031032469961147,0.01098314259285832
-0.0031030769961147,0.01351748653995922
-0.0031029069961147,0.0120363764409993
-0.0031027369961147,0.009370378262885021
-0.0031025669961147,0.01025904432225806
-0.0031023969961147,0.009271637589622368
-0.0031022269961147,0.00983116807144882
-0.0031020569961147,0.009107069800848565
-0.003101886996114701,0.009732427398184012
-0.0031017169961147,0.009534946051657807
-0.0031015469961147,0.00973242739818515
-0.003101376996114701,0.009107069800849703
-0.0031012069961147,0.00904124268533945
-0.0031010369961147,0.009337464705130465
-0.003100866996114701,0.009074156243094485
-0.0031006969961147,0.00881084778105755
-0.0031005269961147,0.009172896916357679
-0.003100356996114701,0.009370378262884662
-0.0031001869961147,0.01025904432225806
-0.0031000169961147,0.01039069855327629
-0.003099846996114701,0.01081857480408475
-0.0030996769961147,0.01085148836184009
-0.0030995069961147,0.01052235278429452
-0.003099336996114701,0.01025904432225854
-0.0030991669961147,0.01039069855327629
-0.0030989969961147,0.01071983413082186
-0.003098826996114701,0.01081857480408535
-0.0030986569961147,0.01078566124633098
-0.0030984869961147,0.01114771038163111
-0.003098316996114701,0.01144393240142158
-0.0030981469961147,0.01170724086345858
-0.0030979769961147,0.01190472220998592
-0.003097806996114701,0.01187180865223142
-0.0030976369961147,0.01193763576774048
-0.0030974669961147,0.01236551201854972
-0.003097296996114701,0.01216803067202238
-0.0030971269961147,0.0120692899987587
-0.0030969569961147,0.01180598153672225
-0.003096786996114701,0.01177306797896769
-0.0030966169961147,0.01091731547734921
-0.0030964469961147,0.009864081629203377
-0.003096276996114701,0.008843761338812107
-0.0030961069961147,0.008547539319021094
-0.0030959369961147,0.008448798645757422
-0.003095766996114701,0.008481712203511979
-0.0030955969961147,0.008448798645757961
-0.0030954269961147,0.008745020665548437
-0.0030952569961147,0.007395564797611595
-0.0030950869961147,0.006704380084764519
-0.0030949169961147,0.005947368256411082
-0.0030947469961147,0.005848627583147411
-0.0030945769961147,0.005552405563357115
-0.0030944069961147,0.005947368256411082
-0.0030942369961147,0.006408158064974882
-0.0030940669961147,0.007033515662310449
-0.0030938969961147,0.006473985180483996
-0.0030937269961147,0.005651146236620068
-0.0030935569961147,0.005091615754791999
-0.0030933869961147,0.004762480177247026
-0.0030932169961147,0.004301690368683227
-0.0030930469961147,0.004499171715210869
-0.0030928769961147,0.004663739503983355
-0.0030927069961147,0.004564998830719684
-0.0030925369961147,0.004005468348891195
-0.0030923669961147,0.003445937867064742
-0.0030921969961147,0.0030180616162555
-0.0030920269961147,0.003840900560119607
-0.0030918569961147,0.003939641233383098
-0.0030916869961147,0.003939641233383098
-0.0030915169961147,0.004202949695419555
-0.0030913469961147,0.004202949695419555
-0.0030911769961147,0.004696653061737912
-0.003091006996114701,0.004992875081528387
-0.0030908369961147,0.005453664890092726
-0.0030906669961147,0.005881541140901968
-0.003090496996114701,0.007000602104554874
-0.0030903269961147,0.007823441048420837
-0.0030901569961147,0.008646279992284765
-0.003089986996114701,0.009074156243093228
-0.0030898169961147,0.009436205378394135
-0.0030896469961147,0.01002864941797616
-0.003089476996114701,0.01029195788001214
-0.0030893069961147,0.01016030364899439
-0.0030891369961147,0.01009447653348528
-0.003088966996114701,0.009337464705131842
-0.0030887969961147,0.009238724031866792
-0.0030886269961147,0.009370378262885021
-0.003088456996114701,0.01006156297572946
-0.0030882869961147,0.009337464705130465
-0.0030881169961147,0.008415885088002865
-0.003087946996114701,0.00752721902863144
-0.0030877769961147,0.007461391913120709
-0.0030876069961147,0.007625959701893495
