Analysis/New Tests_CMB/wrd01_d2s01_new/cmb02_ch00.csv

#Digilent WaveForms Oscilloscope Acquisition
#Device Name: ADP3450
#Serial Number: SN:210018B9D9B0
#Date Time: 2024-08-14 16:29:06.678.665.430
#Sample rate: 5.88235e+06Hz
#Samples: 32768
#Trigger: Source: Channel 3 Type: Edge Condition: Rising Level: 60 mV Hyst.: Auto HoldOff: 0 s
#Channel 3: Range: 100 mV/div Offset: 0 V Attenuation: 1 X Coupling: DC Bandwidth: 0 Hz Sample Mode: Average

Time (s),Channel 3 (V)
-0.003798489795647739,0.2045806893051632
-0.003798319795647739,0.2179435937535345
-0.003798149795647739,0.2295620796408721
-0.003797979795647739,0.2390411842741845
-0.003797809795647739,0.2470720923663085
-0.003797639795647739,0.2536877174749624
-0.003797469795647739,0.2598754663328192
-0.003797299795647739,0.2625414645109425
-0.003797129795647739,0.2648454135537573
-0.003796959795647739,0.2659973880751668
-0.003796789795647739,0.2657999067286388
-0.003796619795647739,0.2654378575933393
-0.003796449795647739,0.2645821050917208
-0.003796279795647739,0.2628706000884793
-0.003796109795647739,0.2603691696991375
-0.003795939795647739,0.2572423817124546
-0.003795769795647739,0.2534573225706754
-0.003795599795647739,0.2506267566037886
-0.003795429795647739,0.2462821669801871
-0.003795259795647739,0.242727502742688
-0.003795089795647739,0.2389095300431663
-0.003794919795647739,0.2349269895548649
-0.003794749795647739,0.2306153134890258
-0.003794579795647739,0.2264023780964346
-0.003794409795647739,0.2216628257797784
-0.003794239795647739,0.2175815446182207
-0.003794069795647739,0.2132698685523663
-0.003793899795647739,0.2090240196020284
-0.003793729795647739,0.2061605400773872
-0.003793559795647739,0.2018159504537804
-0.003793389795647739,0.198425854005061
-0.003793219795647739,0.1945749677477848
-0.003793049795647739,0.1912836119723222
-0.003792879795647739,0.1880580833123756
-0.003792709795647739,0.1844705055171353
-0.003792539795647739,0.1815082853192187
-0.003792369795647739,0.1780852753127447
-0.003792199795647739,0.1751559686725945
-0.003792029795647739,0.1720291806859062
-0.003791859795647739,0.1694290096232962
-0.003791689795647739,0.166104740290092
-0.003791519795647739,0.1631096065344213
-0.003791349795647739,0.1599499049899838
-0.003791179795647739,0.157119339023097
-0.003791009795647739,0.1545520815182364
-0.003790839795647739,0.1517215155513445
-0.003790669795647739,0.1489896902577212
-0.003790499795647739,0.1464224327528608
-0.003790329795647739,0.1441184837100418
-0.003790159795647739,0.1417816211094683
-0.003789989795647739,0.1395764127399129
-0.003789819795647739,0.1371078959083211
-0.003789649795647739,0.1346722926344839
-0.003789479795647739,0.1323025164761558
-0.003789309795647739,0.1298010860868095
-0.003789139795647739,0.1271350879086904
-0.003788969795647739,0.1247323981926038
-0.003788799795647739,0.1225930169385615
-0.003788629795647739,0.1204207221267607
-0.003788459795647739,0.1184129951037288
-0.003788289795647739,0.1162736138496865
-0.003788119795647739,0.1133113936517764
-0.003787949795647739,0.112258159803625
-0.003787779795647739,0.1092301124902113
-0.003787609795647739,0.1070578176784105
-0.003787439795647739,0.1046880415200792
-0.003787269795647739,0.1029436229590909
-0.003787099795647739,0.1013308586291176
-0.003786929795647739,0.09807241641141498
-0.003786759795647739,0.09728249102530706
-0.003786589795647739,0.09484688775146982
-0.003786419795647739,0.09320120986373905
-0.003786249795647739,0.09158844553376869
-0.003786079795647739,0.0884945711048403
-0.003785909795647739,0.08701346100588232
-0.003785739795647739,0.08540069667591194
-0.003785569795647739,0.08332714253737483
-0.003785399795647739,0.08168146464964321
-0.003785229795647739,0.07960791051110988
-0.003785059795647739,0.07839010887419129
-0.003784889795647739,0.07572411069607055
-0.003784719795647739,0.07483544463669911
-0.003784549795647739,0.07388095146181695
-0.003784379795647739,0.07309102607570903
-0.003784209795647739,0.07246566847837099
-0.003784039795647739,0.07210361934307086
-0.003783869795647739,0.07167574309226241
-0.003783699795647739,0.07131369395696149
-0.003783529795647739,0.07039211433983389
-0.003783359795647739,0.06976675674249846
-0.003783189795647739,0.06897683135638794
-0.003783019795647739,0.06845021443231503
-0.003782849795647739,0.06756154837294359
-0.003782679795647739,0.06696910433335995
-0.003782509795647739,0.06640957385153248
-0.003782339795647739,0.06538925356114308
-0.003782169795647739,0.06443476038625906
-0.003781999795647739,0.06357900788464058
-0.003781829795647739,0.06255868759425118
-0.003781659795647739,0.06147254018834892
-0.003781489795647739,0.06005725720490297
-0.003781319795647739,0.05874071489472307
-0.003781149795647739,0.05781913527759308
-0.003780979795647739,0.05637093873639257
-0.003780809795647739,0.05515313709947617
-0.003780639795647739,0.05347454565399155
-0.003780469795647739,0.05212508978605471
-0.003780299795647739,0.0509731152646473
-0.003780129795647739,0.04952491872344469
-0.003779959795647739,0.04830711708652608
-0.003779789795647739,0.0472209696806257
-0.003779619795647739,0.04649687141002544
-0.003779449795647739,0.04577277313942518
-0.003779279795647739,0.04481827996454302
-0.003779109795647739,0.04416000880945188
-0.003778939795647739,0.04356756476986986
-0.003778769795647739,0.04251433092172403
-0.003778599795647739,0.0421522817864239
-0.003778429795647739,0.041921886882142
-0.003778259795647739,0.04162566486235099
-0.003778089795647739,0.04103322082276728
-0.003777919795647739,0.04011164120564136
-0.003777749795647739,0.03922297514626832
-0.003777579795647739,0.03945337005054854
-0.003777409795647739,0.03853179043342262
-0.003777239795647739,0.03761021081629502
-0.003777069795647739,0.0374456430275211
-0.003776899795647739,0.03682028543018565
-0.003776729795647739,0.0360961871595854
-0.003776559795647739,0.03530626177347596
-0.003776389795647739,0.03527334821572146
-0.003776219795647739,0.03487838552266678
-0.003776049795647739,0.03491129908042002
-0.003775879795647739,0.03418720080982108
-0.003775709795647739,0.03398971946329374
-0.003775539795647739,0.03359475677023833
-0.003775369795647739,0.03319979407718437
-0.003775199795647739,0.03329853475044803
-0.003775029795647739,0.03290357205739281
-0.003774859795647739,0.03260735003760234
-0.003774689795647739,0.03234404157556588
-0.003774519795647739,0.03185033820924669
-0.003774349795647739,0.03138954840068373
-0.003774179795647739,0.03050088234131068
-0.003774009795647739,0.02961221628193615
-0.003773839795647739,0.02878937733807371
-0.003773669795647739,0.02783488416319156
-0.003773499795647739,0.02727535368136511
-0.003773329795647739,0.02625503339097282
-0.003773159795647739,0.02546510800486345
-0.003772989795647739,0.02470809617651001
-0.003772819795647739,0.02368777588611736
-0.003772649795647739,0.02306241828878078
-0.003772479795647739,0.02207501155614586
-0.003772309795647739,0.02171296242084393
-0.003772139795647739,0.02161422174758026
-0.003771969795647739,0.02141674040105328
-0.003771799795647739,0.02164713530533482
-0.003771629795647739,0.02131799972778925
-0.003771459795647739,0.0207584692459628
-0.003771289795647739,0.02158130818982571
-0.003771119795647739,0.02141674040105292
-0.003770949795647739,0.02121925905452594
-0.003770779795647739,0.02131799972778925
-0.003770609795647739,0.02108760482350735
-0.003770439795647739,0.02085720991922587
-0.003770269795647739,0.02062681501494355
-0.003770099795647739,0.02039642011066165
-0.003769929795647739,0.02000145741760768
-0.003769759795647739,0.01957358116679772
-0.003769589795647739,0.01914570491598848
-0.003769419795647739,0.01871782866517924
-0.003769249795647739,0.01802664395233354
-0.003769079795647739,0.01746711347050607
-0.003768909795647739,0.01687466943092404
-0.003768739795647739,0.01638096606460569
-0.003768569795647739,0.01611765760256923
-0.003768399795647739,0.01522899154319619
-0.003768229795647739,0.01486694240789606
-0.003768059795647739,0.01480111529238694
-0.003767889795647739,0.01453780683035049
-0.003767719795647739,0.01417575769505072
-0.003767549795647739,0.0143732390415777
-0.003767379795647739,0.0139124492330139
-0.003767209795647739,0.01384662211750425
-0.003767039795647739,0.01355040009771377
-0.003766869795647739,0.01348457298220466
-0.003766699795647739,0.0135174865399588
-0.003766529795647739,0.01328709163567732
-0.003766359795647739,0.01335291875118643
-0.003766189795647739,0.01332000519343092
-0.003766019795647739,0.01279338826935896
-0.003765849795647739,0.01266173403834073
-0.003765679795647739,0.01236551201855032
-0.003765509795647739,0.01269464759609529
-0.003765339795647739,0.01269464759609529
-0.003765169795647739,0.01239842557630517
-0.003764999795647739,0.01289212894262263
-0.003764829795647739,0.01318835096241365
-0.003764659795647739,0.01378079500199693
-0.003764489795647739,0.01447197971484137
-0.003764319795647739,0.01447197971484137
-0.003764149795647739,0.01503151019666837
-0.003763979795647739,0.01476820173463239
-0.003763809795647739,0.01493276952340517
-0.003763639795647739,0.01457072038810534
-0.003763469795647739,0.01473528817687783
-0.003763299795647739,0.01394536279076846
-0.003763129795647739,0.01315543740466052
-0.003762959795647739,0.01289212894262263
-0.003762789795647739,0.01190472220998592
-0.003762619795647739,0.01167432730570444
-0.003762449795647739,0.01071983413082186
-0.003762279795647739,0.01045652566878541
-0.003762109795647739,0.01025904432225842
-0.003761939795647739,0.00983116807144882
-0.003761769795647739,0.009864081629203377
-0.003761599795647739,0.009831168071448881
-0.003761429795647739,0.00973242739818515
-0.003761259795647739,0.01012739009123984
-0.003761089795647739,0.009929908744712852
-0.003760919795647739,0.01052235278429452
-0.003760749795647739,0.01078566124633098
-0.003760579795647739,0.01071983413082198
-0.003760409795647739,0.01022613076450351
-0.003760239795647739,0.01035778499552173
-0.003760069795647739,0.01098314259285718
-0.003759899795647739,0.01068692057306731
-0.003759729795647739,0.011378105285913
-0.003759559795647739,0.0102590443222601
-0.003759389795647739,0.01111479682387655
-0.003759219795647739,0.01071983413082186
-0.003759049795647739,0.01075274768857636
-0.003758879795647739,0.01035778499552173
-0.003758709795647739,0.01098314259285832
-0.003758539795647739,0.01118062393938566
-0.003758369795647739,0.01111479682387655
-0.003758199795647739,0.01157558663244035
-0.003758029795647739,0.01216803067202238
-0.003757859795647739,0.0118388950944768
-0.003757689795647739,0.01243133913405883
-0.003757519795647739,0.0120692899987587
-0.003757349795647739,0.01236551201854984
-0.003757179795647739,0.01243133913405883
-0.003757009795647739,0.01216803067202238
-0.003756839795647739,0.01187180865223112
-0.003756669795647739,0.01174015442121313
-0.003756499795647739,0.01177306797896769
-0.003756329795647739,0.01134519172815893
-0.003756159795647739,0.0116085001901949
-0.003755989795647739,0.01124645105489478
-0.003755819795647739,0.01095022903510322
-0.003755649795647739,0.01065400701531275
-0.003755479795647739,0.01016030364899439
-0.003755309795647739,0.009929908744711176
-0.003755139795647739,0.009205810474112236
-0.003754969795647739,0.009205810474112236
-0.003754799795647739,0.008810847781057011
-0.003754629795647739,0.008514625761266537
-0.003754459795647739,0.008679193550039321
-0.003754289795647739,0.008547539319021333
-0.003754119795647739,0.008679193550039321
-0.003753949795647739,0.008909588454321223
-0.003753779795647739,0.009107069800848924
-0.003753609795647739,0.009304551147375908
-0.003753439795647739,0.009633686724921478
-0.003753269795647739,0.01016030364899559
-0.003753099795647739,0.01081857480408553
-0.003752929795647739,0.01071983413082186
-0.003752759795647739,0.01075274768857636
-0.003752589795647739,0.01068692057306731
-0.003752419795647739,0.01052235278429452
-0.003752249795647739,0.01029195788001304
-0.003752079795647739,0.00983116807144882
-0.003751909795647739,0.009896995186957936
-0.003751739795647739,0.01006156297573042
-0.003751569795647739,0.009962822302467049
-0.003751399795647739,0.009666600282676035
-0.003751229795647739,0.009403291820640057
-0.003751059795647739,0.009403291820639578
-0.003750889795647739,0.008086749510457293
-0.003750719795647739,0.008350057972493273
-0.003750549795647739,0.008185490183720966
-0.003750379795647739,0.006671466527011338
-0.003750209795647739,0.00867919355003567
-0.003750039795647739,0.00802092239494818
-0.003749869795647739,0.007625959701893495
-0.003749699795647739,0.007362651239857516
-0.003749529795647739,0.007362651239857037
-0.003749359795647739,0.006803120758029567
-0.003749189795647739,0.006638552969257081
-0.003749019795647739,0.00630941739171121
-0.003748849795647739,0.006177763160692982
-0.003748679795647739,0.006342330949465468
-0.003748509795647739,0.006013195371920196
-0.003748339795647739,0.00630941739171121
-0.003748169795647739,0.005684059794374625
-0.003747999795647739,0.006046108929674754
-0.003747829795647739,0.006342330949465767
-0.003747659795647739,0.006243590276202096
-0.003747489795647739,0.006506898738238553
-0.003747319795647739,0.006177763160692982
-0.003747149795647739,0.006342330949465767
-0.003746979795647739,0.006046108929674754
-0.003746809795647739,0.005815714025392853
-0.003746639795647739,0.005651146236620068
-0.003746469795647739,0.005914454698655627
-0.003746299795647739,0.005420751332338168
-0.003746129795647739,0.005354924216829054
-0.003745959795647739,0.005058702197037382
-0.003745789795647739,0.004696653061737912
-0.003745619795647739,0.004400431041946898
-0.003745449795647739,0.003972554791137716
-0.003745279795647739,0.004005468348892213
-0.003745109795647739,0.004170036137664999
-0.003744939795647739,0.003906727675628901
-0.003744769795647739,0.004104209022155884
-0.003744599795647739,0.003906727675628541
-0.003744429795647739,0.003840900560120146
-0.003744259795647739,0.004235863253174112
-0.003744089795647739,0.004334603926437783
-0.003743919795647739,0.004828307292756439
-0.003743749795647739,0.004992875081528926
-0.003743579795647739,0.005716973352129182
-0.003743409795647739,0.005684059794374984
-0.003743239795647739,0.005881541140901968
-0.003743069795647739,0.00574988690988374
-0.003742899795647739,0.005420751332339006
-0.003742729795647739,0.005881541140901968
-0.003742559795647739,0.006111936045183867
-0.003742389795647739,0.006671466527012056
-0.003742219795647739,0.007066429220066024
-0.003742049795647739,0.006901861431293239
-0.003741879795647739,0.007922181721682652
-0.003741709795647739,0.007757613932911723
-0.003741539795647739,0.008152576625966409
-0.003741369795647739,0.008152576625966409
-0.003741199795647739,0.008514625761266537
-0.003741029795647739,0.009008329127584893
-0.003740859795647739,0.009172896916357379
-0.003740689795647739,0.008909588454321223
-0.003740519795647739,0.009337464705130465
-0.003740349795647739,0.009041242685339989
-0.003740179795647739,0.008613366434530208
-0.003740009795647739,0.008679193550039321
-0.003739839795647739,0.008547539319021333
-0.003739669795647739,0.008350057972493751
-0.003739499795647739,0.008350057972493751
-0.003739329795647739,0.008317144414739254
-0.003739159795647739,0.008152576625966409
-0.003738989795647739,0.008613366434530208
-0.003738819795647739,0.008152576625967247
-0.003738649795647739,0.008251317299230079
-0.003738479795647739,0.007856354606175394
-0.003738309795647739,0.008218403741474863
-0.003738139795647739,0.007955095279439066
-0.003737969795647739,0.007856354606175394
-0.003737799795647739,0.008152576625965869
-0.003737629795647739,0.007691786817402609
-0.003737459795647739,0.007625959701893495
-0.003737289795647739,0.006967688546802352
-0.003737119795647739,0.006408158064974882
-0.003736949795647739,0.006013195371920196
-0.003736779795647739,0.005914454698656525
-0.003736609795647739,0.006046108929674754
-0.003736439795647739,0.006177763160692982
-0.003736269795647739,0.005519492005601839
-0.003736099795647739,0.005552405563355679
-0.003735929795647739,0.005157442870301712
-0.003735759795647739,0.005190356428056269
-0.003735589795647739,0.005289097101320239
-0.003735419795647739,0.005453664890092726
-0.003735249795647739,0.005585319121110954
-0.003735079795647739,0.005684059794374805
-0.003734909795647739,0.005782800467638296
-0.003734739795647739,0.006408158064974882
-0.003734569795647739,0.006441071622730396
-0.003734399795647739,0.006967688546802352
-0.003734229795647739,0.006506898738238553
-0.003734059795647739,0.006046108929674933
-0.003733889795647739,0.006144849602938425
-0.003733719795647739,0.006408158064974882
-0.003733549795647739,0.006506898738238733
-0.003733379795647739,0.006605639411502225
-0.003733209795647739,0.006934774989047795
-0.003733039795647739,0.006539812295993649
-0.003732869795647739,0.006836034315784124
-0.003732699795647739,0.00700060210455691
-0.003732529795647739,0.007033515662311586
-0.003732359795647739,0.007099342777820581
-0.003732189795647739,0.007395564797611595
-0.003732019795647739,0.007099342777819624
-0.003731849795647739,0.006572725853747667
-0.003731679795647739,0.006276503833956653
-0.003731509795647739,0.006572725853747128
-0.003731339795647739,0.00653981229599311
-0.003731169795647739,0.00505870219703804
-0.003730999795647739,0.005782800467636979
-0.003730829795647739,0.005354924216829054
-0.003730659795647739,0.004894134408265255
-0.003730489795647739,0.005025788639283243
-0.003730319795647739,0.005256183543565383
-0.003730149795647739,0.005091615754792597
-0.003729979795647739,0.005519492005601061
-0.003729809795647739,0.005947368256411082
-0.003729639795647739,0.005947368256411082
-0.003729469795647739,0.005618232678866109
-0.003729299795647739,0.005881541140901968
-0.003729129795647739,0.006046108929674754
-0.003728959795647739,0.006539812295992212
-0.003728789795647739,0.006868947873538681
-0.003728619795647739,0.007165169893329695
-0.003728449795647739,0.007889268163928634
-0.003728279795647739,0.008415885088002865
-0.003728109795647739,0.009139983358603122
-0.003727939795647739,0.009436205378393596
-0.003727769795647739,0.00983116807144882
-0.003727599795647739,0.009864081629203377
-0.003727429795647739,0.01019321720674835
-0.003727259795647739,0.01009447653348528
-0.003727089795647739,0.01012739009123984
-0.003726919795647739,0.009962822302467049
-0.003726749795647739,0.009995735860221606
-0.003726579795647739,0.009699513840430593
-0.003726409795647739,0.009008329127584893
-0.003726239795647739,0.009337464705130465
-0.003726069795647739,0.008679193550039321
-0.003725899795647739,0.00904124268533945
-0.003725729795647739,0.00904124268533945
-0.003725559795647739,0.009271637589621349
-0.003725389795647739,0.008843761338812107
-0.003725219795647739,0.008382971530248907
-0.003725049795647739,0.00871210710779388
-0.003724879795647739,0.008448798645757422
-0.003724709795647739,0.008448798645757483
-0.003724539795647739,0.008481712203511979
-0.003724369795647739,0.008514625761266537
-0.003724199795647739,0.008382971530248728
-0.003724029795647739,0.008613366434530208
-0.003723859795647739,0.00881084778105755
-0.003723689795647739,0.008679193550039502
-0.003723519795647739,0.008777934223302994
-0.003723349795647739,0.008152576625966409
-0.003723179795647739,0.008086749510457174
-0.003723009795647739,0.00802092239494818
-0.003722839795647739,0.007099342777820581
-0.003722669795647739,0.007494305470873889
-0.003722499795647739,0.006737293642520453
-0.003722329795647739,0.006342330949465767
-0.003722159795647739,0.005651146236619889
-0.003721989795647739,0.005552405563356397
-0.003721819795647739,0.005453664890092726
-0.003721649795647739,0.005552405563355918
-0.003721479795647739,0.00528909710131994
-0.003721309795647739,0.005387837774583611
-0.003721139795647739,0.005025788639283423
-0.003720969795647739,0.004992875081528926
-0.003720799795647739,0.004861220850510698
-0.003720629795647739,0.005025788639283183
-0.003720459795647739,0.005716973352129182
-0.003720289795647739,0.005782800467638296
-0.003720119795647739,0.005947368256410783
-0.003719949795647739,0.005947368256411082
-0.003719779795647739,0.006572725853747667
