Analysis/New Tests_CMB/wrd01_d2s01_new/cmb08_ch06.csv

#Digilent WaveForms Oscilloscope Acquisition
#Device Name: ADP3450
#Serial Number: SN:210018B9D9B0
#Date Time: 2024-08-14 17:26:48.407.080.310
#Sample rate: 5.88235e+06Hz
#Samples: 32768
#Trigger: Source: Channel 3 Type: Edge Condition: Rising Level: 60 mV Hyst.: Auto HoldOff: 0 s
#Channel 3: Range: 100 mV/div Offset: 0 V Attenuation: 1 X Coupling: DC Bandwidth: 0 Hz Sample Mode: Average

Time (s),Channel 3 (V)
-0.003798529309161252,0.1981625455430246
-0.003798359309161252,0.211097573740542
-0.003798189309161253,0.2224856647236216
-0.003798019309161253,0.2319976829146747
-0.003797849309161252,0.2402260723533596
-0.003797679309161252,0.2463150805379416
-0.003797509309161252,0.2509229786235797
-0.003797339309161252,0.2537206310327119
-0.003797169309161253,0.2555308767092144
-0.003796999309161253,0.2560574936332886
-0.003796829309161252,0.2558600122867616
-0.003796659309161252,0.2549713462273901
-0.003796489309161252,0.2534573225706805
-0.003796319309161252,0.2512521142011292
-0.003796149309161253,0.2495735227556458
-0.003795979309161253,0.2472037465973233
-0.003795809309161252,0.2446694026502092
-0.003795639309161252,0.2421679722608674
-0.003795469309161252,0.2381525182148115
-0.003795299309161252,0.2350257302281342
-0.003795129309161253,0.2316356337794153
-0.003794959309161253,0.2284759322349832
-0.003794789309161253,0.2247896137664747
-0.003794619309161252,0.2216957393375329
-0.003794449309161252,0.2181739886577953
-0.003794279309161252,0.2143889295160281
-0.003794109309161253,0.2106696974897631
-0.003793939309161253,0.2066871570014694
-0.003793769309161253,0.2033299741105023
-0.003793599309161252,0.1996436556419796
-0.003793429309161252,0.1959244236157147
-0.003793259309161252,0.191843142454157
-0.003793089309161253,0.1886176137942089
-0.003792919309161253,0.184931295325706
-0.003792749309161253,0.1812120632994412
-0.003792579309161252,0.1780852753127447
-0.003792409309161252,0.1743002161709707
-0.003792239309161252,0.1713379959730659
-0.003792069309161252,0.1678820724088383
-0.003791899309161253,0.1647881979799093
-0.003791729309161253,0.1612993608579333
-0.003791559309161252,0.1581067457557286
-0.003791389309161252,0.1551445255578184
-0.003791219309161252,0.1518860833401232
-0.003791049309161252,0.1483643326603861
-0.003790879309161253,0.1452375446737025
-0.003790709309161253,0.1437235210169926
-0.003790539309161252,0.1407283872613224
-0.003790369309161252,0.1378978212944305
-0.003790199309161252,0.1356926129248752
-0.003790029309161252,0.1334544909975694
-0.003789859309161253,0.1313480233012775
-0.003789689309161253,0.1295377776247796
-0.003789519309161252,0.1279579268525543
-0.003789349309161252,0.1253577557899443
-0.003789179309161252,0.1253906693476988
-0.003789009309161252,0.1192029204898534
-0.003788839309161253,0.1181496866416982
-0.003788669309161253,0.1163723545229566
-0.003788499309161252,0.1132126529785077
-0.003788329309161252,0.1104808276848845
-0.003788159309161252,0.1085718413351202
-0.003787989309161252,0.1064324600810778
-0.003787819309161253,0.1036348076719417
-0.003787649309161253,0.1011992043981082
-0.003787479309161252,0.0993231316060859
-0.003787309309161252,0.09728249102530706
-0.003787139309161252,0.09464940640494249
-0.003786969309161252,0.09359617255679858
-0.003786799309161253,0.09135805062949083
-0.003786629309161253,0.08951489139523829
-0.003786459309161252,0.08754007792995558
-0.003786289309161252,0.08612479494651221
-0.003786119309161252,0.08365627811492041
-0.003785949309161252,0.08191185955393206
-0.003785779309161253,0.08000287320416805
-0.003785609309161253,0.07865341733623266
-0.003785439309161252,0.07704065300625293
-0.003785269309161252,0.0762178140623905
-0.003785099309161252,0.07486835819445367
-0.003784929309161252,0.07388095146181874
-0.003784759309161253,0.07276189049816405
-0.003784589309161253,0.07164282953451113
-0.003784419309161253,0.07042502789759288
-0.003784249309161252,0.06924013981842439
-0.003784079309161252,0.06831856020129681
-0.003783909309161252,0.06736406702641638
-0.003783739309161253,0.0667387094290792
-0.003783569309161253,0.06581712981195381
-0.003783399309161253,0.06496137731033508
-0.003783229309161252,0.06403979769320436
-0.003783059309161252,0.06315113163383135
-0.003782889309161252,0.06203207067017843
-0.003782719309161253,0.06111049105305047
-0.003782549309161253,0.05982686230062573
-0.003782379309161253,0.0587078013369702
-0.003782209309161252,0.05762165393106574
-0.003782039309161252,0.05653550652516535
-0.003781869309161252,0.05518605065723097
-0.003781699309161252,0.05357328632725815
-0.003781529309161253,0.0538365947892912
-0.003781359309161253,0.05054523901384794
-0.003781189309161252,0.04926161026140823
-0.003781019309161252,0.04814254929775329
-0.003780849309161252,0.04712222900736387
-0.003780679309161252,0.04518032909984668
-0.003780509309161253,0.04508158842657967
-0.003780339309161253,0.04379795967415642
-0.003780169309161252,0.04277763938376049
-0.003779999309161252,0.04218519534417846
-0.003779829309161252,0.04218519534417846
-0.003779659309161252,0.04119778861154354
-0.003779489309161253,0.04030912255217032
-0.003779319309161253,0.03961793783932552
-0.003779149309161252,0.03899258024198642
-0.003778979309161252,0.0380051735093497
-0.003778809309161252,0.03734690235425856
-0.003778639309161252,0.03632658206386914
-0.003778469309161253,0.0351416939847054
-0.003778299309161253,0.03385806523228018
-0.003778129309161252,0.03224530090229945
-0.003777959309161252,0.03073127724559258
-0.003777789309161252,0.0296451298396922
-0.003777619309161252,0.02865772310705728
-0.003777449309161253,0.02757157570115707
-0.003777279309161253,0.02648542829525867
-0.003777109309161252,0.02556384867812574
-0.003776939309161252,0.0248068368497723
-0.003776769309161252,0.02444478771447217
-0.003776599309161252,0.02483975040752614
-0.003776429309161253,0.0244118741567184
-0.003776259309161253,0.02493849108078862
-0.003776089309161252,0.02497140463854593
-0.003775919309161252,0.02543219444710889
-0.003775749309161252,0.02592589781342725
-0.003775579309161252,0.02569550290914577
-0.003775409309161253,0.02595881137118132
-0.003775239309161253,0.02572841646690074
-0.003775069309161252,0.02513597242731764
-0.003774899309161252,0.02500431819629965
-0.003774729309161252,0.02464226906099952
-0.003774559309161252,0.02424730636794555
-0.003774389309161253,0.02381943011713637
-0.003774219309161253,0.02345738098183678
-0.003774049309161252,0.02289785050000775
-0.003773879309161252,0.02276619626898976
-0.003773709309161252,0.02243706069144419
-0.003773539309161252,0.02161422174758176
-0.003773369309161253,0.02141674040105328
-0.003773199309161253,0.02052807434168311
-0.003773029309161253,0.01977106251332782
-0.003772859309161252,0.01907987780047937
-0.003772689309161252,0.0185203473186519
-0.003772519309161252,0.0185203473186519
-0.003772349309161253,0.01819121174110692
-0.003772179309161253,0.01786207616356195
-0.003772009309161253,0.01947484049352819
-0.003771839309161252,0.01631513894909657
-0.003771669309161252,0.01710506433520594
-0.003771499309161252,0.01720380500846943
-0.003771329309161253,0.01651262029562517
-0.003771159309161253,0.01690758298867716
-0.003770989309161253,0.01661136096888866
-0.003770819309161252,0.01618348471807834
-0.003770649309161252,0.0155252135629872
-0.003770479309161252,0.01565686779400519
-0.003770309309161252,0.01450489327259803
-0.003770139309161253,0.01503151019666789
-0.003769969309161253,0.01417575769505347
-0.003769799309161252,0.01358331365546833
-0.003769629309161252,0.01348457298220466
-0.003769459309161252,0.01289212894262263
-0.003769289309161252,0.01256299336507766
-0.003769119309161253,0.01236551201855008
-0.003768949309161253,0.01183889509447872
-0.003768779309161252,0.01131227817040389
-0.003768609309161252,0.01104896970836743
-0.003768439309161252,0.01032487143776718
-0.003768269309161252,0.009929908744713211
-0.003768099309161253,0.009304551147377046
-0.003767929309161253,0.008810847781059346
-0.003767759309161252,0.008218403741475103
-0.003767589309161252,0.007988008837193623
-0.003767419309161252,0.007922181721684508
-0.003767249309161252,0.007461391913121547
-0.003767079309161253,0.007593046144138698
-0.003766909309161253,0.007625959701893375
-0.003766739309161252,0.007132256335574659
-0.003766569309161252,0.006868947873538681
-0.003766399309161252,0.007263910566593366
-0.003766229309161252,0.007132256335575377
-0.003766059309161253,0.00782344104841958
-0.003765889309161253,0.008086749510456336
-0.003765719309161252,0.007823441048420478
-0.003765549309161252,0.007625959701893495
-0.003765379309161252,0.00779052749066628
-0.003765209309161252,0.007527219028630302
-0.003765039309161253,0.007625959701893315
-0.003764869309161253,0.007362651239857995
-0.003764699309161252,0.007428478355367169
-0.003764529309161252,0.007988008837193623
-0.003764359309161252,0.008152576625966409
-0.003764189309161252,0.008448798645756882
-0.003764019309161253,0.008514625761266418
-0.003763849309161253,0.008053835952704412
-0.003763679309161252,0.008119663068211611
-0.003763509309161252,0.007988008837193623
-0.003763339309161252,0.007263910566593366
-0.003763169309161252,0.007395564797611356
-0.003762999309161253,0.005947368256413716
-0.003762829309161253,0.005881541140902207
-0.003762659309161253,0.004663739503987786
-0.003762489309161252,0.003511764982573856
-0.003762319309161252,0.003873814117873984
-0.003762149309161252,0.003676332771347001
-0.003761979309161253,0.003413024309310664
-0.003761809309161253,0.002162309114641565
-0.003761639309161253,0.002688926038708013
-0.003761469309161252,0.002656012480955371
-0.003761299309161252,0.002096481999127901
-0.003761129309161252,0.002392704018918375
-0.003760959309161253,0.002590185365445898
-0.003760789309161253,0.002096481999129696
-0.003760619309161253,0.002524358249935587
-0.003760449309161252,0.002820580269728157
-0.003760279309161252,0.003050975174010056
-0.003760109309161252,0.00361050565583651
-0.003759939309161252,0.003775073444610014
-0.003759769309161253,0.003511764982574335
-0.003759599309161253,0.003807987002363792
-0.003759429309161252,0.003676332771346642
-0.003759259309161252,0.003742159886855756
-0.003759089309161252,0.003610505655837767
-0.003758919309161252,0.003380110751556047
-0.003758749309161253,0.003544678540328114
-0.003758579309161253,0.003742159886855037
-0.003758409309161252,0.004005468348892213
-0.003758239309161252,0.004466258157456012
-0.003758069309161252,0.004400431041946898
-0.003757899309161252,0.00486122085050986
-0.003757729309161253,0.004992875081528686
-0.003757559309161253,0.004992875081528926
-0.003757389309161252,0.005256183543565323
-0.003757219309161252,0.005223269985810825
-0.003757049309161252,0.005387837774583611
-0.003756879309161252,0.005322010659074616
-0.003756709309161253,0.005947368256409945
-0.003756539309161253,0.005980281814165519
-0.003756369309161252,0.005684059794375283
-0.003756199309161252,0.006046108929674754
-0.003756029309161252,0.005980281814165639
-0.003755859309161252,0.005618232678866169
-0.003755689309161253,0.0045649988307216
-0.003755519309161253,0.00486122085050962
-0.003755349309161252,0.003050975174010955
-0.003755179309161252,0.003544678540328413
-0.003755009309161252,0.002524358249937143
-0.003754839309161252,0.002590185365446137
-0.003754669309161253,0.001668605748320335
-0.003754499309161253,0.001701519306073096
-0.003754329309161252,0.001701519306073155
-0.003754159309161252,0.001668605748318658
-0.003753989309161252,0.001635692190564101
-0.003753819309161252,0.001734432863827593
-0.003753649309161253,0.002261049787899728
-0.003753479309161253,0.002063568441374062
-0.003753309309161252,0.002985148058499326
-0.003753139309161252,0.002096481999127901
-0.003752969309161252,0.004433344599701455
-0.003752799309161252,0.004597912388473941
-0.003752629309161253,0.005157442870300694
-0.003752459309161253,0.005289097101319461
-0.003752289309161253,0.005848627583145375
-0.003752119309161252,0.006210676718447538
-0.003751949309161252,0.006013195371920196
-0.003751779309161252,0.005947368256411202
-0.003751609309161253,0.005749886909884099
-0.003751439309161253,0.004894134408268368
-0.003751269309161253,0.004729566619493067
-0.003751099309161252,0.004301690368683227
-0.003750929309161252,0.003972554791137656
-0.003750759309161252,0.003413024309311203
-0.003750589309161253,0.003018061616256218
-0.003750419309161253,0.002425617576675627
-0.003750249309161253,0.001866087094848036
-0.003750079309161252,0.001372383728527644
-0.003749909309161252,0.0009774210354729588
-0.003749739309161252,0.0002862363226285168
-0.003749569309161252,0.0005166312269087403
-0.003749399309161253,0.0005495447846636567
-0.003749229309161253,0.0006482854579270286
-0.003749059309161252,0.0004837176691546022
-0.003748889309161252,0.000417890553645488
-0.003748719309161252,0.001339470170771411
-0.003748549309161252,0.001372383728527584
-0.003748379309161253,0.001635692190563622
-0.003748209309161253,0.001997741325862912
-0.003748039309161252,0.002063568441373343
-0.003747869309161252,0.001997741325864229
-0.003747699309161252,0.001800259979336887
-0.003747529309161252,0.001964827768109373
-0.003747359309161253,0.002063568441373164
-0.003747189309161253,0.002195222672391093
-0.003747019309161252,0.002162309114637015
-0.003746849309161252,0.002261049787900686
-0.003746679309161252,0.00176734642158233
-0.003746509309161252,0.001668605748318838
-0.003746339309161253,0.00140529728628268
-0.003746169309161253,0.002458531134424197
-0.003745999309161252,-0.001524009353872663
-0.003745829309161252,-0.001129046660818696
-0.003745659309161252,-0.0003062077169547683
-0.003745489309161252,-0.0009973924297992103
-0.003745319309161253,-0.002083539835698876
-0.003745149309161253,-0.001622750027138729
-0.003744979309161252,-0.00234684829773659
-0.003744809309161252,-0.001951885604682624
-0.003744639309161252,-0.002149366951209966
-0.003744469309161252,-0.001853144931419491
-0.003744299309161253,-0.001425268680610488
-0.003744129309161253,-0.001622750027136334
-0.003743959309161252,-0.001359441565099099
-0.003743789309161252,-0.0005366026212366681
-0.003743619309161252,-0.001326528007346039
-0.003743449309161252,-0.002050626277944978
-0.003743279309161253,-0.001820231373664814
-0.003743109309161253,-0.001425268680611147
-0.003742939309161252,-0.001359441565099937
-0.003742769309161252,-0.0009973924298004675
-0.003742599309161252,-0.001622750027137053
-0.003742429309161252,-0.00129361444959208
-0.003742259309161253,-0.001293614449591481
-0.003742089309161253,-0.001556922911626981
-0.003741919309161253,-0.001556922911627938
-0.003741749309161252,-0.001688577142646167
-0.003741579309161252,-0.002116453393455409
-0.003741409309161252,-0.00139235512285647
-0.003741239309161253,-0.001524009353873142
-0.003741069309161253,-0.001589836469382256
-0.003740899309161253,-0.001556922911628058
-0.003740729309161252,-0.001326528007346039
-0.003740559309161252,-0.0009644788720459105
-0.003740389309161252,-0.0009644788720459105
-0.003740219309161253,-0.0003720348324649603
-0.003740049309161253,-0.0005366026212360694
-0.003739879309161253,8.875497609764187e-05
-0.003739709309161252,0.0005495447846637165
-0.003739539309161252,0.0008457668044547304
-0.003739369309161252,0.001043248150981714
-0.003739199309161252,0.001668605748317521
-0.003739029309161253,0.002129395556881619
-0.003738859309161253,0.002557271807690143
-0.003738689309161252,0.003083888731764614
-0.003738519309161252,0.004071295464401327
-0.003738349309161252,0.00367633277134736
-0.003738179309161252,0.004268776810927593
-0.003738009309161253,0.00426877681092867
-0.003737839309161253,0.004301690368683107
-0.003737669309161252,0.004071295464401327
-0.003737499309161252,0.004137122579910441
-0.003737329309161252,0.003676332771346642
-0.003737159309161252,0.003413024309310664
-0.003736989309161253,0.003083888731765213
-0.003736819309161253,0.003083888731764614
-0.003736649309161252,0.002458531134428029
-0.003736479309161252,0.002656012480955371
-0.003736309309161252,0.002293963345655243
-0.003736139309161252,0.002030654883619265
-0.003735969309161253,0.002359790461163759
-0.003735799309161253,0.001668605748321173
-0.003735629309161252,0.002063568441372385
-0.003735459309161252,0.00153695151730043
-0.003735289309161252,0.001207815939754859
-0.003735119309161252,0.001141988824245864
-0.003734949309161253,0.001010334593227755
-0.003734779309161253,0.0005166312269109554
-0.003734609309161252,0.0006811990156821843
-0.003734439309161252,0.0008128532467001733
-0.003734269309161252,0.003215542962782842
-0.003734099309161252,0.0002862363226325878
-0.003733929309161253,0.0008457668044537127
-0.003733759309161253,0.0009445074777180426
-0.003733589309161252,0.0008786803622090481
-0.003733419309161252,0.0007470261311910591
-0.003733249309161252,0.0003520634381363738
-0.003733079309161252,0.0003520634381363738
-0.003732909309161253,-0.0002403806014445764
-0.003732739309161253,-0.0006353432944989025
-0.003732569309161252,-0.0003720348324644812
-0.003732399309161252,-0.0007011704100094536
-0.003732229309161252,-0.0005695161789912252
-0.003732059309161252,-0.0009973924297996893
-0.003731889309161253,-0.001194873776327451
-0.003731719309161253,-0.00132652800734556
-0.003731549309161253,-0.001392355122854913
-0.003731379309161252,-0.001622750027137053
-0.003731209309161252,-0.001326528007346039
-0.003731039309161252,-0.0008986517565375747
-0.003730869309161253,-0.000865738198782299
-0.003730699309161253,-0.001194873776326613
-0.003730529309161253,-0.001129046660818935
-0.003730359309161252,-0.00142526868060971
-0.003730189309161252,-0.001688577142646167
-0.003730019309161252,-0.0009315653142927304
-0.003729849309161253,-0.00132652800734532
-0.003729679309161253,-0.0004049483902217923
-0.003729509309161253,-0.0005036890634817517
-0.003729339309161252,-0.0008986517565367963
-0.003729169309161252,-0.0005695161789912252
-0.003728999309161252,-0.001260700891835667
-0.003728829309161252,-0.0008986517565374548
-0.003728659309161253,-0.0006024297367468599
-0.003728489309161253,-0.001063219545307905
-0.003728319309161252,-0.001030305987555025
-0.003728149309161252,-0.00119487377632781
-0.003727979309161252,-0.0009644788720463296
-0.003727809309161252,-0.001129046660818397
-0.003727639309161253,-0.0009315653142917125
-0.003727469309161253,-0.00109613310306354
-0.003727299309161252,-0.001129046660818696
-0.003727129309161252,-0.001129046660818696
-0.003726959309161252,-0.000832824641027682
-0.003726789309161252,-0.0002074670436922345
-0.003726619309161253,0.0002862363226263615
-0.003726449309161253,0.000319149880381697
-0.003726279309161252,0.0003849769958909309
-0.003726109309161252,0.0003849769958909309
-0.003725939309161252,0.0005495447846637165
-0.003725769309161252,0.0004178905536457275
-0.003725599309161253,0.0009445074777174439
-0.003725429309161253,0.0006482854579284655
-0.003725259309161252,0.0006482854579278668
-0.003725089309161252,0.0009115939199638446
-0.003724919309161252,-0.000207467043691097
-0.003724749309161252,-0.001063219545308025
-0.003724579309161253,-0.0003391212747106425
-0.003724409309161253,-0.0009644788720436354
-0.003724239309161252,-0.001194873776328109
-0.003724069309161252,-0.001359441565100596
-0.003723899309161252,-0.001589836469382495
-0.003723729309161252,-0.001556922911627998
-0.003723559309161253,-0.001524009353873441
-0.003723389309161253,-0.001458182238364506
-0.003723219309161252,-0.002281021182228793
-0.003723049309161252,-0.002610156759773766
-0.003722879309161252,-0.002840551664055666
-0.003722709309161252,-0.003202600799355135
-0.003722539309161253,-0.00359756349240976
-0.003722369309161253,-0.003268427914866106
-0.003722199309161252,-0.003367168588129478
-0.003722029309161252,-0.003860871954446936
-0.003721859309161252,-0.003795044838937822
-0.003721689309161252,-0.003729217723428827
-0.003721519309161253,-0.00369630416567421
-0.003721349309161253,-0.004091266858727399
-0.003721179309161252,-0.004947019360347679
-0.003721009309161252,-0.005144500706874663
-0.003720839309161252,-0.005045760033610991
