Analysis/New Tests_CMB/wrd01_d2s01_new/cmb01_ch28.csv

#Digilent WaveForms Oscilloscope Acquisition
#Device Name: ADP3450
#Serial Number: SN:210018B9D9B0
#Date Time: 2024-08-14 14:58:30.111.802.890
#Sample rate: 5.88235e+06Hz
#Samples: 32768
#Trigger: Source: Channel 3 Type: Edge Condition: Rising Level: 50 mV Hyst.: Auto HoldOff: 0 s
#Channel 3: Range: 100 mV/div Offset: 0 V Attenuation: 1 X Coupling: DC Bandwidth: 0 Hz Sample Mode: Average

Time (s),Channel 3 (V)
-0.003798509593116094,0.1941141779392141
-0.003798339593116093,0.2097810314304339
-0.003798169593116093,0.2237034663606075
-0.003797999593116093,0.2365068403271033
-0.003797829593116094,0.247335400828349
-0.003797659593116094,0.2561891478643087
-0.003797489593116094,0.2640225746098934
-0.003797319593116093,0.2693216574083932
-0.003797149593116093,0.2737649877052509
-0.003796979593116093,0.2761347638635727
-0.003796809593116094,0.2774183926159982
-0.003796639593116094,0.2774513061737526
-0.003796469593116094,0.2766613807876433
-0.003796299593116093,0.2744890859758331
-0.003796129593116093,0.2718889149132215
-0.003795959593116093,0.2688608675998072
-0.003795789593116093,0.2655036847088429
-0.003795619593116094,0.2624756373954292
-0.003795449593116094,0.2583943562338641
-0.003795279593116093,0.2545105564188118
-0.003795109593116093,0.2504951023727569
-0.003794939593116093,0.2467758703464985
-0.003794769593116093,0.2429908112047244
-0.003794599593116094,0.2391728385052027
-0.003794429593116094,0.2351902980169013
-0.003794259593116094,0.2319647693569606
-0.003794089593116093,0.2283771915616939
-0.003793919593116093,0.2244933917466631
-0.003793749593116093,0.2205766783738737
-0.003793579593116094,0.2182069022155499
-0.003793409593116094,0.2131053007635935
-0.003793239593116094,0.2102418212389523
-0.003793069593116093,0.2073454281565305
-0.003792899593116093,0.203066665648448
-0.003792729593116093,0.1999727912195191
-0.003792559593116094,0.1966156083285604
-0.003792389593116094,0.1932584254375956
-0.003792219593116094,0.1899341561043913
-0.003792049593116093,0.1864124054246346
-0.003791879593116093,0.182824827629395
-0.003791709593116093,0.1795334718539394
-0.003791539593116094,0.1763079431939987
-0.003791369593116094,0.1731811552073157
-0.003791199593116094,0.170350589240429
-0.003791029593116093,0.1688365655836992
-0.003790859593116093,0.1647223708643893
-0.003790689593116093,0.1618588913397431
-0.003790519593116094,0.1591270660461198
-0.003790349593116094,0.1568560305610554
-0.003790179593116094,0.1550457848845548
-0.003790009593116093,0.1516556884358297
-0.003789839593116093,0.1501087512213659
-0.003789669593116093,0.1471794445812114
-0.003789499593116094,0.1448425819806421
-0.003789329593116094,0.1425715464955776
-0.003789159593116094,0.1399713754329676
-0.003788989593116093,0.1377990806211572
-0.003788819593116093,0.1351330824430434
-0.003788649593116093,0.1327303927269611
-0.003788479593116094,0.1305580979151604
-0.003788309593116094,0.1284187166611181
-0.003788139593116094,0.1254564964632079
-0.003787969593116093,0.1235804236711918
-0.003787799593116093,0.1218360051102026
-0.003787629593116093,0.1196307967406492
-0.003787459593116094,0.1184459086614836
-0.003787289593116094,0.1164381816384593
-0.003787119593116094,0.1146279359619586
-0.003786949593116093,0.1126531224966767
-0.003786779593116093,0.110316259896106
-0.003786609593116093,0.1087693226816444
-0.003786439593116094,0.1070907312361615
-0.003786269593116094,0.1051159177708917
-0.003786099593116094,0.1033714992099001
-0.003785929593116093,0.1017587348799212
-0.003785759593116093,0.1002117976654535
-0.003785589593116093,0.09771036727611215
-0.003785419593116094,0.09543933179104797
-0.003785249593116094,0.09329995053700565
-0.003785079593116094,0.09109474216745031
-0.003784909593116093,0.08928449649094405
-0.003784739593116093,0.08773755927647962
-0.003784569593116093,0.08612479494650843
-0.003784399593116093,0.08405124080797192
-0.003784229593116094,0.08230682224698357
-0.003784059593116094,0.08016744099293735
-0.003783889593116094,0.07878507156724847
-0.003783719593116093,0.07736978858379569
-0.003783549593116093,0.07618490050463367
-0.003783379593116093,0.07493418530996183
-0.003783209593116094,0.07440756838588986
-0.003783039593116094,0.07318976674897126
-0.003782869593116094,0.07220236001633633
-0.003782699593116093,0.07184031088102949
-0.003782529593116093,0.07049085501309638
-0.003782359593116093,0.06983258385800577
-0.003782189593116094,0.06947053472270631
-0.003782019593116094,0.06858186866333327
-0.003781849593116094,0.06792359750824331
-0.003781679593116093,0.06687036366009343
-0.003781509593116093,0.06608043827398649
-0.003781339593116093,0.06585004336970261
-0.003781169593116094,0.06453350105952274
-0.003780999593116094,0.06357900788464058
-0.003780829593116094,0.06275616894077815
-0.003780659593116093,0.06226246557445506
-0.003780489593116093,0.06137379951508364
-0.003780319593116093,0.06048513345571137
-0.003780149593116094,0.06002434364714841
-0.003779979593116094,0.05946481316532094
-0.003779809593116094,0.05827992508615688
-0.003779639593116093,0.05762165393106394
-0.003779469593116093,0.05712795056474565
-0.003779299593116093,0.05617345738986397
-0.003779129593116094,0.05548227267701953
-0.003778959593116094,0.05482400152192839
-0.003778789593116094,0.05393533546255534
-0.003778619593116093,0.05311249651868687
-0.003778449593116093,0.05186178132401585
-0.003778279593116093,0.05054523901383393
-0.003778109593116094,0.04942617805017911
-0.003777939593116094,0.0483729442020352
-0.003777769593116094,0.04735262391164392
-0.003777599593116093,0.04623356294798599
-0.003777429593116093,0.04541072400412374
-0.003777259593116093,0.0446866257335227
-0.003777089593116094,0.04353465121211332
-0.003776919593116094,0.04244850380621491
-0.003776749593116094,0.041921886882142
-0.003776579593116093,0.04132944284255818
-0.003776409593116093,0.04083573947624006
-0.003776239593116093,0.0404078632254322
-0.003776069593116094,0.04030912255216954
-0.003775899593116094,0.0407699123607325
-0.003775729593116094,0.04083573947624162
-0.003775559593116093,0.04067117168746943
-0.003775389593116093,0.04083573947624174
-0.003775219593116093,0.04086865303399617
-0.003775049593116094,0.04086865303399611
-0.003774879593116094,0.04083573947624162
-0.003774709593116094,0.04027620899441414
-0.003774539593116093,0.04014455476339639
-0.003774369593116093,0.04027620899440851
-0.003774199593116093,0.03872927177995008
-0.003774029593116093,0.03879509889545818
-0.003773859593116094,0.03830139552914072
-0.003773689593116094,0.03813682774036793
-0.003773519593116094,0.03780769216282296
-0.003773349593116093,0.03665571764141262
-0.003773179593116093,0.03658989052590238
-0.003773009593116093,0.03583287869754791
-0.003772839593116094,0.03527334821572146
-0.003772669593116094,0.03395680590553918
-0.003772499593116094,0.03316688051943124
-0.003772329593116093,0.03217947378678902
-0.003772159593116093,0.03106041282313516
-0.003771989593116093,0.02941473493540862
-0.003771819593116094,0.0284931553182827
-0.003771649593116094,0.0287235502225646
-0.003771479593116094,0.02790071127870217
-0.003771309593116093,0.02790071127869971
-0.003771139593116093,0.02763740281666362
-0.003770969593116093,0.02730826723911781
-0.003770799593116094,0.02684747743055485
-0.003770629593116094,0.0271107858925913
-0.003770459593116094,0.02681456387280082
-0.003770289593116093,0.02711078589259034
-0.003770119593116093,0.02684747743055479
-0.003769949593116093,0.02681456387279999
-0.003769779593116094,0.0266499960840275
-0.003769609593116094,0.02737409435462776
-0.003769439593116094,0.02740700791238232
-0.003769269593116093,0.02730826723911781
-0.003769099593116093,0.02707787233483651
-0.003768929593116093,0.02694621810381786
-0.003768759593116094,0.02658416896851839
-0.003768589593116094,0.02684747743055485
-0.003768419593116094,0.02691330454606396
-0.003768249593116093,0.02668290964178206
-0.003768079593116093,0.02668290964178254
-0.003767909593116093,0.02694621810381876
-0.003767739593116094,0.02707787233483609
-0.003767569593116094,0.02671582319953662
-0.003767399593116094,0.02605755204444548
-0.003767229593116093,0.02605755204444392
-0.003767059593116093,0.02562967579363557
-0.003766889593116093,0.02526762665833526
-0.003766719593116094,0.02480683684977081
-0.003766549593116094,0.02398399790590838
-0.003766379593116094,0.02312824540428989
-0.003766209593116093,0.02214083867164995
-0.003766039593116093,0.02125217261227858
-0.003765869593116093,0.0208242963614679
-0.003765699593116094,0.01917861847374274
-0.003765529593116094,0.01901405068497026
-0.003765359593116094,0.01825703885661544
-0.003765189593116093,0.01766459481703329
-0.003765019593116093,0.01763168125927694
-0.003764849593116093,0.01710506433520666
-0.003764679593116094,0.01750002702826135
-0.003764509593116094,0.01789498972131531
-0.003764339593116094,0.01789498972131531
-0.003764169593116093,0.01792790327907107
-0.003763999593116093,0.0182570388566164
-0.003763829593116093,0.0185203473186519
-0.003763659593116093,0.01852034731865274
-0.003763489593116094,0.01898113712721569
-0.003763319593116094,0.01898113712721569
-0.003763149593116094,0.01934318626251516
-0.003762979593116093,0.01970523539781559
-0.003762809593116093,0.01960649472454929
-0.003762639593116093,0.01796081683682886
-0.003762469593116094,0.02039642011066165
-0.003762299593116094,0.01980397607107963
-0.003762129593116094,0.01967232184006163
-0.003761959593116093,0.01960649472455132
-0.003761789593116093,0.01934318626251564
-0.003761619593116093,0.01924444558925101
-0.003761449593116094,0.01861908799191557
-0.003761279593116094,0.01802664395233354
-0.003761109593116094,0.01759876770152508
-0.003760939593116093,0.01736837279723868
-0.003760769593116093,0.01634805250685173
-0.003760599593116093,0.01667718808439658
-0.003760429593116094,0.01661136096888758
-0.003760259593116094,0.01611765760256923
-0.003760089593116094,0.01631513894909621
-0.003759919593116093,0.01644679318011276
-0.003759749593116093,0.01588726269828721
-0.003759579593116093,0.01582143558277893
-0.003759409593116094,0.0162163982758329
-0.003759239593116094,0.01671010164215126
-0.003759069593116094,0.01667718808439676
-0.003758899593116093,0.01641387962235881
-0.003758729593116093,0.01601891692930598
-0.003758559593116093,0.01624931183358668
-0.003758389593116094,0.01582143558277821
-0.003758219593116094,0.0162163982758329
-0.003758049593116094,0.015986003371551
-0.003757879593116093,0.01631513894909753
-0.003757709593116093,0.01657844741113327
-0.003757539593116093,0.01671010164215132
-0.003757369593116094,0.01674301519990581
-0.003757199593116094,0.01674301519990581
-0.003757029593116094,0.01578852202502366
-0.003756859593116093,0.01654553385337763
-0.003756689593116093,0.01631513894909514
-0.003756519593116093,0.0155252135629872
-0.003756349593116094,0.01552521356298744
-0.003756179593116094,0.01565686779400543
-0.003756009593116094,0.01493276952340517
-0.003755839593116093,0.01516316442768635
-0.003755669593116093,0.01496568308115925
-0.003755499593116093,0.01483402885014138
-0.003755329593116094,0.01476820173463293
-0.003755159593116094,0.0150644237544234
-0.003754989593116094,0.01466946106136872
-0.003754819593116093,0.01440615259933346
-0.003754649593116093,0.01473528817687603
-0.003754479593116093,0.01424158481055971
-0.003754309593116094,0.01437323904157746
-0.003754139593116094,0.01424158481055947
-0.003753969593116094,0.01450489327259593
-0.003753799593116093,0.01417575769505024
-0.003753629593116093,0.01414284413729616
-0.003753459593116093,0.01424158481055941
-0.003753289593116093,0.01420867125280713
-0.003753119593116094,0.01542647288972353
-0.003752949593116094,0.01496568308115973
-0.003752779593116094,0.01417575769505179
-0.003752609593116093,0.01463654750361428
-0.003752439593116093,0.01466946106136806
-0.003752269593116093,0.01430741192606943
-0.003752099593116094,0.01476820173463239
-0.003751929593116094,0.01489985596565062
-0.003751759593116094,0.01483402885014162
-0.003751589593116093,0.01440615259933322
-0.003751419593116093,0.01466946106136865
-0.003751249593116093,0.01463654750361404
-0.003751079593116094,0.01457072038810504
-0.003750909593116094,0.01453780683035049
-0.003750739593116094,0.01417575769505102
-0.003750569593116093,0.01430741192606703
-0.003750399593116093,0.01387953567525839
-0.003750229593116093,0.01335291875118703
-0.003750059593116094,0.013682054328732
-0.003749889593116094,0.01335291875118643
-0.003749719593116094,0.01341874586669543
-0.003749549593116093,0.01335291875118739
-0.003749379593116093,0.01361622721322283
-0.003749209593116093,0.01358331365546833
-0.003749039593116094,0.01358331365546833
-0.003748869593116094,0.01332000519343187
-0.003748699593116094,0.01341874586669537
-0.003748529593116093,0.01434032548382171
-0.003748359593116093,0.01394536279076936
-0.003748189593116093,0.01443906615708736
-0.003748019593116094,0.01473528817687783
-0.003747849593116094,0.01463654750361416
-0.003747679593116094,0.01489985596565062
-0.003747509593116093,0.01499859663891417
-0.003747339593116093,0.01496568308115889
-0.003747169593116093,0.01450489327259527
-0.003746999593116094,0.0141428441372958
-0.003746829593116094,0.0148340288501415
-0.003746659593116094,0.013682054328732
-0.003746489593116093,0.01414284413729592
-0.003746319593116093,0.01417575769504976
-0.003746149593116093,0.01384662211750407
-0.003745979593116094,0.01345165942444962
-0.003745809593116094,0.01318835096241365
-0.003745639593116094,0.0125300798073225
-0.003745469593116093,0.01233259846079277
-0.003745299593116093,0.01167432730570306
-0.003745129593116093,0.01141101884366768
-0.003744959593116094,0.01147684595917644
-0.003744789593116094,0.01134519172815845
-0.003744619593116094,0.01118062393938566
-0.003744449593116093,0.01160850019019443
-0.003744279593116093,0.01147684595917704
-0.003744109593116093,0.01157558663244005
-0.003743939593116094,0.01141101884366714
-0.003743769593116094,0.01118062393938566
-0.003743599593116094,0.01272756115384985
-0.003743429593116093,0.01223385778753352
-0.003743259593116093,0.01279338826935896
-0.003743089593116093,0.0127933882693598
-0.003742919593116093,0.01325417807792324
-0.003742749593116094,0.01351748653995922
-0.003742579593116094,0.01434032548382314
-0.003742409593116093,0.0141757576950506
-0.003742239593116093,0.01424158481056079
-0.003742069593116093,0.01460363394585996
-0.003741899593116093,0.01480111529238599
-0.003741729593116094,0.01427449836831403
-0.003741559593116094,0.01378079500199567
-0.003741389593116094,0.01378079500199567
-0.003741219593116093,0.01338583230894015
-0.003741049593116093,0.01315543740465885
-0.003740879593116093,0.01302378317364062
-0.003740709593116094,0.01289212894262263
-0.003740539593116094,0.01259590692283162
-0.003740369593116094,0.01200346288325067
-0.003740199593116093,0.01193763576774239
-0.003740029593116093,0.01246425269181411
-0.003739859593116093,0.01285921538486838
-0.003739689593116094,0.01302378317364086
-0.003739519593116094,0.01394536279076846
-0.003739349593116094,0.01387953567525946
-0.003739179593116093,0.01420867125280647
-0.003739009593116093,0.01463654750361446
-0.003738839593116093,0.01480111529238754
-0.003738669593116094,0.01513025086993251
-0.003738499593116094,0.01539355933196897
-0.003738329593116094,0.01526190510095098
-0.003738159593116093,0.01460363394585984
-0.003737989593116093,0.01466946106136997
-0.003737819593116093,0.01536064577421124
-0.003737649593116094,0.01361622721322289
-0.003737479593116094,0.01443906615708682
-0.003737309593116094,0.01371496788648656
-0.003737139593116093,0.01355040009771497
-0.003736969593116093,0.01387953567525965
-0.003736799593116093,0.01404410346403225
-0.003736629593116094,0.01410993057954124
-0.003736459593116094,0.01443906615708682
-0.003736289593116094,0.01453780683035049
-0.003736119593116093,0.01473528817687879
-0.003735949593116093,0.01499859663891519
-0.003735779593116093,0.0154923000052321
-0.003735609593116094,0.01519607798544277
-0.003735439593116094,0.01582143558277821
-0.003735269593116094,0.01592017625604189
-0.003735099593116093,0.01578852202502318
-0.003734929593116093,0.01565686779400519
-0.003734759593116093,0.01552521356298768
-0.003734589593116094,0.015788522025023
-0.003734419593116094,0.01542647288972353
-0.003734249593116094,0.01657844741113303
-0.003734079593116093,0.01582143558277318
-0.003733909593116093,0.01443906615708478
-0.003733739593116093,0.01387953567525899
-0.003733569593116094,0.01368205432873122
-0.003733399593116094,0.01325417807792276
-0.003733229593116094,0.01315543740465909
-0.003733059593116093,0.01282630182711232
-0.003732889593116093,0.01249716624956603
-0.003732719593116093,0.01197054932549449
-0.003732549593116094,0.01167432730570294
-0.003732379593116094,0.01108188326612199
-0.003732209593116094,0.01055526634204908
-0.003732039593116093,0.01048943922654104
-0.003731869593116093,0.01078566124632918
-0.003731699593116093,0.01029195788001208
-0.003731529593116093,0.009995735860222085
-0.003731359593116094,0.01025904432225806
-0.003731189593116094,0.009962822302467049
-0.003731019593116094,0.009666600282676574
-0.003730849593116093,0.009765340955942581
-0.003730679593116093,0.010555266342048
-0.003730509593116093,0.009962822302468246
-0.003730339593116094,0.01062109345755819
-0.003730169593116094,0.01111479682387655
-0.003729999593116094,0.01088440191959507
-0.003729829593116093,0.01187180865222993
-0.003729659593116093,0.01147684595917787
-0.003729489593116093,0.0121351171142683
-0.003729319593116094,0.01239842557630427
-0.003729149593116094,0.01259590692283162
-0.003728979593116094,0.01335291875118505
-0.003728809593116093,0.01279338826936123
-0.003728639593116093,0.01341874586669495
-0.003728469593116093,0.0130896102891492
-0.003728299593116094,0.01266173403834073
-0.003728129593116094,0.01295795605813175
-0.003727959593116094,0.01249716624956878
-0.003727789593116093,0.0125629933650767
-0.003727619593116093,0.01246425269181417
-0.003727449593116093,0.01289212894262317
-0.003727279593116094,0.01318835096241365
-0.003727109593116094,0.01332000519343187
-0.003726939593116094,0.01328709163567732
-0.003726769593116093,0.01397827634852553
-0.003726599593116093,0.01466946106136884
-0.003726429593116093,0.01473528817687873
-0.003726259593116094,0.01522899154319619
-0.003726089593116094,0.01545938644747809
-0.003725919593116094,0.01595308981379644
-0.003725749593116093,0.01615057116032247
-0.003725579593116093,0.01578852202502318
-0.003725409593116093,0.01552521356298696
-0.003725239593116094,0.01539355933196855
-0.003725069593116094,0.01516316442768707
-0.003724899593116094,0.0171379778929605
-0.003724729593116093,0.01457072038811199
-0.003724559593116093,0.01647970673786852
-0.003724389593116093,0.01601891692930568
-0.003724219593116094,0.01608474404481437
-0.003724049593116094,0.01592017625604189
-0.003723879593116094,0.01605183048706011
-0.003723709593116093,0.01598600337155004
-0.003723539593116093,0.01572269490951394
-0.003723369593116093,0.01555812712074116
-0.003723199593116094,0.01522899154319403
-0.003723029593116094,0.01404410346403213
-0.003722859593116094,0.0148340288501415
-0.003722689593116093,0.01391244923301163
-0.003722519593116093,0.01328709163567839
-0.003722349593116093,0.01358331365546653
-0.003722179593116094,0.01259590692283102
-0.003722009593116094,0.01226677134528605
-0.003721839593116094,0.01174015442121313
-0.003721669593116093,0.01154267307468376
-0.003721499593116093,0.01098314259285856
-0.003721329593116093,0.01104896970836773
-0.003721159593116093,0.01121353749713992
-0.003720989593116094,0.01104896970836743
-0.003720819593116094,0.01088440191959465
-0.003720649593116094,0.01042361211103169
-0.003720479593116093,0.01078566124632846
-0.003720309593116093,0.01009447653348737
-0.003720139593116093,0.01124645105489448
-0.003719969593116094,0.01108188326612199
-0.003719799593116094,0.01118062393938566
-0.003719629593116094,0.01216803067202058
-0.003719459593116093,0.01262882048058869
-0.003719289593116093,0.01332000519343277
-0.003719119593116093,0.01381370855975239
-0.003718949593116094,0.01499859663891429
