Analysis/New Tests_CMB/wrd01_d2s01_new/cmb01_ch00.csv

#Digilent WaveForms Oscilloscope Acquisition
#Device Name: ADP3450
#Serial Number: SN:210018B9D9B0
#Date Time: 2024-08-14 14:43:09.049.991.220
#Sample rate: 5.88235e+06Hz
#Samples: 32768
#Trigger: Source: Channel 3 Type: Edge Condition: Rising Level: 30 mV Hyst.: Auto HoldOff: 0 s
#Channel 3: Range: 100 mV/div Offset: 0 V Attenuation: 1 X Coupling: DC Bandwidth: 0 Hz Sample Mode: Average

Time (s),Channel 3 (V)
-0.003798401114119077,0.1808500141641275
-0.003798231114119076,0.1968130896751386
-0.003798061114119076,0.2108013517208228
-0.003797891114119076,0.2240655154958821
-0.003797721114119077,0.2356840013832371
-0.003797551114119077,0.2452618466897958
-0.003797381114119077,0.2535231496861896
-0.003797211114119076,0.2600071205638551
-0.003797041114119076,0.2648783271115253
-0.003796871114119076,0.2685646455800254
-0.003796701114119077,0.2703090641410159
-0.003796531114119077,0.2714939522201778
-0.003796361114119077,0.271329384431405
-0.003796191114119076,0.2709344217383456
-0.003796021114119076,0.2696178794281618
-0.003795851114119076,0.2679063744249268
-0.003795681114119077,0.2655695118243523
-0.003795511114119077,0.2626731187419565
-0.003795341114119077,0.2595463307552736
-0.003795171114119076,0.2562220614220503
-0.003795001114119076,0.2526344836268034
-0.003794831114119076,0.2489810787160542
-0.003794661114119077,0.2453605873630533
-0.003794491114119077,0.2419704909143401
-0.003794321114119077,0.2378233826372659
-0.003794151114119077,0.2343016319575347
-0.003793981114119076,0.2303190914692136
-0.003793811114119076,0.2266656865584638
-0.003793641114119077,0.222716059627918
-0.003793471114119077,0.2193259631792048
-0.003793301114119077,0.2159358667304854
-0.003793131114119077,0.2123812024929997
-0.003792961114119076,0.208958192486507
-0.003792791114119076,0.2055680960377937
-0.003792621114119077,0.2021121724735635
-0.003792451114119077,0.1977675828499699
-0.003792281114119077,0.1938179559194231
-0.003792111114119077,0.1899999832199014
-0.003791941114119076,0.1862149240781074
-0.003791771114119076,0.1826602598406219
-0.003791601114119077,0.1792043362763935
-0.003791431114119077,0.1758142398276803
-0.003791261114119077,0.1723912298212064
-0.003791091114119077,0.1690998740457567
-0.003790921114119076,0.1659401725013017
-0.003790751114119076,0.1627804709568694
-0.003790581114119077,0.1593245473926417
-0.003790411114119077,0.1562965000792279
-0.003790241114119077,0.1535646747855997
-0.003790071114119077,0.1520506511288901
-0.003789901114119076,0.1492529987197423
-0.003789731114119076,0.1463895191951027
-0.003789561114119076,0.1444147057298257
-0.003789391114119077,0.1404979923570405
-0.003789221114119077,0.1382269568719761
-0.003789051114119077,0.1362192298489481
-0.003788881114119076,0.1331911825355225
-0.003788711114119076,0.1314467639745327
-0.003788541114119076,0.1288795064696779
-0.003788371114119077,0.1267072116578762
-0.003788201114119077,0.124041213479762
-0.003788031114119077,0.122033486456734
-0.003787861114119076,0.1199928458759428
-0.003787691114119076,0.1176230697176205
-0.003787521114119076,0.1160432189454004
-0.003787351114119077,0.1137063563448281
-0.003787181114119077,0.1120935920148577
-0.003787011114119077,0.1105795683581481
-0.003786841114119076,0.1090326311436793
-0.003786671114119076,0.1077490023912503
-0.003786501114119076,0.1061362380612802
-0.003786331114119077,0.1046222144045714
-0.003786161114119077,0.103601894114182
-0.003785991114119077,0.1021536975729815
-0.003785821114119076,0.1007384145895308
-0.003785651114119076,0.09942187227934536
-0.003785481114119076,0.09724957746754963
-0.003785311114119077,0.09566972669533093
-0.003785141114119077,0.09412278948086958
-0.003784971114119077,0.09195049466906879
-0.003784801114119076,0.09020607610807295
-0.003784631114119076,0.08902118802890593
-0.003784461114119076,0.08701346100588238
-0.003784291114119077,0.08543361023366344
-0.003784121114119077,0.08375501878818409
-0.003783951114119077,0.08210934090045624
-0.003783781114119077,0.08013452743518638
-0.003783611114119076,0.07891672579825856
-0.003783441114119076,0.07736978858379726
-0.003783271114119077,0.07585576492708744
-0.003783101114119077,0.07424300059711708
-0.003782931114119077,0.07312393963346214
-0.003782761114119077,0.07180739732328224
-0.003782591114119076,0.07062250924411245
-0.003782421114119076,0.06970092962698533
-0.003782251114119077,0.06812107885476663
-0.003782081114119077,0.06657414164030528
-0.003781911114119077,0.06552090779215944
-0.003781741114119077,0.06443476038626103
-0.003781571114119076,0.06295365028730363
-0.003781401114119076,0.06285490961403746
-0.003781231114119077,0.06127505884181445
-0.003781061114119077,0.05735834546902929
-0.003780891114119077,0.05837866575942055
-0.003780721114119077,0.05755582681555813
-0.003780551114119076,0.05683172854495086
-0.003780381114119076,0.05531770488824387
-0.003780211114119077,0.05373785411602704
-0.003780041114119077,0.05321123719195509
-0.003779871114119077,0.05225674401707293
-0.003779701114119077,0.05107185593790887
-0.003779531114119076,0.05008444920527048
-0.003779361114119076,0.04962365939670567
-0.003779191114119076,0.04814254929775245
-0.003779021114119077,0.04768175948918949
-0.003778851114119077,0.04656269852553455
-0.003778681114119077,0.04587151381268886
-0.003778511114119076,0.04544363756187769
-0.003778341114119076,0.04491702063780538
-0.003778171114119076,0.0441929223672059
-0.003778001114119077,0.04389670034741453
-0.003777831114119077,0.04340299698109707
-0.003777661114119077,0.04337008342334251
-0.003777491114119076,0.04218519534417798
-0.003777321114119076,0.04205354111315855
-0.003777151114119076,0.04113196149603233
-0.003776981114119077,0.04096739370725907
-0.003776811114119077,0.0405395174564506
-0.003776641114119077,0.04017746832115048
-0.003776471114119076,0.03978250562809255
-0.003776301114119076,0.03889383956872072
-0.003776131114119076,0.03833430908689359
-0.003775961114119077,0.03741272946976618
-0.003775791114119077,0.03658989052590375
-0.003775621114119077,0.03596453292856716
-0.003775451114119076,0.03510878042694652
-0.003775281114119076,0.03451633638736223
-0.003775111114119076,0.03329853475044696
-0.003774941114119077,0.03270609071086553
-0.003774771114119077,0.03244278224882955
-0.003774601114119077,0.03175159753598385
-0.003774431114119076,0.03138954840068229
-0.003774261114119076,0.03099458570762868
-0.003774091114119076,0.03089584503436483
-0.003773921114119077,0.0305996230145728
-0.003773751114119077,0.02974387051295587
-0.003773581114119077,0.02898685868460106
-0.003773411114119077,0.02869063666481058
-0.003773241114119076,0.02763740281666074
-0.003773071114119076,0.0266829096417808
-0.003772901114119077,0.02599172492893468
-0.003772731114119077,0.02507014531180876
-0.003772561114119077,0.0248068368497723
-0.003772391114119077,0.02418147925243686
-0.003772221114119076,0.02372068944387216
-0.003772051114119076,0.02378651655938091
-0.003771881114119077,0.02372068944387096
-0.003771711114119077,0.02319407251979901
-0.003771541114119077,0.02411565213692661
-0.003771371114119077,0.02388525723264513
-0.003771201114119076,0.02296367761551615
-0.003771031114119076,0.02270036915348089
-0.003770861114119077,0.02283202338449912
-0.003770691114119077,0.02296367761551711
-0.003770521114119077,0.02233832001818052
-0.003770351114119077,0.02184461665186306
-0.003770181114119076,0.0216142217475811
-0.003770011114119076,0.02184461665186115
-0.003769841114119077,0.02128508617003379
-0.003769671114119077,0.02079138280371634
-0.003769501114119077,0.02069264213045267
-0.003769331114119077,0.02006728453311608
-0.003769161114119076,0.01944192693577734
-0.003768991114119076,0.01884948289619603
-0.003768821114119076,0.01805955751008696
-0.003768651114119077,0.01743419991275151
-0.003768481114119077,0.0175987677015243
-0.003768311114119077,0.01740128635499695
-0.003768141114119076,0.01710506433520498
-0.003767971114119076,0.0168417558731693
-0.003767801114119076,0.01674301519990545
-0.003767631114119077,0.01654553385337817
-0.003767461114119077,0.01638096606460569
-0.003767291114119077,0.01641387962236024
-0.003767121114119076,0.01647970673786923
-0.003766951114119076,0.01644679318011582
-0.003766781114119076,0.01700632366194251
-0.003766611114119077,0.01713797789296026
-0.003766441114119077,0.01700632366194227
-0.003766271114119077,0.01746711347050607
-0.003766101114119076,0.01726963212397933
-0.003765931114119076,0.01743419991275104
-0.003765761114119076,0.01730254568173424
-0.003765591114119077,0.0178291626058062
-0.003765421114119077,0.0178291626058062
-0.003765251114119077,0.01779624904805164
-0.003765081114119076,0.01835577952987779
-0.003764911114119076,0.01799373039457803
-0.003764741114119076,0.01773042193254318
-0.003764571114119077,0.01809247106784218
-0.003764401114119077,0.0178291626058062
-0.003764231114119077,0.0173683727972424
-0.003764061114119076,0.01726963212397801
-0.003763891114119076,0.01707215077745163
-0.003763721114119076,0.0171379778929596
-0.003763551114119077,0.01664427452664178
-0.003763381114119077,0.0164467931801148
-0.003763211114119077,0.0162163982758329
-0.003763041114119077,0.01555812712074295
-0.003762871114119076,0.01526190510094679
-0.003762701114119076,0.01417575769504982
-0.003762531114119077,0.01387953567525821
-0.003762361114119077,0.01325417807792276
-0.003762191114119077,0.01262882048058617
-0.003762021114119077,0.0111477103816338
-0.003761851114119076,0.01134519172815617
-0.003761681114119076,0.01071983413082079
-0.003761511114119077,0.0101273900912384
-0.003761341114119077,0.009337464705130465
-0.003761171114119077,0.009765340955939707
-0.003761001114119077,0.009502032493903729
-0.003760831114119076,0.009436205378393656
-0.003760661114119076,0.009304551147375788
-0.003760491114119077,0.009238724031865955
-0.003760321114119077,0.008777934223302994
-0.003760151114119077,0.008942502012075779
-0.003759981114119077,0.008942502012075779
-0.003759811114119076,0.008876674896565467
-0.003759641114119076,0.008547539319021753
-0.003759471114119077,0.008909588454320563
-0.003759301114119077,0.008547539319021094
-0.003759131114119077,0.008580452876775651
-0.003758961114119077,0.008317144414739672
-0.003758791114119076,0.008613366434529609
-0.003758621114119076,0.008448798645758499
-0.003758451114119076,0.009041242685340827
-0.003758281114119077,0.009798254513694264
-0.003758111114119077,0.009929908744712493
-0.003757941114119077,0.01035778499552173
-0.003757771114119076,0.01075274768857833
-0.003757601114119076,0.01127936461264999
-0.003757431114119076,0.0116414137479503
-0.003757261114119077,0.01210220355651434
-0.003757091114119077,0.01269464759609529
-0.003756921114119077,0.01348457298220466
-0.003756751114119076,0.01348457298220837
-0.003756581114119076,0.01450489327259635
-0.003756411114119076,0.01473528817687783
-0.003756241114119077,0.01473528817687747
-0.003756071114119077,0.01453780683035049
-0.003755901114119077,0.0143732390415777
-0.003755731114119076,0.01401118990627554
-0.003755561114119076,0.01345165942444974
-0.003755391114119076,0.01335291875118571
-0.003755221114119077,0.01295795605813175
-0.003755051114119077,0.01295795605813175
-0.003754881114119077,0.01216803067202238
-0.003754711114119076,0.01243133913405584
-0.003754541114119076,0.01160850019019538
-0.003754371114119076,0.01174015442121223
-0.003754201114119077,0.01124645105489555
-0.003754031114119077,0.01167432730570402
-0.003753861114119077,0.01150975951693123
-0.003753691114119076,0.01137810528591205
-0.003753521114119076,0.01111479682387451
-0.003753351114119076,0.0105552663420483
-0.003753181114119077,0.01012739009124014
-0.003753011114119077,0.01029195788001262
-0.003752841114119077,0.009765340955939707
-0.003752671114119077,0.01180598153671853
-0.003752501114119076,0.008745020665549873
-0.003752331114119076,0.009139983358602702
-0.003752161114119077,0.008909588454321762
-0.003751991114119077,0.009205810474112236
-0.003751821114119077,0.008909588454321223
-0.003751651114119077,0.00835005797249477
-0.003751481114119076,0.00815257662596593
-0.003751311114119076,0.00802092239494848
-0.003751141114119077,0.008185490183720067
-0.003750971114119077,0.007691786817402609
-0.003750801114119077,0.008185490183720966
-0.003750631114119077,0.007658873259649009
-0.003750461114119076,0.00765887325964865
-0.003750291114119076,0.007823441048420537
-0.003750121114119077,0.00765887325964841
-0.003749951114119077,0.007856354606175394
-0.003749781114119077,0.008152576625966409
-0.003749611114119077,0.008152576625966409
-0.003749441114119076,0.007757613932912441
-0.003749271114119076,0.007955095279438468
-0.003749101114119077,0.007625959701892357
-0.003748931114119077,0.00700060210455691
-0.003748761114119077,0.006506898738238553
-0.003748591114119077,0.006441071622729558
-0.003748421114119076,0.00653981229599311
-0.003748251114119076,0.006539812295993409
-0.003748081114119076,0.006704380084765716
-0.003747911114119077,0.006605639411502225
-0.003747741114119077,0.006375244507220324
-0.003747571114119077,0.00607902248742931
-0.003747401114119076,0.006177763160692144
-0.003747231114119076,0.005947368256409585
-0.003747061114119076,0.005124529312547513
-0.003746891114119077,0.005322010659074497
-0.003746721114119077,0.004992875081528926
-0.003746551114119077,0.004729566619492469
-0.003746381114119076,0.003972554791136818
-0.003746211114119076,0.003742159886855696
-0.003746041114119076,0.003709246329099523
-0.003745871114119077,0.002787666711975635
-0.003745701114119077,0.003906727675628541
-0.003745531114119077,0.003281370078291956
-0.003745361114119076,0.003478851424820137
-0.003745191114119076,0.003709246329103234
-0.003745021114119076,0.004268776810928849
-0.003744851114119077,0.00436751748419282
-0.003744681114119077,0.004630825946228797
-0.003744511114119077,0.004861220850510698
-0.003744341114119076,0.004828307292757098
-0.003744171114119076,0.005091615754792358
-0.003744001114119076,0.005025788639283483
-0.003743831114119077,0.00502578863928486
-0.003743661114119077,0.005782800467638296
-0.003743491114119077,0.005322010659074497
-0.003743321114119076,0.005387837774589958
-0.003743151114119076,0.007132256335572384
-0.003742981114119076,0.00637524450722224
-0.003742811114119077,0.00742847835536687
-0.003742641114119077,0.007823441048420837
-0.003742471114119077,0.00881084778105755
-0.003742301114119076,0.009436205378396529
-0.003742131114119076,0.010094476533486
-0.003741961114119076,0.01029195788001406
-0.003741791114119077,0.01108188326612271
-0.003741621114119077,0.01147684595917668
-0.003741451114119077,0.01127936461264933
-0.003741281114119077,0.01154267307468531
-0.003741111114119076,0.01098314259285784
-0.003740941114119076,0.01085148836183895
-0.003740771114119077,0.01022613076450255
-0.003740601114119077,0.009699513840430593
-0.003740431114119077,0.008942502012075779
-0.003740261114119077,0.008152576625967845
-0.003740091114119076,0.007362651239850092
-0.003739921114119076,0.005453664890094043
-0.003739751114119077,0.006177763160690288
-0.003739581114119077,0.004696653061737912
-0.003739411114119077,0.003939641233383098
-0.003739241114119077,0.003709246329101618
-0.003739071114119076,0.003577592098081414
-0.003738901114119076,0.003149715847274087
-0.003738731114119077,0.003347197193801789
-0.003738561114119077,0.003742159886855756
-0.003738391114119077,0.004202949695419555
-0.003738221114119077,0.004762480177246009
-0.003738051114119076,0.005190356428057586
-0.003737881114119076,0.005552405563356696
-0.003737711114119076,0.00571697335212984
-0.003737541114119077,0.00607902248742931
-0.003737371114119077,0.006375244507220324
-0.003737201114119077,0.006441071622729439
-0.003737031114119076,0.006836034315786998
-0.003736861114119076,0.007625959701890681
-0.003736691114119076,0.006079022487433083
-0.003736521114119077,0.008152576625966409
-0.003736351114119077,0.007132256335575138
-0.003736181114119077,0.007066429220066024
-0.003736011114119076,0.007625959701894572
-0.003735841114119076,0.007922181721685765
-0.003735671114119076,0.008613366434530208
-0.003735501114119077,0.008613366434530327
-0.003735331114119077,0.008679193550039321
-0.003735161114119077,0.008547539319021094
-0.003734991114119076,0.008350057972499738
-0.003734821114119076,0.00999573586022017
-0.003734651114119076,0.009205810474112116
-0.003734481114119077,0.009139983358603361
-0.003734311114119077,0.009271637589621349
-0.003734141114119077,0.008909588454321223
-0.003733971114119076,0.008350057972493392
-0.003733801114119076,0.008251317299231635
-0.003733631114119076,0.008679193550037106
-0.003733461114119077,0.007461391913119272
-0.003733291114119077,0.006671466527011338
-0.003733121114119077,0.006441071622729439
-0.003732951114119076,0.005749886909882782
-0.003732781114119076,0.005486578447846804
-0.003732611114119076,0.005354924216829174
-0.003732441114119077,0.005420751332338467
-0.003732271114119077,0.005585319121110954
-0.003732101114119077,0.00528909710131994
-0.003731931114119076,0.005453664890092127
-0.003731761114119076,0.005289097101322694
-0.003731591114119076,0.006046108929674873
-0.003731421114119077,0.006111936045183867
-0.003731251114119077,0.006111936045183867
-0.003731081114119077,0.00630941739171121
-0.003730911114119077,0.006506898738238194
-0.003730741114119076,0.007296824124347565
-0.003730571114119076,0.00719808345108539
-0.003730401114119077,0.007823441048421316
-0.003730231114119077,0.008086749510457293
-0.003730061114119077,0.008382971530248308
-0.003729891114119077,0.007988008837194341
-0.003729721114119076,0.008119663068211731
-0.003729551114119076,0.008086749510456456
-0.003729381114119077,0.007625959701892717
-0.003729211114119077,0.007198083451084253
-0.003729041114119077,0.006342330949465767
-0.003728871114119077,0.006375244507220264
-0.003728701114119076,0.00558531912110808
-0.003728531114119076,0.004795393735001464
-0.003728361114119077,0.00472956661949199
-0.003728191114119077,0.004466258157456012
-0.003728021114119077,0.005420751332338168
-0.003727851114119077,0.005322010659074676
-0.003727681114119076,0.005618232678868264
-0.003727511114119076,0.006375244507220504
-0.003727341114119077,0.006473985180484893
-0.003727171114119077,0.006967688546802352
-0.003727001114119077,0.006737293642520453
-0.003726831114119077,0.007230997008838809
-0.003726661114119076,0.007099342777821658
-0.003726491114119076,0.007395564797611835
-0.003726321114119076,0.007527219028628266
-0.003726151114119077,0.006671466527011338
-0.003725981114119077,0.007527219028629823
-0.003725811114119077,0.00700060210455691
-0.003725641114119076,0.006901861431294076
-0.003725471114119076,0.007132256335574899
-0.003725301114119076,0.00700060210455697
-0.003725131114119077,0.007033515662311347
-0.003724961114119077,0.006967688546802352
-0.003724791114119077,0.007033515662311467
-0.003724621114119076,0.007000602104556551
-0.003724451114119076,0.006901861431295214
-0.003724281114119076,0.007988008837192306
-0.003724111114119077,0.007263910566593007
-0.003723941114119077,0.007066429220066024
-0.003723771114119077,0.007230997008838809
-0.003723601114119076,0.007691786817402968
-0.003723431114119076,0.007790527490667718
-0.003723261114119076,0.008185490183721984
-0.003723091114119077,0.008745020665548376
-0.003722921114119077,0.00871210710779388
-0.003722751114119077,0.008777934223302994
-0.003722581114119076,0.008777934223302874
-0.003722411114119076,0.008745020665548796
-0.003722241114119076,0.008843761338811389
-0.003722071114119077,0.008448798645756882
-0.003721901114119077,0.008152576625966409
-0.003721731114119077,0.007625959701893495
-0.003721561114119076,0.007428478355365673
-0.003721391114119076,0.007296824124346727
-0.003721221114119076,0.006967688546801993
-0.003721051114119077,0.006770207200274411
-0.003720881114119077,0.006441071622729439
-0.003720711114119077,0.006605639411502225
-0.003720541114119077,0.006737293642520213
-0.003720371114119076,0.00673729364252153
-0.003720201114119076,0.007033515662311407
-0.003720031114119077,0.007000602104557329
-0.003719861114119077,0.007230997008838809
-0.003719691114119077,0.007066429220066024
