Analysis/New Tests_CMB/wrd01_d2s01_new/cmb01_ch11.csv

#Digilent WaveForms Oscilloscope Acquisition
#Device Name: ADP3450
#Serial Number: SN:210018B9D9B0
#Date Time: 2024-08-14 14:50:04.017.986.890
#Sample rate: 5.88235e+06Hz
#Samples: 32768
#Trigger: Source: Channel 3 Type: Edge Condition: Rising Level: 50 mV Hyst.: Auto HoldOff: 0 s
#Channel 3: Range: 100 mV/div Offset: 0 V Attenuation: 1 X Coupling: DC Bandwidth: 0 Hz Sample Mode: Average

Time (s),Channel 3 (V)
-0.003798508694583909,0.1999398776617707
-0.003798338694583909,0.2147509786513456
-0.003798168694583909,0.228080969541917
-0.003797998694583909,0.2396665418715211
-0.003797828694583909,0.2495735227556588
-0.003797658694583909,0.2583943562338641
-0.003797488694583909,0.2651745491313028
-0.003797318694583909,0.2704078048142855
-0.003797148694583909,0.2748182215533881
-0.003796978694583909,0.2768917756919252
-0.003796808694583909,0.2781424908865983
-0.003796638694583909,0.2780766637710892
-0.003796468694583909,0.2769576028074343
-0.003796298694583909,0.275213184246439
-0.003796128694583909,0.2731396301079057
-0.003795958694583909,0.2698811878902045
-0.003795788694583909,0.2662606965371959
-0.003795618694583909,0.2622452424911473
-0.003795448694583909,0.2578348257520366
-0.003795278694583909,0.2537535445904633
-0.003795108694583909,0.2492114736203427
-0.003794938694583909,0.2445706619769501
-0.003794768694583909,0.239995677449075
-0.003794598694583909,0.2356510878254651
-0.003794428694583909,0.2317014608949183
-0.003794258694583909,0.2278505746376421
-0.003794088694583909,0.2234072443407699
-0.003793918694583909,0.2197867529877686
-0.003793748694583909,0.2155409040374384
-0.003793578694583909,0.2115583635491293
-0.003793408694583909,0.2079049586383735
-0.003793238694583909,0.2048110842094507
-0.003793068694583909,0.2009272843944074
-0.003792898694583909,0.1970105710216151
-0.003792728694583909,0.1937850423616743
-0.003792558694583909,0.1901316374509127
-0.003792388694583909,0.1861161834048567
-0.003792218694583909,0.1829235683026705
-0.003792048694583909,0.1792372498341542
-0.003791878694583909,0.1758471533854349
-0.003791708694583909,0.1729507603030391
-0.003791538694583909,0.1697581452008418
-0.003791368694583909,0.1669275792339499
-0.003791198694583909,0.1641628403825721
-0.003791028694583909,0.1621221998017846
-0.003790858694583909,0.1586333626798015
-0.003790688694583909,0.1562965000792322
-0.003790518694583909,0.154584995075991
-0.003790348694583909,0.151458207089308
-0.003790178694583909,0.1493188258352618
-0.003790008694583909,0.1466528276571427
-0.003789838694583909,0.1446780141918693
-0.003789668694583909,0.1415512262051864
-0.003789498694583909,0.1389510551425764
-0.003789328694583909,0.1354622180205933
-0.003789158694583909,0.1330266147467561
-0.003788988694583909,0.1288465929119219
-0.003788818694583909,0.1258843727140172
-0.003788648694583909,0.1225601033808069
-0.003788478694583909,0.1197953645294185
-0.003788308694583909,0.1167014901004957
-0.003788138694583909,0.1141342325956403
-0.003787968694583909,0.1114024073020075
-0.003787798694583909,0.1088680633549111
-0.003787628694583909,0.1067286821008649
-0.003787458694583909,0.1047209550778341
-0.003787288694583909,0.1031411043056182
-0.003787118694583909,0.101001723051572
-0.003786948694583909,0.1000143163189324
-0.003786778694583909,0.098401551988962
-0.003786608694583909,0.09747997237183439
-0.003786438694583909,0.09616343006165129
-0.003786268694583909,0.09570264025308831
-0.003786098694583909,0.0947810606359607
-0.003785928694583909,0.09385948101883121
-0.003785758694583909,0.09280624717068728
-0.003785588694583909,0.09237837091987805
-0.003785418694583909,0.09089726082092112
-0.003785248694583909,0.08987694053053172
-0.003785078694583909,0.0884287439893312
-0.003784908694583909,0.08724385591016427
-0.003784738694583909,0.08566400513794839
-0.003784568694583909,0.08418289503899332
-0.00378439869458391,0.08250430359351396
-0.003784228694583909,0.0808257121480285
-0.003784058694583909,0.07894963935601876
-0.003783888694583909,0.07730396146829388
-0.003783718694583909,0.07559245646505391
-0.003783548694583909,0.07397969213508063
-0.003783378694583909,0.07253149559388275
-0.003783208694583909,0.07151117530348883
-0.003783038694583909,0.06986549741576098
-0.003782868694583909,0.06897683135638955
-0.003782698694583909,0.06749572125743286
-0.003782528694583909,0.06634374673602336
-0.003782358694583909,0.06555382134991544
-0.003782188694583909,0.06459932817503183
-0.003782018694583909,0.06338152653811324
-0.003781848694583909,0.06252577403649631
-0.003781678694583909,0.06183458932364905
-0.003781508694583909,0.06157128086161259
-0.003781338694583909,0.05742417258454594
-0.003781168694583909,0.05837866575942055
-0.003780998694583909,0.05663424719842903
-0.003780828694583909,0.05541644556151263
-0.003780658694583909,0.05436321171336458
-0.003780488694583909,0.0530466694031823
-0.003780318694583909,0.05238839824809236
-0.003780148694583909,0.05136807795769989
-0.003779978694583909,0.0502819305517995
-0.003779808694583909,0.04919578314589912
-0.003779638694583909,0.04949200516569013
-0.003779468694583909,0.04735262391164392
-0.003779298694583909,0.04685892054532557
-0.003779128694583909,0.0460689951592162
-0.003778958694583909,0.04537781044637049
-0.003778788694583909,0.04481827996454302
-0.003778618694583909,0.04386378678966087
-0.003778448694583909,0.04323842919232428
-0.003778278694583909,0.04294220717253327
-0.003778108694583909,0.04215228178642252
-0.003777938694583909,0.04139526995806909
-0.003777768694583909,0.0405395174564506
-0.003777598694583909,0.03951919716605694
-0.003777428694583909,0.03820265485587705
-0.003777258694583909,0.03714942100773122
-0.003777088694583909,0.03540500244673873
-0.003776918694583909,0.03487838552266678
-0.003776748694583909,0.03422011436757564
-0.003776578694583909,0.03323270763493772
-0.003776408694583909,0.03257443647984778
-0.003776238694583909,0.03132372128517461
-0.003776068694583909,0.03089584503436357
-0.003775898694583909,0.02990843830172865
-0.003775728694583909,0.02898685868460106
-0.003775558694583909,0.02849315531828121
-0.003775388694583909,0.02767031637441877
-0.003775218694583909,0.02714369945034586
-0.003775048694583909,0.02648542829525388
-0.003774878694583909,0.02602463848669092
-0.003774708694583909,0.02543219444710889
-0.003774538694583909,0.02497140463854425
-0.003774368694583909,0.02451061482998129
-0.003774198694583909,0.02467518261875408
-0.003774028694583909,0.02474100973426343
-0.003773858694583909,0.02487266396528142
-0.003773688694583909,0.02579424358240902
-0.003773518694583909,0.02576133002465452
-0.003773348694583909,0.02589298425567269
-0.003773178694583909,0.02648542829525472
-0.003773008694583909,0.0266829096417817
-0.003772838694583909,0.0271107858925913
-0.003772668694583909,0.02770322993217333
-0.003772498694583909,0.02885520445358073
-0.003772328694583909,0.02888811801133739
-0.003772158694583909,0.02901977224235561
-0.003771988694583909,0.0291514264733736
-0.003771818694583909,0.03043505522580157
-0.003771648694583909,0.02905268580011017
-0.003771478694583909,0.02895394512684668
-0.003771308694583909,0.02901977224235561
-0.003771138694583909,0.02773614348992789
-0.003770968694583909,0.02688039098831096
-0.003770798694583909,0.02612337915995459
-0.003770628694583909,0.02605755204444548
-0.003770458694583909,0.02283202338450474
-0.003770288694583909,0.02158130818982571
-0.003770118694583909,0.02102177770799824
-0.003769948694583909,0.01983688962883634
-0.003769778694583909,0.01914570491598848
-0.003769608694583909,0.01848743376089734
-0.003769438694583909,0.0175987677015243
-0.003769268694583909,0.01680884231541493
-0.003769098694583909,0.01611765760256923
-0.003768928694583909,0.01522899154319619
-0.003768758694583909,0.01453780683035049
-0.003768588694583909,0.01447197971484137
-0.003768418694583909,0.01417575769505036
-0.003768248694583909,0.01381370855975023
-0.003768078694583909,0.01387953567525935
-0.003767908694583909,0.01417575769505036
-0.003767738694583909,0.01384662211750503
-0.003767568694583909,0.01397827634852302
-0.003767398694583909,0.01378079500199567
-0.003767228694583909,0.01371496788648632
-0.003767058694583909,0.01358331365546833
-0.003766888694583909,0.01338583230894099
-0.003766718694583909,0.01289212894262227
-0.003766548694583909,0.01269464759609529
-0.003766378694583909,0.01338583230894099
-0.003766208694583909,0.01351748653995928
-0.003766038694583909,0.01355040009771377
-0.003765868694583909,0.01378079500199567
-0.003765698694583909,0.01414284413729538
-0.003765528694583909,0.0139124492330139
-0.003765358694583909,0.01387953567525935
-0.003765188694583909,0.01397827634852266
-0.003765018694583909,0.01378079500199567
-0.003764848694583909,0.01378079500199567
-0.003764678694583909,0.01358331365546815
-0.003764508694583909,0.01348457298220466
-0.003764338694583909,0.01351748653995922
-0.003764168694583909,0.01332000519343283
-0.003763998694583909,0.01384662211750479
-0.003763828694583909,0.01269464759609529
-0.003763658694583909,0.01262882048058701
-0.003763488694583909,0.01308961028914997
-0.003763318694583909,0.01325417807792276
-0.003763148694583909,0.01315543740465927
-0.003762978694583909,0.01325417807792276
-0.003762808694583909,0.01315543740465909
-0.003762638694583909,0.01243133913406015
-0.003762468694583909,0.0118388950944768
-0.003762298694583909,0.01259590692283162
-0.003762128694583909,0.01131227817040623
-0.003761958694583909,0.01167432730570402
-0.003761788694583909,0.01108188326612199
-0.003761618694583909,0.01058817989980453
-0.003761448694583909,0.01068692057306731
-0.003761278694583909,0.01062109345755819
-0.003761108694583909,0.01009447653348624
-0.003760938694583909,0.01035778499552173
-0.003760768694583909,0.009864081629203377
-0.003760598694583909,0.01058817989980232
-0.003760428694583909,0.01058817989980363
-0.003760258694583909,0.01016030364899439
-0.003760088694583909,0.0100615629757309
-0.003759918694583909,0.009567859609412364
-0.003759748694583909,0.009469118936148692
-0.003759578694583909,0.009107069800849224
-0.003759408694583909,0.007889268163929951
-0.003759238694583909,0.007132256335575138
-0.003759068694583909,0.007033515662311646
-0.003758898694583909,0.006441071622729439
-0.003758728694583909,0.006243590276202096
-0.003758558694583909,0.006013195371920196
-0.003758388694583909,0.005387837774583611
-0.003758218694583909,0.005684059794374625
-0.003758048694583909,0.005420751332338168
-0.003757878694583909,0.005618232678865511
-0.003757708694583909,0.005782800467638296
-0.003757538694583909,0.006375244507220324
-0.003757368694583909,0.006770207200275967
-0.003757198694583909,0.007296824124347924
-0.003757028694583909,0.007658873259648051
-0.003756858694583909,0.008415885088004362
-0.003756688694583909,0.009238724031866792
-0.003756518694583909,0.009765340955939707
-0.003756348694583909,0.01045652566878684
-0.003756178694583909,0.01124645105489478
-0.003756008694583909,0.01170724086345858
-0.003755838694583909,0.01190472220998622
-0.003755668694583909,0.0120692899987587
-0.003755498694583909,0.01170724086345858
-0.003755328694583909,0.01164141374794581
-0.003755158694583909,0.009633686724921478
-0.003754988694583909,0.01042361211103085
-0.003754818694583909,0.009699513840430593
-0.003754648694583909,0.009699513840430593
-0.003754478694583909,0.008909588454321223
-0.003754308694583909,0.008745020665548556
-0.003754138694583909,0.00881084778105755
-0.003753968694583909,0.008152576625966409
-0.003753798694583909,0.008218403741476121
-0.003753628694583909,0.008547539319021094
-0.003753458694583909,0.009107069800848565
-0.003753288694583909,0.008613366434531405
-0.003753118694583909,0.009271637589621349
-0.003752948694583909,0.009107069800848565
-0.00375277869458391,0.00963368672492052
-0.003752608694583909,0.009469118936148692
-0.003752438694583909,0.00973242739818515
-0.003752268694583909,0.01019321720674811
-0.003752098694583909,0.01048943922653996
-0.003751928694583909,0.01032487143776718
-0.003751758694583909,0.01062109345755765
-0.003751588694583909,0.01012739009123984
-0.003751418694583909,0.01019321720674895
-0.003751248694583909,0.009534946051659004
-0.003751078694583909,0.009995735860221606
-0.003750908694583909,0.01029195788001262
-0.003750738694583909,0.009831168071449658
-0.003750568694583909,0.009469118936148692
-0.003750398694583909,0.009271637589621349
-0.003750228694583909,0.008712107107794898
-0.003750058694583909,0.008481712203511979
-0.003749888694583909,0.00779052749066628
-0.003749718694583909,0.00779052749066628
-0.003749548694583909,0.007362651239857037
-0.003749378694583909,0.006704380084765896
-0.003749208694583909,0.00604610892967595
-0.003749038694583909,0.00505870219703804
-0.003748868694583909,0.004202949695419555
-0.003748698694583909,0.003577592098084108
-0.003748528694583909,0.003347197193801071
-0.003748358694583909,0.002952234500746385
-0.003748188694583909,0.002458531134428029
-0.003748018694583909,0.0025572718076917
-0.003747848694583909,0.002162309114637015
-0.003747678694583909,0.001800259979336887
-0.003747508694583909,0.001438210844036758
-0.003747338694583909,0.001339470170773087
-0.003747168694583909,0.002359790461164357
-0.003746998694583909,0.003149715847273728
-0.003746828694583909,0.003610505655837527
-0.003746658694583909,0.004466258157456012
-0.003746488694583909,0.00525618354356658
-0.003746318694583909,0.005914454698656525
-0.003746148694583909,0.006506898738238553
-0.003745978694583909,0.007033515662311706
-0.003745808694583909,0.007165169893329695
-0.003745638694583909,0.007494305470875266
-0.003745468694583909,0.007625959701893375
-0.003745298694583909,0.00756013258638438
-0.003745128694583909,0.006901861431293239
-0.003744958694583909,0.007362651239857516
-0.003744788694583909,0.007625959701893495
-0.003744618694583909,0.007362651239857037
-0.003744448694583909,0.006770207200276566
-0.003744278694583909,0.007625959701893495
-0.003744108694583909,0.006605639411502225
-0.003743938694583909,0.006605639411502464
-0.003743768694583909,0.006737293642520453
-0.003743598694583909,0.006144849602938425
-0.003743428694583909,0.005289097101320478
-0.003743258694583909,0.005585319121110954
-0.003743088694583909,0.005322010659074497
-0.003742918694583909,0.005157442870302609
-0.003742748694583909,0.005651146236620068
-0.003742578694583909,0.005223269985810825
-0.003742408694583909,0.005387837774582353
-0.003742238694583909,0.004696653061737912
-0.003742068694583909,0.004729566619492469
-0.003741898694583909,0.004301690368684005
-0.003741728694583909,0.004861220850510698
-0.003741558694583909,0.004597912388474241
-0.003741388694583909,0.004927047966019213
-0.003741218694583909,0.005815714025392853
-0.003741048694583909,0.005947368256411082
-0.003740878694583909,0.006309417391710551
-0.003740708694583909,0.006934774989047795
-0.003740538694583909,0.007329737682102481
-0.003740368694583909,0.007856354606174436
-0.003740198694583909,0.008251317299230079
-0.003740028694583909,0.008777934223302994
-0.003739858694583909,0.00953494605165643
-0.003739688694583909,0.009896995186957936
-0.003739518694583909,0.009205810474112236
-0.003739348694583909,0.009403291820639219
-0.003739178694583909,0.00904124268533945
-0.003739008694583909,0.008415885088002865
-0.003738838694583909,0.007955095279439904
-0.003738668694583909,0.007691786817402609
-0.003738498694583909,0.007099342777820581
-0.003738328694583909,0.006473985180485134
-0.003738158694583909,0.00630941739171121
-0.003737988694583909,0.006144849602938425
-0.003737818694583909,0.005585319121111971
-0.003737648694583909,0.004894134408265255
-0.003737478694583909,0.00482830729275614
-0.003737308694583909,0.00482830729275614
-0.003737138694583909,0.004367517484192341
-0.003736968694583909,0.004696653061737912
-0.003736798694583909,0.004071295464401327
-0.003736628694583909,0.003709246329101199
-0.003736458694583909,0.004104209022155884
-0.003736288694583909,0.003840900560119427
-0.003736118694583909,0.003807987002365828
-0.003735948694583909,0.004334603926437783
-0.003735778694583909,0.004597912388474241
-0.003735608694583909,0.00469665306173851
-0.003735438694583909,0.005025788639283483
-0.003735268694583909,0.004729566619492469
-0.003735098694583909,0.005749886909882602
-0.003734928694583909,0.005124529312547154
-0.003734758694583909,0.00574988690988374
-0.003734588694583909,0.005716973352130559
-0.003734418694583909,0.006473985180483996
-0.003734248694583909,0.007625959701893495
-0.003734078694583909,0.005519492005605192
-0.003733908694583909,0.007362651239857037
-0.003733738694583909,0.007494305470875266
-0.003733568694583909,0.007263910566595043
-0.003733398694583909,0.008185490183720966
-0.003733228694583909,0.007856354606175394
-0.003733058694583909,0.008975415569829977
-0.003732888694583909,0.008777934223302994
-0.003732718694583909,0.008876674896566664
-0.003732548694583909,0.008317144414738773
-0.003732378694583909,0.008086749510457293
-0.003732208694583909,0.008284230856984636
-0.003732038694583909,0.008185490183721564
-0.003731868694583909,0.008514625761266537
-0.003731698694583909,0.008679193550039321
-0.00373152869458391,0.008514625761266837
-0.003731358694583909,0.008613366434530208
-0.003731188694583909,0.008909588454321223
-0.003731018694583909,0.00940329182063868
-0.003730848694583909,0.009469118936148692
-0.003730678694583909,0.009567859609412364
-0.003730508694583909,0.009469118936148872
-0.003730338694583909,0.00950203249390325
-0.003730168694583909,0.009337464705130465
-0.003729998694583909,0.009403291820639459
-0.003729828694583909,0.00881084778105755
-0.003729658694583909,0.007988008837193623
-0.003729488694583909,0.008350057972493092
-0.003729318694583909,0.007823441048420837
-0.003729148694583909,0.007494305470875266
-0.003728978694583909,0.006934774989048813
-0.003728808694583909,0.006836034315784124
-0.003728638694583909,0.006605639411502225
-0.003728468694583909,0.006572725853747727
-0.003728298694583909,0.006144849602938425
-0.003728128694583909,0.00630941739171121
-0.003727958694583909,0.006441071622729199
-0.003727788694583909,0.006934774989047795
-0.003727618694583909,0.007165169893329695
-0.003727448694583909,0.007329737682102181
-0.003727278694583909,0.007691786817402609
-0.003727108694583909,0.007593046144138938
-0.003726938694583909,0.007988008837193623
-0.003726768694583909,0.008053835952702737
-0.003726598694583909,0.008580452876775651
-0.003726428694583909,0.009205810474112236
-0.003726258694583909,0.01006156297573072
-0.003726088694583909,0.007658873259648051
-0.003725918694583909,0.008777934223302994
-0.003725748694583909,0.008909588454321223
-0.003725578694583909,0.008679193550039321
-0.003725408694583909,0.007362651239857037
-0.003725238694583909,0.007527219028628926
-0.003725068694583909,0.007033515662311467
-0.003724898694583909,0.006111936045183867
-0.003724728694583909,0.006770207200270878
-0.003724558694583909,0.004499171715210569
-0.003724388694583909,0.004433344599701455
-0.003724218694583909,0.004005468348890776
-0.003724048694583909,0.003215542962782842
-0.003723878694583909,0.003281370078291956
-0.003723708694583909,0.003281370078292016
-0.003723538694583909,0.003314283636046514
-0.003723368694583909,0.003182629405028285
-0.003723198694583909,0.00278766671197348
-0.003723028694583909,0.002721839596464486
-0.003722858694583909,0.003445937867064742
-0.003722688694583909,0.003380110751555807
-0.003722518694583909,0.003478851424819299
-0.003722348694583909,0.00357759209808297
-0.003722178694583909,0.003643419213592743
-0.003722008694583909,0.004005468348892213
-0.003721838694583909,0.004071295464401327
-0.003721668694583909,0.004301690368684124
-0.003721498694583909,0.004795393735001583
-0.003721328694583909,0.004729566619492469
-0.003721158694583909,0.005091615754793855
-0.003720988694583909,0.005782800467638296
-0.003720818694583909,0.006243590276202096
-0.003720648694583909,0.006408158064974583
-0.003720478694583909,0.006671466527011338
-0.003720308694583909,0.006901861431293239
-0.003720138694583909,0.006868947873538741
-0.003719968694583909,0.006441071622729439
