Analysis/New Tests_CMB/wrd01_d2s01_new/cmb06_ch41.csv

#Digilent WaveForms Oscilloscope Acquisition
#Device Name: ADP3450
#Serial Number: SN:210018B9D9B0
#Date Time: 2024-08-14 15:52:41.189.862.260
#Sample rate: 5.88235e+06Hz
#Samples: 32768
#Trigger: Source: Channel 3 Type: Edge Condition: Rising Level: 60 mV Hyst.: Auto HoldOff: 0 s
#Channel 3: Range: 100 mV/div Offset: 0 V Attenuation: 1 X Coupling: DC Bandwidth: 0 Hz Sample Mode: Average

Time (s),Channel 3 (V)
-0.003798527429554373,0.2010589386254256
-0.003798357429554373,0.2147838922091198
-0.003798187429554373,0.2268302543472818
-0.003798017429554373,0.2372638521554553
-0.003797847429554373,0.2465125618844826
-0.003797677429554373,0.2539839394947535
-0.003797507429554373,0.2598754663328192
-0.003797337429554373,0.2643187966297009
-0.003797167429554373,0.2688608675998153
-0.003796997429554373,0.2694203980816416
-0.003796827429554373,0.269914101447958
-0.003796657429554373,0.269321657408377
-0.003796487429554373,0.2680051150981947
-0.003796317429554373,0.265997388075158
-0.003796147429554373,0.2635946983590747
-0.003795977429554373,0.260994527296468
-0.003795807429554373,0.2576373444055024
-0.003795637429554373,0.2538522852637352
-0.003795467429554373,0.2503963616995067
-0.003795297429554373,0.2456897229405919
-0.003795127429554373,0.2420692315875881
-0.003794957429554373,0.2377575555217493
-0.003794787429554373,0.2336433608024302
-0.003794617429554373,0.2298253881029085
-0.003794447429554373,0.2259086747301162
-0.003794277429554373,0.2217286528952951
-0.003794107429554373,0.2175815446182001
-0.003793937429554373,0.2139610532652039
-0.003793767429554373,0.2095177229683401
-0.003793597429554373,0.2058314044998364
-0.003793427429554373,0.2025071351666261
-0.003793257429554373,0.1984258540050685
-0.003793087429554373,0.1943774864012379
-0.003792917429554373,0.1909215628370146
-0.003792747429554373,0.1868402816754504
-0.003792577429554373,0.1832197903224557
-0.003792407429554373,0.179105595603136
-0.003792237429554373,0.1753863635768778
-0.003792067429554373,0.1710417739532574
-0.003791897429554373,0.1677175046200523
-0.003791727429554373,0.1638995319205245
-0.003791557429554373,0.1605423490295658
-0.003791387429554373,0.1571193390230919
-0.003791217429554373,0.1546837357492591
-0.003791047429554373,0.1522810460331611
-0.003790877429554373,0.1492859122775036
-0.003790707429554373,0.147245271696721
-0.003790537429554373,0.1452046311159422
-0.003790367429554373,0.1434602125549507
-0.003790197429554373,0.1418145346672228
-0.003790027429554373,0.1400701161062237
-0.003789857429554373,0.1379965619676907
-0.003789687429554373,0.136087575617927
-0.003789517429554373,0.1345077248457111
-0.003789347429554373,0.1321050351296285
-0.003789177429554373,0.1305251843574097
-0.003789007429554373,0.1289124200274295
-0.003788837429554373,0.1270034336776688
-0.003788667429554373,0.1251602744434127
-0.003788497429554373,0.1228234118428391
-0.003788327429554373,0.1204865492422698
-0.003788157429554373,0.1177547239486416
-0.003787987429554373,0.1156482562523411
-0.003787817429554373,0.1132126529785112
-0.003787647429554373,0.1124227275923969
-0.003787477429554373,0.1089009769126615
-0.003787307429554373,0.1065970278698467
-0.003787137429554373,0.1044576466158005
-0.003786967429554373,0.1020878704574672
-0.003786797429554373,0.1006725874740209
-0.003786627429554373,0.09915856381731405
-0.003786457429554373,0.09764454016060498
-0.003786287429554373,0.09642673852368858
-0.003786117429554373,0.09435318438515147
-0.003785947429554373,0.09290498784394211
-0.003785777429554373,0.09046938457010834
-0.003785607429554373,0.08898827447115712
-0.003785437429554373,0.0881325219695363
-0.003785267429554373,0.08599314071549397
-0.003785097429554373,0.08487407975183903
-0.003784927429554373,0.08309674763308803
-0.003784757429554373,0.08174729176515023
-0.003784587429554373,0.08013452743518021
-0.003784417429554373,0.07871924445173438
-0.003784247429554373,0.0773697885838
-0.003784077429554373,0.07562537002280847
-0.003783907429554373,0.07401260569283812
-0.003783737429554373,0.07174157020776775
-0.003783567429554373,0.07091873126390297
-0.003783397429554373,0.06881226356761301
-0.003783227429554373,0.0676273754884511
-0.003783057429554373,0.0664754009670416
-0.003782887429554373,0.0653234264456342
-0.003782717429554373,0.06390814346217992
-0.003782547429554373,0.06219663845894726
-0.003782377429554373,0.06114340461080198
-0.003782207429554373,0.06038639278244854
-0.003782037429554373,0.06022182499367575
-0.003781867429554373,0.05982686230062179
-0.003781697429554373,0.05972812162735632
-0.003781527429554373,0.05943189960756435
-0.003781357429554373,0.05831283864391102
-0.003781187429554373,0.05808244373962954
-0.003781017429554373,0.05745708614229295
-0.003780847429554373,0.05676590142944851
-0.003780677429554373,0.05577849469680791
-0.003780507429554373,0.05505439642620819
-0.003780337429554373,0.05390242190479899
-0.003780167429554373,0.05291501517216408
-0.003779997429554373,0.05163138641973634
-0.003779827429554373,0.05051232545608141
-0.003779657429554373,0.04965657295445897
-0.003779487429554373,0.04857042554856116
-0.003779317429554373,0.04781341372020677
-0.003779147429554373,0.04728679679613481
-0.003778977429554373,0.04633230362125265
-0.003778807429554373,0.0458386002549343
-0.003778637429554373,0.04498284775331318
-0.003778467429554373,0.0442587494827113
-0.003778297429554373,0.04192188688214355
-0.003778127429554373,0.04277763938375911
-0.003777957429554373,0.04202062755540567
-0.003777787429554373,0.04096739370725985
-0.003777617429554373,0.04017746832114844
-0.003777447429554373,0.03961793783932151
-0.003777277429554373,0.03879509889545561
-0.003777107429554373,0.03688611254569465
-0.003776937429554373,0.03682028543018565
-0.003776767429554373,0.03583287869754893
-0.003776597429554373,0.03504295331143681
-0.003776427429554373,0.03428594148308343
-0.003776257429554373,0.03392389234778229
-0.003776087429554373,0.03264026359535594
-0.003775917429554373,0.03211364667128398
-0.003775747429554373,0.03214656022903854
-0.003775577429554373,0.0313237212851715
-0.003775407429554373,0.03046796878355876
-0.003775237429554373,0.03119206705415405
-0.003775067429554373,0.0299084383017286
-0.003774897429554373,0.0298755247439741
-0.003774727429554373,0.02971095695520131
-0.003774557429554373,0.02888811801133799
-0.003774387429554373,0.02905268580010933
-0.003774217429554373,0.02882229089582821
-0.003774047429554373,0.02878937733807365
-0.003773877429554373,0.02875646378031916
-0.003773707429554373,0.02822984685624624
-0.003773537429554373,0.0286906366648092
-0.003773367429554373,0.02783488416319276
-0.003773197429554373,0.02816401974073677
-0.003773027429554373,0.02796653839420931
-0.003772857429554373,0.02770322993217333
-0.003772687429554373,0.02730826723911865
-0.003772517429554373,0.02697913166157367
-0.003772347429554373,0.02562967579363395
-0.003772177429554373,0.02500431819629719
-0.003772007429554373,0.02365486232836089
-0.003771837429554373,0.02260162848021698
-0.003771667429554373,0.02154839463207115
-0.003771497429554373,0.0210217777079992
-0.003771327429554373,0.02016602520637747
-0.003771157429554373,0.01954066760904209
-0.003770987429554373,0.01894822356946066
-0.003770817429554373,0.01868491510742468
-0.003770647429554373,0.01812538462559721
-0.003770477429554373,0.01815829818335171
-0.003770307429554373,0.0182241252988628
-0.003770137429554373,0.0187507422229329
-0.003769967429554373,0.01825703885661598
-0.003769797429554373,0.01855326087640645
-0.003769627429554373,0.01835577952987911
-0.003769457429554373,0.01868491510742468
-0.003769287429554373,0.01924444558925227
-0.003769117429554373,0.01927735914700773
-0.003768947429554373,0.0198368896288337
-0.003768777429554373,0.01957358116679772
-0.003768607429554373,0.01881656933844291
-0.003768437429554373,0.01819121174110632
-0.003768267429554373,0.01842160664538619
-0.003768097429554373,0.0178620761635607
-0.003767927429554373,0.01782916260580614
-0.003767757429554373,0.01779624904805056
-0.003767587429554373,0.01720380500846961
-0.003767417429554373,0.01697341010418771
-0.003767247429554373,0.01710506433520786
-0.003767077429554373,0.017631681259277
-0.003766907429554373,0.01661136096888806
-0.003766737429554373,0.0168746694309238
-0.003766567429554373,0.01674301519990581
-0.003766397429554373,0.01657844741113303
-0.003766227429554373,0.01687466943092608
-0.003766057429554373,0.01743419991275343
-0.003765887429554373,0.01796081683682467
-0.003765717429554373,0.01809247106784223
-0.003765547429554373,0.01786207616356076
-0.003765377429554373,0.01802664395233354
-0.003765207429554373,0.01838869308763487
-0.003765037429554373,0.01871782866517888
-0.003764867429554373,0.01861908799191563
-0.003764697429554373,0.01865200154966947
-0.003764527429554373,0.01828995241437
-0.003764357429554373,0.01799373039457898
-0.003764187429554373,0.01779624904805008
-0.003764017429554373,0.01736837279723881
-0.003763847429554373,0.01638096606460556
-0.003763677429554373,0.01631513894909556
-0.003763507429554373,0.0157556084672691
-0.003763337429554373,0.01489985596565062
-0.003763167429554373,0.01473528817687813
-0.003762997429554373,0.01437323904157782
-0.003762827429554373,0.01440615259933082
-0.003762657429554373,0.01361622721322229
-0.003762487429554373,0.01328709163567732
-0.003762317429554373,0.01239842557630427
-0.003762147429554373,0.0121351171142683
-0.003761977429554373,0.01177306797896565
-0.003761807429554373,0.01121353749714016
-0.003761637429554373,0.01118062393938536
-0.003761467429554373,0.01101605615061288
-0.003761297429554373,0.01150975951693123
-0.003761127429554373,0.01127936461264975
-0.003760957429554373,0.01183889509447632
-0.003760787429554373,0.01170724086345846
-0.003760617429554373,0.01164141374794988
-0.003760447429554373,0.01187180865223136
-0.003760277429554373,0.01190472220998592
-0.003760107429554373,0.01154267307468645
-0.003759937429554373,0.01206928999875894
-0.003759767429554373,0.01213511711426806
-0.003759597429554373,0.01226677134528784
-0.003759427429554373,0.01325417807792276
-0.003759257429554373,0.01114771038163111
-0.003759087429554373,0.01160850019019407
-0.003758917429554373,0.01177306797896661
-0.003758747429554373,0.01147684595917662
-0.003758577429554373,0.01144393240142182
-0.003758407429554373,0.01127936461264933
-0.003758237429554373,0.01144393240142212
-0.003758067429554373,0.01157558663244035
-0.003757897429554373,0.01174015442121553
-0.003757727429554373,0.01239842557630434
-0.003757557429554373,0.01243133913405835
-0.003757387429554373,0.01216803067202345
-0.003757217429554373,0.0127604747116044
-0.003757047429554373,0.0127604747116044
-0.003756877429554373,0.01308961028915021
-0.003756707429554373,0.01315543740465855
-0.003756537429554373,0.01285921538486814
-0.003756367429554373,0.01289212894262245
-0.003756197429554373,0.01279338826935896
-0.003756027429554373,0.0127604747116044
-0.003755857429554373,0.01210220355651314
-0.003755687429554373,0.01206928999875643
-0.003755517429554373,0.0114439324014208
-0.003755347429554373,0.0107198341308215
-0.003755177429554373,0.01052235278429452
-0.003755007429554373,0.01009447653348528
-0.003754837429554373,0.009699513840429276
-0.003754667429554373,0.009337464705129746
-0.003754497429554373,0.009139983358603122
-0.003754327429554373,0.009139983358602045
-0.003754157429554373,0.008547539319021094
-0.003753987429554373,0.007823441048420837
-0.003753817429554373,0.007230997008837732
-0.003753647429554373,0.006934774989047317
-0.003753477429554373,0.006803120758028849
-0.003753307429554373,0.006408158064974284
-0.003753137429554373,0.00607902248742931
-0.003752967429554373,0.005354924216829054
-0.003752797429554373,0.00528909710132006
-0.003752627429554373,0.005157442870299437
-0.003752457429554373,0.004532085272966863
-0.003752287429554373,0.005486578447846864
-0.003752117429554373,0.005256183543565383
-0.003751947429554373,0.005684059794374625
-0.003751777429554373,0.005914454698656106
-0.003751607429554373,0.006375244507221282
-0.003751437429554373,0.006638552969256602
-0.003751267429554373,0.00653981229599335
-0.003751097429554373,0.006671466527011338
-0.003750927429554373,0.007230997008838809
-0.003750757429554373,0.006704380084766853
-0.003750587429554373,0.00713225633557454
-0.003750417429554373,0.00696768854680307
-0.003750247429554373,0.00736265123985608
-0.003750077429554373,0.006836034315784124
-0.003749907429554373,0.00802092239494818
-0.003749737429554373,0.006473985180486809
-0.003749567429554373,0.006770207200273813
-0.003749397429554373,0.006441071622729618
-0.003749227429554373,0.00653981229599299
-0.003749057429554373,0.006473985180483996
-0.003748887429554373,0.006638552969256781
-0.003748717429554373,0.006572725853747787
-0.003748547429554373,0.006572725853749583
-0.003748377429554373,0.007099342777820761
-0.003748207429554373,0.007198083451084193
-0.003748037429554373,0.007165169893329695
-0.003747867429554373,0.007856354606175394
-0.003747697429554373,0.008317144414739193
-0.003747527429554373,0.008382971530248428
-0.003747357429554373,0.008415885088003165
-0.003747187429554373,0.00858045287677589
-0.003747017429554373,0.00871210710779388
-0.003746847429554373,0.008679193550039321
-0.003746677429554373,0.00904124268533945
-0.003746507429554373,0.008975415569829618
-0.003746337429554373,0.008777934223303294
-0.003746167429554373,0.008942502012075899
-0.003745997429554373,0.009008329127584234
-0.003745827429554373,0.008646279992284765
-0.003745657429554373,0.008382971530248308
-0.003745487429554373,0.008185490183720128
-0.003745317429554373,0.007955095279438827
-0.003745147429554373,0.007889268163928874
-0.003744977429554373,0.007296824124348642
-0.003744807429554373,0.007691786817402609
-0.003744637429554373,0.008218403741475522
-0.003744467429554373,0.008185490183723601
-0.003744297429554373,0.008909588454321821
-0.003744127429554373,0.009074156243094246
-0.003743957429554373,0.009205810474112954
-0.003743787429554373,0.009600773167166921
-0.003743617429554373,0.00983116807144882
-0.003743447429554373,0.009929908744713689
-0.003743277429554373,0.01025904432225639
-0.003743107429554373,0.009798254513693665
-0.003742937429554373,0.009469118936148392
-0.003742767429554373,0.009304551147375908
-0.003742597429554373,0.009074156243094007
-0.003742427429554373,0.009205810474111757
-0.003742257429554373,0.009074156243094007
-0.003742087429554373,0.009074156243093707
-0.003741917429554373,0.008909588454321762
-0.003741747429554373,0.009205810474112236
-0.003741577429554373,0.009205810474112236
-0.003741407429554373,0.009469118936148213
-0.003741237429554373,0.009633686724920879
-0.003741067429554373,0.009469118936149112
-0.003740897429554373,0.009699513840430173
-0.003740727429554373,0.009469118936148692
-0.003740557429554373,0.01124645105489478
-0.003740387429554373,0.008909588454325473
-0.003740217429554373,0.009074156243092451
-0.003740047429554373,0.008646279992284105
-0.003739877429554373,0.008284230856985235
-0.003739707429554373,0.008613366434530208
-0.003739537429554373,0.008053835952702737
-0.003739367429554373,0.00765887325964877
-0.003739197429554373,0.0076259597018911
-0.003739027429554373,0.006967688546802053
-0.003738857429554373,0.006803120758028909
-0.003738687429554373,0.006441071622729439
-0.003738517429554373,0.006737293642520453
-0.003738347429554373,0.006144849602939503
-0.003738177429554373,0.006046108929673916
-0.003738007429554373,0.005815714025392315
-0.003737837429554373,0.005519492005600942
-0.003737667429554373,0.005025788639283483
-0.003737497429554373,0.005848627583147411
-0.003737327429554373,0.00505870219703804
-0.003737157429554373,0.005025788639285997
-0.003736987429554373,0.005716973352130199
-0.003736817429554373,0.006276503833957551
-0.003736647429554373,0.00677020720027501
-0.003736477429554373,0.007329737682102481
-0.003736307429554373,0.007625959701893495
-0.003736137429554373,0.008053835952705611
-0.003735967429554373,0.008843761338813184
-0.003735797429554373,0.009436205378394074
-0.003735627429554373,0.009403291820641733
-0.003735457429554373,0.01058817989980363
-0.003735287429554373,0.01025904432225806
-0.003735117429554373,0.01045652566878541
-0.003734947429554373,0.01045652566878534
-0.003734777429554373,0.01042361211103181
-0.003734607429554373,0.01095022903510406
-0.003734437429554373,0.01111479682387655
-0.003734267429554373,0.01170724086345858
-0.003734097429554373,0.01150975951692992
-0.003733927429554373,0.01114771038163087
-0.003733757429554373,0.01108188326612133
-0.003733587429554373,0.01071983413082049
-0.003733417429554373,0.009962822302467049
-0.003733247429554373,0.01009447653348528
-0.003733077429554373,0.009699513840427719
-0.003732907429554373,0.008909588454321462
-0.003732737429554373,0.008975415569828719
-0.003732567429554373,0.008086749510457054
-0.003732397429554373,0.007955095279439066
-0.003732227429554373,0.007230997008838809
-0.003732057429554373,0.006704380084764339
-0.003731887429554373,0.006276503833955576
-0.003731717429554373,0.005980281814164741
-0.003731547429554373,0.005486578447847163
-0.003731377429554373,0.005420751332338168
-0.003731207429554373,0.004795393735001583
-0.003731037429554373,0.003445937867067197
-0.003730867429554373,0.004367517484190425
-0.003730697429554373,0.003840900560118649
-0.003730527429554373,0.003413024309310783
-0.003730357429554373,0.003742159886855756
-0.003730187429554373,0.004071295464401327
-0.003730017429554373,0.00367633277134736
-0.003729847429554373,0.003906727675627704
-0.003729677429554373,0.003676332771345923
-0.003729507429554373,0.003281370078292196
-0.003729337429554373,0.003413024309310185
-0.003729167429554373,0.004301690368683227
-0.003728997429554373,0.004433344599701215
-0.003728827429554373,0.005058702197041034
-0.003728657429554373,0.005881541140904183
-0.003728487429554373,0.00709934277782112
-0.003728317429554373,0.007395564797611595
-0.003728147429554373,0.008679193550039321
-0.003727977429554373,0.009337464705129268
-0.003727807429554373,0.01075274768857845
-0.003727637429554373,0.01131227817040491
-0.003727467429554373,0.0118718086522328
-0.003727297429554373,0.01266173403834073
-0.003727127429554373,0.01256299336507706
-0.003726957429554373,0.01289212894262263
-0.003726787429554373,0.01236551201855331
-0.003726617429554373,0.01335291875118422
-0.003726447429554373,0.01213511711426716
-0.003726277429554373,0.01177306797896769
-0.003726107429554373,0.01121353749714022
-0.003725937429554373,0.01029195788001262
-0.003725767429554373,0.009732427398183474
-0.003725597429554373,0.009271637589619674
-0.003725427429554373,0.008350057972493212
-0.003725257429554373,0.008053835952701899
-0.003725087429554373,0.007593046144138938
-0.003724917429554373,0.007757613932911723
-0.003724747429554373,0.007724700375157405
-0.003724577429554373,0.007790527490667118
-0.003724407429554373,0.00825131729922954
-0.003724237429554373,0.007955095279439005
-0.003724067429554373,0.007922181721684508
-0.003723897429554373,0.007922181721684508
-0.003723727429554373,0.007527219028628147
-0.003723557429554373,0.007066429220064467
-0.003723387429554373,0.006638552969253309
-0.003723217429554373,0.004729566619496839
-0.003723047429554373,0.007132256335575138
-0.003722877429554373,0.006572725853747667
-0.003722707429554373,0.004861220850510458
-0.003722537429554373,0.00479539373500326
-0.003722367429554373,0.005256183543565563
-0.003722197429554373,0.005354924216829294
-0.003722027429554373,0.005486578447847282
-0.003721857429554373,0.004729566619492469
-0.003721687429554373,0.006539812295987722
-0.003721517429554373,0.005058702197041512
-0.003721347429554373,0.006013195371920016
-0.003721177429554373,0.005914454698657243
-0.003721007429554373,0.00630941739171121
-0.003720837429554373,0.006605639411502225
-0.003720667429554373,0.007296824124346667
-0.003720497429554373,0.007856354606176232
-0.003720327429554373,0.00808674951045885
-0.003720157429554373,0.008942502012076138
-0.003719987429554373,0.009139983358603122
-0.003719817429554373,0.00973242739818515
-0.003719647429554373,0.00950203249390367
