Analysis/New Tests_CMB/wrd01_d2s01_new/cmb08_ch44.csv

#Digilent WaveForms Oscilloscope Acquisition
#Device Name: ADP3450
#Serial Number: SN:210018B9D9B0
#Date Time: 2024-08-14 17:46:53.786.409.300
#Sample rate: 5.88235e+06Hz
#Samples: 32768
#Trigger: Source: Channel 3 Type: Edge Condition: Rising Level: 60 mV Hyst.: Auto HoldOff: 0 s
#Channel 3: Range: 100 mV/div Offset: 0 V Attenuation: 1 X Coupling: DC Bandwidth: 0 Hz Sample Mode: Average

Time (s),Channel 3 (V)
-0.003798456002460391,0.2047123435361815
-0.003798286002460391,0.2184043835620978
-0.003798116002460391,0.2297595609873994
-0.003797946002460391,0.2404235536998759
-0.003797776002460391,0.2488823380428092
-0.003797606002460391,0.2555637902669722
-0.003797436002460391,0.2613565764317742
-0.003797266002460391,0.2657999067286436
-0.003797096002460391,0.2681038557714585
-0.003796926002460391,0.2694203980816407
-0.003796756002460391,0.2701774099099939
-0.003796586002460391,0.2692558302928679
-0.003796416002460391,0.2676759795206492
-0.003796246002460391,0.265306203362317
-0.003796076002460391,0.2630351678772566
-0.003795906002460391,0.2595792443130281
-0.003795736002460391,0.2555637902669653
-0.003795566002460391,0.2517787311251981
-0.003795396002460391,0.2474999686171057
-0.003795226002460391,0.2427933298581969
-0.003795056002460391,0.2389095300431663
-0.003794886002460391,0.2348940759971103
-0.003794716002460391,0.2307798812777982
-0.003794546002460391,0.2270606492515257
-0.003794376002460391,0.2229464545322061
-0.003794206002460391,0.2193259631792114
-0.003794036002460391,0.2153105091331488
-0.003793866002460391,0.2116241906646384
-0.003793696002460391,0.2083657484469432
-0.003793526002460391,0.2052060469024998
-0.003793356002460391,0.2016184691072531
-0.003793186002460391,0.1986891624671028
-0.003793016002460391,0.1947724490943052
-0.003792846002460391,0.1915469204343586
-0.003792676002460391,0.1883543053321724
-0.003792506002460391,0.1849312953256926
-0.003792336002460391,0.1816399395502369
-0.003792166002460391,0.1788752006988591
-0.003791996002460391,0.1760775482897168
-0.003791826002460391,0.1728849331875247
-0.003791656002460391,0.1700872807783924
-0.003791486002460391,0.1668617521184408
-0.003791316002460391,0.1639653590360398
-0.003791146002460391,0.161068965953644
-0.003790976002460391,0.1593903745081563
-0.003790806002460391,0.156066105174946
-0.003790636002460391,0.1540254645941672
-0.003790466002460391,0.1512607257427807
-0.003790296002460391,0.1490884309309799
-0.003790126002460391,0.1464882598683699
-0.003789956002460391,0.143953915921269
-0.003789786002460391,0.141353744858659
-0.003789616002460391,0.139346017835631
-0.003789446002460391,0.1372066365815848
-0.003789276002460391,0.1349685146542749
-0.003789106002460391,0.1333557503243016
-0.003788936002460391,0.1306897521461794
-0.003788766002460391,0.1289782471429455
-0.003788596002460391,0.1263780760803355
-0.003788426002460391,0.1243703490573042
-0.003788256002460391,0.1225271898230524
-0.003788086002460391,0.1204536356845153
-0.003787916002460391,0.1181167730839379
-0.003787746002460391,0.1160103053876501
-0.003787576002460391,0.1144304546154313
-0.003787406002460391,0.1123569004768912
-0.003787236002460391,0.1107112225891664
-0.003787066002460391,0.1088351497971566
-0.003786896002460391,0.1075515210447264
-0.003786726002460391,0.1061691516190375
-0.003786556002460391,0.1044905601735551
-0.003786386002460391,0.1031411043056165
-0.003786216002460391,0.1022195246884906
-0.003786046002460391,0.1007713281472901
-0.003785876002460391,0.09912565025955841
-0.003785706002460391,0.09701918256327061
-0.003785536002460391,0.09557098602207009
-0.003785366002460391,0.09362908611454779
-0.003785196002460391,0.09175301332254146
-0.003785026002460391,0.09010733543481361
-0.003784856002460391,0.0880008677385189
-0.003784686002460391,0.08632227629303954
-0.003784516002460391,0.08454494417429345
-0.003784346002460391,0.08273469849779609
-0.003784176002460391,0.0812206748410832
-0.003784006002460391,0.0799041325309009
-0.003783836002460391,0.07832428175868504
-0.003783666002460391,0.07720522079502723
-0.003783496002460391,0.07602033271586317
-0.003783326002460391,0.07483544463670126
-0.003783156002460391,0.07351890232651681
-0.003782986002460391,0.07216944645857998
-0.003782816002460391,0.0708858177061546
-0.003782646002460391,0.06914139914516074
-0.003782476002460391,0.06772611616171478
-0.003782306002460391,0.06585004336970843
-0.003782136002460391,0.06453350105952274
-0.003781966002460391,0.06295365028730399
-0.003781796002460391,0.06167002153487861
-0.003781626002460391,0.06058387412897588
-0.003781456002460391,0.0594977267230755
-0.003781286002460391,0.05867488777921306
-0.003781116002460391,0.05788496239310219
-0.003780946002460391,0.0567329878716927
-0.003780776002460391,0.05558101335028529
-0.003780606002460391,0.05482400152192839
-0.003780436002460391,0.05386950834704623
-0.003780266002460391,0.05324415074971078
-0.003780096002460391,0.05245422536360028
-0.003779926002460391,0.05169721353524546
-0.003779756002460391,0.04988696785874482
-0.003779586002460391,0.05067689324485419
-0.003779416002460391,0.05077563391811786
-0.003779246002460391,0.05015027632078128
-0.003779076002460391,0.04945909160793558
-0.003778906002460391,0.04945909160793558
-0.003778736002460391,0.04939326449242647
-0.003778566002460391,0.04945909160793558
-0.003778396002460391,0.04972240006997204
-0.003778226002460391,0.04952491872344469
-0.003778056002460391,0.0500515356475173
-0.003777886002460391,0.04988696785874482
-0.003777716002460391,0.05054523901383596
-0.003777546002460391,0.05021610343629015
-0.003777376002460391,0.05008444920527216
-0.003777206002460391,0.05015027632078128
-0.003777036002460391,0.04932743737691597
-0.003776866002460391,0.04857042554856254
-0.003776696002460391,0.04778050016245317
-0.003776526002460391,0.04768175948918728
-0.003776356002460391,0.04646395785227088
-0.003776186002460391,0.04544363756187961
-0.003776016002460391,0.04452205794475016
-0.003775846002460391,0.04350173765436074
-0.003775676002460391,0.04211936822866934
-0.003775506002460391,0.04162566486234848
-0.003775336002460391,0.04024329543665959
-0.003775166002460391,0.03968376495483212
-0.003774996002460391,0.03853179043342154
-0.003774826002460391,0.03793934639384059
-0.003774656002460391,0.03672154475692198
-0.003774486002460391,0.0359974464863201
-0.003774316002460391,0.03510878042694868
-0.003774146002460391,0.03435176859859387
-0.003773976002460391,0.03372641100125573
-0.003773806002460391,0.03287065849963879
-0.003773636002460391,0.03237695513332044
-0.003773466002460391,0.0315870297472125
-0.003773296002460391,0.03138954840068373
-0.003773126002460391,0.03132372128517461
-0.003772956002460391,0.03079710436110266
-0.003772786002460391,0.03066545013008347
-0.003772616002460391,0.03046796878355613
-0.003772446002460391,0.03036922811029264
-0.003772276002460391,0.03023757387927423
-0.003772106002460391,0.02974387051295587
-0.003771936002460391,0.02948056205091989
-0.003771766002460391,0.02885520445358283
-0.003771596002460391,0.02813110618298257
-0.003771426002460391,0.02767031637441961
-0.003771256002460391,0.02707787233483674
-0.003771086002460391,0.02651834185300928
-0.003770916002460391,0.02579424358241034
-0.003770746002460391,0.0259588113711818
-0.003770576002460391,0.02530054021609066
-0.003770406002460391,0.0249055775230367
-0.003770236002460391,0.02342446742408091
-0.003770066002460391,0.02464226906099952
-0.003769896002460391,0.02411565213692756
-0.003769726002460391,0.02418147925243572
-0.003769556002460391,0.02408273857917205
-0.003769386002460391,0.02447770127222673
-0.003769216002460391,0.02490557752303598
-0.003769046002460391,0.025498021562618
-0.003768876002460391,0.02520179954282699
-0.003768706002460391,0.02622211983321826
-0.003768536002460391,0.02586007069791813
-0.003768366002460391,0.02546510800486345
-0.003768196002460391,0.02507014531180876
-0.003768026002460391,0.02477392329201775
-0.003767856002460391,0.02464226906099952
-0.003767686002460391,0.0240169114636624
-0.003767516002460391,0.02372068944387192
-0.003767346002460391,0.02279910982674432
-0.003767176002460391,0.02187753020961846
-0.003767006002460391,0.02283202338449888
-0.003766836002460391,0.02072555568820722
-0.003766666002460391,0.02052807434167952
-0.003766496002460391,0.02033059299515254
-0.003766326002460391,0.02026476587964342
-0.003766156002460391,0.01977106251332494
-0.003765986002460391,0.01970523539781595
-0.003765816002460391,0.01960649472455228
-0.003765646002460391,0.01957358116679796
-0.003765476002460391,0.01970523539781595
-0.003765306002460391,0.0199027167443433
-0.003765136002460391,0.01983688962883394
-0.003764966002460391,0.01970523539781595
-0.003764796002460391,0.01934318626251582
-0.003764626002460391,0.0193431862625154
-0.003764456002460391,0.01911279135823393
-0.003764286002460391,0.01881656933844291
-0.003764116002460391,0.01855326087640585
-0.003763946002460391,0.01822412529886088
-0.003763776002460391,0.01822412529886088
-0.003763606002460391,0.01733545923948718
-0.003763436002460391,0.01697341010418771
-0.003763266002460391,0.01641387962236024
-0.003763096002460391,0.01585434914053379
-0.003762926002460391,0.0152948186587053
-0.003762756002460391,0.01499859663891429
-0.003762586002460391,0.01509733731217778
-0.003762416002460391,0.01486694240789606
-0.003762246002460391,0.01486694240789606
-0.003762076002460391,0.01457072038810558
-0.003761906002460391,0.01503151019666884
-0.003761736002460391,0.01496568308115973
-0.003761566002460391,0.01493276952340523
-0.003761396002460391,0.01503151019666884
-0.003761226002460391,0.01545938644747809
-0.003761056002460391,0.01555812712074158
-0.003760886002460391,0.01522899154319619
-0.003760716002460391,0.01601891692930556
-0.003760546002460391,0.01588726269828757
-0.003760376002460391,0.015986003371551
-0.003760206002460391,0.01592017625604189
-0.003760036002460391,0.01615057116032336
-0.003759866002460391,0.01615057116032378
-0.003759696002460391,0.01638096606460569
-0.003759526002460391,0.01611765760256971
-0.003759356002460391,0.01585434914053277
-0.003759186002460391,0.01601891692930556
-0.003759016002460391,0.01532773221646111
-0.003758846002460391,0.0155252135629872
-0.003758676002460391,0.0155252135629872
-0.003758506002460391,0.01476820173463239
-0.003758336002460391,0.01489985596565062
-0.003758166002460391,0.01473528817687783
-0.003757996002460391,0.01443906615708682
-0.003757826002460391,0.01404410346403213
-0.003757656002460391,0.01447197971484137
-0.003757486002460391,0.01480111529238694
-0.003757316002460391,0.01545938644747868
-0.003757146002460391,0.01578852202502366
-0.003756976002460391,0.01674301519990581
-0.003756806002460391,0.01703923721969808
-0.003756636002460391,0.01773042193254253
-0.003756466002460391,0.01822412529886088
-0.003756296002460391,0.01845452020314344
-0.003756126002460391,0.01881656933844291
-0.003755956002460391,0.01911279135823393
-0.003755786002460391,0.02000145741760888
-0.003755616002460391,0.0210546912657528
-0.003755446002460391,0.01947484049353405
-0.003755276002460391,0.02042933366841639
-0.003755106002460391,0.02052807434167988
-0.003754936002460391,0.01940901337802494
-0.003754766002460391,0.01888239645395005
-0.003754596002460391,0.01779624904805164
-0.003754426002460391,0.01703923721969683
-0.003754256002460391,0.01624931183358578
-0.003754086002460391,0.01532773221645986
-0.003753916002460391,0.01493276952340517
-0.003753746002460391,0.01420867125280336
-0.003753576002460391,0.01335291875118643
-0.003753406002460391,0.01308961028914997
-0.003753236002460391,0.01272756115384967
-0.003753066002460391,0.01262882048058617
-0.003752896002460391,0.01203637644100415
-0.003752726002460391,0.01246425269181261
-0.003752556002460391,0.01239842557630427
-0.003752386002460391,0.01180598153672225
-0.003752216002460391,0.01183889509447674
-0.003752046002460391,0.01187180865223136
-0.003751876002460391,0.0118388950944768
-0.003751706002460391,0.01174015442121331
-0.003751536002460391,0.01233259846079516
-0.003751366002460391,0.0132212645201682
-0.003751196002460391,0.01266173403834175
-0.003751026002460391,0.01282630182711352
-0.003750856002460391,0.01295795605813175
-0.003750686002460391,0.01305669673139524
-0.003750516002460391,0.01295795605813175
-0.003750346002460391,0.01292504250037719
-0.003750176002460391,0.01285921538486819
-0.003750006002460391,0.01335291875118643
-0.003749836002460391,0.0134516594244501
-0.003749666002460391,0.01335291875118661
-0.003749496002460391,0.01332000519343187
-0.003749326002460391,0.01315543740465909
-0.003749156002460391,0.01332000519343157
-0.003748986002460391,0.01332000519343187
-0.003748816002460391,0.01325417807792276
-0.003748646002460391,0.01315543740465927
-0.003748476002460391,0.01341874586669555
-0.003748306002460391,0.01295795605813175
-0.003748136002460391,0.01289212894262263
-0.003747966002460391,0.01328709163567732
-0.003747796002460391,0.0134516594244501
-0.003747626002460391,0.0132212645201682
-0.003747456002460391,0.01312252384690453
-0.003747286002460391,0.01358331365546833
-0.003747116002460391,0.01355040009771377
-0.003746946002460391,0.01361622721322289
-0.003746776002460391,0.01420867125280492
-0.003746606002460391,0.01410993057954124
-0.003746436002460391,0.01420867125280492
-0.003746266002460391,0.01420867125280492
-0.003746096002460391,0.01440615259933226
-0.003745926002460391,0.01414284413729628
-0.003745756002460391,0.01440615259933226
-0.003745586002460391,0.01453780683035049
-0.003745416002460391,0.01430741192606817
-0.003745246002460391,0.01407701702178669
-0.003745076002460391,0.01453780683035049
-0.003744906002460391,0.01420867125280498
-0.003744736002460391,0.01424158481055947
-0.003744566002460391,0.01358331365546833
-0.003744396002460391,0.01332000519343068
-0.003744226002460391,0.01266173403834073
-0.003744056002460391,0.0122996849030406
-0.003743886002460391,0.01213511711426704
-0.003743716002460391,0.01170724086345858
-0.003743546002460391,0.01167432730570402
-0.003743376002460391,0.01180598153672273
-0.003743206002460391,0.0120692899987587
-0.003743036002460391,0.01203637644100415
-0.003742866002460391,0.01249716624956873
-0.003742696002460391,0.01292504250037719
-0.003742526002460391,0.01315543740465909
-0.003742356002460391,0.01348457298220472
-0.003742186002460391,0.01351748653995922
-0.003742016002460391,0.01466946106136872
-0.003741846002460391,0.01585434914053062
-0.003741676002460391,0.01407701702178669
-0.003741506002460391,0.01470237461912327
-0.003741336002460391,0.01450489327259629
-0.003741166002460391,0.01424158481055947
-0.003740996002460391,0.01417575769505036
-0.003740826002460391,0.01394536279076888
-0.003740656002460391,0.01328709163567732
-0.003740486002460391,0.01295795605813175
-0.003740316002460391,0.01239842557630529
-0.003740146002460391,0.01213511711426782
-0.003739976002460391,0.01144393240142212
-0.003739806002460391,0.01131227817040413
-0.003739636002460391,0.01131227817040389
-0.003739466002460391,0.0116085001901949
-0.003739296002460391,0.01091731547735046
-0.003739126002460391,0.01098314259285832
-0.003738956002460391,0.01062109345755819
-0.003738786002460391,0.01071983413082168
-0.003738616002460391,0.01052235278429452
-0.003738446002460391,0.01045652566878541
-0.003738276002460391,0.0105552663420489
-0.003738106002460391,0.01081857480408553
-0.003737936002460391,0.01121353749714022
-0.003737766002460391,0.0114110188436672
-0.003737596002460391,0.01170724086345858
-0.003737426002460391,0.01167432730570402
-0.003737256002460391,0.01193763576774048
-0.003737086002460391,0.01147684595917668
-0.003736916002460391,0.011378105285913
-0.003736746002460391,0.01164141374794946
-0.003736576002460391,0.01147684595917668
-0.003736406002460391,0.01144393240142212
-0.003736236002460391,0.01193763576774048
-0.003736066002460391,0.01180598153672201
-0.003735896002460391,0.01167432730570402
-0.003735726002460391,0.01131227817040389
-0.003735556002460391,0.01170724086345822
-0.003735386002460391,0.01150975951693123
-0.003735216002460391,0.01193763576774048
-0.003735046002460391,0.01203637644100421
-0.003734876002460391,0.0120692899987587
-0.003734706002460391,0.01233259846079516
-0.003734536002460391,0.01256299336507628
-0.003734366002460391,0.01213511711426782
-0.003734196002460391,0.01197054932549503
-0.003734026002460391,0.01180598153672255
-0.003733856002460391,0.01197054932549503
-0.003733686002460391,0.01157558663244035
-0.003733516002460391,0.01131227817040389
-0.003733346002460391,0.01131227817040389
-0.003733176002460391,0.01019321720674895
-0.003733006002460391,0.009929908744710876
-0.003732836002460391,0.00904124268533945
-0.003732666002460391,0.009008329127584893
-0.003732496002460391,0.007790527490665562
-0.003732326002460391,0.007395564797611595
-0.003732156002460391,0.007198083451084253
-0.003731986002460391,0.006737293642520273
-0.003731816002460391,0.006638552969256781
-0.003731646002460391,0.006276503833956653
-0.003731476002460391,0.006013195371920675
-0.003731306002460391,0.005848627583147411
-0.003731136002460391,0.006111936045183867
-0.003730966002460391,0.005947368256411381
-0.003730796002460391,0.006177763160692982
-0.003730626002460391,0.005980281814165639
-0.003730456002460391,0.005749886909884159
-0.003730286002460391,0.005486578447847282
-0.003730116002460391,0.00574988690988374
-0.003729946002460391,0.006013195371919717
-0.003729776002460391,0.006605639411502225
-0.003729606002460391,0.007165169893329695
-0.003729436002460391,0.00746139191312017
-0.003729266002460391,0.008350057972493751
-0.003729096002460391,0.00881084778105755
-0.003728926002460391,0.009271637589620511
-0.003728756002460391,0.009600773167166921
-0.003728586002460391,0.01006156297573072
-0.003728416002460391,0.01016030364899421
-0.003728246002460391,0.01052235278429452
-0.003728076002460391,0.01091731547734921
-0.003727906002460391,0.01081857480408571
-0.003727736002460391,0.01098314259285832
-0.003727566002460391,0.01124645105489478
-0.003727396002460391,0.01147684595917626
-0.003727226002460391,0.01147684595917668
-0.003727056002460391,0.01131227817040389
-0.003726886002460391,0.01180598153672225
-0.003726716002460391,0.01150975951693123
-0.003726546002460391,0.01200346288324959
-0.003726376002460391,0.01203637644100415
-0.003726206002460391,0.0125300798073225
-0.003726036002460391,0.01262882048058617
-0.003725866002460391,0.01282630182711352
-0.003725696002460391,0.01378079500199567
-0.003725526002460391,0.01378079500199567
-0.003725356002460391,0.01447197971484137
-0.003725186002460391,0.01420867125280587
-0.003725016002460391,0.01473528817687783
-0.003724846002460391,0.01434032548382314
-0.003724676002460391,0.01513025086993299
-0.003724506002460391,0.01539355933196897
-0.003724336002460391,0.01595308981379644
-0.003724166002460391,0.01611765760257055
-0.003723996002460391,0.01684175587316948
-0.003723826002460391,0.01707215077745139
-0.003723656002460391,0.01726963212397849
-0.003723486002460391,0.0171379778929605
-0.003723316002460391,0.0175987677015243
-0.003723146002460391,0.01769750837478773
-0.003722976002460391,0.01756585414376974
-0.003722806002460391,0.01680884231541493
-0.003722636002460391,0.01651262029562338
-0.003722466002460391,0.0162163982758329
-0.003722296002460391,0.01592017625604189
-0.003722126002460391,0.01539355933196694
-0.003721956002460391,0.01427449836831403
-0.003721786002460391,0.01378079500199567
-0.003721616002460391,0.0133200051934305
-0.003721446002460391,0.01256299336507706
-0.003721276002460391,0.01164141374794946
-0.003721106002460391,0.01124645105489484
-0.003720936002460391,0.01127936461264933
-0.003720766002460391,0.01071983413082186
-0.003720596002460391,0.0102590443222589
-0.003720426002460391,0.01016030364899439
-0.003720256002460391,0.01012739009123984
-0.003720086002460391,0.009962822302467349
-0.003719916002460391,0.009929908744712493
-0.003719746002460391,0.009995735860221606
-0.003719576002460391,0.009995735860221606
-0.003719406002460391,0.01042361211103085
-0.003719236002460391,0.01104896970836743
-0.003719066002460391,0.01131227817040341
