Analysis/New Tests_CMB/wrd01_d2s01_new/cmb02_ch13.csv

#Digilent WaveForms Oscilloscope Acquisition
#Device Name: ADP3450
#Serial Number: SN:210018B9D9B0
#Date Time: 2024-08-14 16:33:40.165.958.510
#Sample rate: 5.88235e+06Hz
#Samples: 32768
#Trigger: Source: Channel 3 Type: Edge Condition: Rising Level: 60 mV Hyst.: Auto HoldOff: 0 s
#Channel 3: Range: 100 mV/div Offset: 0 V Attenuation: 1 X Coupling: DC Bandwidth: 0 Hz Sample Mode: Average

Time (s),Channel 3 (V)
-0.003798533866299913,0.2144876701892849
-0.003798363866299913,0.2269948221360374
-0.003798193866299913,0.2384487402346025
-0.003798023866299913,0.247401227943842
-0.003797853866299913,0.2550700869006651
-0.003797683866299913,0.2612578357585106
-0.003797513866299913,0.2656353389398666
-0.003797343866299913,0.2687950404843071
-0.003797173866299913,0.2704078048142775
-0.003797003866299913,0.2710002488538595
-0.003796833866299913,0.2712635573158934
-0.003796663866299913,0.2698811878902045
-0.003796493866299913,0.2690583489463406
-0.003796323866299913,0.2670177083655537
-0.003796153866299913,0.2646150186494754
-0.003795983866299913,0.2623439831644109
-0.003795813866299913,0.2594146765242484
-0.003795643866299913,0.2555637902669722
-0.003795473866299913,0.2522066073760074
-0.003795303866299913,0.2486519431385078
-0.003795133866299913,0.2445706619769501
-0.003794963866299913,0.2410489112972125
-0.003794793866299913,0.2381525182148167
-0.003794623866299913,0.2345320268618102
-0.003794453866299913,0.2301545236804541
-0.003794283866299913,0.2265998594429684
-0.003794113866299913,0.2215640851065147
-0.003793943866299913,0.2177790259647406
-0.003793773866299913,0.2140927074962369
-0.003793603866299913,0.2103734754699653
-0.003793433866299913,0.2066213298859458
-0.003793263866299913,0.2027375300709151
-0.003793093866299913,0.1991170387179067
-0.003792923866299913,0.1954307202493963
-0.003792753866299913,0.1919747966851741
-0.003792583866299913,0.1880580833123756
-0.003792413866299913,0.184009715708565
-0.003792243866299913,0.1816070259924867
-0.003792073866299913,0.1782498431015175
-0.003791903866299913,0.1745306110752526
-0.003791733866299913,0.1713050824153118
-0.003791563866299913,0.1688694791414687
-0.003791393866299913,0.1655452098082585
-0.003791223866299913,0.1634716556697252
-0.003791053866299913,0.1606081761450749
-0.003790883866299913,0.158370054217765
-0.003790713866299913,0.1558357102706688
-0.003790543866299913,0.1538608968053907
-0.003790373866299913,0.1518202562246082
-0.003790203866299913,0.1492529987197527
-0.003790033866299913,0.1466857412148973
-0.003789863866299913,0.1441513972677964
-0.003789693866299913,0.1415841397629409
-0.003789523866299913,0.1387206602382944
-0.003789353866299913,0.1364167111954754
-0.003789183866299913,0.1338165401328654
-0.003789013866299913,0.1334544909975517
-0.003788843866299913,0.1259501998295263
-0.003788673866299913,0.1243045219417984
-0.003788503866299913,0.1232512880936477
-0.003788333866299913,0.1205523763577789
-0.003788163866299913,0.1185117357769964
-0.003787993866299913,0.116635662984983
-0.003787823866299913,0.1146279359619586
-0.003787653866299913,0.112521468265667
-0.003787483866299913,0.1108428768201808
-0.003787313866299913,0.1087693226816475
-0.003787143866299913,0.1072882125826924
-0.003786973866299913,0.1058400160414887
-0.003786803866299913,0.1040955974805004
-0.003786633866299913,0.103305672094391
-0.003786463866299913,0.100902982378305
-0.003786293866299913,0.09905982314405315
-0.003786123866299913,0.09797367573815274
-0.003785953866299913,0.09590012159961279
-0.003785783866299913,0.09432027082739691
-0.003785613866299913,0.09244419803538717
-0.003785443866299913,0.09145679130274656
-0.003785273866299913,0.08931741004870422
-0.003785103866299913,0.08767173216097637
-0.003784933866299913,0.08566400513794648
-0.003784763866299913,0.08461077128980257
-0.003784593866299913,0.08237264936249269
-0.003784423866299913,0.08079279859027681
-0.003784253866299913,0.07924586137580977
-0.003784083866299913,0.0776001834880819
-0.003783913866299913,0.07595450560035705
-0.003783743866299913,0.07440756838588986
-0.003783573866299913,0.07318976674897126
-0.003783403866299913,0.07236692780510881
-0.003783233866299913,0.07157700241899795
-0.003783063866299913,0.07111621261043416
-0.003782893866299913,0.07032628722432624
-0.003782723866299913,0.06947053472270631
-0.003782553866299913,0.06881226356761516
-0.003782383866299913,0.06752863481518975
-0.003782213866299913,0.06660705519805982
-0.003782043866299913,0.0653234264456321
-0.003781873866299913,0.06515885865685964
-0.003781703866299913,0.06367774855790426
-0.003781533866299913,0.06275616894077665
-0.003781363866299913,0.06111049105305178
-0.003781193866299913,0.05959646739633917
-0.003781023866299913,0.05798370306636587
-0.003780853866299913,0.05686464210271296
-0.003780683866299913,0.0558114082545651
-0.003780513866299913,0.05433029815561003
-0.003780343866299913,0.05337580498072961
-0.003780173866299913,0.05212508978605471
-0.003780003866299913,0.05149973218871812
-0.003779833866299913,0.05110476949566344
-0.003779663866299913,0.05067689324485419
-0.003779493866299913,0.05044649834057229
-0.003779323866299913,0.05015027632078128
-0.003779153866299913,0.05031484410955406
-0.003778983866299913,0.05011736276302672
-0.003778813866299913,0.05018318987853584
-0.003778643866299913,0.05057815257159052
-0.003778473866299913,0.05051232545608141
-0.003778303866299913,0.05061106612934508
-0.003778133866299913,0.05021610343628913
-0.003777963866299913,0.04952491872344469
-0.003777793866299913,0.04916286958814457
-0.003777623866299913,0.04771467304694262
-0.003777453866299913,0.04692474766083468
-0.003777283866299913,0.04610190871697075
-0.003777113866299913,0.04419292236720662
-0.003776943866299913,0.04429166304047012
-0.003776773866299913,0.04202062755540567
-0.003776603866299913,0.04034203610992326
-0.003776433866299913,0.04034203610992326
-0.003776263866299913,0.03889383956872275
-0.003776093866299913,0.03833430908689354
-0.003775923866299913,0.03737981591201312
-0.003775753866299913,0.03645823629488552
-0.003775583866299913,0.03596453292856632
-0.003775413866299913,0.03550374312000337
-0.003775243866299913,0.03543791600449425
-0.003775073866299913,0.03537208888898502
-0.003774903866299913,0.03530626177347602
-0.003774733866299913,0.03530626177347602
-0.003774563866299913,0.03550374312000241
-0.003774393866299913,0.03497712619593045
-0.003774223866299913,0.03451633638736665
-0.003774053866299913,0.03418720080981994
-0.003773883866299913,0.0335618432124845
-0.003773713866299913,0.03293648561514791
-0.003773543866299913,0.03247569580658495
-0.003773373866299913,0.03204781955577487
-0.003773203866299913,0.03211364667128398
-0.003773033866299913,0.03119206705415806
-0.003772863866299913,0.03050088234131068
-0.003772693866299913,0.02997426541723777
-0.003772523866299913,0.02987552474397428
-0.003772353866299913,0.02967804339744676
-0.003772183866299913,0.02908559935786473
-0.003772013866299913,0.02931599426214621
-0.003771843866299913,0.02852606887603726
-0.003771673866299913,0.02842732820277359
-0.003771503866299913,0.02813110618298311
-0.003771333866299913,0.02790071127870067
-0.003771163866299913,0.02783488416319156
-0.003770993866299913,0.02747283502789209
-0.003770823866299913,0.02691330454606396
-0.003770653866299913,0.02632086050648193
-0.003770483866299913,0.02595881137118246
-0.003770313866299913,0.02539928088935433
-0.003770143866299913,0.02500431819629965
-0.003769973866299913,0.02404982502141922
-0.003769803866299913,0.02329281319306268
-0.003769633866299913,0.02276619626898976
-0.003769463866299913,0.02246997424919875
-0.003769293866299913,0.02227249290267141
-0.003769123866299913,0.02233832001818052
-0.003768953866299913,0.02214083867165318
-0.003768783866299913,0.02214083867165318
-0.003768613866299913,0.02273328271123521
-0.003768443866299913,0.02276619626898976
-0.003768273866299913,0.02279910982674432
-0.003768103866299913,0.02362194877060825
-0.003767933866299913,0.02358903521285369
-0.003767763866299913,0.02372068944387198
-0.003767593866299913,0.02375360300162648
-0.003767423866299913,0.02546510800486345
-0.003767253866299913,0.02441187415671863
-0.003767083866299913,0.02497140463854509
-0.003766913866299913,0.02474100973426319
-0.003766743866299913,0.02451061482998063
-0.003766573866299913,0.02414856569468116
-0.003766403866299913,0.02421439281019028
-0.003766233866299913,0.02391817079039825
-0.003766063866299913,0.02335864030857179
-0.003765893866299913,0.02253580136470787
-0.003765723866299913,0.02246997424919683
-0.003765553866299913,0.02141674040105292
-0.003765383866299913,0.02039642011066165
-0.003765213866299913,0.02033059299515146
-0.003765043866299913,0.01973814895557051
-0.003764873866299913,0.0194419269357795
-0.003764703866299913,0.01852034731865154
-0.003764533866299913,0.01832286597212456
-0.003764363866299913,0.01726963212397873
-0.003764193866299913,0.01690758298867794
-0.003764023866299913,0.01654553385337847
-0.003763853866299913,0.01638096606460569
-0.003763683866299913,0.01667718808439778
-0.003763513866299913,0.01726963212397873
-0.003763343866299913,0.01720380500846961
-0.003763173866299913,0.0173683727972421
-0.003763003866299913,0.0180595575100881
-0.003762833866299913,0.01865200154967013
-0.003762663866299913,0.01921153203149658
-0.003762493866299913,0.02033059299515254
-0.003762323866299913,0.02065972857269811
-0.003762153866299913,0.02108760482350657
-0.003761983866299913,0.02092303703473456
-0.003761813866299913,0.02085720991922545
-0.003761643866299913,0.02010019809087201
-0.003761473866299913,0.02010019809087064
-0.003761303866299913,0.01914570491598848
-0.003761133866299913,0.01907987780047949
-0.003760963866299913,0.0180595575100881
-0.003760793866299913,0.01720380500846961
-0.003760623866299913,0.01664427452664316
-0.003760453866299913,0.01638096606460569
-0.003760283866299913,0.01486694240789606
-0.003760113866299913,0.01483402885014156
-0.003759943866299913,0.01434032548382314
-0.003759773866299913,0.01328709163567732
-0.003759603866299913,0.01381370855974927
-0.003759433866299913,0.01384662211750479
-0.003759263866299913,0.0134516594244501
-0.003759093866299913,0.01387953567525857
-0.003758923866299913,0.01401118990627757
-0.003758753866299913,0.01424158481055947
-0.003758583866299913,0.01410993057954124
-0.003758413866299913,0.01457072038810504
-0.003758243866299913,0.0141428441372958
-0.003758073866299913,0.01601891692930556
-0.003757903866299913,0.01562395423625087
-0.003757733866299913,0.01595308981379644
-0.003757563866299913,0.0162163982758329
-0.003757393866299913,0.01657844741113351
-0.003757223866299913,0.01684175587316948
-0.003757053866299913,0.01684175587316948
-0.003756883866299913,0.01585434914053235
-0.003756713866299913,0.01562395423625087
-0.003756543866299913,0.01496568308115973
-0.003756373866299913,0.01440615259932962
-0.003756203866299913,0.01295795605813175
-0.003756033866299913,0.01295795605813175
-0.003755863866299913,0.01266173403834031
-0.003755693866299913,0.01243133913405883
-0.003755523866299913,0.01243133913405883
-0.003755353866299913,0.01213511711426776
-0.003755183866299913,0.01210220355651326
-0.003755013866299913,0.01216803067202238
-0.003754843866299913,0.01236551201854984
-0.003754673866299913,0.01243133913405883
-0.003754503866299913,0.01272756115384985
-0.003754333866299913,0.01289212894262341
-0.003754163866299913,0.01332000519343187
-0.003753993866299913,0.0139124492330139
-0.003753823866299913,0.01453780683034977
-0.003753653866299913,0.0141428441372958
-0.003753483866299913,0.0143732390415777
-0.003753313866299913,0.01430741192606877
-0.003753143866299913,0.01440615259933226
-0.003752973866299913,0.01427449836831403
-0.003752803866299913,0.01443906615708652
-0.003752633866299913,0.01404410346403213
-0.003752463866299913,0.01358331365546833
-0.003752293866299913,0.01312252384690537
-0.003752123866299913,0.0127604747116044
-0.003751953866299913,0.01233259846079516
-0.003751783866299913,0.01193763576774119
-0.003751613866299913,0.01124645105489478
-0.003751443866299913,0.01075274768857642
-0.003751273866299913,0.01009447653348648
-0.003751103866299913,0.009600773167166921
-0.003750933866299913,0.009205810474112236
-0.003750763866299913,0.008876674896567262
-0.003750593866299913,0.008745020665548437
-0.003750423866299913,0.008843761338812107
-0.003750253866299913,0.00930455114737507
-0.003750083866299913,0.009666600282676035
-0.003749913866299913,0.01029195788001262
-0.003749743866299913,0.0104894392265396
-0.003749573866299913,0.01167432730570402
-0.003749403866299913,0.01279338826935896
-0.003749233866299913,0.01328709163567642
-0.003749063866299913,0.01407701702178669
-0.003748893866299913,0.01486694240789606
-0.003748723866299913,0.01509733731217754
-0.003748553866299913,0.01536064577421441
-0.003748383866299913,0.01595308981379644
-0.003748213866299913,0.01562395423625087
-0.003748043866299913,0.01542647288972353
-0.003747873866299913,0.01476820173463239
-0.003747703866299913,0.01453780683035049
-0.003747533866299913,0.01450489327259593
-0.003747363866299913,0.01427449836831403
-0.003747193866299913,0.0139124492330139
-0.003747023866299913,0.01417575769505036
-0.003746853866299913,0.01361622721322289
-0.003746683866299913,0.01332000519343187
-0.003746513866299913,0.01315543740465957
-0.003746343866299913,0.01341874586669555
-0.003746173866299913,0.01351748653995922
-0.003746003866299913,0.01308961028915009
-0.003745833866299913,0.01315543740465909
-0.003745663866299913,0.0129908696158863
-0.003745493866299913,0.01305669673139488
-0.003745323866299913,0.0127604747116044
-0.003745153866299913,0.01243133913405883
-0.003744983866299913,0.01266173403834133
-0.003744813866299913,0.0129908696158863
-0.003744643866299913,0.01279338826935896
-0.003744473866299913,0.01305669673139512
-0.003744303866299913,0.01289212894262263
-0.003744133866299913,0.01282630182711352
-0.003743963866299913,0.01239842557630404
-0.003743793866299913,0.01226677134528605
-0.003743623866299913,0.01170724086345858
-0.003743453866299913,0.01157558663244089
-0.003743283866299913,0.01187180865223136
-0.003743113866299913,0.01108188326612199
-0.003742943866299913,0.0107198341308224
-0.003742773866299913,0.01101605615061288
-0.003742603866299913,0.00983116807144882
-0.003742433866299913,0.009370378262884782
-0.003742263866299913,0.009238724031866792
-0.003742093866299913,0.009370378262885021
-0.003741923866299913,0.009041242685340048
-0.003741753866299913,0.009403291820639578
-0.003741583866299913,0.009929908744712493
-0.003741413866299913,0.01009447653348498
-0.003741243866299913,0.009995735860221606
-0.003741073866299913,0.01029195788001262
-0.003740903866299913,0.0105223527842941
-0.003740733866299913,0.01187180865223136
-0.003740563866299913,0.0118388950944768
-0.003740393866299913,0.01236551201854876
-0.003740223866299913,0.01259590692283162
-0.003740053866299913,0.01269464759609529
-0.003739883866299913,0.01266173403834079
-0.003739713866299913,0.01279338826935896
-0.003739543866299913,0.01243133913405883
-0.003739373866299913,0.0127604747116038
-0.003739203866299913,0.01341874586669555
-0.003739033866299913,0.01308961028914997
-0.003738863866299913,0.01374788144423992
-0.003738693866299913,0.0139124492330139
-0.003738523866299913,0.01427449836831403
-0.003738353866299913,0.01486694240789498
-0.003738183866299913,0.0152948186587053
-0.003738013866299913,0.01615057116032378
-0.003737843866299913,0.01664427452664124
-0.003737673866299913,0.0171379778929605
-0.003737503866299913,0.01769750837478797
-0.003737333866299913,0.0171379778929605
-0.003737163866299913,0.0173683727972424
-0.003736993866299913,0.01684175587316948
-0.003736823866299913,0.0173683727972424
-0.003736653866299913,0.01723671856622417
-0.003736483866299913,0.01723671856622417
-0.003736313866299913,0.01707215077745139
-0.003736143866299913,0.01621639827583212
-0.003735973866299913,0.01578852202502366
-0.003735803866299913,0.01522899154319619
-0.003735633866299913,0.01496568308115841
-0.003735463866299913,0.01424158481055947
-0.003735293866299913,0.01374788144424112
-0.003735123866299913,0.01292504250037569
-0.003734953866299913,0.01210220355651326
-0.003734783866299913,0.011378105285913
-0.003734613866299913,0.01058817989980118
-0.003734443866299913,0.009238724031866792
-0.003734273866299913,0.008382971530248308
-0.003734103866299913,0.00795509527943775
-0.003733933866299913,0.007230997008838809
-0.003733763866299913,0.007329737682102481
-0.003733593866299913,0.007461391913120769
-0.003733423866299913,0.007494305470875266
-0.003733253866299913,0.007461391913120709
-0.003733083866299913,0.0077576139329128
-0.003732913866299913,0.008350057972493751
-0.003732743866299913,0.009008329127584893
-0.003732573866299913,0.009633686724921119
-0.003732403866299913,0.009436205378394135
-0.003732233866299913,0.01022613076450351
-0.003732063866299913,0.009864081629204276
-0.003731893866299913,0.01035778499552173
-0.003731723866299913,0.01055526634204908
-0.003731553866299913,0.01058817989980357
-0.003731383866299913,0.01111479682387655
-0.003731213866299913,0.01111479682387655
-0.003731043866299913,0.0116414137479485
-0.003730873866299913,0.01127936461264933
-0.003730703866299913,0.01150975951693123
-0.003730533866299913,0.01157558663244023
-0.003730363866299913,0.01170724086345858
-0.003730193866299913,0.01200346288324959
-0.003730023866299913,0.01272756115384853
-0.003729853866299913,0.01285921538486808
-0.003729683866299913,0.0134516594244501
-0.003729513866299913,0.01410993057954005
-0.003729343866299913,0.01397827634852302
-0.003729173866299913,0.01466946106136872
-0.003729003866299913,0.01503151019666818
-0.003728833866299913,0.01572269490951454
-0.003728663866299913,0.0164467931801148
-0.003728493866299913,0.01687466943092326
-0.003728323866299913,0.01684175587316948
-0.003728153866299913,0.01615057116032378
-0.003727983866299913,0.01687466943092272
-0.003727813866299913,0.01631513894909657
-0.003727643866299913,0.0162163982758329
-0.003727473866299913,0.01519607798544349
-0.003727303866299913,0.01424158481055947
-0.003727133866299913,0.01355040009771377
-0.003726963866299913,0.01312252384690453
-0.003726793866299913,0.0120692899987587
-0.003726623866299913,0.01127936461264933
-0.003726453866299913,0.01088440191959465
-0.003726283866299913,0.009929908744712493
-0.003726113866299913,0.009600773167166921
-0.003725943866299913,0.009633686724921478
-0.003725773866299913,0.009403291820639578
-0.003725603866299913,0.009600773167166921
-0.003725433866299913,0.00983116807144882
-0.003725263866299913,0.01101605615061204
-0.003725093866299913,0.01055526634204908
-0.003724923866299913,0.01150975951693123
-0.003724753866299913,0.0112135374971407
-0.003724583866299913,0.01147684595917668
-0.003724413866299913,0.01243133913405883
-0.003724243866299913,0.01272756115385015
-0.003724073866299913,0.01289212894262263
-0.003723903866299913,0.01325417807792276
-0.003723733866299913,0.01361622721322319
-0.003723563866299913,0.01378079500199567
-0.003723393866299913,0.01407701702178669
-0.003723223866299913,0.01473528817687651
-0.003723053866299913,0.01401118990627757
-0.003722883866299913,0.01358331365546833
-0.003722713866299913,0.01335291875118565
-0.003722543866299913,0.01292504250037719
-0.003722373866299913,0.01236551201854972
-0.003722203866299913,0.01220094422977609
-0.003722033866299913,0.01174015442121313
-0.003721863866299913,0.01108188326612199
-0.003721693866299913,0.01088440191959381
-0.003721523866299913,0.01042361211103085
-0.003721353866299913,0.009962822302467049
-0.003721183866299913,0.009370378262885082
-0.003721013866299913,0.009403291820639578
-0.003720843866299913,0.009271637589621349
-0.003720673866299913,0.008942502012076378
-0.003720503866299913,0.01065400701531275
-0.003720333866299913,0.008152576625966409
-0.003720163866299913,0.008942502012074343
-0.003719993866299913,0.009139983358603122
-0.003719823866299913,0.008975415569830336
-0.003719653866299913,0.008514625761267375
-0.003719483866299913,0.008481712203511979
-0.003719313866299913,0.007856354606175394
-0.003719143866299913,0.007823441048420898
