Analysis/New Tests_CMB/wrd01_d2s01_new/cmb06_ch33.csv

#Digilent WaveForms Oscilloscope Acquisition
#Device Name: ADP3450
#Serial Number: SN:210018B9D9B0
#Date Time: 2024-08-14 15:49:53.003.254.720
#Sample rate: 5.88235e+06Hz
#Samples: 32768
#Trigger: Source: Channel 3 Type: Edge Condition: Rising Level: 60 mV Hyst.: Auto HoldOff: 0 s
#Channel 3: Range: 100 mV/div Offset: 0 V Attenuation: 1 X Coupling: DC Bandwidth: 0 Hz Sample Mode: Average

Time (s),Channel 3 (V)
-0.003798457189090362,0.209945599219156
-0.003798287189090361,0.2225514918391934
-0.003798117189090362,0.2341041506110381
-0.003797947189090362,0.2443073535149284
-0.003797777189090362,0.2524370022803014
-0.003797607189090362,0.2591184545044644
-0.003797437189090362,0.2640884017254025
-0.003797267189090361,0.2676430659629015
-0.003797097189090362,0.2695520523126625
-0.003796927189090362,0.2705394590452955
-0.003796757189090362,0.2704736319297847
-0.003796587189090362,0.2694533116393953
-0.003796417189090362,0.2676430659628946
-0.003796247189090361,0.2651087220157843
-0.003796077189090362,0.2625085509531722
-0.003795907189090362,0.2593488494087408
-0.003795737189090362,0.2563537156530745
-0.003795567189090362,0.2524370022802893
-0.003795397189090362,0.2494418685246245
-0.003795227189090361,0.244142785726132
-0.003795057189090362,0.2417071824522883
-0.003794887189090362,0.2374942470597138
-0.003794717189090362,0.233906669264467
-0.003794547189090362,0.2302532643537178
-0.003794377189090362,0.2261390696343981
-0.003794207189090362,0.2226831460701759
-0.003794037189090362,0.2191613953904174
-0.003793867189090362,0.2151459413443697
-0.003793697189090362,0.2116241906646325
-0.003793527189090362,0.2083657484469373
-0.003793357189090362,0.2045477757474086
-0.003793187189090362,0.2011905928564499
-0.003793017189090362,0.1980638048697484
-0.003792847189090362,0.1946407948632805
-0.003792677189090362,0.191053217068034
-0.003792507189090362,0.1876302070615663
-0.003792337189090362,0.1845363326326379
-0.003792167189090362,0.1811462361839247
-0.003791997189090362,0.1781511024282432
-0.003791827189090362,0.1752217957880915
-0.003791657189090362,0.1715025637618271
-0.003791487189090362,0.1680795537553594
-0.003791317189090362,0.1651502471152038
-0.003791147189090362,0.1617272371087361
-0.003790977189090361,0.1587650169108103
-0.003790807189090362,0.1561648458482042
-0.003790637189090362,0.153136798534786
-0.003790467189090362,0.1506682817031987
-0.003790297189090362,0.1476402343897794
-0.003790127189090362,0.1451717175581876
-0.003789957189090361,0.1422753244757782
-0.003789787189090362,0.1399713754329628
-0.003789617189090362,0.1373382908126004
-0.003789447189090362,0.1358900942714025
-0.003789277189090362,0.13384945369062
-0.003789107189090362,0.1317100724365738
-0.003788937189090361,0.1293732098359929
-0.003788767189090362,0.1273654828129682
-0.003788597189090362,0.1251602744434135
-0.003788427189090362,0.123284201651403
-0.003788257189090362,0.1210131661663427
-0.003788087189090362,0.1193016611631058
-0.003787917189090361,0.1171951934668078
-0.003787747189090362,0.1154507749058188
-0.003787577189090362,0.1133772207672822
-0.003787407189090362,0.1115669750907816
-0.003787237189090362,0.1097896429720387
-0.003787067189090362,0.1077819159490108
-0.003786897189090361,0.1065970278698407
-0.003786727189090362,0.1049513499821142
-0.003786557189090362,0.1036677212296893
-0.003786387189090362,0.1026474009392973
-0.003786217189090362,0.1012321179558539
-0.003786047189090362,0.1000801434344444
-0.003785877189090361,0.09678878765899528
-0.003785707189090362,0.09859903333548418
-0.003785537189090362,0.09718375035204141
-0.003785367189090362,0.09609760294613964
-0.003785197189090362,0.09425444371188779
-0.003785027189090362,0.09274042005517819
-0.003784857189090361,0.0906997794743893
-0.003784687189090362,0.08895536091339705
-0.003784517189090362,0.08701346100588106
-0.003784347189090362,0.08470951196306307
-0.003784177189090362,0.08296509340207472
-0.003784007189090362,0.08128650195659229
-0.003783837189090362,0.07901546647153199
-0.003783667189090362,0.07743561569930206
-0.003783497189090362,0.07549371579178768
-0.003783327189090362,0.07407843280834263
-0.003783157189090362,0.0731568531912167
-0.003782987189090362,0.07180739732327984
-0.003782817189090362,0.07101747193717192
-0.003782647189090362,0.07065542280187011
-0.003782477189090362,0.0705895956863597
-0.003782307189090362,0.06973384318474175
-0.003782137189090362,0.0691743127029153
-0.003781967189090362,0.06897683135638794
-0.003781797189090362,0.06818690597028002
-0.003781627189090362,0.06782485683497688
-0.003781457189090362,0.06739698058416776
-0.003781287189090362,0.06660705519805844
-0.003781117189090362,0.06585004336970501
-0.003780947189090362,0.06459932817503183
-0.003780777189090362,0.06344735365362443
-0.003780607189090361,0.06216372490119175
-0.003780437189090362,0.06137379951508274
-0.003780267189090362,0.05999143008939205
-0.003780097189090362,0.05900402335675714
-0.003779927189090362,0.05735834546902929
-0.003779757189090362,0.05620637094761979
-0.003779587189090361,0.05472526084865992
-0.003779417189090362,0.05340871853848046
-0.003779247189090362,0.05232257113257965
-0.003779077189090362,0.05100602882239976
-0.003778907189090362,0.04978822718548115
-0.003778737189090362,0.04909704247263545
-0.003778567189090361,0.04886664756835116
-0.003778397189090362,0.04820837641326193
-0.003778227189090362,0.04794506795122511
-0.003778057189090362,0.04748427814266137
-0.003777887189090362,0.04705640189185291
-0.003777717189090362,0.04646395785227088
-0.003777547189090361,0.0454436375618771
-0.003777377189090362,0.04475245284903254
-0.003777207189090362,0.0439954410206779
-0.003777037189090362,0.04333716986558658
-0.003776867189090362,0.04258015803723314
-0.003776697189090362,0.0416914919778601
-0.003776527189090361,0.04113196149602197
-0.003776357189090362,0.03820265485588064
-0.003776187189090362,0.03919006158851287
-0.003776017189090362,0.03869635822219403
-0.003775847189090362,0.03793934639384059
-0.003775677189090362,0.03774186504731325
-0.003775507189090361,0.0373798159120136
-0.003775337189090362,0.03751147014303087
-0.003775167189090362,0.03737981591201342
-0.003774997189090362,0.03754438370078531
-0.003774827189090362,0.03721524812324033
-0.003774657189090362,0.0360961871595854
-0.003774487189090361,0.03662280408365675
-0.003774317189090362,0.03619492783284906
-0.003774147189090362,0.03619492783284942
-0.003773977189090362,0.0363924091793761
-0.003773807189090362,0.03622784139060362
-0.003773637189090362,0.03550374312000337
-0.003773467189090362,0.0350429533114404
-0.003773297189090362,0.03441759571410047
-0.003773127189090362,0.0337264110012571
-0.003772957189090362,0.03362767032799265
-0.003772787189090362,0.03310105340392069
-0.003772617189090362,0.03267317715311145
-0.003772447189090362,0.03270609071086595
-0.003772277189090362,0.03250860936433878
-0.003772107189090362,0.03254152292209293
-0.003771937189090362,0.03237695513332103
-0.003771767189090362,0.03270609071086601
-0.003771597189090362,0.03277191782637513
-0.003771427189090362,0.03250860936433914
-0.003771257189090362,0.03171868397822618
-0.003771087189090362,0.03086293147660962
-0.003770917189090362,0.03020466032151757
-0.003770747189090362,0.02905268580011017
-0.003770577189090362,0.02753866214340054
-0.003770407189090362,0.02595881137118468
-0.003770237189090361,0.02513597242731368
-0.003770067189090362,0.02398399790590688
-0.003769897189090362,0.02316115896204343
-0.003769727189090362,0.02260162848021698
-0.003769557189090362,0.02237123357593508
-0.003769387189090362,0.02181170309410761
-0.003769217189090361,0.02151548107431659
-0.003769047189090362,0.02151548107431623
-0.003768877189090362,0.02131799972778877
-0.003768707189090362,0.0210546912657528
-0.003768537189090362,0.02154839463207115
-0.003768367189090362,0.02184461665186217
-0.003768197189090361,0.02184461665186073
-0.003768027189090362,0.02144965395880754
-0.003767857189090362,0.02148256751656162
-0.003767687189090362,0.0212521726122802
-0.003767517189090362,0.02128508617003469
-0.003767347189090362,0.02102177770799824
-0.003767177189090361,0.02079138280371957
-0.003767007189090362,0.02168004886308567
-0.003766837189090362,0.01963940828230708
-0.003766667189090362,0.01977106251332836
-0.003766497189090362,0.02158130818982571
-0.003766327189090362,0.01931027270476127
-0.003766157189090361,0.01815829818335536
-0.003765987189090362,0.01914570491598681
-0.003765817189090362,0.01868491510742462
-0.003765647189090362,0.01865200154967019
-0.003765477189090362,0.01868491510742468
-0.003765307189090362,0.01809247106784265
-0.003765137189090361,0.01805955751008654
-0.003764967189090362,0.01763168125927957
-0.003764797189090362,0.01782916260580596
-0.003764627189090362,0.01769750837478881
-0.003764457189090362,0.01815829818335177
-0.003764287189090362,0.01763168125927886
-0.003764117189090361,0.01805955751008618
-0.003763947189090362,0.01753294058601339
-0.003763777189090362,0.01703923721969653
-0.003763607189090362,0.01687466943092446
-0.003763437189090362,0.01710506433520594
-0.003763267189090362,0.01710506433520594
-0.003763097189090362,0.01717089145071493
-0.003762927189090362,0.01707215077745342
-0.003762757189090362,0.01763168125927808
-0.003762587189090362,0.01720380500846806
-0.003762417189090362,0.01634805250685113
-0.003762247189090362,0.01697341010418771
-0.003762077189090362,0.01644679318011576
-0.003761907189090362,0.01634805250684981
-0.003761737189090362,0.01598600337155136
-0.003761567189090362,0.01618348471807762
-0.003761397189090362,0.01578852202502366
-0.003761227189090362,0.01615057116032378
-0.003761057189090362,0.01618348471807828
-0.003760887189090362,0.01671010164215102
-0.003760717189090362,0.01664427452664286
-0.003760547189090362,0.01703923721969689
-0.003760377189090362,0.01707215077745139
-0.003760207189090362,0.01717089145071506
-0.003760037189090362,0.01753294058601453
-0.003759867189090361,0.017368372797243
-0.003759697189090362,0.01753294058601423
-0.003759527189090362,0.01700632366194143
-0.003759357189090362,0.01654553385337847
-0.003759187189090362,0.01605183048706011
-0.003759017189090362,0.01555812712074266
-0.003758847189090361,0.01489985596564882
-0.003758677189090362,0.01440615259933172
-0.003758507189090362,0.0141099305795419
-0.003758337189090362,0.01447197971484137
-0.003758167189090362,0.01473528817687783
-0.003757997189090362,0.01536064577421441
-0.003757827189090361,0.01565686779400459
-0.003757657189090362,0.01542647288972886
-0.003757487189090362,0.01835577952987498
-0.003757317189090362,0.01608474404481467
-0.003757147189090362,0.01608474404481467
-0.003756977189090362,0.0162163982758329
-0.003756807189090361,0.01578852202502234
-0.003756637189090362,0.01542647288972419
-0.003756467189090362,0.01578852202502306
-0.003756297189090362,0.0154593864474791
-0.003756127189090362,0.01601891692930556
-0.003755957189090362,0.01489985596565062
-0.003755787189090361,0.01572269490951311
-0.003755617189090362,0.01532773221645962
-0.003755447189090362,0.01526190510095074
-0.003755277189090362,0.01526190510095122
-0.003755107189090362,0.0155252135629872
-0.003754937189090362,0.01545938644747809
-0.003754767189090361,0.01513025086993228
-0.003754597189090362,0.01506442375442292
-0.003754427189090362,0.01493276952340415
-0.003754257189090362,0.01437323904157806
-0.003754087189090362,0.01457072038810504
-0.003753917189090362,0.01325417807792276
-0.003753747189090361,0.01292504250037515
-0.003753577189090362,0.01236551201854864
-0.003753407189090362,0.01206928999875745
-0.003753237189090362,0.01137810528591205
-0.003753067189090362,0.01085148836184009
-0.003752897189090362,0.01062109345755819
-0.003752727189090362,0.0105552663420492
-0.003752557189090362,0.01048943922653948
-0.003752387189090362,0.01035778499552233
-0.003752217189090362,0.01068692057306749
-0.003752047189090362,0.01078566124633098
-0.003751877189090362,0.01081857480408553
-0.003751707189090362,0.01078566124633104
-0.003751537189090362,0.01068692057306695
-0.003751367189090362,0.01058817989980316
-0.003751197189090362,0.010324871437767
-0.003751027189090362,0.01022613076450351
-0.003750857189090362,0.01029195788001262
-0.003750687189090362,0.01042361211103061
-0.003750517189090362,0.01002864941797592
-0.003750347189090362,0.00996282230246711
-0.003750177189090362,0.009995735860222146
-0.003750007189090362,0.01029195788001262
-0.003749837189090362,0.01052235278429452
-0.003749667189090362,0.01025904432225854
-0.003749497189090361,0.01088440191959477
-0.003749327189090362,0.01091731547735004
-0.003749157189090362,0.0113781052859133
-0.003748987189090362,0.01154267307468579
-0.003748817189090362,0.01193763576774048
-0.003748647189090362,0.01236551201854894
-0.003748477189090361,0.01256299336507694
-0.003748307189090362,0.01253007980732179
-0.003748137189090362,0.0121351171142659
-0.003747967189090362,0.01108188326612199
-0.003747797189090362,0.01289212894262263
-0.003747627189090362,0.01216803067202238
-0.003747457189090361,0.01150975951693399
-0.003747287189090362,0.01226677134528533
-0.003747117189090362,0.01187180865223178
-0.003746947189090362,0.01210220355651326
-0.003746777189090362,0.01200346288324959
-0.003746607189090362,0.01187180865223136
-0.003746437189090361,0.01157558663244083
-0.003746267189090362,0.0117072408634584
-0.003746097189090362,0.01160850019019502
-0.003745927189090362,0.01167432730570348
-0.003745757189090362,0.011378105285913
-0.003745587189090362,0.01088440191959465
-0.003745417189090361,0.01104896970836528
-0.003745247189090362,0.01045652566878469
-0.003745077189090362,0.01025904432225812
-0.003744907189090362,0.01029195788001232
-0.003744737189090362,0.01012739009123984
-0.003744567189090362,0.01091731547734921
-0.003744397189090361,0.0109502290351052
-0.003744227189090362,0.01134519172816036
-0.003744057189090362,0.01187180865223166
-0.003743887189090362,0.01203637644100361
-0.003743717189090362,0.01174015442121313
-0.003743547189090362,0.01180598153672225
-0.003743377189090361,0.01160850019019538
-0.003743207189090362,0.01174015442121421
-0.003743037189090362,0.01203637644100319
-0.003742867189090362,0.01150975951693129
-0.003742697189090362,0.01154267307468579
-0.003742527189090362,0.01144393240142212
-0.003742357189090361,0.01114771038162991
-0.003742187189090362,0.01081857480408601
-0.003742017189090362,0.01095022903510376
-0.003741847189090362,0.01095022903510382
-0.003741677189090362,0.01098314259285832
-0.003741507189090362,0.01134519172815845
-0.003741337189090362,0.01170724086345792
-0.003741167189090362,0.01193763576774287
-0.003740997189090362,0.01259590692283252
-0.003740827189090362,0.01308961028915135
-0.003740657189090362,0.01384662211750479
-0.003740487189090362,0.01457072038810504
-0.003740317189090362,0.015097337312177
-0.003740147189090362,0.01493276952340553
-0.003739977189090362,0.01503151019666789
-0.003739807189090362,0.01450489327259575
-0.003739637189090362,0.01440615259933226
-0.003739467189090362,0.01394536279076846
-0.003739297189090362,0.01371496788648698
-0.003739127189090361,0.01404410346402974
-0.003738957189090362,0.01338583230894153
-0.003738787189090362,0.01368205432873571
-0.003738617189090362,0.01572269490951454
-0.003738447189090362,0.013682054328732
-0.003738277189090362,0.01338583230894153
-0.003738107189090361,0.01285921538486688
-0.003737937189090362,0.01253007980732382
-0.003737767189090362,0.01325417807792324
-0.003737597189090362,0.01351748653995922
-0.003737427189090362,0.01305669673139542
-0.003737257189090362,0.01243133913405883
-0.003737087189090361,0.012793388269358
-0.003736917189090362,0.01253007980732358
-0.003736747189090362,0.01312252384690375
-0.003736577189090362,0.01269464759609529
-0.003736407189090362,0.01226677134528605
-0.003736237189090362,0.01226677134528605
-0.003736067189090361,0.01157558663244142
-0.003735897189090362,0.01187180865223106
-0.003735727189090362,0.01170724086345786
-0.003735557189090362,0.01131227817040323
-0.003735387189090362,0.01095022903510376
-0.003735217189090362,0.01065400701531275
-0.003735047189090361,0.01022613076450398
-0.003734877189090362,0.01035778499552167
-0.003734707189090362,0.0103248714377676
-0.003734537189090362,0.01055526634205033
-0.003734367189090362,0.01124645105489478
-0.003734197189090362,0.011378105285913
-0.003734027189090361,0.01226677134528641
-0.003733857189090362,0.01236551201855068
-0.003733687189090362,0.01262882048058725
-0.003733517189090362,0.01322126452016838
-0.003733347189090362,0.01332000519343187
-0.003733177189090362,0.01332000519343187
-0.003733007189090361,0.01371496788648452
-0.003732837189090362,0.01315543740465789
-0.003732667189090362,0.012826301827114
-0.003732497189090362,0.01308961028914926
-0.003732327189090362,0.01269464759609529
-0.003732157189090362,0.01233259846079516
-0.003731987189090361,0.01213511711426758
-0.003731817189090362,0.01206928999875715
-0.003731647189090362,0.01164141374794976
-0.003731477189090362,0.01180598153672219
-0.003731307189090362,0.01177306797896769
-0.003731137189090362,0.01197054932549503
-0.003730967189090362,0.01170724086345905
-0.003730797189090362,0.01180598153672213
-0.003730627189090362,0.01177306797896709
-0.003730457189090362,0.01144393240142242
-0.003730287189090362,0.0116085001901949
-0.003730117189090362,0.01124645105489478
-0.003729947189090362,0.01144393240142176
-0.003729777189090362,0.01118062393938423
-0.003729607189090362,0.01078566124633169
-0.003729437189090362,0.01118062393938632
-0.003729267189090362,0.01154267307468579
-0.003729097189090362,0.01025904432225806
-0.003728927189090362,0.01085148836183901
-0.003728757189090362,0.01022613076450398
-0.003728587189090362,0.01035778499552245
-0.003728417189090362,0.01075274768857648
-0.003728247189090362,0.01078566124633098
-0.003728077189090362,0.01121353749714022
-0.003727907189090362,0.01131227817040371
-0.003727737189090361,0.01206928999875978
-0.003727567189090362,0.0123655120185493
-0.003727397189090362,0.01213511711426961
-0.003727227189090362,0.01312252384690453
-0.003727057189090362,0.01282630182711352
-0.003726887189090362,0.0127604747116044
-0.003726717189090361,0.01269464759609325
-0.003726547189090362,0.01213511711426818
-0.003726377189090362,0.01233259846079594
-0.003726207189090362,0.0127604747116044
-0.003726037189090362,0.0118388950944768
-0.003725867189090362,0.01167432730570402
-0.003725697189090361,0.01141101884366864
-0.003725527189090362,0.01170724086345798
-0.003725357189090362,0.01137810528591294
-0.003725187189090362,0.01134519172815779
-0.003725017189090362,0.01098314259285832
-0.003724847189090362,0.01068692057306731
-0.003724677189090361,0.01052235278429452
-0.003724507189090362,0.01052235278429338
-0.003724337189090362,0.009896995186957936
-0.003724167189090362,0.009896995186958116
-0.003723997189090362,0.009995735860221606
-0.003723827189090362,0.009765340955939707
-0.003723657189090361,0.009139983358601087
-0.003723487189090362,0.008580452876772537
-0.003723317189090362,0.007724700375157286
-0.003723147189090362,0.007790527490667477
-0.003722977189090362,0.008448798645757422
-0.003722807189090362,0.006868947873538681
-0.003722637189090361,0.008119663068213885
-0.003722467189090362,0.008679193550040997
-0.003722297189090362,0.009139983358603242
-0.003722127189090362,0.009205810474114211
-0.003721957189090362,0.01029195788001262
-0.003721787189090362,0.01085148836184009
-0.003721617189090361,0.01137810528591468
-0.003721447189090362,0.01183889509447812
-0.003721277189090362,0.01220094422977837
-0.003721107189090362,0.01299086961588642
-0.003720937189090362,0.01305669673139542
-0.003720767189090362,0.01312252384690453
-0.003720597189090362,0.01387953567525797
-0.003720427189090362,0.0136491407709784
-0.003720257189090362,0.01391244923301438
-0.003720087189090362,0.01417575769504994
-0.003719917189090362,0.01394536279076846
-0.003719747189090362,0.01233259846079516
-0.003719577189090362,0.01345165942444807
-0.003719407189090362,0.01414284413729652
-0.003719237189090362,0.01434032548382284
-0.003719067189090362,0.01417575769505024
-0.003718897189090362,0.01410993057954124
