Analysis/New Tests_CMB/wrd01_d2s01_new/cmb07_ch03.csv

#Digilent WaveForms Oscilloscope Acquisition
#Device Name: ADP3450
#Serial Number: SN:210018B9D9B0
#Date Time: 2024-08-15 12:19:19.226.705.940
#Sample rate: 5.88235e+06Hz
#Samples: 32768
#Trigger: Source: Channel 3 Type: Edge Condition: Rising Level: 40 mV Hyst.: Auto HoldOff: 0 s
#Channel 3: Range: 100 mV/div Offset: 0 V Attenuation: 1 X Coupling: DC Bandwidth: 0 Hz Sample Mode: Average

Time (s),Channel 3 (V)
-0.003168850669840191,0.02767031637441877
-0.00316868066984019,0.02688039098830887
-0.003168510669840191,0.02658416896851839
-0.003168340669840191,0.02523471310058155
-0.00316817066984019,0.02513597242731686
-0.003168000669840191,0.02457644194549041
-0.003167830669840191,0.02451061482998129
-0.00316766066984019,0.0248397504075277
-0.00316749066984019,0.02530054021609066
-0.003167320669840191,0.02582715714016358
-0.00316715066984019,0.02599172492893642
-0.00316698066984019,0.02602463848669092
-0.003166810669840191,0.02609046560220003
-0.00316664066984019,0.02579424358241105
-0.00316647066984019,0.02691330454606396
-0.003166300669840191,0.02655125541076383
-0.00316613066984019,0.02678165031504555
-0.00316596066984019,0.02668290964178206
-0.003165790669840191,0.02671582319953662
-0.00316562066984019,0.02655125541076323
-0.00316545066984019,0.02622211983321826
-0.003165280669840191,0.02648542829525472
-0.003165110669840191,0.02674873675729069
-0.00316494066984019,0.02599172492893636
-0.003164770669840191,0.0257284164668999
-0.003164600669840191,0.02562967579363641
-0.00316443066984019,0.02500431819629965
-0.003164260669840191,0.02533345377384522
-0.003164090669840191,0.02526762665833622
-0.00316392066984019,0.02474100973426319
-0.003163750669840191,0.02431313348345395
-0.003163580669840191,0.02385234367489099
-0.00316341066984019,0.02381943011713559
-0.003163240669840191,0.02368777588611736
-0.003163070669840191,0.02421439281018932
-0.00316290066984019,0.02352320809734458
-0.003162730669840191,0.02316115896204445
-0.003162560669840191,0.02296367761551747
-0.00316239066984019,0.02322698607755356
-0.003162220669840191,0.02342446742408091
-0.003162050669840191,0.02342446742408091
-0.00316188066984019,0.02316115896204445
-0.003161710669840191,0.02289785050000799
-0.003161540669840191,0.02339155386632545
-0.00316137066984019,0.02302950473102622
-0.003161200669840191,0.02339155386632635
-0.003161030669840191,0.0227661962689909
-0.00316086066984019,0.02253580136470787
-0.003160690669840191,0.02210792511389862
-0.003160520669840191,0.0210546912657528
-0.00316035066984019,0.02026476587964342
-0.003160180669840191,0.01973814895557051
-0.003160010669840191,0.01931027270476127
-0.00315984066984019,0.01894822356946114
-0.003159670669840191,0.01845452020314278
-0.003159500669840191,0.01779624904805164
-0.00315933066984019,0.01723671856622375
-0.003159160669840191,0.01700632366194227
-0.003158990669840191,0.01723671856622417
-0.00315882066984019,0.01713797789296128
-0.003158650669840191,0.01756585414376974
-0.003158480669840191,0.01773042193254253
-0.00315831066984019,0.01835577952987911
-0.003158140669840191,0.01835577952987911
-0.003157970669840191,0.01937609982027038
-0.00315780066984019,0.02042933366841555
-0.003157630669840191,0.02006728453311608
-0.003157460669840191,0.02135091328554381
-0.00315729066984019,0.02151548107431719
-0.00315712066984019,0.02184461665186217
-0.003156950669840191,0.02233832001818052
-0.00315678066984019,0.02230540646042698
-0.00315661066984019,0.02286493694225343
-0.003156440669840191,0.02250288780695331
-0.00315627066984019,0.02250288780695313
-0.00315610066984019,0.02240414713368964
-0.003155930669840191,0.02197627088288039
-0.00315576066984019,0.02154839463207139
-0.00315559066984019,0.02168004886308938
-0.003155420669840191,0.02131799972778925
-0.00315525066984019,0.02144965395880814
-0.00315508066984019,0.02181170309410761
-0.003154910669840191,0.02154839463207115
-0.003154740669840191,0.02135091328554417
-0.00315457066984019,0.02141674040105292
-0.003154400669840191,0.02121925905452558
-0.003154230669840191,0.02164713530533404
-0.00315406066984019,0.02210792511389862
-0.003153890669840191,0.02184461665186217
-0.003153720669840191,0.02352320809734152
-0.00315355066984019,0.02246997424919875
-0.003153380669840191,0.02187753020961672
-0.003153210669840191,0.02184461665186222
-0.00315304066984019,0.02128508617003469
-0.003152870669840191,0.02079138280371634
-0.003152700669840191,0.02023185232188988
-0.00315253066984019,0.02000145741760697
-0.003152360669840191,0.01898113712721569
-0.003152190669840191,0.01917861847374268
-0.00315202066984019,0.01855326087640645
-0.003151850669840191,0.01802664395233354
-0.003151680669840191,0.01736837279724359
-0.00315151066984019,0.01763168125927886
-0.003151340669840191,0.01750002702826063
-0.003151170669840191,0.01819121174110507
-0.00315100066984019,0.0175987677015243
-0.003150830669840191,0.01881656933844291
-0.003150660669840191,0.01868491510742492
-0.00315049066984019,0.01842160664538823
-0.003150320669840191,0.01828995241437
-0.003150150669840191,0.01822412529886088
-0.00314998066984019,0.01812538462559721
-0.003149810669840191,0.01822412529886088
-0.003149640669840191,0.0185203473186519
-0.00314947066984019,0.01822412529886088
-0.003149300669840191,0.01842160664538823
-0.003149130669840191,0.01835577952987911
-0.00314896066984019,0.01710506433520594
-0.003148790669840191,0.01710506433520594
-0.003148620669840191,0.0166771880843967
-0.00314845066984019,0.01582143558277821
-0.003148280669840191,0.01582143558277821
-0.003148110669840191,0.01545938644747809
-0.00314794066984019,0.01585434914053223
-0.003147770669840191,0.01555812712074176
-0.003147600669840191,0.01536064577421441
-0.00314743066984019,0.01585434914053247
-0.003147260669840191,0.01568978135175999
-0.003147090669840191,0.015986003371551
-0.00314692066984019,0.01657844741113261
-0.003146750669840191,0.01634805250685113
-0.003146580669840191,0.01631513894909657
-0.00314641066984019,0.01628222539134207
-0.00314624066984019,0.01631513894909657
-0.003146070669840191,0.01608474404481467
-0.00314590066984019,0.01647970673786965
-0.00314573066984019,0.01664427452664214
-0.003145560669840191,0.01694049654643316
-0.00314539066984019,0.01703923721969689
-0.00314522066984019,0.01707215077745139
-0.003145050669840191,0.0175987677015243
-0.00314488066984019,0.01746711347050733
-0.00314471066984019,0.01815829818335177
-0.003144540669840191,0.01792790327906987
-0.00314437066984019,0.01865200154966755
-0.00314420066984019,0.01723671856622417
-0.003144030669840191,0.01750002702826063
-0.003143860669840191,0.01703923721969767
-0.00314369066984019,0.01657844741113303
-0.003143520669840191,0.01657844741113303
-0.003143350669840191,0.01618348471807906
-0.00314318066984019,0.015986003371551
-0.003143010669840191,0.01605183048706011
-0.003142840669840191,0.01575560846726964
-0.00314267066984019,0.0150644237544234
-0.003142500669840191,0.01447197971484137
-0.003142330669840191,0.01486694240789534
-0.00314216066984019,0.01443906615708682
-0.003141990669840191,0.01420867125280492
-0.003141820669840191,0.01489985596564936
-0.00314165066984019,0.01457072038810504
-0.003141480669840191,0.01486694240789606
-0.003141310669840191,0.01522899154319553
-0.00314114066984019,0.01532773221645986
-0.003140970669840191,0.01555812712074176
-0.003140800669840191,0.01608474404481371
-0.00314063066984019,0.01638096606460569
-0.003140460669840191,0.01611765760256923
-0.003140290669840191,0.01667718808439568
-0.00314012066984019,0.01634805250685113
-0.003139950669840191,0.01601891692930556
-0.003139780669840191,0.01592017625604189
-0.00313961066984019,0.01585434914053277
-0.003139440669840191,0.01545938644747809
-0.003139270669840191,0.01536064577421441
-0.00313910066984019,0.01519607798544163
-0.003138930669840191,0.0155252135629872
-0.003138760669840191,0.01578852202502366
-0.00313859066984019,0.01568978135175999
-0.003138420669840191,0.01578852202502366
-0.003138250669840191,0.01578852202502366
-0.00313808066984019,0.01568978135176059
-0.003137910669840191,0.01601891692930556
-0.003137740669840191,0.01605183048706011
-0.00313757066984019,0.01634805250685149
-0.003137400669840191,0.01654553385337847
-0.003137230669840191,0.01680884231541493
-0.00313706066984019,0.0165784474111338
-0.003136890669840191,0.01700632366194227
-0.003136720669840191,0.01717089145071506
-0.00313655066984019,0.01710506433520606
-0.003136380669840191,0.01717089145071506
-0.003136210669840191,0.01730254568173328
-0.00313604066984019,0.0175987677015237
-0.00313587066984019,0.01726963212397873
-0.003135700669840191,0.01733545923948784
-0.00313553066984019,0.01726963212397843
-0.00313536066984019,0.01710506433520594
-0.003135190669840191,0.01726963212397873
-0.00313502066984019,0.01667718808439724
-0.00313485066984019,0.01697341010418771
-0.003134680669840191,0.01624931183358745
-0.00313451066984019,0.01618348471807822
-0.00313434066984019,0.01611765760256923
-0.003134170669840191,0.01618348471807834
-0.00313400066984019,0.01592017625604249
-0.00313383066984019,0.01624931183358745
-0.003133660669840191,0.01592017625604189
-0.003133490669840191,0.01536064577421543
-0.00313332066984019,0.01595308981379644
-0.003133150669840191,0.01513025086993251
-0.003132980669840191,0.01506442375442352
-0.00313281066984019,0.01568978135175999
-0.003132640669840191,0.01549230000523264
-0.003132470669840191,0.01555812712074164
-0.00313230066984019,0.01618348471807834
-0.003132130669840191,0.01687466943092404
-0.003131960669840191,0.0173683727972415
-0.00313179066984019,0.01792790327906987
-0.003131620669840191,0.0185203473186519
-0.003131450669840191,0.01921153203149634
-0.00313128066984019,0.01963940828230684
-0.003131110669840191,0.02003437097536152
-0.003130940669840191,0.01996854385985253
-0.00313077066984019,0.02026476587964342
-0.003130600669840191,0.02006728453311608
-0.003130430669840191,0.0198698031865891
-0.00313026066984019,0.01927735914700671
-0.003130090669840191,0.01901405068497026
-0.003129920669840191,0.01792790327907184
-0.00312975066984019,0.01769750837478797
-0.003129580669840191,0.01730254568173328
-0.003129410669840191,0.01641387962236186
-0.00312924066984019,0.01578852202502366
-0.003129070669840191,0.01450489327259593
-0.003128900669840191,0.0139124492330139
-0.00312873066984019,0.01256299336507706
-0.003128560669840191,0.01374788144424112
-0.003128390669840191,0.01325417807792276
-0.00312822066984019,0.01332000519343187
-0.003128050669840191,0.01315543740465909
-0.003127880669840191,0.01351748653995922
-0.00312771066984019,0.01384662211750658
-0.003127540669840191,0.0148340288501415
-0.003127370669840191,0.01499859663891429
-0.00312720066984019,0.01542647288972425
-0.003127030669840191,0.01582143558277821
-0.003126860669840191,0.01605183048706011
-0.00312669066984019,0.01634805250685113
-0.003126520669840191,0.01634805250685113
-0.003126350669840191,0.01601891692930556
-0.00312618066984019,0.01611765760256905
-0.003126010669840191,0.01601891692930556
-0.003125840669840191,0.01595308981379644
-0.00312567066984019,0.01588726269828613
-0.00312550066984019,0.01522899154319619
-0.003125330669840191,0.01664427452664214
-0.00312516066984019,0.01552521356298355
-0.00312499066984019,0.01351748653995922
-0.003124820669840191,0.01381370855975023
-0.00312465066984019,0.01404410346403249
-0.00312448066984019,0.01424158481055947
-0.003124310669840191,0.01404410346403213
-0.00312414066984019,0.01387953567525994
-0.00312397066984019,0.01420867125280492
-0.003123800669840191,0.01387953567525935
-0.00312363066984019,0.0130237831736411
-0.00312346066984019,0.01315543740465909
-0.003123290669840191,0.01292504250037719
-0.003123120669840191,0.01322126452016766
-0.00312295066984019,0.013682054328732
-0.003122780669840191,0.01384662211750479
-0.003122610669840191,0.01470237461912172
-0.00312244066984019,0.01493276952340517
-0.003122270669840191,0.01526190510095074
-0.003122100669840191,0.01598600337154968
-0.00312193066984019,0.01585434914053277
-0.003121760669840191,0.01687466943092404
-0.003121590669840191,0.01773042193254097
-0.00312142066984019,0.01838869308763367
-0.003121250669840191,0.01907987780047937
-0.003121080669840191,0.01980397607107831
-0.00312091066984019,0.02049516078392532
-0.003120740669840191,0.02075846924596178
-0.003120570669840191,0.02125217261227924
-0.00312040066984019,0.02158130818982571
-0.003120230669840191,0.02207501155614406
-0.003120060669840191,0.02194335732512608
-0.00311989066984019,0.02161422174758026
-0.003119720669840191,0.0217458759785985
-0.003119550669840191,0.0216800488630895
-0.00311938066984019,0.02148256751656204
-0.003119210669840191,0.02082429636147089
-0.003119040669840191,0.02016602520638095
-0.00311887066984019,0.01996854385985241
-0.003118700669840191,0.0194419269357795
-0.003118530669840191,0.01907987780047937
-0.00311836066984019,0.01848743376089734
-0.003118190669840191,0.01835577952987911
-0.003118020669840191,0.01769750837478797
-0.00311785066984019,0.01766459481703341
-0.003117680669840191,0.01720380500846961
-0.003117510669840191,0.0171379778929605
-0.00311734066984019,0.01697341010418771
-0.003117170669840191,0.01766459481703341
-0.003117000669840191,0.01792790327906987
-0.00311683066984019,0.01822412529886094
-0.003116660669840191,0.01825703885661544
-0.003116490669840191,0.01812538462559721
-0.00311632066984019,0.01868491510742343
-0.003116150669840191,0.01799373039457898
-0.003115980669840191,0.01694049654643316
-0.00311581066984019,0.01865200154966767
-0.003115640669840191,0.01730254568173328
-0.003115470669840191,0.0169075829886786
-0.00311530066984019,0.01628222539134165
-0.003115130669840191,0.01608474404481467
-0.003114960669840191,0.01542647288972353
-0.00311479066984019,0.01509733731217664
-0.00311462066984019,0.0143732390415777
-0.003114450669840191,0.01387953567525935
-0.00311428066984019,0.013978276348522
-0.00311411066984019,0.01341874586669555
-0.003113940669840191,0.01351748653995922
-0.00311377066984019,0.01262882048058623
-0.00311360066984019,0.01266173403834073
-0.003113430669840191,0.01295795605813175
-0.00311326066984019,0.01341874586669525
-0.00311309066984019,0.01325417807792276
-0.003112920669840191,0.01404410346403213
-0.00311275066984019,0.01460363394586104
-0.00311258066984019,0.01539355933196897
-0.003112410669840191,0.0164467931801148
-0.003112240669840191,0.01687466943092326
-0.00311207066984019,0.01786207616356076
-0.003111900669840191,0.01855326087640645
-0.003111730669840191,0.0192115320314964
-0.00311156066984019,0.0196723218400614
-0.003111390669840191,0.02003437097536152
-0.003111220669840191,0.02036350655290649
-0.00311105066984019,0.02049516078392532
-0.003110880669840191,0.02056098789943444
-0.003110710669840191,0.02072555568820693
-0.00311054066984019,0.020593901457189
-0.003110370669840191,0.02026476587964342
-0.003110200669840191,0.01986980318658946
-0.00311003066984019,0.01911279135823393
-0.003109860669840191,0.0185203473186519
-0.003109690669840191,0.01819121174110692
-0.00310952066984019,0.01756585414376974
-0.003109350669840191,0.01740128635499695
-0.003109180669840191,0.01703923721969749
-0.00310901066984019,0.01694049654643316
-0.003108840669840191,0.01680884231541493
-0.003108670669840191,0.01657844741113345
-0.00310850066984019,0.01740128635499695
-0.003108330669840191,0.01723671856622417
-0.003108160669840191,0.01746711347050565
-0.00310799066984019,0.0178291626058062
-0.003107820669840191,0.01796081683682443
-0.003107650669840191,0.01792790327906987
-0.00310748066984019,0.0178291626058062
-0.003107310669840191,0.0173683727972424
-0.003107140669840191,0.0178291626058062
-0.00310697066984019,0.01799373039457898
-0.003106800669840191,0.01773042193254253
-0.003106630669840191,0.0175987677015243
-0.00310646066984019,0.01736837279724144
-0.003106290669840191,0.01684175587316948
-0.003106120669840191,0.01700632366194227
-0.00310595066984019,0.01680884231541487
-0.003105780669840191,0.01677592875766037
-0.003105610669840191,0.01601891692930556
-0.00310544066984019,0.01641387962235868
-0.003105270669840191,0.01555812712074176
-0.003105100669840191,0.01516316442768707
-0.00310493066984019,0.01476820173463185
-0.003104760669840191,0.01447197971484137
-0.003104590669840191,0.01351748653995922
-0.00310442066984019,0.01332000519343092
-0.00310425066984019,0.01279338826935896
-0.003104080669840191,0.01256299336507706
-0.00310391066984019,0.01223385778753167
-0.00310374066984019,0.01233259846079516
-0.003103570669840191,0.01210220355651326
-0.00310340066984019,0.01220094422977651
-0.00310323066984019,0.01197054932549503
-0.003103060669840191,0.01200346288324959
-0.00310289066984019,0.01216803067202291
-0.00310272066984019,0.01246425269181339
-0.003102550669840191,0.01312252384690453
-0.00310238066984019,0.01374788144424136
-0.00310221066984019,0.01387953567525935
-0.003102040669840191,0.01440615259933226
-0.003101870669840191,0.01529481865870368
-0.00310170066984019,0.01545938644747809
-0.003101530669840191,0.01601891692930556
-0.003101360669840191,0.01651262029562301
-0.00310119066984019,0.01694049654643316
-0.003101020669840191,0.01733545923948784
-0.003100850669840191,0.01736837279724234
-0.00310068066984019,0.0175987677015243
-0.003100510669840191,0.01773042193254253
-0.003100340669840191,0.01789498972131501
-0.00310017066984019,0.01812538462559721
-0.003100000669840191,0.01809247106784265
-0.003099830669840191,0.01789498972131567
-0.00309966066984019,0.01828995241437
-0.003099490669840191,0.01753294058601518
-0.003099320669840191,0.01743419991275169
-0.00309915066984019,0.01680884231541493
-0.003098980669840191,0.0164467931801148
-0.003098810669840191,0.01657844741113279
-0.00309864066984019,0.01542647288972353
-0.003098470669840191,0.01572269490951454
-0.003098300669840191,0.01572269490951454
-0.00309813066984019,0.01526190510095074
-0.003097960669840191,0.0157556084672691
-0.003097790669840191,0.01568978135176011
-0.00309762066984019,0.01595308981379644
-0.003097450669840191,0.015986003371551
-0.003097280669840191,0.01680884231541493
-0.00309711066984019,0.01582143558277821
-0.003096940669840191,0.01779624904805164
-0.003096770669840191,0.01763168125927886
-0.00309660066984019,0.01697341010418771
-0.003096430669840191,0.01687466943092404
-0.003096260669840191,0.01743419991275151
-0.00309609066984019,0.0169075829886786
-0.003095920669840191,0.01661136096888758
-0.003095750669840191,0.01624931183358745
-0.00309558066984019,0.01559104067849548
-0.003095410669840191,0.01513025086993251
-0.003095240669840191,0.01447197971484137
-0.00309507066984019,0.01384662211750257
-0.003094900669840191,0.01262882048058617
-0.003094730669840191,0.01220094422977693
-0.00309456066984019,0.01223385778753107
-0.003094390669840191,0.01200346288324959
-0.003094220669840191,0.01170724086345858
-0.00309405066984019,0.01183889509447716
-0.003093880669840191,0.01203637644100415
-0.003093710669840191,0.01236551201854972
-0.00309354066984019,0.01206928999875936
-0.00309337066984019,0.01243133913405883
-0.003093200669840191,0.01305669673139542
-0.00309303066984019,0.01315543740465981
-0.00309286066984019,0.01355040009771377
-0.003092690669840191,0.01381370855975023
-0.00309252066984019,0.01443906615708694
-0.00309235066984019,0.01450489327259593
-0.003092180669840191,0.01447197971484137
-0.00309201066984019,0.01489985596565043
-0.00309184066984019,0.01480111529238694
-0.003091670669840191,0.01536064577421441
-0.00309150066984019,0.01598600337155094
-0.00309133066984019,0.01595308981379644
-0.003091160669840191,0.01631513894909657
-0.003090990669840191,0.01618348471807858
-0.00309082066984019,0.0162163982758329
-0.003090650669840191,0.01647970673786936
-0.003090480669840191,0.01667718808439634
-0.00309031066984019,0.01710506433520594
-0.003090140669840191,0.01750002702826063
-0.003089970669840191,0.0177962490480511
-0.00308980066984019,0.01848743376089734
-0.003089630669840191,0.01845452020314278
-0.003089460669840191,0.01878365578068775
-0.00308929066984019,0.0194419269357795
-0.003089120669840191,0.01911279135823393
-0.003088950669840191,0.0194419269357789
-0.00308878066984019,0.01914570491598848
