Analysis/New Tests_CMB/wrd01_d2s01_new/cmb06_ch04.csv

#Digilent WaveForms Oscilloscope Acquisition
#Device Name: ADP3450
#Serial Number: SN:210018B9D9B0
#Date Time: 2024-08-14 15:36:04.303.491.310
#Sample rate: 5.88235e+06Hz
#Samples: 32768
#Trigger: Source: Channel 3 Type: Edge Condition: Rising Level: 30 mV Hyst.: Auto HoldOff: 0 s
#Channel 3: Range: 100 mV/div Offset: 0 V Attenuation: 1 X Coupling: DC Bandwidth: 0 Hz Sample Mode: Average

Time (s),Channel 3 (V)
-0.003798456534778174,0.1579421779669558
-0.003798286534778174,0.1758142398277099
-0.003798116534778174,0.1920735373584315
-0.003797946534778174,0.2070821196945096
-0.003797776534778174,0.220839986835936
-0.003797606534778174,0.232688867627555
-0.003797436534778174,0.2429578976469768
-0.003797266534778174,0.2515812497786828
-0.003797096534778174,0.2581968748873367
-0.003796926534778174,0.2628706000884838
-0.003796756534778174,0.2672810168275981
-0.003796586534778174,0.2692558302928679
-0.003796416534778174,0.2701774099099956
-0.003796246534778174,0.2704078048142761
-0.003796076534778174,0.2696507929859226
-0.003795906534778174,0.2678734608671766
-0.003795736534778174,0.265372030477827
-0.003795566534778174,0.2636276119168386
-0.003795396534778174,0.2605008239301557
-0.003795226534778174,0.258098134214067
-0.003795056534778174,0.2547409513231083
-0.003794886534778174,0.2510546328545978
-0.003794716534778174,0.2474341415016031
-0.003794546534778174,0.2436490823598225
-0.003794376534778174,0.240193158795594
-0.003794206534778174,0.2363751860960723
-0.003794036534778174,0.2333142252248916
-0.003793866534778174,0.2295949931986266
-0.003793696534778174,0.2263694645386859
-0.003793526534778174,0.2229793680899606
-0.003793356534778174,0.2193588767369594
-0.003793186534778174,0.2154750769219287
-0.003793016534778174,0.2121837211464659
-0.003792846534778174,0.2085961433512192
-0.003792676534778174,0.2051731333447515
-0.003792506534778174,0.2014539013184803
-0.003792336534778174,0.1978004964077245
-0.003792166534778174,0.1941800050547297
-0.003791996534778174,0.1905595137017219
-0.003791826534778174,0.1865769732134205
-0.003791656534778174,0.1831868767647073
-0.003791486534778174,0.1797967803159817
-0.003791316534778174,0.1767029058870533
-0.003791146534778174,0.1735432043426216
-0.003790976534778174,0.1703505892404238
-0.003790806534778174,0.1664667894253861
-0.003790636534778174,0.1640640997093078
-0.003790466534778174,0.1604436083563021
-0.003790296534778174,0.1579421779669558
-0.003790126534778174,0.1548483035380274
-0.003789956534778174,0.1521823053599083
-0.003789786534778174,0.1497467020860711
-0.003789616534778174,0.1470148767924429
-0.003789446534778174,0.1446780141918693
-0.003789276534778174,0.1451388040004331
-0.003789106534778174,0.140465078799286
-0.003788936534778174,0.137864907736673
-0.003788766534778174,0.1362192298489481
-0.003788596534778174,0.1338165401328654
-0.003788426534778174,0.1317429859943245
-0.003788256534778174,0.1296365182980367
-0.003788086534778174,0.127826272621536
-0.003787916534778174,0.1259501998295235
-0.003787746534778174,0.1244361761728167
-0.003787576534778174,0.1222638813610159
-0.003787406534778174,0.1206182034732834
-0.003787236534778174,0.1180509459684326
-0.003787066534778174,0.1158786511566318
-0.003786896534778174,0.1139038376913555
-0.003786726534778174,0.1122910733613851
-0.003786556534778174,0.1101187785495843
-0.003786386534778174,0.107518607486971
-0.003786216534778174,0.1056754482527191
-0.003786046534778174,0.103898116133973
-0.003785876534778174,0.1022524382462406
-0.003785706534778174,0.09971809429914427
-0.003785536534778174,0.09807241641141642
-0.003785366534778174,0.09613051650389433
-0.003785196534778174,0.09435318438515147
-0.003785026534778174,0.09293790140170552
-0.003784856534778174,0.09168718620702983
-0.003784686534778174,0.09030481678134095
-0.003784516534778174,0.08898827447115867
-0.003784346534778174,0.08750716437220629
-0.003784176534778174,0.08563109158019383
-0.003784006534778174,0.08411706792348422
-0.003783836534778174,0.08250430359351384
-0.003783666534778174,0.08072697147476482
-0.003783496534778174,0.07878507156724596
-0.003783326534778174,0.07694191233299413
-0.003783156534778174,0.07500001242547188
-0.003782986534778174,0.07342016165325316
-0.003782816534778174,0.07184031088103728
-0.003782646534778174,0.07035920078207933
-0.003782476534778174,0.0687793500098606
-0.003782306534778174,0.06710075856438125
-0.003782136534778174,0.06650831452479616
-0.003781966534778174,0.06423727903973173
-0.003781796534778174,0.06301947740281533
-0.003781626534778174,0.06193332999691272
-0.003781456534778174,0.06068261480223955
-0.003781286534778174,0.05969520806960463
-0.003781116534778174,0.0585761471059479
-0.003780946534778174,0.05772039460432941
-0.003780776534778174,0.05702920989148497
-0.003780606534778174,0.05620637094761979
-0.003780436534778174,0.05600888960109244
-0.003780266534778174,0.05574558113905646
-0.003780096534778174,0.0555810133502832
-0.003779926534778174,0.05637093873639257
-0.003779756534778174,0.05347454565399155
-0.003779586534778174,0.05594306248558333
-0.003779416534778174,0.05531770488824674
-0.003779246534778174,0.05502148286845573
-0.003779076534778174,0.05413281680908269
-0.003778906534778174,0.05344163209623699
-0.003778736534778174,0.05245422536360028
-0.003778566534778174,0.05169721353524546
-0.003778396534778174,0.05080854747587242
-0.003778226534778174,0.05008444920527216
-0.003778056534778174,0.04853751199080804
-0.003777886534778174,0.04857042554856254
-0.003777716534778174,0.04794506795122595
-0.003777546534778174,0.04728679679613319
-0.003777376534778174,0.04639813073676177
-0.003777206534778174,0.04600316804370708
-0.003777036534778174,0.04537781044636846
-0.003776866534778174,0.04425874948271556
-0.003776696534778174,0.0435346512121153
-0.003776526534778174,0.04218519534417684
-0.003776356534778174,0.04129652928480541
-0.003776186534778174,0.03991415985911401
-0.003776016534778174,0.03922297514626676
-0.003775846534778174,0.03836722264464983
-0.003775676534778174,0.03737981591201312
-0.003775506534778174,0.03655697696814835
-0.003775336534778174,0.0360961871595854
-0.003775166534778174,0.03629366850611274
-0.003774996534778174,0.03662280408365783
-0.003774826534778174,0.03635949562162185
-0.003774656534778174,0.0366228040836583
-0.003774486534778174,0.03705068033446773
-0.003774316534778174,0.03714942100773122
-0.003774146534778174,0.03767603793180414
-0.003773976534778174,0.03770895148955863
-0.003773806534778174,0.03767603793180414
-0.003773636534778174,0.03711650744997666
-0.003773466534778174,0.03682028543018619
-0.003773296534778174,0.03619492783284906
-0.003773126534778174,0.03537208888898514
-0.003772956534778174,0.0347138177338952
-0.003772786534778174,0.03359475677023905
-0.003772616534778174,0.03336436186595716
-0.003772446534778174,0.0327719178263762
-0.003772276534778174,0.03227821446005677
-0.003772106534778174,0.03161994330496563
-0.003771936534778174,0.03122498061191166
-0.003771766534778174,0.03023757387927423
-0.003771596534778174,0.0298755247439741
-0.003771426534778174,0.02872355022256669
-0.003771256534778174,0.02852606887603726
-0.003771086534778174,0.0275715757011551
-0.003770916534778174,0.02727535368136463
-0.003770746534778174,0.02638668762199104
-0.003770576534778174,0.025498021562618
-0.003770406534778174,0.02329281319306669
-0.003770236534778174,0.02164713530533482
-0.003770066534778174,0.02223957934491685
-0.003769896534778174,0.02260162848021632
-0.003769726534778174,0.02197627088288039
-0.003769556534778174,0.02223957934491685
-0.003769386534778174,0.02184461665186217
-0.003769216534778174,0.02223957934491685
-0.003769046534778174,0.02243706069144419
-0.003768876534778174,0.02273328271123521
-0.003768706534778174,0.02355612165509913
-0.003768536534778174,0.02289785050000799
-0.003768366534778174,0.02388525723264471
-0.003768196534778174,0.0236548623283628
-0.003768026534778174,0.0236548623283628
-0.003767856534778174,0.02339155386632635
-0.003767686534778174,0.02342446742408001
-0.003767516534778174,0.02293076405776255
-0.003767346534778174,0.02270036915348065
-0.003767176534778174,0.0226345420379704
-0.003767006534778174,0.02200918444063495
-0.003766836534778174,0.02128508617003469
-0.003766666534778174,0.02102177770799806
-0.003766496534778174,0.02092303703473456
-0.003766326534778174,0.01970523539781595
-0.003766156534778174,0.01888239645395107
-0.003765986534778174,0.01835577952987911
-0.003765816534778174,0.01828995241437
-0.003765646534778174,0.01782916260580626
-0.003765476534778174,0.01786207616356076
-0.003765306534778174,0.01746711347050607
-0.003765136534778174,0.01756585414377004
-0.003764966534778174,0.01773042193254253
-0.003764796534778174,0.01717089145071506
-0.003764626534778174,0.01746711347050493
-0.003764456534778174,0.01684175587316948
-0.003764286534778174,0.0173683727972424
-0.003764116534778174,0.01746711347050607
-0.003763946534778174,0.01746711347050607
-0.003763776534778174,0.01763168125927886
-0.003763606534778174,0.01773042193254187
-0.003763436534778174,0.0173683727972424
-0.003763266534778174,0.01766459481703341
-0.003763096534778174,0.01769750837478791
-0.003762926534778174,0.0178291626058062
-0.003762756534778174,0.01809247106784265
-0.003762586534778174,0.01809247106784265
-0.003762416534778174,0.01779624904805164
-0.003762246534778174,0.01763168125927886
-0.003762076534778174,0.01720380500847039
-0.003761906534778174,0.01677592875766037
-0.003761736534778174,0.01680884231541493
-0.003761566534778174,0.01621639827583398
-0.003761396534778174,0.01618348471807834
-0.003761226534778174,0.01605183048706011
-0.003761056534778174,0.01572269490951514
-0.003760886534778174,0.01717089145071506
-0.003760716534778174,0.01509733731217796
-0.003760546534778174,0.01404410346403405
-0.003760376534778174,0.01407701702178669
-0.003760206534778174,0.0139124492330139
-0.003760036534778174,0.01368205432873242
-0.003759866534778174,0.013682054328732
-0.003759696534778174,0.01351748653995922
-0.003759526534778174,0.01355040009771371
-0.003759356534778174,0.01374788144424112
-0.003759186534778174,0.01378079500199567
-0.003759016534778174,0.0134516594244507
-0.003758846534778174,0.01430741192606859
-0.003758676534778174,0.01440615259933226
-0.003758506534778174,0.01466946106136872
-0.003758336534778174,0.01457072038810504
-0.003758166534778174,0.01453780683035049
-0.003757996534778174,0.01434032548382314
-0.003757826534778174,0.01417575769505036
-0.003757656534778174,0.013682054328732
-0.003757486534778174,0.01374788144424112
-0.003757316534778174,0.01371496788648596
-0.003757146534778174,0.01338583230894099
-0.003756976534778174,0.01348457298220466
-0.003756806534778174,0.01364914077097834
-0.003756636534778174,0.0141428441372958
-0.003756466534778174,0.01489985596565062
-0.003756296534778174,0.0150644237544246
-0.003756126534778174,0.01572269490951454
-0.003755956534778174,0.01588726269828733
-0.003755786534778174,0.01657844741113309
-0.003755616534778174,0.01661136096888758
-0.003755446534778174,0.0169075829886786
-0.003755276534778174,0.01651262029562385
-0.003755106534778174,0.01647970673786936
-0.003754936534778174,0.01638096606460569
-0.003754766534778174,0.01661136096888764
-0.003754596534778174,0.01664427452664214
-0.003754426534778174,0.01657844741113303
-0.003754256534778174,0.01644679318011438
-0.003754086534778174,0.0162163982758329
-0.003753916534778174,0.01733545923948784
-0.003753746534778174,0.01766459481703305
-0.003753576534778174,0.01746711347050607
-0.003753406534778174,0.01779624904805164
-0.003753236534778174,0.01809247106784229
-0.003753066534778174,0.01789498972131531
-0.003752896534778174,0.01825703885661544
-0.003752726534778174,0.01733545923948952
-0.003752556534778174,0.01674301519990581
-0.003752386534778174,0.0155252135629872
-0.003752216534778174,0.01526190510095122
-0.003752046534778174,0.01424158481055947
-0.003751876534778174,0.01335291875118643
-0.003751706534778174,0.01262882048058749
-0.003751536534778174,0.01272756115384985
-0.003751366534778174,0.009238724031866792
-0.003751196534778174,0.01108188326611864
-0.003751026534778174,0.01045652566878541
-0.003750856534778174,0.01009447653348528
-0.003750686534778174,0.009732427398185809
-0.003750516534778174,0.009962822302467049
-0.003750346534778174,0.00950203249390325
-0.003750176534778174,0.009699513840430234
-0.003750006534778174,0.01025904432225806
-0.003749836534778174,0.01068692057306731
-0.003749666534778174,0.01081857480408529
-0.003749496534778174,0.0116085001901949
-0.003749326534778174,0.01200346288324959
-0.003749156534778174,0.01210220355651308
-0.003748986534778174,0.01236551201854972
-0.003748816534778174,0.01249716624956795
-0.003748646534778174,0.01266173403834043
-0.003748476534778174,0.01289212894262263
-0.003748306534778174,0.01292504250037719
-0.003748136534778174,0.01272756115384985
-0.003747966534778174,0.01308961028914997
-0.003747796534778174,0.013682054328732
-0.003747626534778174,0.01378079500199567
-0.003747456534778174,0.01332000519343187
-0.003747286534778174,0.0143732390415777
-0.003747116534778174,0.01420867125280492
-0.003746946534778174,0.0146036339458596
-0.003746776534778174,0.01480111529238694
-0.003746606534778174,0.01519607798544163
-0.003746436534778174,0.0153277322164586
-0.003746266534778174,0.01463654750361416
-0.003746096534778174,0.01404410346403213
-0.003745926534778174,0.01338583230893925
-0.003745756534778174,0.01243133913405883
-0.003745586534778174,0.01233259846079516
-0.003745416534778174,0.01088440191959579
-0.003745246534778174,0.01150975951693123
-0.003745076534778174,0.01131227817040389
-0.003744906534778174,0.01091731547734789
-0.003744736534778174,0.01019321720674895
-0.003744566534778174,0.01022613076450351
-0.003744396534778174,0.009567859609411287
-0.003744226534778174,0.008975415569830336
-0.003744056534778174,0.009666600282676035
-0.003743886534778174,0.00960077316716728
-0.003743716534778174,0.009798254513694264
-0.003743546534778174,0.009238724031866792
-0.003743376534778174,0.009074156243094187
-0.003743206534778174,0.009172896916357679
-0.003743036534778174,0.009139983358603122
-0.003742866534778174,0.009074156243093946
-0.003742696534778174,0.00904124268533945
-0.003742526534778174,0.009139983358603122
-0.003742356534778174,0.009732427398185389
-0.003742186534778174,0.009864081629203377
-0.003742016534778174,0.01048943922653996
-0.003741846534778174,0.009666600282677532
-0.003741676534778174,0.009600773167166921
-0.003741506534778174,0.009896995186957936
-0.003741336534778174,0.0103577849955209
-0.003741166534778174,0.01062109345755819
-0.003740996534778174,0.01088440191959465
-0.003740826534778174,0.01042361211103169
-0.003740656534778174,0.01088440191959465
-0.003740486534778174,0.01081857480408553
-0.003740316534778174,0.01088440191959453
-0.003740146534778174,0.01104896970836743
-0.003739976534778174,0.01118062393938566
-0.003739806534778174,0.01164141374794862
-0.003739636534778174,0.01118062393938566
-0.003739466534778174,0.01131227817040389
-0.003739296534778174,0.01091731547734992
-0.003739126534778174,0.01108188326612199
-0.003738956534778174,0.0116085001901949
-0.003738786534778174,0.01121353749714094
-0.003738616534778174,0.01098314259285832
-0.003738446534778174,0.01118062393938566
-0.003738276534778174,0.01078566124633169
-0.003738106534778174,0.01108188326612199
-0.003737936534778174,0.01104896970836743
-0.003737766534778174,0.01081857480408595
-0.003737596534778174,0.01058817989980363
-0.003737426534778174,0.01029195788001262
-0.003737256534778174,0.01006156297573072
-0.003737086534778174,0.00973242739818515
-0.003736916534778174,0.009666600282676035
-0.003736746534778174,0.009600773167166921
-0.003736576534778174,0.009469118936148692
-0.003736406534778174,0.008942502012075779
-0.003736236534778174,0.009107069800848565
-0.003736066534778174,0.00858045287677547
-0.003735896534778174,0.008481712203511979
-0.003735726534778174,0.008909588454321223
-0.003735556534778174,0.009139983358602582
-0.003735386534778174,0.008843761338812107
-0.003735216534778174,0.009008329127584893
-0.003735046534778174,0.009469118936148272
-0.003734876534778174,0.009238724031866792
-0.003734706534778174,0.009304551147375908
-0.003734536534778174,0.009534946051658466
-0.003734366534778174,0.009896995186957936
-0.003734196534778174,0.009995735860221606
-0.003734026534778174,0.0100944765334842
-0.003733856534778174,0.00950203249390325
-0.003733686534778174,0.009666600282676035
-0.003733516534778174,0.009633686724920818
-0.003733346534778174,0.009271637589621349
-0.003733176534778174,0.009107069800848565
-0.003733006534778174,0.009139983358603061
-0.003732836534778174,0.009107069800848565
-0.003732666534778174,0.01055526634204908
-0.003732496534778174,0.006770207200281356
-0.003732326534778174,0.01025904432225806
-0.003732156534778174,0.009765340955939707
-0.003731986534778174,0.01019321720675092
-0.003731816534778174,0.01127936461264933
-0.003731646534778174,0.01154267307468579
-0.003731476534778174,0.01193763576773976
-0.003731306534778174,0.01262882048058617
-0.003731136534778174,0.01279338826935896
-0.003730966534778174,0.01345165942444891
-0.003730796534778174,0.013682054328732
-0.003730626534778174,0.0127604747116044
-0.003730456534778174,0.01266173403834091
-0.003730286534778174,0.01236551201854972
-0.003730116534778174,0.01154267307468579
-0.003729946534778174,0.01124645105489532
-0.003729776534778174,0.01095022903510376
-0.003729606534778174,0.01091731547734921
-0.003729436534778174,0.01048943922654074
-0.003729266534778174,0.01022613076450351
-0.003729096534778174,0.01025904432225806
-0.003728926534778174,0.01012739009124007
-0.003728756534778174,0.009995735860221606
-0.003728586534778174,0.009962822302467049
-0.003728416534778174,0.009929908744712553
-0.003728246534778174,0.009995735860221606
-0.003728076534778174,0.009929908744712493
-0.003727906534778174,0.009732427398185509
-0.003727736534778174,0.009666600282676035
-0.003727566534778174,0.009436205378394135
-0.003727396534778174,0.009469118936148631
-0.003727226534778174,0.009765340955939707
-0.003727056534778174,0.00983116807144882
-0.003726886534778174,0.009600773167166921
-0.003726716534778174,0.009896995186957936
-0.003726546534778174,0.01022613076450351
-0.003726376534778174,0.01032487143776718
-0.003726206534778174,0.01098314259285832
-0.003726036534778174,0.01111479682387655
-0.003725866534778174,0.01131227817040389
-0.003725696534778174,0.01111479682387655
-0.003725526534778174,0.01177306797896769
-0.003725356534778174,0.01223385778753149
-0.003725186534778174,0.01200346288325001
-0.003725016534778174,0.01223385778753149
-0.003724846534778174,0.01216803067202238
-0.003724676534778174,0.01216803067202154
-0.003724506534778174,0.01170724086345858
-0.003724336534778174,0.01147684595917668
-0.003724166534778174,0.01154267307468471
-0.003723996534778174,0.01095022903510376
-0.003723826534778174,0.01048943922653996
-0.003723656534778174,0.009798254513693604
-0.003723486534778174,0.009436205378394135
-0.003723316534778174,0.008909588454321223
-0.003723146534778174,0.00604610892968092
-0.003722976534778174,0.009436205378394135
-0.003722806534778174,0.007889268163929951
-0.003722636534778174,0.00732973768210254
-0.003722466534778174,0.007362651239857037
-0.003722296534778174,0.00756013258638438
-0.003722126534778174,0.007625959701894332
-0.003721956534778174,0.008086749510457293
-0.003721786534778174,0.008317144414739193
-0.003721616534778174,0.008448798645758379
-0.003721446534778174,0.008975415569830336
-0.003721276534778174,0.009666600282676035
-0.003721106534778174,0.009107069800849105
-0.003720936534778174,0.009403291820639578
-0.003720766534778174,0.009995735860221606
-0.003720596534778174,0.01042361211103007
-0.003720426534778174,0.01042361211103085
-0.003720256534778174,0.01058817989980363
-0.003720086534778174,0.01085148836183961
-0.003719916534778174,0.01095022903510376
-0.003719746534778174,0.01127936461264933
-0.003719576534778174,0.01160850019019431
-0.003719406534778174,0.01170724086345858
-0.003719236534778174,0.01180598153672225
