Analysis/New Tests_CMB/wrd01_d2s01_new/cmb07_ch16.csv

#Digilent WaveForms Oscilloscope Acquisition
#Device Name: ADP3450
#Serial Number: SN:210018B9D9B0
#Date Time: 2024-08-15 12:25:55.119.087.700
#Sample rate: 5.88235e+06Hz
#Samples: 32768
#Trigger: Source: Channel 3 Type: Edge Condition: Rising Level: 40 mV Hyst.: Auto HoldOff: 0 s
#Channel 3: Range: 100 mV/div Offset: 0 V Attenuation: 1 X Coupling: DC Bandwidth: 0 Hz Sample Mode: Average

Time (s),Channel 3 (V)
-0.003168926456516307,0.01641387962236024
-0.003168756456516307,0.01605183048705934
-0.003168586456516307,0.01562395423625087
-0.003168416456516307,0.01565686779400543
-0.003168246456516307,0.01519607798544223
-0.003168076456516307,0.0155252135629872
-0.003167906456516307,0.0155252135629872
-0.003167736456516307,0.01536064577421537
-0.003167566456516307,0.01588726269828733
-0.003167396456516307,0.01588726269828733
-0.003167226456516307,0.01595308981379662
-0.003167056456516307,0.01605183048706011
-0.003166886456516307,0.01578852202502366
-0.003166716456516307,0.01592017625604207
-0.003166546456516307,0.01601891692930556
-0.003166376456516307,0.01611765760256923
-0.003166206456516306,0.01555812712074128
-0.003166036456516307,0.0152948186587053
-0.003165866456516307,0.0150644237544234
-0.003165696456516306,0.01545938644747803
-0.003165526456516307,0.01542647288972353
-0.003165356456516307,0.01555812712074176
-0.003165186456516307,0.01585434914053223
-0.003165016456516307,0.01588726269828733
-0.003164846456516307,0.01595308981379644
-0.003164676456516307,0.01621639827583242
-0.003164506456516307,0.01697341010418771
-0.003164336456516307,0.0155252135629872
-0.003164166456516307,0.01654553385337661
-0.003163996456516307,0.01562395423625087
-0.003163826456516307,0.0155252135629872
-0.003163656456516307,0.01480111529238826
-0.003163486456516307,0.01476820173463239
-0.003163316456516307,0.01443906615708682
-0.003163146456516307,0.01391244923301486
-0.003162976456516307,0.01335291875118643
-0.003162806456516307,0.01332000519343187
-0.003162636456516307,0.01206928999876098
-0.003162466456516307,0.01308961028914997
-0.003162296456516307,0.01177306797896769
-0.003162126456516307,0.01213511711426716
-0.003161956456516307,0.01220094422977693
-0.003161786456516307,0.01233259846079516
-0.003161616456516307,0.01262882048058563
-0.003161446456516307,0.01315543740465909
-0.003161276456516307,0.013682054328732
-0.003161106456516307,0.01335291875118703
-0.003160936456516307,0.01401118990627757
-0.003160766456516307,0.01355040009771377
-0.003160596456516307,0.01272756115384985
-0.003160426456516307,0.01223385778753149
-0.003160256456516307,0.01154267307468579
-0.003160086456516307,0.01108188326612199
-0.003159916456516307,0.01058817989980363
-0.003159746456516307,0.009699513840430593
-0.003159576456516307,0.009864081629203377
-0.003159406456516307,0.008975415569829738
-0.003159236456516307,0.008646279992284765
-0.003159066456516307,0.00904124268533945
-0.003158896456516307,0.00904124268533915
-0.003158726456516307,0.008876674896566664
-0.003158556456516307,0.009304551147375908
-0.003158386456516307,0.009633686724921178
-0.003158216456516307,0.009469118936148692
-0.003158046456516307,0.01068692057306731
-0.003157876456516307,0.01088440191959483
-0.003157706456516307,0.01098314259285832
-0.003157536456516307,0.01114771038163111
-0.003157366456516307,0.01131227817040293
-0.003157196456516307,0.01078566124633098
-0.003157026456516307,0.01052235278429452
-0.003156856456516307,0.01042361211103019
-0.003156686456516307,0.01006156297573072
-0.003156516456516307,0.009666600282676035
-0.003156346456516307,0.009962822302467049
-0.003156176456516307,0.009962822302467049
-0.003156006456516307,0.00904124268533945
-0.003155836456516306,0.008514625761266117
-0.003155666456516307,0.008284230856984636
-0.003155496456516307,0.007889268163929951
-0.003155326456516306,0.007856354606175633
-0.003155156456516307,0.007988008837193623
-0.003154986456516307,0.007625959701893495
-0.003154816456516307,0.007593046144138998
-0.003154646456516307,0.007757613932911723
-0.003154476456516307,0.007889268163929951
-0.003154306456516307,0.00825131729922942
-0.003154136456516307,0.008777934223302994
-0.003153966456516307,0.008942502012075779
-0.003153796456516307,0.009600773167165724
-0.003153626456516307,0.008646279992284765
-0.003153456456516307,0.009995735860221606
-0.003153286456516307,0.00923872403186817
-0.003153116456516307,0.009633686724921478
-0.003152946456516307,0.009633686724921478
-0.003152776456516307,0.009205810474113015
-0.003152606456516307,0.009172896916357679
-0.003152436456516307,0.008876674896566664
-0.003152266456516307,0.008448798645758201
-0.003152096456516307,0.008086749510457293
-0.003151926456516307,0.007823441048420837
-0.003151756456516307,0.007099342777821899
-0.003151586456516307,0.006836034315784124
-0.003151416456516307,0.005815714025392853
-0.003151246456516307,0.005354924216829892
-0.003151076456516307,0.004532085272965126
-0.003150906456516307,0.004334603926437783
-0.003150736456516307,0.003709246329102336
-0.003150566456516307,0.003775073444610313
-0.003150396456516307,0.003610505655837527
-0.003150226456516307,0.003182629405028285
-0.003150056456516307,0.003281370078291956
-0.003149886456516307,0.003413024309310185
-0.003149716456516307,0.003939641233383098
-0.003149546456516307,0.004005468348892213
-0.003149376456516307,0.004959961523774369
-0.003149206456516307,0.004630825946228797
-0.003149036456516307,0.004959961523774369
-0.003148866456516307,0.005091615754792597
-0.003148696456516307,0.005256183543565383
-0.003148526456516307,0.00515744287030255
-0.003148356456516307,0.005618232678865511
-0.003148186456516307,0.005651146236620068
-0.003148016456516307,0.005651146236620667
-0.003147846456516307,0.005980281814165639
-0.003147676456516307,0.005716973352129182
-0.003147506456516307,0.005881541140901489
-0.003147336456516307,0.005618232678865511
-0.003147166456516307,0.006013195371920196
-0.003146996456516307,0.005420751332340503
-0.003146826456516307,0.006704380084765896
-0.003146656456516307,0.006243590276202096
-0.003146486456516307,0.006803120758029627
-0.003146316456516307,0.006836034315784124
-0.003146146456516307,0.007527219028629823
-0.003145976456516307,0.007889268163929472
-0.003145806456516307,0.007625959701893495
-0.003145636456516307,0.007625959701893495
-0.003145466456516307,0.007724700375157286
-0.003145296456516307,0.00779052749066628
-0.003145126456516307,0.007625959701893495
-0.003144956456516306,0.007263910566593665
-0.003144786456516307,0.007428478355366152
-0.003144616456516307,0.007724700375157166
-0.003144446456516306,0.007461391913120769
-0.003144276456516307,0.007494305470875266
-0.003144106456516307,0.006342330949465767
-0.003143936456516307,0.007889268163927137
-0.003143766456516307,0.006441071622729439
-0.003143596456516307,0.006243590276202096
-0.003143426456516307,0.005815714025393631
-0.003143256456516307,0.005223269985810825
-0.003143086456516307,0.005025788639283483
-0.003142916456516307,0.00469665306173851
-0.003142746456516307,0.00426877681092867
-0.003142576456516307,0.004532085272965126
-0.003142406456516307,0.004992875081528088
-0.003142236456516307,0.005091615754792597
-0.003142066456516307,0.005815714025392853
-0.003141896456516307,0.005914454698656345
-0.003141726456516307,0.006506898738238553
-0.003141556456516307,0.00677020720027501
-0.003141386456516307,0.006901861431292999
-0.003141216456516307,0.00700060210455691
-0.003141046456516307,0.007230997008838809
-0.003140876456516307,0.007527219028629285
-0.003140706456516307,0.007658873259648051
-0.003140536456516307,0.007625959701893495
-0.003140366456516307,0.007790527490665981
-0.003140196456516307,0.00779052749066628
-0.003140026456516307,0.007955095279439066
-0.003139856456516307,0.007625959701893495
-0.003139686456516307,0.007823441048420837
-0.003139516456516307,0.007691786817402609
-0.003139346456516307,0.007132256335575138
-0.003139176456516307,0.006836034315784124
-0.003139006456516307,0.006276503833956653
-0.003138836456516307,0.006506898738238553
-0.003138666456516307,0.005716973352129182
-0.003138496456516307,0.005980281814165639
-0.003138326456516307,0.005980281814165639
-0.003138156456516307,0.006111936045183029
-0.003137986456516307,0.005651146236620068
-0.003137816456516307,0.006013195371920196
-0.003137646456516307,0.00555240556335538
-0.003137476456516307,0.004992875081528926
-0.003137306456516307,0.004235863253174112
-0.003137136456516307,0.004071295464400609
-0.003136966456516307,0.003676332771346642
-0.003136796456516307,0.003248456520537399
-0.003136626456516307,0.002787666711973181
-0.003136456456516307,0.0025572718076917
-0.003136286456516307,0.003050975174010056
-0.003136116456516307,0.001800259979338563
-0.003135946456516307,0.002721839596464486
-0.003135776456516307,0.002491444692182586
-0.003135606456516307,0.002886407385237211
-0.003135436456516307,0.002853493827482714
-0.003135266456516307,0.003182629405028285
-0.003135096456516307,0.003050975174010835
-0.003134926456516307,0.003478851424819299
-0.003134756456516307,0.00357759209808297
-0.003134586456516306,0.004696653061738391
-0.003134416456516307,0.004959961523774369
-0.003134246456516307,0.004795393735001583
-0.003134076456516306,0.005420751332338108
-0.003133906456516307,0.005387837774583611
-0.003133736456516307,0.005651146236620068
-0.003133566456516307,0.005914454698656046
-0.003133396456516307,0.006375244507220324
-0.003133226456516307,0.006605639411502225
-0.003133056456516307,0.007000602104556192
-0.003132886456516307,0.007230997008838809
-0.003132716456516307,0.007033515662311467
-0.003132546456516307,0.007165169893329455
-0.003132376456516307,0.007263910566593366
-0.003132206456516307,0.006934774989047795
-0.003132036456516307,0.006375244507221342
-0.003131866456516307,0.006210676718447538
-0.003131696456516307,0.006276503833956653
-0.003131526456516307,0.006473985180483637
-0.003131356456516307,0.006441071622729439
-0.003131186456516307,0.006638552969256781
-0.003131016456516307,0.00653981229599329
-0.003130846456516307,0.006967688546802352
-0.003130676456516307,0.00677020720027501
-0.003130506456516307,0.00677020720027501
-0.003130336456516307,0.00653981229599311
-0.003130166456516307,0.006408158064974882
-0.003129996456516307,0.006046108929675412
-0.003129826456516307,0.006210676718447538
-0.003129656456516307,0.005815714025392853
-0.003129486456516307,0.005585319121111373
-0.003129316456516307,0.005881541140901968
-0.003129146456516307,0.005453664890092726
-0.003128976456516307,0.005519492005601839
-0.003128806456516307,0.005387837774583611
-0.003128636456516307,0.005651146236620068
-0.003128466456516307,0.005519492005601839
-0.003128296456516307,0.005387837774583611
-0.003128126456516307,0.005157442870301712
-0.003127956456516307,0.004927047966019811
-0.003127786456516307,0.004663739503983834
-0.003127616456516307,0.004927047966019811
-0.003127446456516307,0.004861220850510698
-0.003127276456516307,0.004433344599701993
-0.003127106456516307,0.004729566619492469
-0.003126936456516307,0.004532085272965126
-0.003126766456516307,0.003939641233383816
-0.003126596456516307,0.004334603926437783
-0.003126426456516307,0.004005468348892213
-0.003126256456516307,0.003939641233384116
-0.003126086456516307,0.004499171715210569
-0.003125916456516307,0.004630825946228797
-0.003125746456516307,0.004532085272965306
-0.003125576456516307,0.004630825946228797
-0.003125406456516307,0.005256183543565383
-0.003125236456516307,0.005354924216829294
-0.003125066456516307,0.005486578447847282
-0.003124896456516307,0.005684059794374625
-0.003124726456516307,0.006079022487430388
-0.003124556456516307,0.006671466527011338
-0.003124386456516307,0.006868947873538681
-0.003124216456516307,0.006901861431293837
-0.003124046456516307,0.007230997008838809
-0.003123876456516307,0.007165169893329695
-0.003123706456516306,0.007066429220066442
-0.003123536456516307,0.007296824124347924
-0.003123366456516307,0.007099342777820581
-0.003123196456516307,0.007066429220066083
-0.003123026456516307,0.006704380084765896
-0.003122856456516307,0.006408158064974882
-0.003122686456516307,0.006013195371920914
-0.003122516456516307,0.005684059794374625
-0.003122346456516307,0.005947368256411082
-0.003122176456516307,0.006375244507219546
-0.003122006456516307,0.006111936045183867
-0.003121836456516307,0.006210676718447538
-0.003121666456516307,0.006144849602938545
-0.003121496456516307,0.006111936045183867
-0.003121326456516307,0.006210676718447538
-0.003121156456516307,0.006144849602938545
-0.003120986456516307,0.006046108929674754
-0.003120816456516307,0.005881541140901968
-0.003120646456516307,0.005387837774584509
-0.003120476456516307,0.005157442870301712
-0.003120306456516307,0.004992875081528926
-0.003120136456516307,0.004663739503983954
-0.003119966456516307,0.004729566619492469
-0.003119796456516307,0.004071295464401327
-0.003119626456516307,0.004959961523772752
-0.003119456456516307,0.004992875081528926
-0.003119286456516307,0.004729566619492469
-0.003119116456516307,0.004630825946228977
-0.003118946456516307,0.00482830729275614
-0.003118776456516307,0.004499171715210569
-0.003118606456516307,0.004334603926437783
-0.003118436456516307,0.004762480177247026
-0.003118266456516307,0.00482830729275614
-0.003118096456516307,0.004597912388474241
-0.003117926456516307,0.005256183543565383
-0.003117756456516307,0.004894134408265255
-0.003117586456516307,0.005354924216829054
-0.003117416456516307,0.005684059794374625
-0.003117246456516307,0.005519492005601839
-0.003117076456516307,0.005519492005601839
-0.003116906456516307,0.005881541140901668
-0.003116736456516307,0.005716973352129182
-0.003116566456516307,0.006177763160692982
-0.003116396456516307,0.006572725853747667
-0.003116226456516307,0.006572725853747667
-0.003116056456516307,0.007165169893329695
-0.003115886456516307,0.007461391913122086
-0.003115716456516307,0.008218403741475522
-0.003115546456516307,0.007593046144138938
-0.003115376456516307,0.008086749510457113
-0.003115206456516307,0.007988008837193623
-0.003115036456516307,0.008218403741475522
-0.003114866456516307,0.008152576625966409
-0.003114696456516307,0.008152576625966409
-0.003114526456516307,0.007889268163929951
-0.003114356456516307,0.00759304614413762
-0.003114186456516307,0.006868947873538681
-0.003114016456516307,0.006375244507220324
-0.003113846456516307,0.006243590276199103
-0.003113676456516307,0.004597912388474241
-0.003113506456516307,0.004367517484192341
-0.003113336456516306,0.003478851424817623
-0.003113166456516307,0.0025572718076917
-0.003112996456516307,0.002129395556882458
-0.003112826456516306,0.001800259979336767
-0.003112656456516307,0.001734432863827772
-0.003112486456516307,0.001043248150982073
-0.003112316456516307,0.001504037959545034
-0.003112146456516307,0.001141988824245744
-0.003111976456516307,0.001504037959545873
-0.003111806456516307,0.001800259979336348
-0.003111636456516307,0.001964827768109672
-0.003111466456516307,0.001964827768109672
-0.003111296456516307,0.002721839596463109
-0.003111126456516307,0.003248456520537399
-0.003110956456516307,0.003939641233383098
-0.003110786456516307,0.003939641233383098
-0.003110616456516307,0.004762480177247026
-0.003110446456516307,0.005190356428056269
-0.003110276456516307,0.005815714025391716
-0.003110106456516307,0.006013195371920196
-0.003109936456516307,0.006737293642520453
-0.003109766456516307,0.00713225633557442
-0.003109596456516307,0.008053835952702737
-0.003109426456516307,0.008547539319021094
-0.003109256456516307,0.009238724031865535
-0.003109086456516307,0.008942502012075779
-0.003108916456516307,0.008514625761266537
-0.003108746456516307,0.008580452876775531
-0.003108576456516307,0.008415885088002865
-0.003108406456516307,0.00871210710779388
-0.003108236456516307,0.009205810474111337
-0.003108066456516307,0.009107069800848565
-0.003107896456516307,0.009205810474112236
-0.003107726456516307,0.009271637589621349
-0.003107556456516307,0.008942502012075779
-0.003107386456516307,0.00871210710779388
-0.003107216456516307,0.008350057972493751
-0.003107046456516307,0.008152576625966409
-0.003106876456516307,0.007691786817402609
-0.003106706456516307,0.007658873259648051
-0.003106536456516307,0.00713225633557454
-0.003106366456516307,0.006803120758029567
-0.003106196456516307,0.006671466527011338
-0.003106026456516307,0.006638552969255165
-0.003105856456516307,0.00574988690988374
-0.003105686456516307,0.006803120758029567
-0.003105516456516307,0.006803120758026514
-0.003105346456516307,0.005124529312547154
-0.003105176456516307,0.005420751332338168
-0.003105006456516307,0.004762480177246248
-0.003104836456516307,0.004334603926437783
-0.003104666456516307,0.004005468348892213
-0.003104496456516307,0.003873814117872906
-0.003104326456516307,0.003281370078291956
-0.003104156456516307,0.003314283636046514
-0.003103986456516307,0.003083888731764733
-0.003103816456516307,0.003149715847273728
-0.003103646456516307,0.003050975174010056
-0.003103476456516307,0.003050975174009697
-0.003103306456516307,0.002853493827482714
-0.003103136456516307,0.003149715847273728
-0.003102966456516306,0.003248456520537878
-0.003102796456516307,0.003511764982573856
-0.003102626456516307,0.003676332771346642
-0.003102456456516306,0.003643419213592145
-0.003102286456516307,0.003676332771346642
-0.003102116456516307,0.003380110751555628
-0.003101946456516307,0.004104209022154567
-0.003101776456516307,0.003939641233383098
-0.003101606456516307,0.004663739503983355
-0.003101436456516307,0.004762480177246847
-0.003101266456516307,0.005420751332338168
-0.003101096456516307,0.005453664890092726
-0.003100926456516307,0.006079022487428172
-0.003100756456516307,0.006868947873538681
-0.003100586456516307,0.007033515662311467
-0.003100416456516307,0.007724700375155909
-0.003100246456516307,0.008152576625966409
-0.003100076456516307,0.008185490183720966
-0.003099906456516307,0.008448798645756943
-0.003099736456516307,0.00904124268533945
-0.003099566456516307,0.00904124268533945
-0.003099396456516307,0.009172896916357439
-0.003099226456516307,0.008975415569830336
-0.003099056456516307,0.009205810474112236
-0.003098886456516307,0.009205810474112236
-0.003098716456516307,0.009469118936148692
-0.003098546456516307,0.009337464705130465
-0.003098376456516307,0.009370378262884961
-0.003098206456516307,0.008777934223302994
-0.003098036456516307,0.007889268163929951
-0.003097866456516307,0.007494305470875985
-0.003097696456516307,0.00756013258638438
-0.003097526456516307,0.007263910566593366
-0.003097356456516307,0.006638552969256781
-0.003097186456516307,0.006441071622729439
-0.003097016456516307,0.005519492005601839
-0.003096846456516307,0.005256183543565383
-0.003096676456516307,0.004433344599701455
-0.003096506456516307,0.00403838190664677
-0.003096336456516307,0.003972554791137656
-0.003096166456516307,0.004071295464401327
-0.003095996456516307,0.004301690368683227
-0.003095826456516307,0.004466258157456012
-0.003095656456516307,0.004663739503983714
-0.003095486456516307,0.004861220850510698
-0.003095316456516307,0.005387837774583611
-0.003095146456516307,0.005387837774584748
-0.003094976456516307,0.006013195371920196
-0.003094806456516307,0.00607902248742931
-0.003094636456516307,0.00653981229599317
-0.003094466456516307,0.006572725853747667
-0.003094296456516307,0.006638552969256781
-0.003094126456516307,0.006243590276201558
-0.003093956456516307,0.005947368256411082
-0.003093786456516307,0.005486578447847282
-0.003093616456516307,0.004992875081528447
-0.003093446456516307,0.004729566619492469
-0.003093276456516307,0.00426877681092867
-0.003093106456516307,0.003676332771346701
-0.003092936456516307,0.003709246329101199
-0.003092766456516307,0.003676332771346642
-0.003092596456516307,0.002721839596464426
-0.003092426456516307,0.002688926038709928
-0.003092256456516307,0.002820580269728157
-0.003092086456516306,0.002820580269728456
-0.003091916456516307,0.002985148058500942
-0.003091746456516307,0.003643419213592085
-0.003091576456516306,0.004499171715211407
-0.003091406456516307,0.004959961523774369
