Analysis/New Tests_CMB/wrd01_d2s01_new/cmb01_ch32.csv

#Digilent WaveForms Oscilloscope Acquisition
#Device Name: ADP3450
#Serial Number: SN:210018B9D9B0
#Date Time: 2024-08-14 15:00:42.114.200.190
#Sample rate: 5.88235e+06Hz
#Samples: 32768
#Trigger: Source: Channel 3 Type: Edge Condition: Rising Level: 40 mV Hyst.: Auto HoldOff: 0 s
#Channel 3: Range: 100 mV/div Offset: 0 V Attenuation: 1 X Coupling: DC Bandwidth: 0 Hz Sample Mode: Average

Time (s),Channel 3 (V)
-0.003798384204098443,0.1996107420842251
-0.003798214204098443,0.2128749058592875
-0.003798044204098443,0.2257111933835655
-0.003797874204098444,0.2365726674425532
-0.003797704204098443,0.2456568093828646
-0.003797534204098443,0.253424409012926
-0.003797364204098443,0.2591513680622189
-0.003797194204098443,0.26398966105213
-0.003797024204098443,0.267313930385343
-0.003796854204098444,0.2694533116393875
-0.003796684204098443,0.2699799285634671
-0.003796514204098443,0.2693545709661316
-0.003796344204098443,0.2688937811575678
-0.003796174204098443,0.2667543999035255
-0.003796004204098443,0.2646808457649883
-0.003795834204098444,0.2619161069136117
-0.003795664204098443,0.2591184545044575
-0.003795494204098443,0.2553333953626903
-0.003795324204098443,0.2523711751647801
-0.003795154204098443,0.2488823380428034
-0.003794984204098443,0.2458542907293833
-0.003794814204098444,0.2413451333170199
-0.003794644204098444,0.2373625928287166
-0.003794474204098443,0.2336104472446826
-0.003794304204098443,0.2295949931986266
-0.003794134204098443,0.2257441069413504
-0.003793964204098443,0.2217286528952948
-0.003793794204098444,0.2174169768294562
-0.003793624204098444,0.2135660905721713
-0.003793454204098443,0.2096164636416105
-0.003793284204098443,0.2054035282490271
-0.003793114204098443,0.201486814876242
-0.003792944204098443,0.1982283726585396
-0.003792774204098443,0.1945749677477911
-0.003792604204098444,0.1909544763947898
-0.003792434204098443,0.1873010714840207
-0.003792264204098443,0.1839438885930559
-0.003792094204098443,0.1807841870486242
-0.003791924204098443,0.1773611770421507
-0.003791754204098443,0.1716671315506165
-0.003791584204098444,0.1699556265473754
-0.003791414204098443,0.1667959250029317
-0.003791244204098443,0.162977952303403
-0.003791074204098443,0.1596536829701988
-0.003790904204098443,0.1567243763300425
-0.003790734204098443,0.1535646747856055
-0.003790564204098444,0.1507670223764725
-0.003790394204098443,0.1481339377560978
-0.003790224204098443,0.1457641615977697
-0.003790054204098443,0.1434602125549507
-0.003789884204098443,0.1413866584164173
-0.003789714204098443,0.1390497958158443
-0.003789544204098444,0.1371737230238371
-0.003789374204098443,0.1350672553275386
-0.003789204204098443,0.1335861452285835
-0.003789034204098443,0.1317429859943283
-0.003788864204098443,0.130064394548849
-0.003788694204098443,0.1280237539680671
-0.003788524204098444,0.127168001466448
-0.003788354204098443,0.1243703490573052
-0.003788184204098443,0.1230538067471253
-0.003788014204098443,0.1212764746283792
-0.003787844204098443,0.1196307967406543
-0.003787674204098443,0.1177218103908905
-0.003787504204098444,0.1159444782721474
-0.003787334204098443,0.1133443072095269
-0.003787164204098443,0.1111390988399756
-0.003786994204098443,0.1090655447014385
-0.003786824204098443,0.1065641143120967
-0.003786654204098443,0.1044905601735588
-0.003786484204098444,0.1019562162264634
-0.003786314204098443,0.09945478583710315
-0.003786144204098443,0.09688752833225237
-0.003785974204098443,0.09412278948086958
-0.003785804204098443,0.0914238777450008
-0.003785634204098443,0.0888566202401451
-0.003785464204098444,0.086190622062031
-0.003785294204098443,0.08405124080797086
-0.003785124204098443,0.08171437820740154
-0.003784954204098443,0.08003578676191914
-0.003784784204098443,0.07842302243194875
-0.003784614204098443,0.0777318377191014
-0.003784444204098444,0.07674443098646701
-0.003784274204098444,0.07562537002281254
-0.003784104204098443,0.07470379040568087
-0.003783934204098443,0.0741442599238534
-0.003783764204098443,0.072992285402446
-0.003783594204098443,0.07249858203612645
-0.003783424204098444,0.07213653290082674
-0.003783254204098444,0.07170865665001774
-0.003783084204098443,0.07052376857085213
-0.003782914204098443,0.0699313245312701
-0.003782744204098443,0.0686806093365992
-0.003782574204098443,0.06742989414192604
-0.003782404204098444,0.06459932817504213
-0.003782234204098444,0.06594878404296378
-0.003782064204098443,0.06344735365362233
-0.003781894204098443,0.06301947740281311
-0.003781724204098443,0.06206498422793268
-0.003781554204098443,0.06068261480224206
-0.003781384204098443,0.05969520806960463
-0.003781214204098444,0.05897110979900522
-0.003781044204098443,0.05778622171983853
-0.003780874204098443,0.05683172854495637
-0.003780704204098443,0.05515313709947701
-0.003780534204098443,0.05426447104010253
-0.003780364204098443,0.05268462026788505
-0.003780194204098444,0.05248713892135555
-0.003780024204098443,0.05153264574647268
-0.003779854204098443,0.05024901699404495
-0.003779684204098443,0.04945909160793558
-0.003779514204098443,0.04880082045284564
-0.003779344204098443,0.04708931544961058
-0.003779174204098444,0.04656269852553647
-0.003779004204098443,0.04616773583247986
-0.003778834204098443,0.04524615621535227
-0.003778664204098443,0.04471953929127936
-0.003778494204098443,0.04468662573352486
-0.003778324204098443,0.04409418169394384
-0.003778154204098444,0.04294220717253746
-0.003777984204098443,0.04208645467091383
-0.003777814204098443,0.04155983774684188
-0.003777644204098443,0.04106613438052351
-0.003777474204098443,0.0401116412056431
-0.003777304204098443,0.03902549379974295
-0.003777134204098444,0.03830139552914336
-0.003776964204098443,0.0376102108162937
-0.003776794204098443,0.03688611254569477
-0.003776624204098443,0.03622784139060362
-0.003776454204098443,0.03622784139060362
-0.003776284204098443,0.03560248379326817
-0.003776114204098444,0.03533917533123154
-0.003775944204098443,0.03576705158203845
-0.003775774204098443,0.03501003975368501
-0.003775604204098443,0.034713817733894
-0.003775434204098443,0.03392389234778606
-0.003775264204098443,0.03359475677023965
-0.003775094204098444,0.03336436186595799
-0.003774924204098443,0.03280483138412758
-0.003774754204098443,0.03165285686272018
-0.003774584204098443,0.0310274992653836
-0.003774414204098443,0.03053379589906614
-0.003774244204098443,0.0298096976284663
-0.003774074204098444,0.02901977224235849
-0.003773904204098443,0.02836150108726429
-0.003773734204098443,0.0282627604140008
-0.003773564204098443,0.02707787233483674
-0.003773394204098443,0.02632086050648331
-0.003773224204098443,0.02618920627546394
-0.003773054204098444,0.02582715714016489
-0.003772884204098444,0.02487266396528489
-0.003772714204098443,0.02582715714016358
-0.003772544204098443,0.02470809617650863
-0.003772374204098443,0.02437896059896366
-0.003772204204098443,0.02437896059896306
-0.003772034204098444,0.02385234367489206
-0.003771864204098444,0.02349029453959134
-0.003771694204098443,0.02187753020961672
-0.003771524204098443,0.02200918444063495
-0.003771354204098443,0.02128508617003601
-0.003771184204098443,0.02105469126575321
-0.003771014204098443,0.02102177770799836
-0.003770844204098444,0.02033059299515505
-0.003770674204098443,0.020593901457189
-0.003770504204098443,0.020593901457189
-0.003770334204098443,0.02098886415024296
-0.003770164204098443,0.02128508617003416
-0.003769994204098443,0.02227249290266961
-0.003769824204098444,0.02223957934491697
-0.003769654204098443,0.02260162848021698
-0.003769484204098443,0.02286493694225343
-0.003769314204098443,0.02270036915348065
-0.003769144204098443,0.0221408386716542
-0.003768974204098443,0.02227249290267117
-0.003768804204098444,0.02158130818982822
-0.003768634204098443,0.02082429636147089
-0.003768464204098443,0.02052807434167988
-0.003768294204098443,0.01954066760904317
-0.003768124204098443,0.01898113712721671
-0.003767954204098443,0.01796081683682628
-0.003767784204098444,0.01730254568173568
-0.003767614204098443,0.01647970673786822
-0.003767444204098443,0.01585434914053277
-0.003767274204098443,0.01522899154319619
-0.003767104204098443,0.01457072038810624
-0.003766934204098443,0.01424158481056007
-0.003766764204098444,0.01404410346403285
-0.003766594204098443,0.01401118990627799
-0.003766424204098443,0.01424158481055947
-0.003766254204098443,0.01430741192606859
-0.003766084204098443,0.01424158481055959
-0.003765914204098443,0.01404410346403249
-0.003765744204098444,0.01397827634852325
-0.003765574204098443,0.01401118990627769
-0.003765404204098443,0.01407701702178669
-0.003765234204098443,0.013682054328732
-0.003765064204098443,0.01384662211750449
-0.003764894204098443,0.01384662211750479
-0.003764724204098444,0.0136820543287326
-0.003764554204098443,0.01341874586669555
-0.003764384204098443,0.01341874586669555
-0.003764214204098443,0.0134516594244501
-0.003764044204098443,0.01305669673139614
-0.003763874204098443,0.01335291875118589
-0.003763704204098444,0.01325417807792312
-0.003763534204098443,0.01289212894261946
-0.003763364204098443,0.01114771038163111
-0.003763194204098443,0.0127604747116044
-0.003763024204098443,0.01355040009771234
-0.003762854204098443,0.01348457298220478
-0.003762684204098444,0.01364914077097685
-0.003762514204098444,0.01341874586669638
-0.003762344204098443,0.0132212645201682
-0.003762174204098443,0.01315543740465909
-0.003762004204098443,0.01253007980732364
-0.003761834204098443,0.0113781052859151
-0.003761664204098444,0.0116414137479485
-0.003761494204098444,0.01065400701531634
-0.003761324204098443,0.01091731547734921
-0.003761154204098443,0.01101605615061288
-0.003760984204098443,0.01118062393938536
-0.003760814204098443,0.01141101884366714
-0.003760644204098443,0.01108188326612319
-0.003760474204098444,0.01104896970836755
-0.003760304204098443,0.01187180865223136
-0.003760134204098443,0.01190472220998592
-0.003759964204098443,0.01276047471160285
-0.003759794204098443,0.01289212894262239
-0.003759624204098443,0.01295795605813163
-0.003759454204098444,0.01332000519343056
-0.003759284204098443,0.01295795605813175
-0.003759114204098443,0.01325417807792276
-0.003758944204098443,0.01262882048058731
-0.003758774204098443,0.01206928999875972
-0.003758604204098443,0.01147684595917775
-0.003758434204098444,0.01118062393938674
-0.003758264204098443,0.01055526634204908
-0.003758094204098443,0.009995735860221606
-0.003757924204098443,0.009436205378394135
-0.003757754204098443,0.009205810474112655
-0.003757584204098443,0.008646279992285783
-0.003757414204098444,0.008712107107793641
-0.003757244204098443,0.008382971530248548
-0.003757074204098443,0.008514625761266537
-0.003756904204098443,0.008942502012075779
-0.003756734204098443,0.008284230856985833
-0.003756564204098443,0.00848171220351162
-0.003756394204098444,0.008481712203511979
-0.003756224204098443,0.009271637589621708
-0.003756054204098443,0.009469118936148692
-0.003755884204098443,0.009567859609412364
-0.003755714204098443,0.0102919578800113
-0.003755544204098443,0.01022613076450363
-0.003755374204098444,0.01045652566878457
-0.003755204204098443,0.01095022903510298
-0.003755034204098443,0.01052235278429452
-0.003754864204098443,0.01065400701531275
-0.003754694204098443,0.01052235278429476
-0.003754524204098443,0.01022613076450405
-0.003754354204098444,0.009995735860222444
-0.003754184204098443,0.009403291820642392
-0.003754014204098443,0.01095022903510376
-0.003753844204098443,0.007198083451084253
-0.003753674204098443,0.008514625761264143
-0.003753504204098443,0.008152576625967068
-0.003753334204098444,0.008218403741475283
-0.003753164204098443,0.007823441048421077
-0.003752994204098443,0.007955095279439066
-0.003752824204098443,0.007823441048420837
-0.003752654204098443,0.007362651239857875
-0.003752484204098443,0.007198083451084552
-0.003752314204098444,0.007625959701891938
-0.003752144204098444,0.007395564797612433
-0.003751974204098443,0.008350057972493751
-0.003751804204098443,0.008580452876775651
-0.003751634204098443,0.009008329127584114
-0.003751464204098443,0.009469118936147854
-0.003751294204098444,0.009304551147376506
-0.003751124204098444,0.008843761338813783
-0.003750954204098443,0.009139983358603122
-0.003750784204098443,0.008909588454321223
-0.003750614204098443,0.009337464705129686
-0.003750444204098443,0.009107069800848985
-0.003750274204098443,0.008810847781058628
-0.003750104204098444,0.008942502012075301
-0.003749934204098443,0.009008329127584893
-0.003749764204098443,0.008942502012075779
-0.003749594204098443,0.009074156243093767
-0.003749424204098443,0.008745020665549035
-0.003749254204098443,0.008481712203512458
-0.003749084204098444,0.008284230856985354
-0.003748914204098443,0.008185490183720966
-0.003748744204098443,0.008350057972493751
-0.003748574204098443,0.007922181721685287
-0.003748404204098443,0.009205810474109901
-0.003748234204098443,0.006210676718452986
-0.003748064204098444,0.006836034315781849
-0.003747894204098443,0.007724700375157166
-0.003747724204098443,0.006836034315784124
-0.003747554204098443,0.006408158064974882
-0.003747384204098443,0.006046108929675412
-0.003747214204098443,0.006013195371920256
-0.003747044204098444,0.005552405563358074
-0.003746874204098443,0.005124529312547154
-0.003746704204098443,0.005420751332338168
-0.003746534204098443,0.00505870219703804
-0.003746364204098443,0.004927047966020051
-0.003746194204098443,0.005256183543564785
-0.003746024204098444,0.004959961523775446
-0.003745854204098443,0.005749886909881764
-0.003745684204098443,0.004663739503983355
-0.003745514204098443,0.005684059794374625
-0.003745344204098443,0.005716973352129122
-0.003745174204098443,0.006210676718446641
-0.003745004204098444,0.006177763160693101
-0.003744834204098443,0.006144849602938724
-0.003744664204098443,0.00630941739171121
-0.003744494204098443,0.005322010659074497
-0.003744324204098443,0.006638552969254387
-0.003744154204098443,0.007527219028628206
-0.003743984204098444,0.007724700375156448
-0.003743814204098443,0.008317144414737935
-0.003743644204098443,0.007625959701893495
-0.003743474204098443,0.008152576625966409
-0.003743304204098443,0.008185490183720905
-0.003743134204098443,0.008350057972493451
-0.003742964204098444,0.008382971530248189
-0.003742794204098443,0.008020922394949018
-0.003742624204098443,0.008481712203511979
-0.003742454204098443,0.007988008837193623
-0.003742284204098443,0.007625959701894153
-0.003742114204098443,0.007362651239857516
-0.003741944204098444,0.0073297376821026
-0.003741774204098444,0.007000602104558107
-0.003741604204098443,0.006737293642520453
-0.003741434204098443,0.006506898738238553
-0.003741264204098443,0.005914454698657602
-0.003741094204098443,0.00548657844784806
-0.003740924204098444,0.005256183543566221
-0.003740754204098444,0.005354924216828695
-0.003740584204098443,0.004762480177247026
-0.003740414204098443,0.004729566619492469
-0.003740244204098443,0.004729566619492469
-0.003740074204098443,0.004367517484193
-0.003739904204098443,0.004532085272964528
-0.003739734204098444,0.004170036137666316
-0.003739564204098443,0.00403838190664677
-0.003739394204098443,0.00426877681092867
-0.003739224204098443,0.003676332771347719
-0.003739054204098443,0.004137122579909603
-0.003738884204098443,0.004235863253173933
-0.003738714204098444,0.004433344599700737
-0.003738544204098443,0.003939641233383098
-0.003738374204098443,0.003610505655837527
-0.003738204204098443,0.003544678540328533
-0.003738034204098443,0.003413024309310424
-0.003737864204098443,0.003478851424819179
-0.003737694204098444,0.002886407385239426
-0.003737524204098443,0.002688926038709928
-0.003737354204098443,0.002491444692182586
-0.003737184204098443,0.002392704018918914
-0.003737014204098443,0.002524358249936904
-0.003736844204098443,0.002458531134428148
-0.003736674204098444,0.003281370078288963
-0.003736504204098443,0.002886407385237271
-0.003736334204098443,0.004202949695419555
-0.003736164204098443,0.004894134408265255
-0.003735994204098443,0.005848627583145674
-0.003735824204098443,0.0059802818141654
-0.003735654204098444,0.006934774989044323
-0.003735484204098443,0.007395564797613212
-0.003735314204098443,0.008284230856984636
-0.003735144204098443,0.008086749510457293
-0.003734974204098443,0.01121353749713453
-0.003734804204098443,0.009172896916361391
-0.003734634204098444,0.009304551147375429
-0.003734464204098443,0.009205810474112116
-0.003734294204098443,0.009139983358603122
-0.003734124204098443,0.009172896916357679
-0.003733954204098443,0.008909588454321701
-0.003733784204098443,0.008646279992285243
-0.003733614204098444,0.007625959701897207
-0.003733444204098443,0.007428478355366272
-0.003733274204098443,0.007494305470875266
-0.003733104204098443,0.006901861431293239
-0.003732934204098443,0.006243590276203293
-0.003732764204098443,0.006013195371920615
-0.003732594204098444,0.005552405563358074
-0.003732424204098443,0.005190356428056029
-0.003732254204098443,0.00505870219703804
-0.003732084204098443,0.004367517484192341
-0.003731914204098443,0.004466258157455833
-0.003731744204098443,0.004959961523773471
-0.003731574204098444,0.004959961523774369
-0.003731404204098444,0.005420751332336491
-0.003731234204098443,0.006276503833956653
-0.003731064204098443,0.00653981229599311
-0.003730894204098443,0.006934774989047077
-0.003730724204098443,0.007625959701892237
-0.003730554204098444,0.008448798645754428
-0.003730384204098444,0.009205810474109481
-0.003730214204098443,0.009666600282676035
-0.003730044204098443,0.009864081629203377
-0.003729874204098443,0.009567859609412904
-0.003729704204098443,0.009304551147376387
-0.003729534204098444,0.009205810474112595
-0.003729364204098444,0.009139983358603361
-0.003729194204098443,0.008613366434530208
-0.003729024204098443,0.008679193550039321
-0.003728854204098443,0.008185490183721864
-0.003728684204098443,0.008679193550038423
-0.003728514204098443,0.008119663068213885
-0.003728344204098444,0.007823441048421914
-0.003728174204098443,0.007593046144138938
-0.003728004204098443,0.006934774989047795
-0.003727834204098443,0.007263910566592768
-0.003727664204098443,0.006605639411503422
-0.003727494204098443,0.00736265123985566
-0.003727324204098444,0.006243590276206168
-0.003727154204098443,0.006803120758029567
-0.003726984204098443,0.006506898738238553
-0.003726814204098443,0.005354924216829054
-0.003726644204098443,0.004894134408266092
-0.003726474204098443,0.004597912388474779
-0.003726304204098444,0.004597912388474241
-0.003726134204098443,0.004564998830719684
-0.003725964204098443,0.005025788639283483
-0.003725794204098443,0.003939641233383098
-0.003725624204098443,0.002228136230149242
-0.003725454204098443,0.005058702197032892
-0.003725284204098444,0.003972554791141608
-0.003725114204098443,0.003873814117874942
-0.003724944204098443,0.004400431041946898
-0.003724774204098443,0.004597912388474241
-0.003724604204098443,0.004959961523773711
-0.003724434204098443,0.004597912388474899
-0.003724264204098444,0.005091615754790801
-0.003724094204098443,0.005815714025392434
-0.003723924204098443,0.005585319121110954
-0.003723754204098443,0.005947368256411082
-0.003723584204098443,0.00621067671844706
-0.003723414204098443,0.006177763160693042
-0.003723244204098444,0.006111936045184107
-0.003723074204098443,0.006111936045184047
-0.003722904204098443,0.006210676718447538
-0.003722734204098443,0.005980281814165639
-0.003722564204098443,0.005815714025393152
-0.003722394204098443,0.005453664890093384
-0.003722224204098444,0.005585319121110475
-0.003722054204098443,0.005322010659075335
-0.003721884204098443,0.005782800467638296
-0.003721714204098443,0.00574988690988374
-0.003721544204098443,0.005684059794374745
-0.003721374204098443,0.005585319121111133
-0.003721204204098444,0.005552405563356517
-0.003721034204098443,0.005124529312547633
-0.003720864204098443,0.005387837774583611
-0.003720694204098443,0.005354924216829054
-0.003720524204098443,0.004532085272966623
-0.003720354204098443,0.004433344599701634
-0.003720184204098444,0.004466258157455893
-0.003720014204098444,0.00423586325317495
-0.003719844204098443,0.004433344599701455
-0.003719674204098443,0.004729566619492469
