Analysis/New Tests_CMB/wrd01_d2s01_new/cmb08_ch04.csv

#Digilent WaveForms Oscilloscope Acquisition
#Device Name: ADP3450
#Serial Number: SN:210018B9D9B0
#Date Time: 2024-08-14 17:25:57.867.417.390
#Sample rate: 5.88235e+06Hz
#Samples: 32768
#Trigger: Source: Channel 3 Type: Edge Condition: Rising Level: 60 mV Hyst.: Auto HoldOff: 0 s
#Channel 3: Range: 100 mV/div Offset: 0 V Attenuation: 1 X Coupling: DC Bandwidth: 0 Hz Sample Mode: Average

Time (s),Channel 3 (V)
-0.003798415070832014,0.21076843816302
-0.003798245070832014,0.2236047256872739
-0.003798075070832014,0.2348611624393353
-0.003797905070832015,0.2448339704389503
-0.003797735070832014,0.2526673971845831
-0.003797565070832014,0.2592501087354826
-0.003797395070832014,0.2639567474943842
-0.003797225070832014,0.2676101524051334
-0.003797055070832014,0.2699141014479549
-0.003796885070832015,0.2708027675073289
-0.003796715070832014,0.27086859462284
-0.003796545070832014,0.2701774099099956
-0.003796375070832014,0.2686304726955314
-0.003796205070832014,0.2667214863457705
-0.003796035070832014,0.2639238339366348
-0.003795865070832015,0.261389489989538
-0.003795695070832014,0.2577689986365217
-0.003795525070832014,0.2545763835343355
-0.003795355070832014,0.2501659667952248
-0.003795185070832014,0.2469404381352841
-0.003795015070832014,0.2423654536074031
-0.003794845070832015,0.237790469079528
-0.003794675070832015,0.2342358048420321
-0.003794505070832014,0.2296937338718903
-0.003794335070832014,0.2253491442482888
-0.003794165070832014,0.2224856647236475
-0.003793995070832014,0.2185031242353481
-0.003793825070832015,0.2144876701892995
-0.003793655070832015,0.2104063890277347
-0.003793485070832014,0.2071150332522641
-0.003793315070832014,0.2033628876682446
-0.003793145070832014,0.2004335810280944
-0.003792975070832014,0.1971751388103938
-0.003792805070832015,0.1935875610151542
-0.003792635070832015,0.1906253408172418
-0.003792465070832014,0.1873339850417753
-0.003792295070832014,0.1839109750353013
-0.003792125070832014,0.1813437175304506
-0.003791955070832014,0.1774270041576607
-0.003791785070832015,0.1745306110752579
-0.003791615070832015,0.1711734281843
-0.003791445070832014,0.1682770351018867
-0.003791275070832014,0.1648211115376582
-0.003791105070832014,0.1619905455707715
-0.003790935070832014,0.1586004491220531
-0.003790765070832014,0.1556382289241422
-0.003790595070832015,0.1527747493995007
-0.003790425070832014,0.1501416647791258
-0.003790255070832014,0.1471136174657065
-0.003790085070832014,0.1444805328453419
-0.003789915070832014,0.1420449295715092
-0.003789745070832014,0.1394118449511449
-0.003789575070832015,0.1369433281195574
-0.003789405070832014,0.1343760706146929
-0.003789235070832014,0.1319075537831011
-0.003789065070832014,0.1299985674333368
-0.003788895070832014,0.1282541488723485
-0.003788725070832014,0.125719804925249
-0.003788555070832015,0.1234816829979427
-0.003788385070832014,0.1218030915524484
-0.003788215070832014,0.1197624509716696
-0.003788045070832014,0.1178863781796598
-0.003787875070832014,0.116043218945408
-0.003787705070832014,0.1140684054801348
-0.003787535070832015,0.1123898140346549
-0.003787365070832014,0.1105466548003896
-0.003787195070832014,0.1083414464308382
-0.003787025070832014,0.107024904120656
-0.003786855070832014,0.1054779669061946
-0.003786685070832014,0.1039310296917304
-0.003786515070832015,0.1020549568997247
-0.003786345070832014,0.101067550167079
-0.003786175070832014,0.09988266208791707
-0.003786005070832014,0.0982369842001892
-0.003785835070832014,0.0972166639097998
-0.003785665070832014,0.09632799785042651
-0.003785495070832015,0.09481397419372077
-0.003785325070832014,0.09254293870864837
-0.003785155070832014,0.09119348284071399
-0.003784985070832014,0.08905410158666777
-0.003784815070832014,0.08750716437220642
-0.003784645070832014,0.08546652379142476
-0.003784475070832015,0.08306383407534712
-0.003784305070832015,0.08151689686087984
-0.003784135070832014,0.07911420714479153
-0.003783965070832014,0.07717230723727267
-0.003783795070832014,0.07555954290730228
-0.003783625070832014,0.07368347011529303
-0.003783455070832015,0.07174157020777781
-0.003783285070832015,0.07078707703289205
-0.003783115070832014,0.06927305337617895
-0.003782945070832014,0.06848312799006959
-0.003782775070832014,0.06756154837294366
-0.003782605070832014,0.0661133518317441
-0.003782435070832015,0.06529051288788054
-0.003782265070832015,0.06450058750177105
-0.003782095070832014,0.0636448350001497
-0.003781925070832014,0.06334861298035868
-0.003781755070832014,0.06295365028730471
-0.003781585070832014,0.06269034182526802
-0.003781415070832015,0.06143962663059664
-0.003781245070832015,0.06140671307283992
-0.003781075070832014,0.06022182499367575
-0.003780905070832014,0.0597281216273574
-0.003780735070832014,0.05804953018187804
-0.003780565070832014,0.05686464210271309
-0.003780395070832014,0.0559759760433395
-0.003780225070832015,0.0550214828684592
-0.003780055070832014,0.05436321171336458
-0.003779885070832014,0.05337580498072787
-0.003779715070832014,0.05291501517216408
-0.003779545070832014,0.05219091690156514
-0.003779375070832014,0.05133516439994689
-0.003779205070832015,0.05034775766731221
-0.003779035070832014,0.04952491872344469
-0.003778865070832014,0.04847168487529886
-0.003778695070832014,0.04810963573999873
-0.003778525070832014,0.04676017987206435
-0.003778355070832014,0.04567403246616349
-0.003778185070832015,0.04435749015598402
-0.003778015070832014,0.04346882409660367
-0.003777845070832014,0.04208645467091478
-0.003777675070832014,0.04152692418908732
-0.003777505070832014,0.04100030726501536
-0.003777335070832014,0.04044077678318795
-0.003777165070832015,0.04040786322543249
-0.003776995070832014,0.04040786322543112
-0.003776825070832014,0.03971667851258667
-0.003776655070832014,0.03942045649279566
-0.003776485070832014,0.03991415985911312
-0.003776315070832014,0.03938754293504206
-0.003776145070832015,0.03866344466444348
-0.003775975070832014,0.03899258024198576
-0.003775805070832014,0.03863053110668629
-0.003775635070832014,0.03859761754893173
-0.003775465070832014,0.03872927177994972
-0.003775295070832014,0.03724816168099759
-0.003775125070832015,0.03731398879650377
-0.003774955070832014,0.03662280408365735
-0.003774785070832014,0.0360961871595854
-0.003774615070832014,0.03537208888898514
-0.003774445070832014,0.03501003975368567
-0.003774275070832014,0.03464799061838554
-0.003774105070832015,0.03425302792533163
-0.003773935070832014,0.03326562119269288
-0.003773765070832014,0.03293648561514791
-0.003773595070832014,0.03244278224882955
-0.003773425070832014,0.0318832517670031
-0.003773255070832014,0.03106041282313965
-0.003773085070832015,0.03033631455254053
-0.003772915070832015,0.02964512983969472
-0.003772745070832014,0.02911851291561928
-0.003772575070832014,0.02878937733807371
-0.003772405070832014,0.02819693329849277
-0.003772235070832014,0.02796653839421021
-0.003772065070832015,0.02776905704768316
-0.003771895070832015,0.02734118079687476
-0.003771725070832014,0.02638668762199104
-0.003771555070832014,0.02586007069791813
-0.003771385070832014,0.02579424358240914
-0.003771215070832014,0.02530054021609156
-0.003771045070832015,0.02500431819630073
-0.003770875070832015,0.02454352838773752
-0.003770705070832014,0.02428021992569939
-0.003770535070832014,0.02395108434815382
-0.003770365070832014,0.02388525723264483
-0.003770195070832014,0.02358903521285423
-0.003770025070832014,0.02355612165509919
-0.003769855070832015,0.02309533184653701
-0.003769685070832014,0.02289785050000799
-0.003769515070832014,0.02279910982674432
-0.003769345070832014,0.02227249290267141
-0.003769175070832014,0.0223712335759349
-0.003769005070832014,0.0221079251138991
-0.003768835070832015,0.02197627088288087
-0.003768665070832014,0.02171296242084393
-0.003768495070832014,0.02194335732512584
-0.003768325070832014,0.02168004886308938
-0.003768155070832014,0.02115343193901742
-0.003767985070832014,0.02121925905452546
-0.003767815070832015,0.02092303703473564
-0.003767645070832014,0.02036350655290614
-0.003767475070832014,0.01983688962883418
-0.003767305070832014,0.02033059299515254
-0.003767135070832014,0.01931027270476312
-0.003766965070832014,0.01907987780047979
-0.003766795070832015,0.01940901337802374
-0.003766625070832014,0.01914570491598866
-0.003766455070832014,0.01924444558925215
-0.003766285070832014,0.01960649472455228
-0.003766115070832014,0.01957358116679778
-0.003765945070832014,0.01786207616356387
-0.003765775070832015,0.01822412529885957
-0.003765605070832014,0.01832286597212336
-0.003765435070832014,0.01766459481703341
-0.003765265070832014,0.01677592875766037
-0.003765095070832014,0.01628222539134291
-0.003764925070832014,0.01575560846727006
-0.003764755070832015,0.01539355933197029
-0.003764585070832014,0.01509733731217718
-0.003764415070832014,0.01466946106136872
-0.003764245070832014,0.0143732390415777
-0.003764075070832014,0.01417575769505072
-0.003763905070832014,0.01394536279076888
-0.003763735070832015,0.0134516594244519
-0.003763565070832014,0.01345165942444927
-0.003763395070832014,0.0129908696158863
-0.003763225070832014,0.01292504250037719
-0.003763055070832014,0.01305669673139518
-0.003762885070832014,0.01279338826935944
-0.003762715070832015,0.01285921538486784
-0.003762545070832015,0.01315543740465801
-0.003762375070832014,0.01358331365546833
-0.003762205070832014,0.0139124492330139
-0.003762035070832014,0.0139124492330139
-0.003761865070832014,0.01447197971484035
-0.003761695070832015,0.01437323904157806
-0.003761525070832015,0.01427449836831439
-0.003761355070832014,0.01466946106136872
-0.003761185070832014,0.01407701702178669
-0.003761015070832014,0.01328709163567875
-0.003760845070832014,0.01355040009771329
-0.003760675070832015,0.01308961028915165
-0.003760505070832015,0.01282630182711448
-0.003760335070832014,0.0129908696158863
-0.003760165070832014,0.01266173403834073
-0.003759995070832014,0.01269464759609523
-0.003759825070832014,0.01302378317364026
-0.003759655070832015,0.01269464759609589
-0.003759485070832015,0.01318835096241185
-0.003759315070832014,0.01292504250037719
-0.003759145070832014,0.01335291875118643
-0.003758975070832014,0.01341874586669543
-0.003758805070832014,0.0127604747116056
-0.003758635070832014,0.01328709163567636
-0.003758465070832015,0.01299086961588738
-0.003758295070832014,0.01305669673139542
-0.003758125070832014,0.01289212894262263
-0.003757955070832014,0.01338583230894099
-0.003757785070832014,0.01299086961588702
-0.003757615070832014,0.01325417807792228
-0.003757445070832015,0.01361622721322157
-0.003757275070832014,0.01345165942445046
-0.003757105070832014,0.01364914077097745
-0.003756935070832014,0.01374788144424112
-0.003756765070832014,0.01338583230894165
-0.003756595070832014,0.01460363394585739
-0.003756425070832015,0.01417575769505191
-0.003756255070832014,0.01440615259933196
-0.003756085070832014,0.01424158481055947
-0.003755915070832014,0.01434032548382314
-0.003755745070832014,0.01387953567526018
-0.003755575070832014,0.01417575769504982
-0.003755405070832015,0.01410993057954148
-0.003755235070832014,0.01394536279076798
-0.003755065070832014,0.013682054328732
-0.003754895070832014,0.01381370855975023
-0.003754725070832014,0.01335291875118727
-0.003754555070832014,0.01289212894262347
-0.003754385070832015,0.01259590692283269
-0.003754215070832014,0.0117072408634575
-0.003754045070832014,0.01111479682387655
-0.003753875070832014,0.01048943922653996
-0.003753705070832014,0.009699513840432029
-0.003753535070832014,0.008777934223304669
-0.003753365070832015,0.008712107107794119
-0.003753195070832014,0.008382971530248369
-0.003753025070832014,0.008415885088002865
-0.003752855070832014,0.008185490183720966
-0.003752685070832014,0.008382971530247949
-0.003752515070832014,0.008646279992284286
-0.003752345070832015,0.009139983358601327
-0.003752175070832015,0.009896995186955181
-0.003752005070832014,0.01002864941797616
-0.003751835070832014,0.01039069855327629
-0.003751665070832014,0.01088440191959375
-0.003751495070832014,0.01114771038163063
-0.003751325070832015,0.01226677134528198
-0.003751155070832015,0.01253007980732155
-0.003750985070832014,0.01262882048058617
-0.003750815070832014,0.01285921538486808
-0.003750645070832014,0.01308961028914955
-0.003750475070832014,0.01246425269181453
-0.003750305070832015,0.01279338826935776
-0.003750135070832015,0.01243133913406015
-0.003749965070832014,0.01236551201854972
-0.003749795070832014,0.01239842557630427
-0.003749625070832014,0.0121022035565138
-0.003749455070832014,0.01177306797896829
-0.003749285070832015,0.01183889509447668
-0.003749115070832015,0.01131227817040581
-0.003748945070832014,0.01127936461264933
-0.003748775070832014,0.01101605615061288
-0.003748605070832014,0.01131227817040335
-0.003748435070832014,0.0111806239393859
-0.003748265070832014,0.01150975951693064
-0.003748095070832015,0.01114771038163242
-0.003747925070832014,0.01121353749714022
-0.003747755070832014,0.01118062393938566
-0.003747585070832014,0.01121353749714022
-0.003747415070832014,0.01101605615061324
-0.003747245070832014,0.01124645105489436
-0.003747075070832015,0.01137810528591253
-0.003746905070832014,0.01141101884366756
-0.003746735070832014,0.01065400701531275
-0.003746565070832014,0.01009447653348528
-0.003746395070832014,0.01197054932549162
-0.003746225070832014,0.01009447653348869
-0.003746055070832015,0.01071983413081959
-0.003745885070832014,0.01101605615061222
-0.003745715070832014,0.01065400701531275
-0.003745545070832014,0.009995735860221606
-0.003745375070832014,0.01032487143776658
-0.003745205070832014,0.009436205378395752
-0.003745035070832015,0.009205810474113073
-0.003744865070832014,0.008415885088001967
-0.003744695070832014,0.007922181721684508
-0.003744525070832014,0.007428478355366152
-0.003744355070832014,0.00709934277782118
-0.003744185070832014,0.007066429220066083
-0.003744015070832015,0.006901861431293837
-0.003743845070832014,0.006836034315784782
-0.003743675070832014,0.007198083451084253
-0.003743505070832014,0.007395564797611595
-0.003743335070832014,0.007494305470875087
-0.003743165070832014,0.007658873259647752
-0.003742995070832015,0.007889268163929113
-0.003742825070832014,0.008053835952702437
-0.003742655070832014,0.007889268163929951
-0.003742485070832014,0.008086749510457293
-0.003742315070832014,0.007988008837193803
-0.003742145070832014,0.008086749510457113
-0.003741975070832015,0.007757613932912921
-0.003741805070832015,0.007724700375157286
-0.003741635070832014,0.007658873259648051
-0.003741465070832014,0.007395564797611595
-0.003741295070832014,0.007889268163929052
-0.003741125070832014,0.007823441048420957
-0.003740955070832015,0.009041242685335019
-0.003740785070832015,0.0091728969163572
-0.003740615070832014,0.01032487143776718
-0.003740445070832014,0.01058817989980363
-0.003740275070832014,0.01108188326612109
-0.003740105070832014,0.01127936461264898
-0.003739935070832015,0.01085148836184165
-0.003739765070832015,0.01071983413082234
-0.003739595070832014,0.01144393240142212
-0.003739425070832014,0.01071983413082186
-0.003739255070832014,0.0103248714377679
-0.003739085070832014,0.01071983413082114
-0.003738915070832015,0.009600773167168956
-0.003738745070832015,0.009205810474113672
-0.003738575070832014,0.00871210710779388
-0.003738405070832014,0.007724700375157166
-0.003738235070832014,0.007625959701893674
-0.003738065070832014,0.007395564797612014
-0.003737895070832014,0.007658873259647573
-0.003737725070832015,0.007527219028630302
-0.003737555070832014,0.008251317299230079
-0.003737385070832014,0.007823441048420837
-0.003737215070832014,0.008086749510457293
-0.003737045070832014,0.008580452876774752
-0.003736875070832014,0.009403291820638081
-0.003736705070832015,0.009436205378394015
-0.003736535070832014,0.009765340955939707
-0.003736365070832014,0.01025904432225806
-0.003736195070832014,0.01029195788001262
-0.003736025070832014,0.01078566124633008
-0.003735855070832014,0.01065400701531299
-0.003735685070832015,0.01088440191959381
-0.003735515070832014,0.01121353749714058
-0.003735345070832014,0.01141101884366756
-0.003735175070832014,0.01233259846079516
-0.003735005070832014,0.01289212894262161
-0.003734835070832014,0.01355040009771258
-0.003734665070832015,0.01384662211750371
-0.003734495070832014,0.01401118990627698
-0.003734325070832014,0.013682054328732
-0.003734155070832014,0.01401118990627757
-0.003733985070832014,0.01378079500199609
-0.003733815070832014,0.01322126452016922
-0.003733645070832015,0.01312252384690489
-0.003733475070832014,0.01249716624956735
-0.003733305070832014,0.01216803067202238
-0.003733135070832014,0.01170724086345858
-0.003732965070832014,0.01121353749714112
-0.003732795070832014,0.01065400701531377
-0.003732625070832015,0.009699513840434066
-0.003732455070832014,0.008975415569828719
-0.003732285070832014,0.008086749510457293
-0.003732115070832014,0.007362651239857037
-0.003731945070832014,0.007033515662312065
-0.003731775070832014,0.006572725853748505
-0.003731605070832015,0.006704380084765417
-0.003731435070832015,0.006572725853748146
-0.003731265070832014,0.00630941739171121
-0.003731095070832014,0.006671466527011338
-0.003730925070832014,0.006605639411502344
-0.003730755070832014,0.006572725853747727
-0.003730585070832015,0.006572725853747667
-0.003730415070832015,0.006671466527010979
-0.003730245070832014,0.007296824124347924
-0.003730075070832014,0.007527219028629823
-0.003729905070832014,0.007823441048420298
-0.003729735070832014,0.007724700375157345
-0.003729565070832015,0.007955095279438228
-0.003729395070832015,0.008350057972492315
-0.003729225070832014,0.008481712203511979
-0.003729055070832014,0.008284230856984636
-0.003728885070832014,0.008514625761266117
-0.003728715070832014,0.008777934223302515
-0.003728545070832015,0.008547539319021932
-0.003728375070832015,0.009041242685337654
-0.003728205070832014,0.00904124268533945
-0.003728035070832014,0.01002864941797616
-0.003727865070832014,0.01042361211103013
-0.003727695070832014,0.01065400701531233
-0.003727525070832014,0.01131227817040269
-0.003727355070832015,0.01183889509447489
-0.003727185070832014,0.01170724086345858
-0.003727015070832014,0.01203637644100415
-0.003726845070832014,0.01269464759609529
-0.003726675070832014,0.01315543740465825
-0.003726505070832014,0.01282630182711412
-0.003726335070832015,0.0132541780779212
-0.003726165070832014,0.0129908696158863
-0.003725995070832014,0.01302378317364086
-0.003725825070832014,0.01315543740465909
-0.003725655070832014,0.01259590692283264
-0.003725485070832014,0.01243133913405913
-0.003725315070832015,0.01220094422977777
-0.003725145070832014,0.01183889509447561
-0.003724975070832014,0.01118062393938566
-0.003724805070832014,0.01012739009123984
-0.003724635070832014,0.009633686724922376
-0.003724465070832014,0.00877793422330455
-0.003724295070832015,0.008712107107794119
-0.003724125070832014,0.008317144414738475
-0.003723955070832014,0.007922181721684508
-0.003723785070832014,0.007395564797611595
-0.003723615070832014,0.007000602104557628
-0.003723445070832014,0.00686894787353892
-0.003723275070832015,0.006836034315784244
-0.003723105070832014,0.006671466527011219
-0.003722935070832014,0.006605639411502225
-0.003722765070832014,0.006934774989047795
-0.003722595070832014,0.006704380084766315
-0.003722425070832014,0.006934774989047376
-0.003722255070832015,0.007033515662311108
-0.003722085070832014,0.007296824124348044
-0.003721915070832014,0.007362651239857037
-0.003721745070832014,0.007263910566593366
-0.003721575070832014,0.007625959701892836
-0.003721405070832014,0.007724700375156986
-0.003721235070832015,0.008284230856982601
-0.003721065070832014,0.009370378262885322
-0.003720895070832014,0.009534946051657807
-0.003720725070832014,0.01016030364899439
-0.003720555070832014,0.01022613076450339
-0.003720385070832014,0.0102919578800125
-0.003720215070832015,0.01025904432225818
-0.003720045070832015,0.0102919578800125
-0.003719875070832014,0.01055526634204908
-0.003719705070832014,0.01078566124633098
-0.003719535070832014,0.01078566124633098
-0.003719365070832014,0.01075274768857648
