Analysis/New Tests_CMB/wrd01_d2s01_new/cmb07_ch11.csv

#Digilent WaveForms Oscilloscope Acquisition
#Device Name: ADP3450
#Serial Number: SN:210018B9D9B0
#Date Time: 2024-08-15 12:23:58.799.727.510
#Sample rate: 5.88235e+06Hz
#Samples: 32768
#Trigger: Source: Channel 3 Type: Edge Condition: Rising Level: 40 mV Hyst.: Auto HoldOff: 0 s
#Channel 3: Range: 100 mV/div Offset: 0 V Attenuation: 1 X Coupling: DC Bandwidth: 0 Hz Sample Mode: Average

Time (s),Channel 3 (V)
-0.003168874476787302,0.0192115320314976
-0.003168704476787302,0.01931027270476037
-0.003168534476787302,0.01881656933844291
-0.003168364476787302,0.01868491510742468
-0.003168194476787302,0.01763168125927814
-0.003168024476787302,0.01723671856622417
-0.003167854476787302,0.01763168125927886
-0.003167684476787302,0.01740128635499653
-0.003167514476787302,0.01717089145071506
-0.003167344476787302,0.01664427452664214
-0.003167174476787302,0.01671010164215012
-0.003167004476787302,0.01608474404481467
-0.003166834476787302,0.01588726269828733
-0.003166664476787302,0.0152948186587062
-0.003166494476787302,0.01578852202502366
-0.003166324476787302,0.01545938644747809
-0.003166154476787301,0.01483402885014138
-0.003165984476787302,0.01476820173463239
-0.003165814476787302,0.01447197971484137
-0.003165644476787301,0.01450489327259527
-0.003165474476787302,0.0141428441372958
-0.003165304476787302,0.01447197971484137
-0.003165134476787302,0.0142086712528054
-0.003164964476787302,0.01430741192606859
-0.003164794476787302,0.01404410346403213
-0.003164624476787302,0.01447197971484059
-0.003164454476787302,0.01407701702178669
-0.003164284476787302,0.01404410346403213
-0.003164114476787302,0.01368205432873266
-0.003163944476787302,0.0129908696158863
-0.003163774476787302,0.01295795605813175
-0.003163604476787302,0.01170724086346085
-0.003163434476787302,0.01200346288324959
-0.003163264476787302,0.0118388950944768
-0.003163094476787302,0.01137810528591384
-0.003162924476787302,0.01085148836184009
-0.003162754476787302,0.01055526634204908
-0.003162584476787302,0.01042361211103109
-0.003162414476787302,0.01022613076450351
-0.003162244476787302,0.01025904432225806
-0.003162074476787302,0.01042361211103055
-0.003161904476787302,0.01065400701531275
-0.003161734476787302,0.01078566124633098
-0.003161564476787302,0.01095022903510346
-0.003161394476787302,0.01157558663244035
-0.003161224476787302,0.01147684595917668
-0.003161054476787302,0.01131227817040419
-0.003160884476787302,0.01147684595917668
-0.003160714476787302,0.01108188326612199
-0.003160544476787302,0.01085148836184009
-0.003160374476787302,0.01042361211103085
-0.003160204476787302,0.00983116807144882
-0.003160034476787302,0.009337464705130465
-0.003159864476787302,0.00950203249390325
-0.003159694476787302,0.008909588454321223
-0.003159524476787302,0.008679193550039321
-0.003159354476787302,0.008481712203512577
-0.003159184476787302,0.00881084778105755
-0.003159014476787302,0.008152576625966409
-0.003158844476787302,0.008382971530247829
-0.003158674476787302,0.00811966306821185
-0.003158504476787302,0.008448798645757422
-0.003158334476787302,0.008646279992285243
-0.003158164476787302,0.008909588454321223
-0.003157994476787302,0.008514625761266537
-0.003157824476787302,0.008415885088002386
-0.003157654476787302,0.008152576625966409
-0.003157484476787302,0.00802092239494818
-0.003157314476787302,0.007889268163929472
-0.003157144476787302,0.007625959701893495
-0.003156974476787302,0.007757613932911723
-0.003156804476787302,0.006473985180483996
-0.003156634476787302,0.006473985180483996
-0.003156464476787302,0.006572725853747667
-0.003156294476787302,0.006276503833956294
-0.003156124476787302,0.00607902248742931
-0.003155954476787302,0.00630941739171121
-0.003155784476787301,0.005684059794375224
-0.003155614476787302,0.006013195371920196
-0.003155444476787302,0.005848627583147411
-0.003155274476787301,0.006046108929675113
-0.003155104476787302,0.006243590276202096
-0.003154934476787302,0.006177763160692982
-0.003154764476787302,0.007132256335573402
-0.003154594476787302,0.007132256335575138
-0.003154424476787302,0.007198083451084253
-0.003154254476787302,0.007560132586383722
-0.003154084476787302,0.00756013258638438
-0.003153914476787302,0.007823441048420837
-0.003153744476787302,0.007658873259648351
-0.003153574476787302,0.007856354606175394
-0.003153404476787302,0.008218403741475522
-0.003153234476787302,0.008415885088002506
-0.003153064476787302,0.008382971530248308
-0.003152894476787302,0.008317144414739193
-0.003152724476787302,0.008020922394948719
-0.003152554476787302,0.008086749510457293
-0.003152384476787302,0.007593046144138938
-0.003152214476787302,0.007362651239857456
-0.003152044476787302,0.007033515662311467
-0.003151874476787302,0.006901861431293239
-0.003151704476787302,0.00663855296925726
-0.003151534476787302,0.006737293642520453
-0.003151364476787302,0.006704380084765896
-0.003151194476787302,0.006638552969256901
-0.003151024476787302,0.006803120758029567
-0.003150854476787302,0.007165169893329695
-0.003150684476787302,0.007527219028629165
-0.003150514476787302,0.00811966306821185
-0.003150344476787302,0.007889268163929951
-0.003150174476787302,0.007757613932911723
-0.003150004476787302,0.008185490183720966
-0.003149834476787302,0.00811966306821185
-0.003149664476787302,0.008777934223302994
-0.003149494476787302,0.008481712203511979
-0.003149324476787302,0.008876674896566664
-0.003149154476787302,0.007428478355366152
-0.003148984476787302,0.009271637589621349
-0.003148814476787302,0.008745020665548437
-0.003148644476787302,0.008777934223302994
-0.003148474476787302,0.00871210710779358
-0.003148304476787302,0.008547539319021094
-0.003148134476787302,0.007889268163929951
-0.003147964476787302,0.008613366434529968
-0.003147794476787302,0.008481712203511979
-0.003147624476787302,0.008185490183720966
-0.003147454476787302,0.008119663068209994
-0.003147284476787302,0.007099342777820581
-0.003147114476787302,0.007625959701893495
-0.003146944476787302,0.007066429220065245
-0.003146774476787302,0.006638552969256781
-0.003146604476787302,0.006342330949465767
-0.003146434476787302,0.00565114623661947
-0.003146264476787302,0.005322010659074497
-0.003146094476787302,0.005519492005601839
-0.003145924476787302,0.004762480177246009
-0.003145754476787302,0.004202949695419555
-0.003145584476787302,0.003939641233383098
-0.003145414476787302,0.00367633277134706
-0.003145244476787302,0.003906727675628541
-0.003145074476787302,0.004137122579910441
-0.003144904476787301,0.004696653061738271
-0.003144734476787302,0.004894134408265255
-0.003144564476787302,0.005256183543565383
-0.003144394476787301,0.006013195371920914
-0.003144224476787302,0.006408158064974882
-0.003144054476787302,0.006506898738238553
-0.003143884476787302,0.006868947873538023
-0.003143714476787302,0.007362651239857037
-0.003143544476787302,0.005782800467638296
-0.003143374476787302,0.007132256335572683
-0.003143204476787302,0.007198083451084253
-0.003143034476787302,0.006704380084765896
-0.003142864476787302,0.006605639411502404
-0.003142694476787302,0.006572725853747667
-0.003142524476787302,0.006638552969256781
-0.003142354476787302,0.006704380084765776
-0.003142184476787302,0.006243590276202096
-0.003142014476787302,0.00653981229599311
-0.003141844476787302,0.006803120758029088
-0.003141674476787302,0.00700060210455691
-0.003141504476787302,0.007494305470875266
-0.003141334476787302,0.008185490183719708
-0.003141164476787302,0.008777934223302994
-0.003140994476787302,0.009370378262885021
-0.003140824476787302,0.009699513840429995
-0.003140654476787302,0.01006156297573072
-0.003140484476787302,0.01022613076450351
-0.003140314476787302,0.01016030364899451
-0.003140144476787302,0.009798254513694264
-0.003139974476787302,0.009139983358603122
-0.003139804476787302,0.008284230856984636
-0.003139634476787302,0.007625959701893495
-0.003139464476787302,0.007296824124347924
-0.003139294476787302,0.006671466527011338
-0.003139124476787302,0.00630941739171121
-0.003138954476787302,0.00607902248742931
-0.003138784476787302,0.00505870219703804
-0.003138614476787302,0.005322010659074497
-0.003138444476787302,0.004992875081528926
-0.003138274476787302,0.004795393735001583
-0.003138104476787302,0.004301690368684724
-0.003137934476787302,0.005124529312547154
-0.003137764476787302,0.004663739503983355
-0.003137594476787302,0.00515744287030255
-0.003137424476787302,0.005618232678865511
-0.003137254476787302,0.005223269985810825
-0.003137084476787302,0.005091615754792418
-0.003136914476787302,0.004992875081528926
-0.003136744476787302,0.005157442870301712
-0.003136574476787302,0.00548657844784818
-0.003136404476787302,0.005980281814165639
-0.003136234476787302,0.00574988690988374
-0.003136064476787302,0.005980281814165819
-0.003135894476787302,0.00607902248742931
-0.003135724476787302,0.006276503833956653
-0.003135554476787302,0.006901861431293179
-0.003135384476787302,0.006868947873538681
-0.003135214476787302,0.007527219028629823
-0.003135044476787302,0.007724700375157166
-0.003134874476787302,0.007724700375157166
-0.003134704476787302,0.008053835952702737
-0.003134534476787301,0.007527219028630003
-0.003134364476787302,0.007625959701893495
-0.003134194476787302,0.007724700375157166
-0.003134024476787301,0.007691786817401771
-0.003133854476787302,0.007230997008838809
-0.003133684476787302,0.007099342777820581
-0.003133514476787302,0.006473985180485134
-0.003133344476787302,0.006111936045183867
-0.003133174476787302,0.006210676718447538
-0.003133004476787302,0.006177763160693042
-0.003132834476787302,0.006342330949465767
-0.003132664476787302,0.006243590276202096
-0.003132494476787302,0.006704380084765058
-0.003132324476787302,0.006737293642520453
-0.003132154476787302,0.007066429220066024
-0.003131984476787302,0.007461391913119991
-0.003131814476787302,0.007691786817402609
-0.003131644476787302,0.00756013258638438
-0.003131474476787302,0.007066429220066921
-0.003131304476787302,0.007230997008838809
-0.003131134476787302,0.007165169893329695
-0.003130964476787302,0.00746139191312017
-0.003130794476787302,0.00779052749066628
-0.003130624476787302,0.007461391913120709
-0.003130454476787302,0.007165169893330233
-0.003130284476787302,0.006473985180483996
-0.003130114476787302,0.006408158064974882
-0.003129944476787302,0.007560132586382285
-0.003129774476787302,0.006934774989047795
-0.003129604476787302,0.006967688546802352
-0.003129434476787302,0.007165169893329336
-0.003129264476787302,0.007099342777820581
-0.003129094476787302,0.007395564797611595
-0.003128924476787302,0.007362651239857037
-0.003128754476787302,0.007658873259648051
-0.003128584476787302,0.007691786817402609
-0.003128414476787302,0.007724700375157166
-0.003128244476787302,0.008185490183720966
-0.003128074476787302,0.00802092239494818
-0.003127904476787302,0.00802092239494818
-0.003127734476787302,0.007625959701892657
-0.003127564476787302,0.007165169893329695
-0.003127394476787302,0.006506898738238553
-0.003127224476787302,0.005914454698655507
-0.003127054476787302,0.005354924216829054
-0.003126884476787302,0.004992875081528926
-0.003126714476787302,0.004235863253172915
-0.003126544476787302,0.00357759209808297
-0.003126374476787302,0.003215542962782842
-0.003126204476787302,0.002754753154219881
-0.003126034476787302,0.003215542962782842
-0.003125864476787302,0.002853493827482714
-0.003125694476787302,0.002886407385237211
-0.003125524476787302,0.002853493827482714
-0.003125354476787302,0.003116802289519171
-0.003125184476787302,0.003413024309310664
-0.003125014476787302,0.003676332771346642
-0.003124844476787302,0.003643419213592085
-0.003124674476787302,0.004729566619494086
-0.003124504476787302,0.005618232678865511
-0.003124334476787302,0.006836034315784124
-0.003124164476787302,0.007724700375158303
-0.003123994476787302,0.008350057972493751
-0.003123824476787302,0.008679193550039321
-0.003123654476787301,0.008909588454321941
-0.003123484476787302,0.009304551147375908
-0.003123314476787302,0.008975415569830336
-0.003123144476787302,0.009436205378393297
-0.003122974476787302,0.009798254513694264
-0.003122804476787302,0.008514625761266537
-0.003122634476787302,0.009699513840428439
-0.003122464476787302,0.008975415569830336
-0.003122294476787302,0.008514625761266537
-0.003122124476787302,0.008284230856985056
-0.003121954476787302,0.007856354606175394
-0.003121784476787302,0.007625959701893495
-0.003121614476787302,0.006901861431294556
-0.003121444476787302,0.007132256335575138
-0.003121274476787302,0.006605639411502225
-0.003121104476787302,0.006046108929675771
-0.003120934476787302,0.007527219028629823
-0.003120764476787302,0.006572725853747667
-0.003120594476787302,0.005848627583148728
-0.003120424476787302,0.005618232678865511
-0.003120254476787302,0.00528909710131994
-0.003120084476787302,0.004959961523774968
-0.003119914476787302,0.004696653061737912
-0.003119744476787302,0.004663739503983355
-0.003119574476787302,0.003939641233384415
-0.003119404476787302,0.00426877681092867
-0.003119234476787302,0.004071295464401327
-0.003119064476787302,0.003413024309311382
-0.003118894476787302,0.003215542962782842
-0.003118724476787302,0.003248456520537399
-0.003118554476787302,0.003281370078291956
-0.003118384476787302,0.003676332771346642
-0.003118214476787302,0.004334603926437783
-0.003118044476787302,0.004992875081528926
-0.003117874476787302,0.005322010659074497
-0.003117704476787302,0.00574988690988374
-0.003117534476787302,0.006408158064974882
-0.003117364476787302,0.00630941739171121
-0.003117194476787302,0.006967688546802352
-0.003117024476787302,0.007165169893329695
-0.003116854476787302,0.007658873259648829
-0.003116684476787302,0.008086749510457293
-0.003116514476787302,0.008152576625966409
-0.003116344476787302,0.008777934223303831
-0.003116174476787302,0.009238724031866792
-0.003116004476787302,0.009666600282676035
-0.003115834476787302,0.009666600282676753
-0.003115664476787302,0.01006156297573072
-0.003115494476787302,0.01062109345755819
-0.003115324476787302,0.009864081629203856
-0.003115154476787302,0.01012739009123984
-0.003114984476787302,0.00973242739818515
-0.003114814476787302,0.009567859609411766
-0.003114644476787302,0.009238724031866792
-0.003114474476787302,0.008580452876775651
-0.003114304476787302,0.009074156243092091
-0.003114134476787302,0.00802092239494818
-0.003113964476787302,0.00802092239494818
-0.003113794476787302,0.007494305470875626
-0.003113624476787302,0.007691786817402609
-0.003113454476787302,0.007230997008838809
-0.003113284476787301,0.006836034315783825
-0.003113114476787302,0.006671466527011338
-0.003112944476787302,0.006408158064974882
-0.003112774476787301,0.005947368256410783
-0.003112604476787302,0.005782800467638296
-0.003112434476787302,0.005157442870301712
-0.003112264476787302,0.005420751332337689
-0.003112094476787302,0.004729566619492469
-0.003111924476787302,0.004992875081528926
-0.003111754476787302,0.004992875081528926
-0.003111584476787302,0.00505870219703804
-0.003111414476787302,0.005025788639283483
-0.003111244476787302,0.005124529312546974
-0.003111074476787302,0.005387837774583611
-0.003110904476787302,0.005980281814165639
-0.003110734476787302,0.005782800467638655
-0.003110564476787302,0.00574988690988374
-0.003110394476787302,0.00574988690988374
-0.003110224476787302,0.005782800467638237
-0.003110054476787302,0.005815714025392853
-0.003109884476787302,0.005618232678865511
-0.003109714476787302,0.0057498869098835
-0.003109544476787302,0.005618232678865511
-0.003109374476787302,0.005124529312547154
-0.003109204476787302,0.005782800467637099
-0.003109034476787302,0.006177763160692982
-0.003108864476787302,0.00574988690988374
-0.003108694476787302,0.00574988690988374
-0.003108524476787302,0.005782800467638296
-0.003108354476787302,0.005782800467638296
-0.003108184476787302,0.006079022487428772
-0.003108014476787302,0.005618232678865511
-0.003107844476787302,0.005453664890092726
-0.003107674476787302,0.005486578447847282
-0.003107504476787302,0.005552405563356397
-0.003107334476787302,0.004795393735001583
-0.003107164476787302,0.004564998830719684
-0.003106994476787302,0.004170036137664999
-0.003106824476787302,0.004005468348892213
-0.003106654476787302,0.004367517484192341
-0.003106484476787302,0.004104209022155944
-0.003106314476787302,0.004137122579910441
-0.003106144476787302,0.004071295464401327
-0.003105974476787302,0.004202949695423147
-0.003105804476787302,0.006177763160692982
-0.003105634476787302,0.004992875081528926
-0.003105464476787302,0.006013195371920555
-0.003105294476787302,0.006210676718447538
-0.003105124476787302,0.006803120758029567
-0.003104954476787302,0.007033515662312065
-0.003104784476787302,0.007362651239857037
-0.003104614476787302,0.008053835952702737
-0.003104444476787302,0.008382971530249505
-0.003104274476787302,0.00904124268533945
-0.003104104476787302,0.009008329127584893
-0.003103934476787302,0.008975415569831714
-0.003103764476787302,0.00973242739818515
-0.003103594476787302,0.009107069800848565
-0.003103424476787302,0.008580452876775531
-0.003103254476787302,0.008514625761266537
-0.003103084476787302,0.008317144414739193
-0.003102914476787301,0.007362651239856978
-0.003102744476787302,0.007329737682102481
-0.003102574476787302,0.006506898738238553
-0.003102404476787301,0.006210676718446221
-0.003102234476787302,0.005486578447847282
-0.003102064476787302,0.005025788639283483
-0.003101894476787302,0.004334603926439041
-0.003101724476787302,0.004104209022155884
-0.003101554476787302,0.004235863253174112
-0.003101384476787302,0.003972554791138135
-0.003101214476787302,0.004005468348892213
-0.003101044476787302,0.004071295464401327
-0.003100874476787302,0.004268776810928311
-0.003100704476787302,0.003972554791137656
-0.003100534476787302,0.003906727675628541
-0.003100364476787302,0.003939641233383038
-0.003100194476787302,0.004071295464401327
-0.003100024476787302,0.004071295464401327
-0.003099854476787302,0.003972554791137835
-0.003099684476787302,0.00380798700236487
-0.003099514476787302,0.003873814117873984
-0.003099344476787302,0.00403838190664647
-0.003099174476787302,0.003676332771346642
-0.003099004476787302,0.004005468348892213
-0.003098834476787302,0.004927047966018135
-0.003098664476787302,0.003939641233383098
-0.003098494476787302,0.004532085272965126
-0.003098324476787302,0.004828307292755601
-0.003098154476787302,0.004729566619492469
-0.003097984476787302,0.004894134408265255
-0.003097814476787302,0.004992875081528746
-0.003097644476787302,0.004992875081528926
-0.003097474476787302,0.005420751332338168
-0.003097304476787302,0.005256183543565383
-0.003097134476787302,0.005552405563356397
-0.003096964476787302,0.005881541140901968
-0.003096794476787302,0.00630941739171121
-0.003096624476787302,0.006737293642520453
-0.003096454476787302,0.007658873259648051
-0.003096284476787302,0.007428478355366152
-0.003096114476787302,0.008185490183720966
-0.003095944476787302,0.008382971530248308
-0.003095774476787302,0.008679193550039321
-0.003095604476787302,0.008547539319020855
-0.003095434476787302,0.008415885088002865
-0.003095264476787302,0.007922181721684508
-0.003095094476787302,0.007428478355364475
-0.003094924476787302,0.006506898738238553
-0.003094754476787302,0.006803120758029567
-0.003094584476787302,0.006013195371919059
-0.003094414476787302,0.005387837774583611
-0.003094244476787302,0.005124529312547154
-0.003094074476787302,0.004532085272964947
-0.003093904476787302,0.004433344599701455
-0.003093734476787302,0.004005468348892213
-0.003093564476787302,0.004104209022155585
-0.003093394476787302,0.003939641233383098
-0.003093224476787302,0.003840900560119427
-0.003093054476787302,0.003445937867064981
-0.003092884476787302,0.00357759209808297
-0.003092714476787302,0.003413024309310185
-0.003092544476787302,0.003807987002366068
-0.003092374476787302,0.004466258157456012
-0.003092204476787302,0.003775073444610313
-0.003092034476787301,0.003050975174010655
-0.003091864476787302,0.003380110751555628
-0.003091694476787302,0.003116802289519171
-0.003091524476787301,0.003149715847273847
-0.003091354476787302,0.003215542962782842
-0.003091184476787302,0.002985148058500942
