Analysis/New Tests_CMB/wrd01_d2s01_new/cmb07_ch35.csv

#Digilent WaveForms Oscilloscope Acquisition
#Device Name: ADP3450
#Serial Number: SN:210018B9D9B0
#Date Time: 2024-08-15 12:36:13.635.890.910
#Sample rate: 5.88235e+06Hz
#Samples: 32768
#Trigger: Source: Channel 3 Type: Edge Condition: Rising Level: 40 mV Hyst.: Auto HoldOff: 0 s
#Channel 3: Range: 100 mV/div Offset: 0 V Attenuation: 1 X Coupling: DC Bandwidth: 0 Hz Sample Mode: Average

Time (s),Channel 3 (V)
-0.003168828487067081,0.02786779772094612
-0.003168658487067081,0.02753866214340102
-0.003168488487067081,0.027801970605437
-0.003168318487067081,0.02790071127870067
-0.003168148487067081,0.02724244012360923
-0.003167978487067081,0.02707787233483674
-0.003167808487067081,0.02678165031504573
-0.003167638487067081,0.02727535368136481
-0.003167468487067081,0.02767031637441877
-0.003167298487067081,0.02730826723911865
-0.003167128487067081,0.02780197060543712
-0.003166958487067081,0.02786779772094612
-0.003166788487067081,0.02809819262522802
-0.003166618487067081,0.02767031637441901
-0.003166448487067081,0.027801970605437
-0.003166278487067081,0.02727535368136409
-0.003166108487067081,0.02757157570115456
-0.003165938487067081,0.02727535368136409
-0.003165768487067081,0.02704495877708219
-0.003165598487067081,0.02750574858564563
-0.003165428487067081,0.02730826723911865
-0.003165258487067081,0.02760448925890966
-0.003165088487067081,0.02747283502789167
-0.003164918487067081,0.02737409435462776
-0.003164748487067081,0.02697913166157307
-0.003164578487067081,0.02701204521932757
-0.003164408487067081,0.02681456387280029
-0.003164238487067081,0.02678165031504573
-0.003164068487067081,0.02664999608402774
-0.003163898487067081,0.02632086050648193
-0.003163728487067081,0.02592589781342725
-0.003163558487067081,0.02592589781342725
-0.003163388487067081,0.0252676266583361
-0.003163218487067081,0.02490557752303598
-0.003163048487067081,0.02444478771447301
-0.003162878487067081,0.02470809617650863
-0.003162708487067081,0.02454352838773585
-0.003162538487067081,0.02441187415671786
-0.003162368487067081,0.02454352838773585
-0.003162198487067081,0.02451061482998129
-0.003162028487067081,0.02431313348345431
-0.003161858487067081,0.02414856569468116
-0.003161688487067081,0.02401691146366293
-0.003161518487067081,0.02381943011713595
-0.003161348487067081,0.02395108434815382
-0.003161178487067081,0.02431313348345395
-0.003161008487067081,0.02404982502141797
-0.003160838487067081,0.02381943011713559
-0.003160668487067081,0.02414856569468116
-0.003160498487067081,0.02428021992569939
-0.003160328487067081,0.02460935550324496
-0.003160158487067081,0.02447770127222673
-0.003159988487067081,0.02441187415671762
-0.003159818487067081,0.02441187415671762
-0.003159648487067081,0.02431313348345395
-0.003159478487067081,0.02444478771447217
-0.003159308487067081,0.02464226906099778
-0.003159138487067081,0.02368777588611736
-0.003158968487067081,0.02464226906099952
-0.003158798487067081,0.02431313348345401
-0.003158628487067081,0.0243460470412085
-0.003158458487067081,0.02385234367489015
-0.003158288487067081,0.02319407251979888
-0.003158118487067081,0.02312824540428989
-0.003157948487067081,0.02263454203797154
-0.003157778487067081,0.02217375222940714
-0.003157608487067081,0.02184461665186217
-0.003157438487067081,0.02168004886308938
-0.003157268487067081,0.01980397607107933
-0.003157098487067081,0.01963940828230684
-0.003156928487067081,0.0192115320314976
-0.003156758487067081,0.01868491510742295
-0.003156588487067081,0.01773042193254253
-0.003156418487067081,0.01789498972131531
-0.003156248487067081,0.01796081683682419
-0.003156078487067081,0.0178291626058062
-0.003155908487067081,0.01812538462559721
-0.003155738487067081,0.01815829818335243
-0.003155568487067081,0.0185203473186519
-0.003155398487067081,0.01898113712721569
-0.003155228487067081,0.01970523539781757
-0.003155058487067081,0.020593901457189
-0.003154888487067081,0.02085720991922545
-0.003154718487067081,0.0214825675165609
-0.003154548487067081,0.02184461665186217
-0.003154378487067081,0.02194335732512584
-0.003154208487067081,0.0224041471336888
-0.003154038487067081,0.02260162848021698
-0.003153868487067081,0.02230540646042596
-0.003153698487067081,0.02227249290267147
-0.003153528487067081,0.02273328271123521
-0.003153358487067081,0.02266745559572609
-0.003153188487067081,0.0225687149224626
-0.003153018487067081,0.02237123357593508
-0.003152848487067081,0.02200918444063495
-0.003152678487067081,0.02210792511389844
-0.003152508487067081,0.02200918444063495
-0.003152338487067081,0.02181170309410761
-0.003152168487067081,0.02138382684329914
-0.003151998487067081,0.02141674040105292
-0.003151828487067081,0.02102177770799824
-0.003151658487067081,0.02056098789943528
-0.003151488487067081,0.020593901457189
-0.003151318487067081,0.02075846924596178
-0.003151148487067081,0.02072555568820728
-0.003150978487067081,0.02095595059248912
-0.003150808487067081,0.02154839463207115
-0.003150638487067081,0.02135091328554417
-0.003150468487067081,0.02135091328554381
-0.003150298487067081,0.02144965395880748
-0.003150128487067081,0.02210792511389862
-0.003149958487067081,0.02164713530533482
-0.003149788487067081,0.02161422174758026
-0.003149618487067081,0.02168004886308938
-0.003149448487067081,0.02191044376737128
-0.003149278487067081,0.02151548107431659
-0.003149108487067081,0.02144965395880748
-0.003148938487067081,0.02125217261228014
-0.003148768487067081,0.02177878953635305
-0.003148598487067081,0.02125217261228014
-0.003148428487067081,0.02151548107431654
-0.003148258487067081,0.02148256751656204
-0.003148088487067081,0.02148256751656204
-0.003147918487067081,0.02158130818982589
-0.003147748487067081,0.02168004886308938
-0.003147578487067081,0.02148256751656204
-0.003147408487067081,0.02135091328554309
-0.003147238487067081,0.02095595059248912
-0.003147068487067081,0.02089012347698001
-0.003146898487067081,0.02105469126575219
-0.003146728487067081,0.02072555568820722
-0.003146558487067081,0.02049516078392532
-0.003146388487067081,0.02000145741760685
-0.003146218487067081,0.01993563030209785
-0.003146048487067081,0.01950775405128861
-0.003145878487067081,0.01911279135823315
-0.003145708487067081,0.01868491510742468
-0.003145538487067081,0.01884948289619747
-0.003145368487067081,0.01861908799191611
-0.003145198487067081,0.01891531001170658
-0.003145028487067081,0.01848743376089734
-0.003144858487067081,0.01858617443416065
-0.003144688487067081,0.01838869308763367
-0.003144518487067081,0.0180595575100881
-0.003144348487067081,0.01819121174110824
-0.003144178487067081,0.01924444558925215
-0.003144008487067081,0.0180595575100881
-0.003143838487067081,0.01855326087640555
-0.003143668487067081,0.01868491510742468
-0.003143498487067081,0.01842160664538823
-0.003143328487067081,0.01842160664538823
-0.003143158487067081,0.01865200154967013
-0.003142988487067081,0.0180595575100881
-0.003142818487067081,0.01842160664538757
-0.003142648487067081,0.01822412529886088
-0.003142478487067081,0.01822412529886088
-0.003142308487067081,0.01661136096889052
-0.003142138487067081,0.01845452020314278
-0.003141968487067081,0.01789498972131531
-0.003141798487067081,0.01592017625604548
-0.003141628487067081,0.01549230000523264
-0.003141458487067081,0.01657844741113303
-0.003141288487067081,0.01601891692930657
-0.003141118487067081,0.01588726269828733
-0.003140948487067081,0.01526190510095074
-0.003140778487067081,0.01522899154319625
-0.003140608487067081,0.0146036339458596
-0.003140438487067081,0.01466946106136872
-0.003140268487067081,0.01493276952340469
-0.003140098487067081,0.01516316442768707
-0.003139928487067081,0.01545938644747809
-0.003139758487067081,0.01578852202502366
-0.003139588487067081,0.01628222539134202
-0.003139418487067081,0.0166771880843967
-0.003139248487067081,0.01723671856622417
-0.003139078487067081,0.01743419991275151
-0.003138908487067081,0.0173683727972424
-0.003138738487067081,0.01802664395233354
-0.003138568487067081,0.01878365578068835
-0.003138398487067081,0.01917861847374304
-0.003138228487067081,0.01954066760904317
-0.003138058487067081,0.02016602520637999
-0.003137888487067081,0.02029767943739798
-0.003137718487067081,0.02033059299515254
-0.003137548487067081,0.02065972857269829
-0.003137378487067081,0.02075846924596178
-0.003137208487067081,0.02085720991922545
-0.003137038487067081,0.02112051838126191
-0.003136868487067081,0.02112051838126191
-0.003136698487067081,0.02079138280371634
-0.003136528487067081,0.02085720991922503
-0.003136358487067081,0.02062681501494355
-0.003136188487067081,0.02062681501494355
-0.003136018487067081,0.0205939014571884
-0.003135848487067081,0.02026476587964342
-0.003135678487067081,0.02039642011066165
-0.003135508487067081,0.01980397607107903
-0.003135338487067081,0.01947484049353405
-0.003135168487067081,0.01917861847374304
-0.003134998487067081,0.01931027270476109
-0.003134828487067081,0.0192115320314976
-0.003134658487067081,0.01954066760904317
-0.003134488487067081,0.01947484049353358
-0.003134318487067081,0.0192115320314976
-0.003134148487067081,0.01963940828230684
-0.003133978487067081,0.01970523539781577
-0.003133808487067081,0.01960649472455228
-0.003133638487067081,0.01977106251332507
-0.003133468487067081,0.02029767943739702
-0.003133298487067081,0.02039642011066165
-0.003133128487067081,0.02033059299515254
-0.003132958487067081,0.02013311164862555
-0.003132788487067081,0.0194419269357795
-0.003132618487067081,0.01881656933844291
-0.003132448487067081,0.01914570491598788
-0.003132278487067081,0.01838869308763367
-0.003132108487067081,0.01812538462559721
-0.003131938487067081,0.0171050643352078
-0.003131768487067081,0.0166771880843967
-0.003131598487067081,0.01608474404481467
-0.003131428487067081,0.01601891692930568
-0.003131258487067081,0.01555812712074176
-0.003131088487067081,0.01585434914053277
-0.003130918487067081,0.01638096606460473
-0.003130748487067081,0.01664427452664214
-0.003130578487067081,0.01750002702826063
-0.003130408487067081,0.0178620761635601
-0.003130238487067081,0.01855326087640645
-0.003130068487067081,0.01917861847374304
-0.003129898487067081,0.01973814895556949
-0.003129728487067081,0.0199027167443433
-0.003129558487067081,0.01993563030209785
-0.003129388487067081,0.01947484049353489
-0.003129218487067081,0.01954066760904317
-0.003129048487067081,0.01940901337802494
-0.003128878487067081,0.01914570491598848
-0.003128708487067081,0.01878365578068835
-0.003128538487067081,0.01848743376089734
-0.003128368487067081,0.01838869308763367
-0.003128198487067081,0.01750002702826063
-0.003128028487067081,0.01687466943092404
-0.003127858487067081,0.01680884231541493
-0.003127688487067081,0.01684175587317044
-0.003127518487067081,0.0173683727972424
-0.003127348487067081,0.01730254568173328
-0.003127178487067081,0.01730254568173394
-0.003127008487067081,0.01766459481703341
-0.003126838487067081,0.01792790327906987
-0.003126668487067081,0.01809247106784361
-0.003126498487067081,0.01861908799191557
-0.003126328487067081,0.01891531001170658
-0.003126158487067081,0.01954066760904389
-0.003125988487067081,0.01993563030209785
-0.003125818487067081,0.02013311164862519
-0.003125648487067081,0.02019893876413449
-0.003125478487067081,0.02029767943739798
-0.003125308487067081,0.02125217261228014
-0.003125138487067081,0.02033059299515421
-0.003124968487067081,0.02125217261228014
-0.003124798487067081,0.02079138280371634
-0.003124628487067081,0.02059390145718887
-0.003124458487067081,0.02052807434167988
-0.003124288487067081,0.02128508617003469
-0.003124118487067081,0.02085720991922581
-0.003123948487067081,0.0210546912657528
-0.003123778487067081,0.02039642011066165
-0.003123608487067081,0.02013311164862411
-0.003123438487067081,0.01954066760904317
-0.003123268487067081,0.01858617443416101
-0.003123098487067081,0.01861908799191551
-0.003122928487067081,0.01815829818335177
-0.003122758487067081,0.01773042193254253
-0.003122588487067081,0.01726963212397957
-0.003122418487067081,0.01730254568173328
-0.003122248487067081,0.0162163982758329
-0.003122078487067081,0.01592017625604242
-0.003121908487067081,0.01542647288972353
-0.003121738487067081,0.01539355933196897
-0.003121568487067081,0.01568978135175945
-0.003121398487067081,0.01582143558277821
-0.003121228487067081,0.01578852202502366
-0.003121058487067081,0.01624931183358662
-0.003120888487067081,0.01671010164215126
-0.003120718487067081,0.01661136096888758
-0.003120548487067081,0.01687466943092356
-0.003120378487067081,0.01677592875766037
-0.003120208487067081,0.01657844741113303
-0.003120038487067081,0.01651262029562403
-0.003119868487067081,0.0166771880843967
-0.003119698487067081,0.01641387962236024
-0.003119528487067081,0.01638096606460574
-0.003119358487067081,0.01592017625604189
-0.003119188487067081,0.01542647288972353
-0.003119018487067081,0.01480111529238808
-0.003118848487067081,0.01417575769505036
-0.003118678487067081,0.013682054328732
-0.003118508487067081,0.01364914077097745
-0.003118338487067081,0.01397827634852302
-0.003118168487067081,0.01394536279076846
-0.003117998487067081,0.01453780683035049
-0.003117828487067081,0.0146036339458596
-0.003117658487067081,0.01536064577421441
-0.003117488487067081,0.01565686779400543
-0.003117318487067081,0.01611765760256923
-0.003117148487067081,0.01750002702826063
-0.003116978487067081,0.01779624904805164
-0.003116808487067081,0.0181582981833535
-0.003116638487067081,0.01911279135823393
-0.003116468487067081,0.01947484049353405
-0.003116298487067081,0.02013311164862567
-0.003116128487067081,0.02039642011066165
-0.003115958487067081,0.02075846924596178
-0.003115788487067081,0.02056098789943689
-0.003115618487067081,0.02191044376737128
-0.003115448487067081,0.02108760482350735
-0.003115278487067081,0.02131799972778865
-0.003115108487067081,0.02098886415024368
-0.003114938487067081,0.02102177770799824
-0.003114768487067081,0.02052807434167904
-0.003114598487067081,0.02006728453311608
-0.003114428487067081,0.01980397607107963
-0.003114258487067081,0.01901405068496888
-0.003114088487067081,0.01825703885661544
-0.003113918487067081,0.01845452020314278
-0.003113748487067081,0.01763168125927748
-0.003113578487067081,0.01687466943092404
-0.003113408487067081,0.01661136096888758
-0.003113238487067081,0.01605183048706035
-0.003113068487067081,0.01618348471807834
-0.003112898487067081,0.01592017625604189
-0.003112728487067081,0.01647970673786948
-0.003112558487067081,0.01654553385337847
-0.003112388487067081,0.01661136096888758
-0.003112218487067081,0.01694049654643255
-0.003112048487067081,0.01694049654643316
-0.003111878487067081,0.01697341010418771
-0.003111708487067081,0.01726963212397819
-0.003111538487067081,0.01717089145071506
-0.003111368487067081,0.01766459481703341
-0.003111198487067081,0.01809247106784188
-0.003111028487067081,0.01766459481703341
-0.003110858487067081,0.0185203473186519
-0.003110688487067081,0.01815829818335243
-0.003110518487067081,0.01861908799191557
-0.003110348487067081,0.01865200154967013
-0.003110178487067081,0.0188823964539516
-0.003110008487067081,0.01907987780047937
-0.003109838487067081,0.01884948289619747
-0.003109668487067081,0.01894822356946096
-0.003109498487067081,0.0192115320314976
-0.003109328487067081,0.01901405068497026
-0.003109158487067081,0.01927735914700623
-0.003108988487067081,0.0196723218400614
-0.003108818487067081,0.0196723218400614
-0.003108648487067081,0.02013311164862435
-0.003108478487067081,0.0203635065529071
-0.003108308487067081,0.02042933366841621
-0.003108138487067081,0.02065972857269769
-0.003107968487067081,0.02046224722617077
-0.003107798487067081,0.02065972857269811
-0.003107628487067081,0.02000145741760697
-0.003107458487067081,0.02026476587964342
-0.003107288487067081,0.02026476587964342
-0.003107118487067081,0.01977106251332507
-0.003106948487067081,0.0199027167443433
-0.003106778487067081,0.01848743376089734
-0.003106608487067081,0.01907987780047937
-0.003106438487067081,0.01904696424272403
-0.003106268487067081,0.01861908799191557
-0.003106098487067081,0.01865200154967013
-0.003105928487067081,0.01852034731865082
-0.003105758487067081,0.01792790327906987
-0.003105588487067081,0.01786207616356076
-0.003105418487067081,0.01710506433520618
-0.003105248487067081,0.01723671856622417
-0.003105078487067081,0.01710506433520594
-0.003104908487067081,0.01753294058601447
-0.003104738487067081,0.0171379778929605
-0.003104568487067081,0.01763168125927886
-0.003104398487067081,0.01805955751008816
-0.003104228487067081,0.01809247106784265
-0.003104058487067081,0.01832286597212456
-0.003103888487067081,0.01835577952988007
-0.003103718487067081,0.01888239645395202
-0.003103548487067081,0.01970523539781595
-0.003103378487067081,0.02000145741760709
-0.003103208487067081,0.02006728453311608
-0.003103038487067081,0.02019893876413431
-0.003102868487067081,0.02003437097536128
-0.003102698487067081,0.0199027167443433
-0.003102528487067081,0.01980397607107963
-0.003102358487067081,0.01980397607107915
-0.003102188487067081,0.01954066760904317
-0.003102018487067081,0.01973814895557051
-0.003101848487067081,0.01924444558925305
-0.003101678487067081,0.01894822356946114
-0.003101508487067081,0.01848743376089734
-0.003101338487067081,0.01845452020314284
-0.003101168487067081,0.01796081683682443
-0.003100998487067081,0.01763168125927886
-0.003100828487067081,0.01733545923948838
-0.003100658487067081,0.01647970673786936
-0.003100488487067081,0.015986003371551
-0.003100318487067081,0.01559104067849703
-0.003100148487067081,0.01545938644747809
-0.003099978487067081,0.01489985596565062
-0.003099808487067081,0.01496568308115961
-0.003099638487067081,0.01519607798544163
-0.003099468487067081,0.01568978135175999
-0.003099298487067081,0.01615057116032294
-0.003099128487067081,0.01641387962236024
-0.003098958487067081,0.01717089145071506
-0.003098788487067081,0.01690758298867908
-0.003098618487067081,0.01664427452664214
-0.003098448487067081,0.01855326087640645
-0.003098278487067081,0.01904696424272391
-0.003098108487067081,0.01934318626251582
-0.003097938487067081,0.01996854385985241
-0.003097768487067081,0.01947484049353495
-0.003097598487067081,0.01973814895557051
-0.003097428487067081,0.02019893876413431
-0.003097258487067081,0.02033059299515254
-0.003097088487067081,0.02042933366841621
-0.003096918487067081,0.02118634549677102
-0.003096748487067081,0.02052807434167988
-0.003096578487067081,0.02148256751656204
-0.003096408487067081,0.02135091328554381
-0.003096238487067081,0.02144965395880748
-0.003096068487067081,0.02075846924596178
-0.003095898487067081,0.02033059299515254
-0.003095728487067081,0.02026476587964342
-0.003095558487067081,0.01878365578068782
-0.003095388487067081,0.01848743376089734
-0.003095218487067081,0.01825703885661544
-0.003095048487067081,0.01812538462559308
-0.003094878487067081,0.01585434914053277
-0.003094708487067081,0.01684175587316948
-0.003094538487067081,0.01664427452664064
-0.003094368487067081,0.01582143558277821
-0.003094198487067081,0.01565686779400543
-0.003094028487067081,0.01598600337155118
-0.003093858487067081,0.01608474404481467
-0.003093688487067081,0.01641387962236024
-0.003093518487067081,0.01687466943092446
-0.003093348487067081,0.01710506433520594
-0.003093178487067081,0.01750002702826063
-0.003093008487067081,0.01828995241437018
-0.003092838487067081,0.01838869308763367
-0.003092668487067081,0.01888239645395202
-0.003092498487067081,0.01934318626251702
-0.003092328487067081,0.02000145741760697
-0.003092158487067081,0.02003437097536152
-0.003091988487067081,0.02000145741760661
-0.003091818487067081,0.01980397607107963
-0.003091648487067081,0.01934318626251582
-0.003091478487067081,0.01944192693577926
-0.003091308487067081,0.01931027270476127
-0.003091138487067081,0.01973814895557051
-0.003090968487067081,0.019902716744343
-0.003090798487067081,0.01977106251332507
-0.003090628487067081,0.02010019809087064
-0.003090458487067081,0.01983688962883466
-0.003090288487067081,0.02003437097536152
-0.003090118487067081,0.0199027167443433
-0.003089948487067081,0.01950775405128933
-0.003089778487067081,0.01973814895557051
-0.003089608487067081,0.01957358116679772
