Analysis/New Tests_CMB/wrd01_d2s01_new/cmb02_ch03.csv

#Digilent WaveForms Oscilloscope Acquisition
#Device Name: ADP3450
#Serial Number: SN:210018B9D9B0
#Date Time: 2024-08-14 16:30:19.988.488.680
#Sample rate: 5.88235e+06Hz
#Samples: 32768
#Trigger: Source: Channel 3 Type: Edge Condition: Rising Level: 60 mV Hyst.: Auto HoldOff: 0 s
#Channel 3: Range: 100 mV/div Offset: 0 V Attenuation: 1 X Coupling: DC Bandwidth: 0 Hz Sample Mode: Average

Time (s),Channel 3 (V)
-0.003798455795647739,0.2143231024005121
-0.003798285795647739,0.2277189204066386
-0.003798115795647739,0.2396665418715211
-0.003797945795647739,0.2501330532374703
-0.003797775795647739,0.2585589240226496
-0.003797605795647739,0.265536598266603
-0.003797435795647739,0.2710989895271231
-0.003797265795647739,0.2749827893421654
-0.003797095795647739,0.2774842197315072
-0.003796925795647739,0.2791298976192351
-0.003796755795647739,0.2794590331967785
-0.003796585795647739,0.2782741451176166
-0.003796415795647739,0.2767272079031524
-0.003796245795647739,0.2744232588603287
-0.003796075795647739,0.2718230877977234
-0.003795905795647739,0.2685975591377768
-0.003795735795647739,0.265108722015787
-0.003795565795647739,0.2614224035472834
-0.003795395795647739,0.2581968748873367
-0.003795225795647739,0.2544776428610653
-0.003795055795647739,0.2509229786235797
-0.003794885795647739,0.2466113025577326
-0.003794715795647739,0.2433857738977919
-0.003794545795647739,0.2394361469672392
-0.003794375795647739,0.235881482729747
-0.003794205795647739,0.2318331151259438
-0.003794035795647739,0.2283442780039535
-0.003793865795647739,0.224657959535443
-0.003793695795647739,0.2208399868359214
-0.003793525795647739,0.2171207548096495
-0.003793355795647739,0.213664831245421
-0.003793185795647739,0.2099455992191628
-0.003793015795647739,0.2062592807506456
-0.003792845795647739,0.2030666656484536
-0.003792675795647739,0.1996765691997404
-0.003792505795647739,0.1959244236157147
-0.003792335795647739,0.1930938576488228
-0.003792165795647739,0.1892758849493011
-0.003791995795647739,0.1859187020583293
-0.003791825795647739,0.1827919140716464
-0.003791655795647739,0.1795992989694602
-0.003791485795647739,0.1763408567517532
-0.003791315795647739,0.1732469823228248
-0.003791145795647739,0.1702189350094111
-0.003790975795647739,0.1669604927917044
-0.003790805795647739,0.1641628403825671
-0.003790635795647739,0.1617272371087343
-0.003790465795647739,0.1590283253728562
-0.003790295795647739,0.1564281543102462
-0.003790125795647739,0.1536634154588634
-0.003789955795647739,0.1510632443962533
-0.003789785795647739,0.1490884309309799
-0.003789615795647739,0.1467844818881609
-0.003789445795647739,0.1446121870763602
-0.003789275795647739,0.1423082380335412
-0.003789105795647739,0.1397409805286857
-0.003788935795647739,0.1375686857168812
-0.003788765795647739,0.1354951315783479
-0.003788595795647739,0.133553231670829
-0.003788425795647739,0.1309201470504601
-0.003788255795647739,0.1285503708921363
-0.003788085795647739,0.1263122489648264
-0.003787915795647739,0.1242386948262859
-0.003787745795647739,0.122329708476525
-0.003787575795647739,0.1203878085690061
-0.003787405795647739,0.1177876375063923
-0.003787235795647739,0.115714083367859
-0.003787065795647739,0.1134759614405491
-0.003786895795647739,0.1113036666287462
-0.003786725795647739,0.1100858649918298
-0.003786555795647739,0.1083085328730837
-0.003786385795647739,0.1063337194078074
-0.003786215795647739,0.1047538686355915
-0.003786045795647739,0.1033385856521456
-0.003785875795647739,0.1017258213221703
-0.003785705795647739,0.1006725874740264
-0.003785535795647739,0.09958644006812606
-0.003785365795647739,0.09767745371836119
-0.003785195795647739,0.09738123169857071
-0.003785025795647739,0.09590012159961567
-0.003784855795647739,0.09478106063595843
-0.003784685795647739,0.09353034544128755
-0.003784515795647739,0.09260876582415994
-0.003784345795647739,0.09132513707173456
-0.003784175795647739,0.0907985201476593
-0.003784005795647739,0.08908701514442233
-0.003783835795647739,0.08865913889361388
-0.003783665795647739,0.08622353561977586
-0.003783495795647739,0.08517030177163004
-0.003783325795647739,0.08270178494004277
-0.003783155795647739,0.08178020532291067
-0.003782985795647739,0.07993704608865546
-0.003782815795647739,0.07858759022072108
-0.003782645795647739,0.07684317165972709
-0.003782475795647739,0.07552662934954479
-0.003782305795647739,0.07457213617466439
-0.003782135795647739,0.07269606338265289
-0.003781965795647739,0.07230110068959822
-0.003781795795647739,0.07095164482166381
-0.003781625795647739,0.07019463299330655
-0.003781455795647739,0.06884517712536972
-0.003781285795647739,0.06779194327722579
-0.003781115795647739,0.06673870942907806
-0.003780945795647739,0.065553821349914
-0.003780775795647739,0.06390814346218915
-0.003780605795647739,0.06292073672954943
-0.003780435795647739,0.06199915711242183
-0.003780265795647739,0.06088009614876893
-0.003780095795647739,0.06002434364714841
-0.003779925795647739,0.05864197422145701
-0.003779755795647739,0.05798370306636587
-0.003779585795647739,0.05653550652516535
-0.003779415795647739,0.05551518623477408
-0.003779245795647739,0.05492274219519206
-0.003779075795647739,0.05423155748234636
-0.003778905795647739,0.05314541007644597
-0.003778735795647739,0.05268462026788218
-0.003778565795647739,0.05163138641973634
-0.003778395795647739,0.05074272036036331
-0.003778225795647739,0.04991988141649938
-0.003778055795647739,0.04932743737691699
-0.003777885795647739,0.04912995603039001
-0.003777715795647739,0.04883373401059899
-0.003777545795647739,0.04827420352876997
-0.003777375795647739,0.04741845102715304
-0.003777205795647739,0.04738553746939848
-0.003777035795647739,0.04695766121858942
-0.003776865795647739,0.04705640189185291
-0.003776695795647739,0.04600316804370708
-0.003776525795647739,0.0463323036212514
-0.003776355795647739,0.04564111890840696
-0.003776185795647739,0.04570694602391607
-0.003776015795647739,0.04409418169394486
-0.003775845795647739,0.04524615621535227
-0.003775675795647739,0.04333716986558796
-0.003775505795647739,0.04281055294151288
-0.003775335795647739,0.04162566486235099
-0.003775165795647739,0.04083573947624162
-0.003774995795647739,0.04090156659174852
-0.003774825795647739,0.03968376495483212
-0.003774655795647739,0.03942045649279566
-0.003774485795647739,0.03882801245321232
-0.003774315795647739,0.03810391418261338
-0.003774145795647739,0.03767603793180414
-0.003773975795647739,0.03705068033446725
-0.003773805795647739,0.03688611254569477
-0.003773635795647739,0.0360961871595854
-0.003773465795647739,0.03517460754245947
-0.003773295795647739,0.0352404346579669
-0.003773125795647739,0.03484547196491222
-0.003772955795647739,0.03484547196491222
-0.003772785795647739,0.03491129908042134
-0.003772615795647739,0.03422011436757564
-0.003772445795647739,0.0335618432124857
-0.003772275795647739,0.03339727542371171
-0.003772105795647739,0.03313396696167525
-0.003771935795647739,0.03319979407718425
-0.003771765795647739,0.03306813984616614
-0.003771595795647739,0.03326562119269348
-0.003771425795647739,0.03296939917290301
-0.003771255795647739,0.03267317715311145
-0.003771085795647739,0.032409868691075
-0.003770915795647739,0.03171868397823055
-0.003770745795647739,0.03132372128517461
-0.003770575795647739,0.0307971043611017
-0.003770405795647739,0.03010591964825726
-0.003770235795647739,0.02961221628193764
-0.003770065795647739,0.02888811801133739
-0.003769895795647739,0.02829567397175644
-0.003769725795647739,0.02809819262522802
-0.003769555795647739,0.02730826723911865
-0.003769385795647739,0.02651834185300928
-0.003769215795647739,0.0261892062754637
-0.003769045795647739,0.02510305886956332
-0.003768875795647739,0.02523471310058155
-0.003768705795647739,0.02497140463854509
-0.003768535795647739,0.02510305886956332
-0.003768365795647739,0.02490557752303598
-0.003768195795647739,0.02451061482998129
-0.003768025795647739,0.02454352838773585
-0.003767855795647739,0.02418147925243572
-0.003767685795647739,0.02391817079039956
-0.003767515795647739,0.02408273857917205
-0.003767345795647739,0.02408273857917205
-0.003767175795647739,0.02342446742408199
-0.003767005795647739,0.02401691146366293
-0.003766835795647739,0.02372068944387192
-0.003766665795647739,0.02391817079039657
-0.003766495795647739,0.02243706069144419
-0.003766325795647739,0.02530054021609066
-0.003766155795647739,0.02431313348345425
-0.003765985795647739,0.02447770127222673
-0.003765815795647739,0.02401691146366293
-0.003765645795647739,0.02437896059896294
-0.003765475795647739,0.02431313348345395
-0.003765305795647739,0.0248068368497723
-0.003765135795647739,0.02500431819629935
-0.003764965795647739,0.02483975040752686
-0.003764795795647739,0.02421439281019028
-0.003764625795647739,0.02385234367489027
-0.003764455795647739,0.02391817079039926
-0.003764285795647739,0.02385234367489015
-0.003764115795647739,0.02368777588611706
-0.003763945795647739,0.02352320809734458
-0.003763775795647739,0.02342446742408091
-0.003763605795647739,0.02365486232836262
-0.003763435795647739,0.02355612165509913
-0.003763265795647739,0.02316115896204445
-0.003763095795647739,0.02352320809734392
-0.003762925795647739,0.02263454203797154
-0.003762755795647739,0.02256871492246242
-0.003762585795647739,0.02250288780695343
-0.003762415795647739,0.02227249290267141
-0.003762245795647739,0.02233832001818052
-0.003762075795647739,0.02223957934491703
-0.003761905795647739,0.02220666578716229
-0.003761735795647739,0.02200918444063495
-0.003761565795647739,0.02128508617003601
-0.003761395795647739,0.02141674040105292
-0.003761225795647739,0.02092303703473456
-0.003761055795647739,0.02079138280371658
-0.003760885795647739,0.02079138280371634
-0.003760715795647739,0.02085720991922545
-0.003760545795647739,0.02105469126575243
-0.003760375795647739,0.02056098789943444
-0.003760205795647739,0.02026476587964342
-0.003760035795647739,0.02016602520637993
-0.003759865795647739,0.02010019809087064
-0.003759695795647739,0.01977106251332507
-0.003759525795647739,0.01963940828230708
-0.003759355795647739,0.02006728453311608
-0.003759185795647739,0.02000145741760697
-0.003759015795647739,0.01947484049353501
-0.003758845795647739,0.01960649472455228
-0.003758675795647739,0.01891531001170658
-0.003758505795647739,0.0185203473186519
-0.003758335795647739,0.01822412529886088
-0.003758165795647739,0.01832286597212456
-0.003757995795647739,0.0180595575100881
-0.003757825795647739,0.01848743376089734
-0.003757655795647739,0.01865200154967013
-0.003757485795647739,0.01871782866517924
-0.003757315795647739,0.01888239645395244
-0.003757145795647739,0.01911279135823393
-0.003756975795647739,0.01828995241437
-0.003756805795647739,0.01950775405128891
-0.003756635795647739,0.0196723218400614
-0.003756465795647739,0.01996854385985241
-0.003756295795647739,0.02013311164862591
-0.003756125795647739,0.02052807434167988
-0.003755955795647739,0.02029767943739798
-0.003755785795647739,0.02046224722617059
-0.003755615795647739,0.0203635065529071
-0.003755445795647739,0.02023185232188887
-0.003755275795647739,0.02042933366841423
-0.003755105795647739,0.01934318626251582
-0.003754935795647739,0.01970523539781595
-0.003754765795647739,0.01927735914700659
-0.003754595795647739,0.0192115320314976
-0.003754425795647739,0.01835577952987911
-0.003754255795647739,0.01792790327906975
-0.003754085795647739,0.01786207616356076
-0.003753915795647739,0.01723671856622417
-0.003753745795647739,0.01697341010418771
-0.003753575795647739,0.01697341010418771
-0.003753405795647739,0.01730254568173328
-0.003753235795647739,0.01763168125927922
-0.003753065795647739,0.0178291626058062
-0.003752895795647739,0.01756585414376974
-0.003752725795647739,0.01792790327906921
-0.003752555795647739,0.01756585414376974
-0.003752385795647739,0.01743419991275151
-0.003752215795647739,0.01717089145071553
-0.003752045795647739,0.01687466943092404
-0.003751875795647739,0.01680884231541493
-0.003751705795647739,0.01631513894909747
-0.003751535795647739,0.0162163982758329
-0.003751365795647739,0.01631513894909657
-0.003751195795647739,0.01608474404481509
-0.003751025795647739,0.01601891692930556
-0.003750855795647739,0.01664427452664214
-0.003750685795647739,0.01605183048706119
-0.003750515795647739,0.01657844741113303
-0.003750345795647739,0.01684175587316948
-0.003750175795647739,0.01746711347050493
-0.003750005795647739,0.01746711347050607
-0.003749835795647739,0.01753294058601518
-0.003749665795647739,0.01799373039457814
-0.003749495795647739,0.0175987677015243
-0.003749325795647739,0.01769750837478797
-0.003749155795647739,0.01802664395233294
-0.003748985795647739,0.01766459481703341
-0.003748815795647739,0.01825703885661544
-0.003748645795647739,0.01802664395233396
-0.003748475795647739,0.01861908799191557
-0.003748305795647739,0.01838869308763367
-0.003748135795647739,0.01842160664538823
-0.003747965795647739,0.01819121174110632
-0.003747795795647739,0.01881656933844291
-0.003747625795647739,0.02049516078392532
-0.003747455795647739,0.0173683727972424
-0.003747285795647739,0.0192115320314976
-0.003747115795647739,0.01894822356946114
-0.003746945795647739,0.01931027270476127
-0.003746775795647739,0.01934318626251582
-0.003746605795647739,0.01891531001170658
-0.003746435795647739,0.0194419269357789
-0.003746265795647739,0.01911279135823393
-0.003746095795647739,0.01838869308763367
-0.003745925795647739,0.01828995241436934
-0.003745755795647739,0.01792790327906987
-0.003745585795647739,0.0169075829886786
-0.003745415795647739,0.01615057116032223
-0.003745245795647739,0.0152948186587053
-0.003745075795647739,0.01499859663891429
-0.003744905795647739,0.01450489327259581
-0.003744735795647739,0.01443906615708682
-0.003744565795647739,0.01496568308115973
-0.003744395795647739,0.01499859663891429
-0.003744225795647739,0.01499859663891429
-0.003744055795647739,0.01532773221645986
-0.003743885795647739,0.01549230000523366
-0.003743715795647739,0.01605183048706011
-0.003743545795647739,0.01674301519990581
-0.003743375795647739,0.01671010164215168
-0.003743205795647739,0.01694049654643316
-0.003743035795647739,0.01654553385337847
-0.003742865795647739,0.01667718808439694
-0.003742695795647739,0.01680884231541493
-0.003742525795647739,0.01703923721969683
-0.003742355795647739,0.01661136096888752
-0.003742185795647739,0.01657844741113303
-0.003742015795647739,0.01615057116032378
-0.003741845795647739,0.01559104067849733
-0.003741675795647739,0.0155252135629872
-0.003741505795647739,0.01615057116032378
-0.003741335795647739,0.01605183048706029
-0.003741165795647739,0.01615057116032378
-0.003740995795647739,0.01651262029562391
-0.003740825795647739,0.01687466943092338
-0.003740655795647739,0.0175987677015243
-0.003740485795647739,0.01733545923948784
-0.003740315795647739,0.0178620761635598
-0.003740145795647739,0.01809247106784265
-0.003739975795647739,0.0187507422229338
-0.003739805795647739,0.01832286597212533
-0.003739635795647739,0.01750002702826063
-0.003739465795647739,0.01792790327906987
-0.003739295795647739,0.01796081683682437
-0.003739125795647739,0.01812538462559721
-0.003738955795647739,0.01799373039457898
-0.003738785795647739,0.01819121174110596
-0.003738615795647739,0.01789498972131531
-0.003738445795647739,0.01746711347050607
-0.003738275795647739,0.01726963212397909
-0.003738105795647739,0.01651262029562391
-0.003737935795647739,0.01631513894909657
-0.003737765795647739,0.01690758298867752
-0.003737595795647739,0.01631513894909657
-0.003737425795647739,0.0164467931801148
-0.003737255795647739,0.01624931183358745
-0.003737085795647739,0.01657844741113303
-0.003736915795647739,0.01601891692930556
-0.003736745795647739,0.01638096606460569
-0.003736575795647739,0.01661136096888758
-0.003736405795647739,0.01628222539134202
-0.003736235795647739,0.01842160664538823
-0.003736065795647739,0.01644679318011246
-0.003735895795647739,0.01516316442768707
-0.003735725795647739,0.01572269490951454
-0.003735555795647739,0.01631513894909681
-0.003735385795647739,0.0164467931801148
-0.003735215795647739,0.01680884231541493
-0.003735045795647739,0.01664427452664118
-0.003734875795647739,0.01611765760256923
-0.003734705795647739,0.01611765760256923
-0.003734535795647739,0.0157226949095137
-0.003734365795647739,0.01526190510095074
-0.003734195795647739,0.01509733731217796
-0.003734025795647739,0.01466946106136794
-0.003733855795647739,0.01424158481055947
-0.003733685795647739,0.01440615259933226
-0.003733515795647739,0.01437323904157848
-0.003733345795647739,0.01480111529238694
-0.003733175795647739,0.01457072038810504
-0.003733005795647739,0.01460363394585912
-0.003732835795647739,0.01434032548382314
-0.003732665795647739,0.01427449836831403
-0.003732495795647739,0.01453780683035019
-0.003732325795647739,0.0143732390415777
-0.003732155795647739,0.0143732390415777
-0.003731985795647739,0.01463654750361362
-0.003731815795647739,0.01434032548382314
-0.003731645795647739,0.01430741192606859
-0.003731475795647739,0.01374788144424213
-0.003731305795647739,0.01338583230894099
-0.003731135795647739,0.01332000519343187
-0.003730965795647739,0.01341874586669537
-0.003730795795647739,0.01348457298220466
-0.003730625795647739,0.01312252384690453
-0.003730455795647739,0.01266173403834157
-0.003730285795647739,0.01259590692283162
-0.003730115795647739,0.0127604747116044
-0.003729945795647739,0.01312252384690387
-0.003729775795647739,0.01332000519343187
-0.003729605795647739,0.01308961028914997
-0.003729435795647739,0.01368205432873093
-0.003729265795647739,0.01384662211750479
-0.003729095795647739,0.0148340288501415
-0.003728925795647739,0.01473528817687801
-0.003728755795647739,0.01404410346403213
-0.003728585795647739,0.01707215077745139
-0.003728415795647739,0.01555812712074451
-0.003728245795647739,0.01638096606460569
-0.003728075795647739,0.01631513894909657
-0.003727905795647739,0.01654553385337805
-0.003727735795647739,0.01647970673786936
-0.003727565795647739,0.01657844741113303
-0.003727395795647739,0.01605183048706107
-0.003727225795647739,0.01572269490951454
-0.003727055795647739,0.01559104067849632
-0.003726885795647739,0.01532773221645986
-0.003726715795647739,0.01526190510095074
-0.003726545795647739,0.01568978135175999
-0.003726375795647739,0.01568978135175999
-0.003726205795647739,0.0157556084672691
-0.003726035795647739,0.01578852202502366
-0.003725865795647739,0.0152948186587053
-0.003725695795647739,0.01568978135175999
-0.003725525795647739,0.01545938644747809
-0.003725355795647739,0.0155252135629872
-0.003725185795647739,0.01555812712074068
-0.003725015795647739,0.01496568308115973
-0.003724845795647739,0.01457072038810504
-0.003724675795647739,0.01430741192606865
-0.003724505795647739,0.01434032548382314
-0.003724335795647739,0.0143732390415777
-0.003724165795647739,0.01374788144424219
-0.003723995795647739,0.01434032548382314
-0.003723825795647739,0.0146036339458596
-0.003723655795647739,0.01420867125280641
-0.003723485795647739,0.01503151019666884
-0.003723315795647739,0.0150644237544234
-0.003723145795647739,0.01519607798544181
-0.003722975795647739,0.0152948186587053
-0.003722805795647739,0.01509733731217796
-0.003722635795647739,0.01516316442768665
-0.003722465795647739,0.01493276952340517
-0.003722295795647739,0.0146036339458596
-0.003722125795647739,0.01427449836831355
-0.003721955795647739,0.01401118990627757
-0.003721785795647739,0.01420867125280492
-0.003721615795647739,0.014439066157087
-0.003721445795647739,0.01453780683035049
-0.003721275795647739,0.01480111529238694
-0.003721105795647739,0.01509733731217838
-0.003720935795647739,0.01532773221645986
-0.003720765795647739,0.01555812712074176
-0.003720595795647739,0.01476820173463382
-0.003720425795647739,0.01592017625604189
-0.003720255795647739,0.01605183048706011
-0.003720085795647739,0.0161834847180781
-0.003719915795647739,0.01664427452664214
-0.003719745795647739,0.01611765760256923
-0.003719575795647739,0.01628222539134172
-0.003719405795647739,0.01588726269828733
-0.003719235795647739,0.0169075829886786
-0.003719065795647739,0.01529481865870823
-0.003718895795647739,0.01526190510095074
