Analysis/New Tests_CMB/wrd01_d2s01_new/cmb07_ch38.csv

#Digilent WaveForms Oscilloscope Acquisition
#Device Name: ADP3450
#Serial Number: SN:210018B9D9B0
#Date Time: 2024-08-15 12:37:17.022.216.080
#Sample rate: 5.88235e+06Hz
#Samples: 32768
#Trigger: Source: Channel 3 Type: Edge Condition: Rising Level: 40 mV Hyst.: Auto HoldOff: 0 s
#Channel 3: Range: 100 mV/div Offset: 0 V Attenuation: 1 X Coupling: DC Bandwidth: 0 Hz Sample Mode: Average

Time (s),Channel 3 (V)
-0.003168883701247444,0.01016030364899439
-0.003168713701247443,0.009699513840430473
-0.003168543701247444,0.009633686724921478
-0.003168373701247444,0.009403291820639578
-0.003168203701247443,0.009238724031865415
-0.003168033701247444,0.008481712203511979
-0.003167863701247444,0.00811966306821185
-0.003167693701247443,0.0071322563355743
-0.003167523701247444,0.006671466527011338
-0.003167353701247444,0.006375244507220324
-0.003167183701247443,0.005585319121110415
-0.003167013701247444,0.00528909710131994
-0.003166843701247444,0.005025788639283483
-0.003166673701247443,0.004795393735001164
-0.003166503701247444,0.004564998830719684
-0.003166333701247444,0.004104209022155884
-0.003166163701247443,0.003807987002365229
-0.003165993701247444,0.004005468348892213
-0.003165823701247444,0.003972554791137656
-0.003165653701247443,0.004202949695420692
-0.003165483701247444,0.00482830729275614
-0.003165313701247444,0.005420751332338168
-0.003165143701247444,0.005684059794374146
-0.003164973701247444,0.006243590276202096
-0.003164803701247444,0.006243590276202096
-0.003164633701247444,0.006013195371920615
-0.003164463701247444,0.00607902248742931
-0.003164293701247444,0.005782800467638296
-0.003164123701247444,0.005848627583147291
-0.003163953701247444,0.005223269985810825
-0.003163783701247444,0.004992875081528926
-0.003163613701247444,0.004301690368684484
-0.003163443701247444,0.004729566619492469
-0.003163273701247444,0.004367517484192341
-0.003163103701247444,0.004038381906647368
-0.003162933701247444,0.004137122579910441
-0.003162763701247444,0.003939641233383098
-0.003162593701247444,0.003511764982574635
-0.003162423701247444,0.004499171715210569
-0.003162253701247444,0.00403838190664677
-0.003162083701247444,0.004499171715209731
-0.003161913701247443,0.00380798700236487
-0.003161743701247444,0.003544678540328413
-0.003161573701247444,0.003018061616256458
-0.003161403701247443,0.002392704018918914
-0.003161233701247444,0.002359790461164357
-0.003161063701247444,0.002063568441373882
-0.003160893701247443,0.001899000652600558
-0.003160723701247444,0.001372383728527644
-0.003160553701247444,-9.985697163754359e-06
-0.003160383701247443,0.0007470261311910591
-0.003160213701247444,0.0001874956493635883
-0.003160043701247444,-0.0001416399281819828
-0.003159873701247443,-0.0006353432945003394
-0.003159703701247444,-0.001161960218573253
-0.003159533701247444,-0.001458182238364267
-0.003159363701247443,-0.00198479916243742
-0.003159193701247444,-0.002116453393455409
-0.003159023701247444,-0.002017712720191738
-0.003158853701247443,-0.002149366951210026
-0.003158683701247444,-0.002182280508964523
-0.003158513701247444,-0.002313934739982752
-0.003158343701247443,-0.002511416086509735
-0.003158173701247444,-0.002313934739982752
-0.003158003701247444,-0.002083539835700852
-0.003157833701247443,-0.001655663584891729
-0.003157663701247444,-0.001721490700400724
-0.003157493701247444,-0.001326528007346039
-0.003157323701247443,-0.001260700891836505
-0.003157153701247444,-0.001030305987555025
-0.003156983701247444,-0.0007011704100094536
-0.003156813701247443,-0.0007011704100091542
-0.003156643701247444,-0.0005366026212366681
-0.003156473701247444,-7.581281267286857e-05
-0.003156303701247443,0.0006153719001739084
-0.003156133701247444,0.001207815939754859
-0.003155963701247444,0.001997741325864229
-0.003155793701247443,0.0006482854579295431
-0.003155623701247444,0.001833173537091444
-0.003155453701247444,0.001668605748318658
-0.003155283701247443,0.001438210844038016
-0.003155113701247444,0.002129395556882458
-0.003154943701247444,0.001964827768109672
-0.003154773701247444,0.001964827768109672
-0.003154603701247444,0.001800259979336887
-0.003154433701247444,0.001438210844036758
-0.003154263701247444,0.001240729497509775
-0.003154093701247444,0.001010334593227516
-0.003153923701247444,0.001438210844036758
-0.003153753701247444,0.0008457668044558081
-0.003153583701247444,0.000714112573436502
-0.003153413701247444,0.0003191498803818167
-0.003153243701247444,0.0008786803622082698
-0.003153073701247444,0.0009445074777184018
-0.003152903701247444,0.00107616170873663
-0.003152733701247444,0.001536951517299592
-0.003152563701247444,0.001372383728527644
-0.003152393701247444,0.001833173537091444
-0.003152223701247444,0.001734432863827952
-0.003152053701247444,0.002162309114637015
-0.003151883701247444,0.001964827768109672
-0.003151713701247444,0.001767346421582689
-0.003151543701247443,0.001701519306073215
-0.003151373701247444,0.001207815939754859
-0.003151203701247444,0.0005166312269104166
-0.003151033701247443,0.0001545820916090312
-0.003150863701247444,0.0001216685338544741
-0.003150693701247444,-0.0005366026212354707
-0.003150523701247443,-0.001293614449591481
-0.003150353701247444,-0.00142526868060971
-0.003150183701247444,-0.002017712720191738
-0.003150013701247443,-0.002313934739982752
-0.003149843701247444,-0.00244558897100098
-0.003149673701247444,-0.002215194066719081
-0.003149503701247443,-0.002708897433037437
-0.003149333701247444,-0.002478502528755537
-0.003149163701247444,-0.002708897433037437
-0.003148993701247443,-0.002610156759773766
-0.003148823701247444,-0.002478502528755537
-0.003148653701247444,-0.002610156759773766
-0.003148483701247443,-0.002610156759773945
-0.003148313701247444,-0.002708897433037437
-0.003148143701247444,-0.002774724548546551
-0.003147973701247443,-0.002807638106301348
-0.003147803701247444,-0.002939292337319337
-0.003147633701247444,-0.002873465221810222
-0.003147463701247443,-0.003465909261391592
-0.003147293701247444,-0.003103860126092122
-0.003147123701247444,-0.004354575320765292
-0.003146953701247443,-0.004255834647502698
-0.003146783701247444,-0.004848278687083649
-0.003146613701247444,-0.004848278687083649
-0.003146443701247443,-0.004749538013820337
-0.003146273701247444,-0.00494701936034732
-0.003146103701247444,-0.005111587149120106
-0.003145933701247443,-0.005045760033610094
-0.003145763701247444,-0.004552056667292635
-0.003145593701247444,-0.00392669906995605
-0.003145423701247443,-0.003465909261390934
-0.003145253701247444,-0.002741810990791994
-0.003145083701247444,-0.002873465221810222
-0.003144913701247443,-0.002544329644263933
-0.003144743701247444,-0.002149366951209966
-0.003144573701247444,-0.002215194066719081
-0.003144403701247443,-0.001918972046927767
-0.003144233701247444,-0.001754404258155281
-0.003144063701247444,-0.001524009353873381
-0.003143893701247444,-0.0008657381987834366
-0.003143723701247444,-0.001129046660818696
-0.003143553701247444,-0.001458182238364267
-0.003143383701247444,-0.001326528007346278
-0.003143213701247444,-0.001491095796118824
-0.003143043701247444,-0.001787317815909838
-0.003142873701247444,-0.002050626277945816
-0.003142703701247444,-0.002050626277946295
-0.003142533701247444,-0.001984799162437181
-0.003142363701247444,-0.002281021182227656
-0.003142193701247444,-0.002182280508964523
-0.003142023701247444,-0.002116453393455409
-0.003141853701247444,-0.001721490700401442
-0.003141683701247444,-0.00244558897100098
-0.003141513701247444,-0.001161960218573253
-0.003141343701247444,-0.0009315653142917724
-0.003141173701247444,-0.001392355122855153
-0.003141003701247444,-0.001524009353873381
-0.003140833701247444,-0.001326528007346398
-0.003140663701247443,-0.00188605848917351
-0.003140493701247444,-0.00188605848917351
-0.003140323701247444,-0.002248107624472979
-0.003140153701247443,-0.00290637877956478
-0.003139983701247444,-0.003630477050165036
-0.003139813701247444,-0.004190007531992507
-0.003139643701247443,-0.004354575320765292
-0.003139473701247444,-0.004782451571574535
-0.003139303701247444,-0.00540780916891112
-0.003139133701247443,-0.005671117630947577
-0.003138963701247444,-0.006296475228284162
-0.003138793701247444,-0.006724351479093405
-0.003138623701247443,-0.006987659941129861
-0.003138453701247444,-0.007349709076429989
-0.003138283701247444,-0.007876326000502903
-0.003138113701247443,-0.007382622634185025
-0.003137943701247444,-0.007645931096221003
-0.003137773701247444,-0.007711758211730118
-0.003137603701247443,-0.007810498884993909
-0.003137433701247444,-0.007876326000502903
-0.003137263701247444,-0.008567510713348603
-0.003137093701247443,-0.006197734555021029
-0.003136923701247444,-0.006493956574811504
-0.003136753701247444,-0.006164820997265934
-0.003136583701247443,-0.005243241380137975
-0.003136413701247444,-0.005045760033610991
-0.003136243701247444,-0.00438748887851985
-0.003136073701247443,-0.003729217723427211
-0.003135903701247444,-0.00290637877956478
-0.003135733701247444,-0.002281021182228195
-0.003135563701247443,-0.002050626277945457
-0.003135393701247444,-0.001589836469382495
-0.003135223701247444,-0.0007999110832731249
-0.003135053701247443,-0.0004707755057270749
-0.003134883701247444,-0.000207467043691097
-0.003134713701247444,-0.0001745534859365399
-0.003134543701247443,-0.0005366026212366681
-0.003134373701247444,-0.0005366026212366681
-0.003134203701247444,-0.0008986517565367963
-0.003134033701247443,-0.001359441565101853
-0.003133863701247444,-0.002050626277946295
-0.003133693701247444,-0.001359441565100596
-0.003133523701247444,-0.002281021182226518
-0.003133353701247444,-0.002544329644264652
-0.003133183701247444,-0.003432995703637694
-0.003133013701247444,-0.003696304165673671
-0.003132843701247444,-0.004255834647501621
-0.003132673701247444,-0.003762131281183265
-0.003132503701247444,-0.004190007531991729
-0.003132333701247444,-0.003893785512201493
-0.003132163701247444,-0.003564649934655922
-0.003131993701247444,-0.003169687241601955
-0.003131823701247444,-0.002412675413246423
-0.003131653701247444,-0.002511416086510094
-0.003131483701247444,-0.00221519406671962
-0.003131313701247444,-0.002116453393455409
-0.003131143701247444,-0.001392355122855153
-0.003130973701247444,-0.001886058489172612
-0.003130803701247444,-0.001227787334082367
-0.003130633701247444,-0.001030305987555025
-0.003130463701247444,-0.0005036890634830688
-0.003130293701247443,-0.0003720348324638825
-0.003130123701247444,-4.289925491831147e-05
-0.003129953701247444,-4.289925491831147e-05
-0.003129783701247443,-0.000207467043691097
-0.003129613701247444,0.0002204092071181454
-0.003129443701247444,0.0003520634381361344
-0.003129273701247443,0.0001545820916090312
-0.003129103701247444,2.292786059080275e-05
-0.003128933701247444,-0.0005695161789912252
-0.003128763701247443,-0.001096133103064139
-0.003128593701247444,-0.001392355122855153
-0.003128423701247444,-0.001918972046928067
-0.003128253701247443,-0.002511416086510094
-0.003128083701247444,-0.003070946568337565
-0.003127913701247444,-0.003301341472619465
-0.003127743701247443,-0.003992526185466003
-0.003127573701247444,-0.004453315994028964
-0.003127403701247444,-0.00540780916891112
-0.003127233701247443,-0.005539463399929408
-0.003127063701247444,-0.005572376957683906
-0.003126893701247444,-0.005802771861965805
-0.003126723701247443,-0.005736944746455733
-0.003126553701247444,-0.005210327822383777
-0.003126383701247444,-0.004617883782801749
-0.003126213701247443,-0.004848278687084367
-0.003126043701247444,-0.005243241380138334
-0.003125873701247444,-0.005572376957683906
-0.003125703701247443,-0.005638204073193079
-0.003125533701247444,-0.005671117630947577
-0.003125363701247444,-0.005341982053402005
-0.003125193701247443,-0.005341982053402664
-0.003125023701247444,-0.005704031188702134
-0.003124853701247444,-0.006066080324002262
-0.003124683701247443,-0.006066080324001783
-0.003124513701247444,-0.005802771861965805
-0.003124343701247444,-0.005671117630947577
-0.003124173701247443,-0.005243241380137616
-0.003124003701247444,-0.004848278687083649
-0.003123833701247444,-0.004420402436274407
-0.003123663701247443,-0.004091266858727819
-0.003123493701247444,-0.003531736376901365
-0.003123323701247444,-0.00336716858812858
-0.003123153701247444,-0.003070946568338104
-0.003122983701247444,-0.00267598387528288
-0.003122813701247444,-0.003663390607919593
-0.003122643701247444,-0.00310386012609314
-0.003122473701247444,-0.002149366951209966
-0.003122303701247444,-0.002149366951209966
-0.003122133701247444,-0.001655663584892508
-0.003121963701247444,-0.00142526868060971
-0.003121793701247444,-0.001359441565100596
-0.003121623701247444,-0.00178731781590906
-0.003121453701247444,-0.001458182238364267
-0.003121283701247444,-0.00188605848917351
-0.003121113701247444,-0.00175440425815552
-0.003120943701247444,-0.00165566358489161
-0.003120773701247444,-0.001853144931418952
-0.003120603701247444,-0.001622750027137472
-0.003120433701247444,-0.001820231373664395
-0.003120263701247444,-0.002116453393455409
-0.003120093701247444,-0.001853144931419431
-0.003119923701247444,-0.002346848297737309
-0.003119753701247444,-0.002017712720191738
-0.003119583701247444,-0.003038033010581152
-0.003119413701247443,-0.003400082145883136
-0.003119243701247444,-0.003663390607919593
-0.003119073701247444,-0.003795044838937582
-0.003118903701247443,-0.004584970225047193
-0.003118733701247444,-0.004584970225047193
-0.003118563701247444,-0.005144500706874663
-0.003118393701247443,-0.005210327822383777
-0.003118223701247444,-0.005605290515438462
-0.003118053701247444,-0.005341982053402005
-0.003117883701247443,-0.005309068495647449
-0.003117713701247444,-0.004749538013819977
-0.003117543701247444,-0.004519143109538078
-0.003117373701247443,-0.004058353300974278
-0.003117203701247444,-0.003992526185465165
-0.003117033701247444,-0.003235514357110351
-0.003116863701247443,-0.003432995703636676
-0.003116693701247444,-0.002873465221810222
-0.003116523701247444,-0.002939292337319337
-0.003116353701247443,-0.002939292337318678
-0.003116183701247444,-0.002577243202019209
-0.003116013701247444,-0.002610156759773766
-0.003115843701247443,-0.002511416086510094
-0.003115673701247444,-0.002511416086510094
-0.003115503701247444,-0.002182280508964523
-0.003115333701247443,-0.002708897433036898
-0.003115163701247444,-0.002412675413246423
-0.003114993701247444,-0.002248107624473638
-0.003114823701247443,-0.002281021182228793
-0.003114653701247444,-0.002610156759773766
-0.003114483701247444,-0.00244558897100098
-0.003114313701247443,-0.002412675413246842
-0.003114143701247444,-0.002643070317528323
-0.003113973701247444,-0.002774724548546551
-0.003113803701247443,-0.00300511945282881
-0.003113633701247444,-0.003202600799355794
-0.003113463701247444,-0.003202600799355794
-0.003113293701247443,-0.002281021182229871
-0.003113123701247444,-0.003202600799355794
-0.003112953701247444,-0.002643070317528323
-0.003112783701247443,-0.003136773683845602
-0.003112613701247444,-0.002544329644264652
-0.003112443701247444,-0.003235514357110351
-0.003112273701247444,-0.002873465221810881
-0.003112103701247444,-0.00290637877956478
-0.003111933701247444,-0.003202600799355794
-0.003111763701247444,-0.00300511945282881
-0.003111593701247444,-0.002807638106301108
-0.003111423701247444,-0.003005119452828451
-0.003111253701247444,-0.002412675413247501
-0.003111083701247444,-0.003235514357110351
-0.003110913701247444,-0.003235514357110351
-0.003110743701247444,-0.003136773683846859
-0.003110573701247444,-0.002939292337319337
-0.003110403701247444,-0.00267598387528288
-0.003110233701247444,-0.002873465221809863
-0.003110063701247444,-0.001951885604682624
-0.003109893701247444,-0.001721490700400724
-0.003109723701247444,-0.001063219545310779
-0.003109553701247444,-0.0007340839677640107
-0.003109383701247444,-0.0001745534859365399
-0.003109213701247444,0.0001216685338539352
-0.003109043701247443,0.0003191498803818167
-0.003108873701247444,0.0002533227648727025
-0.003108703701247444,0.0006153719001721721
-0.003108533701247443,0.0006811990156819448
-0.003108363701247444,0.0007470261311910591
-0.003108193701247444,0.0002862363226280978
-0.003108023701247443,2.292786059080275e-05
-0.003107853701247444,0.0002533227648727025
-0.003107683701247444,-0.0001416399281819828
-0.003107513701247443,-0.0007011704100094536
-0.003107343701247444,-0.0008986517565367963
-0.003107173701247444,-0.001491095796118824
-0.003107003701247443,-0.001326528007346039
-0.003106833701247444,-0.001359441565100596
-0.003106663701247444,-0.001227787334082367
-0.003106493701247443,-0.001194873776327631
-0.003106323701247444,-0.001096133103064139
-0.003106153701247444,-0.0005366026212366681
-0.003105983701247443,-0.0006353432944980643
-0.003105813701247444,0.0006153719001728307
-0.003105643701247444,0.0002862363226272596
-0.003105473701247443,0.001306556613017931
-0.003105303701247444,0.0009774210354729588
-0.003105133701247444,0.0006153719001728307
-0.003104963701247443,0.00051663122690886
-0.003104793701247444,0.0003520634381363738
-0.003104623701247444,-0.0001745534859365399
-0.003104453701247443,-0.0009644788720463895
-0.003104283701247444,-0.001227787334082367
-0.003104113701247444,-0.002248107624473638
-0.003103943701247443,-0.002708897433038335
-0.003103773701247444,-0.003202600799355794
-0.003103603701247444,-0.003860871954446936
-0.003103433701247443,-0.004749538013821174
-0.003103263701247444,-0.00540780916891112
-0.003103093701247444,-0.005671117630947577
-0.003102923701247443,-0.006197734555021029
-0.003102753701247444,-0.006493956574811504
-0.003102583701247444,-0.006164820997265934
-0.003102413701247443,-0.00586859897747474
-0.003102243701247444,-0.005769858304211248
-0.003102073701247444,-0.005539463399929348
-0.003101903701247444,-0.005440722726665856
-0.003101733701247444,-0.005210327822383777
-0.003101563701247444,-0.005144500706874663
-0.003101393701247444,-0.004848278687084187
-0.003101223701247444,-0.004716624456065421
-0.003101053701247444,-0.004782451571574535
-0.003100883701247444,-0.005012846475856016
-0.003100713701247444,-0.004848278687083649
-0.003100543701247444,-0.005539463399929348
-0.003100373701247444,-0.005835685419719823
-0.003100203701247444,-0.006000253208493148
-0.003100033701247444,-0.00619773455502049
-0.003099863701247444,-0.006428129459301972
-0.003099693701247444,-0.006230648112775047
-0.003099523701247444,-0.005967339650738591
-0.003099353701247444,-0.005605290515439121
-0.003099183701247444,-0.00517741426462922
-0.003099013701247444,-0.004749538013819977
-0.003098843701247444,-0.003992526185466542
-0.003098673701247443,-0.003400082145883136
-0.003098503701247444,-0.002807638106301108
-0.003098333701247444,-0.00195188560468418
-0.003098163701247443,-0.001589836469382495
-0.003097993701247444,-0.001227787334082367
-0.003097823701247444,-0.0007999110832739031
-0.003097653701247443,-0.000832824641027682
-0.003097483701247444,-0.0005036890634821109
-0.003097313701247444,-0.0007669975255185678
-0.003097143701247443,-0.0005695161789912252
-0.003096973701247444,-0.0003391212747093254
-0.003096803701247444,-0.0007011704100094536
-0.003096633701247443,-0.0003391212747093254
-0.003096463701247444,-0.0006682568522548965
-0.003096293701247444,-0.0004049483902184396
-0.003096123701247443,-0.0002732941592002112
-0.003095953701247444,-0.0003391212747093254
-0.003095783701247444,-0.0004378619479729968
-0.003095613701247443,-0.0003062077169554868
-0.003095443701247444,-0.0007011704100094536
-0.003095273701247444,-0.0002732941592002112
-0.003095103701247443,-0.001194873776328648
-0.003094933701247444,-0.00165566358489161
-0.003094763701247444,-0.002577243202019209
-0.003094593701247443,-0.003465909261393089
-0.003094423701247444,-0.00392669906995605
-0.003094253701247444,-0.004914105802592763
-0.003094083701247443,-0.005572376957684504
-0.003093913701247444,-0.005901512535229476
-0.003093743701247444,-0.005934426092984033
-0.003093573701247443,-0.006395215901546636
-0.003093403701247444,-0.005736944746456691
-0.003093233701247444,-0.006263561670529605
