Analysis/New Tests_CMB/wrd01_d2s01_new/cmb01_ch47.csv

#Digilent WaveForms Oscilloscope Acquisition
#Device Name: ADP3450
#Serial Number: SN:210018B9D9B0
#Date Time: 2024-08-14 15:07:45.892.693.540
#Sample rate: 5.88235e+06Hz
#Samples: 32768
#Trigger: Source: Channel 3 Type: Edge Condition: Rising Level: 90 mV Hyst.: Auto HoldOff: 0 s
#Channel 3: Range: 100 mV/div Offset: 0 V Attenuation: 1 X Coupling: DC Bandwidth: 0 Hz Sample Mode: Average

Time (s),Channel 3 (V)
-0.003798430913525931,0.2324255591655185
-0.003798260913525931,0.2422008858186042
-0.003798090913525932,0.2504292752572463
-0.003797920913525932,0.2571107274814121
-0.003797750913525931,0.2602704290258842
-0.003797580913525931,0.2659315609596576
-0.003797410913525931,0.2674455846163673
-0.003797240913525931,0.2697166201014276
-0.003797070913525932,0.2687621269265513
-0.003796900913525932,0.2675772388473899
-0.003796730913525931,0.2664581778837257
-0.003796560913525931,0.2637921797056115
-0.003796390913525931,0.2605995646034194
-0.003796220913525931,0.2578019121942872
-0.003796050913525932,0.2540497666102694
-0.003795880913525932,0.2506596701615555
-0.003795710913525931,0.2456238958250909
-0.003795540913525931,0.2428591569737131
-0.003795370913525931,0.2385145673501116
-0.003795200913525931,0.2355194335944523
-0.003795030913525932,0.2323597320500152
-0.003794860913525932,0.2289696356013023
-0.003794690913525932,0.2256453662680919
-0.003794520913525931,0.2221236155883421
-0.003794350913525931,0.2187006055818682
-0.003794180913525931,0.2152775955754005
-0.003794010913525932,0.2115583635491361
-0.003793840913525932,0.2081024399849134
-0.003793670913525932,0.2043832079586494
-0.003793500913525931,0.2007956301633891
-0.003793330913525931,0.1968460032328423
-0.003793160913525931,0.1927647220712846
-0.003792990913525932,0.1892100578337915
-0.003792820913525932,0.1849312953257082
-0.003792650913525932,0.1812778904149501
-0.003792480913525931,0.1775915719464264
-0.003792310913525931,0.1731811552073157
-0.003792140913525931,0.1695277502965665
-0.003791970913525932,0.1653806420194933
-0.003791800913525932,0.1613322744156825
-0.003791630913525932,0.1582054864290036
-0.003791460913525931,0.1547495628647638
-0.003791290913525931,0.1513265528582898
-0.003791120913525931,0.1480681106405946
-0.003790950913525932,0.1451388040004384
-0.003790780913525932,0.1421107566870193
-0.003790610913525932,0.1392472771623778
-0.003790440913525931,0.1365154518687391
-0.003790270913525931,0.1342773299414292
-0.003790100913525931,0.1316442453210647
-0.003789930913525931,0.1296694318557948
-0.003789760913525932,0.1271680014664495
-0.003789590913525932,0.1250944473279154
-0.003789420913525931,0.1228234118428434
-0.003789250913525931,0.1209802526085882
-0.003789080913525931,0.1192687476053512
-0.003788910913525931,0.1175572426021173
-0.003788740913525932,0.1157799104833714
-0.003788570913525932,0.1143646274999273
-0.003788400913525931,0.1135417885560508
-0.003788230913525931,0.1094605073944932
-0.003788060913525931,0.1104150005693753
-0.003787890913525931,0.1093288531634769
-0.003787720913525932,0.1079135701800316
-0.003787550913525932,0.1066628549853604
-0.003787380913525931,0.1050830042131345
-0.003787210913525931,0.1036348076719366
-0.003787040913525931,0.1011004637248357
-0.003786870913525931,0.09968518074139229
-0.003786700913525932,0.09728249102531143
-0.003786530913525932,0.09537350467554967
-0.003786360913525931,0.09185175399580221
-0.003786190913525931,0.09023898966583183
-0.003786020913525931,0.08773755927648549
-0.003785850913525931,0.08513738821388021
-0.003785680913525932,0.0836562781149231
-0.003785510913525932,0.08141815618761868
-0.003785340913525931,0.07977247829987903
-0.003785170913525931,0.0777647512768547
-0.003785000913525931,0.07608615983137229
-0.003784830913525931,0.07496709886771936
-0.003784660913525932,0.07338724809550147
-0.003784490913525932,0.07239984136286547
-0.003784320913525932,0.07167574309226427
-0.003784150913525931,0.07101747193717048
-0.003783980913525931,0.07035920078207933
-0.003783810913525931,0.06907557202965395
-0.003783640913525932,0.06877935000986114
-0.003783470913525932,0.0680881652970174
-0.003783300913525932,0.0674628076996806
-0.003783130913525931,0.06660705519805982
-0.003782960913525931,0.06535634000338666
-0.003782790913525931,0.06403979769320677
-0.003782620913525932,0.06242703336323401
-0.003782450913525932,0.06088009614877252
-0.003782280913525932,0.05936607249206278
-0.003782110913525931,0.05824701152840232
-0.003781940913525931,0.05745708614229295
-0.003781770913525931,0.05610763027435857
-0.003781600913525932,0.05498856931070321
-0.003781430913525932,0.05416573036683874
-0.003781260913525932,0.053244150749713
-0.003781090913525931,0.05209217622830015
-0.003780920913525931,0.05133516439994534
-0.003780750913525931,0.05090728814913686
-0.003780580913525932,0.05001862208976467
-0.003780410913525932,0.04916286958814612
-0.003780240913525932,0.04873499333733688
-0.003780070913525931,0.04768175948918949
-0.003779900913525931,0.04646395785227088
-0.003779730913525931,0.04636521717900721
-0.003779560913525932,0.04537781044637229
-0.003779390913525932,0.04458788506026256
-0.003779220913525932,0.04389670034741794
-0.003779050913525931,0.04287638005702415
-0.003778880913525931,0.03872927177994996
-0.003778710913525931,0.0423826766907058
-0.003778540913525931,0.03925588870402857
-0.003778370913525932,0.03846596331791494
-0.003778200913525932,0.03741272946977151
-0.003778030913525931,0.03616201427509205
-0.003777860913525931,0.03481255840715766
-0.003777690913525931,0.03372641100125728
-0.003777520913525931,0.03280483138413136
-0.003777350913525932,0.03178451109374027
-0.003777180913525932,0.03092875859212304
-0.003777010913525931,0.03023757387927327
-0.003776840913525931,0.02971095695520131
-0.003776670913525931,0.0291843400311284
-0.003776500913525931,0.02878937733807443
-0.003776330913525932,0.02849315531828324
-0.003776160913525932,0.02803236550972058
-0.003775990913525931,0.0276374028166632
-0.003775820913525931,0.02707787233483674
-0.003775650913525931,0.02681456387280029
-0.003775480913525931,0.02625503339097383
-0.003775310913525932,0.02599172492893684
-0.003775140913525932,0.02572841646690086
-0.003774970913525931,0.02562967579363545
-0.003774800913525931,0.02520179954282699
-0.003774630913525931,0.0248068368497723
-0.003774460913525931,0.02474100973426331
-0.003774290913525932,0.02431313348345472
-0.003774120913525932,0.02414856569468176
-0.003773950913525931,0.02418147925243692
-0.003773780913525931,0.02483975040752686
-0.003773610913525931,0.02464226906099952
-0.003773440913525931,0.024872663965281
-0.003773270913525932,0.02457644194549094
-0.003773100913525932,0.02503723175405253
-0.003772930913525932,0.02523471310058083
-0.003772760913525931,0.0252676266583361
-0.003772590913525931,0.0252676266583361
-0.003772420913525931,0.02457644194549166
-0.003772250913525932,0.02474100973426289
-0.003772080913525932,0.02441187415671882
-0.003771910913525932,0.0248397504075253
-0.003771740913525931,0.02395108434815382
-0.003771570913525931,0.02395108434815382
-0.003771400913525931,0.02358903521285435
-0.003771230913525932,0.02293076405776375
-0.003771060913525932,0.02296367761551699
-0.003770890913525932,0.02227249290267392
-0.003770720913525931,0.02125217261228014
-0.003770550913525931,0.02171296242084393
-0.003770380913525931,0.02085720991922701
-0.003770210913525932,0.01954066760904556
-0.003770040913525932,0.0191457049159892
-0.003769870913525932,0.01858617443416305
-0.003769700913525931,0.0185203473186519
-0.003769530913525931,0.01799373039457898
-0.003769360913525931,0.01766459481703341
-0.003769190913525932,0.01766459481703341
-0.003769020913525932,0.01687466943092548
-0.003768850913525932,0.01674301519990629
-0.003768680913525931,0.01654553385337847
-0.003768510913525931,0.01585434914053277
-0.003768340913525931,0.01526190510095074
-0.003768170913525931,0.01509733731217826
-0.003768000913525932,0.01440615259933352
-0.003767830913525932,0.01434032548382338
-0.003767660913525931,0.0139453627907675
-0.003767490913525931,0.01341874586669555
-0.003767320913525931,0.01210220355651326
-0.003767150913525931,0.01266173403833971
-0.003766980913525932,0.01193763576774179
-0.003766810913525932,0.01071983413082629
-0.003766640913525931,0.01019321720674835
-0.003766470913525931,0.009864081629203377
-0.003766300913525931,0.009238724031866792
-0.003766130913525931,0.008119663068213885
-0.003765960913525932,0.007823441048421377
-0.003765790913525932,0.006704380084769967
-0.003765620913525931,0.006144849602937946
-0.003765450913525931,0.005881541140901968
-0.003765280913525931,0.005651146236620068
-0.003765110913525931,0.00502578863928462
-0.003764940913525932,0.004861220850510997
-0.003764770913525932,0.004630825946229635
-0.003764600913525931,0.004235863253173933
-0.003764430913525931,0.004137122579910441
-0.003764260913525931,0.004202949695419555
-0.003764090913525931,0.004301690368683047
-0.003763920913525932,0.004597912388473702
-0.003763750913525932,0.004400431041947616
-0.003763580913525931,0.004466258157456132
-0.003763410913525931,0.004532085272965126
-0.003763240913525931,0.005124529312547154
-0.003763070913525931,0.004334603926439221
-0.003762900913525932,0.004466258157455773
-0.003762730913525932,0.004433344599701575
-0.003762560913525932,0.00449917171521033
-0.003762390913525931,0.004202949695419555
-0.003762220913525931,0.003939641233383098
-0.003762050913525931,0.004137122579910082
-0.003761880913525932,0.004532085272964408
-0.003761710913525932,0.005190356428053874
-0.003761540913525932,0.004367517484195334
-0.003761370913525931,0.005354924216829054
-0.003761200913525931,0.004597912388474241
-0.003761030913525931,0.004696653061737732
-0.003760860913525932,0.00495996152377389
-0.003760690913525932,0.005190356428055431
-0.003760520913525932,0.005651146236618392
-0.003760350913525931,0.005223269985810825
-0.003760180913525931,0.005025788639283483
-0.003760010913525931,0.002623098923205185
-0.003759840913525932,0.005815714025387046
-0.003759670913525932,0.004663739503985451
-0.003759500913525932,0.004959961523773292
-0.003759330913525931,0.004663739503983355
-0.003759160913525931,0.004630825946228797
-0.003758990913525931,0.004663739503983295
-0.003758820913525932,0.004301690368683885
-0.003758650913525932,0.00413712257991074
-0.003758480913525932,0.004499171715209252
-0.003758310913525931,0.00403838190664677
-0.003758140913525931,0.003083888731764614
-0.003757970913525931,0.003840900560119427
-0.003757800913525931,0.003972554791137417
-0.003757630913525932,0.004202949695419136
-0.003757460913525932,0.004762480177244991
-0.003757290913525931,0.004729566619492648
-0.003757120913525931,0.00482830729275614
-0.003756950913525931,0.005190356428056269
-0.003756780913525931,0.005124529312547274
-0.003756610913525932,0.005157442870301652
-0.003756440913525932,0.005289097101319461
-0.003756270913525931,0.005354924216829174
-0.003756100913525931,0.005420751332338168
-0.003755930913525931,0.005354924216829054
-0.003755760913525931,0.004894134408266092
-0.003755590913525932,0.004532085272965784
-0.003755420913525932,0.003709246329104192
-0.003755250913525931,0.003281370078290579
-0.003755080913525931,0.002524358249937143
-0.003754910913525931,0.002129395556882458
-0.003754740913525931,0.001471124401792513
-0.003754570913525932,0.001109075266491846
-0.003754400913525932,0.00107616170873675
-0.003754230913525931,0.0009445074777182821
-0.003754060913525931,0.0008786803622092876
-0.003753890913525931,0.000714112573436502
-0.003753720913525931,0.0006811990156820047
-0.003753550913525932,0.001471124401789879
-0.003753380913525932,0.001602778632809065
-0.003753210913525931,0.00275475315422006
-0.003753040913525931,0.003314283636046514
-0.003752870913525931,0.00380798700236487
-0.003752700913525931,0.004894134408263279
-0.003752530913525932,0.005552405563355199
-0.003752360913525932,0.004696653061741025
-0.003752190913525932,0.005519492005598846
-0.003752020913525931,0.005420751332338168
-0.003751850913525931,0.004400431041946898
-0.003751680913525931,0.004334603926437903
-0.003751510913525932,0.003742159886856834
-0.003751340913525932,0.00331428363604807
-0.003751170913525932,0.002787666711975515
-0.003751000913525931,0.003182629405028285
-0.003750830913525931,0.003347197193801071
-0.003750660913525931,0.003248456520537579
-0.003750490913525932,0.0009445074777225922
-0.003750320913525932,0.003413024309301204
-0.003750150913525932,0.003840900560117871
-0.003749980913525931,0.003643419213592085
-0.003749810913525931,0.003972554791137656
-0.003749640913525931,0.004597912388473104
-0.003749470913525932,0.003873814117875301
-0.003749300913525932,0.003906727675628482
-0.003749130913525932,0.003215542962785357
-0.003748960913525931,0.002392704018918914
-0.003748790913525931,0.002425617576673472
-0.003748620913525931,0.001701519306074532
-0.003748450913525932,0.002030654883618188
-0.003748280913525932,0.001504037959546831
-0.003748110913525932,0.001174902382001499
-0.003747940913525931,0.0007799396889456162
-0.003747770913525931,0.0009774210354729588
-0.003747600913525931,0.0007799396889456162
-0.003747430913525931,0.0009115939199636051
-0.003747260913525932,0.001109075266490828
-0.003747090913525932,0.001536951517298873
-0.003746920913525931,0.001372383728527644
-0.003746750913525931,0.001438210844036758
-0.003746580913525931,0.001339470170773087
-0.003746410913525931,0.001997741325863032
-0.003746240913525932,0.001800259979337246
-0.003746070913525932,0.002063568441372385
-0.003745900913525931,0.002326876903409202
-0.003745730913525931,0.001997741325864229
-0.003745560913525931,0.002656012480955371
-0.003745390913525931,0.002886407385236852
-0.003745220913525932,0.003873814117872188
-0.003745050913525932,0.003906727675628422
-0.003744880913525931,0.004400431041947556
-0.003744710913525931,0.004762480177247026
-0.003744540913525931,0.004992875081528926
-0.003744370913525931,0.004499171715211467
-0.003744200913525932,0.004170036137665597
-0.003744030913525932,0.004038381906647248
-0.003743860913525931,0.003742159886855936
-0.003743690913525931,0.003840900560119427
-0.003743520913525931,0.002853493827482714
-0.003743350913525931,0.002754753154219222
-0.003743180913525932,0.002359790461165076
-0.003743010913525932,0.001964827768111109
-0.003742840913525931,0.002162309114636895
-0.003742670913525931,0.002096481999127901
-0.003742500913525931,0.00176734642158233
-0.003742330913525931,0.002063568441372805
-0.003742160913525932,0.001964827768109851
-0.003741990913525932,0.001668605748319736
-0.003741820913525932,0.001076161708738785
-0.003741650913525931,0.0005166312269091594
-0.003741480913525931,-0.0001416399281819828
-0.003741310913525931,-0.0008328246410264248
-0.003741140913525932,0.0007799396889426826
-0.003740970913525932,-0.001458182238356125
-0.003740800913525932,-0.0006682568522577702
-0.003740630913525931,-0.002149366951209966
-0.003740460913525931,-0.002116453393455409
-0.003740290913525931,-0.002445588971000382
-0.003740120913525932,-0.002774724548545953
-0.003739950913525932,-0.002511416086511052
-0.003739780913525932,-0.002610156759773407
-0.003739610913525931,-0.002083539835700852
-0.003739440913525931,-0.002149366951209966
-0.003739270913525931,-0.001161960218575049
-0.003739100913525932,-0.001655663584890712
-0.003738930913525932,-0.001853144931418593
-0.003738760913525932,-0.001425268680611266
-0.003738590913525931,-0.001129046660818696
-0.003738420913525931,-0.001030305987555025
-0.003738250913525931,0.0001545820916068758
-0.003738080913525932,0.0009115939199624676
-0.003737910913525932,0.001569865075053789
-0.003737740913525932,0.002425617576670359
-0.003737570913525931,0.002491444692182586
-0.003737400913525931,0.003116802289519171
-0.003737230913525931,0.003149715847273728
-0.003737060913525931,0.003050975174010236
-0.003736890913525932,0.003939641233381481
-0.003736720913525932,0.003807987002365349
-0.003736550913525931,0.00357759209808297
-0.003736380913525931,0.003906727675628541
-0.003736210913525931,0.003906727675628541
-0.003736040913525931,0.00344593786706558
-0.003735870913525932,0.003775073444609714
-0.003735700913525932,0.003413024309311502
-0.003735530913525931,0.00268892603870927
-0.003735360913525931,0.0023268769034098
-0.003735190913525931,0.002754753154219042
-0.003735020913525931,0.002228136230147087
-0.003734850913525932,0.002721839596463587
-0.003734680913525932,0.002721839596464486
-0.003734510913525931,0.002623098923201054
-0.003734340913525931,0.002754753154219042
-0.003734170913525931,0.002886407385237271
-0.003734000913525931,0.003445937867063724
-0.003733830913525932,0.003413024309310245
-0.003733660913525932,0.003807987002363433
-0.003733490913525931,0.004235863253174232
-0.003733320913525931,0.004301690368683227
-0.003733150913525931,0.004894134408265255
-0.003732980913525931,0.004927047966019752
-0.003732810913525932,0.005157442870301293
-0.003732640913525932,0.004959961523775087
-0.003732470913525931,0.005486578447847043
-0.003732300913525931,0.005354924216829054
-0.003732130913525931,0.005684059794374625
-0.003731960913525931,0.005322010659075155
-0.003731790913525932,0.005256183543565503
-0.003731620913525932,0.002524358249947081
-0.003731450913525932,0.00644107162271519
-0.003731280913525931,0.003445937867064742
-0.003731110913525931,0.003215542962782842
-0.003730940913525931,0.002985148058501361
-0.003730770913525932,0.003083888731764434
-0.003730600913525932,0.002623098923202491
-0.003730430913525932,0.002623098923200814
-0.003730260913525931,0.002392704018918914
-0.003730090913525931,0.002359790461164357
-0.003729920913525931,0.002557271807691341
-0.003729750913525932,0.0009774210354758326
-0.003729580913525932,0.002261049787896016
-0.003729410913525932,0.001800259979338563
-0.003729240913525931,0.001734432863827772
-0.003729070913525931,0.001964827768109672
-0.003728900913525931,0.002096481999127661
-0.003728730913525932,0.002063568441373403
-0.003728560913525932,0.00173443286382897
-0.003728390913525932,0.001569865075055585
-0.003728220913525931,0.001372383728527644
-0.003728050913525931,0.001635692190564101
-0.003727880913525931,0.000384976995893206
-0.003727710913525932,0.0002862363226274392
-0.003727540913525932,5.584141834577897e-05
-0.003727370913525932,-0.0001745534859357018
-0.003727200913525931,-0.0007669975255185678
-0.003727030913525931,-0.000832824641027682
-0.003726860913525931,-0.0007011704100094536
-0.003726690913525932,-0.001194873776326912
-0.003726520913525932,-0.0001416399281838985
-0.003726350913525932,-0.0006682568522529807
-0.003726180913525931,-0.000832824641027682
-0.003726010913525931,-0.0006682568522548965
-0.003725840913525931,-0.0003720348324638825
-0.003725670913525931,2.292786059008428e-05
-0.003725500913525932,2.292786059080275e-05
-0.003725330913525932,0.0004837176691529259
-0.003725160913525931,0.000977421035473258
-0.003724990913525931,0.001141988824245744
-0.003724820913525931,0.002359790461164357
-0.003724650913525931,0.003116802289517794
-0.003724480913525932,0.003873814117872607
-0.003724310913525932,0.004038381906646171
-0.003724140913525931,0.004202949695419974
-0.003723970913525931,0.004433344599701455
-0.003723800913525931,0.004959961523774369
-0.003723630913525931,0.004861220850510877
-0.003723460913525932,0.006572725853744554
-0.003723290913525932,0.004466258157463676
-0.003723120913525931,0.00433460392643964
-0.003722950913525931,0.005354924216829054
-0.003722780913525931,0.005585319121110954
-0.003722610913525931,0.00515744287030249
-0.003722440913525932,0.004663739503984253
-0.003722270913525932,0.004795393735001104
-0.003722100913525931,0.003050975174010535
-0.003721930913525931,0.003314283636046514
-0.003721760913525931,0.002656012480955371
-0.003721590913525931,0.002030654883619924
-0.003721420913525932,0.001306556613019847
-0.003721250913525932,0.0005495447846664705
-0.003721080913525931,-0.000437861947973356
-0.003720910913525931,-0.0006353432945003394
-0.003720740913525931,-0.000832824641027682
-0.003720570913525931,-0.001260700891836146
-0.003720400913525932,-0.001030305987555444
