Analysis/New Tests_CMB/wrd01_d2s01_new/cmb07_ch20.csv

#Digilent WaveForms Oscilloscope Acquisition
#Device Name: ADP3450
#Serial Number: SN:210018B9D9B0
#Date Time: 2024-08-15 12:27:35.265.418.240
#Sample rate: 5.88235e+06Hz
#Samples: 32768
#Trigger: Source: Channel 3 Type: Edge Condition: Rising Level: 40 mV Hyst.: Auto HoldOff: 0 s
#Channel 3: Range: 100 mV/div Offset: 0 V Attenuation: 1 X Coupling: DC Bandwidth: 0 Hz Sample Mode: Average

Time (s),Channel 3 (V)
-0.00316887588497218,0.02052807434167988
-0.00316870588497218,0.0216142217475805
-0.00316853588497218,0.0217458759785985
-0.00316836588497218,0.02062681501494355
-0.00316819588497218,0.0205939014571887
-0.00316802588497218,0.02042933366841621
-0.00316785588497218,0.02000145741760697
-0.00316768588497218,0.02023185232188899
-0.00316751588497218,0.02029767943739798
-0.00316734588497218,0.02010019809087064
-0.00316717588497218,0.01921153203149957
-0.00316700588497218,0.02029767943739798
-0.00316683588497218,0.0192115320314976
-0.00316666588497218,0.01960649472455138
-0.00316649588497218,0.01911279135823393
-0.00316632588497218,0.01940901337802494
-0.00316615588497218,0.01911279135823429
-0.00316598588497218,0.01931027270476127
-0.00316581588497218,0.01934318626251582
-0.00316564588497218,0.01917861847374196
-0.00316547588497218,0.01858617443416101
-0.00316530588497218,0.01838869308763367
-0.00316513588497218,0.0179608168368252
-0.00316496588497218,0.01779624904805164
-0.00316479588497218,0.01703923721969683
-0.00316462588497218,0.01694049654643334
-0.00316445588497218,0.01651262029562391
-0.00316428588497218,0.01595308981379644
-0.00316411588497218,0.01552521356298798
-0.00316394588497218,0.01532773221645986
-0.00316377588497218,0.01493276952340517
-0.00316360588497218,0.01486694240789618
-0.00316343588497218,0.01450489327259593
-0.00316326588497218,0.01466946106136872
-0.00316309588497218,0.0148340288501412
-0.00316292588497218,0.0152948186587053
-0.00316275588497218,0.01592017625604189
-0.00316258588497218,0.01608474404481437
-0.00316241588497218,0.01634805250685113
-0.00316224588497218,0.01680884231541493
-0.00316207588497218,0.01720380500846889
-0.00316190588497218,0.01703923721969683
-0.00316173588497218,0.01740128635499695
-0.00316156588497218,0.01733545923948796
-0.00316139588497218,0.01750002702826063
-0.00316122588497218,0.0173683727972424
-0.00316105588497218,0.0173354592394879
-0.00316088588497218,0.01740128635499695
-0.00316071588497218,0.0173683727972424
-0.00316054588497218,0.01723671856622417
-0.00316037588497218,0.01651262029562391
-0.00316020588497218,0.01654553385337847
-0.00316003588497218,0.01582143558277821
-0.00315986588497218,0.01473528817687783
-0.00315969588497218,0.01489985596565062
-0.00315952588497218,0.01387953567525935
-0.00315935588497218,0.01391244923301372
-0.00315918588497218,0.01381370855975023
-0.00315901588497218,0.013682054328732
-0.00315884588497218,0.01312252384690429
-0.00315867588497218,0.0129908696158863
-0.00315850588497218,0.01256299336507706
-0.00315833588497218,0.01308961028914872
-0.00315816588497218,0.01239842557630427
-0.00315799588497218,0.01243133913405883
-0.00315782588497218,0.01266173403834049
-0.00315765588497218,0.0125300798073225
-0.00315748588497218,0.01233259846079516
-0.00315731588497218,0.0121351171142677
-0.00315714588497218,0.0120692899987587
-0.00315697588497218,0.01220094422977693
-0.00315680588497218,0.01276047471160452
-0.00315663588497218,0.01282630182711352
-0.00315646588497218,0.01279338826935896
-0.00315629588497218,0.01276047471160512
-0.00315612588497218,0.01315543740465909
-0.00315595588497218,0.01308961028914997
-0.00315578588497218,0.01332000519343181
-0.00315561588497218,0.01328709163567732
-0.00315544588497218,0.01312252384690453
-0.00315527588497218,0.0132212645201679
-0.00315510588497218,0.01305669673139542
-0.00315493588497218,0.01266173403834073
-0.00315476588497218,0.01292504250037671
-0.00315459588497218,0.01216803067202238
-0.00315442588497218,0.01164141374794946
-0.00315425588497218,0.01134519172815899
-0.00315408588497218,0.01104896970836743
-0.00315391588497218,0.01108188326612199
-0.00315374588497218,0.01108188326612199
-0.00315357588497218,0.01035778499552173
-0.00315340588497218,0.01002864941797616
-0.00315323588497218,0.009699513840431192
-0.00315306588497218,0.009666600282676035
-0.00315289588497218,0.009567859609412364
-0.00315272588497218,0.00973242739818485
-0.00315255588497218,0.009896995186957936
-0.00315238588497218,0.01012739009123984
-0.00315221588497218,0.01029195788001232
-0.00315204588497218,0.01012739009123984
-0.00315187588497218,0.01098314259285832
-0.00315170588497218,0.0100615629757324
-0.00315153588497218,0.01045652566878541
-0.00315136588497218,0.01065400701531275
-0.00315119588497218,0.01114771038163021
-0.00315102588497218,0.01045652566878541
-0.00315085588497218,0.01068692057306731
-0.00315068588497218,0.0107198341308218
-0.00315051588497218,0.01078566124633098
-0.00315034588497218,0.01052235278429452
-0.00315017588497218,0.01170724086345858
-0.00315000588497218,0.01174015442121313
-0.00314983588497218,0.01220094422977693
-0.00314966588497218,0.01203637644100415
-0.00314949588497218,0.01262882048058617
-0.00314932588497218,0.01262882048058617
-0.00314915588497218,0.01318835096241365
-0.00314898588497218,0.01341874586669555
-0.00314881588497218,0.01308961028914997
-0.00314864588497218,0.01302378317364086
-0.00314847588497218,0.01226677134528671
-0.00314830588497218,0.01262882048058617
-0.00314813588497218,0.01210220355651326
-0.00314796588497218,0.01210220355651278
-0.00314779588497218,0.0118388950944768
-0.00314762588497218,0.01118062393938566
-0.00314745588497218,0.01127936461264862
-0.00314728588497218,0.01088440191959465
-0.00314711588497218,0.01065400701531275
-0.00314694588497218,0.01071983413082144
-0.00314677588497218,0.01048943922653996
-0.00314660588497218,0.01045652566878541
-0.00314643588497218,0.01032487143776718
-0.00314626588497218,0.01032487143776718
-0.00314609588497218,0.01025904432225806
-0.00314592588497218,0.01012739009124007
-0.00314575588497218,0.01025904432225806
-0.00314558588497218,0.009699513840430593
-0.00314541588497218,0.009436205378392997
-0.00314524588497218,0.00881084778105755
-0.00314507588497218,0.008580452876775651
-0.00314490588497218,0.008317144414738116
-0.00314473588497218,0.007724700375157166
-0.00314456588497218,0.007230997008838809
-0.00314439588497218,0.007230997008838929
-0.00314422588497218,0.007296824124347924
-0.00314405588497218,0.007033515662311467
-0.00314388588497218,0.007198083451083953
-0.00314371588497218,0.007494305470875266
-0.00314354588497218,0.007527219028629823
-0.00314337588497218,0.007461391913120828
-0.00314320588497218,0.007527219028629823
-0.00314303588497218,0.007757613932911723
-0.00314286588497218,0.007625959701893734
-0.00314269588497218,0.007395564797611595
-0.00314252588497218,0.007494305470875266
-0.00314235588497218,0.007395564797611775
-0.00314218588497218,0.007625959701893495
-0.00314201588497218,0.007757613932911723
-0.00314184588497218,0.008646279992283148
-0.00314167588497218,0.008448798645757422
-0.00314150588497218,0.008580452876775651
-0.00314133588497218,0.008975415569829618
-0.00314116588497218,0.008876674896566664
-0.00314099588497218,0.008909588454321223
-0.00314082588497218,0.0091728969163572
-0.00314065588497218,0.009271637589621349
-0.00314048588497218,0.009469118936148692
-0.00314031588497218,0.009238724031867212
-0.00314014588497218,0.009008329127584893
-0.00313997588497218,0.008745020665548437
-0.00313980588497218,0.00881084778105755
-0.00313963588497218,0.008580452876775651
-0.00313946588497218,0.008415885088002865
-0.00313929588497218,0.008646279992284765
-0.00313912588497218,0.008613366434530208
-0.00313895588497218,0.008876674896566664
-0.00313878588497218,0.00904124268533945
-0.00313861588497218,0.00881084778105755
-0.00313844588497218,0.008646279992284765
-0.00313827588497218,0.007889268163929951
-0.00313810588497218,0.008053835952702317
-0.00313793588497218,0.007823441048420837
-0.00313776588497218,0.008218403741475522
-0.00313759588497218,0.008185490183722163
-0.00313742588497218,0.008843761338812107
-0.00313725588497218,0.008547539319021094
-0.00313708588497218,0.008646279992285304
-0.00313691588497218,0.008942502012075779
-0.00313674588497218,0.008613366434530208
-0.00313657588497218,0.008810847781058569
-0.00313640588497218,0.009370378262885021
-0.00313623588497218,0.009864081629203377
-0.00313606588497218,0.0100286494179767
-0.00313589588497218,0.01032487143776718
-0.00313572588497218,0.009962822302467049
-0.00313555588497218,0.01022613076450344
-0.00313538588497218,0.01019321720674895
-0.00313521588497218,0.01019321720674895
-0.00313504588497218,0.01025904432225806
-0.00313487588497218,0.01025904432225806
-0.00313470588497218,0.009962822302467049
-0.00313453588497218,0.009600773167166203
-0.00313436588497218,0.009205810474112236
-0.00313419588497218,0.008843761338812107
-0.00313402588497218,0.009304551147375429
-0.00313385588497218,0.00904124268533945
-0.00313368588497218,0.009238724031866792
-0.00313351588497218,0.008745020665549335
-0.00313334588497218,0.008448798645757422
-0.00313317588497218,0.008613366434530208
-0.00313300588497218,0.008481712203512218
-0.00313283588497218,0.008185490183720966
-0.00313266588497218,0.00871210710779388
-0.00313249588497218,0.00871210710779388
-0.00313232588497218,0.008843761338812107
-0.00313215588497218,0.009205810474112236
-0.00313198588497218,0.008777934223303772
-0.00313181588497218,0.009008329127584893
-0.00313164588497218,0.009008329127584893
-0.00313147588497218,0.009008329127584893
-0.00313130588497218,0.008909588454321223
-0.00313113588497218,0.008942502012075779
-0.00313096588497218,0.009041242685339269
-0.00313079588497218,0.009107069800848565
-0.00313062588497218,0.008745020665548437
-0.00313045588497218,0.008679193550039441
-0.00313028588497218,0.00904124268533945
-0.00313011588497218,0.008876674896566664
-0.00312994588497218,0.009172896916357139
-0.00312977588497218,0.009896995186957936
-0.00312960588497218,0.01006156297573072
-0.00312943588497218,0.01022613076450321
-0.00312926588497218,0.01022613076450351
-0.00312909588497218,0.01035778499552173
-0.00312892588497218,0.01062109345755819
-0.00312875588497218,0.01042361211103085
-0.00312858588497218,0.01019321720674895
-0.00312841588497218,0.01012739009123984
-0.00312824588497218,0.009765340955939707
-0.00312807588497218,0.009139983358603122
-0.00312790588497218,0.008613366434530208
-0.00312773588497218,0.0082513172992293
-0.00312756588497218,0.007823441048420837
-0.00312739588497218,0.007066429220066024
-0.00312722588497218,0.006704380084765178
-0.00312705588497218,0.00630941739171121
-0.00312688588497218,0.00630941739171121
-0.00312671588497218,0.006572725853747487
-0.00312654588497218,0.006473985180483996
-0.00312637588497218,0.005651146236620068
-0.00312620588497218,0.007724700375155669
-0.00312603588497218,0.006901861431293239
-0.00312586588497218,0.007329737682102481
-0.00312569588497218,0.008909588454320683
-0.00312552588497218,0.008613366434530208
-0.00312535588497218,0.00904124268533945
-0.00312518588497218,0.009732427398185868
-0.00312501588497218,0.01012739009123984
-0.00312484588497218,0.01085148836184009
-0.00312467588497218,0.01108188326612271
-0.00312450588497218,0.01147684595917668
-0.00312433588497218,0.01197054932549503
-0.00312416588497218,0.01239842557630439
-0.00312399588497218,0.01246425269181339
-0.00312382588497218,0.01210220355651326
-0.00312365588497218,0.01197054932549372
-0.00312348588497218,0.01124645105489478
-0.00312331588497218,0.01111479682387655
-0.00312314588497218,0.01101605615061306
-0.00312297588497218,0.01078566124633098
-0.00312280588497218,0.01078566124633098
-0.00312263588497218,0.009139983358606116
-0.00312246588497218,0.009864081629203377
-0.00312229588497218,0.009896995186957936
-0.00312212588497218,0.009370378262885979
-0.00312195588497218,0.008251317299230079
-0.00312178588497218,0.008415885088002865
-0.00312161588497218,0.008580452876775351
-0.00312144588497218,0.008777934223302994
-0.00312127588497218,0.007757613932911723
-0.00312110588497218,0.007362651239857756
-0.00312093588497218,0.00700060210455691
-0.00312076588497218,0.006671466527011338
-0.00312059588497218,0.006046108929675892
-0.00312042588497218,0.006375244507220324
-0.00312025588497218,0.006276503833956653
-0.00312008588497218,0.006243590276202156
-0.00311991588497218,0.006572725853747667
-0.00311974588497218,0.006210676718447538
-0.00311957588497218,0.006572725853747009
-0.00311940588497218,0.00677020720027501
-0.00311923588497218,0.006967688546802352
-0.00311906588497218,0.007362651239856319
-0.00311889588497218,0.00802092239494818
-0.00311872588497218,0.00811966306821185
-0.00311855588497218,0.008942502012075779
-0.00311838588497218,0.009304551147375908
-0.00311821588497218,0.009864081629203377
-0.00311804588497218,0.01062109345755819
-0.00311787588497218,0.01127936461264933
-0.00311770588497218,0.01154267307468579
-0.00311753588497218,0.01233259846079516
-0.00311736588497218,0.01246425269181339
-0.00311719588497218,0.01246425269181339
-0.00311702588497218,0.0118388950944768
-0.00311685588497218,0.01200346288324941
-0.00311668588497218,0.01190472220998592
-0.00311651588497218,0.01065400701531275
-0.00311634588497218,0.01039069855327635
-0.00311617588497218,0.01042361211103085
-0.00311600588497218,0.01035778499552173
-0.00311583588497218,0.01055526634205087
-0.00311566588497218,0.01154267307468579
-0.00311549588497218,0.01180598153672225
-0.00311532588497218,0.01187180865223382
-0.00311515588497218,0.0132212645201682
-0.00311498588497218,0.01285921538486808
-0.00311481588497218,0.01318835096241454
-0.00311464588497218,0.013682054328732
-0.00311447588497218,0.01394536279076846
-0.00311430588497218,0.01374788144424112
-0.00311413588497218,0.01374788144424112
-0.00311396588497218,0.01384662211750479
-0.00311379588497218,0.01335291875118529
-0.00311362588497218,0.01272756115384985
-0.00311345588497218,0.01266173403834073
-0.00311328588497218,0.01216803067202297
-0.00311311588497218,0.01249716624956795
-0.00311294588497218,0.0120692899987587
-0.00311277588497218,0.01197054932549509
-0.00311260588497218,0.01200346288324959
-0.00311243588497218,0.01203637644100415
-0.00311226588497218,0.01183889509447716
-0.00311209588497218,0.01127936461264933
-0.00311192588497218,0.01101605615061288
-0.00311175588497218,0.01101605615061288
-0.00311158588497218,0.01052235278429452
-0.00311141588497218,0.01022613076450351
-0.00311124588497218,0.009699513840431551
-0.00311107588497218,0.009205810474112236
-0.00311090588497218,0.008745020665548437
-0.00311073588497218,0.008119663068212988
-0.00311056588497218,0.008053835952702737
-0.00311039588497218,0.00756013258638438
-0.00311022588497218,0.007823441048420358
-0.00311005588497218,0.007461391913120709
-0.00310988588497218,0.007329737682102481
-0.00310971588497218,0.007757613932910945
-0.00310954588497218,0.007922181721684508
-0.00310937588497218,0.008218403741475522
-0.00310920588497218,0.008185490183721026
-0.00310903588497218,0.008415885088002865
-0.00310886588497218,0.008152576625966409
-0.00310869588497218,0.008580452876774872
-0.00310852588497218,0.00811966306821185
-0.00310835588497218,0.008580452876775651
-0.00310818588497218,0.007790527490667718
-0.00310801588497218,0.008152576625966409
-0.00310784588497218,0.00779052749066628
-0.00310767588497218,0.00811966306821185
-0.00310750588497218,0.007988008837193623
-0.00310733588497218,0.007955095279439066
-0.00310716588497218,0.007922181721684508
-0.00310699588497218,0.007757613932911723
-0.00310682588497218,0.007395564797611595
-0.00310665588497218,0.00779052749066628
-0.00310648588497218,0.007263910566595162
-0.00310631588497218,0.008251317299230079
-0.00310614588497218,0.007955095279439066
-0.00310597588497218,0.008382971530247829
-0.00310580588497218,0.00811966306821185
-0.00310563588497218,0.008613366434530208
-0.00310546588497218,0.008909588454322659
-0.00310529588497218,0.009699513840430593
-0.00310512588497218,0.01019321720674895
-0.00310495588497218,0.01068692057306773
-0.00310478588497218,0.01091731547734921
-0.00310461588497218,0.01101605615061288
-0.00310444588497218,0.01144393240142284
-0.00310427588497218,0.0118388950944768
-0.00310410588497218,0.01193763576774048
-0.00310393588497218,0.01289212894262311
-0.00310376588497218,0.01315543740465909
-0.00310359588497218,0.01374788144424112
-0.00310342588497218,0.01410993057954148
-0.00310325588497218,0.01424158481055947
-0.00310308588497218,0.01499859663891429
-0.00310291588497218,0.01486694240789516
-0.00310274588497218,0.0143732390415777
-0.00310257588497218,0.01387953567525935
-0.00310240588497218,0.01351748653995844
-0.00310223588497218,0.01308961028914997
-0.00310206588497218,0.0129908696158863
-0.00310189588497218,0.01256299336507784
-0.00310172588497218,0.01197054932549503
-0.00310155588497218,0.01147684595917668
-0.00310138588497218,0.0111806239393862
-0.00310121588497218,0.01042361211103085
-0.00310104588497218,0.01058817989980363
-0.00310087588497218,0.009929908744713689
-0.00310070588497218,0.009534946051657807
-0.00310053588497218,0.008909588454321223
-0.00310036588497218,0.008284230856985774
-0.00310019588497218,0.00811966306821185
-0.00310002588497218,0.006375244507220324
-0.00309985588497218,0.007165169893328258
-0.00309968588497218,0.006441071622729439
-0.00309951588497218,0.00607902248742931
-0.00309934588497218,0.005618232678866348
-0.00309917588497218,0.005716973352129182
-0.00309900588497218,0.005223269985810825
-0.00309883588497218,0.005157442870301831
-0.00309866588497218,0.005157442870301712
-0.00309849588497218,0.00528909710131994
-0.00309832588497218,0.005486578447846923
-0.00309815588497218,0.004861220850510698
-0.00309798588497218,0.005552405563356397
-0.00309781588497218,0.005815714025392374
-0.00309764588497218,0.006144849602938425
-0.00309747588497218,0.006638552969256781
-0.00309730588497218,0.007066429220066024
-0.00309713588497218,0.007856354606175394
-0.00309696588497218,0.008382971530248308
-0.00309679588497218,0.008909588454321223
-0.00309662588497218,0.009205810474112236
-0.00309645588497218,0.00973242739818515
-0.00309628588497218,0.01012739009123984
-0.00309611588497218,0.01088440191959465
-0.00309594588497218,0.01111479682387655
-0.00309577588497218,0.01170724086345858
-0.00309560588497218,0.01147684595917751
-0.00309543588497218,0.01193763576774048
-0.00309526588497218,0.01167432730570402
-0.00309509588497218,0.01193763576773982
-0.00309492588497218,0.01157558663244035
-0.00309475588497218,0.01177306797896769
-0.00309458588497218,0.01177306797896661
-0.00309441588497218,0.01118062393938566
-0.00309424588497218,0.01104896970836743
-0.00309407588497218,0.0109502290351031
-0.00309390588497218,0.01058817989980363
-0.00309373588497218,0.01009447653348528
-0.00309356588497218,0.01124645105489238
-0.00309339588497218,0.009929908744712493
-0.00309322588497218,0.009337464705130465
-0.00309305588497218,0.009929908744712312
-0.00309288588497218,0.00983116807144882
-0.00309271588497218,0.009666600282676035
-0.00309254588497218,0.01006156297573138
-0.00309237588497218,0.01042361211103085
-0.00309220588497218,0.01039069855327629
-0.00309203588497218,0.01081857480408547
-0.00309186588497218,0.01078566124633098
-0.00309169588497218,0.01045652566878541
-0.00309152588497218,0.01062109345755759
-0.00309135588497218,0.01029195788001262
-0.00309118588497218,0.009896995186957936
-0.00309101588497218,0.009666600282676454
-0.00309084588497218,0.008613366434530208
-0.00309067588497218,0.008382971530248308
-0.00309050588497218,0.00752721902863138
-0.00309033588497218,0.007099342777820581
-0.00309016588497218,0.006638552969256781
-0.00308999588497218,0.006144849602939323
-0.00308982588497218,0.005947368256411082
-0.00308965588497218,0.006177763160692982
-0.00308948588497218,0.006605639411501447
-0.00308931588497218,0.006836034315784124
-0.00308914588497218,0.00700060210455691
-0.00308897588497218,0.007856354606173838
-0.00308880588497218,0.007691786817402609
-0.00308863588497218,0.008382971530248308
