Analysis/New Tests_CMB/wrd01_d2s01_new/cmb01_ch25.csv

#Digilent WaveForms Oscilloscope Acquisition
#Device Name: ADP3450
#Serial Number: SN:210018B9D9B0
#Date Time: 2024-08-14 14:56:27.528.506.360
#Sample rate: 5.88235e+06Hz
#Samples: 32768
#Trigger: Source: Channel 3 Type: Edge Condition: Rising Level: 50 mV Hyst.: Auto HoldOff: 0 s
#Channel 3: Range: 100 mV/div Offset: 0 V Attenuation: 1 X Coupling: DC Bandwidth: 0 Hz Sample Mode: Average

Time (s),Channel 3 (V)
-0.003798394708691217,0.2066213298859458
-0.003798224708691217,0.2196880123145272
-0.003798054708691217,0.2319318557992002
-0.003797884708691217,0.242793329858204
-0.003797714708691217,0.2514495955476653
-0.003797544708691217,0.2584272697916186
-0.003797374708691217,0.2643187966296844
-0.003797204708691217,0.2681696828869736
-0.003797034708691217,0.2714610386624233
-0.003796864708691217,0.273633333474224
-0.003796694708691217,0.2743245181870691
-0.003796524708691217,0.2739953826095242
-0.003796354708691217,0.272744667414851
-0.003796184708691217,0.2715597793356824
-0.003796014708691217,0.2690912625040952
-0.003795844708691217,0.267017708365558
-0.003795674708691217,0.263792179705609
-0.003795504708691217,0.2624427238376746
-0.003795334708691217,0.2571107274814364
-0.003795164708691217,0.2543130750722928
-0.003794994708691217,0.2508900650658251
-0.003794824708691217,0.2473354008283329
-0.003794654708691217,0.2432212061090208
-0.003794484708691217,0.2390411842741845
-0.003794314708691217,0.2340054099377373
-0.003794144708691217,0.2306482270467786
-0.003793974708691217,0.2265998594429619
-0.003793804708691217,0.2225514918391514
-0.003793634708691217,0.2186018649086117
-0.003793464708691217,0.2140268803807211
-0.003793294708691217,0.2099785127769106
-0.003793124708691217,0.2063251078661614
-0.003792954708691217,0.202441308051117
-0.003792784708691217,0.1990182980446431
-0.003792614708691217,0.1960560778467383
-0.003792444708691217,0.1923039322627134
-0.003792274708691217,0.1890784036027668
-0.003792104708691217,0.1858528749428261
-0.003791934708691217,0.1823311242630826
-0.003791764708691217,0.1789739413721178
-0.003791594708691217,0.1751559686725961
-0.003791424708691217,0.1723583162634518
-0.003791254708691217,0.1692315282767689
-0.003791084708691217,0.1660389131745826
-0.003790914708691217,0.1627475573991211
-0.003790744708691217,0.1595878558546837
-0.003790574708691217,0.1565268949835154
-0.003790404708691217,0.1533671934390723
-0.003790234708691217,0.1503062325678985
-0.003790064708691217,0.1475085801587612
-0.003789894708691217,0.1454021124624695
-0.003789724708691217,0.1426373736110867
-0.003789554708691217,0.1404321652415314
-0.003789384708691217,0.1386877466805399
-0.003789214708691217,0.1370749823505666
-0.003789044708691217,0.1349685146542749
-0.003788874708691217,0.1329937011889983
-0.003788704708691217,0.1312163690702554
-0.003788534708691217,0.1299327403178277
-0.003788364708691217,0.1280895810835682
-0.003788194708691217,0.1257527184829989
-0.003788024708691217,0.123744991459971
-0.003787854708691217,0.1215068695326574
-0.003787684708691217,0.1194991425096331
-0.003787514708691217,0.1168989714470231
-0.003787344708691217,0.1146937630774641
-0.003787174708691217,0.1126860360544398
-0.003787004708691217,0.1106124819159027
-0.003786834708691217,0.1082097921998178
-0.003786664708691217,0.1069919905629014
-0.003786494708691217,0.1049184364243643
-0.003786324708691217,0.1033056720943882
-0.003786154708691217,0.1017587348799268
-0.003785984708691217,0.09836863843120744
-0.003785814708691217,0.09840155198895942
-0.003785644708691217,0.09698626900551605
-0.003785474708691217,0.0951760233290154
-0.003785304708691217,0.09336577765251128
-0.003785134708691217,0.09145679130275045
-0.003784964708691217,0.08987694053053172
-0.003784794708691217,0.08833000331606411
-0.003784624708691217,0.08645393052405775
-0.003784454708691217,0.08487407975183903
-0.003784284708691217,0.0828992662865692
-0.003784114708691217,0.0817472917651561
-0.003783944708691217,0.07937751560682799
-0.003783774708691217,0.07763309704583964
-0.003783604708691217,0.07697482589074531
-0.003783434708691217,0.07562537002280847
-0.003783264708691217,0.07476961752119154
-0.003783094708691217,0.07332142097998948
-0.003782924708691217,0.07226818713184366
-0.003782754708691217,0.07111621261043626
-0.003782584708691217,0.06999715164677922
-0.003782414708691217,0.06891100424087881
-0.003782244708691217,0.06785777039273491
-0.003782074708691217,0.06729823991090553
-0.003781904708691217,0.0664754009670416
-0.003781734708691217,0.06585004336970615
-0.003781564708691217,0.06515885865685933
-0.003781394708691217,0.06390814346218615
-0.003781224708691217,0.06308530451832373
-0.003781054708691217,0.06213081134344006
-0.003780884708691217,0.06143962663059437
-0.003780714708691217,0.06028765210918696
-0.003780544708691217,0.05946481316532094
-0.003780374708691217,0.05791787595085676
-0.003780204708691217,0.05683172854495835
-0.003780034708691217,0.05597597604333789
-0.003779864708691217,0.05452777950213737
-0.003779694708691217,0.05377076767378256
-0.003779524708691217,0.0523554846903366
-0.003779354708691217,0.0523554846903366
-0.003779184708691217,0.05051232545608141
-0.003779014708691217,0.05057815257159052
-0.003778844708691217,0.04942617805018102
-0.003778674708691217,0.04870207977958076
-0.003778504708691217,0.04794506795122595
-0.003778334708691217,0.04695766121858923
-0.003778164708691217,0.04623356294798898
-0.003777994708691217,0.04518032909984147
-0.003777824708691217,0.04425874948271556
-0.003777654708691217,0.04323842919232428
-0.003777484708691217,0.04228393601744129
-0.003777314708691217,0.04182314620887833
-0.003777144708691217,0.04086865303399617
-0.003776974708691217,0.03971667851258655
-0.003776804708691217,0.03965085139707756
-0.003776634708691217,0.04070408524522338
-0.003776464708691217,0.0371494210077335
-0.003776294708691217,0.03840013620240439
-0.003776124708691217,0.03797225995159514
-0.003775954708691217,0.03836722264464917
-0.003775784708691217,0.0380051735093497
-0.003775614708691217,0.03813682774036793
-0.003775444708691217,0.03761021081629561
-0.003775274708691217,0.03793934639384059
-0.003775104708691217,0.03764312437404958
-0.003774934708691217,0.03747855658527673
-0.003774764708691217,0.03744564302752224
-0.003774594708691217,0.03708359389222211
-0.003774424708691217,0.03662280408365705
-0.003774254708691217,0.03593161937081261
-0.003774084708691217,0.03566831090877615
-0.003773914708691217,0.03609618715958503
-0.003773744708691217,0.03589870581305805
-0.003773574708691217,0.03533917533123058
-0.003773404708691217,0.03497712619593111
-0.003773234708691217,0.03398971946329374
-0.003773064708691217,0.03372641100125728
-0.003772894708691217,0.03326562119269432
-0.003772724708691217,0.03250860936433866
-0.003772554708691217,0.03211364667128398
-0.003772384708691217,0.03161994330496652
-0.003772214708691217,0.0310274992653836
-0.003772044708691217,0.02994135185948321
-0.003771874708691217,0.02925016714663877
-0.003771704708691217,0.02839441464501903
-0.003771534708691217,0.02717661300810041
-0.003771364708691217,0.02612337915995651
-0.003771194708691217,0.02464226906099952
-0.003771024708691217,0.02335864030857179
-0.003770854708691217,0.02174587597860143
-0.003770684708691217,0.02151548107431659
-0.003770514708691217,0.01977106251332507
-0.003770344708691217,0.01842160664539068
-0.003770174708691217,0.01881656933844291
-0.003770004708691217,0.01769750837478797
-0.003769834708691217,0.017302545681734
-0.003769664708691217,0.01756585414376974
-0.003769494708691217,0.01799373039457898
-0.003769324708691217,0.01822412529886088
-0.003769154708691217,0.0185203473186519
-0.003768984708691217,0.01947484049353405
-0.003768814708691217,0.01993563030209785
-0.003768644708691217,0.02056098789943444
-0.003768474708691217,0.0210546912657528
-0.003768304708691217,0.02115343193901647
-0.003768134708691217,0.02184461665186217
-0.003767964708691217,0.02223957934491685
-0.003767794708691217,0.02197627088288039
-0.003767624708691217,0.02174587597859879
-0.003767454708691217,0.02191044376737128
-0.003767284708691217,0.02144965395880748
-0.003767114708691217,0.01940901337802764
-0.003766944708691217,0.02089012347698001
-0.003766774708691217,0.01980397607107963
-0.003766604708691217,0.0193760998202702
-0.003766434708691217,0.01927735914700671
-0.003766264708691217,0.01931027270476127
-0.003766094708691217,0.01911279135823387
-0.003765924708691217,0.01907987780047937
-0.003765754708691217,0.01861908799191557
-0.003765584708691217,0.01888239645395202
-0.003765414708691217,0.01888239645395202
-0.003765244708691217,0.02019893876413431
-0.003765074708691217,0.01911279135823446
-0.003764904708691217,0.01940901337802494
-0.003764734708691217,0.01973814895557051
-0.003764564708691217,0.01944192693578016
-0.003764394708691217,0.01980397607107963
-0.003764224708691217,0.0192115320314976
-0.003764054708691217,0.01963940828230582
-0.003763884708691217,0.01907987780047937
-0.003763714708691217,0.01832286597212456
-0.003763544708691217,0.01855326087640531
-0.003763374708691217,0.01792790327906987
-0.003763204708691217,0.01776333549029708
-0.003763034708691217,0.01740128635499761
-0.003762864708691217,0.01740128635499695
-0.003762694708691217,0.01726963212397873
-0.003762524708691217,0.01694049654643376
-0.003762354708691217,0.01634805250685113
-0.003762184708691217,0.01572269490951454
-0.003762014708691217,0.01565686779400555
-0.003761844708691217,0.01562395423625087
-0.003761674708691217,0.01565686779400543
-0.003761504708691217,0.01522899154319697
-0.003761334708691217,0.01509733731217796
-0.003761164708691217,0.01526190510095074
-0.003760994708691217,0.01483402885014228
-0.003760824708691217,0.01476820173463239
-0.003760654708691217,0.01496568308115973
-0.003760484708691217,0.01453780683035127
-0.003760314708691217,0.0148340288501415
-0.003760144708691217,0.0148340288501415
-0.003759974708691217,0.01391244923301558
-0.003759804708691217,0.01387953567525935
-0.003759634708691217,0.01328709163567732
-0.003759464708691217,0.01285921538486885
-0.003759294708691217,0.0120692899987587
-0.003759124708691217,0.01197054932549503
-0.003758954708691217,0.01210220355651302
-0.003758784708691217,0.01190472220998592
-0.003758614708691217,0.01147684595917668
-0.003758444708691217,0.01170724086345858
-0.003758274708691217,0.01226677134528605
-0.003758104708691217,0.01289212894262263
-0.003757934708691217,0.0129908696158863
-0.003757764708691217,0.01308961028914997
-0.003757594708691217,0.01302378317364086
-0.003757424708691217,0.01384662211750479
-0.003757254708691217,0.01397827634852379
-0.003757084708691217,0.01440615259933226
-0.003756914708691217,0.01420867125280492
-0.003756744708691217,0.01387953567525821
-0.003756574708691217,0.01325417807792276
-0.003756404708691217,0.01318835096241365
-0.003756234708691217,0.01308961028914997
-0.003756064708691217,0.01308961028914997
-0.003755894708691217,0.01282630182711352
-0.003755724708691217,0.01299086961588582
-0.003755554708691217,0.01272756115384985
-0.003755384708691217,0.01355040009771377
-0.003755214708691217,0.01424158481055911
-0.003755044708691217,0.01404410346403213
-0.003754874708691217,0.01447197971484137
-0.003754704708691217,0.01486694240789564
-0.003754534708691217,0.01463654750361416
-0.003754364708691217,0.01516316442768707
-0.003754194708691217,0.01539355933196867
-0.003754024708691217,0.01522899154319619
-0.003753854708691217,0.0150644237544234
-0.003753684708691217,0.01480111529238659
-0.003753514708691217,0.0146036339458596
-0.003753344708691217,0.01424158481055947
-0.003753174708691217,0.01447197971484101
-0.003753004708691217,0.01427449836831403
-0.003752834708691217,0.01427449836831403
-0.003752664708691217,0.01417575769505054
-0.003752494708691217,0.01453780683035049
-0.003752324708691217,0.01450489327259593
-0.003752154708691217,0.01397827634852397
-0.003751984708691217,0.01453780683035049
-0.003751814708691217,0.01453780683035049
-0.003751644708691217,0.0144061525993325
-0.003751474708691217,0.01401118990627757
-0.003751304708691217,0.01401118990627757
-0.003751134708691217,0.01410993057954106
-0.003750964708691217,0.0127604747116044
-0.003750794708691217,0.0129908696158863
-0.003750624708691217,0.01285921538486831
-0.003750454708691217,0.01289212894262263
-0.003750284708691217,0.01203637644100415
-0.003750114708691217,0.01174015442121367
-0.003749944708691217,0.01150975951693123
-0.003749774708691217,0.01068692057306731
-0.003749604708691217,0.01065400701531281
-0.003749434708691217,0.01042361211103085
-0.003749264708691217,0.01025904432225806
-0.003749094708691217,0.009929908744713091
-0.003748924708691217,0.009666600282676035
-0.003748754708691217,0.009370378262885021
-0.003748584708691217,0.008777934223304071
-0.003748414708691217,0.008317144414739193
-0.003748244708691217,0.00607902248742931
-0.003748074708691217,0.01006156297573072
-0.003747904708691217,0.007889268163929951
-0.003747734708691217,0.007593046144138938
-0.003747564708691217,0.006967688546802352
-0.003747394708691217,0.006868947873538681
-0.003747224708691217,0.00653981229599311
-0.003747054708691217,0.006901861431293239
-0.003746884708691217,0.006901861431293239
-0.003746714708691217,0.007099342777820581
-0.003746544708691217,0.007165169893329695
-0.003746374708691217,0.008086749510457833
-0.003746204708691217,0.008382971530248308
-0.003746034708691217,0.008777934223302994
-0.003745864708691217,0.009172896916358697
-0.003745694708691217,0.00973242739818515
-0.003745524708691217,0.009962822302467049
-0.003745354708691217,0.010028649417977
-0.003745184708691217,0.01048943922653996
-0.003745014708691217,0.01068692057306731
-0.003744844708691217,0.01075274768857732
-0.003744674708691217,0.01124645105489478
-0.003744504708691217,0.01127936461264933
-0.003744334708691217,0.01180598153672213
-0.003744164708691217,0.01174015442121313
-0.003743994708691217,0.01223385778753149
-0.003743824708691217,0.01210220355651374
-0.003743654708691217,0.01236551201854972
-0.003743484708691217,0.01246425269181339
-0.003743314708691217,0.01243133913405817
-0.003743144708691217,0.0120692899987587
-0.003742974708691217,0.01203637644100415
-0.003742804708691217,0.01190472220998394
-0.003742634708691217,0.01081857480408553
-0.003742464708691217,0.01203637644100415
-0.003742294708691217,0.01206928999875882
-0.003742124708691217,0.01213511711426782
-0.003741954708691217,0.01150975951693123
-0.003741784708691217,0.01131227817040425
-0.003741614708691217,0.01164141374794946
-0.003741444708691217,0.01193763576774048
-0.003741274708691217,0.01220094422977645
-0.003741104708691217,0.01249716624956795
-0.003740934708691217,0.01361622721322289
-0.003740764708691217,0.01341874586669591
-0.003740594708691217,0.01387953567525935
-0.003740424708691217,0.01457072038810504
-0.003740254708691217,0.01457072038810504
-0.003740084708691217,0.01486694240789606
-0.003739914708691217,0.0150644237544234
-0.003739744708691217,0.01483402885014192
-0.003739574708691217,0.01480111529238694
-0.003739404708691217,0.01394536279076846
-0.003739234708691217,0.01364914077097799
-0.003739064708691217,0.01289212894262263
-0.003738894708691217,0.0120692899987587
-0.003738724708691217,0.01256299336507616
-0.003738554708691217,0.01098314259285832
-0.003738384708691217,0.009403291820639578
-0.003738214708691217,0.009205810474112595
-0.003738044708691217,0.008382971530248308
-0.003737874708691217,0.007658873259648051
-0.003737704708691217,0.006605639411504141
-0.003737534708691217,0.006506898738238553
-0.003737364708691217,0.006375244507220324
-0.003737194708691217,0.006441071622729439
-0.003737024708691217,0.00653981229599311
-0.003736854708691217,0.006704380084765896
-0.003736684708691217,0.006671466527011338
-0.003736514708691217,0.007625959701893495
-0.003736344708691217,0.008185490183720966
-0.003736174708691217,0.008218403741475522
-0.003736004708691217,0.009074156243095743
-0.003735834708691217,0.01002864941797616
-0.003735664708691217,0.01065400701531275
-0.003735494708691217,0.01124645105489609
-0.003735324708691217,0.01197054932549503
-0.003735154708691217,0.01282630182711352
-0.003734984708691217,0.01299086961588702
-0.003734814708691217,0.01338583230894099
-0.003734644708691217,0.01361622721322289
-0.003734474708691217,0.01420867125280516
-0.003734304708691217,0.01434032548382314
-0.003734134708691217,0.01427449836831403
-0.003733964708691217,0.01460363394585906
-0.003733794708691217,0.01430741192606859
-0.003733624708691217,0.01430741192606859
-0.003733454708691217,0.01404410346403201
-0.003733284708691217,0.01397827634852302
-0.003733114708691217,0.01364914077097745
-0.003732944708691217,0.01315543740465843
-0.003732774708691217,0.01279338826935896
-0.003732604708691217,0.01256299336507706
-0.003732434708691217,0.01206928999875781
-0.003732264708691217,0.01157558663244035
-0.003732094708691217,0.01174015442121313
-0.003731924708691217,0.01131227817040353
-0.003731754708691217,0.01111479682387655
-0.003731584708691217,0.01121353749714022
-0.003731414708691217,0.01078566124633176
-0.003731244708691217,0.01091731547734921
-0.003731074708691217,0.01068692057306731
-0.003730904708691217,0.01042361211103133
-0.003730734708691217,0.01048943922653996
-0.003730564708691217,0.009699513840430593
-0.003730394708691217,0.009107069800849642
-0.003730224708691217,0.008514625761266537
-0.003730054708691217,0.007922181721684508
-0.003729884708691217,0.007527219028630541
-0.003729714708691217,0.006671466527011338
-0.003729544708691217,0.006605639411502225
-0.003729374708691217,0.006605639411502225
-0.003729204708691217,0.005354924216829054
-0.003729034708691217,0.005651146236620068
-0.003728864708691217,0.006177763160692024
-0.003728694708691217,0.005914454698656525
-0.003728524708691217,0.00607902248742931
-0.003728354708691217,0.006638552969255764
-0.003728184708691217,0.006967688546802352
-0.003728014708691217,0.007395564797611595
-0.003727844708691217,0.007658873259647573
-0.003727674708691217,0.008284230856984636
-0.003727504708691217,0.008185490183720966
-0.003727334708691217,0.008415885088002445
-0.003727164708691217,0.008876674896566664
-0.003726994708691217,0.009469118936148692
-0.003726824708691217,0.01019321720674895
-0.003726654708691217,0.01035778499552173
-0.003726484708691217,0.01085148836184009
-0.003726314708691217,0.01048943922653996
-0.003726144708691217,0.01134519172815845
-0.003725974708691217,0.01085148836184009
-0.003725804708691217,0.01048943922653996
-0.003725634708691217,0.01088440191959465
-0.003725464708691217,0.01058817989980363
-0.003725294708691217,0.01035778499552173
-0.003725124708691217,0.01131227817040293
-0.003724954708691217,0.01078566124633098
-0.003724784708691217,0.01098314259285832
-0.003724614708691217,0.01144393240142314
-0.003724444708691217,0.01200346288324959
-0.003724274708691217,0.01131227817040389
-0.003724104708691217,0.01210220355651242
-0.003723934708691217,0.01164141374794946
-0.003723764708691217,0.01127936461264933
-0.003723594708691217,0.01121353749713896
-0.003723424708691217,0.01052235278429452
-0.003723254708691217,0.01012739009123984
-0.003723084708691217,0.009600773167166022
-0.003722914708691217,0.009107069800848565
-0.003722744708691217,0.009107069800848565
-0.003722574708691217,0.009238724031866433
-0.003722404708691217,0.00904124268533945
-0.003722234708691217,0.009403291820639578
-0.003722064708691217,0.009567859609412125
-0.003721894708691217,0.009436205378394135
-0.003721724708691217,0.009699513840430593
-0.003721554708691217,0.009765340955940126
-0.003721384708691217,0.009995735860221606
-0.003721214708691217,0.01052235278429452
-0.003721044708691217,0.01052235278429524
-0.003720874708691217,0.01091731547734921
-0.003720704708691217,0.01134519172815845
-0.003720534708691217,0.01104896970836797
-0.003720364708691217,0.01104896970836743
-0.003720194708691217,0.01157558663244035
-0.003720024708691217,0.01131227817040437
-0.003719854708691217,0.01292504250037719
-0.003719684708691217,0.0125300798073225
-0.003719514708691217,0.01197054932549605
-0.003719344708691217,0.01220094422977693
-0.003719174708691217,0.01249716624956795
