Analysis/New Tests_CMB/wrd01_d2s01_new/cmb08_ch25.csv

#Digilent WaveForms Oscilloscope Acquisition
#Device Name: ADP3450
#Serial Number: SN:210018B9D9B0
#Date Time: 2024-08-14 17:33:00.358.516.010
#Sample rate: 5.88235e+06Hz
#Samples: 32768
#Trigger: Source: Channel 3 Type: Edge Condition: Rising Level: 60 mV Hyst.: Auto HoldOff: 0 s
#Channel 3: Range: 100 mV/div Offset: 0 V Attenuation: 1 X Coupling: DC Bandwidth: 0 Hz Sample Mode: Average

Time (s),Channel 3 (V)
-0.003798470534365079,0.2098139449881378
-0.003798300534365078,0.2228806274167359
-0.003798130534365078,0.2335775336869597
-0.003797960534365079,0.242299626491901
-0.003797790534365079,0.250758410834816
-0.003797620534365079,0.2557941851712541
-0.003797450534365079,0.2601716883526102
-0.003797280534365078,0.263265562781545
-0.003797110534365078,0.2650428949002875
-0.003796940534365079,0.265832820286394
-0.003796770534365079,0.2658657338441465
-0.003796600534365079,0.2647466728804936
-0.003796430534365079,0.2629693407617475
-0.003796260534365078,0.2607641323921824
-0.003796090534365078,0.2580652206563075
-0.003795920534365079,0.2550371733428933
-0.003795750534365079,0.2517458175674376
-0.003795580534365079,0.2484873753497424
-0.003795410534365079,0.2453605873630595
-0.003795240534365078,0.2415755282212732
-0.003795070534365078,0.2382183453303086
-0.003794900534365079,0.2349269895548584
-0.003794730534365079,0.2313723253173659
-0.003794560534365079,0.2276530932911077
-0.003794390534365079,0.2244275646311611
-0.003794220534365079,0.220576678373885
-0.003794050534365078,0.2167916192320899
-0.003793880534365079,0.2129407329748146
-0.003793710534365079,0.2095835500838495
-0.003793540534365079,0.2060947129618728
-0.003793370534365079,0.2022109131468351
-0.003793200534365079,0.1982612862162954
-0.003793030534365078,0.1946078813055186
-0.003792860534365079,0.1908228221637522
-0.003792690534365079,0.1874327257150324
-0.003792520534365079,0.1838451479197922
-0.003792350534365079,0.1802904836823001
-0.003792180534365079,0.1771636956956228
-0.003792010534365078,0.1735761179003602
-0.003791840534365079,0.1707784654912276
-0.003791670534365079,0.1677833317355625
-0.003791500534365079,0.1645578030756218
-0.003791330534365079,0.1625171624948392
-0.003791160534365079,0.158929584699599
-0.003790990534365078,0.1585017084487699
-0.003790820534365079,0.1548153899802683
-0.003790650534365079,0.152313959590922
-0.003790480534365079,0.1498125292015802
-0.003790310534365079,0.1472452716967247
-0.003790140534365079,0.1449413226539057
-0.003789970534365078,0.1422424109180243
-0.003789800534365079,0.1401030296639811
-0.003789630534365079,0.1375028586013702
-0.003789460534365079,0.1344089841724475
-0.003789290534365079,0.1324012571494195
-0.003789120534365079,0.129241555604982
-0.003788950534365078,0.1266742981001172
-0.003788780534365079,0.1241070405952659
-0.003788610534365079,0.1212435610706192
-0.003788440534365079,0.1182813408727096
-0.003788270534365079,0.1155824291368408
-0.003788100534365079,0.1129493445164762
-0.003787930534365078,0.1104150005693676
-0.003787760534365078,0.1082756193153252
-0.003787590534365079,0.106103324503525
-0.003787420534365079,0.104260165269269
-0.003787250534365079,0.1019891297842087
-0.003787080534365079,0.09988266208791707
-0.003786910534365078,0.09879651468201046
-0.003786740534365078,0.09708500967877383
-0.003786570534365079,0.0954722453488048
-0.003786400534365079,0.09458357928943115
-0.003786230534365079,0.09336577765251475
-0.003786060534365079,0.0924771115931417
-0.003785890534365078,0.09132513707172613
-0.003785720534365078,0.08964654562624488
-0.003785550534365079,0.08829708975831074
-0.003785380534365079,0.0870792881213916
-0.003785210534365079,0.08556526446468474
-0.003785040534365079,0.08395250013471142
-0.003784870534365078,0.0823397358047319
-0.003784700534365078,0.08062823080149685
-0.003784530534365079,0.07944334272233489
-0.003784360534365079,0.07822554108541652
-0.003784190534365079,0.07713939367951811
-0.003784020534365079,0.07618490050463594
-0.003783850534365079,0.07513166665649204
-0.003783680534365078,0.07397969213507692
-0.003783510534365079,0.07295937184468641
-0.003783340534365079,0.07134660751471336
-0.003783170534365079,0.06986549741576098
-0.003783000534365079,0.06828564664354225
-0.003782830534365079,0.06719949923764382
-0.003782660534365078,0.06509303154134555
-0.003782490534365079,0.06380940278892007
-0.003782320534365079,0.06249286047873732
-0.003782150534365079,0.06091300970652145
-0.003781980534365079,0.05992560297388474
-0.003781810534365079,0.0592015047032858
-0.003781640534365078,0.05772039460432582
-0.003781470534365079,0.05673298787168934
-0.003781300534365079,0.05488982863743438
-0.003781130534365079,0.05317832363420053
-0.003780960534365079,0.0535074592117461
-0.003780790534365079,0.05173012709300325
-0.003780620534365078,0.05136807795769869
-0.003780450534365079,0.05103894238015282
-0.003780280534365079,0.05021610343628961
-0.003780110534365079,0.04978822718548115
-0.003779940534365079,0.04932743737691735
-0.003779770534365079,0.04801089506673507
-0.003779600534365078,0.04768175948918602
-0.003779430534365079,0.04672726631430531
-0.003779260534365079,0.04560820535065108
-0.003779090534365079,0.04488410708005214
-0.003778920534365079,0.04425874948271556
-0.003778750534365079,0.04313968851906062
-0.003778580534365078,0.04241559024845689
-0.003778410534365079,0.04146109707357856
-0.003778240534365079,0.04165857842010506
-0.003778070534365079,0.04139526995806795
-0.003777900534365079,0.0407699123607325
-0.003777730534365079,0.04034203610992326
-0.003777560534365078,0.04040786322543238
-0.003777390534365078,0.04040786322543136
-0.003777220534365079,0.03984833274360448
-0.003777050534365079,0.03961793783932259
-0.003776880534365079,0.0393875429350411
-0.003776710534365079,0.03872927177994996
-0.003776540534365078,0.03882801245321184
-0.003776370534365078,0.03833430908689324
-0.003776200534365079,0.03777477860506714
-0.003776030534365079,0.0374127294697672
-0.003775860534365079,0.03714942100773122
-0.003775690534365079,0.03635949562162185
-0.003775520534365078,0.03530626177347243
-0.003775350534365078,0.03431885504083512
-0.003775180534365079,0.03316688051942693
-0.003775010534365079,0.03158702974720951
-0.003774840534365079,0.03073127724559258
-0.003774670534365079,0.02948056205091941
-0.003774500534365078,0.02895394512684363
-0.003774330534365078,0.0281640197407333
-0.003774160534365079,0.02711078589259082
-0.003773990534365079,0.02684747743055407
-0.003773820534365079,0.0264196011797456
-0.003773650534365079,0.02628794694872737
-0.003773480534365079,0.02635377406423637
-0.003773310534365078,0.02595881137118264
-0.003773140534365079,0.0261892062754643
-0.003772970534365079,0.02651834185300909
-0.003772800534365079,0.0264196011797456
-0.003772630534365079,0.02628794694872737
-0.003772460534365079,0.02625503339097288
-0.003772290534365078,0.02536636733160505
-0.003772120534365079,0.02681456387279699
-0.003771950534365079,0.02500431819629731
-0.003771780534365079,0.02372068944387192
-0.003771610534365079,0.02332572675081724
-0.003771440534365079,0.02293076405776327
-0.003771270534365078,0.02227249290266961
-0.003771100534365079,0.02177878953635138
-0.003770930534365079,0.02085720991922497
-0.003770760534365079,0.020593901457189
-0.003770590534365079,0.02026476587964342
-0.003770420534365079,0.01970523539781697
-0.003770250534365078,0.01921153203149999
-0.003770080534365079,0.0198698031865876
-0.003769910534365079,0.01924444558925215
-0.003769740534365079,0.01924444558925215
-0.003769570534365079,0.01973814895557051
-0.003769400534365079,0.01960649472455228
-0.003769230534365078,0.01980397607107879
-0.003769060534365079,0.0195735811667979
-0.003768890534365079,0.01967232184005816
-0.003768720534365079,0.01789498972131531
-0.003768550534365079,0.0192115320314976
-0.003768380534365079,0.01980397607107963
-0.003768210534365078,0.01973814895556955
-0.003768040534365079,0.01947484049353339
-0.003767870534365079,0.01911279135823261
-0.003767700534365079,0.01838869308763283
-0.003767530534365079,0.01792790327906987
-0.003767360534365079,0.01753294058601518
-0.003767190534365078,0.01707215077744959
-0.003767020534365078,0.01657844741113141
-0.003766850534365079,0.01568978135175957
-0.003766680534365079,0.01545938644747725
-0.003766510534365079,0.01499859663891429
-0.003766340534365079,0.0148340288501415
-0.003766170534365078,0.01466946106137075
-0.003766000534365078,0.01522899154319439
-0.003765830534365079,0.01473528817687825
-0.003765660534365079,0.01496568308115985
-0.003765490534365079,0.01503151019666884
-0.003765320534365079,0.01496568308115973
-0.003765150534365078,0.01486694240789833
-0.003764980534365078,0.01549230000523109
-0.003764810534365079,0.01506442375442406
-0.003764640534365079,0.01542647288972251
-0.003764470534365079,0.01486694240789606
-0.003764300534365079,0.01453780683035049
-0.003764130534365078,0.01447197971483922
-0.003763960534365078,0.01387953567525982
-0.003763790534365079,0.01401118990627644
-0.003763620534365079,0.01338583230894069
-0.003763450534365079,0.0132212645201682
-0.003763280534365079,0.0127604747116044
-0.003763110534365079,0.01233259846079594
-0.003762940534365078,0.01206928999875835
-0.003762770534365079,0.0119705493254909
-0.003762600534365079,0.009699513840434066
-0.003762430534365079,0.0116085001901949
-0.003762260534365079,0.01157558663244035
-0.003762090534365079,0.01147684595917686
-0.003761920534365078,0.01114771038163087
-0.003761750534365079,0.01108188326612217
-0.003761580534365079,0.01118062393938536
-0.003761410534365079,0.01101605615061288
-0.003761240534365079,0.01052235278429452
-0.003761070534365079,0.01065400701531251
-0.003760900534365078,0.01039069855327833
-0.003760730534365079,0.01095022903510442
-0.003760560534365079,0.01131227817040449
-0.003760390534365079,0.01164141374794946
-0.003760220534365079,0.01216803067202238
-0.003760050534365079,0.01259590692283084
-0.003759880534365078,0.01299086961588666
-0.003759710534365079,0.01308961028915051
-0.003759540534365079,0.01338583230894135
-0.003759370534365079,0.01358331365546833
-0.003759200534365079,0.01371496788648656
-0.003759030534365079,0.01358331365546857
-0.003758860534365078,0.0130566967313953
-0.003758690534365079,0.01302378317363942
-0.003758520534365079,0.01223385778753053
-0.003758350534365079,0.01170724086345858
-0.003758180534365079,0.01052235278429452
-0.003758010534365079,0.01016030364899439
-0.003757840534365078,0.009732427398180719
-0.003757670534365079,0.008514625761266896
-0.003757500534365079,0.008712107107791425
-0.003757330534365079,0.007362651239857875
-0.003757160534365079,0.007823441048420837
-0.003756990534365079,0.008317144414739193
-0.003756820534365078,0.00851462576126558
-0.003756650534365078,0.008251317299230019
-0.003756480534365079,0.008218403741475762
-0.003756310534365079,0.008350057972494291
-0.003756140534365079,0.008646279992284765
-0.003755970534365079,0.009172896916357679
-0.003755800534365078,0.008745020665552029
-0.003755630534365078,0.009732427398182275
-0.003755460534365079,0.008942502012076138
-0.003755290534365079,0.009139983358603302
-0.003755120534365079,0.009238724031866792
-0.003754950534365079,0.009107069800848565
-0.003754780534365078,0.009765340955939826
-0.003754610534365078,0.009798254513694144
-0.003754440534365079,0.009765340955940246
-0.003754270534365079,0.0100615629757312
-0.003754100534365079,0.01032487143776718
-0.003753930534365079,0.01042361211103085
-0.003753760534365078,0.01098314259285964
-0.003753590534365078,0.01134519172815713
-0.003753420534365079,0.01098314259286143
-0.003753250534365079,0.01269464759609146
-0.003753080534365079,0.01058817989980363
-0.003752910534365079,0.01039069855327629
-0.003752740534365079,0.0102590443222583
-0.003752570534365078,0.01039069855327761
-0.003752400534365079,0.01075274768857684
-0.003752230534365079,0.01098314259285796
-0.003752060534365079,0.01078566124633098
-0.003751890534365079,0.01058817989980363
-0.003751720534365079,0.01042361211103115
-0.003751550534365078,0.01025904432225794
-0.003751380534365079,0.01022613076450267
-0.003751210534365079,0.009765340955938629
-0.003751040534365079,0.009172896916357679
-0.003750870534365079,0.00904124268533945
-0.003750700534365079,0.009172896916357439
-0.003750530534365078,0.008942502012074104
-0.003750360534365079,0.008481712203512458
-0.003750190534365079,0.008745020665547958
-0.003750020534365079,0.008481712203511979
-0.003749850534365079,0.007955095279439066
-0.003749680534365079,0.008086749510457054
-0.003749510534365078,0.007988008837194102
-0.003749340534365079,0.008119663068210773
-0.003749170534365079,0.007527219028630242
-0.003749000534365079,0.007757613932911723
-0.003748830534365079,0.007132256335575138
-0.003748660534365079,0.006803120758030166
-0.003748490534365078,0.007000602104554395
-0.003748320534365079,0.006309417391710671
-0.003748150534365079,0.006013195371920136
-0.003747980534365079,0.005980281814165639
-0.003747810534365079,0.005716973352129182
-0.003747640534365079,0.005684059794374625
-0.003747470534365078,0.00568405979437223
-0.003747300534365079,0.00502578863928456
-0.003747130534365079,0.005618232678864553
-0.003746960534365079,0.005091615754792597
-0.003746790534365079,0.00607902248742931
-0.003746620534365079,0.00653981229599311
-0.003746450534365078,0.007033515662312424
-0.003746280534365078,0.007296824124348941
-0.003746110534365079,0.007856354606176412
-0.003745940534365079,0.008415885088003583
-0.003745770534365079,0.00881084778105755
-0.003745600534365079,0.009238724031866792
-0.003745430534365078,0.009074156243093887
-0.003745260534365078,0.009041242685338851
-0.003745090534365079,0.008876674896565347
-0.003744920534365079,0.00815257662596575
-0.003744750534365079,0.00779052749066628
-0.003744580534365079,0.007329737682102481
-0.003744410534365078,0.006770207200272974
-0.003744240534365078,0.006210676718446342
-0.003744070534365079,0.005881541140900771
-0.003743900534365079,0.005223269985805856
-0.003743730534365079,0.002491444692182586
-0.003743560534365079,0.004433344599701455
-0.003743390534365078,0.004104209022155525
-0.003743220534365078,0.004005468348892093
-0.003743050534365079,0.003972554791138793
-0.003742880534365079,0.004597912388474121
-0.003742710534365079,0.004532085272965126
-0.003742540534365079,0.004795393735001583
-0.003742370534365078,0.004630825946231073
-0.003742200534365078,0.005256183543567897
-0.003742030534365079,0.005947368256411501
-0.003741860534365079,0.00617776316069376
-0.003741690534365079,0.006605639411502225
-0.003741520534365079,0.006572725853747667
-0.003741350534365079,0.006868947873538142
-0.003741180534365078,0.006506898738239271
-0.003741010534365079,0.006704380084764879
-0.003740840534365079,0.006144849602939562
-0.003740670534365079,0.00677020720027501
-0.003740500534365079,0.005684059794374625
-0.003740330534365079,0.006177763160692084
-0.003740160534365078,0.00644107162272896
-0.003739990534365079,0.006309417391710551
-0.003739820534365079,0.005947368256411741
-0.003739650534365079,0.00630941739171121
-0.003739480534365079,0.006210676718447538
-0.003739310534365079,0.005684059794375583
-0.003739140534365078,0.00627650383395773
-0.003738970534365079,0.00657272585374653
-0.003738800534365079,0.005947368256412279
-0.003738630534365079,0.006605639411502225
-0.003738460534365079,0.005848627583147411
-0.003738290534365079,0.006276503833955875
-0.003738120534365078,0.007000602104556431
-0.003737950534365079,0.006868947873539878
-0.003737780534365079,0.007527219028630601
-0.003737610534365079,0.007955095279439066
-0.003737440534365079,0.008415885088002865
-0.003737270534365079,0.008679193550039321
-0.003737100534365078,0.00927163758962111
-0.003736930534365079,0.009205810474112595
-0.003736760534365079,0.009403291820639937
-0.003736590534365079,0.009600773167166921
-0.003736420534365079,0.009666600282676035
-0.003736250534365079,0.009962822302467049
-0.003736080534365078,0.009765340955940425
-0.003735910534365079,0.00996282230246651
-0.003735740534365079,0.009666600282676753
-0.003735570534365079,0.0100615629757306
-0.003735400534365079,0.009995735860221606
-0.003735230534365079,0.009798254513694264
-0.003735060534365078,0.009502032493902652
-0.003734890534365078,0.009337464705131124
-0.003734720534365079,0.009699513840429875
-0.003734550534365079,0.009304551147378841
-0.003734380534365079,0.01091731547734921
-0.003734210534365079,0.008251317299230079
-0.003734040534365078,0.008284230856984157
-0.003733870534365078,0.008152576625966409
-0.003733700534365079,0.008152576625966289
-0.003733530534365079,0.008086749510457293
-0.003733360534365079,0.008086749510457293
-0.003733190534365079,0.008218403741475522
-0.003733020534365078,0.0082842308569832
-0.003732850534365078,0.007889268163928874
-0.003732680534365079,0.007593046144139237
-0.003732510534365079,0.007757613932911783
-0.003732340534365079,0.00779052749066628
-0.003732170534365079,0.007823441048420837
-0.003732000534365078,0.008481712203511261
-0.003731830534365078,0.008284230856985833
-0.003731660534365079,0.008613366434529849
-0.003731490534365079,0.008415885088003224
-0.003731320534365079,0.008613366434530208
-0.003731150534365079,0.008415885088002865
-0.003730980534365079,0.008975415569829318
-0.003730810534365078,0.008350057972493751
-0.003730640534365079,0.008350057972493871
-0.003730470534365079,0.008415885088002745
-0.003730300534365079,0.008350057972493751
-0.003730130534365079,0.008843761338812107
-0.003729960534365079,0.008942502012075599
-0.003729790534365078,0.009831168071447743
-0.003729620534365079,0.009534946051659244
-0.003729450534365079,0.01032487143776616
-0.003729280534365079,0.009765340955939707
-0.003729110534365079,0.009699513840430593
-0.003728940534365079,0.01002864941797556
-0.003728770534365078,0.009469118936146418
-0.003728600534365079,0.008843761338811868
-0.003728430534365079,0.008712107107793819
-0.003728260534365079,0.008679193550039321
-0.003728090534365079,0.008251317299230079
-0.003727920534365079,0.007922181721685106
-0.003727750534365078,0.008350057972493392
-0.003727580534365079,0.008251317299229061
-0.003727410534365079,0.007691786817402729
-0.003727240534365079,0.007757613932911723
-0.003727070534365079,0.007230997008838809
-0.003726900534365079,0.007198083451084253
-0.003726730534365078,0.007198083451084492
-0.003726560534365079,0.007263910566592828
-0.003726390534365079,0.006967688546802592
-0.003726220534365079,0.007099342777820581
-0.003726050534365079,0.006737293642520453
-0.003725880534365079,0.006836034315784124
-0.003725710534365078,0.006934774989046238
-0.003725540534365079,0.00650689873823975
-0.003725370534365079,0.007165169893330293
-0.003725200534365079,0.007494305470875326
-0.003725030534365079,0.007527219028629823
-0.003724860534365079,0.009798254513694264
-0.003724690534365078,0.005947368256414075
-0.003724520534365078,0.006770207200277823
-0.003724350534365079,0.008317144414738714
-0.003724180534365079,0.008053835952702797
-0.003724010534365079,0.008086749510457293
-0.003723840534365079,0.007625959701893495
-0.003723670534365078,0.007362651239857636
-0.003723500534365078,0.007527219028628506
-0.003723330534365079,0.007165169893329994
-0.003723160534365079,0.007329737682100624
-0.003722990534365079,0.00630941739171121
-0.003722820534365079,0.006572725853747667
-0.003722650534365078,0.005980281814167794
-0.003722480534365078,0.006572725853743715
-0.003722310534365079,0.005486578447846983
-0.003722140534365079,0.005322010659074676
-0.003721970534365079,0.005420751332338168
-0.003721800534365079,0.005782800467638296
-0.003721630534365078,0.005289097101320897
-0.003721460534365078,0.005552405563357714
-0.003721290534365079,0.005914454698656405
-0.003721120534365079,0.005848627583148189
-0.003720950534365079,0.006276503833956653
-0.003720780534365079,0.005519492005601839
-0.003720610534365079,0.006868947873536226
-0.003720440534365078,0.006013195371923189
-0.003720270534365079,0.006836034315784184
-0.003720100534365079,0.006868947873539519
-0.003719930534365079,0.007329737682102481
-0.003719760534365079,0.007461391913120709
