Analysis/New Tests_CMB/wrd01_d2s01_new/cmb06_ch38.csv

#Digilent WaveForms Oscilloscope Acquisition
#Device Name: ADP3450
#Serial Number: SN:210018B9D9B0
#Date Time: 2024-08-14 15:51:53.393.372.000
#Sample rate: 5.88235e+06Hz
#Samples: 32768
#Trigger: Source: Channel 3 Type: Edge Condition: Rising Level: 60 mV Hyst.: Auto HoldOff: 0 s
#Channel 3: Range: 100 mV/div Offset: 0 V Attenuation: 1 X Coupling: DC Bandwidth: 0 Hz Sample Mode: Average

Time (s),Channel 3 (V)
-0.003798405081362025,0.2125128567240115
-0.003798235081362024,0.2223869240504075
-0.003798065081362025,0.2303190914692505
-0.003797895081362025,0.2368030623468839
-0.003797725081362025,0.2419046637988387
-0.003797555081362025,0.2461505127491689
-0.003797385081362025,0.2489810787160608
-0.003797215081362024,0.2507913243925631
-0.003797045081362025,0.2512521142011275
-0.003796875081362025,0.2518774717984613
-0.003796705081362025,0.2516470768941777
-0.003796535081362025,0.2504621888150158
-0.003796365081362025,0.2492773007358518
-0.003796195081362024,0.2469733516930259
-0.003796025081362025,0.2450972789010127
-0.003795855081362025,0.2422667129341246
-0.003795685081362025,0.2387120486966324
-0.003795515081362025,0.2351244709013922
-0.003795345081362025,0.2312077575285999
-0.003795175081362024,0.2279164017531297
-0.003795005081362024,0.2239338612648299
-0.003794835081362025,0.2203791970273427
-0.003794665081362025,0.2160346074037424
-0.003794495081362025,0.2123482889352387
-0.003794325081362025,0.2082670077736736
-0.003794155081362025,0.2046794299784334
-0.003793985081362024,0.2012564199719419
-0.003793815081362025,0.1982283726585277
-0.003793645081362025,0.1949699304408258
-0.003793475081362025,0.1912506984145676
-0.003793305081362025,0.1883872188899211
-0.003793135081362025,0.1845692461903994
-0.003792965081362024,0.1811462361839061
-0.003792795081362025,0.1777232261774379
-0.003792625081362025,0.1740369077089265
-0.003792455081362025,0.1697910587585963
-0.003792285081362025,0.1679149859665866
-0.003792115081362025,0.162714643841376
-0.003791945081362024,0.159423288065898
-0.003791775081362025,0.1559015373861675
-0.003791605081362025,0.1527089222839755
-0.003791435081362025,0.1495492207395437
-0.003791265081362025,0.1465870005416336
-0.003791095081362025,0.1437564345747468
-0.003790925081362024,0.1408271279345746
-0.003790755081362025,0.1376674263901432
-0.003790585081362025,0.1347052061922349
-0.003790415081362025,0.1327633062847196
-0.003790245081362025,0.1304922707996552
-0.003790075081362025,0.1284845437766272
-0.003789905081362024,0.1262135082915527
-0.003789735081362025,0.1234487694401757
-0.003789565081362025,0.1211119068396013
-0.003789395081362025,0.1183142544304691
-0.003789225081362025,0.1163065274074411
-0.003789055081362025,0.1136405292293219
-0.003788885081362024,0.111237839513231
-0.003788715081362025,0.1089668040281691
-0.003788545081362025,0.1058400160414878
-0.003788375081362025,0.1035689805564231
-0.003788205081362025,0.1011992043980993
-0.003788035081362025,0.09902690958629859
-0.003787865081362024,0.09688752833224613
-0.003787695081362025,0.09517602332901234
-0.003787525081362025,0.09349743188352976
-0.003787355081362025,0.09172009976478319
-0.003787185081362025,0.08967945918400436
-0.003787015081362025,0.0884287439893312
-0.003786845081362024,0.08678306610159423
-0.003786675081362025,0.08428163571225281
-0.003786505081362025,0.08312966119084403
-0.003786335081362025,0.08122067484107973
-0.003786165081362025,0.07931168849131887
-0.003785995081362025,0.07809388685440027
-0.003785825081362024,0.07592159204259386
-0.003785655081362025,0.07437465482812942
-0.003785485081362025,0.07276189049815937
-0.003785315081362025,0.0713136939569597
-0.003785145081362025,0.0703262872243248
-0.003784975081362025,0.06910848558740618
-0.003784805081362024,0.0679565110659956
-0.003784635081362024,0.06766028904620147
-0.003784465081362025,0.0665083145247949
-0.003784295081362025,0.06581712981195051
-0.003784125081362025,0.06585004336970501
-0.003783955081362025,0.0653234264456321
-0.003783785081362025,0.06509303154135063
-0.003783615081362024,0.06476389596380153
-0.003783445081362025,0.06390814346218567
-0.003783275081362025,0.06364483500014814
-0.003783105081362025,0.06278908249853121
-0.003782935081362025,0.06124214528406702
-0.003782765081362025,0.0603205656669411
-0.003782595081362024,0.05857614710594167
-0.003782425081362025,0.05686464210270829
-0.003782255081362025,0.05541644556150688
-0.003782085081362025,0.05347454565399155
-0.003781915081362025,0.05189469488177281
-0.003781745081362025,0.05044649834057493
-0.003781575081362024,0.04906412891487383
-0.003781405081362025,0.04712222900736004
-0.003781235081362025,0.04603608160145804
-0.003781065081362025,0.04406126813618821
-0.003780895081362025,0.04366630544313353
-0.003780725081362025,0.04248141736397163
-0.003780555081362024,0.04123070216929139
-0.003780385081362025,0.03988124630135802
-0.003780215081362025,0.03909132091524727
-0.003780045081362025,0.0375443837007859
-0.003779875081362025,0.03668863119916742
-0.003779705081362025,0.03599744648632172
-0.003779535081362024,0.03504295331143836
-0.003779365081362025,0.03471381773389316
-0.003779195081362025,0.03425302792532864
-0.003779025081362025,0.03339727542371171
-0.003778855081362025,0.03293648561514791
-0.003778685081362025,0.03290357205739335
-0.003778515081362024,0.03240986869107272
-0.003778345081362025,0.03178451109373668
-0.003778175081362025,0.030830017918855
-0.003778005081362025,0.03013883320601056
-0.003777835081362025,0.03013883320601056
-0.003777665081362025,0.0284931553182827
-0.003777495081362024,0.0274070079123798
-0.003777325081362025,0.02671582319953476
-0.003777155081362025,0.02569550290914301
-0.003776985081362025,0.02441187415671582
-0.003776815081362025,0.02342446742408091
-0.003776645081362025,0.0217458759785985
-0.003776475081362024,0.02075846924595771
-0.003776305081362025,0.01963940828230516
-0.003776135081362025,0.01917861847374184
-0.003775965081362025,0.01852034731865243
-0.003775795081362025,0.01881656933844291
-0.003775625081362025,0.01868491510742468
-0.003775455081362024,0.01894822356946341
-0.003775285081362025,0.01957358116679892
-0.003775115081362025,0.01990271674434372
-0.003774945081362025,0.02013311164862639
-0.003774775081362025,0.02079138280371634
-0.003774605081362025,0.02220666578716229
-0.003774435081362024,0.0203635065529126
-0.003774265081362024,0.02187753020961852
-0.003774095081362025,0.02237123357593508
-0.003773925081362025,0.0223712335759346
-0.003773755081362025,0.02210792511389862
-0.003773585081362025,0.02098886415024368
-0.003773415081362025,0.02158130818982463
-0.003773245081362024,0.02138382684329729
-0.003773075081362025,0.02108760482350634
-0.003772905081362025,0.02052807434167934
-0.003772735081362025,0.02023185232188887
-0.003772565081362025,0.0194419269357795
-0.003772395081362025,0.01838869308763558
-0.003772225081362024,0.01782916260580357
-0.003772055081362025,0.01710506433520475
-0.003771885081362025,0.01644679318011402
-0.003771715081362025,0.01601891692930556
-0.003771545081362025,0.01536064577421441
-0.003771375081362025,0.01427449836831601
-0.003771205081362024,0.0135833136554657
-0.003771035081362025,0.012859215384867
-0.003770865081362025,0.01226677134528527
-0.003770695081362025,0.0118388950944768
-0.003770525081362025,0.01078566124633098
-0.003770355081362025,0.01085148836183997
-0.003770185081362024,0.01045652566878469
-0.003770015081362025,0.01025904432225812
-0.003769845081362025,0.01029195788001208
-0.003769675081362025,0.009995735860221606
-0.003769505081362025,0.01022613076450351
-0.003769335081362025,0.01065400701531275
-0.003769165081362024,0.01062109345755807
-0.003768995081362025,0.01058817989980399
-0.003768825081362025,0.01078566124633038
-0.003768655081362025,0.01045652566878541
-0.003768485081362025,0.009864081629203377
-0.003768315081362025,0.009436205378394135
-0.003768145081362024,0.008745020665544605
-0.003767975081362025,0.007691786817401532
-0.003767805081362025,0.007099342777818905
-0.003767635081362025,0.006177763160692204
-0.003767465081362025,0.00574988690988374
-0.003767295081362025,0.005256183543565383
-0.003767125081362024,0.004499171715208534
-0.003766955081362025,0.003939641233382201
-0.003766785081362025,0.003445937867064682
-0.003766615081362025,0.003413024309309227
-0.003766445081362025,0.002886407385237271
-0.003766275081362025,0.002985148058500942
-0.003766105081362024,0.002096481999129696
-0.003765935081362025,0.002590185365446137
-0.003765765081362025,0.002557271807691041
-0.003765595081362025,0.002195222672392709
-0.003765425081362025,0.002820580269728157
-0.003765255081362025,0.003050975174010056
-0.003765085081362024,0.003149715847274925
-0.003764915081362025,0.003478851424821574
-0.003764745081362025,0.004104209022156363
-0.003764575081362025,0.004367517484191862
-0.003764405081362025,0.004104209022155884
-0.003764235081362025,0.005124529312547154
-0.003764065081362024,0.002030654883625612
-0.003763895081362024,0.003906727675626745
-0.003763725081362025,0.003413024309309167
-0.003763555081362025,0.002853493827482235
-0.003763385081362025,0.002590185365446257
-0.003763215081362025,0.002096481999127901
-0.003763045081362025,0.002129395556882398
-0.003762875081362024,0.001833173537091324
-0.003762705081362025,0.001800259979337425
-0.003762535081362025,0.002096481999127901
-0.003762365081362025,0.002096481999127901
-0.003762195081362025,0.002656012480955371
-0.003762025081362025,0.002359790461164896
-0.003761855081362024,0.002623098923200814
-0.003761685081362025,0.002623098923201653
-0.003761515081362025,0.003083888731764853
-0.003761345081362025,0.003215542962782842
-0.003761175081362025,0.003873814117873984
-0.003761005081362025,0.00440043104194594
-0.003760835081362024,0.004663739503983954
-0.003760665081362025,0.0048283072927562
-0.003760495081362025,0.00486122085050992
-0.003760325081362025,0.004433344599701455
-0.003760155081362025,0.004235863253174112
-0.003759985081362025,0.003840900560120146
-0.003759815081362024,0.003478851424817144
-0.003759645081362025,0.002886407385234876
-0.003759475081362025,0.00156986507505361
-0.003759305081362025,0.0008128532467001733
-0.003759135081362025,8.875497609991696e-05
-0.003758965081362025,-0.0006682568522535195
-0.003758795081362024,-0.001589836469384531
-0.003758625081362025,-0.002149366951210445
-0.003758455081362025,-0.002412675413247261
-0.003758285081362025,-0.002873465221810222
-0.003758115081362025,-0.003005119452828451
-0.003757945081362025,-0.002873465221810222
-0.003757775081362024,-0.003038033010582649
-0.003757605081362025,-0.002939292337320056
-0.003757435081362025,-0.003334255030373783
-0.003757265081362025,-0.003202600799356272
-0.003757095081362025,-0.003465909261392251
-0.003756925081362025,-0.002807638106301108
-0.003756755081362024,-0.002149366951212361
-0.003756585081362025,-0.002807638106299612
-0.003756415081362025,-0.001984799162437001
-0.003756245081362025,-0.001886058489172731
-0.003756075081362025,-0.001458182238364267
-0.003755905081362025,-0.001491095796118824
-0.003755735081362024,-0.001556922911626262
-0.003755565081362025,-0.00109613310306342
-0.003755395081362025,-0.0008986517565367963
-0.003755225081362025,-0.000898651756536916
-0.003755055081362025,-0.0009644788720459105
-0.003754885081362025,-0.0003062077169547683
-0.003754715081362024,-4.289925492525632e-05
-0.003754545081362025,-0.001951885604675799
-0.003754375081362025,-7.581281267370674e-05
-0.003754205081362025,-0.0005366026212361292
-0.003754035081362025,-0.0002403806014456541
-0.003753865081362025,-0.0001416399281819828
-0.003753695081362024,-9.985697161359582e-06
-0.003753525081362025,0.0006482854579267891
-0.003753355081362025,0.0004837176691553207
-0.003753185081362025,0.0008786803622102455
-0.003753015081362025,0.001405297286282201
-0.003752845081362025,0.00107616170873663
-0.003752675081362025,0.001339470170772608
-0.003752505081362024,0.001833173537092402
-0.003752335081362025,0.002096481999128379
-0.003752165081362025,0.002359790461164118
-0.003751995081362025,0.002228136230146129
-0.003751825081362025,0.001833173537091444
-0.003751655081362025,0.001372383728528482
-0.003751485081362024,0.001273643055261817
-0.003751315081362025,0.000681199015681885
-0.003751145081362025,0.0006482854579261904
-0.003750975081362025,-9.985697163754359e-06
-0.003750805081362025,-0.0006024297367457822
-0.003750635081362025,-0.001063219545308744
-0.003750465081362024,-0.001524009353876255
-0.003750295081362025,-0.002313934739984308
-0.003750125081362025,-0.003169687241601416
-0.003749955081362025,-0.003268427914864908
-0.003749785081362025,-0.003301341472619465
-0.003749615081362025,-0.003696304165673432
-0.003749445081362024,-0.003860871954445619
-0.003749275081362025,-0.003498822819146389
-0.003749105081362025,-0.003268427914864968
-0.003748935081362025,-0.003301341472619465
-0.003748765081362025,-0.003268427914864908
-0.003748595081362025,-0.003498822819146389
-0.003748425081362024,-0.003005119452827014
-0.003748255081362025,-0.002610156759774484
-0.003748085081362025,-0.003005119452826895
-0.003747915081362025,-0.002149366951209966
-0.003747745081362025,-0.002116453393455409
-0.003747575081362025,-0.001326528007346039
-0.003747405081362024,-0.001129046660820013
-0.003747235081362025,-0.001491095796118345
-0.003747065081362025,-0.001227787334082547
-0.003746895081362025,-0.001326528007346039
-0.003746725081362025,-0.001326528007346039
-0.003746555081362025,-0.00188605848917351
-0.003746385081362024,-0.001886058489174587
-0.003746215081362025,-0.0021822805089659
-0.003746045081362025,-0.002939292337320594
-0.003745875081362025,-0.003630477050165395
-0.003745705081362025,-0.003827958396692379
-0.003745535081362025,-0.004091266858728836
-0.003745365081362024,-0.004552056667299819
-0.003745195081362025,-0.006526870132558758
-0.003745025081362025,-0.004519143109537719
-0.003744855081362025,-0.004321661763011214
-0.003744685081362025,-0.004584970225047193
-0.003744515081362025,-0.004617883782801749
-0.003744345081362024,-0.004058353300974518
-0.003744175081362025,-0.004124180416481836
-0.003744005081362025,-0.003696304165674509
-0.003743835081362025,-0.003893785512201313
-0.003743665081362025,-0.003795044838937822
-0.003743495081362025,-0.003334255030374022
-0.003743325081362024,-0.003235514357112027
-0.003743155081362025,-0.003696304165673073
-0.003742985081362025,-0.003400082145882897
-0.003742815081362025,-0.003268427914865207
-0.003742645081362025,-0.003432995703637694
-0.003742475081362025,-0.003531736376901365
-0.003742305081362024,-0.003959612627711565
-0.003742135081362024,-0.004222921089748741
-0.003741965081362025,-0.004683710898311522
-0.003741795081362025,-0.005045760033611829
-0.003741625081362025,-0.005506549842174791
-0.003741455081362025,-0.005638204073193019
-0.003741285081362025,-0.005835685419720003
-0.003741115081362024,-0.005736944746455853
-0.003740945081362025,-0.005506549842175988
-0.003740775081362025,-0.006164820997263539
-0.003740605081362025,-0.004848278687083649
-0.003740435081362025,-0.004584970225047193
-0.003740265081362025,-0.004584970225047193
-0.003740095081362024,-0.003663390607918157
-0.003739925081362025,-0.003268427914865267
-0.003739755081362025,-0.003465909261393089
-0.003739585081362025,-0.00392669906995605
-0.003739415081362025,-0.003729217723428708
-0.003739245081362025,-0.004157093974237172
-0.003739075081362024,-0.004321661763008939
-0.003738905081362025,-0.003827958396694355
-0.003738735081362025,-0.004914105802592225
-0.003738565081362025,-0.004617883782801749
-0.003738395081362025,-0.004354575320765292
-0.003738225081362025,-0.004288748205256298
-0.003738055081362024,-0.004025439743219482
-0.003737885081362025,-0.003959612627710427
-0.003737715081362025,-0.003860871954445799
-0.003737545081362025,-0.003235514357110351
-0.003737375081362025,-0.003202600799355794
-0.003737205081362025,-0.00313677368384668
-0.003737035081362024,-0.002939292337320774
-0.003736865081362025,-0.003334255030374801
-0.003736695081362025,-0.003762131281183624
-0.003736525081362025,-0.003959612627710607
-0.003736355081362025,-0.00415709397423795
-0.003736185081362025,-0.004255834647501621
-0.003736015081362024,-0.004519143109539755
-0.003735845081362025,-0.00497993291810104
-0.003735675081362025,-0.00451914310954149
-0.003735505081362025,-0.006395215901548072
-0.003735335081362025,-0.006526870132566062
-0.003735165081362025,-0.006691437921338847
-0.003734995081362024,-0.00692183282561919
-0.003734825081362025,-0.006493956574811983
-0.003734655081362025,-0.006757265036846644
-0.003734485081362025,-0.006033166766248722
-0.003734315081362025,-0.006592697248075176
-0.003734145081362025,-0.005276154937892892
-0.003733975081362024,-0.004848278687084846
-0.003733805081362025,-0.005177414264627544
-0.003733635081362025,-0.004716624456064702
-0.003733465081362025,-0.004321661763010795
-0.003733295081362025,-0.004354575320765292
-0.003733125081362025,-0.004255834647501621
-0.003732955081362024,-0.0042887482052557
-0.003732785081362025,-0.004157093974238309
-0.003732615081362025,-0.004255834647501621
-0.003732445081362025,-0.004255834647500843
-0.003732275081362025,-0.003827958396692379
-0.003732105081362025,-0.003729217723428708
-0.003731935081362024,-0.003531736376901125
-0.003731765081362024,-0.003465909261391532
-0.003731595081362025,-0.00326842791486407
-0.003731425081362025,-0.00280763810630027
-0.003731255081362025,-0.002346848297737309
-0.003731085081362025,-0.002149366951209966
-0.003730915081362025,-0.001589836469383513
-0.003730745081362024,-0.002906378779565259
-0.003730575081362025,-0.003038033010582948
-0.003730405081362025,-0.003005119452828272
-0.003730235081362025,-0.00290637877956478
-0.003730065081362025,-0.002939292337319337
-0.003729895081362025,-0.003400082145882298
-0.003729725081362024,-0.003827958396692738
-0.003729555081362025,-0.003926699069957127
-0.003729385081362025,-0.004519143109537719
-0.003729215081362025,-0.004321661763010735
-0.003729045081362025,-0.004782451571574535
-0.003728875081362025,-0.004519143109538557
-0.003728705081362024,-0.004782451571574056
-0.003728535081362025,-0.004650797340556486
-0.003728365081362025,-0.004749538013819678
-0.003728195081362025,-0.004584970225047193
-0.003728025081362025,-0.004519143109538078
-0.003727855081362025,-0.004387488878520089
-0.003727685081362024,-0.004025439743218884
-0.003727515081362025,-0.003795044838937822
-0.003727345081362025,-0.003795044838938001
-0.003727175081362025,-0.003893785512201493
-0.003727005081362025,-0.003498822819146808
-0.003726835081362025,-0.003169687241601236
-0.003726665081362024,-0.002873465221807588
-0.003726495081362025,-0.002149366951207991
-0.003726325081362025,-0.001063219545313174
-0.003726155081362025,-0.003038033010583008
-0.003725985081362025,-0.001491095796118824
-0.003725815081362025,-0.001524009353873381
-0.003725645081362024,-0.00168857714264485
-0.003725475081362025,-0.001326528007345919
-0.003725305081362025,-0.001260700891837284
-0.003725135081362025,-0.001458182238364207
-0.003724965081362025,-0.00142526868060971
-0.003724795081362025,-0.001622750027137053
-0.003724625081362024,-0.001984799162440414
-0.003724455081362025,-0.002873465221811121
-0.003724285081362025,-0.003367168588129058
-0.003724115081362025,-0.003630477050165395
-0.003723945081362025,-0.003827958396692379
-0.003723775081362025,-0.004124180416483393
-0.003723605081362024,-0.004387488878522604
-0.003723435081362025,-0.005144500706873945
-0.003723265081362025,-0.004947019360346961
-0.003723095081362025,-0.004749538013820037
-0.003722925081362025,-0.004782451571574535
-0.003722755081362025,-0.005572376957683906
-0.003722585081362024,-0.005111587149120585
-0.003722415081362025,-0.005243241380138933
-0.003722245081362025,-0.005407809168910701
-0.003722075081362025,-0.00517741426462958
-0.003721905081362025,-0.005374895611156563
-0.003721735081362025,-0.005835685419720362
-0.003721565081362024,-0.005769858304209213
-0.003721395081362024,-0.00521032782238234
-0.003721225081362025,-0.00481536512932969
-0.003721055081362025,-0.005144500706871909
