Analysis/New Tests_CMB/wrd01_d2s01_new/cmb06_ch16.csv

#Digilent WaveForms Oscilloscope Acquisition
#Device Name: ADP3450
#Serial Number: SN:210018B9D9B0
#Date Time: 2024-08-14 15:41:00.475.736.310
#Sample rate: 5.88235e+06Hz
#Samples: 32768
#Trigger: Source: Channel 3 Type: Edge Condition: Rising Level: 60 mV Hyst.: Auto HoldOff: 0 s
#Channel 3: Range: 100 mV/div Offset: 0 V Attenuation: 1 X Coupling: DC Bandwidth: 0 Hz Sample Mode: Average

Time (s),Channel 3 (V)
-0.003798489441481073,0.2077403908496007
-0.003798319441481072,0.2201488021231076
-0.003798149441481072,0.2308457083933319
-0.003797979441481072,0.2396665418715349
-0.003797809441481072,0.2472366601550801
-0.003797639441481072,0.2532269276663986
-0.003797469441481073,0.2579006528675457
-0.003797299441481072,0.2607641323921999
-0.003797129441481072,0.2628706000884904
-0.003796959441481072,0.2646808457649846
-0.003796789441481072,0.2647466728804925
-0.003796619441481072,0.2641542288409116
-0.003796449441481073,0.2629035136462384
-0.003796279441481072,0.2611920086429929
-0.003796109441481072,0.258822232484661
-0.003795939441481072,0.2554321360359483
-0.003795769441481072,0.2523382616070183
-0.003795599441481072,0.2483228075609696
-0.003795429441481073,0.2447352297657229
-0.003795259441481072,0.2407197757196529
-0.003795089441481072,0.2368688894623679
-0.003794919441481072,0.232524299838776
-0.003794749441481072,0.2291342033900553
-0.003794579441481072,0.2250200086707432
-0.003794409441481073,0.2210374681824418
-0.003794239441481073,0.2168903599053751
-0.003794069441481072,0.2132369549945982
-0.003793899441481072,0.2095177229683396
-0.003793729441481072,0.2055680960377901
-0.003793559441481072,0.2001702725660526
-0.003793389441481072,0.1971422252526333
-0.003793219441481073,0.1927318085135307
-0.003793049441481072,0.1894075391803005
-0.003792879441481072,0.1861490969626048
-0.003792709441481072,0.1826273462828687
-0.003792539441481072,0.1798955209892454
-0.003792369441481072,0.1766699923292988
-0.003792199441481073,0.1738065128046575
-0.003792029441481072,0.1710746875110091
-0.003791859441481072,0.1669604927916998
-0.003791689441481072,0.1643932352868437
-0.003791519441481072,0.161496842204448
-0.003791349441481072,0.1581396593134831
-0.003791179441481073,0.1549799577690514
-0.003791009441481072,0.1516556884358238
-0.003790839441481072,0.1484630733336371
-0.003790669441481072,0.145040063327164
-0.003790499441481072,0.1420778431292593
-0.003790329441481072,0.1394118449511401
-0.003790159441481073,0.137042068792812
-0.003789989441481072,0.1346393790767198
-0.003789819441481072,0.1320062944563607
-0.003789649441481072,0.1297352589712964
-0.003789479441481072,0.1275629641594996
-0.003789309441481072,0.1253906693476988
-0.003789139441481073,0.1240741270375166
-0.003788969441481072,0.1209802526085804
-0.003788799441481072,0.1188408713545397
-0.003788629441481072,0.1176230697176196
-0.003788459441481072,0.1155824291368382
-0.003788289441481072,0.1141671461533948
-0.003788119441481073,0.1121594191303669
-0.003787949441481072,0.1102175192228418
-0.003787779441481072,0.108506014219607
-0.003787609441481072,0.1062678922922977
-0.003787439441481072,0.1043589059425347
-0.003787269441481072,0.1032069314211273
-0.003787099441481073,0.1013308586291176
-0.003786929441481072,0.1003434518964726
-0.003786759441481072,0.09807241641141355
-0.003786589441481072,0.0972824910253037
-0.003786419441481072,0.09543933179105113
-0.003786249441481072,0.09504436909799718
-0.003786079441481073,0.09399113524985134
-0.003785909441481072,0.09293790140170156
-0.003785739441481072,0.09185175399579987
-0.003785569441481072,0.09040355745460295
-0.003785399441481072,0.0894819778374748
-0.003785229441481072,0.0882641762005584
-0.003785059441481073,0.08678306610160333
-0.003784889441481072,0.08563109158018532
-0.003784719441481072,0.08329422897961393
-0.003784549441481072,0.08154981041862799
-0.003784379441481072,0.08112193416781323
-0.003784209441481072,0.07766601060359102
-0.003784039441481073,0.07618490050463594
-0.003783869441481073,0.07457213617466558
-0.003783699441481072,0.07256440915163061
-0.003783529441481072,0.07144534818797638
-0.003783359441481072,0.06960218895372225
-0.003783189441481072,0.06835147375905135
-0.003783019441481072,0.06700201789111451
-0.003782849441481073,0.06578421625419811
-0.003782679441481072,0.06427019259747874
-0.003782509441481072,0.06219663845894936
-0.003782339441481072,0.06229537913221021
-0.003782169441481072,0.06084718259101234
-0.003781999441481072,0.05966229451184828
-0.003781829441481073,0.05877362845247686
-0.003781659441481072,0.05762165393106239
-0.003781489441481072,0.05670007431393718
-0.003781319441481072,0.05617345738986325
-0.003781149441481072,0.05508730998396484
-0.003780979441481072,0.05426447104010092
-0.003780809441481073,0.05380368123153795
-0.003780639441481072,0.05291501517216444
-0.003780469441481072,0.05301375584542697
-0.003780299441481072,0.05258587959461809
-0.003780129441481072,0.0523554846903366
-0.003779959441481072,0.05199343555503647
-0.003779789441481073,0.05159847286198179
-0.003779619441481072,0.0514997321887144
-0.003779449441481072,0.0504794118983263
-0.003779279441481072,0.05018318987853506
-0.003779109441481072,0.04975531362772659
-0.003778939441481072,0.04853751199080798
-0.003778769441481073,0.0474513645849076
-0.003778599441481072,0.04616773583247603
-0.003778429441481072,0.04511450198433242
-0.003778259441481072,0.04422583592495866
-0.003778089441481072,0.04294220717253147
-0.003777919441481072,0.04195480043989656
-0.003777749441481073,0.04129652928480541
-0.003777579441481072,0.0403749496676747
-0.003777409441481072,0.0395191971660573
-0.003777239441481072,0.03840013620240373
-0.003777069441481072,0.03803808706710331
-0.003776899441481072,0.03751147014303135
-0.003776729441481073,0.03724816168099489
-0.003776559441481072,0.03721524812323913
-0.003776389441481072,0.03688611254569189
-0.003776219441481072,0.03609618715958402
-0.003776049441481072,0.0353391753312301
-0.003775879441481072,0.03507586686919412
-0.003775709441481073,0.03438468215634842
-0.003775539441481072,0.03356184321248151
-0.003775369441481072,0.03273900426861889
-0.003775199441481072,0.03227821446005474
-0.003775029441481072,0.03115915349640243
-0.003774859441481072,0.0314882890739474
-0.003774689441481073,0.03040214166804701
-0.003774519441481072,0.02925016714663691
-0.003774349441481072,0.02908559935786209
-0.003774179441481072,0.02836150108726298
-0.003774009441481072,0.02753866214340006
-0.003773839441481072,0.02727535368136409
-0.003773669441481073,0.02615629271770915
-0.003773499441481073,0.0255309351203737
-0.003773329441481072,0.02487266396527627
-0.003773159441481072,0.02345738098183462
-0.003772989441481072,0.02299659117327113
-0.003772819441481072,0.02270036915348065
-0.003772649441481073,0.02237123357593508
-0.003772479441481073,0.02197627088288111
-0.003772309441481072,0.02207501155614526
-0.003772139441481072,0.02240414713369065
-0.003771969441481072,0.02296367761551747
-0.003771799441481072,0.02316115896204445
-0.003771629441481072,0.0236548623283628
-0.003771459441481073,0.02345738098183582
-0.003771289441481072,0.0232928131930622
-0.003771119441481072,0.02316115896204445
-0.003770949441481072,0.02316115896204511
-0.003770779441481072,0.02352320809734458
-0.003770609441481072,0.02302950473102622
-0.003770439441481073,0.02279910982674474
-0.003770269441481072,0.02270036915348125
-0.003770099441481072,0.02286493694225356
-0.003769929441481072,0.02293076405776189
-0.003769759441481072,0.02256871492246242
-0.003769589441481072,0.02312824540428989
-0.003769419441481073,0.02148256751656204
-0.003769249441481072,0.02131799972778757
-0.003769079441481072,0.02085720991922419
-0.003768909441481072,0.02016602520637855
-0.003768739441481072,0.01950775405128861
-0.003768569441481072,0.0192115320314976
-0.003768399441481073,0.01858617443416101
-0.003768229441481072,0.01799373039457563
-0.003768059441481072,0.01707215077744971
-0.003767889441481072,0.01615057116032259
-0.003767719441481072,0.01549230000523306
-0.003767549441481072,0.01572269490951454
-0.003767379441481073,0.01486694240789606
-0.003767209441481072,0.01493276952340493
-0.003767039441481072,0.01486694240789684
-0.003766869441481072,0.01529481865870584
-0.003766699441481072,0.01559104067849638
-0.003766529441481072,0.01562395423625087
-0.003766359441481073,0.01549230000523264
-0.003766189441481072,0.01545938644747725
-0.003766019441481072,0.01522899154319631
-0.003765849441481072,0.01526190510094961
-0.003765679441481072,0.0146365475036153
-0.003765509441481072,0.01526190510095074
-0.003765339441481073,0.01486694240789606
-0.003765169441481072,0.01424158481056151
-0.003764999441481072,0.01480111529238647
-0.003764829441481072,0.01466946106136854
-0.003764659441481072,0.0145707203881069
-0.003764489441481072,0.01559104067849632
-0.003764319441481073,0.01585434914053277
-0.003764149441481072,0.01542647288972341
-0.003763979441481072,0.01539355933196981
-0.003763809441481072,0.01562395423625039
-0.003763639441481072,0.01536064577421226
-0.003763469441481072,0.01417575769505036
-0.003763299441481073,0.0141428441372958
-0.003763129441481073,0.01335291875118787
-0.003762959441481072,0.01302378317363859
-0.003762789441481072,0.0123984255763035
-0.003762619441481072,0.01197054932549384
-0.003762449441481072,0.01131227817040389
-0.003762279441481073,0.01131227817040389
-0.003762109441481073,0.01081857480408643
-0.003761939441481072,0.01045652566878445
-0.003761769441481072,0.01019321720674949
-0.003761599441481072,0.01048943922654044
-0.003761429441481072,0.01075274768857642
-0.003761259441481072,0.01081857480408553
-0.003761089441481073,0.01104896970836701
-0.003760919441481072,0.01164141374794994
-0.003760749441481072,0.01177306797896835
-0.003760579441481072,0.01213511711426824
-0.003760409441481072,0.01236551201854972
-0.003760239441481072,0.01239842557630427
-0.003760069441481073,0.01256299336507676
-0.003759899441481072,0.01282630182711196
-0.003759729441481072,0.01239842557630397
-0.003759559441481072,0.01223385778753155
-0.003759389441481072,0.01226677134528605
-0.003759219441481072,0.01170724086345858
-0.003759049441481073,0.01223385778753053
-0.003758879441481072,0.01187180865222957
-0.003758709441481072,0.01137810528591288
-0.003758539441481072,0.01131227817040138
-0.003758369441481072,0.009929908744712493
-0.003758199441481072,0.01048943922653996
-0.003758029441481073,0.01032487143776718
-0.003757859441481072,0.01009447653348384
-0.003757689441481072,0.009699513840430713
-0.003757519441481072,0.009765340955939526
-0.003757349441481072,0.009666600282675436
-0.003757179441481072,0.009337464705130465
-0.003757009441481073,0.009139983358603122
-0.003756839441481072,0.009403291820640536
-0.003756669441481072,0.009666600282676154
-0.003756499441481072,0.009732427398186347
-0.003756329441481072,0.01039069855327743
-0.003756159441481072,0.01101605615061288
-0.003755989441481073,0.01078566124633098
-0.003755819441481072,0.01262882048058833
-0.003755649441481072,0.01322126452016701
-0.003755479441481072,0.01289212894262323
-0.003755309441481072,0.01322126452016796
-0.003755139441481072,0.01308961028914997
-0.003754969441481073,0.0127604747116044
-0.003754799441481072,0.01203637644100151
-0.003754629441481072,0.01131227817040174
-0.003754459441481072,0.01071983413082061
-0.003754289441481072,0.01002864941797634
-0.003754119441481072,0.01012739009123984
-0.003753949441481073,0.008646279992284765
-0.003753779441481072,0.008350057972493751
-0.003753609441481072,0.008350057972491597
-0.003753439441481072,0.007757613932912261
-0.003753269441481072,0.008053835952702258
-0.003753099441481072,0.00779052749066628
-0.003752929441481073,0.007889268163929951
-0.003752759441481073,0.007593046144139476
-0.003752589441481072,0.007757613932910765
-0.003752419441481072,0.007494305470875925
-0.003752249441481072,0.007856354606175814
-0.003752079441481072,0.008086749510457293
-0.003751909441481073,0.008053835952702737
-0.003751739441481073,0.008350057972493212
-0.003751569441481072,0.008185490183720966
-0.003751399441481072,0.008185490183721325
-0.003751229441481072,0.00838297153024759
-0.003751059441481072,0.007988008837193623
-0.003750889441481072,0.008382971530248308
-0.003750719441481073,0.008415885088002804
-0.003750549441481072,0.009008329127585132
-0.003750379441481072,0.009074156243094605
-0.003750209441481072,0.009403291820640296
-0.003750039441481072,0.009798254513694264
-0.003749869441481072,0.01009447653348528
-0.003749699441481073,0.01088440191959321
-0.003749529441481072,0.01035778499552269
-0.003749359441481072,0.01062109345755735
-0.003749189441481072,0.01016030364899457
-0.003749019441481072,0.01025904432225806
-0.003748849441481072,0.01002864941797616
-0.003748679441481073,0.009732427398185689
-0.003748509441481072,0.009600773167164286
-0.003748339441481072,0.008876674896566005
-0.003748169441481072,0.008514625761266298
-0.003747999441481072,0.008382971530248308
-0.003747829441481072,0.007922181721684508
-0.003747659441481073,0.007362651239857037
-0.003747489441481072,0.007691786817400334
-0.003747319441481072,0.007066429220065126
-0.003747149441481072,0.00657272585374623
-0.003746979441481072,0.005782800467638296
-0.003746809441481072,0.005190356428056269
-0.003746639441481073,0.006638552969256781
-0.003746469441481072,0.003445937867069891
-0.003746299441481072,0.004861220850510339
-0.003746129441481072,0.004663739503983714
-0.003745959441481072,0.00486122085050986
-0.003745789441481072,0.004400431041946898
-0.003745619441481073,0.004499171715210569
-0.003745449441481072,0.004400431041947377
-0.003745279441481072,0.004532085272970993
-0.003745109441481072,0.006144849602932678
-0.003744939441481072,0.002985148058502319
-0.003744769441481072,0.003742159886855756
-0.003744599441481073,0.004005468348892213
-0.003744429441481072,0.003281370078292435
-0.003744259441481072,0.003413024309311861
-0.003744089441481072,0.003873814117873446
-0.003743919441481072,0.003577592098083868
-0.003743749441481072,0.004071295464401327
-0.003743579441481073,0.004861220850510698
-0.003743409441481072,0.005618232678866948
-0.003743239441481072,0.00601319537192271
-0.003743069441481072,0.006704380084767093
-0.003742899441481072,0.007362651239858714
-0.003742729441481072,0.008284230856984636
-0.003742559441481073,0.008218403741475522
-0.003742389441481072,0.009469118936148452
-0.003742219441481072,0.009403291820641015
-0.003742049441481072,0.009798254513693545
-0.003741879441481072,0.009403291820639219
-0.003741709441481072,0.009205810474112236
-0.003741539441481073,0.009271637589621349
-0.003741369441481073,0.009008329127585372
-0.003741199441481072,0.009074156243092451
-0.003741029441481072,0.008646279992284825
-0.003740859441481072,0.008679193550037944
-0.003740689441481072,0.007922181721684508
-0.003740519441481072,0.007922181721684508
-0.003740349441481073,0.007823441048421018
-0.003740179441481072,0.007889268163929951
-0.003740009441481072,0.00788926816393043
-0.003739839441481072,0.008152576625967188
-0.003739669441481072,0.008580452876775651
-0.003739499441481072,0.008152576625966409
-0.003739329441481073,0.007988008837193923
-0.003739159441481072,0.007922181721683071
-0.003738989441481072,0.007527219028628926
-0.003738819441481072,0.00703351566230979
-0.003738649441481072,0.006111936045183867
-0.003738479441481072,0.006111936045183867
-0.003738309441481073,0.005651146236620906
-0.003738139441481072,0.005354924216827617
-0.003737969441481072,0.00495996152377383
-0.003737799441481072,0.004663739503982757
-0.003737629441481072,0.004334603926437783
-0.003737459441481072,0.003610505655837527
-0.003737289441481073,0.003380110751555628
-0.003737119441481072,0.004795393734995476
-0.003736949441481072,0.003116802289520368
-0.003736779441481072,0.003775073444611091
-0.003736609441481072,0.004202949695419555
-0.003736439441481072,0.004663739503983355
-0.003736269441481073,0.004959961523774369
-0.003736099441481072,0.005354924216830611
-0.003735929441481072,0.005782800467638835
-0.003735759441481072,0.006079022487430628
-0.003735589441481072,0.006803120758030945
-0.003735419441481072,0.00756013258638438
-0.003735249441481073,0.008317144414739193
-0.003735079441481072,0.009271637589622067
-0.003734909441481072,0.009469118936149649
-0.003734739441481072,0.009995735860222146
-0.003734569441481072,0.0102919578800137
-0.003734399441481072,0.01088440191959465
-0.003734229441481073,0.01075274768857642
-0.003734059441481072,0.01042361211102869
-0.003733889441481072,0.00983116807144894
-0.003733719441481072,0.009864081629202779
-0.003733549441481072,0.009534946051657028
-0.003733379441481072,0.009107069800848565
-0.003733209441481073,0.008975415569830336
-0.003733039441481072,0.008481712203509824
-0.003732869441481072,0.007889268163929711
-0.003732699441481072,0.007823441048421436
-0.003732529441481072,0.008152576625966169
-0.003732359441481072,0.00802092239494818
-0.003732189441481073,0.007922181721684508
-0.003732019441481072,0.008218403741475044
-0.003731849441481072,0.008086749510455977
-0.003731679441481072,0.007724700375156986
-0.003731509441481072,0.007625959701892057
-0.003731339441481072,0.006836034315784124
-0.003731169441481073,0.006572725853747667
-0.003730999441481073,0.006111936045184705
-0.003730829441481072,0.005782800467636979
-0.003730659441481072,0.005420751332338407
-0.003730489441481072,0.005552405563355439
-0.003730319441481072,0.005025788639283483
-0.003730149441481072,0.004992875081528926
-0.003729979441481073,0.004532085272965964
-0.003729809441481072,0.004992875081528926
-0.003729639441481072,0.004992875081528507
-0.003729469441481072,0.004762480177246967
-0.003729299441481072,0.004729566619492469
-0.003729129441481072,0.00528909710131994
-0.003728959441481073,0.005684059794373907
-0.003728789441481072,0.00601319537192271
-0.003728619441481072,0.006704380084765657
-0.003728449441481072,0.006572725853748505
-0.003728279441481072,0.007033515662311467
-0.003728109441481072,0.006836034315784124
-0.003727939441481073,0.007198083451083594
-0.003727769441481072,0.007033515662310389
-0.003727599441481072,0.006737293642520872
-0.003727429441481072,0.006967688546802831
-0.003727259441481072,0.007230997008838809
-0.003727089441481072,0.006276503833956653
-0.003726919441481073,0.006506898738238553
-0.003726749441481072,0.006342330949465169
-0.003726579441481072,0.006177763160693281
-0.003726409441481072,0.006342330949465109
-0.003726239441481072,0.005980281814165639
-0.003726069441481072,0.006572725853747667
-0.003725899441481073,0.00630941739171121
-0.003725729441481072,0.008185490183717972
-0.003725559441481072,0.007362651239858115
-0.003725389441481072,0.007955095279438468
-0.003725219441481072,0.007625959701895171
-0.003725049441481072,0.008547539319021094
-0.003724879441481073,0.007889268163929951
-0.003724709441481072,0.007955095279440024
-0.003724539441481072,0.008218403741475882
-0.003724369441481072,0.008415885088003823
-0.003724199441481072,0.008942502012076439
-0.003724029441481072,0.009304551147375908
-0.003723859441481073,0.00904124268533945
-0.003723689441481072,0.009139983358603361
-0.003723519441481072,0.009205810474110919
-0.003723349441481072,0.008843761338811868
-0.003723179441481072,0.008712107107793042
-0.003723009441481072,0.008251317299230079
-0.003722839441481073,0.007494305470875266
-0.003722669441481072,0.00736265123985572
-0.003722499441481072,0.007000602104557149
-0.003722329441481072,0.007066429220065545
-0.003722159441481072,0.006803120758029029
-0.003721989441481072,0.006506898738238553
-0.003721819441481073,0.006144849602938425
-0.003721649441481072,0.006013195371917801
-0.003721479441481072,0.005354924216829054
-0.003721309441481072,0.005354924216828336
-0.003721139441481072,0.004959961523774489
-0.003720969441481072,0.005025788639283483
-0.003720799441481073,0.004466258157456012
-0.003720629441481073,0.004466258157456012
-0.003720459441481072,0.004466258157455534
-0.003720289441481072,0.004334603926437125
-0.003720119441481072,0.003972554791138374
-0.003719949441481072,0.004367517484192341
-0.003719779441481073,0.004499171715210569
