Analysis/New Tests_CMB/wrd01_d2s01_new/cmb08_ch12.csv

#Digilent WaveForms Oscilloscope Acquisition
#Device Name: ADP3450
#Serial Number: SN:210018B9D9B0
#Date Time: 2024-08-14 17:28:36.287.332.440
#Sample rate: 5.88235e+06Hz
#Samples: 32768
#Trigger: Source: Channel 3 Type: Edge Condition: Rising Level: 60 mV Hyst.: Auto HoldOff: 0 s
#Channel 3: Range: 100 mV/div Offset: 0 V Attenuation: 1 X Coupling: DC Bandwidth: 0 Hz Sample Mode: Average

Time (s),Channel 3 (V)
-0.003798453868695598,0.2135002634566482
-0.003798283868695598,0.2266327730007592
-0.003798113868695598,0.2383829131191289
-0.003797943868695598,0.2481582397722116
-0.003797773868695598,0.2562878885375847
-0.003797603868695598,0.2630351678772566
-0.003797433868695598,0.2673468439431036
-0.003797263868695598,0.2709344217383572
-0.003797093868695598,0.2728104945303629
-0.003796923868695598,0.2735675063587144
-0.003796753868695598,0.2732712843389215
-0.003796583868695598,0.2719547420287416
-0.003796413868695598,0.2694862251971498
-0.003796243868695598,0.2669847948077892
-0.003796073868695598,0.2630680814349979
-0.003795903868695598,0.2594146765242492
-0.003795733868695598,0.2560245800755293
-0.003795563868695598,0.2523711751647801
-0.003795393868695598,0.2481253262144423
-0.003795223868695598,0.2436490823598068
-0.003795053868695598,0.2393374062939599
-0.003794883868695598,0.2350586437858745
-0.003794713868695598,0.230352005026975
-0.003794543868695598,0.2267973407894893
-0.003794373868695598,0.2230122816477152
-0.003794203868695598,0.219688012314511
-0.003794033868695598,0.2163966565390394
-0.003793863868695598,0.2136977448031704
-0.003793693868695598,0.210867178836279
-0.003793523868695598,0.2083328348891827
-0.003793353868695598,0.2052718740180089
-0.003793183868695598,0.2025071351666311
-0.003793013868695598,0.1999727912195135
-0.003792843868695598,0.196747262559573
-0.003792673868695598,0.1936533881306453
-0.003792503868695598,0.1909544763947766
-0.003792333868695598,0.1875643799460572
-0.003792163868695598,0.1842071970550985
-0.003791993868695598,0.1804550514710626
-0.003791823868695598,0.177624485504174
-0.003791653868695598,0.1737735992468928
-0.003791483868695598,0.1710417739532695
-0.003791313868695598,0.1680137266398503
-0.003791143868695598,0.1651831606729635
-0.003790973868695598,0.1625500760525838
-0.003790803868695598,0.1598182507589608
-0.003790633868695598,0.1572180796963513
-0.003790463868695598,0.154881217095782
-0.003790293868695598,0.1523139595909265
-0.003790123868695598,0.1495492207395437
-0.003789953868695598,0.1467186547726415
-0.003789783868695598,0.1438880888057546
-0.003789613868695598,0.1409916957233545
-0.003789443868695598,0.1385890060072762
-0.003789273868695598,0.135560958693857
-0.003789103868695598,0.1339811079216382
-0.003788933868695598,0.1300643945488367
-0.003788763868695598,0.1275300506017419
-0.003788593868695598,0.1257856320407496
-0.003788423868695598,0.1236133372289495
-0.003788253868695598,0.1218360051102066
-0.003788083868695598,0.1203878085690061
-0.003787913868695598,0.11851173577699
-0.003787743868695598,0.1167673172160011
-0.003787573868695598,0.1146937630774642
-0.003787403868695598,0.1127189496121909
-0.003787233868695598,0.11080996326243
-0.003787063868695598,0.1087364091238929
-0.003786893868695598,0.1067615956586122
-0.003786723868695598,0.1047538686355863
-0.003786553868695598,0.1033056720943875
-0.003786383868695598,0.1013966857446238
-0.003786213868695598,0.09978392141465339
-0.003786043868695598,0.09754579948734352
-0.003785873868695598,0.09570264025308303
-0.003785703868695598,0.09425444371188324
-0.003785533868695598,0.09300372851720973
-0.003785363868695598,0.09030481678134011
-0.003785193868695598,0.08984402697277716
-0.003785023868695598,0.08816543552729472
-0.003784853868695598,0.08622353561977023
-0.003784683868695598,0.0846765984053045
-0.003784513868695598,0.08270178494003552
-0.003784343868695598,0.08118776128332594
-0.003784173868695598,0.07970665118437356
-0.003784003868695598,0.0787521580094914
-0.003783833868695598,0.07746852925706602
-0.003783663868695598,0.07559245646505595
-0.003783493868695598,0.07615198694687672
-0.003783323868695598,0.07358472944202551
-0.003783153868695598,0.07335433453774404
-0.003782983868695598,0.07180739732327984
-0.003782813868695598,0.07062250924411796
-0.003782643868695598,0.06986549741575691
-0.003782473868695598,0.06874643645210443
-0.003782303868695598,0.0678577703927309
-0.003782133868695598,0.0667057958713235
-0.003781963868695598,0.06519177221461386
-0.003781793868695598,0.06433601971299693
-0.003781623868695598,0.06259160115200038
-0.003781453868695598,0.06163710797711931
-0.003781283868695598,0.06032056566693655
-0.003781113868695598,0.05874071489472068
-0.003780943868695598,0.05785204883534764
-0.003780773868695598,0.05699629633373071
-0.003780603868695598,0.05620637094761835
-0.003780433868695598,0.05581140825456336
-0.003780263868695598,0.05485691507968127
-0.003780093868695598,0.05393533546255534
-0.003779923868695598,0.05337580498072787
-0.003779753868695598,0.05423155748234636
-0.003779583868695598,0.05186178132401681
-0.003779413868695598,0.0514668186309629
-0.003779243868695598,0.05110476949566278
-0.003779073868695598,0.05074272036036331
-0.003778903868695598,0.05074272036036331
-0.003778733868695598,0.05018318987853584
-0.003778563868695598,0.0499527949742513
-0.003778393868695598,0.04922869670365296
-0.003778223868695598,0.04883373401059767
-0.003778053868695598,0.04810963573999748
-0.003777883868695598,0.04741845102715304
-0.003777713868695598,0.04610190871697075
-0.003777543868695598,0.04494993419555682
-0.003777373868695598,0.04373213255864048
-0.003777203868695598,0.04254724447947673
-0.003777033868695598,0.0415269241890839
-0.003776863868695598,0.03965085139707756
-0.003776693868695598,0.03925588870402288
-0.003776523868695598,0.03840013620240224
-0.003776353868695598,0.03780769216282129
-0.003776183868695598,0.03751147014303087
-0.003776013868695598,0.03724816168099369
-0.003775843868695598,0.03658989052590375
-0.003775673868695598,0.03701776677671299
-0.003775503868695598,0.03708359389222175
-0.003775333868695598,0.03698485321895999
-0.003775163868695598,0.03741272946976636
-0.003774993868695598,0.03668863119916879
-0.003774823868695598,0.03744564302752224
-0.003774653868695598,0.03691902610344932
-0.003774483868695598,0.03662280408365543
-0.003774313868695598,0.03583287869754773
-0.003774143868695598,0.03550374312000319
-0.003773973868695598,0.03540500244673891
-0.003773803868695598,0.03497712619593045
-0.003773633868695598,0.03435176859859387
-0.003773463868695598,0.03382515167452191
-0.003773293868695598,0.03293648561514564
-0.003773123868695598,0.03231112801781025
-0.003772953868695598,0.03171868397822809
-0.003772783868695598,0.03106041282313815
-0.003772613868695598,0.03030340099478334
-0.003772443868695598,0.02987552474397488
-0.003772273868695598,0.02954638916642721
-0.003772103868695598,0.02918434003112792
-0.003771933868695598,0.028921031569092
-0.003771763868695598,0.0289539451268465
-0.003771593868695598,0.02905268580011017
-0.003771423868695598,0.02905268580011017
-0.003771253868695598,0.0291185129156212
-0.003771083868695598,0.02964512983969322
-0.003770913868695598,0.03020466032151937
-0.003770743868695598,0.03004009253274689
-0.003770573868695598,0.03030340099478334
-0.003770403868695598,0.03059962301457382
-0.003770233868695598,0.03023757387927363
-0.003770063868695598,0.03007300609049977
-0.003769893868695598,0.029151426473373
-0.003769723868695598,0.02869063666481004
-0.003769553868695598,0.02796653839420979
-0.003769383868695598,0.02684747743055485
-0.003769213868695598,0.02612337915995052
-0.003769043868695598,0.02500431819629857
-0.003768873868695598,0.02441187415671576
-0.003768703868695598,0.02339155386632635
-0.003768533868695598,0.02260162848021698
-0.003768363868695598,0.02161422174758026
-0.003768193868695598,0.02207501155614478
-0.003768023868695598,0.02227249290267027
-0.003767853868695598,0.02164713530533446
-0.003767683868695598,0.02144965395880742
-0.003767513868695598,0.02141674040105292
-0.003767343868695598,0.02121925905452558
-0.003767173868695598,0.02125217261228241
-0.003767003868695598,0.02187753020961618
-0.003766833868695598,0.02158130818982487
-0.003766663868695598,0.02112051838126412
-0.003766493868695598,0.02233832001818052
-0.003766323868695598,0.02085720991922545
-0.003766153868695598,0.02115343193901419
-0.003765983868695598,0.0205280743416788
-0.003765813868695598,0.02023185232188887
-0.003765643868695598,0.02023185232188857
-0.003765473868695598,0.02006728453311608
-0.003765303868695598,0.01986980318658874
-0.003765133868695598,0.01881656933844411
-0.003764963868695598,0.01914570491598824
-0.003764793868695598,0.01907987780047991
-0.003764623868695598,0.01937609982026966
-0.003764453868695598,0.01898113712721569
-0.003764283868695598,0.01848743376089734
-0.003764113868695598,0.01819121174110692
-0.003763943868695598,0.01835577952987684
-0.003763773868695598,0.01773042193254282
-0.003763603868695598,0.01789498972131513
-0.003763433868695598,0.01779624904805164
-0.003763263868695598,0.01789498972131531
-0.003763093868695598,0.01763168125927933
-0.003762923868695598,0.01779624904805331
-0.003762753868695598,0.0182570388566158
-0.003762583868695598,0.01845452020314344
-0.003762413868695598,0.01881656933844291
-0.003762243868695598,0.01927735914700671
-0.003762073868695598,0.02158130818982152
-0.003761903868695598,0.01802664395233366
-0.003761733868695598,0.01805955751009001
-0.003761563868695598,0.01911279135823303
-0.003761393868695598,0.01861908799191557
-0.003761223868695598,0.01835577952987911
-0.003761053868695598,0.01763168125928017
-0.003760883868695598,0.01733545923948604
-0.003760713868695598,0.01684175587316679
-0.003760543868695598,0.01536064577421328
-0.003760373868695598,0.01473528817687783
-0.003760203868695598,0.01489985596565062
-0.003760033868695598,0.01480111529238713
-0.003759863868695598,0.01522899154319798
-0.003759693868695598,0.01572269490951472
-0.003759523868695598,0.01582143558277785
-0.003759353868695598,0.01562395423625087
-0.003759183868695598,0.01572269490951454
-0.003759013868695598,0.01582143558277803
-0.003758843868695598,0.01562395423625327
-0.003758673868695598,0.01628222539134309
-0.003758503868695598,0.0168746694309235
-0.003758333868695598,0.01657844741113303
-0.003758163868695598,0.01657844741113303
-0.003757993868695598,0.01697341010418771
-0.003757823868695598,0.01615057116032474
-0.003757653868695598,0.01641387962236036
-0.003757483868695598,0.01647970673786978
-0.003757313868695598,0.01671010164215066
-0.003757143868695598,0.01638096606460569
-0.003756973868695598,0.01661136096888758
-0.003756803868695598,0.01615057116032402
-0.003756633868695598,0.01621639827583308
-0.003756463868695598,0.01631513894909633
-0.003756293868695598,0.01618348471807768
-0.003756123868695598,0.01582143558277821
-0.003755953868695598,0.015986003371551
-0.003755783868695598,0.01578852202502353
-0.003755613868695598,0.01575560846727138
-0.003755443868695598,0.0163809660646064
-0.003755273868695598,0.01677592875765995
-0.003755103868695598,0.01654553385337847
-0.003754933868695598,0.01651262029562391
-0.003754763868695598,0.01664427452664142
-0.003754593868695598,0.0164467931801166
-0.003754423868695598,0.01694049654643244
-0.003754253868695598,0.01654553385337751
-0.003754083868695598,0.01601891692930556
-0.003753913868695598,0.0157556084672691
-0.003753743868695598,0.01572269490951346
-0.003753573868695598,0.01542647288972269
-0.003753403868695598,0.01519607798544217
-0.003753233868695598,0.01549230000523198
-0.003753063868695598,0.01513025086993251
-0.003752893868695598,0.01496568308115973
-0.003752723868695598,0.01473528817687825
-0.003752553868695598,0.01457072038810444
-0.003752383868695598,0.0144061525993328
-0.003752213868695598,0.01470237461912369
-0.003752043868695598,0.01493276952340517
-0.003751873868695598,0.01499859663891429
-0.003751703868695598,0.01473528817687831
-0.003751533868695598,0.01476820173462903
-0.003751363868695598,0.01384662211750682
-0.003751193868695598,0.01496568308115889
-0.003751023868695598,0.01450489327259593
-0.003750853868695598,0.01361622721322289
-0.003750683868695598,0.01355040009771389
-0.003750513868695598,0.01338583230893835
-0.003750343868695598,0.01266173403834085
-0.003750173868695598,0.01272756115384895
-0.003750003868695598,0.01223385778753149
-0.003749833868695598,0.0120692899987587
-0.003749663868695598,0.01253007980732167
-0.003749493868695598,0.01127936461265005
-0.003749323868695598,0.01147684595917668
-0.003749153868695598,0.01147684595917662
-0.003748983868695598,0.01144393240142212
-0.003748813868695598,0.01167432730570402
-0.003748643868695598,0.01150975951693153
-0.003748473868695598,0.01197054932549407
-0.003748303868695598,0.01170724086345912
-0.003748133868695598,0.01200346288325025
-0.003747963868695598,0.01236551201854972
-0.003747793868695598,0.0127604747116044
-0.003747623868695598,0.01302378317364086
-0.003747453868695598,0.01341874586669794
-0.003747283868695598,0.01407701702178741
-0.003747113868695598,0.01447197971484215
-0.003746943868695598,0.01489985596565062
-0.003746773868695598,0.01447197971484137
-0.003746603868695598,0.01476820173463239
-0.003746433868695598,0.0148011152923885
-0.003746263868695598,0.01522899154319577
-0.003746093868695598,0.01499859663891375
-0.003745923868695598,0.01470237461912303
-0.003745753868695598,0.01457072038810504
-0.003745583868695598,0.01394536279076846
-0.003745413868695598,0.01355040009771317
-0.003745243868695598,0.01338583230894159
-0.003745073868695598,0.01355040009771246
-0.003744903868695598,0.0128263018271134
-0.003744733868695598,0.0127604747116044
-0.003744563868695598,0.0127604747116044
-0.003744393868695598,0.01233259846079636
-0.003744223868695598,0.01266173403834037
-0.003744053868695598,0.01256299336507712
-0.003743883868695598,0.01259590692283078
-0.003743713868695598,0.01213511711426782
-0.003743543868695598,0.0122996849030406
-0.003743373868695598,0.01167432730570486
-0.003743203868695598,0.01190472220998221
-0.003743033868695598,0.01088440191959441
-0.003742863868695598,0.01075274768857552
-0.003742693868695598,0.01025904432225806
-0.003742523868695598,0.00983116807144882
-0.003742353868695598,0.009995735860221367
-0.003742183868695598,0.009929908744718718
-0.003742013868695598,0.01164141374794731
-0.003741843868695598,0.01045652566878499
-0.003741673868695598,0.01022613076450351
-0.003741503868695598,0.01065400701531275
-0.003741333868695598,0.01062109345755825
-0.003741163868695598,0.01134519172815665
-0.003740993868695598,0.01085148836184111
-0.003740823868695598,0.01141101884366804
-0.003740653868695598,0.01167432730570402
-0.003740483868695598,0.01157558663244035
-0.003740313868695598,0.01160850019019484
-0.003740143868695598,0.01170724086346013
-0.003739973868695598,0.0121351171142686
-0.003739803868695598,0.01256299336507838
-0.003739633868695598,0.01328709163567732
-0.003739463868695598,0.01394536279076846
-0.003739293868695598,0.01453780683034941
-0.003739123868695598,0.01489985596565205
-0.003738953868695598,0.01529481865870566
-0.003738783868695598,0.015492300005233
-0.003738613868695598,0.01568978135175999
-0.003738443868695598,0.0157556084672691
-0.003738273868695598,0.01568978135176011
-0.003738103868695598,0.01552521356298588
-0.003737933868695598,0.01516316442768581
-0.003737763868695598,0.01447197971484054
-0.003737593868695598,0.01401118990627757
-0.003737423868695598,0.01308961028914997
-0.003737253868695598,0.01289212894262263
-0.003737083868695598,0.01243133913405739
-0.003736913868695598,0.01203637644100325
-0.003736743868695598,0.01154267307468525
-0.003736573868695598,0.01124645105489478
-0.003736403868695598,0.01101605615061288
-0.003736233868695598,0.0116085001901949
-0.003736063868695598,0.01131227817040605
-0.003735893868695598,0.01190472220998568
-0.003735723868695598,0.01177306797896829
-0.003735553868695598,0.01210220355651446
-0.003735383868695598,0.0127604747116044
-0.003735213868695598,0.01302378317364086
-0.003735043868695598,0.01401118990627865
-0.003734873868695598,0.01430741192606841
-0.003734703868695598,0.01420867125280444
-0.003734533868695598,0.01394536279076918
-0.003734363868695598,0.01434032548382314
-0.003734193868695598,0.01466946106136872
-0.003734023868695598,0.01424158481056055
-0.003733853868695598,0.01453780683034905
-0.003733683868695598,0.01414284413729442
-0.003733513868695598,0.01338583230894111
-0.003733343868695598,0.0134516594244501
-0.003733173868695598,0.01256299336507706
-0.003733003868695598,0.01206928999875787
-0.003732833868695598,0.01183889509447405
-0.003732663868695598,0.01108188326612014
-0.003732493868695598,0.01006156297573377
-0.003732323868695598,0.01174015442121313
-0.003732153868695598,0.01127936461264933
-0.003731983868695598,0.01131227817040521
-0.003731813868695598,0.0116743273057033
-0.003731643868695598,0.01147684595917656
-0.003731473868695598,0.01141101884366816
-0.003731303868695598,0.01174015442121313
-0.003731133868695598,0.0116085001901949
-0.003730963868695598,0.0116085001901949
-0.003730793868695598,0.01101605615061395
-0.003730623868695598,0.01131227817040443
-0.003730453868695598,0.01160850019019484
-0.003730283868695598,0.01157558663244035
-0.003730113868695598,0.01180598153672225
-0.003729943868695598,0.01137810528591378
-0.003729773868695598,0.0120692899987599
-0.003729603868695598,0.01239842557630475
-0.003729433868695598,0.01266173403834091
-0.003729263868695598,0.0127604747116044
-0.003729093868695598,0.01302378317364086
-0.003728923868695598,0.01318835096241334
-0.003728753868695598,0.01312252384690609
-0.003728583868695598,0.01355040009771365
-0.003728413868695598,0.01348457298220406
-0.003728243868695598,0.01315543740465909
-0.003728073868695598,0.01282630182711352
-0.003727903868695598,0.01256299336507754
-0.003727733868695598,0.01249716624956771
-0.003727563868695598,0.01243133913405781
-0.003727393868695598,0.011871808652231
-0.003727223868695598,0.01167432730570402
-0.003727053868695598,0.01088440191959465
-0.003726883868695598,0.01022613076450351
-0.003726713868695598,0.009732427398182395
-0.003726543868695598,0.008975415569829318
-0.003726373868695598,0.008415885088002386
-0.003726203868695598,0.008152576625966409
-0.003726033868695598,0.007428478355366152
-0.003725863868695598,0.006737293642520453
-0.003725693868695598,0.006539812295991913
-0.003725523868695598,0.006210676718445922
-0.003725353868695598,0.005322010659075275
-0.003725183868695598,0.005749886909882902
-0.003725013868695598,0.00528909710131994
-0.003724843868695598,0.005519492005601839
-0.003724673868695598,0.006210676718448735
-0.003724503868695598,0.006539812295994428
-0.003724333868695598,0.007263910566593306
-0.003724163868695598,0.007230997008840965
-0.003723993868695598,0.008415885088002865
-0.003723823868695598,0.00881084778105755
-0.003723653868695598,0.009732427398186467
-0.003723483868695598,0.01009447653348803
-0.003723313868695598,0.01085148836184231
-0.003723143868695598,0.01206928999875823
-0.003722973868695598,0.01180598153672225
-0.003722803868695598,0.011378105285913
-0.003722633868695598,0.01170724086345941
-0.003722463868695598,0.01193763576774036
-0.003722293868695598,0.0119047222099858
-0.003722123868695598,0.01183889509447638
-0.003721953868695598,0.0116085001901949
-0.003721783868695598,0.01187180865223136
-0.003721613868695598,0.01170724086345762
-0.003721443868695598,0.0114439324014214
-0.003721273868695598,0.01124645105489418
-0.003721103868695598,0.01091731547734897
-0.003720933868695598,0.01078566124633098
-0.003720763868695598,0.01104896970836743
-0.003720593868695598,0.01078566124633146
-0.003720423868695598,0.0109502290351046
-0.003720253868695598,0.01118062393938542
-0.003720083868695598,0.01104896970836749
-0.003719913868695598,0.01108188326612199
-0.003719743868695598,0.0116085001901949
-0.003719573868695598,0.0116743273057039
-0.003719403868695598,0.01200346288324947
-0.003719233868695598,0.01197054932549455
-0.003719063868695598,0.01170724086345852
-0.003718893868695598,0.01167432730570402
