Analysis/New Tests_CMB/wrd01_d2s01_new/cmb07_ch25.csv

#Digilent WaveForms Oscilloscope Acquisition
#Device Name: ADP3450
#Serial Number: SN:210018B9D9B0
#Date Time: 2024-08-15 12:29:16.313.738.850
#Sample rate: 5.88235e+06Hz
#Samples: 32768
#Trigger: Source: Channel 3 Type: Edge Condition: Rising Level: 40 mV Hyst.: Auto HoldOff: 0 s
#Channel 3: Range: 100 mV/div Offset: 0 V Attenuation: 1 X Coupling: DC Bandwidth: 0 Hz Sample Mode: Average

Time (s),Channel 3 (V)
-0.003168928234507751,0.01884948289619747
-0.003168758234507751,0.01822412529886059
-0.003168588234507751,0.0180595575100881
-0.003168418234507751,0.01815829818335177
-0.003168248234507751,0.01723671856622513
-0.003168078234507751,0.01776333549029708
-0.003167908234507751,0.01756585414376974
-0.003167738234507751,0.01753294058601482
-0.003167568234507751,0.01733545923948784
-0.003167398234507751,0.01726963212397873
-0.003167228234507751,0.01720380500846967
-0.003167058234507751,0.01723671856622417
-0.003166888234507751,0.01697341010418771
-0.003166718234507751,0.01664427452664154
-0.003166548234507751,0.01631513894909657
-0.003166378234507751,0.01595308981379644
-0.003166208234507751,0.01562395423625027
-0.003166038234507751,0.0152948186587053
-0.003165868234507751,0.01526190510095074
-0.003165698234507751,0.01473528817687837
-0.003165528234507751,0.01503151019666884
-0.003165358234507751,0.01526190510095074
-0.003165188234507752,0.0157556084672682
-0.003165018234507751,0.01578852202502366
-0.003164848234507751,0.01618348471807834
-0.003164678234507752,0.01529481865870692
-0.003164508234507751,0.01568978135175999
-0.003164338234507751,0.01545938644747809
-0.003164168234507752,0.01559104067849608
-0.003163998234507751,0.01562395423625087
-0.003163828234507751,0.01513025086993251
-0.003163658234507752,0.01585434914053145
-0.003163488234507751,0.01493276952340517
-0.003163318234507751,0.01486694240789606
-0.003163148234507752,0.01489985596565055
-0.003162978234507751,0.01430741192606859
-0.003162808234507751,0.01401118990627757
-0.003162638234507751,0.01404410346403207
-0.003162468234507751,0.0141428441372958
-0.003162298234507751,0.01381370855975023
-0.003162128234507751,0.0130566967313968
-0.003161958234507751,0.01282630182711352
-0.003161788234507751,0.01259590692283162
-0.003161618234507751,0.01213511711426866
-0.003161448234507751,0.01167432730570402
-0.003161278234507751,0.01157558663244035
-0.003161108234507751,0.01144393240142236
-0.003160938234507751,0.01167432730570402
-0.003160768234507751,0.01200346288324959
-0.003160598234507751,0.01193763576774048
-0.003160428234507751,0.0118388950944768
-0.003160258234507751,0.0120692899987587
-0.003160088234507751,0.01147684595917668
-0.003159918234507751,0.01088440191959465
-0.003159748234507751,0.01141101884366756
-0.003159578234507751,0.01091731547734921
-0.003159408234507751,0.01088440191959459
-0.003159238234507751,0.01085148836184009
-0.003159068234507751,0.01081857480408553
-0.003158898234507751,0.01078566124633169
-0.003158728234507751,0.01118062393938566
-0.003158558234507751,0.01101605615061288
-0.003158388234507751,0.01157558663244119
-0.003158218234507751,0.01203637644100415
-0.003158048234507751,0.01269464759609529
-0.003157878234507751,0.01279338826935986
-0.003157708234507751,0.01328709163567732
-0.003157538234507751,0.0134516594244501
-0.003157368234507751,0.01397827634852325
-0.003157198234507751,0.01410993057954124
-0.003157028234507751,0.0146036339458596
-0.003156858234507751,0.0146365475036132
-0.003156688234507751,0.01410993057954124
-0.003156518234507751,0.01427449836831403
-0.003156348234507751,0.01404410346403219
-0.003156178234507751,0.01407701702178669
-0.003156008234507751,0.01341874586669555
-0.003155838234507751,0.01295795605813025
-0.003155668234507751,0.01213511711426782
-0.003155498234507751,0.01174015442121313
-0.003155328234507751,0.01078566124633032
-0.003155158234507751,0.01042361211103085
-0.003154988234507751,0.009995735860221606
-0.003154818234507752,0.009304551147377165
-0.003154648234507751,0.008942502012075779
-0.003154478234507751,0.008415885088002865
-0.003154308234507752,0.008745020665547838
-0.003154138234507751,0.00779052749066628
-0.003153968234507751,0.008745020665548437
-0.003153798234507752,0.008284230856985474
-0.003153628234507751,0.007724700375157166
-0.003153458234507751,0.00756013258638438
-0.003153288234507752,0.007395564797611894
-0.003153118234507751,0.008185490183720966
-0.003152948234507751,0.008152576625966409
-0.003152778234507752,0.008679193550038364
-0.003152608234507751,0.007922181721684508
-0.003152438234507751,0.009008329127584893
-0.003152268234507751,0.007823441048422992
-0.003152098234507751,0.008876674896566664
-0.003151928234507751,0.008317144414739193
-0.003151758234507751,0.008086749510457713
-0.003151588234507751,0.007856354606175394
-0.003151418234507751,0.007757613932911723
-0.003151248234507751,0.007461391913121247
-0.003151078234507751,0.007428478355366152
-0.003150908234507751,0.006605639411502225
-0.003150738234507751,0.007033515662310689
-0.003150568234507751,0.006572725853747667
-0.003150398234507751,0.006638552969256781
-0.003150228234507751,0.006704380084765896
-0.003150058234507751,0.007066429220066024
-0.003149888234507751,0.007395564797611595
-0.003149718234507751,0.008086749510457293
-0.003149548234507751,0.008942502012075779
-0.003149378234507751,0.009271637589621349
-0.003149208234507751,0.01045652566878541
-0.003149038234507751,0.008679193550039321
-0.003148868234507751,0.009107069800848565
-0.003148698234507751,0.008646279992284765
-0.003148528234507751,0.009172896916358218
-0.003148358234507751,0.009469118936148692
-0.003148188234507751,0.00871210710779388
-0.003148018234507751,0.00851462576126546
-0.003147848234507751,0.007922181721684508
-0.003147678234507751,0.007033515662311467
-0.003147508234507751,0.007066429220065126
-0.003147338234507751,0.006572725853747667
-0.003147168234507751,0.006408158064974882
-0.003146998234507751,0.005782800467638955
-0.003146828234507751,0.006144849602938425
-0.003146658234507751,0.006144849602938425
-0.003146488234507751,0.006342330949466306
-0.003146318234507751,0.006638552969256781
-0.003146148234507751,0.00677020720027501
-0.003145978234507751,0.007263910566593306
-0.003145808234507751,0.007230997008838809
-0.003145638234507751,0.006803120758029567
-0.003145468234507751,0.006539812295992392
-0.003145298234507751,0.006144849602938425
-0.003145128234507751,0.005848627583147411
-0.003144958234507751,0.005980281814165878
-0.003144788234507751,0.006111936045183867
-0.003144618234507751,0.005684059794374625
-0.003144448234507751,0.005585319121111732
-0.003144278234507751,0.006013195371920196
-0.003144108234507751,0.006276503833956653
-0.003143938234507752,0.006836034315783107
-0.003143768234507751,0.007099342777820581
-0.003143598234507751,0.007494305470875266
-0.003143428234507752,0.007856354606174735
-0.003143258234507751,0.008481712203511979
-0.003143088234507751,0.008679193550039321
-0.003142918234507752,0.00917289691635678
-0.003142748234507751,0.009139983358603122
-0.003142578234507751,0.00904124268533945
-0.003142408234507752,0.008712107107794478
-0.003142238234507751,0.008448798645757422
-0.003142068234507751,0.007494305470875266
-0.003141898234507751,0.006638552969258338
-0.003141728234507751,0.005881541140901968
-0.003141558234507751,0.005322010659074497
-0.003141388234507751,0.005025788639284021
-0.003141218234507751,0.004762480177247026
-0.003141048234507751,0.004762480177247026
-0.003140878234507751,0.004630825946229037
-0.003140708234507751,0.004992875081528926
-0.003140538234507751,0.005025788639283483
-0.003140368234507751,0.005387837774582953
-0.003140198234507751,0.005848627583147411
-0.003140028234507751,0.006342330949465767
-0.003139858234507751,0.006210676718447538
-0.003139688234507751,0.00756013258638438
-0.003139518234507751,0.007428478355366152
-0.003139348234507751,0.007691786817402609
-0.003139178234507751,0.008152576625966409
-0.003139008234507751,0.007988008837193623
-0.003138838234507751,0.008415885088002865
-0.003138668234507751,0.007922181721684508
-0.003138498234507751,0.008086749510457293
-0.003138328234507751,0.007658873259648051
-0.003138158234507751,0.00782344104841958
-0.003137988234507751,0.007132256335575138
-0.003137818234507751,0.007428478355366152
-0.003137648234507751,0.007362651239857277
-0.003137478234507751,0.007494305470875266
-0.003137308234507751,0.007296824124347924
-0.003137138234507751,0.007296824124347744
-0.003136968234507751,0.007198083451084253
-0.003136798234507751,0.007296824124347924
-0.003136628234507751,0.007560132586383841
-0.003136458234507751,0.007263910566593366
-0.003136288234507751,0.007625959701893495
-0.003136118234507751,0.007132256335575617
-0.003135948234507751,0.007395564797611595
-0.003135778234507751,0.007263910566593366
-0.003135608234507751,0.00677020720027489
-0.003135438234507751,0.006704380084765896
-0.003135268234507751,0.007066429220066024
-0.003135098234507751,0.007000602104555952
-0.003134928234507751,0.006473985180483996
-0.003134758234507751,0.006408158064974882
-0.003134588234507751,0.006243590276201498
-0.003134418234507751,0.005914454698656525
-0.003134248234507751,0.005914454698656525
-0.003134078234507751,0.005519492005601241
-0.003133908234507751,0.005190356428056269
-0.003133738234507751,0.005025788639283483
-0.003133568234507752,0.005124529312546974
-0.003133398234507751,0.004597912388474241
-0.003133228234507751,0.004466258157456012
-0.003133058234507752,0.003939641233384056
-0.003132888234507751,0.003742159886855756
-0.003132718234507751,0.004202949695419555
-0.003132548234507752,0.004104209022156064
-0.003132378234507751,0.004499171715210569
-0.003132208234507751,0.004729566619492469
-0.003132038234507752,0.004992875081528447
-0.003131868234507751,0.005716973352129182
-0.003131698234507751,0.006375244507220324
-0.003131528234507752,0.0066714665270108
-0.003131358234507751,0.00811966306821185
-0.003131188234507751,0.007955095279439066
-0.003131018234507751,0.008810847781055994
-0.003130848234507751,0.009699513840430593
-0.003130678234507751,0.009765340955939707
-0.003130508234507751,0.01022613076450267
-0.003130338234507751,0.01048943922653996
-0.003130168234507751,0.00983116807144882
-0.003129998234507751,0.009436205378394853
-0.003129828234507751,0.009271637589621349
-0.003129658234507751,0.00904124268533945
-0.003129488234507751,0.007691786817405064
-0.003129318234507751,0.008152576625966409
-0.003129148234507751,0.007165169893329695
-0.003128978234507751,0.006572725853747667
-0.003128808234507751,0.006177763160692982
-0.003128638234507751,0.005519492005601839
-0.003128468234507751,0.004729566619492469
-0.003128298234507751,0.004861220850510698
-0.003128128234507751,0.004861220850510698
-0.003127958234507751,0.004894134408265255
-0.003127788234507751,0.00482830729275626
-0.003127618234507751,0.004894134408265255
-0.003127448234507751,0.004992875081528926
-0.003127278234507751,0.00528909710132
-0.003127108234507751,0.005322010659074497
-0.003126938234507751,0.005387837774583611
-0.003126768234507751,0.005552405563357055
-0.003126598234507751,0.005914454698656525
-0.003126428234507751,0.005782800467638296
-0.003126258234507751,0.005552405563356876
-0.003126088234507751,0.005815714025392853
-0.003125918234507751,0.006177763160692982
-0.003125748234507751,0.006243590276201438
-0.003125578234507751,0.005881541140901968
-0.003125408234507751,0.00607902248742931
-0.003125238234507751,0.005815714025394231
-0.003125068234507751,0.006572725853747667
-0.003124898234507751,0.006375244507220324
-0.003124728234507751,0.006243590276202156
-0.003124558234507751,0.006276503833956653
-0.003124388234507751,0.006276503833956653
-0.003124218234507751,0.006572725853747547
-0.003124048234507751,0.006506898738238553
-0.003123878234507751,0.006572725853747667
-0.003123708234507751,0.006375244507219606
-0.003123538234507751,0.005980281814165639
-0.003123368234507751,0.00528909710131994
-0.003123198234507752,0.005058702197038459
-0.003123028234507751,0.004071295464401327
-0.003122858234507751,0.004466258157456012
-0.003122688234507752,0.003149715847276123
-0.003122518234507751,0.003083888731764614
-0.003122348234507751,0.002656012480955371
-0.003122178234507752,0.001734432863829449
-0.003122008234507751,0.001866087094846001
-0.003121838234507751,0.001602778632809544
-0.003121668234507752,0.001800259979336527
-0.003121498234507751,0.001866087094846001
-0.003121328234507751,0.001668605748318658
-0.003121158234507752,0.00199774132586363
-0.003120988234507751,0.002688926038709928
-0.003120818234507751,0.003116802289519171
-0.003120648234507751,0.003775073444609115
-0.003120478234507751,0.004235863253174112
-0.003120308234507751,0.005025788639283483
-0.003120138234507751,0.005289097101319461
-0.003119968234507751,0.006111936045183867
-0.003119798234507751,0.006671466527011338
-0.003119628234507751,0.007362651239855781
-0.003119458234507751,0.007329737682102481
-0.003119288234507751,0.007757613932911723
-0.003119118234507751,0.007790527490666221
-0.003118948234507751,0.007856354606175394
-0.003118778234507751,0.007428478355366152
-0.003118608234507751,0.007362651239857037
-0.003118438234507751,0.007362651239857037
-0.003118268234507751,0.006836034315784124
-0.003118098234507751,0.00653981229599311
-0.003117928234507751,0.00630941739171121
-0.003117758234507751,0.006342330949465767
-0.003117588234507751,0.006177763160692982
-0.003117418234507751,0.006276503833956653
-0.003117248234507751,0.006473985180483996
-0.003117078234507751,0.006671466527011338
-0.003116908234507751,0.00663855296925726
-0.003116738234507751,0.006901861431293239
-0.003116568234507751,0.007099342777820581
-0.003116398234507751,0.007428478355366152
-0.003116228234507751,0.007428478355366152
-0.003116058234507751,0.007823441048420837
-0.003115888234507751,0.008613366434530687
-0.003115718234507751,0.008876674896566664
-0.003115548234507751,0.008876674896566664
-0.003115378234507751,0.009205810474111757
-0.003115208234507751,0.008942502012075779
-0.003115038234507751,0.009139983358603122
-0.003114868234507751,0.009205810474111816
-0.003114698234507751,0.008975415569830336
-0.003114528234507751,0.00904124268533945
-0.003114358234507751,0.008317144414739732
-0.003114188234507751,0.008613366434530208
-0.003114018234507751,0.007823441048420837
-0.003113848234507751,0.007658873259647214
-0.003113678234507751,0.007198083451084253
-0.003113508234507751,0.006408158064974882
-0.003113338234507751,0.006177763160691904
-0.003113168234507751,0.005585319121110954
-0.003112998234507751,0.00505870219703804
-0.003112828234507751,0.004466258157455414
-0.003112658234507751,0.004137122579910441
-0.003112488234507751,0.002458531134428029
-0.003112318234507752,0.003314283636044957
-0.003112148234507751,0.002886407385237271
-0.003111978234507751,0.003610505655837527
-0.003111808234507752,0.003478851424819538
-0.003111638234507751,0.004400431041946898
-0.003111468234507751,0.005354924216829054
-0.003111298234507752,0.005980281814164502
-0.003111128234507751,0.006671466527011338
-0.003110958234507751,0.007988008837193623
-0.003110788234507752,0.00861336643452907
-0.003110618234507751,0.009370378262885021
-0.003110448234507751,0.01058817989980363
-0.003110278234507751,0.0109502290351031
-0.003110108234507751,0.01131227817040389
-0.003109938234507751,0.01032487143776718
-0.003109768234507751,0.0124642526918095
-0.003109598234507751,0.01147684595917668
-0.003109428234507751,0.01154267307468579
-0.003109258234507751,0.01078566124633235
-0.003109088234507751,0.01068692057306731
-0.003108918234507751,0.01039069855327629
-0.003108748234507751,0.0102590443222583
-0.003108578234507751,0.009403291820639578
-0.003108408234507751,0.009205810474112236
-0.003108238234507751,0.008810847781058269
-0.003108068234507751,0.008547539319021094
-0.003107898234507751,0.008152576625966409
-0.003107728234507751,0.007823441048420837
-0.003107558234507751,0.007494305470875266
-0.003107388234507751,0.007527219028629823
-0.003107218234507751,0.007066429220066024
-0.003107048234507751,0.006737293642520453
-0.003106878234507751,0.00700060210455691
-0.003106708234507751,0.006013195371920196
-0.003106538234507751,0.005157442870302609
-0.003106368234507751,0.005651146236620068
-0.003106198234507751,0.004630825946228797
-0.003106028234507751,0.003742159886857732
-0.003105858234507751,0.00482830729275614
-0.003105688234507751,0.004729566619492469
-0.003105518234507751,0.005223269985810047
-0.003105348234507751,0.004795393735001583
-0.003105178234507751,0.005025788639283483
-0.003105008234507751,0.005354924216828516
-0.003104838234507751,0.00505870219703804
-0.003104668234507751,0.005651146236620068
-0.003104498234507751,0.005947368256410783
-0.003104328234507751,0.005782800467638296
-0.003104158234507751,0.005387837774583611
-0.003103988234507751,0.005716973352129242
-0.003103818234507751,0.00574988690988374
-0.003103648234507751,0.005519492005601839
-0.003103478234507751,0.005256183543564904
-0.003103308234507751,0.004992875081528926
-0.003103138234507751,0.004630825946228797
-0.003102968234507751,0.00436751748419264
-0.003102798234507751,0.004532085272965126
-0.003102628234507751,0.004696653061737912
-0.003102458234507751,0.004532085272966263
-0.003102288234507751,0.005157442870301712
-0.003102118234507751,0.005091615754792597
-0.003101948234507752,0.005124529312547094
-0.003101778234507751,0.006111936045183867
-0.003101608234507751,0.006803120758029567
-0.003101438234507752,0.007165169893329036
-0.003101268234507751,0.00802092239494818
-0.003101098234507751,0.008317144414739193
-0.003100928234507752,0.008909588454320145
-0.003100758234507751,0.009403291820639578
-0.003100588234507751,0.01002864941797616
-0.003100418234507752,0.01009447653348516
-0.003100248234507751,0.01045652566878541
-0.003100078234507751,0.01025904432225806
-0.003099908234507752,0.0109502290351025
-0.003099738234507751,0.01091731547734921
-0.003099568234507751,0.01065400701531275
-0.003099398234507751,0.01045652566878576
-0.003099228234507751,0.01009447653348528
-0.003099058234507751,0.009304551147375908
-0.003098888234507751,0.008745020665549455
-0.003098718234507751,0.008613366434530208
-0.003098548234507751,0.007922181721684508
-0.003098378234507751,0.007757613932912022
-0.003098208234507751,0.007132256335575138
-0.003098038234507751,0.006605639411502225
-0.003097868234507751,0.006605639411502225
-0.003097698234507751,0.006144849602938425
-0.003097528234507751,0.006046108929674754
-0.003097358234507751,0.005387837774583611
-0.003097188234507751,0.005223269985810825
-0.003097018234507751,0.005552405563356397
-0.003096848234507751,0.005716973352129182
-0.003096678234507751,0.005815714025392853
-0.003096508234507751,0.00630941739171121
-0.003096338234507751,0.00607902248742931
-0.003096168234507751,0.005815714025392853
-0.003095998234507751,0.00630941739171121
-0.003095828234507751,0.005881541140901968
-0.003095658234507751,0.005815714025394231
-0.003095488234507751,0.006572725853747667
-0.003095318234507751,0.006046108929674754
-0.003095148234507751,0.006441071622730337
-0.003094978234507751,0.006934774989047795
-0.003094808234507751,0.007329737682102481
-0.003094638234507751,0.007428478355366032
-0.003094468234507751,0.007362651239857037
-0.003094298234507751,0.007889268163929951
-0.003094128234507751,0.00775761393291268
-0.003093958234507751,0.008284230856984636
-0.003093788234507751,0.008843761338812107
-0.003093618234507751,0.008942502012075479
-0.003093448234507751,0.008777934223302994
-0.003093278234507751,0.008942502012075779
-0.003093108234507751,0.008448798645756643
-0.003092938234507751,0.00802092239494818
-0.003092768234507751,0.007625959701893495
-0.003092598234507751,0.007033515662311467
-0.003092428234507751,0.007033515662311467
-0.003092258234507751,0.006342330949465767
-0.003092088234507751,0.006605639411501806
-0.003091918234507751,0.006375244507220324
-0.003091748234507751,0.00630941739171121
-0.003091578234507751,0.005947368256410723
-0.003091408234507751,0.00574988690988374
-0.003091238234507751,0.005256183543565383
-0.003091068234507752,0.004696653061738929
