Analysis/New Tests_CMB/wrd01_d2s01_new/cmb07_ch40.csv

#Digilent WaveForms Oscilloscope Acquisition
#Device Name: ADP3450
#Serial Number: SN:210018B9D9B0
#Date Time: 2024-08-15 12:37:42.273.547.070
#Sample rate: 5.88235e+06Hz
#Samples: 32768
#Trigger: Source: Channel 3 Type: Edge Condition: Rising Level: 40 mV Hyst.: Auto HoldOff: 0 s
#Channel 3: Range: 100 mV/div Offset: 0 V Attenuation: 1 X Coupling: DC Bandwidth: 0 Hz Sample Mode: Average

Time (s),Channel 3 (V)
-0.003168942723155899,0.02635377406423649
-0.003168772723155899,0.02648542829525562
-0.003168602723155899,0.02697913166157307
-0.003168432723155899,0.02645251473750016
-0.003168262723155899,0.02655125541076251
-0.003168092723155899,0.02582715714016358
-0.003167922723155899,0.02579424358240902
-0.003167752723155899,0.02503723175405283
-0.003167582723155899,0.02428021992569939
-0.003167412723155899,0.02378651655938104
-0.003167242723155899,0.02316115896204289
-0.003167072723155899,0.02230540646042596
-0.003166902723155899,0.02204209799838951
-0.003166732723155899,0.02121925905452414
-0.003166562723155899,0.02042933366841621
-0.003166392723155899,0.01973814895557051
-0.003166222723155899,0.01973814895557045
-0.003166052723155899,0.01970523539781595
-0.003165882723155899,0.01931027270476127
-0.003165712723155899,0.01973814895557099
-0.003165542723155899,0.02000145741760697
-0.003165372723155899,0.02010019809087064
-0.003165202723155899,0.01980397607108016
-0.003165032723155899,0.02023185232188887
-0.003164862723155899,0.01980397607107963
-0.003164692723155899,0.01954066760904365
-0.003164522723155899,0.01891531001170658
-0.003164352723155899,0.01888239645395202
-0.003164182723155899,0.01786207616356261
-0.003164012723155899,0.01707215077745139
-0.003163842723155899,0.01657844741113303
-0.003163672723155899,0.01578852202502509
-0.003163502723155899,0.0155252135629872
-0.003163332723155899,0.01539355933196897
-0.003163162723155899,0.01443906615708855
-0.003162992723155899,0.01434032548382314
-0.003162822723155899,0.01417575769505036
-0.003162652723155899,0.0136820543287329
-0.003162482723155899,0.01361622721322289
-0.003162312723155899,0.01338583230894099
-0.003162142723155899,0.01338583230894099
-0.003161972723155899,0.01355040009771377
-0.003161802723155899,0.01308961028914997
-0.003161632723155899,0.01358331365546743
-0.003161462723155899,0.01341874586669555
-0.003161292723155899,0.013682054328732
-0.003161122723155899,0.01345165942445052
-0.003160952723155899,0.01387953567525935
-0.003160782723155899,0.01420867125280492
-0.003160612723155899,0.01522899154319619
-0.003160442723155899,0.01516316442768707
-0.003160272723155899,0.0155252135629872
-0.003160102723155899,0.01499859663891429
-0.003159932723155899,0.01486694240789606
-0.003159762723155899,0.01542647288972353
-0.003159592723155899,0.01503151019666884
-0.003159422723155899,0.01552521356298762
-0.003159252723155899,0.0157556084672691
-0.003159082723155899,0.01549230000523264
-0.003158912723155899,0.0155910406784962
-0.003158742723155899,0.0155252135629872
-0.003158572723155899,0.0155252135629872
-0.003158402723155899,0.01585434914053247
-0.003158232723155899,0.01568978135175999
-0.003158062723155899,0.01565686779400543
-0.003157892723155899,0.01568978135176028
-0.003157722723155899,0.01585434914053277
-0.003157552723155899,0.0152948186587053
-0.003157382723155899,0.01519607798544151
-0.003157212723155899,0.01513025086993251
-0.003157042723155899,0.01480111529238694
-0.003156872723155899,0.01473528817687974
-0.003156702723155899,0.01578852202502366
-0.003156532723155899,0.01259590692283162
-0.003156362723155899,0.01364914077097799
-0.003156192723155899,0.01394536279076846
-0.003156022723155899,0.01358331365546833
-0.003155852723155899,0.01361622721322337
-0.003155682723155899,0.01387953567525935
-0.003155512723155899,0.01394536279076846
-0.003155342723155899,0.01381370855975059
-0.003155172723155899,0.01401118990627757
-0.003155002723155899,0.01374788144424112
-0.003154832723155899,0.0139453627907681
-0.003154662723155899,0.01384662211750479
-0.003154492723155899,0.01378079500199567
-0.003154322723155899,0.01332000519343271
-0.003154152723155899,0.01279338826935896
-0.003153982723155899,0.01233259846079516
-0.003153812723155899,0.01203637644100469
-0.003153642723155899,0.01154267307468579
-0.003153472723155899,0.01197054932549503
-0.003153302723155899,0.01098314259286011
-0.003153132723155899,0.01127936461264933
-0.003152962723155899,0.01071983413082186
-0.003152792723155899,0.01052235278429488
-0.003152622723155899,0.01006156297573072
-0.003152452723155899,0.01019321720674895
-0.003152282723155899,0.009798254513694982
-0.003152112723155899,0.009238724031866792
-0.003151942723155899,0.008679193550039321
-0.003151772723155899,0.008646279992284825
-0.003151602723155899,0.008284230856984636
-0.003151432723155899,0.007625959701893495
-0.003151262723155899,0.007494305470875506
-0.003151092723155899,0.007296824124347924
-0.003150922723155899,0.007198083451084253
-0.003150752723155899,0.006967688546802771
-0.003150582723155899,0.00653981229599311
-0.003150412723155899,0.006111936045183867
-0.003150242723155899,0.006144849602938425
-0.003150072723155899,0.006605639411502225
-0.003149902723155899,0.006572725853747667
-0.003149732723155899,0.006967688546802352
-0.003149562723155899,0.007198083451084253
-0.003149392723155899,0.007922181721684508
-0.003149222723155899,0.008580452876775651
-0.003149052723155899,0.009238724031866792
-0.003148882723155899,0.01012739009123984
-0.003148712723155899,0.01127936461264933
-0.003148542723155899,0.01206928999876068
-0.003148372723155899,0.01315543740465909
-0.003148202723155899,0.01397827634852302
-0.003148032723155899,0.0146036339458608
-0.003147862723155899,0.01526190510095074
-0.003147692723155899,0.01562395423625087
-0.003147522723155899,0.01526190510095236
-0.003147352723155899,0.01615057116032378
-0.003147182723155899,0.01559104067849632
-0.003147012723155899,0.01562395423625033
-0.003146842723155899,0.01532773221645986
-0.003146672723155899,0.01509733731217796
-0.003146502723155899,0.01493276952340463
-0.003146332723155899,0.01463654750361416
-0.003146162723155899,0.0146036339458596
-0.003145992723155899,0.01417575769505084
-0.003145822723155899,0.01443906615708682
-0.003145652723155899,0.0141428441372958
-0.003145482723155899,0.01410993057953981
-0.003145312723155899,0.01332000519343187
-0.003145142723155899,0.01332000519343187
-0.003144972723155899,0.01289212894262419
-0.003144802723155899,0.01374788144424112
-0.003144632723155899,0.0129908696158863
-0.003144462723155899,0.01272756115384871
-0.003144292723155899,0.01210220355651326
-0.003144122723155899,0.0120692899987587
-0.003143952723155899,0.01127936461265077
-0.003143782723155899,0.01101605615061288
-0.003143612723155899,0.01104896970836743
-0.003143442723155899,0.01081857480408595
-0.003143272723155899,0.01081857480408553
-0.003143102723155899,0.01098314259285832
-0.003142932723155899,0.01019321720675039
-0.003142762723155899,0.01042361211103085
-0.003142592723155899,0.009798254513694264
-0.003142422723155899,0.00950203249390379
-0.003142252723155899,0.009469118936148692
-0.003142082723155899,0.00950203249390325
-0.003141912723155899,0.009831168071448222
-0.003141742723155899,0.01006156297573072
-0.003141572723155899,0.01016030364899439
-0.003141402723155899,0.009864081629203917
-0.003141232723155899,0.00983116807144882
-0.003141062723155899,0.009633686724921478
-0.003140892723155899,0.009534946051657988
-0.003140722723155899,0.009469118936148692
-0.003140552723155899,0.009469118936148692
-0.003140382723155899,0.009666600282675675
-0.003140212723155899,0.009074156243094007
-0.003140042723155899,0.00881084778105755
-0.003139872723155899,0.008481712203511979
-0.003139702723155899,0.008317144414739193
-0.003139532723155899,0.008613366434530208
-0.003139362723155899,0.008251317299230079
-0.003139192723155899,0.008514625761266537
-0.003139022723155899,0.008481712203511979
-0.003138852723155899,0.00871210710779388
-0.003138682723155899,0.008745020665548437
-0.003138512723155899,0.009403291820639578
-0.003138342723155899,0.009666600282676035
-0.003138172723155899,0.01016030364899373
-0.003138002723155899,0.009798254513694264
-0.003137832723155899,0.01144393240142212
-0.003137662723155899,0.01210220355651434
-0.003137492723155899,0.01269464759609529
-0.003137322723155899,0.01315543740465909
-0.003137152723155899,0.01368205432873152
-0.003136982723155899,0.01341874586669555
-0.003136812723155899,0.013682054328732
-0.003136642723155899,0.01358331365546827
-0.003136472723155899,0.01355040009771377
-0.003136302723155899,0.01335291875118643
-0.003136132723155899,0.01285921538486867
-0.003135962723155899,0.01318835096241365
-0.003135792723155899,0.0122996849030406
-0.003135622723155899,0.01220094422977633
-0.003135452723155899,0.01187180865223136
-0.003135282723155899,0.01197054932549503
-0.003135112723155899,0.01124645105489442
-0.003134942723155899,0.01104896970836743
-0.003134772723155899,0.01127936461264933
-0.003134602723155899,0.01071983413082067
-0.003134432723155899,0.01006156297573072
-0.003134262723155899,0.009633686724921478
-0.003134092723155899,0.008876674896566844
-0.003133922723155899,0.008975415569830336
-0.003133752723155899,0.00871210710779388
-0.003133582723155899,0.007790527490667957
-0.003133412723155899,0.007856354606175394
-0.003133242723155899,0.007593046144138938
-0.003133072723155899,0.007988008837192905
-0.003132902723155899,0.007691786817402609
-0.003132732723155899,0.007494305470875266
-0.003132562723155899,0.007955095279438228
-0.003132392723155899,0.007395564797611595
-0.003132222723155899,0.007099342777820581
-0.003132052723155899,0.007428478355365553
-0.003131882723155899,0.007230997008838809
-0.003131712723155899,0.007066429220066024
-0.003131542723155899,0.006836034315784543
-0.003131372723155899,0.006342330949465767
-0.003131202723155899,0.005782800467638296
-0.003131032723155899,0.006046108929674275
-0.003130862723155899,0.005914454698656525
-0.003130692723155899,0.005881541140901968
-0.003130522723155899,0.005947368256410963
-0.003130352723155899,0.00574988690988374
-0.003130182723155899,0.006046108929674754
-0.003130012723155899,0.005881541140902267
-0.003129842723155899,0.006243590276202096
-0.003129672723155899,0.006375244507220324
-0.003129502723155899,0.007099342777819264
-0.003129332723155899,0.007395564797611595
-0.003129162723155899,0.007691786817402609
-0.003128992723155899,0.008086749510457293
-0.003128822723155899,0.008777934223302994
-0.003128652723155899,0.00904124268533945
-0.003128482723155899,0.01025904432225806
-0.003128312723155899,0.009929908744712493
-0.003128142723155899,0.009864081629203377
-0.003127972723155899,0.01016030364899439
-0.003127802723155899,0.01012739009124061
-0.003127632723155899,0.01055526634204908
-0.003127462723155899,0.01071983413082186
-0.003127292723155899,0.01065400701531353
-0.003127122723155899,0.01108188326612199
-0.003126952723155899,0.01131227817040389
-0.003126782723155899,0.01180598153672201
-0.003126612723155899,0.01167432730570402
-0.003126442723155899,0.01200346288324959
-0.003126272723155899,0.01213511711426668
-0.003126102723155899,0.01150975951693123
-0.003125932723155899,0.011378105285913
-0.003125762723155899,0.01104896970836653
-0.003125592723155899,0.01055526634204908
-0.003125422723155899,0.009765340955939707
-0.003125252723155899,0.009732427398184132
-0.003125082723155899,0.009172896916357679
-0.003124912723155899,0.00871210710779388
-0.003124742723155899,0.008152576625966348
-0.003124572723155899,0.00811966306821185
-0.003124402723155899,0.007856354606175394
-0.003124232723155899,0.00788926816393049
-0.003124062723155899,0.008185490183720966
-0.003123892723155899,0.008251317299230079
-0.003123722723155899,0.008777934223303294
-0.003123552723155899,0.008942502012075779
-0.003123382723155899,0.009633686724921478
-0.003123212723155899,0.009896995186957457
-0.003123042723155899,0.01085148836184009
-0.003122872723155899,0.01108188326612199
-0.003122702723155899,0.01154267307468495
-0.003122532723155899,0.01147684595917668
-0.003122362723155899,0.01180598153672225
-0.003122192723155899,0.01174015442121325
-0.003122022723155899,0.01134519172815845
-0.003121852723155899,0.01098314259285832
-0.003121682723155899,0.01055526634204986
-0.003121512723155899,0.01019321720674895
-0.003121342723155899,0.00973242739818515
-0.003121172723155899,0.009534946051658166
-0.003121002723155899,0.009304551147375908
-0.003120832723155899,0.008975415569830336
-0.003120662723155899,0.009107069800848326
-0.003120492723155899,0.009139983358603122
-0.003120322723155899,0.008975415569830336
-0.003120152723155899,0.009403291820638799
-0.003119982723155899,0.00950203249390325
-0.003119812723155899,0.009534946051657807
-0.003119642723155899,0.009831168071448281
-0.003119472723155899,0.009699513840430593
-0.003119302723155899,0.009765340955939707
-0.003119132723155899,0.009600773167167221
-0.003118962723155899,0.009107069800848565
-0.003118792723155899,0.00904124268533945
-0.003118622723155899,0.009534946051657807
-0.003118452723155899,0.008646279992284765
-0.003118282723155899,0.00904124268533945
-0.003118112723155899,0.008448798645757422
-0.003117942723155899,0.008613366434530208
-0.003117772723155899,0.007889268163929951
-0.003117602723155899,0.008152576625966409
-0.003117432723155899,0.007593046144138938
-0.003117262723155899,0.007988008837193623
-0.003117092723155899,0.007922181721684508
-0.003116922723155899,0.007889268163930669
-0.003116752723155899,0.008284230856984636
-0.003116582723155899,0.00802092239494818
-0.003116412723155899,0.00815257662596605
-0.003116242723155899,0.007955095279439066
-0.003116072723155899,0.00811966306821185
-0.003115902723155899,0.007823441048420239
-0.003115732723155899,0.007494305470875266
-0.003115562723155899,0.007132256335575138
-0.003115392723155899,0.007329737682102181
-0.003115222723155899,0.007165169893329695
-0.003115052723155899,0.007066429220066024
-0.003114882723155899,0.007658873259649009
-0.003114712723155899,0.008185490183720966
-0.003114542723155899,0.008580452876775651
-0.003114372723155899,0.009600773167169016
-0.003114202723155899,0.01075274768857642
-0.003114032723155899,0.01058817989980363
-0.003113862723155899,0.01154267307468741
-0.003113692723155899,0.01243133913405883
-0.003113522723155899,0.01325417807792276
-0.003113352723155899,0.01318835096241376
-0.003113182723155899,0.01325417807792276
-0.003113012723155899,0.0132212645201682
-0.003112842723155899,0.0132870916356766
-0.003112672723155899,0.01289212894262263
-0.003112502723155899,0.01295795605813175
-0.003112332723155899,0.01256299336507778
-0.003112162723155899,0.01200346288324959
-0.003111992723155899,0.01144393240142212
-0.003111822723155899,0.01108188326612265
-0.003111652723155899,0.01039069855327629
-0.003111482723155899,0.01025904432225806
-0.003111312723155899,0.01022613076450357
-0.003111142723155899,0.009929908744712493
-0.003110972723155899,0.01012739009123984
-0.003110802723155899,0.009337464705131901
-0.003110632723155899,0.00950203249390325
-0.003110462723155899,0.009271637589621349
-0.003110292723155899,0.009008329127585372
-0.003110122723155899,0.008514625761266537
-0.003109952723155899,0.008382971530248308
-0.003109782723155899,0.008745020665547778
-0.003109612723155899,0.009370378262885021
-0.003109442723155899,0.008942502012075779
-0.003109272723155899,0.008415885088003823
-0.003109102723155899,0.008448798645757422
-0.003108932723155899,0.008350057972493751
-0.003108762723155899,0.008613366434529729
-0.003108592723155899,0.00881084778105755
-0.003108422723155899,0.008679193550039321
-0.003108252723155899,0.00930455114737477
-0.003108082723155899,0.008909588454321223
-0.003107912723155899,0.009008329127584893
-0.003107742723155899,0.009436205378394135
-0.003107572723155899,0.008942502012075779
-0.003107402723155899,0.00983116807144882
-0.003107232723155899,0.009633686724921478
-0.003107062723155899,0.009995735860221606
-0.003106892723155899,0.009864081629203377
-0.003106722723155899,0.01039069855327629
-0.003106552723155899,0.01065400701531311
-0.003106382723155899,0.01085148836184009
-0.003106212723155899,0.01124645105489478
-0.003106042723155899,0.01121353749714148
-0.003105872723155899,0.01190472220998592
-0.003105702723155899,0.01272756115384985
-0.003105532723155899,0.01318835096241448
-0.003105362723155899,0.01364914077097745
-0.003105192723155899,0.01470237461912327
-0.003105022723155899,0.0149985966389156
-0.003104852723155899,0.01572269490951454
-0.003104682723155899,0.01605183048706011
-0.003104512723155899,0.01611765760256821
-0.003104342723155899,0.01555812712074176
-0.003104172723155899,0.01503151019666884
-0.003104002723155899,0.01489985596565038
-0.003103832723155899,0.01476820173463239
-0.003103662723155899,0.01463654750361416
-0.003103492723155899,0.01407701702178537
-0.003103322723155899,0.01335291875118643
-0.003103152723155899,0.0127604747116044
-0.003102982723155899,0.01229968490303965
-0.003102812723155899,0.01177306797896769
-0.003102642723155899,0.01131227817040389
-0.003102472723155899,0.01111479682387547
-0.003102302723155899,0.01052235278429452
-0.003102132723155899,0.00983116807144882
-0.003101962723155899,0.009798254513694324
-0.003101792723155899,0.009798254513694264
-0.003101622723155899,0.009304551147375908
-0.003101452723155899,0.008745020665549455
-0.003101282723155899,0.008284230856984636
-0.003101112723155899,0.00811966306821185
-0.003100942723155899,0.008152576625966348
-0.003100772723155899,0.008185490183720966
-0.003100602723155899,0.008251317299230079
-0.003100432723155899,0.007395564797613152
-0.003100262723155899,0.007593046144138938
-0.003100092723155899,0.007132256335575138
-0.003099922723155899,0.006572725853748684
-0.003099752723155899,0.006342330949465767
-0.003099582723155899,0.006177763160692982
-0.003099412723155899,0.005618232678866528
-0.003099242723155899,0.006144849602938425
-0.003099072723155899,0.006473985180483996
-0.003098902723155899,0.006934774989046958
-0.003098732723155899,0.007494305470875266
-0.003098562723155899,0.007823441048420837
-0.003098392723155899,0.008679193550037765
-0.003098222723155899,0.009238724031866792
-0.003098052723155899,0.009436205378394135
-0.003097882723155899,0.009864081629202598
-0.003097712723155899,0.009995735860221606
-0.003097542723155899,0.01039069855327629
-0.003097372723155899,0.01048943922653996
-0.003097202723155899,0.01081857480408553
-0.003097032723155899,0.01048943922653996
-0.003096862723155899,0.01012739009123984
-0.003096692723155899,0.01009447653348528
-0.003096522723155899,0.009798254513694264
-0.003096352723155899,0.00950203249390325
-0.003096182723155899,0.009139983358603122
-0.003096012723155899,0.009107069800848565
-0.003095842723155899,0.008843761338812107
-0.003095672723155899,0.009172896916357918
-0.003095502723155899,0.009304551147375908
-0.003095332723155899,0.009370378262885021
-0.003095162723155899,0.009995735860222085
-0.003094992723155899,0.01025904432225806
-0.003094822723155899,0.01104896970836743
-0.003094652723155899,0.01131227817040551
-0.003094482723155899,0.01220094422977693
-0.003094312723155899,0.01295795605813175
-0.003094142723155899,0.01364914077097757
-0.003093972723155899,0.01371496788648656
-0.003093802723155899,0.01315543740465909
-0.003093632723155899,0.0132212645201682
-0.003093462723155899,0.0132212645201682
-0.003093292723155899,0.01249716624956795
-0.003093122723155899,0.01226677134528587
-0.003092952723155899,0.01216803067202238
-0.003092782723155899,0.01167432730570402
-0.003092612723155899,0.01164141374794916
-0.003092442723155899,0.01147684595917668
-0.003092272723155899,0.01154267307468579
-0.003092102723155899,0.01085148836184165
-0.003091932723155899,0.01170724086345858
-0.003091762723155899,0.01078566124633098
-0.003091592723155899,0.01150975951693177
-0.003091422723155899,0.01180598153672225
-0.003091252723155899,0.01141101884366756
-0.003091082723155899,0.01180598153672153
-0.003090912723155899,0.01180598153672225
-0.003090742723155899,0.01134519172815845
-0.003090572723155899,0.01085148836184099
