Analysis/New Tests_CMB/wrd01_d2s01_new/cmb01_ch17.csv

#Digilent WaveForms Oscilloscope Acquisition
#Device Name: ADP3450
#Serial Number: SN:210018B9D9B0
#Date Time: 2024-08-14 14:53:05.988.449.360
#Sample rate: 5.88235e+06Hz
#Samples: 32768
#Trigger: Source: Channel 3 Type: Edge Condition: Rising Level: 50 mV Hyst.: Auto HoldOff: 0 s
#Channel 3: Range: 100 mV/div Offset: 0 V Attenuation: 1 X Coupling: DC Bandwidth: 0 Hz Sample Mode: Average

Time (s),Channel 3 (V)
-0.003798484609207061,0.2021121724735714
-0.003798314609207061,0.2164624836545814
-0.003798144609207061,0.2291342033900628
-0.003797974609207061,0.2420363180298492
-0.003797804609207061,0.2501001396797299
-0.003797634609207061,0.2579006528675457
-0.003797464609207061,0.2639896610521388
-0.003797294609207061,0.2686633862532922
-0.003797124609207061,0.2721193098175144
-0.003796954609207061,0.273929555494015
-0.003796784609207061,0.2751802706886876
-0.003796614609207061,0.2748182215533881
-0.003796444609207061,0.2739953826095242
-0.003796274609207061,0.2730079758768819
-0.003796104609207061,0.2699141014479591
-0.003795934609207061,0.2675772388473855
-0.003795764609207061,0.2646808457649792
-0.003795594609207061,0.2617844526825835
-0.003795424609207061,0.2587234918114096
-0.003795254609207061,0.2554650495937012
-0.003795084609207061,0.2514495955476526
-0.003794914609207061,0.2477632770791421
-0.003794744609207061,0.243846563706357
-0.003794574609207061,0.2398311096602939
-0.003794404609207061,0.2360131369607653
-0.003794234609207061,0.2317343744526806
-0.003794064609207061,0.2277189204066169
-0.003793894609207061,0.2236376392450518
-0.003793724609207061,0.2194905309679851
-0.003793554609207061,0.2151788549021306
-0.003793384609207061,0.2109330059517927
-0.003793214609207061,0.2068188112324806
-0.003793044609207061,0.2031983198794718
-0.003792874609207061,0.1994790878532069
-0.003792704609207061,0.1956282015959307
-0.003792534609207061,0.192336845820468
-0.003792364609207061,0.1889796629295032
-0.003792194609207061,0.1862149240781254
-0.003792024609207061,0.1827590005138919
-0.003791854609207061,0.1794676447384362
-0.003791684609207061,0.1762421160784954
-0.003791514609207061,0.1734773772271067
-0.003791344609207061,0.1703176756826693
-0.003791174609207061,0.1674212826002735
-0.003791004609207061,0.1639653590360398
-0.003790834609207061,0.1612335337424115
-0.003790664609207061,0.1590941524883692
-0.003790494609207061,0.1560990187327006
-0.003790324609207061,0.1534988476700906
-0.003790154609207061,0.1509315901652351
-0.003789984609207061,0.1487263817956798
-0.003789814609207061,0.1463566056373517
-0.003789644609207061,0.1443817921720783
-0.003789474609207061,0.1418474482249774
-0.003789304609207061,0.1394118449511401
-0.003789134609207061,0.1374041179281122
-0.003788964609207061,0.1351659960007994
-0.003788794609207061,0.1335861452285835
-0.003788624609207061,0.1327633062847196
-0.003788454609207061,0.1302289623376144
-0.003788284609207061,0.127826272621536
-0.003788114609207061,0.1255552371364716
-0.003787944609207061,0.1231196338626304
-0.003787774609207061,0.1209473390508336
-0.003787604609207061,0.1183800815459781
-0.003787434609207061,0.1162736138496832
-0.003787264609207061,0.1144633681731859
-0.003787094609207061,0.1123569004768942
-0.003786924609207061,0.1097238158565268
-0.003786754609207061,0.1081768786420655
-0.003786584609207061,0.1053792262329281
-0.003786414609207061,0.1033385856521428
-0.003786244609207061,0.1018245619954359
-0.003786074609207061,0.09958644006812606
-0.003785904609207061,0.09774328083386678
-0.003785734609207061,0.09550515890656097
-0.003785564609207061,0.09353034544128755
-0.003785394609207061,0.09162135909151915
-0.003785224609207061,0.08938323716421334
-0.003785054609207061,0.08793504062301283
-0.003784884609207061,0.0865197576395637
-0.003784714609207061,0.08477533907857535
-0.003784544609207061,0.08303092051758382
-0.003784374609207061,0.08141815618761346
-0.003784204609207061,0.08112193416781951
-0.003784034609207061,0.08016744099293735
-0.003783864609207061,0.07839010887419452
-0.003783694609207061,0.07766601060359102
-0.003783524609207061,0.07674443098646341
-0.003783354609207061,0.07638238185116393
-0.003783184609207061,0.07549371579179026
-0.003783014609207061,0.07463796329017178
-0.003782844609207061,0.07365055655753684
-0.003782674609207061,0.07295937184468934
-0.003782504609207061,0.07197196511205264
-0.003782334609207061,0.07121495328369919
-0.003782164609207061,0.07114912616818872
-0.003781994609207061,0.07029337366657024
-0.003781824609207061,0.06956927539597128
-0.003781654609207061,0.0687793500098606
-0.003781484609207061,0.06782485683497844
-0.003781314609207061,0.06739698058416999
-0.003781144609207061,0.06601461115847782
-0.003780974609207061,0.06506011798359565
-0.003780804609207061,0.06400688413545175
-0.003780634609207061,0.06321695874934044
-0.003780464609207061,0.06163710797712171
-0.003780294609207061,0.06061678768673229
-0.003780124609207061,0.05966229451184828
-0.003779954609207061,0.05798370306636587
-0.003779784609207061,0.05689755566046548
-0.003779614609207061,0.05587723537007421
-0.003779444609207061,0.05459360661764649
-0.003779274609207061,0.05314541007644597
-0.003779104609207061,0.05482400152192839
-0.003778934609207061,0.05179595420850913
-0.003778764609207061,0.0512035101689271
-0.003778594609207061,0.05031484410955406
-0.003778424609207061,0.04978822718548115
-0.003778254609207061,0.04932743737691735
-0.003778084609207061,0.04873499333733353
-0.003777914609207061,0.04774758660469861
-0.003777744609207061,0.04718805612287114
-0.003777574609207061,0.04636521717900548
-0.003777404609207061,0.04541072400412505
-0.003777234609207061,0.04379795967415175
-0.003777064609207061,0.04392961390516759
-0.003776894609207061,0.0426130715949877
-0.003776724609207061,0.04182314620887833
-0.003776554609207061,0.04063825812971224
-0.003776384609207061,0.03951919716605933
-0.003776214609207061,0.03882801245321364
-0.003776044609207061,0.03823556841363023
-0.003775874609207061,0.03747855658527679
-0.003775704609207061,0.03665571764141286
-0.003775534609207061,0.03616201427509307
-0.003775364609207061,0.03537208888898514
-0.003775194609207061,0.03547082956224881
-0.003775024609207061,0.03461507706063062
-0.003774854609207061,0.03477964484940311
-0.003774684609207061,0.03464799061838488
-0.003774514609207061,0.0348125584071576
-0.003774344609207061,0.03477964484940311
-0.003774174609207061,0.03514169398470324
-0.003774004609207061,0.03524043465796738
-0.003773834609207061,0.03550374312000337
-0.003773664609207061,0.03593161937081261
-0.003773494609207061,0.03547082956224965
-0.003773324609207061,0.03547082956224881
-0.003773154609207061,0.03484547196491222
-0.003772984609207061,0.03385806523227731
-0.003772814609207061,0.03362767032799361
-0.003772644609207061,0.03287065849963879
-0.003772474609207061,0.03231112801781234
-0.003772304609207061,0.03145537551619284
-0.003772134609207061,0.0312578941696655
-0.003771964609207061,0.03069836368783904
-0.003771794609207061,0.03000717897499233
-0.003771624609207061,0.0291843400311284
-0.003771454609207061,0.02836150108726597
-0.003771284609207061,0.02770322993217333
-0.003771114609207061,0.02717661300810041
-0.003770944609207061,0.02595881137118402
-0.003770774609207061,0.02500431819629965
-0.003770604609207061,0.02424730636794483
-0.003770434609207061,0.02293076405776494
-0.003770264609207061,0.02204209799838951
-0.003770094609207061,0.02151548107431659
-0.003769924609207061,0.02105469126575363
-0.003769754609207061,0.02302950473102622
-0.003769584609207061,0.02003437097536152
-0.003769414609207061,0.02125217261228014
-0.003769244609207061,0.02141674040105292
-0.003769074609207061,0.02191044376737128
-0.003768904609207061,0.02220666578716229
-0.003768734609207061,0.02263454203797154
-0.003768564609207061,0.02293076405776255
-0.003768394609207061,0.02345738098183546
-0.003768224609207061,0.02339155386632635
-0.003768054609207061,0.0236548623283628
-0.003767884609207061,0.02388525723264471
-0.003767714609207061,0.02372068944387186
-0.003767544609207061,0.02368777588611736
-0.003767374609207061,0.02362194877060825
-0.003767204609207061,0.02319407251979906
-0.003767034609207061,0.02322698607755356
-0.003766864609207061,0.02316115896204445
-0.003766694609207061,0.02181170309410923
-0.003766524609207061,0.02270036915348065
-0.003766354609207061,0.02168004886308938
-0.003766184609207061,0.02135091328554225
-0.003766014609207061,0.02049516078392532
-0.003765844609207061,0.02033059299515254
-0.003765674609207061,0.02019893876413299
-0.003765504609207061,0.01947484049353405
-0.003765334609207061,0.01947484049353405
-0.003765164609207061,0.0194090133780244
-0.003764994609207061,0.01911279135823393
-0.003764824609207061,0.01815829818335177
-0.003764654609207061,0.01815829818335075
-0.003764484609207061,0.0175987677015243
-0.003764314609207061,0.0175987677015243
-0.003764144609207061,0.01687466943092428
-0.003763974609207061,0.01700632366194227
-0.003763804609207061,0.01684175587316948
-0.003763634609207061,0.01690758298867824
-0.003763464609207061,0.01671010164215126
-0.003763294609207061,0.01677592875766037
-0.003763124609207061,0.01736837279724132
-0.003762954609207061,0.0173683727972424
-0.003762784609207061,0.01733545923948784
-0.003762614609207061,0.01763168125927832
-0.003762444609207061,0.0178291626058062
-0.003762274609207061,0.01796081683682443
-0.003762104609207061,0.01822412529886041
-0.003761934609207061,0.01819121174110632
-0.003761764609207061,0.01812538462559721
-0.003761594609207061,0.01835577952987869
-0.003761424609207061,0.01825703885661544
-0.003761254609207061,0.01832286597212456
-0.003761084609207061,0.01815829818335207
-0.003760914609207061,0.01819121174110632
-0.003760744609207061,0.01802664395233354
-0.003760574609207061,0.01799373039457904
-0.003760404609207061,0.01773042193254253
-0.003760234609207061,0.01615057116032378
-0.003760064609207061,0.01624931183358727
-0.003759894609207061,0.01605183048706011
-0.003759724609207061,0.01516316442768707
-0.003759554609207061,0.01417575769505215
-0.003759384609207061,0.0132212645201682
-0.003759214609207061,0.01243133913405883
-0.003759044609207061,0.01183889509447788
-0.003758874609207061,0.011378105285913
-0.003758704609207061,0.01114771038163111
-0.003758534609207061,0.01098314259285832
-0.003758364609207061,0.01039069855327629
-0.003758194609207061,0.01078566124633098
-0.003758024609207061,0.01055526634204908
-0.003757854609207061,0.01068692057306731
-0.003757684609207061,0.01065400701531275
-0.003757514609207061,0.01091731547734921
-0.003757344609207061,0.01098314259285838
-0.003757174609207061,0.01101605615061288
-0.003757004609207061,0.01098314259285832
-0.003756834609207061,0.01111479682387631
-0.003756664609207061,0.01098314259285832
-0.003756494609207061,0.01167432730570402
-0.003756324609207061,0.01177306797896787
-0.003756154609207061,0.01187180865223136
-0.003755984609207061,0.01302378317364086
-0.003755814609207061,0.0128263018271149
-0.003755644609207061,0.01358331365546833
-0.003755474609207061,0.01358331365546833
-0.003755304609207061,0.01345165942445004
-0.003755134609207061,0.01341874586669555
-0.003754964609207061,0.01361622721322289
-0.003754794609207061,0.01355040009771317
-0.003754624609207061,0.0132212645201682
-0.003754454609207061,0.01239842557630427
-0.003754284609207061,0.01220094422977621
-0.003754114609207061,0.01180598153672225
-0.003753944609207061,0.01167432730570402
-0.003753774609207061,0.01174015442121271
-0.003753604609207061,0.01150975951693123
-0.003753434609207061,0.01150975951693123
-0.003753264609207061,0.01177306797896733
-0.003753094609207061,0.01157558663244035
-0.003752924609207061,0.01200346288324959
-0.003752754609207061,0.01226677134528557
-0.003752584609207061,0.01190472220998592
-0.003752414609207061,0.01213511711426782
-0.003752244609207061,0.01210220355651332
-0.003752074609207061,0.01197054932549503
-0.003751904609207061,0.01187180865223136
-0.003751734609207061,0.01174015442121337
-0.003751564609207061,0.01187180865223136
-0.003751394609207061,0.01150975951693123
-0.003751224609207061,0.01137810528591324
-0.003751054609207061,0.01104896970836743
-0.003750884609207061,0.01223385778753149
-0.003750714609207061,0.009699513840435204
-0.003750544609207061,0.01045652566878541
-0.003750374609207061,0.01019321720674895
-0.003750204609207061,0.01045652566878493
-0.003750034609207061,0.01029195788001262
-0.003749864609207061,0.01042361211103085
-0.003749694609207061,0.01068692057306683
-0.003749524609207061,0.01108188326612199
-0.003749354609207061,0.01104896970836743
-0.003749184609207061,0.01200346288324785
-0.003749014609207061,0.01197054932549503
-0.003748844609207061,0.0122996849030406
-0.003748674609207061,0.01361622721322049
-0.003748504609207061,0.01374788144424112
-0.003748334609207061,0.01384662211750479
-0.003748164609207061,0.01473528817687783
-0.003747994609207061,0.01463654750361416
-0.003747824609207061,0.01457072038810504
-0.003747654609207061,0.01407701702178669
-0.003747484609207061,0.01394536279076846
-0.003747314609207061,0.01387953567525935
-0.003747144609207061,0.01325417807792276
-0.003746974609207061,0.01289212894262263
-0.003746804609207061,0.01180598153672225
-0.003746634609207061,0.01170724086345858
-0.003746464609207061,0.01095022903510298
-0.003746294609207061,0.01052235278429452
-0.003746124609207061,0.009765340955939707
-0.003745954609207061,0.009008329127583935
-0.003745784609207061,0.008481712203511979
-0.003745614609207061,0.008152576625966409
-0.003745444609207061,0.0080209223949483
-0.003745274609207061,0.008086749510457293
-0.003745104609207061,0.008185490183720966
-0.003744934609207061,0.008580452876775831
-0.003744764609207061,0.008679193550039321
-0.003744594609207061,0.009238724031866792
-0.003744424609207061,0.009074156243094964
-0.003744254609207061,0.009600773167166921
-0.003744084609207061,0.01009447653348528
-0.003743914609207061,0.01032487143776772
-0.003743744609207061,0.01062109345755819
-0.003743574609207061,0.01121353749714022
-0.003743404609207061,0.01147684595917734
-0.003743234609207061,0.0118388950944768
-0.003743064609207061,0.0116085001901949
-0.003742894609207061,0.01170724086345822
-0.003742724609207061,0.01150975951693123
-0.003742554609207061,0.01141101884366756
-0.003742384609207061,0.01131227817040395
-0.003742214609207061,0.01134519172815845
-0.003742044609207061,0.01131227817040389
-0.003741874609207061,0.0112135374971404
-0.003741704609207061,0.01118062393938566
-0.003741534609207061,0.01118062393938566
-0.003741364609207061,0.009107069800852336
-0.003741194609207061,0.01075274768857642
-0.003741024609207061,0.01104896970836743
-0.003740854609207061,0.01078566124633146
-0.003740684609207061,0.01118062393938566
-0.003740514609207061,0.01062109345755819
-0.003740344609207061,0.01025904432225872
-0.003740174609207061,0.01134519172815845
-0.003740004609207061,0.01016030364899439
-0.003739834609207061,0.01025904432225788
-0.003739664609207061,0.009765340955939707
-0.003739494609207061,0.009008329127584893
-0.003739324609207061,0.009732427398183833
-0.003739154609207061,0.008777934223302994
-0.003738984609207061,0.009139983358603122
-0.003738814609207061,0.008909588454321642
-0.003738644609207061,0.008547539319021094
-0.003738474609207061,0.008679193550039321
-0.003738304609207061,0.008382971530248848
-0.003738134609207061,0.007988008837193623
-0.003737964609207061,0.008086749510457293
-0.003737794609207061,0.008975415569828719
-0.003737624609207061,0.008415885088002865
-0.003737454609207061,0.00756013258638438
-0.003737284609207061,0.007658873259648051
-0.003737114609207061,0.007955095279439066
-0.003736944609207061,0.008086749510457293
-0.003736774609207061,0.007494305470875266
-0.003736604609207061,0.007461391913120709
-0.003736434609207061,0.007691786817402609
-0.003736264609207061,0.007428478355366152
-0.003736094609207061,0.007461391913121008
-0.003735924609207061,0.007625959701893495
-0.003735754609207061,0.007428478355366152
-0.003735584609207061,0.007560132586384739
-0.003735414609207061,0.007757613932911723
-0.003735244609207061,0.007889268163929951
-0.003735074609207061,0.008152576625966109
-0.003734904609207061,0.007988008837193623
-0.003734734609207061,0.008086749510457293
-0.003734564609207061,0.008415885088002926
-0.003734394609207061,0.008448798645757422
-0.003734224609207061,0.008679193550039321
-0.003734054609207061,0.008843761338812527
-0.003733884609207061,0.009074156243094007
-0.003733714609207061,0.009699513840430593
-0.003733544609207061,0.01009447653348606
-0.003733374609207061,0.01052235278429452
-0.003733204609207061,0.01111479682387655
-0.003733034609207061,0.01164141374795072
-0.003732864609207061,0.01233259846079516
-0.003732694609207061,0.01210220355651326
-0.003732524609207061,0.01279338826935854
-0.003732354609207061,0.01256299336507706
-0.003732184609207061,0.01266173403834073
-0.003732014609207061,0.0122996849030409
-0.003731844609207061,0.01246425269181339
-0.003731674609207061,0.01256299336507706
-0.003731504609207061,0.01322126452016701
-0.003731334609207061,0.01262882048058617
-0.003731164609207061,0.0127604747116044
-0.003730994609207061,0.01266173403834091
-0.003730824609207061,0.01292504250037719
-0.003730654609207061,0.01282630182711352
-0.003730484609207061,0.01226677134528707
-0.003730314609207061,0.0125300798073225
-0.003730144609207061,0.01197054932549503
-0.003729974609207061,0.01157558663244107
-0.003729804609207061,0.01121353749714022
-0.003729634609207061,0.01118062393938566
-0.003729464609207061,0.01101605615061318
-0.003729294609207061,0.01114771038163111
-0.003729124609207061,0.0116085001901949
-0.003728954609207061,0.01177306797896739
-0.003728784609207061,0.01187180865223136
-0.003728614609207061,0.01190472220998592
-0.003728444609207061,0.01236551201854888
-0.003728274609207061,0.01266173403834073
-0.003728104609207061,0.01243133913405883
-0.003727934609207061,0.01262882048058581
-0.003727764609207061,0.01249716624956795
-0.003727594609207061,0.01272756115384985
-0.003727424609207061,0.01262882048058635
-0.003727254609207061,0.01249716624956795
-0.003727084609207061,0.01223385778753149
-0.003726914609207061,0.01197054932549503
-0.003726744609207061,0.01157558663244035
-0.003726574609207061,0.01134519172815845
-0.003726404609207061,0.01147684595917668
-0.003726234609207061,0.01174015442121313
-0.003726064609207061,0.01164141374794946
-0.003725894609207061,0.01150975951693123
-0.003725724609207061,0.011378105285913
-0.003725554609207061,0.011378105285913
-0.003725384609207061,0.01108188326612199
-0.003725214609207061,0.01124645105489442
-0.003725044609207061,0.01104896970836743
-0.003724874609207061,0.01124645105489478
-0.003724704609207061,0.01108188326612199
-0.003724534609207061,0.01108188326612199
-0.003724364609207061,0.01058817989980363
-0.003724194609207061,0.01002864941797556
-0.003724024609207061,0.009699513840430593
-0.003723854609207061,0.009271637589621349
-0.003723684609207061,0.009304551147375368
-0.003723514609207061,0.009008329127584893
-0.003723344609207061,0.008448798645757422
-0.003723174609207061,0.008317144414739254
-0.003723004609207061,0.008350057972493751
-0.003722834609207061,0.007955095279439066
-0.003722664609207061,0.00788926816392552
-0.003722494609207061,0.005453664890092726
-0.003722324609207061,0.00802092239494818
-0.003722154609207061,0.008350057972493273
-0.003721984609207061,0.008086749510457293
-0.003721814609207061,0.008613366434530208
-0.003721644609207061,0.008712107107794718
-0.003721474609207061,0.009172896916357679
-0.003721304609207061,0.009962822302467049
-0.003721134609207061,0.009633686724922137
-0.003720964609207061,0.009995735860221606
-0.003720794609207061,0.01032487143776718
-0.003720624609207061,0.01088440191959363
-0.003720454609207061,0.009864081629203377
-0.003720284609207061,0.01042361211103085
-0.003720114609207061,0.01055526634204884
-0.003719944609207061,0.01035778499552173
-0.003719774609207061,0.01081857480408553
-0.003719604609207061,0.01108188326612151
-0.003719434609207061,0.01134519172815845
-0.003719264609207061,0.01131227817040389
