Analysis/New Tests_CMB/wrd01_d2s01_new/cmb07_ch07.csv

#Digilent WaveForms Oscilloscope Acquisition
#Device Name: ADP3450
#Serial Number: SN:210018B9D9B0
#Date Time: 2024-08-15 12:41:58.141.818.280
#Sample rate: 5.88235e+06Hz
#Samples: 32768
#Trigger: Source: Channel 3 Type: Edge Condition: Rising Level: 40 mV Hyst.: Auto HoldOff: 0 s
#Channel 3: Range: 100 mV/div Offset: 0 V Attenuation: 1 X Coupling: DC Bandwidth: 0 Hz Sample Mode: Average

Time (s),Channel 3 (V)
-0.003168980838481026,0.02230540646042596
-0.003168810838481026,0.02098886415024171
-0.003168640838481026,0.0199027167443433
-0.003168470838481026,0.01884948289619747
-0.003168300838481026,0.01746711347050637
-0.003168130838481026,0.01763168125927886
-0.003167960838481026,0.01657844741113303
-0.003167790838481026,0.01585434914053313
-0.003167620838481026,0.01605183048706011
-0.003167450838481026,0.01809247106784265
-0.003167280838481026,0.01917861847374196
-0.003167110838481026,0.01858617443416101
-0.003166940838481026,0.01812538462559721
-0.003166770838481026,0.01677592875766037
-0.003166600838481026,0.01677592875766037
-0.003166430838481026,0.01638096606460569
-0.003166260838481026,0.01568978135175891
-0.003166090838481026,0.01509733731217796
-0.003165920838481026,0.01476820173463239
-0.003165750838481026,0.01460363394586026
-0.003165580838481026,0.01496568308115973
-0.003165410838481026,0.01565686779400543
-0.003165240838481026,0.01516316442768797
-0.003165070838481026,0.01447197971484137
-0.003164900838481026,0.01470237461912327
-0.003164730838481026,0.01486694240789576
-0.003164560838481026,0.01509733731217796
-0.003164390838481026,0.01532773221645986
-0.003164220838481026,0.01522899154319637
-0.003164050838481026,0.01526190510095074
-0.003163880838481026,0.01522899154319619
-0.003163710838481026,0.01513025086993269
-0.003163540838481026,0.01522899154319619
-0.003163370838481026,0.01509733731217796
-0.003163200838481026,0.01542647288972293
-0.003163030838481026,0.01578852202502366
-0.003162860838481026,0.01595308981379644
-0.003162690838481026,0.01618348471807792
-0.003162520838481026,0.01615057116032378
-0.003162350838481026,0.01595308981379644
-0.003162180838481026,0.01542647288972449
-0.003162010838481026,0.01585434914053277
-0.003161840838481026,0.01601891692930556
-0.003161670838481026,0.01631513894909603
-0.003161500838481026,0.01634805250685113
-0.003161330838481026,0.01526190510095074
-0.003161160838481026,0.01417575769505233
-0.003160990838481026,0.01384662211750479
-0.003160820838481026,0.0132212645201682
-0.003160650838481026,0.01249716624956795
-0.003160480838481026,0.01279338826935896
-0.003160310838481026,0.01187180865223136
-0.003160140838481026,0.011378105285913
-0.003159970838481026,0.01065400701531275
-0.003159800838481026,0.009962822302467049
-0.003159630838481026,0.009896995186957936
-0.003159460838481026,0.009370378262885141
-0.003159290838481026,0.009436205378394135
-0.003159120838481026,0.009205810474112236
-0.003158950838481026,0.008317144414739432
-0.003158780838481026,0.008448798645757422
-0.003158610838481026,0.008679193550039321
-0.003158440838481026,0.009074156243092988
-0.003158270838481026,0.008514625761266537
-0.003158100838481026,0.008284230856984636
-0.003157930838481026,0.006473985180481721
-0.003157760838481026,0.005223269985810825
-0.003157590838481026,0.004367517484192341
-0.003157420838481026,0.006901861431296292
-0.003157250838481026,0.008580452876775651
-0.003157080838481026,0.007922181721684508
-0.003156910838481026,0.008086749510456754
-0.003156740838481026,0.00779052749066628
-0.003156570838481026,0.008218403741475522
-0.003156400838481026,0.008514625761265399
-0.003156230838481026,0.007889268163929951
-0.003156060838481026,0.006408158064974882
-0.003155890838481026,0.005651146236621386
-0.003155720838481026,0.006375244507220324
-0.003155550838481026,0.007296824124347924
-0.003155380838481026,0.008679193550039321
-0.003155210838481026,0.008679193550039321
-0.003155040838481026,0.008284230856984636
-0.003154870838481026,0.007198083451086228
-0.003154700838481026,0.005782800467638296
-0.003154530838481026,0.005815714025392853
-0.003154360838481026,0.006079022487428832
-0.003154190838481026,0.00677020720027501
-0.003154020838481026,0.007494305470875266
-0.003153850838481026,0.007395564797611775
-0.003153680838481026,0.007724700375157166
-0.003153510838481026,0.007691786817402609
-0.003153340838481026,0.007461391913121128
-0.003153170838481026,0.007823441048420837
-0.003153000838481026,0.008086749510457293
-0.003152830838481026,0.008580452876774752
-0.003152660838481026,0.009107069800848565
-0.003152490838481026,0.008382971530248308
-0.003152320838481026,0.009074156243092749
-0.003152150838481026,0.008646279992284765
-0.003151980838481026,0.008909588454321223
-0.003151810838481026,0.007856354606177309
-0.003151640838481026,0.007593046144138938
-0.003151470838481026,0.006111936045183867
-0.003151300838481026,0.006111936045183867
-0.003151130838481026,0.005947368256411082
-0.003150960838481026,0.005782800467638296
-0.003150790838481026,0.004927047966021368
-0.003150620838481026,0.004894134408265255
-0.003150450838481026,0.003347197193801071
-0.003150280838481026,0.002623098923200814
-0.003150110838481026,0.00380798700236487
-0.003149940838481026,0.003873814117873984
-0.003149770838481026,0.004137122579910441
-0.003149600838481026,0.003873814117873984
-0.003149430838481026,0.003775073444610313
-0.003149260838481026,0.003643419213592085
-0.003149090838481026,0.003840900560119427
-0.003148920838481026,0.004104209022155884
-0.003148750838481026,0.00482830729275614
-0.003148580838481026,0.005322010659073719
-0.003148410838481026,0.004894134408265255
-0.003148240838481026,0.006013195371920196
-0.003148070838481026,0.005651146236621146
-0.003147900838481026,0.006243590276202096
-0.003147730838481026,0.00528909710131994
-0.003147560838481026,0.004433344599699599
-0.003147390838481026,0.003413024309310185
-0.003147220838481026,0.005091615754792597
-0.003147050838481026,0.006605639411502284
-0.003146880838481026,0.006638552969256781
-0.003146710838481026,0.006671466527011338
-0.003146540838481026,0.006836034315784603
-0.003146370838481026,0.007099342777820581
-0.003146200838481026,0.007033515662311467
-0.003146030838481026,0.006934774989046059
-0.003145860838481026,0.005980281814165639
-0.003145690838481026,0.006013195371920196
-0.003145520838481026,0.006342330949467743
-0.003145350838481026,0.007428478355366152
-0.003145180838481026,0.008317144414739193
-0.003145010838481026,0.009172896916357379
-0.003144840838481026,0.009008329127584893
-0.003144670838481026,0.008580452876775651
-0.003144500838481026,0.00802092239494788
-0.003144330838481026,0.007856354606175394
-0.003144160838481026,0.007658873259648051
-0.003143990838481026,0.007099342777821599
-0.003143820838481026,0.004729566619492469
-0.003143650838481026,0.007033515662311467
-0.003143480838481026,0.007198083451083953
-0.003143310838481026,0.00802092239494818
-0.003143140838481026,0.007691786817402609
-0.003142970838481026,0.007461391913121128
-0.003142800838481026,0.007296824124347924
-0.003142630838481026,0.007494305470875266
-0.003142460838481026,0.007856354606174735
-0.003142290838481026,0.006836034315784124
-0.003142120838481026,0.006737293642520453
-0.003141950838481026,0.006605639411502464
-0.003141780838481026,0.00700060210455691
-0.003141610838481026,0.006967688546802352
-0.003141440838481026,0.007198083451083834
-0.003141270838481026,0.006441071622729439
-0.003141100838481026,0.00653981229599311
-0.003140930838481026,0.005519492005603695
-0.003140760838481026,0.006111936045183867
-0.003140590838481026,0.005782800467638296
-0.003140420838481026,0.01401118990626261
-0.003140250838481026,0.00881084778105755
-0.003140080838481026,0.006803120758029567
-0.003139910838481026,0.00505870219703804
-0.003139740838481026,0.004235863253174112
-0.003139570838481026,0.004992875081528926
-0.003139400838481026,0.00482830729275614
-0.003139230838481026,0.005157442870301712
-0.003139060838481026,0.004499171715210569
-0.003138890838481026,0.003643419213592085
-0.003138720838481026,0.003050975174010056
-0.003138550838481026,0.003314283636046514
-0.003138380838481026,0.003347197193801071
-0.003138210838481026,0.003939641233382799
-0.003138040838481026,0.003775073444610313
-0.003137870838481026,0.0027876667119736
-0.003137700838481026,0.002524358249935167
-0.003137530838481026,0.001438210844036758
-0.003137360838481026,0.0005166312269091594
-0.003137190838481026,0.001273643055269301
-0.003137020838481026,0.004202949695419555
-0.003136850838481026,0.005782800467638296
-0.003136680838481026,0.005914454698656824
-0.003136510838481026,0.00607902248742931
-0.003136340838481026,0.006375244507220324
-0.003136170838481026,0.00719808345108515
-0.003136000838481026,0.007691786817402609
-0.003135830838481026,0.007494305470875266
-0.003135660838481026,0.006803120758030285
-0.003135490838481026,0.007198083451084253
-0.003135320838481026,0.007988008837193623
-0.003135150838481026,0.009765340955940845
-0.003134980838481026,0.01039069855327629
-0.003134810838481026,0.01068692057306731
-0.003134640838481026,0.01078566124632978
-0.003134470838481026,0.01012739009123984
-0.003134300838481026,0.009205810474112236
-0.003134130838481026,0.00881084778105767
-0.003133960838481026,0.008876674896566664
-0.003133790838481026,0.007889268163929951
-0.003133620838481026,0.007856354606175455
-0.003133450838481026,0.007395564797611595
-0.003133280838481026,0.008053835952702737
-0.003133110838481026,0.008843761338810671
-0.003132940838481026,0.009633686724921478
-0.003132770838481026,0.00811966306821185
-0.003132600838481026,0.007988008837193862
-0.003132430838481026,0.006934774989047795
-0.003132260838481026,0.005716973352129182
-0.003132090838481026,0.004729566619494265
-0.003131920838481026,0.004729566619492469
-0.003131750838481026,0.004597912388474241
-0.003131580838481026,0.004959961523773711
-0.003131410838481026,0.006144849602938425
-0.003131240838481026,0.006046108929674754
-0.003131070838481026,0.005190356428057825
-0.003130900838481026,0.005256183543565383
-0.003130730838481026,0.004729566619492469
-0.003130560838481026,0.00423586325317501
-0.003130390838481026,0.004334603926437783
-0.003130220838481026,0.005552405563356397
-0.003130050838481026,0.006934774989045281
-0.003129880838481026,0.008843761338812107
-0.003129710838481026,0.009534946051657807
-0.003129540838481026,0.009534946051657807
-0.003129370838481026,0.008975415569830336
-0.003129200838481026,0.008580452876775651
-0.003129030838481026,0.007955095279439066
-0.003128860838481026,0.008679193550039321
-0.003128690838481026,0.009666600282676035
-0.003128520838481026,0.01019321720674895
-0.003128350838481026,0.01019321720674895
-0.003128180838481026,0.009403291820639578
-0.003128010838481026,0.007955095279439066
-0.003127840838481026,0.006704380084763381
-0.003127670838481026,0.005322010659074497
-0.003127500838481026,0.003215542962782842
-0.003127330838481026,0.001800259979336707
-0.003127160838481026,0.001701519306073215
-0.003126990838481026,0.004170036137664999
-0.003126820838481026,0.005289097101319641
-0.003126650838481026,0.005124529312547154
-0.003126480838481026,0.004433344599701455
-0.003126310838481026,0.003511764982574036
-0.003126140838481026,0.003610505655837527
-0.003125970838481026,0.002656012480955371
-0.003125800838481026,0.003445937867061629
-0.003125630838481026,0.001734432863827772
-0.003125460838481026,0.003511764982573856
-0.003125290838481026,0.004104209022158758
-0.003125120838481026,0.005684059794374625
-0.003124950838481026,0.006704380084765896
-0.003124780838481026,0.006441071622728721
-0.003124610838481026,0.006046108929674754
-0.003124440838481026,0.006177763160692982
-0.003124270838481026,0.005289097101320359
-0.003124100838481026,0.005519492005601839
-0.003123930838481026,0.005552405563356397
-0.003123760838481026,0.006408158064973146
-0.003123590838481026,0.005453664890092726
-0.003123420838481026,0.00528909710131994
-0.003123250838481026,0.004170036137667034
-0.003123080838481026,0.003840900560119427
-0.003122910838481026,0.00357759209808297
-0.003122740838481026,0.003676332771346462
-0.003122570838481026,0.00426877681092867
-0.003122400838481026,0.005124529312547154
-0.003122230838481026,0.005223269985810646
-0.003122060838481026,0.004959961523774369
-0.003121890838481026,0.004170036137664999
-0.003121720838481026,0.004466258157455474
-0.003121550838481026,0.00482830729275614
-0.003121380838481026,0.004861220850510698
-0.003121210838481026,0.005091615754792178
-0.003121040838481026,0.005519492005601839
-0.003120870838481026,0.006177763160692982
-0.003120700838481026,0.006046108929674993
-0.003120530838481026,0.005782800467638296
-0.003120360838481026,0.005782800467638296
-0.003120190838481026,0.005552405563356816
-0.003120020838481026,0.004894134408265255
-0.003119850838481026,0.004762480177247026
-0.003119680838481026,0.004038381906648087
-0.003119510838481026,0.004499171715210569
-0.003119340838481026,0.005684059794374625
-0.003119170838481026,0.006210676718446581
-0.003119000838481026,0.006441071622729439
-0.003118830838481026,0.006243590276202096
-0.003118660838481026,0.006177763160692982
-0.003118490838481026,0.005848627583147411
-0.003118320838481026,0.005782800467638296
-0.003118150838481026,0.006572725853747667
-0.003117980838481026,0.007132256335575138
-0.003117810838481026,0.007362651239857037
-0.003117640838481026,0.00700060210455691
-0.003117470838481026,0.005618232678865511
-0.003117300838481026,0.004104209022155884
-0.003117130838481026,0.004137122579910441
-0.003116960838481026,0.00673729364252189
-0.003116790838481026,0.007527219028629823
-0.003116620838481026,0.009403291820639578
-0.003116450838481026,0.007790527490662628
-0.003116280838481026,0.005782800467638296
-0.003116110838481026,0.005815714025392853
-0.003115940838481026,0.005684059794375104
-0.003115770838481026,0.005947368256411082
-0.003115600838481026,0.00630941739171121
-0.003115430838481026,0.0062435902762003
-0.003115260838481026,0.005256183543565383
-0.003115090838481026,0.005387837774583611
-0.003114920838481026,0.005716973352129361
-0.003114750838481026,0.005815714025392853
-0.003114580838481026,0.005980281814165639
-0.003114410838481026,0.006375244507219965
-0.003114240838481026,0.006177763160692982
-0.003114070838481026,0.006046108929674754
-0.003113900838481026,0.006309417391711449
-0.003113730838481026,0.006441071622729439
-0.003113560838481026,0.007198083451084253
-0.003113390838481026,0.007988008837195059
-0.003113220838481026,0.008777934223302994
-0.003113050838481026,0.008415885088002865
-0.003112880838481026,0.008646279992284464
-0.003112710838481026,0.008481712203511979
-0.003112540838481026,0.008448798645757422
-0.003112370838481026,0.007625959701894992
-0.003112200838481026,0.008350057972493751
-0.003112030838481026,0.00871210710779388
-0.003111860838481026,0.00881084778105737
-0.003111690838481026,0.009403291820639578
-0.003111520838481026,0.008284230856984636
-0.003111350838481026,0.007922181721685167
-0.003111180838481026,0.007362651239857037
-0.003111010838481026,0.006506898738238553
-0.003110840838481026,0.00581571402539411
-0.003110670838481026,0.005223269985810825
-0.003110500838481026,0.005124529312547154
-0.003110330838481026,0.004071295464403243
-0.003110160838481026,0.003544678540328413
-0.003109990838481026,0.002063568441373343
-0.003109820838481026,0.001767346421582868
-0.003109650838481026,0.00153695151730043
-0.003109480838481026,0.001964827768109672
-0.003109310838481026,0.001701519306073694
-0.003109140838481026,0.001964827768109672
-0.003108970838481026,0.001899000652600558
-0.003108800838481026,0.002623098923199497
-0.003108630838481026,0.003544678540328413
-0.003108460838481026,0.004334603926437783
-0.003108290838481026,0.0041371225799108
-0.003108120838481026,0.003742159886855756
-0.003107950838481026,0.003742159886855756
-0.003107780838481026,0.004367517484192341
-0.003107610838481026,0.005025788639283483
-0.003107440838481026,0.006704380084765896
-0.003107270838481026,0.006342330949465767
-0.003107100838481026,0.006803120758029567
-0.003106930838481026,0.006836034315784124
-0.003106760838481026,0.006572725853747667
-0.003106590838481026,0.006506898738238673
-0.003106420838481026,0.006572725853747667
-0.003106250838481026,0.006704380084765896
-0.003106080838481026,0.006506898738238134
-0.003105910838481026,0.006276503833956653
-0.003105740838481026,0.005585319121110954
-0.003105570838481026,0.005190356428056388
-0.003105400838481026,0.005256183543565383
-0.003105230838481026,0.004564998830719684
-0.003105060838481026,0.003939641233382919
-0.003104890838481026,0.003840900560119427
-0.003104720838481026,0.003775073444610313
-0.003104550838481026,0.003840900560120804
-0.003104380838481026,0.004597912388474241
-0.003104210838481026,0.004795393735001583
-0.003104040838481026,0.004532085272965964
-0.003103870838481026,0.004992875081528926
-0.003103700838481026,0.00528909710131994
-0.003103530838481026,0.005387837774584449
-0.003103360838481026,0.005848627583147411
-0.003103190838481026,0.005354924216829054
-0.003103020838481026,0.005387837774589958
-0.003102850838481026,0.008876674896566664
-0.003102680838481026,0.01065400701531275
-0.003102510838481026,0.01002864941797724
-0.003102340838481026,0.01062109345755819
-0.003102170838481026,0.01127936461264933
-0.003102000838481026,0.01236551201854774
-0.003101830838481026,0.0125300798073225
-0.003101660838481026,0.01091731547734921
-0.003101490838481026,0.009502032493905825
-0.003101320838481026,0.008646279992284765
-0.003101150838481026,0.007922181721684508
-0.003100980838481026,0.008415885088001967
-0.003100810838481026,0.007955095279439066
-0.003100640838481026,0.007988008837193623
-0.003100470838481026,0.007691786817403148
-0.003100300838481026,0.00630941739171121
-0.003100130838481026,0.006013195371920196
-0.003099960838481026,0.006375244507219666
-0.003099790838481026,0.007132256335575138
-0.003099620838481026,0.007066429220066024
-0.003099450838481026,0.006770207200275548
-0.003099280838481026,0.006013195371920196
-0.003099110838481026,0.005914454698656525
-0.003098940838481026,0.006473985180482978
-0.003098770838481026,0.006276503833956653
-0.003098600838481026,0.001372383728527644
-0.003098430838481026,0.005552405563348794
-0.003098260838481026,0.00482830729275614
-0.003098090838481026,0.004564998830719684
-0.003097920838481026,0.004828307292755661
-0.003097750838481026,0.004663739503983355
-0.003097580838481026,0.005256183543565383
-0.003097410838481026,0.005420751332338168
-0.003097240838481026,0.005782800467638296
-0.003097070838481026,0.006046108929674754
-0.003096900838481026,0.006803120758029567
-0.003096730838481026,0.008053835952702737
-0.003096560838481026,0.00756013258638438
-0.003096390838481026,0.008185490183720966
-0.003096220838481026,0.007856354606175394
-0.003096050838481026,0.007263910566593366
-0.003095880838481026,0.00802092239494818
-0.003095710838481026,0.008119663068211252
-0.003095540838481026,0.00779052749066628
-0.003095370838481026,0.007461391913120709
-0.003095200838481026,0.01345165942444591
-0.003095030838481026,0.01114771038163111
-0.003094860838481026,0.004400431041946898
-0.003094690838481026,0.006441071622727224
-0.003094520838481026,0.005223269985810825
-0.003094350838481026,0.004235863253174112
-0.003094180838481026,0.00370924632910072
-0.003094010838481026,0.003445937867064742
-0.003093840838481026,0.003281370078291956
-0.003093670838481026,0.003873814117874403
-0.003093500838481026,0.004104209022155884
-0.003093330838481026,0.003182629405028285
-0.003093160838481026,0.002261049787900626
-0.003092990838481026,0.002228136230146129
-0.003092820838481026,0.003775073444610313
-0.003092650838481026,0.005914454698657123
-0.003092480838481026,0.006243590276202096
-0.003092310838481026,0.006408158064974882
-0.003092140838481026,0.005651146236621326
-0.003091970838481026,0.006342330949465767
-0.003091800838481026,0.006473985180483996
-0.003091630838481026,0.006309417391709773
-0.003091460838481026,0.005519492005601839
-0.003091290838481026,0.004564998830719684
