Analysis/New Tests_CMB/wrd01_d2s01_new/cmb08_ch29.csv

#Digilent WaveForms Oscilloscope Acquisition
#Device Name: ADP3450
#Serial Number: SN:210018B9D9B0
#Date Time: 2024-08-14 17:41:40.126.963.000
#Sample rate: 5.88235e+06Hz
#Samples: 32768
#Trigger: Source: Channel 3 Type: Edge Condition: Rising Level: 60 mV Hyst.: Auto HoldOff: 0 s
#Channel 3: Range: 100 mV/div Offset: 0 V Attenuation: 1 X Coupling: DC Bandwidth: 0 Hz Sample Mode: Average

Time (s),Channel 3 (V)
-0.003798473054530988,0.2075099959453188
-0.003798303054530988,0.2213336902022547
-0.003798133054530988,0.2333800523404007
-0.003797963054530988,0.2442744399571591
-0.003797793054530988,0.2538193717059932
-0.003797623054530988,0.2607312188344376
-0.003797453054530988,0.266721486345767
-0.003797283054530988,0.2708685946228452
-0.003797113054530988,0.273040889434642
-0.003796943054530988,0.2740612097250333
-0.003796773054530988,0.2742916046293128
-0.003796603054530988,0.2730079758768875
-0.003796433054530988,0.2709673352961049
-0.003796263054530988,0.2684659049067537
-0.003796093054530988,0.2657669931708849
-0.003795923054530988,0.262113588260129
-0.003795753054530988,0.2586905782536468
-0.003795583054530988,0.2541485072835262
-0.003795413054530988,0.2496064363133974
-0.003795243054530988,0.2458872042871239
-0.003795073054530988,0.2411805655282307
-0.003794903054530988,0.2376259012907385
-0.003794733054530988,0.2336433608024444
-0.003794563054530988,0.2295949931986266
-0.003794393054530988,0.2259086747301162
-0.003794223054530988,0.222123615588349
-0.003794053054530988,0.2183714700043226
-0.003793883054530988,0.2147838922090759
-0.003793713054530988,0.2117558448956622
-0.003793543054530988,0.2087277975822374
-0.003793373054530988,0.2056668367110636
-0.003793203054530988,0.2028362707441768
-0.003793033054530988,0.2003348403548253
-0.003792863054530988,0.1970434845793696
-0.003792693054530988,0.1957927693846988
-0.003792523054530988,0.1911190441835494
-0.003792353054530988,0.1883872188899211
-0.003792183054530988,0.1853262580187529
-0.003792013054530988,0.1818374208967642
-0.003791843054530988,0.1789081142566087
-0.003791673054530988,0.1758471533854404
-0.003791503054530988,0.1725228840522246
-0.003791333054530988,0.1696264909698236
-0.003791163054530988,0.1665655300986554
-0.003790993054530988,0.1636691370162487
-0.003790823054530988,0.1608714846071114
-0.003790653054530988,0.1577446966204341
-0.003790483054530988,0.1553749204621003
-0.003790313054530988,0.1522481324754174
-0.003790143054530988,0.149680874970562
-0.003789973054530988,0.1470477903501974
-0.003789803054530988,0.1441843108255509
-0.003789633054530988,0.1417487075517137
-0.003789463054530988,0.1395105856244038
-0.003789293054530988,0.137338290812603
-0.003789123054530988,0.1355280451361024
-0.003788953054530988,0.1330266147467516
-0.003788783054530988,0.1305910114729188
-0.003788613054530988,0.1285503708921363
-0.003788443054530988,0.1263780760803307
-0.003788273054530988,0.123744991459971
-0.003788103054530988,0.1215726966481702
-0.003787933054530988,0.119367488278611
-0.003787763054530988,0.1172610205823232
-0.003787593054530988,0.114529195288695
-0.003787423054530988,0.1122581598036259
-0.003787253054530988,0.1097238158565297
-0.003787083054530988,0.1073540396982015
-0.003786913054530988,0.1055437940216973
-0.003786743054530988,0.1035689805564275
-0.003786573054530988,0.1017258213221723
-0.003786403054530988,0.100211797665461
-0.003786233054530988,0.09929021804833504
-0.003786063054530988,0.09774328083387085
-0.003785893054530988,0.09688752833225021
-0.003785723054530988,0.09570264025308831
-0.003785553054530988,0.09464940640494249
-0.003785383054530988,0.09461649284718571
-0.003785213054530988,0.09339869121026931
-0.003785043054530988,0.09218088957335072
-0.003784873054530988,0.09135805062948539
-0.003784703054530988,0.09060103880113196
-0.003784533054530988,0.0898111134150226
-0.003784363054530988,0.08856039822035169
-0.003784193054530988,0.08704637456363978
-0.003784023054530988,0.08605896783100309
-0.003783853054530988,0.08490699330959568
-0.003783683054530988,0.08352462388390219
-0.003783513054530988,0.08204351378494712
-0.003783343054530988,0.07875215800949738
-0.003783173054530988,0.07918003426030065
-0.003783003054530988,0.07773183771910014
-0.003782833054530988,0.07605324627362078
-0.003782663054530988,0.07424300059711708
-0.003782493054530988,0.07246566847837099
-0.003782323054530988,0.07032628722432868
-0.003782153054530988,0.0687793500098606
-0.003781983054530988,0.0667057958713235
-0.003781813054530988,0.06486263663707167
-0.003781643054530988,0.06331569942260412
-0.003781473054530988,0.06190041643915816
-0.003781303054530988,0.05972812162736135
-0.003781133054530988,0.05844449287492967
-0.003780963054530988,0.05693046921822004
-0.003780793054530988,0.05594306248558512
-0.003780623054530988,0.05456069305989193
-0.003780453054530988,0.05347454565399155
-0.003780283054530988,0.05219091690156616
-0.003780113054530988,0.05146681863096356
-0.003779943054530988,0.05097311526464521
-0.003779773054530988,0.05044649834057229
-0.003779603054530988,0.05018318987853584
-0.003779433054530988,0.04995279497425394
-0.003779263054530988,0.04952491872344469
-0.003779093054530988,0.04968948651221747
-0.003778923054530988,0.04952491872344469
-0.003778753054530988,0.04949200516569013
-0.003778583054530988,0.04893247468386266
-0.003778413054530988,0.04922869670365368
-0.003778243054530988,0.04850459843305342
-0.003778073054530988,0.04857042554856254
-0.003777903054530988,0.04857042554856254
-0.003777733054530988,0.04886664756835355
-0.003777563054530988,0.04834003064427991
-0.003777393054530988,0.04794506795122595
-0.003777223054530988,0.04804380862448962
-0.003777053054530988,0.04797798150897799
-0.003776883054530988,0.04659561208328911
-0.003776713054530988,0.04672726631430734
-0.003776543054530988,0.0456411189084063
-0.003776373054530988,0.04527906977310683
-0.003776203054530988,0.04422583592496099
-0.003776033054530988,0.04337008342334101
-0.003775863054530988,0.04254724447947859
-0.003775693054530988,0.04136235640031453
-0.003775523054530988,0.04027620899441307
-0.003775353054530988,0.03968376495483212
-0.003775183054530988,0.03856470399117717
-0.003775013054530988,0.03803808706710306
-0.003774843054530988,0.03737981591201312
-0.003774673054530988,0.03658989052590375
-0.003774503054530988,0.03599744648632083
-0.003774333054530988,0.03550374312000337
-0.003774163054530988,0.0352404346579669
-0.003773993054530988,0.03533917533122878
-0.003773823054530988,0.03435176859859387
-0.003773653054530988,0.0337922381167664
-0.003773483054530988,0.03293648561514947
-0.003773313054530988,0.03260735003760234
-0.003773143054530988,0.03191616532475664
-0.003772973054530988,0.03194907888251113
-0.003772803054530988,0.03142246195843829
-0.003772633054530988,0.03106041282313815
-0.003772463054530988,0.03066545013008419
-0.003772293054530988,0.03017174676376511
-0.003772123054530988,0.02984261118621954
-0.003771953054530988,0.02961221628193806
-0.003771783054530988,0.02888811801133739
-0.003771613054530988,0.02859189599154637
-0.003771443054530988,0.02832858752951039
-0.003771273054530988,0.02770322993217333
-0.003771103054530988,0.02684747743055485
-0.003770933054530988,0.02674873675729135
-0.003770763054530988,0.0259588113711818
-0.003770593054530988,0.02612337915995459
-0.003770423054530988,0.02464226906100221
-0.003770253054530988,0.02523471310058155
-0.003770083054530988,0.02497140463854509
-0.003769913054530988,0.02516888598507207
-0.003769743054530988,0.02342446742408091
-0.003769573054530988,0.02467518261875408
-0.003769403054530988,0.02523471310058155
-0.003769233054530988,0.02507014531180876
-0.003769063054530988,0.0248068368497723
-0.003768893054530988,0.02516888598507243
-0.003768723054530988,0.02536636733159978
-0.003768553054530988,0.02490557752303598
-0.003768383054530988,0.0252676266583361
-0.003768213054530988,0.025498021562618
-0.003768043054530988,0.02500431819629965
-0.003767873054530988,0.02474100973426319
-0.003767703054530988,0.02507014531180894
-0.003767533054530988,0.02516888598507243
-0.003767363054530988,0.0248068368497723
-0.003767193054530988,0.02460935550324466
-0.003767023054530988,0.02444478771447217
-0.003766853054530988,0.02441187415671762
-0.003766683054530988,0.0248726639652819
-0.003766513054530988,0.02513597242731788
-0.003766343054530988,0.02556384867812712
-0.003766173054530988,0.02576133002465458
-0.003766003054530988,0.02582715714016358
-0.003765833054530988,0.02576133002465446
-0.003765663054530988,0.02562967579363557
-0.003765493054530988,0.0252676266583361
-0.003765323054530988,0.02470809617650863
-0.003765153054530988,0.02428021992569855
-0.003764983054530988,0.02381943011713559
-0.003764813054530988,0.02316115896204445
-0.003764643054530988,0.02266745559572082
-0.003764473054530988,0.01977106251332507
-0.003764303054530988,0.0210546912657528
-0.003764133054530988,0.01967232184005954
-0.003763963054530988,0.01865200154967013
-0.003763793054530988,0.01773042193254253
-0.003763623054530988,0.01723671856622297
-0.003763453054530988,0.01657844741113303
-0.003763283054530988,0.01559104067849632
-0.003763113054530988,0.0146036339458614
-0.003762943054530988,0.0141428441372958
-0.003762773054530988,0.01371496788648656
-0.003762603054530988,0.01387953567525904
-0.003762433054530988,0.01338583230894099
-0.003762263054530988,0.01364914077097745
-0.003762093054530988,0.01368205432873194
-0.003761923054530988,0.0139124492330139
-0.003761753054530988,0.01443906615708682
-0.003761583054530988,0.01424158481055983
-0.003761413054530988,0.01466946106136872
-0.003761243054530988,0.01453780683035049
-0.003761073054530988,0.01463654750361398
-0.003760903054530988,0.0146036339458596
-0.003760733054530988,0.01496568308115973
-0.003760563054530988,0.01480111529238724
-0.003760393054530988,0.0150644237544234
-0.003760223054530988,0.01509733731217796
-0.003760053054530988,0.0157226949095134
-0.003759883054530988,0.01562395423625087
-0.003759713054530988,0.01585434914053277
-0.003759543054530988,0.01641387962235923
-0.003759373054530988,0.01674301519990581
-0.003759203054530988,0.0171379778929605
-0.003759033054530988,0.01736837279724198
-0.003758863054530988,0.01687466943092404
-0.003758693054530988,0.01684175587316948
-0.003758523054530988,0.01684175587316948
-0.003758353054530988,0.01664427452664214
-0.003758183054530988,0.01651262029562391
-0.003758013054530988,0.01624931183358745
-0.003757843054530988,0.01588726269828733
-0.003757673054530988,0.01618348471807834
-0.003757503054530988,0.01618348471807834
-0.003757333054530988,0.01624931183358775
-0.003757163054530988,0.01641387962236024
-0.003756993054530988,0.01631513894909657
-0.003756823054530988,0.01703923721969665
-0.003756653054530988,0.01694049654643316
-0.003756483054530988,0.01700632366194227
-0.003756313054530988,0.01743419991275091
-0.003756143054530988,0.01710506433520594
-0.003755973054530988,0.01710506433520594
-0.003755803054530988,0.01789498972131423
-0.003755633054530988,0.01730254568173328
-0.003755463054530988,0.01726963212397873
-0.003755293054530988,0.01680884231541451
-0.003755123054530988,0.01657844741113303
-0.003754953054530988,0.01457072038810504
-0.003754783054530988,0.0164467931801121
-0.003754613054530988,0.01496568308115973
-0.003754443054530988,0.01522899154319619
-0.003754273054530988,0.01453780683035019
-0.003754103054530988,0.0143732390415777
-0.003753933054530988,0.01443906615708682
-0.003753763054530988,0.01430741192606865
-0.003753593054530988,0.01434032548382314
-0.003753423054530988,0.01450489327259593
-0.003753253054530988,0.01397827634852206
-0.003753083054530988,0.0134516594244501
-0.003752913054530988,0.01355040009771377
-0.003752743054530988,0.01368205432873176
-0.003752573054530988,0.01315543740465909
-0.003752403054530988,0.01302378317364086
-0.003752233054530988,0.01302378317364086
-0.003752063054530988,0.01282630182711352
-0.003751893054530988,0.01233259846079516
-0.003751723054530988,0.01249716624956765
-0.003751553054530988,0.01239842557630427
-0.003751383054530988,0.01259590692283162
-0.003751213054530988,0.01266173403834061
-0.003751043054530988,0.0127604747116044
-0.003750873054530988,0.0129908696158863
-0.003750703054530988,0.01308961028914979
-0.003750533054530988,0.01332000519343187
-0.003750363054530988,0.01401118990627757
-0.003750193054530988,0.01325417807792414
-0.003750023054530988,0.01434032548382314
-0.003749853054530988,0.01420867125280492
-0.003749683054530988,0.01447197971484089
-0.003749513054530988,0.01476820173463239
-0.003749343054530988,0.01499859663891429
-0.003749173054530988,0.01476820173463281
-0.003749003054530988,0.0148340288501415
-0.003748833054530988,0.01387953567525935
-0.003748663054530988,0.01414284413729532
-0.003748493054530988,0.01371496788648656
-0.003748323054530988,0.01371496788648656
-0.003748153054530988,0.0139124492330139
-0.003747983054530988,0.01397827634852302
-0.003747813054530988,0.01378079500199567
-0.003747643054530988,0.01420867125280492
-0.003747473054530988,0.01463654750361416
-0.003747303054530988,0.01466946106136872
-0.003747133054530988,0.01509733731217796
-0.003746963054530988,0.01509733731217796
-0.003746793054530988,0.01526190510095074
-0.003746623054530988,0.01542647288972353
-0.003746453054530988,0.01552521356298612
-0.003746283054530988,0.01493276952340517
-0.003746113054530988,0.0146036339458596
-0.003745943054530988,0.01401118990627638
-0.003745773054530988,0.01335291875118643
-0.003745603054530988,0.01121353749714022
-0.003745433054530988,0.01295795605812923
-0.003745263054530988,0.01157558663244035
-0.003745093054530988,0.01118062393938566
-0.003744923054530988,0.01111479682387649
-0.003744753054530988,0.01108188326612199
-0.003744583054530988,0.01131227817040389
-0.003744413054530988,0.01150975951693177
-0.003744243054530988,0.01180598153672225
-0.003744073054530988,0.01216803067202238
-0.003743903054530988,0.01229968490304162
-0.003743733054530988,0.01285921538486808
-0.003743563054530988,0.01335291875118643
-0.003743393054530988,0.01364914077097816
-0.003743223054530988,0.01404410346403213
-0.003743053054530988,0.01443906615708682
-0.003742883054530988,0.01499859663891513
-0.003742713054530988,0.01545938644747809
-0.003742543054530988,0.0157556084672691
-0.003742373054530988,0.01605183048706035
-0.003742203054530988,0.01618348471807834
-0.003742033054530988,0.01657844741113303
-0.003741863054530988,0.01592017625604308
-0.003741693054530988,0.01684175587316948
-0.003741523054530988,0.01700632366194227
-0.003741353054530988,0.01710506433520576
-0.003741183054530988,0.01677592875766037
-0.003741013054530988,0.01710506433520594
-0.003740843054530988,0.01703923721969695
-0.003740673054530988,0.0166771880843967
-0.003740503054530988,0.01631513894909657
-0.003740333054530988,0.01588726269828811
-0.003740163054530988,0.0162163982758329
-0.003739993054530988,0.01578852202502366
-0.003739823054530988,0.01592017625604165
-0.003739653054530988,0.01522899154319619
-0.003739483054530988,0.01499859663891429
-0.003739313054530988,0.01470237461912381
-0.003739143054530988,0.01443906615708682
-0.003738973054530988,0.01463654750361416
-0.003738803054530988,0.0141428441372967
-0.003738633054530988,0.01371496788648656
-0.003738463054530988,0.0132212645201682
-0.003738293054530988,0.0132870916356772
-0.003738123054530988,0.01292504250037719
-0.003737953054530988,0.0127604747116044
-0.003737783054530988,0.01213511711426896
-0.003737613054530988,0.01187180865223136
-0.003737443054530988,0.01213511711426782
-0.003737273054530988,0.01174015442121313
-0.003737103054530988,0.01203637644100415
-0.003736933054530988,0.01210220355651326
-0.003736763054530988,0.01210220355651326
-0.003736593054530988,0.01190472220998592
-0.003736423054530988,0.01177306797896769
-0.003736253054530988,0.01213511711426782
-0.003736083054530988,0.009798254513698694
-0.003735913054530988,0.01223385778753149
-0.003735743054530988,0.01243133913405883
-0.003735573054530988,0.01200346288325025
-0.003735403054530988,0.01236551201854972
-0.003735233054530988,0.01249716624956795
-0.003735063054530988,0.01305669673139542
-0.003734893054530988,0.01305669673139542
-0.003734723054530988,0.0134516594244501
-0.003734553054530988,0.01332000519343199
-0.003734383054530988,0.01338583230894099
-0.003734213054530988,0.01361622721322289
-0.003734043054530988,0.0132870916356775
-0.003733873054530988,0.01338583230894099
-0.003733703054530988,0.0132212645201682
-0.003733533054530988,0.01295795605813151
-0.003733363054530988,0.01282630182711352
-0.003733193054530988,0.01236551201854972
-0.003733023054530988,0.01108188326612175
-0.003732853054530988,0.01095022903510376
-0.003732683054530988,0.01075274768857642
-0.003732513054530988,0.00973242739818515
-0.003732343054530988,0.00973242739818515
-0.003732173054530988,0.009600773167166921
-0.003732003054530988,0.009107069800847129
-0.003731833054530988,0.008317144414739193
-0.003731663054530988,0.008843761338812107
-0.003731493054530988,0.00930455114737507
-0.003731323054530988,0.008777934223302994
-0.003731153054530988,0.009962822302467049
-0.003730983054530988,0.01029195788001202
-0.003730813054530988,0.01048943922653996
-0.003730643054530988,0.01085148836184009
-0.003730473054530988,0.01114771038163057
-0.003730303054530988,0.01095022903510376
-0.003730133054530988,0.01177306797896769
-0.003729963054530988,0.01220094422977615
-0.003729793054530988,0.01210220355651326
-0.003729623054530988,0.01243133913405883
-0.003729453054530988,0.01223385778753185
-0.003729283054530988,0.01239842557630427
-0.003729113054530988,0.01279338826935896
-0.003728943054530988,0.01315543740465843
-0.003728773054530988,0.01315543740465909
-0.003728603054530988,0.01328709163567732
-0.003728433054530988,0.01335291875118631
-0.003728263054530988,0.01332000519343187
-0.003728093054530988,0.01348457298220466
-0.003727923054530988,0.01341874586669567
-0.003727753054530988,0.01358331365546833
-0.003727583054530988,0.01312252384690453
-0.003727413054530988,0.01332000519343151
-0.003727243054530988,0.01358331365546833
-0.003727073054530988,0.01397827634852302
-0.003726903054530988,0.01424158481055947
-0.003726733054530988,0.013682054328732
-0.003726563054530988,0.0157556084672691
-0.003726393054530988,0.01582143558277821
-0.003726223054530988,0.01588726269828733
-0.003726053054530988,0.01618348471807834
-0.003725883054530988,0.01601891692930556
-0.003725713054530988,0.01611765760256923
-0.003725543054530988,0.01601891692930556
-0.003725373054530988,0.01628222539134202
-0.003725203054530988,0.01601891692930466
-0.003725033054530988,0.0155252135629872
-0.003724863054530988,0.01489985596565062
-0.003724693054530988,0.01486694240789384
-0.003724523054530988,0.01364914077097745
-0.003724353054530988,0.01312252384690453
-0.003724183054530988,0.01249716624956657
-0.003724013054530988,0.01174015442121313
-0.003723843054530988,0.01104896970836743
-0.003723673054530988,0.01137810528591205
-0.003723503054530988,0.01085148836184009
-0.003723333054530988,0.01045652566878541
-0.003723163054530988,0.009534946051658227
-0.003722993054530988,0.009765340955939707
-0.003722823054530988,0.01081857480408553
-0.003722653054530988,0.00946911893614953
-0.003722483054530988,0.009929908744712493
-0.003722313054530988,0.01009447653348528
-0.003722143054530988,0.01098314259285952
-0.003721973054530988,0.01164141374794946
-0.003721803054530988,0.01147684595917668
-0.003721633054530988,0.0119376357677409
-0.003721463054530988,0.01216803067202238
-0.003721293054530988,0.01262882048058617
-0.003721123054530988,0.0129908696158869
-0.003720953054530988,0.01332000519343187
-0.003720783054530988,0.01341874586669555
-0.003720613054530988,0.01387953567525851
-0.003720443054530988,0.01394536279076846
-0.003720273054530988,0.01430741192606859
-0.003720103054530988,0.01394536279076912
-0.003719933054530988,0.01463654750361416
-0.003719763054530988,0.0143732390415777
-0.003719593054530988,0.01394536279076924
-0.003719423054530988,0.01374788144424112
-0.003719253054530988,0.01302378317364086
-0.003719083054530988,0.0124971662495689
-0.003718913054530988,0.0120692899987587
