Analysis/New Tests_CMB/wrd01_d2s01_new/cmb07_ch02.csv

#Digilent WaveForms Oscilloscope Acquisition
#Device Name: ADP3450
#Serial Number: SN:210018B9D9B0
#Date Time: 2024-08-15 12:18:48.102.837.630
#Sample rate: 5.88235e+06Hz
#Samples: 32768
#Trigger: Source: Channel 3 Type: Edge Condition: Rising Level: 40 mV Hyst.: Auto HoldOff: 0 s
#Channel 3: Range: 100 mV/div Offset: 0 V Attenuation: 1 X Coupling: DC Bandwidth: 0 Hz Sample Mode: Average

Time (s),Channel 3 (V)
-0.003168965921332092,0.02954638916642853
-0.003168795921332092,0.02948056205091774
-0.003168625921332092,0.02855898243379182
-0.003168455921332092,0.02832858752950991
-0.003168285921332092,0.02790071127869977
-0.003168115921332092,0.02740700791238232
-0.003167945921332092,0.02730826723911865
-0.003167775921332092,0.02711078589259166
-0.003167605921332092,0.02730826723911865
-0.003167435921332092,0.0271107858925913
-0.003167265921332092,0.02668290964178134
-0.003167095921332092,0.02628794694872737
-0.003166925921332092,0.02569550290914535
-0.003166755921332092,0.02559676223588114
-0.003166585921332092,0.02530054021609066
-0.003166415921332092,0.0259588113711818
-0.003166245921332092,0.02579424358240974
-0.003166075921332092,0.0261892062754637
-0.003165905921332092,0.02651834185300928
-0.003165735921332092,0.02691330454606372
-0.003165565921332092,0.02678165031504573
-0.003165395921332092,0.02786779772094612
-0.003165225921332092,0.02796653839420961
-0.003165055921332092,0.02750574858564599
-0.003164885921332092,0.02865772310705549
-0.003164715921332092,0.02911851291561844
-0.003164545921332092,0.02885520445358283
-0.003164375921332092,0.02882229089582827
-0.003164205921332092,0.02842732820277431
-0.003164035921332092,0.02763740281666422
-0.003163865921332092,0.02783488416319156
-0.003163695921332092,0.02717661300810161
-0.003163525921332092,0.02681456387280029
-0.003163355921332092,0.02658416896851839
-0.003163185921332092,0.02615629271770992
-0.003163015921332092,0.02500431819629965
-0.003162845921332092,0.02520179954282699
-0.003162675921332092,0.02480683684977302
-0.003162505921332092,0.02431313348345395
-0.003162335921332092,0.02230540646042596
-0.003162165921332092,0.02319407251979739
-0.003161995921332092,0.02243706069144419
-0.003161825921332092,0.02141674040105292
-0.003161655921332092,0.02065972857269949
-0.003161485921332092,0.01980397607107963
-0.003161315921332092,0.01924444558925215
-0.003161145921332092,0.01861908799191671
-0.003160975921332092,0.01815829818335177
-0.003160805921332092,0.01750002702826063
-0.003160635921332092,0.01730254568173328
-0.003160465921332092,0.01726963212397873
-0.003160295921332092,0.01717089145071506
-0.003160125921332092,0.01720380500846961
-0.003159955921332092,0.0173683727972424
-0.003159785921332092,0.01720380500846961
-0.003159615921332092,0.01740128635499695
-0.003159445921332092,0.01723671856622387
-0.003159275921332092,0.01707215077745139
-0.003159105921332092,0.0173683727972424
-0.003158935921332092,0.01723671856622537
-0.003158765921332092,0.01789498972131531
-0.003158595921332092,0.01802664395233354
-0.003158425921332092,0.01822412529886094
-0.003158255921332092,0.01825703885661544
-0.003158085921332092,0.01819121174110632
-0.003157915921332092,0.01799373039457845
-0.003157745921332092,0.01769750837478797
-0.003157575921332092,0.01730254568173328
-0.003157405921332092,0.01726963212397849
-0.003157235921332092,0.0171379778929605
-0.003157065921332092,0.01710506433520594
-0.003156895921332092,0.01713797789296002
-0.003156725921332092,0.01687466943092404
-0.003156555921332092,0.0169075829886786
-0.003156385921332092,0.01624931183358787
-0.003156215921332092,0.01647970673786936
-0.003156045921332092,0.01687466943092404
-0.003155875921332092,0.01654553385337895
-0.003155705921332092,0.01680884231541493
-0.003155535921332092,0.01710506433520594
-0.003155365921332092,0.01746711347050487
-0.003155195921332092,0.01680884231541493
-0.003155025921332092,0.01707215077745139
-0.003154855921332092,0.01674301519990641
-0.003154685921332092,0.0169075829886786
-0.003154515921332092,0.01707215077745139
-0.003154345921332092,0.01736837279724186
-0.003154175921332092,0.01753294058601518
-0.003154005921332092,0.0175987677015243
-0.003153835921332092,0.01809247106784176
-0.003153665921332092,0.0185203473186519
-0.003153495921332092,0.01871782866517924
-0.003153325921332092,0.01947484049353268
-0.003153155921332092,0.01973814895557051
-0.003152985921332092,0.02039642011066165
-0.003152815921332092,0.02246997424919498
-0.003152645921332092,0.02125217261228014
-0.003152475921332092,0.02227249290267141
-0.003152305921332092,0.02210792511389892
-0.003152135921332092,0.02240414713368964
-0.003151965921332092,0.02204209799838951
-0.003151795921332092,0.02164713530533554
-0.003151625921332092,0.02144965395880748
-0.003151455921332092,0.02102177770799824
-0.003151285921332092,0.02033059299515379
-0.003151115921332092,0.02003437097536152
-0.003150945921332092,0.01898113712721569
-0.003150775921332092,0.01825703885661676
-0.003150605921332092,0.01819121174110632
-0.003150435921332092,0.01720380500846961
-0.003150265921332092,0.01684175587316948
-0.003150095921332092,0.0164467931801148
-0.003149925921332092,0.0162163982758329
-0.003149755921332092,0.01588726269828733
-0.003149585921332092,0.01555812712074176
-0.003149415921332092,0.01582143558277821
-0.003149245921332092,0.01542647288972353
-0.003149075921332092,0.01539355933196897
-0.003148905921332092,0.01519607798544163
-0.003148735921332092,0.01473528817687783
-0.003148565921332092,0.01430741192606853
-0.003148395921332092,0.01427449836831403
-0.003148225921332092,0.0139124492330139
-0.003148055921332092,0.01394536279076792
-0.003147885921332092,0.01364914077097745
-0.003147715921332092,0.01457072038810504
-0.003147545921332092,0.01401118990627877
-0.003147375921332092,0.01466946106136872
-0.003147205921332092,0.01493276952340517
-0.003147035921332092,0.01509733731217999
-0.003146865921332092,0.0162163982758329
-0.003146695921332092,0.01654553385337847
-0.003146525921332092,0.01763168125927963
-0.003146355921332092,0.0180595575100881
-0.003146185921332092,0.01819121174110632
-0.003146015921332092,0.0184216066453881
-0.003145845921332092,0.01835577952987911
-0.003145675921332092,0.01842160664538823
-0.003145505921332092,0.01769750837478719
-0.003145335921332092,0.01726963212397873
-0.003145165921332092,0.01687466943092404
-0.003144995921332092,0.0162822253913404
-0.003144825921332092,0.01539355933196897
-0.003144655921332092,0.01522899154319619
-0.003144485921332092,0.01453780683034965
-0.003144315921332092,0.01407701702178669
-0.003144145921332092,0.01318835096241365
-0.003143975921332092,0.01315543740465915
-0.003143805921332092,0.01249716624956795
-0.003143635921332092,0.01239842557630427
-0.003143465921332092,0.01170724086345983
-0.003143295921332092,0.01200346288324959
-0.003143125921332092,0.01279338826935896
-0.003142955921332092,0.01318835096241293
-0.003142785921332092,0.01371496788648656
-0.003142615921332092,0.01397827634852302
-0.003142445921332092,0.01437323904157698
-0.003142275921332092,0.01476820173463239
-0.003142105921332092,0.01549230000523264
-0.003141935921332092,0.01506442375442418
-0.003141765921332092,0.01545938644747809
-0.003141595921332092,0.01559104067849632
-0.003141425921332092,0.01552521356298732
-0.003141255921332092,0.01539355933196897
-0.003141085921332092,0.01539355933196897
-0.003140915921332092,0.01513025086993299
-0.003140745921332092,0.01499859663891429
-0.003140575921332092,0.01473528817687783
-0.003140405921332092,0.01460363394585984
-0.003140235921332092,0.01397827634852302
-0.003140065921332092,0.01387953567525935
-0.003139895921332092,0.013682054328732
-0.003139725921332092,0.01341874586669555
-0.003139555921332092,0.01371496788648656
-0.003139385921332092,0.01351748653995922
-0.003139215921332092,0.0139124492330139
-0.003139045921332092,0.01417575769505036
-0.003138875921332092,0.01440615259933226
-0.003138705921332092,0.01420867125280492
-0.003138535921332092,0.01430741192606859
-0.003138365921332092,0.01394536279076846
-0.003138195921332092,0.0141757576950512
-0.003138025921332092,0.01463654750361416
-0.003137855921332092,0.01499859663891429
-0.003137685921332092,0.01476820173463328
-0.003137515921332092,0.01526190510095074
-0.003137345921332092,0.01526190510095074
-0.003137175921332092,0.01526190510095086
-0.003137005921332092,0.01532773221645986
-0.003136835921332092,0.01565686779400543
-0.003136665921332092,0.01601891692930514
-0.003136495921332092,0.01578852202502366
-0.003136325921332092,0.01618348471807834
-0.003136155921332092,0.01605183048706059
-0.003135985921332092,0.01631513894909657
-0.003135815921332092,0.01638096606460569
-0.003135645921332092,0.01634805250685149
-0.003135475921332092,0.01654553385337847
-0.003135305921332092,0.01608474404481467
-0.003135135921332092,0.0155910406784962
-0.003134965921332092,0.0155252135629872
-0.003134795921332092,0.01499859663891429
-0.003134625921332092,0.01447197971484095
-0.003134455921332092,0.01424158481055947
-0.003134285921332092,0.01457072038810504
-0.003134115921332092,0.0137807950019922
-0.003133945921332092,0.01187180865223136
-0.003133775921332092,0.01381370855975023
-0.003133605921332092,0.01381370855975023
-0.003133435921332092,0.0132212645201682
-0.003133265921332092,0.01325417807792276
-0.003133095921332092,0.01335291875118625
-0.003132925921332092,0.01335291875118643
-0.003132755921332092,0.0141428441372958
-0.003132585921332092,0.01437323904157728
-0.003132415921332092,0.01470237461912327
-0.003132245921332092,0.01509733731217796
-0.003132075921332092,0.01598600337154938
-0.003131905921332092,0.01641387962236024
-0.003131735921332092,0.01697341010418771
-0.003131565921332092,0.01720380500846919
-0.003131395921332092,0.01769750837478797
-0.003131225921332092,0.01822412529886088
-0.003131055921332092,0.01852034731865136
-0.003130885921332092,0.01865200154967013
-0.003130715921332092,0.01838869308763367
-0.003130545921332092,0.01861908799191515
-0.003130375921332092,0.0180595575100881
-0.003130205921332092,0.01828995241437
-0.003130035921332092,0.01848743376089698
-0.003129865921332092,0.01845452020314278
-0.003129695921332092,0.0180595575100881
-0.003129525921332092,0.01753294058601614
-0.003129355921332092,0.0173683727972424
-0.003129185921332092,0.01664427452664214
-0.003129015921332092,0.01615057116032378
-0.003128845921332092,0.01618348471807834
-0.003128675921332092,0.01592017625604189
-0.003128505921332092,0.01513025086993251
-0.003128335921332092,0.01532773221645986
-0.003128165921332092,0.01539355933196897
-0.003127995921332092,0.01555812712074176
-0.003127825921332092,0.01522899154319667
-0.003127655921332092,0.01549230000523264
-0.003127485921332092,0.01559104067849632
-0.003127315921332092,0.01575560846726952
-0.003127145921332092,0.015986003371551
-0.003126975921332092,0.0162163982758329
-0.003126805921332092,0.01631513894909657
-0.003126635921332092,0.01631513894909657
-0.003126465921332092,0.01611765760256923
-0.003126295921332092,0.0157885220250236
-0.003126125921332092,0.0157556084672691
-0.003125955921332092,0.01496568308115973
-0.003125785921332092,0.01486694240789546
-0.003125615921332092,0.01453780683035049
-0.003125445921332092,0.01417575769505036
-0.003125275921332092,0.01394536279076846
-0.003125105921332092,0.01394536279076846
-0.003124935921332092,0.01401118990627757
-0.003124765921332092,0.01424158481056073
-0.003124595921332092,0.01493276952340517
-0.003124425921332092,0.01628222539134202
-0.003124255921332092,0.01526190510095116
-0.003124085921332092,0.01549230000523264
-0.003123915921332092,0.01536064577421441
-0.003123745921332092,0.01575560846726904
-0.003123575921332092,0.01572269490951454
-0.003123405921332092,0.0157556084672691
-0.003123235921332092,0.01588726269828709
-0.003123065921332092,0.0155252135629872
-0.003122895921332092,0.01624931183358745
-0.003122725921332092,0.01575560846727
-0.003122555921332092,0.01562395423625087
-0.003122385921332092,0.01549230000523264
-0.003122215921332092,0.01503151019666968
-0.003122045921332092,0.01503151019666884
-0.003121875921332092,0.01430741192606859
-0.003121705921332092,0.01394536279076912
-0.003121535921332092,0.01315543740465909
-0.003121365921332092,0.01279338826935896
-0.003121195921332092,0.01249716624956849
-0.003121025921332092,0.01216803067202238
-0.003120855921332092,0.0120692899987587
-0.003120685921332092,0.01177306797896823
-0.003120515921332092,0.01200346288324959
-0.003120345921332092,0.01233259846079516
-0.003120175921332092,0.01262882048058563
-0.003120005921332092,0.01302378317364086
-0.003119835921332092,0.01341874586669555
-0.003119665921332092,0.01384662211750401
-0.003119495921332092,0.01457072038810504
-0.003119325921332092,0.01447197971484137
-0.003119155921332092,0.01394536279076942
-0.003118985921332092,0.01496568308115973
-0.003118815921332092,0.01509733731217796
-0.003118645921332092,0.01568978135175999
-0.003118475921332092,0.01618348471807834
-0.003118305921332092,0.01615057116032378
-0.003118135921332092,0.01578852202502366
-0.003117965921332092,0.01595308981379644
-0.003117795921332092,0.0169075829886786
-0.003117625921332092,0.01684175587316948
-0.003117455921332092,0.01671010164215126
-0.003117285921332092,0.01654553385337847
-0.003117115921332092,0.01710506433520594
-0.003116945921332092,0.01684175587316901
-0.003116775921332092,0.01657844741113303
-0.003116605921332092,0.01687466943092404
-0.003116435921332092,0.01628222539134124
-0.003116265921332092,0.01585434914053277
-0.003116095921332092,0.01562395423625087
-0.003115925921332092,0.01522899154319595
-0.003115755921332092,0.01509733731217796
-0.003115585921332092,0.01499859663891429
-0.003115415921332092,0.01470237461912309
-0.003115245921332092,0.0146036339458596
-0.003115075921332092,0.01420867125280492
-0.003114905921332092,0.01526190510095026
-0.003114735921332092,0.01499859663891429
-0.003114565921332092,0.01489985596565062
-0.003114395921332092,0.01539355933196915
-0.003114225921332092,0.01549230000523264
-0.003114055921332092,0.01588726269828733
-0.003113885921332092,0.01608474404481545
-0.003113715921332092,0.01651262029562391
-0.003113545921332092,0.01664427452664214
-0.003113375921332092,0.01687466943092446
-0.003113205921332092,0.01710506433520594
-0.003113035921332092,0.01743419991275151
-0.003112865921332092,0.01773042193254324
-0.003112695921332092,0.01812538462559721
-0.003112525921332092,0.01832286597212456
-0.003112355921332092,0.01812538462559757
-0.003112185921332092,0.01750002702826063
-0.003112015921332092,0.01717089145071506
-0.003111845921332092,0.01624931183358913
-0.003111675921332092,0.01572269490951454
-0.003111505921332092,0.01519607798544163
-0.003111335921332092,0.01506442375442364
-0.003111165921332092,0.01476820173463239
-0.003110995921332092,0.0150644237544234
-0.003110825921332092,0.01549230000523186
-0.003110655921332092,0.01562395423625087
-0.003110485921332092,0.01568978135175999
-0.003110315921332092,0.01598600337155046
-0.003110145921332092,0.01608474404481467
-0.003109975921332092,0.01641387962236024
-0.003109805921332092,0.01651262029562373
-0.003109635921332092,0.01671010164215126
-0.003109465921332092,0.01710506433520594
-0.003109295921332092,0.01720380500846943
-0.003109125921332092,0.01717089145071506
-0.003108955921332092,0.01710506433520594
-0.003108785921332092,0.01694049654643345
-0.003108615921332092,0.0169075829886786
-0.003108445921332092,0.01697341010418771
-0.003108275921332092,0.01677592875766073
-0.003108105921332092,0.0171379778929605
-0.003107935921332092,0.01684175587316948
-0.003107765921332092,0.01710506433520594
-0.003107595921332092,0.01697341010418771
-0.003107425921332092,0.01684175587316948
-0.003107255921332092,0.01694049654643316
-0.003107085921332092,0.01730254568173328
-0.003106915921332092,0.01776333549029708
-0.003106745921332092,0.01825703885661544
-0.003106575921332092,0.01825703885661622
-0.003106405921332092,0.01868491510742468
-0.003106235921332092,0.01855326087640645
-0.003106065921332092,0.01822412529886052
-0.003105895921332092,0.01802664395233354
-0.003105725921332092,0.01786207616356076
-0.003105555921332092,0.01904696424272176
-0.003105385921332092,0.0173683727972424
-0.003105215921332092,0.01687466943092404
-0.003105045921332092,0.01710506433520475
-0.003104875921332092,0.0164467931801148
-0.003104705921332092,0.01595308981379644
-0.003104535921332092,0.01526190510094991
-0.003104365921332092,0.01480111529238694
-0.003104195921332092,0.01430741192606859
-0.003104025921332092,0.01371496788648572
-0.003103855921332092,0.01325417807792276
-0.003103685921332092,0.01292504250037719
-0.003103515921332092,0.01216803067202219
-0.003103345921332092,0.0120692899987587
-0.003103175921332092,0.01150975951693123
-0.003103005921332092,0.01154267307468603
-0.003102835921332092,0.01167432730570402
-0.003102665921332092,0.01200346288324959
-0.003102495921332092,0.01206928999875882
-0.003102325921332092,0.01213511711426782
-0.003102155921332092,0.01259590692283162
-0.003101985921332092,0.0128263018271131
-0.003101815921332092,0.01305669673139542
-0.003101645921332092,0.01384662211750479
-0.003101475921332092,0.01450489327259473
-0.003101305921332092,0.0146036339458596
-0.003101135921332092,0.01542647288972353
-0.003100965921332092,0.01588726269828649
-0.003100795921332092,0.01605183048706011
-0.003100625921332092,0.0164467931801148
-0.003100455921332092,0.01703923721969575
-0.003100285921332092,0.01703923721969683
-0.003100115921332092,0.01726963212397873
-0.003099945921332092,0.01717089145071524
-0.003099775921332092,0.0173683727972424
-0.003099605921332092,0.01756585414376974
-0.003099435921332092,0.01766459481703323
-0.003099265921332092,0.0173683727972424
-0.003099095921332092,0.01720380500846961
-0.003098925921332092,0.01726963212397861
-0.003098755921332092,0.0171379778929605
-0.003098585921332092,0.01766459481703341
-0.003098415921332092,0.01756585414376992
-0.003098245921332092,0.01769750837478797
-0.003098075921332092,0.01776333549029708
-0.003097905921332092,0.01796081683682407
-0.003097735921332092,0.01789498972131531
-0.003097565921332092,0.01828995241437
-0.003097395921332092,0.01776333549029708
-0.003097225921332092,0.01753294058601518
-0.003097055921332092,0.01723671856622417
-0.003096885921332092,0.01641387962236024
-0.003096715921332092,0.01585434914053277
-0.003096545921332092,0.01522899154319619
-0.003096375921332092,0.01453780683035049
-0.003096205921332092,0.01427449836831403
-0.003096035921332092,0.01443906615708682
-0.003095865921332092,0.01358331365546833
-0.003095695921332092,0.01315543740465921
-0.003095525921332092,0.0132212645201682
-0.003095355921332092,0.01355040009771377
-0.003095185921332092,0.01384662211750545
-0.003095015921332092,0.01420867125280492
-0.003094845921332092,0.01499859663891429
-0.003094675921332092,0.01575560846727
-0.003094505921332092,0.01624931183358745
-0.003094335921332092,0.01631513894909657
-0.003094165921332092,0.01707215077745013
-0.003093995921332092,0.01638096606460569
-0.003093825921332092,0.0162163982758329
-0.003093655921332092,0.01582143558277636
-0.003093485921332092,0.01480111529238694
-0.003093315921332092,0.01384662211750479
-0.003093145921332092,0.01345165942444831
-0.003092975921332092,0.01246425269181339
-0.003092805921332092,0.01226677134528605
-0.003092635921332092,0.01118062393938524
-0.003092465921332092,0.01095022903510376
-0.003092295921332092,0.01032487143776718
-0.003092125921332092,0.01052235278429458
-0.003091955921332092,0.01055526634204908
-0.003091785921332092,0.01088440191959465
-0.003091615921332092,0.01101605615061318
-0.003091445921332092,0.01118062393938566
-0.003091275921332092,0.01164141374794946
-0.003091105921332092,0.01223385778753041
-0.003090935921332092,0.01285921538486808
-0.003090765921332092,0.01302378317364086
-0.003090595921332092,0.01341874586669483
-0.003090425921332092,0.01378079500199567
-0.003090255921332092,0.01371496788648656
-0.003090085921332092,0.01361622721322307
-0.003089915921332092,0.013682054328732
-0.003089745921332092,0.01358331365546833
