Analysis/New Tests_CMB/wrd01_d2s01_new/cmb06_ch24.csv

#Digilent WaveForms Oscilloscope Acquisition
#Device Name: ADP3450
#Serial Number: SN:210018B9D9B0
#Date Time: 2024-08-14 15:44:37.879.415.670
#Sample rate: 5.88235e+06Hz
#Samples: 32768
#Trigger: Source: Channel 3 Type: Edge Condition: Rising Level: 60 mV Hyst.: Auto HoldOff: 0 s
#Channel 3: Range: 100 mV/div Offset: 0 V Attenuation: 1 X Coupling: DC Bandwidth: 0 Hz Sample Mode: Average

Time (s),Channel 3 (V)
-0.003798498747775399,0.2000715318927889
-0.003798328747775398,0.2138293990342379
-0.003798158747775398,0.2259745018456659
-0.003797988747775398,0.2371321979244375
-0.003797818747775399,0.2466442161155014
-0.003797648747775399,0.2544447293033172
-0.003797478747775399,0.2609945272964741
-0.003797308747775398,0.2665898321147629
-0.003797138747775398,0.270473631929796
-0.003796968747775398,0.2730738029923991
-0.003796798747775399,0.274521999533598
-0.003796628747775399,0.2750157028999154
-0.003796458747775399,0.2745878266491062
-0.003796288747775398,0.274061209725026
-0.003796118747775398,0.2720534827019949
-0.003795948747775398,0.2691900031773536
-0.003795778747775399,0.2663265236527061
-0.003795608747775399,0.2628706000884838
-0.003795438747775399,0.2590855409467098
-0.003795268747775398,0.2553663089204303
-0.003795098747775398,0.2513837684321292
-0.003794928747775398,0.2474670550593445
-0.003794758747775399,0.2438136501485871
-0.003794588747775399,0.239304492736221
-0.003794418747775399,0.2347295082083375
-0.003794248747775399,0.2306153134890254
-0.003794078747775398,0.2261719831921375
-0.003793908747775398,0.2219919613573167
-0.003793738747775399,0.2180094208690161
-0.003793568747775399,0.2144547566315304
-0.003793398747775399,0.2109988330673019
-0.003793228747775399,0.2077074772918521
-0.003793058747775398,0.2040211588233226
-0.003792888747775398,0.20040066747033
-0.003792718747775399,0.1979650641964907
-0.003792548747775399,0.194344572843496
-0.003792378747775399,0.1895721069690852
-0.003792208747775399,0.1862149240781265
-0.003792038747775398,0.1830223089759141
-0.003791868747775398,0.1791055956031289
-0.003791698747775398,0.1752217957880915
-0.003791528747775399,0.1715025637618333
-0.003791358747775399,0.1683099486596413
-0.003791188747775399,0.1648869386531736
-0.003791018747775398,0.1613651879734186
-0.003790848747775398,0.1583042271022507
-0.003790678747775398,0.1554407475776056
-0.003790508747775399,0.1533013663235633
-0.003790338747775399,0.150273319010144
-0.003790168747775399,0.1483314191026251
-0.003789998747775398,0.1464224327528516
-0.003789828747775398,0.1438880888057555
-0.003789658747775398,0.1414853990896734
-0.003789488747775399,0.139346017835631
-0.003789318747775399,0.1377990806211669
-0.003789148747775399,0.1356267858093661
-0.003788978747775398,0.1338494536906115
-0.003788808747775398,0.1315125910900426
-0.003788638747775398,0.1294061233937505
-0.003788468747775399,0.1270692607931767
-0.003788298747775399,0.1245678304038349
-0.003788128747775399,0.1219676593412249
-0.003787958747775398,0.1194662289518704
-0.003787788747775398,0.1172281070245649
-0.003787618747775398,0.1151545528860271
-0.003787448747775399,0.1126860360544358
-0.003787278747775399,0.1104808276848845
-0.003787108747775399,0.1083414464308382
-0.003786938747775398,0.106432460081067
-0.003786768747775398,0.1045234737313035
-0.003786598747775398,0.1028448822858244
-0.003786428747775399,0.1012979450713603
-0.003786258747775399,0.09981683497240795
-0.003786088747775399,0.09810532996917098
-0.003785918747775398,0.09616343006164829
-0.003785748747775398,0.09511019621349993
-0.003785578747775398,0.09336577765251224
-0.003785408747775399,0.09198340822682043
-0.003785238747775399,0.09037064389685007
-0.003785068747775399,0.08892244735564955
-0.003784898747775398,0.0877046457187283
-0.003784728747775398,0.08698054744812662
-0.003784558747775398,0.08586148648447366
-0.003784388747775399,0.08470951196306374
-0.003784218747775399,0.08332714253737483
-0.003784048747775399,0.08247139003575635
-0.003783878747775399,0.08151689686087595
-0.003783708747775398,0.0802661816661954
-0.003783538747775398,0.07871924445173666
-0.003783368747775399,0.07862050377846726
-0.003783198747775399,0.07536206156077202
-0.003783028747775399,0.07532914800301746
-0.003782858747775399,0.07411134636610106
-0.003782688747775398,0.07263023626713901
-0.003782518747775398,0.07131369395695976
-0.003782348747775399,0.07035920078207646
-0.003782178747775399,0.0687793500098606
-0.003782008747775399,0.06766028904620566
-0.003781838747775399,0.06657414164030726
-0.003781668747775398,0.06575130269644097
-0.003781498747775398,0.06565256202317432
-0.003781328747775398,0.06380940278892043
-0.003781158747775399,0.06269034182526753
-0.003780988747775399,0.06176876220813993
-0.003780818747775399,0.06081426903325952
-0.003780648747775398,0.05953064028082634
-0.003780478747775398,0.05851031999043729
-0.003780308747775398,0.05768748104657372
-0.003780138747775399,0.05706212344923827
-0.003779968747775399,0.0567329878716927
-0.003779798747775399,0.05646967940965624
-0.003779628747775398,0.05600888960109112
-0.003779458747775398,0.0556468404657913
-0.003779288747775398,0.05508730998396395
-0.003779118747775399,0.05459360661764649
-0.003778948747775399,0.05403407613581902
-0.003778778747775399,0.0530466694031823
-0.003778608747775398,0.05219091690156118
-0.003778438747775398,0.05146681863096135
-0.003778268747775398,0.05024901699404244
-0.003778098747775399,0.04886664756835139
-0.003777928747775399,0.04768175948918949
-0.003777758747775399,0.0458386002549343
-0.003777588747775398,0.04402835457842695
-0.003777418747775398,0.04218519534417577
-0.003777248747775398,0.04070408524522165
-0.003777078747775399,0.0397495920703395
-0.003776908747775399,0.03879509889545908
-0.003776738747775399,0.03820265485587705
-0.003776568747775398,0.03820265485587657
-0.003776398747775398,0.03807100062485834
-0.003776228747775398,0.03793934639384089
-0.003776058747775399,0.0381039141826132
-0.003775888747775399,0.0380051735093497
-0.003775718747775399,0.03787351927833148
-0.003775548747775398,0.03836722264464876
-0.003775378747775398,0.03807100062485918
-0.003775208747775398,0.0381697412981219
-0.003775038747775399,0.03784060572057667
-0.003774868747775399,0.03770895148955869
-0.003774698747775399,0.03691902610344932
-0.003774528747775398,0.03645823629488504
-0.003774358747775398,0.03632658206386442
-0.003774188747775398,0.0355366566777563
-0.003774018747775399,0.03464799061838045
-0.003773848747775399,0.03221238734454766
-0.003773678747775399,0.03425302792533019
-0.003773508747775399,0.03227821446006036
-0.003773338747775398,0.03175159753597918
-0.003773168747775398,0.03046796878355469
-0.003772998747775399,0.02967804339744478
-0.003772828747775399,0.02859189599154637
-0.003772658747775399,0.02770322993217333
-0.003772488747775399,0.02701204521932889
-0.003772318747775398,0.0268474774305515
-0.003772148747775398,0.02592589781342737
-0.003771978747775399,0.02599172492893552
-0.003771808747775399,0.02553093512037256
-0.003771638747775399,0.0252676266583361
-0.003771468747775399,0.02539928088935409
-0.003771298747775398,0.02513597242731835
-0.003771128747775398,0.02526762665833622
-0.003770958747775398,0.02533345377384642
-0.003770788747775399,0.02599172492893636
-0.003770618747775399,0.02645251473750016
-0.003770448747775399,0.02727535368136259
-0.003770278747775398,0.02760448925891181
-0.003770108747775398,0.02819693329849324
-0.003769938747775398,0.02905268580011101
-0.003769768747775399,0.02951347560867397
-0.003769598747775399,0.02990843830172865
-0.003769428747775399,0.02974387051295587
-0.003769258747775398,0.02905268580010909
-0.003769088747775398,0.02875646378031772
-0.003768918747775398,0.02796653839420859
-0.003768748747775399,0.02730826723911865
-0.003768578747775399,0.02671582319953662
-0.003768408747775399,0.02615629271770915
-0.003768238747775398,0.02480683684977159
-0.003768068747775398,0.02460935550324382
-0.003767898747775398,0.0239839979059082
-0.003767728747775399,0.02388525723264363
-0.003767558747775399,0.02329281319306268
-0.003767388747775399,0.02362194877060825
-0.003767218747775398,0.02302950473102646
-0.003767048747775398,0.02309533184653617
-0.003766878747775398,0.02355612165509871
-0.003766708747775399,0.02332572675081622
-0.003766538747775399,0.02276619626898976
-0.003766368747775399,0.02240414713368964
-0.003766198747775398,0.02200918444063351
-0.003766028747775398,0.02161422174757679
-0.003765858747775398,0.02065972857269775
-0.003765688747775399,0.02046224722616873
-0.003765518747775399,0.01934318626251582
-0.003765348747775399,0.01888239645395202
-0.003765178747775398,0.01868491510742277
-0.003765008747775398,0.01815829818335428
-0.003764838747775398,0.01884948289619687
-0.003764668747775399,0.0185203473186513
-0.003764498747775399,0.01819121174110632
-0.003764328747775399,0.01628222539134202
-0.003764158747775398,0.01671010164215258
-0.003763988747775398,0.01707215077745079
-0.003763818747775398,0.01690758298867926
-0.003763648747775399,0.01726963212397849
-0.003763478747775399,0.0171379778929605
-0.003763308747775399,0.0171379778929605
-0.003763138747775399,0.01733545923948748
-0.003762968747775398,0.01707215077745055
-0.003762798747775398,0.01684175587317086
-0.003762628747775399,0.01759876770152364
-0.003762458747775399,0.01723671856622417
-0.003762288747775399,0.01707215077745139
-0.003762118747775399,0.01736837279724186
-0.003761948747775398,0.01746711347050571
-0.003761778747775398,0.01736837279724204
-0.003761608747775399,0.017170891450715
-0.003761438747775399,0.0171379778929605
-0.003761268747775399,0.0173683727972424
-0.003761098747775399,0.01664427452664346
-0.003760928747775398,0.01651262029562343
-0.003760758747775398,0.01638096606460556
-0.003760588747775398,0.01631513894909657
-0.003760418747775399,0.01631513894909657
-0.003760248747775399,0.01486694240789606
-0.003760078747775399,0.01473528817687807
-0.003759908747775398,0.01414284413729484
-0.003759738747775398,0.01387953567525976
-0.003759568747775398,0.01410993057954124
-0.003759398747775399,0.01410993057954124
-0.003759228747775399,0.01417575769505036
-0.003759058747775399,0.01430741192606835
-0.003758888747775398,0.01457072038810468
-0.003758718747775398,0.01447197971484209
-0.003758548747775398,0.01486694240789737
-0.003758378747775399,0.01559104067849632
-0.003758208747775399,0.01605183048706011
-0.003758038747775399,0.01657844741113303
-0.003757868747775398,0.01684175587317152
-0.003757698747775398,0.01740128635499695
-0.003757528747775398,0.01740128635499821
-0.003757358747775399,0.01809247106784397
-0.003757188747775399,0.01881656933844291
-0.003757018747775399,0.01687466943092404
-0.003756848747775398,0.01776333549029732
-0.003756678747775398,0.01782916260580464
-0.003756508747775398,0.01697341010418717
-0.003756338747775399,0.0166771880843958
-0.003756168747775399,0.01618348471807834
-0.003755998747775399,0.01601891692930556
-0.003755828747775398,0.01499859663891105
-0.003755658747775398,0.01410993057953861
-0.003755488747775398,0.01338583230894045
-0.003755318747775399,0.01308961028914866
-0.003755148747775399,0.01236551201854972
-0.003754978747775399,0.00950203249390325
-0.003754808747775398,0.0123984255763032
-0.003754638747775398,0.01210220355651087
-0.003754468747775398,0.01144393240142212
-0.003754298747775399,0.01144393240142248
-0.003754128747775399,0.01164141374794946
-0.003753958747775399,0.01187180865223136
-0.003753788747775398,0.01180598153672428
-0.003753618747775398,0.01236551201854936
-0.003753448747775398,0.01226677134528587
-0.003753278747775399,0.01216803067202453
-0.003753108747775399,0.01335291875118643
-0.003752938747775399,0.01341874586669555
-0.003752768747775399,0.01341874586669555
-0.003752598747775398,0.01361622721322468
-0.003752428747775398,0.01410993057954094
-0.003752258747775399,0.01394536279076894
-0.003752088747775399,0.01420867125280492
-0.003751918747775399,0.01420867125280492
-0.003751748747775399,0.01427449836831391
-0.003751578747775398,0.01480111529238766
-0.003751408747775398,0.01499859663891507
-0.003751238747775399,0.01542647288972449
-0.003751068747775399,0.01595308981379644
-0.003750898747775399,0.01634805250685113
-0.003750728747775399,0.01657844741113261
-0.003750558747775398,0.01661136096888986
-0.003750388747775398,0.01723671856622435
-0.003750218747775399,0.01733545923948832
-0.003750048747775399,0.0175987677015243
-0.003749878747775399,0.01786207616356076
-0.003749708747775399,0.01776333549029726
-0.003749538747775398,0.01723671856622369
-0.003749368747775398,0.01710506433520558
-0.003749198747775398,0.01690758298867686
-0.003749028747775399,0.01595308981379644
-0.003748858747775399,0.01588726269828733
-0.003748688747775399,0.01545938644747887
-0.003748518747775398,0.01457072038810444
-0.003748348747775398,0.01440615259933148
-0.003748178747775398,0.01397827634852284
-0.003748008747775399,0.01387953567525935
-0.003747838747775399,0.01318835096241365
-0.003747668747775399,0.01302378317364086
-0.003747498747775398,0.01236551201854768
-0.003747328747775398,0.01180598153672183
-0.003747158747775398,0.01157558663243975
-0.003746988747775399,0.01124645105489478
-0.003746818747775399,0.01048943922653996
-0.003746648747775399,0.01048943922653996
-0.003746478747775398,0.009831168071448461
-0.003746308747775398,0.00973242739818461
-0.003746138747775398,0.009436205378394196
-0.003745968747775399,0.009469118936148213
-0.003745798747775399,0.009205810474112236
-0.003745628747775399,0.008942502012075779
-0.003745458747775398,0.007033515662318053
-0.003745288747775398,0.008843761338810551
-0.003745118747775398,0.008415885088002565
-0.003744948747775399,0.00825131729922972
-0.003744778747775399,0.008053835952702737
-0.003744608747775399,0.009139983358603122
-0.003744438747775398,0.008975415569831413
-0.003744268747775398,0.009271637589621828
-0.003744098747775398,0.009403291820639998
-0.003743928747775399,0.009633686724921178
-0.003743758747775399,0.009469118936148692
-0.003743588747775399,0.009600773167166921
-0.003743418747775398,0.009962822302469684
-0.003743248747775398,0.0106869205730679
-0.003743078747775398,0.01085148836184069
-0.003742908747775399,0.01118062393938566
-0.003742738747775399,0.01118062393938566
-0.003742568747775399,0.01150975951693123
-0.003742398747775398,0.01183889509447908
-0.003742228747775398,0.01246425269181459
-0.003742058747775398,0.01279338826935944
-0.003741888747775399,0.01305669673139596
-0.003741718747775399,0.01335291875118643
-0.003741548747775399,0.01407701702178669
-0.003741378747775399,0.01460363394585864
-0.003741208747775398,0.01499859663891393
-0.003741038747775398,0.01489985596565193
-0.003740868747775399,0.01562395423625117
-0.003740698747775399,0.01578852202502366
-0.003740528747775399,0.01631513894909657
-0.003740358747775399,0.0159860033715516
-0.003740188747775398,0.0161834847180769
-0.003740018747775398,0.0157885220250233
-0.003739848747775399,0.01559104067849536
-0.003739678747775399,0.0150644237544234
-0.003739508747775399,0.01440615259933226
-0.003739338747775399,0.01401118990627829
-0.003739168747775398,0.01318835096241317
-0.003738998747775398,0.01305669673139452
-0.003738828747775398,0.01256299336507592
-0.003738658747775399,0.01193763576774048
-0.003738488747775399,0.01226677134528605
-0.003738318747775399,0.01180598153672308
-0.003738148747775398,0.01177306797897021
-0.003737978747775398,0.01246425269181423
-0.003737808747775398,0.01292504250037713
-0.003737638747775399,0.01289212894262263
-0.003737468747775399,0.01335291875118643
-0.003737298747775399,0.01371496788648656
-0.003737128747775398,0.01351748653996245
-0.003736958747775398,0.01440615259933208
-0.003736788747775398,0.01430741192606811
-0.003736618747775399,0.01404410346403213
-0.003736448747775399,0.01463654750361416
-0.003736278747775399,0.01470237461912327
-0.003736108747775398,0.01572269490950879
-0.003735938747775398,0.01414284413729622
-0.003735768747775398,0.01437323904157764
-0.003735598747775399,0.01434032548382237
-0.003735428747775399,0.0139124492330139
-0.003735258747775399,0.01371496788648656
-0.003735088747775398,0.0139124492330133
-0.003734918747775398,0.01374788144424112
-0.003734748747775398,0.0137478814442401
-0.003734578747775399,0.01318835096241341
-0.003734408747775399,0.01305669673139542
-0.003734238747775399,0.01302378317364086
-0.003734068747775398,0.01259590692283066
-0.003733898747775398,0.01233259846079624
-0.003733728747775398,0.01262882048058665
-0.003733558747775399,0.01289212894262269
-0.003733388747775399,0.01292504250037719
-0.003733218747775399,0.01305669673139542
-0.003733048747775398,0.01341874586669363
-0.003732878747775398,0.01289212894262239
-0.003732708747775398,0.01282630182711334
-0.003732538747775399,0.01272756115385039
-0.003732368747775399,0.01302378317364086
-0.003732198747775399,0.01266173403834073
-0.003732028747775398,0.01246425269181112
-0.003731858747775398,0.01183889509447405
-0.003731688747775398,0.01108188326612103
-0.003731518747775399,0.01055526634204806
-0.003731348747775399,0.009995735860221606
-0.003731178747775399,0.009633686724921478
-0.003731008747775399,0.009403291820639998
-0.003730838747775398,0.008942502012074343
-0.003730668747775398,0.008547539319021693
-0.003730498747775399,0.008876674896565406
-0.003730328747775399,0.008185490183720966
-0.003730158747775399,0.00871210710779388
-0.003729988747775399,0.008613366434530388
-0.003729818747775398,0.009304551147377584
-0.003729648747775398,0.009765340955940425
-0.003729478747775399,0.01016030364899601
-0.003729308747775399,0.01104896970836743
-0.003729138747775399,0.01118062393938566
-0.003728968747775399,0.0119047222099846
-0.003728798747775398,0.01193763576774095
-0.003728628747775398,0.0120692899987602
-0.003728458747775398,0.01289212894262401
-0.003728288747775399,0.01364914077097745
-0.003728118747775399,0.01371496788648656
-0.003727948747775399,0.01378079500199555
-0.003727778747775398,0.01361622721322181
-0.003727608747775398,0.01332000519343163
-0.003727438747775398,0.01318835096241334
-0.003727268747775399,0.01302378317364086
-0.003727098747775399,0.01328709163567732
-0.003726928747775399,0.01308961028914997
-0.003726758747775398,0.01236551201855726
-0.003726588747775398,0.01443906615708334
-0.003726418747775398,0.01253007980732137
-0.003726248747775399,0.01190472220998592
-0.003726078747775399,0.01239842557630427
-0.003725908747775399,0.01233259846079516
-0.003725738747775398,0.01299086961588546
-0.003725568747775398,0.01276047471160482
-0.003725398747775398,0.01299086961588714
-0.003725228747775399,0.01345165942444992
-0.003725058747775399,0.01335291875118643
-0.003724888747775399,0.01361622721322289
-0.003724718747775398,0.01374788144424064
-0.003724548747775398,0.01361622721322349
-0.003724378747775398,0.01394536279076864
-0.003724208747775399,0.01404410346403285
-0.003724038747775399,0.01443906615708682
-0.003723868747775399,0.01443906615708682
-0.003723698747775398,0.01443906615708598
-0.003723528747775398,0.01420867125280456
-0.003723358747775398,0.01410993057954101
-0.003723188747775399,0.01397827634852308
-0.003723018747775399,0.01401118990627757
-0.003722848747775399,0.01381370855975023
-0.003722678747775398,0.01410993057954065
-0.003722508747775398,0.01394536279076582
-0.003722338747775398,0.01322126452016772
-0.003722168747775399,0.01295795605813121
-0.003721998747775399,0.01266173403834073
-0.003721828747775399,0.01144393240142212
-0.003721658747775398,0.01134519172815581
-0.003721488747775398,0.01062109345755747
-0.003721318747775398,0.01042361211103055
-0.003721148747775399,0.0102590443222595
-0.003720978747775399,0.01104896970836743
-0.003720808747775399,0.01025904432225806
-0.003720638747775399,0.01075274768857552
-0.003720468747775398,0.01085148836184021
-0.003720298747775398,0.01088440191959603
-0.003720128747775399,0.01164141374794934
-0.003719958747775399,0.01157558663244035
-0.003719788747775399,0.01167432730570402
-0.003719618747775399,0.01157558663244053
-0.003719448747775398,0.0118388950944762
-0.003719278747775398,0.01167432730570426
-0.003719108747775399,0.01180598153672213
