Analysis/New Tests_CMB/wrd01_d2s01_new/cmb02_ch18.csv

#Digilent WaveForms Oscilloscope Acquisition
#Device Name: ADP3450
#Serial Number: SN:210018B9D9B0
#Date Time: 2024-08-14 16:36:03.374.232.730
#Sample rate: 5.88235e+06Hz
#Samples: 32768
#Trigger: Source: Channel 3 Type: Edge Condition: Rising Level: 60 mV Hyst.: Auto HoldOff: 0 s
#Channel 3: Range: 100 mV/div Offset: 0 V Attenuation: 1 X Coupling: DC Bandwidth: 0 Hz Sample Mode: Average

Time (s),Channel 3 (V)
-0.003798477782314406,0.2030008385329445
-0.003798307782314405,0.2177461124070089
-0.003798137782314406,0.2303190914692269
-0.003797967782314406,0.2414438739902672
-0.003797797782314405,0.2506267566038025
-0.003797627782314406,0.2582297884450913
-0.003797457782314406,0.2640225746098934
-0.003797287782314405,0.2684659049067638
-0.003797117782314406,0.2712964708736505
-0.003796947782314406,0.2729421487613783
-0.003796777782314405,0.2737320741474876
-0.003796607782314406,0.2736662470319786
-0.003796437782314406,0.2728434080881146
-0.003796267782314405,0.2712306437581379
-0.003796097782314406,0.269321657408377
-0.003795927782314406,0.2663265236527124
-0.003795757782314405,0.2634630441280634
-0.003795587782314406,0.262113588260129
-0.003795417782314406,0.2556625309402358
-0.003795247782314405,0.2528977920888461
-0.003795077782314406,0.2490798193893244
-0.003794907782314406,0.2449327111122502
-0.003794737782314406,0.2408514299506926
-0.003794567782314406,0.2371980250399293
-0.003794397782314406,0.232985089647346
-0.003794227782314406,0.2294304254098603
-0.003794057782314406,0.2252504035750251
-0.003793887782314406,0.2214324308754965
-0.003793717782314406,0.2176802852914838
-0.003793547782314406,0.2135331770144027
-0.003793377782314406,0.2101101670079288
-0.003793207782314406,0.2064896756549341
-0.003793037782314406,0.2037578503612993
-0.003792867782314406,0.2003348403548253
-0.003792697782314406,0.1973726201569206
-0.003792527782314405,0.1945420541900233
-0.003792357782314406,0.1918102288963951
-0.003792187782314406,0.1888150951407358
-0.003792017782314405,0.1862807511936295
-0.003791847782314406,0.183417271668983
-0.003791677782314406,0.1817386802235036
-0.003791507782314405,0.1786448057945722
-0.003791337782314406,0.1764395974250169
-0.003791167782314406,0.1731811552073217
-0.003790997782314405,0.1699227129896146
-0.003790827782314406,0.1669275792339499
-0.003790657782314406,0.1637020505740091
-0.003790487782314405,0.1607069168183386
-0.003790317782314406,0.158073832197974
-0.003790147782314406,0.1552103526733276
-0.003789977782314405,0.1528076629572449
-0.003789807782314406,0.1501745783368803
-0.003789637782314406,0.1476073208320249
-0.003789467782314405,0.1452046311159422
-0.003789297782314406,0.1424398922645594
-0.003789127782314406,0.1395764127399129
-0.003788957782314405,0.1370749823505636
-0.003788787782314406,0.1354293044628387
-0.003788617782314406,0.1323354300339104
-0.003788447782314405,0.130327703010878
-0.003788277782314406,0.1279250132947997
-0.003788107782314406,0.1254564964632079
-0.003787937782314405,0.1232512880936489
-0.003787767782314406,0.1212106475128701
-0.003787597782314406,0.1187750442390328
-0.003787427782314405,0.1163065274074364
-0.003787257782314406,0.1137392699025856
-0.003787087782314406,0.1115011479752757
-0.003786917782314405,0.1094934209522435
-0.003786747782314406,0.1071565583516742
-0.003786577782314406,0.1054121397906827
-0.003786407782314405,0.1029436229590881
-0.003786237782314406,0.1013966857446267
-0.003786067782314406,0.0972495774675525
-0.003785897782314405,0.0978749350648852
-0.003785727782314406,0.09573555381084287
-0.003785557782314406,0.09511019621350628
-0.003785387782314405,0.09254293870864837
-0.003785217782314406,0.09119348284071399
-0.003785047782314406,0.08994276764604081
-0.003784877782314405,0.08895536091340238
-0.003784707782314406,0.08800086773852195
-0.003784537782314406,0.08717802879465802
-0.003784367782314406,0.0864210169663046
-0.003784197782314406,0.08559817802243927
-0.003784027782314406,0.08517030177163004
-0.003783857782314406,0.08461077128980359
-0.003783687782314406,0.08411706792348422
-0.003783517782314406,0.08329422897962027
-0.003783347782314406,0.08273469849779382
-0.003783177782314406,0.08131941551434685
-0.003783007782314406,0.07987121897314634
-0.003782837782314406,0.07858759022072095
-0.003782667782314406,0.07717230723727267
-0.003782497782314406,0.07608615983137229
-0.003782327782314406,0.07483544463670139
-0.003782157782314405,0.07378221078855329
-0.003781987782314406,0.07272897694040745
-0.003781817782314406,0.07180739732328152
-0.003781647782314405,0.07111621261043416
-0.003781477782314406,0.06996423808902466
-0.003781307782314406,0.06933888049168921
-0.003781137782314405,0.0690097449141425
-0.003780967782314406,0.06851604154782415
-0.003780797782314406,0.06838438731680614
-0.003780627782314405,0.06792359750824212
-0.003780457782314406,0.06726532635315097
-0.003780287782314406,0.06647540096704305
-0.003780117782314405,0.06565256202317768
-0.003779947782314406,0.06486263663706832
-0.003779777782314406,0.06380940278892247
-0.003779607782314405,0.06278908249853121
-0.003779437782314406,0.06163710797712171
-0.003779267782314406,0.06022182499367575
-0.003779097782314405,0.05916859114552993
-0.003778927782314406,0.05748999970004751
-0.003778757782314406,0.05630511162088345
-0.003778587782314405,0.05567975402354687
-0.003778417782314406,0.05449486594438282
-0.003778247782314406,0.05307958296093686
-0.003778077782314405,0.05228965757482617
-0.003777907782314406,0.05156555930422723
-0.003777737782314406,0.05090728814913609
-0.003777567782314405,0.05005153564751712
-0.003777397782314406,0.04978822718548115
-0.003777227782314406,0.04945909160793558
-0.003777057782314405,0.04886664756835343
-0.003776887782314406,0.04880082045284444
-0.003776717782314406,0.04922869670365368
-0.003776547782314405,0.04751719170041821
-0.003776377782314406,0.04834003064428063
-0.003776207782314406,0.04791215439347139
-0.003776037782314405,0.04728679679613385
-0.003775867782314406,0.04676017987206189
-0.003775697782314406,0.04577277313942518
-0.003775527782314405,0.04564111890840564
-0.003775357782314406,0.0449170206378067
-0.003775187782314406,0.04455497150250657
-0.003775017782314405,0.04363339188537777
-0.003774847782314406,0.04297512073028783
-0.003774677782314406,0.04225102245968757
-0.003774507782314405,0.04096739370725919
-0.003774337782314406,0.04060534457195972
-0.003774167782314406,0.03978250562809579
-0.003773997782314405,0.03909132091524907
-0.003773827782314406,0.03853179043342262
-0.003773657782314406,0.03784060572057692
-0.003773487782314406,0.03734690235425946
-0.003773317782314406,0.03672154475692198
-0.003773147782314406,0.03589870581305805
-0.003772977782314406,0.03573413802428557
-0.003772807782314406,0.03477964484940311
-0.003772637782314406,0.03451633638736665
-0.003772467782314406,0.03405554657880369
-0.003772297782314406,0.03372641100125728
-0.003772127782314406,0.03319979407718437
-0.003771957782314406,0.03270609071086691
-0.003771787782314406,0.03227821446005677
-0.003771617782314406,0.03211364667128398
-0.003771447782314406,0.0318832517670025
-0.003771277782314405,0.03188325176700208
-0.003771107782314406,0.03142246195843829
-0.003770937782314406,0.03171868397822875
-0.003770767782314405,0.03181742465149297
-0.003770597782314406,0.03109332638089271
-0.003770427782314406,0.03096167214987472
-0.003770257782314405,0.03046796878355613
-0.003770087782314406,0.03040214166804701
-0.003769917782314406,0.03027048743702902
-0.003769747782314405,0.03066545013008347
-0.003769577782314406,0.02928308070439207
-0.003769407782314406,0.02977678407071043
-0.003769237782314405,0.02934890781990119
-0.003769067782314406,0.02898685868460106
-0.003768897782314406,0.02898685868460106
-0.003768727782314405,0.02875646378031916
-0.003768557782314406,0.02855898243379182
-0.003768387782314406,0.02790071127870067
-0.003768217782314405,0.02750574858564599
-0.003768047782314406,0.02694621810381852
-0.003767877782314406,0.02651834185300928
-0.003767707782314405,0.02632086050648139
-0.003767537782314406,0.02602463848669092
-0.003767367782314406,0.02576133002465446
-0.003767197782314405,0.02526762665833658
-0.003767027782314406,0.02553093512037256
-0.003766857782314406,0.0252676266583361
-0.003766687782314405,0.02526762665833622
-0.003766517782314406,0.02533345377384522
-0.003766347782314406,0.02533345377384522
-0.003766177782314405,0.02599172492893768
-0.003766007782314406,0.02671582319953662
-0.003765837782314406,0.02717661300810041
-0.003765667782314405,0.02776905704768244
-0.003765497782314406,0.02776905704768244
-0.003765327782314406,0.02855898243379182
-0.003765157782314405,0.02799945195196602
-0.003764987782314406,0.02892103156909194
-0.003764817782314406,0.02859189599154637
-0.003764647782314405,0.02849315531828204
-0.003764477782314406,0.02813110618298257
-0.003764307782314406,0.02842732820277359
-0.003764137782314405,0.02809819262522754
-0.003763967782314406,0.02783488416319156
-0.003763797782314406,0.02737409435462776
-0.003763627782314405,0.02743992147013592
-0.003763457782314406,0.02691330454606396
-0.003763287782314406,0.02671582319953662
-0.003763117782314406,0.02655125541076413
-0.003762947782314406,0.02553093512037256
-0.003762777782314406,0.0252676266583361
-0.003762607782314406,0.02480683684977314
-0.003762437782314406,0.02332572675081724
-0.003762267782314406,0.02368777588611736
-0.003762097782314406,0.02263454203797345
-0.003761927782314406,0.02177878953635305
-0.003761757782314406,0.02151548107431659
-0.003761587782314406,0.02118634549677162
-0.003761417782314406,0.02003437097536152
-0.003761247782314406,0.02033059299515254
-0.003761077782314406,0.02006728453311656
-0.003760907782314405,0.01986980318658874
-0.003760737782314406,0.01947484049353405
-0.003760567782314406,0.01963940828230654
-0.003760397782314405,0.02056098789943444
-0.003760227782314406,0.02052807434167988
-0.003760057782314406,0.02065972857269787
-0.003759887782314405,0.02062681501494355
-0.003759717782314406,0.02072555568820722
-0.003759547782314406,0.02089012347697971
-0.003759377782314405,0.02144965395880748
-0.003759207782314406,0.02164713530533482
-0.003759037782314406,0.02158130818982583
-0.003758867782314405,0.02210792511389862
-0.003758697782314406,0.02204209799838951
-0.003758527782314406,0.02191044376737128
-0.003758357782314405,0.02177878953635305
-0.003758187782314406,0.0210546912657528
-0.003758017782314406,0.02118634549677102
-0.003757847782314405,0.02273328271123521
-0.003757677782314406,0.01996854385985241
-0.003757507782314406,0.02075846924596178
-0.003757337782314405,0.02006728453311632
-0.003757167782314406,0.02019893876413431
-0.003756997782314406,0.02006728453311608
-0.003756827782314405,0.02006728453311662
-0.003756657782314406,0.0203635065529071
-0.003756487782314406,0.02046224722617077
-0.003756317782314405,0.02059390145718918
-0.003756147782314406,0.02069264213045267
-0.003755977782314406,0.02003437097536152
-0.003755807782314405,0.02056098789943456
-0.003755637782314406,0.02062681501494355
-0.003755467782314406,0.02010019809087064
-0.003755297782314405,0.01947484049353345
-0.003755127782314406,0.01914570491598848
-0.003754957782314406,0.01842160664538823
-0.003754787782314405,0.01812538462559524
-0.003754617782314406,0.01703923721969683
-0.003754447782314406,0.01638096606460569
-0.003754277782314405,0.01552521356298738
-0.003754107782314406,0.01562395423625087
-0.003753937782314406,0.01480111529238694
-0.003753767782314405,0.01486694240789564
-0.003753597782314406,0.01463654750361416
-0.003753427782314406,0.01417575769505036
-0.003753257782314405,0.01404410346403243
-0.003753087782314406,0.01420867125280492
-0.003752917782314406,0.01486694240789606
-0.003752747782314406,0.01506442375442304
-0.003752577782314406,0.015986003371551
-0.003752407782314406,0.01578852202502366
-0.003752237782314406,0.01568978135176017
-0.003752067782314406,0.01572269490951454
-0.003751897782314406,0.01605183048706011
-0.003751727782314406,0.01598600337155112
-0.003751557782314406,0.01595308981379644
-0.003751387782314406,0.01592017625604189
-0.003751217782314406,0.01582143558277839
-0.003751047782314406,0.01631513894909657
-0.003750877782314406,0.01624931183358745
-0.003750707782314406,0.01644679318011444
-0.003750537782314405,0.01684175587316948
-0.003750367782314406,0.01694049654643316
-0.003750197782314406,0.01707215077745115
-0.003750027782314405,0.01717089145071506
-0.003749857782314406,0.0169075829886786
-0.003749687782314406,0.01703923721969659
-0.003749517782314405,0.01687466943092404
-0.003749347782314406,0.01677592875766037
-0.003749177782314406,0.0163809660646064
-0.003749007782314405,0.01605183048706011
-0.003748837782314406,0.01588726269828733
-0.003748667782314406,0.01549230000523336
-0.003748497782314405,0.01545938644747809
-0.003748327782314406,0.01680884231541493
-0.003748157782314406,0.0155252135629872
-0.003747987782314405,0.015986003371551
-0.003747817782314406,0.01638096606460569
-0.003747647782314406,0.01624931183358745
-0.003747477782314405,0.01680884231541493
-0.003747307782314406,0.01664427452664214
-0.003747137782314406,0.01674301519990581
-0.003746967782314405,0.01707215077745139
-0.003746797782314406,0.0169075829886786
-0.003746627782314406,0.01707215077745139
-0.003746457782314405,0.01782916260580548
-0.003746287782314406,0.01743419991275151
-0.003746117782314406,0.0173683727972424
-0.003745947782314405,0.01769750837478845
-0.003745777782314406,0.01796081683682443
-0.003745607782314406,0.01825703885661544
-0.003745437782314405,0.01819121174110548
-0.003745267782314406,0.01773042193254253
-0.003745097782314406,0.01750002702826063
-0.003744927782314405,0.01723671856622285
-0.003744757782314406,0.01651262029562391
-0.003744587782314406,0.0169075829886786
-0.003744417782314405,0.01690758298867824
-0.003744247782314406,0.01671010164215126
-0.003744077782314406,0.01730254568173328
-0.003743907782314405,0.01759876770152412
-0.003743737782314406,0.01750002702826063
-0.003743567782314406,0.01733545923948784
-0.003743397782314405,0.01661136096888956
-0.003743227782314406,0.01769750837478797
-0.003743057782314406,0.01657844741113303
-0.003742887782314405,0.01539355933197233
-0.003742717782314406,0.01723671856622417
-0.003742547782314406,0.01703923721969683
-0.003742377782314405,0.01552521356298768
-0.003742207782314406,0.01578852202502366
-0.003742037782314406,0.01674301519990581
-0.003741867782314406,0.01621639827583386
-0.003741697782314406,0.01661136096888758
-0.003741527782314406,0.01657844741113303
-0.003741357782314406,0.0169404965464325
-0.003741187782314406,0.01773042193254253
-0.003741017782314406,0.01838869308763367
-0.003740847782314406,0.01855326087640615
-0.003740677782314406,0.01907987780047937
-0.003740507782314406,0.01888239645395202
-0.003740337782314406,0.01884948289619753
-0.003740167782314406,0.01937609982027038
-0.003739997782314406,0.01996854385985241
-0.003739827782314406,0.0200343709753614
-0.003739657782314405,0.02039642011066165
-0.003739487782314406,0.02042933366841621
-0.003739317782314406,0.0205280743416797
-0.003739147782314405,0.02089012347698001
-0.003738977782314406,0.02082429636147089
-0.003738807782314406,0.02065972857269841
-0.003738637782314405,0.02220666578716229
-0.003738467782314406,0.02204209799838951
-0.003738297782314406,0.022206665787162
-0.003738127782314405,0.0217458759785985
-0.003737957782314406,0.02181170309410761
-0.003737787782314406,0.02115343193901766
-0.003737617782314405,0.02026476587964342
-0.003737447782314406,0.02013311164862519
-0.003737277782314406,0.01907987780047937
-0.003737107782314405,0.01868491510742468
-0.003736937782314406,0.01753294058601518
-0.003736767782314406,0.0173683727972424
-0.003736597782314405,0.01671010164215126
-0.003736427782314406,0.01647970673786936
-0.003736257782314406,0.01631513894909657
-0.003736087782314405,0.01700632366194263
-0.003735917782314406,0.01720380500846961
-0.003735747782314406,0.01730254568173328
-0.003735577782314405,0.01812538462559572
-0.003735407782314406,0.01730254568173328
-0.003735237782314406,0.01773042193254253
-0.003735067782314405,0.01720380500846955
-0.003734897782314406,0.01717089145071506
-0.003734727782314406,0.01707215077745139
-0.003734557782314405,0.01720380500847039
-0.003734387782314406,0.01763168125927886
-0.003734217782314406,0.01631513894909657
-0.003734047782314405,0.01717089145071404
-0.003733877782314406,0.01661136096888758
-0.003733707782314406,0.01631513894909657
-0.003733537782314405,0.01628222539134165
-0.003733367782314406,0.01608474404481467
-0.003733197782314406,0.01582143558277821
-0.003733027782314405,0.01628222539134172
-0.003732857782314406,0.01611765760256923
-0.003732687782314406,0.01595308981379644
-0.003732517782314405,0.01631513894909657
-0.003732347782314406,0.01631513894909657
-0.003732177782314406,0.0166771880843967
-0.003732007782314405,0.01700632366194323
-0.003731837782314406,0.01753294058601518
-0.003731667782314406,0.01763168125927886
-0.003731497782314406,0.01799373039457832
-0.003731327782314406,0.01825703885661544
-0.003731157782314406,0.0187507422229338
-0.003730987782314406,0.0187836557806883
-0.003730817782314406,0.01848743376089734
-0.003730647782314406,0.01855326087640645
-0.003730477782314406,0.0180266439523345
-0.003730307782314406,0.01792790327906987
-0.003730137782314406,0.0171379778929605
-0.003729967782314406,0.01624931183358907
-0.003729797782314406,0.01605183048706011
-0.003729627782314406,0.01542647288972353
-0.003729457782314406,0.0145378068303521
-0.003729287782314405,0.01466946106136872
-0.003729117782314406,0.01378079500199567
-0.003728947782314406,0.01374788144424118
-0.003728777782314405,0.01335291875118643
-0.003728607782314406,0.01355040009771377
-0.003728437782314406,0.01434032548382171
-0.003728267782314405,0.01503151019666884
-0.003728097782314406,0.01499859663891429
-0.003727927782314406,0.01559104067849524
-0.003727757782314405,0.01562395423625087
-0.003727587782314406,0.0162163982758329
-0.003727417782314406,0.01674301519990486
-0.003727247782314405,0.01687466943092404
-0.003727077782314406,0.01776333549029708
-0.003726907782314406,0.01812538462559721
-0.003726737782314405,0.01802664395233354
-0.003726567782314406,0.01835577952987911
-0.003726397782314406,0.01842160664538823
-0.003726227782314405,0.01861908799191557
-0.003726057782314406,0.01858617443416101
-0.003725887782314406,0.01894822356946114
-0.003725717782314405,0.01904696424272481
-0.003725547782314406,0.01957358116679772
-0.003725377782314406,0.01970523539781595
-0.003725207782314405,0.01950775405128813
-0.003725037782314406,0.01924444558925215
-0.003724867782314406,0.01914570491598848
-0.003724697782314405,0.0182241252988616
-0.003724527782314406,0.01861908799191557
-0.003724357782314406,0.01815829818335177
-0.003724187782314405,0.01773042193254133
-0.003724017782314406,0.01707215077745139
-0.003723847782314406,0.01680884231541493
-0.003723677782314405,0.01608474404481323
-0.003723507782314406,0.0152948186587053
-0.003723337782314406,0.01489985596565062
-0.003723167782314405,0.01440615259933118
-0.003722997782314406,0.01381370855975023
-0.003722827782314406,0.01338583230894099
-0.003722657782314405,0.0132212645201679
-0.003722487782314406,0.01305669673139542
-0.003722317782314406,0.01335291875118643
-0.003722147782314405,0.01289212894262203
-0.003721977782314406,0.01256299336507706
-0.003721807782314406,0.01239842557630427
-0.003721637782314405,0.01262882048058593
-0.003721467782314406,0.01249716624956795
-0.003721297782314406,0.01279338826935896
-0.003721127782314405,0.01289212894262359
-0.003720957782314406,0.01341874586669555
-0.003720787782314406,0.01381370855975023
-0.003720617782314406,0.01391244923301372
-0.003720447782314406,0.0141428441372958
-0.003720277782314406,0.01496568308115973
-0.003720107782314406,0.01631513894909412
-0.003719937782314406,0.01473528817687783
-0.003719767782314406,0.01707215077745139
-0.003719597782314406,0.01743419991275085
-0.003719427782314406,0.01812538462559721
-0.003719257782314406,0.01842160664538823
-0.003719087782314406,0.01878365578068769
-0.003718917782314405,0.0192115320314976
