Analysis/New Tests_CMB/wrd01_d2s01_new/cmb01_ch42.csv

#Digilent WaveForms Oscilloscope Acquisition
#Device Name: ADP3450
#Serial Number: SN:210018B9D9B0
#Date Time: 2024-08-14 15:05:20.189.245.640
#Sample rate: 5.88235e+06Hz
#Samples: 32768
#Trigger: Source: Channel 3 Type: Edge Condition: Rising Level: 90 mV Hyst.: Auto HoldOff: 0 s
#Channel 3: Range: 100 mV/div Offset: 0 V Attenuation: 1 X Coupling: DC Bandwidth: 0 Hz Sample Mode: Average

Time (s),Channel 3 (V)
-0.003798518349760294,0.2358485691719925
-0.003798348349760293,0.2453605873630955
-0.003798178349760293,0.2552675682472074
-0.003798008349760293,0.2624756373954393
-0.003797838349760293,0.2680709422137117
-0.003797668349760293,0.2724155318373054
-0.003797498349760293,0.274456172418088
-0.003797328349760293,0.2762005909790811
-0.003797158349760293,0.276628467229885
-0.003796988349760293,0.2756081469394951
-0.003796818349760293,0.2743245181870668
-0.003796648349760293,0.2727117538570965
-0.003796478349760293,0.2703748912565229
-0.003796308349760293,0.2671822761543222
-0.003796138349760293,0.2648124999959895
-0.003795968349760293,0.2611920086429955
-0.003795798349760293,0.2579335664252941
-0.003795628349760293,0.2545434699765809
-0.003795458349760293,0.2507584108348068
-0.003795288349760293,0.2482240668876826
-0.003795118349760293,0.2418059231255601
-0.003794948349760293,0.2398311096602868
-0.003794778349760293,0.2359143962874947
-0.003794608349760293,0.2321293371457275
-0.003794438349760293,0.228377191561708
-0.003794268349760294,0.2242629968423959
-0.003794098349760293,0.2202475427963199
-0.003793928349760293,0.2168245327898515
-0.003793758349760293,0.2130065600903228
-0.003793588349760293,0.2091227602752921
-0.003793418349760293,0.2062263671928911
-0.003793248349760294,0.2018817775692975
-0.003793078349760293,0.1978334099654649
-0.003792908349760293,0.1939496101504345
-0.003792738349760293,0.1902303781241694
-0.003792568349760293,0.1864124054246477
-0.003792398349760293,0.1823640378208372
-0.003792228349760294,0.1793359905074234
-0.003792058349760293,0.1753863635768592
-0.003791888349760293,0.1721279213591646
-0.003791718349760293,0.1691986147190095
-0.003791548349760293,0.1665326165408952
-0.003791378349760293,0.1637349641317578
-0.003791208349760294,0.1615297557622065
-0.003791038349760293,0.1583371406600014
-0.003790868349760293,0.1558357102706595
-0.003790698349760293,0.1533013663235592
-0.003790528349760293,0.1510632443962533
-0.003790358349760293,0.1487592953534344
-0.003790188349760294,0.1460603836175607
-0.003790018349760293,0.1434931261126962
-0.003789848349760293,0.1410246092811097
-0.003789678349760293,0.1389839687003256
-0.003789508349760293,0.1360875756179299
-0.003789338349760293,0.1340140214793928
-0.003789168349760294,0.1312163690702554
-0.003788998349760293,0.1294061233937483
-0.003788828349760293,0.1276287912750045
-0.003788658349760293,0.1253248422321863
-0.003788488349760293,0.123448769440177
-0.003788318349760293,0.1218360051102066
-0.003788148349760294,0.1198282780871787
-0.003787978349760293,0.1183471679882164
-0.003787808349760293,0.1163723545229483
-0.003787638349760293,0.115319120674803
-0.003787468349760293,0.1145621088464461
-0.003787298349760293,0.1126531224966852
-0.003787128349760293,0.1114024073020121
-0.003786958349760293,0.1096909022987696
-0.003786788349760293,0.108176878642059
-0.003786618349760293,0.1063995465233156
-0.003786448349760293,0.1043259923847795
-0.003786278349760293,0.1028119687280727
-0.003786108349760293,0.100705501031781
-0.003785938349760293,0.0990927367017999
-0.003785768349760293,0.09695335544775478
-0.003785598349760293,0.09511019621350232
-0.003785428349760293,0.09293790140170223
-0.003785258349760293,0.09112765572520487
-0.003785088349760293,0.0895807185107407
-0.003784918349760293,0.08717802879465228
-0.003784748349760293,0.08559817802243376
-0.003784578349760293,0.08408415436572637
-0.003784408349760293,0.08227390868922643
-0.003784238349760293,0.08085862570578306
-0.003784068349760293,0.07950916983784623
-0.003783898349760294,0.07904838002928324
-0.003783728349760293,0.07704065300625215
-0.003783558349760293,0.07641529540891551
-0.003783388349760293,0.07513166665648886
-0.003783218349760293,0.07444048194364442
-0.003783048349760293,0.07342016165325316
-0.003782878349760294,0.0728606311714267
-0.003782708349760293,0.07210361934307014
-0.003782538349760293,0.07190613799654202
-0.003782368349760293,0.07108329905267702
-0.003782198349760293,0.06966801606923365
-0.003782028349760293,0.06874643645210604
-0.003781858349760294,0.06798942462375261
-0.003781688349760293,0.06660705519805707
-0.003781518349760293,0.06585004336970322
-0.003781348349760293,0.06486263663706748
-0.003781178349760293,0.0644018468285045
-0.003781008349760293,0.06318404519158588
-0.003780838349760294,0.06242703336323245
-0.003780668349760293,0.06107757749528957
-0.003780498349760293,0.05979394874286418
-0.003780328349760293,0.05851031999043824
-0.003780158349760293,0.05821409797064777
-0.003779988349760293,0.05663424719842903
-0.003779818349760294,0.05561392690803776
-0.003779648349760293,0.05413281680907814
-0.003779478349760293,0.05288210161440748
-0.003779308349760293,0.05176304065075242
-0.003779138349760293,0.05057815257159052
-0.003778968349760293,0.04978822718548115
-0.003778798349760294,0.04876790689508988
-0.003778628349760293,0.04774758660469453
-0.003778458349760293,0.04662852564104205
-0.003778288349760293,0.0457398595816708
-0.003778118349760293,0.04583860025493268
-0.003777948349760293,0.04494993419556125
-0.003777778349760294,0.04409418169394277
-0.003777608349760293,0.04363339188537538
-0.003777438349760293,0.04264598515274141
-0.003777268349760293,0.04218519534417822
-0.003777098349760293,0.04205354111315975
-0.003776928349760293,0.04179023265112377
-0.003776758349760293,0.04149401063133275
-0.003776588349760293,0.04132944284255303
-0.003776418349760293,0.03942045649280249
-0.003776248349760293,0.04129652928480296
-0.003776078349760293,0.0399470734168678
-0.003775908349760293,0.03951919716605933
-0.003775738349760293,0.03859761754893173
-0.003775568349760293,0.03849887687566638
-0.003775398349760293,0.03803808706710306
-0.003775228349760293,0.03770895148955815
-0.003775058349760293,0.03741272946976665
-0.003774888349760293,0.03685319898794021
-0.003774718349760293,0.03619492783284906
-0.003774548349760293,0.03606327360182868
-0.003774378349760293,0.03547082956224821
-0.003774208349760293,0.03530626177347602
-0.003774038349760293,0.03530626177347459
-0.003773868349760293,0.03451633638736665
-0.003773698349760293,0.03441759571410298
-0.003773528349760294,0.03408846013655801
-0.003773358349760293,0.03385806523227348
-0.003773188349760293,0.0332985347504466
-0.003773018349760293,0.03250860936433866
-0.003772848349760293,0.03250860936433866
-0.003772678349760293,0.03204781955577487
-0.003772508349760294,0.03171868397822989
-0.003772338349760293,0.03132372128517389
-0.003772168349760293,0.03112623993864655
-0.003771998349760293,0.03073127724559109
-0.003771828349760293,0.02990843830172865
-0.003771658349760293,0.02931599426214663
-0.003771488349760294,0.02918434003112864
-0.003771318349760293,0.02898685868460106
-0.003771148349760293,0.0289868586845989
-0.003770978349760293,0.02780197060543742
-0.003770808349760293,0.0280323655097189
-0.003770638349760293,0.02727535368136409
-0.003770468349760294,0.02684747743055562
-0.003770298349760293,0.0267487367572895
-0.003770128349760293,0.02628794694872755
-0.003769958349760293,0.02638668762199146
-0.003769788349760293,0.02661708252627295
-0.003769618349760293,0.02658416896851839
-0.003769448349760294,0.0264196011797456
-0.003769278349760293,0.02530054021609174
-0.003769108349760293,0.02559676223588191
-0.003768938349760293,0.02572841646689907
-0.003768768349760293,0.0252676266583361
-0.003768598349760293,0.02474100973426319
-0.003768428349760294,0.02474100973426319
-0.003768258349760293,0.02431313348345359
-0.003768088349760293,0.02421439281019052
-0.003767918349760293,0.02434604704120779
-0.003767748349760293,0.02395108434815358
-0.003767578349760293,0.02381943011713559
-0.003767408349760294,0.02355612165509913
-0.003767238349760293,0.02342446742407899
-0.003767068349760293,0.02289785050001027
-0.003766898349760293,0.02414856569467554
-0.003766728349760293,0.02105469126575208
-0.003766558349760293,0.02065972857269811
-0.003766388349760293,0.01977106251332507
-0.003766218349760293,0.01894822356945838
-0.003766048349760293,0.01819121174110513
-0.003765878349760293,0.01786207616356004
-0.003765708349760293,0.01746711347050482
-0.003765538349760293,0.01677592875766037
-0.003765368349760293,0.01638096606460569
-0.003765198349760293,0.0162822253913395
-0.003765028349760293,0.01559104067849955
-0.003764858349760293,0.01647970673787007
-0.003764688349760293,0.01687466943092416
-0.003764518349760293,0.01694049654643316
-0.003764348349760293,0.0171379778929605
-0.003764178349760293,0.01805955751008822
-0.003764008349760293,0.01809247106784265
-0.003763838349760293,0.01809247106784373
-0.003763668349760293,0.01868491510742444
-0.003763498349760293,0.01855326087640645
-0.003763328349760293,0.01868491510742468
-0.003763158349760294,0.01914570491598764
-0.003762988349760293,0.01878365578069027
-0.003762818349760293,0.01931027270476079
-0.003762648349760293,0.01904696424272427
-0.003762478349760293,0.0187507422229338
-0.003762308349760293,0.01914570491598848
-0.003762138349760294,0.01875074222293452
-0.003761968349760293,0.01914570491598908
-0.003761798349760293,0.01931027270476133
-0.003761628349760293,0.01934318626251564
-0.003761458349760293,0.01924444558925215
-0.003761288349760293,0.01917861847374304
-0.003761118349760294,0.01875074222293457
-0.003760948349760293,0.01963940828230241
-0.003760778349760293,0.01842160664538775
-0.003760608349760293,0.01815829818335117
-0.003760438349760293,0.0178291626058062
-0.003760268349760293,0.0169075829886786
-0.003760098349760294,0.01657844741113363
-0.003759928349760293,0.0155581271207396
-0.003759758349760293,0.01496568308115835
-0.003759588349760293,0.0142086712528036
-0.003759418349760293,0.01348457298220466
-0.003759248349760293,0.0122996849030406
-0.003759078349760294,0.01147684595917817
-0.003758908349760293,0.01114771038162871
-0.003758738349760293,0.01048943922653978
-0.003758568349760293,0.01039069855327527
-0.003758398349760293,0.00983116807144882
-0.003758228349760293,0.009600773167166921
-0.003758058349760294,0.009271637589621349
-0.003757888349760293,0.009271637589622905
-0.003757718349760293,0.009699513840432808
-0.003757548349760293,0.01091731547734855
-0.003757378349760293,0.01055526634205123
-0.003757208349760293,0.01174015442121313
-0.003757038349760294,0.01174015442121313
-0.003756868349760293,0.01243133913406075
-0.003756698349760293,0.01295795605813384
-0.003756528349760293,0.01410993057954304
-0.003756358349760293,0.01509733731217934
-0.003756188349760293,0.01585434914053277
-0.003756018349760294,0.01611765760256923
-0.003755848349760293,0.01618348471808169
-0.003755678349760293,0.0171050643352069
-0.003755508349760293,0.0173683727972418
-0.003755338349760293,0.01703923721969659
-0.003755168349760293,0.0169075829886786
-0.003754998349760293,0.01687466943092404
-0.003754828349760293,0.01664427452664118
-0.003754658349760293,0.01638096606460413
-0.003754488349760293,0.01595308981379644
-0.003754318349760293,0.01595308981379602
-0.003754148349760293,0.01572269490951454
-0.003753978349760293,0.01615057116032378
-0.003753808349760293,0.01595308981379728
-0.003753638349760293,0.01618348471807882
-0.003753468349760293,0.01631513894909532
-0.003753298349760293,0.01562395423625111
-0.003753128349760293,0.0157556084672691
-0.003752958349760293,0.01509733731217796
-0.003752788349760294,0.01410993057954304
-0.003752618349760293,0.01325417807792108
-0.003752448349760293,0.0127933882693577
-0.003752278349760293,0.0121022035565126
-0.003752108349760293,0.01174015442121313
-0.003751938349760293,0.01091731547734921
-0.003751768349760294,0.01019321720675027
-0.003751598349760293,0.009633686724918843
-0.003751428349760293,0.008909588454320803
-0.003751258349760293,0.008679193550039741
-0.003751088349760293,0.008909588454321223
-0.003750918349760293,0.00871210710779388
-0.003750748349760294,0.008876674896566364
-0.003750578349760293,0.009567859609413202
-0.003750408349760293,0.009798254513694383
-0.003750238349760293,0.009864081629203917
-0.003750068349760293,0.01016030364899439
-0.003749898349760293,0.01055526634204908
-0.003749728349760294,0.0103248714377676
-0.003749558349760293,0.01025904432225902
-0.003749388349760293,0.0105223527842944
-0.003749218349760293,0.01045652566878451
-0.003749048349760293,0.009962822302467049
-0.003748878349760293,0.01055526634204908
-0.003748708349760294,0.01071983413082156
-0.003748538349760293,0.01141101884366888
-0.003748368349760293,0.01177306797896787
-0.003748198349760293,0.01187180865223477
-0.003748028349760293,0.01374788144424112
-0.003747858349760293,0.01279338826935896
-0.003747688349760294,0.01289212894262263
-0.003747518349760293,0.01318835096241532
-0.003747348349760293,0.01364914077097822
-0.003747178349760293,0.01407701702178818
-0.003747008349760293,0.01489985596565062
-0.003746838349760293,0.01526190510095074
-0.003746668349760294,0.01578852202502366
-0.003746498349760293,0.01588726269828793
-0.003746328349760293,0.01605183048706143
-0.003746158349760293,0.01677592875765989
-0.003745988349760293,0.01651262029562481
-0.003745818349760293,0.01700632366194227
-0.003745648349760294,0.01717089145071506
-0.003745478349760293,0.01723671856622405
-0.003745308349760293,0.01720380500846901
-0.003745138349760293,0.01703923721969683
-0.003744968349760293,0.01703923721969599
-0.003744798349760293,0.01657844741113303
-0.003744628349760293,0.01608474404481467
-0.003744458349760293,0.01601891692930316
-0.003744288349760293,0.01536064577421322
-0.003744118349760293,0.01503151019666777
-0.003743948349760293,0.01443906615708658
-0.003743778349760293,0.01430741192606859
-0.003743608349760293,0.013682054328732
-0.003743438349760293,0.0124313391340568
-0.003743268349760293,0.01187180865222861
-0.003743098349760293,0.01111479682387517
-0.003742928349760293,0.01035778499552078
-0.003742758349760293,0.00983116807144882
-0.003742588349760293,0.009008329127584893
-0.003742418349760293,0.008777934223301916
-0.003742248349760293,0.008481712203510782
-0.003742078349760293,0.008152576625967127
-0.003741908349760293,0.008547539319020974
-0.003741738349760293,0.008481712203511979
-0.003741568349760293,0.008547539319021094
-0.003741398349760294,0.008547539319021094
-0.003741228349760293,0.008876674896566425
-0.003741058349760293,0.008810847781058747
-0.003740888349760293,0.009469118936148692
-0.003740718349760293,0.009469118936148692
-0.003740548349760293,0.009929908744712493
-0.003740378349760294,0.009995735860221486
-0.003740208349760293,0.01002864941797533
-0.003740038349760293,0.009798254513695162
-0.003739868349760293,0.01029195788001292
-0.003739698349760293,0.01045652566878541
-0.003739528349760293,0.01065400701531275
-0.003739358349760294,0.01108188326612121
-0.003739188349760293,0.01160850019019478
-0.003739018349760293,0.01157558663244154
-0.003738848349760293,0.01223385778753197
-0.003738678349760293,0.01249716624956795
-0.003738508349760293,0.01289212894262263
-0.003738338349760294,0.0133200051934311
-0.003738168349760293,0.01299086961588558
-0.003737998349760293,0.0127933882693595
-0.003737828349760293,0.01308961028915057
-0.003737658349760293,0.01341874586669555
-0.003737488349760293,0.01341874586669555
-0.003737318349760294,0.01378079500199567
-0.003737148349760293,0.01368205432873128
-0.003736978349760293,0.0134845729822049
-0.003736808349760293,0.01361622721322373
-0.003736638349760293,0.01407701702178669
-0.003736468349760293,0.01361622721322289
-0.003736298349760294,0.01315543740465909
-0.003736128349760293,0.0137807950019922
-0.003735958349760293,0.01282630182711412
-0.003735788349760293,0.01315543740465915
-0.003735618349760293,0.01318835096241221
-0.003735448349760293,0.01239842557630427
-0.003735278349760294,0.01200346288324959
-0.003735108349760293,0.01183889509447405
-0.003734938349760293,0.01108188326612151
-0.003734768349760293,0.01081857480408398
-0.003734598349760293,0.009962822302466451
-0.003734428349760293,0.009633686724921478
-0.003734258349760293,0.00983116807144882
-0.003734088349760293,0.008909588454320504
-0.003733918349760293,0.008712107107794239
-0.003733748349760293,0.008810847781056771
-0.003733578349760293,0.008382971530248548
-0.003733408349760293,0.008514625761266537
-0.003733238349760293,0.008152576625966409
-0.003733068349760293,0.008580452876776249
-0.003732898349760293,0.008745020665548676
-0.003732728349760293,0.008810847781058569
-0.003732558349760293,0.009370378262885681
-0.003732388349760293,0.00973242739818515
-0.003732218349760293,0.01039069855327629
-0.003732048349760293,0.01068692057306755
-0.003731878349760293,0.01075274768857618
-0.003731708349760293,0.01068692057306761
-0.003731538349760293,0.01085148836183973
-0.003731368349760293,0.01065400701531275
-0.003731198349760293,0.01058817989980363
-0.003731028349760294,0.01052235278429464
-0.003730858349760293,0.0103248714377667
-0.003730688349760293,0.01019321720674823
-0.003730518349760293,0.009798254513694264
-0.003730348349760293,0.009798254513694264
-0.003730178349760293,0.01006156297573072
-0.003730008349760294,0.01039069855327569
-0.003729838349760293,0.01052235278429464
-0.003729668349760293,0.01055526634204992
-0.003729498349760293,0.01101605615061318
-0.003729328349760293,0.01118062393938566
-0.003729158349760293,0.01019321720674895
-0.003728988349760294,0.01256299336507275
-0.003728818349760293,0.01150975951693219
-0.003728648349760293,0.01177306797896799
-0.003728478349760293,0.01193763576774119
-0.003728308349760293,0.01233259846079516
-0.003728138349760293,0.01269464759609529
-0.003727968349760294,0.01302378317364026
-0.003727798349760293,0.01378079500199579
-0.003727628349760293,0.01381370855975107
-0.003727458349760293,0.01427449836831217
-0.003727288349760293,0.01325417807792276
-0.003727118349760293,0.01499859663891429
-0.003726948349760294,0.01447197971484137
-0.003726778349760293,0.01499859663891429
-0.003726608349760293,0.01499859663891273
-0.003726438349760293,0.01414284413729532
-0.003726268349760293,0.01387953567525935
-0.003726098349760293,0.01332000519343187
-0.003725928349760294,0.0129908696158863
-0.003725758349760293,0.01269464759609277
-0.003725588349760293,0.01200346288324959
-0.003725418349760293,0.01200346288324857
-0.003725248349760293,0.01144393240142218
-0.003725078349760293,0.01147684595917668
-0.003724908349760294,0.01118062393938566
-0.003724738349760293,0.01124645105489286
-0.003724568349760293,0.0107198341308224
-0.003724398349760293,0.01101605615061234
-0.003724228349760293,0.01071983413082342
-0.003724058349760293,0.01157558663244035
-0.003723888349760293,0.01236551201854972
-0.003723718349760293,0.01243133913406135
-0.003723548349760293,0.01312252384690525
-0.003723378349760293,0.01332000519343265
-0.003723208349760293,0.01374788144424207
-0.003723038349760293,0.01427449836831403
-0.003722868349760293,0.01463654750361416
-0.003722698349760293,0.0148669424078969
-0.003722528349760293,0.01509733731217652
-0.003722358349760293,0.01470237461912208
-0.003722188349760293,0.01404410346403135
-0.003722018349760293,0.01361622721322289
-0.003721848349760293,0.0132212645201682
-0.003721678349760293,0.01256299336507467
-0.003721508349760293,0.01190472220998292
-0.003721338349760293,0.01108188326612169
-0.003721168349760293,0.01091731547734711
-0.003720998349760293,0.009765340955939707
-0.003720828349760293,0.009304551147375908
-0.003720658349760294,0.009370378262884902
-0.003720488349760293,0.008646279992284286
-0.003720318349760293,0.008514625761266178
-0.003720148349760293,0.008317144414740031
-0.003719978349760293,0.008777934223302994
-0.003719808349760293,0.008580452876775651
-0.003719638349760294,0.009469118936147075
-0.003719468349760293,0.008679193550037526
-0.003719298349760293,0.008185490183720966
