Analysis/New Tests_CMB/wrd01_d2s01_new/cmb12_ch33.csv

#Digilent WaveForms Oscilloscope Acquisition
#Device Name: ADP3450
#Serial Number: SN:210018B9D9B0
#Date Time: 2024-08-15 11:59:28.916.010.660
#Sample rate: 5.88235e+06Hz
#Samples: 32768
#Trigger: Source: Channel 3 Type: Edge Condition: Rising Level: 40 mV Hyst.: Auto HoldOff: 0 s
#Channel 3: Range: 100 mV/div Offset: 0 V Attenuation: 1 X Coupling: DC Bandwidth: 0 Hz Sample Mode: Average

Time (s),Channel 3 (V)
-0.003168895260741707,0.02428021992569939
-0.003168725260741707,0.02408273857917133
-0.003168555260741707,0.02368777588611736
-0.003168385260741707,0.02388525723264471
-0.003168215260741707,0.02404982502141755
-0.003168045260741707,0.02408273857917205
-0.003167875260741707,0.02411565213692661
-0.003167705260741707,0.02398399790590796
-0.003167535260741707,0.02375360300162648
-0.003167365260741707,0.02345738098183546
-0.003167195260741707,0.02289785050000829
-0.003167025260741707,0.02306241828878078
-0.003166855260741707,0.02207501155614406
-0.003166685260741707,0.02191044376736984
-0.003166515260741707,0.02112051838126191
-0.003166345260741707,0.02056098789943444
-0.003166175260741707,0.02006728453311536
-0.003166005260741707,0.0196723218400614
-0.003165835260741707,0.01927735914700671
-0.003165665260741707,0.01858617443416023
-0.003165495260741707,0.01815829818335177
-0.003165325260741707,0.0178291626058062
-0.003165155260741707,0.01789498972131519
-0.003164985260741707,0.01750002702826063
-0.003164815260741707,0.01786207616356076
-0.003164645260741707,0.01746711347050679
-0.003164475260741707,0.0175987677015243
-0.003164305260741707,0.01756585414376974
-0.003164135260741707,0.01766459481703323
-0.003163965260741707,0.0173683727972424
-0.003163795260741707,0.01756585414376974
-0.003163625260741707,0.01736837279724276
-0.003163455260741707,0.01750002702826063
-0.003163285260741707,0.01710506433520594
-0.003163115260741707,0.01680884231541547
-0.003162945260741707,0.01710506433520594
-0.003162775260741707,0.01700632366194227
-0.003162605260741707,0.01674301519990629
-0.003162435260741707,0.01680884231541493
-0.003162265260741707,0.01697341010418771
-0.003162095260741707,0.0171379778929602
-0.003161925260741707,0.01723671856622417
-0.003161755260741707,0.01756585414376974
-0.003161585260741707,0.01769750837478773
-0.003161415260741707,0.0175987677015243
-0.003161245260741707,0.0180595575100881
-0.003161075260741707,0.01743419991275265
-0.003160905260741707,0.01776333549029708
-0.003160735260741707,0.0178291626058062
-0.003160565260741707,0.01733545923948784
-0.003160395260741707,0.01753294058601518
-0.003160225260741707,0.01710506433520594
-0.003160055260741707,0.01661136096888758
-0.003159885260741707,0.01654553385337847
-0.003159715260741707,0.01657844741113303
-0.003159545260741707,0.0162163982758329
-0.003159375260741707,0.01522899154319553
-0.003159205260741707,0.01486694240789606
-0.003159035260741707,0.01476820173463239
-0.003158865260741707,0.01450489327259533
-0.003158695260741707,0.01417575769505036
-0.003158525260741707,0.01410993057954124
-0.003158355260741707,0.01394536279076888
-0.003158185260741707,0.01417575769505036
-0.003158015260741707,0.01358331365546833
-0.003157845260741707,0.01295795605813222
-0.003157675260741707,0.0132212645201682
-0.003157505260741707,0.0127604747116044
-0.003157335260741707,0.01305669673139386
-0.003157165260741707,0.01220094422977693
-0.003156995260741707,0.01177306797896769
-0.003156825260741707,0.01160850019019436
-0.003156655260741707,0.01131227817040389
-0.003156485260741707,0.01144393240142212
-0.003156315260741707,0.01098314259285844
-0.003156145260741707,0.01104896970836743
-0.003155975260741707,0.01104896970836743
-0.003155805260741707,0.01121353749714154
-0.003155635260741707,0.01193763576774048
-0.003155465260741707,0.011378105285913
-0.003155295260741707,0.01164141374795036
-0.003155125260741707,0.01213511711426782
-0.003154955260741707,0.01279338826935896
-0.003154785260741707,0.01318835096241293
-0.003154615260741707,0.01315543740465909
-0.003154445260741707,0.01387953567525935
-0.003154275260741707,0.01190472220998951
-0.003154105260741707,0.01332000519343187
-0.003153935260741707,0.01266173403834073
-0.003153765260741707,0.01269464759609523
-0.003153595260741707,0.01239842557630427
-0.003153425260741707,0.01236551201854972
-0.003153255260741707,0.01315543740465765
-0.003153085260741707,0.01272756115384985
-0.003152915260741707,0.01269464759609529
-0.003152745260741707,0.01236551201855032
-0.003152575260741707,0.01216803067202238
-0.003152405260741707,0.01295795605813175
-0.003152235260741707,0.01216803067202381
-0.003152065260741707,0.01236551201854972
-0.003151895260741707,0.01249716624956795
-0.003151725260741707,0.01239842557630445
-0.003151555260741707,0.01249716624956795
-0.003151385260741707,0.01239842557630427
-0.003151215260741707,0.01256299336507676
-0.003151045260741707,0.01200346288324959
-0.003150875260741707,0.01226677134528605
-0.003150705260741707,0.01216803067202256
-0.003150535260741707,0.01210220355651326
-0.003150365260741707,0.01200346288324959
-0.003150195260741707,0.01220094422977693
-0.003150025260741707,0.0118388950944768
-0.003149855260741707,0.01174015442121313
-0.003149685260741707,0.01190472220998592
-0.003149515260741707,0.01259590692283162
-0.003149345260741707,0.01279338826935896
-0.003149175260741707,0.01332000519343187
-0.003149005260741707,0.01394536279076846
-0.003148835260741707,0.01397827634852302
-0.003148665260741707,0.01463654750361416
-0.003148495260741707,0.0145707203881057
-0.003148325260741707,0.01493276952340517
-0.003148155260741707,0.015986003371551
-0.003147985260741707,0.01539355933196837
-0.003147815260741707,0.0150644237544234
-0.003147645260741707,0.0152948186587053
-0.003147475260741707,0.01509733731217772
-0.003147305260741707,0.01496568308115973
-0.003147135260741707,0.01463654750361416
-0.003146965260741707,0.01427449836831301
-0.003146795260741707,0.01371496788648656
-0.003146625260741707,0.01328709163567732
-0.003146455260741707,0.01292504250037629
-0.003146285260741707,0.01243133913405883
-0.003146115260741707,0.01236551201854972
-0.003145945260741707,0.01200346288324671
-0.003145775260741707,0.01042361211103085
-0.003145605260741707,0.01108188326612199
-0.003145435260741707,0.01045652566878534
-0.003145265260741707,0.01042361211103085
-0.003145095260741707,0.01012739009123984
-0.003144925260741707,0.01006156297573198
-0.003144755260741707,0.01075274768857642
-0.003144585260741707,0.009995735860221606
-0.003144415260741707,0.01006156297573048
-0.003144245260741707,0.009929908744712493
-0.003144075260741707,0.009534946051657807
-0.003143905260741707,0.01012739009123876
-0.003143735260741707,0.00973242739818515
-0.003143565260741707,0.01035778499552173
-0.003143395260741707,0.01085148836183919
-0.003143225260741707,0.01150975951693123
-0.003143055260741707,0.01177306797896769
-0.003142885260741707,0.01239842557630314
-0.003142715260741707,0.0127604747116044
-0.003142545260741707,0.01279338826935896
-0.003142375260741707,0.01299086961588594
-0.003142205260741707,0.01315543740465909
-0.003142035260741707,0.01282630182711352
-0.003141865260741707,0.01279338826935902
-0.003141695260741707,0.0125300798073225
-0.003141525260741707,0.01177306797896769
-0.003141355260741707,0.01197054932549467
-0.003141185260741707,0.01170724086345858
-0.003141015260741707,0.01167432730570402
-0.003140845260741707,0.01160850019019502
-0.003140675260741707,0.01157558663244035
-0.003140505260741707,0.01147684595917668
-0.003140335260741707,0.01253007980732059
-0.003140165260741707,0.01266173403834073
-0.003139995260741707,0.01308961028914997
-0.003139825260741707,0.01384662211750479
-0.003139655260741707,0.0143732390415777
-0.003139485260741707,0.01486694240789606
-0.003139315260741707,0.01466946106136872
-0.003139145260741707,0.01493276952340517
-0.003138975260741707,0.01522899154319619
-0.003138805260741707,0.01555812712074176
-0.003138635260741707,0.01680884231541493
-0.003138465260741707,0.01539355933196897
-0.003138295260741707,0.0162163982758329
-0.003138125260741707,0.01615057116032402
-0.003137955260741707,0.01628222539134202
-0.003137785260741707,0.01615057116032378
-0.003137615260741707,0.01605183048706011
-0.003137445260741707,0.01605183048706011
-0.003137275260741707,0.01608474404481467
-0.003137105260741707,0.01575560846727066
-0.003136935260741707,0.01661136096888758
-0.003136765260741707,0.0143732390415777
-0.003136595260741707,0.0137149678864868
-0.003136425260741707,0.01384662211750479
-0.003136255260741707,0.01315543740465909
-0.003136085260741707,0.01180598153672159
-0.003135915260741707,0.01144393240142212
-0.003135745260741707,0.01022613076450351
-0.003135575260741707,0.009864081629201701
-0.003135405260741707,0.008942502012075779
-0.003135235260741707,0.008350057972493751
-0.003135065260741707,0.008086749510457293
-0.003134895260741707,0.008086749510457293
-0.003134725260741707,0.007823441048420837
-0.003134555260741707,0.007461391913121247
-0.003134385260741707,0.007757613932911723
-0.003134215260741707,0.007099342777820581
-0.003134045260741707,0.006868947873538441
-0.003133875260741707,0.006737293642520453
-0.003133705260741707,0.006737293642520453
-0.003133535260741707,0.006309417391711988
-0.003133365260741707,0.006803120758029567
-0.003133195260741707,0.007165169893329695
-0.003133025260741707,0.007165169893329695
-0.003132855260741707,0.007823441048420837
-0.003132685260741707,0.008317144414739193
-0.003132515260741707,0.008810847781056652
-0.003132345260741707,0.009370378262885021
-0.003132175260741707,0.01025904432225806
-0.003132005260741707,0.01019321720674907
-0.003131835260741707,0.01042361211103085
-0.003131665260741707,0.01108188326612199
-0.003131495260741707,0.01141101884366696
-0.003131325260741707,0.01210220355651326
-0.003131155260741707,0.01259590692283162
-0.003130985260741707,0.01289212894262209
-0.003130815260741707,0.01371496788648656
-0.003130645260741707,0.01397827634852302
-0.003130475260741707,0.01463654750361296
-0.003130305260741707,0.01519607798544163
-0.003130135260741707,0.01595308981379644
-0.003129965260741707,0.01628222539134141
-0.003129795260741707,0.01641387962236024
-0.003129625260741707,0.01634805250685113
-0.003129455260741707,0.01631513894909663
-0.003129285260741707,0.01536064577421441
-0.003129115260741707,0.01532773221645986
-0.003128945260741707,0.01447197971484137
-0.003128775260741707,0.01328709163567732
-0.003128605260741707,0.01239842557630427
-0.003128435260741707,0.01170724086345858
-0.003128265260741707,0.01085148836184009
-0.003128095260741707,0.009962822302467049
-0.003127925260741707,0.00983116807144882
-0.003127755260741707,0.008909588454319786
-0.003127585260741707,0.00811966306821185
-0.003127415260741707,0.007757613932911723
-0.003127245260741707,0.0066714665270108
-0.003127075260741707,0.006375244507220324
-0.003126905260741707,0.006177763160692982
-0.003126735260741707,0.006013195371919897
-0.003126565260741707,0.005848627583147411
-0.003126395260741707,0.006013195371920196
-0.003126225260741707,0.006276503833957072
-0.003126055260741707,0.006506898738238553
-0.003125885260741707,0.007066429220066024
-0.003125715260741707,0.007461391913122804
-0.003125545260741707,0.008613366434530208
-0.003125375260741707,0.009469118936148692
-0.003125205260741707,0.01052235278429548
-0.003125035260741707,0.01104896970836743
-0.003124865260741707,0.01144393240142212
-0.003124695260741707,0.01206928999875936
-0.003124525260741707,0.01243133913405883
-0.003124355260741707,0.01223385778753149
-0.003124185260741707,0.01233259846079546
-0.003124015260741707,0.01249716624956795
-0.003123845260741707,0.01226677134528605
-0.003123675260741707,0.01210220355651302
-0.003123505260741707,0.01197054932549503
-0.003123335260741707,0.01210220355651326
-0.003123165260741707,0.0116085001901958
-0.003122995260741707,0.01177306797896769
-0.003122825260741707,0.01147684595917668
-0.003122655260741707,0.01170724086345816
-0.003122485260741707,0.01180598153672225
-0.003122315260741707,0.01193763576774048
-0.003122145260741707,0.01233259846079444
-0.003121975260741707,0.01239842557630427
-0.003121805260741707,0.01210220355651326
-0.003121635260741707,0.01239842557630374
-0.003121465260741707,0.01239842557630427
-0.003121295260741707,0.01312252384690453
-0.003121125260741707,0.01341874586669501
-0.003120955260741707,0.0139124492330139
-0.003120785260741707,0.01443906615708682
-0.003120615260741707,0.01447197971484131
-0.003120445260741707,0.01450489327259593
-0.003120275260741707,0.01430741192606859
-0.003120105260741707,0.0142086712528051
-0.003119935260741707,0.01371496788648656
-0.003119765260741707,0.01213511711426782
-0.003119595260741707,0.0135833136554657
-0.003119425260741707,0.01233259846079516
-0.003119255260741707,0.01174015442121313
-0.003119085260741707,0.01104896970836869
-0.003118915260741707,0.01104896970836743
-0.003118745260741707,0.01095022903510376
-0.003118575260741707,0.01016030364899439
-0.003118405260741707,0.01058817989980363
-0.003118235260741707,0.01022613076450351
-0.003118065260741707,0.01039069855327629
-0.003117895260741707,0.01124645105489478
-0.003117725260741707,0.01058817989980363
-0.003117555260741707,0.01085148836184009
-0.003117385260741707,0.01078566124633098
-0.003117215260741707,0.01085148836184009
-0.003117045260741707,0.011378105285913
-0.003116875260741707,0.01101605615061276
-0.003116705260741707,0.01095022903510376
-0.003116535260741707,0.01075274768857642
-0.003116365260741707,0.01144393240142236
-0.003116195260741707,0.01157558663244035
-0.003116025260741707,0.01157558663244035
-0.003115855260741707,0.01200346288324935
-0.003115685260741707,0.01187180865223136
-0.003115515260741707,0.0120692899987587
-0.003115345260741707,0.0119047222099867
-0.003115175260741707,0.01233259846079516
-0.003115005260741707,0.01197054932549503
-0.003114835260741707,0.01183889509447686
-0.003114665260741707,0.01187180865223136
-0.003114495260741707,0.01193763576774048
-0.003114325260741707,0.01078566124633122
-0.003114155260741707,0.01091731547734921
-0.003113985260741707,0.01058817989980363
-0.003113815260741707,0.0105223527842938
-0.003113645260741707,0.01012739009123984
-0.003113475260741707,0.01025904432225806
-0.003113305260741707,0.01035778499552215
-0.003113135260741707,0.01058817989980363
-0.003112965260741707,0.01045652566878541
-0.003112795260741707,0.01045652566878487
-0.003112625260741707,0.01016030364899439
-0.003112455260741707,0.01035778499552173
-0.003112285260741707,0.009896995186958774
-0.003112115260741707,0.01006156297573072
-0.003111945260741707,0.009633686724921478
-0.003111775260741707,0.0106210934575564
-0.003111605260741707,0.01009447653348528
-0.003111435260741707,0.01012739009123984
-0.003111265260741707,0.01068692057306629
-0.003111095260741707,0.01055526634204908
-0.003110925260741707,0.01098314259285832
-0.003110755260741707,0.01111479682387631
-0.003110585260741707,0.01071983413082186
-0.003110415260741707,0.01052235278429452
-0.003110245260741707,0.01203637644100139
-0.003110075260741707,0.01098314259285832
-0.003109905260741707,0.01091731547734921
-0.003109735260741707,0.0110160561506127
-0.003109565260741707,0.01078566124633098
-0.003109395260741707,0.01055526634204908
-0.003109225260741707,0.01134519172815701
-0.003109055260741707,0.01134519172815845
-0.003108885260741707,0.01114771038163111
-0.003108715260741707,0.0111806239393856
-0.003108545260741707,0.01127936461264933
-0.003108375260741707,0.01193763576774048
-0.003108205260741707,0.01157558663244101
-0.003108035260741707,0.01141101884366756
-0.003107865260741707,0.01131227817040389
-0.003107695260741707,0.01167432730570402
-0.003107525260741707,0.01150975951693123
-0.003107355260741707,0.01190472220998592
-0.003107185260741707,0.0125300798073225
-0.003107015260741707,0.01312252384690453
-0.003106845260741707,0.0127604747116044
-0.003106675260741707,0.01289212894262263
-0.003106505260741707,0.01305669673139596
-0.003106335260741707,0.01335291875118643
-0.003106165260741707,0.01295795605813175
-0.003105995260741707,0.01276047471160416
-0.003105825260741707,0.01262882048058617
-0.003105655260741707,0.01223385778753149
-0.003105485260741707,0.01206928999875775
-0.003105315260741707,0.01154267307468579
-0.003105145260741707,0.01111479682387655
-0.003104975260741707,0.01081857480408422
-0.003104805260741707,0.01009447653348528
-0.003104635260741707,0.00973242739818515
-0.003104465260741707,0.01062109345755681
-0.003104295260741707,0.009864081629203377
-0.003104125260741707,0.009798254513694264
-0.003103955260741707,0.009567859609412244
-0.003103785260741707,0.00950203249390325
-0.003103615260741707,0.009534946051657807
-0.003103445260741707,0.009107069800850002
-0.003103275260741707,0.009896995186957936
-0.003103105260741707,0.01025904432225806
-0.003102935260741707,0.01052235278429392
-0.003102765260741707,0.01019321720674895
-0.003102595260741707,0.01055526634204908
-0.003102425260741707,0.01114771038163182
-0.003102255260741707,0.01154267307468579
-0.003102085260741707,0.01180598153672225
-0.003101915260741707,0.01187180865223124
-0.003101745260741707,0.01239842557630427
-0.003101575260741707,0.01210220355651326
-0.003101405260741707,0.01206928999875877
-0.003101235260741707,0.011378105285913
-0.003101065260741707,0.01134519172815845
-0.003100895260741707,0.01121353749714046
-0.003100725260741707,0.01141101884366756
-0.003100555260741707,0.01081857480408553
-0.003100385260741707,0.01019321720675009
-0.003100215260741707,0.009929908744712493
-0.003100045260741707,0.009403291820639578
-0.003099875260741707,0.009008329127585611
-0.003099705260741707,0.008646279992284765
-0.003099535260741707,0.008481712203511979
-0.003099365260741707,0.008284230856984995
-0.003099195260741707,0.008745020665548437
-0.003099025260741707,0.009304551147375908
-0.003098855260741707,0.009370378262884902
-0.003098685260741707,0.009864081629203377
-0.003098515260741707,0.01002864941797616
-0.003098345260741707,0.01048943922653913
-0.003098175260741707,0.01019321720674895
-0.003098005260741707,0.01039069855327629
-0.003097835260741707,0.0102919578800128
-0.003097665260741707,0.01019321720674895
-0.003097495260741707,0.01022613076450351
-0.003097325260741707,0.01019321720674895
-0.003097155260741707,0.01104896970836743
-0.003096985260741707,0.01035778499552173
-0.003096815260741707,0.009896995186957936
-0.003096645260741707,0.009929908744712493
-0.003096475260741707,0.009666600282676035
-0.003096305260741707,0.009205810474112236
-0.003096135260741707,0.009600773167166921
-0.003095965260741707,0.009699513840430593
-0.003095795260741707,0.009633686724921478
-0.003095625260741707,0.01025904432225782
-0.003095455260741707,0.01012739009123984
-0.003095285260741707,0.01055526634204908
-0.003095115260741707,0.01032487143776832
-0.003094945260741707,0.01095022903510376
-0.003094775260741707,0.01111479682387655
-0.003094605260741707,0.01065400701531526
-0.003094435260741707,0.01203637644100415
-0.003094265260741707,0.01180598153672225
-0.003094095260741707,0.01203637644100433
-0.003093925260741707,0.01213511711426782
-0.003093755260741707,0.01170724086345858
-0.003093585260741707,0.01213511711426794
-0.003093415260741707,0.01220094422977693
-0.003093245260741707,0.01236551201854972
-0.003093075260741707,0.01223385778753131
-0.003092905260741707,0.01213511711426782
-0.003092735260741707,0.01233259846079516
-0.003092565260741707,0.01236551201854918
-0.003092395260741707,0.0120692899987587
-0.003092225260741707,0.01226677134528605
-0.003092055260741707,0.01272756115384979
-0.003091885260741707,0.01269464759609529
-0.003091715260741707,0.01285921538486808
-0.003091545260741707,0.01259590692282916
-0.003091375260741707,0.01124645105489478
-0.003091205260741707,0.01615057116032378
-0.003091035260741707,0.01088440191960423
-0.003090865260741707,0.01226677134528605
-0.003090695260741707,0.01443906615708682
-0.003090525260741707,0.01394536279076936
-0.003090355260741707,0.01443906615708682
-0.003090185260741707,0.01430741192606859
-0.003090015260741707,0.01434032548382308
