Analysis/New Tests_CMB/wrd01_d2s01_new/cmb12_test04.csv

#Digilent WaveForms Oscilloscope Acquisition
#Device Name: ADP3450
#Serial Number: SN:210018B9D9B0
#Date Time: 2024-08-15 11:09:57.911.302.560
#Sample rate: 1.42857e+07Hz
#Samples: 32768
#Trigger: Source: Channel 4 Type: Edge Condition: Rising Level: 160 mV Hyst.: Auto HoldOff: 0 s
#Channel 4: Range: 300 mV/div Offset: -860 mV Attenuation: 1 X Coupling: DC Bandwidth: 0 Hz Sample Mode: Average

Time (s),Channel 4 (V)
-0.001530490993420132,1.208625312202271
-0.001530420993420132,1.190730018783431
-0.001530350993420132,1.185036061786527
-0.001530280993420132,1.18259579450214
-0.001530210993420132,1.171207880508333
-0.001530140993420132,1.179342104789624
-0.001530070993420132,1.174461570220849
-0.001530000993420132,1.169581035652066
-0.001529930993420132,1.164700501083314
-0.001529860993420132,1.17283472536457
-0.001529790993420132,1.161446811370804
-0.001529720993420132,1.156566276802018
-0.001529650993420132,1.152499164661363
-0.001529580993420132,1.151685742233234
-0.001529510993420132,1.136230716098781
-0.001529440993420132,1.126469646961232
-0.001529370993420132,1.113454888111166
-0.001529300993420132,1.121589112392457
-0.001529230993420132,1.106947508686134
-0.001529160993420132,1.102066974117361
-0.001529090993420132,1.102880396545481
-0.001529020993420132,1.098813284404837
-0.001528950993420132,1.095559594692332
-0.001528880993420132,1.099626706832964
-0.001528810993420132,1.096373017120455
-0.001528740993420132,1.089865637695422
-0.001528670993420132,1.078477723701615
-0.001528600993420132,1.079291146129744
-0.001528530993420132,1.065462964851549
-0.001528460993420132,1.056515318142129
-0.001528390993420132,1.055701895714
-0.001528320993420132,1.051634783573326
-0.001528250993420132,1.036179757438904
-0.001528180993420132,1.037806602295167
-0.001528110993420132,1.041873714435798
-0.001528040993420132,1.028858955585763
-0.001527970993420132,1.030485800441998
-0.001527900993420132,1.028045533157611
-0.001527830993420132,1.016657619163803
-0.001527760993420132,1.015844196735674
-0.001527690993420132,1.016657619163803
-0.001527620993420132,1.008523394882512
-0.001527550993420132,1.0109636621669
-0.001527480993420132,0.9898146790355443
-0.001527410993420132,0.9906281014636601
-0.001527340993420132,0.9841207220386466
-0.001527270993420132,0.9881878341792772
-0.001527200993420132,0.9727328080448598
-0.001527130993420132,0.9767999201854772
-0.001527060993420132,0.9694791183323154
-0.001526990993420132,0.9735462304729608
-0.001526920993420132,0.9629717389072825
-0.001526850993420132,0.9540240921978624
-0.001526780993420132,0.9580912043385079
-0.001526710993420132,0.9515838249134752
-0.001526640993420132,0.9475167127728341
-0.001526570993420132,0.9499569800571962
-0.001526500993420132,0.9385690660633917
-0.001526430993420132,0.928807996925878
-0.001526360993420132,0.9345019539227537
-0.001526290993420132,0.9353153763508931
-0.001526220993420132,0.9149798156476656
-0.001526150993420132,0.9149798156476656
-0.001526080993420132,0.9027784792257291
-0.001526010993420132,0.9011516343694709
-0.001525940993420132,0.894644254944438
-0.001525870993420132,0.8930174100881798
-0.001525800993420132,0.8848831858068889
-0.001525730993420132,0.8791892288099969
-0.001525660993420132,0.8856966082350002
-0.001525590993420132,0.8759355390974864
-0.001525520993420132,0.875122116669341
-0.001525450993420132,0.8694281596724462
-0.001525380993420132,0.8621073578192739
-0.001525310993420132,0.8555999783942412
-0.001525240993420132,0.8604805129630158
-0.001525170993420132,0.8442120644004337
-0.001525100993420132,0.8450254868285628
-0.001525030993420132,0.8442120644004337
-0.001524960993420132,0.8385181074035301
-0.001524890993420132,0.8401449522597557
-0.001524820993420132,0.8222496588409599
-0.001524750993420132,0.8287570382659689
-0.001524680993420132,0.8255033485534703
-0.001524610993420132,0.8222496588409539
-0.001524540993420132,0.814115434559657
-0.001524470993420132,0.8027275205658495
-0.001524400993420132,0.8051677878502369
-0.001524330993420132,0.8051677878502369
-0.001524260993420132,0.7954067187126876
-0.001524190993420132,0.7921530290001713
-0.001524120993420132,0.7962201411408167
-0.001524050993420132,0.7758845804376084
-0.001523980993420132,0.7864590720032409
-0.001523910993420132,0.7718174682969704
-0.001523840993420132,0.7726308907250714
-0.001523770993420132,0.7644966664437965
-0.001523700993420132,0.7604295543031363
-0.001523630993420132,0.7547355973062326
-0.001523560993420132,0.7604295543031363
-0.001523490993420132,0.7571758645906199
-0.001523420993420132,0.7457879505968125
-0.001523350993420132,0.7522953300218452
-0.001523280993420132,0.7368403038873923
-0.001523210993420132,0.7425342608842798
-0.001523140993420132,0.7335866141748759
-0.001523070993420132,0.7335866141748759
-0.001523000993420132,0.7303329244623654
-0.001522930993420132,0.7278926571779767
-0.001522860993420132,0.725452389893585
-0.001522790993420132,0.7165047431841648
-0.001522720993420132,0.7140644758997775
-0.001522650993420132,0.7067436740466155
-0.001522580993420132,0.6977960273371955
-0.001522510993420132,0.7002362946215828
-0.001522440993420132,0.6945423376246791
-0.001522370993420132,0.6888483806277784
-0.001522300993420132,0.6904752254840277
-0.001522230993420132,0.687221535771523
-0.001522160993420132,0.6855946909152619
-0.001522090993420132,0.6774604666339827
-0.001522020993420132,0.6823410012027425
-0.001521950993420132,0.677460466633968
-0.001521880993420132,0.677460466633968
-0.001521810993420132,0.6676993974964187
-0.001521740993420132,0.6709530872089351
-0.001521670993420132,0.6693262423526769
-0.001521600993420132,0.662005440499515
-0.001521530993420132,0.6514309489338397
-0.001521460993420132,0.6530577937900963
-0.001521390993420132,0.6538712162182225
-0.001521320993420132,0.6530577937900963
-0.001521250993420132,0.6432967246525634
-0.001521180993420132,0.6319088106587383
-0.001521110993420132,0.6278416985180928
-0.001521040993420132,0.6319088106587383
-0.001520970993420132,0.6367893452275128
-0.001520900993420132,0.6180806293805435
-0.001520830993420132,0.6205208966649308
-0.001520760993420132,0.622147741521189
-0.001520690993420132,0.6164537845242735
-0.001520620993420132,0.6099464050992569
-0.001520550993420132,0.6123866723836353
-0.001520480993420132,0.6107598275273846
-0.001520410993420132,0.6026256032461054
-0.001520340993420132,0.5969316462491869
-0.001520270993420132,0.5961182238210578
-0.001520200993420132,0.5928645341085415
-0.001520130993420132,0.5936779565366705
-0.001520060993420132,0.5765960855459593
-0.001519990993420132,0.5863571546835086
-0.001519920993420132,0.5814766201147339
-0.001519850993420132,0.5757826631178288
-0.001519780993420132,0.5749692406896908
-0.001519710993420132,0.5692752836928019
-0.001519640993420132,0.5717155509771803
-0.001519570993420132,0.5741558182615676
-0.001519500993420132,0.5814766201147339
-0.001519430993420132,0.5643947491240229
-0.001519360993420132,0.5717155509771847
-0.001519290993420132,0.5481263005614407
-0.001519220993420132,0.5587007921271192
-0.001519150993420132,0.5562605248427318
-0.001519080993420132,0.5513799902739572
-0.001519010993420132,0.54080549870827
-0.001518940993420132,0.5359249641394969
-0.001518870993420132,0.5318578519988588
-0.001518800993420132,0.5318578519988588
-0.001518730993420132,0.5204699380050721
-0.001518660993420132,0.5245370501456968
-0.001518590993420132,0.5196565155769223
-0.001518520993420132,0.5066417567268566
-0.001518450993420132,0.5139625585800185
-0.001518380993420132,0.5220967828613096
-0.001518310993420132,0.5131491361518894
-0.001518240993420132,0.5107088688675021
-0.001518170993420132,0.5066417567268477
-0.001518100993420132,0.5017612221580821
-0.001518030993420132,0.5017612221580879
-0.001517960993420132,0.5050149118705926
-0.001517890993420132,0.495253842733067
-0.001517820993420132,0.4854927735955
-0.001517750993420132,0.4952538427330492
-0.001517680993420132,0.4838659287392418
-0.001517610993420132,0.4838659287392418
-0.001517540993420132,0.4765451268860799
-0.001517470993420132,0.4781719717423381
-0.001517400993420132,0.4692243250329179
-0.001517330993420132,0.4716645923173068
-0.001517260993420132,0.4724780147454284
-0.001517190993420132,0.4692243250329135
-0.001517120993420132,0.4667840577485351
-0.001517050993420132,0.4602766783235097
-0.001516980993420132,0.453769298898465
-0.001516910993420132,0.4635303680360143
-0.001516840993420132,0.4545827213265942
-0.001516770993420132,0.4627169456078852
-0.001516700993420132,0.453769298898465
-0.001516630993420132,0.4505156091859486
-0.001516560993420132,0.4472619194734322
-0.001516490993420132,0.444821652189042
-0.001516420993420132,0.4431948073327867
-0.001516350993420132,0.4431948073327719
-0.001516280993420132,0.4350605830515105
-0.001516210993420132,0.4204189793451985
-0.001516140993420132,0.4350605830514957
-0.001516070993420132,0.4309934709108502
-0.001516000993420132,0.4285532036264629
-0.001515930993420132,0.4318068933389793
-0.001515860993420132,0.4163518672045264
-0.001515790993420132,0.4236726690576883
-0.001515720993420132,0.4269263587702047
-0.001515650993420132,0.4187921344888974
-0.001515580993420132,0.4098444877795128
-0.001515510993420132,0.420418979345163
-0.001515440993420132,0.4155384447764062
-0.001515370993420132,0.4179787120607801
-0.001515300993420132,0.4082176429232354
-0.001515230993420132,0.413911599920139
-0.001515160993420132,0.4074042204951063
-0.001515090993420132,0.3960163065012988
-0.001515020993420132,0.4074042204951063
-0.001514950993420132,0.4041505307825898
-0.001514880993420132,0.3927626167887824
-0.001514810993420132,0.4017102634981877
-0.001514740993420132,0.3935760392169041
-0.001514670993420132,0.3895089270762497
-0.001514600993420132,0.3805612803668622
-0.001514530993420132,0.3862552373637392
-0.001514460993420132,0.3870686597918787
-0.001514390993420132,0.3846283925074914
-0.001514320993420132,0.373240478513684
-0.001514250993420132,0.3789344355105877
-0.001514180993420132,0.3756807457980713
-0.001514110993420132,0.3683599439449094
-0.001514040993420132,0.3708002112292967
-0.001513970993420132,0.3756807457980713
-0.001513900993420132,0.3594122972354893
-0.001513830993420132,0.3594122972354833
-0.001513760993420132,0.3561586075229788
-0.001513690993420132,0.3537183402385899
-0.001513620993420132,0.3618525645198618
-0.001513550993420132,0.3463975383854236
-0.001513480993420132,0.34070358138852
-0.001513410993420132,0.3553451850948438
-0.001513340993420132,0.3463975383854236
-0.001513270993420132,0.3504646505260691
-0.001513200993420132,0.3537183402385855
-0.001513130993420132,0.3529049178104564
-0.001513060993420132,0.3480243832416759
-0.001512990993420132,0.3447706935291551
-0.001512920993420132,0.3390767365322722
-0.001512850993420132,0.3463975383854103
-0.001512780993420132,0.3472109608135512
-0.001512710993420132,0.3366364692478744
-0.001512640993420132,0.3341962019634871
-0.001512570993420132,0.3390767365322618
-0.001512500993420132,0.3268754001103252
-0.001512430993420132,0.3236217103978088
-0.001512360993420132,0.3179277534009051
-0.001512290993420132,0.3187411758290342
-0.001512220993420132,0.3195545982571411
-0.001512150993420132,0.3073532618352372
-0.001512080993420132,0.3130472188321201
-0.001512010993420132,0.3122337964040029
-0.001511940993420132,0.3163009085446395
-0.001511870993420132,0.3114203739758723
-0.001511800993420132,0.301659304838323
-0.001511730993420132,0.3040995721227103
-0.001511660993420132,0.3130472188321305
-0.001511590993420132,0.2975921926976776
-0.001511520993420132,0.2975921926976776
-0.001511450993420132,0.2918982357007739
-0.001511380993420132,0.3000324599820515
-0.001511310993420132,0.2927116581288941
-0.001511240993420132,0.2878311235601372
-0.001511170993420132,0.282137166563235
-0.001511100993420132,0.2975921926976495
-0.001511030993420132,0.2935250805570321
-0.001510960993420132,0.2796968992788373
-0.001510890993420132,0.2829505889913537
-0.001510820993420132,0.2772566319944501
-0.001510750993420132,0.2772566319944501
-0.001510680993420132,0.2723760974256754
-0.001510610993420132,0.2715626749975463
-0.001510540993420132,0.2707492525694246
-0.001510470993420132,0.2748163647100731
-0.001510400993420132,0.2805103217069561
-0.001510330993420132,0.2707492525694349
-0.001510260993420132,0.2723760974256724
-0.001510190993420132,0.2674955628569008
-0.001510120993420132,0.260988183431868
-0.001510050993420132,0.2740029422819336
-0.001509980993420132,0.2683089852850299
-0.001509910993420132,0.2658687180006426
-0.001509840993420132,0.2626150282881262
-0.001509770993420132,0.2674955628569008
-0.001509700993420132,0.2520405367224508
-0.001509630993420132,0.2536673815786957
-0.001509560993420132,0.2479734245818127
-0.001509490993420132,0.2536673815786957
-0.001509420993420132,0.2618016058599823
-0.001509350993420132,0.2487868470099315
-0.001509280993420132,0.2430928900130278
-0.001509210993420132,0.2479734245818024
-0.001509140993420132,0.2398392003005113
-0.001509070993420132,0.2390257778723822
-0.001509000993420132,0.2390257778723822
-0.001508930993420132,0.244719734869286
-0.001508860993420132,0.2373989330161137
-0.001508790993420132,0.2317049760192396
-0.001508720993420132,0.2422794675848795
-0.001508650993420132,0.2422794675848987
-0.001508580993420132,0.2341452433036224
-0.001508510993420132,0.2292647087348331
-0.001508440993420132,0.2317049760192204
-0.001508370993420132,0.2325183984473495
-0.001508300993420132,0.237398933016124
-0.001508230993420132,0.2325183984473495
-0.001508160993420132,0.2414660451567695
-0.001508090993420132,0.2251975965941875
-0.001508020993420132,0.2341452433036062
-0.001507950993420132,0.2333318208754697
-0.001507880993420132,0.2284512863067114
-0.001507810993420132,0.232518398447342
-0.001507740993420132,0.2325183984473495
-0.001507670993420132,0.2235707517379293
-0.001507600993420132,0.2260110190223166
-0.001507530993420132,0.2251975965941875
-0.001507460993420132,0.2162499498847674
-0.001507390993420132,0.2154365274566383
-0.001507320993420132,0.2105559928878638
-0.001507250993420132,0.2138096826003801
-0.001507180993420132,0.2129962601722599
-0.001507110993420132,0.2178767947410315
-0.001507040993420132,0.2211304844535361
-0.001506970993420132,0.2178767947410315
-0.001506900993420132,0.2056754583191113
-0.001506830993420132,0.2170633723128965
-0.001506760993420132,0.2121828377441219
-0.001506690993420132,0.2073023031753473
-0.001506620993420132,0.2121828377441219
-0.001506550993420132,0.2097425704597345
-0.001506480993420132,0.1991680788940563
-0.001506410993420132,0.2007949237503145
-0.001506340993420132,0.1951009667534093
-0.001506270993420132,0.1942875443252758
-0.001506200993420132,0.1910338546127608
-0.001506130993420132,0.1885935873283824
-0.001506060993420132,0.1934741218971436
-0.001505990993420132,0.1942875443252817
-0.001505920993420132,0.1837130527596034
-0.001505850993420132,0.1877801649002488
-0.001505780993420132,0.189407009756507
-0.001505710993420132,0.1845264751877325
-0.001505640993420132,0.1812727854752161
-0.001505570993420132,0.1869667424721198
-0.001505500993420132,0.1853398976158586
-0.001505430993420132,0.1837130527596004
-0.001505360993420132,0.1820862079033393
-0.001505290993420132,0.1788325181908347
-0.001505220993420132,0.191033854612743
-0.001505150993420132,0.1690714490532795
-0.001505080993420132,0.1820862079033452
-0.001505010993420132,0.1715117163376668
-0.001504940993420132,0.1739519836220541
-0.001504870993420132,0.173138561193925
-0.001504800993420132,0.1772056733345705
-0.001504730993420132,0.1877801649002488
-0.001504660993420132,0.1796459406189579
-0.001504590993420132,0.1796459406189549
-0.001504520993420132,0.1780190957627085
-0.001504450993420132,0.1828996303314654
-0.001504380993420132,0.1796459406189638
-0.001504310993420132,0.1772056733345705
-0.001504240993420132,0.1698848714814086
-0.001504170993420132,0.1690714490532795
-0.001504100993420132,0.1739519836220541
-0.001504030993420132,0.1739519836220541
-0.001503960993420132,0.1706982939095377
-0.001503890993420132,0.1633774920563759
-0.001503820993420132,0.165004336912637
-0.001503750993420132,0.1666311817688789
-0.001503680993420132,0.1593103799157451
-0.001503610993420132,0.1674446041970065
-0.001503540993420132,0.1584969574876174
-0.001503470993420132,0.1650043369126341
-0.001503400993420132,0.164190914484505
-0.001503330993420132,0.1601238023438594
-0.001503260993420132,0.1682580266251504
-0.001503190993420132,0.1674446041970213
-0.001503120993420132,0.1625640696282468
-0.001503050993420132,0.1471090434937938
-0.001502980993420132,0.155243267775104
-0.001502910993420132,0.1658177593407365
-0.001502840993420132,0.151176155634423
-0.001502770993420132,0.1422285089250354
-0.001502700993420132,0.1609372247719544
-0.001502630993420132,0.1422285089250191
-0.001502560993420132,0.1422285089250191
-0.001502490993420132,0.148735888350052
-0.001502420993420132,0.1357211294999864
-0.001502350993420132,0.1414150864968901
-0.001502280993420132,0.1381613967843737
-0.001502210993420132,0.1397882416406319
-0.001502140993420132,0.1373479743562446
-0.001502070993420132,0.1519895780625625
-0.001502000993420132,0.1487358883500343
-0.001501930993420132,0.1389748192125205
-0.001501860993420132,0.1511761556344171
-0.001501790993420132,0.1511761556344393
-0.001501720993420132,0.1430419313531482
-0.001501650993420132,0.1528030004906975
-0.001501580993420132,0.1584969574876012
-0.001501510993420132,0.1503627332063102
-0.001501440993420132,0.1511761556344393
-0.001501370993420132,0.1511761556344393
-0.001501300993420132,0.1422285089250191
-0.001501230993420132,0.1422285089250132
-0.001501160993420132,0.1389748192125057
-0.001501090993420132,0.140601664068758
-0.001501020993420132,0.1316540173593572
-0.001500950993420132,0.1292137500749579
-0.001500880993420132,0.1316540173593409
-0.001500810993420132,0.1373479743562446
-0.001500740993420132,0.1316540173593409
-0.001500670993420132,0.1243332155061789
-0.001500600993420132,0.125146637934308
-0.001500530993420132,0.1340942846437282
-0.001500460993420132,0.1275869052186953
-0.001500390993420132,0.1218929482218079
-0.001500320993420132,0.1308405949312133
-0.001500250993420132,0.1316540173593394
-0.001500180993420132,0.1275869052187027
-0.001500110993420132,0.1251466379343125
-0.001500040993420132,0.125146637934308
-0.001499970993420132,0.1300271725030826
-0.001499900993420132,0.1243332155061789
-0.001499830993420132,0.125146637934308
-0.001499760993420132,0.1243332155061789
-0.001499690993420132,0.1194526809374044
-0.001499620993420132,0.1300271725030826
-0.001499550993420132,0.1259600603624371
-0.001499480993420132,0.1259600603624549
-0.001499410993420132,0.1357211294999686
-0.001499340993420132,0.1210795257936892
-0.001499270993420132,0.1210795257936625
-0.001499200993420132,0.1235197930780498
-0.001499130993420132,0.1210795257936625
-0.001499060993420132,0.1275869052186953
-0.001498990993420132,0.1210795257936625
-0.001498920993420132,0.1145721463686298
-0.001498850993420132,0.1284003276468244
-0.001498780993420132,0.1121318790842424
-0.001498710993420132,0.1161989912248924
-0.001498640993420132,0.1186392585092649
-0.001498570993420132,0.1129453015123818
-0.001498500993420132,0.1145721463686268
-0.001498430993420132,0.1080647669436087
-0.001498360993420132,0.1064379220873387
-0.001498290993420132,0.1023708099466932
-0.001498220993420132,0.1080647669435969
-0.001498150993420132,0.1072513445154678
-0.001498080993420132,0.1031842323748223
-0.001498010993420132,0.1023708099466932
-0.001497940993420132,0.100743965090435
-0.001497870993420132,0.09911712023418869
-0.001497800993420132,0.1056244996592022
-0.001497730993420132,0.1015573875185715
-0.001497660993420132,0.1015573875185641
-0.001497590993420132,0.09749027537792594
-0.001497520993420132,0.09911712023417685
-0.001497450993420132,0.1015573875185641
-0.001497380993420132,0.1056244996592096
-0.001497310993420132,0.1023708099466932
-0.001497240993420132,0.1023708099466932
-0.001497170993420132,0.1064379220873387
-0.001497100993420132,0.1056244996592096
-0.001497030993420132,0.1015573875185834
