Analysis/New Tests_CMB/wrd01_d2s01_new/cmb10_ch39.csv

#Digilent WaveForms Oscilloscope Acquisition
#Device Name: ADP3450
#Serial Number: SN:210018B9D9B0
#Date Time: 2024-08-14 17:17:17.909.534.330
#Sample rate: 5.88235e+06Hz
#Samples: 32768
#Trigger: Source: Channel 3 Type: Edge Condition: Rising Level: 60 mV Hyst.: Auto HoldOff: 0 s
#Channel 3: Range: 100 mV/div Offset: 0 V Attenuation: 1 X Coupling: DC Bandwidth: 0 Hz Sample Mode: Average

Time (s),Channel 3 (V)
-0.003798403195647739,0.2121508075887114
-0.003798233195647739,0.2247896137664815
-0.003798063195647739,0.2359143962875016
-0.003797893195647739,0.245689722940605
-0.003797723195647739,0.2529965327621272
-0.003797553195647739,0.2587893189269188
-0.003797383195647739,0.2638580068211206
-0.003797213195647739,0.2677088930784091
-0.003797043195647739,0.2706711132763139
-0.003796873195647739,0.2717572606822143
-0.003796703195647739,0.271362297989157
-0.003796533195647739,0.2699141014479591
-0.003796363195647739,0.2683342506757403
-0.003796193195647739,0.2658328202863895
-0.003796023195647739,0.2633643034548022
-0.003795853195647739,0.2596121578707827
-0.003795683195647739,0.2573082088279566
-0.003795513195647739,0.2533914954551714
-0.003795343195647739,0.2495076956401337
-0.003795173195647739,0.2451960195742788
-0.003795003195647739,0.2408514299506851
-0.003794833195647739,0.2367372352313655
-0.003794663195647739,0.2325242998387899
-0.003794493195647739,0.2279822288686533
-0.003794323195647739,0.2241971697268793
-0.003794153195647739,0.2204450241428666
-0.003793983195647739,0.2161004345192582
-0.003793813195647739,0.2123812024929932
-0.003793643195647739,0.20899110604428
-0.003793473195647739,0.2055680960377999
-0.003793303195647739,0.2022767402623442
-0.003793133195647739,0.198491681120577
-0.003792963195647739,0.1951344982296053
-0.003792793195647739,0.1918102288963951
-0.003792623195647739,0.1886834409097178
-0.003792453195647739,0.1863465783091386
-0.003792283195647739,0.182824827629401
-0.003792113195647739,0.1786777193523343
-0.003791943195647739,0.1755509313656438
-0.003791773195647739,0.1712063417420423
-0.003791603195647739,0.1671250605804847
-0.003791433195647739,0.1641957539403217
-0.003791263195647739,0.1622209404750482
-0.003791093195647739,0.1592587202771435
-0.003790923195647739,0.1560331916171915
-0.003790753195647739,0.1531367985347905
-0.003790583195647739,0.1506353681454487
-0.003790413195647739,0.1483643326603797
-0.003790243195647739,0.145961642944297
-0.003790073195647739,0.1432627312084233
-0.003789903195647739,0.141057522838868
-0.003789733195647739,0.1380294755254488
-0.003789563195647739,0.1350672553275386
-0.003789393195647739,0.1320062944563648
-0.003789223195647739,0.1290769878162092
-0.003789053195647739,0.1275629641594996
-0.003788883195647739,0.1256868913674868
-0.003788713195647739,0.124041213479762
-0.003788543195647739,0.1207498577043063
-0.003788373195647739,0.1185446493347477
-0.003788203195647739,0.1167344036582503
-0.003788033195647739,0.1146608495197132
-0.003787863195647739,0.1126531224966816
-0.003787693195647739,0.1106783090314118
-0.003787523195647739,0.1080123108532927
-0.003787353195647739,0.105675448252716
-0.003787183195647739,0.1039639432494822
-0.003787013195647739,0.1023511789195088
-0.003786843195647739,0.1007713281472869
-0.003786673195647739,0.09902690958629859
-0.003786503195647739,0.09692044189000693
-0.003786333195647739,0.09484688775146635
-0.003786163195647739,0.09293790140170552
-0.003785993195647739,0.0909630879364321
-0.003785823195647739,0.08944906427971887
-0.003785653195647739,0.08747425081444904
-0.003785483195647739,0.08592731359998484
-0.003785313195647739,0.08480825263632817
-0.003785143195647739,0.08385375946144774
-0.003784973195647739,0.08266887138228371
-0.003784803195647739,0.08233973580473555
-0.003784633195647739,0.08092445282129218
-0.003784463195647739,0.079673737626619
-0.003784293195647739,0.07825845464317563
-0.003784123195647739,0.07723813435278179
-0.003783953195647739,0.07578993781158128
-0.003783783195647739,0.0752962344452638
-0.003783613195647739,0.07417717348160796
-0.003783443195647739,0.07318976674897126
-0.003783273195647739,0.07223527357409083
-0.003783103195647739,0.07154408886124339
-0.003782933195647739,0.07012880587779743
-0.003782763195647739,0.06877935000986306
-0.003782593195647739,0.06779194327722388
-0.003782423195647739,0.0664754009670416
-0.003782253195647739,0.06555382134991568
-0.003782083195647739,0.06433601971299538
-0.003781913195647739,0.06371066211565882
-0.003781743195647739,0.06193332999691595
-0.003781573195647739,0.06094592326427601
-0.003781403195647739,0.05900402335675714
-0.003781233195647739,0.05742417258454127
-0.003781063195647739,0.05564684046579232
-0.003780893195647739,0.05452777950213737
-0.003780723195647739,0.05373785411602944
-0.003780553195647739,0.05314541007644597
-0.003780383195647739,0.05215800334380926
-0.003780213195647739,0.05015027632078493
-0.003780043195647739,0.05064397968709963
-0.003779873195647739,0.04909704247263545
-0.003779703195647739,0.04827420352877152
-0.003779533195647739,0.0469905747763438
-0.003779363195647739,0.04636521717900721
-0.003779193195647739,0.04541072400412505
-0.003779023195647739,0.04448914438699746
-0.003778853195647739,0.0444562308292429
-0.003778683195647739,0.04475245284903391
-0.003778513195647739,0.04396252746292454
-0.003778343195647739,0.04290929361477872
-0.003778173195647739,0.04202062755540567
-0.003778003195647739,0.04103322082276818
-0.003777833195647739,0.04060534457195972
-0.003777663195647739,0.03965085139707756
-0.003777493195647739,0.03981541918584945
-0.003777323195647739,0.03932171581953199
-0.003777153195647739,0.03872927177994996
-0.003776983195647739,0.03876218533770356
-0.003776813195647739,0.03823556841363161
-0.003776643195647739,0.03764312437404958
-0.003776473195647739,0.03649114985263822
-0.003776303195647739,0.03547082956224881
-0.003776133195647739,0.03474673129164855
-0.003775963195647739,0.03392389234778349
-0.003775793195647739,0.03329853475044803
-0.003775623195647739,0.0326402635953569
-0.003775453195647739,0.03158702974721113
-0.003775283195647739,0.03161994330496563
-0.003775113195647739,0.0314882890739474
-0.003774943195647739,0.03122498061190986
-0.003774773195647739,0.03063253657232891
-0.003774603195647739,0.02957930272418309
-0.003774433195647739,0.0286906366648092
-0.003774263195647739,0.02822984685624624
-0.003774093195647739,0.02790071127870067
-0.003773923195647739,0.0280323655097183
-0.003773753195647739,0.02770322993217333
-0.003773583195647739,0.02737409435462776
-0.003773413195647739,0.02707787233483728
-0.003773243195647739,0.02625503339097282
-0.003773073195647739,0.02530054021609066
-0.003772903195647739,0.02507014531180918
-0.003772733195647739,0.02372068944387192
-0.003772563195647739,0.02579424358240902
-0.003772393195647739,0.02520179954282807
-0.003772223195647739,0.02477392329201775
-0.003772053195647739,0.02464226906099952
-0.003771883195647739,0.02434604704120904
-0.003771713195647739,0.02368777588611736
-0.003771543195647739,0.0243460470412085
-0.003771373195647739,0.02431313348345401
-0.003771203195647739,0.02414856569468116
-0.003771033195647739,0.02395108434815382
-0.003770863195647739,0.02316115896204589
-0.003770693195647739,0.02246997424919875
-0.003770523195647739,0.02204209799838951
-0.003770353195647739,0.02187753020961702
-0.003770183195647739,0.02204209799838951
-0.003770013195647739,0.02158130818982571
-0.003769843195647739,0.0217129624208437
-0.003769673195647739,0.02118634549677102
-0.003769503195647739,0.02131799972778925
-0.003769333195647739,0.02135091328554381
-0.003769163195647739,0.0210546912657528
-0.003768993195647739,0.02062681501494355
-0.003768823195647739,0.02033059299515254
-0.003768653195647739,0.01983688962883418
-0.003768483195647739,0.01993563030209785
-0.003768313195647739,0.01950775405128861
-0.003768143195647739,0.01891531001170658
-0.003767973195647739,0.01842160664538823
-0.003767803195647739,0.01786207616356076
-0.003767633195647739,0.01740128635499564
-0.003767463195647739,0.0166771880843967
-0.003767293195647739,0.01595308981379644
-0.003767123195647739,0.01575560846726892
-0.003766953195647739,0.01565686779400543
-0.003766783195647739,0.01493276952340517
-0.003766613195647739,0.01463654750361266
-0.003766443195647739,0.01381370855975023
-0.003766273195647739,0.01282630182711352
-0.003766103195647739,0.01210220355651284
-0.003765933195647739,0.01187180865223136
-0.003765763195647739,0.01262882048058617
-0.003765593195647739,0.01325417807792234
-0.003765423195647739,0.01302378317364086
-0.003765253195647739,0.01292504250037719
-0.003765083195647739,0.01226677134528659
-0.003764913195647739,0.01256299336507706
-0.003764743195647739,0.01279338826935896
-0.003764573195647739,0.01312252384690369
-0.003764403195647739,0.01266173403834073
-0.003764233195647739,0.01239842557630427
-0.003764063195647739,0.01246425269181405
-0.003763893195647739,0.01282630182711352
-0.003763723195647739,0.01341874586669555
-0.003763553195647739,0.01364914077097751
-0.003763383195647739,0.013682054328732
-0.003763213195647739,0.01318835096241365
-0.003763043195647739,0.01434032548382105
-0.003762873195647739,0.01381370855975023
-0.003762703195647739,0.01374788144424112
-0.003762533195647739,0.01374788144424112
-0.003762363195647739,0.01374788144424112
-0.003762193195647739,0.013682054328732
-0.003762023195647739,0.013682054328732
-0.003761853195647739,0.01371496788648656
-0.003761683195647739,0.01355040009771377
-0.003761513195647739,0.01345165942445028
-0.003761343195647739,0.01285921538486808
-0.003761173195647739,0.01243133913405883
-0.003761003195647739,0.01183889509447788
-0.003760833195647739,0.01157558663244035
-0.003760663195647739,0.01095022903510376
-0.003760493195647739,0.0105223527842953
-0.003760323195647739,0.009798254513694264
-0.003760153195647739,0.00904124268533945
-0.003759983195647739,0.008448798645758499
-0.003759813195647739,0.00811966306821185
-0.003759643195647739,0.007856354606175394
-0.003759473195647739,0.00765887325964841
-0.003759303195647739,0.007362651239857037
-0.003759133195647739,0.00677020720027501
-0.003758963195647739,0.006737293642520513
-0.003758793195647739,0.006342330949465767
-0.003758623195647739,0.006803120758029567
-0.003758453195647739,0.006473985180483996
-0.003758283195647739,0.006342330949465767
-0.003758113195647739,0.00630941739171121
-0.003757943195647739,0.006276503833956653
-0.003757773195647739,0.006276503833956653
-0.003757603195647739,0.006934774989047795
-0.003757433195647739,0.007296824124347924
-0.003757263195647739,0.007362651239857875
-0.003757093195647739,0.007823441048420837
-0.003756923195647739,0.007988008837193623
-0.003756753195647739,0.007790527490667178
-0.003756583195647739,0.008284230856984636
-0.003756413195647739,0.008382971530248308
-0.003756243195647739,0.007856354606175155
-0.003756073195647739,0.007724700375157166
-0.003755903195647739,0.006803120758029567
-0.003755733195647739,0.006111936045183089
-0.003755563195647739,0.005684059794374625
-0.003755393195647739,0.005585319121110954
-0.003755223195647739,0.006013195371921633
-0.003755053195647739,0.006803120758029567
-0.003754883195647739,0.00653981229599311
-0.003754713195647739,0.005716973352129242
-0.003754543195647739,0.00574988690988374
-0.003754373195647739,0.005815714025392853
-0.003754203195647739,0.006013195371919657
-0.003754033195647739,0.005716973352129182
-0.003753863195647739,0.006441071622729439
-0.003753693195647739,0.005289097101320598
-0.003753523195647739,0.005651146236620068
-0.003753353195647739,0.006276503833956653
-0.003753183195647739,0.006539812295994906
-0.003753013195647739,0.007527219028629823
-0.003752843195647739,0.008448798645757422
-0.003752673195647739,0.008514625761266418
-0.003752503195647739,0.00881084778105755
-0.003752333195647739,0.00881084778105755
-0.003752163195647739,0.008843761338812046
-0.003751993195647739,0.008876674896566664
-0.003751823195647739,0.00904124268533945
-0.003751653195647739,0.008646279992285483
-0.003751483195647739,0.007889268163929951
-0.003751313195647739,0.007658873259648051
-0.003751143195647739,0.007165169893330593
-0.003750973195647739,0.006803120758029567
-0.003750803195647739,0.006013195371920196
-0.003750633195647739,0.005289097101321256
-0.003750463195647739,0.005025788639283483
-0.003750293195647739,0.004564998830719684
-0.003750123195647739,0.004433344599701694
-0.003749953195647739,0.004235863253174112
-0.003749783195647739,0.003939641233383098
-0.003749613195647739,0.00440043104194606
-0.003749443195647739,0.004466258157456012
-0.003749273195647739,0.005025788639283483
-0.003749103195647739,0.003215542962786135
-0.003748933195647739,0.005387837774583611
-0.003748763195647739,0.005354924216829054
-0.003748593195647739,0.005157442870302071
-0.003748423195647739,0.004992875081528926
-0.003748253195647739,0.004861220850510698
-0.003748083195647739,0.005914454698656525
-0.003747913195647739,0.005552405563356397
-0.003747743195647739,0.005420751332338168
-0.003747573195647739,0.005157442870301712
-0.003747403195647739,0.005223269985810825
-0.003747233195647739,0.005190356428056269
-0.003747063195647739,0.004861220850510698
-0.003746893195647739,0.004992875081528926
-0.003746723195647739,0.005420751332338168
-0.003746553195647739,0.005815714025392853
-0.003746383195647739,0.006638552969256662
-0.003746213195647739,0.006572725853747667
-0.003746043195647739,0.007296824124347924
-0.003745873195647739,0.008185490183721444
-0.003745703195647739,0.008448798645757422
-0.003745533195647739,0.01022613076450351
-0.003745363195647739,0.009304551147373392
-0.003745193195647739,0.007922181721684508
-0.003745023195647739,0.007296824124347924
-0.003744853195647739,0.008514625761264981
-0.003744683195647739,0.007658873259648051
-0.003744513195647739,0.00653981229599311
-0.003744343195647739,0.003972554791141727
-0.003744173195647739,0.006210676718447538
-0.003744003195647739,0.005618232678865511
-0.003743833195647739,0.005453664890091348
-0.003743663195647739,0.004696653061737912
-0.003743493195647739,0.004400431041946898
-0.003743323195647739,0.004005468348892392
-0.003743153195647739,0.004104209022155884
-0.003742983195647739,0.004202949695419555
-0.003742813195647739,0.004433344599701814
-0.003742643195647739,0.004630825946228797
-0.003742473195647739,0.004499171715210569
-0.003742303195647739,0.004104209022154986
-0.003742133195647739,0.003610505655837527
-0.003741963195647739,0.003215542962782842
-0.003741793195647739,0.003281370078291837
-0.003741623195647739,0.002919320942991828
-0.003741453195647739,0.003314283636046514
-0.003741283195647739,0.00275475315422006
-0.003741113195647739,0.002425617576673472
-0.003740943195647739,0.002425617576673472
-0.003740773195647739,0.002261049787900985
-0.003740603195647739,0.002261049787900686
-0.003740433195647739,0.002129395556882458
-0.003740263195647739,0.003314283636044358
-0.003740093195647739,0.003149715847273728
-0.003739923195647739,0.004532085272965126
-0.003739753195647739,0.004400431041947137
-0.003739583195647739,0.005519492005601839
-0.003739413195647739,0.005585319121110954
-0.003739243195647739,0.006737293642518357
-0.003739073195647739,0.007329737682102481
-0.003738903195647739,0.007099342777820581
-0.003738733195647739,0.008020922394946504
-0.003738563195647739,0.007988008837193623
-0.003738393195647739,0.009074156243094007
-0.003738223195647739,0.009699513840429455
-0.003738053195647739,0.00950203249390325
-0.003737883195647739,0.01042361211103085
-0.003737713195647739,0.00956785960941392
-0.003737543195647739,0.009238724031866792
-0.003737373195647739,0.008942502012075779
-0.003737203195647739,0.007988008837193623
-0.003737033195647739,0.007658873259648051
-0.003736863195647739,0.007099342777820581
-0.003736693195647739,0.006704380084765896
-0.003736523195647739,0.006836034315784124
-0.003736353195647739,0.006868947873538681
-0.003736183195647739,0.007329737682102481
-0.003736013195647739,0.007198083451084791
-0.003735843195647739,0.007494305470875266
-0.003735673195647739,0.007461391913120709
-0.003735503195647739,0.007724700375157705
-0.003735333195647739,0.00802092239494818
-0.003735163195647739,0.008185490183720966
-0.003734993195647739,0.009041242685338192
-0.003734823195647739,0.008350057972493751
-0.003734653195647739,0.01012739009123984
-0.003734483195647739,0.009567859609410867
-0.003734313195647739,0.008745020665548437
-0.003734143195647739,0.007889268163929951
-0.003733973195647739,0.007132256335575318
-0.003733803195647739,0.007230997008838809
-0.003733633195647739,0.007329737682102481
-0.003733463195647739,0.007395564797611176
-0.003733293195647739,0.007165169893329695
-0.003733123195647739,0.006836034315784124
-0.003732953195647739,0.00657272585374665
-0.003732783195647739,0.006013195371920196
-0.003732613195647739,0.005486578447847282
-0.003732443195647739,0.005618232678864852
-0.003732273195647739,0.005256183543565383
-0.003732103195647739,0.005552405563356397
-0.003731933195647739,0.005519492005601181
-0.003731763195647739,0.005157442870301712
-0.003731593195647739,0.004466258157456012
-0.003731423195647739,0.004005468348893051
-0.003731253195647739,0.003676332771346642
-0.003731083195647739,0.003643419213592085
-0.003730913195647739,0.004137122579909543
-0.003730743195647739,0.00403838190664677
-0.003730573195647739,0.004433344599701455
-0.003730403195647739,0.004696653061737433
-0.003730233195647739,0.004597912388474241
-0.003730063195647739,0.004071295464401327
-0.003729893195647739,0.004202949695419316
-0.003729723195647739,0.004762480177247026
-0.003729553195647739,0.003939641233383098
-0.003729383195647739,0.004564998830718547
-0.003729213195647739,0.004071295464401327
-0.003729043195647739,0.004367517484192341
-0.003728873195647739,0.004433344599701335
-0.003728703195647739,0.004400431041946898
-0.003728533195647739,0.004861220850510698
-0.003728363195647739,0.004696653061738211
-0.003728193195647739,0.004400431041946898
-0.003728023195647739,0.004663739503983355
-0.003727853195647739,0.00495996152377383
-0.003727683195647739,0.004992875081528926
-0.003727513195647739,0.005124529312547154
-0.003727343195647739,0.005651146236619111
-0.003727173195647739,0.005486578447847282
-0.003727003195647739,0.005025788639283483
-0.003726833195647739,0.004894134408265255
-0.003726663195647739,0.004861220850510698
-0.003726493195647739,0.005025788639283483
-0.003726323195647739,0.005190356428056269
-0.003726153195647739,0.00574988690988374
-0.003725983195647739,0.006013195371920196
-0.003725813195647739,0.006638552969256781
-0.003725643195647739,0.00700060210455691
-0.003725473195647739,0.006638552969256781
-0.003725303195647739,0.007658873259648051
-0.003725133195647739,0.008448798645756345
-0.003724963195647739,0.007856354606175394
-0.003724793195647739,0.008284230856984636
-0.003724623195647739,0.009238724031867032
-0.003724453195647739,0.009370378262885021
-0.003724283195647739,0.009469118936148692
-0.003724113195647739,0.009436205378393476
-0.003723943195647739,0.009074156243094007
-0.003723773195647739,0.008646279992284765
-0.003723603195647739,0.008679193550037885
-0.003723433195647739,0.007889268163929951
-0.003723263195647739,0.007066429220066024
-0.003723093195647739,0.006770207200274531
-0.003722923195647739,0.006506898738238553
-0.003722753195647739,0.005914454698656525
-0.003722583195647739,0.005585319121110295
-0.003722413195647739,0.005223269985810825
-0.003722243195647739,0.004663739503983355
-0.003722073195647739,0.003873814117872308
-0.003721903195647739,0.002952234500746385
-0.003721733195647739,0.002425617576673472
-0.003721563195647739,0.00245853113442755
-0.003721393195647739,0.002195222672391572
-0.003721223195647739,0.002458531134428029
-0.003721053195647739,0.002656012480954593
-0.003720883195647739,0.002228136230146129
-0.003720713195647739,0.002162309114637015
-0.003720543195647739,0.001800259979337545
-0.003720373195647739,0.002293963345655243
-0.003720203195647739,0.002590185365446257
-0.003720033195647739,0.003116802289518213
-0.003719863195647739,0.003544678540328413
