Analysis/New Tests_CMB/wrd01_d2s01_new/cmb12_ch03.csv

#Digilent WaveForms Oscilloscope Acquisition
#Device Name: ADP3450
#Serial Number: SN:210018B9D9B0
#Date Time: 2024-08-15 11:40:14.249.328.790
#Sample rate: 5.88235e+06Hz
#Samples: 32768
#Trigger: Source: Channel 3 Type: Edge Condition: Rising Level: 40 mV Hyst.: Auto HoldOff: 0 s
#Channel 3: Range: 100 mV/div Offset: 0 V Attenuation: 1 X Coupling: DC Bandwidth: 0 Hz Sample Mode: Average

Time (s),Channel 3 (V)
-0.003168930879924224,0.03158702974721107
-0.003168760879924224,0.03119206705415549
-0.003168590879924224,0.03069836368783803
-0.003168420879924224,0.03020466032151967
-0.003168250879924224,0.02911851291562036
-0.003168080879924224,0.02971095695520131
-0.003167910879924224,0.02878937733807371
-0.003167740879924224,0.02865772310705507
-0.003167570879924224,0.02842732820277359
-0.003167400879924224,0.02770322993217333
-0.003167230879924224,0.02760448925890888
-0.003167060879924224,0.02717661300810041
-0.003166890879924224,0.0261892062754637
-0.003166720879924224,0.02569550290914433
-0.003166550879924224,0.02513597242731788
-0.003166380879924224,0.0243460470412085
-0.003166210879924224,0.02355612165509884
-0.003166040879924224,0.02339155386632635
-0.003165870879924224,0.02293076405776255
-0.003165700879924224,0.0223712335759343
-0.003165530879924224,0.02194335732512584
-0.003165360879924224,0.02141674040105292
-0.003165190879924224,0.02105469126575345
-0.003165020879924224,0.02049516078392532
-0.003164850879924224,0.02033059299515254
-0.003164680879924224,0.02065972857269751
-0.003164510879924224,0.02082429636147089
-0.003164340879924224,0.0210546912657528
-0.003164170879924224,0.02158130818982475
-0.003164000879924224,0.02125217261228014
-0.003163830879924224,0.02177878953635305
-0.003163660879924224,0.02207501155614353
-0.003163490879924224,0.02263454203797154
-0.003163320879924224,0.02223957934491685
-0.003163150879924224,0.0228320233844978
-0.003162980879924224,0.02283202338449888
-0.003162810879924224,0.02276619626898976
-0.003162640879924224,0.02276619626898976
-0.003162470879924224,0.02237123357593508
-0.003162300879924224,0.02237123357593508
-0.003162130879924224,0.02177878953635413
-0.003161960879924224,0.02168004886308938
-0.003161790879924224,0.02240414713368964
-0.003161620879924224,0.02253580136470763
-0.003161450879924224,0.02233832001818052
-0.003161280879924224,0.02279910982674432
-0.003161110879924224,0.02335864030857078
-0.003160940879924224,0.02408273857917205
-0.003160770879924224,0.02342446742408091
-0.003160600879924224,0.02385234367489015
-0.003160430879924224,0.02441187415671762
-0.003160260879924224,0.02464226906099952
-0.003160090879924224,0.02470809617650863
-0.003159920879924224,0.02513597242731788
-0.003159750879924224,0.02474100973426319
-0.003159580879924224,0.02467518261875408
-0.003159410879924224,0.02441187415671732
-0.003159240879924224,0.02424730636794483
-0.003159070879924224,0.02352320809734458
-0.003158900879924224,0.02316115896204247
-0.003158730879924224,0.02207501155614406
-0.003158560879924224,0.02115343193901647
-0.003158390879924224,0.02098886415024308
-0.003158220879924224,0.02065972857269811
-0.003158050879924224,0.02000145741760697
-0.003157880879924224,0.01914570491598771
-0.003157710879924224,0.01871782866517924
-0.003157540879924224,0.01838869308763367
-0.003157370879924224,0.01815829818335189
-0.003157200879924224,0.01822412529886088
-0.003157030879924224,0.0187507422229338
-0.003156860879924224,0.01931027270476276
-0.003156690879924224,0.02013311164862519
-0.003156520879924224,0.02069264213045267
-0.003156350879924224,0.02121925905452707
-0.003156180879924224,0.02204209799838951
-0.003156010879924224,0.02230540646042596
-0.003155840879924224,0.02286493694225361
-0.003155670879924224,0.02296367761551711
-0.003155500879924224,0.02306241828878078
-0.003155330879924224,0.02296367761551555
-0.003155160879924224,0.02210792511389862
-0.003154990879924224,0.02200918444063495
-0.003154820879924224,0.0213838268432995
-0.003154650879924224,0.0210546912657528
-0.003154480879924224,0.02062681501494355
-0.003154310879924224,0.0200014574176081
-0.003154140879924224,0.0199027167443433
-0.003153970879924224,0.01963940828230684
-0.003153800879924224,0.02023185232188779
-0.003153630879924224,0.01980397607107963
-0.003153460879924224,0.01950775405128861
-0.003153290879924224,0.02036350655290554
-0.003153120879924224,0.0203635065529071
-0.003152950879924224,0.02019893876413431
-0.003152780879924224,0.02046224722617029
-0.003152610879924224,0.02006728453311608
-0.003152440879924224,0.02033059299515254
-0.003152270879924224,0.01924444558925413
-0.003152100879924224,0.01957358116679772
-0.003151930879924224,0.01894822356946114
-0.003151760879924224,0.01960649472455108
-0.003151590879924224,0.01924444558925215
-0.003151420879924224,0.01881656933844291
-0.003151250879924224,0.0189482235694609
-0.003151080879924224,0.01858617443416101
-0.003150910879924224,0.01898113712721569
-0.003150740879924224,0.01858617443416173
-0.003150570879924224,0.01845452020314278
-0.003150400879924224,0.01835577952987911
-0.003150230879924224,0.01796081683682443
-0.003150060879924224,0.01733545923948784
-0.003149890879924224,0.01677592875766037
-0.003149720879924224,0.01628222539134202
-0.003149550879924224,0.01588726269828733
-0.003149380879924224,0.01578852202502366
-0.003149210879924224,0.01545938644747809
-0.003149040879924224,0.01631513894909657
-0.003148870879924224,0.01410993057954124
-0.003148700879924224,0.01489985596565062
-0.003148530879924224,0.01536064577421441
-0.003148360879924224,0.01536064577421441
-0.003148190879924224,0.01539355933196897
-0.003148020879924224,0.01598600337155184
-0.003147850879924224,0.0164467931801148
-0.003147680879924224,0.01647970673786936
-0.003147510879924224,0.01667718808439682
-0.003147340879924224,0.01674301519990581
-0.003147170879924224,0.01638096606460569
-0.003147000879924224,0.01641387962236018
-0.003146830879924224,0.01638096606460569
-0.003146660879924224,0.01638096606460569
-0.003146490879924224,0.01611765760256989
-0.003146320879924224,0.01647970673786936
-0.003146150879924224,0.01647970673786936
-0.003145980879924224,0.01667718808439712
-0.003145810879924224,0.0169075829886786
-0.003145640879924224,0.01717089145071506
-0.003145470879924224,0.01763168125927838
-0.003145300879924224,0.0173683727972424
-0.003145130879924224,0.01730254568173328
-0.003144960879924224,0.01845452020314146
-0.003144790879924224,0.01773042193254253
-0.003144620879924224,0.01825703885661544
-0.003144450879924224,0.0182570388566149
-0.003144280879924224,0.01796081683682443
-0.003144110879924224,0.0180595575100881
-0.003143940879924224,0.01789498972131561
-0.003143770879924224,0.01776333549029708
-0.003143600879924224,0.01819121174110632
-0.003143430879924224,0.01838869308763331
-0.003143260879924224,0.01868491510742468
-0.003143090879924224,0.0192115320314976
-0.003142920879924224,0.01891531001170712
-0.003142750879924224,0.01917861847374304
-0.003142580879924224,0.01891531001170658
-0.003142410879924224,0.01957358116679653
-0.003142240879924224,0.01980397607107963
-0.003142070879924224,0.0192115320314976
-0.003141900879924224,0.01888239645395262
-0.003141730879924224,0.01861908799191557
-0.003141560879924224,0.01789498972131531
-0.003141390879924224,0.01730254568173436
-0.003141220879924224,0.01687466943092404
-0.003141050879924224,0.015986003371551
-0.003140880879924224,0.01568978135176052
-0.003140710879924224,0.01568978135175999
-0.003140540879924224,0.0152948186587053
-0.003140370879924224,0.0152619051009508
-0.003140200879924224,0.01493276952340517
-0.003140030879924224,0.01466946106136872
-0.003139860879924224,0.01447197971484137
-0.003139690879924224,0.0139124492330139
-0.003139520879924224,0.01443906615708682
-0.003139350879924224,0.01447197971484137
-0.003139180879924224,0.01499859663891429
-0.003139010879924224,0.01585434914053277
-0.003138840879924224,0.01618348471807834
-0.003138670879924224,0.01647970673786936
-0.003138500879924224,0.01631513894909657
-0.003138330879924224,0.01664427452664214
-0.003138160879924224,0.01694049654643441
-0.003137990879924224,0.01763168125927886
-0.003137820879924224,0.01684175587316948
-0.003137650879924224,0.017368372797243
-0.003137480879924224,0.01769750837478797
-0.003137310879924224,0.01756585414376974
-0.003137140879924224,0.01769750837478761
-0.003136970879924224,0.01750002702826063
-0.003136800879924224,0.01746711347050607
-0.003136630879924224,0.01717089145071452
-0.003136460879924224,0.01687466943092404
-0.003136290879924224,0.01677592875766037
-0.003136120879924224,0.0166771880843967
-0.003135950879924224,0.0166771880843967
-0.003135780879924224,0.01624931183358745
-0.003135610879924224,0.0160189169293046
-0.003135440879924224,0.01549230000523264
-0.003135270879924224,0.01634805250685113
-0.003135100879924224,0.01657844741113321
-0.003134930879924224,0.0166771880843967
-0.003134760879924224,0.01694049654643316
-0.003134590879924224,0.01720380500846871
-0.003134420879924224,0.01671010164215126
-0.003134250879924224,0.01832286597212456
-0.003134080879924224,0.01773042193254426
-0.003133910879924224,0.01868491510742468
-0.003133740879924224,0.01845452020314278
-0.003133570879924224,0.01875074222293326
-0.003133400879924224,0.01884948289619747
-0.003133230879924224,0.0192115320314976
-0.003133060879924224,0.01980397607107855
-0.003132890879924224,0.02046224722617077
-0.003132720879924224,0.02039642011066165
-0.003132550879924224,0.02026476587964366
-0.003132380879924224,0.02023185232188887
-0.003132210879924224,0.02010019809087064
-0.003132040879924224,0.02039642011066111
-0.003131870879924224,0.02085720991922545
-0.003131700879924224,0.02112051838126191
-0.003131530879924224,0.02079138280371694
-0.003131360879924224,0.02029767943739798
-0.003131190879924224,0.02026476587964342
-0.003131020879924224,0.02013311164862543
-0.003130850879924224,0.0192115320314976
-0.003130680879924224,0.01884948289619747
-0.003130510879924224,0.01786207616356255
-0.003130340879924224,0.01555812712074176
-0.003130170879924224,0.0166771880843967
-0.003130000879924224,0.01634805250685173
-0.003129830879924224,0.01582143558277821
-0.003129660879924224,0.0150644237544234
-0.003129490879924224,0.01427449836831547
-0.003129320879924224,0.01410993057954124
-0.003129150879924224,0.01410993057954124
-0.003128980879924224,0.01381370855975023
-0.003128810879924224,0.01341874586669555
-0.003128640879924224,0.01325417807792276
-0.003128470879924224,0.01308961028914997
-0.003128300879924224,0.01364914077097745
-0.003128130879924224,0.01351748653995922
-0.003127960879924224,0.01394536279076846
-0.003127790879924224,0.01506442375442178
-0.003127620879924224,0.01417575769505036
-0.003127450879924224,0.01565686779400543
-0.003127280879924224,0.01588726269828781
-0.003127110879924224,0.01615057116032378
-0.003126940879924224,0.01657844741113303
-0.003126770879924224,0.01697341010418753
-0.003126600879924224,0.01687466943092404
-0.003126430879924224,0.01664427452664214
-0.003126260879924224,0.01647970673786918
-0.003126090879924224,0.01638096606460569
-0.003125920879924224,0.01601891692930556
-0.003125750879924224,0.01684175587316721
-0.003125580879924224,0.01559104067849632
-0.003125410879924224,0.01559104067849632
-0.003125240879924224,0.01549230000523145
-0.003125070879924224,0.0148340288501415
-0.003124900879924224,0.01466946106136872
-0.003124730879924224,0.014603633945859
-0.003124560879924224,0.01427449836831403
-0.003124390879924224,0.01440615259933226
-0.003124220879924224,0.01414284413729586
-0.003124050879924224,0.01417575769505036
-0.003123880879924224,0.01378079500199567
-0.003123710879924224,0.01404410346403147
-0.003123540879924224,0.013682054328732
-0.003123370879924224,0.01378079500199567
-0.003123200879924224,0.01391244923301366
-0.003123030879924224,0.01378079500199567
-0.003122860879924224,0.01374788144424112
-0.003122690879924224,0.0139453627907681
-0.003122520879924224,0.01427449836831403
-0.003122350879924224,0.01407701702178669
-0.003122180879924224,0.01424158481055917
-0.003122010879924224,0.01499859663891429
-0.003121840879924224,0.01473528817687783
-0.003121670879924224,0.01499859663891381
-0.003121500879924224,0.01555812712074176
-0.003121330879924224,0.01582143558277821
-0.003121160879924224,0.01624931183358668
-0.003120990879924224,0.01697341010418771
-0.003120820879924224,0.0171379778929605
-0.003120650879924224,0.0171379778929605
-0.003120480879924224,0.01733545923948784
-0.003120310879924224,0.01743419991275151
-0.003120140879924224,0.01717089145071553
-0.003119970879924224,0.0166771880843967
-0.003119800879924224,0.01664427452664214
-0.003119630879924224,0.0160189169293067
-0.003119460879924224,0.01608474404481467
-0.003119290879924224,0.0162163982758329
-0.003119120879924224,0.0161834847180784
-0.003118950879924224,0.01628222539134202
-0.003118780879924224,0.0162163982758329
-0.003118610879924224,0.01539355933196897
-0.003118440879924224,0.01595308981379644
-0.003118270879924224,0.01473528817687783
-0.003118100879924224,0.01486694240789606
-0.003117930879924224,0.0143732390415777
-0.003117760879924224,0.01430741192606859
-0.003117590879924224,0.01397827634852302
-0.003117420879924224,0.01348457298220466
-0.003117250879924224,0.01410993057954124
-0.003117080879924224,0.01424158481055947
-0.003116910879924224,0.01460363394585978
-0.003116740879924224,0.01470237461912327
-0.003116570879924224,0.0146036339458596
-0.003116400879924224,0.01499859663891363
-0.003116230879924224,0.01463654750361416
-0.003116060879924224,0.01486694240789606
-0.003115890879924224,0.01503151019666848
-0.003115720879924224,0.0148340288501415
-0.003115550879924224,0.0150644237544234
-0.003115380879924224,0.01513025086993198
-0.003115210879924224,0.0148340288501415
-0.003115040879924224,0.01503151019666884
-0.003114870879924224,0.01483402885014204
-0.003114700879924224,0.01513025086993251
-0.003114530879924224,0.01473528817687783
-0.003114360879924224,0.01476820173463191
-0.003114190879924224,0.01450489327259593
-0.003114020879924224,0.01417575769505036
-0.003113850879924224,0.01420867125280432
-0.003113680879924224,0.01387953567525935
-0.003113510879924224,0.01355040009771377
-0.003113340879924224,0.01305669673139452
-0.003113170879924224,0.01256299336507706
-0.003113000879924224,0.0125300798073225
-0.003112830879924224,0.01269464759609541
-0.003112660879924224,0.0127604747116044
-0.003112490879924224,0.01266173403834073
-0.003112320879924224,0.0130237831736402
-0.003112150879924224,0.01315543740465909
-0.003111980879924224,0.01384662211750479
-0.003111810879924224,0.01420867125280426
-0.003111640879924224,0.0150644237544234
-0.003111470879924224,0.01519607798544163
-0.003111300879924224,0.01621639827583104
-0.003111130879924224,0.01680884231541493
-0.003110960879924224,0.0173683727972424
-0.003110790879924224,0.01763168125927838
-0.003110620879924224,0.0175987677015243
-0.003110450879924224,0.01766459481703341
-0.003110280879924224,0.01746711347050643
-0.003110110879924224,0.01740128635499695
-0.003109940879924224,0.01578852202502366
-0.003109770879924224,0.01667718808439508
-0.003109600879924224,0.0166771880843967
-0.003109430879924224,0.01634805250685113
-0.003109260879924224,0.0166771880843961
-0.003109090879924224,0.01519607798544163
-0.003108920879924224,0.01799373039457898
-0.003108750879924224,0.01789498972131549
-0.003108580879924224,0.01796081683682443
-0.003108410879924224,0.01809247106784265
-0.003108240879924224,0.01786207616356118
-0.003108070879924224,0.01792790327906987
-0.003107900879924224,0.01769750837478797
-0.003107730879924224,0.01802664395233354
-0.003107560879924224,0.01822412529886088
-0.003107390879924224,0.01825703885661544
-0.003107220879924224,0.01779624904805164
-0.003107050879924224,0.01835577952987911
-0.003106880879924224,0.0178291626058062
-0.003106710879924224,0.01769750837478797
-0.003106540879924224,0.01759876770152412
-0.003106370879924224,0.01750002702826063
-0.003106200879924224,0.0173683727972424
-0.003106030879924224,0.0171708914507129
-0.003105860879924224,0.015986003371551
-0.003105690879924224,0.01697341010418771
-0.003105520879924224,0.01417575769505024
-0.003105350879924224,0.01410993057954124
-0.003105180879924224,0.01371496788648656
-0.003105010879924224,0.01315543740465849
-0.003104840879924224,0.01282630182711352
-0.003104670879924224,0.01308961028914997
-0.003104500879924224,0.01332000519343187
-0.003104330879924224,0.01332000519343187
-0.003104160879924224,0.01341874586669555
-0.003103990879924224,0.01341874586669609
-0.003103820879924224,0.01371496788648656
-0.003103650879924224,0.01430741192606859
-0.003103480879924224,0.01483402885014282
-0.003103310879924224,0.01555812712074176
-0.003103140879924224,0.015986003371551
-0.003102970879924224,0.01644679318011522
-0.003102800879924224,0.0166771880843967
-0.003102630879924224,0.01654553385337847
-0.003102460879924224,0.01713797789296074
-0.003102290879924224,0.01726963212397873
-0.003102120879924224,0.01776333549029708
-0.003101950879924224,0.01812538462559655
-0.003101780879924224,0.01700632366194227
-0.003101610879924224,0.01799373039457898
-0.003101440879924224,0.01717089145071655
-0.003101270879924224,0.01697341010418771
-0.003101100879924224,0.01615057116032378
-0.003100930879924224,0.01585434914053331
-0.003100760879924224,0.01618348471807834
-0.003100590879924224,0.01661136096888758
-0.003100420879924224,0.01624931183358811
-0.003100250879924224,0.01638096606460569
-0.003100080879924224,0.01605183048706011
-0.003099910879924224,0.01565686779400615
-0.003099740879924224,0.01545938644747809
-0.003099570879924224,0.01647970673786936
-0.003099400879924224,0.01624931183358787
-0.003099230879924224,0.01697341010418771
-0.003099060879924224,0.01661136096888758
-0.003098890879924224,0.01638096606460611
-0.003098720879924224,0.01651262029562391
-0.003098550879924224,0.01651262029562391
-0.003098380879924224,0.0166113609688874
-0.003098210879924224,0.01677592875766037
-0.003098040879924224,0.01661136096888758
-0.003097870879924224,0.01667718808439658
-0.003097700879924224,0.01624931183358745
-0.003097530879924224,0.01624931183358745
-0.003097360879924224,0.01601891692930556
-0.003097190879924224,0.01585434914053277
-0.003097020879924224,0.01611765760256923
-0.003096850879924224,0.01601891692930556
-0.003096680879924224,0.01578852202502366
-0.003096510879924224,0.0155252135629872
-0.003096340879924224,0.01532773221645986
-0.003096170879924224,0.01559104067849632
-0.003096000879924224,0.0157556084672691
-0.003095830879924224,0.01555812712074176
-0.003095660879924224,0.01621639827583356
-0.003095490879924224,0.01657844741113303
-0.003095320879924224,0.01697341010418771
-0.003095150879924224,0.01750002702826182
-0.003094980879924224,0.01815829818335177
-0.003094810879924224,0.0180595575100881
-0.003094640879924224,0.01812538462559685
-0.003094470879924224,0.01792790327906987
-0.003094300879924224,0.01792790327906987
-0.003094130879924224,0.0182899524143688
-0.003093960879924224,0.01763168125927886
-0.003093790879924224,0.01779624904805164
-0.003093620879924224,0.0175987677015231
-0.003093450879924224,0.01694049654643316
-0.003093280879924224,0.01595308981379644
-0.003093110879924224,0.01526190510095008
-0.003092940879924224,0.01489985596565062
-0.003092770879924224,0.01424158481055947
-0.003092600879924224,0.01466946106136854
-0.003092430879924224,0.01457072038810504
-0.003092260879924224,0.01555812712074176
-0.003092090879924224,0.01499859663891465
-0.003091920879924224,0.01519607798544163
-0.003091750879924224,0.01624931183358745
-0.003091580879924224,0.01598600337155124
-0.003091410879924224,0.01611765760256923
-0.003091240879924224,0.01638096606460569
-0.003091070879924224,0.0161834847180787
-0.003090900879924224,0.01743419991275151
-0.003090730879924224,0.01697341010418771
-0.003090560879924224,0.01703923721969671
-0.003090390879924224,0.01684175587316948
-0.003090220879924224,0.01726963212397873
-0.003090050879924224,0.01664427452664328
-0.003089880879924224,0.01664427452664214
-0.003089710879924224,0.01651262029562391
-0.003089540879924224,0.01595308981379746
