Analysis/New Tests_CMB/wrd01_d2s01_new/cmb10_ch11.csv

#Digilent WaveForms Oscilloscope Acquisition
#Device Name: ADP3450
#Serial Number: SN:210018B9D9B0
#Date Time: 2024-08-14 17:04:02.079.221.900
#Sample rate: 5.88235e+06Hz
#Samples: 32768
#Trigger: Source: Channel 3 Type: Edge Condition: Rising Level: 60 mV Hyst.: Auto HoldOff: 0 s
#Channel 3: Range: 100 mV/div Offset: 0 V Attenuation: 1 X Coupling: DC Bandwidth: 0 Hz Sample Mode: Average

Time (s),Channel 3 (V)
-0.003798370795647739,0.214849719324585
-0.003798200795647739,0.2267315136740188
-0.003798030795647739,0.2373625928287314
-0.003797860795647739,0.2454264144785815
-0.003797690795647739,0.2525357429535619
-0.003797520795647739,0.2574727766167365
-0.003797350795647739,0.2612907493162651
-0.003797180795647738,0.2641871423986724
-0.003797010795647739,0.2658986474019048
-0.003796840795647739,0.2663594372104649
-0.003796670795647739,0.2652732898045642
-0.003796500795647739,0.2639896610521388
-0.003796330795647739,0.2621465018178836
-0.003796160795647738,0.2594475900820008
-0.003795990795647739,0.2569461596926532
-0.003795820795647739,0.2540826801680109
-0.003795650795647739,0.2506925837192918
-0.003795480795647739,0.2474670550593511
-0.003795310795647739,0.2439453043796135
-0.003795140795647738,0.240028591006807
-0.003794970795647739,0.2361118776340156
-0.003794800795647739,0.2324584727232652
-0.003794630795647739,0.2281467966574183
-0.003794460795647739,0.2238680341493337
-0.003794290795647739,0.2196880123145049
-0.003794120795647739,0.2155738175951928
-0.003793950795647739,0.2109988330672861
-0.003793780795647739,0.2066542434436932
-0.003793610795647739,0.202737530070901
-0.003793440795647739,0.1988537302558703
-0.003793270795647739,0.195233238902869
-0.003793100795647739,0.1917773153386468
-0.003792930795647739,0.1877947748503295
-0.003792760795647739,0.185161690229969
-0.003792590795647739,0.1821007293587952
-0.003792420795647739,0.1790726820453815
-0.003792250795647739,0.1766370787715442
-0.003792080795647739,0.173773599246903
-0.003791910795647739,0.1710088603955039
-0.003791740795647739,0.1679808130820901
-0.003791570795647739,0.1649198522109171
-0.003791400795647739,0.1622867675905573
-0.003791230795647739,0.1596207694124382
-0.003791060795647739,0.1565268949835155
-0.003790890795647739,0.1542887730561879
-0.003790720795647739,0.1509645037229832
-0.003790550795647739,0.1473769259277384
-0.003790380795647739,0.1448754955383966
-0.003790210795647739,0.1419132753404865
-0.003790040795647739,0.1393789313933856
-0.003789870795647739,0.136515451868731
-0.003789700795647739,0.1342773299414245
-0.003789530795647739,0.1316771588788161
-0.003789360795647739,0.1299327403178277
-0.003789190795647739,0.1274971370439905
-0.003789020795647739,0.125522323578717
-0.003788850795647739,0.1232512880936466
-0.003788680795647739,0.1216056102059207
-0.003788510795647739,0.1193674882786109
-0.003788340795647739,0.1171622799090555
-0.003788170795647739,0.1149570715395042
-0.003788000795647739,0.1128506038432126
-0.003787830795647739,0.1108428768201764
-0.003787660795647739,0.1086047548928713
-0.003787490795647739,0.1067286821008614
-0.003787320795647739,0.1047538686355879
-0.003787150795647739,0.1027790551703181
-0.003786980795647739,0.1009688094938175
-0.003786810795647738,0.09932313160608242
-0.003786640795647739,0.09734831814080672
-0.003786470795647739,0.09474814707820263
-0.003786300795647739,0.09280624717068536
-0.003786130795647739,0.09175301332254146
-0.003785960795647739,0.08961363206849524
-0.003785790795647738,0.08813252196953444
-0.003785620795647739,0.08655267119731688
-0.003785450795647739,0.08530195600264556
-0.003785280795647739,0.08382084590368998
-0.003785110795647739,0.08204351378494712
-0.003784940795647739,0.08089153926353762
-0.003784770795647738,0.07980539185763137
-0.003784600795647739,0.07819262752765829
-0.003784430795647739,0.07664569031319743
-0.003784260795647739,0.07536206156077034
-0.003784090795647739,0.07444048194364442
-0.003783920795647739,0.07279480405591657
-0.003783750795647739,0.07167574309226367
-0.003783580795647739,0.07072124991737695
-0.003783410795647739,0.07003006520453163
-0.003783240795647739,0.06884517712536817
-0.003783070795647739,0.06798942462375124
-0.003782900795647739,0.06831856020129681
-0.003782730795647739,0.06571838913869153
-0.003782560795647739,0.06403979769320101
-0.003782390795647739,0.0631182180760741
-0.003782220795647739,0.06163710797711847
-0.003782050795647739,0.05985977585837562
-0.003781880795647739,0.05785204883534764
-0.003781710795647739,0.05660133364067674
-0.003781540795647739,0.05607471671659497
-0.003781370795647739,0.0542644710400996
-0.003781200795647739,0.05354037276949958
-0.003781030795647739,0.05294792872991863
-0.003780860795647739,0.0528162744989004
-0.003780690795647739,0.05189469488177448
-0.003780520795647739,0.05176304065075422
-0.003780350795647739,0.05166429997748977
-0.003780180795647739,0.05103894238015396
-0.003780010795647739,0.05084146103362697
-0.003779840795647739,0.05061106612934508
-0.003779670795647739,0.05041358478281773
-0.003779500795647739,0.05024901699404244
-0.003779330795647739,0.04955783228119889
-0.003779160795647739,0.04936035093467095
-0.003778990795647739,0.04883373401059899
-0.003778820795647739,0.04784632727796228
-0.003778650795647739,0.04669435275655278
-0.003778480795647739,0.04587151381268407
-0.003778310795647739,0.04455497150250753
-0.003778140795647739,0.04508158842657464
-0.003777970795647739,0.04241559024846012
-0.003777800795647739,0.04228393601744213
-0.003777630795647739,0.04155983774684188
-0.003777460795647739,0.04073699880297411
-0.003777290795647739,0.03968376495483057
-0.003777120795647739,0.0388280124532113
-0.003776950795647739,0.03754438370078435
-0.003776780795647739,0.03668863119916742
-0.003776610795647739,0.03556957023551248
-0.003776440795647738,0.03405554657879974
-0.003776270795647739,0.03319979407717623
-0.003776100795647739,0.03096167214987508
-0.003775930795647739,0.03129080772741723
-0.003775760795647739,0.02974387051295587
-0.003775590795647739,0.02961221628193764
-0.003775420795647738,0.02842732820277359
-0.003775250795647739,0.02842732820276868
-0.003775080795647739,0.02707787233483627
-0.003774910795647739,0.02681456387279939
-0.003774740795647739,0.02632086050648193
-0.003774570795647739,0.02582715714016358
-0.003774400795647738,0.02549802156261333
-0.003774230795647739,0.02421439281019207
-0.003774060795647739,0.0247080961765081
-0.003773890795647739,0.02441187415671726
-0.003773720795647739,0.02421439281019028
-0.003773550795647739,0.0243460470412085
-0.003773380795647739,0.02237123357593867
-0.003773210795647739,0.02510305886956272
-0.003773040795647739,0.02493849108079035
-0.003772870795647739,0.02483975040752602
-0.003772700795647739,0.02437896059896306
-0.003772530795647739,0.02401691146366293
-0.003772360795647739,0.02378651655938145
-0.003772190795647739,0.02335864030856916
-0.003772020795647739,0.02263454203797094
-0.003771850795647739,0.02230540646042495
-0.003771680795647739,0.0217458759785985
-0.003771510795647739,0.02148256751656204
-0.003771340795647739,0.02098886415024458
-0.003771170795647739,0.02059390145718887
-0.003771000795647739,0.02056098789943324
-0.003770830795647739,0.01990271674434312
-0.003770660795647739,0.01980397607107963
-0.003770490795647739,0.01960649472455228
-0.003770320795647739,0.01954066760904329
-0.003770150795647739,0.0192115320314976
-0.003769980795647739,0.0192115320314976
-0.003769810795647739,0.0192115320314976
-0.003769640795647739,0.0192115320314976
-0.003769470795647739,0.01927735914700671
-0.003769300795647739,0.01947484049353405
-0.003769130795647739,0.0191457049159898
-0.003768960795647739,0.01950775405128795
-0.003768790795647739,0.01914570491598908
-0.003768620795647739,0.01947484049353405
-0.003768450795647739,0.01917861847374304
-0.003768280795647739,0.01931027270476127
-0.003768110795647739,0.01924444558925167
-0.003767940795647739,0.01911279135823375
-0.003767770795647739,0.01901405068496966
-0.003767600795647739,0.01868491510742439
-0.003767430795647739,0.0185203473186519
-0.003767260795647739,0.01842160664538823
-0.003767090795647739,0.01828995241437048
-0.003766920795647739,0.01842160664538907
-0.003766750795647739,0.01888239645395071
-0.003766580795647739,0.01815829818335063
-0.003766410795647739,0.01753294058601518
-0.003766240795647739,0.0171379778929605
-0.003766070795647739,0.01657844741113279
-0.003765900795647739,0.01651262029561972
-0.003765730795647739,0.01536064577421537
-0.003765560795647739,0.01588726269828518
-0.003765390795647739,0.01470237461912327
-0.003765220795647739,0.01473528817687783
-0.003765050795647738,0.01450489327259473
-0.003764880795647739,0.01417575769504856
-0.003764710795647739,0.01368205432873158
-0.003764540795647739,0.01345165942444855
-0.003764370795647739,0.01259590692283162
-0.003764200795647739,0.01210220355651326
-0.003764030795647738,0.01233259846078618
-0.003763860795647739,0.009864081629203138
-0.003763690795647739,0.009798254513693485
-0.003763520795647739,0.009370378262884543
-0.003763350795647739,0.009107069800848565
-0.003763180795647739,0.009107069800848565
-0.003763010795647739,0.009041242685339569
-0.003762840795647739,0.009337464705130584
-0.003762670795647739,0.009370378262887537
-0.003762500795647739,0.01075274768857708
-0.003762330795647739,0.01111479682387655
-0.003762160795647739,0.0118388950944768
-0.003761990795647739,0.01213511711426728
-0.003761820795647739,0.01312252384690477
-0.003761650795647739,0.01318835096241496
-0.003761480795647739,0.01391244923301396
-0.003761310795647739,0.01394536279076846
-0.003761140795647739,0.01410993057954124
-0.003760970795647739,0.01384662211750527
-0.003760800795647739,0.01358331365546773
-0.003760630795647739,0.01341874586669483
-0.003760460795647739,0.01302378317363978
-0.003760290795647739,0.01243133913405883
-0.003760120795647739,0.01170724086345858
-0.003759950795647739,0.01150975951693159
-0.003759780795647739,0.01075274768857403
-0.003759610795647739,0.01009447653348432
-0.003759440795647739,0.009567859609412425
-0.003759270795647739,0.009600773167166921
-0.003759100795647739,0.00983116807144882
-0.003758930795647739,0.009798254513694324
-0.003758760795647739,0.009962822302467528
-0.003758590795647739,0.0100944765334842
-0.003758420795647739,0.00950203249390367
-0.003758250795647739,0.00973242739818515
-0.003758080795647739,0.009633686724921478
-0.003757910795647739,0.009633686724921478
-0.003757740795647739,0.009600773167167519
-0.003757570795647739,0.009765340955940007
-0.003757400795647739,0.009929908744712673
-0.003757230795647739,0.0100286494179764
-0.003757060795647739,0.01016030364899439
-0.003756890795647739,0.01019321720674895
-0.003756720795647739,0.01058817989980411
-0.003756550795647739,0.01071983413082174
-0.003756380795647739,0.01065400701531299
-0.003756210795647739,0.0107856612463311
-0.003756040795647739,0.01085148836184009
-0.003755870795647739,0.01091731547734921
-0.003755700795647739,0.01088440191959525
-0.003755530795647739,0.01104896970836612
-0.003755360795647739,0.01068692057306755
-0.003755190795647739,0.01081857480408559
-0.003755020795647739,0.01085148836184009
-0.003754850795647739,0.01062109345755819
-0.003754680795647738,0.01062109345755819
-0.003754510795647739,0.0106210934575546
-0.003754340795647739,0.009633686724923334
-0.003754170795647739,0.01065400701531203
-0.003754000795647739,0.01025904432225806
-0.003753830795647739,0.01052235278429452
-0.003753660795647738,0.01088440191959513
-0.003753490795647739,0.01101605615061443
-0.003753320795647739,0.0114439324014223
-0.003753150795647739,0.01154267307468525
-0.003752980795647739,0.01124645105489478
-0.003752810795647739,0.01101605615061288
-0.003752640795647739,0.01131227817040335
-0.003752470795647739,0.01075274768857486
-0.003752300795647739,0.0103248714377673
-0.003752130795647739,0.01039069855327569
-0.003751960795647739,0.01006156297573072
-0.003751790795647739,0.009864081629203377
-0.003751620795647739,0.009798254513694383
-0.003751450795647739,0.009074156243093767
-0.003751280795647739,0.009008329127584114
-0.003751110795647739,0.008580452876775831
-0.003750940795647739,0.008679193550039321
-0.003750770795647739,0.007889268163929951
-0.003750600795647739,0.008712107107792383
-0.003750430795647739,0.008218403741478277
-0.003750260795647739,0.008975415569830216
-0.003750090795647739,0.008909588454322121
-0.003749920795647739,0.009403291820639578
-0.003749750795647739,0.01019321720674895
-0.003749580795647739,0.01016030364899445
-0.003749410795647739,0.01095022903510376
-0.003749240795647739,0.01095022903510544
-0.003749070795647739,0.01187180865222951
-0.003748900795647739,0.01085148836184009
-0.003748730795647739,0.0118388950944768
-0.003748560795647739,0.01141101884366834
-0.003748390795647739,0.01131227817040413
-0.003748220795647739,0.01137810528591241
-0.003748050795647739,0.01104896970836653
-0.003747880795647739,0.01055526634204908
-0.003747710795647739,0.009798254513694264
-0.003747540795647739,0.008745020665548437
-0.003747370795647739,0.008448798645754547
-0.003747200795647739,0.007658873259647632
-0.003747030795647739,0.007428478355364894
-0.003746860795647739,0.006737293642520453
-0.003746690795647739,0.006638552969256781
-0.003746520795647739,0.006704380084765896
-0.003746350795647739,0.006605639411502225
-0.003746180795647739,0.006605639411502524
-0.003746010795647739,0.006770207200274411
-0.003745840795647739,0.006441071622729738
-0.003745670795647739,0.006605639411502225
-0.003745500795647739,0.006572725853747667
-0.003745330795647739,0.00660563941150438
-0.003745160795647739,0.007198083451079463
-0.003744990795647739,0.005881541140903764
-0.003744820795647739,0.006868947873538801
-0.003744650795647739,0.006934774989047795
-0.003744480795647739,0.007099342777820581
-0.003744310795647738,0.006836034315784842
-0.003744140795647739,0.007033515662310509
-0.003743970795647739,0.006770207200275309
-0.003743800795647739,0.006934774989047915
-0.003743630795647739,0.00700060210455691
-0.003743460795647739,0.00653981229599311
-0.003743290795647738,0.006934774989048035
-0.003743120795647739,0.007000602104558107
-0.003742950795647739,0.007329737682102181
-0.003742780795647739,0.007165169893330054
-0.003742610795647739,0.007362651239857037
-0.003742440795647739,0.00756013258638438
-0.003742270795647738,0.007395564797613391
-0.003742100795647739,0.007889268163929352
-0.003741930795647739,0.007724700375157645
-0.003741760795647739,0.007988008837193084
-0.003741590795647739,0.007691786817402609
-0.003741420795647739,0.007461391913120709
-0.003741250795647739,0.00792218172168367
-0.003741080795647739,0.007593046144136184
-0.003740910795647739,0.006836034315783945
-0.003740740795647739,0.006737293642519435
-0.003740570795647739,0.006177763160692982
-0.003740400795647739,0.005980281814165639
-0.003740230795647739,0.005519492005602677
-0.003740060795647739,0.005519492005599923
-0.003739890795647739,0.004992875081528447
-0.003739720795647739,0.00472956661949199
-0.003739550795647739,0.004466258157456012
-0.003739380795647739,0.004367517484192341
-0.003739210795647739,0.003775073444611391
-0.003739040795647739,0.004071295464399052
-0.003738870795647739,0.003445937867064503
-0.003738700795647739,0.00331428363604789
-0.003738530795647739,0.004071295464401327
-0.003738360795647739,0.004630825946228797
-0.003738190795647739,0.004729566619492289
-0.003738020795647739,0.005552405563357714
-0.003737850795647739,0.005914454698657063
-0.003737680795647739,0.006210676718448616
-0.003737510795647739,0.006803120758029567
-0.003737340795647739,0.006934774989047795
-0.003737170795647739,0.006868947873538681
-0.003737000795647739,0.006836034315785082
-0.003736830795647739,0.007099342777820342
-0.003736660795647739,0.00696768854680319
-0.003736490795647739,0.007428478355366152
-0.003736320795647739,0.007593046144138938
-0.003736150795647739,0.007625959701893495
-0.003735980795647739,0.007461391913120589
-0.003735810795647739,0.007428478355367349
-0.003735640795647739,0.008086749510458192
-0.003735470795647739,0.008580452876773975
-0.003735300795647739,0.007658873259648051
-0.003735130795647739,0.007066429220066024
-0.003734960795647739,0.007000602104553318
-0.003734790795647739,0.006013195371919538
-0.003734620795647739,0.00565114623661929
-0.003734450795647739,0.005223269985809448
-0.003734280795647739,0.004466258157456012
-0.003734110795647739,0.004202949695419555
-0.003733940795647738,0.00374215988685384
-0.003733770795647739,0.003215542962782363
-0.003733600795647739,0.003083888731764733
-0.003733430795647739,0.003149715847274626
-0.003733260795647739,0.003643419213592085
-0.003733090795647739,0.003873814117873984
-0.003732920795647738,0.003873814117876259
-0.003732750795647739,0.004499171715209731
-0.003732580795647739,0.00426877681092861
-0.003732410795647739,0.004235863253174052
-0.003732240795647739,0.004202949695419555
-0.003732070795647739,0.004894134408265255
-0.003731900795647738,0.005190356428054831
-0.003731730795647739,0.004795393735007091
-0.003731560795647739,0.00630941739171121
-0.003731390795647739,0.006309417391708695
-0.003731220795647739,0.004927047966019811
-0.003731050795647739,0.005354924216829054
-0.003730880795647739,0.005354924216829054
-0.003730710795647739,0.005289097101318024
-0.003730540795647739,0.004762480177246488
-0.003730370795647739,0.004466258157456431
-0.003730200795647739,0.004696653061737912
-0.003730030795647739,0.003939641233383098
-0.003729860795647739,0.004104209022155585
-0.003729690795647739,0.003807987002364151
-0.003729520795647739,0.003610505655837647
-0.003729350795647739,0.0036763327713473
-0.003729180795647739,0.00403838190664677
-0.003729010795647739,0.004499171715210569
-0.003728840795647739,0.005190356428055012
-0.003728670795647739,0.004729566619493786
-0.003728500795647739,0.005091615754792298
-0.003728330795647739,0.004927047966019811
-0.003728160795647739,0.004927047966019811
-0.003727990795647739,0.004663739503983355
-0.003727820795647739,0.004663739503983355
-0.003727650795647739,0.004630825946228199
-0.003727480795647739,0.004466258157454755
-0.003727310795647739,0.003775073444610552
-0.003727140795647739,0.003906727675628541
-0.003726970795647739,0.003840900560119427
-0.003726800795647739,0.003116802289519171
-0.003726630795647739,0.00242561757667407
-0.003726460795647739,0.002590185365446556
-0.003726290795647739,0.002754753154219521
-0.003726120795647739,0.0030180616162555
-0.003725950795647739,0.002096481999127901
-0.003725780795647739,0.0023268769034098
-0.003725610795647739,0.002063568441371906
-0.003725440795647739,0.001668605748320035
-0.003725270795647739,0.002425617576672933
-0.003725100795647739,0.002129395556883476
-0.003724930795647739,0.002688926038709928
-0.003724760795647739,0.003413024309310185
-0.003724590795647739,0.003742159886859468
-0.003724420795647739,0.004762480177247086
-0.003724250795647739,0.004795393735001404
-0.003724080795647739,0.00469665306173857
-0.003723910795647739,0.00505870219703804
-0.003723740795647739,0.005815714025392853
-0.003723570795647738,0.005552405563360588
-0.003723400795647739,0.006704380084765537
-0.003723230795647739,0.006605639411503003
-0.003723060795647739,0.007033515662311287
-0.003722890795647739,0.006934774989047795
-0.003722720795647739,0.007296824124347924
-0.003722550795647738,0.007000602104557149
-0.003722380795647739,0.007066429220065066
-0.003722210795647739,0.00680312075802867
-0.003722040795647739,0.006309417391710731
-0.003721870795647739,0.006046108929674754
-0.003721700795647739,0.005190356428056269
-0.003721530795647738,0.004828307292755183
-0.003721360795647739,0.004564998830720881
-0.003721190795647739,0.004894134408264058
-0.003721020795647739,0.004235863253174651
-0.003720850795647739,0.004532085272965126
-0.003720680795647739,0.004663739503983355
-0.003720510795647739,0.005354924216827798
-0.003720340795647739,0.005552405563359271
-0.003720170795647739,0.006342330949466546
-0.003720000795647739,0.006770207200276147
-0.003719830795647739,0.007395564797611595
-0.003719660795647739,0.00802092239494818
