Analysis/New Tests_CMB/wrd01_d2s01_new/cmb12_ch19.csv

#Digilent WaveForms Oscilloscope Acquisition
#Device Name: ADP3450
#Serial Number: SN:210018B9D9B0
#Date Time: 2024-08-15 11:50:19.995.473.910
#Sample rate: 5.88235e+06Hz
#Samples: 32768
#Trigger: Source: Channel 3 Type: Edge Condition: Rising Level: 40 mV Hyst.: Auto HoldOff: 0 s
#Channel 3: Range: 100 mV/div Offset: 0 V Attenuation: 1 X Coupling: DC Bandwidth: 0 Hz Sample Mode: Average

Time (s),Channel 3 (V)
-0.003168904327129193,0.0289539451268465
-0.003168734327129193,0.02852606887603618
-0.003168564327129193,0.02793362483645523
-0.003168394327129193,0.02786779772094612
-0.003168224327129193,0.02747283502789023
-0.003168054327129193,0.02681456387280029
-0.003167884327129193,0.02645251473750016
-0.003167714327129193,0.02612337915995393
-0.003167544327129193,0.02576133002465446
-0.003167374327129193,0.02539928088935433
-0.003167204327129193,0.02520179954282615
-0.003167034327129193,0.02474100973426319
-0.003166864327129193,0.02477392329201775
-0.003166694327129193,0.02421439281019129
-0.003166524327129193,0.02477392329201775
-0.003166354327129193,0.02487266396528142
-0.003166184327129193,0.02490557752303646
-0.003166014327129193,0.02516888598507243
-0.003165844327129193,0.02530054021609066
-0.003165674327129193,0.02520179954282651
-0.003165504327129193,0.02493849108079053
-0.003165334327129193,0.02464226906099952
-0.003165164327129193,0.02418147925243656
-0.003164994327129193,0.02421439281019028
-0.003164824327129193,0.02368777588611736
-0.003164654327129193,0.02385234367488985
-0.003164484327129193,0.02312824540428989
-0.003164314327129193,0.02352320809734458
-0.003164144327129193,0.02309533184653611
-0.003163974327129193,0.02319407251979901
-0.003163804327129193,0.02332572675081724
-0.003163634327129193,0.02404982502141617
-0.003163464327129193,0.02421439281019028
-0.003163294327129193,0.02483975040752686
-0.003163124327129193,0.02372068944387396
-0.003162954327129193,0.02451061482998129
-0.003162784327129193,0.02398399790590838
-0.003162614327129193,0.02421439281018986
-0.003162444327129193,0.02381943011713559
-0.003162274327129193,0.02404982502141749
-0.003162104327129193,0.02312824540429157
-0.003161934327129193,0.02312824540428989
-0.003161764327129193,0.02286493694225343
-0.003161594327129193,0.022042097998391
-0.003161424327129193,0.02164713530533482
-0.003161254327129193,0.02112051838126191
-0.003161084327129193,0.020001457417609
-0.003160914327129193,0.01940901337802494
-0.003160744327129193,0.01842160664538823
-0.003160574327129193,0.0178291626058062
-0.003160404327129193,0.01720380500846961
-0.003160234327129193,0.01707215077745139
-0.003160064327129193,0.01684175587316948
-0.003159894327129193,0.01687466943092404
-0.003159724327129193,0.01661136096888758
-0.003159554327129193,0.01710506433520594
-0.003159384327129193,0.01680884231541565
-0.003159214327129193,0.01720380500846961
-0.003159044327129193,0.01723671856622417
-0.003158874327129193,0.0173683727972427
-0.003158704327129193,0.01753294058601518
-0.003158534327129193,0.0175987677015243
-0.003158364327129193,0.01789498972131465
-0.003158194327129193,0.01753294058601518
-0.003158024327129193,0.01776333549029708
-0.003157854327129193,0.01776333549029696
-0.003157684327129193,0.01769750837478797
-0.003157514327129193,0.01733545923948784
-0.003157344327129193,0.01766459481703437
-0.003157174327129193,0.01819121174110632
-0.003157004327129193,0.01825703885661544
-0.003156834327129193,0.01819121174110728
-0.003156664327129193,0.01871782866517924
-0.003156494327129193,0.01842160664538823
-0.003156324327129193,0.01884948289619765
-0.003156154327129193,0.01894822356946114
-0.003155984327129193,0.0187507422229338
-0.003155814327129193,0.01907987780047907
-0.003155644327129193,0.01891531001170658
-0.003155474327129193,0.0192115320314976
-0.003155304327129193,0.01937609982027068
-0.003155134327129193,0.01954066760904317
-0.003154964327129193,0.01940901337802494
-0.003154794327129193,0.01904696424272547
-0.003154624327129193,0.02065972857269811
-0.003154454327129193,0.01970523539781595
-0.003154284327129193,0.01789498972131861
-0.003154114327129193,0.01842160664538823
-0.003153944327129193,0.01858617443416101
-0.003153774327129193,0.01792790327907107
-0.003153604327129193,0.01740128635499695
-0.003153434327129193,0.01700632366194227
-0.003153264327129193,0.0166442745266428
-0.003153094327129193,0.01624931183358745
-0.003152924327129193,0.01601891692930556
-0.003152754327129193,0.01624931183358704
-0.003152584327129193,0.01624931183358745
-0.003152414327129193,0.01605183048706011
-0.003152244327129193,0.01651262029562307
-0.003152074327129193,0.01631513894909657
-0.003151904327129193,0.01647970673786936
-0.003151734327129193,0.01700632366194131
-0.003151564327129193,0.01766459481703341
-0.003151394327129193,0.01766459481703341
-0.003151224327129193,0.01805955751008738
-0.003151054327129193,0.01842160664538823
-0.003150884327129193,0.01838869308763367
-0.003150714327129193,0.01822412529886118
-0.003150544327129193,0.01796081683682443
-0.003150374327129193,0.0171379778929605
-0.003150204327129193,0.01697341010418771
-0.003150034327129193,0.01707215077745139
-0.003149864327129193,0.01700632366194227
-0.003149694327129193,0.01726963212397873
-0.003149524327129193,0.01717089145071506
-0.003149354327129193,0.0169075829886786
-0.003149184327129193,0.01700632366194227
-0.003149014327129193,0.0169075829886786
-0.003148844327129193,0.01720380500846961
-0.003148674327129193,0.01703923721969683
-0.003148504327129193,0.01710506433520493
-0.003148334327129193,0.01654553385337847
-0.003148164327129193,0.01585434914053277
-0.003147994327129193,0.01575560846726748
-0.003147824327129193,0.01486694240789606
-0.003147654327129193,0.0146036339458596
-0.003147484327129193,0.01473528817687801
-0.003147314327129193,0.0148340288501415
-0.003147144327129193,0.01476820173463239
-0.003146974327129193,0.01450489327259599
-0.003146804327129193,0.01453780683035049
-0.003146634327129193,0.01480111529238694
-0.003146464327129193,0.01453780683035127
-0.003146294327129193,0.01496568308115973
-0.003146124327129193,0.01532773221645986
-0.003145954327129193,0.01588726269828781
-0.003145784327129193,0.01615057116032378
-0.003145614327129193,0.01618348471807834
-0.003145444327129193,0.01595308981379692
-0.003145274327129193,0.0162163982758329
-0.003145104327129193,0.01628222539134202
-0.003144934327129193,0.01595308981379657
-0.003144764327129193,0.01601891692930556
-0.003144594327129193,0.01615057116032378
-0.003144424327129193,0.01657844741113111
-0.003144254327129193,0.0155252135629872
-0.003144084327129193,0.01559104067849632
-0.003143914327129193,0.01555812712074182
-0.003143744327129193,0.01536064577421441
-0.003143574327129193,0.01565686779400543
-0.003143404327129193,0.01568978135175993
-0.003143234327129193,0.01595308981379644
-0.003143064327129193,0.01641387962236024
-0.003142894327129193,0.01657844741113273
-0.003142724327129193,0.01720380500846961
-0.003142554327129193,0.0166771880843967
-0.003142384327129193,0.01753294058601363
-0.003142214327129193,0.01730254568173328
-0.003142044327129193,0.01684175587316948
-0.003141874327129193,0.01684175587316948
-0.003141704327129193,0.01687466943092404
-0.003141534327129193,0.01651262029562391
-0.003141364327129193,0.0166771880843964
-0.003141194327129193,0.01654553385337847
-0.003141024327129193,0.01654553385337847
-0.003140854327129193,0.01694049654643244
-0.003140684327129193,0.0166771880843967
-0.003140514327129193,0.01671010164215126
-0.003140344327129193,0.01694049654643274
-0.003140174327129193,0.01710506433520594
-0.003140004327129193,0.0173683727972424
-0.003139834327129193,0.01753294058601518
-0.003139664327129193,0.01753294058601518
-0.003139494327129193,0.01730254568173328
-0.003139324327129193,0.0173683727972424
-0.003139154327129193,0.01671010164215126
-0.003138984327129193,0.01634805250685113
-0.003138814327129193,0.01565686779400543
-0.003138644327129193,0.01496568308115973
-0.003138474327129193,0.01443906615708682
-0.003138304327129193,0.01420867125280492
-0.003138134327129193,0.01368205432873057
-0.003137964327129193,0.01289212894262263
-0.003137794327129193,0.0129908696158863
-0.003137624327129193,0.01308961028914902
-0.003137454327129193,0.01256299336507706
-0.003137284327129193,0.01210220355651326
-0.003137114327129193,0.01246425269181435
-0.003136944327129193,0.0129908696158863
-0.003136774327129193,0.01351748653995922
-0.003136604327129193,0.01404410346403315
-0.003136434327129193,0.0146036339458596
-0.003136264327129193,0.01503151019666884
-0.003136094327129193,0.01555812712074295
-0.003135924327129193,0.0162163982758329
-0.003135754327129193,0.01710506433520594
-0.003135584327129193,0.01756585414377088
-0.003135414327129193,0.01819121174110632
-0.003135244327129193,0.01868491510742468
-0.003135074327129193,0.01861908799191605
-0.003134904327129193,0.01888239645395202
-0.003134734327129193,0.01898113712721569
-0.003134564327129193,0.01792790327906969
-0.003134394327129193,0.0178291626058062
-0.003134224327129193,0.01726963212397873
-0.003134054327129193,0.01700632366194101
-0.003133884327129193,0.01631513894909657
-0.003133714327129193,0.01562395423625087
-0.003133544327129193,0.0152948186587059
-0.003133374327129193,0.0152948186587053
-0.003133204327129193,0.01470237461912327
-0.003133034327129193,0.01506442375442274
-0.003132864327129193,0.01440615259933226
-0.003132694327129193,0.01450489327259593
-0.003132524327129193,0.01447197971484143
-0.003132354327129193,0.01443906615708682
-0.003132184327129193,0.01394536279076846
-0.003132014327129193,0.01424158481055893
-0.003131844327129193,0.01394536279076846
-0.003131674327129193,0.01397827634852302
-0.003131504327129193,0.01394536279076852
-0.003131334327129193,0.01417575769505036
-0.003131164327129193,0.01486694240789606
-0.003130994327129193,0.01506442375442304
-0.003130824327129193,0.01605183048706011
-0.003130654327129193,0.01601891692930556
-0.003130484327129193,0.01598600337155106
-0.003130314327129193,0.015986003371551
-0.003130144327129193,0.01615057116032378
-0.003129974327129193,0.01618348471807828
-0.003129804327129193,0.01684175587316948
-0.003129634327129193,0.01585434914053277
-0.003129464327129193,0.01615057116032325
-0.003129294327129193,0.01582143558277821
-0.003129124327129193,0.01542647288972353
-0.003128954327129193,0.01476820173463239
-0.003128784327129193,0.0150644237544234
-0.003128614327129193,0.0143732390415777
-0.003128444327129193,0.01493276952340517
-0.003128274327129193,0.01496568308115973
-0.003128104327129193,0.01473528817687783
-0.003127934327129193,0.01509733731217796
-0.003127764327129193,0.01493276952340541
-0.003127594327129193,0.0150644237544234
-0.003127424327129193,0.01476820173463239
-0.003127254327129193,0.01536064577421483
-0.003127084327129193,0.01559104067849632
-0.003126914327129193,0.0157556084672691
-0.003126744327129193,0.01601891692930574
-0.003126574327129193,0.01611765760256923
-0.003126404327129193,0.01641387962236024
-0.003126234327129193,0.01667718808439736
-0.003126064327129193,0.01703923721969683
-0.003125894327129193,0.01766459481703341
-0.003125724327129193,0.01766459481703287
-0.003125554327129193,0.0173683727972424
-0.003125384327129193,0.01740128635499695
-0.003125214327129193,0.01723671856622375
-0.003125044327129193,0.01700632366194227
-0.003124874327129193,0.01684175587316948
-0.003124704327129193,0.01624931183358608
-0.003124534327129193,0.01549230000523264
-0.003124364327129193,0.01532773221645986
-0.003124194327129193,0.01420867125280456
-0.003124024327129193,0.01401118990627757
-0.003123854327129193,0.01332000519343187
-0.003123684327129193,0.01259590692283078
-0.003123514327129193,0.01213511711426782
-0.003123344327129193,0.01177306797896769
-0.003123174327129193,0.01150975951693171
-0.003123004327129193,0.01141101884366756
-0.003122834327129193,0.01095022903510376
-0.003122664327129193,0.0105223527842953
-0.003122494327129193,0.01035778499552173
-0.003122324327129193,0.01032487143776718
-0.003122154327129193,0.01068692057306665
-0.003121984327129193,0.01035778499552173
-0.003121814327129193,0.01068692057306731
-0.003121644327129193,0.01108188326612127
-0.003121474327129193,0.01170724086345858
-0.003121304327129193,0.0118388950944768
-0.003121134327129193,0.01256299336507574
-0.003120964327129193,0.01266173403834073
-0.003120794327129193,0.01374788144424112
-0.003120624327129193,0.01420867125280408
-0.003120454327129193,0.01480111529238694
-0.003120284327129193,0.01578852202502366
-0.003120114327129193,0.01545938644747868
-0.003119944327129193,0.01592017625604189
-0.003119774327129193,0.01542647288972353
-0.003119604327129193,0.01568978135175951
-0.003119434327129193,0.01480111529238694
-0.003119264327129193,0.0152948186587053
-0.003119094327129193,0.01460363394586086
-0.003118924327129193,0.01466946106136872
-0.003118754327129193,0.01420867125280492
-0.003118584327129193,0.0134516594244501
-0.003118414327129193,0.01308961028914997
-0.003118244327129193,0.01266173403834073
-0.003118074327129193,0.0122996849030406
-0.003117904327129193,0.01200346288324959
-0.003117734327129193,0.01239842557630427
-0.003117564327129193,0.01233259846079516
-0.003117394327129193,0.01305669673139542
-0.003117224327129193,0.01361622721322289
-0.003117054327129193,0.01351748653995922
-0.003116884327129193,0.01338583230894105
-0.003116714327129193,0.01341874586669555
-0.003116544327129193,0.01387953567525935
-0.003116374327129193,0.01381370855975095
-0.003116204327129193,0.01420867125280492
-0.003116034327129193,0.01381370855975023
-0.003115864327129193,0.0152619051009502
-0.003115694327129193,0.01496568308115973
-0.003115524327129193,0.01532773221645986
-0.003115354327129193,0.01536064577421447
-0.003115184327129193,0.01539355933196897
-0.003115014327129193,0.01572269490951454
-0.003114844327129193,0.01555812712074074
-0.003114674327129193,0.01499859663891429
-0.003114504327129193,0.01572269490951454
-0.003114334327129193,0.01526190510095062
-0.003114164327129193,0.01519607798544163
-0.003113994327129193,0.01503151019666884
-0.003113824327129193,0.01532773221645956
-0.003113654327129193,0.01516316442768707
-0.003113484327129193,0.01539355933196897
-0.003113314327129193,0.01457072038810558
-0.003113144327129193,0.01486694240789606
-0.003112974327129193,0.01463654750361416
-0.003112804327129193,0.01427449836831463
-0.003112634327129193,0.0146036339458596
-0.003112464327129193,0.01447197971484137
-0.003112294327129193,0.01463654750361386
-0.003112124327129193,0.0150644237544234
-0.003111954327129193,0.0150644237544234
-0.003111784327129193,0.01522899154319589
-0.003111614327129193,0.0152948186587053
-0.003111444327129193,0.01545938644747809
-0.003111274327129193,0.01782916260580189
-0.003111104327129193,0.01453780683035049
-0.003110934327129193,0.01489985596565062
-0.003110764327129193,0.01529481865870458
-0.003110594327129193,0.01532773221645986
-0.003110424327129193,0.01466946106136872
-0.003110254327129193,0.01549230000523115
-0.003110084327129193,0.01443906615708682
-0.003109914327129193,0.01486694240789606
-0.003109744327129193,0.01424158481056061
-0.003109574327129193,0.01384662211750479
-0.003109404327129193,0.01312252384690453
-0.003109234327129193,0.01308961028915004
-0.003109064327129193,0.01246425269181339
-0.003108894327129193,0.01249716624956795
-0.003108724327129193,0.01259590692283144
-0.003108554327129193,0.0122996849030406
-0.003108384327129193,0.01243133913405883
-0.003108214327129193,0.01220094422977735
-0.003108044327129193,0.01223385778753149
-0.003107874327129193,0.01259590692283162
-0.003107704327129193,0.01295795605813175
-0.003107534327129193,0.0125300798073225
-0.003107364327129193,0.01312252384690453
-0.003107194327129193,0.01312252384690453
-0.003107024327129193,0.01289212894262263
-0.003106854327129193,0.01351748653995922
-0.003106684327129193,0.01381370855975023
-0.003106514327129193,0.01394536279076702
-0.003106344327129193,0.01315543740465909
-0.003106174327129193,0.0134516594244501
-0.003106004327129193,0.01371496788648746
-0.003105834327129193,0.01420867125280492
-0.003105664327129193,0.01443906615708682
-0.003105494327129193,0.01440615259933358
-0.003105324327129193,0.01513025086993251
-0.003105154327129193,0.01532773221645986
-0.003104984327129193,0.01568978135176011
-0.003104814327129193,0.0157556084672691
-0.003104644327129193,0.01526190510095074
-0.003104474327129193,0.01605183048706089
-0.003104304327129193,0.01647970673786936
-0.003104134327129193,0.01628222539134202
-0.003103964327129193,0.01661136096888734
-0.003103794327129193,0.01647970673786936
-0.003103624327129193,0.01634805250685113
-0.003103454327129193,0.01667718808439562
-0.003103284327129193,0.01608474404481467
-0.003103114327129193,0.0162163982758329
-0.003102944327129193,0.01677592875766193
-0.003102774327129193,0.01763168125927886
-0.003102604327129193,0.01789498972131531
-0.003102434327129193,0.01828995241437132
-0.003102264327129193,0.01901405068497026
-0.003102094327129193,0.01914570491598848
-0.003101924327129193,0.0201331116486234
-0.003101754327129193,0.02069264213045267
-0.003101584327129193,0.02089012347698001
-0.003101414327129193,0.02171296242084244
-0.003101244327129193,0.02214083867165318
-0.003101074327129193,0.02223957934491685
-0.003100904327129193,0.02200918444063537
-0.003100734327129193,0.02131799972778925
-0.003100564327129193,0.02075846924596178
-0.003100394327129193,0.02000145741760834
-0.003100224327129193,0.01881656933844291
-0.003100054327129193,0.01832286597212456
-0.003099884327129193,0.01733545923948964
-0.003099714327129193,0.01684175587316948
-0.003099544327129193,0.01618348471807834
-0.003099374327129193,0.01575560846726988
-0.003099204327129193,0.01559104067849632
-0.003099034327129193,0.01496568308115973
-0.003098864327129193,0.01434032548382428
-0.003098694327129193,0.01397827634852302
-0.003098524327129193,0.01381370855975023
-0.003098354327129193,0.01338583230894177
-0.003098184327129193,0.0134516594244501
-0.003098014327129193,0.01364914077097745
-0.003097844327129193,0.01338583230894147
-0.003097674327129193,0.0134516594244501
-0.003097504327129193,0.01335291875118643
-0.003097334327129193,0.01361622721322289
-0.003097164327129193,0.01420867125280492
-0.003096994327129193,0.01328709163567732
-0.003096824327129193,0.01417575769505036
-0.003096654327129193,0.01450489327259593
-0.003096484327129193,0.01473528817687783
-0.003096314327129193,0.01516316442768707
-0.003096144327129193,0.01565686779400543
-0.003095974327129193,0.01624931183358745
-0.003095804327129193,0.01664427452664214
-0.003095634327129193,0.01694049654643417
-0.003095464327129193,0.01750002702826063
-0.003095294327129193,0.01796081683682443
-0.003095124327129193,0.01796081683682461
-0.003094954327129193,0.0180595575100881
-0.003094784327129193,0.01855326087640645
-0.003094614327129193,0.01842160664538715
-0.003094444327129193,0.0178291626058062
-0.003094274327129193,0.01789498972131531
-0.003094104327129193,0.01726963212397735
-0.003093934327129193,0.01651262029562391
-0.003093764327129193,0.01588726269828733
-0.003093594327129193,0.01549230000523067
-0.003093424327129193,0.01440615259933226
-0.003093254327129193,0.01305669673139542
-0.003093084327129193,0.01295795605812929
-0.003092914327129193,0.0116085001901949
-0.003092744327129193,0.0116085001901949
-0.003092574327129193,0.0109831425928582
-0.003092404327129193,0.01091731547734921
-0.003092234327129193,0.01071983413082186
-0.003092064327129193,0.01104896970836887
-0.003091894327129193,0.0118388950944768
-0.003091724327129193,0.01239842557630427
-0.003091554327129193,0.01262882048058713
-0.003091384327129193,0.01315543740465909
-0.003091214327129193,0.01361622721322289
-0.003091044327129193,0.01420867125280384
-0.003090874327129193,0.01447197971484137
-0.003090704327129193,0.01443906615708682
-0.003090534327129193,0.01483402885014078
-0.003090364327129193,0.01486694240789606
-0.003090194327129193,0.0148340288501415
-0.003090024327129193,0.01443906615708753
-0.003089854327129193,0.01447197971484137
-0.003089684327129193,0.01450489327259593
