Analysis/New Tests_CMB/wrd01_d2s01_new/cmb12_ch22.csv

#Digilent WaveForms Oscilloscope Acquisition
#Device Name: ADP3450
#Serial Number: SN:210018B9D9B0
#Date Time: 2024-08-15 11:51:48.890.124.840
#Sample rate: 5.88235e+06Hz
#Samples: 32768
#Trigger: Source: Channel 3 Type: Edge Condition: Rising Level: 40 mV Hyst.: Auto HoldOff: 0 s
#Channel 3: Range: 100 mV/div Offset: 0 V Attenuation: 1 X Coupling: DC Bandwidth: 0 Hz Sample Mode: Average

Time (s),Channel 3 (V)
-0.003168893262302325,0.01743419991275151
-0.003168723262302325,0.01720380500847033
-0.003168553262302325,0.0175987677015243
-0.003168383262302325,0.01815829818335177
-0.003168213262302325,0.01789498972131525
-0.003168043262302325,0.01786207616356076
-0.003167873262302325,0.01766459481703341
-0.003167703262302325,0.01726963212397909
-0.003167533262302325,0.01746711347050607
-0.003167363262302325,0.01664427452664214
-0.003167193262302325,0.01618348471807714
-0.003167023262302325,0.0155252135629872
-0.003166853262302325,0.01555812712074176
-0.003166683262302325,0.01575560846727066
-0.003166513262302325,0.01661136096888758
-0.003166343262302325,0.01634805250685113
-0.003166173262302325,0.01608474404481359
-0.003166003262302325,0.01549230000523264
-0.003165833262302325,0.01489985596565062
-0.003165663262302325,0.01545938644747659
-0.003165493262302325,0.01463654750361416
-0.003165323262302325,0.01470237461912327
-0.003165153262302325,0.01529481865870422
-0.003164983262302325,0.01493276952340517
-0.003164813262302325,0.0143732390415777
-0.003164643262302325,0.01374788144424225
-0.003164473262302325,0.01374788144424112
-0.003164303262302325,0.01335291875118643
-0.003164133262302325,0.01295795605813246
-0.003163963262302325,0.01246425269181339
-0.003163793262302325,0.01200346288324959
-0.003163623262302325,0.01210220355651308
-0.003163453262302325,0.01164141374794946
-0.003163283262302325,0.0118388950944768
-0.003163113262302325,0.0119047222099858
-0.003162943262302325,0.0122996849030406
-0.003162773262302325,0.01249716624956795
-0.003162603262302325,0.01279338826935842
-0.003162433262302325,0.01328709163567732
-0.003162263262302325,0.01338583230894099
-0.003162093262302325,0.01341874586669549
-0.003161923262302325,0.01351748653995922
-0.003161753262302325,0.01338583230894099
-0.003161583262302325,0.01269464759609655
-0.003161413262302325,0.01361622721322289
-0.003161243262302325,0.01266173403834073
-0.003161073262302325,0.0119047222099873
-0.003160903262302325,0.01127936461264933
-0.003160733262302325,0.01058817989980363
-0.003160563262302325,0.01068692057306731
-0.003160393262302325,0.009008329127584893
-0.003160223262302325,0.009534946051657807
-0.003160053262302325,0.00950203249390325
-0.003159883262302325,0.009567859609412364
-0.003159713262302325,0.009896995186957936
-0.003159543262302325,0.009534946051657807
-0.003159373262302325,0.01022613076450273
-0.003159203262302325,0.009798254513694264
-0.003159033262302325,0.01012739009123984
-0.003158863262302325,0.01002864941797598
-0.003158693262302325,0.009929908744712493
-0.003158523262302325,0.01045652566878541
-0.003158353262302325,0.01127936461264927
-0.003158183262302325,0.01124645105489478
-0.003158013262302325,0.01157558663244035
-0.003157843262302325,0.01160850019019454
-0.003157673262302325,0.01141101884366756
-0.003157503262302325,0.01150975951693123
-0.003157333262302325,0.01091731547734813
-0.003157163262302325,0.01032487143776718
-0.003156993262302325,0.009600773167166921
-0.003156823262302325,0.009469118936148572
-0.003156653262302325,0.009403291820639578
-0.003156483262302325,0.00871210710779388
-0.003156313262302325,0.008284230856983439
-0.003156143262302325,0.007625959701893495
-0.003155973262302325,0.007099342777820581
-0.003155803262302325,0.006506898738237715
-0.003155633262302325,0.006046108929674754
-0.003155463262302325,0.005552405563356397
-0.003155293262302325,0.00561823267886557
-0.003155123262302325,0.005651146236620068
-0.003154953262302325,0.004433344599701455
-0.003154783262302325,0.005651146236617853
-0.003154613262302325,0.006111936045183867
-0.003154443262302325,0.006046108929674754
-0.003154273262302325,0.006243590276201737
-0.003154103262302325,0.006177763160692982
-0.003153933262302325,0.006342330949465767
-0.003153763262302325,0.006572725853747248
-0.003153593262302325,0.006441071622729439
-0.003153423262302325,0.00677020720027501
-0.003153253262302325,0.006704380084766016
-0.003153083262302325,0.007362651239857037
-0.003152913262302325,0.007658873259648051
-0.003152743262302325,0.007757613932911543
-0.003152573262302325,0.007988008837193623
-0.003152403262302325,0.008317144414739193
-0.003152233262302325,0.008152576625966709
-0.003152063262302325,0.009995735860221606
-0.003151893262302325,0.008185490183720966
-0.003151723262302325,0.00907415624309239
-0.003151553262302325,0.009436205378394135
-0.003151383262302325,0.01358331365546833
-0.003151213262302325,0.01081857480409056
-0.003151043262302325,0.01032487143776718
-0.003150873262302325,0.01002864941797616
-0.003150703262302325,0.01058817989980262
-0.003150533262302325,0.01124645105489478
-0.003150363262302325,0.01098314259285832
-0.003150193262302325,0.01045652566878541
-0.003150023262302325,0.01052235278429452
-0.003149853262302325,0.009798254513694264
-0.003149683262302325,0.009205810474112236
-0.003149513262302325,0.008679193550039321
-0.003149343262302325,0.007988008837193623
-0.003149173262302325,0.007625959701893495
-0.003149003262302325,0.006506898738238553
-0.003148833262302325,0.005552405563356397
-0.003148663262302325,0.004137122579910441
-0.003148493262302325,0.003314283636045017
-0.003148323262302325,0.002491444692182586
-0.003148153262302325,0.003215542962782842
-0.003147983262302325,0.003676332771346163
-0.003147813262302325,0.003413024309310185
-0.003147643262302325,0.003149715847273728
-0.003147473262302325,0.002919320942991709
-0.003147303262302325,0.002853493827482714
-0.003147133262302325,0.002524358249937143
-0.003146963262302325,0.002392704018918795
-0.003146793262302325,0.0023268769034098
-0.003146623262302325,0.002886407385237271
-0.003146453262302325,0.003906727675630637
-0.003146283262302325,0.00505870219703804
-0.003146113262302325,0.005782800467638296
-0.003145943262302325,0.006473985180485193
-0.003145773262302325,0.007132256335575138
-0.003145603262302325,0.007198083451084253
-0.003145433262302325,0.007362651239857337
-0.003145263262302325,0.007527219028629823
-0.003145093262302325,0.008086749510457293
-0.003144923262302325,0.007856354606175574
-0.003144753262302325,0.007955095279439066
-0.003144583262302325,0.006967688546802352
-0.003144413262302325,0.006836034315784603
-0.003144243262302325,0.007099342777820581
-0.003144073262302325,0.00779052749066628
-0.003143903262302325,0.008317144414738235
-0.003143733262302325,0.008251317299230079
-0.003143563262302325,0.007691786817402609
-0.003143393262302325,0.006868947873540178
-0.003143223262302325,0.00630941739171121
-0.003143053262302325,0.006342330949465767
-0.003142883262302325,0.005289097101321856
-0.003142713262302325,0.005947368256411082
-0.003142543262302325,0.006375244507220324
-0.003142373262302325,0.006901861431292281
-0.003142203262302325,0.007889268163929951
-0.003142033262302325,0.00756013258638438
-0.003141863262302325,0.007263910566593905
-0.003141693262302325,0.007066429220066024
-0.003141523262302325,0.006967688546802352
-0.003141353262302325,0.007099342777820342
-0.003141183262302325,0.007988008837193623
-0.003141013262302325,0.008448798645757422
-0.003140843262302325,0.009337464705128848
-0.003140673262302325,0.008942502012075779
-0.003140503262302325,0.008975415569830336
-0.003140333262302325,0.008679193550039861
-0.003140163262302325,0.008053835952702737
-0.003139993262302325,0.007395564797611595
-0.003139823262302325,0.006671466527011338
-0.003139653262302325,0.006638552969256781
-0.003139483262302325,0.006506898738238553
-0.003139313262302325,0.005782800467638296
-0.003139143262302325,0.005091615754792597
-0.003138973262302325,0.004532085272965126
-0.003138803262302325,0.003676332771346642
-0.003138633262302325,0.002853493827482714
-0.003138463262302325,0.001602778632809544
-0.003138293262302325,0.001569865075054987
-0.003138123262302325,0.002096481999128978
-0.003137953262302325,0.002688926038709928
-0.003137783262302325,0.002820580269728157
-0.003137613262302325,0.003083888731763536
-0.003137443262302325,0.002491444692182586
-0.003137273262302325,0.002096481999127901
-0.003137103262302325,0.001997741325864109
-0.003136933262302325,0.001931914210355115
-0.003136763262302325,0.001899000652600558
-0.003136593262302325,0.001899000652601995
-0.003136423262302325,0.002688926038709928
-0.003136253262302325,0.003643419213592085
-0.003136083262302325,0.003906727675629499
-0.003135913262302325,0.004433344599701455
-0.003135743262302325,0.00403838190664677
-0.003135573262302325,0.003807987002365169
-0.003135403262302325,0.003972554791137656
-0.003135233262302325,0.003643419213592085
-0.003135063262302325,0.004466258157455833
-0.003134893262302325,0.004367517484192341
-0.003134723262302325,0.004597912388474241
-0.003134553262302325,0.004564998830720522
-0.003134383262302325,0.005025788639283483
-0.003134213262302325,0.004894134408265255
-0.003134043262302325,0.004104209022156123
-0.003133873262302325,0.004235863253174112
-0.003133703262302325,0.003939641233383098
-0.003133533262302325,0.004564998830718547
-0.003133363262302325,0.004466258157456012
-0.003133193262302325,0.004433344599701455
-0.003133023262302325,0.005256183543563886
-0.003132853262302325,0.00528909710131994
-0.003132683262302325,0.004005468348892213
-0.003132513262302325,0.004268776810928191
-0.003132343262302325,0.003775073444610313
-0.003132173262302325,0.00357759209808297
-0.003132003262302325,0.002952234500747523
-0.003131833262302325,0.002886407385237271
-0.003131663262302325,0.002853493827482714
-0.003131493262302325,0.002359790461165255
-0.003131323262302325,0.002721839596464486
-0.003131153262302325,0.002458531134428029
-0.003130983262302325,0.001504037959547609
-0.003130813262302325,0.0005166312269091594
-0.003130643262302325,0.001043248150982073
-0.003130473262302325,0.001471124401790537
-0.003130303262302325,0.001339470170773087
-0.003130133262302325,0.001471124401791315
-0.003129963262302325,0.002030654883617769
-0.003129793262302325,0.002030654883618786
-0.003129623262302325,0.002096481999127901
-0.003129453262302325,0.002261049787900387
-0.003129283262302325,0.002656012480955371
-0.003129113262302325,0.0027876667119736
-0.003128943262302325,0.003149715847273728
-0.003128773262302325,0.002590185365446257
-0.003128603262302325,0.002425617576673472
-0.003128433262302325,0.001866087094846001
-0.003128263262302325,0.00153695151730043
-0.003128093262302325,0.002359790461164357
-0.003127923262302325,0.002754753154219042
-0.003127753262302325,0.002228136230146668
-0.003127583262302325,0.002524358249937143
-0.003127413262302325,0.003347197193801071
-0.003127243262302325,0.002392704018921968
-0.003127073262302325,0.004071295464401327
-0.003126903262302325,0.00403838190664677
-0.003126733262302325,0.004301690368684544
-0.003126563262302325,0.005025788639283483
-0.003126393262302325,0.005815714025392853
-0.003126223262302325,0.006836034315786639
-0.003126053262302325,0.008218403741475522
-0.003125883262302325,0.009304551147375908
-0.003125713262302325,0.009666600282676335
-0.003125543262302325,0.00983116807144882
-0.003125373262302325,0.009370378262885021
-0.003125203262302325,0.009831168071449001
-0.003125033262302325,0.009929908744712493
-0.003124863262302325,0.01019321720674895
-0.003124693262302325,0.009699513840429216
-0.003124523262302325,0.008942502012075779
-0.003124353262302325,0.008613366434530208
-0.003124183262302325,0.008185490183719109
-0.003124013262302325,0.007165169893329695
-0.003123843262302325,0.00677020720027501
-0.003123673262302325,0.005058702197039237
-0.003123503262302325,0.005716973352129182
-0.003123333262302325,0.004564998830719684
-0.003123163262302325,0.003972554791138734
-0.003122993262302325,0.003380110751555628
-0.003122823262302325,0.003182629405028285
-0.003122653262302325,0.002754753154219821
-0.003122483262302325,0.002919320942991828
-0.003122313262302325,0.003083888731764614
-0.003122143262302325,0.003149715847273608
-0.003121973262302325,0.004202949695419555
-0.003121803262302325,0.005124529312547154
-0.003121633262302325,0.005190356428056149
-0.003121463262302325,0.005585319121110954
-0.003121293262302325,0.005980281814165639
-0.003121123262302325,0.006473985180483098
-0.003120953262302325,0.006572725853747667
-0.003120783262302325,0.006177763160692982
-0.003120613262302325,0.005552405563357534
-0.003120443262302325,0.004992875081528926
-0.003120273262302325,0.004202949695419555
-0.003120103262302325,0.003413024309311622
-0.003119933262302325,0.002919320942991828
-0.003119763262302325,0.002261049787900686
-0.003119593262302325,0.0020964819991282
-0.003119423262302325,0.001339470170773087
-0.003119253262302325,0.0007470261311910591
-0.003119083262302325,0.0006153719001730702
-0.003118913262302325,5.584141834535986e-05
-0.003118743262302325,5.584141834535986e-05
-0.003118573262302325,-0.0001416399281819828
-0.003118403262302325,-0.000207467043691097
-0.003118233262302325,0.0003520634381363738
-0.003118063262302325,0.001174902382000301
-0.003117893262302325,0.001964827768109672
-0.003117723262302325,0.002985148058500942
-0.003117553262302325,0.003347197193801071
-0.003117383262302325,0.004202949695419555
-0.003117213262302325,0.004861220850510698
-0.003117043262302325,0.005519492005601839
-0.003116873262302325,0.004532085272965964
-0.003116703262302325,0.004992875081528926
-0.003116533262302325,0.004762480177247026
-0.003116363262302325,0.004729566619493007
-0.003116193262302325,0.005025788639283483
-0.003116023262302325,0.004696653061737912
-0.003115853262302325,0.004334603926436346
-0.003115683262302325,0.003544678540328413
-0.003115513262302325,0.0030180616162555
-0.003115343262302325,0.002754753154218923
-0.003115173262302325,0.002688926038709928
-0.003115003262302325,0.002754753154219042
-0.003114833262302325,0.002721839596464785
-0.003114663262302325,0.002886407385237271
-0.003114493262302325,0.002820580269728157
-0.003114323262302325,0.002656012480955431
-0.003114153262302325,0.002688926038709928
-0.003113983262302325,0.003281370078291956
-0.003113813262302325,0.002787666711973719
-0.003113643262302325,0.002853493827482714
-0.003113473262302325,0.002952234500746385
-0.003113303262302325,0.002985148058499685
-0.003113133262302325,0.002293963345655243
-0.003112963262302325,0.002458531134428029
-0.003112793262302325,0.002326876903409142
-0.003112623262302325,0.001964827768109672
-0.003112453262302325,0.002261049787900686
-0.003112283262302325,0.002919320942990631
-0.003112113262302325,0.002623098923200814
-0.003111943262302325,0.0025572718076917
-0.003111773262302325,0.002590185365446197
-0.003111603262302325,0.002261049787900686
-0.003111433262302325,0.002392704018918914
-0.003111263262302325,0.002293963345655423
-0.003111093262302325,0.002392704018918914
-0.003110923262302325,0.002261049787900686
-0.003110753262302325,0.002623098923200156
-0.003110583262302325,0.002590185365446257
-0.003110413262302325,0.003511764982573856
-0.003110243262302325,0.003314283636046873
-0.003110073262302325,0.004005468348892213
-0.003109903262302325,0.004071295464401327
-0.003109733262302325,0.004334603926437305
-0.003109563262302325,0.004762480177247026
-0.003109393262302325,0.004597912388474241
-0.003109223262302325,0.005025788639282705
-0.003109053262302325,0.005157442870301712
-0.003108883262302325,0.005782800467638296
-0.003108713262302325,0.005387837774584329
-0.003108543262302325,0.005354924216829054
-0.003108373262302325,0.004499171715210569
-0.003108203262302325,0.004532085272965066
-0.003108033262302325,0.004894134408265255
-0.003107863262302325,0.004301690368683227
-0.003107693262302325,0.005552405563356397
-0.003107523262302325,0.006737293642520453
-0.003107353262302325,0.006375244507220324
-0.003107183262302325,0.006836034315784124
-0.003107013262302325,0.007263910566593366
-0.003106843262302325,0.007395564797611595
-0.003106673262302325,0.007198083451084253
-0.003106503262302325,0.00742847835536681
-0.003106333262302325,0.00779052749066628
-0.003106163262302325,0.007691786817402609
-0.003105993262302325,0.008712107107794359
-0.003105823262302325,0.008975415569830336
-0.003105653262302325,0.008942502012075779
-0.003105483262302325,0.008382971530248308
-0.003105313262302325,0.008382971530248308
-0.003105143262302325,0.007856354606175394
-0.003104973262302325,0.00788926816392977
-0.003104803262302325,0.00779052749066628
-0.003104633262302325,0.007593046144138938
-0.003104463262302325,0.006868947873542573
-0.003104293262302325,0.009008329127584893
-0.003104123262302325,0.006671466527011338
-0.003103953262302325,0.004992875081528387
-0.003103783262302325,0.004696653061737912
-0.003103613262302325,0.003083888731764614
-0.003103443262302325,0.00328137007829034
-0.003103273262302325,0.002392704018918914
-0.003103103262302325,0.0023268769034098
-0.003102933262302325,0.001635692190561886
-0.003102763262302325,0.000417890553645488
-0.003102593262302325,0.0005495447846637165
-0.003102423262302325,0.0006811990156812265
-0.003102253262302325,0.0002862363226272596
-0.003102083262302325,-9.985697163754359e-06
-0.003101913262302325,-9.985697163754359e-06
-0.003101743262302325,0.0005166312269091594
-0.003101573262302325,0.0001216685338544741
-0.003101403262302325,0.0001545820916089713
-0.003101233262302325,-0.0003720348324638825
-0.003101063262302325,-9.985697163754359e-06
-0.003100893262302325,0.0001545820916087318
-0.003100723262302325,0.0009774210354729588
-0.003100553262302325,0.0003520634381363738
-0.003100383262302325,0.00183317353708875
-0.003100213262302325,0.001997741325864229
-0.003100043262302325,0.002392704018918914
-0.003099873262302325,0.002491444692182406
-0.003099703262302325,0.002392704018918914
-0.003099533262302325,0.003050975174010056
-0.003099363262302325,0.003413024309309527
-0.003099193262302325,0.003709246329101199
-0.003099023262302325,0.00426877681092867
-0.003098853262302325,0.004828307292755123
-0.003098683262302325,0.00482830729275614
-0.003098513262302325,0.004235863253174112
-0.003098343262302325,0.004466258157455594
-0.003098173262302325,0.003676332771346642
-0.003098003262302325,0.003083888731764614
-0.003097833262302325,0.003149715847273608
-0.003097663262302325,0.004137122579910441
-0.003097493262302325,0.003939641233383098
-0.003097323262302325,0.00380798700236487
-0.003097153262302325,0.00380798700236487
-0.003096983262302325,0.004071295464401327
-0.003096813262302325,0.004367517484192341
-0.003096643262302325,0.004894134408265255
-0.003096473262302325,0.004959961523774369
-0.003096303262302325,0.004630825946228797
-0.003096133262302325,0.004992875081528926
-0.003095963262302325,0.004894134408265255
-0.003095793262302325,0.005256183543565383
-0.003095623262302325,0.006079022487430507
-0.003095453262302325,0.006737293642520453
-0.003095283262302325,0.005947368256411082
-0.003095113262302325,0.007296824124347565
-0.003094943262302325,0.007099342777820581
-0.003094773262302325,0.006836034315784124
-0.003094603262302325,0.005651146236619769
-0.003094433262302325,0.005486578447847282
-0.003094263262302325,0.004959961523774369
-0.003094093262302325,0.004762480177246907
-0.003093923262302325,0.004696653061737912
-0.003093753262302325,0.005190356428056269
-0.003093583262302325,0.0048612208505098
-0.003093413262302325,0.004367517484192341
-0.003093243262302325,0.004400431041946898
-0.003093073262302325,0.003972554791137117
-0.003092903262302325,0.003676332771346642
-0.003092733262302325,0.00357759209808297
-0.003092563262302325,0.004235863253174411
-0.003092393262302325,0.004400431041946898
-0.003092223262302325,0.004663739503983355
-0.003092053262302325,0.006013195371918579
-0.003091883262302325,0.005124529312547154
-0.003091713262302325,0.005322010659074497
-0.003091543262302325,0.005618232678864133
-0.003091373262302325,0.004861220850510698
