Analysis/New Tests_CMB/wrd01_d2s01_new/cmb10_ch32.csv

#Digilent WaveForms Oscilloscope Acquisition
#Device Name: ADP3450
#Serial Number: SN:210018B9D9B0
#Date Time: 2024-08-14 17:11:41.021.128.040
#Sample rate: 5.88235e+06Hz
#Samples: 32768
#Trigger: Source: Channel 3 Type: Edge Condition: Rising Level: 60 mV Hyst.: Auto HoldOff: 0 s
#Channel 3: Range: 100 mV/div Offset: 0 V Attenuation: 1 X Coupling: DC Bandwidth: 0 Hz Sample Mode: Average

Time (s),Channel 3 (V)
-0.003798502759118059,0.2095506365261013
-0.003798332759118059,0.221596998664289
-0.003798162759118059,0.2324584727232731
-0.003797992759118059,0.2407197757196669
-0.003797822759118059,0.2483228075609804
-0.003797652759118059,0.2542801615145445
-0.003797482759118059,0.2589538867156916
-0.003797312759118059,0.2619490204713593
-0.003797142759118059,0.2636276119168386
-0.003796972759118059,0.2645821050917208
-0.003796802759118059,0.2643187966296833
-0.003796632759118059,0.2636934390323478
-0.003796462759118059,0.2623110696066564
-0.003796292759118058,0.2602704290258687
-0.003796122759118059,0.2574727766167365
-0.003795952759118059,0.2541485072835262
-0.003795782759118058,0.2505609294882724
-0.003795612759118059,0.2466113025577326
-0.003795442759118059,0.2421679722608674
-0.003795272759118058,0.2377575555217486
-0.003795102759118059,0.2332483981093825
-0.003794932759118059,0.2285088457927262
-0.003794762759118059,0.2246250459776956
-0.003794592759118059,0.2187335191396228
-0.003794422759118059,0.2147509786513214
-0.003794252759118059,0.2105709568165002
-0.003794082759118059,0.2066213298859458
-0.003793912759118059,0.2029679249751899
-0.003793742759118059,0.1994132607377042
-0.003793572759118059,0.1961548185199966
-0.003793402759118059,0.1927647220712772
-0.003793232759118059,0.1897366747578635
-0.003793062759118059,0.1865769732134205
-0.003792892759118059,0.1828906547449101
-0.003792722759118059,0.1802246565667958
-0.003792552759118059,0.1777890532929537
-0.003792382759118059,0.1746622653062708
-0.003792212759118059,0.172489970494474
-0.003792042759118059,0.1698239723163509
-0.003791872759118059,0.1666642707719134
-0.003791702759118059,0.1643603217290986
-0.003791532759118059,0.1614310150889388
-0.003791362759118059,0.1588966711418379
-0.003791192759118059,0.1560990187327057
-0.003791022759118059,0.1537292425743725
-0.003790852759118059,0.150569541029935
-0.003790682759118059,0.1485618140069107
-0.003790512759118059,0.1463895191951063
-0.003790342759118059,0.143953915921269
-0.003790172759118059,0.14164996687845
-0.003790002759118059,0.1397080669709312
-0.003789832759118059,0.1363508840799663
-0.003789662759118059,0.1350014282120295
-0.003789492759118059,0.1327962198424742
-0.003789322759118059,0.1316771588788192
-0.003789152759118059,0.1291757284894729
-0.003788982759118059,0.1259172862717696
-0.003788812759118059,0.1247323981926077
-0.003788642759118059,0.1231525474203889
-0.003788472759118059,0.1205523763577756
-0.003788302759118059,0.1187421306812783
-0.003788132759118059,0.1161090460609137
-0.003787962759118059,0.1149899850972527
-0.003787792759118059,0.1116657157640485
-0.003787622759118059,0.1094275938367386
-0.003787452759118059,0.1069261634473889
-0.003787282759118059,0.1050500906553825
-0.003787112759118059,0.1033714992099001
-0.003786942759118059,0.1013637721868685
-0.003786772759118059,0.09935604516384416
-0.003786602759118059,0.09810532996917098
-0.003786432759118059,0.09586720804185793
-0.003786262759118059,0.09412278948086958
-0.003786092759118059,0.09218088957335072
-0.003785922759118059,0.09056812524337417
-0.003785752759118059,0.08879079312463131
-0.003785582759118059,0.0871122016791489
-0.003785412759118058,0.08523612888713546
-0.003785242759118059,0.08319548830635662
-0.003785072759118059,0.08168146464964698
-0.003784902759118058,0.07960791051110683
-0.003784732759118059,0.07792931906562747
-0.003784562759118059,0.07572411069607216
-0.003784392759118059,0.07351890232652082
-0.003784222759118059,0.07210361934307086
-0.003784052759118059,0.07042502789758845
-0.003783882759118059,0.06900974491414508
-0.003783712759118059,0.06782485683497844
-0.003783542759118059,0.06663996875581438
-0.003783372759118059,0.0653892535611435
-0.003783202759118059,0.06515885865685933
-0.003783032759118059,0.06509303154135021
-0.003782862759118059,0.06473098240605073
-0.003782692759118059,0.06420436548197717
-0.003782522759118059,0.06387522990443159
-0.003782352759118059,0.0639081434621861
-0.003782182759118059,0.06380940278892247
-0.003782012759118059,0.06357900788464058
-0.003781842759118059,0.06272325538302365
-0.003781672759118059,0.06249286047874019
-0.003781502759118059,0.06167002153487627
-0.003781332759118059,0.06022182499367839
-0.003781162759118059,0.05906985047226625
-0.003780992759118059,0.05778622171983853
-0.003780822759118059,0.05620637094762266
-0.003780652759118059,0.05525187777273763
-0.003780482759118059,0.05403407613581902
-0.003780312759118059,0.05284918805665711
-0.003780142759118059,0.05228965757482749
-0.003779972759118059,0.05103894238015432
-0.003779802759118059,0.04975531362772659
-0.003779632759118059,0.04903121535712634
-0.003779462759118059,0.04814254929775329
-0.003779292759118059,0.04695766121858923
-0.003779122759118059,0.04662852564104367
-0.003778952759118059,0.04597025448595252
-0.003778782759118059,0.04567403246616151
-0.003778612759118059,0.04498284775331581
-0.003778442759118059,0.04412709525169733
-0.003778272759118059,0.04300803428804238
-0.003778102759118059,0.04234976313295065
-0.003777932759118059,0.04202062755540567
-0.003777762759118059,0.04172440553561466
-0.003777592759118059,0.0413294428425592
-0.003777422759118059,0.04090156659175073
-0.003777252759118059,0.04040786322543238
-0.003777082759118059,0.03991415985911329
-0.003776912759118059,0.03951919716605933
-0.003776742759118059,0.0386963582221954
-0.003776572759118059,0.0378735192783295
-0.003776402759118059,0.03678737187243109
-0.003776232759118059,0.03632658206386729
-0.003776062759118059,0.03642532273712893
-0.003775892759118059,0.03530626177347602
-0.003775722759118059,0.03586579225530349
-0.003775552759118059,0.03497712619592883
-0.003775382759118059,0.03408846013655741
-0.003775212759118059,0.03313396696167525
-0.003775042759118058,0.03237695513331894
-0.003774872759118059,0.03155411618945651
-0.003774702759118059,0.03036922811029246
-0.003774532759118058,0.02977678407070833
-0.003774362759118059,0.02862480954930093
-0.003774192759118059,0.02859189599154637
-0.003774022759118058,0.02773614348992627
-0.003773852759118059,0.02684747743055485
-0.003773682759118059,0.0268803909883094
-0.003773512759118059,0.02609046560220147
-0.003773342759118059,0.02599172492893636
-0.003773172759118059,0.02533345377384522
-0.003773002759118059,0.02464226906100078
-0.003772832759118059,0.02467518261875408
-0.003772662759118059,0.02391817079039926
-0.003772492759118059,0.02385234367489027
-0.003772322759118059,0.02352320809734458
-0.003772152759118059,0.02306241828878078
-0.003771982759118059,0.02332572675081676
-0.003771812759118059,0.02293076405776255
-0.003771642759118059,0.02316115896204445
-0.003771472759118059,0.02296367761551747
-0.003771302759118059,0.02283202338449888
-0.003771132759118059,0.02276619626898976
-0.003770962759118059,0.02270036915348077
-0.003770792759118059,0.02263454203797154
-0.003770622759118059,0.02243706069144419
-0.003770452759118059,0.02240414713368969
-0.003770282759118059,0.02253580136470787
-0.003770112759118059,0.0217458759785985
-0.003769942759118059,0.02191044376737098
-0.003769772759118059,0.02131799972778925
-0.003769602759118059,0.02039642011066165
-0.003769432759118059,0.01986980318658874
-0.003769262759118059,0.01940901337802494
-0.003769092759118059,0.01911279135823393
-0.003768922759118059,0.01868491510742468
-0.003768752759118059,0.01845452020314278
-0.003768582759118059,0.01815829818335177
-0.003768412759118059,0.01786207616356076
-0.003768242759118059,0.0178291626058062
-0.003768072759118059,0.01750002702826063
-0.003767902759118059,0.01750002702826063
-0.003767732759118059,0.01776333549029672
-0.003767562759118059,0.01756585414376974
-0.003767392759118059,0.01786207616356076
-0.003767222759118059,0.01796081683682503
-0.003767052759118059,0.01828995241437
-0.003766882759118059,0.01842160664538823
-0.003766712759118059,0.0181912117411065
-0.003766542759118059,0.01828995241437
-0.003766372759118059,0.01861908799191557
-0.003766202759118059,0.01759876770152298
-0.003766032759118059,0.01687466943092404
-0.003765862759118059,0.01654553385337847
-0.003765692759118059,0.01578852202502264
-0.003765522759118059,0.01522899154319619
-0.003765352759118059,0.01434032548382314
-0.003765182759118059,0.01368205432873128
-0.003765012759118059,0.01328709163567732
-0.003764842759118059,0.01282630182711352
-0.003764672759118059,0.01292504250037761
-0.003764502759118059,0.01315543740465909
-0.003764332759118059,0.01302378317364086
-0.003764162759118058,0.01338583230894129
-0.003763992759118059,0.01355040009771377
-0.003763822759118059,0.01434032548382314
-0.003763652759118058,0.01364914077097751
-0.003763482759118059,0.013682054328732
-0.003763312759118059,0.01404410346403213
-0.003763142759118059,0.01351748653996017
-0.003762972759118059,0.0134516594244501
-0.003762802759118059,0.01335291875118643
-0.003762632759118059,0.01315543740465945
-0.003762462759118059,0.01328709163567732
-0.003762292759118059,0.01338583230894099
-0.003762122759118059,0.01302378317364152
-0.003761952759118059,0.01325417807792276
-0.003761782759118059,0.01312252384690453
-0.003761612759118059,0.01289212894262305
-0.003761442759118059,0.01249716624956795
-0.003761272759118059,0.01266173403834073
-0.003761102759118059,0.01210220355651428
-0.003760932759118059,0.01272756115384985
-0.003760762759118059,0.01256299336507706
-0.003760592759118059,0.01282630182711304
-0.003760422759118059,0.01292504250037719
-0.003760252759118059,0.01236551201854972
-0.003760082759118059,0.01187180865223226
-0.003759912759118059,0.01121353749714022
-0.003759742759118059,0.01048943922653996
-0.003759572759118059,0.009765340955941023
-0.003759402759118059,0.009008329127584893
-0.003759232759118059,0.008053835952702737
-0.003759062759118059,0.007889268163930251
-0.003758892759118059,0.007263910566593366
-0.003758722759118059,0.007132256335575138
-0.003758552759118059,0.006342330949465767
-0.003758382759118059,0.00574988690988374
-0.003758212759118059,0.004927047966019811
-0.003758042759118059,0.004729566619492469
-0.003757872759118059,0.004663739503983355
-0.003757702759118059,0.004532085272965126
-0.003757532759118059,0.004433344599701455
-0.003757362759118059,0.004499171715210749
-0.003757192759118059,0.004597912388474241
-0.003757022759118059,0.005684059794374625
-0.003756852759118059,0.005519492005603456
-0.003756682759118059,0.006408158064974882
-0.003756512759118059,0.006737293642520453
-0.003756342759118059,0.007132256335575796
-0.003756172759118059,0.007494305470875266
-0.003756002759118059,0.007757613932911723
-0.003755832759118059,0.00808674951045849
-0.003755662759118059,0.008745020665548437
-0.003755492759118059,0.009403291820639578
-0.003755322759118059,0.009600773167167341
-0.003755152759118059,0.00983116807144882
-0.003754982759118059,0.01025904432225806
-0.003754812759118059,0.01048943922654008
-0.003754642759118059,0.01055526634204908
-0.003754472759118059,0.01104896970836743
-0.003754302759118059,0.01150975951693183
-0.003754132759118059,0.0118388950944768
-0.003753962759118059,0.01226677134528605
-0.003753792759118058,0.01305669673139584
-0.003753622759118059,0.01328709163567732
-0.003753452759118059,0.01312252384690453
-0.003753282759118058,0.01328709163567827
-0.003753112759118059,0.01381370855975023
-0.003752942759118059,0.01371496788648656
-0.003752772759118059,0.01394536279076804
-0.003752602759118059,0.01341874586669555
-0.003752432759118059,0.01328709163567732
-0.003752262759118059,0.0123325984607969
-0.003752092759118059,0.01213511711426782
-0.003751922759118059,0.01045652566878541
-0.003751752759118059,0.00979825451369546
-0.003751582759118059,0.008646279992284765
-0.003751412759118059,0.007856354606175394
-0.003751242759118059,0.006704380084767991
-0.003751072759118059,0.006013195371920196
-0.003750902759118059,0.005091615754792597
-0.003750732759118059,0.00446625815745715
-0.003750562759118059,0.004137122579910441
-0.003750392759118059,0.003445937867064742
-0.003750222759118059,0.003215542962783261
-0.003750052759118059,0.0030180616162555
-0.003749882759118059,0.002985148058500942
-0.003749712759118059,0.002688926038710467
-0.003749542759118059,0.003116802289519171
-0.003749372759118059,0.003314283636046514
-0.003749202759118059,0.003742159886854978
-0.003749032759118059,0.004202949695419555
-0.003748862759118059,0.004992875081528926
-0.003748692759118059,0.006243590276199821
-0.003748522759118059,0.006901861431293239
-0.003748352759118059,0.007329737682102481
-0.003748182759118059,0.00811966306821185
-0.003748012759118059,0.008086749510457293
-0.003747842759118059,0.008646279992284765
-0.003747672759118059,0.00881084778105755
-0.003747502759118059,0.008350057972493751
-0.003747332759118059,0.009271637589621349
-0.003747162759118059,0.009436205378394135
-0.003746992759118059,0.009469118936148692
-0.003746822759118059,0.009436205378394135
-0.003746652759118059,0.009205810474112236
-0.003746482759118059,0.009337464705129507
-0.003746312759118059,0.00881084778105755
-0.003746142759118059,0.008580452876775651
-0.003745972759118059,0.00894250201207512
-0.003745802759118059,0.008580452876775651
-0.003745632759118059,0.009403291820639578
-0.003745462759118059,0.008646279992284884
-0.003745292759118059,0.00871210710779388
-0.003745122759118059,0.008613366434530208
-0.003744952759118059,0.007889268163930131
-0.003744782759118059,0.007988008837193623
-0.003744612759118059,0.00653981229599311
-0.003744442759118059,0.006868947873536525
-0.003744272759118059,0.005684059794374625
-0.003744102759118059,0.005322010659074497
-0.003743932759118059,0.004104209022156004
-0.003743762759118059,0.004170036137664999
-0.003743592759118059,0.003873814117873984
-0.003743422759118058,0.003840900560119786
-0.003743252759118059,0.00403838190664677
-0.003743082759118059,0.003939641233383098
-0.003742912759118058,0.004367517484192461
-0.003742742759118059,0.004433344599701455
-0.003742572759118059,0.004894134408265255
-0.003742402759118058,0.00512452931254913
-0.003742232759118059,0.006210676718447538
-0.003742062759118059,0.00630941739171121
-0.003741892759118059,0.005684059794375763
-0.003741722759118059,0.005947368256411082
-0.003741552759118059,0.006737293642520453
-0.003741382759118059,0.007033515662310928
-0.003741212759118059,0.00700060210455691
-0.003741042759118059,0.00700060210455691
-0.003740872759118059,0.007132256335574899
-0.003740702759118059,0.007494305470875266
-0.003740532759118059,0.007527219028629823
-0.003740362759118059,0.008218403741474265
-0.003740192759118059,0.008350057972493751
-0.003740022759118059,0.008481712203511979
-0.003739852759118059,0.008646279992284464
-0.003739682759118059,0.008942502012075779
-0.003739512759118059,0.008975415569830336
-0.003739342759118059,0.009238724031866314
-0.003739172759118059,0.009008329127584893
-0.003739002759118059,0.008745020665548437
-0.003738832759118059,0.008580452876775951
-0.003738662759118059,0.008481712203511979
-0.003738492759118059,0.008646279992284765
-0.003738322759118059,0.008152576625967307
-0.003738152759118059,0.007889268163929951
-0.003737982759118059,0.007329737682102481
-0.003737812759118059,0.006836034315785022
-0.003737642759118059,0.006144849602938425
-0.003737472759118059,0.00574988690988374
-0.003737302759118059,0.00505870219703804
-0.003737132759118059,0.004663739503983355
-0.003736962759118059,0.004466258157456012
-0.003736792759118059,0.004235863253174112
-0.003736622759118059,0.004104209022155884
-0.003736452759118059,0.003676332771346642
-0.003736282759118059,0.003610505655837527
-0.003736112759118059,0.003149715847273428
-0.003735942759118059,0.002985148058500942
-0.003735772759118059,0.002688926038709928
-0.003735602759118059,0.002623098923200814
-0.003735432759118059,0.002623098923200814
-0.003735262759118059,0.003149715847273728
-0.003735092759118059,0.00367633277134754
-0.003734922759118059,0.004170036137664999
-0.003734752759118059,0.004795393735001583
-0.003734582759118059,0.00525618354356658
-0.003734412759118059,0.005914454698656525
-0.003734242759118059,0.005980281814165639
-0.003734072759118059,0.00746139191312011
-0.003733902759118059,0.007132256335575138
-0.003733732759118059,0.007724700375157166
-0.003733562759118059,0.008185490183721564
-0.003733392759118059,0.008514625761266537
-0.003733222759118059,0.008317144414739193
-0.003733052759118059,0.008547539319020376
-0.003732882759118059,0.008152576625966409
-0.003732712759118059,0.008514625761266537
-0.003732542759118058,0.008317144414739613
-0.003732372759118059,0.008547539319021094
-0.003732202759118059,0.008251317299230079
-0.003732032759118058,0.008251317299229481
-0.003731862759118059,0.007922181721684508
-0.003731692759118059,0.007362651239857037
-0.003731522759118059,0.00709934277782106
-0.003731352759118059,0.006605639411502225
-0.003731182759118059,0.006210676718447538
-0.003731012759118059,0.005848627583148069
-0.003730842759118059,0.005684059794374625
-0.003730672759118059,0.005256183543565383
-0.003730502759118059,0.004894134408265913
-0.003730332759118059,0.004630825946228797
-0.003730162759118059,0.003742159886855756
-0.003729992759118059,0.003281370078292795
-0.003729822759118059,0.002623098923200814
-0.003729652759118059,0.001734432863827772
-0.003729482759118059,0.001569865075055286
-0.003729312759118059,0.00130655661301853
-0.003729142759118059,0.001602778632809544
-0.003728972759118059,0.001800259979336527
-0.003728802759118059,0.002524358249937143
-0.003728632759118059,0.001997741325864229
-0.003728462759118059,0.0047295666194875
-0.003728292759118059,0.004235863253174112
-0.003728122759118059,0.004696653061737912
-0.003727952759118059,0.00495996152377389
-0.003727782759118059,0.006111936045183867
-0.003727612759118059,0.006243590276202096
-0.003727442759118059,0.006572725853747068
-0.003727272759118059,0.007165169893329695
-0.003727102759118059,0.007395564797611595
-0.003726932759118059,0.007099342777820581
-0.003726762759118059,0.007362651239857037
-0.003726592759118059,0.007066429220066024
-0.003726422759118059,0.007461391913120709
-0.003726252759118059,0.007198083451084253
-0.003726082759118059,0.006868947873538681
-0.003725912759118059,0.007132256335575138
-0.003725742759118059,0.007296824124347924
-0.003725572759118059,0.006671466527011338
-0.003725402759118059,0.006704380084765896
-0.003725232759118059,0.006868947873537484
-0.003725062759118059,0.006210676718447538
-0.003724892759118059,0.00574988690988374
-0.003724722759118059,0.005157442870300274
-0.003724552759118059,0.004367517484192341
-0.003724382759118059,0.003643419213592085
-0.003724212759118059,0.003511764982572719
-0.003724042759118059,0.002886407385237271
-0.003723872759118059,0.002688926038709928
-0.003723702759118059,0.002063568441373583
-0.003723532759118059,0.002195222672391572
-0.003723362759118059,0.001504037959545873
-0.003723192759118059,0.001701519306073694
-0.003723022759118059,0.001964827768109672
-0.003722852759118059,0.002293963345655243
-0.003722682759118059,0.002524358249937622
-0.003722512759118059,0.0027876667119736
-0.003722342759118059,0.002886407385237271
-0.003722172759118058,0.003610505655837767
-0.003722002759118059,0.003742159886855756
-0.003721832759118059,0.004235863253174112
-0.003721662759118058,0.004663739503984432
-0.003721492759118059,0.005256183543565383
-0.003721322759118059,0.005519492005601839
-0.003721152759118058,0.005782800467638775
-0.003720982759118059,0.006046108929674754
-0.003720812759118059,0.006473985180483996
-0.003720642759118059,0.006770207200274471
-0.003720472759118059,0.007461391913120709
-0.003720302759118059,0.007362651239857037
-0.003720132759118059,0.007625959701893016
-0.003719962759118059,0.008251317299230079
-0.003719792759118059,0.008876674896566664
