Analysis/New Tests_CMB/wrd01_d2s01_new/cmb10_ch41.csv

#Digilent WaveForms Oscilloscope Acquisition
#Device Name: ADP3450
#Serial Number: SN:210018B9D9B0
#Date Time: 2024-08-14 17:14:36.765.652.420
#Sample rate: 5.88235e+06Hz
#Samples: 32768
#Trigger: Source: Channel 3 Type: Edge Condition: Rising Level: 60 mV Hyst.: Auto HoldOff: 0 s
#Channel 3: Range: 100 mV/div Offset: 0 V Attenuation: 1 X Coupling: DC Bandwidth: 0 Hz Sample Mode: Average

Time (s),Channel 3 (V)
-0.003798526867936896,0.2113279686448474
-0.003798356867936895,0.2229464545322474
-0.003798186867936895,0.2343016319575628
-0.003798016867936896,0.243780736590855
-0.003797846867936896,0.2516141633364362
-0.003797676867936896,0.2576044308477547
-0.003797506867936896,0.2626402051842019
-0.003797336867936895,0.2660632151906823
-0.003797166867936895,0.2678405473094265
-0.003796996867936895,0.269091262504095
-0.003796826867936896,0.2689925218308298
-0.003796656867936896,0.2680709422137039
-0.003796486867936896,0.2667543999035216
-0.003796316867936895,0.2653720304778183
-0.003796146867936895,0.2621135882601191
-0.003795976867936895,0.2593817629664949
-0.003795806867936896,0.2561562343065482
-0.003795636867936896,0.2528648785310985
-0.003795466867936896,0.2490139922738153
-0.003795296867936895,0.2450643653432556
-0.003795126867936895,0.2415426146635173
-0.003794956867936895,0.237823382637258
-0.003794786867936896,0.2334787930136562
-0.003794616867936896,0.2290025491590446
-0.003794446867936896,0.2251187493440069
-0.003794276867936896,0.2214324308755032
-0.003794106867936895,0.2171207548096357
-0.003793936867936895,0.2133356956678678
-0.003793766867936896,0.2091556738330395
-0.003793596867936896,0.2052060469024998
-0.003793426867936896,0.2009931115099165
-0.003793256867936896,0.1973067930414128
-0.003793086867936895,0.19362047457288
-0.003792916867936895,0.189308798507042
-0.003792746867936896,0.1856224800385306
-0.003792576867936896,0.1813766310882005
-0.003792406867936896,0.1769333007913352
-0.003792236867936896,0.1727532789565141
-0.003792066867936895,0.1696594045275621
-0.003791896867936895,0.1652489877884624
-0.003791726867936896,0.1624513353793238
-0.003791556867936896,0.1589624982573471
-0.003791386867936896,0.1565268949835098
-0.003791216867936896,0.1533671934390781
-0.003791046867936895,0.1506353681454372
-0.003790876867936895,0.1487263817956759
-0.003790706867936896,0.14658700054163
-0.003790536867936896,0.1446121870763602
-0.003790366867936896,0.1433943854394416
-0.003790196867936896,0.1414195719741681
-0.003790026867936895,0.1402017703372424
-0.003789856867936895,0.1382598704297277
-0.003789686867936896,0.1366471060997536
-0.003789516867936896,0.1345735519612203
-0.003789346867936896,0.1328949605157378
-0.003789176867936896,0.1305251843574097
-0.003789006867936895,0.1285174573343749
-0.003788836867936895,0.1266413845423677
-0.003788666867936896,0.1243045219417947
-0.003788496867936896,0.1222638813610117
-0.003788326867936896,0.1199270187604423
-0.003788156867936896,0.1179851188529235
-0.003787986867936895,0.1158128240411159
-0.003787816867936895,0.11393675124911
-0.003787646867936896,0.1123239869191364
-0.003787476867936896,0.1105466548003914
-0.003787306867936896,0.1093617667212295
-0.003787136867936896,0.1077160888335016
-0.003786966867936895,0.106893249889628
-0.003786796867936895,0.1042272517115124
-0.003786626867936895,0.1025157467082778
-0.003786456867936896,0.100376365454232
-0.003786286867936896,0.09850029266222568
-0.003786116867936896,0.09570264025308831
-0.003785946867936895,0.09359617255678888
-0.003785776867936895,0.09145679130274002
-0.003785606867936895,0.08859331177809955
-0.003785436867936896,0.08615770850426278
-0.003785266867936896,0.08398541369246598
-0.003785096867936896,0.08194477311168344
-0.003784926867936895,0.07983830541538448
-0.003784756867936895,0.07783057839235877
-0.003784586867936895,0.0764482089666694
-0.003784416867936896,0.07480253107894233
-0.003784246867936896,0.07358472944202593
-0.003784076867936896,0.07249858203612555
-0.003783906867936896,0.07151117530349062
-0.003783736867936895,0.07065542280186855
-0.003783566867936895,0.07016171943555032
-0.003783396867936896,0.06924013981842331
-0.003783226867936896,0.06864769577884236
-0.003783056867936896,0.06841730087456047
-0.003782886867936896,0.06772611616171605
-0.003782716867936895,0.06647540096704088
-0.003782546867936895,0.06627791962051326
-0.003782376867936896,0.06571838913868554
-0.003782206867936896,0.06502720442584109
-0.003782036867936896,0.06397397057769527
-0.003781866867936896,0.06400688413544978
-0.003781696867936895,0.06232829268996693
-0.003781526867936895,0.06219663845894672
-0.003781356867936896,0.06084718259101084
-0.003781186867936896,0.06002434364714841
-0.003781016867936896,0.05923441826103904
-0.003780846867936896,0.05844449287493111
-0.003780676867936895,0.05758874037330675
-0.003780506867936895,0.05637093873639083
-0.003780336867936896,0.0554164455615091
-0.003780166867936896,0.05469234729091016
-0.003779996867936896,0.05377076767378256
-0.003779826867936896,0.0528162744989004
-0.003779656867936895,0.05209217622829727
-0.003779486867936895,0.05130225084218934
-0.003779316867936896,0.05051232545608009
-0.003779146867936896,0.04978822718548115
-0.003778976867936896,0.04899830179937178
-0.003778806867936896,0.04761593237368038
-0.003778636867936895,0.04666143919879152
-0.003778466867936895,0.04481827996454123
-0.003778296867936896,0.04383087323190374
-0.003778126867936896,0.04241559024845833
-0.003777956867936896,0.04129652928480541
-0.003777786867936896,0.04057243101420516
-0.003777616867936895,0.03981541918584915
-0.003777446867936895,0.03948628360830172
-0.003777276867936896,0.03780769216282063
-0.003777106867936896,0.03685319898793895
-0.003776936867936896,0.03616201427509451
-0.003776766867936896,0.03570122446653071
-0.003776596867936895,0.03477964484940155
-0.003776426867936895,0.03435176859859207
-0.003776256867936896,0.03385806523227444
-0.003776086867936896,0.03326562119269228
-0.003775916867936896,0.03260735003760234
-0.003775746867936896,0.03178451109373841
-0.003775576867936895,0.03181742465149117
-0.003775406867936895,0.03132372128517437
-0.003775236867936895,0.03125789416966598
-0.003775066867936896,0.03152120263170159
-0.003774896867936896,0.03132372128517461
-0.003774726867936896,0.03053379589906524
-0.003774556867936895,0.03106041282313576
-0.003774386867936895,0.03040214166804677
-0.003774216867936895,0.03033631455253766
-0.003774046867936896,0.03020466032151937
-0.003773876867936896,0.03004009253274689
-0.003773706867936896,0.02944764849316486
-0.003773536867936896,0.02938182137765586
-0.003773366867936895,0.02865772310705273
-0.003773196867936895,0.027900711278699
-0.003773026867936896,0.02697913166157493
-0.003772856867936896,0.02799945195196434
-0.003772686867936896,0.02638668762199104
-0.003772516867936896,0.02612337915995507
-0.003772346867936895,0.02579424358240794
-0.003772176867936895,0.02549802156261699
-0.003772006867936896,0.02493849108078969
-0.003771836867936896,0.02447770127222673
-0.003771666867936896,0.02388525723264471
-0.003771496867936896,0.02325989963530926
-0.003771326867936895,0.02276619626898749
-0.003771156867936895,0.02214083867165222
-0.003770986867936896,0.02161422174758021
-0.003770816867936896,0.02158130818982571
-0.003770646867936896,0.02135091328554381
-0.003770476867936896,0.02135091328554381
-0.003770306867936895,0.02151548107431623
-0.003770136867936895,0.02141674040105334
-0.003769966867936896,0.02164713530533482
-0.003769796867936896,0.02164713530533482
-0.003769626867936896,0.0217458759785985
-0.003769456867936896,0.02214083867165318
-0.003769286867936895,0.0223054064604274
-0.003769116867936895,0.02270036915348077
-0.003768946867936896,0.02276619626899
-0.003768776867936896,0.02289785050000799
-0.003768606867936896,0.02286493694225343
-0.003768436867936896,0.02293076405776255
-0.003768266867936895,0.02246997424919599
-0.003768096867936895,0.02171296242084543
-0.003767926867936896,0.02253580136470404
-0.003767756867936896,0.02042933366841603
-0.003767586867936896,0.02033059299515254
-0.003767416867936896,0.01904696424272481
-0.003767246867936895,0.01865200154966881
-0.003767076867936895,0.01828995241436886
-0.003766906867936896,0.01766459481703323
-0.003766736867936896,0.01756585414376896
-0.003766566867936896,0.0171379778929605
-0.003766396867936896,0.01671010164215126
-0.003766226867936895,0.01674301519990594
-0.003766056867936895,0.01677592875765833
-0.003765886867936896,0.01621639827583254
-0.003765716867936896,0.0160189169293055
-0.003765546867936896,0.015986003371551
-0.003765376867936896,0.01539355933196897
-0.003765206867936895,0.01578852202502282
-0.003765036867936895,0.01555812712074415
-0.003764866867936895,0.01621639827583224
-0.003764696867936896,0.01585434914053313
-0.003764526867936896,0.01605183048706011
-0.003764356867936896,0.01657844741113303
-0.003764186867936895,0.0166113609688865
-0.003764016867936895,0.01631513894909549
-0.003763846867936895,0.01601891692930352
-0.003763676867936896,0.01489985596565127
-0.003763506867936896,0.01526190510095074
-0.003763336867936896,0.01493276952340517
-0.003763166867936896,0.01437323904157872
-0.003762996867936895,0.01404410346403081
-0.003762826867936895,0.01368205432873206
-0.003762656867936896,0.01371496788648554
-0.003762486867936896,0.01315543740465909
-0.003762316867936896,0.01279338826935896
-0.003762146867936896,0.01253007980732298
-0.003761976867936895,0.01276047471160572
-0.003761806867936895,0.01312252384690513
-0.003761636867936896,0.01345165942445016
-0.003761466867936896,0.01348457298220466
-0.003761296867936896,0.01371496788648656
-0.003761126867936896,0.01397827634852254
-0.003760956867936895,0.01381370855974975
-0.003760786867936895,0.01368205432873218
-0.003760616867936896,0.01378079500199591
-0.003760446867936896,0.0139124492330139
-0.003760276867936896,0.01371496788648656
-0.003760106867936896,0.01374788144424106
-0.003759936867936895,0.01371496788648488
-0.003759766867936895,0.01325417807792222
-0.003759596867936896,0.01295795605813181
-0.003759426867936896,0.0129908696158863
-0.003759256867936896,0.01243133913405883
-0.003759086867936896,0.01229968490304084
-0.003758916867936895,0.01210220355651159
-0.003758746867936895,0.01164141374794719
-0.003758576867936896,0.01039069855327767
-0.003758406867936896,0.01114771038163111
-0.003758236867936896,0.01078566124633098
-0.003758066867936896,0.01012739009123984
-0.003757896867936895,0.009436205378395093
-0.003757726867936895,0.009699513840430832
-0.003757556867936896,0.009831168071448881
-0.003757386867936896,0.009864081629205592
-0.003757216867936896,0.01108188326612199
-0.003757046867936896,0.01085148836184009
-0.003756876867936895,0.01134519172815929
-0.003756706867936895,0.01157558663244041
-0.003756536867936896,0.0116085001901979
-0.003756366867936896,0.01325417807792228
-0.003756196867936896,0.0129908696158863
-0.003756026867936896,0.01371496788648656
-0.003755856867936895,0.01430741192606883
-0.003755686867936895,0.0143732390415771
-0.003755516867936896,0.01420867125280378
-0.003755346867936896,0.01358331365546833
-0.003755176867936896,0.01358331365546833
-0.003755006867936896,0.01259590692283162
-0.003754836867936895,0.0123655120185484
-0.003754666867936895,0.01200346288324863
-0.003754496867936895,0.01174015442121152
-0.003754326867936896,0.01085148836183943
-0.003754156867936896,0.01048943922653996
-0.003753986867936896,0.01022613076450351
-0.003753816867936895,0.009732427398183714
-0.003753646867936895,0.009337464705129986
-0.003753476867936895,0.009205810474112416
-0.003753306867936896,0.009304551147376865
-0.003753136867936896,0.00983116807144882
-0.003752966867936896,0.009929908744712493
-0.003752796867936896,0.007922181721688159
-0.003752626867936895,0.008777934223303951
-0.003752456867936895,0.009041242685338312
-0.003752286867936896,0.008415885088001908
-0.003752116867936896,0.007889268163929951
-0.003751946867936896,0.007593046144138938
-0.003751776867936896,0.00756013258638444
-0.003751606867936895,0.006934774989049352
-0.003751436867936895,0.0073626512398562
-0.003751266867936896,0.006901861431293478
-0.003751096867936896,0.007033515662311467
-0.003750926867936896,0.007362651239857037
-0.003750756867936896,0.007724700375156508
-0.003750586867936895,0.007922181721686423
-0.003750416867936895,0.00844879864575802
-0.003750246867936896,0.008777934223303113
-0.003750076867936896,0.008843761338812107
-0.003749906867936896,0.008975415569830336
-0.003749736867936896,0.009403291820638799
-0.003749566867936895,0.009633686724922076
-0.003749396867936895,0.009798254513695641
-0.003749226867936896,0.01055526634204692
-0.003749056867936896,0.009370378262885021
-0.003748886867936896,0.01035778499552173
-0.003748716867936896,0.01042361211103073
-0.003748546867936895,0.01012739009124091
-0.003748376867936895,0.01042361211103193
-0.003748206867936896,0.01101605615061389
-0.003748036867936896,0.01157558663244035
-0.003747866867936896,0.01164141374794946
-0.003747696867936896,0.01157558663244035
-0.003747526867936895,0.01174015442121277
-0.003747356867936895,0.01164141374794904
-0.003747186867936896,0.0114110188436675
-0.003747016867936896,0.011378105285913
-0.003746846867936896,0.01147684595917668
-0.003746676867936896,0.01085148836184009
-0.003746506867936895,0.01045652566878385
-0.003746336867936895,0.01002864941797538
-0.003746166867936896,0.009600773167166083
-0.003745996867936896,0.009139983358602404
-0.003745826867936896,0.008745020665548437
-0.003745656867936896,0.008843761338812107
-0.003745486867936895,0.008350057972492674
-0.003745316867936895,0.00805383595270154
-0.003745146867936896,0.007724700375156867
-0.003744976867936896,0.007560132586385038
-0.003744806867936896,0.007922181721684508
-0.003744636867936896,0.007955095279439066
-0.003744466867936895,0.00782344104841976
-0.003744296867936895,0.007527219028629943
-0.003744126867936895,0.007560132586383961
-0.003743956867936896,0.007329737682101284
-0.003743786867936896,0.006671466527011338
-0.003743616867936896,0.006704380084765896
-0.003743446867936895,0.006210676718445503
-0.003743276867936895,0.005651146236619949
-0.003743106867936895,0.005618232678865391
-0.003742936867936896,0.005552405563355918
-0.003742766867936896,0.00528909710131994
-0.003742596867936896,0.004992875081528926
-0.003742426867936895,0.004927047966019333
-0.003742256867936895,0.004795393735002182
-0.003742086867936895,0.004959961523774549
-0.003741916867936896,0.005058702197038519
-0.003741746867936896,0.005322010659074497
-0.003741576867936896,0.005223269985810825
-0.003741406867936896,0.005914454698655267
-0.003741236867936895,0.006375244507222719
-0.003741066867936895,0.007033515662312844
-0.003740896867936896,0.007790527490668196
-0.003740726867936896,0.008843761338812107
-0.003740556867936896,0.009238724031866792
-0.003740386867936896,0.009962822302465733
-0.003740216867936895,0.01052235278429596
-0.003740046867936895,0.01091731547735106
-0.003739876867936896,0.0119376357677394
-0.003739706867936896,0.01134519172815845
-0.003739536867936896,0.01355040009771377
-0.003739366867936896,0.01295795605813282
-0.003739196867936895,0.01282630182711184
-0.003739026867936895,0.012365512018549
-0.003738856867936896,0.01197054932549413
-0.003738686867936896,0.01147684595917668
-0.003738516867936896,0.01157558663244035
-0.003738346867936896,0.01085148836184141
-0.003738176867936895,0.01075274768857427
-0.003738006867936895,0.01016030364899397
-0.003737836867936896,0.009929908744711296
-0.003737666867936896,0.009271637589621349
-0.003737496867936896,0.009008329127584893
-0.003737326867936896,0.008909588454321223
-0.003737156867936895,0.009205810474111517
-0.003736986867936895,0.009008329127584954
-0.003736816867936896,0.009041242685339989
-0.003736646867936896,0.009337464705130465
-0.003736476867936896,0.008942502012075779
-0.003736306867936896,0.008646279992284765
-0.003736136867936895,0.008317144414739073
-0.003735966867936895,0.008284230856984875
-0.003735796867936896,0.008415885088002985
-0.003735626867936896,0.008481712203511918
-0.003735456867936896,0.008448798645757422
-0.003735286867936896,0.008613366434530208
-0.003735116867936895,0.008415885088000471
-0.003734946867936895,0.007757613932911962
-0.003734776867936896,0.007889268163929113
-0.003734606867936896,0.007428478355365853
-0.003734436867936896,0.007263910566593366
-0.003734266867936896,0.00700060210455691
-0.003734096867936895,0.006704380084764938
-0.003733926867936895,0.006441071622728721
-0.003733756867936895,0.006243590276201438
-0.003733586867936896,0.005881541140901848
-0.003733416867936896,0.005815714025392853
-0.003733246867936896,0.005980281814165639
-0.003733076867936895,0.005716973352128464
-0.003732906867936895,0.0055194920056016
-0.003732736867936895,0.005453664890092845
-0.003732566867936896,0.005519492005601839
-0.003732396867936896,0.005519492005601839
-0.003732226867936896,0.005354924216829054
-0.003732056867936895,0.005025788639283004
-0.003731886867936895,0.004894134408265015
-0.003731716867936895,0.004828307292754943
-0.003731546867936896,0.004170036137664759
-0.003731376867936896,0.00403838190664677
-0.003731206867936896,0.003972554791137656
-0.003731036867936896,0.003906727675628661
-0.003730866867936895,0.003445937867063664
-0.003730696867936895,0.003149715847274805
-0.003730526867936896,0.003742159886857193
-0.003730356867936896,0.004532085272965126
-0.003730186867936896,0.003281370078291956
-0.003730016867936896,0.004762480177244332
-0.003729846867936895,0.004992875081531201
-0.003729676867936895,0.005618232678866528
-0.003729506867936896,0.00617776316069352
-0.003729336867936896,0.006473985180483996
-0.003729166867936896,0.006967688546802352
-0.003728996867936896,0.007625959701892298
-0.003728826867936895,0.007724700375156567
-0.003728656867936895,0.007560132586385218
-0.003728486867936896,0.008020922394949736
-0.003728316867936896,0.008876674896566664
-0.003728146867936896,0.008646279992284765
-0.003727976867936896,0.008679193550039261
-0.003727806867936895,0.008646279992284286
-0.003727636867936895,0.008514625761265998
-0.003727466867936896,0.008218403741474863
-0.003727296867936896,0.007856354606175394
-0.003727126867936896,0.007955095279439066
-0.003726956867936896,0.007856354606175394
-0.003726786867936895,0.007658873259646734
-0.003726616867936895,0.007296824124348403
-0.003726446867936896,0.007560132586384739
-0.003726276867936896,0.007757613932911723
-0.003726106867936896,0.007691786817402609
-0.003725936867936896,0.007362651239857037
-0.003725766867936895,0.00719808345108521
-0.003725596867936895,0.007461391913120709
-0.003725426867936896,0.00746139191312023
-0.003725256867936896,0.007198083451084312
-0.003725086867936896,0.007230997008838809
-0.003724916867936896,0.007296824124347924
-0.003724746867936895,0.007395564797611835
-0.003724576867936895,0.00746139191312041
-0.003724406867936896,0.007296824124348044
-0.003724236867936896,0.007362651239856559
-0.003724066867936896,0.007099342777820581
-0.003723896867936896,0.006901861431293239
-0.003723726867936895,0.007033515662310988
-0.003723556867936895,0.006901861431293957
-0.003723386867936896,0.00709934277782106
-0.003723216867936896,0.007362651239857576
-0.003723046867936896,0.007658873259648051
-0.003722876867936896,0.00802092239494818
-0.003722706867936895,0.008448798645757183
-0.003722536867936895,0.008382971530250104
-0.003722366867936895,0.008876674896566124
-0.003722196867936896,0.008580452876775951
-0.003722026867936896,0.008745020665548437
-0.003721856867936896,0.008185490183720966
-0.003721686867936895,0.008613366434532003
-0.003721516867936895,0.00910706980084665
-0.003721346867936895,0.00858045287677631
-0.003721176867936896,0.008942502012075181
-0.003721006867936896,0.008613366434530208
-0.003720836867936896,0.009929908744712493
-0.003720666867936896,0.008119663068215143
-0.003720496867936895,0.008613366434528771
-0.003720326867936895,0.008218403741474265
-0.003720156867936896,0.007527219028629704
-0.003719986867936896,0.007461391913120709
-0.003719816867936896,0.007165169893329695
-0.003719646867936896,0.006572725853748745
