Analysis/New Tests_CMB/wrd01_d2s01_new/cmb12_ch13.csv

#Digilent WaveForms Oscilloscope Acquisition
#Device Name: ADP3450
#Serial Number: SN:210018B9D9B0
#Date Time: 2024-08-14 16:46:15.376.453.750
#Sample rate: 5.88235e+06Hz
#Samples: 32768
#Trigger: Source: Channel 3 Type: Edge Condition: Rising Level: 60 mV Hyst.: Auto HoldOff: 0 s
#Channel 3: Range: 100 mV/div Offset: 0 V Attenuation: 1 X Coupling: DC Bandwidth: 0 Hz Sample Mode: Average

Time (s),Channel 3 (V)
-0.003798540795647739,0.004466258157456012
-0.003798370795647739,0.004334603926437424
-0.003798200795647739,0.004137122579910441
-0.003798030795647739,0.004499171715210569
-0.003797860795647739,0.003840900560119547
-0.003797690795647739,0.003906727675628541
-0.003797520795647739,0.004466258157456012
-0.003797350795647739,0.004334603926437305
-0.003797180795647739,0.004071295464401327
-0.003797010795647739,0.004992875081528926
-0.003796840795647739,0.004071295464401986
-0.003796670795647739,0.004433344599701455
-0.003796500795647739,0.00403838190664677
-0.003796330795647739,0.004104209022155465
-0.003796160795647739,0.003873814117873984
-0.003795990795647739,0.004532085272965126
-0.003795820795647739,0.004729566619491571
-0.003795650795647739,0.004235863253174112
-0.003795480795647739,0.004334603926437783
-0.003795310795647739,0.004499171715209612
-0.003795140795647739,0.003972554791137656
-0.003794970795647739,0.004400431041946898
-0.003794800795647739,0.00413712257991092
-0.003794630795647739,0.003873814117873984
-0.003794460795647739,0.005651146236620068
-0.003794290795647739,0.00420294969542219
-0.003794120795647739,0.004334603926437783
-0.003793950795647739,0.004597912388474241
-0.003793780795647739,0.004433344599701754
-0.003793610795647739,0.004564998830719684
-0.003793440795647739,0.004170036137664999
-0.003793270795647739,0.004367517484191982
-0.003793100795647739,0.003939641233383098
-0.003792930795647739,0.00426877681092867
-0.003792760795647739,0.004038381906647188
-0.003792590795647739,0.004564998830719684
-0.003792420795647739,0.004433344599701455
-0.003792250795647739,0.00449917171521045
-0.003792080795647739,0.004104209022155884
-0.003791910795647739,0.004301690368683227
-0.003791740795647739,0.004170036137665238
-0.003791570795647739,0.004005468348892213
-0.003791400795647739,0.004005468348892213
-0.003791230795647739,0.004466258157455175
-0.003791060795647739,0.004202949695419555
-0.003790890795647739,0.004367517484192341
-0.003790720795647739,0.004071295464401866
-0.003790550795647739,0.00426877681092867
-0.003790380795647739,0.004137122579910441
-0.003790210795647739,0.004235863253174112
-0.003790040795647739,0.00426877681092867
-0.003789870795647739,0.003939641233383098
-0.003789700795647739,0.004104209022155884
-0.003789530795647739,0.00426877681092867
-0.003789360795647739,0.004005468348892213
-0.003789190795647739,0.004005468348892213
-0.003789020795647739,0.004202949695419735
-0.003788850795647739,0.004301690368683227
-0.003788680795647739,0.004005468348892213
-0.003788510795647739,0.003972554791136639
-0.003788340795647739,0.003413024309310185
-0.003788170795647739,0.003939641233383098
-0.003788000795647739,0.003972554791137835
-0.003787830795647739,0.004071295464401327
-0.003787660795647739,0.003840900560119427
-0.003787490795647739,0.003939641233383397
-0.003787320795647739,0.004104209022155884
-0.003787150795647739,0.00426877681092867
-0.003786980795647739,0.00403838190664665
-0.003786810795647739,0.003972554791137656
-0.003786640795647739,0.004301690368683227
-0.003786470795647739,0.004466258157456012
-0.003786300795647739,0.004466258157456012
-0.003786130795647739,0.004795393735001583
-0.003785960795647739,0.004696653061737732
-0.003785790795647739,0.004597912388474241
-0.003785620795647739,0.004564998830719684
-0.003785450795647739,0.004170036137664939
-0.003785280795647739,0.004137122579910441
-0.003785110795647739,0.002754753154219042
-0.003784940795647739,0.006375244507216133
-0.003784770795647739,0.004071295464401327
-0.003784600795647739,0.003939641233383098
-0.003784430795647739,0.004301690368682568
-0.003784260795647739,0.004400431041946898
-0.003784090795647739,0.003972554791137656
-0.003783920795647739,0.004532085272964109
-0.003783750795647739,0.004532085272965126
-0.003783580795647739,0.004170036137664999
-0.003783410795647739,0.00390672767562902
-0.003783240795647739,0.003676332771346642
-0.003783070795647739,0.004170036137664999
-0.003782900795647739,0.004170036137664999
-0.003782730795647739,0.004400431041946898
-0.003782560795647739,0.004532085272965126
-0.003782390795647739,0.00436751748419264
-0.003782220795647739,0.00426877681092867
-0.003782050795647739,0.004334603926437783
-0.003781880795647739,0.004433344599701275
-0.003781710795647739,0.004301690368683227
-0.003781540795647739,0.004400431041946898
-0.003781370795647739,0.003413024309311981
-0.003781200795647739,0.004499171715210569
-0.003781030795647739,0.004202949695419555
-0.003780860795647739,0.004400431041946539
-0.003780690795647739,0.004466258157456012
-0.003780520795647739,0.004104209022155884
-0.003780350795647739,0.004400431041946359
-0.003780180795647739,0.003873814117873984
-0.003780010795647739,0.003972554791137656
-0.003779840795647739,0.00403838190664677
-0.003779670795647739,0.004597912388474241
-0.003779500795647739,0.00403838190664677
-0.003779330795647739,0.004696653061737912
-0.003779160795647739,0.004433344599701455
-0.003778990795647739,0.004104209022155884
-0.003778820795647739,0.004202949695419555
-0.003778650795647739,0.004466258157456012
-0.003778480795647739,0.004466258157456012
-0.003778310795647739,0.004696653061737912
-0.003778140795647739,0.004663739503982996
-0.003777970795647739,0.004466258157456012
-0.003777800795647739,0.004071295464401327
-0.003777630795647739,0.00426877681092855
-0.003777460795647739,0.004202949695419555
-0.003777290795647739,0.00403838190664677
-0.003777120795647739,0.004235863253173873
-0.003776950795647739,0.004104209022155884
-0.003776780795647739,0.00426877681092867
-0.003776610795647739,0.003972554791138673
-0.003776440795647739,0.004532085272965126
-0.003776270795647739,0.003709246329101199
-0.003776100795647739,0.003840900560119667
-0.003775930795647739,0.003972554791137656
-0.003775760795647739,0.004367517484192341
-0.003775590795647739,0.002359790461167949
-0.003775420795647739,0.004334603926437783
-0.003775250795647739,0.004202949695419555
-0.003775080795647739,0.004235863253174531
-0.003774910795647739,0.004466258157456012
-0.003774740795647739,0.004367517484192341
-0.003774570795647739,0.004630825946228139
-0.003774400795647739,0.00426877681092867
-0.003774230795647739,0.004235863253174112
-0.003774060795647739,0.00436751748419264
-0.003773890795647739,0.004532085272965126
-0.003773720795647739,0.003906727675628541
-0.003773550795647739,0.004104209022155525
-0.003773380795647739,0.004466258157456012
-0.003773210795647739,0.003939641233383098
-0.003773040795647739,0.003939641233383098
-0.003772870795647739,0.003709246329101199
-0.003772700795647739,0.004235863253174112
-0.003772530795647739,0.004005468348892632
-0.003772360795647739,0.004005468348892213
-0.003772190795647739,0.004005468348892213
-0.003772020795647739,0.004202949695419196
-0.003771850795647739,0.003840900560119427
-0.003771680795647739,0.004235863253174112
-0.003771510795647739,0.004499171715210091
-0.003771340795647739,0.004301690368683227
-0.003771170795647739,0.004499171715210569
-0.003771000795647739,0.003807987002366127
-0.003770830795647739,0.004532085272965126
-0.003770660795647739,0.00426877681092867
-0.003770490795647739,0.004202949695419675
-0.003770320795647739,0.004400431041946898
-0.003770150795647739,0.004466258157456012
-0.003769980795647739,0.004170036137665537
-0.003769810795647739,0.004400431041946898
-0.003769640795647739,0.004170036137664999
-0.003769470795647739,0.004532085272965126
-0.003769300795647739,0.004433344599701455
-0.003769130795647739,0.004137122579910441
-0.003768960795647739,0.004202949695419555
-0.003768790795647739,0.003906727675628541
-0.003768620795647739,0.004301690368683227
-0.003768450795647739,0.004202949695419555
-0.003768280795647739,0.004170036137664999
-0.003768110795647739,0.004433344599701455
-0.003767940795647739,0.004367517484192341
-0.003767770795647739,0.004433344599700197
-0.003767600795647739,0.003742159886855756
-0.003767430795647739,0.004202949695419555
-0.003767260795647739,0.004038381906647069
-0.003767090795647739,0.004202949695419555
-0.003766920795647739,0.003939641233383098
-0.003766750795647739,0.004038381906646889
-0.003766580795647739,0.004104209022155884
-0.003766410795647739,0.004071295464401327
-0.003766240795647739,0.003314283636051124
-0.003766070795647739,0.005848627583147411
-0.003765900795647739,0.004235863253174112
-0.003765730795647739,0.004630825946228019
-0.003765560795647739,0.004202949695419555
-0.003765390795647739,0.004532085272965126
-0.003765220795647739,0.004268776810928371
-0.003765050795647739,0.004104209022155884
-0.003764880795647739,0.003939641233383098
-0.003764710795647739,0.004202949695420453
-0.003764540795647739,0.004696653061737912
-0.003764370795647739,0.006013195371920196
-0.003764200795647739,0.003742159886856953
-0.003764030795647739,0.004400431041946898
-0.003763860795647739,0.003873814117873984
-0.003763690795647739,0.004235863253174112
-0.003763520795647739,0.004235863253174112
-0.003763350795647739,0.004235863253174112
-0.003763180795647739,0.004564998830719085
-0.003763010795647739,0.004235863253174112
-0.003762840795647739,0.003906727675628541
-0.003762670795647739,0.003939641233383038
-0.003762500795647739,0.004202949695419555
-0.003762330795647739,0.00403838190664677
-0.003762160795647739,0.004104209022155764
-0.003761990795647739,0.00426877681092867
-0.003761820795647739,0.004466258157456012
-0.003761650795647739,0.004301690368683526
-0.003761480795647739,0.004334603926437783
-0.003761310795647739,0.004367517484192341
-0.003761140795647739,0.004630825946228319
-0.003760970795647739,0.004663739503983355
-0.003760800795647739,0.004137122579910441
-0.003760630795647739,0.004597912388473403
-0.003760460795647739,0.004466258157456012
-0.003760290795647739,0.004301690368683227
-0.003760120795647739,0.004235863253174232
-0.003759950795647739,0.004334603926437783
-0.003759780795647739,0.003972554791137656
-0.003759610795647739,0.003939641233383158
-0.003759440795647739,0.004071295464401327
-0.003759270795647739,0.004104209022155884
-0.003759100795647739,0.004466258157455354
-0.003758930795647739,0.004466258157456012
-0.003758760795647739,0.004433344599701455
-0.003758590795647739,0.004137122579910441
-0.003758420795647739,0.004170036137664999
-0.003758250795647739,0.004137122579910441
-0.003758080795647739,0.003939641233383098
-0.003757910795647739,0.003775073444610313
-0.003757740795647739,0.003939641233383098
-0.003757570795647739,0.003972554791137656
-0.003757400795647739,0.004071295464401088
-0.003757230795647739,0.003939641233383098
-0.003757060795647739,0.004071295464401327
-0.003756890795647739,0.004367517484189348
-0.003756720795647739,0.002721839596464486
-0.003756550795647739,0.004564998830719684
-0.003756380795647739,0.004367517484191264
-0.003756210795647739,0.003775073444610313
-0.003756040795647739,0.004235863253174112
-0.003755870795647739,0.004334603926439101
-0.003755700795647739,0.00505870219703804
-0.003755530795647739,0.004663739503983355
-0.003755360795647739,0.00463082594622766
-0.003755190795647739,0.004005468348892213
-0.003755020795647739,0.00482830729275614
-0.003754850795647739,0.003972554791137536
-0.003754680795647739,0.003906727675628541
-0.003754510795647739,0.003742159886855756
-0.003754340795647739,0.003742159886856894
-0.003754170795647739,0.004367517484192341
-0.003754000795647739,0.004235863253174112
-0.003753830795647739,0.004301690368683346
-0.003753660795647739,0.004367517484192341
-0.003753490795647739,0.004466258157456012
-0.003753320795647739,0.00426877681092879
-0.003753150795647739,0.004334603926437783
-0.003752980795647739,0.004071295464401327
-0.003752810795647739,0.004301690368682808
-0.003752640795647739,0.004202949695419555
-0.003752470795647739,0.004334603926437783
-0.003752300795647739,0.004104209022156303
-0.003752130795647739,0.004400431041946898
-0.003751960795647739,0.004202949695419555
-0.003751790795647739,0.004104209022156064
-0.003751620795647739,0.004005468348892213
-0.003751450795647739,0.003742159886855756
-0.003751280795647739,0.004038381906646231
-0.003751110795647739,0.004301690368683227
-0.003750940795647739,0.003972554791137656
-0.003750770795647739,0.003840900560119667
-0.003750600795647739,0.003873814117873984
-0.003750430795647739,0.00426877681092867
-0.003750260795647739,0.004235863253174172
-0.003750090795647739,0.004071295464401327
-0.003749920795647739,0.003939641233383098
-0.003749750795647739,0.004104209022155585
-0.003749580795647739,0.004301690368683227
-0.003749410795647739,0.004532085272965126
-0.003749240795647739,0.004762480177246608
-0.003749070795647739,0.004597912388474241
-0.003748900795647739,0.004400431041946898
-0.003748730795647739,0.004005468348892931
-0.003748560795647739,0.004235863253174112
-0.003748390795647739,0.003939641233383098
-0.003748220795647739,0.004005468348892213
-0.003748050795647739,0.004104209022155884
-0.003747880795647739,0.003873814117873984
-0.003747710795647739,0.004170036137664999
-0.003747540795647739,0.003972554791137656
-0.003747370795647739,0.003643419213592085
-0.003747200795647739,0.003906727675628541
-0.003747030795647739,0.002458531134428029
-0.003746860795647739,0.004202949695419555
-0.003746690795647739,0.003972554791137656
-0.003746520795647739,0.004202949695420154
-0.003746350795647739,0.004532085272965126
-0.003746180795647739,0.00426877681092867
-0.003746010795647739,0.004071295464402585
-0.003745840795647739,0.004762480177247026
-0.003745670795647739,0.004663739503983355
-0.003745500795647739,0.004071295464401806
-0.003745330795647739,0.004334603926437783
-0.003745160795647739,0.003413024309310185
-0.003744990795647739,0.004630825946228259
-0.003744820795647739,0.004334603926437783
-0.003744650795647739,0.004400431041946898
-0.003744480795647739,0.004202949695419675
-0.003744310795647739,0.00426877681092867
-0.003744140795647739,0.004663739503983355
-0.003743970795647739,0.004202949695419675
-0.003743800795647739,0.00426877681092867
-0.003743630795647739,0.004729566619492469
-0.003743460795647739,0.004433344599701215
-0.003743290795647739,0.004301690368683227
-0.003743120795647739,0.004334603926437783
-0.003742950795647739,0.003939641233383876
-0.003742780795647739,0.004367517484192341
-0.003742610795647739,0.004202949695419555
-0.003742440795647739,0.004202949695419795
-0.003742270795647739,0.004334603926437783
-0.003742100795647739,0.004137122579910441
-0.003741930795647739,0.003840900560119966
-0.003741760795647739,0.004137122579910441
-0.003741590795647739,0.003972554791137656
-0.003741420795647739,0.004005468348892153
-0.003741250795647739,0.004202949695419555
-0.003741080795647739,0.004170036137664999
-0.003740910795647739,0.004466258157455474
-0.003740740795647739,0.004729566619492469
-0.003740570795647739,0.005157442870301712
-0.003740400795647739,0.004894134408265733
-0.003740230795647739,0.004762480177247026
-0.003740060795647739,0.004597912388474241
-0.003739890795647739,0.004433344599701754
-0.003739720795647739,0.004564998830719684
-0.003739550795647739,0.004235863253174112
-0.003739380795647739,0.004400431041946599
-0.003739210795647739,0.004235863253174112
-0.003739040795647739,0.004301690368683227
-0.003738870795647739,0.004334603926437724
-0.003738700795647739,0.004630825946228797
-0.003738530795647739,0.003939641233383098
-0.003738360795647739,0.004334603926437065
-0.003738190795647739,0.004137122579910441
-0.003738020795647739,0.004202949695419555
-0.003737850795647739,0.0060461089296714
-0.003737680795647739,0.003116802289519171
-0.003737510795647739,0.003939641233383098
-0.003737340795647739,0.004071295464401327
-0.003737170795647739,0.00403838190664677
-0.003737000795647739,0.004137122579910441
-0.003736830795647739,0.004170036137664999
-0.003736660795647739,0.003775073444610313
-0.003736490795647739,0.004104209022155884
-0.003736320795647739,0.00403838190664677
-0.003736150795647739,0.004038381906647847
-0.003735980795647739,0.004630825946228797
-0.003735810795647739,0.004202949695419555
-0.003735640795647739,0.004466258157455294
-0.003735470795647739,0.004071295464401327
-0.003735300795647739,0.003709246329101199
-0.003735130795647739,0.003939641233383098
-0.003734960795647739,0.003939641233383098
-0.003734790795647739,0.004202949695419555
-0.003734620795647739,0.004367517484192341
-0.003734450795647739,0.004367517484192341
-0.003734280795647739,0.004466258157456012
-0.003734110795647739,0.004202949695419974
-0.003733940795647739,0.004433344599701455
-0.003733770795647739,0.004235863253174112
-0.003733600795647739,0.004202949695420274
-0.003733430795647739,0.004597912388474241
-0.003733260795647739,0.004367517484192341
-0.003733090795647739,0.004334603926438262
-0.003732920795647739,0.004597912388474241
-0.003732750795647739,0.004499171715210569
-0.003732580795647739,0.00413712257991098
-0.003732410795647739,0.004433344599701455
-0.003732240795647739,0.004367517484192341
-0.003732070795647739,0.004499171715209731
-0.003731900795647739,0.00403838190664677
-0.003731730795647739,0.003840900560119427
-0.003731560795647739,0.003709246329101438
-0.003731390795647739,0.003873814117873984
-0.003731220795647739,0.003643419213592085
-0.003731050795647739,0.004170036137664041
-0.003730880795647739,0.004334603926437783
-0.003730710795647739,0.004334603926437783
-0.003730540795647739,0.004038381906647308
-0.003730370795647739,0.004170036137664999
-0.003730200795647739,0.003939641233383098
-0.003730030795647739,0.003873814117874104
-0.003729860795647739,0.004071295464401327
-0.003729690795647739,0.003972554791137656
-0.003729520795647739,0.004433344599700617
-0.003729350795647739,0.004334603926437783
-0.003729180795647739,0.004137122579910441
-0.003729010795647739,0.003972554791137955
-0.003728840795647739,0.004499171715210569
-0.003728670795647739,0.00426877681092867
-0.003728500795647739,0.00426877681092867
-0.003728330795647739,0.004202949695419555
-0.003728160795647739,0.004729566619492469
-0.003727990795647739,0.004466258157456491
-0.003727820795647739,0.003709246329101199
-0.003727650795647739,0.004564998830719684
-0.003727480795647739,0.004301690368683705
-0.003727310795647739,0.004235863253174112
-0.003727140795647739,0.004235863253174112
-0.003726970795647739,0.004499171715210569
-0.003726800795647739,0.004663739503983355
-0.003726630795647739,0.00482830729275614
-0.003726460795647739,0.00505870219703804
-0.003726290795647739,0.004696653061737912
-0.003726120795647739,0.004137122579910441
-0.003725950795647739,0.004104209022155884
-0.003725780795647739,0.004170036137664999
-0.003725610795647739,0.003972554791137656
-0.003725440795647739,0.00380798700236487
-0.003725270795647739,0.004202949695419675
-0.003725100795647739,0.00426877681092867
-0.003724930795647739,0.004202949695419555
-0.003724760795647739,0.004071295464400789
-0.003724590795647739,0.003775073444610313
-0.003724420795647739,0.004202949695419555
-0.003724250795647739,0.004433344599701694
-0.003724080795647739,0.004564998830719684
-0.003723910795647739,0.004597912388474241
-0.003723740795647739,0.00449917171521045
-0.003723570795647739,0.004433344599701455
-0.003723400795647739,0.004235863253174112
-0.003723230795647739,0.003972554791137656
-0.003723060795647739,0.003972554791137656
-0.003722890795647739,0.003478851424819299
-0.003722720795647739,0.003840900560119906
-0.003722550795647739,0.004104209022155884
-0.003722380795647739,0.004071295464401327
-0.003722210795647739,0.004235863253174352
-0.003722040795647739,0.004367517484192341
-0.003721870795647739,0.00403838190664677
-0.003721700795647739,0.00305097517401311
-0.003721530795647739,0.004729566619492469
-0.003721360795647739,0.004466258157456012
-0.003721190795647739,0.004696653061737493
