Analysis/New Tests_CMB/wrd01_d2s01_new/cmb10_ch05.csv

#Digilent WaveForms Oscilloscope Acquisition
#Device Name: ADP3450
#Serial Number: SN:210018B9D9B0
#Date Time: 2024-08-14 17:01:35.667.179.050
#Sample rate: 5.88235e+06Hz
#Samples: 32768
#Trigger: Source: Channel 3 Type: Edge Condition: Rising Level: 60 mV Hyst.: Auto HoldOff: 0 s
#Channel 3: Range: 100 mV/div Offset: 0 V Attenuation: 1 X Coupling: DC Bandwidth: 0 Hz Sample Mode: Average

Time (s),Channel 3 (V)
-0.003798464097973321,0.2141256210539848
-0.00379829409797332,0.2276530932911273
-0.00379812409797332,0.2383829131190934
-0.003797954097973321,0.2477961906368967
-0.00379778409797332,0.2553663089204551
-0.00379761409797332,0.2610274408542286
-0.003797444097973321,0.2650758084580392
-0.00379727409797332,0.266787313461279
-0.00379710409797332,0.2683342506757403
-0.003796934097973321,0.2701115827944864
-0.00379676409797332,0.269552052312658
-0.00379659409797332,0.269025435388586
-0.00379642409797332,0.2674126710586127
-0.00379625409797332,0.2649441542270144
-0.00379608409797332,0.2613565764317742
-0.00379591409797332,0.2569461596926636
-0.00379574409797332,0.2523053480492647
-0.00379557409797332,0.2488494244850425
-0.00379540409797332,0.2454922415940777
-0.00379523409797332,0.2420034044720879
-0.00379506409797332,0.2383170860035843
-0.00379489409797332,0.2339724963799827
-0.003794724097973321,0.2295291660831256
-0.00379455409797332,0.2242629968423884
-0.00379438409797332,0.2220907020305876
-0.003794214097973321,0.2176473717337305
-0.00379404409797332,0.214257275285003
-0.00379387409797332,0.2103734754699653
-0.003793704097973321,0.20777330440736
-0.00379353409797332,0.2053047875757635
-0.00379336409797332,0.2033628876682446
-0.003793194097973321,0.2001373590083039
-0.00379302409797332,0.19552946092266
-0.00379285409797332,0.1911848712990585
-0.003792684097973321,0.1870706765797463
-0.00379251409797332,0.1837464072465286
-0.00379234409797332,0.1803233972400546
-0.003792174097973321,0.1776244855041859
-0.00379200409797332,0.174201475497707
-0.00379183409797332,0.1708442926067422
-0.003791664097973321,0.1673554554847655
-0.00379149409797332,0.1634058285542123
-0.00379132409797332,0.160081559221002
-0.003791154097973321,0.1565927220990253
-0.00379098409797332,0.1531038849770359
-0.00379081409797332,0.1505366274721804
-0.003790644097973321,0.1481010241983477
-0.00379047409797332,0.1455008531357332
-0.00379030409797332,0.1426044600533322
-0.003790134097973321,0.1382598704297306
-0.00378996409797332,0.1347052061922385
-0.00378979409797332,0.1313151097435191
-0.003789624097973321,0.1292744691627365
-0.00378945409797332,0.1274642234862359
-0.00378928409797332,0.125522323578717
-0.003789114097973321,0.1241728677107802
-0.00378894409797332,0.1226259304963119
-0.00378877409797332,0.1203548950112516
-0.003788604097973321,0.1192358340475966
-0.00378843409797332,0.1172939341400761
-0.00378826409797332,0.1163723545229502
-0.003788094097973321,0.1146937630774678
-0.00378792409797332,0.1138380105758473
-0.00378775409797332,0.1127518631699489
-0.003787584097973321,0.1114353208597666
-0.00378741409797332,0.1098883836452997
-0.00378724409797332,0.1083743599885928
-0.003787074097973321,0.1067615956586195
-0.00378690409797332,0.1046551279623244
-0.00378673409797332,0.1027790551703181
-0.003786564097973321,0.1002447112232172
-0.00378639409797332,0.09817115708467604
-0.00378622409797332,0.0959330351573702
-0.00378605409797332,0.09415570303862414
-0.00378588409797332,0.09247711159313883
-0.00378571409797332,0.09089726082092298
-0.00378554409797332,0.08882370668238587
-0.00378537409797332,0.0872109423524072
-0.00378520409797332,0.08424872215450244
-0.00378503409797332,0.08474242552082079
-0.00378486409797332,0.08299800695982776
-0.00378469409797332,0.08217516801596533
-0.00378452409797332,0.08105610705231039
-0.003784354097973321,0.08010161387742999
-0.00378418409797332,0.07871924445173684
-0.00378401409797332,0.07681025810197253
-0.003783844097973321,0.07562537002281063
-0.00378367409797332,0.07424300059711708
-0.00378350409797332,0.07302519896019846
-0.003783334097973321,0.07177448376552759
-0.00378316409797332,0.07026046010881568
-0.00378299409797332,0.06845021443231503
-0.003782824097973321,0.06713367212213515
-0.00378265409797332,0.06598169760072325
-0.00378248409797332,0.06486263663706832
-0.003782314097973321,0.06318404519158893
-0.00378214409797332,0.06199915711242183
-0.00378197409797332,0.05992560297388474
-0.003781804097973321,0.05778622171984242
-0.00378163409797332,0.05577849469681054
-0.00378146409797332,0.0553506184460013
-0.003781294097973321,0.05584432181231876
-0.00378112409797332,0.0553506184460013
-0.00378095409797332,0.05400116257806446
-0.003780784097973321,0.05288210161441155
-0.00378061409797332,0.05238839824809116
-0.00378044409797332,0.05133516439994534
-0.003780274097973321,0.04995279497425645
-0.00378010409797332,0.04903121535712634
-0.00377993409797332,0.0483729442020352
-0.003779764097973321,0.04778050016245317
-0.00377959409797332,0.04830711708652608
-0.00377942409797332,0.04909704247263545
-0.003779254097973321,0.04807672218224418
-0.00377908409797332,0.04794506795122595
-0.00377891409797332,0.04758301881592582
-0.003778744097973321,0.04715514256511658
-0.00377857409797332,0.04659561208328911
-0.00377840409797332,0.04682600698757101
-0.003778234097973321,0.04656269852553455
-0.00377806409797332,0.04652978496777772
-0.00377789409797332,0.04527906977310683
-0.003777724097973321,0.04416000880945188
-0.00377755409797332,0.04320551563456937
-0.00377738409797332,0.04300803428804238
-0.003777214097973321,0.04211936822866934
-0.00377704409797332,0.04090156659175085
-0.00377687409797332,0.04096739370725985
-0.003776704097973321,0.04017746832115048
-0.00377653409797332,0.04004581409013231
-0.00377636409797332,0.0400787276478868
-0.003776194097973321,0.03955211072381389
-0.00377602409797332,0.03925588870402084
-0.00377585409797332,0.03813682774036793
-0.003775684097973321,0.03774186504731325
-0.00377551409797332,0.0371494210077302
-0.00377534409797332,0.03658989052590375
-0.00377517409797332,0.03619492783284906
-0.00377500409797332,0.03553665667775672
-0.00377483409797332,0.03487838552266678
-0.00377466409797332,0.03352892965472994
-0.00377449409797332,0.03260735003760001
-0.00377432409797332,0.03132372128517461
-0.00377415409797332,0.03083001791885626
-0.00377398409797332,0.02977678407070845
-0.00377381409797332,0.02869063666481004
-0.00377364409797332,0.02740700791238232
-0.003773474097973321,0.02658416896851988
-0.00377330409797332,0.02566258935139079
-0.00377313409797332,0.02513597242731788
-0.003772964097973321,0.02408273857917396
-0.00377279409797332,0.02368777588611736
-0.00377262409797332,0.02339155386632635
-0.003772454097973321,0.0227991098267454
-0.00377228409797332,0.02256871492246242
-0.00377211409797332,0.02253580136470787
-0.003771944097973321,0.02289785050000733
-0.00377177409797332,0.02319407251979901
-0.00377160409797332,0.02270036915348065
-0.003771434097973321,0.02217375222940869
-0.00377126409797332,0.02210792511389862
-0.00377109409797332,0.02309533184653534
-0.003770924097973321,0.02507014531180517
-0.00377075409797332,0.02497140463854509
-0.00377058409797332,0.02497140463854509
-0.003770414097973321,0.02404982502141917
-0.00377024409797332,0.02391817079039926
-0.00377007409797332,0.02325989963530812
-0.003769904097973321,0.02246997424920018
-0.00376973409797332,0.02148256751656204
-0.00376956409797332,0.0203635065529071
-0.003769394097973321,0.02026476587964342
-0.00376922409797332,0.02049516078392532
-0.00376905409797332,0.02056098789943444
-0.003768884097973321,0.02056098789943444
-0.00376871409797332,0.02085720991922545
-0.00376854409797332,0.01993563030209785
-0.003768374097973321,0.0194419269357795
-0.00376820409797332,0.01871782866517924
-0.00376803409797332,0.01855326087640645
-0.003767864097973321,0.01881656933844291
-0.00376769409797332,0.0189153100117061
-0.00376752409797332,0.01865200154967013
-0.003767354097973321,0.01822412529886088
-0.00376718409797332,0.01516316442769
-0.00376701409797332,0.01677592875766037
-0.003766844097973321,0.01605183048706011
-0.00376667409797332,0.01568978135175933
-0.00376650409797332,0.01532773221645986
-0.003766334097973321,0.0134516594244501
-0.00376616409797332,0.0160518304870582
-0.00376599409797332,0.01499859663891429
-0.003765824097973321,0.0155252135629872
-0.00376565409797332,0.01532773221645932
-0.00376548409797332,0.01503151019666884
-0.003765314097973321,0.01516316442768707
-0.00376514409797332,0.01539355933196891
-0.00376497409797332,0.01536064577421441
-0.00376480409797332,0.01578852202502366
-0.00376463409797332,0.01585434914053235
-0.00376446409797332,0.01562395423625087
-0.00376429409797332,0.01562395423625087
-0.00376412409797332,0.01526190510095062
-0.00376395409797332,0.01519607798544163
-0.00376378409797332,0.0185203473186519
-0.00376361409797332,0.01736837279723821
-0.00376344409797332,0.0150644237544234
-0.00376327409797332,0.01592017625604189
-0.003763104097973321,0.01526190510095194
-0.00376293409797332,0.01532773221645986
-0.00376276409797332,0.0155252135629872
-0.003762594097973321,0.01605183048705916
-0.00376242409797332,0.01654553385337847
-0.00376225409797332,0.01657844741113303
-0.003762084097973321,0.01611765760257007
-0.00376191409797332,0.01555812712074176
-0.00376174409797332,0.01526190510095074
-0.003761574097973321,0.01414284413729784
-0.00376140409797332,0.01394536279076846
-0.00376123409797332,0.01236551201854972
-0.003761064097973321,0.01213511711426824
-0.00376089409797332,0.0122996849030406
-0.00376072409797332,0.01141101884366756
-0.003760554097973321,0.0109173154773501
-0.00376038409797332,0.01071983413082186
-0.00376021409797332,0.009600773167166921
-0.003760044097973321,0.009074156243094964
-0.00375987409797332,0.007922181721684508
-0.00375970409797332,0.006441071622729439
-0.003759534097973321,0.006144849602938963
-0.00375936409797332,0.005716973352129182
-0.00375919409797332,0.006934774989047795
-0.003759024097973321,0.007198083451083774
-0.00375885409797332,0.008152576625966409
-0.00375868409797332,0.00811966306821185
-0.003758514097973321,0.008317144414739193
-0.00375834409797332,0.008777934223302994
-0.00375817409797332,0.009567859609412364
-0.003758004097973321,0.009765340955939707
-0.00375783409797332,0.01048943922653996
-0.00375766409797332,0.01118062393938566
-0.003757494097973321,0.01203637644100415
-0.00375732409797332,0.01236551201855086
-0.00375715409797332,0.0129908696158863
-0.003756984097973321,0.01312252384690453
-0.00375681409797332,0.01387953567525928
-0.00375664409797332,0.01384662211750479
-0.003756474097973321,0.01387953567525935
-0.00375630409797332,0.01404410346403099
-0.00375613409797332,0.01341874586669555
-0.003755964097973321,0.01272756115384985
-0.00375579409797332,0.01187180865223076
-0.00375562409797332,0.01154267307468579
-0.003755454097973321,0.01062109345755819
-0.00375528409797332,0.010259044322258
-0.00375511409797332,0.01022613076450351
-0.003754944097973321,0.00950203249390325
-0.00375477409797332,0.009008329127583994
-0.00375460409797332,0.008514625761266537
-0.00375443409797332,0.007625959701893495
-0.00375426409797332,0.006375244507220025
-0.00375409409797332,0.006210676718447538
-0.00375392409797332,0.005881541140901968
-0.00375375409797332,0.005585319121110774
-0.00375358409797332,0.005486578447847282
-0.00375341409797332,0.005848627583147411
-0.00375324409797332,0.006309417391711808
-0.00375307409797332,0.006638552969256781
-0.00375290409797332,0.006375244507220324
-0.003752734097973321,0.007066429220064766
-0.00375256409797332,0.006934774989047795
-0.00375239409797332,0.007362651239857037
-0.003752224097973321,0.007757613932911005
-0.00375205409797332,0.008547539319021094
-0.00375188409797332,0.009436205378394135
-0.003751714097973321,0.009995735860220588
-0.00375154409797332,0.01022613076450351
-0.00375137409797332,0.01019321720674895
-0.003751204097973321,0.009469118936150009
-0.00375103409797332,0.009699513840430593
-0.00375086409797332,0.01095022903510376
-0.003750694097973321,0.0105552663420498
-0.00375052409797332,0.01134519172815845
-0.00375035409797332,0.01141101884366756
-0.003750184097973321,0.01154267307468555
-0.00375001409797332,0.01147684595917668
-0.00374984409797332,0.01121353749714022
-0.003749674097973321,0.01042361211103228
-0.00374950409797332,0.009600773167166921
-0.00374933409797332,0.009567859609412364
-0.003749164097973321,0.009633686724921358
-0.00374899409797332,0.009995735860221606
-0.00374882409797332,0.01045652566878541
-0.003748654097973321,0.009962822302467948
-0.00374848409797332,0.009600773167166921
-0.00374831409797332,0.009271637589621349
-0.003748144097973321,0.00871210710779388
-0.00374797409797332,0.00802092239494818
-0.00374780409797332,0.007757613932911723
-0.003747634097973321,0.008448798645757422
-0.00374746409797332,0.009172896916357679
-0.00374729409797332,0.009534946051657807
-0.003747124097973321,0.009074156243094007
-0.00374695409797332,0.009205810474112236
-0.00374678409797332,0.008481712203511979
-0.003746614097973321,0.008185490183720966
-0.00374644409797332,0.008152576625964733
-0.00374627409797332,0.007230997008838809
-0.003746104097973321,0.007263910566593366
-0.00374593409797332,0.007527219028630422
-0.00374576409797332,0.007856354606175394
-0.003745594097973321,0.00811966306821185
-0.00374542409797332,0.007790527490666161
-0.00374525409797332,0.007724700375157166
-0.003745084097973321,0.007033515662311467
-0.00374491409797332,0.006046108929674155
-0.00374474409797332,0.005716973352129182
-0.003744574097973321,0.005157442870301712
-0.00374440409797332,0.004828307292756619
-0.00374423409797332,0.005091615754792597
-0.003744064097973321,0.003972554791137656
-0.00374389409797332,0.00397255479113586
-0.00374372409797332,0.002985148058500942
-0.00374355409797332,0.002030654883618786
-0.00374338409797332,0.002261049787900387
-0.00374321409797332,0.002096481999127901
-0.00374304409797332,0.002590185365446257
-0.00374287409797332,0.003018061616257835
-0.00374270409797332,0.004301690368683227
-0.00374253409797332,0.004137122579910441
-0.00374236409797332,0.00525618354356682
-0.00374219409797332,0.006046108929674754
-0.00374202409797332,0.006375244507220324
-0.003741854097973321,0.007000602104555772
-0.00374168409797332,0.007527219028629823
-0.00374151409797332,0.008284230856984636
-0.003741344097973321,0.008876674896565587
-0.00374117409797332,0.00950203249390325
-0.00374100409797332,0.01068692057306731
-0.003740834097973321,0.0119376357677382
-0.00374066409797332,0.0125300798073225
-0.00374049409797332,0.01197054932549503
-0.003740324097973321,0.01104896970836911
-0.00374015409797332,0.01002864941797616
-0.00373998409797332,0.00973242739818515
-0.003739814097973321,0.009436205378394675
-0.00373964409797332,0.009633686724921478
-0.00373947409797332,0.00973242739818515
-0.003739304097973321,0.008745020665550232
-0.00373913409797332,0.00756013258638438
-0.00373896409797332,0.006803120758029567
-0.003738794097973321,0.006079022487430627
-0.00373862409797332,0.005716973352129182
-0.00373845409797332,0.005552405563356397
-0.003738284097973321,0.005947368256410364
-0.00373811409797332,0.006111936045183867
-0.00373794409797332,0.006803120758029567
-0.003737774097973321,0.007263910566592528
-0.00373760409797332,0.008350057972493751
-0.00373743409797332,0.008152576625966409
-0.003737264097973321,0.008185490183720966
-0.00373709409797332,0.008382971530248308
-0.00373692409797332,0.009074156243094007
-0.003736754097973321,0.009567859609412364
-0.00373658409797332,0.00983116807144882
-0.00373641409797332,0.01075274768857642
-0.003736244097973321,0.01088440191959465
-0.00373607409797332,0.01085148836183877
-0.00373590409797332,0.01012739009123984
-0.003735734097973321,0.01052235278429452
-0.00373556409797332,0.01012739009123965
-0.00373539409797332,0.01002864941797616
-0.003735224097973321,0.009534946051657807
-0.00373505409797332,0.009567859609413202
-0.00373488409797332,0.01002864941797616
-0.003734714097973321,0.01012739009123984
-0.00373454409797332,0.009041242685338492
-0.00373437409797332,0.008514625761266537
-0.003734204097973321,0.008251317299230079
-0.00373403409797332,0.006210676718448856
-0.00373386409797332,0.006934774989047795
-0.003733694097973321,0.007329737682102481
-0.00373352409797332,0.006408158064974224
-0.00373335409797332,0.006046108929674754
-0.00373318409797332,0.005651146236620068
-0.00373301409797332,0.00528909710132006
-0.00373284409797332,0.005354924216829054
-0.00373267409797332,0.005486578447847282
-0.00373250409797332,0.005091615754791759
-0.00373233409797332,0.004630825946228797
-0.00373216409797332,0.004532085272965126
-0.00373199409797332,0.005354924216830312
-0.00373182409797332,0.006046108929674754
-0.00373165409797332,0.006901861431293239
-0.003731484097973321,0.006836034315784244
-0.00373131409797332,0.006408158064974882
-0.00373114409797332,0.005980281814165639
-0.003730974097973321,0.005815714025393152
-0.00373080409797332,0.005782800467638296
-0.00373063409797332,0.006046108929674754
-0.003730464097973321,0.005782800467638775
-0.00373029409797332,0.005651146236620068
-0.00373012409797332,0.005420751332338168
-0.003729954097973321,0.005124529312547693
-0.00372978409797332,0.004466258157456012
-0.00372961409797332,0.004235863253174112
-0.003729444097973321,0.004071295464401626
-0.00372927409797332,0.003939641233383098
-0.00372910409797332,0.00426877681092867
-0.003728934097973321,0.004894134408264117
-0.00372876409797332,0.005453664890092726
-0.00372859409797332,0.004696653061737912
-0.003728424097973321,0.00746139191311568
-0.00372825409797332,0.007658873259648051
-0.00372808409797332,0.008448798645757422
-0.003727914097973321,0.008942502012074881
-0.00372774409797332,0.009436205378394135
-0.00372757409797332,0.009633686724921478
-0.003727404097973321,0.01065400701531089
-0.00372723409797332,0.01104896970836743
-0.00372706409797332,0.0116085001901949
-0.003726894097973321,0.01167432730570402
-0.00372672409797332,0.01157558663244035
-0.00372655409797332,0.01121353749714022
-0.003726384097973321,0.01085148836184009
-0.00372621409797332,0.01065400701531275
-0.00372604409797332,0.01085148836184009
-0.003725874097973321,0.009929908744712493
-0.00372570409797332,0.01104896970836743
-0.00372553409797332,0.01019321720674895
-0.003725364097973321,0.01009447653348528
-0.00372519409797332,0.01062109345755717
-0.00372502409797332,0.01006156297573072
-0.003724854097973321,0.01048943922653996
-0.00372468409797332,0.01019321720674949
-0.00372451409797332,0.01048943922653996
-0.003724344097973321,0.01006156297573072
-0.00372417409797332,0.009929908744711296
-0.00372400409797332,0.009271637589621349
-0.003723834097973321,0.00973242739818515
-0.00372366409797332,0.01055526634204854
-0.00372349409797332,0.01025904432225806
-0.003723324097973321,0.009864081629203377
-0.00372315409797332,0.009041242685339989
-0.00372298409797332,0.009337464705130465
-0.00372281409797332,0.008448798645757422
-0.00372264409797332,0.007691786817398957
-0.00372247409797332,0.005684059794374625
-0.00372230409797332,0.003511764982573856
-0.00372213409797332,0.003478851424819179
-0.00372196409797332,0.003413024309310185
-0.00372179409797332,0.003083888731764614
-0.00372162409797332,0.003182629405026848
-0.00372145409797332,0.002392704018918914
-0.00372128409797332,0.001997741325864229
-0.00372111409797332,0.00153695151730019
-0.00372094409797332,0.001405297286282201
-0.00372077409797332,0.001438210844036758
-0.003720604097973321,0.00117490238200078
-0.00372043409797332,0.001635692190564101
-0.00372026409797332,0.0023268769034098
-0.003720094097973321,0.003083888731763237
-0.00371992409797332,0.003610505655837527
-0.00371975409797332,0.004334603926437783
-0.003719584097973321,0.004959961523773232
-0.00371941409797332,0.005223269985810825
-0.00371924409797332,0.005651146236620068
-0.003719074097973321,0.01101605615060312
-0.00371890409797332,0.008053835952702737
-0.00371873409797332,0.00677020720027501
-0.003718564097973321,0.007560132586382943
-0.00371839409797332,0.006934774989047795
-0.00371822409797332,0.007230997008838809
