Analysis/New Tests_CMB/wrd01_d2s01_new/cmb12_ch27.csv

#Digilent WaveForms Oscilloscope Acquisition
#Device Name: ADP3450
#Serial Number: SN:210018B9D9B0
#Date Time: 2024-08-15 11:55:32.294.738.340
#Sample rate: 5.88235e+06Hz
#Samples: 32768
#Trigger: Source: Channel 3 Type: Edge Condition: Rising Level: 40 mV Hyst.: Auto HoldOff: 0 s
#Channel 3: Range: 100 mV/div Offset: 0 V Attenuation: 1 X Coupling: DC Bandwidth: 0 Hz Sample Mode: Average

Time (s),Channel 3 (V)
-0.003168908022781367,0.025498021562618
-0.003168738022781367,0.02507014531180756
-0.003168568022781367,0.02441187415671762
-0.003168398022781367,0.02378651655938104
-0.003168228022781367,0.02365486232836173
-0.003168058022781367,0.02306241828878078
-0.003167888022781367,0.02296367761551711
-0.003167718022781367,0.02227249290267147
-0.003167548022781367,0.02230540646042596
-0.003167378022781367,0.02154839463207115
-0.003167208022781367,0.02112051838125975
-0.003167038022781367,0.01993563030209785
-0.003166868022781367,0.01977106251332507
-0.003166698022781367,0.01858617443415975
-0.003166528022781367,0.01789498972131531
-0.003166358022781367,0.01697341010418771
-0.003166188022781367,0.01644679318011378
-0.003166018022781367,0.01588726269828733
-0.003165848022781367,0.01516316442768707
-0.003165678022781367,0.0148340288501403
-0.003165508022781367,0.01417575769505036
-0.003165338022781367,0.013682054328732
-0.003165168022781367,0.01341874586669602
-0.003164998022781367,0.01285921538486808
-0.003164828022781367,0.01355040009771377
-0.003164658022781367,0.0132212645201688
-0.003164488022781367,0.01318835096241365
-0.003164318022781367,0.01341874586669555
-0.003164148022781367,0.01341874586669555
-0.003163978022781367,0.01351748653995922
-0.003163808022781367,0.01407701702178669
-0.003163638022781367,0.01417575769505018
-0.003163468022781367,0.01440615259933226
-0.003163298022781367,0.01489985596565062
-0.003163128022781367,0.01513025086993209
-0.003162958022781367,0.01499859663891429
-0.003162788022781367,0.01489985596565062
-0.003162618022781367,0.01473528817687813
-0.003162448022781367,0.01420867125280492
-0.003162278022781367,0.01401118990627757
-0.003162108022781367,0.01381370855975059
-0.003161938022781367,0.01338583230894099
-0.003161768022781367,0.01387953567525935
-0.003161598022781367,0.01378079500199585
-0.003161428022781367,0.01404410346403213
-0.003161258022781367,0.01440615259933226
-0.003161088022781367,0.01457072038810474
-0.003160918022781367,0.0146036339458596
-0.003160748022781367,0.0166771880843967
-0.003160578022781367,0.01499859663891429
-0.003160408022781367,0.0148340288501415
-0.003160238022781367,0.01443906615708682
-0.003160068022781367,0.0143732390415777
-0.003159898022781367,0.01420867125280492
-0.003159728022781367,0.013682054328732
-0.003159558022781367,0.01243133913405883
-0.003159388022781367,0.01170724086345672
-0.003159218022781367,0.01068692057306731
-0.003159048022781367,0.009864081629203377
-0.003158878022781367,0.008975415569828001
-0.003158708022781367,0.007691786817402609
-0.003158538022781367,0.007165169893329695
-0.003158368022781367,0.006309417391709234
-0.003158198022781367,0.005223269985810825
-0.003158028022781367,0.005124529312547154
-0.003157858022781367,0.004992875081528028
-0.003157688022781367,0.004499171715210569
-0.003157518022781367,0.004729566619492469
-0.003157348022781367,0.005223269985810047
-0.003157178022781367,0.004795393735001583
-0.003157008022781367,0.005519492005601839
-0.003156838022781367,0.005519492005603157
-0.003156668022781367,0.006243590276202096
-0.003156498022781367,0.006210676718447538
-0.003156328022781367,0.005881541140903525
-0.003156158022781367,0.006737293642520453
-0.003155988022781367,0.006836034315784124
-0.003155818022781367,0.00723099700883845
-0.003155648022781367,0.007033515662311467
-0.003155478022781367,0.00653981229599311
-0.003155308022781367,0.007066429220065365
-0.003155138022781367,0.006704380084765896
-0.003154968022781367,0.006638552969256781
-0.003154798022781367,0.006934774989047257
-0.003154628022781367,0.006901861431293239
-0.003154458022781367,0.007428478355366152
-0.003154288022781367,0.007593046144138639
-0.003154118022781367,0.007955095279439066
-0.003153948022781367,0.008613366434530208
-0.003153778022781367,0.009502032493901634
-0.003153608022781367,0.009370378262885021
-0.003153438022781367,0.01025904432225806
-0.003153268022781367,0.01045652566878505
-0.003153098022781367,0.01055526634204908
-0.003152928022781367,0.01055526634204908
-0.003152758022781367,0.01137810528591151
-0.003152588022781367,0.01147684595917668
-0.003152418022781367,0.01131227817040389
-0.003152248022781367,0.01134519172815839
-0.003152078022781367,0.01167432730570402
-0.003151908022781367,0.01190472220998592
-0.003151738022781367,0.01187180865223142
-0.003151568022781367,0.01177306797896769
-0.003151398022781367,0.01187180865223136
-0.003151228022781367,0.01285921538486628
-0.003151058022781367,0.01216803067202238
-0.003150888022781367,0.01210220355651326
-0.003150718022781367,0.01229968490304024
-0.003150548022781367,0.01249716624956795
-0.003150378022781367,0.01104896970836743
-0.003150208022781367,0.01052235278429452
-0.003150038022781367,0.009864081629203377
-0.003149868022781367,0.009469118936148692
-0.003149698022781367,0.008514625761266537
-0.003149528022781367,0.007988008837193623
-0.003149358022781367,0.00811966306821185
-0.003149188022781367,0.007428478355366152
-0.003149018022781367,0.006967688546802352
-0.003148848022781367,0.007625959701893495
-0.003148678022781367,0.007296824124347924
-0.003148508022781367,0.007099342777820162
-0.003148338022781367,0.006868947873538681
-0.003148168022781367,0.007230997008838809
-0.003147998022781367,0.006967688546800436
-0.003147828022781367,0.005914454698656525
-0.003147658022781367,0.006210676718447538
-0.003147488022781367,0.00607902248742949
-0.003147318022781367,0.006177763160692982
-0.003147148022781367,0.006210676718447538
-0.003146978022781367,0.006210676718447898
-0.003146808022781367,0.006408158064974882
-0.003146638022781367,0.006803120758029567
-0.003146468022781367,0.006210676718448735
-0.003146298022781367,0.006868947873538681
-0.003146128022781367,0.006342330949465767
-0.003145958022781367,0.006375244507220683
-0.003145788022781367,0.006572725853747667
-0.003145618022781367,0.006737293642520453
-0.003145448022781367,0.006704380084766135
-0.003145278022781367,0.006836034315784124
-0.003145108022781367,0.00700060210455691
-0.003144938022781367,0.007329737682102301
-0.003144768022781367,0.007230997008838809
-0.003144598022781367,0.007230997008838809
-0.003144428022781367,0.007296824124348103
-0.003144258022781367,0.007395564797611595
-0.003144088022781367,0.007296824124347924
-0.003143918022781367,0.008020922394946863
-0.003143748022781367,0.00811966306821185
-0.003143578022781367,0.008218403741475522
-0.003143408022781367,0.008975415569828959
-0.003143238022781367,0.009271637589621349
-0.003143068022781367,0.01223385778753149
-0.003142898022781367,0.008745020665554782
-0.003142728022781367,0.009995735860221606
-0.003142558022781367,0.01078566124633098
-0.003142388022781367,0.01065400701531299
-0.003142218022781367,0.01071983413082186
-0.003142048022781367,0.01075274768857642
-0.003141878022781367,0.009107069800851559
-0.003141708022781367,0.01114771038163111
-0.003141538022781367,0.01025904432225806
-0.003141368022781367,0.008415885088006218
-0.003141198022781367,0.009238724031866792
-0.003141028022781367,0.008876674896566664
-0.003140858022781367,0.00881084778105767
-0.003140688022781367,0.008580452876775651
-0.003140518022781367,0.008382971530248308
-0.003140348022781367,0.008613366434529788
-0.003140178022781367,0.007955095279439066
-0.003140008022781367,0.007362651239857037
-0.003139838022781367,0.007823441048420837
-0.003139668022781367,0.007494305470875266
-0.003139498022781367,0.00802092239494818
-0.003139328022781367,0.006967688546802352
-0.003139158022781367,0.007198083451084253
-0.003138988022781367,0.007066429220066024
-0.003138818022781367,0.007198083451084253
-0.003138648022781367,0.006967688546802352
-0.003138478022781367,0.00677020720027501
-0.003138308022781367,0.007362651239857037
-0.003138138022781367,0.007263910566592468
-0.003137968022781367,0.00677020720027501
-0.003137798022781367,0.006572725853747667
-0.003137628022781367,0.006276503833956892
-0.003137458022781367,0.006408158064974882
-0.003137288022781367,0.006013195371920196
-0.003137118022781367,0.005914454698656525
-0.003136948022781367,0.005914454698656525
-0.003136778022781367,0.005519492005601839
-0.003136608022781367,0.005716973352128883
-0.003136438022781367,0.005552405563356397
-0.003136268022781367,0.005519492005601839
-0.003136098022781367,0.005519492005602438
-0.003135928022781367,0.005848627583147411
-0.003135758022781367,0.006111936045183867
-0.003135588022781367,0.006375244507220444
-0.003135418022781367,0.006441071622729439
-0.003135248022781367,0.006737293642520453
-0.003135078022781367,0.006934774989048753
-0.003134908022781367,0.007461391913120709
-0.003134738022781367,0.007263910566593366
-0.003134568022781367,0.007625959701894033
-0.003134398022781367,0.007922181721684508
-0.003134228022781367,0.008415885088002865
-0.003134058022781367,0.008415885088003644
-0.003133888022781367,0.008843761338812107
-0.003133718022781367,0.008843761338812107
-0.003133548022781367,0.00917289691635708
-0.003133378022781367,0.009205810474112236
-0.003133208022781367,0.008745020665548437
-0.003133038022781367,0.008679193550039441
-0.003132868022781367,0.008942502012075779
-0.003132698022781367,0.008679193550039321
-0.003132528022781367,0.008547539319021333
-0.003132358022781367,0.009469118936148692
-0.003132188022781367,0.008086749510457293
-0.003132018022781367,0.008777934223301736
-0.003131848022781367,0.009107069800848565
-0.003131678022781367,0.008909588454321223
-0.003131508022781367,0.008580452876776249
-0.003131338022781367,0.00881084778105755
-0.003131168022781367,0.008646279992284765
-0.003130998022781367,0.009008329127584234
-0.003130828022781367,0.008876674896566664
-0.003130658022781367,0.008942502012075779
-0.003130488022781367,0.008382971530249327
-0.003130318022781367,0.008679193550039321
-0.003130148022781367,0.008284230856984636
-0.003129978022781367,0.008152576625966648
-0.003129808022781367,0.00811966306821185
-0.003129638022781367,0.007691786817402609
-0.003129468022781367,0.007428478355366631
-0.003129298022781367,0.006572725853747667
-0.003129128022781367,0.006572725853747667
-0.003128958022781367,0.006210676718447538
-0.003128788022781367,0.005914454698656525
-0.003128618022781367,0.005947368256411082
-0.003128448022781367,0.006046108929674754
-0.003128278022781367,0.005782800467638296
-0.003128108022781367,0.005914454698656525
-0.003127938022781367,0.006408158064974882
-0.003127768022781367,0.006506898738239331
-0.003127598022781367,0.006934774989047795
-0.003127428022781367,0.007198083451084253
-0.003127258022781367,0.007132256335575557
-0.003127088022781367,0.007362651239857037
-0.003126918022781367,0.007658873259648051
-0.003126748022781367,0.008382971530248967
-0.003126578022781367,0.008745020665548437
-0.003126408022781367,0.008909588454321223
-0.003126238022781367,0.008843761338811807
-0.003126068022781367,0.008679193550039321
-0.003125898022781367,0.008547539319021094
-0.003125728022781367,0.00811966306821209
-0.003125558022781367,0.008251317299230079
-0.003125388022781367,0.008415885088002865
-0.003125218022781367,0.008448798645755866
-0.003125048022781367,0.007593046144138938
-0.003124878022781367,0.007889268163929951
-0.003124708022781367,0.008481712203511679
-0.003124538022781367,0.008317144414739193
-0.003124368022781367,0.008382971530248308
-0.003124198022781367,0.008679193550038603
-0.003124028022781367,0.008284230856984636
-0.003123858022781367,0.008382971530248308
-0.003123688022781367,0.00904124268533945
-0.003123518022781367,0.00904124268533945
-0.003123348022781367,0.009205810474112236
-0.003123178022781367,0.009074156243094246
-0.003123008022781367,0.008679193550039321
-0.003122838022781367,0.009436205378394135
-0.003122668022781367,0.008152576625968744
-0.003122498022781367,0.007033515662311467
-0.003122328022781367,0.006803120758029567
-0.003122158022781367,0.006605639411502584
-0.003121988022781367,0.006013195371920196
-0.003121818022781367,0.005354924216829054
-0.003121648022781367,0.004828307292757098
-0.003121478022781367,0.004499171715210569
-0.003121308022781367,0.004367517484192341
-0.003121138022781367,0.003939641233383876
-0.003120968022781367,0.003347197193801071
-0.003120798022781367,0.003709246329101199
-0.003120628022781367,0.002985148058502259
-0.003120458022781367,0.003643419213592085
-0.003120288022781367,0.002392704018918914
-0.003120118022781367,0.003182629405026848
-0.003119948022781367,0.003643419213592085
-0.003119778022781367,0.004696653061737912
-0.003119608022781367,0.005322010659073359
-0.003119438022781367,0.005157442870301712
-0.003119268022781367,0.006177763160692982
-0.003119098022781367,0.006836034315782927
-0.003118928022781367,0.007494305470875266
-0.003118758022781367,0.007856354606175394
-0.003118588022781367,0.008514625761266537
-0.003118418022781367,0.009370378262885021
-0.003118248022781367,0.009469118936148692
-0.003118078022781367,0.009436205378394135
-0.003117908022781367,0.009337464705130465
-0.003117738022781367,0.008942502012075779
-0.003117568022781367,0.008613366434530208
-0.003117398022781367,0.007889268163929951
-0.003117228022781367,0.007362651239857037
-0.003117058022781367,0.007099342777820581
-0.003116888022781367,0.006473985180483158
-0.003116718022781367,0.006013195371920196
-0.003116548022781367,0.005322010659074497
-0.003116378022781367,0.004894134408264177
-0.003116208022781367,0.004301690368683227
-0.003116038022781367,0.004564998830719684
-0.003115868022781367,0.004762480177246967
-0.003115698022781367,0.004729566619492469
-0.003115528022781367,0.004433344599701455
-0.003115358022781367,0.004334603926438023
-0.003115188022781367,0.004466258157456012
-0.003115018022781367,0.004499171715210569
-0.003114848022781367,0.004268776810927832
-0.003114678022781367,0.00380798700236487
-0.003114508022781367,0.003873814117873984
-0.003114338022781367,0.003281370078291537
-0.003114168022781367,0.003050975174010056
-0.003113998022781367,0.002919320942991828
-0.003113828022781367,0.003050975174010595
-0.003113658022781367,0.003347197193801071
-0.003113488022781367,0.003873814117873984
-0.003113318022781367,0.003050975174011014
-0.003113148022781367,0.00357759209808297
-0.003112978022781367,0.003840900560119427
-0.003112808022781367,0.003807987002364331
-0.003112638022781367,0.003511764982573856
-0.003112468022781367,0.003248456520537399
-0.003112298022781367,0.003413024309309886
-0.003112128022781367,0.003775073444610313
-0.003111958022781367,0.003939641233383098
-0.003111788022781367,0.004729566619491032
-0.003111618022781367,0.003939641233383098
-0.003111448022781367,0.004564998830719684
-0.003111278022781367,0.00472956661949217
-0.003111108022781367,0.005519492005601839
-0.003110938022781367,0.005552405563356397
-0.003110768022781367,0.006144849602937347
-0.003110598022781367,0.006243590276202096
-0.003110428022781367,0.006342330949465767
-0.003110258022781367,0.006408158064974762
-0.003110088022781367,0.006803120758029567
-0.003109918022781367,0.006210676718447538
-0.003109748022781367,0.007329737682100445
-0.003109578022781367,0.007296824124347924
-0.003109408022781367,0.007593046144138938
-0.003109238022781367,0.008251317299228882
-0.003109068022781367,0.008415885088002865
-0.003108898022781367,0.008251317299230079
-0.003108728022781367,0.008415885088002565
-0.003108558022781367,0.008942502012075779
-0.003108388022781367,0.008909588454321223
-0.003108218022781367,0.009074156243093707
-0.003108048022781367,0.00881084778105755
-0.003107878022781367,0.00871210710779388
-0.003107708022781367,0.008514625761266537
-0.003107538022781367,0.008350057972493751
-0.003107368022781367,0.007856354606175394
-0.003107198022781367,0.00756013258638438
-0.003107028022781367,0.00677020720027501
-0.003106858022781367,0.006111936045183867
-0.003106688022781367,0.005815714025392853
-0.003106518022781367,0.005618232678865391
-0.003106348022781367,0.005552405563356397
-0.003106178022781367,0.005453664890092726
-0.003106008022781367,0.005486578447847402
-0.003105838022781367,0.005552405563356397
-0.003105668022781367,0.005848627583147411
-0.003105498022781367,0.006309417391711329
-0.003105328022781367,0.006375244507220324
-0.003105158022781367,0.006473985180483996
-0.003104988022781367,0.006473985180485073
-0.003104818022781367,0.007066429220066024
-0.003104648022781367,0.006605639411502225
-0.003104478022781367,0.00644107162272896
-0.003104308022781367,0.006177763160692982
-0.003104138022781367,0.006111936045183867
-0.003103968022781367,0.005256183543567479
-0.003103798022781367,0.006408158064974882
-0.003103628022781367,0.007922181721684508
-0.003103458022781367,0.006243590276205089
-0.003103288022781367,0.007889268163929951
-0.003103118022781367,0.007988008837193623
-0.003102948022781367,0.007527219028630661
-0.003102778022781367,0.007988008837193623
-0.003102608022781367,0.008053835952702737
-0.003102438022781367,0.00709934277782112
-0.003102268022781367,0.007395564797611595
-0.003102098022781367,0.00630941739171121
-0.003101928022781367,0.005881541140902746
-0.003101758022781367,0.005486578447847282
-0.003101588022781367,0.005453664890092726
-0.003101418022781367,0.005058702197038759
-0.003101248022781367,0.00528909710131994
-0.003101078022781367,0.004861220850510698
-0.003100908022781367,0.005585319121109636
-0.003100738022781367,0.005486578447847282
-0.003100568022781367,0.006046108929674754
-0.003100398022781367,0.006342330949465229
-0.003100228022781367,0.006408158064974882
-0.003100058022781367,0.006243590276202096
-0.003099888022781367,0.006572725853747068
-0.003099718022781367,0.006868947873538681
-0.003099548022781367,0.007165169893329695
-0.003099378022781367,0.00723099700883869
-0.003099208022781367,0.007823441048420837
-0.003099038022781367,0.007988008837193623
-0.003098868022781367,0.007691786817403148
-0.003098698022781367,0.007593046144138938
-0.003098528022781367,0.007658873259648051
-0.003098358022781367,0.007889268163929531
-0.003098188022781367,0.007658873259648051
-0.003098018022781367,0.008053835952702737
-0.003097848022781367,0.008185490183720726
-0.003097678022781367,0.008679193550039321
-0.003097508022781367,0.007955095279439066
-0.003097338022781367,0.008777934223302994
-0.003097168022781367,0.008251317299230079
-0.003096998022781367,0.007955095279439066
-0.003096828022781367,0.008448798645757422
-0.003096658022781367,0.008086749510457293
-0.003096488022781367,0.007625959701893495
-0.003096318022781367,0.007198083451084253
-0.003096148022781367,0.00653981229599311
-0.003095978022781367,0.005947368256411082
-0.003095808022781367,0.005124529312547154
-0.003095638022781367,0.003906727675627224
-0.003095468022781367,0.003182629405028285
-0.003095298022781367,0.002425617576673472
-0.003095128022781367,0.0018660870948463
-0.003094958022781367,0.002030654883618786
-0.003094788022781367,0.00153695151730043
-0.003094618022781367,0.001767346421583347
-0.003094448022781367,0.0023268769034098
-0.003094278022781367,0.001207815939754859
-0.003094108022781367,0.001438210844037537
-0.003093938022781367,0.001866087094846001
-0.003093768022781367,0.001734432863827772
-0.003093598022781367,0.002688926038709629
-0.003093428022781367,0.002524358249937143
-0.003093258022781367,0.002688926038709928
-0.003093088022781367,0.003083888731764853
-0.003092918022781367,0.003215542962782842
-0.003092748022781367,0.004202949695419555
-0.003092578022781367,0.004268776810929928
-0.003092408022781367,0.004959961523774369
-0.003092238022781367,0.005585319121110954
-0.003092068022781367,0.006079022487430328
-0.003091898022781367,0.006638552969256781
-0.003091728022781367,0.007494305470875266
-0.003091558022781367,0.007691786817404106
-0.003091388022781367,0.008514625761266537
-0.003091218022781367,0.009436205378394135
