Analysis/New Tests_CMB/wrd01_d2s01_new/cmb10_ch22.csv

#Digilent WaveForms Oscilloscope Acquisition
#Device Name: ADP3450
#Serial Number: SN:210018B9D9B0
#Date Time: 2024-08-14 17:08:20.003.072.980
#Sample rate: 5.88235e+06Hz
#Samples: 32768
#Trigger: Source: Channel 3 Type: Edge Condition: Rising Level: 60 mV Hyst.: Auto HoldOff: 0 s
#Channel 3: Range: 100 mV/div Offset: 0 V Attenuation: 1 X Coupling: DC Bandwidth: 0 Hz Sample Mode: Average

Time (s),Channel 3 (V)
-0.003798522487955432,0.2051402197869907
-0.003798352487955431,0.2175157175027441
-0.003798182487955431,0.2285088457927599
-0.003798012487955431,0.2377575555217702
-0.003797842487955431,0.2451631060165436
-0.003797672487955431,0.2514825091054071
-0.003797502487955432,0.2557612716134995
-0.003797332487955431,0.2592501087354899
-0.003797162487955431,0.261257835758516
-0.003796992487955431,0.2627389458574657
-0.003796822487955431,0.2627718594152187
-0.003796652487955431,0.2619490204713563
-0.003796482487955432,0.2606983052766831
-0.003796312487955431,0.2588222324846639
-0.003796142487955431,0.2562220614220517
-0.003795972487955431,0.2530294463198658
-0.003795802487955431,0.2500343125642
-0.003795632487955431,0.2464138212112053
-0.003795462487955432,0.2427604163004494
-0.003795292487955431,0.2388766164853977
-0.003795122487955431,0.2350257302281137
-0.003794952487955431,0.2309444490665553
-0.003794782487955431,0.2264682052119359
-0.003794612487955431,0.2221894427038513
-0.003794442487955432,0.2177131988492315
-0.003794272487955432,0.2135990041299194
-0.003794102487955431,0.2094518958528226
-0.003793932487955431,0.2053047875757558
-0.003793762487955431,0.2010918521831721
-0.003793592487955431,0.196648521886315
-0.003793422487955432,0.1932584254375956
-0.003793252487955432,0.1895721069690919
-0.003793082487955431,0.1855237393652622
-0.003792912487955431,0.1821007293587947
-0.003792742487955431,0.1788093735833389
-0.003792572487955431,0.1754521906923802
-0.003792402487955432,0.1717987857816243
-0.003792232487955432,0.1678491588510847
-0.003792062487955431,0.1653148149039629
-0.003791892487955431,0.1615626693199511
-0.003791722487955431,0.1583042271022496
-0.003791552487955431,0.1548483035380274
-0.003791382487955432,0.1515240342048172
-0.003791212487955432,0.1484301597758944
-0.003791042487955431,0.1452704582314417
-0.003790872487955431,0.1426373736110821
-0.003790702487955431,0.1400701161062261
-0.003790532487955431,0.1372395501393394
-0.003790362487955432,0.1330924418622652
-0.003790192487955432,0.1330266147467561
-0.003790022487955431,0.1293732098359934
-0.003789852487955431,0.127497137043986
-0.003789682487955431,0.1250286202123953
-0.003789512487955431,0.1231525474203889
-0.003789342487955432,0.1216385237636793
-0.003789172487955432,0.1201245001069697
-0.003789002487955431,0.118478822219236
-0.003788832487955431,0.1168660578892644
-0.003788662487955431,0.1145950224042013
-0.003788492487955431,0.1130480851897374
-0.003788322487955431,0.1116657157640485
-0.003788152487955432,0.1096579887410205
-0.003787982487955431,0.1075186074869687
-0.003787812487955431,0.1059716702725069
-0.003787642487955431,0.1041614245960055
-0.003787472487955431,0.101989129784205
-0.003787302487955431,0.09994848920342619
-0.003787132487955432,0.09767745371836173
-0.003786962487955431,0.09484688775146193
-0.003786792487955431,0.09267459293966152
-0.003786622487955431,0.09060103880112891
-0.003786452487955431,0.08892244735564596
-0.003786282487955431,0.08694763389037613
-0.003786112487955432,0.08526904244489372
-0.003785942487955431,0.08326131542185951
-0.003785772487955431,0.08154981041862326
-0.003785602487955431,0.08003578676191572
-0.003785432487955431,0.07815971396990709
-0.003785262487955431,0.07690899877523621
-0.003785092487955432,0.07562537002280847
-0.003784922487955431,0.07404551925058341
-0.003784752487955431,0.0723011006895939
-0.003784582487955431,0.07111621261043075
-0.003784412487955431,0.06924013981842224
-0.003784242487955431,0.06805525173926033
-0.003784072487955432,0.06654122808255072
-0.003783902487955432,0.06545508067665232
-0.003783732487955431,0.06407271125095486
-0.003783562487955431,0.06295365028730153
-0.003783392487955431,0.061604194419365
-0.003783222487955431,0.06041930634020309
-0.003783052487955432,0.05910276403002081
-0.003782882487955432,0.05834575220166737
-0.003782712487955431,0.05702920989147916
-0.003782542487955431,0.05577849469680851
-0.003782372487955431,0.05465943373315357
-0.003782202487955431,0.05354037276950066
-0.003782032487955432,0.05232257113258205
-0.003781862487955432,0.05110476949566565
-0.003781692487955431,0.05008444920526893
-0.003781522487955431,0.04919578314589679
-0.003781352487955431,0.04791215439346948
-0.003781182487955431,0.04685892054532557
-0.003781012487955432,0.0446866257335248
-0.003780842487955432,0.04389670034741686
-0.003780672487955431,0.04343591053884695
-0.003780502487955431,0.04215228178642186
-0.003780332487955431,0.0410332208227668
-0.003780162487955431,0.0398483327436049
-0.003779992487955432,0.03882801245321364
-0.003779822487955432,0.0375443837007859
-0.003779652487955431,0.03662280408365543
-0.003779482487955431,0.03583287869754744
-0.003779312487955431,0.03501003975368346
-0.003779142487955431,0.03415428725206653
-0.003778972487955432,0.03293648561514791
-0.003778802487955432,0.03198199244026576
-0.003778632487955431,0.03145537551618961
-0.003778462487955431,0.03056670945681896
-0.003778292487955431,0.03010591964825438
-0.003778122487955431,0.02921725358888188
-0.003777952487955431,0.02862480954930093
-0.003777782487955432,0.02760448925890966
-0.003777612487955431,0.02674873675729009
-0.003777442487955431,0.02645251473749968
-0.003777272487955431,0.02618920627546418
-0.003777102487955431,0.02645251473749896
-0.003776932487955431,0.02579424358240902
-0.003776762487955432,0.02599172492893636
-0.003776592487955431,0.02549802156261908
-0.003776422487955431,0.02579424358240878
-0.003776252487955431,0.02572841646689925
-0.003776082487955431,0.02536636733159942
-0.003775912487955431,0.02516888598507243
-0.003775742487955432,0.02444478771447217
-0.003775572487955431,0.02375360300162456
-0.003775402487955431,0.02322698607755021
-0.003775232487955431,0.02230540646042465
-0.003775062487955431,0.02158130818982445
-0.003774892487955431,0.02089012347698001
-0.003774722487955432,0.02019893876413431
-0.003774552487955431,0.01970523539781212
-0.003774382487955431,0.01865200154966893
-0.003774212487955431,0.0183228659721245
-0.003774042487955431,0.0182899524143685
-0.003773872487955431,0.01746711347050607
-0.003773702487955432,0.0175987677015243
-0.003773532487955432,0.01726963212397933
-0.003773362487955431,0.01680884231541469
-0.003773192487955431,0.01674301519990474
-0.003773022487955431,0.01615057116032432
-0.003772852487955431,0.0164467931801148
-0.003772682487955432,0.01641387962236024
-0.003772512487955432,0.01628222539134225
-0.003772342487955431,0.01641387962235892
-0.003772172487955431,0.01605183048706065
-0.003772002487955431,0.01634805250685209
-0.003771832487955431,0.01687466943092404
-0.003771662487955432,0.01657844741113303
-0.003771492487955432,0.01842160664538487
-0.003771322487955431,0.01582143558277809
-0.003771152487955431,0.01578852202502318
-0.003770982487955431,0.01552521356298672
-0.003770812487955431,0.01526190510095074
-0.003770642487955432,0.0146036339458596
-0.003770472487955432,0.01427449836831463
-0.003770302487955431,0.01361622721322037
-0.003770132487955431,0.01292504250037641
-0.003769962487955431,0.01249716624956717
-0.003769792487955431,0.0120692899987587
-0.003769622487955432,0.01150975951693123
-0.003769452487955432,0.01078566124633098
-0.003769282487955431,0.0105881798998022
-0.003769112487955431,0.01019321720674811
-0.003768942487955431,0.009732427398184312
-0.003768772487955431,0.009271637589621349
-0.003768602487955432,0.008975415569830336
-0.003768432487955432,0.008876674896566664
-0.003768262487955431,0.008580452876773377
-0.003768092487955431,0.007955095279439845
-0.003767922487955431,0.00838297153024747
-0.003767752487955431,0.007922181721685406
-0.003767582487955431,0.008415885088002865
-0.003767412487955432,0.008843761338812107
-0.003767242487955431,0.008909588454322539
-0.003767072487955431,0.00927163758962099
-0.003766902487955431,0.009074156243095384
-0.003766732487955431,0.00983116807144882
-0.003766562487955431,0.00983116807144882
-0.003766392487955432,0.00973242739818515
-0.003766222487955431,0.009633686724919802
-0.003766052487955431,0.009172896916356362
-0.003765882487955431,0.008810847781056173
-0.003765712487955431,0.008053835952702197
-0.003765542487955431,0.007757613932911723
-0.003765372487955432,0.007099342777820581
-0.003765202487955431,0.00693477498904552
-0.003765032487955431,0.006309417391708336
-0.003764862487955431,0.005519492005601301
-0.003764692487955431,0.005223269985810406
-0.003764522487955431,0.004992875081528926
-0.003764352487955432,0.004696653061737912
-0.003764182487955431,0.004433344599701814
-0.003764012487955431,0.004532085272965126
-0.003763842487955431,0.004532085272965306
-0.003763672487955431,0.004630825946228917
-0.003763502487955431,0.004696653061737912
-0.003763332487955432,0.005157442870301712
-0.003763162487955432,0.005585319121110176
-0.003762992487955431,0.00581571402539465
-0.003762822487955431,0.006309417391710252
-0.003762652487955431,0.005782800467638416
-0.003762482487955431,0.005848627583147411
-0.003762312487955432,0.006111936045183867
-0.003762142487955432,0.004334603926441016
-0.003761972487955431,0.005651146236617195
-0.003761802487955431,0.004861220850510518
-0.003761632487955431,0.004762480177246129
-0.003761462487955431,0.00426877681092867
-0.003761292487955432,0.004630825946228797
-0.003761122487955432,0.003347197193803406
-0.003760952487955431,0.003577592098080695
-0.003760782487955431,0.002952234500745846
-0.003760612487955431,0.002656012480954413
-0.003760442487955431,0.002129395556882458
-0.003760272487955432,0.002293963345655243
-0.003760102487955432,0.001899000652601276
-0.003759932487955431,0.0011749023820009
-0.003759762487955431,0.001339470170773506
-0.003759592487955431,0.001569865075053969
-0.003759422487955431,0.001010334593227516
-0.003759252487955432,0.001010334593227516
-0.003759082487955432,0.001471124401790477
-0.003758912487955431,0.001174902381998865
-0.003758742487955431,0.000779939688945257
-0.003758572487955431,0.0005824583424195308
-0.003758402487955431,0.001273643055263973
-0.003758232487955432,0.001339470170773087
-0.003758062487955432,0.001174902382000301
-0.003757892487955431,0.002261049787894699
-0.003757722487955431,0.0006153719001723517
-0.003757552487955431,0.0003520634381348172
-0.003757382487955431,-0.0005036890634828893
-0.003757212487955431,-0.0009315653142913533
-0.003757042487955432,-0.0007999110832731249
-0.003756872487955431,-0.001293614449594116
-0.003756702487955431,-0.002017712720192696
-0.003756532487955431,-0.002544329644266089
-0.003756362487955431,-0.003334255030374321
-0.003756192487955431,-0.003498822819146808
-0.003756022487955432,-0.003663390607919593
-0.003755852487955431,-0.003498822819144892
-0.003755682487955431,-0.002972205895073654
-0.003755512487955431,-0.002906378779563702
-0.003755342487955431,-0.002313934739982153
-0.003755172487955431,-0.001984799162437181
-0.003755002487955432,-0.001260700891836924
-0.003754832487955431,-0.0005695161789884712
-0.003754662487955431,0.0001874956493640672
-0.003754492487955431,0.0003191498803830141
-0.003754322487955431,0.0009774210354735575
-0.003754152487955431,0.00130655661301853
-0.003753982487955432,0.001569865075054987
-0.003753812487955431,0.001405297286284117
-0.003753642487955431,0.001931914210354397
-0.003753472487955431,0.001734432863828072
-0.003753302487955431,0.001899000652600498
-0.003753132487955431,0.001866087094846001
-0.003752962487955432,0.001569865075054987
-0.003752792487955432,0.00117490238200102
-0.003752622487955431,-0.001030305987549038
-0.003752452487955431,0.0006153719001721123
-0.003752282487955431,0.0002204092071174868
-0.003752112487955431,-0.0001416399281819828
-0.003751942487955432,-0.001129046660818696
-0.003751772487955432,-0.0008986517565372153
-0.003751602487955431,-0.001293614449593397
-0.003751432487955431,-0.001820231373665233
-0.003751262487955431,-0.002281021182228554
-0.003751092487955431,-0.002478502528755537
-0.003750922487955432,-0.002544329644264652
-0.003750752487955432,-0.001886058489174707
-0.003750582487955431,-0.002083539835700253
-0.003750412487955431,-0.001918972046927528
-0.003750242487955431,-0.001622750027137532
-0.003750072487955431,-0.00188605848917351
-0.003749902487955432,-0.00188605848917351
-0.003749732487955432,-0.001655663584892029
-0.003749562487955431,-0.001853144931418593
-0.003749392487955431,-0.00175440425815552
-0.003749222487955431,-0.001886058489174228
-0.003749052487955431,-0.002281021182228195
-0.003748882487955432,-0.002346848297737309
-0.003748712487955432,-0.002741810990791276
-0.003748542487955431,-0.003432995703639489
-0.003748372487955431,-0.003926699069956469
-0.003748202487955431,-0.004157093974238847
-0.003748032487955431,-0.004650797340556306
-0.003747862487955432,-0.004420402436274407
-0.003747692487955432,-0.004552056667292635
-0.003747522487955431,-0.004190007531992148
-0.003747352487955431,-0.004091266858728956
-0.003747182487955431,-0.004157093974236932
-0.003747012487955431,-0.003597563492410479
-0.003746842487955431,-0.003432995703637694
-0.003746672487955432,-0.003564649934655922
-0.003746502487955431,-0.003498822819145371
-0.003746332487955431,-0.003103860126091644
-0.003746162487955431,-0.002840551664054887
-0.003745992487955431,-0.002412675413245944
-0.003745822487955431,-0.002149366951209966
-0.003745652487955432,-0.002182280508964523
-0.003745482487955431,-0.002149366951209008
-0.003745312487955431,-0.00188605848917327
-0.003745142487955431,-0.001820231373664216
-0.003744972487955431,-0.001721490700401203
-0.003744802487955431,-0.001984799162437181
-0.003744632487955432,-0.002017712720191738
-0.003744462487955431,-0.002379761855493542
-0.003744292487955431,-0.002840551664056624
-0.003744122487955431,-0.003103860126092481
-0.003743952487955431,-0.003301341472620303
-0.003743782487955431,-0.003762131281183265
-0.003743612487955432,-0.004453315994028964
-0.003743442487955431,-0.003926699069955811
-0.003743272487955431,-0.003860871954451127
-0.003743102487955431,-0.005012846475852483
-0.003742932487955431,-0.002840551664055845
-0.003742762487955431,-0.002939292337319337
-0.003742592487955432,-0.002511416086510094
-0.003742422487955431,-0.001951885604682384
-0.003742252487955431,-0.001886058489173031
-0.003742082487955431,-0.001754404258154742
-0.003741912487955431,-0.00145818223836307
-0.003741742487955431,-0.0007999110832731249
-0.003741572487955432,-0.001556922911627938
-0.003741402487955432,-0.001030305987555983
-0.003741232487955431,-0.001129046660819893
-0.003741062487955431,-0.001458182238365045
-0.003740892487955431,-0.001886058489174048
-0.003740722487955431,-0.002182280508964523
-0.003740552487955432,-0.002379761855491866
-0.003740382487955432,-0.003005119452827314
-0.003740212487955431,-0.00277472454854703
-0.003740042487955431,-0.002906378779565378
-0.003739872487955431,-0.003235514357110471
-0.003739702487955431,-0.003301341472619465
-0.003739532487955432,-0.003597563492410479
-0.003739362487955432,-0.003860871954446457
-0.003739192487955431,-0.003893785512201613
-0.003739022487955431,-0.00392669906995593
-0.003738852487955431,-0.003860871954446757
-0.003738682487955431,-0.003762131281183265
-0.003738512487955432,-0.003432995703637694
-0.003738342487955432,-0.003103860126092721
-0.003738172487955431,-0.00257724320201837
-0.003738002487955431,-0.002346848297736052
-0.003737832487955431,-0.001655663584890113
-0.003737662487955431,-0.000832824641027682
-0.003737492487955432,-0.0003062077169547683
-0.003737322487955432,0.0001545820916090312
-0.003737152487955431,0.0004508041114008833
-0.003736982487955431,0.0006811990156824837
-0.003736812487955431,0.0009774210354734976
-0.003736642487955431,0.001273643055263973
-0.003736472487955431,0.001668605748318658
-0.003736302487955432,0.001800259979336887
-0.003736132487955431,0.001010334593227157
-0.003735962487955431,0.0009115939199636051
-0.003735792487955431,0.0007799396889448378
-0.003735622487955431,0.0003520634381348771
-0.003735452487955431,-0.0004707755057275538
-0.003735282487955432,-0.001589836469382495
-0.003735112487955431,-0.002939292337321612
-0.003734942487955431,-0.003564649934656701
-0.003734772487955431,-0.003992526185465105
-0.003734602487955431,-0.003959612627710966
-0.003734432487955431,-0.00415709397423795
-0.003734262487955432,-0.004519143109538078
-0.003734092487955431,-0.004157093974238189
-0.003733922487955431,-0.004222921089737964
-0.003733752487955431,-0.001721490700402939
-0.003733582487955431,-0.002939292337318559
-0.003733412487955431,-0.002511416086510094
-0.003733242487955432,-0.002643070317528323
-0.003733072487955431,-0.002017712720193294
-0.003732902487955431,-0.00244558897100134
-0.003732732487955431,-0.002544329644263873
-0.003732562487955431,-0.002116453393455708
-0.003732392487955431,-0.002281021182228195
-0.003732222487955432,-0.001984799162437181
-0.003732052487955431,-0.001787317815910198
-0.003731882487955431,-0.001886058489173749
-0.003731712487955431,-0.001951885604681666
-0.003731542487955431,-0.001425268680610668
-0.003731372487955431,-0.001951885604682624
-0.003731202487955432,-0.001853144931418952
-0.003731032487955432,-0.001984799162436941
-0.003730862487955431,-0.001951885604680947
-0.003730692487955431,-0.001491095796118585
-0.003730522487955431,-0.001359441565100775
-0.003730352487955431,-0.001458182238364267
-0.003730182487955432,-0.001326528007346039
-0.003730012487955432,-0.001359441565100536
-0.003729842487955431,-0.001129046660817139
-0.003729672487955431,-0.0007011704100094536
-0.003729502487955431,-0.0007011704100097529
-0.003729332487955431,-0.0008657381987822392
-0.003729162487955432,-0.0007011704100094536
-0.003728992487955432,-0.0006024297367459619
-0.003728822487955431,-0.001030305987555384
-0.003728652487955431,-0.001129046660819175
-0.003728482487955431,-0.001392355122854913
-0.003728312487955431,-0.001260700891836924
-0.003728142487955432,-0.001326528007346039
-0.003727972487955432,-0.001556922911627519
-0.003727802487955431,-0.001359441565103709
-0.003727632487955431,-0.002215194066719979
-0.003727462487955431,-0.002708897433037976
-0.003727292487955431,-0.003005119452828451
-0.003727122487955432,-0.003465909261392251
-0.003726952487955432,-0.003663390607919593
-0.003726782487955431,-0.003564649934655084
-0.003726612487955431,-0.003334255030372945
-0.003726442487955431,-0.002741810990791994
-0.003726272487955431,-0.002741810990791994
-0.003726102487955432,-0.002774724548546551
-0.003725932487955432,-0.002412675413246423
-0.003725762487955431,-0.002215194066717524
-0.003725592487955431,-0.00178731781590918
-0.003725422487955431,-0.001425268680608572
-0.003725252487955431,-0.000799911083272586
-0.003725082487955431,-0.0005036890634821109
-0.003724912487955432,-0.0003062077169547683
-0.003724742487955431,-0.0004049483902167633
-0.003724572487955431,5.584141834625789e-05
-0.003724402487955431,0.0005495447846656323
-0.003724232487955431,0.001602778632807987
-0.003724062487955431,0.0007470261311910591
-0.003723892487955432,0.0008457668044547304
-0.003723722487955431,0.0009115939199643236
-0.003723552487955431,0.001043248150982552
-0.003723382487955431,0.001174902382000062
-0.003723212487955431,0.001043248150981834
-0.003723042487955431,0.0009115939199638446
-0.003722872487955432,0.0008128532467001733
-0.003722702487955431,0.0001874956493646659
-0.003722532487955431,0.0004837176691517285
-0.003722362487955431,-0.0003062077169556663
-0.003722192487955431,-0.0007999110832734841
-0.003722022487955431,-0.0009973924298004675
-0.003721852487955432,-0.001359441565100596
-0.003721682487955431,-0.002017712720193414
-0.003721512487955431,-0.002478502528758171
-0.003721342487955431,-0.00320260079935723
-0.003721172487955431,-0.003992526185464865
