Analysis/New Tests_CMB/wrd01_d2s01_new/cmb12_ch40.csv

#Digilent WaveForms Oscilloscope Acquisition
#Device Name: ADP3450
#Serial Number: SN:210018B9D9B0
#Date Time: 2024-08-15 12:01:41.079.400.710
#Sample rate: 5.88235e+06Hz
#Samples: 32768
#Trigger: Source: Channel 3 Type: Edge Condition: Rising Level: 40 mV Hyst.: Auto HoldOff: 0 s
#Channel 3: Range: 100 mV/div Offset: 0 V Attenuation: 1 X Coupling: DC Bandwidth: 0 Hz Sample Mode: Average

Time (s),Channel 3 (V)
-0.003168827759623473,0.02474100973426319
-0.003168657759623472,0.02493849108079083
-0.003168487759623472,0.02510305886956332
-0.003168317759623473,0.02467518261875408
-0.003168147759623472,0.02467518261875312
-0.003167977759623472,0.02414856569468116
-0.003167807759623473,0.02368777588611736
-0.003167637759623472,0.02227249290267051
-0.003167467759623472,0.02177878953635305
-0.003167297759623473,0.01954066760904317
-0.003167127759623472,0.0192115320314961
-0.003166957759623472,0.01838869308763367
-0.003166787759623473,0.01753294058601518
-0.003166617759623472,0.01634805250684993
-0.003166447759623472,0.01568978135175999
-0.003166277759623473,0.01595308981379644
-0.003166107759623472,0.01565686779400363
-0.003165937759623472,0.01466946106136872
-0.003165767759623473,0.01470237461912327
-0.003165597759623472,0.01440615259933208
-0.003165427759623472,0.01430741192606859
-0.003165257759623473,0.01457072038810504
-0.003165087759623473,0.01499859663891351
-0.003164917759623472,0.01539355933196897
-0.003164747759623473,0.01519607798544163
-0.003164577759623473,0.01575560846726808
-0.003164407759623472,0.01592017625604189
-0.003164237759623472,0.01638096606460569
-0.003164067759623473,0.01585434914053373
-0.003163897759623472,0.01595308981379644
-0.003163727759623472,0.0155252135629872
-0.003163557759623473,0.01489985596565175
-0.003163387759623472,0.01532773221645986
-0.003163217759623472,0.01513025086993251
-0.003163047759623473,0.01493276952340553
-0.003162877759623472,0.0143732390415777
-0.003162707759623472,0.0148340288501415
-0.003162537759623473,0.01480111529238701
-0.003162367759623472,0.01499859663891429
-0.003162197759623472,0.01486694240789606
-0.003162027759623473,0.01503151019666854
-0.003161857759623472,0.015986003371551
-0.003161687759623472,0.0164467931801148
-0.003161517759623473,0.01664427452664178
-0.003161347759623472,0.01733545923948784
-0.003161177759623472,0.01786207616356076
-0.003161007759623473,0.01773042193254276
-0.003160837759623472,0.0180595575100881
-0.003160667759623472,0.01799373039457898
-0.003160497759623473,0.01786207616356076
-0.003160327759623472,0.0173683727972424
-0.003160157759623472,0.01677592875766037
-0.003159987759623473,0.01608474404481467
-0.003159817759623472,0.0150644237544234
-0.003159647759623472,0.01440615259933226
-0.003159477759623473,0.013682054328732
-0.003159307759623472,0.01325417807792222
-0.003159137759623472,0.01295795605813175
-0.003158967759623473,0.01262882048058617
-0.003158797759623472,0.01295795605813187
-0.003158627759623472,0.01302378317364086
-0.003158457759623473,0.01341874586669555
-0.003158287759623472,0.0136820543287332
-0.003158117759623472,0.01434032548382314
-0.003157947759623473,0.01476820173463239
-0.003157777759623472,0.01513025086993198
-0.003157607759623472,0.0148340288501415
-0.003157437759623473,0.01605183048706011
-0.003157267759623472,0.01552521356298888
-0.003157097759623472,0.0164467931801148
-0.003156927759623473,0.0166771880843967
-0.003156757759623472,0.01647970673786942
-0.003156587759623472,0.01651262029562391
-0.003156417759623473,0.0164467931801148
-0.003156247759623472,0.01657844741113374
-0.003156077759623472,0.01697341010418771
-0.003155907759623473,0.01723671856622417
-0.003155737759623472,0.0171708914507159
-0.003155567759623472,0.01763168125927886
-0.003155397759623473,0.0178291626058062
-0.003155227759623472,0.01812538462559721
-0.003155057759623472,0.01812538462559721
-0.003154887759623473,0.01789498972131531
-0.003154717759623473,0.01756585414377034
-0.003154547759623472,0.01753294058601518
-0.003154377759623473,0.01618348471807834
-0.003154207759623473,0.01601891692930586
-0.003154037759623472,0.01542647288972353
-0.003153867759623472,0.01374788144424112
-0.003153697759623473,0.01453780683034905
-0.003153527759623472,0.01127936461264933
-0.003153357759623472,0.01141101884366756
-0.003153187759623473,0.01144393240142206
-0.003153017759623472,0.01006156297573072
-0.003152847759623472,0.009139983358603122
-0.003152677759623473,0.008481712203513176
-0.003152507759623472,0.009337464705130465
-0.003152337759623472,0.007823441048420837
-0.003152167759623473,0.00815257662596581
-0.003151997759623472,0.008152576625966409
-0.003151827759623472,0.008284230856984636
-0.003151657759623473,0.008415885088002626
-0.003151487759623472,0.008547539319021094
-0.003151317759623472,0.008580452876775651
-0.003151147759623473,0.008745020665548137
-0.003150977759623472,0.009008329127584893
-0.003150807759623472,0.00950203249390325
-0.003150637759623473,0.009205810474112775
-0.003150467759623472,0.009929908744712493
-0.003150297759623472,0.00973242739818515
-0.003150127759623473,0.009699513840430593
-0.003149957759623472,0.009765340955939707
-0.003149787759623472,0.01048943922653996
-0.003149617759623473,0.01071983413082186
-0.003149447759623472,0.01068692057306731
-0.003149277759623472,0.01111479682387655
-0.003149107759623473,0.01104896970836743
-0.003148937759623472,0.0116085001901949
-0.003148767759623472,0.0118388950944768
-0.003148597759623473,0.01210220355651326
-0.003148427759623472,0.01177306797896991
-0.003148257759623472,0.0129908696158863
-0.003148087759623473,0.0116085001901949
-0.003147917759623472,0.01134519172815809
-0.003147747759623472,0.01114771038163111
-0.003147577759623473,0.01078566124633098
-0.003147407759623472,0.01062109345755693
-0.003147237759623472,0.009929908744712493
-0.003147067759623473,0.009469118936148692
-0.003146897759623472,0.008843761338811509
-0.003146727759623472,0.008514625761266537
-0.003146557759623473,0.007889268163929951
-0.003146387759623472,0.007625959701893375
-0.003146217759623472,0.00756013258638438
-0.003146047759623473,0.007428478355366152
-0.003145877759623472,0.006111936045184226
-0.003145707759623472,0.00630941739171121
-0.003145537759623473,0.005980281814165639
-0.003145367759623472,0.00538783777458415
-0.003145197759623472,0.005684059794374625
-0.003145027759623473,0.005716973352129182
-0.003144857759623472,0.005980281814166656
-0.003144687759623472,0.00653981229599311
-0.003144517759623473,0.006868947873538681
-0.003144347759623472,0.007362651239856678
-0.003144177759623472,0.007165169893329695
-0.003144007759623473,0.009008329127584893
-0.003143837759623473,0.00867919355003992
-0.003143667759623472,0.009798254513694264
-0.003143497759623473,0.01052235278429452
-0.003143327759623473,0.01062109345755801
-0.003143157759623472,0.01121353749714022
-0.003142987759623472,0.01131227817040389
-0.003142817759623473,0.0112135374971404
-0.003142647759623472,0.01104896970836743
-0.003142477759623472,0.01085148836184009
-0.003142307759623473,0.01081857480408559
-0.003142137759623472,0.01025904432225806
-0.003141967759623472,0.01006156297573072
-0.003141797759623473,0.009995735860221726
-0.003141627759623472,0.009896995186957936
-0.003141457759623472,0.009962822302467049
-0.003141287759623473,0.01025904432225752
-0.003141117759623472,0.01062109345755819
-0.003140947759623472,0.01088440191959465
-0.003140777759623473,0.01098314259285814
-0.003140607759623472,0.011378105285913
-0.003140437759623472,0.01134519172815845
-0.003140267759623473,0.01118062393938596
-0.003140097759623472,0.01091731547734921
-0.003139927759623472,0.01095022903510376
-0.003139757759623473,0.01052235278429452
-0.003139587759623472,0.01035778499552173
-0.003139417759623472,0.01009447653348528
-0.003139247759623473,0.009370378262885021
-0.003139077759623472,0.008843761338812107
-0.003138907759623472,0.00973242739818515
-0.003138737759623473,0.009337464705130465
-0.003138567759623472,0.008876674896566664
-0.003138397759623472,0.009205810474112236
-0.003138227759623473,0.009205810474112236
-0.003138057759623472,0.009929908744712732
-0.003137887759623472,0.01006156297573072
-0.003137717759623473,0.01042361211103085
-0.003137547759623472,0.01085148836184147
-0.003137377759623472,0.0116085001901949
-0.003137207759623473,0.01203637644100415
-0.003137037759623472,0.01174015442121295
-0.003136867759623472,0.01164141374794946
-0.003136697759623473,0.01154267307468579
-0.003136527759623472,0.01180598153672147
-0.003136357759623472,0.011378105285913
-0.003136187759623473,0.01104896970836743
-0.003136017759623472,0.01081857480408541
-0.003135847759623472,0.01075274768857642
-0.003135677759623473,0.01042361211103085
-0.003135507759623472,0.01039069855327557
-0.003135337759623472,0.009995735860221606
-0.003135167759623473,0.009370378262885021
-0.003134997759623472,0.008942502012075301
-0.003134827759623472,0.008679193550039321
-0.003134657759623473,0.007988008837193623
-0.003134487759623472,0.007856354606174676
-0.003134317759623472,0.007461391913120709
-0.003134147759623473,0.00779052749066628
-0.003133977759623472,0.008152576625966888
-0.003133807759623472,0.008415885088002865
-0.003133637759623473,0.009008329127584893
-0.003133467759623473,0.009600773167165844
-0.003133297759623472,0.009995735860221606
-0.003133127759623473,0.01081857480408553
-0.003132957759623473,0.01190472220998394
-0.003132787759623472,0.01312252384690453
-0.003132617759623472,0.01387953567525935
-0.003132447759623473,0.01476820173463077
-0.003132277759623472,0.01545938644747809
-0.003132107759623472,0.01549230000523264
-0.003131937759623473,0.01638096606460407
-0.003131767759623472,0.01651262029562391
-0.003131597759623472,0.01687466943092404
-0.003131427759623473,0.01726963212397801
-0.003131257759623472,0.01723671856622417
-0.003131087759623472,0.01687466943092404
-0.003130917759623473,0.01694049654643303
-0.003130747759623472,0.01651262029562391
-0.003130577759623472,0.0155252135629872
-0.003130407759623473,0.01522899154319673
-0.003130237759623472,0.01453780683035049
-0.003130067759623472,0.01420867125280492
-0.003129897759623473,0.01378079500199645
-0.003129727759623472,0.01272756115384985
-0.003129557759623472,0.01197054932549503
-0.003129387759623473,0.01417575769504635
-0.003129217759623472,0.01078566124633098
-0.003129047759623472,0.01025904432225806
-0.003128877759623473,0.01009447653348528
-0.003128707759623472,0.009896995186957936
-0.003128537759623472,0.009534946051657807
-0.003128367759623473,0.009370378262885021
-0.003128197759623472,0.009172896916357679
-0.003128027759623472,0.009205810474112236
-0.003127857759623473,0.008843761338812107
-0.003127687759623472,0.00890958845432218
-0.003127517759623472,0.009436205378394135
-0.003127347759623473,0.009172896916357679
-0.003127177759623472,0.009502032493902711
-0.003127007759623472,0.009205810474112236
-0.003126837759623473,0.009337464705130465
-0.003126667759623472,0.008876674896566305
-0.003126497759623472,0.008679193550039321
-0.003126327759623473,0.008152576625966409
-0.003126157759623472,0.008350057972493932
-0.003125987759623472,0.008448798645757422
-0.003125817759623473,0.008580452876775651
-0.003125647759623472,0.008613366434530747
-0.003125477759623472,0.008909588454321223
-0.003125307759623473,0.00904124268533945
-0.003125137759623472,0.008942502012075779
-0.003124967759623472,0.008942502012075779
-0.003124797759623473,0.009139983358603122
-0.003124627759623472,0.009995735860222564
-0.003124457759623472,0.01052235278429452
-0.003124287759623473,0.01088440191959465
-0.003124117759623472,0.01134519172815911
-0.003123947759623472,0.01170724086345858
-0.003123777759623473,0.0118388950944768
-0.003123607759623472,0.01223385778753149
-0.003123437759623472,0.01223385778753149
-0.003123267759623473,0.01213511711426782
-0.003123097759623473,0.01259590692283078
-0.003122927759623472,0.01243133913405883
-0.003122757759623473,0.01272756115384985
-0.003122587759623473,0.01197054932549641
-0.003122417759623472,0.01266173403834073
-0.003122247759623473,0.0120692899987587
-0.003122077759623473,0.0121022035565132
-0.003121907759623472,0.01177306797896769
-0.003121737759623472,0.01167432730570402
-0.003121567759623473,0.01104896970836857
-0.003121397759623472,0.01088440191959465
-0.003121227759623472,0.01002864941797616
-0.003121057759623473,0.0096007731671677
-0.003120887759623472,0.009074156243094007
-0.003120717759623472,0.009403291820639578
-0.003120547759623473,0.009041242685340109
-0.003120377759623472,0.008646279992284765
-0.003120207759623472,0.008514625761266537
-0.003120037759623473,0.007823441048422095
-0.003119867759623472,0.00653981229599311
-0.003119697759623472,0.007856354606175394
-0.003119527759623473,0.007230997008839947
-0.003119357759623472,0.007395564797611595
-0.003119187759623472,0.007527219028629823
-0.003119017759623473,0.007593046144138818
-0.003118847759623472,0.007724700375157166
-0.003118677759623472,0.007823441048420837
-0.003118507759623473,0.007527219028629823
-0.003118337759623472,0.007691786817402609
-0.003118167759623472,0.007988008837193623
-0.003117997759623473,0.008613366434530208
-0.003117827759623472,0.00904124268533945
-0.003117657759623472,0.009666600282676035
-0.003117487759623473,0.00973242739818515
-0.003117317759623472,0.01058817989980363
-0.003117147759623472,0.01091731547734921
-0.003116977759623473,0.01108188326612199
-0.003116807759623472,0.0114439324014223
-0.003116637759623472,0.01154267307468579
-0.003116467759623473,0.01197054932549503
-0.003116297759623472,0.01226677134528599
-0.003116127759623472,0.01223385778753149
-0.003115957759623473,0.01266173403834073
-0.003115787759623472,0.01253007980732316
-0.003115617759623472,0.01289212894262263
-0.003115447759623473,0.01315543740465909
-0.003115277759623472,0.0130566967313953
-0.003115107759623472,0.0129908696158863
-0.003114937759623473,0.01289212894262263
-0.003114767759623472,0.01302378317364092
-0.003114597759623472,0.01305669673139542
-0.003114427759623473,0.01361622721322289
-0.003114257759623472,0.01361622721322325
-0.003114087759623472,0.01381370855975023
-0.003113917759623473,0.01410993057954124
-0.003113747759623472,0.01394536279076918
-0.003113577759623472,0.01434032548382314
-0.003113407759623473,0.01417575769505036
-0.003113237759623472,0.01450489327259683
-0.003113067759623472,0.01499859663891429
-0.003112897759623473,0.01473528817687783
-0.003112727759623472,0.01568978135176112
-0.003112557759623472,0.01631513894909657
-0.003112387759623473,0.0155252135629872
-0.003112217759623473,0.01657844741113111
-0.003112047759623472,0.01628222539134202
-0.003111877759623473,0.01641387962236024
-0.003111707759623473,0.01641387962236024
-0.003111537759623472,0.01618348471807834
-0.003111367759623472,0.01585434914053277
-0.003111197759623473,0.01529481865870632
-0.003111027759623472,0.01457072038810504
-0.003110857759623472,0.01450489327259593
-0.003110687759623473,0.01378079500199699
-0.003110517759623472,0.01256299336507706
-0.003110347759623472,0.01295795605813175
-0.003110177759623473,0.01410993057953915
-0.003110007759623472,0.01410993057954124
-0.003109837759623472,0.0141428441372958
-0.003109667759623473,0.01404410346403231
-0.003109497759623472,0.01371496788648656
-0.003109327759623472,0.01312252384690453
-0.003109157759623473,0.01282630182711406
-0.003108987759623472,0.01213511711426782
-0.003108817759623472,0.01157558663244035
-0.003108647759623473,0.01088440191959591
-0.003108477759623472,0.01164141374794946
-0.003108307759623472,0.008745020665548437
-0.003108137759623473,0.0091728969163569
-0.003107967759623472,0.008942502012075779
-0.003107797759623472,0.008086749510457293
-0.003107627759623473,0.007823441048420837
-0.003107457759623472,0.007033515662311467
-0.003107287759623472,0.006506898738238553
-0.003107117759623473,0.006243590276202096
-0.003106947759623472,0.005782800467638296
-0.003106777759623472,0.00505870219703804
-0.003106607759623473,0.004597912388474241
-0.003106437759623472,0.004170036137663981
-0.003106267759623472,0.003610505655837527
-0.003106097759623473,0.003544678540328413
-0.003105927759623472,0.003709246329102097
-0.003105757759623472,0.004202949695419555
-0.003105587759623473,0.004433344599701455
-0.003105417759623472,0.005552405563357115
-0.003105247759623472,0.005947368256411082
-0.003105077759623473,0.006671466527011338
-0.003104907759623472,0.006967688546802592
-0.003104737759623472,0.007099342777820581
-0.003104567759623473,0.00677020720027501
-0.003104397759623472,0.00723099700883839
-0.003104227759623472,0.00700060210455691
-0.003104057759623473,0.007099342777820581
-0.003103887759623472,0.007296824124348103
-0.003103717759623472,0.007395564797611595
-0.003103547759623473,0.007691786817402609
-0.003103377759623472,0.00811966306821179
-0.003103207759623472,0.008086749510457293
-0.003103037759623473,0.007889268163929951
-0.003102867759623472,0.008646279992284704
-0.003102697759623472,0.008613366434530208
-0.003102527759623473,0.008942502012075779
-0.003102357759623472,0.008975415569831474
-0.003102187759623472,0.009600773167166921
-0.003102017759623473,0.009436205378394135
-0.003101847759623473,0.009633686724921119
-0.003101677759623472,0.009896995186957936
-0.003101507759623473,0.01035778499552173
-0.003101337759623473,0.01068692057306671
-0.003101167759623472,0.01104896970836743
-0.003100997759623472,0.01022613076450351
-0.003100827759623473,0.01085148836183895
-0.003100657759623472,0.01177306797896769
-0.003100487759623472,0.01157558663244035
-0.003100317759623473,0.01167432730570384
-0.003100147759623472,0.01226677134528605
-0.003099977759623472,0.0125300798073225
-0.003099807759623473,0.01272756115384949
-0.003099637759623472,0.01292504250037719
-0.003099467759623472,0.01341874586669555
-0.003099297759623473,0.0128263018271146
-0.003099127759623472,0.01295795605813175
-0.003098957759623472,0.0134516594244501
-0.003098787759623473,0.01246425269181519
-0.003098617759623472,0.01269464759609529
-0.003098447759623472,0.01239842557630427
-0.003098277759623473,0.01216803067202279
-0.003098107759623472,0.01210220355651326
-0.003097937759623472,0.01177306797896769
-0.003097767759623473,0.01144393240142272
-0.003097597759623472,0.01111479682387655
-0.003097427759623472,0.01104896970836743
-0.003097257759623473,0.01065400701531275
-0.003097087759623472,0.01029195788001262
-0.003096917759623472,0.01121353749714022
-0.003096747759623473,0.01101605615061288
-0.003096577759623472,0.01091731547734921
-0.003096407759623472,0.01065400701531275
-0.003096237759623473,0.01035778499552173
-0.003096067759623472,0.01068692057306731
-0.003095897759623472,0.01111479682387655
-0.003095727759623473,0.01101605615061288
-0.003095557759623472,0.01101605615061294
-0.003095387759623472,0.01104896970836743
-0.003095217759623473,0.01144393240142212
-0.003095047759623472,0.0118388950944771
-0.003094877759623472,0.01200346288324959
-0.003094707759623473,0.01210220355651326
-0.003094537759623472,0.01154267307468537
-0.003094367759623472,0.01131227817040389
-0.003094197759623473,0.01071983413082186
-0.003094027759623472,0.0105552663420474
-0.003093857759623472,0.009633686724921478
-0.003093687759623473,0.009469118936148692
-0.003093517759623472,0.008975415569829318
-0.003093347759623472,0.008415885088002865
-0.003093177759623473,0.008251317299230079
-0.003093007759623472,0.007658873259648351
-0.003092837759623472,0.007823441048420837
-0.003092667759623473,0.006901861431293239
-0.003092497759623472,0.00667146652701056
-0.003092327759623472,0.006243590276202096
-0.003092157759623473,0.006243590276202096
-0.003091987759623472,0.005552405563357474
-0.003091817759623472,0.006144849602938425
-0.003091647759623473,0.005947368256411082
-0.003091477759623472,0.008448798645754488
-0.003091307759623472,0.006836034315784124
-0.003091137759623473,0.007165169893329695
-0.003090967759623473,0.00805383595270112
-0.003090797759623472,0.00881084778105755
-0.003090627759623473,0.008975415569830336
-0.003090457759623473,0.01002864941797425
-0.003090287759623472,0.01029195788001262
