Analysis/New Tests_CMB/wrd01_d2s01_new/cmb12_ch11.csv

#Digilent WaveForms Oscilloscope Acquisition
#Device Name: ADP3450
#Serial Number: SN:210018B9D9B0
#Date Time: 2024-08-15 11:46:13.511.902.740
#Sample rate: 5.88235e+06Hz
#Samples: 32768
#Trigger: Source: Channel 3 Type: Edge Condition: Rising Level: 40 mV Hyst.: Auto HoldOff: 0 s
#Channel 3: Range: 100 mV/div Offset: 0 V Attenuation: 1 X Coupling: DC Bandwidth: 0 Hz Sample Mode: Average

Time (s),Channel 3 (V)
-0.003168906504924224,0.01822412529886088
-0.003168736504924224,0.01743419991275044
-0.003168566504924224,0.01684175587316948
-0.003168396504924224,0.01710506433520594
-0.003168226504924224,0.01687466943092386
-0.003168056504924224,0.01677592875766037
-0.003167886504924224,0.01694049654643316
-0.003167716504924224,0.01756585414376896
-0.003167546504924224,0.0171379778929605
-0.003167376504924224,0.01766459481703341
-0.003167206504924224,0.01736837279724126
-0.003167036504924224,0.01674301519990581
-0.003166866504924224,0.01796081683682443
-0.003166696504924224,0.01694049654643321
-0.003166526504924224,0.01697341010418771
-0.003166356504924224,0.01684175587316948
-0.003166186504924224,0.01730254568173262
-0.003166016504924224,0.01694049654643316
-0.003165846504924224,0.0169075829886786
-0.003165676504924224,0.01684175587316877
-0.003165506504924224,0.0164467931801148
-0.003165336504924224,0.01601891692930556
-0.003165166504924224,0.01562395423625159
-0.003164996504924224,0.01509733731217796
-0.003164826504924224,0.01420867125280492
-0.003164656504924224,0.01341874586669698
-0.003164486504924224,0.01266173403834073
-0.003164316504924224,0.01220094422977693
-0.003164146504924224,0.01154267307468699
-0.003163976504924224,0.01131227817040389
-0.003163806504924224,0.01091731547734921
-0.003163636504924224,0.01187180865222963
-0.003163466504924224,0.01075274768857642
-0.003163296504924224,0.01062109345755819
-0.003163126504924224,0.01009447653348624
-0.003162956504924224,0.01068692057306731
-0.003162786504924224,0.01118062393938566
-0.003162616504924224,0.01118062393938566
-0.003162446504924224,0.01131227817040389
-0.003162276504924224,0.01187180865223136
-0.003162106504924224,0.01193763576774036
-0.003161936504924224,0.01226677134528605
-0.003161766504924224,0.01233259846079516
-0.003161596504924224,0.01206928999875918
-0.003161426504924224,0.01216803067202238
-0.003161256504924224,0.01144393240142212
-0.003161086504924224,0.01095022903510466
-0.003160916504924224,0.01101605615061288
-0.003160746504924224,0.01150975951693123
-0.003160576504924224,0.01052235278429452
-0.003160406504924224,0.01085148836184009
-0.003160236504924224,0.01019321720674895
-0.003160066504924224,0.009798254513694264
-0.003159896504924224,0.01025904432225806
-0.003159726504924224,0.01002864941797616
-0.003159556504924224,0.009962822302467049
-0.003159386504924224,0.01009447653348713
-0.003159216504924224,0.01111479682387655
-0.003159046504924224,0.01029195788001262
-0.003158876504924224,0.01042361211103055
-0.003158706504924224,0.01025904432225806
-0.003158536504924224,0.01088440191959465
-0.003158366504924224,0.01065400701531323
-0.003158196504924224,0.01091731547734921
-0.003158026504924224,0.01071983413082186
-0.003157856504924224,0.010259044322258
-0.003157686504924224,0.01022613076450351
-0.003157516504924224,0.009600773167166921
-0.003157346504924224,0.009139983358602582
-0.003157176504924224,0.008843761338812107
-0.003157006504924224,0.008481712203511979
-0.003156836504924224,0.008284230856984336
-0.003156666504924224,0.00811966306821185
-0.003156496504924224,0.00802092239494818
-0.003156326504924224,0.008251317299230079
-0.003156156504924224,0.008251317299230079
-0.003155986504924224,0.008876674896566664
-0.003155816504924224,0.008975415569831054
-0.003155646504924224,0.009370378262885021
-0.003155476504924224,0.01025904432225806
-0.003155306504924224,0.01091731547735016
-0.003155136504924224,0.01144393240142212
-0.003154966504924224,0.01200346288324959
-0.003154796504924224,0.01213511711426758
-0.003154626504924224,0.01259590692283162
-0.003154456504924224,0.0125300798073225
-0.003154286504924224,0.01220094422977753
-0.003154116504924224,0.01220094422977693
-0.003153946504924224,0.01164141374794946
-0.003153776504924224,0.01203637644100343
-0.003153606504924224,0.01197054932549503
-0.003153436504924224,0.01177306797896769
-0.003153266504924224,0.01180598153672219
-0.003153096504924224,0.0118388950944768
-0.003152926504924224,0.01114771038163111
-0.003152756504924224,0.01078566124633164
-0.003152586504924224,0.01081857480408553
-0.003152416504924224,0.009666600282676035
-0.003152246504924224,0.01048943922653847
-0.003152076504924224,0.009995735860221606
-0.003151906504924224,0.01009447653348528
-0.003151736504924224,0.009205810474113852
-0.003151566504924224,0.008415885088002865
-0.003151396504924224,0.009205810474112236
-0.003151226504924224,0.00795509527944134
-0.003151056504924224,0.00802092239494818
-0.003150886504924224,0.007625959701893495
-0.003150716504924224,0.008382971530246931
-0.003150546504924224,0.007625959701893495
-0.003150376504924224,0.007066429220066024
-0.003150206504924224,0.006836034315784124
-0.003150036504924224,0.006144849602938425
-0.003149866504924224,0.005980281814165639
-0.003149696504924224,0.006408158064974882
-0.003149526504924224,0.006342330949465767
-0.003149356504924224,0.006276503833956653
-0.003149186504924224,0.006967688546802352
-0.003149016504924224,0.007132256335575138
-0.003148846504924224,0.007362651239857037
-0.003148676504924224,0.007165169893329695
-0.003148506504924224,0.007099342777819624
-0.003148336504924224,0.006572725853747667
-0.003148166504924224,0.005947368256411082
-0.003147996504924224,0.005716973352129361
-0.003147826504924224,0.005815714025392853
-0.003147656504924224,0.006046108929674754
-0.003147486504924224,0.005947368256411262
-0.003147316504924224,0.006046108929674754
-0.003147146504924224,0.005782800467638296
-0.003146976504924224,0.005716973352129302
-0.003146806504924224,0.005782800467638296
-0.003146636504924224,0.005585319121110954
-0.003146466504924224,0.005782800467637698
-0.003146296504924224,0.005453664890092726
-0.003146126504924224,0.005585319121110954
-0.003145956504924224,0.005716973352129002
-0.003145786504924224,0.005618232678865511
-0.003145616504924224,0.005256183543565383
-0.003145446504924224,0.005058702197037382
-0.003145276504924224,0.004696653061737912
-0.003145106504924224,0.00528909710131994
-0.003144936504924224,0.005091615754793435
-0.003144766504924224,0.005552405563356397
-0.003144596504924224,0.005387837774583611
-0.003144426504924224,0.005716973352129661
-0.003144256504924224,0.005980281814165639
-0.003144086504924224,0.005716973352129182
-0.003143916504924224,0.006177763160692144
-0.003143746504924224,0.005322010659074497
-0.003143576504924224,0.005519492005601839
-0.003143406504924224,0.005552405563356337
-0.003143236504924224,0.005914454698656525
-0.003143066504924224,0.005716973352129182
-0.003142896504924224,0.005914454698656165
-0.003142726504924224,0.006013195371920196
-0.003142556504924224,0.00630941739171121
-0.003142386504924224,0.006737293642519675
-0.003142216504924224,0.006868947873538681
-0.003142046504924224,0.007625959701893495
-0.003141876504924224,0.008251317299228941
-0.003141706504924224,0.008547539319021094
-0.003141536504924224,0.00811966306821185
-0.003141366504924224,0.007922181721684867
-0.003141196504924224,0.00779052749066628
-0.003141026504924224,0.007329737682102481
-0.003140856504924224,0.007099342777821
-0.003140686504924224,0.006967688546802352
-0.003140516504924224,0.006408158064974882
-0.003140346504924224,0.005190356428058484
-0.003140176504924224,0.004927047966019811
-0.003140006504924224,0.004795393735001583
-0.003139836504924224,0.003939641233383098
-0.003139666504924224,0.00380798700236487
-0.003139496504924224,0.003281370078291956
-0.003139326504924224,0.002952234500746385
-0.003139156504924224,0.002623098923200814
-0.003138986504924224,0.002721839596464486
-0.003138816504924224,0.002590185365446257
-0.003138646504924224,0.002392704018918914
-0.003138476504924224,0.002623098923200814
-0.003138306504924224,0.002886407385237271
-0.003138136504924224,0.003215542962783201
-0.003137966504924224,0.003413024309310185
-0.003137796504924224,0.003511764982573856
-0.003137626504924224,0.003906727675628661
-0.003137456504924224,0.003972554791137656
-0.003137286504924224,0.004499171715210569
-0.003137116504924224,0.004532085272964767
-0.003136946504924224,0.004334603926437783
-0.003136776504924224,0.005157442870301712
-0.003136606504924224,0.005552405563357175
-0.003136436504924224,0.005980281814165639
-0.003136266504924224,0.006408158064974882
-0.003136096504924224,0.006770207200276566
-0.003135926504924224,0.007625959701893495
-0.003135756504924224,0.007955095279439066
-0.003135586504924224,0.007856354606175934
-0.003135416504924224,0.008152576625966409
-0.003135246504924224,0.008843761338812107
-0.003135076504924224,0.00769178681740237
-0.003134906504924224,0.00756013258638438
-0.003134736504924224,0.006638552969256781
-0.003134566504924224,0.006144849602937107
-0.003134396504924224,0.005420751332338168
-0.003134226504924224,0.00482830729275614
-0.003134056504924224,0.004828307292756439
-0.003133886504924224,0.004992875081528926
-0.003133716504924224,0.005256183543565383
-0.003133546504924224,0.006046108929673316
-0.003133376504924224,0.005782800467638296
-0.003133206504924224,0.006441071622729439
-0.003133036504924224,0.006441071622729439
-0.003132866504924224,0.007461391913120709
-0.003132696504924224,0.007625959701893495
-0.003132526504924224,0.008185490183719947
-0.003132356504924224,0.008350057972493751
-0.003132186504924224,0.008350057972493751
-0.003132016504924224,0.008185490183721266
-0.003131846504924224,0.008317144414739193
-0.003131676504924224,0.008415885088002865
-0.003131506504924224,0.008284230856984875
-0.003131336504924224,0.008218403741475522
-0.003131166504924224,0.007658873259648051
-0.003130996504924224,0.00756013258638456
-0.003130826504924224,0.007658873259648051
-0.003130656504924224,0.007395564797611595
-0.003130486504924224,0.007198083451084612
-0.003130316504924224,0.006934774989047795
-0.003130146504924224,0.006704380084765896
-0.003129976504924224,0.006967688546801873
-0.003129806504924224,0.007296824124347924
-0.003129636504924224,0.008218403741475522
-0.003129466504924224,0.008152576625966529
-0.003129296504924224,0.008679193550039321
-0.003129126504924224,0.008448798645757422
-0.003128956504924224,0.00871210710779388
-0.003128786504924224,0.009139983358603122
-0.003128616504924224,0.009107069800848565
-0.003128446504924224,0.009370378262885021
-0.003128276504924224,0.009238724031866792
-0.003128106504924224,0.009666600282676035
-0.003127936504924224,0.009864081629203377
-0.003127766504924224,0.009666600282675734
-0.003127596504924224,0.00950203249390325
-0.003127426504924224,0.009205810474112236
-0.003127256504924224,0.009041242685338671
-0.003127086504924224,0.008613366434530208
-0.003126916504924224,0.008218403741475522
-0.003126746504924224,0.007889268163928454
-0.003126576504924224,0.007066429220066024
-0.003126406504924224,0.006572725853747667
-0.003126236504924224,0.006605639411500069
-0.003126066504924224,0.005420751332338168
-0.003125896504924224,0.005091615754792597
-0.003125726504924224,0.00463082594622772
-0.003125556504924224,0.00403838190664677
-0.003125386504924224,0.003610505655837527
-0.003125216504924224,0.003972554791137955
-0.003125046504924224,0.004137122579910441
-0.003124876504924224,0.003182629405028285
-0.003124706504924224,0.003610505655837109
-0.003124536504924224,0.003380110751555628
-0.003124366504924224,0.003314283636046514
-0.003124196504924224,0.003413024309310484
-0.003124026504924224,0.00357759209808297
-0.003123856504924224,0.003511764982573856
-0.003123686504924224,0.003676332771346881
-0.003123516504924224,0.00380798700236487
-0.003123346504924224,0.003445937867064742
-0.003123176504924224,0.003742159886855217
-0.003123006504924224,0.003544678540328413
-0.003122836504924224,0.003742159886855756
-0.003122666504924224,0.002326876903412375
-0.003122496504924224,0.004729566619492469
-0.003122326504924224,0.003939641233383098
-0.003122156504924224,0.00380798700236511
-0.003121986504924224,0.003742159886855756
-0.003121816504924224,0.003972554791137656
-0.003121646504924224,0.004071295464401148
-0.003121476504924224,0.004202949695419555
-0.003121306504924224,0.003676332771346642
-0.003121136504924224,0.00334719719380167
-0.003120966504924224,0.003413024309310185
-0.003120796504924224,0.003413024309310185
-0.003120626504924224,0.003577592098082671
-0.003120456504924224,0.00426877681092867
-0.003120286504924224,0.004433344599701455
-0.003120116504924224,0.00532201065907288
-0.003119946504924224,0.005453664890092726
-0.003119776504924224,0.00607902248742931
-0.003119606504924224,0.006671466527010261
-0.003119436504924224,0.007296824124347924
-0.003119266504924224,0.007230997008838809
-0.003119096504924224,0.00795509527943775
-0.003118926504924224,0.007856354606175394
-0.003118756504924224,0.00811966306821185
-0.003118586504924224,0.007461391913120709
-0.003118416504924224,0.007428478355366152
-0.003118246504924224,0.008152576625966409
-0.003118076504924224,0.00756013258638438
-0.003117906504924224,0.007362651239857037
-0.003117736504924224,0.007165169893329695
-0.003117566504924224,0.006572725853747667
-0.003117396504924224,0.006408158064974882
-0.003117226504924224,0.006375244507220324
-0.003117056504924224,0.006144849602938425
-0.003116886504924224,0.006539812295993768
-0.003116716504924224,0.006901861431293239
-0.003116546504924224,0.006836034315784124
-0.003116376504924224,0.007395564797610997
-0.003116206504924224,0.007066429220066024
-0.003116036504924224,0.007461391913120709
-0.003115866504924224,0.007296824124348163
-0.003115696504924224,0.007428478355366152
-0.003115526504924224,0.006934774989047795
-0.003115356504924224,0.006309417391710372
-0.003115186504924224,0.005848627583147411
-0.003115016504924224,0.005420751332338168
-0.003114846504924224,0.004828307292754583
-0.003114676504924224,0.003972554791137656
-0.003114506504924224,0.003380110751555628
-0.003114336504924224,0.002919320942990332
-0.003114166504924224,0.002096481999127901
-0.003113996504924224,0.00176734642158233
-0.003113826504924224,0.001273643055266427
-0.003113656504924224,0.002623098923200814
-0.003113486504924224,0.002392704018918914
-0.003113316504924224,0.001931914210355235
-0.003113146504924224,0.001997741325864229
-0.003112976504924224,0.002458531134428029
-0.003112806504924224,0.002919320942991589
-0.003112636504924224,0.0027876667119736
-0.003112466504924224,0.003775073444610313
-0.003112296504924224,0.004202949695418777
-0.003112126504924224,0.004597912388474241
-0.003111956504924224,0.005124529312547154
-0.003111786504924224,0.00492704796602017
-0.003111616504924224,0.005124529312547154
-0.003111446504924224,0.004729566619492469
-0.003111276504924224,0.00423586325317501
-0.003111106504924224,0.003775073444610313
-0.003110936504924224,0.003873814117873984
-0.003110766504924224,0.002886407385239067
-0.003110596504924224,0.002985148058500942
-0.003110426504924224,0.002754753154219042
-0.003110256504924224,0.00242561757667407
-0.003110086504924224,0.001899000652600558
-0.003109916504924224,0.001997741325864229
-0.003109746504924224,0.001076161708738306
-0.003109576504924224,0.001635692190564101
-0.003109406504924224,0.002096481999127901
-0.003109236504924224,0.002557271807690862
-0.003109066504924224,0.003413024309310185
-0.003108896504924224,0.004301690368683227
-0.003108726504924224,0.004992875081527669
-0.003108556504924224,0.005716973352129182
-0.003108386504924224,0.006375244507220324
-0.003108216504924224,0.007329737682100744
-0.003108046504924224,0.007428478355366152
-0.003107876504924224,0.008086749510457293
-0.003107706504924224,0.00802092239494818
-0.003107536504924224,0.008185490183720966
-0.003107366504924224,0.008350057972493751
-0.003107196504924224,0.008415885088002865
-0.003107026504924224,0.007856354606175394
-0.003106856504924224,0.007494305470875266
-0.003106686504924224,0.007132256335575138
-0.003106516504924224,0.007132256335575617
-0.003106346504924224,0.007395564797611595
-0.003106176504924224,0.007362651239857037
-0.003106006504924224,0.007461391913119991
-0.003105836504924224,0.007066429220066024
-0.003105666504924224,0.00756013258638438
-0.003105496504924224,0.007230997008839049
-0.003105326504924224,0.007362651239857037
-0.003105156504924224,0.007165169893329695
-0.003104986504924224,0.007560132586384979
-0.003104816504924224,0.007889268163929951
-0.003104646504924224,0.007625959701893495
-0.003104476504924224,0.007428478355364356
-0.003104306504924224,0.006441071622729439
-0.003104136504924224,0.007198083451084253
-0.003103966504924224,0.0071322563355743
-0.003103796504924224,0.006671466527011338
-0.003103626504924224,0.006210676718447538
-0.003103456504924224,0.006375244507220624
-0.003103286504924224,0.00653981229599311
-0.003103116504924224,0.006276503833956653
-0.003102946504924224,0.006309417391711569
-0.003102776504924224,0.006506898738238553
-0.003102606504924224,0.00653981229599311
-0.003102436504924224,0.006737293642520752
-0.003102266504924224,0.006901861431293239
-0.003102096504924224,0.00677020720027501
-0.003101926504924224,0.007625959701891938
-0.003101756504924224,0.007757613932911723
-0.003101586504924224,0.007230997008838809
-0.003101416504924224,0.007198083451084312
-0.003101246504924224,0.006836034315784124
-0.003101076504924224,0.006704380084765896
-0.003100906504924224,0.006441071622729918
-0.003100736504924224,0.006276503833956653
-0.003100566504924224,0.006210676718447538
-0.003100396504924224,0.005322010659076113
-0.003100226504924224,0.005420751332338168
-0.003100056504924224,0.004400431041946898
-0.003099886504924224,0.003939641233383936
-0.003099716504924224,0.003215542962782842
-0.003099546504924224,0.003116802289519171
-0.003099376504924224,0.002820580269728696
-0.003099206504924224,0.002754753154219042
-0.003099036504924224,0.002820580269728157
-0.003098866504924224,0.00338011075155461
-0.003098696504924224,0.004202949695419555
-0.003098526504924224,0.004334603926437783
-0.003098356504924224,0.00486122085050974
-0.003098186504924224,0.005420751332338168
-0.003098016504924224,0.005947368256411082
-0.003097846504924224,0.007066429220063988
-0.003097676504924224,0.007724700375157166
-0.003097506504924224,0.007988008837193623
-0.003097336504924224,0.008251317299230079
-0.003097166504924224,0.008975415569830336
-0.003096996504924224,0.009238724031866792
-0.003096826504924224,0.009699513840430593
-0.003096656504924224,0.009600773167166921
-0.003096486504924224,0.009896995186957936
-0.003096316504924224,0.008843761338812107
-0.003096146504924224,0.008481712203511979
-0.003095976504924224,0.008086749510457293
-0.003095806504924224,0.007593046144138938
-0.003095636504924224,0.007165169893328977
-0.003095466504924224,0.00677020720027501
-0.003095296504924224,0.006572725853747667
-0.003095126504924224,0.006342330949464211
-0.003094956504924224,0.005486578447847282
-0.003094786504924224,0.005354924216829054
-0.003094616504924224,0.005091615754791759
-0.003094446504924224,0.004630825946228797
-0.003094276504924224,0.004202949695419555
-0.003094106504924224,0.003972554791136938
-0.003093936504924224,0.00357759209808297
-0.003093766504924224,0.004532085272965126
-0.003093596504924224,0.003807987002365529
-0.003093426504924224,0.004170036137664999
-0.003093256504924224,0.003939641233383098
-0.003093086504924224,0.003511764982574754
-0.003092916504924224,0.004005468348892213
-0.003092746504924224,0.004334603926437783
-0.003092576504924224,0.005091615754792537
-0.003092406504924224,0.00505870219703804
-0.003092236504924224,0.005223269985810825
-0.003092066504924224,0.005091615754793615
-0.003091896504924224,0.005651146236620068
-0.003091726504924224,0.00505870219703804
-0.003091556504924224,0.005618232678865092
-0.003091386504924224,0.005387837774583611
-0.003091216504924224,0.005618232678865511
