Analysis/New Tests_CMB/wrd01_d2s01_new/cmb10_ch01.csv

#Digilent WaveForms Oscilloscope Acquisition
#Device Name: ADP3450
#Serial Number: SN:210018B9D9B0
#Date Time: 2024-08-14 16:59:29.072.524.400
#Sample rate: 5.88235e+06Hz
#Samples: 32768
#Trigger: Source: Channel 3 Type: Edge Condition: Rising Level: 60 mV Hyst.: Auto HoldOff: 0 s
#Channel 3: Range: 100 mV/div Offset: 0 V Attenuation: 1 X Coupling: DC Bandwidth: 0 Hz Sample Mode: Average

Time (s),Channel 3 (V)
-0.003798525341102285,0.2057655773843273
-0.003798355341102284,0.2202804563541096
-0.003798185341102284,0.2327217811853095
-0.003798015341102285,0.2438465637063499
-0.003797845341102284,0.2531281869931486
-0.003797675341102284,0.260632478161174
-0.003797505341102285,0.2663594372104669
-0.003797335341102284,0.2705394590453001
-0.003797165341102284,0.2730079758768875
-0.003796995341102284,0.2742586910715606
-0.003796825341102284,0.2743903453025766
-0.003796655341102284,0.2731725436656602
-0.003796485341102284,0.2714939522201778
-0.003796315341102284,0.2691570896195983
-0.003796145341102284,0.2658986474019031
-0.003795975341102284,0.262936427203993
-0.003795805341102284,0.2593488494087393
-0.003795635341102284,0.2554979631514631
-0.003795465341102284,0.2515154226631616
-0.003795295341102284,0.2477303635213795
-0.003795125341102284,0.2432870332245224
-0.003794955341102284,0.2395019740827483
-0.003794785341102285,0.2357169149409811
-0.003794615341102284,0.2313064982018636
-0.003794445341102284,0.2278505746376351
-0.003794275341102285,0.2236047256873049
-0.003794105341102284,0.2199184072187868
-0.003793935341102284,0.2159029531727309
-0.003793765341102285,0.2124470296085086
-0.003793595341102284,0.2085961433512192
-0.003793425341102284,0.2049427384404633
-0.003793255341102285,0.2020134318003131
-0.003793085341102284,0.1979321506387427
-0.003792915341102284,0.1960560778467329
-0.003792745341102285,0.1921064509161933
-0.003792575341102284,0.1892429713915396
-0.003792405341102284,0.1862478376358749
-0.003792235341102285,0.1833185309957246
-0.003792065341102284,0.1803563107978092
-0.003791895341102284,0.1773940905998991
-0.003791725341102285,0.1746622653062758
-0.003791555341102284,0.1722266620324336
-0.003791385341102284,0.1697581452008418
-0.003791215341102285,0.166993406349464
-0.003791045341102284,0.1647223708643946
-0.003790875341102284,0.1615297557622025
-0.003790705341102285,0.1589295846995972
-0.003790535341102284,0.1560990187327006
-0.003790365341102284,0.152873490072754
-0.003790195341102285,0.1495821342972983
-0.003790025341102284,0.1465870005416336
-0.003789855341102284,0.1438880888057599
-0.003789685341102285,0.1412550041853954
-0.003789515341102284,0.1382927839874852
-0.003789345341102284,0.1358900942714025
-0.003789175341102285,0.1332240960932834
-0.003789005341102284,0.1307226657039339
-0.003788835341102284,0.1289782471429455
-0.003788665341102285,0.1269046930044084
-0.003788495341102284,0.124765311750358
-0.003788325341102284,0.1224613627075432
-0.003788155341102285,0.1213093881861337
-0.003787985341102284,0.1190383527010659
-0.003787815341102284,0.1171951934668141
-0.003787645341102285,0.1153520342325589
-0.003787475341102284,0.1136076156715645
-0.003787305341102284,0.1120277648993486
-0.003787135341102285,0.1103491734538662
-0.003786965341102284,0.1083414464308354
-0.003786795341102284,0.1067615956586195
-0.003786625341102284,0.1053463126751736
-0.003786455341102284,0.1032069314211242
-0.003786285341102284,0.1014625128601358
-0.003786115341102284,0.09945478583710782
-0.003785945341102284,0.09764454016060373
-0.003785775341102284,0.09573555381084287
-0.003785605341102284,0.09395822169209678
-0.003785435341102284,0.09145679130274721
-0.003785265341102284,0.08967945918400436
-0.003785095341102284,0.08757299148771272
-0.003784925341102284,0.08576274581120871
-0.003784755341102284,0.08391958657695686
-0.003784585341102284,0.08266887138228371
-0.003784415341102285,0.0813852426298583
-0.003784245341102284,0.08029909522395559
-0.003784075341102284,0.07980539185763724
-0.003783905341102285,0.07865341733622984
-0.003783735341102284,0.07783057839236379
-0.003783565341102284,0.07555954290729935
-0.003783395341102285,0.07648112252442528
-0.003783225341102284,0.07539497511852658
-0.003783055341102284,0.07503292598322645
-0.003782885341102285,0.07434174127038203
-0.003782715341102284,0.07391386501957151
-0.003782545341102284,0.07388095146181695
-0.003782375341102285,0.073288507422236
-0.003782205341102284,0.07276189049816201
-0.003782035341102284,0.07210361934307086
-0.003781865341102285,0.07118203972594496
-0.003781695341102284,0.07058959568636125
-0.003781525341102284,0.06976675674249733
-0.003781355341102285,0.06854895510558093
-0.003781185341102284,0.06769320260396022
-0.003781015341102284,0.06578421625419589
-0.003780845341102285,0.06440184682850701
-0.003780675341102284,0.06308530451832223
-0.003780505341102284,0.06147254018834892
-0.003780335341102285,0.06009017076266004
-0.003780165341102284,0.05906985047226625
-0.003779995341102284,0.05795078950861131
-0.003779825341102285,0.05663424719842903
-0.003779655341102284,0.05591014892782877
-0.003779485341102284,0.05515313709947395
-0.003779315341102285,0.05386950834704623
-0.003779145341102284,0.0541986439245918
-0.003778975341102284,0.05386950834704623
-0.003778805341102285,0.05294792872991863
-0.003778635341102284,0.05222383045931837
-0.003778465341102284,0.05222383045931837
-0.003778295341102285,0.051433905073209
-0.003778125341102284,0.0504794118983275
-0.003777955341102284,0.05084146103362697
-0.003777785341102285,0.04968948651221747
-0.003777615341102284,0.04837294420203286
-0.003777445341102284,0.04708931544960747
-0.003777275341102285,0.04646395785227088
-0.003777105341102284,0.04521324265759651
-0.003776935341102284,0.04455497150250657
-0.003776765341102285,0.04327134275007884
-0.003776595341102284,0.04202062755540399
-0.003776425341102284,0.04109904793827807
-0.003776255341102285,0.04044077678318693
-0.003776085341102284,0.03942045649279381
-0.003775915341102284,0.03840013620240439
-0.003775745341102284,0.03807100062485882
-0.003775575341102284,0.0371494210077296
-0.003775405341102284,0.03626075494835818
-0.003775235341102284,0.03589870581305805
-0.003775065341102284,0.03501003975368364
-0.003774895341102284,0.03425302792533019
-0.003774725341102284,0.03395680590553918
-0.003774555341102284,0.03306813984616477
-0.003774385341102284,0.03231112801781132
-0.003774215341102284,0.03204781955577487
-0.003774045341102284,0.03079710436110266
-0.003773875341102284,0.03132372128517461
-0.003773705341102284,0.03076419080334714
-0.003773535341102285,0.03079710436110164
-0.003773365341102284,0.0307971043611017
-0.003773195341102284,0.03089584503436537
-0.003773025341102285,0.03109332638089235
-0.003772855341102284,0.03122498061191094
-0.003772685341102284,0.0307971043611017
-0.003772515341102285,0.03089584503436519
-0.003772345341102284,0.03076419080334714
-0.003772175341102284,0.0305667094568198
-0.003772005341102285,0.03040214166804731
-0.003771835341102284,0.02994135185948321
-0.003771665341102284,0.02944764849316486
-0.003771495341102285,0.02918434003112888
-0.003771325341102284,0.02865772310705549
-0.003771155341102284,0.02773614348992789
-0.003770985341102285,0.02720952656585593
-0.003770815341102284,0.02612337915995459
-0.003770645341102284,0.02579424358240902
-0.003770475341102285,0.0260246384866905
-0.003770305341102284,0.02546510800486345
-0.003770135341102284,0.02530054021609066
-0.003769965341102285,0.02530054021609066
-0.003769795341102284,0.025498021562618
-0.003769625341102284,0.02520179954282699
-0.003769455341102285,0.0250372317540542
-0.003769285341102284,0.02513597242731788
-0.003769115341102284,0.0243460470412085
-0.003768945341102285,0.0248068368497723
-0.003768775341102284,0.02447770127222673
-0.003768605341102284,0.02487266396528142
-0.003768435341102285,0.02474100973426319
-0.003768265341102284,0.02516888598507243
-0.003768095341102284,0.02520179954282699
-0.003767925341102285,0.02467518261875408
-0.003767755341102284,0.02447770127222667
-0.003767585341102284,0.02444478771447217
-0.003767415341102285,0.02395108434815382
-0.003767245341102284,0.0239181707903989
-0.003767075341102284,0.02372068944387192
-0.003766905341102285,0.02306241828878078
-0.003766735341102284,0.02309533184653438
-0.003766565341102284,0.02256871492246242
-0.003766395341102285,0.02233832001818052
-0.003766225341102284,0.02187753020961654
-0.003766055341102284,0.02177878953635305
-0.003765885341102285,0.02128508617003469
-0.003765715341102284,0.02092303703473444
-0.003765545341102284,0.02085720991922545
-0.003765375341102284,0.02033059299515254
-0.003765205341102284,0.02000145741760703
-0.003765035341102284,0.02003437097536152
-0.003764865341102284,0.01970523539781595
-0.003764695341102284,0.02085720991922192
-0.003764525341102284,0.01891531001170658
-0.003764355341102284,0.01878365578068835
-0.003764185341102284,0.01861908799191461
-0.003764015341102284,0.01809247106784265
-0.003763845341102284,0.01743419991275151
-0.003763675341102284,0.0169404965464325
-0.003763505341102284,0.01657844741113303
-0.003763335341102284,0.01654553385337847
-0.003763165341102285,0.01644679318011498
-0.003762995341102284,0.01631513894909657
-0.003762825341102284,0.0164467931801148
-0.003762655341102285,0.01651262029562379
-0.003762485341102284,0.01618348471807834
-0.003762315341102284,0.01647970673786936
-0.003762145341102285,0.01615057116032438
-0.003761975341102284,0.01588726269828733
-0.003761805341102284,0.01585434914053277
-0.003761635341102285,0.01601891692930526
-0.003761465341102284,0.01592017625604189
-0.003761295341102284,0.01601891692930556
-0.003761125341102285,0.01562395423625159
-0.003760955341102284,0.015986003371551
-0.003760785341102284,0.01578852202502366
-0.003760615341102285,0.01572269490951466
-0.003760445341102284,0.01568978135175999
-0.003760275341102284,0.01601891692930556
-0.003760105341102285,0.01605183048706006
-0.003759935341102284,0.01671010164215126
-0.003759765341102284,0.01707215077745139
-0.003759595341102285,0.01763168125927784
-0.003759425341102284,0.0178291626058062
-0.003759255341102284,0.01835577952987911
-0.003759085341102285,0.01884948289619657
-0.003758915341102284,0.01861908799191557
-0.003758745341102284,0.01898113712721569
-0.003758575341102285,0.01868491510742468
-0.003758405341102284,0.01911279135823393
-0.003758235341102284,0.0187507422229338
-0.003758065341102285,0.01832286597212456
-0.003757895341102284,0.01766459481703341
-0.003757725341102284,0.01674301519990581
-0.003757555341102285,0.0162163982758329
-0.003757385341102284,0.01526190510094973
-0.003757215341102284,0.01470237461912327
-0.003757045341102285,0.01440615259933226
-0.003756875341102284,0.01417575769505012
-0.003756705341102284,0.01404410346403213
-0.003756535341102285,0.01348457298220466
-0.003756365341102284,0.01295795605813151
-0.003756195341102284,0.01282630182711352
-0.003756025341102285,0.0122996849030406
-0.003755855341102284,0.0119047222099858
-0.003755685341102284,0.0118388950944768
-0.003755515341102285,0.01154267307468579
-0.003755345341102284,0.01164141374794743
-0.003755175341102284,0.01052235278429452
-0.003755005341102285,0.0120692899987587
-0.003754835341102284,0.0111806239393859
-0.003754665341102284,0.01131227817040389
-0.003754495341102284,0.01101605615061288
-0.003754325341102284,0.01131227817040395
-0.003754155341102284,0.01134519172815845
-0.003753985341102284,0.0118388950944768
-0.003753815341102284,0.01200346288325037
-0.003753645341102284,0.01243133913405883
-0.003753475341102284,0.01246425269181339
-0.003753305341102284,0.01305669673139697
-0.003753135341102284,0.0139124492330139
-0.003752965341102284,0.01358331365546833
-0.003752795341102285,0.01463654750361224
-0.003752625341102284,0.01539355933196897
-0.003752455341102284,0.01588726269828733
-0.003752285341102285,0.01661136096888626
-0.003752115341102284,0.01730254568173328
-0.003751945341102284,0.01763168125927886
-0.003751775341102285,0.01842160664538679
-0.003751605341102284,0.01888239645395202
-0.003751435341102284,0.01917861847374304
-0.003751265341102285,0.01875074222293457
-0.003751095341102284,0.02000145741760697
-0.003750925341102284,0.01845452020314278
-0.003750755341102285,0.01868491510742426
-0.003750585341102284,0.01809247106784265
-0.003750415341102284,0.01763168125927886
-0.003750245341102285,0.01723671856622489
-0.003750075341102284,0.01707215077745139
-0.003749905341102284,0.01651262029562391
-0.003749735341102285,0.01582143558277947
-0.003749565341102284,0.01519607798544163
-0.003749395341102284,0.01473528817687783
-0.003749225341102285,0.01434032548382386
-0.003749055341102284,0.01417575769505036
-0.003748885341102284,0.01401118990627757
-0.003748715341102285,0.01384662211750509
-0.003748545341102284,0.01417575769505036
-0.003748375341102284,0.01434032548382314
-0.003748205341102285,0.01424158481055947
-0.003748035341102284,0.01384662211750479
-0.003747865341102284,0.01332000519343187
-0.003747695341102285,0.01285921538486808
-0.003747525341102284,0.01223385778753149
-0.003747355341102284,0.01144393240142212
-0.003747185341102285,0.01042361211103085
-0.003747015341102284,0.009896995186957936
-0.003746845341102284,0.009304551147375908
-0.003746675341102285,0.008481712203511979
-0.003746505341102284,0.008251317299229061
-0.003746335341102284,0.007691786817402609
-0.003746165341102285,0.00811966306821185
-0.003745995341102284,0.007955095279441162
-0.003745825341102284,0.009107069800848565
-0.003745655341102285,0.007362651239857037
-0.003745485341102284,0.008481712203512338
-0.003745315341102284,0.008679193550039321
-0.003745145341102285,0.009403291820639578
-0.003744975341102284,0.01019321720675092
-0.003744805341102284,0.01127936461264933
-0.003744635341102285,0.01210220355651326
-0.003744465341102284,0.01292504250037857
-0.003744295341102284,0.013682054328732
-0.003744125341102284,0.01397827634852302
-0.003743955341102284,0.01434032548382506
-0.003743785341102284,0.01539355933196897
-0.003743615341102284,0.01545938644747809
-0.003743445341102284,0.01526190510095074
-0.003743275341102284,0.01526190510095074
-0.003743105341102284,0.01434032548382314
-0.003742935341102284,0.01364914077097631
-0.003742765341102284,0.01302378317364086
-0.003742595341102284,0.01200346288324959
-0.003742425341102284,0.01193763576773946
-0.003742255341102284,0.011378105285913
-0.003742085341102284,0.01104896970836743
-0.003741915341102285,0.01048943922654098
-0.003741745341102284,0.01032487143776718
-0.003741575341102284,0.01006156297573072
-0.003741405341102285,0.0102590443222577
-0.003741235341102284,0.01058817989980363
-0.003741065341102284,0.01078566124633098
-0.003740895341102285,0.01144393240142092
-0.003740725341102284,0.01210220355651326
-0.003740555341102284,0.01262882048058617
-0.003740385341102285,0.01312252384690363
-0.003740215341102284,0.01328709163567732
-0.003740045341102284,0.01384662211750479
-0.003739875341102285,0.01407701702178627
-0.003739705341102284,0.01447197971484137
-0.003739535341102284,0.01420867125280492
-0.003739365341102285,0.01414284413729592
-0.003739195341102284,0.01381370855975023
-0.003739025341102284,0.01410993057954124
-0.003738855341102285,0.0134845729822058
-0.003738685341102284,0.01328709163567732
-0.003738515341102284,0.01292504250037719
-0.003738345341102285,0.01259590692283222
-0.003738175341102284,0.01243133913405883
-0.003738005341102284,0.01200346288324959
-0.003737835341102285,0.01170724086345912
-0.003737665341102284,0.01131227817040389
-0.003737495341102284,0.01075274768857642
-0.003737325341102285,0.01052235278429452
-0.003737155341102284,0.01006156297573072
-0.003736985341102284,0.009896995186957936
-0.003736815341102285,0.01002864941797616
-0.003736645341102284,0.009567859609412364
-0.003736475341102284,0.009633686724921478
-0.003736305341102285,0.00811966306821185
-0.003736135341102284,0.009732427398183953
-0.003735965341102284,0.009074156243094007
-0.003735795341102285,0.008942502012075779
-0.003735625341102284,0.009304551147375969
-0.003735455341102284,0.009337464705130465
-0.003735285341102285,0.009995735860221606
-0.003735115341102284,0.009864081629204335
-0.003734945341102284,0.01039069855327629
-0.003734775341102285,0.01022613076450351
-0.003734605341102284,0.01065400701531233
-0.003734435341102284,0.01042361211103085
-0.003734265341102285,0.01022613076450351
-0.003734095341102284,0.01071983413082091
-0.003733925341102284,0.01019321720674895
-0.003733755341102284,0.01025904432225806
-0.003733585341102284,0.009798254513695162
-0.003733415341102284,0.01029195788001262
-0.003733245341102284,0.01039069855327629
-0.003733075341102284,0.01032487143776724
-0.003732905341102284,0.01035778499552173
-0.003732735341102284,0.01009447653348528
-0.003732565341102284,0.01025904432225914
-0.003732395341102284,0.01085148836184009
-0.003732225341102284,0.01068692057306731
-0.003732055341102284,0.01134519172815857
-0.003731885341102284,0.01141101884366756
-0.003731715341102284,0.01150975951693123
-0.003731545341102285,0.01144393240142224
-0.003731375341102284,0.01239842557630427
-0.003731205341102284,0.01279338826935896
-0.003731035341102285,0.01308961028914944
-0.003730865341102284,0.01335291875118643
-0.003730695341102284,0.01328709163567732
-0.003730525341102285,0.01332000519343181
-0.003730355341102284,0.01308961028914997
-0.003730185341102284,0.01272756115384985
-0.003730015341102285,0.0121022035565144
-0.003729845341102284,0.01223385778753149
-0.003729675341102284,0.01193763576774048
-0.003729505341102285,0.01154267307468651
-0.003729335341102284,0.01098314259285832
-0.003729165341102284,0.01091731547734921
-0.003728995341102285,0.01078566124633122
-0.003728825341102284,0.01065400701531275
-0.003728655341102284,0.01048943922653996
-0.003728485341102285,0.01085148836183943
-0.003728315341102284,0.01154267307468579
-0.003728145341102284,0.01098314259285832
-0.003727975341102285,0.0123655120185472
-0.003727805341102284,0.01213511711426782
-0.003727635341102284,0.01147684595917668
-0.003727465341102285,0.01154267307468567
-0.003727295341102284,0.01111479682387655
-0.003727125341102284,0.01114771038163111
-0.003726955341102285,0.009962822302467049
-0.003726785341102284,0.01150975951693123
-0.003726615341102284,0.009304551147375908
-0.003726445341102285,0.009436205378394135
-0.003726275341102284,0.009205810474112236
-0.003726105341102284,0.009139983358603122
-0.003725935341102285,0.009370378262885021
-0.003725765341102284,0.00904124268533945
-0.003725595341102284,0.009370378262885021
-0.003725425341102285,0.009929908744712493
-0.003725255341102284,0.01062109345755951
-0.003725085341102284,0.01134519172815845
-0.003724915341102285,0.01091731547734921
-0.003724745341102284,0.01177306797896811
-0.003724575341102284,0.01200346288324959
-0.003724405341102285,0.01256299336507706
-0.003724235341102284,0.01299086961588672
-0.003724065341102284,0.0132212645201682
-0.003723895341102285,0.01394536279076846
-0.003723725341102284,0.01361622721322247
-0.003723555341102284,0.01338583230894099
-0.003723385341102285,0.01364914077097745
-0.003723215341102284,0.01341874586669513
-0.003723045341102284,0.01318835096241365
-0.003722875341102284,0.01312252384690453
-0.003722705341102284,0.012990869615886
-0.003722535341102284,0.01282630182711352
-0.003722365341102284,0.01226677134528605
-0.003722195341102284,0.01197054932549461
-0.003722025341102284,0.01174015442121313
-0.003721855341102284,0.01141101884366756
-0.003721685341102284,0.0109831425928579
-0.003721515341102284,0.01075274768857642
-0.003721345341102284,0.01058817989980363
-0.003721175341102284,0.01095022903510346
-0.003721005341102284,0.01078566124633098
-0.003720835341102284,0.01035778499552173
-0.003720665341102285,0.01058817989980321
-0.003720495341102284,0.01065400701531275
-0.003720325341102284,0.01088440191959465
-0.003720155341102285,0.01098314259285814
-0.003719985341102284,0.01121353749714022
-0.003719815341102284,0.01131227817040389
-0.003719645341102285,0.01150975951693087
-0.003719475341102284,0.0118388950944768
-0.003719305341102284,0.01223385778753149
-0.003719135341102285,0.01243133913405847
