Analysis/New Tests_CMB/wrd01_d2s01_new/cmb10_ch47.csv

#Digilent WaveForms Oscilloscope Acquisition
#Device Name: ADP3450
#Serial Number: SN:210018B9D9B0
#Date Time: 2024-08-14 17:16:42.598.310.940
#Sample rate: 5.88235e+06Hz
#Samples: 32768
#Trigger: Source: Channel 3 Type: Edge Condition: Rising Level: 60 mV Hyst.: Auto HoldOff: 0 s
#Channel 3: Range: 100 mV/div Offset: 0 V Attenuation: 1 X Coupling: DC Bandwidth: 0 Hz Sample Mode: Average

Time (s),Channel 3 (V)
-0.00379852974183608,0.2026058758398898
-0.00379835974183608,0.2155409040374072
-0.00379818974183608,0.2268302543472233
-0.00379801974183608,0.2366055810003117
-0.003797849741836079,0.2450643653432796
-0.00379767974183608,0.2512192006433707
-0.00379750974183608,0.2563866292108361
-0.00379733974183608,0.2602375154681123
-0.00379716974183608,0.263133908550515
-0.00379699974183608,0.2646808457649789
-0.003796829741836079,0.2649112406692654
-0.00379665974183608,0.2643187966296844
-0.00379648974183608,0.2632655627815386
-0.00379631974183608,0.2609616137387237
-0.00379614974183608,0.2587893189269227
-0.00379597974183608,0.2553992224782117
-0.003795809741836079,0.2518445582407003
-0.00379563974183608,0.2480594990989332
-0.00379546974183608,0.2440769586106318
-0.00379529974183608,0.2400615045645831
-0.00379512974183608,0.2359802234030181
-0.00379495974183608,0.2321293371457415
-0.00379478974183608,0.2283113644462128
-0.003794619741836079,0.2243288239578975
-0.00379444974183608,0.2202475427963324
-0.00379427974183608,0.2163637429813017
-0.00379410974183608,0.212348288935246
-0.00379393974183608,0.2091227602753038
-0.00379376974183608,0.2036261961303011
-0.003793599741836079,0.2002690132393162
-0.00379342974183608,0.1961877320777511
-0.00379325974183608,0.191612747549876
-0.00379308974183608,0.1876302070615735
-0.00379291974183608,0.1834501852267528
-0.00379274974183608,0.1792043362764151
-0.003792579741836079,0.175912980500944
-0.00379240974183608,0.1715354773195879
-0.00379223974183608,0.1688036520259646
-0.00379206974183608,0.1658414318280549
-0.00379189974183608,0.1623196811483183
-0.00379172974183608,0.1593574609504125
-0.003791559741836079,0.1566585492145281
-0.00379138974183608,0.1538938103631453
-0.00379121974183608,0.1504049732411686
-0.00379104974183608,0.1478048021785569
-0.00379087974183608,0.1448425819806475
-0.00379070974183608,0.1421436702447782
-0.003790539741836079,0.1398726347597039
-0.00379036974183608,0.137864907736676
-0.00379019974183608,0.1357913535981389
-0.00379002974183608,0.1336519723440965
-0.00378985974183608,0.1321708622451403
-0.00378968974183608,0.1300643945488536
-0.003789519741836079,0.1282541488723453
-0.00378934974183608,0.1262135082915627
-0.00378917974183608,0.1243703490573076
-0.00378900974183608,0.1232183745359002
-0.00378883974183608,0.1202561543379933
-0.00378866974183608,0.1185775628925116
-0.003788499741836079,0.1175243290443555
-0.00378832974183608,0.1152532935592952
-0.00378815974183608,0.1138709241336038
-0.00378798974183608,0.111896110668334
-0.00378781974183608,0.1099212972030606
-0.00378764974183608,0.1074527803714742
-0.003787479741836079,0.1058071024837336
-0.00378730974183608,0.1037335483452002
-0.00378713974183608,0.1014295993023812
-0.00378696974183608,0.09952061295262041
-0.00378679974183608,0.09724957746755664
-0.00378662974183608,0.09471523352046082
-0.003786459741836079,0.09283916072843806
-0.00378628974183608,0.09076560658990473
-0.00378611974183608,0.0884287439893312
-0.00378594974183608,0.08628936273528887
-0.00378577974183608,0.08424872215450614
-0.00378560974183608,0.0827017849400439
-0.003785439741836079,0.08141815618760892
-0.00378526974183608,0.08052949012823749
-0.00378509974183608,0.07931168849131887
-0.00378492974183608,0.07835719531643846
-0.00378475974183608,0.07651403608218488
-0.00378458974183608,0.07727104791053357
-0.00378441974183608,0.07430882771263699
-0.003784249741836079,0.07404551925058975
-0.00378407974183608,0.07276189049816201
-0.00378390974183608,0.07193905155429958
-0.00378373974183608,0.07075416347513618
-0.00378356974183608,0.06979967030025533
-0.00378339974183608,0.06851604154782881
-0.003783229741836079,0.06736406702641465
-0.00378305974183608,0.06568547558093224
-0.00378288974183608,0.06436893327075234
-0.00378271974183608,0.06328278586485153
-0.00378254974183608,0.062789082498533
-0.00378237974183608,0.06167002153488034
-0.003782209741836079,0.06081426903325778
-0.00378203974183608,0.06048513345571221
-0.00378186974183608,0.05969520806960427
-0.00378169974183608,0.0589052826834949
-0.00378152974183608,0.05834575220166702
-0.00378135974183608,0.05752291325780506
-0.003781189741836079,0.05670007431393814
-0.00378101974183608,0.056041803158847
-0.00378084974183608,0.05525187777273907
-0.00378067974183608,0.05426447104010271
-0.00378050974183608,0.05288210161441203
-0.00378033974183608,0.05179595420851308
-0.003780169741836079,0.04998570853200849
-0.00377999974183608,0.04896538824161722
-0.00377982974183608,0.04774758660469861
-0.00377965974183608,0.04610190871697374
-0.00377948974183608,0.04494993419556335
-0.00377931974183608,0.04360047832762932
-0.003779149741836079,0.04205354111316023
-0.00377897974183608,0.04060534457195972
-0.00377880974183608,0.03974959207034123
-0.00377863974183608,0.03866344466444283
-0.00377846974183608,0.03813682774036889
-0.00377829974183608,0.037313988796507
-0.003778129741836079,0.03675445831467629
-0.00377795974183608,0.0366228040836583
-0.00377778974183608,0.03668863119916742
-0.00377761974183608,0.03668863119916742
-0.00377744974183608,0.03652406341039494
-0.00377727974183608,0.03665571764141239
-0.003777109741836079,0.03642532273713156
-0.00377693974183608,0.03675445831467653
-0.00377676974183608,0.03616201427509451
-0.00377659974183608,0.03629366850611249
-0.00377642974183608,0.03579996513979528
-0.00377625974183608,0.03566831090877663
-0.003776089741836079,0.03458216350287451
-0.00377591974183608,0.03389097879003006
-0.00377574974183608,0.03296939917290247
-0.00377557974183608,0.03178451109374057
-0.00377540974183608,0.030764190803349
-0.00377523974183608,0.03000717897499508
-0.003775069741836079,0.02918434003112696
-0.00377489974183608,0.02839441464501903
-0.00377472974183608,0.0271107858925913
-0.00377455974183608,0.02668290964178284
-0.00377438974183608,0.02599172492893762
-0.00377421974183608,0.02536636733160205
-0.003774049741836079,0.02500431819629713
-0.003773879741836079,0.02362194877060825
-0.00377370974183608,0.02309533184653534
-0.00377353974183608,0.02210792511390042
-0.00377336974183608,0.02095595059249122
-0.00377319974183608,0.02042933366841812
-0.00377302974183608,0.02036350655290733
-0.003772859741836079,0.01871782866517924
-0.00377268974183608,0.01861908799191557
-0.00377251974183608,0.0182899524143706
-0.00377234974183608,0.01717089145071709
-0.00377217974183608,0.01723671856622393
-0.00377200974183608,0.01763168125927742
-0.003771839741836079,0.01750002702826063
-0.00377166974183608,0.01822412529886088
-0.00377149974183608,0.01815829818335189
-0.00377132974183608,0.01822412529886076
-0.00377115974183608,0.01786207616356207
-0.00377098974183608,0.01733545923948976
-0.003770819741836079,0.01720380500846961
-0.00377064974183608,0.01680884231541493
-0.00377047974183608,0.01641387962236096
-0.00377030974183608,0.01592017625604279
-0.00377013974183608,0.01545938644747892
-0.00376996974183608,0.01463654750361715
-0.003769799741836079,0.01427449836831403
-0.00376962974183608,0.01355040009771377
-0.00376945974183608,0.01332000519343187
-0.00376928974183608,0.01279338826935992
-0.00376911974183608,0.01269464759609547
-0.00376894974183608,0.01236551201855091
-0.003768779741836079,0.01243133913405883
-0.00376860974183608,0.01246425269181339
-0.00376843974183608,0.01272756115384985
-0.00376826974183608,0.01312252384690381
-0.00376809974183608,0.01341874586669501
-0.00376792974183608,0.01345165942444998
-0.003767759741836079,0.01355040009771353
-0.00376758974183608,0.01341874586669555
-0.00376741974183608,0.01397827634852302
-0.00376724974183608,0.01381370855975053
-0.00376707974183608,0.01404410346403171
-0.00376690974183608,0.01364914077097888
-0.003766739741836079,0.01312252384690357
-0.00376656974183608,0.01259590692283162
-0.00376639974183608,0.0125300798073225
-0.00376622974183608,0.01147684595917859
-0.00376605974183608,0.01101605615061371
-0.00376588974183608,0.01062109345755963
-0.003765719741836079,0.009205810474113792
-0.00376554974183608,0.01006156297573072
-0.00376537974183608,0.009403291820639578
-0.00376520974183608,0.008975415569831115
-0.00376503974183608,0.008580452876776369
-0.00376486974183608,0.007823441048423592
-0.003764699741836079,0.007560132586385517
-0.00376452974183608,0.008185490183720966
-0.00376435974183608,0.007593046144138938
-0.00376418974183608,0.008152576625965391
-0.00376401974183608,0.008415885088002386
-0.00376384974183608,0.008284230856985115
-0.003763679741836079,0.008712107107794478
-0.003763509741836079,0.00904124268533945
-0.00376333974183608,0.009074156243094007
-0.00376316974183608,0.008745020665549035
-0.00376299974183608,0.008382971530248967
-0.00376282974183608,0.008942502012073745
-0.00376265974183608,0.007593046144143847
-0.003762489741836079,0.008152576625966409
-0.00376231974183608,0.007461391913120709
-0.00376214974183608,0.007461391913120709
-0.00376197974183608,0.007461391913120709
-0.00376180974183608,0.007132256335576336
-0.00376163974183608,0.006967688546802951
-0.003761469741836079,0.006868947873538681
-0.00376129974183608,0.007132256335575138
-0.00376112974183608,0.007625959701892597
-0.00376095974183608,0.007856354606174974
-0.00376078974183608,0.008152576625965332
-0.00376061974183608,0.008185490183720846
-0.003760449741836079,0.008580452876775651
-0.00376027974183608,0.008745020665548437
-0.00376010974183608,0.00894250201207542
-0.00375993974183608,0.008843761338812288
-0.00375976974183608,0.008777934223303113
-0.00375959974183608,0.008777934223302994
-0.003759429741836079,0.008382971530248308
-0.00375925974183608,0.00802092239494818
-0.00375908974183608,0.007362651239858235
-0.00375891974183608,0.006901861431294076
-0.00375874974183608,0.006671466527011757
-0.00375857974183608,0.005980281814168154
-0.003758409741836079,0.004729566619492469
-0.00375823974183608,0.00482830729275614
-0.00375806974183608,0.004466258157456012
-0.00375789974183608,0.004564998830719504
-0.00375772974183608,0.004597912388474181
-0.00375755974183608,0.004400431041947616
-0.003757389741836079,0.004202949695420453
-0.00375721974183608,0.004696653061737912
-0.00375704974183608,0.004894134408265255
-0.00375687974183608,0.005354924216828216
-0.00375670974183608,0.00588154114090101
-0.00375653974183608,0.006506898738236278
-0.003756369741836079,0.0068360343157861
-0.00375619974183608,0.007922181721684508
-0.00375602974183608,0.006572725853747667
-0.00375585974183608,0.007329737682101103
-0.00375568974183608,0.007198083451084492
-0.00375551974183608,0.006770207200276566
-0.003755349741836079,0.006441071622728421
-0.00375517974183608,0.005881541140901968
-0.00375500974183608,0.005091615754792597
-0.00375483974183608,0.003906727675630697
-0.00375466974183608,0.003577592098083569
-0.00375449974183608,0.002524358249940975
-0.003754329741836079,0.0009115939199662394
-0.00375415974183608,0.002228136230146129
-0.00375398974183608,0.0005824583424182735
-0.00375381974183608,0.001043248150981235
-0.00375364974183608,0.0002204092071196422
-0.00375347974183608,0.0006153719001713938
-0.003753309741836079,0.0002204092071194027
-0.003753139741836079,0.0009115939199638446
-0.00375296974183608,0.001043248150982073
-0.00375279974183608,0.001602778632808526
-0.00375262974183608,0.001306556613019069
-0.00375245974183608,0.001866087094843965
-0.00375228974183608,0.001800259979337126
-0.003752119741836079,0.001866087094846001
-0.00375194974183608,0.002524358249937143
-0.00375177974183608,0.003083888731763596
-0.00375160974183608,0.003380110751555089
-0.00375143974183608,0.003577592098082252
-0.00375126974183608,0.003906727675627344
-0.003751099741836079,0.003840900560119427
-0.00375092974183608,0.004071295464401327
-0.00375075974183608,0.004334603926437305
-0.00375058974183608,0.004927047966018734
-0.00375041974183608,0.005157442870300874
-0.00375024974183608,0.005815714025390458
-0.003750079741836079,0.006210676718447538
-0.00374990974183608,0.006836034315784124
-0.00374973974183608,0.007263910566592588
-0.00374956974183608,0.007527219028629344
-0.00374939974183608,0.007263910566593845
-0.00374922974183608,0.007198083451084492
-0.003749059741836079,0.007066429220066024
-0.00374888974183608,0.006572725853747667
-0.00374871974183608,0.006408158064975181
-0.00374854974183608,0.006309417391711389
-0.00374837974183608,0.006046108929675232
-0.00374820974183608,0.005815714025393691
-0.003748039741836079,0.005947368256411082
-0.00374786974183608,0.005618232678865511
-0.00374769974183608,0.005684059794374625
-0.00374752974183608,0.005025788639284681
-0.00374735974183608,0.00565114623661893
-0.00374718974183608,0.005914454698655567
-0.003747019741836079,0.006046108929674754
-0.00374684974183608,0.005519492005601839
-0.00374667974183608,0.007033515662311467
-0.00374650974183608,0.006177763160694539
-0.00374633974183608,0.005519492005603036
-0.00374616974183608,0.005354924216829653
-0.003745999741836079,0.005058702197037442
-0.00374582974183608,0.004729566619492469
-0.00374565974183608,0.003939641233383098
-0.00374548974183608,0.002754753154221198
-0.00374531974183608,0.002721839596464545
-0.00374514974183608,0.002590185365446736
-0.003744979741836079,0.001240729497508817
-0.00374480974183608,0.0009115939199638446
-0.00374463974183608,0.001010334593227516
-0.00374446974183608,0.0008457668044550298
-0.00374429974183608,0.0009115939199637249
-0.00374412974183608,0.0007799396889460952
-0.003743959741836079,0.0007141125734376395
-0.00374378974183608,0.001339470170773087
-0.00374361974183608,0.0009445074777184018
-0.00374344974183608,0.0006811990156824238
-0.00374327974183608,0.001174902381999403
-0.00374310974183608,0.0006811990156837409
-0.003742939741836079,0.0008786803622084494
-0.00374276974183608,0.000417890553645488
-0.00374259974183608,0.000714112573436502
-0.00374242974183608,0.0005166312269095186
-0.00374225974183608,8.875497610069525e-05
-0.00374208974183608,0.0007141125734342269
-0.00374191974183608,0.0008457668044542514
-0.003741749741836079,0.0009774210354729588
-0.00374157974183608,0.00130655661301853
-0.00374140974183608,0.001273643055264033
-0.00374123974183608,0.002359790461162381
-0.00374106974183608,0.002721839596463169
-0.00374089974183608,0.003347197193798796
-0.003740729741836079,0.004005468348892213
-0.00374055974183608,0.004597912388474241
-0.00374038974183608,0.005091615754791699
-0.00374021974183608,0.005256183543565084
-0.00374004974183608,0.005684059794373068
-0.00373987974183608,0.005651146236620188
-0.003739709741836079,0.006013195371920196
-0.00373953974183608,0.005848627583147411
-0.00373936974183608,0.006473985180482858
-0.00373919974183608,0.005289097101322095
-0.00373902974183608,0.005618232678864912
-0.00373885974183608,0.004630825946232389
-0.003738689741836079,0.00403838190664677
-0.00373851974183608,0.003972554791137656
-0.00373834974183608,0.003775073444610672
-0.00373817974183608,0.003709246329101318
-0.00373800974183608,0.002919320942993265
-0.00373783974183608,0.003182629405027327
-0.003737669741836079,0.002820580269728157
-0.00373749974183608,0.002656012480955371
-0.00373732974183608,0.004202949695419555
-0.00373715974183608,0.002985148058503158
-0.00373698974183608,0.003182629405027926
-0.00373681974183608,0.003083888731764973
-0.003736649741836079,0.003182629405028285
-0.00373647974183608,0.003215542962782842
-0.00373630974183608,0.003182629405028285
-0.00373613974183608,0.002326876903411357
-0.00373596974183608,0.002096481999128319
-0.00373579974183608,0.001899000652601276
-0.003735629741836079,0.001602778632809245
-0.00373545974183608,0.001438210844036758
-0.00373528974183608,0.0002204092071181454
-0.00373511974183608,0.0002533227648726427
-0.00373494974183608,8.87549761002163e-05
-0.00373477974183608,0.0003520634381354159
-0.003734609741836079,-4.289925491908977e-05
-0.00373443974183608,-0.0004707755057275538
-0.00373426974183608,5.584141834535986e-05
-0.00373409974183608,-0.0005036890634810932
-0.00373392974183608,-0.0006682568522545972
-0.00373375974183608,-0.0007011704100093339
-0.003733589741836079,-0.0003720348324637628
-0.00373341974183608,-0.0003062077169547683
-0.00373324974183608,0.0001545820916090312
-0.00373307974183608,0.0002533227648725229
-0.00373290974183608,0.0005824583424176748
-0.00373273974183608,0.001438210844033645
-0.003732569741836079,0.001339470170774464
-0.00373239974183608,0.002096481999127901
-0.00373222974183608,0.002491444692182586
-0.00373205974183608,0.003182629405027028
-0.00373188974183608,0.003511764982573258
-0.00373171974183608,0.004071295464399292
-0.00373154974183608,0.004137122579910201
-0.003731379741836079,0.004170036137664999
-0.00373120974183608,0.004433344599701455
-0.00373103974183608,0.004894134408264417
-0.00373086974183608,0.005749886909882183
-0.00373069974183608,0.005716973352129302
-0.00373052974183608,0.006210676718445742
-0.003730359741836079,0.005782800467638296
-0.00373018974183608,0.005782800467638296
-0.00373001974183608,0.005190356428057347
-0.00372984974183608,0.004268776810930346
-0.00372967974183608,0.004466258157455294
-0.00372950974183608,0.004038381906648326
-0.003729339741836079,0.003314283636046514
-0.00372916974183608,0.003149715847273728
-0.00372899974183608,0.00288640738523775
-0.00372882974183608,0.002688926038710287
-0.00372865974183608,0.001767346421585682
-0.00372848974183608,0.001273643055265769
-0.003728319741836079,0.0007799396889456162
-0.00372814974183608,0.0003849769958909309
-0.00372797974183608,0.0005824583424179143
-0.00372780974183608,0.0005824583424182735
-0.00372763974183608,0.0009774210354722404
-0.00372746974183608,0.001438210844035082
-0.003727299741836079,0.001438210844036758
-0.00372712974183608,0.001438210844036758
-0.00372695974183608,0.001635692190564101
-0.00372678974183608,0.001734432863827593
-0.00372661974183608,0.001504037959546292
-0.00372644974183608,0.001471124401791435
-0.003726279741836079,0.001010334593227516
-0.00372610974183608,0.0009115939199638446
-0.00372593974183608,-0.0005366026212366681
-0.00372576974183608,-0.000668256852254657
-0.00372559974183608,-0.0005036890634824103
-0.00372542974183608,-0.0004707755057276736
-0.003725259741836079,-0.0005036890634812727
-0.00372508974183608,-4.289925491831147e-05
-0.00372491974183608,0.0006153719001728307
-0.00372474974183608,0.0009115939199633058
-0.00372457974183608,0.001964827768107756
-0.00372440974183608,0.002886407385233918
-0.003724239741836079,0.003478851424820257
-0.00372406974183608,0.004005468348892213
-0.00372389974183608,0.004400431041946898
-0.00372372974183608,0.004894134408264357
-0.00372355974183608,0.005289097101319222
-0.00372338974183608,0.005420751332337689
-0.003723219741836079,0.00519035642805579
-0.00372304974183608,0.004927047966019811
-0.00372287974183608,0.004927047966019811
-0.00372270974183608,0.004663739503983834
-0.00372253974183608,0.004334603926438382
-0.00372236974183608,0.004564998830718846
-0.003722199741836079,0.004696653061738091
-0.00372202974183608,0.004795393735001583
-0.00372185974183608,0.004202949695419555
-0.00372168974183608,0.004663739503982517
-0.00372151974183608,0.004038381906647907
-0.00372134974183608,0.004301690368682269
-0.003721179741836079,0.003906727675628122
-0.003721009741836079,0.003676332771346642
-0.00372083974183608,0.003478851424819299
-0.00372066974183608,0.003742159886855277
-0.00372049974183608,0.00380798700236475
-0.00372032974183608,0.003709246329101558
-0.00372015974183608,0.003215542962784639
-0.003719989741836079,0.003445937867064742
-0.00371981974183608,0.003840900560119427
-0.00371964974183608,0.003610505655837946
-0.00371947974183608,0.003643419213592025
-0.00371930974183608,0.003413024309311023
-0.00371913974183608,0.003314283636046873
-0.003718969741836079,0.003380110751555628
-0.00371879974183608,0.003511764982573856
