Analysis/New Tests_CMB/wrd01_d2s01_new/cmb10_ch31.csv

#Digilent WaveForms Oscilloscope Acquisition
#Device Name: ADP3450
#Serial Number: SN:210018B9D9B0
#Date Time: 2024-08-14 17:11:18.697.366.330
#Sample rate: 5.88235e+06Hz
#Samples: 32768
#Trigger: Source: Channel 3 Type: Edge Condition: Rising Level: 60 mV Hyst.: Auto HoldOff: 0 s
#Channel 3: Range: 100 mV/div Offset: 0 V Attenuation: 1 X Coupling: DC Bandwidth: 0 Hz Sample Mode: Average

Time (s),Channel 3 (V)
-0.0037984708762929,0.2095835500838559
-0.0037983008762929,0.2229135409744273
-0.0037981308762929,0.2346636810928071
-0.003797960876292901,0.2444390077458963
-0.0037977908762929,0.2528319649733562
-0.0037976208762929,0.2596121578707827
-0.0037974508762929,0.2647137593227391
-0.0037972808762929,0.2690254353885782
-0.0037971108762929,0.2714610386624188
-0.003796940876292901,0.2727775809726008
-0.0037967708762929,0.2727775809726045
-0.0037966008762929,0.272152223375269
-0.0037964308762929,0.2705394590452956
-0.0037962608762929,0.2685646455800259
-0.0037960908762929,0.2656024253821175
-0.003795920876292901,0.262738945857476
-0.0037957508762929,0.2595134171975122
-0.0037955808762929,0.2557612716134995
-0.0037954108762929,0.2516470768941799
-0.0037952408762929,0.2473354008283408
-0.0037950708762929,0.2429249840892303
-0.003794900876292901,0.238843702927672
-0.003794730876292901,0.2347295082083525
-0.0037945608762929,0.2302532643537178
-0.0037943908762929,0.2268302543472438
-0.0037942208762929,0.2226502325124227
-0.0037940508762929,0.2187664326973844
-0.003793880876292901,0.214750978651336
-0.003793710876292901,0.2109330059518066
-0.0037935408762929,0.2070821196945096
-0.0037933708762929,0.2035932825725265
-0.0037932008762929,0.2002690132393223
-0.0037930308762929,0.1967472625595851
-0.003792860876292901,0.1940483508237148
-0.003792690876292901,0.1908228221637701
-0.0037925208762929,0.1878606019658482
-0.0037923508762929,0.1862478376358749
-0.0037921808762929,0.1820019886855448
-0.0037920108762929,0.1796322125272132
-0.003791840876292901,0.1768674736758312
-0.003791670876292901,0.1741356483822078
-0.0037915008762929,0.1713709095308151
-0.0037913308762929,0.1690340469302415
-0.0037911608762929,0.1660389131745823
-0.0037909908762929,0.1627804709568816
-0.003790820876292901,0.1602790405675339
-0.003790650876292901,0.1574155610428933
-0.0037904808762929,0.1547166493070092
-0.0037903108762929,0.1514252935315535
-0.0037901408762929,0.1490884309309799
-0.0037899708762929,0.1460932971753207
-0.003789800876292901,0.1429994227463925
-0.003789630876292901,0.1402346838950141
-0.0037894608762929,0.1373053772548485
-0.0037892908762929,0.1351659960008023
-0.0037891208762929,0.1330595283045106
-0.0037889508762929,0.1310518012814863
-0.0037887808762929,0.1287478522386678
-0.003788610876292901,0.1269376065621696
-0.0037884408762929,0.1246994846348498
-0.0037882708762929,0.1228563254005979
-0.0037881008762929,0.1208156848198154
-0.0037879308762929,0.1179522052951741
-0.0037877608762929,0.1167344036582525
-0.003787590876292901,0.1142988003844219
-0.0037874208762929,0.1125872953811709
-0.0037872508762929,0.1097238158565297
-0.0037870808762929,0.1077160888335016
-0.0037869108762929,0.1060704109457768
-0.0037867408762929,0.1037335483452045
-0.003786570876292901,0.1022524382462505
-0.0037864008762929,0.1009358959360608
-0.0037862308762929,0.09978392141465339
-0.0037860608762929,0.09780910794937997
-0.0037858908762929,0.09682170121674503
-0.0037857208762929,0.09537350467554537
-0.003785550876292901,0.09376074034557531
-0.0037853808762929,0.09231254380436624
-0.0037852108762929,0.09083143370541386
-0.0037850408762929,0.08948197783747702
-0.0037848708762929,0.08777047283424316
-0.0037847008762929,0.0859931407154972
-0.003784530876292901,0.08405124080798217
-0.003784360876292901,0.08280052561330647
-0.0037841908762929,0.08089153926353762
-0.0037840208762929,0.07894963935601876
-0.0037838508762929,0.07750144281482088
-0.0037836808762929,0.07615198694688384
-0.003783510876292901,0.07450630905915952
-0.003783340876292901,0.07309102607571273
-0.0037831708762929,0.07141243463022517
-0.0037830008762929,0.06927305337617895
-0.0037828308762929,0.07006297876228687
-0.0037826608762929,0.06736406702641956
-0.003782490876292901,0.0664424874092904
-0.003782320876292901,0.06519177221461842
-0.0037821508762929,0.0645664146172773
-0.0037819808762929,0.06397397057769527
-0.0037818108762929,0.06331569942260531
-0.0037816408762929,0.0622624655744602
-0.003781470876292901,0.06153836730385936
-0.003781300876292901,0.06061678768673379
-0.0037811308762929,0.06012308432041208
-0.0037809608762929,0.05897110979900258
-0.0037807908762929,0.05854323354819412
-0.0037806208762929,0.05772039460433091
-0.003780450876292901,0.05656842008292201
-0.003780280876292901,0.0556797540235501
-0.0037801108762929,0.05413281680908269
-0.0037799408762929,0.0539682490203099
-0.0037797708762929,0.05261879315237306
-0.0037796008762929,0.05140099151545666
-0.003779430876292901,0.05097311526464599
-0.003779260876292901,0.04939326449243221
-0.0037790908762929,0.04870207977958076
-0.0037789208762929,0.04807672218224418
-0.0037787508762929,0.04643104429451633
-0.0037785808762929,0.04603608160146236
-0.0037784108762929,0.04580568669718015
-0.003778240876292901,0.04478536640679218
-0.0037780708762929,0.04406126813618726
-0.0037779008762929,0.0435346512121153
-0.0037777308762929,0.04287638005702415
-0.0037775608762929,0.04129652928480829
-0.0037773908762929,0.04123070216929642
-0.003777220876292901,0.04034203610992649
-0.0037770508762929,0.03994707341686755
-0.0037768808762929,0.0393875429350411
-0.0037767108762929,0.03833430908689527
-0.0037765408762929,0.03767603793180534
-0.0037763708762929,0.03642532273713324
-0.003776200876292901,0.03573413802428778
-0.0037760308762929,0.03527334821572021
-0.0037758608762929,0.03458216350287577
-0.0037756908762929,0.03481255840715766
-0.0037755208762929,0.0343846821563492
-0.0037753508762929,0.03474673129164789
-0.003775180876292901,0.03497712619592961
-0.0037750108762929,0.03543791600449431
-0.0037748408762929,0.03547082956224881
-0.0037746708762929,0.03563539735102159
-0.0037745008762929,0.03550374312000361
-0.0037743308762929,0.03530626177347639
-0.003774160876292901,0.03491129908042277
-0.0037739908762929,0.03451633638736636
-0.0037738208762929,0.03435176859859387
-0.0037736508762929,0.03349601609697538
-0.0037734808762929,0.03188325176700502
-0.0037733108762929,0.03208073311352906
-0.003773140876292901,0.03092875859212412
-0.003772970876292901,0.029579302724188
-0.0037728008762929,0.02888811801133739
-0.0037726308762929,0.02869063666481004
-0.0037724608762929,0.0280981926252291
-0.0037722908762929,0.02767031637441955
-0.003772120876292901,0.02737409435462884
-0.003771950876292901,0.02730826723911889
-0.0037717808762929,0.02661708252627295
-0.0037716108762929,0.02724244012360953
-0.0037714408762929,0.02671582319953757
-0.0037712708762929,0.02674873675729111
-0.003771100876292901,0.02658416896851899
-0.003770930876292901,0.02536636733160421
-0.0037707608762929,0.0264196011797456
-0.0037705908762929,0.02602463848669092
-0.0037704208762929,0.02559676223588245
-0.0037702508762929,0.02464226906100125
-0.003770080876292901,0.02428021992570005
-0.003769910876292901,0.02401691146366389
-0.0037697408762929,0.02302950473102622
-0.0037695708762929,0.02263454203797154
-0.0037694008762929,0.02256871492246242
-0.0037692308762929,0.02263454203797141
-0.003769060876292901,0.0218446166518636
-0.003768890876292901,0.02184461665186217
-0.0037687208762929,0.02151548107431659
-0.0037685508762929,0.02240414713368964
-0.0037683808762929,0.02144965395880748
-0.0037682108762929,0.02131799972778949
-0.0037680408762929,0.02171296242084322
-0.003767870876292901,0.0216800488630895
-0.0037677008762929,0.02174587597859862
-0.0037675308762929,0.02181170309410761
-0.0037673608762929,0.02230540646042596
-0.0037671908762929,0.02220666578716247
-0.0037670208762929,0.0221408386716533
-0.003766850876292901,0.02263454203796974
-0.0037666808762929,0.02289785050000949
-0.0037665108762929,0.02372068944387192
-0.0037663408762929,0.02411565213692661
-0.0037661708762929,0.02444478771447157
-0.0037660008762929,0.02457644194549017
-0.003765830876292901,0.02451061482998153
-0.0037656608762929,0.02437896059896228
-0.0037654908762929,0.02395108434815382
-0.0037653208762929,0.02299659117327166
-0.0037651508762929,0.02395108434815208
-0.0037649808762929,0.02144965395881203
-0.003764810876292901,0.02079138280371873
-0.0037646408762929,0.02052807434167802
-0.0037644708762929,0.01950775405128861
-0.0037643008762929,0.01842160664538823
-0.0037641308762929,0.01832286597212474
-0.0037639608762929,0.01697341010419016
-0.003763790876292901,0.01763168125927646
-0.0037636208762929,0.01707215077745228
-0.0037634508762929,0.01756585414376974
-0.0037632808762929,0.01726963212397873
-0.0037631108762929,0.01776333549029618
-0.0037629408762929,0.01832286597212354
-0.003762770876292901,0.01809247106784349
-0.003762600876292901,0.0184874337608959
-0.0037624308762929,0.0171379778929605
-0.0037622608762929,0.0173683727972424
-0.0037620908762929,0.01717089145071542
-0.0037619208762929,0.01703923721969707
-0.003761750876292901,0.01598600337155483
-0.003761580876292901,0.015986003371551
-0.0037614108762929,0.01565686779400543
-0.0037612408762929,0.01496568308115973
-0.0037610708762929,0.01457072038810576
-0.0037609008762929,0.01414284413729658
-0.003760730876292901,0.01437323904157686
-0.003760560876292901,0.0138466221175067
-0.0037603908762929,0.01427449836831403
-0.0037602208762929,0.01401118990627757
-0.0037600508762929,0.01387953567525958
-0.0037598808762929,0.01364914077097787
-0.003759710876292901,0.01358331365546845
-0.003759540876292901,0.01374788144424052
-0.0037593708762929,0.0139124492330139
-0.0037592008762929,0.01384662211750479
-0.0037590308762929,0.01404410346403177
-0.0037588608762929,0.01407701702178663
-0.003758690876292901,0.0139453627907687
-0.003758520876292901,0.0139782763485229
-0.0037583508762929,0.01434032548382314
-0.0037581808762929,0.01440615259933226
-0.0037580108762929,0.01450489327259593
-0.0037578408762929,0.01460363394585942
-0.003757670876292901,0.01443906615708712
-0.003757500876292901,0.01447197971484125
-0.0037573308762929,0.01391244923301259
-0.0037571608762929,0.01318835096241365
-0.0037569908762929,0.01348457298220466
-0.0037568208762929,0.01322126452016868
-0.0037566508762929,0.01285921538486873
-0.003756480876292901,0.0125300798073237
-0.0037563108762929,0.01213511711426578
-0.0037561408762929,0.01101605615061288
-0.0037559708762929,0.01062109345755819
-0.0037558008762929,0.009995735860222744
-0.0037556308762929,0.009436205378395153
-0.003755460876292901,0.009337464705130824
-0.0037552908762929,0.009139983358603002
-0.0037551208762929,0.009074156243094007
-0.0037549508762929,0.009469118936148692
-0.0037547808762929,0.009008329127585731
-0.0037546108762929,0.01035778499551928
-0.003754440876292901,0.008284230856992179
-0.0037542708762929,0.008119663068212869
-0.0037541008762929,0.008679193550039321
-0.0037539308762929,0.008745020665548437
-0.0037537608762929,0.009469118936147375
-0.0037535908762929,0.009567859609412184
-0.003753420876292901,0.01022613076450111
-0.0037532508762929,0.0102919578800137
-0.0037530808762929,0.01088440191959465
-0.0037529108762929,0.011378105285913
-0.0037527408762929,0.01055526634205057
-0.0037525708762929,0.01078566124633056
-0.003752400876292901,0.01131227817040198
-0.003752230876292901,0.01121353749714058
-0.0037520608762929,0.01055526634204908
-0.0037518908762929,0.009896995186957936
-0.0037517208762929,0.009765340955939946
-0.0037515508762929,0.009074156243095264
-0.003751380876292901,0.008745020665549634
-0.003751210876292901,0.008777934223302874
-0.0037510408762929,0.008679193550039321
-0.0037508708762929,0.009008329127584893
-0.0037507008762929,0.009469118936147854
-0.0037505308762929,0.01002864941797514
-0.003750360876292901,0.01012739009123948
-0.003750190876292901,0.01052235278429308
-0.0037500208762929,0.01068692057306731
-0.0037498508762929,0.01108188326612199
-0.0037496808762929,0.01104896970836749
-0.0037495108762929,0.0114439324014214
-0.003749340876292901,0.01183889509447609
-0.003749170876292901,0.01229968490303893
-0.0037490008762929,0.01243133913405883
-0.0037488308762929,0.01262882048058617
-0.0037486608762929,0.01299086961588564
-0.0037484908762929,0.01318835096241329
-0.003748320876292901,0.01312252384690465
-0.003748150876292901,0.01292504250037791
-0.0037479808762929,0.01302378317364086
-0.0037478108762929,0.01312252384690453
-0.0037476408762929,0.0129908696158863
-0.0037474708762929,0.0130566967313953
-0.003747300876292901,0.01302378317364092
-0.003747130876292901,0.01266173403834205
-0.0037469608762929,0.01312252384690453
-0.0037467908762929,0.01312252384690453
-0.0037466208762929,0.0134516594244501
-0.0037464508762929,0.01325417807792312
-0.0037462808762929,0.01315543740465927
-0.003746110876292901,0.01322126452016796
-0.0037459408762929,0.01305669673139554
-0.0037457708762929,0.01312252384690453
-0.0037456008762929,0.01315543740465909
-0.0037454308762929,0.0130566967313956
-0.0037452608762929,0.01338583230894039
-0.003745090876292901,0.01206928999876349
-0.0037449208762929,0.01236551201854972
-0.0037447508762929,0.01236551201854972
-0.0037445808762929,0.01157558663244035
-0.0037444108762929,0.01157558663244035
-0.0037442408762929,0.01160850019019484
-0.003744070876292901,0.01177306797896709
-0.0037439008762929,0.01164141374794868
-0.0037437308762929,0.01121353749714022
-0.0037435608762929,0.01118062393938566
-0.0037433908762929,0.01052235278429572
-0.0037432208762929,0.009864081629204574
-0.003743050876292901,0.01065400701530987
-0.0037428808762929,0.01025904432225794
-0.0037427108762929,0.01019321720674895
-0.0037425408762929,0.00950203249390325
-0.0037423708762929,0.009107069800849283
-0.0037422008762929,0.008580452876776608
-0.003742030876292901,0.007494305470879218
-0.003741860876292901,0.00719808345108533
-0.0037416908762929,0.006836034315784124
-0.0037415208762929,0.006803120758029567
-0.0037413508762929,0.006506898738239092
-0.0037411808762929,0.006243590276202575
-0.003741010876292901,0.005585319121113349
-0.003740840876292901,0.005519492005602079
-0.0037406708762929,0.004927047966019811
-0.0037405008762929,0.005322010659074497
-0.0037403308762929,0.005453664890092486
-0.0037401608762929,0.005716973352128703
-0.003739990876292901,0.006177763160691305
-0.003739820876292901,0.006375244507219606
-0.0037396508762929,0.006375244507220324
-0.0037394808762929,0.007099342777820581
-0.0037393108762929,0.007165169893329575
-0.0037391408762929,0.007494305470874668
-0.003738970876292901,0.007988008837192724
-0.003738800876292901,0.008415885088001309
-0.0037386308762929,0.008909588454321223
-0.0037384608762929,0.008843761338812107
-0.0037382908762929,0.009469118936147554
-0.0037381208762929,0.009271637589621708
-0.003737950876292901,0.009304551147375847
-0.003737780876292901,0.008975415569831533
-0.0037376108762929,0.009238724031866792
-0.0037374408762929,0.009304551147375908
-0.0037372708762929,0.009238724031866792
-0.0037371008762929,0.009403291820639278
-0.003736930876292901,0.009370378262885082
-0.003736760876292901,0.009337464705130584
-0.0037365908762929,0.008777934223302994
-0.0037364208762929,0.009271637589621349
-0.0037362508762929,0.008547539319021094
-0.0037360808762929,0.00871210710779358
-0.0037359108762929,0.007889268163931448
-0.003735740876292901,0.009732427398178445
-0.0037355708762929,0.007955095279438646
-0.0037354008762929,0.007724700375157166
-0.0037352308762929,0.007922181721684508
-0.0037350608762929,0.008251317299229481
-0.0037348908762929,0.008613366434529549
-0.003734720876292901,0.008514625761266896
-0.0037345508762929,0.009534946051658107
-0.0037343808762929,0.009699513840430593
-0.0037342108762929,0.01104896970836743
-0.0037340408762929,0.01157558663243939
-0.0037338708762929,0.01269464759609325
-0.003733700876292901,0.01335291875118404
-0.0037335308762929,0.01332000519343271
-0.0037333608762929,0.01378079500199567
-0.0037331908762929,0.01374788144424112
-0.0037330208762929,0.01368205432873212
-0.0037328508762929,0.01292504250037857
-0.003732680876292901,0.01259590692283281
-0.0037325108762929,0.01197054932549467
-0.0037323408762929,0.01177306797896769
-0.0037321708762929,0.01203637644100415
-0.0037320008762929,0.01131227817040521
-0.0037318308762929,0.01108188326612241
-0.003731660876292901,0.01095022903510424
-0.003731490876292901,0.01095022903510376
-0.0037313208762929,0.01104896970836743
-0.0037311508762929,0.01098314259285832
-0.0037309808762929,0.01085148836184033
-0.0037308108762929,0.01098314259285808
-0.003730640876292901,0.01144393240142044
-0.003730470876292901,0.01147684595917656
-0.0037303008762929,0.011378105285913
-0.0037301308762929,0.01124645105489478
-0.0037299608762929,0.01075274768857732
-0.0037297908762929,0.01002864941797748
-0.003729620876292901,0.009896995186958414
-0.003729450876292901,0.009469118936150248
-0.0037292808762929,0.009139983358603122
-0.0037291108762929,0.008415885088002865
-0.0037289408762929,0.00752721902863144
-0.0037287708762929,0.007165169893330353
-0.003728600876292901,0.007033515662311945
-0.003728430876292901,0.006836034315784842
-0.0037282608762929,0.006572725853747667
-0.0037280908762929,0.007099342777820581
-0.0037279208762929,0.007000602104557089
-0.0037277508762929,0.00782344104841934
-0.003727580876292901,0.008317144414738294
-0.003727410876292901,0.008909588454319068
-0.0037272408762929,0.009534946051657807
-0.0037270708762929,0.01025904432225806
-0.0037269008762929,0.01022613076450351
-0.0037267308762929,0.01055526634204848
-0.003726560876292901,0.01068692057306707
-0.003726390876292901,0.01124645105489274
-0.0037262208762929,0.01104896970836743
-0.0037260508762929,0.009962822302467049
-0.0037258808762929,0.009864081629203377
-0.0037257108762929,0.009271637589622427
-0.0037255408762929,0.008843761338812886
-0.003725370876292901,0.009633686724918603
-0.0037252008762929,0.008284230856985056
-0.0037250308762929,0.008514625761266537
-0.0037248608762929,0.00881084778105755
-0.0037246908762929,0.008514625761267077
-0.0037245208762929,0.008843761338811509
-0.003724350876292901,0.0079550952794423
-0.0037241808762929,0.008152576625965391
-0.0037240108762929,0.007593046144138938
-0.0037238408762929,0.006704380084765896
-0.0037236708762929,0.007691786817400813
-0.0037235008762929,0.006309417391713724
-0.003723330876292901,0.005848627583149088
-0.0037231608762929,0.005914454698655747
-0.0037229908762929,0.005486578447847282
-0.0037228208762929,0.005091615754792597
-0.0037226508762929,0.005157442870301592
-0.0037224808762929,0.005157442870301712
-0.003722310876292901,0.004927047966020649
-0.0037221408762929,0.005881541140901309
-0.0037219708762929,0.005519492005601839
-0.0037218008762929,0.005684059794374625
-0.0037216308762929,0.005124529312548171
-0.0037214608762929,0.005420751332337629
-0.003721290876292901,0.005486578447847043
-0.0037211208762929,0.005914454698656046
-0.0037209508762929,0.005651146236620068
-0.0037207808762929,0.00607902248742931
-0.0037206108762929,0.005815714025393332
-0.0037204408762929,0.005914454698656345
-0.003720270876292901,0.006539812295990835
-0.003720100876292901,0.006638552969256422
-0.0037199308762929,0.006408158064974882
-0.0037197608762929,0.007428478355366152
-0.0037195908762929,0.007560132586384141
-0.0037194208762929,0.008547539319019299
-0.003719250876292901,0.009041242685337654
-0.003719080876292901,0.009337464705129387
-0.0037189108762929,0.009798254513694264
-0.0037187408762929,0.01006156297573072
-0.0037185708762929,0.01016030364899421
-0.0037184008762929,0.01055526634204836
-0.003718230876292901,0.01098314259285676
-0.003718060876292901,0.01065400701531394
-0.0037178908762929,0.01039069855327629
-0.0037177208762929,0.01048943922653996
-0.0037175508762929,0.009699513840432029
-0.0037173808762929,0.009534946051658107
-0.003717210876292901,0.009666600282675795
-0.003717040876292901,0.0091070698008506
-0.0037168708762929,0.008448798645757422
-0.0037167008762929,0.007395564797611595
-0.0037165308762929,0.00709934277782112
