Analysis/New Tests_CMB/wrd01_d2s01/non compliant measurements/cmb03_ch02.csv

#Digilent WaveForms Oscilloscope Acquisition
#Device Name: ADP3450
#Serial Number: SN:210018B9D9B0
#Date Time: 2024-08-05 17:15:27.945.714.240
#Sample rate: 2.5e+07Hz
#Samples: 32768
#Trigger: Source: Channel 3 Type: Edge Condition: Rising Level: 10 mV Hyst.: Auto HoldOff: 0 s
#Channel 3: Range: 200 mV/div Offset: 0 V Attenuation: 1 X Coupling: DC Bandwidth: 0 Hz Sample Mode: Average

Time (s),Channel 3 (V)
-0.0006553532631578948,-0.01403116130060508
-0.0006553132631578948,-0.01610471543914218
-0.0006552732631578947,-0.01291210033695774
-0.0006552332631578947,-0.01709212217177889
-0.0006551932631578948,-0.0136361986075504
-0.0006551532631578948,-0.01439321043590521
-0.0006551132631578948,-0.01426155620488698
-0.0006550732631578948,-0.01396533418509651
-0.0006550332631578947,-0.01268170543267016
-0.0006549932631578948,-0.01373493928081407
-0.0006549532631578948,-0.01106894110269494
-0.0006549132631578948,-0.01287918677919558
-0.0006548732631578948,-0.01208926139308765
-0.0006548332631578947,-0.01192469360431307
-0.0006547932631578948,-0.01172721225778608
-0.0006547532631578948,-0.01287918677919558
-0.0006547132631578948,-0.01222091562410444
-0.0006546732631578948,-0.01337289014551184
-0.0006546332631578947,-0.01317540879898696
-0.0006545932631578948,-0.01337289014551394
-0.0006545532631578948,-0.01366911216530495
-0.0006545132631578948,-0.01564392563057838
-0.0006544732631578948,-0.01416281553162331
-0.0006544332631578947,-0.01333997658776537
-0.0006543932631578947,-0.01663133236321509
-0.0006543532631578948,-0.01544644428405104
-0.0006543132631578948,-0.01653259168995142
-0.0006542732631578948,-0.01485400024446901
-0.0006542332631578948,-0.01768456621135577
-0.0006541932631578947,-0.01426155620488698
-0.0006541532631578948,-0.0203834779472346
-0.0006541132631578948,-0.01021318860107646
-0.0006540732631578948,-0.01495274091773268
-0.0006540332631578948,-0.01607180188138559
-0.0006539932631578947,-0.015874320534861
-0.0006539532631578948,-0.01626928322791496
-0.0006539132631578948,-0.01788204755788826
-0.0006538732631578948,-0.01607180188138762
-0.0006538332631578948,-0.01218800206635695
-0.0006537932631578947,-0.0158743205348598
-0.0006537532631578948,-0.01561101207282382
-0.0006537132631578948,-0.01663133236321509
-0.0006536732631578948,-0.01577557986159661
-0.0006536332631578948,-0.01751999842258496
-0.0006535932631578947,-0.01547935784180727
-0.0006535532631578947,-0.01640093745893319
-0.0006535132631578948,-0.01610471543914218
-0.0006534732631578948,-0.01505148159099635
-0.0006534332631578948,-0.01508439514875091
-0.0006533932631578948,-0.01649967813219429
-0.0006533532631578947,-0.01636802390117864
-0.0006533132631578948,-0.01775039332687003
-0.0006532732631578948,-0.01603888832363307
-0.0006532332631578948,-0.01692755438300611
-0.0006531932631578948,-0.01725668996055108
-0.0006531532631578947,-0.01742125774932321
-0.0006531132631578948,-0.01673007303647877
-0.0006530732631578948,-0.01755291198034269
-0.0006530332631578948,-0.01807952890441561
-0.0006529932631578948,-0.01965937967663147
-0.0006529532631578947,-0.0174541713070798
-0.0006529132631578948,-0.01788204755788826
-0.0006528732631578948,-0.01738834419156991
-0.0006528332631578948,-0.01702629505626978
-0.0006527932631578948,-0.01620345611240735
-0.0006527532631578947,-0.0154135307262984
-0.0006527132631578948,-0.01646676457444231
-0.0006526732631578948,-0.01587432053486028
-0.0006526332631578948,-0.01577557986159661
-0.0006525932631578948,-0.01498565447548724
-0.0006525532631578948,-0.01485400024446925
-0.0006525132631578947,-0.01547935784180559
-0.0006524732631578948,-0.01561101207282382
-0.0006524332631578948,-0.01534770361078737
-0.0006523932631578948,-0.01554518495731471
-0.0006523532631578948,-0.01508439514875175
-0.0006523132631578947,-0.01584140697710872
-0.0006522732631578948,-0.01748708486483358
-0.0006522332631578948,-0.01416281553162331
-0.0006521932631578948,-0.01439321043590521
-0.0006521532631578948,-0.01491982735997717
-0.0006521132631578947,-0.01620345611240615
-0.0006520732631578948,-0.01636802390117864
-0.0006520332631578948,-0.01600597476587851
-0.0006519932631578948,-0.01531479005303281
-0.0006519532631578948,-0.01445903755141588
-0.0006519132631578947,-0.01432738332039664
-0.0006518732631578948,-0.01462360534018711
-0.0006518332631578948,-0.0127146189904228
-0.0006517932631578948,-0.01429446976264154
-0.0006517532631578948,-0.01360328504979584
-0.0006517132631578947,-0.01370202572306155
-0.0006516732631578947,-0.01482108668671445
-0.0006516332631578948,-0.01347163081877761
-0.0006515932631578948,-0.01373493928081407
-0.0006515532631578948,-0.01436029687815065
-0.0006515132631578948,-0.01403116130060568
-0.0006514732631578947,-0.01465651889793849
-0.0006514332631578948,-0.01291210033695014
-0.0006513932631578948,-0.01426155620488698
-0.0006513532631578948,-0.01597306120812395
-0.0006513132631578948,-0.01389950706959063
-0.0006512732631578947,-0.01297792745246207
-0.0006512332631578948,-0.01452486466692344
-0.0006511932631578948,-0.01478817312895989
-0.0006511532631578948,-0.01353745793428673
-0.0006511132631578948,-0.01472234601344862
-0.0006510732631578947,-0.015907234092614
-0.0006510332631578948,-0.01544644428405104
-0.0006509932631578948,-0.01370202572305951
-0.0006509532631578948,-0.01353745793428673
-0.0006509132631578948,-0.0138665935118323
-0.0006508732631578947,-0.01567683918833228
-0.0006508332631578947,-0.01531479005303281
-0.0006507932631578948,-0.01584140697710572
-0.0006507532631578948,-0.01656550524770598
-0.0006507132631578948,-0.01824409669318839
-0.0006506732631578948,-0.01722377640279898
-0.0006506332631578947,-0.01603888832363307
-0.0006505932631578948,-0.01788204755788826
-0.0006505532631578948,-0.01850740515522485
-0.0006505132631578948,-0.01929733054133422
-0.0006504732631578948,-0.01738834419157338
-0.0006504332631578947,-0.01791496111564037
-0.0006503932631578948,-0.01656550524770598
-0.0006503532631578948,-0.0150185680332418
-0.0006503132631578948,-0.01337289014551394
-0.0006502732631578948,-0.01238548341287902
-0.0006502332631578947,-0.01228674273961116
-0.0006501932631578948,-0.01097020042943127
-0.0006501532631578948,-0.009686571677003543
-0.0006501132631578948,-0.01208926139308621
-0.0006500732631578948,-0.01251713764389468
-0.0006500332631578947,-0.01182595293105011
-0.0006499932631578947,-0.0120234342775771
-0.0006499532631578948,-0.01169429870003153
-0.0006499132631578948,-0.01205634783533165
-0.0006498732631578948,-0.01097020042943127
-0.0006498332631578948,-0.01083854619841328
-0.0006497932631578947,-0.01152973091125874
-0.0006497532631578948,-0.01027901571658557
-0.0006497132631578948,-0.01093728687167671
-0.0006496732631578948,-0.009686571677003543
-0.0006496332631578948,-0.009225781868440582
-0.0006495932631578947,-0.009324522541705451
-0.0006495532631578948,-0.01044358350535836
-0.0006495132631578948,-0.007349709076429989
-0.0006494732631578948,-0.008139634462539359
-0.0006494332631578948,-0.0100815343700547
-0.0006493932631578947,-0.007744671769481621
-0.0006493532631578948,-0.006066080324002262
-0.0006493132631578948,-0.005704031188702134
-0.0006492732631578948,-0.009554917445985316
-0.0006492332631578948,-0.008633337828859392
-0.0006491932631578947,-0.008863732733140573
-0.0006491532631578948,-0.00939034965721253
-0.0006491132631578948,-0.01143099023799507
-0.0006490732631578948,-0.01274753254817735
-0.0006490332631578948,-0.01097020042943127
-0.0006489932631578947,-0.01179303937329771
-0.0006489532631578947,-0.0131754087989866
-0.0006489132631578948,-0.01350454437653217
-0.0006488732631578948,-0.01498565447548724
-0.0006488332631578948,-0.01436029687815065
-0.0006487932631578948,-0.01294501389470727
-0.0006487532631578947,-0.01409698841611456
-0.0006487132631578948,-0.01429446976264154
-0.0006486732631578948,-0.01380076639632318
-0.0006486332631578948,-0.01436029687815065
-0.0006485932631578948,-0.01222091562410833
-0.0006485532631578947,-0.01179303937329975
-0.0006485132631578948,-0.01429446976264154
-0.0006484732631578948,-0.01182595293104976
-0.0006484332631578948,-0.01195760716206798
-0.0006483932631578948,-0.01050941062087011
-0.0006483532631578947,-0.01162847158452307
-0.0006483132631578948,-0.01199052071982254
-0.0006482732631578948,-0.009949880139040001
-0.0006482332631578948,-0.009884053023530886
-0.0006481932631578948,-0.01047649706311291
-0.0006481532631578947,-0.01129933600697541
-0.0006481132631578947,-0.01050941062086747
-0.0006480732631578948,-0.008666251386612273
-0.0006480332631578948,-0.01014736148556734
-0.0006479932631578948,-0.012253829181859
-0.0006479532631578948,-0.01248422408614048
-0.0006479132631578947,-0.01185886648880653
-0.0006478732631578948,-0.01307666812572293
-0.0006478332631578948,-0.0140969884161142
-0.0006477932631578948,-0.009916966581285444
-0.0006477532631578948,-0.01139807668023782
-0.0006477132631578947,-0.01182595293105119
-0.0006476732631578948,-0.01261587831715913
-0.0006476332631578948,-0.01152973091125874
-0.0006475932631578948,-0.01208926139308621
-0.0006475532631578948,-0.01264879187491266
-0.0006475132631578947,-0.01271461899042064
-0.0006474732631578948,-0.01152973091125874
-0.0006474332631578948,-0.0111018546604495
-0.0006473932631578948,-0.01100311398718583
-0.0006473532631578948,-0.01047649706311291
-0.0006473132631578947,-0.01041066994760781
-0.0006472732631578947,-0.01261587831715913
-0.0006472332631578948,-0.01291210033695014
-0.0006471932631578948,-0.01100311398718583
-0.0006471532631578948,-0.01205634783533165
-0.0006471132631578948,-0.01218800206634964
-0.0006470732631578947,-0.01228674273961356
-0.0006470332631578948,-0.0113322495647314
-0.0006469932631578948,-0.01245131052838634
-0.0006469532631578948,-0.01366911216530495
-0.0006469132631578948,-0.01801370178889859
-0.0006468732631578947,-0.00168857714268143
-0.0006468332631578948,-0.0210746626600803
-0.0006467932631578948,-0.01521604937976914
-0.0006467532631578948,-0.0131754087989866
-0.0006467132631578948,-0.01501856803323844
-0.0006466732631578947,-0.01238548341287435
-0.0006466332631578948,-0.01080563264065849
-0.0006465932631578948,-0.01228674273961356
-0.0006465532631578948,-0.0192315034258251
-0.0006465132631578948,-0.01297792745247063
-0.0006464732631578947,-0.01222091562410588
-0.0006464332631578947,-0.01301084101021381
-0.0006463932631578948,-0.01376785283856862
-0.0006463532631578948,-0.0113322495647314
-0.0006463132631578948,-0.01528187649527825
-0.0006462732631578948,-0.01238548341288249
-0.0006462332631578947,-0.01383367995407774
-0.0006461932631578948,-0.0113322495647314
-0.0006461532631578948,-0.01304375456796837
-0.0006461132631578948,-0.01120059533371317
-0.0006460732631578948,-0.013241235914492
-0.0006460332631578947,-0.01215508850859922
-0.0006459932631578948,-0.01429446976264154
-0.0006459532631578948,-0.01245131052838634
-0.0006459132631578948,-0.01389950706958685
-0.0006458732631578948,-0.01301084101021543
-0.0006458332631578947,-0.01376785283856785
-0.0006457932631578948,-0.01333997658775938
-0.0006457532631578948,-0.01528187649527825
-0.0006457132631578948,-0.01580849341935116
-0.0006456732631578948,-0.01551227139956069
-0.0006456332631578947,-0.01692755438300605
-0.0006455932631578948,-0.01689464082525155
-0.0006455532631578948,-0.01646676457444231
-0.0006455132631578948,-0.01551227139956015
-0.0006454732631578948,-0.01610471543914218
-0.0006454332631578947,-0.01580849341935302
-0.0006453932631578947,-0.01682881370974244
-0.0006453532631578948,-0.01426155620488698
-0.0006453132631578948,-0.01505148159099635
-0.0006452732631578948,-0.01518313582201458
-0.0006452332631578948,-0.01666424592096696
-0.0006451932631578947,-0.01304375456796933
-0.0006451532631578948,-0.01357037149204128
-0.0006451132631578948,-0.01333997658775938
-0.0006450732631578948,-0.01445903755141432
-0.0006450332631578948,-0.01409698841611486
-0.0006449932631578947,-0.01636802390117241
-0.0006449532631578948,-0.0129450138947047
-0.0006449132631578948,-0.0136361986075504
-0.0006448732631578948,-0.01570975274608749
-0.0006448332631578948,-0.02051513217824409
-0.0006447932631578947,-0.01278044610594383
-0.0006447532631578948,-0.01933024409908878
-0.0006447132631578948,-0.01649967813219686
-0.0006446732631578948,-0.01389950706958685
-0.0006446332631578948,-0.01715794928728801
-0.0006445932631578947,-0.01100311398719307
-0.0006445532631578947,-0.01498565447548724
-0.0006445132631578948,-0.007152227729902647
-0.0006444732631578948,-0.009587831003739873
-0.0006444332631578948,-0.007744671769484675
-0.0006443932631578948,-0.008073807347029647
-0.0006443532631578947,-0.008567510713348363
-0.0006443132631578948,-0.008435856482330374
-0.0006442732631578948,-0.01037775638984924
-0.0006442332631578948,-0.01705920861402434
-0.0006441932631578948,-0.01854031871297671
-0.0006441532631578947,-0.02012016948518611
-0.0006441132631578948,-0.01350454437653217
-0.0006440732631578948,-0.01498565447548724
-0.0006440332631578948,-0.01459069178243255
-0.0006439932631578948,-0.01389950706958811
-0.0006439532631578947,-0.01538061716854318
-0.0006439132631578948,-0.01607180188138762
-0.0006438732631578948,-0.01584140697710572
-0.0006438332631578948,-0.01567683918833294
-0.0006437932631578948,-0.01630219678566952
-0.0006437532631578947,-0.01630219678566976
-0.0006437132631578947,-0.01643385101668775
-0.0006436732631578948,-0.01584140697710572
-0.0006436332631578948,-0.01610471543914218
-0.0006435932631578948,-0.01485400024446901
-0.0006435532631578948,-0.01455777822467853
-0.0006435132631578947,-0.01577557986159661
-0.0006434732631578948,-0.01508439514875091
-0.0006434332631578948,-0.01613762899689674
-0.0006433932631578948,-0.01590723409261484
-0.0006433532631578948,-0.01610471543914182
-0.0006433132631578947,-0.0147881731289587
-0.0006432732631578948,-0.01412990197386875
-0.0006432332631578948,-0.01376785283856862
-0.0006431932631578948,-0.0140969884161142
-0.0006431532631578948,-0.01419572908937769
-0.0006431132631578947,-0.01442612399365947
-0.0006430732631578948,-0.01426155620488698
-0.0006430332631578948,-0.01488691380222357
-0.0006429932631578948,-0.01327414947225027
-0.0006429532631578948,-0.01271461899042382
-0.0006429132631578947,-0.01347163081877737
-0.0006428732631578947,-0.01333997658775938
-0.0006428332631578948,-0.01218800206634988
-0.0006427932631578948,-0.01429446976264154
-0.0006427532631578948,-0.01416281553162331
-0.0006427132631578948,-0.0130766681257249
-0.0006426732631578947,-0.01241839697063178
-0.0006426332631578948,-0.01274753254817735
-0.0006425932631578948,-0.01370202572305951
-0.0006425532631578948,-0.01383367995407774
-0.0006425132631578948,-0.01406407485835922
-0.0006424732631578947,-0.01409698841611444
-0.0006424332631578948,-0.01422864264713243
-0.0006423932631578948,-0.01498565447548724
-0.0006423532631578948,-0.0143273833203961
-0.0006423132631578948,-0.0131424952412342
-0.0006422732631578947,-0.0123525698551247
-0.0006422332631578948,-0.01347163081877761
-0.0006421932631578948,-0.01445903755141432
-0.0006421532631578948,-0.01360328504979584
-0.0006421132631578948,-0.01337289014551436
-0.0006420732631578947,-0.01310958168347778
-0.0006420332631578948,-0.01327414947225027
-0.0006419932631578948,-0.0131754087989866
-0.0006419532631578948,-0.01301084101021381
-0.0006419132631578948,-0.01278044610593191
-0.0006418732631578947,-0.01436029687815131
-0.0006418332631578947,-0.01472234601345078
-0.0006417932631578948,-0.01373493928081407
-0.0006417532631578948,-0.01472234601345078
-0.0006417132631578948,-0.01452486466692344
-0.0006416732631578948,-0.01485400024446841
-0.0006416332631578947,-0.01449195110917313
-0.0006415932631578948,-0.01682881370974244
-0.0006415532631578948,-0.01705920861402434
-0.0006415132631578948,-0.0159401476503694
-0.0006414732631578948,-0.01478817312896199
-0.0006414332631578947,-0.01630219678566755
-0.0006413932631578948,-0.01521604937976914
-0.0006413532631578948,-0.01389950706958685
-0.0006413132631578948,-0.01337289014551394
-0.0006412732631578948,-0.01412990197386738
-0.0006412332631578947,-0.01472234601344952
-0.0006411932631578948,-0.01403116130060508
-0.0006411532631578948,-0.01301084101021381
-0.0006411132631578948,-0.01389950706958685
-0.0006410732631578948,-0.01258296475940457
-0.0006410332631578947,-0.01248422408614449
-0.0006409932631578947,-0.01445903755141432
-0.0006409532631578948,-0.01103602754494038
-0.0006409132631578948,-0.01442612399365977
-0.0006408732631578948,-0.01699338149851522
-0.0006408332631578948,-0.01472234601345491
-0.0006407932631578947,-0.01393242062734345
-0.0006407532631578948,-0.01505148159099635
-0.0006407132631578948,-0.01663133236321509
-0.0006406732631578948,-0.01515022226426002
-0.0006406332631578948,-0.01416281553162511
-0.0006405932631578947,-0.01554518495731734
-0.0006405532631578948,-0.01699338149851522
-0.0006405132631578948,-0.01659841880546054
-0.0006404732631578948,-0.01561101207282382
-0.0006404332631578948,-0.01491982735997938
-0.0006403932631578947,-0.01429446976264094
-0.0006403532631578948,-0.01396533418509597
-0.0006403132631578948,-0.01505148159099635
-0.0006402732631578948,-0.01742125774932446
-0.0006402332631578948,-0.01765165265360594
-0.0006401932631578947,-0.01827701025094343
-0.0006401532631578947,-0.0185403187129794
-0.0006401132631578948,-0.01673007303647877
-0.0006400732631578948,-0.01896819496378865
-0.0006400332631578948,-0.01814535601992472
-0.0006399932631578948,-0.01824409669318821
-0.0006399532631578947,-0.02193041516169879
-0.0006399132631578948,-0.0201530830429527
-0.0006398732631578948,-0.01929733054133422
-0.0006398332631578948,-0.01751999842258814
-0.0006397932631578948,-0.01419572908938391
-0.0006397532631578947,-0.01422864264712752
-0.0006397132631578948,-0.01152973091125874
-0.0006396732631578948,-0.01054232417862203
-0.0006396332631578948,-0.01014736148556734
-0.0006395932631578948,-0.01126642244922025
-0.0006395532631578947,-0.01195760716206685
-0.0006395132631578948,-0.0113322495647314
-0.0006394732631578948,-0.01337289014551394
-0.0006394332631578948,-0.01376785283856862
-0.0006393932631578948,-0.01031192927434642
-0.0006393532631578947,-0.01103602754494529
-0.0006393132631578947,-0.01373493928081407
-0.0006392732631578948,-0.0129450138947047
-0.0006392332631578948,-0.01172721225778608
-0.0006391932631578948,-0.01324123591449571
-0.0006391532631578948,-0.0121221749508428
-0.0006391132631578947,-0.01182595293104976
-0.0006390732631578948,-0.01238548341287723
-0.0006390332631578948,-0.01024610215883101
-0.0006389932631578948,-0.01231965629736811
-0.0006389532631578948,-0.01156264446901468
-0.0006389132631578947,-0.01047649706311136
-0.0006388732631578948,-0.00962074456149443
-0.0006388332631578948,-0.009423263214967087
-0.0006387932631578948,-0.007942153116012016
-0.0006387532631578948,-0.008962473406401432
-0.0006387132631578947,-0.01176012581554166
-0.0006386732631578948,-0.01231965629736811
-0.0006386332631578948,-0.01284627322144103
-0.0006385932631578948,-0.01278044610593191
-0.0006385532631578948,-0.01449195110916577
-0.0006385132631578947,-0.01429446976263998
-0.0006384732631578948,-0.01343871726102305
-0.0006384332631578948,-0.01570975274608749
-0.0006383932631578948,-0.01791496111564282
-0.0006383532631578948,-0.02479389468634526
-0.0006383132631578947,-0.003070946568380372
-0.0006382732631578947,-0.0266041403628459
-0.0006382332631578948,-0.01755291198034269
-0.0006381932631578948,-0.0120234342775771
-0.0006381532631578948,-0.0319690502768387
-0.0006381132631578948,-0.01004862081234354
-0.0006380732631578947,-0.01554518495731279
-0.0006380332631578948,-0.01449195110916888
-0.0006379932631578948,-0.01929733054133422
-0.0006379532631578948,-0.01659841880546054
-0.0006379132631578948,-0.01594014765037059
-0.0006378732631578947,-0.014656518897944
-0.0006378332631578948,-0.0159401476503694
-0.0006377932631578948,-0.01251713764389546
-0.0006377532631578948,-0.01636802390117864
-0.0006377132631578948,-0.01383367995408235
-0.0006376732631578947,-0.01429446976264399
-0.0006376332631578948,-0.01564392563057838
-0.0006375932631578948,-0.01429446976264154
