Analysis/New Tests_CMB/wrd01_d2s01/non compliant measurements/cmb01_ch43.csv

#Digilent WaveForms Oscilloscope Acquisition
#Device Name: ADP3450
#Serial Number: SN:210018B9D9B0
#Date Time: 2024-08-06 15:23:33.535.185.980
#Sample rate: 2.94118e+06Hz
#Samples: 32768
#Trigger: Source: Channel 3 Type: Edge Condition: Rising Level: 80 mV Hyst.: Auto HoldOff: 0 s
#Channel 3: Range: 200 mV/div Offset: 0 V Attenuation: 1 X Coupling: DC Bandwidth: 0 Hz Sample Mode: Average

Time (s),Channel 3 (V)
-0.00557046880794702,0.02194335732512584
-0.00557012880794702,0.02187753020961738
-0.00556978880794702,0.02223957934491685
-0.00556944880794702,0.02220666578716229
-0.00556910880794702,0.02227249290267105
-0.00556876880794702,0.02207501155614406
-0.00556842880794702,0.02197627088288039
-0.00556808880794702,0.02158130818982433
-0.00556774880794702,0.02082429636147089
-0.00556740880794702,0.02046224722617077
-0.00556706880794702,0.02108760482350921
-0.00556672880794702,0.02210792511389862
-0.00556638880794702,0.02214083867165318
-0.00556604880794702,0.02144965395880706
-0.00556570880794702,0.02121925905452558
-0.00556536880794702,0.02046224722617077
-0.00556502880794702,0.0192115320314961
-0.00556468880794702,0.01838869308763367
-0.00556434880794702,0.01756585414376974
-0.00556400880794702,0.01697341010418693
-0.00556366880794702,0.01654553385337847
-0.00556332880794702,0.01568978135175999
-0.005562988807947021,0.0142744983683166
-0.00556264880794702,0.01335291875118643
-0.00556230880794702,0.01246425269181339
-0.005561968807947021,0.01226677134528641
-0.00556162880794702,0.01249716624956795
-0.00556128880794702,0.01315543740465909
-0.005560948807947021,0.01430741192606649
-0.00556060880794702,0.01496568308115973
-0.00556026880794702,0.01582143558277821
-0.00555992880794702,0.01638096606460467
-0.00555958880794702,0.01657844741113303
-0.00555924880794702,0.01624931183358745
-0.00555890880794702,0.01519607798544355
-0.00555856880794702,0.01417575769505036
-0.00555822880794702,0.01325417807792276
-0.00555788880794702,0.01226677134528784
-0.00555754880794702,0.01108188326612199
-0.00555720880794702,0.01088440191959465
-0.00555686880794702,0.01052235278429518
-0.00555652880794702,0.00973242739818515
-0.00555618880794702,0.008843761338812107
-0.00555584880794702,0.008712107107794119
-0.00555550880794702,0.008317144414739193
-0.00555516880794702,0.007757613932911723
-0.00555482880794702,0.00719808345108527
-0.00555448880794702,0.007066429220066024
-0.00555414880794702,0.007362651239857037
-0.00555380880794702,0.008415885088002865
-0.00555346880794702,0.008218403741475522
-0.00555312880794702,0.009139983358603122
-0.00555278880794702,0.01009447653348528
-0.00555244880794702,0.01071983413082186
-0.00555210880794702,0.01095022903510376
-0.00555176880794702,0.0116085001901949
-0.00555142880794702,0.01197054932549563
-0.00555108880794702,0.0122996849030406
-0.00555074880794702,0.01335291875118643
-0.00555040880794702,0.01371496788648644
-0.00555006880794702,0.01364914077097745
-0.00554972880794702,0.01272756115384985
-0.00554938880794702,0.01210220355651087
-0.00554904880794702,0.01078566124633098
-0.00554870880794702,0.009337464705130465
-0.00554836880794702,0.008712107107793941
-0.00554802880794702,0.008745020665548437
-0.00554768880794702,0.00983116807144882
-0.00554734880794702,0.0104236121110327
-0.00554700880794702,0.01144393240142212
-0.00554666880794702,0.01134519172815845
-0.00554632880794702,0.0107856612463293
-0.00554598880794702,0.009864081629203377
-0.00554564880794702,0.008613366434530208
-0.00554530880794702,0.007790527490665203
-0.00554496880794702,0.007198083451084253
-0.00554462880794702,0.00677020720027501
-0.00554428880794702,0.007856354606175873
-0.00554394880794702,0.00811966306821185
-0.00554360880794702,0.008514625761266537
-0.00554326880794702,0.009172896916359056
-0.00554292880794702,0.009929908744712493
-0.00554258880794702,0.01085148836184009
-0.005542248807947021,0.01121353749713956
-0.00554190880794702,0.01091731547734921
-0.00554156880794702,0.01012739009123984
-0.005541228807947021,0.009436205378395393
-0.00554088880794702,0.008284230856984636
-0.00554054880794702,0.008415885088002865
-0.005540208807947021,0.008317144414739373
-0.00553986880794702,0.009798254513694264
-0.00553952880794702,0.01002864941797616
-0.00553918880794702,0.01091731547734759
-0.00553884880794702,0.01124645105489478
-0.00553850880794702,0.01104896970836743
-0.00553816880794702,0.01052235278429548
-0.00553782880794702,0.01016030364899439
-0.00553748880794702,0.01065400701531275
-0.00553714880794702,0.01058817989980375
-0.00553680880794702,0.01078566124633098
-0.00553646880794702,0.01078566124633098
-0.00553612880794702,0.01022613076450452
-0.00553578880794702,0.009469118936148692
-0.00553544880794702,0.008909588454321223
-0.00553510880794702,0.00821840374147678
-0.00553476880794702,0.007593046144138938
-0.00553442880794702,0.007461391913120709
-0.00553408880794702,0.00769178681740219
-0.00553374880794702,0.008218403741475522
-0.00553340880794702,0.008415885088002865
-0.00553306880794702,0.008514625761266537
-0.00553272880794702,0.008942502012075779
-0.00553238880794702,0.009074156243094007
-0.00553204880794702,0.008942502012075779
-0.00553170880794702,0.009436205378394135
-0.00553136880794702,0.01019321720674895
-0.00553102880794702,0.01016030364899439
-0.00553068880794702,0.01131227817040389
-0.00553034880794702,0.01200346288324959
-0.00553000880794702,0.01262882048058617
-0.00552966880794702,0.01292504250037731
-0.00552932880794702,0.0129908696158863
-0.00552898880794702,0.01269464759609529
-0.00552864880794702,0.01203637644100241
-0.00552830880794702,0.01108188326612199
-0.00552796880794702,0.01006156297573072
-0.00552762880794702,0.009107069800848985
-0.00552728880794702,0.009337464705130465
-0.00552694880794702,0.009205810474112236
-0.00552660880794702,0.009666600282677412
-0.00552626880794702,0.01042361211103085
-0.00552592880794702,0.01108188326612199
-0.00552558880794702,0.01150975951693033
-0.00552524880794702,0.01101605615061288
-0.00552490880794702,0.01029195788001262
-0.00552456880794702,0.00943620537839204
-0.00552422880794702,0.008284230856984636
-0.00552388880794702,0.007395564797611595
-0.00552354880794702,0.0069018614312927
-0.00552320880794702,0.006605639411502225
-0.00552286880794702,0.006144849602938425
-0.00552252880794702,0.006408158064975241
-0.00552218880794702,0.006605639411502225
-0.00552184880794702,0.007066429220066024
-0.00552150880794702,0.007395564797612074
-0.00552116880794702,0.007658873259648051
-0.00552082880794702,0.00811966306821185
-0.005520488807947021,0.007955095279439366
-0.00552014880794702,0.006868947873538681
-0.00551980880794702,0.006605639411502225
-0.005519468807947021,0.005848627583148788
-0.00551912880794702,0.005519492005601839
-0.00551878880794702,0.00630941739171121
-0.005518448807947021,0.00785635460617258
-0.00551810880794702,0.00973242739818515
-0.00551776880794702,0.01210220355651326
-0.00551742880794702,0.01384662211750162
-0.00551708880794702,0.0146036339458596
-0.00551674880794702,0.0148340288501415
-0.00551640880794702,0.01473528817687801
-0.00551606880794702,0.0132212645201682
-0.00551572880794702,0.0120692899987587
-0.00551538880794702,0.0109831425928603
-0.00551504880794702,0.009534946051657807
-0.00551470880794702,0.008185490183720966
-0.00551436880794702,0.007263910566595043
-0.00551402880794702,0.005651146236620068
-0.00551368880794702,0.004894134408265255
-0.00551334880794702,0.004466258157456791
-0.00551300880794702,0.004795393735001583
-0.00551266880794702,0.005190356428056269
-0.00551232880794702,0.006901861431293239
-0.00551198880794702,0.008843761338812107
-0.00551164880794702,0.01039069855327629
-0.00551130880794702,0.01150975951693123
-0.00551096880794702,0.01285921538486808
-0.00551062880794702,0.0132212645201682
-0.00551028880794702,0.01338583230894099
-0.00550994880794702,0.01302378317364086
-0.00550960880794702,0.0122996849030406
-0.00550926880794702,0.01157558663244035
-0.00550892880794702,0.01131227817040281
-0.00550858880794702,0.01071983413082186
-0.00550824880794702,0.01104896970836743
-0.00550790880794702,0.01101605615061102
-0.00550756880794702,0.009995735860221606
-0.00550722880794702,0.008909588454321223
-0.00550688880794702,0.008317144414738534
-0.00550654880794702,0.007955095279439066
-0.00550620880794702,0.006967688546802352
-0.00550586880794702,0.007329737682103259
-0.00550552880794702,0.007757613932911723
-0.00550518880794702,0.008382971530248308
-0.00550484880794702,0.008514625761266657
-0.00550450880794702,0.008580452876775651
-0.00550416880794702,0.009074156243094007
-0.00550382880794702,0.008613366434529309
-0.00550348880794702,0.00811966306821185
-0.00550314880794702,0.007625959701893495
-0.00550280880794702,0.007395564797611535
-0.00550246880794702,0.007362651239857037
-0.00550212880794702,0.007955095279439066
-0.00550178880794702,0.008777934223303233
-0.00550144880794702,0.008909588454321223
-0.00550110880794702,0.00871210710779388
-0.00550076880794702,0.008284230856983498
-0.00550042880794702,0.007658873259648051
-0.00550008880794702,0.006868947873538681
-0.005499748807947021,0.007296824124347146
-0.00549940880794702,0.007329737682102481
-0.00549906880794702,0.008152576625966409
-0.005498728807947021,0.009074156243092331
-0.00549838880794702,0.009567859609412364
-0.00549804880794702,0.009962822302467049
-0.005497708807947021,0.010555266342048
-0.00549736880794702,0.01019321720674895
-0.00549702880794702,0.009567859609412364
-0.00549668880794702,0.009765340955939348
-0.00549634880794702,0.009172896916357679
-0.00549600880794702,0.00881084778105755
-0.00549566880794702,0.008777934223303054
-0.00549532880794702,0.008514625761266537
-0.00549498880794702,0.008580452876775651
-0.00549464880794702,0.008909588454320624
-0.00549430880794702,0.009436205378394135
-0.00549396880794702,0.01002864941797616
-0.00549362880794702,0.009995735860221667
-0.00549328880794702,0.00983116807144882
-0.00549294880794702,0.01022613076450351
-0.00549260880794702,0.010259044322258
-0.00549226880794702,0.01088440191959465
-0.00549192880794702,0.01104896970836743
-0.00549158880794702,0.01121353749713992
-0.00549124880794702,0.01111479682387655
-0.00549090880794702,0.01131227817040389
-0.00549056880794702,0.01114771038163111
-0.00549022880794702,0.01150975951693123
-0.00548988880794702,0.0116085001901949
-0.00548954880794702,0.01174015442121313
-0.00548920880794702,0.01075274768857642
-0.00548886880794702,0.009929908744712493
-0.00548852880794702,0.008975415569830336
-0.00548818880794702,0.007724700375156508
-0.00548784880794702,0.007362651239857037
-0.00548750880794702,0.00630941739171121
-0.00548716880794702,0.005453664890093683
-0.00548682880794702,0.005980281814165639
-0.00548648880794702,0.00607902248742931
-0.00548614880794702,0.006276503833958689
-0.00548580880794702,0.007395564797611595
-0.00548546880794702,0.00700060210455691
-0.00548512880794702,0.007395564797612194
-0.00548478880794702,0.007724700375157166
-0.00548444880794702,0.007988008837193623
-0.00548410880794702,0.007988008837193443
-0.00548376880794702,0.007889268163929951
-0.00548342880794702,0.007625959701893495
-0.00548308880794702,0.007527219028630422
-0.00548274880794702,0.007856354606175394
-0.00548240880794702,0.008053835952702737
-0.00548206880794702,0.00811966306821227
-0.00548172880794702,0.008350057972493751
-0.00548138880794702,0.008909588454321223
-0.00548104880794702,0.008810847781057611
-0.00548070880794702,0.008843761338812107
-0.00548036880794702,0.00904124268533945
-0.00548002880794702,0.009436205378392997
-0.00547968880794702,0.00881084778105755
-0.00547934880794702,0.007593046144138938
-0.005479008807947021,0.003248456520545302
-0.00547866880794702,-0.006000253208493148
-0.00547832880794702,-0.02100883554457119
-0.005477988807947021,-0.04552943607167163
-0.00547764880794702,-0.07515163805081762
-0.00547730880794702,-0.1084601584984294
-0.005476968807947021,-0.1424269501010706
-0.00547662880794702,-0.1739910519877526
-0.00547628880794702,-0.2010789100197531
-0.00547594880794702,-0.2222094140981404
-0.00547560880794702,-0.2365268117214111
-0.00547526880794702,-0.2451172502953505
-0.00547492880794702,-0.2486060874173272
-0.00547458880794702,-0.2477832484734697
-0.00547424880794702,-0.244261497793732
-0.00547390880794702,-0.2383699709556771
-0.00547356880794702,-0.231260642480682
-0.00547322880794702,-0.2232297343885701
-0.00547288880794702,-0.2147709500456643
-0.00547254880794702,-0.2064109063759914
-0.00547220880794702,-0.199005355881216
-0.00547186880794702,-0.1917643731752267
-0.00547152880794702,-0.1851158345087929
-0.00547118880794702,-0.1781052467070723
-0.00547084880794702,-0.1712921402518913
-0.00547050880794702,-0.1644461202389311
-0.00547016880794702,-0.1579950629190379
-0.00546982880794702,-0.1522681038697449
-0.00546948880794702,-0.1472652430910523
-0.00546914880794702,-0.1426573450054143
-0.00546880880794702,-0.1384114960550764
-0.00546846880794702,-0.1340010793159657
-0.00546812880794702,-0.1298539710388915
-0.00546778880794702,-0.1250156780489717
-0.00546744880794702,-0.1196836816927334
-0.00546710880794702,-0.1146808209140407
-0.00546676880794702,-0.109381738115557
-0.00546642880794702,-0.1049713213764377
-0.00546608880794702,-0.1001988555020356
-0.00546574880794702,-0.09624922857148874
-0.00546540880794702,-0.09170715760135213
-0.00546506880794702,-0.087461308651022
-0.00546472880794702,-0.08288632412313854
-0.00546438880794702,-0.07900252430809453
-0.00546404880794702,-0.07554660074387232
-0.00546370880794702,-0.07192610939087105
-0.00546336880794702,-0.06896388919295539
-0.00546302880794702,-0.06593584187954163
-0.00546268880794702,-0.06330275725917708
-0.00546234880794702,-0.06086715398533613
-0.00546200880794702,-0.05882651340455731
-0.00546166880794702,-0.05754288465212958
-0.00546132880794702,-0.05632508301520791
-0.00546098880794702,-0.05464649156972855
-0.00546064880794702,-0.05270459166220968
-0.00546030880794702,-0.05119056800549748
-0.00545996880794702,-0.0497752850220541
-0.00545962880794702,-0.04826126136534448
-0.00545928880794702,-0.04648392924659533
-0.00545894880794702,-0.04480533780111598
-0.00545860880794702,-0.04325840058665179
-0.00545826880794702,-0.04141524135239372
-0.00545792880794702,-0.03983539058017786
-0.00545758880794702,-0.03743270086409518
-0.005457248807947021,-0.03463504845496292
-0.00545690880794702,-0.03163991469929314
-0.00545656880794702,-0.02884226229015578
-0.005456228807947021,-0.02683453526713145
-0.00545588880794702,-0.02502428959062716
-0.00545554880794702,-0.02377357439595399
-0.005455208807947021,-0.0223912049702651
-0.00545486880794702,-0.02186458804618967
-0.00545452880794702,-0.02087718131355296
-0.00545418880794702,-0.01933024409909159
-0.00545384880794702,-0.01755291198034269
-0.00545350880794702,-0.01570975274608749
-0.00545316880794702,-0.01475525957120707
-0.00545282880794702,-0.01406407485835964
-0.00545248880794702,-0.01370202572305951
-0.00545214880794702,-0.01310958168347856
-0.00545180880794702,-0.01268170543266824
-0.00545146880794702,-0.01241839697063178
-0.00545112880794702,-0.01202343427757782
-0.00545078880794702,-0.01159555802676786
-0.00545044880794702,-0.01073980552514937
-0.00545010880794702,-0.0103448428320954
-0.00544976880794702,-0.008402942924575817
-0.00544942880794702,-0.008172548020293918
-0.00544908880794702,-0.007547190422958469
-0.00544874880794702,-0.007382622634184546
-0.00544840880794702,-0.007152227729902647
-0.00544806880794702,-0.006921832825620747
-0.00544772880794702,-0.006625610805829733
-0.00544738880794702,-0.006461043017056948
-0.00544704880794702,-0.00586859897747492
-0.00544670880794702,-0.00517741426462922
-0.00544636880794702,-0.004255834647501621
-0.00544602880794702,-0.00336716858812858
-0.00544568880794702,-0.002643070317527964
-0.00544534880794702,-0.00244558897100098
-0.00544500880794702,-0.002379761855491866
-0.00544466880794702,-0.003005119452828391
-0.00544432880794702,-0.002972205895073894
-0.00544398880794702,-0.002741810990791994
-0.00544364880794702,-0.002774724548546072
-0.00544330880794702,-0.002511416086510094
-0.00544296880794702,-0.002281021182228195
-0.00544262880794702,-0.002050626277944978
-0.00544228880794702,-0.001326528007346039
-0.00544194880794702,0.0003520634381363738
-0.00544160880794702,0.002392704018922267
-0.00544126880794702,0.004235863253174112
-0.00544092880794702,0.00607902248742931
-0.00544058880794702,0.006737293642519794
-0.00544024880794702,0.006375244507220324
-0.00543990880794702,0.005980281814165639
-0.00543956880794702,0.004499171715208414
-0.00543922880794702,0.003314283636046514
-0.00543888880794702,0.002162309114637015
-0.00543854880794702,0.001833173537091743
-0.00543820880794702,0.001997741325864229
-0.00543786880794702,0.002754753154219042
-0.00543752880794702,0.003610505655838126
-0.00543718880794702,0.003939641233383098
-0.00543684880794702,0.00426877681092867
-0.005436508807947021,0.0050916157547911
-0.00543616880794702,0.006046108929674754
-0.00543582880794702,0.006803120758029567
-0.005435488807947021,0.007165169893329036
-0.00543514880794702,0.007625959701893495
-0.00543480880794702,0.006901861431293239
-0.005434468807947021,0.005716973352131337
-0.00543412880794702,0.005157442870301712
-0.00543378880794702,0.004334603926437783
-0.00543344880794702,0.004071295464401806
-0.00543310880794702,0.003939641233383098
-0.00543276880794702,0.00403838190664677
-0.00543242880794702,0.003610505655838306
-0.00543208880794702,0.004466258157456012
-0.00543174880794702,0.004202949695419555
-0.00543140880794702,0.004861220850509501
-0.00543106880794702,0.006342330949465767
-0.00543072880794702,0.007099342777820581
-0.00543038880794702,0.008613366434527453
-0.00543004880794702,0.009600773167166921
-0.00542970880794702,0.01095022903510376
-0.00542936880794702,0.01157558663243921
-0.00542902880794702,0.01180598153672225
-0.00542868880794702,0.01167432730570402
-0.00542834880794702,0.01164141374794952
-0.00542800880794702,0.01144393240142212
-0.00542766880794702,0.01088440191959465
-0.00542732880794702,0.01006156297573072
-0.00542698880794702,0.009436205378394135
-0.00542664880794702,0.008975415569830336
-0.00542630880794702,0.008481712203511979
-0.00542596880794702,0.008382971530248308
-0.00542562880794702,0.008942502012075779
-0.00542528880794702,0.009633686724921478
-0.00542494880794702,0.01052235278429452
-0.00542460880794702,0.009962822302467049
-0.00542426880794702,0.009962822302467049
-0.00542392880794702,0.009304551147375727
-0.00542358880794702,0.009205810474112236
-0.00542324880794702,0.008350057972493751
-0.00542290880794702,0.00802092239494806
-0.00542256880794702,0.007955095279439066
-0.00542222880794702,0.007691786817402609
-0.00542188880794702,0.007658873259648051
-0.00542154880794702,0.007658873259648051
-0.00542120880794702,0.007658873259648051
-0.00542086880794702,0.00788926816393043
-0.00542052880794702,0.008152576625966409
-0.00542018880794702,0.008152576625966409
-0.00541984880794702,0.008547539319022471
-0.00541950880794702,0.009304551147375908
-0.00541916880794702,0.01016030364899439
-0.00541882880794702,0.01016030364899343
-0.00541848880794702,0.009633686724921478
-0.00541814880794702,0.008876674896566664
-0.00541780880794702,0.008481712203511918
-0.00541746880794702,0.008448798645757422
-0.00541712880794702,0.008514625761266537
-0.00541678880794702,0.009107069800849642
-0.00541644880794702,0.009699513840430593
-0.00541610880794702,0.01045652566878541
-0.00541576880794702,0.01045652566878612
-0.00541542880794702,0.01085148836184009
-0.00541508880794702,0.01114771038163111
-0.005414748807947021,0.01098314259285862
-0.00541440880794702,0.01065400701531275
-0.00541406880794702,0.009205810474112236
-0.005413728807947021,0.008119663068213826
-0.00541338880794702,0.007296824124347924
-0.00541304880794702,0.006210676718447538
-0.005412708807947021,0.005980281814166058
-0.00541236880794702,0.006473985180483996
-0.00541202880794702,0.007593046144138938
-0.00541168880794702,0.00756013258638444
-0.00541134880794702,0.008218403741475522
-0.00541100880794702,0.008152576625966409
