Analysis/New Tests_CMB/wrd01_d2s01/non compliant measurements/cmb01_ch12.csv

#Digilent WaveForms Oscilloscope Acquisition
#Device Name: ADP3450
#Serial Number: SN:210018B9D9B0
#Date Time: 2024-08-06 15:04:38.324.671.980
#Sample rate: 2.94118e+06Hz
#Samples: 32768
#Trigger: Source: Channel 3 Type: Edge Condition: Rising Level: 80 mV Hyst.: Auto HoldOff: 0 s
#Channel 3: Range: 200 mV/div Offset: 0 V Attenuation: 1 X Coupling: DC Bandwidth: 0 Hz Sample Mode: Average

Time (s),Channel 3 (V)
-0.005570461216216216,0.0001216685338544741
-0.005570121216216216,0.0020306548836216
-0.005569781216216216,0.00357759209808297
-0.005569441216216216,0.002359790461164357
-0.005569101216216216,0.002919320942992128
-0.005568761216216216,0.003083888731764614
-0.005568421216216216,0.0030180616162555
-0.005568081216216216,0.002656012480954114
-0.005567741216216216,0.001964827768109672
-0.005567401216216216,0.005848627583147411
-0.005567061216216216,0.003215542962775478
-0.005566721216216216,-0.000832824641027682
-0.005566381216216216,-0.001622750027137053
-0.005566041216216216,-0.0005366026212399011
-0.005565701216216216,-0.002313934739982752
-0.005565361216216216,-0.001853144931418952
-0.005565021216216216,-0.001030305987558198
-0.005564681216216216,-0.002774724548546551
-0.005564341216216216,-0.002215194066719081
-0.005564001216216216,-0.004091266858728357
-0.005563661216216216,-0.003827958396692379
-0.005563321216216216,-0.006131907439511376
-0.005562981216216217,-0.007448449749691266
-0.005562641216216216,-0.00688891926786619
-0.005562301216216216,-0.007218054845411761
-0.005561961216216217,-0.007613017538465728
-0.005561621216216216,-0.01169429870003153
-0.005561281216216216,-0.004584970225047193
-0.005560941216216217,-0.004058353300975236
-0.005560601216216216,-0.004190007531992507
-0.005560261216216216,-0.004025439743219721
-0.005559921216216217,-0.007481363307441931
-0.005559581216216216,-0.007316795518675433
-0.005559241216216216,-0.006526870132566062
-0.005558901216216217,-0.007349709076428492
-0.005558561216216216,-0.00711931417214809
-0.005558221216216216,-0.006296475228284162
-0.005557881216216217,-0.007086400614392095
-0.005557541216216216,-0.007448449749693661
-0.005557201216216216,-0.007810498884993789
-0.005556861216216217,-0.007580103980712308
-0.005556521216216216,-0.007711758211730118
-0.005556181216216216,-0.008732078502121389
-0.005555841216216217,-0.009489090330474823
-0.005555501216216216,-0.008732078502121389
-0.005555161216216216,-0.006921832825620747
-0.005554821216216217,-0.005802771861967841
-0.005554481216216216,-0.007777585327239231
-0.005554141216216216,-0.007711758211730118
-0.005553801216216217,-0.008172548020293918
-0.005553461216216216,-0.009686571677003543
-0.005553121216216216,-0.0111018546604495
-0.005552781216216216,-0.01393242062734141
-0.005552441216216216,-0.0140969884161142
-0.005552101216216216,-0.01218800206634988
-0.005551761216216216,-0.01327414947225027
-0.005551421216216216,-0.01666424592096288
-0.005551081216216216,-0.0129450138947047
-0.005550741216216216,-0.007185141287657204
-0.005550401216216216,-0.006888919267863974
-0.005550061216216216,-0.005671117630947577
-0.005549721216216216,-0.009423263214967087
-0.005549381216216216,-0.01261587831715565
-0.005549041216216216,-0.01070689196739481
-0.005548701216216216,-0.01143099023799507
-0.005548361216216216,-0.01373493928081329
-0.005548021216216216,-0.01330706303000483
-0.005547681216216216,-0.01287918677919558
-0.005547341216216216,-0.01245131052838616
-0.005547001216216216,-0.01235256985512267
-0.005546661216216216,-0.01060815129413114
-0.005546321216216216,-0.01103602754493961
-0.005545981216216216,-0.01060815129413114
-0.005545641216216216,-0.00688891926786619
-0.005545301216216216,-0.006658524363582973
-0.005544961216216216,-0.005934426092984033
-0.005544621216216216,-0.004749538013819977
-0.005544281216216216,-0.004519143109541371
-0.005543941216216216,-0.006329388786038719
-0.005543601216216216,-0.007020573498884419
-0.005543261216216216,-0.007514276865203793
-0.005542921216216216,-0.008073807347030245
-0.005542581216216216,-0.009094127637421515
-0.005542241216216217,-0.01136516312248183
-0.005541901216216216,-0.01126642244922228
-0.005541561216216216,-0.01120059533371317
-0.005541221216216217,-0.01231965629736608
-0.005540881216216216,-0.01725668996055168
-0.005540541216216216,-0.01485400024446901
-0.005540201216216217,-0.0102461021588394
-0.005539861216216216,-0.01067397840964026
-0.005539521216216216,-0.01343871726102305
-0.005539181216216217,-0.01640093745892781
-0.005538841216216216,-0.0124842240861409
-0.005538501216216216,-0.01238548341287723
-0.005538161216216217,-0.01110185466045184
-0.005537821216216216,-0.0131754087989866
-0.005537481216216216,-0.01459069178243255
-0.005537141216216217,-0.01195760716207277
-0.005536801216216216,-0.008073807347030245
-0.005536461216216216,-0.01636802390117864
-0.005536121216216217,-0.01264879187492045
-0.005535781216216216,-0.009686571677003543
-0.005535441216216216,-0.01103602754494038
-0.005535101216216217,-0.01176012581553933
-0.005534761216216216,-0.01235256985512267
-0.005534421216216216,-0.01393242062734141
-0.005534081216216217,-0.008830819175394338
-0.005533741216216216,-0.009785312350267215
-0.005533401216216216,-0.01673007303647877
-0.005533061216216217,-0.01327414947225027
-0.005532721216216216,-0.01054232417862203
-0.005532381216216216,-0.0115626444690133
-0.005532041216216217,-0.01199052071982254
-0.005531701216216216,-0.01097020042943127
-0.005531361216216216,-0.01034484283209469
-0.005531021216216216,-0.01070689196739481
-0.005530681216216216,-0.01001570725454911
-0.005530341216216216,-0.01123350889146773
-0.005530001216216216,-0.01199052071982254
-0.005529661216216216,-0.0119576071620708
-0.005529321216216216,-0.01350454437653217
-0.005528981216216216,-0.01274753254817735
-0.005528641216216216,-0.01317540879898624
-0.005528301216216216,-0.01297792745245925
-0.005527961216216216,-0.01278044610593191
-0.005527621216216216,-0.01156264446902036
-0.005527281216216216,-0.01544644428405104
-0.005526941216216216,-0.01488691380222357
-0.005526601216216216,-0.01357037149204128
-0.005526261216216216,-0.01357037149204128
-0.005525921216216216,-0.01459069178243255
-0.005525581216216216,-0.01406407485835712
-0.005525241216216216,-0.01268170543266824
-0.005524901216216216,-0.01630219678566952
-0.005524561216216216,-0.01574266630382834
-0.005524221216216216,-0.008205461578048474
-0.005523881216216216,-0.004519143109538078
-0.005523541216216216,-0.0213379711221325
-0.005523201216216216,-0.02999423681156528
-0.005522861216216216,-0.04625353434231649
-0.005522521216216216,-0.07139949246684817
-0.005522181216216216,-0.09891522674960787
-0.005521841216216216,-0.1303476744052099
-0.005521501216216216,-0.1639524168726672
-0.005521161216216216,-0.1939037544292597
-0.005520821216216216,-0.2217157107318604
-0.005520481216216217,-0.2435044859653376
-0.005520141216216216,-0.2579864513773824
-0.005519801216216216,-0.267827605145995
-0.005519461216216217,-0.2730937743867144
-0.005519121216216216,-0.2731596015022332
-0.005518781216216216,-0.2693745423604591
-0.005518441216216217,-0.2642400273507575
-0.005518101216216216,-0.256604081951691
-0.005517761216216216,-0.2490010501103883
-0.005517421216216217,-0.2428133012525428
-0.005517081216216216,-0.2331367152726918
-0.005516741216216216,-0.2250728936228253
-0.005516401216216217,-0.2179306515900994
-0.005516061216216216,-0.2113808535969295
-0.005515721216216216,-0.2051601911813182
-0.005515381216216217,-0.1994661456897902
-0.005515041216216216,-0.1922909900992864
-0.005514701216216216,-0.1866298581655026
-0.005514361216216217,-0.1820548736376275
-0.005514021216216216,-0.1774469755519811
-0.005513681216216216,-0.1699426843839421
-0.005513341216216217,-0.1643473795656776
-0.005513001216216216,-0.1595749136912566
-0.005512661216216216,-0.1543087444505275
-0.005512321216216217,-0.1471665024177886
-0.005511981216216216,-0.1414395433684957
-0.005511641216216216,-0.1352847080683935
-0.005511301216216217,-0.1316642167153922
-0.005510961216216216,-0.1279120711313727
-0.005510621216216216,-0.1222509391975888
-0.005510281216216216,-0.1189595834221331
-0.005509941216216216,-0.1153061785113773
-0.005509601216216216,-0.1147795615873044
-0.005509261216216216,-0.1059587281090831
-0.005508921216216216,-0.1034243841619706
-0.005508581216216216,-0.09707206751535266
-0.005508241216216216,-0.09503142693457012
-0.005507901216216216,-0.09703915395758607
-0.005507561216216216,-0.09042352884893212
-0.005507221216216216,-0.0852231867237121
-0.005506881216216216,-0.0843345206643363
-0.005506541216216216,-0.08282049700762945
-0.005506201216216216,-0.07798220401770953
-0.005505861216216216,-0.07548077362836236
-0.005505521216216216,-0.07501998381979941
-0.005505181216216216,-0.07060956708068875
-0.005504841216216216,-0.06909554342397486
-0.005504501216216216,-0.06675868082340558
-0.005504161216216216,-0.06425725043405922
-0.005503821216216216,-0.06320401658591029
-0.005503481216216216,-0.06149251158267643
-0.005503141216216216,-0.05964935234842123
-0.005502801216216216,-0.05853029138476498
-0.005502461216216216,-0.05780619311416604
-0.005502121216216216,-0.05652256436173831
-0.005501781216216216,-0.05606177455317073
-0.005501441216216216,-0.05398822041463741
-0.005501101216216216,-0.05145387646753651
-0.005500761216216216,-0.05020316127286071
-0.005500421216216216,-0.04875496473166283
-0.005500081216216216,-0.04602313943803459
-0.005499741216216217,-0.04450911578132772
-0.005499401216216216,-0.04641810213108927
-0.005499061216216216,-0.04543069539845256
-0.005498721216216217,-0.03792640423042719
-0.005498381216216216,-0.03647820768921303
-0.005498041216216216,-0.03338433326028466
-0.005497701216216217,-0.03456922133944656
-0.005497361216216216,-0.03782766355714987
-0.005497021216216216,-0.03470087557046694
-0.005496681216216217,-0.03348307393355054
-0.005496341216216216,-0.03506292470576707
-0.005496001216216216,-0.03614907211166746
-0.005495661216216217,-0.03420717220415212
-0.005495321216216216,-0.03242984008540251
-0.005494981216216216,-0.0321994451811206
-0.005494641216216217,-0.03022463171585077
-0.005494301216216216,-0.02907265719443768
-0.005493961216216216,-0.02950053344524692
-0.005493621216216217,-0.0273611521912046
-0.005493281216216216,-0.02676870815161868
-0.005492941216216216,-0.02666996747835501
-0.005492601216216217,-0.02663705392060051
-0.005492261216216216,-0.02525468449490905
-0.005491921216216216,-0.02597878276550931
-0.005491581216216217,-0.02568256074571884
-0.005491241216216216,-0.02630791834305488
-0.005490901216216216,-0.02643957257407311
-0.005490561216216217,-0.02532051161041817
-0.005490221216216216,-0.02532051161041817
-0.005489881216216216,-0.02439893199329057
-0.005489541216216216,-0.02347735237616297
-0.005489201216216216,-0.02278616766331727
-0.005488861216216216,-0.02551799295694551
-0.005488521216216216,-0.01824409669318839
-0.005488181216216216,-0.01636802390117738
-0.005487841216216216,-0.01567683918833294
-0.005487501216216216,-0.01528187649527825
-0.005487161216216216,-0.01956063900337235
-0.005486821216216216,-0.02048221862049827
-0.005486481216216216,-0.01751999842258814
-0.005486141216216216,-0.01728960351830983
-0.005485801216216216,-0.01926441698357966
-0.005485461216216216,-0.02071261352478018
-0.005485121216216216,-0.01972520679214418
-0.005484781216216216,-0.02012016948519815
-0.005484441216216216,-0.02091009487130752
-0.005484101216216216,-0.01995560169643153
-0.005483761216216216,-0.02334569814514474
-0.005483421216216216,-0.02216081006598069
-0.005483081216216216,-0.01992268813867062
-0.005482741216216216,-0.01982394746540713
-0.005482401216216216,-0.01896819496378865
-0.005482061216216216,-0.01883654073276659
-0.005481721216216216,-0.01673007303647877
-0.005481381216216216,-0.01577557986159661
-0.005481041216216216,-0.01567683918832396
-0.005480701216216216,-0.01073980552514937
-0.005480361216216216,-0.01060815129413114
-0.005480021216216216,-0.01422864264713285
-0.005479681216216216,-0.01445903755141432
-0.005479341216216216,-0.01208926139308621
-0.005479001216216217,-0.01146390379575076
-0.005478661216216216,-0.01383367995407774
-0.005478321216216216,-0.01673007303647877
-0.005477981216216217,-0.01067397840965127
-0.005477641216216216,-0.009324522541703417
-0.005477301216216216,-0.01083854619841304
-0.005476961216216217,-0.01192469360431145
-0.005476621216216216,-0.01784913400013371
-0.005476281216216216,-0.01465651889794167
-0.005475941216216217,-0.01383367995407924
-0.005475601216216216,-0.01485400024446901
-0.005475261216216216,-0.01577557986159661
-0.005474921216216217,-0.01633511034342306
-0.005474581216216216,-0.01610471543914218
-0.005474241216216216,-0.01491982735997812
-0.005473901216216217,-0.01557809851506807
-0.005473561216216216,-0.01475525957120534
-0.005473221216216216,-0.01195760716206798
-0.005472881216216217,-0.01185886648880449
-0.005472541216216216,-0.01185886648880431
-0.005472201216216216,-0.01268170543266824
-0.005471861216216217,-0.0131754087989857
-0.005471521216216216,-0.01264879187491368
-0.005471181216216216,-0.01320832235674115
-0.005470841216216217,-0.01531479005302898
-0.005470501216216216,-0.01600597476587851
-0.005470161216216216,-0.01399824774285052
-0.005469821216216217,-0.0129450138947047
-0.005469481216216216,-0.01320832235674115
-0.005469141216216216,-0.01291210033695014
-0.005468801216216217,-0.01251713764389546
-0.005468461216216216,-0.01287918677919558
-0.005468121216216216,-0.01580849341935116
-0.005467781216216216,-0.01942898477235245
-0.005467441216216216,-0.01324123591449571
-0.005467101216216216,-0.01258296475940457
-0.005466761216216216,-0.01199052071982254
-0.005466421216216216,-0.01498565447549149
-0.005466081216216216,-0.01732251707606079
-0.005465741216216216,-0.01452486466692344
-0.005465401216216216,-0.01307666812572383
-0.005465061216216216,-0.01357037149204128
-0.005464721216216216,-0.01350454437653217
-0.005464381216216216,-0.01429446976263819
-0.005464041216216216,-0.01245131052838634
-0.005463701216216216,-0.0106410648518857
-0.005463361216216216,-0.01245131052838873
-0.005463021216216216,-0.01376785283856862
-0.005462681216216216,-0.01353745793428673
-0.005462341216216216,-0.01327414947225362
-0.005462001216216216,-0.01511730870650547
-0.005461661216216216,-0.01600597476587851
-0.005461321216216216,-0.01653259168994975
-0.005460981216216216,-0.01561101207282382
-0.005460641216216216,-0.01327414947225027
-0.005460301216216216,-0.01307666812572221
-0.005459961216216216,-0.01268170543266824
-0.005459621216216216,-0.01159555802676786
-0.005459281216216216,-0.01034484283209552
-0.005458941216216216,-0.01080563264065849
-0.005458601216216216,-0.01129933600697684
-0.005458261216216216,-0.01202343427757829
-0.005457921216216216,-0.01268170543266824
-0.005457581216216216,-0.01580849341935116
-0.005457241216216217,-0.01014736148557764
-0.005456901216216216,-0.009653658119248986
-0.005456561216216216,-0.01034484283209469
-0.005456221216216217,-0.009357436099459769
-0.005455881216216216,-0.01370202572305951
-0.005455541216216216,-0.01310958168347748
-0.005455201216216217,-0.01037775638985421
-0.005454861216216216,-0.01169429870003153
-0.005454521216216216,-0.01172721225778608
-0.005454181216216217,-0.01136516312248662
-0.005453841216216216,-0.01090437331392216
-0.005453501216216216,-0.01143099023799507
-0.005453161216216217,-0.01004862081230619
-0.005452821216216216,-0.0111018546604495
-0.005452481216216216,-0.01255005120165001
-0.005452141216216217,-0.01162847158452409
-0.005451801216216216,-0.01264879187491368
-0.005451461216216216,-0.01426155620488698
-0.005451121216216217,-0.01393242062734201
-0.005450781216216216,-0.01491982735997812
-0.005450441216216216,-0.01459069178243255
-0.005450101216216217,-0.01468943245569604
-0.005449761216216216,-0.01607180188138762
-0.005449421216216216,-0.01597306120812395
-0.005449081216216217,-0.01584140697710596
-0.005448741216216216,-0.0152489629375237
-0.005448401216216216,-0.01468943245569622
-0.005448061216216217,-0.01422864264713243
-0.005447721216216216,-0.01330706303000483
-0.005447381216216216,-0.01251713764389546
-0.005447041216216216,-0.01636802390117864
-0.005446701216216216,-0.01011444792781279
-0.005446361216216216,-0.009357436099457973
-0.005446021216216216,-0.009489090330476201
-0.005445681216216216,-0.008304202251322982
-0.005445341216216216,-0.01426155620488698
-0.005445001216216216,-0.01495274091773268
-0.005444661216216216,-0.011463903795751
-0.005444321216216216,-0.01222091562410444
-0.005443981216216216,-0.01416281553162331
-0.005443641216216216,-0.01403116130060383
-0.005443301216216216,-0.01333997658775938
-0.005442961216216216,-0.01383367995407774
-0.005442621216216216,-0.01251713764389659
-0.005442281216216216,-0.01314249524123204
-0.005441941216216216,-0.01258296475940457
-0.005441601216216216,-0.01097020042942822
-0.005441261216216216,-0.009291608983948858
-0.005440921216216216,-0.009291608983948858
-0.005440581216216216,-0.01268170543266393
-0.005440241216216216,-0.01031192927434013
-0.005439901216216216,-0.01228674273961356
-0.005439561216216216,-0.01376785283856749
-0.005439221216216216,-0.01314249524123204
-0.005438881216216216,-0.01307666812572293
-0.005438541216216216,-0.01222091562410235
-0.005438201216216216,-0.01106894110269494
-0.005437861216216216,-0.01034484283209469
-0.005437521216216216,-0.01087145975615676
-0.005437181216216216,-0.004914105802592763
-0.005436841216216216,-0.01080563264065849
-0.005436501216216217,-0.01202343427757488
-0.005436161216216216,-0.00517741426462922
-0.005435821216216216,-0.005341982053402005
-0.005435481216216217,-0.003795044838940636
-0.005435141216216216,-0.005835685419720362
-0.005434801216216216,-0.009554917445985316
-0.005434461216216217,-0.00794215311601495
-0.005434121216216216,-0.00711931417214809
-0.005433781216216216,-0.009159954752930631
-0.005433441216216217,-0.01008153437005655
-0.005433101216216216,-0.01001570725454911
-0.005432761216216216,-0.01129933600697684
-0.005432421216216217,-0.01212217495083927
-0.005432081216216216,-0.01097020042943127
-0.005431741216216216,-0.01073980552514937
-0.005431401216216217,-0.01182595293104778
-0.005431061216216216,-0.01208926139308621
-0.005430721216216216,-0.01255005120165001
-0.005430381216216217,-0.01337289014551244
-0.005430041216216216,-0.01320832235674115
-0.005429701216216216,-0.01136516312248596
-0.005429361216216217,-0.01054232417862353
-0.005429021216216216,-0.0120234342775771
-0.005428681216216216,-0.01093728687167671
-0.005428341216216217,-0.01047649706311375
-0.005428001216216216,-0.009653658119248986
-0.005427661216216216,-0.009785312350267215
-0.005427321216216217,-0.01159555802676786
-0.005426981216216216,-0.01228674273961356
-0.005426641216216216,-0.01192469360431343
-0.005426301216216216,-0.01689464082525155
-0.005425961216216216,-0.01366911216530495
-0.005425621216216216,-0.0120234342775771
-0.005425281216216216,-0.0108714597561676
-0.005424941216216216,-0.009127041195176074
-0.005424601216216216,-0.01393242062734141
-0.005424261216216216,-0.01495274091773268
-0.005423921216216216,-0.01179303937329346
-0.005423581216216216,-0.01083854619841304
-0.005423241216216216,-0.01126642244922228
-0.005422901216216216,-0.01176012581553891
-0.005422561216216216,-0.01080563264065849
-0.005422221216216216,-0.009653658119248986
-0.005421881216216216,-0.009818225908023628
-0.005421541216216216,-0.01083854619841304
-0.005421201216216216,-0.0117930393732952
-0.005420861216216216,-0.01347163081877701
-0.005420521216216216,-0.01314249524123204
-0.005420181216216216,-0.01261587831715913
-0.005419841216216216,-0.01373493928081526
-0.005419501216216216,-0.01439321043590521
-0.005419161216216216,-0.01261587831715913
-0.005418821216216216,-0.01169429870003189
-0.005418481216216216,-0.01189178004655887
-0.005418141216216216,-0.0106410648518857
-0.005417801216216216,-0.01014736148556621
-0.005417461216216216,-0.009522003888230759
-0.005417121216216216,-0.01004862081230367
-0.005416781216216216,-0.0117601258155395
-0.005416441216216216,-0.01113476821820406
-0.005416101216216216,-0.01445903755141432
