Analysis/New Tests_CMB/wrd01_d2s01/non compliant measurements/cmb01_ch05.csv

#Digilent WaveForms Oscilloscope Acquisition
#Device Name: ADP3450
#Serial Number: SN:210018B9D9B0
#Date Time: 2024-08-06 15:00:35.405.284.500
#Sample rate: 2.94118e+06Hz
#Samples: 32768
#Trigger: Source: Channel 3 Type: Edge Condition: Rising Level: 80 mV Hyst.: Auto HoldOff: 0 s
#Channel 3: Range: 200 mV/div Offset: 0 V Attenuation: 1 X Coupling: DC Bandwidth: 0 Hz Sample Mode: Average

Time (s),Channel 3 (V)
-0.005570309717277487,0.01167432730570402
-0.005569969717277487,0.01022613076449955
-0.005569629717277487,0.008053835952702737
-0.005569289717277487,0.009074156243094007
-0.005568949717277487,0.008481712203508327
-0.005568609717277487,0.006473985180483996
-0.005568269717277487,0.005881541140901968
-0.005567929717277487,0.00410420902215319
-0.005567589717277487,0.002623098923200814
-0.005567249717277487,0.002392704018918914
-0.005566909717277487,0.0008128532467001733
-0.005566569717277487,0.0008128532467001733
-0.005566229717277487,-0.0005366026212366681
-0.005565889717277487,-0.003663390607905764
-0.005565549717277487,0.003939641233383098
-0.005565209717277487,0.003972554791137656
-0.005564869717277487,0.00440043104194157
-0.005564529717277487,0.001471124401791315
-0.005564189717277487,-0.002939292337319337
-0.005563849717277487,-0.0005366026212346325
-0.005563509717277487,0.0005824583424182735
-0.005563169717277487,-0.0001416399281819828
-0.005562829717277487,-0.0003391212747089662
-0.005562489717277487,0.0002533227648727025
-0.005562149717277487,0.0003849769958909309
-0.005561809717277487,0.001372383728525848
-0.005561469717277487,0.0003849769958909309
-0.005561129717277487,-0.0009973924298004675
-0.005560789717277487,-0.001524009353872423
-0.005560449717277487,-0.002577243202019209
-0.005560109717277487,-0.00313677368384668
-0.005559769717277487,-0.00313677368384668
-0.005559429717277487,-0.002215194066719081
-0.005559089717277487,-0.003202600799355794
-0.005558749717277487,-0.004420402436272191
-0.005558409717277487,-0.002939292337319337
-0.005558069717277487,-0.003795044838937822
-0.005557729717277487,-0.002840551664057402
-0.005557389717277487,-0.003202600799355794
-0.005557049717277487,-0.001787317815909838
-0.005556709717277487,-0.002774724548544755
-0.005556369717277487,-0.003663390607919593
-0.005556029717277487,-0.00392669906995605
-0.005555689717277487,-0.008468770040076668
-0.005555349717277487,0.004762480177247026
-0.005555009717277487,-0.003992526185465165
-0.005554669717277487,-0.003860871954447175
-0.005554329717277487,-0.001524009353873381
-0.005553989717277487,-0.004815365129329092
-0.005553649717277487,-0.006954746383375304
-0.005553309717277487,-0.001820231373664395
-0.005552969717277487,-0.002577243202019209
-0.005552629717277487,-0.003465909261392251
-0.005552289717277487,-0.001951885604682624
-0.005551949717277487,-0.002215194066719081
-0.005551609717277487,-0.002511416086510094
-0.005551269717277487,-0.002215194066719919
-0.005550929717277487,-0.00267598387528288
-0.005550589717277487,-0.004617883782801749
-0.005550249717277487,-0.004255834647504016
-0.005549909717277487,-0.005572376957683906
-0.005549569717277487,-0.005901512535229476
-0.005549229717277487,-0.005868598977475578
-0.005548889717277487,-0.006230648112775047
-0.005548549717277487,-0.00837002936682126
-0.005548209717277487,-0.007613017538462375
-0.005547869717277487,-0.005374895611156563
-0.005547529717277487,-0.00586859897747492
-0.005547189717277487,-0.007547190422958529
-0.005546849717277487,-0.008205461578048474
-0.005546509717277487,-0.006954746383375304
-0.005546169717277487,-0.007152227729903724
-0.005545829717277487,-0.007744671769484675
-0.005545489717277487,-0.01116768177595861
-0.005545149717277487,-0.01324123591447907
-0.005544809717277487,-0.004091266858728836
-0.005544469717277487,-0.002741810990791994
-0.005544129717277487,-0.00277472454854691
-0.005543789717277487,-0.002972205895073894
-0.005543449717277487,-0.006987659941129861
-0.005543109717277487,-0.007119314172145575
-0.005542769717277487,-0.005736944746456691
-0.005542429717277487,-0.009653658119248986
-0.005542089717277487,-0.009686571677003483
-0.005541749717277487,-0.008238375135803031
-0.005541409717277487,-0.008238375135803031
-0.005541069717277487,-0.009620744561491916
-0.005540729717277487,-0.008337115809066702
-0.005540389717277487,-0.006362302343793276
-0.005540049717277487,-0.006625610805829255
-0.005539709717277487,-0.008205461578048474
-0.005539369717277487,-0.008633337828857716
-0.005539029717277487,-0.007843412442749782
-0.005538689717277487,-0.009522003888230759
-0.005538349717277487,-0.009061214079666959
-0.005538009717277487,-0.009258695426193942
-0.005537669717277487,-0.009192868310685188
-0.005537329717277487,-0.007250968403166318
-0.005536989717277487,-0.009884053023526096
-0.005536649717277487,-0.008172548020293918
-0.005536309717277487,-0.007283881960920875
-0.005535969717277487,-0.007876326000501825
-0.005535629717277487,-0.009192868310685188
-0.005535289717277487,-0.008962473406403288
-0.005534949717277487,-0.0123525698551165
-0.005534609717277487,-0.0140969884161142
-0.005534269717277487,-0.005802771861965805
-0.005533929717277487,-0.0070534870566367
-0.005533589717277487,-0.006493956574811504
-0.005533249717277487,-0.007711758211730118
-0.005532909717277487,-0.009851139465776329
-0.005532569717277487,-0.008040893789275689
-0.005532229717277487,-0.006329388786038719
-0.005531889717277487,-0.007415536191939104
-0.005531549717277487,-0.007218054845411761
-0.005531209717277487,-0.004979932918101878
-0.005530869717277487,-0.005045760033610991
-0.005530529717277487,-0.00688891926786619
-0.005530189717277487,-0.006164820997265934
-0.005529849717277487,-0.005111587149120106
-0.005529509717277487,-0.006263561670533317
-0.005529169717277487,-0.008304202251312145
-0.005528829717277487,-0.00665852436358429
-0.005528489717277487,-0.006197734555022047
-0.005528149717277487,-0.007053487056638975
-0.005527809717277487,-0.00619773455502049
-0.005527469717277487,-0.007152227729903425
-0.005527129717277487,-0.007580103980711889
-0.005526789717277487,-0.007316795518675433
-0.005526449717277487,-0.00889664629089537
-0.005526109717277487,-0.009554917445985316
-0.005525769717277487,-0.009127041195176074
-0.005525429717277487,-0.009028300521912822
-0.005525089717277487,-0.009258695426194301
-0.005524749717277487,-0.009554917445985316
-0.005524409717277487,-0.01429446976263094
-0.005524069717277487,-0.008468770040084931
-0.005523729717277487,-0.008139634462539359
-0.005523389717277487,-0.01515022226428325
-0.005523049717277487,-0.02792068267302818
-0.005522709717277487,-0.05132222223651828
-0.005522369717277487,-0.07633652613003358
-0.005522029717277487,-0.1048725807031827
-0.005521689717277487,-0.1380165333620217
-0.005521349717277487,-0.170568041981331
-0.005521009717277487,-0.1993344914587616
-0.005520669717277487,-0.224645017372016
-0.005520329717277487,-0.2439981893316604
-0.005519989717277487,-0.2585788954169644
-0.005519649717277487,-0.2668401984133582
-0.005519309717277487,-0.2683213085123106
-0.005518969717277487,-0.2688808389941408
-0.005518629717277487,-0.2660502730272489
-0.005518289717277487,-0.2593688208030859
-0.005517949717277487,-0.2538393431003081
-0.005517609717277487,-0.2450514231798414
-0.005517269717277487,-0.2380408353781335
-0.005516929717277487,-0.2315897780582276
-0.005516589717277487,-0.2232626479463246
-0.005516249717277487,-0.2149684313921913
-0.005515909717277487,-0.2077932758016828
-0.005515569717277487,-0.2016055269438261
-0.005515229717277487,-0.1946607662576271
-0.005514889717277487,-0.1887034123040397
-0.005514549717277487,-0.1850500073932838
-0.005514209717277487,-0.1771507535322045
-0.005513869717277487,-0.1745834960273347
-0.005513529717277487,-0.1646436015854584
-0.005513189717277487,-0.1546049664703368
-0.005512849717277487,-0.1470348481867704
-0.005512509717277487,-0.1404850501936135
-0.005512169717277487,-0.1392343349989403
-0.005511829717277487,-0.1343631284512659
-0.005511489717277487,-0.1273525406495452
-0.005511149717277487,-0.1154707463001501
-0.005510809717277487,-0.119189978326415
-0.005510469717277487,-0.1162606716862594
-0.005510129717277487,-0.1110603295610394
-0.005509789717277487,-0.1049054942609373
-0.005509449717277487,-0.1010216944458995
-0.005509109717277487,-0.09782907934370746
-0.005508769717277487,-0.09387945241315744
-0.005508429717277487,-0.09213503385216909
-0.005508089717277487,-0.09068683731096858
-0.005507749717277487,-0.08788918490182554
-0.005507409717277487,-0.08476239691514831
-0.005507069717277487,-0.08232679364131107
-0.005506729717277487,-0.07989119036746954
-0.005506389717277487,-0.07752141420914574
-0.005506049717277487,-0.07472376180000839
-0.005505709717277487,-0.07209067717964011
-0.005505369717277487,-0.07005003659886128
-0.005505029717277487,-0.06833853159562431
-0.005504689717277487,-0.06692324861217398
-0.005504349717277487,-0.06452055889609568
-0.005504009717277487,-0.06129503023614909
-0.005503669717277487,-0.06027470994575686
-0.005503329717277487,-0.05974809302168491
-0.005502989717277487,-0.05194757983385487
-0.005502649717277487,-0.05135513579426446
-0.005502309717277487,-0.04674723770863485
-0.005501969717277487,-0.0465497563621075
-0.005501629717277487,-0.05003859348408643
-0.005501289717277487,-0.04776755799902611
-0.005500949717277487,-0.04427872087704306
-0.005500609717277487,-0.04378501751072147
-0.005500269717277487,-0.04200768539197863
-0.005499929717277487,-0.04085571087056913
-0.005499589717277487,-0.04062531596628764
-0.005499249717277487,-0.03733396019083152
-0.005498909717277487,-0.03601741788064923
-0.005498569717277487,-0.03657694836247568
-0.005498229717277487,-0.03812388557694089
-0.005497889717277487,-0.03605033143840378
-0.005497549717277487,-0.033483073933553
-0.005497209717277487,-0.03262732143192985
-0.005496869717277487,-0.03058668085114731
-0.005496529717277487,-0.02966510123402138
-0.005496189717277487,-0.0275257199799735
-0.005495849717277487,-0.02525468449490905
-0.005495509717277487,-0.02643957257407096
-0.005495169717277487,-0.02663705392060045
-0.005494829717277487,-0.0256825607457183
-0.005494489717277487,-0.02449767266655639
-0.005494149717277487,-0.02479389468634526
-0.005493809717277487,-0.02512303026389083
-0.005493469717277487,-0.02347735237616597
-0.005493129717277487,-0.02650539968958223
-0.005492789717277487,-0.02397105574248133
-0.005492449717277487,-0.01949481188786971
-0.005492109717277487,-0.01896819496378865
-0.005491769717277487,-0.01603888832363307
-0.005491429717277487,-0.0180466153466574
-0.005491089717277487,-0.02160127958415322
-0.005490749717277487,-0.01860614582848852
-0.005490409717277487,-0.01669715947872421
-0.005490069717277487,-0.01893528140603409
-0.005489729717277487,-0.01883654073277042
-0.005489389717277487,-0.01913276275256143
-0.005489049717277487,-0.01903402207929776
-0.005488709717277487,-0.0199226881386708
-0.005488369717277487,-0.01798078823115194
-0.005488029717277487,-0.01768456621136104
-0.005487689717277487,-0.01775039332687003
-0.005487349717277487,-0.01617054255465129
-0.005487009717277487,-0.01587432053486028
-0.005486669717277487,-0.01587432053486028
-0.005486329717277487,-0.01580849341935116
-0.005485989717277487,-0.01633511034342402
-0.005485649717277487,-0.01630219678566952
-0.005485309717277487,-0.01468943245569622
-0.005484969717277487,-0.01455777822467512
-0.005484629717277487,-0.01297792745245925
-0.005484289717277487,-0.01264879187491368
-0.005483949717277487,-0.01037775638985038
-0.005483609717277487,-0.01100311398718583
-0.005483269717277487,-0.01129933600697684
-0.005482929717277487,-0.01251713764390491
-0.005482589717277487,-0.01771747976911548
-0.005482249717277487,-0.01169429870003153
-0.005481909717277487,-0.01185886648880317
-0.005481569717277487,-0.01123350889146773
-0.005481229717277487,-0.008764992059875945
-0.005480889717277487,-0.01195760716206733
-0.005480549717277487,-0.01159555802676786
-0.005480209717277487,-0.00869916494436683
-0.005479869717277487,-0.008007980231524903
-0.005479529717277487,-0.01008153437005823
-0.005479189717277487,-0.01011444792781279
-0.005478849717277487,-0.00886373273314189
-0.005478509717277487,-0.01001570725454911
-0.005478169717277487,-0.01037775638984924
-0.005477829717277487,-0.008896646290896867
-0.005477489717277487,-0.01014736148556734
-0.005477149717277487,-0.01172721225778608
-0.005476809717277487,-0.01067397840964217
-0.005476469717277487,-0.01004862081230367
-0.005476129717277487,-0.01100311398718583
-0.005475789717277487,-0.0101473614855689
-0.005475449717277487,-0.01106894110269494
-0.005475109717277487,-0.009159954752930631
-0.005474769717277487,-0.008468770040086188
-0.005474429717277487,-0.009752398792512659
-0.005474089717277487,-0.009357436099457973
-0.005473749717277487,-0.007678844653978613
-0.005473409717277487,-0.007448449749693661
-0.005473069717277487,-0.007349709076429989
-0.005472729717277487,-0.006066080324004597
-0.005472389717277487,-0.006592697248075176
-0.005472049717277487,-0.009818225908021772
-0.005471709717277487,8.875497608189578e-05
-0.005471369717277487,-0.000207467043691097
-0.005471029717277487,-0.006362302343793276
-0.005470689717277487,-0.006066080324002801
-0.005470349717277487,-0.007547190422957332
-0.005470009717277487,-0.008501683597839487
-0.005469669717277487,-0.01212217495084077
-0.005469329717277487,-0.0106410648518857
-0.005468989717277487,-0.01050941062086747
-0.005468649717277487,-0.01037775638984924
-0.005468309717277487,-0.008073807347030245
-0.005467969717277487,-0.008040893789275689
-0.005467629717277487,-0.007152227729902647
-0.005467289717277487,-0.005572376957683906
-0.005466949717277487,0.002096481999127901
-0.005466609717277487,-0.005835685419720362
-0.005466269717277487,-0.006625610805830092
-0.005465929717277487,-0.006823092152357076
-0.005465589717277487,-0.00790923955825746
-0.005465249717277487,-0.006362302343795372
-0.005464909717277487,-0.007514276865202775
-0.005464569717277487,-0.007382622634184546
-0.005464229717277487,-0.006526870132566421
-0.005463889717277487,-0.006724351479093405
-0.005463549717277487,-0.006987659941129861
-0.005463209717277487,-0.007415536191937667
-0.005462869717277487,-0.006625610805829733
-0.005462529717277487,-0.006329388786038719
-0.005462189717277487,-0.005407809168915311
-0.005461849717277487,-0.007711758211730118
-0.005461509717277487,-0.003498822819146808
-0.005461169717277487,-0.004683710898308828
-0.005460829717277487,-0.003564649934655922
-0.005460489717277487,-0.00392669906995605
-0.005460149717277487,-0.01120059533371203
-0.005459809717277487,-0.01057523773637659
-0.005459469717277487,-0.007843412442748346
-0.005459129717277487,-0.008205461578049911
-0.005458789717277487,-0.008995386964157845
-0.005458449717277487,-0.008501683597839487
-0.005458109717277487,-0.00725096840316566
-0.005457769717277487,-0.00688891926786619
-0.005457429717277487,-0.007218054845411761
-0.005457089717277487,-0.007975066673765198
-0.005456749717277487,-0.006921832825620747
-0.005456409717277487,-0.006921832825620747
-0.005456069717277487,-0.00725096840316572
-0.005455729717277487,-0.007086400614393532
-0.005455389717277487,-0.006790178594602518
-0.005455049717277487,-0.006296475228285059
-0.005454709717277487,-0.005967339650738591
-0.005454369717277487,-0.00619773455502049
-0.005454029717277487,-0.006625610805828955
-0.005453689717277487,-0.005901512535229476
-0.005453349717277487,-0.00415709397423795
-0.005453009717277487,-0.003564649934657
-0.005452669717277487,-0.00438748887851985
-0.005452329717277487,-0.004025439743219721
-0.005451989717277487,-0.004947019360345643
-0.005451649717277487,-0.007448449749693661
-0.005451309717277487,-0.01205634783533165
-0.005450969717277487,-0.007580103980720031
-0.005450629717277487,-0.008402942924575817
-0.005450289717277487,-0.005934426092984033
-0.005449949717277487,-0.007020573498882443
-0.005449609717277487,-0.01192469360431343
-0.005449269717277487,-0.008435856482330374
-0.005448929717277487,-0.005045760033617157
-0.005448589717277487,-0.005111587149120106
-0.005448249717277487,-0.005967339650738591
-0.005447909717277487,-0.004979932918101878
-0.005447569717277487,-0.005506549842174791
-0.005447229717277487,-0.005835685419720362
-0.005446889717277487,-0.006263561670529605
-0.005446549717277487,-0.007942153116012016
-0.005446209717277487,-0.008139634462539359
-0.005445869717277487,-0.00790923955825746
-0.005445529717277487,-0.008139634462540077
-0.005445189717277487,-0.008534597155594046
-0.005444849717277487,-0.00688891926786619
-0.005444509717277487,-0.00718514128765888
-0.005444169717277487,-0.008106720904784802
-0.005443829717277487,-0.007185141287657204
-0.005443489717277487,-0.007119314172146893
-0.005443149717277487,-0.006461043017056948
-0.005442809717277487,-0.00586859897747492
-0.005442469717277487,-0.007547190422959188
-0.005442129717277487,-0.008567510713348603
-0.005441789717277487,-0.008534597155594046
-0.005441449717277487,-0.009686571677012045
-0.005441109717277487,-0.01436029687815065
-0.005440769717277487,-0.01146390379574963
-0.005440429717277487,-0.006395215901548731
-0.005440089717277487,-0.00688891926786619
-0.005439749717277487,-0.005210327822383777
-0.005439409717277487,-0.009225781868440763
-0.005439069717277487,-0.009785312350267215
-0.005438729717277487,-0.007283881960920875
-0.005438389717277487,-0.005901512535231692
-0.005438049717277487,-0.00711931417214809
-0.005437709717277487,-0.006296475228284162
-0.005437369717277487,-0.004387488878520568
-0.005437029717277487,-0.004782451571574535
-0.005436689717277487,-0.004058353300974278
-0.005436349717277487,-0.002906378779566875
-0.005436009717277487,-0.004650797340556306
-0.005435669717277487,-0.00540780916891112
-0.005435329717277487,-0.0044533159940307
-0.005434989717277487,-0.005638204073193019
-0.005434649717277487,-0.006559783690320619
-0.005434309717277487,-0.006098993881757657
-0.005433969717277487,-0.005802771861965805
-0.005433629717277487,-0.006000253208493148
-0.005433289717277487,-0.005243241380139711
-0.005432949717277487,-0.005078673591365549
-0.005432609717277487,-0.005210327822383777
-0.005432269717277487,-0.005704031188701236
-0.005431929717277487,-0.006790178594602518
-0.005431589717277487,-0.006131907439511376
-0.005431249717277487,-0.006131907439511376
-0.005430909717277487,-0.006098993881756819
-0.005430569717277487,-0.009851139465776329
-0.005430229717277487,-0.009390349657213368
-0.005429889717277487,-0.00369630416567415
-0.005429549717277487,-0.004255834647501621
-0.005429209717277487,-0.003729217723429666
-0.005428869717277487,-0.00619773455502049
-0.005428529717277487,-0.009587831003739873
-0.005428189717277487,-0.008764992059877443
-0.005427849717277487,-0.006625610805829733
-0.005427509717277487,-0.009456176772721644
-0.005427169717277487,-0.01024610215883101
-0.005426829717277487,-0.008534597155594046
-0.005426489717277487,-0.008468770040084931
-0.005426149717277487,-0.01014736148556734
-0.005425809717277487,-0.007711758211730118
-0.005425469717277487,-0.006691437921338847
-0.005425129717277487,-0.006559783690320619
-0.005424789717277487,-0.004321661763010735
-0.005424449717277487,-0.004025439743219721
-0.005424109717277487,-0.00494701936034732
-0.005423769717277487,-0.004683710898313678
-0.005423429717277487,-0.006230648112775047
-0.005423089717277487,-0.007843412442748346
-0.005422749717277487,0.0002862363226089396
-0.005422409717277487,-0.009785312350267215
-0.005422069717277487,-0.01027901571658557
-0.005421729717277487,-0.01060815129412875
-0.005421389717277487,-0.009291608983948858
-0.005421049717277487,-0.008666251386612273
-0.005420709717277487,-0.00962074456149449
-0.005420369717277487,-0.009653658119248986
-0.005420029717277487,-0.01333997658775938
-0.005419689717277487,-0.005736944746454595
-0.005419349717277487,-0.004584970225047193
-0.005419009717277487,-0.003301341472619465
-0.005418669717277487,-0.004354575320769064
-0.005418329717277487,-0.006428129459302391
-0.005417989717277487,-0.004815365129329092
-0.005417649717277487,-0.003992526185464506
-0.005417309717277487,-0.003630477050165036
