Analysis/New Tests_CMB/wrd01_d2s01/non compliant measurements/cmb07_ch29.csv

#Digilent WaveForms Oscilloscope Acquisition
#Device Name: ADP3450
#Serial Number: SN:210018B9D9B0
#Date Time: 2024-08-07 10:33:38.671.094.030
#Sample rate: 2.94118e+06Hz
#Samples: 32768
#Trigger: Source: Channel 3 Type: Edge Condition: Rising Level: 0 V Hyst.: Auto HoldOff: 0 s
#Channel 3: Range: 200 mV/div Offset: 0 V Attenuation: 1 X Coupling: DC Bandwidth: 0 Hz Sample Mode: Average

Time (s),Channel 3 (V)
-0.005570501714285715,0.01226677134528605
-0.005570161714285714,0.01262882048058689
-0.005569821714285715,0.01302378317364086
-0.005569481714285715,0.01374788144424112
-0.005569141714285714,0.0147352881768795
-0.005568801714285715,0.01565686779400543
-0.005568461714285715,0.01641387962236024
-0.005568121714285714,0.01684175587316757
-0.005567781714285715,0.01578852202502366
-0.005567441714285715,0.01407701702178669
-0.005567101714285714,0.01262882048058378
-0.005566761714285715,0.01131227817040389
-0.005566421714285715,0.01065400701531275
-0.005566081714285714,0.01081857480408739
-0.005565741714285715,0.0118388950944768
-0.005565401714285715,0.01289212894262263
-0.005565061714285714,0.01381370855975245
-0.005564721714285715,0.01503151019666884
-0.005564381714285715,0.01578852202502366
-0.005564041714285714,0.01549230000523324
-0.005563701714285715,0.01582143558277821
-0.005563361714285715,0.01671010164215126
-0.005563021714285715,0.0174012863549957
-0.005562681714285715,0.01796081683682443
-0.005562341714285715,0.01858617443416101
-0.005562001714285715,0.01891531001170598
-0.005561661714285715,0.01812538462559721
-0.005561321714285715,0.01680884231541493
-0.005560981714285715,0.01526190510095356
-0.005560641714285715,0.01397827634852302
-0.005560301714285715,0.0127604747116044
-0.005559961714285715,0.01177306797896949
-0.005559621714285715,0.01127936461264933
-0.005559281714285715,0.01147684595917668
-0.005558941714285715,0.01197054932549413
-0.005558601714285715,0.01272756115384985
-0.005558261714285715,0.01236551201854972
-0.005557921714285715,0.01305669673139416
-0.005557581714285715,0.01374788144424112
-0.005557241714285715,0.01358331365546833
-0.005556901714285715,0.01371496788648632
-0.005556561714285715,0.01401118990627757
-0.005556221714285715,0.0143732390415777
-0.005555881714285715,0.01499859663891315
-0.005555541714285715,0.01522899154319619
-0.005555201714285715,0.01513025086993251
-0.005554861714285715,0.01473528817687855
-0.005554521714285715,0.01447197971484137
-0.005554181714285715,0.01420867125280492
-0.005553841714285715,0.01401118990627757
-0.005553501714285715,0.01355040009771377
-0.005553161714285715,0.01496568308115973
-0.005552821714285715,0.01963940828230684
-0.005552481714285715,0.03076419080334714
-0.005552141714285715,0.05047941189832685
-0.005551801714285715,0.0785217631052095
-0.005551461714285714,0.1114682344175854
-0.005551121714285715,0.1467844818881609
-0.005550781714285715,0.1814753717614641
-0.005550441714285714,0.211986239799983
-0.005550101714285715,0.23640809965382
-0.005549761714285715,0.2540826801680171
-0.005549421714285714,0.2653062033623308
-0.005549081714285715,0.2706381997185593
-0.005548741714285715,0.2707698539495775
-0.005548401714285714,0.2686633862532776
-0.005548061714285715,0.2640884017254025
-0.005547721714285715,0.2579006528675457
-0.005547381714285714,0.2515154226631495
-0.005547041714285715,0.2448339704389866
-0.005546701714285715,0.2370663708089111
-0.005546361714285714,0.2292987711788214
-0.005546021714285715,0.221465344433251
-0.005545681714285715,0.2127103380705388
-0.005545341714285714,0.2042186401698483
-0.005545001714285715,0.1960560778467329
-0.005544661714285715,0.1888809222562395
-0.005544321714285714,0.1829235683026551
-0.005543981714285715,0.1776573990619355
-0.005543641714285715,0.1725228840522246
-0.005543301714285714,0.1676516775045409
-0.005542961714285715,0.1625500760525938
-0.005542621714285715,0.1565927220990189
-0.005542281714285715,0.1509315901652454
-0.005541941714285715,0.1450071497694149
-0.005541601714285715,0.1399055483174585
-0.005541261714285715,0.1345735519612299
-0.005540921714285715,0.1294390369515094
-0.005540581714285715,0.1241728677107802
-0.005540241714285715,0.1195649696251506
-0.005539901714285715,0.1160761325031592
-0.005539561714285715,0.1130809987474945
-0.005539221714285715,0.1102175192228532
-0.005538881714285715,0.1065641143120921
-0.005538541714285715,0.1031740178633728
-0.005538201714285715,0.09955352651037809
-0.005537861714285715,0.0964925656391977
-0.005537521714285715,0.0936290861145512
-0.005537181714285715,0.09116056928296393
-0.005536841714285715,0.08921866937544057
-0.005536501714285715,0.08668432542833968
-0.005536161714285715,0.08372210523043491
-0.005535821714285715,0.08115484772557408
-0.005535481714285715,0.07792931906562747
-0.005535141714285715,0.07500001242547721
-0.005534801714285715,0.07216944645857998
-0.005534461714285715,0.06973384318474277
-0.005534121714285715,0.06713367212213749
-0.005533781714285715,0.06463224173278639
-0.005533441714285715,0.06232829268996741
-0.005533101714285715,0.06094592326427601
-0.005532761714285715,0.05887236912573891
-0.005532421714285715,0.05762165393106574
-0.005532081714285715,0.05656842008291992
-0.005531741714285715,0.05571266758130143
-0.005531401714285715,0.05502148286845573
-0.005531061714285715,0.05357328632725521
-0.005530721714285715,0.0516642999774909
-0.005530381714285715,0.04998570853200849
-0.005530041714285715,0.04893247468386266
-0.005529701714285714,0.0472538832383784
-0.005529361714285715,0.04623356294798898
-0.005529021714285715,0.04544363756187961
-0.005528681714285714,0.0444562308292411
-0.005528341714285715,0.04346882409660618
-0.005528001714285715,0.0421522817864239
-0.005527661714285714,0.04044077678318322
-0.005527321714285715,0.03840013620240439
-0.005526981714285715,0.03635949562162185
-0.005526641714285714,0.03451633638736276
-0.005526301714285715,0.03237695513332044
-0.005525961714285715,0.03171868397822929
-0.005525621714285714,0.03115915349640165
-0.005525281714285715,0.03106041282313815
-0.005524941714285715,0.03132372128517461
-0.005524601714285714,0.0306325365723279
-0.005524261714285715,0.03007300609050144
-0.005523921714285715,0.02928308070439207
-0.005523581714285714,0.02852606887603594
-0.005523241714285715,0.027801970605437
-0.005522901714285715,0.02684747743055485
-0.005522561714285714,0.02612337915995375
-0.005522221714285715,0.02566258935139079
-0.005521881714285715,0.02605755204444548
-0.005521541714285714,0.02638668762199236
-0.005521201714285715,0.0271107858925913
-0.005520861714285715,0.0271107858925913
-0.005520521714285715,0.02704495877708231
-0.005520181714285715,0.02671582319953662
-0.005519841714285715,0.02684747743055485
-0.005519501714285715,0.02641960117974638
-0.005519161714285715,0.02536636733159978
-0.005518821714285715,0.02457644194549041
-0.005518481714285715,0.0233915538663285
-0.005518141714285715,0.02197627088288039
-0.005517801714285715,0.02121925905452558
-0.005517461714285715,0.0209230370347351
-0.005517121714285715,0.02095595059248912
-0.005516781714285715,0.02079138280371634
-0.005516441714285715,0.02075846924596184
-0.005516101714285715,0.02013311164862519
-0.005515761714285715,0.01927735914700671
-0.005515421714285715,0.01871782866518026
-0.005515081714285715,0.01822412529886088
-0.005514741714285715,0.01868491510742468
-0.005514401714285715,0.0184216066453887
-0.005514061714285715,0.01809247106784265
-0.005513721714285715,0.01740128635499695
-0.005513381714285715,0.01647970673787103
-0.005513041714285715,0.01608474404481467
-0.005512701714285715,0.01601891692930556
-0.005512361714285715,0.01588726269828733
-0.005512021714285715,0.01578852202502366
-0.005511681714285715,0.01559104067849632
-0.005511341714285715,0.01536064577421441
-0.005511001714285715,0.01588726269828733
-0.005510661714285715,0.01565686779400543
-0.005510321714285715,0.01555812712074176
-0.005509981714285715,0.01532773221645986
-0.005509641714285715,0.01519607798544163
-0.005509301714285715,0.01532773221645986
-0.005508961714285714,0.01536064577421405
-0.005508621714285715,0.01516316442768707
-0.005508281714285715,0.01496568308115973
-0.005507941714285714,0.01364914077097661
-0.005507601714285715,0.01318835096241365
-0.005507261714285715,0.01210220355651326
-0.005506921714285714,0.01150975951693004
-0.005506581714285715,0.01085148836184009
-0.005506241714285715,0.01062109345755819
-0.005505901714285714,0.01141101884366876
-0.005505561714285715,0.0120692899987587
-0.005505221714285715,0.01272756115384985
-0.005504881714285714,0.01358331365546959
-0.005504541714285715,0.01427449836831403
-0.005504201714285715,0.01417575769505036
-0.005503861714285714,0.01466946106136818
-0.005503521714285715,0.0143732390415777
-0.005503181714285715,0.01335291875118643
-0.005502841714285714,0.01315543740465861
-0.005502501714285715,0.01289212894262263
-0.005502161714285715,0.01285921538486808
-0.005501821714285714,0.01328709163567654
-0.005501481714285715,0.01285921538486808
-0.005501141714285715,0.0125300798073225
-0.005500801714285714,0.01292504250037737
-0.005500461714285715,0.01302378317364086
-0.005500121714285715,0.01325417807792276
-0.005499781714285715,0.01302378317364128
-0.005499441714285715,0.0125300798073225
-0.005499101714285715,0.01226677134528605
-0.005498761714285715,0.01150975951693261
-0.005498421714285715,0.01127936461264933
-0.005498081714285715,0.01127936461264933
-0.005497741714285715,0.01104896970836785
-0.005497401714285715,0.01108188326612199
-0.005497061714285715,0.01111479682387655
-0.005496721714285715,0.01104896970836755
-0.005496381714285715,0.01177306797896769
-0.005496041714285715,0.01246425269181339
-0.005495701714285715,0.01378079500199328
-0.005495361714285715,0.01457072038810504
-0.005495021714285715,0.01526190510095074
-0.005494681714285715,0.01562395423625021
-0.005494341714285715,0.01545938644747809
-0.005494001714285715,0.0150644237544234
-0.005493661714285715,0.01420867125280647
-0.005493321714285715,0.01410993057954124
-0.005492981714285715,0.01378079500199567
-0.005492641714285715,0.01378079500199567
-0.005492301714285715,0.01417575769505036
-0.005491961714285715,0.01440615259933226
-0.005491621714285715,0.01315543740466136
-0.005491281714285715,0.01256299336507706
-0.005490941714285715,0.01190472220998592
-0.005490601714285715,0.01147684595917668
-0.005490261714285715,0.01187180865223136
-0.005489921714285715,0.01239842557630427
-0.005489581714285715,0.01305669673139542
-0.005489241714285715,0.01358331365546833
-0.005488901714285715,0.01410993057954124
-0.005488561714285715,0.01397827634852302
-0.005488221714285715,0.01358331365546707
-0.005487881714285715,0.01289212894262263
-0.005487541714285715,0.01210220355651326
-0.005487201714285714,0.01114771038162979
-0.005486861714285715,0.01042361211103085
-0.005486521714285715,0.01032487143776718
-0.005486181714285714,0.01029195788001334
-0.005485841714285715,0.01068692057306731
-0.005485501714285715,0.01197054932549503
-0.005485161714285714,0.0129908696158887
-0.005484821714285715,0.01430741192606859
-0.005484481714285715,0.0157556084672691
-0.005484141714285714,0.01638096606460611
-0.005483801714285715,0.01661136096888758
-0.005483461714285715,0.01628222539134202
-0.005483121714285714,0.01539355933196694
-0.005482781714285715,0.01427449836831403
-0.005482441714285715,0.0134516594244501
-0.005482101714285714,0.01200346288324905
-0.005481761714285715,0.01170724086345858
-0.005481421714285715,0.01111479682387655
-0.005481081714285714,0.0109502290351031
-0.005480741714285715,0.01058817989980363
-0.005480401714285715,0.01078566124633098
-0.005480061714285714,0.01108188326612259
-0.005479721714285715,0.01141101884366756
-0.005479381714285715,0.01187180865223136
-0.005479041714285715,0.01233259846079432
-0.005478701714285715,0.01282630182711352
-0.005478361714285715,0.01302378317364086
-0.005478021714285715,0.01384662211750329
-0.005477681714285715,0.01381370855975023
-0.005477341714285715,0.01374788144424112
-0.005477001714285715,0.01312252384690567
-0.005476661714285715,0.01226677134528605
-0.005476321714285715,0.01141101884366756
-0.005475981714285715,0.01075274768857762
-0.005475641714285715,0.01065400701531275
-0.005475301714285715,0.01098314259285832
-0.005474961714285715,0.01150975951693028
-0.005474621714285715,0.01197054932549503
-0.005474281714285715,0.01213511711426782
-0.005473941714285715,0.01279338826935776
-0.005473601714285715,0.01312252384690453
-0.005473261714285715,0.01325417807792276
-0.005472921714285715,0.01249716624956932
-0.005472581714285715,0.0132212645201682
-0.005472241714285715,0.01364914077097745
-0.005471901714285715,0.01434032548382189
-0.005471561714285715,0.01496568308115973
-0.005471221714285715,0.01611765760256923
-0.005470881714285715,0.01707215077744965
-0.005470541714285715,0.01750002702826063
-0.005470201714285715,0.01726963212397873
-0.005469861714285715,0.01677592875766037
-0.005469521714285715,0.01549230000523264
-0.005469181714285715,0.01450489327259593
-0.005468841714285715,0.01348457298220466
-0.005468501714285715,0.01236551201854972
-0.005468161714285715,0.01157558663244035
-0.005467821714285715,0.01114771038163111
-0.005467481714285715,0.01111479682387655
-0.005467141714285715,0.01098314259285832
-0.005466801714285715,0.01170724086345858
-0.005466461714285714,0.01226677134528778
-0.005466121714285715,0.0132212645201682
-0.005465781714285715,0.01397827634852302
-0.005465441714285714,0.01503151019666974
-0.005465101714285715,0.0155252135629872
-0.005464761714285715,0.01572269490951454
-0.005464421714285714,0.01562395423625021
-0.005464081714285715,0.01526190510095074
-0.005463741714285715,0.0143732390415777
-0.005463401714285714,0.01295795605813049
-0.005463061714285715,0.01226677134528605
-0.005462721714285715,0.01131227817040389
-0.005462381714285714,0.01035778499552131
-0.005462041714285715,0.01012739009123984
-0.005461701714285715,0.00973242739818515
-0.005461361714285714,0.01006156297573174
-0.005461021714285715,0.01062109345755819
-0.005460681714285715,0.01144393240142212
-0.005460341714285714,0.01299086961588924
-0.005460001714285715,0.0146036339458596
-0.005459661714285715,0.01582143558277821
-0.005459321714285714,0.01631513894909579
-0.005458981714285715,0.01588726269828733
-0.005458641714285715,0.01522899154319619
-0.005458301714285714,0.01358331365546707
-0.005457961714285715,0.01289212894262263
-0.005457621714285715,0.0116085001901949
-0.005457281714285715,0.01101605615061395
-0.005456941714285715,0.01035778499552173
-0.005456601714285715,0.01042361211103085
-0.005456261714285715,0.01088440191959381
-0.005455921714285715,0.01150975951693123
-0.005455581714285715,0.0125300798073225
-0.005455241714285715,0.01351748653995742
-0.005454901714285715,0.01450489327259593
-0.005454561714285715,0.01486694240789606
-0.005454221714285715,0.015591040678495
-0.005453881714285715,0.0155252135629872
-0.005453541714285715,0.01592017625604189
-0.005453201714285715,0.01568978135176041
-0.005452861714285715,0.01516316442768707
-0.005452521714285715,0.0143732390415777
-0.005452181714285715,0.01312252384690681
-0.005451841714285715,0.01210220355651326
-0.005451501714285715,0.01131227817040389
-0.005451161714285715,0.01078566124633193
-0.005450821714285715,0.01035778499552173
-0.005450481714285715,0.01022613076450351
-0.005450141714285715,0.0103577849955215
-0.005449801714285715,0.01075274768857642
-0.005449461714285715,0.01118062393938566
-0.005449121714285715,0.01091731547734968
-0.005448781714285715,0.01075274768857642
-0.005448441714285715,0.01124645105489478
-0.005448101714285715,0.01150975951693123
-0.005447761714285715,0.01193763576774048
-0.005447421714285715,0.01269464759609529
-0.005447081714285715,0.01341874586669555
-0.005446741714285715,0.01341874586669555
-0.005446401714285715,0.01308961028914997
-0.005446061714285715,0.0129908696158863
-0.005445721714285714,0.01262882048058563
-0.005445381714285715,0.01233259846079516
-0.005445041714285715,0.0129908696158863
-0.005444701714285714,0.0132541780779227
-0.005444361714285715,0.0132212645201682
-0.005444021714285715,0.0141428441372958
-0.005443681714285714,0.01404410346403195
-0.005443341714285715,0.01394536279076846
-0.005443001714285715,0.01381370855975023
-0.005442661714285714,0.01381370855975041
-0.005442321714285715,0.0139124492330139
-0.005441981714285715,0.01394536279076846
-0.005441641714285714,0.0134516594244501
-0.005441301714285715,0.0134516594244501
-0.005440961714285715,0.01315543740465909
-0.005440621714285714,0.01335291875118583
-0.005440281714285715,0.01302378317364086
-0.005439941714285715,0.01203637644100415
-0.005439601714285714,0.01177306797896637
-0.005439261714285715,0.01104896970836743
-0.005438921714285715,0.01081857480408553
-0.005438581714285714,0.01039069855327617
-0.005438241714285715,0.01032487143776718
-0.005437901714285715,0.01131227817040389
-0.005437561714285714,0.01206928999875924
-0.005437221714285715,0.01236551201854972
-0.005436881714285715,0.01262882048058617
-0.005436541714285715,0.01292504250037665
-0.005436201714285715,0.01292504250037719
-0.005435861714285715,0.01318835096241365
-0.005435521714285715,0.01361622721322211
-0.005435181714285715,0.01341874586669555
-0.005434841714285715,0.01378079500199567
-0.005434501714285715,0.01338583230894171
-0.005434161714285715,0.01364914077097745
-0.005433821714285715,0.0139124492330139
-0.005433481714285715,0.01427449836831337
-0.005433141714285715,0.01450489327259593
-0.005432801714285715,0.01480111529238694
-0.005432461714285715,0.01493276952340493
-0.005432121714285715,0.0143732390415777
-0.005431781714285715,0.01374788144424112
-0.005431441714285715,0.01223385778753424
-0.005431101714285715,0.01042361211103085
-0.005430761714285715,0.004466258157456012
-0.005430421714285715,-0.007086400614372518
-0.005430081714285715,-0.02611043699652754
-0.005429741714285715,-0.052309628969155
-0.005429401714285715,-0.08364333595143637
-0.005429061714285715,-0.1169518563991052
-0.005428721714285715,-0.1496350192493804
-0.005428381714285715,-0.178598950073338
-0.005428041714285715,-0.2023296252144263
-0.005427701714285715,-0.2196092430355688
-0.005427361714285715,-0.2314581238272093
-0.005427021714285715,-0.2375142184540479
-0.005426681714285715,-0.2392586370150394
-0.005426341714285715,-0.2375142184540479
-0.005426001714285715,-0.2321163949823005
-0.005425661714285715,-0.2250728936228253
-0.005425321714285715,-0.2166141092799041
-0.005424981714285715,-0.20762870801291
-0.005424641714285715,-0.1990711829967251
-0.005424301714285715,-0.1909415342313495
-0.005423961714285714,-0.1846221311424627
-0.005423621714285715,-0.1781052467070723
-0.005423281714285715,-0.1724441147732884
-0.005422941714285714,-0.1666842421662305
-0.005422601714285715,-0.1609243695591935
-0.005422261714285715,-0.1550657562788823
-0.005421921714285714,-0.1486476125167326
-0.005421581714285715,-0.1425586043321506
-0.005421241714285715,-0.1367658181673485
-0.005420901714285714,-0.1315983895998735
-0.005420561714285715,-0.1263651339169085
-0.005420221714285715,-0.1217243222735159
-0.005419881714285714,-0.1168860292835875
-0.005419541714285715,-0.1121793905246944
-0.005419201714285715,-0.1071765297460017
-0.005418861714285714,-0.1021078418517917
-0.005418521714285715,-0.09759868443942557
-0.005418181714285715,-0.09387945241316062
-0.005417841714285714,-0.09016022038688866
-0.005417501714285715,-0.0863093341296125
-0.005417161714285715,-0.08321545970068411
-0.005416821714285714,-0.08022032594501392
-0.005416481714285715,-0.07719227863160016
-0.005416141714285715,-0.07442753978021738
-0.005415801714285714,-0.07205776362188483
-0.005415461714285715,-0.06962216034805205
-0.005415121714285715,-0.06642954524586001
-0.005414781714285715,-0.06320401658591927
-0.005414441714285715,-0.05971517946393035
-0.005414101714285715,-0.05642382368847464
-0.005413761714285715,-0.05405404753015083
-0.005413421714285715,-0.05165135781406385
-0.005413081714285715,-0.04974237146429954
-0.005412741714285715,-0.0478992122300477
-0.005412401714285715,-0.04631936145782561
-0.005412061714285715,-0.04450911578132496
-0.005411721714285715,-0.04243556164279164
