Analysis/New Tests_CMB/wrd01_d2s01/non compliant measurements/cmb08_ch34.csv

#Digilent WaveForms Oscilloscope Acquisition
#Device Name: ADP3450
#Serial Number: SN:210018B9D9B0
#Date Time: 2024-08-06 16:59:22.176.888.010
#Sample rate: 2.94118e+06Hz
#Samples: 32768
#Trigger: Source: Channel 3 Type: Edge Condition: Rising Level: 60 mV Hyst.: Auto HoldOff: 0 s
#Channel 3: Range: 200 mV/div Offset: -20 mV Attenuation: 1 X Coupling: DC Bandwidth: 0 Hz Sample Mode: Average

Time (s),Channel 3 (V)
-0.005570432217795485,0.02872744728005427
-0.005570092217795484,0.02790460833618783
-0.005569752217795485,0.02652223891049895
-0.005569412217795485,0.02487656102277109
-0.005569072217795484,0.02356001871258743
-0.005568732217795485,0.022803006884234
-0.005568392217795485,0.02217764928689741
-0.005568052217795484,0.02221056284465412
-0.005567712217795485,0.02339545092381603
-0.005567372217795485,0.02428411698318907
-0.005567032217795484,0.02484364746501678
-0.005566692217795485,0.02497530169603476
-0.005566352217795485,0.02484364746501654
-0.005566012217795484,0.02421828986767977
-0.005565672217795485,0.02411954919441628
-0.005565332217795485,0.02359293227034337
-0.005564992217795484,0.0232967102505511
-0.005564652217795485,0.02260552553770665
-0.005564312217795485,0.02204599505587918
-0.005563972217795484,0.02135481034303348
-0.005563632217795485,0.02135481034303348
-0.005563292217795485,0.02128898322752437
-0.005562952217795485,0.02174977303608733
-0.005562612217795485,0.02161811880506994
-0.005562272217795485,0.0214206374585426
-0.005561932217795485,0.02109150188099763
-0.005561592217795485,0.02043323072590588
-0.005561252217795485,0.01961039178204196
-0.005560912217795485,0.01832676302961657
-0.005560572217795485,0.0165823444686227
-0.005560232217795485,0.01519997504293131
-0.005559892217795485,0.01375177850173342
-0.005559552217795484,0.01322516157765788
-0.005559212217795485,0.01312642090439421
-0.005558872217795485,0.0132251615776577
-0.005558532217795484,0.01296185311562142
-0.005558192217795485,0.01289602600011231
-0.005557852217795485,0.01263271753807633
-0.005557512217795484,0.01309350734663965
-0.005557172217795485,0.01342264292418522
-0.005556832217795485,0.01434422254131114
-0.005556492217795484,0.0154303699472132
-0.005556152217795485,0.01595698687128612
-0.005555812217795485,0.01645069023760358
-0.005555472217795484,0.01654943091086815
-0.005555132217795485,0.01661525802637726
-0.005554792217795485,0.01582533264026932
-0.005554452217795484,0.01450879033008561
-0.005554112217795485,0.01398217340601269
-0.005553772217795485,0.01375177850173079
-0.005553432217795484,0.01371886494397623
-0.005553092217795485,0.01417965475254003
-0.005552752217795485,0.01523288860068586
-0.005552412217795484,0.01552911062047688
-0.005552072217795485,0.01552911062047688
-0.005551732217795485,0.01552911062047688
-0.005551392217795484,0.01487083946538597
-0.005551052217795485,0.01500249369640396
-0.005550712217795485,0.01519997504293131
-0.005550372217795484,0.01500249369640384
-0.005550032217795485,0.01493666658089485
-0.005549692217795485,0.01572659196700422
-0.005549352217795484,0.01717478850820641
-0.005549012217795485,0.01809636812533233
-0.005548672217795485,0.0188862935114417
-0.005548332217795484,0.01849133081838528
-0.005547992217795485,0.01753683764350486
-0.005547652217795485,0.01598990042904068
-0.005547312217795484,0.01444296321457517
-0.005546972217795485,0.01371886494397623
-0.005546632217795485,0.01302768023113053
-0.005546292217795484,0.01217192772951415
-0.005545952217795485,0.01332390225092155
-0.005545612217795485,0.01365303782846712
-0.005545272217795484,0.01368595138622186
-0.005544932217795485,0.01378469205948535
-0.005544592217795485,0.01335681580867611
-0.005544252217795484,0.01319224801990248
-0.005543912217795485,0.01273145821133952
-0.005543572217795485,0.01236940907603939
-0.005543232217795484,0.01157948368992805
-0.005542892217795485,0.01049333628402964
-0.005542552217795485,0.00967049734016571
-0.005542212217795485,0.01042750916851915
-0.005541872217795485,0.01082247186157521
-0.005541532217795485,0.01220484128726661
-0.005541192217795485,0.01421256831029094
-0.005540852217795485,0.01595698687128612
-0.005540512217795485,0.01710896139269562
-0.005540172217795485,0.01737226985473159
-0.005539832217795485,0.01631903600658625
-0.005539492217795485,0.01513414792742219
-0.005539152217795485,0.01414674119478727
-0.005538812217795485,0.01283019888460319
-0.005538472217795485,0.01148074301666635
-0.005538132217795485,0.01065790407280392
-0.005537792217795484,0.009736324455674824
-0.005537452217795485,0.008913485511810896
-0.005537112217795485,0.008321041472229946
-0.005536772217795484,0.008189387241210641
-0.005536432217795485,0.008189387241210641
-0.005536092217795485,0.008617263492019104
-0.005535752217795484,0.009209707531601911
-0.005535412217795485,0.01062499051504787
-0.005535072217795485,0.01184279215196426
-0.005534732217795484,0.01329098869316699
-0.005534392217795485,0.01424548186804915
-0.005534052217795485,0.0147720987921211
-0.005533712217795484,0.01552911062047688
-0.005533372217795485,0.01638486312209536
-0.005533032217795485,0.01608864110230435
-0.005532692217795484,0.01668108514188637
-0.005532352217795485,0.0165823444686227
-0.005532012217795485,0.01622029533332257
-0.005531672217795484,0.01592407331353156
-0.005531332217795485,0.01516706148517675
-0.005530992217795485,0.01457461744559472
-0.005530652217795484,0.01391634629050358
-0.005530312217795485,0.01309350734663965
-0.005529972217795485,0.01283019888460319
-0.005529632217795484,0.01217192772950972
-0.005529292217795485,0.01088829897708432
-0.005528952217795485,0.01026294137974774
-0.005528612217795484,0.009999632917711641
-0.005528272217795485,0.01019711426423862
-0.005527932217795485,0.01049333628402964
-0.005527592217795484,0.01184279215196905
-0.005527252217795485,0.01325807513541244
-0.005526912217795485,0.01477209879212206
-0.005526572217795484,0.01549619706272226
-0.005526232217795485,0.01546328350496776
-0.005525892217795485,0.01519997504293131
-0.005525552217795484,0.01533162927394887
-0.005525212217795485,0.0149695801386494
-0.005524872217795485,0.01381760561723991
-0.005524532217795484,0.01236940907603748
-0.005524192217795485,0.01131617522789356
-0.005523852217795485,0.01016420070648407
-0.005523512217795484,0.008683090607528997
-0.005523172217795485,0.008683090607528997
-0.005522832217795485,0.008189387241210641
-0.005522492217795484,0.008485609261003391
-0.005522152217795485,0.009440102435883811
-0.005521812217795485,0.01036168205301141
-0.005521472217795484,0.01227066840277722
-0.005521132217795485,0.01309350734663965
-0.005520792217795485,0.01401508696376725
-0.005520452217795485,0.01473918523436619
-0.005520112217795485,0.01585824619802245
-0.005519772217795485,0.01602281398679523
-0.005519432217795485,0.01592407331353174
-0.005519092217795485,0.01552911062047688
-0.005518752217795485,0.01539745638945865
-0.005518412217795485,0.01552911062047664
-0.005518072217795485,0.01549619706272232
-0.005517732217795485,0.01575950552475877
-0.005517392217795485,0.01566076485149528
-0.005517052217795484,0.0156607648514951
-0.005516712217795485,0.0156607648514951
-0.005516372217795485,0.01552911062047711
-0.005516032217795484,0.01552911062047688
-0.005515692217795485,0.01562785129374055
-0.005515352217795485,0.0149695801386506
-0.005515012217795484,0.01414674119478548
-0.005514672217795485,0.01263271753807585
-0.005514332217795485,0.01194153282523141
-0.005513992217795484,0.01092121253483888
-0.005513652217795485,0.01121743455462989
-0.005513312217795485,0.01125034811238439
-0.005512972217795484,0.01141491590115724
-0.005512632217795485,0.01131617522789356
-0.005512292217795485,0.01157948368993002
-0.005511952217795484,0.01213901417175749
-0.005511612217795485,0.01263271753807585
-0.005511272217795485,0.01302768023113053
-0.005510932217795484,0.01342264292418522
-0.005510592217795485,0.01381760561723991
-0.005510252217795485,0.01424548186804915
-0.005509912217795484,0.01510123436966763
-0.005509572217795485,0.01579241908251333
-0.005509232217795485,0.01638486312209536
-0.005508892217795484,0.01664817158413002
-0.005508552217795485,0.0156607648514951
-0.005508212217795485,0.01450879033008561
-0.005507872217795484,0.01358721071295675
-0.005507532217795485,0.01289602600011231
-0.005507192217795485,0.01273145821133952
-0.005506852217795484,0.01315933446214924
-0.005506512217795485,0.01342264292418522
-0.005506172217795485,0.01378469205948535
-0.005505832217795484,0.01368595138622036
-0.005505492217795485,0.01296185311562142
-0.005505152217795485,0.01227066840277572
-0.005504812217795484,0.01204027349849406
-0.005504472217795485,0.01217192772951205
-0.005504132217795485,0.01276437176909408
-0.005503792217795484,0.01362012427071226
-0.005503452217795485,0.01345555648193978
-0.005503112217795485,0.01325807513541244
-0.005502772217795484,0.01286311244235727
-0.005502432217795485,0.01259980398032129
-0.005502092217795485,0.01352138359744889
-0.005501752217795484,0.01342264292418666
-0.005501412217795485,0.01421256831029459
-0.005501072217795485,0.01421256831029459
-0.005500732217795484,0.01378469205948469
-0.005500392217795485,0.01342264292418522
-0.005500052217795485,0.01289602600011231
-0.005499712217795485,0.01289602600011231
-0.005499372217795485,0.01263271753807585
-0.005499032217795485,0.01220484128726661
-0.005498692217795485,0.01184279215196714
-0.005498352217795485,0.01131617522789356
-0.005498012217795485,0.01042750916852052
-0.005497672217795485,0.01006546003322105
-0.005497332217795485,0.01009837359097495
-0.005496992217795485,0.01055916339953875
-0.005496652217795485,0.01151365657441917
-0.005496312217795484,0.01223775484502116
-0.005495972217795485,0.01240232263379395
-0.005495632217795485,0.01210610061400348
-0.005495292217795484,0.01161239724768458
-0.005494952217795485,0.01141491590115724
-0.005494612217795485,0.01108578032361226
-0.005494272217795484,0.01118452099687534
-0.005493932217795485,0.01148074301666635
-0.005493592217795485,0.01236940907603778
-0.005493252217795484,0.01348847003969433
-0.005492912217795485,0.01421256831029459
-0.005492572217795485,0.01464044456110305
-0.005492232217795484,0.01467335811885839
-0.005491892217795485,0.01437713609906738
-0.005491552217795485,0.01325807513541447
-0.005491212217795484,0.01227066840277572
-0.005490872217795485,0.01154657013217547
-0.005490532217795485,0.01098703965034799
-0.005490192217795484,0.01078955830382065
-0.005489852217795485,0.01161239724768458
-0.005489512217795485,0.01200735994073926
-0.005489172217795484,0.01256689042256674
-0.005488832217795485,0.01289602600011231
-0.005488492217795485,0.01352138359744889
-0.005488152217795484,0.01348847003969403
-0.005487812217795485,0.01332390225092155
-0.005487472217795485,0.01286311244235775
-0.005487132217795484,0.01230358196052818
-0.005486792217795485,0.01115160743912078
-0.005486452217795485,0.01003254647546584
-0.005486112217795484,0.01046042272627562
-0.005485772217795485,0.0107566447460661
-0.005485432217795485,0.01151365657442091
-0.005485092217795484,0.01273145821134167
-0.005484752217795485,0.01391634629050358
-0.005484412217795485,0.01506832081191307
-0.005484072217795484,0.01595698687128648
-0.005483732217795485,0.01615446821781346
-0.005483392217795485,0.01628612244883169
-0.005483052217795484,0.01648360379535825
-0.005482712217795485,0.01605572754454979
-0.005482372217795485,0.0147391852343675
-0.005482032217795484,0.01329098869316418
-0.005481692217795485,0.01174405147870281
-0.005481352217795485,0.01072373118831154
-0.005481012217795484,0.01009837359097543
-0.005480672217795485,0.01036168205301141
-0.005480332217795485,0.01131617522789356
-0.005479992217795484,0.01223775484502236
-0.005479652217795485,0.01289602600011231
-0.005479312217795485,0.01332390225092155
-0.005478972217795485,0.01236940907604113
-0.005478632217795485,0.007893165221419626
-0.005478292217795485,-0.002639173260038648
-0.005477952217795485,-0.02064288935174864
-0.005477612217795485,-0.04661168642012694
-0.005477272217795485,-0.07870240523082012
-0.005476932217795485,-0.1126362832757068
-0.005476592217795485,-0.1452865325682892
-0.005476252217795485,-0.1734934515639446
-0.005475912217795485,-0.1975203487247276
-0.005475572217795485,-0.2142733496218409
-0.005475232217795485,-0.2245752931990172
-0.005474892217795485,-0.2301705980172818
-0.005474552217795484,-0.2317833623472652
-0.005474212217795485,-0.2305655607103466
-0.005473872217795485,-0.2277349947434599
-0.005473532217795484,-0.2228308746380257
-0.005473192217795485,-0.2179596680903512
-0.005472852217795485,-0.2120352276945418
-0.005472512217795484,-0.2049917263350557
-0.005472172217795485,-0.1975532622825258
-0.005471832217795485,-0.190081884672255
-0.005471492217795484,-0.1826105070619569
-0.005471152217795485,-0.1746454260853541
-0.005470812217795485,-0.1676348382836462
-0.005470472217795484,-0.1613812623102676
-0.005470132217795485,-0.1554897354722019
-0.005469792217795485,-0.1494665544031179
-0.005469452217795484,-0.1435750275650522
-0.005469112217795485,-0.1384405125553413
-0.005468772217795485,-0.1332730839878758
-0.005468432217795484,-0.1281385689781649
-0.005468092217795485,-0.123300275988245
-0.005467752217795485,-0.1187252914603616
-0.005467412217795484,-0.1139857391437054
-0.005467072217795485,-0.1091474461537855
-0.005466732217795485,-0.1046053751836566
-0.005466392217795484,-0.1003266126755573
-0.005466052217795485,-0.09657446709154463
-0.005465712217795485,-0.09269066727650691
-0.005465372217795484,-0.08847773188391717
-0.005465032217795485,-0.08495598120418596
-0.005464692217795485,-0.08021642888752975
-0.005464352217795484,-0.07577309859065764
-0.005464012217795485,-0.07198803944889048
-0.005463672217795485,-0.068828337904453
-0.005463332217795484,-0.06540532789797547
-0.005462992217795485,-0.06343051443270561
-0.005462652217795485,-0.06132404673641397
-0.005462312217795484,-0.05954671461766417
-0.005461972217795485,-0.05750607403688534
-0.005461632217795485,-0.05441219960795698
-0.005461292217795484,-0.05141706585228725
-0.005460952217795485,-0.04865232700090948
-0.005460612217795485,-0.04585467459177214
-0.005460272217795484,-0.0433532442024213
-0.005459932217795485,-0.04088472737083401
-0.005459592217795485,-0.03835038342373311
-0.005459252217795484,-0.03575021236111951
-0.005458912217795485,-0.03377539889584967
-0.005458572217795485,-0.0327550786054584
-0.005458232217795484,-0.03176767187281929
-0.005457892217795485,-0.0304511295626394
-0.005457552217795485,-0.02956246350326636
-0.005457212217795485,-0.02814718051982298
-0.005456872217795485,-0.02650150263209255
-0.005456532217795485,-0.0239342451272371
-0.005456192217795485,-0.0227493570480752
-0.005455852217795485,-0.02215691300849101
-0.005455512217795485,-0.02153155541115443
-0.005455172217795485,-0.02166320964217242
-0.005454832217795485,-0.02156446896890898
-0.005454492217795485,-0.0207087164672905
-0.005454152217795485,-0.01972130973465559
-0.005453812217795484,-0.01830602675120783
-0.005453472217795485,-0.01659452174797086
-0.005453132217795485,-0.01504758453350949
-0.005452792217795484,-0.01373104222332439
-0.005452452217795485,-0.01280946260619679
-0.005452112217795485,-0.01172331520029839
-0.005451772217795484,-0.01047260000562324
-0.005451432217795485,-0.009649761061759313
-0.005451092217795485,-0.007707861154243975
-0.005450752217795484,-0.006062183266512589
-0.005450412217795485,-0.004087369801239162
-0.005450072217795485,-0.002770827491059271
-0.005449732217795484,-0.00168468008515649
-0.005449392217795485,-0.0005985326792561085
-0.005449052217795485,0.0001584791490973281
-0.005448712217795484,0.0005863553999079472
-0.005448372217795485,0.0008825774196989621
-0.005448032217795485,0.0007838367464352916
-0.005447692217795484,0.001277540112753647
-0.005447352217795485,0.001014231650717189
-0.005447012217795485,0.001112972323980863
-0.005446672217795484,0.001573762132544662
-0.005446332217795485,0.001409194343771875
-0.005445992217795485,0.001277540112753647
-0.005445652217795484,0.001540848574791303
-0.005445312217795485,0.002199119729881245
-0.005444972217795485,0.002725736653954161
-0.005444632217795484,0.003647316271084333
-0.005444292217795485,0.005062599254527716
-0.005443952217795485,0.006280400891446328
-0.005443612217795484,0.007629856759386044
-0.005443272217795485,0.009209707531601911
-0.005442932217795485,0.009736324455674824
-0.005442592217795484,0.009933805802202047
-0.005442252217795485,0.009867978686693053
-0.005441912217795485,0.009769238013429382
-0.005441572217795484,0.00960467022465486
-0.005441232217795485,0.00865017704977444
-0.005440892217795485,0.007794424548155956
-0.005440552217795484,0.007234894066328724
-0.005440212217795485,0.007366548297346712
-0.005439872217795485,0.007794424548155956
-0.005439532217795484,0.007695683874892224
-0.005439192217795485,0.007662770317137727
-0.005438852217795485,0.007300721181837598
-0.005438512217795484,0.006576622911236024
-0.005438172217795485,0.005852524640637086
-0.005437832217795485,0.005095512812282273
-0.005437492217795484,0.004733463676983102
-0.005437152217795485,0.005260080601055058
-0.005436812217795485,0.006181660218182656
-0.005436472217795485,0.006708277142254613
-0.005436132217795485,0.00772859743264684
-0.005435792217795485,0.008683090607528997
-0.005435452217795485,0.009275534647109947
-0.005435112217795485,0.009143880416092796
-0.005434772217795485,0.009473015993638367
-0.005434432217795485,0.009440102435883871
-0.005434092217795485,0.01016420070648407
-0.005433752217795485,0.01105286676585711
-0.005433412217795485,0.01223775484501901
-0.005433072217795485,0.01286311244235775
-0.005432732217795485,0.01266563109583041
-0.005432392217795485,0.01180987859421348
-0.005432052217795484,0.01052624984178419
-0.005431712217795485,0.009143880416092796
-0.005431372217795485,0.008386868587739361
-0.005431032217795484,0.007695683874892284
-0.005430692217795485,0.008156473683456083
-0.005430352217795485,0.009604670224653961
-0.005430012217795484,0.01052624984178419
-0.005429672217795485,0.01148074301666635
-0.005429332217795485,0.01230358196052878
-0.005428992217795484,0.01227066840277572
-0.005428652217795485,0.01312642090439421
-0.005428312217795485,0.01279728532684923
-0.005427972217795484,0.01358721071295801
-0.005427632217795485,0.01404800052152181
-0.005427292217795485,0.01417965475254003
-0.005426952217795484,0.01368595138622168
-0.005426612217795485,0.01355429715520345
-0.005426272217795485,0.01362012427071256
-0.005425932217795484,0.01283019888460319
-0.005425592217795485,0.01256689042256674
-0.005425252217795485,0.01236940907603939
-0.005424912217795484,0.01250106330705762
-0.005424572217795485,0.01220484128726661
-0.005424232217795485,0.01151365657442091
-0.005423892217795484,0.0109541260925932
-0.005423552217795485,0.01082247186157521
-0.005423212217795485,0.01052624984178419
-0.005422872217795484,0.01052624984178419
-0.005422532217795485,0.01052624984178419
-0.005422192217795485,0.01085538541932977
-0.005421852217795484,0.01167822436319483
-0.005421512217795485,0.01230358196053028
-0.005421172217795485,0.01299476667337598
-0.005420832217795484,0.01279728532684882
-0.005420492217795485,0.01289602600011231
-0.005420152217795485,0.01319224801990332
-0.005419812217795484,0.01332390225092161
-0.005419472217795485,0.01335681580867611
-0.005419132217795485,0.01447587677233105
-0.005418792217795484,0.01529871571619641
-0.005418452217795485,0.01608864110230435
-0.005418112217795485,0.01674691225739549
-0.005417772217795484,0.017010220719432
-0.005417432217795485,0.0170431342771865
-0.005417092217795485,0.01671399869964093
-0.005416752217795484,0.01608864110230303
-0.005416412217795485,0.01536454283170409
-0.005416072217795485,0.01490375302314029
-0.005415732217795484,0.01516706148517693
-0.005415392217795485,0.01526580215844042
-0.005415052217795485,0.01559493773598599
-0.005414712217795485,0.01592407331353096
-0.005414372217795485,0.0165823444686227
-0.005414032217795485,0.01691148004616827
-0.005413692217795485,0.01714187495044976
-0.005413352217795485,0.01730644273922296
-0.005413012217795485,0.01793180033655955
