Analysis/New Tests_CMB/wrd01_d2s01/non compliant measurements/cmb08_ch07.csv

#Digilent WaveForms Oscilloscope Acquisition
#Device Name: ADP3450
#Serial Number: SN:210018B9D9B0
#Date Time: 2024-08-06 17:10:08.301.738.640
#Sample rate: 2.94118e+06Hz
#Samples: 32768
#Trigger: Source: Channel 3 Type: Edge Condition: Rising Level: 60 mV Hyst.: Auto HoldOff: 0 s
#Channel 3: Range: 200 mV/div Offset: -20 mV Attenuation: 1 X Coupling: DC Bandwidth: 0 Hz Sample Mode: Average

Time (s),Channel 3 (V)
-0.005570275540838852,0.01987370024407841
-0.005569935540838852,0.0191166884157233
-0.005569595540838852,0.01895212062695081
-0.005569255540838852,0.01878755283817803
-0.005568915540838852,0.01937999687776155
-0.005568575540838852,0.02020283582162398
-0.005568235540838852,0.02030157649488766
-0.005567895540838852,0.02020283582162404
-0.005567555540838852,0.02023574937937854
-0.005567215540838852,0.0193470833200055
-0.005566875540838852,0.01819510879859403
-0.005566535540838852,0.01710896139269562
-0.005566195540838852,0.01552911062047688
-0.005565855540838852,0.01510123436966632
-0.005565515540838852,0.01437713609906738
-0.005565175540838852,0.01404800052152181
-0.005564835540838852,0.0140809140792763
-0.005564495540838852,0.01404800052152181
-0.005564155540838852,0.01421256831029459
-0.005563815540838852,0.01296185311562088
-0.005563475540838852,0.01266563109583041
-0.005563135540838852,0.01171113792094825
-0.005562795540838853,0.01141491590115778
-0.005562455540838852,0.01052624984178419
-0.005562115540838852,0.009703410897920267
-0.005561775540838853,0.00920970753160281
-0.005561435540838852,0.008979312627320012
-0.005561095540838852,0.008913485511810896
-0.005560755540838853,0.009407188878128355
-0.005560415540838852,0.009999632917711282
-0.005560075540838852,0.01052624984178419
-0.005559735540838853,0.01131617522789213
-0.005559395540838852,0.01204027349849382
-0.005559055540838852,0.01171113792094825
-0.005558715540838853,0.01144782945891227
-0.005558375540838852,0.01118452099687534
-0.005558035540838852,0.01046042272627508
-0.005557695540838853,0.009538843109149157
-0.005557355540838852,0.009308448204865582
-0.005557015540838852,0.008617263492019883
-0.005556675540838853,0.008123560125702424
-0.005556335540838852,0.00762985675938317
-0.005555995540838852,0.007366548297346712
-0.005555655540838852,0.006938672046538248
-0.005555315540838852,0.006971585604292027
-0.005554975540838852,0.007201980508573926
-0.005554635540838852,0.006839931373274458
-0.005554295540838852,0.00693867204653747
-0.005553955540838852,0.007926078779174183
-0.005553615540838852,0.008847658396301783
-0.005553275540838852,0.009143880416092796
-0.005552935540838852,0.009440102435883811
-0.005552595540838852,0.009275534647111025
-0.005552255540838852,0.009407188878129254
-0.005551915540838852,0.009341361762620138
-0.005551575540838852,0.009473015993638367
-0.005551235540838852,0.01009837359097525
-0.005550895540838852,0.01026294137974774
-0.005550555540838852,0.01039459561076597
-0.005550215540838852,0.009835065128936341
-0.005549875540838852,0.00865017704977444
-0.005549535540838852,0.007333634739592155
-0.005549195540838852,0.006214573775936375
-0.005548855540838852,0.005753783967373414
-0.005548515540838852,0.006181660218182656
-0.005548175540838852,0.006609536468991779
-0.005547835540838852,0.006543709353482785
-0.005547495540838852,0.006609536468991898
-0.005547155540838852,0.006313314449200646
-0.005546815540838852,0.006181660218182656
-0.005546475540838852,0.006280400891446328
-0.005546135540838852,0.00621457377593829
-0.005545795540838852,0.006807017815519241
-0.005545455540838852,0.007267807624083042
-0.005545115540838852,0.007169066950820507
-0.005544775540838852,0.007794424548155956
-0.005544435540838852,0.008419782145492541
-0.005544095540838852,0.008683090607529476
-0.005543755540838852,0.008946399069565453
-0.005543415540838852,0.008617263492019883
-0.005543075540838852,0.008781831280792669
-0.005542735540838852,0.008781831280792669
-0.005542395540838852,0.008419782145492541
-0.005542055540838853,0.007728597432648098
-0.005541715540838852,0.006741190700010127
-0.005541375540838852,0.006082919544918986
-0.005541035540838853,0.005325907716565549
-0.005540695540838852,0.004766377234736701
-0.005540355540838852,0.004338500983927459
-0.005540015540838853,0.004206846752909471
-0.005539675540838852,0.003680229828836316
-0.005539335540838852,0.004141019637400115
-0.005538995540838853,0.004963858581262547
-0.005538655540838852,0.006148746660428099
-0.005538315540838852,0.007333634739592155
-0.005537975540838853,0.007794424548155118
-0.005537635540838852,0.007695683874892284
-0.005537295540838852,0.008057733010192412
-0.005536955540838853,0.007465288970611461
-0.005536615540838852,0.0068399313732738
-0.005536275540838852,0.006477882237973671
-0.005535935540838853,0.006346228006955681
-0.005535595540838852,0.006050005987164429
-0.005535255540838852,0.007037412719801142
-0.005534915540838852,0.007695683874891087
-0.005534575540838852,0.008452695703247097
-0.005534235540838852,0.009078053300583682
-0.005533895540838852,0.008847658396302202
-0.005533555540838852,0.008880571954056339
-0.005533215540838852,0.008222300798965198
-0.005532875540838852,0.007267807624083042
-0.005532535540838852,0.006444968680219114
-0.005532195540838852,0.006379141564709999
-0.005531855540838852,0.006510795795728228
-0.005531515540838852,0.006148746660428099
-0.005531175540838852,0.005556302620846072
-0.005530835540838852,0.005490475505336958
-0.005530495540838852,0.005523389063091515
-0.005530155540838852,0.006346228006955442
-0.005529815540838852,0.0068399313732738
-0.005529475540838852,0.008156473683457998
-0.005529135540838852,0.009209707531601911
-0.005528795540838852,0.009275534647111025
-0.005528455540838852,0.00924262108935533
-0.005528115540838852,0.008617263492019883
-0.005527775540838852,0.007300721181837598
-0.005527435540838852,0.006017092429407117
-0.005527095540838852,0.004503068772700245
-0.005526755540838852,0.004371414541682016
-0.005526415540838852,0.004437241657191788
-0.005526075540838852,0.004799290792491258
-0.005525735540838852,0.0052271670433005
-0.005525395540838852,0.006543709353483742
-0.005525055540838852,0.007070326277555699
-0.005524715540838852,0.006576622911237342
-0.005524375540838852,0.006050005987161974
-0.005524035540838852,0.004700550119227587
-0.005523695540838852,0.00328526713578163
-0.005523355540838852,0.002495341749672499
-0.005523015540838852,0.002626995980690491
-0.005522675540838852,0.00318652646251796
-0.005522335540838852,0.004404328099439087
-0.005521995540838852,0.005786697525127971
-0.005521655540838852,0.007070326277555699
-0.005521315540838852,0.008814744838548902
-0.005520975540838852,0.009736324455674824
-0.005520635540838852,0.01009837359097495
-0.005520295540838853,0.00917679397384903
-0.005519955540838852,0.007860251663665069
-0.005519615540838852,0.006642450026746457
-0.005519275540838853,0.005589216178602544
-0.005518935540838852,0.005292994158809615
-0.005518595540838852,0.005753783967373414
-0.005518255540838853,0.006905758488780818
-0.005517915540838852,0.007564029643874055
-0.005517575540838852,0.008288127914474312
-0.005517235540838853,0.008419782145492301
-0.005516895540838852,0.008551436376510768
-0.005516555540838852,0.008189387241210641
-0.005516215540838853,0.007333634739593712
-0.005515875540838852,0.006543709353482785
-0.005515535540838852,0.006346228006955442
-0.005515195540838853,0.006280400891446448
-0.005514855540838852,0.005523389063091515
-0.005514515540838852,0.005786697525127971
-0.005514175540838853,0.005260080601056016
-0.005513835540838852,0.004832204350245815
-0.005513495540838852,0.00489803146575493
-0.005513155540838852,0.004733463676982443
-0.005512815540838852,0.004930945023509487
-0.005512475540838852,0.0059183517561462
-0.005512135540838852,0.006477882237973671
-0.005511795540838852,0.006741190700010127
-0.005511455540838852,0.006675363584501014
-0.005511115540838852,0.007103239835310256
-0.005510775540838852,0.006872844931028356
-0.005510435540838852,0.006379141564709999
-0.005510095540838852,0.006379141564709999
-0.005509755540838852,0.006115833102673543
-0.005509415540838852,0.006181660218182656
-0.005509075540838852,0.006576622911237342
-0.005508735540838852,0.006807017815518343
-0.005508395540838852,0.006313314449200885
-0.005508055540838852,0.006115833102673543
-0.005507715540838852,0.006017092429408613
-0.005507375540838852,0.005325907716564172
-0.005507035540838852,0.005819611082882528
-0.005506695540838852,0.006543709353484521
-0.005506355540838852,0.007498202528364941
-0.005506015540838852,0.008683090607528997
-0.005505675540838852,0.00944010243588417
-0.005505335540838852,0.009637583782411153
-0.005504995540838852,0.009242621089356468
-0.005504655540838852,0.008518522818752858
-0.005504315540838852,0.006675363584501014
-0.005503975540838852,0.005687956851864301
-0.005503635540838852,0.00522716704330056
-0.005503295540838852,0.005260080601055058
-0.005502955540838852,0.005655043294109744
-0.005502615540838852,0.006444968680221509
-0.005502275540838852,0.007761510990401397
-0.005501935540838852,0.008781831280792669
-0.005501595540838852,0.009110966858337162
-0.005501255540838852,0.008518522818756211
-0.005500915540838852,0.007596943201628613
-0.005500575540838852,0.006905758488779081
-0.005500235540838852,0.004799290792491258
-0.005499895540838852,0.003581489155572645
-0.005499555540838853,0.002330773960901751
-0.005499215540838852,0.001310453670508204
-0.005498875540838852,0.001080058766226306
-0.005498535540838853,0.002067465498861222
-0.005498195540838852,0.00308778578925429
-0.005497855540838852,0.004733463676982144
-0.005497515540838853,0.005227167043299602
-0.005497175540838852,0.005786697525127971
-0.005496835540838852,0.006115833102673543
-0.005496495540838853,0.00614874666042804
-0.005496155540838852,0.005819611082882528
-0.005495815540838852,0.005951265313900757
-0.005495475540838853,0.006576622911236204
-0.005495135540838852,0.007300721181837598
-0.005494795540838852,0.007465288970610384
-0.005494455540838853,0.007333634739592395
-0.005494115540838852,0.006609536468991898
-0.005493775540838852,0.005687956851864301
-0.005493435540838853,0.004535982330456897
-0.005493095540838852,0.003746056944345429
-0.005492755540838852,0.003746056944345429
-0.005492415540838852,0.004272673868417388
-0.005492075540838852,0.004470155214945688
-0.005491735540838852,0.004667636561473031
-0.005491395540838852,0.005523389063089958
-0.005491055540838852,0.006115833102673543
-0.005490715540838852,0.006412055122464556
-0.005490375540838852,0.007037412719801142
-0.005490035540838852,0.008024819452437855
-0.005489695540838852,0.008781831280792669
-0.005489355540838852,0.008683090607528997
-0.005489015540838852,0.008913485511810896
-0.005488675540838852,0.008419782145492541
-0.005488335540838852,0.008024819452437855
-0.005487995540838852,0.007465288970610324
-0.005487655540838852,0.007432375412855827
-0.005487315540838852,0.006675363584501014
-0.005486975540838852,0.006510795795727988
-0.005486635540838852,0.006379141564709999
-0.005486295540838852,0.0068399313732738
-0.005485955540838852,0.00749820252836554
-0.005485615540838852,0.007827338105910513
-0.005485275540838852,0.008189387241210641
-0.005484935540838852,0.008683090607530553
-0.005484595540838852,0.009538843109147481
-0.005484255540838852,0.008156473683456083
-0.005483915540838852,0.00812356012569955
-0.005483575540838852,0.007037412719801142
-0.005483235540838852,0.006313314449200885
-0.005482895540838852,0.005062599254526099
-0.005482555540838852,0.004173933195154675
-0.005482215540838852,0.00328526713578163
-0.005481875540838852,0.003021958673745715
-0.005481535540838852,0.003318180693536187
-0.005481195540838852,0.004108106079645558
-0.005480855540838852,0.00473346367698412
-0.005480515540838852,0.005819611082882528
-0.005480175540838852,0.005786697525127971
-0.005479835540838852,0.006082919544918327
-0.005479495540838852,0.005720870409618857
-0.005479155540838852,0.004239760310663789
-0.005478815540838853,0.001507935017040518
-0.005478475540838852,-0.006852108652621959
-0.005478135540838852,-0.0225518757015457
-0.005477795540838853,-0.0464142050735562
-0.005477455540838852,-0.0772542086896196
-0.005477115540838852,-0.111484308754359
-0.005476775540838853,-0.1458789766078086
-0.005476435540838852,-0.1768506344549094
-0.005476095540838852,-0.2033131348895733
-0.005475755540838853,-0.2238182813706251
-0.005475415540838852,-0.2379052840896129
-0.005475075540838852,-0.2459032786239702
-0.005474735540838853,-0.2494908564192105
-0.005474395540838852,-0.2499845597855353
-0.005474055540838852,-0.2466602904523251
-0.005473715540838853,-0.2409991585185515
-0.005473375540838852,-0.2335606944660113
-0.005473035540838852,-0.2251019101230901
-0.005472695540838853,-0.2165114715491664
-0.005472355540838852,-0.207723551628684
-0.005472015540838852,-0.1993635079590265
-0.005471675540838852,-0.1927149692926181
-0.005471335540838852,-0.1863297390882219
-0.005470995540838852,-0.1802078173458742
-0.005470655540838852,-0.1735263651217113
-0.005470315540838852,-0.1670423942440514
-0.005469975540838852,-0.1599330657690671
-0.005469635540838852,-0.1536794897957012
-0.005469295540838852,-0.1482158392084447
-0.005468955540838852,-0.1423901394858881
-0.005468615540838852,-0.1372556244761772
-0.005468275540838852,-0.1330097755258394
-0.005467935540838852,-0.1288626672487652
-0.005467595540838852,-0.1248142996449546
-0.005467255540838852,-0.1204697100213531
-0.005466915540838852,-0.1155985034736786
-0.005466575540838852,-0.1104969020217223
-0.005466235540838852,-0.1056256954740389
-0.005465895540838852,-0.1006886618108643
-0.005465555540838852,-0.09561997391666247
-0.005465215540838852,-0.09120955717754524
-0.005464875540838852,-0.08758906582455053
-0.005464535540838852,-0.08472558629990407
-0.005464195540838852,-0.08212541523729076
-0.005463855540838852,-0.08031516956079343
-0.005463515540838852,-0.078636578115311
-0.005463175540838852,-0.07751751715165348
-0.005462835540838852,-0.0761022341682101
-0.005462495540838852,-0.07346914954784553
-0.005462155540838852,-0.07090189204298367
-0.005461815540838852,-0.06738014136325249
-0.005461475540838852,-0.06343051443270561
-0.005461135540838852,-0.05954671461766249
-0.005460795540838852,-0.05658449441975775
-0.005460455540838852,-0.05358936066409305
-0.005460115540838852,-0.0507587946971976
-0.005459775540838852,-0.04881689478968227
-0.005459435540838852,-0.04611798305380859
-0.005459095540838852,-0.04381403401098666
-0.005458755540838852,-0.04220126968101629
-0.005458415540838852,-0.04055559179328844
-0.005458075540838852,-0.03930487659861383
-0.005457735540838852,-0.03851495121250589
-0.005457395540838852,-0.03726423601783273
-0.005457055540838853,-0.0363755699584613
-0.005456715540838852,-0.03555273101459575
-0.005456375540838852,-0.03489445985950462
-0.005456035540838853,-0.0338412260113607
-0.005455695540838852,-0.03291964639423119
-0.005455355540838852,-0.03186641254608536
-0.005455015540838853,-0.03025364821611499
-0.005454675540838852,-0.02801552628880218
-0.005454335540838852,-0.0255470094572104
-0.005453995540838853,-0.02344054176092257
-0.005453655540838852,-0.02077454358279961
-0.005453315540838852,-0.01899721146405353
-0.005452975540838853,-0.01718696578755618
-0.005452635540838852,-0.01564002857308871
-0.005452295540838852,-0.01432348626290642
-0.005451955540838853,-0.01366521510781648
-0.005451615540838852,-0.01382978289658807
-0.005451275540838852,-0.01363230155006072
-0.005450935540838853,-0.01303985751047977
-0.005450595540838852,-0.01198662366233286
-0.005450255540838852,-0.01175622875805097
-0.005449915540838852,-0.01126252539173351
-0.005449575540838852,-0.01057134067888691
-0.005449235540838852,-0.010044723754814
-0.005448895540838852,-0.009715588177269025
-0.005448555540838852,-0.008991489906668169
-0.005448215540838852,-0.008826922117895385
-0.005447875540838852,-0.009287711926459184
-0.005447535540838852,-0.009583933946250199
-0.005447195540838852,-0.01080173558316881
-0.005446855540838852,-0.0111966982762235
-0.005446515540838852,-0.01109795760295982
-0.005446175540838852,-0.01113087116071438
-0.005445835540838852,-0.01205245077784198
-0.005445495540838852,-0.01172331520029485
-0.005445155540838852,-0.01086756269867793
-0.005444815540838852,-0.01011055087032311
-0.005444475540838852,-0.008366132309327094
-0.005444135540838852,-0.005897615477739801
-0.005443795540838852,-0.003791147781448147
-0.005443455540838852,-0.001980902104944452
-0.005443115540838852,-0.0003023106594650937
-0.005442775540838852,0.0003888740533806063
-0.005442435540838852,0.0003559604956253311
-0.005442095540838852,-3.900219742863573e-05
-0.005441755540838852,-0.0005985326792561085
-0.005441415540838852,-0.0006314462370120424
-0.005441075540838852,-0.001388458065365479
-0.005440735540838852,-0.001355544507610922
-0.005440395540838852,-0.001684680085157029
-0.005440055540838852,-0.001980902104947505
-0.005439715540838852,-0.00168468008515649
-0.005439375540838852,-0.0004010513327280457
-0.005439035540838852,-6.088639674078911e-06
-0.005438695540838852,0.001014231650717189
-0.005438355540838852,0.001277540112753228
-0.005438015540838852,0.00104714520847175
-0.005437675540838852,0.000718009630926178
-0.005437335540838852,0.0001584791490997229
-0.005436995540838852,0.000718009630926178
-0.005436655540838852,0.0007509231886807348
-0.005436315540838853,0.0003888740533812649
-0.005435975540838852,0.0001584791490987052
-0.005435635540838852,-0.0002693971017105369
-0.005435295540838853,-0.0005656191215010129
-0.005434955540838852,-0.0007960140257834494
-0.005434615540838852,-0.0008947546990471199
-0.005434275540838853,-0.0006314462370111444
-0.005433935540838852,-0.0005327055637469914
-0.005433595540838852,-0.0002693971017105369
-0.005433255540838853,0.000388874053379409
-0.005432915540838852,0.001112972323980863
-0.005432575540838852,0.00183707059458112
-0.005432235540838853,0.002495341749671063
-0.005431895540838852,0.002923218000481502
-0.005431555540838852,0.003548575597818088
-0.005431215540838853,0.00410810607964454
-0.005430875540838852,0.004568895888209358
-0.005430535540838852,0.004930945023509487
-0.005430195540838853,0.00512842637003647
-0.005429855540838852,0.004766377234736701
-0.005429515540838852,0.003713143386590873
-0.005429175540838852,0.003581489155572885
-0.005428835540838852,0.002758650211708718
-0.005428495540838852,0.002791563769463275
-0.005428155540838852,0.002758650211708778
-0.005427815540838852,0.002890304442726945
-0.005427475540838852,0.003252353578027074
-0.005427135540838852,0.003614402713327202
-0.005426795540838852,0.004009365406381887
-0.005426455540838852,0.003910624733118217
-0.005426115540838852,0.003482748482308975
-0.005425775540838852,0.003482748482308975
-0.005425435540838852,0.003120699347008846
-0.005425095540838852,0.003120699347008846
-0.005424755540838852,0.00387771117536366
-0.005424415540838852,0.003943538290872774
-0.005424075540838852,0.004206846752909232
-0.005423735540838852,0.004667636561472731
-0.005423395540838852,0.004503068772700245
-0.005423055540838852,0.004437241657191129
-0.005422715540838852,0.004173933195154854
-0.005422375540838852,0.004272673868418345
-0.005422035540838852,0.004766377234736701
-0.005421695540838852,0.004700550119229683
-0.005421355540838852,0.005852524640637086
-0.005421015540838852,0.006050005987164429
-0.005420675540838852,0.006346228006955921
-0.005420335540838852,0.006609536468991898
-0.005419995540838852,0.006313314449200885
-0.005419655540838852,0.005490475505335221
-0.005419315540838852,0.004535982330454802
-0.005418975540838852,0.003449834924554418
-0.005418635540838852,0.0031865264625179
-0.005418295540838852,0.003153612904763403
-0.005417955540838852,0.003943538290872774
-0.005417615540838852,0.004535982330456538
-0.005417275540838852,0.005490475505336958
-0.005416935540838852,0.006082919544918986
-0.005416595540838852,0.006181660218182836
-0.005416255540838852,0.006280400891446328
-0.005415915540838852,0.005852524640637086
-0.005415575540838852,0.00558921617859997
-0.005415235540838852,0.0052271670433005
