Analysis/New Tests_CMB/wrd01_d2s01/non compliant measurements/cmb02_ch09.csv

#Digilent WaveForms Oscilloscope Acquisition
#Device Name: ADP3450
#Serial Number: SN:210018B9D9B0
#Date Time: 2024-08-06 12:37:44.198.203.530
#Sample rate: 2.94118e+06Hz
#Samples: 32768
#Trigger: Source: Channel 3 Type: Edge Condition: Rising Level: 20 mV Hyst.: Auto HoldOff: 0 s
#Channel 3: Range: 200 mV/div Offset: 0 V Attenuation: 1 X Coupling: DC Bandwidth: 0 Hz Sample Mode: Average

Time (s),Channel 3 (V)
-0.005570237739130435,0.02207501155614406
-0.005569897739130435,0.02065972857269596
-0.005569557739130435,0.01947484049353405
-0.005569217739130435,0.01904696424272481
-0.005568877739130435,0.01891531001170736
-0.005568537739130435,0.01934318626251582
-0.005568197739130435,0.02000145741760697
-0.005567857739130435,0.02016602520637915
-0.005567517739130435,0.01983688962883418
-0.005567177739130435,0.01898113712721569
-0.005566837739130435,0.01796081683682239
-0.005566497739130435,0.01684175587316948
-0.005566157739130435,0.01568978135175999
-0.005565817739130435,0.01483402885014042
-0.005565477739130435,0.01424158481055947
-0.005565137739130435,0.01384662211750479
-0.005564797739130435,0.01348457298220358
-0.005564457739130435,0.01289212894262263
-0.005564117739130435,0.0122996849030406
-0.005563777739130435,0.01253007980732184
-0.005563437739130435,0.01216803067202238
-0.005563097739130435,0.01164141374794946
-0.005562757739130435,0.01220094422977591
-0.005562417739130435,0.01243133913405883
-0.005562077739130435,0.01239842557630427
-0.005561737739130435,0.01220094422977729
-0.005561397739130435,0.0116085001901949
-0.005561057739130435,0.01124645105489478
-0.005560717739130435,0.01088440191959531
-0.005560377739130435,0.01058817989980363
-0.005560037739130435,0.009962822302467049
-0.005559697739130435,0.009403291820640597
-0.005559357739130435,0.008679193550039321
-0.005559017739130435,0.00802092239494818
-0.005558677739130435,0.007691786817403208
-0.005558337739130435,0.008284230856984636
-0.005557997739130435,0.008777934223302994
-0.005557657739130435,0.009205810474111457
-0.005557317739130435,0.009633686724921478
-0.005556977739130435,0.00973242739818515
-0.005556637739130435,0.0103248714377661
-0.005556297739130435,0.009633686724921478
-0.005555957739130435,0.008613366434530208
-0.005555617739130435,0.00835005797249423
-0.005555277739130435,0.00779052749066628
-0.005554937739130435,0.008382971530248308
-0.005554597739130435,0.009600773167164706
-0.005554257739130435,0.01048943922653996
-0.005553917739130435,0.01052235278429452
-0.005553577739130435,0.01055526634204908
-0.005553237739130435,0.01002864941797616
-0.005552897739130435,0.008876674896566664
-0.005552557739130435,0.007823441048420837
-0.005552217739130435,0.007296824124347924
-0.005551877739130435,0.007658873259648051
-0.005551537739130435,0.008613366434530208
-0.005551197739130435,0.009436205378394196
-0.005550857739130435,0.009469118936148692
-0.005550517739130435,0.008909588454321223
-0.005550177739130435,0.007856354606172879
-0.005549837739130435,0.006473985180483996
-0.005549497739130435,0.005881541140901968
-0.005549157739130435,0.004894134408265075
-0.005548817739130435,0.004795393735001583
-0.005548477739130435,0.004334603926437783
-0.005548137739130435,0.004170036137665178
-0.005547797739130435,0.00426877681092867
-0.005547457739130435,0.005256183543565383
-0.005547117739130435,0.005519492005602378
-0.005546777739130435,0.005815714025392853
-0.005546437739130435,0.006408158064974882
-0.005546097739130435,0.007230997008839767
-0.005545757739130435,0.007757613932911723
-0.005545417739130435,0.008777934223302994
-0.005545077739130435,0.009304551147375429
-0.005544737739130435,0.00904124268533945
-0.005544397739130435,0.008679193550039321
-0.005544057739130435,0.007922181721683909
-0.005543717739130435,0.007593046144138938
-0.005543377739130435,0.00756013258638438
-0.005543037739130435,0.006934774989045939
-0.005542697739130435,0.005914454698656525
-0.005542357739130435,0.005190356428056269
-0.005542017739130435,0.003873814117876379
-0.005541677739130435,0.002623098923200814
-0.005541337739130435,0.001504037959545873
-0.005540997739130435,0.001043248150982911
-0.005540657739130435,0.001405297286282201
-0.005540317739130435,0.001833173537091444
-0.005539977739130435,0.002721839596462869
-0.005539637739130435,0.003709246329101199
-0.005539297739130435,0.005025788639283483
-0.005538957739130435,0.006079022487427394
-0.005538617739130435,0.006836034315784124
-0.005538277739130435,0.007263910566593366
-0.005537937739130435,0.007691786817401831
-0.005537597739130435,0.007889268163929951
-0.005537257739130435,0.007099342777820581
-0.005536917739130435,0.006506898738239631
-0.005536577739130435,0.005815714025392853
-0.005536237739130435,0.004927047966019811
-0.005535897739130435,0.003939641233384895
-0.005535557739130435,0.003544678540328413
-0.005535217739130435,0.00380798700236487
-0.005534877739130435,0.003775073444610373
-0.005534537739130435,0.004104209022155884
-0.005534197739130435,0.004696653061737912
-0.005533857739130435,0.005782800467636321
-0.005533517739130435,0.005980281814165639
-0.005533177739130435,0.005782800467638296
-0.005532837739130435,0.005552405563356397
-0.005532497739130435,0.005486578447847282
-0.005532157739130435,0.00528909710131994
-0.005531817739130435,0.004927047966019811
-0.005531477739130435,0.004367517484192341
-0.005531137739130435,0.003643419213592085
-0.005530797739130435,0.003083888731764614
-0.005530457739130435,0.002886407385237271
-0.005530117739130435,0.0025572718076917
-0.005529777739130435,0.002623098923200814
-0.005529437739130435,0.002656012480955311
-0.005529097739130435,0.002623098923200814
-0.005528757739130435,0.002688926038709928
-0.005528417739130435,0.002853493827482714
-0.005528077739130435,0.002853493827482714
-0.005527737739130435,0.002952234500746385
-0.005527397739130435,0.003643419213593761
-0.005527057739130435,0.004564998830719684
-0.005526717739130435,0.005486578447847282
-0.005526377739130435,0.00555240556335526
-0.005526037739130435,0.004927047966019811
-0.005525697739130435,0.004499171715210569
-0.005525357739130435,0.00449917171521027
-0.005525017739130435,0.004334603926437783
-0.005524677739130435,0.004005468348892213
-0.005524337739130435,0.004433344599702173
-0.005523997739130435,0.00482830729275614
-0.005523657739130435,0.004466258157456012
-0.005523317739130435,0.00479539373500326
-0.005522977739130435,0.005716973352129182
-0.005522637739130435,0.005519492005601839
-0.005522297739130435,0.005223269985809987
-0.005521957739130435,0.004762480177247026
-0.005521617739130435,0.004235863253174112
-0.005521277739130435,0.00413712257991074
-0.005520937739130435,0.004301690368683227
-0.005520597739130435,0.004597912388474241
-0.005520257739130435,0.004992875081528208
-0.005519917739130435,0.00505870219703804
-0.005519577739130435,0.005223269985810825
-0.005519237739130435,0.005025788639283842
-0.005518897739130435,0.004861220850510698
-0.005518557739130435,0.005420751332338168
-0.005518217739130435,0.005782800467637638
-0.005517877739130435,0.006013195371920196
-0.005517537739130435,0.005815714025392853
-0.005517197739130435,0.005519492005602378
-0.005516857739130435,0.005519492005601839
-0.005516517739130435,0.005782800467638296
-0.005516177739130435,0.005914454698656285
-0.005515837739130435,0.006243590276202096
-0.005515497739130435,0.005914454698656525
-0.005515157739130435,0.005552405563357055
-0.005514817739130435,0.005486578447847282
-0.005514477739130435,0.005453664890092726
-0.005514137739130435,0.005453664890092726
-0.005513797739130435,0.004959961523774369
-0.005513457739130435,0.004466258157456012
-0.005513117739130435,0.003643419213593581
-0.005512777739130435,0.002853493827482714
-0.005512437739130435,0.002063568441373343
-0.005512097739130435,0.001438210844036758
-0.005511757739130435,0.0009445074777184018
-0.005511417739130435,0.001109075266491187
-0.005511077739130435,0.002030654883618786
-0.005510737739130435,0.003478851424819299
-0.005510397739130435,0.005124529312547154
-0.005510057739130435,0.006704380084765896
-0.005509717739130435,0.007889268163929951
-0.005509377739130435,0.008679193550039321
-0.005509037739130435,0.008679193550039321
-0.005508697739130435,0.008810847781056891
-0.005508357739130435,0.008448798645757422
-0.005508017739130435,0.008251317299230079
-0.005507677739130435,0.007165169893327599
-0.005507337739130435,0.006013195371920196
-0.005506997739130435,0.005223269985810825
-0.005506657739130435,0.004762480177247326
-0.005506317739130435,0.004927047966019811
-0.005505977739130435,0.00482830729275614
-0.005505637739130435,0.004828307292755961
-0.005505297739130435,0.004729566619492469
-0.005504957739130435,0.004762480177247026
-0.005504617739130435,0.004367517484192042
-0.005504277739130435,0.004202949695419555
-0.005503937739130435,0.003709246329101199
-0.005503597739130435,0.00288640738523769
-0.005503257739130435,0.003116802289519171
-0.005502917739130435,0.002590185365446257
-0.005502577739130435,0.0027876667119733
-0.005502237739130435,0.002623098923200814
-0.005501897739130435,0.002656012480955371
-0.005501557739130435,0.003050975174011194
-0.005501217739130435,0.003676332771346642
-0.005500877739130435,0.005025788639283483
-0.005500537739130435,0.006276503833958569
-0.005500197739130435,0.007329737682102481
-0.005499857739130435,0.007988008837193623
-0.005499517739130435,0.008580452876774574
-0.005499177739130435,0.008613366434530208
-0.005498837739130435,0.009172896916357679
-0.005498497739130435,0.008382971530249745
-0.005498157739130435,0.007362651239857037
-0.005497817739130435,0.006934774989047795
-0.005497477739130435,0.006243590276203354
-0.005497137739130435,0.005420751332338168
-0.005496797739130435,0.005256183543565383
-0.005496457739130435,0.005124529312547393
-0.005496117739130435,0.00505870219703804
-0.005495777739130435,0.005322010659074497
-0.005495437739130435,0.005486578447846983
-0.005495097739130435,0.006243590276202096
-0.005494757739130435,0.007198083451084253
-0.005494417739130435,0.008448798645755148
-0.005494077739130435,0.009238724031866792
-0.005493737739130435,0.009370378262885021
-0.005493397739130435,0.008679193550040579
-0.005493057739130435,0.007856354606175394
-0.005492717739130435,0.006572725853747667
-0.005492377739130435,0.005486578447849258
-0.005492037739130435,0.004235863253174112
-0.005491697739130435,0.004005468348892213
-0.005491357739130435,0.003643419213592743
-0.005491017739130435,0.002754753154219042
-0.005490677739130435,0.001833173537091444
-0.005490337739130435,0.001207815939754859
-0.005489997739130435,0.001635692190564101
-0.005489657739130435,0.001471124401791315
-0.005489317739130435,0.002458531134428029
-0.005488977739130435,0.002129395556882458
-0.005488637739130435,0.002359790461164357
-0.005488297739130435,0.002491444692182586
-0.005487957739130435,0.002820580269729833
-0.005487617739130435,0.003742159886855756
-0.005487277739130435,0.004400431041946898
-0.005486937739130435,0.005387837774584808
-0.005486597739130435,0.006046108929674754
-0.005486257739130435,0.006276503833956653
-0.005485917739130435,0.006111936045182071
-0.005485577739130435,0.005124529312547154
-0.005485237739130435,0.003972554791137656
-0.005484897739130435,0.00390672767562908
-0.005484557739130435,0.004202949695419555
-0.005484217739130435,0.004663739503983355
-0.005483877739130435,0.005289097101320838
-0.005483537739130435,0.005782800467638296
-0.005483197739130435,0.005453664890092726
-0.005482857739130435,0.005585319121109996
-0.005482517739130435,0.00505870219703804
-0.005482177739130435,0.004762480177247026
-0.005481837739130435,0.004927047966021368
-0.005481497739130435,0.005782800467638296
-0.005481157739130435,0.006901861431293239
-0.005480817739130435,0.007922181721685765
-0.005480477739130435,0.008613366434530208
-0.005480137739130435,0.008876674896566664
-0.005479797739130435,0.008975415569829498
-0.005479457739130435,0.008514625761266537
-0.005479117739130435,0.008152576625966409
-0.005478777739130435,0.00634233094946906
-0.005478437739130435,0.001997741325864229
-0.005478097739130435,-0.008271288693557588
-0.005477757739130435,-0.02624209122751308
-0.005477417739130435,-0.0518488391605912
-0.005477077739130435,-0.08282049700762945
-0.005476737739130435,-0.1169847699567976
-0.005476397739130435,-0.1498983277114168
-0.005476057739130435,-0.1795534432482728
-0.005475717739130435,-0.2034486861780378
-0.005475377739130435,-0.2208928717879965
-0.005475037739130435,-0.232675925464128
-0.005474697739130435,-0.238567452302183
-0.005474357739130435,-0.2403118708631852
-0.005474017739130435,-0.2389624149952484
-0.005473677739130435,-0.2356052321042896
-0.005473337739130435,-0.2314252102694548
-0.005472997739130435,-0.2256653376624073
-0.005472657739130435,-0.2190826261115078
-0.005472317739130435,-0.2121378654252843
-0.005471977739130435,-0.204732314930509
-0.005471637739130435,-0.1975571593400286
-0.005471297739130435,-0.1908757071158404
-0.005470957739130435,-0.1844904769114563
-0.005470617739130435,-0.1776773704562754
-0.005470277739130435,-0.1725757690043067
-0.005469937739130435,-0.1659930574533953
-0.005469597739130435,-0.1596078272490112
-0.005469257739130435,-0.153452991948909
-0.005468917739130435,-0.1473968973220705
-0.005468577739130435,-0.1417357653882867
-0.005468237739130435,-0.1368316452828577
-0.005467897739130435,-0.1322895743127288
-0.005467557739130435,-0.1281753795934091
-0.005467217739130435,-0.124094098431844
-0.005466877739130435,-0.1198482494815062
-0.005466537739130435,-0.1157998818776957
-0.005466197739130435,-0.111784427831633
-0.005465857739130435,-0.1080981093631293
-0.005465517739130435,-0.1034243841619822
-0.005465177739130435,-0.09963932502020004
-0.005464837739130435,-0.09519599472334292
-0.005464497739130435,-0.09101597288851415
-0.005464157739130435,-0.0865068154761314
-0.005463817739130435,-0.08186600383274728
-0.005463477739130435,-0.07775180911342763
-0.005463137739130435,-0.07380218218287427
-0.005462797739130435,-0.07021460438763408
-0.005462457739130435,-0.0674169519784967
-0.005462117739130435,-0.06570544697525686
-0.005461777739130435,-0.06412559620304101
-0.005461437739130435,-0.06326984370142252
-0.005461097739130435,-0.06261157254632886
-0.005460757739130435,-0.06122920312063997
-0.005460417739130435,-0.06001140148372136
-0.005460077739130435,-0.05849737782700928
-0.005459737739130435,-0.05714792195907489
-0.005459397739130435,-0.05514019493604691
-0.005459057739130435,-0.05267167810445021
-0.005458717739130435,-0.04997276636858144
-0.005458377739130435,-0.04691180549740763
-0.005458037739130435,-0.04401541241500242
-0.005457697739130435,-0.04171146337218761
-0.005457357739130435,-0.04009869904221431
-0.005457017739130435,-0.03848593471224395
-0.005456677739130435,-0.03710356528654962
-0.005456337739130435,-0.03493127047474884
-0.005455997739130435,-0.03292354345172451
-0.005455657739130435,-0.03147534691052035
-0.005455317739130435,-0.03012589104258351
-0.005454977739130435,-0.02854604027036764
-0.005454637739130435,-0.02716367084467337
-0.005454297739130435,-0.02594586920775475
-0.005453957739130435,-0.02439893199329338
-0.005453617739130435,-0.02239120497026259
-0.005453277739130435,-0.02041639150498916
-0.005452937739130435,-0.01840866448196483
-0.005452597739130435,-0.01643385101668775
-0.005452257739130435,-0.01528187649527825
-0.005451917739130435,-0.0147552595712063
-0.005451577739130435,-0.01521604937976914
-0.005451237739130435,-0.01534770361078737
-0.005450897739130435,-0.0160718018813863
-0.005450557739130435,-0.01709212217177889
-0.005450217739130435,-0.01771747976911548
-0.005449877739130435,-0.01778330688462447
-0.005449537739130435,-0.01738834419156991
-0.005449197739130435,-0.01663133236321509
-0.005448857739130435,-0.01521604937977171
-0.005448517739130435,-0.01350454437653217
-0.005448177739130435,-0.01166138514227697
-0.005447837739130435,-0.01024610215883101
-0.005447497739130435,-0.008501683597839487
-0.005447157739130435,-0.007382622634184546
-0.005446817739130435,-0.006790178594602518
-0.005446477739130435,-0.006098993881756819
-0.005446137739130435,-0.005769858304211248
-0.005445797739130435,-0.00517741426462922
-0.005445457739130435,-0.00474953801381908
-0.005445117739130435,-0.004255834647501621
-0.005444777739130435,-0.003893785512201493
-0.005444437739130435,-0.003729217723428348
-0.005444097739130435,-0.003531736376901365
-0.005443757739130435,-0.003235514357110351
-0.005443417739130435,-0.002840551664055785
-0.005443077739130435,-0.00290637877956478
-0.005442737739130435,-0.002478502528755537
-0.005442397739130435,-0.00178731781590924
-0.005442057739130435,-0.001458182238364267
-0.005441717739130435,-0.001260700891836924
-0.005441377739130435,-0.002017712720192516
-0.005441037739130435,-0.00244558897100098
-0.005440697739130435,-0.002741810990791994
-0.005440357739130435,-0.002544329644263155
-0.005440017739130435,-0.001721490700400724
-0.005439677739130435,-0.0001087263704274257
-0.005439337739130435,0.0008457668044560475
-0.005438997739130435,0.001569865075054987
-0.005438657739130435,0.001701519306073215
-0.005438317739130435,0.001207815939754021
-0.005437977739130435,0.0007470261311910591
-0.005437637739130435,0.0005824583424182735
-0.005437297739130435,0.001207815939756355
-0.005436957739130435,0.002030654883618786
-0.005436617739130435,0.002425617576673472
-0.005436277739130435,0.002985148058499924
-0.005435937739130435,0.002985148058500942
-0.005435597739130435,0.002919320942991828
-0.005435257739130435,0.003182629405027806
-0.005434917739130435,0.002228136230146129
-0.005434577739130435,0.001043248150982073
-0.005434237739130435,0.0003849769958921283
-0.005433897739130435,0.0003520634381363738
-0.005433557739130435,0.0002533227648727025
-0.005433217739130435,0.000747026131190161
-0.005432877739130435,0.001668605748318658
-0.005432537739130435,0.002096481999127901
-0.005432197739130435,0.003511764982571282
-0.005431857739130435,0.004433344599701455
-0.005431517739130435,0.005124529312547154
-0.005431177739130435,0.005486578447846624
-0.005430837739130435,0.005947368256411082
-0.005430497739130435,0.005684059794374625
-0.005430157739130435,0.005354924216829653
-0.005429817739130435,0.004499171715210569
-0.005429477739130435,0.003906727675628541
-0.005429137739130435,0.003149715847275105
-0.005428797739130435,0.002656012480955371
-0.005428457739130435,0.002293963345655243
-0.005428117739130435,0.001701519306074293
-0.005427777739130435,0.001997741325864229
-0.005427437739130435,0.001997741325864229
-0.005427097739130435,0.002524358249937143
-0.005426757739130435,0.0027876667119736
-0.005426417739130435,0.003248456520537399
-0.005426077739130435,0.003511764982573856
-0.005425737739130435,0.003380110751555628
-0.005425397739130435,0.002623098923200814
-0.005425057739130435,0.002030654883618786
-0.005424717739130435,0.001339470170773087
-0.005424377739130435,0.001602778632809544
-0.005424037739130435,0.001504037959545873
-0.005423697739130435,0.001931914210356432
-0.005423357739130435,0.002656012480955371
-0.005423017739130435,0.004071295464401327
-0.005422677739130435,0.005420751332340323
-0.005422337739130435,0.006605639411502225
-0.005421997739130435,0.007296824124347924
-0.005421657739130435,0.007428478355365793
-0.005421317739130435,0.007230997008838809
-0.005420977739130435,0.006901861431293239
-0.005420637739130435,0.007395564797610158
-0.005420297739130435,0.006605639411502225
-0.005419957739130435,0.006177763160692982
-0.005419617739130435,0.005782800467638536
-0.005419277739130435,0.005914454698656525
-0.005418937739130435,0.005651146236620068
-0.005418597739130435,0.005387837774583851
-0.005418257739130435,0.005519492005601839
-0.005417917739130435,0.006111936045183867
-0.005417577739130435,0.006046108929674335
-0.005417237739130435,0.005815714025392853
-0.005416897739130435,0.005486578447847282
-0.005416557739130435,0.004927047966019991
-0.005416217739130435,0.005025788639283483
-0.005415877739130435,0.005025788639283483
-0.005415537739130435,0.005091615754792478
-0.005415197739130435,0.005025788639283483
