Analysis/New Tests_CMB/wrd01_d2s01/non compliant measurements/cmb06_ch40.csv

#Digilent WaveForms Oscilloscope Acquisition
#Device Name: ADP3450
#Serial Number: SN:210018B9D9B0
#Date Time: 2024-06-21 16:05:54.518.966.920
#Sample rate: 2.5e+07Hz
#Samples: 32768
#Trigger: Source: Channel 3 Type: Edge Condition: Rising Level: 200 mV Hyst.: Auto HoldOff: 0 s
#Channel 1: Range: 100 mV/div Offset: -370 mV Attenuation: 1 X Coupling: DC Bandwidth: 0 Hz Sample Mode: Average
#Channel 3: Range: 100 mV/div Offset: 0 V Attenuation: 1 X Coupling: DC Bandwidth: 0 Hz Sample Mode: Average

Time (s),Channel 1 (V),Channel 3 (V)
-0.0006553514814814815,0.00102322100639235,-0.01814535601992472
-0.0006553114814814815,0.0003668496920920528,-0.01834283736645206
-0.0006552714814814814,0.0004653053892371736,-0.01722377640279736
-0.0006552314814814815,0.0004981239549521344,-0.01735543063381535
-0.0006551914814814815,0.0001043011663719451,-0.01781622044237915
-0.0006551514814814815,0.001154495269252431,-0.01649967813219686
-0.0006551114814814815,0.0001371197320869655,-0.01679590015198788
-0.0006550714814814815,0.0007278539149561471,-0.01732251707605983
-0.0006550314814814815,0.0007278539149568038,-0.01673007303647882
-0.0006549914814814815,0.0004981239549521344,-0.01676298659423332
-0.0006549514814814815,0.0003668496920920528,-0.01689464082525155
-0.0006549114814814815,0.0006293982178121604,-0.01597306120812395
-0.0006548714814814815,0.0003340311263775696,-0.01587432053486046
-0.0006548314814814815,0.0009575838749614732,-0.01600597476587671
-0.0006547914814814815,0.0004981239549521344,-0.0150185680332418
-0.0006547514814814815,0.0009247653092472885,-0.01554518495731471
-0.0006547114814814815,0.0002683939949470471,-0.01551227139956015
-0.0006546714814814815,0.0003668496920918736,-0.01597306120812311
-0.0006546314814814814,0.001056039572107072,-0.01577557986159595
-0.0006545914814814815,0.0008919467435322681,-0.01541353072629648
-0.0006545514814814815,0.0008591281778173032,-0.01488691380222357
-0.0006545114814814815,0.0006622167835271808,-0.0150185680332418
-0.0006544714814814815,0.0009575838749623089,-0.0140969884161142
-0.0006544314814814814,0.0009247653092478257,-0.01416281553162445
-0.0006543914814814815,0.001220132400682417,-0.01478817312895989
-0.0006543514814814815,0.0009247653092472885,-0.01449195110916888
-0.0006543114814814815,0.001417043794972539,-0.01370202572305951
-0.0006542714814814815,0.001252950966397437,-0.01360328504979584
-0.0006542314814814815,0.001220132400682476,-0.01350454437653235
-0.0006541914814814815,0.00105603957210737,-0.01366911216530495
-0.0006541514814814815,0.0009247653092472885,-0.01389950706958685
-0.0006541114814814815,0.0005309425206671547,-0.01337289014551394
-0.0006540714814814815,0.0003340311263770324,-0.01347163081877761
-0.0006540314814814815,0.0009904024406761354,-0.01294501389470566
-0.0006539914814814815,0.0003668496920939033,-0.01264879187491452
-0.0006539514814814815,0.001384225229257519,-0.01310958168347748
-0.0006539114814814815,0.0004981239549521344,-0.01182595293104976
-0.0006538714814814815,0.0007278539149572216,-0.0117930393732952
-0.0006538314814814815,0.0005965796520973788,-0.01314249524122959
-0.0006537914814814815,0.000727853914957341,-0.01090437331392623
-0.0006537514814814815,0.0007934910463872624,-0.01314249524123204
-0.0006537114814814815,0.0004981239549521344,-0.01291210033695014
-0.0006536714814814815,0.0007934910463872624,-0.0113322495647314
-0.0006536314814814815,0.0008263096121022231,-0.01189178004655785
-0.0006535914814814814,0.0006293982178125187,-0.01284627322143929
-0.0006535514814814815,0.0008263096121022828,-0.01189178004655887
-0.0006535114814814815,0.0006950353492422012,-0.012253829181859
-0.0006534714814814815,0.0003340311263770324,-0.0120234342775771
-0.0006534314814814815,0.0005637610863821751,-0.01218800206634988
-0.0006533914814814815,0.001220132400681223,-0.01225382918185888
-0.0006533514814814815,0.00102322100639235,-0.0129450138947047
-0.0006533114814814815,0.0001043011663719451,-0.0115626444690133
-0.0006532714814814815,0.0009575838749623089,-0.012253829181859
-0.0006532314814814815,0.0007934910463872624,-0.01215508850859533
-0.0006531914814814815,0.0007606724806723018,-0.01238548341287681
-0.0006531514814814815,0.001154495269251894,-0.01202343427757656
-0.0006531114814814815,0.0008591281778173032,-0.01172721225778608
-0.0006530714814814815,0.0006622167835271808,-0.01152973091125874
-0.0006530314814814815,0.0008263096121022828,-0.01189178004655887
-0.0006529914814814815,0.00118731383496674,-0.01162847158452289
-0.0006529514814814815,0.0004653053892374721,-0.01179303937329454
-0.0006529114814814815,0.0006622167835271808,-0.01143099023799507
-0.0006528714814814815,0.001220132400682417,-0.01166138514227697
-0.0006528314814814815,0.0007934910463872624,-0.01169429870003153
-0.0006527914814814815,0.0006293982178124589,-0.01129933600697756
-0.0006527514814814814,0.0007934910463864267,-0.01169429870003153
-0.0006527114814814815,0.0003340311263770324,-0.01169429870003153
-0.0006526714814814815,0.000465305389237114,-0.01185886648880431
-0.0006526314814814815,0.0007934910463872624,-0.0115626444690133
-0.0006525914814814815,0.0004324868235220936,-0.0115626444690133
-0.0006525514814814816,0.0009247653092463931,-0.01172721225778578
-0.0006525114814814815,0.0007278539149572216,-0.01126642244922228
-0.0006524714814814815,0.0007278539149572216,-0.01169429870003153
-0.0006524314814814815,0.0009247653092472885,-0.01123350889146773
-0.0006523914814814815,0.0006950353492422012,-0.01106894110269494
-0.0006523514814814815,0.0006293982178122798,-0.01087145975616796
-0.0006523114814814815,0.0006622167835271211,-0.01116768177595772
-0.0006522714814814815,0.0006293982178121604,-0.01067397840964026
-0.0006522314814814815,0.0001699382978019859,-0.01113476821820406
-0.0006521914814814815,5.845469226939404e-06,-0.0108714597561676
-0.0006521514814814815,0.000760672480670869,-0.01097020042943109
-0.0006521114814814815,0.0005309425206666772,-0.01093728687167606
-0.0006520714814814815,0.0002683939949470471,-0.01057523773637659
-0.0006520314814814815,0.0002355754292320267,-0.01054232417862203
-0.0006519914814814815,0.0003340311263770324,-0.0101802750433219
-0.0006519514814814815,0.0008263096121013874,-0.01001570725454941
-0.0006519114814814814,0.0007606724806718242,-0.009884053023530886
-0.0006518714814814815,0.0005309425206671547,-0.009884053023530886
-0.0006518314814814815,-2.697309648808099e-05,-0.009489090330476201
-0.0006517914814814815,0.0001699382978019859,-0.009752398792512659
-0.0006517514814814815,0.0009575838749623089,-0.009225781868439744
-0.0006517114814814814,0.0005965796520963043,-0.009159954752931349
-0.0006516714814814815,0.0001371197320869655,-0.009554917445985316
-0.0006516314814814815,0.0007934910463872624,-0.008995386964157845
-0.0006515914814814815,0.0009904024406773293,-0.009291608983948858
-0.0006515514814814815,0.0005637610863821751,-0.008732078502121389
-0.0006515114814814815,0.0009904024406765532,-0.008929559848648372
-0.0006514714814814815,0.0007606724806723018,-0.009094127637421396
-0.0006514314814814815,0.0007934910463872624,-0.009028300521912402
-0.0006513914814814815,0.0004324868235220936,-0.007942153116012016
-0.0006513514814814815,0.0007278539149572216,-0.00790923955825746
-0.0006513114814814815,0.0002027568635179615,-0.007580103980712487
-0.0006512714814814815,0.0004981239549526716,-0.007678844653975919
-0.0006512314814814815,0.0007934910463872624,-0.007876326000502903
-0.0006511914814814815,0.000760672480672242,-0.008007980231521132
-0.0006511514814814815,0.0007934910463872624,-0.007250968403166318
-0.0006511114814814815,0.0004981239549526717,-0.007415536191938805
-0.0006510714814814814,0.0006950353492413655,-0.007283881960920276
-0.0006510314814814815,0.0002355754292320267,-0.006954746383375304
-0.0006509914814814815,0.0007934910463872624,-0.006625610805829733
-0.0006509514814814815,0.0008919467435322681,-0.006691437921338847
-0.0006509114814814815,0.001154495269252431,-0.00711931417214809
-0.0006508714814814814,0.0008591281778160496,-0.006197734555021748
-0.0006508314814814815,0.0001699382978019859,-0.00688891926786619
-0.0006507914814814815,0.0005637610863821751,-0.006592697248075176
-0.0006507514814814815,0.0009575838749623089,-0.006592697248075176
-0.0006507114814814815,0.0006950353492422012,-0.006033166766247705
-0.0006506714814814815,0.000334031126377689,-0.006263561670529186
-0.0006506314814814815,0.0002355754292320267,-0.005671117630947577
-0.0006505914814814815,0.0006622167835271808,-0.005704031188702134
-0.0006505514814814815,0.0005637610863821751,-0.006098993881756819
-0.0006505114814814815,0.0005637610863821751,-0.005901512535229476
-0.0006504714814814815,0.0003996682578073716,-0.005341982053403023
-0.0006504314814814815,0.000727853914956744,-0.00576985830421041
-0.0006503914814814815,0.000465305389237114,-0.005309068495647449
-0.0006503514814814815,0.001318588097827478,-0.00540780916891112
-0.0006503114814814815,0.0006293982178121604,-0.005769858304211248
-0.0006502714814814815,0.0008263096121019246,-0.004815365129330828
-0.0006502314814814815,0.001023221006392051,-0.00497993291810098
-0.0006501914814814815,0.0008591281778173032,-0.004486229551783521
-0.0006501514814814815,0.000760672480672242,-0.004453315994028964
-0.0006501114814814815,0.00059657965209714,-0.004453315994028964
-0.0006500714814814815,0.0003996682578074313,-0.004190007531992986
-0.0006500314814814814,0.0007278539149566844,-0.004387488878519072
-0.0006499914814814815,0.0004324868235220936,-0.003959612627710607
-0.0006499514814814815,0.000465305389237114,-0.004025439743219721
-0.0006499114814814815,0.0009575838749623089,-0.004025439743219721
-0.0006498714814814815,0.0004981239549521344,-0.003729217723428708
-0.0006498314814814815,0.0003340311263773308,-0.003498822819147227
-0.0006497914814814815,0.0007934910463872624,-0.003531736376901365
-0.0006497514814814815,0.0009247653092472885,-0.002873465221810222
-0.0006497114814814815,0.00102322100639235,-0.003301341472619465
-0.0006496714814814815,0.00059657965209714,-0.002840551664055666
-0.0006496314814814815,0.00059657965209714,-0.002840551664055666
-0.0006495914814814815,0.0006293982178119813,-0.00346590926139243
-0.0006495514814814815,0.0005309425206671547,-0.003564649934655922
-0.0006495114814814815,0.000465305389237114,-0.002577243202019209
-0.0006494714814814815,0.0003340311263770324,-0.003070946568337565
-0.0006494314814814815,0.0008919467435312533,-0.003531736376900527
-0.0006493914814814815,0.0005965796520971998,-0.001458182238368578
-0.0006493514814814815,0.0006293982178121604,-0.003827958396692379
-0.0006493114814814815,0.001548318057832565,-0.003663390607919593
-0.0006492714814814815,5.845469226939404e-06,-0.001787317815909838
-0.0006492314814814815,0.0001371197320867267,-0.003103860126089728
-0.0006491914814814814,0.0006293982178116232,-0.00208353983570181
-0.0006491514814814815,0.0003340311263770324,-0.002610156759773766
-0.0006491114814814815,0.0003012125606620675,-0.002840551664055666
-0.0006490714814814815,0.0005309425206671547,-0.001951885604682624
-0.0006490314814814815,0.001121676703537411,-0.002708897433037437
-0.0006489914814814814,0.0006293982178115635,-0.002643070317526886
-0.0006489514814814815,0.0003012125606620675,-0.001853144931418952
-0.0006489114814814815,0.0007278539149572216,-0.002281021182228195
-0.0006488714814814815,7.148260065692469e-05,-0.002412675413246423
-0.0006488314814814815,0.0006293982178121604,-0.001787317815909838
-0.0006487914814814815,0.0005965796520971998,-0.002445588970999783
-0.0006487514814814815,0.0003668496920928885,-0.001853144931419252
-0.0006487114814814815,0.0008263096121022828,-0.002017712720191738
-0.0006486714814814815,0.0009575838749623089,-0.001984799162437181
-0.0006486314814814815,0.0006622167835271808,-0.002050626277946295
-0.0006485914814814815,0.0009247653092468109,-0.001721490700401323
-0.0006485514814814815,0.001023221006390618,-0.002083539835700792
-0.0006485114814814815,7.148260065692469e-05,-0.002050626277946295
-0.0006484714814814815,0.0003012125606620675,-0.002050626277946295
-0.0006484314814814815,0.0002027568635170063,-0.001853144931418952
-0.0006483914814814815,0.000399668257806715,-0.001425268680610488
-0.0006483514814814814,0.000235575429232743,-0.00185314493141985
-0.0006483114814814815,0.0006293982178121604,-0.002346848297737309
-0.0006482714814814815,0.0005309425206671547,-0.001063219545309582
-0.0006482314814814815,3.866403494190429e-05,-0.002149366951209966
-0.0006481914814814815,0.0001043011663719451,-0.001820231373664395
-0.0006481514814814814,0.0008263096121013874,-0.001260700891838242
-0.0006481114814814815,0.0003340311263770324,-0.001984799162437181
-0.0006480714814814815,0.0003996682578070732,-0.00244558897100098
-0.0006480314814814815,0.0004324868235220936,-0.001721490700400724
-0.0006479914814814815,0.0007278539149572216,-0.001688577142646167
-0.0006479514814814815,0.0003012125606628435,-0.002577243202017592
-0.0006479114814814815,0.0004324868235224517,-0.001951885604683821
-0.0006478714814814815,0.0006293982178121604,-0.002610156759773766
-0.0006478314814814815,0.0007278539149572216,-0.002741810990791994
-0.0006477914814814815,0.0006622167835271808,-0.001984799162437181
-0.0006477514814814815,0.0005309425206673935,-0.001820231373664695
-0.0006477114814814815,0.0002683939949478231,-0.002248107624475075
-0.0006476714814814815,0.0006950353492422012,-0.003038033010583008
-0.0006476314814814815,0.0008919467435322681,-0.002774724548546551
-0.0006475914814814815,0.0003012125606620675,-0.001918972046928067
-0.0006475514814814815,0.0007278539149564456,-0.003136773683844464
-0.0006475114814814814,0.0006622167835275987,-0.00149109579612086
-0.0006474714814814815,0.0008919467435322681,-0.002610156759773766
-0.0006474314814814815,0.0003996682578070732,-0.002412675413246423
-0.0006473914814814815,0.0009904024406773293,-0.001984799162437181
-0.0006473514814814815,0.0009247653092472885,-0.002379761855491866
-0.0006473114814814814,0.0009904024406773293,-0.0020177127201909
-0.0006472714814814815,0.0009904024406773293,-0.001556922911627938
-0.0006472314814814815,0.0007934910463872624,-0.001524009353873381
-0.0006471914814814815,0.0009247653092472885,-0.001853144931418952
-0.0006471514814814815,0.000760672480672242,-0.001918972046928067
-0.0006471114814814815,0.001810866583550762,-0.001951885604682564
-0.0006470714814814815,0.001581136623547585,-0.001458182238364267
-0.0006470314814814815,0.0007278539149572216,-0.001556922911627938
-0.0006469914814814815,0.00108885813782239,-0.001556922911627938
-0.0006469514814814815,0.001318588097827478,-0.001161960218573253
-0.0006469114814814815,0.001187313834967635,-0.001260700891836745
-0.0006468714814814815,0.00108885813782245,-0.001425268680608453
-0.0006468314814814815,0.001121676703537411,-0.0007340839677640107
-0.0006467914814814815,0.001187313834967396,-0.001161960218573253
-0.0006467514814814815,0.0005309425206671547,-0.001161960218573253
-0.0006467114814814815,0.0007934910463867848,-0.000865738198782778
-0.0006466714814814815,0.0007934910463876206,-0.0008986517565372753
-0.0006466314814814815,0.0009904024406773293,-0.001161960218573253
-0.0006465914814814815,0.001318588097827478,-0.0006353432945003394
-0.0006465514814814815,0.0003340311263770324,-0.001293614449591481
-0.0006465114814814815,0.0004981239549518359,0.0003191498803788832
-0.0006464714814814814,0.0002683939949473456,0.0004178905536441111
-0.0006464314814814815,0.0004324868235220936,-0.0003391212747093254
-0.0006463914814814815,0.001154495269252431,0.0002204092071181454
-0.0006463514814814815,0.001252950966397437,-7.581281267286857e-05
-0.0006463114814814815,0.0005637610863821751,-0.0004049483902184396
-0.0006462714814814815,0.001023221006391514,0.0005495447846619803
-0.0006462314814814815,0.0009575838749623089,-9.985697163754359e-06
-0.0006461914814814815,0.000760672480672242,0.0007470261311910591
-0.0006461514814814815,0.0002355754292320267,0.0002533227648727025
-0.0006461114814814815,0.000465305389237114,0.0005166312269091594
-0.0006460714814814815,0.0003668496920922319,0.0007141125734361428
-0.0006460314814814815,0.0004981239549527313,0.00025332276487384
-0.0006459914814814815,0.0008263096121022828,0.0008786803622092876
-0.0006459514814814815,0.0008919467435322681,2.292786059080275e-05
-0.0006459114814814815,0.0002683939949470471,0.000417890553645488
-0.0006458714814814815,0.0007606724806713466,0.0001216685338550129
-0.0006458314814814815,0.0005309425206666772,0.0008128532466990358
-0.0006457914814814815,0.0002683939949470471,0.0001874956493635883
-0.0006457514814814815,0.0004324868235220936,0.0009445074777184018
-0.0006457114814814815,0.00105603957210737,0.0004508041114000451
-0.0006456714814814815,0.0005637610863830706,0.001043248150980995
-0.0006456314814814814,0.0007934910463870833,0.0006811990156816455
-0.0006455914814814815,0.0006950353492422012,0.0005166312269091594
-0.0006455514814814815,0.0006293982178121604,0.000714112573436502
-0.0006455114814814815,0.0009247653092472885,0.0002862363226272596
-0.0006454714814814815,0.00105603957210737,0.0007799396889456162
-0.0006454314814814814,0.001056039572107251,0.0008786803622110238
-0.0006453914814814815,0.0009904024406773293,0.001833173537091444
-0.0006453514814814815,0.0006622167835271808,0.0007799396889456162
-0.0006453114814814815,0.0004981239549521344,0.0009445074777184018
-0.0006452714814814815,0.0006622167835271808,0.001207815939754859
-0.0006452314814814815,0.0006293982178122202,0.001174902382000361
-0.0006451914814814815,0.0008263096121023426,0.0007141125734374599
-0.0006451514814814815,0.0008591281778173032,0.001240729497509416
-0.0006451114814814815,3.866403494190429e-05,0.001141988824245744
-0.0006450714814814815,0.0008919467435322681,0.000714112573436502
-0.0006450314814814815,-0.0001254287936312917,0.0009115939199634854
-0.0006449914814814815,0.0004324868235224517,0.0007470261311901611
-0.0006449514814814815,0.0006293982178121604,0.0002533227648727025
-0.0006449114814814815,0.0002355754292320267,0.001273643055263973
-0.0006448714814814815,0.0007934910463872624,0.0008128532467001733
-0.0006448314814814815,0.0003340311263778681,0.0006482854579276872
-0.0006447914814814814,0.0005637610863822349,0.001109075266491128
-0.0006447514814814815,0.00059657965209714,0.00107616170873663
-0.0006447114814814815,0.0003340311263770324,0.0006153719001728307
-0.0006446714814814815,0.001154495269252431,0.0004508041114000451
-0.0006446314814814815,0.0009904024406773293,0.0002533227648727025
-0.0006445914814814814,0.0006622167835272406,0.0004837176691549614
-0.0006445514814814815,0.0006950353492422012,0.0006811990156819448
-0.0006445114814814815,0.00059657965209714,0.0006482854579273878
-0.0006444714814814815,0.00102322100639235,0.0003191498803818167
-0.0006444314814814815,0.0003012125606620675,-0.0002403806014456541
-0.0006443914814814815,0.0007606724806714063,-7.581281267316791e-05
-0.0006443514814814815,0.0002027568635173644,0.000384976995889973
-0.0006443114814814815,0.0003996682578070732,-0.0001416399281819828
-0.0006442714814814815,0.000760672480672242,0.0006153719001728307
-0.0006442314814814815,0.0008919467435322681,-0.0004707755057275538
-0.0006441914814814815,0.0008263096121024022,-0.0001416399281825815
-0.0006441514814814815,0.0008591281778160496,0.0004178905536441709
-0.0006441114814814815,0.0001699382978019859,-0.0003062077169547683
-0.0006440714814814815,0.0003340311263770324,-0.0007669975255185678
-0.0006440314814814815,0.0002683939949470471,-0.0005695161789912252
-0.0006439914814814815,0.0007278539149563859,-0.0003720348324642418
-0.0006439514814814814,0.0003996682578063568,-0.0006353432944996808
-0.0006439114814814815,5.845469226939404e-06,-0.0002732941592002112
-0.0006438714814814815,0.0003996682578070732,-0.0004049483902184396
-0.0006438314814814815,0.0005637610863821751,-0.0006353432945003394
-0.0006437914814814815,0.0003996682578070732,-0.000207467043691097
-0.0006437514814814814,7.148260065752165e-05,-0.0006353432944989025
-0.0006437114814814815,0.0003996682578070732,0.0001545820916090312
-0.0006436714814814815,0.0003668496920920528,0.0001545820916090312
