Analysis/New Tests_CMB/wrd01_d2s01/non compliant measurements/cmb06_ch29.csv

#Digilent WaveForms Oscilloscope Acquisition
#Device Name: ADP3450
#Serial Number: SN:210018B9D9B0
#Date Time: 2024-06-21 15:28:44.857.287.620
#Sample rate: 2.5e+07Hz
#Samples: 32768
#Trigger: Source: Channel 3 Type: Edge Condition: Rising Level: 60 mV Hyst.: Auto HoldOff: 0 s
#Channel 3: Range: 100 mV/div Offset: 0 V Attenuation: 1 X Coupling: DC Bandwidth: 0 Hz Sample Mode: Average

Time (s),Channel 3 (V)
-0.0006553241379310345,-0.02160127958415322
-0.0006552841379310346,-0.02058095929376194
-0.0006552441379310345,-0.01969229323439178
-0.0006552041379310345,-0.02127214400660764
-0.0006551641379310345,-0.01916567631031599
-0.0006551241379310345,-0.02074552708253473
-0.0006550841379310345,-0.02087718131355296
-0.0006550441379310346,-0.02018599660070852
-0.0006550041379310345,-0.01998851525418058
-0.0006549641379310345,-0.02035056438948005
-0.0006549241379310345,-0.02012016948519815
-0.0006548841379310345,-0.02064678640927106
-0.0006548441379310346,-0.02031765083172609
-0.0006548041379310345,-0.0205151321782511
-0.0006547641379310345,-0.01956063900337068
-0.0006547241379310345,-0.02002142881193448
-0.0006546841379310345,-0.01979103390765257
-0.0006546441379310346,-0.01995560169642506
-0.0006546041379310345,-0.01969229323438884
-0.0006545641379310345,-0.01965937967663435
-0.0006545241379310345,-0.01909984919480688
-0.0006544841379310345,-0.01906693563705232
-0.0006544441379310346,-0.0192315034258251
-0.0006544041379310345,-0.01913276275256251
-0.0006543641379310345,-0.01972520679214346
-0.0006543241379310345,-0.01949481188786156
-0.0006542841379310345,-0.01913276275256143
-0.0006542441379310345,-0.01886945429052498
-0.0006542041379310346,-0.01956063900336942
-0.0006541641379310345,-0.0192315034258251
-0.0006541241379310345,-0.01956063900337068
-0.0006540841379310345,-0.0190011085215432
-0.0006540441379310345,-0.01860614582848852
-0.0006540041379310346,-0.01883654073277
-0.0006539641379310345,-0.01863905938624272
-0.0006539241379310345,-0.01844157803971573
-0.0006538841379310345,-0.01798078823115194
-0.0006538441379310345,-0.01798078823115194
-0.0006538041379310346,-0.01827701025094241
-0.0006537641379310345,-0.01758582553809773
-0.0006537241379310345,-0.01784913400013371
-0.0006536841379310345,-0.01761873909585181
-0.0006536441379310345,-0.01725668996055168
-0.0006536041379310346,-0.01775039332686914
-0.0006535641379310345,-0.01689464082525203
-0.0006535241379310345,-0.01715794928728801
-0.0006534841379310345,-0.01636802390117864
-0.0006534441379310345,-0.01676298659423332
-0.0006534041379310345,-0.01738834419156991
-0.0006533641379310346,-0.01656550524770747
-0.0006533241379310345,-0.01656550524770598
-0.0006532841379310345,-0.01653259168995142
-0.0006532441379310345,-0.01617054255465129
-0.0006532041379310345,-0.01620345611240585
-0.0006531641379310346,-0.01597306120812437
-0.0006531241379310345,-0.01567683918833276
-0.0006530841379310345,-0.01557809851506927
-0.0006530441379310345,-0.01607180188138762
-0.0006530041379310345,-0.01587432053486028
-0.0006529641379310346,-0.01617054255465076
-0.0006529241379310345,-0.01515022226426074
-0.0006528841379310345,-0.01554518495731471
-0.0006528441379310345,-0.01475525957120534
-0.0006528041379310345,-0.01551227139956015
-0.0006527641379310346,-0.0149198273599792
-0.0006527241379310345,-0.01505148159099581
-0.0006526841379310345,-0.01475525957120534
-0.0006526441379310345,-0.01495274091773268
-0.0006526041379310345,-0.01445903755141432
-0.0006525641379310345,-0.01389950706958685
-0.0006525241379310346,-0.01403116130060484
-0.0006524841379310345,-0.01406407485835964
-0.0006524441379310345,-0.0143273833203961
-0.0006524041379310345,-0.01373493928081407
-0.0006523641379310345,-0.01399824774285052
-0.0006523241379310346,-0.01380076639632354
-0.0006522841379310345,-0.01350454437653181
-0.0006522441379310345,-0.01330706303000483
-0.0006522041379310345,-0.01333997658775938
-0.0006521641379310345,-0.01320832235674115
-0.0006521241379310346,-0.01337289014551364
-0.0006520841379310345,-0.0129450138947053
-0.0006520441379310345,-0.01327414947225027
-0.0006520041379310345,-0.01287918677919558
-0.0006519641379310345,-0.01231965629736811
-0.0006519241379310346,-0.01284627322144007
-0.0006518841379310345,-0.01261587831715769
-0.0006518441379310345,-0.01182595293104976
-0.0006518041379310345,-0.01218800206634988
-0.0006517641379310345,-0.01166138514227697
-0.0006517241379310346,-0.01218800206634988
-0.0006516841379310345,-0.01169429870003201
-0.0006516441379310345,-0.01195760716206798
-0.0006516041379310345,-0.01185886648880431
-0.0006515641379310345,-0.01159555802676786
-0.0006515241379310345,-0.01169429870003153
-0.0006514841379310346,-0.01139807668024105
-0.0006514441379310345,-0.01149681735350335
-0.0006514041379310345,-0.01103602754494038
-0.0006513641379310345,-0.01097020042943127
-0.0006513241379310345,-0.01073980552514937
-0.0006512841379310346,-0.01080563264065837
-0.0006512441379310345,-0.01097020042943121
-0.0006512041379310345,-0.01093728687167671
-0.0006511641379310345,-0.0108714597561676
-0.0006511241379310345,-0.01070689196739481
-0.0006510841379310346,-0.01070689196739481
-0.0006510441379310345,-0.01001570725454977
-0.0006510041379310345,-0.01037775638984924
-0.0006509641379310345,-0.009884053023530886
-0.0006509241379310345,-0.009884053023530886
-0.0006508841379310346,-0.009653658119248986
-0.0006508441379310345,-0.009423263214967267
-0.0006508041379310345,-0.009522003888230759
-0.0006507641379310345,-0.009357436099457973
-0.0006507241379310345,-0.009258695426194301
-0.0006506841379310345,-0.009489090330476201
-0.0006506441379310346,-0.009159954752931229
-0.0006506041379310345,-0.009061214079666959
-0.0006505641379310345,-0.009094127637421515
-0.0006505241379310345,-0.009061214079666959
-0.0006504841379310345,-0.008205461578048474
-0.0006504441379310346,-0.009061214079665402
-0.0006504041379310345,-0.008633337828856698
-0.0006503641379310345,-0.008073807347030245
-0.0006503241379310345,-0.008435856482330374
-0.0006502841379310345,-0.008501683597839487
-0.0006502441379310346,-0.007942153116013035
-0.0006502041379310345,-0.008007980231519754
-0.0006501641379310345,-0.007250968403166318
-0.0006501241379310345,-0.007053487056638975
-0.0006500841379310345,-0.007415536191939104
-0.0006500441379310346,-0.00685600571011265
-0.0006500041379310345,-0.007086400614394011
-0.0006499641379310345,-0.007349709076429989
-0.0006499241379310345,-0.006625610805829733
-0.0006498841379310345,-0.006987659941129861
-0.0006498441379310345,-0.006823092152357076
-0.0006498041379310346,-0.006691437921339086
-0.0006497641379310345,-0.006823092152357076
-0.0006497241379310345,-0.005769858304211248
-0.0006496841379310345,-0.006164820997265934
-0.0006496441379310345,-0.005901512535229476
-0.0006496041379310346,-0.005901512535229476
-0.0006495641379310345,-0.005341982053402724
-0.0006495241379310345,-0.005736944746456691
-0.0006494841379310345,-0.005506549842174791
-0.0006494441379310345,-0.005012846475856435
-0.0006494041379310346,-0.005111587149119926
-0.0006493641379310345,-0.004881192244837189
-0.0006493241379310345,-0.004321661763010735
-0.0006492841379310345,-0.004716624456065421
-0.0006492441379310345,-0.004420402436274407
-0.0006492041379310346,-0.003926699069956948
-0.0006491641379310345,-0.003992526185464865
-0.0006491241379310345,-0.003827958396692379
-0.0006490841379310345,-0.00336716858812858
-0.0006490441379310345,-0.003663390607919593
-0.0006490041379310345,-0.003400082145883136
-0.0006489641379310345,-0.002972205895074792
-0.0006489241379310345,-0.003465909261392251
-0.0006488841379310345,-0.003301341472619465
-0.0006488441379310345,-0.003465909261392251
-0.0006488041379310345,-0.003005119452828451
-0.0006487641379310346,-0.00313677368384644
-0.0006487241379310345,-0.00270889743303612
-0.0006486841379310345,-0.001984799162437181
-0.0006486441379310345,-0.001820231373664395
-0.0006486041379310345,-0.002281021182228195
-0.0006485641379310346,-0.001918972046928725
-0.0006485241379310345,-0.001853144931418234
-0.0006484841379310345,-0.001458182238364267
-0.0006484441379310345,-0.001458182238364267
-0.0006484041379310345,-0.0009973924298004675
-0.0006483641379310346,-0.001524009353872423
-0.0006483241379310345,-0.0006024297367460816
-0.0006482841379310345,-0.0007669975255185678
-0.0006482441379310345,-0.001589836469382495
-0.0006482041379310345,-0.0004707755057275538
-0.0006481641379310346,0.0001874956493635883
-0.0006481241379310345,-0.0006024297367455427
-0.0006480841379310345,-0.0004707755057275538
-0.0006480441379310345,0.000714112573436502
-0.0006480041379310345,-0.002544329644264652
-0.0006479641379310345,0.001635692190564101
-0.0006479241379310346,-0.001918972046921601
-0.0006478841379310345,0.00101033459322572
-0.0006478441379310345,2.292786059080275e-05
-0.0006478041379310345,-0.0001745534859365399
-0.0006477641379310345,-7.581281267286857e-05
-0.0006477241379310346,0.0003191498803810983
-0.0006476841379310345,0.0003191498803818766
-0.0006476441379310345,0.0003520634381363738
-0.0006476041379310345,5.584141834535986e-05
-0.0006475641379310345,-0.000832824641027682
-0.0006475241379310346,0.001109075266487655
-0.0006474841379310345,0.0004178905536457874
-0.0006474441379310345,0.0005824583424182735
-0.0006474041379310345,0.001174902382000301
-0.0006473641379310345,0.0003849769958909309
-0.0006473241379310346,0.0003520634381363738
-0.0006472841379310345,0.0003849769958918888
-0.0006472441379310345,0.0009115939199638446
-0.0006472041379310345,0.0009115939199638446
-0.0006471641379310345,0.0006811990156819448
-0.0006471241379310345,0.0007470261311910591
-0.0006470841379310346,0.00120781593975402
-0.0006470441379310345,0.0005495447846637165
-0.0006470041379310345,0.0006153719001728307
-0.0006469641379310345,0.001109075266491187
-0.0006469241379310345,0.001207815939754859
-0.0006468841379310346,0.001010334593227875
-0.0006468441379310345,0.0002204092071197618
-0.0006468041379310345,0.001109075266491187
-0.0006467641379310345,0.0001545820916090312
-0.0006467241379310345,0.001899000652600558
-0.0006466841379310346,0.001109075266492624
-0.0006466441379310345,0.0005824583424194111
-0.0006466041379310345,0.001207815939754859
-0.0006465641379310345,0.001339470170773087
-0.0006465241379310345,0.0009445074777184018
-0.0006464841379310346,0.001833173537089827
-0.0006464441379310345,0.001504037959545693
-0.0006464041379310345,0.001405297286282201
-0.0006463641379310345,0.001471124401791315
-0.0006463241379310345,0.001273643055263973
-0.0006462841379310345,0.001405297286282201
-0.0006462441379310346,0.001635692190563682
-0.0006462041379310345,0.001569865075054987
-0.0006461641379310345,0.001899000652600558
-0.0006461241379310345,0.002392704018918914
-0.0006460841379310345,0.001931914210355115
-0.0006460441379310346,0.002261049787900087
-0.0006460041379310345,0.001866087094847019
-0.0006459641379310345,0.002425617576673472
-0.0006459241379310345,0.002919320942991828
-0.0006458841379310345,0.002623098923200814
-0.0006458441379310346,0.002656012480955311
-0.0006458041379310345,0.002919320942991529
-0.0006457641379310345,0.002754753154219042
-0.0006457241379310345,0.003380110751555628
-0.0006456841379310345,0.003215542962782842
-0.0006456441379310346,0.003281370078291837
-0.0006456041379310345,0.00288640738523775
-0.0006455641379310345,0.003149715847273728
-0.0006455241379310345,0.003380110751555628
-0.0006454841379310345,0.004005468348892213
-0.0006454441379310346,0.00380798700236487
-0.0006454041379310345,0.003972554791138135
-0.0006453641379310345,0.004235863253174112
-0.0006453241379310345,0.004071295464401327
-0.0006452841379310345,0.004104209022155884
-0.0006452441379310345,0.004630825946228797
-0.0006452041379310346,0.004630825946228797
-0.0006451641379310345,0.004861220850511236
-0.0006451241379310345,0.005157442870301712
-0.0006450841379310345,0.00528909710131994
-0.0006450441379310345,0.004861220850510698
-0.0006450041379310346,0.005684059794373128
-0.0006449641379310345,0.005486578447847043
-0.0006449241379310345,0.005354924216829054
-0.0006448841379310345,0.005322010659074497
-0.0006448441379310345,0.00505870219703804
-0.0006448041379310346,0.00505870219703804
-0.0006447641379310345,0.005387837774583491
-0.0006447241379310345,0.005322010659074497
-0.0006446841379310345,0.005585319121110954
-0.0006446441379310345,0.004894134408265255
-0.0006446041379310346,0.005453664890092726
-0.0006445641379310345,0.005256183543565862
-0.0006445241379310345,0.005519492005601839
-0.0006444841379310345,0.00574988690988374
-0.0006444441379310345,0.005684059794374625
-0.0006444041379310345,0.005848627583147411
-0.0006443641379310346,0.005387837774584449
-0.0006443241379310345,0.005289097101319641
-0.0006442841379310345,0.005124529312547154
-0.0006442441379310345,0.005585319121110954
-0.0006442041379310345,0.005124529312547154
-0.0006441641379310346,0.00492704796602017
-0.0006441241379310345,0.004433344599701156
-0.0006440841379310345,0.00426877681092867
-0.0006440441379310345,0.003840900560119427
-0.0006440041379310345,0.004696653061737912
-0.0006439641379310346,0.004532085272965425
-0.0006439241379310345,0.003972554791137835
-0.0006438841379310345,0.004071295464401327
-0.0006438441379310345,0.004301690368683227
-0.0006438041379310345,0.004235863253174112
-0.0006437641379310346,0.004137122579910441
-0.0006437241379310345,0.004564998830719325
-0.0006436841379310345,0.004367517484192341
-0.0006436441379310345,0.004170036137664999
-0.0006436041379310345,0.003643419213592085
-0.0006435641379310345,0.003939641233383098
-0.0006435241379310346,0.003972554791137596
-0.0006434841379310345,0.004400431041946898
-0.0006434441379310345,0.004170036137664999
-0.0006434041379310345,0.004104209022155884
-0.0006433641379310345,0.003840900560119427
-0.0006433241379310346,0.004235863253173394
-0.0006432841379310345,0.004235863253174232
-0.0006432441379310345,0.004301690368683227
-0.0006432041379310345,0.004202949695419555
-0.0006431641379310345,0.003840900560119427
-0.0006431241379310346,0.004334603926436886
-0.0006430841379310345,0.004268776810927892
-0.0006430441379310345,0.003840900560119427
-0.0006430041379310345,0.004137122579910441
-0.0006429641379310345,0.004663739503983355
-0.0006429241379310346,0.003380110751557963
-0.0006428841379310345,0.004268776810928909
-0.0006428441379310345,0.004400431041946898
-0.0006428041379310345,0.004005468348892213
-0.0006427641379310345,0.004466258157456012
-0.0006427241379310345,0.004630825946228797
-0.0006426841379310346,0.003972554791138854
-0.0006426441379310345,0.004104209022155884
-0.0006426041379310345,0.004071295464401327
-0.0006425641379310345,0.004301690368683227
-0.0006425241379310345,0.004202949695419555
-0.0006424841379310346,0.004005468348892572
-0.0006424441379310345,0.003873814117874224
-0.0006424041379310345,0.004005468348892213
-0.0006423641379310345,0.003939641233383098
-0.0006423241379310345,0.003478851424819299
-0.0006422841379310346,0.004137122579909244
-0.0006422441379310345,0.003873814117873864
-0.0006422041379310345,0.00380798700236487
-0.0006421641379310345,0.003873814117873984
-0.0006421241379310345,0.003972554791137656
-0.0006420841379310346,0.004334603926437125
-0.0006420441379310345,0.003972554791136338
-0.0006420041379310345,0.003248456520537399
-0.0006419641379310345,0.003445937867064742
-0.0006419241379310345,0.004499171715210569
-0.0006418841379310346,0.003939641233383098
-0.0006418441379310345,0.00380798700236505
-0.0006418041379310345,0.003906727675628541
-0.0006417641379310345,0.003906727675628541
-0.0006417241379310345,0.003709246329101199
-0.0006416841379310345,0.003742159886855756
-0.0006416441379310346,0.004334603926436706
-0.0006416041379310345,0.0041700361376644
-0.0006415641379310345,0.003840900560119427
-0.0006415241379310345,0.004137122579910441
-0.0006414841379310345,0.004071295464401327
-0.0006414441379310346,0.003511764982574874
-0.0006414041379310345,0.003610505655836689
-0.0006413641379310345,0.003149715847273728
-0.0006413241379310345,0.003643419213592085
-0.0006412841379310345,0.003445937867064742
-0.0006412441379310346,0.003577592098082731
-0.0006412041379310345,0.003939641233383637
-0.0006411641379310345,0.004235863253174112
-0.0006411241379310345,0.004104209022155884
-0.0006410841379310345,0.00380798700236487
-0.0006410441379310346,0.004104209022155884
-0.0006410041379310345,0.004235863253173574
-0.0006409641379310345,0.003939641233383098
-0.0006409241379310345,0.004202949695419555
-0.0006408841379310345,0.004400431041946898
-0.0006408441379310345,0.004499171715210569
-0.0006408041379310346,0.004663739503983056
-0.0006407641379310345,0.004762480177246428
-0.0006407241379310345,0.004433344599701455
-0.0006406841379310345,0.004696653061737912
-0.0006406441379310345,0.004795393735001583
-0.0006406041379310346,0.004071295464402644
-0.0006405641379310345,0.005453664890092666
-0.0006405241379310345,0.005420751332338168
-0.0006404841379310345,0.00505870219703804
-0.0006404441379310345,0.004696653061737912
-0.0006404041379310346,0.005980281814163304
-0.0006403641379310345,0.006210676718443826
-0.0006403241379310345,0.004170036137664999
-0.0006402841379310345,0.005914454698656525
-0.0006402441379310345,0.006605639411502225
-0.0006402041379310346,0.005256183543567838
-0.0006401641379310345,0.006539812295991733
-0.0006401241379310345,0.005782800467638296
-0.0006400841379310345,0.006013195371920196
-0.0006400441379310345,0.006013195371920196
-0.0006400041379310345,0.006210676718447538
-0.0006399641379310346,0.005848627583148069
-0.0006399241379310345,0.006572725853747667
-0.0006398841379310345,0.006605639411502225
-0.0006398441379310345,0.006408158064974882
-0.0006398041379310345,0.006605639411502225
-0.0006397641379310346,0.007000602104556192
-0.0006397241379310345,0.007000602104558287
-0.0006396841379310345,0.007757613932911723
-0.0006396441379310345,0.007856354606175394
-0.0006396041379310345,0.007461391913120709
-0.0006395641379310346,0.007757613932911184
-0.0006395241379310345,0.007658873259648291
-0.0006394841379310345,0.00779052749066628
-0.0006394441379310345,0.00802092239494818
-0.0006394041379310345,0.00811966306821185
-0.0006393641379310346,0.008382971530247829
-0.0006393241379310345,0.008646279992283927
-0.0006392841379310345,0.008185490183720966
-0.0006392441379310345,0.008745020665548437
-0.0006392041379310345,0.008317144414739193
-0.0006391641379310345,0.007988008837193623
-0.0006391241379310346,0.009008329127583037
-0.0006390841379310345,0.008909588454321223
-0.0006390441379310345,0.008975415569830336
-0.0006390041379310345,0.008317144414739193
-0.0006389641379310345,0.008843761338812107
-0.0006389241379310346,0.008810847781057611
-0.0006388841379310345,0.008679193550040279
-0.0006388441379310345,0.009205810474112236
-0.0006388041379310345,0.008646279992284765
-0.0006387641379310345,0.008547539319021094
-0.0006387241379310346,0.008251317299230619
-0.0006386841379310345,0.008580452876776489
-0.0006386441379310345,0.00904124268533945
-0.0006386041379310345,0.006408158064974882
-0.0006385641379310345,0.008942502012075779
-0.0006385241379310346,0.007494305470877901
-0.0006384841379310345,0.009205810474110919
-0.0006384441379310345,0.008481712203511979
-0.0006384041379310345,0.007329737682102481
-0.0006383641379310345,0.008415885088002865
-0.0006383241379310346,0.008218403741475522
-0.0006382841379310345,0.009008329127583576
-0.0006382441379310345,0.008284230856984636
-0.0006382041379310345,0.006506898738238553
-0.0006381641379310345,0.008218403741475522
-0.0006381241379310345,0.008514625761266537
-0.0006380841379310346,0.007296824124350139
-0.0006380441379310345,0.007395564797612493
-0.0006380041379310345,0.007889268163929951
-0.0006379641379310345,0.007296824124347924
-0.0006379241379310345,0.007132256335575138
-0.0006378841379310346,0.007395564797611116
-0.0006378441379310345,0.006770207200275907
-0.0006378041379310345,0.007263910566593366
-0.0006377641379310345,0.00700060210455691
-0.0006377241379310345,0.006901861431293239
-0.0006376841379310346,0.00640815806497578
-0.0006376441379310345,0.006013195371921573
