Analysis/New Tests_CMB/wrd01_d2s01/non compliant measurements/cmb08_ch36.csv

#Digilent WaveForms Oscilloscope Acquisition
#Device Name: ADP3450
#Serial Number: SN:210018B9D9B0
#Date Time: 2024-08-06 17:00:24.465.019.130
#Sample rate: 2.94118e+06Hz
#Samples: 32768
#Trigger: Source: Channel 3 Type: Edge Condition: Rising Level: 60 mV Hyst.: Auto HoldOff: 0 s
#Channel 3: Range: 200 mV/div Offset: -20 mV Attenuation: 1 X Coupling: DC Bandwidth: 0 Hz Sample Mode: Average

Time (s),Channel 3 (V)
-0.005570487525035766,0.02599562198642603
-0.005570147525035765,0.02675263381478247
-0.005569807525035765,0.02764129987415389
-0.005569467525035766,0.02836539814475415
-0.005569127525035765,0.02951737266616412
-0.005568787525035765,0.0297806811282001
-0.005568447525035766,0.02968194045493643
-0.005568107525035765,0.02938571843514452
-0.005567767525035765,0.02889201506882706
-0.005567427525035766,0.0286287066067906
-0.005567087525035765,0.02866162016454474
-0.005566747525035765,0.02843122526026326
-0.005566407525035766,0.02688428804579908
-0.005566067525035765,0.02596270842866986
-0.005565727525035765,0.02507404236929844
-0.005565387525035765,0.02385624073237982
-0.005565047525035765,0.02342836448157016
-0.005564707525035765,0.02319796957728868
-0.005564367525035765,0.02293466111525222
-0.005564027525035765,0.02217764928689669
-0.005563687525035765,0.02178268659384272
-0.005563347525035765,0.0218814272671064
-0.005563007525035766,0.02181560015159741
-0.005562667525035765,0.02184851370935184
-0.005562327525035765,0.02112441543875158
-0.005561987525035766,0.02076236630345211
-0.005561647525035765,0.02030157649488766
-0.005561307525035765,0.01905086130021449
-0.005560967525035766,0.01842550370287904
-0.005560627525035765,0.0175039240857503
-0.005560287525035765,0.0175039240857503
-0.005559947525035766,0.01760266475901379
-0.005559607525035765,0.01707604783494106
-0.005559267525035765,0.01691148004616827
-0.005558927525035766,0.01668108514188679
-0.005558587525035765,0.01651651735311359
-0.005558247525035765,0.01631903600658625
-0.005557907525035766,0.01618738177556826
-0.005557567525035765,0.01648360379535903
-0.005557227525035765,0.01691148004616827
-0.005556887525035766,0.0165823444686233
-0.005556547525035765,0.01780014610554131
-0.005556207525035765,0.01839259014512334
-0.005555867525035766,0.01839259014512334
-0.005555527525035765,0.01872172572266892
-0.005555187525035765,0.01859007149165069
-0.005554847525035766,0.01891920706919566
-0.005554507525035765,0.01872172572266892
-0.005554167525035765,0.01891920706919626
-0.005553827525035766,0.01885337995368714
-0.005553487525035765,0.01839259014512334
-0.005553147525035765,0.01747101052799575
-0.005552807525035766,0.01687856648841372
-0.005552467525035765,0.0163519495643408
-0.005552127525035765,0.01638486312209536
-0.005551787525035766,0.01638486312209536
-0.005551447525035765,0.01648360379535861
-0.005551107525035765,0.01625320889107713
-0.005550767525035766,0.01625320889107713
-0.005550427525035765,0.01648360379536035
-0.005550087525035765,0.01720770206595929
-0.005549747525035766,0.01733935629697752
-0.005549407525035765,0.01750392408574976
-0.005549067525035765,0.01720770206595929
-0.005548727525035766,0.01631903600658625
-0.005548387525035765,0.0154961970627207
-0.005548047525035765,0.01460753100334928
-0.005547707525035766,0.01371886494397623
-0.005547367525035765,0.01335681580867461
-0.005547027525035765,0.01253397686481218
-0.005546687525035766,0.01207318705624838
-0.005546347525035765,0.01105286676585627
-0.005546007525035765,0.01059207695729331
-0.005545667525035766,0.01062499051504787
-0.005545327525035765,0.01115160743912288
-0.005544987525035765,0.01230358196053028
-0.005544647525035766,0.01391634629050358
-0.005544307525035765,0.0151999750429331
-0.005543967525035765,0.01618738177556802
-0.005543627525035765,0.0163519495643408
-0.005543287525035765,0.01622029533332233
-0.005542947525035765,0.01608864110230435
-0.005542607525035765,0.01641777667984992
-0.005542267525035766,0.0166152580263769
-0.005541927525035765,0.01631903600658625
-0.005541587525035765,0.01605572754454979
-0.005541247525035766,0.0159240733135318
-0.005540907525035765,0.0154303699472132
-0.005540567525035765,0.01480501234987662
-0.005540227525035766,0.01473918523436762
-0.005539887525035765,0.01421256831029459
-0.005539547525035765,0.01417965475254003
-0.005539207525035766,0.01394925984825855
-0.005538867525035765,0.01332390225092155
-0.005538527525035765,0.01322516157765788
-0.005538187525035766,0.01315933446214888
-0.005537847525035765,0.01332390225092155
-0.005537507525035765,0.01368595138622168
-0.005537167525035766,0.01431130898355712
-0.005536827525035765,0.01529871571619498
-0.005536487525035765,0.01556202417823143
-0.005536147525035766,0.01572659196700392
-0.005535807525035765,0.01516706148517675
-0.005535467525035765,0.01470627167661295
-0.005535127525035766,0.01434422254131348
-0.005534787525035765,0.01345555648193978
-0.005534447525035765,0.01292893955786686
-0.005534107525035766,0.01200735994074094
-0.005533767525035765,0.01207318705624838
-0.005533427525035765,0.01217192772951205
-0.005533087525035766,0.01309350734663965
-0.005532747525035765,0.01421256831029459
-0.005532407525035765,0.01500249369640396
-0.005532067525035766,0.01556202417823143
-0.005531727525035765,0.01539745638945865
-0.005531387525035765,0.01437713609906738
-0.005531047525035766,0.01414674119478548
-0.005530707525035765,0.01385051917499446
-0.005530367525035765,0.01385051917499446
-0.005530027525035766,0.01315933446214876
-0.005529687525035765,0.01306059378888527
-0.005529347525035765,0.01315933446214876
-0.005529007525035766,0.01283019888460319
-0.005528667525035765,0.01309350734664013
-0.005528327525035765,0.01335681580867611
-0.005527987525035766,0.01309350734663965
-0.005527647525035765,0.01348847003969445
-0.005527307525035765,0.01355429715520345
-0.005526967525035766,0.01289602600011231
-0.005526627525035765,0.01220484128726649
-0.005526287525035765,0.01213901417175749
-0.005525947525035766,0.01273145821133952
-0.005525607525035765,0.01358721071295896
-0.005525267525035765,0.01411382763703092
-0.005524927525035766,0.0142783954258037
-0.005524587525035765,0.01431130898355778
-0.005524247525035765,0.01404800052152181
-0.005523907525035766,0.01394925984825813
-0.005523567525035765,0.01437713609906833
-0.005523227525035765,0.01490375302314029
-0.005522887525035765,0.01503540725415852
-0.005522547525035765,0.01526580215844072
-0.005522207525035765,0.0154303699472132
-0.005521867525035765,0.01579241908251333
-0.005521527525035765,0.01579241908251291
-0.005521187525035765,0.01556202417823143
-0.005520847525035765,0.01510123436966763
-0.005520507525035766,0.01483792590763166
-0.005520167525035765,0.01500249369640396
-0.005519827525035765,0.01490375302314029
-0.005519487525035766,0.0148379259076313
-0.005519147525035765,0.01503540725415852
-0.005518807525035765,0.01539745638945865
-0.005518467525035766,0.01556202417823113
-0.005518127525035765,0.01569367840924966
-0.005517787525035765,0.01533162927394953
-0.005517447525035766,0.01490375302314107
-0.005517107525035765,0.01467335811885839
-0.005516767525035765,0.01381760561723991
-0.005516427525035766,0.01236940907604203
-0.005516087525035765,0.01174405147870281
-0.005515747525035765,0.01184279215196648
-0.005515407525035766,0.01266563109582891
-0.005515067525035765,0.01332390225092155
-0.005514727525035765,0.01404800052152181
-0.005514387525035766,0.01424548186804879
-0.005514047525035765,0.01411382763703092
-0.005513707525035765,0.01417965475254003
-0.005513367525035766,0.01434422254131252
-0.005513027525035765,0.01414674119478548
-0.005512687525035765,0.01381760561723991
-0.005512347525035766,0.01365303782846712
-0.005512007525035765,0.01306059378888509
-0.005511667525035765,0.01273145821133952
-0.005511327525035766,0.01263271753807585
-0.005510987525035765,0.01253397686481218
-0.005510647525035765,0.01227066840277572
-0.005510307525035766,0.01266563109583041
-0.005509967525035765,0.01335681580867611
-0.005509627525035765,0.01408091407927636
-0.005509287525035766,0.01477209879212206
-0.005508947525035765,0.01444296321457739
-0.005508607525035765,0.01493666658089485
-0.005508267525035766,0.01546328350496776
-0.005507927525035765,0.01592407331353252
-0.005507587525035765,0.01645069023760447
-0.005507247525035766,0.01691148004616827
-0.005506907525035765,0.01668108514188536
-0.005506567525035765,0.0161215546600589
-0.005506227525035766,0.01575950552475877
-0.005505887525035765,0.01444296321457607
-0.005505547525035765,0.01421256831029459
-0.005505207525035766,0.01388343273274902
-0.005504867525035765,0.01368595138622042
-0.005504527525035765,0.01299476667337598
-0.005504187525035766,0.01190861926747559
-0.005503847525035765,0.01105286676585699
-0.005503507525035765,0.01098703965034799
-0.005503167525035766,0.01131617522789356
-0.005502827525035765,0.01250106330705972
-0.005502487525035765,0.01365303782846712
-0.005502147525035765,0.01457461744559472
-0.005501807525035765,0.01526580215844018
-0.005501467525035765,0.01513414792742219
-0.005501127525035765,0.01533162927394953
-0.005500787525035765,0.01539745638945811
-0.005500447525035765,0.01510123436966763
-0.005500107525035765,0.01500249369640396
-0.005499767525035766,0.01496958013864946
-0.005499427525035765,0.01506832081191307
-0.005499087525035765,0.0154303699472132
-0.005498747525035766,0.01572659196700368
-0.005498407525035765,0.01595698687128612
-0.005498067525035765,0.01608864110230435
-0.005497727525035766,0.01608864110230435
-0.005497387525035765,0.01628612244883169
-0.005497047525035765,0.01628612244883169
-0.005496707525035766,0.01605572754455021
-0.005496367525035765,0.01595698687128612
-0.005496027525035765,0.01641777667984992
-0.005495687525035766,0.01694439360392187
-0.005495347525035765,0.01763557831676853
-0.005495007525035765,0.01780014610554131
-0.005494667525035766,0.01816219524084078
-0.005494327525035765,0.01793180033655955
-0.005493987525035765,0.01780014610554131
-0.005493647525035766,0.01710896139269687
-0.005493307525035765,0.01608864110230435
-0.005492967525035765,0.01493666658089485
-0.005492627525035766,0.01348847003969697
-0.005492287525035765,0.01243523619154851
-0.005491947525035765,0.01177696503645737
-0.005491607525035766,0.01144782945891239
-0.005491267525035765,0.01174405147870281
-0.005490927525035765,0.01194153282523015
-0.005490587525035766,0.01184279215196648
-0.005490247525035765,0.01171113792094825
-0.005489907525035765,0.01118452099687534
-0.005489567525035766,0.01082247186157521
-0.005489227525035765,0.01111869388136622
-0.005488887525035765,0.01171113792094825
-0.005488547525035766,0.01246814974930307
-0.005488207525035765,0.01375177850173217
-0.005487867525035765,0.01450879033008561
-0.005487527525035766,0.01470627167661295
-0.005487187525035765,0.01572659196700523
-0.005486847525035765,0.01628612244883169
-0.005486507525035766,0.01589115975577701
-0.005486167525035765,0.01589115975577748
-0.005485827525035765,0.01615446821781346
-0.005485487525035766,0.01631903600658625
-0.005485147525035765,0.01602281398679415
-0.005484807525035765,0.0154303699472132
-0.005484467525035766,0.01510123436966763
-0.005484127525035765,0.01447587677232973
-0.005483787525035765,0.01375177850173079
-0.005483447525035766,0.01358721071295801
-0.005483107525035765,0.01368595138622264
-0.005482767525035765,0.01421256831029459
-0.005482427525035766,0.01450879033008561
-0.005482087525035765,0.01483792590763196
-0.005481747525035765,0.01526580215844042
-0.005481407525035766,0.01516706148517675
-0.005481067525035765,0.0143442225413121
-0.005480727525035765,0.01394925984825813
-0.005480387525035765,0.01329098869316699
-0.005480047525035765,0.01309350734663911
-0.005479707525035765,0.01279728532684864
-0.005479367525035765,0.01184279215196648
-0.005479027525035766,0.01065790407280458
-0.005478687525035765,0.007070326277555699
-0.005478347525035765,-0.001915074989438392
-0.005478007525035766,-0.01768066915384257
-0.005477667525035765,-0.04154299852592515
-0.005477327525035765,-0.07241591569969971
-0.005476987525035766,-0.1063168801868319
-0.005476647525035765,-0.1399545362120509
-0.005476307525035765,-0.1704983178082799
-0.005475967525035766,-0.1957759301637338
-0.005475627525035765,-0.2148657936614229
-0.005475287525035765,-0.2277679083012093
-0.005474947525035766,-0.2348443232184262
-0.005474607525035765,-0.2375432349543127
-0.005474267525035765,-0.2367533095682033
-0.005473927525035766,-0.2332644724462266
-0.005473587525035765,-0.2270108964728545
-0.005473247525035765,-0.2198686544401156
-0.005472907525035766,-0.2129238937539167
-0.005472567525035765,-0.2052221212393376
-0.005472227525035765,-0.1971582995894711
-0.005471887525035766,-0.1889628237086013
-0.005471547525035765,-0.1818205816758476
-0.005471207525035765,-0.1748429074318814
-0.005470867525035766,-0.1680956280922095
-0.005470527525035765,-0.1613812623102676
-0.005470187525035765,-0.1548972914326198
-0.005469847525035766,-0.1496311221918907
-0.005469507525035765,-0.1438712495848432
-0.005469167525035765,-0.1383746854398322
-0.005468827525035766,-0.1326148128327847
-0.005468487525035765,-0.1277765198428648
-0.005468147525035765,-0.1220824743513264
-0.005467807525035766,-0.1170796135726337
-0.005467467525035765,-0.1116488765431318
-0.005467127525035765,-0.1060206581671025
-0.005466787525035766,-0.1006228346953552
-0.005466447525035765,-0.09604785016746352
-0.005466107525035765,-0.09153869275509741
-0.005465767525035766,-0.08745741159353232
-0.005465427525035765,-0.08363943889399758
-0.005465087525035765,-0.08028225600303887
-0.005464747525035766,-0.07672759176554669
-0.005464407525035765,-0.07369954445212189
-0.005464067525035765,-0.07063858358095362
-0.005463727525035766,-0.06655730241938854
-0.005463387525035765,-0.06287098395087305
-0.005463047525035765,-0.06007333154174081
-0.005462707525035766,-0.05783520961443091
-0.005462367525035765,-0.05572874191813675
-0.005462027525035765,-0.05434637249244786
-0.005461687525035766,-0.05256904037370178
-0.005461347525035765,-0.05112084383249744
-0.005461007525035765,-0.04901437613620962
-0.005460667525035766,-0.04674334065114517
-0.005460327525035765,-0.04378112045322934
-0.005459987525035765,-0.0406543324665521
-0.005459647525035765,-0.03851495121250589
-0.005459307525035765,-0.03660596486273931
-0.005458967525035765,-0.03535524966806841
-0.005458627525035765,-0.03370957178034056
-0.005458287525035765,-0.03193223966159232
-0.005457947525035765,-0.03074735158243042
-0.005457607525035765,-0.02916750081021167
-0.005457267525035766,-0.02794969917329528
-0.005456927525035765,-0.02689646532514724
-0.005456587525035765,-0.02587614503475597
-0.005456247525035766,-0.02409881291601312
-0.005455907525035765,-0.02228856723950924
-0.005455567525035765,-0.0207087164672905
-0.005455227525035766,-0.01903012502181114
-0.005454887525035765,-0.0184047674244715
-0.005454547525035765,-0.01745027424958934
-0.005454207525035766,-0.01616664549716395
-0.005453867525035765,-0.0147184489559611
-0.005453527525035765,-0.01346773376128794
-0.005453187525035766,-0.01267780837518
-0.005452847525035765,-0.01254615414416034
-0.005452507525035765,-0.01231575923987844
-0.005452167525035766,-0.01129543894948902
-0.005451827525035765,-0.010044723754814
-0.005451487525035765,-0.008004083174031458
-0.005451147525035766,-0.006621713748342572
-0.005450807525035765,-0.005634307015703346
-0.005450467525035765,-0.004943122302857646
-0.005450127525035766,-0.004317764705522198
-0.005449787525035765,-0.003462012203902576
-0.005449447525035765,-0.002408778355756747
-0.005449107525035766,-0.001618852969648814
-0.005448767525035765,-0.0007301869102743358
-0.005448427525035765,0.0005205282843988336
-0.005448087525035766,0.001376280786017318
-0.005447747525035765,0.001606675690299219
-0.005447407525035765,0.001672502805808333
-0.005447067525035766,0.001705416363562889
-0.005446727525035765,0.001869984152335677
-0.005446387525035765,0.002199119729881245
-0.005446047525035766,0.002067465498863018
-0.005445707525035765,0.002857390884972269
-0.005445367525035765,0.002791563769463275
-0.005445027525035766,0.002923218000481502
-0.005444687525035765,0.003054872231500152
-0.005444347525035765,0.00328526713578163
-0.005444007525035766,0.003384007809045304
-0.005443667525035765,0.003482748482309693
-0.005443327525035765,0.00387771117536366
-0.005442987525035766,0.004404328099436573
-0.005442647525035765,0.00384479761761048
-0.005442307525035765,0.004601809445963915
-0.005441967525035766,0.004963858581264044
-0.005441627525035765,0.00522716704330032
-0.005441287525035765,0.005128426370036829
-0.005440947525035766,0.0052271670433005
-0.005440607525035765,0.005260080601055238
-0.005440267525035765,0.005358821274318729
-0.005439927525035766,0.005556302620846072
-0.005439587525035765,0.006412055122465873
-0.005439247525035765,0.007136153393064813
-0.005438907525035766,0.007432375412855827
-0.005438567525035765,0.007070326277555819
-0.005438227525035765,0.007136153393064813
-0.005437887525035765,0.006905758488782913
-0.005437547525035765,0.006543709353482366
-0.005437207525035765,0.006313314449200885
-0.005436867525035765,0.007136153393064813
-0.005436527525035766,0.007860251663663753
-0.005436187525035765,0.009012226185074568
-0.005435847525035765,0.009900892244447609
-0.005435507525035766,0.01059207695729205
-0.005435167525035765,0.01131617522789356
-0.005434827525035765,0.01115160743912078
-0.005434487525035766,0.01078955830382131
-0.005434147525035765,0.01101995320810255
-0.005433807525035765,0.01072373118831154
-0.005433467525035766,0.01055916339953905
-0.005433127525035765,0.01052624984178419
-0.005432787525035765,0.01098703965034799
-0.005432447525035766,0.01171113792094693
-0.005432107525035765,0.01259980398032129
-0.005431767525035765,0.01342264292418522
-0.005431427525035766,0.01375177850173019
-0.005431087525035765,0.01434422254131282
-0.005430747525035765,0.0147391852343675
-0.005430407525035766,0.0148050123498765
-0.005430067525035765,0.01480501234987662
-0.005429727525035765,0.01381760561723991
-0.005429387525035766,0.01322516157765895
-0.005429047525035765,0.01246814974930307
-0.005428707525035765,0.01190861926747559
-0.005428367525035766,0.01121743455463115
-0.005428027525035765,0.01069081763055698
-0.005427687525035765,0.0107566447460661
-0.005427347525035766,0.01115160743912078
-0.005427007525035765,0.01171113792094825
-0.005426667525035765,0.01233649551828483
-0.005426327525035766,0.01381760561723991
-0.005425987525035765,0.01424548186804915
-0.005425647525035765,0.0149695801386494
-0.005425307525035766,0.01519997504293131
-0.005424967525035765,0.01519997504293131
-0.005424627525035765,0.01556202417823143
-0.005424287525035766,0.0161215546600589
-0.005423947525035765,0.0161873817755682
-0.005423607525035765,0.01628612244883169
-0.005423267525035766,0.01625320889107713
-0.005422927525035765,0.01536454283170259
-0.005422587525035765,0.01454170388784016
-0.005422247525035766,0.01345555648193978
-0.005421907525035765,0.01243523619154719
-0.005421567525035765,0.01171113792094825
-0.005421227525035766,0.01131617522789356
-0.005420887525035765,0.01092121253483924
-0.005420547525035765,0.01111869388136622
-0.005420207525035766,0.01134908878564812
-0.005419867525035765,0.01200735994074028
-0.005419527525035765,0.01256689042256674
-0.005419187525035766,0.01338972936643066
-0.005418847525035765,0.01394925984825843
-0.005418507525035765,0.01411382763703092
-0.005418167525035766,0.01467335811885839
-0.005417827525035765,0.01496958013864893
-0.005417487525035765,0.01470627167661295
-0.005417147525035765,0.01487083946538573
-0.005416807525035765,0.01421256831029381
-0.005416467525035765,0.01378469205948535
-0.005416127525035765,0.01342264292418522
-0.005415787525035765,0.01302768023113072
-0.005415447525035765,0.01312642090439421
-0.005415107525035765,0.01322516157765788
-0.005414767525035766,0.01207318705625047
-0.005414427525035765,0.01148074301666635
-0.005414087525035765,0.01055916339953875
-0.005413747525035766,0.009473015993640343
-0.005413407525035765,0.008946399069565453
-0.005413067525035765,0.00874891772303811
