Analysis/New Tests_CMB/wrd01_d2s01/non compliant measurements/cmb01_ch41.csv

#Digilent WaveForms Oscilloscope Acquisition
#Device Name: ADP3450
#Serial Number: SN:210018B9D9B0
#Date Time: 2024-08-06 15:22:28.606.081.980
#Sample rate: 2.94118e+06Hz
#Samples: 32768
#Trigger: Source: Channel 3 Type: Edge Condition: Rising Level: 80 mV Hyst.: Auto HoldOff: 0 s
#Channel 3: Range: 200 mV/div Offset: 0 V Attenuation: 1 X Coupling: DC Bandwidth: 0 Hz Sample Mode: Average

Time (s),Channel 3 (V)
-0.005570386509240247,0.02375360300162648
-0.005570046509240247,0.02401691146366365
-0.005569706509240247,0.02441187415671762
-0.005569366509240247,0.02460935550324496
-0.005569026509240247,0.0242802199256979
-0.005568686509240247,0.02345738098183546
-0.005568346509240247,0.02233832001818052
-0.005568006509240247,0.02204209799838831
-0.005567666509240247,0.02138382684329837
-0.005567326509240247,0.02049516078392532
-0.005566986509240247,0.01957358116679557
-0.005566646509240247,0.01838869308763367
-0.005566306509240247,0.01746711347050607
-0.005565966509240247,0.01717089145071428
-0.005565626509240247,0.01674301519990581
-0.005565286509240247,0.01562395423625087
-0.005564946509240247,0.01414284413729442
-0.005564606509240247,0.01338583230894099
-0.005564266509240247,0.01289212894262263
-0.005563926509240247,0.01229968490303989
-0.005563586509240247,0.01190472220998592
-0.005563246509240247,0.01213511711426782
-0.005562906509240247,0.01381370855974718
-0.005562566509240247,0.01450489327259593
-0.005562226509240247,0.01499859663891429
-0.005561886509240247,0.01568978135175873
-0.005561546509240247,0.01572269490951454
-0.005561206509240247,0.01539355933196897
-0.005560866509240247,0.01513025086993299
-0.005560526509240247,0.01450489327259593
-0.005560186509240247,0.01447197971484137
-0.005559846509240247,0.0141428441372964
-0.005559506509240247,0.01387953567525935
-0.005559166509240247,0.0134516594244501
-0.005558826509240247,0.01315543740465963
-0.005558486509240247,0.01243133913405883
-0.005558146509240247,0.01216803067202238
-0.005557806509240247,0.0119047222099864
-0.005557466509240247,0.01177306797896769
-0.005557126509240247,0.01141101884366756
-0.005556786509240247,0.01071983413082312
-0.005556446509240247,0.01075274768857642
-0.005556106509240247,0.01104896970836743
-0.005555766509240247,0.01101605615061294
-0.005555426509240247,0.01104896970836743
-0.005555086509240247,0.01114771038163111
-0.005554746509240247,0.01085148836184063
-0.005554406509240247,0.01048943922653996
-0.005554066509240247,0.01045652566878541
-0.005553726509240247,0.01035778499552173
-0.005553386509240247,0.01039069855327629
-0.005553046509240247,0.01045652566878541
-0.005552706509240247,0.009765340955939707
-0.005552366509240247,0.008942502012075779
-0.005552026509240247,0.00779052749066628
-0.005551686509240247,0.00653981229599311
-0.005551346509240247,0.005519492005600762
-0.005551006509240247,0.004927047966019811
-0.005550666509240247,0.005124529312547154
-0.005550326509240247,0.005848627583148848
-0.005549986509240247,0.006638552969256781
-0.005549646509240247,0.007757613932911723
-0.005549306509240247,0.008975415569831773
-0.005548966509240247,0.009765340955939707
-0.005548626509240247,0.01002864941797616
-0.005548286509240247,0.01006156297573126
-0.005547946509240247,0.01035778499552173
-0.005547606509240247,0.01009447653348528
-0.005547266509240247,0.009238724031865955
-0.005546926509240247,0.008777934223302994
-0.005546586509240247,0.008679193550039321
-0.005546246509240247,0.008251317299231994
-0.005545906509240247,0.009304551147375908
-0.005545566509240247,0.009864081629203377
-0.005545226509240247,0.0105223527842956
-0.005544886509240247,0.01111479682387655
-0.005544546509240247,0.01170724086345858
-0.005544206509240247,0.01200346288324989
-0.005543866509240247,0.01216803067202238
-0.005543526509240247,0.0120692899987587
-0.005543186509240247,0.01210220355651188
-0.005542846509240247,0.01134519172815845
-0.005542506509240247,0.01039069855327629
-0.005542166509240247,0.008580452876778943
-0.005541826509240247,0.007362651239857037
-0.005541486509240247,0.006013195371920196
-0.005541146509240247,0.005091615754794274
-0.005540806509240247,0.00505870219703804
-0.005540466509240247,0.005552405563356397
-0.005540126509240247,0.006046108929673856
-0.005539786509240247,0.006013195371920196
-0.005539446509240247,0.006803120758029567
-0.005539106509240247,0.007099342777820043
-0.005538766509240247,0.007263910566593366
-0.005538426509240247,0.007724700375157166
-0.005538086509240247,0.007856354606175155
-0.005537746509240247,0.008086749510457293
-0.005537406509240247,0.008218403741475522
-0.005537066509240247,0.008777934223301975
-0.005536726509240247,0.009205810474112236
-0.005536386509240247,0.009436205378394135
-0.005536046509240247,0.01002864941797509
-0.005535706509240247,0.01078566124633098
-0.005535366509240247,0.01124645105489478
-0.005535026509240247,0.01183889509447573
-0.005534686509240247,0.01223385778753149
-0.005534346509240247,0.01180598153672225
-0.005534006509240247,0.01131227817040479
-0.005533666509240247,0.009962822302467049
-0.005533326509240247,0.008481712203511979
-0.005532986509240247,0.007296824124347924
-0.005532646509240247,0.005716973352129182
-0.005532306509240247,0.004466258157456012
-0.005531966509240247,0.003939641233383098
-0.005531626509240247,0.00426877681092867
-0.005531286509240247,0.005322010659074497
-0.005530946509240247,0.006276503833956653
-0.005530606509240247,0.007362651239857037
-0.005530266509240247,0.007988008837193623
-0.005529926509240247,0.008152576625966409
-0.005529586509240247,0.007691786817401052
-0.005529246509240247,0.006836034315784124
-0.005528906509240247,0.007033515662311467
-0.005528566509240247,0.007000602104557867
-0.005528226509240247,0.007527219028629823
-0.005527886509240247,0.008613366434530208
-0.005527546509240247,0.009831168071449299
-0.005527206509240247,0.01009447653348528
-0.005526866509240247,0.009896995186957936
-0.005526526509240247,0.009732427398185211
-0.005526186509240247,0.009765340955939707
-0.005525846509240247,0.00950203249390325
-0.005525506509240247,0.009699513840430532
-0.005525166509240247,0.009666600282676035
-0.005524826509240247,0.009864081629203377
-0.005524486509240247,0.00986408162920218
-0.005524146509240247,0.009205810474112236
-0.005523806509240247,0.008843761338812107
-0.005523466509240247,0.008350057972492015
-0.005523126509240247,0.007395564797611595
-0.005522786509240247,0.006934774989047795
-0.005522446509240247,0.006901861431292161
-0.005522106509240247,0.00630941739171121
-0.005521766509240247,0.006572725853747667
-0.005521426509240247,0.006770207200274351
-0.005521086509240247,0.006408158064974882
-0.005520746509240247,0.00653981229599311
-0.005520406509240247,0.00736265123985554
-0.005520066509240247,0.008415885088002865
-0.005519726509240247,0.009304551147375908
-0.005519386509240247,0.01029195788001083
-0.005519046509240247,0.01081857480408553
-0.005518706509240247,0.01101605615061288
-0.005518366509240247,0.0106869205730679
-0.005518026509240247,0.01042361211103085
-0.005517686509240247,0.009666600282676035
-0.005517346509240247,0.0089095884543226
-0.005517006509240247,0.00811966306821185
-0.005516666509240247,0.00802092239494818
-0.005516326509240247,0.008481712203511141
-0.005515986509240247,0.008942502012075779
-0.005515646509240247,0.01055526634204908
-0.005515306509240247,0.01174015442121098
-0.005514966509240247,0.01154267307468579
-0.005514626509240247,0.01104896970836743
-0.005514286509240247,0.01009447653348701
-0.005513946509240247,0.009567859609412364
-0.005513606509240247,0.008415885088002865
-0.005513266509240247,0.006934774989050489
-0.005512926509240247,0.006046108929674754
-0.005512586509240247,0.005124529312547154
-0.005512246509240247,0.004959961523774369
-0.005511906509240247,0.005552405563356397
-0.005511566509240247,0.006704380084765896
-0.005511226509240247,0.008152576625966409
-0.005510886509240247,0.009436205378394135
-0.005510546509240247,0.01104896970836743
-0.005510206509240247,0.01200346288324959
-0.005509866509240247,0.0127604747116044
-0.005509526509240247,0.01210220355651326
-0.005509186509240247,0.01075274768857642
-0.005508846509240247,0.008646279992283208
-0.005508506509240247,0.00779052749066628
-0.005508166509240247,0.006737293642520453
-0.005507826509240247,0.006638552969256841
-0.005507486509240247,0.006671466527011338
-0.005507146509240247,0.006868947873538681
-0.005506806509240247,0.007395564797612613
-0.005506466509240247,0.007955095279439066
-0.005506126509240247,0.008415885088002865
-0.005505786509240247,0.009008329127584773
-0.005505446509240247,0.008942502012075779
-0.005505106509240247,0.008514625761266537
-0.005504766509240247,0.008284230856985594
-0.005504426509240247,0.00881084778105755
-0.005504086509240247,0.008745020665548437
-0.005503746509240247,0.007889268163930371
-0.005503406509240247,0.00811966306821185
-0.005503066509240247,0.008382971530248308
-0.005502726509240247,0.008580452876776789
-0.005502386509240247,0.009205810474112236
-0.005502046509240247,0.009074156243094007
-0.005501706509240247,0.00973242739818533
-0.005501366509240247,0.00983116807144882
-0.005501026509240247,0.009469118936148692
-0.005500686509240247,0.00930455114737519
-0.005500346509240247,0.008909588454321223
-0.005500006509240247,0.008646279992284765
-0.005499666509240247,0.008745020665548256
-0.005499326509240247,0.009107069800848565
-0.005498986509240247,0.009008329127584893
-0.005498646509240247,0.008810847781057909
-0.005498306509240247,0.008284230856984636
-0.005497966509240247,0.007230997008838809
-0.005497626509240247,0.007198083451084312
-0.005497286509240247,0.006605639411502225
-0.005496946509240247,0.006046108929674754
-0.005496606509240247,0.005782800467638775
-0.005496266509240247,0.005322010659074497
-0.005495926509240247,0.00528909710131994
-0.005495586509240247,0.005256183543565443
-0.005495246509240247,0.005848627583147411
-0.005494906509240247,0.007362651239857037
-0.005494566509240247,0.008810847781054915
-0.005494226509240247,0.01032487143776718
-0.005493886509240247,0.01147684595917668
-0.005493546509240247,0.01206928999875763
-0.005493206509240247,0.01213511711426782
-0.005492866509240247,0.011378105285913
-0.005492526509240247,0.01039069855327809
-0.005492186509240247,0.009238724031866792
-0.005491846509240247,0.008580452876775651
-0.005491506509240247,0.008712107107793641
-0.005491166509240247,0.009238724031866792
-0.005490826509240247,0.009436205378394135
-0.005490486509240247,0.009271637589621349
-0.005490146509240247,0.008942502012075779
-0.005489806509240247,0.007625959701893495
-0.005489466509240247,0.006803120758029567
-0.005489126509240247,0.005486578447847282
-0.005488786509240247,0.004235863253174112
-0.005488446509240247,0.00380798700236487
-0.005488106509240247,0.003840900560120625
-0.005487766509240247,0.004499171715210569
-0.005487426509240247,0.005322010659074497
-0.005487086509240247,0.006177763160694718
-0.005486746509240247,0.007132256335575138
-0.005486406509240247,0.007494305470875266
-0.005486066509240247,0.008020922394948419
-0.005485726509240247,0.008152576625966409
-0.005485386509240247,0.008415885088002865
-0.005485046509240247,0.00858045287677643
-0.005484706509240247,0.009008329127584893
-0.005484366509240247,0.009107069800848565
-0.005484026509240247,0.009172896916356961
-0.005483686509240247,0.008777934223302994
-0.005483346509240247,0.008382971530248308
-0.005483006509240247,0.007889268163928874
-0.005482666509240247,0.007296824124347924
-0.005482326509240247,0.00700060210455691
-0.005481986509240247,0.007362651239858234
-0.005481646509240247,0.00802092239494818
-0.005481306509240247,0.008876674896566664
-0.005480966509240247,0.009765340955940305
-0.005480626509240247,0.01009447653348528
-0.005480286509240247,0.01052235278429452
-0.005479946509240247,0.01062109345755717
-0.005479606509240247,0.01006156297573072
-0.005479266509240247,0.007955095279439066
-0.005478926509240247,0.002326876903420038
-0.005478586509240247,-0.009423263214967087
-0.005478246509240247,-0.0289080894056649
-0.005477906509240247,-0.05553515762905316
-0.005477566509240247,-0.08808666624835856
-0.005477226509240247,-0.1226788154483981
-0.005476886509240247,-0.1569089155130752
-0.005476546509240247,-0.1874197835516119
-0.005476206509240247,-0.2121707789830389
-0.005475866509240247,-0.2300428408437309
-0.005475526509240247,-0.2416284131733675
-0.005475186509240247,-0.2475857671269423
-0.005474846509240247,-0.2490010501103857
-0.005474506509240247,-0.2468287552985875
-0.005474166509240247,-0.2426816470215133
-0.005473826509240247,-0.2372179964342668
-0.005473486509240247,-0.2309973340186455
-0.005473146509240247,-0.2243158817944705
-0.005472806509240247,-0.217206553319499
-0.005472466509240247,-0.2100972248445018
-0.005472126509240247,-0.2020992303101444
-0.005471786509240247,-0.1958456543367899
-0.005471446509240247,-0.1877818326869121
-0.005471106509240247,-0.1807054177696823
-0.005470766509240247,-0.1737935706412378
-0.005470426509240247,-0.1677374760143868
-0.005470086509240247,-0.1618130356185665
-0.005469746509240247,-0.1559215087805008
-0.005469406509240247,-0.1504249446354897
-0.005469066509240247,-0.1446979855861968
-0.005468726509240247,-0.1391685078834312
-0.005468386509240247,-0.1335732030651565
-0.005468046509240247,-0.1277475033425999
-0.005467706509240247,-0.123501654392262
-0.005467366509240247,-0.1194203732306969
-0.005467026509240247,-0.1151416107226045
-0.005466686509240247,-0.1105337126369665
-0.005466346509240247,-0.1062220365711122
-0.005466006509240247,-0.1022065825250636
-0.005465666509240247,-0.09805947424798939
-0.005465326509240247,-0.09437315577947245
-0.005464986509240247,-0.09078557798423226
-0.005464646509240247,-0.08706634595796731
-0.005464306509240247,-0.08305089191190386
-0.005463966509240247,-0.07893669719259169
-0.005463626509240247,-0.07492124314653573
-0.005463286509240247,-0.07130075179352763
-0.005462946509240247,-0.06754860620951494
-0.005462606509240247,-0.06504717582016858
-0.005462266509240247,-0.06303944879713672
-0.005461926509240247,-0.0609000675430944
-0.005461586509240247,-0.05829989648048439
-0.005461246509240247,-0.05589720676439741
-0.005460906509240247,-0.05352743060607361
-0.005460566509240247,-0.0511576544477455
-0.005460226509240247,-0.04898535963594227
-0.005459886509240247,-0.04763590376800789
-0.005459546509240247,-0.04575983097599813
-0.005459206509240247,-0.04408123953051159
-0.005458866509240247,-0.04181020404545128
-0.005458526509240247,-0.04032909394649621
-0.005458186509240247,-0.03812388557693873
-0.005457846509240247,-0.03693899749777683
-0.005457506509240247,-0.03575410941861278
-0.005457166509240247,-0.03503001114801384
-0.005456826509240247,-0.03430591287741226
-0.005456486509240247,-0.03430591287741226
-0.005456146509240247,-0.03404260441537628
-0.005455806509240247,-0.0328906298939663
-0.005455466509240247,-0.03081707575542921
-0.005455126509240247,-0.02874352161689588
-0.005454786509240247,-0.02624209122754577
-0.005454446509240247,-0.02420145064676323
-0.005454106509240247,-0.02278616766331985
-0.005453766509240247,-0.02170002025741689
-0.005453426509240247,-0.02087718131355296
-0.005453086509240247,-0.02008725592744503
-0.005452746509240247,-0.01903402207929776
-0.005452406509240247,-0.01768456621136092
-0.005452066509240247,-0.01666424592097151
-0.005451726509240247,-0.0152489629375237
-0.005451386509240247,-0.01380076639632318
-0.005451046509240247,-0.01255005120165229
-0.005450706509240247,-0.0124842240861409
-0.005450366509240247,-0.01231965629736811
-0.005450026509240247,-0.01182595293105065
-0.005449686509240247,-0.01169429870003153
-0.005449346509240247,-0.01120059533371317
-0.005449006509240247,-0.01024610215883275
-0.005448666509240247,-0.009456176772721644
-0.005448326509240247,-0.008567510713348603
-0.005447986509240247,-0.007514276865202775
-0.005447646509240247,-0.007086400614393532
-0.005447306509240247,-0.006757265036847961
-0.005446966509240247,-0.007053487056638975
-0.005446626509240247,-0.007613017538466446
-0.005446286509240247,-0.008534597155594046
-0.005445946509240247,-0.009094127637421515
-0.005445606509240247,-0.009489090330477398
-0.005445266509240247,-0.01014736148556734
-0.005444926509240247,-0.0104106699476038
-0.005444586509240247,-0.00988405302352921
-0.005444246509240247,-0.008962473406403288
-0.005443906509240247,-0.007711758211730118
-0.005443566509240247,-0.0065926972480732
-0.005443226509240247,-0.005506549842174791
-0.005442886509240247,-0.004420402436274407
-0.005442546509240247,-0.00363047705016336
-0.005442206509240247,-0.002708897433037437
-0.005441866509240247,-0.001359441565100596
-0.005441526509240247,-0.0004707755057253986
-0.005441186509240247,0.000714112573436502
-0.005440846509240247,0.001668605748318658
-0.005440506509240247,0.002656012480956628
-0.005440166509240247,0.003347197193801071
-0.005439826509240247,0.003972554791137656
-0.005439486509240247,0.004499171715209192
-0.005439146509240247,0.003742159886855756
-0.005438806509240247,0.002919320942991828
-0.005438466509240247,0.001833173537090366
-0.005438126509240247,0.001240729497509416
-0.005437786509240247,0.001043248150982073
-0.005437446509240247,0.001372383728528722
-0.005437106509240247,0.001964827768109672
-0.005436766509240247,0.002458531134428029
-0.005436426509240247,0.00351176498257194
-0.005436086509240247,0.003445937867064742
-0.005435746509240247,0.003906727675628541
-0.005435406509240247,0.004499171715209492
-0.005435066509240247,0.005124529312547154
-0.005434726509240247,0.00574988690988374
-0.005434386509240247,0.006605639411500668
-0.005434046509240247,0.00630941739171121
-0.005433706509240247,0.006210676718447538
-0.005433366509240247,0.006177763160693042
-0.005433026509240247,0.005881541140901968
-0.005432686509240247,0.006046108929674754
-0.005432346509240247,0.0054865784478483
-0.005432006509240247,0.004696653061737912
-0.005431666509240247,0.004202949695419555
-0.005431326509240247,0.004170036137665058
-0.005430986509240247,0.004564998830719684
-0.005430646509240247,0.004729566619492469
-0.005430306509240247,0.005124529312546436
-0.005429966509240247,0.005322010659074497
-0.005429626509240247,0.006375244507220324
-0.005429286509240247,0.006013195371920854
-0.005428946509240247,0.006441071622729439
-0.005428606509240247,0.006572725853747667
-0.005428266509240247,0.007132256335574121
-0.005427926509240247,0.007165169893329695
-0.005427586509240247,0.007593046144138938
-0.005427246509240247,0.007132256335575138
-0.005426906509240247,0.006375244507220324
-0.005426566509240247,0.005387837774583611
-0.005426226509240247,0.004499171715210569
-0.005425886509240247,0.003643419213592085
-0.005425546509240247,0.003840900560119427
-0.005425206509240247,0.0027876667119736
-0.005424866509240247,0.0030180616162555
-0.005424526509240247,0.003511764982573856
-0.005424186509240247,0.004696653061737912
-0.005423846509240247,0.004927047966021069
-0.005423506509240247,0.005618232678865511
-0.005423166509240247,0.006836034315784124
-0.005422826509240247,0.007889268163932105
-0.005422486509240247,0.009074156243094007
-0.005422146509240247,0.009370378262885021
-0.005421806509240247,0.008679193550038843
-0.005421466509240247,0.008415885088002865
-0.005421126509240247,0.00779052749066628
-0.005420786509240247,0.007395564797610877
-0.005420446509240247,0.00700060210455691
-0.005420106509240247,0.006737293642520453
-0.005419766509240247,0.006342330949464989
-0.005419426509240247,0.005914454698656525
-0.005419086509240247,0.005947368256411082
-0.005418746509240247,0.005881541140901788
-0.005418406509240247,0.005782800467638296
-0.005418066509240247,0.005947368256411082
-0.005417726509240247,0.005947368256411441
-0.005417386509240247,0.006144849602938425
-0.005417046509240247,0.006342330949465767
-0.005416706509240247,0.006473985180484534
-0.005416366509240247,0.00677020720027501
-0.005416026509240247,0.006473985180483996
-0.005415686509240247,0.005782800467636261
-0.005415346509240247,0.004663739503983355
-0.005415006509240247,0.003511764982573856
-0.005414666509240247,0.003742159886855337
