Analysis/New Tests_CMB/wrd01_d2s01/non compliant measurements/cmb01_ch06.csv

#Digilent WaveForms Oscilloscope Acquisition
#Device Name: ADP3450
#Serial Number: SN:210018B9D9B0
#Date Time: 2024-08-06 15:01:04.703.368.620
#Sample rate: 2.94118e+06Hz
#Samples: 32768
#Trigger: Source: Channel 3 Type: Edge Condition: Rising Level: 80 mV Hyst.: Auto HoldOff: 0 s
#Channel 3: Range: 200 mV/div Offset: 0 V Attenuation: 1 X Coupling: DC Bandwidth: 0 Hz Sample Mode: Average

Time (s),Channel 3 (V)
-0.005570392741935484,0.01694049654643316
-0.005570052741935483,0.0129250425003797
-0.005569712741935484,0.01430741192606859
-0.005569372741935484,0.01430741192606859
-0.005569032741935483,0.01608474404481239
-0.005568692741935484,0.0148340288501415
-0.005568352741935484,0.013682054328732
-0.005568012741935483,0.01684175587316098
-0.005567672741935484,0.01216803067202238
-0.005567332741935484,0.01213511711426782
-0.005566992741935483,0.01243133913406829
-0.005566652741935484,0.01763168125927886
-0.005566312741935484,0.01042361211103085
-0.005565972741935483,0.007790527490676458
-0.005565632741935484,0.01338583230894099
-0.005565292741935484,0.01236551201854972
-0.005564952741935483,0.01394536279076211
-0.005564612741935484,0.01045652566878541
-0.005564272741935484,0.006605639411502225
-0.005563932741935483,0.008086749510457474
-0.005563592741935484,0.008185490183720966
-0.005563252741935484,0.006210676718447538
-0.005562912741935484,0.005782800467639074
-0.005562572741935484,0.005585319121110954
-0.005562232741935484,0.004959961523774369
-0.005561892741935484,0.005058702197037861
-0.005561552741935484,0.00574988690988374
-0.005561212741935484,0.004499171715210569
-0.005560872741935484,0.004137122579911099
-0.005560532741935484,0.005684059794374625
-0.005560192741935484,0.006572725853747667
-0.005559852741935484,0.005289097101322275
-0.005559512741935483,0.006144849602938425
-0.005559172741935484,0.007395564797611595
-0.005558832741935484,0.008415885088001009
-0.005558492741935483,0.008086749510457293
-0.005558152741935484,0.004367517484192341
-0.005557812741935484,0.003873814117874882
-0.005557472741935483,0.004959961523774369
-0.005557132741935484,0.00574988690988374
-0.005556792741935484,0.004400431041949353
-0.005556452741935483,0.004959961523774369
-0.005556112741935484,0.003939641233383098
-0.005555772741935484,0.001207815939759828
-0.005555432741935483,0.008086749510457293
-0.005555092741935484,0.007428478355366152
-0.005554752741935484,0.00696768854680319
-0.005554412741935483,0.00779052749066628
-0.005554072741935484,0.0030180616162555
-0.005553732741935484,0.001701519306073215
-0.005553392741935483,0.002129395556882458
-0.005553052741935484,0.002293963345655243
-0.005552712741935484,0.002162309114637015
-0.005552372741935483,0.002195222672391572
-0.005552032741935484,0.002886407385237271
-0.005551692741935484,0.003610505655837527
-0.005551352741935483,0.003840900560121223
-0.005551012741935484,0.00482830729275614
-0.005550672741935484,0.002919320942991828
-0.005550332741935483,0.0029522345007486
-0.005549992741935484,0.004170036137664999
-0.005549652741935484,0.004400431041946898
-0.005549312741935483,0.002261049787900925
-0.005548972741935484,0.002392704018918914
-0.005548632741935484,0.001339470170773087
-0.005548292741935483,0.0003520634381375712
-0.005547952741935484,0.001010334593227516
-0.005547612741935484,-0.001063219545309582
-0.005547272741935483,-0.002149366951205896
-0.005546932741935484,8.875497609991696e-05
-0.005546592741935484,0.0004837176691546022
-0.005546252741935483,-0.0001416399281880895
-0.005545912741935484,-0.003498822819146808
-0.005545572741935484,-0.003795044838937822
-0.005545232741935483,0.004137122579910501
-0.005544892741935484,0.004170036137664999
-0.005544552741935484,0.004861220850510698
-0.005544212741935483,0.00305097517400862
-0.005543872741935484,0.002261049787900686
-0.005543532741935484,0.005486578447847282
-0.005543192741935483,0.005453664890091109
-0.005542852741935484,0.004564998830719684
-0.005542512741935484,0.004564998830719684
-0.005542172741935484,0.004301690368683705
-0.005541832741935484,0.002524358249937143
-0.005541492741935484,2.292786059080275e-05
-0.005541152741935484,0.002623098923196085
-0.005540812741935484,0.001141988824245744
-0.005540472741935484,0.000714112573436502
-0.005540132741935484,-0.0002403806014439179
-0.005539792741935484,-0.0005036890634821109
-0.005539452741935484,-0.0005366026212366681
-0.005539112741935484,-0.001326528007344602
-0.005538772741935484,-0.002182280508964523
-0.005538432741935484,-0.001293614449591481
-0.005538092741935484,-0.0008328246410285202
-0.005537752741935483,-0.0004707755057275538
-0.005537412741935484,0.0005824583424182735
-0.005537072741935484,0.0009115939199632459
-0.005536732741935483,0.001800259979336887
-0.005536392741935484,0.003182629405028285
-0.005536052741935484,0.003610505655836749
-0.005535712741935483,0.001701519306073215
-0.005535372741935484,-0.00244558897100098
-0.005535032741935484,0.005815714025377825
-0.005534692741935483,0.006046108929674754
-0.005534352741935484,0.005552405563356397
-0.005534012741935484,0.005091615754793435
-0.005533672741935483,-0.0005036890634821109
-0.005533332741935484,-0.0009644788720459105
-0.005532992741935484,0.002030654883618786
-0.005532652741935483,-0.0009644788720459105
-0.005532312741935484,-0.001161960218573253
-0.005531972741935484,0.001141988824245744
-0.005531632741935483,0.003380110751555628
-0.005531292741935484,0.002623098923200814
-0.005530952741935484,0.003182629405028285
-0.005530612741935483,0.003083888731764614
-0.005530272741935484,0.003116802289519171
-0.005529932741935484,0.0025572718076917
-0.005529592741935483,0.0002533227648731216
-0.005529252741935484,0.0004837176691546022
-0.005528912741935484,0.001273643055263973
-0.005528572741935483,0.001767346421580773
-0.005528232741935484,0.0009115939199638446
-0.005527892741935484,0.0007799396889456162
-0.005527552741935483,0.001800259979335929
-0.005527212741935484,0.001273643055263973
-0.005526872741935484,0.001372383728527644
-0.005526532741935483,0.001668605748318598
-0.005526192741935484,0.001635692190564101
-0.005525852741935484,0.002129395556882458
-0.005525512741935483,0.0006153719001671431
-0.005525172741935484,-0.002511416086510094
-0.005524832741935484,0.00426877681092867
-0.005524492741935483,0.006144849602937767
-0.005524152741935484,0.005782800467638296
-0.005523812741935484,0.001734432863827772
-0.005523472741935483,-0.00567111763095979
-0.005523132741935484,-0.01238548341287723
-0.005522792741935484,-0.0259129556500002
-0.005522452741935483,-0.04914992742476493
-0.005522112741935484,-0.07521746516632674
-0.005521772741935484,-0.1061232958978559
-0.005521432741935483,-0.1382140147086078
-0.005521092741935484,-0.1705022148657696
-0.005520752741935484,-0.1945949391421054
-0.005520412741935484,-0.2202346006328587
-0.005520072741935484,-0.2446893740445413
-0.005519732741935484,-0.2565711683939364
-0.005519392741935484,-0.2632526206180993
-0.005519052741935484,-0.2642071137929937
-0.005518712741935484,-0.2643716815817664
-0.005518372741935484,-0.2601587461891908
-0.005518032741935484,-0.2535760346382717
-0.005517692741935484,-0.247388285780415
-0.005517352741935484,-0.2402460437476891
-0.005517012741935483,-0.2313264695961911
-0.005516672741935484,-0.2229993394842882
-0.005516332741935484,-0.2160216652403348
-0.005515992741935483,-0.2068058690690461
-0.005515652741935484,-0.1998940219405891
-0.005515312741935484,-0.1933113103896896
-0.005514972741935483,-0.1876172648981393
-0.005514632741935484,-0.1781710738225814
-0.005514292741935484,-0.1644790337967105
-0.005513952741935483,-0.1618788627340756
-0.005513612741935484,-0.1578963222457742
-0.005513272741935484,-0.1487792667477785
-0.005512932741935483,-0.1407154450978954
-0.005512592741935484,-0.1377861384577398
-0.005512252741935484,-0.1338365115271929
-0.005511912741935483,-0.1287349100752366
-0.005511572741935484,-0.1240282713163349
-0.005511232741935484,-0.1207369155408792
-0.005510892741935483,-0.1173797326499144
-0.005510552741935484,-0.1138250684124222
-0.005510212741935484,-0.1091513432112751
-0.005509872741935483,-0.1047409264721645
-0.005509532741935484,-0.100462163964072
-0.005509192741935484,-0.09694041328433445
-0.005508852741935483,-0.09440606933722388
-0.005508512741935484,-0.08910698653874985
-0.005508172741935484,-0.08601311210982149
-0.005507832741935483,-0.08400538508678823
-0.005507492741935484,-0.08110899200439248
-0.005507152741935484,-0.0783113395952551
-0.005506812741935483,-0.07432879910694795
-0.005506472741935484,-0.07116909756251621
-0.005506132741935484,-0.06820687736460609
-0.005505792741935483,-0.0658700147640217
-0.005505452741935484,-0.05991266081045769
-0.005505112741935484,-0.0567529592660202
-0.005504772741935483,-0.05494271358951579
-0.005504432741935484,-0.05286915945098247
-0.005504092741935484,-0.05003859348409056
-0.005503752741935483,-0.04895244607819011
-0.005503412741935484,-0.04891953252043561
-0.005503072741935484,-0.04865622405839916
-0.005502732741935483,-0.04806378001882006
-0.005502392741935484,-0.04967654434879043
-0.005502052741935484,-0.04480533780111598
-0.005501712741935483,-0.04513447337866364
-0.005501372741935484,-0.04628644790007105
-0.005501032741935484,-0.04115193289036014
-0.005500692741935483,-0.04006578548445078
-0.005500352741935484,-0.03512875182127619
-0.005500012741935484,-0.03266023498968441
-0.005499672741935484,-0.03624781278492461
-0.005499332741935484,-0.03331850614477554
-0.005498992741935484,-0.02801942334629185
-0.005498652741935484,-0.0286776945013818
-0.005498312741935484,-0.02897391652117401
-0.005497972741935484,-0.02433310487778146
-0.005497632741935484,-0.02318113035637405
-0.005497292741935484,-0.02426727776227234
-0.005496952741935484,-0.02248994564352626
-0.005496612741935484,-0.02104174910232838
-0.005496272741935483,-0.02110757621783486
-0.005495932741935484,-0.01926441698357966
-0.005495592741935484,-0.01965937967663363
-0.005495252741935483,-0.01946189833010701
-0.005494912741935484,-0.01768456621136092
-0.005494572741935484,-0.01669715947872601
-0.005494232741935483,-0.01735543063381535
-0.005493892741935484,-0.01567683918833294
-0.005493552741935484,-0.01475525957120701
-0.005493212741935483,-0.01478817312895989
-0.005492872741935484,-0.01459069178243255
-0.005492532741935484,-0.01429446976264208
-0.005492192741935483,-0.01554518495731471
-0.005491852741935484,-0.01722377640279712
-0.005491512741935484,-0.01686172726749765
-0.005491172741935483,-0.01972520679214346
-0.005490832741935484,-0.01258296475940457
-0.005490492741935484,-0.009785312350267215
-0.005490152741935483,-0.00790923955825746
-0.005489812741935484,-0.009291608983948858
-0.005489472741935484,-0.01284627322144103
-0.005489132741935483,-0.01008153437005823
-0.005488792741935484,-0.009258695426194301
-0.005488452741935484,-0.008534597155594046
-0.005488112741935483,-0.009719485234756724
-0.005487772741935484,-0.008962473406403288
-0.005487432741935484,-0.007810498884993789
-0.005487092741935483,-0.007514276865203912
-0.005486752741935484,-0.008139634462539359
-0.005486412741935484,-0.008073807347030245
-0.005486072741935483,-0.007349709076431367
-0.005485732741935484,-0.008106720904784802
-0.005485392741935484,-0.007415536191939104
-0.005485052741935483,-0.007152227729903126
-0.005484712741935484,-0.007415536191939104
-0.005484372741935484,-0.004584970225047193
-0.005484032741935483,-0.003663390607919953
-0.005483692741935484,-0.003860871954446936
-0.005483352741935484,-0.005736944746456691
-0.005483012741935483,-0.003729217723430144
-0.005482672741935484,-0.004519143109538078
-0.005482332741935484,-0.005901512535229476
-0.005481992741935483,-0.004486229551783102
-0.005481652741935484,-0.004255834647501621
-0.005481312741935484,-0.004914105802592763
-0.005480972741935483,-0.007218054845398051
-0.005480632741935484,0.0003191498803818167
-0.005480292741935484,-0.0003062077169547683
-0.005479952741935483,0.0009445074777167853
-0.005479612741935484,5.584141834535986e-05
-0.005479272741935484,-0.005012846475856435
-0.005478932741935484,-0.004848278687083948
-0.005478592741935484,-0.00165566358489161
-0.005478252741935484,-0.002807638106301108
-0.005477912741935484,-0.005045760033606921
-0.005477572741935484,-0.00142526868060971
-0.005477232741935484,-0.002149366951209966
-0.005476892741935484,-0.001425268680611027
-0.005476552741935484,-0.0007011704100094536
-0.005476212741935484,-0.001227787334082367
-0.005475872741935484,-0.001359441565100356
-0.005475532741935484,-0.0007669975255185678
-0.005475192741935484,-0.0006353432945003394
-0.005474852741935484,-0.0001416399281828809
-0.005474512741935483,0.008481712203511979
-0.005474172741935484,-0.00188605848917351
-0.005473832741935484,-0.003531736376898372
-0.005473492741935483,-0.001622750027137053
-0.005473152741935484,-0.001556922911627938
-0.005472812741935484,-0.002215194066717883
-0.005472472741935483,8.875497609991696e-05
-0.005472132741935484,0.001438210844036758
-0.005471792741935484,0.002721839596462151
-0.005471452741935483,0.002491444692182586
-0.005471112741935484,0.001701519306073215
-0.005470772741935484,-0.00323551435710137
-0.005470432741935483,0.002458531134428029
-0.005470092741935484,0.004235863253174112
-0.005469752741935484,0.002228136230146129
-0.005469412741935483,0.002491444692182586
-0.005469072741935484,-0.001161960218573253
-0.005468732741935484,-0.002643070317528323
-0.005468392741935483,0.0006482854579273878
-0.005468052741935484,0.0003849769958909309
-0.005467712741935484,-0.0005695161789912252
-0.005467372741935483,0.0001874956493635883
-0.005467032741935484,0.004137122579910441
-0.005466692741935484,0.003182629405028285
-0.005466352741935483,0.001701519306076448
-0.005466012741935484,0.003478851424819299
-0.005465672741935484,0.004367517484192341
-0.005465332741935483,0.004532085272964528
-0.005464992741935484,0.004202949695419555
-0.005464652741935484,0.00153695151730043
-0.005464312741935483,0.00170151930607543
-0.005463972741935484,0.002919320942991828
-0.005463632741935484,0.000714112573436502
-0.005463292741935483,-0.00135944156509862
-0.005462952741935484,-0.0002732941592002112
-0.005462612741935484,2.292786059080275e-05
-0.005462272741935483,-0.0001745534859336063
-0.005461932741935484,0.001438210844036758
-0.005461592741935484,0.0003191498803818167
-0.005461252741935483,-0.000372034832464122
-0.005460912741935484,-0.0005036890634821109
-0.005460572741935484,-0.004552056667292635
-0.005460232741935483,0.0007141125734344664
-0.005459892741935484,-0.0004049483902184396
-0.005459552741935484,0.001174902382000301
-0.005459212741935483,0.001306556613010388
-0.005458872741935484,-0.003169687241601236
-0.005458532741935484,-0.001622750027137053
-0.005458192741935483,0.0004837176691548417
-0.005457852741935484,0.0006153719001728307
-0.005457512741935484,-0.0003062077169547683
-0.005457172741935484,-4.289925491879039e-05
-0.005456832741935484,0.0005824583424182735
-0.005456492741935484,0.002985148058500942
-0.005456152741935484,0.00456499883071681
-0.005455812741935484,0.00426877681092867
-0.005455472741935484,0.005190356428056269
-0.005455132741935484,0.004762480177247804
-0.005454792741935484,0.003676332771346642
-0.005454452741935484,0.002623098923200814
-0.005454112741935484,0.001174902382002936
-0.005453772741935483,0.0002204092071181454
-0.005453432741935484,0.0006811990156819448
-0.005453092741935484,0.0008786803622089284
-0.005452752741935483,0.0008786803622092876
-0.005452412741935484,0.001405297286282201
-0.005452072741935484,0.001767346421581671
-0.005451732741935483,0.003215542962782842
-0.005451392741935484,0.002524358249937143
-0.005451052741935484,0.003709246329099043
-0.005450712741935483,0.003281370078291956
-0.005450372741935484,0.0003191498803818167
-0.005450032741935484,0.001536951517298215
-0.005449692741935483,0.006671466527011338
-0.005449352741935484,0.005322010659074497
-0.005449012741935484,0.005091615754793016
-0.005448672741935483,0.001109075266491187
-0.005448332741935484,0.002293963345655243
-0.005447992741935484,0.003281370078291956
-0.005447652741935483,0.001043248150982073
-0.005447312741935484,-0.0005695161789912252
-0.005446972741935484,-0.0009315653142913533
-0.005446632741935483,0.0003191498803818167
-0.005446292741935484,0.004367517484192341
-0.005445952741935484,8.875497609991696e-05
-0.005445612741935483,8.875497610560455e-05
-0.005445272741935484,0.003215542962782842
-0.005444932741935484,0.003413024309310185
-0.005444592741935483,0.001306556613016016
-0.005444252741935484,-7.581281267286857e-05
-0.005443912741935484,0.0006153719001728307
-0.005443572741935483,0.004795393735001045
-0.005443232741935484,0.004499171715210569
-0.005442892741935484,-0.001853144931418952
-0.005442552741935483,-0.00106321954530587
-0.005442212741935484,0.0009774210354729588
-0.005441872741935484,-0.0003391212747093254
-0.005441532741935483,-0.0006353432945006986
-0.005441192741935484,-0.000832824641027682
-0.005440852741935484,-0.0005695161789912252
-0.005440512741935483,-0.000997392429798851
-0.005440172741935484,-0.0001087263704274257
-0.005439832741935484,8.875497609991696e-05
-0.005439492741935483,0.000549544784663956
-0.005439152741935484,0.0006811990156819448
-0.005438812741935484,0.0008128532467001733
-0.005438472741935483,0.002886407385236972
-0.005438132741935484,0.002721839596464486
-0.005437792741935484,0.002886407385237271
-0.005437452741935483,0.003643419213594659
-0.005437112741935484,0.00505870219703804
-0.005436772741935484,0.004301690368683227
-0.005436432741935484,0.003709246329102276
-0.005436092741935484,0.003511764982573856
-0.005435752741935484,0.00153695151730043
-0.005435412741935484,0.001010334593228474
-0.005435072741935484,-0.0003391212747093254
-0.005434732741935484,-0.00142526868060971
-0.005434392741935484,-0.004650797340550438
-0.005434052741935484,0.002853493827482714
-0.005433712741935484,0.002820580269728157
-0.005433372741935484,0.003413024309309107
-0.005433032741935484,0.003676332771346642
-0.005432692741935484,-0.002215194066719081
-0.005432352741935484,-0.0009315653142936884
-0.005432012741935483,-0.0004049483902184396
-0.005431672741935484,-0.0001087263704274257
-0.005431332741935484,-0.002116453393451757
-0.005430992741935483,-0.0005695161789912252
-0.005430652741935484,-0.0006024297367457822
-0.005430312741935484,5.584141834416242e-05
-0.005429972741935483,0.001504037959545873
-0.005429632741935484,0.00107616170873663
-0.005429292741935484,0.000352063438137691
-0.005428952741935483,0.001504037959545873
-0.005428612741935484,0.006803120758029567
-0.005428272741935484,0.002096481999136463
-0.005427932741935483,-0.00142526868060971
-0.005427592741935484,0.0003191498803818167
-0.005427252741935484,0.001043248150982073
-0.005426912741935483,0.0005166312269091594
-0.005426572741935484,0.0002533227648727025
-0.005426232741935484,-0.0003062077169547683
-0.005425892741935483,0.0003849769958909309
-0.005425552741935484,0.0005166312269091594
-0.005425212741935484,-0.0005695161789912252
-0.005424872741935483,0.0001874956493635883
-0.005424532741935484,0.001438210844036758
-0.005424192741935484,-0.002840551664055666
-0.005423852741935483,-0.00178731781589978
-0.005423512741935484,0.003742159886855756
-0.005423172741935484,0.003149715847273728
-0.005422832741935483,0.004433344599696366
-0.005422492741935484,0.001635692190564101
-0.005422152741935484,-0.0008657381987822392
-0.005421812741935483,0.000681199015682783
-0.005421472741935484,0.001141988824245744
-0.005421132741935484,0.0005166312269091594
-0.005420792741935483,0.0008786803622094672
-0.005420452741935484,0.0009774210354729588
-0.005420112741935484,-0.0005695161789912252
-0.005419772741935483,-0.0008657381987802634
-0.005419432741935484,0.0002204092071181454
-0.005419092741935484,-0.0007011704100094536
-0.005418752741935483,-0.00208353983570187
-0.005418412741935484,-0.002643070317528323
-0.005418072741935484,0.001964827768109672
-0.005417732741935483,0.002392704018918795
-0.005417392741935484,0.0023268769034098
-0.005417052741935484,0.004071295464401327
-0.005416712741935483,0.005124529312546436
