Analysis/New Tests_CMB/wrd01_d2s01/non compliant measurements/cmb02_ch08.csv

#Digilent WaveForms Oscilloscope Acquisition
#Device Name: ADP3450
#Serial Number: SN:210018B9D9B0
#Date Time: 2024-08-06 12:37:14.607.520.360
#Sample rate: 2.94118e+06Hz
#Samples: 32768
#Trigger: Source: Channel 3 Type: Edge Condition: Rising Level: 20 mV Hyst.: Auto HoldOff: 0 s
#Channel 3: Range: 200 mV/div Offset: 0 V Attenuation: 1 X Coupling: DC Bandwidth: 0 Hz Sample Mode: Average

Time (s),Channel 3 (V)
-0.005570414285714287,0.0305667094568198
-0.005570074285714286,0.03086293147660973
-0.005569734285714286,0.03027048743702878
-0.005569394285714287,0.02944764849316486
-0.005569054285714286,0.02832858752950764
-0.005568714285714286,0.02707787233483674
-0.005568374285714286,0.02516888598507243
-0.005568034285714286,0.02362194877060699
-0.005567694285714286,0.02293076405776255
-0.005567354285714286,0.02184461665186217
-0.005567014285714286,0.022568714922462
-0.005566674285714286,0.02233832001818052
-0.005566334285714286,0.02358903521285369
-0.005565994285714286,0.02428021992570131
-0.005565654285714286,0.02533345377384522
-0.005565314285714286,0.02556384867812712
-0.005564974285714286,0.0262221198332176
-0.005564634285714286,0.02586007069791813
-0.005564294285714286,0.02500431819629965
-0.005563954285714286,0.02497140463854294
-0.005563614285714286,0.02378651655938104
-0.005563274285714286,0.02293076405776255
-0.005562934285714287,0.02184461665186414
-0.005562594285714286,0.02075846924596178
-0.005562254285714286,0.0199027167443433
-0.005561914285714287,0.01911279135823536
-0.005561574285714286,0.01868491510742468
-0.005561234285714286,0.01835577952987911
-0.005560894285714287,0.01868491510742408
-0.005560554285714286,0.01865200154967013
-0.005560214285714286,0.01917861847374304
-0.005559874285714287,0.01924444558925203
-0.005559534285714286,0.01980397607107963
-0.005559194285714286,0.02085720991922545
-0.005558854285714287,0.02082429636147095
-0.005558514285714286,0.02158130818982571
-0.005558174285714286,0.02121925905452558
-0.005557834285714287,0.02079138280371711
-0.005557494285714286,0.02003437097536152
-0.005557154285714286,0.01904696424272481
-0.005556814285714287,0.0179937303945809
-0.005556474285714286,0.01710506433520594
-0.005556134285714286,0.01730254568173328
-0.005555794285714287,0.01730254568173328
-0.005555454285714286,0.01792790327906987
-0.005555114285714286,0.01848743376089734
-0.005554774285714287,0.01954066760904125
-0.005554434285714286,0.01894822356946114
-0.005554094285714286,0.0192115320314976
-0.005553754285714287,0.01828995241437
-0.005553414285714286,0.0178291626058062
-0.005553074285714286,0.0173683727972424
-0.005552734285714287,0.01703923721969683
-0.005552394285714286,0.01687466943092404
-0.005552054285714286,0.01634805250685113
-0.005551714285714287,0.01582143558277821
-0.005551374285714286,0.01499859663891345
-0.005551034285714286,0.01453780683035049
-0.005550694285714287,0.01341874586669555
-0.005550354285714286,0.01269464759609343
-0.005550014285714286,0.01167432730570402
-0.005549674285714287,0.01223385778753149
-0.005549334285714286,0.01295795605813384
-0.005548994285714286,0.01410993057954124
-0.005548654285714287,0.01615057116032378
-0.005548314285714286,0.01786207616356339
-0.005547974285714286,0.01931027270476127
-0.005547634285714287,0.01963940828230684
-0.005547294285714286,0.01921153203149544
-0.005546954285714286,0.01802664395233354
-0.005546614285714286,0.01671010164215126
-0.005546274285714286,0.01509733731217532
-0.005545934285714286,0.01364914077097745
-0.005545594285714286,0.01289212894262263
-0.005545254285714286,0.01289212894262084
-0.005544914285714286,0.01190472220998592
-0.005544574285714286,0.01157558663244035
-0.005544234285714286,0.01206928999876206
-0.005543894285714286,0.0139124492330139
-0.005543554285714286,0.01555812712074176
-0.005543214285714286,0.01694049654643549
-0.005542874285714286,0.01822412529886088
-0.005542534285714286,0.01924444558925215
-0.005542194285714287,0.01973814895556961
-0.005541854285714286,0.01868491510742468
-0.005541514285714286,0.0173683727972424
-0.005541174285714287,0.01608474404481701
-0.005540834285714286,0.01466946106136872
-0.005540494285714286,0.01430741192606859
-0.005540154285714287,0.01358331365546965
-0.005539814285714286,0.01295795605813175
-0.005539474285714286,0.01279338826935896
-0.005539134285714287,0.012332598460796
-0.005538794285714286,0.01141101884366756
-0.005538454285714286,0.01127936461264933
-0.005538114285714287,0.01137810528591282
-0.005537774285714286,0.01174015442121313
-0.005537434285714286,0.01197054932549503
-0.005537094285714287,0.01150975951693207
-0.005536754285714286,0.01147684595917668
-0.005536414285714286,0.01210220355651326
-0.005536074285714287,0.01328709163567516
-0.005535734285714286,0.01476820173463239
-0.005535394285714286,0.01513025086993251
-0.005535054285714287,0.01503151019666902
-0.005534714285714286,0.01434032548382314
-0.005534374285714286,0.01351748653995922
-0.005534034285714287,0.01289212894262377
-0.005533694285714286,0.01101605615061288
-0.005533354285714286,0.01039069855327629
-0.005533014285714287,0.009896995186957936
-0.005532674285714286,0.009699513840430593
-0.005532334285714286,0.009403291820639578
-0.005531994285714287,0.01012739009123984
-0.005531654285714286,0.01108188326612199
-0.005531314285714286,0.01200346288324959
-0.005530974285714287,0.01272756115384985
-0.005530634285714286,0.0134516594244501
-0.005530294285714286,0.01397827634852302
-0.005529954285714287,0.01420867125280492
-0.005529614285714286,0.01450489327259509
-0.005529274285714286,0.01404410346403213
-0.005528934285714287,0.01374788144424112
-0.005528594285714286,0.01253007980732208
-0.005528254285714286,0.0122996849030406
-0.005527914285714287,0.01210220355651326
-0.005527574285714286,0.01197054932549491
-0.005527234285714286,0.01190472220998592
-0.005526894285714287,0.01170724086345858
-0.005526554285714286,0.01183889509447818
-0.005526214285714286,0.01259590692283162
-0.005525874285714286,0.0120692899987587
-0.005525534285714286,0.01220094422977855
-0.005525194285714286,0.01308961028914997
-0.005524854285714286,0.01430741192606859
-0.005524514285714286,0.01536064577421585
-0.005524174285714286,0.01615057116032378
-0.005523834285714286,0.01717089145071506
-0.005523494285714286,0.01779624904805194
-0.005523154285714286,0.01796081683682443
-0.005522814285714286,0.01835577952987911
-0.005522474285714286,0.01842160664538601
-0.005522134285714286,0.01720380500846961
-0.005521794285714286,0.01615057116032378
-0.005521454285714286,0.01568978135175825
-0.005521114285714286,0.01473528817687783
-0.005520774285714286,0.01427449836831403
-0.005520434285714287,0.01368205432873308
-0.005520094285714286,0.01282630182711352
-0.005519754285714286,0.01282630182711352
-0.005519414285714287,0.01233259846079606
-0.005519074285714286,0.01197054932549503
-0.005518734285714286,0.01147684595917668
-0.005518394285714287,0.01095022903510472
-0.005518054285714286,0.01114771038163111
-0.005517714285714286,0.01065400701531275
-0.005517374285714287,0.01065400701531275
-0.005517034285714286,0.01065400701531275
-0.005516694285714286,0.01058817989980363
-0.005516354285714287,0.0109502290351031
-0.005516014285714286,0.01154267307468579
-0.005515674285714286,0.01190472220998592
-0.005515334285714287,0.0120692899987584
-0.005514994285714286,0.01335291875118643
-0.005514654285714286,0.01404410346403213
-0.005514314285714287,0.0143732390415771
-0.005513974285714286,0.01457072038810504
-0.005513634285714286,0.01453780683035049
-0.005513294285714287,0.01466946106136848
-0.005512954285714286,0.01466946106136872
-0.005512614285714286,0.01430741192606859
-0.005512274285714287,0.01394536279076846
-0.005511934285714286,0.0139124492330139
-0.005511594285714286,0.0139124492330139
-0.005511254285714287,0.01361622721322289
-0.005510914285714286,0.01381370855975023
-0.005510574285714286,0.01447197971484137
-0.005510234285714287,0.01447197971484137
-0.005509894285714286,0.01417575769505036
-0.005509554285714286,0.01374788144424112
-0.005509214285714287,0.01361622721322289
-0.005508874285714286,0.01358331365546791
-0.005508534285714286,0.01335291875118643
-0.005508194285714287,0.013682054328732
-0.005507854285714286,0.01440615259933196
-0.005507514285714286,0.01424158481055947
-0.005507174285714287,0.01397827634852302
-0.005506834285714286,0.0133200051934305
-0.005506494285714286,0.01256299336507706
-0.005506154285714287,0.01170724086345858
-0.005505814285714286,0.01085148836183913
-0.005505474285714286,0.01032487143776718
-0.005505134285714287,0.01071983413082186
-0.005504794285714286,0.01091731547735004
-0.005504454285714286,0.011378105285913
-0.005504114285714286,0.01203637644100415
-0.005503774285714286,0.01302378317364284
-0.005503434285714286,0.01410993057954124
-0.005503094285714286,0.01440615259933226
-0.005502754285714286,0.01443906615708736
-0.005502414285714286,0.01473528817687783
-0.005502074285714286,0.01453780683035049
-0.005501734285714286,0.01460363394585948
-0.005501394285714286,0.01453780683035049
-0.005501054285714286,0.01476820173463239
-0.005500714285714286,0.01473528817687699
-0.005500374285714286,0.01427449836831403
-0.005500034285714286,0.01364914077097745
-0.005499694285714287,0.01272756115385152
-0.005499354285714286,0.01174015442121313
-0.005499014285714286,0.01124645105489478
-0.005498674285714287,0.01071983413082282
-0.005498334285714286,0.009995735860221606
-0.005497994285714286,0.00983116807144882
-0.005497654285714287,0.009765340955939826
-0.005497314285714286,0.009995735860221606
-0.005496974285714286,0.01071983413082186
-0.005496634285714287,0.01167432730570228
-0.005496294285714286,0.01226677134528605
-0.005495954285714286,0.01289212894262263
-0.005495614285714287,0.01424158481055702
-0.005495274285714286,0.01578852202502366
-0.005494934285714286,0.01680884231541493
-0.005494594285714287,0.01736837279724138
-0.005494254285714286,0.01740128635499695
-0.005493914285714286,0.01763168125927886
-0.005493574285714287,0.0171708914507159
-0.005493234285714286,0.01641387962236024
-0.005492894285714286,0.01572269490951454
-0.005492554285714287,0.01545938644747856
-0.005492214285714286,0.01489985596565062
-0.005491874285714286,0.01466946106136872
-0.005491534285714287,0.01476820173463221
-0.005491194285714286,0.0143732390415777
-0.005490854285714286,0.01434032548382314
-0.005490514285714287,0.01417575769505036
-0.005490174285714286,0.01404410346403213
-0.005489834285714286,0.0134516594244501
-0.005489494285714287,0.01233259846079516
-0.005489154285714286,0.01167432730570402
-0.005488814285714286,0.01157558663244035
-0.005488474285714287,0.01220094422977693
-0.005488134285714286,0.01200346288325067
-0.005487794285714286,0.01259590692283162
-0.005487454285714287,0.01378079500199567
-0.005487114285714286,0.01427449836831529
-0.005486774285714286,0.01496568308115973
-0.005486434285714287,0.0150644237544234
-0.005486094285714286,0.01506442375442334
-0.005485754285714286,0.01503151019666884
-0.005485414285714287,0.01526190510095074
-0.005485074285714286,0.01526190510094979
-0.005484734285714286,0.01473528817687783
-0.005484394285714287,0.01457072038810504
-0.005484054285714286,0.0145707203881051
-0.005483714285714286,0.0146036339458596
-0.005483374285714286,0.01417575769505036
-0.005483034285714286,0.01391244923301205
-0.005482694285714286,0.01289212894262263
-0.005482354285714286,0.01167432730570402
-0.005482014285714286,0.01157558663243969
-0.005481674285714286,0.01121353749714022
-0.005481334285714286,0.01104896970836743
-0.005480994285714286,0.01078566124633176
-0.005480654285714286,0.01121353749714022
-0.005480314285714286,0.01174015442121313
-0.005479974285714286,0.01223385778753209
-0.005479634285714286,0.01256299336507706
-0.005479294285714286,0.01305669673139542
-0.005478954285714287,0.01341874586669489
-0.005478614285714286,0.01226677134528605
-0.005478274285714286,0.007724700375157166
-0.005477934285714287,-0.002412675413227983
-0.005477594285714286,-0.01979103390765257
-0.005477254285714286,-0.04510155982090699
-0.005476914285714287,-0.07620487189890689
-0.005476574285714286,-0.1090196889802569
-0.005476234285714286,-0.1418345060615503
-0.005475894285714287,-0.1718516707336518
-0.005475554285714286,-0.1958785678945331
-0.005475214285714286,-0.2137835433130122
-0.005474874285714287,-0.2256324241046312
-0.005474534285714286,-0.2320176543090368
-0.005474194285714286,-0.2346178253716468
-0.005473854285714287,-0.2338937271010479
-0.005473514285714286,-0.2305365442100817
-0.005473174285714286,-0.2253691156426163
-0.005472834285714287,-0.2192142803425253
-0.005472494285714286,-0.2124340874450753
-0.005472154285714286,-0.2054234996433547
-0.005471814285714287,-0.1982812576106288
-0.005471474285714286,-0.191501064713177
-0.005471134285714286,-0.1847208718157382
-0.005470794285714287,-0.1781381602648388
-0.005470454285714286,-0.1712921402518789
-0.005470114285714286,-0.1645777744699493
-0.005469774285714287,-0.1585545934008653
-0.005469434285714286,-0.152037708965463
-0.005469094285714286,-0.1458499601076063
-0.005468754285714287,-0.1401888281738225
-0.005468414285714286,-0.1330794996988381
-0.005468074285714286,-0.1276816762270908
-0.005467734285714287,-0.1227446425639072
-0.005467394285714286,-0.1185646207290784
-0.005467054285714286,-0.1143516853364951
-0.005466714285714287,-0.1103033177326846
-0.005466374285714286,-0.1060574687823401
-0.005466034285714286,-0.1024040638715909
-0.005465694285714287,-0.09855317761430774
-0.005465354285714286,-0.0948997727035452
-0.005465014285714286,-0.09121345423504149
-0.005464674285714287,-0.08739548153551288
-0.005464334285714286,-0.08282049700762202
-0.005463994285714286,-0.07873921584606436
-0.005463654285714287,-0.07567825497489056
-0.005463314285714286,-0.07284768900799479
-0.005462974285714286,-0.07074122131170699
-0.005462634285714286,-0.06830561803786975
-0.005462294285714286,-0.06646245880361133
-0.005461954285714286,-0.06468512668486848
-0.005461614285714286,-0.06231535052654036
-0.005461274285714286,-0.05987974725269858
-0.005460934285714286,-0.05737831686335679
-0.005460594285714286,-0.05458066445421944
-0.005460254285714286,-0.05237545608465807
-0.005459914285714286,-0.04905118675145385
-0.005459574285714286,-0.04714220040168953
-0.005459234285714286,-0.0446407700123387
-0.005458894285714286,-0.04217225318075141
-0.005458554285714286,-0.04009869904221431
-0.005458214285714286,-0.0384530211544822
-0.005457874285714286,-0.0361161585539129
-0.005457534285714286,-0.03351598749130289
-0.005457194285714287,-0.03084998931318862
-0.005456854285714286,-0.02877643517464666
-0.005456514285714286,-0.0268345352671278
-0.005456174285714287,-0.02499137603287595
-0.005455834285714286,-0.0243001913200269
-0.005455494285714286,-0.02304947612535373
-0.005455154285714287,-0.02189750160394633
-0.005454814285714286,-0.0206138728515165
-0.005454474285714286,-0.01952772544561612
-0.005454134285714287,-0.01880362717501718
-0.005453794285714286,-0.01811244246217016
-0.005453454285714286,-0.01761873909585181
-0.005453114285714287,-0.01732251707606133
-0.005452774285714286,-0.01715794928728801
-0.005452434285714286,-0.01692755438300611
-0.005452094285714287,-0.01590723409261669
-0.005451754285714286,-0.01482108668671445
-0.005451414285714286,-0.01301084101021381
-0.005451074285714287,-0.0119576071620699
-0.005450734285714286,-0.01067397840964026
-0.005450394285714286,-0.009982793696794558
-0.005450054285714287,-0.008337115809069696
-0.005449714285714286,-0.007382622634184546
-0.005449374285714286,-0.006296475228284162
-0.005449034285714287,-0.006098993881757178
-0.005448694285714286,-0.006098993881756819
-0.005448354285714286,-0.00586859897747492
-0.005448014285714287,-0.005572376957683906
-0.005447674285714286,-0.004683710898310864
-0.005447334285714286,-0.004255834647501621
-0.005446994285714287,-0.003729217723428708
-0.005446654285714286,-0.002577243202019209
-0.005446314285714286,-0.00188605848917351
-0.005445974285714287,-0.001161960218573253
-0.005445634285714286,-0.0003391212747081281
-0.005445294285714286,0.0003191498803818167
-0.005444954285714287,0.0004837176691546022
-0.005444614285714286,0.0006153719001725313
-0.005444274285714286,0.0004508041114000451
-0.005443934285714287,0.0004508041114000451
-0.005443594285714286,0.001109075266491607
-0.005443254285714286,0.001339470170773087
-0.005442914285714287,0.00130655661301853
-0.005442574285714286,0.00153695151730025
-0.005442234285714286,0.001438210844036758
-0.005441894285714287,0.002228136230146129
-0.005441554285714286,0.002261049787901345
-0.005441214285714286,0.002623098923200814
-0.005440874285714286,0.003248456520537399
-0.005440534285714286,0.003511764982573677
-0.005440194285714286,0.003413024309310185
-0.005439854285714286,0.003610505655837527
-0.005439514285714286,0.003544678540329192
-0.005439174285714286,0.003972554791137656
-0.005438834285714286,0.004137122579910441
-0.005438494285714286,0.00446625815745745
-0.005438154285714286,0.005256183543565383
-0.005437814285714286,0.005585319121110954
-0.005437474285714286,0.006473985180485553
-0.005437134285714286,0.007329737682102481
-0.005436794285714286,0.007362651239857037
-0.005436454285714287,0.008350057972491956
-0.005436114285714286,0.008317144414739193
-0.005435774285714286,0.008053835952702737
-0.005435434285714287,0.007724700375157764
-0.005435094285714286,0.007132256335575138
-0.005434754285714286,0.007198083451084253
-0.005434414285714287,0.007362651239856738
-0.005434074285714286,0.00756013258638438
-0.005433734285714286,0.007658873259648051
-0.005433394285714287,0.00815257662596551
-0.005433054285714286,0.008975415569830336
-0.005432714285714286,0.009238724031866792
-0.005432374285714287,0.009600773167166262
-0.005432034285714286,0.00983116807144882
-0.005431694285714286,0.009962822302467049
-0.005431354285714287,0.01032487143776652
-0.005431014285714286,0.009798254513694264
-0.005430674285714286,0.009666600282676035
-0.005430334285714287,0.009436205378394555
-0.005429994285714286,0.009370378262885021
-0.005429654285714286,0.008679193550039321
-0.005429314285714287,0.008284230856985354
-0.005428974285714286,0.007823441048420837
-0.005428634285714286,0.007198083451084253
-0.005428294285714287,0.006704380084766794
-0.005427954285714286,0.006967688546802352
-0.005427614285714286,0.007625959701893495
-0.005427274285714287,0.008185490183720966
-0.005426934285714286,0.009008329127584893
-0.005426594285714286,0.009633686724921478
-0.005426254285714287,0.01078566124633098
-0.005425914285714286,0.01157558663244035
-0.005425574285714286,0.01210220355651326
-0.005425234285714287,0.0129908696158863
-0.005424894285714286,0.01355040009771377
-0.005424554285714286,0.01341874586669555
-0.005424214285714287,0.01289212894262263
-0.005423874285714286,0.01170724086345636
-0.005423534285714286,0.01048943922653996
-0.005423194285714287,0.009304551147375908
-0.005422854285714286,0.007889268163929352
-0.005422514285714286,0.00756013258638438
-0.005422174285714287,0.007757613932911723
-0.005421834285714286,0.008580452876777268
-0.005421494285714286,0.009469118936148692
-0.005421154285714287,0.01048943922653996
-0.005420814285714286,0.0110160561506127
-0.005420474285714286,0.01091731547734921
-0.005420134285714286,0.01075274768857642
-0.005419794285714286,0.01032487143776664
-0.005419454285714286,0.01002864941797616
-0.005419114285714286,0.01009447653348528
-0.005418774285714286,0.01104896970836791
-0.005418434285714286,0.01131227817040389
-0.005418094285714286,0.01177306797896769
-0.005417754285714286,0.01200346288325007
-0.005417414285714286,0.01226677134528605
-0.005417074285714286,0.0127604747116044
-0.005416734285714286,0.01259590692283198
-0.005416394285714286,0.01279338826935896
-0.005416054285714286,0.01226677134528605
-0.005415714285714286,0.01071983413082061
-0.005415374285714286,0.01002864941797616
-0.005415034285714286,0.009534946051657807
-0.005414694285714287,0.009403291820639818
-0.005414354285714286,0.00973242739818515
-0.005414014285714286,0.01078566124633098
-0.005413674285714287,0.01147684595917542
-0.005413334285714286,0.01193763576774048
