Analysis/New Tests_CMB/wrd01_d2s01/non compliant measurements/cmb01_ch26.csv

#Digilent WaveForms Oscilloscope Acquisition
#Device Name: ADP3450
#Serial Number: SN:210018B9D9B0
#Date Time: 2024-08-06 15:13:33.881.932.900
#Sample rate: 2.94118e+06Hz
#Samples: 32768
#Trigger: Source: Channel 3 Type: Edge Condition: Rising Level: 80 mV Hyst.: Auto HoldOff: 0 s
#Channel 3: Range: 200 mV/div Offset: 0 V Attenuation: 1 X Coupling: DC Bandwidth: 0 Hz Sample Mode: Average

Time (s),Channel 3 (V)
-0.00557024848952591,0.004104209022155884
-0.00556990848952591,0.005256183543559396
-0.00556956848952591,0.001964827768109672
-0.00556922848952591,0.001701519306073215
-0.00556888848952591,0.003116802289517794
-0.00556854848952591,0.002359790461164357
-0.00556820848952591,0.001964827768109672
-0.00556786848952591,0.002096481999121614
-0.00556752848952591,-0.001359441565100596
-0.00556718848952591,-0.007086400614393532
-0.00556684848952591,0.0003520634381326619
-0.00556650848952591,-0.001688577142646167
-0.00556616848952591,-0.003498822819146808
-0.005565828489525909,-0.002511416086515183
-0.00556548848952591,-0.005309068495647449
-0.00556514848952591,-0.004782451571574535
-0.005564808489525909,-0.001227787334081529
-0.00556446848952591,-0.0007669975255185678
-0.00556412848952591,-0.001359441565100596
-0.005563788489525909,0.0005166312269091594
-0.00556344848952591,0.0005166312269091594
-0.00556310848952591,-0.0003391212747093254
-0.00556276848952591,0.0003520634381351165
-0.00556242848952591,0.0007799396889456162
-0.00556208848952591,-0.00188605848917351
-0.00556174848952591,-0.003564649934652869
-0.00556140848952591,-0.004288748205256179
-0.00556106848952591,-0.005012846475856435
-0.00556072848952591,-0.007020573498880767
-0.00556038848952591,-0.006098993881756819
-0.00556004848952591,-0.007711758211730118
-0.00555970848952591,-0.008073807347029586
-0.00555936848952591,-0.00688891926786619
-0.00555902848952591,-0.007250968403166318
-0.00555868848952591,-0.007810498884992772
-0.00555834848952591,-0.01054232417862203
-0.00555800848952591,-0.007481363307448217
-0.00555766848952591,-0.01031192927433498
-0.00555732848952591,-0.009686571677003543
-0.00555698848952591,-0.01182595293104976
-0.00555664848952591,-0.0160388883236254
-0.00555630848952591,-0.006724351479093405
-0.00555596848952591,-0.007415536191939104
-0.00555562848952591,-0.006526870132567679
-0.00555528848952591,-0.006921832825620747
-0.00555494848952591,-0.004749538013819977
-0.00555460848952591,-0.005012846475855956
-0.00555426848952591,-0.007152227729902647
-0.00555392848952591,-0.006724351479093405
-0.00555358848952591,-0.00767884465397556
-0.00555324848952591,-0.006395215901547833
-0.00555290848952591,-0.005045760033610991
-0.00555256848952591,-0.005045760033610991
-0.00555222848952591,-0.005769858304211248
-0.00555188848952591,-0.004914105802592763
-0.00555154848952591,-0.006098993881756819
-0.00555120848952591,-0.008370029366819584
-0.00555086848952591,-0.007448449749693661
-0.00555052848952591,-0.008337115809066702
-0.00555018848952591,-0.01050941062086568
-0.00554984848952591,-0.009522003888230759
-0.00554950848952591,-0.009028300521912402
-0.00554916848952591,-0.009061214079666959
-0.00554882848952591,-0.009061214079666959
-0.00554848848952591,-0.009192868310685188
-0.00554814848952591,-0.01176012581553813
-0.00554780848952591,-0.01037775638984924
-0.00554746848952591,-0.01024610215883101
-0.00554712848952591,-0.01133224956473218
-0.00554678848952591,-0.01176012581554064
-0.00554644848952591,-0.01554518495731471
-0.00554610848952591,-0.01202343427756902
-0.00554576848952591,-0.007580103980711889
-0.00554542848952591,-0.007316795518675433
-0.005545088489525909,-0.00715222772991031
-0.00554474848952591,-0.01136516312248596
-0.00554440848952591,-0.0106410648518857
-0.005544068489525909,-0.008040893789277186
-0.00554372848952591,-0.008863732733139616
-0.00554338848952591,-0.009028300521912402
-0.005543048489525909,-0.008600424271099447
-0.00554270848952591,-0.006559783690320619
-0.00554236848952591,-0.006592697248075176
-0.00554202848952591,-0.008205461578045541
-0.00554168848952591,-0.008995386964157845
-0.00554134848952591,-0.008567510713348603
-0.00554100848952591,-0.008501683597839607
-0.00554066848952591,-0.01149681735350419
-0.00554032848952591,-0.01070689196739481
-0.00553998848952591,-0.009324522541705932
-0.00553964848952591,-0.009028300521912402
-0.00553930848952591,-0.009489090330476201
-0.00553896848952591,-0.01097020042942858
-0.00553862848952591,-0.01159555802676786
-0.00553828848952591,-0.01189178004655887
-0.00553794848952591,-0.01261587831715781
-0.00553760848952591,-0.01482108668671445
-0.00553726848952591,-0.01511730870650547
-0.00553692848952591,-0.01271461899042717
-0.00553658848952591,-0.01320832235674115
-0.00553624848952591,-0.01472234601345078
-0.00553590848952591,-0.01857323227072696
-0.00553556848952591,-0.01238548341287723
-0.00553522848952591,-0.01172721225778608
-0.00553488848952591,-0.009587831003743764
-0.00553454848952591,-0.01001570725454911
-0.00553420848952591,-0.01495274091773268
-0.00553386848952591,-0.01268170543267237
-0.00553352848952591,-0.00939034965721253
-0.00553318848952591,-0.01044358350535836
-0.00553284848952591,-0.009159954752930631
-0.00553250848952591,-0.008304202251312145
-0.00553216848952591,-0.008205461578048474
-0.00553182848952591,-0.008205461578048474
-0.00553148848952591,-0.00939034965721253
-0.00553114848952591,-0.009587831003739873
-0.00553080848952591,-0.009884053023530886
-0.00553046848952591,-0.009159954752930631
-0.00553012848952591,-0.01100311398718583
-0.00552978848952591,-0.01057523773637659
-0.00552944848952591,-0.009752398792512959
-0.00552910848952591,-0.009916966581285444
-0.00552876848952591,-0.01057523773637659
-0.00552842848952591,-0.01143099023799603
-0.00552808848952591,-0.01195760716206798
-0.00552774848952591,-0.01320832235674115
-0.00552740848952591,-0.01202343427757913
-0.00552706848952591,-0.01314249524123204
-0.00552672848952591,-0.01383367995407774
-0.00552638848952591,-0.01281335966368611
-0.00552604848952591,-0.01261587831715913
-0.00552570848952591,-0.01251713764389546
-0.00552536848952591,-0.01570975274607474
-0.00552502848952591,-0.00869916494436683
-0.00552468848952591,-0.008139634462539359
-0.005524348489525909,-0.006724351479096937
-0.00552400848952591,-0.008666251386612273
-0.00552366848952591,-0.01857323227073396
-0.005523328489525909,-0.02581421497675838
-0.00552298848952591,-0.03782766355714987
-0.00552264848952591,-0.0606696726388125
-0.005522308489525909,-0.0878891849018838
-0.00552196848952591,-0.1167872886103324
-0.00552162848952591,-0.1494046243450985
-0.005521288489525909,-0.1820548736376661
-0.00552094848952591,-0.2078591029171919
-0.00552060848952591,-0.2328734068106553
-0.00552026848952591,-0.2512720855954192
-0.00551992848952591,-0.2643058544662573
-0.00551958848952591,-0.272435503231633
-0.00551924848952591,-0.2758255996803461
-0.00551890848952591,-0.2744103166969064
-0.00551856848952591,-0.2712506151524689
-0.00551822848952591,-0.2655236561031864
-0.00551788848952591,-0.256604081951691
-0.00551754848952591,-0.2491985314569156
-0.00551720848952591,-0.2417271538466448
-0.00551686848952591,-0.2323467898865824
-0.00551652848952591,-0.2240196597746794
-0.00551618848952591,-0.2166799363954265
-0.00551584848952591,-0.2081224113792284
-0.00551550848952591,-0.2008814286732258
-0.00551516848952591,-0.1992686643432554
-0.00551482848952591,-0.1904478308650312
-0.00551448848952591,-0.1788293449776725
-0.00551414848952591,-0.173694829967971
-0.00551380848952591,-0.1659272303378861
-0.00551346848952591,-0.1633928863907853
-0.00551312848952591,-0.1606939746549165
-0.00551278848952591,-0.1548682749323549
-0.00551244848952591,-0.1479235142461434
-0.00551210848952591,-0.1444346771241604
-0.00551176848952591,-0.1387735451903765
-0.00551142848952591,-0.1320591794084469
-0.00551108848952591,-0.1282741202666728
-0.00551074848952591,-0.1236333086232803
-0.00551040848952591,-0.1170505970723688
-0.00551006848952591,-0.1138908955279314
-0.00550972848952591,-0.1117515142738851
-0.00550938848952591,-0.09759868443942557
-0.00550904848952591,-0.1037206061817732
-0.00550870848952591,-0.0999026334822372
-0.00550836848952591,-0.09585426587843404
-0.00550802848952591,-0.09108180000402327
-0.00550768848952591,-0.0896006899050624
-0.00550734848952591,-0.08640807480287616
-0.00550700848952591,-0.08476239691514831
-0.00550666848952591,-0.08308380546966057
-0.00550632848952591,-0.08015449882951031
-0.00550598848952591,-0.07788346334444587
-0.00550564848952591,-0.07699479728506894
-0.00550530848952591,-0.07485541603102661
-0.00550496848952591,-0.07192610939087105
-0.00550462848952591,-0.07498707026203755
-0.00550428848952591,-0.07097161621598888
-0.00550394848952591,-0.06011014215698503
-0.00550360848952591,-0.06231535052654216
-0.00550326848952591,-0.06330275725917708
-0.00550292848952591,-0.05757579820988414
-0.005502588489525909,-0.05593012032215502
-0.00550224848952591,-0.05523893560931058
-0.00550190848952591,-0.05026898838837246
-0.005501568489525909,-0.05033481550388211
-0.00550122848952591,-0.05063103752367259
-0.00550088848952591,-0.04911701386696296
-0.005500548489525909,-0.04599022588028153
-0.00550020848952591,-0.04681306482414396
-0.00549986848952591,-0.04523321405192522
-0.00549952848952591,-0.04460785645458977
-0.00549918848952591,-0.04362044972195192
-0.00549884848952591,-0.03970373634915963
-0.00549850848952591,-0.03914420586733317
-0.00549816848952591,-0.04029618038874165
-0.00549782848952591,-0.03660986192023126
-0.00549748848952591,-0.0337134688378355
-0.00549714848952591,-0.03246275364315706
-0.00549680848952591,-0.03170574181480225
-0.00549646848952591,-0.0311132977752213
-0.00549612848952591,-0.03117912489072934
-0.00549578848952591,-0.03006006392707439
-0.00549544848952591,-0.02900683007893048
-0.00549510848952591,-0.03038919950461997
-0.00549476848952591,-0.0289080894056649
-0.00549442848952591,-0.02979675546503632
-0.00549408848952591,-0.02548507939919096
-0.00549374848952591,-0.02640665901631855
-0.00549340848952591,-0.02532051161042015
-0.00549306848952591,-0.02354317949167209
-0.00549272848952591,-0.02564964718796374
-0.00549238848952591,-0.02406979641574787
-0.00549204848952591,-0.02189750160394423
-0.00549170848952591,-0.02334569814514474
-0.00549136848952591,-0.02176584737292888
-0.00549102848952591,-0.02143671179538043
-0.00549068848952591,-0.02387231506921766
-0.00549034848952591,-0.02334569814514474
-0.00549000848952591,-0.02216081006598069
-0.00548966848952591,-0.0219962422772079
-0.00548932848952591,-0.02114048977558942
-0.00548898848952591,-0.01995560169642536
-0.00548864848952591,-0.02005434236968903
-0.00548830848952591,-0.01834283736645206
-0.00548796848952591,-0.01626928322791754
-0.00548762848952591,-0.01768456621136092
-0.00548728848952591,-0.01768456621136092
-0.00548694848952591,-0.01649967813219788
-0.00548660848952591,-0.01705920861402434
-0.00548626848952591,-0.01837575092420662
-0.00548592848952591,-0.01738834419157015
-0.00548558848952591,-0.01751999842258814
-0.00548524848952591,-0.01692755438300611
-0.00548490848952591,-0.01462360534019016
-0.00548456848952591,-0.01630219678566952
-0.00548422848952591,-0.01929733054133422
-0.00548388848952591,-0.01913276275254886
-0.00548354848952591,-0.01222091562410444
-0.00548320848952591,-0.01350454437653217
-0.00548286848952591,-0.01182595293105496
-0.00548252848952591,-0.01468943245569622
-0.00548218848952591,-0.01804661534666105
-0.005481848489525909,-0.01363619860755082
-0.00548150848952591,-0.0138665935118323
-0.00548116848952591,-0.01613762899689674
-0.005480828489525909,-0.01495274091772957
-0.00548048848952591,-0.01324123591449571
-0.00548014848952591,-0.01380076639632318
-0.005479808489525909,-0.01310958168347383
-0.00547946848952591,-0.0111018546604495
-0.00547912848952591,-0.01205634783533165
-0.00547878848952591,-0.0114639037957507
-0.00547844848952591,-0.0108714597561676
-0.00547810848952591,-0.01149681735350419
-0.00547776848952591,-0.01070689196739625
-0.00547742848952591,-0.0104106699476038
-0.00547708848952591,-0.01106894110269494
-0.00547674848952591,-0.0115626444690124
-0.00547640848952591,-0.01073980552514937
-0.00547606848952591,-0.01067397840964026
-0.00547572848952591,-0.01241839697062861
-0.00547538848952591,-0.01136516312248596
-0.00547504848952591,-0.01185886648880431
-0.00547470848952591,-0.01215508850859479
-0.00547436848952591,-0.01044358350535836
-0.00547402848952591,-0.01004862081230367
-0.00547368848952591,-0.01508439514874175
-0.00547334848952591,-0.01231965629736811
-0.00547300848952591,-0.006493956574811504
-0.00547266848952591,-0.009884053023524719
-0.00547232848952591,-0.009061214079666959
-0.00547198848952591,-0.01199052071982254
-0.00547164848952591,-0.01590723409260771
-0.00547130848952591,-0.01278044610593191
-0.00547096848952591,-0.01228674273961356
-0.00547062848952591,-0.01436029687814688
-0.00547028848952591,-0.0129450138947047
-0.00546994848952591,-0.01057523773637659
-0.00546960848952591,-0.01090437331392216
-0.00546926848952591,-0.01073980552514937
-0.00546892848952591,-0.00688891926786619
-0.00546858848952591,-0.007349709076429989
-0.00546824848952591,-0.008238375135803031
-0.00546790848952591,-0.007580103980711889
-0.00546756848952591,-0.01021318860107646
-0.00546722848952591,-0.009258695426194301
-0.00546688848952591,-0.007810498884993789
-0.00546654848952591,-0.007218054845411761
-0.00546620848952591,-0.007942153116008604
-0.00546586848952591,-0.006066080324002262
-0.00546552848952591,-0.005572376957683906
-0.00546518848952591,-0.007349709076429511
-0.00546484848952591,-0.007086400614393532
-0.00546450848952591,-0.007448449749693661
-0.00546416848952591,0.001438210844018857
-0.00546382848952591,-0.008402942924575817
-0.00546348848952591,-0.01149681735350419
-0.00546314848952591,-0.01709212217176644
-0.00546280848952591,-0.01024610215883101
-0.00546246848952591,-0.01123350889146773
-0.00546212848952591,-0.0132083223567402
-0.00546178848952591,-0.01268170543266824
-0.00546144848952591,-0.01702629505626978
-0.005461108489525909,-0.0171579492872831
-0.00546076848952591,-0.01445903755141432
-0.00546042848952591,-0.0140969884161142
-0.005460088489525909,-0.01561101207282424
-0.00545974848952591,-0.01584140697710572
-0.00545940848952591,-0.01373493928081407
-0.005459068489525909,-0.01324123591449787
-0.00545872848952591,-0.01442612399365977
-0.00545838848952591,-0.01314249524123204
-0.005458048489525909,-0.01225382918185966
-0.00545770848952591,-0.01261587831715913
-0.00545736848952591,-0.01314249524123204
-0.00545702848952591,-0.01189178004656114
-0.00545668848952591,-0.008995386964157845
-0.00545634848952591,-0.008995386964157845
-0.00545600848952591,-0.009554917445984298
-0.00545566848952591,-0.01116768177595861
-0.00545532848952591,-0.009127041195176074
-0.00545498848952591,-0.006526870132570792
-0.00545464848952591,-0.008468770040084931
-0.00545430848952591,-0.008764992059875945
-0.00545396848952591,-0.007777585327241028
-0.00545362848952591,-0.007349709076429989
-0.00545328848952591,-0.008402942924575817
-0.00545294848952591,-0.01116768177595358
-0.00545260848952591,-0.01518313582201458
-0.00545226848952591,-0.007349709076429989
-0.00545192848952591,-0.005967339650741105
-0.00545158848952591,-0.007975066673766575
-0.00545124848952591,-0.01080563264065849
-0.00545090848952591,-0.01327414947224578
-0.00545056848952591,-0.01126642244922228
-0.00545022848952591,-0.0115626444690133
-0.00544988848952591,-0.01291210033694769
-0.00544954848952591,-0.01337289014551394
-0.00544920848952591,-0.01129933600697684
-0.00544886848952591,-0.008633337828862567
-0.00544852848952591,-0.009192868310685188
-0.00544818848952591,-0.009686571677003543
-0.00544784848952591,-0.006428129459302391
-0.00544750848952591,-0.006362302343793276
-0.00544716848952591,-0.008468770040084931
-0.00544682848952591,-0.008995386964157845
-0.00544648848952591,-0.009554917445985316
-0.00544614848952591,-0.01047649706311291
-0.00544580848952591,-0.01241839697063178
-0.00544546848952591,-0.01205634783533423
-0.00544512848952591,-0.01347163081877761
-0.00544478848952591,-0.01324123591449571
-0.00544444848952591,-0.01146390379575196
-0.00544410848952591,-0.01274753254817735
-0.00544376848952591,-0.009916966581285444
-0.00544342848952591,-0.01106894110269303
-0.00544308848952591,-0.01001570725454911
-0.00544274848952591,-0.01021318860107646
-0.00544240848952591,-0.01189178004655809
-0.00544206848952591,-0.01146390379574963
-0.00544172848952591,-0.005144500706874663
-0.00544138848952591,-0.002840551664055845
-0.00544104848952591,-0.002939292337319337
-0.00544070848952591,-0.007250968403166318
-0.00544036848952591,-0.009916966581282032
-0.00544002848952591,-0.008040893789275689
-0.00543968848952591,-0.009127041195176074
-0.005439348489525909,-0.0121880020663503
-0.00543900848952591,-0.01241839697063178
-0.00543866848952591,-0.01245131052838634
-0.005438328489525909,-0.01215508850859706
-0.00543798848952591,-0.01310958168347748
-0.00543764848952591,-0.01449195110916888
-0.005437308489525909,-0.01324123591449254
-0.00543696848952591,-0.01149681735350419
-0.00543662848952591,-0.0120234342775771
-0.00543628848952591,-0.01268170543266704
-0.00543594848952591,-0.009192868310685188
-0.00543560848952591,-0.008468770040084931
-0.00543526848952591,-0.008995386964156887
-0.00543492848952591,-0.008534597155594046
-0.00543458848952591,-0.009554917445985316
-0.00543424848952591,-0.0109043733139197
-0.00543390848952591,-0.01162847158452241
-0.00543356848952591,-0.01231965629736811
-0.00543322848952591,-0.01422864264712895
-0.00543288848952591,-0.01185886648880431
-0.00543254848952591,-0.01189178004655887
-0.00543220848952591,-0.0139324206273377
-0.00543186848952591,-0.01538061716854192
-0.00543152848952591,-0.007580103980711889
-0.00543118848952591,-0.006033166766250518
-0.00543084848952591,-0.004354575320765292
-0.00543050848952591,-0.005671117630947577
-0.00543016848952591,-0.0101802750433137
-0.00542982848952591,-0.007580103980711889
-0.00542948848952591,-0.006164820997265934
-0.00542914848952591,-0.009225781868434176
-0.00542880848952591,-0.01054232417862203
-0.00542846848952591,-0.009489090330476201
-0.00542812848952591,-0.00975239879251218
-0.00542778848952591,-0.01097020042943127
-0.00542744848952591,-0.01093728687167671
-0.00542710848952591,-0.009785312350267215
-0.00542676848952591,-0.01149681735350419
-0.00542642848952591,-0.008238375135803031
-0.00542608848952591,-0.009916966581285444
-0.00542574848952591,-0.01083854619841304
-0.00542540848952591,-0.008468770040084931
-0.00542506848952591,-0.008271288693557588
-0.00542472848952591,-0.009357436099457973
-0.00542438848952591,-0.00939034965721253
-0.00542404848952591,-0.009653658119248986
-0.00542370848952591,-0.01004862081230253
-0.00542336848952591,-0.009423263214967087
-0.00542302848952591,-0.009061214079666959
-0.00542268848952591,-0.01060815129412923
-0.00542234848952591,-0.009554917445985316
-0.00542200848952591,-0.01116768177595861
-0.00542166848952591,-0.01189178004656522
-0.00542132848952591,-0.01538061716854192
-0.00542098848952591,-0.008468770040084931
-0.00542064848952591,-0.007975066673766096
-0.00542030848952591,-0.007711758211730118
-0.00541996848952591,-0.008205461578048474
-0.00541962848952591,-0.01360328504979296
-0.00541928848952591,-0.0120234342775771
-0.00541894848952591,-0.007152227729902647
-0.005418608489525909,-0.005868598977489887
-0.00541826848952591,-0.0140969884161142
-0.00541792848952591,-0.01093728687167671
-0.005417588489525909,-0.01041066994760374
-0.00541724848952591,-0.01037775638984924
-0.00541690848952591,-0.007613017538466446
-0.005416568489525909,-0.00784341244275062
-0.00541622848952591,-0.009094127637421515
-0.00541588848952591,-0.007086400614393532
-0.005415548489525909,-0.007514276865204093
-0.00541520848952591,-0.008238375135803031
-0.00541486848952591,-0.007645931096221003
-0.00541452848952591,-0.006757265036849578
-0.00541418848952591,-0.008435856482330374
-0.00541384848952591,-0.007580103980711889
-0.00541350848952591,-0.007909239558256861
-0.00541316848952591,-0.009094127637421515
