Analysis/New Tests_CMB/wrd01_d2s01/non compliant measurements/cmb10_ch37.csv

#Digilent WaveForms Oscilloscope Acquisition
#Device Name: ADP3450
#Serial Number: SN:210018B9D9B0
#Date Time: 2024-08-07 11:57:04.310.005.560
#Sample rate: 2.94118e+06Hz
#Samples: 32768
#Trigger: Source: Channel 3 Type: Edge Condition: Rising Level: 0 V Hyst.: Auto HoldOff: 0 s
#Channel 3: Range: 200 mV/div Offset: 0 V Attenuation: 1 X Coupling: DC Bandwidth: 0 Hz Sample Mode: Average

Time (s),Channel 3 (V)
-0.005570487142857143,0.01045652566878541
-0.005570147142857143,0.009699513840428319
-0.005569807142857143,0.008448798645757422
-0.005569467142857143,0.007922181721684508
-0.005569127142857143,0.007658873259648351
-0.005568787142857143,0.007823441048420837
-0.005568447142857143,0.008415885088002865
-0.005568107142857143,0.00923872403186793
-0.005567767142857143,0.009864081629203377
-0.005567427142857143,0.009304551147375908
-0.005567087142857143,0.009205810474111337
-0.005566747142857143,0.00871210710779388
-0.005566407142857143,0.007889268163929951
-0.005566067142857143,0.007428478355365553
-0.005565727142857143,0.007099342777820581
-0.005565387142857143,0.006868947873538681
-0.005565047142857143,0.007560132586385278
-0.005564707142857143,0.008053835952702737
-0.005564367142857143,0.008777934223302994
-0.005564027142857143,0.009502032493903849
-0.005563687142857143,0.00983116807144882
-0.005563347142857143,0.009238724031866792
-0.005563007142857144,0.009139983358603302
-0.005562667142857143,0.008382971530248308
-0.005562327142857143,0.00802092239494818
-0.005561987142857144,0.007428478355367229
-0.005561647142857143,0.007230997008838809
-0.005561307142857143,0.007527219028629823
-0.005560967142857144,0.008020922394947281
-0.005560627142857143,0.008350057972493751
-0.005560287142857143,0.008514625761266537
-0.005559947142857144,0.008382971530248548
-0.005559607142857143,0.008218403741475522
-0.005559267142857143,0.008679193550039321
-0.005558927142857144,0.00930455114737477
-0.005558587142857143,0.01009447653348528
-0.005558247142857143,0.01025904432225806
-0.005557907142857144,0.01025904432225806
-0.005557567142857143,0.01009447653348528
-0.005557227142857143,0.01022613076450351
-0.005556887142857144,0.009502032493904567
-0.005556547142857143,0.008975415569830336
-0.005556207142857143,0.01032487143776718
-0.005555867142857144,0.0160518304870497
-0.005555527142857143,0.02836150108726447
-0.005555187142857143,0.04847168487529886
-0.005554847142857144,0.07736978858374743
-0.005554507142857143,0.1116986293218031
-0.005554167142857143,0.1477718886207977
-0.005553827142857144,0.1824956920518554
-0.005553487142857143,0.2126774245127843
-0.005553147142857143,0.2367372352313655
-0.005552807142857144,0.254016853052508
-0.005552467142857143,0.2648783271115118
-0.005552127142857143,0.2697495336591863
-0.005551787142857144,0.2702432370255046
-0.005551447142857143,0.2668531405767755
-0.005551107142857143,0.2614882306627925
-0.005550767142857144,0.2542801615145445
-0.005550427142857143,0.2460846856336448
-0.005550087142857143,0.2378562961950204
-0.005549747142857143,0.229496252525363
-0.005549407142857143,0.2212349495289548
-0.005549067142857143,0.21336860922563
-0.005548727142857143,0.2058972316153455
-0.005548387142857143,0.1993145200644248
-0.005548047142857143,0.1941800050547232
-0.005547707142857143,0.1895721069690852
-0.005547367142857143,0.1847996410946655
-0.005547027142857143,0.1799284345469999
-0.005546687142857143,0.1755509313656438
-0.005546347142857143,0.1711076010687707
-0.005546007142857143,0.1667630114451771
-0.005545667142857143,0.1619576320130118
-0.005545327142857143,0.1565927220990074
-0.005544987142857143,0.1502404054523894
-0.005544647142857143,0.1432627312084233
-0.005544307142857143,0.136219229848937
-0.005543967142857143,0.130130221664355
-0.005543627142857143,0.124041213479762
-0.005543287142857143,0.118676303565761
-0.005542947142857143,0.1141671461533948
-0.005542607142857143,0.1103491734538662
-0.005542267142857144,0.1062020651767996
-0.005541927142857143,0.102713228054809
-0.005541587142857143,0.09961935362588062
-0.005541247142857144,0.09695335544776633
-0.005540907142857143,0.09405696236536046
-0.005540567142857143,0.0917200997647869
-0.005540227142857144,0.08849457110484617
-0.005539887142857143,0.08599314071549397
-0.005539547142857143,0.08345879676839307
-0.005539207142857144,0.08000287320417086
-0.005538867142857143,0.07648112252442696
-0.005538527142857143,0.07342016165325316
-0.005538187142857144,0.07098455837942035
-0.005537847142857143,0.06904265847189706
-0.005537507142857143,0.06706784500662363
-0.005537167142857144,0.06558673490767125
-0.005536827142857143,0.06413853836646805
-0.005536487142857143,0.06245994692098564
-0.005536147142857144,0.06009017076266183
-0.005535807142857143,0.05735834546902929
-0.005535467142857143,0.05482400152192839
-0.005535127142857144,0.05238839824809559
-0.005534787142857143,0.04959074583895381
-0.005534447142857143,0.04820837641326241
-0.005534107142857144,0.04689183410308252
-0.005533767142857143,0.04560820535065239
-0.005533427142857143,0.0451474155420886
-0.005533087142857144,0.04369921900088809
-0.005532747142857143,0.0416914919778601
-0.005532407142857143,0.03971667851258667
-0.005532067142857144,0.03747855658527679
-0.005531727142857143,0.03566831090877615
-0.005531387142857143,0.03372641100125728
-0.005531047142857144,0.03273900426862057
-0.005530707142857143,0.03234404157556588
-0.005530367142857143,0.03237695513332044
-0.005530027142857144,0.03273900426862057
-0.005529687142857143,0.03287065849963921
-0.005529347142857143,0.03310105340392069
-0.005529007142857143,0.03362767032799361
-0.005528667142857143,0.03362767032799181
-0.005528327142857143,0.0326402635953569
-0.005527987142857143,0.03106041282313815
-0.005527647142857143,0.02954638916642511
-0.005527307142857143,0.02767031637441877
-0.005526967142857143,0.02605755204444548
-0.005526627142857143,0.02378651655937786
-0.005526287142857143,0.02204209799838951
-0.005525947142857143,0.02092303703473456
-0.005525607142857143,0.01927735914700509
-0.005525267142857143,0.01838869308763367
-0.005524927142857143,0.01802664395233354
-0.005524587142857143,0.01776333549029499
-0.005524247142857143,0.01661136096888758
-0.005523907142857143,0.01565686779400543
-0.005523567142857143,0.01457072038810492
-0.005523227142857143,0.01450489327259593
-0.005522887142857143,0.01410993057954124
-0.005522547142857143,0.01401118990627722
-0.005522207142857143,0.01381370855975023
-0.005521867142857143,0.01427449836831403
-0.005521527142857143,0.01473528817687843
-0.005521187142857143,0.0150644237544234
-0.005520847142857143,0.01516316442768707
-0.005520507142857144,0.01555812712074104
-0.005520167142857143,0.01585434914053277
-0.005519827142857143,0.01717089145071506
-0.005519487142857144,0.01733545923948754
-0.005519147142857143,0.01740128635499695
-0.005518807142857143,0.01700632366194227
-0.005518467142857144,0.01638096606460682
-0.005518127142857143,0.01595308981379644
-0.005517787142857143,0.01542647288972353
-0.005517447142857144,0.01493276952340607
-0.005517107142857143,0.01447197971484137
-0.005516767142857143,0.01407701702178669
-0.005516427142857144,0.01420867125280468
-0.005516087142857143,0.01489985596565062
-0.005515747142857143,0.01466946106136872
-0.005515407142857144,0.01506442375442268
-0.005515067142857143,0.01440615259933226
-0.005514727142857143,0.01351748653995922
-0.005514387142857144,0.01157558663244388
-0.005514047142857143,0.01048943922653996
-0.005513707142857143,0.009370378262885021
-0.005513367142857144,0.009205810474112536
-0.005513027142857143,0.00973242739818515
-0.005512687142857143,0.01104896970836743
-0.005512347142857144,0.01210220355651326
-0.005512007142857143,0.01285921538486808
-0.005511667142857143,0.01318835096241365
-0.005511327142857144,0.01332000519343187
-0.005510987142857143,0.01328709163567732
-0.005510647142857143,0.01239842557630427
-0.005510307142857144,0.01190472220998592
-0.005509967142857143,0.01144393240142212
-0.005509627142857143,0.01127936461264933
-0.005509287142857144,0.01075274768857642
-0.005508947142857143,0.01029195788001262
-0.005508607142857143,0.01029195788001262
-0.005508267142857144,0.01042361211103085
-0.005507927142857143,0.01088440191959501
-0.005507587142857143,0.01108188326612199
-0.005507247142857143,0.01075274768857642
-0.005506907142857143,0.01068692057306749
-0.005506567142857143,0.01078566124633098
-0.005506227142857143,0.01078566124633098
-0.005505887142857143,0.01127936461264927
-0.005505547142857143,0.01124645105489478
-0.005505207142857143,0.01029195788001262
-0.005504867142857143,0.01019321720674931
-0.005504527142857143,0.01039069855327629
-0.005504187142857143,0.00950203249390325
-0.005503847142857143,0.008580452876773196
-0.005503507142857143,0.007230997008838809
-0.005503167142857143,0.006177763160692982
-0.005502827142857143,0.005585319121110655
-0.005502487142857143,0.005420751332338168
-0.005502147142857143,0.005585319121110954
-0.005501807142857143,0.006144849602939862
-0.005501467142857143,0.006934774989047795
-0.005501127142857143,0.007428478355366152
-0.005500787142857143,0.008020922394949916
-0.005500447142857143,0.008975415569830336
-0.005500107142857143,0.009403291820639578
-0.005499767142857144,0.009469118936148572
-0.005499427142857143,0.01006156297573072
-0.005499087142857143,0.01065400701531275
-0.005498747142857144,0.01062109345755825
-0.005498407142857143,0.01042361211103085
-0.005498067142857143,0.009798254513694264
-0.005497727142857144,0.009041242685340827
-0.005497387142857143,0.007625959701893495
-0.005497047142857143,0.007198083451084253
-0.005496707142857144,0.007165169893329755
-0.005496367142857143,0.007691786817402609
-0.005496027142857143,0.008679193550039321
-0.005495687142857144,0.009666600282674239
-0.005495347142857143,0.01071983413082186
-0.005495007142857143,0.01118062393938566
-0.005494667142857144,0.01121353749714016
-0.005494327142857143,0.01042361211103085
-0.005493987142857143,0.008975415569830336
-0.005493647142857144,0.008020922394949916
-0.005493307142857143,0.006934774989047795
-0.005492967142857143,0.006671466527011338
-0.005492627142857144,0.006144849602939382
-0.005492287142857143,0.005651146236620068
-0.005491947142857143,0.005519492005601839
-0.005491607142857144,0.005881541140901309
-0.005491267142857143,0.006704380084765896
-0.005490927142857143,0.007823441048420837
-0.005490587142857144,0.009139983358603122
-0.005490247142857143,0.009304551147375908
-0.005489907142857143,0.00983116807144882
-0.005489567142857144,0.009567859609412364
-0.005489227142857143,0.00881084778105755
-0.005488887142857143,0.007724700375157166
-0.005488547142857144,0.005815714025392853
-0.005488207142857143,0.004499171715208833
-0.005487867142857143,0.003544678540328413
-0.005487527142857144,0.003873814117873984
-0.005487187142857143,0.004433344599704149
-0.005486847142857143,0.005914454698656525
-0.005486507142857143,0.006836034315784124
-0.005486167142857143,0.007922181721686005
-0.005485827142857143,0.008745020665548437
-0.005485487142857143,0.009600773167166921
-0.005485147142857143,0.009567859609411825
-0.005484807142857143,0.009271637589621349
-0.005484467142857143,0.009205810474112236
-0.005484127142857143,0.008975415569830397
-0.005483787142857143,0.009008329127584893
-0.005483447142857143,0.008481712203511979
-0.005483107142857143,0.008942502012076258
-0.005482767142857143,0.009205810474112236
-0.005482427142857143,0.009436205378394135
-0.005482087142857143,0.009337464705129207
-0.005481747142857143,0.008646279992284765
-0.005481407142857143,0.007889268163929951
-0.005481067142857143,0.006901861431290185
-0.005480727142857143,0.005223269985810825
-0.005480387142857143,0.003939641233383098
-0.005480047142857143,0.003314283636045376
-0.005479707142857143,0.002688926038709928
-0.005479367142857143,0.002952234500746385
-0.005479027142857144,0.004235863253171777
-0.005478687142857143,0.005223269985810825
-0.005478347142857143,0.006473985180483996
-0.005478007142857144,0.00821840374147235
-0.005477667142857143,0.009304551147375908
-0.005477327142857143,0.009337464705130465
-0.005476987142857144,0.009271637589621469
-0.005476647142857143,0.008613366434530208
-0.005476307142857143,0.007955095279439066
-0.005475967142857144,0.007691786817403088
-0.005475627142857143,0.008053835952702737
-0.005475287142857143,0.008251317299230079
-0.005474947142857144,0.008448798645757063
-0.005474607142857143,0.008481712203511979
-0.005474267142857143,0.008317144414739193
-0.005473927142857144,0.008086749510457713
-0.005473587142857143,0.007889268163929951
-0.005473247142857143,0.008218403741475522
-0.005472907142857144,0.008284230856984516
-0.005472567142857143,0.008382971530248308
-0.005472227142857143,0.008547539319021094
-0.005471887142857144,0.008448798645757602
-0.005471547142857143,0.008481712203511979
-0.005471207142857143,0.00802092239494818
-0.005470867142857144,0.007955095279439186
-0.005470527142857143,0.00700060210455691
-0.005470187142857143,0.007066429220066024
-0.005469847142857144,0.006473985180483996
-0.005469507142857143,0.006441071622729439
-0.005469167142857143,0.00653981229599311
-0.005468827142857144,0.006901861431293239
-0.005468487142857143,0.007066429220066024
-0.005468147142857143,0.007593046144138938
-0.005467807142857144,0.007823441048420837
-0.005467467142857143,0.008547539319021094
-0.005467127142857143,0.008679193550039321
-0.005466787142857144,0.009304551147375908
-0.005466447142857143,0.009864081629203917
-0.005466107142857143,0.01016030364899439
-0.005465767142857143,0.009864081629203377
-0.005465427142857143,0.00996282230246723
-0.005465087142857143,0.01006156297573072
-0.005464747142857143,0.009765340955939707
-0.005464407142857143,0.009403291820639219
-0.005464067142857143,0.009205810474112236
-0.005463727142857143,0.009469118936148692
-0.005463387142857143,0.010028649417977
-0.005463047142857143,0.01048943922653996
-0.005462707142857143,0.01055526634204908
-0.005462367142857143,0.01055526634204818
-0.005462027142857143,0.01006156297573072
-0.005461687142857143,0.009074156243094007
-0.005461347142857143,0.007988008837192905
-0.005461007142857143,0.007593046144138938
-0.005460667142857143,0.006836034315784124
-0.005460327142857143,0.006177763160692623
-0.005459987142857143,0.005980281814165639
-0.005459647142857143,0.005519492005601839
-0.005459307142857143,0.005256183543566221
-0.005458967142857143,0.005716973352129182
-0.005458627142857143,0.006210676718447538
-0.005458287142857143,0.006803120758030465
-0.005457947142857143,0.007296824124347924
-0.005457607142857143,0.007593046144138938
-0.005457267142857144,0.008514625761264862
-0.005456927142857143,0.00904124268533945
-0.005456587142857143,0.009337464705130465
-0.005456247142857144,0.009337464705130465
-0.005455907142857143,0.009107069800848565
-0.005455567142857143,0.008679193550039321
-0.005455227142857144,0.008284230856985354
-0.005454887142857143,0.007658873259648051
-0.005454547142857143,0.006836034315784124
-0.005454207142857144,0.00640815806497566
-0.005453867142857143,0.006177763160692982
-0.005453527142857143,0.006506898738238553
-0.005453187142857144,0.007165169893328497
-0.005452847142857143,0.007625959701893495
-0.005452507142857143,0.00779052749066628
-0.005452167142857144,0.007132256335576336
-0.005451827142857143,0.006342330949465767
-0.005451487142857143,0.006210676718447538
-0.005451147142857144,0.005914454698657063
-0.005450807142857143,0.005716973352129182
-0.005450467142857143,0.005815714025392853
-0.005450127142857144,0.006408158064973805
-0.005449787142857143,0.006671466527011338
-0.005449447142857143,0.007362651239857037
-0.005449107142857144,0.007889268163928993
-0.005448767142857143,0.008415885088002865
-0.005448427142857143,0.00904124268533945
-0.005448087142857144,0.00983116807144882
-0.005447747142857143,0.009995735860221606
-0.005447407142857143,0.01078566124633098
-0.005447067142857144,0.01081857480408553
-0.005446727142857143,0.01075274768857642
-0.005446387142857143,0.01019321720674895
-0.005446047142857144,0.00973242739818515
-0.005445707142857143,0.008810847781056114
-0.005445367142857143,0.00802092239494818
-0.005445027142857144,0.007132256335575138
-0.005444687142857143,0.006276503833955695
-0.005444347142857143,0.00574988690988374
-0.005444007142857143,0.006276503833956653
-0.005443667142857143,0.00640815806497554
-0.005443327142857143,0.00677020720027501
-0.005442987142857143,0.007165169893329695
-0.005442647142857143,0.007724700375156687
-0.005442307142857143,0.007461391913120709
-0.005441967142857143,0.007494305470875266
-0.005441627142857143,0.006638552969255824
-0.005441287142857143,0.006111936045183867
-0.005440947142857143,0.005651146236620068
-0.005440607142857143,0.005947368256412998
-0.005440267142857143,0.00700060210455691
-0.005439927142857143,0.00871210710779388
-0.005439587142857143,0.01009447653348642
-0.005439247142857143,0.01071983413082186
-0.005438907142857143,0.01039069855327629
-0.005438567142857143,0.01022613076450171
-0.005438227142857143,0.009238724031866792
-0.005437887142857143,0.008415885088002865
-0.005437547142857143,0.007658873259646914
-0.005437207142857143,0.007033515662311467
-0.005436867142857143,0.006605639411502225
-0.005436527142857144,0.006605639411502225
-0.005436187142857143,0.007296824124347924
-0.005435847142857143,0.008053835952702737
-0.005435507142857144,0.008942502012074163
-0.005435167142857143,0.00983116807144882
-0.005434827142857143,0.01068692057306731
-0.005434487142857144,0.01016030364899535
-0.005434147142857143,0.008317144414739193
-0.005433807142857143,0.003742159886855756
-0.005433467142857144,-0.006757265036828865
-0.005433127142857143,-0.02423436420451779
-0.005432787142857143,-0.04964363079103587
-0.005432447142857144,-0.08054946152250879
-0.005432107142857143,-0.1146149937985316
-0.005431767142857143,-0.1487463531900073
-0.005431427142857144,-0.1794876161327078
-0.005431087142857143,-0.2047652284882635
-0.005430747142857143,-0.2240854868901885
-0.005430407142857144,-0.2375142184540234
-0.005430067142857143,-0.2447222876022959
-0.005429727142857143,-0.2469604095296057
-0.005429387142857144,-0.2457096943349348
-0.005429047142857143,-0.2416942402888766
-0.005428707142857143,-0.2358027134508109
-0.005428367142857144,-0.2286275578603305
-0.005428027142857143,-0.2212220073655421
-0.005427687142857143,-0.2138164568707667
-0.005427347142857144,-0.2071679182043462
-0.005427007142857143,-0.2002231575181346
-0.005426667142857143,-0.1932783968319231
-0.005426327142857144,-0.1859386734526569
-0.005425987142857143,-0.1779406789182995
-0.005425647142857143,-0.1705022148657696
-0.005425307142857144,-0.1634257999485398
-0.005424967142857143,-0.1567443477243647
-0.005424627142857143,-0.1493387972295894
-0.005424287142857144,-0.1423940365433778
-0.005423947142857143,-0.1367329046095836
-0.005423607142857143,-0.1310388591180556
-0.005423267142857143,-0.1256410356463082
-0.005422927142857143,-0.1209343968873995
-0.005422587142857143,-0.1170505970723688
-0.005422247142857143,-0.1136605006236494
-0.005421907142857143,-0.110138749943905
-0.005421567142857143,-0.1063536908021378
-0.005421227142857143,-0.1032269028154549
-0.005420887142857143,-0.09996846059774735
-0.005420547142857143,-0.09647962347577063
-0.005420207142857143,-0.09259582366073291
-0.005419867142857143,-0.08884367807670716
-0.005419527142857143,-0.08542066807023946
-0.005419187142857143,-0.08166852248621995
-0.005418847142857143,-0.07771889555566637
-0.005418507142857143,-0.07403257708716268
-0.005418167142857143,-0.07041208573416141
-0.005417827142857143,-0.0670878164009461
-0.005417487142857143,-0.06432307754956834
-0.005417147142857143,-0.06139377090941276
-0.005416807142857143,-0.05892525407781672
-0.005416467142857143,-0.05658839147724742
-0.005416127142857143,-0.05375782551035551
-0.005415787142857143,-0.05184883916058695
-0.005415447142857143,-0.04951197656001764
-0.005415107142857143,-0.04757007665249877
-0.005414767142857144,-0.04526612760968397
-0.005414427142857143,-0.04325840058665179
-0.005414087142857143,-0.04095445154383279
-0.005413747142857144,-0.03848593471224551
