Analysis/New Tests_CMB/wrd01_d2s01/non compliant measurements/cmb12_ch24.csv

#Digilent WaveForms Oscilloscope Acquisition
#Device Name: ADP3450
#Serial Number: SN:210018B9D9B0
#Date Time: 2024-08-07 11:07:02.107.179.190
#Sample rate: 2.94118e+06Hz
#Samples: 32768
#Trigger: Source: Channel 3 Type: Edge Condition: Rising Level: 0 V Hyst.: Auto HoldOff: 0 s
#Channel 3: Range: 200 mV/div Offset: 0 V Attenuation: 1 X Coupling: DC Bandwidth: 0 Hz Sample Mode: Average

Time (s),Channel 3 (V)
-0.005570220000000001,0.01308961028914997
-0.00556988,0.01226677134528407
-0.00556954,0.01118062393938566
-0.005569200000000001,0.01098314259285832
-0.00556886,0.01062109345755795
-0.00556852,0.01048943922653996
-0.005568180000000001,0.01095022903510376
-0.00556784,0.01127936461265047
-0.0055675,0.01190472220998592
-0.005567160000000001,0.0127604747116044
-0.00556682,0.01358331365546845
-0.00556648,0.01364914077097745
-0.005566140000000001,0.01348457298220466
-0.0055658,0.01292504250037563
-0.00556546,0.0120692899987587
-0.005565120000000001,0.01127936461264933
-0.00556478,0.01035778499552108
-0.00556444,0.009995735860221606
-0.005564100000000001,0.009304551147375908
-0.00556376,0.01012739009124025
-0.00556342,0.01035778499552173
-0.005563080000000001,0.01042361211103085
-0.005562740000000001,0.0109502290351028
-0.0055624,0.01111479682387655
-0.005562060000000001,0.01124645105489478
-0.005561720000000001,0.0109173154773498
-0.00556138,0.01065400701531275
-0.005561040000000001,0.01032487143776718
-0.005560700000000001,0.01062109345755765
-0.00556036,0.01098314259285832
-0.005560020000000001,0.01174015442121313
-0.005559680000000001,0.01223385778753059
-0.00555934,0.01285921538486808
-0.005559000000000001,0.0134516594244501
-0.005558660000000001,0.01335291875118661
-0.00555832,0.01328709163567732
-0.005557980000000001,0.01355040009771377
-0.005557640000000001,0.01480111529238467
-0.0055573,0.01822412529886088
-0.005556960000000001,0.0268803909883094
-0.005556620000000001,0.04294220717250405
-0.00555628,0.06667288231356894
-0.005555940000000001,0.09580138092635199
-0.005555600000000001,0.1292086420471666
-0.00555526,0.163274174323194
-0.005554920000000001,0.1951344982296053
-0.005554580000000001,0.22297936808991
-0.00555424,0.2447352297657229
-0.005553900000000001,0.2608299595077013
-0.005553560000000001,0.2701115827944864
-0.00555322,0.2746207402068607
-0.00555288,0.2742586910715606
-0.005552540000000001,0.2714610386624233
-0.0055522,0.2661948694216941
-0.00555186,0.259513417197519
-0.005551520000000001,0.25200912602948
-0.00555118,0.244340267072655
-0.00555084,0.2370992843666656
-0.005550500000000001,0.2302532643537178
-0.00555016,0.223209762994231
-0.00554982,0.2168903599053676
-0.005549480000000001,0.2100443398924197
-0.00554914,0.2028362707441588
-0.0055488,0.1957598558269419
-0.005548460000000001,0.1884859595631848
-0.00554812,0.1818374208967515
-0.00554778,0.1748268330950436
-0.005547440000000001,0.1681782944286231
-0.0055471,0.1620563726862651
-0.00554676,0.1563623271947371
-0.005546420000000001,0.1512278121850262
-0.00554608,0.1458629022710257
-0.00554574,0.14164996687845
-0.005545400000000001,0.1365154518687391
-0.00554506,0.1317429859943191
-0.00554472,0.1266742981001265
-0.005544380000000001,0.1221651406877522
-0.00554404,0.1181826001994431
-0.0055437,0.113936751249113
-0.005543360000000001,0.11080996326243
-0.00554302,0.1074527803714596
-0.00554268,0.1043589059425368
-0.005542340000000001,0.1005738468007628
-0.005542000000000001,0.09721666390980405
-0.00554166,0.0941886165963787
-0.005541320000000001,0.09135805062948676
-0.005540980000000001,0.08938323716421694
-0.00554064,0.08747425081444904
-0.005540300000000001,0.08589440004223028
-0.005539960000000001,0.08411706792348746
-0.00553962,0.08220808157371989
-0.005539280000000001,0.07987121897314634
-0.005538940000000001,0.07743561569931355
-0.0055386,0.07457213617466266
-0.005538260000000001,0.0714782617457343
-0.005537920000000001,0.06884517712537451
-0.00553758,0.06624500606275971
-0.005537240000000001,0.06344735365362233
-0.005536900000000001,0.06104466393754405
-0.00553656,0.05824701152840232
-0.005536220000000001,0.05577849469681054
-0.005535880000000001,0.05363911344276822
-0.00553554,0.05156555930422723
-0.005535200000000001,0.04985405430099026
-0.005534860000000001,0.04876790689509185
-0.00553452,0.04738553746939848
-0.005534180000000001,0.04623356294798898
-0.005533840000000001,0.04557529179289904
-0.0055335,0.04504867486882493
-0.005533160000000001,0.04498284775331581
-0.005532820000000001,0.04498284775331581
-0.00553248,0.04425874948271556
-0.00553214,0.04386378678966087
-0.005531800000000001,0.04287638005702415
-0.00553146,0.04096739370725985
-0.00553112,0.0389267531264773
-0.005530780000000001,0.0375443837007859
-0.00553044,0.03616201427509451
-0.0055301,0.03477964484940311
-0.005529760000000001,0.03375932455901184
-0.00552942,0.03303522628840894
-0.00552908,0.03158702974721107
-0.005528740000000001,0.03023757387927423
-0.0055284,0.02964512983969178
-0.00552806,0.0294147349354103
-0.005527720000000001,0.02921725358888296
-0.00552738,0.02951347560867481
-0.00552704,0.02997426541723777
-0.005526700000000001,0.03046796878355613
-0.00552636,0.03017174676376427
-0.00552602,0.02971095695520131
-0.005525680000000001,0.02878937733807371
-0.00552534,0.02790071127869924
-0.005525,0.0271107858925913
-0.005524660000000001,0.02615629271770915
-0.00552432,0.02546510800486213
-0.00552398,0.02474100973426319
-0.005523640000000001,0.02395108434815382
-0.0055233,0.02316115896204325
-0.00552296,0.02250288780695331
-0.005522620000000001,0.02177878953635305
-0.00552228,0.02102177770799704
-0.00552194,0.0203635065529071
-0.005521600000000001,0.01937609982027038
-0.00552126,0.01891531001170514
-0.00552092,0.01812538462559721
-0.005520580000000001,0.0173683727972424
-0.005520240000000001,0.01766459481703287
-0.0055199,0.01773042193254253
-0.005519560000000001,0.01825703885661544
-0.005519220000000001,0.01921153203149586
-0.00551888,0.01947484049353405
-0.005518540000000001,0.01993563030209785
-0.005518200000000001,0.02023185232188833
-0.00551786,0.02013311164862519
-0.005517520000000001,0.01901405068497026
-0.005517180000000001,0.01792790327907184
-0.00551684,0.01687466943092404
-0.005516500000000001,0.01601891692930556
-0.005516160000000001,0.01516316442768863
-0.00551582,0.01473528817687783
-0.005515480000000001,0.01503151019666884
-0.005515140000000001,0.01516316442768683
-0.0055148,0.01565686779400543
-0.005514460000000001,0.01611765760256923
-0.005514120000000001,0.01621639827583272
-0.00551378,0.0166771880843967
-0.005513440000000001,0.01624931183358745
-0.005513100000000001,0.01608474404481497
-0.00551276,0.01562395423625087
-0.005512420000000001,0.01473528817687783
-0.005512080000000001,0.0143732390415777
-0.00551174,0.01397827634852302
-0.005511400000000001,0.01450489327259593
-0.005511060000000001,0.0152948186587053
-0.00551072,0.0162163982758329
-0.00551038,0.01710506433520594
-0.005510040000000001,0.01733545923948784
-0.0055097,0.01694049654643316
-0.00550936,0.01641387962236024
-0.005509020000000001,0.01536064577421441
-0.00550868,0.01486694240789486
-0.00550834,0.01420867125280492
-0.005508000000000001,0.01361622721322289
-0.00550766,0.01384662211750467
-0.00550732,0.01378079500199567
-0.005506980000000001,0.01371496788648656
-0.00550664,0.01361622721322331
-0.0055063,0.01384662211750479
-0.005505960000000001,0.013682054328732
-0.00550562,0.01322126452016886
-0.00550528,0.01358331365546833
-0.005504940000000001,0.013682054328732
-0.0055046,0.01315543740465963
-0.00550426,0.0134516594244501
-0.005503920000000001,0.01348457298220466
-0.00550358,0.01348457298220418
-0.00550324,0.0132212645201682
-0.005502900000000001,0.01269464759609529
-0.00550256,0.01190472220998466
-0.00550222,0.01121353749714022
-0.005501880000000001,0.01068692057306731
-0.00550154,0.01091731547735052
-0.0055012,0.01164141374794946
-0.005500860000000001,0.01259590692283162
-0.00550052,0.01348457298220669
-0.00550018,0.0146036339458596
-0.005499840000000001,0.01568978135175999
-0.005499500000000001,0.01680884231541289
-0.00549916,0.01657844741113303
-0.005498820000000001,0.01641387962236024
-0.005498480000000001,0.01608474404481527
-0.00549814,0.01539355933196897
-0.005497800000000001,0.01463654750361416
-0.005497460000000001,0.01351748653996125
-0.00549712,0.01249716624956795
-0.005496780000000001,0.01187180865223136
-0.005496440000000001,0.01131227817040491
-0.0054961,0.01111479682387655
-0.005495760000000001,0.01104896970836743
-0.005495420000000001,0.01052235278429548
-0.00549508,0.01048943922653996
-0.005494740000000001,0.01045652566878541
-0.005494400000000001,0.01091731547734837
-0.00549406,0.01121353749714022
-0.005493720000000001,0.01147684595917668
-0.005493380000000001,0.01180598153672165
-0.00549304,0.01177306797896769
-0.005492700000000001,0.01141101884366756
-0.005492360000000001,0.01071983413082312
-0.00549202,0.01091731547734921
-0.005491680000000001,0.01078566124633098
-0.005491340000000001,0.01098314259285796
-0.005491,0.01226677134528605
-0.005490660000000001,0.01289212894262263
-0.005490320000000001,0.01341874586669555
-0.00548998,0.01427449836831403
-0.00548964,0.01434032548382314
-0.005489300000000001,0.01394536279076846
-0.00548896,0.0134516594244501
-0.00548862,0.01239842557630427
-0.005488280000000001,0.01190472220998592
-0.00548794,0.01246425269181363
-0.0054876,0.01259590692283162
-0.005487260000000001,0.01315543740465909
-0.00548692,0.014142844137297
-0.00548658,0.01480111529238694
-0.005486240000000001,0.01532773221645986
-0.0054859,0.01592017625604249
-0.00548556,0.01624931183358745
-0.005485220000000001,0.01707215077745139
-0.00548488,0.01782916260580596
-0.00548454,0.01769750837478797
-0.005484200000000001,0.01740128635499695
-0.00548386,0.01654553385337577
-0.00548352,0.0150644237544234
-0.005483180000000001,0.01384662211750479
-0.00548284,0.01279338826935704
-0.0054825,0.01174015442121313
-0.005482160000000001,0.01118062393938566
-0.00548182,0.01127936461264963
-0.00548148,0.01144393240142212
-0.005481140000000001,0.0118388950944768
-0.0054808,0.01279338826935926
-0.00548046,0.01295795605813175
-0.005480120000000001,0.01358331365546833
-0.00547978,0.01384662211750509
-0.00547944,0.01401118990627757
-0.005479100000000001,0.01420867125280492
-0.005478760000000001,0.0132541780779245
-0.00547842,0.01200346288324959
-0.005478080000000001,0.01147684595917668
-0.005477740000000001,0.01088440191959573
-0.0054774,0.01127936461264933
-0.005477060000000001,0.0118388950944768
-0.005476720000000001,0.01246425269181225
-0.00547638,0.01397827634852302
-0.005476040000000001,0.01480111529238694
-0.005475700000000001,0.01473528817687795
-0.00547536,0.01489985596565062
-0.005475020000000001,0.01509733731217796
-0.005474680000000001,0.01473528817687849
-0.00547434,0.01480111529238694
-0.005474000000000001,0.01348457298220466
-0.005473660000000001,0.01315543740465969
-0.00547332,0.01312252384690453
-0.005472980000000001,0.01236551201854972
-0.005472640000000001,0.01229968490304072
-0.0054723,0.0118388950944768
-0.005471960000000001,0.01111479682387655
-0.005471620000000001,0.01042361211103211
-0.00547128,0.009403291820639578
-0.005470940000000001,0.008448798645757422
-0.005470600000000001,0.008020922394948959
-0.00547026,0.007889268163929951
-0.005469920000000001,0.008613366434530208
-0.005469580000000001,0.009469118936148692
-0.00546924,0.01104896970836743
-0.0054689,0.01187180865223136
-0.005468560000000001,0.01233259846079516
-0.00546822,0.01210220355651326
-0.00546788,0.0118388950944768
-0.005467540000000001,0.01164141374794946
-0.0054672,0.01200346288324959
-0.00546686,0.01180598153672225
-0.005466520000000001,0.01134519172815845
-0.00546618,0.01131227817040461
-0.00546584,0.01170724086345858
-0.005465500000000001,0.0122996849030406
-0.00546516,0.01315543740465951
-0.00546482,0.01338583230894099
-0.005464480000000001,0.01384662211750479
-0.00546414,0.01443906615708676
-0.0054638,0.01440615259933226
-0.005463460000000001,0.01466946106136872
-0.00546312,0.01434032548382284
-0.00546278,0.01417575769505036
-0.005462440000000001,0.01355040009771377
-0.0054621,0.0126288204805854
-0.00546176,0.01220094422977693
-0.005461420000000001,0.01210220355651326
-0.00546108,0.01183889509447692
-0.00546074,0.01190472220998592
-0.005460400000000001,0.0116085001901949
-0.00546006,0.01160850019019532
-0.00545972,0.0118388950944768
-0.005459380000000001,0.01174015442121313
-0.00545904,0.01160850019019436
-0.0054587,0.01131227817040389
-0.005458360000000001,0.01071983413082186
-0.00545802,0.01039069855327599
-0.00545768,0.01022613076450351
-0.005457340000000001,0.01118062393938566
-0.005457000000000001,0.0119376357677391
-0.00545666,0.01295795605813175
-0.005456320000000001,0.01424158481055947
-0.005455980000000001,0.01526190510094889
-0.00545564,0.01618348471807834
-0.005455300000000001,0.01624931183358745
-0.005454960000000001,0.01624931183358745
-0.00545462,0.01595308981379644
-0.005454280000000001,0.01565686779400543
-0.005453940000000001,0.01513025086993347
-0.0054536,0.01480111529238694
-0.005453260000000001,0.01387953567525935
-0.005452920000000001,0.01276047471160644
-0.00545258,0.01174015442121313
-0.005452240000000001,0.011378105285913
-0.005451900000000001,0.01098314259285904
-0.00545156,0.01019321720674895
-0.005451220000000001,0.00973242739818515
-0.005450880000000001,0.009896995186957636
-0.00545054,0.01025904432225806
-0.005450200000000001,0.01095022903510376
-0.005449860000000001,0.01144393240142122
-0.00544952,0.01193763576774048
-0.005449180000000001,0.01249716624956795
-0.005448840000000001,0.01328709163567588
-0.0054485,0.01332000519343187
-0.005448160000000001,0.01371496788648656
-0.005447820000000001,0.01328709163567732
-0.00544748,0.01249716624956795
-0.00544714,0.01124645105489478
-0.005446800000000001,0.01039069855327629
-0.00544646,0.01022613076450351
-0.00544612,0.01045652566878541
-0.005445780000000001,0.01035778499552173
-0.00544544,0.01052235278429506
-0.0054451,0.01081857480408553
-0.005444760000000001,0.01108188326612199
-0.00544442,0.01134519172815983
-0.00544408,0.01210220355651326
-0.005443740000000001,0.01269464759609529
-0.0054434,0.01285921538486724
-0.00544306,0.01239842557630427
-0.005442720000000001,0.01220094422977693
-0.00544238,0.01206928999875823
-0.00544204,0.01180598153672225
-0.005441700000000001,0.01144393240142212
-0.00544136,0.01114771038163009
-0.00544102,0.01058817989980363
-0.005440680000000001,0.01052235278429452
-0.00544034,0.01068692057306755
-0.00544,0.01081857480408553
-0.005439660000000001,0.01062109345755819
-0.00543932,0.01147684595917781
-0.00543898,0.01210220355651326
-0.005438640000000001,0.0127604747116044
-0.0054383,0.01295795605813157
-0.00543796,0.01285921538486808
-0.005437620000000001,0.01332000519343187
-0.00543728,0.01338583230894027
-0.00543694,0.0129908696158863
-0.005436600000000001,0.01266173403834073
-0.005436260000000001,0.01236551201855026
-0.00543592,0.01187180865223136
-0.005435580000000001,0.01002864941797616
-0.005435240000000001,0.006441071622735965
-0.0054349,-0.002313934739982752
-0.005434560000000001,-0.01771747976911548
-0.005434220000000001,-0.04062531596624556
-0.00543388,-0.07001712304110672
-0.005433540000000001,-0.1029965079111729
-0.005433200000000001,-0.1354492758571072
-0.00543286,-0.165861403222377
-0.005432520000000001,-0.1916985460597044
-0.005432180000000001,-0.2118745569632112
-0.00543184,-0.2257311647779164
-0.005431500000000001,-0.2339924677743102
-0.005431160000000001,-0.2375800455695505
-0.00543082,-0.2371521693187477
-0.005430480000000001,-0.2347165660449105
-0.005430140000000001,-0.2298782730549994
-0.0054298,-0.2239867462169249
-0.005429460000000001,-0.2173711211082589
-0.005429120000000001,-0.209965570613497
-0.00542878,-0.2020663167523898
-0.005428440000000001,-0.1946936798153691
-0.005428100000000001,-0.1879464004756971
-0.00542776,-0.1818903058488463
-0.005427420000000001,-0.1757354705487442
-0.005427080000000001,-0.1711933995786153
-0.00542674,-0.1647752558164766
-0.0054264,-0.1583241984965834
-0.005426060000000001,-0.1518073140611811
-0.00542572,-0.1453562567412879
-0.00542538,-0.1388064587481311
-0.005425040000000001,-0.1324870556592561
-0.0054247,-0.1264638745901722
-0.00542436,-0.1213622731382158
-0.005424020000000001,-0.1166885479370687
-0.00542368,-0.1117844278316321
-0.00542334,-0.1076044059968109
-0.005423000000000001,-0.1034902112774913
-0.00542266,-0.1002317690597837
-0.00542232,-0.09667710482229797
-0.005421980000000001,-0.09384653885540606
-0.00542164,-0.09085140509973617
-0.0054213,-0.08798792557509491
-0.005420960000000001,-0.08430160710658452
-0.00542062,-0.08061528863806691
-0.00542028,-0.07666566170752726
-0.005419940000000001,-0.0720248500641347
-0.0054196,-0.06820687736459854
-0.00541926,-0.06405976908753189
-0.005418920000000001,-0.06030762350351238
-0.00541858,-0.05665421859275133
-0.00541824,-0.05379073906811007
-0.005417900000000001,-0.05142096290978196
-0.00541756,-0.05013733415735195
-0.00541722,-0.04888661896268106
-0.005416880000000001,-0.04760299021025333
-0.00541654,-0.04654975636210588
-0.0054162,-0.04566109030273446
-0.005415860000000001,-0.04464077001234319
-0.00541552,-0.04299509212461169
-0.00541518,-0.04098736510158735
-0.005414840000000001,-0.03792640423041354
-0.005414500000000001,-0.03549080095658075
-0.00541416,-0.03239692652764795
-0.005413820000000001,-0.02943470632973781
-0.005413480000000001,-0.02663705392060554
-0.00541314,-0.02436601843553601
-0.005412800000000001,-0.02202915583496246
-0.005412460000000001,-0.02015308304295612
-0.00541212,-0.01906693563705232
-0.005411780000000001,-0.01886945429052498
-0.005411440000000001,-0.01896819496378847
-0.0054111,-0.01956063900337068
-0.005410760000000001,-0.0199226881386708
-0.005410420000000001,-0.01926441698358086
-0.00541008,-0.01896819496378865
-0.005409740000000001,-0.01870488650175219
-0.005409400000000001,-0.01722377640279982
-0.00540906,-0.01597306120812395
-0.005408720000000001,-0.01482108668671445
-0.005408380000000001,-0.01340580370327107
-0.00540804,-0.0117930393732952
-0.005407700000000001,-0.0104106699476038
-0.005407360000000001,-0.00945617677272338
-0.00540702,-0.008534597155594046
-0.005406680000000001,-0.007810498884993789
-0.005406340000000001,-0.006888919267867866
-0.005406,-0.005967339650738591
-0.00540566,-0.005835685419720362
-0.005405320000000001,-0.005671117630947577
-0.00540498,-0.005572376957683906
-0.00540464,-0.00494701936034732
-0.005404300000000001,-0.004979932918101878
-0.00540396,-0.004519143109538078
-0.00540362,-0.003465909261392251
-0.005403280000000001,-0.002840551664055666
-0.00540294,-0.001655663584889275
-0.0054026,-0.0003720348324638825
-0.005402260000000001,0.000714112573436502
-0.00540192,0.001931914210356552
-0.00540158,0.002721839596464486
-0.005401240000000001,0.003478851424819299
-0.0054009,0.003775073444610851
-0.00540056,0.004071295464401327
-0.005400220000000001,0.003544678540328413
-0.00539988,0.00314971584727253
-0.00539954,0.002491444692182586
-0.005399200000000001,0.001931914210355115
-0.00539886,0.002425617576675567
-0.00539852,0.00357759209808297
-0.005398180000000001,0.004992875081528926
-0.00539784,0.006408158064977157
-0.0053975,0.007658873259648051
-0.005397160000000001,0.007889268163929951
-0.00539682,0.007889268163928334
-0.00539648,0.00700060210455691
-0.005396140000000001,0.006177763160692982
-0.0053958,0.005420751332337809
-0.00539546,0.005223269985810825
-0.005395120000000001,0.004992875081528926
-0.00539478,0.005782800467640153
-0.00539444,0.006803120758029567
-0.005394100000000001,0.007527219028629823
-0.005393760000000001,0.00769178681740231
-0.00539342,0.007922181721684508
-0.005393080000000001,0.007757613932911723
-0.005392740000000001,0.007724700375157226
-0.0053924,0.008086749510457293
-0.005392060000000001,0.007889268163929951
-0.005391720000000001,0.008053835952702437
-0.00539138,0.009238724031866792
-0.005391040000000001,0.009567859609412364
-0.005390700000000001,0.0102590443222568
-0.00539036,0.01012739009123984
-0.005390020000000001,0.009995735860221606
-0.005389680000000001,0.009567859609413143
