Analysis/New Tests_CMB/wrd01_d2s01/cmb03_take2/cmb03_ch28.csv

#Digilent WaveForms Oscilloscope Acquisition
#Device Name: ADP3450
#Serial Number: SN:210018B9D9B0
#Date Time: 2024-08-08 13:07:46.880.164.130
#Sample rate: 2.94118e+06Hz
#Samples: 32768
#Trigger: Source: Channel 3 Type: Edge Condition: Rising Level: 60 mV Hyst.: Auto HoldOff: 0 s
#Channel 3: Range: 200 mV/div Offset: 0 V Attenuation: 1 X Coupling: DC Bandwidth: 0 Hz Sample Mode: Average

Time (s),Channel 3 (V)
-0.00557046070093458,-0.002544329644264652
-0.005570120700934579,-0.003992526185460674
-0.005569780700934579,-0.001524009353873381
-0.00556944070093458,0.0006153719001728307
-0.005569100700934579,-0.0005036890634860025
-0.005568760700934579,-0.002643070317528323
-0.00556842070093458,-7.581281267286857e-05
-0.005568080700934579,0.0008128532467008318
-0.005567740700934579,0.001174902382000301
-0.00556740070093458,-0.001260700891836924
-0.005567060700934579,-0.002313934739984728
-0.005566720700934579,-0.003400082145883136
-0.00556638070093458,-0.00290637877956478
-0.005566040700934579,-0.003597563492414969
-0.005565700700934579,-0.006066080324002262
-0.00556536070093458,-0.005243241380138334
-0.005565020700934579,-0.004387488878522125
-0.005564680700934579,-0.005638204073193019
-0.00556434070093458,-0.006296475228284162
-0.005564000700934579,-0.005407809168907887
-0.005563660700934579,-0.003630477050165036
-0.00556332070093458,-0.004025439743219721
-0.00556298070093458,-0.004749538013818661
-0.005562640700934579,-0.007349709076429989
-0.00556230070093458,-0.007448449749693661
-0.00556196070093458,-0.0105094106208619
-0.005561620700934579,-0.01281335966368647
-0.00556128070093458,-0.007415536191939104
-0.00556094070093458,-0.006559783690322176
-0.005560600700934579,-0.004321661763010735
-0.00556026070093458,-0.007349709076429989
-0.00555992070093458,-0.009686571676999291
-0.005559580700934579,-0.007415536191939104
-0.005559240700934579,-0.00665852436358429
-0.00555890070093458,-0.007053487056638257
-0.005558560700934579,-0.008073807347030245
-0.005558220700934579,-0.01004862081230367
-0.00555788070093458,-0.009192868310686744
-0.005557540700934579,-0.009785312350267215
-0.005557200700934579,-0.01083854619841304
-0.00555686070093458,-0.01093728687167653
-0.005556520700934579,-0.01152973091125874
-0.005556180700934579,-0.01212217495084077
-0.00555584070093458,-0.01185886648880479
-0.005555500700934579,-0.01090437331392216
-0.005555160700934579,-0.012253829181859
-0.00555482070093458,-0.01179303937329604
-0.005554480700934579,-0.009587831003739873
-0.005554140700934579,-0.008764992059875945
-0.00555380070093458,-0.009489090330476201
-0.005553460700934579,-0.008007980231521132
-0.005553120700934579,-0.008007980231521132
-0.00555278070093458,-0.009752398792512659
-0.005552440700934579,-0.01008153437005823
-0.005552100700934579,-0.01139807668024051
-0.00555176070093458,-0.01189178004655887
-0.005551420700934579,-0.01478817312895816
-0.005551080700934579,-0.01383367995407774
-0.00555074070093458,-0.009554917445985316
-0.005550400700934579,-0.009225781868438367
-0.005550060700934579,-0.008468770040084931
-0.00554972070093458,-0.01189178004655887
-0.005549380700934579,-0.01630219678566384
-0.005549040700934579,-0.0131754087989866
-0.00554870070093458,-0.01445903755141432
-0.005548360700934579,-0.01501856803324132
-0.005548020700934579,-0.01475525957120534
-0.00554768070093458,-0.0150185680332418
-0.005547340700934579,-0.0145577782246759
-0.005547000700934579,-0.0134058037032685
-0.00554666070093458,-0.01399824774285052
-0.005546320700934579,-0.01465651889793981
-0.005545980700934579,-0.0136361986075504
-0.00554564070093458,-0.01419572908937787
-0.005545300700934579,-0.0154793578418017
-0.005544960700934579,-0.01333997658775938
-0.00554462070093458,-0.01399824774285052
-0.005544280700934579,-0.01393242062733979
-0.005543940700934579,-0.01304375456796837
-0.00554360070093458,-0.01389950706958685
-0.005543260700934579,-0.01544644428404936
-0.005542920700934579,-0.01452486466692344
-0.00554258070093458,-0.01449195110916888
-0.00554224070093458,-0.0142944697626419
-0.005541900700934579,-0.01255005120165001
-0.00554156070093458,-0.01212217495084077
-0.00554122070093458,-0.01337289014551166
-0.005540880700934579,-0.01561101207282382
-0.00554054070093458,-0.0117930393732952
-0.00554020070093458,-0.01070689196739679
-0.005539860700934579,-0.01031192927434013
-0.00553952070093458,-0.01169429870003153
-0.00553918070093458,-0.01663133236320611
-0.005538840700934579,-0.01745417130707902
-0.005538500700934579,-0.01376785283856862
-0.00553816070093458,-0.01462360534018555
-0.005537820700934579,-0.01389950706958685
-0.005537480700934579,-0.01235256985512267
-0.00553714070093458,-0.003531736376917409
-0.005536800700934579,-0.009719485234758102
-0.005536460700934579,-0.01073980552514937
-0.00553612070093458,-0.009982793696795935
-0.005535780700934579,-0.01159555802676786
-0.005535440700934579,-0.008929559848648731
-0.00553510070093458,-0.01143099023799052
-0.005534760700934579,-0.01238548341287723
-0.005534420700934579,-0.01241839697063178
-0.00553408070093458,-0.01185886648880533
-0.005533740700934579,-0.01389950706958685
-0.005533400700934579,-0.01491982735997812
-0.00553306070093458,-0.0134058037032685
-0.005532720700934579,-0.0143273833203961
-0.005532380700934579,-0.01199052071982254
-0.00553204070093458,-0.0120234342775771
-0.005531700700934579,-0.01373493928081407
-0.005531360700934579,-0.01304375456796837
-0.00553102070093458,-0.0127146189904228
-0.005530680700934579,-0.01679590015198788
-0.005530340700934579,-0.02091009487130752
-0.00553000070093458,-0.0117930393732952
-0.005529660700934579,-0.01100311398718469
-0.005529320700934579,-0.01037775638984924
-0.00552898070093458,-0.01465651889794167
-0.005528640700934579,-0.01748708486482711
-0.005528300700934579,-0.01393242062734141
-0.00552796070093458,-0.01083854619841304
-0.005527620700934579,-0.0138995070695911
-0.005527280700934579,-0.01623636967016041
-0.00552694070093458,-0.01347163081877761
-0.005526600700934579,-0.01268170543267034
-0.005526260700934579,-0.01383367995407774
-0.00552592070093458,-0.0131754087989866
-0.005525580700934579,-0.01330706303000525
-0.005525240700934579,-0.01353745793428673
-0.00552490070093458,-0.0120234342775771
-0.005524560700934579,-0.01304375456797394
-0.005524220700934579,-0.01610471543914218
-0.00552388070093458,-0.01669715947872421
-0.005523540700934579,-0.01702629505628552
-0.005523200700934579,-0.0256825607457183
-0.00552286070093458,-0.04029618038874165
-0.005522520700934579,-0.05826698292277384
-0.005522180700934579,-0.08245844787232931
-0.00552184070093458,-0.1109286753300212
-0.005521500700934579,-0.1427231721209828
-0.005521160700934579,-0.1754063349711986
-0.00552082070093458,-0.2034157726203267
-0.00552048070093458,-0.2268502257415287
-0.005520140700934579,-0.2524569736746168
-0.00551980070093458,-0.2623639545587385
-0.00551946070093458,-0.2668731119711046
-0.005519120700934579,-0.2692758016871954
-0.00551878070093458,-0.2682883949545588
-0.00551844070093458,-0.2689795796674032
-0.005518100700934579,-0.2627589172517931
-0.00551776070093458,-0.2528190228099169
-0.00551742070093458,-0.2440640164472206
-0.005517080700934579,-0.2382383167246481
-0.005516740700934579,-0.2329392339261644
-0.00551640070093458,-0.2232626479463422
-0.005516060700934579,-0.2161862330290948
-0.005515720700934579,-0.2110517180193839
-0.00551538070093458,-0.2058184623364189
-0.005515040700934579,-0.1993674050165161
-0.005514700700934579,-0.1942328900068052
-0.00551436070093458,-0.1888679800928222
-0.005514020700934579,-0.1818903058488463
-0.005513680700934579,-0.1776444568985085
-0.00551334070093458,-0.1700085114994651
-0.005513000700934579,-0.1630308372554851
-0.005512660700934579,-0.158060890034547
-0.00551232070093458,-0.1540783495462456
-0.005511980700934579,-0.1472652430910523
-0.005511640700934579,-0.1418015925037958
-0.00551130070093458,-0.1380165333620217
-0.005510960700934579,-0.1332440674876109
-0.005510620700934579,-0.1294919219035914
-0.00551028070093458,-0.1258385169928356
-0.005509940700934579,-0.1237649628542985
-0.005509600700934579,-0.1241928391051077
-0.00550926070093458,-0.1155694869734138
-0.005508920700934579,-0.1102045770594123
-0.005508580700934579,-0.1054650247427647
-0.00550824070093458,-0.1037535197395278
-0.005507900700934579,-0.1034243841619716
-0.005507560700934579,-0.09759868443942557
-0.00550722070093458,-0.09210212029441453
-0.005506880700934579,-0.08732965441999939
-0.005506540700934579,-0.08492696470392108
-0.00550620070093458,-0.0840712122023026
-0.005505860700934579,-0.08081276998459487
-0.005505520700934579,-0.07719227863160016
-0.00550518070093458,-0.07623778545671803
-0.005504840700934579,-0.0750528973775466
-0.005504500700934579,-0.07100452977374344
-0.00550416070093458,-0.0685689264999062
-0.005503820700934579,-0.06590292832178177
-0.005503480700934579,-0.06297362168163151
-0.00550314070093458,-0.06215078273776757
-0.005502800700934579,-0.06083424042758098
-0.005502460700934579,-0.05846446426925718
-0.00550212070093458,-0.05836572359599351
-0.005501780700934579,-0.05826698292272774
-0.005501440700934579,-0.05711500840132033
-0.00550110070093458,-0.05543641695583792
-0.005500760700934579,-0.05530476272481671
-0.005500420700934579,-0.05365908483709184
-0.00550008070093458,-0.05257293743119146
-0.00549974070093458,-0.05030190194613114
-0.005499400700934579,-0.0502360748306179
-0.00549906070093458,-0.05135513579427285
-0.00549872070093458,-0.04381793106849297
-0.005498380700934579,-0.04131650067913292
-0.00549804070093458,-0.03851884826999557
-0.00549770070093458,-0.03950625500263048
-0.005497360700934579,-0.04217225318075141
-0.00549702070093458,-0.03858467538550468
-0.00549668070093458,-0.03802514490367823
-0.005496340700934579,-0.04190894471871495
-0.005496000700934579,-0.04187603116096039
-0.00549566070093458,-0.04246847520054135
-0.005495320700934579,-0.04246847520054242
-0.005494980700934579,-0.04046074817751444
-0.00549464070093458,-0.03976956346467
-0.005494300700934579,-0.0400328719267052
-0.005493960700934579,-0.0365769483624767
-0.00549362070093458,-0.03473378912822486
-0.005493280700934579,-0.03338433326028466
-0.005492940700934579,-0.02410270997349956
-0.00549260070093458,-0.02996132325380006
-0.005492260700934579,-0.03048794017788364
-0.005491920700934579,-0.02769028776874628
-0.00549158070093458,-0.02663705392060237
-0.005491240700934579,-0.02690036238263691
-0.005490900700934579,-0.02380648795370854
-0.00549056070093458,-0.02239120497026259
-0.005490220700934579,-0.02225955073924436
-0.005489880700934579,-0.02137088467987132
-0.00548954070093458,-0.02143671179538043
-0.005489200700934579,-0.02100883554457119
-0.005488860700934579,-0.02745989286446438
-0.00548852070093458,-0.02117340333334397
-0.005488180700934579,-0.01893528140602912
-0.005487840700934579,-0.01620345611240585
-0.00548750070093458,-0.01528187649527825
-0.005487160700934579,-0.02002142881193591
-0.005486820700934579,-0.02081135419804385
-0.00548648070093458,-0.01850740515522485
-0.005486140700934579,-0.0210746626600824
-0.005485800700934579,-0.0222266371814898
-0.00548546070093458,-0.02008725592744359
-0.005485120700934579,-0.02104174910232814
-0.005484780700934579,-0.02235829141250803
-0.00548444070093458,-0.0213050575643622
-0.005484100700934579,-0.01900110852154434
-0.005483760700934579,-0.01962646611887979
-0.00548342070093458,-0.01870488650175219
-0.005483080700934579,-0.01834283736645404
-0.005482740700934579,-0.01942898477235245
-0.00548240070093458,-0.01725668996055168
-0.005482060700934579,-0.0184086644819625
-0.005481720700934579,-0.01913276275256143
-0.00548138070093458,-0.01959355256112523
-0.005481040700934579,-0.01781622044238226
-0.005480700700934579,-0.01952772544561612
-0.00548036070093458,-0.01844157803971573
-0.005480020700934579,-0.01903402207929812
-0.005479680700934579,-0.0192315034258251
-0.00547934070093458,-0.01903402207929776
-0.00547900070093458,-0.01909984919480676
-0.005478660700934579,-0.02018599660070726
-0.00547832070093458,-0.0243001913200269
-0.00547798070093458,-0.0160388883236481
-0.005477640700934579,-0.01422864264713243
-0.00547730070093458,-0.01952772544561612
-0.00547696070093458,-0.01883654073277168
-0.005476620700934579,-0.01712503572953345
-0.00547628070093458,-0.01794787467339738
-0.00547594070093458,-0.01705920861402595
-0.005475600700934579,-0.01620345611240585
-0.005475260700934579,-0.01719086284504256
-0.00547492070093458,-0.01577557986159918
-0.005474580700934579,-0.01468943245569622
-0.005474240700934579,-0.01541353072629648
-0.00547390070093458,-0.01590723409261394
-0.005473560700934579,-0.01482108668671445
-0.005473220700934579,-0.01538061716854192
-0.00547288070093458,-0.01505148159099695
-0.005472540700934579,-0.01511730870650547
-0.005472200700934579,-0.01584140697710572
-0.00547186070093458,-0.01442612399366234
-0.005471520700934579,-0.01353745793428673
-0.005471180700934579,-0.01491982735997812
-0.00547084070093458,-0.01574266630384056
-0.005470500700934579,-0.01393242062734141
-0.005470160700934579,-0.01544644428405104
-0.00546982070093458,-0.01554518495731471
-0.005469480700934579,-0.01554518495731471
-0.005469140700934579,-0.01692755438300611
-0.00546880070093458,-0.01459069178243255
-0.005468460700934579,-0.01399824774285052
-0.005468120700934579,-0.01561101207282382
-0.00546778070093458,-0.01357037149204128
-0.005467440700934579,-0.01166138514227697
-0.005467100700934579,-0.0124842240861409
-0.00546676070093458,-0.01218800206634988
-0.005466420700934579,-0.01696046794076342
-0.005466080700934579,-0.01847449159747029
-0.00546574070093458,-0.01491982735997812
-0.005465400700934579,-0.01478817312896223
-0.005465060700934579,-0.01607180188138762
-0.00546472070093458,-0.01801370178890649
-0.005464380700934579,-0.01659841880546041
-0.005464040700934579,-0.01653259168995142
-0.00546370070093458,-0.01768456621136092
-0.005463360700934579,-0.01761873909585055
-0.005463020700934579,-0.01692755438300611
-0.00546268070093458,-0.01649967813219686
-0.005462340700934579,-0.01613762899689464
-0.005462000700934579,-0.01498565447548724
-0.00546166070093458,-0.01482108668671445
-0.005461320700934579,-0.01600597476587623
-0.005460980700934579,-0.01475525957120534
-0.00546064070093458,-0.01649967813219686
-0.005460300700934579,-0.01788204755788773
-0.005459960700934579,-0.01758582553809725
-0.00545962070093458,-0.01577557986159661
-0.005459280700934579,-0.01600597476587612
-0.005458940700934579,-0.01468943245569622
-0.00545860070093458,-0.01534770361078737
-0.005458260700934579,-0.0142944697626425
-0.005457920700934579,-0.01482108668671445
-0.00545758070093458,-0.01834283736645206
-0.00545724070093458,-0.01284627322145103
-0.005456900700934579,-0.01054232417862203
-0.00545656070093458,-0.009851139465776329
-0.00545622070093458,-0.01455777822466943
-0.005455880700934579,-0.01821118313543383
-0.00545554070093458,-0.01696046794076066
-0.00545520070093458,-0.01643385101668871
-0.005454860700934579,-0.01794787467339738
-0.00545452070093458,-0.01686172726749699
-0.00545418070093458,-0.01742125774932345
-0.005453840700934579,-0.01567683918833294
-0.005453500700934579,-0.01330706303000483
-0.00545316070093458,-0.01330706303000483
-0.005452820700934579,-0.01333997658775938
-0.005452480700934579,-0.01324123591449571
-0.00545214070093458,-0.015709752746083
-0.005451800700934579,-0.01561101207282382
-0.005451460700934579,-0.01436029687815065
-0.00545112070093458,-0.01521604937976758
-0.005450780700934579,-0.01538061716854192
-0.005450440700934579,-0.01422864264713243
-0.00545010070093458,-0.01491982735997687
-0.005449760700934579,-0.01498565447548724
-0.005449420700934579,-0.01528187649527825
-0.00544908070093458,-0.01557809851506873
-0.005448740700934579,-0.007580103980711889
-0.005448400700934579,-0.01659841880546054
-0.00544806070093458,-0.01666424592096965
-0.005447720700934579,-0.01913276275256143
-0.005447380700934579,-0.02143671179538043
-0.00544704070093458,-0.01728960351830624
-0.005446700700934579,-0.01301084101021381
-0.005446360700934579,-0.01215508850859533
-0.00544602070093458,-0.009818225908021772
-0.005445680700934579,-0.01284627322144444
-0.005445340700934579,-0.01472234601345078
-0.00544500070093458,-0.01060815129413114
-0.005444660700934579,-0.01199052071982404
-0.005444320700934579,-0.01281335966368647
-0.00544398070093458,-0.01120059533371317
-0.005443640700934579,-0.01287918677919582
-0.005443300700934579,-0.01301084101021381
-0.00544296070093458,-0.01215508850859533
-0.005442620700934579,-0.01314249524123874
-0.005442280700934579,-0.01682881370974244
-0.00544194070093458,-0.01715794928728801
-0.005441600700934579,-0.01574266630384247
-0.005441260700934579,-0.01597306120812395
-0.00544092070093458,-0.01620345611240585
-0.005440580700934579,-0.01794787467339517
-0.005440240700934579,-0.01673007303647877
-0.00543990070093458,-0.01436029687815065
-0.005439560700934579,-0.01495274091773801
-0.005439220700934579,-0.01788204755788826
-0.00543888070093458,-0.01765165265360636
-0.005438540700934579,-0.01597306120812467
-0.005438200700934579,-0.01636802390117864
-0.00543786070093458,-0.01686172726749699
-0.005437520700934579,-0.017684566211362
-0.005437180700934579,-0.01827701025094295
-0.00543684070093458,-0.01890236784827953
-0.00543650070093458,-0.01222091562411659
-0.005436160700934579,-0.01389950706958685
-0.00543582070093458,-0.01419572908937787
-0.00543548070093458,-0.01291210033695248
-0.005435140700934579,-0.01544644428405104
-0.00543480070093458,-0.01653259168995142
-0.00543446070093458,-0.01383367995408265
-0.005434120700934579,-0.0140969884161142
-0.00543378070093458,-0.01399824774285052
-0.00543344070093458,-0.01278044610593413
-0.005433100700934579,-0.01330706303000483
-0.005432760700934579,-0.01482108668671445
-0.00543242070093458,-0.01350454437653456
-0.005432080700934579,-0.01136516312248596
-0.005431740700934579,-0.01439321043590521
-0.00543140070093458,-0.01422864264713273
-0.005431060700934579,-0.0124842240861409
-0.005430720700934579,-0.01192469360431343
-0.00543038070093458,-0.01281335966368485
-0.005430040700934579,-0.01465651889794167
-0.005429700700934579,-0.01485400024446901
-0.00542936070093458,-0.01538061716854097
-0.005429020700934579,-0.01626928322791496
-0.005428680700934579,-0.02021891015846182
-0.00542834070093458,-0.01985686102316235
-0.005428000700934579,-0.01768456621136092
-0.005427660700934579,-0.01738834419156991
-0.00542732070093458,-0.01758582553809725
-0.005426980700934579,-0.01626928322791496
-0.005426640700934579,-0.01877071361726131
-0.00542630070093458,-0.01561101207282382
-0.005425960700934579,-0.009357436099457973
-0.005425620700934579,-0.01103602754494038
-0.00542528070093458,-0.0108714597561676
-0.005424940700934579,-0.01333997658775938
-0.005424600700934579,-0.01462360534018711
-0.00542426070093458,-0.0143273833203961
-0.005423920700934579,-0.0154135307262966
-0.005423580700934579,-0.01547935784180559
-0.00542324070093458,-0.01610471543914218
-0.005422900700934579,-0.01544644428405289
-0.005422560700934579,-0.01646676457444231
-0.00542222070093458,-0.01722377640279712
-0.005421880700934579,-0.01574266630383642
-0.005421540700934579,-0.01264879187491368
-0.00542120070093458,-0.0131754087989866
-0.005420860700934579,-0.01317540879898247
-0.005420520700934579,-0.01090437331392216
-0.00542018070093458,-0.01192469360431343
-0.005419840700934579,-0.0117272122577898
-0.005419500700934579,-0.01376785283856862
-0.00541916070093458,-0.01498565447548724
-0.005418820700934579,-0.01669715947872086
-0.005418480700934579,-0.01485400024446901
-0.00541814070093458,-0.01643385101668775
-0.005417800700934579,-0.01732251707605612
-0.005417460700934579,-0.01475525957120534
-0.00541712070093458,-0.01554518495731471
-0.005416780700934579,-0.01574266630384217
-0.005416440700934579,-0.01580849341935116
-0.00541610070093458,-0.01867197294399764
-0.005415760700934579,-0.01426155620488165
-0.005415420700934579,-0.0113322495647314
-0.00541508070093458,-0.009818225908021772
-0.00541474070093458,-0.01018027504332124
-0.005414400700934579,-0.01199052071982254
