Analysis/New Tests_CMB/wrd01_d2s01/cmb03_take2/cmb03_ch05.csv

#Digilent WaveForms Oscilloscope Acquisition
#Device Name: ADP3450
#Serial Number: SN:210018B9D9B0
#Date Time: 2024-08-08 12:57:34.008.942.310
#Sample rate: 2.94118e+06Hz
#Samples: 32768
#Trigger: Source: Channel 3 Type: Edge Condition: Rising Level: 60 mV Hyst.: Auto HoldOff: 0 s
#Channel 3: Range: 200 mV/div Offset: 0 V Attenuation: 1 X Coupling: DC Bandwidth: 0 Hz Sample Mode: Average

Time (s),Channel 3 (V)
-0.005570285780885782,0.006013195371920196
-0.005569945780885781,0.006934774989046179
-0.005569605780885781,0.006046108929674754
-0.005569265780885782,0.005947368256411082
-0.005568925780885781,0.005354924216826001
-0.005568585780885781,0.003676332771346642
-0.005568245780885782,0.004071295464401327
-0.005567905780885781,0.002985148058505911
-0.005567565780885781,0.005716973352129182
-0.005567225780885782,0.004927047966019811
-0.005566885780885781,0.004762480177246907
-0.005566545780885781,0.004696653061737912
-0.005566205780885782,0.00482830729275614
-0.005565865780885781,-0.001030305987544967
-0.005565525780885781,0.004499171715210569
-0.005565185780885782,0.01203637644100415
-0.005564845780885781,0.00785635460617258
-0.005564505780885781,0.00630941739171121
-0.005564165780885782,0.0003849769958909309
-0.005563825780885781,0.0004508041114057327
-0.005563485780885781,0.00357759209808297
-0.005563145780885782,0.004597912388474241
-0.005562805780885782,0.001833173537096473
-0.005562465780885781,0.001602778632809544
-0.005562125780885782,0.002063568441373343
-0.005561785780885782,-4.289925491448004e-05
-0.005561445780885781,-9.985697163754359e-06
-0.005561105780885782,-0.0009644788720459105
-0.005560765780885782,-0.002149366951207811
-0.005560425780885781,-0.003400082145883136
-0.005560085780885782,-0.00188605848917351
-0.005559745780885782,-0.00188605848917351
-0.005559405780885781,-0.001392355122855153
-0.005559065780885782,-0.001096133103064139
-0.005558725780885782,-0.002116453393453554
-0.005558385780885781,-0.0003391212747093254
-0.005558045780885782,0.0008786803622092876
-0.005557705780885782,0.0007799396889457958
-0.005557365780885781,-0.002248107624473638
-0.005557025780885782,-0.002972205895073894
-0.005556685780885782,-0.002873465221810402
-0.005556345780885781,-0.003992526185465165
-0.005556005780885782,-0.00290637877956478
-0.005555665780885782,-0.006757265036840957
-0.005555325780885781,-0.009028300521912402
-0.005554985780885782,0.0005824583424182735
-0.005554645780885782,-0.001293614449588069
-0.005554305780885781,-0.007020573498884419
-0.005553965780885782,-0.005802771861965805
-0.005553625780885782,-0.005276154937892892
-0.005553285780885781,-0.005473636284420234
-0.005552945780885781,-0.005374895611156563
-0.005552605780885782,-0.005835685419720362
-0.005552265780885781,-0.00767884465397556
-0.005551925780885781,-0.006066080324002262
-0.005551585780885782,-0.003795044838937822
-0.005551245780885781,-0.006263561670530802
-0.005550905780885781,-0.006921832825620747
-0.005550565780885782,-0.006592697248075176
-0.005550225780885781,-0.005407809168909503
-0.005549885780885781,-0.004519143109538078
-0.005549545780885782,-0.003531736376901365
-0.005549205780885781,-0.003400082145880742
-0.005548865780885781,-0.002083539835700852
-0.005548525780885782,0.0007799396889456162
-0.005548185780885781,-9.985697166328745e-06
-0.005547845780885781,-0.00142526868060971
-0.005547505780885782,-0.002281021182228195
-0.005547165780885781,-0.003038033010588217
-0.005546825780885781,-0.005901512535229476
-0.005546485780885782,-0.007382622634184546
-0.005546145780885781,-0.007185141287660257
-0.005545805780885781,-0.008863732733139616
-0.005545465780885782,-0.007349709076429989
-0.005545125780885781,-0.009291608983942332
-0.005544785780885781,-0.005704031188702134
-0.005544445780885782,-0.005341982053402005
-0.005544105780885781,-0.002182280508960991
-0.005543765780885781,-0.0002403806014456541
-0.005543425780885782,-0.005901512535229476
-0.005543085780885781,-0.004486229551780229
-0.005542745780885781,-0.00267598387528288
-0.005542405780885782,-0.003169687241601236
-0.005542065780885782,-0.004716624456062607
-0.005541725780885781,-0.006263561670529605
-0.005541385780885782,-0.007711758211730118
-0.005541045780885782,-0.007448449749694139
-0.005540705780885781,-0.008304202251312145
-0.005540365780885782,-0.009423263214967087
-0.005540025780885782,-0.008007980231523706
-0.005539685780885781,-0.006559783690320619
-0.005539345780885782,-0.003827958396692379
-0.005539005780885782,-0.0006024297367516495
-0.005538665780885781,-0.003465909261392251
-0.005538325780885782,-0.00244558897100098
-0.005537985780885782,-0.001392355122857069
-0.005537645780885781,-0.003169687241601236
-0.005537305780885782,-0.006856005710111633
-0.005536965780885782,-0.006954746383375125
-0.005536625780885781,-0.00860042427110316
-0.005536285780885782,-0.008435856482330374
-0.005535945780885782,-0.009489090330474285
-0.005535605780885781,-0.00939034965721253
-0.005535265780885782,-0.0106410648518857
-0.005534925780885782,-0.01054232417862221
-0.005534585780885781,-0.01478817312895989
-0.005534245780885782,-0.008172548020293918
-0.005533905780885782,-0.007382622634185983
-0.005533565780885781,-0.005638204073193019
-0.005533225780885782,-0.006362302343793276
-0.005532885780885782,-0.0108714597561676
-0.005532545780885781,-0.008073807347030245
-0.005532205780885781,-0.006098993881756819
-0.005531865780885782,-0.007349709076429989
-0.005531525780885781,-0.007415536191939104
-0.005531185780885781,-0.007250968403166318
-0.005530845780885782,-0.007250968403166318
-0.005530505780885781,-0.00586859897747492
-0.005530165780885781,-0.006263561670529605
-0.005529825780885782,-0.006362302343793276
-0.005529485780885781,-0.004848278687083709
-0.005529145780885781,-0.004881192244838206
-0.005528805780885782,-0.006296475228284162
-0.005528465780885781,-0.00596733965073907
-0.005528125780885781,-0.006230648112775047
-0.005527785780885782,-0.008271288693557588
-0.005527445780885781,-0.006757265036846345
-0.005527105780885781,-0.00586859897747492
-0.005526765780885782,-0.00688891926786619
-0.005526425780885781,-0.007053487056636521
-0.005526085780885781,-0.005704031188702134
-0.005525745780885782,-0.009653658119248986
-0.005525405780885781,-0.009390349657211094
-0.005525065780885781,-0.00860042427110316
-0.005524725780885782,-0.01001570725454911
-0.005524385780885781,-0.01116768177596436
-0.005524045780885781,-0.0143273833203961
-0.005523705780885782,-0.008896646290894173
-0.005523365780885781,-0.0135374579342987
-0.005523025780885781,-0.02012016948519815
-0.005522685780885782,-0.03410843153088492
-0.005522345780885781,-0.05020316127292405
-0.005522005780885781,-0.08357750883598425
-0.005521665780885782,-0.1106982804257393
-0.005521325780885781,-0.1442371957776866
-0.005520985780885781,-0.1737277435257162
-0.005520645780885782,-0.2007497744422076
-0.005520305780885782,-0.2243817089099366
-0.005519965780885781,-0.2411347098070491
-0.005519625780885782,-0.2521607516548258
-0.005519285780885782,-0.2592700801297972
-0.005518945780885781,-0.2610144986908016
-0.005518605780885782,-0.2573281802222912
-0.005518265780885782,-0.253608948196033
-0.005517925780885781,-0.2461704841434964
-0.005517585780885782,-0.237580045569557
-0.005517245780885782,-0.2290225205533877
-0.005516905780885781,-0.2201029464018871
-0.005516565780885782,-0.2124011738873208
-0.005516225780885782,-0.2053576725278584
-0.005515885780885781,-0.2006181202111893
-0.005515545780885782,-0.1915339782709316
-0.005515205780885782,-0.1846879582579962
-0.005514865780885781,-0.1800471466145911
-0.005514525780885782,-0.1750113722781439
-0.005514185780885782,-0.1713579673673947
-0.005513845780885781,-0.1691198454400782
-0.005513505780885782,-0.1576988408992469
-0.005513165780885782,-0.1505895124242755
-0.005512825780885781,-0.1474627244375796
-0.005512485780885782,-0.1380494469197763
-0.005512145780885782,-0.1345276962400387
-0.005511805780885781,-0.1297223168078733
-0.005511465780885781,-0.1230079510259437
-0.005511125780885782,-0.1177417817852145
-0.005510785780885781,-0.1118831685049034
-0.005510445780885781,-0.1075056653235473
-0.005510105780885782,-0.1049384078186918
-0.005509765780885781,-0.1050042349342009
-0.005509425780885781,-0.1017457927164998
-0.005509085780885782,-0.09707206751535266
-0.005508745780885781,-0.09749994376615881
-0.005508405780885781,-0.09578843876292495
-0.005508065780885782,-0.09062101019545948
-0.005507725780885781,-0.08647390191837845
-0.005507385780885781,-0.08272175633436576
-0.005507045780885782,-0.07933165988564639
-0.005506705780885781,-0.07841008026851333
-0.005506365780885781,-0.07541494651285408
-0.005506025780885782,-0.07162988737108003
-0.005505685780885781,-0.06909554342398048
-0.005505345780885781,-0.06985255525233394
-0.005505005780885782,-0.0662649774570872
-0.005504665780885781,-0.06323693014366485
-0.005504325780885781,-0.06152542514043099
-0.005503985780885782,-0.06011014215698503
-0.005503645780885781,-0.05928730321312356
-0.005503305780885781,-0.06063675908105794
-0.005502965780885782,-0.05280333233547335
-0.005502625780885781,-0.04809669357657032
-0.005502285780885781,-0.04733968174821687
-0.005501945780885782,-0.04842582915411726
-0.005501605780885781,-0.04747133597922912
-0.005501265780885781,-0.04417998020377939
-0.005500925780885782,-0.04299509212461534
-0.005500585780885781,-0.0441141530882662
-0.005500245780885781,-0.04187603116096039
-0.005499905780885782,-0.04398249885725205
-0.005499565780885782,-0.0385846753855145
-0.005499225780885781,-0.03868341605876836
-0.005498885780885782,-0.04325840058665179
-0.005498545780885782,-0.03891381096305816
-0.005498205780885781,-0.03568828230310366
-0.005497865780885782,-0.03700482461328594
-0.005497525780885782,-0.03608324499616002
-0.005497185780885781,-0.03430591287741226
-0.005496845780885782,-0.03262732143192985
-0.005496505780885782,-0.02617626411204839
-0.005496165780885781,-0.02874352161689211
-0.005495825780885782,-0.03348307393354833
-0.005495485780885782,-0.02769028776875682
-0.005495145780885781,-0.02459641333981791
-0.005494805780885782,-0.0254521658414364
-0.005494465780885782,-0.02518885737940042
-0.005494125780885781,-0.02018599660070726
-0.005493785780885782,-0.02229246429699892
-0.005493445780885782,-0.02219372362373543
-0.005493105780885781,-0.02193041516169879
-0.005492765780885782,-0.02216081006598069
-0.005492425780885782,-0.02278616766331613
-0.005492085780885781,-0.02133797112211676
-0.005491745780885782,-0.02051513217825283
-0.005491405780885782,-0.02117340333334278
-0.005491065780885781,-0.01975812034989802
-0.005490725780885782,-0.02054804573600739
-0.005490385780885782,-0.02110757621783486
-0.005490045780885781,-0.01985686102316169
-0.005489705780885781,-0.02127214400660764
-0.005489365780885782,-0.02189750160394423
-0.005489025780885781,-0.01949481188786156
-0.005488685780885781,-0.01909984919480688
-0.005488345780885782,-0.01880362717501586
-0.005488005780885781,-0.0165655052477073
-0.005487665780885781,-0.01728960351830624
-0.005487325780885782,-0.02117340333334397
-0.005486985780885781,-0.015183135822008
-0.005486645780885781,-0.0115626444690133
-0.005486305780885782,-0.01218800206634988
-0.005485965780885781,-0.01199052071982943
-0.005485625780885781,-0.01577557986159661
-0.005485285780885782,-0.01534770361078737
-0.005484945780885781,-0.01231965629736949
-0.005484605780885781,-0.01307666812572293
-0.005484265780885782,-0.01452486466692344
-0.005483925780885781,-0.01495274091772927
-0.005483585780885781,-0.01307666812572293
-0.005483245780885782,-0.01370202572305951
-0.005482905780885781,-0.01758582553809025
-0.005482565780885781,-0.01373493928081407
-0.005482225780885782,-0.01307666812572293
-0.005481885780885781,-0.01225382918185714
-0.005481545780885781,-0.01123350889146773
-0.005481205780885782,-0.01031192927434013
-0.005480865780885781,-0.01064106485188313
-0.005480525780885781,-0.009225781868439744
-0.005480185780885782,-0.0104106699476038
-0.005479845780885781,-0.00600025320849644
-0.005479505780885781,-0.007810498884993789
-0.005479165780885782,-0.008238375135803031
-0.005478825780885782,-0.01149681735349826
-0.005478485780885781,-0.01004862081230367
-0.005478145780885782,-0.01014736148556734
-0.005477805780885782,-0.01162847158451972
-0.005477465780885781,-0.01126642244922228
-0.005477125780885782,-0.01215508850859533
-0.005476785780885782,-0.01656550524769796
-0.005476445780885781,-0.009719485234758102
-0.005476105780885782,-0.008205461578048474
-0.005475765780885782,-0.008106720904784983
-0.005475425780885781,-0.009884053023530886
-0.005475085780885782,-0.01192469360431343
-0.005474745780885782,-0.009653658119253117
-0.005474405780885781,-0.008896646290894173
-0.005474065780885782,-0.00860042427110316
-0.005473725780885782,-0.0093245225417021
-0.005473385780885781,-0.01011444792781279
-0.005473045780885782,-0.01106894110269494
-0.005472705780885782,-0.01001570725455103
-0.005472365780885781,-0.008567510713348603
-0.005472025780885782,-0.007448449749693661
-0.005471685780885782,-0.009982793696789949
-0.005471345780885781,-0.01222091562410444
-0.005471005780885782,-0.009522003888230759
-0.005470665780885782,-0.009489090330476261
-0.005470325780885781,-0.01182595293104976
-0.005469985780885782,-0.01116768177595861
-0.005469645780885782,-0.01021318860107646
-0.005469305780885781,-0.00939034965721253
-0.005468965780885781,-0.008896646290894173
-0.005468625780885782,-0.009818225908021772
-0.005468285780885781,-0.01011444792781279
-0.005467945780885781,-0.008929559848648731
-0.005467605780885782,-0.00688891926786619
-0.005467265780885781,-0.008797905617630502
-0.005466925780885781,-0.01014736148556734
-0.005466585780885782,-0.01383367995407774
-0.005466245780885781,-0.008764992059871695
-0.005465905780885781,-0.006428129459302391
-0.005465565780885782,-0.006362302343793276
-0.005465225780885781,-0.00711931417215252
-0.005464885780885781,-0.009554917445985316
-0.005464545780885782,-0.008271288693557588
-0.005464205780885781,-0.006263561670533077
-0.005463865780885781,-0.008172548020293918
-0.005463525780885782,-0.006987659941129861
-0.005463185780885781,-0.002939292337320115
-0.005462845780885781,-0.00336716858812858
-0.005462505780885782,-0.003630477050165036
-0.005462165780885781,-0.004914105802591925
-0.005461825780885781,-0.004453315994028964
-0.005461485780885782,-0.005835685419720362
-0.005461145780885781,-0.007415536191943175
-0.005460805780885781,-0.009653658119248986
-0.005460465780885782,-0.00837002936682126
-0.005460125780885781,-0.00731679551867657
-0.005459785780885781,-0.007942153116012016
-0.005459445780885782,-0.00767884465397556
-0.005459105780885781,-0.006263561670530383
-0.005458765780885781,-0.006691437921338847
-0.005458425780885782,-0.007020573498884419
-0.005458085780885781,-0.006131907439514968
-0.005457745780885781,-0.008106720904784802
-0.005457405780885782,-0.008468770040084931
-0.005457065780885782,-0.006428129459306103
-0.005456725780885781,-0.008764992059875945
-0.005456385780885782,-0.01047649706311291
-0.005456045780885782,-0.01357037149203565
-0.005455705780885781,-0.00688891926786619
-0.005455365780885782,-0.006395215901547833
-0.005455025780885782,-0.004947019360349954
-0.005454685780885781,-0.005045760033610991
-0.005454345780885782,-0.008666251386612273
-0.005454005780885782,-0.006658524363587942
-0.005453665780885781,-0.003202600799355794
-0.005453325780885782,-0.004584970225047193
-0.005452985780885782,-0.004157093974238728
-0.005452645780885781,-0.003465909261392251
-0.005452305780885782,-0.004782451571574535
-0.005451965780885782,-0.004947019360347021
-0.005451625780885781,-0.007448449749693661
-0.005451285780885782,-0.006987659941129861
-0.005450945780885782,-0.007218054845411342
-0.005450605780885781,-0.006362302343793276
-0.005450265780885782,-0.01004862081230367
-0.005449925780885782,-0.008468770040087805
-0.005449585780885781,-0.005374895611156563
-0.005449245780885782,-0.005638204073193019
-0.005448905780885782,-0.005243241380139052
-0.005448565780885781,-0.005309068495647449
-0.005448225780885782,-0.004979932918101878
-0.005447885780885782,-0.005736944746456691
-0.005447545780885781,-0.005835685419720362
-0.005447205780885781,-0.007250968403166318
-0.005446865780885782,-0.008238375135803031
-0.005446525780885781,-0.007382622634184546
-0.005446185780885781,-0.008468770040084931
-0.005445845780885782,-0.0108714597561676
-0.005445505780885781,-0.01333997658774549
-0.005445165780885781,-0.005704031188702134
-0.005444825780885782,-0.006691437921338847
-0.005444485780885781,-0.005012846475856016
-0.005444145780885781,-0.004782451571574535
-0.005443805780885782,-0.009324522541703417
-0.005443465780885781,-0.008238375135798361
-0.005443125780885781,-0.005671117630947577
-0.005442785780885782,-0.007613017538466446
-0.005442445780885781,-0.008666251386611794
-0.005442105780885781,-0.008402942924575817
-0.005441765780885782,-0.008205461578048474
-0.005441425780885781,-0.008435856482327858
-0.005441085780885781,-0.007053487056638975
-0.005440745780885782,-0.006625610805829733
-0.005440405780885781,-0.006823092152360069
-0.005440065780885781,-0.008468770040084931
-0.005439725780885782,-0.008304202251312145
-0.005439385780885781,-0.007678844653973225
-0.005439045780885781,-0.006395215901547833
-0.005438705780885782,-0.008402942924575817
-0.005438365780885781,-0.00988405302352879
-0.005438025780885781,-0.008732078502121389
-0.005437685780885782,-0.008797905617630502
-0.005437345780885781,-0.0103448428320808
-0.005437005780885781,-0.002708897433037437
-0.005436665780885782,-0.007250968403166318
-0.005436325780885782,-0.009785312350262605
-0.005435985780885781,-0.00860042427110316
-0.005435645780885782,-0.00869916494436683
-0.005435305780885782,-0.01353745793427793
-0.005434965780885781,-0.00767884465397556
-0.005434625780885782,-0.0002732941592002112
-0.005434285780885782,-0.006296475228273205
-0.005433945780885781,-0.007283881960920875
-0.005433605780885782,-0.004519143109538078
-0.005433265780885782,-0.005671117630945481
-0.005432925780885781,-0.006066080324002262
-0.005432585780885782,-0.008962473406403288
-0.005432245780885782,-0.007645931096223398
-0.005431905780885781,-0.007777585327239231
-0.005431565780885782,-0.007645931096221003
-0.005431225780885782,-0.008007980231520473
-0.005430885780885781,-0.008172548020293918
-0.005430545780885782,-0.008896646290894173
-0.005430205780885782,-0.009061214079666658
-0.005429865780885781,-0.008534597155594046
-0.005429525780885782,-0.00540780916891112
-0.005429185780885782,-0.005736944746456092
-0.005428845780885781,-0.007218054845411761
-0.005428505780885782,-0.006362302343793276
-0.005428165780885782,-0.004815365129331906
-0.005427825780885781,-0.005473636284420234
-0.005427485780885782,-0.005144500706874663
-0.005427145780885782,-0.005078673591365549
-0.005426805780885781,-0.005967339650738591
-0.005426465780885781,-0.004881192244838206
-0.005426125780885782,-0.005605290515438462
-0.005425785780885781,-0.008732078502121389
-0.005425445780885781,-0.01011444792781279
-0.005425105780885782,-0.008830819175385059
-0.005424765780885781,-0.01060815129413114
-0.005424425780885781,-0.01403116130060508
-0.005424085780885782,-0.01146390379574963
-0.005423745780885781,-0.01162847158452104
-0.005423405780885781,-0.0108714597561676
-0.005423065780885782,-0.01097020042943127
-0.005422725780885781,-0.01156264446901252
-0.005422385780885781,-0.01113476821820406
-0.005422045780885782,-0.00837002936682126
-0.005421705780885781,-0.00820546157805015
-0.005421365780885781,-0.009127041195176074
-0.005421025780885782,-0.007481363307448217
-0.005420685780885781,-0.006757265036849459
-0.005420345780885781,-0.007580103980711889
-0.005420005780885782,-0.009785312350267215
-0.005419665780885781,-0.006395215901551245
-0.005419325780885781,-0.008271288693557588
-0.005418985780885782,-0.004288748205256179
-0.005418645780885781,-0.004683710898319665
-0.005418305780885781,-0.009522003888230759
-0.005417965780885782,-0.008106720904784802
-0.005417625780885781,-0.005045760033612488
-0.005417285780885781,-0.00586859897747492
