Analysis/New Tests_CMB/wrd01_d2s01/cmb03_take2/cmb03_ch11.csv

#Digilent WaveForms Oscilloscope Acquisition
#Device Name: ADP3450
#Serial Number: SN:210018B9D9B0
#Date Time: 2024-08-08 13:00:11.792.162.040
#Sample rate: 2.94118e+06Hz
#Samples: 32768
#Trigger: Source: Channel 3 Type: Edge Condition: Rising Level: 60 mV Hyst.: Auto HoldOff: 0 s
#Channel 3: Range: 200 mV/div Offset: 0 V Attenuation: 1 X Coupling: DC Bandwidth: 0 Hz Sample Mode: Average

Time (s),Channel 3 (V)
-0.005570382224969098,0.009699513840430593
-0.005570042224969098,0.008317144414738414
-0.005569702224969098,0.007889268163929951
-0.005569362224969098,0.006737293642520453
-0.005569022224969098,0.006934774989048394
-0.005568682224969098,0.007263910566593366
-0.005568342224969098,0.005420751332338168
-0.005568002224969098,0.005256183543565383
-0.005567662224969098,0.005256183543565383
-0.005567322224969098,0.003116802289519171
-0.005566982224969098,0.002820580269728995
-0.005566642224969098,0.003281370078291956
-0.005566302224969098,0.003083888731764614
-0.005565962224969098,0.002293963345657039
-0.005565622224969098,0.003281370078291956
-0.005565282224969098,0.0008457668044547304
-0.005564942224969098,-0.002116453393449961
-0.005564602224969098,0.0008786803622092876
-0.005564262224969098,0.006144849602938425
-0.005563922224969098,0.004630825946232389
-0.005563582224969098,0.006605639411502225
-0.005563242224969098,0.005585319121110954
-0.005562902224969099,0.003709246329104611
-0.005562562224969098,0.005223269985810825
-0.005562222224969098,0.003840900560119427
-0.005561882224969099,0.002754753154221018
-0.005561542224969098,0.002623098923200814
-0.005561202224969098,0.001273643055263973
-0.005560862224969099,-0.001524009353868293
-0.005560522224969098,-0.002610156759773766
-0.005560182224969098,2.292786059080275e-05
-0.005559842224969099,-0.0002403806014451752
-0.005559502224969098,-0.000832824641027682
-0.005559162224969098,-0.0008657381987822392
-0.005558822224969099,-4.289925491980824e-05
-0.005558482224969098,0.001141988824245744
-0.005558142224969098,0.00107616170873663
-0.005557802224969099,-0.001129046660814685
-0.005557462224969098,-0.002741810990791994
-0.005557122224969098,-0.001787317815909838
-0.005556782224969099,-0.002741810990790258
-0.005556442224969098,-0.004584970225047193
-0.005556102224969098,-0.004453315994028964
-0.005555762224969099,-0.003893785512202511
-0.005555422224969098,-0.00267598387528288
-0.005555082224969098,-0.002116453393455409
-0.005554742224969099,-0.004058353300970746
-0.005554402224969098,-0.00711931417214809
-0.005554062224969098,0.0025572718076917
-0.005553722224969099,0.004104209022155884
-0.005553382224969098,0.00153695151730043
-0.005553042224969098,0.0009445074777184018
-0.005552702224969099,-0.003334255030374022
-0.005552362224969098,-0.002577243202019209
-0.005552022224969098,-0.003103860126092122
-0.005551682224969099,-0.005901512535229476
-0.005551342224969098,-0.007086400614391257
-0.005551002224969098,-0.005835685419720362
-0.005550662224969099,-0.00517741426462922
-0.005550322224969098,-0.006954746383374466
-0.005549982224969098,-0.006493956574811504
-0.005549642224969099,-0.005210327822383777
-0.005549302224969098,-0.006263561670532538
-0.005548962224969098,-0.007876326000502903
-0.005548622224969098,-0.006724351479093405
-0.005548282224969098,-0.005473636284418857
-0.005547942224969098,-0.004716624456065421
-0.005547602224969098,-0.002873465221810222
-0.005547262224969098,-0.003827958396690703
-0.005546922224969098,-0.00290637877956478
-0.005546582224969098,-0.001293614449591481
-0.005546242224969098,-0.001688577142647724
-0.005545902224969098,-0.002544329644264652
-0.005545562224969098,-0.002281021182228195
-0.005545222224969098,-0.001589836469384651
-0.005544882224969098,-0.002774724548546551
-0.005544542224969098,-0.001458182238364267
-0.005544202224969098,-0.004914105802598391
-0.005543862224969098,-0.008007980231521132
-0.005543522224969098,-0.0007999110832731249
-0.005543182224969098,-0.001589836469380101
-0.005542842224969098,-0.0002732941592002112
-0.005542502224969098,-0.003729217723428708
-0.005542162224969099,-0.006296475228279492
-0.005541822224969098,-0.004716624456065421
-0.005541482224969098,-0.003992526185465165
-0.005541142224969099,-0.003795044838938181
-0.005540802224969098,-0.004058353300974278
-0.005540462224969098,-0.004025439743219721
-0.005540122224969099,-0.003301341472620782
-0.005539782224969098,-0.004091266858728836
-0.005539442224969098,-0.003992526185465165
-0.005539102224969099,-0.00320260079935723
-0.005538762224969098,-0.004584970225047193
-0.005538422224969098,-0.005506549842174791
-0.005538082224969099,-0.003696304165677443
-0.005537742224969098,-0.003992526185465165
-0.005537402224969098,-0.005045760033610991
-0.005537062224969099,-0.004881192244838506
-0.005536722224969098,-0.00494701936034732
-0.005536382224969098,-0.005605290515438462
-0.005536042224969099,-0.004387488878522065
-0.005535702224969098,-0.005374895611156563
-0.005535362224969098,-0.005473636284420234
-0.005535022224969099,-0.004124180416485847
-0.005534682224969098,-0.001129046660818696
-0.005534342224969098,-0.001951885604682624
-0.005534002224969099,-0.0009315653142932092
-0.005533662224969098,-0.004025439743219721
-0.005533322224969098,-0.00494701936034732
-0.005532982224969099,-0.0005695161789912252
-0.005532642224969098,-0.002873465221810222
-0.005532302224969098,-0.003465909261392251
-0.005531962224969099,-0.009785312350267215
-0.005531622224969098,-0.01077271908290393
-0.005531282224969098,-0.01031192927434013
-0.005530942224969099,-0.009324522541703417
-0.005530602224969098,-0.009686571677003543
-0.005530262224969098,-0.01050941062086747
-0.005529922224969099,-0.009818225908021772
-0.005529582224969098,-0.008139634462536785
-0.005529242224969098,-0.006724351479093405
-0.005528902224969099,-0.002116453393455409
-0.005528562224969098,-0.001984799162441012
-0.005528222224969098,-0.004091266858728836
-0.005527882224969098,-0.005572376957683906
-0.005527542224969098,-0.004552056667293114
-0.005527202224969098,-0.004815365129329092
-0.005526862224969098,-0.005309068495647449
-0.005526522224969098,-0.005012846475855896
-0.005526182224969098,-0.004716624456065421
-0.005525842224969098,-0.005012846475856435
-0.005525502224969098,-0.003564649934655384
-0.005525162224969098,-0.003268427914864908
-0.005524822224969098,-0.00336716858812858
-0.005524482224969098,-0.003136773683847398
-0.005524142224969098,-0.003531736376901365
-0.005523802224969098,-0.006625610805829733
-0.005523462224969098,-0.01353745793430253
-0.005523122224969098,-0.0222266371814898
-0.005522782224969098,-0.02726241151793704
-0.005522442224969098,-0.04457494289687725
-0.005522102224969098,-0.06830561803786975
-0.005521762224969098,-0.09430732866396987
-0.005521422224969098,-0.1269904915142966
-0.005521082224969098,-0.1552961511831642
-0.005520742224969098,-0.1830422803702558
-0.005520402224969099,-0.2092085587850811
-0.005520062224969098,-0.2267514850683077
-0.005519722224969098,-0.2406739199984853
-0.005519382224969099,-0.2514366533842059
-0.005519042224969098,-0.2588092903212463
-0.005518702224969098,-0.2560774650276181
-0.005518362224969099,-0.2539380837735757
-0.005518022224969098,-0.2483427789552971
-0.005517682224969098,-0.2438665351006774
-0.005517342224969099,-0.236428071048161
-0.005517002224969098,-0.2269160528570805
-0.005516662224969098,-0.2173052939927498
-0.005516322224969099,-0.2114137671546948
-0.005515982224969098,-0.2038107353133814
-0.005515642224969098,-0.1946936798153691
-0.005515302224969099,-0.1877489191291701
-0.005514962224969098,-0.1823510956574101
-0.005514622224969098,-0.176196260357308
-0.005514282224969099,-0.1705022148657799
-0.005513942224969098,-0.1648081693742312
-0.005513602224969098,-0.1584558527276017
-0.005513262224969099,-0.1537163004109541
-0.005512922224969098,-0.1495362785761167
-0.005512582224969098,-0.1465740583782066
-0.005512242224969099,-0.1343302148935113
-0.005511902224969098,-0.1287678236329912
-0.005511562224969098,-0.1236991357387894
-0.005511222224969099,-0.1183671393825511
-0.005510882224969098,-0.1187291885178512
-0.005510542224969098,-0.1138250684124222
-0.005510202224969099,-0.1091842567690297
-0.005509862224969098,-0.108493072056184
-0.005509522224969098,-0.1049384078186918
-0.005509182224969099,-0.1012520893501814
-0.005508842224969098,-0.0986519182875689
-0.005508502224969098,-0.09726954886188
-0.005508162224969099,-0.09279330500726024
-0.005507822224969098,-0.08953486278955435
-0.005507482224969098,-0.08693469172694906
-0.005507142224969098,-0.0838408172980207
-0.005506802224969098,-0.08173434960171934
-0.005506462224969098,-0.0764023532454908
-0.005506122224969098,-0.07116909756251621
-0.005505782224969098,-0.06952341967478573
-0.005505442224969098,-0.06807522313358785
-0.005505102224969098,-0.06346732504794986
-0.005504762224969098,-0.06034053706126782
-0.005504422224969098,-0.06083424042758529
-0.005504082224969098,-0.05780619311416604
-0.005503742224969098,-0.0550743678205345
-0.005503402224969098,-0.05326412214403715
-0.005503062224969098,-0.05049938329265435
-0.005502722224969098,-0.05017024771511382
-0.005502382224969098,-0.05293498656649159
-0.005502042224969098,-0.05132222223651828
-0.005501702224969098,-0.04394958529949768
-0.005501362224969098,-0.04404832597276116
-0.005501022224969098,-0.04194185827646951
-0.005500682224969098,-0.04125067356362794
-0.005500342224969098,-0.04352170904868825
-0.005500002224969098,-0.03914420586733215
-0.005499662224969099,-0.03776183644164327
-0.005499322224969098,-0.03654403480472215
-0.005498982224969098,-0.03460213489720328
-0.005498642224969099,-0.03154117402603503
-0.005498302224969098,-0.03127786556399301
-0.005497962224969098,-0.03150826046827491
-0.005497622224969099,-0.02861186738587915
-0.005497282224969098,-0.02864478094362844
-0.005496942224969098,-0.02805233690404641
-0.005496602224969099,-0.02597878276551308
-0.005496262224969098,-0.02512303026389083
-0.005495922224969098,-0.0245305862243088
-0.005495582224969099,-0.02268742699005695
-0.005495242224969098,-0.02311530324086284
-0.005494902224969098,-0.02525468449490905
-0.005494562224969099,-0.02344443881841171
-0.005494222224969098,-0.02327987102963563
-0.005493882224969098,-0.02509011670613627
-0.005493542224969099,-0.02479389468634579
-0.005493202224969098,-0.02403688285799044
-0.005492862224969098,-0.02479389468634526
-0.005492522224969099,-0.02344443881841087
-0.005492182224969098,-0.02252285920128081
-0.005491842224969098,-0.02525468449490905
-0.005491502224969099,-0.02044930506275246
-0.005491162224969098,-0.01491982735997812
-0.005490822224969098,-0.01531479005303281
-0.005490482224969099,-0.01399824774285052
-0.005490142224969098,-0.01636802390117864
-0.005489802224969098,-0.01873780005950675
-0.005489462224969099,-0.01603888832363307
-0.005489122224969098,-0.01821118313543383
-0.005488782224969098,-0.01607180188138762
-0.005488442224969099,-0.01636802390117864
-0.005488102224969098,-0.01455777822467871
-0.005487762224969098,-0.01495274091773268
-0.005487422224969099,-0.01498565447548724
-0.005487082224969098,-0.01189178004656145
-0.005486742224969098,-0.01330706303000483
-0.005486402224969099,-0.01518313582201458
-0.005486062224969098,-0.01544644428403487
-0.005485722224969098,-0.006559783690320619
-0.005485382224969098,-0.01465651889794167
-0.005485042224969098,-0.01488691380221884
-0.005484702224969098,-0.01228674273961356
-0.005484362224969098,-0.01093728687167671
-0.005484022224969098,-0.008633337828857297
-0.005483682224969098,-0.008402942924575817
-0.005483342224969098,-0.008337115809066702
-0.005483002224969098,-0.008929559848647593
-0.005482662224969098,-0.008304202251312145
-0.005482322224969098,-0.009423263214967087
-0.005481982224969098,-0.0103777563898499
-0.005481642224969098,-0.01073980552514937
-0.005481302224969098,-0.01419572908937787
-0.005480962224969098,-0.00642812945930269
-0.005480622224969098,-0.006592697248075176
-0.005480282224969098,-0.00540780916891112
-0.005479942224969098,-0.006691437921343098
-0.005479602224969098,-0.009028300521912402
-0.005479262224969098,-0.009456176772721644
-0.005478922224969099,-0.009324522541703656
-0.005478582224969098,-0.007053487056638975
-0.005478242224969098,-0.005638204073193019
-0.005477902224969099,-0.006131907439510478
-0.005477562224969098,-0.007777585327239231
-0.005477222224969098,-0.006823092152357076
-0.005476882224969099,-0.005835685419722158
-0.005476542224969098,-0.004552056667292635
-0.005476202224969098,-0.00665852436358429
-0.005475862224969099,-0.009258695426189571
-0.005475522224969098,-0.006757265036847961
-0.005475182224969098,-0.005671117630947577
-0.005474842224969099,-0.006658524363582494
-0.005474502224969098,-0.008435856482330374
-0.005474162224969098,-0.007020573498884419
-0.005473822224969099,-0.007843412442746849
-0.005473482224969098,-0.007777585327239231
-0.005473142224969098,-0.009949880139040001
-0.005472802224969099,-0.01041066994760296
-0.005472462224969098,-0.01027901571658557
-0.005472122224969098,-0.008764992059875945
-0.005471782224969099,-0.009456176772720386
-0.005471442224969098,-0.01100311398718583
-0.005471102224969098,-0.01176012581554064
-0.005470762224969099,-0.01116768177595969
-0.005470422224969098,-0.003235514357110351
-0.005470082224969098,-0.005671117630947577
-0.005469742224969099,-0.008468770040084931
-0.005469402224969098,-0.004815365129329092
-0.005469062224969098,-0.002083539835700852
-0.005468722224969099,-0.002939292337319337
-0.005468382224969098,-0.004025439743219721
-0.005468042224969098,-0.0008657381987822392
-0.005467702224969099,-0.001491095796118824
-0.005467362224969098,-0.002972205895073894
-0.005467022224969098,-0.005078673591365549
-0.005466682224969099,-0.005835685419720362
-0.005466342224969098,-0.008205461578046799
-0.005466002224969098,-0.007283881960920875
-0.005465662224969099,-0.01014736148556734
-0.005465322224969098,-0.009916966581281314
-0.005464982224969098,-0.007645931096221003
-0.005464642224969098,-0.005078673591365549
-0.005464302224969098,-0.004486229551783342
-0.005463962224969098,-0.00438748887851985
-0.005463622224969098,-0.003992526185465165
-0.005463282224969098,-0.001984799162438318
-0.005462942224969098,-0.002610156759773766
-0.005462602224969098,-0.004255834647501621
-0.005462262224969098,-0.005605290515437385
-0.005461922224969098,-0.005012846475856435
-0.005461582224969098,-0.004255834647501621
-0.005461242224969098,-0.005704031188705846
-0.005460902224969098,-0.007744671769484675
-0.005460562224969098,-0.009423263214967087
-0.005460222224969098,-0.003268427914869578
-0.005459882224969098,-0.005835685419720362
-0.005459542224969098,-0.005309068495647449
-0.005459202224969098,-0.004255834647509823
-0.005458862224969098,-0.008764992059875945
-0.005458522224969098,-0.007514276865202775
-0.005458182224969098,-0.005802771861970954
-0.005457842224969098,-0.008633337828857716
-0.005457502224969098,-0.008995386964157845
-0.005457162224969099,-0.008435856482331392
-0.005456822224969098,-0.01097020042943127
-0.005456482224969098,-0.01162847158452241
-0.005456142224969099,-0.01077271908290548
-0.005455802224969098,-0.009291608983948858
-0.005455462224969098,-0.009456176772721644
-0.005455122224969099,-0.008073807347032759
-0.005454782224969098,-0.007810498884993789
-0.005454442224969098,-0.007053487056638975
-0.005454102224969099,-0.005671117630950091
-0.005453762224969098,-0.006098993881756819
-0.005453422224969098,-0.006362302343793276
-0.005453082224969099,-0.004683710898313917
-0.005452742224969098,-0.003992526185465165
-0.005452402224969098,-0.004716624456065421
-0.005452062224969099,-0.003268427914867542
-0.005451722224969098,-0.004519143109538078
-0.005451382224969098,-0.003893785512201493
-0.005451042224969099,-0.003367168588129538
-0.005450702224969098,-0.003860871954446936
-0.005450362224969098,-0.00767884465397556
-0.005450022224969099,-0.00863333782885598
-0.005449682224969098,-0.00188605848917351
-0.005449342224969098,-0.001688577142646167
-0.005449002224969099,-0.001951885604682145
-0.005448662224969098,-0.004288748205256179
-0.005448322224969098,-0.008534597155594046
-0.005447982224969099,-0.006395215901547833
-0.005447642224969098,-0.005835685419720362
-0.005447302224969098,-0.008567510713348603
-0.005446962224969099,-0.008995386964157845
-0.005446622224969098,-0.007152227729902647
-0.005446282224969098,-0.007415536191939104
-0.005445942224969099,-0.01126642244922228
-0.005445602224969098,-0.006757265036847842
-0.005445262224969098,-0.006691437921338847
-0.005444922224969099,-0.006559783690320619
-0.005444582224969098,-0.005374895611155426
-0.005444242224969098,-0.004749538013819977
-0.005443902224969099,-0.005605290515438462
-0.005443562224969098,-0.003367168588131753
-0.005443222224969098,-0.005111587149120106
-0.005442882224969098,-0.003893785512201493
-0.005442542224969098,-0.000668256852264296
-0.005442202224969098,-0.005835685419720362
-0.005441862224969098,-0.00790923955825746
-0.005441522224969098,-0.00827128869355645
-0.005441182224969098,-0.007645931096221003
-0.005440842224969098,-0.007975066673766575
-0.005440502224969098,-0.007909239558259196
-0.005440162224969098,-0.008863732733139616
-0.005439822224969098,-0.01255005120165001
-0.005439482224969098,-0.005341982053399072
-0.005439142224969098,-0.003729217723428708
-0.005438802224969098,-0.003564649934655922
-0.005438462224969098,-0.003762131281187455
-0.005438122224969098,-0.006066080324002262
-0.005437782224969098,-0.00860042427110316
-0.005437442224969098,-0.006954746383374227
-0.005437102224969098,-0.006362302343793276
-0.005436762224969098,-0.008501683597839487
-0.005436422224969099,-0.007942153116013035
-0.005436082224969098,-0.008896646290894173
-0.005435742224969098,-0.007283881960920875
-0.005435402224969099,-0.00639521590154945
-0.005435062224969098,-0.004453315994028964
-0.005434722224969098,-0.00540780916891112
-0.005434382224969099,-0.006658524363582015
-0.005434042224969098,-0.004552056667292635
-0.005433702224969098,-0.003827958396692379
-0.005433362224969099,-0.004683710898309307
-0.005433022224969098,-0.005967339650738591
-0.005432682224969098,-0.00517741426462922
-0.005432342224969099,-0.005144500706874723
-0.005432002224969098,-0.003268427914864908
-0.005431662224969098,-0.003992526185465165
-0.005431322224969099,-0.004617883782800612
-0.005430982224969098,-0.003005119452828451
-0.005430642224969098,0.0007799396889456162
-0.005430302224969099,0.0008786803622091079
-0.005429962224969098,2.292786059080275e-05
-0.005429622224969098,0.0009115939199638446
-0.005429282224969099,-0.003301341472611802
-0.005428942224969098,-0.0005695161789912252
-0.005428602224969098,-0.0005366026212366681
-0.005428262224969099,-0.0009315653142906348
-0.005427922224969098,-0.002149366951209966
-0.005427582224969098,-0.005210327822383777
-0.005427242224969099,-0.006164820997265934
-0.005426902224969098,-0.004848278687083649
-0.005426562224969098,-0.00392669906995605
-0.005426222224969099,-0.002774724548546551
-0.005425882224969098,-0.002939292337319337
-0.005425542224969098,-0.003432995703637694
-0.005425202224969099,-0.003795044838937822
-0.005424862224969098,-0.004749538013819977
-0.005424522224969098,-0.003597563492410479
-0.005424182224969099,-0.003630477050165036
-0.005423842224969098,-0.006329388786037821
-0.005423502224969098,-0.005835685419720362
-0.005423162224969099,-0.00415709397423795
-0.005422822224969098,-0.003795044838940635
-0.005422482224969098,-0.005341982053402005
-0.005422142224969098,-0.003893785512201493
-0.005421802224969098,-0.003795044838936744
-0.005421462224969098,-0.003202600799355794
-0.005421122224969098,-0.002412675413246423
-0.005420782224969098,-0.003070946568337326
-0.005420442224969098,-0.002939292337319337
-0.005420102224969098,-0.002116453393455409
-0.005419762224969098,-0.003038033010587977
-0.005419422224969098,-0.005769858304211248
-0.005419082224969098,-0.009719485234758102
-0.005418742224969098,-0.009949880139032457
-0.005418402224969098,-0.005802771861965805
-0.005418062224969098,-0.006329388786038719
-0.005417722224969098,-0.008040893789281616
