Analysis/New Tests_CMB/wrd01_d2s01/cmb03_take2/cmb03_ch38.csv

#Digilent WaveForms Oscilloscope Acquisition
#Device Name: ADP3450
#Serial Number: SN:210018B9D9B0
#Date Time: 2024-08-08 13:16:49.238.816.810
#Sample rate: 2.94118e+06Hz
#Samples: 32768
#Trigger: Source: Channel 3 Type: Edge Condition: Rising Level: 60 mV Hyst.: Auto HoldOff: 0 s
#Channel 3: Range: 200 mV/div Offset: 0 V Attenuation: 1 X Coupling: DC Bandwidth: 0 Hz Sample Mode: Average

Time (s),Channel 3 (V)
-0.005570354600484262,0.01789498972131531
-0.005570014600484261,0.01907987780047853
-0.005569674600484261,0.01861908799191557
-0.005569334600484262,0.01769750837478797
-0.005568994600484261,0.01746711347050445
-0.005568654600484261,0.01657844741113303
-0.005568314600484262,0.01493276952340517
-0.005567974600484261,0.0172038050084662
-0.005567634600484261,0.01532773221645986
-0.005567294600484262,0.01078566124633098
-0.005566954600484261,0.01315543740466669
-0.005566614600484261,0.01733545923948784
-0.005566274600484262,0.01654553385337847
-0.005565934600484261,0.01644679318011001
-0.005565594600484261,0.01381370855975023
-0.005565254600484262,0.01104896970836743
-0.005564914600484261,0.01289212894262251
-0.005564574600484261,0.01282630182711352
-0.005564234600484262,0.01141101884366756
-0.005563894600484261,0.01190472220998652
-0.005563554600484261,0.01223385778753149
-0.005563214600484262,0.01226677134528605
-0.005562874600484262,0.01088440191959716
-0.005562534600484261,0.01200346288324959
-0.005562194600484262,0.01154267307468579
-0.005561854600484262,0.01006156297573341
-0.005561514600484261,0.009600773167166921
-0.005561174600484262,0.01042361211103085
-0.005560834600484262,0.006408158064982186
-0.005560494600484261,0.00811966306821185
-0.005560154600484262,0.007889268163929951
-0.005559814600484262,0.00742847835536699
-0.005559474600484261,0.00802092239494818
-0.005559134600484262,0.007362651239857037
-0.005558794600484262,0.007494305470875027
-0.005558454600484261,0.008448798645757422
-0.005558114600484262,0.009600773167166921
-0.005557774600484262,0.008810847781058987
-0.005557434600484261,0.01674301519990581
-0.005557094600484262,0.004663739503983355
-0.005556754600484262,0.009107069800840483
-0.005556414600484261,0.01164141374794946
-0.005556074600484262,0.01203637644100415
-0.005555734600484262,0.01114771038163272
-0.005555394600484261,0.004992875081528926
-0.005555054600484262,0.00630941739171121
-0.005554714600484262,0.006638552969256183
-0.005554374600484261,0.004663739503983355
-0.005554034600484262,0.003182629405028285
-0.005553694600484262,0.002919320942991828
-0.005553354600484261,0.002392704018918914
-0.005553014600484261,0.003544678540328413
-0.005552674600484262,0.00380798700236487
-0.005552334600484261,0.002754753154219042
-0.005551994600484261,0.00630941739171121
-0.005551654600484262,0.005618232678865511
-0.005551314600484261,0.003873814117873685
-0.005550974600484261,0.003709246329101199
-0.005550634600484262,0.001141988824245744
-0.005550294600484261,0.00130655661301859
-0.005549954600484261,0.001339470170773087
-0.005549614600484262,0.002524358249937143
-0.005549274600484261,0.0005824583424197703
-0.005548934600484261,0.001405297286282201
-0.005548594600484262,0.003775073444610313
-0.005548254600484261,0.005519492005598607
-0.005547914600484261,0.003742159886855756
-0.005547574600484262,0.003149715847273728
-0.005547234600484261,0.002886407385230865
-0.005546894600484261,-0.0006353432945003394
-0.005546554600484262,0.005684059794374625
-0.005546214600484261,0.005157442870301233
-0.005545874600484261,0.004894134408265255
-0.005545534600484262,0.006243590276202096
-0.005545194600484261,0.002228136230144513
-0.005544854600484261,0.001339470170773087
-0.005544514600484262,0.003840900560119427
-0.005544174600484261,0.004038381906643776
-0.005543834600484261,0.002392704018918914
-0.005543494600484262,0.003083888731764614
-0.005543154600484261,0.002886407385235535
-0.005542814600484261,0.001931914210355115
-0.005542474600484262,0.004235863253174112
-0.005542134600484262,0.005552405563354002
-0.005541794600484261,0.003972554791137656
-0.005541454600484262,0.00403838190664677
-0.005541114600484262,0.004894134408263698
-0.005540774600484261,0.005223269985810825
-0.005540434600484262,0.003281370078291956
-0.005540094600484262,0.001997741325866564
-0.005539754600484261,0.0007799396889456162
-0.005539414600484262,0.001273643055263973
-0.005539074600484262,0.001931914210353918
-0.005538734600484261,0.0009445074777184018
-0.005538394600484262,0.001207815939754859
-0.005538054600484262,0.003544678540324162
-0.005537714600484261,0.003676332771346642
-0.005537374600484262,0.003610505655837527
-0.005537034600484262,0.001372383728531715
-0.005536694600484261,0.001109075266491187
-0.005536354600484262,0.005585319121110954
-0.005536014600484262,0.00670438008476386
-0.005535674600484261,0.006901861431293239
-0.005535334600484262,0.001964827768109672
-0.005534994600484262,-0.0004707755057231232
-0.005534654600484261,0.003083888731764614
-0.005534314600484262,0.002721839596464486
-0.005533974600484262,0.001602778632811579
-0.005533634600484261,0.001043248150982073
-0.005533294600484262,0.0007799396889456162
-0.005532954600484262,0.002886407385237271
-0.005532614600484261,0.002623098923200814
-0.005532274600484261,0.00130655661301853
-0.005531934600484262,0.002820580269728157
-0.005531594600484261,0.003248456520537399
-0.005531254600484261,0.002392704018918914
-0.005530914600484262,0.0005166312269091594
-0.005530574600484261,0.001372383728527644
-0.005530234600484261,0.0008457668044547304
-0.005529894600484262,-0.0001416399281819828
-0.005529554600484261,0.0004837176691549016
-0.005529214600484261,0.0006482854579273878
-0.005528874600484262,0.001109075266491187
-0.005528534600484261,0.0020635684413749
-0.005528194600484261,0.002919320942991828
-0.005527854600484262,0.003445937867064742
-0.005527514600484261,0.0045979123884746
-0.005527174600484261,0.004795393735001583
-0.005526834600484262,0.001372383728527644
-0.005526494600484261,-0.000964478872034655
-0.005526154600484261,0.005223269985810825
-0.005525814600484262,0.004630825946228797
-0.005525474600484261,0.004729566619488517
-0.005525134600484261,0.0025572718076917
-0.005524794600484262,-0.002083539835700852
-0.005524454600484261,-0.0006353432944948314
-0.005524114600484261,0.002392704018918914
-0.005523774600484262,-0.00244558897100098
-0.005523434600484261,-0.003038033010588576
-0.005523094600484261,-0.006098993881756819
-0.005522754600484262,-0.01837575092420662
-0.005522414600484261,-0.03427299931969841
-0.005522074600484261,-0.05665421859275654
-0.005521734600484262,-0.08558523585901223
-0.005521394600484261,-0.1188608427489238
-0.005521054600484261,-0.1487134396322528
-0.005520714600484262,-0.1787635178621634
-0.005520374600484262,-0.2050943640657612
-0.005520034600484261,-0.2258957325666892
-0.005519694600484262,-0.2418258945198948
-0.005519354600484262,-0.2537406024270228
-0.005519014600484261,-0.2581839327239097
-0.005518674600484262,-0.2599283512849012
-0.005518334600484262,-0.2587434632057393
-0.005517994600484261,-0.254300132908872
-0.005517654600484262,-0.2481782111665244
-0.005517314600484262,-0.2422208572129603
-0.005516974600484261,-0.2351115287379652
-0.005516634600484262,-0.2305365442100817
-0.005516294600484262,-0.2206953904414871
-0.005515954600484261,-0.2082869791680011
-0.005515614600484262,-0.2003548117491529
-0.005515274600484262,-0.192554298561337
-0.005514934600484261,-0.1921264223105136
-0.005514594600484262,-0.184885439604511
-0.005514254600484262,-0.1751759400669343
-0.005513914600484261,-0.1683957471694779
-0.005513574600484262,-0.1604964933083842
-0.005513234600484262,-0.1550328427211377
-0.005512894600484261,-0.1484830447279709
-0.005512554600484262,-0.1417357653882867
-0.005512214600484262,-0.1360088063389937
-0.005511874600484261,-0.1319275251774286
-0.005511534600484261,-0.1190583240953968
-0.005511194600484262,-0.1211647917916885
-0.005510854600484261,-0.1183671393825511
-0.005510514600484261,-0.1117515142738851
-0.005510174600484262,-0.1075714924390564
-0.005509834600484261,-0.103885173970546
-0.005509494600484261,-0.09884939963409875
-0.005509154600484262,-0.09463646424151545
-0.005508814600484261,-0.09068683731096014
-0.005508474600484261,-0.08604602566757602
-0.005508134600484262,-0.08120773267765613
-0.005507794600484261,-0.07952914123216594
-0.005507454600484261,-0.0752503787240813
-0.005507114600484262,-0.07271603477698041
-0.005506774600484261,-0.07044499929192249
-0.005506434600484261,-0.07403257708716268
-0.005506094600484262,-0.07041208573416141
-0.005505754600484261,-0.06284196745061836
-0.005505414600484261,-0.06563961985975061
-0.005505074600484262,-0.06567253341750517
-0.005504734600484261,-0.06402685552976793
-0.005504394600484261,-0.05885942696231186
-0.005504054600484262,-0.05569972541787438
-0.005503714600484261,-0.0534616034905657
-0.005503374600484261,-0.05411987464565564
-0.005503034600484262,-0.05142096290978196
-0.005502694600484261,-0.0484587427118705
-0.005502354600484261,-0.04773464444127156
-0.005502014600484262,-0.04487116491662509
-0.005501674600484261,-0.04388375818398329
-0.005501334600484261,-0.04108610577485102
-0.005500994600484262,-0.03776183644164076
-0.005500654600484261,-0.03496418403250652
-0.005500314600484261,-0.03667568903574037
-0.005499974600484262,-0.03479961624373062
-0.005499634600484262,-0.03134369267950841
-0.005499294600484261,-0.03012589104258351
-0.005498954600484262,-0.02930305209871958
-0.005498614600484262,-0.02769028776874922
-0.005498274600484261,-0.02640665901631855
-0.005497934600484262,-0.02479389468634526
-0.005497594600484262,-0.02459641333981828
-0.005497254600484261,-0.02472806757083614
-0.005496914600484262,-0.02327987102963563
-0.005496574600484262,-0.02183167448843775
-0.005496234600484261,-0.02137088467987132
-0.005495894600484262,-0.02186458804618967
-0.005495554600484262,-0.02137088467987222
-0.005495214600484261,-0.02012016948519815
-0.005494874600484262,-0.01847449159747029
-0.005494534600484262,-0.01702629505627241
-0.005494194600484261,-0.01798078823115194
-0.005493854600484262,-0.01755291198034269
-0.005493514600484262,-0.01554518495731836
-0.005493174600484261,-0.01429446976264154
-0.005492834600484262,-0.01821118313543383
-0.005492494600484262,-0.01202343427758835
-0.005492154600484261,-0.01077271908290393
-0.005491814600484262,-0.007777585327239231
-0.005491474600484262,-0.00958783100373658
-0.005491134600484261,-0.01274753254817735
-0.005490794600484262,-0.01044358350535836
-0.005490454600484262,-0.008534597155594046
-0.005490114600484261,-0.008139634462539359
-0.005489774600484261,-0.009258695426194301
-0.005489434600484262,-0.008435856482330374
-0.005489094600484261,-0.007250968403166318
-0.005488754600484261,-0.007942153116012016
-0.005488414600484262,-0.008205461578048474
-0.005488074600484261,-0.008271288693558965
-0.005487734600484261,-0.009028300521912402
-0.005487394600484262,-0.00869916494436683
-0.005487054600484261,-0.00659269724807769
-0.005486714600484261,-0.007975066673766575
-0.005486374600484262,-0.007975066673766575
-0.005486034600484261,-0.006197734555018874
-0.005485694600484261,-0.005309068495647449
-0.005485354600484262,-0.004650797340556306
-0.005485014600484261,-0.004321661763005826
-0.005484674600484261,-0.001622750027137053
-0.005484334600484262,-0.002807638106301108
-0.005483994600484261,-0.003169687241603871
-0.005483654600484261,-0.004617883782801749
-0.005483314600484262,-0.006724351479093405
-0.005482974600484261,-0.009686571676993126
-0.005482634600484261,-0.003959612627710607
-0.005482294600484262,-0.003465909261392251
-0.005481954600484261,-0.001951885604679091
-0.005481614600484261,-9.985697163754359e-06
-0.005481274600484262,-0.004584970225047193
-0.005480934600484261,-0.006230648112766545
-0.005480594600484261,-0.001556922911627938
-0.005480254600484262,-0.001227787334082367
-0.005479914600484261,-0.002445588970997628
-0.005479574600484261,-0.0006024297367457822
-0.005479234600484262,-0.001589836469382495
-0.005478894600484262,-0.001754404258154982
-0.005478554600484261,-0.0008657381987822392
-0.005478214600484262,-0.001721490700400724
-0.005477874600484262,-0.003432995703634581
-0.005477534600484261,-0.002840551664055666
-0.005477194600484262,-0.002248107624473638
-0.005476854600484262,-0.002281021182228135
-0.005476514600484261,-0.00142526868060971
-0.005476174600484262,-0.000832824641027682
-0.005475834600484262,0.001964827768104583
-0.005475494600484261,0.002261049787900686
-0.005475154600484262,0.002656012480955371
-0.005474814600484262,0.001800259979338443
-0.005474474600484261,0.001569865075054987
-0.005474134600484262,0.0008128532467001733
-0.005473794600484262,-0.001589836469378125
-0.005473454600484261,-0.001820231373664395
-0.005473114600484262,-0.002412675413246423
-0.005472774600484262,-0.007152227729894024
-0.005472434600484261,-0.0004049483902184396
-0.005472094600484262,0.003050975174010056
-0.005471754600484262,0.002919320942992068
-0.005471414600484261,0.00357759209808297
-0.005471074600484262,0.001569865075054987
-0.005470734600484262,0.001833173537090965
-0.005470394600484261,0.003182629405028285
-0.005470054600484262,0.003380110751555628
-0.005469714600484262,0.0007799396889456162
-0.005469374600484261,-9.985697163754359e-06
-0.005469034600484261,-0.001524009353873381
-0.005468694600484262,0.0001545820916090312
-0.005468354600484261,-0.0004049483902184396
-0.005468014600484261,0.0007799396889456162
-0.005467674600484262,0.001043248150982073
-0.005467334600484261,0.001010334593227516
-0.005466994600484261,0.001997741325864229
-0.005466654600484262,0.002425617576673472
-0.005466314600484261,0.002985148058502439
-0.005465974600484261,0.00380798700236487
-0.005465634600484262,0.01039069855327629
-0.005465294600484261,0.001471124401787424
-0.005464954600484261,-0.0006682568522548965
-0.005464614600484262,-0.0003062077169547683
-0.005464274600484261,-0.003992526185465045
-0.005463934600484261,-0.00392669906995605
-0.005463594600484262,-0.002116453393455409
-0.005463254600484261,-0.001556922911629675
-0.005462914600484261,-0.002511416086510094
-0.005462574600484262,-0.003729217723428708
-0.005462234600484261,0.005124529312546915
-0.005461894600484261,0.004992875081528926
-0.005461554600484262,0.007856354606175394
-0.005461214600484261,0.007033515662303385
-0.005460874600484261,0.002590185365446257
-0.005460534600484262,0.003445937867064742
-0.005460194600484261,0.003972554791133106
-0.005459854600484261,0.001471124401791315
-0.005459514600484262,0.001043248150982073
-0.005459174600484261,0.001734432863821785
-0.005458834600484261,-0.001556922911627938
-0.005458494600484262,0.001668605748318658
-0.005458154600484261,0.004038381906644794
-0.005457814600484261,0.002952234500746385
-0.005457474600484262,0.002096481999127901
-0.005457134600484262,0.002688926038708851
-0.005456794600484261,0.005716973352129182
-0.005456454600484262,0.005453664890092726
-0.005456114600484262,0.004861220850511775
-0.005455774600484261,0.003380110751555628
-0.005455434600484262,0.0030180616162555
-0.005455094600484262,0.004400431041944384
-0.005454754600484261,0.00357759209808297
-0.005454414600484262,0.002524358249937143
-0.005454074600484262,0.00291932094299111
-0.005453734600484261,0.002886407385237271
-0.005453394600484262,0.002162309114637015
-0.005453054600484262,0.001964827768110031
-0.005452714600484261,-0.004519143109538078
-0.005452374600484262,-0.002544329644264652
-0.005452034600484262,0.003050975173999879
-0.005451694600484261,0.002623098923200814
-0.005451354600484262,0.001964827768109672
-0.005451014600484262,0.0003191498803848103
-0.005450674600484261,-0.001491095796118824
-0.005450334600484262,0.0003849769958909309
-0.005449994600484262,0.002195222672388279
-0.005449654600484261,0.00107616170873663
-0.005449314600484262,0.001734432863827772
-0.005448974600484262,0.003281370078289142
-0.005448634600484261,0.00505870219703804
-0.005448294600484262,0.002919320942991828
-0.005447954600484262,0.003478851424819299
-0.005447614600484261,0.005420751332338168
-0.005447274600484261,0.006177763160692982
-0.005446934600484262,0.005322010659074497
-0.005446594600484261,0.004729566619492469
-0.005446254600484261,0.004005468348892213
-0.005445914600484262,0.002886407385237271
-0.005445574600484261,0.001866087094840732
-0.005445234600484261,-0.001030305987555025
-0.005444894600484262,-0.002248107624473638
-0.005444554600484261,0.0005166312269096982
-0.005444214600484261,0.0008128532467001733
-0.005443874600484262,2.292786059080275e-05
-0.005443534600484261,0.001043248150987042
-0.005443194600484261,0.003775073444610313
-0.005442854600484262,0.003413024309310185
-0.005442514600484261,0.000384976995887219
-0.005442174600484261,-0.00165566358489161
-0.005441834600484262,0.003972554791137656
-0.005441494600484261,0.005058702197037083
-0.005441154600484261,0.004532085272965126
-0.005440814600484262,-0.0009973924298004675
-0.005440474600484261,0.0009774210354794846
-0.005440134600484261,0.004564998830719684
-0.005439794600484262,0.002623098923200814
-0.005439454600484261,0.002524358249936484
-0.005439114600484261,0.002162309114637015
-0.005438774600484262,0.001833173537091444
-0.005438434600484261,0.00584862758314328
-0.005438094600484261,0.00357759209808297
-0.005437754600484262,0.0008786803622092876
-0.005437414600484261,0.003116802289521626
-0.005437074600484261,0.004466258157456012
-0.005436734600484262,0.001866087094846001
-0.005436394600484262,0.001372383728528542
-0.005436054600484261,-0.001622750027137053
-0.005435714600484262,0.003676332771346642
-0.005435374600484262,0.003939641233382619
-0.005435034600484261,-0.003827958396692379
-0.005434694600484262,-0.00290637877956478
-0.005434354600484262,-0.0002732941592050006
-0.005434014600484261,0.0005166312269091594
-0.005433674600484262,-0.001063219545309582
-0.005433334600484262,-0.0003391212747106425
-0.005432994600484261,0.00130655661301853
-0.005432654600484262,0.002293963345655243
-0.005432314600484262,0.002326876903409741
-0.005431974600484261,0.003116802289519171
-0.005431634600484262,0.00403838190664677
-0.005431294600484262,0.004433344599700737
-0.005430954600484261,0.005519492005601839
-0.005430614600484262,0.006013195371920196
-0.005430274600484262,0.005157442870303269
-0.005429934600484261,0.004795393735001583
-0.005429594600484262,0.005947368256411082
-0.005429254600484262,0.004762480177249182
-0.005428914600484261,0.002886407385237271
-0.005428574600484262,0.004104209022155884
-0.005428234600484262,0.003709246329101917
-0.005427894600484261,0.0030180616162555
-0.005427554600484262,0.003610505655837527
-0.005427214600484262,0.001701519306073215
-0.005426874600484261,-0.001787317815909838
-0.005426534600484261,-0.00438748887851985
-0.005426194600484262,0.001668605748318658
-0.005425854600484261,0.001504037959545873
-0.005425514600484261,0.002721839596464486
-0.005425174600484262,0.002886407385237271
-0.005424834600484261,-0.001392355122855153
-0.005424494600484261,0.001800259979336887
-0.005424154600484262,0.004630825946228797
-0.005423814600484261,0.002721839596463887
-0.005423474600484261,0.002392704018918914
-0.005423134600484262,0.001833173537091444
-0.005422794600484261,0.001306556613017033
-0.005422454600484261,0.0004837176691546022
-0.005422114600484262,0.0008786803622092876
-0.005421774600484261,-0.0006682568522573512
-0.005421434600484261,-0.002017712720191738
-0.005421094600484262,-0.001622750027137053
-0.005420754600484261,-0.001589836469382555
-0.005420414600484261,-0.001622750027137053
-0.005420074600484262,0.0004837176691546022
-0.005419734600484261,0.007033515662296499
-0.005419394600484261,-0.00119487377632781
-0.005419054600484262,0.001471124401791315
-0.005418714600484261,0.002359790461161364
-0.005418374600484261,0.000714112573436502
-0.005418034600484262,0.001569865075054987
-0.005417694600484261,0.003413024309308928
-0.005417354600484261,0.002721839596464486
-0.005417014600484262,0.002195222672391572
-0.005416674600484261,0.0005166312269031125
-0.005416334600484261,-0.002807638106301108
-0.005415994600484262,0.004564998830719684
