Analysis/New Tests_CMB/wrd01_d2s01/cmb03_take2/cmb03_ch33.csv

#Digilent WaveForms Oscilloscope Acquisition
#Device Name: ADP3450
#Serial Number: SN:210018B9D9B0
#Date Time: 2024-08-08 13:10:16.184.046.870
#Sample rate: 2.94118e+06Hz
#Samples: 32768
#Trigger: Source: Channel 3 Type: Edge Condition: Rising Level: 60 mV Hyst.: Auto HoldOff: 0 s
#Channel 3: Range: 200 mV/div Offset: 0 V Attenuation: 1 X Coupling: DC Bandwidth: 0 Hz Sample Mode: Average

Time (s),Channel 3 (V)
-0.005570456077015644,0.004071295464401327
-0.005570116077015644,0.001273643055263733
-0.005569776077015644,0.001141988824245744
-0.005569436077015644,0.002096481999127901
-0.005569096077015644,0.002359790461164178
-0.005568756077015644,0.002261049787900686
-0.005568416077015644,0.0003520634381363738
-0.005568076077015644,0.0009774210354750541
-0.005567736077015644,0.002129395556882458
-0.005567396077015644,0.002359790461164357
-0.005567056077015644,-4.28992549184312e-05
-0.005566716077015644,-0.0001087263704274257
-0.005566376077015644,0.001174902382000301
-0.005566036077015644,0.0002862363226232483
-0.005565696077015644,-0.001918972046928067
-0.005565356077015644,-0.006691437921338847
-0.005565016077015644,0.0003191498803866661
-0.005564676077015644,0.002985148058500942
-0.005564336077015644,0.004235863253174112
-0.005563996077015644,0.0007470261311835156
-0.005563656077015644,-0.003400082145883136
-0.005563316077015644,-7.581281267286857e-05
-0.005562976077015645,0.000286236322626601
-0.005562636077015644,-0.003827958396692379
-0.005562296077015644,-0.005309068495647449
-0.005561956077015645,-0.005605290515437924
-0.005561616077015644,-0.005374895611156563
-0.005561276077015644,-0.006362302343793276
-0.005560936077015645,-0.009949880139033475
-0.005560596077015644,-0.008797905617630502
-0.005560256077015644,-0.007086400614393532
-0.005559916077015645,-0.007448449749693002
-0.005559576077015644,-0.009094127637421515
-0.005559236077015644,-0.008468770040084931
-0.005558896077015645,-0.00741553619194102
-0.005558556077015644,-0.006362302343793276
-0.005558216077015644,-0.006724351479093405
-0.005557876077015645,-0.00748136330744684
-0.005557536077015644,-0.007942153116012016
-0.005557196077015644,-0.006724351479093405
-0.005556856077015645,-0.007053487056638377
-0.005556516077015644,-0.01047649706311291
-0.005556176077015644,-0.01037775638984924
-0.005555836077015644,-0.008600424271106393
-0.005555496077015644,-0.009522003888230759
-0.005555156077015644,-0.01120059533371317
-0.005554816077015644,-0.01343871726101898
-0.005554476077015644,-0.007316795518675433
-0.005554136077015644,-0.007514276865202775
-0.005553796077015644,-0.005309068495647449
-0.005553456077015644,-0.009916966581285444
-0.005553116077015644,-0.01357037149204128
-0.005552776077015644,-0.009127041195176074
-0.005552436077015644,-0.008304202251312145
-0.005552096077015644,-0.01113476821820406
-0.005551756077015644,-0.01054232417862203
-0.005551416077015644,-0.008699164944367729
-0.005551076077015644,-0.009192868310685188
-0.005550736077015644,-0.00790923955825746
-0.005550396077015644,-0.008370029366822398
-0.005550056077015644,-0.008995386964157845
-0.005549716077015644,-0.007975066673766575
-0.005549376077015644,-0.009686571677004681
-0.005549036077015644,-0.01031192927434013
-0.005548696077015644,-0.01143099023799507
-0.005548356077015644,-0.009752398792513377
-0.005548016077015644,-0.01014736148556734
-0.005547676077015644,-0.01034484283209469
-0.005547336077015644,-0.009324522541704794
-0.005546996077015644,-0.01008153437005823
-0.005546656077015644,-0.009752398792512659
-0.005546316077015644,-0.008764992059876365
-0.005545976077015644,-0.008995386964157845
-0.005545636077015644,-0.009456176772721644
-0.005545296077015644,-0.007613017538469978
-0.005544956077015644,-0.009554917445985316
-0.005544616077015644,-0.01564392563057838
-0.005544276077015644,-0.00925869542619478
-0.005543936077015644,-0.009522003888230759
-0.005543596077015644,-0.009061214079666959
-0.005543256077015644,-0.00804089378928413
-0.005542916077015644,-0.01268170543266824
-0.005542576077015644,-0.01403116130060508
-0.005542236077015645,-0.009653658119256949
-0.005541896077015644,-0.0124842240861409
-0.005541556077015644,-0.01488691380222357
-0.005541216077015645,-0.01436029687815161
-0.005540876077015644,-0.01205634783533165
-0.005540536077015644,-0.01278044610593191
-0.005540196077015645,-0.01199052071982398
-0.005539856077015644,-0.01083854619841304
-0.005539516077015644,-0.01057523773637659
-0.005539176077015645,-0.008962473406406221
-0.005538836077015644,-0.009258695426194301
-0.005538496077015644,-0.009258695426194301
-0.005538156077015645,-0.01004862081230224
-0.005537816077015644,-0.007645931096221003
-0.005537476077015644,-0.007580103980711889
-0.005537136077015645,-0.009423263214963734
-0.005536796077015644,-0.008863732733139616
-0.005536456077015644,-0.01044358350535836
-0.005536116077015645,-0.01189178004655624
-0.005535776077015644,-0.009785312350267215
-0.005535436077015644,-0.01080563264065849
-0.005535096077015644,-0.01139807668023944
-0.005534756077015644,-0.009094127637421515
-0.005534416077015644,-0.01116768177595861
-0.005534076077015644,-0.01699338149850462
-0.005533736077015644,-0.008764992059875945
-0.005533396077015644,-0.008567510713348603
-0.005533056077015644,-0.00869916494436683
-0.005532716077015644,-0.00142526868060971
-0.005532376077015644,-0.01505148159099635
-0.005532036077015644,-0.01436029687815065
-0.005531696077015644,-0.01268170543266824
-0.005531356077015644,-0.01297792745245925
-0.005531016077015644,-0.01495274091773268
-0.005530676077015644,-0.01307666812572293
-0.005530336077015644,-0.01199052071982254
-0.005529996077015644,-0.01264879187491368
-0.005529656077015644,-0.01268170543266674
-0.005529316077015644,-0.01185886648880431
-0.005528976077015644,-0.0120234342775771
-0.005528636077015644,-0.01179303937329304
-0.005528296077015644,-0.01060815129413114
-0.005527956077015644,-0.0108714597561676
-0.005527616077015644,-0.01139807668023878
-0.005527276077015644,-0.01044358350535836
-0.005526936077015644,-0.00962074456149443
-0.005526596077015644,-0.0122538291818599
-0.005526256077015644,-0.01274753254817735
-0.005525916077015644,-0.01314249524123204
-0.005525576077015644,-0.0143273833203928
-0.005525236077015644,-0.01251713764389546
-0.005524896077015644,-0.01445903755141432
-0.005524556077015644,-0.01567683918832767
-0.005524216077015644,-0.01278044610593191
-0.005523876077015644,-0.0134058037032685
-0.005523536077015644,-0.01807952890441489
-0.005523196077015644,-0.01768456621136092
-0.005522856077015644,-0.02759154709548261
-0.005522516077015644,-0.04454202933912604
-0.005522176077015644,-0.0701158637143704
-0.005521836077015644,-0.1025686316603637
-0.005521496077015644,-0.1327832776791026
-0.005521156077015644,-0.1632941457175216
-0.005520816077015644,-0.1922580765415318
-0.005520476077015645,-0.220004205728573
-0.005520136077015644,-0.2424512521172314
-0.005519796077015644,-0.2572623531067821
-0.005519456077015645,-0.2673997288951673
-0.005519116077015644,-0.2729292065979513
-0.005518776077015644,-0.2734558235220242
-0.005518436077015645,-0.2711189609214549
-0.005518096077015644,-0.2663135814892853
-0.005517756077015644,-0.2585788954169644
-0.005517416077015645,-0.2519632703083104
-0.005517076077015644,-0.2447552011600504
-0.005516736077015644,-0.2367901201834476
-0.005516396077015645,-0.2292529154576677
-0.005516056077015644,-0.2229993394842882
-0.005515716077015644,-0.2152975669697218
-0.005515376077015645,-0.2087806825343314
-0.005515036077015644,-0.2010459964619986
-0.005514696077015644,-0.1930809154853957
-0.005514356077015645,-0.1848196124890169
-0.005514016077015644,-0.1795534432482728
-0.005513676077015644,-0.1737277435257162
-0.005513336077015644,-0.1707984368855659
-0.005512996077015644,-0.160957283116948
-0.005512656077015644,-0.1547366207013367
-0.005512316077015644,-0.1478576871306343
-0.005511976077015644,-0.1425915178899052
-0.005511636077015644,-0.1422623823123596
-0.005511296077015644,-0.1366341639363303
-0.005510956077015644,-0.1314338218111103
-0.005510616077015644,-0.1283728609399365
-0.005510276077015644,-0.1239295306430713
-0.005509936077015644,-0.1196836816927334
-0.005509596077015644,-0.1171493377456325
-0.005509256077015644,-0.1121135634091853
-0.005508916077015644,-0.1085918127294417
-0.005508576077015644,-0.1053004569539919
-0.005508236077015644,-0.1014824842544633
-0.005507896077015644,-0.09842152338328422
-0.005507556077015644,-0.09552513030088847
-0.005507216077015644,-0.09295787279603301
-0.005506876077015644,-0.08887659163446503
-0.005506536077015644,-0.08726382730449464
-0.005506196077015644,-0.08278758344987489
-0.005505856077015644,-0.08097733777336974
-0.005505516077015644,-0.07850882094178246
-0.005505176077015644,-0.07551368718611776
-0.005504836077015644,-0.07218941785290379
-0.005504496077015644,-0.07014877727212496
-0.005504156077015644,-0.06837144515337887
-0.005503816077015644,-0.06445473178058443
-0.005503476077015644,-0.06326984370142252
-0.005503136077015644,-0.06254574543082225
-0.005502796077015644,-0.06484969447362982
-0.005502456077015644,-0.05856320494252085
-0.005502116077015644,-0.05560098474461071
-0.005501776077015644,-0.0537907390681069
-0.005501436077015644,-0.05204632050711854
-0.005501096077015644,-0.05704918128581122
-0.005500756077015644,-0.05379073906810546
-0.005500416077015644,-0.05125639512100917
-0.005500076077015644,-0.0504664697348998
-0.005499736077015645,-0.04967654434879187
-0.005499396077015644,-0.04743842242148055
-0.005499056077015644,-0.04635227501558016
-0.005498716077015645,-0.04411415308827435
-0.005498376077015644,-0.04184311760320584
-0.005498036077015644,-0.04082279731281457
-0.005497696077015645,-0.04019743971547912
-0.005497356077015644,-0.03868341605876836
-0.005497016077015644,-0.03832136692346823
-0.005496676077015645,-0.03710356528655183
-0.005496336077015644,-0.03598450432289467
-0.005495996077015644,-0.03532623316780353
-0.005495656077015645,-0.03400969085762364
-0.005495316077015644,-0.03190322316132959
-0.005494976077015644,-0.03006006392707439
-0.005494636077015645,-0.02861186738587651
-0.005494296077015644,-0.02716367084467337
-0.005493956077015644,-0.02607752343877298
-0.005493616077015645,-0.02604460988101848
-0.005493276077015644,-0.02347735237616297
-0.005492936077015644,-0.0236090066071812
-0.005492596077015644,-0.02660414036284045
-0.005492256077015644,-0.0272953250756916
-0.005491916077015644,-0.01949481188786156
-0.005491576077015644,-0.01942898477235257
-0.005491236077015644,-0.01709212217177889
-0.005490896077015644,-0.01959355256112523
-0.005490556077015644,-0.02443184555104513
-0.005490216077015644,-0.02163419314190777
-0.005489876077015644,-0.01995560169642536
-0.005489536077015644,-0.02285199477882639
-0.005489196077015644,-0.02206206939271702
-0.005488856077015644,-0.0136361986075504
-0.005488516077015644,-0.01896819496378865
-0.005488176077015644,-0.02100883554456873
-0.005487836077015644,-0.01965937967663435
-0.005487496077015644,-0.02189750160394423
-0.005487156077015644,-0.02232537785475461
-0.005486816077015644,-0.02295073545209006
-0.005486476077015644,-0.02410270997349956
-0.005486136077015644,-0.02360900660717773
-0.005485796077015644,-0.02170002025741689
-0.005485456077015644,-0.0208442677557984
-0.005485116077015644,-0.02110757621783103
-0.005484776077015644,-0.0190011085215432
-0.005484436077015644,-0.01824409669318839
-0.005484096077015644,-0.01811244246216741
-0.005483756077015644,-0.01659841880546054
-0.005483416077015644,-0.01570975274608749
-0.005483076077015644,-0.01696046794075612
-0.005482736077015644,-0.01445903755141432
-0.005482396077015644,-0.01452486466692344
-0.005482056077015644,-0.02041639150497785
-0.005481716077015644,-0.01419572908937787
-0.005481376077015644,-0.009489090330476201
-0.005481036077015644,-0.01120059533371395
-0.005480696077015644,-0.01162847158452241
-0.005480356077015644,-0.01689464082525155
-0.005480016077015644,-0.01811244246216274
-0.005479676077015644,-0.01403116130060508
-0.005479336077015644,-0.0131754087989866
-0.005478996077015645,-0.01620345611240034
-0.005478656077015644,-0.01554518495731471
-0.005478316077015644,-0.01195760716206798
-0.005477976077015645,-0.01245131052838544
-0.005477636077015644,-0.01541353072629648
-0.005477296077015644,-0.01547935784180559
-0.005476956077015645,-0.01515022226426062
-0.005476616077015644,-0.01557809851506927
-0.005476276077015644,-0.01574266630384205
-0.005475936077015645,-0.0163680239011775
-0.005475596077015644,-0.01478817312895989
-0.005475256077015644,-0.01195760716206798
-0.005474916077015645,-0.01073980552515159
-0.005474576077015644,-0.01235256985512267
-0.005474236077015644,-0.01129933600697684
-0.005473896077015645,-0.009686571677006477
-0.005473556077015644,-0.01126642244922228
-0.005473216077015644,-0.01103602754494038
-0.005472876077015645,-0.01070689196739541
-0.005472536077015644,-0.01189178004655887
-0.005472196077015644,-0.01189178004655887
-0.005471856077015644,-0.01310958168347527
-0.005471516077015644,-0.01758582553809725
-0.005471176077015644,-0.01011444792781279
-0.005470836077015644,-0.008271288693560941
-0.005470496077015644,-0.008205461578048474
-0.005470156077015644,-0.01037775638984924
-0.005469816077015644,-0.01258296475940457
-0.005469476077015644,-0.01047649706311291
-0.005469136077015644,-0.00939034965721253
-0.005468796077015644,-0.01021318860107646
-0.005468456077015644,-0.01228674273961356
-0.005468116077015644,-0.01284627322144103
-0.005467776077015644,-0.01278044610593191
-0.005467436077015644,-0.01320832235674115
-0.005467096077015644,-0.01380076639632318
-0.005466756077015644,-0.01357037149204128
-0.005466416077015644,-0.01314249524123456
-0.005466076077015644,-0.01452486466692344
-0.005465736077015644,-0.01449195110916888
-0.005465396077015644,-0.01574266630384505
-0.005465056077015644,-0.01738834419156991
-0.005464716077015644,-0.01567683918833294
-0.005464376077015644,-0.01600597476587953
-0.005464036077015644,-0.01656550524770598
-0.005463696077015644,-0.01646676457444231
-0.005463356077015644,-0.01281335966368491
-0.005463016077015644,-0.01195760716206798
-0.005462676077015644,-0.01185886648880431
-0.005462336077015644,-0.009554917445984119
-0.005461996077015644,-0.008896646290894173
-0.005461656077015644,-0.008007980231521132
-0.005461316077015644,-0.009291608983950893
-0.005460976077015644,-0.0104106699476038
-0.005460636077015644,-0.003235514357110351
-0.005460296077015644,-0.003992526185472289
-0.005459956077015644,-0.00790923955825746
-0.005459616077015644,-0.008205461578048474
-0.005459276077015644,-0.007645931096223757
-0.005458936077015644,-0.009159954752930631
-0.005458596077015644,-0.01097020042943127
-0.005458256077015644,-0.01199052071982452
-0.005457916077015644,-0.01307666812572293
-0.005457576077015644,-0.01376785283856862
-0.005457236077015645,-0.01255005120165223
-0.005456896077015644,-0.01097020042943127
-0.005456556077015644,-0.01205634783533165
-0.005456216077015645,-0.01106894110269674
-0.005455876077015644,-0.009752398792512659
-0.005455536077015644,-0.0101802750433219
-0.005455196077015645,-0.01090437331392084
-0.005454856077015644,-0.009225781868439744
-0.005454516077015644,-0.0108714597561676
-0.005454176077015645,-0.009094127637424749
-0.005453836077015644,-0.009192868310685188
-0.005453496077015644,-0.01067397840964026
-0.005453156077015645,-0.01093728687167624
-0.005452816077015644,-0.009818225908021772
-0.005452476077015644,-0.009719485234758102
-0.005452136077015645,-0.01136516312248296
-0.005451796077015644,-0.01037775638984924
-0.005451456077015644,-0.01021318860107646
-0.005451116077015645,-0.01024610215883095
-0.005450776077015644,-0.01103602754494038
-0.005450436077015644,-0.007218054845411761
-0.005450096077015644,-0.009028300521909109
-0.005449756077015644,-0.007020573498884419
-0.005449416077015644,-0.007283881960920875
-0.005449076077015644,-0.01465651889792826
-0.005448736077015644,-0.01498565447548724
-0.005448396077015644,-0.01268170543266824
-0.005448056077015644,-0.01587432053486028
-0.005447716077015644,-0.01551227139956015
-0.005447376077015644,-0.01376785283856862
-0.005447036077015644,-0.0120234342775771
-0.005446696077015644,-0.01208926139308621
-0.005446356077015644,-0.0111018546604495
-0.005446016077015644,-0.01189178004655887
-0.005445676077015644,-0.01218800206634857
-0.005445336077015644,-0.01146390379574963
-0.005444996077015644,-0.005506549842174791
-0.005444656077015644,-0.01060815129413366
-0.005444316077015644,-0.01199052071982254
-0.005443976077015644,-0.01159555802676786
-0.005443636077015644,-0.01310958168347389
-0.005443296077015644,-0.01113476821820406
-0.005442956077015644,-0.01281335966368647
-0.005442616077015644,-0.01268170543266645
-0.005442276077015644,-0.01169429870003153
-0.005441936077015644,-0.01050941062086747
-0.005441596077015644,-0.01301084101020974
-0.005441256077015644,-0.01077271908290393
-0.005440916077015644,-0.009982793696794558
-0.005440576077015644,-0.01426155620488746
-0.005440236077015644,-0.01452486466692344
-0.005439896077015644,-0.009324522541703417
-0.005439556077015644,-0.008732078502120969
-0.005439216077015644,-0.008501683597839487
-0.005438876077015644,-0.009159954752930631
-0.005438536077015644,-0.01350454437652888
-0.005438196077015644,-0.01169429870003153
-0.005437856077015644,-0.00767884465397556
-0.005437516077015644,-0.007843412442748766
-0.005437176077015644,-0.008073807347030245
-0.005436836077015644,-0.009127041195176074
-0.005436496077015645,-0.009785312350266018
-0.005436156077015644,-0.009785312350267215
-0.005435816077015644,-0.007547190422957332
-0.005435476077015645,-0.008337115809065265
-0.005435136077015644,-0.01251713764389546
-0.005434796077015644,-0.008732078502121389
-0.005434456077015645,-0.008172548020294936
-0.005434116077015644,-0.009423263214967087
-0.005433776077015644,-0.01054232417862203
-0.005433436077015645,-0.01050941062086753
-0.005433096077015644,-0.01120059533371317
-0.005432756077015644,-0.01103602754494038
-0.005432416077015645,-0.01238548341287477
-0.005432076077015644,-0.01399824774285052
-0.005431736077015644,-0.01199052071982254
-0.005431396077015645,-0.01103602754494212
-0.005431056077015644,-0.01136516312248596
-0.005430716077015644,-0.01212217495084077
-0.005430376077015645,-0.01126642244922384
-0.005430036077015644,-0.01636802390117864
-0.005429696077015644,-0.01024610215883101
-0.005429356077015644,-0.008567510713351656
-0.005429016077015644,-0.008764992059875945
-0.005428676077015644,-0.008238375135803031
-0.005428336077015644,-0.01031192927433636
-0.005427996077015644,-0.01304375456796837
-0.005427656077015644,-0.01192469360431343
-0.005427316077015644,-0.01031192927434013
-0.005426976077015644,-0.01120059533371317
-0.005426636077015644,-0.01067397840964026
-0.005426296077015644,-0.01057523773637659
-0.005425956077015644,-0.01123350889146773
-0.005425616077015644,-0.01100311398718583
-0.005425276077015644,-0.01031192927434013
-0.005424936077015644,-0.01182595293104976
-0.005424596077015644,-0.01320832235674115
-0.005424256077015644,-0.01245131052838634
-0.005423916077015644,-0.01208926139308675
-0.005423576077015644,-0.01238548341287723
-0.005423236077015644,-0.01195760716206798
-0.005422896077015644,-0.01129933600697409
-0.005422556077015644,-0.009785312350267215
-0.005422216077015644,-0.008106720904784802
-0.005421876077015644,-0.008304202251315977
-0.005421536077015644,-0.0104106699476038
-0.005421196077015644,-0.01004862081230367
-0.005420856077015644,-0.009291608983954246
-0.005420516077015644,-0.012253829181859
-0.005420176077015644,-0.0143273833203961
-0.005419836077015644,-0.01357037149204912
-0.005419496077015644,-0.01788204755788826
-0.005419156077015644,-0.01452486466692344
-0.005418816077015644,-0.01034484283209505
-0.005418476077015644,-0.01054232417862203
-0.005418136077015644,-0.009291608983948858
-0.005417796077015644,-0.01159555802677037
-0.005417456077015644,-0.01297792745245925
-0.005417116077015644,-0.009686571677003543
-0.005416776077015644,-0.008007980231523826
-0.005416436077015644,-0.009489090330476201
