Analysis/New Tests_CMB/wrd01_d2s01/cmb03_take2/cmb03_ch17.csv

#Digilent WaveForms Oscilloscope Acquisition
#Device Name: ADP3450
#Serial Number: SN:210018B9D9B0
#Date Time: 2024-08-08 13:03:31.950.144.120
#Sample rate: 2.94118e+06Hz
#Samples: 32768
#Trigger: Source: Channel 3 Type: Edge Condition: Rising Level: 60 mV Hyst.: Auto HoldOff: 0 s
#Channel 3: Range: 200 mV/div Offset: 0 V Attenuation: 1 X Coupling: DC Bandwidth: 0 Hz Sample Mode: Average

Time (s),Channel 3 (V)
-0.005570373662337663,0.009008329127584893
-0.005570033662337662,0.00775761393290855
-0.005569693662337663,0.006013195371920196
-0.005569353662337663,0.004729566619492469
-0.005569013662337662,0.004564998830716631
-0.005568673662337663,0.002886407385237271
-0.005568333662337663,0.001997741325864229
-0.005567993662337662,-0.002643070317526347
-0.005567653662337663,-0.001556922911627938
-0.005567313662337663,0.002261049787900686
-0.005566973662337662,0.00180025997933994
-0.005566633662337663,0.003478851424819299
-0.005566293662337663,-0.0004707755057275538
-0.005565953662337662,-0.001030305987552151
-0.005565613662337663,0.0005495447846637165
-0.005565273662337663,0.0005824583424182735
-0.005564933662337662,0.001207815939752823
-0.005564593662337663,8.875497609991696e-05
-0.005564253662337663,-0.002577243202019209
-0.005563913662337662,0.001372383728528183
-0.005563573662337663,0.001668605748318658
-0.005563233662337663,2.292786059080275e-05
-0.005562893662337663,0.001109075266489212
-0.005562553662337663,-9.985697163754359e-06
-0.005562213662337663,-0.002643070317528323
-0.005561873662337663,-0.00303803301058229
-0.005561533662337663,-0.002939292337319337
-0.005561193662337663,-0.004486229551783521
-0.005560853662337663,-0.0003062077169623716
-0.005560513662337663,-0.002873465221810222
-0.005560173662337663,-0.005374895611156563
-0.005559833662337663,-0.006329388786036982
-0.005559493662337663,-0.00517741426462922
-0.005559153662337663,-0.006131907439511376
-0.005558813662337663,-0.007283881960918779
-0.005558473662337663,-0.004288748205256179
-0.005558133662337663,-0.004025439743219721
-0.005557793662337663,-0.006263561670525533
-0.005557453662337663,-0.009324522541703417
-0.005557113662337663,-0.002346848297737309
-0.005556773662337663,-0.0003391212747129776
-0.005556433662337663,-0.0007669975255185678
-0.005556093662337663,-0.002182280508964523
-0.005555753662337663,-0.009324522541690425
-0.005555413662337663,-0.008435856482330374
-0.005555073662337663,-0.008271288693557588
-0.005554733662337663,-0.01080563264065388
-0.005554393662337662,-0.009982793696794558
-0.005554053662337663,-0.008830819175385059
-0.005553713662337663,-0.009192868310685188
-0.005553373662337662,-0.008468770040084931
-0.005553033662337663,-0.004914105802592763
-0.005552693662337663,-0.00619773455502049
-0.005552353662337662,-0.008271288693557588
-0.005552013662337663,-0.008468770040084931
-0.005551673662337663,-0.008567510713348603
-0.005551333662337662,-0.006263561670532299
-0.005550993662337663,-0.007744671769484675
-0.005550653662337663,-0.009192868310685188
-0.005550313662337662,-0.009851139465771779
-0.005549973662337663,-0.007349709076429989
-0.005549633662337663,-0.008435856482330374
-0.005549293662337662,-0.008962473406401612
-0.005548953662337663,-0.008040893789275689
-0.005548613662337663,-0.007415536191939104
-0.005548273662337662,-0.006131907439511077
-0.005547933662337663,-0.005967339650738591
-0.005547593662337663,-0.006461043017056948
-0.005547253662337662,-0.009785312350268473
-0.005546913662337663,-0.01047649706311291
-0.005546573662337663,-0.002774724548546551
-0.005546233662337662,-0.006329388786047579
-0.005545893662337663,-0.01120059533371317
-0.005545553662337663,-0.01024610215883101
-0.005545213662337662,-0.009258695426194541
-0.005544873662337663,-0.00939034965721253
-0.005544533662337663,-0.01195760716206798
-0.005544193662337662,-0.01004862081230212
-0.005543853662337663,-0.009192868310685188
-0.005543513662337663,-0.008732078502121389
-0.005543173662337662,-0.009884053023531306
-0.005542833662337663,-0.01011444792781279
-0.005542493662337663,-0.008797905617630502
-0.005542153662337663,-0.01067397840963684
-0.005541813662337663,-0.01241839697063178
-0.005541473662337663,-0.01136516312248596
-0.005541133662337663,-0.01126642244922246
-0.005540793662337663,-0.01050941062086747
-0.005540453662337663,-0.009061214079666959
-0.005540113662337663,-0.008073807347032041
-0.005539773662337663,-0.00869916494436683
-0.005539433662337663,-0.006329388786038719
-0.005539093662337663,-0.005934426092984751
-0.005538753662337663,-0.007349709076429989
-0.005538413662337663,-0.007547190422957332
-0.005538073662337663,-0.006164820997268448
-0.005537733662337663,-0.005572376957683906
-0.005537393662337663,-0.005835685419720362
-0.005537053662337663,-0.007316795518672739
-0.005536713662337663,-0.008402942924575817
-0.005536373662337663,-0.007942153116012016
-0.005536033662337663,-0.008139634462539
-0.005535693662337663,-0.01139807668024051
-0.005535353662337663,-0.01189178004655887
-0.005535013662337663,-0.01192469360431337
-0.005534673662337663,-0.01291210033695014
-0.005534333662337663,-0.01284627322144103
-0.005533993662337663,-0.01343871726102198
-0.005533653662337663,-0.01245131052838634
-0.005533313662337663,-0.01090437331392216
-0.005532973662337663,-0.008402942924575817
-0.005532633662337662,-0.00869916494436683
-0.005532293662337663,-0.01139807668024051
-0.005531953662337663,-0.004782451571574535
-0.005531613662337662,-0.006691437921338847
-0.005531273662337663,-0.003597563492410479
-0.005530933662337663,-0.004914105802592763
-0.005530593662337662,-0.008764992059875945
-0.005530253662337663,-0.007580103980711889
-0.005529913662337663,-0.004782451571574535
-0.005529573662337662,-0.007415536191942756
-0.005529233662337663,-0.009423263214967087
-0.005528893662337663,-0.00767884465397556
-0.005528553662337662,-0.006790178594607487
-0.005528213662337663,-0.009522003888230759
-0.005527873662337663,-0.009159954752930631
-0.005527533662337662,-0.008172548020296912
-0.005527193662337663,-0.009818225908021772
-0.005526853662337663,-0.0108714597561676
-0.005526513662337662,-0.01116768177595748
-0.005526173662337663,-0.01054232417862203
-0.005525833662337663,-0.008666251386612273
-0.005525493662337662,-0.007678844653977237
-0.005525153662337663,-0.00860042427110316
-0.005524813662337663,-0.008666251386612273
-0.005524473662337662,-0.009061214079665881
-0.005524133662337663,-0.008468770040084931
-0.005523793662337663,-0.01172721225778608
-0.005523453662337662,-0.01452486466693781
-0.005523113662337663,-0.02242411852801714
-0.005522773662337663,-0.0361161585539129
-0.005522433662337662,-0.05484397291630876
-0.005522093662337663,-0.08390664441352982
-0.005521753662337663,-0.1115211193696032
-0.005521413662337662,-0.1383127553818655
-0.005521073662337663,-0.1673095997635775
-0.005520733662337663,-0.1944632849110872
-0.005520393662337663,-0.2222752412136373
-0.005520053662337663,-0.2409043149027672
-0.005519713662337663,-0.2521936652125803
-0.005519373662337663,-0.2596650428228512
-0.005519033662337663,-0.2635488426379025
-0.005518693662337663,-0.2654907425454214
-0.005518353662337663,-0.2626930901362892
-0.005518013662337663,-0.2586776360902281
-0.005517673662337663,-0.254892576948454
-0.005517333662337663,-0.248606087417345
-0.005516993662337663,-0.2427474741370224
-0.005516653662337663,-0.234453257582874
-0.005516313662337663,-0.2265869172795492
-0.005515973662337663,-0.2175027753392771
-0.005515633662337663,-0.2115125078279477
-0.005515293662337663,-0.2040082166599224
-0.005514953662337663,-0.1951544696239328
-0.005514613662337663,-0.1898553868254492
-0.005514273662337663,-0.1796192703638005
-0.005513933662337663,-0.1759987790107806
-0.005513593662337663,-0.170765523327806
-0.005513253662337663,-0.1666842421662484
-0.005512913662337663,-0.1597065679222748
-0.005512573662337663,-0.1530909428136089
-0.005512233662337663,-0.1469690210712613
-0.005511893662337662,-0.1409129264444227
-0.005511553662337663,-0.1398596925962769
-0.005511213662337663,-0.1323883149859924
-0.005510873662337662,-0.1238966170853167
-0.005510533662337663,-0.1189924969798877
-0.005510193662337663,-0.1165568937060505
-0.005509853662337662,-0.1162606716862594
-0.005509513662337663,-0.1128376616797855
-0.005509173662337663,-0.1077689737855837
-0.005508833662337662,-0.1049054942609295
-0.005508493662337663,-0.1006596453105994
-0.005508153662337663,-0.09805947424798939
-0.005507813662337662,-0.09483394558803859
-0.005507473662337663,-0.09252999654522379
-0.005507133662337663,-0.0893702950007863
-0.005506793662337662,-0.08423577999106642
-0.005506453662337663,-0.07929874632789183
-0.005506113662337663,-0.07748850065139118
-0.005505773662337662,-0.07798220401770264
-0.005505433662337663,-0.07419714487593548
-0.005505093662337663,-0.07107035688925256
-0.005504753662337662,-0.06876640784643021
-0.005504413662337663,-0.06692324861217835
-0.005504073662337663,-0.06610040966831443
-0.005503733662337662,-0.06432307754956289
-0.005503393662337663,-0.06132794379390365
-0.005503053662337663,-0.05932021677087566
-0.005502713662337662,-0.06030762350350855
-0.005502373662337663,-0.05820115580722072
-0.005502033662337663,-0.05540350339808336
-0.005501693662337662,-0.05326412214404009
-0.005501353662337663,-0.05487688647401046
-0.005501013662337663,-0.05560098474461071
-0.005500673662337662,-0.04812960713431959
-0.005500333662337663,-0.0444762022235704
-0.005499993662337663,-0.03947334144487773
-0.005499653662337663,-0.04279761077808195
-0.005499313662337663,-0.04503573270539787
-0.005498973662337663,-0.04138232779464204
-0.005498633662337663,-0.03769600932613835
-0.005498293662337663,-0.04167854981443305
-0.005497953662337663,-0.04144815491015115
-0.005497613662337663,-0.03993413125344428
-0.005497273662337663,-0.03815679913469544
-0.005496933662337663,-0.03641238057370391
-0.005496593662337663,-0.03670860259349439
-0.005496253662337663,-0.03644529413145847
-0.005495913662337663,-0.0340426044153758
-0.005495573662337663,-0.0328248027784594
-0.005495233662337663,-0.03387803662660302
-0.005494893662337663,-0.03203487739234782
-0.005494553662337663,-0.03124495200623989
-0.005494213662337663,-0.03029045883135629
-0.005493873662337663,-0.03006006392707439
-0.005493533662337663,-0.02927013854096646
-0.005493193662337663,-0.02716367084467337
-0.005492853662337663,-0.02558382007245463
-0.005492513662337663,-0.02318113035637633
-0.005492173662337663,-0.02466224045532703
-0.005491833662337663,-0.02255577275903537
-0.005491493662337663,-0.02120631689110099
-0.005491153662337662,-0.02166710669966233
-0.005490813662337663,-0.026373745458564
-0.005490473662337663,-0.02482680824409981
-0.005490133662337662,-0.01775039332687003
-0.005489793662337663,-0.01926441698357966
-0.005489453662337663,-0.01794787467339738
-0.005489113662337662,-0.0226874269900536
-0.005488773662337663,-0.02538633872592728
-0.005488433662337663,-0.02219372362373525
-0.005488093662337662,-0.02140379823762887
-0.005487753662337663,-0.02304947612535373
-0.005487413662337663,-0.02133797112211676
-0.005487073662337662,-0.01923150342582325
-0.005486733662337663,-0.01821118313543383
-0.005486393662337663,-0.01495274091773268
-0.005486053662337662,-0.01399824774285052
-0.005485713662337663,-0.01399824774285052
-0.005485373662337663,-0.01195760716206798
-0.005485033662337662,-0.01146390379575268
-0.005484693662337663,-0.01314249524123204
-0.005484353662337663,-0.01403116130060508
-0.005484013662337662,-0.01327414947225296
-0.005483673662337663,-0.01475525957120534
-0.005483333662337663,-0.01505148159099635
-0.005482993662337662,-0.01666424592096839
-0.005482653662337663,-0.01597306120812395
-0.005482313662337663,-0.01505148159099635
-0.005481973662337662,-0.01422864264713356
-0.005481633662337663,-0.01485400024446901
-0.005481293662337663,-0.01544644428405104
-0.005480953662337662,-0.0130766681257258
-0.005480613662337663,-0.01465651889794167
-0.005480273662337663,-0.02094300842906207
-0.005479933662337662,-0.01310958168347647
-0.005479593662337663,-0.01255005120165001
-0.005479253662337663,-0.01274753254817735
-0.005478913662337663,-0.01258296475940487
-0.005478573662337663,-0.01705920861402434
-0.005478233662337663,-0.01748708486483358
-0.005477893662337663,-0.01508439514875528
-0.005477553662337663,-0.01442612399365977
-0.005477213662337663,-0.01814535601992472
-0.005476873662337663,-0.01804661534666123
-0.005476533662337663,-0.01689464082525155
-0.005476193662337663,-0.01643385101668775
-0.005475853662337663,-0.0170921221717777
-0.005475513662337663,-0.01696046794076066
-0.005475173662337663,-0.01626928322791496
-0.005474833662337663,-0.01567683918833402
-0.005474493662337663,-0.01422864264713243
-0.005474153662337663,-0.01554518495731471
-0.005473813662337663,-0.01551227139956021
-0.005473473662337663,-0.01373493928081407
-0.005473133662337663,-0.0138665935118323
-0.005472793662337663,-0.01363619860755082
-0.005472453662337663,-0.01343871726102305
-0.005472113662337663,-0.01380076639632318
-0.005471773662337663,-0.01327414947225123
-0.005471433662337663,-0.01129933600697684
-0.005471093662337663,-0.01106894110269494
-0.005470753662337663,-0.01478817312895313
-0.005470413662337663,-0.01136516312248596
-0.005470073662337663,-0.01287918677919558
-0.005469733662337663,-0.01505148159099635
-0.005469393662337662,-0.007547190422957332
-0.005469053662337663,-0.007711758211730118
-0.005468713662337663,-0.007876326000502903
-0.005468373662337662,-0.01073980552514937
-0.005468033662337663,-0.01505148159099635
-0.005467693662337663,-0.0143273833203961
-0.005467353662337662,-0.004552056667292635
-0.005467013662337663,-0.01383367995407774
-0.005466673662337663,-0.01561101207282382
-0.005466333662337662,-0.01310958168347425
-0.005465993662337663,-0.0113322495647314
-0.005465653662337663,-0.01116768177595861
-0.005465313662337662,-0.01067397840963918
-0.005464973662337663,-0.01008153437005823
-0.005464633662337663,-0.01073980552514937
-0.005464293662337662,-0.01169429870002668
-0.005463953662337663,-0.009028300521912402
-0.005463613662337663,-0.01031192927434013
-0.005463273662337662,-0.0102790157165824
-0.005462933662337663,-0.008534597155594046
-0.005462593662337663,-0.007152227729902647
-0.005462253662337662,-0.007645931096219207
-0.005461913662337663,-0.00665852436358429
-0.005461573662337663,-0.006296475228284162
-0.005461233662337662,-0.007481363307447619
-0.005460893662337663,-0.007152227729902647
-0.005460553662337663,-0.009489090330476201
-0.005460213662337662,-0.01106894110269297
-0.005459873662337663,-0.009982793696794558
-0.005459533662337663,-0.01139807668024051
-0.005459193662337662,-0.009225781868439564
-0.005458853662337663,-0.009127041195176074
-0.005458513662337663,-0.006559783690320619
-0.005458173662337662,-0.005012846475865655
-0.005457833662337663,-0.01008153437005823
-0.005457493662337663,-0.01090437331392216
-0.005457153662337663,-0.008633337828861847
-0.005456813662337663,-0.008007980231521132
-0.005456473662337663,-0.005802771861965805
-0.005456133662337663,-0.007942153116008125
-0.005455793662337663,-0.009159954752930631
-0.005455453662337663,-0.00688891926786619
-0.005455113662337663,-0.00688891926786619
-0.005454773662337663,-0.009752398792512659
-0.005454433662337663,-0.0104106699476038
-0.005454093662337663,-0.009620744561495866
-0.005453753662337663,-0.01024610215883101
-0.005453413662337663,-0.009159954752930631
-0.005453073662337663,-0.01087145975616449
-0.005452733662337663,-0.01143099023799507
-0.005452393662337663,-0.008337115809066702
-0.005452053662337663,-0.007547190422958769
-0.005451713662337663,-0.009291608983948858
-0.005451373662337663,-0.01008153437005823
-0.005451033662337663,-0.009587831003740771
-0.005450693662337663,-0.01106894110269494
-0.005450353662337663,-0.01189178004655887
-0.005450013662337663,-0.01136516312248691
-0.005449673662337663,-0.01274753254817735
-0.005449333662337663,-0.01215508850859533
-0.005448993662337663,-0.01432738332039214
-0.005448653662337662,-0.008633337828857716
-0.005448313662337663,-0.01093728687167671
-0.005447973662337663,-0.007810498884993789
-0.005447633662337662,-0.009752398792512659
-0.005447293662337663,-0.01482108668671445
-0.005446953662337663,-0.01291210033695014
-0.005446613662337662,-0.0101802750433219
-0.005446273662337663,-0.01205634783533165
-0.005445933662337663,-0.009061214079666959
-0.005445593662337662,-0.008205461578049852
-0.005445253662337663,-0.008962473406403288
-0.005444913662337663,-0.008271288693557588
-0.005444573662337662,-0.007942153116015069
-0.005444233662337663,-0.00962074456149443
-0.005443893662337663,-0.01073980552514937
-0.005443553662337662,-0.01126642244922564
-0.005443213662337663,-0.01310958168347748
-0.005442873662337663,-0.01189178004655887
-0.005442533662337662,-0.01176012581554381
-0.005442193662337663,-0.01350454437653217
-0.005441853662337663,-0.01222091562410444
-0.005441513662337662,-0.01083854619841586
-0.005441173662337663,-0.01238548341287723
-0.005440833662337663,-0.01426155620488698
-0.005440493662337662,-0.01133224956472823
-0.005440153662337663,-0.009587831003739873
-0.005439813662337663,-0.01047649706311291
-0.005439473662337662,-0.01070689196739062
-0.005439133662337663,-0.008402942924575817
-0.005438793662337663,-0.009291608983948858
-0.005438453662337662,-0.01301084101020214
-0.005438113662337663,-0.006592697248075176
-0.005437773662337663,-0.007975066673766575
-0.005437433662337662,-0.005539463399928929
-0.005437093662337663,-0.005309068495647449
-0.005436753662337663,-0.012253829181859
-0.005436413662337663,-0.01054232417862514
-0.005436073662337663,-0.008073807347030245
-0.005435733662337663,-0.009653658119248986
-0.005435393662337663,-0.009522003888230999
-0.005435053662337663,-0.009587831003739873
-0.005434713662337663,-0.01067397840964026
-0.005434373662337663,-0.009949880139041318
-0.005434033662337663,-0.00869916494436683
-0.005433693662337663,-0.008830819175385059
-0.005433353662337663,-0.008764992059876065
-0.005433013662337663,-0.008732078502121389
-0.005432673662337663,-0.008830819175385059
-0.005432333662337663,-0.009357436099457016
-0.005431993662337663,-0.008666251386612273
-0.005431653662337663,-0.009916966581285444
-0.005431313662337663,-0.01083854619841137
-0.005430973662337663,-0.009851139465776329
-0.005430633662337663,-0.0108714597561676
-0.005430293662337663,-0.01143099023799405
-0.005429953662337663,-0.01021318860107646
-0.005429613662337663,-0.01080563264065849
-0.005429273662337663,-0.01176012581553891
-0.005428933662337663,-0.01054232417862203
-0.005428593662337663,-0.01024610215883101
-0.005428253662337663,-0.01439321043589767
-0.005427913662337663,-0.01057523773637659
-0.005427573662337663,-0.006000253208493148
-0.005427233662337663,-0.007185141287657204
-0.005426893662337662,-0.006263561670529605
-0.005426553662337663,-0.009949880139040001
-0.005426213662337663,-0.01274753254817735
-0.005425873662337662,-0.01106894110269494
-0.005425533662337663,-0.01054232417862203
-0.005425193662337663,-0.01255005120165001
-0.005424853662337662,-0.0131754087989866
-0.005424513662337663,-0.01245131052838634
-0.005424173662337663,-0.01245131052838634
-0.005423833662337662,-0.01511730870650008
-0.005423493662337663,-0.01215508850859533
-0.005423153662337663,-0.01380076639632318
-0.005422813662337662,-0.01508439514874588
-0.005422473662337663,-0.01231965629736811
-0.005422133662337663,-0.01429446976264154
-0.005421793662337662,-0.01478817312895427
-0.005421453662337663,-0.01169429870003153
-0.005421113662337663,-0.01120059533371317
-0.005420773662337662,-0.01235256985510668
-0.005420433662337663,-0.003564649934655922
-0.005420093662337663,-0.01143099023799507
-0.005419753662337662,-0.01110185466044627
-0.005419413662337663,-0.009324522541703417
-0.005419073662337663,-0.009061214079666959
-0.005418733662337662,-0.009192868310682433
-0.005418393662337663,-0.00767884465397556
-0.005418053662337663,-0.006823092152357076
-0.005417713662337662,-0.01215508850859006
-0.005417373662337663,-0.009258695426194301
-0.005417033662337663,-0.003301341472619465
-0.005416693662337662,-0.01001570725455259
