Analysis/New Tests_CMB/wrd01_d2s01/cmb03_take2/cmb03_ch23.csv

#Digilent WaveForms Oscilloscope Acquisition
#Device Name: ADP3450
#Serial Number: SN:210018B9D9B0
#Date Time: 2024-08-08 13:21:33.110.091.440
#Sample rate: 2.94118e+06Hz
#Samples: 32768
#Trigger: Source: Channel 3 Type: Edge Condition: Rising Level: 60 mV Hyst.: Auto HoldOff: 0 s
#Channel 3: Range: 200 mV/div Offset: 0 V Attenuation: 1 X Coupling: DC Bandwidth: 0 Hz Sample Mode: Average

Time (s),Channel 3 (V)
-0.005570402448512586,0.006671466527011338
-0.005570062448512585,0.005848627583146693
-0.005569722448512586,0.005453664890092726
-0.005569382448512586,0.005354924216829054
-0.005569042448512585,0.004301690368683705
-0.005568702448512586,0.004564998830719684
-0.005568362448512586,0.009436205378394135
-0.005568022448512585,0.009469118936141028
-0.005567682448512586,0.005256183543565383
-0.005567342448512586,0.00630941739171121
-0.005567002448512585,0.006046108929672838
-0.005566662448512586,0.004992875081528926
-0.005566322448512586,0.005519492005601839
-0.005565982448512585,0.005519492005599265
-0.005565642448512586,0.004104209022155884
-0.005565302448512586,0.003248456520537399
-0.005564962448512585,0.002129395556882877
-0.005564622448512586,0.002359790461164357
-0.005564282448512586,0.002096481999127901
-0.005563942448512585,0.001800259979335809
-0.005563602448512586,0.001207815939754859
-0.005563262448512586,0.002524358249937143
-0.005562922448512586,-0.0004049483902131114
-0.005562582448512586,0.002096481999127901
-0.005562242448512586,0.001504037959545873
-0.005561902448512586,0.003018061616252746
-0.005561562448512586,-0.00244558897100098
-0.005561222448512586,-0.00767884465397556
-0.005560882448512586,-0.002708897433046478
-0.005560542448512585,-0.001161960218573253
-0.005560202448512586,-0.002577243202019209
-0.005559862448512586,-0.004650797340552534
-0.005559522448512585,-0.004354575320765292
-0.005559182448512586,-0.002577243202019209
-0.005558842448512586,-0.001951885604683761
-0.005558502448512585,-0.003630477050165036
-0.005558162448512586,-0.004716624456065421
-0.005557822448512586,-0.001886058489178658
-0.005557482448512585,-0.001392355122855153
-0.005557142448512586,-0.001129046660818696
-0.005556802448512586,-0.001951885604681127
-0.005556462448512585,-0.001458182238364267
-0.005556122448512586,-0.001458182238364267
-0.005555782448512586,-0.0001745534859388749
-0.005555442448512585,-0.001524009353873381
-0.005555102448512586,-0.00392669906995605
-0.005554762448512586,-0.00201771272019521
-0.005554422448512585,-0.001096133103064139
-0.005554082448512586,-0.0004707755057275538
-0.005553742448512586,-0.001754404258155281
-0.005553402448512585,-0.001129046660818696
-0.005553062448512586,-0.002083539835700852
-0.005552722448512586,-0.006230648112775047
-0.005552382448512585,-0.003038033010583008
-0.005552042448512586,-0.004025439743219721
-0.005551702448512586,-0.002840551664055666
-0.005551362448512585,-0.002149366951219067
-0.005551022448512586,-0.007152227729902647
-0.005550682448512586,-0.008007980231521132
-0.005550342448512585,-0.004881192244839584
-0.005550002448512586,-0.005638204073193019
-0.005549662448512586,-0.006691437921338847
-0.005549322448512585,-0.006033166766249261
-0.005548982448512586,-0.00688891926786619
-0.005548642448512586,-0.006263561670529605
-0.005548302448512585,-0.005078673591366447
-0.005547962448512586,-0.005572376957683906
-0.005547622448512586,-0.006724351479093405
-0.005547282448512585,-0.005835685419719883
-0.005546942448512586,-0.005572376957683906
-0.005546602448512586,-0.00665852436358429
-0.005546262448512585,-0.007613017538468422
-0.005545922448512586,-0.00869916494436683
-0.005545582448512586,-0.008962473406403288
-0.005545242448512585,-0.009522003888229861
-0.005544902448512586,-0.009028300521912402
-0.005544562448512586,-0.009094127637421515
-0.005544222448512585,-0.006888919267864453
-0.005543882448512586,-0.005934426092984033
-0.005543542448512586,-0.005539463399929348
-0.005543202448512585,-0.005572376957682409
-0.005542862448512586,-0.004749538013819977
-0.005542522448512586,-0.006625610805829733
-0.005542182448512586,-0.009851139465770462
-0.005541842448512586,-0.001458182238364267
-0.005541502448512586,-0.001589836469382495
-0.005541162448512586,-0.0004707755057295894
-0.005540822448512586,0.0009774210354729588
-0.005540482448512586,-0.004979932918101878
-0.005540142448512586,-0.004979932918101878
-0.005539802448512585,-0.002873465221810222
-0.005539462448512586,-0.00438748887851985
-0.005539122448512586,-0.006559783690316668
-0.005538782448512585,-0.006000253208493148
-0.005538442448512586,-0.007250968403166318
-0.005538102448512586,-0.008271288693555732
-0.005537762448512585,-0.007448449749693661
-0.005537422448512586,-0.007283881960920875
-0.005537082448512586,-0.008863732733136741
-0.005536742448512585,-0.008172548020293918
-0.005536402448512586,-0.007185141287657204
-0.005536062448512586,-0.007876326000501645
-0.005535722448512585,-0.007613017538466446
-0.005535382448512586,-0.007218054845411761
-0.005535042448512586,-0.006921832825621286
-0.005534702448512585,-0.005572376957683906
-0.005534362448512586,-0.00540780916891112
-0.005534022448512586,-0.006131907439510059
-0.005533682448512585,-0.005078673591365549
-0.005533342448512586,-0.004486229551783521
-0.005533002448512586,-0.004749538013819977
-0.005532662448512585,-0.006164820997265934
-0.005532322448512586,-0.005440722726665677
-0.005531982448512586,-0.009423263214967087
-0.005531642448512585,-0.007514276865202775
-0.005531302448512586,-0.00142526868060971
-0.005530962448512586,-0.002708897433037437
-0.005530622448512585,-0.003103860126092122
-0.005530282448512586,-0.005045760033610991
-0.005529942448512586,-0.007086400614393532
-0.005529602448512585,-0.005868598977473482
-0.005529262448512586,-0.005078673591365549
-0.005528922448512586,-0.005934426092984033
-0.005528582448512585,-0.007119314172147132
-0.005528242448512586,-0.006592697248075176
-0.005527902448512586,-0.007448449749693661
-0.005527562448512585,-0.008797905617626851
-0.005527222448512586,-0.006790178594602518
-0.005526882448512586,-0.007580103980711889
-0.005526542448512585,-0.00883081917538895
-0.005526202448512586,-0.01097020042943127
-0.005525862448512586,-0.00790923955825746
-0.005525522448512585,-0.006823092152356537
-0.005525182448512586,-0.006526870132566062
-0.005524842448512586,-0.005210327822383777
-0.005524502448512585,-0.006493956574811504
-0.005524162448512586,-0.006493956574811504
-0.005523822448512586,-0.006428129459302391
-0.005523482448512585,-0.01116768177596909
-0.005523142448512586,-0.01692755438300611
-0.005522802448512586,-0.01988977458091625
-0.005522462448512585,-0.04457494289687832
-0.005522122448512586,-0.06889806207745178
-0.005521782448512586,-0.09749994376616192
-0.005521442448512585,-0.1319604387352339
-0.005521102448512586,-0.1598382221532931
-0.005520762448512586,-0.1836676379675924
-0.005520422448512586,-0.2095706079203817
-0.005520082448512586,-0.2285617307448083
-0.005519742448512586,-0.2464008790477783
-0.005519402448512586,-0.2565711683939179
-0.005519062448512586,-0.2607841037865197
-0.005518722448512586,-0.2610144986908016
-0.005518382448512586,-0.2585788954169688
-0.005518042448512585,-0.2562091192586363
-0.005517702448512586,-0.2510087771334162
-0.005517362448512586,-0.2441627571204809
-0.005517022448512585,-0.2379091811471025
-0.005516682448512586,-0.2301744950747816
-0.005516342448512586,-0.2225714632334928
-0.005516002448512585,-0.2165811957221495
-0.005515662448512586,-0.2074641402241372
-0.005515322448512586,-0.1976888135710515
-0.005514982448512585,-0.1894604241323945
-0.005514642448512586,-0.1845563040269655
-0.005514302448512586,-0.178302728053611
-0.005513962448512585,-0.1725428554465521
-0.005513622448512586,-0.1654335269715678
-0.005513282448512586,-0.1591799509982133
-0.005512942448512585,-0.1564810392623283
-0.005512602448512586,-0.151741486945672
-0.005512262448512586,-0.1447308991439514
-0.005511922448512585,-0.1393989027877131
-0.005511582448512586,-0.1378848791310035
-0.005511242448512586,-0.1330465861410836
-0.005510902448512585,-0.1301831066164371
-0.005510562448512586,-0.1199140765970153
-0.005510222448512586,-0.1111919837920577
-0.005509882448512585,-0.1136275870658949
-0.005509542448512586,-0.1096121330198389
-0.005509202448512586,-0.1024369774293455
-0.005508862448512585,-0.09845443694104375
-0.005508522448512586,-0.09828986915227128
-0.005508182448512586,-0.09424150154846075
-0.005507842448512585,-0.08759296288203434
-0.005507502448512586,-0.08436743422209361
-0.005507162448512586,-0.08104316488888336
-0.005506822448512585,-0.07877212940381048
-0.005506482448512586,-0.07413131776042636
-0.005506142448512586,-0.07209067717964382
-0.005505802448512585,-0.06916137053948955
-0.005505462448512586,-0.0698854688100885
-0.005505122448512586,-0.06932593832826103
-0.005504782448512585,-0.06537631139771338
-0.005504442448512586,-0.06494843514690493
-0.005504102448512586,-0.06442181822283202
-0.005503762448512585,-0.06277614033509774
-0.005503422448512586,-0.05925438965536655
-0.005503082448512586,-0.05708209484356578
-0.005502742448512585,-0.05418570176116715
-0.005502402448512586,-0.05550224407134704
-0.005502062448512586,-0.04836000203860814
-0.005501722448512585,-0.04431163443480576
-0.005501382448512586,-0.04878787828941739
-0.005501042448512586,-0.04984111213756322
-0.005500702448512585,-0.0460231394380307
-0.005500362448512586,-0.04388375818398838
-0.005500022448512586,-0.04352170904868825
-0.005499682448512586,-0.04098736510159196
-0.005499342448512586,-0.03894672452080481
-0.005499002448512586,-0.03733396019083152
-0.005498662448512586,-0.03585285009187913
-0.005498322448512586,-0.03305519768273909
-0.005497982448512586,-0.03331850614477554
-0.005497642448512586,-0.03298937056723057
-0.005497302448512585,-0.02979675546503794
-0.005496962448512586,-0.02900683007892857
-0.005496622448512586,-0.02920431142545555
-0.005496282448512585,-0.02933596565647414
-0.005495942448512586,-0.02782194199976451
-0.005495602448512586,-0.02831564536608197
-0.005495262448512585,-0.02801942334629185
-0.005494922448512586,-0.02920431142545591
-0.005494582448512586,-0.02824981825057549
-0.005494242448512585,-0.02512303026389083
-0.005493902448512586,-0.02380648795370854
-0.005493562448512586,-0.0231153032408641
-0.005493222448512585,-0.02189750160394423
-0.005492882448512586,-0.02265451343229904
-0.005492542448512586,-0.0220291558349636
-0.005492202448512585,-0.01449195110916888
-0.005491862448512586,-0.01916567631031599
-0.005491522448512586,-0.01659841880546521
-0.005491182448512585,-0.01373493928081407
-0.005490842448512586,-0.0192315034258251
-0.005490502448512586,-0.02021891015846182
-0.005490162448512585,-0.01817826957767928
-0.005489822448512586,-0.01682881370974244
-0.005489482448512586,-0.01850740515522485
-0.005489142448512585,-0.01850740515522485
-0.005488802448512586,-0.01669715947872421
-0.005488462448512586,-0.01696046794076066
-0.005488122448512585,-0.01732251707605714
-0.005487782448512586,-0.01531479005303281
-0.005487442448512586,-0.01547935784180559
-0.005487102448512585,-0.0163680239011772
-0.005486762448512586,-0.01557809851506927
-0.005486422448512586,-0.01547935784180559
-0.005486082448512585,-0.01719086284504173
-0.005485742448512586,-0.01673007303647877
-0.005485402448512586,-0.01620345611240585
-0.005485062448512585,-0.01567683918833174
-0.005484722448512586,-0.0150185680332418
-0.005484382448512586,-0.01468943245569622
-0.005484042448512585,-0.01449195110916679
-0.005483702448512586,-0.01333997658775938
-0.005483362448512586,-0.0117930393732952
-0.005483022448512585,-0.01215508850859509
-0.005482682448512586,-0.0120234342775771
-0.005482342448512586,-0.01097020042943127
-0.005482002448512585,-0.01600597476586707
-0.005481662448512586,-0.009719485234758102
-0.005481322448512586,-0.00665852436358429
-0.005480982448512585,-0.01205634783532088
-0.005480642448512586,-0.006131907439511376
-0.005480302448512586,-0.006790178594602518
-0.005479962448512585,-0.009818225908016683
-0.005479622448512586,-0.007020573498884419
-0.005479282448512586,-0.004321661763010735
-0.005478942448512586,-0.0059344260929811
-0.005478602448512586,-0.007876326000502903
-0.005478262448512586,-0.006592697248075176
-0.005477922448512586,-0.007152227729901629
-0.005477582448512586,-0.001458182238364267
-0.005477242448512586,-0.007481363307448217
-0.005476902448512586,-0.008666251386610119
-0.005476562448512586,-0.01060815129413114
-0.005476222448512586,-0.01047649706311291
-0.005475882448512586,-0.0106410648518854
-0.005475542448512585,-0.0113322495647314
-0.005475202448512586,-0.01083854619841304
-0.005474862448512586,-0.009522003888233155
-0.005474522448512585,-0.009719485234758102
-0.005474182448512586,-0.009884053023530886
-0.005473842448512586,-0.008896646290895968
-0.005473502448512585,-0.007547190422957332
-0.005473162448512586,-0.008205461578048474
-0.005472822448512586,-0.006691437921341601
-0.005472482448512585,-0.007744671769484675
-0.005472142448512586,-0.00767884465397556
-0.005471802448512586,-0.007613017538466566
-0.005471462448512585,-0.01208926139308621
-0.005471122448512586,-0.005704031188702134
-0.005470782448512586,-0.007316795518672499
-0.005470442448512585,-0.007645931096221003
-0.005470102448512586,-0.001524009353873381
-0.005469762448512586,-0.002511416086510094
-0.005469422448512585,-0.007415536191939104
-0.005469082448512586,-0.006329388786038719
-0.005468742448512586,-0.0008657381987822392
-0.005468402448512585,-0.0006353432945003394
-0.005468062448512586,-0.003893785512201493
-0.005467722448512586,-0.004749538013819977
-0.005467382448512585,-0.004255834647501621
-0.005467042448512586,-0.00540780916891112
-0.005466702448512586,-0.006954746383375304
-0.005466362448512585,-0.007744671769487428
-0.005466022448512586,-0.009258695426194301
-0.005465682448512586,-0.007843412442748346
-0.005465342448512585,-0.006757265036848799
-0.005465002448512586,-0.007218054845411761
-0.005464662448512586,-0.007975066673766575
-0.005464322448512585,-0.006559783690319301
-0.005463982448512586,-0.005835685419720362
-0.005463642448512586,-0.005473636284420234
-0.005463302448512585,-0.005341982053403622
-0.005462962448512586,-0.006230648112775047
-0.005462622448512586,-0.005967339650738591
-0.005462282448512585,-0.004914105802593661
-0.005461942448512586,-0.00540780916891112
-0.005461602448512586,-0.007086400614393532
-0.005461262448512585,-0.006197734555026537
-0.005460922448512586,-0.009522003888230759
-0.005460582448512586,-0.006921832825620747
-0.005460242448512585,-0.003367168588134207
-0.005459902448512586,-0.006461043017056948
-0.005459562448512586,-0.002807638106301108
-0.005459222448512585,-0.001556922911635841
-0.005458882448512586,-0.005901512535229476
-0.005458542448512586,-0.006362302343793276
-0.005458202448512585,-0.002741810990792653
-0.005457862448512586,-0.003103860126092122
-0.005457522448512586,-0.004584970225047193
-0.005457182448512586,-0.006000253208490573
-0.005456842448512586,-0.004716624456065421
-0.005456502448512586,-0.005539463399929348
-0.005456162448512586,-0.006296475228282784
-0.005455822448512586,-0.005473636284420234
-0.005455482448512586,-0.00711931417214809
-0.005455142448512586,-0.006856005710112112
-0.005454802448512585,-0.005671117630947577
-0.005454462448512586,-0.005572376957683906
-0.005454122448512586,-0.006790178594600303
-0.005453782448512585,-0.005671117630947577
-0.005453442448512586,-0.005144500706874663
-0.005453102448512586,-0.006428129459300056
-0.005452762448512585,-0.005835685419720362
-0.005452422448512586,-0.00688891926786619
-0.005452082448512586,-0.007382622634183648
-0.005451742448512585,-0.007316795518675433
-0.005451402448512586,-0.006757265036847961
-0.005451062448512586,-0.007448449749692403
-0.005450722448512585,-0.006362302343793276
-0.005450382448512586,-0.009357436099457973
-0.005450042448512586,-0.00688891926787068
-0.005449702448512585,0.0007799396889456162
-0.005449362448512586,-0.002840551664055666
-0.005449022448512586,-0.005309068495642958
-0.005448682448512585,-0.00517741426462922
-0.005448342448512586,-0.00415709397423795
-0.005448002448512586,-0.008172548020293918
-0.005447662448512585,-0.01027901571658557
-0.005447322448512586,-0.01090437331392216
-0.005446982448512586,-0.01097020042943127
-0.005446642448512585,-0.01241839697063178
-0.005446302448512586,-0.01077271908290393
-0.005445962448512586,-0.009686571677003543
-0.005445622448512585,-0.01011444792780914
-0.005445282448512586,-0.008106720904784802
-0.005444942448512586,-0.008402942924575817
-0.005444602448512585,-0.008304202251311187
-0.005444262448512586,-0.007777585327239231
-0.005443922448512586,-0.00711931417214809
-0.005443582448512585,-0.007514276865200919
-0.005443242448512586,-0.006493956574811504
-0.005442902448512586,-0.005045760033610991
-0.005442562448512585,-0.005539463399927312
-0.005442222448512586,-0.004420402436274407
-0.005441882448512586,-0.004222921089747064
-0.005441542448512585,-0.004519143109538078
-0.005441202448512586,-0.004519143109538078
-0.005440862448512586,-0.004617883782801749
-0.005440522448512585,-0.005539463399929707
-0.005440182448512586,-0.005736944746456691
-0.005439842448512586,-0.00540780916891112
-0.005439502448512585,-0.006757265036849997
-0.005439162448512586,-0.007876326000502903
-0.005438822448512586,-0.006856005710111633
-0.005438482448512585,-0.007119314172155274
-0.005438142448512586,-0.01106894110269494
-0.005437802448512586,-0.008139634462539359
-0.005437462448512585,-0.005901512535228579
-0.005437122448512586,-0.00540780916891112
-0.005436782448512586,-0.001787317815909838
-0.005436442448512586,-0.004354575320760622
-0.005436102448512586,-0.007020573498884419
-0.005435762448512586,-0.005835685419720362
-0.005435422448512586,-0.003202600799360583
-0.005435082448512586,-0.006362302343793276
-0.005434742448512586,-0.003827958396692379
-0.005434402448512586,-0.004157093974237351
-0.005434062448512585,-0.004716624456065421
-0.005433722448512586,-0.00540780916891112
-0.005433382448512586,-0.004683710898312181
-0.005433042448512585,-0.006461043017056948
-0.005432702448512586,-0.006987659941129861
-0.005432362448512586,-0.001030305987565861
-0.005432022448512585,-0.004979932918101878
-0.005431682448512586,-0.004815365129329092
-0.005431342448512586,-0.005407809168910042
-0.005431002448512585,-0.004782451571574535
-0.005430662448512586,-0.00438748887851985
-0.005430322448512586,-0.002577243202022501
-0.005429982448512585,-0.002215194066719081
-0.005429642448512586,-0.003531736376901365
-0.005429302448512586,-0.003597563492410359
-0.005428962448512585,-0.004124180416483393
-0.005428622448512586,-0.006526870132566062
-0.005428282448512586,-0.006395215901548072
-0.005427942448512585,-0.008040893789275689
-0.005427602448512586,-0.01304375456796837
-0.005427262448512586,-0.005769858304211248
-0.005426922448512585,-0.004255834647501621
-0.005426582448512586,-0.00837002936682126
-0.005426242448512586,-0.003301341472619465
-0.005425902448512585,-0.004222921089747064
-0.005425562448512586,-0.01083854619841304
-0.005425222448512586,-0.007975066673766575
-0.005424882448512585,-0.003762131281183265
-0.005424542448512586,-0.004552056667292635
-0.005424202448512586,-0.005967339650738591
-0.005423862448512585,-0.00619773455502079
-0.005423522448512586,-0.006362302343793276
-0.005423182448512586,-0.005934426092984033
-0.005422842448512585,-0.004947019360352828
-0.005422502448512586,-0.007975066673766575
-0.005422162448512586,-0.009061214079666959
-0.005421822448512585,-0.008073807347027851
-0.005421482448512586,-0.006757265036847961
-0.005421142448512586,-0.006823092152357076
-0.005420802448512585,-0.0070205734988837
-0.005420462448512586,-0.006625610805829733
-0.005420122448512586,-0.006395215901547833
-0.005419782448512585,-0.003762131281187635
-0.005419442448512586,-0.006164820997265934
-0.005419102448512586,-0.007843412442748346
-0.005418762448512585,-0.005671117630943625
-0.005418422448512586,-0.003498822819146808
-0.005418082448512586,-0.005144500706874663
-0.005417742448512585,-0.006197734555019413
