Analysis/files/cmb03_wrd01/d2s08_ch43.csv

#Digilent WaveForms Oscilloscope Acquisition
#Device Name: ADP3450
#Serial Number: SN:210018B9D9B0
#Date Time: 2024-08-13 17:47:25.504.410.770
#Sample rate: 2.94118e+06Hz
#Samples: 32768
#Trigger: Source: Channel 3 Type: Edge Condition: Rising Level: 60 mV Hyst.: Auto HoldOff: 0 s
#Channel 3: Range: 200 mV/div Offset: 0 V Attenuation: 1 X Coupling: DC Bandwidth: 0 Hz Sample Mode: Average

Time (s),Channel 3 (V)
-0.005570467157107233,0.009008329127584893
-0.005570127157107232,0.008251317299229659
-0.005569787157107232,0.00802092239494818
-0.005569447157107233,0.00904124268533945
-0.005569107157107232,0.009765340955936713
-0.005568767157107232,0.00811966306821185
-0.005568427157107233,0.008777934223302994
-0.005568087157107232,0.01226677134528557
-0.005567747157107232,0.01200346288324959
-0.005567407157107233,0.009008329127584893
-0.005567067157107232,0.008086749510470285
-0.005566727157107232,0.01522899154319619
-0.005566387157107233,0.01150975951693123
-0.005566047157107232,0.01243133913405051
-0.005565707157107232,0.007856354606175394
-0.005565367157107232,0.001010334593227516
-0.005565027157107232,0.003972554791136758
-0.005564687157107232,0.003478851424819299
-0.005564347157107232,-0.0001087263704274257
-0.005564007157107232,8.875497610458676e-05
-0.005563667157107232,0.002656012480955371
-0.005563327157107232,0.001931914210355115
-0.005562987157107233,0.001010334593229192
-0.005562647157107232,0.001569865075054987
-0.005562307157107232,0.001339470170773087
-0.005561967157107233,0.001931914210354037
-0.005561627157107232,0.001800259979336887
-0.005561287157107232,0.0006153719001728307
-0.005560947157107233,0.001141988824244787
-0.005560607157107232,0.002886407385237271
-0.005560267157107232,0.002228136230146129
-0.005559927157107233,0.0007799396889482503
-0.005559587157107232,0.001141988824245744
-0.005559247157107232,0.001240729497509416
-0.005558907157107233,0.0009115939199644433
-0.005558567157107232,0.0008786803622092876
-0.005558227157107232,-0.001030305987555025
-0.005557887157107233,-0.001886058489171953
-0.005557547157107232,-0.0007669975255185678
-0.005557207157107232,-0.0007999110832731249
-0.005556867157107233,-0.006888919267855113
-0.005556527157107232,-0.002149366951209966
-0.005556187157107232,0.001668605748318658
-0.005555847157107233,0.001800259979336647
-0.005555507157107232,0.0009445074777184018
-0.005555167157107232,-0.003729217723428708
-0.005554827157107233,-0.004782451571572619
-0.005554487157107232,-0.001359441565100596
-0.005554147157107232,-0.001227787334082367
-0.005553807157107233,-0.003169687241601236
-0.005553467157107232,-0.002544329644264652
-0.005553127157107232,0.0002533227648727025
-0.005552787157107233,0.001866087094846001
-0.005552447157107232,-0.0007999110832731249
-0.005552107157107232,0.00153695151730043
-0.005551767157107233,0.001800259979336887
-0.005551427157107232,0.001372383728528602
-0.005551087157107232,0.001899000652600558
-0.005550747157107233,0.0002862363226272596
-0.005550407157107232,-0.001524009353870747
-0.005550067157107232,-7.581281267286857e-05
-0.005549727157107233,-0.0007340839677640107
-0.005549387157107232,-0.003893785512199098
-0.005549047157107232,-0.002577243202019209
-0.005548707157107233,-0.0006353432945003394
-0.005548367157107232,-0.00208353983569702
-0.005548027157107232,2.292786059080275e-05
-0.005547687157107233,-0.0005366026212366681
-0.005547347157107232,-0.002412675413247082
-0.005547007157107232,-0.002774724548546551
-0.005546667157107233,-0.004815365129329092
-0.005546327157107232,-0.0118259529310479
-0.005545987157107232,-0.01080563264065849
-0.005545647157107233,-0.006559783690320619
-0.005545307157107232,-0.006592697248074398
-0.005544967157107232,-0.006164820997265934
-0.005544627157107232,-0.009192868310685188
-0.005544287157107232,-0.0101144479278047
-0.005543947157107232,-0.005671117630947577
-0.005543607157107232,-0.006033166766247705
-0.005543267157107232,-0.00623064811277403
-0.005542927157107232,-0.005671117630947577
-0.005542587157107232,-0.003729217723428708
-0.005542247157107233,-0.003367168588129238
-0.005541907157107232,-0.004058353300974278
-0.005541567157107232,-0.00244558897100098
-0.005541227157107233,-0.001918972046929025
-0.005540887157107232,-0.003202600799355794
-0.005540547157107232,-0.003268427914864908
-0.005540207157107233,-0.00609899388175167
-0.005539867157107232,-0.004617883782801749
-0.005539527157107232,-0.006263561670529605
-0.005539187157107233,-0.005802771861966643
-0.005538847157107232,-0.006526870132566062
-0.005538507157107232,-0.004288748205256179
-0.005538167157107233,-0.003367168588130256
-0.005537827157107232,-0.004519143109538078
-0.005537487157107232,-0.003795044838937822
-0.005537147157107233,-0.001951885604685976
-0.005536807157107232,-0.001984799162437181
-0.005536467157107232,0.005420751332338168
-0.005536127157107233,-0.006098993881735864
-0.005535787157107232,-0.00313677368384668
-0.005535447157107232,0.0005166312269091594
-0.005535107157107233,0.003215542962777933
-0.005534767157107232,0.002820580269728157
-0.005534427157107232,-0.001918972046928067
-0.005534087157107233,-0.002939292337317481
-0.005533747157107232,-0.001030305987555025
-0.005533407157107232,-0.002379761855491866
-0.005533067157107233,-0.004815365129329092
-0.005532727157107232,-0.004420402436274407
-0.005532387157107232,-0.005802771861965805
-0.005532047157107233,-0.004420402436274407
-0.005531707157107232,-0.003860871954446936
-0.005531367157107232,-0.005835685419720362
-0.005531027157107233,-0.004650797340556306
-0.005530687157107232,-0.003959612627710607
-0.005530347157107232,-0.004354575320765292
-0.005530007157107233,-0.005078673591365549
-0.005529667157107232,-0.005045760033610872
-0.005529327157107232,-0.004979932918101878
-0.005528987157107233,-0.001491095796118824
-0.005528647157107232,-0.001063219545314312
-0.005528307157107232,-0.003663390607919593
-0.005527967157107233,-0.004617883782801749
-0.005527627157107232,-0.002478502528757154
-0.005527287157107232,-0.00336716858812858
-0.005526947157107233,-0.006098993881756819
-0.005526607157107232,-0.00623064811277403
-0.005526267157107232,-0.005671117630947577
-0.005525927157107233,-0.005802771861965805
-0.005525587157107232,-0.008830819175383562
-0.005525247157107232,-0.008007980231521132
-0.005524907157107233,-0.002972205895073894
-0.005524567157107232,-0.0005695161789943982
-0.005524227157107232,-0.002313934739982752
-0.005523887157107232,-0.008007980231521132
-0.005523547157107232,-0.006592697248083138
-0.005523207157107232,-0.01097020042943127
-0.005522867157107232,-0.02258868631678993
-0.005522527157107232,-0.03963790923369464
-0.005522187157107232,-0.06389520129875911
-0.005521847157107232,-0.09032478817566847
-0.005521507157107232,-0.1163923259173436
-0.005521167157107232,-0.1526301530050451
-0.005520827157107232,-0.1846221311424746
-0.005520487157107233,-0.209866829940174
-0.005520147157107232,-0.2328404932529007
-0.005519807157107232,-0.2494618399189521
-0.005519467157107233,-0.2612448935950621
-0.005519127157107232,-0.2667414577400946
-0.005518787157107232,-0.2634501019646389
-0.005518447157107233,-0.2614423749416145
-0.005518107157107232,-0.2616398562881382
-0.005517767157107232,-0.2565382548361819
-0.005517427157107233,-0.2483098653975575
-0.005517087157107232,-0.2397523403813577
-0.005516747157107232,-0.2326100983486188
-0.005516407157107233,-0.2261261274709829
-0.005516067157107232,-0.2172065533194861
-0.005515727157107232,-0.2103934468642928
-0.005515387157107233,-0.2033499455048304
-0.005515047157107232,-0.1955494323169875
-0.005514707157107232,-0.1892629427858671
-0.005514367157107233,-0.1832397617167942
-0.005514027157107232,-0.1759329518952715
-0.005513687157107232,-0.169284413228851
-0.005513347157107233,-0.1649398236052573
-0.005513007157107232,-0.1587520747473927
-0.005512667157107232,-0.1510832157905809
-0.005512327157107233,-0.1464753177049429
-0.005511987157107232,-0.1411433213487046
-0.005511647157107232,-0.1357454978769573
-0.005511307157107233,-0.1304793286362281
-0.005510967157107232,-0.125805603435081
-0.005510627157107232,-0.1196836816927334
-0.005510287157107233,-0.1156682276466774
-0.005509947157107232,-0.1103691448481937
-0.005509607157107232,-0.1091842567690297
-0.005509267157107233,-0.1024040638715909
-0.005508927157107232,-0.09726954886187
-0.005508587157107232,-0.09177298471686898
-0.005508247157107233,-0.09019313394465023
-0.005507907157107232,-0.09157550337033546
-0.005507567157107232,-0.08818540692162224
-0.005507227157107233,-0.08295215123864766
-0.005506887157107232,-0.0802861530605211
-0.005506547157107232,-0.07620487189896347
-0.005506207157107233,-0.07245272631494395
-0.005505867157107232,-0.07064248063843846
-0.005505527157107232,-0.06797648246032417
-0.005505187157107233,-0.06557379274424152
-0.005504847157107232,-0.06396102841426438
-0.005504507157107232,-0.06185456071797656
-0.005504167157107233,-0.05941895744413933
-0.005503827157107232,-0.05783910667191802
-0.005503487157107232,-0.05642382368847464
-0.005503147157107233,-0.05211214762262766
-0.005502807157107232,-0.0507297781969329
-0.005502467157107232,-0.04888661896268106
-0.005502127157107232,-0.04569400386048902
-0.005501787157107232,-0.04388375818398838
-0.005501447157107232,-0.04388375818398838
-0.005501107157107232,-0.0416456362566785
-0.005500767157107232,-0.03911129230957748
-0.005500427157107232,-0.03904546519406848
-0.005500087157107232,-0.03687317038226771
-0.005499747157107233,-0.03572119586086031
-0.005499407157107232,-0.03716939240205873
-0.005499067157107232,-0.0393416872138595
-0.005498727157107233,-0.03259440787418757
-0.005498387157107232,-0.03108038421746566
-0.005498047157107232,-0.02795359623078274
-0.005497707157107233,-0.02548507939919544
-0.005497367157107232,-0.03022463171584718
-0.005497027157107232,-0.02927013854096502
-0.005496687157107233,-0.02660414036285075
-0.005496347157107232,-0.02762446065323717
-0.005496007157107232,-0.02798650978853729
-0.005495667157107233,-0.02703201661365687
-0.005495327157107232,-0.02680162170937324
-0.005494987157107232,-0.02653831324733678
-0.005494647157107233,-0.02446475910880345
-0.005494307157107232,-0.02390522862697221
-0.005493967157107232,-0.02370774728044487
-0.005493627157107233,-0.02176584737292954
-0.005493287157107232,-0.02485972180185437
-0.005492947157107232,-0.02189750160394423
-0.005492607157107233,-0.02002142881193789
-0.005492267157107232,-0.01870488650175219
-0.005491927157107232,-0.01778330688462459
-0.005491587157107233,-0.01426155620489339
-0.005491247157107232,-0.01152973091125874
-0.005490907157107232,-0.01172721225778608
-0.005490567157107233,-0.009916966581285444
-0.005490227157107232,-0.008797905617630502
-0.005489887157107232,-0.003038033010583008
-0.005489547157107233,-0.009949880139040001
-0.005489207157107232,-0.01274753254817735
-0.005488867157107232,-0.01798078823115194
-0.005488527157107233,-0.01603888832363307
-0.005488187157107232,-0.01113476821820448
-0.005487847157107232,-0.01136516312248596
-0.005487507157107233,-0.009291608983948858
-0.005487167157107232,-0.01156264446901743
-0.005486827157107232,-0.01383367995407774
-0.005486487157107233,-0.0106410648518857
-0.005486147157107232,-0.008337115809068976
-0.005485807157107232,-0.009587831003739873
-0.005485467157107233,-0.009719485234758102
-0.005485127157107232,-0.008863732733139496
-0.005484787157107232,-0.008797905617630502
-0.005484447157107233,-0.009522003888230759
-0.005484107157107232,-0.008402942924575397
-0.005483767157107232,-0.008172548020293918
-0.005483427157107233,-0.0106410648518857
-0.005483087157107232,-0.01146390379574783
-0.005482747157107232,-0.01047649706311291
-0.005482407157107233,-0.009258695426194301
-0.005482067157107232,-0.006559783690318583
-0.005481727157107232,-0.005440722726665677
-0.005481387157107232,-0.00790923955825746
-0.005481047157107232,-0.005539463399923721
-0.005480707157107232,-0.00244558897100098
-0.005480367157107232,-0.004025439743219721
-0.005480027157107232,-0.005309068495647209
-0.005479687157107232,-0.00517741426462922
-0.005479347157107232,-0.005802771861965805
-0.005479007157107233,-0.004453315994031418
-0.005478667157107232,-0.005736944746456691
-0.005478327157107232,-0.0113322495647314
-0.005477987157107233,-0.006230648112784327
-0.005477647157107232,-0.001853144931418952
-0.005477307157107232,-0.001787317815909838
-0.005476967157107233,-0.002445588970999783
-0.005476627157107232,-0.005572376957683906
-0.005476287157107232,-0.006461043017056948
-0.005475947157107233,-0.003465909261397699
-0.005475607157107232,-0.003432995703637694
-0.005475267157107232,-0.005802771861965805
-0.005474927157107233,-0.006230648112774269
-0.005474587157107232,-0.003663390607919593
-0.005474247157107232,-0.005835685419720362
-0.005473907157107233,-0.00609899388175634
-0.005473567157107232,-0.005243241380138334
-0.005473227157107232,-0.004979932918101878
-0.005472887157107233,-0.004848278687083888
-0.005472547157107232,-0.003630477050165036
-0.005472207157107232,-0.00188605848917351
-0.005471867157107233,-0.002346848297736471
-0.005471527157107232,-0.002050626277946295
-0.005471187157107232,-0.00142526868060971
-0.005470847157107233,-0.00297220589507108
-0.005470507157107232,-0.00517741426462922
-0.005470167157107232,-0.005572376957683906
-0.005469827157107233,-0.006461043017056948
-0.005469487157107232,-0.008007980231521132
-0.005469147157107232,-0.007645931096221003
-0.005468807157107233,-0.008896646290894173
-0.005468467157107232,-0.008534597155594046
-0.005468127157107232,-0.008666251386612273
-0.005467787157107233,-0.01251713764389546
-0.005467447157107232,-0.006559783690320619
-0.005467107157107232,-0.002083539835700852
-0.005466767157107233,-7.581281267286857e-05
-0.005466427157107232,-0.002083539835704923
-0.005466087157107232,-0.004321661763010735
-0.005465747157107233,-0.002511416086510094
-0.005465407157107232,-7.581281267544296e-05
-0.005465067157107232,-0.001491095796118824
-0.005464727157107233,-0.002182280508964523
-0.005464387157107232,-0.00303803301058217
-0.005464047157107232,-0.002577243202019209
-0.005463707157107233,-0.001951885604682624
-0.005463367157107232,-0.005078673591363214
-0.005463027157107232,-0.003795044838937822
-0.005462687157107233,-0.002643070317528323
-0.005462347157107232,-0.00287346522181154
-0.005462007157107232,-0.003597563492410479
-0.005461667157107233,-0.002741810990791994
-0.005461327157107232,-0.002972205895074792
-0.005460987157107232,-0.003465909261392251
-0.005460647157107233,-0.004025439743219721
-0.005460307157107232,-0.004222921089748621
-0.005459967157107232,-0.005078673591365549
-0.005459627157107232,-0.003795044838937822
-0.005459287157107232,-0.003762131281185061
-0.005458947157107232,-0.004749538013819977
-0.005458607157107232,-0.003301341472619465
-0.005458267157107232,-0.003070946568337745
-0.005457927157107232,-0.003169687241601236
-0.005457587157107232,-0.007152227729902647
-0.005457247157107233,-0.002939292337327
-0.005456907157107232,0.0006153719001728307
-0.005456567157107232,-0.003795044838937822
-0.005456227157107233,-0.005539463399926175
-0.005455887157107232,-0.004914105802592763
-0.005455547157107232,-0.004749538013819977
-0.005455207157107233,-0.005572376957682409
-0.005454867157107232,-0.005638204073193019
-0.005454527157107232,-0.005045760033610991
-0.005454187157107233,-0.004255834647503058
-0.005453847157107232,-0.004288748205256179
-0.005453507157107232,-0.003630477050165036
-0.005453167157107233,-0.0009644788720507601
-0.005452827157107232,-0.003893785512201493
-0.005452487157107232,-0.004354575320765292
-0.005452147157107233,-0.00438748887851979
-0.005451807157107232,-0.004782451571574535
-0.005451467157107232,-0.006329388786038719
-0.005451127157107233,-0.006131907439511735
-0.005450787157107232,-0.006033166766247705
-0.005450447157107232,-0.006790178594602518
-0.005450107157107233,-0.004420402436278718
-0.005449767157107232,-0.003992526185465165
-0.005449427157107232,-0.005078673591365549
-0.005449087157107233,-0.002873465221814234
-0.005448747157107232,-0.001030305987555025
-0.005448407157107232,-0.001688577142646167
-0.005448067157107233,-0.001721490700400724
-0.005447727157107232,-0.0002403806014456541
-0.005447387157107232,-0.001293614449591481
-0.005447047157107233,-0.0008986517565367963
-0.005446707157107232,-0.001918972046928067
-0.005446367157107232,-0.002939292337319337
-0.005446027157107233,-0.001096133103064139
-0.005445687157107232,-0.000503689063483428
-0.005445347157107232,-0.001227787334082367
-0.005445007157107233,-0.001524009353873381
-0.005444667157107232,-0.001425268680610009
-0.005444327157107232,-0.001589836469382495
-0.005443987157107233,-0.0009315653142913533
-0.005443647157107232,-9.985697156270682e-06
-0.005443307157107232,0.004104209022155884
-0.005442967157107233,0.0006482854579273878
-0.005442627157107232,-0.003400082145889123
-0.005442287157107232,-0.006691437921338847
-0.005441947157107233,-0.004914105802592763
-0.005441607157107232,-0.004124180416481297
-0.005441267157107232,-0.002972205895073894
-0.005440927157107233,-0.002149366951209966
-0.005440587157107232,-0.006098993881757477
-0.005440247157107232,-0.006461043017056948
-0.005439907157107233,-0.003038033010583008
-0.005439567157107232,-0.002248107624475973
-0.005439227157107232,-0.003531736376901365
-0.005438887157107232,-0.00392669906995605
-0.005438547157107232,-0.003268427914864249
-0.005438207157107232,-0.00290637877956478
-0.005437867157107232,-0.004354575320765292
-0.005437527157107232,-0.004453315994028006
-0.005437187157107232,-0.00392669906995605
-0.005436847157107232,-0.004782451571574535
-0.005436507157107233,-0.005309068495646491
-0.005436167157107232,-0.005341982053402005
-0.005435827157107232,-0.004650797340556306
-0.005435487157107233,-0.00316968724160393
-0.005435147157107232,-0.002050626277946295
-0.005434807157107232,-0.003630477050165036
-0.005434467157107233,-0.00214936695121266
-0.005434127157107232,0.0009115939199638446
-0.005433787157107232,0.0002533227648727025
-0.005433447157107233,-0.00162275002713364
-0.005433107157107232,-0.001161960218573253
-0.005432767157107232,-0.001524009353873381
-0.005432427157107233,-0.001951885604681845
-0.005432087157107232,-0.001754404258155281
-0.005431747157107232,-0.005769858304211248
-0.005431407157107233,-0.005276154937893789
-0.005431067157107232,0.001569865075054987
-0.005430727157107232,0.0027876667119736
-0.005430387157107233,0.0002533227648773124
-0.005430047157107232,-0.00313677368384668
-0.005429707157107232,-0.003498822819146808
-0.005429367157107233,-0.000207467043697084
-0.005429027157107232,-0.0003062077169547683
-0.005428687157107232,-0.0009644788720459105
-0.005428347157107233,-0.001359441565099877
-0.005428007157107232,0.0002862363226272596
-0.005427667157107232,0.001043248150982073
-0.005427327157107233,-0.002149366951209966
-0.005426987157107232,-0.00267598387528288
-0.005426647157107232,-0.003038033010583008
-0.005426307157107233,-0.003334255030374022
-0.005425967157107232,-0.005506549842174791
-0.005425627157107232,-0.006395215901547833
-0.005425287157107233,-0.005934426092984033
-0.005424947157107232,-0.005769858304211248
-0.005424607157107232,-0.004782451571574535
-0.005424267157107233,-0.006921832825620747
-0.005423927157107232,-0.00718514128765433
-0.005423587157107232,-0.005605290515438462
-0.005423247157107233,-0.005506549842174791
-0.005422907157107232,-0.006856005710109956
-0.005422567157107232,-0.005934426092984033
-0.005422227157107233,-0.003762131281183265
-0.005421887157107232,-0.004091266858730812
-0.005421547157107232,-0.00517741426462922
-0.005421207157107233,-0.008205461578048474
-0.005420867157107232,-0.001688577142643952
-0.005420527157107232,-0.0004707755057275538
-0.005420187157107233,0.001668605748318658
-0.005419847157107232,-0.0009973924298074723
-0.005419507157107232,-0.004848278687083649
-0.005419167157107233,-0.00188605848917351
-0.005418827157107232,-0.0001087263704326343
-0.005418487157107232,-0.002972205895073894
-0.005418147157107232,-0.00188605848917351
-0.005417807157107232,-0.001293614449591721
