Analysis/files/cmb03_wrd01/d2s03_ch34.csv

#Digilent WaveForms Oscilloscope Acquisition
#Device Name: ADP3450
#Serial Number: SN:210018B9D9B0
#Date Time: 2024-08-13 11:48:25.286.671.110
#Sample rate: 2.94118e+06Hz
#Samples: 32768
#Trigger: Source: Channel 3 Type: Edge Condition: Rising Level: 60 mV Hyst.: Auto HoldOff: 0 s
#Channel 3: Range: 200 mV/div Offset: 0 V Attenuation: 1 X Coupling: DC Bandwidth: 0 Hz Sample Mode: Average

Time (s),Channel 3 (V)
-0.005570451471321696,0.002228136230146129
-0.005570111471321695,8.875497610069526e-05
-0.005569771471321695,0.0005166312269091594
-0.005569431471321696,0.001833173537091444
-0.005569091471321695,0.0002533227648710262
-0.005568751471321695,-0.0006682568522548965
-0.005568411471321696,-0.001392355122855153
-0.005568071471321695,0.001273643055261458
-0.005567731471321695,-0.0001087263704274257
-0.005567391471321696,0.002129395556882458
-0.005567051471321695,-0.0008657381987842149
-0.005566711471321695,-0.001951885604682624
-0.005566371471321696,-0.0004707755057275538
-0.005566031471321695,-0.003005119452838629
-0.005565691471321695,-0.00860042427110316
-0.005565351471321696,-0.007744671769484675
-0.005565011471321695,0.0001545820915989132
-0.005564671471321695,-0.00540780916891112
-0.005564331471321696,-0.007547190422957332
-0.005563991471321695,-0.007185141287658281
-0.005563651471321695,-0.007777585327239231
-0.005563311471321696,-0.008040893789275689
-0.005562971471321696,-0.007613017538467225
-0.005562631471321695,-0.008172548020293918
-0.005562291471321696,-0.009423263214967087
-0.005561951471321696,-0.008106720904787198
-0.005561611471321695,-0.007975066673766575
-0.005561271471321696,-0.009291608983948858
-0.005560931471321696,-0.009258695426194362
-0.005560591471321695,-0.01129933600697684
-0.005560251471321696,-0.009522003888230759
-0.005559911471321696,-0.008370029366823356
-0.005559571471321695,-0.009028300521912402
-0.005559231471321696,-0.009686571677003543
-0.005558891471321696,-0.007975066673769689
-0.005558551471321695,-0.005901512535229476
-0.005558211471321696,-0.007580103980711889
-0.005557871471321696,-0.007547190422957392
-0.005557531471321695,-0.007942153116012016
-0.005557191471321696,-0.008764992059875945
-0.005556851471321696,-0.008962473406402929
-0.005556511471321695,-0.01146390379574963
-0.005556171471321696,-0.01146390379574963
-0.005555831471321696,-0.009785312350270269
-0.005555491471321695,-0.009489090330476201
-0.005555151471321696,-0.01258296475940457
-0.005554811471321696,-0.008732078502128393
-0.005554471471321695,-0.008732078502121389
-0.005554131471321696,-0.006954746383375304
-0.005553791471321696,-0.009587831003739873
-0.005553451471321695,-0.0150185680332418
-0.005553111471321696,-0.01406407485835964
-0.005552771471321696,-0.01218800206634988
-0.005552431471321695,-0.01310958168347748
-0.005552091471321696,-0.01445903755141432
-0.005551751471321696,-0.01472234601345078
-0.005551411471321695,-0.01333997658775795
-0.005551071471321696,-0.01255005120165001
-0.005550731471321696,-0.01281335966368647
-0.005550391471321695,-0.0119905207198229
-0.005550051471321696,-0.01218800206634988
-0.005549711471321696,-0.01268170543266824
-0.005549371471321695,-0.01133224956472925
-0.005549031471321695,-0.01014736148556734
-0.005548691471321696,-0.01103602754494038
-0.005548351471321695,-0.01041066994760111
-0.005548011471321695,-0.008929559848648731
-0.005547671471321696,-0.01054232417862203
-0.005547331471321695,-0.01090437331392401
-0.005546991471321695,-0.01192469360431343
-0.005546651471321696,-0.01350454437653217
-0.005546311471321695,-0.01110185466045088
-0.005545971471321695,-0.01185886648880431
-0.005545631471321696,-0.01255005120165001
-0.005545291471321695,-0.01360328504980117
-0.005544951471321695,-0.01653259168995142
-0.005544611471321696,-0.01291210033695014
-0.005544271471321695,-0.01077271908290417
-0.005543931471321695,-0.01090437331392216
-0.005543591471321696,-0.0108714597561676
-0.005543251471321695,-0.0151502222642602
-0.005542911471321695,-0.0152489629375237
-0.005542571471321696,-0.01291210033695014
-0.005542231471321696,-0.01347163081877659
-0.005541891471321695,-0.01357037149204128
-0.005541551471321696,-0.01459069178243255
-0.005541211471321696,-0.01531479005303149
-0.005540871471321695,-0.01465651889794167
-0.005540531471321696,-0.01498565447548724
-0.005540191471321696,-0.01574266630384067
-0.005539851471321695,-0.01505148159099635
-0.005539511471321696,-0.0127146189904228
-0.005539171471321696,-0.01347163081877623
-0.005538831471321695,-0.01189178004655887
-0.005538491471321696,-0.01218800206634988
-0.005538151471321696,-0.01327414947224829
-0.005537811471321695,-0.01357037149204128
-0.005537471471321696,-0.01422864264713243
-0.005537131471321696,-0.01538061716853983
-0.005536791471321695,-0.01590723409261484
-0.005536451471321696,-0.01531479005303281
-0.005536111471321696,-0.0165655052477037
-0.005535771471321695,-0.01636802390117864
-0.005535431471321696,-0.01610471543914218
-0.005535091471321696,-0.01623636967016017
-0.005534751471321695,-0.01702629505626978
-0.005534411471321696,-0.01893528140603409
-0.005534071471321696,-0.01238548341288914
-0.005533731471321695,-0.014557778224678
-0.005533391471321696,-0.01021318860107646
-0.005533051471321696,-0.0117930393732952
-0.005532711471321695,-0.01613762899689674
-0.005532371471321696,-0.01462360534018711
-0.005532031471321696,-0.01278044610593191
-0.005531691471321695,-0.01422864264713243
-0.005531351471321696,-0.01468943245569622
-0.005531011471321696,-0.01403116130060508
-0.005530671471321695,-0.01666424592096965
-0.005530331471321696,-0.01014736148556734
-0.005529991471321696,-0.0117930393732952
-0.005529651471321695,-0.01478817312895971
-0.005529311471321696,-0.01468943245569622
-0.005528971471321696,-0.01445903755141432
-0.005528631471321695,-0.01416281553162409
-0.005528291471321695,-0.01459069178243255
-0.005527951471321696,-0.01475525957120534
-0.005527611471321695,-0.01521604937976716
-0.005527271471321695,-0.01412990197386875
-0.005526931471321696,-0.01314249524123204
-0.005526591471321695,-0.01373493928081562
-0.005526251471321695,-0.01459069178243255
-0.005525911471321696,-0.0134058037032685
-0.005525571471321695,-0.01442612399366162
-0.005525231471321695,-0.01544644428405104
-0.005524891471321696,-0.01584140697710572
-0.005524551471321695,-0.01712503572954315
-0.005524211471321695,-0.0224570320857717
-0.005523871471321696,-0.0196922932343889
-0.005523531471321695,-0.02028473727398656
-0.005523191471321695,-0.02887517584791034
-0.005522851471321696,-0.03697191105553139
-0.005522511471321695,-0.05997848792601793
-0.005522171471321695,-0.08808666624835856
-0.005521831471321696,-0.1136275870658949
-0.005521491471321695,-0.1436447517381093
-0.005521151471321695,-0.1757354705487442
-0.005520811471321696,-0.2037449081978722
-0.005520471471321696,-0.2277388918009007
-0.005520131471321695,-0.2494947534767066
-0.005519791471321696,-0.2612448935950835
-0.005519451471321696,-0.2699340728422708
-0.005519111471321695,-0.2751344149675066
-0.005518771471321696,-0.277339623337062
-0.005518431471321696,-0.2743444895814027
-0.005518091471321695,-0.2680909136080314
-0.005517751471321696,-0.2631867935026024
-0.005517411471321696,-0.255550848103559
-0.005517071471321695,-0.2493301856879339
-0.005516731471321696,-0.2412334504803128
-0.005516391471321696,-0.2319518271935446
-0.005516051471321695,-0.2247766716030342
-0.005515711471321696,-0.2185230956296684
-0.005515371471321696,-0.2099326570557446
-0.005515031471321695,-0.200716860884453
-0.005514691471321696,-0.1948582476041418
-0.005514351471321696,-0.1874197835516255
-0.005514011471321695,-0.1819561329643554
-0.005513671471321696,-0.1799154923835729
-0.005513331471321696,-0.1662234523577021
-0.005512991471321695,-0.1591799509982019
-0.005512651471321696,-0.154045435988491
-0.005512311471321696,-0.1485817854012345
-0.005511971471321695,-0.1455208245300607
-0.005511631471321696,-0.1412091484642138
-0.005511291471321696,-0.1350872267218661
-0.005510951471321695,-0.1300514523854189
-0.005510611471321696,-0.1276158491115817
-0.005510271471321696,-0.1239953577585804
-0.005509931471321695,-0.1207369155408792
-0.005509591471321696,-0.1184658800558148
-0.005509251471321696,-0.114582080240777
-0.005508911471321695,-0.1096450465775871
-0.005508571471321696,-0.1061562094556104
-0.005508231471321696,-0.1025686316603637
-0.005507891471321695,-0.09763159799717283
-0.005507551471321696,-0.09361614395112416
-0.005507211471321696,-0.09210212029441453
-0.005506871471321695,-0.08890950519221853
-0.005506531471321695,-0.08673721038042173
-0.005506191471321696,-0.08489405114616652
-0.005505851471321695,-0.08282049700762616
-0.005505511471321695,-0.0810102513311288
-0.005505171471321696,-0.08012158527175575
-0.005504831471321695,-0.07706062440057519
-0.005504491471321695,-0.073341392374317
-0.005504151471321696,-0.07399966352940812
-0.005503811471321695,-0.07103744333149704
-0.005503471471321695,-0.07051082640742506
-0.005503131471321696,-0.07018169082987952
-0.005502791471321695,-0.06080132686982594
-0.005502451471321695,-0.05816824224946616
-0.005502111471321696,-0.05612760166868362
-0.005501771471321695,-0.05517310849380146
-0.005501431471321695,-0.05517310849380146
-0.005501091471321696,-0.05221088829589133
-0.005500751471321695,-0.05036772906163283
-0.005500411471321695,-0.04855748338513548
-0.005500071471321696,-0.04694471905516219
-0.005499731471321696,-0.04635227501558124
-0.005499391471321695,-0.04460785645458863
-0.005499051471321696,-0.04253430231605154
-0.005498711471321696,-0.04213933962299758
-0.005498371471321695,-0.04016452615772342
-0.005498031471321696,-0.03960499567589595
-0.005497691471321696,-0.04052657529302187
-0.005497351471321695,-0.03848593471224102
-0.005497011471321696,-0.03753144153735886
-0.005496671471321696,-0.03733396019083188
-0.005496331471321695,-0.03598450432289467
-0.005495991471321696,-0.0342729993196577
-0.005495651471321696,-0.03400969085762173
-0.005495311471321695,-0.03321976547151188
-0.005494971471321696,-0.03088290287093832
-0.005494631471321696,-0.03219944518111821
-0.005494291471321695,-0.03012589104258351
-0.005493951471321696,-0.02936887921422869
-0.005493611471321696,-0.02940179277198319
-0.005493271471321695,-0.03042211306237452
-0.005492931471321696,-0.03374638239558479
-0.005492591471321696,-0.02894100296342819
-0.005492251471321695,-0.02551799295694551
-0.005491911471321696,-0.02318113035637196
-0.005491571471321696,-0.02364192016493492
-0.005491231471321695,-0.02801942334629185
-0.005490891471321696,-0.02696618949814603
-0.005490551471321696,-0.0249913760328726
-0.005490211471321695,-0.02864478094362844
-0.005489871471321696,-0.0289080894056649
-0.005489531471321696,-0.02792068267302818
-0.005489191471321695,-0.02907265719443768
-0.005488851471321696,-0.02848021315485565
-0.005488511471321696,-0.02824981825057375
-0.005488171471321695,-0.02775611488425414
-0.005487831471321696,-0.0270649301714097
-0.005487491471321696,-0.02607752343877298
-0.005487151471321695,-0.02716367084466965
-0.005486811471321696,-0.02512303026389083
-0.005486471471321696,-0.02295073545209006
-0.005486131471321695,-0.02265451343229665
-0.005485791471321695,-0.02133797112211676
-0.005485451471321696,-0.01942898477235245
-0.005485111471321695,-0.01909984919480724
-0.005484771471321695,-0.01929733054133422
-0.005484431471321696,-0.01794787467339738
-0.005484091471321695,-0.01840866448195561
-0.005483751471321695,-0.01534770361078737
-0.005483411471321696,-0.01676298659423332
-0.005483071471321695,-0.01745417130708046
-0.005482731471321695,-0.01824409669318839
-0.005482391471321696,-0.02117340333334397
-0.005482051471321695,-0.01673007303647733
-0.005481711471321695,-0.0159401476503694
-0.005481371471321696,-0.0131754087989866
-0.005481031471321695,-0.01284627322145139
-0.005480691471321695,-0.0185403187129794
-0.005480351471321696,-0.01893528140603409
-0.005480011471321695,-0.0153806171685436
-0.005479671471321695,-0.01630219678566952
-0.005479331471321696,-0.01761873909585181
-0.005478991471321696,-0.01692755438300736
-0.005478651471321695,-0.0190011085215432
-0.005478311471321696,-0.01801370178890649
-0.005477971471321696,-0.01850740515522395
-0.005477631471321695,-0.01867197294399764
-0.005477291471321696,-0.02031765083172549
-0.005476951471321696,-0.01926441698358158
-0.005476611471321695,-0.0192315034258251
-0.005476271471321696,-0.01771747976911548
-0.005475931471321696,-0.01468943245570173
-0.005475591471321695,-0.01620345611240585
-0.005475251471321696,-0.01626928322791496
-0.005474911471321696,-0.01577557986159751
-0.005474571471321695,-0.0150185680332418
-0.005474231471321696,-0.0152489629375237
-0.005473891471321696,-0.01534770361078719
-0.005473551471321695,-0.01600597476587851
-0.005473211471321696,-0.01488691380222357
-0.005472871471321696,-0.01264879187491775
-0.005472531471321695,-0.01449195110916888
-0.005472191471321696,-0.01893528140603409
-0.005471851471321696,-0.01926441698357906
-0.005471511471321695,-0.01120059533371317
-0.005471171471321696,-0.01449195110916888
-0.005470831471321696,-0.01310958168348
-0.005470491471321695,-0.01633511034342408
-0.005470151471321696,-0.01903402207929776
-0.005469811471321696,-0.01603888832363307
-0.005469471471321695,-0.01515022226426002
-0.005469131471321696,-0.01735543063381535
-0.005468791471321696,-0.01738834419156991
-0.005468451471321695,-0.0152489629375237
-0.005468111471321696,-0.01666424592096965
-0.005467771471321696,-0.01636802390117864
-0.005467431471321695,-0.01554518495731471
-0.005467091471321696,-0.01488691380222357
-0.005466751471321696,-0.01472234601345078
-0.005466411471321695,-0.01426155620488417
-0.005466071471321696,-0.0127146189904228
-0.005465731471321696,-0.01281335966368647
-0.005465391471321695,-0.01004862081230259
-0.005465051471321695,-0.009456176772721644
-0.005464711471321696,-0.01080563264065849
-0.005464371471321695,-0.009291608983947422
-0.005464031471321695,-0.008501683597839487
-0.005463691471321696,-0.008304202251312145
-0.005463351471321695,-0.008534597155594466
-0.005463011471321695,-0.008764992059875945
-0.005462671471321696,-0.01080563264065849
-0.005462331471321695,-0.01103602754494278
-0.005461991471321695,-0.01235256985512267
-0.005461651471321696,-0.01959355256112523
-0.005461311471321695,-0.01538061716853558
-0.005460971471321695,-0.01189178004655887
-0.005460631471321696,-0.01255005120165001
-0.005460291471321695,-0.01162847158452912
-0.005459951471321695,-0.01531479005303281
-0.005459611471321696,-0.01702629505626978
-0.005459271471321695,-0.0148210866867132
-0.005458931471321695,-0.01412990197386875
-0.005458591471321696,-0.01613762899689674
-0.005458251471321695,-0.01712503572952968
-0.005457911471321695,-0.01505148159099635
-0.005457571471321696,-0.01538061716854192
-0.005457231471321696,-0.01531479005303293
-0.005456891471321695,-0.01452486466692344
-0.005456551471321696,-0.01498565447548724
-0.005456211471321696,-0.01531479005303221
-0.005455871471321695,-0.01531479005303281
-0.005455531471321696,-0.01495274091773268
-0.005455191471321696,-0.01603888832363109
-0.005454851471321695,-0.0150185680332418
-0.005454511471321696,-0.01551227139956015
-0.005454171471321696,-0.01396533418509878
-0.005453831471321695,-0.01337289014551394
-0.005453491471321696,-0.01327414947225027
-0.005453151471321696,-0.01399824774284921
-0.005452811471321695,-0.01426155620488698
-0.005452471471321696,-0.0136361986075504
-0.005452131471321696,-0.01515022226425727
-0.005451791471321695,-0.01482108668671445
-0.005451451471321696,-0.01541353072629648
-0.005451111471321696,-0.0187378000595007
-0.005450771471321695,-0.01106894110269494
-0.005450431471321696,-0.01031192927434013
-0.005450091471321696,-0.009554917445986693
-0.005449751471321695,-0.01162847158452241
-0.005449411471321696,-0.01485400024446901
-0.005449071471321696,-0.01304375456797166
-0.005448731471321695,-0.01208926139308621
-0.005448391471321696,-0.01139807668024051
-0.005448051471321696,-0.01251713764389546
-0.005447711471321695,-0.01185886648880431
-0.005447371471321696,-0.01057523773637659
-0.005447031471321696,-0.01199052071982254
-0.005446691471321695,-0.01337289014551394
-0.005446351471321696,-0.01389950706958685
-0.005446011471321696,-0.01416281553162331
-0.005445671471321695,-0.01613762899689661
-0.005445331471321696,-0.01607180188138762
-0.005444991471321696,-0.01534770361078737
-0.005444651471321695,-0.01468943245569604
-0.005444311471321696,-0.01459069178243255
-0.005443971471321696,-0.01468943245569622
-0.005443631471321695,-0.01455777822468147
-0.005443291471321695,-0.01646676457444231
-0.005442951471321696,-0.01515022226426002
-0.005442611471321695,-0.01768456621135972
-0.005442271471321695,-0.01702629505626978
-0.005441931471321696,-0.01485400024446901
-0.005441591471321695,-0.01577557986159511
-0.005441251471321695,-0.01495274091773268
-0.005440911471321696,-0.01659841880546054
-0.005440571471321695,-0.01738834419155506
-0.005440231471321695,-0.009225781868439744
-0.005439891471321696,-0.01162847158452241
-0.005439551471321695,-0.01570975274608618
-0.005439211471321695,-0.01498565447548724
-0.005438871471321696,-0.01360328504979584
-0.005438531471321695,-0.0156110120728258
-0.005438191471321695,-0.01669715947872421
-0.005437851471321696,-0.01488691380222357
-0.005437511471321695,-0.01416281553161696
-0.005437171471321695,-0.01067397840964026
-0.005436831471321696,-0.012253829181859
-0.005436491471321696,-0.01162847158452355
-0.005436151471321695,-0.01136516312248596
-0.005435811471321696,-0.01097020042943127
-0.005435471471321696,-0.009522003888233394
-0.005435131471321695,-0.009752398792512659
-0.005434791471321696,-0.01001570725454911
-0.005434451471321696,-0.01034484283209409
-0.005434111471321695,-0.01195760716206798
-0.005433771471321696,-0.01360328504979584
-0.005433431471321696,-0.01436029687814928
-0.005433091471321695,-0.01505148159099635
-0.005432751471321696,-0.0159401476503694
-0.005432411471321696,-0.01412990197387205
-0.005432071471321695,-0.01416281553162331
-0.005431731471321696,-0.01380076639632318
-0.005431391471321696,-0.01231965629737081
-0.005431051471321695,-0.01268170543266824
-0.005430711471321696,-0.01366911216530495
-0.005430371471321696,-0.01538061716853881
-0.005430031471321695,-0.01264879187491368
-0.005429691471321696,-0.01278044610593191
-0.005429351471321696,-0.0104764970631171
-0.005429011471321695,-0.008304202251312145
-0.005428671471321696,-0.01478817312895989
-0.005428331471321696,-0.01534770361078635
-0.005427991471321695,-0.01172721225778608
-0.005427651471321696,-0.01123350889146773
-0.005427311471321696,-0.0134058037032685
-0.005426971471321695,-0.01314249524123204
-0.005426631471321696,-0.0127146189904228
-0.005426291471321696,-0.01251713764389546
-0.005425951471321695,-0.01320832235674115
-0.005425611471321696,-0.01337289014551394
-0.005425271471321696,-0.01426155620488698
-0.005424931471321695,-0.01426155620488698
-0.005424591471321696,-0.01429446976264154
-0.005424251471321696,-0.01607180188138762
-0.005423911471321695,-0.01521604937977171
-0.005423571471321696,-0.01663133236321509
-0.005423231471321696,-0.01610471543914218
-0.005422891471321695,-0.01455777822467997
-0.005422551471321695,-0.01564392563057838
-0.005422211471321696,-0.01656550524770598
-0.005421871471321695,-0.01406407485835862
-0.005421531471321695,-0.01350454437653217
-0.005421191471321696,-0.01626928322791496
-0.005420851471321695,-0.01518313582201464
-0.005420511471321695,-0.01521604937976914
-0.005420171471321696,-0.01676298659423332
-0.005419831471321695,-0.02077844064027815
-0.005419491471321695,-0.01465651889794167
-0.005419151471321696,-0.0138665935118323
-0.005418811471321695,-0.01212217495083844
-0.005418471471321695,-0.01083854619841304
-0.005418131471321696,-0.01607180188138762
-0.005417791471321695,-0.01544644428404553
-0.005417451471321695,-0.01241839697063178
-0.005417111471321696,-0.01215508850859533
-0.005416771471321695,-0.01403116130060095
-0.005416431471321695,-0.01176012581554064
-0.005416091471321696,-0.01021318860107646
-0.005415751471321695,-0.0100486208123017
