Analysis/files/cmb03_wrd01/d2s08_ch18.csv

#Digilent WaveForms Oscilloscope Acquisition
#Device Name: ADP3450
#Serial Number: SN:210018B9D9B0
#Date Time: 2024-08-13 17:36:33.096.796.220
#Sample rate: 2.94118e+06Hz
#Samples: 32768
#Trigger: Source: Channel 3 Type: Edge Condition: Rising Level: 60 mV Hyst.: Auto HoldOff: 0 s
#Channel 3: Range: 200 mV/div Offset: 0 V Attenuation: 1 X Coupling: DC Bandwidth: 0 Hz Sample Mode: Average

Time (s),Channel 3 (V)
-0.005570314903969271,0.01006156297573072
-0.00556997490396927,0.01085148836183901
-0.00556963490396927,0.01025904432225806
-0.005569294903969271,0.009567859609412364
-0.00556895490396927,0.009765340955940964
-0.00556861490396927,0.01045652566878541
-0.005568274903969271,0.009633686724921478
-0.00556793490396927,0.009502032493900017
-0.00556759490396927,0.007724700375157166
-0.005567254903969271,0.003314283636046514
-0.00556691490396927,0.01009447653348743
-0.00556657490396927,0.01127936461264933
-0.005566234903969271,0.01118062393938566
-0.00556589490396927,0.006046108929672658
-0.00556555490396927,0.004894134408265255
-0.005565214903969271,0.006638552969256781
-0.00556487490396927,0.006704380084764519
-0.00556453490396927,0.005947368256411082
-0.005564194903969271,0.002985148058500942
-0.00556385490396927,0.00140529728628298
-0.00556351490396927,0.001833173537091444
-0.005563174903969271,0.001734432863827772
-0.005562834903969271,-0.002182280508957399
-0.00556249490396927,-0.002281021182228195
-0.005562154903969271,-0.0009973924298004675
-0.005561814903969271,-0.0004707755057285118
-0.00556147490396927,-0.0004707755057275538
-0.005561134903969271,-0.0001745534859365399
-0.005560794903969271,-7.581281267304819e-05
-0.00556045490396927,0.001866087094846001
-0.005560114903969271,0.003050975174010056
-0.005559774903969271,0.001833173537093659
-0.00555943490396927,0.001734432863827772
-0.005559094903969271,0.003281370078291956
-0.005558754903969271,0.003972554791136399
-0.00555841490396927,0.003215542962782842
-0.005558074903969271,0.003445937867064742
-0.005557734903969271,0.001109075266495438
-0.00555739490396927,0.0006153719001728307
-0.005557054903969271,-0.002083539835700852
-0.005556714903969271,-0.00257724320201831
-0.00555637490396927,0.0007799396889456162
-0.005556034903969271,0.002030654883618786
-0.005555694903969271,0.00341302430930767
-0.00555535490396927,-0.002840551664055666
-0.005555014903969271,-0.003959612627710607
-0.005554674903969271,-0.0005366026212428945
-0.00555433490396927,-0.001754404258155281
-0.005553994903969271,-0.001820231373664395
-0.005553654903969271,-0.001951885604682624
-0.00555331490396927,-0.00188605848917351
-0.005552974903969271,-7.581281267286857e-05
-0.005552634903969271,0.001372383728527644
-0.00555229490396927,2.292786059080275e-05
-0.005551954903969271,-0.0007340839677640107
-0.005551614903969271,0.0006811990156819448
-0.00555127490396927,-0.0005036890634827096
-0.005550934903969271,-0.000832824641027682
-0.005550594903969271,-0.00142526868060971
-0.00555025490396927,-0.001688577142647005
-0.005549914903969271,-0.002149366951209966
-0.005549574903969271,-0.0002732941592002112
-0.00554923490396927,-0.001622750027139926
-0.00554889490396927,-0.003202600799355794
-0.005548554903969271,-0.001754404258155281
-0.00554821490396927,-0.001820231373668347
-0.00554787490396927,-0.003992526185465165
-0.005547534903969271,-0.004058353300974278
-0.00554719490396927,-0.004947019360350373
-0.00554685490396927,-0.006625610805829733
-0.005546514903969271,-0.008962473406403288
-0.00554617490396927,-0.004058353300973201
-0.00554583490396927,-0.003465909261392251
-0.005545494903969271,-0.00119487377632781
-0.00554515490396927,0.000615371900161216
-0.00554481490396927,-0.005769858304211248
-0.005544474903969271,-0.006428129459302391
-0.00554413490396927,-0.002741810990793192
-0.00554379490396927,-0.003400082145883136
-0.005543454903969271,-0.003729217723428708
-0.00554311490396927,-0.002577243202017173
-0.00554277490396927,-0.001458182238364267
-0.005542434903969271,-0.0007011704100094536
-0.005542094903969271,0.0001216685338529774
-0.00554175490396927,-0.0009315653142913533
-0.005541414903969271,-0.002544329644264652
-0.005541074903969271,-0.002643070317528144
-0.00554073490396927,-0.004716624456065421
-0.005540394903969271,-0.005835685419720362
-0.005540054903969271,-0.005572376957684384
-0.00553971490396927,-0.004584970225047193
-0.005539374903969271,-0.004058353300974278
-0.005539034903969271,-0.003301341472620842
-0.00553869490396927,-0.00244558897100098
-0.005538354903969271,-0.003630477050165036
-0.005538014903969271,-0.001589836469386207
-0.00553767490396927,-0.002149366951209966
-0.005537334903969271,-0.003498822819146808
-0.005536994903969271,-0.003729217723428289
-0.00553665490396927,-0.004321661763010735
-0.005536314903969271,-0.009225781868439744
-0.005535974903969271,-0.009949880139038685
-0.00553563490396927,-0.003827958396692379
-0.005535294903969271,-0.006592697248075176
-0.005534954903969271,-0.005374895611158778
-0.00553461490396927,-0.006691437921338847
-0.005534274903969271,-0.01004862081230367
-0.005533934903969271,-0.006954746383380932
-0.00553359490396927,-0.002774724548546551
-0.005533254903969271,-0.004091266858728836
-0.005532914903969271,-0.005243241380138334
-0.00553257490396927,-0.001688577142646167
-0.005532234903969271,-0.003597563492410479
-0.005531894903969271,-0.003564649934655922
-0.00553155490396927,-0.002873465221810222
-0.005531214903969271,-0.003498822819146808
-0.005530874903969271,-0.007250968403166318
-0.00553053490396927,-0.004782451571574535
-0.005530194903969271,-0.006000253208493148
-0.005529854903969271,-0.00688891926786619
-0.00552951490396927,-0.006888919267863795
-0.005529174903969271,-0.005572376957683906
-0.005528834903969271,-0.00688891926786619
-0.00552849490396927,-0.005901512535226483
-0.00552815490396927,-0.004255834647501621
-0.005527814903969271,-0.004683710898310864
-0.00552747490396927,0.003676332771335805
-0.00552713490396927,-0.002281021182228195
-0.005526794903969271,-0.004782451571574535
-0.00552645490396927,-0.005605290515436606
-0.00552611490396927,-0.004584970225047193
-0.005525774903969271,-0.00860042427110316
-0.00552543490396927,-0.01113476821819059
-0.00552509490396927,-0.003729217723428708
-0.005524754903969271,-0.003334255030374022
-0.00552441490396927,-0.002675983875285813
-0.00552407490396927,-0.004288748205256179
-0.005523734903969271,-0.009522003888230759
-0.00552339490396927,-0.01136516312249613
-0.00552305490396927,-0.01696046794076066
-0.005522714903969271,-0.03111329777522022
-0.00552237490396927,-0.05148679002533364
-0.00552203490396927,-0.07488832958878117
-0.005521694903969271,-0.1052017162807283
-0.00552135490396927,-0.1375886571112659
-0.00552101490396927,-0.166980464186032
-0.005520674903969271,-0.1970634559736971
-0.005520334903969271,-0.2217486242895701
-0.00551999490396927,-0.2386991065332119
-0.005519654903969271,-0.2498897161697613
-0.005519314903969271,-0.260060005515901
-0.00551897490396927,-0.2652274340833849
-0.005518634903969271,-0.2628247443673022
-0.005518294903969271,-0.2570977853180197
-0.00551795490396927,-0.2526873685788987
-0.005517614903969271,-0.2474541128959241
-0.005517274903969271,-0.2412005369225696
-0.00551693490396927,-0.2335316779657464
-0.005516594903969271,-0.2262248681442348
-0.005516254903969271,-0.2222752412136951
-0.00551591490396927,-0.2179964787055955
-0.005515574903969271,-0.2089781638808468
-0.005515234903969271,-0.2055222403166246
-0.00551489490396927,-0.1950886425084237
-0.005514554903969271,-0.1844575633537018
-0.005514214903969271,-0.1768216179546584
-0.00551387490396927,-0.1700414250572058
-0.005513534903969271,-0.1665525879352227
-0.005513194903969271,-0.1612535051367487
-0.00551285490396927,-0.1559544223382553
-0.005512514903969271,-0.1493717107873439
-0.005512174903969271,-0.1429535670252053
-0.00551183490396927,-0.1389381129791493
-0.005511494903969271,-0.1340669064314749
-0.005511154903969271,-0.1278462440158636
-0.00551081490396927,-0.1233041730457347
-0.005510474903969271,-0.1178076089007236
-0.005510134903969271,-0.1144504260097588
-0.00550979490396927,-0.1114552922540941
-0.005509454903969271,-0.1070119619572289
-0.005509114903969271,-0.1023382367560818
-0.00550877490396927,-0.09759868443942192
-0.005508434903969271,-0.09559095741639759
-0.005508094903969271,-0.09091723221525047
-0.00550775490396927,-0.08871202384569198
-0.005507414903969271,-0.08696760528470363
-0.005507074903969271,-0.08443326133760273
-0.00550673490396927,-0.08242553431457009
-0.00550639490396927,-0.0798582768097193
-0.005506054903969271,-0.07574408209039965
-0.00550571490396927,-0.07304517035452317
-0.00550537490396927,-0.07149823314006179
-0.005505034903969271,-0.06965507390580658
-0.00550469490396927,-0.07087287554271268
-0.00550435490396927,-0.06399394197202277
-0.005504014903969271,-0.06096589465860352
-0.00550367490396927,-0.05774036599865542
-0.00550333490396927,-0.05691752705479299
-0.005502994903969271,-0.05846446426925718
-0.00550265490396927,-0.05448192378095295
-0.00550231490396927,-0.05293498656649159
-0.005501974903969271,-0.04990693925307233
-0.00550163490396927,-0.04704345972842407
-0.00550129490396927,-0.04605605299578915
-0.005500954903969271,-0.04556234962947079
-0.00550061490396927,-0.04266595654706856
-0.00550027490396927,-0.04200768539197863
-0.005499934903969271,-0.04200768539197863
-0.005499594903969271,-0.03937460077161884
-0.00549925490396927,-0.0398024770224233
-0.005498914903969271,-0.03838719403897734
-0.005498574903969271,-0.03598450432289904
-0.00549823490396927,-0.03509583826352163
-0.005497894903969271,-0.035885763649631
-0.005497554903969271,-0.03476670268597809
-0.00549721490396927,-0.03295645700947542
-0.005496874903969271,-0.03361472816456656
-0.005496534903969271,-0.03180448248806922
-0.00549619490396927,-0.03177156893031136
-0.005495854903969271,-0.03163991469929314
-0.005495514903969271,-0.03012589104258626
-0.00549517490396927,-0.0289080894056649
-0.005494834903969271,-0.02969801479177427
-0.005494494903969271,-0.03210070450785256
-0.00549415490396927,-0.02410270997349956
-0.005493814903969271,-0.02193041516169879
-0.005493474903969271,-0.02071261352478239
-0.00549313490396927,-0.01873780005950675
-0.005492794903969271,-0.02278616766331727
-0.005492454903969271,-0.0237406608381977
-0.00549211490396927,-0.02028473727397093
-0.005491774903969271,-0.02104174910232575
-0.005491434903969271,-0.02117340333334373
-0.00549109490396927,-0.02025182371621638
-0.005490754903969271,-0.02048221862049827
-0.005490414903969271,-0.02067969996702562
-0.00549007490396927,-0.01919858986807055
-0.005489734903969271,-0.01738834419156991
-0.005489394903969271,-0.01909984919480688
-0.00548905490396927,-0.01844157803971573
-0.005488714903969271,-0.01821118313543383
-0.005488374903969271,-0.01817826957767928
-0.00548803490396927,-0.01798078823115104
-0.005487694903969271,-0.01748708486483358
-0.005487354903969271,-0.01771747976911548
-0.00548701490396927,-0.01738834419156835
-0.005486674903969271,-0.01653259168995142
-0.005486334903969271,-0.01778330688462459
-0.00548599490396927,-0.01830992380869517
-0.00548565490396927,-0.01702629505626978
-0.005485314903969271,-0.01827701025094295
-0.00548497490396927,-0.0168946408252479
-0.00548463490396927,-0.01488691380222357
-0.005484294903969271,-0.01844157803971573
-0.00548395490396927,-0.01985686102314445
-0.00548361490396927,-0.01037775638984924
-0.005483274903969271,-0.007547190422957332
-0.00548293490396927,-0.01248422408613683
-0.00548259490396927,-0.01024610215883101
-0.005482254903969271,-0.00790923955825746
-0.00548191490396927,-0.009982793696792643
-0.00548157490396927,-0.008929559848648731
-0.005481234903969271,-0.008304202251312145
-0.00548089490396927,-0.003070946568342235
-0.00548055490396927,-0.005638204073193019
-0.005480214903969271,-0.006856005710111633
-0.00547987490396927,-0.009522003888229142
-0.00547953490396927,-0.008633337828857716
-0.005479194903969271,-0.009258695426194301
-0.005478854903969271,-0.0116284715845181
-0.00547851490396927,-0.01353745793428673
-0.005478174903969271,-0.01143099023799507
-0.005477834903969271,-0.01159555802676756
-0.00547749490396927,-0.01152973091125874
-0.005477154903969271,-0.009719485234758102
-0.005476814903969271,-0.009522003888231118
-0.00547647490396927,-0.009357436099457973
-0.005476134903969271,-0.008106720904784802
-0.005475794903969271,-0.008962473406401732
-0.00547545490396927,-0.009522003888230759
-0.005475114903969271,-0.008962473406403288
-0.005474774903969271,-0.008172548020295354
-0.00547443490396927,-0.008666251386612273
-0.005474094903969271,-0.008435856482330374
-0.005473754903969271,-0.009719485234755767
-0.00547341490396927,-0.01004862081230367
-0.005473074903969271,-0.003103860126092122
-0.005472734903969271,-0.004124180416481537
-0.00547239490396927,-0.003762131281183265
-0.005472054903969271,-0.004584970225047193
-0.005471714903969271,-0.007152227729897977
-0.00547137490396927,-0.00494701936034732
-0.005471034903969271,-0.002643070317528323
-0.005470694903969271,-0.005868598977469053
-0.00547035490396927,-0.007580103980711889
-0.005470014903969271,-0.00790923955825746
-0.005469674903969271,-0.008271288693557588
-0.00546933490396927,-0.01228674273961356
-0.005468994903969271,-0.01297792745245925
-0.005468654903969271,-0.01047649706311291
-0.00546831490396927,-0.01080563264065849
-0.005467974903969271,-0.0106410648518857
-0.005467634903969271,-0.009291608983948858
-0.00546729490396927,-0.007053487056638975
-0.005466954903969271,-0.007283881960920875
-0.005466614903969271,-0.005374895611156563
-0.00546627490396927,-0.00646104301705599
-0.005465934903969271,-0.005934426092984033
-0.005465594903969271,-0.003531736376901365
-0.00546525490396927,-0.004914105802595397
-0.005464914903969271,-0.006362302343793276
-0.005464574903969271,-0.005012846475856435
-0.00546423490396927,-0.003729217723431701
-0.00546389490396927,-0.005374895611156563
-0.005463554903969271,-0.00438748887851985
-0.00546321490396927,-0.009324522541699465
-0.00546287490396927,-0.007152227729902647
-0.005462534903969271,-0.002807638106301108
-0.00546219490396927,-0.002643070317528742
-0.00546185490396927,-0.002873465221810222
-0.005461514903969271,-0.007810498884993789
-0.00546117490396927,-0.007382622634182211
-0.00546083490396927,-0.006098993881756819
-0.005460494903969271,-0.007448449749693661
-0.00546015490396927,-0.009324522541705751
-0.00545981490396927,-0.01060815129413114
-0.005459474903969271,-0.01093728687167671
-0.00545913490396927,-0.01001570725455061
-0.00545879490396927,-0.01083854619841304
-0.005458454903969271,-0.01011444792781279
-0.00545811490396927,-0.00794215311601046
-0.00545777490396927,-0.007086400614393532
-0.005457434903969271,-0.007514276865202775
-0.005457094903969271,-0.006000253208495902
-0.00545675490396927,-0.003663390607919593
-0.005456414903969271,-0.004650797340556306
-0.005456074903969271,-0.003367168588130914
-0.00545573490396927,-0.003334255030374022
-0.005455394903969271,-0.003729217723428708
-0.005455054903969271,-0.003663390607919713
-0.00545471490396927,-0.004058353300974278
-0.005454374903969271,-0.005045760033610991
-0.005454034903969271,-0.004782451571575014
-0.00545369490396927,-0.002972205895073894
-0.005453354903969271,-0.004091266858728836
-0.005453014903969271,-0.005177414264627245
-0.00545267490396927,-0.006230648112775047
-0.005452334903969271,0.002063568441373343
-0.005451994903969271,0.003248456520535244
-0.00545165490396927,0.003511764982573856
-0.005451314903969271,-0.0007669975255185678
-0.005450974903969271,-0.00609899388174712
-0.00545063490396927,-0.003795044838937822
-0.005450294903969271,-0.006098993881756819
-0.005449954903969271,-0.01024610215882347
-0.00544961490396927,-0.008304202251312145
-0.005449274903969271,-0.008732078502121389
-0.005448934903969271,-0.008633337828857897
-0.00544859490396927,-0.008468770040084931
-0.005448254903969271,-0.007415536191939104
-0.005447914903969271,-0.009324522541703417
-0.00544757490396927,-0.007843412442748346
-0.005447234903969271,-0.007481363307448217
-0.005446894903969271,-0.008073807347030245
-0.00544655490396927,-0.007250968403166318
-0.005446214903969271,-0.006395215901547833
-0.005445874903969271,-0.007349709076429989
-0.00544553490396927,-0.006197734555018874
-0.005445194903969271,-0.005309068495647449
-0.005444854903969271,-0.006164820997265934
-0.00544451490396927,-0.006000253208489915
-0.005444174903969271,-0.004222921089747064
-0.005443834903969271,-0.00415709397423795
-0.00544349490396927,-0.00442040243627261
-0.00544315490396927,-0.003432995703637694
-0.005442814903969271,-0.00438748887851985
-0.00544247490396927,-0.006329388786045005
-0.00544213490396927,-0.009785312350267215
-0.005441794903969271,-0.005309068495647449
-0.00544145490396927,-0.005473636284421371
-0.00544111490396927,-0.006098993881756819
-0.005440774903969271,-0.007053487056638975
-0.00544043490396927,-0.01172721225778046
-0.00544009490396927,-0.008633337828857716
-0.005439754903969271,-0.006559783690320619
-0.00543941490396927,-0.006954746383373627
-0.00543907490396927,-0.006033166766247705
-0.005438734903969271,-0.004848278687083649
-0.00543839490396927,-0.004815365129327834
-0.00543805490396927,-0.004124180416483393
-0.005437714903969271,-0.003465909261392251
-0.00543737490396927,-0.006230648112772892
-0.00543703490396927,-0.005045760033610991
-0.005436694903969271,-0.004453315994028964
-0.005436354903969271,-0.004091266858729494
-0.00543601490396927,-0.003465909261392251
-0.005435674903969271,-0.003663390607919593
-0.005435334903969271,-0.005473636284416942
-0.00543499490396927,-0.006757265036847961
-0.005434654903969271,-0.006724351479093405
-0.005434314903969271,-0.009258695426189692
-0.00543397490396927,-0.002708897433037437
-0.005433634903969271,-0.008468770040084931
-0.005433294903969271,-0.008501683597839427
-0.00543295490396927,-0.008830819175385059
-0.005432614903969271,-0.007777585327239231
-0.005432274903969271,-0.008962473406401134
-0.00543193490396927,-0.01373493928081407
-0.005431594903969271,-0.007086400614393532
-0.005431254903969271,-0.007218054845411522
-0.00543091490396927,-0.007843412442748346
-0.005430574903969271,-0.006625610805829733
-0.005430234903969271,-0.008271288693554594
-0.00542989490396927,-0.008205461578048474
-0.005429554903969271,-0.00494701936034732
-0.005429214903969271,-0.004848278687083828
-0.00542887490396927,-0.005638204073193019
-0.005428534903969271,-0.004782451571574535
-0.005428194903969271,-0.004288748205257076
-0.00542785490396927,-0.005539463399929348
-0.005427514903969271,-0.00586859897747492
-0.005427174903969271,-0.00619773455502049
-0.00542683490396927,-0.006033166766247705
-0.005426494903969271,-0.004815365129329092
-0.005426154903969271,-0.003202600799355794
-0.00542581490396927,-0.005309068495647449
-0.005425474903969271,-0.006493956574811504
-0.005425134903969271,-0.005045760033610991
-0.00542479490396927,-0.004354575320765292
-0.005424454903969271,-0.005671117630947577
-0.005424114903969271,-0.006625610805829733
-0.00542377490396927,-0.004947019360348697
-0.005423434903969271,-0.005704031188702134
-0.005423094903969271,-0.005572376957683906
-0.00542275490396927,-0.006066080324006932
-0.00542241490396927,-0.008633337828857716
-0.005422074903969271,-0.006987659941129861
-0.00542173490396927,-0.008435856482335224
-0.00542139490396927,-0.0111018546604495
-0.005421054903969271,-0.002577243202019209
-0.00542071490396927,-0.0009973924298086097
-0.00542037490396927,-0.005473636284420234
-0.005420034903969271,-0.003070946568337565
-0.00541969490396927,-0.0003391212747159111
-0.00541935490396927,-0.003959612627710607
-0.005419014903969271,-0.004552056667292635
-0.00541867490396927,-0.003959612627711205
-0.00541833490396927,-0.004288748205256179
-0.005417994903969271,-0.006724351479093405
-0.00541765490396927,-0.005572376957683606
-0.00541731490396927,-0.00540780916891112
-0.005416974903969271,-0.005605290515438462
-0.00541663490396927,-0.004288748205257556
-0.00541629490396927,-0.005045760033610991
-0.005415954903969271,-0.004716624456065421
