Analysis/files/cmb03_wrd01/d2s04_ch05.csv

#Digilent WaveForms Oscilloscope Acquisition
#Device Name: ADP3450
#Serial Number: SN:210018B9D9B0
#Date Time: 2024-08-13 12:06:49.849.796.160
#Sample rate: 2.94118e+06Hz
#Samples: 32768
#Trigger: Source: Channel 3 Type: Edge Condition: Rising Level: 60 mV Hyst.: Auto HoldOff: 0 s
#Channel 3: Range: 200 mV/div Offset: 0 V Attenuation: 1 X Coupling: DC Bandwidth: 0 Hz Sample Mode: Average

Time (s),Channel 3 (V)
-0.005570244897025172,0.008679193550039321
-0.005569904897025172,0.007099342777821479
-0.005569564897025172,0.007593046144138938
-0.005569224897025172,0.009205810474112236
-0.005568884897025172,0.009304551147373693
-0.005568544897025172,0.008086749510457293
-0.005568204897025172,0.007691786817402609
-0.005567864897025172,0.006901861431294316
-0.005567524897025172,0.007494305470875266
-0.005567184897025172,0.00779052749066628
-0.005566844897025172,0.006473985180482558
-0.005566504897025172,0.005684059794374625
-0.005566164897025172,0.007955095279439066
-0.005565824897025172,0.007066429220056265
-0.005565484897025172,0.001701519306073215
-0.005565144897025172,0.004466258157456012
-0.005564804897025172,0.01160850019018838
-0.005564464897025172,0.00802092239494818
-0.005564124897025172,0.004696653061737912
-0.005563784897025172,0.00512452931254446
-0.005563444897025172,0.003643419213592085
-0.005563104897025172,0.002985148058500942
-0.005562764897025172,0.0007141125734406329
-0.005562424897025172,-0.0009315653142913533
-0.005562084897025172,-0.0006024297367457822
-0.005561744897025172,-0.0003720348324643016
-0.005561404897025172,0.0007470261311910591
-0.005561064897025172,0.001438210844036758
-0.005560724897025172,0.002030654883617709
-0.005560384897025172,0.0005166312269091594
-0.005560044897025172,0.00107616170873663
-0.005559704897025172,0.001109075266491128
-0.005559364897025172,-0.001030305987555025
-0.005559024897025172,-0.00188605848917351
-0.005558684897025172,-0.001425268680610548
-0.005558344897025172,-0.002149366951209966
-0.005558004897025172,-0.003169687241601236
-0.005557664897025172,-0.002017712720193833
-0.005557324897025172,-0.002939292337319337
-0.005556984897025172,-0.002939292337319337
-0.005556644897025172,-0.001194873776330983
-0.005556304897025172,-0.001951885604682624
-0.005555964897025172,-0.002412675413246423
-0.005555624897025172,-0.001293614449593517
-0.005555284897025172,0.001109075266491187
-0.005554944897025172,-0.0006353432945003394
-0.005554604897025172,-0.0007340839677638311
-0.005554264897025172,-0.001984799162437181
-0.005553924897025172,-0.003202600799355794
-0.005553584897025172,-0.00267598387528288
-0.005553244897025172,-0.004782451571574535
-0.005552904897025172,-0.005835685419720362
-0.005552564897025172,-0.004058353300974278
-0.005552224897025172,-0.001622750027137053
-0.005551884897025172,-0.002116453393455409
-0.005551544897025172,-0.001227787334082367
-0.005551204897025172,-0.0007340839677641904
-0.005550864897025172,-0.000832824641027682
-0.005550524897025172,-0.003465909261392251
-0.005550184897025172,0.0004178905536403991
-0.005549844897025172,-0.002379761855491866
-0.005549504897025172,-0.0009644788720459105
-0.005549164897025172,-0.003432995703646494
-0.005548824897025172,-0.008271288693557588
-0.005548484897025172,-0.007250968403166318
-0.005548144897025172,-0.005407809168911
-0.005547804897025172,-0.005341982053402005
-0.005547464897025172,-0.007152227729902647
-0.005547124897025172,-0.00389378551220269
-0.005546784897025172,-0.004552056667292635
-0.005546444897025172,-0.004255834647501621
-0.005546104897025172,-0.002774724548547509
-0.005545764897025172,-0.003301341472619465
-0.005545424897025172,-0.002774724548546551
-0.005545084897025172,-0.002708897433035042
-0.005544744897025172,-0.001392355122855153
-0.005544404897025172,-0.003498822819146808
-0.005544064897025172,-0.00274181099079421
-0.005543724897025172,-0.003959612627710607
-0.005543384897025172,-0.004815365129329092
-0.005543044897025172,-0.003729217723429306
-0.005542704897025172,-0.004058353300974278
-0.005542364897025172,-0.003827958396692379
-0.005542024897025172,-0.004848278687081793
-0.005541684897025172,-0.003498822819146808
-0.005541344897025172,-0.00494701936034732
-0.005541004897025172,-0.007777585327234083
-0.005540664897025172,-0.005440722726665677
-0.005540324897025172,-0.01166138514227697
-0.005539984897025172,-0.007316795518683335
-0.005539644897025172,-0.004124180416483393
-0.005539304897025172,-0.002544329644264652
-0.005538964897025172,-0.00185314493142021
-0.005538624897025172,-0.004124180416483393
-0.005538284897025172,-0.004848278687083649
-0.005537944897025172,-0.002478502528759848
-0.005537604897025172,0.001635692190564101
-0.005537264897025172,-0.001622750027137053
-0.005536924897025172,-0.003465909261388898
-0.005536584897025172,-0.003959612627710607
-0.005536244897025172,-0.003564649934655922
-0.005535904897025172,-0.004979932918099303
-0.005535564897025172,-0.004617883782801749
-0.005535224897025172,-0.004420402436274407
-0.005534884897025172,-0.005769858304208794
-0.005534544897025172,-0.00619773455502049
-0.005534204897025172,-0.00665852436358429
-0.005533864897025172,-0.007218054845410744
-0.005533524897025172,-0.006625610805829733
-0.005533184897025172,-0.005506549842174791
-0.005532844897025172,-0.005802771861965805
-0.005532504897025172,-0.005901512535229476
-0.005532164897025172,-0.004683710898310864
-0.005531824897025172,-0.005012846475856435
-0.005531484897025172,-0.004222921089747064
-0.005531144897025172,-0.003498822819146808
-0.005530804897025172,-0.003992526185465165
-0.005530464897025172,-0.004255834647501621
-0.005530124897025172,-0.004091266858728836
-0.005529784897025172,-0.007152227729902647
-0.005529444897025172,-0.00303803301058205
-0.005529104897025172,-0.002511416086510094
-0.005528764897025172,-0.0007340839677640107
-0.005528424897025172,-0.002708897433046777
-0.005528084897025172,-0.007843412442748346
-0.005527744897025172,-0.006691437921338847
-0.005527404897025172,-0.005506549842175928
-0.005527064897025172,-0.006131907439511376
-0.005526724897025172,-0.003893785512201493
-0.005526384897025172,-0.005012846475855776
-0.005526044897025172,-0.004650797340556306
-0.005525704897025172,-0.003235514357110351
-0.005525364897025172,-0.002774724548547808
-0.005525024897025172,-0.003465909261392251
-0.005524684897025172,-0.005243241380138334
-0.005524344897025172,-0.004914105802592285
-0.005524004897025172,-0.004650797340556306
-0.005523664897025172,-0.003762131281183265
-0.005523324897025172,-0.009028300521928446
-0.005522984897025172,-0.01784913400013371
-0.005522644897025172,-0.03114621133297478
-0.005522304897025172,-0.05309955435531849
-0.005521964897025172,-0.08285341056538401
-0.005521624897025172,-0.1137263277391586
-0.005521284897025172,-0.1455866516456263
-0.005520944897025172,-0.1766241366081172
-0.005520604897025172,-0.2037449081978722
-0.005520264897025172,-0.2270147935303018
-0.005519924897025172,-0.2435703130808864
-0.005519584897025172,-0.25370768886929
-0.005519244897025172,-0.2609486715752793
-0.005518904897025172,-0.2567028226249546
-0.005518564897025172,-0.2523253194435985
-0.005518224897025172,-0.2456109536616811
-0.005517884897025172,-0.2394561183615667
-0.005517544897025172,-0.2371192557609932
-0.005517204897025172,-0.2260603003554821
-0.005516864897025172,-0.2156267025472674
-0.005516524897025172,-0.2100313977289927
-0.005516184897025172,-0.2016384405015959
-0.005515844897025172,-0.1967343203961516
-0.005515504897025172,-0.1911390155778769
-0.005515164897025172,-0.1869919073008103
-0.005514824897025172,-0.179981319499082
-0.005514484897025172,-0.175373421413444
-0.005514144897025172,-0.1694489810176345
-0.005513804897025172,-0.1630966643709942
-0.005513464897025172,-0.1573697053217013
-0.005513124897025172,-0.1493717107873584
-0.005512784897025172,-0.1441384551043693
-0.005512444897025172,-0.1388064587481311
-0.005512104897025172,-0.1314667353688649
-0.005511764897025172,-0.1260689118971175
-0.005511424897025172,-0.1221521985243252
-0.005511084897025172,-0.1175772139964417
-0.005510744897025172,-0.1120148227359216
-0.005510404897025172,-0.1097437872508571
-0.005510064897025172,-0.1061232958978559
-0.005509724897025172,-0.1042143095480915
-0.005509384897025172,-0.1026015452181183
-0.005509044897025172,-0.1037864332972823
-0.005508704897025172,-0.09384653885539965
-0.005508364897025172,-0.09032478817566847
-0.005508024897025172,-0.0869017781691945
-0.005507684897025172,-0.08153686825520506
-0.005507344897025172,-0.08338002748945691
-0.005507004897025172,-0.08025323950277399
-0.005506664897025172,-0.07548077362835859
-0.005506324897025172,-0.0729464296812623
-0.005505984897025172,-0.07284768900799862
-0.005505644897025172,-0.07064248063843953
-0.005505304897025172,-0.0685689264999062
-0.005504964897025172,-0.06725238418972393
-0.005504624897025172,-0.06405976908752596
-0.005504284897025172,-0.06080132686983073
-0.005503944897025172,-0.05971517946393035
-0.005503604897025172,-0.05714792195906819
-0.005503264897025172,-0.0534616034905645
-0.005502924897025172,-0.05227671541140044
-0.005502584897025172,-0.04898535963594185
-0.005502244897025172,-0.04740550886372599
-0.005501904897025172,-0.04615479366905282
-0.005501564897025172,-0.04408123953050866
-0.005501224897025172,-0.04019743971547798
-0.005500884897025172,-0.04062531596628723
-0.005500544897025172,-0.03960499567589099
-0.005500204897025172,-0.03687317038226771
-0.005499864897025172,-0.03631363990044024
-0.005499524897025172,-0.03506292470576935
-0.005499184897025172,-0.03394386374211213
-0.005498844897025172,-0.03506292470576707
-0.005498504897025172,-0.03756435509510886
-0.005498164897025172,-0.02874352161689211
-0.005497824897025172,-0.02871060805913755
-0.005497484897025172,-0.02982966902279046
-0.005497144897025172,-0.03094872998644744
-0.005496804897025172,-0.03417425864639403
-0.005496464897025172,-0.03200196383459721
-0.005496124897025172,-0.02989549613830161
-0.005495784897025172,-0.02848021315485565
-0.005495444897025172,-0.02818399113506518
-0.005495104897025172,-0.0254521658414364
-0.005494764897025172,-0.02347735237616297
-0.005494424897025172,-0.02472806757083387
-0.005494084897025172,-0.0199226881386708
-0.005493744897025172,-0.02021891015846182
-0.005493404897025172,-0.02087718131355176
-0.005493064897025172,-0.02114048977558942
-0.005492724897025172,-0.0190011085215432
-0.005492384897025172,-0.01936315765684267
-0.005492044897025172,-0.01844157803971573
-0.005491704897025172,-0.01728960351830624
-0.005491364897025172,-0.01745417130707872
-0.005491024897025172,-0.01656550524770598
-0.005490684897025172,-0.01636802390117864
-0.005490344897025172,-0.01649967813219686
-0.005490004897025172,-0.01732251707606079
-0.005489664897025172,-0.01574266630384205
-0.005489324897025172,-0.01511730870650547
-0.005488984897025172,-0.01495274091773268
-0.005488644897025172,-0.01403116130060508
-0.005488304897025172,-0.01821118313543383
-0.005487964897025172,-0.01284627322143672
-0.005487624897025172,-0.01047649706311291
-0.005487284897025172,-0.01060815129413114
-0.005486944897025172,-0.01077271908290962
-0.005486604897025172,-0.01389950706958685
-0.005486264897025172,-0.012253829181859
-0.005485924897025172,-0.01126642244922318
-0.005485584897025172,-0.01176012581554064
-0.005485244897025172,-0.01100311398718583
-0.005484904897025172,-0.01054232417862394
-0.005484564897025172,-0.01159555802676786
-0.005484224897025172,-0.01126642244922228
-0.005483884897025172,-0.01363619860754567
-0.005483544897025172,-0.01103602754494038
-0.005483204897025172,-0.01077271908290393
-0.005482864897025172,-0.0117930393732955
-0.005482524897025172,-0.01195760716206798
-0.005482184897025172,-0.009489090330476201
-0.005481844897025172,-0.009028300521913659
-0.005481504897025172,-0.009719485234758102
-0.005481164897025172,-0.009127041195176074
-0.005480824897025172,-0.008995386964157007
-0.005480484897025172,-0.008534597155594046
-0.005480144897025172,-0.007843412442748346
-0.005479804897025172,-0.008666251386610957
-0.005479464897025172,-0.007942153116012016
-0.005479124897025172,-0.00494701936034732
-0.005478784897025172,-0.003827958396694415
-0.005478444897025172,-0.006263561670529605
-0.005478104897025172,-0.008468770040084931
-0.005477764897025172,-0.01149681735349868
-0.005477424897025172,-0.006625610805829733
-0.005477084897025172,-0.005901512535229476
-0.005476744897025172,-0.005309068495648526
-0.005476404897025172,-0.007316795518675433
-0.005476064897025172,-0.0106410648518857
-0.005475724897025172,-0.008337115809070893
-0.005475384897025172,-0.008929559848648731
-0.005475044897025172,-0.01146390379574963
-0.005474704897025172,-0.01021318860107873
-0.005474364897025172,-0.01080563264065849
-0.005474024897025172,-0.01097020042943127
-0.005473684897025172,-0.01031192927434133
-0.005473344897025172,-0.008732078502121389
-0.005473004897025172,-0.007448449749693661
-0.005472664897025172,-0.005572376957687319
-0.005472324897025172,-0.004881192244838206
-0.005471984897025172,-0.006230648112775047
-0.005471644897025172,-0.004025439743223733
-0.005471304897025172,-0.003992526185465165
-0.005470964897025172,-0.005144500706874663
-0.005470624897025172,-0.005078673591365669
-0.005470284897025172,-0.005473636284420234
-0.005469944897025172,-0.005934426092984033
-0.005469604897025172,-0.005210327822383777
-0.005469264897025172,-0.004979932918101878
-0.005468924897025172,-0.006461043017056948
-0.005468584897025172,-0.005243241380138334
-0.005468244897025172,-0.005243241380138334
-0.005467904897025172,-0.008797905617630502
-0.005467564897025172,-0.01528187649527825
-0.005467224897025172,-0.01008153437005823
-0.005466884897025172,-0.006296475228284162
-0.005466544897025172,-0.007185141287657204
-0.005466204897025172,-0.00511158714912729
-0.005465864897025172,-0.009061214079666959
-0.005465524897025172,-0.008797905617630502
-0.005465184897025172,-0.004354575320764095
-0.005464844897025172,-0.00369630416567415
-0.005464504897025172,-0.006230648112775047
-0.005464164897025172,-0.004288748205256777
-0.005463824897025172,-0.004617883782801749
-0.005463484897025172,-0.006033166766247705
-0.005463144897025172,-0.005802771861965865
-0.005462804897025172,-0.005835685419720362
-0.005462464897025172,-0.006362302343793276
-0.005462124897025172,-0.005341982053401586
-0.005461784897025172,-0.005111587149120106
-0.005461444897025172,-0.006493956574811504
-0.005461104897025172,-0.003663390607917259
-0.005460764897025172,-0.002379761855491866
-0.005460424897025172,-0.002807638106301108
-0.005460084897025172,-0.001589836469383094
-0.005459744897025172,-0.001918972046928067
-0.005459404897025172,-0.002544329644264652
-0.005459064897025172,-0.00461788378280133
-0.005458724897025172,-0.00438748887851985
-0.005458384897025172,-0.007481363307448217
-0.005458044897025172,-0.007744671769483956
-0.005457704897025172,-0.007349709076429989
-0.005457364897025172,-0.009291608983948858
-0.005457024897025172,-0.01343871726101551
-0.005456684897025172,-0.004979932918101878
-0.005456344897025172,-0.003795044838937822
-0.005456004897025172,-0.004453315994027766
-0.005455664897025172,-0.003597563492410479
-0.005455324897025172,-0.007185141287657204
-0.005454984897025172,-0.00580277186196832
-0.005454644897025172,-0.003827958396692379
-0.005454304897025172,-0.004519143109538078
-0.005453964897025172,-0.005736944746454475
-0.005453624897025172,-0.005309068495647449
-0.005453284897025172,-0.003038033010583008
-0.005452944897025172,-0.003827958396690942
-0.005452604897025172,-0.002774724548546551
-0.005452264897025172,-0.002149366951209966
-0.005451924897025172,-0.003268427914862873
-0.005451584897025172,-0.004914105802592763
-0.005451244897025172,-0.004354575320765292
-0.005450904897025172,-0.005374895611154707
-0.005450564897025172,-0.005572376957683906
-0.005450224897025172,-0.00142526868060971
-0.005449884897025172,-0.007580103980700692
-0.005449544897025172,-0.007744671769484675
-0.005449204897025172,-0.006921832825620747
-0.005448864897025172,-0.007448449749692703
-0.005448524897025172,-0.007711758211730118
-0.005448184897025172,-0.00540780916891112
-0.005447844897025172,-0.005309068495647449
-0.005447504897025172,-0.005078673591365549
-0.005447164897025172,-0.00369630416567415
-0.005446824897025172,-0.004979932918101878
-0.005446484897025172,-0.008106720904784802
-0.005446144897025172,-0.001096133103064139
-0.005445804897025172,0.0007799396889456162
-0.005445464897025172,-0.0008657381987825984
-0.005445124897025172,-0.001063219545309582
-0.005444784897025172,-0.00494701936034732
-0.005444444897025172,-0.006033166766243992
-0.005444104897025172,-0.003992526185465165
-0.005443764897025172,-0.006461043017056948
-0.005443424897025172,-0.007119314172145755
-0.005443084897025172,-0.005835685419720362
-0.005442744897025172,-0.003992526185465165
-0.005442404897025172,-0.006658524363586864
-0.005442064897025172,-0.008073807347030245
-0.005441724897025172,-0.005243241380138334
-0.005441384897025172,-0.004782451571574894
-0.005441044897025172,-0.004979932918101878
-0.005440704897025172,-0.005572376957683906
-0.005440364897025172,-0.007316795518673157
-0.005440024897025172,-0.006066080324002262
-0.005439684897025172,-0.005309068495647449
-0.005439344897025172,-0.008073807347031562
-0.005439004897025172,-0.008797905617630502
-0.005438664897025172,-0.006526870132566062
-0.005438324897025172,-0.004683710898312481
-0.005437984897025172,-0.005572376957683906
-0.005437644897025172,-0.004683710898310864
-0.005437304897025172,-0.004387488878519132
-0.005436964897025172,-0.003992526185465165
-0.005436624897025172,-0.003729217723428708
-0.005436284897025172,-0.008435856482321813
-0.005435944897025172,-0.005045760033610991
-0.005435604897025172,-0.0006024297367457822
-0.005435264897025172,-0.004453315994021959
-0.005434924897025172,-0.006493956574811504
-0.005434584897025172,-0.003860871954446936
-0.005434244897025172,-0.002643070317530538
-0.005433904897025172,-0.00392669906995605
-0.005433564897025172,-0.003959612627710607
-0.005433224897025172,-0.003400082145884154
-0.005432884897025172,-0.003169687241601236
-0.005432544897025172,-0.003531736376901365
-0.005432204897025172,-0.001524009353877033
-0.005431864897025172,-0.001392355122855153
-0.005431524897025172,-0.002116453393455409
-0.005431184897025172,-0.001556922911628956
-0.005430844897025172,-0.00267598387528288
-0.005430504897025172,-0.00415709397423795
-0.005430164897025172,-0.004683710898309906
-0.005429824897025172,-0.005901512535229476
-0.005429484897025172,-0.006921832825620747
-0.005429144897025172,-0.006000253208494824
-0.005428804897025172,-0.006592697248075176
-0.005428464897025172,-0.007876326000502903
-0.005428124897025172,-0.007250968403167456
-0.005427784897025172,-0.007185141287657204
-0.005427444897025172,-0.007876326000502903
-0.005427104897025172,-0.008106720904784802
-0.005426764897025172,-0.007514276865202775
-0.005426424897025172,-0.007514276865202775
-0.005426084897025172,-0.007382622634184546
-0.005425744897025172,-0.00869916494436683
-0.005425404897025172,-0.005309068495647449
-0.005425064897025172,-0.004124180416483393
-0.005424724897025172,-0.001260700891836924
-0.005424384897025172,0.0004508041114000451
-0.005424044897025172,-0.004881192244838206
-0.005423704897025172,-0.006098993881752628
-0.005423364897025172,-0.003795044838937822
-0.005423024897025172,-0.004979932918101878
-0.005422684897025172,-0.006362302343790462
-0.005422344897025172,-0.004815365129329092
-0.005422004897025172,-0.005045760033610991
-0.005421664897025172,-0.004979932918103015
-0.005421324897025172,-0.005605290515438462
-0.005420984897025172,-0.00619773455502049
-0.005420644897025172,-0.006329388786040156
-0.005420304897025172,-0.00711931417214809
-0.005419964897025172,-0.008007980231521132
-0.005419624897025172,-0.006724351479091548
-0.005419284897025172,-0.005704031188702134
-0.005418944897025172,-0.00517741426462922
-0.005418604897025172,-0.004617883782799773
-0.005418264897025172,-0.003531736376901365
-0.005417924897025172,-0.003992526185465165
-0.005417584897025172,-0.003268427914863052
