Analysis/files/cmb03_wrd01/d2s08_ch21.csv

#Digilent WaveForms Oscilloscope Acquisition
#Device Name: ADP3450
#Serial Number: SN:210018B9D9B0
#Date Time: 2024-08-13 17:37:38.134.901.660
#Sample rate: 2.94118e+06Hz
#Samples: 32768
#Trigger: Source: Channel 3 Type: Edge Condition: Rising Level: 60 mV Hyst.: Auto HoldOff: 0 s
#Channel 3: Range: 200 mV/div Offset: 0 V Attenuation: 1 X Coupling: DC Bandwidth: 0 Hz Sample Mode: Average

Time (s),Channel 3 (V)
-0.005570451722428748,0.01180598153672225
-0.005570111722428748,0.01124645105489687
-0.005569771722428748,0.01239842557630427
-0.005569431722428748,0.01262882048058617
-0.005569091722428748,0.008053835952709082
-0.005568751722428748,0.01154267307468579
-0.005568411722428748,0.0116085001901949
-0.005568071722428748,0.0107856612463311
-0.005567731722428748,0.01085148836184009
-0.005567391722428748,0.009864081629203377
-0.005567051722428748,0.007955095279432899
-0.005566711722428748,0.004564998830719684
-0.005566371722428748,0.005190356428056269
-0.005566031722428748,0.004466258157468405
-0.005565691722428748,0.01127936461264933
-0.005565351722428748,0.004564998830719684
-0.005565011722428748,0.003116802289518872
-0.005564671722428748,0.002952234500746385
-0.005564331722428748,0.003610505655837527
-0.005563991722428748,0.004038381906643597
-0.005563651722428748,0.002293963345655243
-0.005563311722428748,0.002590185365446257
-0.005562971722428749,0.003643419213590169
-0.005562631722428748,0.002524358249937143
-0.005562291722428748,0.0027876667119736
-0.005561951722428749,0.000615371900176782
-0.005561611722428748,-0.003268427914864908
-0.005561271722428748,0.002096481999127901
-0.005560931722428749,0.003149715847271812
-0.005560591722428748,0.002688926038709928
-0.005560251722428748,0.0008128532467001733
-0.005559911722428749,-0.002412675413240556
-0.005559571722428748,-0.002478502528755537
-0.005559231722428748,0.0005166312269091594
-0.005558891722428749,-0.001194873776324697
-0.005558551722428748,-0.001721490700400724
-0.005558211722428748,-0.001491095796118824
-0.005557871722428749,-0.0004049483902204153
-0.005557531722428748,-0.003334255030374022
-0.005557191722428748,-0.004749538013819977
-0.005556851722428749,-0.001524009353879249
-0.005556511722428748,-0.0005695161789912252
-0.005556171722428748,-0.001721490700400724
-0.005555831722428749,-0.0005366026212388236
-0.005555491722428748,0.0006482854579273878
-0.005555151722428748,0.0007799396889456162
-0.005554811722428749,0.001504037959544556
-0.005554471722428748,0.0004508041114000451
-0.005554131722428748,-0.0003720348324638825
-0.005553791722428749,0.001569865075054987
-0.005553451722428748,0.002359790461164357
-0.005553111722428748,0.001734432863827772
-0.005552771722428749,0.0006811990156819448
-0.005552431722428748,0.00130655661301853
-0.005552091722428748,0.0007470261311910591
-0.005551751722428749,-0.001063219545309582
-0.005551411722428748,-0.006625610805824645
-0.005551071722428748,-0.003827958396692379
-0.005550731722428748,-0.0008986517565367963
-0.005550391722428748,0.0008457668044557482
-0.005550051722428748,0.001405297286282201
-0.005549711722428748,-0.005210327822383777
-0.005549371722428748,-0.005309068495641522
-0.005549031722428748,-0.002050626277946295
-0.005548691722428748,-0.003235514357110351
-0.005548351722428748,-0.005012846475858351
-0.005548011722428748,-0.006066080324002262
-0.005547671722428748,-0.00619773455502049
-0.005547331722428748,-0.003795044838937403
-0.005546991722428748,-0.003564649934655922
-0.005546651722428748,-0.005045760033610991
-0.005546311722428748,-0.004914105802591386
-0.005545971722428748,-0.00415709397423795
-0.005545631722428748,-0.005309068495647449
-0.005545291722428748,-0.006230648112773012
-0.005544951722428748,-0.005111587149120106
-0.005544611722428748,-0.004914105802592763
-0.005544271722428748,-0.004914105802591206
-0.005543931722428748,-0.004058353300974278
-0.005543591722428748,-0.005243241380138334
-0.005543251722428748,-0.004453315994026449
-0.005542911722428748,-0.003070946568337565
-0.005542571722428748,-0.003334255030374022
-0.005542231722428749,-0.004387488878517934
-0.005541891722428748,-0.003235514357110351
-0.005541551722428748,-0.003400082145883136
-0.005541211722428749,-0.005868598977470429
-0.005540871722428748,-0.009752398792512659
-0.005540531722428748,-0.002610156759773766
-0.005540191722428749,-0.001524009353875357
-0.005539851722428748,0.0002862363226272596
-0.005539511722428748,-0.0009644788720459105
-0.005539171722428749,-0.005802771861957004
-0.005538831722428748,-0.00494701936034732
-0.005538491722428748,-0.002774724548546551
-0.005538151722428749,-0.004420402436271413
-0.005537811722428748,-0.005934426092984033
-0.005537471722428748,-0.005309068495647449
-0.005537131722428749,-0.006066080324000885
-0.005536791722428748,-0.006000253208493148
-0.005536451722428748,-0.006625610805829733
-0.005536111722428749,-0.008304202251309092
-0.005535771722428748,-0.007382622634184546
-0.005535431722428748,-0.006395215901547833
-0.005535091722428749,-0.006230648112775346
-0.005534751722428748,-0.006329388786038719
-0.005534411722428748,-0.00438748887851985
-0.005534071722428749,-0.004288748205256358
-0.005533731722428748,-0.00392669906995605
-0.005533391722428748,-0.002511416086510094
-0.005533051722428749,-0.002807638106301108
-0.005532711722428748,-0.003334255030374022
-0.005532371722428748,-0.002610156759773766
-0.005532031722428749,-0.00369630416567415
-0.005531691722428748,-0.00438748887851985
-0.005531351722428748,-0.004091266858728836
-0.005531011722428749,-0.001754404258155281
-0.005530671722428748,-0.006131907439511376
-0.005530331722428748,-0.006164820997265934
-0.005529991722428748,0.0007799396889456162
-0.005529651722428748,-0.0007011704100071785
-0.005529311722428748,0.0005495447846637165
-0.005528971722428748,-0.004058353300974278
-0.005528631722428748,-0.007613017538462974
-0.005528291722428748,-0.005704031188702134
-0.005527951722428748,-0.003498822819146808
-0.005527611722428748,-0.005506549842176109
-0.005527271722428748,-0.006230648112775047
-0.005526931722428748,-0.003564649934655922
-0.005526591722428748,-0.004124180416483572
-0.005526251722428748,-0.004222921089747064
-0.005525911722428748,-0.00392669906995605
-0.005525571722428748,-0.004979932918104093
-0.005525231722428748,-0.00619773455502049
-0.005524891722428748,-0.004979932918101878
-0.005524551722428748,-0.005210327822387309
-0.005524211722428748,-0.007152227729902647
-0.005523871722428748,-0.006066080324002262
-0.005523531722428748,-0.008238375135819136
-0.005523191722428748,-0.01709212217177889
-0.005522851722428748,-0.02604460988101842
-0.005522511722428748,-0.04329131414445023
-0.005522171722428748,-0.0674169519784967
-0.005521831722428748,-0.09364905750887872
-0.005521491722428748,-0.1245878017982224
-0.005521151722428748,-0.1575671866682286
-0.005520811722428748,-0.1869589937430481
-0.005520471722428749,-0.2124011738872745
-0.005520131722428748,-0.2368230337412021
-0.005519791722428748,-0.2397194268236032
-0.005519451722428749,-0.2539709973313005
-0.005519111722428748,-0.2580851920506461
-0.005518771722428748,-0.2571306988757639
-0.005518431722428749,-0.2577889700308538
-0.005518091722428748,-0.2543330464666265
-0.005517751722428748,-0.2469933230873603
-0.005517411722428749,-0.2406410064407423
-0.005517071722428748,-0.2343216033518558
-0.005516731722428748,-0.2279034595897172
-0.005516391722428749,-0.2182597871676495
-0.005516051722428748,-0.2115454213857023
-0.005515711722428748,-0.2040740437754178
-0.005515371722428749,-0.1959773085678115
-0.005515031722428748,-0.1893287699013762
-0.005514691722428748,-0.1838651193141198
-0.005514351722428749,-0.1765583094926214
-0.005514011722428748,-0.1692185861133418
-0.005513671722428748,-0.1644790337966856
-0.005513331722428749,-0.1575013595527322
-0.005512991722428748,-0.1522022767542358
-0.005512651722428748,-0.1463765770316792
-0.005512311722428749,-0.1385760638438492
-0.005511971722428748,-0.1333428081608746
-0.005511631722428748,-0.1306768099827555
-0.005511291722428749,-0.1256739492040628
-0.005510951722428748,-0.1188608427488695
-0.005510611722428748,-0.1140883768744587
-0.005510271722428749,-0.1117515142738851
-0.005509931722428748,-0.1079993686898656
-0.005509591722428748,-0.1073081839770199
-0.005509251722428748,-0.09825695559451672
-0.005508911722428748,-0.09134510846605506
-0.005508571722428748,-0.08877785096120427
-0.005508231722428748,-0.08588145787880325
-0.005507891722428748,-0.08621059345634469
-0.005507551722428748,-0.08393955797128438
-0.005507211722428748,-0.08091151065786512
-0.005506871722428748,-0.07890378363483229
-0.005506531722428748,-0.07623778545671803
-0.005506191722428748,-0.07452628045348106
-0.005505851722428748,-0.07113618400475884
-0.005505511722428748,-0.06958924679029749
-0.005505171722428748,-0.06840435871113343
-0.005504831722428748,-0.06484969447363527
-0.005504491722428748,-0.06155833869818555
-0.005504151722428748,-0.06103172177411263
-0.005503811722428748,-0.06020888283024289
-0.005503471722428748,-0.05701626772805667
-0.005503131722428748,-0.05458066445421944
-0.005502791722428748,-0.05056521040816096
-0.005502451722428748,-0.04918284098247207
-0.005502111722428748,-0.04822834780758992
-0.005501771722428748,-0.04533195472518416
-0.005501431722428748,-0.04273178366257888
-0.005501091722428748,-0.04223808029626052
-0.005500751722428748,-0.04437746155030111
-0.005500411722428748,-0.04128358712137837
-0.005500071722428748,-0.04023035327323254
-0.005499731722428749,-0.0394404278871246
-0.005499391722428748,-0.04204059894973318
-0.005499051722428748,-0.0372681330753224
-0.005498711722428749,-0.0313107791217584
-0.005498371722428748,-0.02966510123401971
-0.005498031722428748,-0.02795359623078274
-0.005497691722428749,-0.03266023498967584
-0.005497351722428748,-0.03341724681803922
-0.005497011722428748,-0.03042211306237452
-0.005496671722428749,-0.03084998931318299
-0.005496331722428748,-0.03012589104258351
-0.005495991722428748,-0.02742697930670982
-0.005495651722428749,-0.02495846247512253
-0.005495311722428748,-0.02380648795370854
-0.005494971722428748,-0.02114048977558942
-0.005494631722428749,-0.02153545246864338
-0.005494291722428748,-0.02035056438948005
-0.005493951722428748,-0.01952772544561612
-0.005493611722428749,-0.02077844064028701
-0.005493271722428748,-0.02018599660070726
-0.005492931722428748,-0.01850740515522485
-0.005492591722428749,-0.01834283736645236
-0.005492251722428748,-0.01919858986807055
-0.005491911722428748,-0.01801370178890649
-0.005491571722428749,-0.01801370178890649
-0.005491231722428748,-0.01909984919480688
-0.005490891722428748,-0.01699338149851522
-0.005490551722428749,-0.01666424592096965
-0.005490211722428748,-0.01623636967016041
-0.005489871722428748,-0.0143273833203961
-0.005489531722428749,-0.01278044610593191
-0.005489191722428748,-0.01373493928081407
-0.005488851722428748,-0.01755291198034269
-0.005488511722428749,-0.01515022226426002
-0.005488171722428748,-0.009949880139048801
-0.005487831722428748,-0.01478817312895989
-0.005487491722428748,-0.01742125774932446
-0.005487151722428748,-0.01630219678566617
-0.005486811722428748,-0.01445903755141432
-0.005486471722428748,-0.01366911216530495
-0.005486131722428748,-0.01291210033694888
-0.005485791722428748,-0.01222091562410444
-0.005485451722428748,-0.0104106699476038
-0.005485111722428748,-0.01001570725454876
-0.005484771722428748,-0.009818225908021772
-0.005484431722428748,-0.008863732733139616
-0.005484091722428748,-0.009554917445984537
-0.005483751722428748,-0.009127041195176074
-0.005483411722428748,-0.007250968403166318
-0.005483071722428748,-0.008337115809069396
-0.005482731722428748,-0.009818225908021772
-0.005482391722428748,-0.008732078502121389
-0.005482051722428748,-0.008732078502124742
-0.005481711722428748,-0.01057523773637659
-0.005481371722428748,-0.009587831003739873
-0.005481031722428748,-0.009127041195174518
-0.005480691722428748,-0.008271288693557588
-0.005480351722428748,-0.006428129459302391
-0.005480011722428748,-0.004552056667291078
-0.005479671722428748,-0.00369630416567415
-0.005479331722428748,-0.002412675413246423
-0.005478991722428749,-0.001161960218575528
-0.005478651722428748,-0.002511416086510094
-0.005478311722428748,-0.004914105802592763
-0.005477971722428749,-0.0003720348324721444
-0.005477631722428748,-0.004124180416483393
-0.005477291722428748,-0.004782451571574535
-0.005476951722428749,-0.004749538013820037
-0.005476611722428748,-0.01014736148556734
-0.005476271722428748,-0.009192868310685188
-0.005475931722428749,-0.007053487056642866
-0.005475591722428748,-0.00767884465397556
-0.005475251722428748,-0.009489090330476201
-0.005474911722428749,-0.006888919267870919
-0.005474571722428748,-0.004914105802592763
-0.005474231722428748,-0.004288748205256179
-0.005473891722428749,0.004466258157440088
-0.005473551722428748,-0.003400082145883136
-0.005473211722428748,-0.003498822819146808
-0.005472871722428749,-0.003136773683847338
-0.005472531722428748,-0.003268427914864908
-0.005472191722428748,-0.005736944746456691
-0.005471851722428749,-0.004453315994031298
-0.005471511722428748,-0.004683710898310864
-0.005471171722428748,-0.005934426092984033
-0.005470831722428749,-0.00573694474645705
-0.005470491722428748,-0.005769858304211248
-0.005470151722428748,-0.006757265036847961
-0.005469811722428749,-0.005736944746456691
-0.005469471722428748,-0.005012846475856435
-0.005469131722428748,-0.005309068495647449
-0.005468791722428749,-0.005440722726665677
-0.005468451722428748,-0.005309068495647449
-0.005468111722428748,-0.009258695426194301
-0.005467771722428749,-0.004914105802592763
-0.005467431722428748,-0.003729217723428708
-0.005467091722428748,-0.006296475228284162
-0.005466751722428748,-0.005374895611156563
-0.005466411722428748,-0.007942153116014591
-0.005466071722428748,-0.009357436099457973
-0.005465731722428748,-0.009489090330476201
-0.005465391722428748,-0.008797905617625473
-0.005465051722428748,-0.006033166766247705
-0.005464711722428748,-0.004420402436274407
-0.005464371722428748,-0.002906378779566396
-0.005464031722428748,-0.003795044838937822
-0.005463691722428748,-0.002741810990791994
-0.005463351722428748,0.000286236322624805
-0.005463011722428748,-0.001063219545309582
-0.005462671722428748,-0.004091266858728836
-0.005462331722428748,-0.004157093974233579
-0.005461991722428748,-0.001754404258155281
-0.005461651722428748,-0.004190007531992507
-0.005461311722428748,-0.00534198205340428
-0.005460971722428748,-0.006592697248075176
-0.005460631722428748,-0.00767884465397556
-0.005460291722428748,-0.00748136330744714
-0.005459951722428748,-0.00688891926786619
-0.005459611722428748,-0.007876326000502903
-0.005459271722428748,-0.009028300521907253
-0.005458931722428748,-0.00619773455502049
-0.005458591722428748,-0.006296475228284162
-0.005458251722428748,-0.006526870132567858
-0.005457911722428748,-0.007514276865202775
-0.005457571722428748,-0.008995386964157845
-0.005457231722428749,-0.002478502528767391
-0.005456891722428748,-0.0004378619479729968
-0.005456551722428748,0.0003849769958909309
-0.005456211722428749,-0.002313934739977843
-0.005455871722428748,-0.004617883782801749
-0.005455531722428748,-0.001161960218573253
-0.005455191722428749,-0.001096133103064259
-0.005454851722428748,-0.002313934739982752
-0.005454511722428748,-0.001918972046928067
-0.005454171722428749,-0.00175440425815558
-0.005453831722428748,-0.001096133103064139
-0.005453491722428748,-0.003169687241601236
-0.005453151722428749,-0.003926699069954673
-0.005452811722428748,-0.00290637877956478
-0.005452471722428748,-0.003169687241601236
-0.005452131722428749,-0.005638204073188529
-0.005451791722428748,-0.006428129459302391
-0.005451451722428748,-0.004124180416483393
-0.005451111722428749,-0.004288748205255879
-0.005450771722428748,-0.004979932918101878
-0.005450431722428748,-0.003334255030374022
-0.005450091722428749,-0.002675983875284077
-0.005449751722428748,-0.003038033010583008
-0.005449411722428748,-0.00267598387528288
-0.005449071722428749,-0.002741810990791875
-0.005448731722428748,-0.00438748887851985
-0.005448391722428748,-0.003860871954446936
-0.005448051722428749,-0.00438748887851985
-0.005447711722428748,-0.006493956574811504
-0.005447371722428748,-0.01113476821820406
-0.005447031722428749,-0.006362302343793276
-0.005446691722428748,-0.003860871954446936
-0.005446351722428748,-0.004617883782801749
-0.005446011722428749,-0.0003062077169547683
-0.005445671722428748,-0.004650797340557743
-0.005445331722428748,-0.005440722726665677
-0.005444991722428748,-0.002544329644264652
-0.005444651722428748,-0.003762131281187455
-0.005444311722428748,-0.006066080324002262
-0.005443971722428748,-0.006790178594602518
-0.005443631722428748,-0.00665852436358423
-0.005443291722428748,-0.006625610805829733
-0.005442951722428748,-0.005638204073193019
-0.005442611722428748,-0.005309068495648406
-0.005442271722428748,-0.005835685419720362
-0.005441931722428748,-0.004453315994028964
-0.005441591722428748,-0.004683710898311402
-0.005441251722428748,-0.004979932918101878
-0.005440911722428748,-0.002873465221810222
-0.005440571722428748,-0.00277472454854721
-0.005440231722428748,-0.00313677368384668
-0.005439891722428748,-0.002083539835700852
-0.005439551722428748,-0.002149366951211044
-0.005439211722428748,-0.002741810990791994
-0.005438871722428748,-0.002741810990791994
-0.005438531722428748,-0.003103860126094397
-0.005438191722428748,-0.004354575320765292
-0.005437851722428748,-0.004321661763010735
-0.005437511722428748,-0.004091266858732428
-0.005437171722428748,-0.006066080324002262
-0.005436831722428748,-0.009785312350267215
-0.005436491722428749,-0.001754404258169889
-0.005436151722428748,-0.0006682568522548965
-0.005435811722428748,-4.289925491831147e-05
-0.005435471722428749,0.001438210844034064
-0.005435131722428748,-0.002412675413246423
-0.005434791722428748,-0.002643070317528323
-0.005434451722428749,-0.0001087263704320357
-0.005434111722428748,-0.0006682568522548965
-0.005433771722428748,-0.00142526868060971
-0.005433431722428749,0.0004178905536421354
-0.005433091722428748,0.001240729497509416
-0.005432751722428748,0.0004508041114000451
-0.005432411722428749,0.0007799396889450175
-0.005432071722428748,0.001800259979336887
-0.005431731722428748,-0.0004378619479729968
-0.005431391722428749,-0.004387488878512666
-0.005431051722428748,-0.002610156759773766
-0.005430711722428748,-0.004815365129329092
-0.005430371722428749,-0.004584970225047611
-0.005430031722428748,-0.006263561670529605
-0.005429691722428748,-0.006790178594602518
-0.005429351722428749,-0.006625610805830033
-0.005429011722428748,-0.005802771861965805
-0.005428671722428748,-0.007053487056638975
-0.005428331722428749,-0.007744671769483418
-0.005427991722428748,0.002096481999127901
-0.005427651722428748,-0.006493956574811504
-0.005427311722428749,-0.006362302343793276
-0.005426971722428748,-0.003729217723428708
-0.005426631722428748,-0.004552056667292635
-0.005426291722428749,-0.008468770040084931
-0.005425951722428748,-0.001721490700400724
-0.005425611722428748,-0.0003720348324638825
-0.005425271722428749,-0.002215194066719081
-0.005424931722428748,-0.002840551664055666
-0.005424591722428748,-0.006724351479093405
-0.005424251722428748,-0.006757265036847961
-0.005423911722428748,-0.00346590926139273
-0.005423571722428748,-0.003729217723428708
-0.005423231722428748,-0.005341982053402005
-0.005422891722428748,-0.003992526185462291
-0.005422551722428748,-0.002412675413246423
-0.005422211722428748,-0.003795044838937822
-0.005421871722428748,-0.00284055166405399
-0.005421531722428748,-0.001918972046928067
-0.005421191722428748,-0.00438748887851985
-0.005420851722428748,-0.002577243202014479
-0.005420511722428748,2.292786059080275e-05
-0.005420171722428748,-0.001622750027137053
-0.005419831722428748,-0.001853144931419551
-0.005419491722428748,-0.002182280508964523
-0.005419151722428748,-0.00165566358489161
-0.005418811722428748,-0.002149366951209488
-0.005418471722428748,-0.00188605848917351
-0.005418131722428748,-0.003432995703637694
-0.005417791722428748,-0.003992526185458818
