Analysis/files/cmb03_wrd01/d2s06_ch19.csv

#Digilent WaveForms Oscilloscope Acquisition
#Device Name: ADP3450
#Serial Number: SN:210018B9D9B0
#Date Time: 2024-08-13 15:56:09.721.805.060
#Sample rate: 2.94118e+06Hz
#Samples: 32768
#Trigger: Source: Channel 3 Type: Edge Condition: Rising Level: 60 mV Hyst.: Auto HoldOff: 0 s
#Channel 3: Range: 200 mV/div Offset: 0 V Attenuation: 1 X Coupling: DC Bandwidth: 0 Hz Sample Mode: Average

Time (s),Channel 3 (V)
-0.005570403140096619,-0.004288748205256179
-0.005570063140096618,-0.001359441565096824
-0.005569723140096619,0.000714112573436502
-0.005569383140096619,0.0009774210354729588
-0.005569043140096618,0.001306556613008831
-0.005568703140096619,-0.004025439743219721
-0.005568363140096619,-0.00619773455502049
-0.005568023140096618,-0.003762131281186138
-0.005567683140096619,-0.005341982053402005
-0.005567343140096619,-0.006461043017056948
-0.005567003140096618,-0.006954746383375244
-0.005566663140096619,-0.006921832825620747
-0.005566323140096619,-0.007152227729902647
-0.005565983140096618,-0.007053487056639873
-0.005565643140096619,-0.007547190422957332
-0.005565303140096619,-0.008732078502121389
-0.005564963140096618,-0.004617883782803007
-0.005564623140096619,-0.005309068495647449
-0.005564283140096619,-0.006526870132566062
-0.005563943140096618,-0.007547190422956793
-0.005563603140096619,-0.007250968403166318
-0.005563263140096619,-0.009982793696794558
-0.005562923140096619,-0.01149681735350143
-0.005562583140096619,-0.01195760716206798
-0.005562243140096619,-0.01406407485835964
-0.005561903140096619,-0.01278044610593425
-0.005561563140096619,-0.01195760716206798
-0.005561223140096619,-0.01274753254817735
-0.005560883140096619,-0.0110360275449435
-0.005560543140096619,-0.005769858304211248
-0.005560203140096619,-0.009554917445985316
-0.005559863140096619,-0.01515022226424985
-0.005559523140096619,-0.008337115809066702
-0.005559183140096619,-0.009061214079666959
-0.005558843140096619,-0.008304202251313522
-0.005558503140096619,-0.008501683597839487
-0.005558163140096619,-0.0140969884161142
-0.005557823140096619,-0.01439321043590467
-0.005557483140096619,-0.01258296475940457
-0.005557143140096619,-0.01320832235674115
-0.005556803140096619,-0.01541353072629247
-0.005556463140096619,-0.01403116130060508
-0.005556123140096619,-0.01518313582201458
-0.005555783140096619,-0.01436029687815215
-0.005555443140096619,-0.01189178004655887
-0.005555103140096619,-0.012253829181859
-0.005554763140096619,-0.01409698841611084
-0.005554423140096619,-0.01320832235674115
-0.005554083140096619,-0.0136361986075504
-0.005553743140096619,-0.01699338149851522
-0.005553403140096618,-0.01669715947872421
-0.005553063140096619,-0.01554518495731471
-0.005552723140096619,-0.01768456621136092
-0.005552383140096618,-0.01742125774932446
-0.005552043140096619,-0.01778330688462459
-0.005551703140096619,-0.01775039332687003
-0.005551363140096618,-0.01666424592097109
-0.005551023140096619,-0.01745417130707902
-0.005550683140096619,-0.01916567631031599
-0.005550343140096618,-0.01906693563705059
-0.005550003140096619,-0.01811244246217016
-0.005549663140096619,-0.02031765083172549
-0.005549323140096618,-0.02360900660716749
-0.005548983140096619,-0.01607180188138762
-0.005548643140096619,-0.01557809851506927
-0.005548303140096618,-0.01416281553162612
-0.005547963140096619,-0.01570975274608749
-0.005547623140096619,-0.01890236784827953
-0.005547283140096618,-0.01840866448195699
-0.005546943140096619,-0.01610471543914218
-0.005546603140096619,-0.01669715947872421
-0.005546263140096618,-0.01824409669318187
-0.005545923140096619,-0.01465651889794167
-0.005545583140096619,-0.01472234601345078
-0.005545243140096618,-0.01620345611240412
-0.005544903140096619,-0.0152489629375237
-0.005544563140096619,-0.01600597476587851
-0.005544223140096618,-0.01847449159746909
-0.005543883140096619,-0.01781622044237915
-0.005543543140096619,-0.01755291198034269
-0.005543203140096618,-0.01969229323438759
-0.005542863140096619,-0.01896819496378865
-0.005542523140096619,-0.01682881370974244
-0.005542183140096619,-0.01788204755788635
-0.005541843140096619,-0.0185403187129794
-0.005541503140096619,-0.01794787467339738
-0.005541163140096619,-0.0177174797691159
-0.005540823140096619,-0.01659841880546054
-0.005540483140096619,-0.0159401476503694
-0.005540143140096619,-0.0158414069771059
-0.005539803140096619,-0.01617054255465129
-0.005539463140096619,-0.01485400024446901
-0.005539123140096619,-0.01830992380869122
-0.005538783140096619,-0.01794787467339738
-0.005538443140096619,-0.01337289014551394
-0.005538103140096619,-0.01357037149204092
-0.005537763140096619,-0.01281335966368647
-0.005537423140096619,-0.01705920861402434
-0.005537083140096619,-0.01886945429052168
-0.005536743140096619,-0.01745417130707902
-0.005536403140096619,-0.01577557986159661
-0.005536063140096619,-0.01735543063381248
-0.005535723140096619,-0.0206138728515165
-0.005535383140096619,-0.02048221862049827
-0.005535043140096619,-0.02044930506274378
-0.005534703140096619,-0.02252285920128081
-0.005534363140096619,-0.02156836602639866
-0.005534023140096619,-0.02100883554457221
-0.005533683140096619,-0.02067969996702562
-0.005533343140096619,-0.0192315034258251
-0.005533003140096619,-0.01636802390117864
-0.005532663140096618,-0.01607180188138762
-0.005532323140096619,-0.01567683918833294
-0.005531983140096619,-0.01412990197386875
-0.005531643140096618,-0.01429446976264154
-0.005531303140096619,-0.01610471543914218
-0.005530963140096619,-0.01482108668671445
-0.005530623140096618,-0.01666424592096965
-0.005530283140096619,-0.01784913400013371
-0.005529943140096619,-0.01807952890441561
-0.005529603140096618,-0.01867197294399991
-0.005529263140096619,-0.0199226881386708
-0.005528923140096619,-0.01719086284504256
-0.005528583140096618,-0.02160127958415286
-0.005528243140096619,-0.02140379823762588
-0.005527903140096619,-0.01518313582201458
-0.005527563140096618,-0.01465651889793861
-0.005527223140096619,-0.01297792745245925
-0.005526883140096619,-0.01626928322791496
-0.005526543140096618,-0.01840866448195884
-0.005526203140096619,-0.01712503572953345
-0.005525863140096619,-0.01699338149851522
-0.005525523140096618,-0.01860614582849409
-0.005525183140096619,-0.02166710669966233
-0.005524843140096619,-0.02094300842906207
-0.005524503140096618,-0.01962646611888063
-0.005524163140096619,-0.02008725592744359
-0.005523823140096619,-0.02170002025741689
-0.005523483140096618,-0.0247938946863616
-0.005523143140096619,-0.03377929595333935
-0.005522803140096619,-0.04836000203860814
-0.005522463140096618,-0.06741695197854627
-0.005522123140096619,-0.09466937779926998
-0.005521783140096619,-0.1252460729532535
-0.005521443140096618,-0.155526546087501
-0.005521103140096619,-0.1857411921061295
-0.005520763140096619,-0.2146722093723852
-0.005520423140096619,-0.2365597252791259
-0.005520083140096619,-0.2558470701233361
-0.005519743140096619,-0.2678934322615041
-0.005519403140096619,-0.2750685878519845
-0.005519063140096619,-0.277043401317271
-0.005518723140096619,-0.2764509572776889
-0.005518383140096619,-0.2729950337134667
-0.005518043140096619,-0.2691770610139318
-0.005517703140096619,-0.2559128972388452
-0.005517363140096619,-0.2485731738595924
-0.005517023140096619,-0.2401473030744124
-0.005516683140096619,-0.2266198308372895
-0.005516343140096619,-0.232215135655554
-0.005516003140096619,-0.2232955615040792
-0.005515663140096619,-0.2141126788905577
-0.005515323140096619,-0.2082869791680117
-0.005514983140096619,-0.200124416844871
-0.005514643140096619,-0.194101235775787
-0.005514303140096619,-0.1877818326869236
-0.005513963140096619,-0.1797509245948001
-0.005513623140096619,-0.173365694390416
-0.005513283140096619,-0.168527401400505
-0.005512943140096619,-0.1621421711961121
-0.005512603140096619,-0.1557240274339734
-0.005512263140096619,-0.1513794378103719
-0.005511923140096619,-0.1444346771241604
-0.005511583140096619,-0.1392672485566949
-0.005511243140096619,-0.135613843645939
-0.005510903140096618,-0.130117279500928
-0.005510563140096619,-0.1262993068013994
-0.005510223140096619,-0.1252789865110081
-0.005509883140096618,-0.1215926680424977
-0.005509543140096619,-0.1158657089932048
-0.005509203140096619,-0.1126401803332582
-0.005508863140096618,-0.1092500838845284
-0.005508523140096619,-0.1035560383930004
-0.005508183140096619,-0.1010216944458995
-0.005507843140096618,-0.098487350498797
-0.005507503140096619,-0.09759868443942557
-0.005507163140096619,-0.08950194923180452
-0.005506823140096618,-0.0869017781691875
-0.005506483140096619,-0.08305089191191134
-0.005506143140096619,-0.08235970719906563
-0.005505803140096618,-0.085058618934931
-0.005505463140096619,-0.08048363440705589
-0.005505123140096619,-0.0752503787240813
-0.005504783140096618,-0.07439462622245922
-0.005504443140096619,-0.07241981275718939
-0.005504103140096619,-0.07176154160209824
-0.005503763140096618,-0.07097161621598518
-0.005503423140096619,-0.06893097563520634
-0.005503083140096619,-0.06735112486298758
-0.005502743140096618,-0.0675815197672671
-0.005502403140096619,-0.0662649774570872
-0.005502063140096619,-0.06251283187306769
-0.005501723140096618,-0.06070258619656131
-0.005501383140096619,-0.05754288465212958
-0.005501043140096619,-0.05586429320664717
-0.005500703140096618,-0.05411987464565361
-0.005500363140096619,-0.0530008136820007
-0.005500023140096619,-0.05099308665897272
-0.005499683140096619,-0.0511905680054997
-0.005499343140096619,-0.05099308665897272
-0.005499003140096619,-0.04753716309474422
-0.005498663140096619,-0.04582565809151036
-0.005498323140096619,-0.04628644790007105
-0.005497983140096619,-0.04431163443479762
-0.005497643140096619,-0.04401541241500715
-0.005497303140096619,-0.04684597838189852
-0.005496963140096619,-0.04608896655354371
-0.005496623140096619,-0.0402303532732432
-0.005496283140096619,-0.03921003298284127
-0.005495943140096619,-0.03516166537903075
-0.005495603140096619,-0.03753144153735455
-0.005495263140096619,-0.03832136692346823
-0.005494923140096619,-0.03338433326028466
-0.005494583140096619,-0.0317057418148053
-0.005494243140096619,-0.03328559258702099
-0.005493903140096619,-0.03216653162336605
-0.005493563140096619,-0.03045502662013219
-0.005493223140096619,-0.03137660623725668
-0.005492883140096619,-0.03068542152441098
-0.005492543140096619,-0.02946761988749458
-0.005492203140096619,-0.03091581642869288
-0.005491863140096619,-0.03101455710195655
-0.005491523140096619,-0.02969801479177666
-0.005491183140096619,-0.02903974363668312
-0.005490843140096619,-0.02966510123401971
-0.005490503140096619,-0.02798650978853729
-0.005490163140096618,-0.02778902844200995
-0.005489823140096619,-0.02722949796018248
-0.005489483140096619,-0.02525468449490905
-0.005489143140096618,-0.02400396930023588
-0.005488803140096619,-0.02272034054780816
-0.005488463140096619,-0.0215354524686441
-0.005488123140096618,-0.02196332871945436
-0.005487783140096619,-0.02252285920128081
-0.005487443140096619,-0.02354317949167209
-0.005487103140096618,-0.02387231506922478
-0.005486763140096619,-0.02778902844200995
-0.005486423140096619,-0.0231482167986174
-0.005486083140096618,-0.02127214400660824
-0.005485743140096619,-0.02160127958415322
-0.005485403140096619,-0.02133797112211676
-0.005485063140096618,-0.02509011670613914
-0.005484723140096619,-0.02666996747835501
-0.005484383140096619,-0.02469515401308158
-0.005484043140096618,-0.02426727776227569
-0.005483703140096619,-0.02611043699652754
-0.005483363140096619,-0.02597878276550931
-0.005483023140096618,-0.02370774728044547
-0.005482683140096619,-0.02403688285799044
-0.005482343140096619,-0.02403688285799044
-0.005482003140096618,-0.02239120497026253
-0.005481663140096619,-0.02235829141250803
-0.005481323140096619,-0.02160127958415322
-0.005480983140096618,-0.01916567631031653
-0.005480643140096619,-0.01946189833010701
-0.005480303140096619,-0.01909984919480688
-0.005479963140096618,-0.0163680239011793
-0.005479623140096619,-0.01673007303647877
-0.005479283140096619,-0.01824409669318839
-0.005478943140096619,-0.01781622044237993
-0.005478603140096619,-0.01827701025094295
-0.005478263140096619,-0.01979103390765257
-0.005477923140096619,-0.02008725592744305
-0.005477583140096619,-0.01929733054133422
-0.005477243140096619,-0.02018599660070726
-0.005476903140096619,-0.01906693563705436
-0.005476563140096619,-0.02137088467987132
-0.005476223140096619,-0.02357609304942664
-0.005475883140096619,-0.01715794928729968
-0.005475543140096619,-0.01580849341935116
-0.005475203140096619,-0.01531479005303281
-0.005474863140096619,-0.01676298659423069
-0.005474523140096619,-0.01926441698357966
-0.005474183140096619,-0.01847449159747029
-0.005473843140096619,-0.01682881370974543
-0.005473503140096619,-0.0159401476503694
-0.005473163140096619,-0.01073980552514937
-0.005472823140096619,-0.01738834419155781
-0.005472483140096619,-0.01587432053486028
-0.005472143140096619,-0.01554518495731471
-0.005471803140096619,-0.01505148159099725
-0.005471463140096619,-0.01462360534018711
-0.005471123140096619,-0.01416281553162331
-0.005470783140096619,-0.0142615562048868
-0.005470443140096619,-0.01251713764389546
-0.005470103140096619,-0.01330706303000483
-0.005469763140096619,-0.01482108668671445
-0.005469423140096619,-0.01373493928081407
-0.005469083140096619,-0.01373493928081407
-0.005468743140096619,-0.01485400024446901
-0.005468403140096618,-0.0159401476503694
-0.005468063140096619,-0.01577557986159661
-0.005467723140096619,-0.01623636967016041
-0.005467383140096618,-0.01798078823115194
-0.005467043140096619,-0.01821118313543383
-0.005466703140096619,-0.02087718131355296
-0.005466363140096618,-0.02179876093068433
-0.005466023140096619,-0.02387231506921766
-0.005465683140096619,-0.02196332871945334
-0.005465343140096618,-0.01603888832363911
-0.005465003140096619,-0.01936315765684333
-0.005464663140096619,-0.02120631689109853
-0.005464323140096618,-0.01669715947872044
-0.005463983140096619,-0.01462360534018711
-0.005463643140096619,-0.01495274091773268
-0.005463303140096618,-0.01821118313542755
-0.005462963140096619,-0.01475525957120534
-0.005462623140096619,-0.01491982735997812
-0.005462283140096618,-0.01709212217177884
-0.005461943140096619,-0.01705920861402434
-0.005461603140096619,-0.01633511034342408
-0.005461263140096618,-0.01597306120812252
-0.005460923140096619,-0.01518313582201458
-0.005460583140096619,-0.01557809851506927
-0.005460243140096618,-0.0179149611156421
-0.005459903140096619,-0.01751999842258814
-0.005459563140096619,-0.01814535601992472
-0.005459223140096618,-0.02084426775580122
-0.005458883140096619,-0.02239120497026259
-0.005458543140096619,-0.0203834779472346
-0.005458203140096618,-0.01946189833010569
-0.005457863140096619,-0.01873780005950675
-0.005457523140096619,-0.01626928322791496
-0.005457183140096619,-0.015808493419352
-0.005456843140096619,-0.01459069178243255
-0.005456503140096619,-0.01357037149204128
-0.005456163140096619,-0.01498565447548466
-0.005455823140096619,-0.01663133236321509
-0.005455483140096619,-0.01412990197386875
-0.005455143140096619,-0.01222091562410791
-0.005454803140096619,-0.01426155620488698
-0.005454463140096619,-0.01218800206634988
-0.005454123140096619,-0.01623636967015304
-0.005453783140096619,-0.02002142881193448
-0.005453443140096619,-0.01801370178890649
-0.005453103140096619,-0.01725668996055306
-0.005452763140096619,-0.0201530830429527
-0.005452423140096619,-0.01840866448196118
-0.005452083140096619,-0.01735543063381726
-0.005451743140096619,-0.01673007303647877
-0.005451403140096619,-0.01561101207282382
-0.005451063140096619,-0.01386659351183547
-0.005450723140096619,-0.01396533418509597
-0.005450383140096619,-0.01498565447548724
-0.005450043140096619,-0.01383367995407984
-0.005449703140096619,-0.01689464082525155
-0.005449363140096619,-0.01758582553809725
-0.005449023140096619,-0.01626928322791736
-0.005448683140096619,-0.01742125774932446
-0.005448343140096619,-0.01748708486483358
-0.005448003140096619,-0.01679590015198788
-0.005447663140096618,-0.01623636967016041
-0.005447323140096619,-0.01794787467339738
-0.005446983140096619,-0.01696046794076066
-0.005446643140096618,-0.01722377640279712
-0.005446303140096619,-0.01765165265360636
-0.005445963140096619,-0.01742125774932446
-0.005445623140096618,-0.01768456621136775
-0.005445283140096619,-0.02143671179538043
-0.005444943140096619,-0.01791496111564282
-0.005444603140096618,-0.01235256985512351
-0.005444263140096619,-0.01281335966368647
-0.005443923140096619,-0.01100311398718583
-0.005443583140096618,-0.01294501389471188
-0.005443243140096619,-0.01689464082525155
-0.005442903140096619,-0.01472234601345078
-0.005442563140096618,-0.01363619860755076
-0.005442223140096619,-0.01383367995407774
-0.005441883140096619,-0.01557809851506927
-0.005441543140096618,-0.01521604937977135
-0.005441203140096619,-0.01643385101668775
-0.005440863140096619,-0.01811244246217016
-0.005440523140096618,-0.01682881370974567
-0.005440183140096619,-0.01860614582848852
-0.005439843140096619,-0.01952772544561612
-0.005439503140096618,-0.01732251707606073
-0.005439163140096619,-0.01728960351830624
-0.005438823140096619,-0.01745417130707902
-0.005438483140096618,-0.01515022226425924
-0.005438143140096619,-0.01472234601345078
-0.005437803140096619,-0.01584140697710572
-0.005437463140096618,-0.01501856803324281
-0.005437123140096619,-0.01557809851506927
-0.005436783140096619,-0.01788204755788826
-0.005436443140096619,-0.01775039332687027
-0.005436103140096619,-0.01788204755788826
-0.005435763140096619,-0.0192315034258251
-0.005435423140096619,-0.01883654073277114
-0.005435083140096619,-0.01952772544561612
-0.005434743140096619,-0.02377357439595399
-0.005434403140096619,-0.01709212217179105
-0.005434063140096619,-0.01607180188138762
-0.005433723140096619,-0.01610471543914218
-0.005433383140096619,-0.01643385101668715
-0.005433043140096619,-0.0213050575643622
-0.005432703140096619,-0.01570975274608749
-0.005432363140096619,-0.015611012072824
-0.005432023140096619,-0.01515022226426002
-0.005431683140096619,-0.01561101207282382
-0.005431343140096619,-0.0158084934193508
-0.005431003140096619,-0.01626928322791496
-0.005430663140096619,-0.01748708486483358
-0.005430323140096619,-0.01900110852154045
-0.005429983140096619,-0.01751999842258814
-0.005429643140096619,-0.01426155620488698
-0.005429303140096619,-0.01607180188138433
-0.005428963140096619,-0.01771747976911548
-0.005428623140096619,-0.01669715947872421
-0.005428283140096619,-0.0168288137097422
-0.005427943140096619,-0.01584140697710572
-0.005427603140096619,-0.01412990197386875
-0.005427263140096619,-0.01472234601345078
-0.005426923140096618,-0.01406407485835964
-0.005426583140096619,-0.01307666812572293
-0.005426243140096619,-0.01389950706958685
-0.005425903140096618,-0.0143273833203961
-0.005425563140096619,-0.01468943245569622
-0.005425223140096619,-0.01742125774932446
-0.005424883140096618,-0.01903402207929776
-0.005424543140096619,-0.0196922932343889
-0.005424203140096619,-0.0249913760328726
-0.005423863140096618,-0.01985686102315894
-0.005423523140096619,-0.01834283736645206
-0.005423183140096619,-0.01518313582201458
-0.005422843140096618,-0.01923150342582211
-0.005422503140096619,-0.01758582553809725
-0.005422163140096619,-0.01406407485835964
-0.005421823140096618,-0.01584140697710973
-0.005421483140096619,-0.01804661534666105
-0.005421143140096619,-0.01893528140603409
-0.005420803140096618,-0.02173293381515995
-0.005420463140096619,-0.01541353072629648
-0.005420123140096619,-0.01561101207282382
-0.005419783140096618,-0.02077844064027941
-0.005419443140096619,-0.01534770361078737
-0.005419103140096619,-0.01176012581554064
-0.005418763140096618,-0.01449195110916978
-0.005418423140096619,-0.01498565447548724
-0.005418083140096619,-0.01508439514875091
-0.005417743140096618,-0.01343871726101761
-0.005417403140096619,-0.01044358350535836
-0.005417063140096619,-0.01567683918833294
-0.005416723140096618,-0.02120631689109488
-0.005416383140096619,-0.01919858986807055
-0.005416043140096619,-0.01630219678566952
-0.005415703140096618,-0.01975812034990095
-0.005415363140096619,-0.02137088467987132
