Analysis/files/cmb03_wrd01/d2s07_ch45.csv

#Digilent WaveForms Oscilloscope Acquisition
#Device Name: ADP3450
#Serial Number: SN:210018B9D9B0
#Date Time: 2024-08-13 16:39:19.491.551.730
#Sample rate: 2.94118e+06Hz
#Samples: 32768
#Trigger: Source: Channel 3 Type: Edge Condition: Rising Level: 60 mV Hyst.: Auto HoldOff: 0 s
#Channel 3: Range: 200 mV/div Offset: 0 V Attenuation: 1 X Coupling: DC Bandwidth: 0 Hz Sample Mode: Average

Time (s),Channel 3 (V)
-0.005570378874856488,0.0007470261311910591
-0.005570038874856487,0.0001545820916052594
-0.005569698874856487,-0.001918972046928067
-0.005569358874856488,-0.002281021182228195
-0.005569018874856487,-0.0006682568522571117
-0.005568678874856487,-0.00188605848917351
-0.005568338874856488,-0.002182280508964523
-0.005567998874856487,-0.002313934739981315
-0.005567658874856487,-0.001524009353873381
-0.005567318874856488,-0.002182280508964523
-0.005566978874856487,-0.002741810990792952
-0.005566638874856487,-0.003268427914864908
-0.005566298874856488,-0.004190007531992507
-0.005565958874856487,-0.003564649934658317
-0.005565618874856487,-0.004881192244838206
-0.005565278874856487,-0.006461043017056948
-0.005564938874856487,-0.007020573498881545
-0.005564598874856487,-0.005440722726665677
-0.005564258874856487,-0.006856005710111633
-0.005563918874856487,-0.007349709076429032
-0.005563578874856487,-0.006823092152357076
-0.005563238874856487,-0.007316795518675433
-0.005562898874856488,-0.01041066994759817
-0.005562558874856487,-0.009094127637421515
-0.005562218874856487,-0.002313934739982752
-0.005561878874856488,-0.005309068495642
-0.005561538874856487,-0.007382622634184546
-0.005561198874856487,-0.006395215901547833
-0.005560858874856488,-0.006823092152356298
-0.005560518874856487,-0.007349709076429989
-0.005560178874856487,-0.007349709076429989
-0.005559838874856488,-0.008370029366819404
-0.005559498874856487,-0.006428129459302391
-0.005559158874856487,-0.006066080324002262
-0.005558818874856488,-0.006625610805828716
-0.005558478874856487,-0.005835685419720362
-0.005558138874856487,-0.007711758211730118
-0.005557798874856488,-0.00886373273313752
-0.005557458874856487,-0.01139807668024051
-0.005557118874856487,-0.01192469360431343
-0.005556778874856488,-0.0134387172610203
-0.005556438874856487,-0.01380076639632318
-0.005556098874856487,-0.0134058037032685
-0.005555758874856488,-0.01515022226425685
-0.005555418874856487,-0.01399824774285052
-0.005555078874856487,-0.01357037149204128
-0.005554738874856488,-0.01261587831716086
-0.005554398874856487,-0.01268170543266824
-0.005554058874856487,-0.0106410648518857
-0.005553718874856488,-0.01120059533371317
-0.005553378874856487,-0.0111018546604495
-0.005553038874856487,-0.01001570725454911
-0.005552698874856488,-0.01189178004655887
-0.005552358874856487,-0.01389950706958685
-0.005552018874856487,-0.008501683597839487
-0.005551678874856488,-0.008995386964157845
-0.005551338874856487,-0.008007980231522988
-0.005550998874856487,-0.009028300521912402
-0.005550658874856488,-0.0136361986075504
-0.005550318874856487,-0.01409698841610522
-0.005549978874856487,-0.009159954752930631
-0.005549638874856488,-0.01054232417862203
-0.005549298874856487,-0.01231965629736632
-0.005548958874856487,-0.0113322495647314
-0.005548618874856488,-0.01159555802676786
-0.005548278874856487,-0.0135703714920429
-0.005547938874856487,-0.01445903755141432
-0.005547598874856488,-0.01436029687815065
-0.005547258874856487,-0.01222091562409803
-0.005546918874856487,-0.00869916494436683
-0.005546578874856488,-0.01297792745245925
-0.005546238874856487,-0.01301084101021543
-0.005545898874856487,-0.01389950706958685
-0.005545558874856488,-0.01287918677919558
-0.005545218874856487,-0.01373493928081239
-0.005544878874856487,-0.01281335966368647
-0.005544538874856487,-0.01310958168347748
-0.005544198874856487,-0.01399824774285196
-0.005543858874856487,-0.01478817312895989
-0.005543518874856487,-0.01505148159099635
-0.005543178874856487,-0.01485400024447039
-0.005542838874856487,-0.01561101207282382
-0.005542498874856487,-0.01508439514875091
-0.005542158874856488,-0.01959355256111703
-0.005541818874856487,-0.01547935784180559
-0.005541478874856487,-0.012253829181859
-0.005541138874856488,-0.01136516312248757
-0.005540798874856487,-0.0115626444690133
-0.005540458874856487,-0.01570975274608749
-0.005540118874856488,-0.01620345611240495
-0.005539778874856487,-0.01452486466692344
-0.005539438874856487,-0.01215508850859533
-0.005539098874856488,-0.01320832235673924
-0.005538758874856487,-0.01528187649527825
-0.005538418874856487,-0.01534770361078737
-0.005538078874856488,-0.01248422408614611
-0.005537738874856487,-0.01195760716206798
-0.005537398874856487,-0.01287918677919558
-0.005537058874856488,-0.01215508850859664
-0.005536718874856487,-0.01199052071982254
-0.005536378874856487,-0.01152973091125874
-0.005536038874856488,-0.01192469360431271
-0.005535698874856487,-0.01324123591449571
-0.005535358874856487,-0.01373493928081407
-0.005535018874856488,-0.01241839697063418
-0.005534678874856487,-0.0138665935118323
-0.005534338874856487,-0.01768456621136092
-0.005533998874856488,-0.01801370178890589
-0.005533658874856487,-0.01719086284504256
-0.005533318874856487,-0.01751999842258814
-0.005532978874856488,-0.01751999842258814
-0.005532638874856487,-0.01610471543914218
-0.005532298874856487,-0.01610471543914218
-0.005531958874856488,-0.01488691380222357
-0.005531618874856487,-0.01768456621136092
-0.005531278874856487,-0.01182595293104976
-0.005530938874856488,-0.008567510713348603
-0.005530598874856487,-0.006790178594602518
-0.005530258874856487,-0.007415536191939104
-0.005529918874856488,-0.01347163081877761
-0.005529578874856487,-0.01301084101021399
-0.005529238874856487,-0.01310958168347748
-0.005528898874856488,-0.01478817312895989
-0.005528558874856487,-0.01524896293752507
-0.005528218874856487,-0.01600597476587851
-0.005527878874856488,-0.01587432053486028
-0.005527538874856487,-0.01462360534018424
-0.005527198874856487,-0.01304375456796837
-0.005526858874856488,-0.01419572908937787
-0.005526518874856487,-0.01363619860754914
-0.005526178874856487,-0.0129450138947047
-0.005525838874856488,-0.01307666812572293
-0.005525498874856487,-0.01268170543266992
-0.005525158874856487,-0.01360328504979584
-0.005524818874856488,-0.01445903755141432
-0.005524478874856487,-0.01373493928081335
-0.005524138874856487,-0.01333997658775938
-0.005523798874856488,-0.01735543063381535
-0.005523458874856487,-0.02212789650824008
-0.005523118874856487,-0.02979675546503794
-0.005522778874856487,-0.04483825135887053
-0.005522438874856487,-0.06524465716674312
-0.005522098874856487,-0.09118054067728695
-0.005521758874856487,-0.1210660511184248
-0.005521418874856487,-0.1541441766618118
-0.005521078874856487,-0.1855107972018476
-0.005520738874856487,-0.2091427316696196
-0.005520398874856488,-0.2335316779657021
-0.005520058874856487,-0.249988456843025
-0.005519718874856487,-0.2678934322615041
-0.005519378874856488,-0.279873967284141
-0.005519038874856487,-0.2793144368023354
-0.005518698874856487,-0.2782941165119441
-0.005518358874856488,-0.2753977234295483
-0.005518018874856487,-0.2686833576476134
-0.005517678874856487,-0.261211980037329
-0.005517338874856488,-0.2546950956019385
-0.005516998874856487,-0.2452818180841233
-0.005516658874856487,-0.2375142184540479
-0.005516318874856488,-0.2306681984411124
-0.005515978874856487,-0.223460129292852
-0.005515638874856487,-0.2152646534119672
-0.005515298874856488,-0.2087148554188223
-0.005514958874856487,-0.202132143867899
-0.005514618874856487,-0.194397457795578
-0.005514278874856488,-0.188966720766086
-0.005513938874856487,-0.1824169227729192
-0.005513598874856487,-0.1756038163177259
-0.005513258874856488,-0.1700414250572159
-0.005512918874856487,-0.1647423422587221
-0.005512578874856487,-0.1584229391698471
-0.005512238874856488,-0.1524326716585177
-0.005511898874856487,-0.1481539091504253
-0.005511558874856487,-0.1421965551968505
-0.005511218874856488,-0.1397280383652587
-0.005510878874856487,-0.1395963841342404
-0.005510538874856487,-0.1299527117121552
-0.005510198874856488,-0.12550938141529
-0.005509858874856487,-0.1211318782339339
-0.005509518874856487,-0.1156024005311683
-0.005509178874856488,-0.1157340547621865
-0.005508838874856487,-0.1127389210065096
-0.005508498874856487,-0.1059916416668376
-0.005508158874856488,-0.1023053231983272
-0.005507818874856487,-0.100034287713256
-0.005507478874856487,-0.0962821421292433
-0.005507138874856488,-0.09341866260459683
-0.005506798874856487,-0.09154258981258293
-0.005506458874856487,-0.08927155432752262
-0.005506118874856488,-0.08759296288204022
-0.005505778874856487,-0.08917281365425167
-0.005505438874856487,-0.085157359608203
-0.005505098874856488,-0.08199765806376552
-0.005504758874856487,-0.07929874632788619
-0.005504418874856487,-0.07620487189896347
-0.005504078874856488,-0.0717944551598528
-0.005503738874856487,-0.07060956708068269
-0.005503398874856487,-0.06728529774747849
-0.005503058874856488,-0.06471804024262304
-0.005502718874856487,-0.06155833869817082
-0.005502378874856487,-0.0534616034905645
-0.005502038874856487,-0.05635799657296552
-0.005501698874856487,-0.05714792195907304
-0.005501358874856487,-0.05612760166868362
-0.005501018874856487,-0.05329703570179171
-0.005500678874856487,-0.05507436782054253
-0.005500338874856487,-0.05767453888314781
-0.005499998874856487,-0.04941323588675398
-0.005499658874856488,-0.04687889193965768
-0.005499318874856487,-0.04566109030273446
-0.005498978874856487,-0.04441037510806129
-0.005498638874856488,-0.0467472377086306
-0.005498298874856487,-0.04727385463270776
-0.005497958874856487,-0.04312674635563356
-0.005497618874856488,-0.04329131414440605
-0.005497278874856487,-0.04352170904868825
-0.005496938874856487,-0.04230390741176963
-0.005496598874856488,-0.03934168721386488
-0.005496258874856487,-0.03881507028978658
-0.005495918874856487,-0.03897963807855937
-0.005495578874856488,-0.0385846753855054
-0.005495238874856487,-0.03697191105553139
-0.005494898874856487,-0.03598450432289467
-0.005494558874856488,-0.03433882643516981
-0.005494218874856487,-0.03552371451433087
-0.005493878874856487,-0.03598450432289467
-0.005493538874856488,-0.0308499893131931
-0.005493198874856487,-0.02966510123401971
-0.005492858874856487,-0.02963218767626515
-0.005492518874856488,-0.02996132325381012
-0.005492178874856487,-0.02871060805913755
-0.005491838874856487,-0.02917139786770135
-0.005491498874856488,-0.02933596565647384
-0.005491158874856487,-0.03308811124049365
-0.005490818874856487,-0.03410843153088492
-0.005490478874856488,-0.03121203844848389
-0.005490138874856487,-0.03249566720091162
-0.005489798874856487,-0.03249566720091162
-0.005489458874856488,-0.02581421497673653
-0.005489118874856487,-0.02324695747188107
-0.005488778874856487,-0.02021891015846182
-0.005488438874856488,-0.02242411852801714
-0.005488098874856487,-0.02301656256759582
-0.005487758874856487,-0.02117340333334397
-0.005487418874856488,-0.01840866448196118
-0.005487078874856487,-0.01906693563705531
-0.005486738874856487,-0.02071261352478018
-0.005486398874856488,-0.02150253891088955
-0.005486058874856487,-0.02123923044885452
-0.005485718874856487,-0.02202915583496246
-0.005485378874856488,-0.02304947612535373
-0.005485038874856487,-0.02301656256759989
-0.005484698874856487,-0.02341152526065386
-0.005484358874856488,-0.0245305862243088
-0.005484018874856487,-0.02061387285151758
-0.005483678874856487,-0.02120631689109853
-0.005483338874856488,-0.02334569814514474
-0.005482998874856487,-0.02272034054780672
-0.005482658874856487,-0.02193041516169879
-0.005482318874856488,-0.02255577275903537
-0.005481978874856487,-0.02364192016493486
-0.005481638874856487,-0.0231482167986174
-0.005481298874856488,-0.02229246429699892
-0.005480958874856487,-0.02225955073924322
-0.005480618874856487,-0.02163419314190777
-0.005480278874856487,-0.02209498295047157
-0.005479938874856487,-0.0206138728515201
-0.005479598874856487,-0.02258868631678993
-0.005479258874856487,-0.02354317949167209
-0.005478918874856488,-0.01758582553810809
-0.005478578874856487,-0.01617054255465129
-0.005478238874856487,-0.01515022226426002
-0.005477898874856488,-0.01985686102315313
-0.005477558874856487,-0.02018599660070726
-0.005477218874856487,-0.01840866448196118
-0.005476878874856488,-0.01821118313543419
-0.005476538874856487,-0.01807952890441561
-0.005476198874856487,-0.01778330688462459
-0.005475858874856488,-0.01807952890441507
-0.005475518874856487,-0.01715794928728801
-0.005475178874856487,-0.01712503572953345
-0.005474838874856488,-0.01814535601992286
-0.005474498874856487,-0.01676298659423332
-0.005474158874856487,-0.01607180188138762
-0.005473818874856488,-0.01745417130707651
-0.005473478874856487,-0.01673007303647877
-0.005473138874856487,-0.01676298659423332
-0.005472798874856488,-0.01659841880546083
-0.005472458874856487,-0.01771747976911548
-0.005472118874856487,-0.01682881370974244
-0.005471778874856488,-0.01705920861402392
-0.005471438874856487,-0.01669715947872421
-0.005471098874856487,-0.01439321043590521
-0.005470758874856488,-0.01478817312895918
-0.005470418874856487,-0.01531479005303281
-0.005470078874856487,-0.01310958168347748
-0.005469738874856488,-0.0140969884161142
-0.005469398874856487,-0.01531479005303281
-0.005469058874856487,-0.01821118313543383
-0.005468718874856488,-0.0111018546604495
-0.005468378874856487,-0.01129933600697684
-0.005468038874856487,-0.009554917445985316
-0.005467698874856488,-0.0101802750433219
-0.005467358874856487,-0.01544644428405104
-0.005467018874856487,-0.01373493928081407
-0.005466678874856488,-0.01222091562410444
-0.005466338874856487,-0.01274753254817939
-0.005465998874856487,-0.0138665935118323
-0.005465658874856488,-0.01324123591449571
-0.005465318874856487,-0.0148210866867132
-0.005464978874856487,-0.01412990197386875
-0.005464638874856488,-0.01330706303000483
-0.005464298874856487,-0.01574266630384385
-0.005463958874856487,-0.01673007303647877
-0.005463618874856488,-0.01732251707606079
-0.005463278874856487,-0.01745417130708124
-0.005462938874856487,-0.01867197294399764
-0.005462598874856488,-0.01761873909585181
-0.005462258874856487,-0.01732251707606031
-0.005461918874856487,-0.01705920861402434
-0.005461578874856488,-0.01465651889794167
-0.005461238874856487,-0.01715794928728723
-0.005460898874856487,-0.01673007303647877
-0.005460558874856488,-0.01584140697710572
-0.005460218874856487,-0.01554518495731573
-0.005459878874856487,-0.01610471543914218
-0.005459538874856487,-0.01534770361078737
-0.005459198874856487,-0.01521604937977782
-0.005458858874856487,-0.01998851525417992
-0.005458518874856487,-0.02002142881193448
-0.005458178874856487,-0.0129450138946959
-0.005457838874856487,-0.008106720904784802
-0.005457498874856487,-0.01103602754494038
-0.005457158874856488,-0.0144261239936536
-0.005456818874856487,-0.01903402207929776
-0.005456478874856487,-0.01577557986159661
-0.005456138874856488,-0.01505148159099767
-0.005455798874856487,-0.01745417130707902
-0.005455458874856487,-0.01617054255465129
-0.005455118874856488,-0.01301084101021956
-0.005454778874856487,-0.01380076639632318
-0.005454438874856487,-0.01297792745245925
-0.005454098874856488,-0.01172721225778836
-0.005453758874856487,-0.01238548341287723
-0.005453418874856487,-0.01482108668671445
-0.005453078874856488,-0.01452486466692398
-0.005452738874856487,-0.01468943245569622
-0.005452398874856487,-0.01745417130707902
-0.005452058874856488,-0.01659841880546209
-0.005451718874856487,-0.01755291198034269
-0.005451378874856487,-0.01778330688462459
-0.005451038874856488,-0.01857323227073253
-0.005450698874856487,-0.01804661534666105
-0.005450358874856487,-0.01574266630384205
-0.005450018874856488,-0.01485400024447063
-0.005449678874856487,-0.01478817312895989
-0.005449338874856487,-0.0152489629375237
-0.005448998874856488,-0.01511730870650571
-0.005448658874856487,-0.012253829181859
-0.005448318874856487,-0.01715794928728801
-0.005447978874856488,-0.0129450138947047
-0.005447638874856487,-0.009785312350267215
-0.005447298874856487,-0.009818225908021772
-0.005446958874856488,-0.0104106699476038
-0.005446618874856487,-0.01528187649527825
-0.005446278874856487,-0.01636802390117864
-0.005445938874856488,-0.0136361986075504
-0.005445598874856487,-0.01176012581554417
-0.005445258874856487,-0.01370202572305951
-0.005444918874856488,-0.01488691380222357
-0.005444578874856487,-0.01287918677919379
-0.005444238874856487,-0.01189178004655887
-0.005443898874856488,-0.01310958168347748
-0.005443558874856487,-0.01245131052838832
-0.005443218874856487,-0.01353745793428673
-0.005442878874856488,-0.01357037149204128
-0.005442538874856487,-0.01274753254817717
-0.005442198874856487,-0.01264879187491368
-0.005441858874856488,-0.01584140697710572
-0.005441518874856487,-0.01475525957120414
-0.005441178874856487,-0.0140969884161142
-0.005440838874856488,-0.01577557986159661
-0.005440498874856487,-0.01515022226425883
-0.005440158874856487,-0.01449195110916888
-0.005439818874856488,-0.01488691380222357
-0.005439478874856487,-0.01442612399365923
-0.005439138874856487,-0.01412990197386875
-0.005438798874856487,-0.01488691380222357
-0.005438458874856487,-0.01406407485836072
-0.005438118874856487,-0.01465651889794167
-0.005437778874856487,-0.01751999842258814
-0.005437438874856487,-0.01027901571658473
-0.005437098874856487,-0.009818225908021772
-0.005436758874856487,-0.01383367995407774
-0.005436418874856488,-0.01271461899042483
-0.005436078874856487,-0.01083854619841304
-0.005435738874856487,-0.01330706303000483
-0.005435398874856488,-0.0147881731289572
-0.005435058874856487,-0.01284627322144103
-0.005434718874856487,-0.01462360534018711
-0.005434378874856488,-0.01745417130707387
-0.005434038874856487,-0.01613762899689674
-0.005433698874856487,-0.01521604937976914
-0.005433358874856488,-0.0168946408252485
-0.005433018874856487,-0.01765165265360636
-0.005432678874856487,-0.01643385101668775
-0.005432338874856488,-0.01653259168995124
-0.005431998874856487,-0.01705920861402434
-0.005431658874856487,-0.01709212217177889
-0.005431318874856488,-0.0181453560199228
-0.005430978874856487,-0.01830992380869751
-0.005430638874856487,-0.01715794928728801
-0.005430298874856488,-0.01877071361725837
-0.005429958874856487,-0.02054804573600739
-0.005429618874856487,-0.01946189833010701
-0.005429278874856488,-0.01998851525417896
-0.005428938874856487,-0.01962646611887979
-0.005428598874856487,-0.01791496111564282
-0.005428258874856488,-0.01788204755788832
-0.005427918874856487,-0.01748708486483358
-0.005427578874856487,-0.01775039332687003
-0.005427238874856488,-0.0134058037032685
-0.005426898874856487,-0.0134058037032685
-0.005426558874856487,-0.0129450138947047
-0.005426218874856488,-0.01083854619841304
-0.005425878874856487,-0.01676298659423332
-0.005425538874856487,-0.01745417130707902
-0.005425198874856488,-0.0159401476503694
-0.005424858874856487,-0.01643385101668775
-0.005424518874856487,-0.01663133236321509
-0.005424178874856488,-0.01498565447548724
-0.005423838874856487,-0.01472234601344923
-0.005423498874856487,-0.0138665935118323
-0.005423158874856488,-0.01261587831715913
-0.005422818874856487,-0.01324123591449505
-0.005422478874856487,-0.01287918677919558
-0.005422138874856488,-0.01176012581554064
-0.005421798874856487,-0.01396533418509651
-0.005421458874856487,-0.01426155620488698
-0.005421118874856488,-0.01350454437653217
-0.005420778874856487,-0.01452486466692523
-0.005420438874856487,-0.01551227139956015
-0.005420098874856488,-0.01436029687815065
-0.005419758874856487,-0.01505148159099983
-0.005419418874856487,-0.01696046794076066
-0.005419078874856488,-0.01603888832363307
-0.005418738874856487,-0.01610471543914182
-0.005418398874856487,-0.01590723409261484
-0.005418058874856488,-0.01406407485835964
-0.005417718874856487,-0.01248422408614341
-0.005417378874856487,-0.0138665935118323
-0.005417038874856487,-0.01617054255465129
-0.005416698874856487,-0.00876499205988265
-0.005416358874856487,-0.01245131052838634
-0.005416018874856487,-0.009522003888230759
-0.005415678874856487,-0.01284627322145037
