Analysis/files/cmb03_wrd01/d2s05_ch10.csv

#Digilent WaveForms Oscilloscope Acquisition
#Device Name: ADP3450
#Serial Number: SN:210018B9D9B0
#Date Time: 2024-08-13 12:39:45.419.875.710
#Sample rate: 2.94118e+06Hz
#Samples: 32768
#Trigger: Source: Channel 3 Type: Edge Condition: Rising Level: 60 mV Hyst.: Auto HoldOff: 0 s
#Channel 3: Range: 200 mV/div Offset: 0 V Attenuation: 1 X Coupling: DC Bandwidth: 0 Hz Sample Mode: Average

Time (s),Channel 3 (V)
-0.005570499317585302,0.01434032548382314
-0.005570159317585302,0.01447197971484
-0.005569819317585302,0.01371496788648656
-0.005569479317585302,0.00802092239494818
-0.005569139317585302,0.01292504250038258
-0.005568799317585302,0.01588726269828733
-0.005568459317585302,0.0150644237544234
-0.005568119317585302,0.01394536279076409
-0.005567779317585302,0.01154267307468579
-0.005567439317585302,0.009962822302467049
-0.005567099317585302,0.01055526634205171
-0.005566759317585302,0.01200346288324959
-0.005566419317585302,0.008646279992284765
-0.005566079317585302,0.009502032493904029
-0.005565739317585302,0.009929908744712493
-0.005565399317585302,0.008284230856984636
-0.005565059317585302,0.005157442870302011
-0.005564719317585302,0.005322010659074497
-0.005564379317585302,0.008152576625966409
-0.005564039317585302,0.00640815806498033
-0.005563699317585302,0.009403291820639578
-0.005563359317585302,0.01019321720674895
-0.005563019317585302,0.01114771038162937
-0.005562679317585302,0.01157558663244035
-0.005562339317585302,0.01035778499552173
-0.005561999317585302,0.007922181721688938
-0.005561659317585302,0.007724700375157166
-0.005561319317585302,0.008152576625966409
-0.005560979317585302,0.007198083451085989
-0.005560639317585302,0.008284230856984636
-0.005560299317585302,0.008284230856984636
-0.005559959317585302,0.009337464705128549
-0.005559619317585302,0.008942502012075779
-0.005559279317585302,0.00802092239494818
-0.005558939317585302,0.003413024309318566
-0.005558599317585302,0.007329737682102481
-0.005558259317585302,0.009864081629203377
-0.005557919317585302,0.007165169893334604
-0.005557579317585302,0.004795393735001583
-0.005557239317585302,0.0003849769958909309
-0.005556899317585302,0.0007141125734359033
-0.005556559317585302,0.0006482854579273878
-0.005556219317585302,0.0001216685338544741
-0.005555879317585302,-0.000997392429798432
-0.005555539317585302,-0.0006024297367457822
-0.005555199317585302,0.001174902382000301
-0.005554859317585302,0.001339470170772788
-0.005554519317585302,0.0008457668044547304
-0.005554179317585302,0.004532085272965126
-0.005553839317585302,0.005815714025392853
-0.005553499317585302,0.002853493827482714
-0.005553159317585302,0.003544678540328413
-0.005552819317585302,0.00426877681092867
-0.005552479317585302,0.002853493827482714
-0.005552139317585302,-4.289925491831147e-05
-0.005551799317585302,0.0001216685338544741
-0.005551459317585302,-0.001721490700401802
-0.005551119317585302,-0.002313934739982752
-0.005550779317585302,-0.001721490700400724
-0.005550439317585302,-0.003169687241600518
-0.005550099317585302,-0.002774724548546551
-0.005549759317585302,-0.001589836469382495
-0.005549419317585302,-0.0003062077169561453
-0.005549079317585302,-0.001063219545309582
-0.005548739317585302,-0.00369630416567415
-0.005548399317585302,0.001471124401796464
-0.005548059317585302,0.004301690368683227
-0.005547719317585302,0.006473985180483996
-0.005547379317585302,0.007230997008831685
-0.005547039317585302,0.003314283636046514
-0.005546699317585302,0.002754753154219042
-0.005546359317585302,0.005552405563355139
-0.005546019317585302,0.004861220850510698
-0.005545679317585302,0.003380110751555628
-0.005545339317585302,0.003709246329099403
-0.005544999317585302,0.002721839596464486
-0.005544659317585302,0.005190356428056269
-0.005544319317585302,0.00318262940502583
-0.005543979317585302,0.001833173537091444
-0.005543639317585302,0.0007470261311910591
-0.005543299317585302,0.0009445074777135523
-0.005542959317585302,-0.001721490700400724
-0.005542619317585302,-0.002972205895073894
-0.005542279317585302,-0.001556922911630513
-0.005541939317585302,-0.0005695161789912252
-0.005541599317585302,-0.0005036890634821109
-0.005541259317585302,-0.0003062077169551275
-0.005540919317585302,-0.0004378619479729968
-0.005540579317585302,-0.001129046660818696
-0.005540239317585302,0.0004178905536426742
-0.005539899317585302,0.0004508041114000451
-0.005539559317585302,-7.581281267286857e-05
-0.005539219317585302,0.001043248150980038
-0.005538879317585302,0.002359790461164357
-0.005538539317585302,-0.002149366951209966
-0.005538199317585302,-0.001359441565102033
-0.005537859317585302,0.004005468348892213
-0.005537519317585302,0.0030180616162555
-0.005537179317585302,0.003939641233381422
-0.005536839317585302,0.002030654883618786
-0.005536499317585302,-0.002544329644264652
-0.005536159317585302,0.001174902381993536
-0.005535819317585302,0.003281370078291956
-0.005535479317585302,0.0007470261311910591
-0.005535139317585302,0.004992875081521203
-0.005534799317585302,0.00482830729275614
-0.005534459317585302,0.003544678540328413
-0.005534119317585302,0.002458531134430004
-0.005533779317585302,0.002425617576673472
-0.005533439317585302,0.0003520634381363738
-0.005533099317585302,-0.00165566358489161
-0.005532759317585302,-0.001622750027137053
-0.005532419317585302,-0.00244558897100098
-0.005532079317585302,0.001207815939754859
-0.005531739317585302,0.002228136230146129
-0.005531399317585302,-0.002215194066719081
-0.005531059317585302,-0.002313934739982752
-0.005530719317585302,-0.001227787334082367
-0.005530379317585302,-0.001556922911627938
-0.005530039317585302,-0.001491095796118824
-0.005529699317585302,-0.0009973924297983722
-0.005529359317585302,0.0001545820916090312
-0.005529019317585302,-0.001260700891836924
-0.005528679317585302,0.00025332276487384
-0.005528339317585302,0.0008786803622092876
-0.005527999317585302,-0.003498822819146808
-0.005527659317585302,-0.0007340839677569462
-0.005527319317585302,0.003149715847273728
-0.005526979317585302,0.003478851424819299
-0.005526639317585302,0.002359790461161843
-0.005526299317585302,0.0009774210354729588
-0.005525959317585302,-0.0004378619479729968
-0.005525619317585302,0.002853493827485707
-0.005525279317585302,0.004499171715210569
-0.005524939317585302,0.001833173537091444
-0.005524599317585302,0.001964827768111169
-0.005524259317585302,0.0027876667119736
-0.005523919317585302,0.000714112573436502
-0.005523579317585302,-0.004486229551790107
-0.005523239317585302,-0.008106720904784802
-0.005522899317585302,-0.01821118313543383
-0.005522559317585302,-0.03578702297640667
-0.005522219317585302,-0.05741123042111135
-0.005521879317585302,-0.08657264259164896
-0.005521539317585302,-0.1176101275542526
-0.005521199317585302,-0.14854887184348
-0.005520859317585302,-0.1786976907466543
-0.005520519317585302,-0.2070691775310309
-0.005520179317585302,-0.2276072375699262
-0.005519839317585302,-0.2421221165396858
-0.005519499317585302,-0.2514037398264541
-0.005519159317585302,-0.256604081951691
-0.005518819317585302,-0.2556825023345634
-0.005518479317585302,-0.2523582330013592
-0.005518139317585302,-0.2463350519322692
-0.005517799317585302,-0.2442944113514866
-0.005517459317585302,-0.2348482202759459
-0.005517119317585302,-0.2238550919859066
-0.005516779317585302,-0.2150671720654399
-0.005516439317585302,-0.2068716961845701
-0.005516099317585302,-0.203020809927272
-0.005515759317585302,-0.1960431356833059
-0.005515419317585302,-0.1861361547992022
-0.005515079317585302,-0.1805408499809095
-0.005514739317585302,-0.1735960892946979
-0.005514399317585302,-0.1695477216908948
-0.005514059317585302,-0.1632941457175216
-0.005513719317585302,-0.1564152121468191
-0.005513379317585302,-0.1500628955002012
-0.005513039317585302,-0.1453891702990425
-0.005512699317585302,-0.1400571739428043
-0.005512359317585302,-0.1334744623918928
-0.005512019317585302,-0.1305122421939827
-0.005511679317585302,-0.1249827644912171
-0.005511339317585302,-0.1209673104451611
-0.005510999317585302,-0.116886029283596
-0.005510659317585302,-0.1132326243728402
-0.005510319317585302,-0.1092829974422934
-0.005509979317585302,-0.107077789072738
-0.005509639317585302,-0.1036876926240186
-0.005509299317585302,-0.09782907934370746
-0.005508959317585302,-0.09529473539660251
-0.005508619317585302,-0.0930566134692967
-0.005508279317585302,-0.08874493740344971
-0.005507939317585302,-0.08436743422208924
-0.005507599317585302,-0.08196474450601096
-0.005507259317585302,-0.08153686825520171
-0.005506919317585302,-0.07123492467801744
-0.005506579317585302,-0.06689033505442379
-0.005506239317585302,-0.06244700475755859
-0.005505899317585302,-0.06343441149019734
-0.005505559317585302,-0.06455347245385024
-0.005505219317585302,-0.05882651340455731
-0.005504879317585302,-0.05757579820988593
-0.005504539317585302,-0.05856320494252085
-0.005504199317585302,-0.05533767628257425
-0.005503859317585302,-0.05537058984031899
-0.005503519317585302,-0.04997276636858144
-0.005503179317585302,-0.0472409410749532
-0.005502839317585302,-0.0504993832926495
-0.005502499317585302,-0.04783338511453523
-0.005502159317585302,-0.04513447337866155
-0.005501819317585302,-0.04302800568236929
-0.005501479317585302,-0.04269887010482432
-0.005501139317585302,-0.04161272269892394
-0.005500799317585302,-0.037235219517557
-0.005500459317585302,-0.03127786556399301
-0.005500119317585302,-0.03321976547151188
-0.005499779317585302,-0.03657694836247059
-0.005499439317585302,-0.03285771633621175
-0.005499099317585302,-0.03180448248806592
-0.005498759317585302,-0.03052085373564053
-0.005498419317585302,-0.03094872998644744
-0.005498079317585302,-0.02976384190728338
-0.005497739317585302,-0.02798650978854053
-0.005497399317585302,-0.02581421497673653
-0.005497059317585302,-0.02413562353125412
-0.005496719317585302,-0.02351026593391867
-0.005496379317585302,-0.02229246429699892
-0.005496039317585302,-0.0222266371814898
-0.005495699317585302,-0.02074552708253743
-0.005495359317585302,-0.02074552708253473
-0.005495019317585302,-0.02104174910232575
-0.005494679317585302,-0.02015308304295432
-0.005494339317585302,-0.01811244246217016
-0.005493999317585302,-0.01850740515522485
-0.005493659317585302,-0.01834283736645236
-0.005493319317585302,-0.01877071361726131
-0.005492979317585302,-0.01844157803971573
-0.005492639317585302,-0.01923150342582367
-0.005492299317585302,-0.01801370178890649
-0.005491959317585302,-0.01748708486483358
-0.005491619317585302,-0.02015308304294785
-0.005491279317585302,-0.01873780005950675
-0.005490939317585302,-0.01113476821820406
-0.005490599317585302,-0.0104106699476038
-0.005490259317585302,-0.007481363307448217
-0.005489919317585302,-0.007777585327239231
-0.005489579317585302,-0.01212217495084077
-0.005489239317585302,-0.01070689196739481
-0.005488899317585302,-0.007481363307448217
-0.005488559317585302,-0.009489090330476201
-0.005488219317585302,-0.008962473406399158
-0.005487879317585302,-0.006691437921338847
-0.005487539317585302,-0.008666251386612273
-0.005487199317585302,-0.008995386964159042
-0.005486859317585302,-0.009653658119248986
-0.005486519317585302,-0.01083854619841304
-0.005486179317585302,-0.01301084101020603
-0.005485839317585302,-0.008732078502121389
-0.005485499317585302,-0.00939034965721253
-0.005485159317585302,-0.01205634783532537
-0.005484819317585302,-0.00860042427110316
-0.005484479317585302,-0.006691437921338847
-0.005484139317585302,-0.006362302343788786
-0.005483799317585302,-0.003893785512201493
-0.005483459317585302,-0.003498822819146808
-0.005483119317585302,-0.00419000753199155
-0.005482779317585302,-0.003663390607919593
-0.005482439317585302,-0.004288748205256179
-0.005482099317585302,-0.005506549842174552
-0.005481759317585302,-0.005374895611156563
-0.005481419317585302,-0.00665852436358429
-0.005481079317585302,-0.01008153437005679
-0.005480739317585302,-0.009291608983948858
-0.005480399317585302,-0.003762131281183265
-0.005480059317585302,-0.004914105802591806
-0.005479719317585302,-0.00438748887851985
-0.005479379317585302,-0.006856005710111633
-0.005479039317585302,-0.0108056326406513
-0.005478699317585302,-0.007876326000502903
-0.005478359317585302,-0.004091266858728836
-0.005478019317585302,-0.004749538013818781
-0.005477679317585302,-0.006362302343793276
-0.005477339317585302,-0.005243241380138334
-0.005476999317585302,-0.004354575320766909
-0.005476659317585302,-0.004716624456065421
-0.005476319317585302,-0.003729217723428708
-0.005475979317585302,-0.005144500706872088
-0.005475639317585302,-0.005341982053402005
-0.005475299317585302,-0.003860871954446936
-0.005474959317585302,-0.003136773683847997
-0.005474619317585302,-0.003597563492410479
-0.005474279317585302,-0.003432995703637694
-0.005473939317585302,-0.001556922911631351
-0.005473599317585302,-0.002083539835700852
-0.005473259317585302,-0.0006353432945003394
-0.005472919317585302,-0.001491095796117268
-0.005472579317585302,-0.003070946568337565
-0.005472239317585302,-0.002050626277946295
-0.005471899317585302,-0.0008657381987843946
-0.005471559317585302,-0.001260700891836924
-0.005471219317585302,-0.002116453393455409
-0.005470879317585302,-0.002248107624473398
-0.005470539317585302,-0.006362302343793276
-0.005470199317585302,0.0009774210354729588
-0.005469859317585302,0.00130655661301853
-0.005469519317585302,0.001207815939754859
-0.005469179317585302,0.0009774210354729588
-0.005468839317585302,-0.0003062077169547683
-0.005468499317585302,0.0005824583424182735
-0.005468159317585302,0.001833173537091444
-0.005467819317585302,0.002491444692182586
-0.005467479317585302,0.002129395556882458
-0.005467139317585302,0.001931914210355115
-0.005466799317585302,0.001405297286282201
-0.005466459317585302,2.292786059092249e-05
-0.005466119317585302,8.875497609991696e-05
-0.005465779317585302,0.001602778632809544
-0.005465439317585302,0.0002204092071150921
-0.005465099317585302,-0.001458182238364267
-0.005464759317585302,-0.001260700891836924
-0.005464419317585302,-0.001491095796120261
-0.005464079317585302,-0.002281021182228195
-0.005463739317585302,-0.003531736376901365
-0.005463399317585302,-0.003400082145883376
-0.005463059317585302,-0.003531736376901365
-0.005462719317585302,-0.00244558897100098
-0.005462379317585302,-0.002445588971000322
-0.005462039317585302,-0.002083539835700852
-0.005461699317585302,-0.001063219545309582
-0.005461359317585302,0.001010334593226378
-0.005461019317585302,0.0003849769958909309
-0.005460679317585302,-0.0008657381987822392
-0.005460339317585302,-0.00366339060791636
-0.005459999317585302,-0.00188605848917351
-0.005459659317585302,0.005387837774583611
-0.005459319317585302,0.001405297286276993
-0.005458979317585302,-0.001458182238364267
-0.005458639317585302,0.0003520634381363738
-0.005458299317585302,0.001997741325861655
-0.005457959317585302,0.0005824583424182735
-0.005457619317585302,-0.002313934739982752
-0.005457279317585302,-0.001129046660820851
-0.005456939317585302,-0.001227787334082367
-0.005456599317585302,-0.002577243202019209
-0.005456259317585302,-0.003169687241600159
-0.005455919317585302,-0.002478502528755537
-0.005455579317585302,-0.00313677368384668
-0.005455239317585302,-0.002248107624475254
-0.005454899317585302,-0.0005695161789912252
-0.005454559317585302,-0.004288748205256179
-0.005454219317585302,0.002326876903397767
-0.005453879317585302,0.002623098923200814
-0.005453539317585302,0.003972554791137656
-0.005453199317585302,0.002787666711975755
-0.005452859317585302,-0.0006682568522548965
-0.005452519317585302,-0.001161960218573253
-0.005452179317585302,0.0005495447846606033
-0.005451839317585302,-0.001129046660818696
-0.005451499317585302,-0.002412675413246423
-0.005451159317585302,-0.002643070317527904
-0.005450819317585302,-0.001227787334082367
-0.005450479317585302,-0.002708897433037437
-0.005450139317585302,-0.002807638106300929
-0.005449799317585302,-0.001984799162437181
-0.005449459317585302,-0.00336716858812858
-0.005449119317585302,-0.004420402436272491
-0.005448779317585302,-0.005144500706874663
-0.005448439317585302,-0.00438748887851985
-0.005448099317585302,-0.006493956574811504
-0.005447759317585302,-0.005671117630947577
-0.005447419317585302,-0.003005119452828451
-0.005447079317585302,-0.004716624456065421
-0.005446739317585302,-0.002478502528755537
-0.005446399317585302,-0.001458182238364267
-0.005446059317585302,-0.001622750027137053
-0.005445719317585302,-0.001886058489172432
-0.005445379317585302,-0.001293614449591481
-0.005445039317585302,0.0003520634381363738
-0.005444699317585302,0.0002862363226257628
-0.005444359317585302,-0.0005366026212366681
-0.005444019317585302,-0.002313934739982752
-0.005443679317585302,0.004367517484195753
-0.005443339317585302,0.006243590276202096
-0.005442999317585302,0.005322010659074497
-0.005442659317585302,0.002162309114633781
-0.005442319317585302,0.0003849769958909309
-0.005441979317585302,0.002952234500746385
-0.005441639317585302,0.002985148058499745
-0.005441299317585302,0.0023268769034098
-0.005440959317585302,0.0007470261311910591
-0.005440619317585302,-0.000306207716955367
-0.005440279317585302,-0.0006353432945003394
-0.005439939317585302,-0.002741810990791994
-0.005439599317585302,0.002721839596452751
-0.005439259317585302,-0.003729217723428708
-0.005438919317585302,-0.004914105802592763
-0.005438579317585302,-0.005868598977472285
-0.005438239317585302,-0.004420402436274407
-0.005437899317585302,-0.00188605848917351
-0.005437559317585302,-0.0005366026212338542
-0.005437219317585302,0.001010334593227516
-0.005436879317585302,0.003347197193801071
-0.005436539317585302,0.003248456520537579
-0.005436199317585302,0.003182629405028285
-0.005435859317585302,0.003873814117873984
-0.005435519317585302,0.002162309114640128
-0.005435179317585302,0.0009445074777184018
-0.005434839317585302,0.001602778632809544
-0.005434499317585302,0.0007799396889471129
-0.005434159317585302,-0.00336716858812858
-0.005433819317585302,-0.004124180416483393
-0.005433479317585302,0.002458531134416055
-0.005433139317585302,0.0007470261311910591
-0.005432799317585302,0.002359790461164357
-0.005432459317585302,-0.0005695161789858972
-0.005432119317585302,-0.003795044838937822
-0.005431779317585302,-0.00119487377632781
-0.005431439317585302,0.0007470261311875268
-0.005431099317585302,-0.0008657381987822392
-0.005430759317585302,0.0003191498803818167
-0.005430419317585302,0.001931914210352181
-0.005430079317585302,0.0003849769958909309
-0.005429739317585302,-0.0003062077169547683
-0.005429399317585302,0.0001216685338536958
-0.005429059317585302,-0.002840551664055666
-0.005428719317585302,-0.00188605848917351
-0.005428379317585302,-0.00247850252875446
-0.005428039317585302,-0.002544329644264652
-0.005427699317585302,-0.002774724548546551
-0.005427359317585302,-0.000832824641027682
-0.005427019317585302,0.0008786803622092876
-0.005426679317585302,-0.0009315653142913533
-0.005426339317585302,0.0006153719001728307
-0.005425999317585302,0.0008786803622092876
-0.005425659317585302,0.001899000652600558
-0.005425319317585302,0.001602778632809544
-0.005424979317585302,0.002524358249937143
-0.005424639317585302,0.001701519306073215
-0.005424299317585302,0.002886407385237271
-0.005423959317585302,0.003050975174000417
-0.005423619317585302,-0.002248107624473638
-0.005423279317585302,-0.003465909261392251
-0.005422939317585302,0.002590185365444221
-0.005422599317585302,0.001471124401791315
-0.005422259317585302,0.00153695151730043
-0.005421919317585302,-0.001392355122860421
-0.005421579317585302,-0.004288748205256179
-0.005421239317585302,-0.001918972046928067
-0.005420899317585302,0.0005166312269053876
-0.005420559317585302,-0.001556922911627938
-0.005420219317585302,-0.001556922911627938
-0.005419879317585302,0.001602778632805413
-0.005419539317585302,-0.0006682568522548965
-0.005419199317585302,5.584141834535986e-05
-0.005418859317585302,0.000220409207116948
-0.005418519317585302,-0.0004378619479729968
-0.005418179317585302,-0.0008986517565367963
-0.005417839317585302,-0.0006353432945014769
-0.005417499317585302,-0.001260700891836924
-0.005417159317585302,-0.001754404258155281
