Analysis/files/cmb03_wrd01/d2s07_ch39.csv

#Digilent WaveForms Oscilloscope Acquisition
#Device Name: ADP3450
#Serial Number: SN:210018B9D9B0
#Date Time: 2024-08-13 16:40:57.359.714.120
#Sample rate: 2.94118e+06Hz
#Samples: 32768
#Trigger: Source: Channel 3 Type: Edge Condition: Rising Level: 60 mV Hyst.: Auto HoldOff: 0 s
#Channel 3: Range: 200 mV/div Offset: 0 V Attenuation: 1 X Coupling: DC Bandwidth: 0 Hz Sample Mode: Average

Time (s),Channel 3 (V)
-0.005570501392694064,0.002623098923200814
-0.005570161392694064,0.001997741325866444
-0.005569821392694064,0.003215542962782842
-0.005569481392694064,0.003544678540328413
-0.005569141392694064,0.002326876903407944
-0.005568801392694064,0.00130655661301853
-0.005568461392694064,0.004433344599701455
-0.005568121392694064,0.002985148058500164
-0.005567781392694064,0.0025572718076917
-0.005567441392694064,-0.002478502528755537
-0.005567101392694064,-9.985697154654208e-06
-0.005566761392694064,0.004992875081528926
-0.005566421392694064,0.004137122579910441
-0.005566081392694064,0.003840900560108232
-0.005565741392694064,-0.002313934739982752
-0.005565401392694064,-0.004486229551783521
-0.005565061392694064,-0.003465909261396741
-0.005564721392694064,-0.005934426092984033
-0.005564381392694064,-0.007316795518675433
-0.005564041392694064,-0.006888919267866668
-0.005563701392694064,-0.007152227729902647
-0.005563361392694064,-0.006263561670529605
-0.005563021392694064,-0.006033166766248124
-0.005562681392694064,-0.006691437921338847
-0.005562341392694064,-0.006164820997265934
-0.005562001392694064,-0.005704031188702972
-0.005561661392694064,-0.00767884465397556
-0.005561321392694064,-0.007810498884993789
-0.005560981392694064,-0.006658524363586386
-0.005560641392694064,-0.007020573498884419
-0.005560301392694064,-0.008238375135803031
-0.005559961392694064,-0.007382622634186103
-0.005559621392694064,-0.006790178594602518
-0.005559281392694064,-0.006131907439511376
-0.005558941392694064,-0.006000253208493387
-0.005558601392694064,-0.006757265036847961
-0.005558261392694064,-0.008633337828857716
-0.005557921392694064,-0.008040893789276766
-0.005557581392694064,-0.007547190422957332
-0.005557241392694064,-0.01212217495084077
-0.005556901392694064,-0.01590723409260796
-0.005556561392694064,-0.009357436099457973
-0.005556221392694064,-0.009686571677003543
-0.005555881392694064,-0.01064106485188396
-0.005555541392694064,-0.01324123591449571
-0.005555201392694064,-0.01768456621136092
-0.005554861392694064,-0.01531479005303712
-0.005554521392694064,-0.01222091562410444
-0.005554181392694064,-0.01399824774285052
-0.005553841392694064,-0.01314249524123204
-0.005553501392694064,-0.01136516312248596
-0.005553161392694064,-0.009752398792512659
-0.005552821392694064,-0.009916966581285444
-0.005552481392694064,-0.008962473406403288
-0.005552141392694064,-0.0104106699476038
-0.005551801392694064,-0.01123350889146773
-0.005551461392694064,-0.01087145975616975
-0.005551121392694064,-0.01205634783533165
-0.005550781392694064,-0.01251713764389546
-0.005550441392694064,-0.01123350889146803
-0.005550101392694064,-0.01139807668024051
-0.005549761392694064,-0.009916966581285444
-0.005549421392694064,-0.009423263214967026
-0.005549081392694064,-0.00939034965721253
-0.005548741392694064,-0.01011444792781279
-0.005548401392694064,-0.007975066673765617
-0.005548061392694064,-0.007448449749693661
-0.005547721392694064,-0.007283881960920875
-0.005547381392694064,-0.007415536191938386
-0.005547041392694064,-0.007020573498884419
-0.005546701392694064,-0.01222091562410444
-0.005546361392694064,-0.01432738332038376
-0.005546021392694064,-0.007547190422957332
-0.005545681392694064,-0.008534597155594046
-0.005545341392694064,-0.007580103980715062
-0.005545001392694064,-0.009324522541703417
-0.005544661392694064,-0.01291210033695014
-0.005544321392694064,-0.01057523773637419
-0.005543981392694064,-0.009258695426194301
-0.005543641392694064,-0.01189178004655887
-0.005543301392694064,-0.01370202572305508
-0.005542961392694064,-0.01126642244922228
-0.005542621392694064,-0.01228674273961356
-0.005542281392694064,-0.0153477036107818
-0.005541941392694064,-0.01383367995407774
-0.005541601392694064,-0.01373493928081407
-0.005541261392694064,-0.01314249524123312
-0.005540921392694064,-0.01212217495084077
-0.005540581392694064,-0.0115626444690133
-0.005540241392694064,-0.01192469360431277
-0.005539901392694064,-0.01149681735350419
-0.005539561392694064,-0.0104106699476038
-0.005539221392694064,-0.01139807668023872
-0.005538881392694064,-0.00313677368384668
-0.005538541392694064,-0.007645931096221003
-0.005538201392694064,-0.01077271908289824
-0.005537861392694064,-0.01057523773637659
-0.005537521392694064,-0.01014736148556734
-0.005537181392694064,-0.0118259529310467
-0.005536841392694064,-0.01330706303000483
-0.005536501392694064,-0.01439321043590521
-0.005536161392694064,-0.01873780005949885
-0.005535821392694064,-0.01268170543266824
-0.005535481392694064,-0.01093728687167671
-0.005535141392694064,-0.01176012581553914
-0.005534801392694064,-0.01199052071982254
-0.005534461392694064,-0.01587432053486028
-0.005534121392694064,-0.01518313582201584
-0.005533781392694064,-0.01393242062734141
-0.005533441392694064,-0.01324123591449571
-0.005533101392694064,-0.01515022226426002
-0.005532761392694064,-0.01475525957120534
-0.005532421392694064,-0.01399824774285052
-0.005532081392694064,-0.01567683918833294
-0.005531741392694064,-0.01722377640279712
-0.005531401392694064,-0.01412990197386875
-0.005531061392694064,-0.01347163081877761
-0.005530721392694064,-0.01521604937976914
-0.005530381392694064,-0.01603888832363307
-0.005530041392694064,-0.01357037149204128
-0.005529701392694064,-0.01294501389469967
-0.005529361392694064,-0.0101802750433219
-0.005529021392694064,-0.01077271908290393
-0.005528681392694064,-0.01251713764389336
-0.005528341392694064,-0.01136516312248596
-0.005528001392694064,-0.01044358350535836
-0.005527661392694064,-0.01251713764390102
-0.005527321392694064,-0.01557809851506927
-0.005526981392694064,-0.01376785283856862
-0.005526641392694064,-0.01310958168348036
-0.005526301392694064,-0.01468943245569622
-0.005525961392694064,-0.01620345611240585
-0.005525621392694064,-0.01936315765682992
-0.005525281392694064,-0.01199052071982254
-0.005524941392694064,-0.0106410648518857
-0.005524601392694064,-0.01080563264066603
-0.005524261392694064,-0.01495274091773268
-0.005523921392694064,-0.01742125774932446
-0.005523581392694064,-0.01689464082526502
-0.005523241392694064,-0.0243001913200269
-0.005522901392694064,-0.03601741788064923
-0.005522561392694064,-0.05362617127937913
-0.005522221392694064,-0.07663274814977269
-0.005521881392694064,-0.1048067535876736
-0.005521541392694064,-0.1371607808604632
-0.005521201392694064,-0.1701072521727149
-0.005520861392694064,-0.1990382694389706
-0.005520521392694064,-0.2245462766987059
-0.005520181392694064,-0.24626922481676
-0.005519841392694064,-0.2617385969614019
-0.005519501392694064,-0.2709543931326611
-0.005519161392694064,-0.2752331556407703
-0.005518821392694064,-0.2764509572776889
-0.005518481392694064,-0.2734229099642752
-0.005518141392694064,-0.2699669864000411
-0.005517801392694064,-0.2632526206181115
-0.005517461392694064,-0.2540039108890978
-0.005517121392694064,-0.2453476451996325
-0.005516781392694064,-0.2388307607642301
-0.005516441392694064,-0.228693384975845
-0.005516101392694064,-0.2208928717879965
-0.005515761392694064,-0.2147709500456489
-0.005515421392694064,-0.2094718672471748
-0.005515081392694064,-0.2061146843562004
-0.005514741392694064,-0.1924226443303046
-0.005514401392694064,-0.1859715870104232
-0.005514061392694064,-0.1791584805552181
-0.005513721392694064,-0.1775457162252448
-0.005513381392694064,-0.1737277435257231
-0.005513041392694064,-0.1651373049517768
-0.005512701392694064,-0.1601015306153295
-0.005512361392694064,-0.1558227681072371
-0.005512021392694064,-0.1512806971371082
-0.005511681392694064,-0.1455537380878153
-0.005511341392694064,-0.1408800128866682
-0.005511001392694064,-0.1361404605700119
-0.005510661392694064,-0.131828784504165
-0.005510321392694064,-0.1268588372832269
-0.005509981392694064,-0.1206381748676155
-0.005509641392694064,-0.1186304478445876
-0.005509301392694064,-0.1157340547621865
-0.005508961392694064,-0.1103362312904322
-0.005508621392694064,-0.1065182585909105
-0.005508281392694064,-0.1046750993566554
-0.005507941392694064,-0.1012520893501756
-0.005507601392694064,-0.09802656069023483
-0.005507261392694064,-0.09486685914579734
-0.005506921392694064,-0.08989691192485323
-0.005506581392694064,-0.08660555614940349
-0.005506241392694064,-0.08657264259164896
-0.005505901392694064,-0.08232679364130491
-0.005505561392694064,-0.07893669719259169
-0.005505221392694064,-0.07936457344340095
-0.005504881392694064,-0.08199765806375199
-0.005504541392694064,-0.07455919401123559
-0.005504201392694064,-0.07212359073739838
-0.005503861392694064,-0.0701816908298752
-0.005503521392694064,-0.0678119146715514
-0.005503181392694064,-0.07044499929191597
-0.005502841392694064,-0.0669890757276773
-0.005502501392694064,-0.06139377090941276
-0.005502161392694064,-0.06027470994575782
-0.005501821392694064,-0.05922147609760643
-0.005501481392694064,-0.05616051522643818
-0.005501141392694064,-0.052309628969155
-0.005500801392694064,-0.0509930866589696
-0.005500461392694064,-0.04928158165573574
-0.005500121392694064,-0.04826126136534448
-0.005499781392694064,-0.04733968174821855
-0.005499441392694064,-0.04483825135887053
-0.005499101392694064,-0.04645101568884383
-0.005498761392694064,-0.0469447190551613
-0.005498421392694064,-0.04483825135887053
-0.005498081392694064,-0.04339005481767002
-0.005497741392694064,-0.04404832597275996
-0.005497401392694064,-0.04167854981443305
-0.005497061392694064,-0.04092153798607824
-0.005496721392694064,-0.03838719403898195
-0.005496381392694064,-0.04095445154383279
-0.005496041392694064,-0.0374985279796043
-0.005495701392694064,-0.03792640423041276
-0.005495361392694064,-0.0363465534581948
-0.005495021392694064,-0.03229818585438428
-0.005494681392694064,-0.03354890104905517
-0.005494341392694064,-0.03628072634268568
-0.005494001392694064,-0.02653831324733678
-0.005493661392694064,-0.02495846247512092
-0.005493321392694064,-0.03075124863992009
-0.005492981392694064,-0.02002142881193448
-0.005492641392694064,-0.02736115219118736
-0.005492301392694064,-0.02884226229015578
-0.005491961392694064,-0.02716367084467337
-0.005491621392694064,-0.02525468449491253
-0.005491281392694064,-0.02472806757083614
-0.005490941392694064,-0.02456349978206336
-0.005490601392694064,-0.02374066083819943
-0.005490261392694064,-0.02466224045532703
-0.005489921392694064,-0.02400396930023588
-0.005489581392694064,-0.02548507939919096
-0.005489241392694064,-0.02650539968958223
-0.005488901392694064,-0.026373745458564
-0.005488561392694064,-0.02525468449490905
-0.005488221392694064,-0.02594586920775308
-0.005487881392694064,-0.02502428959062716
-0.005487541392694064,-0.02443184555104513
-0.005487201392694064,-0.02525468449490792
-0.005486861392694064,-0.02462932689757247
-0.005486521392694064,-0.02351026593391753
-0.005486181392694064,-0.02525468449490504
-0.005485841392694064,-0.02304947612535373
-0.005485501392694064,-0.01929733054133422
-0.005485161392694064,-0.01942898477235251
-0.005484821392694064,-0.01946189833010701
-0.005484481392694064,-0.01775039332687003
-0.005484141392694064,-0.01778330688462208
-0.005483801392694064,-0.01640093745893319
-0.005483461392694064,-0.0138665935118323
-0.005483121392694064,-0.01452486466692062
-0.005482781392694064,-0.01297792745245925
-0.005482441392694064,-0.01488691380222357
-0.005482101392694064,-0.01640093745893325
-0.005481761392694064,-0.01643385101668775
-0.005481421392694064,-0.01636802390117864
-0.005481081392694064,-0.01715794928728939
-0.005480741392694064,-0.01791496111564282
-0.005480401392694064,-0.01788204755788826
-0.005480061392694064,-0.01985686102316432
-0.005479721392694064,-0.0213050575643622
-0.005479381392694064,-0.01827701025094295
-0.005479041392694064,-0.01715794928729004
-0.005478701392694064,-0.01788204755788826
-0.005478361392694064,-0.01880362717501586
-0.005478021392694064,-0.01626928322791957
-0.005477681392694064,-0.01603888832363307
-0.005477341392694064,-0.01636802390117864
-0.005477001392694064,-0.01715794928728657
-0.005476661392694064,-0.01817826957767928
-0.005476321392694064,-0.01824409669318839
-0.005475981392694064,-0.01686172726749951
-0.005475641392694064,-0.01817826957767928
-0.005475301392694064,-0.01909984919480688
-0.005474961392694064,-0.01794787467339947
-0.005474621392694064,-0.01715794928728801
-0.005474281392694064,-0.01834283736645206
-0.005473941392694064,-0.019066935637051
-0.005473601392694064,-0.02186458804618967
-0.005473261392694064,-0.01353745793428673
-0.005472921392694064,-0.01097020042943594
-0.005472581392694064,-0.007481363307448217
-0.005472241392694064,-0.01100311398718583
-0.005471901392694064,-0.0125500512016472
-0.005471561392694064,-0.01106894110269494
-0.005471221392694064,-0.01083854619841304
-0.005470881392694064,-0.01281335966368288
-0.005470541392694064,-0.01383367995407774
-0.005470201392694064,-0.01429446976264154
-0.005469861392694064,-0.0159401476503694
-0.005469521392694064,-0.01491982735997812
-0.005469181392694064,-0.01804661534666105
-0.005468841392694064,-0.01597306120812395
-0.005468501392694064,-0.01636802390117864
-0.005468161392694064,-0.01728960351830624
-0.005467821392694064,-0.01742125774932446
-0.005467481392694064,-0.01570975274608749
-0.005467141392694064,-0.01465651889794167
-0.005466801392694064,-0.01472234601345078
-0.005466461392694064,-0.01333997658775848
-0.005466121392694064,-0.01284627322144103
-0.005465781392694064,-0.01215508850859533
-0.005465441392694064,-0.01090437331392264
-0.005465101392694064,-0.01116768177595861
-0.005464761392694064,-0.01281335966368647
-0.005464421392694064,-0.01294501389470308
-0.005464081392694064,-0.01205634783533165
-0.005463741392694064,-0.01505148159099635
-0.005463401392694064,-0.01715794928728771
-0.005463061392694064,-0.01699338149851522
-0.005462721392694064,-0.01195760716206798
-0.005462381392694064,-0.01113476821820202
-0.005462041392694064,-0.01001570725454911
-0.005461701392694064,-0.01485400024446901
-0.005461361392694064,-0.0177833068846186
-0.005461021392694064,-0.01449195110916888
-0.005460681392694064,-0.01235256985512267
-0.005460341392694064,-0.01327414947224817
-0.005460001392694064,-0.01212217495084077
-0.005459661392694064,-0.01146390379574963
-0.005459321392694064,-0.01212217495084167
-0.005458981392694064,-0.01261587831715913
-0.005458641392694064,-0.01169429870003153
-0.005458301392694064,-0.01258296475940619
-0.005457961392694064,-0.01347163081877761
-0.005457621392694064,-0.01439321043590521
-0.005457281392694064,-0.01653259168994753
-0.005456941392694064,-0.01561101207282382
-0.005456601392694064,-0.01521604937976914
-0.005456261392694064,-0.01728960351830246
-0.005455921392694064,-0.01791496111564282
-0.005455581392694064,-0.01742125774932446
-0.005455241392694064,-0.01686172726749801
-0.005454901392694064,-0.01610471543914218
-0.005454561392694064,-0.01498565447548724
-0.005454221392694064,-0.01524896293752322
-0.005453881392694064,-0.01268170543266824
-0.005453541392694064,-0.01073980552514937
-0.005453201392694064,-0.01380076639631761
-0.005452861392694064,-0.01788204755788826
-0.005452521392694064,-0.01080563264065849
-0.005452181392694064,-0.01103602754493997
-0.005451841392694064,-0.01027901571658557
-0.005451501392694064,-0.0117930393732952
-0.005451161392694064,-0.01636802390117031
-0.005450821392694064,-0.0152489629375237
-0.005450481392694064,-0.01459069178243255
-0.005450141392694064,-0.01439321043590557
-0.005449801392694064,-0.01534770361078737
-0.005449461392694064,-0.01475525957120534
-0.005449121392694064,-0.01409698841611539
-0.005448781392694064,-0.01538061716854192
-0.005448441392694064,-0.01485400024446901
-0.005448101392694064,-0.01465651889794167
-0.005447761392694064,-0.01515022226426002
-0.005447421392694064,-0.01291210033695014
-0.005447081392694064,-0.003860871954446936
-0.005446741392694064,-0.01258296475940457
-0.005446401392694064,-0.01176012581554064
-0.005446061392694064,-0.009752398792512659
-0.005445721392694064,-0.01087145975616939
-0.005445381392694064,-0.01185886648880431
-0.005445041392694064,-0.01126642244922228
-0.005444701392694064,-0.01251713764389528
-0.005444361392694064,-0.01241839697063178
-0.005444021392694064,-0.01212217495084077
-0.005443681392694064,-0.01409698841611521
-0.005443341392694064,-0.01465651889794167
-0.005443001392694064,-0.01399824774285052
-0.005442661392694064,-0.01656550524771334
-0.005442321392694064,-0.0206138728515165
-0.005441981392694064,-0.01278044610593191
-0.005441641392694064,-0.01258296475940343
-0.005441301392694064,-0.01195760716206798
-0.005440961392694064,-0.01383367995407774
-0.005440621392694064,-0.01738834419156949
-0.005440281392694064,-0.01715794928728801
-0.005439941392694064,-0.01419572908937787
-0.005439601392694064,-0.01297792745246368
-0.005439261392694064,-0.01541353072629648
-0.005438921392694064,-0.01613762899689674
-0.005438581392694064,-0.0161047154391426
-0.005438241392694064,-0.01633511034342408
-0.005437901392694064,-0.01472234601345078
-0.005437561392694064,-0.01584140697710877
-0.005437221392694064,-0.01751999842258814
-0.005436881392694064,-0.01676298659423332
-0.005436541392694064,-0.01426155620489153
-0.005436201392694064,-0.01436029687815065
-0.005435861392694064,-0.01541353072629648
-0.005435521392694064,-0.01330706303000866
-0.005435181392694064,-0.01182595293104976
-0.005434841392694064,-0.01077271908290393
-0.005434501392694064,-0.01077271908290393
-0.005434161392694064,-0.01245131052838634
-0.005433821392694064,-0.01347163081877761
-0.005433481392694064,-0.01139807668024428
-0.005433141392694064,-0.01228674273961356
-0.005432801392694064,-0.01531479005303281
-0.005432461392694064,-0.0142615562048889
-0.005432121392694064,-0.01636802390117864
-0.005431781392694064,-0.01600597476587851
-0.005431441392694064,-0.009258695426206574
-0.005431101392694064,-0.01320832235674115
-0.005430761392694064,-0.01699338149851522
-0.005430421392694064,-0.01429446976264645
-0.005430081392694064,-0.01426155620488698
-0.005429741392694064,-0.01696046794076066
-0.005429401392694064,-0.01646676457444321
-0.005429061392694064,-0.01475525957120534
-0.005428721392694064,-0.01554518495731471
-0.005428381392694064,-0.01692755438300359
-0.005428041392694064,-0.01498565447548724
-0.005427701392694064,-0.01459069178243255
-0.005427361392694064,-0.01314249524123204
-0.005427021392694064,-0.0117930393732952
-0.005426681392694064,-0.01195760716206798
-0.005426341392694064,-0.0111018546604495
-0.005426001392694064,-0.009291608983948858
-0.005425661392694064,-0.01004862081230367
-0.005425321392694064,-0.009785312350267215
-0.005424981392694064,-0.008633337828857716
-0.005424641392694064,-0.009258695426194301
-0.005424301392694064,-0.009554917445985316
-0.005423961392694064,-0.009620744561495927
-0.005423621392694064,-0.01044358350535836
-0.005423281392694064,-0.01208926139308621
-0.005422941392694064,-0.01097020042943109
-0.005422601392694064,-0.0108714597561676
-0.005422261392694064,-0.01136516312248596
-0.005421921392694064,-0.0116613851422817
-0.005421581392694064,-0.01426155620488698
-0.005421241392694064,-0.01067397840964026
-0.005420901392694064,-0.01050941062087897
-0.005420561392694064,-0.01682881370974244
-0.005420221392694064,-0.01840866448196118
-0.005419881392694064,-0.01472234601345114
-0.005419541392694064,-0.01491982735997812
-0.005419201392694064,-0.01643385101668775
-0.005418861392694064,-0.015446444284049
-0.005418521392694064,-0.0143273833203961
-0.005418181392694064,-0.01482108668671445
-0.005417841392694064,-0.01603888832363037
-0.005417501392694064,-0.014557778224678
-0.005417161392694064,-0.01541353072629648
-0.005416821392694064,-0.01511730870650319
-0.005416481392694064,-0.0138665935118323
-0.005416141392694064,-0.01222091562410444
-0.005415801392694063,-0.0109043733139218
