Analysis/files/cmb03_wrd01/d2s08_ch30.csv

#Digilent WaveForms Oscilloscope Acquisition
#Device Name: ADP3450
#Serial Number: SN:210018B9D9B0
#Date Time: 2024-08-13 17:41:30.129.015.700
#Sample rate: 2.94118e+06Hz
#Samples: 32768
#Trigger: Source: Channel 3 Type: Edge Condition: Rising Level: 60 mV Hyst.: Auto HoldOff: 0 s
#Channel 3: Range: 200 mV/div Offset: 0 V Attenuation: 1 X Coupling: DC Bandwidth: 0 Hz Sample Mode: Average

Time (s),Channel 3 (V)
-0.005570434257907543,0.006408158064974882
-0.005570094257907543,0.00397255479113586
-0.005569754257907543,0.002985148058500942
-0.005569414257907543,0.007988008837193623
-0.005569074257907543,0.002623098923198479
-0.005568734257907543,0.001339470170773087
-0.005568394257907543,0.001240729497509416
-0.005568054257907543,-0.002346848297736231
-0.005567714257907543,-0.001754404258155281
-0.005567374257907543,8.875497609991696e-05
-0.005567034257907543,0.0001216685338544741
-0.005566694257907543,0.0001216685338544741
-0.005566354257907543,0.002359790461164357
-0.005566014257907543,-0.001194873776329067
-0.005565674257907543,-0.00188605848917351
-0.005565334257907543,0.004959961523774369
-0.005564994257907543,0.003939641233382141
-0.005564654257907543,0.003413024309310185
-0.005564314257907543,0.00130655661301853
-0.005563974257907543,-0.002182280508964404
-0.005563634257907543,-0.002116453393455409
-0.005563294257907543,0.0002533227648727025
-0.005562954257907544,-0.0009315653142891978
-0.005562614257907543,-0.002281021182228195
-0.005562274257907543,-0.0008657381987822392
-0.005561934257907544,-0.0002403806014467917
-0.005561594257907543,-0.003038033010583008
-0.005561254257907543,-0.00438748887851985
-0.005560914257907544,-0.007152227729897618
-0.005560574257907543,-0.01037775638984924
-0.005560234257907543,-0.009225781868439744
-0.005559894257907544,-0.009061214079667259
-0.005559554257907543,-0.0111018546604495
-0.005559214257907543,-0.009752398792512659
-0.005558874257907544,-0.007119314172152879
-0.005558534257907543,-0.00665852436358429
-0.005558194257907543,-0.007020573498884419
-0.005557854257907544,-0.005868598977477015
-0.005557514257907543,-0.004749538013819977
-0.005557174257907543,-0.004354575320765292
-0.005556834257907543,-0.004519143109537779
-0.005556494257907543,-0.006592697248075176
-0.005556154257907543,-0.00837002936682126
-0.005555814257907543,-0.007810498884994807
-0.005555474257907543,-0.01422864264713243
-0.005555134257907543,-0.008830819175385059
-0.005554794257907543,-0.00655978369032475
-0.005554454257907543,-0.005341982053402005
-0.005554114257907543,-0.005045760033610991
-0.005553774257907543,-0.007547190422957332
-0.005553434257907543,-0.007185141287657204
-0.005553094257907543,-0.003268427914864908
-0.005552754257907543,-0.00188605848917351
-0.005552414257907543,-0.003564649934655922
-0.005552074257907543,-0.005374895611156563
-0.005551734257907543,-0.005276154937892892
-0.005551394257907543,-0.006164820997269525
-0.005551054257907543,-0.008139634462539359
-0.005550714257907543,-0.009225781868439744
-0.005550374257907543,-0.008633337828858256
-0.005550034257907543,-0.008929559848648731
-0.005549694257907543,-0.007876326000502903
-0.005549354257907543,-0.00636230234379597
-0.005549014257907543,-0.007843412442748346
-0.005548674257907543,-0.00837002936682126
-0.005548334257907543,-0.006921832825621286
-0.005547994257907543,-0.007218054845411761
-0.005547654257907543,-0.00939034965721253
-0.005547314257907543,-0.009818225908022072
-0.005546974257907543,-0.009982793696794558
-0.005546634257907543,-0.01189178004655887
-0.005546294257907543,-0.01139807668024357
-0.005545954257907543,-0.01307666812572293
-0.005545614257907543,-0.01366911216530495
-0.005545274257907543,-0.01297792745246303
-0.005544934257907543,-0.01505148159099635
-0.005544594257907543,-0.00767884465397556
-0.005544254257907543,-0.005868598977467256
-0.005543914257907543,-0.00165566358489161
-0.005543574257907543,-0.001458182238364267
-0.005543234257907543,-0.004881192244835572
-0.005542894257907543,-0.003432995703637694
-0.005542554257907543,-0.00267598387528288
-0.005542214257907544,-0.003400082145881819
-0.005541874257907543,-0.006559783690320619
-0.005541534257907543,-0.007843412442748346
-0.005541194257907544,-0.009094127637419239
-0.005540854257907543,-0.00939034965721253
-0.005540514257907543,-0.01037775638984924
-0.005540174257907544,-0.01152973091125665
-0.005539834257907543,-0.01116768177595861
-0.005539494257907543,-0.01169429870003153
-0.005539154257907544,-0.01093728687167809
-0.005538814257907543,-0.01050941062086747
-0.005538474257907543,-0.01011444792781279
-0.005538134257907544,-0.01136516312248368
-0.005537794257907543,-0.01037775638984924
-0.005537454257907543,-0.01126642244922228
-0.005537114257907544,-0.01248422408613868
-0.005536774257907543,-0.01264879187491368
-0.005536434257907543,-0.01218800206634988
-0.005536094257907543,-0.01333997658775729
-0.005535754257907543,-0.01304375456796837
-0.005535414257907543,-0.01297792745245925
-0.005535074257907543,-0.01403116130060317
-0.005534734257907543,-0.01547935784180559
-0.005534394257907543,-0.01057523773637659
-0.005534054257907543,-0.005407809168920519
-0.005533714257907543,-0.006592697248075176
-0.005533374257907543,-0.004354575320765292
-0.005533034257907543,-0.00767884465397556
-0.005532694257907543,-0.009851139465776329
-0.005532354257907543,-0.007645931096221003
-0.005532014257907543,-0.009192868310685188
-0.005531674257907543,-0.008633337828857716
-0.005531334257907543,-0.007283881960920875
-0.005530994257907543,-0.007843412442748346
-0.005530654257907543,-0.008501683597839487
-0.005530314257907543,-0.007250968403166318
-0.005529974257907543,-0.00688891926786619
-0.005529634257907543,-0.00981822590802261
-0.005529294257907543,-0.01027901571658557
-0.005528954257907543,-0.01014736148556734
-0.005528614257907543,-0.01031192927433857
-0.005528274257907543,-0.009456176772721644
-0.005527934257907543,-0.009653658119248986
-0.005527594257907543,-0.01054232417862137
-0.005527254257907543,-0.0101802750433219
-0.005526914257907543,-0.009291608983948858
-0.005526574257907543,-0.009522003888218786
-0.005526234257907543,-0.002939292337319337
-0.005525894257907543,-0.008863732733139616
-0.005525554257907543,-0.008633337828858376
-0.005525214257907543,-0.008995386964157845
-0.005524874257907543,-0.007316795518675433
-0.005524534257907543,-0.008073807347038867
-0.005524194257907543,-0.01281335966368647
-0.005523854257907543,-0.008468770040084931
-0.005523514257907543,-0.0108385461984298
-0.005523174257907543,-0.02005434236968903
-0.005522834257907543,-0.03183739604582048
-0.005522494257907543,-0.05421861531896535
-0.005522154257907543,-0.07952914123217372
-0.005521814257907543,-0.1042801366636007
-0.005521474257907543,-0.1353834487417149
-0.005521134257907543,-0.1671450319748048
-0.005520794257907543,-0.1950557289506692
-0.005520454257907544,-0.2202346006328596
-0.005520114257907543,-0.2416942402888766
-0.005519774257907543,-0.2567028226249546
-0.005519434257907544,-0.2678934322614837
-0.005519094257907543,-0.271020220248187
-0.005518754257907543,-0.2694732830337228
-0.005518414257907544,-0.266906025528872
-0.005518074257907543,-0.262100646096702
-0.005517734257907543,-0.2543988735821356
-0.005517394257907544,-0.244096930004978
-0.005517054257907543,-0.2357697998930563
-0.005516714257907543,-0.2296149645929541
-0.005516374257907544,-0.2213207480388208
-0.005516034257907543,-0.2156267025472674
-0.005515694257907543,-0.2074312266663826
-0.005515354257907544,-0.1999927626138663
-0.005515014257907543,-0.1957140001057603
-0.005514674257907543,-0.1889338072083216
-0.005514334257907543,-0.1788951720931999
-0.005513994257907543,-0.1743860146808073
-0.005513654257907543,-0.1707984368855606
-0.005513314257907543,-0.1577317544570252
-0.005512974257907543,-0.1499641548269259
-0.005512634257907543,-0.1437105788535601
-0.005512294257907543,-0.1407483586556499
-0.005511954257907543,-0.1407812722134045
-0.005511614257907543,-0.1359100656657301
-0.005511274257907543,-0.1293602676725732
-0.005510934257907543,-0.1256410356463082
-0.005510594257907543,-0.1247523695869352
-0.005510254257907543,-0.118005090247251
-0.005509914257907543,-0.1144833395675134
-0.005509574257907543,-0.1115869464851124
-0.005509234257907543,-0.1079006280166019
-0.005508894257907543,-0.1037206061817705
-0.005508554257907543,-0.1022394960828181
-0.005508214257907543,-0.09812530136349848
-0.005507874257907543,-0.09489977270354741
-0.005507534257907543,-0.09243125587196011
-0.005507194257907543,-0.09045644240668668
-0.005506854257907543,-0.08578271720553346
-0.005506514257907543,-0.08242553431457475
-0.005506174257907543,-0.07939748700115551
-0.005505834257907543,-0.07446045333796655
-0.005505494257907543,-0.07149823314006179
-0.005505154257907543,-0.06939176544377013
-0.005504814257907543,-0.06682450793891084
-0.005504474257907543,-0.06471804024262304
-0.005504134257907543,-0.06511300293567771
-0.005503794257907543,-0.06346732504795267
-0.005503454257907543,-0.06501426226241405
-0.005503114257907543,-0.06224952341103124
-0.005502774257907543,-0.05490980003175854
-0.005502434257907543,-0.05135513579427285
-0.005502094257907543,-0.04878787828941739
-0.005501754257907543,-0.04984111213756274
-0.005501414257907543,-0.04957780367552676
-0.005501074257907543,-0.04622062078456193
-0.005500734257907543,-0.04365336327970546
-0.005500394257907543,-0.043093832797879
-0.005500054257907543,-0.04315965991338813
-0.005499714257907544,-0.04121776000587279
-0.005499374257907543,-0.03967082279140507
-0.005499034257907543,-0.03996704481119608
-0.005498694257907544,-0.04019743971547757
-0.005498354257907543,-0.03990121769568697
-0.005498014257907543,-0.04046074817751444
-0.005497674257907544,-0.04065822952404142
-0.005497334257907543,-0.03832136692346823
-0.005496994257907543,-0.0379593177881681
-0.005496654257907544,-0.0355895416298443
-0.005496314257907543,-0.03318685191375732
-0.005495974257907543,-0.03275897566294807
-0.005495634257907544,-0.03160700114154067
-0.005495294257907543,-0.02940179277198325
-0.005494954257907543,-0.0277561148842554
-0.005494614257907544,-0.02956636056075274
-0.005494274257907543,-0.02739406574895527
-0.005493934257907543,-0.02489263535960893
-0.005493594257907543,-0.02607752343877083
-0.005493254257907543,-0.02413562353125412
-0.005492914257907543,-0.02749280642221894
-0.005492574257907543,-0.02420145064676922
-0.005492234257907543,-0.01778330688462459
-0.005491894257907543,-0.02031765083172549
-0.005491554257907543,-0.02239120497025882
-0.005491214257907543,-0.0190011085215432
-0.005490874257907543,-0.01771747976911548
-0.005490534257907543,-0.01909984919480688
-0.005490194257907543,-0.01850740515522485
-0.005489854257907543,-0.01676298659423332
-0.005489514257907543,-0.01791496111564282
-0.005489174257907543,-0.01877071361726131
-0.005488834257907543,-0.01860614582848852
-0.005488494257907543,-0.01867197294399764
-0.005488154257907543,-0.02094300842906016
-0.005487814257907543,-0.01988977458091625
-0.005487474257907543,-0.01979103390765257
-0.005487134257907543,-0.01821118313542994
-0.005486794257907543,-0.01607180188138762
-0.005486454257907543,-0.01788204755788826
-0.005486114257907543,-0.01742125774932428
-0.005485774257907543,-0.01732251707606079
-0.005485434257907543,-0.01587432053486028
-0.005485094257907543,-0.01893528140603331
-0.005484754257907543,-0.01850740515522485
-0.005484414257907543,-0.0185403187129794
-0.005484074257907543,-0.01798078823115128
-0.005483734257907543,-0.01761873909585181
-0.005483394257907543,-0.01561101207282382
-0.005483054257907543,-0.007514276865222113
-0.005482714257907543,-0.01814535601992472
-0.005482374257907543,-0.01129933600697684
-0.005482034257907543,-0.01166138514227308
-0.005481694257907543,-0.009522003888230759
-0.005481354257907543,-0.007843412442748346
-0.005481014257907543,-0.01333997658775962
-0.005480674257907543,-0.01347163081877761
-0.005480334257907543,-0.008830819175385059
-0.005479994257907543,-0.01146390379575244
-0.005479654257907543,-0.01301084101021381
-0.005479314257907543,-0.01228674273961356
-0.005478974257907544,-0.01199052071982308
-0.005478634257907543,-0.01330706303000483
-0.005478294257907543,-0.01330706303000483
-0.005477954257907544,-0.01235256985512441
-0.005477614257907543,-0.0115626444690133
-0.005477274257907543,-0.01054232417862203
-0.005476934257907544,-0.009982793696795576
-0.005476594257907543,-0.01113476821820406
-0.005476254257907543,-0.01123350889146773
-0.005475914257907544,-0.008764992059880437
-0.005475574257907543,-0.009522003888230759
-0.005475234257907543,-0.01123350889146773
-0.005474894257907544,-0.01162847158452169
-0.005474554257907543,-0.01162847158452241
-0.005474214257907543,-0.01021318860107646
-0.005473874257907544,-0.009159954752932546
-0.005473534257907543,-0.01057523773637659
-0.005473194257907543,-0.01116768177595861
-0.005472854257907543,-0.008929559848652803
-0.005472514257907543,-0.01268170543266824
-0.005472174257907543,-0.01050941062086747
-0.005471834257907543,-0.007020573498890764
-0.005471494257907543,-0.006098993881756819
-0.005471154257907543,-0.005440722726665677
-0.005470814257907543,-0.01044358350534926
-0.005470474257907543,-0.01301084101021381
-0.005470134257907543,-0.01258296475940457
-0.005469794257907543,-0.01146390379574963
-0.005469454257907543,-0.0124842240861409
-0.005469114257907543,-0.0134058037032685
-0.005468774257907543,-0.012253829181859
-0.005468434257907543,-0.009423263214967087
-0.005468094257907543,-0.007843412442748346
-0.005467754257907543,-0.008337115809066702
-0.005467414257907543,-0.007053487056638975
-0.005467074257907543,-0.00860042427110316
-0.005466734257907543,-0.006724351479093405
-0.005466394257907543,-0.007218054845416611
-0.005466054257907543,-0.009884053023530886
-0.005465714257907543,-0.01047649706311291
-0.005465374257907543,-0.009159954752930272
-0.005465034257907543,-0.008962473406403288
-0.005464694257907543,-0.009982793696794558
-0.005464354257907543,-0.008435856482332169
-0.005464014257907543,-0.009423263214967087
-0.005463674257907543,-0.009061214079666959
-0.005463334257907543,-0.008040893789277664
-0.005462994257907543,-0.009127041195176074
-0.005462654257907543,-0.01037775638984924
-0.005462314257907543,-0.009851139465782076
-0.005461974257907543,-0.01301084101021381
-0.005461634257907543,-0.01050941062086747
-0.005461294257907543,-0.00672435147909107
-0.005460954257907543,-0.005440722726665677
-0.005460614257907543,-0.008435856482330374
-0.005460274257907543,-0.009456176772715477
-0.005459934257907543,-0.006066080324002262
-0.005459594257907543,-0.006033166766247705
-0.005459254257907543,-0.007415536191933656
-0.005458914257907543,-0.004420402436274407
-0.005458574257907543,-0.006790178594602518
-0.005458234257907543,-0.004255834647496771
-0.005457894257907543,-0.001589836469382495
-0.005457554257907543,-0.007876326000502903
-0.005457214257907544,-0.007514276865203433
-0.005456874257907543,-0.006592697248075176
-0.005456534257907543,-0.01004862081230367
-0.005456194257907544,-0.01176012581553753
-0.005455854257907543,-0.01172721225778608
-0.005455514257907543,-0.01080563264065849
-0.005455174257907544,-0.006921832825627812
-0.005454834257907543,-0.008007980231521132
-0.005454494257907543,-0.01274753254817735
-0.005454154257907544,-0.01106894110269799
-0.005453814257907543,-0.006856005710111633
-0.005453474257907543,-0.007218054845411761
-0.005453134257907544,-0.007613017538465728
-0.005452794257907543,-0.006263561670529605
-0.005452454257907543,-0.006033166766247705
-0.005452114257907544,-0.007711758211727065
-0.005451774257907543,-0.008402942924575817
-0.005451434257907543,-0.008929559848648731
-0.005451094257907543,-0.01034484283209211
-0.005450754257907543,-0.01097020042943127
-0.005450414257907543,-0.01047649706311291
-0.005450074257907543,-0.01317540879898169
-0.005449734257907543,-0.01327414947225027
-0.005449394257907543,-0.01054232417862203
-0.005449054257907543,-0.01123350889146647
-0.005448714257907543,-0.01222091562410444
-0.005448374257907543,-0.01083854619841304
-0.005448034257907543,-0.01057523773637659
-0.005447694257907543,-0.0113322495647314
-0.005447354257907543,-0.01100311398718583
-0.005447014257907543,-0.01093728687167671
-0.005446674257907543,-0.009982793696794558
-0.005446334257907543,-0.007382622634184546
-0.005445994257907543,-0.0117930393732952
-0.005445654257907543,-0.008040893789268505
-0.005445314257907543,-0.004091266858728836
-0.005444974257907543,-0.003860871954446936
-0.005444634257907543,-0.004519143109544903
-0.005444294257907543,-0.008271288693557588
-0.005443954257907543,-0.01077271908290393
-0.005443614257907543,-0.01050941062087136
-0.005443274257907543,-0.01264879187491368
-0.005442934257907543,-0.01241839697063178
-0.005442594257907543,-0.01340580370326461
-0.005442254257907543,-0.01126642244922228
-0.005441914257907543,-0.009851139465776329
-0.005441574257907543,-0.008896646290893814
-0.005441234257907543,-0.00869916494436683
-0.005440894257907543,-0.006428129459302391
-0.005440554257907543,-0.007218054845400505
-0.005440214257907543,-0.001030305987555025
-0.005439874257907543,-0.00165566358489161
-0.005439534257907543,-0.004420402436277639
-0.005439194257907543,-0.00619773455502049
-0.005438854257907543,-0.006000253208493148
-0.005438514257907543,-0.006921832825625956
-0.005438174257907543,-0.009785312350267215
-0.005437834257907543,-0.01116768177595861
-0.005437494257907543,-0.01189178004656145
-0.005437154257907543,-0.01330706303000483
-0.005436814257907543,-0.01208926139308621
-0.005436474257907544,-0.01205634783533172
-0.005436134257907543,-0.01162847158452241
-0.005435794257907543,-0.0106410648518857
-0.005435454257907544,-0.01324123591449098
-0.005435114257907543,-0.008106720904784802
-0.005434774257907543,-0.006230648112775047
-0.005434434257907544,-0.003926699069960241
-0.005434094257907543,-0.004255834647501621
-0.005433754257907543,-0.008732078502121389
-0.005433414257907544,-0.01041066994760075
-0.005433074257907543,-0.007382622634184546
-0.005432734257907543,-0.005243241380138334
-0.005432394257907544,-0.006230648112773251
-0.005432054257907543,-0.008139634462539359
-0.005431714257907543,-0.01083854619841304
-0.005431374257907544,-0.005309068495657506
-0.005431034257907543,-0.006823092152357076
-0.005430694257907543,-0.009324522541703417
-0.005430354257907543,-0.007481363307451571
-0.005430014257907543,-0.007810498884993789
-0.005429674257907543,-0.007185141287657204
-0.005429334257907543,-0.006757265036848739
-0.005428994257907543,-0.007481363307448217
-0.005428654257907543,-0.01027901571658557
-0.005428314257907543,-0.008534597155597219
-0.005427974257907543,-0.007547190422957332
-0.005427634257907543,-0.009291608983948858
-0.005427294257907543,-0.00962074456149443
-0.005426954257907543,-0.009159954752930631
-0.005426614257907543,-0.00869916494436683
-0.005426274257907543,-0.009785312350267215
-0.005425934257907543,-0.01021318860107646
-0.005425594257907543,-0.0117930393732952
-0.005425254257907543,-0.01508439514875091
-0.005424914257907543,-0.01442612399365977
-0.005424574257907543,-0.01031192927434013
-0.005424234257907543,-0.01116768177595861
-0.005423894257907543,-0.00817254802029739
-0.005423554257907543,-0.01008153437005823
-0.005423214257907543,-0.01350454437653217
-0.005422874257907543,-0.009489090330472847
-0.005422534257907543,-0.007645931096221003
-0.005422194257907543,-0.007810498884993789
-0.005421854257907543,-0.007152227729903305
-0.005421514257907543,-0.007514276865202775
-0.005421174257907543,-0.00790923955825746
-0.005420834257907543,-0.005243241380137795
-0.005420494257907543,-0.00494701936034732
-0.005420154257907543,-0.00665852436358429
-0.005419814257907543,-0.006559783690320918
-0.005419474257907543,-0.006724351479093405
-0.005419134257907543,-0.006954746383375304
-0.005418794257907543,-0.007448449749694858
-0.005418454257907543,-0.008106720904784802
-0.005418114257907543,-0.009094127637421515
-0.005417774257907543,-0.008402942924574799
-0.005417434257907543,-0.007843412442748346
-0.005417094257907543,-0.01004862081230367
