Analysis/files/cmb03_wrd01/d2s04_ch45.csv

#Digilent WaveForms Oscilloscope Acquisition
#Device Name: ADP3450
#Serial Number: SN:210018B9D9B0
#Date Time: 2024-08-13 12:30:59.053.039.870
#Sample rate: 2.94118e+06Hz
#Samples: 32768
#Trigger: Source: Channel 3 Type: Edge Condition: Rising Level: 60 mV Hyst.: Auto HoldOff: 0 s
#Channel 3: Range: 200 mV/div Offset: 0 V Attenuation: 1 X Coupling: DC Bandwidth: 0 Hz Sample Mode: Average

Time (s),Channel 3 (V)
-0.005570444353741497,-0.001721490700400724
-0.005570104353741496,-0.001524009353876195
-0.005569764353741497,-0.003070946568337565
-0.005569424353741497,-0.005572376957683906
-0.005569084353741496,-0.003926699069954254
-0.005568744353741497,-0.002939292337319337
-0.005568404353741497,-0.001787317815909838
-0.005568064353741496,-0.000569516178995895
-0.005567724353741497,-0.00313677368384668
-0.005567384353741497,-0.001918972046928067
-0.005567044353741496,-0.0005695161789921233
-0.005566704353741497,-0.001063219545309582
-0.005566364353741497,-0.004190007531992507
-0.005566024353741496,-0.004157093974236632
-0.005565684353741497,-0.003432995703637694
-0.005565344353741497,-0.003301341472619465
-0.005565004353741496,-0.002544329644266987
-0.005564664353741497,-0.003827958396692379
-0.005564324353741497,-0.005802771861965805
-0.005563984353741496,-0.007283881960907045
-0.005563644353741497,0.0003191498803818167
-0.005563304353741497,-0.00244558897100098
-0.005562964353741497,-0.001589836469384052
-0.005562624353741497,-0.002281021182228195
-0.005562284353741497,-0.007777585327239231
-0.005561944353741497,-0.008600424271101663
-0.005561604353741497,-0.009324522541703417
-0.005561264353741497,-0.01182595293104976
-0.005560924353741497,-0.01166138514227727
-0.005560584353741497,-0.01103602754494038
-0.005560244353741497,-0.0108714597561676
-0.005559904353741497,-0.01129933600697606
-0.005559564353741497,-0.008995386964157845
-0.005559224353741497,-0.009258695426194301
-0.005558884353741497,-0.009719485234757264
-0.005558544353741496,-0.008304202251312145
-0.005558204353741497,-0.008304202251312145
-0.005557864353741497,-0.009291608983947063
-0.005557524353741496,-0.009225781868439744
-0.005557184353741497,-0.01090437331392216
-0.005556844353741497,-0.01340580370326395
-0.005556504353741496,-0.01268170543266824
-0.005556164353741497,-0.01416281553162331
-0.005555824353741497,-0.01715794928728256
-0.005555484353741496,-0.0152489629375237
-0.005555144353741497,-0.01353745793428673
-0.005554804353741497,-0.01297792745246027
-0.005554464353741496,-0.01199052071982254
-0.005554124353741497,-0.009653658119248986
-0.005553784353741497,-0.01182595293104976
-0.005553444353741496,-0.01310958168347748
-0.005553104353741497,-0.006526870132566062
-0.005552764353741497,-0.008863732733139616
-0.005552424353741496,-0.009094127637421515
-0.005552084353741497,-0.01070689196739481
-0.005551744353741497,-0.01541353072629648
-0.005551404353741496,-0.01495274091772759
-0.005551064353741497,-0.01215508850859533
-0.005550724353741497,-0.0131754087989866
-0.005550384353741496,-0.01205634783533088
-0.005550044353741497,-0.01162847158452241
-0.005549704353741497,-0.01185886648880431
-0.005549364353741496,-0.01271461899042082
-0.005549024353741497,-0.01162847158452241
-0.005548684353741497,-0.01152973091125874
-0.005548344353741496,-0.01455777822467506
-0.005548004353741497,-0.0129450138947047
-0.005547664353741497,-0.01422864264713243
-0.005547324353741496,-0.01373493928081389
-0.005546984353741497,-0.0136361986075504
-0.005546644353741497,-0.01380076639632318
-0.005546304353741496,-0.01376785283856659
-0.005545964353741497,-0.01264879187491368
-0.005545624353741497,-0.01287918677919558
-0.005545284353741496,-0.01403116130060257
-0.005544944353741497,-0.01264879187491368
-0.005544604353741497,-0.01057523773637659
-0.005544264353741496,-0.01083854619841382
-0.005543924353741497,-0.01126642244922228
-0.005543584353741497,-0.01169429870003153
-0.005543244353741496,-0.01640093745892715
-0.005542904353741497,-0.01307666812572293
-0.005542564353741497,-0.01146390379574963
-0.005542224353741497,-0.01215508850859407
-0.005541884353741497,-0.01172721225778608
-0.005541544353741497,-0.01419572908937787
-0.005541204353741497,-0.0138665935118329
-0.005540864353741497,-0.01222091562410444
-0.005540524353741497,-0.01136516312248596
-0.005540184353741497,-0.01235256985512087
-0.005539844353741497,-0.0129450138947047
-0.005539504353741497,-0.01189178004655887
-0.005539164353741497,-0.01320832235673876
-0.005538824353741497,-0.01429446976264154
-0.005538484353741497,-0.01419572908937787
-0.005538144353741497,-0.01304375456797047
-0.005537804353741497,-0.0152489629375237
-0.005537464353741497,-0.01445903755141432
-0.005537124353741497,-0.01389950706958787
-0.005536784353741496,-0.01370202572305951
-0.005536444353741497,-0.01475525957120534
-0.005536104353741497,-0.01393242062734291
-0.005535764353741496,-0.01419572908937787
-0.005535424353741497,-0.01452486466692344
-0.005535084353741497,-0.01304375456797106
-0.005534744353741496,-0.0150185680332418
-0.005534404353741497,-0.01531479005303281
-0.005534064353741497,-0.01686172726749418
-0.005533724353741496,-0.01709212217177889
-0.005533384353741497,-0.01830992380869751
-0.005533044353741497,-0.01738834419156991
-0.005532704353741496,-0.02071261352478018
-0.005532364353741497,-0.01722377640279712
-0.005532024353741497,-0.01182595293104976
-0.005531684353741496,-0.01149681735350419
-0.005531344353741497,-0.01044358350535836
-0.005531004353741497,-0.01442612399365977
-0.005530664353741496,-0.01162847158452241
-0.005530324353741497,-0.01505148159099635
-0.005529984353741497,-0.0150185680332418
-0.005529644353741496,-0.0143932104359079
-0.005529304353741497,-0.01587432053486028
-0.005528964353741497,-0.0140969884161142
-0.005528624353741496,-0.01482108668671326
-0.005528284353741497,-0.01416281553162331
-0.005527944353741497,-0.0136361986075504
-0.005527604353741496,-0.01225382918186049
-0.005527264353741497,-0.01307666812572293
-0.005526924353741497,-0.01327414947225027
-0.005526584353741496,-0.01235256985512458
-0.005526244353741497,-0.0134058037032685
-0.005525904353741497,-0.01347163081877761
-0.005525564353741496,-0.01310958168347677
-0.005525224353741497,-0.0127146189904228
-0.005524884353741497,-0.0143273833203961
-0.005524544353741496,-0.0139982477428531
-0.005524204353741497,-0.01541353072629648
-0.005523864353741497,-0.01824409669318839
-0.005523524353741496,-0.02067969996703699
-0.005523184353741497,-0.02693327594039147
-0.005522844353741497,-0.04023035327323254
-0.005522504353741496,-0.06139377090946197
-0.005522164353741497,-0.0884487153836587
-0.005521824353741497,-0.1106982804257393
-0.005521484353741496,-0.1405508773091797
-0.005521144353741497,-0.1719174978492155
-0.005520804353741497,-0.2044690064684725
-0.005520464353741497,-0.2324455305597952
-0.005520124353741497,-0.2496264077077249
-0.005519784353741497,-0.2650299527368576
-0.005519444353741497,-0.2765496979509316
-0.005519104353741497,-0.2797423130531446
-0.005518764353741497,-0.2796106588221264
-0.005518424353741497,-0.2765167843932037
-0.005518084353741497,-0.2706910846706414
-0.005517744353741497,-0.2645691629282938
-0.005517404353741497,-0.2564724277206875
-0.005517064353741497,-0.2474870264536786
-0.005516724353741497,-0.2414967589423493
-0.005516384353741497,-0.2356710592198032
-0.005516044353741496,-0.223756351312643
-0.005515704353741497,-0.2173711211082589
-0.005515364353741497,-0.210097224844515
-0.005515024353741496,-0.2029878963695174
-0.005514684353741497,-0.1968988881849244
-0.005514344353741497,-0.1919947680795043
-0.005514004353741496,-0.1861690683569387
-0.005513664353741497,-0.1791584805552181
-0.005513324353741497,-0.1760316925685409
-0.005512984353741496,-0.1683957471694779
-0.005512644353741497,-0.1615826407142846
-0.005512304353741497,-0.1565139528200828
-0.005511964353741496,-0.1542758308927729
-0.005511624353741497,-0.1446650720284423
-0.005511284353741497,-0.1360746334545029
-0.005510944353741496,-0.1309072048870374
-0.005510604353741497,-0.1261676525703812
-0.005510264353741497,-0.1268259237254723
-0.005509924353741496,-0.126332220359154
-0.005509584353741497,-0.1184658800558148
-0.005509244353741497,-0.1160302767819776
-0.005508904353741496,-0.1141542039899593
-0.005508564353741497,-0.1094804787888207
-0.005508224353741497,-0.1058270738780649
-0.005507884353741496,-0.1020420147362819
-0.005507544353741497,-0.09713789463086178
-0.005507204353741497,-0.09318826770031494
-0.005506864353741496,-0.09019313394463903
-0.005506524353741497,-0.08403829864454804
-0.005506184353741497,-0.08255718854559299
-0.005505844353741496,-0.08048363440704973
-0.005505504353741497,-0.07709353795833651
-0.005505164353741497,-0.07511872449306306
-0.005504824353741496,-0.0741313177604266
-0.005504484353741497,-0.07426297199144458
-0.005504144353741497,-0.07054373996517962
-0.005503804353741496,-0.06978672813682069
-0.005503464353741497,-0.06751569265176038
-0.005503124353741497,-0.06521174360894139
-0.005502784353741496,-0.06570544697525441
-0.005502444353741497,-0.06277614033510415
-0.005502104353741497,-0.06073549975432162
-0.005501764353741496,-0.06162416581369837
-0.005501424353741497,-0.06366480639447719
-0.005501084353741497,-0.05461357801197399
-0.005500744353741496,-0.05356034416382446
-0.005500404353741497,-0.05151970358304563
-0.005500064353741497,-0.04970945790654498
-0.005499724353741497,-0.05280333233546772
-0.005499384353741497,-0.05056521040816347
-0.005499044353741497,-0.045397781840698
-0.005498704353741497,-0.04464077001234457
-0.005498364353741497,-0.04516738693641611
-0.005498024353741497,-0.04315965991338813
-0.005497684353741497,-0.04200768539198072
-0.005497344353741497,-0.04207351250748774
-0.005497004353741497,-0.03891381096305026
-0.005496664353741497,-0.03828845336571481
-0.005496324353741497,-0.03973664990691418
-0.005495984353741497,-0.03874924317427747
-0.005495644353741497,-0.03894672452080445
-0.005495304353741496,-0.04052657529302355
-0.005494964353741497,-0.03990121769568697
-0.005494624353741497,-0.03845302115448909
-0.005494284353741496,-0.03878215673203202
-0.005493944353741497,-0.03802514490367721
-0.005493604353741497,-0.03483252980149098
-0.005493264353741496,-0.03522749249453986
-0.005492924353741497,-0.03295645700947542
-0.005492584353741497,-0.03160700114154103
-0.005492244353741496,-0.0295992741185106
-0.005491904353741497,-0.02950053344524692
-0.005491564353741497,-0.02749280642222259
-0.005491224353741496,-0.02956636056075604
-0.005490884353741497,-0.03117912489072934
-0.005490544353741497,-0.0224570320857717
-0.005490204353741496,-0.02462932689757247
-0.005489864353741497,-0.02969801479177427
-0.005489524353741497,-0.02650539968958223
-0.005489184353741496,-0.02443184555104513
-0.005488844353741497,-0.02877643517464666
-0.005488504353741497,-0.02726241151793704
-0.005488164353741496,-0.02509011670613274
-0.005487824353741497,-0.0231482167986174
-0.005487484353741497,-0.02170002025741689
-0.005487144353741496,-0.01992268813866913
-0.005486804353741497,-0.0190011085215432
-0.005486464353741497,-0.01959355256112523
-0.005486124353741496,-0.01745417130708669
-0.005485784353741497,-0.02166710669966233
-0.005485444353741497,-0.01771747976911548
-0.005485104353741496,-0.02097592198681878
-0.005484764353741497,-0.02216081006598069
-0.005484424353741497,-0.02278616766331727
-0.005484084353741496,-0.02344443881840686
-0.005483744353741497,-0.02258868631678993
-0.005483404353741497,-0.02374066083819943
-0.005483064353741496,-0.02044930506274528
-0.005482724353741497,-0.0213050575643622
-0.005482384353741497,-0.02064678640927106
-0.005482044353741496,-0.01860614582848888
-0.005481704353741497,-0.01880362717501586
-0.005481364353741497,-0.01801370178890649
-0.005481024353741496,-0.01801370178890997
-0.005480684353741497,-0.0199226881386708
-0.005480344353741497,-0.01610471543914218
-0.005480004353741496,-0.01653259168994939
-0.005479664353741497,-0.01541353072629648
-0.005479324353741497,-0.01666424592096965
-0.005478984353741497,-0.02130505756435376
-0.005478644353741497,-0.02225955073924436
-0.005478304353741497,-0.02005434236968903
-0.005477964353741497,-0.01900110852154512
-0.005477624353741497,-0.02005434236968903
-0.005477284353741497,-0.02219372362373525
-0.005476944353741497,-0.02377357439595111
-0.005476604353741497,-0.02235829141250803
-0.005476264353741497,-0.02334569814514474
-0.005475924353741497,-0.02479389468634262
-0.005475584353741497,-0.02374066083819943
-0.005475244353741497,-0.0226874269900536
-0.005474904353741497,-0.02097592198681974
-0.005474564353741497,-0.01880362717501586
-0.005474224353741497,-0.01821118313543383
-0.005473884353741497,-0.01886945429052378
-0.005473544353741496,-0.01659841880546054
-0.005473204353741497,-0.01445903755141432
-0.005472864353741497,-0.01577557986159421
-0.005472524353741496,-0.01521604937976914
-0.005472184353741497,-0.0152489629375237
-0.005471844353741497,-0.01587432053485914
-0.005471504353741496,-0.01439321043590521
-0.005471164353741497,-0.01613762899689674
-0.005470824353741497,-0.01742125774932213
-0.005470484353741496,-0.02077844064028929
-0.005470144353741497,-0.01834283736645206
-0.005469804353741497,-0.01472234601345078
-0.005469464353741496,-0.01439321043590521
-0.005469124353741497,-0.01172721225778608
-0.005468784353741497,-0.01287918677919558
-0.005468444353741496,-0.01389950706958685
-0.005468104353741497,-0.01222091562410444
-0.005467764353741497,-0.01238548341287723
-0.005467424353741496,-0.01478817312895989
-0.005467084353741497,-0.01429446976264154
-0.005466744353741497,-0.01722377640279712
-0.005466404353741496,-0.01890236784827594
-0.005466064353741497,-0.01692755438300611
-0.005465724353741497,-0.01913276275256143
-0.005465384353741496,-0.01867197294399692
-0.005465044353741497,-0.01827701025094295
-0.005464704353741497,-0.01765165265360636
-0.005464364353741496,-0.01725668996054916
-0.005464024353741497,-0.01587432053486028
-0.005463684353741497,-0.01551227139956015
-0.005463344353741496,-0.01715794928728687
-0.005463004353741497,-0.01653259168995142
-0.005462664353741497,-0.01669715947872421
-0.005462324353741496,-0.01840866448196321
-0.005461984353741497,-0.01952772544561612
-0.005461644353741497,-0.01804661534666105
-0.005461304353741496,-0.01840866448195908
-0.005460964353741497,-0.01725668996055168
-0.005460624353741497,-0.01610471543914218
-0.005460284353741496,-0.01682881370974896
-0.005459944353741497,-0.02041639150498916
-0.005459604353741497,-0.01310958168347748
-0.005459264353741496,-0.009522003888229921
-0.005458924353741497,-0.009061214079666959
-0.005458584353741497,-0.008995386964157845
-0.005458244353741496,-0.013307063030008
-0.005457904353741497,-0.01505148159099635
-0.005457564353741497,-0.01347163081877761
-0.005457224353741497,-0.01633511034341887
-0.005456884353741497,-0.01880362717501586
-0.005456544353741497,-0.01715794928728801
-0.005456204353741497,-0.01735543063381499
-0.005455864353741497,-0.01860614582848852
-0.005455524353741497,-0.01811244246217016
-0.005455184353741497,-0.01719086284504424
-0.005454844353741497,-0.01765165265360636
-0.005454504353741497,-0.01742125774932446
-0.005454164353741497,-0.01728960351830647
-0.005453824353741497,-0.01761873909585181
-0.005453484353741497,-0.01728960351830624
-0.005453144353741497,-0.01620345611240782
-0.005452804353741496,-0.01794787467339738
-0.005452464353741497,-0.01798078823115194
-0.005452124353741497,-0.0171579492872895
-0.005451784353741496,-0.01771747976911548
-0.005451444353741497,-0.01742125774932446
-0.005451104353741497,-0.01630219678567156
-0.005450764353741496,-0.0152489629375237
-0.005450424353741497,-0.01442612399365977
-0.005450084353741497,-0.01238548341288094
-0.005449744353741496,-0.01389950706958685
-0.005449404353741497,-0.01801370178890649
-0.005449064353741497,-0.01337289014552238
-0.005448724353741496,-0.01136516312248596
-0.005448384353741497,-0.01176012581554064
-0.005448044353741497,-0.01126642244922228
-0.005447704353741496,-0.01584140697710572
-0.005447364353741497,-0.01791496111564282
-0.005447024353741497,-0.01416281553162331
-0.005446684353741496,-0.01528187649527825
-0.005446344353741497,-0.01673007303647877
-0.005446004353741497,-0.01577557986159661
-0.005445664353741496,-0.01482108668671607
-0.005445324353741497,-0.01570975274608749
-0.005444984353741497,-0.0152489629375237
-0.005444644353741496,-0.01399824774285208
-0.005444304353741497,-0.01485400024446901
-0.005443964353741497,-0.01442612399365977
-0.005443624353741496,-0.0157097527460845
-0.005443284353741497,-0.01406407485835964
-0.005442944353741497,-0.01353745793428673
-0.005442604353741496,-0.01347163081877731
-0.005442264353741497,-0.01330706303000483
-0.005441924353741497,-0.01584140697710572
-0.005441584353741496,-0.01501856803324557
-0.005441244353741497,-0.01709212217177889
-0.005440904353741497,-0.01696046794076066
-0.005440564353741496,-0.01689464082524053
-0.005440224353741497,-0.01083854619841304
-0.005439884353741497,-0.01669715947872421
-0.005439544353741496,-0.01541353072630139
-0.005439204353741497,-0.01811244246217016
-0.005438864353741497,-0.0208442677557984
-0.005438524353741496,-0.01412990197387055
-0.005438184353741497,-0.01511730870650547
-0.005437844353741497,-0.01416281553162331
-0.005437504353741496,-0.01587432053486351
-0.005437164353741497,-0.01765165265360636
-0.005436824353741497,-0.01643385101668775
-0.005436484353741497,-0.01409698841611845
-0.005436144353741497,-0.014557778224678
-0.005435804353741497,-0.01633511034342408
-0.005435464353741497,-0.01653259168995106
-0.005435124353741497,-0.01666424592096965
-0.005434784353741497,-0.01781622044237915
-0.005434444353741497,-0.01847449159746909
-0.005434104353741497,-0.01623636967016041
-0.005433764353741497,-0.01784913400013371
-0.005433424353741497,-0.01840866448196016
-0.005433084353741497,-0.01623636967016041
-0.005432744353741497,-0.01380076639632318
-0.005432404353741497,-0.01274753254817927
-0.005432064353741497,-0.01324123591449571
-0.005431724353741497,-0.01399824774285052
-0.005431384353741497,-0.01538061716853941
-0.005431044353741496,-0.01176012581554064
-0.005430704353741497,-0.01199052071982254
-0.005430364353741497,-0.01534770361078126
-0.005430024353741496,-0.01429446976264154
-0.005429684353741497,-0.01399824774285052
-0.005429344353741497,-0.01343871726102407
-0.005429004353741496,-0.01600597476587851
-0.005428664353741497,-0.01995560169642536
-0.005428324353741497,-0.02123923044885075
-0.005427984353741496,-0.0111018546604495
-0.005427644353741497,-0.01452486466692344
-0.005427304353741497,-0.0203834779472346
-0.005426964353741496,-0.01715794928728801
-0.005426624353741497,-0.01422864264713243
-0.005426284353741497,-0.0152489629375237
-0.005425944353741496,-0.01676298659423332
-0.005425604353741497,-0.014557778224678
-0.005425264353741497,-0.0150185680332418
-0.005424924353741496,-0.01488691380222357
-0.005424584353741497,-0.01442612399365977
-0.005424244353741497,-0.01498565447548724
-0.005423904353741496,-0.01587432053485812
-0.005423564353741497,-0.01468943245569622
-0.005423224353741497,-0.01541353072629648
-0.005422884353741496,-0.01715794928728831
-0.005422544353741497,-0.01732251707606079
-0.005422204353741497,-0.01689464082525155
-0.005421864353741496,-0.01775039332686716
-0.005421524353741497,-0.01617054255465129
-0.005421184353741497,-0.01633511034342408
-0.005420844353741496,-0.01696046794076
-0.005420504353741497,-0.01659841880546054
-0.005420164353741497,-0.01649967813219686
-0.005419824353741496,-0.01798078823115457
-0.005419484353741497,-0.01942898477235245
-0.005419144353741497,-0.01936315765684333
-0.005418804353741496,-0.01992268813867062
-0.005418464353741497,-0.01982394746540713
-0.005418124353741497,-0.01860614582848852
-0.005417784353741496,-0.01847449159746682
-0.005417444353741497,-0.01656550524770598
-0.005417104353741497,-0.01396533418509597
-0.005416764353741496,-0.01347163081877588
-0.005416424353741497,-0.01251713764389546
-0.005416084353741497,-0.0113322495647314
-0.005415744353741496,-0.0109702004294342
