Analysis/files/cmb03_wrd01/d2s03_ch25.csv

#Digilent WaveForms Oscilloscope Acquisition
#Device Name: ADP3450
#Serial Number: SN:210018B9D9B0
#Date Time: 2024-08-13 11:42:55.742.748.120
#Sample rate: 2.94118e+06Hz
#Samples: 32768
#Trigger: Source: Channel 3 Type: Edge Condition: Rising Level: 60 mV Hyst.: Auto HoldOff: 0 s
#Channel 3: Range: 200 mV/div Offset: 0 V Attenuation: 1 X Coupling: DC Bandwidth: 0 Hz Sample Mode: Average

Time (s),Channel 3 (V)
-0.005570501091405185,0.01358331365546833
-0.005570161091405184,0.01229968490303707
-0.005569821091405185,0.01035778499552173
-0.005569481091405185,0.00677020720027501
-0.005569141091405184,0.005322010659071264
-0.005568801091405185,0.003544678540328413
-0.005568461091405185,0.0023268769034098
-0.005568121091405184,0.0009445074777176834
-0.005567781091405185,0.0005495447846637165
-0.005567441091405185,-9.985697163754359e-06
-0.005567101091405184,-0.004617883782789536
-0.005566761091405185,0.002096481999127901
-0.005566421091405185,0.003676332771346642
-0.005566081091405184,0.008547539319010557
-0.005565741091405185,0.002754753154219042
-0.005565401091405185,-0.001030305987555025
-0.005565061091405184,-0.001491095796115591
-0.005564721091405185,0.0002862363226272596
-0.005564381091405185,-7.581281267286857e-05
-0.005564041091405184,-0.001622750027136633
-0.005563701091405185,-0.001392355122855153
-0.005563361091405185,-0.0009315653142913533
-0.005563021091405185,-0.0007669975255188672
-0.005562681091405185,-0.003070946568337565
-0.005562341091405185,-0.001556922911627938
-0.005562001091405185,-0.000668256852256513
-0.005561661091405184,-0.001721490700400724
-0.005561321091405185,0.0003191498803818167
-0.005560981091405185,0.0009445074777172642
-0.005560641091405184,0.0002533227648727025
-0.005560301091405185,0.0008786803622092876
-0.005559961091405185,0.001602778632808227
-0.005559621091405184,-0.001392355122855153
-0.005559281091405185,-0.003235514357110351
-0.005558941091405185,-0.002478502528756914
-0.005558601091405184,-0.001853144931418952
-0.005558261091405185,-0.003005119452828451
-0.005557921091405185,-0.003005119452828451
-0.005557581091405184,-0.004453315994028964
-0.005557241091405185,-0.003202600799355794
-0.005556901091405185,-0.003465909261391772
-0.005556561091405184,-0.01004862081230367
-0.005556221091405185,-0.006823092152357076
-0.005555881091405185,-0.003498822819152854
-0.005555541091405184,-0.004255834647501621
-0.005555201091405185,-0.005934426092984033
-0.005554861091405185,-0.009949880139032696
-0.005554521091405184,-0.0101802750433219
-0.005554181091405185,-0.007218054845411761
-0.005553841091405185,-0.007053487056638975
-0.005553501091405184,-0.007514276865202775
-0.005553161091405185,-0.006625610805829733
-0.005552821091405185,-0.005341982053402005
-0.005552481091405184,-0.003235514357110351
-0.005552141091405185,-0.004091266858728836
-0.005551801091405185,-0.002873465221810222
-0.005551461091405184,-0.001820231373667508
-0.005551121091405185,-0.003531736376901365
-0.005550781091405185,-0.003762131281183265
-0.005550441091405184,-0.004519143109539095
-0.005550101091405185,-0.005078673591365549
-0.005549761091405185,-0.006856005710111633
-0.005549421091405184,-0.00478245157157681
-0.005549081091405185,-0.006033166766247705
-0.005548741091405185,-0.006625610805829733
-0.005548401091405184,-0.005835685419719044
-0.005548061091405185,-0.005111587149120106
-0.005547721091405185,-0.00688891926786619
-0.005547381091405184,-0.007415536191940181
-0.005547041091405185,-0.008007980231521132
-0.005546701091405185,-0.007185141287657204
-0.005546361091405184,-0.01060815129413192
-0.005546021091405185,-0.01103602754494038
-0.005545681091405185,-0.006230648112775047
-0.005545341091405184,-0.006263561670525833
-0.005545001091405185,-0.004190007531992507
-0.005544661091405185,-0.009192868310685188
-0.005544321091405184,-0.01149681735349838
-0.005543981091405185,-0.008304202251312145
-0.005543641091405185,-0.007152227729902647
-0.005543301091405184,-0.008337115809064667
-0.005542961091405185,-0.007218054845411761
-0.005542621091405185,-0.007580103980711889
-0.005542281091405185,-0.005572376957687558
-0.005541941091405185,-0.003070946568337565
-0.005541601091405185,-0.004420402436274407
-0.005541261091405185,-0.004650797340555887
-0.005540921091405185,-0.004453315994028964
-0.005540581091405185,-0.00540780916891112
-0.005540241091405185,-0.007876326000498413
-0.005539901091405184,-0.007777585327239231
-0.005539561091405185,-0.008830819175385059
-0.005539221091405185,-0.01123350889146336
-0.005538881091405184,-0.01024610215883101
-0.005538541091405185,-0.01199052071982254
-0.005538201091405185,-0.01287918677919397
-0.005537861091405184,-0.01136516312248596
-0.005537521091405185,-0.01189178004655887
-0.005537181091405185,-0.01179303937329538
-0.005536841091405184,-0.01050941062086747
-0.005536501091405185,-0.008073807347030245
-0.005536161091405185,-0.008337115809066223
-0.005535821091405184,-0.009587831003739873
-0.005535481091405185,-0.007185141287657204
-0.005535141091405185,-0.004091266858734463
-0.005534801091405184,-0.004650797340556306
-0.005534461091405185,-0.00267598387528288
-0.005534121091405185,-0.008699164944355874
-0.005533781091405184,-0.01090437331392216
-0.005533441091405185,-0.007514276865202775
-0.005533101091405185,-0.00790923955825746
-0.005532761091405184,-0.008501683597839487
-0.005532421091405185,-0.008172548020293918
-0.005532081091405185,-0.007942153116012016
-0.005531741091405184,-0.008666251386612273
-0.005531401091405185,-0.007580103980711889
-0.005531061091405185,-0.00837002936682126
-0.005530721091405184,-0.01073980552514937
-0.005530381091405185,-0.00837002936682126
-0.005530041091405185,-0.00790923955825746
-0.005529701091405184,-0.009159954752928056
-0.005529361091405185,-0.007744671769484675
-0.005529021091405185,-0.007382622634184546
-0.005528681091405184,-0.008402942924575038
-0.005528341091405185,-0.007975066673766575
-0.005528001091405185,-0.008007980231521132
-0.005527661091405184,-0.008732078502121208
-0.005527321091405185,-0.008633337828857716
-0.005526981091405185,-0.007777585327239231
-0.005526641091405184,-0.008764992059875826
-0.005526301091405185,-0.00869916494436683
-0.005525961091405185,-0.007152227729902647
-0.005525621091405184,-0.009522003888237464
-0.005525281091405185,-0.01320832235674115
-0.005524941091405185,-0.005144500706874663
-0.005524601091405184,-0.006395215901544541
-0.005524261091405185,-0.004584970225047193
-0.005523921091405185,-0.006000253208493148
-0.005523581091405184,-0.01195760716207313
-0.005523241091405185,-0.01478817312895989
-0.005522901091405185,-0.02216081006598069
-0.005522561091405184,-0.04148106846795151
-0.005522221091405185,-0.0666599401501419
-0.005521881091405185,-0.09434024222172444
-0.005521541091405184,-0.1258385169928889
-0.005521201091405185,-0.155164496952146
-0.005520861091405185,-0.1919947680794954
-0.005520521091405185,-0.2176673431280032
-0.005520181091405185,-0.2412663640380674
-0.005519841091405185,-0.2561432921431271
-0.005519501091405185,-0.2653261747566319
-0.005519161091405184,-0.270723998228396
-0.005518821091405185,-0.2691441474561772
-0.005518481091405185,-0.2641083731197392
-0.005518141091405184,-0.258611808974719
-0.005517801091405185,-0.2520949245393166
-0.005517461091405185,-0.2434057452921294
-0.005517121091405184,-0.2369217744144658
-0.005516781091405185,-0.2294833103619359
-0.005516441091405185,-0.2216498836163656
-0.005516101091405184,-0.2155937889895128
-0.005515761091405185,-0.2081553249369829
-0.005515421091405185,-0.2018030082903649
-0.005515081091405184,-0.1988737016501978
-0.005514741091405185,-0.1911390155778769
-0.005514401091405185,-0.1798825788258388
-0.005514061091405184,-0.1712921402518789
-0.005513721091405185,-0.1637878490838399
-0.005513381091405185,-0.1627017016779415
-0.005513041091405184,-0.1594432594602384
-0.005512701091405185,-0.1525972394472905
-0.005512361091405185,-0.145125861837006
-0.005512021091405184,-0.1412420620219683
-0.005511681091405185,-0.1389051994213948
-0.005511341091405185,-0.1331453268143473
-0.005511001091405184,-0.1259372576660993
-0.005510661091405185,-0.1212635324649521
-0.005510321091405185,-0.1179721766894964
-0.005509981091405184,-0.1139567226434405
-0.005509641091405185,-0.1117515142738851
-0.005509301091405185,-0.1063866043598923
-0.005508961091405184,-0.1031939892576974
-0.005508621091405185,-0.101581224927727
-0.005508281091405185,-0.09842152338328949
-0.005507941091405184,-0.0935503168356093
-0.005507601091405185,-0.09039061529117756
-0.005507261091405185,-0.08874493740344971
-0.005506921091405184,-0.08528901383921457
-0.005506581091405185,-0.08163560892846539
-0.005506241091405185,-0.07781763622893675
-0.005505901091405184,-0.07311099747003208
-0.005505561091405185,-0.07146531958230723
-0.005505221091405185,-0.06939176544377013
-0.005504881091405184,-0.06669285370789772
-0.005504541091405185,-0.06738403842074214
-0.005504201091405185,-0.05767453888314781
-0.005503861091405184,-0.05609468811092308
-0.005503521091405185,-0.05280333233547335
-0.005503181091405185,-0.05339577637505538
-0.005502841091405184,-0.05487688647400914
-0.005502501091405185,-0.0541527882034102
-0.005502161091405185,-0.05247419675792778
-0.005501821091405184,-0.05247419675792671
-0.005501481091405185,-0.05188175271834575
-0.005501141091405185,-0.05125639512100917
-0.005500801091405184,-0.05099308665896775
-0.005500461091405185,-0.04826126136534448
-0.005500121091405185,-0.04822834780758992
-0.005499781091405185,-0.04645101568884707
-0.005499441091405185,-0.0442458073192885
-0.005499101091405185,-0.04345588193317913
-0.005498761091405185,-0.04111901933260984
-0.005498421091405185,-0.03799223134592265
-0.005498081091405185,-0.03558954162983999
-0.005497741091405185,-0.03555662807208549
-0.005497401091405184,-0.03292354345172086
-0.005497061091405185,-0.03187030960357504
-0.005496721091405185,-0.03285771633620995
-0.005496381091405184,-0.03236401296989339
-0.005496041091405185,-0.03137660623725668
-0.005495701091405185,-0.03134369267950218
-0.005495361091405184,-0.03065250796665642
-0.005495021091405185,-0.02913848430994679
-0.005494681091405185,-0.02834855892383886
-0.005494341091405184,-0.02920431142545591
-0.005494001091405185,-0.02831564536608287
-0.005493661091405185,-0.02324695747189029
-0.005493321091405184,-0.0229178218943355
-0.005492981091405185,-0.02067969996702562
-0.005492641091405185,-0.02541925228367322
-0.005492301091405184,-0.02611043699652754
-0.005491961091405185,-0.02186458804618967
-0.005491621091405185,-0.02091009487130925
-0.005491281091405184,-0.02044930506274372
-0.005490941091405185,-0.01873780005950675
-0.005490601091405185,-0.01728960351830624
-0.005490261091405184,-0.01807952890441561
-0.005489921091405185,-0.01597306120812395
-0.005489581091405185,-0.01686172726749699
-0.005489241091405184,-0.01893528140603409
-0.005488901091405185,-0.01827701025094295
-0.005488561091405185,-0.01913276275256143
-0.005488221091405184,-0.01903402207929705
-0.005487881091405185,-0.01863905938624308
-0.005487541091405185,-0.01643385101668775
-0.005487201091405184,-0.01666424592096456
-0.005486861091405185,-0.0138665935118323
-0.005486521091405185,-0.01337289014551394
-0.005486181091405184,-0.0136691121653025
-0.005485841091405185,-0.01231965629736811
-0.005485501091405185,-0.01185886648880431
-0.005485161091405184,-0.01083854619841681
-0.005484821091405185,-0.01291210033695014
-0.005484481091405185,-0.01287918677919558
-0.005484141091405184,-0.01330706303001381
-0.005483801091405185,-0.01824409669318839
-0.005483461091405185,-0.01761873909585181
-0.005483121091405184,-0.0138665935118302
-0.005482781091405185,-0.0127146189904228
-0.005482441091405185,-0.009949880139040001
-0.005482101091405184,-0.01235256985512764
-0.005481761091405185,-0.01508439514875091
-0.005481421091405185,-0.01136516312248596
-0.005481081091405184,-0.01021318860107945
-0.005480741091405185,-0.01185886648880431
-0.005480401091405185,-0.01129933600697684
-0.005480061091405184,-0.01050941062087412
-0.005479721091405185,-0.01416281553162331
-0.005479381091405185,-0.0124842240861409
-0.005479041091405185,-0.01192469360431445
-0.005478701091405185,-0.01278044610593191
-0.005478361091405185,-0.01215508850859533
-0.005478021091405185,-0.01106894110269692
-0.005477681091405185,-0.01080563264065849
-0.005477341091405185,-0.01004862081230367
-0.005477001091405185,-0.008830819175387274
-0.005476661091405184,-0.008139634462539359
-0.005476321091405185,-0.00869916494436683
-0.005475981091405185,-0.009028300521911803
-0.005475641091405184,-0.009949880139040001
-0.005475301091405185,-0.01054232417862203
-0.005474961091405185,-0.010871459756167
-0.005474621091405184,-0.01192469360431343
-0.005474281091405185,-0.0131754087989866
-0.005473941091405185,-0.01284627322144163
-0.005473601091405184,-0.0152489629375237
-0.005473261091405185,-0.01755291198034269
-0.005472921091405185,-0.009818225908035841
-0.005472581091405184,-0.009357436099457973
-0.005472241091405185,-0.007942153116012016
-0.005471901091405185,-0.008732078502119952
-0.005471561091405184,-0.01320832235674115
-0.005471221091405185,-0.01370202572305951
-0.005470881091405185,-0.01116768177596322
-0.005470541091405184,-0.01090437331392216
-0.005470201091405185,-0.01278044610593191
-0.005469861091405185,-0.01192469360431343
-0.005469521091405184,-0.0111018546604495
-0.005469181091405185,-0.01044358350535836
-0.005468841091405185,-0.008732078502121389
-0.005468501091405184,-0.008732078502121389
-0.005468161091405185,-0.01083854619841304
-0.005467821091405185,-0.01034484283209469
-0.005467481091405184,-0.008073807347030245
-0.005467141091405185,-0.009291608983948858
-0.005466801091405185,-0.01024610215883101
-0.005466461091405184,-0.008567510713345669
-0.005466121091405185,-0.006954746383375304
-0.005465781091405185,-0.00665852436358429
-0.005465441091405184,-0.006757265036847124
-0.005465101091405185,-0.006296475228284162
-0.005464761091405185,-0.006559783690320619
-0.005464421091405184,-0.005341982053404101
-0.005464081091405185,-0.006493956574811504
-0.005463741091405185,-0.008007980231521132
-0.005463401091405184,-0.007711758211735626
-0.005463061091405185,-0.01073980552514937
-0.005462721091405185,-0.01491982735997812
-0.005462381091405184,-0.008172548020293378
-0.005462041091405185,-0.007876326000502903
-0.005461701091405185,-0.01320832235674115
-0.005461361091405184,-0.01126642244921749
-0.005461021091405185,-0.008633337828857716
-0.005460681091405185,-0.01106894110269494
-0.005460341091405184,-0.01070689196738979
-0.005460001091405185,-0.007942153116012016
-0.005459661091405185,-0.00869916494436683
-0.005459321091405184,-0.009686571677001269
-0.005458981091405185,-0.008435856482330374
-0.005458641091405185,-0.008073807347030245
-0.005458301091405184,-0.007020573498883641
-0.005457961091405185,-0.006592697248075176
-0.005457621091405185,-0.007843412442748346
-0.005457281091405185,-0.007711758211730357
-0.005456941091405185,-0.004782451571574535
-0.005456601091405185,-0.005506549842174791
-0.005456261091405185,-0.007086400614390659
-0.005455921091405184,-0.007645931096221003
-0.005455581091405185,-0.007744671769484675
-0.005455241091405185,-0.008896646290892077
-0.005454901091405184,-0.01027901571658557
-0.005454561091405185,-0.009916966581285444
-0.005454221091405185,-0.009982793696794438
-0.005453881091405184,-0.009291608983948858
-0.005453541091405185,-0.009324522541703417
-0.005453201091405185,-0.009949880139038863
-0.005452861091405184,-0.01001570725454911
-0.005452521091405185,-0.01172721225778608
-0.005452181091405185,-0.00748136330745594
-0.005451841091405184,-0.00860042427110316
-0.005451501091405185,-0.005967339650738591
-0.005451161091405185,-0.005605290515439121
-0.005450821091405184,-0.01004862081230367
-0.005450481091405185,-0.009752398792512659
-0.005450141091405185,-0.008370029366823774
-0.005449801091405184,-0.008896646290894173
-0.005449461091405185,-0.01044358350535836
-0.005449121091405185,-0.009719485234759418
-0.005448781091405184,-0.0124842240861409
-0.005448441091405185,-0.01044358350535836
-0.005448101091405185,-0.01054232417862203
-0.005447761091405184,-0.01044358350535836
-0.005447421091405185,-0.009324522541703417
-0.005447081091405185,-0.007448449749693661
-0.005446741091405184,-0.007580103980711889
-0.005446401091405185,-0.007283881960920875
-0.005446061091405185,-0.006757265036847961
-0.005445721091405184,-0.008863732733141292
-0.005445381091405185,-0.009785312350267215
-0.005445041091405185,-0.01024610215883101
-0.005444701091405184,-0.01054232417862023
-0.005444361091405185,-0.009554917445985316
-0.005444021091405185,-0.008797905617630502
-0.005443681091405184,-0.008435856482331571
-0.005443341091405185,-0.009094127637421515
-0.005443001091405185,-0.007349709076429989
-0.005442661091405184,-0.008402942924581505
-0.005442321091405185,-0.01152973091125874
-0.005441981091405185,-0.009949880139040001
-0.005441641091405184,-0.005045760033612249
-0.005441301091405185,-0.005736944746456691
-0.005440961091405185,-0.003038033010583008
-0.005440621091405184,-0.00642812945930742
-0.005440281091405185,-0.009192868310685188
-0.005439941091405185,-0.005045760033610991
-0.005439601091405184,-0.005374895611159915
-0.005439261091405185,-0.007218054845411761
-0.005438921091405185,-0.007382622634184546
-0.005438581091405184,-0.007250968403169012
-0.005438241091405185,-0.008732078502121389
-0.005437901091405185,-0.006921832825620747
-0.005437561091405184,-0.006493956574814857
-0.005437221091405185,-0.008337115809066702
-0.005436881091405185,-0.007975066673766575
-0.005436541091405185,-0.008435856482329536
-0.005436201091405185,-0.008797905617630502
-0.005435861091405185,-0.01083854619841304
-0.005435521091405185,-0.008830819175388711
-0.005435181091405185,-0.0108714597561676
-0.005434841091405185,-0.009522003888230759
-0.005434501091405185,-0.008337115809068856
-0.005434161091405184,-0.007777585327239231
-0.005433821091405185,-0.00767884465397556
-0.005433481091405185,-0.007053487056640113
-0.005433141091405184,-0.006691437921338847
-0.005432801091405185,-0.007415536191939104
-0.005432461091405185,-0.006461043017058684
-0.005432121091405184,-0.006691437921338847
-0.005431781091405185,-0.008666251386612273
-0.005431441091405185,-0.005638204073198528
-0.005431101091405184,-0.003663390607919593
-0.005430761091405185,-0.004486229551783521
-0.005430421091405185,-0.002972205895076648
-0.005430081091405184,-0.007218054845411761
-0.005429741091405185,-0.0111018546604495
-0.005429401091405185,-0.008501683597844218
-0.005429061091405184,-0.007843412442748346
-0.005428721091405185,-0.0106410648518857
-0.005428381091405185,-0.01027901571658623
-0.005428041091405184,-0.009357436099457973
-0.005427701091405185,-0.01083854619841304
-0.005427361091405185,-0.0113322495647314
-0.005427021091405184,-0.01077271908290393
-0.005426681091405185,-0.01185886648880431
-0.005426341091405185,-0.01228674273961356
-0.005426001091405184,-0.01070689196739481
-0.005425661091405185,-0.009094127637421515
-0.005425321091405185,-0.009653658119248986
-0.005424981091405184,-0.008139634462539359
-0.005424641091405185,-0.008304202251312145
-0.005424301091405185,-0.006856005710111633
-0.005423961091405184,-0.005506549842179162
-0.005423621091405185,-0.00790923955825746
-0.005423281091405185,-0.01011444792781279
-0.005422941091405184,-0.01008153437005625
-0.005422601091405185,-0.008995386964157845
-0.005422261091405185,-0.01103602754494038
-0.005421921091405184,-0.01087145975616868
-0.005421581091405185,-0.01146390379574963
-0.005421241091405185,-0.01347163081877761
-0.005420901091405184,-0.005276154937893371
-0.005420561091405185,-0.005539463399929348
-0.005420221091405185,-0.005276154937892892
-0.005419881091405184,-0.007349709076434001
-0.005419541091405185,-0.009554917445985316
-0.005419201091405185,-0.01001570725454911
-0.005418861091405184,-0.00813963446253888
-0.005418521091405185,-0.007876326000502903
-0.005418181091405185,-0.009258695426194301
-0.005417841091405184,-0.009225781868437888
-0.005417501091405185,-0.008205461578048474
-0.005417161091405185,-0.009554917445985316
