Analysis/files/cmb03_wrd01/d2s03_ch28.csv

#Digilent WaveForms Oscilloscope Acquisition
#Device Name: ADP3450
#Serial Number: SN:210018B9D9B0
#Date Time: 2024-08-13 11:44:12.823.536.470
#Sample rate: 2.94118e+06Hz
#Samples: 32768
#Trigger: Source: Channel 3 Type: Edge Condition: Rising Level: 60 mV Hyst.: Auto HoldOff: 0 s
#Channel 3: Range: 200 mV/div Offset: 0 V Attenuation: 1 X Coupling: DC Bandwidth: 0 Hz Sample Mode: Average

Time (s),Channel 3 (V)
-0.005570504975845411,0.001405297286282201
-0.00557016497584541,0.002491444692184023
-0.005569824975845411,0.003281370078291956
-0.005569484975845411,0.001273643055263973
-0.00556914497584541,0.0005495447846638962
-0.005568804975845411,0.0006482854579273878
-0.005568464975845411,-0.0008986517565367963
-0.00556812497584541,-0.001688577142648562
-0.005567784975845411,-0.003005119452828451
-0.005567444975845411,-0.005276154937892892
-0.00556710497584541,-0.007942153116012615
-0.005566764975845411,-0.008271288693557588
-0.005566424975845411,-0.003893785512201493
-0.00556608497584541,-0.003564649934651192
-0.005565744975845411,-0.0009644788720459105
-0.005565404975845411,-0.001392355122855153
-0.00556506497584541,-0.005177414264625269
-0.005564724975845411,-0.003005119452828451
-0.005564384975845411,-0.001951885604682624
-0.00556404497584541,-0.004782451571571961
-0.005563704975845411,-0.00336716858812858
-0.005563364975845411,-0.003630477050165036
-0.005563024975845411,-0.005144500706871909
-0.005562684975845411,-0.004124180416483393
-0.005562344975845411,-0.003663390607919593
-0.005562004975845411,-0.004947019360344985
-0.005561664975845411,-0.005243241380138334
-0.005561324975845411,-0.00619773455502049
-0.005560984975845411,-0.007382622634182391
-0.005560644975845411,-0.007777585327239231
-0.005560304975845411,-0.007777585327239231
-0.005559964975845411,-0.009061214079664624
-0.005559624975845411,-0.008468770040084931
-0.005559284975845411,-0.009522003888230759
-0.005558944975845411,-0.0090283005219133
-0.005558604975845411,-0.009423263214967087
-0.005558264975845411,-0.008929559848648731
-0.005557924975845411,-0.009127041195175715
-0.005557584975845411,-0.009949880139040001
-0.005557244975845411,-0.009225781868439744
-0.005556904975845411,-0.01004862081230217
-0.005556564975845411,-0.01261587831715913
-0.005556224975845411,-0.01439321043590521
-0.005555884975845411,-0.007415536191951796
-0.00555554497584541,-0.009489090330476201
-0.005555204975845411,-0.01419572908937787
-0.005554864975845411,-0.012681705432671
-0.00555452497584541,-0.01169429870003153
-0.005554184975845411,-0.0111018546604495
-0.005553844975845411,-0.01126642244922228
-0.00555350497584541,-0.01136516312248596
-0.005553164975845411,-0.01060815129413114
-0.005552824975845411,-0.0104106699476038
-0.00555248497584541,-0.01199052071982254
-0.005552144975845411,-0.0129450138947047
-0.005551804975845411,-0.01235256985512267
-0.00555146497584541,-0.01347163081877743
-0.005551124975845411,-0.01337289014551394
-0.005550784975845411,-0.01337289014551394
-0.00555044497584541,-0.013998247742851
-0.005550104975845411,-0.01426155620488698
-0.005549764975845411,-0.012253829181859
-0.00554942497584541,-0.01047649706311597
-0.005549084975845411,-0.01215508850859533
-0.005548744975845411,-0.01004862081230367
-0.00554840497584541,-0.01192469360431439
-0.005548064975845411,-0.01245131052838634
-0.005547724975845411,-0.01291210033695014
-0.00554738497584541,-0.01501856803324329
-0.005547044975845411,-0.01584140697710572
-0.005546704975845411,-0.01462360534018711
-0.00554636497584541,-0.01459069178243716
-0.005546024975845411,-0.01712503572953345
-0.005545684975845411,-0.01136516312248596
-0.00554534497584541,-0.01018027504331915
-0.005545004975845411,-0.008666251386612273
-0.005544664975845411,-0.0106410648518857
-0.00554432497584541,-0.01347163081877713
-0.005543984975845411,-0.01320832235674115
-0.005543644975845411,-0.01166138514227697
-0.00554330497584541,-0.0131424952412333
-0.005542964975845411,-0.01383367995407774
-0.005542624975845411,-0.01320832235674115
-0.005542284975845411,-0.0114309902379983
-0.005541944975845411,-0.01307666812572293
-0.005541604975845411,-0.01310958168347748
-0.005541264975845411,-0.0116942987000341
-0.005540924975845411,-0.01264879187491368
-0.005540584975845411,-0.01195760716206798
-0.005540244975845411,-0.01241839697063095
-0.005539904975845411,-0.01103602754494038
-0.005539564975845411,-0.01245131052838634
-0.005539224975845411,-0.01192469360431439
-0.005538884975845411,-0.01287918677919558
-0.005538544975845411,-0.01261587831715913
-0.005538204975845411,-0.008567510713355967
-0.005537864975845411,-0.01521604937976914
-0.005537524975845411,-0.01426155620488698
-0.005537184975845411,-0.01320832235674307
-0.005536844975845411,-0.01268170543266824
-0.005536504975845411,-0.01255005120165001
-0.005536164975845411,-0.01317540879898546
-0.005535824975845411,-0.01610471543914218
-0.005535484975845411,-0.01307666812572293
-0.005535144975845411,-0.008600424271111302
-0.00553480497584541,-0.01284627322144103
-0.005534464975845411,-0.01429446976264154
-0.005534124975845411,-0.01228674273961721
-0.00553378497584541,-0.01143099023799507
-0.005533444975845411,-0.01343871726102305
-0.005533104975845411,-0.01393242062734141
-0.00553276497584541,-0.0127146189904228
-0.005532424975845411,-0.01452486466692344
-0.005532084975845411,-0.0140969884161142
-0.00553174497584541,-0.01301084101021381
-0.005531404975845411,-0.0138665935118323
-0.005531064975845411,-0.01468943245569622
-0.00553072497584541,-0.01097020042943127
-0.005530384975845411,-0.01011444792781279
-0.005530044975845411,-0.01208926139308621
-0.00552970497584541,-0.01376785283856809
-0.005529364975845411,-0.01347163081877761
-0.005529024975845411,-0.01426155620488698
-0.00552868497584541,-0.01646676457444387
-0.005528344975845411,-0.01732251707606079
-0.005528004975845411,-0.01880362717501586
-0.00552766497584541,-0.01653259168994927
-0.005527324975845411,-0.01534770361078737
-0.005526984975845411,-0.01597306120812395
-0.00552664497584541,-0.01587432053485866
-0.005526304975845411,-0.01498565447548724
-0.005525964975845411,-0.01422864264713243
-0.00552562497584541,-0.009620744561497783
-0.005525284975845411,-0.01146390379574963
-0.005524944975845411,-0.01919858986807055
-0.00552460497584541,-0.01649967813219238
-0.005524264975845411,-0.01403116130060508
-0.005523924975845411,-0.01758582553809725
-0.00552358497584541,-0.02225955073925173
-0.005523244975845411,-0.02630791834305488
-0.005522904975845411,-0.03884798384754114
-0.00552256497584541,-0.059879747252746
-0.005522224975845411,-0.08344585460496601
-0.005521884975845411,-0.1133642786038584
-0.00552154497584541,-0.1433485297183171
-0.005521204975845411,-0.1747480638161074
-0.005520864975845411,-0.2029878963695174
-0.005520524975845411,-0.2280680273784443
-0.005520184975845411,-0.2473553722226604
-0.005519844975845411,-0.2592371665720555
-0.005519504975845411,-0.2699669864000216
-0.005519164975845411,-0.2741140946771153
-0.005518824975845411,-0.2743444895813972
-0.005518484975845411,-0.2702302948620851
-0.005518144975845411,-0.2660831865850034
-0.005517804975845411,-0.259204253014301
-0.005517464975845411,-0.25239114655912
-0.005517124975845411,-0.2440640164472047
-0.005516784975845411,-0.2351444422957197
-0.005516444975845411,-0.2314581238272161
-0.005516104975845411,-0.224645017372016
-0.005515764975845411,-0.2075628808974009
-0.005515424975845411,-0.2038765624288972
-0.005515084975845411,-0.195812740779024
-0.005514744975845411,-0.1851158345087929
-0.005514404975845411,-0.184523390469212
-0.00551406497584541,-0.1792243076707272
-0.005513724975845411,-0.1693502403443601
-0.005513384975845411,-0.1636891084105866
-0.00551304497584541,-0.1620434305228484
-0.005512704975845411,-0.1553619782986733
-0.005512364975845411,-0.1496679328071349
-0.00551202497584541,-0.1470677617445249
-0.005511684975845411,-0.1429206534674507
-0.005511344975845411,-0.1350543131641116
-0.00551100497584541,-0.1321579200817105
-0.005510664975845411,-0.1281095524779
-0.005510324975845411,-0.1237320492965439
-0.00550998497584541,-0.1205723477521064
-0.005509644975845411,-0.1172809919766507
-0.005509304975845411,-0.1142529446632315
-0.00550896497584541,-0.1118502549471428
-0.005508624975845411,-0.1085588991716931
-0.005508284975845411,-0.1042143095480915
-0.00550794497584541,-0.1007254724261039
-0.005507604975845411,-0.0981911284790076
-0.005507264975845411,-0.09420858799070619
-0.00550692497584541,-0.09104888644626405
-0.005506584975845411,-0.08848162894141326
-0.005506244975845411,-0.0842357799910754
-0.00550590497584541,-0.08492696470391779
-0.005505564975845411,-0.08311671902742046
-0.005505224975845411,-0.07149823314006179
-0.00550488497584541,-0.07297934323901177
-0.005504544975845411,-0.07018169082987952
-0.005504204975845411,-0.06471804024262304
-0.00550386497584541,-0.06751569265175961
-0.005503524975845411,-0.06708781640095113
-0.005503184975845411,-0.06175582004471289
-0.00550284497584541,-0.06027470994575902
-0.005502504975845411,-0.06093298110084896
-0.005502164975845411,-0.05737831686335679
-0.00550182497584541,-0.05520602205155609
-0.005501484975845411,-0.05523893560931058
-0.005501144975845411,-0.05497562714727412
-0.00550080497584541,-0.05257293743119044
-0.005500464975845411,-0.05201340694936398
-0.005500124975845411,-0.05237545608466411
-0.005499784975845411,-0.05046646973490327
-0.005499444975845411,-0.0483929155963627
-0.005499104975845411,-0.04691180549740763
-0.005498764975845411,-0.04427872087704785
-0.005498424975845411,-0.04276469722033344
-0.005498084975845411,-0.04227099385401508
-0.005497744975845411,-0.0396708227914098
-0.005497404975845411,-0.0388808974052957
-0.005497064975845411,-0.03927586009835039
-0.005496724975845411,-0.03795931778817049
-0.005496384975845411,-0.03667568903574037
-0.005496044975845411,-0.03674151615124949
-0.005495704975845411,-0.03470087557047066
-0.005495364975845411,-0.03506292470576707
-0.005495024975845411,-0.03907837875182304
-0.005494684975845411,-0.02726241151795853
-0.005494344975845411,-0.0284472995971011
-0.005494004975845411,-0.02953344700300148
-0.005493664975845411,-0.02485972180186287
-0.005493324975845411,-0.02867769450138299
-0.005492984975845411,-0.03249566720091162
-0.005492644975845411,-0.02936887921423438
-0.00549230497584541,-0.02647248613182767
-0.005491964975845411,-0.02923722498321047
-0.005491624975845411,-0.02449767266656286
-0.00549128497584541,-0.0266041403628459
-0.005490944975845411,-0.0268345352671278
-0.005490604975845411,-0.02815107757731008
-0.00549026497584541,-0.02719658440242792
-0.005489924975845411,-0.02653831324733678
-0.005489584975845411,-0.02601169632326387
-0.00548924497584541,-0.02413562353125412
-0.005488904975845411,-0.02367483372269031
-0.005488564975845411,-0.0233786117028993
-0.00548822497584541,-0.02265451343229491
-0.005487884975845411,-0.0203834779472346
-0.005487544975845411,-0.02275325410556272
-0.00548720497584541,-0.02242411852801487
-0.005486864975845411,-0.02117340333334397
-0.005486524975845411,-0.02308238968310829
-0.00548618497584541,-0.02374066083820033
-0.005485844975845411,-0.02423436420451779
-0.005485504975845411,-0.02459641333981791
-0.00548516497584541,-0.02535342516817357
-0.005484824975845411,-0.02581421497673653
-0.005484484975845411,-0.03058668085114731
-0.00548414497584541,-0.02413562353124286
-0.005483804975845411,-0.01794787467339738
-0.005483464975845411,-0.02235829141250803
-0.00548312497584541,-0.01712503572953064
-0.005482784975845411,-0.01557809851506927
-0.005482444975845411,-0.01906693563705232
-0.00548210497584541,-0.01617054255464764
-0.005481764975845411,-0.01416281553162331
-0.005481424975845411,-0.01518313582201458
-0.00548108497584541,-0.01696046794075593
-0.005480744975845411,-0.01436029687815065
-0.005480404975845411,-0.01465651889794167
-0.00548006497584541,-0.01561101207282125
-0.005479724975845411,-0.01419572908937787
-0.005479384975845411,-0.01261587831715913
-0.005479044975845411,-0.01393242062733901
-0.005478704975845411,-0.0138665935118323
-0.005478364975845411,-0.01419572908937787
-0.005478024975845411,-0.0149527409177313
-0.005477684975845411,-0.01459069178243255
-0.005477344975845411,-0.01561101207282382
-0.005477004975845411,-0.0170262950562672
-0.005476664975845411,-0.01775039332687003
-0.005476324975845411,-0.01603888832363307
-0.005475984975845411,-0.01794787467339391
-0.005475644975845411,-0.01821118313543383
-0.005475304975845411,-0.01765165265360636
-0.005474964975845411,-0.01676298659423494
-0.005474624975845411,-0.01669715947872421
-0.005474284975845411,-0.01738834419156991
-0.005473944975845411,-0.02153545246863656
-0.005473604975845411,-0.0138665935118323
-0.005473264975845411,-0.008666251386612273
-0.005472924975845411,-0.0118588664887985
-0.005472584975845411,-0.007711758211730118
-0.005472244975845411,-0.009456176772721644
-0.005471904975845411,-0.01383367995406978
-0.00547156497584541,-0.01337289014551394
-0.005471224975845411,-0.0129450138947047
-0.005470884975845411,-0.01495274091772903
-0.00547054497584541,-0.01775039332687003
-0.005470204975845411,-0.01597306120812395
-0.005469864975845411,-0.01732251707606079
-0.00546952497584541,-0.0192315034258251
-0.005469184975845411,-0.01867197294399764
-0.005468844975845411,-0.01830992380869751
-0.00546850497584541,-0.01919858986807055
-0.005468164975845411,-0.02012016948519815
-0.005467824975845411,-0.01867197294399764
-0.00546748497584541,-0.01830992380869751
-0.005467144975845411,-0.01775039332687003
-0.005466804975845411,-0.01689464082525155
-0.00546646497584541,-0.01705920861402506
-0.005466124975845411,-0.01745417130707902
-0.005465784975845411,-0.01640093745893319
-0.00546544497584541,-0.01702629505627169
-0.005465104975845411,-0.01807952890441561
-0.005464764975845411,-0.01646676457444231
-0.00546442497584541,-0.01626928322791383
-0.005464084975845411,-0.01564392563057838
-0.005463744975845411,-0.0143273833203961
-0.00546340497584541,-0.01630219678567395
-0.005463064975845411,-0.01873780005950675
-0.005462724975845411,-0.008863732733139616
-0.00546238497584541,-0.01347163081877833
-0.005462044975845411,-0.0138665935118323
-0.005461704975845411,-0.01136516312248596
-0.00546136497584541,-0.01564392563058119
-0.005461024975845411,-0.01719086284504256
-0.005460684975845411,-0.01485400024446901
-0.00546034497584541,-0.01429446976264585
-0.005460004975845411,-0.01666424592096965
-0.005459664975845411,-0.01577557986159661
-0.00545932497584541,-0.01495274091773537
-0.005458984975845411,-0.01643385101668775
-0.005458644975845411,-0.01607180188138762
-0.00545830497584541,-0.01491982735997776
-0.005457964975845411,-0.01472234601345078
-0.005457624975845411,-0.01590723409261484
-0.005457284975845411,-0.01426155620488998
-0.005456944975845411,-0.01449195110916888
-0.005456604975845411,-0.01478817312895989
-0.005456264975845411,-0.01337289014551651
-0.005455924975845411,-0.01320832235674115
-0.005455584975845411,-0.01353745793428673
-0.005455244975845411,-0.01287918677919678
-0.005454904975845411,-0.01215508850859533
-0.005454564975845411,-0.0127146189904228
-0.005454224975845411,-0.01136516312248841
-0.005453884975845411,-0.0115626444690133
-0.005453544975845411,-0.01343871726102305
-0.005453204975845411,-0.01350454437653205
-0.005452864975845411,-0.01699338149851522
-0.005452524975845411,-0.02008725592744359
-0.005452184975845411,-0.01301084101022668
-0.005451844975845411,-0.01722377640279712
-0.005451504975845411,-0.01617054255465129
-0.005451164975845411,-0.013767852838573
-0.005450824975845411,-0.01840866448196118
-0.005450484975845411,-0.02031765083172549
-0.005450144975845411,-0.01692755438301227
-0.00544980497584541,-0.01577557986159661
-0.005449464975845411,-0.01630219678566952
-0.005449124975845411,-0.01597306120812455
-0.00544878497584541,-0.01505148159099635
-0.005448444975845411,-0.01712503572953345
-0.005448104975845411,-0.01600597476587851
-0.00544776497584541,-0.01439321043590521
-0.005447424975845411,-0.014557778224678
-0.005447084975845411,-0.01491982735997812
-0.00544674497584541,-0.0143273833203961
-0.005446404975845411,-0.01376785283856862
-0.005446064975845411,-0.01508439514875091
-0.00544572497584541,-0.01498565447548538
-0.005445384975845411,-0.01396533418509597
-0.005445044975845411,-0.0113322495647314
-0.00544470497584541,-0.01281335966368539
-0.005444364975845411,-0.01222091562410444
-0.005444024975845411,-0.0136361986075504
-0.00544368497584541,-0.01301084101021477
-0.005443344975845411,-0.01353745793428673
-0.005443004975845411,-0.01570975274608749
-0.00544266497584541,-0.0160388883236351
-0.005442324975845411,-0.01715794928728801
-0.005441984975845411,-0.02110757621783486
-0.00544164497584541,-0.01320832235674403
-0.005441304975845411,-0.01478817312895989
-0.005440964975845411,-0.01531479005303281
-0.00544062497584541,-0.01149681735351179
-0.005440284975845411,-0.01567683918833294
-0.005439944975845411,-0.0192315034258251
-0.00543960497584541,-0.01626928322791317
-0.005439264975845411,-0.01528187649527825
-0.005438924975845411,-0.01659841880546054
-0.00543858497584541,-0.01689464082524987
-0.005438244975845411,-0.01597306120812395
-0.005437904975845411,-0.01544644428405104
-0.00543756497584541,-0.01518313582201063
-0.005437224975845411,-0.01301084101021381
-0.005436884975845411,-0.01310958168347748
-0.005436544975845411,-0.01455777822467536
-0.005436204975845411,-0.01330706303000483
-0.005435864975845411,-0.01149681735350419
-0.005435524975845411,-0.008797905617635412
-0.005435184975845411,-0.01037775638984924
-0.005434844975845411,-0.009653658119248986
-0.005434504975845411,-0.01083854619841089
-0.005434164975845411,-0.01034484283209469
-0.005433824975845411,-0.01166138514227697
-0.005433484975845411,-0.01482108668670871
-0.005433144975845411,-0.01485400024446901
-0.005432804975845411,-0.01347163081877761
-0.005432464975845411,-0.01393242062734057
-0.005432124975845411,-0.01617054255465129
-0.005431784975845411,-0.01738834419156991
-0.005431444975845411,-0.02074552708252863
-0.005431104975845411,-0.01241839697063178
-0.005430764975845411,-0.012253829181859
-0.005430424975845411,-0.01755291198033306
-0.005430084975845411,-0.01659841880546054
-0.005429744975845411,-0.0138665935118323
-0.005429404975845411,-0.0149527409177307
-0.00542906497584541,-0.01692755438300611
-0.005428724975845411,-0.01636802390117864
-0.005428384975845411,-0.01610471543914266
-0.00542804497584541,-0.01699338149851522
-0.005427704975845411,-0.01663133236321509
-0.005427364975845411,-0.0159401476503694
-0.00542702497584541,-0.01623636967016041
-0.005426684975845411,-0.01547935784180559
-0.005426344975845411,-0.01403116130060508
-0.00542600497584541,-0.0127146189904228
-0.005425664975845411,-0.01310958168347748
-0.005425324975845411,-0.01176012581554064
-0.00542498497584541,-0.0111018546604495
-0.005424644975845411,-0.0124842240861409
-0.005424304975845411,-0.01126642244922228
-0.00542396497584541,-0.01258296475940391
-0.005423624975845411,-0.01222091562410444
-0.005423284975845411,-0.01176012581554064
-0.00542294497584541,-0.01264879187491512
-0.005422604975845411,-0.01343871726102305
-0.005422264975845411,-0.01383367995407774
-0.00542192497584541,-0.01324123591450194
-0.005421584975845411,-0.01666424592096965
-0.005421244975845411,-0.01804661534666105
-0.00542090497584541,-0.0167959001519862
-0.005420564975845411,-0.01587432053486028
-0.005420224975845411,-0.01498565447548724
-0.00541988497584541,-0.01192469360432151
-0.005419544975845411,-0.01636802390117864
-0.005419204975845411,-0.01844157803971573
-0.00541886497584541,-0.01357037149204314
-0.005418524975845411,-0.01459069178243255
-0.005418184975845411,-0.01649967813219686
-0.00541784497584541,-0.01547935784180458
-0.005417504975845411,-0.01491982735997812
-0.005417164975845411,-0.01511730870650547
-0.00541682497584541,-0.01455777822467614
-0.005416484975845411,-0.01353745793428673
-0.005416144975845411,-0.01429446976264154
-0.00541580497584541,-0.0132741494722523
-0.005415464975845411,-0.01439321043590521
-0.005415124975845411,-0.01505148159099635
-0.005414784975845411,-0.01495274091773286
