Analysis/files/cmb03_wrd01/d2s03_ch31.csv

#Digilent WaveForms Oscilloscope Acquisition
#Device Name: ADP3450
#Serial Number: SN:210018B9D9B0
#Date Time: 2024-08-13 11:46:56.053.413.420
#Sample rate: 2.94118e+06Hz
#Samples: 32768
#Trigger: Source: Channel 3 Type: Edge Condition: Rising Level: 60 mV Hyst.: Auto HoldOff: 0 s
#Channel 3: Range: 200 mV/div Offset: 0 V Attenuation: 1 X Coupling: DC Bandwidth: 0 Hz Sample Mode: Average

Time (s),Channel 3 (V)
-0.005570389803921569,0.001800259979336887
-0.005570049803921569,0.001569865075052053
-0.005569709803921569,-4.289925491831147e-05
-0.005569369803921569,-0.001853144931418952
-0.005569029803921569,-0.0009973924298006471
-0.005568689803921569,-0.001096133103064139
-0.005568349803921569,-0.002116453393455409
-0.005568009803921569,-0.00165566358489125
-0.005567669803921569,-0.001458182238364267
-0.005567329803921569,-0.001622750027137053
-0.005566989803921569,-0.002675983875280784
-0.005566649803921569,-0.001524009353873381
-0.005566309803921569,-0.003465909261392251
-0.005565969803921569,-0.001491095796119243
-0.005565629803921569,-0.001721490700400724
-0.005565289803921569,-0.003762131281183265
-0.005564949803921569,-0.003663390607920671
-0.005564609803921569,-0.004255834647501621
-0.005564269803921569,-0.01143099023799507
-0.005563929803921569,-0.007942153116001539
-0.005563589803921569,-0.002182280508964523
-0.005563249803921569,-0.008929559848648731
-0.00556290980392157,-0.008534597155594764
-0.005562569803921569,-0.005638204073193019
-0.005562229803921569,-0.005671117630947577
-0.005561889803921569,-0.007744671769480902
-0.005561549803921569,-0.005605290515438462
-0.005561209803921569,-0.005572376957683906
-0.005560869803921569,-0.008172548020289189
-0.005560529803921569,-0.008435856482330374
-0.005560189803921569,-0.01004862081230367
-0.005559849803921569,-0.01050941062086663
-0.005559509803921569,-0.01136516312248596
-0.005559169803921569,-0.01047649706311291
-0.005558829803921569,-0.01133224956472984
-0.005558489803921569,-0.01120059533371317
-0.005558149803921569,-0.009884053023530886
-0.005557809803921569,-0.01172721225778273
-0.005557469803921569,-0.0115626444690133
-0.005557129803921569,-0.0124842240861409
-0.005556789803921569,-0.01205634783533243
-0.005556449803921569,-0.01166138514227697
-0.005556109803921569,-0.01067397840964026
-0.005555769803921569,-0.01162847158452068
-0.005555429803921569,-0.01057523773637659
-0.005555089803921569,-0.009916966581285444
-0.005554749803921569,-0.0116613851422738
-0.005554409803921569,-0.01176012581554064
-0.005554069803921569,-0.01376785283856862
-0.005553729803921569,-0.00962074456149443
-0.005553389803921569,-0.01139807668024051
-0.005553049803921569,-0.01057523773637659
-0.005552709803921569,-0.008732078502121389
-0.005552369803921569,-0.01498565447548724
-0.005552029803921569,-0.01330706303000483
-0.005551689803921569,-0.01027901571658557
-0.005551349803921569,-0.01146390379574807
-0.005551009803921569,-0.01060815129413114
-0.005550669803921569,-0.009587831003739873
-0.005550329803921569,-0.009522003888229203
-0.005549989803921569,-0.008666251386612273
-0.005549649803921569,-0.004749538013819977
-0.005549309803921569,-0.008699164944367489
-0.005548969803921569,-0.009061214079666959
-0.005548629803921569,-0.007942153116012016
-0.005548289803921569,-0.009522003888232435
-0.005547949803921569,-0.01044358350535836
-0.005547609803921569,-0.009094127637421515
-0.005547269803921569,-0.009192868310685547
-0.005546929803921569,-0.00939034965721253
-0.005546589803921569,-0.01073980552514937
-0.005546249803921569,-0.01192469360431768
-0.005545909803921569,-0.01426155620488698
-0.005545569803921569,-0.01373493928081407
-0.005545229803921569,-0.01745417130707968
-0.005544889803921569,-0.01781622044237915
-0.005544549803921569,-0.01636802390117864
-0.005544209803921569,-0.01725668996055695
-0.005543869803921569,-0.0201530830429527
-0.005543529803921569,-0.02054804573600739
-0.005543189803921569,-0.01347163081878055
-0.005542849803921569,-0.01508439514875091
-0.005542509803921569,-0.01129933600697684
-0.00554216980392157,-0.01103602754494086
-0.005541829803921569,-0.01511730870650547
-0.005541489803921569,-0.01192469360431343
-0.005541149803921569,-0.01034484283209756
-0.005540809803921569,-0.01116768177595861
-0.005540469803921569,-0.0101802750433219
-0.005540129803921569,-0.0101473614855674
-0.005539789803921569,-0.0115626444690133
-0.005539449803921569,-0.01176012581554064
-0.005539109803921569,-0.009785312350270808
-0.005538769803921569,-0.01077271908290393
-0.005538429803921569,-0.01278044610593191
-0.005538089803921569,-0.0128791867791954
-0.005537749803921569,-0.01182595293104976
-0.005537409803921569,-0.01320832235674115
-0.005537069803921569,-0.01442612399365755
-0.005536729803921569,-0.01518313582201458
-0.005536389803921569,-0.01732251707606079
-0.005536049803921569,-0.01538061716854545
-0.005535709803921569,-0.01696046794076066
-0.005535369803921569,-0.01850740515522485
-0.005535029803921569,-0.01715794928729046
-0.005534689803921569,-0.01528187649527825
-0.005534349803921569,-0.01426155620488698
-0.005534009803921569,-0.01340580370327005
-0.005533669803921569,-0.0143273833203961
-0.005533329803921569,-0.01781622044237915
-0.005532989803921569,-0.0131754087989866
-0.005532649803921569,-0.009982793696794558
-0.005532309803921569,-0.01166138514227697
-0.005531969803921569,-0.01027901571658557
-0.005531629803921569,-0.01278044610593191
-0.005531289803921569,-0.01528187649527825
-0.005530949803921569,-0.01235256985512267
-0.005530609803921569,-0.01093728687167671
-0.005530269803921569,-0.01228674273961356
-0.005529929803921569,-0.01129933600697684
-0.005529589803921569,-0.01097020042943408
-0.005529249803921569,-0.01251713764389546
-0.005528909803921569,-0.01406407485835964
-0.005528569803921569,-0.01422864264713057
-0.005528229803921569,-0.01320832235674115
-0.005527889803921569,-0.01567683918833294
-0.005527549803921569,-0.01653259168995034
-0.005527209803921569,-0.0159401476503694
-0.005526869803921569,-0.01505148159099635
-0.005526529803921569,-0.01491982735998052
-0.005526189803921569,-0.01623636967016041
-0.005525849803921569,-0.01600597476587851
-0.005525509803921569,-0.01373493928081191
-0.005525169803921569,-0.01255005120165001
-0.005524829803921569,-0.01442612399365977
-0.005524489803921569,-0.01449195110916816
-0.005524149803921569,-0.0140969884161142
-0.005523809803921569,-0.01623636967016041
-0.005523469803921569,-0.01992268813868817
-0.005523129803921569,-0.02946761988749236
-0.005522789803921569,-0.04730676819046232
-0.005522449803921569,-0.06073549975436431
-0.005522109803921569,-0.08420286643332084
-0.005521769803921569,-0.1146479073562862
-0.005521429803921569,-0.1473968973221324
-0.005521089803921569,-0.1814295160402825
-0.005520749803921569,-0.2101301384022563
-0.005520409803921569,-0.2324455305598054
-0.005520069803921569,-0.2502188517473069
-0.005519729803921569,-0.2630551392715841
-0.005519389803921569,-0.270658171112873
-0.005519049803921569,-0.2705923439973777
-0.005518709803921569,-0.268716271205368
-0.005518369803921569,-0.2661490137005172
-0.005518029803921569,-0.2608828444597834
-0.005517689803921569,-0.2545305278131539
-0.005517349803921569,-0.2503175924205782
-0.005517009803921569,-0.2426158199060042
-0.005516669803921569,-0.2363622439326384
-0.005516329803921569,-0.2295820510352119
-0.005515989803921569,-0.2216827971741059
-0.005515649803921569,-0.2125657416760936
-0.005515309803921569,-0.2045019200262417
-0.005514969803921569,-0.1970963695314517
-0.005514629803921569,-0.1879464004756848
-0.005514289803921569,-0.1824169227729293
-0.005513949803921569,-0.1758342112220078
-0.005513609803921569,-0.1691198454400782
-0.005513269803921569,-0.1635903677373226
-0.005512929803921569,-0.1582912849388289
-0.005512589803921569,-0.1556582003184643
-0.005512249803921569,-0.1529922021403452
-0.005511909803921569,-0.1419990738503231
-0.005511569803921569,-0.1362062876855211
-0.005511229803921569,-0.1327832776790471
-0.005510889803921569,-0.1327503641212926
-0.005510549803921569,-0.1316313031576376
-0.005510209803921569,-0.1265626152634358
-0.005509869803921569,-0.1211318782339339
-0.005509529803921569,-0.1191570647686605
-0.005509189803921569,-0.113100970141822
-0.005508849803921569,-0.1093159110000389
-0.005508509803921569,-0.1043788773368644
-0.005508169803921569,-0.1006596453105994
-0.005507829803921569,-0.09723663530411948
-0.005507489803921569,-0.09394527952866974
-0.005507149803921569,-0.09223377452543277
-0.005506809803921569,-0.09177298471686222
-0.005506469803921569,-0.088053752690604
-0.005506129803921569,-0.08380790374026614
-0.005505789803921569,-0.08180017671723086
-0.005505449803921569,-0.07778472267118219
-0.005505109803921569,-0.0744933668957265
-0.005504769803921569,-0.07153114669781431
-0.005504429803921569,-0.07041208573416141
-0.005504089803921569,-0.06679159438116011
-0.005503749803921569,-0.06478386735812465
-0.005503409803921569,-0.0606696726388125
-0.005503069803921569,-0.06063675908105794
-0.005502729803921569,-0.05849737782701167
-0.005502389803921569,-0.05846446426925718
-0.005502049803921569,-0.06030762350351238
-0.005501709803921569,-0.05629216945744976
-0.005501369803921569,-0.05263876454670057
-0.005501029803921569,-0.0495448901177722
-0.005500689803921569,-0.04770173088352383
-0.005500349803921569,-0.05145387646753651
-0.005500009803921569,-0.0513880493520274
-0.00549966980392157,-0.04615479366906234
-0.005499329803921569,-0.04483825135887053
-0.005498989803921569,-0.04658266991986206
-0.005498649803921569,-0.04289635145135837
-0.005498309803921569,-0.04315965991338813
-0.005497969803921569,-0.04273178366257888
-0.005497629803921569,-0.04296217856686036
-0.005497289803921569,-0.04157980914116938
-0.005496949803921569,-0.04102027865934191
-0.005496609803921569,-0.04154689558341387
-0.005496269803921569,-0.03957208211814139
-0.005495929803921569,-0.03792640423041354
-0.005495589803921569,-0.03647820768921567
-0.005495249803921569,-0.03746561442184974
-0.005494909803921569,-0.03624781278493113
-0.005494569803921569,-0.03361472816457135
-0.005494229803921569,-0.03242984008540251
-0.005493889803921569,-0.03302228412498454
-0.005493549803921569,-0.03321976547151152
-0.005493209803921569,-0.03091581642869288
-0.005492869803921569,-0.03206779095010238
-0.005492529803921569,-0.03137660623725794
-0.005492189803921569,-0.03262732143192985
-0.005491849803921569,-0.03437173999292138
-0.005491509803921569,-0.03493127047474782
-0.005491169803921569,-0.02574838786122741
-0.005490829803921569,-0.02558382007245463
-0.005490489803921569,-0.02225955073924436
-0.005490149803921569,-0.02067969996702562
-0.005489809803921569,-0.02311530324086284
-0.005489469803921569,-0.02123923044885309
-0.005489129803921569,-0.01952772544561612
-0.005488789803921569,-0.02100883554457119
-0.005488449803921569,-0.02206206939271702
-0.005488109803921569,-0.02104174910232718
-0.005487769803921569,-0.02183167448843512
-0.005487429803921569,-0.02354317949167209
-0.005487089803921569,-0.02117340333334278
-0.005486749803921569,-0.02051513217825283
-0.005486409803921569,-0.02301656256759917
-0.005486069803921569,-0.02216081006597979
-0.005485729803921569,-0.02166710669966233
-0.005485389803921569,-0.02265451343229904
-0.005485049803921569,-0.02150253891089039
-0.005484709803921569,-0.02196332871945334
-0.005484369803921569,-0.02324695747188107
-0.005484029803921569,-0.02202915583496012
-0.005483689803921569,-0.02074552708253473
-0.005483349803921569,-0.02031765083172549
-0.005483009803921569,-0.01896819496378667
-0.005482669803921569,-0.01788204755788826
-0.005482329803921569,-0.01811244246217016
-0.005481989803921569,-0.01702629505626918
-0.005481649803921569,-0.01669715947872421
-0.005481309803921569,-0.02008725592744359
-0.005480969803921569,-0.02308238968309368
-0.005480629803921569,-0.01505148159099635
-0.005480289803921569,-0.01574266630384205
-0.005479949803921569,-0.01673007303648044
-0.005479609803921569,-0.01765165265360636
-0.005479269803921569,-0.02120631689109853
-0.00547892980392157,-0.02117340333334403
-0.005478589803921569,-0.01995560169642536
-0.005478249803921569,-0.01840866448196118
-0.005477909803921569,-0.01870488650175165
-0.005477569803921569,-0.01682881370974244
-0.005477229803921569,-0.01742125774932446
-0.005476889803921569,-0.01738834419156996
-0.005476549803921569,-0.01742125774932446
-0.005476209803921569,-0.01564392563057838
-0.005475869803921569,-0.01870488650174662
-0.005475529803921569,-0.01794787467339738
-0.005475189803921569,-0.01860614582848852
-0.005474849803921569,-0.01814535601992556
-0.005474509803921569,-0.01794787467339738
-0.005474169803921569,-0.01646676457444231
-0.005473829803921569,-0.01692755438300527
-0.005473489803921569,-0.01633511034342408
-0.005473149803921569,-0.01360328504979584
-0.005472809803921569,-0.01399824774284981
-0.005472469803921569,-0.01324123591449571
-0.005472129803921569,-0.01297792745245925
-0.005471789803921569,-0.0136691121653037
-0.005471449803921569,-0.01347163081877761
-0.005471109803921569,-0.01373493928081407
-0.005470769803921569,-0.01946189833009659
-0.005470429803921569,-0.01946189833010701
-0.005470089803921569,-0.01564392563057838
-0.005469749803921569,-0.01751999842258814
-0.005469409803921569,-0.01883654073277042
-0.005469069803921569,-0.02232537785475347
-0.005468729803921569,-0.02301656256759917
-0.005468389803921569,-0.01995560169642536
-0.005468049803921569,-0.01811244246217016
-0.005467709803921569,-0.01679590015198788
-0.005467369803921569,-0.01699338149851522
-0.005467029803921569,-0.01485400024446901
-0.005466689803921569,-0.01258296475940457
-0.005466349803921569,-0.01297792745245818
-0.005466009803921569,-0.01238548341287723
-0.005465669803921569,-0.01205634783533165
-0.005465329803921569,-0.0125171376438948
-0.005464989803921569,-0.01215508850859533
-0.005464649803921569,-0.0113322495647314
-0.005464309803921569,-0.01182595293104952
-0.005463969803921569,-0.01169429870003153
-0.005463629803921569,-0.01228674273961356
-0.005463289803921569,-0.01231965629737057
-0.005462949803921569,-0.01366911216530495
-0.005462609803921569,-0.01241839697063178
-0.005462269803921569,-0.01478817312895989
-0.005461929803921569,-0.01478817312895989
-0.005461589803921569,-0.01350454437653217
-0.005461249803921569,-0.01396533418509549
-0.005460909803921569,-0.01370202572305951
-0.005460569803921569,-0.01962646611887979
-0.005460229803921569,-0.02153545246863824
-0.005459889803921569,-0.01830992380869751
-0.005459549803921569,-0.01623636967016041
-0.005459209803921569,-0.01544644428405086
-0.005458869803921569,-0.01534770361078737
-0.005458529803921569,-0.01896819496378865
-0.005458189803921569,-0.01620345611240058
-0.005457849803921569,-0.01330706303000483
-0.005457509803921569,-0.01310958168347748
-0.00545716980392157,-0.006888919267877505
-0.005456829803921569,-0.01146390379574963
-0.005456489803921569,-0.01146390379574963
-0.005456149803921569,-0.01047649706311471
-0.005455809803921569,-0.01159555802676786
-0.005455469803921569,-0.01205634783533165
-0.005455129803921569,-0.0127475325481761
-0.005454789803921569,-0.01360328504979584
-0.005454449803921569,-0.014557778224678
-0.005454109803921569,-0.01357037149204308
-0.005453769803921569,-0.01416281553162331
-0.005453429803921569,-0.01488691380222357
-0.005453089803921569,-0.01301084101021722
-0.005452749803921569,-0.0129450138947047
-0.005452409803921569,-0.01067397840964026
-0.005452069803921569,-0.01149681735350269
-0.005451729803921569,-0.01054232417862203
-0.005451389803921569,-0.01222091562410444
-0.005451049803921569,-0.01113476821820603
-0.005450709803921569,-0.01143099023799507
-0.005450369803921569,-0.01547935784180559
-0.005450029803921569,-0.01863905938623733
-0.005449689803921569,-0.01659841880546054
-0.005449349803921569,-0.01162847158452241
-0.005449009803921569,-0.01169429870003141
-0.005448669803921569,-0.01120059533371317
-0.005448329803921569,-0.01462360534018711
-0.005447989803921569,-0.01580849341935116
-0.005447649803921569,-0.014557778224678
-0.005447309803921569,-0.01478817312895989
-0.005446969803921569,-0.01673007303647877
-0.005446629803921569,-0.0159401476503694
-0.005446289803921569,-0.01623636967016041
-0.005445949803921569,-0.01824409669318839
-0.005445609803921569,-0.01732251707606049
-0.005445269803921569,-0.01715794928728801
-0.005444929803921569,-0.01689464082525155
-0.005444589803921569,-0.01696046794076079
-0.005444249803921569,-0.01702629505626978
-0.005443909803921569,-0.01666424592096965
-0.005443569803921569,-0.01422864264713057
-0.005443229803921569,-0.01320832235674115
-0.005442889803921569,-0.01314249524123204
-0.005442549803921569,-0.01100311398718487
-0.005442209803921569,-0.01047649706311291
-0.005441869803921569,-0.01123350889146773
-0.005441529803921569,-0.01162847158452451
-0.005441189803921569,-0.01278044610593191
-0.005440849803921569,-0.01495274091773268
-0.005440509803921569,-0.01452486466692248
-0.005440169803921569,-0.01399824774285052
-0.005439829803921569,-0.01603888832363307
-0.005439489803921569,-0.01926441698356769
-0.005439149803921569,-0.01268170543266824
-0.005438809803921569,-0.007547190422957332
-0.005438469803921569,-0.01304375456796813
-0.005438129803921569,-0.01291210033695014
-0.005437789803921569,-0.01067397840964026
-0.005437449803921569,-0.01106894110269811
-0.005437109803921569,-0.01281335966368647
-0.005436769803921569,-0.01231965629736811
-0.00543642980392157,-0.01452486466691943
-0.005436089803921569,-0.01310958168347748
-0.005435749803921569,-0.01284627322144103
-0.005435409803921569,-0.01373493928081245
-0.005435069803921569,-0.01396533418509597
-0.005434729803921569,-0.01436029687815065
-0.005434389803921569,-0.01564392563057605
-0.005434049803921569,-0.01445903755141432
-0.005433709803921569,-0.01508439514875091
-0.005433369803921569,-0.01426155620488848
-0.005433029803921569,-0.01426155620488698
-0.005432689803921569,-0.01314249524123204
-0.005432349803921569,-0.01452486466692092
-0.005432009803921569,-0.01445903755141432
-0.005431669803921569,-0.01399824774285052
-0.005431329803921569,-0.01656550524770131
-0.005430989803921569,-0.01587432053486028
-0.005430649803921569,-0.01412990197386875
-0.005430309803921569,-0.01416281553162325
-0.005429969803921569,-0.01439321043590521
-0.005429629803921569,-0.0134058037032685
-0.005429289803921569,-0.01518313582201135
-0.005428949803921569,-0.01784913400013371
-0.005428609803921569,-0.01314249524123204
-0.005428269803921569,-0.01491982735997489
-0.005427929803921569,-0.01258296475940457
-0.005427589803921569,-0.01495274091773268
-0.005427249803921569,-0.01873780005950675
-0.005426909803921569,-0.01738834419156991
-0.005426569803921569,-0.01557809851506927
-0.005426229803921569,-0.01768456621136092
-0.005425889803921569,-0.01877071361726131
-0.005425549803921569,-0.01696046794076066
-0.005425209803921569,-0.01617054255465129
-0.005424869803921569,-0.01646676457444231
-0.005424529803921569,-0.01584140697710572
-0.005424189803921569,-0.01403116130060508
-0.005423849803921569,-0.01333997658775872
-0.005423509803921569,-0.01297792745245925
-0.005423169803921569,-0.01192469360431343
-0.005422829803921569,-0.01343871726102545
-0.005422489803921569,-0.01475525957120534
-0.005422149803921569,-0.01422864264713243
-0.005421809803921569,-0.01636802390118109
-0.005421469803921569,-0.01771747976911548
-0.005421129803921569,-0.01570975274608749
-0.005420789803921569,-0.01557809851506945
-0.005420449803921569,-0.01567683918833294
-0.005420109803921569,-0.0136361986075504
-0.005419769803921569,-0.01353745793428613
-0.005419429803921569,-0.01320832235674115
-0.005419089803921569,-0.01185886648880431
-0.005418749803921569,-0.01567683918832803
-0.005418409803921569,-0.01297792745245925
-0.005418069803921569,-0.008929559848648731
-0.005417729803921569,-0.009225781868440882
-0.005417389803921569,-0.009851139465776329
-0.005417049803921569,-0.0150185680332418
-0.005416709803921569,-0.01521604937976746
-0.005416369803921569,-0.01429446976264154
-0.005416029803921569,-0.01475525957120534
-0.005415689803921569,-0.01521604937976962
