Analysis/files/cmb03_wrd01/d2s08_ch31.csv

#Digilent WaveForms Oscilloscope Acquisition
#Device Name: ADP3450
#Serial Number: SN:210018B9D9B0
#Date Time: 2024-08-13 17:41:53.930.561.050
#Sample rate: 2.94118e+06Hz
#Samples: 32768
#Trigger: Source: Channel 3 Type: Edge Condition: Rising Level: 60 mV Hyst.: Auto HoldOff: 0 s
#Channel 3: Range: 200 mV/div Offset: 0 V Attenuation: 1 X Coupling: DC Bandwidth: 0 Hz Sample Mode: Average

Time (s),Channel 3 (V)
-0.005570398967452301,0.006408158064974882
-0.005570058967452301,0.005091615754789305
-0.005569718967452301,0.003281370078291956
-0.005569378967452301,0.001339470170773087
-0.005569038967452301,0.0005824583424164176
-0.005568698967452301,-0.0004378619479729968
-0.005568358967452301,2.292786059080275e-05
-0.005568018967452301,0.0001874956493625705
-0.005567678967452301,-0.0003720348324638825
-0.005567338967452301,-0.003663390607919593
-0.005566998967452301,-0.002544329644255791
-0.005566658967452301,0.0023268769034098
-0.005566318967452301,0.001240729497509416
-0.005565978967452301,0.003215542962775418
-0.005565638967452301,-0.0008657381987822392
-0.005565298967452301,-0.003465909261392251
-0.005564958967452301,-0.0004378619479732363
-0.005564618967452301,-0.0005695161789912252
-0.005564278967452301,-0.002774724548546551
-0.005563938967452301,-0.002972205895075989
-0.005563598967452301,-0.004124180416483393
-0.005563258967452301,-0.007580103980711889
-0.005562918967452301,-0.008435856482328818
-0.005562578967452301,-0.007876326000502903
-0.005562238967452301,-0.009324522541703417
-0.005561898967452301,-0.005276154937900256
-0.005561558967452301,-0.005309068495647449
-0.005561218967452301,-0.006263561670529605
-0.005560878967452301,-0.004321661763014267
-0.005560538967452301,-0.003597563492410479
-0.005560198967452301,-0.005769858304211248
-0.005559858967452301,-0.0008328246410366624
-0.005559518967452301,-0.004354575320765292
-0.005559178967452301,-0.007843412442748346
-0.005558838967452301,-0.007942153116011836
-0.005558498967452301,-0.008435856482330374
-0.005558158967452301,-0.009554917445985316
-0.005557818967452301,-0.008995386964158863
-0.005557478967452301,-0.008764992059875945
-0.005557138967452301,-0.01024610215883101
-0.005556798967452301,-0.01445903755140666
-0.005556458967452301,-0.007514276865202775
-0.005556118967452301,-0.006823092152357076
-0.005555778967452301,-0.006757265036848081
-0.005555438967452301,-0.007185141287657204
-0.005555098967452301,-0.01324123591449571
-0.005554758967452301,-0.01284627322144175
-0.005554418967452301,-0.01080563264065849
-0.005554078967452301,-0.01047649706311291
-0.005553738967452301,-0.01238548341287723
-0.005553398967452301,-0.01169429870003153
-0.005553058967452301,-0.01278044610593191
-0.005552718967452301,-0.01324123591449571
-0.005552378967452301,-0.008501683597839487
-0.005552038967452301,-0.009291608983948858
-0.005551698967452301,-0.01166138514227697
-0.005551358967452301,-0.01133224956472625
-0.005551018967452301,-0.008501683597839487
-0.005550678967452301,-0.008106720904784802
-0.005550338967452301,-0.01192469360431097
-0.005549998967452301,-0.01057523773637659
-0.005549658967452301,-0.01218800206634988
-0.005549318967452301,-0.01149681735350544
-0.005548978967452301,-0.01218800206634988
-0.005548638967452301,-0.01412990197386875
-0.005548298967452301,-0.01531479005302844
-0.005547958967452301,-0.01291210033695014
-0.005547618967452301,-0.0129450138947047
-0.005547278967452301,-0.01439321043590407
-0.005546938967452301,-0.01376785283856862
-0.005546598967452301,-0.01491982735997812
-0.005546258967452301,-0.01541353072628193
-0.005545918967452301,-0.007415536191939104
-0.005545578967452301,-0.006625610805829733
-0.005545238967452301,-0.005374895611159257
-0.005544898967452301,-0.006856005710111633
-0.005544558967452301,-0.009324522541703417
-0.005544218967452301,-0.009554917445985496
-0.005543878967452301,-0.009653658119248986
-0.005543538967452301,-0.01034484283209469
-0.005543198967452301,-0.01225382918185672
-0.005542858967452301,-0.01100311398718583
-0.005542518967452301,-0.01241839697063178
-0.005542178967452301,-0.01429446976263813
-0.005541838967452301,-0.01301084101021381
-0.005541498967452301,-0.0111018546604495
-0.005541158967452301,-0.01324123591449182
-0.005540818967452301,-0.01353745793428673
-0.005540478967452301,-0.0111018546604495
-0.005540138967452301,-0.009719485234760617
-0.005539798967452301,-0.01004862081230367
-0.005539458967452301,-0.009719485234758102
-0.005539118967452301,-0.01110185466044699
-0.005538778967452301,-0.01113476821820406
-0.005538438967452301,-0.01123350889146773
-0.005538098967452301,-0.01235256985512063
-0.005537758967452301,-0.01307666812572293
-0.005537418967452301,-0.01162847158452241
-0.005537078967452301,-0.01083854619841448
-0.005536738967452301,-0.01235256985512267
-0.005536398967452301,-0.01116768177595861
-0.005536058967452301,-0.01462360534018082
-0.005535718967452301,-0.008468770040084931
-0.005535378967452301,-0.004815365129329092
-0.005535038967452301,-0.008699164944359766
-0.005534698967452301,-0.01077271908290393
-0.005534358967452301,-0.007481363307448217
-0.005534018967452301,-0.006757265036849279
-0.005533678967452301,-0.00860042427110316
-0.005533338967452301,-0.00860042427110316
-0.005532998967452301,-0.00767884465397556
-0.005532658967452301,-0.009851139465776329
-0.005532318967452301,-0.01097020042943127
-0.005531978967452301,-0.01083854619841304
-0.005531638967452301,-0.01264879187491368
-0.005531298967452301,-0.01419572908937787
-0.005530958967452301,-0.0124842240861409
-0.005530618967452301,-0.01399824774285052
-0.005530278967452301,-0.01403116130060508
-0.005529938967452301,-0.01212217495084077
-0.005529598967452301,-0.01241839697063376
-0.005529258967452301,-0.01350454437653217
-0.005528918967452301,-0.01241839697063178
-0.005528578967452301,-0.01185886648880335
-0.005528238967452301,-0.0113322495647314
-0.005527898967452301,-0.01080563264065849
-0.005527558967452301,-0.01001570725455067
-0.005527218967452301,-0.0108714597561676
-0.005526878967452301,-0.01031192927434013
-0.005526538967452301,-0.01041066994760775
-0.005526198967452301,-0.01258296475940457
-0.005525858967452301,-0.01281335966368647
-0.005525518967452301,-0.01686172726748957
-0.005525178967452301,-0.01278044610593191
-0.005524838967452301,-0.014557778224678
-0.005524498967452301,-0.01120059533371605
-0.005524158967452301,-0.01278044610593191
-0.005523818967452301,-0.01715794928728801
-0.005523478967452301,-0.01758582553810892
-0.005523138967452301,-0.02400396930023588
-0.005522798967452301,-0.03848593471224102
-0.005522458967452301,-0.05721374907463322
-0.005522118967452301,-0.08426869354882996
-0.005521778967452301,-0.1143187717787406
-0.005521438967452301,-0.1453891702991
-0.005521098967452301,-0.1770190993011719
-0.005520758967452301,-0.2064109063759914
-0.005520418967452301,-0.2295820510351574
-0.005520078967452301,-0.248573173859579
-0.005519738967452301,-0.266116100142758
-0.005519398967452301,-0.2707239982283876
-0.005519058967452301,-0.2731596015022332
-0.005518718967452301,-0.2718430591920509
-0.005518378967452301,-0.2664452357203134
-0.005518038967452301,-0.2603233139779559
-0.005517698967452301,-0.2533456397339898
-0.005517358967452301,-0.245676780777192
-0.005517018967452301,-0.237053428645484
-0.005516678967452301,-0.2308327662298728
-0.005516338967452301,-0.2154621347585225
-0.005515998967452301,-0.2166141092799041
-0.005515658967452301,-0.2109200637883657
-0.005515318967452301,-0.2089123367653414
-0.005514978967452301,-0.2002560710758892
-0.005514638967452301,-0.1869919073008027
-0.005514298967452301,-0.1818903058488556
-0.005513958967452301,-0.1729378181396068
-0.005513618967452301,-0.1703705606347513
-0.005513278967452301,-0.1675729082256191
-0.005512938967452301,-0.1575671866682286
-0.005512598967452301,-0.1529263750248361
-0.005512258967452301,-0.1497666734803986
-0.005511918967452301,-0.1434801839492782
-0.005511578967452301,-0.1380165333620217
-0.005511238967452301,-0.132717450563538
-0.005510898967452301,-0.1281753795934091
-0.005510558967452301,-0.123501654392262
-0.005510218967452301,-0.120901483329652
-0.005509878967452301,-0.1175772139964417
-0.005509538967452301,-0.1126401803332582
-0.005509198967452301,-0.1079006280166019
-0.005508858967452301,-0.1030952485844316
-0.005508518967452301,-0.1003305097330538
-0.005508178967452301,-0.09875065896083507
-0.005507838967452301,-0.09463646424150557
-0.005507498967452301,-0.0892057272120135
-0.005507158967452301,-0.08700051884245819
-0.005506818967452301,-0.0859801985520601
-0.005506478967452301,-0.08222805296804742
-0.005506138967452301,-0.07969370902094652
-0.005505798967452301,-0.07633652612997863
-0.005505458967452301,-0.07465793468449927
-0.005505118967452301,-0.07215650429515294
-0.005504778967452301,-0.073143911027784
-0.005504438967452301,-0.07005003659886128
-0.005504098967452301,-0.06280905389285871
-0.005503758967452301,-0.063631892836717
-0.005503418967452301,-0.06053801840779428
-0.005503078967452301,-0.06307236235489516
-0.005502738967452301,-0.06435599110731614
-0.005502398967452301,-0.06063675908105794
-0.005502058967452301,-0.05849737782701173
-0.005501718967452301,-0.05856320494251552
-0.005501378967452301,-0.05563389830236527
-0.005501038967452301,-0.0527704187777188
-0.005500698967452301,-0.05438318310768862
-0.005500358967452301,-0.05247419675792778
-0.005500018967452301,-0.0497752850220541
-0.005499678967452301,-0.04911701386696416
-0.005499338967452301,-0.04872205117390827
-0.005498998967452301,-0.04602313943803459
-0.005498658967452301,-0.04460785645459121
-0.005498318967452301,-0.04253430231605154
-0.005497978967452301,-0.03976956346466874
-0.005497638967452301,-0.03996704481119572
-0.005497298967452301,-0.04016452615772342
-0.005496958967452301,-0.03809097201918633
-0.005496618967452301,-0.03759726865286887
-0.005496278967452301,-0.03904546519406848
-0.005495938967452301,-0.03753144153735886
-0.005495598967452301,-0.03328559258702871
-0.005495258967452301,-0.03239692652764795
-0.005494918967452301,-0.03052085373563819
-0.005494578967452301,-0.03229818585438105
-0.005494238967452301,-0.03377929595333935
-0.005493898967452301,-0.02696618949814603
-0.005493558967452301,-0.02657122680509206
-0.005493218967452301,-0.02815107757731008
-0.005492878967452301,-0.02986258258054705
-0.005492538967452301,-0.03229818585437985
-0.005492198967452301,-0.0317386553725568
-0.005491858967452301,-0.02989549613830161
-0.005491518967452301,-0.02917139786770267
-0.005491178967452301,-0.02808525046180097
-0.005490838967452301,-0.02653831324733678
-0.005490498967452301,-0.02288490833658094
-0.005490158967452301,-0.02304947612535373
-0.005489818967452301,-0.02216081006598069
-0.005489478967452301,-0.01962646611887979
-0.005489138967452301,-0.01975812034989802
-0.005488798967452301,-0.02005434236968903
-0.005488458967452301,-0.02008725592744359
-0.005488118967452301,-0.01936315765684489
-0.005487778967452301,-0.02021891015846182
-0.005487438967452301,-0.01893528140603409
-0.005487098967452301,-0.01926441698358242
-0.005486758967452301,-0.02077844064028929
-0.005486418967452301,-0.02008725592744359
-0.005486078967452301,-0.01949481188786456
-0.005485738967452301,-0.02114048977558942
-0.005485398967452301,-0.02189750160394423
-0.005485058967452301,-0.02252285920128351
-0.005484718967452301,-0.02400396930023588
-0.005484378967452301,-0.02469515401308158
-0.005484038967452301,-0.02663705392060243
-0.005483698967452301,-0.02772320132650084
-0.005483358967452301,-0.01982394746540713
-0.005483018967452301,-0.01676298659423326
-0.005482678967452301,-0.01673007303647877
-0.005482338967452301,-0.02110757621783486
-0.005481998967452301,-0.01771747976911021
-0.005481658967452301,-0.01482108668671445
-0.005481318967452301,-0.01659841880546054
-0.005480978967452301,-0.01620345611240567
-0.005480638967452301,-0.01610471543914218
-0.005480298967452301,-0.01837575092420662
-0.005479958967452301,-0.01047649706312381
-0.005479618967452301,-0.01646676457444231
-0.005479278967452301,-0.01903402207929776
-0.005478938967452301,-0.01439321043591365
-0.005478598967452301,-0.01452486466692344
-0.005478258967452301,-0.01788204755788826
-0.005477918967452301,-0.01689464082525335
-0.005477578967452301,-0.01751999842258814
-0.005477238967452301,-0.01287918677919558
-0.005476898967452301,-0.00767884465398502
-0.005476558967452301,-0.01343871726102305
-0.005476218967452301,-0.01745417130707902
-0.005475878967452301,-0.01110185466046106
-0.005475538967452301,-0.01251713764389546
-0.005475198967452301,-0.0140969884161142
-0.005474858967452301,-0.01656550524770149
-0.005474518967452301,-0.01696046794076066
-0.005474178967452301,-0.01886945429052498
-0.005473838967452301,-0.01840866448196202
-0.005473498967452301,-0.01666424592096965
-0.005473158967452301,-0.01699338149851522
-0.005472818967452301,-0.008337115809082448
-0.005472478967452301,-0.01330706303000483
-0.005472138967452301,-0.01116768177595861
-0.005471798967452301,-0.01103602754494062
-0.005471458967452301,-0.009127041195176074
-0.005471118967452301,-0.009554917445985316
-0.005470778967452301,-0.009785312350266796
-0.005470438967452301,-0.009028300521912402
-0.005470098967452301,-0.01004862081230367
-0.005469758967452301,-0.01149681735350419
-0.005469418967452301,-0.0115626444690133
-0.005469078967452301,-0.01047649706311291
-0.005468738967452301,-0.01238548341287723
-0.005468398967452301,-0.01281335966368647
-0.005468058967452301,-0.01406407485835964
-0.005467718967452301,-0.01719086284504256
-0.005467378967452301,-0.008271288693557588
-0.005467038967452301,-0.008929559848648731
-0.005466698967452301,-0.009291608983948858
-0.005466358967452301,-0.01310958168348497
-0.005466018967452301,-0.01722377640279712
-0.005465678967452301,-0.01544644428405104
-0.005465338967452301,-0.01534770361078898
-0.005464998967452301,-0.01623636967016041
-0.005464658967452301,-0.01758582553809725
-0.005464318967452301,-0.01725668996054659
-0.005463978967452301,-0.01445903755141432
-0.005463638967452301,-0.01357037149204128
-0.005463298967452301,-0.01468943245569407
-0.005462958967452301,-0.01350454437653217
-0.005462618967452301,-0.01241839697063178
-0.005462278967452301,-0.01248422408613928
-0.005461938967452301,-0.01159555802676786
-0.005461598967452301,-0.01205634783533165
-0.005461258967452301,-0.01310958168347557
-0.005460918967452301,-0.01205634783533165
-0.005460578967452301,-0.01136516312248596
-0.005460238967452301,-0.01366911216530537
-0.005459898967452301,-0.01389950706958685
-0.005459558967452301,-0.01231965629736811
-0.005459218967452301,-0.01231965629736877
-0.005458878967452301,-0.01268170543266824
-0.005458538967452301,-0.01093728687167671
-0.005458198967452301,-0.01113476821820076
-0.005457858967452301,-0.009324522541703417
-0.005457518967452301,-0.01208926139308621
-0.005457178967452301,-0.01274753254817616
-0.005456838967452301,-0.008468770040084931
-0.005456498967452301,-0.00688891926786619
-0.005456158967452301,-0.007218054845411163
-0.005455818967452301,-0.01357037149204128
-0.005455478967452301,-0.01580849341935116
-0.005455138967452301,-0.01324123591450038
-0.005454798967452301,-0.01360328504979584
-0.005454458967452301,-0.01393242062734141
-0.005454118967452301,-0.01465651889794035
-0.005453778967452301,-0.01547935784180559
-0.005453438967452301,-0.01389950706958685
-0.005453098967452301,-0.01235256985512548
-0.005452758967452301,-0.01301084101021381
-0.005452418967452301,-0.01350454437653217
-0.005452078967452301,-0.01228674273961577
-0.005451738967452301,-0.0124842240861409
-0.005451398967452301,-0.01208926139308621
-0.005451058967452301,-0.01199052071982272
-0.005450718967452301,-0.01291210033695014
-0.005450378967452301,-0.01330706303000483
-0.005450038967452301,-0.01169429870003446
-0.005449698967452301,-0.01264879187491368
-0.005449358967452301,-0.01419572908937787
-0.005449018967452301,-0.01294501389470697
-0.005448678967452301,-0.01403116130060508
-0.005448338967452301,-0.01261587831715913
-0.005447998967452301,-0.01195760716206798
-0.005447658967452301,-0.01231965629736811
-0.005447318967452301,-0.01350454437653217
-0.005446978967452301,-0.01534770361078737
-0.005446638967452301,-0.009456176772721644
-0.005446298967452301,-0.01057523773637659
-0.005445958967452301,-0.008139634462539359
-0.005445618967452301,-0.007250968403176735
-0.005445278967452301,-0.01297792745245925
-0.005444938967452301,-0.0115626444690133
-0.005444598967452301,-0.008172548020296433
-0.005444258967452301,-0.009554917445985316
-0.005443918967452301,-0.009587831003739873
-0.005443578967452301,-0.009818225908022969
-0.005443238967452301,-0.01047649706311291
-0.005442898967452301,-0.009587831003739873
-0.005442558967452301,-0.009159954752932067
-0.005442218967452301,-0.009949880139040001
-0.005441878967452301,-0.01169429870003153
-0.005441538967452301,-0.01067397840964229
-0.005441198967452301,-0.0117930393732952
-0.005440858967452301,-0.01268170543266824
-0.005440518967452301,-0.01185886648880701
-0.005440178967452301,-0.01333997658775938
-0.005439838967452301,-0.01245131052838634
-0.005439498967452301,-0.01110185466044675
-0.005439158967452301,-0.009587831003739873
-0.005438818967452301,-0.01146390379574963
-0.005438478967452301,-0.01024610215883077
-0.005438138967452301,-0.01011444792781279
-0.005437798967452301,-0.01050941062086747
-0.005437458967452301,-0.01034484283209876
-0.005437118967452301,-0.01258296475940457
-0.005436778967452301,-0.01564392563057838
-0.005436438967452301,-0.01686172726749478
-0.005436098967452301,-0.0104106699476038
-0.005435758967452301,-0.01113476821820406
-0.005435418967452301,-0.01080563264065908
-0.005435078967452301,-0.01090437331392216
-0.005434738967452301,-0.01567683918833294
-0.005434398967452301,-0.01360328504979961
-0.005434058967452301,-0.0117930393732952
-0.005433718967452301,-0.01301084101021381
-0.005433378967452301,-0.01449195110916619
-0.005433038967452301,-0.01327414947225027
-0.005432698967452301,-0.01623636967016041
-0.005432358967452301,-0.01617054255465141
-0.005432018967452301,-0.01551227139956015
-0.005431678967452301,-0.01452486466692344
-0.005431338967452301,-0.01570975274608534
-0.005430998967452301,-0.01360328504979584
-0.005430658967452301,-0.0129450138947047
-0.005430318967452301,-0.01261587831715972
-0.005429978967452301,-0.01037775638984924
-0.005429638967452301,-0.003498822819146808
-0.005429298967452301,-0.007613017538458963
-0.005428958967452301,-0.007250968403166318
-0.005428618967452301,-0.007547190422957332
-0.005428278967452301,-0.01021318860107161
-0.005427938967452301,-0.01067397840964026
-0.005427598967452301,-0.01090437331392216
-0.005427258967452301,-0.01357037149204128
-0.005426918967452301,-0.01314249524123204
-0.005426578967452301,-0.0140969884161142
-0.005426238967452301,-0.01775039332687003
-0.005425898967452301,-0.01649967813219686
-0.005425558967452301,-0.01037775638984924
-0.005425218967452301,-0.01103602754494038
-0.005424878967452301,-0.0104106699476038
-0.005424538967452301,-0.0117930393732952
-0.005424198967452301,-0.01515022226426002
-0.005423858967452301,-0.01370202572305819
-0.005423518967452301,-0.01297792745245925
-0.005423178967452301,-0.01508439514875091
-0.005422838967452301,-0.01728960351830222
-0.005422498967452301,-0.01508439514875091
-0.005422158967452301,-0.01314249524123204
-0.005421818967452301,-0.01419572908937691
-0.005421478967452301,-0.01366911216530495
-0.005421138967452301,-0.01376785283856862
-0.005420798967452301,-0.01245131052838167
-0.005420458967452301,-0.009884053023530886
-0.005420118967452301,-0.00869916494436683
-0.005419778967452301,-0.00869916494436683
-0.005419438967452301,-0.00869916494436683
-0.005419098967452301,-0.006691437921338847
-0.005418758967452301,-0.008732078502122168
-0.005418418967452301,-0.009159954752930631
-0.005418078967452301,-0.01152973091125874
-0.005417738967452301,-0.01199052071982069
-0.005417398967452301,-0.01097020042943127
-0.005417058967452301,-0.01136516312248596
-0.005416718967452301,-0.01366911216530507
-0.005416378967452301,-0.01373493928081407
-0.005416038967452301,-0.01376785283856862
