Analysis/files/cmb03_wrd01/d2s07_ch12.csv

#Digilent WaveForms Oscilloscope Acquisition
#Device Name: ADP3450
#Serial Number: SN:210018B9D9B0
#Date Time: 2024-08-13 16:20:42.322.183.780
#Sample rate: 2.94118e+06Hz
#Samples: 32768
#Trigger: Source: Channel 3 Type: Edge Condition: Rising Level: 60 mV Hyst.: Auto HoldOff: 0 s
#Channel 3: Range: 200 mV/div Offset: 0 V Attenuation: 1 X Coupling: DC Bandwidth: 0 Hz Sample Mode: Average

Time (s),Channel 3 (V)
-0.005570303480333731,0.005684059794374625
-0.00556996348033373,0.007527219028632098
-0.00556962348033373,0.008777934223302994
-0.005569283480333731,0.005157442870301712
-0.00556894348033373,0.003050975174009158
-0.00556860348033373,0.0025572718076917
-0.005568263480333731,0.002293963345655243
-0.00556792348033373,0.001701519306072976
-0.00556758348033373,0.001569865075054987
-0.005567243480333731,-0.0002732941592002112
-0.00556690348033373,0.00150403795954725
-0.00556656348033373,0.002261049787900686
-0.005566223480333731,0.001273643055263973
-0.00556588348033373,0.00104324815098363
-0.00556554348033373,0.001899000652600558
-0.005565203480333731,0.002623098923200814
-0.00556486348033373,0.004433344599701036
-0.00556452348033373,0.004202949695419555
-0.005564183480333731,0.001668605748318658
-0.00556384348033373,0.001635692190566136
-0.00556350348033373,0.002754753154219042
-0.005563163480333731,-0.0005366026212366681
-0.005562823480333731,-0.003169687241596447
-0.00556248348033373,-0.002346848297737309
-0.005562143480333731,-0.001359441565100596
-0.005561803480333731,-0.006033166766239203
-0.00556146348033373,-0.004124180416483393
-0.005561123480333731,0.002623098923200814
-0.005560783480333731,-0.002412675413237263
-0.00556044348033373,-0.004255834647501621
-0.005560103480333731,-0.003005119452828451
-0.005559763480333731,-0.002675983875283478
-0.00555942348033373,-0.003268427914864908
-0.005559083480333731,-0.001918972046928067
-0.005558743480333731,-0.002050626277946056
-0.00555840348033373,-0.002017712720191738
-0.00555806348033373,-0.0004049483902184396
-0.005557723480333731,-0.0008986517565358983
-0.00555738348033373,-0.0003062077169547683
-0.00555704348033373,-0.001556922911627938
-0.005556703480333731,-0.002840551664053331
-0.00555636348033373,-0.00267598387528288
-0.00555602348033373,-0.001984799162437181
-0.005555683480333731,-0.002774724548545114
-0.00555534348033373,-0.003729217723428708
-0.00555500348033373,-0.002708897433037437
-0.005554663480333731,-0.004387488878516797
-0.00555432348033373,-0.004979932918101878
-0.00555398348033373,-0.004255834647501621
-0.005553643480333731,-0.004881192244838206
-0.00555330348033373,-0.00665852436358429
-0.00555296348033373,-0.004881192244838206
-0.005552623480333731,-0.005111587149120106
-0.00555228348033373,-0.007086400614393532
-0.00555194348033373,-0.005605290515438462
-0.005551603480333731,-0.009423263214967087
-0.00555126348033373,-0.006395215901549151
-0.00555092348033373,-0.00711931417214809
-0.005550583480333731,-0.00517741426462922
-0.00555024348033373,-0.004617883782807197
-0.00554990348033373,-0.007613017538466446
-0.005549563480333731,-0.00767884465397556
-0.00554922348033373,-0.005440722726666395
-0.00554888348033373,-0.005835685419720362
-0.005548543480333731,-0.006066080324002262
-0.00554820348033373,-0.006625610805828416
-0.00554786348033373,-0.005901512535229476
-0.005547523480333731,-0.005638204073193019
-0.00554718348033373,-0.006526870132566062
-0.00554684348033373,-0.006526870132566062
-0.005546503480333731,-0.006362302343793276
-0.00554616348033373,-0.007942153116008783
-0.00554582348033373,-0.006164820997265934
-0.005545483480333731,-0.004420402436274407
-0.00554514348033373,-0.005736944746459504
-0.00554480348033373,-0.007283881960920875
-0.005544463480333731,-0.006131907439511376
-0.00554412348033373,-0.007909239558260693
-0.00554378348033373,-0.009686571677003543
-0.005543443480333731,-0.007876326000502903
-0.00554310348033373,-0.007152227729904383
-0.00554276348033373,-0.008106720904784802
-0.005542423480333731,-0.006625610805829733
-0.005542083480333731,-0.005868598977476297
-0.00554174348033373,-0.007152227729902647
-0.005541403480333731,-0.006526870132566062
-0.005541063480333731,-0.01031192927433324
-0.00554072348033373,-0.005835685419720362
-0.005540383480333731,-0.004124180416483393
-0.005540043480333731,-0.003762131281183924
-0.00553970348033373,-0.007843412442748346
-0.005539363480333731,-0.01050941062086747
-0.005539023480333731,-0.006856005710118279
-0.00553868348033373,-0.008304202251312145
-0.005538343480333731,-0.009949880139040001
-0.005538003480333731,-0.008896646290896088
-0.00553766348033373,-0.01050941062086747
-0.005537323480333731,-0.008337115809066702
-0.005536983480333731,-0.004947019360353487
-0.00553664348033373,-0.01057523773637659
-0.00553630348033373,-0.009324522541703417
-0.005535963480333731,-0.004058353300983857
-0.00553562348033373,-0.005539463399929348
-0.00553528348033373,-0.008139634462539359
-0.005534943480333731,-0.007448449749694918
-0.00553460348033373,-0.008172548020293918
-0.00553426348033373,-0.004881192244838206
-0.005533923480333731,-0.005374895611155665
-0.00553358348033373,-0.01067397840964026
-0.00553324348033373,-0.00142526868060971
-0.005532903480333731,-0.006559783690320619
-0.00553256348033373,-0.005704031188702134
-0.00553222348033373,-0.008830819175385059
-0.005531883480333731,-0.007415536191939104
-0.00553154348033373,-0.006625610805829733
-0.00553120348033373,-0.00869916494436683
-0.005530863480333731,-0.008106720904784802
-0.00553052348033373,-0.008337115809066702
-0.00553018348033373,-0.008830819175385059
-0.005529843480333731,-0.009357436099457973
-0.00552950348033373,-0.007843412442750022
-0.00552916348033373,-0.008764992059875945
-0.005528823480333731,-0.009192868310685188
-0.00552848348033373,-0.008402942924575338
-0.00552814348033373,-0.008139634462539359
-0.005527803480333731,-0.008238375135803031
-0.00552746348033373,-0.007514276865198225
-0.00552712348033373,-0.005012846475856435
-0.005526783480333731,-0.005078673591365549
-0.00552644348033373,-0.005473636284419037
-0.00552610348033373,-0.004815365129329092
-0.005525763480333731,-0.004025439743219721
-0.00552542348033373,-0.003959612627721623
-0.00552508348033373,-0.01001570725454911
-0.005524743480333731,-0.007744671769484675
-0.00552440348033373,-0.002511416086505484
-0.00552406348033373,2.292786059080275e-05
-0.005523723480333731,-0.0008986517565367963
-0.00552338348033373,-0.008995386964171794
-0.00552304348033373,-0.01666424592096965
-0.005522703480333731,-0.02762446065323717
-0.00552236348033373,-0.0480637800188679
-0.00552202348033373,-0.07597447699468154
-0.005521683480333731,-0.1082955907096566
-0.00552134348033373,-0.1400242603851074
-0.00552100348033373,-0.1717529300604428
-0.005520663480333731,-0.2011118235775077
-0.005520323480333731,-0.22681731218377
-0.00551998348033373,-0.2431095232723225
-0.005519643480333731,-0.2547938362751903
-0.005519303480333731,-0.2622652138854612
-0.00551896348033373,-0.2628576579250568
-0.005518623480333731,-0.2617715105191564
-0.005518283480333731,-0.255188798968257
-0.00551794348033373,-0.2472895451071513
-0.005517603480333731,-0.2389953285530029
-0.005517263480333731,-0.2317543458470135
-0.00551692348033373,-0.2213865751543149
-0.005516583480333731,-0.2123024332140571
-0.005516243480333731,-0.2052589318545947
-0.00551590348033373,-0.1985116525148977
-0.00551556348033373,-0.1924884714458137
-0.005515223480333731,-0.1861361547991957
-0.00551488348033373,-0.1814953431557917
-0.00551454348033373,-0.1795205296905182
-0.005514203480333731,-0.1704034741925225
-0.00551386348033373,-0.1642815524501583
-0.00551352348033373,-0.1567772612821193
-0.005513183480333731,-0.1518731411766992
-0.00551284348033373,-0.1516098327146538
-0.00551250348033373,-0.145125861837006
-0.005512163480333731,-0.1363379419165393
-0.00551182348033373,-0.1319604387351832
-0.00551148348033373,-0.1261676525703812
-0.005511143480333731,-0.1215268409269886
-0.00551080348033373,-0.1161619310129958
-0.00551046348033373,-0.110500799079212
-0.005510123480333731,-0.1067486534951924
-0.00550978348033373,-0.1033585570464731
-0.00550944348033373,-0.09993554703999913
-0.005509103480333731,-0.0961175743404705
-0.00550876348033373,-0.09601883366720253
-0.00550842348033373,-0.09364905750887872
-0.005508083480333731,-0.09045644240668668
-0.00550774348033373,-0.0874613086510159
-0.00550740348033373,-0.08410412576005716
-0.005507063480333731,-0.08120773267765613
-0.00550672348033373,-0.07844299382626856
-0.00550638348033373,-0.07580990920590877
-0.005506043480333731,-0.07130075179353446
-0.00550570348033373,-0.06889806207744777
-0.00550536348033373,-0.06669285370789646
-0.005505023480333731,-0.06188747427573112
-0.00550468348033373,-0.05905690830884219
-0.00550434348033373,-0.06070258619656706
-0.005504003480333731,-0.05853029138476629
-0.00550366348033373,-0.05198049339160601
-0.00550332348033373,-0.05010442059959967
-0.005502983480333731,-0.04605605299578915
-0.00550264348033373,-0.04878787828942212
-0.00550230348033373,-0.0513880493520274
-0.005501963480333731,-0.04661558347761662
-0.00550162348033373,-0.04470659712785362
-0.00550128348033373,-0.04543069539845256
-0.005500943480333731,-0.04371919039521559
-0.00550060348033373,-0.04187603116095902
-0.00550026348033373,-0.04111901933260558
-0.005499923480333731,-0.03924294654059583
-0.005499583480333731,-0.03730104663308049
-0.00549924348033373,-0.03753144153735886
-0.005498903480333731,-0.03529331961004897
-0.005498563480333731,-0.03295645700947968
-0.00549822348033373,-0.0328906298939663
-0.005497883480333731,-0.03239692652764795
-0.005497543480333731,-0.03091581642869557
-0.00549720348033373,-0.03052085373563819
-0.005496863480333731,-0.03002715036931984
-0.005496523480333731,-0.02989549613830185
-0.00549618348033373,-0.02900683007892857
-0.005495843480333731,-0.02848021315485565
-0.005495503480333731,-0.02492554891736995
-0.00549516348033373,-0.02449767266655424
-0.00549482348033373,-0.02423436420451779
-0.005494483480333731,-0.02314821679861937
-0.00549414348033373,-0.02288490833658094
-0.00549380348033373,-0.02732823863344615
-0.005493463480333731,-0.02357609304943347
-0.00549312348033373,-0.01906693563705232
-0.00549278348033373,-0.01863905938624308
-0.005492443480333731,-0.01547935784181134
-0.00549210348033373,-0.01811244246217016
-0.00549176348033373,-0.02031765083172549
-0.005491423480333731,-0.01712503572953926
-0.00549108348033373,-0.01844157803971573
-0.00549074348033373,-0.01804661534666105
-0.005490403480333731,-0.01926441698357966
-0.00549006348033373,-0.01840866448196118
-0.00548972348033373,-0.01926441698357966
-0.005489383480333731,-0.01919858986807055
-0.00548904348033373,-0.01623636967016041
-0.00548870348033373,-0.01649967813219686
-0.005488363480333731,-0.01748708486483358
-0.00548802348033373,-0.01524896293751148
-0.00548768348033373,-0.008534597155594046
-0.005487343480333731,-0.01422864264713243
-0.00548700348033373,-0.01567683918833228
-0.00548666348033373,-0.01531479005303281
-0.005486323480333731,-0.01636802390117864
-0.00548598348033373,-0.01531479005303245
-0.00548564348033373,-0.01511730870650547
-0.005485303480333731,-0.0159401476503694
-0.00548496348033373,-0.01340580370326999
-0.00548462348033373,-0.01422864264713243
-0.005484283480333731,-0.014557778224678
-0.00548394348033373,-0.01340580370326892
-0.00548360348033373,-0.0136361986075504
-0.005483263480333731,-0.01715794928728801
-0.00548292348033373,-0.01271461899041573
-0.00548258348033373,-0.008830819175385059
-0.005482243480333731,-0.009522003888230759
-0.00548190348033373,-0.007613017538472913
-0.00548156348033373,-0.01116768177595861
-0.005481223480333731,-0.0124842240861409
-0.00548088348033373,-0.01087145975616526
-0.00548054348033373,-0.009587831003739873
-0.005480203480333731,-0.009522003888230759
-0.00547986348033373,-0.007909239558254825
-0.00547952348033373,-0.006461043017056948
-0.005479183480333731,-0.008073807347030245
-0.005478843480333731,-0.007448449749694799
-0.00547850348033373,-0.005144500706874663
-0.005478163480333731,-0.00586859897747492
-0.005477823480333731,-0.008896646290888665
-0.00547748348033373,-0.008073807347030245
-0.005477143480333731,-0.006000253208493148
-0.005476803480333731,-0.006428129459301613
-0.00547646348033373,-0.006395215901547833
-0.005476123480333731,-0.006724351479093405
-0.005475783480333731,-0.007185141287656366
-0.00547544348033373,-0.005901512535229476
-0.005475103480333731,-0.006592697248075176
-0.005474763480333731,-0.008929559848644481
-0.00547442348033373,-0.01083854619841304
-0.005474083480333731,-0.009587831003739873
-0.005473743480333731,-0.01136516312248272
-0.00547340348033373,-0.01366911216530495
-0.00547306348033373,-0.01538061716854192
-0.005472723480333731,-0.01742125774932075
-0.00547238348033373,-0.008567510713348603
-0.00547204348033373,-0.006856005710111633
-0.005471703480333731,-0.005704031188704229
-0.00547136348033373,-0.006921832825620747
-0.00547102348033373,-0.007382622634184546
-0.005470683480333731,-0.005012846475860745
-0.00547034348033373,-0.003663390607919593
-0.00547000348033373,-0.002610156759773766
-0.005469663480333731,-0.005835685419720362
-0.00546932348033373,-0.00540780916891112
-0.00546898348033373,-0.005144500706874663
-0.005468643480333731,-0.006395215901547833
-0.00546830348033373,-0.008534597155594046
-0.00546796348033373,-0.007250968403166318
-0.005467623480333731,-0.006098993881756819
-0.00546728348033373,-0.006790178594602518
-0.00546694348033373,-0.004683710898310864
-0.005466603480333731,-0.003729217723428708
-0.00546626348033373,-0.003630477050166892
-0.00546592348033373,-0.004650797340556306
-0.005465583480333731,-0.005309068495647449
-0.00546524348033373,-0.006526870132567499
-0.00546490348033373,-0.007316795518675433
-0.005464563480333731,-0.006461043017056948
-0.00546422348033373,-0.008468770040084152
-0.00546388348033373,-0.008040893789275689
-0.005463543480333731,-0.00688891926786619
-0.00546320348033373,-0.00685600571011283
-0.00546286348033373,-0.007514276865202775
-0.005462523480333731,-0.008468770040084931
-0.00546218348033373,-0.01149681735349287
-0.00546184348033373,-0.005276154937892892
-0.005461503480333731,-0.003169687241601236
-0.00546116348033373,-0.001820231373664994
-0.00546082348033373,-0.002149366951209966
-0.005460483480333731,-0.003893785512201493
-0.00546014348033373,-0.002116453393454871
-0.00545980348033373,-0.001820231373664395
-0.005459463480333731,-0.002774724548546551
-0.00545912348033373,-0.003103860126095056
-0.00545878348033373,-0.004716624456065421
-0.005458443480333731,-0.00494701936034732
-0.00545810348033373,-0.005638204073194816
-0.00545776348033373,-0.006625610805829733
-0.005457423480333731,-0.007152227729902647
-0.005457083480333731,-0.005605290515441276
-0.00545674348033373,-0.006362302343793276
-0.005456403480333731,-0.006329388786038719
-0.005456063480333731,-0.005309068495649305
-0.00545572348033373,-0.005605290515438462
-0.005455383480333731,-0.006790178594602518
-0.005455043480333731,-0.00570403118870411
-0.00545470348033373,-0.006559783690320619
-0.005454363480333731,-0.008468770040084931
-0.005454023480333731,-0.006954746383378058
-0.00545368348033373,-0.008402942924575817
-0.005453343480333731,-0.008732078502121389
-0.005453003480333731,-0.00715222772990552
-0.00545266348033373,-0.008633337828857716
-0.00545232348033373,-0.008501683597839487
-0.005451983480333731,-0.01172721225778022
-0.00545164348033373,-0.006033166766247705
-0.00545130348033373,-0.003268427914864908
-0.005450963480333731,-0.002017712720194013
-0.00545062348033373,-0.001688577142646167
-0.00545028348033373,-0.007547190422957332
-0.005449943480333731,-0.00876499205987373
-0.00544960348033373,-0.006493956574811504
-0.00544926348033373,-0.008666251386612273
-0.005448923480333731,-0.01008153437005565
-0.00544858348033373,-0.009522003888230759
-0.00544824348033373,-0.008830819175385059
-0.005447903480333731,-0.008995386964157845
-0.00544756348033373,-0.007218054845411761
-0.00544722348033373,-0.006954746383375304
-0.005446883480333731,-0.006395215901547833
-0.00544654348033373,-0.004091266858728836
-0.00544620348033373,-0.004321661763010735
-0.005445863480333731,-0.004782451571574535
-0.00544552348033373,-0.006790178594598028
-0.00544518348033373,-0.004321661763010735
-0.005444843480333731,-0.004979932918101878
-0.00544450348033373,-0.004321661763010436
-0.00544416348033373,-0.00415709397423795
-0.005443823480333731,-0.007053487056638975
-0.00544348348033373,-0.006954746383376801
-0.00544314348033373,-0.007777585327239231
-0.005442803480333731,-0.008238375135803031
-0.00544246348033373,-0.008534597155583089
-0.00544212348033373,-0.002511416086510094
-0.005441783480333731,-0.003564649934655922
-0.00544144348033373,-0.01097020042941493
-0.00544110348033373,-0.001984799162437181
-0.005440763480333731,-0.0004049483902184396
-0.00544042348033373,-0.004749538013819738
-0.00544008348033373,-0.004617883782801749
-0.005439743480333731,-0.004255834647501621
-0.00543940348033373,-0.00573694474645711
-0.00543906348033373,-0.005967339650738591
-0.005438723480333731,-0.006033166766247705
-0.00543838348033373,-0.007448449749692763
-0.00543804348033373,-0.006954746383375304
-0.005437703480333731,-0.007086400614393532
-0.00543736348033373,-0.007349709076427954
-0.00543702348033373,-0.006230648112775047
-0.005436683480333731,-0.006790178594602518
-0.005436343480333731,-0.007810498884991933
-0.00543600348033373,-0.006033166766247705
-0.005435663480333731,-0.005835685419720362
-0.005435323480333731,-0.008567510713343635
-0.00543498348033373,-0.007316795518675433
-0.005434643480333731,-0.00517741426462922
-0.005434303480333731,-0.004453315994030281
-0.00543396348033373,-0.006230648112775047
-0.005433623480333731,-0.006757265036847961
-0.005433283480333731,-0.007777585327237375
-0.00543294348033373,-0.006098993881756819
-0.005432603480333731,-0.00415709397423795
-0.005432263480333731,-0.005967339650735298
-0.00543192348033373,-0.006757265036847961
-0.005431583480333731,-0.003992526185465165
-0.005431243480333731,-0.00320260079935723
-0.00543090348033373,-0.004683710898310864
-0.00543056348033373,-0.005704031188702134
-0.005430223480333731,-0.006131907439510598
-0.00542988348033373,-0.005243241380138334
-0.00542954348033373,-0.004650797340556306
-0.005429203480333731,-0.007678844653970052
-0.00542886348033373,-0.00837002936682126
-0.00542852348033373,-0.007711758211730118
-0.005428183480333731,-0.007053487056640172
-0.00542784348033373,-0.008139634462539359
-0.00542750348033373,-0.01070689196739481
-0.005427163480333731,-0.008073807347030245
-0.00542682348033373,-0.008863732733139616
-0.00542648348033373,-0.01014736148556734
-0.005426143480333731,-0.006329388786038719
-0.00542580348033373,-0.006428129459302391
-0.00542546348033373,-0.003432995703637694
-0.005425123480333731,-0.003531736376901365
-0.00542478348033373,-0.009094127637421515
-0.00542444348033373,-0.008863732733139616
-0.005424103480333731,-0.005572376957683906
-0.00542376348033373,-0.006757265036851734
-0.00542342348033373,-0.008830819175385059
-0.005423083480333731,-0.006362302343793276
-0.00542274348033373,-0.005374895611154468
-0.00542240348033373,-0.004222921089747064
-0.005422063480333731,-0.003531736376901365
-0.00542172348033373,-0.003729217723432599
-0.00542138348033373,-0.00586859897747492
-0.005421043480333731,-0.005605290515438462
-0.00542070348033373,-0.005572376957689354
-0.00542036348033373,-0.008567510713348603
-0.005420023480333731,-0.008501683597839487
-0.00541968348033373,-0.008337115809066162
-0.00541934348033373,-0.008040893789275689
-0.005419003480333731,-0.00665852436358429
-0.00541866348033373,-0.007415536191940121
-0.00541832348033373,-0.007975066673766575
-0.005417983480333731,-0.00665852436358429
-0.00541764348033373,-0.006493956574817371
-0.00541730348033373,-0.009719485234758102
-0.005416963480333731,-0.009851139465776329
-0.00541662348033373,-0.01031192927434863
-0.00541628348033373,-0.01498565447548724
-0.005415943480333731,-0.01100311398718583
-0.00541560348033373,-0.008468770040083912
