Analysis/files/cmb03_wrd01/d2s02_ch16.csv

#Digilent WaveForms Oscilloscope Acquisition
#Device Name: ADP3450
#Serial Number: SN:210018B9D9B0
#Date Time: 2024-08-12 18:03:05.120.366.980
#Sample rate: 2.94118e+06Hz
#Samples: 32768
#Trigger: Source: Channel 3 Type: Edge Condition: Rising Level: 60 mV Hyst.: Auto HoldOff: 0 s
#Channel 3: Range: 200 mV/div Offset: 0 V Attenuation: 1 X Coupling: DC Bandwidth: 0 Hz Sample Mode: Average

Time (s),Channel 3 (V)
-0.005570256170212767,0.001405297286282201
-0.005569916170212766,-0.0001087263704256296
-0.005569576170212766,0.0008786803622092876
-0.005569236170212767,0.001043248150982073
-0.005568896170212766,-7.581281267053366e-05
-0.005568556170212766,0.001207815939754859
-0.005568216170212767,0.001471124401791315
-0.005567876170212766,-0.001458182238373607
-0.005567536170212766,-0.006592697248075176
-0.005567196170212767,-0.002643070317528323
-0.005566856170212766,-0.006098993881758675
-0.005566516170212766,-0.00711931417214809
-0.005566176170212767,-0.006724351479093405
-0.005565836170212766,-0.01304375456796891
-0.005565496170212766,-0.01333997658775938
-0.005565156170212767,-0.009291608983948858
-0.005564816170212766,-0.01087145975617119
-0.005564476170212766,-0.01284627322144103
-0.005564136170212767,-0.01057523773637659
-0.005563796170212766,-0.008995386964160839
-0.005563456170212766,-0.0106410648518857
-0.005563116170212767,-0.01097020042943127
-0.005562776170212767,-0.01073980552514979
-0.005562436170212766,-0.01090437331392216
-0.005562096170212767,-0.01034484283209469
-0.005561756170212767,-0.01077271908290315
-0.005561416170212766,-0.01228674273961356
-0.005561076170212766,-0.009752398792512659
-0.005560736170212767,-0.008567510713350757
-0.005560396170212766,-0.009884053023530886
-0.005560056170212766,-0.009028300521912402
-0.005559716170212767,-0.008337115809067959
-0.005559376170212766,-0.009127041195176074
-0.005559036170212766,-0.008172548020293918
-0.005558696170212767,-0.007678844653976458
-0.005558356170212766,-0.008468770040084931
-0.005558016170212766,-0.009982793696794558
-0.005557676170212767,-0.009522003888231597
-0.005557336170212766,-0.01508439514875091
-0.005556996170212766,-0.01979103390765257
-0.005556656170212767,-0.01455777822468752
-0.005556316170212766,-0.01531479005303281
-0.005555976170212766,-0.0143273833203961
-0.005555636170212767,-0.01623636967015693
-0.005555296170212766,-0.01883654073277042
-0.005554956170212766,-0.01656550524770598
-0.005554616170212767,-0.01297792745246578
-0.005554276170212766,-0.01333997658775938
-0.005553936170212766,-0.01574266630384205
-0.005553596170212767,-0.01389950706958685
-0.005553256170212766,-0.01291210033695014
-0.005552916170212766,-0.0143273833203961
-0.005552576170212767,-0.01268170543266824
-0.005552236170212766,-0.01439321043590521
-0.005551896170212766,-0.01274753254817735
-0.005551556170212767,-0.01255005120165001
-0.005551216170212766,-0.01146390379575232
-0.005550876170212766,-0.0129450138947047
-0.005550536170212767,-0.01320832235674115
-0.005550196170212766,-0.01258296475940768
-0.005549856170212766,-0.01429446976264154
-0.005549516170212767,-0.01445903755141432
-0.005549176170212766,-0.01449195110916954
-0.005548836170212766,-0.01485400024446901
-0.005548496170212767,-0.01515022226426002
-0.005548156170212766,-0.01436029687815113
-0.005547816170212766,-0.01462360534018711
-0.005547476170212767,-0.01617054255465129
-0.005547136170212766,-0.01475525957121234
-0.005546796170212766,-0.01860614582848852
-0.005546456170212767,-0.01755291198034269
-0.005546116170212766,-0.01238548341287537
-0.005545776170212766,-0.01136516312248596
-0.005545436170212767,-0.0111018546604495
-0.005545096170212766,-0.01554518495731656
-0.005544756170212766,-0.01656550524770598
-0.005544416170212767,-0.01587432053486028
-0.005544076170212766,-0.01452486466692535
-0.005543736170212766,-0.01557809851506927
-0.005543396170212767,-0.01801370178890649
-0.005543056170212766,-0.01738834419156883
-0.005542716170212766,-0.01679590015198788
-0.005542376170212767,-0.01715794928728801
-0.005542036170212767,-0.01709212217177902
-0.005541696170212766,-0.01620345611240585
-0.005541356170212767,-0.01709212217177889
-0.005541016170212767,-0.01590723409261699
-0.005540676170212766,-0.01515022226426002
-0.005540336170212766,-0.01636802390117864
-0.005539996170212767,-0.01656550524770562
-0.005539656170212766,-0.01406407485835964
-0.005539316170212766,-0.01445903755141432
-0.005538976170212767,-0.01577557986159421
-0.005538636170212766,-0.01521604937976914
-0.005538296170212766,-0.01554518495731471
-0.005537956170212767,-0.01613762899689566
-0.005537616170212766,-0.01541353072629648
-0.005537276170212766,-0.01462360534018711
-0.005536936170212767,-0.01541353072629504
-0.005536596170212766,-0.01617054255465129
-0.005536256170212766,-0.01956063900337068
-0.005535916170212767,-0.01508439514875905
-0.005535576170212766,-0.01442612399365977
-0.005535236170212766,-0.01370202572305951
-0.005534896170212767,-0.01475525957120342
-0.005534556170212766,-0.01791496111564282
-0.005534216170212766,-0.01682881370974244
-0.005533876170212767,-0.01505148159099959
-0.005533536170212766,-0.01564392563057838
-0.005533196170212766,-0.01462360534018711
-0.005532856170212767,-0.01574266630384205
-0.005532516170212766,-0.01485400024446901
-0.005532176170212766,-0.0150185680332418
-0.005531836170212767,-0.01528187649527825
-0.005531496170212766,-0.01640093745893319
-0.005531156170212766,-0.01465651889794167
-0.005530816170212767,-0.01649967813219686
-0.005530476170212766,-0.01577557986159661
-0.005530136170212766,-0.01538061716854192
-0.005529796170212767,-0.01643385101668775
-0.005529456170212766,-0.01768456621136104
-0.005529116170212766,-0.01775039332687003
-0.005528776170212767,-0.01975812034989802
-0.005528436170212766,-0.02031765083172358
-0.005528096170212766,-0.01926441698357966
-0.005527756170212767,-0.01873780005950675
-0.005527416170212766,-0.01827701025094313
-0.005527076170212766,-0.01837575092420662
-0.005526736170212767,-0.01788204755788826
-0.005526396170212766,-0.01850740515523066
-0.005526056170212766,-0.02170002025741689
-0.005525716170212767,-0.02067969996702562
-0.005525376170212766,-0.0104435835053674
-0.005525036170212766,-0.01541353072629648
-0.005524696170212767,-0.01231965629736811
-0.005524356170212766,-0.01561101207282963
-0.005524016170212766,-0.01880362717501586
-0.005523676170212767,-0.01933024409908878
-0.005523336170212766,-0.02666996747838297
-0.005522996170212766,-0.04204059894973318
-0.005522656170212767,-0.05948478455964844
-0.005522316170212766,-0.0863422476874232
-0.005521976170212766,-0.1172151648611416
-0.005521636170212767,-0.1481539091504253
-0.005521296170212766,-0.1786976907467028
-0.005520956170212766,-0.2053905860856001
-0.005520616170212767,-0.2295820510351996
-0.005520276170212767,-0.2492643585723889
-0.005519936170212766,-0.2621335596544566
-0.005519596170212767,-0.2690783203406681
-0.005519256170212767,-0.2719747134230638
-0.005518916170212766,-0.2734229099642697
-0.005518576170212766,-0.2703619490930959
-0.005518236170212767,-0.2623310410009985
-0.005517896170212766,-0.254892576948454
-0.005517556170212766,-0.2472566315493968
-0.005517216170212767,-0.2407068335562518
-0.005516876170212766,-0.2337949864277829
-0.005516536170212766,-0.2254349427581254
-0.005516196170212767,-0.2161862330291117
-0.005515856170212766,-0.2107225824418384
-0.005515516170212766,-0.2098997434979744
-0.005515176170212767,-0.1990711829967448
-0.005514836170212766,-0.1880780547067031
-0.005514496170212766,-0.1836676379675924
-0.005514156170212767,-0.1768545315124115
-0.005513816170212766,-0.1741227062187709
-0.005513476170212766,-0.1704363877502605
-0.005513136170212767,-0.1618459491763367
-0.005512796170212766,-0.1563164714735555
-0.005512456170212766,-0.1539466953152273
-0.005512116170212767,-0.1471006753022795
-0.005511776170212766,-0.1408141857711591
-0.005511436170212766,-0.1373911757646851
-0.005511096170212767,-0.1325199692170107
-0.005510756170212766,-0.1286361694019729
-0.005510416170212766,-0.124916937375708
-0.005510076170212767,-0.1220205442933069
-0.005509736170212766,-0.1198482494815062
-0.005509396170212766,-0.118893756306624
-0.005509056170212767,-0.1146149937985316
-0.005508716170212766,-0.1089867754224968
-0.005508376170212766,-0.1059587281090831
-0.005508036170212767,-0.1033256434887185
-0.005507696170212766,-0.09753285732391094
-0.005507356170212766,-0.09450481001049721
-0.005507016170212767,-0.08983108480935009
-0.005506676170212766,-0.0859143714365532
-0.005506336170212766,-0.08338002748945691
-0.005505996170212767,-0.0810102513311288
-0.005505656170212766,-0.07798220401770929
-0.005505316170212766,-0.07785054978669131
-0.005504976170212767,-0.08097733777337424
-0.005504636170212766,-0.07031334506089354
-0.005504296170212766,-0.06800939601807873
-0.005503956170212767,-0.06610040966831443
-0.005503616170212766,-0.06563961985975367
-0.005503276170212766,-0.06731821130523305
-0.005502936170212767,-0.06429016399181378
-0.005502596170212766,-0.06126211667839136
-0.005502256170212766,-0.059517698117403
-0.005501916170212767,-0.05866194561578452
-0.005501576170212766,-0.05678587282377159
-0.005501236170212766,-0.05504145426278324
-0.005500896170212767,-0.05612760166868362
-0.005500556170212766,-0.05438318310769006
-0.005500216170212766,-0.05326412214403715
-0.005499876170212767,-0.05198049339160943
-0.005499536170212767,-0.04997276636858509
-0.005499196170212766,-0.04635227501558016
-0.005498856170212767,-0.0439495852994975
-0.005498516170212767,-0.04250138875829962
-0.005498176170212766,-0.03851884826999557
-0.005497836170212766,-0.03884798384754114
-0.005497496170212767,-0.03881507028978665
-0.005497156170212766,-0.03651112124696759
-0.005496816170212766,-0.03549080095657631
-0.005496476170212767,-0.03598450432289377
-0.005496136170212766,-0.03562245518759454
-0.005495796170212766,-0.03496418403250341
-0.005495456170212767,-0.03565536874534785
-0.005495116170212766,-0.03476670268597606
-0.005494776170212766,-0.03605033143840378
-0.005494436170212767,-0.04085571087056038
-0.005494096170212766,-0.03400969085762125
-0.005493756170212766,-0.03239692652764795
-0.005493416170212767,-0.03210070450785747
-0.005493076170212766,-0.03249566720091162
-0.005492736170212766,-0.03364764172232112
-0.005492396170212767,-0.0315740875837878
-0.005492056170212766,-0.02867769450138299
-0.005491716170212766,-0.02831564536608287
-0.005491376170212767,-0.02953344700299926
-0.005491036170212766,-0.02923722498321047
-0.005490696170212766,-0.02976384190728338
-0.005490356170212767,-0.02953344700300148
-0.005490016170212766,-0.03328559258702099
-0.005489676170212766,-0.03035628594686541
-0.005489336170212767,-0.03137660623725668
-0.005488996170212766,-0.03127786556399301
-0.005488656170212766,-0.03032337238911085
-0.005488316170212767,-0.02834855892383742
-0.005487976170212766,-0.02917139786769668
-0.005487636170212766,-0.0266041403628459
-0.005487296170212767,-0.02617626411203666
-0.005486956170212766,-0.02709784372916078
-0.005486616170212766,-0.02518885737939994
-0.005486276170212767,-0.02485972180185437
-0.005485936170212766,-0.024267277762273
-0.005485596170212766,-0.02462932689757247
-0.005485256170212767,-0.02295073545209006
-0.005484916170212766,-0.02308238968310793
-0.005484576170212766,-0.02288490833658094
-0.005484236170212767,-0.02551799295694551
-0.005483896170212766,-0.02617626411202684
-0.005483556170212766,-0.02077844064028929
-0.005483216170212767,-0.02202915583496246
-0.005482876170212766,-0.01830992380870703
-0.005482536170212766,-0.02354317949167209
-0.005482196170212767,-0.02502428959062716
-0.005481856170212766,-0.02298364900984486
-0.005481516170212766,-0.02311530324086284
-0.005481176170212767,-0.02288490833658094
-0.005480836170212766,-0.02314821679861591
-0.005480496170212766,-0.02232537785475347
-0.005480156170212767,-0.02206206939271702
-0.005479816170212766,-0.01850740515522443
-0.005479476170212766,-0.01827701025094295
-0.005479136170212767,-0.01936315765684333
-0.005478796170212767,-0.01952772544561582
-0.005478456170212766,-0.02064678640927106
-0.005478116170212767,-0.01850740515522485
-0.005477776170212767,-0.01728960351830845
-0.005477436170212766,-0.01676298659423332
-0.005477096170212766,-0.01699338149851522
-0.005476756170212767,-0.01515022226426338
-0.005476416170212766,-0.01557809851506927
-0.005476076170212766,-0.01626928322791496
-0.005475736170212767,-0.01653259168995094
-0.005475396170212766,-0.01873780005950675
-0.005475056170212766,-0.01956063900337068
-0.005474716170212767,-0.01956063900337068
-0.005474376170212766,-0.02054804573600739
-0.005474036170212766,-0.02255577275903537
-0.005473696170212767,-0.02390522862696976
-0.005473356170212766,-0.01962646611887979
-0.005473016170212766,-0.01794787467339738
-0.005472676170212767,-0.01748708486483442
-0.005472336170212766,-0.01521604937976914
-0.005471996170212766,-0.01979103390765257
-0.005471656170212767,-0.02005434236968855
-0.005471316170212766,-0.01804661534666105
-0.005470976170212766,-0.01870488650175219
-0.005470636170212767,-0.01696046794076384
-0.005470296170212766,-0.01531479005303281
-0.005469956170212766,-0.01577557986159661
-0.005469616170212767,-0.01610471543914218
-0.005469276170212766,-0.01468943245569622
-0.005468936170212766,-0.01426155620488698
-0.005468596170212767,-0.01570975274608749
-0.005468256170212766,-0.01617054255465129
-0.005467916170212766,-0.01728960351830624
-0.005467576170212767,-0.01656550524770598
-0.005467236170212766,-0.01626928322791496
-0.005466896170212766,-0.01692755438300611
-0.005466556170212767,-0.01847449159747029
-0.005466216170212766,-0.01531479005303131
-0.005465876170212766,-0.01449195110916888
-0.005465536170212767,-0.01574266630384205
-0.005465196170212766,-0.01580849341935015
-0.005464856170212766,-0.0152489629375237
-0.005464516170212767,-0.014557778224678
-0.005464176170212766,-0.0130766681257243
-0.005463836170212766,-0.01383367995407774
-0.005463496170212767,-0.01919858986807055
-0.005463156170212766,-0.02015308304294037
-0.005462816170212766,-0.01337289014551394
-0.005462476170212767,-0.01554518495731471
-0.005462136170212766,-0.01643385101668829
-0.005461796170212766,-0.01673007303647877
-0.005461456170212767,-0.02025182371621638
-0.005461116170212766,-0.01824409669318319
-0.005460776170212766,-0.01538061716854192
-0.005460436170212767,-0.01821118313543383
-0.005460096170212766,-0.01784913400013042
-0.005459756170212766,-0.01603888832363307
-0.005459416170212767,-0.01715794928728801
-0.005459076170212766,-0.0182440966931854
-0.005458736170212766,-0.01659841880546054
-0.005458396170212767,-0.01623636967016041
-0.005458056170212766,-0.0174212577493247
-0.005457716170212766,-0.01755291198034269
-0.005457376170212767,-0.01748708486483358
-0.005457036170212767,-0.01761873909585157
-0.005456696170212766,-0.01557809851506927
-0.005456356170212767,-0.01686172726749699
-0.005456016170212767,-0.01765165265360493
-0.005455676170212766,-0.01699338149851522
-0.005455336170212766,-0.01534770361078737
-0.005454996170212767,-0.01590723409261382
-0.005454656170212766,-0.01445903755141432
-0.005454316170212766,-0.01373493928081407
-0.005453976170212767,-0.01482108668671248
-0.005453636170212766,-0.01459069178243255
-0.005453296170212766,-0.01541353072629648
-0.005452956170212767,-0.02219372362372291
-0.005452616170212766,-0.02077844064028929
-0.005452276170212766,-0.01268170543266824
-0.005451936170212767,-0.01784913400012431
-0.005451596170212766,-0.02114048977558942
-0.005451256170212766,-0.01659841880546054
-0.005450916170212767,-0.01531479005303514
-0.005450576170212766,-0.01682881370974244
-0.005450236170212766,-0.01649967813219686
-0.005449896170212767,-0.01636802390117888
-0.005449556170212766,-0.01715794928728801
-0.005449216170212766,-0.01646676457444231
-0.005448876170212767,-0.01564392563057988
-0.005448536170212766,-0.01649967813219686
-0.005448196170212766,-0.01554518495731471
-0.005447856170212767,-0.01636802390117864
-0.005447516170212766,-0.01801370178890649
-0.005447176170212766,-0.01755291198034269
-0.005446836170212767,-0.01682881370974244
-0.005446496170212766,-0.01712503572953345
-0.005446156170212766,-0.01653259168995142
-0.005445816170212767,-0.01515022226426002
-0.005445476170212766,-0.01511730870650265
-0.005445136170212766,-0.01357037149204128
-0.005444796170212767,-0.01327414947225027
-0.005444456170212766,-0.01419572908938068
-0.005444116170212766,-0.01574266630384205
-0.005443776170212767,-0.01426155620488698
-0.005443436170212766,-0.01696046794076264
-0.005443096170212766,-0.01804661534666105
-0.005442756170212767,-0.01715794928728801
-0.005442416170212766,-0.02054804573599841
-0.005442076170212766,-0.01561101207282382
-0.005441736170212767,-0.01531479005303281
-0.005441396170212766,-0.0133070630300098
-0.005441056170212766,-0.01603888832363307
-0.005440716170212767,-0.01837575092420662
-0.005440376170212766,-0.01673007303647715
-0.005440036170212766,-0.01584140697710572
-0.005439696170212767,-0.01709212217177889
-0.005439356170212766,-0.01732251707605954
-0.005439016170212766,-0.01663133236321509
-0.005438676170212767,-0.01541353072629648
-0.005438336170212766,-0.01636802390117948
-0.005437996170212766,-0.01682881370974244
-0.005437656170212767,-0.01659841880546054
-0.005437316170212766,-0.01850740515522485
-0.005436976170212766,-0.01850740515522485
-0.005436636170212767,-0.01909984919480688
-0.005436296170212767,-0.01735543063381852
-0.005435956170212766,-0.01705920861402434
-0.005435616170212767,-0.01679590015198788
-0.005435276170212767,-0.01600597476587995
-0.005434936170212766,-0.0159401476503694
-0.005434596170212766,-0.01531479005303281
-0.005434256170212767,-0.01521604937976932
-0.005433916170212766,-0.01426155620488698
-0.005433576170212766,-0.01251713764389546
-0.005433236170212767,-0.0132412359144944
-0.005432896170212766,-0.01389950706958685
-0.005432556170212766,-0.01515022226426002
-0.005432216170212767,-0.01873780005950022
-0.005431876170212766,-0.01686172726749699
-0.005431536170212766,-0.01449195110916888
-0.005431196170212767,-0.01491982735997734
-0.005430856170212766,-0.01419572908937787
-0.005430516170212766,-0.01979103390765257
-0.005430176170212767,-0.01923150342582612
-0.005429836170212766,-0.01643385101668775
-0.005429496170212766,-0.01636802390117864
-0.005429156170212767,-0.01646676457444213
-0.005428816170212766,-0.01659841880546054
-0.005428476170212766,-0.01709212217177889
-0.005428136170212767,-0.01867197294399476
-0.005427796170212766,-0.01837575092420662
-0.005427456170212766,-0.02054804573600739
-0.005427116170212767,-0.01946189833010701
-0.005426776170212766,-0.01936315765684333
-0.005426436170212766,-0.01788204755788826
-0.005426096170212767,-0.01544644428405104
-0.005425756170212766,-0.01597306120812395
-0.005425416170212766,-0.01521604937976914
-0.005425076170212767,-0.01646676457444231
-0.005424736170212766,-0.01462360534018711
-0.005424396170212766,-0.01620345611240585
-0.005424056170212767,-0.01725668996055168
-0.005423716170212766,-0.01656550524770388
-0.005423376170212766,-0.01541353072629648
-0.005423036170212767,-0.01436029687815065
-0.005422696170212766,-0.01426155620488884
-0.005422356170212766,-0.01528187649527825
-0.005422016170212767,-0.01906693563705232
-0.005421676170212766,-0.02150253891087685
-0.005421336170212766,-0.01452486466692344
-0.005420996170212767,-0.01557809851506927
-0.005420656170212766,-0.01640093745893314
-0.005420316170212766,-0.01636802390117864
-0.005419976170212767,-0.01979103390765257
-0.005419636170212766,-0.01962646611887386
-0.005419296170212766,-0.01636802390117864
-0.005418956170212767,-0.01857323227073396
-0.005418616170212766,-0.01554518495731345
-0.005418276170212766,-0.01485400024446901
-0.005417936170212767,-0.01478817312895989
-0.005417596170212766,-0.01600597476587612
-0.005417256170212766,-0.01468943245569622
-0.005416916170212767,-0.012253829181859
-0.005416576170212766,-0.01412990197386911
-0.005416236170212766,-0.0143273833203961
-0.005415896170212767,-0.01557809851506927
-0.005415556170212766,-0.01643385101668751
