Analysis/files/cmb03_wrd01/d2s02_ch09.csv

#Digilent WaveForms Oscilloscope Acquisition
#Device Name: ADP3450
#Serial Number: SN:210018B9D9B0
#Date Time: 2024-08-12 17:59:39.059.661.910
#Sample rate: 2.94118e+06Hz
#Samples: 32768
#Trigger: Source: Channel 3 Type: Edge Condition: Rising Level: 60 mV Hyst.: Auto HoldOff: 0 s
#Channel 3: Range: 200 mV/div Offset: 0 V Attenuation: 1 X Coupling: DC Bandwidth: 0 Hz Sample Mode: Average

Time (s),Channel 3 (V)
-0.005570295818815332,0.006737293642520453
-0.005569955818815331,0.006704380084765058
-0.005569615818815331,0.006243590276202096
-0.005569275818815332,0.005684059794374625
-0.005568935818815331,0.002458531134425873
-0.005568595818815331,0.001273643055263973
-0.005568255818815332,0.003511764982573856
-0.005567915818815331,0.006408158064974702
-0.005567575818815331,0.00630941739171121
-0.005567235818815332,0.006803120758029567
-0.005566895818815331,0.003906727675625548
-0.005566555818815331,0.002261049787900686
-0.005566215818815332,0.003314283636046514
-0.005565875818815331,0.000648285457926849
-0.005565535818815331,0.0003520634381363738
-0.005565195818815332,0.0004837176691546022
-0.005564855818815331,-0.001030305987555564
-0.005564515818815331,-0.001326528007346039
-0.005564175818815332,-0.0006682568522548965
-0.005563835818815331,0.001405297286281543
-0.005563495818815331,0.001043248150982073
-0.005563155818815332,0.00153695151730043
-0.005562815818815332,0.0006153719001745071
-0.005562475818815331,0.001405297286282201
-0.005562135818815332,0.001668605748318658
-0.005561795818815332,-0.0002732941591966789
-0.005561455818815331,-0.0003062077169547683
-0.005561115818815332,-0.0005036890634821109
-0.005560775818815332,-0.001359441565099039
-0.005560435818815331,-0.003860871954446936
-0.005560095818815332,-0.004650797340556306
-0.005559755818815332,-0.007514276865197567
-0.005559415818815331,-0.00962074456149443
-0.005559075818815332,-0.008567510713348603
-0.005558735818815332,-0.009324522541702039
-0.005558395818815331,-0.01067397840964026
-0.005558055818815332,-0.0136361986075504
-0.005557715818815332,-0.008699164944375811
-0.005557375818815331,-0.003103860126092122
-0.005557035818815332,-0.006296475228284162
-0.005556695818815332,-0.00715222772990109
-0.005556355818815331,-0.004453315994028964
-0.005556015818815332,-0.003630477050165036
-0.005555675818815332,-0.003860871954446517
-0.005555335818815331,-0.004848278687083649
-0.005554995818815332,-0.002610156759773766
-0.005554655818815332,-0.00267598387528276
-0.005554315818815331,-0.004222921089747064
-0.005553975818815332,-0.003827958396692379
-0.005553635818815332,-0.002215194066719081
-0.005553295818815331,-0.000832824641027682
-0.005552955818815332,-0.003827958396692379
-0.005552615818815332,-0.002116453393455409
-0.005552275818815331,-0.003268427914864908
-0.005551935818815332,-0.002017712720191738
-0.005551595818815332,-0.001392355122855153
-0.005551255818815331,-0.003465909261394705
-0.005550915818815332,-0.004815365129329092
-0.005550575818815332,-0.004288748205256179
-0.005550235818815331,-0.005012846475862961
-0.005549895818815332,-0.00860042427110316
-0.005549555818815332,-0.008172548020293918
-0.005549215818815331,-0.008962473406402629
-0.005548875818815331,-0.00860042427110316
-0.005548535818815332,-0.008764992059875945
-0.005548195818815331,-0.009785312350272963
-0.005547855818815331,-0.0129450138947047
-0.005547515818815332,-0.01057523773637659
-0.005547175818815331,-0.007975066673766455
-0.005546835818815331,-0.00790923955825746
-0.005546495818815332,-0.005671117630947577
-0.005546155818815331,-0.009390349657214445
-0.005545815818815331,-0.01044358350535836
-0.005545475818815332,-0.007185141287657204
-0.005545135818815331,-0.006921832825624339
-0.005544795818815331,-0.008896646290894173
-0.005544455818815332,-0.0106410648518857
-0.005544115818815331,-0.008699164944367848
-0.005543775818815331,-0.009258695426194301
-0.005543435818815332,-0.009785312350267215
-0.005543095818815331,-0.007678844653973644
-0.005542755818815331,-0.006625610805829733
-0.005542415818815332,-0.005440722726665677
-0.005542075818815332,-0.004584970225048749
-0.005541735818815331,-0.005111587149120106
-0.005541395818815332,-0.005736944746456691
-0.005541055818815332,-0.004947019360348757
-0.005540715818815331,-0.006921832825620747
-0.005540375818815332,-0.008995386964157845
-0.005540035818815332,-0.008468770040085888
-0.005539695818815331,-0.009127041195176074
-0.005539355818815332,-0.01044358350535836
-0.005539015818815332,-0.01050941062086735
-0.005538675818815331,-0.009423263214967087
-0.005538335818815332,-0.009785312350267215
-0.005537995818815332,-0.01014736148556668
-0.005537655818815331,-0.01182595293104976
-0.005537315818815332,-0.01462360534018711
-0.005536975818815332,-0.007020573498898249
-0.005536635818815331,-0.005605290515438462
-0.005536295818815332,-0.006164820997265934
-0.005535955818815332,-0.008699164944362219
-0.005535615818815331,-0.01136516312248596
-0.005535275818815332,-0.009587831003739873
-0.005534935818815332,-0.009620744561494369
-0.005534595818815331,-0.01031192927434013
-0.005534255818815332,-0.009522003888230759
-0.005533915818815332,-0.01011444792781171
-0.005533575818815331,-0.01024610215883101
-0.005533235818815332,-0.007382622634184546
-0.005532895818815332,-0.006954746383375304
-0.005532555818815331,-0.004617883782801749
-0.005532215818815332,-0.005539463399929348
-0.005531875818815332,-0.00688891926786619
-0.005531535818815331,-0.007152227729902647
-0.005531195818815332,-0.008732078502121389
-0.005530855818815332,-0.0108714597561676
-0.005530515818815331,-0.01143099023799507
-0.005530175818815332,-0.005934426092984033
-0.005529835818815332,-0.01162847158452241
-0.005529495818815331,-0.0105094106208658
-0.005529155818815332,-0.009587831003739873
-0.005528815818815332,-0.009653658119248986
-0.005528475818815331,-0.009949880139038025
-0.005528135818815332,-0.008863732733139616
-0.005527795818815332,-0.008797905617630502
-0.005527455818815331,-0.01116768177596454
-0.005527115818815331,-0.01442612399365977
-0.005526775818815332,-0.01347163081877761
-0.005526435818815331,-0.009489090330474525
-0.005526095818815331,-0.008567510713348603
-0.005525755818815332,-0.008534597155594046
-0.005525415818815331,-0.0128133596636882
-0.005525075818815331,-0.01376785283856862
-0.005524735818815332,-0.01057523773637659
-0.005524395818815331,-0.01159555802676516
-0.005524055818815331,-0.01011444792781279
-0.005523715818815332,-0.01143099023799507
-0.005523375818815331,-0.0166642459209839
-0.005523035818815331,-0.02449767266655424
-0.005522695818815332,-0.03858467538550468
-0.005522355818815331,-0.06310527591270258
-0.005522015818815331,-0.09216794740992365
-0.005521675818815332,-0.1239624442008258
-0.005521335818815331,-0.1552961511832174
-0.005520995818815331,-0.1845233904692109
-0.005520655818815332,-0.2097680892669562
-0.005520315818815332,-0.2322151356555233
-0.005519975818815331,-0.247980729819997
-0.005519635818815332,-0.2552217125259996
-0.005519295818815332,-0.2610474122485456
-0.005518955818815331,-0.2637134104266753
-0.005518615818815332,-0.2601916597469377
-0.005518275818815332,-0.2544317871399007
-0.005517935818815331,-0.246565446836551
-0.005517595818815332,-0.2401143895166579
-0.005517255818815332,-0.2331696288304589
-0.005516915818815331,-0.2281338544939991
-0.005516575818815332,-0.2213536615965603
-0.005516235818815332,-0.206707128395809
-0.005515895818815331,-0.2005852066534348
-0.005515555818815332,-0.194397457795578
-0.005515215818815332,-0.1884730173997685
-0.005514875818815331,-0.1854449700863385
-0.005514535818815332,-0.1786976907466543
-0.005514195818815332,-0.1683299200539876
-0.005513855818815331,-0.162965010139976
-0.005513515818815332,-0.1574355324372104
-0.005513175818815332,-0.150326203962239
-0.005512835818815331,-0.1456853923188335
-0.005512495818815332,-0.1419990738503231
-0.005512155818815332,-0.1381481875930399
-0.005511815818815331,-0.1343302148935113
-0.005511475818815332,-0.1317958709464104
-0.005511135818815332,-0.1269575779564905
-0.005510795818815331,-0.1227775561216618
-0.005510455818815332,-0.1201444715012972
-0.005510115818815332,-0.1142529446632315
-0.005509775818815331,-0.110797021099003
-0.005509435818815332,-0.1065840857064197
-0.005509095818815332,-0.1011533486769177
-0.005508755818815331,-0.09703915395759535
-0.005508415818815332,-0.09552513030088847
-0.005508075818815332,-0.09078557798423226
-0.005507735818815331,-0.08723091374673481
-0.005507395818815332,-0.08433452066433905
-0.005507055818815332,-0.08117481911990157
-0.005506715818815331,-0.08005575815624873
-0.005506375818815331,-0.08120773267765613
-0.005506035818815332,-0.07821259892199145
-0.005505695818815331,-0.06916137053948518
-0.005505355818815331,-0.06748277909400582
-0.005505015818815332,-0.0647509538003776
-0.005504675818815331,-0.06303944879714024
-0.005504335818815331,-0.06284196745061327
-0.005503995818815332,-0.06014305571473959
-0.005503655818815331,-0.05747705753662088
-0.005503315818815331,-0.05770745244090236
-0.005502975818815332,-0.05764162532539325
-0.005502635818815331,-0.05425152887667357
-0.005502295818815331,-0.05408696108790108
-0.005501955818815332,-0.05290207300873703
-0.005501615818815331,-0.05128930867875924
-0.005501275818815331,-0.04882079184717195
-0.005500935818815332,-0.04941323588675398
-0.005500595818815331,-0.04710928684393103
-0.005500255818815331,-0.04493699203213421
-0.005499915818815332,-0.04391667174174294
-0.005499575818815332,-0.04230390741177257
-0.005499235818815331,-0.04062531596628723
-0.005498895818815332,-0.03907837875182304
-0.005498555818815332,-0.03723521951757119
-0.005498215818815331,-0.0374985279796043
-0.005497875818815332,-0.03746561442184974
-0.005497535818815332,-0.03733396019083176
-0.005497195818815331,-0.03503001114801252
-0.005496855818815332,-0.03466796201271239
-0.005496515818815332,-0.03473378912822139
-0.005496175818815331,-0.03345016037579378
-0.005495835818815332,-0.03549080095657631
-0.005495495818815332,-0.03117912489073718
-0.005495155818815331,-0.02367483372269031
-0.005494815818815332,-0.02364192016493576
-0.005494475818815332,-0.0231811303563728
-0.005494135818815331,-0.026373745458564
-0.005493795818815332,-0.02716367084467337
-0.005493455818815332,-0.02749280642221834
-0.005493115818815331,-0.02762446065323717
-0.005492775818815332,-0.02818399113506464
-0.005492435818815332,-0.02805233690404665
-0.005492095818815331,-0.0268345352671278
-0.005491755818815332,-0.02663705392060045
-0.005491415818815332,-0.02778902844200786
-0.005491075818815331,-0.02581421497673653
-0.005490735818815332,-0.02433310487778146
-0.005490395818815332,-0.02535342516817273
-0.005490055818815331,-0.02472806757083614
-0.005489715818815332,-0.02209498295047157
-0.005489375818815332,-0.02295073545209006
-0.005489035818815331,-0.02091009487130752
-0.005488695818815332,-0.02035056438948005
-0.005488355818815332,-0.01929733054133422
-0.005488015818815331,-0.02058095929375722
-0.005487675818815332,-0.01798078823115194
-0.005487335818815332,-0.01702629505626978
-0.005486995818815331,-0.01630219678566617
-0.005486655818815332,-0.01445903755141432
-0.005486315818815332,-0.01521604937976914
-0.005485975818815331,-0.01594014765037095
-0.005485635818815332,-0.01679590015198788
-0.005485295818815332,-0.01860614582848852
-0.005484955818815331,-0.01327414947223991
-0.005484615818815331,-0.007580103980711889
-0.005484275818815332,-0.01231965629736811
-0.005483935818815331,-0.01459069178243974
-0.005483595818815331,-0.0185403187129794
-0.005483255818815332,-0.01663133236321509
-0.005482915818815331,-0.01544644428405385
-0.005482575818815331,-0.01699338149851522
-0.005482235818815332,-0.01603888832363307
-0.005481895818815331,-0.01557809851507022
-0.005481555818815331,-0.01610471543914218
-0.005481215818815332,-0.01557809851506927
-0.005480875818815331,-0.01445903755141762
-0.005480535818815331,-0.01626928322791496
-0.005480195818815332,-0.01468943245569622
-0.005479855818815331,-0.01623636967016071
-0.005479515818815331,-0.01640093745893319
-0.005479175818815332,-0.01603888832363307
-0.005478835818815332,-0.01426155620489022
-0.005478495818815331,-0.01541353072629648
-0.005478155818815332,-0.01337289014551394
-0.005477815818815332,-0.01495274091772981
-0.005477475818815331,-0.01389950706958685
-0.005477135818815332,-0.01169429870003153
-0.005476795818815332,-0.01215508850859449
-0.005476455818815331,-0.01261587831715913
-0.005476115818815332,-0.01268170543266824
-0.005475775818815332,-0.01126642244922486
-0.005475435818815331,-0.01149681735350419
-0.005475095818815332,-0.01370202572305951
-0.005474755818815332,-0.01669715947871876
-0.005474415818815331,-0.01274753254817735
-0.005474075818815332,-0.009851139465776329
-0.005473735818815332,-0.008567510713350938
-0.005473395818815331,-0.0106410648518857
-0.005473055818815332,-0.01412990197386875
-0.005472715818815332,-0.01080563264066453
-0.005472375818815331,-0.008435856482330374
-0.005472035818815332,-0.01176012581554064
-0.005471695818815332,-0.01064106485188773
-0.005471355818815331,-0.0111018546604495
-0.005471015818815332,-0.01093728687167671
-0.005470675818815332,-0.0111018546604492
-0.005470335818815331,-0.01139807668024051
-0.005469995818815332,-0.01274753254817735
-0.005469655818815332,-0.0117930393732952
-0.005469315818815331,-0.01195760716206798
-0.005468975818815332,-0.01261587831715913
-0.005468635818815332,-0.0117930393732952
-0.005468295818815331,-0.01090437331392216
-0.005467955818815332,-0.01080563264065849
-0.005467615818815332,-0.009851139465776329
-0.005467275818815331,-0.009949880139040001
-0.005466935818815332,-0.008666251386612273
-0.005466595818815332,-0.007580103980711889
-0.005466255818815331,-0.007942153116016327
-0.005465915818815332,-0.01031192927434013
-0.005465575818815332,-0.01205634783533165
-0.005465235818815331,-0.01041066994760745
-0.005464895818815332,-0.01241839697063178
-0.005464555818815332,-0.01771747976911548
-0.005464215818815331,-0.01281335966368066
-0.005463875818815331,-0.00962074456149443
-0.005463535818815332,-0.00869916494436683
-0.005463195818815331,-0.006856005710118458
-0.005462855818815331,-0.01060815129413114
-0.005462515818815332,-0.01291210033695014
-0.005462175818815331,-0.008995386964158265
-0.005461835818815331,-0.009225781868439744
-0.005461495818815332,-0.01195760716206798
-0.005461155818815331,-0.01136516312248476
-0.005460815818815331,-0.01070689196739481
-0.005460475818815332,-0.01116768177595861
-0.005460135818815331,-0.01024610215883006
-0.005459795818815331,-0.009719485234758102
-0.005459455818815332,-0.01097020042943127
-0.005459115818815331,-0.01041066994760566
-0.005458775818815331,-0.01143099023799507
-0.005458435818815332,-0.01281335966368647
-0.005458095818815331,-0.01208926139308388
-0.005457755818815331,-0.01080563264065849
-0.005457415818815332,-0.009456176772721644
-0.005457075818815332,-0.009225781868440164
-0.005456735818815331,-0.007514276865202775
-0.005456395818815332,-0.008830819175385059
-0.005456055818815332,-0.008073807347031623
-0.005455715818815331,-0.007843412442748346
-0.005455375818815332,-0.01057523773637659
-0.005455035818815332,-0.01192469360431097
-0.005454695818815331,-0.01031192927434013
-0.005454355818815332,-0.0129450138947047
-0.005454015818815332,-0.01702629505626235
-0.005453675818815331,-0.01031192927434013
-0.005453335818815332,-0.008863732733139616
-0.005452995818815332,-0.00810672090478618
-0.005452655818815331,-0.008304202251312145
-0.005452315818815332,-0.01021318860107646
-0.005451975818815332,-0.01222091562410079
-0.005451635818815331,-0.008435856482330374
-0.005451295818815332,-0.00767884465397556
-0.005450955818815332,-0.0095878310037364
-0.005450615818815331,-0.008106720904784802
-0.005450275818815332,-0.007942153116012016
-0.005449935818815332,-0.007810498884994029
-0.005449595818815331,-0.008139634462539359
-0.005449255818815332,-0.007975066673766575
-0.005448915818815332,-0.009291608983946462
-0.005448575818815331,-0.01008153437005823
-0.005448235818815332,-0.008995386964157845
-0.005447895818815332,-0.008732078502121389
-0.005447555818815331,-0.008732078502121389
-0.005447215818815332,-0.009456176772721644
-0.005446875818815332,-0.01027901571658557
-0.005446535818815331,-0.01162847158452241
-0.005446195818815332,-0.01189178004655887
-0.005445855818815332,-0.01353745793428673
-0.005445515818815331,-0.01515022226425745
-0.005445175818815332,-0.01373493928081407
-0.005444835818815332,-0.01373493928081407
-0.005444495818815331,-0.01403116130060323
-0.005444155818815332,-0.01301084101021381
-0.005443815818815332,-0.01551227139956015
-0.005443475818815331,-0.01656550524769107
-0.005443135818815331,-0.00837002936682126
-0.005442795818815332,-0.00665852436358429
-0.005442455818815331,-0.007909239558257699
-0.005442115818815331,-0.008040893789275689
-0.005441775818815332,-0.009982793696794558
-0.005441435818815331,-0.007514276865199722
-0.005441095818815331,-0.005835685419720362
-0.005440755818815332,-0.006098993881756819
-0.005440415818815331,-0.008040893789275808
-0.005440075818815331,-0.008106720904784802
-0.005439735818815332,-0.00790923955825746
-0.005439395818815331,-0.009225781868432681
-0.005439055818815331,-0.005341982053402005
-0.005438715818815332,-0.007415536191939104
-0.005438375818815331,-0.008666251386614848
-0.005438035818815331,-0.01008153437005823
-0.005437695818815332,-0.009291608983948858
-0.005437355818815331,-0.009916966581287779
-0.005437015818815331,-0.01120059533371317
-0.005436675818815332,-0.01123350889146773
-0.005436335818815332,-0.01301084101021058
-0.005435995818815331,-0.01287918677919558
-0.005435655818815332,-0.01261587831715913
-0.005435315818815332,-0.01231965629736865
-0.005434975818815331,-0.01304375456796837
-0.005434635818815332,-0.01274753254817735
-0.005434295818815332,-0.01083854619841652
-0.005433955818815331,-0.01070689196739481
-0.005433615818815332,-0.0111018546604495
-0.005433275818815332,-0.01478817312895319
-0.005432935818815331,-0.01100311398718583
-0.005432595818815332,-0.00586859897747492
-0.005432255818815332,-0.01192469360430241
-0.005431915818815331,-0.01472234601345078
-0.005431575818815332,-0.01176012581554064
-0.005431235818815332,-0.009522003888234831
-0.005430895818815331,-0.01146390379574963
-0.005430555818815332,-0.01307666812572293
-0.005430215818815332,-0.01087145975617161
-0.005429875818815331,-0.01024610215883101
-0.005429535818815332,-0.0108714597561676
-0.005429195818815332,-0.01011444792781416
-0.005428855818815331,-0.009258695426194301
-0.005428515818815332,-0.01060815129413114
-0.005428175818815332,-0.009686571677005219
-0.005427835818815331,-0.01212217495084077
-0.005427495818815332,-0.01337289014551394
-0.005427155818815332,-0.01284627322144103
-0.005426815818815331,-0.0120234342775771
-0.005426475818815332,-0.01212217495084077
-0.005426135818815332,-0.01241839697063178
-0.005425795818815331,-0.01011444792781279
-0.005425455818815332,-0.008304202251312145
-0.005425115818815332,-0.007020573498884419
-0.005424775818815331,-0.00619773455502049
-0.005424435818815332,-0.007349709076429989
-0.005424095818815332,-0.006362302343793276
-0.005423755818815331,-0.005243241380141567
-0.005423415818815332,-0.007020573498884419
-0.005423075818815332,-0.009719485234758102
-0.005422735818815331,-0.01185886648879521
-0.005422395818815332,-0.006856005710111633
-0.005422055818815332,-0.008995386964157845
-0.005421715818815331,-0.006856005710114626
-0.005421375818815331,-0.008501683597839487
-0.005421035818815332,-0.01468943245569622
-0.005420695818815331,-0.01133224956472894
-0.005420355818815331,-0.009982793696794558
-0.005420015818815332,-0.0120234342775771
-0.005419675818815331,-0.0112335088914621
-0.005419335818815331,-0.008139634462539359
-0.005418995818815332,-0.008468770040084931
-0.005418655818815331,-0.008995386964158863
-0.005418315818815331,-0.009554917445985316
-0.005417975818815332,-0.01014736148556734
-0.005417635818815331,-0.01116768177595933
-0.005417295818815331,-0.0115626444690133
-0.005416955818815332,-0.01212217495084077
-0.005416615818815331,-0.01185886648879928
