Analysis/files/cmb03_wrd01/d2s03_ch21.csv

#Digilent WaveForms Oscilloscope Acquisition
#Device Name: ADP3450
#Serial Number: SN:210018B9D9B0
#Date Time: 2024-08-13 11:41:48.142.460.410
#Sample rate: 2.94118e+06Hz
#Samples: 32768
#Trigger: Source: Channel 3 Type: Edge Condition: Rising Level: 60 mV Hyst.: Auto HoldOff: 0 s
#Channel 3: Range: 200 mV/div Offset: 0 V Attenuation: 1 X Coupling: DC Bandwidth: 0 Hz Sample Mode: Average

Time (s),Channel 3 (V)
-0.00557039863692689,0.004433344599701455
-0.00557005863692689,0.004137122579907388
-0.00556971863692689,0.002458531134428029
-0.00556937863692689,0.002359790461164357
-0.00556903863692689,0.002425617576671077
-0.00556869863692689,0.001109075266491187
-0.00556835863692689,-0.002379761855491866
-0.00556801863692689,-0.000306207716951236
-0.00556767863692689,0.001635692190564101
-0.00556733863692689,0.0027876667119736
-0.00556699863692689,0.00291932094298195
-0.00556665863692689,-0.002511416086510094
-0.00556631863692689,-0.002840551664055666
-0.00556597863692689,-4.28992549211852e-05
-0.00556563863692689,-0.001622750027137053
-0.00556529863692689,-0.003531736376901365
-0.00556495863692689,-0.00363047705016354
-0.00556461863692689,-0.002807638106301108
-0.00556427863692689,-0.002379761855491866
-0.00556393863692689,-0.002050626277948989
-0.00556359863692689,-0.003531736376901365
-0.00556325863692689,-0.003564649934655922
-0.005562918636926891,-0.003762131281182906
-0.00556257863692689,-0.004749538013819977
-0.00556223863692689,-0.005769858304211248
-0.005561898636926891,-0.005934426092983734
-0.00556155863692689,-0.006131907439511376
-0.00556121863692689,-0.00665852436358429
-0.005560878636926891,-0.006757265036847782
-0.00556053863692689,-0.008073807347030245
-0.00556019863692689,-0.008633337828857716
-0.005559858636926891,-0.008139634462540258
-0.00555951863692689,-0.007876326000502903
-0.00555917863692689,-0.008830819175385059
-0.005558838636926891,-0.008600424271103579
-0.00555849863692689,-0.00790923955825746
-0.00555815863692689,-0.0106410648518857
-0.005557818636926891,-0.009522003888232794
-0.00555747863692689,-0.006395215901547833
-0.00555713863692689,-0.006164820997265934
-0.005556798636926891,-0.004848278687086044
-0.00555645863692689,-0.006921832825620747
-0.00555611863692689,-0.01199052071982254
-0.005555778636926891,-0.01218800206634952
-0.00555543863692689,-0.01067397840964026
-0.00555509863692689,-0.01182595293104976
-0.00555475863692689,-0.01291210033694816
-0.00555441863692689,-0.01310958168347748
-0.00555407863692689,-0.0134058037032685
-0.00555373863692689,-0.01376785283856862
-0.00555339863692689,-0.01238548341287723
-0.00555305863692689,-0.01357037149204128
-0.00555271863692689,-0.01373493928081407
-0.00555237863692689,-0.01291210033695014
-0.00555203863692689,-0.01185886648880431
-0.00555169863692689,-0.01215508850859533
-0.00555135863692689,-0.01241839697062969
-0.00555101863692689,-0.01126642244922228
-0.00555067863692689,-0.01126642244922228
-0.00555033863692689,-0.01047649706311507
-0.00554999863692689,-0.01166138514227697
-0.00554965863692689,-0.01245131052838634
-0.00554931863692689,-0.01133224956473176
-0.00554897863692689,-0.01152973091125874
-0.00554863863692689,-0.01103602754494038
-0.00554829863692689,-0.01011444792781165
-0.00554795863692689,-0.009489090330476201
-0.00554761863692689,-0.01274753254817735
-0.00554727863692689,-0.01133224956472607
-0.00554693863692689,-0.008402942924575817
-0.00554659863692689,-0.007645931096221003
-0.00554625863692689,-0.007942153116014651
-0.00554591863692689,-0.00939034965721253
-0.00554557863692689,-0.01093728687167671
-0.00554523863692689,-0.01031192927433845
-0.00554489863692689,-0.00939034965721253
-0.00554455863692689,-0.01044358350535836
-0.00554421863692689,-0.01152973091125886
-0.00554387863692689,-0.01159555802676786
-0.00554353863692689,-0.01205634783533165
-0.00554319863692689,-0.01360328504979662
-0.00554285863692689,-0.01403116130060508
-0.00554251863692689,-0.0150185680332418
-0.005542178636926891,-0.01521604937976878
-0.00554183863692689,-0.01521604937976914
-0.00554149863692689,-0.01478817312895989
-0.005541158636926891,-0.01531479005303185
-0.00554081863692689,-0.01564392563057838
-0.00554047863692689,-0.01436029687815065
-0.005540138636926891,-0.01459069178243213
-0.00553979863692689,-0.01383367995407774
-0.00553945863692689,-0.01238548341287723
-0.005539118636926891,-0.01218800206635024
-0.00553877863692689,-0.01070689196739481
-0.00553843863692689,-0.01001570725454911
-0.005538098636926891,-0.01126642244922001
-0.00553775863692689,-0.01185886648880431
-0.00553741863692689,-0.01139807668024051
-0.005537078636926891,-0.0150843951487442
-0.00553673863692689,-0.01389950706958685
-0.00553639863692689,-0.01123350889146773
-0.005536058636926891,-0.01064106485188678
-0.00553571863692689,-0.01024610215883101
-0.00553537863692689,-0.01353745793428673
-0.005535038636926891,-0.01554518495731106
-0.00553469863692689,-0.01357037149204128
-0.00553435863692689,-0.01442612399365977
-0.00553401863692689,-0.01577557986159416
-0.00553367863692689,-0.01653259168995142
-0.00553333863692689,-0.01574266630384205
-0.00553299863692689,-0.01462360534018711
-0.00553265863692689,-0.01449195110916888
-0.00553231863692689,-0.01357037149204128
-0.00553197863692689,-0.01304375456796837
-0.00553163863692689,-0.01347163081877761
-0.00553129863692689,-0.01366911216530495
-0.00553095863692689,-0.01436029687815065
-0.00553061863692689,-0.01590723409261484
-0.00553027863692689,-0.01610471543914218
-0.00552993863692689,-0.0152489629375237
-0.00552959863692689,-0.01393242062734075
-0.00552925863692689,-0.01357037149204128
-0.00552891863692689,-0.0124842240861409
-0.00552857863692689,-0.01136516312248536
-0.00552823863692689,-0.01103602754494038
-0.00552789863692689,-0.01159555802676786
-0.00552755863692689,-0.01251713764389569
-0.00552721863692689,-0.01264879187491368
-0.00552687863692689,-0.01459069178243255
-0.00552653863692689,-0.01590723409261101
-0.00552619863692689,-0.01380076639632318
-0.00552585863692689,-0.01258296475940457
-0.00552551863692689,-0.01126642244922773
-0.00552517863692689,-0.01426155620488698
-0.00552483863692689,-0.01686172726749699
-0.00552449863692689,-0.01531479005303131
-0.00552415863692689,-0.01449195110916888
-0.00552381863692689,-0.01577557986159661
-0.00552347863692689,-0.01965937967664865
-0.00552313863692689,-0.0275257199799735
-0.00552279863692689,-0.04029618038874165
-0.00552245863692689,-0.05866194561583098
-0.00552211863692689,-0.08420286643332084
-0.00552177863692689,-0.1139567226434405
-0.00552143863692689,-0.144928380490534
-0.00552109863692689,-0.1753075942979349
-0.00552075863692689,-0.2030537234850266
-0.005520418636926891,-0.2264223494907196
-0.00552007863692689,-0.2445248062557685
-0.00551973863692689,-0.2573940073378003
-0.005519398636926891,-0.2637463239844183
-0.00551905863692689,-0.2679263458192586
-0.00551871863692689,-0.2683871356278224
-0.005518378636926891,-0.2648982985058457
-0.00551803863692689,-0.2598296106116376
-0.00551769863692689,-0.254892576948454
-0.005517358636926891,-0.2492972721301895
-0.00551701863692689,-0.2421879436551949
-0.00551667863692689,-0.2357368863353018
-0.005516338636926891,-0.2303390628635642
-0.00551599863692689,-0.2226043767912335
-0.00551565863692689,-0.2115125078279477
-0.005515318636926891,-0.2051272776235752
-0.00551497863692689,-0.1994661456897798
-0.00551463863692689,-0.1922580765415318
-0.005514298636926891,-0.1858728463371593
-0.00551395863692689,-0.1788951720931816
-0.00551361863692689,-0.1719833249647247
-0.00551327863692689,-0.1645777744699627
-0.00551293863692689,-0.1585875069586199
-0.00551259863692689,-0.1539466953152273
-0.00551225863692689,-0.1486805260744982
-0.00551191863692689,-0.1427231721209234
-0.00551157863692689,-0.1384773231705855
-0.00551123863692689,-0.1348239182598297
-0.00551089863692689,-0.129228613441555
-0.00551055863692689,-0.124094098431844
-0.00551021863692689,-0.1193545461151878
-0.00550987863692689,-0.1147795615873044
-0.00550953863692689,-0.1110274160032849
-0.00550919863692689,-0.1075714924390564
-0.00550885863692689,-0.1037206061817697
-0.00550851863692689,-0.1018116198320089
-0.00550817863692689,-0.09868483184532595
-0.00550783863692689,-0.0951630811655816
-0.00550749863692689,-0.09144384913932341
-0.00550715863692689,-0.0884487153836587
-0.00550681863692689,-0.08574980364778027
-0.00550647863692689,-0.08314963258517502
-0.00550613863692689,-0.08124064623541069
-0.00550579863692689,-0.0795620547899205
-0.00550545863692689,-0.07528329228183586
-0.00550511863692689,-0.07337430593207156
-0.00550477863692689,-0.07005003659885517
-0.00550443863692689,-0.06669285370789646
-0.00550409863692689,-0.06820687736460609
-0.00550375863692689,-0.06807522313358073
-0.00550341863692689,-0.06415850976079557
-0.00550307863692689,-0.06247991831531315
-0.00550273863692689,-0.0618874742757277
-0.00550239863692689,-0.06001140148372136
-0.00550205863692689,-0.05787202022967515
-0.00550171863692689,-0.0565883914772418
-0.00550137863692689,-0.05349451704831906
-0.00550103863692689,-0.05076269175469082
-0.00550069863692689,-0.04934740877124048
-0.00550035863692689,-0.04694471905516219
-0.00550001863692689,-0.04487116491662509
-0.005499678636926891,-0.04375210395297218
-0.00549933863692689,-0.04329131414440635
-0.00549899863692689,-0.04315965991338813
-0.005498658636926891,-0.04332422770216061
-0.00549831863692689,-0.04207351250748774
-0.00549797863692689,-0.04157980914116938
-0.005497638636926891,-0.04181020404545086
-0.00549729863692689,-0.04069114308179634
-0.00549695863692689,-0.03950625500263228
-0.005496618636926891,-0.03832136692347039
-0.00549627863692689,-0.03851884826999557
-0.00549593863692689,-0.03756435509511341
-0.005495598636926891,-0.03930877365610177
-0.00549525863692689,-0.03746561442184974
-0.00549491863692689,-0.033581814606812
-0.005494578636926891,-0.03279188922070407
-0.00549423863692689,-0.02996132325381072
-0.00549389863692689,-0.02996132325381072
-0.005493558636926891,-0.03084998931318215
-0.00549321863692689,-0.02900683007892857
-0.00549287863692689,-0.02611043699652754
-0.005492538636926891,-0.02505720314838363
-0.00549219863692689,-0.02495846247511804
-0.00549185863692689,-0.02420145064676323
-0.00549151863692689,-0.02150253891089446
-0.00549117863692689,-0.01949481188786156
-0.00549083863692689,-0.02137088467987132
-0.00549049863692689,-0.02206206939271702
-0.00549015863692689,-0.02351026593391753
-0.00548981863692689,-0.024069796415745
-0.00548947863692689,-0.02472806757083614
-0.00548913863692689,-0.024069796415745
-0.00548879863692689,-0.02420145064676323
-0.00548845863692689,-0.02255577275903537
-0.00548811863692689,-0.02120631689109733
-0.00548777863692689,-0.02054804573600739
-0.00548743863692689,-0.01982394746540713
-0.00548709863692689,-0.01969229323438753
-0.00548675863692689,-0.01893528140603409
-0.00548641863692689,-0.01807952890441561
-0.00548607863692689,-0.01837575092420943
-0.00548573863692689,-0.0199226881386708
-0.00548539863692689,-0.02025182371621638
-0.00548505863692689,-0.02268742699005222
-0.00548471863692689,-0.02193041516169879
-0.00548437863692689,-0.01913276275256143
-0.00548403863692689,-0.01735543063381403
-0.00548369863692689,-0.01663133236321509
-0.00548335863692689,-0.01926441698357966
-0.00548301863692689,-0.01982394746540498
-0.00548267863692689,-0.01863905938624308
-0.00548233863692689,-0.01590723409261484
-0.00548199863692689,-0.01515022226426326
-0.00548165863692689,-0.01692755438300611
-0.00548131863692689,-0.01745417130707902
-0.00548097863692689,-0.01646676457444189
-0.00548063863692689,-0.01623636967016041
-0.00548029863692689,-0.01745417130707902
-0.00547995863692689,-0.01817826957767994
-0.00547961863692689,-0.0185403187129794
-0.00547927863692689,-0.01715794928728801
-0.005478938636926891,-0.01574266630384463
-0.00547859863692689,-0.01607180188138762
-0.00547825863692689,-0.01699338149851522
-0.005477918636926891,-0.01577557986159882
-0.00547757863692689,-0.01475525957120534
-0.00547723863692689,-0.01544644428405104
-0.005476898636926891,-0.01610471543914098
-0.00547655863692689,-0.01610471543914218
-0.00547621863692689,-0.01590723409261484
-0.005475878636926891,-0.0151173087065069
-0.00547553863692689,-0.01515022226426002
-0.00547519863692689,-0.01570975274608749
-0.005474858636926891,-0.01574266630384199
-0.00547451863692689,-0.01488691380222357
-0.00547417863692689,-0.01139807668024051
-0.005473838636926891,-0.01123350889146803
-0.00547349863692689,-0.01004862081230367
-0.00547315863692689,-0.01172721225778608
-0.005472818636926891,-0.01429446976263687
-0.00547247863692689,-0.01360328504979584
-0.00547213863692689,-0.01284627322144103
-0.005471798636926891,-0.01258296475940505
-0.00547145863692689,-0.01149681735350419
-0.00547111863692689,-0.01212217495084077
-0.00547077863692689,-0.01301084101021219
-0.00547043863692689,-0.01350454437653217
-0.00547009863692689,-0.01314249524123204
-0.00546975863692689,-0.014557778224678
-0.00546941863692689,-0.01531479005303281
-0.00546907863692689,-0.01528187649527825
-0.00546873863692689,-0.01544644428405104
-0.00546839863692689,-0.01449195110916888
-0.00546805863692689,-0.01445903755141432
-0.00546771863692689,-0.01521604937976914
-0.00546737863692689,-0.01478817312895989
-0.00546703863692689,-0.014557778224678
-0.00546669863692689,-0.01597306120812395
-0.00546635863692689,-0.01610471543914021
-0.00546601863692689,-0.0150185680332418
-0.00546567863692689,-0.014557778224678
-0.00546533863692689,-0.01468943245569485
-0.00546499863692689,-0.01393242062734141
-0.00546465863692689,-0.01426155620488698
-0.00546431863692689,-0.01636802390117421
-0.00546397863692689,-0.01393242062734141
-0.00546363863692689,-0.01162847158452241
-0.00546329863692689,-0.01047649706310818
-0.00546295863692689,-0.007876326000502903
-0.00546261863692689,-0.01073980552514937
-0.00546227863692689,-0.01231965629736608
-0.00546193863692689,-0.01120059533371317
-0.00546159863692689,-0.01146390379574963
-0.00546125863692689,-0.01284627322144145
-0.00546091863692689,-0.01307666812572293
-0.00546057863692689,-0.01281335966368647
-0.00546023863692689,-0.01330706303000333
-0.00545989863692689,-0.0124842240861409
-0.00545955863692689,-0.01152973091125874
-0.00545921863692689,-0.01136516312248679
-0.00545887863692689,-0.01182595293104976
-0.00545853863692689,-0.01195760716206798
-0.00545819863692689,-0.01231965629736817
-0.00545785863692689,-0.01235256985512267
-0.00545751863692689,-0.01255005120165001
-0.005457178636926891,-0.01337289014551244
-0.00545683863692689,-0.0134058037032685
-0.00545649863692689,-0.01291210033695014
-0.005456158636926891,-0.01380076639632156
-0.00545581863692689,-0.01462360534018711
-0.00545547863692689,-0.01327414947225027
-0.005455138636926891,-0.01284627322144181
-0.00545479863692689,-0.0138665935118323
-0.00545445863692689,-0.01350454437653217
-0.005454118636926891,-0.01475525957120306
-0.00545377863692689,-0.01567683918833294
-0.00545343863692689,-0.01245131052838634
-0.005453098636926891,-0.0106081512941345
-0.00545275863692689,-0.01162847158452241
-0.00545241863692689,-0.01136516312248596
-0.005452078636926891,-0.01396533418509124
-0.00545173863692689,-0.01656550524770598
-0.00545139863692689,-0.01715794928728801
-0.005451058636926891,-0.01702629505627002
-0.00545071863692689,-0.01669715947872421
-0.00545037863692689,-0.01551227139956015
-0.005450038636926891,-0.01363619860755381
-0.00544969863692689,-0.01357037149204128
-0.00544935863692689,-0.01241839697063178
-0.00544901863692689,-0.0110031139871884
-0.00544867863692689,-0.01152973091125874
-0.00544833863692689,-0.01189178004655887
-0.00544799863692689,-0.009291608983948858
-0.00544765863692689,-0.01152973091125874
-0.00544731863692689,-0.01301084101021381
-0.00544697863692689,-0.0136361986075504
-0.00544663863692689,-0.01491982735997812
-0.00544629863692689,-0.01567683918833294
-0.00544595863692689,-0.01584140697710572
-0.00544561863692689,-0.01643385101668853
-0.00544527863692689,-0.01686172726749699
-0.00544493863692689,-0.01663133236321509
-0.00544459863692689,-0.01623636967015855
-0.00544425863692689,-0.01521604937976914
-0.00544391863692689,-0.01330706303000483
-0.00544357863692689,-0.01524896293752208
-0.00544323863692689,-0.01436029687815065
-0.00544289863692689,-0.01103602754494038
-0.00544255863692689,-0.009390349657213429
-0.00544221863692689,-0.009884053023530886
-0.00544187863692689,-0.012253829181859
-0.00544153863692689,-0.01386659351183332
-0.00544119863692689,-0.01442612399365977
-0.00544085863692689,-0.01228674273961356
-0.00544051863692689,-0.0110689411026938
-0.00544017863692689,-0.01044358350535836
-0.00543983863692689,-0.01120059533371317
-0.00543949863692689,-0.01073980552514794
-0.00543915863692689,-0.009949880139040001
-0.00543881863692689,-0.009752398792512659
-0.00543847863692689,-0.008896646290896867
-0.00543813863692689,-0.01037775638984924
-0.00543779863692689,-0.0101802750433219
-0.00543745863692689,-0.008863732733140573
-0.00543711863692689,-0.00939034965721253
-0.00543677863692689,-0.01097020042943127
-0.005436438636926891,-0.01169429870003021
-0.00543609863692689,-0.01231965629736811
-0.00543575863692689,-0.0131754087989866
-0.005435418636926891,-0.01472234601344797
-0.00543507863692689,-0.01580849341935116
-0.00543473863692689,-0.0152489629375237
-0.005434398636926891,-0.01373493928081682
-0.00543405863692689,-0.01235256985512267
-0.00543371863692689,-0.01370202572305951
-0.005433378636926891,-0.01412990197386797
-0.00543303863692689,-0.01570975274608749
-0.00543269863692689,-0.01663133236321509
-0.005432358636926891,-0.01505148159099923
-0.00543201863692689,-0.01419572908937787
-0.00543167863692689,-0.01324123591449571
-0.005431338636926891,-0.01409698841611264
-0.00543099863692689,-0.0150185680332418
-0.00543065863692689,-0.01495274091773268
-0.005430318636926891,-0.01376785283857078
-0.00542997863692689,-0.0134058037032685
-0.00542963863692689,-0.01333997658775938
-0.005429298636926891,-0.01409698841611282
-0.00542895863692689,-0.01393242062734141
-0.00542861863692689,-0.01396533418509597
-0.00542827863692689,-0.01412990197386845
-0.00542793863692689,-0.01314249524123204
-0.00542759863692689,-0.01406407485835964
-0.00542725863692689,-0.01399824774285052
-0.00542691863692689,-0.01353745793428673
-0.00542657863692689,-0.01370202572305951
-0.00542623863692689,-0.01426155620488698
-0.00542589863692689,-0.01442612399365977
-0.00542555863692689,-0.01383367995407774
-0.00542521863692689,-0.01324123591449571
-0.00542487863692689,-0.01291210033695014
-0.00542453863692689,-0.0131754087989866
-0.00542419863692689,-0.01347163081877761
-0.00542385863692689,-0.01317540879898486
-0.00542351863692689,-0.01222091562410444
-0.00542317863692689,-0.01360328504979584
-0.00542283863692689,-0.01600597476588192
-0.00542249863692689,-0.01788204755788826
-0.00542215863692689,-0.01472234601345078
-0.00542181863692689,-0.01370202572305813
-0.00542147863692689,-0.0129450138947047
-0.00542113863692689,-0.01376785283856862
-0.00542079863692689,-0.01666424592097007
-0.00542045863692689,-0.01689464082525155
-0.00542011863692689,-0.01511730870650547
-0.00541977863692689,-0.01488691380222063
-0.00541943863692689,-0.01327414947225027
-0.00541909863692689,-0.01231965629736811
-0.00541875863692689,-0.01231965629736733
-0.00541841863692689,-0.01189178004655887
-0.00541807863692689,-0.01146390379574963
-0.00541773863692689,-0.01185886648880497
-0.00541739863692689,-0.01222091562410444
-0.00541705863692689,-0.0127146189904228
-0.00541671863692689,-0.01373493928081389
-0.00541637863692689,-0.0136361986075504
-0.00541603863692689,-0.0129450138947047
-0.00541569863692689,-0.01317540879898702
-0.00541535863692689,-0.0134058037032685
-0.00541501863692689,-0.01347163081877761
-0.005414678636926891,-0.01386659351183158
-0.00541433863692689,-0.01465651889794167
-0.00541399863692689,-0.01498565447548724
-0.005413658636926891,-0.01689464082524808
-0.00541331863692689,-0.01686172726749699
-0.00541297863692689,-0.01663133236321509
-0.005412638636926891,-0.01738834419156853
-0.00541229863692689,-0.01837575092420662
