Analysis/files/cmb03_wrd01/d2s07_ch37.csv

#Digilent WaveForms Oscilloscope Acquisition
#Device Name: ADP3450
#Serial Number: SN:210018B9D9B0
#Date Time: 2024-08-13 16:34:57.360.131.030
#Sample rate: 2.94118e+06Hz
#Samples: 32768
#Trigger: Source: Channel 3 Type: Edge Condition: Rising Level: 60 mV Hyst.: Auto HoldOff: 0 s
#Channel 3: Range: 200 mV/div Offset: 0 V Attenuation: 1 X Coupling: DC Bandwidth: 0 Hz Sample Mode: Average

Time (s),Channel 3 (V)
-0.005570271334792123,0.004367517484192341
-0.005569931334792122,0.002293963345657877
-0.005569591334792122,0.003742159886855756
-0.005569251334792123,0.00380798700236487
-0.005568911334792122,0.001010334593228354
-0.005568571334792122,0.001471124401791315
-0.005568231334792123,0.001405297286282201
-0.005567891334792122,-0.001886058489172552
-0.005567551334792122,-0.001359441565100596
-0.005567211334792123,-0.001918972046928067
-0.005566871334792122,-0.002412675413245585
-0.005566531334792122,-0.001951885604682624
-0.005566191334792123,-0.001458182238364267
-0.005565851334792122,-0.004387488878518892
-0.005565511334792122,-0.003860871954446936
-0.005565171334792123,-0.003498822819146808
-0.005564831334792122,-0.004749538013819199
-0.005564491334792122,-0.004321661763010735
-0.005564151334792123,-0.005210327822383777
-0.005563811334792122,-0.004584970225044618
-0.005563471334792122,-0.003169687241601236
-0.005563131334792123,-0.001491095796118824
-0.005562791334792123,-0.003235514357107178
-0.005562451334792122,-0.003795044838937822
-0.005562111334792123,-0.002544329644264652
-0.005561771334792123,-0.003169687241600099
-0.005561431334792122,-0.004519143109538078
-0.005561091334792123,-0.006757265036847961
-0.005560751334792123,-0.007942153116009862
-0.005560411334792122,-0.00962074456149443
-0.005560071334792123,-0.008238375135803031
-0.005559731334792123,-0.009324522541701441
-0.005559391334792122,-0.01057523773637659
-0.005559051334792123,-0.008501683597839487
-0.005558711334792123,-0.00906121407966594
-0.005558371334792122,-0.005276154937892892
-0.005558031334792123,-0.00665852436358429
-0.005557691334792123,-0.003597563492416047
-0.005557351334792122,-0.002610156759773766
-0.005557011334792123,-0.008468770040084931
-0.005556671334792123,-0.00965365811924683
-0.005556331334792122,-0.00860042427110316
-0.005555991334792123,-0.009785312350267215
-0.005555651334792123,-0.01037775638984817
-0.005555311334792122,-0.01235256985512267
-0.005554971334792123,-0.0138665935118323
-0.005554631334792123,-0.01192469360431696
-0.005554291334792122,-0.01212217495084077
-0.005553951334792123,-0.01264879187491368
-0.005553611334792123,-0.0129450138947047
-0.005553271334792122,-0.01136516312248596
-0.005552931334792123,-0.01139807668024051
-0.005552591334792123,-0.01070689196739481
-0.005552251334792122,-0.01205634783533165
-0.005551911334792122,-0.01330706303000483
-0.005551571334792123,-0.01050941062086747
-0.005551231334792122,-0.01162847158452301
-0.005550891334792122,-0.01195760716206798
-0.005550551334792123,-0.0127146189904228
-0.005550211334792122,-0.01166138514227811
-0.005549871334792122,-0.01228674273961356
-0.005549531334792123,-0.01136516312248596
-0.005549191334792122,-0.01176012581554322
-0.005548851334792122,-0.0131754087989866
-0.005548511334792123,-0.01511730870650547
-0.005548171334792122,-0.01682881370973202
-0.005547831334792122,-0.0111018546604495
-0.005547491334792123,-0.01172721225778608
-0.005547151334792122,-0.009916966581288976
-0.005546811334792122,-0.01185886648880431
-0.005546471334792123,-0.01567683918833294
-0.005546131334792122,-0.01370202572305628
-0.005545791334792122,-0.01192469360431343
-0.005545451334792123,-0.01241839697063178
-0.005545111334792122,-0.01090437331392288
-0.005544771334792122,-0.01129933600697684
-0.005544431334792123,-0.01192469360431343
-0.005544091334792122,-0.01162847158451924
-0.005543751334792122,-0.009884053023530886
-0.005543411334792123,-0.01073980552514937
-0.005543071334792122,-0.01083854619841334
-0.005542731334792122,-0.01100311398718583
-0.005542391334792123,-0.01235256985512267
-0.005542051334792123,-0.01139807668024225
-0.005541711334792122,-0.01327414947225027
-0.005541371334792123,-0.01399824774285052
-0.005541031334792123,-0.01287918677919762
-0.005540691334792122,-0.01182595293104976
-0.005540351334792123,-0.0124842240861409
-0.005540011334792123,-0.01222091562410492
-0.005539671334792122,-0.01083854619841304
-0.005539331334792123,-0.01113476821820406
-0.005538991334792123,-0.01146390379574903
-0.005538651334792122,-0.01162847158452241
-0.005538311334792123,-0.01337289014551394
-0.005537971334792123,-0.01788204755788006
-0.005537631334792122,-0.014557778224678
-0.005537291334792123,-0.01195760716206798
-0.005536951334792123,-0.01307666812572089
-0.005536611334792122,-0.0106410648518857
-0.005536271334792123,-0.01370202572305951
-0.005535931334792123,-0.01534770361078437
-0.005535591334792122,-0.01199052071982254
-0.005535251334792123,-0.01093728687167671
-0.005534911334792123,-0.0123525698551201
-0.005534571334792122,-0.01146390379574963
-0.005534231334792123,-0.008534597155594046
-0.005533891334792123,-0.00883081917538452
-0.005533551334792122,-0.007777585327239231
-0.005533211334792123,-0.007053487056638975
-0.005532871334792123,-0.008896646290894173
-0.005532531334792122,-0.01083854619841304
-0.005532191334792123,-0.01208926139308621
-0.005531851334792123,-0.01422864264713243
-0.005531511334792122,-0.01554518495731471
-0.005531171334792123,-0.01610471543914218
-0.005530831334792123,-0.01630219678566952
-0.005530491334792122,-0.01709212217177889
-0.005530151334792122,-0.01985686102316169
-0.005529811334792123,-0.01850740515522485
-0.005529471334792122,-0.01867197294399302
-0.005529131334792122,-0.01613762899689674
-0.005528791334792123,-0.01735543063381535
-0.005528451334792122,-0.01755291198034054
-0.005528111334792122,-0.01636802390117864
-0.005527771334792123,-0.01531479005303281
-0.005527431334792122,-0.01946189833009204
-0.005527091334792122,-0.01123350889146773
-0.005526751334792123,-0.008205461578048474
-0.005526411334792122,-0.01139807668023626
-0.005526071334792122,-0.009061214079666959
-0.005525731334792123,-0.01245131052838634
-0.005525391334792122,-0.01373493928080515
-0.005525051334792122,-0.008830819175385059
-0.005524711334792123,-0.006428129459302391
-0.005524371334792122,-0.008896646290894832
-0.005524031334792122,-0.009258695426194301
-0.005523691334792123,-0.0111018546604495
-0.005523351334792122,-0.01755291198036407
-0.005523011334792122,-0.02930305209871958
-0.005522671334792123,-0.04582565809150724
-0.005522331334792122,-0.06968798746361293
-0.005521991334792122,-0.09815821492125304
-0.005521651334792123,-0.1272537999762815
-0.005521311334792122,-0.1606939746549675
-0.005520971334792122,-0.1914352375976679
-0.005520631334792123,-0.2178319109168227
-0.005520291334792123,-0.2408714013449708
-0.005519951334792122,-0.257788970030855
-0.005519611334792123,-0.2666756306245854
-0.005519271334792123,-0.2724025896738679
-0.005518931334792122,-0.2760230810268797
-0.005518591334792123,-0.2739824404460971
-0.005518251334792123,-0.2680909136080421
-0.005517911334792122,-0.2614752884993654
-0.005517571334792123,-0.2544976142553993
-0.005517231334792123,-0.2484086060708173
-0.005516891334792122,-0.2445577198135231
-0.005516551334792123,-0.2284629900715446
-0.005516211334792123,-0.2190826261115129
-0.005515871334792122,-0.2138493704285213
-0.005515531334792123,-0.2051931047390728
-0.005515191334792123,-0.2021321438679045
-0.005514851334792122,-0.194101235775787
-0.005514511334792123,-0.1875185242248756
-0.005514171334792123,-0.182713144792719
-0.005513831334792122,-0.1788951720931816
-0.005513491334792123,-0.1728390774663431
-0.005513151334792123,-0.1657955761068807
-0.005512811334792122,-0.16154972715653
-0.005512471334792123,-0.1557898545494825
-0.005512131334792123,-0.1489438345365347
-0.005511791334792122,-0.1428877399096962
-0.005511451334792123,-0.137917792688758
-0.005511111334792123,-0.1326516234480289
-0.005510771334792122,-0.1282412067089183
-0.005510431334792123,-0.1230079510259437
-0.005510091334792123,-0.1178076089007236
-0.005509751334792122,-0.1150099564915863
-0.005509411334792122,-0.1129034887952946
-0.005509071334792123,-0.1090196889802569
-0.005508731334792122,-0.1050700620497079
-0.005508391334792122,-0.1039180875283005
-0.005508051334792123,-0.1003963368485629
-0.005507711334792122,-0.09628214212923833
-0.005507371334792122,-0.09355031683561504
-0.005507031334792123,-0.08989691192485921
-0.005506691334792122,-0.09048935596443729
-0.005506351334792122,-0.08831706115264049
-0.005506011334792123,-0.07896961075034625
-0.005505671334792122,-0.07511872449306019
-0.005505331334792122,-0.07353887372084433
-0.005504991334792123,-0.07469084824225383
-0.005504651334792122,-0.07406549064490821
-0.005504311334792122,-0.06909554342397911
-0.005503971334792123,-0.0674169519784967
-0.005503631334792122,-0.06629789101483848
-0.005503291334792122,-0.06448764533834112
-0.005502951334792123,-0.06244700475755859
-0.005502611334792122,-0.05885942696231024
-0.005502271334792122,-0.05797076090293882
-0.005501931334792123,-0.05681878638152932
-0.005501591334792122,-0.05431735599217938
-0.005501251334792122,-0.05234254252690956
-0.005500911334792123,-0.05175009848732753
-0.005500571334792122,-0.04905118675144954
-0.005500231334792122,-0.04668141059312574
-0.005499891334792123,-0.04608896655354371
-0.005499551334792123,-0.04457494289683683
-0.005499211334792122,-0.04385084462623382
-0.005498871334792123,-0.04450911578132496
-0.005498531334792123,-0.04375210395297152
-0.005498191334792122,-0.04269887010482432
-0.005497851334792123,-0.04184311760320584
-0.005497511334792123,-0.04134941423688838
-0.005497171334792122,-0.03825553980795911
-0.005496831334792123,-0.03700482461328594
-0.005496491334792123,-0.03483252980148912
-0.005496151334792122,-0.03637946701594936
-0.005495811334792123,-0.03124495200623845
-0.005495471334792123,-0.02910557075219613
-0.005495131334792122,-0.02634083190080944
-0.005494791334792123,-0.02630791834305488
-0.005494451334792123,-0.03427299931964321
-0.005494111334792122,-0.03266023498968441
-0.005493771334792123,-0.03081707575542921
-0.005493431334792123,-0.03196905027683661
-0.005493091334792122,-0.03127786556399301
-0.005492751334792123,-0.03078416219767465
-0.005492411334792123,-0.03002715036932121
-0.005492071334792122,-0.02900683007892857
-0.005491731334792123,-0.02808525046180097
-0.005491391334792123,-0.02894100296341789
-0.005491051334792122,-0.02867769450138299
-0.005490711334792123,-0.0275257199799735
-0.005490371334792123,-0.02801942334629185
-0.005490031334792122,-0.02726241151793704
-0.005489691334792123,-0.02643957257407311
-0.005489351334792123,-0.02558382007245463
-0.005489011334792122,-0.02327987102963563
-0.005488671334792122,-0.02229246429699892
-0.005488331334792123,-0.02252285920128081
-0.005487991334792122,-0.02268742699004827
-0.005487651334792122,-0.01975812034989802
-0.005487311334792123,-0.01959355256112523
-0.005486971334792122,-0.02005434236968598
-0.005486631334792122,-0.01837575092420662
-0.005486291334792123,-0.02127214400660764
-0.005485951334792122,-0.02258868631679394
-0.005485611334792122,-0.02479389468634526
-0.005485271334792123,-0.0190011085215432
-0.005484931334792122,-0.02104174910232066
-0.005484591334792122,-0.01824409669318839
-0.005484251334792123,-0.01952772544561612
-0.005483911334792122,-0.0237406608381932
-0.005483571334792122,-0.02031765083172549
-0.005483231334792123,-0.01666424592096965
-0.005482891334792122,-0.008863732733152966
-0.005482551334792122,-0.01620345611240585
-0.005482211334792123,-0.01511730870650547
-0.005481871334792122,-0.01580849341935098
-0.005481531334792122,-0.01570975274608749
-0.005481191334792123,-0.01528187649527825
-0.005480851334792122,-0.01824409669319097
-0.005480511334792122,-0.01965937967663435
-0.005480171334792123,-0.02051513217825283
-0.005479831334792122,-0.02183167448843302
-0.005479491334792122,-0.02067969996702562
-0.005479151334792123,-0.01903402207929776
-0.005478811334792123,-0.01830992380869883
-0.005478471334792122,-0.01649967813219686
-0.005478131334792123,-0.01422864264713243
-0.005477791334792123,-0.0121550885085991
-0.005477451334792122,-0.0111018546604495
-0.005477111334792123,-0.00962074456149443
-0.005476771334792123,-0.009587831003739933
-0.005476431334792122,-0.01261587831715913
-0.005476091334792123,-0.01222091562410444
-0.005475751334792123,-0.01199052071982296
-0.005475411334792122,-0.01636802390117864
-0.005475071334792123,-0.01324123591449571
-0.005474731334792123,-0.01143099023799836
-0.005474391334792122,-0.0124842240861409
-0.005474051334792123,-0.009916966581285444
-0.005473711334792123,-0.01291210033694469
-0.005473371334792122,-0.01751999842258814
-0.005473031334792123,-0.01590723409261484
-0.005472691334792123,-0.01314249524123707
-0.005472351334792122,-0.01603888832363307
-0.005472011334792123,-0.01676298659423332
-0.005471671334792123,-0.01867197294399416
-0.005471331334792122,-0.01933024409908878
-0.005470991334792123,-0.01919858986807055
-0.005470651334792123,-0.01804661534666314
-0.005470311334792122,-0.01873780005950675
-0.005469971334792123,-0.0213050575643622
-0.005469631334792123,-0.01755291198034269
-0.005469291334792122,-0.01590723409261484
-0.005468951334792123,-0.01574266630384205
-0.005468611334792123,-0.01498565447548724
-0.005468271334792122,-0.01212217495084077
-0.005467931334792123,-0.01077271908290393
-0.005467591334792123,-0.01162847158452241
-0.005467251334792122,-0.01162847158452241
-0.005466911334792122,-0.01324123591449571
-0.005466571334792123,-0.01222091562410444
-0.005466231334792122,-0.014228642647135
-0.005465891334792122,-0.01564392563057838
-0.005465551334792123,-0.01557809851506927
-0.005465211334792122,-0.01518313582201937
-0.005464871334792122,-0.01781622044237915
-0.005464531334792123,-0.0120234342775771
-0.005464191334792122,-0.009258695426195857
-0.005463851334792122,-0.01011444792781279
-0.005463511334792123,-0.007843412442748346
-0.005463171334792122,-0.01129933600698151
-0.005462831334792122,-0.0138665935118323
-0.005462491334792123,-0.01241839697063178
-0.005462151334792122,-0.01136516312248781
-0.005461811334792122,-0.01238548341287723
-0.005461471334792123,-0.01373493928081407
-0.005461131334792122,-0.01337289014551789
-0.005460791334792122,-0.01554518495731471
-0.005460451334792123,-0.01491982735997812
-0.005460111334792122,-0.01455777822468213
-0.005459771334792122,-0.01682881370974244
-0.005459431334792123,-0.01768456621136092
-0.005459091334792122,-0.01534770361078114
-0.005458751334792122,-0.01192469360431343
-0.005458411334792123,-0.01172721225778608
-0.005458071334792122,-0.01057523773637431
-0.005457731334792122,-0.009324522541703417
-0.005457391334792123,-0.008007980231521132
-0.005457051334792123,-0.007744671769485153
-0.005456711334792122,-0.009423263214967087
-0.005456371334792123,-0.01050941062086747
-0.005456031334792123,-0.01011444792781351
-0.005455691334792122,-0.009949880139040001
-0.005455351334792123,-0.0113322495647314
-0.005455011334792123,-0.01278044610592928
-0.005454671334792122,-0.01212217495084077
-0.005454331334792123,-0.01587432053486028
-0.005453991334792123,-0.01182595293105712
-0.005453651334792122,-0.01024610215883101
-0.005453311334792123,-0.009554917445985316
-0.005452971334792123,-0.00962074456149431
-0.005452631334792122,-0.01416281553162331
-0.005452291334792123,-0.01531479005303281
-0.005451951334792123,-0.01439321043590689
-0.005451611334792122,-0.01327414947225027
-0.005451271334792123,-0.01376785283856862
-0.005450931334792123,-0.01577557986159295
-0.005450591334792122,-0.01366911216530495
-0.005450251334792123,-0.0127146189904228
-0.005449911334792123,-0.01172721225778788
-0.005449571334792122,-0.01103602754494038
-0.005449231334792123,-0.008929559848648731
-0.005448891334792123,-0.009522003888229682
-0.005448551334792122,-0.009587831003739873
-0.005448211334792123,-0.00939034965721253
-0.005447871334792123,-0.01136516312248596
-0.005447531334792122,-0.01215508850859533
-0.005447191334792123,-0.01274753254817735
-0.005446851334792123,-0.01376785283856862
-0.005446511334792122,-0.01416281553162331
-0.005446171334792122,-0.01373493928081407
-0.005445831334792123,-0.0143273833203961
-0.005445491334792122,-0.01370202572305867
-0.005445151334792122,-0.01324123591449571
-0.005444811334792123,-0.01304375456796837
-0.005444471334792122,-0.01412990197387259
-0.005444131334792122,-0.01623636967016041
-0.005443791334792123,-0.01561101207282382
-0.005443451334792122,-0.009456176772725535
-0.005443111334792122,-0.01159555802676786
-0.005442771334792123,-0.01429446976264154
-0.005442431334792122,-0.01488691380221824
-0.005442091334792122,-0.01195760716206798
-0.005441751334792123,-0.01291210033695014
-0.005441411334792122,-0.01314249524122977
-0.005441071334792122,-0.01189178004655887
-0.005440731334792123,-0.01297792745245925
-0.005440391334792122,-0.01455777822467788
-0.005440051334792122,-0.01449195110916888
-0.005439711334792123,-0.01314249524123204
-0.005439371334792122,-0.0127475325481637
-0.005439031334792122,-0.005243241380138334
-0.005438691334792123,-0.01278044610593191
-0.005438351334792122,-0.01248422408614084
-0.005438011334792122,-0.01245131052838634
-0.005437671334792123,-0.01215508850859533
-0.005437331334792122,-0.01238548341287884
-0.005436991334792122,-0.01327414947225027
-0.005436651334792123,-0.0120234342775771
-0.005436311334792123,-0.0119905207198226
-0.005435971334792122,-0.01396533418509597
-0.005435631334792123,-0.01268170543266824
-0.005435291334792123,-0.01225382918185978
-0.005434951334792122,-0.0129450138947047
-0.005434611334792123,-0.0124842240861409
-0.005434271334792123,-0.01281335966368587
-0.005433931334792122,-0.01482108668671445
-0.005433591334792123,-0.01584140697710572
-0.005433251334792123,-0.01156264446902108
-0.005432911334792122,-0.01366911216530495
-0.005432571334792123,-0.01192469360431343
-0.005432231334792123,-0.01307666812572083
-0.005431891334792122,-0.01656550524770598
-0.005431551334792123,-0.01284627322144103
-0.005431211334792123,-0.01176012581554262
-0.005430871334792122,-0.01508439514875091
-0.005430531334792123,-0.01541353072629648
-0.005430191334792123,-0.01189178004656528
-0.005429851334792122,-0.01231965629736811
-0.005429511334792123,-0.01347163081877761
-0.005429171334792123,-0.01324123591449613
-0.005428831334792122,-0.01241839697063178
-0.005428491334792123,-0.01304375456796837
-0.005428151334792123,-0.0115297309112615
-0.005427811334792122,-0.01261587831715913
-0.005427471334792123,-0.0131754087989866
-0.005427131334792123,-0.01126642244922228
-0.005426791334792122,-0.01097020042943127
-0.005426451334792123,-0.01373493928081407
-0.005426111334792123,-0.01373493928081407
-0.005425771334792122,-0.01350454437653217
-0.005425431334792123,-0.01465651889794167
-0.005425091334792123,-0.01462360534018711
-0.005424751334792122,-0.01547935784180559
-0.005424411334792122,-0.01584140697710572
-0.005424071334792123,-0.0136361986075504
-0.005423731334792122,-0.01251713764390036
-0.005423391334792122,-0.01521604937976914
-0.005423051334792123,-0.01607180188138762
-0.005422711334792122,-0.00609899388176574
-0.005422371334792122,-0.01100311398718583
-0.005422031334792123,-0.009028300521912402
-0.005421691334792122,-0.009192868310691714
-0.005421351334792122,-0.01278044610593191
-0.005421011334792123,-0.0101802750433219
-0.005420671334792122,-0.008896646290900579
-0.005420331334792122,-0.01241839697063178
-0.005419991334792123,-0.01459069178243255
-0.005419651334792122,-0.01491982735997333
-0.005419311334792122,-0.01228674273961356
-0.005418971334792123,-0.01054232417862203
-0.005418631334792122,-0.01659841880546341
-0.005418291334792122,-0.01817826957767928
-0.005417951334792123,-0.0150185680332418
-0.005417611334792122,-0.01337289014551651
-0.005417271334792122,-0.01478817312895989
-0.005416931334792123,-0.0159401476503694
-0.005416591334792122,-0.01462360534018825
-0.005416251334792122,-0.0152489629375237
-0.005415911334792123,-0.01663133236321509
-0.005415571334792122,-0.01689464082525047
