Analysis/files/cmb03_wrd01/d2s08_ch32.csv

#Digilent WaveForms Oscilloscope Acquisition
#Device Name: ADP3450
#Serial Number: SN:210018B9D9B0
#Date Time: 2024-08-13 17:42:20.417.677.830
#Sample rate: 2.94118e+06Hz
#Samples: 32768
#Trigger: Source: Channel 3 Type: Edge Condition: Rising Level: 60 mV Hyst.: Auto HoldOff: 0 s
#Channel 3: Range: 200 mV/div Offset: 0 V Attenuation: 1 X Coupling: DC Bandwidth: 0 Hz Sample Mode: Average

Time (s),Channel 3 (V)
-0.005570379086419754,0.01055526634204908
-0.005570039086419753,0.004433344599709178
-0.005569699086419753,0.008679193550039321
-0.005569359086419754,0.01246425269181339
-0.005569019086419753,0.00551949200559693
-0.005568679086419753,0.002820580269728157
-0.005568339086419754,0.004992875081528926
-0.005567999086419753,0.002623098923196504
-0.005567659086419753,0.0002533227648727025
-0.005567319086419754,0.0005166312269091594
-0.005566979086419753,-0.00132652800734987
-0.005566639086419753,-0.003432995703637694
-0.005566299086419754,-0.002313934739982752
-0.005565959086419753,0.000253322764873361
-0.005565619086419753,0.0006153719001728307
-0.005565279086419754,0.001602778632809544
-0.005564939086419753,0.00328137007829016
-0.005564599086419753,0.002293963345655243
-0.005564259086419754,0.002458531134428029
-0.005563919086419753,0.00160277863280661
-0.005563579086419753,-9.985697163754359e-06
-0.005563239086419754,0.001043248150982073
-0.005562899086419754,0.001734432863826515
-0.005562559086419753,-0.0006682568522548965
-0.005562219086419753,-0.00165566358489161
-0.005561879086419754,-0.0007340839677656871
-0.005561539086419753,-0.001622750027137053
-0.005561199086419753,-0.004190007531992507
-0.005560859086419754,-0.004881192244836949
-0.005560519086419753,-0.006559783690320619
-0.005560179086419753,-0.007349709076429989
-0.005559839086419754,-0.007218054845412001
-0.005559499086419753,-0.008073807347030245
-0.005559159086419753,-0.008896646290894173
-0.005558819086419754,-0.007316795518678306
-0.005558479086419753,-0.007020573498884419
-0.005558139086419753,-0.009884053023530886
-0.005557799086419754,-0.009357436099458931
-0.005557459086419753,-0.009554917445985316
-0.005557119086419753,-0.0129450138947047
-0.005556779086419754,-0.008797905617638047
-0.005556439086419753,-0.007711758211730118
-0.005556099086419753,-0.006493956574811504
-0.005555759086419754,-0.004420402436278179
-0.005555419086419753,-0.006362302343793276
-0.005555079086419753,-0.007250968403166318
-0.005554739086419754,-0.004749538013824528
-0.005554399086419753,-0.002840551664055666
-0.005554059086419753,-0.003432995703637694
-0.005553719086419754,-0.002741810990791994
-0.005553379086419753,-0.001984799162437181
-0.005553039086419753,-0.003564649934655922
-0.005552699086419754,-0.004749538013819977
-0.005552359086419753,-0.003860871954446936
-0.005552019086419753,-0.005934426092984033
-0.005551679086419754,-0.008172548020293918
-0.005551339086419753,-0.007580103980710931
-0.005550999086419753,-0.007053487056638975
-0.005550659086419754,-0.01103602754494038
-0.005550319086419753,-0.009094127637420856
-0.005549979086419753,-0.008732078502121389
-0.005549639086419754,-0.007580103980711889
-0.005549299086419753,-0.007053487056638676
-0.005548959086419753,-0.00688891926786619
-0.005548619086419754,-0.008238375135803031
-0.005548279086419753,-0.007777585327239531
-0.005547939086419753,-0.007942153116012016
-0.005547599086419754,-0.01090437331392216
-0.005547259086419753,-0.003038033010602466
-0.005546919086419753,-0.01373493928081407
-0.005546579086419754,-0.01541353072629648
-0.005546239086419753,-0.009423263214965231
-0.005545899086419753,-0.008402942924575817
-0.005545559086419754,-0.007152227729902647
-0.005545219086419753,-0.009357436099459829
-0.005544879086419753,-0.01037775638984924
-0.005544539086419754,-0.009752398792512659
-0.005544199086419753,-0.007547190422957571
-0.005543859086419753,-0.00767884465397556
-0.005543519086419754,-0.006461043017056948
-0.005543179086419753,-0.007250968403162906
-0.005542839086419753,-0.005374895611156563
-0.005542499086419754,-0.004683710898310864
-0.005542159086419754,-0.006197734555017737
-0.005541819086419753,-0.006131907439511376
-0.005541479086419753,-0.006592697248075176
-0.005541139086419754,-0.008764992059871994
-0.005540799086419753,-0.01001570725454911
-0.005540459086419753,-0.01024610215883101
-0.005540119086419754,-0.007613017538471236
-0.005539779086419753,-0.005309068495647449
-0.005539439086419753,-0.004881192244838206
-0.005539099086419754,-0.007547190422952483
-0.005538759086419753,-0.00586859897747492
-0.005538419086419753,-0.005045760033610991
-0.005538079086419754,-0.00781049888498876
-0.005537739086419753,-0.01024610215883101
-0.005537399086419753,-0.01050941062086747
-0.005537059086419754,-0.01050941062086747
-0.005536719086419753,-0.01011444792781279
-0.005536379086419753,-0.01073980552514937
-0.005536039086419754,-0.01449195110916206
-0.005535699086419753,-0.00711931417214809
-0.005535359086419753,-0.004255834647501621
-0.005535019086419754,-0.003202600799357709
-0.005534679086419753,-0.006790178594602518
-0.005534339086419753,-0.009554917445985316
-0.005533999086419754,-0.007481363307451989
-0.005533659086419753,-0.00688891926786619
-0.005533319086419753,-0.008764992059875945
-0.005532979086419754,-0.009884053023530886
-0.005532639086419753,-0.01037775638984924
-0.005532299086419753,-0.0101802750433219
-0.005531959086419754,-0.01008153437005823
-0.005531619086419753,-0.0113322495647314
-0.005531279086419753,-0.009653658119248986
-0.005530939086419754,-0.009554917445985316
-0.005530599086419753,-0.008896646290894173
-0.005530259086419753,-0.009818225908021772
-0.005529919086419754,-0.01004862081230367
-0.005529579086419753,-0.0108056326406607
-0.005529239086419753,-0.0120234342775771
-0.005528899086419754,-0.01241839697063178
-0.005528559086419753,-0.01531479005303257
-0.005528219086419753,-0.01518313582201458
-0.005527879086419754,-0.014557778224678
-0.005527539086419753,-0.0144590375514157
-0.005527199086419753,-0.01521604937976914
-0.005526859086419754,-0.01445903755141432
-0.005526519086419753,-0.01231965629736919
-0.005526179086419753,-0.01291210033695014
-0.005525839086419754,-0.01445903755141432
-0.005525499086419753,-0.009324522541699704
-0.005525159086419753,-0.007283881960920875
-0.005524819086419754,-0.005276154937892892
-0.005524479086419753,-0.003663390607930729
-0.005524139086419753,-0.009785312350267215
-0.005523799086419754,-0.01241839697063178
-0.005523459086419753,-0.0124842240861585
-0.005523119086419753,-0.02216081006598069
-0.005522779086419754,-0.03753144153735886
-0.005522439086419753,-0.05793784734523545
-0.005522099086419753,-0.08607893922533058
-0.005521759086419754,-0.1163923259172777
-0.005521419086419753,-0.1468373668403001
-0.005521079086419753,-0.1782039873803359
-0.005520739086419753,-0.2072008317621007
-0.005520399086419754,-0.2305694577677938
-0.005520059086419753,-0.2498238890542522
-0.005519719086419753,-0.2630551392715841
-0.005519379086419754,-0.2698682457267651
-0.005519039086419753,-0.2737191319840607
-0.005518699086419753,-0.2725342439048966
-0.005518359086419754,-0.267399728895195
-0.005518019086419753,-0.2616398562881382
-0.005517679086419753,-0.2550242311794722
-0.005517339086419754,-0.2467629281830934
-0.005516999086419753,-0.2379091811471025
-0.005516659086419753,-0.2308985933453819
-0.005516319086419754,-0.2222094140981946
-0.005515979086419753,-0.2147709500456489
-0.005515639086419753,-0.2094060401316561
-0.005515299086419754,-0.2062134250294698
-0.005514959086419753,-0.1931467426009049
-0.005514619086419753,-0.1867944259542753
-0.005514279086419754,-0.1805079364231664
-0.005513939086419753,-0.173365694390416
-0.005513599086419753,-0.1732011266016432
-0.005513259086419754,-0.1668158963972708
-0.005512919086419753,-0.1578963222457742
-0.005512579086419753,-0.1532225970446271
-0.005512239086419754,-0.1477260328996161
-0.005511899086419753,-0.1414066298107411
-0.005511559086419753,-0.1357454978769573
-0.005511219086419754,-0.1322237471972197
-0.005510879086419753,-0.1266613559366995
-0.005510539086419753,-0.1232383459302256
-0.005510199086419754,-0.1210331375606702
-0.005509859086419753,-0.11770886822746
-0.005509519086419753,-0.1144175124520043
-0.005509179086419754,-0.1099083550396299
-0.005508839086419753,-0.1054650247427559
-0.005508499086419753,-0.1005938181950903
-0.005508159086419754,-0.09647962347577063
-0.005507819086419753,-0.09095014577299641
-0.005507479086419753,-0.08621059345634882
-0.005507139086419754,-0.08344585460496601
-0.005506799086419753,-0.07946331411665664
-0.005506459086419753,-0.07508581093530853
-0.005506119086419754,-0.07666566170752726
-0.005505779086419753,-0.07294642968125788
-0.005505439086419753,-0.07051082640742506
-0.005505099086419754,-0.07228815852617115
-0.005504759086419753,-0.06985255525231891
-0.005504419086419753,-0.0615912522559401
-0.005504079086419754,-0.06011014215698503
-0.005503739086419753,-0.0579378473451839
-0.005503399086419753,-0.05774036599865692
-0.005503059086419754,-0.0581353286917116
-0.005502719086419753,-0.04661558347762716
-0.005502379086419753,-0.05240836964241867
-0.005502039086419754,-0.05096017310121816
-0.005501699086419753,-0.05040064261938536
-0.005501359086419753,-0.04747133597923511
-0.005501019086419754,-0.04671432415088029
-0.005500679086419753,-0.04641810213108574
-0.005500339086419753,-0.0444762022235704
-0.005499999086419754,-0.04444328866581585
-0.005499659086419754,-0.0438179310684804
-0.005499319086419753,-0.04269887010482432
-0.005498979086419753,-0.04052657529302355
-0.005498639086419754,-0.04075697019730504
-0.005498299086419753,-0.03835428048122278
-0.005497959086419753,-0.03825553980795911
-0.005497619086419754,-0.03825553980795911
-0.005497279086419753,-0.03628072634268568
-0.005496939086419753,-0.03381220951109391
-0.005496599086419754,-0.03256149431642301
-0.005496259086419753,-0.03213361806561149
-0.005495919086419753,-0.02920431142545591
-0.005495579086419754,-0.02604460988102417
-0.005495239086419753,-0.02433310487778146
-0.005494899086419753,-0.02420145064676323
-0.005494559086419754,-0.03065250796664469
-0.005494219086419753,-0.02680162170937324
-0.005493879086419753,-0.0215354524686441
-0.005493539086419754,-0.02091009487130865
-0.005493199086419753,-0.02324695747188107
-0.005492859086419753,-0.02370774728044487
-0.005492519086419754,-0.02278616766331895
-0.005492179086419753,-0.0206138728515165
-0.005491839086419753,-0.02127214400660764
-0.005491499086419754,-0.02308238968310499
-0.005491159086419753,-0.0238394015114631
-0.005490819086419753,-0.02410270997349956
-0.005490479086419754,-0.02347735237616297
-0.005490139086419753,-0.02604460988101842
-0.005489799086419753,-0.02564964718796374
-0.005489459086419754,-0.02216081006598069
-0.005489119086419753,-0.02288490833658094
-0.005488779086419753,-0.02275325410556272
-0.005488439086419754,-0.02091009487130752
-0.005488099086419753,-0.0205809592937562
-0.005487759086419753,-0.01742125774932446
-0.005487419086419754,-0.01617054255465129
-0.005487079086419753,-0.01712503572953405
-0.005486739086419753,-0.01745417130707902
-0.005486399086419754,-0.01574266630384205
-0.005486059086419753,-0.01636802390118151
-0.005485719086419753,-0.01794787467339738
-0.005485379086419754,-0.01742125774932446
-0.005485039086419753,-0.01692755438300736
-0.005484699086419753,-0.01761873909585181
-0.005484359086419754,-0.01824409669318839
-0.005484019086419753,-0.02012016948518551
-0.005483679086419753,-0.0131754087989866
-0.005483339086419754,-0.0101802750433219
-0.005482999086419753,-0.008073807347036412
-0.005482659086419753,-0.01146390379574963
-0.005482319086419754,-0.01360328504979584
-0.005481979086419753,-0.01070689196739488
-0.005481639086419753,-0.01073980552514937
-0.005481299086419754,-0.01307666812572293
-0.005480959086419753,-0.01231965629736721
-0.005480619086419753,-0.01182595293104976
-0.005480279086419754,-0.01215508850859533
-0.005479939086419753,-0.01087145975617089
-0.005479599086419753,-0.01268170543266824
-0.005479259086419754,-0.01169429870003153
-0.005478919086419754,-0.0108714597561691
-0.005478579086419753,-0.01116768177595861
-0.005478239086419753,-0.01120059533371317
-0.005477899086419754,-0.00978531235026979
-0.005477559086419753,-0.008929559848648731
-0.005477219086419753,-0.01027901571658557
-0.005476879086419754,-0.008534597155597219
-0.005476539086419753,-0.009719485234758102
-0.005476199086419753,-0.01057523773637659
-0.005475859086419754,-0.009752398792514156
-0.005475519086419753,-0.009818225908021772
-0.005475179086419753,-0.01146390379574963
-0.005474839086419754,-0.01139807668024063
-0.005474499086419753,-0.01136516312248596
-0.005474159086419753,-0.0117930393732952
-0.005473819086419754,-0.01574266630383487
-0.005473479086419753,-0.0138665935118323
-0.005473139086419753,-0.01011444792781279
-0.005472799086419754,-0.01073980552514823
-0.005472459086419753,-0.008337115809066702
-0.005472119086419753,-0.01406407485835964
-0.005471779086419754,-0.01669715947871942
-0.005471439086419753,-0.01235256985512267
-0.005471099086419753,-0.01189178004655887
-0.005470759086419754,-0.01314249524122977
-0.005470419086419753,-0.01195760716206798
-0.005470079086419753,-0.01021318860107646
-0.005469739086419754,-0.01047649706311291
-0.005469399086419753,-0.008732078502121389
-0.005469059086419753,-0.007876326000502903
-0.005468719086419754,-0.008534597155594046
-0.005468379086419753,-0.007283881960920875
-0.005468039086419753,-0.007020573498884419
-0.005467699086419754,-0.006493956574811504
-0.005467359086419753,-0.006329388786038719
-0.005467019086419753,-0.006493956574811504
-0.005466679086419754,-0.008732078502121389
-0.005466339086419753,-0.007744671769485512
-0.005465999086419753,-0.008205461578048474
-0.005465659086419754,-0.009719485234758102
-0.005465319086419753,-0.01027901571658354
-0.005464979086419753,-0.009159954752930631
-0.005464639086419754,-0.007481363307448217
-0.005464299086419753,-0.006131907439509639
-0.005463959086419753,-0.00517741426462922
-0.005463619086419754,-0.005835685419720362
-0.005463279086419753,-0.009719485234753312
-0.005462939086419753,-0.007086400614393532
-0.005462599086419754,-0.00415709397423795
-0.005462259086419753,-0.004617883782803067
-0.005461919086419753,-0.005341982053402005
-0.005461579086419754,-0.00540780916891112
-0.005461239086419753,-0.009094127637415289
-0.005460899086419753,-0.005671117630947577
-0.005460559086419754,-0.006461043017056948
-0.005460219086419753,-0.009225781868438247
-0.005459879086419753,-0.008402942924575817
-0.005459539086419754,-0.009127041195176074
-0.005459199086419753,-0.01083854619841214
-0.005458859086419753,-0.01034484283209469
-0.005458519086419754,-0.004519143109538078
-0.005458179086419753,-0.007744671769488266
-0.005457839086419753,-0.009719485234758102
-0.005457499086419754,-0.009686571677003543
-0.005457159086419754,-0.009752398792512539
-0.005456819086419753,-0.009752398792512659
-0.005456479086419753,-0.009324522541703417
-0.005456139086419754,-0.01011444792781135
-0.005455799086419753,-0.01021318860107646
-0.005455459086419753,-0.009489090330476201
-0.005455119086419754,-0.008304202251314299
-0.005454779086419753,-0.009127041195176074
-0.005454439086419753,-0.007547190422957332
-0.005454099086419754,-0.008797905617628228
-0.005453759086419753,-0.009357436099457973
-0.005453419086419753,-0.008501683597839487
-0.005453079086419754,-0.01416281553161301
-0.005452739086419753,-0.01653259168995142
-0.005452399086419753,-0.008238375135803031
-0.005452059086419754,-0.006856005710114147
-0.005451719086419753,-0.009719485234758102
-0.005451379086419753,-0.008929559848648731
-0.005451039086419754,-0.01024610215882862
-0.005450699086419753,-0.007613017538466446
-0.005450359086419753,-0.005341982053402005
-0.005450019086419754,-0.006888919267863376
-0.005449679086419753,-0.006131907439511376
-0.005449339086419753,-0.004288748205256179
-0.005448999086419754,-0.004979932918100621
-0.005448659086419753,-0.00860042427110316
-0.005448319086419753,-0.008995386964157845
-0.005447979086419754,-0.008501683597839487
-0.005447639086419753,-0.009291608983948858
-0.005447299086419753,-0.01146390379574963
-0.005446959086419754,-0.01208926139308621
-0.005446619086419753,-0.01106894110269494
-0.005446279086419753,-0.01044358350535836
-0.005445939086419754,-0.008468770040084931
-0.005445599086419753,-0.008238375135800098
-0.005445259086419753,-0.006625610805829733
-0.005444919086419754,-0.004848278687083649
-0.005444579086419753,-0.004881192244842757
-0.005444239086419753,-0.007382622634184546
-0.005443899086419754,-0.006954746383375304
-0.005443559086419753,-0.008007980231521611
-0.005443219086419753,-0.008271288693557588
-0.005442879086419754,-0.008073807347030245
-0.005442539086419753,-0.01110185466045303
-0.005442199086419753,-0.01304375456796837
-0.005441859086419754,-0.003465909261392251
-0.005441519086419753,-0.005309068495662057
-0.005441179086419753,-0.01333997658775938
-0.005440839086419754,-0.01060815129413114
-0.005440499086419753,-0.007678844653979213
-0.005440159086419753,-0.009686571677003543
-0.005439819086419754,-0.01008153437005823
-0.005439479086419753,-0.009982793696790547
-0.005439139086419753,-0.007777585327239231
-0.005438799086419754,-0.007218054845411761
-0.005438459086419753,-0.005638204073196013
-0.005438119086419753,-0.007283881960920875
-0.005437779086419754,-0.007975066673766575
-0.005437439086419753,-0.005638204073194216
-0.005437099086419753,-0.006296475228284162
-0.005436759086419754,-0.007843412442748346
-0.005436419086419754,-0.007053487056640413
-0.005436079086419753,-0.005934426092984033
-0.005435739086419753,-0.00688891926786619
-0.005435399086419754,-0.006987659941129681
-0.005435059086419753,-0.008435856482330374
-0.005434719086419753,-0.009028300521912402
-0.005434379086419754,-0.008468770040085949
-0.005434039086419753,-0.009159954752930631
-0.005433699086419753,-0.009554917445985316
-0.005433359086419754,-0.008600424271104896
-0.005433019086419753,-0.00711931417214809
-0.005432679086419753,-0.007744671769484675
-0.005432339086419754,-0.008205461578047636
-0.005431999086419753,-0.01024610215883101
-0.005431659086419753,-0.006724351479093405
-0.005431319086419754,-0.008468770040081758
-0.005430979086419753,-0.009127041195176074
-0.005430639086419753,-0.007020573498884419
-0.005430299086419754,-0.009061214079663246
-0.005429959086419753,-0.009357436099457973
-0.005429619086419753,-0.001392355122855153
-0.005429279086419754,-0.003432995703633982
-0.005428939086419753,-0.00962074456149443
-0.005428599086419753,-0.006362302343793276
-0.005428259086419754,-0.00415709397424196
-0.005427919086419753,-0.005539463399929348
-0.005427579086419753,-0.007975066673766575
-0.005427239086419754,-0.007415536191939104
-0.005426899086419753,-0.005934426092984033
-0.005426559086419753,-0.006559783690320619
-0.005426219086419754,-0.007547190422957332
-0.005425879086419753,-0.007876326000502903
-0.005425539086419753,-0.007020573498884419
-0.005425199086419754,-0.008732078502121389
-0.005424859086419753,-0.00939034965721253
-0.005424519086419753,-0.009324522541703417
-0.005424179086419754,-0.0101802750433219
-0.005423839086419753,-0.008995386964158324
-0.005423499086419753,-0.009258695426194301
-0.005423159086419754,-0.01004862081230367
-0.005422819086419753,-0.01064106485188378
-0.005422479086419753,-0.009587831003739873
-0.005422139086419754,-0.01103602754494038
-0.005421799086419753,-0.01106894110269356
-0.005421459086419753,-0.01031192927434013
-0.005421119086419754,-0.01212217495084077
-0.005420779086419753,-0.01310958168348443
-0.005420439086419753,-0.01692755438300611
-0.005420099086419754,-0.01580849341935116
-0.005419759086419753,-0.01255005120164798
-0.005419419086419753,-0.01143099023799507
-0.005419079086419754,-0.01120059533371317
-0.005418739086419753,-0.0161047154391411
-0.005418399086419753,-0.01551227139956015
-0.005418059086419754,-0.01241839697063178
-0.005417719086419753,-0.01136516312248787
-0.005417379086419753,-0.01241839697063178
-0.005417039086419754,-0.009225781868439744
