Analysis/files/cmb03_wrd01/d2s06_ch33.csv

#Digilent WaveForms Oscilloscope Acquisition
#Device Name: ADP3450
#Serial Number: SN:210018B9D9B0
#Date Time: 2024-08-13 16:02:27.528.600.810
#Sample rate: 2.94118e+06Hz
#Samples: 32768
#Trigger: Source: Channel 3 Type: Edge Condition: Rising Level: 60 mV Hyst.: Auto HoldOff: 0 s
#Channel 3: Range: 200 mV/div Offset: 0 V Attenuation: 1 X Coupling: DC Bandwidth: 0 Hz Sample Mode: Average

Time (s),Channel 3 (V)
-0.005570300780141845,0.007198083451084253
-0.005569960780141844,0.00841588508800083
-0.005569620780141844,0.007296824124347924
-0.005569280780141845,0.005947368256411082
-0.005568940780141844,0.007362651239856798
-0.005568600780141844,0.007230997008838809
-0.005568260780141845,0.004630825946228797
-0.005567920780141844,0.004729566619491332
-0.005567580780141844,0.004104209022155884
-0.005567240780141845,0.002656012480955371
-0.005566900780141844,0.002293963345654225
-0.005566560780141844,0.001734432863827772
-0.005566220780141845,-0.00369630416567415
-0.005565880780141844,0.002359790461168368
-0.005565540780141844,0.004564998830719684
-0.005565200780141845,0.003478851424819299
-0.005564860780141844,0.004301690368674965
-0.005564520780141844,-0.0002403806014456541
-0.005564180780141845,-0.002544329644264652
-0.005563840780141844,-0.003432995703636257
-0.005563500780141844,-0.002643070317528323
-0.005563160780141845,-0.003630477050165036
-0.005562820780141845,-0.004947019360344925
-0.005562480780141844,-0.005111587149120106
-0.005562140780141844,-0.004486229551783521
-0.005561800780141845,-0.003959612627711565
-0.005561460780141844,-0.001853144931418952
-0.005561120780141844,-0.002281021182228195
-0.005560780780141845,-0.004584970225043002
-0.005560440780141844,-0.003202600799355794
-0.005560100780141844,-0.002708897433037437
-0.005559760780141845,-0.004815365129325261
-0.005559420780141844,-0.006329388786038719
-0.005559080780141844,-0.006461043017056948
-0.005558740780141845,-0.005934426092984991
-0.005558400780141844,-0.004486229551783521
-0.005558060780141844,-0.005309068495647449
-0.005557720780141845,-0.006131907439509879
-0.005557380780141844,-0.006263561670529605
-0.005557040780141844,-0.004519143109538078
-0.005556700780141845,-0.00557237695768199
-0.005556360780141844,-0.00688891926786619
-0.005556020780141844,-0.008271288693557588
-0.005555680780141845,-0.0128791867791872
-0.005555340780141844,-0.00619773455502049
-0.005555000780141844,-0.006131907439511376
-0.005554660780141845,-0.008040893789272216
-0.005554320780141844,-0.009719485234758102
-0.005553980780141844,-0.01231965629736811
-0.005553640780141845,-0.01070689196739481
-0.005553300780141844,-0.01080563264065849
-0.005552960780141844,-0.009686571677003543
-0.005552620780141845,-0.008304202251312145
-0.005552280780141844,-0.008534597155594046
-0.005551940780141844,-0.007810498884993789
-0.005551600780141845,-0.006987659941129861
-0.005551260780141844,-0.00748136330744708
-0.005550920780141844,-0.006856005710111633
-0.005550580780141845,-0.007316795518675433
-0.005550240780141844,-0.009949880139038445
-0.005549900780141844,-0.009094127637421515
-0.005549560780141845,-0.008238375135803031
-0.005549220780141844,-0.009653658119249705
-0.005548880780141844,-0.01004862081230367
-0.005548540780141845,-0.008666251386612273
-0.005548200780141844,-0.00731679551867627
-0.005547860780141844,-0.007777585327239231
-0.005547520780141845,-0.008205461578048474
-0.005547180780141844,-0.008435856482330494
-0.005546840780141844,-0.008501683597839487
-0.005546500780141845,-0.008007980231521132
-0.005546160780141844,-0.010081534370062
-0.005545820780141844,-0.01215508850859533
-0.005545480780141845,-0.01758582553809725
-0.005545140780141844,-0.01617054255464135
-0.005544800780141844,-0.01070689196739481
-0.005544460780141845,-0.01159555802676786
-0.005544120780141844,-0.006888919267872596
-0.005543780780141844,-0.0104106699476038
-0.005543440780141845,-0.009818225908021772
-0.005543100780141844,-0.006033166766247405
-0.005542760780141844,-0.00586859897747492
-0.005542420780141845,-0.005473636284420234
-0.005542080780141845,-0.004947019360348278
-0.005541740780141844,-0.004650797340556306
-0.005541400780141844,-0.00494701936034732
-0.005541060780141845,-0.005045760033610812
-0.005540720780141844,-0.005704031188702134
-0.005540380780141844,-0.007448449749693661
-0.005540040780141845,-0.007744671769484136
-0.005539700780141844,-0.009785312350267215
-0.005539360780141844,-0.01083854619841304
-0.005539020780141845,-0.009456176772724159
-0.005538680780141844,-0.01011444792781279
-0.005538340780141844,-0.01021318860107646
-0.005538000780141845,-0.009061214079669054
-0.005537660780141844,-0.006263561670529605
-0.005537320780141844,-0.00767884465397556
-0.005536980780141845,-0.00685600571011313
-0.005536640780141844,-0.008172548020293918
-0.005536300780141844,-0.008863732733139616
-0.005535960780141845,-0.007349709076432743
-0.005535620780141844,-0.0101802750433219
-0.005535280780141844,-0.01169429870003153
-0.005534940780141845,-0.01478817312895427
-0.005534600780141844,-0.007580103980711889
-0.005534260780141844,-0.006033166766247705
-0.005533920780141845,-0.005901512535229716
-0.005533580780141844,-0.004124180416483393
-0.005533240780141844,-0.009719485234758102
-0.005532900780141845,-0.009291608983948858
-0.005532560780141844,-0.007514276865202775
-0.005532220780141844,-0.01004862081230367
-0.005531880780141845,-0.01169429870003153
-0.005531540780141844,-0.01067397840964026
-0.005531200780141844,-0.01143099023799507
-0.005530860780141845,-0.01274753254817735
-0.005530520780141844,-0.01116768177595861
-0.005530180780141844,-0.01166138514227697
-0.005529840780141845,-0.0117930393732952
-0.005529500780141844,-0.0103448428320954
-0.005529160780141844,-0.01073980552514937
-0.005528820780141845,-0.00438748887851985
-0.005528480780141844,-0.00790923955825722
-0.005528140780141844,-0.007777585327239231
-0.005527800780141845,-0.008633337828857716
-0.005527460780141844,-0.007645931096219087
-0.005527120780141844,-0.006592697248075176
-0.005526780780141845,-0.008402942924575817
-0.005526440780141844,-0.008995386964159999
-0.005526100780141844,-0.0101802750433219
-0.005525760780141845,-0.009423263214967087
-0.005525420780141844,-0.009522003888232674
-0.005525080780141844,-0.01057523773637659
-0.005524740780141845,-0.01189178004655887
-0.005524400780141844,-0.01528187649526526
-0.005524060780141844,-0.008139634462539359
-0.005523720780141845,-0.009489090330476201
-0.005523380780141844,-0.01376785283858341
-0.005523040780141844,-0.02189750160394423
-0.005522700780141845,-0.04134941423688748
-0.005522360780141844,-0.0634014979324857
-0.005522020780141844,-0.08811957980611312
-0.005521680780141845,-0.1193874596729424
-0.005521340780141844,-0.1514781784836899
-0.005521000780141844,-0.1813307753670189
-0.005520660780141845,-0.209636435035938
-0.005520320780141845,-0.2347823931603739
-0.005519980780141844,-0.2502517653050614
-0.005519640780141844,-0.2615411156148745
-0.005519300780141845,-0.2710202202481697
-0.005518960780141844,-0.2723038490006147
-0.005518620780141844,-0.2704606897663595
-0.005518280780141845,-0.2663135814892928
-0.005517940780141844,-0.2611790664795744
-0.005517600780141844,-0.2534772939650081
-0.005517260780141845,-0.248507346744079
-0.005516920780141844,-0.2403118708631852
-0.005516580780141844,-0.2322809627710733
-0.005516240780141845,-0.2262577817020003
-0.005515900780141844,-0.2190497125537413
-0.005515560780141844,-0.2092743859006378
-0.005515220780141845,-0.2022308845411754
-0.005514880780141844,-0.1957469136635149
-0.005514540780141844,-0.1888679800928124
-0.005514200780141845,-0.1859715870104167
-0.005513860780141844,-0.1771178399744356
-0.005513520780141844,-0.1651702185095313
-0.005513180780141845,-0.1607268882126742
-0.005512840780141844,-0.154637880028073
-0.005512500780141844,-0.1505236853087534
-0.005512160780141845,-0.146541144820452
-0.005511820780141844,-0.140517963751368
-0.005511480780141844,-0.1352847080683935
-0.005511140780141845,-0.1313021675800921
-0.005510800780141844,-0.1271550593030179
-0.005510460780141844,-0.12290921035268
-0.005510120780141845,-0.119189978326415
-0.005509780780141844,-0.1173139055344053
-0.005509440780141844,-0.1114882058118487
-0.005509100780141845,-0.1056954196470466
-0.005508760780141844,-0.1040826553170678
-0.005508420780141844,-0.1010216944458995
-0.005508080780141845,-0.0958871794361886
-0.005507740780141844,-0.09141093558156448
-0.005507400780141844,-0.08900824586548617
-0.005507060780141845,-0.08463074268413007
-0.005506720780141844,-0.08265592921884971
-0.005506380780141844,-0.07883795651932804
-0.005506040780141845,-0.07386800929838991
-0.005505700780141844,-0.07251855343044841
-0.005505360780141844,-0.0699512959255976
-0.005505020780141845,-0.06603458255280531
-0.005504680780141844,-0.06386228774100067
-0.005504340780141844,-0.06172290648695833
-0.005504000780141845,-0.05895816763557554
-0.005503660780141844,-0.06040636417677617
-0.005503320780141844,-0.06047219129228516
-0.005502980780141845,-0.05273750521996424
-0.005502640780141844,-0.05184883916058869
-0.005502300780141844,-0.0504664697348998
-0.005501960780141845,-0.05079560531244537
-0.005501620780141844,-0.0515197035830415
-0.005501280780141844,-0.04924866809798119
-0.005500940780141845,-0.04674723770863485
-0.005500600780141844,-0.0451015598209055
-0.005500260780141844,-0.04427872087704306
-0.005499920780141845,-0.0400328719267052
-0.005499580780141845,-0.03726813307532743
-0.005499240780141844,-0.03776183644164076
-0.005498900780141844,-0.03509583826352163
-0.005498560780141845,-0.03315393835600629
-0.005498220780141844,-0.03345016037579378
-0.005497880780141844,-0.0363465534581948
-0.005497540780141845,-0.03489835691699693
-0.005497200780141844,-0.0340426044153758
-0.005496860780141844,-0.03424008576190315
-0.005496520780141845,-0.03269314854744178
-0.005496180780141844,-0.03279188922070263
-0.005495840780141844,-0.03242984008540251
-0.005495500780141845,-0.03121203844848611
-0.005495160780141844,-0.03137660623725668
-0.005494820780141844,-0.03259440787417529
-0.005494480780141845,-0.03140951979501339
-0.005494140780141844,-0.03055376729339275
-0.005493800780141844,-0.03111329777522022
-0.005493460780141845,-0.03160700114153768
-0.005493120780141844,-0.03331850614477554
-0.005492780780141844,-0.02528759805266361
-0.005492440780141845,-0.02295073545209431
-0.005492100780141844,-0.02133797112211676
-0.005491760780141844,-0.02143671179538043
-0.005491420780141845,-0.02459641333981217
-0.005491080780141844,-0.0210746626600803
-0.005490740780141844,-0.0185403187129794
-0.005490400780141845,-0.01817826957767928
-0.005490060780141844,-0.01498565447548724
-0.005489720780141844,-0.01399824774285052
-0.005489380780141845,-0.01442612399365977
-0.005489040780141844,-0.01610471543914218
-0.005488700780141844,-0.01584140697710572
-0.005488360780141845,-0.01784913400013371
-0.005488020780141844,-0.01732251707606193
-0.005487680780141844,-0.01794787467339738
-0.005487340780141845,-0.01936315765684333
-0.005487000780141844,-0.01574266630384139
-0.005486660780141844,-0.01538061716854192
-0.005486320780141845,-0.01626928322791496
-0.005485980780141844,-0.01495274091772364
-0.005485640780141844,-0.009982793696794558
-0.005485300780141845,-0.0120234342775771
-0.005484960780141844,-0.01330706303000405
-0.005484620780141844,-0.01287918677919558
-0.005484280780141845,-0.01370202572305951
-0.005483940780141844,-0.0120563478353298
-0.005483600780141844,-0.01103602754494038
-0.005483260780141845,-0.0115626444690133
-0.005482920780141844,-0.01393242062734429
-0.005482580780141844,-0.01551227139956015
-0.005482240780141845,-0.009159954752930631
-0.005481900780141844,-0.0095878310037364
-0.005481560780141844,-0.00767884465397556
-0.005481220780141845,-0.01093728687167671
-0.005480880780141844,-0.01149681735350041
-0.005480540780141844,-0.009423263214967087
-0.005480200780141845,-0.008962473406403288
-0.005479860780141844,-0.01031192927433875
-0.005479520780141844,-0.009554917445985316
-0.005479180780141845,-0.009851139465776329
-0.005478840780141845,-0.01307666812571706
-0.005478500780141844,-0.01172721225778608
-0.005478160780141845,-0.009456176772721644
-0.005477820780141845,-0.01143099023799148
-0.005477480780141844,-0.01189178004655887
-0.005477140780141844,-0.01327414947225027
-0.005476800780141845,-0.0129121003369508
-0.005476460780141844,-0.01126642244922228
-0.005476120780141844,-0.0106410648518857
-0.005475780780141845,-0.01235256985511956
-0.005475440780141844,-0.01238548341287723
-0.005475100780141844,-0.01047649706311291
-0.005474760780141845,-0.01090437331392138
-0.005474420780141844,-0.01192469360431343
-0.005474080780141844,-0.01116768177595861
-0.005473740780141845,-0.01077271908290465
-0.005473400780141844,-0.009094127637421515
-0.005473060780141844,-0.008238375135803031
-0.005472720780141845,-0.01011444792780937
-0.005472380780141844,-0.01528187649527825
-0.005472040780141844,-0.008106720904784802
-0.005471700780141845,-0.005506549842179521
-0.005471360780141844,-0.006362302343793276
-0.005471020780141844,-0.004519143109538078
-0.005470680780141845,-0.008797905617622719
-0.005470340780141844,-0.01106894110269494
-0.005470000780141844,-0.009061214079666959
-0.005469660780141845,-0.01070689196739481
-0.005469320780141844,-0.01439321043590521
-0.005468980780141844,-0.01268170543266824
-0.005468640780141845,-0.01264879187491368
-0.005468300780141844,-0.01449195110916888
-0.005467960780141844,-0.01314249524123204
-0.005467620780141845,-0.01113476821820406
-0.005467280780141844,-0.01166138514227697
-0.005466940780141844,-0.01185886648880431
-0.005466600780141845,-0.01077271908290393
-0.005466260780141844,-0.009851139465774534
-0.005465920780141844,-0.008863732733139616
-0.005465580780141845,-0.007448449749693661
-0.005465240780141844,-0.008040893789275689
-0.005464900780141844,-0.008040893789275689
-0.005464560780141845,-0.00665852436358429
-0.005464220780141844,-0.006625610805832068
-0.005463880780141844,-0.00790923955825746
-0.005463540780141845,-0.007645931096221003
-0.005463200780141844,-0.00721805484541206
-0.005462860780141844,-0.007382622634184546
-0.005462520780141845,-0.006164820997265934
-0.005462180780141844,-0.006164820997274435
-0.005461840780141844,-0.01083854619841304
-0.005461500780141845,-0.002939292337319337
-0.005461160780141844,-0.000306207716966383
-0.005460820780141844,-0.006691437921338847
-0.005460480780141845,-0.006592697248075176
-0.005460140780141844,-0.006098993881758077
-0.005459800780141844,-0.006790178594602518
-0.005459460780141845,-0.007876326000502903
-0.005459120780141844,-0.007349709076430229
-0.005458780780141844,-0.007481363307448217
-0.005458440780141845,-0.00711931417214809
-0.005458100780141844,-0.006263561670529365
-0.005457760780141844,-0.006131907439511376
-0.005457420780141845,-0.005769858304211248
-0.005457080780141845,-0.003301341472623955
-0.005456740780141844,-0.002873465221810222
-0.005456400780141844,-0.00267598387528288
-0.005456060780141845,-0.002248107624474416
-0.005455720780141844,-0.002741810990791994
-0.005455380780141844,-0.004058353300974278
-0.005455040780141845,-0.005276154937890676
-0.005454700780141844,-0.008106720904784802
-0.005454360780141844,-0.01159555802676786
-0.005454020780141845,-0.01215508850859431
-0.005453680780141844,-0.01274753254817735
-0.005453340780141844,-0.01528187649527825
-0.005453000780141845,-0.01330706303000842
-0.005452660780141844,-0.01011444792781279
-0.005452320780141844,-0.008205461578048474
-0.005451980780141845,-0.008139634462539479
-0.005451640780141844,-0.00869916494436683
-0.005451300780141844,-0.006691437921338847
-0.005450960780141845,-0.004552056667296526
-0.005450620780141844,-0.005309068495647449
-0.005450280780141844,-0.004617883782801749
-0.005449940780141845,-0.009686571676994323
-0.005449600780141844,-0.01070689196739481
-0.005449260780141844,-0.009291608983948858
-0.005448920780141845,-0.01050941062086526
-0.005448580780141844,-0.01123350889146773
-0.005448240780141844,-0.0117930393732952
-0.005447900780141845,-0.01162847158452241
-0.005447560780141844,-0.009752398792512659
-0.005447220780141844,-0.009916966581285444
-0.005446880780141845,-0.009357436099457973
-0.005446540780141844,-0.00790923955825746
-0.005446200780141844,-0.007250968403166318
-0.005445860780141845,-0.007580103980711889
-0.005445520780141844,-0.008370029366816949
-0.005445180780141844,-0.006000253208493148
-0.005444840780141845,-0.007876326000502903
-0.005444500780141844,-0.008139634462540976
-0.005444160780141844,-0.009028300521912402
-0.005443820780141845,-0.01054232417862203
-0.005443480780141844,-0.01037775638985134
-0.005443140780141844,-0.01152973091125874
-0.005442800780141845,-0.01050941062086747
-0.005442460780141844,-0.01067397840962451
-0.005442120780141844,-0.002017712720191738
-0.005441780780141845,-0.01050941062086747
-0.005441440780141844,-0.01057523773638347
-0.005441100780141844,-0.01436029687815065
-0.005440760780141845,-0.006856005710111633
-0.005440420780141844,-0.004716624456061289
-0.005440080780141844,-0.00244558897100098
-0.005439740780141845,-0.003400082145883136
-0.005439400780141844,-0.007580103980708176
-0.005439060780141844,-0.005539463399929348
-0.005438720780141845,-0.004222921089747064
-0.005438380780141844,-0.006888919267865471
-0.005438040780141844,-0.006493956574811504
-0.005437700780141845,-0.006724351479093405
-0.005437360780141844,-0.007580103980712368
-0.005437020780141844,-0.007843412442748346
-0.005436680780141845,-0.006790178594602518
-0.005436340780141845,-0.00843585648232738
-0.005436000780141844,-0.00790923955825746
-0.005435660780141844,-0.009127041195176074
-0.005435320780141845,-0.01073980552514644
-0.005434980780141844,-0.01008153437005823
-0.005434640780141844,-0.008402942924575817
-0.005434300780141845,-0.01080563264065412
-0.005433960780141844,-0.01146390379574963
-0.005433620780141844,-0.009192868310685188
-0.005433280780141845,-0.009818225908020634
-0.005432940780141844,-0.01100311398718583
-0.005432600780141844,-0.0101802750433219
-0.005432260780141845,-0.01064106485188486
-0.005431920780141844,-0.01044358350535836
-0.005431580780141844,-0.01073980552514937
-0.005431240780141845,-0.01255005120164672
-0.005430900780141844,-0.01725668996055168
-0.005430560780141844,-0.0152489629375237
-0.005430220780141845,-0.009291608983959695
-0.005429880780141844,-0.009982793696794558
-0.005429540780141844,-0.008995386964157845
-0.005429200780141845,-0.01205634783532609
-0.005428860780141844,-0.01304375456796837
-0.005428520780141844,-0.009456176772721644
-0.005428180780141845,-0.008073807347032759
-0.005427840780141844,-0.01097020042943127
-0.005427500780141844,-0.009489090330476201
-0.005427160780141845,-0.007711758211730118
-0.005426820780141844,-0.007876326000502903
-0.005426480780141844,-0.00939034965721253
-0.005426140780141845,-0.008896646290894173
-0.005425800780141844,-0.009225781868439744
-0.005425460780141844,-0.009653658119248986
-0.005425120780141845,-0.009982793696794558
-0.005424780780141844,-0.0108714597561676
-0.005424440780141844,-0.00939034965721253
-0.005424100780141845,-0.00619773455502049
-0.005423760780141844,-0.0078434124427505
-0.005423420780141844,-0.009028300521912402
-0.005423080780141845,-0.006987659941129861
-0.005422740780141844,-0.007152227729905401
-0.005422400780141844,-0.008666251386612273
-0.005422060780141845,-0.008830819175385059
-0.005421720780141844,-0.008600424271105675
-0.005421380780141844,-0.009982793696794558
-0.005421040780141845,-0.007876326000502903
-0.005420700780141844,-0.008172548020299247
-0.005420360780141844,-0.0111018546604495
-0.005420020780141845,-0.0106410648518857
-0.005419680780141844,-0.002346848297737968
-0.005419340780141844,-0.002708897433037437
-0.005419000780141845,-0.001260700891836924
-0.005418660780141844,-0.001984799162442868
-0.005418320780141844,-0.005111587149120106
-0.005417980780141845,-0.004025439743219721
-0.005417640780141844,-0.00399252618547211
-0.005417300780141844,-0.007810498884993789
-0.005416960780141845,-0.008995386964157845
