Analysis/files/cmb03_wrd01/d2s07_ch13.csv

#Digilent WaveForms Oscilloscope Acquisition
#Device Name: ADP3450
#Serial Number: SN:210018B9D9B0
#Date Time: 2024-08-13 16:21:13.408.855.230
#Sample rate: 2.94118e+06Hz
#Samples: 32768
#Trigger: Source: Channel 3 Type: Edge Condition: Rising Level: 60 mV Hyst.: Auto HoldOff: 0 s
#Channel 3: Range: 200 mV/div Offset: 0 V Attenuation: 1 X Coupling: DC Bandwidth: 0 Hz Sample Mode: Average

Time (s),Channel 3 (V)
-0.00557028301724138,0.003314283636046514
-0.005569943017241379,0.002557271807684396
-0.00556960301724138,-0.001458182238364267
-0.00556926301724138,-0.003498822819146808
-0.005568923017241379,-0.00349882281914573
-0.00556858301724138,-0.00290637877956478
-0.00556824301724138,-0.003268427914864908
-0.005567903017241379,-0.00313677368384644
-0.00556756301724138,-0.003005119452828451
-0.00556722301724138,-0.002116453393455409
-0.005566883017241379,0.0003191498803774463
-0.00556654301724138,-0.002083539835700852
-0.00556620301724138,-0.0007011704100094536
-0.005565863017241379,-0.001688577142652393
-0.00556552301724138,-0.005111587149120106
-0.00556518301724138,-0.006823092152357076
-0.005564843017241379,-0.007678844653979871
-0.005564503017241379,-0.01004862081230367
-0.00556416301724138,-0.0108714597561676
-0.005563823017241379,-0.0108714597561682
-0.005563483017241379,-0.01120059533371317
-0.00556314301724138,-0.01113476821820406
-0.00556280301724138,-0.00965365811925168
-0.005562463017241379,-0.01008153437005823
-0.00556212301724138,-0.01054232417862203
-0.00556178301724138,-0.008666251386615685
-0.005561443017241379,-0.009456176772721644
-0.00556110301724138,-0.01021318860107646
-0.00556076301724138,-0.01136516312248386
-0.005560423017241379,-0.01478817312895989
-0.00556008301724138,-0.007547190422957332
-0.00555974301724138,-0.007744671769484316
-0.005559403017241379,-0.007349709076429989
-0.00555906301724138,-0.01008153437005823
-0.00555872301724138,-0.01357037149203494
-0.005558383017241379,-0.0127146189904228
-0.00555804301724138,-0.01100311398718583
-0.00555770301724138,-0.01284627322143767
-0.005557363017241379,-0.01067397840964026
-0.00555702301724138,-0.01027901571658557
-0.00555668301724138,-0.01044358350535806
-0.005556343017241379,-0.01011444792781279
-0.00555600301724138,-0.0115626444690133
-0.00555566301724138,-0.01320832235673816
-0.005555323017241379,-0.01495274091773268
-0.00555498301724138,-0.01643385101668775
-0.00555464301724138,-0.01659841880546024
-0.005554303017241379,-0.01577557986159661
-0.00555396301724138,-0.01603888832363307
-0.00555362301724138,-0.01643385101668775
-0.005553283017241379,-0.01416281553162331
-0.00555294301724138,-0.01636802390117864
-0.00555260301724138,-0.0159401476503694
-0.005552263017241379,-0.01324123591449571
-0.00555192301724138,-0.01320832235674115
-0.00555158301724138,-0.01452486466692344
-0.005551243017241379,-0.01376785283857048
-0.00555090301724138,-0.01478817312895989
-0.00555056301724138,-0.01646676457444231
-0.005550223017241379,-0.02176584737291954
-0.00554988301724138,-0.01821118313543383
-0.00554954301724138,-0.009028300521912402
-0.005549203017241379,-0.01498565447548592
-0.00554886301724138,-0.01426155620488698
-0.00554852301724138,-0.01919858986807055
-0.005548183017241379,-0.01837575092419884
-0.00554784301724138,-0.0140969884161142
-0.00554750301724138,-0.01580849341935116
-0.005547163017241379,-0.01646676457444045
-0.00554682301724138,-0.01544644428405104
-0.00554648301724138,-0.01521604937976914
-0.005546143017241379,-0.01725668996054671
-0.00554580301724138,-0.01452486466692344
-0.00554546301724138,-0.01478817312895989
-0.005545123017241379,-0.01409698841611288
-0.00554478301724138,-0.01337289014551394
-0.00554444301724138,-0.01366911216530495
-0.005544103017241379,-0.01393242062734147
-0.005543763017241379,-0.01396533418509597
-0.00554342301724138,-0.01439321043590521
-0.005543083017241379,-0.01673007303647871
-0.005542743017241379,-0.01669715947872421
-0.00554240301724138,-0.01798078823115194
-0.00554206301724138,-0.01768456621136146
-0.005541723017241379,-0.01580849341935116
-0.00554138301724138,-0.01705920861402434
-0.00554104301724138,-0.01847449159746772
-0.005540703017241379,-0.01649967813219686
-0.00554036301724138,-0.01468943245569622
-0.00554002301724138,-0.01580849341934913
-0.005539683017241379,-0.02044930506274372
-0.00553934301724138,-0.0140969884161142
-0.00553900301724138,-0.01366911216530573
-0.005538663017241379,-0.01004862081230367
-0.00553832301724138,-0.01123350889146773
-0.00553798301724138,-0.01847449159745712
-0.005537643017241379,-0.01765165265360636
-0.00553730301724138,-0.01393242062734141
-0.00553696301724138,-0.0152160493797668
-0.005536623017241379,-0.02087718131355296
-0.00553628301724138,-0.02035056438948005
-0.00553594301724138,-0.01919858986807264
-0.005535603017241379,-0.02031765083172549
-0.00553526301724138,-0.01949481188786156
-0.00553492301724138,-0.01965937967663405
-0.005534583017241379,-0.01988977458091625
-0.00553424301724138,-0.01732251707606079
-0.00553390301724138,-0.01531479005303646
-0.005533563017241379,-0.01709212217177889
-0.00553322301724138,-0.01570975274608749
-0.00553288301724138,-0.01343871726102305
-0.005532543017241379,-0.01357037149204128
-0.00553220301724138,-0.01330706303000483
-0.00553186301724138,-0.01561101207282382
-0.005531523017241379,-0.01531479005303281
-0.00553118301724138,-0.01370202572305951
-0.00553084301724138,-0.01406407485835964
-0.005530503017241379,-0.01584140697710572
-0.00553016301724138,-0.01610471543914218
-0.00552982301724138,-0.01426155620488698
-0.005529483017241379,-0.01791496111564707
-0.00552914301724138,-0.02025182371621638
-0.00552880301724138,-0.012253829181859
-0.005528463017241379,-0.01268170543266788
-0.00552812301724138,-0.0124842240861409
-0.00552778301724138,-0.01426155620488698
-0.005527443017241379,-0.01860614582848648
-0.00552710301724138,-0.01748708486483358
-0.00552676301724138,-0.01462360534018711
-0.005526423017241379,-0.01508439514875223
-0.00552608301724138,-0.01580849341935116
-0.00552574301724138,-0.01445903755141432
-0.005525403017241379,-0.01409698841611557
-0.00552506301724138,-0.01485400024446901
-0.00552472301724138,-0.01478817312895989
-0.005524383017241379,-0.01663133236321725
-0.00552404301724138,-0.01781622044237915
-0.00552370301724138,-0.0201530830429527
-0.005523363017241379,-0.02499137603289343
-0.005523023017241379,-0.03644529413145847
-0.00552268301724138,-0.05490980003176501
-0.005522343017241379,-0.07597447699473441
-0.005522003017241379,-0.1050371484919555
-0.00552166301724138,-0.1364037690320484
-0.005521323017241379,-0.1671779455326123
-0.005520983017241379,-0.1963393577030969
-0.00552064301724138,-0.222341068329197
-0.00552030301724138,-0.240476438651925
-0.005519963017241379,-0.2549584040639631
-0.00551962301724138,-0.2635488426379025
-0.00551928301724138,-0.2669718526443702
-0.005518943017241379,-0.27190888630756
-0.00551860301724138,-0.2679921729347677
-0.00551826301724138,-0.2592371665720715
-0.005517923017241379,-0.2538064295425536
-0.00551758301724138,-0.2489681365526337
-0.00551724301724138,-0.2442614977937406
-0.005516903017241379,-0.2380737489358753
-0.00551656301724138,-0.2287262985335811
-0.00551622301724138,-0.2197738108243578
-0.005515883017241379,-0.2123024332140571
-0.00551554301724138,-0.2056868081053911
-0.00551520301724138,-0.1970634559737128
-0.005514863017241379,-0.1882426224954759
-0.00551452301724138,-0.1812649482515097
-0.00551418301724138,-0.1738593977567479
-0.005513843017241379,-0.1685932285160053
-0.00551350301724138,-0.1617472085030574
-0.00551316301724138,-0.1561519036847929
-0.005512823017241379,-0.149733759922644
-0.00551248301724138,-0.1451916889525152
-0.00551214301724138,-0.141340802695232
-0.005511803017241379,-0.1350543131641116
-0.00551146301724138,-0.1323554014282379
-0.00551112301724138,-0.1288994778640094
-0.005510783017241379,-0.12550938141529
-0.00551044301724138,-0.1206710884253701
-0.00551010301724138,-0.1175772139964417
-0.005509763017241379,-0.1136275870658949
-0.00550942301724138,-0.1117186007161306
-0.00550908301724138,-0.1103033177326846
-0.005508743017241379,-0.107670233112325
-0.00550840301724138,-0.1104020584059483
-0.00550806301724138,-0.1016141384854815
-0.005507723017241379,-0.09651253703351681
-0.00550738301724138,-0.0919046389478872
-0.00550704301724138,-0.08811957980611312
-0.005506703017241379,-0.08838288826814078
-0.00550636301724138,-0.08354459527822969
-0.00550602301724138,-0.08265592921885664
-0.005505683017241379,-0.07699479728507343
-0.00550534301724138,-0.07732393286261841
-0.00550500301724138,-0.07544786007060864
-0.005504663017241379,-0.07436171266470316
-0.00550432301724138,-0.07156406025557091
-0.00550398301724138,-0.07090578910047976
-0.005503643017241379,-0.06899680275070809
-0.00550330301724138,-0.06494843514690493
-0.00550296301724138,-0.06251283187306769
-0.005502623017241379,-0.05619342878418909
-0.00550228301724138,-0.05418570176116475
-0.00550194301724138,-0.05537058984032881
-0.005501603017241379,-0.05563389830236119
-0.005501263017241379,-0.05339577637505538
-0.00550092301724138,-0.05056521040816347
-0.005500583017241379,-0.05046646973489741
-0.005500243017241379,-0.04914992742471751
-0.00549990301724138,-0.04733968174821687
-0.00549956301724138,-0.0481954342498338
-0.005499223017241379,-0.04720802751719864
-0.00549888301724138,-0.04763590376800789
-0.00549854301724138,-0.04829417492309783
-0.005498203017241379,-0.04905118675145385
-0.00549786301724138,-0.05040064261939069
-0.00549752301724138,-0.04345588193319176
-0.005497183017241379,-0.04339005481767002
-0.00549684301724138,-0.03953916856038684
-0.00549650301724138,-0.04013161259996779
-0.005496163017241379,-0.042797610778088
-0.00549582301724138,-0.03957208211814139
-0.00549548301724138,-0.03822262625020701
-0.005495143017241379,-0.03684025682451315
-0.00549480301724138,-0.03433882643516682
-0.00549446301724138,-0.0334172468180409
-0.005494123017241379,-0.03598450432289467
-0.00549378301724138,-0.03581993653412189
-0.00549344301724138,-0.03463504845495999
-0.005493103017241379,-0.03456922133944872
-0.00549276301724138,-0.03338433326028466
-0.00549242301724138,-0.03384512306884762
-0.005492083017241379,-0.03252858075866617
-0.00549174301724138,-0.02982966902279249
-0.00549140301724138,-0.02775611488425917
-0.005491063017241379,-0.02851312671261021
-0.00549072301724138,-0.02726241151793704
-0.00549038301724138,-0.02466224045532703
-0.005490043017241379,-0.02479389468634526
-0.00548970301724138,-0.02456349978206336
-0.00548936301724138,-0.02561673363020918
-0.005489023017241379,-0.0249913760328726
-0.00548868301724138,-0.02288490833658094
-0.00548834301724138,-0.0222266371814898
-0.005488003017241379,-0.02331278458739539
-0.00548766301724138,-0.02617626411203666
-0.00548732301724138,-0.02647248613182767
-0.005486983017241379,-0.02067969996702538
-0.00548664301724138,-0.02054804573600739
-0.00548630301724138,-0.01936315765684333
-0.005485963017241379,-0.01988977458092134
-0.00548562301724138,-0.0226874269900536
-0.00548528301724138,-0.02044930506274372
-0.005484943017241379,-0.01811244246217417
-0.00548460301724138,-0.02031765083172549
-0.00548426301724138,-0.01903402207929776
-0.005483923017241379,-0.01751999842259149
-0.00548358301724138,-0.01936315765684333
-0.00548324301724138,-0.01975812034989802
-0.005482903017241379,-0.01794787467339863
-0.00548256301724138,-0.01863905938624308
-0.00548222301724138,-0.02025182371621638
-0.005481883017241379,-0.01854031871298168
-0.00548154301724138,-0.01979103390765257
-0.00548120301724138,-0.01995560169642536
-0.005480863017241379,-0.01969229323439184
-0.005480523017241379,-0.0213050575643622
-0.00548018301724138,-0.02229246429699892
-0.005479843017241379,-0.02235829141250785
-0.005479503017241379,-0.02225955073924436
-0.00547916301724138,-0.02255577275903537
-0.00547882301724138,-0.02110757621783749
-0.005478483017241379,-0.02081135419804385
-0.00547814301724138,-0.02091009487130752
-0.00547780301724138,-0.02031765083172657
-0.005477463017241379,-0.0219962422772079
-0.00547712301724138,-0.02759154709548261
-0.00547678301724138,-0.02206206939272707
-0.005476443017241379,-0.01972520679214346
-0.00547610301724138,-0.01952772544561612
-0.00547576301724138,-0.01837575092420872
-0.005475423017241379,-0.02137088467987132
-0.00547508301724138,-0.0208442677557984
-0.00547474301724138,-0.01722377640280371
-0.005474403017241379,-0.01742125774932446
-0.00547406301724138,-0.01933024409908878
-0.00547372301724138,-0.01821118313543587
-0.005473383017241379,-0.01692755438300611
-0.00547304301724138,-0.01801370178890649
-0.00547270301724138,-0.01649967813219962
-0.005472363017241379,-0.01491982735997812
-0.00547202301724138,-0.01491982735997812
-0.00547168301724138,-0.01679590015198447
-0.005471343017241379,-0.01715794928728801
-0.00547100301724138,-0.01863905938624308
-0.00547066301724138,-0.02084426775579439
-0.005470323017241379,-0.01985686102316169
-0.00546998301724138,-0.02021891015846182
-0.00546964301724138,-0.02087718131355296
-0.005469303017241379,-0.01929733054133422
-0.00546896301724138,-0.01847449159747029
-0.00546862301724138,-0.01863905938624308
-0.005468283017241379,-0.01811244246217016
-0.00546794301724138,-0.01738834419156991
-0.00546760301724138,-0.01794787467339738
-0.005467263017241379,-0.01597306120812395
-0.00546692301724138,-0.01751999842258814
-0.00546658301724138,-0.02173293381517144
-0.005466243017241379,-0.01528187649526999
-0.00546590301724138,-0.01073980552514937
-0.00546556301724138,-0.01719086284504256
-0.005465223017241379,-0.01705920861401787
-0.00546488301724138,-0.01350454437653217
-0.00546454301724138,-0.01534770361078737
-0.005464203017241379,-0.01857323227073073
-0.00546386301724138,-0.01679590015198788
-0.00546352301724138,-0.01817826957767928
-0.005463183017241379,-0.01903402207929405
-0.00546284301724138,-0.01699338149851522
-0.00546250301724138,-0.01775039332687003
-0.005462163017241379,-0.01768456621135709
-0.00546182301724138,-0.01557809851506927
-0.00546148301724138,-0.01528187649527825
-0.005461143017241379,-0.01663133236321096
-0.00546080301724138,-0.01436029687815065
-0.00546046301724138,-0.01333997658775938
-0.005460123017241379,-0.01436029687814664
-0.00545978301724138,-0.01215508850859533
-0.00545944301724138,-0.01380076639632318
-0.005459103017241379,-0.01633511034342187
-0.005458763017241379,-0.01511730870650547
-0.00545842301724138,-0.01564392563057838
-0.005458083017241379,-0.01636802390117948
-0.005457743017241379,-0.01682881370974244
-0.00545740301724138,-0.01617054255465129
-0.00545706301724138,-0.01877071361725658
-0.005456723017241379,-0.01807952890441561
-0.00545638301724138,-0.02081135419804385
-0.00545604301724138,-0.01646676457445021
-0.005455703017241379,-0.01715794928728801
-0.00545536301724138,-0.006098993881756819
-0.00545502301724138,-0.0170921221717589
-0.005454683017241379,-0.01972520679214346
-0.00545434301724138,-0.01649967813219686
-0.00545400301724138,-0.01472234601345401
-0.005453663017241379,-0.01505148159099635
-0.00545332301724138,-0.01459069178243255
-0.00545298301724138,-0.01357037149204314
-0.005452643017241379,-0.01541353072629648
-0.00545230301724138,-0.01380076639632318
-0.00545196301724138,-0.01297792745246075
-0.005451623017241379,-0.01534770361078737
-0.00545128301724138,-0.014557778224678
-0.00545094301724138,-0.01419572908937853
-0.005450603017241379,-0.01462360534018711
-0.00545026301724138,-0.01412990197386875
-0.00544992301724138,-0.01294501389470685
-0.005449583017241379,-0.01505148159099635
-0.00544924301724138,-0.01472234601345078
-0.00544890301724138,-0.01380076639632486
-0.005448563017241379,-0.01663133236321509
-0.00544822301724138,-0.01462360534018711
-0.00544788301724138,-0.0129450138947047
-0.005447543017241379,-0.01337289014551394
-0.00544720301724138,-0.01498565447548724
-0.00544686301724138,-0.01412990197386875
-0.005446523017241379,-0.0152489629375237
-0.00544618301724138,-0.01860614582848852
-0.00544584301724138,-0.0159401476503694
-0.005445503017241379,-0.01442612399366061
-0.00544516301724138,-0.01488691380222357
-0.00544482301724138,-0.01255005120165001
-0.005444483017241379,-0.01607180188139121
-0.00544414301724138,-0.01804661534666105
-0.00544380301724138,-0.01436029687815065
-0.005443463017241379,-0.01399824774285316
-0.00544312301724138,-0.01544644428405104
-0.00544278301724138,-0.01620345611240585
-0.005442443017241379,-0.01807952890441938
-0.00544210301724138,-0.0201530830429527
-0.00544176301724138,-0.01949481188786156
-0.005441423017241379,-0.01873780005950968
-0.00544108301724138,-0.02035056438948005
-0.00544074301724138,-0.02054804573600739
-0.005440403017241379,-0.0179149611156424
-0.00544006301724138,-0.01768456621136092
-0.00543972301724138,-0.01771747976911548
-0.005439383017241379,-0.01623636967015939
-0.00543904301724138,-0.01567683918833294
-0.00543870301724138,-0.01396533418509597
-0.005438363017241379,-0.01330706303000788
-0.005438023017241379,-0.01498565447548724
-0.00543768301724138,-0.01613762899689674
-0.005437343017241379,-0.01409698841611563
-0.005437003017241379,-0.01488691380222357
-0.00543666301724138,-0.01669715947872421
-0.00543632301724138,-0.01659841880546072
-0.005435983017241379,-0.01811244246217016
-0.00543564301724138,-0.02242411852801714
-0.00543530301724138,-0.01524896293753675
-0.005434963017241379,-0.01426155620488698
-0.00543462301724138,-0.01330706303000483
-0.00543428301724138,-0.01185886648880695
-0.005433943017241379,-0.01544644428405104
-0.00543360301724138,-0.01696046794076066
-0.00543326301724138,-0.01357037149204745
-0.005432923017241379,-0.01646676457444231
-0.00543258301724138,-0.01755291198034269
-0.00543224301724138,-0.01798078823115116
-0.005431903017241379,-0.01758582553809725
-0.00543156301724138,-0.01778330688462459
-0.00543122301724138,-0.01699338149851666
-0.005430883017241379,-0.01640093745893319
-0.00543054301724138,-0.01775039332687003
-0.00543020301724138,-0.0181782695776785
-0.005429863017241379,-0.01580849341935116
-0.00542952301724138,-0.01712503572953345
-0.00542918301724138,-0.01709212217177895
-0.005428843017241379,-0.01603888832363307
-0.00542850301724138,-0.01577557986159661
-0.00542816301724138,-0.01567683918833312
-0.005427823017241379,-0.01505148159099635
-0.00542748301724138,-0.01636802390117864
-0.00542714301724138,-0.01745417130707902
-0.005426803017241379,-0.0159401476503694
-0.00542646301724138,-0.01610471543914218
-0.00542612301724138,-0.01679590015198788
-0.005425783017241379,-0.01646676457444231
-0.00542544301724138,-0.01775039332687003
-0.00542510301724138,-0.01794787467339738
-0.005424763017241379,-0.01057523773637659
-0.00542442301724138,-0.0101802750433219
-0.00542408301724138,-0.01034484283209469
-0.005423743017241379,-0.01347163081878426
-0.00542340301724138,-0.01712503572953345
-0.00542306301724138,-0.01692755438300611
-0.005422723017241379,-0.0165325916899519
-0.00542238301724138,-0.01679590015198788
-0.00542204301724138,-0.01814535601992472
-0.005421703017241379,-0.01768456621135637
-0.00542136301724138,-0.01518313582201458
-0.00542102301724138,-0.01531479005303281
-0.005420683017241379,-0.01468943245569269
-0.00542034301724138,-0.01274753254817735
-0.00542000301724138,-0.0129450138947047
-0.005419663017241379,-0.01432738332039478
-0.00541932301724138,-0.01360328504979584
-0.00541898301724138,-0.0129450138947047
-0.005418643017241379,-0.01544644428405086
-0.00541830301724138,-0.01534770361078737
-0.00541796301724138,-0.01636802390117864
-0.005417623017241379,-0.01784913400013317
-0.005417283017241379,-0.01755291198034269
-0.00541694301724138,-0.01745417130707902
-0.005416603017241379,-0.01732251707605906
-0.005416263017241379,-0.01636802390117864
-0.00541592301724138,-0.0136361986075504
-0.005415583017241379,-0.01442612399366025
-0.005415243017241379,-0.01468943245569622
-0.00541490301724138,-0.01748708486483358
-0.00541456301724138,-0.01327414947225793
-0.005414223017241379,-0.01034484283209469
-0.00541388301724138,-0.01199052071982254
-0.00541354301724138,-0.0113322495647326
-0.005413203017241379,-0.01547935784180559
