Analysis/files/cmb03_wrd01/d2s04_ch31.csv

#Digilent WaveForms Oscilloscope Acquisition
#Device Name: ADP3450
#Serial Number: SN:210018B9D9B0
#Date Time: 2024-08-13 12:24:41.891.431.520
#Sample rate: 2.94118e+06Hz
#Samples: 32768
#Trigger: Source: Channel 3 Type: Edge Condition: Rising Level: 60 mV Hyst.: Auto HoldOff: 0 s
#Channel 3: Range: 200 mV/div Offset: 0 V Attenuation: 1 X Coupling: DC Bandwidth: 0 Hz Sample Mode: Average

Time (s),Channel 3 (V)
-0.005570534052631579,0.0127604747116044
-0.005570194052631578,0.008975415569835665
-0.005569854052631579,0.01190472220998592
-0.005569514052631579,0.01002864941797616
-0.005569174052631578,0.009107069800846948
-0.005568834052631579,0.008218403741475522
-0.005568494052631579,0.009074156243094007
-0.005568154052631578,0.009238724031869787
-0.005567814052631579,0.01088440191959465
-0.005567474052631579,0.01289212894262263
-0.005567134052631578,0.01078566124633026
-0.005566794052631579,0.01039069855327629
-0.005566454052631579,0.008942502012075779
-0.005566114052631578,0.007362651239853446
-0.005565774052631579,0.005387837774583611
-0.005565434052631579,0.004005468348892213
-0.005565094052631578,0.002754753154219402
-0.005564754052631579,0.002952234500746385
-0.005564414052631579,0.003050975174010056
-0.005564074052631578,0.00150403795954713
-0.005563734052631579,0.002195222672391572
-0.005563394052631579,0.0023268769034098
-0.005563054052631579,0.00196482776811033
-0.005562714052631579,0.002721839596464486
-0.005562374052631579,0.003413024309310185
-0.005562034052631579,0.0003520634381419417
-0.005561694052631579,-0.0004707755057275538
-0.005561354052631579,0.006605639411502225
-0.005561014052631579,0.006638552969256722
-0.005560674052631579,0.001569865075054987
-0.005560334052631579,0.002820580269728157
-0.005559994052631579,0.003478851424818102
-0.005559654052631579,0.00153695151730043
-0.005559314052631579,0.0006153719001728307
-0.005558974052631579,-0.0007999110832705507
-0.005558634052631579,-0.002248107624473638
-0.005558294052631579,-0.002708897433037437
-0.005557954052631579,-0.00267598387528294
-0.005557614052631579,-0.002939292337319337
-0.005557274052631579,-0.003169687241601236
-0.005556934052631579,-0.000470775505732463
-0.005556594052631579,-0.003169687241601236
-0.005556254052631579,-0.002017712720191738
-0.005555914052631579,-0.00116196021857481
-0.005555574052631579,-0.0005695161789912252
-0.005555234052631579,-0.003038033010583008
-0.005554894052631579,0.0001216685338487266
-0.005554554052631579,-0.0005695161789912252
-0.005554214052631579,-0.0005366026212366681
-0.005553874052631579,0.0007799396889456162
-0.005553534052631579,-0.000832824641027682
-0.005553194052631579,-0.0004049483902184396
-0.005552854052631579,-9.985697163754359e-06
-0.005552514052631578,-0.0005036890634821109
-0.005552174052631579,-9.985697163754359e-06
-0.005551834052631579,0.004499171715210569
-0.005551494052631578,0.0008786803622053362
-0.005551154052631579,-0.001293614449591481
-0.005550814052631579,8.875497609991696e-05
-0.005550474052631578,-0.001227787334082308
-0.005550134052631579,-0.00119487377632781
-0.005549794052631579,-0.001030305987555025
-0.005549454052631578,-0.001359441565102811
-0.005549114052631579,-0.002577243202019209
-0.005548774052631579,2.292786059080275e-05
-0.005548434052631578,-9.985697166628091e-06
-0.005548094052631579,-0.001589836469382495
-0.005547754052631579,-0.0005695161789912252
-0.005547414052631578,-0.0003062077169590789
-0.005547074052631579,-0.00267598387528288
-0.005546734052631579,-0.002939292337319337
-0.005546394052631578,-0.001886058489175126
-0.005546054052631579,-0.002774724548546551
-0.005545714052631579,0.001141988824245744
-0.005545374052631578,-0.00471662445607027
-0.005545034052631579,-0.007382622634184546
-0.005544694052631579,-0.003268427914864908
-0.005544354052631578,-0.002313934739987362
-0.005544014052631579,-0.004848278687083649
-0.005543674052631579,-0.006592697248075176
-0.005543334052631578,-0.003597563492411257
-0.005542994052631579,-0.004025439743219721
-0.005542654052631579,-0.004091266858728836
-0.005542314052631579,-0.004124180416483333
-0.005541974052631579,-0.004025439743219721
-0.005541634052631579,-0.003005119452828451
-0.005541294052631579,-0.00158983646938507
-0.005540954052631579,-0.002478502528755537
-0.005540614052631579,-0.001688577142646167
-0.005540274052631579,0.0001216685338511813
-0.005539934052631579,0.0005166312269091594
-0.005539594052631579,-0.001951885604682624
-0.005539254052631579,-0.0001416399281852754
-0.005538914052631579,-9.985697163754359e-06
-0.005538574052631579,0.0001874956493635883
-0.005538234052631579,0.0003520634381360745
-0.005537894052631579,-0.0009973924298004675
-0.005537554052631579,-0.002412675413246423
-0.005537214052631579,-0.00316968724159986
-0.005536874052631579,-0.002708897433037437
-0.005536534052631579,-0.007218054845411761
-0.005536194052631579,-0.009127041195172601
-0.005535854052631579,-0.001227787334082367
-0.005535514052631579,-0.001129046660818696
-0.005535174052631579,-0.0002732941592017679
-0.005534834052631579,-0.003762131281183265
-0.005534494052631579,-0.007152227729902647
-0.005534154052631579,-0.005012846475860326
-0.005533814052631579,-0.002182280508964523
-0.005533474052631579,-0.004354575320765292
-0.005533134052631579,-0.006395215901547833
-0.005532794052631579,-0.004519143109538078
-0.005532454052631579,-0.003762131281183265
-0.005532114052631579,-0.004058353300974278
-0.005531774052631579,-0.00392669906995605
-0.005531434052631579,-0.004848278687083649
-0.005531094052631579,-0.005276154937892892
-0.005530754052631578,-0.004453315994028964
-0.005530414052631579,-0.003729217723428708
-0.005530074052631579,-0.004552056667292635
-0.005529734052631578,-0.0022481076244725
-0.005529394052631579,-0.001622750027137053
-0.005529054052631579,-0.002774724548546551
-0.005528714052631578,-0.003136773683846321
-0.005528374052631579,-0.002939292337319337
-0.005528034052631579,-0.003400082145883136
-0.005527694052631578,-0.002412675413246363
-0.005527354052631579,-0.002379761855491866
-0.005527014052631579,-0.00165566358489161
-0.005526674052631578,-0.0002074670436907378
-0.005526334052631579,-9.985697163754359e-06
-0.005525994052631579,-0.005012846475856435
-0.005525654052631578,0.001141988824247121
-0.005525314052631579,0.001899000652600558
-0.005524974052631579,0.001174902382000301
-0.005524634052631578,-0.001096133103074257
-0.005524294052631579,-0.00665852436358429
-0.005523954052631579,-0.005802771861965805
-0.005523614052631578,-0.006856005710119954
-0.005523274052631579,-0.01143099023799507
-0.005522934052631579,-0.02225955073924436
-0.005522594052631578,-0.03897963807859667
-0.005522254052631579,-0.05948478455964844
-0.005521914052631579,-0.08726382730449464
-0.005521574052631578,-0.1202761257323745
-0.005521234052631579,-0.1527618072360633
-0.005520894052631579,-0.183996773545138
-0.005520554052631579,-0.2115454213856522
-0.005520214052631579,-0.2321822220978096
-0.005519874052631579,-0.247684507800206
-0.005519534052631579,-0.2587105496479626
-0.005519194052631579,-0.2639108917732026
-0.005518854052631579,-0.2626601765785295
-0.005518514052631579,-0.2607182766710142
-0.005518174052631579,-0.2573281802222912
-0.005517834052631579,-0.2494947534767066
-0.005517494052631579,-0.2417929809621543
-0.005517154052631579,-0.2345849118138923
-0.005516814052631579,-0.2256324241046527
-0.005516474052631579,-0.2182597871676454
-0.005516134052631579,-0.2115783349434568
-0.005515794052631579,-0.2055551538743729
-0.005515454052631579,-0.2005522930956893
-0.005515114052631579,-0.1882097089377213
-0.005514774052631579,-0.1793888754595
-0.005514434052631579,-0.1721478927535106
-0.005514094052631579,-0.1664867608197136
-0.005513754052631579,-0.1636891084105763
-0.005513414052631579,-0.1550328427211435
-0.005513074052631579,-0.1494704514606076
-0.005512734052631579,-0.1453233431835334
-0.005512394052631579,-0.1436776652958055
-0.005512054052631579,-0.1390697672101675
-0.005511714052631579,-0.1354163622994117
-0.005511374052631579,-0.1314996489266194
-0.005511034052631579,-0.1263651339169085
-0.005510694052631579,-0.122316766313098
-0.005510354052631579,-0.1173139055344053
-0.005510014052631578,-0.1134301057193675
-0.005509674052631579,-0.1092829974422934
-0.005509334052631579,-0.1043459637791098
-0.005508994052631578,-0.100824213099367
-0.005508654052631579,-0.09796073357472571
-0.005508314052631579,-0.09598592010945228
-0.005507974052631578,-0.09174007115911251
-0.005507634052631579,-0.09068683731096858
-0.005507294052631579,-0.08571689009003047
-0.005506954052631578,-0.0834787681627171
-0.005506614052631579,-0.08156978181295627
-0.005506274052631579,-0.07804803113321865
-0.005505934052631578,-0.07521746516632304
-0.005505594052631579,-0.0731768245855442
-0.005505254052631579,-0.07436171266470826
-0.005504914052631578,-0.06369771995222528
-0.005504574052631579,-0.06014305571473959
-0.005504234052631579,-0.05589720676440172
-0.005503894052631578,-0.05234254252691662
-0.005503554052631579,-0.0562263423419473
-0.005503214052631579,-0.05408696108790108
-0.005502874052631578,-0.05043355617714369
-0.005502534052631579,-0.04957780367552676
-0.005502194052631579,-0.05148679002529107
-0.005501854052631578,-0.04635227501557752
-0.005501514052631579,-0.04490407847437965
-0.005501174052631579,-0.04286343789359711
-0.005500834052631578,-0.04230390741176934
-0.005500494052631579,-0.04213933962299685
-0.005500154052631579,-0.04125067356362381
-0.005499814052631579,-0.03881507028979102
-0.005499474052631579,-0.03983539058017786
-0.005499134052631579,-0.04078988375506001
-0.005498794052631579,-0.03746561442185579
-0.005498454052631579,-0.03499709759025796
-0.005498114052631579,-0.03368055528007567
-0.005497774052631579,-0.03167282825705134
-0.005497434052631579,-0.03035628594686541
-0.005497094052631579,-0.02973092834952882
-0.005496754052631579,-0.02778902844201349
-0.005496414052631579,-0.02699910305590058
-0.005496074052631579,-0.02732823863344615
-0.005495734052631579,-0.0267687081516197
-0.005495394052631579,-0.02673579459386412
-0.005495054052631579,-0.02795359623078274
-0.005494714052631579,-0.03170574181479542
-0.005494374052631579,-0.0233786117028993
-0.005494034052631579,-0.021765847372926
-0.005493694052631579,-0.01909984919481173
-0.005493354052631579,-0.01827701025094295
-0.005493014052631579,-0.02275325410556272
-0.005492674052631579,-0.02087718131355637
-0.005492334052631579,-0.01735543063381535
-0.005491994052631579,-0.01705920861402434
-0.005491654052631579,-0.01814535601992275
-0.005491314052631579,-0.01547935784180559
-0.005490974052631579,-0.01505148159099635
-0.005490634052631579,-0.01570975274608749
-0.005490294052631579,-0.01528187649527825
-0.005489954052631579,-0.01699338149851522
-0.005489614052631579,-0.01613762899689674
-0.005489274052631578,-0.01640093745893319
-0.005488934052631579,-0.01399824774285052
-0.005488594052631579,-0.01557809851506927
-0.005488254052631578,-0.01301084101021082
-0.005487914052631579,-0.01136516312248596
-0.005487574052631579,-0.01235256985512267
-0.005487234052631578,-0.01215508850859611
-0.005486894052631579,-0.01258296475940457
-0.005486554052631579,-0.0134058037032685
-0.005486214052631578,-0.01373493928081407
-0.005485874052631579,-0.01373493928081407
-0.005485534052631579,-0.01491982735997812
-0.005485194052631578,-0.01587432053485627
-0.005484854052631579,-0.01366911216530495
-0.005484514052631579,-0.01699338149851522
-0.005484174052631578,-0.01728960351829211
-0.005483834052631579,-0.009522003888230759
-0.005483494052631579,-0.008205461578048474
-0.005483154052631578,-0.006592697248078049
-0.005482814052631579,-0.008172548020293918
-0.005482474052631579,-0.009785312350267215
-0.005482134052631578,-0.006724351479089573
-0.005481794052631579,-0.004617883782801749
-0.005481454052631579,-0.006921832825620747
-0.005481114052631578,-0.00876499205987343
-0.005480774052631579,-0.007382622634184546
-0.005480434052631579,-0.008995386964157845
-0.005480094052631578,-0.01080563264065807
-0.005479754052631579,-0.01057523773637659
-0.005479414052631579,-0.01004862081230367
-0.005479074052631579,-0.01021318860107616
-0.005478734052631579,-0.00939034965721253
-0.005478394052631579,-0.00869916494436683
-0.005478054052631579,-0.009159954752929793
-0.005477714052631579,-0.007316795518675433
-0.005477374052631579,-0.006428129459302391
-0.005477034052631579,-0.007678844653973285
-0.005476694052631579,-0.007744671769484675
-0.005476354052631579,-0.006921832825620747
-0.005476014052631579,-0.007283881960920217
-0.005475674052631579,-0.007316795518675433
-0.005475334052631579,-0.007152227729902647
-0.005474994052631579,-0.007810498884992592
-0.005474654052631579,-0.008304202251312145
-0.005474314052631579,-0.007876326000502903
-0.005473974052631579,-0.01179303937328807
-0.005473634052631579,-0.006098993881756819
-0.005473294052631579,-0.003169687241601236
-0.005472954052631579,-0.001326528007349391
-0.005472614052631579,-7.581281267286857e-05
-0.005472274052631579,-0.003400082145883136
-0.005471934052631579,-0.004782451571572021
-0.005471594052631579,-0.003597563492410479
-0.005471254052631579,-0.00494701936034732
-0.005470914052631579,-0.008040893789270061
-0.005470574052631579,-0.01120059533371317
-0.005470234052631579,-0.01077271908290393
-0.005469894052631579,-0.01090437331392216
-0.005469554052631579,-0.01100311398718583
-0.005469214052631579,-0.01264879187491368
-0.005468874052631579,-0.009061214079666959
-0.005468534052631579,-0.008402942924575817
-0.005468194052631579,-0.006757265036847961
-0.005467854052631579,-0.004255834647501621
-0.005467514052631578,-0.003531736376901365
-0.005467174052631579,-0.002412675413246423
-0.005466834052631579,-0.00165566358489161
-0.005466494052631578,-0.001918972046930222
-0.005466154052631579,-0.003103860126092122
-0.005465814052631579,0.002129395556882458
-0.005465474052631578,-0.002939292337321133
-0.005465134052631579,-0.00392669906995605
-0.005464794052631579,-0.004222921089747064
-0.005464454052631578,-0.004519143109538557
-0.005464114052631579,-0.004782451571574535
-0.005463774052631579,-0.004255834647501621
-0.005463434052631578,-0.008205461578040512
-0.005463094052631579,-0.003827958396692379
-0.005462754052631579,-0.002807638106301108
-0.005462414052631578,-0.003070946568339181
-0.005462074052631579,-0.003959612627710607
-0.005461734052631579,-0.008666251386612273
-0.005461394052631578,-0.009916966581282152
-0.005461054052631579,-0.008106720904784802
-0.005460714052631579,-0.007810498884993789
-0.005460374052631578,-0.006428129459305564
-0.005460034052631579,-0.008172548020293918
-0.005459694052631579,-0.005572376957683906
-0.005459354052631578,-0.007185141287657084
-0.005459014052631579,-0.00711931417214809
-0.005458674052631579,-0.00586859897747492
-0.005458334052631578,-0.004782451571579145
-0.005457994052631579,-0.007316795518675433
-0.005457654052631579,-0.009851139465776329
-0.005457314052631579,-0.007250968403171048
-0.005456974052631579,-0.007020573498884419
-0.005456634052631579,-0.006987659941129861
-0.005456294052631579,-0.007283881960920336
-0.005455954052631579,-0.00688891926786619
-0.005455614052631579,-0.006625610805829733
-0.005455274052631579,-0.005506549842176827
-0.005454934052631579,-0.005341982053402005
-0.005454594052631579,-0.005605290515438462
-0.005454254052631579,-0.002840551664060695
-0.005453914052631579,-0.0004378619479729968
-0.005453574052631579,-0.0007999110832731249
-0.005453234052631579,-0.005539463399920726
-0.005452894052631579,-0.003202600799355794
-0.005452554052631579,0.0002862363226272596
-0.005452214052631579,5.584141834577897e-05
-0.005451874052631579,-0.000207467043691097
-0.005451534052631579,-0.005374895611156563
-0.005451194052631579,-0.006790178594599944
-0.005450854052631579,-0.002050626277946295
-0.005450514052631579,-0.001096133103064139
-0.005450174052631579,-0.002577243202016515
-0.005449834052631579,-0.001161960218573253
-0.005449494052631579,-0.001227787334082367
-0.005449154052631579,-0.001524009353872842
-0.005448814052631579,-0.001063219545309582
-0.005448474052631579,-0.001853144931418952
-0.005448134052631579,-0.002774724548546551
-0.005447794052631579,-0.003400082145883136
-0.005447454052631579,-0.003795044838937822
-0.005447114052631579,-0.006461043017056948
-0.005446774052631578,-0.005210327822383777
-0.005446434052631579,-0.005967339650738591
-0.005446094052631579,-0.006164820997265934
-0.005445754052631578,-0.006263561670528228
-0.005445414052631579,-0.005506549842174791
-0.005445074052631579,-0.005341982053402005
-0.005444734052631578,-0.003432995703633323
-0.005444394052631579,-0.001030305987555025
-0.005444054052631579,-0.0006682568522548965
-0.005443714052631578,0.001076161708737947
-0.005443374052631579,0.001800259979336887
-0.005443034052631579,0.001043248150982073
-0.005442694052631578,-0.004519143109535863
-0.005442354052631579,-0.003301341472619465
-0.005442014052631579,-4.289925491831147e-05
-0.005441674052631578,-0.001392355122857847
-0.005441334052631579,-0.002873465221810222
-0.005440994052631579,-0.008106720904784802
-0.005440654052631578,-0.005704031188698542
-0.005440314052631579,-0.003729217723428708
-0.005439974052631579,-0.005243241380138334
-0.005439634052631578,-0.006263561670531222
-0.005439294052631579,-0.007152227729902647
-0.005438954052631579,-0.005473636284420234
-0.005438614052631578,-0.003103860126100444
-0.005438274052631579,-0.00767884465397556
-0.005437934052631579,-0.008304202251312145
-0.005437594052631578,-0.00550654984217545
-0.005437254052631579,-0.00586859897747492
-0.005436914052631579,-0.005967339650738591
-0.005436574052631579,-0.00632938878603806
-0.005436234052631579,-0.00438748887851985
-0.005435894052631579,-0.002840551664055666
-0.005435554052631579,-0.003070946568337146
-0.005435214052631579,-0.002248107624473638
-0.005434874052631579,0.0009774210354729588
-0.005434534052631579,-0.001293614449587351
-0.005434194052631579,-0.002577243202019209
-0.005433854052631579,-0.002643070317528323
-0.005433514052631579,-0.004650797340552654
-0.005433174052631579,-0.006296475228284162
-0.005432834052631579,-0.007580103980711889
-0.005432494052631579,-0.007777585327238872
-0.005432154052631579,-0.008534597155594046
-0.005431814052631579,-0.007185141287657204
-0.005431474052631579,-0.006592697248076254
-0.005431134052631579,-0.007283881960920875
-0.005430794052631579,-0.005671117630947577
-0.005430454052631579,-0.005704031188702074
-0.005430114052631579,-0.005045760033610991
-0.005429774052631579,-0.004025439743219721
-0.005429434052631579,-0.003103860126093799
-0.005429094052631579,-0.004486229551783521
-0.005428754052631579,-0.004058353300974278
-0.005428414052631579,-0.00356464993465682
-0.005428074052631579,-0.004815365129329092
-0.005427734052631579,-0.004979932918101878
-0.005427394052631579,-0.004617883782801749
-0.005427054052631579,-0.005473636284420234
-0.005426714052631579,-0.004584970225047193
-0.005426374052631579,-0.00313677368384668
-0.005426034052631579,-0.004420402436274407
-0.005425694052631579,-0.003827958396692379
-0.005425354052631579,0.0001874956493635883
-0.005425014052631578,-0.000207467043691097
-0.005424674052631579,-0.0007999110832731249
-0.005424334052631579,-0.000832824641027682
-0.005423994052631578,-0.002741810990795766
-0.005423654052631579,-0.004815365129329092
-0.005423314052631579,-0.006362302343793276
-0.005422974052631578,-0.002774724548555652
-0.005422634052631579,-0.007777585327239231
-0.005422294052631579,-0.007086400614393532
-0.005421954052631578,-0.009094127637414151
-0.005421614052631579,-0.005045760033610991
-0.005421274052631579,-0.005078673591365549
-0.005420934052631578,-0.002774724548546312
-0.005420594052631579,-0.002643070317528323
-0.005420254052631579,-0.006691437921338847
-0.005419914052631578,-0.004914105802588812
-0.005419574052631579,-0.002741810990791994
-0.005419234052631579,-0.002544329644264652
-0.005418894052631578,-0.001293614449591841
-0.005418554052631579,-0.001491095796118824
-0.005418214052631579,-0.0005695161789912252
-0.005417874052631578,-0.0007011704100119082
