Analysis/files/cmb03_wrd01/d2s03_ch45.csv

#Digilent WaveForms Oscilloscope Acquisition
#Device Name: ADP3450
#Serial Number: SN:210018B9D9B0
#Date Time: 2024-08-13 11:52:30.449.278.340
#Sample rate: 2.94118e+06Hz
#Samples: 32768
#Trigger: Source: Channel 3 Type: Edge Condition: Rising Level: 60 mV Hyst.: Auto HoldOff: 0 s
#Channel 3: Range: 200 mV/div Offset: 0 V Attenuation: 1 X Coupling: DC Bandwidth: 0 Hz Sample Mode: Average

Time (s),Channel 3 (V)
-0.005570509045092839,0.0164467931801148
-0.005570169045092838,0.0144061525993328
-0.005569829045092838,0.01470237461912327
-0.005569489045092839,0.01318835096241365
-0.005569149045092838,0.01042361211102971
-0.005568809045092838,0.009798254513694264
-0.005568469045092839,0.01058817989980363
-0.005568129045092838,0.009765340955939167
-0.005567789045092838,0.009469118936148692
-0.005567449045092839,0.008547539319021094
-0.005567109045092838,0.007724700375158843
-0.005566769045092838,0.008646279992284765
-0.005566429045092839,0.007823441048420837
-0.005566089045092838,0.005914454698656704
-0.005565749045092838,0.006013195371920196
-0.005565409045092839,0.007033515662311467
-0.005565069045092838,0.005486578447850395
-0.005564729045092838,0.007198083451084253
-0.005564389045092839,0.007856354606175394
-0.005564049045092838,0.007362651239859193
-0.005563709045092838,0.008547539319021094
-0.005563369045092839,0.00871210710779388
-0.005563029045092839,0.005552405563362145
-0.005562689045092838,0.001273643055263973
-0.005562349045092839,0.008086749510457293
-0.005562009045092839,0.007988008837193803
-0.005561669045092838,0.006210676718447538
-0.005561329045092839,0.002623098923200814
-0.005560989045092839,0.002985148058500284
-0.005560649045092838,0.004564998830719684
-0.005560309045092839,0.004466258157456012
-0.005559969045092839,0.003314283636048609
-0.005559629045092838,0.002359790461164357
-0.005559289045092839,0.0008786803622092876
-0.005558949045092839,0.007461391913108735
-0.005558609045092838,0.005453664890092726
-0.005558269045092839,0.0008457668044547304
-0.005557929045092839,0.004828307292748896
-0.005557589045092838,0.004532085272965126
-0.005557249045092839,0.0023268769034098
-0.005556909045092839,0.0005824583424214466
-0.005556569045092838,0.0005166312269091594
-0.005556229045092839,-0.001096133103064139
-0.005555889045092839,0.0003520634381337397
-0.005555549045092838,-0.0007011704100094536
-0.005555209045092839,-0.0005036890634821109
-0.005554869045092839,-0.002116453393452475
-0.005554529045092838,-7.581281267286857e-05
-0.005554189045092838,0.0002862363226272596
-0.005553849045092839,0.001207815939754859
-0.005553509045092838,0.002228136230146129
-0.005553169045092838,0.001734432863827772
-0.005552829045092839,0.001734432863827772
-0.005552489045092838,0.001207815939754859
-0.005552149045092838,0.000417890553645488
-0.005551809045092839,0.0001216685338544741
-0.005551469045092838,0.004433344599688763
-0.005551129045092838,-0.002544329644264652
-0.005550789045092839,-0.001096133103064139
-0.005550449045092838,-0.0009644788720501612
-0.005550109045092838,-0.003301341472619465
-0.005549769045092839,-0.00290637877956478
-0.005549429045092838,-0.001359441565100536
-0.005549089045092838,-0.001326528007346039
-0.005548749045092839,8.875497609991696e-05
-0.005548409045092838,0.0001545820916095101
-0.005548069045092838,0.000417890553645488
-0.005547729045092839,0.0005824583424182735
-0.005547389045092838,0.001668605748316563
-0.005547049045092838,0.0005166312269091594
-0.005546709045092839,0.0001874956493635883
-0.005546369045092838,0.0005166312269092192
-0.005546029045092838,0.0005495447846637165
-0.005545689045092839,-0.00165566358489161
-0.005545349045092838,-0.001194873776331462
-0.005545009045092838,-0.003202600799355794
-0.005544669045092839,-0.005473636284420234
-0.005544329045092838,-0.004091266858727819
-0.005543989045092838,-0.003531736376901365
-0.005543649045092839,-0.003992526185465165
-0.005543309045092838,-0.005671117630945302
-0.005542969045092838,-0.004420402436274407
-0.005542629045092839,-0.005045760033610991
-0.005542289045092839,-0.006461043017054373
-0.005541949045092838,-0.004979932918101878
-0.005541609045092839,-0.005671117630947577
-0.005541269045092839,-0.004058353300977212
-0.005540929045092838,-0.001063219545309582
-0.005540589045092839,-0.005605290515438462
-0.005540249045092839,-0.008073807347025754
-0.005539909045092838,-0.003827958396692379
-0.005539569045092839,-0.003301341472619465
-0.005539229045092839,-0.00395961262770941
-0.005538889045092838,-0.002643070317528323
-0.005538549045092839,-0.004058353300974278
-0.005538209045092839,-0.004881192244836709
-0.005537869045092838,-0.004321661763010735
-0.005537529045092839,-0.004716624456065421
-0.005537189045092839,-0.00639521590154478
-0.005536849045092838,-0.004914105802592763
-0.005536509045092839,-0.005605290515438462
-0.005536169045092839,-0.006098993881755921
-0.005535829045092838,-0.005934426092984033
-0.005535489045092839,-0.00619773455502049
-0.005535149045092839,-0.006691437921337949
-0.005534809045092838,-0.006098993881756819
-0.005534469045092839,-0.004815365129329092
-0.005534129045092839,-0.006230648112772473
-0.005533789045092838,-0.005276154937892892
-0.005533449045092838,-0.003597563492410479
-0.005533109045092839,-0.003301341472619465
-0.005532769045092838,-0.003959612627710607
-0.005532429045092838,-0.001984799162437181
-0.005532089045092839,-0.005276154937892892
-0.005531749045092838,-0.005210327822383777
-0.005531409045092838,0.001964827768109672
-0.005531069045092839,0.00107616170873663
-0.005530729045092838,0.001339470170773087
-0.005530389045092838,0.0007470261311910591
-0.005530049045092839,-0.00165566358489161
-0.005529709045092838,-0.001886058489170277
-0.005529369045092838,-0.0001087263704274257
-0.005529029045092839,-0.002281021182228195
-0.005528689045092838,-0.004255834647499884
-0.005528349045092838,-0.003301341472619465
-0.005528009045092839,-0.004255834647501621
-0.005527669045092838,-0.004387488878519431
-0.005527329045092838,-0.00415709397423795
-0.005526989045092839,-0.003630477050165036
-0.005526649045092838,-0.004947019360345045
-0.005526309045092838,-0.00369630416567415
-0.005525969045092839,-0.003268427914864908
-0.005525629045092838,-0.003630477050163659
-0.005525289045092838,-0.002873465221810222
-0.005524949045092839,-0.002478502528755537
-0.005524609045092838,-0.002840551664056204
-0.005524269045092838,-0.00313677368384668
-0.005523929045092839,-0.003400082145883136
-0.005523589045092838,-0.005374895611165723
-0.005523249045092838,-0.0104106699476038
-0.005522909045092839,-0.01985686102316169
-0.005522569045092838,-0.03585285009191835
-0.005522229045092838,-0.05889234052006642
-0.005521889045092839,-0.08647390191838528
-0.005521549045092838,-0.1216914087158163
-0.005521209045092838,-0.1519060547344448
-0.005520869045092839,-0.1775128026674902
-0.005520529045092839,-0.2061475979139028
-0.005520189045092838,-0.2295162239196905
-0.005519849045092839,-0.2500542839585341
-0.005519509045092839,-0.2629893121560515
-0.005519169045092838,-0.2684858763010861
-0.005518829045092839,-0.2701644677465685
-0.005518489045092839,-0.2679592593770171
-0.005518149045092838,-0.2637792375421844
-0.005517809045092839,-0.2562091192586363
-0.005517469045092839,-0.247849075588994
-0.005517129045092838,-0.239883994612376
-0.005516789045092839,-0.2317872594047549
-0.005516449045092839,-0.2231309937153221
-0.005516109045092838,-0.2165811957221495
-0.005515769045092839,-0.2098668299402199
-0.005515429045092839,-0.2012434778085416
-0.005515089045092838,-0.1948911611618964
-0.005514749045092839,-0.1876172648981393
-0.005514409045092839,-0.179520529690533
-0.005514069045092838,-0.1743201875652982
-0.005513729045092839,-0.1688894505357963
-0.005513389045092839,-0.1618788627340884
-0.005513049045092838,-0.1569747426286466
-0.005512709045092839,-0.1525314123317814
-0.005512369045092839,-0.1464753177049429
-0.005512029045092838,-0.1407483586556499
-0.005511689045092838,-0.1361733741277665
-0.005511349045092839,-0.1310388591180556
-0.005511009045092838,-0.1286361694019729
-0.005510669045092838,-0.1175113868809326
-0.005510329045092839,-0.1113236380230759
-0.005509989045092838,-0.1075714924390564
-0.005509649045092838,-0.1087563805182204
-0.005509309045092839,-0.1085588991716931
-0.005508969045092838,-0.1027661130068824
-0.005508629045092838,-0.09802656069023483
-0.005508289045092839,-0.09595300655169772
-0.005507949045092838,-0.09276039144949892
-0.005507609045092838,-0.08904115942324073
-0.005507269045092839,-0.08489405114616652
-0.005506929045092838,-0.08061528863806877
-0.005506589045092838,-0.07768598199791854
-0.005506249045092839,-0.07172862804434368
-0.005505909045092838,-0.07077413486945813
-0.005505569045092838,-0.06889806207745178
-0.005505229045092839,-0.06731821130523305
-0.005504889045092838,-0.06488260803139288
-0.005504549045092838,-0.06326984370142252
-0.005504209045092839,-0.06086715398533984
-0.005503869045092838,-0.05823406936497438
-0.005503529045092838,-0.05774036599865692
-0.005503189045092839,-0.0564567372462292
-0.005502849045092838,-0.05438318310768922
-0.005502509045092838,-0.05280333233547335
-0.005502169045092839,-0.05168427137181841
-0.005501829045092838,-0.0492486680979758
-0.005501489045092838,-0.04628644790007105
-0.005501149045092839,-0.0458585716492618
-0.005500809045092838,-0.04720802751719206
-0.005500469045092838,-0.04358753616419737
-0.005500129045092839,-0.03664277547798581
-0.005499789045092839,-0.03720230595981226
-0.005499449045092838,-0.0340426044153758
-0.005499109045092839,-0.03601741788064923
-0.005498769045092839,-0.03680734326675716
-0.005498429045092838,-0.03101455710195655
-0.005498089045092839,-0.03022463171584718
-0.005497749045092839,-0.03091581642869162
-0.005497409045092838,-0.02874352161689211
-0.005497069045092839,-0.02584712853449108
-0.005496729045092839,-0.02574838786122759
-0.005496389045092838,-0.02479389468634526
-0.005496049045092839,-0.02370774728044487
-0.005495709045092839,-0.02390522862697185
-0.005495369045092838,-0.02048221862049827
-0.005495029045092839,-0.02173293381517144
-0.005494689045092839,-0.02268742699005187
-0.005494349045092838,-0.02242411852801714
-0.005494009045092839,-0.02058095929376194
-0.005493669045092839,-0.02153545246864237
-0.005493329045092838,-0.02225955073924436
-0.005492989045092839,-0.02094300842906207
-0.005492649045092839,-0.02104174910232557
-0.005492309045092838,-0.01775039332687003
-0.005491969045092839,-0.01824409669318839
-0.005491629045092839,-0.0181124424621704
-0.005491289045092838,-0.01778330688462459
-0.005490949045092838,-0.01570975274608749
-0.005490609045092839,-0.01745417130707902
-0.005490269045092838,-0.0231482167986174
-0.005489929045092838,-0.0208442677557984
-0.005489589045092839,-0.0150185680332418
-0.005489249045092838,-0.01389950706958685
-0.005488909045092838,-0.0129450138947047
-0.005488569045092839,-0.01554518495731471
-0.005488229045092838,-0.01771747976910524
-0.005487889045092838,-0.01208926139308621
-0.005487549045092839,-0.01113476821820406
-0.005487209045092838,-0.01304375456796633
-0.005486869045092838,-0.01192469360431343
-0.005486529045092839,-0.009818225908021772
-0.005486189045092838,-0.009719485234760137
-0.005485849045092838,-0.01083854619841304
-0.005485509045092839,-0.009752398792512659
-0.005485169045092838,-0.0104435835053565
-0.005484829045092838,-0.009423263214967087
-0.005484489045092839,-0.008435856482330374
-0.005484149045092838,-0.00929160898394814
-0.005483809045092838,-0.008896646290894173
-0.005483469045092839,-0.006757265036847961
-0.005483129045092838,-0.007020573498883161
-0.005482789045092838,-0.006329388786038719
-0.005482449045092839,-0.005440722726665677
-0.005482109045092838,-0.005934426092982836
-0.005481769045092838,-0.005276154937892892
-0.005481429045092839,-0.00438748887851985
-0.005481089045092838,-0.005111587149124117
-0.005480749045092838,-0.007316795518675433
-0.005480409045092839,-0.00540780916891112
-0.005480069045092838,-0.007152227729910549
-0.005479729045092838,-0.01149681735350419
-0.005479389045092839,-0.00392669906995605
-0.005479049045092839,-0.003498822819147586
-0.005478709045092838,-0.003729217723428708
-0.005478369045092839,-0.005473636284420234
-0.005478029045092839,-0.008600424271097471
-0.005477689045092838,-0.008172548020293918
-0.005477349045092839,-0.00369630416567415
-0.005477009045092839,-0.006658524363578902
-0.005476669045092838,-0.00688891926786619
-0.005476329045092839,-0.003795044838937822
-0.005475989045092839,-0.002906378779566396
-0.005475649045092838,-0.002774724548546551
-0.005475309045092839,-0.002840551664055666
-0.005474969045092839,-0.001491095796121279
-0.005474629045092838,-0.002248107624473638
-0.005474289045092839,-0.003038033010583008
-0.005473949045092839,-0.002643070317529042
-0.005473609045092838,-0.00415709397423795
-0.005473269045092839,-0.004058353300974278
-0.005472929045092839,-0.004354575320764754
-0.005472589045092838,-0.005671117630947577
-0.005472249045092839,-0.007218054845411761
-0.005471909045092839,-0.006921832825621286
-0.005471569045092838,-0.007020573498884419
-0.005471229045092839,-0.008666251386612273
-0.005470889045092839,-0.007876326000504339
-0.005470549045092838,-0.007975066673766575
-0.005470209045092838,-0.007975066673766575
-0.005469869045092839,-0.006461043017056948
-0.005469529045092838,-0.007843412442748346
-0.005469189045092838,-0.01330706303000483
-0.005468849045092839,-0.007185141287657204
-0.005468509045092838,-0.005440722726665677
-0.005468169045092838,-0.005704031188702134
-0.005467829045092839,-0.008468770040084931
-0.005467489045092838,-0.01037775638984924
-0.005467149045092838,-0.009522003888230759
-0.005466809045092839,-0.006329388786038719
-0.005466469045092838,-0.00544072272666861
-0.005466129045092838,-0.007053487056638975
-0.005465789045092839,-0.005111587149120106
-0.005465449045092838,-0.003762131281183145
-0.005465109045092838,-0.00369630416567415
-0.005464769045092839,-0.004124180416483393
-0.005464429045092838,-0.001359441565102392
-0.005464089045092838,-0.002346848297737309
-0.005463749045092839,-0.001161960218573253
-0.005463409045092838,0.0001216685338542346
-0.005463069045092838,-9.985697163754359e-06
-0.005462729045092839,-0.0009644788720459105
-0.005462389045092838,0.0002862363226259424
-0.005462049045092838,-0.0004378619479729968
-0.005461709045092839,-0.002083539835700852
-0.005461369045092838,-0.001260700891836206
-0.005461029045092838,-0.0008657381987822392
-0.005460689045092839,0.001964827768109672
-0.005460349045092838,-0.001787317815910916
-0.005460009045092838,-0.002379761855491866
-0.005459669045092839,-0.003959612627710607
-0.005459329045092838,-0.006131907439515268
-0.005458989045092838,-0.008271288693557588
-0.005458649045092839,-0.006230648112775047
-0.005458309045092838,-0.004650797340553852
-0.005457969045092838,-0.003301341472619465
-0.005457629045092839,-0.002939292337319337
-0.005457289045092839,-0.007613017538457945
-0.005456949045092838,-0.006230648112775047
-0.005456609045092839,-0.004091266858728836
-0.005456269045092839,-0.003630477050165875
-0.005455929045092838,-0.003432995703637694
-0.005455589045092839,-0.00290637877956478
-0.005455249045092839,-0.002281021182229332
-0.005454909045092838,-0.001392355122855153
-0.005454569045092839,-0.001293614449591481
-0.005454229045092839,-0.001853144931417935
-0.005453889045092838,-0.002050626277946295
-0.005453549045092839,-0.002215194066719081
-0.005453209045092839,-0.002149366951210086
-0.005452869045092838,-0.002248107624473638
-0.005452529045092839,-0.004881192244838206
-0.005452189045092839,-0.005111587149119687
-0.005451849045092838,-0.004190007531992507
-0.005451509045092839,-0.002774724548546551
-0.005451169045092839,-0.005276154937888342
-0.005450829045092838,-0.00494701936034732
-0.005450489045092839,-0.003038033010583008
-0.005450149045092839,-0.002017712720193594
-0.005449809045092838,-0.00336716858812858
-0.005449469045092839,-0.002643070317528323
-0.005449129045092839,-0.002807638106300809
-0.005448789045092838,-0.003795044838937822
-0.005448449045092838,-0.006526870132566062
-0.005448109045092839,-0.0007011704100094536
-0.005447769045092838,-0.0006682568522548965
-0.005447429045092838,0.001043248150982073
-0.005447089045092839,0.000714112573436502
-0.005446749045092838,-0.006823092152357076
-0.005446409045092838,-0.005638204073193019
-0.005446069045092839,-0.003893785512201493
-0.005445729045092838,-0.004124180416482854
-0.005445389045092838,-0.003827958396692379
-0.005445049045092839,-0.001524009353873381
-0.005444709045092838,-0.001359441565097183
-0.005444369045092838,0.0005166312269091594
-0.005444029045092839,0.001964827768109672
-0.005443689045092838,0.0003520634381346975
-0.005443349045092838,-0.0005695161789912252
-0.005443009045092839,-0.002807638106301108
-0.005442669045092838,-0.003367168588127741
-0.005442329045092838,-0.00290637877956478
-0.005441989045092839,-0.003663390607919593
-0.005441649045092838,-0.003926699069959762
-0.005441309045092838,-0.005967339650738591
-0.005440969045092839,-0.004190007531992507
-0.005440629045092838,-0.005802771861965266
-0.005440289045092838,-0.005506549842174791
-0.005439949045092839,-0.004815365129329092
-0.005439609045092838,-0.004255834647502219
-0.005439269045092838,-0.004584970225047193
-0.005438929045092839,-0.004288748205256179
-0.005438589045092838,-0.004420402436284165
-0.005438249045092838,-0.009785312350267215
-0.005437909045092839,-0.004782451571574535
-0.005437569045092838,-0.001589836469383992
-0.005437229045092838,-0.002412675413246423
-0.005436889045092839,-0.001063219545309582
-0.005436549045092839,-0.00405835330096883
-0.005436209045092838,-0.007086400614393532
-0.005435869045092839,-0.004321661763010735
-0.005435529045092839,-0.00247850252875889
-0.005435189045092838,-0.004190007531992507
-0.005434849045092839,-0.004914105802592763
-0.005434509045092839,-0.00553946339992821
-0.005434169045092838,-0.005671117630947577
-0.005433829045092839,-0.007218054845411761
-0.005433489045092839,-0.007086400614393772
-0.005433149045092838,-0.008435856482330374
-0.005432809045092839,-0.006921832825620747
-0.005432469045092839,-0.003860871954452504
-0.005432129045092838,-0.002708897433037437
-0.005431789045092839,-0.001918972046928067
-0.005431449045092839,-0.001129046660820133
-0.005431109045092838,-0.001227787334082367
-0.005430769045092839,-0.00290637877956478
-0.005430429045092839,-0.001853144931420868
-0.005430089045092838,-0.003465909261392251
-0.005429749045092839,-0.004486229551783521
-0.005429409045092839,-0.00425583464750204
-0.005429069045092838,-0.004091266858728836
-0.005428729045092839,-0.004190007531992507
-0.005428389045092839,-0.004420402436273988
-0.005428049045092838,-0.00336716858812858
-0.005427709045092838,-0.009094127637421515
-0.005427369045092839,-0.002511416086510094
-0.005427029045092838,0.002623098923200814
-0.005426689045092838,-0.003498822819146808
-0.005426349045092839,-0.003762131281183265
-0.005426009045092838,0.0003849769958909309
-0.005425669045092838,0.0002533227648727025
-0.005425329045092839,-0.001984799162437181
-0.005424989045092838,-0.0007669975255185678
-0.005424649045092838,-0.00188605848917351
-0.005424309045092839,-0.003498822819146808
-0.005423969045092838,-0.005704031188702254
-0.005423629045092838,-0.005769858304211248
-0.005423289045092839,-0.006098993881756819
-0.005422949045092838,-0.005111587149119986
-0.005422609045092838,-0.005045760033610991
-0.005422269045092839,-0.003959612627710607
-0.005421929045092838,-0.002675983875283239
-0.005421589045092838,-0.002873465221810222
-0.005421249045092839,-0.003663390607919593
-0.005420909045092838,-0.00395961262770917
-0.005420569045092838,-0.003169687241601236
-0.005420229045092839,-0.005605290515438462
-0.005419889045092838,-0.004848278687084547
-0.005419549045092838,-0.005341982053402005
-0.005419209045092839,-0.006098993881756819
-0.005418869045092838,-0.008139634462537263
-0.005418529045092838,-0.006987659941129861
-0.005418189045092839,-0.008106720904784802
-0.005417849045092838,-0.00830420225130957
