Analysis/files/cmb03_wrd01/d2s07_ch11.csv

#Digilent WaveForms Oscilloscope Acquisition
#Device Name: ADP3450
#Serial Number: SN:210018B9D9B0
#Date Time: 2024-08-13 16:18:06.195.835.960
#Sample rate: 2.94118e+06Hz
#Samples: 32768
#Trigger: Source: Channel 3 Type: Edge Condition: Rising Level: 60 mV Hyst.: Auto HoldOff: 0 s
#Channel 3: Range: 200 mV/div Offset: 0 V Attenuation: 1 X Coupling: DC Bandwidth: 0 Hz Sample Mode: Average

Time (s),Channel 3 (V)
-0.005570395236966825,0.008942502012075779
-0.005570055236966825,0.01114771038162015
-0.005569715236966825,0.005124529312547154
-0.005569375236966825,0.00607902248742931
-0.005569035236966825,0.01019321720674685
-0.005568695236966825,0.00904124268533945
-0.005568355236966825,0.007132256335575138
-0.005568015236966825,0.002952234500740398
-0.005567675236966825,-0.0003391212747093254
-0.005567335236966825,0.001405297286282201
-0.005566995236966825,0.001734432863825916
-0.005566655236966825,0.000714112573436502
-0.005566315236966825,0.001043248150982073
-0.005565975236966825,0.002458531134429286
-0.005565635236966825,0.003149715847273728
-0.005565295236966825,0.0027876667119736
-0.005564955236966825,0.004532085272966982
-0.005564615236966825,0.005552405563356397
-0.005564275236966825,0.003775073444610313
-0.005563935236966825,0.003775073444613067
-0.005563595236966825,0.00528909710131994
-0.005563255236966825,0.005815714025392853
-0.005562915236966825,0.005223269985811903
-0.005562575236966825,0.005453664890092726
-0.005562235236966825,0.004104209022155884
-0.005561895236966825,0.003478851424820436
-0.005561555236966825,0.005025788639283483
-0.005561215236966825,0.001471124401791315
-0.005560875236966825,0.000286236322629415
-0.005560535236966825,0.002919320942991828
-0.005560195236966825,0.00357759209808297
-0.005559855236966825,0.002359790461166572
-0.005559515236966825,0.002392704018918914
-0.005559175236966825,-0.00142526868060971
-0.005558835236966825,0.003182629405019904
-0.005558495236966825,0.00574988690988374
-0.005558155236966825,-0.0003720348324638825
-0.005557815236966825,-0.003630477050159109
-0.005557475236966825,-0.001820231373664395
-0.005557135236966825,-0.002774724548546551
-0.005556795236966825,-0.005901512535223788
-0.005556455236966825,-0.005769858304211248
-0.005556115236966825,-0.005045760033610991
-0.005555775236966825,-0.004519143109539036
-0.005555435236966825,-0.004255834647501621
-0.005555095236966825,-0.001688577142646167
-0.005554755236966825,-0.001622750027137172
-0.005554415236966825,-0.001622750027137053
-0.005554075236966825,-0.0007340839677640107
-0.005553735236966825,-0.001622750027137053
-0.005553395236966825,-0.00244558897100098
-0.005553055236966825,-0.002281021182228195
-0.005552715236966825,-0.00267598387528288
-0.005552375236966825,-0.004683710898310864
-0.005552035236966825,-0.004486229551783521
-0.005551695236966825,-0.005012846475856435
-0.005551355236966825,-0.005210327822379347
-0.005551015236966825,-0.002774724548546551
-0.005550675236966825,-0.00313677368384668
-0.005550335236966825,-0.004848278687080955
-0.005549995236966825,-0.00336716858812858
-0.005549655236966825,-0.002116453393455409
-0.005549315236966825,-0.00389378551220281
-0.005548975236966825,-0.004617883782801749
-0.005548635236966825,-0.00267598387528288
-0.005548295236966825,-0.002083539835704863
-0.005547955236966825,-0.004288748205256179
-0.005547615236966825,-0.0009644788720459105
-0.005547275236966825,-0.001688577142645628
-0.005546935236966825,-0.001392355122855153
-0.005546595236966825,-0.0005695161789912252
-0.005546255236966825,-0.002412675413245705
-0.005545915236966825,-0.002017712720191738
-0.005545575236966825,-0.002643070317528323
-0.005545235236966825,-0.003070946568341816
-0.005544895236966825,-0.00540780916891112
-0.005544555236966825,0.0002533227648727025
-0.005544215236966825,-0.004222921089754787
-0.005543875236966825,-0.008468770040084931
-0.005543535236966825,-0.006362302343793276
-0.005543195236966825,-0.007152227729901569
-0.005542855236966825,-0.006559783690320619
-0.005542515236966825,-0.005967339650738591
-0.005542175236966825,-0.004749538013822193
-0.005541835236966825,-0.005210327822383777
-0.005541495236966825,-0.002412675413246423
-0.005541155236966825,-0.0007011704100125667
-0.005540815236966825,-0.001918972046928067
-0.005540475236966825,0.0001874956493635883
-0.005540135236966825,-0.001853144931415241
-0.005539795236966825,0.002919320942991828
-0.005539455236966825,0.001569865075054987
-0.005539115236966825,-0.004519143109527002
-0.005538775236966825,-0.004222921089747064
-0.005538435236966825,-0.001853144931418952
-0.005538095236966825,-0.002313934739981914
-0.005537755236966825,-0.006296475228284162
-0.005537415236966825,-0.00619773455502049
-0.005537075236966825,-0.002643070317534789
-0.005536735236966825,-0.003465909261392251
-0.005536395236966825,-0.005045760033610991
-0.005536055236966825,-0.004519143109539036
-0.005535715236966825,-0.004486229551783521
-0.005535375236966825,-0.003729217723428708
-0.005535035236966825,-0.003367168588129238
-0.005534695236966825,-0.004519143109538078
-0.005534355236966825,-0.006066080324002262
-0.005534015236966825,-0.004519143109540892
-0.005533675236966825,-0.004716624456065421
-0.005533335236966825,-0.007250968403166318
-0.005532995236966825,-0.007481363307448217
-0.005532655236966825,-0.008205461578048474
-0.005532315236966825,-0.006592697248075176
-0.005531975236966825,-0.004519143109538078
-0.005531635236966825,-0.005243241380138334
-0.005531295236966825,-0.006724351479093405
-0.005530955236966825,-0.005144500706874663
-0.005530615236966825,-0.005243241380138334
-0.005530275236966825,-0.01044358350535836
-0.005529935236966825,-0.002116453393455409
-0.005529595236966825,-0.001194873776333557
-0.005529255236966825,-0.004354575320765292
-0.005528915236966825,-0.002972205895073894
-0.005528575236966825,-0.0006353432945020756
-0.005528235236966825,-0.001589836469382495
-0.005527895236966825,-0.002050626277946295
-0.005527555236966825,-4.28992549233405e-05
-0.005527215236966825,-0.002807638106301108
-0.005526875236966825,-0.005671117630947577
-0.005526535236966825,-0.005473636284419396
-0.005526195236966825,-0.005012846475856435
-0.005525855236966825,-0.007942153116012016
-0.005525515236966825,-0.007613017538465968
-0.005525175236966825,-0.007349709076429989
-0.005524835236966825,-0.007547190422957332
-0.005524495236966825,-0.005407809168911539
-0.005524155236966825,-0.005638204073193019
-0.005523815236966825,-0.007053487056638975
-0.005523475236966825,-0.007810498885003249
-0.005523135236966825,-0.01301084101021381
-0.005522795236966825,-0.02281908122107183
-0.005522455236966825,-0.04204059894977066
-0.005522115236966825,-0.06264448610408593
-0.005521775236966825,-0.09503142693457012
-0.005521435236966825,-0.1314996489266723
-0.005521095236966825,-0.1605952339816479
-0.005520755236966825,-0.1899870410564674
-0.005520415236966825,-0.2157583567782387
-0.005520075236966825,-0.2332025423882009
-0.005519735236966825,-0.2455122129884052
-0.005519395236966825,-0.254102651562329
-0.005519055236966825,-0.2557154158923179
-0.005518715236966825,-0.2540368244468355
-0.005518375236966825,-0.2514366533842302
-0.005518035236966825,-0.2454134723151415
-0.005517695236966825,-0.2376787862428206
-0.005517355236966825,-0.2338937271010534
-0.005517015236966825,-0.2247766716030342
-0.005516675236966825,-0.2179635651478409
-0.005516335236966825,-0.2128948772536483
-0.005515995236966825,-0.2053905860856001
-0.005515655236966825,-0.1974584186667518
-0.005515315236966825,-0.1912048426933974
-0.005514975236966825,-0.184885439604511
-0.005514635236966825,-0.1781052467070723
-0.005514295236966825,-0.1720491520802448
-0.005513955236966825,-0.1662892794731863
-0.005513615236966825,-0.1599369628265568
-0.005513275236966825,-0.1552303240676636
-0.005512935236966825,-0.1544074851237912
-0.005512595236966825,-0.1409458400021773
-0.005512255236966825,-0.1378848791310035
-0.005511915236966825,-0.1356467572036936
-0.005511575236966825,-0.1245878017981624
-0.005511235236966825,-0.1251802458377445
-0.005510895236966825,-0.1242257526628623
-0.005510555236966825,-0.1164252394750322
-0.005510215236966825,-0.1109945024455303
-0.005509875236966825,-0.1083614178251658
-0.005509535236966825,-0.1030294214689275
-0.005509195236966825,-0.09825695559451672
-0.005508855236966825,-0.09595300655168856
-0.005508515236966825,-0.09091723221525047
-0.005508175236966825,-0.08657264259164896
-0.005507835236966825,-0.08403829864454061
-0.005507495236966825,-0.07995701748298298
-0.005507155236966825,-0.07692897016956371
-0.005506815236966825,-0.07330847881655675
-0.005506475236966825,-0.07018169082987952
-0.005506135236966825,-0.06830561803786975
-0.005505795236966825,-0.06800939601807485
-0.005505455236966825,-0.06587001476403254
-0.005505115236966825,-0.06333567081693162
-0.005504775236966825,-0.06290779456612029
-0.005504435236966825,-0.06175582004471289
-0.005504095236966825,-0.05902399475108465
-0.005503755236966825,-0.05612760166868302
-0.005503415236966825,-0.05579846609113805
-0.005503075236966825,-0.05382365262586462
-0.005502735236966825,-0.05280333233547665
-0.005502395236966825,-0.05461357801197399
-0.005502055236966825,-0.05454775089646488
-0.005501715236966825,-0.04845874271187469
-0.005501375236966825,-0.05003859348409056
-0.005501035236966825,-0.0467801512663894
-0.005500695236966825,-0.03921003298285103
-0.005500355236966825,-0.04457494289683408
-0.005500015236966825,-0.04322548702889724
-0.005499675236966825,-0.03667568903575229
-0.005499335236966825,-0.03572119586085822
-0.005498995236966825,-0.03371346883783023
-0.005498655236966825,-0.03094872998645246
-0.005498315236966825,-0.02094300842906207
-0.005497975236966825,-0.02834855892383742
-0.005497635236966825,-0.02518885737940569
-0.005497295236966825,-0.02436601843553601
-0.005496955236966825,-0.0245305862243088
-0.005496615236966825,-0.02354317949167388
-0.005496275236966825,-0.02413562353125412
-0.005495935236966825,-0.02364192016493576
-0.005495595236966825,-0.02235829141251037
-0.005495255236966825,-0.0236090066071812
-0.005494915236966825,-0.02403688285799044
-0.005494575236966825,-0.02183167448843913
-0.005494235236966825,-0.02206206939271702
-0.005493895236966825,-0.02232537785475347
-0.005493555236966825,-0.02285199477882543
-0.005493215236966825,-0.02166710669966233
-0.005492875236966825,-0.02229246429699892
-0.005492535236966825,-0.0224241185280169
-0.005492195236966825,-0.02242411852801714
-0.005491855236966825,-0.02811816401955552
-0.005491515236966825,-0.02647248613183066
-0.005491175236966825,-0.01791496111564282
-0.005490835236966825,-0.0201530830429527
-0.005490495236966825,-0.01761873909585181
-0.005490155236966825,-0.01495274091773268
-0.005489815236966825,-0.02041639150498916
-0.005489475236966825,-0.01830992380869751
-0.005489135236966825,-0.01255005120165001
-0.005488795236966825,-0.01488691380222357
-0.005488455236966825,-0.01603888832363307
-0.005488115236966825,-0.01353745793428313
-0.005487775236966825,-0.0115626444690133
-0.005487435236966825,-0.01255005120165001
-0.005487095236966825,-0.0111018546604489
-0.005486755236966825,-0.01077271908290393
-0.005486415236966825,-0.01021318860107646
-0.005486075236966825,-0.007283881960922372
-0.005485735236966825,-0.008106720904784802
-0.005485395236966825,-0.009653658119248986
-0.005485055236966825,-0.007481363307445883
-0.005484715236966825,-0.00619773455502049
-0.005484375236966825,-0.008896646290894173
-0.005484035236966825,-0.01057523773637844
-0.005483695236966825,-0.01159555802676786
-0.005483355236966825,-0.01333997658775938
-0.005483015236966825,-0.01439321043590736
-0.005482675236966825,-0.01557809851506927
-0.005482335236966825,-0.01696046794076066
-0.005481995236966825,-0.01482108668670996
-0.005481655236966825,-0.01235256985512267
-0.005481315236966825,-0.0138665935118323
-0.005480975236966825,-0.01673007303646093
-0.005480635236966825,-0.006921832825620747
-0.005480295236966825,-0.006691437921338847
-0.005479955236966825,-0.006987659941119444
-0.005479615236966825,-0.001260700891836924
-0.005479275236966825,-0.00619773455502049
-0.005478935236966825,-0.009818225908015187
-0.005478595236966825,-0.004255834647501621
-0.005478255236966825,-0.004584970225047193
-0.005477915236966825,-0.006790178594598507
-0.005477575236966825,-0.005967339650738591
-0.005477235236966825,-0.004255834647501621
-0.005476895236966825,-0.004486229551783102
-0.005476555236966825,-0.00369630416567415
-0.005476215236966825,-0.003597563492410479
-0.005475875236966825,-0.004190007531991429
-0.005475535236966825,-0.00119487377632781
-0.005475195236966825,-0.0008986517565367963
-0.005474855236966825,-0.002017712720189703
-0.005474515236966825,-0.002511416086510094
-0.005474175236966825,-0.001754404258155281
-0.005473835236966825,-0.002906378779562685
-0.005473495236966825,-0.006362302343793276
-0.005473155236966825,-0.005835685419720362
-0.005472815236966825,-0.007086400614391257
-0.005472475236966825,-0.007349709076429989
-0.005472135236966825,-0.00711931417214809
-0.005471795236966825,-0.00866625138660946
-0.005471455236966825,-0.01057523773637659
-0.005471115236966825,-0.009489090330476201
-0.005470775236966825,-0.01235256985511746
-0.005470435236966825,-0.01603888832363307
-0.005470095236966825,-0.007382622634184546
-0.005469755236966825,-0.01057523773637659
-0.005469415236966825,-0.008764992059875945
-0.005469075236966825,-0.004617883782801749
-0.005468735236966825,-0.009291608983948858
-0.005468395236966825,-0.01116768177595861
-0.005468055236966825,-0.005440722726665677
-0.005467715236966825,-0.004848278687083649
-0.005467375236966825,-0.007810498884993789
-0.005467035236966825,-0.007250968403166318
-0.005466695236966825,-0.005243241380138334
-0.005466355236966825,-0.006823092152356956
-0.005466015236966825,-0.006757265036847961
-0.005465675236966825,-0.005440722726665677
-0.005465335236966825,-0.006000253208490753
-0.005464995236966825,-0.004683710898310864
-0.005464655236966825,-0.001820231373664395
-0.005464315236966825,-0.003136773683848116
-0.005463975236966825,-0.00392669906995605
-0.005463635236966825,-0.003038033010583008
-0.005463295236966825,-0.003202600799358009
-0.005462955236966825,-0.004420402436274407
-0.005462615236966825,-0.00438748887851985
-0.005462275236966825,-0.005572376957685403
-0.005461935236966825,-0.006395215901547833
-0.005461595236966825,-0.005638204073193019
-0.005461255236966825,-0.006493956574812282
-0.005460915236966825,-0.006921832825620747
-0.005460575236966825,-0.006131907439511376
-0.005460235236966825,-0.008370029366830241
-0.005459895236966825,-0.01330706303000483
-0.005459555236966825,-0.006066080324002262
-0.005459215236966825,-0.005572376957690312
-0.005458875236966825,-0.009094127637421515
-0.005458535236966825,-0.002478502528755537
-0.005458195236966825,-0.004749538013827222
-0.005457855236966825,-0.008732078502121389
-0.005457515236966825,-0.004617883782801749
-0.005457175236966825,-0.001458182238370015
-0.005456835236966825,-0.001491095796118824
-0.005456495236966825,-0.001491095796118824
-0.005456155236966825,0.0008128532466959828
-0.005455815236966825,-0.003597563492410479
-0.005455475236966825,-0.003169687241601236
-0.005455135236966825,-0.002248107624475314
-0.005454795236966825,-0.004486229551783521
-0.005454455236966825,-0.006000253208493148
-0.005454115236966825,-0.004815365129331247
-0.005453775236966825,-0.00438748887851985
-0.005453435236966825,-0.004881192244838206
-0.005453095236966825,-0.003136773683849852
-0.005452755236966825,-0.003202600799355794
-0.005452415236966825,0.003380110751555628
-0.005452075236966825,-0.004058353300960748
-0.005451735236966825,-0.004848278687083649
-0.005451395236966825,-0.006131907439511376
-0.005451055236966825,-0.006066080324002382
-0.005450715236966825,-0.006625610805829733
-0.005450375236966825,-0.007942153116012016
-0.005450035236966825,-0.007349709076431067
-0.005449695236966825,-0.006428129459302391
-0.005449355236966825,-0.01120059533371317
-0.005449015236966825,-0.003762131281196795
-0.005448675236966825,-0.0003720348324638825
-0.005448335236966825,-0.004058353300974278
-0.005447995236966825,0.001504037959545873
-0.005447655236966825,-4.289925491831147e-05
-0.005447315236966825,-0.004453315994028964
-0.005446975236966825,-0.0008657381987822392
-0.005446635236966825,0.0004837176691546022
-0.005446295236966825,-0.002643070317528323
-0.005445955236966825,-0.004683710898310864
-0.005445615236966825,-0.004420402436278538
-0.005445275236966825,-0.006691437921338847
-0.005444935236966825,-0.006329388786038719
-0.005444595236966825,-0.004519143109540533
-0.005444255236966825,-0.00586859897747492
-0.005443915236966825,-0.007152227729902647
-0.005443575236966825,-0.004584970225045396
-0.005443235236966825,-0.003597563492410479
-0.005442895236966825,-0.005276154937892892
-0.005442555236966825,-0.004519143109538377
-0.005442215236966825,-0.004683710898310864
-0.005441875236966825,-0.004255834647501621
-0.005441535236966825,-0.004124180416485608
-0.005441195236966825,-0.005341982053402005
-0.005440855236966825,-0.006823092152357076
-0.005440515236966825,-0.006757265036844848
-0.005440175236966825,-0.005045760033610991
-0.005439835236966825,-0.006823092152357076
-0.005439495236966825,-0.006954746383374706
-0.005439155236966825,-0.006625610805829733
-0.005438815236966825,-0.01008153437005823
-0.005438475236966825,-0.005736944746451422
-0.005438135236966825,-0.002840551664055666
-0.005437795236966825,-0.005341982053402005
-0.005437455236966825,-0.001886058489171354
-0.005437115236966825,-0.0007011704100094536
-0.005436775236966825,-0.007942153116012016
-0.005436435236966825,-0.008567510713347465
-0.005436095236966825,-0.005506549842174791
-0.005435755236966825,-0.007744671769484675
-0.005435415236966825,-0.01073980552514392
-0.005435075236966825,-0.009456176772721644
-0.005434735236966825,-0.009291608983948858
-0.005434395236966825,-0.009291608983948858
-0.005434055236966825,-0.007349709076429989
-0.005433715236966825,-0.00688891926786619
-0.005433375236966825,-0.007975066673764599
-0.005433035236966825,-0.005473636284420234
-0.005432695236966825,-0.004519143109538078
-0.005432355236966825,-0.005901512535226962
-0.005432015236966825,-0.005309068495647449
-0.005431675236966825,-0.004453315994028964
-0.005431335236966825,-0.005045760033609913
-0.005430995236966825,-0.002774724548546551
-0.005430655236966825,-0.002379761855491866
-0.005430315236966825,-0.003202600799354297
-0.005429975236966825,-0.003959612627710607
-0.005429635236966825,-0.001918972046928067
-0.005429295236966825,-0.003005119452826476
-0.005428955236966825,-0.003597563492410479
-0.005428615236966825,-0.003630477050165036
-0.005428275236966825,-0.005572376957680373
-0.005427935236966825,-0.00790923955825746
-0.005427595236966825,0.000417890553645488
-0.005427255236966825,-0.002050626277946295
-0.005426915236966825,-0.00313677368384668
-0.005426575236966825,0.002886407385237271
-0.005426235236966825,-0.00540780916891112
-0.005425895236966825,-0.008402942924575817
-0.005425555236966825,-0.004552056667292635
-0.005425215236966825,-0.003103860126092122
-0.005424875236966825,-0.00586859897747492
-0.005424535236966825,-0.005341982053402005
-0.005424195236966825,-0.004815365129329092
-0.005423855236966825,-0.006888919267864094
-0.005423515236966825,-0.005736944746456691
-0.005423175236966825,-0.006131907439511376
-0.005422835236966825,-0.007547190422959607
-0.005422495236966825,-0.008797905617630502
-0.005422155236966825,-0.007645931096221003
-0.005421815236966825,-0.006954746383376801
-0.005421475236966825,-0.007777585327239231
-0.005421135236966825,-0.006461043017056948
-0.005420795236966825,-0.006395215901547653
-0.005420455236966825,-0.006296475228284162
-0.005420115236966825,-0.005704031188702134
-0.005419775236966825,-0.006164820997267131
-0.005419435236966825,-0.006823092152357076
-0.005419095236966825,-0.005901512535229476
-0.005418755236966825,-0.003465909261395963
-0.005418415236966825,-0.005506549842174791
-0.005418075236966825,-0.004881192244838206
-0.005417735236966825,-0.007876326000507512
