Analysis/files/cmb03_wrd01/d2s04_ch16.csv

#Digilent WaveForms Oscilloscope Acquisition
#Device Name: ADP3450
#Serial Number: SN:210018B9D9B0
#Date Time: 2024-08-13 12:18:17.719.107.350
#Sample rate: 2.94118e+06Hz
#Samples: 32768
#Trigger: Source: Channel 3 Type: Edge Condition: Rising Level: 60 mV Hyst.: Auto HoldOff: 0 s
#Channel 3: Range: 200 mV/div Offset: 0 V Attenuation: 1 X Coupling: DC Bandwidth: 0 Hz Sample Mode: Average

Time (s),Channel 3 (V)
-0.005570229376498801,0.0002204092071181454
-0.005569889376498801,0.0007799396889456162
-0.005569549376498801,0.0007799396889456162
-0.005569209376498801,-0.0003391212747093254
-0.005568869376498801,0.001306556613016375
-0.005568529376498801,0.0001216685338544741
-0.005568189376498801,0.001109075266491187
-0.005567849376498801,0.0012407294975075
-0.005567509376498801,0.0001874956493635883
-0.005567169376498801,-0.0009315653142913533
-0.005566829376498801,-0.0003720348324661576
-0.005566489376498801,-0.001622750027137053
-0.005566149376498801,-0.002544329644264652
-0.005565809376498801,-0.001754404258157736
-0.005565469376498801,-0.003103860126092122
-0.005565129376498801,-0.004288748205256179
-0.005564789376498801,-0.008797905617614338
-0.005564449376498801,8.875497609991696e-05
-0.005564109376498801,-0.001556922911627938
-0.005563769376498801,-0.000931565314295185
-0.005563429376498801,-0.003038033010583008
-0.005563089376498801,-0.009028300521912402
-0.005562749376498801,-0.009357436099457375
-0.005562409376498801,-0.007218054845411761
-0.005562069376498801,-0.007843412442748346
-0.005561729376498801,-0.008205461578047815
-0.005561389376498801,-0.002610156759773766
-0.005561049376498801,-0.007415536191939104
-0.005560709376498801,-0.005638204073196252
-0.005560369376498801,-0.006724351479093405
-0.005560029376498801,-0.008501683597839487
-0.005559689376498801,-0.01037775638984583
-0.005559349376498801,-0.009159954752930631
-0.005559009376498801,-0.01073980552514937
-0.005558669376498801,-0.0115955580267663
-0.005558329376498801,-0.009324522541703417
-0.005557989376498801,-0.009522003888230759
-0.005557649376498801,-0.008797905617631819
-0.005557309376498801,-0.008172548020293918
-0.005556969376498801,-0.009522003888230759
-0.005556629376498801,-0.009587831003739753
-0.005556289376498801,-0.009061214079666959
-0.005555949376498801,-0.009719485234758102
-0.005555609376498801,-0.01241839697062687
-0.005555269376498801,-0.008435856482330374
-0.005554929376498801,-0.009916966581285444
-0.005554589376498801,-0.0140640748583521
-0.005554249376498801,-0.0159401476503694
-0.005553909376498801,-0.005835685419720362
-0.005553569376498801,-0.006987659941129861
-0.005553229376498801,-0.01360328504979584
-0.005552889376498801,-0.01149681735350419
-0.005552549376498801,-0.009028300521912402
-0.005552209376498801,-0.009127041195176074
-0.005551869376498801,-0.009719485234758102
-0.005551529376498801,-0.01129933600697684
-0.005551189376498801,-0.01126642244922157
-0.005550849376498801,-0.0108714597561676
-0.005550509376498801,-0.01054232417862203
-0.005550169376498801,-0.01337289014551328
-0.005549829376498801,-0.01301084101021381
-0.005549489376498801,-0.01399824774285052
-0.005549149376498801,-0.01337289014551232
-0.005548809376498801,-0.0124842240861409
-0.005548469376498801,-0.0127146189904228
-0.005548129376498801,-0.0125171376438924
-0.005547789376498801,-0.01083854619841304
-0.005547449376498801,-0.01100311398718583
-0.005547109376498801,-0.01162847158452211
-0.005546769376498801,-0.01146390379574963
-0.005546429376498801,-0.01073980552514937
-0.005546089376498801,-0.01110185466044573
-0.005545749376498801,-0.009028300521912402
-0.005545409376498801,-0.009587831003739873
-0.005545069376498801,-0.01097020042942936
-0.005544729376498801,-0.009916966581285444
-0.005544389376498801,-0.01001570725454911
-0.005544049376498801,-0.01422864264712794
-0.005543709376498801,-0.01176012581554064
-0.005543369376498801,-0.01097020042943127
-0.005543029376498801,-0.009884053023532383
-0.005542689376498801,-0.01070689196739481
-0.005542349376498801,-0.01436029687815065
-0.005542009376498801,-0.01518313582201308
-0.005541669376498801,-0.0131754087989866
-0.005541329376498801,-0.01287918677919558
-0.005540989376498801,-0.01485400024446542
-0.005540649376498801,-0.01429446976264154
-0.005540309376498801,-0.01136516312248596
-0.005539969376498801,-0.01047649706311453
-0.005539629376498801,-0.01215508850859533
-0.005539289376498801,-0.0101802750433219
-0.005538949376498801,-0.01123350889146581
-0.005538609376498801,-0.01238548341287723
-0.005538269376498801,-0.01126642244922228
-0.005537929376498801,-0.01373493928080958
-0.005537589376498801,-0.01442612399365977
-0.005537249376498801,-0.01264879187491368
-0.005536909376498801,-0.01179303937329675
-0.005536569376498801,-0.01268170543266824
-0.005536229376498801,-0.0120234342775771
-0.005535889376498801,-0.01136516312248715
-0.005535549376498801,-0.01255005120165001
-0.005535209376498801,-0.0127146189904228
-0.005534869376498801,-0.01340580370326724
-0.005534529376498801,-0.01498565447548724
-0.005534189376498801,-0.01673007303647877
-0.005533849376498801,-0.0186719729439941
-0.005533509376498801,-0.01863905938624308
-0.005533169376498801,-0.01416281553162331
-0.005532829376498801,-0.01235256985512267
-0.005532489376498801,-0.01149681735350419
-0.005532149376498801,-0.01551227139956015
-0.005531809376498801,-0.01709212217177889
-0.005531469376498801,-0.01389950706958685
-0.005531129376498801,-0.01472234601345078
-0.005530789376498801,-0.01620345611240585
-0.005530449376498801,-0.01541353072629648
-0.005530109376498801,-0.01794787467339738
-0.005529769376498801,-0.01669715947872421
-0.005529429376498801,-0.01719086284504376
-0.005529089376498801,-0.01784913400013371
-0.005528749376498801,-0.01676298659423332
-0.005528409376498801,-0.01541353072629534
-0.005528069376498801,-0.01478817312895989
-0.005527729376498801,-0.0134058037032685
-0.005527389376498801,-0.01156264446901114
-0.005527049376498801,-0.01037775638984924
-0.005526709376498801,-0.008633337828857716
-0.005526369376498801,-0.008007980231521911
-0.005526029376498801,-0.008435856482330374
-0.005525689376498801,-0.01001570725454911
-0.005525349376498801,-0.008633337828860051
-0.005525009376498801,-0.009916966581285444
-0.005524669376498801,-0.01215508850859533
-0.005524329376498801,-0.01281335966368838
-0.005523989376498801,-0.0138665935118323
-0.005523649376498801,-0.01758582553809725
-0.005523309376498801,-0.02690036238264571
-0.005522969376498801,-0.0317386553725568
-0.005522629376498801,-0.04990693925307233
-0.005522289376498801,-0.07113618400481224
-0.005521949376498801,-0.09894814030736243
-0.005521609376498801,-0.135021399606357
-0.005521269376498801,-0.1654335269716223
-0.005520929376498801,-0.1954177780859693
-0.005520589376498801,-0.2193130210157778
-0.005520249376498801,-0.240443525094165
-0.005519909376498801,-0.2540368244468355
-0.005519569376498801,-0.2652603476411395
-0.005519229376498801,-0.2690454067829067
-0.005518889376498801,-0.2691770610139318
-0.005518549376498801,-0.2673009882219221
-0.005518209376498801,-0.2618373376346755
-0.005517869376498801,-0.255188798968245
-0.005517529376498801,-0.2458413485659508
-0.005517189376498801,-0.2397523403813688
-0.005516849376498801,-0.2305694577678363
-0.005516509376498801,-0.225237461411598
-0.005516169376498801,-0.2169761584152192
-0.005515829376498801,-0.2101630519600109
-0.005515489376498801,-0.2039094759866451
-0.005515149376498801,-0.1994332321320334
-0.005514809376498801,-0.1915339782709316
-0.005514469376498801,-0.1833385023900468
-0.005514129376498801,-0.1810674669049865
-0.005513789376498801,-0.1731682130438887
-0.005513449376498801,-0.1670133777437865
-0.005513109376498801,-0.1639853304303728
-0.005512769376498801,-0.159245778113711
-0.005512429376498801,-0.1467057126092248
-0.005512089376498801,-0.141933246734814
-0.005511749376498801,-0.1352517945106389
-0.005511409376498801,-0.1317958709464104
-0.005511069376498801,-0.1331782403721018
-0.005510729376498801,-0.1274183677650543
-0.005510389376498801,-0.1204406935210882
-0.005510049376498801,-0.1189595834221331
-0.005509709376498801,-0.11770886822746
-0.005509369376498801,-0.1133642786038584
-0.005509029376498801,-0.1094804787888207
-0.005508689376498801,-0.1049713213764374
-0.005508349376498801,-0.1000342877132628
-0.005508009376498801,-0.09802656069023483
-0.005507669376498801,-0.09322118125805941
-0.005507329376498801,-0.0876917035553039
-0.005506989376498801,-0.08449908845311185
-0.005506649376498801,-0.08305089191190529
-0.005506309376498801,-0.07972662257870106
-0.005505969376498801,-0.0784759073840279
-0.005505629376498801,-0.07620487189895801
-0.005505289376498801,-0.07320973814329876
-0.005504949376498801,-0.0720248500641347
-0.005504609376498801,-0.06978672813682003
-0.005504269376498801,-0.06715364351646025
-0.005503929376498801,-0.06326984370142252
-0.005503589376498801,-0.06402685552977259
-0.005503249376498801,-0.06142668446716731
-0.005502909376498801,-0.05915564898210288
-0.005502569376498801,-0.06198621494898958
-0.005502229376498801,-0.05912273542434832
-0.005501889376498801,-0.05313246791301893
-0.005501549376498801,-0.05221088829588576
-0.005501209376498801,-0.04914992742471751
-0.005500869376498801,-0.05007150704184511
-0.005500529376498801,-0.0523754560846589
-0.005500189376498801,-0.04951197656001764
-0.005499849376498801,-0.04589148520701637
-0.005499509376498801,-0.04562817674498038
-0.005499169376498801,-0.0444762022235704
-0.005498829376498801,-0.04299509212461534
-0.005498489376498801,-0.04121776000587249
-0.005498149376498801,-0.03950625500263228
-0.005497809376498801,-0.03654403480472215
-0.005497469376498801,-0.03769600932612955
-0.005497129376498801,-0.03818971269245
-0.005496789376498801,-0.03549080095657631
-0.005496449376498801,-0.03512875182127684
-0.005496109376498801,-0.03578702297636733
-0.005495769376498801,-0.0342729993196577
-0.005495429376498801,-0.03358181460681326
-0.005495089376498801,-0.03252858075866617
-0.005494749376498801,-0.03160700114153858
-0.005494409376498801,-0.03108038421746662
-0.005494069376498801,-0.03061959440890186
-0.005493729376498801,-0.03032337238911085
-0.005493389376498801,-0.02788776911527805
-0.005493049376498801,-0.02782194199976451
-0.005492709376498801,-0.02759154709548261
-0.005492369376498801,-0.0265383132473387
-0.005492029376498801,-0.03006006392707439
-0.005491689376498801,-0.02611043699652754
-0.005491349376498801,-0.02087718131356248
-0.005491009376498801,-0.02630791834305488
-0.005490669376498801,-0.02857895382811932
-0.005490329376498801,-0.02466224045532703
-0.005489989376498801,-0.02472806757083614
-0.005489649376498801,-0.02709784372916425
-0.005489309376498801,-0.02571547430347286
-0.005488969376498801,-0.02252285920128081
-0.005488629376498801,-0.02374066083819943
-0.005488289376498801,-0.02357609304942664
-0.005487949376498801,-0.02242411852801906
-0.005487609376498801,-0.02347735237616297
-0.005487269376498801,-0.0222266371814898
-0.005486929376498801,-0.02252285920128435
-0.005486589376498801,-0.02446475910879968
-0.005486249376498801,-0.02225955073924436
-0.005485909376498801,-0.02044930506274623
-0.005485569376498801,-0.02183167448843512
-0.005485229376498801,-0.02189750160394423
-0.005484889376498801,-0.0215683660263968
-0.005484549376498801,-0.02054804573600739
-0.005484209376498801,-0.0210746626600803
-0.005483869376498801,-0.01946189833010713
-0.005483529376498801,-0.01952772544561612
-0.005483189376498801,-0.01847449159747029
-0.005482849376498801,-0.01659841880546119
-0.005482509376498801,-0.01696046794076066
-0.005482169376498801,-0.01880362717501586
-0.005481829376498801,-0.01152973091125665
-0.005481489376498801,-0.01037775638984924
-0.005481149376498801,-0.01890236784827953
-0.005480809376498801,-0.01804661534665572
-0.005480469376498801,-0.01511730870650547
-0.005480129376498801,-0.01794787467339738
-0.005479789376498801,-0.01896819496378781
-0.005479449376498801,-0.01850740515522485
-0.005479109376498801,-0.01794787467339738
-0.005478769376498801,-0.01903402207929579
-0.005478429376498801,-0.01745417130707902
-0.005478089376498801,-0.01732251707606079
-0.005477749376498801,-0.0172566899605518
-0.005477409376498801,-0.01801370178890649
-0.005477069376498801,-0.01748708486483358
-0.005476729376498801,-0.01617054255465369
-0.005476389376498801,-0.01393242062734141
-0.005476049376498801,-0.0138665935118323
-0.005475709376498801,-0.01445903755141325
-0.005475369376498801,-0.01403116130060508
-0.005475029376498801,-0.01570975274608749
-0.005474689376498801,-0.015611012072824
-0.005474349376498801,-0.01570975274608749
-0.005474009376498801,-0.0115626444690133
-0.005473669376498801,-0.01824409669317624
-0.005473329376498801,-0.01725668996055168
-0.005472989376498801,-0.01692755438300611
-0.005472649376498801,-0.02150253891088123
-0.005472309376498801,-0.01939607121459789
-0.005471969376498801,-0.0129450138947047
-0.005471629376498801,-0.01791496111563378
-0.005471289376498801,-0.0143273833203961
-0.005470949376498801,-0.01113476821820406
-0.005470609376498801,-0.01791496111563049
-0.005470269376498801,-0.01653259168995142
-0.005469929376498801,-0.009489090330476201
-0.005469589376498801,-0.01166138514227697
-0.005469249376498801,-0.01255005120165001
-0.005468909376498801,-0.01228674273961356
-0.005468569376498801,-0.012253829181859
-0.005468229376498801,-0.01462360534018711
-0.005467889376498801,-0.01478817312895989
-0.005467549376498801,-0.01719086284504256
-0.005467209376498801,-0.01817826957767928
-0.005466869376498801,-0.01554518495731471
-0.005466529376498801,-0.01590723409261484
-0.005466189376498801,-0.01699338149851761
-0.005465849376498801,-0.01830992380869751
-0.005465509376498801,-0.01768456621136092
-0.005465169376498801,-0.01738834419156691
-0.005464829376498801,-0.01574266630384205
-0.005464489376498801,-0.01663133236321509
-0.005464149376498801,-0.01702629505626469
-0.005463809376498801,-0.01422864264713243
-0.005463469376498801,-0.01301084101021381
-0.005463129376498801,-0.01366911216530741
-0.005462789376498801,-0.0150185680332418
-0.005462449376498801,-0.01330706303000483
-0.005462109376498801,-0.01531479005304011
-0.005461769376498801,-0.01933024409908878
-0.005461429376498801,-0.0131754087989866
-0.005461089376498801,-0.01294501389470679
-0.005460749376498801,-0.0140969884161142
-0.005460409376498801,-0.004617883782801749
-0.005460069376498801,-0.009127041195185533
-0.005459729376498801,-0.0143273833203961
-0.005459389376498801,-0.009159954752930631
-0.005459049376498801,-0.007744671769489883
-0.005458709376498801,-0.01060815129413114
-0.005458369376498801,-0.01380076639632318
-0.005458029376498801,-0.01445903755141636
-0.005457689376498801,-0.01557809851506927
-0.005457349376498801,-0.01475525957120534
-0.005457009376498801,-0.01570975274608576
-0.005456669376498801,-0.01689464082525155
-0.005456329376498801,-0.01521604937976914
-0.005455989376498801,-0.01429446976264321
-0.005455649376498801,-0.01508439514875091
-0.005455309376498801,-0.01607180188138762
-0.005454969376498801,-0.01564392563057916
-0.005454629376498801,-0.01610471543914218
-0.005454289376498801,-0.01577557986159661
-0.005453949376498801,-0.01630219678566857
-0.005453609376498801,-0.01745417130707902
-0.005453269376498801,-0.01511730870650547
-0.005452929376498801,-0.01347163081878061
-0.005452589376498801,-0.01284627322144103
-0.005452249376498801,-0.01373493928081407
-0.005451909376498801,-0.01149681735350826
-0.005451569376498801,-0.01215508850859533
-0.005451229376498801,-0.01689464082525155
-0.005450889376498801,-0.007086400614411374
-0.005450549376498801,-0.008797905617630502
-0.005450209376498801,-0.01093728687167671
-0.005449869376498801,-0.007152227729909532
-0.005449529376498801,-0.01139807668024051
-0.005449189376498801,-0.01821118313543383
-0.005448849376498801,-0.01515022226426559
-0.005448509376498801,-0.01366911216530495
-0.005448169376498801,-0.0152489629375237
-0.005447829376498801,-0.01495274091773268
-0.005447489376498801,-0.01278044610593191
-0.005447149376498801,-0.01231965629736811
-0.005446809376498801,-0.01152973091125874
-0.005446469376498801,-0.01054232417862203
-0.005446129376498801,-0.01113476821820406
-0.005445789376498801,-0.0111018546604495
-0.005445449376498801,-0.01087145975617023
-0.005445109376498801,-0.01231965629736811
-0.005444769376498801,-0.0140969884161142
-0.005444429376498801,-0.01301084101021489
-0.005444089376498801,-0.01360328504979584
-0.005443749376498801,-0.01406407485835964
-0.005443409376498801,-0.01373493928081557
-0.005443069376498801,-0.014557778224678
-0.005442729376498801,-0.01505148159099635
-0.005442389376498801,-0.01376785283856922
-0.005442049376498801,-0.0140969884161142
-0.005441709376498801,-0.01472234601345078
-0.005441369376498801,-0.01222091562410594
-0.005441029376498801,-0.01304375456796837
-0.005440689376498801,-0.01765165265360636
-0.005440349376498801,-0.01287918677918678
-0.005440009376498801,-0.008040893789275689
-0.005439669376498801,-0.01222091562410444
-0.005439329376498801,-0.007744671769484974
-0.005438989376498801,-0.00790923955825746
-0.005438649376498801,-0.01380076639632318
-0.005438309376498801,-0.01205634783532668
-0.005437969376498801,-0.009324522541703417
-0.005437629376498801,-0.0120234342775771
-0.005437289376498801,-0.0134058037032673
-0.005436949376498801,-0.01274753254817735
-0.005436609376498801,-0.01393242062734141
-0.005436269376498801,-0.01485400024446733
-0.005435929376498801,-0.01412990197386875
-0.005435589376498801,-0.01531479005303281
-0.005435249376498801,-0.01574266630384127
-0.005434909376498801,-0.01528187649527825
-0.005434569376498801,-0.01528187649527825
-0.005434229376498801,-0.01613762899689518
-0.005433889376498801,-0.01689464082525155
-0.005433549376498801,-0.01557809851506927
-0.005433209376498801,-0.01682881370974016
-0.005432869376498801,-0.01676298659423332
-0.005432529376498801,-0.01630219678566952
-0.005432189376498801,-0.01663133236321449
-0.005431849376498801,-0.01531479005303281
-0.005431509376498801,-0.01574266630384205
-0.005431169376498801,-0.01775039332686638
-0.005430829376498801,-0.01656550524770598
-0.005430489376498801,-0.014557778224678
-0.005430149376498801,-0.02067969996701448
-0.005429809376498801,-0.02018599660070726
-0.005429469376498801,-0.01238548341287723
-0.005429129376498801,-0.01804661534665075
-0.005428789376498801,-0.01811244246217016
-0.005428449376498801,-0.01373493928081407
-0.005428109376498801,-0.01350454437653259
-0.005427769376498801,-0.01403116130060508
-0.005427429376498801,-0.012253829181859
-0.005427089376498801,-0.0120234342775771
-0.005426749376498801,-0.01297792745245925
-0.005426409376498801,-0.01172721225778608
-0.005426069376498801,-0.01208926139308621
-0.005425729376498801,-0.01268170543266824
-0.005425389376498801,-0.01212217495084077
-0.005425049376498801,-0.01261587831715913
-0.005424709376498801,-0.01245131052838634
-0.005424369376498801,-0.012253829181859
-0.005424029376498801,-0.01235256985512267
-0.005423689376498801,-0.01412990197386492
-0.005423349376498801,-0.0120234342775771
-0.005423009376498801,-0.0108714597561676
-0.005422669376498801,-0.01208926139308484
-0.005422329376498801,-0.0113322495647314
-0.005421989376498801,-0.00962074456149443
-0.005421649376498801,-0.009423263214967026
-0.005421309376498801,-0.00939034965721253
-0.005420969376498801,-0.009258695426194301
-0.005420629376498801,-0.01192469360431277
-0.005420289376498801,-0.0115626444690133
-0.005419949376498801,-0.01004862081230367
-0.005419609376498801,-0.01110185466045321
-0.005419269376498801,-0.01314249524123204
-0.005418929376498801,-0.01337289014551394
-0.005418589376498801,-0.009225781868443696
-0.005418249376498801,-0.01139807668024051
-0.005417909376498801,-0.009159954752930631
-0.005417569376498801,-0.01320832235674624
-0.005417229376498801,-0.01600597476587851
-0.005416889376498801,-0.0127146189904228
-0.005416549376498801,-0.01156264446901899
-0.005416209376498801,-0.01468943245569622
-0.005415869376498801,-0.01366911216530495
-0.005415529376498801,-0.01274753254817993
