Analysis/files/cmb03_wrd01/d2s05_ch17.csv

#Digilent WaveForms Oscilloscope Acquisition
#Device Name: ADP3450
#Serial Number: SN:210018B9D9B0
#Date Time: 2024-08-13 12:42:47.318.163.610
#Sample rate: 2.94118e+06Hz
#Samples: 32768
#Trigger: Source: Channel 3 Type: Edge Condition: Rising Level: 60 mV Hyst.: Auto HoldOff: 0 s
#Channel 3: Range: 200 mV/div Offset: 0 V Attenuation: 1 X Coupling: DC Bandwidth: 0 Hz Sample Mode: Average

Time (s),Channel 3 (V)
-0.005570230071090048,0.007099342777820581
-0.005569890071090047,0.007165169893329216
-0.005569550071090047,0.006901861431293239
-0.005569210071090048,0.00756013258638438
-0.005568870071090047,0.007658873259646674
-0.005568530071090047,0.006901861431293239
-0.005568190071090048,0.007988008837193623
-0.005567850071090047,0.006177763160690048
-0.005567510071090047,0.004564998830719684
-0.005567170071090048,0.004334603926437783
-0.005566830071090047,0.003445937867061809
-0.005566490071090047,0.001833173537091444
-0.005566150071090048,0.001899000652600558
-0.005565810071090047,0.0008128532466987364
-0.005565470071090047,2.292786059080275e-05
-0.005565130071090048,-0.0009644788720459105
-0.005564790071090047,-0.006263561670519068
-0.005564450071090047,-0.0004707755057275538
-0.005564110071090048,0.001668605748318658
-0.005563770071090047,-0.003268427914864609
-0.005563430071090047,-0.003103860126092122
-0.005563090071090048,0.0003520634381363738
-0.005562750071090048,0.0008128532466993351
-0.005562410071090047,0.0002204092071181454
-0.005562070071090048,0.001734432863827772
-0.005561730071090048,0.001701519306073275
-0.005561390071090047,0.0005166312269091594
-0.005561050071090048,-0.001622750027137053
-0.005560710071090048,-0.002281021182226997
-0.005560370071090047,-0.003432995703637694
-0.005560030071090048,-0.005704031188702134
-0.005559690071090048,-0.005045760033612189
-0.005559350071090047,-0.006625610805829733
-0.005559010071090048,-0.006526870132566062
-0.005558670071090048,-0.005638204073194636
-0.005558330071090047,-0.005210327822383777
-0.005557990071090048,-0.004815365129329092
-0.005557650071090048,-0.003367168588131214
-0.005557310071090047,-0.004124180416483393
-0.005556970071090048,-0.004288748205256179
-0.005556630071090048,-0.004058353300974697
-0.005556290071090047,-0.004848278687083649
-0.005555950071090048,-0.005934426092984033
-0.005555610071090048,-0.006921832825618951
-0.005555270071090047,-0.006823092152357076
-0.005554930071090048,-0.007250968403166318
-0.005554590071090048,-0.006954746383375843
-0.005554250071090047,-0.005967339650738591
-0.005553910071090047,-0.005769858304211248
-0.005553570071090048,-0.003893785512201493
-0.005553230071090047,-0.002281021182228195
-0.005552890071090047,-0.003005119452828451
-0.005552550071090048,-0.00336716858812858
-0.005552210071090047,-0.0009644788720459105
-0.005551870071090047,0.001701519306073215
-0.005551530071090048,-0.008830819175385059
-0.005551190071090047,-0.006888919267869842
-0.005550850071090047,-0.008896646290894173
-0.005550510071090048,-0.009554917445985316
-0.005550170071090047,-0.00962074456149886
-0.005549830071090047,-0.01205634783533165
-0.005549490071090048,-0.009324522541703417
-0.005549150071090047,-0.009489090330471472
-0.005548810071090047,-0.00688891926786619
-0.005548470071090048,-0.009192868310685188
-0.005548130071090047,-0.0116284715845205
-0.005547790071090047,-0.01057523773637659
-0.005547450071090048,-0.008666251386612273
-0.005547110071090047,-0.009456176772720625
-0.005546770071090047,-0.008896646290894173
-0.005546430071090048,-0.009587831003739873
-0.005546090071090047,-0.008830819175383801
-0.005545750071090047,-0.008139634462539359
-0.005545410071090048,-0.009127041195176074
-0.005545070071090047,-0.007711758211727962
-0.005544730071090047,-0.006526870132566062
-0.005544390071090048,-0.004584970225047193
-0.005544050071090047,-0.005341982053398653
-0.005543710071090047,-0.003498822819146808
-0.005543370071090048,-0.005210327822383777
-0.005543030071090047,-0.005769858304209931
-0.005542690071090047,-0.005045760033610991
-0.005542350071090048,-0.007744671769484675
-0.005542010071090048,-0.01126642244921588
-0.005541670071090047,-0.009456176772721644
-0.005541330071090048,-0.008995386964157845
-0.005540990071090048,-0.01034484283209223
-0.005540650071090047,-0.009554917445985316
-0.005540310071090048,-0.009357436099457973
-0.005539970071090048,-0.009522003888230459
-0.005539630071090047,-0.01251713764389546
-0.005539290071090048,-0.008732078502121389
-0.005538950071090048,-0.006000253208498117
-0.005538610071090047,-0.004321661763010735
-0.005538270071090048,-0.002017712720191738
-0.005537930071090048,-0.007613017538456269
-0.005537590071090047,-0.007942153116012016
-0.005537250071090048,-0.004683710898310864
-0.005536910071090048,-0.004552056667292874
-0.005536570071090047,-0.005111587149120106
-0.005536230071090048,-0.004025439743219721
-0.005535890071090048,-0.005078673591363633
-0.005535550071090047,-0.005835685419720362
-0.005535210071090048,-0.004979932918101878
-0.005534870071090048,-0.007645931096216154
-0.005534530071090047,-0.00517741426462922
-0.005534190071090048,-0.006263561670529605
-0.005533850071090048,-0.007283881960919019
-0.005533510071090047,-0.008666251386612273
-0.005533170071090047,-0.007250968403166318
-0.005532830071090048,-0.007810498884993789
-0.005532490071090047,-0.007942153116012016
-0.005532150071090047,-0.00767884465397556
-0.005531810071090048,-0.007843412442748346
-0.005531470071090047,-0.009554917445985316
-0.005531130071090047,-0.008863732733139616
-0.005530790071090048,-0.008732078502121389
-0.005530450071090047,-0.01113476821820406
-0.005530110071090047,-0.01093728687167671
-0.005529770071090048,-0.01031192927434013
-0.005529430071090047,-0.01149681735350921
-0.005529090071090047,-0.01426155620488698
-0.005528750071090048,-0.01258296475940457
-0.005528410071090047,-0.00827128869355645
-0.005528070071090047,-0.007645931096221003
-0.005527730071090048,-0.004914105802592763
-0.005527390071090047,-0.009291608983951552
-0.005527050071090047,-0.01077271908290393
-0.005526710071090048,-0.006790178594602518
-0.005526370071090047,-0.00455205666729491
-0.005526030071090047,-0.005802771861965805
-0.005525690071090048,-0.005539463399929348
-0.005525350071090047,-0.004749538013819678
-0.005525010071090047,-0.004584970225047193
-0.005524670071090048,-0.002939292337319337
-0.005524330071090047,-0.005440722726667832
-0.005523990071090047,-0.006625610805829733
-0.005523650071090048,-0.008304202251312145
-0.005523310071090047,-0.01445903755143504
-0.005522970071090047,-0.02584712853449108
-0.005522630071090048,-0.04144815491015115
-0.005522290071090047,-0.06274322677740224
-0.005521950071090047,-0.0916742440436053
-0.005521610071090048,-0.122316766313098
-0.005521270071090047,-0.1537821275265103
-0.005520930071090047,-0.1844246497959472
-0.005520590071090048,-0.2109858909038748
-0.005520250071090048,-0.2318201729624716
-0.005519910071090047,-0.2482440382820335
-0.005519570071090048,-0.2595333885918465
-0.005519230071090048,-0.2637463239844222
-0.005518890071090047,-0.2672022475486583
-0.005518550071090048,-0.2673668153374311
-0.005518210071090048,-0.2547609227174587
-0.005517870071090047,-0.2491985314569156
-0.005517530071090048,-0.2419904623086676
-0.005517190071090048,-0.2365926388369301
-0.005516850071090047,-0.2339924677743102
-0.005516510071090048,-0.224645017372016
-0.005516170071090048,-0.2159229245670743
-0.005515830071090047,-0.2087806825343195
-0.005515490071090048,-0.203020809927272
-0.005515150071090048,-0.1962406170298455
-0.005514810071090047,-0.1882426224954759
-0.005514470071090048,-0.183700551525347
-0.005514130071090048,-0.1773811484364835
-0.005513790071090047,-0.1725099418887976
-0.005513450071090048,-0.1686590556315144
-0.005513110071090048,-0.1620763440806149
-0.005512770071090047,-0.1556582003184643
-0.005512430071090047,-0.1508199073285444
-0.005512090071090048,-0.1449942076059878
-0.005511750071090047,-0.1384114960550764
-0.005511410071090047,-0.1339023386427021
-0.005511070071090048,-0.1291956998838004
-0.005510730071090047,-0.123501654392262
-0.005510390071090047,-0.1212635324649521
-0.005510050071090048,-0.1167214614948233
-0.005509710071090047,-0.1130351430263129
-0.005509370071090047,-0.1097767008086117
-0.005509030071090048,-0.1072752704192654
-0.005508690071090047,-0.1032598163732094
-0.005508350071090047,-0.1032598163732094
-0.005508010071090048,-0.1007254724261085
-0.005507670071090047,-0.08996273904036438
-0.005507330071090047,-0.08779044422856755
-0.005506990071090048,-0.07801511757546409
-0.005506650071090047,-0.08305089191190823
-0.005506310071090047,-0.08133938690867437
-0.005505970071090048,-0.07551368718611776
-0.005505630071090047,-0.07123492467802019
-0.005505290071090047,-0.06840435871113343
-0.005504950071090048,-0.06784482822930596
-0.005504610071090047,-0.06402685552977601
-0.005504270071090047,-0.06330275725917708
-0.005503930071090048,-0.06254574543082225
-0.005503590071090047,-0.06178873360246433
-0.005503250071090047,-0.06007722859923047
-0.005502910071090048,-0.05915564898210288
-0.005502570071090047,-0.05783910667191412
-0.005502230071090047,-0.05428444243442843
-0.005501890071090048,-0.05273750521996424
-0.005501550071090047,-0.05010442059959375
-0.005501210071090047,-0.04684597838189852
-0.005500870071090048,-0.04434454799255218
-0.005500530071090047,-0.04306091924012104
-0.005500190071090047,-0.0411848464481147
-0.005499850071090048,-0.03927586009835039
-0.005499510071090048,-0.0378934906726615
-0.005499170071090047,-0.03585285009187644
-0.005498830071090048,-0.0356553687453491
-0.005498490071090048,-0.03621489922717555
-0.005498150071090047,-0.03522749249453986
-0.005497810071090048,-0.03851884826999557
-0.005497470071090048,-0.03163991469930565
-0.005497130071090047,-0.03022463171584718
-0.005496790071090048,-0.02663705392060045
-0.005496450071090048,-0.02591295565000152
-0.005496110071090047,-0.02973092834952882
-0.005495770071090048,-0.02894100296341945
-0.005495430071090048,-0.02736115219120358
-0.005495090071090047,-0.02719658440242792
-0.005494750071090048,-0.02857895382811932
-0.005494410071090048,-0.02854604027036483
-0.005494070071090047,-0.02676870815161868
-0.005493730071090048,-0.02449767266655424
-0.005493390071090048,-0.02321404391412885
-0.005493050071090047,-0.02225955073924436
-0.005492710071090048,-0.0213050575643622
-0.005492370071090048,-0.02038347794723628
-0.005492030071090047,-0.02097592198681663
-0.005491690071090048,-0.01972520679214346
-0.005491350071090048,-0.02051513217825139
-0.005491010071090047,-0.02087718131355296
-0.005490670071090047,-0.01913276275256143
-0.005490330071090048,-0.01840866448196118
-0.005489990071090047,-0.01929733054133422
-0.005489650071090047,-0.01965937967663435
-0.005489310071090048,-0.01821118313543383
-0.005488970071090047,-0.01909984919480688
-0.005488630071090047,-0.01860614582848852
-0.005488290071090048,-0.01880362717501586
-0.005487950071090047,-0.01959355256112799
-0.005487610071090047,-0.02110757621783486
-0.005487270071090048,-0.02209498295047157
-0.005486930071090047,-0.01465651889794394
-0.005486590071090047,-0.01590723409261484
-0.005486250071090048,-0.01370202572305951
-0.005485910071090047,-0.01607180188139367
-0.005485570071090047,-0.01939607121459789
-0.005485230071090048,-0.01784913400013371
-0.005484890071090047,-0.01600597476587689
-0.005484550071090047,-0.01511730870650547
-0.005484210071090048,-0.01347163081877761
-0.005483870071090047,-0.01133224956473104
-0.005483530071090047,-0.01113476821820406
-0.005483190071090048,-0.009094127637421515
-0.005482850071090047,-0.00892955984864933
-0.005482510071090047,-0.009258695426194301
-0.005482170071090048,-0.009291608983948858
-0.005481830071090047,-0.01070689196739589
-0.005481490071090047,-0.01129933600697684
-0.005481150071090048,-0.01139807668024051
-0.005480810071090047,-0.01139807668024177
-0.005480470071090047,-0.01208926139308621
-0.005480130071090048,-0.01278044610593191
-0.005479790071090047,-0.01067397840964217
-0.005479450071090047,-0.01172721225778608
-0.005479110071090048,-0.01159555802676786
-0.005478770071090048,-0.01060815129413294
-0.005478430071090047,-0.01120059533371317
-0.005478090071090048,-0.01116768177595861
-0.005477750071090048,-0.008304202251317352
-0.005477410071090047,-0.01027901571658557
-0.005477070071090048,-0.01518313582201458
-0.005476730071090048,-0.01106894110270243
-0.005476390071090047,-0.009423263214967087
-0.005476050071090048,-0.01070689196739481
-0.005475710071090048,-0.01008153437005937
-0.005475370071090047,-0.01528187649527825
-0.005475030071090048,-0.01472234601345078
-0.005474690071090048,-0.01126642244922857
-0.005474350071090047,-0.0106410648518857
-0.005474010071090048,-0.01146390379574963
-0.005473670071090048,-0.01014736148556974
-0.005473330071090047,-0.008995386964157845
-0.005472990071090048,-0.009258695426194301
-0.005472650071090048,-0.009028300521912822
-0.005472310071090047,-0.009159954752930631
-0.005471970071090048,-0.01060815129413114
-0.005471630071090048,-0.01090437331392162
-0.005471290071090047,-0.01037775638984924
-0.005470950071090048,-0.01103602754494038
-0.005470610071090048,-0.01064106485188642
-0.005470270071090047,-0.009061214079666959
-0.005469930071090047,-0.009785312350267215
-0.005469590071090048,-0.009587831003739873
-0.005469250071090047,-0.00869916494436683
-0.005468910071090047,-0.009653658119248986
-0.005468570071090048,-0.01054232417862203
-0.005468230071090047,-0.006362302343793276
-0.005467890071090047,-0.008007980231521132
-0.005467550071090048,-0.01083854619841304
-0.005467210071090047,-0.01093728687167671
-0.005466870071090047,-0.01330706303000483
-0.005466530071090048,-0.02028473727397093
-0.005466190071090047,-0.01393242062733866
-0.005465850071090047,-0.01241839697063178
-0.005465510071090048,-0.0129450138947047
-0.005465170071090047,-0.01093728687168204
-0.005464830071090047,-0.0138665935118323
-0.005464490071090048,-0.01162847158452241
-0.005464150071090047,-0.008468770040082835
-0.005463810071090047,-0.007316795518675433
-0.005463470071090048,-0.00711931417214809
-0.005463130071090047,-0.006230648112772533
-0.005462790071090047,-0.004848278687083649
-0.005462450071090048,-0.005276154937892892
-0.005462110071090047,-0.002017712720191079
-0.005461770071090047,-0.00165566358489161
-0.005461430071090048,-0.006033166766247705
-0.005461090071090047,-0.007810498884989598
-0.005460750071090047,-0.005506549842174791
-0.005460410071090048,-0.006526870132566062
-0.005460070071090047,-0.008007980231520353
-0.005459730071090047,-0.007580103980711889
-0.005459390071090048,-0.008501683597839487
-0.005459050071090047,-0.007645931096220225
-0.005458710071090047,-0.007218054845411761
-0.005458370071090048,-0.007086400614393532
-0.005458030071090047,-0.008106720904784563
-0.005457690071090047,-0.007975066673766575
-0.005457350071090048,-0.009159954752930631
-0.005457010071090048,-0.0107398055251465
-0.005456670071090047,-0.01097020042943127
-0.005456330071090048,-0.01215508850859533
-0.005455990071090048,-0.0172896035182969
-0.005455650071090047,-0.0106410648518857
-0.005455310071090048,-0.01073980552514937
-0.005454970071090048,-0.01070689196739488
-0.005454630071090047,-0.009982793696794558
-0.005454290071090048,-0.01310958168347748
-0.005453950071090048,-0.01215508850859706
-0.005453610071090047,-0.01057523773637659
-0.005453270071090048,-0.008962473406403288
-0.005452930071090048,-0.01054232417861915
-0.005452590071090047,-0.009554917445985316
-0.005452250071090048,-0.007975066673766575
-0.005451910071090048,-0.007909239558257579
-0.005451570071090047,-0.007020573498884419
-0.005451230071090048,-0.006362302343793276
-0.005450890071090048,-0.006526870132565763
-0.005450550071090047,-0.008172548020293918
-0.005450210071090048,-0.006296475228284162
-0.005449870071090048,-0.005177414264631256
-0.005449530071090047,-0.005539463399929348
-0.005449190071090048,-0.003301341472619465
-0.005448850071090048,-0.003795044838936923
-0.005448510071090047,-0.005243241380138334
-0.005448170071090047,-0.005835685419720362
-0.005447830071090048,-0.006131907439511376
-0.005447490071090047,-0.01037775638984924
-0.005447150071090047,-0.01093728687167671
-0.005446810071090048,-0.01139807668024051
-0.005446470071090047,-0.01255005120165001
-0.005446130071090047,-0.0134058037032685
-0.005445790071090048,-0.01679590015198788
-0.005445450071090047,-0.01268170543266118
-0.005445110071090047,-0.008797905617630502
-0.005444770071090048,-0.007481363307448217
-0.005444430071090047,-0.007020573498891304
-0.005444090071090047,-0.01080563264065849
-0.005443750071090048,-0.009884053023530886
-0.005443410071090047,-0.007580103980714523
-0.005443070071090047,-0.009028300521912402
-0.005442730071090048,-0.008205461578048474
-0.005442390071090047,-0.007975066673767593
-0.005442050071090047,-0.008534597155594046
-0.005441710071090048,-0.008633337828857716
-0.005441370071090047,-0.008534597155592908
-0.005441030071090047,-0.00790923955825746
-0.005440690071090048,-0.008205461578048474
-0.005440350071090047,-0.007119314172147551
-0.005440010071090047,-0.006823092152357076
-0.005439670071090048,-0.005078673591365549
-0.005439330071090047,-0.00445331599403064
-0.005438990071090047,-0.005374895611156563
-0.005438650071090048,-0.005802771861965805
-0.005438310071090047,-0.005835685419723116
-0.005437970071090047,-0.007349709076429989
-0.005437630071090048,-0.008172548020293918
-0.005437290071090047,-0.006625610805831949
-0.005436950071090047,-0.007843412442748346
-0.005436610071090048,-0.007218054845411761
-0.005436270071090048,-0.005638204073195893
-0.005435930071090047,-0.007086400614393532
-0.005435590071090048,-0.008205461578048474
-0.005435250071090048,-0.01245131052837862
-0.005434910071090047,-0.008402942924575817
-0.005434570071090048,-0.004815365129329092
-0.005434230071090048,-0.008501683597832783
-0.005433890071090047,-0.01037775638984924
-0.005433550071090048,-0.00860042427110316
-0.005433210071090048,-0.007613017538468243
-0.005432870071090047,-0.008271288693557588
-0.005432530071090048,-0.008073807347030245
-0.005432190071090048,-0.008073807347030245
-0.005431850071090047,-0.008567510713348603
-0.005431510071090048,-0.0101802750433219
-0.005431170071090048,-0.009061214079668993
-0.005430830071090047,-0.009357436099457973
-0.005430490071090048,-0.01116768177595861
-0.005430150071090048,-0.009785312350269731
-0.005429810071090047,-0.009423263214967087
-0.005429470071090048,-0.009719485234758102
-0.005429130071090048,-0.00985113946577609
-0.005428790071090047,-0.009225781868439744
-0.005428450071090048,-0.01195760716206798
-0.005428110071090048,-0.01241839697063095
-0.005427770071090047,-0.01136516312248596
-0.005427430071090047,-0.0111018546604495
-0.005427090071090048,-0.01060815129413114
-0.005426750071090047,-0.009489090330476201
-0.005426410071090047,-0.009489090330476201
-0.005426070071090048,-0.008567510713348603
-0.005425730071090047,-0.006724351479093405
-0.005425390071090047,-0.007250968403166318
-0.005425050071090048,-0.009127041195176074
-0.005424710071090047,-0.007218054845411761
-0.005424370071090047,-0.00494701936034732
-0.005424030071090048,-0.005671117630947577
-0.005423690071090047,-0.002774724548554154
-0.005423350071090047,-0.006954746383375304
-0.005423010071090048,-0.009357436099457973
-0.005422670071090047,-0.005638204073191942
-0.005422330071090047,-0.005045760033610991
-0.005421990071090048,-0.006987659941129861
-0.005421650071090047,-0.00748136330744738
-0.005421310071090047,-0.007020573498884419
-0.005420970071090048,-0.005802771861965805
-0.005420630071090047,-0.008863732733136563
-0.005420290071090047,-0.007185141287657204
-0.005419950071090048,-0.008995386964157845
-0.005419610071090047,-0.01060815129413066
-0.005419270071090047,-0.01034484283209469
-0.005418930071090048,-0.01291210033695014
-0.005418590071090047,-0.01347163081877635
-0.005418250071090047,-0.01278044610593191
-0.005417910071090048,-0.01264879187491368
-0.005417570071090047,-0.01189178004655145
-0.005417230071090047,-0.007810498884993789
