Analysis/files/cmb03_wrd01/d2s02_ch05.csv

#Digilent WaveForms Oscilloscope Acquisition
#Device Name: ADP3450
#Serial Number: SN:210018B9D9B0
#Date Time: 2024-08-12 17:58:08.462.872.020
#Sample rate: 2.94118e+06Hz
#Samples: 32768
#Trigger: Source: Channel 3 Type: Edge Condition: Rising Level: 60 mV Hyst.: Auto HoldOff: 0 s
#Channel 3: Range: 200 mV/div Offset: 0 V Attenuation: 1 X Coupling: DC Bandwidth: 0 Hz Sample Mode: Average

Time (s),Channel 3 (V)
-0.005570459049881235,0.0005824583424182735
-0.005570119049881235,0.005848627583153098
-0.005569779049881235,0.008975415569830336
-0.005569439049881235,0.009370378262885021
-0.005569099049881235,0.006803120758022024
-0.005568759049881235,0.002656012480955371
-0.005568419049881235,0.004597912388474241
-0.005568079049881235,0.00476248017725445
-0.005567739049881235,0.008843761338812107
-0.005567399049881235,0.002392704018918914
-0.005567059049881235,0.0005166312269110751
-0.005566719049881235,0.001569865075054987
-0.005566379049881235,0.001734432863827772
-0.005566039049881235,0.0007799396889422036
-0.005565699049881235,-0.001096133103064139
-0.005565359049881235,-0.0006682568522548965
-0.005565019049881235,-0.001063219545308444
-0.005564679049881235,-0.0004378619479729968
-0.005564339049881235,-0.0007999110832731249
-0.005563999049881235,-0.001392355122855811
-0.005563659049881235,-0.001754404258155281
-0.005563319049881235,-0.0005366026212366681
-0.005562979049881235,-0.001918972046925552
-0.005562639049881235,-0.002544329644264652
-0.005562299049881235,-0.001622750027137053
-0.005561959049881235,-0.001359441565101075
-0.005561619049881235,-0.002083539835700852
-0.005561279049881235,-0.002412675413246423
-0.005560939049881235,-0.004091266858725783
-0.005560599049881235,-0.004617883782801749
-0.005560259049881235,-0.004650797340556306
-0.005559919049881235,-0.004617883782801809
-0.005559579049881235,-0.002840551664055666
-0.005559239049881235,-0.001951885604682624
-0.005558899049881235,-0.00020746704369427
-0.005558559049881235,-0.003432995703637694
-0.005558219049881235,-0.008468770040084931
-0.005557879049881235,-0.006790178594605571
-0.005557539049881235,-0.005835685419720362
-0.005557199049881235,-0.006395215901547833
-0.005556859049881235,-0.005572376957685403
-0.005556519049881235,-0.007645931096221003
-0.005556179049881235,-0.007744671769484675
-0.005555839049881235,-0.006263561670532299
-0.005555499049881235,-0.005638204073193019
-0.005555159049881235,-0.007876326000502903
-0.005554819049881235,-0.00731679551867645
-0.005554479049881235,-0.006296475228284162
-0.005554139049881235,-0.005638204073193019
-0.005553799049881235,-0.004321661763010735
-0.005553459049881235,-0.005012846475856435
-0.005553119049881235,-0.006362302343793276
-0.005552779049881235,-0.003498822819146808
-0.005552439049881235,-0.004453315994028964
-0.005552099049881235,-0.00688891926786619
-0.005551759049881235,-0.006757265036847961
-0.005551419049881235,-0.00715222772990582
-0.005551079049881235,-0.008896646290894173
-0.005550739049881235,-0.007382622634184546
-0.005550399049881235,-0.008337115809072808
-0.005550059049881235,-0.01169429870003153
-0.005549719049881235,-0.0152489629375237
-0.005549379049881235,-0.008337115809070114
-0.005549039049881235,-0.01021318860107646
-0.005548699049881235,-0.01630219678566952
-0.005548359049881235,-0.01445903755140858
-0.005548019049881235,-0.01129933600697684
-0.005547679049881235,-0.01264879187491368
-0.005547339049881235,-0.01189178004655779
-0.005546999049881235,-0.01129933600697684
-0.005546659049881235,-0.01083854619841304
-0.005546319049881235,-0.01024610215883311
-0.005545979049881235,-0.01139807668024051
-0.005545639049881235,-0.01103602754494038
-0.005545299049881235,-0.009785312350266497
-0.005544959049881235,-0.00939034965721253
-0.005544619049881235,-0.0106410648518857
-0.005544279049881235,-0.008732078502118216
-0.005543939049881235,-0.006987659941129861
-0.005543599049881235,-0.007645931096221003
-0.005543259049881235,-0.006296475228286018
-0.005542919049881235,-0.007316795518675433
-0.005542579049881235,-0.007283881960920875
-0.005542239049881235,-0.006362302343794953
-0.005541899049881235,-0.005539463399929348
-0.005541559049881235,-0.006592697248075176
-0.005541219049881235,-0.006098993881757717
-0.005540879049881235,-0.005309068495647449
-0.005540539049881235,-0.006033166766247705
-0.005540199049881235,-0.006592697248074158
-0.005539859049881235,-0.008106720904784802
-0.005539519049881235,-0.0108714597561676
-0.005539179049881235,-0.01422864264712632
-0.005538839049881235,-0.009554917445985316
-0.005538499049881235,-0.01251713764389546
-0.005538159049881235,-0.009686571677008692
-0.005537819049881235,-0.01047649706311291
-0.005537479049881235,-0.01412990197386875
-0.005537139049881235,-0.01261587831716188
-0.005536799049881235,-0.009522003888230759
-0.005536459049881235,-0.01001570725454911
-0.005536119049881235,-0.01113476821820202
-0.005535779049881235,-0.01060815129413114
-0.005535439049881235,-0.01067397840964026
-0.005535099049881235,-0.01126642244922121
-0.005534759049881235,-0.01090437331392216
-0.005534419049881235,-0.01031192927434013
-0.005534079049881235,-0.01143099023799304
-0.005533739049881235,-0.01057523773637659
-0.005533399049881235,-0.009258695426194301
-0.005533059049881235,-0.01054232417862203
-0.005532719049881235,-0.009423263214967087
-0.005532379049881235,-0.00939034965721253
-0.005532039049881235,-0.008929559848648731
-0.005531699049881235,-0.008271288693557588
-0.005531359049881235,-0.007843412442748346
-0.005531019049881235,-0.009225781868439744
-0.005530679049881235,-0.008797905617630502
-0.005530339049881235,-0.007415536191939104
-0.005529999049881235,-0.009785312350267215
-0.005529659049881235,-0.0106739784096378
-0.005529319049881235,-0.009324522541703417
-0.005528979049881235,-0.01307666812572293
-0.005528639049881235,-0.01152973091124755
-0.005528299049881235,-0.005374895611156563
-0.005527959049881235,-0.006000253208493148
-0.005527619049881235,-0.004716624456071647
-0.005527279049881235,-0.008139634462539359
-0.005526939049881235,-0.01014736148556734
-0.005526599049881235,-0.009390349657211991
-0.005526259049881235,-0.009094127637421515
-0.005525919049881235,-0.01031192927434013
-0.005525579049881235,-0.0115297309112612
-0.005525239049881235,-0.01287918677919558
-0.005524899049881235,-0.01116768177595861
-0.005524559049881235,-0.01067397840963996
-0.005524219049881235,-0.01050941062086747
-0.005523879049881235,-0.009752398792512659
-0.005523539049881235,-0.01419572908939146
-0.005523199049881235,-0.02166710669966233
-0.005522859049881235,-0.03463504845495783
-0.005522519049881235,-0.05441609666549509
-0.005522179049881235,-0.08104316488888336
-0.005521839049881235,-0.1046421857989008
-0.005521499049881235,-0.1423282094279255
-0.005521159049881235,-0.1735631757369434
-0.005520819049881235,-0.2011447371352622
-0.005520479049881235,-0.2265540037217341
-0.005520139049881235,-0.2436032266386409
-0.005519799049881235,-0.254300132908872
-0.005519459049881235,-0.2604549682089629
-0.005519119049881235,-0.2625614359052658
-0.005518779049881235,-0.2599612648426558
-0.005518439049881235,-0.258052278492895
-0.005518099049881235,-0.2513049991532073
-0.005517759049881235,-0.2388965878797392
-0.005517419049881235,-0.2308985933453964
-0.005517079049881235,-0.2228676852532699
-0.005516739049881235,-0.2190826261114959
-0.005516399049881235,-0.2131910992734408
-0.005516059049881235,-0.2045348335839816
-0.005515719049881235,-0.1971951102047154
-0.005515379049881235,-0.1925213850035768
-0.005515039049881235,-0.188012227591194
-0.005514699049881235,-0.1809687262317187
-0.005514359049881235,-0.1725428554465674
-0.005514019049881235,-0.1678362166876504
-0.005513679049881235,-0.1646436015854584
-0.005513339049881235,-0.1583241984965949
-0.005512999049881235,-0.1510832157905809
-0.005512659049881235,-0.1449942076059878
-0.005512319049881235,-0.139925519711786
-0.005511979049881235,-0.1367658181673485
-0.005511639049881235,-0.1317629573886559
-0.005511299049881235,-0.1245219746826533
-0.005510959049881235,-0.1215926680424977
-0.005510619049881235,-0.1195520274617152
-0.005510279049881235,-0.1142529446632315
-0.005509939049881235,-0.109381738115557
-0.005509599049881235,-0.1041155688748279
-0.005509259049881235,-0.1019103605052726
-0.005508919049881235,-0.09914562165388534
-0.005508579049881235,-0.09671001838005253
-0.005508239049881235,-0.09384653885540606
-0.005507899049881235,-0.09355031683560097
-0.005507559049881235,-0.08581563076329413
-0.005507219049881235,-0.08206348517927461
-0.005506879049881235,-0.07887087007707677
-0.005506539049881235,-0.07567825497489056
-0.005506199049881235,-0.07801511757546409
-0.005505859049881235,-0.07317682458553569
-0.005505519049881235,-0.06850309938439708
-0.005505179049881235,-0.06721947063196937
-0.005504839049881235,-0.06396102841426694
-0.005504499049881235,-0.06326984370142252
-0.005504159049881235,-0.061821647160222
-0.005503819049881235,-0.05925438965536086
-0.005503479049881235,-0.05612760166868362
-0.005503139049881235,-0.05658839147724742
-0.005502799049881235,-0.05504145426277964
-0.005502459049881235,-0.05306664079750981
-0.005502119049881235,-0.05227671541140044
-0.005501779049881235,-0.05007150704184769
-0.005501439049881235,-0.05148679002529107
-0.005501099049881235,-0.0506968646391817
-0.005500759049881235,-0.04888661896267735
-0.005500419049881235,-0.04684597838189852
-0.005500079049881235,-0.04789921223004435
-0.005499739049881235,-0.04773464444127186
-0.005499399049881235,-0.04529904116743434
-0.005499059049881235,-0.04516738693641611
-0.005498719049881235,-0.04444328866581717
-0.005498379049881235,-0.04299509212461534
-0.005498039049881235,-0.04167854981443305
-0.005497699049881235,-0.04263304298931347
-0.005497359049881235,-0.04227099385401508
-0.005497019049881235,-0.035885763649631
-0.005496679049881235,-0.03476670268597809
-0.005496339049881235,-0.03239692652764795
-0.005495999049881235,-0.03552371451433087
-0.005495659049881235,-0.03473378912822294
-0.005495319049881235,-0.03058668085114731
-0.005494979049881235,-0.02966510123401971
-0.005494639049881235,-0.03029045883135515
-0.005494299049881235,-0.02861186738587388
-0.005493959049881235,-0.02739406574895527
-0.005493619049881235,-0.02219372362374471
-0.005493279049881235,-0.02485972180185437
-0.005492939049881235,-0.02670288103610957
-0.005492599049881235,-0.02433310487778577
-0.005492259049881235,-0.02390522862697221
-0.005491919049881235,-0.02374066083819943
-0.005491579049881235,-0.02258868631679203
-0.005491239049881235,-0.02354317949167209
-0.005490899049881235,-0.01666424592096965
-0.005490559049881235,-0.0131754087989866
-0.005490219049881235,-0.01880362717501586
-0.005489879049881235,-0.02054804573600739
-0.005489539049881235,-0.01893528140603409
-0.005489199049881235,-0.02041639150498916
-0.005488859049881235,-0.02097592198681663
-0.005488519049881235,-0.02248994564352626
-0.005488179049881235,-0.02262159987454293
-0.005487839049881235,-0.021765847372926
-0.005487499049881235,-0.02133797112211676
-0.005487159049881235,-0.01949481188785797
-0.005486819049881235,-0.01751999842258814
-0.005486479049881235,-0.01728960351830624
-0.005486139049881235,-0.01719086284503945
-0.005485799049881235,-0.01547935784180559
-0.005485459049881235,-0.01403116130060508
-0.005485119049881235,-0.01449195110916852
-0.005484779049881235,-0.01429446976264154
-0.005484439049881235,-0.01176012581554064
-0.005484099049881235,-0.01274753254818005
-0.005483759049881235,-0.01422864264713243
-0.005483419049881235,-0.01478817312895989
-0.005483079049881235,-0.01610471543914655
-0.005482739049881235,-0.01850740515522485
-0.005482399049881235,-0.0185403187129794
-0.005482059049881235,-0.01906693563705705
-0.005481719049881235,-0.02166710669966233
-0.005481379049881235,-0.0224570320857717
-0.005481039049881235,-0.01597306120812281
-0.005480699049881235,-0.01534770361078737
-0.005480359049881235,-0.0138665935118323
-0.005480019049881235,-0.01505148159100312
-0.005479679049881235,-0.01877071361726131
-0.005479339049881235,-0.01821118313543383
-0.005478999049881235,-0.01452486466693014
-0.005478659049881235,-0.01712503572953345
-0.005478319049881235,-0.01518313582201458
-0.005477979049881235,-0.01383367995408019
-0.005477639049881235,-0.01442612399365977
-0.005477299049881235,-0.014557778224678
-0.005476959049881235,-0.01396533418509704
-0.005476619049881235,-0.01380076639632318
-0.005476279049881235,-0.0143273833203961
-0.005475939049881235,-0.008501683597850085
-0.005475599049881235,-0.01353745793428673
-0.005475259049881235,-0.01189178004655887
-0.005474919049881235,-0.00952200388823507
-0.005474579049881235,-0.01083854619841304
-0.005474239049881235,-0.01070689196739481
-0.005473899049881235,-0.01001570725455037
-0.005473559049881235,-0.01001570725454911
-0.005473219049881235,-0.01284627322144103
-0.005472879049881235,-0.01172721225778812
-0.005472539049881235,-0.01083854619841304
-0.005472199049881235,-0.0117930393732952
-0.005471859049881235,-0.01133224956473224
-0.005471519049881235,-0.01097020042943127
-0.005471179049881235,-0.0159401476503694
-0.005470839049881235,-0.01462360534018951
-0.005470499049881235,-0.009719485234758102
-0.005470159049881235,-0.009423263214967087
-0.005469819049881235,-0.009291608983948858
-0.005469479049881235,-0.01149681735350419
-0.005469139049881235,-0.01643385101668775
-0.005468799049881235,-0.01307666812572293
-0.005468459049881235,-0.01037775638984924
-0.005468119049881235,-0.01231965629736811
-0.005467779049881235,-0.01291210033695014
-0.005467439049881235,-0.01235256985512267
-0.005467099049881235,-0.01264879187491368
-0.005466759049881235,-0.01222091562410444
-0.005466419049881235,-0.01162847158452493
-0.005466079049881235,-0.01301084101021381
-0.005465739049881235,-0.01255005120165001
-0.005465399049881235,-0.01093728687167558
-0.005465059049881235,-0.01031192927434013
-0.005464719049881235,-0.01205634783533165
-0.005464379049881235,-0.0121550885085979
-0.005464039049881235,-0.01357037149204128
-0.005463699049881235,-0.01600597476587851
-0.005463359049881235,-0.01597306120812383
-0.005463019049881235,-0.01590723409261484
-0.005462679049881235,-0.01584140697710572
-0.005462339049881235,-0.01396533418509196
-0.005461999049881235,-0.01176012581554064
-0.005461659049881235,-0.01337289014551394
-0.005461319049881235,-0.01169429870003273
-0.005460979049881235,-0.01235256985512267
-0.005460639049881235,-0.01508439514875091
-0.005460299049881235,-0.008699164944364974
-0.005459959049881235,-0.00767884465397556
-0.005459619049881235,-0.006757265036847961
-0.005459279049881235,-0.007152227729908154
-0.005458939049881235,-0.0101802750433219
-0.005458599049881235,-0.01073980552514937
-0.005458259049881235,-0.009357436099456417
-0.005457919049881235,-0.008501683597839487
-0.005457579049881235,-0.009028300521912402
-0.005457239049881235,-0.009028300521912402
-0.005456899049881235,-0.008337115809066702
-0.005456559049881235,-0.007415536191939104
-0.005456219049881235,-0.006362302343795192
-0.005455879049881235,-0.004683710898310864
-0.005455539049881235,-0.006526870132566062
-0.005455199049881235,-0.008007980231518438
-0.005454859049881235,-0.007580103980711889
-0.005454519049881235,-0.007580103980711889
-0.005454179049881235,-0.01126642244921558
-0.005453839049881235,-0.0127146189904228
-0.005453499049881235,-0.01136516312248596
-0.005453159049881235,-0.01103602754494098
-0.005452819049881235,-0.01008153437005823
-0.005452479049881235,-0.01021318860107646
-0.005452139049881235,-0.01034484283209445
-0.005451799049881235,-0.009884053023530886
-0.005451459049881235,-0.00869916494436683
-0.005451119049881235,-0.009916966581283229
-0.005450779049881235,-0.01077271908290393
-0.005450439049881235,-0.01143099023799507
-0.005450099049881235,-0.01320832235673792
-0.005449759049881235,-0.00688891926786619
-0.005449419049881235,-0.00665852436358429
-0.005449079049881235,-0.00593442609298535
-0.005448739049881235,-0.009554917445985316
-0.005448399049881235,-0.0117930393732952
-0.005448059049881235,-0.0113322495647314
-0.005447719049881235,-0.01080563264065849
-0.005447379049881235,-0.01192469360431343
-0.005447039049881235,-0.01172721225778608
-0.005446699049881235,-0.01004862081230367
-0.005446359049881235,-0.009851139465776329
-0.005446019049881235,-0.009061214079666959
-0.005445679049881235,-0.009489090330473985
-0.005445339049881235,-0.008271288693557588
-0.005444999049881235,-0.00962074456149443
-0.005444659049881235,-0.01123350889146671
-0.005444319049881235,-0.01067397840964026
-0.005443979049881235,-0.009522003888230759
-0.005443639049881235,-0.01050941062086999
-0.005443299049881235,-0.01189178004655887
-0.005442959049881235,-0.01031192927434013
-0.005442619049881235,-0.01057523773637461
-0.005442279049881235,-0.009489090330476201
-0.005441939049881235,-0.009061214079666959
-0.005441599049881235,-0.008863732733140454
-0.005441259049881235,-0.009324522541703417
-0.005440919049881235,-0.007942153116012016
-0.005440579049881235,-0.007415536191941678
-0.005440239049881235,-0.008830819175385059
-0.005439899049881235,-0.01218800206634988
-0.005439559049881235,-0.01199052071981566
-0.005439219049881235,-0.008205461578048474
-0.005438879049881235,-0.008929559848648731
-0.005438539049881235,-0.008699164944373595
-0.005438199049881235,-0.01241839697063178
-0.005437859049881235,-0.0143273833203961
-0.005437519049881235,-0.01182595293104766
-0.005437179049881235,-0.01067397840964026
-0.005436839049881235,-0.01169429870003153
-0.005436499049881235,-0.009653658119252699
-0.005436159049881235,-0.01215508850859533
-0.005435819049881235,-0.01083854619841304
-0.005435479049881235,-0.01054232417862257
-0.005435139049881235,-0.01090437331392216
-0.005434799049881235,-0.01083854619841304
-0.005434459049881235,-0.009554917445987651
-0.005434119049881235,-0.009225781868439744
-0.005433779049881235,-0.009554917445985316
-0.005433439049881235,-0.01077271908290171
-0.005433099049881235,-0.01037775638984924
-0.005432759049881235,-0.0113322495647314
-0.005432419049881235,-0.01034484283209648
-0.005432079049881235,-0.01021318860107646
-0.005431739049881235,-0.01126642244922228
-0.005431399049881235,-0.01093728687167731
-0.005431059049881235,-0.01136516312248596
-0.005430719049881235,-0.01205634783533165
-0.005430379049881235,-0.01100311398718774
-0.005430039049881235,-0.006098993881756819
-0.005429699049881235,-0.01304375456796837
-0.005429359049881235,-0.01498565447548371
-0.005429019049881235,-0.006329388786038719
-0.005428679049881235,-0.005341982053402005
-0.005428339049881235,-0.01031192927433109
-0.005427999049881235,-0.007218054845411761
-0.005427659049881235,-0.004288748205256179
-0.005427319049881235,-0.005769858304211248
-0.005426979049881235,-0.00711931417214809
-0.005426639049881235,-0.00790923955825746
-0.005426299049881235,-0.008007980231521132
-0.005425959049881235,-0.008797905617630502
-0.005425619049881235,-0.01100311398718583
-0.005425279049881235,-0.01037775638984924
-0.005424939049881235,-0.009916966581285444
-0.005424599049881235,-0.01011444792781279
-0.005424259049881235,-0.01001570725454911
-0.005423919049881235,-0.009522003888232017
-0.005423579049881235,-0.01021318860107646
-0.005423239049881235,-0.01330706303000483
-0.005422899049881235,-0.01149681735350215
-0.005422559049881235,-0.01037775638984924
-0.005422219049881235,-0.01149681735350419
-0.005421879049881235,-0.01314249524123168
-0.005421539049881235,-0.0129450138947047
-0.005421199049881235,-0.01347163081877761
-0.005420859049881235,-0.01278044610593227
-0.005420519049881235,-0.01297792745245925
-0.005420179049881235,-0.01518313582201458
-0.005419839049881235,-0.01416281553162026
-0.005419499049881235,-0.0124842240861409
-0.005419159049881235,-0.01245131052838634
-0.005418819049881235,-0.01192469360431025
-0.005418479049881235,-0.0101802750433219
-0.005418139049881235,-0.007942153116012016
-0.005417799049881235,-0.00781049888499331
-0.005417459049881235,-0.007547190422957332
-0.005417119049881235,-0.009258695426194301
-0.005416779049881235,-0.009982793696795994
