Analysis/files/cmb03_wrd01/d2s06_ch06.csv

#Digilent WaveForms Oscilloscope Acquisition
#Device Name: ADP3450
#Serial Number: SN:210018B9D9B0
#Date Time: 2024-08-13 15:31:41.745.106.760
#Sample rate: 2.94118e+06Hz
#Samples: 32768
#Trigger: Source: Channel 3 Type: Edge Condition: Rising Level: 60 mV Hyst.: Auto HoldOff: 0 s
#Channel 3: Range: 200 mV/div Offset: 0 V Attenuation: 1 X Coupling: DC Bandwidth: 0 Hz Sample Mode: Average

Time (s),Channel 3 (V)
-0.005570503203661327,0.0006482854579273878
-0.005570163203661327,-0.0004049483902170028
-0.005569823203661327,0.0003849769958909309
-0.005569483203661327,-0.003169687241601236
-0.005569143203661327,-0.005045760033609794
-0.005568803203661327,-0.00438748887851985
-0.005568463203661327,-0.005572376957683906
-0.005568123203661327,-0.006461043017053894
-0.005567783203661327,-0.004782451571574535
-0.005567443203661327,-0.004716624456065421
-0.005567103203661327,-0.005901512535229177
-0.005566763203661327,-0.005736944746456691
-0.005566423203661327,-0.005835685419720362
-0.005566083203661327,-0.006625610805828236
-0.005565743203661327,-0.005802771861965805
-0.005565403203661327,-0.006362302343793276
-0.005565063203661327,-0.007678844653971549
-0.005564723203661327,-0.005473636284420234
-0.005564383203661327,-0.00517741426462922
-0.005564043203661327,-0.006263561670529306
-0.005563703203661327,-0.006098993881756819
-0.005563363203661327,-0.00619773455502049
-0.005563023203661328,-0.007744671769481861
-0.005562683203661327,-0.007448449749693661
-0.005562343203661327,-0.00711931417214809
-0.005562003203661328,-0.01120059533370575
-0.005561663203661327,-0.008271288693557588
-0.005561323203661327,-0.002412675413246423
-0.005560983203661328,-0.005012846475851705
-0.005560643203661327,-0.003992526185465165
-0.005560303203661327,-0.007744671769484675
-0.005559963203661328,-0.01235256985511429
-0.005559623203661327,-0.01189178004655887
-0.005559283203661327,-0.0111018546604495
-0.005558943203661328,-0.01353745793428229
-0.005558603203661327,-0.01281335966368647
-0.005558263203661327,-0.01146390379574963
-0.005557923203661328,-0.01268170543266603
-0.005557583203661327,-0.01258296475940457
-0.005557243203661327,-0.01034484283209469
-0.005556903203661328,-0.01126642244922061
-0.005556563203661327,-0.01208926139308621
-0.005556223203661327,-0.01136516312248596
-0.005555883203661328,-0.01162847158452193
-0.005555543203661327,-0.01199052071982254
-0.005555203203661327,-0.01192469360431343
-0.005554863203661328,-0.01202343427757692
-0.005554523203661327,-0.01222091562410444
-0.005554183203661327,-0.01146390379574963
-0.005553843203661328,-0.01090437331392216
-0.005553503203661327,-0.01268170543266824
-0.005553163203661327,-0.01189178004655887
-0.005552823203661328,-0.01215508850859533
-0.005552483203661327,-0.01218800206634988
-0.005552143203661327,-0.01106894110269494
-0.005551803203661328,-0.01093728687167671
-0.005551463203661327,-0.01636802390117498
-0.005551123203661327,-0.01436029687815065
-0.005550783203661327,-0.00619773455502049
-0.005550443203661327,-0.0129779274524662
-0.005550103203661327,-0.01679590015198788
-0.005549763203661327,-0.01261587831715913
-0.005549423203661327,-0.01258296475940852
-0.005549083203661327,-0.01475525957120534
-0.005548743203661327,-0.01320832235674115
-0.005548403203661327,-0.01330706303000728
-0.005548063203661327,-0.01465651889794167
-0.005547723203661327,-0.01373493928081407
-0.005547383203661327,-0.01403116130060784
-0.005547043203661327,-0.01554518495731471
-0.005546703203661327,-0.01472234601345078
-0.005546363203661327,-0.01426155620488776
-0.005546023203661327,-0.01468943245569622
-0.005545683203661327,-0.0136361986075504
-0.005545343203661327,-0.0127146189904231
-0.005545003203661327,-0.01287918677919558
-0.005544663203661327,-0.01189178004655887
-0.005544323203661327,-0.01143099023799902
-0.005543983203661327,-0.01360328504979584
-0.005543643203661327,-0.01258296475940457
-0.005543303203661327,-0.0112993360069781
-0.005542963203661327,-0.01199052071982254
-0.005542623203661327,-0.01103602754494038
-0.005542283203661328,-0.01047649706311393
-0.005541943203661327,-0.01116768177595861
-0.005541603203661327,-0.01136516312248596
-0.005541263203661328,-0.01478817312895367
-0.005540923203661327,-0.01123350889146773
-0.005540583203661327,-0.01416281553162331
-0.005540243203661328,-0.01179303937329951
-0.005539903203661327,-0.01182595293104976
-0.005539563203661327,-0.01682881370974244
-0.005539223203661328,-0.01544644428405355
-0.005538883203661327,-0.01238548341287723
-0.005538543203661327,-0.01314249524123204
-0.005538203203661328,-0.01268170543266908
-0.005537863203661327,-0.01120059533371317
-0.005537523203661327,-0.005243241380138334
-0.005537183203661328,-0.01310958168346317
-0.005536843203661327,-0.01241839697063178
-0.005536503203661327,-0.01258296475940457
-0.005536163203661328,-0.01179303937329663
-0.005535823203661327,-0.01261587831715913
-0.005535483203661327,-0.01366911216530495
-0.005535143203661328,-0.01468943245569437
-0.005534803203661327,-0.01373493928081407
-0.005534463203661327,-0.01478817312895989
-0.005534123203661328,-0.01491982735997788
-0.005533783203661327,-0.01393242062734141
-0.005533443203661327,-0.01399824774285052
-0.005533103203661328,-0.01327414947225027
-0.005532763203661327,-0.01320832235674115
-0.005532423203661327,-0.01366911216530495
-0.005532083203661328,-0.01551227139956015
-0.005531743203661327,-0.01452486466692344
-0.005531403203661327,-0.01590723409261484
-0.005531063203661328,-0.02058095929376194
-0.005530723203661327,-0.01965937967663435
-0.005530383203661327,-0.01199052071982254
-0.005530043203661327,-0.0108714597561676
-0.005529703203661327,-0.007777585327245757
-0.005529363203661327,-0.01136516312248596
-0.005529023203661327,-0.0150185680332418
-0.005528683203661327,-0.01077271908289872
-0.005528343203661327,-0.00790923955825746
-0.005528003203661327,-0.01152973091125874
-0.005527663203661327,-0.01212217495083987
-0.005527323203661327,-0.01162847158452241
-0.005526983203661327,-0.01212217495084077
-0.005526643203661327,-0.01297792745246159
-0.005526303203661327,-0.01426155620488698
-0.005525963203661327,-0.01570975274608749
-0.005525623203661327,-0.01640093745893224
-0.005525283203661327,-0.01587432053486028
-0.005524943203661327,-0.01765165265360636
-0.005524603203661327,-0.01896819496378565
-0.005524263203661327,-0.01732251707606079
-0.005523923203661327,-0.01541353072629648
-0.005523583203661327,-0.01988977458092858
-0.005523243203661327,-0.02666996747835501
-0.005522903203661327,-0.03914420586733215
-0.005522563203661327,-0.05793784734522917
-0.005522223203661327,-0.08262301566110208
-0.005521883203661327,-0.1137263277391586
-0.005521543203661327,-0.1461790956852057
-0.005521203203661327,-0.1758012976642533
-0.005520863203661327,-0.2034815997358358
-0.005520523203661328,-0.2324455305597934
-0.005520183203661327,-0.2479149027044879
-0.005519843203661327,-0.2561762057008817
-0.005519503203661328,-0.2633842748491166
-0.005519163203661327,-0.2645362493705392
-0.005518823203661327,-0.2656553103341942
-0.005518483203661328,-0.2630880528293434
-0.005518143203661327,-0.2539380837735719
-0.005517803203661327,-0.2451830774108597
-0.005517463203661328,-0.2396535997081041
-0.005517123203661327,-0.2322480492133187
-0.005516783203661327,-0.2240854868901885
-0.005516443203661328,-0.2165153686066542
-0.005516103203661327,-0.2101959655177655
-0.005515763203661327,-0.2032182912737993
-0.005515423203661328,-0.1964380983763729
-0.005515083203661327,-0.1917314596174589
-0.005514743203661327,-0.1838322057563652
-0.005514403203661328,-0.1778419382450467
-0.005514063203661327,-0.1732669537171524
-0.005513723203661327,-0.1673754268790867
-0.005513383203661328,-0.1614509864832771
-0.005513043203661327,-0.1569089155131375
-0.005512703203661327,-0.1520047954077085
-0.005512363203661328,-0.1479893413616525
-0.005512023203661327,-0.1441055415466148
-0.005511683203661327,-0.1385760638438492
-0.005511343203661328,-0.1338694250849475
-0.005511003203661327,-0.13070972354051
-0.005510663203661327,-0.1261676525703812
-0.005510323203661328,-0.12290921035268
-0.005509983203661327,-0.1228433832371709
-0.005509643203661327,-0.1112248973498122
-0.005509303203661328,-0.1052346298384828
-0.005508963203661327,-0.1006925588683509
-0.005508623203661327,-0.09901396742287152
-0.005508283203661327,-0.09937601655817166
-0.005507943203661327,-0.09621631501372717
-0.005507603203661327,-0.09236542875645098
-0.005507263203661327,-0.090357701733423
-0.005506923203661327,-0.08976525769383836
-0.005506583203661327,-0.08831706115264049
-0.005506243203661327,-0.08410412576005716
-0.005505903203661327,-0.08002284459848806
-0.005505563203661327,-0.07781763622893675
-0.005505223203661327,-0.07320973814329876
-0.005504883203661327,-0.06985255525233208
-0.005504543203661327,-0.06883223496194266
-0.005504203203661327,-0.0659029283217871
-0.005503863203661327,-0.06425725043405826
-0.005503523203661327,-0.06373063350998631
-0.005503183203661327,-0.06353315216345898
-0.005502843203661327,-0.06040636417677245
-0.005502503203661327,-0.05843155071150262
-0.005502163203661327,-0.05678587282377476
-0.005501823203661327,-0.05405404753014527
-0.005501483203661327,-0.05336286281730083
-0.005501143203661327,-0.05181592560283664
-0.005500803203661327,-0.05072977819693553
-0.005500463203661327,-0.05033481550388157
-0.005500123203661327,-0.04911701386696296
-0.005499783203661328,-0.05125639512100528
-0.005499443203661327,-0.05175009848732753
-0.005499103203661327,-0.04556234962947079
-0.005498763203661328,-0.04339005481767397
-0.005498423203661327,-0.04286343789359711
-0.005498083203661327,-0.04661558347761662
-0.005497743203661328,-0.04737259530597006
-0.005497403203661327,-0.04322548702889724
-0.005497063203661327,-0.04157980914116938
-0.005496723203661328,-0.04042783461976198
-0.005496383203661327,-0.0377289228838862
-0.005496043203661327,-0.03697191105553139
-0.005495703203661328,-0.03282480277846473
-0.005495363203661327,-0.03012589104258351
-0.005495023203661327,-0.03068542152441098
-0.005494683203661328,-0.02894100296342263
-0.005494343203661327,-0.02894100296341945
-0.005494003203661327,-0.03091581642869288
-0.005493663203661328,-0.03223235873887277
-0.005493323203661327,-0.03183739604582048
-0.005492983203661327,-0.03193613671908415
-0.005492643203661328,-0.03104747065971272
-0.005492303203661327,-0.02940179277198325
-0.005491963203661327,-0.02973092834952882
-0.005491623203661328,-0.0288751758479119
-0.005491283203661327,-0.02726241151793704
-0.005490943203661327,-0.0275257199799735
-0.005490603203661328,-0.02663705392060045
-0.005490263203661327,-0.01956063900337068
-0.005489923203661327,-0.02690036238263691
-0.005489583203661328,-0.02601169632326387
-0.005489243203661327,-0.02838147248159198
-0.005488903203661327,-0.02601169632326387
-0.005488563203661328,-0.0219962422772079
-0.005488223203661327,-0.02074552708253359
-0.005487883203661327,-0.02012016948519815
-0.005487543203661327,-0.02456349978206336
-0.005487203203661327,-0.02637374545855891
-0.005486863203661327,-0.02357609304942664
-0.005486523203661327,-0.02364192016493576
-0.005486183203661327,-0.02291782189433418
-0.005485843203661327,-0.02219372362373525
-0.005485503203661327,-0.02235829141250803
-0.005485163203661327,-0.02186458804618734
-0.005484823203661327,-0.02058095929376194
-0.005484483203661327,-0.02114048977558942
-0.005484143203661327,-0.02337861170289864
-0.005483803203661327,-0.02301656256759917
-0.005483463203661327,-0.0238394015114631
-0.005483123203661327,-0.02430019132002283
-0.005482783203661327,-0.02206206939271702
-0.005482443203661327,-0.02150253891088955
-0.005482103203661327,-0.02301656256759187
-0.005481763203661327,-0.0190011085215432
-0.005481423203661327,-0.01979103390765257
-0.005481083203661327,-0.01952772544561546
-0.005480743203661327,-0.01916567631031599
-0.005480403203661327,-0.02021891015846182
-0.005480063203661327,-0.02087718131354895
-0.005479723203661327,-0.01867197294399764
-0.005479383203661327,-0.01771747976911548
-0.005479043203661328,-0.02127214400660118
-0.005478703203661327,-0.02262159987454449
-0.005478363203661327,-0.01357037149204128
-0.005478023203661328,-0.01357037149204128
-0.005477683203661327,-0.01218800206634988
-0.005477343203661327,-0.01353745793428673
-0.005477003203661328,-0.01798078823114385
-0.005476663203661327,-0.01436029687815065
-0.005476323203661327,-0.01268170543266824
-0.005475983203661328,-0.01518313582201003
-0.005475643203661327,-0.01702629505626978
-0.005475303203661327,-0.01482108668671445
-0.005474963203661328,-0.01567683918833138
-0.005474623203661327,-0.01761873909585181
-0.005474283203661327,-0.01626928322791496
-0.005473943203661328,-0.01620345611240597
-0.005473603203661327,-0.01689464082525155
-0.005473263203661327,-0.01603888832363307
-0.005472923203661328,-0.01715794928728597
-0.005472583203661327,-0.01834283736645206
-0.005472243203661327,-0.01821118313543383
-0.005471903203661328,-0.01794787467339786
-0.005471563203661327,-0.01916567631031599
-0.005471223203661327,-0.01847449159747029
-0.005470883203661328,-0.01867197294399727
-0.005470543203661327,-0.01844157803971573
-0.005470203203661327,-0.01748708486483358
-0.005469863203661328,-0.01732251707606079
-0.005469523203661327,-0.01804661534666105
-0.005469183203661327,-0.01817826957767928
-0.005468843203661328,-0.01659841880546054
-0.005468503203661327,-0.02025182371621638
-0.005468163203661327,-0.02456349978206336
-0.005467823203661328,-0.01732251707606079
-0.005467483203661327,-0.01649967813219686
-0.005467143203661327,-0.01426155620488698
-0.005466803203661327,-0.01403116130060508
-0.005466463203661327,-0.0166971594787211
-0.005466123203661327,-0.01498565447548724
-0.005465783203661327,-0.01077271908290393
-0.005465443203661327,-0.0134716308187821
-0.005465103203661327,-0.0159401476503694
-0.005464763203661327,-0.01436029687815065
-0.005464423203661327,-0.01482108668671517
-0.005464083203661327,-0.01521604937976914
-0.005463743203661327,-0.01518313582201458
-0.005463403203661327,-0.01505148159099815
-0.005463063203661327,-0.01603888832363307
-0.005462723203661327,-0.01518313582201458
-0.005462383203661327,-0.01551227139956081
-0.005462043203661327,-0.01587432053486028
-0.005461703203661327,-0.01459069178243255
-0.005461363203661327,-0.01310958168348006
-0.005461023203661327,-0.01452486466692344
-0.005460683203661327,-0.0140969884161142
-0.005460343203661327,-0.01255005120165061
-0.005460003203661327,-0.01287918677919558
-0.005459663203661327,-0.01291210033695014
-0.005459323203661327,-0.01202343427757829
-0.005458983203661327,-0.01268170543266824
-0.005458643203661327,-0.01284627322144103
-0.005458303203661327,-0.01258296475941271
-0.005457963203661327,-0.01705920861402434
-0.005457623203661327,-0.01505148159099635
-0.005457283203661328,-0.009522003888240817
-0.005456943203661327,-0.01116768177595861
-0.005456603203661327,-0.01004862081230367
-0.005456263203661328,-0.01396533418508884
-0.005455923203661327,-0.01653259168995142
-0.005455583203661327,-0.01534770361078737
-0.005455243203661328,-0.01278044610593658
-0.005454903203661327,-0.01353745793428673
-0.005454563203661327,-0.01320832235674115
-0.005454223203661328,-0.01133224956473481
-0.005453883203661327,-0.01080563264065849
-0.005453543203661327,-0.0124842240861409
-0.005453203203661328,-0.01320832235673984
-0.005452863203661327,-0.0134058037032685
-0.005452523203661327,-0.01485400024446901
-0.005452183203661328,-0.01633511034342139
-0.005451843203661327,-0.01554518495731471
-0.005451503203661327,-0.01676298659423332
-0.005451163203661328,-0.01640093745893385
-0.005450823203661327,-0.01531479005303281
-0.005450483203661327,-0.01580849341935116
-0.005450143203661328,-0.01732251707605804
-0.005449803203661327,-0.01574266630384205
-0.005449463203661327,-0.01515022226426002
-0.005449123203661328,-0.01554518495731399
-0.005448783203661327,-0.01442612399365977
-0.005448443203661327,-0.01350454437653217
-0.005448103203661328,-0.01360328504979584
-0.005447763203661327,-0.01301084101021381
-0.005447423203661327,-0.0185403187129794
-0.005447083203661328,-0.01515022226426002
-0.005446743203661327,-0.0129450138947047
-0.005446403203661327,-0.01459069178243255
-0.005446063203661328,-0.01429446976264154
-0.005445723203661327,-0.01725668996054886
-0.005445383203661327,-0.01570975274608749
-0.005445043203661327,-0.01287918677919558
-0.005444703203661327,-0.01172721225778543
-0.005444363203661327,-0.01136516312248596
-0.005444023203661327,-0.01169429870003153
-0.005443683203661327,-0.0111018546604498
-0.005443343203661327,-0.01126642244922228
-0.005443003203661327,-0.006230648112775047
-0.005442663203661327,-0.01544644428405116
-0.005442323203661327,-0.01551227139956015
-0.005441983203661327,-0.01696046794076066
-0.005441643203661327,-0.01761873909585031
-0.005441303203661327,-0.01679590015198788
-0.005440963203661327,-0.01620345611240585
-0.005440623203661327,-0.01643385101668398
-0.005440283203661327,-0.01436029687815065
-0.005439943203661327,-0.01399824774285052
-0.005439603203661327,-0.01416281553162128
-0.005439263203661327,-0.01304375456796837
-0.005438923203661327,-0.01083854619841304
-0.005438583203661327,-0.01146390379574897
-0.005438243203661327,-0.0111018546604495
-0.005437903203661327,-0.01097020042943127
-0.005437563203661327,-0.01185886648881072
-0.005437223203661327,-0.01538061716854192
-0.005436883203661327,-0.01863905938624308
-0.005436543203661328,-0.01347163081878701
-0.005436203203661327,-0.0131754087989866
-0.005435863203661327,-0.01162847158452241
-0.005435523203661328,-0.0129779274524568
-0.005435183203661327,-0.01590723409261484
-0.005434843203661327,-0.01399824774285052
-0.005434503203661328,-0.01301084101021561
-0.005434163203661327,-0.01380076639632318
-0.005433823203661327,-0.01251713764389546
-0.005433483203661328,-0.01310958168347641
-0.005433143203661327,-0.01508439514875091
-0.005432803203661327,-0.01370202572305951
-0.005432463203661328,-0.01271461899042459
-0.005432123203661327,-0.01238548341287723
-0.005431783203661327,-0.01192469360431343
-0.005431443203661328,-0.01248422408613988
-0.005431103203661327,-0.01383367995407774
-0.005430763203661327,-0.01310958168347748
-0.005430423203661328,-0.01347163081877695
-0.005430083203661327,-0.01620345611240585
-0.005429743203661327,-0.01557809851506927
-0.005429403203661328,-0.01426155620488938
-0.005429063203661327,-0.01439321043590521
-0.005428723203661327,-0.01538061716854192
-0.005428383203661328,-0.01468943245569748
-0.005428043203661327,-0.01462360534018711
-0.005427703203661327,-0.01505148159099635
-0.005427363203661328,-0.01541353072629648
-0.005427023203661327,-0.01689464082525155
-0.005426683203661327,-0.02067969996702562
-0.005426343203661328,-0.01801370178890649
-0.005426003203661327,-0.01235256985512267
-0.005425663203661327,-0.01781622044237915
-0.005425323203661328,-0.01959355256112523
-0.005424983203661327,-0.01722377640279712
-0.005424643203661327,-0.01686172726749699
-0.005424303203661327,-0.01712503572953345
-0.005423963203661327,-0.01643385101668721
-0.005423623203661327,-0.01613762899689674
-0.005423283203661327,-0.01468943245569622
-0.005422943203661327,-0.0148869138022262
-0.005422603203661327,-0.01633511034342408
-0.005422263203661327,-0.01600597476587851
-0.005421923203661327,-0.01594014765036927
-0.005421583203661327,-0.01587432053486028
-0.005421243203661327,-0.01679590015198788
-0.005420903203661327,-0.01452486466692673
-0.005420563203661327,-0.01633511034342408
-0.005420223203661327,-0.01327414947225027
-0.005419883203661327,-0.01011444792781446
-0.005419543203661327,-0.01103602754494038
-0.005419203203661327,-0.01103602754494038
-0.005418863203661327,-0.009127041195178768
-0.005418523203661327,-0.01060815129413114
-0.005418183203661327,-0.01212217495084077
-0.005417843203661327,-0.01255005120165097
-0.005417503203661327,-0.01307666812572293
-0.005417163203661327,-0.01449195110916888
-0.005416823203661327,-0.01515022226426374
-0.005416483203661327,-0.01719086284504256
-0.005416143203661327,-0.02123923044885309
-0.005415803203661327,-0.01607180188138966
