Analysis/files/cmb03_wrd01/d2s04_ch35.csv

#Digilent WaveForms Oscilloscope Acquisition
#Device Name: ADP3450
#Serial Number: SN:210018B9D9B0
#Date Time: 2024-08-13 12:26:57.109.599.960
#Sample rate: 2.94118e+06Hz
#Samples: 32768
#Trigger: Source: Channel 3 Type: Edge Condition: Rising Level: 60 mV Hyst.: Auto HoldOff: 0 s
#Channel 3: Range: 200 mV/div Offset: 0 V Attenuation: 1 X Coupling: DC Bandwidth: 0 Hz Sample Mode: Average

Time (s),Channel 3 (V)
-0.005570246153846155,0.008086749510457293
-0.005569906153846154,0.006342330949467983
-0.005569566153846154,0.00756013258638438
-0.005569226153846155,0.00779052749066628
-0.005568886153846154,0.00594736825640294
-0.005568546153846154,0.001471124401791315
-0.005568206153846155,0.01045652566878541
-0.005567866153846154,0.01058817989979489
-0.005567526153846154,0.005782800467638296
-0.005567186153846155,0.006671466527011338
-0.005566846153846154,0.005486578447846325
-0.005566506153846154,0.004959961523774369
-0.005566166153846155,0.002458531134428029
-0.005565826153846154,0.001899000652596487
-0.005565486153846154,-0.0003391212747093254
-0.005565146153846155,0.0005166312269091594
-0.005564806153846154,0.0006811990156832021
-0.005564466153846154,0.001372383728527644
-0.005564126153846155,0.002195222672391572
-0.005563786153846154,0.0005166312269107758
-0.005563446153846154,0.001405297286282201
-0.005563106153846155,0.002293963345655243
-0.005562766153846155,0.002162309114637254
-0.005562426153846154,0.0003520634381363738
-0.005562086153846155,0.001174902382000301
-0.005561746153846155,0.001602778632808766
-0.005561406153846154,-0.0007011704100094536
-0.005561066153846154,-0.000832824641027682
-0.005560726153846155,-0.002412675413243549
-0.005560386153846154,-0.002939292337319337
-0.005560046153846154,-0.00392669906995605
-0.005559706153846155,-0.004947019360345464
-0.005559366153846154,-0.006823092152357076
-0.005559026153846154,-0.007086400614393532
-0.005558686153846155,-0.004420402436279256
-0.005558346153846154,-0.00540780916891112
-0.005558006153846154,-0.005736944746456691
-0.005557666153846155,-0.005309068495648227
-0.005557326153846154,-0.005638204073193019
-0.005556986153846154,-0.005341982053402005
-0.005556646153846155,-0.005572376957683487
-0.005556306153846154,-0.006592697248075176
-0.005555966153846154,-0.005671117630947577
-0.005555626153846155,-0.003860871954450229
-0.005555286153846154,-0.002774724548546551
-0.005554946153846154,-0.003729217723428708
-0.005554606153846155,-0.001688577142649879
-0.005554266153846154,-0.003334255030374022
-0.005553926153846154,-0.00415709397423795
-0.005553586153846155,-0.0009315653142913533
-0.005553246153846154,-0.002511416086510094
-0.005552906153846154,-0.001293614449591481
-0.005552566153846155,-0.004650797340556306
-0.005552226153846154,-0.008238375135803031
-0.005551886153846154,-0.007777585327239231
-0.005551546153846155,-0.005243241380138334
-0.005551206153846154,-0.004222921089748082
-0.005550866153846154,-0.004782451571574535
-0.005550526153846155,-0.002412675413246423
-0.005550186153846154,-0.002379761855492764
-0.005549846153846154,-0.002873465221810222
-0.005549506153846155,-0.003531736376901365
-0.005549166153846154,-0.0007999110832776151
-0.005548826153846154,-0.003268427914864908
-0.005548486153846155,-0.005078673591365549
-0.005548146153846154,-0.004453315994032196
-0.005547806153846154,-0.006230648112775047
-0.005547466153846155,-0.0101802750433219
-0.005547126153846154,-0.01139807668024087
-0.005546786153846154,-0.01159555802676786
-0.005546446153846155,-0.01228674273961356
-0.005546106153846154,-0.01093728687167678
-0.005545766153846154,-0.01097020042943127
-0.005545426153846155,-0.009587831003739873
-0.005545086153846154,-0.00718514128765439
-0.005544746153846154,-0.005638204073193019
-0.005544406153846155,-0.008337115809066702
-0.005544066153846154,-0.007580103980719492
-0.005543726153846154,-0.01176012581554064
-0.005543386153846155,-0.006428129459302391
-0.005543046153846154,-0.005901512535230195
-0.005542706153846154,-0.006296475228284162
-0.005542366153846155,-0.008172548020293918
-0.005542026153846155,-0.01245131052837856
-0.005541686153846154,-0.01241839697063178
-0.005541346153846155,-0.01054232417862203
-0.005541006153846155,-0.006790178594609344
-0.005540666153846154,-0.01126642244922228
-0.005540326153846154,-0.01070689196739481
-0.005539986153846155,-0.01001570725455037
-0.005539646153846154,-0.006428129459302391
-0.005539306153846154,-0.00665852436358429
-0.005538966153846155,-0.006461043017057307
-0.005538626153846154,-0.005736944746456691
-0.005538286153846154,-0.00688891926786619
-0.005537946153846155,-0.009028300521908511
-0.005537606153846154,-0.01011444792781279
-0.005537266153846154,-0.01050941062086747
-0.005536926153846155,-0.01271461899041879
-0.005536586153846154,-0.009884053023530886
-0.005536246153846154,-0.01057523773637659
-0.005535906153846155,-0.01116768177595754
-0.005535566153846154,-0.01097020042943127
-0.005535226153846154,-0.009785312350267215
-0.005534886153846155,-0.009949880139039701
-0.005534546153846154,-0.01021318860107646
-0.005534206153846154,-0.00869916494436683
-0.005533866153846155,-0.009028300521911803
-0.005533526153846154,-0.008271288693557588
-0.005533186153846154,-0.0124842240861409
-0.005532846153846155,-0.01034484283209469
-0.005532506153846154,-0.007283881960920875
-0.005532166153846154,-0.004749538013819977
-0.005531826153846155,-0.003992526185465165
-0.005531486153846154,-0.009522003888230759
-0.005531146153846154,-0.00767884465397556
-0.005530806153846155,-0.00540780916891112
-0.005530466153846154,-0.004650797340556306
-0.005530126153846154,-0.004519143109538078
-0.005529786153846155,-0.004881192244838206
-0.005529446153846154,-0.006888919267863735
-0.005529106153846154,-0.005539463399929348
-0.005528766153846155,-0.006921832825620747
-0.005528426153846154,-0.01004862081230463
-0.005528086153846154,-0.01057523773637659
-0.005527746153846155,-0.009028300521912402
-0.005527406153846154,-0.00955491744598346
-0.005527066153846154,-0.008534597155594046
-0.005526726153846155,-0.008139634462539359
-0.005526386153846154,-0.007777585327237974
-0.005526046153846154,-0.007086400614393532
-0.005525706153846155,-0.006362302343793276
-0.005525366153846154,-0.007942153116012256
-0.005525026153846154,-0.008073807347030245
-0.005524686153846155,-0.006856005710111633
-0.005524346153846154,-0.005868598977477314
-0.005524006153846154,-0.007185141287657204
-0.005523666153846155,-0.008896646290894173
-0.005523326153846154,-0.01452486466694511
-0.005522986153846154,-0.02643957257407311
-0.005522646153846155,-0.04190894471871495
-0.005522306153846154,-0.05866194561583589
-0.005521966153846154,-0.0869017781691945
-0.005521626153846155,-0.1153061785113773
-0.005521286153846154,-0.15042494463555
-0.005520946153846154,-0.1835688972943287
-0.005520606153846155,-0.2074641402241372
-0.005520266153846155,-0.2294503968041414
-0.005519926153846154,-0.2491327043414065
-0.005519586153846155,-0.2611790664795744
-0.005519246153846155,-0.2684529627433183
-0.005518906153846154,-0.2725013303471421
-0.005518566153846154,-0.2720734540963328
-0.005518226153846155,-0.2659844459117509
-0.005517886153846154,-0.2627589172517931
-0.005517546153846154,-0.2535431210805171
-0.005517206153846155,-0.2443602384670124
-0.005516866153846154,-0.2356710592197926
-0.005516526153846154,-0.2279692867052263
-0.005516186153846155,-0.2187864040917216
-0.005515846153846154,-0.2108542366728566
-0.005515506153846154,-0.2045348335839816
-0.005515166153846155,-0.1965368390496388
-0.005514826153846154,-0.192620125676832
-0.005514486153846154,-0.1864652903767298
-0.005514146153846155,-0.1793230483440039
-0.005513806153846154,-0.1735302621791888
-0.005513466153846154,-0.1686919691892689
-0.005513126153846155,-0.162339652542651
-0.005512786153846154,-0.1556252867607098
-0.005512446153846154,-0.1550657562788823
-0.005512106153846155,-0.1464424041471883
-0.005511766153846154,-0.1377532248999853
-0.005511426153846154,-0.1316642167153922
-0.005511086153846155,-0.1254435542997809
-0.005510746153846154,-0.1230079510259437
-0.005510406153846154,-0.1214281002537249
-0.005510066153846155,-0.1144504260097588
-0.005509726153846154,-0.1096450465775935
-0.005509386153846154,-0.1084601584984294
-0.005509046153846155,-0.1047409264721645
-0.005508706153846154,-0.1014824842544571
-0.005508366153846154,-0.09805947424798939
-0.005508026153846155,-0.09503142693457012
-0.005507686153846154,-0.09085140509973809
-0.005507346153846154,-0.08904115942324073
-0.005507006153846155,-0.08709925951572187
-0.005506666153846154,-0.08361042239373348
-0.005506326153846154,-0.08068111575358322
-0.005505986153846155,-0.07867338873055524
-0.005505646153846154,-0.07620487189895915
-0.005505306153846154,-0.07383509574063535
-0.005504966153846155,-0.07281477545024406
-0.005504626153846154,-0.06896388919295904
-0.005504286153846154,-0.06794356890256961
-0.005503946153846155,-0.06560670630199608
-0.005503606153846154,-0.06264448610408048
-0.005503266153846154,-0.05964935234842123
-0.005502926153846155,-0.05793784734518426
-0.005502586153846154,-0.05599594743766372
-0.005502246153846154,-0.0550743678205378
-0.005501906153846155,-0.05662130503500198
-0.005501566153846154,-0.04546360895620352
-0.005501226153846154,-0.04348879549093369
-0.005500886153846155,-0.04325840058665179
-0.005500546153846154,-0.04128358712138058
-0.005500206153846154,-0.04250138875829698
-0.005499866153846155,-0.04250138875829698
-0.005499526153846155,-0.04023035327323667
-0.005499186153846154,-0.03809097201918633
-0.005498846153846155,-0.03805805846143177
-0.005498506153846155,-0.03667568903574289
-0.005498166153846154,-0.03443756710843049
-0.005497826153846154,-0.0321994451811206
-0.005497486153846155,-0.03157408758378516
-0.005497146153846154,-0.03052085373563819
-0.005496806153846154,-0.03058668085114731
-0.005496466153846155,-0.03038919950462033
-0.005496126153846154,-0.02828273180832831
-0.005495786153846154,-0.02785485555751907
-0.005495446153846155,-0.0274598928644651
-0.005495106153846154,-0.02551799295694551
-0.005494766153846154,-0.02505720314838171
-0.005494426153846155,-0.02660414036284308
-0.005494086153846154,-0.02318113035637196
-0.005493746153846154,-0.02255577275903537
-0.005493406153846155,-0.02285199477882585
-0.005493066153846154,-0.02041639150498916
-0.005492726153846154,-0.01883654073277042
-0.005492386153846155,-0.01798078823115349
-0.005492046153846154,-0.01676298659423332
-0.005491706153846154,-0.01906693563705232
-0.005491366153846155,-0.02199624227720257
-0.005491026153846154,-0.01682881370974244
-0.005490686153846154,-0.01633511034342408
-0.005490346153846155,-0.01554518495731471
-0.005490006153846154,-0.01784913400013371
-0.005489666153846154,-0.02123923044885309
-0.005489326153846155,-0.01952772544561612
-0.005488986153846154,-0.01676298659423332
-0.005488646153846154,-0.01561101207282382
-0.005488306153846155,-0.01515022226426002
-0.005487966153846154,-0.0150843951487481
-0.005487626153846154,-0.01353745793428673
-0.005487286153846155,-0.01199052071982254
-0.005486946153846154,-0.01215508850859527
-0.005486606153846154,-0.01212217495084077
-0.005486266153846155,-0.01281335966368647
-0.005485926153846154,-0.0139324206273395
-0.005485586153846154,-0.01287918677919558
-0.005485246153846155,-0.01195760716206798
-0.005484906153846154,-0.01445903755141109
-0.005484566153846154,-0.01268170543266824
-0.005484226153846155,-0.01090437331392216
-0.005483886153846154,-0.0110360275449414
-0.005483546153846154,-0.01159555802676786
-0.005483206153846155,-0.01031192927434013
-0.005482866153846154,-0.009653658119247789
-0.005482526153846154,-0.008995386964157845
-0.005482186153846155,-0.009324522541703417
-0.005481846153846154,-0.01310958168348125
-0.005481506153846154,-0.01518313582201458
-0.005481166153846155,-0.01821118313543383
-0.005480826153846154,-0.01653259168994801
-0.005480486153846154,-0.01465651889794167
-0.005480146153846155,-0.0134058037032685
-0.005479806153846154,-0.01080563264066603
-0.005479466153846154,-0.01495274091773268
-0.005479126153846155,-0.01264879187491368
-0.005478786153846155,-0.009785312350272423
-0.005478446153846154,-0.009522003888230759
-0.005478106153846155,-0.008238375135803031
-0.005477766153846155,-0.008764992059874988
-0.005477426153846154,-0.009423263214967087
-0.005477086153846154,-0.008995386964157845
-0.005476746153846155,-0.008139634462540915
-0.005476406153846154,-0.00790923955825746
-0.005476066153846154,-0.008271288693557588
-0.005475726153846155,-0.008995386964156528
-0.005475386153846154,-0.009291608983948858
-0.005475046153846154,-0.009719485234758102
-0.005474706153846155,-0.008600424271105194
-0.005474366153846154,-0.01004862081230367
-0.005474026153846154,-0.009554917445985316
-0.005473686153846155,-0.008106720904787437
-0.005473346153846154,-0.006856005710111633
-0.005473006153846154,-0.008172548020293918
-0.005472666153846155,-0.008468770040084391
-0.005472326153846154,-0.008995386964157845
-0.005471986153846154,-0.01031192927434013
-0.005471646153846155,-0.01001570725454965
-0.005471306153846154,-0.0129450138947047
-0.005470966153846154,-0.01399824774285052
-0.005470626153846155,-0.01610471543913835
-0.005470286153846154,-0.008205461578048474
-0.005469946153846154,-0.007975066673766575
-0.005469606153846155,-0.007250968403166318
-0.005469266153846154,-0.005736944746456691
-0.005468926153846154,-0.01129933600697684
-0.005468586153846155,-0.009884053023530886
-0.005468246153846154,-0.008106720904784802
-0.005467906153846154,-0.009916966581285444
-0.005467566153846155,-0.009159954752930631
-0.005467226153846154,-0.007547190422957332
-0.005466886153846154,-0.007481363307448217
-0.005466546153846155,-0.008172548020293918
-0.005466206153846154,-0.005605290515440857
-0.005465866153846154,-0.006921832825620747
-0.005465526153846155,-0.007843412442748346
-0.005465186153846154,-0.007942153116012974
-0.005464846153846154,-0.008468770040084931
-0.005464506153846155,-0.008567510713348603
-0.005464166153846154,-0.007218054845410624
-0.005463826153846154,-0.006592697248075176
-0.005463486153846155,-0.007744671769484675
-0.005463146153846154,-0.006066080324003699
-0.005462806153846154,-0.006856005710111633
-0.005462466153846155,-0.007382622634184546
-0.005462126153846154,-0.00777758532723965
-0.005461786153846154,-0.008007980231521132
-0.005461446153846155,-0.009127041195176074
-0.005461106153846154,-0.007415536191939224
-0.005460766153846154,-0.007481363307448217
-0.005460426153846155,-0.01004862081230367
-0.005460086153846154,-0.01202343427756572
-0.005459746153846154,-0.005769858304211248
-0.005459406153846155,-0.005671117630947577
-0.005459066153846154,-0.006691437921335854
-0.005458726153846154,-0.005045760033610991
-0.005458386153846155,-0.01057523773637659
-0.005458046153846154,-0.01156264446901013
-0.005457706153846154,-0.009818225908021772
-0.005457366153846155,-0.01008153437005823
-0.005457026153846155,-0.01064106485188468
-0.005456686153846154,-0.009159954752930631
-0.005456346153846155,-0.008040893789275689
-0.005456006153846155,-0.007975066673766695
-0.005455666153846154,-0.006526870132566062
-0.005455326153846154,-0.005736944746456691
-0.005454986153846155,-0.006559783690319122
-0.005454646153846154,-0.004222921089747064
-0.005454306153846154,0.0004837176691546022
-0.005453966153846155,-0.004782451571564956
-0.005453626153846154,-0.004650797340556306
-0.005453286153846154,-0.00415709397423795
-0.005452946153846155,-0.005835685419717309
-0.005452606153846154,-0.006066080324002262
-0.005452266153846154,-0.006757265036847961
-0.005451926153846155,-0.007942153116009862
-0.005451586153846154,-0.007316795518675433
-0.005451246153846154,-0.007185141287657204
-0.005450906153846155,-0.007316795518675193
-0.005450566153846154,-0.008271288693557588
-0.005450226153846154,-0.006954746383375304
-0.005449886153846155,-0.0129450138946938
-0.005449546153846154,-0.01149681735350419
-0.005449206153846154,-0.006164820997265934
-0.005448866153846155,-0.006954746383373867
-0.005448526153846154,-0.00711931417214809
-0.005448186153846154,-0.008863732733139616
-0.005447846153846155,-0.0108714597561676
-0.005447506153846154,-0.008501683597839487
-0.005447166153846154,-0.005835685419720362
-0.005446826153846155,-0.004914105802592763
-0.005446486153846154,-0.00586859897747492
-0.005446146153846154,-0.006526870132566062
-0.005445806153846155,-0.00586859897747492
-0.005445466153846154,-0.005934426092980442
-0.005445126153846154,-0.003959612627710607
-0.005444786153846155,-0.003762131281183265
-0.005444446153846154,-0.005934426092983973
-0.005444106153846154,-0.005901512535229476
-0.005443766153846155,-0.00540780916891112
-0.005443426153846154,-0.007415536191941558
-0.005443086153846154,-0.008764992059875945
-0.005442746153846155,-0.008797905617630502
-0.005442406153846154,-0.008600424271100944
-0.005442066153846154,-0.007382622634184546
-0.005441726153846155,-0.006757265036847961
-0.005441386153846154,-0.007613017538463513
-0.005441046153846154,-0.006000253208493148
-0.005440706153846155,-0.005473636284420234
-0.005440366153846154,-0.007218054845413976
-0.005440026153846154,-0.008435856482330374
-0.005439686153846155,-0.008073807347030245
-0.005439346153846154,-0.01139807668023566
-0.005439006153846154,-0.008732078502121389
-0.005438666153846155,-0.002182280508964523
-0.005438326153846154,-0.006362302343796269
-0.005437986153846154,-0.008007980231521132
-0.005437646153846155,-0.004321661763010735
-0.005437306153846154,-0.00399252618547211
-0.005436966153846154,-0.007810498884993789
-0.005436626153846155,-0.006362302343793276
-0.005436286153846155,-0.004979932918104392
-0.005435946153846154,-0.007316795518675433
-0.005435606153846155,-0.007086400614393532
-0.005435266153846155,-0.005111587149123699
-0.005434926153846154,-0.006230648112775047
-0.005434586153846154,-0.007152227729902647
-0.005434246153846155,-0.007250968403166138
-0.005433906153846154,-0.009686571677003543
-0.005433566153846154,-0.01189178004655887
-0.005433226153846155,-0.01067397840964247
-0.005432886153846154,-0.01073980552514937
-0.005432546153846154,-0.01031192927434013
-0.005432206153846155,-0.008468770040088284
-0.005431866153846154,-0.008534597155594046
-0.005431526153846154,-0.007481363307448217
-0.005431186153846155,-0.007020573498885256
-0.005430846153846154,-0.006395215901547833
-0.005430506153846154,-0.007382622634184546
-0.005430166153846155,-0.004947019360351751
-0.005429826153846154,-0.005605290515438462
-0.005429486153846154,-0.00711931417214809
-0.005429146153846155,-0.008962473406399935
-0.005428806153846154,-0.004552056667292635
-0.005428466153846154,-0.005309068495647449
-0.005428126153846155,-0.004947019360347978
-0.005427786153846154,-0.00290637877956478
-0.005427446153846154,-0.008007980231521132
-0.005427106153846155,-0.008205461578048474
-0.005426766153846154,-0.004025439743219721
-0.005426426153846154,-0.005769858304211248
-0.005426086153846155,-0.005539463399929348
-0.005425746153846154,-0.004255834647501621
-0.005425406153846154,-0.004091266858728836
-0.005425066153846155,-0.007481363307448217
-0.005424726153846154,-0.007382622634184546
-0.005424386153846154,-0.008271288693557588
-0.005424046153846155,-0.01097020042943127
-0.005423706153846154,-0.01162847158452421
-0.005423366153846154,-0.01261587831715913
-0.005423026153846155,-0.01235256985512267
-0.005422686153846154,-0.01044358350535668
-0.005422346153846154,-0.009522003888230759
-0.005422006153846155,-0.009423263214967087
-0.005421666153846154,-0.007415536191938446
-0.005421326153846154,-0.007053487056638975
-0.005420986153846155,-0.007448449749693661
-0.005420646153846154,-0.006493956574812701
-0.005420306153846154,-0.007152227729902647
-0.005419966153846155,-0.007514276865202775
-0.005419626153846154,-0.005967339650737873
-0.005419286153846154,-0.005572376957683906
-0.005418946153846155,-0.008435856482330374
-0.005418606153846154,-0.008764992059863372
-0.005418266153846154,-0.001853144931418952
-0.005417926153846155,-0.0009315653142913533
-0.005417586153846154,-0.001886058489174587
-0.005417246153846154,-0.002478502528755537
