Analysis/files/cmb03_wrd01/d2s07_ch19.csv

#Digilent WaveForms Oscilloscope Acquisition
#Device Name: ADP3450
#Serial Number: SN:210018B9D9B0
#Date Time: 2024-08-13 16:25:59.184.032.500
#Sample rate: 2.94118e+06Hz
#Samples: 32768
#Trigger: Source: Channel 3 Type: Edge Condition: Rising Level: 60 mV Hyst.: Auto HoldOff: 0 s
#Channel 3: Range: 200 mV/div Offset: 0 V Attenuation: 1 X Coupling: DC Bandwidth: 0 Hz Sample Mode: Average

Time (s),Channel 3 (V)
-0.005570237975253094,-0.01004862081230367
-0.005569897975253093,-0.009324522541702339
-0.005569557975253094,-0.008732078502121389
-0.005569217975253094,-0.009127041195176074
-0.005568877975253093,-0.008238375135804049
-0.005568537975253094,-0.008797905617630502
-0.005568197975253094,-0.01021318860107646
-0.005567857975253093,-0.009489090330472788
-0.005567517975253094,-0.007613017538466446
-0.005567177975253094,-0.009456176772721644
-0.005566837975253093,-0.009785312350267096
-0.005566497975253094,-0.009719485234758102
-0.005566157975253094,-0.0120234342775771
-0.005565817975253093,-0.01366911216530441
-0.005565477975253094,-0.01337289014551394
-0.005565137975253094,-0.01465651889794167
-0.005564797975253093,-0.01613762899689398
-0.005564457975253094,-0.01462360534018711
-0.005564117975253094,-0.0150185680332418
-0.005563777975253093,-0.01748708486483196
-0.005563437975253094,-0.01659841880546054
-0.005563097975253094,-0.01909984919480688
-0.005562757975253094,-0.02354317949166401
-0.005562417975253094,-0.01643385101668775
-0.005562077975253094,-0.01623636967016041
-0.005561737975253094,-0.01663133236321437
-0.005561397975253094,-0.01607180188138762
-0.005561057975253094,-0.01817826957767928
-0.005560717975253094,-0.01732251707606235
-0.005560377975253094,-0.01399824774285052
-0.005560037975253094,-0.01449195110916888
-0.005559697975253094,-0.01567683918833078
-0.005559357975253094,-0.01422864264713243
-0.005559017975253094,-0.0136361986075504
-0.005558677975253094,-0.01419572908937685
-0.005558337975253094,-0.01324123591449571
-0.005557997975253094,-0.012253829181859
-0.005557657975253094,-0.01370202572305688
-0.005557317975253094,-0.01511730870650547
-0.005556977975253094,-0.01498565447548724
-0.005556637975253094,-0.01725668996054755
-0.005556297975253094,-0.02025182371621638
-0.005555957975253094,-0.0185403187129794
-0.005555617975253094,-0.01791496111564396
-0.005555277975253094,-0.01903402207929776
-0.005554937975253094,-0.02127214400660764
-0.005554597975253094,-0.01913276275256533
-0.005554257975253094,-0.02120631689109853
-0.005553917975253094,-0.01903402207929776
-0.005553577975253094,-0.01916567631031599
-0.005553237975253093,-0.0203834779472346
-0.005552897975253094,-0.02048221862049827
-0.005552557975253094,-0.02400396930023588
-0.005552217975253093,-0.02137088467987132
-0.005551877975253094,-0.01699338149851522
-0.005551537975253094,-0.01116768177595861
-0.005551197975253093,-0.01449195110918379
-0.005550857975253094,-0.0226874269900536
-0.005550517975253094,-0.02304947612535373
-0.005550177975253093,-0.02183167448843589
-0.005549837975253094,-0.02225955073924436
-0.005549497975253094,-0.02239120497026259
-0.005549157975253093,-0.02058095929376027
-0.005548817975253094,-0.01965937967663435
-0.005548477975253094,-0.01847449159747029
-0.005548137975253093,-0.01890236784827929
-0.005547797975253094,-0.01877071361726131
-0.005547457975253094,-0.0185403187129794
-0.005547117975253093,-0.0212392304488565
-0.005546777975253094,-0.02311530324086284
-0.005546437975253094,-0.02295073545209006
-0.005546097975253093,-0.0237077472804475
-0.005545757975253094,-0.02515594382164538
-0.005545417975253094,-0.02472806757083614
-0.005545077975253093,-0.02502428959062943
-0.005544737975253094,-0.02627500478530033
-0.005544397975253094,-0.02390522862697221
-0.005544057975253093,-0.02015308304295492
-0.005543717975253094,-0.02137088467987132
-0.005543377975253094,-0.02166710669966233
-0.005543037975253093,-0.02153545246864183
-0.005542697975253094,-0.02028473727397093
-0.005542357975253094,-0.02374066083819943
-0.005542017975253094,-0.0276902877687391
-0.005541677975253094,-0.02334569814514474
-0.005541337975253094,-0.02248994564352626
-0.005540997975253094,-0.01952772544562151
-0.005540657975253094,-0.02117340333334397
-0.005540317975253094,-0.02699910305590058
-0.005539977975253094,-0.02617626411203815
-0.005539637975253094,-0.02137088467987132
-0.005539297975253094,-0.02206206939271702
-0.005538957975253094,-0.02321404391412442
-0.005538617975253094,-0.02285199477882639
-0.005538277975253094,-0.02304947612535373
-0.005537937975253094,-0.02058095929376643
-0.005537597975253094,-0.02242411852801714
-0.005537257975253094,-0.02374066083819943
-0.005536917975253094,-0.022851994778828
-0.005536577975253094,-0.02110757621783486
-0.005536237975253094,-0.0215354524686441
-0.005535897975253094,-0.02173293381517108
-0.005535557975253094,-0.0208442677557984
-0.005535217975253094,-0.02058095929376194
-0.005534877975253094,-0.01962646611888152
-0.005534537975253094,-0.02005434236968903
-0.005534197975253094,-0.02212789650822613
-0.005533857975253094,-0.02199624227720814
-0.005533517975253094,-0.02091009487130752
-0.005533177975253094,-0.02216081006598069
-0.005532837975253094,-0.02367483372269031
-0.005532497975253093,-0.02347735237616297
-0.005532157975253094,-0.02239120497026259
-0.005531817975253094,-0.02551799295694551
-0.005531477975253093,-0.02713075728691881
-0.005531137975253094,-0.02044930506274372
-0.005530797975253094,-0.02123923044885309
-0.005530457975253093,-0.01791496111564282
-0.005530117975253094,-0.01837575092420662
-0.005529777975253094,-0.02212789650822613
-0.005529437975253093,-0.01883654073276886
-0.005529097975253094,-0.01798078823115194
-0.005528757975253094,-0.01962646611887979
-0.005528417975253093,-0.02097592198681735
-0.005528077975253094,-0.02137088467987132
-0.005527737975253094,-0.02285199477882639
-0.005527397975253093,-0.02212789650822583
-0.005527057975253094,-0.02196332871945334
-0.005526717975253094,-0.02400396930023588
-0.005526377975253093,-0.02472806757083542
-0.005526037975253094,-0.02433310487778146
-0.005525697975253094,-0.02515594382164538
-0.005525357975253093,-0.02423436420451521
-0.005525017975253094,-0.02281908122107183
-0.005524677975253094,-0.02252285920128081
-0.005524337975253093,-0.02239120497026229
-0.005523997975253094,-0.0222266371814898
-0.005523657975253094,-0.02518885737939994
-0.005523317975253093,-0.03259440787419661
-0.005522977975253094,-0.04431163443479762
-0.005522637975253094,-0.06224952341103124
-0.005522297975253093,-0.08815249336391827
-0.005521957975253094,-0.1159644496664684
-0.005521617975253094,-0.1478247735728797
-0.005521277975253093,-0.1847866989312958
-0.005520937975253094,-0.2114137671546841
-0.005520597975253094,-0.2308656797876273
-0.005520257975253094,-0.2531152448296675
-0.005519917975253094,-0.2652603476411395
-0.005519577975253094,-0.2776687589146075
-0.005519237975253094,-0.283922334887962
-0.005518897975253094,-0.2814867316141361
-0.005518557975253094,-0.2778333267033803
-0.005518217975253094,-0.2726000710204152
-0.005517877975253094,-0.2656553103341942
-0.005517537975253094,-0.256604081951691
-0.005517197975253094,-0.2498238890542645
-0.005516857975253094,-0.2419904623086676
-0.005516517975253094,-0.2337949864277829
-0.005516177975253094,-0.2281338544940094
-0.005515837975253094,-0.2219461056361423
-0.005515497975253094,-0.2137506297552576
-0.005515157975253094,-0.2072666588776217
-0.005514817975253094,-0.2017371811748443
-0.005514477975253094,-0.193805013755996
-0.005514137975253094,-0.188242622495486
-0.005513797975253094,-0.1818903058488463
-0.005513457975253094,-0.1752088536246713
-0.005513117975253094,-0.1698110301529337
-0.005512777975253094,-0.1646436015854584
-0.005512437975253094,-0.1592786916714656
-0.005512097975253094,-0.153452991948909
-0.005511757975253094,-0.1514123513681264
-0.005511417975253094,-0.1437764059690692
-0.005511077975253094,-0.138740631632622
-0.005510737975253093,-0.1380165333620217
-0.005510397975253094,-0.1262663932436448
-0.005510057975253094,-0.120012817270279
-0.005509717975253093,-0.115404919184641
-0.005509377975253094,-0.1146149937985316
-0.005509037975253094,-0.1136275870658949
-0.005508697975253093,-0.1100400092706224
-0.005508357975253094,-0.09585426587843404
-0.005508017975253094,-0.1007912995416176
-0.005507677975253093,-0.09993554703999333
-0.005507337975253094,-0.09674293193780709
-0.005506997975253094,-0.09239834231420554
-0.005506657975253093,-0.09233251519869304
-0.005506317975253094,-0.09045644240668668
-0.005505977975253094,-0.0882183204793768
-0.005505637975253093,-0.08657264259164751
-0.005505297975253094,-0.08578271720553957
-0.005504957975253094,-0.08265592921885664
-0.005504617975253093,-0.08002284459848961
-0.005504277975253094,-0.07867338873055524
-0.005503937975253094,-0.07538203295509954
-0.005503597975253093,-0.0731109974700325
-0.005503257975253094,-0.07169571448658912
-0.005502917975253094,-0.06853601294215164
-0.005502577975253093,-0.06498134870465716
-0.005502237975253094,-0.06369771995223175
-0.005501897975253094,-0.06063675908105794
-0.005501557975253093,-0.05783910667191712
-0.005501217975253094,-0.05593012032215628
-0.005500877975253094,-0.05405404753014652
-0.005500537975253093,-0.0572137490745864
-0.005500197975253094,-0.05853029138476629
-0.005499857975253094,-0.05362617127933728
-0.005499517975253094,-0.05056521040816903
-0.005499177975253094,-0.0493144952134903
-0.005498837975253094,-0.05339577637505538
-0.005498497975253094,-0.05504145426278025
-0.005498157975253094,-0.05158553069855474
-0.005497817975253094,-0.04944614944450853
-0.005497477975253094,-0.04947906300226303
-0.005497137975253094,-0.0493144952134903
-0.005496797975253094,-0.04760299021025333
-0.005496457975253094,-0.0431267463556417
-0.005496117975253094,-0.04210642606524229
-0.005495777975253094,-0.042797610778088
-0.005495437975253094,-0.04098736510159065
-0.005495097975253094,-0.03891381096305026
-0.005494757975253094,-0.03891381096305026
-0.005494417975253094,-0.03911129230957724
-0.005494077975253094,-0.0384201075967319
-0.005493737975253094,-0.03779474999939531
-0.005493397975253094,-0.03667568903574241
-0.005493057975253094,-0.03558954162983999
-0.005492717975253094,-0.03674151615124949
-0.005492377975253094,-0.03677442970900398
-0.005492037975253094,-0.03190322316132959
-0.005491697975253094,-0.03424008576190315
-0.005491357975253094,-0.03473378912822061
-0.005491017975253094,-0.03374638239558479
-0.005490677975253094,-0.03259440787417529
-0.005490337975253094,-0.03354890104905744
-0.005489997975253093,-0.03647820768921303
-0.005489657975253094,-0.03605033143840378
-0.005489317975253094,-0.03088290287093832
-0.005488977975253093,-0.02739406574895527
-0.005488637975253094,-0.02627500478530033
-0.005488297975253094,-0.03019171815809262
-0.005487957975253093,-0.03081707575542196
-0.005487617975253094,-0.0268345352671278
-0.005487277975253094,-0.02515594382164538
-0.005486937975253093,-0.02673579459386167
-0.005486597975253094,-0.02538633872592728
-0.005486257975253094,-0.02640665901631855
-0.005485917975253093,-0.02479389468634633
-0.005485577975253094,-0.02538633872592728
-0.005485237975253094,-0.02690036238263691
-0.005484897975253093,-0.02848021315485457
-0.005484557975253094,-0.02788776911527362
-0.005484217975253094,-0.02778902844200995
-0.005483877975253093,-0.02792068267302231
-0.005483537975253094,-0.02469515401308158
-0.005483197975253094,-0.02607752343877298
-0.005482857975253093,-0.02255577275903268
-0.005482517975253094,-0.0210746626600803
-0.005482177975253094,-0.02166710669966233
-0.005481837975253093,-0.0231811303563698
-0.005481497975253094,-0.0219962422772079
-0.005481157975253094,-0.02390522862697221
-0.005480817975253093,-0.0269991030559001
-0.005480477975253094,-0.02673579459386412
-0.005480137975253094,-0.02663705392060045
-0.005479797975253093,-0.02867769450138808
-0.005479457975253094,-0.03147534691052035
-0.005479117975253094,-0.0249913760328726
-0.005478777975253094,-0.02614335055428
-0.005478437975253094,-0.02426727776227234
-0.005478097975253094,-0.02387231506921766
-0.005477757975253094,-0.02759154709547584
-0.005477417975253094,-0.02588004209224564
-0.005477077975253094,-0.02235829141250803
-0.005476737975253094,-0.02123923044885512
-0.005476397975253094,-0.02219372362373525
-0.005476057975253094,-0.02012016948519815
-0.005475717975253094,-0.02110757621783306
-0.005475377975253094,-0.02137088467987132
-0.005475037975253094,-0.01946189833010701
-0.005474697975253094,-0.02094300842905938
-0.005474357975253094,-0.02334569814514474
-0.005474017975253094,-0.02295073545209006
-0.005473677975253094,-0.02281908122107207
-0.005473337975253094,-0.02275325410556272
-0.005472997975253094,-0.02166710669966233
-0.005472657975253094,-0.02193041516169831
-0.005472317975253094,-0.02308238968310829
-0.005471977975253094,-0.02179876093068056
-0.005471637975253094,-0.02209498295047103
-0.005471297975253094,-0.02324695747188107
-0.005470957975253094,-0.02212789650822613
-0.005470617975253094,-0.02117340333334571
-0.005470277975253094,-0.0229178218943355
-0.005469937975253094,-0.0219962422772079
-0.005469597975253094,-0.02074552708253473
-0.005469257975253093,-0.02364192016493576
-0.005468917975253094,-0.02841438603934654
-0.005468577975253094,-0.01531479005303281
-0.005468237975253093,-0.01837575092420662
-0.005467897975253094,-0.0226874269900536
-0.005467557975253094,-0.01962646611887979
-0.005467217975253093,-0.01847449159747029
-0.005466877975253094,-0.0201530830429527
-0.005466537975253094,-0.01952772544561612
-0.005466197975253093,-0.02038347794723664
-0.005465857975253094,-0.02150253891088955
-0.005465517975253094,-0.01633511034342408
-0.005465177975253093,-0.02074552708254186
-0.005464837975253094,-0.02466224045532703
-0.005464497975253094,-0.02400396930023588
-0.005464157975253093,-0.02446475910879771
-0.005463817975253094,-0.0233786117028993
-0.005463477975253094,-0.02232537785475347
-0.005463137975253093,-0.02074552708253491
-0.005462797975253094,-0.0208442677557984
-0.005462457975253094,-0.0206138728515165
-0.005462117975253093,-0.01998851525418345
-0.005461777975253094,-0.02193041516169879
-0.005461437975253094,-0.0199226881386708
-0.005461097975253093,-0.01916567631031563
-0.005460757975253094,-0.01896819496378865
-0.005460417975253094,-0.01873780005950675
-0.005460077975253093,-0.01722377640279808
-0.005459737975253094,-0.01775039332687003
-0.005459397975253094,-0.01837575092420662
-0.005459057975253093,-0.01854031871298785
-0.005458717975253094,-0.02318113035637196
-0.005458377975253094,-0.01794787467339738
-0.005458037975253093,-0.01626928322791443
-0.005457697975253094,-0.01597306120812395
-0.005457357975253094,-0.01965937967663435
-0.005457017975253094,-0.02453058622429994
-0.005456677975253094,-0.02183167448843512
-0.005456337975253094,-0.02137088467987132
-0.005455997975253094,-0.0227861676633147
-0.005455657975253094,-0.02426727776227234
-0.005455317975253094,-0.0236090066071812
-0.005454977975253094,-0.02015308304295899
-0.005454637975253094,-0.01837575092420662
-0.005454297975253094,-0.01890236784827953
-0.005453957975253094,-0.0181453560199261
-0.005453617975253094,-0.01653259168995142
-0.005453277975253094,-0.01758582553809725
-0.005452937975253094,-0.01804661534666021
-0.005452597975253094,-0.02025182371621638
-0.005452257975253094,-0.02058095929376194
-0.005451917975253094,-0.01909984919480957
-0.005451577975253094,-0.01794787467339738
-0.005451237975253094,-0.02012016948519815
-0.005450897975253094,-0.02008725592744365
-0.005450557975253094,-0.01886945429052498
-0.005450217975253094,-0.01965937967663435
-0.005449877975253094,-0.02196332871944915
-0.005449537975253094,-0.02146962535313499
-0.005449197975253094,-0.02146962535313499
-0.005448857975253094,-0.02166710669966197
-0.005448517975253094,-0.02525468449490905
-0.005448177975253094,-0.02456349978206336
-0.005447837975253094,-0.02041639150498916
-0.005447497975253093,-0.01840866448196118
-0.005447157975253094,-0.01738834419156991
-0.005446817975253094,-0.02232537785475347
-0.005446477975253093,-0.02272034054780816
-0.005446137975253094,-0.01844157803971573
-0.005445797975253094,-0.01857323227073396
-0.005445457975253093,-0.02058095929376009
-0.005445117975253094,-0.01956063900337068
-0.005444777975253094,-0.0199226881386708
-0.005444437975253093,-0.01962646611888135
-0.005444097975253094,-0.02048221862049827
-0.005443757975253094,-0.02298364900984462
-0.005443417975253093,-0.02485972180185473
-0.005443077975253094,-0.02505720314838171
-0.005442737975253094,-0.02512303026389083
-0.005442397975253093,-0.02532051161041566
-0.005442057975253094,-0.02393814218472677
-0.005441717975253094,-0.02344443881840842
-0.005441377975253093,-0.02242411852801654
-0.005441037975253094,-0.02209498295047157
-0.005440697975253094,-0.02278616766331727
-0.005440357975253093,-0.02304947612535092
-0.005440017975253094,-0.02150253891088955
-0.005439677975253094,-0.02067969996702562
-0.005439337975253093,-0.02206206939271378
-0.005438997975253094,-0.02028473727397093
-0.005438657975253094,-0.0196922932343889
-0.005438317975253093,-0.02176584737293115
-0.005437977975253094,-0.02459641333981791
-0.005437637975253094,-0.01791496111564282
-0.005437297975253093,-0.01751999842258652
-0.005436957975253094,-0.01663133236321509
-0.005436617975253094,-0.01673007303647877
-0.005436277975253094,-0.02258868631677927
-0.005435937975253094,-0.02123923044885309
-0.005435597975253094,-0.01659841880546054
-0.005435257975253094,-0.01880362717501185
-0.005434917975253094,-0.02044930506274372
-0.005434577975253094,-0.01929733054133422
-0.005434237975253094,-0.02048221862049612
-0.005433897975253094,-0.02137088467987132
-0.005433557975253094,-0.02285199477882639
-0.005433217975253094,-0.02298364900984438
-0.005432877975253094,-0.02367483372269031
-0.005432537975253094,-0.02163419314190777
-0.005432197975253094,-0.02081135419804534
-0.005431857975253094,-0.02110757621783486
-0.005431517975253094,-0.01972520679214346
-0.005431177975253094,-0.02008725592744293
-0.005430837975253094,-0.02002142881193448
-0.005430497975253094,-0.02071261352478018
-0.005430157975253094,-0.02137088467987012
-0.005429817975253094,-0.0229178218943355
-0.005429477975253094,-0.02248994564352626
-0.005429137975253094,-0.02278616766331673
-0.005428797975253094,-0.0243001913200269
-0.005428457975253094,-0.02295073545209006
-0.005428117975253094,-0.02321404391412604
-0.005427777975253094,-0.02505720314838171
-0.005427437975253094,-0.02709784372916425
-0.005427097975253094,-0.01758582553809725
-0.005426757975253093,-0.01860614582848852
-0.005426417975253094,-0.01607180188138762
-0.005426077975253094,-0.01554518495731471
-0.005425737975253093,-0.02321404391412651
-0.005425397975253094,-0.01873780005950675
-0.005425057975253094,-0.01765165265360636
-0.005424717975253093,-0.01840866448196118
-0.005424377975253094,-0.02156836602639866
-0.005424037975253094,-0.02071261352478018
-0.005423697975253093,-0.02012016948520048
-0.005423357975253094,-0.02140379823762588
-0.005423017975253094,-0.01985686102316169
-0.005422677975253093,-0.01896819496377596
-0.005422337975253094,-0.01199052071982254
-0.005421997975253094,-0.0210746626600803
-0.005421657975253093,-0.01942898477235592
-0.005421317975253094,-0.02133797112211676
-0.005420977975253094,-0.02058095929376194
-0.005420637975253093,-0.01923150342582672
-0.005420297975253094,-0.02012016948519815
-0.005419957975253094,-0.01909984919480688
-0.005419617975253093,-0.01840866448196219
-0.005419277975253094,-0.01896819496378865
-0.005418937975253094,-0.01972520679214346
-0.005418597975253093,-0.01847449159747245
-0.005418257975253094,-0.01965937967663435
-0.005417917975253094,-0.01962646611887979
-0.005417577975253093,-0.01962646611888829
-0.005417237975253094,-0.0243001913200269
-0.005416897975253094,-0.01870488650175219
-0.005416557975253093,-0.01482108668671649
-0.005416217975253094,-0.0159401476503694
-0.005415877975253094,-0.01827701025094295
-0.005415537975253093,-0.02061387285151609
-0.005415197975253094,-0.0203834779472346
