Analysis/files/cmb03_wrd01/d2s04_ch18.csv

#Digilent WaveForms Oscilloscope Acquisition
#Device Name: ADP3450
#Serial Number: SN:210018B9D9B0
#Date Time: 2024-08-13 12:19:05.373.001.990
#Sample rate: 2.94118e+06Hz
#Samples: 32768
#Trigger: Source: Channel 3 Type: Edge Condition: Rising Level: 60 mV Hyst.: Auto HoldOff: 0 s
#Channel 3: Range: 200 mV/div Offset: 0 V Attenuation: 1 X Coupling: DC Bandwidth: 0 Hz Sample Mode: Average

Time (s),Channel 3 (V)
-0.00557040785202864,0.005519492005601839
-0.005570067852028639,0.003314283636046095
-0.005569727852028639,0.003083888731764614
-0.00556938785202864,0.002491444692182586
-0.005569047852028639,-0.002741810990795946
-0.005568707852028639,-0.004914105802592763
-0.00556836785202864,0.002688926038709928
-0.005568027852028639,0.002557271807693196
-0.005567687852028639,0.003380110751555628
-0.00556734785202864,0.001602778632809544
-0.005567007852028639,-0.001491095796116669
-0.005566667852028639,-0.0003062077169547683
-0.00556632785202864,0.00130655661301853
-0.005565987852028639,-0.0002403806014485278
-0.005565647852028639,-0.001820231373664395
-0.00556530785202864,-0.001622750027137053
-0.005564967852028639,-0.002149366951213618
-0.005564627852028639,-0.00415709397423795
-0.00556428785202864,-0.004255834647501621
-0.005563947852028639,-0.005671117630949732
-0.005563607852028639,-0.006856005710111633
-0.00556326785202864,-0.007086400614393532
-0.00556292785202864,-0.007382622634184008
-0.005562587852028639,-0.006954746383375304
-0.00556224785202864,-0.01011444792781279
-0.00556190785202864,-0.006362302343800101
-0.005561567852028639,-0.005769858304211248
-0.00556122785202864,-0.004979932918101878
-0.00556088785202864,-0.004749538013820396
-0.005560547852028639,-0.00494701936034732
-0.00556020785202864,-0.006033166766247705
-0.00555986785202864,-0.006526870132565164
-0.005559527852028639,-0.007481363307448217
-0.00555918785202864,-0.009028300521912402
-0.00555884785202864,-0.003959612627719827
-0.005558507852028639,-0.01103602754494038
-0.00555816785202864,-0.01093728687167671
-0.00555782785202864,-0.00359756349242383
-0.005557487852028639,-0.007316795518675433
-0.00555714785202864,-0.01238548341287723
-0.00555680785202864,-0.009390349657217979
-0.005556467852028639,-0.007481363307448217
-0.00555612785202864,-0.01057523773637659
-0.00555578785202864,-0.009785312350268652
-0.005555447852028639,-0.008896646290894173
-0.00555510785202864,-0.009719485234758102
-0.00555476785202864,-0.01047649706311154
-0.005554427852028639,-0.0101802750433219
-0.00555408785202864,-0.01185886648880431
-0.00555374785202864,-0.01215508850859533
-0.005553407852028639,-0.0108714597561676
-0.00555306785202864,-0.0113322495647314
-0.00555272785202864,-0.01241839697063178
-0.005552387852028639,-0.01021318860107646
-0.00555204785202864,-0.0113322495647314
-0.00555170785202864,-0.0127146189904228
-0.005551367852028639,-0.01027901571658617
-0.00555102785202864,-0.01060815129413114
-0.00555068785202864,-0.0117930393732952
-0.005550347852028639,-0.01314249524123288
-0.00555000785202864,-0.01360328504979584
-0.00554966785202864,-0.01261587831715913
-0.005549327852028639,-0.0122867427396138
-0.005548987852028639,-0.01241839697063178
-0.00554864785202864,-0.01488691380222357
-0.005548307852028639,-0.01462360534018178
-0.005547967852028639,-0.01169429870003153
-0.00554762785202864,-0.01116768177595861
-0.005547287852028639,-0.01097020042942528
-0.005546947852028639,-0.00767884465397556
-0.00554660785202864,-0.01077271908290393
-0.005546267852028639,-0.01274753254817167
-0.005545927852028639,-0.00962074456149443
-0.00554558785202864,-0.0117930393732952
-0.005545247852028639,-0.01208926139308454
-0.005544907852028639,-0.01116768177595861
-0.00554456785202864,-0.01080563264065849
-0.005544227852028639,-0.01264879187491177
-0.005543887852028639,-0.01159555802676786
-0.00554354785202864,-0.01073980552514937
-0.005543207852028639,-0.01064106485188133
-0.005542867852028639,-0.008238375135803031
-0.00554252785202864,-0.008139634462539359
-0.00554218785202864,-0.007909239558257879
-0.005541847852028639,-0.007250968403166318
-0.00554150785202864,-0.007152227729902647
-0.00554116785202864,-0.009357436099453963
-0.005540827852028639,-0.01008153437005823
-0.00554048785202864,-0.01031192927434013
-0.00554014785202864,-0.01073980552514859
-0.005539807852028639,-0.01106894110269494
-0.00553946785202864,-0.01100311398718583
-0.00553912785202864,-0.01027901571658689
-0.005538787852028639,-0.01014736148556734
-0.00553844785202864,-0.009587831003739873
-0.00553810785202864,-0.01291210033694409
-0.005537767852028639,-0.01508439514875091
-0.00553742785202864,-0.008040893789275689
-0.00553708785202864,-0.008337115809066162
-0.005536747852028639,-0.008797905617630502
-0.00553640785202864,-0.01008153437005823
-0.00553606785202864,-0.01416281553161589
-0.005535727852028639,-0.01505148159099635
-0.00553538785202864,-0.01228674273961356
-0.00553504785202864,-0.01590723409260825
-0.005534707852028639,-0.01659841880546054
-0.00553436785202864,-0.01478817312895989
-0.00553402785202864,-0.01547935784180434
-0.005533687852028639,-0.01597306120812395
-0.00553334785202864,-0.01360328504979584
-0.00553300785202864,-0.01396533418509597
-0.005532667852028639,-0.01360328504979584
-0.00553232785202864,-0.01333997658775938
-0.00553198785202864,-0.01330706303000483
-0.005531647852028639,-0.01452486466692344
-0.00553130785202864,-0.0134058037032685
-0.00553096785202864,-0.01452486466692344
-0.005530627852028639,-0.01436029687815065
-0.00553028785202864,-0.01426155620488698
-0.00552994785202864,-0.01380076639632318
-0.005529607852028639,-0.0144919511091696
-0.00552926785202864,-0.01488691380222357
-0.00552892785202864,-0.0140969884161142
-0.005528587852028639,-0.01429446976263986
-0.00552824785202864,-0.01337289014551394
-0.00552790785202864,-0.01287918677919558
-0.005527567852028639,-0.01570975274608791
-0.005527227852028639,-0.0159401476503694
-0.00552688785202864,-0.00837002936682126
-0.005526547852028639,-0.008205461578048833
-0.005526207852028639,-0.008402942924575817
-0.00552586785202864,-0.01001570725454911
-0.005525527852028639,-0.01307666812572323
-0.005525187852028639,-0.01324123591449571
-0.00552484785202864,-0.01238548341287723
-0.005524507852028639,-0.01468943245569796
-0.005524167852028639,-0.01564392563057838
-0.00552382785202864,-0.01399824774285052
-0.005523487852028639,-0.01791496111566006
-0.005523147852028639,-0.02739406574895527
-0.00552280785202864,-0.04144815491015115
-0.005522467852028639,-0.06063675908110758
-0.005522127852028639,-0.08792209845958579
-0.00552178785202864,-0.1198153359237516
-0.005521447852028639,-0.1516427462724655
-0.005521107852028639,-0.1830422803702558
-0.00552076785202864,-0.2101630519600109
-0.00552042785202864,-0.2330379745993865
-0.005520087852028639,-0.2520620109815621
-0.00551974785202864,-0.2645033358127847
-0.00551940785202864,-0.2705265168818577
-0.005519067852028639,-0.2732254286177423
-0.00551872785202864,-0.2726000710204057
-0.00551838785202864,-0.2677288644727401
-0.005518047852028639,-0.2632855341758661
-0.00551770785202864,-0.2570319582025002
-0.00551736785202864,-0.2486060874173489
-0.005517027852028639,-0.2455780401039143
-0.00551668785202864,-0.2316885187314912
-0.00551634785202864,-0.2239538326591844
-0.005516007852028639,-0.2139151975440304
-0.00551566785202864,-0.2071350046465916
-0.00551532785202864,-0.202987896369525
-0.005514987852028639,-0.1983799982838794
-0.00551464785202864,-0.1901516088452402
-0.00551430785202864,-0.1833055888323047
-0.005513967852028639,-0.1769861857434173
-0.00551362785202864,-0.1714896215984063
-0.00551328785202864,-0.1645119473544529
-0.005512947852028639,-0.1539137817574728
-0.00551260785202864,-0.1531896834868725
-0.00551226785202864,-0.1491742294408166
-0.005511927852028639,-0.1423282094278687
-0.00551158785202864,-0.1380494469197763
-0.00551124785202864,-0.1333757217186292
-0.005510907852028639,-0.1286690829597275
-0.00551056785202864,-0.124620715355917
-0.00551022785202864,-0.1211318782339339
-0.005509887852028639,-0.1176759546697054
-0.00550954785202864,-0.1137263277391586
-0.00550920785202864,-0.1107311939834939
-0.005508867852028639,-0.1068473941684489
-0.00550852785202864,-0.1028977672379093
-0.00550818785202864,-0.1005279910795812
-0.005507847852028639,-0.09641379636025421
-0.00550750785202864,-0.09239834231420554
-0.00550716785202864,-0.09042352884893212
-0.005506827852028639,-0.08956777634731358
-0.005506487852028639,-0.08953486278955908
-0.00550614785202864,-0.08278758344987489
-0.005505807852028639,-0.07854173449952745
-0.005505467852028639,-0.07327556525880788
-0.00550512785202864,-0.07505289737755397
-0.005504787852028639,-0.07604030411018169
-0.005504447852028639,-0.07110327044700709
-0.00550410785202864,-0.06883223496194266
-0.005503767852028639,-0.06682450793891462
-0.005503427852028639,-0.06679159438116011
-0.00550308785202864,-0.06504717582016858
-0.005502747852028639,-0.06498134870465302
-0.005502407852028639,-0.06142668446716731
-0.00550206785202864,-0.06073549975432162
-0.005501727852028639,-0.06070258619656071
-0.005501387852028639,-0.05721374907458401
-0.00550104785202864,-0.05599594743766539
-0.005500707852028639,-0.05458066445421693
-0.005500367852028639,-0.05319829502852804
-0.00550002785202864,-0.05132222223651828
-0.00549968785202864,-0.05053229685041035
-0.005499347852028639,-0.04727385463270776
-0.00549900785202864,-0.04575983097599813
-0.00549866785202864,-0.04625353434231559
-0.005498327852028639,-0.04296217856686078
-0.00549798785202864,-0.04184311760320584
-0.00549764785202864,-0.04046074817751695
-0.005497307852028639,-0.04078988375506001
-0.00549696785202864,-0.03891381096305026
-0.00549662785202864,-0.03891381096305026
-0.005496287852028639,-0.03970373634915963
-0.00549594785202864,-0.03973664990691418
-0.00549560785202864,-0.03229818585439781
-0.005495267852028639,-0.02848021315485565
-0.00549492785202864,-0.02594586920775475
-0.00549458785202864,-0.0277890284420066
-0.005494247852028639,-0.03233109941213883
-0.00549390785202864,-0.02946761988749236
-0.00549356785202864,-0.0290397436366839
-0.005493227852028639,-0.03229818585438428
-0.00549288785202864,-0.03266023498968441
-0.00549254785202864,-0.03229818585438494
-0.005492207852028639,-0.0319690502768387
-0.00549186785202864,-0.03015880460033806
-0.00549152785202864,-0.02936887921423013
-0.005491187852028639,-0.02969801479177427
-0.00549084785202864,-0.02834855892383742
-0.00549050785202864,-0.02713075728691881
-0.005490167852028639,-0.02597878276550931
-0.00548982785202864,-0.02469515401308158
-0.00548948785202864,-0.02206206939271702
-0.005489147852028639,-0.02163419314190777
-0.00548880785202864,-0.02091009487130752
-0.00548846785202864,-0.01946189833010701
-0.005488127852028639,-0.02100883554457281
-0.00548778785202864,-0.02189750160394423
-0.00548744785202864,-0.02146962535313499
-0.005487107852028639,-0.02219372362373818
-0.00548676785202864,-0.02380648795370854
-0.00548642785202864,-0.0231482167986174
-0.005486087852028639,-0.02482680824410777
-0.00548574785202864,-0.02920431142545591
-0.00548540785202864,-0.02140379823762588
-0.005485067852028639,-0.02114048977558816
-0.005484727852028639,-0.02044930506274372
-0.00548438785202864,-0.02048221862049827
-0.005484047852028639,-0.0248268082441031
-0.005483707852028639,-0.02663705392060045
-0.00548336785202864,-0.02137088467987132
-0.005483027852028639,-0.02146962535313511
-0.005482687852028639,-0.0215354524686441
-0.00548234785202864,-0.01801370178890649
-0.005482007852028639,-0.0166313323632136
-0.005481667852028639,-0.01580849341935116
-0.00548132785202864,-0.01508439514875091
-0.005480987852028639,-0.01343871726102509
-0.005480647852028639,-0.014557778224678
-0.00548030785202864,-0.01498565447548724
-0.005479967852028639,-0.01505148159099965
-0.005479627852028639,-0.01686172726749699
-0.00547928785202864,-0.01686172726749699
-0.00547894785202864,-0.01686172726749699
-0.005478607852028639,-0.01676298659423332
-0.00547826785202864,-0.01577557986159661
-0.00547792785202864,-0.01482108668671619
-0.005477587852028639,-0.01350454437653217
-0.00547724785202864,-0.01393242062734141
-0.00547690785202864,-0.0117272122577901
-0.005476567852028639,-0.01231965629736811
-0.00547622785202864,-0.01120059533371317
-0.00547588785202864,-0.01172721225778513
-0.005475547852028639,-0.01468943245569622
-0.00547520785202864,-0.02097592198681663
-0.00547486785202864,-0.0154464442840611
-0.005474527852028639,-0.01462360534018711
-0.00547418785202864,-0.01692755438300611
-0.00547384785202864,-0.01557809851507172
-0.005473507852028639,-0.01873780005950675
-0.00547316785202864,-0.01798078823115194
-0.00547282785202864,-0.01488691380222919
-0.005472487852028639,-0.01445903755141432
-0.00547214785202864,-0.01577557986159661
-0.00547180785202864,-0.01544644428405164
-0.005471467852028639,-0.01445903755141432
-0.00547112785202864,-0.01508439514875091
-0.00547078785202864,-0.01781622044237418
-0.005470447852028639,-0.01686172726749699
-0.00547010785202864,-0.01659841880546054
-0.00546976785202864,-0.01679590015198788
-0.005469427852028639,-0.01475525957120534
-0.00546908785202864,-0.01623636967016041
-0.00546874785202864,-0.01465651889794167
-0.005468407852028639,-0.01284627322144103
-0.00546806785202864,-0.0127146189904228
-0.00546772785202864,-0.01373493928081407
-0.005467387852028639,-0.008962473406403288
-0.00546704785202864,-0.01120059533371317
-0.00546670785202864,-0.01123350889146773
-0.005466367852028639,-0.010838546198414
-0.00546602785202864,-0.01136516312248596
-0.00546568785202864,-0.01241839697063178
-0.005465347852028639,-0.01162847158453229
-0.00546500785202864,-0.01705920861402434
-0.00546466785202864,-0.01712503572953345
-0.005464327852028639,-0.01143099023799327
-0.005463987852028639,-0.01044358350535836
-0.00546364785202864,-0.01070689196739481
-0.005463307852028639,-0.01393242062734339
-0.005462967852028639,-0.0150185680332418
-0.00546262785202864,-0.01241839697063178
-0.005462287852028639,-0.01054232417862502
-0.005461947852028639,-0.01218800206634988
-0.00546160785202864,-0.01218800206634988
-0.005461267852028639,-0.01189178004655666
-0.005460927852028639,-0.01067397840964026
-0.00546058785202864,-0.01343871726102305
-0.005460247852028639,-0.01439321043590269
-0.005459907852028639,-0.01301084101021381
-0.00545956785202864,-0.01327414947225027
-0.005459227852028639,-0.0153147900530352
-0.005458887852028639,-0.01663133236321509
-0.00545854785202864,-0.01564392563057838
-0.005458207852028639,-0.01528187649527676
-0.005457867852028639,-0.01445903755141432
-0.00545752785202864,-0.01518313582201458
-0.00545718785202864,-0.01607180188138601
-0.005456847852028639,-0.01491982735997812
-0.00545650785202864,-0.01515022226426002
-0.00545616785202864,-0.01673007303647589
-0.005455827852028639,-0.01666424592096965
-0.00545548785202864,-0.01603888832363307
-0.00545514785202864,-0.0156768391883336
-0.005454807852028639,-0.01508439514875091
-0.00545446785202864,-0.01791496111564282
-0.00545412785202864,-0.01314249524124072
-0.005453787852028639,-0.008468770040084931
-0.00545344785202864,-0.006625610805829733
-0.00545310785202864,-0.00761301753846465
-0.005452767852028639,-0.0131754087989866
-0.00545242785202864,-0.0117930393732952
-0.00545208785202864,-0.0106081512941333
-0.005451747852028639,-0.01176012581554064
-0.00545140785202864,-0.01465651889794167
-0.00545106785202864,-0.01587432053485806
-0.005450727852028639,-0.01574266630384205
-0.00545038785202864,-0.0152489629375237
-0.00545004785202864,-0.01663133236321258
-0.005449707852028639,-0.01765165265360636
-0.00544936785202864,-0.01541353072629648
-0.00544902785202864,-0.01584140697710494
-0.005448687852028639,-0.01580849341935116
-0.00544834785202864,-0.01666424592096965
-0.00544800785202864,-0.01452486466692344
-0.005447667852028639,-0.01396533418509597
-0.00544732785202864,-0.01333997658775938
-0.00544698785202864,-0.0138665935118323
-0.005446647852028639,-0.01511730870650547
-0.00544630785202864,-0.01353745793428673
-0.00544596785202864,-0.01373493928081407
-0.005445627852028639,-0.01432738332039628
-0.00544528785202864,-0.01442612399365977
-0.00544494785202864,-0.01307666812572293
-0.005444607852028639,-0.01136516312249314
-0.00544426785202864,-0.01531479005303281
-0.00544392785202864,-0.01630219678566952
-0.005443587852028639,-0.010937286871676
-0.005443247852028639,-0.01054232417862203
-0.00544290785202864,-0.008238375135803031
-0.005442567852028639,-0.01024610215883862
-0.005442227852028639,-0.01442612399365977
-0.00544188785202864,-0.009785312350267215
-0.005441547852028639,-0.008271288693560881
-0.005441207852028639,-0.01008153437005823
-0.00544086785202864,-0.01011444792781279
-0.005440527852028639,-0.009620744561494908
-0.005440187852028639,-0.009884053023530886
-0.00543984785202864,-0.01024610215883101
-0.005439507852028639,-0.009686571677008213
-0.005439167852028639,-0.012253829181859
-0.00543882785202864,-0.01199052071982254
-0.005438487852028639,-0.01258296475940415
-0.005438147852028639,-0.01235256985512267
-0.00543780785202864,-0.01347163081877761
-0.005437467852028639,-0.0134387172610224
-0.005437127852028639,-0.01307666812572293
-0.00543678785202864,-0.01459069178243255
-0.00543644785202864,-0.01452486466692356
-0.005436107852028639,-0.01620345611240585
-0.00543576785202864,-0.01600597476587851
-0.00543542785202864,-0.01472234601345312
-0.005435087852028639,-0.01505148159099635
-0.00543474785202864,-0.01643385101668775
-0.00543440785202864,-0.01488691380222638
-0.005434067852028639,-0.01353745793428673
-0.00543372785202864,-0.01844157803971573
-0.00543338785202864,-0.01281335966369671
-0.005433047852028639,-0.005835685419720362
-0.00543270785202864,-0.0101802750433219
-0.00543236785202864,-0.01113476821820232
-0.005432027852028639,-0.008567510713348603
-0.00543168785202864,-0.009949880139040001
-0.00543134785202864,-0.01103602754493841
-0.005431007852028639,-0.01031192927434013
-0.00543066785202864,-0.01185886648880431
-0.00543032785202864,-0.01278044610593024
-0.005429987852028639,-0.01212217495084077
-0.00542964785202864,-0.012253829181859
-0.00542930785202864,-0.01231965629736799
-0.005428967852028639,-0.01192469360431343
-0.00542862785202864,-0.01241839697063178
-0.00542828785202864,-0.01284627322144025
-0.005427947852028639,-0.01235256985512267
-0.00542760785202864,-0.01370202572305951
-0.00542726785202864,-0.01406407485835964
-0.005426927852028639,-0.01488691380222357
-0.00542658785202864,-0.01472234601345078
-0.00542624785202864,-0.01567683918833294
-0.005425907852028639,-0.01389950706958685
-0.00542556785202864,-0.01373493928081407
-0.00542522785202864,-0.01485400024446901
-0.005424887852028639,-0.0117930393732952
-0.00542454785202864,-0.01228674273961356
-0.00542420785202864,-0.01343871726102305
-0.005423867852028639,-0.01215508850859245
-0.00542352785202864,-0.01057523773637659
-0.00542318785202864,-0.01640093745893319
-0.005422847852028639,-0.01126642244922492
-0.00542250785202864,-0.0127146189904228
-0.00542216785202864,-0.01106894110269494
-0.005421827852028639,-0.006658524363597102
-0.005421487852028639,-0.01370202572305951
-0.00542114785202864,-0.01347163081877761
-0.005420807852028639,-0.01100311398718409
-0.005420467852028639,-0.01004862081230367
-0.00542012785202864,-0.01241839697063178
-0.005419787852028639,-0.01235256985511716
-0.005419447852028639,-0.009324522541703417
-0.00541910785202864,-0.01057523773637659
-0.005418767852028639,-0.01146390379574951
-0.005418427852028639,-0.01139807668024051
-0.00541808785202864,-0.01195760716206798
-0.005417747852028639,-0.01422864264713392
-0.005417407852028639,-0.01505148159099635
-0.00541706785202864,-0.01462360534018711
-0.005416727852028639,-0.01630219678566821
-0.005416387852028639,-0.01557809851506927
-0.00541604785202864,-0.01633511034342408
-0.005415707852028639,-0.01715794928728897
-0.005415367852028639,-0.01768456621136092
-0.00541502785202864,-0.01824409669318839
-0.00541468785202864,-0.01847449159746987
-0.005414347852028639,-0.01659841880546054
-0.00541400785202864,-0.01462360534018711
-0.00541366785202864,-0.01564392563057652
