Analysis/files/cmb03_wrd01/d2s06_ch41.csv

#Digilent WaveForms Oscilloscope Acquisition
#Device Name: ADP3450
#Serial Number: SN:210018B9D9B0
#Date Time: 2024-08-13 16:05:34.814.213.630
#Sample rate: 2.94118e+06Hz
#Samples: 32768
#Trigger: Source: Channel 3 Type: Edge Condition: Rising Level: 60 mV Hyst.: Auto HoldOff: 0 s
#Channel 3: Range: 200 mV/div Offset: 0 V Attenuation: 1 X Coupling: DC Bandwidth: 0 Hz Sample Mode: Average

Time (s),Channel 3 (V)
-0.005570287243510507,0.00403838190664677
-0.005569947243510506,0.002623098923202012
-0.005569607243510507,0.003281370078291956
-0.005569267243510507,0.003775073444610313
-0.005568927243510506,0.003248456520536801
-0.005568587243510507,0.002919320942991828
-0.005568247243510507,0.0030180616162555
-0.005567907243510506,0.002656012480948007
-0.005567567243510507,-0.001392355122855153
-0.005567227243510507,-0.0007340839677640107
-0.005566887243510506,0.003478851424822472
-0.005566547243510507,0.005223269985810825
-0.005566207243510507,0.007066429220066024
-0.005565867243510506,0.001240729497502591
-0.005565527243510507,-0.002511416086510094
-0.005565187243510507,-0.0001087263704274257
-0.005564847243510506,0.0003849769958823696
-0.005564507243510507,-0.004321661763010735
-0.005564167243510507,-0.003893785512201493
-0.005563827243510506,-0.002412675413248039
-0.005563487243510507,-0.003301341472619465
-0.005563147243510507,-0.001984799162437181
-0.005562807243510507,-0.002346848297736651
-0.005562467243510507,-0.003334255030374022
-0.005562127243510507,-0.002017712720191738
-0.005561787243510507,-0.001359441565101793
-0.005561447243510507,-0.002379761855491866
-0.005561107243510507,-0.002281021182228195
-0.005560767243510507,-0.0007011704100123274
-0.005560427243510507,-0.002017712720191738
-0.005560087243510507,-0.002577243202019209
-0.005559747243510507,-0.003531736376899628
-0.005559407243510507,-0.006329388786038719
-0.005559067243510507,-0.007448449749693661
-0.005558727243510507,-0.007514276865202655
-0.005558387243510507,-0.009028300521912402
-0.005558047243510507,-0.01047649706311291
-0.005557707243510507,-0.008468770040088582
-0.005557367243510507,-0.01044358350535836
-0.005557027243510507,-0.01205634783533165
-0.005556687243510507,-0.003795044838952849
-0.005556347243510507,-0.00290637877956478
-0.005556007243510507,-0.003795044838937822
-0.005555667243510507,-0.003301341472620363
-0.005555327243510507,-0.008106720904784802
-0.005554987243510507,-0.01037775638984924
-0.005554647243510507,-0.007777585327243961
-0.005554307243510507,-0.007645931096221003
-0.005553967243510507,-0.008896646290894173
-0.005553627243510507,-0.007744671769484675
-0.005553287243510507,-0.007349709076429989
-0.005552947243510507,-0.008304202251312145
-0.005552607243510507,-0.007810498884993789
-0.005552267243510507,-0.006856005710111633
-0.005551927243510507,-0.007810498884993789
-0.005551587243510507,-0.008007980231521132
-0.005551247243510507,-0.006658524363586326
-0.005550907243510507,-0.007777585327239231
-0.005550567243510507,-0.008337115809066702
-0.005550227243510506,-0.008139634462541035
-0.005549887243510507,-0.009061214079666959
-0.005549547243510507,-0.01031192927434013
-0.005549207243510506,-0.00968657167700486
-0.005548867243510507,-0.0104106699476038
-0.005548527243510507,-0.01034484283209469
-0.005548187243510506,-0.01024610215883407
-0.005547847243510507,-0.01192469360431343
-0.005547507243510507,-0.0111018546604495
-0.005547167243510506,-0.01152973091125976
-0.005546827243510507,-0.01208926139308621
-0.005546487243510507,-0.0152489629375237
-0.005546147243510506,-0.008106720904784983
-0.005545807243510507,-0.008205461578048474
-0.005545467243510507,-0.00837002936682126
-0.005545127243510506,-0.008666251386615087
-0.005544787243510507,-0.01021318860107646
-0.005544447243510507,-0.003432995703637694
-0.005544107243510506,-0.008501683597840147
-0.005543767243510507,-0.008863732733139616
-0.005543427243510507,-0.01054232417862203
-0.005543087243510506,-0.009949880139040121
-0.005542747243510507,-0.01001570725454911
-0.005542407243510507,-0.01136516312248596
-0.005542067243510507,-0.01251713764389336
-0.005541727243510507,-0.01152973091125874
-0.005541387243510507,-0.01268170543266824
-0.005541047243510507,-0.01360328504979416
-0.005540707243510507,-0.0113322495647314
-0.005540367243510507,-0.01106894110269494
-0.005540027243510507,-0.01083854619841346
-0.005539687243510507,-0.009522003888230759
-0.005539347243510507,-0.009028300521912402
-0.005539007243510507,-0.008962473406403408
-0.005538667243510507,-0.008468770040084931
-0.005538327243510507,-0.007744671769484675
-0.005537987243510507,-0.008468770040083614
-0.005537647243510507,-0.008929559848648731
-0.005537307243510507,-0.009916966581285444
-0.005536967243510507,-0.01037775638984841
-0.005536627243510507,-0.0106410648518857
-0.005536287243510507,-0.01551227139956015
-0.005535947243510507,-0.01778330688462046
-0.005535607243510507,-0.01136516312248596
-0.005535267243510507,-0.009094127637421515
-0.005534927243510507,-0.007678844653978134
-0.005534587243510507,-0.01129933600697684
-0.005534247243510507,-0.01241839697063178
-0.005533907243510507,-0.01054232417862544
-0.005533567243510507,-0.009587831003739873
-0.005533227243510507,-0.009686571677003543
-0.005532887243510507,-0.01106894110269494
-0.005532547243510507,-0.01050941062086747
-0.005532207243510507,-0.009884053023530886
-0.005531867243510507,-0.01031192927434013
-0.005531527243510507,-0.01139807668024051
-0.005531187243510507,-0.0106410648518857
-0.005530847243510507,-0.01106894110269494
-0.005530507243510507,-0.01106894110269494
-0.005530167243510507,-0.0108714597561676
-0.005529827243510507,-0.0113322495647314
-0.005529487243510506,-0.01166138514227763
-0.005529147243510507,-0.0120234342775771
-0.005528807243510507,-0.008501683597839487
-0.005528467243510506,-0.01064106485188331
-0.005528127243510507,-0.009324522541703417
-0.005527787243510507,-0.008435856482330374
-0.005527447243510506,-0.008633337828857716
-0.005527107243510507,-0.008633337828857716
-0.005526767243510507,-0.01031192927434013
-0.005526427243510506,-0.01047649706311639
-0.005526087243510507,-0.01238548341287723
-0.005525747243510507,-0.01538061716854192
-0.005525407243510506,-0.009916966581286402
-0.005525067243510507,-0.01044358350535836
-0.005524727243510507,-0.007843412442748346
-0.005524387243510506,-0.01004862081231247
-0.005524047243510507,-0.01488691380222357
-0.005523707243510507,-0.01491982735997812
-0.005523367243510506,-0.01659841880547874
-0.005523027243510507,-0.0266041403628459
-0.005522687243510507,-0.04016452615772342
-0.005522347243510506,-0.06215078273781516
-0.005522007243510507,-0.08831706115264049
-0.005521667243510507,-0.1169847699568597
-0.005521327243510506,-0.1487463531900636
-0.005520987243510507,-0.179685097479291
-0.005520647243510507,-0.2077274486861737
-0.005520307243510507,-0.2310960746918667
-0.005519967243510507,-0.2490339636681428
-0.005519627243510507,-0.2620019054234383
-0.005519287243510507,-0.2677946915882298
-0.005518947243510507,-0.2711847880369598
-0.005518607243510507,-0.2695720237069865
-0.005518267243510507,-0.2656223967764468
-0.005517927243510507,-0.2609486715752925
-0.005517587243510507,-0.255188798968245
-0.005517247243510507,-0.2501530246318069
-0.005516907243510507,-0.2431753503878317
-0.005516567243510507,-0.2367242930679385
-0.005516227243510507,-0.2282984222827872
-0.005515887243510507,-0.2208270446724874
-0.005515547243510507,-0.2146063822568761
-0.005515207243510507,-0.2085832011878031
-0.005514867243510507,-0.1950886425084237
-0.005514527243510507,-0.1880780547067031
-0.005514187243510507,-0.1794217890172703
-0.005513847243510507,-0.1738593977567344
-0.005513507243510507,-0.1722795469845157
-0.005513167243510507,-0.1662563659154427
-0.005512827243510507,-0.1572051375329285
-0.005512487243510507,-0.1526959801205542
-0.005512147243510507,-0.1464094905894338
-0.005511807243510507,-0.1404521366358589
-0.005511467243510507,-0.1373582622069306
-0.005511127243510507,-0.1322566607549742
-0.005510787243510507,-0.1262663932436448
-0.005510447243510507,-0.1227446425639072
-0.005510107243510507,-0.1184000529403057
-0.005509767243510507,-0.1125414396599945
-0.005509427243510507,-0.1081310229208839
-0.005509087243510507,-0.1048067535876736
-0.005508747243510506,-0.1003963368485587
-0.005508407243510507,-0.09805947424798939
-0.005508067243510507,-0.09532764895436113
-0.005507727243510506,-0.0933528354890837
-0.005507387243510507,-0.09114762711953239
-0.005507047243510507,-0.0892057272120135
-0.005506707243510506,-0.0852561002814612
-0.005506367243510507,-0.08226096652580198
-0.005506027243510507,-0.08015449882951031
-0.005505687243510506,-0.07653400747650167
-0.005505347243510507,-0.07248563987269852
-0.005505007243510507,-0.07544786007060864
-0.005504667243510506,-0.06942467900151493
-0.005504327243510507,-0.06405976908753189
-0.005503987243510507,-0.06307236235489516
-0.005503647243510506,-0.06205204206450732
-0.005503307243510507,-0.06392811485651365
-0.005502967243510507,-0.06508008937792314
-0.005502627243510506,-0.06070258619656263
-0.005502287243510507,-0.05826698292272983
-0.005501947243510507,-0.05800367446069338
-0.005501607243510506,-0.05688461349703047
-0.005501267243510507,-0.05250711031568234
-0.005500927243510507,-0.05082851887019993
-0.005500587243510506,-0.04842582915410846
-0.005500247243510507,-0.04358753616419737
-0.005499907243510507,-0.04352170904868825
-0.005499567243510507,-0.04319257347114328
-0.005499227243510507,-0.04171146337218761
-0.005498887243510507,-0.04082279731281457
-0.005498547243510507,-0.04233682096952144
-0.005498207243510507,-0.03535914672555809
-0.005497867243510507,-0.04042783461975989
-0.005497527243510507,-0.04039492106200539
-0.005497187243510507,-0.03789349067265899
-0.005496847243510507,-0.03660986192023126
-0.005496507243510507,-0.03628072634268628
-0.005496167243510507,-0.03532623316780353
-0.005495827243510507,-0.03305519768273909
-0.005495487243510507,-0.034174258646392
-0.005495147243510507,-0.03338433326028466
-0.005494807243510507,-0.03282480277845719
-0.005494467243510507,-0.03739978730633231
-0.005494127243510507,-0.02963218767626515
-0.005493787243510507,-0.02713075728691881
-0.005493447243510507,-0.02676870815161934
-0.005493107243510507,-0.02604460988101842
-0.005492767243510507,-0.02749280642221894
-0.005492427243510507,-0.02788776911527291
-0.005492087243510507,-0.02597878276550931
-0.005491747243510507,-0.02426727776227234
-0.005491407243510507,-0.02604460988101519
-0.005491067243510507,-0.0247609811285907
-0.005490727243510507,-0.021765847372926
-0.005490387243510507,-0.02209498295047157
-0.005490047243510507,-0.02298364900984462
-0.005489707243510507,-0.02295073545209006
-0.005489367243510507,-0.02193041516169879
-0.005489027243510507,-0.0224570320857717
-0.005488687243510507,-0.02071261352478018
-0.005488347243510507,-0.02021891015846182
-0.005488007243510507,-0.02018599660070175
-0.005487667243510507,-0.01715794928728801
-0.005487327243510507,-0.01547935784180559
-0.005486987243510506,-0.01547935784180727
-0.005486647243510507,-0.01640093745893319
-0.005486307243510507,-0.01491982735997812
-0.005485967243510506,-0.01452486466692434
-0.005485627243510507,-0.0150185680332418
-0.005485287243510507,-0.01534770361078737
-0.005484947243510506,-0.01534770361078671
-0.005484607243510507,-0.01498565447548724
-0.005484267243510507,-0.01689464082525155
-0.005483927243510506,-0.01765165265359762
-0.005483587243510507,-0.01284627322144103
-0.005483247243510507,-0.01136516312248596
-0.005482907243510506,-0.01021318860108568
-0.005482567243510507,-0.01528187649527825
-0.005482227243510507,-0.01719086284504256
-0.005481887243510506,-0.01452486466692517
-0.005481547243510507,-0.01547935784180559
-0.005481207243510507,-0.01258296475940457
-0.005480867243510506,-0.0138007663963245
-0.005480527243510507,-0.01452486466692344
-0.005480187243510507,-0.01366911216530495
-0.005479847243510506,-0.01386659351183685
-0.005479507243510507,-0.01636802390117864
-0.005479167243510507,-0.01715794928728801
-0.005478827243510507,-0.01649967813219806
-0.005478487243510507,-0.01784913400013371
-0.005478147243510507,-0.01712503572953345
-0.005477807243510507,-0.01607180188138954
-0.005477467243510507,-0.01732251707606079
-0.005477127243510507,-0.01682881370974244
-0.005476787243510507,-0.0148540002444726
-0.005476447243510507,-0.01419572908937787
-0.005476107243510507,-0.01468943245569622
-0.005475767243510507,-0.01294501389470787
-0.005475427243510507,-0.01324123591449571
-0.005475087243510507,-0.01185886648880431
-0.005474747243510507,-0.01004862081230696
-0.005474407243510507,-0.0108714597561676
-0.005474067243510507,-0.0106410648518857
-0.005473727243510507,-0.01399824774284442
-0.005473387243510507,-0.009916966581285444
-0.005473047243510507,-0.007316795518675433
-0.005472707243510507,-0.01172721225777806
-0.005472367243510507,-0.0134058037032685
-0.005472027243510507,-0.0117930393732952
-0.005471687243510507,-0.01050941062086981
-0.005471347243510507,-0.01215508850859533
-0.005471007243510507,-0.01287918677919558
-0.005470667243510507,-0.01116768177596173
-0.005470327243510507,-0.01097020042943127
-0.005469987243510507,-0.01310958168347748
-0.005469647243510507,-0.01297792745245925
-0.005469307243510507,-0.009192868310685188
-0.005468967243510507,-0.01008153437005823
-0.005468627243510507,-0.01083854619841304
-0.005468287243510507,-0.01083854619841304
-0.005467947243510507,-0.01024610215883101
-0.005467607243510507,-0.01136516312248596
-0.005467267243510507,-0.01011444792781279
-0.005466927243510507,-0.01093728687167671
-0.005466587243510507,-0.0111018546604495
-0.005466247243510506,-0.01060815129412833
-0.005465907243510507,-0.009061214079666959
-0.005465567243510507,-0.01113476821820406
-0.005465227243510506,-0.01018027504332172
-0.005464887243510507,-0.01008153437005823
-0.005464547243510507,-0.01320832235674115
-0.005464207243510506,-0.008896646290896149
-0.005463867243510507,-0.009982793696794558
-0.005463527243510507,-0.009192868310685188
-0.005463187243510506,-0.0083700293668306
-0.005462847243510507,-0.01350454437653217
-0.005462507243510507,-0.01357037149204128
-0.005462167243510506,-0.009916966581287301
-0.005461827243510507,-0.01093728687167671
-0.005461487243510507,-0.01291210033695014
-0.005461147243510506,-0.01258296475940415
-0.005460807243510507,-0.01235256985512267
-0.005460467243510507,-0.01459069178243255
-0.005460127243510506,-0.0143273833203922
-0.005459787243510507,-0.01218800206634988
-0.005459447243510507,-0.01347163081877761
-0.005459107243510506,-0.01297792745245566
-0.005458767243510507,-0.01100311398718583
-0.005458427243510507,-0.01093728687167671
-0.005458087243510506,-0.01133224956472984
-0.005457747243510507,-0.01047649706311291
-0.005457407243510507,-0.009982793696794558
-0.005457067243510507,-0.01060815129413
-0.005456727243510507,-0.01037775638984924
-0.005456387243510507,-0.01024610215883101
-0.005456047243510507,-0.01087145975616646
-0.005455707243510507,-0.008863732733139616
-0.005455367243510507,-0.01054232417862203
-0.005455027243510507,-0.01034484283209505
-0.005454687243510507,-0.0104106699476038
-0.005454347243510507,-0.01255005120165001
-0.005454007243510507,-0.01436029687814736
-0.005453667243510507,-0.009094127637421515
-0.005453327243510507,-0.008402942924575817
-0.005452987243510507,-0.007547190422958889
-0.005452647243510507,-0.01024610215883101
-0.005452307243510507,-0.01330706303000483
-0.005451967243510507,-0.009192868310692671
-0.005451627243510507,-0.008797905617630502
-0.005451287243510507,-0.01238548341287723
-0.005450947243510507,-0.0138995070695841
-0.005450607243510507,-0.0134058037032685
-0.005450267243510507,-0.01195760716206798
-0.005449927243510507,-0.01268170543266692
-0.005449587243510507,-0.01195760716206798
-0.005449247243510507,-0.01129933600697684
-0.005448907243510507,-0.01120059533371335
-0.005448567243510507,-0.01129933600697684
-0.005448227243510507,-0.009818225908021772
-0.005447887243510507,-0.009258695426194301
-0.005447547243510507,-0.01024610215883101
-0.005447207243510507,-0.00962074456149443
-0.005446867243510507,-0.008666251386612273
-0.005446527243510507,-0.009818225908021772
-0.005446187243510507,-0.009028300521912402
-0.005445847243510507,-0.009127041195176074
-0.005445507243510507,-0.01018027504332274
-0.005445167243510507,-0.0106410648518857
-0.005444827243510507,-0.01143099023799507
-0.005444487243510506,-0.01225382918185995
-0.005444147243510507,-0.01278044610593191
-0.005443807243510507,-0.01626928322791496
-0.005443467243510506,-0.01251713764389109
-0.005443127243510507,-0.01011444792781279
-0.005442787243510507,-0.008205461578048474
-0.005442447243510506,-0.0090283005219218
-0.005442107243510507,-0.01419572908937787
-0.005441767243510507,-0.01561101207282382
-0.005441427243510506,-0.01333997658776106
-0.005441087243510507,-0.01426155620488698
-0.005440747243510507,-0.01320832235674115
-0.005440407243510506,-0.01347163081877851
-0.005440067243510507,-0.01396533418509597
-0.005439727243510507,-0.01199052071982254
-0.005439387243510506,-0.0124183969706313
-0.005439047243510507,-0.01215508850859533
-0.005438707243510507,-0.01083854619841304
-0.005438367243510506,-0.01172721225778519
-0.005438027243510507,-0.01123350889146773
-0.005437687243510507,-0.01037775638984924
-0.005437347243510506,-0.009949880139042036
-0.005437007243510507,-0.01106894110269494
-0.005436667243510507,-0.01008153437005823
-0.005436327243510507,-0.0104435835053577
-0.005435987243510507,-0.01199052071982254
-0.005435647243510507,-0.01238548341287723
-0.005435307243510507,-0.01176012581554178
-0.005434967243510507,-0.01129933600697684
-0.005434627243510507,-0.01090437331392216
-0.005434287243510507,-0.009719485234760256
-0.005433947243510507,-0.008238375135803031
-0.005433607243510507,-0.008534597155594046
-0.005433267243510507,-0.01136516312248081
-0.005432927243510507,-0.006987659941129861
-0.005432587243510507,-0.006691437921338847
-0.005432247243510507,-0.006461043017057366
-0.005431907243510507,-0.007283881960920875
-0.005431567243510507,-0.01159555802676786
-0.005431227243510507,-0.01123350889146839
-0.005430887243510507,-0.008073807347030245
-0.005430547243510507,-0.008764992059875945
-0.005430207243510507,-0.008007980231522509
-0.005429867243510507,-0.008271288693557588
-0.005429527243510507,-0.009916966581285444
-0.005429187243510507,-0.008534597155596561
-0.005428847243510507,-0.007481363307448217
-0.005428507243510507,-0.008896646290894173
-0.005428167243510507,-0.009127041195175654
-0.005427827243510507,-0.009127041195176074
-0.005427487243510507,-0.01031192927434013
-0.005427147243510507,-0.0111018546604495
-0.005426807243510507,-0.01159555802676786
-0.005426467243510507,-0.01215508850859533
-0.005426127243510507,-0.01212217495084077
-0.005425787243510507,-0.01149681735350419
-0.005425447243510507,-0.01238548341287723
-0.005425107243510507,-0.01241839697063178
-0.005424767243510507,-0.009258695426194301
-0.005424427243510507,-0.009752398792512659
-0.005424087243510507,-0.01116768177595861
-0.005423747243510506,-0.01034484283209612
-0.005423407243510507,-0.01113476821820406
-0.005423067243510507,-0.01521604937976914
-0.005422727243510506,-0.01561101207281466
-0.005422387243510507,-0.01057523773637659
-0.005422047243510507,-0.01083854619841304
-0.005421707243510506,-0.008863732733143568
-0.005421367243510507,-0.01103602754494038
-0.005421027243510507,-0.0150185680332418
-0.005420687243510506,-0.01172721225778297
-0.005420347243510507,-0.01001570725454911
-0.005420007243510507,-0.01195760716206798
-0.005419667243510506,-0.01271461899042178
-0.005419327243510507,-0.01215508850859533
-0.005418987243510507,-0.0138665935118323
-0.005418647243510506,-0.01337289014551262
-0.005418307243510507,-0.01264879187491368
-0.005417967243510507,-0.01324123591449571
-0.005417627243510506,-0.01301084101021148
-0.005417287243510507,-0.01172721225778608
-0.005416947243510507,-0.01097020042943127
-0.005416607243510506,-0.01050941062086376
-0.005416267243510507,-0.008468770040084931
