Analysis/files/cmb03_wrd01/d2s03_ch00.csv

#Digilent WaveForms Oscilloscope Acquisition
#Device Name: ADP3450
#Serial Number: SN:210018B9D9B0
#Date Time: 2024-08-13 11:25:03.692.811.140
#Sample rate: 2.94118e+06Hz
#Samples: 32768
#Trigger: Source: Channel 3 Type: Edge Condition: Rising Level: 60 mV Hyst.: Auto HoldOff: 0 s
#Channel 3: Range: 200 mV/div Offset: 0 V Attenuation: 1 X Coupling: DC Bandwidth: 0 Hz Sample Mode: Average

Time (s),Channel 3 (V)
-0.005570381418269231,0.004992875081528926
-0.00557004141826923,0.004433344599704568
-0.005569701418269231,0.006144849602938425
-0.005569361418269231,0.006605639411502225
-0.00556902141826923,0.004861220850511476
-0.005568681418269231,0.00528909710131994
-0.005568341418269231,0.007691786817402609
-0.00556800141826923,0.008251317299226128
-0.005567661418269231,0.00607902248742931
-0.005567321418269231,0.00482830729275614
-0.00556698141826923,0.005486578447845666
-0.005566641418269231,0.004597912388474241
-0.005566301418269231,-0.0004378619479729968
-0.00556596141826923,-0.0007340839677627535
-0.005565621418269231,-4.289925491831147e-05
-0.005565281418269231,-0.001326528007346039
-0.00556494141826923,-0.0008986517565381733
-0.005564601418269231,-0.00165566358489161
-0.005564261418269231,-0.002215194066719081
-0.00556392141826923,-0.001655663584890592
-0.005563581418269231,-0.001096133103064139
-0.005563241418269231,-0.002939292337319337
-0.005562901418269231,-0.004255834647499226
-0.005562561418269231,-0.001984799162437181
-0.005562221418269231,-0.003169687241601236
-0.005561881418269231,-0.004749538013817104
-0.005561541418269231,-0.008402942924575817
-0.005561201418269231,-0.002215194066719081
-0.005560861418269231,-0.002478502528755058
-0.005560521418269231,0.0005495447846637165
-0.005560181418269231,-0.003432995703637694
-0.005559841418269231,-0.009522003888219683
-0.005559501418269231,-0.006329388786038719
-0.005559161418269231,-0.004321661763010735
-0.005558821418269231,-0.002577243202022381
-0.005558481418269231,-0.003762131281183265
-0.005558141418269231,-0.002248107624473638
-0.005557801418269231,-0.002313934739982632
-0.005557461418269231,-0.0008657381987822392
-0.005557121418269231,-0.0004049483902184396
-0.005556781418269231,-0.003202600799350705
-0.005556441418269231,-0.002149366951209966
-0.005556101418269231,-0.002215194066719081
-0.005555761418269231,-0.002741810990791036
-0.005555421418269231,-0.003465909261392251
-0.005555081418269231,-0.001918972046928067
-0.005554741418269231,-0.003136773683844464
-0.00555440141826923,-0.002972205895073894
-0.005554061418269231,-0.002544329644264652
-0.005553721418269231,-0.00392669906995605
-0.00555338141826923,-0.004025439743219721
-0.005553041418269231,-0.003202600799355794
-0.005552701418269231,-0.004190007531992507
-0.00555236141826923,-0.003959612627710607
-0.005552021418269231,-0.002610156759773766
-0.005551681418269231,-0.003202600799355794
-0.00555134141826923,-0.007250968403172005
-0.005551001418269231,-0.01037775638984924
-0.005550661418269231,-0.004584970225047193
-0.00555032141826923,-0.005572376957682588
-0.005549981418269231,-0.004848278687083649
-0.005549641418269231,-0.00711931417214809
-0.00554930141826923,-0.01083854619840418
-0.005548961418269231,-0.005967339650738591
-0.005548621418269231,-0.004782451571574535
-0.00554828141826923,-0.006461043017057965
-0.005547941418269231,-0.007020573498884419
-0.005547601418269231,-0.005901512535229476
-0.00554726141826923,-0.007547190422959128
-0.005546921418269231,-0.008534597155594046
-0.005546581418269231,-0.00711931417214809
-0.00554624141826923,-0.008929559848648372
-0.005545901418269231,-0.008732078502121389
-0.005545561418269231,-0.008073807347030245
-0.00554522141826923,-0.008830819175385958
-0.005544881418269231,-0.009324522541703417
-0.005544541418269231,-0.008073807347030245
-0.00554420141826923,-0.008271288693559623
-0.005543861418269231,-0.00939034965721253
-0.005543521418269231,-0.00767884465397556
-0.00554318141826923,-0.007942153116012495
-0.005542841418269231,-0.008205461578048474
-0.005542501418269231,-0.008139634462539359
-0.005542161418269231,-0.007810498884994388
-0.005541821418269231,-0.008468770040084931
-0.005541481418269231,-0.008172548020293918
-0.005541141418269231,-0.01047649706310872
-0.005540801418269231,-0.01518313582201458
-0.005540461418269231,-0.009719485234758102
-0.005540121418269231,-0.007514276865206787
-0.005539781418269231,-0.007250968403166318
-0.005539441418269231,-0.006461043017056948
-0.005539101418269231,-0.01189178004654899
-0.005538761418269231,-0.01169429870003153
-0.005538421418269231,-0.008995386964157845
-0.005538081418269231,-0.009554917445984298
-0.005537741418269231,-0.01278044610593191
-0.005537401418269231,-0.01218800206634988
-0.005537061418269231,-0.009587831003744603
-0.005536721418269231,-0.009192868310685188
-0.005536381418269231,-0.009818225908021772
-0.005536041418269231,-0.007119314172152999
-0.005535701418269231,-0.009851139465776329
-0.005535361418269231,-0.008337115809066702
-0.005535021418269231,-0.007185141287659299
-0.005534681418269231,-0.006790178594602518
-0.005534341418269231,-0.006296475228284162
-0.005534001418269231,-0.006066080324002681
-0.00553366141826923,-0.005736944746456691
-0.005533321418269231,-0.007744671769484675
-0.005532981418269231,-0.006954746383375304
-0.00553264141826923,-0.007349709076429989
-0.005532301418269231,-0.004848278687083649
-0.005531961418269231,-0.007316795518675433
-0.00553162141826923,-0.005967339650738591
-0.005531281418269231,-0.006164820997265934
-0.005530941418269231,-0.00494701936034732
-0.00553060141826923,-0.005440722726665677
-0.005530261418269231,-0.009192868310685188
-0.005529921418269231,-0.002050626277946295
-0.00552958141826923,-0.001096133103067492
-0.005529241418269231,-0.002939292337319337
-0.005528901418269231,-0.005078673591365549
-0.00552856141826923,-0.009587831003740112
-0.005528221418269231,-0.009719485234758102
-0.005527881418269231,-0.007744671769484675
-0.00552754141826923,-0.008896646290893933
-0.005527201418269231,-0.008764992059875945
-0.005526861418269231,-0.00860042427110316
-0.00552652141826923,-0.006131907439512753
-0.005526181418269231,-0.00688891926786619
-0.005525841418269231,-0.008501683597839487
-0.00552550141826923,-0.009291608983946823
-0.005525161418269231,-0.008172548020293918
-0.005524821418269231,-0.008205461578048474
-0.00552448141826923,-0.008567510713350757
-0.005524141418269231,-0.009752398792512659
-0.005523801418269231,-0.01182595293104976
-0.00552346141826923,-0.0124183969706431
-0.005523121418269231,-0.01863905938624308
-0.005522781418269231,-0.03374638239558479
-0.00552244141826923,-0.05323120858632582
-0.005522101418269231,-0.07699479728507283
-0.005521761418269231,-0.106189123013365
-0.00552142141826923,-0.1372266079759686
-0.005521081418269231,-0.1681324387074415
-0.005520741418269231,-0.1932783968319231
-0.005520401418269231,-0.2152975669696817
-0.005520061418269231,-0.2357697998930563
-0.005519721418269231,-0.2479149027044879
-0.005519381418269231,-0.2512720855954466
-0.005519041418269231,-0.2521607516548258
-0.005518701418269231,-0.2506796415558707
-0.005518361418269231,-0.2506796415558707
-0.005518021418269231,-0.2452159909686142
-0.005517681418269231,-0.235276096526738
-0.005517341418269231,-0.2278047189164671
-0.005517001418269231,-0.2213865751543149
-0.005516661418269231,-0.2137835433130122
-0.005516321418269231,-0.2081882384947477
-0.005515981418269231,-0.1994332321320253
-0.005515641418269231,-0.1927517799078502
-0.005515301418269231,-0.1873868699938671
-0.005514961418269231,-0.1818244787333372
-0.005514621418269231,-0.1748468044893711
-0.005514281418269231,-0.1694489810176336
-0.005513941418269231,-0.1649398236052494
-0.005513601418269231,-0.1585875069586199
-0.005513261418269231,-0.1550657562788887
-0.005512921418269231,-0.1486146989589891
-0.005512581418269231,-0.14334852971826
-0.005512241418269231,-0.1402546552893316
-0.00551190141826923,-0.1358771521079755
-0.005511561418269231,-0.1296235761346096
-0.005511221418269231,-0.1224155069863616
-0.00551088141826923,-0.1196507681349789
-0.005510541418269231,-0.1137592412969131
-0.005510201418269231,-0.1101387499439118
-0.00550986141826923,-0.1066499128219288
-0.005509521418269231,-0.1070448755149835
-0.005509181418269231,-0.100165941944281
-0.00550884141826923,-0.09532764895435317
-0.005508501418269231,-0.09095014577300503
-0.005508161418269231,-0.08683595105368541
-0.00550782141826923,-0.09019313394464244
-0.005507481418269231,-0.08591437143655781
-0.005507141418269231,-0.08147104113969258
-0.00550680141826923,-0.07956205478992422
-0.005506461418269231,-0.07732393286261841
-0.005506121418269231,-0.07478958891551751
-0.00550578141826923,-0.07176154160209765
-0.005505441418269231,-0.07143240602455267
-0.005505101418269231,-0.06902971630847002
-0.00550476141826923,-0.06873349428867445
-0.005504421418269231,-0.06623206389933264
-0.005504081418269231,-0.06445473178058658
-0.00550374141826923,-0.06287488100836472
-0.005503401418269231,-0.06116337600513086
-0.005503061418269231,-0.05655547791949286
-0.00550272141826923,-0.05369199839484053
-0.005502381418269231,-0.0504664697348998
-0.005502041418269231,-0.04750424953698966
-0.00550170141826923,-0.04460785645458791
-0.005501361418269231,-0.04421289376153395
-0.005501021418269231,-0.04131650067913292
-0.00550068141826923,-0.0399341312534435
-0.005500341418269231,-0.04102027865934191
-0.005500001418269231,-0.04019743971547798
-0.005499661418269231,-0.04144815491014887
-0.005499321418269231,-0.04042783461975989
-0.005498981418269231,-0.04391667174174294
-0.005498641418269231,-0.03614907211168158
-0.005498301418269231,-0.03374638239558479
-0.005497961418269231,-0.03177156893031136
-0.005497621418269231,-0.02861186738587963
-0.005497281418269231,-0.03302228412498454
-0.005496941418269231,-0.03163991469929314
-0.005496601418269231,-0.02821690469282542
-0.005496261418269231,-0.0284472995971011
-0.005495921418269231,-0.02956636056075604
-0.005495581418269231,-0.02848021315485763
-0.005495241418269231,-0.02877643517464666
-0.005494901418269231,-0.03019171815809262
-0.005494561418269231,-0.0280852504618048
-0.005494221418269231,-0.02848021315485565
-0.005493881418269231,-0.0277561148842554
-0.005493541418269231,-0.02624209122754852
-0.005493201418269231,-0.02561673363020918
-0.005492861418269231,-0.02462932689757247
-0.005492521418269231,-0.02258868631679364
-0.005492181418269231,-0.01995560169642536
-0.005491841418269231,-0.02123923044885309
-0.005491501418269231,-0.0199226881386732
-0.00549116141826923,-0.02110757621783486
-0.005490821418269231,-0.01982394746540713
-0.005490481418269231,-0.01847449159747029
-0.00549014141826923,-0.01939607121459789
-0.005489801418269231,-0.01870488650175219
-0.005489461418269231,-0.01653259168995142
-0.00548912141826923,-0.01564392563057838
-0.005488781418269231,-0.02058095929376194
-0.005488441418269231,-0.0199226881386708
-0.00548810141826923,-0.01449195110916242
-0.005487761418269231,-0.01093728687167671
-0.005487421418269231,-0.01399824774285052
-0.00548708141826923,-0.01587432053486549
-0.005486741418269231,-0.01873780005950675
-0.005486401418269231,-0.01564392563057838
-0.00548606141826923,-0.01383367995408019
-0.005485721418269231,-0.01518313582201458
-0.005485381418269231,-0.01630219678566952
-0.00548504141826923,-0.01465651889794167
-0.005484701418269231,-0.01465651889794167
-0.005484361418269231,-0.01544644428405104
-0.00548402141826923,-0.01357037149204032
-0.005483681418269231,-0.01304375456796837
-0.005483341418269231,-0.01278044610593191
-0.00548300141826923,-0.01136516312248003
-0.005482661418269231,-0.008106720904784802
-0.005482321418269231,-0.009653658119248986
-0.00548198141826923,-0.008172548020295654
-0.005481641418269231,-0.009127041195176074
-0.005481301418269231,-0.01222091562410444
-0.00548096141826923,-0.01406407485836096
-0.005480621418269231,-0.01478817312895989
-0.005480281418269231,-0.01426155620488698
-0.00547994141826923,-0.01409698841611198
-0.005479601418269231,-0.01287918677919558
-0.005479261418269231,-0.01389950706958685
-0.005478921418269231,-0.01251713764389797
-0.005478581418269231,-0.01004862081230367
-0.005478241418269231,-0.01498565447548724
-0.005477901418269231,-0.01436029687815179
-0.005477561418269231,-0.006790178594602518
-0.005477221418269231,-0.01050941062086747
-0.005476881418269231,-0.01383367995407169
-0.005476541418269231,-0.01195760716206798
-0.005476201418269231,-0.012253829181859
-0.005475861418269231,-0.01291210033694894
-0.005475521418269231,-0.0106410648518857
-0.005475181418269231,-0.009851139465776329
-0.005474841418269231,-0.01106894110269273
-0.005474501418269231,-0.009818225908021772
-0.005474161418269231,-0.007547190422957332
-0.005473821418269231,-0.00721805484541236
-0.005473481418269231,-0.00688891926786619
-0.005473141418269231,-0.006790178594602518
-0.005472801418269231,-0.007349709076428972
-0.005472461418269231,-0.008139634462539359
-0.005472121418269231,-0.008073807347030245
-0.005471781418269231,-0.01126642244921648
-0.005471441418269231,-0.01169429870003153
-0.005471101418269231,-0.01162847158452241
-0.005470761418269231,-0.01185886648880389
-0.00547042141826923,-0.01228674273961356
-0.005470081418269231,-0.0108714597561676
-0.005469741418269231,-0.01027901571658557
-0.00546940141826923,-0.009423263214967087
-0.005469061418269231,-0.008139634462539359
-0.005468721418269231,-0.008732078502121389
-0.00546838141826923,-0.008534597155594046
-0.005468041418269231,-0.009028300521912402
-0.005467701418269231,-0.008534597155594046
-0.00546736141826923,-0.007481363307448217
-0.005467021418269231,-0.006066080324002262
-0.005466681418269231,-0.00313677368384668
-0.00546634141826923,-0.006987659941134351
-0.005466001418269231,-0.009456176772721644
-0.005465661418269231,-0.006724351479093405
-0.00546532141826923,-0.006625610805832667
-0.005464981418269231,-0.008238375135803031
-0.005464641418269231,-0.008040893789275689
-0.00546430141826923,-0.009752398792513198
-0.005463961418269231,-0.01004862081230367
-0.005463621418269231,-0.008172548020293918
-0.00546328141826923,-0.01004862081230349
-0.005462941418269231,-0.009949880139040001
-0.005462601418269231,-0.009785312350267215
-0.00546226141826923,-0.008929559848653582
-0.005461921418269231,-0.01159555802676786
-0.005461581418269231,-0.01120059533371317
-0.00546124141826923,-0.01205634783533285
-0.005460901418269231,-0.0127146189904228
-0.005460561418269231,-0.01182595293104976
-0.00546022141826923,-0.01251713764389695
-0.005459881418269231,-0.01333997658775938
-0.005459541418269231,-0.01149681735350419
-0.00545920141826923,-0.01064106485188564
-0.005458861418269231,-0.01060815129413114
-0.005458521418269231,-0.008468770040084931
-0.00545818141826923,-0.007909239558259196
-0.005457841418269231,-0.008863732733139616
-0.005457501418269231,-0.01044358350535836
-0.005457161418269231,-0.004255834647512877
-0.005456821418269231,-0.002741810990791994
-0.005456481418269231,-0.002346848297737309
-0.005456141418269231,-0.00376213128118069
-0.005455801418269231,-0.009884053023530886
-0.005455461418269231,-0.00939034965721253
-0.005455121418269231,-0.00794215311601465
-0.005454781418269231,-0.009686571677003543
-0.005454441418269231,-0.0106410648518857
-0.005454101418269231,-0.008501683597843378
-0.005453761418269231,-0.009785312350267215
-0.005453421418269231,-0.009522003888230759
-0.005453081418269231,-0.00830420225131436
-0.005452741418269231,-0.00837002936682126
-0.005452401418269231,-0.009225781868439744
-0.005452061418269231,-0.009225781868439744
-0.005451721418269231,-0.008172548020293918
-0.005451381418269231,-0.008732078502121389
-0.005451041418269231,-0.00751427686520499
-0.005450701418269231,-0.006625610805829733
-0.005450361418269231,-0.00767884465397556
-0.005450021418269231,-0.005572376957687737
-0.005449681418269231,-0.006428129459302391
-0.005449341418269231,-0.00711931417214809
-0.005449001418269231,-0.006790178594603117
-0.00544866141826923,-0.004782451571574535
-0.005448321418269231,-0.006296475228284162
-0.005447981418269231,-0.005769858304211248
-0.00544764141826923,-0.004979932918101878
-0.005447301418269231,-0.008929559848648731
-0.005446961418269231,-0.01044358350535836
-0.00544662141826923,-0.003729217723428708
-0.005446281418269231,-0.006098993881756819
-0.005445941418269231,-0.004255834647501621
-0.00544560141826923,-0.00711931417215731
-0.005445261418269231,-0.01218800206634988
-0.005444921418269231,-0.009028300521912402
-0.00544458141826923,-0.005769858304215439
-0.005444241418269231,-0.008073807347030245
-0.005443901418269231,-0.009587831003739873
-0.00544356141826923,-0.007711758211728262
-0.005443221418269231,-0.006691437921338847
-0.005442881418269231,-0.004881192244838206
-0.00544254141826923,-0.008929559848648072
-0.005442201418269231,-0.008567510713348603
-0.005441861418269231,-0.009653658119248986
-0.00544152141826923,-0.009291608983948858
-0.005441181418269231,-0.009291608983948858
-0.005440841418269231,-0.009851139465776329
-0.00544050141826923,-0.009061214079665581
-0.005440161418269231,-0.008304202251312145
-0.005439821418269231,-0.007613017538466446
-0.00543948141826923,-0.006691437921338727
-0.005439141418269231,-0.006625610805829733
-0.005438801418269231,-0.006296475228284162
-0.00543846141826923,-0.005638204073193079
-0.005438121418269231,-0.005671117630947577
-0.005437781418269231,-0.007843412442748346
-0.00543744141826923,-0.009258695426194841
-0.005437101418269231,-0.009554917445985316
-0.005436761418269231,-0.01515022226426002
-0.005436421418269231,-0.009028300521923539
-0.005436081418269231,-0.008304202251312145
-0.005435741418269231,-0.005144500706874663
-0.005435401418269231,-0.003465909261395304
-0.005435061418269231,-0.005506549842174791
-0.005434721418269231,-0.005638204073193019
-0.005434381418269231,-0.005572376957684025
-0.005434041418269231,-0.004782451571574535
-0.005433701418269231,-0.007053487056638975
-0.005433361418269231,-0.009851139465771239
-0.005433021418269231,-0.01281335966368647
-0.005432681418269231,-0.01245131052838634
-0.005432341418269231,-0.01307666812572179
-0.005432001418269231,-0.01215508850859533
-0.005431661418269231,-0.0115626444690133
-0.005431321418269231,-0.01307666812572017
-0.005430981418269231,-0.009785312350267215
-0.005430641418269231,-0.007349709076429989
-0.005430301418269231,-0.007382622634184486
-0.005429961418269231,-0.007316795518675433
-0.005429621418269231,-0.003827958396692379
-0.005429281418269231,-0.00346590926139291
-0.005428941418269231,-0.003959612627710607
-0.005428601418269231,-0.003202600799355794
-0.005428261418269231,-0.004091266858727219
-0.00542792141826923,-0.003959612627710607
-0.005427581418269231,-0.004321661763010735
-0.005427241418269231,-0.006329388786038719
-0.00542690141826923,-0.008337115809066702
-0.005426561418269231,-0.01083854619841304
-0.005426221418269231,-0.01357037149204128
-0.00542588141826923,-0.008040893789275689
-0.005425541418269231,-0.007053487056638975
-0.005425201418269231,-0.006098993881756819
-0.00542486141826923,-0.006724351479093405
-0.005424521418269231,-0.009456176772721644
-0.005424181418269231,-0.007448449749693661
-0.00542384141826923,-0.00685600571011325
-0.005423501418269231,-0.007744671769484675
-0.005423161418269231,-0.007250968403166318
-0.00542282141826923,-0.007547190422957691
-0.005422481418269231,-0.007744671769484675
-0.005422141418269231,-0.007250968403166318
-0.00542180141826923,-0.00807380734702845
-0.005421461418269231,-0.007086400614393532
-0.005421121418269231,-0.00688891926786619
-0.00542078141826923,-0.005671117630946679
-0.005420441418269231,-0.00517741426462922
-0.005420101418269231,-0.003531736376901365
-0.00541976141826923,-0.003926699069959043
-0.005419421418269231,-0.005572376957683906
-0.005419081418269231,-0.004453315994028964
-0.00541874141826923,-0.007250968403168952
-0.005418401418269231,-0.00869916494436683
-0.005418061418269231,-0.01054232417862203
-0.00541772141826923,-0.01064106485188618
-0.005417381418269231,-0.01090437331392216
-0.005417041418269231,-0.01044358350535836
-0.00541670141826923,-0.01083854619841101
