Analysis/files/cmb03_wrd01/d2s04_ch40.csv

#Digilent WaveForms Oscilloscope Acquisition
#Device Name: ADP3450
#Serial Number: SN:210018B9D9B0
#Date Time: 2024-08-13 12:28:30.329.413.730
#Sample rate: 2.94118e+06Hz
#Samples: 32768
#Trigger: Source: Channel 3 Type: Edge Condition: Rising Level: 60 mV Hyst.: Auto HoldOff: 0 s
#Channel 3: Range: 200 mV/div Offset: 0 V Attenuation: 1 X Coupling: DC Bandwidth: 0 Hz Sample Mode: Average

Time (s),Channel 3 (V)
-0.005570532913198574,0.01150975951693123
-0.005570192913198573,0.01289212894262066
-0.005569852913198573,0.01180598153672225
-0.005569512913198574,0.01114771038163111
-0.005569172913198573,0.01081857480408374
-0.005568832913198573,0.00983116807144882
-0.005568492913198574,0.00357759209808297
-0.005568152913198573,0.006210676718453765
-0.005567812913198573,0.009633686724921478
-0.005567472913198574,0.003413024309310185
-0.005567132913198573,0.001899000652605168
-0.005566792913198573,0.004433344599701455
-0.005566452913198574,0.003281370078291956
-0.005566112913198573,0.000549544784666231
-0.005565772913198573,0.001931914210355115
-0.005565432913198574,0.001372383728527644
-0.005565092913198573,-0.000569516178990866
-0.005564752913198573,-0.0003720348324638825
-0.005564412913198574,-0.0003062077169547683
-0.005564072913198573,-0.00135944156509874
-0.005563732913198573,-0.0003391212747093254
-0.005563392913198574,-0.0004378619479729968
-0.005563052913198574,-0.0003720348324640023
-0.005562712913198573,0.00153695151730043
-0.005562372913198574,0.001339470170773087
-0.005562032913198574,0.0001874956493656836
-0.005561692913198573,-0.001688577142646167
-0.005561352913198573,-0.0001087263704274257
-0.005561012913198574,-0.001458182238361812
-0.005560672913198573,-0.003498822819146808
-0.005560332913198573,-0.0005366026212366681
-0.005559992913198574,-0.003103860126087452
-0.005559652913198573,-0.00415709397423795
-0.005559312913198573,-0.004519143109538078
-0.005558972913198574,-0.005309068495646011
-0.005558632913198573,-0.007250968403166318
-0.005558292913198573,-0.003268427914864908
-0.005557952913198574,-0.00823837513579399
-0.005557612913198573,-0.005473636284420234
-0.005557272913198573,-0.004848278687083649
-0.005556932913198574,-0.002248107624478368
-0.005556592913198573,-0.005967339650738591
-0.005556252913198573,-0.008337115809066702
-0.005555912913198574,-0.00586859897747941
-0.005555572913198573,-0.005802771861965805
-0.005555232913198573,-0.005341982053402005
-0.005554892913198574,-0.00458497022504857
-0.005554552913198573,-0.003564649934655922
-0.005554212913198573,-0.003202600799355794
-0.005553872913198574,-0.002346848297737309
-0.005553532913198573,-0.003663390607919593
-0.005553192913198573,-0.002544329644264652
-0.005552852913198574,-0.003169687241601236
-0.005552512913198573,-0.004091266858728836
-0.005552172913198573,-0.00438748887851985
-0.005551832913198574,-0.004255834647501621
-0.005551492913198573,-0.007185141287657024
-0.005551152913198573,-0.007086400614393532
-0.005550812913198574,-0.004255834647501621
-0.005550472913198573,-0.007020573498885137
-0.005550132913198573,-0.007415536191939104
-0.005549792913198574,-0.00837002936682126
-0.005549452913198573,-0.007613017538466446
-0.005549112913198573,-0.007613017538466446
-0.005548772913198574,-0.009258695426194301
-0.005548432913198573,-0.008732078502124681
-0.005548092913198573,-0.01054232417862203
-0.005547752913198574,-0.01090437331392216
-0.005547412913198573,-0.00497993291810086
-0.005547072913198573,-0.004420402436274407
-0.005546732913198574,-0.003038033010583008
-0.005546392913198573,-0.003959612627718928
-0.005546052913198573,-0.008534597155594046
-0.005545712913198574,-0.008501683597839487
-0.005545372913198573,-0.008007980231525982
-0.005545032913198573,-0.01067397840964026
-0.005544692913198574,-0.01014736148556734
-0.005544352913198573,-0.009522003888232674
-0.005544012913198573,-0.01057523773637659
-0.005543672913198574,-0.01067397840964026
-0.005543332913198573,-0.009094127637418641
-0.005542992913198573,-0.007514276865202775
-0.005542652913198574,-0.008995386964157845
-0.005542312913198574,-0.008139634462540915
-0.005541972913198573,-0.008402942924575817
-0.005541632913198574,-0.00619773455502049
-0.005541292913198574,-0.004979932918104093
-0.005540952913198573,-0.006164820997265934
-0.005540612913198573,-0.008304202251312145
-0.005540272913198574,-0.005835685419724852
-0.005539932913198573,-0.005835685419720362
-0.005539592913198573,-0.007942153116012016
-0.005539252913198574,-0.008929559848646936
-0.005538912913198573,-0.007053487056638975
-0.005538572913198573,-0.006098993881756819
-0.005538232913198574,-0.006296475228283803
-0.005537892913198573,-0.005769858304211248
-0.005537552913198573,-0.01070689196739481
-0.005537212913198574,-0.01011444792781386
-0.005536872913198573,-0.004288748205256179
-0.005536532913198573,-0.005276154937892892
-0.005536192913198574,-0.004617883782802947
-0.005535852913198573,-0.007250968403166318
-0.005535512913198573,-0.009884053023530886
-0.005535172913198574,-0.008304202251315019
-0.005534832913198573,-0.006526870132566062
-0.005534492913198573,-0.00860042427110316
-0.005534152913198574,-0.008995386964157127
-0.005533812913198573,-0.007481363307448217
-0.005533472913198573,-0.008238375135803031
-0.005533132913198574,-0.008435856482330374
-0.005532792913198573,-0.007514276865202775
-0.005532452913198573,-0.007942153116012016
-0.005532112913198574,-0.01001570725454911
-0.005531772913198573,-0.005934426092984033
-0.005531432913198573,-0.008271288693557588
-0.005531092913198574,-0.009522003888230759
-0.005530752913198573,-0.008995386964157845
-0.005530412913198573,-0.01054232417862203
-0.005530072913198574,-0.01360328504979584
-0.005529732913198573,-0.01294501389470422
-0.005529392913198573,-0.01268170543266824
-0.005529052913198574,-0.01357037149204128
-0.005528712913198573,-0.0117930393732928
-0.005528372913198573,-0.01047649706311291
-0.005528032913198574,-0.009982793696794558
-0.005527692913198573,-0.009324522541702339
-0.005527352913198573,-0.008732078502121389
-0.005527012913198574,-0.01429446976264154
-0.005526672913198573,-0.006263561670527449
-0.005526332913198573,-0.005078673591365549
-0.005525992913198574,-0.005704031188702134
-0.005525652913198573,-0.004354575320777924
-0.005525312913198573,-0.01129933600697684
-0.005524972913198574,-0.01011444792781279
-0.005524632913198573,-0.009258695426193703
-0.005524292913198573,-0.008929559848648731
-0.005523952913198574,-0.01037775638984924
-0.005523612913198573,-0.01199052071983308
-0.005523272913198573,-0.01778330688462459
-0.005522932913198574,-0.02798650978853729
-0.005522592913198573,-0.04470659712789146
-0.005522252913198573,-0.06623206389933264
-0.005521912913198574,-0.09414276087519707
-0.005521572913198573,-0.127155059303074
-0.005521232913198573,-0.1580279764767924
-0.005520892913198574,-0.1880780547067031
-0.005520552913198574,-0.2176673431279961
-0.005520212913198573,-0.2406739199984853
-0.005519872913198574,-0.2568344768559729
-0.005519532913198574,-0.267366815337412
-0.005519192913198573,-0.2718101456342963
-0.005518852913198573,-0.2716784914032781
-0.005518512913198574,-0.2702961219775892
-0.005518172913198573,-0.265523656103176
-0.005517832913198573,-0.2579864513773824
-0.005517492913198574,-0.2524240601168723
-0.005517152913198573,-0.2448210282755595
-0.005516812913198573,-0.2384028845134209
-0.005516472913198574,-0.2342886897941087
-0.005516132913198573,-0.2224068954447061
-0.005515792913198573,-0.2118745569632479
-0.005515452913198574,-0.2048639691615399
-0.005515112913198573,-0.1994332321320253
-0.005514772913198573,-0.1957469136635149
-0.005514432913198574,-0.1869260801853096
-0.005514092913198573,-0.1800142330568366
-0.005513752913198573,-0.1726415961198158
-0.005513412913198574,-0.1673425133213417
-0.005513072913198573,-0.1586204205163745
-0.005512732913198573,-0.147133588860034
-0.005512392913198574,-0.1435460110647873
-0.005512052913198573,-0.1392014214411858
-0.005511712913198573,-0.1339352522004566
-0.005511372913198574,-0.1288665643062548
-0.005511032913198573,-0.1272867135340361
-0.005510692913198573,-0.1218230629467796
-0.005510352913198574,-0.1167872886103324
-0.005510012913198573,-0.1147137344717953
-0.005509672913198573,-0.1098754414818754
-0.005509332913198574,-0.1061562094556104
-0.005508992913198573,-0.1033914706042251
-0.005508652913198573,-0.1020091011785362
-0.005508312913198574,-0.09726954886188
-0.005507972913198573,-0.09605174722495871
-0.005507632913198573,-0.09457063712600633
-0.005507292913198574,-0.0882183204793768
-0.005506952913198573,-0.08673721038041736
-0.005506612913198573,-0.08433452066433905
-0.005506272913198574,-0.08357750883598425
-0.005505932913198573,-0.0825242749878225
-0.005505592913198573,-0.07376926862512623
-0.005505252913198574,-0.06853601294215164
-0.005504912913198573,-0.06448764533834507
-0.005504572913198573,-0.0666599401501419
-0.005504232913198574,-0.06768026044053316
-0.005503892913198573,-0.06290779456611419
-0.005503552913198573,-0.05839863715374806
-0.005503212913198574,-0.05853029138476629
-0.005502872913198573,-0.05793784734518349
-0.005502532913198573,-0.05750997109437502
-0.005502192913198574,-0.05596303387991083
-0.005501852913198573,-0.05313246791302228
-0.005501512913198573,-0.05497562714727412
-0.005501172913198574,-0.05382365262586462
-0.005500832913198573,-0.05049938329265094
-0.005500492913198573,-0.04862331050064461
-0.005500152913198574,-0.04552943607171624
-0.005499812913198574,-0.04309383279788344
-0.005499472913198573,-0.04016452615772342
-0.005499132913198574,-0.03799223134592265
-0.005498792913198574,-0.03338433326029305
-0.005498452913198573,-0.03338433326028466
-0.005498112913198573,-0.03377929595333935
-0.005497772913198574,-0.03219944518112348
-0.005497432913198573,-0.03272606210519352
-0.005497092913198573,-0.0340426044153758
-0.005496752913198574,-0.03443756710842977
-0.005496412913198573,-0.033581814606812
-0.005496072913198573,-0.03493127047474884
-0.005495732913198574,-0.03693899749777318
-0.005495392913198573,-0.02986258258054705
-0.005495052913198573,-0.02709784372916425
-0.005494712913198574,-0.02403688285799601
-0.005494372913198573,-0.02235829141250803
-0.005494032913198573,-0.02446475910879968
-0.005493692913198574,-0.0231153032408653
-0.005493352913198573,-0.01840866448196118
-0.005493012913198573,-0.02002142881193448
-0.005492672913198574,-0.02067969996702442
-0.005492332913198573,-0.02156836602639866
-0.005491992913198573,-0.02364192016493576
-0.005491652913198574,-0.02413562353125322
-0.005491312913198573,-0.02295073545209006
-0.005490972913198573,-0.02426727776227234
-0.005490632913198574,-0.02446475910879968
-0.005490292913198573,-0.02288490833658094
-0.005489952913198573,-0.02114048977558942
-0.005489612913198574,-0.02025182371621638
-0.005489272913198573,-0.01880362717501586
-0.005488932913198573,-0.01715794928728801
-0.005488592913198574,-0.01794787467339738
-0.005488252913198573,-0.01686172726749789
-0.005487912913198573,-0.01735543063381535
-0.005487572913198574,-0.0190011085215432
-0.005487232913198573,-0.01673007303647811
-0.005486892913198573,-0.01636802390117864
-0.005486552913198574,-0.01584140697710572
-0.005486212913198573,-0.01610471543913715
-0.005485872913198573,-0.01333997658775938
-0.005485532913198574,-0.01403116130060508
-0.005485192913198573,-0.01682881370973046
-0.005484852913198573,-0.01024610215883101
-0.005484512913198574,-0.006592697248075176
-0.005484172913198573,-0.006987659941129502
-0.005483832913198573,-0.006790178594602518
-0.005483492913198574,-0.0115626444690133
-0.005483152913198573,-0.01353745793428134
-0.005482812913198573,-0.01057523773637659
-0.005482472913198574,-0.01291210033695014
-0.005482132913198573,-0.01455777822467177
-0.005481792913198573,-0.01113476821820406
-0.005481452913198574,-0.01241839697063178
-0.005481112913198573,-0.01370202572305766
-0.005480772913198573,-0.01268170543266824
-0.005480432913198574,-0.01403116130060508
-0.005480092913198573,-0.01544644428405068
-0.005479752913198573,-0.0152489629375237
-0.005479412913198574,-0.01620345611240585
-0.005479072913198574,-0.01584140697710638
-0.005478732913198573,-0.01452486466692344
-0.005478392913198574,-0.01330706303000483
-0.005478052913198574,-0.01284627322144186
-0.005477712913198573,-0.01241839697063178
-0.005477372913198574,-0.01097020042943127
-0.005477032913198574,-0.01152973091125772
-0.005476692913198573,-0.0108714597561676
-0.005476352913198573,-0.009653658119248986
-0.005476012913198574,-0.009258695426195019
-0.005475672913198573,-0.008962473406403288
-0.005475332913198573,-0.006757265036847961
-0.005474992913198574,-0.009028300521908271
-0.005474652913198573,-0.01001570725454911
-0.005474312913198573,-0.004552056667292635
-0.005473972913198574,-0.006000253208490514
-0.005473632913198573,-0.005802771861965805
-0.005473292913198573,-0.01090437331392216
-0.005472952913198574,-0.01465651889793484
-0.005472612913198573,-0.01403116130060508
-0.005472272913198573,-0.01238548341287723
-0.005471932913198574,-0.01222091562410474
-0.005471592913198573,-0.01343871726102305
-0.005471252913198573,-0.01070689196739481
-0.005470912913198574,-0.01047649706311333
-0.005470572913198573,-0.01143099023799507
-0.005470232913198573,-0.009884053023530886
-0.005469892913198574,-0.009192868310685188
-0.005469552913198573,-0.01143099023799507
-0.005469212913198573,-0.01146390379574963
-0.005468872913198574,-0.01129933600697684
-0.005468532913198573,-0.01245131052838634
-0.005468192913198573,-0.01189178004655887
-0.005467852913198574,-0.01116768177595861
-0.005467512913198573,-0.01143099023799507
-0.005467172913198573,-0.008304202251312145
-0.005466832913198574,-0.00869916494436683
-0.005466492913198573,-0.009620744561495089
-0.005466152913198573,-0.009982793696794558
-0.005465812913198574,-0.00688891926786619
-0.005465472913198573,-0.006757265036847782
-0.005465132913198573,-0.00665852436358429
-0.005464792913198574,-0.006493956574811504
-0.005464452913198573,-0.00991696658127844
-0.005464112913198573,-0.006066080324002262
-0.005463772913198574,-0.004420402436274407
-0.005463432913198573,-0.004190007531994543
-0.005463092913198573,-0.005309068495647449
-0.005462752913198574,-0.006790178594602518
-0.005462412913198573,-0.007942153116009622
-0.005462072913198573,-0.006625610805829733
-0.005461732913198574,-0.006329388786038719
-0.005461392913198573,-0.006197734555022406
-0.005461052913198573,-0.007250968403166318
-0.005460712913198574,-0.007250968403166318
-0.005460372913198573,-0.008205461578049911
-0.005460032913198573,-0.008995386964157845
-0.005459692913198574,-0.007810498884993789
-0.005459352913198573,-0.005868598977480547
-0.005459012913198573,-0.008962473406403288
-0.005458672913198574,-0.01080563264065849
-0.005458332913198573,-0.00955491744598358
-0.005457992913198573,-0.00860042427110316
-0.005457652913198574,-0.009554917445985316
-0.005457312913198574,-0.0097523987925123
-0.005456972913198573,-0.009653658119248986
-0.005456632913198574,-0.008534597155594046
-0.005456292913198574,-0.006230648112779237
-0.005455952913198573,-0.005769858304211248
-0.005455612913198573,-0.006790178594602518
-0.005455272913198574,-0.006592697248075535
-0.005454932913198573,-0.005045760033610991
-0.005454592913198573,-0.006098993881756819
-0.005454252913198574,-0.01064106485187744
-0.005453912913198573,-0.01393242062734141
-0.005453572913198573,-0.006296475228284162
-0.005453232913198574,-0.005638204073194217
-0.005452892913198573,-0.005012846475856435
-0.005452552913198573,-0.008633337828857716
-0.005452212913198574,-0.01136516312248099
-0.005451872913198573,-0.006823092152357076
-0.005451532913198573,-0.006461043017056948
-0.005451192913198574,-0.007283881960919378
-0.005450852913198573,-0.007580103980711889
-0.005450512913198573,-0.006164820997265934
-0.005450172913198574,-0.005901512535229955
-0.005449832913198573,-0.005473636284420234
-0.005449492913198573,-0.006823092152357076
-0.005449152913198574,-0.007448449749692523
-0.005448812913198573,-0.005210327822383777
-0.005448472913198573,-0.006230648112775047
-0.005448132913198574,-0.006493956574811504
-0.005447792913198573,-0.005045760033610991
-0.005447452913198573,-0.006098993881756819
-0.005447112913198574,-0.006033166766247705
-0.005446772913198573,-0.006066080324002262
-0.005446432913198573,-0.006296475228284162
-0.005446092913198574,-0.008007980231521132
-0.005445752913198573,-0.006790178594605571
-0.005445412913198573,-0.008468770040084931
-0.005445072913198574,-0.009159954752930631
-0.005444732913198573,-0.0105094106208652
-0.005444392913198573,-0.009258695426194301
-0.005444052913198574,-0.01021318860107646
-0.005443712913198573,-0.01455777822467578
-0.005443372913198573,-0.01333997658775938
-0.005443032913198574,-0.006362302343793276
-0.005442692913198573,-0.01024610215883616
-0.005442352913198573,-0.01307666812572293
-0.005442012913198574,-0.01021318860107646
-0.005441672913198573,-0.009192868310682672
-0.005441332913198573,-0.007810498884993789
-0.005440992913198574,-0.008402942924575817
-0.005440652913198573,-0.008995386964158443
-0.005440312913198573,-0.009324522541703417
-0.005439972913198574,-0.008567510713348603
-0.005439632913198573,-0.009192868310684948
-0.005439292913198573,-0.009061214079666959
-0.005438952913198574,-0.009423263214967087
-0.005438612913198573,-0.01037775638984326
-0.005438272913198573,-0.007086400614393532
-0.005437932913198574,-0.008073807347030245
-0.005437592913198573,-0.00626356167052715
-0.005437252913198573,-0.004914105802592763
-0.005436912913198574,-0.002741810990791994
-0.005436572913198574,-0.002708897433037497
-0.005436232913198573,-0.001984799162437181
-0.005435892913198574,-0.001063219545309582
-0.005435552913198574,-0.002313934739980477
-0.005435212913198573,-0.002610156759773766
-0.005434872913198573,-0.004782451571574535
-0.005434532913198574,-0.006098993881754424
-0.005434192913198573,-0.007020573498884419
-0.005433852913198573,-0.007185141287657204
-0.005433512913198574,-0.0084358564823281
-0.005433172913198573,-0.01403116130060508
-0.005432832913198573,-0.009851139465776329
-0.005432492913198574,-0.01159555802676468
-0.005432152913198573,-0.0113322495647314
-0.005431812913198573,-0.01031192927434013
-0.005431472913198574,-0.01531479005302371
-0.005431132913198573,-0.01505148159099635
-0.005430792913198573,-0.01129933600697684
-0.005430452913198574,-0.01024610215883293
-0.005430112913198573,-0.01278044610593191
-0.005429772913198573,-0.01054232417862203
-0.005429432913198574,-0.009554917445987111
-0.005429092913198573,-0.01050941062086747
-0.005428752913198573,-0.009949880139040001
-0.005428412913198574,-0.009159954752932067
-0.005428072913198573,-0.01027901571658557
-0.005427732913198573,-0.00619773455502049
-0.005427392913198574,-0.005539463399929348
-0.005427052913198573,-0.006033166766247705
-0.005426712913198573,-0.005045760033610991
-0.005426372913198574,-0.003564649934655922
-0.005426032913198573,-0.004124180416483393
-0.005425692913198573,-0.005802771861965805
-0.005425352913198574,-0.004650797340556306
-0.005425012913198573,-0.007316795518675433
-0.005424672913198573,-0.006066080324002262
-0.005424332913198574,-0.006000253208493148
-0.005423992913198573,-0.006658524363585608
-0.005423652913198573,-0.007382622634184546
-0.005423312913198574,-0.006790178594602518
-0.005422972913198573,-0.009291608983955922
-0.005422632913198573,-0.0131754087989866
-0.005422292913198574,-0.005243241380138334
-0.005421952913198573,-0.005276154937887444
-0.005421612913198573,-0.002281021182228195
-0.005421272913198574,-0.005341982053402005
-0.005420932913198573,-0.00869916494436641
-0.005420592913198573,-0.008468770040084931
-0.005420252913198574,-0.006790178594602518
-0.005419912913198573,-0.006954746383378537
-0.005419572913198573,-0.008732078502121389
-0.005419232913198574,-0.006559783690320619
-0.005418892913198573,-0.006000253208494465
-0.005418552913198573,-0.006724351479093405
-0.005418212913198574,-0.003630477050165036
-0.005417872913198573,-0.002511416086512549
-0.005417532913198573,-0.003860871954446936
