Analysis/files/cmb03_wrd01/d2s02_ch41.csv

#Digilent WaveForms Oscilloscope Acquisition
#Device Name: ADP3450
#Serial Number: SN:210018B9D9B0
#Date Time: 2024-08-13 11:17:37.038.667.700
#Sample rate: 2.94118e+06Hz
#Samples: 32768
#Trigger: Source: Channel 3 Type: Edge Condition: Rising Level: 60 mV Hyst.: Auto HoldOff: 0 s
#Channel 3: Range: 200 mV/div Offset: 0 V Attenuation: 1 X Coupling: DC Bandwidth: 0 Hz Sample Mode: Average

Time (s),Channel 3 (V)
-0.005570455788313121,0.001339470170773087
-0.00557011578831312,0.002326876903408423
-0.00556977578831312,0.001569865075054987
-0.005569435788313121,0.001866087094846001
-0.00556909578831312,0.001668605748311175
-0.00556875578831312,-0.00244558897100098
-0.005568415788313121,-0.003498822819146808
-0.00556807578831312,0.002688926038707893
-0.00556773578831312,0.001569865075054987
-0.005567395788313121,0.001207815939754859
-0.00556705578831312,0.0003849769958854828
-0.00556671578831312,-0.002610156759773766
-0.005566375788313121,0.0005166312269091594
-0.00556603578831312,0.002129395556879464
-0.00556569578831312,0.0004837176691546022
-0.005565355788313121,-0.0007340839677640107
-0.00556501578831312,-0.0005036890634821109
-0.00556467578831312,-0.0005036890634821109
-0.005564335788313121,-0.004091266858728836
-0.00556399578831312,-0.003103860126092901
-0.00556365578831312,-0.003531736376901365
-0.005563315788313121,-0.006066080324002262
-0.005562975788313121,-0.005671117630948295
-0.00556263578831312,-0.005802771861965805
-0.005562295788313121,-0.006954746383375304
-0.005561955788313121,-0.008007980231519217
-0.00556161578831312,-0.006461043017056948
-0.005561275788313121,-0.007613017538466446
-0.005560935788313121,-0.00744844974969396
-0.00556059578831312,-0.007942153116012016
-0.005560255788313121,-0.009127041195176074
-0.005559915788313121,-0.009489090330475541
-0.00555957578831312,-0.008304202251312145
-0.005559235788313121,-0.008633337828857716
-0.005558895788313121,-0.00906121407966618
-0.00555855578831312,-0.007547190422957332
-0.005558215788313121,-0.01143099023799507
-0.005557875788313121,-0.007185141287664927
-0.00555753578831312,-0.003795044838937822
-0.005557195788313121,-0.003103860126092122
-0.005556855788313121,-0.003202600799355614
-0.00555651578831312,-0.005276154937892892
-0.005556175788313121,-0.00711931417214809
-0.005555835788313121,-0.006428129459303648
-0.00555549578831312,-0.005111587149120106
-0.00555515578831312,-0.007415536191939104
-0.005554815788313121,-0.01008153437005338
-0.00555447578831312,-0.009982793696794558
-0.00555413578831312,-0.01116768177595861
-0.005553795788313121,-0.0129450138947047
-0.00555345578831312,-0.01162847158452241
-0.00555311578831312,-0.01097020042943127
-0.005552775788313121,-0.01268170543266824
-0.00555243578831312,-0.0127146189904228
-0.00555209578831312,-0.01241839697063178
-0.005551755788313121,-0.01238548341287723
-0.00555141578831312,-0.01521604937976591
-0.00555107578831312,-0.01343871726102305
-0.005550735788313121,-0.0136361986075504
-0.00555039578831312,-0.01337289014551029
-0.00555005578831312,-0.01136516312248596
-0.005549715788313121,-0.01129933600697684
-0.00554937578831312,-0.01120059533370904
-0.00554903578831312,-0.008929559848648731
-0.005548695788313121,-0.008007980231521132
-0.00554835578831312,-0.008666251386607303
-0.00554801578831312,-0.005934426092984033
-0.005547675788313121,-0.008666251386612273
-0.00554733578831312,-0.001622750027135017
-0.00554699578831312,-0.0005036890634821109
-0.005546655788313121,-0.006395215901547833
-0.00554631578831312,-0.007909239558252609
-0.00554597578831312,-0.005243241380138334
-0.005545635788313121,-0.006395215901547833
-0.00554529578831312,-0.01057523773637545
-0.00554495578831312,-0.009949880139040001
-0.005544615788313121,-0.008534597155594046
-0.00554427578831312,-0.0107068919673932
-0.00554393578831312,-0.009818225908021772
-0.005543595788313121,-0.009094127637421515
-0.00554325578831312,-0.009258695426194362
-0.00554291578831312,-0.009291608983948858
-0.005542575788313121,-0.008896646290894173
-0.005542235788313121,-0.008896646290894173
-0.00554189578831312,-0.0106410648518857
-0.005541555788313121,-0.009192868310685188
-0.005541215788313121,-0.01077271908290105
-0.00554087578831312,-0.01241839697063178
-0.005540535788313121,-0.01199052071982254
-0.005540195788313121,-0.0112664224492236
-0.00553985578831312,-0.01185886648880431
-0.005539515788313121,-0.01301084101021381
-0.005539175788313121,-0.0131095816834773
-0.00553883578831312,-0.01343871726102305
-0.005538495788313121,-0.0111018546604495
-0.005538155788313121,-0.01139807668023997
-0.00553781578831312,-0.0113322495647314
-0.005537475788313121,-0.01067397840964026
-0.005537135788313121,-0.008468770040088941
-0.00553679578831312,-0.008929559848648731
-0.005536455788313121,-0.0106410648518857
-0.005536115788313121,-0.009489090330478296
-0.00553577578831312,-0.01100311398718583
-0.005535435788313121,-0.008567510713348603
-0.005535095788313121,-0.01060815129412743
-0.00553475578831312,-0.01199052071982254
-0.005534415788313121,-0.01192469360431343
-0.005534075788313121,-0.01070689196739703
-0.00553373578831312,-0.01139807668024051
-0.00553339578831312,-0.01337289014551394
-0.005533055788313121,-0.01218800206634988
-0.00553271578831312,-0.01399824774285052
-0.00553237578831312,-0.01106894110269494
-0.005532035788313121,-0.01189178004655887
-0.00553169578831312,-0.01218800206634988
-0.00553135578831312,-0.01004862081230367
-0.005531015788313121,-0.01268170543266824
-0.00553067578831312,-0.0140969884161142
-0.00553033578831312,-0.01287918677919558
-0.005529995788313121,-0.01215508850859533
-0.00552965578831312,-0.01241839697063244
-0.00552931578831312,-0.01278044610593191
-0.005528975788313121,-0.01324123591449571
-0.00552863578831312,-0.01212217495084173
-0.00552829578831312,-0.01264879187491368
-0.005527955788313121,-0.01103602754494038
-0.00552761578831312,-0.01199052071982518
-0.00552727578831312,-0.01343871726102305
-0.005526935788313121,-0.01327414947225027
-0.00552659578831312,-0.01238548341287914
-0.00552625578831312,-0.01343871726102305
-0.005525915788313121,-0.01412990197386875
-0.00552557578831312,-0.01251713764389737
-0.00552523578831312,-0.01357037149204128
-0.005524895788313121,-0.01241839697063178
-0.00552455578831312,-0.0111018546604486
-0.00552421578831312,-0.01060815129413114
-0.005523875788313121,-0.01162847158452241
-0.00552353578831312,-0.01380076639633659
-0.00552319578831312,-0.02117340333334397
-0.005522855788313121,-0.03687317038226771
-0.00552251578831312,-0.05859611850032755
-0.00552217578831312,-0.08726382730449464
-0.005521835788313121,-0.111685687158376
-0.00552149578831312,-0.142492777216698
-0.00552115578831312,-0.1735631757369434
-0.005520815788313121,-0.2043373522374543
-0.005520475788313121,-0.2317543458469505
-0.00552013578831312,-0.2477832484734697
-0.005519795788313121,-0.2617056834036473
-0.005519455788313121,-0.2697365914957446
-0.00551911578831312,-0.2720734540963328
-0.005518775788313121,-0.2702302948620776
-0.005518435788313121,-0.2683871356278257
-0.00551809578831312,-0.2635817561956571
-0.005517755788313121,-0.2581839327239097
-0.005517415788313121,-0.2521278380970822
-0.00551707578831312,-0.2450514231798414
-0.005516735788313121,-0.2396865132658486
-0.005516395788313121,-0.2325771847908772
-0.00551605578831312,-0.2240196597746794
-0.005515715788313121,-0.2154621347584946
-0.005515375788313121,-0.2096693485937031
-0.00551503578831312,-0.2007497744422076
-0.005514695788313121,-0.1937062730827323
-0.005514355788313121,-0.1872881293206054
-0.00551401578831312,-0.180277541518873
-0.005513675788313121,-0.1755709027599714
-0.005513335788313121,-0.1689881912090719
-0.00551299578831312,-0.1631624914865033
-0.00551265578831312,-0.1568430883976284
-0.005512315788313121,-0.1529263750248361
-0.00551197578831312,-0.1489109209787801
-0.00551163578831312,-0.145652478761079
-0.005511295788313121,-0.1344947826822841
-0.00551095578831312,-0.1288336507485003
-0.00551061578831312,-0.1228762967949254
-0.005510275788313121,-0.1210002240029157
-0.00550993578831312,-0.1197824223659971
-0.00550959578831312,-0.1128376616797855
-0.005509255788313121,-0.1072094433037563
-0.00550891578831312,-0.1030952485844314
-0.00550857578831312,-0.1002317690597901
-0.005508235788313121,-0.09654545059127975
-0.00550789578831312,-0.09443898289498318
-0.00550755578831312,-0.09174007115911442
-0.005507215788313121,-0.09058809663770492
-0.00550687578831312,-0.08917281365425478
-0.00550653578831312,-0.08686886461143997
-0.005506195788313121,-0.08588145787880325
-0.00550585578831312,-0.08416995287555994
-0.00550551578831312,-0.08068111575358322
-0.005505175788313121,-0.07814677180648233
-0.00550483578831312,-0.07702771084282506
-0.00550449578831312,-0.07574408209039965
-0.005504155788313121,-0.07093870265823432
-0.00550381578831312,-0.07018169082987329
-0.00550347578831312,-0.06675868082340558
-0.005503135788313121,-0.06297362168163151
-0.00550279578831312,-0.06047219129227972
-0.00550245578831312,-0.05747705753662046
-0.005502115788313121,-0.0541527882034102
-0.00550177578831312,-0.05346160349056796
-0.00550143578831312,-0.05537058984032881
-0.005501095788313121,-0.04572691741824358
-0.00550075578831312,-0.04401541241500524
-0.00550041578831312,-0.04325840058665179
-0.005500075788313121,-0.04227099385401508
-0.005499735788313121,-0.04533195472518332
-0.00549939578831312,-0.04572691741824358
-0.005499055788313121,-0.04283052433584255
-0.005498715788313121,-0.04125067356362668
-0.00549837578831312,-0.04368627683746103
-0.005498035788313121,-0.04276469722033344
-0.005497695788313121,-0.04404832597275883
-0.00549735578831312,-0.04345588193317913
-0.005497015788313121,-0.0411848464481147
-0.005496675788313121,-0.03980247702242581
-0.00549633578831312,-0.03930877365610494
-0.005495995788313121,-0.03851884826999557
-0.005495655788313121,-0.03611615855391728
-0.00549531578831312,-0.03558954162983999
-0.005494975788313121,-0.03318685191375732
-0.005494635788313121,-0.03200196383459542
-0.00549429578831312,-0.0331210247982482
-0.005493955788313121,-0.03193613671908415
-0.005493615788313121,-0.02930305209872437
-0.00549327578831312,-0.02742697930670982
-0.005492935788313121,-0.02762446065323717
-0.005492595788313121,-0.02650539968958426
-0.00549225578831312,-0.02634083190080944
-0.005491915788313121,-0.02436601843553601
-0.005491575788313121,-0.02318113035637411
-0.00549123578831312,-0.0266041403628459
-0.00549089578831312,-0.02943470632973781
-0.005490555788313121,-0.02087718131355296
-0.00549021578831312,-0.0185403187129794
-0.00548987578831312,-0.01840866448196118
-0.005489535788313121,-0.01933024409908878
-0.00548919578831312,-0.0238394015114631
-0.00548885578831312,-0.02341152526065386
-0.005488515788313121,-0.02071261352478018
-0.00548817578831312,-0.02400396930023906
-0.00548783578831312,-0.02574838786122741
-0.005487495788313121,-0.02492554891736349
-0.00548715578831312,-0.02311530324086374
-0.00548681578831312,-0.0236090066071812
-0.005486475788313121,-0.02331278458739018
-0.00548613578831312,-0.02097592198681453
-0.00548579578831312,-0.01982394746540713
-0.005485455788313121,-0.01857323227073396
-0.00548511578831312,-0.01636802390117948
-0.00548477578831312,-0.01682881370974244
-0.005484435788313121,-0.01577557986159661
-0.00548409578831312,-0.01373493928081634
-0.00548375578831312,-0.01498565447548724
-0.005483415788313121,-0.01607180188138762
-0.00548307578831312,-0.01528187649528011
-0.00548273578831312,-0.01630219678566952
-0.005482395788313121,-0.01538061716854192
-0.00548205578831312,-0.01524896293752382
-0.00548171578831312,-0.01531479005303281
-0.005481375788313121,-0.01577557986159661
-0.00548103578831312,-0.01301084101022087
-0.00548069578831312,-0.01689464082525155
-0.005480355788313121,-0.014557778224678
-0.00548001578831312,-0.01054232417862065
-0.00547967578831312,-0.009785312350267215
-0.005479335788313121,-0.01139807668024051
-0.005478995788313121,-0.0162363696701516
-0.00547865578831312,-0.01867197294399764
-0.005478315788313121,-0.01673007303647877
-0.005477975788313121,-0.01501856803324491
-0.00547763578831312,-0.01610471543914218
-0.005477295788313121,-0.01534770361078737
-0.005476955788313121,-0.01501856803324239
-0.00547661578831312,-0.01370202572305951
-0.005476275788313121,-0.01554518495731471
-0.005475935788313121,-0.01755291198033904
-0.00547559578831312,-0.01778330688462459
-0.005475255788313121,-0.02035056438948005
-0.005474915788313121,-0.02071261352477952
-0.00547457578831312,-0.01975812034989802
-0.005474235788313121,-0.01926441698357966
-0.005473895788313121,-0.01860614582848972
-0.00547355578831312,-0.01742125774932446
-0.005473215788313121,-0.01643385101668775
-0.005472875788313121,-0.01679590015198722
-0.00547253578831312,-0.01538061716854192
-0.005472195788313121,-0.01587432053486028
-0.005471855788313121,-0.01472234601345288
-0.00547151578831312,-0.01360328504979584
-0.005471175788313121,-0.009522003888230759
-0.005470835788313121,-0.00915995475293129
-0.00547049578831312,-0.008764992059875945
-0.00547015578831312,-0.01238548341287723
-0.005469815788313121,-0.006493956574811504
-0.00546947578831312,-0.00619773455502049
-0.00546913578831312,-0.006987659941129861
-0.005468795788313121,-0.009785312350267215
-0.00546845578831312,-0.01570975274608749
-0.00546811578831312,-0.01412990197386875
-0.005467775788313121,-0.01350454437653217
-0.00546743578831312,-0.01528187649527825
-0.00546709578831312,-0.01488691380222357
-0.005466755788313121,-0.0143273833203961
-0.00546641578831312,-0.01511730870650265
-0.00546607578831312,-0.01357037149204128
-0.005465735788313121,-0.01396533418509597
-0.00546539578831312,-0.01587432053485298
-0.00546505578831312,-0.01185886648880431
-0.005464715788313121,-0.01297792745245925
-0.00546437578831312,-0.01261587831715733
-0.00546403578831312,-0.01162847158452241
-0.005463695788313121,-0.01034484283209469
-0.00546335578831312,-0.01179303937329227
-0.00546301578831312,-0.0101802750433219
-0.005462675788313121,-0.009851139465776329
-0.00546233578831312,-0.0116284715845208
-0.00546199578831312,-0.01073980552514937
-0.005461655788313121,-0.01004862081230367
-0.00546131578831312,-0.01136516312248775
-0.00546097578831312,-0.01235256985512267
-0.005460635788313121,-0.0115626444690133
-0.00546029578831312,-0.01281335966369497
-0.00545995578831312,-0.01748708486483358
-0.005459615788313121,-0.01715794928728801
-0.00545927578831312,-0.01146390379574939
-0.00545893578831312,-0.0113322495647314
-0.005458595788313121,-0.008666251386612273
-0.00545825578831312,-0.01152973091126323
-0.00545791578831312,-0.01399824774285052
-0.005457575788313121,-0.01307666812572293
-0.005457235788313121,-0.01054232417862664
-0.00545689578831312,-0.01360328504979584
-0.005456555788313121,-0.01192469360431343
-0.005456215788313121,-0.01182595293104994
-0.00545587578831312,-0.01383367995407774
-0.005455535788313121,-0.01264879187491368
-0.005455195788313121,-0.01172721225778776
-0.00545485578831312,-0.01215508850859533
-0.005454515788313121,-0.01149681735350419
-0.005454175788313121,-0.01212217495083963
-0.00545383578831312,-0.007415536191939104
-0.005453495788313121,-0.01218800206634988
-0.005453155788313121,-0.01231965629736787
-0.00545281578831312,-0.01297792745245925
-0.005452475788313121,-0.0129450138947047
-0.005452135788313121,-0.01041066994760841
-0.00545179578831312,-0.01070689196739481
-0.005451455788313121,-0.0108714597561676
-0.005451115788313121,-0.01077271908290411
-0.00545077578831312,-0.01057523773637659
-0.005450435788313121,-0.01189178004655887
-0.005450095788313121,-0.01185886648880437
-0.00544975578831312,-0.01380076639632318
-0.00544941578831312,-0.01926441698357966
-0.005449075788313121,-0.01347163081878815
-0.00544873578831312,-0.01116768177595861
-0.00544839578831312,-0.01169429870003153
-0.005448055788313121,-0.00962074456149443
-0.00544771578831312,-0.01630219678566952
-0.00544737578831312,-0.01574266630384205
-0.005447035788313121,-0.01320832235674115
-0.00544669578831312,-0.01330706303000483
-0.00544635578831312,-0.01403116130060508
-0.005446015788313121,-0.01264879187491368
-0.00544567578831312,-0.01264879187491716
-0.00544533578831312,-0.014557778224678
-0.005444995788313121,-0.01284627322144103
-0.00544465578831312,-0.01073980552515398
-0.00544431578831312,-0.01327414947225027
-0.005443975788313121,-0.01445903755141432
-0.00544363578831312,-0.01320832235674014
-0.00544329578831312,-0.01264879187491368
-0.005442955788313121,-0.01274753254817735
-0.00544261578831312,-0.01123350889147156
-0.00544227578831312,-0.01333997658775938
-0.005441935788313121,-0.0127146189904228
-0.00544159578831312,-0.01215508850859694
-0.00544125578831312,-0.01304375456796837
-0.005440915788313121,-0.01567683918833294
-0.00544057578831312,-0.01468943245569335
-0.00544023578831312,-0.01310958168347748
-0.005439895788313121,-0.01258296475940457
-0.00543955578831312,-0.0120563478353359
-0.00543921578831312,-0.01439321043590521
-0.005438875788313121,-0.01775039332687003
-0.00543853578831312,-0.01087145975616401
-0.00543819578831312,-0.008896646290894173
-0.005437855788313121,-0.01011444792781279
-0.00543751578831312,-0.01067397840964624
-0.00543717578831312,-0.01396533418509597
-0.005436835788313121,-0.01505148159099635
-0.005436495788313121,-0.01340580370327149
-0.00543615578831312,-0.01449195110916888
-0.005435815788313121,-0.01429446976264154
-0.005435475788313121,-0.01333997658776112
-0.00543513578831312,-0.01241839697063178
-0.005434795788313121,-0.01360328504979584
-0.005434455788313121,-0.01301084101021489
-0.00543411578831312,-0.01027901571658557
-0.005433775788313121,-0.01162847158452241
-0.005433435788313121,-0.01083854619841448
-0.00543309578831312,-0.007876326000502903
-0.005432755788313121,-0.007020573498884419
-0.005432415788313121,-0.007975066673764838
-0.00543207578831312,-0.007053487056638975
-0.005431735788313121,-0.008896646290894173
-0.005431395788313121,-0.009949880139038086
-0.00543105578831312,-0.01011444792781279
-0.005430715788313121,-0.01103602754494038
-0.005430375788313121,-0.01100311398718589
-0.00543003578831312,-0.01136516312248596
-0.005429695788313121,-0.01011444792781279
-0.005429355788313121,-0.01073980552514823
-0.00542901578831312,-0.01070689196739481
-0.005428675788313121,-0.01557809851506927
-0.005428335788313121,-0.01597306120812323
-0.00542799578831312,-0.01021318860107646
-0.00542765578831312,-0.01097020042943127
-0.005427315788313121,-0.01143099023799507
-0.00542697578831312,-0.01412990197386875
-0.00542663578831312,-0.01419572908937787
-0.005426295788313121,-0.01268170543266824
-0.00542595578831312,-0.01245131052838634
-0.00542561578831312,-0.01360328504979584
-0.005425275788313121,-0.01343871726102305
-0.00542493578831312,-0.01304375456796837
-0.00542459578831312,-0.01215508850859533
-0.005424255788313121,-0.01333997658775938
-0.00542391578831312,-0.01360328504979033
-0.00542357578831312,-0.01057523773637659
-0.005423235788313121,-0.01241839697063178
-0.00542289578831312,-0.0131424952412336
-0.00542255578831312,-0.01399824774285052
-0.005422215788313121,-0.01264879187491368
-0.00542187578831312,-0.01439321043590736
-0.00542153578831312,-0.01557809851506927
-0.005421195788313121,-0.01554518495731471
-0.00542085578831312,-0.01590723409261238
-0.00542051578831312,-0.014557778224678
-0.005420175788313121,-0.01366911216530495
-0.00541983578831312,-0.013833679954076
-0.00541949578831312,-0.01287918677919558
-0.005419155788313121,-0.01136516312248596
-0.00541881578831312,-0.01208926139308508
-0.00541847578831312,-0.01146390379574963
-0.005418135788313121,-0.01399824774285052
-0.00541779578831312,-0.01350454437651786
-0.00541745578831312,-0.005638204073193019
-0.005417115788313121,-0.009554917445985316
-0.00541677578831312,-0.01307666812572167
-0.00541643578831312,-0.01238548341287723
-0.005416095788313121,-0.009587831003739873
-0.00541575578831312,-0.01317540879898857
-0.00541541578831312,-0.01426155620488698
-0.005415075788313121,-0.01343871726102305
-0.005414735788313121,-0.0128462732214421
-0.00541439578831312,-0.01304375456796837
-0.005414055788313121,-0.01093728687167671
