Analysis/files/cmb03_wrd01/d2s02_ch23.csv

#Digilent WaveForms Oscilloscope Acquisition
#Device Name: ADP3450
#Serial Number: SN:210018B9D9B0
#Date Time: 2024-08-13 11:22:44.944.262.690
#Sample rate: 2.94118e+06Hz
#Samples: 32768
#Trigger: Source: Channel 3 Type: Edge Condition: Rising Level: 60 mV Hyst.: Auto HoldOff: 0 s
#Channel 3: Range: 200 mV/div Offset: 0 V Attenuation: 1 X Coupling: DC Bandwidth: 0 Hz Sample Mode: Average

Time (s),Channel 3 (V)
-0.00557045709962169,0.008317144414739193
-0.00557011709962169,0.007955095279438827
-0.00556977709962169,0.007823441048420837
-0.00556943709962169,0.01220094422977693
-0.00556909709962169,0.007560132586382165
-0.00556875709962169,0.006342330949465767
-0.00556841709962169,0.003775073444610313
-0.00556807709962169,0.003511764982574275
-0.00556773709962169,0.003742159886855756
-0.00556739709962169,0.001668605748318658
-0.00556705709962169,0.0008128532467014904
-0.00556671709962169,0.00153695151730043
-0.00556637709962169,0.0003191498803818167
-0.00556603709962169,8.87549760914155e-05
-0.00556569709962169,-0.004584970225047193
-0.00556535709962169,-0.003729217723428708
-0.00556501709962169,0.002919320942983566
-0.00556467709962169,-0.001622750027137053
-0.00556433709962169,-0.004617883782801749
-0.00556399709962169,-0.004519143109533288
-0.00556365709962169,-0.00188605848917351
-0.00556331709962169,-0.005078673591365549
-0.00556297709962169,-0.005605290515437505
-0.00556263709962169,-0.006921832825620747
-0.00556229709962169,-0.005276154937892892
-0.00556195709962169,-0.005078673591365908
-0.00556161709962169,-0.005341982053402005
-0.00556127709962169,-0.004979932918101878
-0.00556093709962169,-0.007053487056635204
-0.00556059709962169,-0.005243241380138334
-0.00556025709962169,-0.003992526185465165
-0.00555991709962169,-0.005769858304208016
-0.00555957709962169,-0.007481363307448217
-0.00555923709962169,-0.006428129459302391
-0.00555889709962169,-0.006296475228284401
-0.00555855709962169,-0.00688891926786619
-0.00555821709962169,-0.007053487056638975
-0.00555787709962169,-0.007481363307447439
-0.00555753709962169,-0.00711931417214809
-0.00555719709962169,-0.004914105802592763
-0.00555685709962169,-0.006329388786036144
-0.00555651709962169,-0.008040893789275689
-0.00555617709962169,-0.006625610805829733
-0.00555583709962169,-0.00474953801382339
-0.00555549709962169,-0.006526870132566062
-0.00555515709962169,-0.006954746383375304
-0.00555481709962169,-0.006033166766249381
-0.00555447709962169,-0.006362302343793276
-0.00555413709962169,-0.003992526185465165
-0.00555379709962169,-0.009522003888230759
-0.00555345709962169,-0.01544644428405104
-0.00555311709962169,-0.0111018546604495
-0.00555277709962169,-0.009324522541703417
-0.00555243709962169,-0.0108714597561676
-0.00555209709962169,-0.01120059533371317
-0.00555175709962169,-0.009522003888230759
-0.00555141709962169,-0.008534597155594466
-0.00555107709962169,-0.008764992059875945
-0.00555073709962169,-0.007580103980711889
-0.00555039709962169,-0.007909239558256741
-0.00555005709962169,-0.007514276865202775
-0.00554971709962169,-0.005901512535229476
-0.00554937709962169,-0.007448449749695696
-0.00554903709962169,-0.008567510713348603
-0.00554869709962169,-0.007777585327239231
-0.00554835709962169,-0.00728388196092309
-0.00554801709962169,-0.008501683597839487
-0.00554767709962169,-0.008468770040084931
-0.00554733709962169,-0.009127041195176074
-0.00554699709962169,-0.009127041195176074
-0.00554665709962169,-0.00869916494436683
-0.00554631709962169,-0.008304202251315677
-0.00554597709962169,-0.01024610215883101
-0.00554563709962169,-0.009159954752930631
-0.00554529709962169,-0.01044358350536782
-0.00554495709962169,-0.01564392563057838
-0.00554461709962169,-0.009423263214967087
-0.00554427709962169,-0.009489090330477339
-0.00554393709962169,-0.01011444792781279
-0.00554359709962169,-0.009884053023530886
-0.00554325709962169,-0.01373493928081437
-0.00554291709962169,-0.01389950706958685
-0.00554257709962169,-0.01083854619841304
-0.00554223709962169,-0.01024610215883209
-0.00554189709962169,-0.01136516312248596
-0.00554155709962169,-0.0106410648518857
-0.00554121709962169,-0.009159954752933325
-0.00554087709962169,-0.008764992059875945
-0.00554053709962169,-0.009785312350267215
-0.00554019709962169,-0.008106720904787855
-0.00553985709962169,-0.009686571677003543
-0.00553951709962169,-0.01011444792781279
-0.00553917709962169,-0.00804089378927946
-0.00553883709962169,-0.007942153116012016
-0.00553849709962169,-0.007876326000502903
-0.00553815709962169,-0.007250968403167456
-0.00553781709962169,-0.005374895611156563
-0.00553747709962169,-0.007185141287657204
-0.00553713709962169,-0.007645931096220165
-0.00553679709962169,-0.005835685419720362
-0.00553645709962169,-0.006921832825620747
-0.00553611709962169,-0.007185141287656725
-0.00553577709962169,-0.008205461578048474
-0.00553543709962169,-0.01004862081230367
-0.00553509709962169,-0.0108714597561661
-0.00553475709962169,-0.01399824774285052
-0.00553441709962169,-0.01798078823115194
-0.00553407709962169,-0.01097020042944402
-0.00553373709962169,-0.008995386964157845
-0.00553339709962169,-0.008468770040084931
-0.00553305709962169,-0.009719485234758102
-0.00553271709962169,-0.0113322495647314
-0.00553237709962169,-0.008929559848648731
-0.00553203709962169,-0.006526870132566062
-0.00553169709962169,-0.006691437921338847
-0.00553135709962169,-0.005144500706874663
-0.00553101709962169,-0.007481363307448217
-0.00553067709962169,-0.005802771861965805
-0.00553033709962169,-0.006362302343793276
-0.00552999709962169,-0.007448449749693661
-0.00552965709962169,-0.008863732733140514
-0.00552931709962169,-0.009357436099457973
-0.00552897709962169,-0.01287918677919558
-0.00552863709962169,-0.01314249524123246
-0.00552829709962169,-0.01337289014551394
-0.00552795709962169,-0.0150185680332418
-0.00552761709962169,-0.01416281553162062
-0.00552727709962169,-0.01268170543266824
-0.00552693709962169,-0.0134058037032685
-0.00552659709962169,-0.01357037149203865
-0.00552625709962169,-0.01212217495084077
-0.00552591709962169,-0.01238548341287723
-0.00552557709962169,-0.008468770040094449
-0.00552523709962169,-0.01370202572305951
-0.00552489709962169,-0.01472234601345078
-0.00552455709962169,-0.01564392563058473
-0.00552421709962169,-0.01913276275256143
-0.00552387709962169,-0.01824409669318839
-0.00552353709962169,-0.01821118313544497
-0.00552319709962169,-0.02433310487778146
-0.00552285709962169,-0.03568828230310366
-0.00552251709962169,-0.06152542514047565
-0.00552217709962169,-0.08607893922533058
-0.00552183709962169,-0.1121793905246944
-0.00552149709962169,-0.1440726279889175
-0.00552115709962169,-0.1755709027599714
-0.00552081709962169,-0.2025271065609536
-0.00552047709962169,-0.2272122748768266
-0.00552013709962169,-0.2451501638531051
-0.00551979709962169,-0.2572623531067821
-0.00551945709962169,-0.265392001872143
-0.00551911709962169,-0.2695720237069865
-0.00551877709962169,-0.2680580000502769
-0.00551843709962169,-0.2631209663871023
-0.00551809709962169,-0.2584801547437007
-0.00551775709962169,-0.2503834195360797
-0.00551741709962169,-0.2452159909686236
-0.00551707709962169,-0.2372179964342568
-0.00551673709962169,-0.2281996816095082
-0.00551639709962169,-0.2217157107318722
-0.00551605709962169,-0.2154621347584946
-0.00551571709962169,-0.2087477689765649
-0.00551537709962169,-0.2004206388646771
-0.00551503709962169,-0.1948582476041418
-0.00551469709962169,-0.1866956852810117
-0.00551435709962169,-0.1815282567135556
-0.00551401709962169,-0.1759987790107806
-0.00551367709962169,-0.1735631757369434
-0.00551333709962169,-0.1617472085030789
-0.00551299709962169,-0.1559544223382553
-0.00551265709962169,-0.1502274632889624
-0.00551231709962169,-0.1441055415466148
-0.00551197709962169,-0.1448625533749696
-0.00551163709962169,-0.1393989027877131
-0.00551129709962169,-0.1316642167153922
-0.00551095709962169,-0.1283070338244274
-0.00551061709962169,-0.1236662221810348
-0.00551027709962169,-0.1184329664980602
-0.00550993709962169,-0.1143187717787406
-0.00550959709962169,-0.1105666261947211
-0.00550925709962169,-0.1034243841619822
-0.00550891709962169,-0.1012520893501758
-0.00550857709962169,-0.09815821492125304
-0.00550823709962169,-0.09276039144950568
-0.00550789709962169,-0.08966651702057372
-0.00550755709962169,-0.0876917035553039
-0.00550721709962169,-0.08476239691514831
-0.00550687709962169,-0.08380790374026374
-0.00550653709962169,-0.08249136143008387
-0.00550619709962169,-0.08094442421561968
-0.00550585709962169,-0.07923291921238074
-0.00550551709962169,-0.07814677180648233
-0.00550517709962169,-0.07567825497489056
-0.00550483709962169,-0.07330847881655957
-0.00550449709962169,-0.07172862804434368
-0.00550415709962169,-0.06906262986622458
-0.00550381709962169,-0.0673511248629898
-0.00550347709962169,-0.0685689264999062
-0.00550313709962169,-0.0676473468827786
-0.00550279709962169,-0.05866194561578213
-0.00550245709962169,-0.05734540330560223
-0.00550211709962169,-0.05523893560931058
-0.00550177709962169,-0.05300081368200411
-0.00550143709962169,-0.05487688647401046
-0.00550109709962169,-0.05072977819693626
-0.00550075709962169,-0.04671432415087801
-0.00550041709962169,-0.04546360895620712
-0.00550007709962169,-0.04434454799255218
-0.00549973709962169,-0.04181020404545589
-0.00549939709962169,-0.03996704481119608
-0.00549905709962169,-0.03930877365610494
-0.00549871709962169,-0.03417425864640337
-0.00549837709962169,-0.03345016037579378
-0.00549803709962169,-0.03262732143192985
-0.00549769709962169,-0.03180448248806742
-0.00549735709962169,-0.03124495200623845
-0.00549701709962169,-0.03094872998644744
-0.00549667709962169,-0.03292354345171727
-0.00549633709962169,-0.03193613671908415
-0.00549599709962169,-0.03298937056722998
-0.00549565709962169,-0.03219944518112204
-0.00549531709962169,-0.03246275364315706
-0.00549497709962169,-0.03321976547151188
-0.00549463709962169,-0.03361472816456584
-0.00549429709962169,-0.03252858075866617
-0.00549395709962169,-0.03160700114153858
-0.00549361709962169,-0.03108038421746662
-0.00549327709962169,-0.02933596565647414
-0.00549293709962169,-0.03187030960357504
-0.00549259709962169,-0.02653831324734648
-0.00549225709962169,-0.02225955073924436
-0.00549191709962169,-0.01952772544561612
-0.00549157709962169,-0.01893528140603517
-0.00549123709962169,-0.02193041516169879
-0.00549089709962169,-0.02209498295047157
-0.00549055709962169,-0.01972520679214346
-0.00549021709962169,-0.0190011085215432
-0.00548987709962169,-0.02031765083172549
-0.00548953709962169,-0.02114048977558942
-0.00548919709962169,-0.01873780005950675
-0.00548885709962169,-0.01844157803971573
-0.00548851709962169,-0.01952772544561612
-0.00548817709962169,-0.01863905938624362
-0.00548783709962169,-0.01893528140603409
-0.00548749709962169,-0.01942898477235245
-0.00548715709962169,-0.02021891015846104
-0.00548681709962169,-0.01979103390765257
-0.00548647709962169,-0.01959355256112523
-0.00548613709962169,-0.01847449159746808
-0.00548579709962169,-0.01725668996055168
-0.00548545709962169,-0.01979103390765257
-0.00548511709962169,-0.01745417130707765
-0.00548477709962169,-0.01669715947872421
-0.00548443709962169,-0.01610471543914218
-0.00548409709962169,-0.01524896293752094
-0.00548375709962169,-0.01373493928081407
-0.00548341709962169,-0.01376785283856862
-0.00548307709962169,-0.01281335966368515
-0.00548273709962169,-0.01208926139308621
-0.00548239709962169,-0.01541353072629648
-0.00548205709962169,-0.006131907439514309
-0.00548171709962169,-0.007744671769484675
-0.00548137709962169,-0.007415536191939104
-0.00548103709962169,-0.00998279369680288
-0.00548069709962169,-0.014557778224678
-0.00548035709962169,-0.01574266630384205
-0.00548001709962169,-0.01416281553162265
-0.00547967709962169,-0.01380076639632318
-0.00547933709962169,-0.014557778224678
-0.00547899709962169,-0.0157426663038399
-0.00547865709962169,-0.01485400024446901
-0.00547831709962169,-0.014557778224678
-0.00547797709962169,-0.01630219678566635
-0.00547763709962169,-0.01659841880546054
-0.00547729709962169,-0.01564392563057838
-0.00547695709962169,-0.01561101207282388
-0.00547661709962169,-0.01636802390117864
-0.00547627709962169,-0.01475525957120534
-0.00547593709962169,-0.01531479005303179
-0.00547559709962169,-0.01679590015198788
-0.00547525709962169,-0.01482108668671445
-0.00547491709962169,-0.01320832235674409
-0.00547457709962169,-0.01330706303000483
-0.00547423709962169,-0.01274753254817735
-0.00547389709962169,-0.01330706303000381
-0.00547355709962169,-0.0129450138947047
-0.00547321709962169,-0.0106410648518857
-0.00547287709962169,-0.01208926139308358
-0.00547253709962169,-0.01399824774285052
-0.00547219709962169,-0.01686172726749699
-0.00547185709962169,-0.016795900151988
-0.00547151709962169,-0.01176012581554064
-0.00547117709962169,-0.01152973091125874
-0.00547083709962169,-0.009686571677006896
-0.00547049709962169,-0.01080563264065849
-0.00547015709962169,-0.01054232417862203
-0.00546981709962169,-0.007448449749693661
-0.00546947709962169,-0.00619773455502049
-0.00546913709962169,-0.007316795518675433
-0.00546879709962169,-0.006329388786038719
-0.00546845709962169,-0.007086400614393532
-0.00546811709962169,-0.01047649706311291
-0.00546777709962169,-0.00962074456149443
-0.00546743709962169,-0.01077271908290393
-0.00546709709962169,-0.009785312350267215
-0.00546675709962169,-0.01021318860107646
-0.00546641709962169,-0.01064106485188708
-0.00546607709962169,-0.01139807668024051
-0.00546573709962169,-0.01014736148556734
-0.00546539709962169,-0.01060815129413396
-0.00546505709962169,-0.01215508850859533
-0.00546471709962169,-0.01176012581554064
-0.00546437709962169,-0.01284627322144205
-0.00546403709962169,-0.0134058037032685
-0.00546369709962169,-0.01452486466692344
-0.00546335709962169,-0.01393242062734315
-0.00546301709962169,-0.01488691380222357
-0.00546267709962169,-0.01373493928081407
-0.00546233709962169,-0.01195760716207002
-0.00546199709962169,-0.01307666812572293
-0.00546165709962169,-0.01613762899689674
-0.00546131709962169,-0.01235256985511429
-0.00546097709962169,-0.007744671769484675
-0.00546063709962169,-0.006987659941129861
-0.00546029709962169,-0.005177414264637722
-0.00545995709962169,-0.009851139465776329
-0.00545961709962169,-0.01011444792781279
-0.00545927709962169,-0.006000253208494045
-0.00545893709962169,-0.006493956574811504
-0.00545859709962169,-0.009785312350267215
-0.00545825709962169,-0.007645931096220106
-0.00545791709962169,-0.007152227729902647
-0.00545757709962169,-0.009094127637421515
-0.00545723709962169,-0.008271288693559085
-0.00545689709962169,-0.008633337828857716
-0.00545655709962169,-0.01001570725454911
-0.00545621709962169,-0.01073980552514806
-0.00545587709962169,-0.01139807668024051
-0.00545553709962169,-0.01304375456796837
-0.00545519709962169,-0.01294501389470488
-0.00545485709962169,-0.01235256985512267
-0.00545451709962169,-0.01462360534018711
-0.00545417709962169,-0.01271461899042627
-0.00545383709962169,-0.01320832235674115
-0.00545349709962169,-0.01268170543266824
-0.00545315709962169,-0.01172721225778782
-0.00545281709962169,-0.009949880139040001
-0.00545247709962169,-0.0106410648518857
-0.00545213709962169,-0.01083854619841268
-0.00545179709962169,-0.01014736148556734
-0.00545145709962169,-0.01376785283856862
-0.00545111709962169,-0.01445903755141307
-0.00545077709962169,-0.008435856482330374
-0.00545043709962169,-0.008007980231521132
-0.00545009709962169,-0.007415536191940181
-0.00544975709962169,-0.007810498884993789
-0.00544941709962169,-0.01143099023799507
-0.00544907709962169,-0.01057523773637814
-0.00544873709962169,-0.006230648112775047
-0.00544839709962169,-0.007810498884993789
-0.00544805709962169,-0.008337115809066702
-0.00544771709962169,-0.008238375135803031
-0.00544737709962169,-0.007942153116012016
-0.00544703709962169,-0.01034484283209469
-0.00544669709962169,-0.01189178004655887
-0.00544635709962169,-0.01291210033695014
-0.00544601709962169,-0.01570975274608749
-0.00544567709962169,-0.01561101207282466
-0.00544533709962169,-0.01607180188138762
-0.00544499709962169,-0.01663133236321509
-0.00544465709962169,-0.01557809851506352
-0.00544431709962169,-0.01241839697063178
-0.00544397709962169,-0.01162847158452241
-0.00544363709962169,-0.01129933600697313
-0.00544329709962169,-0.009258695426194301
-0.00544295709962169,-0.008732078502121389
-0.00544261709962169,-0.007678844653974722
-0.00544227709962169,-0.007218054845411761
-0.00544193709962169,-0.009291608983948858
-0.00544159709962169,-0.007777585327237375
-0.00544125709962169,-0.006757265036847961
-0.00544091709962169,-0.01205634783533165
-0.00544057709962169,-0.01307666812571125
-0.00544023709962169,-0.00665852436358429
-0.00543989709962169,-0.01123350889146773
-0.00543955709962169,-0.01705920861401697
-0.00543921709962169,-0.01301084101021381
-0.00543887709962169,-0.01172721225778608
-0.00543853709962169,-0.008271288693565072
-0.00543819709962169,-0.01238548341287723
-0.00543785709962169,-0.01021318860107646
-0.00543751709962169,-0.0109372868716757
-0.00543717709962169,-0.01037775638984924
-0.00543683709962169,-0.009028300521912402
-0.00543649709962169,-0.009258695426193881
-0.00543615709962169,-0.00869916494436683
-0.00543581709962169,-0.008304202251312145
-0.00543547709962169,-0.008633337828857118
-0.00543513709962169,-0.007975066673766575
-0.00543479709962169,-0.007415536191939104
-0.00543445709962169,-0.007678844653975081
-0.00543411709962169,-0.00790923955825746
-0.00543377709962169,-0.00767884465397556
-0.00543343709962169,-0.007843412442748046
-0.00543309709962169,-0.008666251386612273
-0.00543275709962169,-0.008073807347030245
-0.00543241709962169,-0.007645931096221781
-0.00543207709962169,-0.007283881960920875
-0.00543173709962169,-0.007876326000502903
-0.00543139709962169,-0.007580103980712427
-0.00543105709962169,-0.008073807347030245
-0.00543071709962169,-0.008863732733139616
-0.00543037709962169,-0.01347163081876923
-0.00543003709962169,-0.01189178004655887
-0.00542969709962169,-0.0113322495647314
-0.00542935709962169,-0.008501683597844636
-0.00542901709962169,-0.007448449749693661
-0.00542867709962169,-0.0117930393732952
-0.00542833709962169,-0.0105752377363788
-0.00542799709962169,-0.006987659941129861
-0.00542765709962169,-0.007382622634184546
-0.00542731709962169,-0.009324522541703417
-0.00542697709962169,-0.008863732733139616
-0.00542663709962169,-0.008666251386612273
-0.00542629709962169,-0.008238375135803031
-0.00542595709962169,-0.01054232417862203
-0.00542561709962169,-0.01027901571658557
-0.00542527709962169,-0.009423263214967087
-0.00542493709962169,-0.009094127637421515
-0.00542459709962169,-0.01027901571658557
-0.00542425709962169,-0.01057523773637659
-0.00542391709962169,-0.01126642244922342
-0.00542357709962169,-0.01189178004655887
-0.00542323709962169,-0.01044358350535836
-0.00542289709962169,-0.01324123591449296
-0.00542255709962169,-0.01172721225778608
-0.00542221709962169,-0.01100311398718583
-0.00542187709962169,-0.009653658119252459
-0.00542153709962169,-0.0115626444690133
-0.00542119709962169,-0.01080563264065849
-0.00542085709962169,-0.01202343427757907
-0.00542051709962169,-0.01310958168347748
-0.00542017709962169,-0.01534770361078737
-0.00541983709962169,-0.01758582553808779
-0.00541949709962169,-0.01238548341287723
-0.00541915709962169,-0.01090437331392216
-0.00541881709962169,-0.008402942924581325
-0.00541847709962169,-0.01143099023799507
-0.00541813709962169,-0.01547935784180559
-0.00541779709962169,-0.01271461899041849
-0.00541745709962169,-0.01034484283209469
-0.00541711709962169,-0.01100311398718583
-0.00541677709962169,-0.01146390379574927
-0.00541643709962169,-0.01126642244922228
-0.00541609709962169,-0.01060815129413114
-0.00541575709962169,-0.009719485234760676
-0.00541541709962169,-0.01113476821820406
-0.00541507709962169,-0.01172721225778608
-0.00541473709962169,-0.0115297309112591
-0.00541439709962169,-0.01054232417862203
-0.00541405709962169,-0.01218800206634988
-0.00541371709962169,-0.01106894110269698
-0.00541337709962169,-0.01097020042943127
-0.00541303709962169,-0.01080563264065849
