Analysis/files/cmb03_wrd01/d2s04_ch30.csv

#Digilent WaveForms Oscilloscope Acquisition
#Device Name: ADP3450
#Serial Number: SN:210018B9D9B0
#Date Time: 2024-08-13 12:23:57.744.699.080
#Sample rate: 2.94118e+06Hz
#Samples: 32768
#Trigger: Source: Channel 3 Type: Edge Condition: Rising Level: 60 mV Hyst.: Auto HoldOff: 0 s
#Channel 3: Range: 200 mV/div Offset: 0 V Attenuation: 1 X Coupling: DC Bandwidth: 0 Hz Sample Mode: Average

Time (s),Channel 3 (V)
-0.005570316627358491,0.009995735860221606
-0.005569976627358491,0.00950203249389912
-0.005569636627358491,0.007230997008838809
-0.005569296627358491,0.005025788639283483
-0.005568956627358491,0.01039069855327683
-0.005568616627358491,0.01068692057306731
-0.005568276627358491,0.01101605615061288
-0.005567936627358491,0.006605639411498452
-0.005567596627358491,0.004532085272965126
-0.005567256627358491,0.004301690368683227
-0.005566916627358491,0.006177763160688013
-0.005566576627358491,0.003445937867064742
-0.005566236627358491,0.002195222672391572
-0.005565896627358491,0.001010334593227875
-0.005565556627358491,0.001207815939754859
-0.005565216627358491,0.0008786803622092876
-0.005564876627358491,-0.002511416086506981
-0.005564536627358491,-0.0007999110832731249
-0.005564196627358491,-0.00119487377632781
-0.005563856627358491,-0.002610156759774425
-0.005563516627358491,-0.002972205895073894
-0.005563176627358491,-0.002610156759773766
-0.005562836627358491,-0.004255834647498628
-0.005562496627358491,-0.005111587149120106
-0.005562156627358491,-0.002807638106301108
-0.005561816627358491,-0.004387488878516976
-0.005561476627358491,-0.003070946568337565
-0.005561136627358491,-0.00267598387528288
-0.005560796627358491,-0.002149366951210924
-0.005560456627358491,-0.002083539835700852
-0.005560116627358491,-0.0008657381987822392
-0.005559776627358491,-0.0008657381987822392
-0.005559436627358491,-0.00244558897100098
-0.005559096627358491,-0.005638204073193019
-0.005558756627358491,-0.001589836469389859
-0.005558416627358491,0.0003520634381363738
-0.005558076627358491,0.00153695151730043
-0.005557736627358491,0.002952234500743811
-0.005557396627358491,-0.001096133103064139
-0.005557056627358491,-0.001326528007346039
-0.005556716627358491,0.000582458342414801
-0.005556376627358491,-0.003038033010583008
-0.005556036627358491,-0.002643070317528323
-0.005555696627358491,-0.002544329644264831
-0.005555356627358491,-0.004255834647501621
-0.005555016627358491,-0.003795044838937822
-0.005554676627358491,-0.00237976185549444
-0.005554336627358491,-0.003795044838937822
-0.005553996627358491,-0.004453315994028964
-0.005553656627358491,-0.005243241380138334
-0.005553316627358491,-0.006724351479093405
-0.005552976627358491,-0.002873465221810222
-0.005552636627358491,-0.007185141287657204
-0.005552296627358491,-0.007580103980711889
-0.005551956627358491,-0.008468770040084931
-0.005551616627358491,-0.007250968403166318
-0.005551276627358491,-0.008337115809067659
-0.005550936627358491,-0.008863732733139616
-0.005550596627358491,-0.007942153116012016
-0.005550256627358491,-0.007942153116012676
-0.005549916627358491,-0.008304202251312145
-0.005549576627358491,-0.007942153116012016
-0.005549236627358491,-0.006888919267872835
-0.005548896627358491,-0.01054232417862203
-0.005548556627358491,-0.01195760716206798
-0.005548216627358491,-0.004091266858725663
-0.005547876627358491,-0.002346848297737309
-0.005547536627358491,-0.001063219545309582
-0.005547196627358491,-0.001951885604690167
-0.005546856627358491,-0.006098993881756819
-0.005546516627358491,-0.004979932918101878
-0.005546176627358491,-0.004354575320769423
-0.005545836627358491,-0.006625610805829733
-0.005545496627358491,-0.006131907439511376
-0.005545156627358491,-0.006098993881762207
-0.005544816627358491,-0.009061214079666959
-0.005544476627358491,-0.009916966581285444
-0.005544136627358491,-0.007909239558260693
-0.005543796627358491,-0.009686571677003543
-0.005543456627358491,-0.01083854619841304
-0.005543116627358491,-0.009785312350265779
-0.005542776627358491,-0.008995386964157845
-0.005542436627358491,-0.007876326000502903
-0.005542096627358491,-0.005868598977478571
-0.005541756627358491,-0.006428129459302391
-0.005541416627358491,-0.006362302343793276
-0.005541076627358491,-0.005012846475858889
-0.005540736627358491,-0.004881192244838206
-0.005540396627358491,-0.006329388786038719
-0.005540056627358491,-0.007349709076428133
-0.005539716627358491,-0.005605290515438462
-0.005539376627358491,-0.006691437921338847
-0.005539036627358491,-0.006197734555021388
-0.005538696627358491,-0.006033166766247705
-0.005538356627358491,-0.007185141287657204
-0.005538016627358491,-0.01031192927433444
-0.005537676627358491,-0.003498822819146808
-0.005537336627358491,-0.005506549842174791
-0.005536996627358491,-0.006197734555019234
-0.005536656627358491,-0.007185141287657204
-0.005536316627358491,-0.01231965629736811
-0.005535976627358491,-0.01097020042943373
-0.005535636627358491,-0.008402942924575817
-0.005535296627358491,-0.009949880139040001
-0.005534956627358491,-0.01041066994760296
-0.005534616627358491,-0.008106720904784802
-0.005534276627358491,-0.008896646290894173
-0.005533936627358491,-0.009522003888229621
-0.005533596627358491,-0.007086400614393532
-0.005533256627358491,-0.006954746383375304
-0.005532916627358491,-0.008139634462539359
-0.005532576627358491,-0.007448449749693661
-0.005532236627358491,-0.006461043017056948
-0.005531896627358491,-0.006428129459302391
-0.005531556627358491,-0.005243241380138334
-0.005531216627358491,-0.005374895611156563
-0.005530876627358491,-0.006230648112775047
-0.005530536627358491,-0.005802771861965805
-0.005530196627358491,-0.004222921089747064
-0.005529856627358491,-0.004552056667292635
-0.005529516627358491,-0.005473636284416402
-0.005529176627358491,-0.00336716858812858
-0.005528836627358491,-0.004782451571574535
-0.005528496627358491,-0.005045760033613267
-0.005528156627358491,-0.006296475228284162
-0.005527816627358491,-0.0111018546604495
-0.005527476627358491,-0.006395215901545498
-0.005527136627358491,-0.005111587149120106
-0.005526796627358491,-0.005473636284420234
-0.005526456627358491,-0.005835685419726169
-0.005526116627358491,-0.009028300521912402
-0.005525776627358491,-0.009686571677003543
-0.005525436627358491,-0.007777585327240309
-0.005525096627358491,-0.00837002936682126
-0.005524756627358491,-0.01011444792781279
-0.005524416627358491,-0.01113476821820472
-0.005524076627358491,-0.01149681735350419
-0.005523736627358491,-0.01357037149204128
-0.005523396627358491,-0.02041639150500191
-0.005523056627358491,-0.02742697930670982
-0.005522716627358491,-0.04315965991338813
-0.005522376627358491,-0.06448764533838924
-0.005522036627358491,-0.09095014577300503
-0.005521696627358491,-0.1201444715012972
-0.005521356627358491,-0.1516756598302201
-0.005521016627358491,-0.1831081074857649
-0.005520676627358491,-0.2084515469567739
-0.005520336627358491,-0.2322151356555209
-0.005519996627358491,-0.2487377416483518
-0.005519656627358491,-0.2590067716677736
-0.005519316627358491,-0.2644045951395112
-0.005518976627358491,-0.2666756306245854
-0.005518636627358491,-0.2636475833111662
-0.005518296627358491,-0.2583814140704467
-0.005517956627358491,-0.2543988735821356
-0.005517616627358491,-0.247092063760624
-0.005517276627358491,-0.2443602384670007
-0.005516936627358491,-0.2316885187314912
-0.005516596627358491,-0.2208928717879965
-0.005516256627358491,-0.2192142803425171
-0.005515916627358491,-0.2136189755242394
-0.005515576627358491,-0.2029878963695174
-0.005515236627358491,-0.1960431356833185
-0.005514896627358491,-0.191501064713177
-0.005514556627358491,-0.1830093668125013
-0.005514216627358491,-0.1752746807401944
-0.005513876627358491,-0.1693173267866055
-0.005513536627358491,-0.1630966643709942
-0.005513196627358491,-0.1564810392623403
-0.005512856627358491,-0.1538150410842091
-0.005512516627358491,-0.1468702803979976
-0.005512176627358491,-0.1429206534674507
-0.005511836627358491,-0.1385760638438492
-0.005511496627358491,-0.1352847080683935
-0.005511156627358491,-0.1313679946956012
-0.005510816627358491,-0.126628442378945
-0.005510476627358491,-0.123797876412053
-0.005510136627358491,-0.1151086971648499
-0.005509796627358491,-0.110797021099003
-0.005509456627358491,-0.10507006204971
-0.005509116627358491,-0.101877446947518
-0.005508776627358491,-0.09710498107310093
-0.005508436627358491,-0.09364905750887872
-0.005508096627358491,-0.09032478817566847
-0.005507756627358491,-0.08565106297451597
-0.005507416627358491,-0.0826888427766112
-0.005507076627358491,-0.07949622767441916
-0.005506736627358491,-0.07515163805081296
-0.005506396627358491,-0.07258438054596217
-0.005506056627358491,-0.07028043150314317
-0.005505716627358491,-0.06524465716670175
-0.005505376627358491,-0.06843727226888799
-0.005505036627358491,-0.06945759255927925
-0.005504696627358491,-0.06461929956935522
-0.005504356627358491,-0.06234826408429492
-0.005504016627358491,-0.06070258619656706
-0.005503676627358491,-0.05744414397886231
-0.005503336627358491,-0.05546933051359248
-0.005502996627358491,-0.0553047627248197
-0.005502656627358491,-0.05217797473813222
-0.005502316627358491,-0.04967654434879043
-0.005501976627358491,-0.04849165626962637
-0.005501636627358491,-0.04816252069208158
-0.005501296627358491,-0.04859039694289004
-0.005500956627358491,-0.04496990558988876
-0.005500616627358491,-0.04200768539197437
-0.005500276627358491,-0.03967082279140507
-0.005499936627358491,-0.04171146337218761
-0.005499596627358491,-0.03884798384754636
-0.005499256627358491,-0.03756435509511341
-0.005498916627358491,-0.03782766355714987
-0.005498576627358491,-0.03815679913469484
-0.005498236627358491,-0.03697191105553139
-0.005497896627358491,-0.0356553687453491
-0.005497556627358491,-0.0332526790292708
-0.005497216627358491,-0.03203487739234782
-0.005496876627358491,-0.03368055528007567
-0.005496536627358491,-0.03562245518759101
-0.005496196627358491,-0.02535342516817273
-0.005495856627358491,-0.02426727776227234
-0.005495516627358491,-0.02311530324086494
-0.005495176627358491,-0.02301656256759917
-0.005494836627358491,-0.02670288103610957
-0.005494496627358491,-0.02489263535961222
-0.005494156627358491,-0.02242411852801714
-0.005493816627358491,-0.02436601843553601
-0.005493476627358491,-0.02535342516817093
-0.005493136627358491,-0.02209498295047157
-0.005492796627358491,-0.02193041516169879
-0.005492456627358491,-0.02278616766331571
-0.005492116627358491,-0.0213050575643622
-0.005491776627358491,-0.02018599660070726
-0.005491436627358491,-0.01956063900337181
-0.005491096627358491,-0.01692755438300611
-0.005490756627358491,-0.01626928322791496
-0.005490416627358491,-0.01702629505626978
-0.005490076627358491,-0.01498565447548724
-0.005489736627358491,-0.01442612399365977
-0.005489396627358491,-0.01547935784180559
-0.005489056627358491,-0.01679590015198788
-0.005488716627358491,-0.01610471543914218
-0.005488376627358491,-0.01544644428405104
-0.005488036627358491,-0.01557809851507046
-0.005487696627358491,-0.01623636967016041
-0.005487356627358491,-0.01623636967016041
-0.005487016627358491,-0.01761873909585145
-0.005486676627358491,-0.01742125774932446
-0.005486336627358491,-0.02170002025741689
-0.005485996627358491,-0.02413562353123921
-0.005485656627358491,-0.0159401476503694
-0.005485316627358491,-0.01557809851506927
-0.005484976627358491,-0.01564392563057958
-0.005484636627358491,-0.01630219678566952
-0.005484296627358491,-0.02031765083172549
-0.005483956627358491,-0.01896819496378386
-0.005483616627358491,-0.01633511034342408
-0.005483276627358491,-0.01646676457444231
-0.005482936627358491,-0.01653259168994585
-0.005482596627358491,-0.01347163081877761
-0.005482256627358491,-0.01189178004655887
-0.005481916627358491,-0.01185886648879569
-0.005481576627358491,-0.00711931417214809
-0.005481236627358491,-0.005769858304211248
-0.005480896627358491,-0.006296475228284461
-0.005480556627358491,-0.006461043017056948
-0.005480216627358491,-0.005276154937892892
-0.005479876627358491,-0.00823837513580297
-0.005479536627358491,-0.008205461578048474
-0.005479196627358491,-0.007250968403166318
-0.005478856627358491,-0.008238375135801236
-0.005478516627358491,-0.007843412442748346
-0.005478176627358491,-0.007547190422957332
-0.005477836627358491,-0.007185141287657862
-0.005477496627358491,-0.007942153116012016
-0.005477156627358491,-0.006625610805829733
-0.005476816627358491,-0.006526870132566242
-0.005476476627358491,-0.007547190422957332
-0.005476136627358491,-0.007152227729902647
-0.005475796627358491,-0.01324123591448464
-0.005475456627358491,-0.008863732733139616
-0.005475116627358491,-0.008172548020293918
-0.005474776627358491,-0.007415536191940481
-0.005474436627358491,-0.009192868310685188
-0.005474096627358491,-0.0127146189904228
-0.005473756627358491,-0.01218800206635084
-0.005473416627358491,-0.01031192927434013
-0.005473076627358491,-0.009818225908021772
-0.005472736627358491,-0.008863732733141352
-0.005472396627358491,-0.009291608983948858
-0.005472056627358491,-0.007942153116012016
-0.005471716627358491,-0.007349709076431067
-0.005471376627358491,-0.01031192927434013
-0.005471036627358491,-0.008139634462539359
-0.005470696627358491,-0.009818225908018719
-0.005470356627358491,-0.01268170543266824
-0.005470016627358491,-0.0134058037032685
-0.005469676627358491,-0.01274753254817735
-0.005469336627358491,-0.01113476821820406
-0.005468996627358491,-0.01182595293104976
-0.005468656627358491,-0.008501683597839487
-0.005468316627358491,-0.008304202251312145
-0.005467976627358491,-0.007580103980711889
-0.005467636627358491,-0.006921832825620747
-0.005467296627358491,-0.005934426092984033
-0.005466956627358491,-0.006625610805829733
-0.005466616627358491,-0.002215194066719081
-0.005466276627358491,-0.004815365129331427
-0.005465936627358491,-0.006098993881756819
-0.005465596627358491,-0.006263561670529605
-0.005465256627358491,-0.01031192927432911
-0.005464916627358491,-0.004255834647501621
-0.005464576627358491,-0.003465909261392251
-0.005464236627358491,-0.002050626277950127
-0.005463896627358491,-0.00415709397423795
-0.005463556627358491,-0.008732078502121389
-0.005463216627358491,-0.007481363307448337
-0.005462876627358491,-0.007547190422957332
-0.005462536627358491,-0.006362302343793276
-0.005462196627358491,-0.007448449749693002
-0.005461856627358491,-0.007086400614393532
-0.005461516627358491,-0.007283881960920875
-0.005461176627358491,-0.004749538013823031
-0.005460836627358491,-0.006428129459302391
-0.005460496627358491,-0.007152227729902647
-0.005460156627358491,-0.006658524363588182
-0.005459816627358491,-0.008797905617630502
-0.005459476627358491,-0.008304202251312145
-0.005459136627358491,-0.006987659941128244
-0.005458796627358491,-0.006098993881756819
-0.005458456627358491,-0.008995386964157845
-0.005458116627358491,-0.008995386964155271
-0.005457776627358491,-0.007580103980711889
-0.005457436627358491,-0.008007980231521132
-0.005457096627358491,-0.008699164944365572
-0.005456756627358491,-0.00962074456149443
-0.005456416627358491,-0.0104106699476038
-0.005456076627358491,-0.008600424271106452
-0.005455736627358491,-0.006559783690320619
-0.005455396627358491,-0.009489090330476201
-0.005455056627358491,-0.01146390379574603
-0.005454716627358491,-0.01251713764389546
-0.005454376627358491,-0.005671117630947577
-0.005454036627358491,-0.005671117630947577
-0.005453696627358491,-0.005276154937892892
-0.005453356627358491,-0.00665852436358429
-0.005453016627358491,-0.008139634462536665
-0.005452676627358491,-0.00586859897747492
-0.005452336627358491,-0.00540780916891112
-0.005451996627358491,-0.007415536191935452
-0.005451656627358491,-0.006395215901547833
-0.005451316627358491,-0.008139634462539359
-0.005450976627358491,-0.00968657167700073
-0.005450636627358491,-0.009785312350267215
-0.005450296627358491,-0.008962473406403288
-0.005449956627358491,-0.008995386964157784
-0.005449616627358491,-0.007448449749693661
-0.005449276627358491,-0.008139634462539359
-0.005448936627358491,-0.00777758532723989
-0.005448596627358491,-0.006559783690320619
-0.005448256627358491,-0.005736944746456691
-0.005447916627358491,-0.008040893789275689
-0.005447576627358491,-0.008106720904784802
-0.005447236627358491,-0.008106720904784802
-0.005446896627358491,-0.009522003888230759
-0.005446556627358491,-0.009851139465776329
-0.005446216627358491,-0.009357436099457973
-0.005445876627358491,-0.008830819175385059
-0.005445536627358491,-0.007777585327235519
-0.005445196627358491,-0.005736944746456691
-0.005444856627358491,-0.006428129459302391
-0.005444516627358491,-0.01080563264064651
-0.005444176627358491,-0.004222921089747064
-0.005443836627358491,-0.0006353432945003394
-0.005443496627358491,-0.0004049483902182001
-0.005443156627358491,-0.0002732941592002112
-0.005442816627358491,-0.004486229551783521
-0.005442476627358491,-0.005572376957679116
-0.005442136627358491,-0.002939292337319337
-0.005441796627358491,-0.006066080324002262
-0.005441456627358491,-0.008929559848647354
-0.005441116627358491,-0.008172548020293918
-0.005440776627358491,-0.006856005710111633
-0.005440436627358491,-0.007942153116011477
-0.005440096627358491,-0.007645931096221003
-0.005439756627358491,-0.006428129459302391
-0.005439416627358491,-0.005638204073193199
-0.005439076627358491,-0.005736944746456691
-0.005438736627358491,-0.004617883782801749
-0.005438396627358491,-0.006033166766244951
-0.005438056627358491,-0.004519143109538078
-0.005437716627358491,-0.005012846475856435
-0.005437376627358491,-0.004519143109539336
-0.005437036627358491,-0.005210327822383777
-0.005436696627358491,-0.004815365129329092
-0.005436356627358491,-0.004255834647502638
-0.005436016627358491,-0.004782451571574535
-0.005435676627358491,-0.005078673591365549
-0.005435336627358491,-0.00530906849564703
-0.005434996627358491,-0.005835685419720362
-0.005434656627358491,-0.005144500706874663
-0.005434316627358491,-0.004124180416485249
-0.005433976627358491,-0.008764992059875945
-0.005433636627358491,-0.00494701936034732
-0.005433296627358491,-0.001293614449598127
-0.005432956627358491,-0.002643070317528323
-0.005432616627358491,-0.002313934739982752
-0.005432276627358491,-0.008073807347019768
-0.005431936627358491,-0.01024610215883101
-0.005431596627358491,-0.00688891926786619
-0.005431256627358491,-0.007316795518674655
-0.005430916627358491,-0.007843412442748346
-0.005430576627358491,-0.006724351479093405
-0.005430236627358491,-0.004716624456069072
-0.005429896627358491,-0.005078673591365549
-0.005429556627358491,-0.003860871954446936
-0.005429216627358491,-0.003498822819147466
-0.005428876627358491,-0.003005119452828451
-0.005428536627358491,-0.00494701936034732
-0.005428196627358491,-0.005045760033610812
-0.005427856627358491,-0.006033166766247705
-0.005427516627358491,-0.00688891926786619
-0.005427176627358491,-0.006000253208493148
-0.005426836627358491,-0.006296475228284162
-0.005426496627358491,-0.008732078502121389
-0.005426156627358491,-0.007613017538466446
-0.005425816627358491,-0.006954746383375304
-0.005425476627358491,-0.007942153116012016
-0.005425136627358491,-0.00586859897747492
-0.005424796627358491,-0.004420402436274407
-0.005424456627358491,-0.00619773455502049
-0.005424116627358491,-0.005769858304211248
-0.005423776627358491,-0.008304202251315857
-0.005423436627358491,-0.01034484283209469
-0.005423096627358491,-0.002281021182228195
-0.005422756627358491,-0.00629647522828488
-0.005422416627358491,-0.006691437921338847
-0.005422076627358491,-0.009127041195176074
-0.005421736627358491,-0.01106894110269398
-0.005421396627358491,-0.01054232417862203
-0.005421056627358491,-0.007942153116012016
-0.005420716627358491,-0.008468770040083375
-0.005420376627358491,-0.007613017538466446
-0.005420036627358491,-0.006066080324002262
-0.005419696627358491,-0.004617883782802288
-0.005419356627358491,-0.004914105802592763
-0.005419016627358491,-0.004288748205256179
-0.005418676627358491,-0.002675983875284616
-0.005418336627358491,-0.003630477050165036
-0.005417996627358491,-0.004486229551783521
-0.005417656627358491,-0.004288748205257975
