Analysis/files/cmb03_wrd01/d2s06_ch32.csv

#Digilent WaveForms Oscilloscope Acquisition
#Device Name: ADP3450
#Serial Number: SN:210018B9D9B0
#Date Time: 2024-08-13 16:01:53.780.758.610
#Sample rate: 2.94118e+06Hz
#Samples: 32768
#Trigger: Source: Channel 3 Type: Edge Condition: Rising Level: 60 mV Hyst.: Auto HoldOff: 0 s
#Channel 3: Range: 200 mV/div Offset: 0 V Attenuation: 1 X Coupling: DC Bandwidth: 0 Hz Sample Mode: Average

Time (s),Channel 3 (V)
-0.005570522942779292,0.01420867125280492
-0.005570182942779291,0.01437323904157357
-0.005569842942779291,0.01210220355651326
-0.005569502942779292,0.01048943922653996
-0.005569162942779291,0.01062109345755843
-0.005568822942779291,0.01075274768857642
-0.005568482942779292,0.009666600282676035
-0.005568142942779291,0.01065400701531335
-0.005567802942779291,0.01098314259285832
-0.005567462942779292,0.008777934223302994
-0.005567122942779291,0.009765340955929768
-0.005566782942779291,0.004301690368683227
-0.005566442942779292,0.01045652566878541
-0.005566102942779291,0.009699513840432388
-0.005565762942779291,0.01068692057306731
-0.005565422942779292,0.006671466527011338
-0.005565082942779291,0.001010334593232246
-0.005564742942779291,0.003610505655837527
-0.005564402942779292,0.005190356428056269
-0.005564062942779291,0.003610505655838246
-0.005563722942779291,0.004005468348892213
-0.005563382942779292,0.00756013258638438
-0.005563042942779292,0.005749886909887032
-0.005562702942779291,0.003873814117873984
-0.005562362942779292,0.003149715847273728
-0.005562022942779292,0.001504037959548866
-0.005561682942779291,0.002063568441373343
-0.005561342942779292,0.001833173537091444
-0.005561002942779292,-0.0004378619479688658
-0.005560662942779291,0.0002862363226272596
-0.005560322942779292,0.001141988824245744
-0.005559982942779292,0.0004178905536468051
-0.005559642942779291,0.001504037959545873
-0.005559302942779292,0.001800259979336887
-0.005558962942779292,0.001174902382001439
-0.005558622942779291,0.002096481999127901
-0.005558282942779292,0.003149715847273728
-0.005557942942779292,0.002919320942992247
-0.005557602942779291,0.002458531134428029
-0.005557262942779292,0.003215542962782842
-0.005556922942779292,0.0006153719001775605
-0.005556582942779291,-0.001688577142646167
-0.005556242942779292,-0.004979932918101878
-0.005555902942779292,-0.0004049483902267611
-0.005555562942779291,0.0006811990156819448
-0.005555222942779292,0.002359790461164357
-0.005554882942779292,-0.001754404258147798
-0.005554542942779291,-0.005736944746456691
-0.005554202942779292,-0.0005366026212366681
-0.005553862942779292,0.0003191498803818167
-0.005553522942779291,-0.002346848297737309
-0.005553182942779292,-0.002807638106301108
-0.005552842942779292,-0.001227787334082367
-0.005552502942779291,-0.00142526868060971
-0.005552162942779292,-0.002215194066719081
-0.005551822942779292,-0.003038033010583008
-0.005551482942779291,-0.004387488878516737
-0.005551142942779291,-0.00267598387528288
-0.005550802942779292,-0.002083539835700852
-0.005550462942779291,-0.002511416086508718
-0.005550122942779291,-0.001754404258155281
-0.005549782942779292,0.0005495447846637165
-0.005549442942779291,0.001964827768109013
-0.005549102942779291,0.001602778632809544
-0.005548762942779292,0.00176734642158233
-0.005548422942779291,0.0006811990156852377
-0.005548082942779291,0.002491444692182586
-0.005547742942779292,0.002656012480955371
-0.005547402942779291,-0.0004707755057320441
-0.005547062942779291,-0.002939292337319337
-0.005546722942779292,-0.001984799162437181
-0.005546382942779291,-0.004519143109550172
-0.005546042942779291,-0.01116768177595861
-0.005545702942779292,-0.004749538013819977
-0.005545362942779291,-0.003893785512201792
-0.005545022942779291,-0.004058353300974278
-0.005544682942779292,-0.004617883782801749
-0.005544342942779291,-0.009456176772721463
-0.005544002942779291,-0.009357436099457973
-0.005543662942779292,-0.005111587149120106
-0.005543322942779291,-0.00632938878604267
-0.005542982942779291,-0.008501683597839487
-0.005542642942779292,-0.007250968403166318
-0.005542302942779292,-0.006790178594603356
-0.005541962942779291,-0.006625610805829733
-0.005541622942779292,-0.006559783690320619
-0.005541282942779292,-0.005210327822386232
-0.005540942942779291,-0.005374895611156563
-0.005540602942779292,-0.004321661763010735
-0.005540262942779292,-0.002774724548549365
-0.005539922942779291,-0.003498822819146808
-0.005539582942779292,-0.003663390607919593
-0.005539242942779292,-0.003729217723428588
-0.005538902942779291,-0.001622750027137053
-0.005538562942779292,-0.002577243202019209
-0.005538222942779292,-0.002215194066719739
-0.005537882942779291,-0.00244558897100098
-0.005537542942779292,-0.002313934739982752
-0.005537202942779292,-0.002445588971000741
-0.005536862942779291,-0.004519143109538078
-0.005536522942779292,-0.005045760033610991
-0.005536182942779292,-0.002807638106305179
-0.005535842942779291,-0.005440722726665677
-0.005535502942779292,-0.007152227729902647
-0.005535162942779292,-0.0002074670437037292
-0.005534822942779291,0.00153695151730043
-0.005534482942779292,0.002458531134428029
-0.005534142942779292,-0.0005695161789857173
-0.005533802942779291,-0.003334255030374022
-0.005533462942779292,-0.002577243202019209
-0.005533122942779292,-0.00165566358489161
-0.005532782942779291,-0.003400082145883136
-0.005532442942779292,-0.005901512535229476
-0.005532102942779292,-0.007152227729902647
-0.005531762942779291,-0.006856005710111633
-0.005531422942779292,-0.007481363307448217
-0.005531082942779292,-0.009028300521912402
-0.005530742942779291,-0.007744671769484675
-0.005530402942779292,-0.007218054845411761
-0.005530062942779292,-0.005967339650738591
-0.005529722942779291,-0.004486229551776157
-0.005529382942779291,-0.0004378619479729968
-0.005529042942779292,-0.0001745534859365399
-0.005528702942779291,0.0004178905536447696
-0.005528362942779291,2.292786059080275e-05
-0.005528022942779292,-0.003070946568337565
-0.005527682942779291,-0.004091266858732308
-0.005527342942779291,-0.006000253208493148
-0.005527002942779292,-0.007283881960920875
-0.005526662942779291,-0.006592697248076852
-0.005526322942779291,-0.007514276865202775
-0.005525982942779292,-0.008205461578048474
-0.005525642942779291,-0.009061214079673304
-0.005525302942779291,-0.01255005120165001
-0.005524962942779292,-0.008567510713348603
-0.005524622942779291,-0.005835685419716291
-0.005524282942779291,-0.003597563492410479
-0.005523942942779292,-0.003663390607919593
-0.005523602942779291,-0.009159954752939072
-0.005523262942779291,-0.01380076639632318
-0.005522922942779292,-0.02117340333334397
-0.005522582942779291,-0.03703773817108115
-0.005522242942779291,-0.05938604388638478
-0.005521902942779292,-0.08726382730449464
-0.005521562942779291,-0.1176430411120052
-0.005521222942779291,-0.1475285515530887
-0.005520882942779292,-0.181100380462737
-0.005520542942779292,-0.2072995724353168
-0.005520202942779291,-0.2299770137282543
-0.005519862942779292,-0.2445906333712776
-0.005519522942779292,-0.2562420328163696
-0.005519182942779291,-0.2629893121560751
-0.005518842942779292,-0.26410837311973
-0.005518502942779292,-0.2633513612913765
-0.005518162942779291,-0.259500475034092
-0.005517822942779292,-0.2545634413709084
-0.005517482942779292,-0.2455451265461762
-0.005517142942779291,-0.2406739199984853
-0.005516802942779292,-0.2341241220053285
-0.005516462942779292,-0.227541410454429
-0.005516122942779291,-0.2189838854382322
-0.005515782942779292,-0.2095047808049197
-0.005515442942779292,-0.2025600201187208
-0.005515102942779291,-0.1964710119341151
-0.005514762942779292,-0.1907769664425767
-0.005514422942779292,-0.1783685551691313
-0.005514082942779291,-0.1720820656379883
-0.005513742942779292,-0.1642815524501583
-0.005513402942779292,-0.1599698763843192
-0.005513062942779291,-0.1593774323447293
-0.005512722942779292,-0.1516756598301629
-0.005512382942779292,-0.1432168754872417
-0.005512042942779291,-0.1405508773091226
-0.005511702942779292,-0.1345606097977932
-0.005511362942779292,-0.1302489337319462
-0.005511022942779291,-0.1267930101677177
-0.005510682942779292,-0.1211647917916885
-0.005510342942779292,-0.1142200311054769
-0.005510002942779291,-0.109974182155139
-0.005509662942779292,-0.1039839146438097
-0.005509322942779292,-0.09954058434694443
-0.005508982942779291,-0.09736828953513858
-0.005508642942779291,-0.09457063712600633
-0.005508302942779292,-0.090357701733423
-0.005507962942779291,-0.08848162894140876
-0.005507622942779291,-0.08601311210982149
-0.005507282942779292,-0.08354459527822969
-0.005506942942779291,-0.08180017671723325
-0.005506602942779291,-0.07910126498136449
-0.005506262942779292,-0.07534911939734498
-0.005505922942779291,-0.07376926862512168
-0.005505582942779291,-0.0712678382357799
-0.005505242942779292,-0.06642954524586001
-0.005504902942779291,-0.06465221312711236
-0.005504562942779291,-0.06379646062549543
-0.005504222942779292,-0.0635989792789681
-0.005503882942779291,-0.05398822041463424
-0.005503542942779291,-0.05224380185364588
-0.005503202942779292,-0.04855748338513548
-0.005502862942779291,-0.04842582915412348
-0.005502522942779291,-0.0518488391605912
-0.005502182942779292,-0.04763590376800789
-0.005501842942779291,-0.04391667174174221
-0.005501502942779291,-0.04352170904868825
-0.005501162942779292,-0.042797610778088
-0.005500822942779291,-0.03828845336571182
-0.005500482942779291,-0.0372681330753224
-0.005500142942779292,-0.0377289228838862
-0.005499802942779292,-0.03641238057370631
-0.005499462942779291,-0.03739978730634063
-0.005499122942779292,-0.03736687374858607
-0.005498782942779292,-0.03598450432289718
-0.005498442942779291,-0.03654403480472215
-0.005498102942779292,-0.03447048066618504
-0.005497762942779292,-0.03131077912175331
-0.005497422942779291,-0.03002715036931984
-0.005497082942779292,-0.02930305209871958
-0.005496742942779292,-0.02611043699653335
-0.005496402942779291,-0.0243001913200269
-0.005496062942779292,-0.0222266371814898
-0.005495722942779292,-0.02044930506274695
-0.005495382942779291,-0.01919858986807055
-0.005495042942779292,-0.01956063900337068
-0.005494702942779292,-0.01765165265360984
-0.005494362942779291,-0.01775039332687003
-0.005494022942779292,-0.02252285920128081
-0.005493682942779292,-0.01570975274609989
-0.005493342942779291,-0.01399824774285052
-0.005493002942779292,-0.01406407485835964
-0.005492662942779292,-0.01347163081877869
-0.005492322942779291,-0.01663133236321509
-0.005491982942779292,-0.01979103390765257
-0.005491642942779292,-0.01320832235675313
-0.005491302942779291,-0.01314249524123204
-0.005490962942779292,-0.01508439514875091
-0.005490622942779292,-0.01587432053486028
-0.005490282942779291,-0.01475525957120534
-0.005489942942779292,-0.01613762899689674
-0.005489602942779292,-0.01682881370974244
-0.005489262942779291,-0.01564392563057838
-0.005488922942779292,-0.01554518495731471
-0.005488582942779292,-0.01547935784180559
-0.005488242942779291,-0.01330706303000554
-0.005487902942779291,-0.01370202572305951
-0.005487562942779292,-0.0138665935118323
-0.005487222942779291,-0.01268170543266585
-0.005486882942779291,-0.01136516312248596
-0.005486542942779292,-0.01176012581554064
-0.005486202942779291,-0.01050941062086693
-0.005485862942779291,-0.01021318860107646
-0.005485522942779292,-0.01050941062086747
-0.005485182942779291,-0.00952200388823022
-0.005484842942779291,-0.009225781868439744
-0.005484502942779292,-0.009061214079666959
-0.005484162942779291,-0.007448449749692104
-0.005483822942779291,-0.006592697248075176
-0.005483482942779292,-0.0106410648518857
-0.005483142942779291,-0.005111587149114299
-0.005482802942779291,-0.001918972046928067
-0.005482462942779292,-0.002840551664055666
-0.005482122942779291,-0.002478502528757812
-0.005481782942779291,-0.003729217723428708
-0.005481442942779292,-0.001754404258155281
-0.005481102942779291,-0.002149366951211104
-0.005480762942779291,-0.002774724548546551
-0.005480422942779292,-0.005045760033610991
-0.005480082942779291,-0.008732078502112647
-0.005479742942779291,-0.00392669906995605
-0.005479402942779292,-0.002412675413246423
-0.005479062942779292,-0.009127041195163861
-0.005478722942779291,-0.008501683597839487
-0.005478382942779292,-0.00619773455502049
-0.005478042942779292,-0.009028300521907253
-0.005477702942779291,-0.00939034965721253
-0.005477362942779292,-0.008007980231521132
-0.005477022942779292,-0.008732078502120072
-0.005476682942779291,-0.007481363307448217
-0.005476342942779292,-0.006131907439511376
-0.005476002942779292,-0.007152227729900791
-0.005475662942779291,-0.006592697248075176
-0.005475322942779292,-0.004650797340556306
-0.005474982942779292,-0.006493956574808151
-0.005474642942779291,-0.003400082145883136
-0.005474302942779292,-0.00369630416567415
-0.005473962942779292,-0.003959612627710128
-0.005473622942779291,-0.002478502528755537
-0.005473282942779292,-0.002577243202019209
-0.005472942942779292,-0.003202600799354656
-0.005472602942779291,-0.002017712720191738
-0.005472262942779292,-0.0001745534859365399
-0.005471922942779292,-0.001326528007343943
-0.005471582942779291,0.003478851424819299
-0.005471242942779292,-0.001096133103064139
-0.005470902942779292,-0.004387488878513863
-0.005470562942779291,-0.005605290515438462
-0.005470222942779292,-0.00142526868060971
-0.005469882942779292,-0.001622750027137053
-0.005469542942779291,-0.002577243202019209
-0.005469202942779292,-0.001491095796118824
-0.005468862942779292,-0.0005695161789912252
-0.005468522942779291,-0.002248107624473638
-0.005468182942779292,-0.002017712720191738
-0.005467842942779292,-0.002017712720191738
-0.005467502942779291,-0.002050626277946295
-0.005467162942779292,-0.002939292337319337
-0.005466822942779292,-0.002215194066719081
-0.005466482942779291,-0.00277472454854685
-0.005466142942779291,-0.002939292337319337
-0.005465802942779292,-0.001688577142646167
-0.005465462942779291,-0.002281021182228135
-0.005465122942779291,-0.002248107624473638
-0.005464782942779292,-0.001688577142646167
-0.005464442942779291,-0.00178731781590918
-0.005464102942779291,-0.00142526868060971
-0.005463762942779292,-0.0002732941592002112
-0.005463422942779291,-0.00191897204692645
-0.005463082942779291,-0.001030305987555025
-0.005462742942779292,-0.002083539835700852
-0.005462402942779291,0.001997741325861894
-0.005462062942779291,0.000714112573436502
-0.005461722942779292,0.002754753154219042
-0.005461382942779291,0.002820580269717859
-0.005461042942779291,-0.002840551664055666
-0.005460702942779292,-0.003630477050165036
-0.005460362942779291,-0.0021164533934596
-0.005460022942779291,-0.004420402436274407
-0.005459682942779292,-0.005934426092984033
-0.005459342942779291,-0.004650797340557684
-0.005459002942779291,-0.00540780916891112
-0.005458662942779292,-0.005802771861965805
-0.005458322942779291,-0.004650797340555947
-0.005457982942779291,-0.004453315994028964
-0.005457642942779292,-0.004881192244838206
-0.005457302942779292,-0.004584970225047731
-0.005456962942779291,-0.006098993881756819
-0.005456622942779292,-0.003070946568337565
-0.005456282942779292,-0.002116453393457145
-0.005455942942779291,-0.002281021182228195
-0.005455602942779292,-0.003268427914864908
-0.005455262942779292,-0.001491095796122057
-0.005454922942779291,-0.00165566358489161
-0.005454582942779292,-0.001951885604682624
-0.005454242942779292,-0.0006353432945027341
-0.005453902942779291,-0.0009644788720459105
-0.005453562942779292,-0.002708897433037437
-0.005453222942779292,-0.001886058489175006
-0.005452882942779291,-0.002149366951209966
-0.005452542942779292,-0.005967339650738591
-0.005452202942779292,-0.006790178594601021
-0.005451862942779291,-0.0005366026212366681
-0.005451522942779292,5.584141834535986e-05
-0.005451182942779292,0.002129395556878686
-0.005450842942779291,-0.0003720348324638825
-0.005450502942779292,-0.003597563492410479
-0.005450162942779292,-0.001524009353877153
-0.005449822942779291,-0.0005695161789912252
-0.005449482942779292,-0.002643070317528323
-0.005449142942779292,-0.003729217723426732
-0.005448802942779291,-0.002610156759773766
-0.005448462942779292,-0.00369630416567415
-0.005448122942779292,-0.003762131281183265
-0.005447782942779291,-0.002577243202019209
-0.005447442942779292,-0.00267598387528288
-0.005447102942779292,-0.003597563492410479
-0.005446762942779291,-0.003202600799355794
-0.005446422942779292,-0.002807638106301108
-0.005446082942779292,-0.004552056667292635
-0.005445742942779291,-0.002939292337318739
-0.005445402942779291,-0.002610156759773766
-0.005445062942779292,-0.003235514357110351
-0.005444722942779291,0.0007799396889462149
-0.005444382942779291,0.001109075266491187
-0.005444042942779292,0.0003191498803818167
-0.005443702942779291,0.0006153719001725313
-0.005443362942779291,0.0004508041114000451
-0.005443022942779292,-0.001589836469382495
-0.005442682942779291,-0.00168857714264958
-0.005442342942779291,-0.003564649934655922
-0.005442002942779292,-0.00869916494436683
-0.005441662942779291,-0.007514276865193675
-0.005441322942779291,-0.002511416086510094
-0.005440982942779292,-0.002939292337319337
-0.005440642942779291,-0.003070946568342295
-0.005440302942779291,-0.005671117630947577
-0.005439962942779292,-0.008797905617630502
-0.005439622942779291,-0.006362302343790582
-0.005439282942779291,-0.004881192244838206
-0.005438942942779292,-0.006395215901547833
-0.005438602942779291,-0.005868598977472405
-0.005438262942779291,-0.004486229551783521
-0.005437922942779292,-0.00369630416567415
-0.005437582942779291,-0.004354575320763197
-0.005437242942779291,-0.003202600799355794
-0.005436902942779292,-0.003432995703637694
-0.005436562942779292,-0.004486229551781605
-0.005436222942779291,-0.002807638106301108
-0.005435882942779292,-0.002313934739982752
-0.005435542942779292,-0.002281021182228254
-0.005435202942779291,-0.00267598387528288
-0.005434862942779292,0.001010334593227516
-0.005434522942779292,0.000319149880383074
-0.005434182942779291,0.0001545820916090312
-0.005433842942779292,2.292786059080275e-05
-0.005433502942779292,-0.001096133103062103
-0.005433162942779291,-0.003498822819146808
-0.005432822942779292,-0.004058353300974278
-0.005432482942779292,-0.004947019360345703
-0.005432142942779291,-0.004683710898310864
-0.005431802942779292,-0.004519143109538078
-0.005431462942779292,-0.007843412442742299
-0.005431122942779291,-0.001622750027137053
-0.005430782942779292,0.0001216685338544741
-0.005430442942779292,0.00183317353708833
-0.005430102942779291,0.0002862363226272596
-0.005429762942779292,-0.002741810990791994
-0.005429422942779292,-0.003531736376899928
-0.005429082942779291,-0.003235514357110351
-0.005428742942779292,-0.001787317815909838
-0.005428402942779292,-0.001721490700400844
-0.005428062942779291,-0.001918972046928067
-0.005427722942779292,-0.001260700891836924
-0.005427382942779292,-0.0008657381987822392
-0.005427042942779291,-0.002577243202019209
-0.005426702942779292,-0.002346848297737309
-0.005426362942779292,-0.003465909261392251
-0.005426022942779291,-0.005045760033610991
-0.005425682942779292,0.0023268769034098
-0.005425342942779292,-4.289925491831147e-05
-0.005425002942779291,-0.004617883782801749
-0.005424662942779292,-0.005210327822383777
-0.005424322942779292,-0.003959612627710607
-0.005423982942779291,-0.005276154937895825
-0.005423642942779291,-0.00688891926786619
-0.005423302942779292,-0.006559783690320619
-0.005422962942779291,-0.005177414264628622
-0.005422622942779291,-0.004848278687083649
-0.005422282942779292,-0.003762131281183265
-0.005421942942779291,-0.003268427914865447
-0.005421602942779291,-0.003564649934655922
-0.005421262942779292,-0.005506549842174791
-0.005420922942779291,-0.007349709076420949
-0.005420582942779291,-0.002379761855491866
-0.005420242942779292,-0.001392355122855153
-0.005419902942779291,0.000121668533849924
-0.005419562942779291,-0.002379761855491866
-0.005419222942779292,-0.00494701936034732
-0.005418882942779291,-0.003663390607917019
-0.005418542942779291,-0.002248107624473638
-0.005418202942779292,-0.00290637877956478
-0.005417862942779291,-0.001984799162440354
