Analysis/files/cmb03_wrd01/d2s02_ch21.csv

#Digilent WaveForms Oscilloscope Acquisition
#Device Name: ADP3450
#Serial Number: SN:210018B9D9B0
#Date Time: 2024-08-13 11:07:51.740.313.530
#Sample rate: 2.94118e+06Hz
#Samples: 32768
#Trigger: Source: Channel 3 Type: Edge Condition: Rising Level: 60 mV Hyst.: Auto HoldOff: 0 s
#Channel 3: Range: 200 mV/div Offset: 0 V Attenuation: 1 X Coupling: DC Bandwidth: 0 Hz Sample Mode: Average

Time (s),Channel 3 (V)
-0.005570438235919235,0.009666600282676035
-0.005570098235919235,0.008284230856991941
-0.005569758235919235,0.0122996849030406
-0.005569418235919235,0.01121353749714022
-0.005569078235919235,0.005420751332338228
-0.005568738235919235,0.005453664890092726
-0.005568398235919235,0.006572725853747667
-0.005568058235919235,0.004104209022152052
-0.005567718235919235,0.001997741325864229
-0.005567378235919235,0.0030180616162555
-0.005567038235919235,0.0007470261311917177
-0.005566698235919235,0.001109075266491187
-0.005566358235919235,0.002261049787900686
-0.005566018235919235,0.002458531134425215
-0.005565678235919235,0.0009115939199638446
-0.005565338235919235,-0.000832824641027682
-0.005564998235919234,-0.0009973924297978932
-0.005564658235919235,0.000417890553645488
-0.005564318235919235,0.002063568441373343
-0.005563978235919234,0.0001874956493634087
-0.005563638235919235,8.875497609991696e-05
-0.005563298235919235,0.0005495447846637165
-0.005562958235919235,-0.0002403806014442172
-0.005562618235919235,-0.001359441565100596
-0.005562278235919235,-0.00188605848917351
-0.005561938235919235,-0.001491095796119542
-0.005561598235919235,-0.002412675413246423
-0.005561258235919235,-0.0003720348324638825
-0.005560918235919235,-0.002610156759769695
-0.005560578235919235,-0.003465909261392251
-0.005560238235919235,-0.006066080324002262
-0.005559898235919235,0.001174902381987131
-0.005559558235919235,0.0006482854579273878
-0.005559218235919235,0.001141988824245744
-0.005558878235919235,0.001701519306072197
-0.005558538235919235,-0.004552056667292635
-0.005558198235919235,-0.004650797340556306
-0.005557858235919235,-0.002248107624478008
-0.005557518235919235,-0.00369630416567415
-0.005557178235919235,-0.004782451571574535
-0.005556838235919235,-0.00353173637690364
-0.005556498235919235,-0.005210327822383777
-0.005556158235919235,-0.005638204073193019
-0.005555818235919235,-0.006625610805827937
-0.005555478235919235,-0.006790178594602518
-0.005555138235919235,-0.007053487056638975
-0.005554798235919235,-0.006329388786040035
-0.005554458235919235,-0.006526870132566062
-0.005554118235919235,-0.00711931417214809
-0.005553778235919235,-0.004354575320765292
-0.005553438235919235,-0.005243241380138334
-0.005553098235919235,-0.004782451571574535
-0.005552758235919235,-0.003432995703637694
-0.005552418235919235,-0.004881192244838206
-0.005552078235919235,-0.004420402436274407
-0.005551738235919235,-0.004848278687083649
-0.005551398235919235,-0.004519143109540952
-0.005551058235919235,-0.006098993881756819
-0.005550718235919235,-0.005374895611156563
-0.005550378235919235,-0.006954746383384045
-0.005550038235919235,-0.01176012581554064
-0.005549698235919235,-0.007448449749693661
-0.005549358235919235,-0.004486229551783581
-0.005549018235919235,-0.004519143109538078
-0.005548678235919235,-0.004354575320765292
-0.005548338235919235,-0.005835685419723056
-0.005547998235919235,-0.007316795518675433
-0.005547658235919235,-0.004650797340556306
-0.005547318235919235,-0.005012846475858171
-0.005546978235919235,-0.005967339650738591
-0.005546638235919235,-0.006230648112775047
-0.005546298235919235,-0.005769858304212266
-0.005545958235919235,-0.006329388786038719
-0.005545618235919235,-0.006493956574811504
-0.005545278235919235,-0.005374895611157162
-0.005544938235919235,-0.005704031188702134
-0.005544598235919235,-0.007415536191939104
-0.005544258235919234,-0.006526870132567739
-0.005543918235919235,-0.007448449749693661
-0.005543578235919235,-0.008435856482330374
-0.005543238235919234,-0.006888919267865591
-0.005542898235919235,-0.006559783690320619
-0.005542558235919235,-0.007810498884993789
-0.005542218235919235,-0.007382622634185324
-0.005541878235919235,-0.006790178594602518
-0.005541538235919235,-0.007942153116012016
-0.005541198235919235,-0.007580103980712547
-0.005540858235919235,-0.007152227729902647
-0.005540518235919235,-0.007711758211730118
-0.005540178235919235,-0.007020573498885676
-0.005539838235919235,-0.007053487056638975
-0.005539498235919235,-0.01218800206634988
-0.005539158235919235,-0.008633337828864182
-0.005538818235919235,-0.004354575320765292
-0.005538478235919235,-0.003860871954446936
-0.005538138235919235,-0.007218054845405655
-0.005537798235919235,-0.00837002936682126
-0.005537458235919235,-0.007053487056638975
-0.005537118235919235,-0.006888919267866489
-0.005536778235919235,-0.009456176772721644
-0.005536438235919235,-0.01011444792781279
-0.005536098235919235,-0.01205634783532812
-0.005535758235919235,-0.007744671769484675
-0.005535418235919235,-0.005374895611156563
-0.005535078235919235,-0.01215508850858299
-0.005534738235919235,-0.007547190422957332
-0.005534398235919235,-0.004584970225047193
-0.005534058235919235,-0.006362302343790044
-0.005533718235919235,-0.006757265036847961
-0.005533378235919235,-0.009291608983948858
-0.005533038235919235,-0.008402942924575817
-0.005532698235919235,-0.003630477050165036
-0.005532358235919235,-0.007547190422957332
-0.005532018235919235,-0.01360328504979584
-0.005531678235919235,-0.01077271908290393
-0.005531338235919235,-0.009192868310685188
-0.005530998235919235,-0.01060815129413114
-0.005530658235919235,-0.01080563264065849
-0.005530318235919235,-0.009192868310685188
-0.005529978235919235,-0.004552056667292635
-0.005529638235919235,-0.008666251386605209
-0.005529298235919235,-0.004782451571574535
-0.005528958235919235,-0.004190007531992507
-0.005528618235919235,-0.005835685419717967
-0.005528278235919235,-0.004519143109538078
-0.005527938235919235,-0.004321661763010735
-0.005527598235919235,-0.005309068495650382
-0.005527258235919235,-0.006921832825620747
-0.005526918235919235,-0.007975066673766575
-0.005526578235919235,-0.008896646290892856
-0.005526238235919235,-0.008172548020293918
-0.005525898235919235,-0.00767884465397556
-0.005525558235919235,-0.00998279369679384
-0.005525218235919235,-0.009587831003739873
-0.005524878235919235,-0.009127041195176074
-0.005524538235919235,-0.009554917445983281
-0.005524198235919235,-0.008435856482330374
-0.005523858235919235,-0.00962074456149443
-0.005523518235919234,-0.01709212217178482
-0.005523178235919235,-0.02035056438948005
-0.005522838235919235,-0.02548507939919096
-0.005522498235919234,-0.04585857164930114
-0.005522158235919235,-0.06748277909400582
-0.005521818235919235,-0.1010875215614086
-0.005521478235919234,-0.1348897453753899
-0.005521138235919235,-0.1629979236977306
-0.005520798235919235,-0.191204842693386
-0.005520458235919235,-0.2183256142830917
-0.005520118235919235,-0.2398181674968669
-0.005519778235919235,-0.2521278380970712
-0.005519438235919235,-0.2597308699383601
-0.005519098235919235,-0.2641742002352391
-0.005518758235919235,-0.2637792375421844
-0.005518418235919235,-0.2607841037865252
-0.005518078235919235,-0.2562749463741454
-0.005517738235919235,-0.2495605805922158
-0.005517398235919235,-0.2433070046188613
-0.005517058235919235,-0.2375471320118024
-0.005516718235919235,-0.229845359497236
-0.005516378235919235,-0.2222094140981927
-0.005516038235919235,-0.2141785060060669
-0.005515698235919235,-0.2067071283957824
-0.005515358235919235,-0.198939528765721
-0.005515018235919235,-0.1931467426009049
-0.005514678235919235,-0.1850170938355293
-0.005514338235919235,-0.1785660365156478
-0.005513998235919235,-0.1728719910240977
-0.005513658235919235,-0.1671450319748048
-0.005513318235919235,-0.1602002712886058
-0.005512978235919235,-0.1592786916714656
-0.005512638235919235,-0.1496021056916258
-0.005512298235919235,-0.1397609519230132
-0.005511958235919235,-0.1356796707614482
-0.005511618235919235,-0.1311705133490738
-0.005511278235919235,-0.1311705133490738
-0.005510938235919235,-0.1273854542072998
-0.005510598235919235,-0.1210002240029157
-0.005510258235919235,-0.1155365734156592
-0.005509918235919235,-0.1108299346567575
-0.005509578235919235,-0.1097767008086117
-0.005509238235919235,-0.1044447044523734
-0.005508898235919235,-0.10184453338976
-0.005508558235919235,-0.09996846059775369
-0.005508218235919235,-0.09805947424798939
-0.005507878235919235,-0.09578843876291902
-0.005507538235919235,-0.09252999654522379
-0.005507198235919235,-0.08831706115264049
-0.005506858235919235,-0.08328128681618881
-0.005506518235919235,-0.08084568354235602
-0.005506178235919235,-0.07630361257222712
-0.005505838235919235,-0.07103744333149399
-0.005505498235919235,-0.06883223496194266
-0.005505158235919235,-0.0674169519784967
-0.005504818235919235,-0.06484969447364089
-0.005504478235919235,-0.06465221312711392
-0.005504138235919235,-0.06284196745061327
-0.005503798235919235,-0.06083424042758427
-0.005503458235919235,-0.06027470994575782
-0.005503118235919235,-0.05935313032863022
-0.005502778235919235,-0.05918856253985558
-0.005502438235919235,-0.05816824224946616
-0.005502098235919235,-0.05188175271834575
-0.005501758235919234,-0.04931449521348575
-0.005501418235919235,-0.04681306482414396
-0.005501078235919235,-0.04855748338513548
-0.005500738235919234,-0.04826126136533705
-0.005500398235919235,-0.04417998020377939
-0.005500058235919235,-0.04220516673850597
-0.005499718235919235,-0.0417772904876975
-0.005499378235919235,-0.03927586009835039
-0.005499038235919235,-0.03924294654059583
-0.005498698235919235,-0.03848593471224239
-0.005498358235919235,-0.03707065172879506
-0.005498018235919235,-0.0365769483624767
-0.005497678235919235,-0.03315393835600899
-0.005497338235919235,-0.03433882643516682
-0.005496998235919235,-0.03193613671908415
-0.005496658235919235,-0.03061959440890426
-0.005496318235919235,-0.02808525046180097
-0.005495978235919235,-0.02673579459386412
-0.005495638235919235,-0.02614335055428318
-0.005495298235919235,-0.02278616766331727
-0.005494958235919235,-0.02255577275903537
-0.005494618235919235,-0.02209498295047241
-0.005494278235919235,-0.02110757621783486
-0.005493938235919235,-0.0210746626600803
-0.005493598235919235,-0.02143671179537977
-0.005493258235919235,-0.02051513217825283
-0.005492918235919235,-0.02087718131355296
-0.005492578235919235,-0.02186458804618788
-0.005492238235919235,-0.02416853708900867
-0.005491898235919235,-0.02005434236968903
-0.005491558235919235,-0.01778330688462872
-0.005491218235919235,-0.01567683918833294
-0.005490878235919235,-0.01442612399365977
-0.005490538235919235,-0.0185403187129794
-0.005490198235919235,-0.01975812034989802
-0.005489858235919235,-0.01840866448196118
-0.005489518235919235,-0.01738834419156991
-0.005489178235919235,-0.02058095929376194
-0.005488838235919235,-0.01909984919480688
-0.005488498235919235,-0.01946189833010701
-0.005488158235919235,-0.01913276275256125
-0.005487818235919235,-0.01903402207929776
-0.005487478235919235,-0.0190011085215432
-0.005487138235919235,-0.01936315765684094
-0.005486798235919235,-0.01804661534666105
-0.005486458235919235,-0.01528187649527825
-0.005486118235919235,-0.01653259168994879
-0.005485778235919235,-0.01508439514875091
-0.005485438235919235,-0.0152489629375237
-0.005485098235919235,-0.01551227139955608
-0.005484758235919235,-0.01327414947225027
-0.005484418235919235,-0.01251713764389546
-0.005484078235919235,-0.01241839697063083
-0.005483738235919235,-0.01189178004655887
-0.005483398235919235,-0.01077271908290393
-0.005483058235919235,-0.01133224956472972
-0.005482718235919235,-0.0104106699476038
-0.005482378235919235,-0.009785312350267215
-0.005482038235919235,-0.01087145975617221
-0.005481698235919235,-0.0134058037032685
-0.005481358235919235,-0.007382622634184546
-0.005481018235919234,-0.007711758211731914
-0.005480678235919235,-0.00869916494436683
-0.005480338235919235,-0.007481363307448217
-0.005479998235919234,-0.01370202572306813
-0.005479658235919235,-0.01844157803971573
-0.005479318235919235,-0.01511730870650547
-0.005478978235919235,-0.01422864264713404
-0.005478638235919235,-0.0140969884161142
-0.005478298235919235,-0.01241839697063178
-0.005477958235919235,-0.01294501389470374
-0.005477618235919235,-0.01162847158452241
-0.005477278235919235,-0.009884053023530886
-0.005476938235919235,-0.00985113946577639
-0.005476598235919235,-0.01228674273961356
-0.005476258235919235,-0.012253829181859
-0.005475918235919235,-0.01080563264066112
-0.005475578235919235,-0.01116768177595861
-0.005475238235919235,-0.01080563264065849
-0.005474898235919235,-0.01162847158452092
-0.005474558235919235,-0.01120059533371317
-0.005474218235919235,-0.01073980552514937
-0.005473878235919235,-0.01014736148556842
-0.005473538235919235,-0.01284627322144103
-0.005473198235919235,-0.01162847158452241
-0.005472858235919235,-0.009554917445989087
-0.005472518235919235,-0.009884053023530886
-0.005472178235919235,-0.009818225908021772
-0.005471838235919235,-0.006098993881763584
-0.005471498235919235,-0.009554917445985316
-0.005471158235919235,-0.01057523773637659
-0.005470818235919235,-0.00349882281915968
-0.005470478235919235,-0.004815365129329092
-0.005470138235919235,-0.006362302343793276
-0.005469798235919235,-0.008468770040084931
-0.005469458235919235,-0.01192469360431343
-0.005469118235919235,-0.01162847158452241
-0.005468778235919235,-0.01093728687167671
-0.005468438235919235,-0.01136516312248596
-0.005468098235919235,-0.0108714597561676
-0.005467758235919235,-0.00939034965721253
-0.005467418235919235,-0.01073980552514937
-0.005467078235919235,-0.01093728687167671
-0.005466738235919235,-0.009324522541703417
-0.005466398235919235,-0.008567510713352254
-0.005466058235919235,-0.01057523773637659
-0.005465718235919235,-0.01060815129413114
-0.005465378235919235,-0.008896646290894952
-0.005465038235919235,-0.009324522541703417
-0.005464698235919235,-0.008567510713348603
-0.005464358235919235,-0.008699164944365094
-0.005464018235919235,-0.007744671769484675
-0.005463678235919235,-0.00688891926786619
-0.005463338235919235,-0.006164820997266712
-0.005462998235919235,-0.006592697248075176
-0.005462658235919235,-0.005671117630947577
-0.005462318235919235,-0.002610156759773885
-0.005461978235919235,-0.00267598387528288
-0.005461638235919235,-0.00290637877956478
-0.005461298235919235,-0.003202600799359565
-0.005460958235919235,-0.005276154937892892
-0.005460618235919235,-0.009192868310685188
-0.005460278235919235,-0.001227787334088774
-0.005459938235919235,-0.004749538013819977
-0.005459598235919235,-0.01027901571658557
-0.005459258235919234,-0.006757265036845806
-0.005458918235919235,-0.005572376957683906
-0.005458578235919235,-0.008007980231521132
-0.005458238235919234,-0.008732078502117737
-0.005457898235919235,-0.006724351479093405
-0.005457558235919235,-0.007481363307448217
-0.005457218235919235,-0.007316795518675732
-0.005456878235919235,-0.006329388786038719
-0.005456538235919235,-0.007283881960920875
-0.005456198235919235,-0.005572376957687019
-0.005455858235919235,-0.005276154937892892
-0.005455518235919235,-0.007448449749693661
-0.005455178235919235,-0.007349709076430169
-0.005454838235919235,-0.006263561670529605
-0.005454498235919235,-0.007316795518675433
-0.005454158235919235,-0.007876326000501884
-0.005453818235919235,-0.007975066673766575
-0.005453478235919235,-0.009094127637421515
-0.005453138235919235,-0.00797506667376861
-0.005452798235919235,-0.007349709076429989
-0.005452458235919235,-0.008995386964157845
-0.005452118235919235,-0.01031192927433773
-0.005451778235919235,-0.008732078502121389
-0.005451438235919235,-0.00837002936682126
-0.005451098235919235,-0.01008153437005511
-0.005450758235919235,-0.01083854619841304
-0.005450418235919235,-0.00869916494436683
-0.005450078235919235,-0.008534597155594346
-0.005449738235919235,-0.006625610805829733
-0.005449398235919235,-0.006461043017056948
-0.005449058235919235,-0.007349709076428373
-0.005448718235919235,-0.005769858304211248
-0.005448378235919235,-0.006066080324002262
-0.005448038235919235,-0.006559783690320619
-0.005447698235919235,-0.007250968403166318
-0.005447358235919235,-0.005769858304211248
-0.005447018235919235,-0.007645931096221003
-0.005446678235919235,-0.007843412442748346
-0.005446338235919235,-0.008501683597839487
-0.005445998235919235,-0.009291608983948858
-0.005445658235919235,-0.01031192927433109
-0.005445318235919235,-0.005341982053402005
-0.005444978235919235,-0.00619773455502049
-0.005444638235919235,-0.00448622955178394
-0.005444298235919235,-0.004716624456065421
-0.005443958235919235,-0.01001570725454911
-0.005443618235919235,-0.008830819175376618
-0.005443278235919235,-0.004190007531992507
-0.005442938235919235,-0.003860871954446936
-0.005442598235919235,-0.004321661763012173
-0.005442258235919235,-0.005111587149120106
-0.005441918235919235,-0.004650797340556306
-0.005441578235919235,-0.006921832825621705
-0.005441238235919235,-0.007448449749693661
-0.005440898235919235,-0.006395215901547833
-0.005440558235919235,-0.008271288693557468
-0.005440218235919235,-0.008205461578048474
-0.005439878235919235,-0.008271288693557588
-0.005439538235919235,-0.009225781868440763
-0.005439198235919235,-0.009785312350267215
-0.005438858235919235,-0.009982793696794558
-0.005438518235919234,-0.01136516312248356
-0.005438178235919235,-0.01004862081230367
-0.005437838235919235,-0.01047649706311291
-0.005437498235919234,-0.01067397840964002
-0.005437158235919235,-0.01054232417862203
-0.005436818235919235,-0.008468770040084931
-0.005436478235919235,-0.0100486208123008
-0.005436138235919235,-0.009587831003739873
-0.005435798235919235,-0.008633337828857716
-0.005435458235919235,-0.01110185466044501
-0.005435118235919235,-0.005704031188702134
-0.005434778235919235,-0.004025439743219721
-0.005434438235919235,-0.003334255030375279
-0.005434098235919235,-0.003169687241601236
-0.005433758235919235,-0.002412675413246423
-0.005433418235919235,-0.004025439743216788
-0.005433078235919235,-0.004255834647501621
-0.005432738235919235,-0.004584970225047193
-0.005432398235919235,-0.004947019360346662
-0.005432058235919235,-0.005967339650738591
-0.005431718235919235,-0.007843412442748346
-0.005431378235919235,-0.008337115809065803
-0.005431038235919235,-0.008271288693557588
-0.005430698235919235,-0.007053487056638975
-0.005430358235919235,-0.007185141287656964
-0.005430018235919235,-0.01057523773637659
-0.005429678235919235,-0.009522003888230759
-0.005429338235919235,-0.007547190422960924
-0.005428998235919235,-0.007711758211730118
-0.005428658235919235,-0.008106720904784802
-0.005428318235919235,-0.008073807347030306
-0.005427978235919235,-0.006823092152357076
-0.005427638235919235,-0.008337115809066702
-0.005427298235919235,-0.006691437921338847
-0.005426958235919235,-0.007777585327239231
-0.005426618235919235,-0.008238375135803031
-0.005426278235919235,-0.005967339650738591
-0.005425938235919235,-0.005671117630947577
-0.005425598235919235,-0.007086400614393532
-0.005425258235919235,-0.009258695426194301
-0.005424918235919235,-0.01215508850859533
-0.005424578235919235,-0.006823092152357076
-0.005424238235919235,-0.005341982053402005
-0.005423898235919235,-0.005769858304215679
-0.005423558235919235,-0.008205461578048474
-0.005423218235919235,-0.01103602754494038
-0.005422878235919235,-0.009522003888229802
-0.005422538235919235,-0.008995386964157845
-0.005422198235919235,-0.00962074456149443
-0.005421858235919235,-0.006033166766246208
-0.005421518235919235,-0.005210327822383777
-0.005421178235919235,-0.005144500706874663
-0.005420838235919235,-0.004519143109539814
-0.005420498235919235,-0.005473636284420234
-0.005420158235919235,-0.005012846475856435
-0.005419818235919235,-0.005473636284423048
-0.005419478235919235,-0.007020573498884419
-0.005419138235919235,-0.008271288693557588
-0.005418798235919235,-0.006263561670532119
-0.005418458235919235,-0.007645931096221003
-0.005418118235919235,-0.007942153116012016
-0.005417778235919234,-0.006987659941129203
-0.005417438235919235,-0.006625610805829733
