Analysis/files/cmb03_wrd01/d2s05_ch05.csv

#Digilent WaveForms Oscilloscope Acquisition
#Device Name: ADP3450
#Serial Number: SN:210018B9D9B0
#Date Time: 2024-08-13 12:38:03.173.952.160
#Sample rate: 2.94118e+06Hz
#Samples: 32768
#Trigger: Source: Channel 3 Type: Edge Condition: Rising Level: 60 mV Hyst.: Auto HoldOff: 0 s
#Channel 3: Range: 200 mV/div Offset: 0 V Attenuation: 1 X Coupling: DC Bandwidth: 0 Hz Sample Mode: Average

Time (s),Channel 3 (V)
-0.005570296192771084,0.004170036137664999
-0.005569956192771084,0.003873814117874822
-0.005569616192771084,0.004334603926437783
-0.005569276192771084,0.003149715847273728
-0.005568936192771084,0.002195222672396122
-0.005568596192771084,0.004696653061737912
-0.005568256192771084,0.003182629405028285
-0.005567916192771084,0.002096481999125685
-0.005567576192771084,0.0008786803622092876
-0.005567236192771084,8.875497609991696e-05
-0.005566896192771084,0.0001545820916069357
-0.005566556192771084,-0.0009973924298004675
-0.005566216192771084,-0.001129046660818696
-0.005565876192771084,-0.002708897433042705
-0.005565536192771084,-0.005605290515438462
-0.005565196192771084,-0.0007999110832731249
-0.005564856192771084,0.001043248150983929
-0.005564516192771084,0.002063568441373343
-0.005564176192771084,0.003182629405028285
-0.005563836192771084,-0.0008657381987845143
-0.005563496192771084,-0.002116453393455409
-0.005563156192771084,0.0002862363226272596
-0.005562816192771085,-0.001293614449588608
-0.005562476192771084,-0.0005366026212366681
-0.005562136192771084,0.0009115939199638446
-0.005561796192771085,0.0004178905536463861
-0.005561456192771084,-0.0005695161789912252
-0.005561116192771084,0.001438210844036758
-0.005560776192771085,-0.0005695161789875732
-0.005560436192771084,-0.001063219545309582
-0.005560096192771084,-4.289925491831147e-05
-0.005559756192771085,-0.00185314493141566
-0.005559416192771084,-0.00188605848917351
-0.005559076192771084,-0.002873465221810222
-0.005558736192771085,-0.003827958396690642
-0.005558396192771084,-0.005045760033610991
-0.005558056192771084,-0.005012846475856435
-0.005557716192771085,-0.005638204073191882
-0.005557376192771084,-0.008139634462539359
-0.005557036192771084,-0.008106720904784802
-0.005556696192771085,-0.009028300521910726
-0.005556356192771084,-0.01008153437005823
-0.005556016192771084,-0.01014736148556734
-0.005555676192771085,-0.009390349657213908
-0.005555336192771084,-0.01176012581554064
-0.005554996192771084,-0.0127146189904228
-0.005554656192771085,-0.003597563492427062
-0.005554316192771084,-0.003630477050165036
-0.005553976192771084,-0.001853144931418952
-0.005553636192771085,-0.002708897433037437
-0.005553296192771084,-0.004486229551783521
-0.005552956192771084,-0.004058353300974278
-0.005552616192771084,-0.002807638106301108
-0.005552276192771084,-0.00438748887851985
-0.005551936192771084,-0.005506549842174791
-0.005551596192771084,-0.004190007531992507
-0.005551256192771084,-0.006592697248078828
-0.005550916192771084,-0.00860042427110316
-0.005550576192771084,-0.007481363307448217
-0.005550236192771084,-0.000832824641049714
-0.005549896192771084,-0.0129450138947047
-0.005549556192771084,-0.01004862081230367
-0.005549216192771084,-0.0101473614855698
-0.005548876192771084,-0.01149681735350419
-0.005548536192771084,-0.0104106699476038
-0.005548196192771084,-0.01073980552515242
-0.005547856192771084,-0.01241839697063178
-0.005547516192771084,-0.01113476821820406
-0.005547176192771084,-0.01120059533371263
-0.005546836192771084,-0.01090437331392216
-0.005546496192771084,-0.01004862081230367
-0.005546156192771084,-0.008435856482329895
-0.005545816192771084,-0.008172548020293918
-0.005545476192771084,-0.008106720904784802
-0.005545136192771084,-0.007250968403170808
-0.005544796192771084,-0.009719485234758102
-0.005544456192771084,-0.01297792745245925
-0.005544116192771084,-0.00593442609298523
-0.005543776192771084,-0.006592697248075176
-0.005543436192771084,-0.006098993881756819
-0.005543096192771084,-0.00507867359137393
-0.005542756192771084,-0.009686571677003543
-0.005542416192771084,-0.0106410648518857
-0.005542076192771085,-0.008666251386615866
-0.005541736192771084,-0.009324522541703417
-0.005541396192771084,-0.01044358350535836
-0.005541056192771085,-0.008073807347034556
-0.005540716192771084,-0.009324522541703417
-0.005540376192771084,-0.0111018546604495
-0.005540036192771085,-0.009159954752934163
-0.005539696192771084,-0.008962473406403288
-0.005539356192771084,-0.0101802750433219
-0.005539016192771085,-0.01093728687167534
-0.005538676192771084,-0.008534597155594046
-0.005538336192771084,-0.008337115809066702
-0.005537996192771085,-0.006526870132569355
-0.005537656192771084,-0.005967339650738591
-0.005537316192771084,-0.006131907439511376
-0.005536976192771085,-0.003959612627714559
-0.005536636192771084,-0.004025439743219721
-0.005536296192771084,-0.005769858304211248
-0.005535956192771085,-0.007250968403163624
-0.005535616192771084,-0.00619773455502049
-0.005535276192771084,-0.006592697248075176
-0.005534936192771085,-0.007283881960919617
-0.005534596192771084,-0.00767884465397556
-0.005534256192771084,-0.01054232417862203
-0.005533916192771085,-0.006066080324010404
-0.005533576192771084,-0.002708897433037437
-0.005533236192771084,-0.003070946568337565
-0.005532896192771085,-0.004420402436274407
-0.005532556192771084,-0.007777585327239231
-0.005532216192771084,-0.01050941062086747
-0.005531876192771084,-0.01090437331392216
-0.005531536192771084,-0.01129933600697684
-0.005531196192771084,-0.01304375456796837
-0.005530856192771084,-0.0129450138947047
-0.005530516192771084,-0.01353745793428673
-0.005530176192771084,-0.01268170543266824
-0.005529836192771084,-0.01376785283856862
-0.005529496192771084,-0.01162847158451966
-0.005529156192771084,-0.01011444792781279
-0.005528816192771084,-0.01129933600697684
-0.005528476192771084,-0.01093728687167564
-0.005528136192771084,-0.01034484283209469
-0.005527796192771084,-0.01067397840964026
-0.005527456192771084,-0.01212217495084101
-0.005527116192771084,-0.012253829181859
-0.005526776192771084,-0.01287918677919558
-0.005526436192771084,-0.01208926139308496
-0.005526096192771084,-0.01139807668024051
-0.005525756192771084,-0.01176012581554064
-0.005525416192771084,-0.01139807668023471
-0.005525076192771084,-0.008205461578048474
-0.005524736192771084,-0.006263561670529605
-0.005524396192771084,-0.007053487056639334
-0.005524056192771084,-0.007250968403166318
-0.005523716192771084,-0.01327414947225027
-0.005523376192771084,-0.01199052071983901
-0.005523036192771084,-0.02104174910232575
-0.005522696192771084,-0.0370377381710405
-0.005522356192771084,-0.05945187100195023
-0.005522016192771084,-0.09042352884893212
-0.005521676192771084,-0.1197165952504879
-0.005521336192771084,-0.1505236853088078
-0.005520996192771084,-0.1804421093076458
-0.005520656192771084,-0.2065096470492551
-0.005520316192771085,-0.2284300765137502
-0.005519976192771084,-0.2443602384669957
-0.005519636192771084,-0.2534114668494989
-0.005519296192771085,-0.2588092903212365
-0.005518956192771084,-0.2598296106116376
-0.005518616192771084,-0.256604081951691
-0.005518276192771085,-0.2543988735821396
-0.005517936192771084,-0.2486719145328427
-0.005517596192771084,-0.2406739199984853
-0.005517256192771085,-0.2330379745994419
-0.005516916192771084,-0.2271793613191169
-0.005516576192771084,-0.2182597871676319
-0.005516236192771085,-0.2105580146530796
-0.005515896192771084,-0.2027904150229901
-0.005515556192771084,-0.1943645442378235
-0.005515216192771085,-0.1866956852810256
-0.005514876192771084,-0.1807712448851914
-0.005514536192771084,-0.1740239655455072
-0.005514196192771085,-0.1670133777437993
-0.005513856192771084,-0.1624713067736576
-0.005513516192771084,-0.1610560237902117
-0.005513176192771085,-0.1556911138762286
-0.005512836192771084,-0.1456195652033244
-0.005512496192771084,-0.1403863095203498
-0.005512156192771085,-0.1348897453753388
-0.005511816192771084,-0.1340669064314749
-0.005511476192771084,-0.1319933522929378
-0.005511136192771084,-0.1250815051644808
-0.005510796192771084,-0.1212306189071976
-0.005510456192771084,-0.1201115579435426
-0.005510116192771084,-0.1159315361087139
-0.005509776192771084,-0.112278131197958
-0.005509436192771084,-0.1099412685973845
-0.005509096192771084,-0.1054650247427647
-0.005508756192771084,-0.1024369774293399
-0.005508416192771084,-0.09937601655817166
-0.005508076192771084,-0.09644670991801607
-0.005507736192771084,-0.0933528354890828
-0.005507396192771084,-0.09065392375321402
-0.005507056192771084,-0.08588145787880325
-0.005506716192771084,-0.07791637690220361
-0.005506376192771084,-0.07966079546319196
-0.005506036192771084,-0.07808094469097321
-0.005505696192771084,-0.0712020111202679
-0.005505356192771084,-0.06962216034805205
-0.005505016192771084,-0.0664953723613691
-0.005504676192771084,-0.06356606572121
-0.005504336192771084,-0.06162416581369466
-0.005503996192771084,-0.059517698117403
-0.005503656192771084,-0.05790493378742731
-0.005503316192771084,-0.05658839147724742
-0.005502976192771084,-0.05872777273129363
-0.005502636192771084,-0.05201340694935662
-0.005502296192771084,-0.04796503934555346
-0.005501956192771084,-0.04737259530597143
-0.005501616192771084,-0.0448382513588767
-0.005501276192771084,-0.04822834780758992
-0.005500936192771084,-0.04970945790654498
-0.005500596192771084,-0.04562817674498128
-0.005500256192771084,-0.04638518857333472
-0.005499916192771084,-0.0483929155963627
-0.005499576192771085,-0.04579274453375742
-0.005499236192771084,-0.04381793106847926
-0.005498896192771084,-0.04516738693641611
-0.005498556192771085,-0.04315965991339177
-0.005498216192771084,-0.04102027865934191
-0.005497876192771084,-0.03904546519406848
-0.005497536192771085,-0.03707065172879865
-0.005497196192771084,-0.0347337891282215
-0.005496856192771084,-0.03407551797313036
-0.005496516192771085,-0.03098164354420762
-0.005496176192771084,-0.02765737421099173
-0.005495836192771084,-0.02795359623078274
-0.005495496192771085,-0.0271965844024293
-0.005495156192771084,-0.026373745458564
-0.005494816192771084,-0.02673579459386412
-0.005494476192771085,-0.02874352161688845
-0.005494136192771084,-0.02956636056075604
-0.005493796192771084,-0.03032337238911085
-0.005493456192771085,-0.03032337238911085
-0.005493116192771084,-0.02778902844200995
-0.005492776192771084,-0.02979675546503794
-0.005492436192771085,-0.03219944518111623
-0.005492096192771084,-0.02400396930023588
-0.005491756192771084,-0.02137088467987132
-0.005491416192771085,-0.02077844064029037
-0.005491076192771084,-0.02146962535313499
-0.005490736192771084,-0.02400396930023588
-0.005490396192771085,-0.02278616766331727
-0.005490056192771084,-0.01952772544561612
-0.005489716192771084,-0.02094300842906207
-0.005489376192771084,-0.02186458804618967
-0.005489036192771084,-0.02031765083172549
-0.005488696192771084,-0.01814535601992472
-0.005488356192771084,-0.01919858986807055
-0.005488016192771084,-0.01761873909584959
-0.005487676192771084,-0.01640093745893319
-0.005487336192771084,-0.01626928322791496
-0.005486996192771084,-0.01396533418509513
-0.005486656192771084,-0.01350454437653217
-0.005486316192771084,-0.01452486466692344
-0.005485976192771084,-0.01577557986159439
-0.005485636192771084,-0.014557778224678
-0.005485296192771084,-0.01659841880546054
-0.005484956192771084,-0.01811244246216992
-0.005484616192771084,-0.01798078823115194
-0.005484276192771084,-0.01633511034342408
-0.005483936192771084,-0.01673007303647571
-0.005483596192771084,-0.01505148159099635
-0.005483256192771084,-0.01380076639632318
-0.005482916192771084,-0.01498565447548412
-0.005482576192771084,-0.01327414947225027
-0.005482236192771084,-0.01742125774932446
-0.005481896192771084,-0.02087718131353979
-0.005481556192771084,-0.0136361986075504
-0.005481216192771084,-0.01333997658775938
-0.005480876192771084,-0.01389950706959374
-0.005480536192771084,-0.01768456621136092
-0.005480196192771084,-0.01834283736645206
-0.005479856192771084,-0.016664245920966
-0.005479516192771084,-0.01465651889794167
-0.005479176192771084,-0.0143273833203961
-0.005478836192771085,-0.01465651889794107
-0.005478496192771084,-0.01360328504979584
-0.005478156192771084,-0.01380076639632318
-0.005477816192771085,-0.01465651889794011
-0.005477476192771084,-0.01281335966368647
-0.005477136192771084,-0.0104106699476038
-0.005476796192771085,-0.01054232417862179
-0.005476456192771084,-0.01037775638984924
-0.005476116192771084,-0.008238375135803031
-0.005475776192771085,-0.008271288693557527
-0.005475436192771084,-0.01060815129413114
-0.005475096192771084,-0.009587831003739873
-0.005474756192771085,-0.01077271908290177
-0.005474416192771084,-0.01139807668024051
-0.005474076192771084,-0.01054232417862203
-0.005473736192771085,-0.0109043733139215
-0.005473396192771084,-0.01139807668024051
-0.005473056192771084,-0.01146390379574963
-0.005472716192771085,-0.01008153437006074
-0.005472376192771084,-0.01136516312248596
-0.005472036192771084,-0.01073980552514937
-0.005471696192771085,-0.01376785283856312
-0.005471356192771084,-0.01337289014551394
-0.005471016192771084,-0.007448449749693661
-0.005470676192771085,-0.007283881960921174
-0.005470336192771084,-0.006823092152357076
-0.005469996192771084,-0.008995386964157845
-0.005469656192771085,-0.008995386964157845
-0.005469316192771084,-0.008073807347030245
-0.005468976192771084,-0.007481363307448217
-0.005468636192771084,-0.00837002936682126
-0.005468296192771084,-0.009522003888230759
-0.005467956192771084,-0.007876326000502903
-0.005467616192771084,-0.008764992059875945
-0.005467276192771084,-0.009719485234758102
-0.005466936192771084,-0.01143099023799507
-0.005466596192771084,-0.01001570725454911
-0.005466256192771084,-0.01347163081878234
-0.005465916192771084,-0.01607180188138762
-0.005465576192771084,-0.01531479005303281
-0.005465236192771084,-0.01455777822467758
-0.005464896192771084,-0.0143273833203961
-0.005464556192771084,-0.01370202572305951
-0.005464216192771084,-0.01255005120164947
-0.005463876192771084,-0.012253829181859
-0.005463536192771084,-0.01060815129413114
-0.005463196192771084,-0.00794215311601016
-0.005462856192771084,-0.006921832825620747
-0.005462516192771084,-0.01208926139308621
-0.005462176192771084,-0.009324522541704195
-0.005461836192771084,-0.009752398792512659
-0.005461496192771084,-0.0101802750433219
-0.005461156192771084,-0.01179303937328155
-0.005460816192771084,-0.004288748205256179
-0.005460476192771084,-0.003630477050165036
-0.005460136192771084,-0.009061214079667498
-0.005459796192771084,-0.009357436099457973
-0.005459456192771084,-0.008040893789275689
-0.005459116192771084,-0.008337115809070294
-0.005458776192771084,-0.01031192927434013
-0.005458436192771084,-0.008666251386612273
-0.005458096192771084,-0.007119314172147192
-0.005457756192771084,-0.006625610805829733
-0.005457416192771084,-0.007086400614393532
-0.005457076192771085,-0.007020573498884538
-0.005456736192771084,-0.006362302343793276
-0.005456396192771084,-0.009949880139040001
-0.005456056192771085,-0.010015707254549
-0.005455716192771084,-0.009061214079666959
-0.005455376192771084,-0.01149681735350419
-0.005455036192771085,-0.01225382918185762
-0.005454696192771084,-0.01278044610593191
-0.005454356192771084,-0.01347163081877761
-0.005454016192771085,-0.01426155620488555
-0.005453676192771084,-0.01350454437653217
-0.005453336192771084,-0.01350454437653217
-0.005452996192771085,-0.01301084101021471
-0.005452656192771084,-0.01060815129413114
-0.005452316192771084,-0.01034484283209469
-0.005451976192771085,-0.01001570725454971
-0.005451636192771084,-0.008764992059875945
-0.005451296192771084,-0.008304202251312145
-0.005450956192771085,-0.01044358350535447
-0.005450616192771084,-0.00517741426462922
-0.005450276192771084,-0.005605290515438462
-0.005449936192771085,-0.006197734555019412
-0.005449596192771084,-0.003597563492410479
-0.005449256192771084,-0.009554917445985316
-0.005448916192771085,-0.01018027504332076
-0.005448576192771084,-0.006757265036847961
-0.005448236192771084,-0.007645931096221003
-0.005447896192771085,-0.009522003888230759
-0.005447556192771084,-0.009489090330476201
-0.005447216192771084,-0.009357436099457973
-0.005446876192771084,-0.01218800206634988
-0.005446536192771084,-0.01195760716206798
-0.005446196192771084,-0.01136516312248596
-0.005445856192771084,-0.01090437331392216
-0.005445516192771084,-0.01057523773637569
-0.005445176192771084,-0.01008153437005823
-0.005444836192771084,-0.009291608983948858
-0.005444496192771084,-0.008830819175381886
-0.005444156192771084,-0.007086400614393532
-0.005443816192771084,-0.008929559848648731
-0.005443476192771084,-0.00837002936682096
-0.005443136192771084,-0.008205461578048474
-0.005442796192771084,-0.008797905617630502
-0.005442456192771084,-0.01037775638984942
-0.005442116192771084,-0.01047649706311291
-0.005441776192771084,-0.01031192927434013
-0.005441436192771084,-0.01156264446901276
-0.005441096192771084,-0.01126642244922228
-0.005440756192771084,-0.01205634783533165
-0.005440416192771084,-0.01620345611239232
-0.005440076192771084,-0.008764992059875945
-0.005439736192771084,-0.006559783690320619
-0.005439396192771084,-0.004815365129332804
-0.005439056192771084,-0.006856005710111633
-0.005438716192771084,-0.006790178594602518
-0.005438376192771084,-0.004683710898309966
-0.005438036192771084,-0.004190007531992507
-0.005437696192771084,-0.006164820997265934
-0.005437356192771084,-0.007942153116015609
-0.005437016192771084,-0.009916966581285444
-0.005436676192771084,-0.005638204073193019
-0.005436336192771085,-0.006131907439510478
-0.005435996192771084,-0.01241839697063178
-0.005435656192771084,-0.01004862081230367
-0.005435316192771085,-0.008435856482333307
-0.005434976192771084,-0.0120234342775771
-0.005434636192771084,-0.01182595293104976
-0.005434296192771085,-0.01310958168347515
-0.005433956192771084,-0.01182595293104976
-0.005433616192771084,-0.005078673591365549
-0.005433276192771085,-0.009258695426186698
-0.005432936192771084,-0.01357037149204128
-0.005432596192771084,-0.009522003888230759
-0.005432256192771085,-0.007086400614397963
-0.005431916192771084,-0.009949880139040001
-0.005431576192771084,-0.01004862081230367
-0.005431236192771085,-0.008633337828860291
-0.005430896192771084,-0.01139807668024051
-0.005430556192771084,-0.01136516312248596
-0.005430216192771085,-0.0120563478353304
-0.005429876192771084,-0.0106410648518857
-0.005429536192771084,-0.01050941062086747
-0.005429196192771085,-0.009851139465777526
-0.005428856192771084,-0.009653658119248986
-0.005428516192771084,-0.01024610215883101
-0.005428176192771085,-0.009686571677004562
-0.005427836192771084,-0.01146390379574963
-0.005427496192771084,-0.01090437331392216
-0.005427156192771085,-0.01011444792781279
-0.005426816192771084,-0.01027901571658557
-0.005426476192771084,-0.009028300521912402
-0.005426136192771084,-0.007876326000502903
-0.005425796192771084,-0.008534597155594046
-0.005425456192771084,-0.009258695426194301
-0.005425116192771084,-0.007744671769484675
-0.005424776192771084,-0.01004862081230367
-0.005424436192771084,-0.01580849341935116
-0.005424096192771084,-0.0106410648518857
-0.005423756192771084,-0.007678844653974483
-0.005423416192771084,-0.007086400614393532
-0.005423076192771084,-0.00665852436358429
-0.005422736192771084,-0.0111347682182025
-0.005422396192771084,-0.01027901571658557
-0.005422056192771084,-0.006757265036847961
-0.005421716192771084,-0.00609899388176113
-0.005421376192771084,-0.008468770040084931
-0.005421036192771084,-0.009192868310685188
-0.005420696192771084,-0.007613017538468901
-0.005420356192771084,-0.008962473406403288
-0.005420016192771084,-0.009324522541703417
-0.005419676192771084,-0.01037775638983823
-0.005419336192771084,-0.004321661763010735
-0.005418996192771084,-0.01284627322144103
-0.005418656192771084,-0.01195760716206876
-0.005418316192771084,-0.01238548341287723
-0.005417976192771084,-0.01261587831715913
-0.005417636192771084,-0.01031192927433959
-0.005417296192771084,-0.01001570725454911
-0.005416956192771084,-0.01008153437005823
-0.005416616192771084,-0.008732078502121569
