Analysis/files/cmb03_wrd01/d2s04_ch01.csv

#Digilent WaveForms Oscilloscope Acquisition
#Device Name: ADP3450
#Serial Number: SN:210018B9D9B0
#Date Time: 2024-08-13 11:57:27.898.130.350
#Sample rate: 2.94118e+06Hz
#Samples: 32768
#Trigger: Source: Channel 3 Type: Edge Condition: Rising Level: 60 mV Hyst.: Auto HoldOff: 0 s
#Channel 3: Range: 200 mV/div Offset: 0 V Attenuation: 1 X Coupling: DC Bandwidth: 0 Hz Sample Mode: Average

Time (s),Channel 3 (V)
-0.005570287531572905,0.004466258157456012
-0.005569947531572904,0.004729566619490194
-0.005569607531572904,0.003478851424819299
-0.005569267531572905,0.003116802289519171
-0.005568927531572904,0.00344593786706576
-0.005568587531572904,0.004005468348892213
-0.005568247531572905,0.003215542962782842
-0.005567907531572904,0.003807987002362834
-0.005567567531572904,0.002688926038709928
-0.005567227531572905,-0.001491095796118824
-0.005566887531572904,0.001306556613022481
-0.005566547531572904,0.003478851424819299
-0.005566207531572905,0.004005468348892213
-0.005565867531572904,0.004400431041942886
-0.005565527531572904,0.002195222672391572
-0.005565187531572905,-0.001392355122855153
-0.005564847531572904,0.001767346421583288
-0.005564507531572904,0.002293963345655243
-0.005564167531572905,0.0004508041114000451
-0.005563827531572904,0.0008128532467017897
-0.005563487531572904,0.001701519306073215
-0.005563147531572905,0.001207815939754859
-0.005562807531572905,0.0005166312269104166
-0.005562467531572904,0.001043248150982073
-0.005562127531572905,-0.001787317815909838
-0.005561787531572905,-0.003400082145880202
-0.005561447531572904,-0.004749538013819977
-0.005561107531572905,-0.006329388786038719
-0.005560767531572905,-0.006658524363583692
-0.005560427531572904,-0.006362302343793276
-0.005560087531572905,-0.00688891926786619
-0.005559747531572905,-0.007382622634183648
-0.005559407531572904,-0.006230648112775047
-0.005559067531572905,-0.006131907439511376
-0.005558727531572905,-0.00692183282561931
-0.005558387531572904,-0.006526870132566062
-0.005558047531572905,-0.006921832825620747
-0.005557707531572905,-0.008534597155591113
-0.005557367531572904,-0.00860042427110316
-0.005557027531572905,-0.01060815129413114
-0.005556687531572905,-0.01426155620488034
-0.005556347531572904,-0.006592697248075176
-0.005556007531572905,-0.00517741426462922
-0.005555667531572905,-0.003696304165676844
-0.005555327531572904,-0.004650797340556306
-0.005554987531572905,-0.008205461578048474
-0.005554647531572905,-0.007613017538467524
-0.005554307531572904,-0.006098993881756819
-0.005553967531572905,-0.005243241380138334
-0.005553627531572905,-0.007185141287657204
-0.005553287531572904,-0.006954746383375304
-0.005552947531572905,-0.007349709076429989
-0.005552607531572905,-0.007152227729902647
-0.005552267531572904,-0.008205461578048474
-0.005551927531572905,-0.007448449749693661
-0.005551587531572905,-0.008732078502121389
-0.005551247531572904,-0.009225781868436032
-0.005550907531572905,-0.007185141287657204
-0.005550567531572905,-0.007810498884993789
-0.005550227531572904,-0.00846877004008475
-0.005549887531572904,-0.00837002936682126
-0.005549547531572905,-0.009094127637421515
-0.005549207531572904,-0.01024610215882706
-0.005548867531572904,-0.008073807347030245
-0.005548527531572905,-0.008468770040084931
-0.005548187531572904,-0.008962473406399695
-0.005547847531572904,-0.006987659941129861
-0.005547507531572905,-0.006691437921338847
-0.005547167531572904,-0.006888919267868884
-0.005546827531572904,-0.00837002936682126
-0.005546487531572905,-0.00962074456149443
-0.005546147531572904,-0.01324123591448027
-0.005545807531572904,-0.004749538013819977
-0.005545467531572905,-0.003959612627710607
-0.005545127531572904,-0.003005119452834677
-0.005544787531572904,-0.006428129459302391
-0.005544447531572905,-0.006329388786038719
-0.005544107531572904,-0.003926699069954853
-0.005543767531572904,-0.003268427914864908
-0.005543427531572905,0.0009445074777184018
-0.005543087531572904,-0.005704031188703032
-0.005542747531572904,-0.00619773455502049
-0.005542407531572905,-0.008271288693557588
-0.005542067531572905,-0.00837002936682108
-0.005541727531572904,-0.01073980552514937
-0.005541387531572905,-0.01146390379574963
-0.005541047531572905,-0.01136516312248614
-0.005540707531572904,-0.0127146189904228
-0.005540367531572905,-0.01100311398718583
-0.005540027531572905,-0.01110185466044932
-0.005539687531572904,-0.0108714597561676
-0.005539347531572905,-0.009916966581285444
-0.005539007531572905,-0.009587831003740471
-0.005538667531572904,-0.01024610215883101
-0.005538327531572905,-0.01027901571658557
-0.005537987531572905,-0.009061214079669174
-0.005537647531572904,-0.01047649706311291
-0.005537307531572905,-0.009192868310685188
-0.005536967531572905,-0.009949880139038624
-0.005536627531572904,-0.01136516312248596
-0.005536287531572905,-0.009719485234758102
-0.005535947531572905,-0.01304375456796232
-0.005535607531572904,-0.01215508850859533
-0.005535267531572905,-0.00837002936682126
-0.005534927531572905,-0.004420402436281591
-0.005534587531572904,-0.003663390607919593
-0.005534247531572905,-0.009357436099457973
-0.005533907531572905,-0.01166138514227278
-0.005533567531572904,-0.009818225908021772
-0.005533227531572905,-0.009522003888230759
-0.005532887531572905,-0.01113476821820406
-0.005532547531572904,-0.01199052071982254
-0.005532207531572905,-0.01330706303000483
-0.005531867531572905,-0.0101802750433219
-0.005531527531572904,-0.008797905617630502
-0.005531187531572905,-0.009127041195176074
-0.005530847531572905,-0.009489090330476201
-0.005530507531572904,-0.007810498884993789
-0.005530167531572905,-0.007349709076429989
-0.005529827531572905,-0.005473636284420234
-0.005529487531572904,-0.006296475228286556
-0.005529147531572904,-0.007613017538466446
-0.005528807531572905,-0.00767884465397556
-0.005528467531572904,-0.007053487056640053
-0.005528127531572904,-0.007645931096221003
-0.005527787531572905,-0.0104106699476038
-0.005527447531572904,-0.009949880139042456
-0.005527107531572904,-0.01129933600697684
-0.005526767531572905,-0.01159555802676786
-0.005526427531572904,-0.01129933600697918
-0.005526087531572904,-0.01258296475940457
-0.005525747531572905,-0.01478817312895989
-0.005525407531572904,-0.01498565447547401
-0.005525067531572904,-0.007711758211730118
-0.005524727531572905,-0.00962074456149443
-0.005524387531572904,-0.008040893789279042
-0.005524047531572904,-0.009884053023530886
-0.005523707531572905,-0.01633511034342408
-0.005523367531572904,-0.01863905938625415
-0.005523027531572904,-0.02472806757083614
-0.005522687531572905,-0.04006578548445976
-0.005522347531572904,-0.06116337600517726
-0.005522007531572904,-0.08667138326491261
-0.005521667531572905,-0.1169518563991052
-0.005521327531572904,-0.1471335888600851
-0.005520987531572904,-0.1752088536246713
-0.005520647531572905,-0.203020809927272
-0.005520307531572905,-0.2230322530420063
-0.005519967531572904,-0.237876267589348
-0.005519627531572905,-0.2484415196285608
-0.005519287531572905,-0.2553533667570053
-0.005518947531572904,-0.2569990446447457
-0.005518607531572905,-0.2569990446447457
-0.005518267531572905,-0.2532139855029785
-0.005517927531572904,-0.2468616688563421
-0.005517587531572905,-0.2431424368300771
-0.005517247531572905,-0.2369876015299861
-0.005516907531572904,-0.2265540037217803
-0.005516567531572905,-0.2192142803425141
-0.005516227531572905,-0.2108542366728718
-0.005515887531572904,-0.202724587907481
-0.005515547531572905,-0.1953519509704602
-0.005515207531572905,-0.1924555578880645
-0.005514867531572904,-0.1877818326869121
-0.005514527531572905,-0.1760316925685352
-0.005514187531572905,-0.1707984368855701
-0.005513847531572904,-0.1651373049517768
-0.005513507531572905,-0.1582912849388289
-0.005513167531572905,-0.1564810392623316
-0.005512827531572904,-0.1498325005959077
-0.005512487531572905,-0.1411433213487046
-0.005512147531572905,-0.1378519655732489
-0.005511807531572904,-0.1325857963325198
-0.005511467531572905,-0.1270892321875088
-0.005511127531572905,-0.1225800747751344
-0.005510787531572904,-0.1181367444782692
-0.005510447531572905,-0.1134959328348767
-0.005510107531572905,-0.1097108736931026
-0.005509767531572904,-0.1069132212839652
-0.005509427531572905,-0.1022394960828181
-0.005509087531572905,-0.09921144876939889
-0.005508747531572904,-0.09654545059127616
-0.005508407531572905,-0.09457063712600633
-0.005508067531572905,-0.09006147971363199
-0.005507727531572904,-0.08950194923179727
-0.005507387531572904,-0.08551940874350311
-0.005507047531572905,-0.08288632412313854
-0.005506707531572904,-0.08008867171399323
-0.005506367531572904,-0.07571116853264509
-0.005506027531572905,-0.07241981275718939
-0.005505687531572904,-0.07166280092883187
-0.005505347531572904,-0.07018169082987952
-0.005505007531572905,-0.06748277909400582
-0.005504667531572904,-0.07116909756250508
-0.005504327531572904,-0.06504717582016858
-0.005503987531572905,-0.05981392013719402
-0.005503647531572904,-0.05918856253984834
-0.005503307531572904,-0.05418570176116475
-0.005502967531572905,-0.05537058984032881
-0.005502627531572904,-0.05589720676439657
-0.005502287531572904,-0.05306664079750981
-0.005501947531572905,-0.04852456982738093
-0.005501607531572904,-0.04980819857980369
-0.005501267531572904,-0.04707637328618042
-0.005500927531572905,-0.04408123953051572
-0.005500587531572904,-0.03723521951757281
-0.005500247531572904,-0.03996704481119608
-0.005499907531572905,-0.03730104663307696
-0.005499567531572905,-0.03552371451433411
-0.005499227531572904,-0.03700482461328594
-0.005498887531572905,-0.03470087557046694
-0.005498547531572905,-0.0364782076892098
-0.005498207531572904,-0.03614907211166746
-0.005497867531572905,-0.03555662807208543
-0.005497527531572905,-0.03404260441537856
-0.005497187531572904,-0.03377929595333935
-0.005496847531572905,-0.0328906298939663
-0.005496507531572905,-0.03187030960357689
-0.005496167531572904,-0.03236401296989339
-0.005495827531572905,-0.03163991469929314
-0.005495487531572905,-0.03098164354420319
-0.005495147531572904,-0.03236401296989339
-0.005494807531572905,-0.03325267902926643
-0.005494467531572905,-0.03144243335276909
-0.005494127531572904,-0.03516166537903075
-0.005493787531572905,-0.02953344700300148
-0.005493447531572905,-0.02499137603288086
-0.005493107531572904,-0.02196332871945334
-0.005492767531572905,-0.02212789650822613
-0.005492427531572905,-0.02617626411202929
-0.005492087531572904,-0.02532051161041817
-0.005491747531572905,-0.02219372362373525
-0.005491407531572905,-0.02071261352478287
-0.005491067531572904,-0.02242411852801714
-0.005490727531572905,-0.02255577275903537
-0.005490387531572905,-0.02035056438948005
-0.005490047531572904,-0.01926441698357966
-0.005489707531572905,-0.02048221862049827
-0.005489367531572905,-0.02051513217825283
-0.005489027531572904,-0.01890236784827953
-0.005488687531572905,-0.01942898477235245
-0.005488347531572905,-0.01834283736645206
-0.005488007531572904,-0.01847449159746772
-0.005487667531572905,-0.01705920861402434
-0.005487327531572905,-0.01580849341935116
-0.005486987531572904,-0.01488691380222459
-0.005486647531572904,-0.01544644428405104
-0.005486307531572905,-0.01751999842258814
-0.005485967531572904,-0.01597306120812826
-0.005485627531572904,-0.01834283736645206
-0.005485287531572905,-0.01824409669318839
-0.005484947531572904,-0.01814535601992442
-0.005484607531572904,-0.01798078823115194
-0.005484267531572905,-0.01712503572953345
-0.005483927531572904,-0.01722377640279664
-0.005483587531572904,-0.01696046794076066
-0.005483247531572905,-0.0131754087989866
-0.005482907531572904,-0.01110185466044657
-0.005482567531572904,-0.009489090330476201
-0.005482227531572905,-0.01301084101021381
-0.005481887531572904,-0.0162034561124031
-0.005481547531572904,-0.01468943245569622
-0.005481207531572905,-0.01412990197386875
-0.005480867531572904,-0.01370202572305927
-0.005480527531572904,-0.01357037149204128
-0.005480187531572905,-0.0140969884161142
-0.005479847531572904,-0.01278044610592754
-0.005479507531572904,-0.01037775638984924
-0.005479167531572905,-0.01034484283209469
-0.005478827531572905,-0.01064106485188516
-0.005478487531572904,-0.01057523773637659
-0.005478147531572905,-0.01011444792781279
-0.005477807531572905,-0.01090437331392072
-0.005477467531572904,-0.0111018546604495
-0.005477127531572905,-0.01330706303000483
-0.005476787531572905,-0.01386659351183128
-0.005476447531572904,-0.01373493928081407
-0.005476107531572905,-0.01531479005303281
-0.005475767531572905,-0.01676298659423069
-0.005475427531572904,-0.014557778224678
-0.005475087531572905,-0.01337289014551394
-0.005474747531572905,-0.01205634783533405
-0.005474407531572904,-0.01070689196739481
-0.005474067531572905,-0.009258695426194301
-0.005473727531572905,-0.009192868310685307
-0.005473387531572904,-0.01182595293104976
-0.005473047531572905,-0.008929559848648731
-0.005472707531572905,-0.005671117630953505
-0.005472367531572904,-0.01050941062086747
-0.005472027531572905,-0.01218800206634988
-0.005471687531572905,-0.01143099023799645
-0.005471347531572904,-0.01189178004655887
-0.005471007531572905,-0.01291210033695014
-0.005470667531572905,-0.01268170543266866
-0.005470327531572904,-0.01090437331392216
-0.005469987531572905,-0.01077271908290393
-0.005469647531572905,-0.01123350889146773
-0.005469307531572904,-0.01120059533371317
-0.005468967531572905,-0.01004862081230367
-0.005468627531572905,-0.01008153437005823
-0.005468287531572904,-0.01083854619841304
-0.005467947531572905,-0.009884053023530886
-0.005467607531572905,-0.01113476821820406
-0.005467267531572904,-0.01001570725454911
-0.005466927531572905,-0.008962473406403288
-0.005466587531572905,-0.0101802750433219
-0.005466247531572904,-0.01172721225778064
-0.005465907531572905,-0.008732078502121389
-0.005465567531572905,-0.008797905617630502
-0.005465227531572904,-0.007909239558256441
-0.005464887531572904,-0.007349709076429989
-0.005464547531572905,-0.00665852436358429
-0.005464207531572904,-0.007514276865201997
-0.005463867531572904,-0.007086400614393532
-0.005463527531572905,-0.007942153116012016
-0.005463187531572904,-0.008962473406409275
-0.005462847531572904,-0.012253829181859
-0.005462507531572905,-0.00860042427110316
-0.005462167531572904,-0.01064106485188355
-0.005461827531572904,-0.009456176772721644
-0.005461487531572905,-0.01034484283209469
-0.005461147531572904,-0.01491982735997956
-0.005460807531572904,-0.01570975274608749
-0.005460467531572905,-0.009225781868439744
-0.005460127531572904,-0.01041066994760218
-0.005459787531572904,-0.009522003888230759
-0.005459447531572905,-0.006428129459302391
-0.005459107531572904,-0.00550654984217521
-0.005458767531572904,-0.005736944746456691
-0.005458427531572905,-0.004815365129329092
-0.005458087531572904,-0.005934426092990799
-0.005457747531572904,-0.009653658119248986
-0.005457407531572905,-0.00665852436358429
-0.005457067531572905,-0.01320832235672924
-0.005456727531572904,-0.0143273833203961
-0.005456387531572905,-0.01337289014551394
-0.005456047531572905,-0.01357037149204092
-0.005455707531572904,-0.01505148159099635
-0.005455367531572905,-0.01218800206634988
-0.005455027531572905,-0.01185886648880491
-0.005454687531572904,-0.01258296475940457
-0.005454347531572905,-0.01037775638984924
-0.005454007531572905,-0.01031192927434025
-0.005453667531572904,-0.009818225908021772
-0.005453327531572905,-0.0106410648518857
-0.005452987531572905,-0.009390349657214806
-0.005452647531572904,-0.01485400024446901
-0.005452307531572905,-0.0117930393732952
-0.005451967531572905,-0.005868598977485696
-0.005451627531572904,-0.005374895611156563
-0.005451287531572905,-0.00392669906995605
-0.005450947531572905,-0.00738262263417826
-0.005450607531572904,-0.008435856482330374
-0.005450267531572905,-0.005341982053402005
-0.005449927531572905,-0.001491095796125829
-0.005449587531572904,-0.004683710898310864
-0.005449247531572905,-0.005572376957683906
-0.005448907531572905,-0.004552056667294491
-0.005448567531572904,-0.004881192244838206
-0.005448227531572905,-0.006856005710111633
-0.005447887531572905,-0.006856005710111633
-0.005447547531572904,-0.00939034965721253
-0.005447207531572905,-0.01047649706311291
-0.005446867531572905,-0.008929559848648731
-0.005446527531572904,-0.008666251386612273
-0.005446187531572905,-0.01139807668024051
-0.005445847531572905,-0.009851139465776329
-0.005445507531572904,-0.008764992059876424
-0.005445167531572905,-0.009028300521912402
-0.005444827531572905,-0.01090437331392216
-0.005444487531572904,-0.01021318860107742
-0.005444147531572904,-0.01073980552514937
-0.005443807531572905,-0.01057523773637659
-0.005443467531572904,-0.01050941062086687
-0.005443127531572904,-0.0101802750433219
-0.005442787531572905,-0.01120059533371317
-0.005442447531572904,-0.01008153437006416
-0.005442107531572904,-0.01333997658775938
-0.005441767531572905,-0.007349709076429989
-0.005441427531572904,-0.005736944746455853
-0.005441087531572904,-0.005276154937892892
-0.005440747531572905,-0.007152227729902647
-0.005440407531572904,-0.01103602754493607
-0.005440067531572904,-0.008666251386612273
-0.005439727531572905,-0.008073807347030245
-0.005439387531572904,-0.008007980231523047
-0.005439047531572904,-0.009061214079666959
-0.005438707531572905,-0.0106410648518857
-0.005438367531572904,-0.009949880139042756
-0.005438027531572904,-0.01146390379574963
-0.005437687531572905,-0.0111018546604495
-0.005437347531572904,-0.01162847158452074
-0.005437007531572904,-0.01070689196739481
-0.005436667531572905,-0.01113476821820406
-0.005436327531572905,-0.008863732733143746
-0.005435987531572904,-0.008468770040084931
-0.005435647531572905,-0.0101802750433219
-0.005435307531572905,-0.009949880139040421
-0.005434967531572904,-0.008106720904784802
-0.005434627531572905,-0.009159954752930631
-0.005434287531572905,-0.01225382918185337
-0.005433947531572904,-0.01136516312248596
-0.005433607531572905,-0.0111018546604495
-0.005433267531572905,-0.01149681735350347
-0.005432927531572904,-0.009949880139040001
-0.005432587531572905,-0.009554917445985316
-0.005432247531572905,-0.009982793696793779
-0.005431907531572904,-0.00860042427110316
-0.005431567531572905,-0.01208926139308621
-0.005431227531572905,-0.008172548020301042
-0.005430887531572904,-0.005045760033610991
-0.005430547531572905,-0.004617883782801749
-0.005430207531572905,-0.006856005710107561
-0.005429867531572904,-0.01215508850859533
-0.005429527531572905,-0.01176012581554064
-0.005429187531572905,-0.0111018546604507
-0.005428847531572904,-0.01097020042943127
-0.005428507531572905,-0.01360328504979584
-0.005428167531572905,-0.01225382918186145
-0.005427827531572904,-0.01162847158452241
-0.005427487531572905,-0.01060815129413114
-0.005427147531572905,-0.01011444792781279
-0.005426807531572904,-0.01054232417862203
-0.005426467531572905,-0.009291608983948858
-0.005426127531572905,-0.008633337828857716
-0.005425787531572904,-0.008073807347030245
-0.005425447531572905,-0.007942153116012016
-0.005425107531572905,-0.007975066673766575
-0.005424767531572904,-0.008468770040084931
-0.005424427531572905,-0.00767884465397556
-0.005424087531572905,-0.007580103980711889
-0.005423747531572904,-0.01011444792781069
-0.005423407531572904,-0.008962473406403288
-0.005423067531572905,-0.008402942924575817
-0.005422727531572904,-0.009916966581285264
-0.005422387531572904,-0.009818225908021772
-0.005422047531572905,-0.009982793696794558
-0.005421707531572904,-0.01156264446901881
-0.005421367531572904,-0.01459069178243255
-0.005421027531572905,-0.009225781868439744
-0.005420687531572904,-0.006000253208494585
-0.005420347531572904,-0.006790178594602518
-0.005420007531572905,-0.003169687241601236
-0.005419667531572904,-0.008567510713351956
-0.005419327531572904,-0.0104106699476038
-0.005418987531572905,-0.009225781868439744
-0.005418647531572904,-0.01004862081230691
-0.005418307531572904,-0.01182595293104976
-0.005417967531572905,-0.01057523773637659
-0.005417627531572904,-0.01258296475940439
-0.005417287531572904,-0.0124842240861409
-0.005416947531572905,-0.01129933600697684
-0.005416607531572904,-0.01087145975616969
