Analysis/files/cmb03_wrd01/d2s05_ch04.csv

#Digilent WaveForms Oscilloscope Acquisition
#Device Name: ADP3450
#Serial Number: SN:210018B9D9B0
#Date Time: 2024-08-13 12:37:31.208.889.180
#Sample rate: 2.94118e+06Hz
#Samples: 32768
#Trigger: Source: Channel 3 Type: Edge Condition: Rising Level: 60 mV Hyst.: Auto HoldOff: 0 s
#Channel 3: Range: 200 mV/div Offset: 0 V Attenuation: 1 X Coupling: DC Bandwidth: 0 Hz Sample Mode: Average

Time (s),Channel 3 (V)
-0.005570228004094166,0.01424158481055947
-0.005569888004094165,0.01463654750361206
-0.005569548004094166,0.01348457298220466
-0.005569208004094166,0.01457072038810504
-0.005568868004094165,0.01358331365546671
-0.005568528004094166,0.01269464759609529
-0.005568188004094166,0.01289212894262263
-0.005567848004094165,0.01078566124632846
-0.005567508004094166,0.009403291820639578
-0.005567168004094166,0.009238724031866792
-0.005566828004094165,0.00854753931901894
-0.005566488004094166,0.007362651239857037
-0.005566148004094166,0.006177763160692982
-0.005565808004094165,0.00212939555689048
-0.005565468004094166,0.00653981229599311
-0.005565128004094166,0.008053835952702737
-0.005564788004094165,0.007625959701893016
-0.005564448004094166,0.007362651239857037
-0.005564108004094166,0.002359790461164357
-0.005563768004094165,0.002228136230148883
-0.005563428004094166,0.003742159886855756
-0.005563088004094166,0.003775073444610313
-0.005562748004094166,0.003906727675628302
-0.005562408004094166,0.003413024309310185
-0.005562068004094166,0.003511764982573856
-0.005561728004094166,0.004400431041945281
-0.005561388004094166,0.003709246329101199
-0.005561048004094166,0.002491444692182586
-0.005560708004094166,0.004630825946224906
-0.005560368004094166,0.003676332771346642
-0.005560028004094166,0.002096481999127901
-0.005559688004094166,0.004268776810924718
-0.005559348004094166,0.003215542962782842
-0.005559008004094166,0.002162309114637015
-0.005558668004094166,0.003116802289517434
-0.005558328004094166,0.003083888731764614
-0.005557988004094166,0.002919320942991828
-0.005557648004094166,0.004696653061734679
-0.005557308004094165,0.00380798700236487
-0.005556968004094166,0.004137122579910441
-0.005556628004094166,0.00390672767562896
-0.005556288004094165,0.004696653061737912
-0.005555948004094166,0.003840900560119427
-0.005555608004094166,-0.0006024297367377006
-0.005555268004094165,0.000714112573436502
-0.005554928004094166,0.004696653061737912
-0.005554588004094166,0.005025788639282884
-0.005554248004094165,0.005190356428056269
-0.005553908004094166,0.00107616170873663
-0.005553568004094166,-0.000832824641027682
-0.005553228004094165,0.002524358249937143
-0.005552888004094166,0.001701519306073215
-0.005552548004094166,-0.001063219545309582
-0.005552208004094165,0.0003191498803818167
-0.005551868004094166,-0.0003720348324638825
-0.005551528004094166,-0.003498822819146808
-0.005551188004094165,-0.0008986517565353594
-0.005550848004094166,-0.0001087263704274257
-0.005550508004094166,-0.0001745534859365399
-0.005550168004094165,0.002293963345654225
-0.005549828004094166,0.001734432863827772
-0.005549488004094166,0.0009115939199638446
-0.005549148004094165,0.0006153719001722918
-0.005548808004094166,0.0003191498803818167
-0.005548468004094166,-0.002346848297737309
-0.005548128004094165,0.002623098923187763
-0.005547788004094166,-0.004552056667292635
-0.005547448004094166,-0.006098993881756819
-0.005547108004094165,-0.006066080324000765
-0.005546768004094166,-0.005243241380138334
-0.005546428004094166,-0.005506549842174791
-0.005546088004094165,-0.004617883782798696
-0.005545748004094166,-0.002939292337319337
-0.005545408004094166,-0.003070946568337565
-0.005545068004094165,-0.006724351479087178
-0.005544728004094166,-0.003301341472619465
-0.005544388004094166,0.003215542962782842
-0.005544048004094165,0.00551949200560633
-0.005543708004094166,0.007988008837193623
-0.005543368004094166,0.005354924216829054
-0.005543028004094165,0.00242561757667892
-0.005542688004094166,0.005420751332338168
-0.005542348004094166,0.004466258157456012
-0.005542008004094166,0.0003520634381438577
-0.005541668004094166,0.001010334593227516
-0.005541328004094166,-0.001096133103064139
-0.005540988004094166,-0.001227787334082128
-0.005540648004094166,-0.001622750027137053
-0.005540308004094166,-0.00165566358489161
-0.005539968004094166,-0.004190007531987897
-0.005539628004094166,-0.003893785512201493
-0.005539288004094166,-0.002972205895073894
-0.005538948004094166,-0.004190007531990292
-0.005538608004094166,-0.004058353300974278
-0.005538268004094166,-0.003038033010583008
-0.005537928004094166,-0.003465909261391472
-0.005537588004094166,-0.00267598387528288
-0.005537248004094166,-0.00267598387528288
-0.005536908004094166,-0.003564649934654306
-0.005536568004094166,-0.003038033010583008
-0.005536228004094166,-0.00142526868060971
-0.005535888004094166,-0.0007669975255197652
-0.005535548004094165,-0.002379761855491866
-0.005535208004094166,-0.001688577142646167
-0.005534868004094166,-0.0007011704100112497
-0.005534528004094165,-0.003235514357110351
-0.005534188004094166,0.002820580269728157
-0.005533848004094166,0.002820580269728157
-0.005533508004094165,0.002261049787900686
-0.005533168004094166,-0.001326528007346039
-0.005532828004094166,-0.003827958396692379
-0.005532488004094165,-0.004222921089747064
-0.005532148004094166,-0.002511416086510094
-0.005531808004094166,-0.002116453393455409
-0.005531468004094165,-0.003268427914864908
-0.005531128004094166,-0.001589836469382495
-0.005530788004094166,-0.0007999110832731249
-0.005530448004094165,-0.0008986517565367963
-0.005530108004094166,-0.0008986517565367963
-0.005529768004094166,0.001141988824245744
-0.005529428004094165,-0.0004707755057304874
-0.005529088004094166,-0.002083539835700852
-0.005528748004094166,-0.00142526868060971
-0.005528408004094165,-0.002050626277948391
-0.005528068004094166,-0.003202600799355794
-0.005527728004094166,-0.002511416086510094
-0.005527388004094165,-0.003597563492411198
-0.005527048004094166,-0.003992526185465165
-0.005526708004094166,-0.002610156759773766
-0.005526368004094165,-0.002050626277946954
-0.005526028004094166,-0.002412675413246423
-0.005525688004094166,8.875497609991696e-05
-0.005525348004094165,0.001339470170775901
-0.005525008004094166,0.002886407385237271
-0.005524668004094166,0.003445937867064742
-0.005524328004094165,-0.001293614449589027
-0.005523988004094166,5.584141834535986e-05
-0.005523648004094166,0.005585319121110954
-0.005523308004094165,-0.004025439743241215
-0.005522968004094166,-0.01584140697710572
-0.005522628004094166,-0.02686744882488236
-0.005522288004094165,-0.04533195472524085
-0.005521948004094166,-0.07390092285614447
-0.005521608004094166,-0.1036218655085095
-0.005521268004094165,-0.1352847080684506
-0.005520928004094166,-0.1667171557239955
-0.005520588004094166,-0.1945291120265963
-0.005520248004094166,-0.2161204059135464
-0.005519908004094166,-0.2331367152726918
-0.005519568004094166,-0.2449197689488232
-0.005519228004094166,-0.2488364823216083
-0.005518888004094166,-0.2516341347307529
-0.005518548004094166,-0.2529835905986897
-0.005518208004094166,-0.2436690537541669
-0.005517868004094166,-0.2397194268236032
-0.005517528004094166,-0.2327746661373916
-0.005517188004094166,-0.2273768426656541
-0.005516848004094166,-0.2239209191014158
-0.005516508004094166,-0.2164166279333767
-0.005516168004094166,-0.2048310556037937
-0.005515828004094166,-0.1964710119341151
-0.005515488004094166,-0.1898553868254492
-0.005515148004094166,-0.1823510956574238
-0.005514808004094165,-0.1735302621791888
-0.005514468004094166,-0.1682640929384597
-0.005514128004094166,-0.1626029610046862
-0.005513788004094165,-0.1576001002259832
-0.005513448004094166,-0.1530909428136089
-0.005513108004094166,-0.1476931193418713
-0.005512768004094165,-0.1427560856786779
-0.005512428004094166,-0.1376873977844761
-0.005512088004094166,-0.1343302148935113
-0.005511748004094165,-0.1279449846891272
-0.005511408004094166,-0.1250815051644808
-0.005511068004094166,-0.1217572358312705
-0.005510728004094165,-0.1177746953429691
-0.005510388004094166,-0.113100970141822
-0.005510048004094166,-0.1094804787888207
-0.005509708004094165,-0.1043459637791098
-0.005509368004094166,-0.09894814030736243
-0.005509028004094166,-0.09578843876292495
-0.005508688004094165,-0.09035770173342456
-0.005508348004094166,-0.09121345423504149
-0.005508008004094166,-0.08091151065786512
-0.005507668004094165,-0.0758757363214137
-0.005507328004094166,-0.07357178727859889
-0.005506988004094166,-0.07251855343045308
-0.005506648004094165,-0.07531620583957958
-0.005506308004094166,-0.06935885188601557
-0.005505968004094166,-0.06540922495546872
-0.005505628004094165,-0.06274322677734416
-0.005505288004094166,-0.05974809302168491
-0.005504948004094166,-0.05059812396591803
-0.005504608004094165,-0.05754288465212706
-0.005504268004094166,-0.05616051522643818
-0.005503928004094166,-0.05365908483709184
-0.005503588004094165,-0.05277041877771395
-0.005503248004094166,-0.05010442059959967
-0.005502908004094166,-0.04924866809798119
-0.005502568004094165,-0.0476359037680004
-0.005502228004094166,-0.04352170904868825
-0.005501888004094166,-0.04253430231605154
-0.005501548004094165,-0.04019743971547463
-0.005501208004094166,-0.03835428048122278
-0.005500868004094166,-0.03693899749777683
-0.005500528004094165,-0.03707065172879134
-0.005500188004094166,-0.03503001114801252
-0.005499848004094166,-0.03374638239558479
-0.005499508004094166,-0.03308811124049485
-0.005499168004094166,-0.03256149431642073
-0.005498828004094166,-0.03104747065971111
-0.005498488004094166,-0.03150826046827407
-0.005498148004094166,-0.03147534691052035
-0.005497808004094166,-0.02986258258054705
-0.005497468004094166,-0.02245703208578517
-0.005497128004094166,-0.02048221862049827
-0.005496788004094166,-0.01587432053486028
-0.005496448004094166,-0.01824409669318408
-0.005496108004094166,-0.02035056438948005
-0.005495768004094166,-0.01663133236321509
-0.005495428004094166,-0.01659841880546059
-0.005495088004094166,-0.01817826957767928
-0.005494748004094166,-0.01817826957767928
-0.005494408004094166,-0.01817826957767928
-0.005494068004094165,-0.01962646611887979
-0.005493728004094166,-0.01883654073277042
-0.005493388004094166,-0.01801370178890799
-0.005493048004094165,-0.01850740515522485
-0.005492708004094166,-0.01784913400013371
-0.005492368004094166,-0.01765165265360672
-0.005492028004094165,-0.01712503572953345
-0.005491688004094166,-0.01554518495731471
-0.005491348004094166,-0.01515022226426074
-0.005491008004094165,-0.0159401476503694
-0.005490668004094166,-0.0159401476503694
-0.005490328004094166,-0.01383367995407774
-0.005489988004094165,-0.01439321043590521
-0.005489648004094166,-0.01320832235674115
-0.005489308004094166,-0.01143099023799507
-0.005488968004094165,-0.01083854619841304
-0.005488628004094166,-0.009061214079666959
-0.005488288004094166,-0.007744671769484675
-0.005487948004094165,-0.007942153116018841
-0.005487608004094166,-0.01169429870003153
-0.005487268004094166,-0.003564649934655922
-0.005486928004094165,-0.003136773683847158
-0.005486588004094166,-0.003400082145883136
-0.005486248004094166,-0.002116453393455409
-0.005485908004094165,-0.006987659941135129
-0.005485568004094166,-0.009884053023530886
-0.005485228004094166,-0.006790178594602518
-0.005484888004094165,-0.006395215901549569
-0.005484548004094166,-0.007349709076429989
-0.005484208004094166,-0.006790178594602518
-0.005483868004094165,-0.006757265036850177
-0.005483528004094166,-0.007975066673766575
-0.005483188004094166,-0.007613017538466446
-0.005482848004094165,-0.007152227729904024
-0.005482508004094166,-0.00790923955825746
-0.005482168004094166,-0.007777585327239231
-0.005481828004094165,-0.006493956574811983
-0.005481488004094166,-0.006757265036847961
-0.005481148004094166,-0.006921832825620747
-0.005480808004094165,-0.006461043017059821
-0.005480468004094166,-0.008040893789275689
-0.005480128004094166,-0.008468770040084931
-0.005479788004094165,-0.006987659941133153
-0.005479448004094166,-0.008797905617630502
-0.005479108004094166,-0.009028300521912402
-0.005478768004094166,-0.008699164944367429
-0.005478428004094166,-0.00860042427110316
-0.005478088004094166,-0.007810498884993789
-0.005477748004094166,-0.004486229551789568
-0.005477408004094166,-0.007053487056638975
-0.005477068004094166,-0.007975066673766575
-0.005476728004094166,0.001043248150965669
-0.005476388004094166,0.001964827768109672
-0.005476048004094166,0.001602778632809544
-0.005475708004094166,-0.00109613310305923
-0.005475368004094166,-0.002643070317528323
-0.005475028004094166,-0.000832824641027682
-0.005474688004094166,0.0005824583424156993
-0.005474348004094166,-0.0003062077169547683
-0.005474008004094166,-0.001721490700400724
-0.005473668004094166,-0.001458182238364746
-0.005473328004094166,-0.001721490700400724
-0.005472988004094166,-0.003630477050165036
-0.005472648004094166,-0.003663390607919534
-0.005472308004094165,-0.003005119452828451
-0.005471968004094166,-0.003860871954446936
-0.005471628004094166,-0.003432995703638472
-0.005471288004094165,-0.002215194066719081
-0.005470948004094166,-0.001918972046928067
-0.005470608004094166,-0.002840551664053989
-0.005470268004094165,-0.001326528007346039
-0.005469928004094166,-0.001524009353873381
-0.005469588004094166,-0.001524009353873381
-0.005469248004094165,-0.001326528007346039
-0.005468908004094166,-0.002313934739982752
-0.005468568004094166,-0.0003062077169547683
-0.005468228004094165,-0.0001745534859365399
-0.005467888004094166,0.0002533227648727025
-0.005467548004094166,-0.001491095796118824
-0.005467208004094165,-4.289925491831147e-05
-0.005466868004094166,-0.003202600799355794
-0.005466528004094166,-0.005144500706874663
-0.005466188004094165,0.0009445074777190603
-0.005465848004094166,0.00130655661301853
-0.005465508004094166,0.0002862363226272596
-0.005465168004094165,-0.002708897433041628
-0.005464828004094166,-0.005012846475856435
-0.005464488004094166,-0.00369630416567415
-0.005464148004094165,-0.002741810990792952
-0.005463808004094166,-0.003268427914864908
-0.005463468004094166,-0.003860871954446936
-0.005463128004094165,-0.003893785512200116
-0.005462788004094166,-0.00313677368384668
-0.005462448004094166,-0.001359441565100596
-0.005462108004094165,0.001043248150984947
-0.005461768004094166,0.002623098923200814
-0.005461428004094166,-0.0008986517565367963
-0.005461088004094165,0.0003520634381387087
-0.005460748004094166,0.001635692190564101
-0.005460408004094166,0.001635692190564101
-0.005460068004094165,-0.0009644788720426775
-0.005459728004094166,0.0008128532467001733
-0.005459388004094166,-9.985697163754359e-06
-0.005459048004094165,-0.0007011704100072384
-0.005458708004094166,0.0005166312269091594
-0.005458368004094166,0.0001216685338544741
-0.005458028004094165,-0.001030305987553648
-0.005457688004094166,-0.0002732941592002112
-0.005457348004094166,0.0006153719001728307
-0.005457008004094166,-0.00307094656833086
-0.005456668004094166,-0.004749538013819977
-0.005456328004094166,-0.003531736376901365
-0.005455988004094166,0.002195222672381154
-0.005455648004094166,0.001668605748318658
-0.005455308004094166,0.001866087094846001
-0.005454968004094166,-0.0007669975255137783
-0.005454628004094166,-0.003465909261392251
-0.005454288004094166,5.584141834535986e-05
-0.005453948004094166,-0.001589836469379502
-0.005453608004094166,-0.002412675413246423
-0.005453268004094166,-0.001227787334082367
-0.005452928004094166,-0.001589836469381837
-0.005452588004094166,-0.002544329644264652
-0.005452248004094166,-0.002774724548546551
-0.005451908004094166,-0.001754404258157137
-0.005451568004094165,-0.001951885604682624
-0.005451228004094166,-0.002807638106301108
-0.005450888004094166,-0.001524009353875716
-0.005450548004094165,-0.002116453393455409
-0.005450208004094166,-0.001392355122855153
-0.005449868004094166,-0.001491095796118645
-0.005449528004094165,-0.001096133103064139
-0.005449188004094166,-0.001721490700400724
-0.005448848004094166,-0.0009315653142927902
-0.005448508004094165,-0.001622750027137053
-0.005448168004094166,-0.001951885604682624
-0.005447828004094166,-0.00188605848917351
-0.005447488004094165,-0.002939292337319337
-0.005447148004094166,-0.002643070317528323
-0.005446808004094166,-0.0009644788720459105
-0.005446468004094165,-0.00244558897100098
-0.005446128004094166,-0.007481363307448217
-0.005445788004094166,-0.00369630416567415
-0.005445448004094165,-0.0003062077169573427
-0.005445108004094166,-0.001721490700400724
-0.005444768004094166,-0.002840551664055666
-0.005444428004094165,-0.005341982053397934
-0.005444088004094166,-0.003103860126092122
-0.005443748004094166,0.0009774210354729588
-0.005443408004094165,-0.0009644788720466289
-0.005443068004094166,-0.001359441565100596
-0.005442728004094166,-0.0005366026212366681
-0.005442388004094165,0.001043248150988419
-0.005442048004094166,0.004532085272965126
-0.005441708004094166,-0.0005695161789912252
-0.005441368004094165,-0.00109613310305911
-0.005441028004094166,0.001668605748318658
-0.005440688004094166,0.001635692190564101
-0.005440348004094165,0.001207815939756295
-0.005440008004094166,0.001997741325864229
-0.005439668004094166,0.001207815939754859
-0.005439328004094165,0.005519492005600342
-0.005438988004094166,0.004696653061737912
-0.005438648004094166,-0.002182280508964523
-0.005438308004094165,-0.001721490700398569
-0.005437968004094166,-0.0005366026212366681
-0.005437628004094166,-0.002281021182228195
-0.005437288004094165,-0.002346848297737429
-0.005436948004094166,-0.002412675413246423
-0.005436608004094166,-0.001524009353873381
-0.005436268004094166,-0.001853144931418354
-0.005435928004094166,-0.001787317815909838
-0.005435588004094166,-0.002149366951209966
-0.005435248004094166,-0.002182280508964463
-0.005434908004094166,-0.0007669975255185678
-0.005434568004094166,-0.003400082145883136
-0.005434228004094166,-0.003169687241601655
-0.005433888004094166,-0.003005119452828451
-0.005433548004094166,-0.004124180416483393
-0.005433208004094166,-0.003630477050165934
-0.005432868004094166,-0.003432995703637694
-0.005432528004094166,-0.003827958396692379
-0.005432188004094166,-0.002939292337320953
-0.005431848004094166,-0.002478502528755537
-0.005431508004094166,-0.003301341472619465
-0.005431168004094166,-0.004321661763008879
-0.005430828004094166,-0.003959612627710607
-0.005430488004094166,-0.002149366951209966
-0.005430148004094166,-0.006296475228276618
-0.005429808004094165,0.0005495447846637165
-0.005429468004094166,0.002228136230146129
-0.005429128004094166,0.002919320942990571
-0.005428788004094165,0.003775073444610313
-0.005428448004094166,-0.00165566358489161
-0.005428108004094166,-0.003860871954442925
-0.005427768004094165,-0.0003391212747093254
-0.005427428004094166,-0.0007669975255185678
-0.005427088004094166,-0.003827958396692379
-0.005426748004094165,-0.001589836469382495
-0.005426408004094166,-0.001721490700400724
-0.005426068004094166,-0.002412675413246423
-0.005425728004094165,-0.001129046660818696
-0.005425388004094166,-0.0009644788720459105
-0.005425048004094166,-0.001721490700400724
-0.005424708004094165,-0.001030305987555025
-0.005424368004094166,-0.0006024297367457822
-0.005424028004094166,-0.0007669975255185678
-0.005423688004094165,0.0009445074777202577
-0.005423348004094166,0.001964827768109672
-0.005423008004094166,0.00107616170873663
-0.005422668004094165,0.001405297286280824
-0.005422328004094166,0.0006482854579273878
-0.005421988004094166,0.0006811990156819448
-0.005421648004094165,-9.985697163634621e-06
-0.005421308004094166,5.584141834535986e-05
-0.005420968004094166,0.001931914210355115
-0.005420628004094165,0.0003191498803841516
-0.005420288004094166,0.001602778632809544
-0.005419948004094166,-0.002182280508964523
-0.005419608004094165,-0.005309068495636552
-0.005419268004094166,0.0006811990156819448
-0.005418928004094166,0.006638552969256781
-0.005418588004094165,-0.001556922911627639
-0.005418248004094166,-0.001392355122855153
-0.005417908004094166,-0.00540780916891112
-0.005417568004094165,-0.004190007531987119
