Analysis/files/cmb03_wrd01/d2s04_ch41.csv

#Digilent WaveForms Oscilloscope Acquisition
#Device Name: ADP3450
#Serial Number: SN:210018B9D9B0
#Date Time: 2024-08-13 12:28:51.137.992.960
#Sample rate: 2.94118e+06Hz
#Samples: 32768
#Trigger: Source: Channel 3 Type: Edge Condition: Rising Level: 60 mV Hyst.: Auto HoldOff: 0 s
#Channel 3: Range: 200 mV/div Offset: 0 V Attenuation: 1 X Coupling: DC Bandwidth: 0 Hz Sample Mode: Average

Time (s),Channel 3 (V)
-0.005570358793324776,0.004499171715210569
-0.005570018793324775,0.003709246329105569
-0.005569678793324775,0.006111936045183867
-0.005569338793324776,0.005618232678865511
-0.005568998793324775,0.006473985180484714
-0.005568658793324775,0.006868947873538681
-0.005568318793324776,0.004762480177247026
-0.005567978793324775,0.00318262940502613
-0.005567638793324775,0.001997741325864229
-0.005567298793324776,-0.0001416399281819828
-0.005566958793324775,-0.003202600799349807
-0.005566618793324775,8.875497609991696e-05
-0.005566278793324776,-0.001260700891836924
-0.005565938793324775,-0.001425268680606477
-0.005565598793324775,0.0003520634381363738
-0.005565258793324776,0.0008786803622092876
-0.005564918793324775,0.001174902381999583
-0.005564578793324775,0.0007799396889456162
-0.005564238793324776,0.00153695151730043
-0.005563898793324775,-0.001129046660817918
-0.005563558793324775,-0.0007011704100094536
-0.005563218793324776,-0.002083539835700852
-0.005562878793324776,-0.007876326000492366
-0.005562538793324775,-0.002478502528755537
-0.005562198793324776,-0.0007011704100094536
-0.005561858793324776,-4.289925491950889e-05
-0.005561518793324775,-0.00188605848917351
-0.005561178793324776,-0.00517741426462922
-0.005560838793324776,-0.005144500706874723
-0.005560498793324775,-0.003301341472619465
-0.005560158793324776,-0.003630477050165036
-0.005559818793324776,-0.002050626277949169
-0.005559478793324775,-0.003202600799355794
-0.005559138793324776,-0.001524009353873381
-0.005558798793324776,-0.002807638106298773
-0.005558458793324775,-0.00392669906995605
-0.005558118793324776,-0.005539463399929348
-0.005557778793324776,-0.00600025320849231
-0.005557438793324775,-0.008732078502121389
-0.005557098793324776,-0.009094127637421515
-0.005556758793324776,-0.009127041195176013
-0.005556418793324775,-0.01073980552514937
-0.005556078793324776,-0.01024610215883101
-0.005555738793324776,-0.01021318860107652
-0.005555398793324775,-0.01366911216530495
-0.005555058793324776,-0.01139807668024051
-0.005554718793324776,-0.01166138514227649
-0.005554378793324775,-0.01004862081230367
-0.005554038793324776,-0.01021318860107646
-0.005553698793324776,-0.008040893789275689
-0.005553358793324775,-0.008567510713348603
-0.005553018793324776,-0.007415536191939104
-0.005552678793324776,-0.01067397840964026
-0.005552338793324775,-0.01011444792781279
-0.005551998793324775,-0.001359441565100596
-0.005551658793324776,-0.005144500706874663
-0.005551318793324775,-0.003597563492423411
-0.005550978793324775,-0.01070689196739481
-0.005550638793324776,-0.01097020042943127
-0.005550298793324775,-0.007382622634185204
-0.005549958793324775,-0.007744671769484675
-0.005549618793324776,-0.006790178594602518
-0.005549278793324775,-0.008007980231519576
-0.005548938793324775,-0.007152227729902647
-0.005548598793324776,-0.006263561670529605
-0.005548258793324775,-0.007744671769487548
-0.005547918793324775,-0.009324522541703417
-0.005547578793324776,-0.008106720904784802
-0.005547238793324775,-0.00820546157805027
-0.005546898793324775,-0.009192868310685188
-0.005546558793324776,-0.008501683597839487
-0.005546218793324775,-0.007678844653977656
-0.005545878793324775,-0.008830819175385059
-0.005545538793324776,-0.008172548020293918
-0.005545198793324775,-0.009159954752931708
-0.005544858793324775,-0.009752398792512659
-0.005544518793324776,-0.008435856482330374
-0.005544178793324775,-0.007810498884994866
-0.005543838793324775,-0.008402942924575817
-0.005543498793324776,-0.009949880139040001
-0.005543158793324775,-0.008370029366818566
-0.005542818793324775,-0.00688891926786619
-0.005542478793324776,-0.009127041195176074
-0.005542138793324776,-0.01422864264712315
-0.005541798793324775,-0.01044358350535836
-0.005541458793324776,-0.008205461578048474
-0.005541118793324776,-0.00823837513580297
-0.005540778793324775,-0.007547190422957332
-0.005540438793324776,-0.01429446976264154
-0.005540098793324776,-0.01370202572306059
-0.005539758793324775,-0.0101802750433219
-0.005539418793324776,-0.01152973091125874
-0.005539078793324776,-0.01212217495083969
-0.005538738793324775,-0.01208926139308621
-0.005538398793324776,-0.01106894110269494
-0.005538058793324776,-0.01116768177595843
-0.005537718793324775,-0.01031192927434013
-0.005537378793324776,-0.01152973091125874
-0.005537038793324776,-0.01176012581554022
-0.005536698793324775,-0.01057523773637659
-0.005536358793324776,-0.01185886648880431
-0.005536018793324776,-0.0131754087989842
-0.005535678793324775,-0.01205634783533165
-0.005535338793324776,-0.01261587831715913
-0.005534998793324776,-0.01281335966368611
-0.005534658793324775,-0.01245131052838634
-0.005534318793324776,-0.01301084101021381
-0.005533978793324776,-0.01271461899042334
-0.005533638793324775,-0.01077271908290393
-0.005533298793324776,-0.01014736148556734
-0.005532958793324776,-0.0104106699476038
-0.005532618793324775,-0.008337115809066702
-0.005532278793324776,-0.008007980231521132
-0.005531938793324776,-0.01047649706311291
-0.005531598793324775,-0.01324123591449571
-0.005531258793324775,-0.003268427914864908
-0.005530918793324776,-0.005045760033610991
-0.005530578793324775,-0.003564649934655922
-0.005530238793324775,-0.007218054845411761
-0.005529898793324776,-0.01287918677919558
-0.005529558793324775,-0.01169429870003225
-0.005529218793324775,-0.01208926139308621
-0.005528878793324776,-0.01426155620488698
-0.005528538793324775,-0.01610471543913829
-0.005528198793324775,-0.01396533418509597
-0.005527858793324776,-0.01389950706958685
-0.005527518793324775,-0.01255005120164852
-0.005527178793324775,-0.01172721225778608
-0.005526838793324776,-0.01169429870003153
-0.005526498793324775,-0.01166138514227499
-0.005526158793324775,-0.01057523773637659
-0.005525818793324776,-0.01083854619841304
-0.005525478793324775,-0.01320832235673924
-0.005525138793324775,-0.01215508850859533
-0.005524798793324776,-0.01208926139308621
-0.005524458793324775,-0.01314249524123342
-0.005524118793324775,-0.01389950706958685
-0.005523778793324776,-0.01505148159099635
-0.005523438793324775,-0.0187378000595198
-0.005523098793324775,-0.0259129556500002
-0.005522758793324776,-0.03641238057370391
-0.005522418793324775,-0.05688461349708095
-0.005522078793324775,-0.08025323950277399
-0.005521738793324776,-0.106781567052947
-0.005521398793324775,-0.1435130975070868
-0.005521058793324775,-0.1732011266016432
-0.005520718793324776,-0.1962735305875878
-0.005520378793324776,-0.2213207480387602
-0.005520038793324775,-0.2425170792327405
-0.005519698793324776,-0.259500475034092
-0.005519358793324776,-0.2716455778455015
-0.005519018793324775,-0.2719417998653146
-0.005518678793324776,-0.2706252575551323
-0.005518338793324776,-0.268222567839054
-0.005517998793324775,-0.263812151099939
-0.005517658793324776,-0.2554521074302815
-0.005517318793324776,-0.2487048280906095
-0.005516978793324775,-0.2416284131733675
-0.005516638793324776,-0.232972147483919
-0.005516298793324776,-0.226422349490774
-0.005515958793324775,-0.219740897266587
-0.005515618793324776,-0.2137506297552576
-0.005515278793324776,-0.2065096470492682
-0.005514938793324775,-0.202132143867899
-0.005514598793324776,-0.1942658035645598
-0.005514258793324776,-0.186596944607762
-0.005513918793324775,-0.1807054177696823
-0.005513578793324776,-0.1732011266016432
-0.005513238793324776,-0.1671121184170613
-0.005512898793324775,-0.1605294068661388
-0.005512558793324776,-0.1551315833943914
-0.005512218793324776,-0.1466398854937157
-0.005511878793324775,-0.1441713686621239
-0.005511538793324776,-0.1394318163454677
-0.005511198793324776,-0.1355480165304299
-0.005510858793324775,-0.1365683368208212
-0.005510518793324776,-0.1267930101677177
-0.005510178793324776,-0.1233370866034892
-0.005509838793324775,-0.1175113868809326
-0.005509498793324775,-0.1149441293760772
-0.005509158793324776,-0.1141542039899678
-0.005508818793324775,-0.1098096143663545
-0.005508478793324775,-0.1033256434887185
-0.005508138793324776,-0.0991127080961352
-0.005507798793324775,-0.09516308116558393
-0.005507458793324775,-0.09272747789175112
-0.005507118793324776,-0.08910698653874985
-0.005506778793324775,-0.08578271720553597
-0.005506438793324775,-0.08380790374026614
-0.005506098793324776,-0.08038489373379221
-0.005505758793324775,-0.07765306844015182
-0.005505418793324775,-0.07097161621598888
-0.005505078793324776,-0.07284768900799862
-0.005504738793324775,-0.07028043150314173
-0.005504398793324775,-0.06949050611703381
-0.005504058793324776,-0.06725238418972393
-0.005503718793324775,-0.06508008937792074
-0.005503378793324775,-0.06376354706774087
-0.005503038793324776,-0.06096589465860352
-0.005502698793324775,-0.05823406936497318
-0.005502358793324775,-0.05708209484356578
-0.005502018793324776,-0.05721374907458401
-0.005501678793324775,-0.05408696108790006
-0.005501338793324775,-0.05352743060607361
-0.005500998793324776,-0.05379073906811007
-0.005500658793324775,-0.05451483733871105
-0.005500318793324775,-0.05490980003176501
-0.005499978793324776,-0.04730676819046232
-0.005499638793324776,-0.04464077001234804
-0.005499298793324775,-0.04105319221709647
-0.005498958793324776,-0.04325840058665179
-0.005498618793324776,-0.04579274453374808
-0.005498278793324775,-0.04312674635563356
-0.005497938793324776,-0.04062531596628723
-0.005497598793324776,-0.0408886244283232
-0.005497258793324775,-0.04105319221709647
-0.005496918793324776,-0.04213933962299685
-0.005496578793324776,-0.03996704481120003
-0.005496238793324775,-0.0377289228838862
-0.005495898793324776,-0.03868341605876836
-0.005495558793324776,-0.03792640423041491
-0.005495218793324775,-0.03496418403250341
-0.005494878793324776,-0.03315393835600276
-0.005494538793324776,-0.03160700114154139
-0.005494198793324775,-0.03098164354420199
-0.005493858793324776,-0.03075124863992009
-0.005493518793324776,-0.02666996747836244
-0.005493178793324775,-0.02347735237616297
-0.005492838793324776,-0.02436601843553601
-0.005492498793324776,-0.0256496471879614
-0.005492158793324775,-0.02505720314838171
-0.005491818793324776,-0.02393814218472677
-0.005491478793324776,-0.02624209122754158
-0.005491138793324775,-0.02709784372916425
-0.005490798793324776,-0.02607752343877298
-0.005490458793324776,-0.0247609811285907
-0.005490118793324775,-0.02584712853449108
-0.005489778793324776,-0.0272953250756916
-0.005489438793324776,-0.02048221862049827
-0.005489098793324775,-0.01784913400013371
-0.005488758793324775,-0.01429446976264154
-0.005488418793324776,-0.01758582553809725
-0.005488078793324775,-0.02081135419803738
-0.005487738793324775,-0.01725668996055168
-0.005487398793324776,-0.01679590015198788
-0.005487058793324775,-0.01768456621136331
-0.005486718793324775,-0.0190011085215432
-0.005486378793324776,-0.02081135419804385
-0.005486038793324775,-0.02067969996702418
-0.005485698793324775,-0.01988977458091625
-0.005485358793324776,-0.02051513217825283
-0.005485018793324775,-0.02153545246864075
-0.005484678793324775,-0.0196922932343889
-0.005484338793324776,-0.01883654073277042
-0.005483998793324775,-0.01761873909584977
-0.005483658793324775,-0.01649967813219686
-0.005483318793324776,-0.01768456621136092
-0.005482978793324775,-0.01722377640279574
-0.005482638793324775,-0.01646676457444231
-0.005482298793324776,-0.01673007303647877
-0.005481958793324775,-0.01906693563705172
-0.005481618793324775,-0.01873780005950675
-0.005481278793324776,-0.01656550524770598
-0.005480938793324775,-0.01732251707605906
-0.005480598793324775,-0.01636802390117864
-0.005480258793324776,-0.01449195110916888
-0.005479918793324775,-0.01538061716854689
-0.005479578793324775,-0.01811244246217016
-0.005479238793324776,-0.01031192927434013
-0.005478898793324776,-0.008732078502124263
-0.005478558793324775,-0.007843412442748346
-0.005478218793324776,-0.00665852436358429
-0.005477878793324776,-0.01241839697062131
-0.005477538793324775,-0.01189178004655887
-0.005477198793324776,-0.01004862081230367
-0.005476858793324776,-0.01123350889146557
-0.005476518793324775,-0.01278044610593191
-0.005476178793324776,-0.0120234342775771
-0.005475838793324776,-0.01261587831715805
-0.005475498793324775,-0.01353745793428673
-0.005475158793324776,-0.01172721225778608
-0.005474818793324776,-0.01189178004655857
-0.005474478793324775,-0.01139807668024051
-0.005474138793324776,-0.01067397840964026
-0.005473798793324776,-0.009456176772723859
-0.005473458793324775,-0.0115626444690133
-0.005473118793324776,-0.01129933600697684
-0.005472778793324776,-0.0117930393732943
-0.005472438793324775,-0.01376785283856862
-0.005472098793324776,-0.01307666812572293
-0.005471758793324776,-0.012155088508597
-0.005471418793324775,-0.01235256985512267
-0.005471078793324776,-0.01136516312248596
-0.005470738793324776,-0.009522003888234112
-0.005470398793324775,-0.0104106699476038
-0.005470058793324776,-0.01100311398718583
-0.005469718793324776,-0.01176012581554064
-0.005469378793324775,-0.01419572908937787
-0.005469038793324776,-0.01949481188786156
-0.005468698793324776,-0.01245131052838634
-0.005468358793324775,-0.0111018546604495
-0.005468018793324776,-0.01821118313543383
-0.005467678793324776,-0.01534770361078737
-0.005467338793324775,-0.01439321043590521
-0.005466998793324775,-0.0152489629375237
-0.005466658793324776,-0.01442612399365977
-0.005466318793324775,-0.0122209156241036
-0.005465978793324775,-0.01176012581554064
-0.005465638793324776,-0.01011444792781279
-0.005465298793324775,-0.007514276865198584
-0.005464958793324775,-0.005210327822383777
-0.005464618793324776,-0.003070946568337565
-0.005464278793324775,-0.003893785512204546
-0.005463938793324775,-0.005572376957683906
-0.005463598793324776,-0.006362302343793276
-0.005463258793324775,-0.006987659941136447
-0.005462918793324775,-0.01060815129413114
-0.005462578793324776,-0.01357037149204128
-0.005462238793324775,-0.01284627322144408
-0.005461898793324775,-0.01452486466692344
-0.005461558793324776,-0.01376785283856862
-0.005461218793324775,-0.0139982477428501
-0.005460878793324775,-0.01376785283856862
-0.005460538793324776,-0.01445903755141432
-0.005460198793324775,-0.01357037149204158
-0.005459858793324775,-0.01373493928081407
-0.005459518793324776,-0.0140969884161142
-0.005459178793324775,-0.0095549174459931
-0.005458838793324775,-0.01383367995407774
-0.005458498793324776,-0.0111018546604495
-0.005458158793324775,-0.01008153437005643
-0.005457818793324775,-0.009094127637421515
-0.005457478793324776,-0.008732078502121389
-0.005457138793324776,-0.01327414947224201
-0.005456798793324775,-0.01347163081877761
-0.005456458793324776,-0.0115626444690133
-0.005456118793324776,-0.01080563264065986
-0.005455778793324775,-0.01090437331392216
-0.005455438793324776,-0.01008153437005823
-0.005455098793324776,-0.009291608983950294
-0.005454758793324775,-0.008830819175385059
-0.005454418793324776,-0.009686571677003543
-0.005454078793324776,-0.009127041195177092
-0.005453738793324775,-0.009324522541703417
-0.005453398793324776,-0.01129933600697684
-0.005453058793324776,-0.01041066994760542
-0.005452718793324775,-0.008995386964157845
-0.005452378793324776,-0.01054232417862203
-0.005452038793324776,-0.01120059533371197
-0.005451698793324775,-0.00790923955825746
-0.005451358793324776,-0.007514276865202775
-0.005451018793324776,-0.009291608983945624
-0.005450678793324775,-0.01031192927434013
-0.005450338793324776,-0.01027901571658557
-0.005449998793324776,-0.01008153437005859
-0.005449658793324775,-0.009423263214967087
-0.005449318793324776,-0.01129933600697684
-0.005448978793324776,-0.01330706303000117
-0.005448638793324775,-0.01287918677919558
-0.005448298793324776,-0.01353745793428673
-0.005447958793324776,-0.007777585327239231
-0.005447618793324775,-0.008534597155594046
-0.005447278793324776,-0.006362302343793276
-0.005446938793324776,-0.008995386964157845
-0.005446598793324775,-0.01159555802676786
-0.005446258793324775,-0.01100311398718583
-0.005445918793324776,-0.0101802750433219
-0.005445578793324775,-0.01057523773637695
-0.005445238793324775,-0.01077271908290393
-0.005444898793324776,-0.01172721225778608
-0.005444558793324775,-0.0126817054326677
-0.005444218793324775,-0.01238548341287723
-0.005443878793324776,-0.01343871726102305
-0.005443538793324775,-0.01347163081877641
-0.005443198793324775,-0.01281335966368647
-0.005442858793324776,-0.01350454437653217
-0.005442518793324775,-0.01258296475939978
-0.005442178793324775,-0.009949880139040001
-0.005441838793324776,-0.01034484283209469
-0.005441498793324775,-0.01179303937329358
-0.005441158793324775,-0.01090437331392216
-0.005440818793324776,-0.009785312350267215
-0.005440478793324775,-0.0106081512941312
-0.005440138793324775,-0.0106410648518857
-0.005439798793324776,-0.009818225908021772
-0.005439458793324775,-0.009686571677000669
-0.005439118793324775,-0.008106720904784802
-0.005438778793324776,-0.00790923955825746
-0.005438438793324775,-0.008567510713353812
-0.005438098793324775,-0.01143099023799507
-0.005437758793324776,-0.008830819175385059
-0.005437418793324775,-0.005967339650741584
-0.005437078793324775,-0.007613017538466446
-0.005436738793324776,-0.005671117630947577
-0.005436398793324776,-0.009884053023523222
-0.005436058793324775,-0.01192469360431343
-0.005435718793324776,-0.01060815129413114
-0.005435378793324776,-0.01152973091125707
-0.005435038793324775,-0.01304375456796837
-0.005434698793324776,-0.012253829181859
-0.005434358793324776,-0.0134058037032664
-0.005434018793324775,-0.01310958168347748
-0.005433678793324776,-0.0120234342775771
-0.005433338793324776,-0.01087145975616969
-0.005432998793324775,-0.01077271908290393
-0.005432658793324776,-0.01070689196739481
-0.005432318793324776,-0.01031192927434085
-0.005431978793324775,-0.01116768177595861
-0.005431638793324776,-0.0101802750433219
-0.005431298793324776,-0.01067397840963936
-0.005430958793324775,-0.01080563264065849
-0.005430618793324776,-0.009916966581285444
-0.005430278793324776,-0.008995386964159521
-0.005429938793324775,-0.01027901571658557
-0.005429598793324776,-0.01014736148556734
-0.005429258793324776,-0.008600424271105973
-0.005428918793324775,-0.009818225908021772
-0.005428578793324776,-0.009653658119248986
-0.005428238793324776,-0.01011444792781195
-0.005427898793324775,-0.01241839697063178
-0.005427558793324776,-0.01649967813219686
-0.005427218793324776,-0.007580103980711889
-0.005426878793324775,-0.007942153116012016
-0.005426538793324776,-0.007415536191939104
-0.005426198793324776,-0.006757265036847961
-0.005425858793324775,-0.01136516312248596
-0.005425518793324775,-0.01077271908290393
-0.005425178793324776,-0.00939034965721253
-0.005424838793324775,-0.01287918677919558
-0.005424498793324775,-0.01297792745245925
-0.005424158793324776,-0.01231965629736811
-0.005423818793324775,-0.01126642244922564
-0.005423478793324775,-0.01310958168347748
-0.005423138793324776,-0.01120059533371317
-0.005422798793324775,-0.01054232417862221
-0.005422458793324775,-0.0106410648518857
-0.005422118793324776,-0.01047649706311291
-0.005421778793324775,-0.008666251386612093
-0.005421438793324775,-0.008567510713348603
-0.005421098793324776,-0.007777585327239231
-0.005420758793324775,-0.006757265036849638
-0.005420418793324775,-0.00767884465397556
-0.005420078793324776,-0.008468770040084931
-0.005419738793324775,-0.008732078502124263
-0.005419398793324775,-0.01031192927434013
-0.005419058793324776,-0.0117930393732952
-0.005418718793324775,-0.0107727190829065
-0.005418378793324775,-0.01218800206634988
-0.005418038793324776,-0.0117930393732952
-0.005417698793324775,-0.009324522541707967
-0.005417358793324775,-0.01182595293104976
-0.005417018793324776,-0.01208926139308621
-0.005416678793324775,-0.005868598977473482
-0.005416338793324775,-0.005078673591365549
