Analysis/files/cmb03_wrd01/d2s05_ch36.csv

#Digilent WaveForms Oscilloscope Acquisition
#Device Name: ADP3450
#Serial Number: SN:210018B9D9B0
#Date Time: 2024-08-13 15:20:31.611.422.130
#Sample rate: 2.94118e+06Hz
#Samples: 32768
#Trigger: Source: Channel 3 Type: Edge Condition: Rising Level: 60 mV Hyst.: Auto HoldOff: 0 s
#Channel 3: Range: 200 mV/div Offset: 0 V Attenuation: 1 X Coupling: DC Bandwidth: 0 Hz Sample Mode: Average

Time (s),Channel 3 (V)
-0.005570454635416667,0.01164141374794946
-0.005570114635416666,0.007165169893324546
-0.005569774635416667,0.004334603926437783
-0.005569434635416667,0.009699513840430593
-0.005569094635416666,0.007494305470875865
-0.005568754635416667,0.007823441048420837
-0.005568414635416667,0.009008329127584893
-0.005568074635416666,0.003413024309311502
-0.005567734635416667,0.004137122579910441
-0.005567394635416667,0.006408158064974882
-0.005567054635416666,0.00453208527296333
-0.005566714635416667,0.003544678540328413
-0.005566374635416667,0.005453664890092726
-0.005566034635416666,0.003873814117873386
-0.005565694635416667,0.003544678540328413
-0.005565354635416667,0.004433344599701455
-0.005565014635416666,0.004466258157454875
-0.005564674635416667,0.003840900560119427
-0.005564334635416667,0.004597912388474241
-0.005563994635416666,0.004071295464400669
-0.005563654635416667,0.003709246329101199
-0.005563314635416667,0.005618232678865511
-0.005562974635416667,0.004959961523775567
-0.005562634635416667,0.003906727675628541
-0.005562294635416667,0.003906727675628541
-0.005561954635416667,0.005552405563353404
-0.005561614635416667,0.004400431041946898
-0.005561274635416667,0.004400431041946898
-0.005560934635416667,0.002293963345659075
-0.005560594635416667,0.000714112573436502
-0.005560254635416667,0.0003849769958909309
-0.005559914635416667,-0.004025439743211699
-0.005559574635416667,-0.01001570725454911
-0.005559234635416667,-0.007547190422957332
-0.005558894635416667,-0.00244558897101026
-0.005558554635416667,-0.002379761855491866
-0.005558214635416667,-0.0005695161789912252
-0.005557874635416667,-0.002577243202015556
-0.005557534635416667,-0.003103860126092122
-0.005557194635416667,0.0009115939199638446
-0.005556854635416667,0.001668605748317281
-0.005556514635416667,-0.0002403806014456541
-0.005556174635416667,-0.0003391212747093254
-0.005555834635416667,0.0005166312269076028
-0.005555494635416667,-0.0004049483902184396
-0.005555154635416667,-0.001721490700400724
-0.005554814635416667,-0.001359441565101254
-0.005554474635416667,-0.0003062077169547683
-0.005554134635416667,-0.001392355122855153
-0.005553794635416667,-4.289925491831147e-05
-0.005553454635416667,0.0001874956493635883
-0.005553114635416667,-0.0001416399281819828
-0.005552774635416667,-0.0004378619479729968
-0.005552434635416667,0.002129395556882458
-0.005552094635416667,0.0002533227648727025
-0.005551754635416667,-0.0001745534859365399
-0.005551414635416667,-0.0002074670436917556
-0.005551074635416667,-0.0005695161789912252
-0.005550734635416667,-0.001359441565100596
-0.005550394635416666,-0.001556922911630273
-0.005550054635416667,-0.002840551664055666
-0.005549714635416667,-0.003005119452828451
-0.005549374635416666,-0.003202600799365732
-0.005549034635416667,-0.008666251386612273
-0.005548694635416667,-0.004552056667292635
-0.005548354635416666,-0.001918972046929324
-0.005548014635416667,-0.002610156759773766
-0.005547674635416667,-0.00290637877956478
-0.005547334635416666,-0.006329388786042131
-0.005546994635416667,-0.008205461578048474
-0.005546654635416667,-0.006921832825620747
-0.005546314635416666,-0.005769858304214661
-0.005545974635416667,-0.007645931096221003
-0.005545634635416667,-0.007613017538466446
-0.005545294635416666,-0.005210327822381861
-0.005544954635416667,-0.00415709397423795
-0.005544614635416667,-0.003992526185465165
-0.005544274635416666,-0.001260700891835787
-0.005543934635416667,-0.0006353432945003394
-0.005543594635416667,-0.0009644788720459105
-0.005543254635416666,0.002985148058500344
-0.005542914635416667,0.002656012480955371
-0.005542574635416667,0.0027876667119736
-0.005542234635416667,0.002261049787901644
-0.005541894635416667,0.001866087094846001
-0.005541554635416667,-0.0001087263704274257
-0.005541214635416667,-0.002281021182224243
-0.005540874635416667,-0.003762131281183265
-0.005540534635416667,-0.004815365129329092
-0.005540194635416667,-0.006362302343790462
-0.005539854635416667,-0.00517741426462922
-0.005539514635416667,-0.005473636284420234
-0.005539174635416667,-0.00659269724807314
-0.005538834635416667,-0.007876326000502903
-0.005538494635416667,-0.01136516312248596
-0.005538154635416667,-0.00333425503038863
-0.005537814635416667,-0.0001745534859365399
-0.005537474635416667,-0.005276154937892892
-0.005537134635416667,-0.006691437921336273
-0.005536794635416667,-0.00837002936682126
-0.005536454635416667,-0.006987659941129861
-0.005536114635416667,-0.006131907439512933
-0.005535774635416667,-0.006263561670529605
-0.005535434635416667,-0.00619773455502049
-0.005535094635416667,-0.006888919267864932
-0.005534754635416667,-0.007053487056638975
-0.005534414635416667,-0.00688891926786619
-0.005534074635416667,-0.008699164944363538
-0.005533734635416667,-0.006461043017056948
-0.005533394635416667,-0.005736944746456691
-0.005533054635416667,-0.006592697248075176
-0.005532714635416667,-0.007086400614393532
-0.005532374635416667,-0.005374895611156563
-0.005532034635416667,-0.005210327822383777
-0.005531694635416667,-0.007580103980711889
-0.005531354635416667,-0.005045760033610991
-0.005531014635416667,-0.005671117630947577
-0.005530674635416667,-0.004519143109538078
-0.005530334635416667,-0.002939292337319337
-0.005529994635416667,-0.00290637877956478
-0.005529654635416666,-0.004683710898309307
-0.005529314635416667,-0.003827958396692379
-0.005528974635416667,-0.003827958396692379
-0.005528634635416666,-0.005572376957690252
-0.005528294635416667,-0.009061214079666959
-0.005527954635416667,-0.009028300521912402
-0.005527614635416666,-0.00353173637689897
-0.005527274635416667,-0.002215194066719081
-0.005526934635416667,-0.0006682568522548965
-0.005526594635416666,-0.005111587149122381
-0.005526254635416667,-0.006362302343793276
-0.005525914635416667,-0.00267598387528288
-0.005525574635416666,-0.002675983875285275
-0.005525234635416667,-0.003992526185465165
-0.005524894635416667,-0.004058353300974278
-0.005524554635416666,-0.004453315994025191
-0.005524214635416667,-0.002379761855491866
-0.005523874635416667,-0.004222921089747064
-0.005523534635416666,-0.008830819175396614
-0.005523194635416667,-0.01518313582201458
-0.005522854635416667,-0.0261433505542821
-0.005522514635416666,-0.04427872087708886
-0.005522174635416667,-0.06945759255927925
-0.005521834635416667,-0.09657836414903431
-0.005521494635416666,-0.1262334796859491
-0.005521154635416667,-0.1585875069586199
-0.005520814635416667,-0.1866956852810117
-0.005520474635416667,-0.2128290501380825
-0.005520134635416667,-0.2342228626785921
-0.005519794635416667,-0.2496264077077249
-0.005519454635416667,-0.2594675614763196
-0.005519114635416667,-0.2659844459117398
-0.005518774635416667,-0.2665439763935672
-0.005518434635416667,-0.2633184477336265
-0.005518094635416667,-0.2614752884993654
-0.005517754635416667,-0.2568673904137274
-0.005517414635416667,-0.2497909754965105
-0.005517074635416667,-0.2369876015299749
-0.005516734635416667,-0.229845359497236
-0.005516394635416667,-0.2204320819794498
-0.005516054635416667,-0.2172723804349952
-0.005515714635416667,-0.2110188044616294
-0.005515374635416667,-0.2003218981914178
-0.005515034635416667,-0.1936733595249778
-0.005514694635416667,-0.188308449610985
-0.005514354635416667,-0.1790268263242167
-0.005514014635416667,-0.1723453741000248
-0.005513674635416667,-0.1669475506282774
-0.005513334635416667,-0.1597394814800425
-0.005512994635416667,-0.1547037071435822
-0.005512654635416667,-0.1517744005034266
-0.005512314635416667,-0.1460474414541336
-0.005511974635416667,-0.1407483586556499
-0.005511634635416667,-0.1386748045171129
-0.005511294635416667,-0.1322566607549742
-0.005510954635416667,-0.1276487626693362
-0.005510614635416667,-0.1241599255473532
-0.005510274635416667,-0.1191241512109059
-0.005509934635416667,-0.1147137344717953
-0.005509594635416667,-0.1125414396599945
-0.005509254635416667,-0.1077031466700746
-0.005508914635416667,-0.1036547790662588
-0.005508574635416667,-0.1007254724261085
-0.005508234635416667,-0.09700624039984354
-0.005507894635416666,-0.09272747789175058
-0.005507554635416667,-0.09243125587196011
-0.005507214635416667,-0.09157550337034162
-0.005506874635416666,-0.07998993104073143
-0.005506534635416667,-0.07663274814977269
-0.005506194635416667,-0.07261729410371673
-0.005505854635416666,-0.06909554342398343
-0.005505514635416667,-0.07146531958230723
-0.005505174635416667,-0.06471804024262304
-0.005504834635416666,-0.06020888283024816
-0.005504494635416667,-0.05991266081045769
-0.005504154635416667,-0.05987974725270313
-0.005503814635416666,-0.05701626772805427
-0.005503474635416667,-0.05569972541787438
-0.005503134635416667,-0.05589720676440172
-0.005502794635416666,-0.05352743060606834
-0.005502454635416667,-0.05063103752367259
-0.005502114635416667,-0.04984111213756322
-0.005501774635416666,-0.04753716309474105
-0.005501434635416667,-0.04579274453375269
-0.005501094635416667,-0.0458585716492618
-0.005500754635416666,-0.04352170904868394
-0.005500414635416667,-0.04115193289036014
-0.005500074635416667,-0.04138232779464204
-0.005499734635416667,-0.04046074817751612
-0.005499394635416667,-0.03891381096305026
-0.005499054635416667,-0.03776183644164076
-0.005498714635416667,-0.03710356528655082
-0.005498374635416667,-0.03371346883783023
-0.005498034635416667,-0.03279188922070263
-0.005497694635416667,-0.03163991469929523
-0.005497354635416667,-0.02927013854096502
-0.005497014635416667,-0.02950053344524692
-0.005496674635416667,-0.03246275364315167
-0.005496334635416667,-0.02364192016493576
-0.005495994635416667,-0.02051513217825283
-0.005495654635416667,-0.02242411852801367
-0.005495314635416667,-0.02479389468634526
-0.005494974635416667,-0.0252217709371545
-0.005494634635416667,-0.02390522862697461
-0.005494294635416667,-0.02301656256759917
-0.005493954635416667,-0.02541925228368184
-0.005493614635416667,-0.02558382007245433
-0.005493274635416667,-0.0259129556500002
-0.005492934635416667,-0.01962646611887979
-0.005492594635416667,-0.01992268813867027
-0.005492254635416667,-0.02403688285799044
-0.005491914635416667,-0.01788204755788826
-0.005491574635416667,-0.01646676457444488
-0.005491234635416667,-0.01538061716854192
-0.005490894635416667,-0.01149681735350419
-0.005490554635416667,-0.01547935784180559
-0.005490214635416667,-0.01373493928081407
-0.005489874635416667,-0.01205634783533165
-0.005489534635416667,-0.0115626444690133
-0.005489194635416667,-0.01090437331392216
-0.005488854635416667,-0.009456176772721644
-0.005488514635416667,-0.009785312350267215
-0.005488174635416667,-0.01146390379574765
-0.005487834635416667,-0.01037775638984924
-0.005487494635416667,-0.01093728687167671
-0.005487154635416666,-0.01159555802676792
-0.005486814635416667,-0.01162847158452241
-0.005486474635416667,-0.01004862081230367
-0.005486134635416666,-0.01192469360431427
-0.005485794635416667,-0.01238548341287723
-0.005485454635416667,-0.01222091562410444
-0.005485114635416666,-0.01511730870650373
-0.005484774635416667,-0.01416281553162331
-0.005484434635416667,-0.01462360534018711
-0.005484094635416666,-0.0168288137097392
-0.005483754635416667,-0.01505148159099635
-0.005483414635416667,-0.01320832235674115
-0.005483074635416666,-0.01189178004655791
-0.005482734635416667,-0.01136516312248596
-0.005482394635416667,-0.009127041195176074
-0.005482054635416666,-0.009884053023530346
-0.005481714635416667,-0.009587831003739873
-0.005481374635416667,-0.008304202251312145
-0.005481034635416666,-0.009225781868439984
-0.005480694635416667,-0.009357436099457973
-0.005480354635416667,-0.00790923955825746
-0.005480014635416666,-0.006428129459301613
-0.005479674635416667,-0.006000253208493148
-0.005479334635416667,-0.004354575320765292
-0.005478994635416667,-0.003597563492411856
-0.005478654635416667,-0.003663390607919593
-0.005478314635416667,-0.002643070317528323
-0.005477974635416667,-0.002610156759773826
-0.005477634635416667,-0.004058353300974278
-0.005477294635416667,-0.002610156759773766
-0.005476954635416667,-0.001853144931420329
-0.005476614635416667,-0.003268427914864908
-0.005476274635416667,-0.007086400614393532
-0.005475934635416667,-0.003926699069961797
-0.005475594635416667,-0.005736944746456691
-0.005475254635416667,-0.005835685419720362
-0.005474914635416667,-0.006658524363582793
-0.005474574635416667,-0.01297792745245925
-0.005474234635416667,-0.01251713764389546
-0.005473894635416667,-0.008929559848655257
-0.005473554635416667,-0.01083854619841304
-0.005473214635416667,-0.01097020042943127
-0.005472874635416667,-0.009192868310688421
-0.005472534635416667,-0.007185141287657204
-0.005472194635416667,-0.007218054845411761
-0.005471854635416667,-0.005736944746459385
-0.005471514635416667,-0.006066080324002262
-0.005471174635416667,-0.006329388786038719
-0.005470834635416667,-0.005407809168912796
-0.005470494635416667,-0.006921832825620747
-0.005470154635416667,-0.008435856482330374
-0.005469814635416667,-0.006724351479093405
-0.005469474635416667,-0.005835685419720362
-0.005469134635416667,-0.007218054845411761
-0.005468794635416667,-0.006790178594602518
-0.005468454635416667,-0.005210327822383777
-0.005468114635416667,-0.005835685419720362
-0.005467774635416667,-0.003663390607919593
-0.005467434635416667,-0.003301341472619465
-0.005467094635416667,-0.001063219545309582
-0.005466754635416667,-0.001688577142646167
-0.005466414635416667,-0.0008986517565487702
-0.005466074635416667,-0.007481363307448217
-0.005465734635416667,-0.00711931417214809
-0.005465394635416666,-0.003070946568340558
-0.005465054635416667,-0.004716624456065421
-0.005464714635416667,-0.003893785512201493
-0.005464374635416666,-0.006263561670534754
-0.005464034635416667,-0.009094127637421515
-0.005463694635416667,-0.00665852436358429
-0.005463354635416666,-0.005045760033613925
-0.005463014635416667,-0.00665852436358429
-0.005462674635416667,-0.008205461578048474
-0.005462334635416666,-0.005802771861965566
-0.005461994635416667,-0.005671117630947577
-0.005461654635416667,-0.007415536191939104
-0.005461314635416666,-0.004979932918101818
-0.005460974635416667,-0.00494701936034732
-0.005460634635416667,-0.005243241380138334
-0.005460294635416666,-0.005243241380137257
-0.005459954635416667,-0.004650797340556306
-0.005459614635416667,-0.006164820997265934
-0.005459274635416666,-0.006230648112771934
-0.005458934635416667,-0.004519143109538078
-0.005458594635416667,-0.006098993881756819
-0.005458254635416666,-0.006461043017052397
-0.005457914635416667,-0.003959612627710607
-0.005457574635416667,-0.004025439743219721
-0.005457234635416667,-0.004321661763010197
-0.005456894635416667,-0.003893785512201493
-0.005456554635416667,-0.004255834647501621
-0.005456214635416667,-0.005769858304208494
-0.005455874635416667,-0.006526870132566062
-0.005455534635416667,-0.0115626444690133
-0.005455194635416667,-0.007053487056647177
-0.005454854635416667,-0.003992526185465165
-0.005454514635416667,-0.002379761855491866
-0.005454174635416667,-0.002478502528755358
-0.005453834635416667,-0.005638204073193019
-0.005453494635416667,-0.005144500706874663
-0.005453154635416667,-0.003860871954449271
-0.005452814635416667,-0.002840551664055666
-0.005452474635416667,-0.004617883782801749
-0.005452134635416667,-0.006098993881754125
-0.005451794635416667,-0.006033166766247705
-0.005451454635416667,-0.006296475228284162
-0.005451114635416667,-0.007777585327236537
-0.005450774635416667,-0.008007980231521132
-0.005450434635416667,-0.006493956574811504
-0.005450094635416667,-0.005671117630949074
-0.005449754635416667,-0.005539463399929348
-0.005449414635416667,-0.004255834647501621
-0.005449074635416667,-0.005012846475855057
-0.005448734635416667,-0.004190007531992507
-0.005448394635416667,-0.002215194066719081
-0.005448054635416667,-0.002939292337319337
-0.005447714635416667,-0.004914105802592763
-0.005447374635416667,-0.004519143109538078
-0.005447034635416667,-0.004650797340556306
-0.005446694635416667,-0.006790178594602518
-0.005446354635416667,-0.007777585327239231
-0.005446014635416667,-0.009357436099457973
-0.005445674635416667,-0.01024610215883359
-0.005445334635416667,-0.01166138514227697
-0.005444994635416667,-0.01169429870003153
-0.005444654635416666,-0.005374895611157821
-0.005444314635416667,-0.006066080324002262
-0.005443974635416667,0.002754753154219042
-0.005443634635416666,-0.007415536191942516
-0.005443294635416667,-0.009291608983948858
-0.005442954635416667,-0.005012846475856435
-0.005442614635416666,-0.003038033010583727
-0.005442274635416667,-0.003432995703637694
-0.005441934635416667,-0.001918972046928067
-0.005441594635416666,-0.00155692291162734
-0.005441254635416667,-0.001227787334082367
-0.005440914635416667,-0.0006353432945003394
-0.005440574635416666,-0.003005119452832522
-0.005440234635416667,-0.005243241380138334
-0.005439894635416667,-0.005309068495647449
-0.005439554635416666,-0.006329388786040994
-0.005439214635416667,-0.007580103980711889
-0.005438874635416667,-0.006098993881756819
-0.005438534635416666,-0.005638204073194696
-0.005438194635416667,-0.006559783690320619
-0.005437854635416667,-0.006296475228284162
-0.005437514635416666,-0.006987659941136207
-0.005437174635416667,-0.01047649706311291
-0.005436834635416667,-0.01067397840964026
-0.005436494635416667,-0.009225781868442379
-0.005436154635416667,-0.01050941062086747
-0.005435814635416667,-0.009489090330476201
-0.005435474635416667,-0.009159954752931229
-0.005435134635416667,-0.008271288693557588
-0.005434794635416667,-0.01159555802676786
-0.005434454635416667,-0.008600424271108608
-0.005434114635416667,-0.004979932918101878
-0.005433774635416667,-0.004848278687083649
-0.005433434635416667,-0.00162275002714292
-0.005433094635416667,-0.006559783690320619
-0.005432754635416667,-0.009192868310685188
-0.005432414635416667,-0.005539463399935994
-0.005432074635416667,-0.005835685419720362
-0.005431734635416667,-0.006921832825620747
-0.005431394635416667,-0.006131907439512813
-0.005431054635416667,-0.005374895611156563
-0.005430714635416667,-0.005769858304211248
-0.005430374635416667,-0.003696304165677922
-0.005430034635416667,-0.003762131281183265
-0.005429694635416667,-0.004584970225047193
-0.005429354635416667,-0.0008986517565435018
-0.005429014635416667,-0.00165566358489161
-0.005428674635416667,-0.002939292337319337
-0.005428334635416667,-0.003465909261391293
-0.005427994635416667,-0.003432995703637694
-0.005427654635416667,-0.006362302343793276
-0.005427314635416667,-0.006461043017056948
-0.005426974635416667,-0.00688891926786619
-0.005426634635416667,-0.008435856482330374
-0.005426294635416667,-0.008830819175385059
-0.005425954635416667,-0.007053487056638975
-0.005425614635416667,-0.008304202251312145
-0.005425274635416667,-0.007613017538466446
-0.005424934635416667,-0.007415536191939104
-0.005424594635416667,-0.006757265036847961
-0.005424254635416667,-0.01021318860107646
-0.005423914635416666,-0.005210327822373779
-0.005423574635416667,0.0002862363226272596
-0.005423234635416667,-0.003959612627710607
-0.005422894635416666,-0.00320260079935262
-0.005422554635416667,-0.001458182238364267
-0.005422214635416667,-0.002610156759773766
-0.005421874635416666,-0.00363047705016809
-0.005421534635416667,-0.005309068495647449
-0.005421194635416667,-0.005901512535229476
-0.005420854635416666,-0.007218054845412838
-0.005420514635416667,-0.007810498884993789
-0.005420174635416667,-0.008435856482330374
-0.005419834635416666,-0.005736944746453997
-0.005419494635416667,-0.004255834647501621
-0.005419154635416667,-0.005671117630947577
-0.005418814635416666,-0.00316968724159986
-0.005418474635416667,-0.002412675413246423
-0.005418134635416667,-0.003597563492410479
-0.005417794635416666,-0.004552056667289821
