Analysis/files/cmb03_wrd01/d2s03_ch03.csv

#Digilent WaveForms Oscilloscope Acquisition
#Device Name: ADP3450
#Serial Number: SN:210018B9D9B0
#Date Time: 2024-08-13 11:28:34.871.400.250
#Sample rate: 2.94118e+06Hz
#Samples: 32768
#Trigger: Source: Channel 3 Type: Edge Condition: Rising Level: 60 mV Hyst.: Auto HoldOff: 0 s
#Channel 3: Range: 200 mV/div Offset: 0 V Attenuation: 1 X Coupling: DC Bandwidth: 0 Hz Sample Mode: Average

Time (s),Channel 3 (V)
-0.005570287126168224,0.01068692057306731
-0.005569947126168224,0.008975415569837161
-0.005569607126168224,0.01272756115384985
-0.005569267126168224,0.004597912388474241
-0.005568927126168224,0.003775073444609534
-0.005568587126168224,0.003347197193801071
-0.005568247126168224,0.003742159886855756
-0.005567907126168224,0.00285349382747996
-0.005567567126168224,0.001339470170773087
-0.005567227126168224,0.001701519306073215
-0.005566887126168224,0.0004837176691555601
-0.005566547126168224,0.001010334593227516
-0.005566207126168224,0.0001545820916090312
-0.005565867126168224,0.001668605748317162
-0.005565527126168224,0.0008457668044547304
-0.005565187126168224,-0.0009315653142913533
-0.005564847126168224,-0.0001087263704283237
-0.005564507126168224,-0.0006024297367457822
-0.005564167126168224,-0.002116453393455409
-0.005563827126168224,-0.002445588970999544
-0.005563487126168224,-0.00165566358489161
-0.005563147126168224,-0.004255834647501621
-0.005562807126168225,-0.003334255030375699
-0.005562467126168224,-0.00244558897100098
-0.005562127126168224,2.292786059080275e-05
-0.005561787126168225,-0.000635343294499142
-0.005561447126168224,-0.0005036890634821109
-0.005561107126168224,-0.001622750027137053
-0.005560767126168225,-0.001063219545310599
-0.005560427126168224,-0.005671117630947577
-0.005560087126168224,-0.003630477050165036
-0.005559747126168225,-0.002577243202021125
-0.005559407126168224,-0.001392355122855153
-0.005559067126168224,-0.0006353432945003394
-0.005558727126168225,-0.005638204073183919
-0.005558387126168224,-0.004848278687083649
-0.005558047126168224,-0.002708897433037437
-0.005557707126168225,-0.003070946568336907
-0.005557367126168224,-0.002807638106301108
-0.005557027126168224,-0.003959612627710607
-0.005556687126168225,-0.004782451571573038
-0.005556347126168224,-0.005440722726665677
-0.005556007126168224,-0.003729217723428708
-0.005555667126168225,-0.008172548020285835
-0.005555327126168224,-0.00688891926786619
-0.005554987126168224,-0.007382622634184546
-0.005554647126168225,-0.007810498884993011
-0.005554307126168224,-0.006724351479093405
-0.005553967126168224,-0.006757265036847961
-0.005553627126168225,-0.006230648112775047
-0.005553287126168224,-0.006428129459302391
-0.005552947126168224,-0.003893785512201493
-0.005552607126168225,-0.00392669906995605
-0.005552267126168224,-0.003992526185465165
-0.005551927126168224,-0.003663390607919593
-0.005551587126168224,-0.003959612627710607
-0.005551247126168224,-0.003597563492414071
-0.005550907126168224,-0.005572376957683906
-0.005550567126168224,-0.006230648112775047
-0.005550227126168224,-0.008139634462543909
-0.005549887126168224,-0.0106410648518857
-0.005549547126168224,-0.005967339650738591
-0.005549207126168224,-0.004584970225057191
-0.005548867126168224,-0.01008153437005823
-0.005548527126168224,-0.01008153437005823
-0.005548187126168224,-0.008600424271104178
-0.005547847126168224,-0.009159954752930631
-0.005547507126168224,-0.01027901571658557
-0.005547167126168224,-0.009489090330473507
-0.005546827126168224,-0.008007980231521132
-0.005546487126168224,-0.00790923955825746
-0.005546147126168224,-0.008567510713347824
-0.005545807126168224,-0.008139634462539359
-0.005545467126168224,-0.007250968403166318
-0.005545127126168224,-0.007810498884994866
-0.005544787126168224,-0.008402942924575817
-0.005544447126168224,-0.008205461578048474
-0.005544107126168224,-0.009225781868440103
-0.005543767126168224,-0.009423263214967087
-0.005543427126168224,-0.007777585327239231
-0.005543087126168224,-0.008830819175386615
-0.005542747126168224,-0.009686571677003543
-0.005542407126168224,-0.00869916494436683
-0.005542067126168225,-0.009884053023528731
-0.005541727126168224,-0.009851139465776329
-0.005541387126168224,-0.00962074456149443
-0.005541047126168225,-0.0100157072545484
-0.005540707126168224,-0.009225781868439744
-0.005540367126168224,-0.008205461578048474
-0.005540027126168225,-0.00718514128765906
-0.005539687126168224,-0.00837002936682126
-0.005539347126168224,-0.005901512535229476
-0.005539007126168225,-0.004157093974241122
-0.005538667126168224,-0.004683710898310864
-0.005538327126168224,-0.003005119452828451
-0.005537987126168225,-0.006164820997260186
-0.005537647126168224,-0.01004862081230367
-0.005537307126168224,-0.008172548020293918
-0.005536967126168225,-0.007152227729904503
-0.005536627126168224,-0.009949880139040001
-0.005536287126168224,-0.008732078502121389
-0.005535947126168225,-0.007250968403169012
-0.005535607126168224,-0.008106720904784802
-0.005535267126168224,-0.008337115809066702
-0.005534927126168225,-0.007020573498886813
-0.005534587126168224,-0.006856005710111633
-0.005534247126168224,-0.008007980231521132
-0.005533907126168225,-0.006329388786041772
-0.005533567126168224,-0.008271288693557588
-0.005533227126168224,-0.007876326000502903
-0.005532887126168225,-0.007283881960920875
-0.005532547126168224,-0.008995386964157845
-0.005532207126168224,-0.009554917445985316
-0.005531867126168225,-0.009192868310685188
-0.005531527126168224,-0.01060815129413114
-0.005531187126168224,-0.01004862081230367
-0.005530847126168224,-0.00939034965721253
-0.005530507126168224,-0.007481363307448217
-0.005530167126168224,-0.008007980231521132
-0.005529827126168224,-0.008995386964157845
-0.005529487126168224,-0.009324522541710661
-0.005529147126168224,-0.01330706303000483
-0.005528807126168224,-0.005572376957683906
-0.005528467126168224,-0.004782451571574356
-0.005528127126168224,-0.004683710898310864
-0.005527787126168224,-0.005374895611156563
-0.005527447126168224,-0.007876326000501406
-0.005527107126168224,-0.007053487056638975
-0.005526767126168224,-0.005374895611156563
-0.005526427126168224,-0.002906378779569869
-0.005526087126168224,-0.005704031188702134
-0.005525747126168224,-0.006329388786038719
-0.005525407126168224,-0.006691437921340464
-0.005525067126168224,-0.007580103980711889
-0.005524727126168224,-0.009423263214967087
-0.005524387126168224,-0.007613017538465848
-0.005524047126168224,-0.007283881960920875
-0.005523707126168224,-0.01047649706311291
-0.005523367126168224,-0.01455777822469224
-0.005523027126168224,-0.02239120497026259
-0.005522687126168224,-0.03891381096305026
-0.005522347126168224,-0.06076841331212545
-0.005522007126168224,-0.08785627134407667
-0.005521667126168224,-0.1182025715937783
-0.005521327126168224,-0.1470348481868249
-0.005520987126168224,-0.1769861857434173
-0.005520647126168224,-0.203317031947063
-0.005520307126168225,-0.2252703749693127
-0.005519967126168224,-0.2405751793252217
-0.005519627126168224,-0.2536089481960263
-0.005519287126168225,-0.2581181056083924
-0.005518947126168224,-0.2602904004202014
-0.005518607126168224,-0.261211980037329
-0.005518267126168225,-0.2516341347307703
-0.005517927126168224,-0.245973002796969
-0.005517587126168224,-0.2376787862428206
-0.005517247126168225,-0.2343216033518619
-0.005516907126168224,-0.2290225205533721
-0.005516567126168224,-0.2219461056361423
-0.005516227126168225,-0.2121707789830567
-0.005515887126168224,-0.2028562421384992
-0.005515547126168224,-0.1950228153929146
-0.005515207126168225,-0.1868931666275538
-0.005514867126168224,-0.1800800601723457
-0.005514527126168224,-0.1692514996710964
-0.005514187126168225,-0.1632612321597779
-0.005513847126168224,-0.1576330137837378
-0.005513507126168224,-0.1522681038697449
-0.005513167126168225,-0.1476272922263608
-0.005512827126168224,-0.1427889992364325
-0.005512487126168224,-0.1386089774016037
-0.005512147126168225,-0.1345276962400387
-0.005511807126168224,-0.1298539710388915
-0.005511467126168224,-0.1243903204516351
-0.005511127126168225,-0.1218888900622887
-0.005510787126168224,-0.1190912376531514
-0.005510447126168224,-0.1156353140889229
-0.005510107126168225,-0.1129364023530492
-0.005509767126168224,-0.1097767008086117
-0.005509427126168224,-0.1048725807031827
-0.005509087126168224,-0.1020091011785362
-0.005508747126168224,-0.1002317690597855
-0.005508407126168224,-0.09766451155493469
-0.005508067126168224,-0.08867911028794059
-0.005507727126168224,-0.0837749901825056
-0.005507387126168224,-0.08048363440705589
-0.005507047126168224,-0.07752141420914574
-0.005506707126168224,-0.08160269537070454
-0.005506367126168224,-0.07814677180648233
-0.005506027126168224,-0.07488832958878117
-0.005505687126168224,-0.07515163805081092
-0.005505347126168224,-0.07146531958230723
-0.005505007126168224,-0.06810813669134241
-0.005504667126168224,-0.06475095380037353
-0.005504327126168224,-0.06251283187306769
-0.005503987126168224,-0.05862903205802996
-0.005503647126168224,-0.05721374907458401
-0.005503307126168224,-0.05721374907458401
-0.005502967126168224,-0.05556807118685615
-0.005502627126168224,-0.05514019493604302
-0.005502287126168224,-0.0530008136820007
-0.005501947126168224,-0.05086143242795448
-0.005501607126168224,-0.05017024771510693
-0.005501267126168224,-0.04914992742471751
-0.005500927126168224,-0.0470105461706713
-0.005500587126168224,-0.04582565809150784
-0.005500247126168224,-0.04615479366905282
-0.005499907126168224,-0.043093832797879
-0.005499567126168225,-0.04256721587380705
-0.005499227126168224,-0.04059240240853267
-0.005498887126168224,-0.03776183644164076
-0.005498547126168225,-0.0360503314384069
-0.005498207126168224,-0.03687317038226771
-0.005497867126168224,-0.03763018221062252
-0.005497527126168225,-0.02992840969607017
-0.005497187126168224,-0.02933596565647414
-0.005496847126168224,-0.02903974363668312
-0.005496507126168225,-0.03012589104258153
-0.005496167126168224,-0.03351598749130289
-0.005495827126168224,-0.03025754527360174
-0.005495487126168225,-0.02601169632327159
-0.005495147126168224,-0.02824981825057375
-0.005494807126168224,-0.02699910305590058
-0.005494467126168225,-0.02518885737940323
-0.005494127126168224,-0.02574838786122741
-0.005493787126168224,-0.0282169046928192
-0.005493447126168225,-0.02627500478530386
-0.005493107126168224,-0.02571547430347286
-0.005492767126168224,-0.02571547430347286
-0.005492427126168225,-0.02331278458739456
-0.005492087126168224,-0.02295073545209006
-0.005491747126168224,-0.02018599660070726
-0.005491407126168225,-0.02031765083172525
-0.005491067126168224,-0.01847449159747029
-0.005490727126168224,-0.01942898477235245
-0.005490387126168225,-0.01844157803971573
-0.005490047126168224,-0.0190011085215432
-0.005489707126168224,-0.02091009487130752
-0.005489367126168225,-0.02077844064028929
-0.005489027126168224,-0.02110757621783486
-0.005488687126168224,-0.02133797112211676
-0.005488347126168224,-0.0199226881386708
-0.005488007126168224,-0.0202518237162229
-0.005487667126168224,-0.0238394015114631
-0.005487327126168224,-0.02397105574248133
-0.005486987126168224,-0.01623636967016238
-0.005486647126168224,-0.01732251707606079
-0.005486307126168224,-0.01511730870650547
-0.005485967126168224,-0.01673007303648038
-0.005485627126168224,-0.01761873909585181
-0.005485287126168224,-0.01663133236321509
-0.005484947126168224,-0.01495274091773502
-0.005484607126168224,-0.01623636967016041
-0.005484267126168224,-0.01827701025094295
-0.005483927126168224,-0.01712503572953333
-0.005483587126168224,-0.01705920861402434
-0.005483247126168224,-0.01784913400013371
-0.005482907126168224,-0.01100311398719176
-0.005482567126168224,-0.01426155620488698
-0.005482227126168224,-0.01482108668671445
-0.005481887126168224,-0.01304375456796556
-0.005481547126168224,-0.01149681735350419
-0.005481207126168224,-0.01116768177595861
-0.005480867126168224,-0.01054232417862083
-0.005480527126168224,-0.009884053023530886
-0.005480187126168224,-0.01116768177595861
-0.005479847126168224,-0.01057523773637521
-0.005479507126168224,-0.009818225908021772
-0.005479167126168224,-0.0108714597561676
-0.005478827126168225,-0.01189178004655701
-0.005478487126168224,-0.0120234342775771
-0.005478147126168224,-0.01231965629736811
-0.005477807126168225,-0.01264879187491308
-0.005477467126168224,-0.0134058037032685
-0.005477127126168224,-0.01778330688462459
-0.005476787126168225,-0.009258695426209808
-0.005476447126168224,-0.007382622634184546
-0.005476107126168224,-0.006625610805829733
-0.005475767126168225,-0.006625610805829733
-0.005475427126168224,-0.009225781868439744
-0.005475087126168224,-0.01097020042943127
-0.005474747126168225,-0.01274753254817412
-0.005474407126168224,-0.012253829181859
-0.005474067126168224,-0.01100311398718583
-0.005473727126168225,-0.01100311398718583
-0.005473387126168224,-0.009851139465776329
-0.005473047126168224,-0.00939034965721253
-0.005472707126168225,-0.009785312350266497
-0.005472367126168224,-0.00860042427110316
-0.005472027126168224,-0.009653658119248986
-0.005471687126168225,-0.01097020042942888
-0.005471347126168224,-0.01031192927434013
-0.005471007126168224,-0.009851139465776329
-0.005470667126168225,-0.0102461021588303
-0.005470327126168224,-0.01044358350535836
-0.005469987126168224,-0.009752398792512659
-0.005469647126168225,-0.0104106699476038
-0.005469307126168224,-0.009127041195176074
-0.005468967126168224,-0.009949880139040001
-0.005468627126168225,-0.01024610215883101
-0.005468287126168224,-0.01103602754494038
-0.005467947126168224,-0.009159954752930631
-0.005467607126168225,-0.009982793696794558
-0.005467267126168224,-0.01004862081230367
-0.005466927126168224,-0.01047649706311291
-0.005466587126168224,-0.01521604937976914
-0.005466247126168224,-0.009522003888229861
-0.005465907126168224,-0.009028300521912402
-0.005465567126168224,-0.008666251386612273
-0.005465227126168224,-0.01156264446901827
-0.005464887126168224,-0.01429446976264154
-0.005464547126168224,-0.01212217495084077
-0.005464207126168224,-0.0116284715845181
-0.005463867126168224,-0.009258695426194301
-0.005463527126168224,-0.009258695426194301
-0.005463187126168224,-0.00813963446253912
-0.005462847126168224,-0.008007980231521132
-0.005462507126168224,-0.007185141287657204
-0.005462167126168224,-0.007580103980710511
-0.005461827126168224,-0.006823092152357076
-0.005461487126168224,-0.005934426092984033
-0.005461147126168224,-0.00820546157805045
-0.005460807126168224,-0.009291608983948858
-0.005460467126168224,-0.008633337828857716
-0.005460127126168224,-0.008732078502122646
-0.005459787126168224,-0.009423263214967087
-0.005459447126168224,-0.008567510713348603
-0.005459107126168224,-0.008073807347030006
-0.005458767126168224,-0.007942153116012016
-0.005458427126168224,-0.006691437921338847
-0.005458087126168224,-0.007942153116013572
-0.005457747126168224,-0.008797905617630502
-0.005457407126168224,-0.006526870132566062
-0.005457067126168225,-0.00715222772990151
-0.005456727126168224,-0.008995386964157845
-0.005456387126168224,-0.01103602754494038
-0.005456047126168225,-0.01116768177595837
-0.005455707126168224,-0.007053487056638975
-0.005455367126168224,-0.00711931417214809
-0.005455027126168225,-0.005243241380141747
-0.005454687126168224,-0.009423263214967087
-0.005454347126168224,-0.01120059533371317
-0.005454007126168225,-0.007547190422963977
-0.005453667126168224,-0.009192868310685188
-0.005453327126168224,-0.009686571677003543
-0.005452987126168225,-0.00925869542619508
-0.005452647126168224,-0.008073807347030245
-0.005452307126168224,-0.009192868310685188
-0.005451967126168225,-0.008764992059876724
-0.005451627126168224,-0.01031192927434013
-0.005451287126168224,-0.009982793696794558
-0.005450947126168225,-0.008435856482333188
-0.005450607126168224,-0.008962473406403288
-0.005450267126168224,-0.00869916494436683
-0.005449927126168225,-0.007711758211731914
-0.005449587126168224,-0.006823092152357076
-0.005449247126168224,-0.008172548020293918
-0.005448907126168225,-0.008304202251311905
-0.005448567126168224,-0.007218054845411761
-0.005448227126168224,-0.00711931417214809
-0.005447887126168225,-0.00438748887851985
-0.005447547126168224,-0.005671117630947577
-0.005447207126168224,-0.006856005710111633
-0.005446867126168225,-0.006559783690320619
-0.005446527126168224,-0.006592697248075176
-0.005446187126168224,-0.009818225908021772
-0.005445847126168224,-0.01485400024446901
-0.005445507126168224,-0.008995386964152875
-0.005445167126168224,-0.006263561670529605
-0.005444827126168224,-0.006625610805829733
-0.005444487126168224,-0.00419000753200047
-0.005444147126168224,-0.008567510713348603
-0.005443807126168224,-0.009686571677003543
-0.005443467126168224,-0.005440722726671424
-0.005443127126168224,-0.00860042427110316
-0.005442787126168224,-0.009686571677003543
-0.005442447126168224,-0.008764992059876185
-0.005442107126168224,-0.008896646290894173
-0.005441767126168224,-0.01123350889146773
-0.005441427126168224,-0.01136516312248368
-0.005441087126168224,-0.01011444792781279
-0.005440747126168224,-0.01393242062734141
-0.005440407126168224,-0.01162847158452367
-0.005440067126168224,-0.01231965629736811
-0.005439727126168224,-0.008271288693557588
-0.005439387126168224,-0.009719485234754749
-0.005439047126168224,-0.007876326000502903
-0.005438707126168224,-0.006987659941129861
-0.005438367126168224,-0.006033166766245968
-0.005438027126168224,-0.005078673591365549
-0.005437687126168224,-0.006724351479093405
-0.005437347126168224,-0.005835685419719704
-0.005437007126168224,-0.005473636284420234
-0.005436667126168224,-0.008337115809066702
-0.005436327126168225,-0.009324522541701621
-0.005435987126168224,-0.00837002936682126
-0.005435647126168224,-0.01162847158452241
-0.005435307126168225,-0.01452486466691817
-0.005434967126168224,-0.008205461578048474
-0.005434627126168224,-0.008172548020293918
-0.005434287126168225,-0.008534597155593387
-0.005433947126168224,-0.009225781868439744
-0.005433607126168224,-0.01301084101021381
-0.005433267126168225,-0.01169429870003392
-0.005432927126168224,-0.009949880139040001
-0.005432587126168224,-0.009818225908021772
-0.005432247126168225,-0.01041066994760272
-0.005431907126168224,-0.008732078502121389
-0.005431567126168224,-0.008040893789275689
-0.005431227126168225,-0.009357436099455579
-0.005430887126168224,-0.008304202251312145
-0.005430547126168224,-0.006625610805829733
-0.005430207126168225,-0.009258695426189512
-0.005429867126168224,-0.00962074456149443
-0.005429527126168224,-0.008896646290894173
-0.005429187126168225,-0.006362302343797886
-0.005428847126168224,-0.006559783690320619
-0.005428507126168224,-0.005934426092984033
-0.005428167126168225,-0.007020573498882443
-0.005427827126168224,-0.006921832825620747
-0.005427487126168224,-0.005572376957683906
-0.005427147126168225,-0.008666251386612273
-0.005426807126168224,-0.009719485234758102
-0.005426467126168224,-0.007053487056638975
-0.005426127126168225,-0.006691437921338847
-0.005425787126168224,-0.007152227729902647
-0.005425447126168224,-0.006263561670529605
-0.005425107126168224,-0.01001570725454911
-0.005424767126168224,-0.009554917445985316
-0.005424427126168224,-0.0009315653142913533
-0.005424087126168224,-0.003893785512201493
-0.005423747126168224,-0.01004862081229541
-0.005423407126168224,-0.005506549842174791
-0.005423067126168224,-0.004716624456065421
-0.005422727126168224,-0.007580103980712906
-0.005422387126168224,-0.008139634462539359
-0.005422047126168224,-0.008435856482330374
-0.005421707126168224,-0.008797905617632776
-0.005421367126168224,-0.01004862081230367
-0.005421027126168224,-0.01011444792781279
-0.005420687126168224,-0.01176012581553873
-0.005420347126168224,-0.01070689196739481
-0.005420007126168224,-0.009291608983948858
-0.005419667126168224,-0.008896646290893873
-0.005419327126168224,-0.008732078502121389
-0.005418987126168224,-0.00711931417214809
-0.005418647126168224,-0.006230648112776065
-0.005418307126168224,-0.006790178594602518
-0.005417967126168224,-0.006000253208493148
-0.005417627126168224,-0.008732078502121328
-0.005417287126168224,-0.00869916494436683
