Analysis/files/cmb03_wrd01/d2s07_ch47.csv

#Digilent WaveForms Oscilloscope Acquisition
#Device Name: ADP3450
#Serial Number: SN:210018B9D9B0
#Date Time: 2024-08-13 16:40:22.194.086.920
#Sample rate: 2.94118e+06Hz
#Samples: 32768
#Trigger: Source: Channel 3 Type: Edge Condition: Rising Level: 60 mV Hyst.: Auto HoldOff: 0 s
#Channel 3: Range: 200 mV/div Offset: 0 V Attenuation: 1 X Coupling: DC Bandwidth: 0 Hz Sample Mode: Average

Time (s),Channel 3 (V)
-0.005570330424107144,-0.005144500706874663
-0.005569990424107143,-0.007152227729898635
-0.005569650424107143,-0.00494701936034732
-0.005569310424107144,-0.004420402436274407
-0.005568970424107143,-0.006296475228286018
-0.005568630424107143,-0.007316795518675433
-0.005568290424107144,-0.005111587149120106
-0.005567950424107143,-0.003795044838937702
-0.005567610424107143,-0.003729217723428708
-0.005567270424107144,-0.003169687241601236
-0.005566930424107143,-0.007382622634185623
-0.005566590424107143,-0.007975066673766575
-0.005566250424107144,-0.00860042427110316
-0.005565910424107143,-0.0109372868716812
-0.005565570424107143,-0.0134058037032685
-0.005565230424107144,-0.0127146189904228
-0.005564890424107143,-0.01228674273961356
-0.005564550424107143,-0.01228674273961356
-0.005564210424107143,-0.01136516312248596
-0.005563870424107143,-0.01100311398718505
-0.005563530424107143,-0.01057523773637659
-0.005563190424107143,-0.00939034965721253
-0.005562850424107144,-0.008402942924577612
-0.005562510424107143,-0.009818225908021772
-0.005562170424107143,-0.009258695426194301
-0.005561830424107144,-0.008534597155595363
-0.005561490424107143,-0.009785312350267215
-0.005561150424107143,-0.0127146189904228
-0.005560810424107144,-0.0138665935118302
-0.005560470424107143,-0.0111018546604495
-0.005560130424107143,-0.01307666812572293
-0.005559790424107144,-0.01037775638985415
-0.005559450424107143,-0.01422864264713243
-0.005559110424107143,-0.01732251707606079
-0.005558770424107144,-0.01258296475941319
-0.005558430424107143,-0.009456176772721644
-0.005558090424107143,-0.01192469360431343
-0.005557750424107144,-0.009324522541708145
-0.005557410424107143,-0.008830819175385059
-0.005557070424107143,-0.0111018546604495
-0.005556730424107144,-0.01136516312248548
-0.005556390424107143,-0.01412990197386875
-0.005556050424107143,-0.01478817312895989
-0.005555710424107144,-0.01567683918833132
-0.005555370424107143,-0.01617054255465129
-0.005555030424107143,-0.01794787467339738
-0.005554690424107144,-0.01738834419157092
-0.005554350424107143,-0.01649967813219686
-0.005554010424107143,-0.01620345611240585
-0.005553670424107144,-0.01623636967016041
-0.005553330424107143,-0.01570975274608749
-0.005552990424107143,-0.01547935784180559
-0.005552650424107144,-0.01580849341935116
-0.005552310424107143,-0.01508439514875091
-0.005551970424107143,-0.01515022226426002
-0.005551630424107144,-0.01557809851506927
-0.005551290424107143,-0.01406407485836227
-0.005550950424107143,-0.01551227139956015
-0.005550610424107144,-0.01985686102316169
-0.005550270424107143,-0.01436029687814461
-0.005549930424107143,-0.01103602754494038
-0.005549590424107144,-0.01528187649527825
-0.005549250424107143,-0.009719485234759179
-0.005548910424107143,-0.01031192927434013
-0.005548570424107144,-0.01597306120812395
-0.005548230424107143,-0.01327414947224722
-0.005547890424107143,-0.01159555802676786
-0.005547550424107144,-0.01488691380222357
-0.005547210424107143,-0.01630219678566725
-0.005546870424107143,-0.01505148159099635
-0.005546530424107144,-0.01870488650175219
-0.005546190424107143,-0.01847449159746921
-0.005545850424107143,-0.01788204755788826
-0.005545510424107144,-0.01804661534666105
-0.005545170424107143,-0.01821118313543222
-0.005544830424107143,-0.01732251707606079
-0.005544490424107144,-0.0192315034258251
-0.005544150424107143,-0.01837575092420399
-0.005543810424107143,-0.01692755438300611
-0.005543470424107143,-0.01784913400013371
-0.005543130424107143,-0.01824409669318827
-0.005542790424107143,-0.01817826957767928
-0.005542450424107143,-0.01860614582848852
-0.005542110424107144,-0.02035056438947687
-0.005541770424107143,-0.021765847372926
-0.005541430424107143,-0.0199226881386708
-0.005541090424107144,-0.02216081006597662
-0.005540750424107143,-0.02110757621783486
-0.005540410424107143,-0.0210746626600803
-0.005540070424107144,-0.02578130141897341
-0.005539730424107143,-0.02100883554457119
-0.005539390424107143,-0.01307666812572293
-0.005539050424107144,-0.018112442462161
-0.005538710424107143,-0.01261587831715913
-0.005538370424107143,-0.003169687241601236
-0.005538030424107144,-0.01890236784825092
-0.005537690424107143,-0.01646676457444231
-0.005537350424107143,-0.01472234601345078
-0.005537010424107144,-0.01577557986159469
-0.005536670424107143,-0.01735543063381535
-0.005536330424107143,-0.01544644428405104
-0.005535990424107144,-0.01745417130707537
-0.005535650424107143,-0.01926441698357966
-0.005535310424107143,-0.01949481188786156
-0.005534970424107144,-0.02110757621783193
-0.005534630424107143,-0.02262159987454449
-0.005534290424107143,-0.02170002025741689
-0.005533950424107144,-0.02051513217825499
-0.005533610424107143,-0.01972520679214346
-0.005533270424107143,-0.01738834419156991
-0.005532930424107144,-0.01640093745893319
-0.005532590424107143,-0.01732251707606079
-0.005532250424107143,-0.01696046794076066
-0.005531910424107144,-0.01791496111564282
-0.005531570424107143,-0.02028473727397093
-0.005531230424107143,-0.0190011085215432
-0.005530890424107144,-0.01696046794076066
-0.005530550424107143,-0.01880362717501586
-0.005530210424107143,-0.01751999842258814
-0.005529870424107144,-0.01663133236321509
-0.005529530424107143,-0.01919858986806713
-0.005529190424107143,-0.01732251707606079
-0.005528850424107144,-0.01159555802676786
-0.005528510424107143,-0.0187378000595034
-0.005528170424107143,-0.01689464082525155
-0.005527830424107144,-0.01590723409261484
-0.005527490424107143,-0.02248994564352883
-0.005527150424107143,-0.02390522862697221
-0.005526810424107144,-0.02031765083172549
-0.005526470424107143,-0.02097592198681789
-0.005526130424107143,-0.02166710669966233
-0.005525790424107144,-0.02035056438948005
-0.005525450424107143,-0.02005434236968778
-0.005525110424107143,-0.01936315765684333
-0.005524770424107144,-0.01640093745893319
-0.005524430424107143,-0.01659841880546449
-0.005524090424107143,-0.01877071361726131
-0.005523750424107144,-0.02058095929376194
-0.005523410424107143,-0.02538633872594932
-0.005523070424107143,-0.0374985279796043
-0.005522730424107144,-0.05471231868523767
-0.005522390424107143,-0.07860756161509916
-0.005522050424107143,-0.1077689737855837
-0.005521710424107143,-0.1378848791310035
-0.005521370424107143,-0.1695477216909451
-0.005521030424107143,-0.2012434778085259
-0.005520690424107143,-0.2268502257415713
-0.005520350424107144,-0.2470920637605871
-0.005520010424107143,-0.2642071137929937
-0.005519670424107143,-0.2755952047760704
-0.005519330424107144,-0.2819475214226884
-0.005518990424107143,-0.288036529607293
-0.005518650424107143,-0.288036529607293
-0.005518310424107144,-0.2751015014097756
-0.005517970424107143,-0.2749369336209793
-0.005517630424107143,-0.2664781492780581
-0.005517290424107144,-0.2541684786778761
-0.005516950424107143,-0.251996183866053
-0.005516610424107143,-0.2468616688563421
-0.005516270424107144,-0.2345190846984056
-0.005515930424107143,-0.2267185715105531
-0.005515590424107143,-0.2209916124612602
-0.005515250424107144,-0.2124340874450909
-0.005514910424107143,-0.2059830301251821
-0.005514570424107143,-0.1991370101122343
-0.005514230424107144,-0.1921593358682809
-0.005513890424107143,-0.1837663786408561
-0.005513550424107143,-0.1785989500733906
-0.005513210424107144,-0.1724441147732996
-0.005512870424107143,-0.1642157253346492
-0.005512530424107143,-0.1604306661928751
-0.005512190424107144,-0.1542100037772638
-0.005511850424107143,-0.1487792667477619
-0.005511510424107143,-0.1426244314476597
-0.005511170424107144,-0.1366341639363303
-0.005510830424107143,-0.1321908336394651
-0.005510490424107143,-0.1297223168078733
-0.005510150424107144,-0.1264967881479267
-0.005509810424107143,-0.1216914087157614
-0.005509470424107143,-0.1191570647686605
-0.005509130424107144,-0.1178734360162328
-0.005508790424107143,-0.1136605006236474
-0.005508450424107143,-0.1125414396599945
-0.005508110424107144,-0.1132984514883493
-0.005507770424107143,-0.102107841851797
-0.005507430424107143,-0.1005279910795812
-0.005507090424107144,-0.09947475723143534
-0.005506750424107143,-0.09048935596444202
-0.005506410424107143,-0.09091723221525047
-0.005506070424107144,-0.09252999654522379
-0.005505730424107143,-0.08542066807023167
-0.005505390424107143,-0.08114190556214704
-0.005505050424107144,-0.08130647335091981
-0.005504710424107143,-0.07808094469096956
-0.005504370424107143,-0.07607321766794523
-0.005504030424107144,-0.07376926862512623
-0.005503690424107143,-0.07172862804433734
-0.005503350424107143,-0.06823979092236063
-0.005503010424107144,-0.0659029283217871
-0.005502670424107143,-0.06307236235489037
-0.005502330424107143,-0.0604392777345306
-0.005501990424107144,-0.05764162532539325
-0.005501650424107143,-0.05517310849379829
-0.005501310424107143,-0.05342868993280994
-0.005500970424107143,-0.0525400238734369
-0.005500630424107143,-0.05175009848732513
-0.005500290424107143,-0.05043355617714524
-0.005499950424107143,-0.05125639512100917
-0.005499610424107144,-0.05240836964241657
-0.005499270424107143,-0.05020316127286335
-0.005498930424107143,-0.04924866809798119
-0.005498590424107144,-0.04974237146429865
-0.005498250424107143,-0.04730676819046232
-0.005497910424107143,-0.04622062078456193
-0.005497570424107144,-0.04947906300225716
-0.005497230424107143,-0.04072405663955089
-0.005496890424107143,-0.04213933962299685
-0.005496550424107144,-0.04306091924012277
-0.005496210424107143,-0.03805805846143177
-0.005495870424107143,-0.03983539058017786
-0.005495530424107144,-0.04345588193317255
-0.005495190424107143,-0.04059240240853267
-0.005494850424107143,-0.03832136692346823
-0.005494510424107144,-0.04016452615772007
-0.005494170424107143,-0.03914420586733215
-0.005493830424107143,-0.03624781278493113
-0.005493490424107144,-0.02788776911528883
-0.005493150424107143,-0.03710356528654962
-0.005492810424107143,-0.03391095018435757
-0.005492470424107144,-0.0324298400854052
-0.005492130424107143,-0.03236401296989339
-0.005491790424107143,-0.03094872998644744
-0.005491450424107144,-0.03140951979501039
-0.005491110424107143,-0.03187030960357504
-0.005490770424107143,-0.03147534691052035
-0.005490430424107144,-0.03150826046827491
-0.005490090424107143,-0.03229818585438428
-0.005489750424107143,-0.03104747065971111
-0.005489410424107144,-0.02871060805913755
-0.005489070424107143,-0.02913848430994679
-0.005488730424107143,-0.0268345352671278
-0.005488390424107144,-0.02663705392060045
-0.005488050424107143,-0.02690036238263631
-0.005487710424107143,-0.02657122680509134
-0.005487370424107144,-0.02824981825057375
-0.005487030424107143,-0.03345016037579437
-0.005486690424107143,-0.03377929595333935
-0.005486350424107144,-0.02420145064676323
-0.005486010424107143,-0.02788776911526871
-0.005485670424107143,-0.02518885737939994
-0.005485330424107144,-0.02295073545209006
-0.005484990424107143,-0.02851312671260674
-0.005484650424107143,-0.0266041403628459
-0.005484310424107144,-0.02209498295047157
-0.005483970424107143,-0.02374066083820272
-0.005483630424107143,-0.02555090651470007
-0.005483290424107144,-0.02183167448843512
-0.005482950424107143,-0.01827701025094499
-0.005482610424107143,-0.01939607121459789
-0.005482270424107144,-0.01933024409908878
-0.005481930424107143,-0.0188365407327697
-0.005481590424107143,-0.01844157803971573
-0.005481250424107144,-0.01742125774932446
-0.005480910424107143,-0.0207784406402915
-0.005480570424107143,-0.0219962422772079
-0.005480230424107143,-0.02094300842906207
-0.005479890424107143,-0.01916567631031952
-0.005479550424107143,-0.02110757621783486
-0.005479210424107143,-0.02216081006598069
-0.005478870424107144,-0.02133797112211825
-0.005478530424107143,-0.02008725592744359
-0.005478190424107143,-0.02035056438948005
-0.005477850424107144,-0.02114048977558798
-0.005477510424107143,-0.02196332871945334
-0.005477170424107143,-0.02212789650822613
-0.005476830424107144,-0.0213050575643637
-0.005476490424107143,-0.02574838786122741
-0.005476150424107143,-0.0272953250756916
-0.005475810424107144,-0.01640093745895301
-0.005475470424107143,-0.0199226881386708
-0.005475130424107143,-0.01613762899689674
-0.005474790424107144,-0.013043754567974
-0.005474450424107143,-0.01817826957767928
-0.005474110424107143,-0.01784913400013371
-0.005473770424107144,-0.01330706303001309
-0.005473430424107143,-0.0140969884161142
-0.005473090424107143,-0.01771747976911548
-0.005472750424107144,-0.01755291198034299
-0.005472410424107143,-0.01745417130707902
-0.005472070424107143,-0.01913276275256143
-0.005471730424107144,-0.02140379823762174
-0.005471390424107143,-0.02239120497026259
-0.005471050424107143,-0.0226874269900536
-0.005470710424107144,-0.02235829141250863
-0.005470370424107143,-0.02229246429699892
-0.005470030424107143,-0.0219962422772079
-0.005469690424107144,-0.02012016948519815
-0.005469350424107143,-0.01794787467339738
-0.005469010424107143,-0.01775039332687003
-0.005468670424107144,-0.01755291198034269
-0.005468330424107143,-0.01673007303647877
-0.005467990424107143,-0.01722377640279712
-0.005467650424107144,-0.01824409669318839
-0.005467310424107143,-0.01781622044237915
-0.005466970424107143,-0.01837575092420662
-0.005466630424107144,-0.01896819496378865
-0.005466290424107143,-0.01735543063382032
-0.005465950424107143,-0.02008725592744359
-0.005465610424107144,-0.02206206939271702
-0.005465270424107143,-0.01357037149204775
-0.005464930424107143,-0.01712503572953345
-0.005464590424107144,-0.01663133236321509
-0.005464250424107143,-0.01406407485836688
-0.005463910424107143,-0.01804661534666105
-0.005463570424107144,-0.02081135419804385
-0.005463230424107143,-0.01732251707606265
-0.005462890424107143,-0.01834283736645206
-0.005462550424107144,-0.02097592198681663
-0.005462210424107143,-0.019659379676631
-0.005461870424107143,-0.01781622044237915
-0.005461530424107144,-0.01775039332687003
-0.005461190424107143,-0.01847449159746718
-0.005460850424107143,-0.01676298659423332
-0.005460510424107144,-0.01705920861402434
-0.005460170424107143,-0.01659841880546066
-0.005459830424107143,-0.01666424592096965
-0.005459490424107144,-0.01679590015198788
-0.005459150424107143,-0.01834283736644955
-0.005458810424107143,-0.01696046794076066
-0.005458470424107143,-0.01745417130707902
-0.005458130424107143,-0.01854031871297671
-0.005457790424107143,-0.01705920861402434
-0.005457450424107143,-0.01715794928728801
-0.005457110424107144,-0.0172566899605515
-0.005456770424107143,-0.01663133236321509
-0.005456430424107143,-0.01640093745893319
-0.005456090424107144,-0.01761873909584959
-0.005455750424107143,-0.01646676457444231
-0.005455410424107143,-0.01880362717501586
-0.005455070424107144,-0.02304947612534601
-0.005454730424107143,-0.01357037149204128
-0.005454390424107143,-0.01709212217177889
-0.005454050424107144,-0.01844157803971328
-0.005453710424107143,-0.01561101207282382
-0.005453370424107143,-0.0201530830429527
-0.005453030424107144,-0.02354317949166592
-0.005452690424107143,-0.02104174910232575
-0.005452350424107143,-0.02334569814514474
-0.005452010424107144,-0.02189750160394686
-0.005451670424107143,-0.02054804573600739
-0.005451330424107143,-0.01771747976911548
-0.005450990424107144,-0.01735543063381601
-0.005450650424107143,-0.01758582553809725
-0.005450310424107143,-0.01580849341935116
-0.005449970424107144,-0.01686172726749508
-0.005449630424107143,-0.01765165265360636
-0.005449290424107143,-0.01821118313543383
-0.005448950424107144,-0.01317540879899576
-0.005448610424107143,-0.01748708486483358
-0.005448270424107143,-0.02120631689109853
-0.005447930424107144,-0.01962646611887979
-0.005447590424107143,-0.02160127958415322
-0.005447250424107143,-0.02094300842906207
-0.005446910424107144,-0.02143671179538043
-0.005446570424107143,-0.02104174910232575
-0.005446230424107143,-0.02031765083172549
-0.005445890424107144,-0.01998851525417992
-0.005445550424107143,-0.01965937967663578
-0.005445210424107143,-0.02044930506274372
-0.005444870424107144,-0.01794787467339738
-0.005444530424107143,-0.02295073545207743
-0.005444190424107143,-0.01600597476587851
-0.005443850424107144,-0.01360328504979584
-0.005443510424107143,-0.01952772544561756
-0.005443170424107143,-0.02031765083172549
-0.005442830424107144,-0.01600597476587851
-0.005442490424107143,-0.01673007303648206
-0.005442150424107143,-0.0185403187129794
-0.005441810424107144,-0.01620345611240585
-0.005441470424107143,-0.01383367995408151
-0.005441130424107143,-0.01590723409261484
-0.005440790424107144,-0.01676298659423332
-0.005440450424107143,-0.0176187390958533
-0.005440110424107143,-0.01844157803971573
-0.005439770424107144,-0.01663133236321509
-0.005439430424107143,-0.01745417130708309
-0.005439090424107143,-0.0196922932343889
-0.005438750424107144,-0.01926441698357966
-0.005438410424107143,-0.01742125774932638
-0.005438070424107143,-0.01847449159747029
-0.005437730424107143,-0.01863905938624308
-0.005437390424107143,-0.0190340220793004
-0.005437050424107143,-0.02048221862049827
-0.005436710424107143,-0.02031765083172549
-0.005436370424107144,-0.02058095929376147
-0.005436030424107143,-0.02413562353125412
-0.005435690424107143,-0.0190011085215432
-0.005435350424107144,-0.01610471543914745
-0.005435010424107143,-0.01488691380222357
-0.005434670424107143,-0.01554518495731471
-0.005434330424107144,-0.018013701788902
-0.005433990424107143,-0.01896819496378865
-0.005433650424107143,-0.01745417130707902
-0.005433310424107144,-0.01817826957767796
-0.005432970424107143,-0.02012016948519815
-0.005432630424107143,-0.0192315034258251
-0.005432290424107144,-0.01735543063381876
-0.005431950424107143,-0.01883654073277042
-0.005431610424107143,-0.02018599660070726
-0.005431270424107144,-0.01916567631031785
-0.005430930424107143,-0.01811244246217016
-0.005430590424107143,-0.01975812034989802
-0.005430250424107144,-0.02012016948519749
-0.005429910424107143,-0.01952772544561612
-0.005429570424107143,-0.01985686102316169
-0.005429230424107144,-0.01847449159747281
-0.005428890424107143,-0.01742125774932446
-0.005428550424107143,-0.01761873909585181
-0.005428210424107144,-0.01738834419157033
-0.005427870424107143,-0.01557809851506927
-0.005427530424107143,-0.01567683918833294
-0.005427190424107144,-0.01738834419156991
-0.005426850424107143,-0.01742125774932446
-0.005426510424107143,-0.01877071361726131
-0.005426170424107144,-0.01781622044237915
-0.005425830424107143,-0.01939607121459789
-0.005425490424107143,-0.02374066083819943
-0.005425150424107144,-0.01765165265360636
-0.005424810424107143,-0.01725668996055168
-0.005424470424107143,-0.01877071361726131
-0.005424130424107144,-0.01692755438300611
-0.005423790424107143,-0.01926441698358295
-0.005423450424107143,-0.0210746626600803
-0.005423110424107144,-0.01886945429052498
-0.005422770424107143,-0.01728960351830989
-0.005422430424107143,-0.01929733054133422
-0.005422090424107144,-0.0201530830429527
-0.005421750424107143,-0.01867197294399638
-0.005421410424107143,-0.01798078823115194
-0.005421070424107144,-0.02054804573600739
-0.005420730424107143,-0.01896819496378763
-0.005420390424107143,-0.01840866448196118
-0.005420050424107144,-0.0199226881386708
-0.005419710424107143,-0.01801370178890709
-0.005419370424107143,-0.01834283736645206
-0.005419030424107144,-0.01804661534666105
-0.005418690424107143,-0.01840866448196064
-0.005418350424107143,-0.01811244246217016
-0.005418010424107144,-0.0185403187129794
-0.005417670424107143,-0.02018599660070529
-0.005417330424107143,-0.01909984919480688
-0.005416990424107144,-0.02067969996702562
-0.005416650424107143,-0.01827701025094283
-0.005416310424107143,-0.01821118313543383
-0.005415970424107143,-0.01817826957767928
-0.005415630424107143,-0.01903402207929747
-0.005415290424107143,-0.01886945429052498
