Analysis/files/cmb03_wrd01/d2s06_ch03.csv

#Digilent WaveForms Oscilloscope Acquisition
#Device Name: ADP3450
#Serial Number: SN:210018B9D9B0
#Date Time: 2024-08-13 15:29:39.660.801.290
#Sample rate: 2.94118e+06Hz
#Samples: 32768
#Trigger: Source: Channel 3 Type: Edge Condition: Rising Level: 60 mV Hyst.: Auto HoldOff: 0 s
#Channel 3: Range: 200 mV/div Offset: 0 V Attenuation: 1 X Coupling: DC Bandwidth: 0 Hz Sample Mode: Average

Time (s),Channel 3 (V)
-0.005570475,0.004334603926437783
-0.005570134999999999,0.002590185365456974
-0.005569795,0.008481712203511979
-0.005569455,0.0009445074777184018
-0.005569114999999999,-0.0008657381987806826
-0.005568775,-9.985697163754359e-06
-0.005568435,0.001833173537091444
-0.005568094999999999,0.0007799396889451372
-0.005567755,0.0005166312269091594
-0.005567415,0.001504037959545873
-0.005567074999999999,0.0009774210354743956
-0.005566735,0.00176734642158233
-0.005566395,0.002425617576673472
-0.005566054999999999,0.002162309114634141
-0.005565715,0.0005824583424182735
-0.005565375,0.0002862363226272596
-0.005565034999999999,-0.0001745534859389945
-0.005564695,-0.001524009353873381
-0.005564355,-0.001918972046928067
-0.005564014999999999,-0.002577243202022142
-0.005563675,-0.004190007531992507
-0.005563335,-0.004552056667292635
-0.005562995,-0.008929559848640769
-0.005562655,-0.006493956574811504
-0.005562315,-0.0001745534859365399
-0.005561975,0.001635692190560808
-0.005561635,0.0001216685338544741
-0.005561295,-0.005210327822383777
-0.005560955,-0.004881192244838805
-0.005560615,-0.00267598387528288
-0.005560275,-0.005769858304211248
-0.005559935,-0.007316795518672619
-0.005559595,-0.007086400614393532
-0.005559255,-0.006921832825620747
-0.005558915,-0.005506549842177366
-0.005558575,-0.00711931417214809
-0.005558235,-0.008106720904784802
-0.005557895,-0.005078673591371057
-0.005557555,-0.004255834647501621
-0.005557215,-0.005638204073193019
-0.005556875,-0.00527615493789355
-0.005556535,-0.004190007531992507
-0.005556195,-0.003103860126092122
-0.005555855,-0.002939292337319636
-0.005555515,-0.00369630416567415
-0.005555175,-0.005835685419720362
-0.005554835,-0.004881192244839943
-0.005554495,-0.004552056667292635
-0.005554155,-0.006000253208493148
-0.005553815,-0.007152227729902647
-0.005553475,-0.006954746383375304
-0.005553135,-0.006164820997265934
-0.005552795,-0.007580103980711889
-0.005552455,-0.0106410648518857
-0.005552115,-0.00540780916891112
-0.005551775,-0.003992526185465165
-0.005551435,-0.002643070317530119
-0.005551095,-0.003630477050165036
-0.005550755,-0.01100311398718583
-0.005550415,-0.01047649706311034
-0.005550075,-0.009061214079666959
-0.005549735,-0.01100311398718583
-0.005549395,-0.01228674273961284
-0.005549055,-0.01189178004655887
-0.005548715,-0.01231965629736811
-0.005548374999999999,-0.01152973091125731
-0.005548035,-0.01073980552514937
-0.005547695,-0.01060815129413114
-0.005547354999999999,-0.008699164944363836
-0.005547015,-0.007053487056638975
-0.005546675,-0.007415536191939104
-0.005546334999999999,-0.006954746383371352
-0.005545995,-0.004782451571574535
-0.005545655,-0.004321661763010735
-0.005545314999999999,-0.003926699069956589
-0.005544975,-0.004222921089747064
-0.005544635,-0.005374895611156563
-0.005544294999999999,-0.004815365129329631
-0.005543955,-0.005111587149120106
-0.005543615,-0.007283881960920875
-0.005543274999999999,-0.008106720904784023
-0.005542935,-0.00767884465397556
-0.005542595,-0.008337115809066702
-0.005542255,-0.01363619860754076
-0.005541915,-0.01412990197386875
-0.005541575,-0.009785312350267215
-0.005541235,-0.0123854834128725
-0.005540895,-0.01031192927434013
-0.005540555,-0.01304375456796837
-0.005540215,-0.01682881370973555
-0.005539875,-0.01350454437653217
-0.005539535,-0.01024610215883101
-0.005539195,-0.01123350889146593
-0.005538855,-0.01011444792781279
-0.005538515,-0.009127041195176074
-0.005538175,-0.00892955984864909
-0.005537835,-0.008205461578048474
-0.005537495,-0.007975066673766575
-0.005537155,-0.00945617677271895
-0.005536815,-0.01057523773637659
-0.005536475,-0.009884053023530886
-0.005536135,-0.01050941062086633
-0.005535795,-0.01143099023799507
-0.005535455,-0.009423263214967087
-0.005535115,-0.009456176772721583
-0.005534775,-0.009291608983948858
-0.005534435,-0.00869916494436683
-0.005534095,-0.008633337828857836
-0.005533755,-0.006625610805829733
-0.005533415,-0.006033166766247705
-0.005533075,-0.007514276865202775
-0.005532735,-0.008732078502121389
-0.005532395,-0.008040893789275689
-0.005532055,-0.008995386964157845
-0.005531715,-0.01498565447548724
-0.005531375,-0.0115626444690133
-0.005531035,-0.005967339650738591
-0.005530695,-0.006230648112775047
-0.005530355,-0.00369630416567415
-0.005530015,-0.007283881960920875
-0.005529675,-0.01008153437005392
-0.005529335,-0.007711758211730118
-0.005528995,-0.006263561670529605
-0.005528655,-0.008337115809070114
-0.005528315,-0.01021318860107646
-0.005527975,-0.00837002936682126
-0.005527634999999999,-0.009949880139040121
-0.005527295,-0.01001570725454911
-0.005526955,-0.009686571677003543
-0.005526614999999999,-0.01070689196739889
-0.005526275,-0.0129450138947047
-0.005525935,-0.01185886648880431
-0.005525594999999999,-0.0112993360069772
-0.005525255,-0.01149681735350419
-0.005524915,-0.008633337828857716
-0.005524574999999999,-0.008797905617628587
-0.005524235,-0.007744671769484675
-0.005523895,-0.007481363307448217
-0.005523554999999999,-0.0107398055251635
-0.005523215,-0.01850740515522485
-0.005522875,-0.02634083190080944
-0.005522534999999999,-0.05072977819698594
-0.005522195,-0.07804803113321865
-0.005521855,-0.107374011092529
-0.005521514999999999,-0.1397280383653235
-0.005521175,-0.175373421413444
-0.005520835,-0.1967672339539062
-0.005520495,-0.2194117616890003
-0.005520155,-0.2365926388369202
-0.005519815,-0.2496264077077249
-0.005519475,-0.259895437727128
-0.005519135,-0.2617385969614019
-0.005518795,-0.2579535378196278
-0.005518455,-0.2520620109815728
-0.005518115,-0.2478161620312242
-0.005517775,-0.2417929809621403
-0.005517435,-0.2325442712331265
-0.005517095,-0.22546785631588
-0.005516755,-0.2191155396692504
-0.005516415,-0.212269519656315
-0.005516075,-0.2066742148380278
-0.005515735,-0.201309304924035
-0.005515395,-0.1930809154854107
-0.005515055,-0.1846879582579837
-0.005514715,-0.1781381602648268
-0.005514375,-0.1725099418888078
-0.005514035,-0.1662234523576772
-0.005513695,-0.1612205915789845
-0.005513355,-0.1559544223382649
-0.005513015,-0.1526301530050451
-0.005512675,-0.1494046243450985
-0.005512335,-0.1442042822198784
-0.005511995,-0.1375557435534579
-0.005511655,-0.1334415488341383
-0.005511315,-0.1295577490191005
-0.005510975,-0.1260359983393629
-0.005510635,-0.1224813341018708
-0.005510295,-0.1117515142738851
-0.005509955,-0.1069790483994744
-0.005509615,-0.1029306807956638
-0.005509275,-0.1026344587758728
-0.005508935,-0.100034287713252
-0.005508595,-0.09410984731744251
-0.005508255,-0.09124636779279605
-0.005507915,-0.08831706115263749
-0.005507575,-0.08667138326491261
-0.005507235,-0.08489405114616652
-0.005506894999999999,-0.08278758344987057
-0.005506555,-0.08041780729154677
-0.005506215,-0.07959496834768284
-0.005505874999999999,-0.07699479728506343
-0.005505535,-0.07182736871760736
-0.005505195,-0.07031334506089773
-0.005504854999999999,-0.06652828591911863
-0.005504515,-0.06376354706774087
-0.005504175,-0.06234826408429492
-0.005503834999999999,-0.06106463533186748
-0.005503495,-0.06122920312063997
-0.005503155,-0.05912273542434832
-0.005502814999999999,-0.05721374907457916
-0.005502475,-0.05454775089646488
-0.005502135,-0.05339577637505538
-0.005501794999999999,-0.0516842713718159
-0.005501455,-0.05030190194612701
-0.005501115,-0.04803086646106258
-0.005500774999999999,-0.04766881732576347
-0.005500435,-0.04822834780758992
-0.005500095,-0.04773464444127156
-0.005499755,-0.04144815491016259
-0.005499415,-0.03874924317427747
-0.005499075,-0.03700482461328594
-0.005498735,-0.04019743971547218
-0.005498395,-0.04065822952404178
-0.005498055,-0.03674151615124949
-0.005497715,-0.03526040605229711
-0.005497375,-0.03578702297636733
-0.005497035,-0.03341724681803922
-0.005496695,-0.03262732143193128
-0.005496355,-0.02976384190728338
-0.005496015,-0.02884226229015578
-0.005495675,-0.02824981825057483
-0.005495335,-0.02824981825057375
-0.005494995,-0.02788776911527362
-0.005494655,-0.02824981825057309
-0.005494315,-0.02851312671261021
-0.005493975,-0.02782194199976451
-0.005493635,-0.02749280642221954
-0.005493295,-0.02736115219120071
-0.005492955,-0.02492554891736349
-0.005492615,-0.02512303026389047
-0.005492275,-0.02515594382164538
-0.005491935,-0.0238394015114631
-0.005491595,-0.02400396930023559
-0.005491255,-0.02413562353125412
-0.005490915,-0.02298364900984462
-0.005490575,-0.02189750160394423
-0.005490235,-0.02374066083819943
-0.005489895,-0.02584712853449108
-0.005489555,-0.01673007303647877
-0.005489215,-0.01649967813219686
-0.005488875,-0.01462360534018711
-0.005488535,-0.01429446976264154
-0.005488195,-0.01873780005950357
-0.005487855,-0.01699338149851522
-0.005487515,-0.01310958168347748
-0.005487175,-0.01449195110917044
-0.005486835,-0.01534770361078737
-0.005486495,-0.01189178004655887
-0.005486155,-0.01320832235674205
-0.005485815,-0.01370202572305951
-0.005485475,-0.01347163081877761
-0.005485134999999999,-0.01449195110917193
-0.005484795,-0.01617054255465129
-0.005484455,-0.01765165265360636
-0.005484114999999999,-0.01640093745893505
-0.005483775,-0.01742125774932446
-0.005483435,-0.01636802390117864
-0.005483094999999999,-0.01472234601345138
-0.005482755,-0.01505148159099635
-0.005482415,-0.01436029687815065
-0.005482074999999999,-0.01416281553162253
-0.005481735,-0.01373493928081407
-0.005481395,-0.01284627322144103
-0.005481054999999999,-0.01268170543267076
-0.005480715,-0.01406407485835964
-0.005480375,-0.01307666812572293
-0.005480034999999999,-0.01097020042943696
-0.005479695,-0.0140969884161142
-0.005479355,-0.01877071361726131
-0.005479015,-0.009851139465792554
-0.005478675,-0.01031192927434013
-0.005478335,-0.01630219678566952
-0.005477995,-0.01403116130060921
-0.005477655,-0.01268170543266824
-0.005477315,-0.01393242062734141
-0.005476975,-0.01129933600698163
-0.005476635,-0.01097020042943127
-0.005476295,-0.01199052071982254
-0.005475955,-0.006658524363593989
-0.005475615,-0.009982793696794558
-0.005475275,-0.01324123591449571
-0.005474935,-0.01389950706958566
-0.005474595,-0.01268170543266824
-0.005474255,-0.01324123591449571
-0.005473915,-0.01228674273961529
-0.005473575,-0.01044358350535836
-0.005473235,-0.01189178004655887
-0.005472895,-0.01143099023799591
-0.005472555,-0.01208926139308621
-0.005472215,-0.01291210033695014
-0.005471875,-0.01353745793428559
-0.005471535,-0.01429446976264154
-0.005471195,-0.01452486466692344
-0.005470855,-0.01459069178243243
-0.005470515,-0.01212217495084077
-0.005470175,-0.01287918677919558
-0.005469835,-0.01268170543266824
-0.005469495,-0.01139807668024051
-0.005469155,-0.01495274091773268
-0.005468815,-0.0115626444690133
-0.005468475,-0.01123350889146773
-0.005468135,-0.007942153116012016
-0.005467795,-0.01037775638984924
-0.005467455,-0.01238548341287723
-0.005467115,-0.01031192927434013
-0.005466775,-0.008732078502121389
-0.005466435,-0.008797905617630082
-0.005466095,-0.008567510713348603
-0.005465755,-0.0115626444690133
-0.005465415,-0.01120059533371179
-0.005465075,-0.01044358350535836
-0.005464735,-0.01080563264065849
-0.005464394999999999,-0.01261587831715529
-0.005464055,-0.01050941062086747
-0.005463715,-0.01067397840964026
-0.005463374999999999,-0.01097020042943085
-0.005463035,-0.01073980552514937
-0.005462695,-0.01215508850859533
-0.005462354999999999,-0.01162847158452044
-0.005462015,-0.01054232417862203
-0.005461675,-0.01070689196739481
-0.005461334999999999,-0.01172721225778375
-0.005460995,-0.01044358350535836
-0.005460655,-0.007975066673766575
-0.005460314999999999,-0.007876326000502722
-0.005459975,-0.007777585327239231
-0.005459635,-0.008962473406403288
-0.005459294999999999,-0.008732078502126298
-0.005458955,-0.01143099023799507
-0.005458615,-0.01004862081230367
-0.005458274999999999,-0.008073807347026892
-0.005457935,-0.006230648112775047
-0.005457595,-0.004979932918101878
-0.005457255,-0.01004862081229445
-0.005456915,-0.0115626444690133
-0.005456575,-0.008995386964157845
-0.005456235,-0.01097020042942768
-0.005455895,-0.01159555802676786
-0.005455555,-0.01093728687167671
-0.005455215,-0.01248422408613808
-0.005454875,-0.012253829181859
-0.005454535,-0.01083854619841304
-0.005454195,-0.01357037149203631
-0.005453855,-0.01360328504979584
-0.005453515,-0.01189178004655887
-0.005453175,-0.01241839697063083
-0.005452835,-0.01218800206634988
-0.005452495,-0.01070689196739481
-0.005452155,-0.01162847158452074
-0.005451815,-0.01172721225778608
-0.005451475,-0.0111018546604495
-0.005451135,-0.01133224956473098
-0.005450795,-0.0138665935118323
-0.005450455,-0.01241839697063178
-0.005450115,-0.01146390379575136
-0.005449775,-0.0136361986075504
-0.005449435,-0.0124842240861409
-0.005449095,-0.01222091562410492
-0.005448755,-0.01261587831715913
-0.005448415,-0.01531479005303281
-0.005448075,-0.009061214079666959
-0.005447735,-0.00767884465397556
-0.005447395,-0.007152227729902647
-0.005447055,-0.004420402436274407
-0.005446715,-0.009357436099457973
-0.005446375,-0.01034484283209469
-0.005446035,-0.005671117630947577
-0.005445695,-0.006197734555020371
-0.005445355,-0.006131907439511376
-0.005445015,-0.005341982053402005
-0.005444675,-0.006724351479093943
-0.005444335,-0.007020573498884419
-0.005443995,-0.006164820997265934
-0.005443655,-0.007942153116017165
-0.005443315,-0.01077271908290393
-0.005442975,-0.01143099023799507
-0.005442634999999999,-0.01235256985512303
-0.005442295,-0.01255005120165001
-0.005441955,-0.01228674273961356
-0.005441614999999999,-0.01291210033694954
-0.005441275,-0.01258296475940457
-0.005440935,-0.0124842240861409
-0.005440594999999999,-0.01231965629736913
-0.005440255,-0.01287918677919558
-0.005439915,-0.01176012581554064
-0.005439574999999999,-0.01185886648880042
-0.005439235,-0.009719485234758102
-0.005438895,-0.009653658119248986
-0.005438554999999999,-0.009785312350272904
-0.005438215,-0.01291210033695014
-0.005437875,-0.01301084101021381
-0.005437534999999999,-0.007152227729905401
-0.005437195,-0.008666251386612273
-0.005436855,-0.006461043017056948
-0.005436515,-0.007810498884991334
-0.005436175,-0.01024610215883101
-0.005435835,-0.008896646290894173
-0.005435495,-0.00583568541972593
-0.005435155,-0.007152227729902647
-0.005434815,-0.007020573498884419
-0.005434475,-0.007678844653974363
-0.005434135,-0.007218054845411761
-0.005433795,-0.008205461578048474
-0.005433455,-0.008435856482329954
-0.005433115,-0.008666251386612273
-0.005432775,-0.01080563264065849
-0.005432435,-0.01136516312248494
-0.005432095,-0.009949880139040001
-0.005431755,-0.01054232417862203
-0.005431415,-0.009357436099460128
-0.005431075,-0.008040893789275689
-0.005430735,-0.008106720904784802
-0.005430395,-0.007942153116012316
-0.005430055,-0.005539463399929348
-0.005429715,-0.00586859897747492
-0.005429375,-0.006296475228283384
-0.005429035,-0.00313677368384668
-0.005428695,-0.004091266858728836
-0.005428355,-0.01152973091124521
-0.005428015,-0.01176012581554064
-0.005427675,-0.01794787467339738
-0.005427335,-0.01610471543914218
-0.005426995,-0.01123350889146773
-0.005426655,-0.01106894110269494
-0.005426315,-0.01083854619841304
-0.005425975,-0.012253829181859
-0.005425635,-0.01327414947225027
-0.005425295,-0.01057523773637659
-0.005424955,-0.009653658119248986
-0.005424615,-0.009851139465776329
-0.005424275,-0.01093728687167671
-0.005423935,-0.009818225908020336
-0.005423595,-0.009028300521912402
-0.005423255,-0.01034484283209469
-0.005422915,-0.00994988013904102
-0.005422575,-0.01050941062086747
-0.005422235,-0.01301084101021381
-0.005421894999999999,-0.01409698841611156
-0.005421555,-0.01264879187491368
-0.005421215,-0.01235256985512267
-0.005420874999999999,-0.01294501389470212
-0.005420535,-0.01152973091125874
-0.005420195,-0.009818225908021772
-0.005419854999999999,-0.007942153116010101
-0.005419515,-0.00688891926786619
-0.005419175,-0.007382622634184546
-0.005418834999999999,-0.008040893789276167
-0.005418495,-0.008304202251312145
-0.005418155,-0.007876326000502903
-0.005417814999999999,-0.009192868310685666
-0.005417475,-0.009456176772721644
-0.005417135,-0.01307666812572293
-0.005416794999999999,-0.008238375135796984
-0.005416455,-0.004914105802592763
-0.005416115,-0.005045760033610991
-0.005415774999999999,-0.006592697248081343
-0.005415435,-0.009982793696794558
-0.005415095,-0.00837002936682126
-0.005414755,-0.008205461578048774
-0.005414415,-0.008732078502121389
-0.005414075,-0.009291608983948858
-0.005413735,-0.009423263214966848
-0.005413395,-0.00939034965721253
-0.005413055,-0.009489090330476201
-0.005412715,-0.01100311398718307
-0.005412375,-0.01192469360431343
-0.005412035,-0.0104106699476038
-0.005411695,-0.01136516312248422
-0.005411355,-0.01159555802676786
-0.005411015,-0.007283881960920875
-0.005410675,-0.006197734555022466
-0.005410335,-0.006098993881756819
-0.005409995,-0.005736944746456691
-0.005409655,-0.006526870132564625
-0.005409315,-0.008501683597839487
-0.005408975,-0.01054232417862203
-0.005408635,-0.01222091562410139
-0.005408295,-0.01449195110916888
-0.005407955,-0.01376785283856862
-0.005407615,-0.01360328504979614
-0.005407275,-0.01426155620488698
-0.005406935,-0.01640093745893319
-0.005406595,-0.01580849341935224
-0.005406255,-0.009423263214967087
-0.005405915,-0.008764992059875945
-0.005405575,-0.004584970225047193
-0.005405235,-0.00790923955825746
-0.005404895,-0.01031192927434013
-0.005404555,-0.006823092152357076
-0.005404215,-0.007481363307448217
-0.005403875,-0.009522003888230759
-0.005403535,-0.009653658119248986
-0.005403195,-0.01064106485188744
-0.005402855,-0.01159555802676786
-0.005402515,-0.01169429870003153
-0.005402175,-0.01162847158452481
-0.005401835,-0.0129450138947047
-0.005401495,-0.009324522541703417
-0.005401154999999999,-0.002412675413228043
-0.005400815,0.007691786817402609
-0.005400475,0.02470809617650863
-0.005400134999999999,0.04791215439352169
-0.005399795,0.07555954290729935
-0.005399455,0.1039968568072367
-0.005399114999999999,0.1354622180206408
-0.005398775,0.1615955828777116
-0.005398435,0.1856553935962929
-0.005398094999999999,0.2050743926715022
-0.005397755,0.2164295700968038
-0.005397415,0.2241971697268793
-0.005397074999999999,0.2273239577135615
-0.005396735,0.2269289950205075
-0.005396395,0.2203133699118415
-0.005396054999999999,0.2155738175951866
-0.005395715,0.2162979158657855
-0.005395375,0.2102089076811925
-0.005395034999999999,0.2057984909420623
-0.005394695,0.1950686711140962
-0.005394355,0.1850300359989563
-0.005394015,0.1819032480122791
-0.005393675,0.1781181888704993
-0.005393335,0.167585850389041
-0.005392995,0.1633400014387109
-0.005392655,0.1582383999867468
-0.005392315,0.1520835646866446
-0.005391975,0.1487263817956859
-0.005391635,0.1430323363041414
-0.005391295,0.1349356010965204
-0.005390955,0.1296694318558008
-0.005390615,0.1246665710770986
-0.005390275,0.118544649334751
-0.005389935,0.111994851341606
-0.005389595,0.1094275938367386
-0.005389255,0.1053463126751736
-0.005388915,0.1009358959360709
-0.005388575,0.09817115708468011
-0.005388235,0.093793653903324
-0.005387895,0.08931741004871237
-0.005387555,0.08730968302567624
-0.005387215,0.08214225445821077
-0.005386875,0.07802805973889863
-0.005386535,0.07417717348160796
-0.005386195,0.06924013981842439
-0.005385855,0.06074844191776411
-0.005385515,0.06403979769320436
-0.005385175,0.06232829268996741
-0.005384835,0.05854323354819334
-0.005384495,0.05679881498720181
-0.005384155,0.05044649834057229
-0.005383815,0.04863625266407165
-0.005383475,0.04955783228119925
-0.005383135,0.04778050016245317
-0.005382795,0.04567403246616151
-0.005382455,0.04656269852553455
-0.005382115,0.04623356294798898
-0.005381775,0.04991988141649938
-0.005381435,0.04057243101420641
-0.005381095,0.04126361572705086
-0.005380755,0.03770895148955869
