Analysis/files/cmb03_wrd01/d2s04_ch21.csv

#Digilent WaveForms Oscilloscope Acquisition
#Device Name: ADP3450
#Serial Number: SN:210018B9D9B0
#Date Time: 2024-08-13 12:20:25.640.147.940
#Sample rate: 2.94118e+06Hz
#Samples: 32768
#Trigger: Source: Channel 3 Type: Edge Condition: Rising Level: 60 mV Hyst.: Auto HoldOff: 0 s
#Channel 3: Range: 200 mV/div Offset: 0 V Attenuation: 1 X Coupling: DC Bandwidth: 0 Hz Sample Mode: Average

Time (s),Channel 3 (V)
-0.005570469960474308,0.0122996849030406
-0.005570129960474308,0.01104896970836917
-0.005569789960474308,0.01200346288324959
-0.005569449960474308,0.0118388950944768
-0.005569109960474308,0.01045652566878547
-0.005568769960474308,0.01048943922653996
-0.005568429960474308,0.008218403741475522
-0.005568089960474308,0.004268776810943517
-0.005567749960474308,0.01243133913405883
-0.005567409960474308,0.01282630182711352
-0.005567069960474308,0.005058702197041153
-0.005566729960474308,0.00677020720027501
-0.005566389960474308,0.009304551147375908
-0.005566049960474308,0.008350057972491116
-0.005565709960474308,0.006901861431293239
-0.005565369960474308,0.008613366434530208
-0.005565029960474308,0.008251317299229361
-0.005564689960474308,0.007856354606175394
-0.005564349960474308,0.008942502012075779
-0.005564009960474308,0.007000602104558168
-0.005563669960474308,0.007691786817402609
-0.005563329960474308,0.007889268163929951
-0.005562989960474309,0.007033515662313024
-0.005562649960474308,0.005025788639283483
-0.005562309960474308,0.005618232678865511
-0.005561969960474309,0.004861220850512075
-0.005561629960474308,0.003873814117873984
-0.005561289960474308,0.00357759209808297
-0.005560949960474309,0.002623098923202551
-0.005560609960474308,0.0008786803622092876
-0.005560269960474308,-0.0002732941592002112
-0.005559929960474309,-0.0007011704100086753
-0.005559589960474308,-0.004486229551783521
-0.005559249960474308,-0.002281021182228195
-0.005558909960474308,-0.001524009353874758
-0.005558569960474308,-0.002050626277946295
-0.005558229960474308,-0.001260700891836924
-0.005557889960474308,-0.002577243202016814
-0.005557549960474308,-0.001359441565100596
-0.005557209960474308,8.875497609991696e-05
-0.005556869960474308,0.0002533227648724032
-0.005556529960474308,0.00153695151730043
-0.005556189960474308,0.003840900560119427
-0.005555849960474308,0.005651146236616776
-0.005555509960474308,0.005716973352129182
-0.005555169960474308,-0.000207467043691097
-0.005554829960474308,-0.002116453393451937
-0.005554489960474308,-7.581281267286857e-05
-0.005554149960474308,-0.0008657381987822392
-0.005553809960474308,-0.0007011704100094536
-0.005553469960474308,-0.0006353432945003394
-0.005553129960474308,-0.0007011704100094536
-0.005552789960474308,-0.0007999110832731249
-0.005552449960474308,-0.0009644788720459105
-0.005552109960474308,-0.002807638106301108
-0.005551769960474308,-0.003202600799355794
-0.005551429960474308,-0.002939292337324545
-0.005551089960474308,-0.005802771861965805
-0.005550749960474308,-0.00369630416567415
-0.005550409960474308,-0.004157093974238728
-0.005550069960474308,-0.004584970225047193
-0.005549729960474308,-0.004255834647501621
-0.005549389960474308,-0.003795044838936385
-0.005549049960474308,-0.003005119452828451
-0.005548709960474308,-0.001161960218573253
-0.005548369960474308,0.00058245834241528
-0.005548029960474308,-0.001063219545309582
-0.005547689960474308,-0.001129046660818696
-0.005547349960474308,0.002359790461167231
-0.005547009960474308,0.003939641233383098
-0.005546669960474308,-0.001129046660818696
-0.005546329960474308,-0.00119487377631877
-0.005545989960474308,0.003775073444610313
-0.005545649960474308,0.003380110751555628
-0.005545309960474308,0.003413024309296535
-0.005544969960474308,-0.004091266858728836
-0.005544629960474308,-0.007020573498884419
-0.005544289960474308,-0.004420402436269916
-0.005543949960474308,-0.001951885604682624
-0.005543609960474308,-0.005440722726665677
-0.005543269960474308,-0.005769858304206519
-0.005542929960474308,-0.003169687241601236
-0.005542589960474308,-0.004716624456065421
-0.005542249960474309,-0.001886058489178658
-0.005541909960474308,-0.002083539835700852
-0.005541569960474308,-0.002313934739982752
-0.005541229960474309,-0.00162275002713831
-0.005540889960474308,-4.289925491831147e-05
-0.005540549960474308,-0.001359441565100596
-0.005540209960474309,-0.00237976185549001
-0.005539869960474308,-0.001392355122855153
-0.005539529960474308,-0.001589836469382495
-0.005539189960474309,-0.002675983875280904
-0.005538849960474308,-0.003070946568337565
-0.005538509960474308,-0.004025439743219721
-0.005538169960474308,-0.003005119452830307
-0.005537829960474308,-0.001129046660818696
-0.005537489960474308,-0.001918972046928067
-0.005537149960474308,-0.003202600799353459
-0.005536809960474308,-0.001161960218573253
-0.005536469960474308,-0.001359441565100596
-0.005536129960474308,-0.007448449749682584
-0.005535789960474308,-0.004552056667292635
-0.005535449960474308,-0.001622750027137053
-0.005535109960474308,-0.002215194066718003
-0.005534769960474308,-0.0002403806014456541
-0.005534429960474308,-0.004617883782801749
-0.005534089960474308,-0.006098993881754125
-0.005533749960474308,-0.002116453393455409
-0.005533409960474308,-0.00119487377632781
-0.005533069960474308,-0.003959612627710607
-0.005532729960474308,-0.004190007531992507
-0.005532389960474308,-0.003531736376901365
-0.005532049960474308,-0.004519143109538078
-0.005531709960474308,-0.005243241380138334
-0.005531369960474308,-0.00517741426462922
-0.005531029960474308,-0.00494701936034732
-0.005530689960474308,-0.006625610805829733
-0.005530349960474308,-0.00415709397423795
-0.005530009960474308,-0.004519143109538078
-0.005529669960474308,-0.005736944746454416
-0.005529329960474308,-0.004486229551783521
-0.005528989960474308,-0.004124180416483393
-0.005528649960474308,-0.005309068495643736
-0.005528309960474308,-0.003268427914864908
-0.005527969960474308,-0.002807638106301108
-0.005527629960474308,-0.002972205895074014
-0.005527289960474308,-0.003038033010583008
-0.005526949960474308,-0.002149366951209966
-0.005526609960474308,-0.003235514357111309
-0.005526269960474308,-0.003762131281183265
-0.005525929960474308,-0.005309068495647449
-0.005525589960474308,-0.008501683597826975
-0.005525249960474308,-0.001622750027137053
-0.005524909960474308,-0.00142526868060971
-0.005524569960474308,-0.0006024297367494343
-0.005524229960474308,-0.002610156759773766
-0.005523889960474308,-0.006625610805829733
-0.005523549960474308,-0.007547190422966791
-0.005523209960474308,-0.01274753254817735
-0.005522869960474308,-0.02364192016493576
-0.005522529960474308,-0.04279761077812895
-0.005522189960474308,-0.06531048428220507
-0.005521849960474308,-0.09331992193133315
-0.005521509960474308,-0.1241928391051674
-0.005521169960474308,-0.1569747426286466
-0.005520829960474308,-0.1860703276836751
-0.005520489960474309,-0.2132569263888898
-0.005520149960474308,-0.2344861711406286
-0.005519809960474308,-0.247980729819997
-0.005519469960474309,-0.2584143276281726
-0.005519129960474308,-0.2624297816742476
-0.005518789960474308,-0.2594346479185829
-0.005518449960474309,-0.2554521074302887
-0.005518109960474308,-0.2510416906911708
-0.005517769960474308,-0.2436032266386409
-0.005517429960474309,-0.2347823931604356
-0.005517089960474308,-0.2282984222827719
-0.005516749960474308,-0.2209257853457511
-0.005516409960474308,-0.2130594450424262
-0.005516069960474308,-0.2065754741647642
-0.005515729960474308,-0.19982819482508
-0.005515389960474308,-0.1967343203961572
-0.005515049960474308,-0.190908620673595
-0.005514709960474308,-0.1812649482515097
-0.005514369960474308,-0.1742872740075563
-0.005514029960474308,-0.1673754268790867
-0.005513689960474308,-0.1654335269715678
-0.005513349960474308,-0.1604635797506387
-0.005513009960474308,-0.1525314123317814
-0.005512669960474308,-0.146837366840243
-0.005512329960474308,-0.141340802695232
-0.005511989960474308,-0.1365354232630666
-0.005511649960474308,-0.1306109828672464
-0.005511309960474308,-0.1215268409269886
-0.005510969960474308,-0.1181367444782692
-0.005510629960474308,-0.1161290174552412
-0.005510289960474308,-0.1119160820626579
-0.005509949960474308,-0.1070448755149835
-0.005509609960474308,-0.1040826553170733
-0.005509269960474308,-0.0995076707891899
-0.005508929960474308,-0.09545930318537374
-0.005508589960474308,-0.09236542875645098
-0.005508249960474308,-0.08828414759488593
-0.005507909960474308,-0.08512444605044395
-0.005507569960474308,-0.08265592921885664
-0.005507229960474308,-0.08068111575358322
-0.005506889960474308,-0.07594156343692109
-0.005506549960474308,-0.07268312121922585
-0.005506209960474308,-0.07008295015661584
-0.005505869960474308,-0.06557379274423739
-0.005505529960474308,-0.06330275725917708
-0.005505189960474308,-0.06211786918001302
-0.005504849960474308,-0.06336858437468276
-0.005504509960474308,-0.06149251158267643
-0.005504169960474308,-0.0553047627248197
-0.005503829960474308,-0.05138804935202507
-0.005503489960474308,-0.05010442059959967
-0.005503149960474308,-0.05286915945098247
-0.005502809960474308,-0.05326412214402476
-0.005502469960474308,-0.04645101568884383
-0.005502129960474308,-0.04487116491662509
-0.005501789960474308,-0.04404832597276128
-0.005501449960474308,-0.04411415308827028
-0.005501109960474308,-0.04269887010482432
-0.005500769960474308,-0.0398024770224212
-0.005500429960474308,-0.0386505025010138
-0.005500089960474308,-0.0386505025010138
-0.005499749960474309,-0.03641238057370799
-0.005499409960474308,-0.03236401296989339
-0.005499069960474308,-0.03256149431642073
-0.005498729960474309,-0.0318044824880673
-0.005498389960474308,-0.03140951979501123
-0.005498049960474308,-0.03124495200623845
-0.005497709960474309,-0.03029045883135803
-0.005497369960474308,-0.02861186738587388
-0.005497029960474308,-0.02824981825057375
-0.005496689960474309,-0.02930305209871767
-0.005496349960474308,-0.02439893199329057
-0.005496009960474308,-0.0238394015114631
-0.005495669960474308,-0.02344443881840913
-0.005495329960474308,-0.0224570320857717
-0.005494989960474308,-0.02127214400660764
-0.005494649960474308,-0.02360900660717695
-0.005494309960474308,-0.02288490833658094
-0.005493969960474308,-0.01646676457444231
-0.005493629960474308,-0.01676298659423279
-0.005493289960474308,-0.01373493928081407
-0.005492949960474308,-0.01515022226426002
-0.005492609960474308,-0.01939607121459017
-0.005492269960474308,-0.01719086284504256
-0.005491929960474308,-0.01587432053486028
-0.005491589960474308,-0.01669715947872271
-0.005491249960474308,-0.01847449159747029
-0.005490909960474308,-0.01742125774932446
-0.005490569960474308,-0.01827701025094295
-0.005490229960474308,-0.01663133236321509
-0.005489889960474308,-0.01570975274608749
-0.005489549960474308,-0.01482108668671445
-0.005489209960474308,-0.01538061716854192
-0.005488869960474308,-0.01228674273961356
-0.005488529960474308,-0.01251713764389546
-0.005488189960474308,-0.01241839697062837
-0.005487849960474308,-0.01054232417862203
-0.005487509960474308,-0.009061214079666959
-0.005487169960474308,-0.008962473406400773
-0.005486829960474308,-0.007580103980711889
-0.005486489960474308,-0.007185141287657204
-0.005486149960474308,-0.007909239558253569
-0.005485809960474308,-0.005769858304211248
-0.005485469960474308,-0.005078673591365549
-0.005485129960474308,-0.006098993881755981
-0.005484789960474308,-0.005638204073193019
-0.005484449960474308,-0.005572376957683906
-0.005484109960474308,-0.008435856482336541
-0.005483769960474308,-0.01182595293104976
-0.005483429960474308,-0.005572376957683906
-0.005483089960474308,-0.006987659941126748
-0.005482749960474308,-0.005276154937892892
-0.005482409960474308,-0.006033166766247705
-0.005482069960474308,-0.01047649706310986
-0.005481729960474308,-0.008797905617630502
-0.005481389960474308,-0.004782451571574535
-0.005481049960474308,-0.004091266858729734
-0.005480709960474308,-0.004584970225047193
-0.005480369960474308,-0.003070946568337565
-0.005480029960474308,-0.002807638106302485
-0.005479689960474308,-0.003564649934655922
-0.005479349960474308,-0.002313934739982752
-0.005479009960474309,-0.004979932918097028
-0.005478669960474308,-0.006362302343793276
-0.005478329960474308,-0.005802771861965805
-0.005477989960474309,-0.005539463399929827
-0.005477649960474308,-0.007185141287657204
-0.005477309960474308,-0.006395215901547833
-0.005476969960474309,-0.006526870132565823
-0.005476629960474308,-0.007415536191939104
-0.005476289960474308,-0.007218054845411761
-0.005475949960474309,-0.006000253208495363
-0.005475609960474308,-0.005736944746456691
-0.005475269960474308,-0.004617883782801749
-0.005474929960474309,-0.003860871954448313
-0.005474589960474308,-0.003597563492410479
-0.005474249960474308,-0.003531736376901365
-0.005473909960474308,-0.002182280508966978
-0.005473569960474308,-0.007185141287657204
-0.005473229960474308,-0.001260700891836924
-0.005472889960474308,0.0002533227648699485
-0.005472549960474308,0.0007799396889456162
-0.005472209960474308,-0.0004378619479729968
-0.005471869960474308,-0.004321661763003671
-0.005471529960474308,-0.002741810990791994
-0.005471189960474308,-0.0006024297367457822
-0.005470849960474308,-0.0004378619479732961
-0.005470509960474308,-0.002478502528755537
-0.005470169960474308,-0.005572376957683906
-0.005469829960474308,-0.002149366951209966
-0.005469489960474308,-0.004782451571574535
-0.005469149960474308,-0.005736944746456691
-0.005468809960474308,-0.004584970225047193
-0.005468469960474308,-0.003597563492410479
-0.005468129960474308,-0.004519143109538078
-0.005467789960474308,-0.002807638106301108
-0.005467449960474308,-0.002215194066719081
-0.005467109960474308,-0.002807638106301108
-0.005466769960474308,0.002293963345655243
-0.005466429960474308,-0.001787317815913131
-0.005466089960474308,-0.003597563492410479
-0.005465749960474308,-0.002939292337319337
-0.005465409960474308,-0.002972205895075091
-0.005465069960474308,-0.003630477050165036
-0.005464729960474308,-0.004190007531992507
-0.005464389960474308,-0.003959612627711146
-0.005464049960474308,-0.004255834647501621
-0.005463709960474308,-0.003762131281183265
-0.005463369960474308,-0.003959612627717073
-0.005463029960474308,-0.007514276865202775
-0.005462689960474308,-0.002149366951209966
-0.005462349960474308,-0.0007999110832699519
-0.005462009960474308,0.0009445074777184018
-0.005461669960474308,-0.0005695161789912252
-0.005461329960474308,-0.005572376957679954
-0.005460989960474308,-0.003400082145883136
-0.005460649960474308,-0.003729217723428708
-0.005460309960474308,-0.00405835330098284
-0.005459969960474308,-0.008764992059875945
-0.005459629960474308,-0.006954746383375304
-0.005459289960474308,-0.005309068495648346
-0.005458949960474308,-0.005802771861965805
-0.005458609960474308,-0.006592697248075176
-0.005458269960474308,-0.00682309215235103
-0.005457929960474308,-0.003498822819146808
-0.005457589960474308,-0.004617883782801749
-0.005457249960474309,-0.003400082145885352
-0.005456909960474308,-0.003070946568337565
-0.005456569960474308,-0.001227787334082367
-0.005456229960474309,-0.0004378619479744337
-0.005455889960474308,0.0009445074777184018
-0.005455549960474308,0.0004508041114000451
-0.005455209960474309,-0.0009973924297978333
-0.005454869960474308,0.001997741325864229
-0.005454529960474308,0.001273643055263973
-0.005454189960474309,-0.0003062077169518945
-0.005453849960474308,-0.0008657381987822392
-0.005453509960474308,-0.0007340839677640107
-0.005453169960474308,-0.001063219545308983
-0.005452829960474308,-0.005473636284420234
-0.005452489960474308,0.0002533227648727025
-0.005452149960474308,0.0007141125734356638
-0.005451809960474308,0.002162309114637015
-0.005451469960474308,0.002228136230146129
-0.005451129960474308,-0.004321661762998821
-0.005450789960474308,-0.004716624456065421
-0.005450449960474308,-0.00369630416567415
-0.005450109960474308,-0.003860871954446637
-0.005449769960474308,-0.005769858304211248
-0.005449429960474308,-0.004420402436274407
-0.005449089960474308,-0.004749538013819379
-0.005448749960474308,-0.003795044838937822
-0.005448409960474308,-0.002478502528755537
-0.005448069960474308,-0.002610156759773766
-0.005447729960474308,-0.003202600799355794
-0.005447389960474308,-0.0005366026212366681
-0.005447049960474308,-0.001227787334082367
-0.005446709960474308,-0.001458182238364267
-0.005446369960474308,-0.001754404258155281
-0.005446029960474308,-0.00142526868060971
-0.005445689960474308,-0.001326528007347057
-0.005445349960474308,-0.00188605848917351
-0.005445009960474308,-0.002412675413246423
-0.005444669960474308,-0.00471662445606093
-0.005444329960474308,-0.002248107624473638
-0.005443989960474308,-0.003465909261392251
-0.005443649960474308,-0.004650797340556486
-0.005443309960474308,-0.004749538013819977
-0.005442969960474308,-0.003564649934655922
-0.005442629960474308,-0.005309068495657028
-0.005442289960474308,-0.01057523773637659
-0.005441949960474308,-0.002248107624473638
-0.005441609960474308,-0.002544329644272016
-0.005441269960474308,-0.006592697248075176
-0.005440929960474308,-0.004914105802592763
-0.005440589960474308,-0.003038033010585104
-0.005440249960474308,-0.004190007531992507
-0.005439909960474308,-0.00244558897100098
-0.005439569960474308,-0.0004707755057290506
-0.005439229960474308,-0.001293614449591481
-0.005438889960474308,-0.0003062077169547683
-0.005438549960474308,-0.001227787334083026
-0.005438209960474308,-0.001589836469382495
-0.005437869960474308,-0.0002403806014456541
-0.005437529960474308,-0.00126070089183896
-0.005437189960474308,-0.002379761855491866
-0.005436849960474308,-0.001161960218573253
-0.005436509960474309,-0.001524009353872723
-0.005436169960474308,-0.001951885604682624
-0.005435829960474308,-0.001260700891836924
-0.005435489960474309,-0.001161960218573433
-0.005435149960474308,-0.00165566358489161
-0.005434809960474308,-0.001524009353873381
-0.005434469960474309,-0.001326528007346398
-0.005434129960474308,-0.002412675413246423
-0.005433789960474308,-0.001096133103064139
-0.005433449960474309,0.0006153719001697176
-0.005433109960474308,-0.0009644788720459105
-0.005432769960474308,-0.004617883782801749
-0.005432429960474308,0.0003520634381273336
-0.005432089960474308,-9.985697163754359e-06
-0.005431749960474308,-0.0008986517565367963
-0.005431409960474308,-0.001556922911626741
-0.005431069960474308,-0.00688891926786619
-0.005430729960474308,-0.007020573498884419
-0.005430389960474308,-0.004058353300979666
-0.005430049960474308,-0.004848278687083649
-0.005429709960474308,-0.006724351479093405
-0.005429369960474308,-0.004848278687087062
-0.005429029960474308,-0.003827958396692379
-0.005428689960474308,-0.005210327822383777
-0.005428349960474308,-0.003400082145886429
-0.005428009960474308,-0.002083539835700852
-0.005427669960474308,-0.002873465221810222
-0.005427329960474308,-0.0006682568522548965
-0.005426989960474308,-0.0006682568522548965
-0.005426649960474308,-0.001491095796118824
-0.005426309960474308,-0.0004049483902184396
-0.005425969960474308,-0.0007669975255185678
-0.005425629960474308,-0.003268427914864908
-0.005425289960474308,-0.002248107624473638
-0.005424949960474308,-0.00188605848917351
-0.005424609960474308,-0.002741810990791994
-0.005424269960474308,-0.001491095796118824
-0.005423929960474308,0.000648285457924574
-0.005423589960474308,-0.0008986517565367963
-0.005423249960474308,-0.0006024297367457822
-0.005422909960474308,-0.000799911083274442
-0.005422569960474308,-0.001524009353873381
-0.005422229960474308,-0.007415536191939104
-0.005421889960474308,-0.002610156759774125
-0.005421549960474308,-0.002807638106301108
-0.005421209960474308,-0.003893785512201493
-0.005420869960474308,-0.003531736376907771
-0.005420529960474308,-0.007053487056638975
-0.005420189960474308,-0.005835685419720362
-0.005419849960474308,-0.001918972046929683
-0.005419509960474308,-0.002807638106301108
-0.005419169960474308,-0.003630477050165036
-0.005418829960474308,-0.002708897433036958
-0.005418489960474308,-0.00244558897100098
-0.005418149960474308,-0.004420402436274407
