Analysis/files/cmb03_wrd01/d2s06_ch35.csv

#Digilent WaveForms Oscilloscope Acquisition
#Device Name: ADP3450
#Serial Number: SN:210018B9D9B0
#Date Time: 2024-08-13 16:03:33.701.098.220
#Sample rate: 2.94118e+06Hz
#Samples: 32768
#Trigger: Source: Channel 3 Type: Edge Condition: Rising Level: 60 mV Hyst.: Auto HoldOff: 0 s
#Channel 3: Range: 200 mV/div Offset: 0 V Attenuation: 1 X Coupling: DC Bandwidth: 0 Hz Sample Mode: Average

Time (s),Channel 3 (V)
-0.005570411083798883,0.001899000652600558
-0.005570071083798882,0.001569865075054568
-0.005569731083798882,0.001339470170773087
-0.005569391083798883,-0.001227787334082367
-0.005569051083798882,-0.001458182238363549
-0.005568711083798882,-0.001063219545309582
-0.005568371083798883,-0.003432995703637694
-0.005568031083798882,-0.005440722726662683
-0.005567691083798882,-0.003795044838937822
-0.005567351083798883,-0.003301341472619465
-0.005567011083798882,-0.003498822819145131
-0.005566671083798882,-0.002577243202019209
-0.005566331083798883,-0.00586859897747492
-0.005565991083798882,-0.008337115809052572
-0.005565651083798882,-0.0005695161789912252
-0.005565311083798883,-0.001622750027137053
-0.005564971083798882,-0.002346848297729227
-0.005564631083798882,0.002096481999127901
-0.005564291083798883,-0.006461043017056948
-0.005563951083798882,-0.006000253208489376
-0.005563611083798882,-0.00392669906995605
-0.005563271083798883,-0.005835685419720362
-0.005562931083798883,-0.004124180416486506
-0.005562591083798882,-0.003465909261392251
-0.005562251083798883,-0.00369630416567415
-0.005561911083798883,-0.005802771861961974
-0.005561571083798882,-0.006230648112775047
-0.005561231083798883,-0.007975066673766575
-0.005560891083798883,-0.01087145975616233
-0.005560551083798882,-0.01149681735350419
-0.005560211083798883,-0.01004862081230367
-0.005559871083798883,-0.01050941062086663
-0.005559531083798882,-0.01054232417862203
-0.005559191083798883,-0.008929559848648731
-0.005558851083798883,-0.009456176772720686
-0.005558511083798882,-0.009094127637421515
-0.005558171083798883,-0.008435856482330374
-0.005557831083798883,-0.008633337828857357
-0.005557491083798882,-0.008995386964157845
-0.005557151083798883,-0.007283881960920875
-0.005556811083798883,-0.006131907439513471
-0.005556471083798882,-0.008764992059875945
-0.005556131083798883,-0.009159954752930631
-0.005555791083798883,-0.01215508850858988
-0.005555451083798882,-0.01353745793428673
-0.005555111083798882,-0.007152227729902647
-0.005554771083798883,-0.0101144479278074
-0.005554431083798882,-0.01136516312248596
-0.005554091083798882,-0.01406407485835964
-0.005553751083798883,-0.009522003888230759
-0.005553411083798882,-0.01027901571658557
-0.005553071083798882,-0.01215508850859533
-0.005552731083798883,-0.01113476821820406
-0.005552391083798882,-0.01106894110269494
-0.005552051083798882,-0.01159555802676786
-0.005551711083798883,-0.007711758211730118
-0.005551371083798882,-0.0126487918749156
-0.005551031083798882,-0.01370202572305951
-0.005550691083798883,-0.007975066673766575
-0.005550351083798882,-0.009587831003744482
-0.005550011083798882,-0.01212217495084077
-0.005549671083798883,-0.009686571677003543
-0.005549331083798882,-0.01172721225778046
-0.005548991083798882,-0.008633337828857716
-0.005548651083798883,-0.007382622634184546
-0.005548311083798882,-0.01452486466692733
-0.005547971083798882,-0.01666424592096965
-0.005547631083798883,-0.01212217495084077
-0.005547291083798882,-0.01360328504979847
-0.005546951083798882,-0.01505148159099635
-0.005546611083798883,-0.0129450138947047
-0.005546271083798882,-0.0121880020663533
-0.005545931083798882,-0.01406407485835964
-0.005545591083798883,-0.01442612399365977
-0.005545251083798882,-0.01432738332039777
-0.005544911083798882,-0.0152489629375237
-0.005544571083798883,-0.01613762899689674
-0.005544231083798882,-0.0142286426471338
-0.005543891083798882,-0.01498565447548724
-0.005543551083798883,-0.01353745793428673
-0.005543211083798882,-0.01195760716206984
-0.005542871083798882,-0.01297792745245925
-0.005542531083798883,-0.01327414947225027
-0.005542191083798883,-0.01268170543266932
-0.005541851083798882,-0.01307666812572293
-0.005541511083798883,-0.01357037149204128
-0.005541171083798883,-0.01291210033695134
-0.005540831083798882,-0.01238548341287723
-0.005540491083798883,-0.01245131052838634
-0.005540151083798883,-0.01143099023799693
-0.005539811083798882,-0.01399824774285052
-0.005539471083798883,-0.01732251707606079
-0.005539131083798883,-0.009324522541717966
-0.005538791083798882,-0.009587831003739873
-0.005538451083798883,-0.01008153437005823
-0.005538111083798883,-0.01202343427757357
-0.005537771083798882,-0.01508439514875091
-0.005537431083798883,-0.0150185680332418
-0.005537091083798883,-0.01347163081878043
-0.005536751083798882,-0.01511730870650547
-0.005536411083798883,-0.01636802390117864
-0.005536071083798883,-0.01485400024447176
-0.005535731083798882,-0.0136361986075504
-0.005535391083798883,-0.01452486466692344
-0.005535051083798883,-0.01528187649527687
-0.005534711083798882,-0.01139807668024051
-0.005534371083798882,-0.0124842240861409
-0.005534031083798883,-0.01426155620488375
-0.005533691083798882,-0.01396533418509597
-0.005533351083798882,-0.01452486466692344
-0.005533011083798883,-0.01475525957120534
-0.005532671083798882,-0.01449195110916888
-0.005532331083798882,-0.01610471543914218
-0.005531991083798883,-0.0150185680332418
-0.005531651083798882,-0.01278044610593191
-0.005531311083798882,-0.012253829181859
-0.005530971083798883,-0.01281335966368647
-0.005530631083798882,-0.01264879187491368
-0.005530291083798882,-0.01218800206634988
-0.005529951083798883,-0.01343871726102305
-0.005529611083798882,-0.01251713764390204
-0.005529271083798882,-0.01613762899689674
-0.005528931083798883,-0.01630219678566952
-0.005528591083798882,-0.009982793696793481
-0.005528251083798882,-0.00939034965721253
-0.005527911083798883,-0.009258695426194301
-0.005527571083798882,-0.01251713764389881
-0.005527231083798882,-0.01436029687815065
-0.005526891083798883,-0.01241839697063178
-0.005526551083798882,-0.01179303937329675
-0.005526211083798882,-0.01264879187491368
-0.005525871083798883,-0.01373493928081407
-0.005525531083798882,-0.01245131052838502
-0.005525191083798882,-0.01172721225778608
-0.005524851083798883,-0.01060815129413114
-0.005524511083798882,-0.01205634783532848
-0.005524171083798882,-0.01031192927434013
-0.005523831083798883,-0.0124842240861409
-0.005523491083798882,-0.01728960351832174
-0.005523151083798882,-0.02581421497673653
-0.005522811083798883,-0.03786057711490443
-0.005522471083798882,-0.05846446426930202
-0.005522131083798882,-0.08311671902742046
-0.005521791083798883,-0.1146479073562862
-0.005521451083798882,-0.1455866516456258
-0.005521111083798882,-0.1763279145883262
-0.005520771083798883,-0.2047652284882635
-0.005520431083798883,-0.2309644204608433
-0.005520091083798882,-0.2509429500179072
-0.005519751083798883,-0.2643716815817664
-0.005519411083798883,-0.2740153540038341
-0.005519071083798882,-0.2786232520894897
-0.005518731083798883,-0.2818158671916817
-0.005518391083798883,-0.265951532354014
-0.005518051083798882,-0.2662148408160216
-0.005517711083798883,-0.2571306988757639
-0.005517371083798883,-0.2490668772259121
-0.005517031083798882,-0.2453476451996325
-0.005516691083798883,-0.2363293303748838
-0.005516351083798883,-0.2266527443950616
-0.005516011083798882,-0.2182597871676319
-0.005515671083798883,-0.2102947061910291
-0.005515331083798883,-0.2020004896368958
-0.005514991083798882,-0.1969647153004335
-0.005514651083798883,-0.1901845224029947
-0.005514311083798883,-0.1851816616243112
-0.005513971083798882,-0.1803104550766276
-0.005513631083798883,-0.1748797180471257
-0.005513291083798883,-0.1700414250572146
-0.005512951083798882,-0.1651702185095313
-0.005512611083798882,-0.159772395037784
-0.005512271083798883,-0.153452991948909
-0.005511931083798882,-0.1494046243450985
-0.005511591083798882,-0.145125861837006
-0.005511251083798883,-0.1385760638438492
-0.005510911083798882,-0.1325199692170107
-0.005510571083798882,-0.1273525406495452
-0.005510231083798883,-0.1220205442933069
-0.005509891083798882,-0.1193216325574333
-0.005509551083798882,-0.1145491666830225
-0.005509211083798883,-0.1087234669604659
-0.005508871083798882,-0.1064853450331566
-0.005508531083798882,-0.1068144806107016
-0.005508191083798883,-0.1048396671454281
-0.005507851083798882,-0.09410984731743749
-0.005507511083798882,-0.09134510846605973
-0.005507171083798883,-0.08578271720553957
-0.005506831083798882,-0.08571689009003024
-0.005506491083798882,-0.08558523585901223
-0.005506151083798883,-0.07926583277013727
-0.005505811083798882,-0.07617195834120909
-0.005505471083798882,-0.07627069901447256
-0.005505131083798883,-0.0740984042026718
-0.005504791083798882,-0.07001712304110821
-0.005504451083798882,-0.07083996198497064
-0.005504111083798883,-0.06991838236784306
-0.005503771083798882,-0.06675868082340289
-0.005503431083798882,-0.06527757072445051
-0.005503091083798883,-0.06336858437468618
-0.005502751083798882,-0.06241409119980146
-0.005502411083798882,-0.06099880821635807
-0.005502071083798883,-0.05971517946393035
-0.005501731083798882,-0.05632508301520719
-0.005501391083798882,-0.05425152887667387
-0.005501051083798883,-0.05431735599218298
-0.005500711083798882,-0.05181592560283377
-0.005500371083798882,-0.0502360748306179
-0.005500031083798883,-0.04862331050064461
-0.005499691083798883,-0.04697763261291973
-0.005499351083798882,-0.04645101568884383
-0.005499011083798883,-0.04592439876477092
-0.005498671083798883,-0.04207351250749475
-0.005498331083798882,-0.04102027865934191
-0.005497991083798883,-0.04503573270539787
-0.005497651083798883,-0.04325840058665503
-0.005497311083798882,-0.03493127047474884
-0.005496971083798883,-0.0321994451811206
-0.005496631083798883,-0.02940179277198834
-0.005496291083798882,-0.03170574181480225
-0.005495951083798883,-0.03302228412498454
-0.005495611083798883,-0.02765737421100149
-0.005495271083798882,-0.02604460988101842
-0.005494931083798883,-0.03002715036931984
-0.005494591083798883,-0.03006006392707434
-0.005494251083798882,-0.02769028776874628
-0.005493911083798883,-0.02749280642221894
-0.005493571083798883,-0.02772320132650042
-0.005493231083798882,-0.02594586920775475
-0.005492891083798883,-0.02597878276550931
-0.005492551083798883,-0.02505720314838339
-0.005492211083798882,-0.02449767266655424
-0.005491871083798882,-0.02439893199329057
-0.005491531083798883,-0.02430019132002708
-0.005491191083798882,-0.02321404391412651
-0.005490851083798882,-0.02324695747188107
-0.005490511083798883,-0.02584712853449108
-0.005490171083798882,-0.02344443881840842
-0.005489831083798882,-0.02324695747188107
-0.005489491083798883,-0.0238394015114631
-0.005489151083798882,-0.02416853708900867
-0.005488811083798882,-0.02318113035637196
-0.005488471083798883,-0.02285199477882639
-0.005488131083798882,-0.02140379823762683
-0.005487791083798882,-0.02193041516169879
-0.005487451083798883,-0.02607752343877298
-0.005487111083798882,-0.01709212217177183
-0.005486771083798882,-0.01320832235674115
-0.005486431083798883,-0.01979103390765257
-0.005486091083798882,-0.02002142881193041
-0.005485751083798882,-0.01778330688462459
-0.005485411083798883,-0.0201530830429527
-0.005485071083798882,-0.0222595507392416
-0.005484731083798882,-0.02074552708253473
-0.005484391083798883,-0.02166710669966233
-0.005484051083798882,-0.02206206939271264
-0.005483711083798882,-0.01965937967663435
-0.005483371083798883,-0.01913276275256143
-0.005483031083798882,-0.01979103390765048
-0.005482691083798882,-0.01863905938624308
-0.005482351083798883,-0.01673007303647877
-0.005482011083798882,-0.01751999842258311
-0.005481671083798882,-0.01475525957120534
-0.005481331083798883,-0.01505148159099635
-0.005480991083798882,-0.01646676457444027
-0.005480651083798882,-0.01534770361078737
-0.005480311083798883,-0.01584140697710572
-0.005479971083798882,-0.01745417130707765
-0.005479631083798882,-0.01669715947872421
-0.005479291083798883,-0.01528187649527825
-0.005478951083798883,-0.01613762899689518
-0.005478611083798882,-0.01590723409261484
-0.005478271083798883,-0.01307666812572293
-0.005477931083798883,-0.01199052071982452
-0.005477591083798882,-0.01172721225778608
-0.005477251083798883,-0.01172721225778608
-0.005476911083798883,-0.01327414947224746
-0.005476571083798882,-0.0129450138947047
-0.005476231083798883,-0.0134058037032685
-0.005475891083798883,-0.01745417130707166
-0.005475551083798882,-0.01814535601992472
-0.005475211083798883,-0.01715794928728801
-0.005474871083798883,-0.01692755438300653
-0.005474531083798882,-0.01771747976911548
-0.005474191083798883,-0.01699338149851522
-0.005473851083798883,-0.01676298659423374
-0.005473511083798882,-0.01544644428405104
-0.005473171083798883,-0.014557778224678
-0.005472831083798883,-0.01389950706958805
-0.005472491083798882,-0.01442612399365977
-0.005472151083798883,-0.007975066673766575
-0.005471811083798883,-0.01179303937328825
-0.005471471083798882,-0.0113322495647314
-0.005471131083798883,-0.009324522541703417
-0.005470791083798883,-0.01376785283856054
-0.005470451083798882,-0.01393242062734141
-0.005470111083798882,-0.01093728687167671
-0.005469771083798883,-0.01027901571658557
-0.005469431083798882,-0.01238548341287723
-0.005469091083798882,-0.01268170543266824
-0.005468751083798883,-0.01189178004655887
-0.005468411083798882,-0.0120234342775771
-0.005468071083798882,-0.0127146189904228
-0.005467731083798883,-0.01228674273961356
-0.005467391083798882,-0.01439321043590521
-0.005467051083798882,-0.01570975274608749
-0.005466711083798883,-0.01613762899689674
-0.005466371083798882,-0.01692755438300748
-0.005466031083798882,-0.01768456621136092
-0.005465691083798883,-0.01617054255465129
-0.005465351083798882,-0.01501856803323952
-0.005465011083798882,-0.01376785283856862
-0.005464671083798883,-0.01185886648880431
-0.005464331083798882,-0.01120059533371479
-0.005463991083798882,-0.01208926139308621
-0.005463651083798883,-0.01195760716206798
-0.005463311083798882,-0.01093728687167851
-0.005462971083798882,-0.01192469360431343
-0.005462631083798883,-0.0120234342775771
-0.005462291083798882,-0.01307666812573251
-0.005461951083798882,-0.01834283736645206
-0.005461611083798883,-0.01123350889146773
-0.005461271083798882,-0.0092257818684416
-0.005460931083798882,-0.01024610215883101
-0.005460591083798883,-0.0104106699476038
-0.005460251083798882,-0.01176012581554076
-0.005459911083798882,-0.01182595293104976
-0.005459571083798883,-0.009818225908021772
-0.005459231083798882,-0.006856005710114446
-0.005458891083798882,-0.008402942924575817
-0.005458551083798883,-0.00860042427110316
-0.005458211083798882,-0.008830819175387274
-0.005457871083798882,-0.01004862081230367
-0.005457531083798883,-0.01238548341287723
-0.005457191083798883,-0.01245131052838622
-0.005456851083798882,-0.01370202572305951
-0.005456511083798883,-0.01488691380222357
-0.005456171083798883,-0.01498565447548706
-0.005455831083798882,-0.01370202572305951
-0.005455491083798883,-0.01366911216530495
-0.005455151083798883,-0.01301084101021501
-0.005454811083798882,-0.01310958168347748
-0.005454471083798883,-0.01396533418509597
-0.005454131083798883,-0.01205634783533513
-0.005453791083798882,-0.01146390379574963
-0.005453451083798883,-0.01189178004655887
-0.005453111083798883,-0.01222091562410384
-0.005452771083798882,-0.009785312350267215
-0.005452431083798883,-0.009423263214967087
-0.005452091083798883,-0.01179303937329089
-0.005451751083798882,-0.01436029687815065
-0.005451411083798883,-0.01649967813219686
-0.005451071083798883,-0.009949880139051915
-0.005450731083798882,-0.01021318860107646
-0.005450391083798883,-0.01008153437005823
-0.005450051083798883,-0.01314249524122647
-0.005449711083798882,-0.01439321043590521
-0.005449371083798882,-0.01113476821820406
-0.005449031083798883,-0.01189178004655749
-0.005448691083798882,-0.01185886648880431
-0.005448351083798882,-0.01215508850859533
-0.005448011083798883,-0.0111018546604495
-0.005447671083798882,-0.01251713764389546
-0.005447331083798882,-0.01304375456796837
-0.005446991083798883,-0.01287918677919558
-0.005446651083798882,-0.01176012581554064
-0.005446311083798882,-0.01021318860107646
-0.005445971083798883,-0.01218800206634988
-0.005445631083798882,-0.01139807668023782
-0.005445291083798882,-0.009916966581285444
-0.005444951083798883,-0.009522003888230759
-0.005444611083798882,-0.008929559848647833
-0.005444271083798882,-0.008435856482330374
-0.005443931083798883,-0.00860042427110316
-0.005443591083798882,-0.008402942924575458
-0.005443251083798882,-0.008205461578048474
-0.005442911083798883,-0.008962473406403288
-0.005442571083798882,-0.009719485234755227
-0.005442231083798882,-0.008139634462539359
-0.005441891083798883,-0.009028300521912402
-0.005441551083798882,-0.009028300521923298
-0.005441211083798882,-0.0150185680332418
-0.005440871083798883,-0.01182595293104976
-0.005440531083798882,-0.00915995475292578
-0.005440191083798882,-0.006493956574811504
-0.005439851083798883,-0.007415536191939104
-0.005439511083798882,-0.01241839697063651
-0.005439171083798882,-0.0150185680332418
-0.005438831083798883,-0.01215508850859533
-0.005438491083798882,-0.01403116130061077
-0.005438151083798882,-0.01715794928728801
-0.005437811083798883,-0.01686172726749699
-0.005437471083798882,-0.0167629865942341
-0.005437131083798882,-0.01719086284504256
-0.005436791083798883,-0.01696046794076066
-0.005436451083798883,-0.01758582553809611
-0.005436111083798882,-0.01709212217177889
-0.005435771083798883,-0.01551227139956015
-0.005435431083798883,-0.01692755438300353
-0.005435091083798882,-0.01702629505626978
-0.005434751083798883,-0.01468943245569622
-0.005434411083798883,-0.01406407485836078
-0.005434071083798882,-0.01442612399365977
-0.005433731083798883,-0.01360328504979584
-0.005433391083798883,-0.01320832235674187
-0.005433051083798882,-0.01310958168347748
-0.005432711083798883,-0.01222091562410444
-0.005432371083798883,-0.01120059533371503
-0.005432031083798882,-0.01166138514227697
-0.005431691083798883,-0.009357436099457973
-0.005431351083798883,-0.00892955984864951
-0.005431011083798882,-0.01152973091125874
-0.005430671083798883,-0.01281335966368647
-0.005430331083798883,-0.003005119452846292
-0.005429991083798882,-0.003663390607919593
-0.005429651083798883,-0.004222921089747064
-0.005429311083798883,-0.003663390607920611
-0.005428971083798882,-0.009324522541703417
-0.005428631083798882,-0.01034484283209469
-0.005428291083798883,-0.007547190422962421
-0.005427951083798882,-0.01004862081230367
-0.005427611083798882,-0.01162847158452241
-0.005427271083798883,-0.01050941062086747
-0.005426931083798882,-0.01159555802676786
-0.005426591083798882,-0.01330706303000483
-0.005426251083798883,-0.01034484283209469
-0.005425911083798882,-0.01008153437005823
-0.005425571083798882,-0.01442612399365977
-0.005425231083798883,-0.01403116130060508
-0.005424891083798882,-0.01482108668671445
-0.005424551083798882,-0.01465651889794167
-0.005424211083798883,-0.01251713764389546
-0.005423871083798882,-0.01202343427757806
-0.005423531083798882,-0.01255005120165001
-0.005423191083798883,-0.01205634783533165
-0.005422851083798882,-0.01143099023799776
-0.005422511083798882,-0.01291210033695014
-0.005422171083798883,-0.0117930393732952
-0.005421831083798882,-0.01106894110269476
-0.005421491083798882,-0.01097020042943127
-0.005421151083798883,-0.008337115809066702
-0.005420811083798882,-0.008106720904791089
-0.005420471083798882,-0.0115626444690133
-0.005420131083798883,-0.01314249524123204
-0.005419791083798882,-0.006790178594605033
-0.005419451083798882,-0.008172548020293918
-0.005419111083798883,-0.01050941062086747
-0.005418771083798882,-0.01195760716207211
-0.005418431083798882,-0.01422864264713243
-0.005418091083798883,-0.01139807668024051
-0.005417751083798882,-0.0101144479278159
-0.005417411083798882,-0.01182595293104976
-0.005417071083798883,-0.01199052071982254
-0.005416731083798882,-0.01018027504332394
-0.005416391083798882,-0.01129933600697684
-0.005416051083798883,-0.01518313582201458
