Analysis/files/cmb03_wrd01/d2s04_ch33.csv

#Digilent WaveForms Oscilloscope Acquisition
#Device Name: ADP3450
#Serial Number: SN:210018B9D9B0
#Date Time: 2024-08-13 12:25:34.152.277.790
#Sample rate: 2.94118e+06Hz
#Samples: 32768
#Trigger: Source: Channel 3 Type: Edge Condition: Rising Level: 60 mV Hyst.: Auto HoldOff: 0 s
#Channel 3: Range: 200 mV/div Offset: 0 V Attenuation: 1 X Coupling: DC Bandwidth: 0 Hz Sample Mode: Average

Time (s),Channel 3 (V)
-0.005570481197916667,0.007823441048420837
-0.005570141197916666,0.008020922394946204
-0.005569801197916667,0.006934774989047795
-0.005569461197916667,0.005881541140901968
-0.005569121197916666,0.003544678540327635
-0.005568781197916667,0.003116802289519171
-0.005568441197916667,0.002162309114637015
-0.005568101197916666,0.002688926038709689
-0.005567761197916667,0.0025572718076917
-0.005567421197916667,0.002853493827482714
-0.005567081197916666,0.001372383728526686
-0.005566741197916667,0.0008457668044547304
-0.005566401197916667,0.001471124401791315
-0.005566061197916666,-0.0009973924297992103
-0.005565721197916667,-0.0003062077169547683
-0.005565381197916667,0.0002862363226272596
-0.005565041197916666,-0.00511158714911813
-0.005564701197916667,-0.004025439743219721
-0.005564361197916667,0.002491444692182586
-0.005564021197916666,0.002228136230147267
-0.005563681197916667,0.002853493827482714
-0.005563341197916667,-0.0005695161789912252
-0.005563001197916667,-0.002972205895069523
-0.005562661197916667,-0.001820231373664395
-0.005562321197916667,-0.0004049483902184396
-0.005561981197916667,-0.002379761855488274
-0.005561641197916667,-0.002643070317528323
-0.005561301197916667,-0.001984799162437181
-0.005560961197916667,-0.002610156759772628
-0.005560621197916667,-0.00438748887851985
-0.005560281197916667,-0.004321661763010735
-0.005559941197916667,-0.005671117630945122
-0.005559601197916667,-0.008271288693557588
-0.005559261197916667,-0.008106720904784802
-0.005558921197916667,-0.007613017538467344
-0.005558581197916667,-0.007481363307448217
-0.005558241197916667,-0.008271288693557588
-0.005557901197916667,-0.007876326000503621
-0.005557561197916666,-0.008501683597839487
-0.005557221197916667,-0.007876326000502903
-0.005556881197916667,-0.00718514128765846
-0.005556541197916666,-0.008337115809066702
-0.005556201197916667,-0.007645931096221003
-0.005555861197916667,-0.005506549842178682
-0.005555521197916666,-0.006461043017056948
-0.005555181197916667,-0.00665852436358429
-0.005554841197916667,-0.007119314172147252
-0.005554501197916666,-0.0111018546604495
-0.005554161197916667,-0.003465909261392251
-0.005553821197916667,-0.003005119452828451
-0.005553481197916666,-0.008205461578048474
-0.005553141197916667,-0.008501683597839487
-0.005552801197916667,-0.00517741426462922
-0.005552461197916666,-0.006691437921338847
-0.005552121197916667,-0.008172548020293918
-0.005551781197916667,-0.006954746383375304
-0.005551441197916666,-0.007744671769487488
-0.005551101197916667,-0.009291608983948858
-0.005550761197916667,-0.009916966581285444
-0.005550421197916666,-0.009851139465776688
-0.005550081197916667,-0.01004862081230367
-0.005549741197916667,-0.01057523773637659
-0.005549401197916666,-0.009785312350265958
-0.005549061197916667,-0.009094127637421515
-0.005548721197916667,-0.008205461578048474
-0.005548381197916666,-0.006888919267868584
-0.005548041197916667,-0.008205461578048474
-0.005547701197916667,-0.00860042427110316
-0.005547361197916666,-0.009225781868442678
-0.005547021197916667,-0.01083854619841304
-0.005546681197916667,-0.00586859897747492
-0.005546341197916666,-0.004749538013831473
-0.005546001197916667,-0.01106894110269494
-0.005545661197916667,-0.008962473406403288
-0.005545321197916666,-0.003926699069961618
-0.005544981197916667,-0.006987659941129861
-0.005544641197916667,-0.006625610805829733
-0.005544301197916666,-0.005309068495645533
-0.005543961197916667,-0.004255834647501621
-0.005543621197916667,-0.005769858304211248
-0.005543281197916666,-0.006559783690320918
-0.005542941197916667,-0.006724351479093405
-0.005542601197916667,-0.007547190422957332
-0.005542261197916667,-0.007481363307448337
-0.005541921197916667,-0.008139634462539359
-0.005541581197916667,-0.005309068495647449
-0.005541241197916667,-0.009357436099450609
-0.005540901197916667,-0.01001570725454911
-0.005540561197916667,-0.01146390379574963
-0.005540221197916667,-0.01215508850859407
-0.005539881197916667,-0.01113476821820406
-0.005539541197916667,-0.0104106699476038
-0.005539201197916667,-0.01195760716206517
-0.005538861197916667,-0.01120059533371317
-0.005538521197916667,-0.01159555802676786
-0.005538181197916667,-0.01176012581554034
-0.005537841197916667,-0.0115626444690133
-0.005537501197916667,-0.01399824774285052
-0.005537161197916667,-0.01449195110916798
-0.005536821197916666,-0.005572376957683906
-0.005536481197916667,-0.007744671769484675
-0.005536141197916667,-0.007942153116011657
-0.005535801197916666,-0.00267598387528288
-0.005535461197916667,-0.006066080324002262
-0.005535121197916667,-0.009522003888224473
-0.005534781197916666,-0.005572376957683906
-0.005534441197916667,-0.007152227729902647
-0.005534101197916667,-0.008205461578046559
-0.005533761197916666,-0.006790178594602518
-0.005533421197916667,-0.005144500706874663
-0.005533081197916667,-0.008139634462539359
-0.005532741197916666,-0.00860042427110316
-0.005532401197916667,-0.006066080324002262
-0.005532061197916667,-0.006987659941129861
-0.005531721197916666,-0.008172548020293918
-0.005531381197916667,-0.009522003888230759
-0.005531041197916667,-0.008501683597839487
-0.005530701197916666,-0.008106720904784802
-0.005530361197916667,-0.007152227729902647
-0.005530021197916667,-0.007415536191939104
-0.005529681197916666,-0.008863732733136981
-0.005529341197916667,-0.007415536191939104
-0.005529001197916667,-0.009522003888230759
-0.005528661197916666,-0.01047649706311716
-0.005528321197916667,-0.01281335966368647
-0.005527981197916667,-0.01162847158452241
-0.005527641197916666,-0.01268170543266639
-0.005527301197916667,-0.01166138514227697
-0.005526961197916667,-0.0136361986075504
-0.005526621197916666,-0.01768456621134188
-0.005526281197916667,-0.007218054845411761
-0.005525941197916667,-0.009818225908021772
-0.005525601197916666,-0.011299336006969
-0.005525261197916667,-0.006987659941129861
-0.005524921197916667,-0.009653658119248986
-0.005524581197916666,-0.01304375456796316
-0.005524241197916667,-0.0101802750433219
-0.005523901197916667,-0.0108714597561676
-0.005523561197916666,-0.01590723409262352
-0.005523221197916667,-0.02067969996702562
-0.005522881197916667,-0.03285771633621175
-0.005522541197916666,-0.05214506118042933
-0.005522201197916667,-0.07804803113321865
-0.005521861197916667,-0.1053004569539919
-0.005521521197916666,-0.1374570028802541
-0.005521181197916667,-0.1703376470769968
-0.005520841197916667,-0.1971621966469608
-0.005520501197916667,-0.2227360310222052
-0.005520161197916667,-0.2443602384669957
-0.005519821197916667,-0.2580522784928915
-0.005519481197916667,-0.2675313831261867
-0.005519141197916667,-0.2728304659246876
-0.005518801197916667,-0.2711518744792052
-0.005518461197916667,-0.2679921729347735
-0.005518121197916667,-0.2624956087897567
-0.005517781197916667,-0.2566699090672001
-0.005517441197916667,-0.2483427789553123
-0.005517101197916667,-0.2420562894241767
-0.005516761197916667,-0.2345190846983831
-0.005516421197916667,-0.2275084968966752
-0.005516081197916666,-0.2258299054511801
-0.005515741197916667,-0.2101630519600109
-0.005515401197916667,-0.2012105642507876
-0.005515061197916666,-0.197524245782261
-0.005514721197916667,-0.1860374141259205
-0.005514381197916667,-0.1802117144033745
-0.005514041197916666,-0.177677370456263
-0.005513701197916667,-0.1698110301529239
-0.005513361197916667,-0.1614839000410361
-0.005513021197916666,-0.1583900256120926
-0.005512681197916667,-0.1533871648333999
-0.005512341197916667,-0.1471665024177886
-0.005512001197916666,-0.1440068008733511
-0.005511661197916667,-0.141340802695232
-0.005511321197916667,-0.1318616980619195
-0.005510981197916666,-0.1282082931511637
-0.005510641197916667,-0.1259043441083447
-0.005510301197916667,-0.1222509391975888
-0.005509961197916666,-0.1171493377456325
-0.005509621197916667,-0.1140554633167041
-0.005509281197916667,-0.1114223786963396
-0.005508941197916666,-0.1074727517657896
-0.005508601197916667,-0.1057612467625557
-0.005508261197916667,-0.1009887808881449
-0.005507921197916666,-0.09697332684208383
-0.005507581197916667,-0.09414276087519707
-0.005507241197916667,-0.09177298471686898
-0.005506901197916666,-0.08673721038041532
-0.005506561197916667,-0.08321545970068411
-0.005506221197916667,-0.08038489373379221
-0.005505881197916666,-0.07683022949630167
-0.005505541197916667,-0.07771889555567307
-0.005505201197916667,-0.06817396380685153
-0.005504861197916666,-0.06363189283672599
-0.005504521197916667,-0.06547505207097784
-0.005504181197916667,-0.05994557436821225
-0.005503841197916666,-0.05882651340456407
-0.005503501197916667,-0.06254574543082225
-0.005503161197916667,-0.06053801840779428
-0.005502821197916666,-0.05560098474461023
-0.005502481197916667,-0.05533767628257425
-0.005502141197916667,-0.05379073906811007
-0.005501801197916666,-0.05036772906163278
-0.005501461197916667,-0.04852456982738093
-0.005501121197916667,-0.04806378001881713
-0.005500781197916666,-0.04638518857333101
-0.005500441197916667,-0.04434454799255218
-0.005500101197916667,-0.04496990558988876
-0.005499761197916667,-0.04520030049417025
-0.005499421197916667,-0.04266595654706976
-0.005499081197916667,-0.04190894471871495
-0.005498741197916667,-0.04138232779464299
-0.005498401197916667,-0.04006578548445976
-0.005498061197916667,-0.04220516673850597
-0.005497721197916667,-0.03842010759673879
-0.005497381197916667,-0.03766309576837708
-0.005497041197916667,-0.03707065172879506
-0.005496701197916667,-0.03674151615125008
-0.005496361197916667,-0.0345033942239396
-0.005496021197916667,-0.03377929595333935
-0.005495681197916667,-0.03535914672555521
-0.005495341197916667,-0.03430591287741226
-0.005495001197916667,-0.03743270086409518
-0.005494661197916667,-0.03032337238912378
-0.005494321197916666,-0.02785485555751907
-0.005493981197916667,-0.02910557075219224
-0.005493641197916667,-0.02578130141898802
-0.005493301197916666,-0.0233786117028993
-0.005492961197916667,-0.02673579459386412
-0.005492621197916667,-0.02426727776227683
-0.005492281197916666,-0.02021891015846182
-0.005491941197916667,-0.02018599660070726
-0.005491601197916667,-0.02189750160394112
-0.005491261197916666,-0.02087718131355296
-0.005490921197916667,-0.02005434236968903
-0.005490581197916667,-0.0208442677557984
-0.005490241197916666,-0.0215354524686441
-0.005489901197916667,-0.01946189833010701
-0.005489561197916667,-0.02025182371621638
-0.005489221197916666,-0.02002142881193448
-0.005488881197916667,-0.0190011085215432
-0.005488541197916667,-0.01949481188786156
-0.005488201197916666,-0.01975812034989784
-0.005487861197916667,-0.01965937967663435
-0.005487521197916667,-0.01972520679214346
-0.005487181197916666,-0.01840866448195711
-0.005486841197916667,-0.01617054255465129
-0.005486501197916667,-0.01607180188138762
-0.005486161197916666,-0.01801370178890224
-0.005485821197916667,-0.01567683918833294
-0.005485481197916667,-0.01528187649527825
-0.005485141197916666,-0.01547935784180763
-0.005484801197916667,-0.01659841880546054
-0.005484461197916667,-0.01807952890441561
-0.005484121197916666,-0.02077844064027402
-0.005483781197916667,-0.01238548341287723
-0.005483441197916667,-0.01429446976264154
-0.005483101197916666,-0.01511730870649391
-0.005482761197916667,-0.008764992059875945
-0.005482421197916667,-0.01304375456796837
-0.005482081197916666,-0.01544644428404691
-0.005481741197916667,-0.0131754087989866
-0.005481401197916667,-0.0129450138947047
-0.005481061197916666,-0.01462360534018885
-0.005480721197916667,-0.01557809851506927
-0.005480381197916667,-0.01297792745245925
-0.005480041197916666,-0.01485400024446745
-0.005479701197916667,-0.01399824774285052
-0.005479361197916667,-0.01333997658775938
-0.005479021197916667,-0.01274753254817843
-0.005478681197916667,-0.01380076639632318
-0.005478341197916667,-0.01366911216530495
-0.005478001197916667,-0.0119246936043166
-0.005477661197916667,-0.01301084101021381
-0.005477321197916667,-0.01241839697063178
-0.005476981197916667,-0.01327414947224871
-0.005476641197916667,-0.0131754087989866
-0.005476301197916667,-0.01333997658775938
-0.005475961197916667,-0.01212217495084299
-0.005475621197916667,-0.01320832235674115
-0.005475281197916667,-0.01264879187491368
-0.005474941197916667,-0.01031192927434438
-0.005474601197916667,-0.01106894110269494
-0.005474261197916667,-0.0104106699476038
-0.005473921197916667,-0.01271461899041861
-0.005473581197916666,-0.01436029687815065
-0.005473241197916667,-0.004552056667292635
-0.005472901197916667,-0.00830420225130532
-0.005472561197916666,-0.008534597155594046
-0.005472221197916667,-0.006362302343793276
-0.005471881197916667,-0.0109043733139139
-0.005471541197916666,-0.01495274091773268
-0.005471201197916667,-0.01287918677919558
-0.005470861197916667,-0.01222091562410564
-0.005470521197916666,-0.01360328504979584
-0.005470181197916667,-0.01412990197386875
-0.005469841197916667,-0.01199052071982254
-0.005469501197916666,-0.01284627322144103
-0.005469161197916667,-0.01347163081877761
-0.005468821197916667,-0.0127146189904228
-0.005468481197916666,-0.01301084101021381
-0.005468141197916667,-0.01393242062734141
-0.005467801197916667,-0.01436029687815065
-0.005467461197916666,-0.01304375456796837
-0.005467121197916667,-0.01485400024446901
-0.005466781197916667,-0.0138665935118323
-0.005466441197916666,-0.01268170543266776
-0.005466101197916667,-0.01241839697063178
-0.005465761197916667,-0.01215508850859533
-0.005465421197916666,-0.01004862081230259
-0.005465081197916667,-0.009456176772721644
-0.005464741197916667,-0.009028300521912402
-0.005464401197916666,-0.006790178594599824
-0.005464061197916667,-0.005309068495647449
-0.005463721197916667,-0.005572376957683906
-0.005463381197916666,-0.006592697248084216
-0.005463041197916667,-0.0115626444690133
-0.005462701197916667,-0.008007980231521132
-0.005462361197916666,-0.004519143109552148
-0.005462021197916667,-0.012253829181859
-0.005461681197916667,-0.01459069178243255
-0.005461341197916666,-0.01001570725454858
-0.005461001197916667,-0.009719485234758102
-0.005460661197916667,-0.01060815129413114
-0.005460321197916666,-0.008402942924572105
-0.005459981197916667,-0.006362302343793276
-0.005459641197916667,-0.006954746383375304
-0.005459301197916666,-0.005473636284418917
-0.005458961197916667,-0.004749538013819977
-0.005458621197916667,-0.006461043017056948
-0.005458281197916666,-0.007349709076430887
-0.005457941197916667,-0.007843412442748346
-0.005457601197916667,-0.009489090330476201
-0.005457261197916667,-0.01152973091125503
-0.005456921197916667,-0.01057523773637659
-0.005456581197916667,-0.01159555802676786
-0.005456241197916667,-0.01090437331392342
-0.005455901197916667,-0.009818225908021772
-0.005455561197916667,-0.009884053023530886
-0.005455221197916667,-0.01037775638984834
-0.005454881197916667,-0.008896646290894173
-0.005454541197916667,-0.00837002936682126
-0.005454201197916667,-0.007942153116012795
-0.005453861197916667,-0.006691437921338847
-0.005453521197916667,-0.008732078502121389
-0.005453181197916667,-0.008139634462540436
-0.005452841197916667,-0.008238375135803031
-0.005452501197916667,-0.009258695426194301
-0.005452161197916667,-0.01004862081230224
-0.005451821197916666,-0.009159954752930631
-0.005451481197916667,-0.007744671769484675
-0.005451141197916667,-0.01106894110268889
-0.005450801197916666,-0.009489090330476201
-0.005450461197916667,-0.01357037149204128
-0.005450121197916667,-0.009127041195184156
-0.005449781197916666,-0.01067397840964026
-0.005449441197916667,-0.009159954752930631
-0.005449101197916667,-0.007876326000505238
-0.005448761197916666,-0.01314249524123204
-0.005448421197916667,-0.01212217495084077
-0.005448081197916667,-0.009686571677003543
-0.005447741197916666,-0.008666251386612273
-0.005447401197916667,-0.00619773455502049
-0.005447061197916667,-0.008139634462539359
-0.005446721197916666,-0.008205461578048474
-0.005446381197916667,-0.007942153116012016
-0.005446041197916667,-0.007580103980711889
-0.005445701197916666,-0.008699164944365154
-0.005445361197916667,-0.007777585327239231
-0.005445021197916667,-0.007975066673766575
-0.005444681197916666,-0.00935743609945462
-0.005444341197916667,-0.007514276865202775
-0.005444001197916667,-0.009028300521912402
-0.005443661197916666,-0.01057523773637832
-0.005443321197916667,-0.01152973091125874
-0.005442981197916667,-0.01383367995407774
-0.005442641197916666,-0.01317540879898636
-0.005442301197916667,-0.01304375456796837
-0.005441961197916667,-0.01215508850859533
-0.005441621197916666,-0.01271461899042034
-0.005441281197916667,-0.01136516312248596
-0.005440941197916667,-0.008995386964157845
-0.005440601197916666,-0.01031192927434288
-0.005440261197916667,-0.01182595293104976
-0.005439921197916667,-0.009522003888230759
-0.005439581197916666,-0.001984799162448736
-0.005439241197916667,-0.008337115809066702
-0.005438901197916667,-0.006098993881756819
-0.005438561197916666,-0.00372921772344134
-0.005438221197916667,-0.01067397840964026
-0.005437881197916667,-0.01235256985512267
-0.005437541197916666,-0.01139807668024488
-0.005437201197916667,-0.01380076639632318
-0.005436861197916667,-0.01301084101021381
-0.005436521197916667,-0.0131095816834773
-0.005436181197916667,-0.01429446976264154
-0.005435841197916667,-0.01337289014551394
-0.005435501197916667,-0.01070689196739966
-0.005435161197916667,-0.009258695426194301
-0.005434821197916667,-0.01057523773637659
-0.005434481197916667,-0.009028300521915215
-0.005434141197916667,-0.01004862081230367
-0.005433801197916667,-0.007777585327239231
-0.005433461197916667,-0.007876326000502722
-0.005433121197916667,-0.01047649706311291
-0.005432781197916667,-0.008732078502121389
-0.005432441197916667,-0.00751427686520499
-0.005432101197916667,-0.007382622634184546
-0.005431761197916667,-0.009587831003739873
-0.005431421197916667,-0.009489090330476381
-0.005431081197916666,-0.0101802750433219
-0.005430741197916667,-0.009127041195176074
-0.005430401197916667,-0.008370029366822638
-0.005430061197916666,-0.009785312350267215
-0.005429721197916667,-0.01189178004655887
-0.005429381197916667,-0.01353745793428373
-0.005429041197916666,-0.004222921089747064
-0.005428701197916667,-0.008764992059875945
-0.005428361197916667,-0.009061214079666419
-0.005428021197916666,-0.004124180416483393
-0.005427681197916667,-0.007975066673766575
-0.005427341197916667,-0.01044358350535836
-0.005427001197916666,-0.006790178594602518
-0.005426661197916667,-0.007185141287657204
-0.005426321197916667,-0.00790923955825746
-0.005425981197916666,-0.006757265036847961
-0.005425641197916667,-0.007711758211730118
-0.005425301197916667,-0.008534597155594046
-0.005424961197916666,-0.008435856482330374
-0.005424621197916667,-0.008106720904784802
-0.005424281197916667,-0.00962074456149443
-0.005423941197916666,-0.009258695426194721
-0.005423601197916667,-0.009489090330476201
-0.005423261197916667,-0.008929559848648731
-0.005422921197916666,-0.00748136330745133
-0.005422581197916667,-0.009192868310685188
-0.005422241197916667,-0.009061214079666959
-0.005421901197916666,-0.009291608983946343
-0.005421561197916667,-0.00790923955825746
-0.005421221197916667,-0.01073980552514937
-0.005420881197916666,-0.01004862081230397
-0.005420541197916667,-0.01021318860107646
-0.005420201197916667,-0.01054232417862203
-0.005419861197916666,-0.009324522541703297
-0.005419521197916667,-0.009258695426194301
-0.005419181197916667,-0.01189178004655887
-0.005418841197916666,-0.013570371492025
-0.005418501197916667,-0.004617883782801749
-0.005418161197916667,-0.008896646290894173
-0.005417821197916666,-0.008962473406394188
-0.005417481197916667,-0.003959612627710607
-0.005417141197916667,-0.009949880139040001
-0.005416801197916666,-0.01287918677918535
