Analysis/files/cmb03_wrd01/d2s06_ch34.csv

#Digilent WaveForms Oscilloscope Acquisition
#Device Name: ADP3450
#Serial Number: SN:210018B9D9B0
#Date Time: 2024-08-13 16:02:48.958.773.620
#Sample rate: 2.94118e+06Hz
#Samples: 32768
#Trigger: Source: Channel 3 Type: Edge Condition: Rising Level: 60 mV Hyst.: Auto HoldOff: 0 s
#Channel 3: Range: 200 mV/div Offset: 0 V Attenuation: 1 X Coupling: DC Bandwidth: 0 Hz Sample Mode: Average

Time (s),Channel 3 (V)
-0.005570300516684608,0.004170036137664999
-0.005569960516684607,0.003775073444621209
-0.005569620516684607,0.009765340955939707
-0.005569280516684608,0.007593046144138938
-0.005568940516684607,0.007922181721677503
-0.005568600516684607,0.004071295464401327
-0.005568260516684608,2.292786059080275e-05
-0.005567920516684607,0.00173443286382903
-0.005567580516684607,0.002425617576673472
-0.005567240516684608,-0.0005036890634821109
-0.005566900516684607,0.001471124401792333
-0.005566560516684607,0.002030654883618786
-0.005566220516684608,0.0006153719001728307
-0.005565880516684607,-7.581281267664035e-05
-0.005565540516684607,-0.002149366951209966
-0.005565200516684608,-0.003169687241601236
-0.005564860516684607,-0.004782451571576212
-0.005564520516684607,-0.005704031188702134
-0.005564180516684608,-0.005934426092984033
-0.005563840516684607,-0.006230648112769659
-0.005563500516684607,-0.003268427914864908
-0.005563160516684608,-0.003762131281183265
-0.005562820516684608,-0.003005119452829828
-0.005562480516684607,-0.00244558897100098
-0.005562140516684608,-0.002281021182228195
-0.005561800516684608,-0.004815365129324482
-0.005561460516684607,-0.003795044838937822
-0.005561120516684608,-0.004716624456065421
-0.005560780516684608,-0.006856005710107742
-0.005560440516684607,-0.005309068495647449
-0.005560100516684608,-0.006823092152357076
-0.005559760516684608,-0.009818225908016323
-0.005559420516684607,-0.01136516312248596
-0.005559080516684608,-0.003729217723428708
-0.005558740516684608,-0.003827958396692199
-0.005558400516684607,-0.003400082145883136
-0.005558060516684608,-0.00392669906995605
-0.005557720516684608,-0.008073807347022701
-0.005557380516684607,-0.005638204073193019
-0.005557040516684607,-0.002610156759773766
-0.005556700516684608,-0.005045760033606561
-0.005556360516684607,-0.005835685419720362
-0.005556020516684607,-0.004058353300974278
-0.005555680516684608,-0.005276154937890676
-0.005555340516684607,-0.007152227729902647
-0.005555000516684607,-0.00767884465397556
-0.005554660516684608,-0.007580103980712068
-0.005554320516684607,-0.008304202251312145
-0.005553980516684607,-0.006856005710111633
-0.005553640516684608,-0.008567510713348603
-0.005553300516684607,-0.009324522541703417
-0.005552960516684607,-0.009094127637421515
-0.005552620516684608,-0.009489090330476201
-0.005552280516684607,-0.01146390379574963
-0.005551940516684607,-0.01231965629736811
-0.005551600516684608,-0.01310958168347748
-0.005551260516684607,-0.01422864264713135
-0.005550920516684607,-0.0136361986075504
-0.005550580516684608,-0.01301084101021381
-0.005550240516684607,-0.01366911216530106
-0.005549900516684607,-0.01152973091125874
-0.005549560516684608,-0.01143099023799507
-0.005549220516684607,-0.01574266630383199
-0.005548880516684607,-0.01021318860107646
-0.005548540516684608,-0.007382622634184546
-0.005548200516684607,-0.007876326000500807
-0.005547860516684607,-0.006724351479093405
-0.005547520516684608,-0.00837002936682126
-0.005547180516684607,-0.01149681735349934
-0.005546840516684607,-0.008830819175385059
-0.005546500516684608,-0.008304202251312145
-0.005546160516684607,-0.01037775638985008
-0.005545820516684607,-0.01083854619841304
-0.005545480516684608,-0.0111018546604495
-0.005545140516684607,-0.01018027504332328
-0.005544800516684607,-0.01093728687167671
-0.005544460516684608,-0.009686571677003543
-0.005544120516684607,-0.009159954752931769
-0.005543780516684607,-0.009785312350267215
-0.005543440516684608,-0.008995386964157845
-0.005543100516684607,-0.01031192927434216
-0.005542760516684607,-0.01143099023799507
-0.005542420516684608,-0.01031192927434013
-0.005542080516684608,-0.01050941062086711
-0.005541740516684607,-0.01123350889146773
-0.005541400516684608,-0.0115626444690133
-0.005541060516684608,-0.01004862081230643
-0.005540720516684607,-0.01044358350535836
-0.005540380516684608,-0.009522003888230759
-0.005540040516684608,-0.008929559848649809
-0.005539700516684607,-0.01047649706311291
-0.005539360516684608,-0.01139807668024051
-0.005539020516684608,-0.0127146189904204
-0.005538680516684607,-0.01807952890441561
-0.005538340516684608,-0.01162847158452241
-0.005538000516684608,-0.009554917445989087
-0.005537660516684607,-0.009522003888230759
-0.005537320516684608,-0.01123350889146773
-0.005536980516684608,-0.01491982735997142
-0.005536640516684607,-0.01357037149204128
-0.005536300516684608,-0.0143273833203961
-0.005535960516684608,-0.01403116130060562
-0.005535620516684607,-0.01488691380222357
-0.005535280516684607,-0.01445903755141432
-0.005534940516684608,-0.01340580370327041
-0.005534600516684607,-0.01301084101021381
-0.005534260516684607,-0.01357037149204128
-0.005533920516684608,-0.01238548341287938
-0.005533580516684607,-0.006263561670529605
-0.005533240516684607,-0.01310958168347748
-0.005532900516684608,-0.01373493928081407
-0.005532560516684607,-0.01376785283856862
-0.005532220516684607,-0.01343871726102305
-0.005531880516684608,-0.01429446976264154
-0.005531540516684607,-0.01238548341287723
-0.005531200516684607,-0.01307666812572293
-0.005530860516684608,-0.01366911216530495
-0.005530520516684607,-0.009752398792512659
-0.005530180516684607,-0.01129933600697684
-0.005529840516684608,-0.01034484283209469
-0.005529500516684607,-0.008797905617632537
-0.005529160516684607,-0.009916966581285444
-0.005528820516684608,-0.009554917445985316
-0.005528480516684607,-0.01330706303000435
-0.005528140516684607,-0.01304375456796837
-0.005527800516684608,-0.01113476821820406
-0.005527460516684607,-0.01021318860107694
-0.005527120516684607,-0.01047649706311291
-0.005526780516684608,-0.01791496111564282
-0.005526440516684607,-0.01939607121459196
-0.005526100516684607,-0.01613762899689674
-0.005525760516684608,-0.01728960351830624
-0.005525420516684607,-0.01781622044237699
-0.005525080516684607,-0.01663133236321509
-0.005524740516684608,-0.01541353072629648
-0.005524400516684607,-0.01389950706958626
-0.005524060516684607,-0.01357037149204128
-0.005523720516684608,-0.01689464082525155
-0.005523380516684607,-0.02100883554458777
-0.005523040516684607,-0.03012589104258351
-0.005522700516684608,-0.04664849703537118
-0.005522360516684607,-0.0705437399652292
-0.005522020516684607,-0.09779616578595293
-0.005521680516684608,-0.1268917508409814
-0.005521340516684607,-0.159739481480085
-0.005521000516684607,-0.190316176634013
-0.005520660516684608,-0.2186218363029321
-0.005520320516684608,-0.2413321911535352
-0.005519980516684607,-0.2567357361827092
-0.005519640516684608,-0.2682225678390496
-0.005519300516684608,-0.2748052793899491
-0.005518960516684607,-0.2740153540038517
-0.005518620516684608,-0.2719747134230691
-0.005518280516684608,-0.2692099745716914
-0.005517940516684607,-0.2676630373572221
-0.005517600516684608,-0.2567028226249546
-0.005517260516684608,-0.2502846788628277
-0.005516920516684607,-0.241661326731122
-0.005516580516684608,-0.2325771847908643
-0.005516240516684608,-0.2303390628635585
-0.005515900516684607,-0.2231968208308155
-0.005515560516684608,-0.2115783349434568
-0.005515220516684608,-0.204304438679713
-0.005514880516684607,-0.1980508627063339
-0.005514540516684607,-0.1890325478815852
-0.005514200516684608,-0.1812320346937694
-0.005513860516684607,-0.1744518417963164
-0.005513520516684607,-0.1668488099550137
-0.005513180516684608,-0.1625371338891746
-0.005512840516684607,-0.1568430883976284
-0.005512500516684607,-0.15114904290609
-0.005512160516684608,-0.146541144820452
-0.005511820516684607,-0.1440397144311057
-0.005511480516684607,-0.138214014708549
-0.005511140516684608,-0.1341656471047385
-0.005510800516684607,-0.1310388591180556
-0.005510460516684607,-0.1261676525703812
-0.005510120516684608,-0.1225142476596253
-0.005509780516684607,-0.1188279291911149
-0.005509440516684607,-0.1149112158183226
-0.005509100516684608,-0.1108299346567575
-0.005508760516684607,-0.108920948306986
-0.005508420516684607,-0.1049384078186918
-0.005508080516684608,-0.1011862622346723
-0.005507740516684607,-0.1012520893501775
-0.005507400516684607,-0.0991127080961352
-0.005507060516684608,-0.0884487153836587
-0.005506720516684607,-0.08548649518573909
-0.005506380516684607,-0.08028615306052853
-0.005506040516684608,-0.07821259892199145
-0.005505700516684607,-0.081240646235405
-0.005505360516684607,-0.07811385824872777
-0.005505020516684608,-0.07360470083635345
-0.005504680516684607,-0.07261729410371373
-0.005504340516684607,-0.07097161621598888
-0.005504000516684608,-0.06784482822930596
-0.005503660516684607,-0.06563961985974769
-0.005503320516684607,-0.06402685552977733
-0.005502980516684608,-0.06126211667839453
-0.005502640516684607,-0.05899108119332883
-0.005502300516684607,-0.05829989648048439
-0.005501960516684608,-0.05573263897562894
-0.005501620516684607,-0.05283624589322719
-0.005501280516684607,-0.05244128320017322
-0.005500940516684608,-0.04895244607819017
-0.005500600516684607,-0.04743842242147767
-0.005500260516684607,-0.0458585716492618
-0.005499920516684608,-0.04510155982090699
-0.005499580516684608,-0.04424580731929006
-0.005499240516684607,-0.04523321405192522
-0.005498900516684608,-0.04352170904868825
-0.005498560516684608,-0.04362044972195174
-0.005498220516684607,-0.04506864626315243
-0.005497880516684608,-0.04345588193317913
-0.005497540516684608,-0.04125067356362782
-0.005497200516684607,-0.04467368357009775
-0.005496860516684608,-0.04207351250748774
-0.005496520516684608,-0.03361472816458194
-0.005496180516684607,-0.03193613671908415
-0.005495840516684608,-0.03078416219767465
-0.005495500516684608,-0.03144243335276459
-0.005495160516684607,-0.03364764172232112
-0.005494820516684608,-0.03104747065971111
-0.005494480516684608,-0.02920431142545926
-0.005494140516684607,-0.03071833508216553
-0.005493800516684607,-0.03121203844848389
-0.005493460516684608,-0.03042211306237596
-0.005493120516684607,-0.03137660623725668
-0.005492780516684607,-0.03177156893031136
-0.005492440516684608,-0.03101455710195793
-0.005492100516684607,-0.02979675546503794
-0.005491760516684607,-0.03061959440890186
-0.005491420516684608,-0.02907265719444049
-0.005491080516684607,-0.0277561148842554
-0.005490740516684607,-0.02663705392060045
-0.005490400516684608,-0.02601169632326387
-0.005490060516684607,-0.02374066083819943
-0.005489720516684607,-0.01873780005950675
-0.005489380516684608,-0.02541925228368184
-0.005489040516684607,-0.0231482167986174
-0.005488700516684607,-0.02347735237616297
-0.005488360516684608,-0.02186458804618967
-0.005488020516684607,-0.01949481188786156
-0.005487680516684607,-0.01949481188786156
-0.005487340516684608,-0.01778330688462459
-0.005487000516684607,-0.01699338149852073
-0.005486660516684607,-0.02002142881193448
-0.005486320516684608,-0.02146962535313499
-0.005485980516684607,-0.01478817312896205
-0.005485640516684607,-0.01597306120812395
-0.005485300516684608,-0.01574266630384205
-0.005484960516684607,-0.0184415780397207
-0.005484620516684607,-0.02117340333334397
-0.005484280516684608,-0.01988977458091625
-0.005483940516684607,-0.01863905938624368
-0.005483600516684607,-0.01896819496378865
-0.005483260516684608,-0.02021891015846182
-0.005482920516684607,-0.01877071361725682
-0.005482580516684607,-0.01630219678566952
-0.005482240516684608,-0.01613762899689674
-0.005481900516684607,-0.01659841880545796
-0.005481560516684607,-0.01518313582201458
-0.005481220516684608,-0.01567683918833294
-0.005480880516684607,-0.01478817312896049
-0.005480540516684607,-0.01511730870650547
-0.005480200516684608,-0.01640093745893319
-0.005479860516684607,-0.01742125774932231
-0.005479520516684607,-0.01623636967016041
-0.005479180516684608,-0.01728960351830624
-0.005478840516684608,-0.01873780005950412
-0.005478500516684607,-0.01761873909585181
-0.005478160516684608,-0.01659841880546054
-0.005477820516684608,-0.01633511034342456
-0.005477480516684607,-0.01505148159099635
-0.005477140516684608,-0.01468943245569622
-0.005476800516684608,-0.01416281553162427
-0.005476460516684607,-0.0134058037032685
-0.005476120516684608,-0.01636802390117864
-0.005475780516684608,-0.012023434277585
-0.005475440516684607,-0.01024610215883101
-0.005475100516684608,-0.009785312350267215
-0.005474760516684608,-0.01070689196739314
-0.005474420516684607,-0.01515022226426002
-0.005474080516684608,-0.01491982735997812
-0.005473740516684608,-0.01360328504979823
-0.005473400516684607,-0.01383367995407774
-0.005473060516684608,-0.0131754087989866
-0.005472720516684608,-0.01347163081877707
-0.005472380516684607,-0.01129933600697684
-0.005472040516684607,-0.009686571677003543
-0.005471700516684608,-0.008106720904787677
-0.005471360516684607,-0.009884053023530886
-0.005471020516684607,-0.008863732733139616
-0.005470680516684608,-0.009192868310684589
-0.005470340516684607,-0.01057523773637659
-0.005470000516684607,-0.01185886648880431
-0.005469660516684608,-0.01301084101021381
-0.005469320516684607,-0.01399824774285052
-0.005468980516684607,-0.0131754087989866
-0.005468640516684608,-0.01337289014551394
-0.005468300516684607,-0.01521604937976914
-0.005467960516684607,-0.01416281553162331
-0.005467620516684608,-0.01310958168347748
-0.005467280516684607,-0.01360328504979584
-0.005466940516684607,-0.01284627322144103
-0.005466600516684608,-0.01366911216530495
-0.005466260516684607,-0.01393242062734249
-0.005465920516684607,-0.01452486466692344
-0.005465580516684608,-0.01663133236321509
-0.005465240516684607,-0.0100486208123008
-0.005464900516684607,-0.008468770040084931
-0.005464560516684608,-0.0120234342775771
-0.005464220516684607,-0.01136516312248075
-0.005463880516684607,-0.008501683597839487
-0.005463540516684608,-0.008567510713348603
-0.005463200516684607,-0.00892955984864963
-0.005462860516684607,-0.009423263214967087
-0.005462520516684608,-0.00688891926786619
-0.005462180516684607,-0.008007980231525083
-0.005461840516684607,-0.0101802750433219
-0.005461500516684608,-0.009489090330476201
-0.005461160516684607,-0.01189178004656061
-0.005460820516684607,-0.01284627322144103
-0.005460480516684608,-0.01357037149204128
-0.005460140516684607,-0.01419572908938038
-0.005459800516684607,-0.01557809851506927
-0.005459460516684608,-0.01399824774285052
-0.005459120516684607,-0.01370202572305987
-0.005458780516684607,-0.01389950706958685
-0.005458440516684608,-0.01366911216530495
-0.005458100516684607,-0.01258296475940792
-0.005457760516684607,-0.01442612399365977
-0.005457420516684608,-0.01515022226426002
-0.005457080516684608,-0.01399824774285262
-0.005456740516684607,-0.01452486466692344
-0.005456400516684608,-0.01376785283856862
-0.005456060516684608,-0.0128791867791972
-0.005455720516684607,-0.0138665935118323
-0.005455380516684608,-0.01508439514875091
-0.005455040516684608,-0.008600424271114954
-0.005454700516684607,-0.0113322495647314
-0.005454360516684608,-0.008896646290894173
-0.005454020516684608,-0.009423263214966129
-0.005453680516684607,-0.01485400024446901
-0.005453340516684608,-0.01284627322144103
-0.005453000516684608,-0.01004862081230876
-0.005452660516684607,-0.0113322495647314
-0.005452320516684608,-0.01350454437653217
-0.005451980516684608,-0.01248422408614275
-0.005451640516684607,-0.01228674273961356
-0.005451300516684607,-0.01416281553162331
-0.005450960516684608,-0.01327414947225189
-0.005450620516684607,-0.01222091562410444
-0.005450280516684607,-0.01189178004655887
-0.005449940516684608,-0.01202343427757686
-0.005449600516684607,-0.01166138514227697
-0.005449260516684607,-0.01255005120165001
-0.005448920516684608,-0.01080563264066166
-0.005448580516684607,-0.01014736148556734
-0.005448240516684607,-0.0111018546604495
-0.005447900516684608,-0.01139807668024051
-0.005447560516684607,-0.009916966581285444
-0.005447220516684607,-0.0117930393732952
-0.005446880516684608,-0.01212217495084077
-0.005446540516684607,-0.01077271908290393
-0.005446200516684607,-0.004979932918101878
-0.005445860516684608,-0.01370202572305951
-0.005445520516684607,-0.01347163081878522
-0.005445180516684607,-0.01765165265360636
-0.005444840516684608,-0.01449195110916888
-0.005444500516684607,-0.01097020042943103
-0.005444160516684607,-0.01083854619841304
-0.005443820516684608,-0.009554917445985316
-0.005443480516684607,-0.0112335088914694
-0.005443140516684607,-0.01215508850859533
-0.005442800516684608,-0.0101802750433219
-0.005442460516684607,-0.008962473406405623
-0.005442120516684607,-0.01024610215883101
-0.005441780516684608,-0.01205634783533165
-0.005441440516684607,-0.01090437331392342
-0.005441100516684607,-0.01159555802676786
-0.005440760516684608,-0.01166138514227697
-0.005440420516684607,-0.01189178004655737
-0.005440080516684607,-0.01106894110269494
-0.005439740516684608,-0.01199052071982254
-0.005439400516684607,-0.01314249524122899
-0.005439060516684607,-0.01146390379574963
-0.005438720516684608,-0.01143099023799507
-0.005438380516684607,-0.01251713764389414
-0.005438040516684607,-0.0117930393732952
-0.005437700516684608,-0.01199052071982254
-0.005437360516684607,-0.01215508850859491
-0.005437020516684607,-0.01192469360431343
-0.005436680516684608,-0.01268170543266824
-0.005436340516684608,-0.0144261239936566
-0.005436000516684607,-0.01304375456796837
-0.005435660516684608,-0.01258296475940457
-0.005435320516684608,-0.0145577782246744
-0.005434980516684607,-0.01452486466692344
-0.005434640516684608,-0.01801370178890649
-0.005434300516684608,-0.008732078502138271
-0.005433960516684607,-0.007810498884993789
-0.005433620516684608,-0.007613017538466446
-0.005433280516684608,-0.009456176772718291
-0.005432940516684607,-0.01357037149204128
-0.005432600516684608,-0.01264879187491368
-0.005432260516684608,-0.01347163081877611
-0.005431920516684607,-0.01412990197386875
-0.005431580516684608,-0.0136361986075504
-0.005431240516684608,-0.01327414947225093
-0.005430900516684607,-0.01215508850859533
-0.005430560516684607,-0.0120234342775771
-0.005430220516684608,-0.01176012581554112
-0.005429880516684607,-0.01189178004655887
-0.005429540516684607,-0.01027901571658557
-0.005429200516684608,-0.01179303937329244
-0.005428860516684607,-0.01287918677919558
-0.005428520516684607,-0.01123350889146773
-0.005428180516684608,-0.01087145975616826
-0.005427840516684607,-0.0113322495647314
-0.005427500516684607,-0.0111018546604495
-0.005427160516684608,-0.009522003888230759
-0.005426820516684607,-0.009785312350267215
-0.005426480516684607,-0.009357436099457973
-0.005426140516684608,-0.008929559848648731
-0.005425800516684607,-0.01120059533371317
-0.005425460516684607,-0.01031192927434013
-0.005425120516684608,-0.01021318860107646
-0.005424780516684607,-0.01222091562410444
-0.005424440516684607,-0.01610471543914218
-0.005424100516684608,-0.01577557986159661
-0.005423760516684607,-0.01205634783533333
-0.005423420516684607,-0.01297792745245925
-0.005423080516684608,-0.01120059533371317
-0.005422740516684607,-0.0176516526536081
-0.005422400516684607,-0.01860614582848852
-0.005422060516684608,-0.0138665935118323
-0.005421720516684607,-0.01271461899042513
-0.005421380516684607,-0.01399824774285052
-0.005421040516684608,-0.01195760716206798
-0.005420700516684607,-0.01054232417862293
-0.005420360516684607,-0.01103602754494038
-0.005420020516684608,-0.01014736148556734
-0.005419680516684607,-0.01116768177596095
-0.005419340516684607,-0.01245131052838634
-0.005419000516684608,-0.01205634783533165
-0.005418660516684607,-0.01268170543267141
-0.005418320516684607,-0.01442612399365977
-0.005417980516684608,-0.01416281553162331
-0.005417640516684607,-0.01412990197387031
-0.005417300516684607,-0.01498565447548724
-0.005416960516684608,-0.01459069178243255
-0.005416620516684607,-0.01317540879898791
-0.005416280516684607,-0.01389950706958685
-0.005415940516684608,-0.01228674273961356
