Analysis/files/cmb03_wrd01/d2s02_ch39.csv

#Digilent WaveForms Oscilloscope Acquisition
#Device Name: ADP3450
#Serial Number: SN:210018B9D9B0
#Date Time: 2024-08-13 11:22:18.201.742.050
#Sample rate: 2.94118e+06Hz
#Samples: 32768
#Trigger: Source: Channel 3 Type: Edge Condition: Rising Level: 60 mV Hyst.: Auto HoldOff: 0 s
#Channel 3: Range: 200 mV/div Offset: 0 V Attenuation: 1 X Coupling: DC Bandwidth: 0 Hz Sample Mode: Average

Time (s),Channel 3 (V)
-0.005570536983372922,0.007099342777820581
-0.005570196983372922,0.003445937867067257
-0.005569856983372922,0.00482830729275614
-0.005569516983372922,0.002491444692182586
-0.005569176983372922,0.0022610497879035
-0.005568836983372922,0.00380798700236487
-0.005568496983372922,0.0025572718076917
-0.005568156983372922,0.002162309114638691
-0.005567816983372922,0.003083888731764614
-0.005567476983372922,0.001207815939754859
-0.005567136983372922,0.001306556613025714
-0.005566796983372922,0.005256183543565383
-0.005566456983372922,-9.985697163754359e-06
-0.005566116983372922,-0.002412675413250195
-0.005565776983372922,-0.004486229551783521
-0.005565436983372922,-0.002807638106301108
-0.005565096983372922,0.0002204092071206
-0.005564756983372922,0.001569865075054987
-0.005564416983372922,0.001800259979336887
-0.005564076983372922,-0.002248107624477709
-0.005563736983372922,-0.004486229551783521
-0.005563396983372922,-0.00188605848917351
-0.005563056983372922,-0.002577243202017951
-0.005562716983372922,-0.002083539835700852
-0.005562376983372922,-0.0006024297367457822
-0.005562036983372922,-0.002577243202015616
-0.005561696983372922,-0.001622750027137053
-0.005561356983372922,-0.001918972046928067
-0.005561016983372922,-0.001556922911628597
-0.005560676983372922,-0.003597563492410479
-0.005560336983372922,-0.003597563492410479
-0.005559996983372922,-0.005934426092979782
-0.005559656983372922,-0.003992526185465165
-0.005559316983372922,-0.002149366951209966
-0.005558976983372922,-0.003136773683844883
-0.005558636983372922,-0.003893785512201493
-0.005558296983372922,-0.003827958396692379
-0.005557956983372922,-0.003926699069955871
-0.005557616983372922,-0.003992526185465165
-0.005557276983372922,-0.004848278687083649
-0.005556936983372922,-0.006362302343790522
-0.005556596983372922,-0.006823092152357076
-0.005556256983372922,-0.006000253208493148
-0.005555916983372922,-0.007711758211727005
-0.005555576983372922,-0.01067397840964026
-0.005555236983372922,-0.01380076639632318
-0.005554896983372922,-0.00655978369033379
-0.005554556983372922,-0.006329388786038719
-0.005554216983372922,-0.005835685419720362
-0.005553876983372922,-0.008337115809066702
-0.005553536983372922,-0.01218800206634988
-0.005553196983372922,-0.009456176772721644
-0.005552856983372922,-0.00688891926786619
-0.005552516983372922,-0.01090437331392216
-0.005552176983372922,-0.01103602754494038
-0.005551836983372922,-0.008567510713348603
-0.005551496983372922,-0.009028300521915755
-0.005551156983372922,-0.0108714597561676
-0.005550816983372922,-0.01090437331392216
-0.005550476983372922,-0.009258695426195319
-0.005550136983372922,-0.009818225908021772
-0.005549796983372922,-0.00837002936682126
-0.005549456983372922,-0.009127041195176494
-0.005549116983372922,-0.009357436099457973
-0.005548776983372922,-0.006362302343793276
-0.005548436983372922,-0.00731679551867657
-0.005548096983372922,-0.007942153116012016
-0.005547756983372922,-0.008633337828857716
-0.005547416983372922,-0.008337115809069456
-0.005547076983372922,-0.009851139465776329
-0.005546736983372922,-0.009094127637421515
-0.005546396983372922,-0.01014736148556962
-0.005546056983372922,-0.01139807668024051
-0.005545716983372922,-0.009884053023530886
-0.005545376983372922,-0.009752398792519842
-0.005545036983372922,-0.01370202572305951
-0.005544696983372922,-0.0140969884161142
-0.005544356983372922,-0.00688891926786601
-0.005544016983372922,-0.006790178594602518
-0.005543676983372922,-0.003860871954446936
-0.005543336983372922,-0.006164820997273297
-0.005542996983372922,-0.01021318860107646
-0.005542656983372922,-0.007316795518675433
-0.005542316983372922,-0.006921832825621465
-0.005541976983372922,-0.009225781868439744
-0.005541636983372922,-0.01106894110269494
-0.005541296983372922,-0.01073980552514997
-0.005540956983372922,-0.0101802750433219
-0.005540616983372922,-0.01031192927434013
-0.005540276983372922,-0.01001570725454965
-0.005539936983372922,-0.009752398792512659
-0.005539596983372922,-0.009554917445985316
-0.005539256983372922,-0.009258695426194841
-0.005538916983372922,-0.009949880139040001
-0.005538576983372922,-0.0101802750433219
-0.005538236983372922,-0.008106720904788573
-0.005537896983372922,-0.009456176772721644
-0.005537556983372922,-0.0108714597561676
-0.005537216983372922,-0.01110185466044908
-0.005536876983372922,-0.01067397840964026
-0.005536536983372922,-0.0120234342775771
-0.005536196983372922,-0.01185886648880461
-0.005535856983372922,-0.0113322495647314
-0.005535516983372922,-0.0124842240861409
-0.005535176983372922,-0.009884053023535615
-0.005534836983372922,-0.008139634462539359
-0.005534496983372922,-0.01245131052838634
-0.005534156983372922,-0.01136516312248793
-0.005533816983372922,-0.004979932918101878
-0.005533476983372922,-0.005638204073193019
-0.005533136983372922,-0.006131907439511376
-0.005532796983372922,-0.009094127637421515
-0.005532456983372922,-0.0129450138947047
-0.005532116983372922,-0.01218800206634988
-0.005531776983372922,-0.009949880139040001
-0.005531436983372922,-0.01182595293104976
-0.005531096983372922,-0.01218800206634988
-0.005530756983372922,-0.01136516312248596
-0.005530416983372922,-0.01152973091125874
-0.005530076983372922,-0.01251713764389546
-0.005529736983372922,-0.01228674273961433
-0.005529396983372922,-0.0127146189904228
-0.005529056983372922,-0.0150185680332418
-0.005528716983372922,-0.01426155620488441
-0.005528376983372922,-0.01284627322144103
-0.005528036983372922,-0.01241839697063178
-0.005527696983372922,-0.01120059533371203
-0.005527356983372922,-0.01057523773637659
-0.005527016983372922,-0.01067397840964026
-0.005526676983372922,-0.01238548341287513
-0.005526336983372922,-0.01123350889146773
-0.005525996983372922,-0.01330706303000483
-0.005525656983372922,-0.01350454437653193
-0.005525316983372922,-0.01337289014551394
-0.005524976983372922,-0.01380076639632318
-0.005524636983372922,-0.01231965629736829
-0.005524296983372922,-0.01241839697063178
-0.005523956983372922,-0.01745417130707902
-0.005523616983372922,-0.01067397840964864
-0.005523276983372922,-0.01528187649527825
-0.005522936983372922,-0.0282169046928192
-0.005522596983372922,-0.04891953252048614
-0.005522256983372922,-0.07669857526528182
-0.005521916983372922,-0.1050371484919555
-0.005521576983372922,-0.1338035979694945
-0.005521236983372922,-0.1646436015854584
-0.005520896983372922,-0.1957140001057603
-0.005520556983372922,-0.2210574395767232
-0.005520216983372922,-0.2402460437476761
-0.005519876983372922,-0.2556825023345634
-0.005519536983372922,-0.2656223967764215
-0.005519196983372922,-0.2709543931326779
-0.005518856983372922,-0.270427776208605
-0.005518516983372922,-0.270032813515551
-0.005518176983372922,-0.2645033358127847
-0.005517836983372922,-0.2591055123410373
-0.005517496983372922,-0.2534443804072638
-0.005517156983372922,-0.2469933230873603
-0.005516816983372922,-0.2405751793252217
-0.005516476983372922,-0.2327746661374058
-0.005516136983372922,-0.2251387207383344
-0.005515796983372922,-0.2164166279333767
-0.005515456983372922,-0.2111504586926572
-0.005515116983372922,-0.2040740437754178
-0.005514776983372922,-0.1940354086602779
-0.005514436983372922,-0.1871893886473425
-0.005514096983372922,-0.1822523549841465
-0.005513756983372922,-0.1777431975717721
-0.005513416983372922,-0.1747809773738674
-0.005513076983372922,-0.1628662694667123
-0.005512736983372922,-0.1538150410842091
-0.005512396983372922,-0.1539137817574728
-0.005512056983372922,-0.14854887184348
-0.005511716983372922,-0.1392343349989403
-0.005511376983372922,-0.1337377708539293
-0.005511036983372922,-0.1307426370982646
-0.005510696983372922,-0.126332220359154
-0.005510356983372922,-0.1215926680424977
-0.005510016983372922,-0.1183342258247966
-0.005509676983372922,-0.1144504260097588
-0.005509336983372922,-0.1122123040824489
-0.005508996983372922,-0.1104020584059427
-0.005508656983372922,-0.1073081839770199
-0.005508316983372922,-0.1035560383930004
-0.005507976983372922,-0.1012850029079303
-0.005507636983372922,-0.09815821492125304
-0.005507296983372922,-0.09308952702705126
-0.005506956983372922,-0.08890950519221548
-0.005506616983372922,-0.08505861893493932
-0.005506276983372922,-0.08166852248621995
-0.005505936983372922,-0.07857464805728659
-0.005505596983372922,-0.07584282276366333
-0.005505256983372922,-0.07139949246679811
-0.005504916983372922,-0.07146531958230291
-0.005504576983372922,-0.06909554342397911
-0.005504236983372922,-0.06547505207097784
-0.005503896983372922,-0.06376354706774129
-0.005503556983372922,-0.06399394197202277
-0.005503216983372922,-0.06498134870465949
-0.005502876983372922,-0.05675295926602098
-0.005502536983372922,-0.05718083551682945
-0.005502196983372922,-0.05267167810445512
-0.005501856983372922,-0.05096017310122756
-0.005501516983372922,-0.05612760166868362
-0.005501176983372922,-0.05444901022320121
-0.005500836983372922,-0.05007150704184517
-0.005500496983372922,-0.05010442059959967
-0.005500156983372922,-0.0509272595434636
-0.005499816983372922,-0.0484916562696308
-0.005499476983372922,-0.04638518857333472
-0.005499136983372922,-0.04526612760967978
-0.005498796983372922,-0.04398249885725439
-0.005498456983372922,-0.04352170904868825
-0.005498116983372922,-0.04253430231605154
-0.005497776983372922,-0.03996704481120075
-0.005497436983372922,-0.03927586009835039
-0.005497096983372922,-0.04062531596628723
-0.005496756983372922,-0.03786057711490946
-0.005496416983372922,-0.03720230595981328
-0.005496076983372922,-0.03539206028331265
-0.005495736983372922,-0.03157408758379097
-0.005495396983372922,-0.03117912489072934
-0.005495056983372922,-0.03127786556399301
-0.005494716983372922,-0.02930305209872317
-0.005494376983372922,-0.02805233690404641
-0.005494036983372922,-0.03022463171584718
-0.005493696983372922,-0.0275586335377329
-0.005493356983372922,-0.02690036238263691
-0.005493016983372922,-0.03029045883135629
-0.005492676983372922,-0.02920431142545788
-0.005492336983372922,-0.02179876093068056
-0.005491996983372922,-0.0233786117028993
-0.005491656983372922,-0.02110757621783899
-0.005491316983372922,-0.02374066083819943
-0.005490976983372922,-0.02732823863344615
-0.005490636983372922,-0.02574838786122741
-0.005490296983372922,-0.02456349978206336
-0.005489956983372922,-0.026373745458564
-0.005489616983372922,-0.02778902844200995
-0.005489276983372922,-0.02611043699652754
-0.005488936983372922,-0.02581421497673653
-0.005488596983372922,-0.02627500478530033
-0.005488256983372922,-0.02410270997350069
-0.005487916983372922,-0.02472806757083614
-0.005487576983372922,-0.02489263535960893
-0.005487236983372922,-0.02327987102963317
-0.005486896983372922,-0.02193041516169879
-0.005486556983372922,-0.0213050575643622
-0.005486216983372922,-0.01923150342582313
-0.005485876983372922,-0.01814535601992472
-0.005485536983372922,-0.01771747976911548
-0.005485196983372922,-0.01656550524770568
-0.005484856983372922,-0.01640093745893319
-0.005484516983372922,-0.01715794928728801
-0.005484176983372922,-0.01597306120811994
-0.005483836983372922,-0.01376785283856862
-0.005483496983372922,-0.01712503572953345
-0.005483156983372922,-0.01679590015198854
-0.005482816983372922,-0.01715794928728801
-0.005482476983372922,-0.02202915583496246
-0.005482136983372922,-0.02002142881192681
-0.005481796983372922,-0.01580849341935116
-0.005481456983372922,-0.01603888832363307
-0.005481116983372922,-0.01567683918833611
-0.005480776983372922,-0.01742125774932446
-0.005480436983372922,-0.01844157803971573
-0.005480096983372922,-0.01139807668024632
-0.005479756983372922,-0.01459069178243255
-0.005479416983372922,-0.01508439514875091
-0.005479076983372922,-0.01570975274608636
-0.005478736983372922,-0.01462360534018711
-0.005478396983372922,-0.01436029687815065
-0.005478056983372922,-0.01577557986159403
-0.005477716983372922,-0.01491982735997812
-0.005477376983372922,-0.01462360534018711
-0.005477036983372922,-0.01511730870650457
-0.005476696983372922,-0.01376785283856862
-0.005476356983372922,-0.01452486466692344
-0.005476016983372922,-0.01600597476587581
-0.005475676983372922,-0.01570975274608749
-0.005475336983372922,-0.01574266630384205
-0.005474996983372922,-0.01768456621135739
-0.005474656983372922,-0.01784913400013371
-0.005474316983372922,-0.01590723409261484
-0.005473976983372922,-0.01551227139956087
-0.005473636983372922,-0.01547935784180559
-0.005473296983372922,-0.01439321043590521
-0.005472956983372922,-0.01310958168347982
-0.005472616983372922,-0.01162847158452241
-0.005472276983372922,-0.01353745793428673
-0.005471936983372922,-0.01603888832362851
-0.005471596983372922,-0.00860042427110316
-0.005471256983372922,-0.006592697248075176
-0.005470916983372922,-0.006329388786039197
-0.005470576983372922,-0.009489090330476201
-0.005470236983372922,-0.0127146189904228
-0.005469896983372922,-0.01103602754494038
-0.005469556983372922,-0.009949880139040001
-0.005469216983372922,-0.01287918677919558
-0.005468876983372922,-0.0129450138947047
-0.005468536983372922,-0.01297792745245925
-0.005468196983372922,-0.01215508850859533
-0.005467856983372922,-0.01185886648880431
-0.005467516983372922,-0.01215508850859533
-0.005467176983372922,-0.01215508850859533
-0.005466836983372922,-0.0108714597561676
-0.005466496983372922,-0.01215508850859616
-0.005466156983372922,-0.01261587831715913
-0.005465816983372922,-0.01228674273961356
-0.005465476983372922,-0.01307666812572041
-0.005465136983372922,-0.01169429870003153
-0.005464796983372922,-0.01073980552514937
-0.005464456983372922,-0.01116768177596143
-0.005464116983372922,-0.0127146189904228
-0.005463776983372922,-0.009192868310685188
-0.005463436983372922,-0.009686571677005339
-0.005463096983372922,-0.01067397840964026
-0.005462756983372922,-0.01172721225778608
-0.005462416983372922,-0.01146390379575088
-0.005462076983372922,-0.01215508850859533
-0.005461736983372922,-0.01567683918833294
-0.005461396983372922,-0.01673007303647182
-0.005461056983372922,-0.01291210033695014
-0.005460716983372922,-0.01176012581554064
-0.005460376983372922,-0.009916966581293287
-0.005460036983372922,-0.01422864264713243
-0.005459696983372922,-0.01600597476587851
-0.005459356983372922,-0.01307666812572011
-0.005459016983372922,-0.01152973091125874
-0.005458676983372922,-0.01274753254817735
-0.005458336983372922,-0.01208926139308502
-0.005457996983372922,-0.01143099023799507
-0.005457656983372922,-0.01001570725454911
-0.005457316983372922,-0.01041066994760308
-0.005456976983372922,-0.01136516312248596
-0.005456636983372922,-0.01208926139308621
-0.005456296983372922,-0.01123350889146928
-0.005455956983372922,-0.01264879187491368
-0.005455616983372922,-0.01251713764389546
-0.005455276983372922,-0.01100311398718858
-0.005454936983372922,-0.01103602754494038
-0.005454596983372922,-0.01050941062086747
-0.005454256983372922,-0.01064106485188546
-0.005453916983372922,-0.01060815129413114
-0.005453576983372922,-0.01215508850859533
-0.005453236983372922,-0.0113322495647329
-0.005452896983372922,-0.01113476821820406
-0.005452556983372922,-0.01274753254817735
-0.005452216983372922,-0.01301084101021333
-0.005451876983372922,-0.01347163081877761
-0.005451536983372922,-0.01380076639632318
-0.005451196983372922,-0.01886945429051576
-0.005450856983372922,-0.01482108668671445
-0.005450516983372922,-0.01235256985512267
-0.005450176983372922,-0.01159555802676923
-0.005449836983372922,-0.009949880139040001
-0.005449496983372922,-0.01442612399365977
-0.005449156983372922,-0.0164667645744386
-0.005448816983372922,-0.01373493928081407
-0.005448476983372922,-0.01057523773637659
-0.005448136983372922,-0.012253829181859
-0.005447796983372922,-0.01120059533371317
-0.005447456983372922,-0.01149681735350419
-0.005447116983372922,-0.0124842240861409
-0.005446776983372922,-0.01123350889146773
-0.005446436983372922,-0.01195760716206798
-0.005446096983372922,-0.0129450138947047
-0.005445756983372922,-0.01238548341287327
-0.005445416983372922,-0.01021318860107646
-0.005445076983372922,-0.0113322495647314
-0.005444736983372922,-0.01152973091125904
-0.005444396983372922,-0.01169429870003153
-0.005444056983372922,-0.0129450138947047
-0.005443716983372922,-0.01314249524123228
-0.005443376983372922,-0.01327414947225027
-0.005443036983372922,-0.01475525957120534
-0.005442696983372922,-0.0140640748583585
-0.005442356983372922,-0.01343871726102305
-0.005442016983372922,-0.0152489629375237
-0.005441676983372922,-0.01406407485835904
-0.005441336983372922,-0.01373493928081407
-0.005440996983372922,-0.01508439514875091
-0.005440656983372922,-0.01742125774931584
-0.005440316983372922,-0.01268170543266824
-0.005439976983372922,-0.008962473406403288
-0.005439636983372922,-0.007547190422956734
-0.005439296983372922,-0.007218054845411761
-0.005438956983372922,-0.01054232417862203
-0.005438616983372922,-0.008534597155590873
-0.005438276983372922,-0.006790178594602518
-0.005437936983372922,-0.007645931096221003
-0.005437596983372922,-0.01027901571658611
-0.005437256983372922,-0.01057523773637659
-0.005436916983372922,-0.009785312350267215
-0.005436576983372922,-0.01310958168347144
-0.005436236983372922,-0.01380076639632318
-0.005435896983372922,-0.01360328504979584
-0.005435556983372922,-0.01511730870650271
-0.005435216983372922,-0.01495274091773268
-0.005434876983372922,-0.01291210033695014
-0.005434536983372922,-0.0134058037032676
-0.005434196983372922,-0.0124842240861409
-0.005433856983372922,-0.0115626444690133
-0.005433516983372922,-0.0115297309112588
-0.005433176983372922,-0.009653658119248986
-0.005432836983372922,-0.008402942924575817
-0.005432496983372922,-0.009423263214965231
-0.005432156983372922,-0.009127041195176074
-0.005431816983372922,-0.008435856482330374
-0.005431476983372922,-0.008139634462539899
-0.005431136983372922,-0.009686571677003543
-0.005430796983372922,-0.00860042427110316
-0.005430456983372922,-0.01255005120164283
-0.005430116983372922,-0.01735543063381535
-0.005429776983372922,-0.008797905617630502
-0.005429436983372922,-0.006131907439516225
-0.005429096983372922,-0.008007980231521132
-0.005428756983372922,-0.01143099023799507
-0.005428416983372922,-0.0157755798615887
-0.005428076983372922,-0.01485400024446901
-0.005427736983372922,-0.01215508850859533
-0.005427396983372922,-0.01528187649527825
-0.005427056983372922,-0.01768456621136092
-0.005426716983372922,-0.01531479005303281
-0.005426376983372922,-0.01478817312895989
-0.005426036983372922,-0.01518313582201458
-0.005425696983372922,-0.01656550524770598
-0.005425356983372922,-0.01577557986159661
-0.005425016983372922,-0.01544644428405104
-0.005424676983372922,-0.01412990197386875
-0.005424336983372922,-0.01258296475940457
-0.005423996983372922,-0.01320832235673786
-0.005423656983372922,-0.01139807668024051
-0.005423316983372922,-0.009127041195176074
-0.005422976983372922,-0.008995386964158204
-0.005422636983372922,-0.009192868310685188
-0.005422296983372922,-0.00860042427110316
-0.005421956983372922,-0.008995386964158324
-0.005421616983372922,-0.009258695426194301
-0.005421276983372922,-0.008929559848648731
-0.005420936983372922,-0.01070689196739601
-0.005420596983372922,-0.01136516312248596
-0.005420256983372922,-0.01100311398718583
-0.005419916983372922,-0.01304375456796561
-0.005419576983372922,-0.01152973091125874
-0.005419236983372922,-0.009028300521912402
-0.005418896983372922,-0.00754719042295823
-0.005418556983372922,-0.008040893789275689
-0.005418216983372922,-0.0136361986075504
-0.005417876983372922,-0.01459069178242974
-0.005417536983372922,-0.01304375456796837
-0.005417196983372922,-0.01031192927434013
-0.005416856983372922,-0.01097020042943193
-0.005416516983372922,-0.0113322495647314
-0.005416176983372922,-0.01080563264065849
