Analysis/files/cmb03_wrd01/d2s07_ch07.csv

#Digilent WaveForms Oscilloscope Acquisition
#Device Name: ADP3450
#Serial Number: SN:210018B9D9B0
#Date Time: 2024-08-13 16:42:53.315.886.370
#Sample rate: 2.94118e+06Hz
#Samples: 32768
#Trigger: Source: Channel 3 Type: Edge Condition: Rising Level: 60 mV Hyst.: Auto HoldOff: 0 s
#Channel 3: Range: 200 mV/div Offset: 0 V Attenuation: 1 X Coupling: DC Bandwidth: 0 Hz Sample Mode: Average

Time (s),Channel 3 (V)
-0.005570347191283294,0.001174902382000301
-0.005570007191283293,0.00341302430930773
-0.005569667191283293,0.002063568441373343
-0.005569327191283294,-0.00267598387528288
-0.005568987191283293,0.0002533227648735407
-0.005568647191283293,0.000714112573436502
-0.005568307191283294,-0.002050626277946295
-0.005567967191283293,-0.001984799162438857
-0.005567627191283293,-0.00290637877956478
-0.005567287191283294,-0.00586859897747492
-0.005566947191283293,-0.00698765994112567
-0.005566607191283293,-0.004683710898310864
-0.005566267191283294,-0.005605290515438462
-0.005565927191283293,-0.006888919267869362
-0.005565587191283293,-0.008633337828857716
-0.005565247191283294,-0.009522003888230759
-0.005564907191283293,-0.007382622634183109
-0.005564567191283293,-0.006592697248075176
-0.005564227191283294,-0.009094127637421515
-0.005563887191283293,-0.008468770040078944
-0.005563547191283293,-0.00517741426462922
-0.005563207191283294,-0.003630477050165036
-0.005562867191283294,-0.005802771861961854
-0.005562527191283293,-0.005243241380138334
-0.005562187191283294,-0.005045760033610991
-0.005561847191283294,-0.004288748205257556
-0.005561507191283293,-0.005967339650738591
-0.005561167191283294,-0.007942153116012016
-0.005560827191283294,-0.01343871726101306
-0.005560487191283293,-0.01067397840964026
-0.005560147191283294,-0.004979932918101878
-0.005559807191283294,-0.00790923955825213
-0.005559467191283293,-0.006691437921338847
-0.005559127191283294,-0.009094127637421515
-0.005558787191283294,-0.0116284715845178
-0.005558447191283293,-0.009159954752930631
-0.005558107191283294,-0.009785312350267215
-0.005557767191283294,-0.01152973091125557
-0.005557427191283293,-0.01060815129413114
-0.005557087191283294,-0.00869916494436683
-0.005556747191283294,-0.01064106485188217
-0.005556407191283293,-0.01143099023799507
-0.005556067191283293,-0.01004862081230367
-0.005555727191283294,-0.01041066994760314
-0.005555387191283293,-0.01261587831715913
-0.005555047191283293,-0.0129450138947047
-0.005554707191283294,-0.01304375456796819
-0.005554367191283293,-0.0136361986075504
-0.005554027191283293,-0.01231965629736811
-0.005553687191283294,-0.0129450138947047
-0.005553347191283293,-0.01554518495731471
-0.005553007191283293,-0.01429446976264154
-0.005552667191283294,-0.01399824774285052
-0.005552327191283293,-0.01518313582201458
-0.005551987191283293,-0.01682881370974244
-0.005551647191283294,-0.01547935784180559
-0.005551307191283293,-0.01462360534018573
-0.005550967191283293,-0.0138665935118323
-0.005550627191283294,-0.01518313582201458
-0.005550287191283293,-0.02123923044883896
-0.005549947191283293,-0.01347163081877761
-0.005549607191283294,-0.01123350889146773
-0.005549267191283293,-0.0126817054326689
-0.005548927191283293,-0.01304375456796837
-0.005548587191283294,-0.01495274091773268
-0.005548247191283293,-0.01320832235673774
-0.005547907191283293,-0.0113322495647314
-0.005547567191283294,-0.01047649706311291
-0.005547227191283293,-0.0120892613930828
-0.005546887191283293,-0.01021318860107646
-0.005546547191283294,-0.007316795518675433
-0.005546207191283293,-0.008929559848649928
-0.005545867191283293,-0.009587831003739873
-0.005545527191283294,-0.009094127637421515
-0.005545187191283293,-0.01041066994760799
-0.005544847191283293,-0.0127146189904228
-0.005544507191283294,-0.01205634783533165
-0.005544167191283293,-0.01297792745246111
-0.005543827191283293,-0.01399824774285052
-0.005543487191283294,-0.01396533418509597
-0.005543147191283293,-0.0148869138022274
-0.005542807191283293,-0.01699338149851522
-0.005542467191283294,-0.01705920861402434
-0.005542127191283294,-0.01557809851507196
-0.005541787191283293,-0.01768456621136092
-0.005541447191283294,-0.01725668996055168
-0.005541107191283294,-0.01626928322791676
-0.005540767191283293,-0.01580849341935116
-0.005540427191283294,-0.01515022226426002
-0.005540087191283294,-0.01847449159746424
-0.005539747191283293,-0.01988977458091625
-0.005539407191283294,-0.01231965629736811
-0.005539067191283294,-0.01097020042943373
-0.005538727191283293,-0.0106410648518857
-0.005538387191283294,-0.0136361986075504
-0.005538047191283294,-0.01742125774931758
-0.005537707191283293,-0.01495274091773268
-0.005537367191283294,-0.01508439514875091
-0.005537027191283294,-0.01528187649527789
-0.005536687191283293,-0.01623636967016041
-0.005536347191283294,-0.01610471543914218
-0.005536007191283294,-0.01472234601345329
-0.005535667191283293,-0.01449195110916888
-0.005535327191283294,-0.01268170543266824
-0.005534987191283294,-0.0107727190829074
-0.005534647191283293,-0.009258695426194301
-0.005534307191283293,-0.01120059533371317
-0.005533967191283294,-0.01067397840964121
-0.005533627191283293,-0.01073980552514937
-0.005533287191283293,-0.01412990197386875
-0.005532947191283294,-0.01613762899689674
-0.005532607191283293,-0.01679590015198788
-0.005532267191283293,-0.01807952890441561
-0.005531927191283294,-0.01827701025094295
-0.005531587191283293,-0.0185403187129794
-0.005531247191283293,-0.02074552708253473
-0.005530907191283294,-0.01798078823115194
-0.005530567191283293,-0.01551227139956015
-0.005530227191283293,-0.01475525957120534
-0.005529887191283294,-0.01541353072629648
-0.005529547191283293,-0.01748708486483202
-0.005529207191283293,-0.01663133236321509
-0.005528867191283294,-0.0129450138947047
-0.005528527191283293,-0.0124842240861418
-0.005528187191283293,-0.01297792745245925
-0.005527847191283294,-0.008732078502121389
-0.005527507191283293,-0.02008725592744041
-0.005527167191283293,-0.01834283736645206
-0.005526827191283294,-0.01847449159747029
-0.005526487191283293,-0.0184086644819598
-0.005526147191283293,-0.01765165265360636
-0.005525807191283294,-0.01666424592096965
-0.005525467191283293,-0.01505148159099324
-0.005525127191283293,-0.01333997658775938
-0.005524787191283294,-0.01376785283856862
-0.005524447191283293,-0.01353745793428469
-0.005524107191283293,-0.01241839697063178
-0.005523767191283294,-0.01508439514875091
-0.005523427191283293,-0.01798078823116553
-0.005523087191283293,-0.0254521658414364
-0.005522747191283294,-0.03878215673203202
-0.005522407191283293,-0.05902399475113087
-0.005522067191283293,-0.08443326133760273
-0.005521727191283294,-0.1149441293760772
-0.005521387191283293,-0.147956427803955
-0.005521047191283293,-0.1793230483439909
-0.005520707191283294,-0.2067071283957824
-0.005520367191283294,-0.228857952764559
-0.005520027191283293,-0.2444260655825048
-0.005519687191283294,-0.257492748011064
-0.005519347191283294,-0.2662806679315148
-0.005519007191283293,-0.2694732830337228
-0.005518667191283294,-0.2579535378196278
-0.005518327191283294,-0.255517934545795
-0.005517987191283293,-0.2497909754964976
-0.005517647191283294,-0.2432411775033408
-0.005517307191283294,-0.2399498217278911
-0.005516967191283293,-0.2324126170020915
-0.005516627191283294,-0.2248424987185434
-0.005516287191283294,-0.2184243549564164
-0.005515947191283293,-0.2114466807124386
-0.005515607191283294,-0.202724587907481
-0.005515267191283294,-0.196701406838408
-0.005514927191283293,-0.1918631138484772
-0.005514587191283294,-0.1835688972943287
-0.005514247191283294,-0.1779735924760642
-0.005513907191283293,-0.1731023859283796
-0.005513567191283293,-0.1673095997635775
-0.005513227191283294,-0.1635903677373194
-0.005512887191283293,-0.158060890034547
-0.005512547191283293,-0.1518402276189357
-0.005512207191283294,-0.1474627244375796
-0.005511867191283293,-0.1437764059690692
-0.005511527191283293,-0.1377203113422307
-0.005511187191283294,-0.1311046862335647
-0.005510847191283293,-0.1274183677650543
-0.005510507191283293,-0.1223496798708525
-0.005510167191283294,-0.1179392631317419
-0.005509827191283293,-0.112804748122031
-0.005509487191283293,-0.1079335415743565
-0.005509147191283294,-0.1040168282015642
-0.005508807191283293,-0.1030623350266824
-0.005508467191283293,-0.1032269028154549
-0.005508127191283294,-0.09213503385216909
-0.005507787191283293,-0.09058809663770014
-0.005507447191283293,-0.08795501201734035
-0.005507107191283294,-0.08463074268413007
-0.005506767191283293,-0.08528901383921469
-0.005506427191283293,-0.08170143604397451
-0.005506087191283294,-0.07738975997812753
-0.005505747191283293,-0.07692897016956221
-0.005505407191283293,-0.07610613122569979
-0.005505067191283294,-0.07307808391228054
-0.005504727191283293,-0.07248563987269797
-0.005504387191283293,-0.0721894178529075
-0.005504047191283294,-0.0685689264999062
-0.005503707191283293,-0.06642954524585605
-0.005503367191283293,-0.06425725043405922
-0.005503027191283294,-0.06234826408429492
-0.005502687191283293,-0.0607684133120724
-0.005502347191283293,-0.05869485917353907
-0.005502007191283294,-0.05583137964889261
-0.005501667191283293,-0.05372491195260233
-0.005501327191283293,-0.05448192378095577
-0.005500987191283294,-0.05148679002529107
-0.005500647191283293,-0.04753716309474404
-0.005500307191283293,-0.04743842242148055
-0.005499967191283294,-0.04582565809150724
-0.005499627191283294,-0.04394958529950091
-0.005499287191283293,-0.04273178366257888
-0.005498947191283294,-0.04220516673850597
-0.005498607191283294,-0.04039492106200862
-0.005498267191283293,-0.04427872087704306
-0.005497927191283294,-0.04329131414440635
-0.005497587191283294,-0.03535914672557251
-0.005497247191283293,-0.03437173999292138
-0.005496907191283294,-0.03456922133944872
-0.005496567191283294,-0.03588576364962861
-0.005496227191283293,-0.03901255163631392
-0.005495887191283294,-0.03651112124696759
-0.005495547191283294,-0.03496418403250622
-0.005495207191283293,-0.03667568903574037
-0.005494867191283294,-0.0356553687453491
-0.005494527191283294,-0.03348307393355228
-0.005494187191283293,-0.03328559258702099
-0.005493847191283294,-0.03361472816456656
-0.005493507191283294,-0.03210070450785969
-0.005493167191283293,-0.03111329777522022
-0.005492827191283293,-0.03127786556399301
-0.005492487191283294,-0.03068542152441206
-0.005492147191283293,-0.03006006392707439
-0.005491807191283293,-0.02900683007892857
-0.005491467191283294,-0.02923722498321005
-0.005491127191283293,-0.02824981825057375
-0.005490787191283293,-0.02897391652117401
-0.005490447191283294,-0.02815107757731008
-0.005490107191283293,-0.02657122680509134
-0.005489767191283293,-0.02772320132650084
-0.005489427191283294,-0.02650539968958223
-0.005489087191283293,-0.02505720314838171
-0.005488747191283293,-0.02351026593391753
-0.005488407191283294,-0.02400396930023588
-0.005488067191283293,-0.02222663718149627
-0.005487727191283293,-0.02578130141898197
-0.005487387191283294,-0.02196332871945334
-0.005487047191283293,-0.01735543063381613
-0.005486707191283293,-0.01778330688462459
-0.005486367191283294,-0.01801370178890649
-0.005486027191283293,-0.0219962422772067
-0.005485687191283293,-0.02133797112211676
-0.005485347191283294,-0.02137088467987132
-0.005485007191283293,-0.01801370178890847
-0.005484667191283293,-0.01909984919480688
-0.005484327191283294,-0.01909984919480688
-0.005483987191283293,-0.01768456621136236
-0.005483647191283293,-0.01847449159747029
-0.005483307191283294,-0.02058095929376194
-0.005482967191283293,-0.0206796999670249
-0.005482627191283293,-0.02028473727397093
-0.005482287191283294,-0.02170002025741689
-0.005481947191283293,-0.01748708486483508
-0.005481607191283293,-0.01830992380869751
-0.005481267191283294,-0.02173293381517144
-0.005480927191283293,-0.02127214400660722
-0.005480587191283293,-0.02104174910232575
-0.005480247191283294,-0.0206138728515165
-0.005479907191283293,-0.02038347794723059
-0.005479567191283293,-0.01817826957767928
-0.005479227191283294,-0.01794787467339738
-0.005478887191283294,-0.01870488650175081
-0.005478547191283293,-0.01656550524770598
-0.005478207191283294,-0.01653259168995142
-0.005477867191283294,-0.01883654073276623
-0.005477527191283293,-0.02074552708253473
-0.005477187191283294,-0.02367483372269031
-0.005476847191283294,-0.0178491340001443
-0.005476507191283293,-0.01821118313543383
-0.005476167191283294,-0.01705920861402434
-0.005475827191283294,-0.01854031871297671
-0.005475487191283293,-0.02021891015846182
-0.005475147191283294,-0.01656550524770598
-0.005474807191283294,-0.01455777822468165
-0.005474467191283293,-0.01238548341287723
-0.005474127191283294,-0.009851139465776329
-0.005473787191283294,-0.009127041195177391
-0.005473447191283293,-0.01004862081230367
-0.005473107191283294,-0.01146390379574963
-0.005472767191283294,-0.01103602754494116
-0.005472427191283293,-0.01205634783533165
-0.005472087191283294,-0.01389950706958685
-0.005471747191283294,-0.01600597476587468
-0.005471407191283293,-0.01574266630384205
-0.005471067191283293,-0.01491982735997812
-0.005470727191283294,-0.01610471543914003
-0.005470387191283293,-0.01778330688462459
-0.005470047191283293,-0.01771747976911548
-0.005469707191283294,-0.01580849341935116
-0.005469367191283293,-0.01725668996055168
-0.005469027191283293,-0.01673007303647877
-0.005468687191283294,-0.01640093745893319
-0.005468347191283293,-0.01751999842258814
-0.005468007191283293,-0.0152489629375237
-0.005467667191283294,-0.01630219678566952
-0.005467327191283293,-0.01840866448196118
-0.005466987191283293,-0.02232537785475347
-0.005466647191283294,-0.0199226881386708
-0.005466307191283293,-0.01228674273961996
-0.005465967191283293,-0.01580849341935116
-0.005465627191283294,-0.01778330688462459
-0.005465287191283293,-0.01538061716853773
-0.005464947191283293,-0.01307666812572293
-0.005464607191283294,-0.01564392563057838
-0.005464267191283293,-0.01666424592097156
-0.005463927191283293,-0.01771747976911548
-0.005463587191283294,-0.01643385101668775
-0.005463247191283293,-0.01755291198034515
-0.005462907191283293,-0.01890236784827953
-0.005462567191283294,-0.01830992380869751
-0.005462227191283293,-0.01617054255465028
-0.005461887191283293,-0.01561101207282382
-0.005461547191283294,-0.01399824774285052
-0.005461207191283293,-0.01376785283856886
-0.005460867191283293,-0.01389950706958685
-0.005460527191283294,-0.01235256985512267
-0.005460187191283293,-0.0110689411026965
-0.005459847191283293,-0.01192469360431343
-0.005459507191283294,-0.01004862081230367
-0.005459167191283293,-0.009324522541704914
-0.005458827191283293,-0.01014736148556734
-0.005458487191283294,-0.0104106699476038
-0.005458147191283293,-0.01050941062087106
-0.005457807191283293,-0.0124842240861409
-0.005457467191283294,-0.01373493928081407
-0.005457127191283294,-0.01416281553162253
-0.005456787191283293,-0.01570975274608749
-0.005456447191283294,-0.01972520679214346
-0.005456107191283294,-0.013274149472262
-0.005455767191283293,-0.01551227139956015
-0.005455427191283294,-0.01584140697710572
-0.005455087191283294,-0.01485400024447081
-0.005454747191283293,-0.01926441698357966
-0.005454407191283294,-0.0192315034258251
-0.005454067191283294,-0.01620345611241136
-0.005453727191283293,-0.01623636967016041
-0.005453387191283294,-0.01623636967016041
-0.005453047191283294,-0.01333997658776465
-0.005452707191283293,-0.01166138514227697
-0.005452367191283294,-0.01284627322144103
-0.005452027191283294,-0.01182595293105161
-0.005451687191283293,-0.0111018546604495
-0.005451347191283294,-0.01245131052838634
-0.005451007191283294,-0.01314249524123078
-0.005450667191283293,-0.01396533418509597
-0.005450327191283293,-0.01274753254817735
-0.005449987191283294,-0.01350454437653079
-0.005449647191283293,-0.01241839697063178
-0.005449307191283293,-0.01366911216530495
-0.005448967191283294,-0.01442612399365839
-0.005448627191283293,-0.01176012581554064
-0.005448287191283293,-0.01412990197386875
-0.005447947191283294,-0.01366911216530495
-0.005447607191283293,-0.01297792745245925
-0.005447267191283293,-0.01357037149204128
-0.005446927191283294,-0.01445903755141432
-0.005446587191283293,-0.01327414947225027
-0.005446247191283293,-0.01755291198034269
-0.005445907191283294,-0.0190011085215432
-0.005445567191283293,-0.01139807668024141
-0.005445227191283293,-0.01189178004655887
-0.005444887191283294,-0.01070689196739481
-0.005444547191283293,-0.01274753254818172
-0.005444207191283293,-0.01515022226426002
-0.005443867191283294,-0.01452486466692344
-0.005443527191283293,-0.01376785283857216
-0.005443187191283293,-0.01570975274608749
-0.005442847191283294,-0.01705920861402434
-0.005442507191283293,-0.01557809851506813
-0.005442167191283293,-0.01495274091773268
-0.005441827191283294,-0.01709212217177889
-0.005441487191283293,-0.01626928322791281
-0.005441147191283293,-0.01508439514875091
-0.005440807191283294,-0.0152489629375237
-0.005440467191283293,-0.01337289014551394
-0.005440127191283293,-0.01337289014551394
-0.005439787191283294,-0.01327414947225027
-0.005439447191283293,-0.0128462732214445
-0.005439107191283293,-0.01475525957120534
-0.005438767191283294,-0.01544644428405104
-0.005438427191283293,-0.01811244246216651
-0.005438087191283293,-0.01610471543914218
-0.005437747191283294,-0.01663133236321509
-0.005437407191283293,-0.01765165265360523
-0.005437067191283293,-0.01702629505626978
-0.005436727191283294,-0.01613762899689674
-0.005436387191283294,-0.01709212217177716
-0.005436047191283293,-0.01620345611240585
-0.005435707191283294,-0.01307666812572293
-0.005435367191283294,-0.01791496111563402
-0.005435027191283293,-0.01426155620488698
-0.005434687191283294,-0.01475525957120534
-0.005434347191283294,-0.01455777822467835
-0.005434007191283293,-0.01607180188138762
-0.005433667191283294,-0.01725668996055168
-0.005433327191283294,-0.01436029687815592
-0.005432987191283293,-0.01370202572305951
-0.005432647191283294,-0.01320832235674115
-0.005432307191283294,-0.01396533418509459
-0.005431967191283293,-0.01255005120165001
-0.005431627191283294,-0.01347163081877761
-0.005431287191283294,-0.01294501389470566
-0.005430947191283293,-0.01208926139308621
-0.005430607191283294,-0.0117930393732952
-0.005430267191283294,-0.01284627322143911
-0.005429927191283293,-0.0138665935118323
-0.005429587191283293,-0.01327414947225027
-0.005429247191283294,-0.01478817312895714
-0.005428907191283293,-0.01649967813219686
-0.005428567191283293,-0.01429446976264154
-0.005428227191283294,-0.01245131052838969
-0.005427887191283293,-0.01278044610593191
-0.005427547191283293,-0.012253829181859
-0.005427207191283294,-0.01287918677919558
-0.005426867191283293,-0.01228674273961356
-0.005426527191283293,-0.0106410648518857
-0.005426187191283294,-0.01103602754494038
-0.005425847191283293,-0.01357037149204128
-0.005425507191283293,-0.01399824774285052
-0.005425167191283294,-0.01761873909585181
-0.005424827191283293,-0.01656550524770598
-0.005424487191283293,-0.01350454437653217
-0.005424147191283294,-0.01468943245569622
-0.005423807191283293,-0.0140969884161212
-0.005423467191283293,-0.01794787467339738
-0.005423127191283294,-0.01926441698357966
-0.005422787191283293,-0.01863905938624194
-0.005422447191283293,-0.01801370178890649
-0.005422107191283294,-0.01577557986159661
-0.005421767191283293,-0.01488691380222141
-0.005421427191283293,-0.01370202572305951
-0.005421087191283294,-0.01337289014551394
-0.005420747191283293,-0.01205634783533154
-0.005420407191283293,-0.01199052071982254
-0.005420067191283294,-0.01235256985512267
-0.005419727191283293,-0.01452486466692691
-0.005419387191283293,-0.01643385101668775
-0.005419047191283294,-0.0140969884161142
-0.005418707191283293,-0.01310958168348125
-0.005418367191283293,-0.01518313582201458
-0.005418027191283294,-0.01531479005303281
-0.005417687191283293,-0.01366911216530394
-0.005417347191283293,-0.01310958168347748
-0.005417007191283294,-0.0140969884161142
-0.005416667191283293,-0.0141628155316257
-0.005416327191283293,-0.01547935784180559
-0.005415987191283294,-0.01538061716854192
-0.005415647191283293,-0.01445903755141732
