Analysis/files/cmb03_wrd01/d2s06_ch40.csv

#Digilent WaveForms Oscilloscope Acquisition
#Device Name: ADP3450
#Serial Number: SN:210018B9D9B0
#Date Time: 2024-08-13 16:05:14.050.233.360
#Sample rate: 2.94118e+06Hz
#Samples: 32768
#Trigger: Source: Channel 3 Type: Edge Condition: Rising Level: 60 mV Hyst.: Auto HoldOff: 0 s
#Channel 3: Range: 200 mV/div Offset: 0 V Attenuation: 1 X Coupling: DC Bandwidth: 0 Hz Sample Mode: Average

Time (s),Channel 3 (V)
-0.005570440906593407,0.01641387962236024
-0.005570100906593407,0.01779624904805086
-0.005569760906593407,0.0173683727972424
-0.005569420906593407,0.01384662211750479
-0.005569080906593407,0.01210220355652218
-0.005568740906593407,0.01700632366194227
-0.005568400906593407,0.01776333549029708
-0.005568060906593407,0.0166771880843873
-0.005567720906593407,0.01150975951693123
-0.005567380906593407,0.01035778499552173
-0.005567040906593407,0.01236551201854684
-0.005566700906593407,0.01078566124633098
-0.005566360906593407,0.009995735860221606
-0.005566020906593407,0.009798254513693545
-0.005565680906593407,0.009403291820639578
-0.005565340906593407,0.009205810474112236
-0.005565000906593407,0.009469118936147495
-0.005564660906593407,0.00881084778105755
-0.005564320906593407,0.008284230856984636
-0.005563980906593407,0.008547539319012892
-0.005563640906593407,0.00403838190664677
-0.005563300906593407,0.005354924216829054
-0.005562960906593408,0.006901861431290425
-0.005562620906593407,0.005980281814165639
-0.005562280906593407,0.005256183543565383
-0.005561940906593408,0.005947368256409825
-0.005561600906593407,0.005716973352129182
-0.005561260906593407,0.004466258157456012
-0.005560920906593408,0.006473985180480344
-0.005560580906593407,0.004564998830719684
-0.005560240906593407,0.01210220355651326
-0.005559900906593408,0.00532201065908683
-0.005559560906593407,0.004170036137664999
-0.005559220906593407,0.001931914210355115
-0.005558880906593408,-0.0004707755057231833
-0.005558540906593407,0.004466258157456012
-0.005558200906593407,0.005420751332338168
-0.005557860906593408,0.00719808345108102
-0.005557520906593407,0.007461391913120709
-0.005557180906593407,0.002820580269728157
-0.005556840906593408,0.004071295464399052
-0.005556500906593407,0.006441071622729439
-0.005556160906593407,0.005124529312547154
-0.005555820906593407,0.00410420902215774
-0.005555480906593407,0.005354924216829054
-0.005555140906593407,0.004894134408265255
-0.005554800906593407,0.003775073444612348
-0.005554460906593407,0.004564998830719684
-0.005554120906593407,0.002853493827482714
-0.005553780906593407,0.001833173537091444
-0.005553440906593407,0.0008457668044547304
-0.005553100906593407,0.0002533227648727025
-0.005552760906593407,-4.289925491831147e-05
-0.005552420906593407,-0.000207467043691097
-0.005552080906593407,-0.000832824641027682
-0.005551740906593407,-0.00290637877956478
-0.005551400906593407,-0.0004049483902147876
-0.005551060906593407,0.001602778632809544
-0.005550720906593407,-0.0008657381987822392
-0.005550380906593407,-0.0007669975255162928
-0.005550040906593407,0.0004837176691546022
-0.005549700906593407,0.0001545820916090312
-0.005549360906593407,-9.985697169441953e-06
-0.005549020906593407,-0.00313677368384668
-0.005548680906593407,-0.007053487056638975
-0.005548340906593407,0.001273643055271157
-0.005548000906593407,0.005223269985810825
-0.005547660906593407,-0.002215194066719081
-0.005547320906593407,-0.001787317815902893
-0.005546980906593407,0.002030654883618786
-0.005546640906593407,0.001141988824245744
-0.005546300906593407,0.0002862363226294149
-0.005545960906593407,0.001471124401791315
-0.005545620906593407,0.001668605748318658
-0.005545280906593407,0.001306556613019907
-0.005544940906593407,0.002063568441373343
-0.005544600906593407,0.0009774210354729588
-0.005544260906593407,-0.0009315653142908145
-0.005543920906593407,-0.0006353432945003394
-0.005543580906593407,-0.0006024297367457822
-0.005543240906593407,-0.003498822819145131
-0.005542900906593407,-0.002577243202019209
-0.005542560906593407,-0.003432995703637694
-0.005542220906593408,-0.004222921089745627
-0.005541880906593407,-0.002050626277946295
-0.005541540906593407,-0.001030305987555025
-0.005541200906593408,-0.00228102118222592
-0.005540860906593407,-0.0002403806014456541
-0.005540520906593407,0.00153695151730043
-0.005540180906593408,0.0002204092071205401
-0.005539840906593407,0.0003520634381363738
-0.005539500906593407,0.0002862363226272596
-0.005539160906593408,-0.0002074670436901989
-0.005538820906593407,-0.0002403806014456541
-0.005538480906593407,0.000417890553645488
-0.005538140906593408,8.875497610051565e-05
-0.005537800906593407,0.0008786803622092876
-0.005537460906593407,0.0001545820916090312
-0.005537120906593408,0.002985148058495794
-0.005536780906593407,0.004005468348892213
-0.005536440906593407,0.005486578447847282
-0.005536100906593408,0.008152576625961559
-0.005535760906593407,0.002919320942991828
-0.005535420906593407,0.0001545820916090312
-0.005535080906593407,0.002458531134423838
-0.005534740906593407,0.001339470170773087
-0.005534400906593407,0.0003191498803818167
-0.005534060906593407,-0.0008986517565345811
-0.005533720906593407,-0.001359441565100596
-0.005533380906593407,-0.0003062077169547683
-0.005533040906593407,0.0004837176691546022
-0.005532700906593407,-0.0007011704100094536
-0.005532360906593407,-0.0003062077169547683
-0.005532020906593407,0.002129395556882458
-0.005531680906593407,0.0007470261311910591
-0.005531340906593407,0.0003849769958909309
-0.005531000906593407,0.001734432863827772
-0.005530660906593407,-9.985697163754359e-06
-0.005530320906593407,-0.0007340839677640107
-0.005529980906593407,-0.001556922911627938
-0.005529640906593407,-0.002116453393458463
-0.005529300906593407,-0.003795044838937822
-0.005528960906593407,-0.002149366951209966
-0.005528620906593407,-0.003367168588129358
-0.005528280906593407,-0.003795044838937822
-0.005527940906593407,-0.003663390607919593
-0.005527600906593407,-0.00435457532076655
-0.005527260906593407,-0.005045760033610991
-0.005526920906593407,-0.008764992059875945
-0.005526580906593407,-0.004881192244832399
-0.005526240906593407,-0.001688577142646167
-0.005525900906593407,-0.0004049483902184396
-0.005525560906593407,-0.001260700891843809
-0.005525220906593407,-0.005045760033610991
-0.005524880906593407,-0.001458182238364267
-0.005524540906593407,-0.0005366026212407991
-0.005524200906593407,-0.002807638106301108
-0.005523860906593407,-0.003169687241601236
-0.005523520906593407,-0.006033166766256386
-0.005523180906593407,-0.01080563264065849
-0.005522840906593407,-0.01633511034342408
-0.005522500906593407,-0.03657694836251914
-0.005522160906593407,-0.05991266081045769
-0.005521820906593407,-0.08502570537718476
-0.005521480906593407,-0.1165898072638672
-0.005521140906593407,-0.1507869937707899
-0.005520800906593407,-0.1821865278686373
-0.005520460906593408,-0.210228879075469
-0.005520120906593407,-0.227245188434626
-0.005519780906593407,-0.2443602384669957
-0.005519440906593408,-0.2600600055158909
-0.005519100906593407,-0.2651286934101212
-0.005518760906593407,-0.2642400273507482
-0.005518420906593408,-0.2624956087897599
-0.005518080906593407,-0.2611132393640653
-0.005517740906593407,-0.2543659600243811
-0.005517400906593408,-0.2473553722226732
-0.005517060906593407,-0.2396535997080941
-0.005516720906593407,-0.2330379745994281
-0.005516380906593408,-0.2249741529495762
-0.005516040906593407,-0.2162191465868494
-0.005515700906593407,-0.2087148554188104
-0.005515360906593408,-0.1994661456897966
-0.005515020906593407,-0.190316176634013
-0.005514680906593407,-0.1762620874728171
-0.005514340906593408,-0.1760316925685356
-0.005514000906593407,-0.1678362166876504
-0.005513660906593407,-0.1627675287934487
-0.005513320906593407,-0.1565797799356032
-0.005512980906593407,-0.149733759922644
-0.005512640906593407,-0.1452246025102697
-0.005512300906593407,-0.141044580675441
-0.005511960906593407,-0.1347910047020751
-0.005511620906593407,-0.1315654760421285
-0.005511280906593407,-0.1299527117121552
-0.005510940906593407,-0.1289982185372731
-0.005510600906593407,-0.1195520274617152
-0.005510260906593407,-0.1133642786038584
-0.005509920906593407,-0.1068473941684561
-0.005509580906593407,-0.1019761876207817
-0.005509240906593407,-0.1028319401224002
-0.005508900906593407,-0.09792782001696007
-0.005508560906593407,-0.09183881183237808
-0.005508220906593407,-0.09058809663770492
-0.005507880906593407,-0.08884367807670687
-0.005507540906593407,-0.08525610028146666
-0.005507200906593407,-0.08235970719906563
-0.005506860906593407,-0.08081276998459792
-0.005506520906593407,-0.07887087007708257
-0.005506180906593407,-0.07699479728507283
-0.005505840906593407,-0.07334139237430976
-0.005505500906593407,-0.06935885188601557
-0.005505160906593407,-0.06797648246032417
-0.005504820906593407,-0.06461929956935451
-0.005504480906593407,-0.06195330139124023
-0.005504140906593407,-0.05846446426925718
-0.005503800906593407,-0.05477814580074247
-0.005503460906593407,-0.05240836964241867
-0.005503120906593407,-0.0518488391605912
-0.005502780906593407,-0.05079560531243998
-0.005502440906593407,-0.04783338511453523
-0.005502100906593407,-0.04750424953698966
-0.005501760906593407,-0.04826126136533699
-0.005501420906593407,-0.04414706664602484
-0.005501080906593407,-0.04157980914116938
-0.005500740906593407,-0.04200768539197994
-0.005500400906593407,-0.04273178366257888
-0.005500060906593407,-0.03377929595333935
-0.005499720906593408,-0.03318685191375839
-0.005499380906593407,-0.03022463171584718
-0.005499040906593407,-0.0295992741185106
-0.005498700906593408,-0.03377929595333174
-0.005498360906593407,-0.03048794017788364
-0.005498020906593407,-0.02630791834305488
-0.005497680906593408,-0.02670288103610885
-0.005497340906593407,-0.02670288103610957
-0.005497000906593407,-0.02341152526065386
-0.005496660906593408,-0.02216081006598297
-0.005496320906593407,-0.02242411852801714
-0.005495980906593407,-0.01847449159747029
-0.005495640906593408,-0.0195277254456142
-0.005495300906593407,-0.01952772544561612
-0.005494960906593407,-0.01755291198034269
-0.005494620906593408,-0.01640093745893529
-0.005494280906593407,-0.01574266630384205
-0.005493940906593407,-0.01521604937976914
-0.005493600906593408,-0.01419572908937972
-0.005493260906593407,-0.01518313582201458
-0.005492920906593407,-0.01422864264713243
-0.005492580906593407,-0.01547935784180332
-0.005492240906593407,-0.01732251707606079
-0.005491900906593407,-0.01478817312895989
-0.005491560906593407,-0.01521604937976836
-0.005491220906593407,-0.01607180188138762
-0.005490880906593407,-0.01574266630384205
-0.005490540906593407,-0.01511730870650547
-0.005490200906593407,-0.01998851525417992
-0.005489860906593407,-0.01373493928081407
-0.005489520906593407,-0.0113322495647314
-0.005489180906593407,-0.0115626444690133
-0.005488840906593407,-0.0111018546604495
-0.005488500906593407,-0.0134058037032685
-0.005488160906593407,-0.01245131052838203
-0.005487820906593407,-0.01008153437005823
-0.005487480906593407,-0.009785312350267215
-0.005487140906593407,-0.009324522541702339
-0.005486800906593407,-0.008732078502121389
-0.005486460906593407,-0.007415536191939104
-0.005486120906593407,-0.007843412442751819
-0.005485780906593407,-0.009752398792512659
-0.005485440906593407,-0.00837002936682126
-0.005485100906593407,-0.008567510713347406
-0.005484760906593407,-0.00790923955825746
-0.005484420906593407,-0.007810498884993789
-0.005484080906593407,-0.008073807347030306
-0.005483740906593407,-0.008106720904784802
-0.005483400906593407,-0.006164820997265934
-0.005483060906593407,-0.005934426092986248
-0.005482720906593407,-0.007152227729902647
-0.005482380906593407,-0.00688891926786619
-0.005482040906593407,-0.004979932918103075
-0.005481700906593407,-0.005638204073193019
-0.005481360906593407,-0.004782451571574535
-0.005481020906593407,-0.003795044838937462
-0.005480680906593407,-0.003597563492410479
-0.005480340906593407,-0.004354575320765292
-0.005480000906593407,-0.005736944746459684
-0.005479660906593407,-0.007382622634184546
-0.005479320906593407,-0.002149366951209966
-0.005478980906593408,-0.000141639928185635
-0.005478640906593407,-0.0006682568522548965
-0.005478300906593407,-0.002511416086510094
-0.005477960906593408,-0.004486229551779929
-0.005477620906593407,-0.003400082145883136
-0.005477280906593407,-0.002873465221810222
-0.005476940906593408,-0.003038033010582709
-0.005476600906593407,-0.003070946568337565
-0.005476260906593407,-0.004025439743219721
-0.005475920906593408,-0.00261015675977634
-0.005475580906593407,-0.000832824641027682
-0.005475240906593407,-0.0006024297367457822
-0.005474900906593408,-0.0002074670436918154
-0.005474560906593407,-0.0006024297367457822
-0.005474220906593407,-0.002248107624473638
-0.005473880906593408,-0.002412675413246124
-0.005473540906593407,-0.004519143109538078
-0.005473200906593407,-0.005539463399929348
-0.005472860906593408,-0.006098993881755802
-0.005472520906593407,-0.006329388786038719
-0.005472180906593407,-0.005605290515438462
-0.005471840906593408,-0.005539463399929468
-0.005471500906593407,-0.003597563492410479
-0.005471160906593407,-0.002840551664055666
-0.005470820906593407,-0.002149366951211224
-0.005470480906593407,-0.0006353432945003394
-0.005470140906593407,0.0005166312269091594
-0.005469800906593407,5.584141834535986e-05
-0.005469460906593407,-0.002643070317528323
-0.005469120906593407,0.006243590276202096
-0.005468780906593407,0.004466258157456012
-0.005468440906593407,0.003478851424819299
-0.005468100906593407,0.002952234500746385
-0.005467760906593407,-0.001820231373664395
-0.005467420906593407,-0.003235514357110351
-0.005467080906593407,-0.0007011704100094536
-0.005466740906593407,-0.001556922911627938
-0.005466400906593407,-0.001326528007340591
-0.005466060906593407,0.001668605748318658
-0.005465720906593407,0.001635692190564101
-0.005465380906593407,0.002392704018920351
-0.005465040906593407,0.003182629405028285
-0.005464700906593407,0.002754753154219042
-0.005464360906593407,0.002754753154217306
-0.005464020906593407,0.001800259979336887
-0.005463680906593407,0.001471124401791315
-0.005463340906593407,0.0005166312269109554
-0.005463000906593407,0.001504037959545873
-0.005462660906593407,0.0007799396889456162
-0.005462320906593407,-0.001359441565099698
-0.005461980906593407,-0.0008657381987822392
-0.005461640906593407,-0.001129046660818696
-0.005461300906593407,-0.001129046660819115
-0.005460960906593407,-0.001359441565100596
-0.005460620906593407,-0.002313934739982752
-0.005460280906593407,-0.002248107624468729
-0.005459940906593407,0.0004508041114000451
-0.005459600906593407,0.001043248150982073
-0.005459260906593407,-0.004584970225039948
-0.005458920906593407,-0.0006024297367457822
-0.005458580906593407,0.004959961523774369
-0.005458240906593407,0.003972554791138673
-0.005457900906593407,0.004532085272965126
-0.005457560906593407,-9.985697163754359e-06
-0.005457220906593408,-0.003235514357104484
-0.005456880906593407,-0.001951885604682624
-0.005456540906593407,0.0009115939199638446
-0.005456200906593408,-0.002972205895066829
-0.005455860906593407,-0.002840551664055666
-0.005455520906593407,-0.001524009353873381
-0.005455180906593408,-0.002050626277945337
-0.005454840906593407,-0.002939292337319337
-0.005454500906593407,-0.003597563492410479
-0.005454160906593408,-0.00251141608651207
-0.005453820906593407,-0.002412675413246423
-0.005453480906593407,-0.001853144931418952
-0.005453140906593408,-0.001129046660820013
-0.005452800906593407,-0.0007999110832731249
-0.005452460906593407,0.001833173537091444
-0.005452120906593408,0.002952234500744349
-0.005451780906593407,0.001668605748318658
-0.005451440906593407,0.001800259979336887
-0.005451100906593408,0.003116802289516776
-0.005450760906593407,0.0027876667119736
-0.005450420906593407,0.001833173537091444
-0.005450080906593407,0.00259018536544488
-0.005449740906593407,0.001833173537091444
-0.005449400906593407,0.001602778632809544
-0.005449060906593407,0.0009774210354740963
-0.005448720906593407,-0.005374895611156563
-0.005448380906593407,-0.002215194066719081
-0.005448040906593407,0.002392704018918914
-0.005447700906593407,0.001866087094846001
-0.005447360906593407,0.002392704018918914
-0.005447020906593407,0.000417890553645488
-0.005446680906593407,-0.001754404258155281
-0.005446340906593407,0.0002533227648727025
-0.005446000906593407,0.0002204092071181454
-0.005445660906593407,-0.002412675413249177
-0.005445320906593407,-0.00392669906995605
-0.005444980906593407,-0.003663390607919593
-0.005444640906593407,-0.002906378779566756
-0.005444300906593407,-0.003992526185465165
-0.005443960906593407,-0.002083539835700852
-0.005443620906593407,-0.001392355122855991
-0.005443280906593407,-0.001853144931418952
-0.005442940906593407,-0.0006353432945003394
-0.005442600906593407,-0.0007011704100088549
-0.005442260906593407,-0.0003720348324638825
-0.005441920906593407,-0.0004049483902184396
-0.005441580906593407,-0.0007669975255230581
-0.005441240906593407,-0.003235514357110351
-0.005440900906593407,-0.003268427914864908
-0.005440560906593407,-0.003400082145884932
-0.005440220906593407,-0.00438748887851985
-0.005439880906593407,-0.004321661763010735
-0.005439540906593407,-0.003564649934656162
-0.005439200906593407,-0.00369630416567415
-0.005438860906593407,-0.004058353300974278
-0.005438520906593407,-0.007086400614388324
-0.005438180906593407,-0.004222921089747064
-0.005437840906593407,0.001833173537091444
-0.005437500906593407,0.003906727675628841
-0.005437160906593407,0.004071295464401327
-0.005436820906593407,-0.000207467043691097
-0.005436480906593408,-0.00172149070039797
-0.005436140906593407,0.0007470261311910591
-0.005435800906593407,-0.0008986517565367963
-0.005435460906593408,-0.001721490700399227
-0.005435120906593407,-0.0009973924298004675
-0.005434780906593407,-0.001524009353873381
-0.005434440906593408,-0.0008986517565379338
-0.005434100906593407,8.875497609991696e-05
-0.005433760906593407,2.292786059080275e-05
-0.005433420906593408,8.875497609979721e-05
-0.005433080906593407,0.0009445074777184018
-0.005432740906593407,-9.985697163754359e-06
-0.005432400906593408,-0.0007011704100081963
-0.005432060906593407,-0.0003391212747093254
-0.005431720906593407,-0.001524009353873381
-0.005431380906593408,-0.00201771272019084
-0.005431040906593407,-0.0005695161789912252
-0.005430700906593407,-0.0009315653142913533
-0.005430360906593408,-0.001359441565099817
-0.005430020906593407,0.0003849769958909309
-0.005429680906593407,-0.001293614449591481
-0.005429340906593407,-0.001589836469381957
-0.005429000906593407,-0.001096133103064139
-0.005428660906593407,-0.001326528007346039
-0.005428320906593407,-0.001129046660819055
-0.005427980906593407,-0.004519143109538078
-0.005427640906593407,0.001372383728527644
-0.005427300906593407,0.002392704018918914
-0.005426960906593407,0.002754753154219042
-0.005426620906593407,0.003840900560119427
-0.005426280906593407,-0.002511416086510094
-0.005425940906593407,-0.002215194066719081
-0.005425600906593407,0.0009774210354729588
-0.005425260906593407,0.0006811990156819448
-0.005424920906593407,-0.0001087263704274257
-0.005424580906593407,0.001174902382000301
-0.005424240906593407,-0.0003391212747093254
-0.005423900906593407,-0.0002403806014407448
-0.005423560906593407,0.002458531134428029
-0.005423220906593407,0.00176734642158233
-0.005422880906593407,-0.003070946568336368
-0.005422540906593407,-0.002412675413246423
-0.005422200906593407,-0.002577243202019209
-0.005421860906593407,-0.001359441565097542
-0.005421520906593407,0.0003191498803818167
-0.005421180906593407,0.0005495447846637165
-0.005420840906593407,0.000384976995895002
-0.005420500906593407,0.002623098923200814
-0.005420160906593407,0.003116802289519171
-0.005419820906593407,0.002425617576675028
-0.005419480906593407,0.003281370078291956
-0.005419140906593407,0.003939641233383098
-0.005418800906593407,0.003413024309313358
-0.005418460906593407,0.005157442870301712
-0.005418120906593407,0.004729566619492469
-0.005417780906593407,-0.00129361444958286
-0.005417440906593407,0.003445937867064742
