Analysis/files/cmb03_wrd01/d2s07_ch36.csv

#Digilent WaveForms Oscilloscope Acquisition
#Device Name: ADP3450
#Serial Number: SN:210018B9D9B0
#Date Time: 2024-08-13 16:34:27.171.851.570
#Sample rate: 2.94118e+06Hz
#Samples: 32768
#Trigger: Source: Channel 3 Type: Edge Condition: Rising Level: 60 mV Hyst.: Auto HoldOff: 0 s
#Channel 3: Range: 200 mV/div Offset: 0 V Attenuation: 1 X Coupling: DC Bandwidth: 0 Hz Sample Mode: Average

Time (s),Channel 3 (V)
-0.005570338078817735,0.008613366434530208
-0.005569998078817734,0.006375244507211763
-0.005569658078817734,0.001668605748318658
-0.005569318078817735,0.001701519306073215
-0.005568978078817734,0.008119663068208438
-0.005568638078817734,0.006243590276202096
-0.005568298078817735,0.002096481999127901
-0.005567958078817734,0.003840900560117751
-0.005567618078817734,0.002919320942991828
-0.005567278078817735,0.001997741325864229
-0.005566938078817734,0.002688926038707593
-0.005566598078817734,0.001405297286282201
-0.005566258078817735,0.001569865075054987
-0.005565918078817734,0.002228136230144273
-0.005565578078817734,0.001207815939754859
-0.005565238078817735,0.001174902382000301
-0.005564898078817734,0.001273643055260081
-0.005564558078817734,-0.0008657381987822392
-0.005564218078817735,0.0003520634381363738
-0.005563878078817734,0.004729566619483488
-0.005563538078817734,-0.000207467043691097
-0.005563198078817735,-0.002840551664055666
-0.005562858078817735,-0.003136773683846141
-0.005562518078817734,-0.00336716858812858
-0.005562178078817735,-0.004519143109538078
-0.005561838078817735,-0.004091266858729614
-0.005561498078817734,-0.005440722726665677
-0.005561158078817735,-0.005704031188702134
-0.005560818078817735,-0.005835685419720123
-0.005560478078817734,-0.006296475228284162
-0.005560138078817735,-0.006296475228284162
-0.005559798078817735,-0.004222921089750836
-0.005559458078817734,-0.004584970225047193
-0.005559118078817735,-0.005736944746456691
-0.005558778078817735,0.0001874956493528122
-0.005558438078817734,-0.001491095796118824
-0.005558098078817734,-0.0006682568522548965
-0.005557758078817735,0.001405297286278429
-0.005557418078817734,-0.003498822819146808
-0.005557078078817734,-0.007185141287657204
-0.005556738078817735,-0.003860871954452983
-0.005556398078817734,-0.00165566358489161
-0.005556058078817734,-0.004091266858728836
-0.005555718078817735,-0.004255834647501322
-0.005555378078817734,-0.004025439743219721
-0.005555038078817734,-0.004617883782801749
-0.005554698078817735,-0.004190007531993285
-0.005554358078817734,-0.004979932918101878
-0.005554018078817734,-0.007481363307448217
-0.005553678078817735,-0.008468770040084931
-0.005553338078817734,-0.00790923955825746
-0.005552998078817734,-0.007218054845411761
-0.005552658078817735,-0.008830819175385059
-0.005552318078817734,-0.007843412442748346
-0.005551978078817734,-0.007711758211730118
-0.005551638078817735,-0.008534597155594046
-0.005551298078817734,-0.00817254802029775
-0.005550958078817734,-0.01027901571658557
-0.005550618078817735,-0.01113476821820406
-0.005550278078817734,-0.008600424271100405
-0.005549938078817734,-0.007086400614393532
-0.005549598078817735,-0.006493956574811504
-0.005549258078817734,-0.0053419820534044
-0.005548918078817734,-0.00665852436358429
-0.005548578078817735,-0.008337115809066702
-0.005548238078817734,-0.001688577142645688
-0.005547898078817734,-0.00142526868060971
-0.005547558078817735,-0.003893785512201493
-0.005547218078817734,-0.002774724548552119
-0.005546878078817734,-0.005835685419720362
-0.005546538078817735,-0.005736944746456691
-0.005546198078817734,-0.002840551664055785
-0.005545858078817734,-0.00290637877956478
-0.005545518078817735,-0.00336716858812858
-0.005545178078817734,-0.003729217723429067
-0.005544838078817734,-0.00392669906995605
-0.005544498078817735,-0.005638204073193019
-0.005544158078817734,-0.005769858304210231
-0.005543818078817734,-0.005210327822383777
-0.005543478078817735,-0.00711931417214809
-0.005543138078817734,-0.007119314172147072
-0.005542798078817734,-0.006559783690320619
-0.005542458078817735,-0.005704031188702134
-0.005542118078817735,-0.00646104301705557
-0.005541778078817734,-0.00619773455502049
-0.005541438078817735,-0.006856005710111633
-0.005541098078817735,-0.008600424271099987
-0.005540758078817734,-0.008896646290894173
-0.005540418078817735,-0.01037775638984924
-0.005540078078817735,-0.00922578186844184
-0.005539738078817734,-0.008666251386612273
-0.005539398078817735,-0.008732078502121389
-0.005539058078817735,-0.009587831003738317
-0.005538718078817734,-0.008962473406403288
-0.005538378078817735,-0.01011444792781279
-0.005538038078817735,-0.01389950706957997
-0.005537698078817734,-0.006230648112775047
-0.005537358078817734,-0.005506549842174791
-0.005537018078817735,-0.005704031188701775
-0.005536678078817734,-0.00619773455502049
-0.005536338078817734,-0.008468770040084931
-0.005535998078817735,-0.0100486208123008
-0.005535658078817734,-0.008271288693557588
-0.005535318078817734,-0.008435856482330374
-0.005534978078817735,-0.009686571677001269
-0.005534638078817734,-0.008962473406403288
-0.005534298078817734,-0.007975066673766575
-0.005533958078817735,-0.008896646290892497
-0.005533618078817734,-0.00860042427110316
-0.005533278078817734,-0.006362302343793276
-0.005532938078817735,-0.007185141287657204
-0.005532598078817734,-0.007547190422957332
-0.005532258078817734,-0.006987659941129861
-0.005531918078817735,-0.006362302343793276
-0.005531578078817734,-0.009324522541703417
-0.005531238078817734,-0.009225781868439744
-0.005530898078817735,-0.008106720904784802
-0.005530558078817734,-0.009785312350267215
-0.005530218078817734,-0.008666251386612273
-0.005529878078817735,-0.01004862081230367
-0.005529538078817734,-0.01047649706311076
-0.005529198078817734,-0.009291608983948858
-0.005528858078817735,-0.009094127637421515
-0.005528518078817734,-0.01021318860107622
-0.005528178078817734,-0.01008153437005823
-0.005527838078817735,-0.01245131052838634
-0.005527498078817734,-0.009686571676998693
-0.005527158078817734,-0.007020573498884419
-0.005526818078817735,-0.007185141287657204
-0.005526478078817734,-0.007250968403176077
-0.005526138078817734,-0.01261587831715913
-0.005525798078817735,-0.0104106699476038
-0.005525458078817734,-0.009192868310687342
-0.005525118078817734,-0.01037775638984924
-0.005524778078817735,-0.01054232417862203
-0.005524438078817734,-0.01001570725455091
-0.005524098078817734,-0.01100311398718583
-0.005523758078817735,-0.01208926139308621
-0.005523418078817734,-0.01587432053487632
-0.005523078078817734,-0.02469515401308158
-0.005522738078817735,-0.0377289228838862
-0.005522398078817734,-0.05885942696236059
-0.005522058078817734,-0.08565106297452135
-0.005521718078817735,-0.1182025715937783
-0.005521378078817734,-0.1465740583782601
-0.005521038078817734,-0.1759987790107806
-0.005520698078817735,-0.2048639691615272
-0.005520358078817735,-0.2271464477613218
-0.005520018078817734,-0.2466641875098147
-0.005519678078817735,-0.2601916597469377
-0.005519338078817735,-0.2672680746641546
-0.005518998078817734,-0.2706581711128869
-0.005518658078817735,-0.2685846169743498
-0.005518318078817735,-0.2544976142554249
-0.005517978078817734,-0.2576573157998368
-0.005517638078817735,-0.251996183866053
-0.005517298078817735,-0.2464008790477885
-0.005516958078817734,-0.2357368863353018
-0.005516618078817734,-0.2254020292003708
-0.005516278078817735,-0.2167128499531835
-0.005515938078817734,-0.2123024332140571
-0.005515598078817734,-0.2097351757092016
-0.005515258078817735,-0.1989395287657266
-0.005514918078817734,-0.1916327189441952
-0.005514578078817734,-0.1893616834591308
-0.005514238078817735,-0.1823510956574229
-0.005513898078817734,-0.1782369009380905
-0.005513558078817734,-0.1708313504433152
-0.005513218078817735,-0.1629320965822358
-0.005512878078817734,-0.1632941457175216
-0.005512538078817734,-0.1574355324372104
-0.005512198078817735,-0.14854887184348
-0.005511858078817734,-0.1435460110647873
-0.005511518078817734,-0.1395634705764859
-0.005511178078817735,-0.1330794996988381
-0.005510838078817734,-0.1246865424714261
-0.005510498078817734,-0.116293585244014
-0.005510158078817735,-0.1156024005311683
-0.005509818078817734,-0.1165239801482959
-0.005509478078817734,-0.1095463059043298
-0.005509138078817735,-0.1028648536801547
-0.005508798078817734,-0.1001330283865237
-0.005508458078817734,-0.09861900472981686
-0.005508118078817735,-0.09374779818214241
-0.005507778078817734,-0.08782335778631709
-0.005507438078817734,-0.08505861893493932
-0.005507098078817735,-0.0838408172980207
-0.005506758078817734,-0.08005575815623873
-0.005506418078817734,-0.07571116853264509
-0.005506078078817735,-0.07423005843369004
-0.005505738078817734,-0.07353887372084182
-0.005505398078817734,-0.07215650429515294
-0.005505058078817735,-0.07064248063844331
-0.005504718078817734,-0.06751569265175793
-0.005504378078817734,-0.06616623678382355
-0.005504038078817735,-0.0664953723613691
-0.005503698078817734,-0.06419142331854125
-0.005503358078817734,-0.05932021677087566
-0.005503018078817735,-0.0581353286917116
-0.005502678078817734,-0.05879359984679167
-0.005502338078817734,-0.05270459166220968
-0.005501998078817735,-0.05175009848732753
-0.005501658078817734,-0.05092725954346922
-0.005501318078817734,-0.05402113397239196
-0.005500978078817735,-0.05178301204508209
-0.005500638078817734,-0.04674723770863461
-0.005500298078817734,-0.04661558347761662
-0.005499958078817735,-0.04464077001234319
-0.005499618078817735,-0.04855748338512836
-0.005499278078817734,-0.04773464444127156
-0.005498938078817735,-0.043093832797879
-0.005498598078817735,-0.04069114308180071
-0.005498258078817734,-0.04036200750425076
-0.005497918078817735,-0.03851884826999557
-0.005497578078817735,-0.03677442970900721
-0.005497238078817734,-0.03443756710843049
-0.005496898078817735,-0.03394386374211213
-0.005496558078817735,-0.03463504845495657
-0.005496218078817734,-0.03298937056722998
-0.005495878078817735,-0.03032337238911085
-0.005495538078817735,-0.03006006392707487
-0.005495198078817734,-0.02936887921422869
-0.005494858078817734,-0.02666996747835501
-0.005494518078817735,-0.0256825607457201
-0.005494178078817734,-0.02275325410556272
-0.005493838078817734,-0.02212789650822613
-0.005493498078817735,-0.02216081006598063
-0.005493158078817734,-0.02262159987454449
-0.005492818078817734,-0.01857323227073396
-0.005492478078817735,-0.01909984919480592
-0.005492138078817734,-0.02156836602639866
-0.005491798078817734,-0.02110757621783486
-0.005491458078817735,-0.02173293381517031
-0.005491118078817734,-0.0236090066071812
-0.005490778078817734,-0.02897391652117401
-0.005490438078817735,-0.02347735237616297
-0.005490098078817734,-0.02140379823762588
-0.005489758078817734,-0.01916567631031599
-0.005489418078817735,-0.01811244246217016
-0.005489078078817734,-0.02397105574248133
-0.005488738078817734,-0.02225955073924436
-0.005488398078817735,-0.01942898477235245
-0.005488058078817734,-0.01985686102316349
-0.005487718078817734,-0.0208442677557984
-0.005487378078817735,-0.01942898477235245
-0.005487038078817734,-0.01771747976911476
-0.005486698078817734,-0.01732251707606079
-0.005486358078817735,-0.01495274091773268
-0.005486018078817734,-0.015446444284049
-0.005485678078817734,-0.0143273833203961
-0.005485338078817735,-0.01333997658775938
-0.005484998078817734,-0.01505148159099917
-0.005484658078817734,-0.01659841880546054
-0.005484318078817735,-0.01488691380222357
-0.005483978078817734,-0.0159401476503685
-0.005483638078817734,-0.01544644428405104
-0.005483298078817735,-0.01212217495084077
-0.005482958078817734,-0.01189178004655983
-0.005482618078817734,-0.01241839697063178
-0.005482278078817735,-0.01011444792781279
-0.005481938078817734,-0.01011444792781848
-0.005481598078817734,-0.01324123591449571
-0.005481258078817735,-0.0129450138947047
-0.005480918078817734,-0.01284627322144677
-0.005480578078817734,-0.01600597476587851
-0.005480238078817735,-0.01640093745893319
-0.005479898078817734,-0.009094127637422414
-0.005479558078817734,-0.009587831003739873
-0.005479218078817735,-0.007514276865202775
-0.005478878078817735,-0.009489090330472608
-0.005478538078817734,-0.01393242062734141
-0.005478198078817735,-0.008797905617630502
-0.005477858078817735,-0.008732078502121508
-0.005477518078817734,-0.01031192927434013
-0.005477178078817735,-0.01241839697063178
-0.005476838078817735,-0.01083854619841592
-0.005476498078817734,-0.01419572908937787
-0.005476158078817735,-0.01208926139308621
-0.005475818078817735,-0.01281335966368515
-0.005475478078817734,-0.01268170543266824
-0.005475138078817735,-0.01245131052838634
-0.005474798078817735,-0.01169429870003291
-0.005474458078817734,-0.01199052071982254
-0.005474118078817734,-0.01037775638984924
-0.005473778078817735,-0.009620744561495807
-0.005473438078817734,-0.008534597155594046
-0.005473098078817734,-0.004782451571574535
-0.005472758078817735,-0.005506549842173475
-0.005472418078817734,-0.008073807347030245
-0.005472078078817734,-0.009028300521912402
-0.005471738078817735,-0.008699164944367429
-0.005471398078817734,-0.006954746383375304
-0.005471058078817734,-0.00767884465397556
-0.005470718078817735,-0.006724351479095141
-0.005470378078817734,-0.006790178594602518
-0.005470038078817734,-0.01274753254817735
-0.005469698078817735,-0.009258695426194301
-0.005469358078817734,-0.00665852436358429
-0.005469018078817734,-0.006362302343793276
-0.005468678078817735,-0.008172548020293918
-0.005468338078817734,-0.01050941062086747
-0.005467998078817734,-0.0129450138947047
-0.005467658078817735,-0.009357436099457973
-0.005467318078817734,-0.007942153116012016
-0.005466978078817734,-0.00962074456149443
-0.005466638078817735,-0.01027901571658557
-0.005466298078817734,-0.01021318860107466
-0.005465958078817734,-0.009225781868439744
-0.005465618078817735,-0.009258695426194301
-0.005465278078817734,-0.007942153116013274
-0.005464938078817734,-0.008633337828857716
-0.005464598078817735,-0.008962473406403288
-0.005464258078817734,-0.007218054845409247
-0.005463918078817734,-0.005835685419720362
-0.005463578078817735,-0.006526870132566062
-0.005463238078817734,-0.00738262263418269
-0.005462898078817734,-0.006362302343793276
-0.005462558078817735,-0.007580103980711889
-0.005462218078817734,-0.007020573498884718
-0.005461878078817734,-0.007185141287657204
-0.005461538078817735,-0.008402942924575817
-0.005461198078817734,-0.006757265036845088
-0.005460858078817734,-0.00517741426462922
-0.005460518078817735,-0.006493956574811504
-0.005460178078817734,-0.007613017538465788
-0.005459838078817734,-0.007250968403166318
-0.005459498078817735,-0.01215508850859533
-0.005459158078817734,-0.00626356167052721
-0.005458818078817734,-0.00494701936034732
-0.005458478078817735,-0.004255834647501621
-0.005458138078817734,-0.0052761549378981
-0.005457798078817734,-0.008139634462539359
-0.005457458078817735,-0.009324522541703417
-0.005457118078817735,-0.008106720904787017
-0.005456778078817734,-0.008666251386612273
-0.005456438078817735,-0.009785312350267215
-0.005456098078817735,-0.01057523773637515
-0.005455758078817734,-0.01212217495084077
-0.005455418078817735,-0.01070689196739481
-0.005455078078817735,-0.01024610215883185
-0.005454738078817734,-0.009225781868439744
-0.005454398078817735,-0.009357436099457973
-0.005454058078817735,-0.01083854619841035
-0.005453718078817734,-0.009653658119248986
-0.005453378078817735,-0.008238375135803031
-0.005453038078817735,-0.009982793696791385
-0.005452698078817734,-0.01031192927434013
-0.005452358078817734,-0.009159954752930631
-0.005452018078817735,-0.00856751071334968
-0.005451678078817734,-0.008863732733139616
-0.005451338078817734,-0.006395215901547833
-0.005450998078817735,-0.006658524363583811
-0.005450658078817734,-0.005572376957683906
-0.005450318078817734,-0.003432995703637694
-0.005449978078817735,-0.003103860126092721
-0.005449638078817734,-0.004091266858728836
-0.005449298078817734,-0.00619773455502049
-0.005448958078817735,-0.00679017859460144
-0.005448618078817734,-0.0005366026212366681
-0.005448278078817734,-0.003202600799355794
-0.005447938078817735,-0.00790923955825746
-0.005447598078817734,-0.006493956574811504
-0.005447258078817734,-0.005144500706874663
-0.005446918078817735,-0.00711931417214809
-0.005446578078817734,-0.008666251386612273
-0.005446238078817734,-0.009522003888230759
-0.005445898078817735,-0.01011444792781279
-0.005445558078817734,-0.009522003888229861
-0.005445218078817734,-0.009028300521912402
-0.005444878078817735,-0.008501683597839487
-0.005444538078817734,-0.009357436099460248
-0.005444198078817734,-0.01060815129413114
-0.005443858078817735,-0.01027901571658557
-0.005443518078817734,-0.0113322495647317
-0.005443178078817734,-0.01149681735350419
-0.005442838078817735,-0.009324522541703417
-0.005442498078817734,-0.01008153437005919
-0.005442158078817734,-0.01060815129413114
-0.005441818078817735,-0.009258695426194301
-0.005441478078817734,-0.009489090330477996
-0.005441138078817734,-0.01047649706311291
-0.005440798078817735,-0.01031192927434013
-0.005440458078817734,-0.010377756389852
-0.005440118078817734,-0.01189178004655887
-0.005439778078817735,-0.01083854619841304
-0.005439438078817734,-0.01097020042943265
-0.005439098078817734,-0.01172721225778608
-0.005438758078817735,-0.01067397840964026
-0.005438418078817734,-0.008205461578047277
-0.005438078078817734,-0.007547190422957332
-0.005437738078817735,-0.006164820997265934
-0.005437398078817734,-0.005177414264630658
-0.005437058078817734,-0.005967339650738591
-0.005436718078817735,-0.005045760033610991
-0.005436378078817735,-0.00244558897100571
-0.005436038078817734,-0.00336716858812858
-0.005435698078817735,-0.00392669906995605
-0.005435358078817735,-0.003729217723429067
-0.005435018078817734,-0.003762131281183265
-0.005434678078817735,-0.005341982053402005
-0.005434338078817735,-0.006921832825617874
-0.005433998078817734,-0.01093728687167671
-0.005433658078817735,-0.007382622634184546
-0.005433318078817735,-0.007975066673765498
-0.005432978078817734,-0.006691437921338847
-0.005432638078817735,-0.0106410648518857
-0.005432298078817735,-0.0130766681257185
-0.005431958078817734,-0.01136516312248596
-0.005431618078817734,-0.01001570725454911
-0.005431278078817735,-0.01245131052838191
-0.005430938078817734,-0.009982793696794558
-0.005430598078817734,-0.01050941062086747
-0.005430258078817735,-0.0089953869641606
-0.005429918078817734,-0.007086400614393532
-0.005429578078817734,-0.008830819175385059
-0.005429238078817735,-0.007613017538468662
-0.005428898078817734,-0.00790923955825746
-0.005428558078817734,-0.009324522541703417
-0.005428218078817735,-0.007218054845415593
-0.005427878078817734,-0.00119487377632781
-0.005427538078817734,-0.006329388786038719
-0.005427198078817735,-0.00767884465397556
-0.005426858078817734,-0.005243241380138334
-0.005426518078817734,-0.007711758211730118
-0.005426178078817735,-0.006987659941129861
-0.005425838078817734,-0.007975066673766575
-0.005425498078817734,-0.008271288693557588
-0.005425158078817735,-0.009324522541703417
-0.005424818078817734,-0.0106410648518857
-0.005424478078817734,-0.009916966581285444
-0.005424138078817735,-0.01047649706311291
-0.005423798078817734,-0.01090437331392647
-0.005423458078817734,-0.01327414947225027
-0.005423118078817735,-0.006954746383375304
-0.005422778078817734,-0.00511158714911819
-0.005422438078817734,-0.004058353300974278
-0.005422098078817735,-0.006329388786038719
-0.005421758078817734,-0.009456176772715836
-0.005421418078817734,-0.006263561670529605
-0.005421078078817735,-0.007053487056638975
-0.005420738078817734,-0.007481363307444266
-0.005420398078817734,-0.005309068495647449
-0.005420058078817735,-0.004683710898310864
-0.005419718078817734,-0.005769858304212626
-0.005419378078817734,-0.006526870132566062
-0.005419038078817735,-0.007053487056638975
-0.005418698078817734,-0.006263561670529365
-0.005418358078817734,-0.006131907439511376
-0.005418018078817735,-0.007942153116012016
-0.005417678078817734,-0.009258695426188195
-0.005417338078817734,-0.005901512535229476
-0.005416998078817735,-0.004124180416483393
