Analysis/files/cmb03_wrd01/d2s08_ch00.csv

#Digilent WaveForms Oscilloscope Acquisition
#Device Name: ADP3450
#Serial Number: SN:210018B9D9B0
#Date Time: 2024-08-13 16:45:04.573.093.870
#Sample rate: 2.94118e+06Hz
#Samples: 32768
#Trigger: Source: Channel 3 Type: Edge Condition: Rising Level: 60 mV Hyst.: Auto HoldOff: 0 s
#Channel 3: Range: 200 mV/div Offset: 0 V Attenuation: 1 X Coupling: DC Bandwidth: 0 Hz Sample Mode: Average

Time (s),Channel 3 (V)
-0.005570441739130435,0.006276503833956653
-0.005570101739130435,0.005157442870295665
-0.005569761739130435,0.001833173537091444
-0.005569421739130435,0.002853493827482714
-0.005569081739130435,0.002853493827478643
-0.005568741739130435,0.0006153719001728307
-0.005568401739130435,-0.001458182238364267
-0.005568061739130435,-0.00122778733408584
-0.005567721739130435,-0.00313677368384668
-0.005567381739130435,-0.00290637877956478
-0.005567041739130435,-0.001194873776327092
-0.005566701739130435,-0.0007999110832731249
-0.005566361739130435,-0.0006353432945003394
-0.005566021739130435,0.0004837176691467593
-0.005565681739130435,-0.003827958396692379
-0.005565341739130435,0.0004837176691546022
-0.005565001739130435,0.002820580269725103
-0.005564661739130435,0.001141988824245744
-0.005564321739130435,-0.0001745534859365399
-0.005563981739130435,-0.004782451571577349
-0.005563641739130435,-0.006329388786038719
-0.005563301739130435,-0.005309068495647449
-0.005562961739130436,-0.005144500706874962
-0.005562621739130435,-0.006625610805829733
-0.005562281739130435,-0.006526870132566062
-0.005561941739130436,-0.004190007531996758
-0.005561601739130435,-0.00290637877956478
-0.005561261739130435,-0.005045760033610991
-0.005560921739130436,-0.003860871954449091
-0.005560581739130435,-0.003597563492410479
-0.005560241739130435,-0.004617883782801749
-0.005559901739130436,-0.00412418041648429
-0.005559561739130435,-0.004058353300974278
-0.005559221739130435,-0.005144500706874663
-0.005558881739130436,-0.006164820997264077
-0.005558541739130435,-0.005440722726665677
-0.005558201739130435,-0.00665852436358429
-0.005557861739130436,-0.008337115809063649
-0.005557521739130435,-0.007316795518675433
-0.005557181739130435,-0.007744671769484675
-0.005556841739130436,-0.005934426092987326
-0.005556501739130435,-0.005045760033610991
-0.005556161739130435,-0.005341982053402005
-0.005555821739130436,-0.006263561670527928
-0.005555481739130435,-0.008666251386612273
-0.005555141739130435,-0.01215508850859533
-0.005554801739130436,-0.006987659941139261
-0.005554461739130435,-0.005934426092984033
-0.005554121739130435,-0.005309068495647449
-0.005553781739130435,-0.009653658119248986
-0.005553441739130435,-0.01054232417862203
-0.005553101739130435,-0.007580103980711889
-0.005552761739130435,-0.006461043017056948
-0.005552421739130435,-0.007152227729902647
-0.005552081739130435,-0.006230648112775047
-0.005551741739130435,-0.005802771861965805
-0.005551401739130435,-0.005736944746456272
-0.005551061739130435,-0.005506549842174791
-0.005550721739130435,-0.008238375135803031
-0.005550381739130435,-0.0105094106208634
-0.005550041739130435,-0.008271288693557588
-0.005549701739130435,-0.009949880139040001
-0.005549361739130435,-0.01037775638984691
-0.005549021739130435,-0.009094127637421515
-0.005548681739130435,-0.008435856482330374
-0.005548341739130435,-0.009324522541699106
-0.005548001739130435,-0.006954746383375304
-0.005547661739130435,-0.007316795518675433
-0.005547321739130435,-0.009028300521901027
-0.005546981739130435,-0.002774724548546551
-0.005546641739130435,-0.008205461578048474
-0.005546301739130435,-0.01031192927434258
-0.005545961739130435,-0.01166138514227697
-0.005545621739130435,-0.009818225908021772
-0.005545281739130435,-0.01110185466045387
-0.005544941739130435,-0.01350454437653217
-0.005544601739130435,-0.01103602754494038
-0.005544261739130435,-0.007152227729902168
-0.005543921739130435,-0.00688891926786619
-0.005543581739130435,-0.005506549842174791
-0.005543241739130435,-0.01073980552515237
-0.005542901739130435,-0.01238548341287723
-0.005542561739130435,-0.009522003888230759
-0.005542221739130436,-0.01031192927433869
-0.005541881739130435,-0.01218800206634988
-0.005541541739130435,-0.01106894110269494
-0.005541201739130436,-0.01162847158452139
-0.005540861739130435,-0.01162847158452241
-0.005540521739130435,-0.01120059533371317
-0.005540181739130436,-0.01376785283856395
-0.005539841739130435,-0.01314249524123204
-0.005539501739130435,-0.009522003888230759
-0.005539161739130436,-0.008896646290895311
-0.005538821739130435,-0.01047649706311291
-0.005538481739130435,-0.01083854619841304
-0.005538141739130436,-0.007909239558262789
-0.005537801739130435,-0.007316795518675433
-0.005537461739130435,-0.007349709076429989
-0.005537121739130436,-0.009061214079663845
-0.005536781739130435,-0.01097020042943127
-0.005536441739130435,-0.009225781868439744
-0.005536101739130436,-0.008863732733140275
-0.005535761739130435,-0.01261587831715913
-0.005535421739130435,-0.01350454437653217
-0.005535081739130436,-0.01100311398719038
-0.005534741739130435,-0.01314249524123204
-0.005534401739130435,-0.01659841880546054
-0.005534061739130436,-0.009357436099471143
-0.005533721739130435,-0.009785312350267215
-0.005533381739130435,-0.006724351479093405
-0.005533041739130436,-0.006559783690320619
-0.005532701739130435,-0.01192469360431343
-0.005532361739130435,-0.01205634783533165
-0.005532021739130435,-0.007975066673766575
-0.005531681739130435,-0.008995386964157845
-0.005531341739130435,-0.0101802750433219
-0.005531001739130435,-0.008271288693557588
-0.005530661739130435,-0.007152227729902647
-0.005530321739130435,-0.007349709076429989
-0.005529981739130435,-0.006790178594602518
-0.005529641739130435,-0.007250968403169611
-0.005529301739130435,-0.009061214079666959
-0.005528961739130435,-0.008666251386612273
-0.005528621739130435,-0.006954746383379495
-0.005528281739130435,-0.009258695426194301
-0.005527941739130435,-0.01070689196739481
-0.005527601739130435,-0.009423263214969422
-0.005527261739130435,-0.01070689196739481
-0.005526921739130435,-0.01169429870003153
-0.005526581739130435,-0.01274753254817664
-0.005526241739130435,-0.01235256985512267
-0.005525901739130435,-0.01106894110269494
-0.005525561739130435,-0.009949880139040182
-0.005525221739130435,-0.01004862081230367
-0.005524881739130435,-0.0104106699476038
-0.005524541739130435,-0.008337115809072808
-0.005524201739130435,-0.01169429870003153
-0.005523861739130435,-0.01350454437653217
-0.005523521739130435,-0.008205461578061346
-0.005523181739130435,-0.01528187649527825
-0.005522841739130435,-0.02489263535960893
-0.005522501739130435,-0.04477242424341159
-0.005522161739130435,-0.07235398564168027
-0.005521821739130435,-0.1009887808881449
-0.005521481739130435,-0.1290311320950852
-0.005521141739130435,-0.1606939746549116
-0.005520801739130435,-0.1905136579805403
-0.005520461739130436,-0.2141785060060238
-0.005520121739130435,-0.2337291593122738
-0.005519781739130435,-0.248276951839788
-0.005519441739130436,-0.253839343100298
-0.005519101739130435,-0.2568344768559729
-0.005518761739130435,-0.2578547971463641
-0.005518421739130436,-0.253740602427052
-0.005518081739130435,-0.2475857671269423
-0.005517741739130435,-0.2418588080776494
-0.005517401739130436,-0.2352760965267499
-0.005517061739130435,-0.2272122748768715
-0.005516721739130435,-0.2198067243820961
-0.005516381739130436,-0.2140468517750591
-0.005516041739130435,-0.2053576725278456
-0.005515701739130435,-0.1979521220330702
-0.005515361739130436,-0.1917643731752247
-0.005515021739130435,-0.1841284277761562
-0.005514681739130435,-0.1780723331493177
-0.005514341739130436,-0.1731352994861431
-0.005514001739130435,-0.1665525879352227
-0.005513661739130435,-0.1648739964897403
-0.005513321739130436,-0.1546707935858462
-0.005512981739130435,-0.1468702803979976
-0.005512641739130435,-0.1400571739428043
-0.005512301739130436,-0.1352188809528844
-0.005511961739130435,-0.1345935233555478
-0.005511621739130435,-0.13070972354051
-0.005511281739130435,-0.125805603435081
-0.005510941739130435,-0.1216914087157614
-0.005510601739130435,-0.1185646207290784
-0.005510261739130435,-0.1171493377456325
-0.005509921739130435,-0.1115211193696032
-0.005509581739130435,-0.1063207772443832
-0.005509241739130435,-0.1037206061817732
-0.005508901739130435,-0.1013179164656835
-0.005508561739130435,-0.09746703020840736
-0.005508221739130435,-0.09578843876292495
-0.005507881739130435,-0.09486685914578968
-0.005507541739130435,-0.09065392375321402
-0.005507201739130435,-0.088053752690604
-0.005506861739130435,-0.08568397653226903
-0.005506521739130435,-0.08189891739050184
-0.005506181739130435,-0.08025323950277399
-0.005505841739130435,-0.07719227863159903
-0.005505501739130435,-0.07656692103426357
-0.005505161739130435,-0.07123492467802534
-0.005504821739130435,-0.07024751794538202
-0.005504481739130435,-0.06662702659238734
-0.005504141739130435,-0.06333567081693162
-0.005503801739130435,-0.06168999292919893
-0.005503461739130435,-0.05902399475108465
-0.005503121739130435,-0.05892525407782098
-0.005502781739130435,-0.05089434598570335
-0.005502441739130435,-0.04776755799902611
-0.005502101739130435,-0.03552371451433087
-0.005501761739130435,-0.04533195472519607
-0.005501421739130435,-0.04928158165573574
-0.005501081739130435,-0.04483825135887053
-0.005500741739130435,-0.04319257347113974
-0.005500401739130435,-0.04157980914116938
-0.005500061739130435,-0.04115193289036014
-0.005499721739130436,-0.0404936617352702
-0.005499381739130435,-0.03999995836895064
-0.005499041739130435,-0.03838719403897734
-0.005498701739130436,-0.03927586009834877
-0.005498361739130435,-0.04092153798607824
-0.005498021739130435,-0.03878215673203202
-0.005497681739130436,-0.03845302115448705
-0.005497341739130435,-0.0391112923095776
-0.005497001739130435,-0.03825553980795911
-0.005496661739130436,-0.0373339601908332
-0.005496321739130435,-0.03779474999939531
-0.005495981739130435,-0.03713647884430417
-0.005495641739130436,-0.03595159076514227
-0.005495301739130435,-0.03677442970900404
-0.005494961739130435,-0.03236401296989339
-0.005494621739130436,-0.02857895382812621
-0.005494281739130435,-0.02880934873240122
-0.005493941739130435,-0.02920431142545591
-0.005493601739130436,-0.02627500478530565
-0.005493261739130435,-0.02380648795370854
-0.005492921739130435,-0.02466224045532703
-0.005492581739130436,-0.02611043699652491
-0.005492241739130435,-0.02025182371621638
-0.005491901739130435,-0.01775039332687003
-0.005491561739130436,-0.01393242062734835
-0.005491221739130435,-0.01557809851506927
-0.005490881739130435,-0.02051513217825283
-0.005490541739130436,-0.01798078823115194
-0.005490201739130435,-0.01659841880546054
-0.005489861739130435,-0.01956063900337068
-0.005489521739130435,-0.02216081006598069
-0.005489181739130435,-0.02420145064676323
-0.005488841739130435,-0.02657122680509134
-0.005488501739130435,-0.02456349978206336
-0.005488161739130435,-0.02492554891736564
-0.005487821739130435,-0.02611043699652754
-0.005487481739130435,-0.02374066083819943
-0.005487141739130435,-0.02176584737292415
-0.005486801739130435,-0.02074552708253473
-0.005486461739130435,-0.02028473727397093
-0.005486121739130435,-0.0176845662113596
-0.005485781739130435,-0.01696046794076066
-0.005485441739130435,-0.01584140697710572
-0.005485101739130435,-0.01511730870650846
-0.005484761739130435,-0.01676298659423332
-0.005484421739130435,-0.01610471543914218
-0.005484081739130435,-0.01534770361078725
-0.005483741739130435,-0.01528187649527825
-0.005483401739130435,-0.01722377640279712
-0.005483061739130435,-0.0149527409177337
-0.005482721739130435,-0.01551227139956015
-0.005482381739130435,-0.02012016948519815
-0.005482041739130435,-0.01429446976263915
-0.005481701739130435,-0.01297792745245925
-0.005481361739130435,-0.0113322495647314
-0.005481021739130435,-0.01034484283210576
-0.005480681739130435,-0.01643385101668775
-0.005480341739130435,-0.01814535601992472
-0.005480001739130435,-0.01442612399366186
-0.005479661739130435,-0.01557809851506927
-0.005479321739130435,-0.01877071361726131
-0.005478981739130436,-0.01699338149851845
-0.005478641739130435,-0.01590723409261484
-0.005478301739130435,-0.01511730870650547
-0.005477961739130436,-0.01317540879899013
-0.005477621739130435,-0.01116768177595861
-0.005477281739130435,-0.01162847158452241
-0.005476941739130436,-0.01008153437006104
-0.005476601739130435,-0.008633337828857716
-0.005476261739130435,-0.01027901571658557
-0.005475921739130436,-0.01215508850859191
-0.005475581739130435,-0.01113476821820406
-0.005475241739130435,-0.0113322495647314
-0.005474901739130436,-0.0112664224492224
-0.005474561739130435,-0.01004862081230367
-0.005474221739130435,-0.0106410648518857
-0.005473881739130436,-0.01031192927434073
-0.005473541739130435,-0.007645931096221003
-0.005473201739130435,-0.007514276865202775
-0.005472861739130436,-0.008370029366819704
-0.005472521739130435,-0.006263561670529605
-0.005472181739130435,-0.007218054845411761
-0.005471841739130436,-0.0115626444690054
-0.005471501739130435,-0.005967339650738591
-0.005471161739130435,-0.004255834647501621
-0.005470821739130436,-0.01120059533370054
-0.005470481739130435,-0.01241839697063178
-0.005470141739130435,-0.01176012581554064
-0.005469801739130436,-0.01353745793428673
-0.005469461739130435,-0.01215508850859533
-0.005469121739130435,-0.01054232417862203
-0.005468781739130435,-0.01044358350535836
-0.005468441739130435,-0.01027901571658557
-0.005468101739130435,-0.009258695426194301
-0.005467761739130435,-0.008304202251312145
-0.005467421739130435,-0.009094127637421515
-0.005467081739130435,-0.008830819175385059
-0.005466741739130435,-0.01146390379574963
-0.005466401739130435,-0.01294501389470284
-0.005466061739130435,-0.01192469360431343
-0.005465721739130435,-0.01370202572305951
-0.005465381739130435,-0.01580849341935009
-0.005465041739130435,-0.01521604937976914
-0.005464701739130435,-0.01478817312895989
-0.005464361739130435,-0.015150222264259
-0.005464021739130435,-0.01459069178243255
-0.005463681739130435,-0.01314249524123204
-0.005463341739130435,-0.01248422408613617
-0.005463001739130435,-0.009884053023530886
-0.005462661739130435,-0.006296475228284162
-0.005462321739130435,-0.00639521590154472
-0.005461981739130435,-0.004683710898310864
-0.005461641739130435,-0.007580103980711889
-0.005461301739130435,-0.004782451571584952
-0.005460961739130435,-0.01050941062086747
-0.005460621739130435,-0.007580103980711889
-0.005460281739130435,-0.01004862081231493
-0.005459941739130435,-0.01623636967016041
-0.005459601739130435,-0.01600597476587851
-0.005459261739130435,-0.01419572908937727
-0.005458921739130435,-0.0138665935118323
-0.005458581739130435,-0.01370202572305951
-0.005458241739130435,-0.01396533418509339
-0.005457901739130435,-0.01255005120165001
-0.005457561739130435,-0.005572376957683906
-0.005457221739130436,-0.005341982053402424
-0.005456881739130435,-0.006098993881756819
-0.005456541739130435,-0.005078673591365549
-0.005456201739130436,-0.004453315994030101
-0.005455861739130435,-0.004683710898310864
-0.005455521739130435,-0.003860871954446936
-0.005455181739130436,-0.005012846475854339
-0.005454841739130435,-0.007185141287657204
-0.005454501739130435,-0.007942153116012016
-0.005454161739130436,-0.008567510713347465
-0.005453821739130435,-0.01139807668024051
-0.005453481739130435,-0.01245131052838634
-0.005453141739130436,-0.01011444792781704
-0.005452801739130435,-0.009916966581285444
-0.005452461739130435,-0.01189178004655887
-0.005452121739130436,-0.009719485234762053
-0.005451781739130435,-0.01149681735350419
-0.005451441739130435,-0.01531479005303281
-0.005451101739130436,-0.01709212217177566
-0.005450761739130435,-0.01373493928081407
-0.005450421739130435,-0.01304375456796837
-0.005450081739130436,-0.009423263214973672
-0.005449741739130435,-0.01073980552514937
-0.005449401739130435,-0.01538061716854192
-0.005449061739130436,-0.01268170543267315
-0.005448721739130435,-0.01037775638984924
-0.005448381739130435,-0.01031192927434013
-0.005448041739130435,-0.00962074456149443
-0.005447701739130435,-0.0106410648518857
-0.005447361739130435,-0.01093728687167671
-0.005447021739130435,-0.007843412442748346
-0.005446681739130435,-0.007415536191939104
-0.005446341739130435,-0.00837002936682126
-0.005446001739130435,-0.007942153116012016
-0.005445661739130435,-0.005605290515436487
-0.005445321739130435,-0.004519143109538078
-0.005444981739130435,-0.005440722726665677
-0.005444641739130435,-0.0064610430170606
-0.005444301739130435,-0.008468770040084931
-0.005443961739130435,-0.008304202251312145
-0.005443621739130435,-0.006230648112780914
-0.005443281739130435,-0.009456176772721644
-0.005442941739130435,-0.0106410648518857
-0.005442601739130435,-0.008468770040086247
-0.005442261739130435,-0.009192868310685188
-0.005441921739130435,-0.01172721225778608
-0.005441581739130435,-0.01205634783533309
-0.005441241739130435,-0.01284627322144103
-0.005440901739130435,-0.01610471543914218
-0.005440561739130435,-0.01386659351182517
-0.005440221739130435,-0.009949880139040001
-0.005439881739130435,-0.0111018546604495
-0.005439541739130435,-0.008205461578052665
-0.005439201739130435,-0.01050941062086747
-0.005438861739130435,-0.01439321043590521
-0.005438521739130435,-0.01156264446901168
-0.005438181739130435,-0.01067397840964026
-0.005437841739130435,-0.01172721225778608
-0.005437501739130435,-0.01199052071982266
-0.005437161739130435,-0.01205634783533165
-0.005436821739130435,-0.01195760716206798
-0.005436481739130436,-0.009916966581289157
-0.005436141739130435,-0.007876326000502903
-0.005435801739130435,-0.009324522541703417
-0.005435461739130436,-0.008633337828858974
-0.005435121739130435,-0.006724351479093405
-0.005434781739130435,-0.006098993881756819
-0.005434441739130436,-0.005572376957684863
-0.005434101739130435,-0.005012846475856435
-0.005433761739130435,-0.005276154937892892
-0.005433421739130436,-0.006296475228282306
-0.005433081739130435,-0.005901512535229476
-0.005432741739130435,-0.008468770040084931
-0.005432401739130436,-0.01258296475939709
-0.005432061739130435,-0.01284627322144103
-0.005431721739130435,-0.01274753254817735
-0.005431381739130436,-0.01426155620488423
-0.005431041739130435,-0.01376785283856862
-0.005430701739130435,-0.01347163081877761
-0.005430361739130436,-0.01755291198033527
-0.005430021739130435,-0.009522003888230759
-0.005429681739130435,-0.008106720904784802
-0.005429341739130436,-0.008370029366820781
-0.005429001739130435,-0.008040893789275689
-0.005428661739130435,-0.01143099023799507
-0.005428321739130436,-0.01215508850859401
-0.005427981739130435,-0.01090437331392216
-0.005427641739130435,-0.0115626444690133
-0.005427301739130436,-0.01284627322144103
-0.005426961739130435,-0.01343871726102305
-0.005426621739130435,-0.01264879187491368
-0.005426281739130435,-0.01212217495084077
-0.005425941739130435,-0.0111018546604495
-0.005425601739130435,-0.009357436099457973
-0.005425261739130435,-0.00939034965721253
-0.005424921739130435,-0.006724351479093405
-0.005424581739130435,-0.004881192244838206
-0.005424241739130435,-0.005440722726665677
-0.005423901739130435,-0.006493956574811564
-0.005423561739130435,-0.006526870132566062
-0.005423221739130435,-0.007580103980711889
-0.005422881739130435,-0.01139807668023961
-0.005422541739130435,-0.01090437331392216
-0.005422201739130435,-0.0117930393732952
-0.005421861739130435,-0.0123525698551201
-0.005421521739130435,-0.01093728687167671
-0.005421181739130435,-0.008501683597839487
-0.005420841739130435,-0.01136516312248404
-0.005420501739130435,-0.01031192927434013
-0.005420161739130435,-0.012253829181859
-0.005419821739130435,-0.01544644428403853
-0.005419481739130435,-0.008567510713348603
-0.005419141739130435,-0.008995386964157845
-0.005418801739130435,-0.009719485234763551
-0.005418461739130435,-0.0127146189904228
-0.005418121739130435,-0.01498565447548724
-0.005417781739130435,-0.01383367995407535
-0.005417441739130435,-0.01251713764389546
-0.005417101739130435,-0.01034484283209469
-0.005416761739130435,-0.010673978409639
