Analysis/files/cmb03_wrd01/d2s04_ch42.csv

#Digilent WaveForms Oscilloscope Acquisition
#Device Name: ADP3450
#Serial Number: SN:210018B9D9B0
#Date Time: 2024-08-13 12:29:42.629.447.930
#Sample rate: 2.94118e+06Hz
#Samples: 32768
#Trigger: Source: Channel 3 Type: Edge Condition: Rising Level: 60 mV Hyst.: Auto HoldOff: 0 s
#Channel 3: Range: 200 mV/div Offset: 0 V Attenuation: 1 X Coupling: DC Bandwidth: 0 Hz Sample Mode: Average

Time (s),Channel 3 (V)
-0.005570364964370546,0.00357759209808297
-0.005570024964370546,0.0033142836360434
-0.005569684964370546,0.001602778632809544
-0.005569344964370546,-0.000207467043691097
-0.005569004964370546,-0.0001087263704311975
-0.005568664964370546,-0.002182280508964523
-0.005568324964370546,-0.002116453393455409
-0.005567984964370546,-0.001030305987559395
-0.005567644964370546,-0.003432995703637694
-0.005567304964370546,-0.001688577142646167
-0.005566964964370546,-0.0007999110832763579
-0.005566624964370546,-0.002577243202019209
-0.005566284964370546,-0.003038033010583008
-0.005565944964370546,-0.004190007531992088
-0.005565604964370546,-0.003959612627710607
-0.005565264964370546,-0.006856005710111633
-0.005564924964370546,-0.005736944746458666
-0.005564584964370546,-0.006823092152357076
-0.005564244964370546,-0.00767884465397556
-0.005563904964370546,-0.007250968403172065
-0.005563564964370546,-0.0104106699476038
-0.005563224964370546,-0.01143099023799507
-0.005562884964370547,-0.004979932918113612
-0.005562544964370546,-0.002741810990791994
-0.005562204964370546,-0.003301341472619465
-0.005561864964370547,-0.005341982053398293
-0.005561524964370546,-0.006856005710111633
-0.005561184964370546,-0.004222921089747064
-0.005560844964370547,-0.002050626277950246
-0.005560504964370546,-0.00438748887851985
-0.005560164964370546,-0.004058353300974278
-0.005559824964370547,-0.006790178594597549
-0.005559484964370546,-0.006625610805829733
-0.005559144964370546,-0.007382622634184546
-0.005558804964370547,-0.008732078502118934
-0.005558464964370546,-0.008007980231521132
-0.005558124964370546,-0.008139634462539359
-0.005557784964370547,-0.009225781868437768
-0.005557444964370546,-0.008995386964157845
-0.005557104964370546,-0.009225781868439744
-0.005556764964370547,-0.0109702004294281
-0.005556424964370546,-0.005802771861965805
-0.005556084964370546,-0.0108714597561676
-0.005555744964370547,-0.01274753254817394
-0.005555404964370546,-0.01241839697063178
-0.005555064964370546,-0.01185886648880431
-0.005554724964370547,-0.01218800206634929
-0.005554384964370546,-0.01126642244922228
-0.005554044964370546,-0.01129933600697684
-0.005553704964370547,-0.01215508850859533
-0.005553364964370546,-0.01218800206634988
-0.005553024964370546,-0.01610471543914218
-0.005552684964370547,-0.01097020042943127
-0.005552344964370546,-0.009489090330476201
-0.005552004964370546,-0.004255834647501621
-0.005551664964370547,-0.006493956574811504
-0.005551324964370546,-0.01034484283209103
-0.005550984964370546,-0.008337115809066702
-0.005550644964370547,-0.005704031188702134
-0.005550304964370546,-0.006461043017061677
-0.005549964964370546,-0.009061214079666959
-0.005549624964370546,-0.008863732733139616
-0.005549284964370546,-0.007942153116008844
-0.005548944964370546,-0.00619773455502049
-0.005548604964370546,-0.007185141287657204
-0.005548264964370546,-0.01024610215883006
-0.005547924964370546,-0.009719485234758102
-0.005547584964370546,-0.008830819175385059
-0.005547244964370546,-0.01037775638985038
-0.005546904964370546,-0.01100311398718583
-0.005546564964370546,-0.01310958168347748
-0.005546224964370546,-0.01343871726102252
-0.005545884964370546,-0.01314249524123204
-0.005545544964370546,-0.01320832235674115
-0.005545204964370546,-0.01590723409261496
-0.005544864964370546,-0.01597306120812395
-0.005544524964370546,-0.01218800206634988
-0.005544184964370546,-0.01218800206635024
-0.005543844964370546,-0.01238548341287723
-0.005543504964370546,-0.01192469360431343
-0.005543164964370546,-0.01050941062086957
-0.005542824964370546,-0.01166138514227697
-0.005542484964370546,-0.01347163081877761
-0.005542144964370547,-0.009094127637429478
-0.005541804964370546,-0.009522003888230759
-0.005541464964370546,-0.008830819175385059
-0.005541124964370547,-0.01126642244921785
-0.005540784964370546,-0.01817826957767928
-0.005540444964370546,-0.01676298659423332
-0.005540104964370547,-0.01320832235674762
-0.005539764964370546,-0.01350454437653217
-0.005539424964370546,-0.01278044610593191
-0.005539084964370547,-0.01179303937329699
-0.005538744964370546,-0.01192469360431343
-0.005538404964370546,-0.0101802750433219
-0.005538064964370547,-0.01044358350535788
-0.005537724964370546,-0.01136516312248596
-0.005537384964370546,-0.0117930393732952
-0.005537044964370547,-0.01008153437006134
-0.005536704964370546,-0.01120059533371317
-0.005536364964370546,-0.0117930393732952
-0.005536024964370547,-0.01278044610593012
-0.005535684964370546,-0.01235256985512267
-0.005535344964370546,-0.01222091562410444
-0.005535004964370547,-0.01169429870003249
-0.005534664964370546,-0.014557778224678
-0.005534324964370546,-0.01320832235674115
-0.005533984964370547,-0.01129933600698032
-0.005533644964370546,-0.0127146189904228
-0.005533304964370546,-0.01327414947225027
-0.005532964964370547,-0.0117930393732952
-0.005532624964370546,-0.01054232417862203
-0.005532284964370546,-0.01442612399365977
-0.005531944964370547,-0.01399824774285052
-0.005531604964370546,-0.00767884465397556
-0.005531264964370546,-0.01031192927434013
-0.005530924964370547,-0.008666251386612273
-0.005530584964370546,-0.01218800206634988
-0.005530244964370546,-0.01567683918833294
-0.005529904964370547,-0.01389950706958685
-0.005529564964370546,-0.0114968173535067
-0.005529224964370546,-0.01287918677919558
-0.005528884964370546,-0.01297792745245925
-0.005528544964370546,-0.0117272122577859
-0.005528204964370546,-0.01162847158452241
-0.005527864964370546,-0.01083854619841304
-0.005527524964370546,-0.0101144479278156
-0.005527184964370546,-0.01166138514227697
-0.005526844964370546,-0.01255005120165001
-0.005526504964370546,-0.01120059533371593
-0.005526164964370546,-0.0127146189904228
-0.005525824964370546,-0.01468943245569622
-0.005525484964370546,-0.01531479005303203
-0.005525144964370546,-0.01488691380222357
-0.005524804964370546,-0.01570975274608749
-0.005524464964370546,-0.01617054255465225
-0.005524124964370546,-0.01669715947872421
-0.005523784964370546,-0.01735543063381535
-0.005523444964370546,-0.01900110852155847
-0.005523104964370546,-0.02739406574895527
-0.005522764964370546,-0.04253430231605154
-0.005522424964370546,-0.06261157254638113
-0.005522084964370546,-0.08996273904036833
-0.005521744964370546,-0.1245548882404078
-0.005521404964370546,-0.1514781784836897
-0.005521064964370546,-0.1812649482515097
-0.005520724964370546,-0.2099655706134836
-0.005520384964370547,-0.2343216033518115
-0.005520044964370546,-0.257196525991273
-0.005519704964370546,-0.2699011592845321
-0.005519364964370547,-0.2758585132380961
-0.005519024964370546,-0.2778991538188894
-0.005518684964370546,-0.2773067097793074
-0.005518344964370547,-0.2739824404461031
-0.005518004964370546,-0.2652603476411395
-0.005517664964370546,-0.2599941784004103
-0.005517324964370547,-0.2507125551136421
-0.005516984964370546,-0.2422208572129495
-0.005516644964370546,-0.2350786151802106
-0.005516304964370547,-0.2281667680517662
-0.005515964964370546,-0.2208928717879965
-0.005515624964370546,-0.2125657416760936
-0.005515284964370547,-0.207365399550883
-0.005514944964370546,-0.1983470847261249
-0.005514604964370546,-0.192093508752759
-0.005514264964370547,-0.1845563040269792
-0.005513924964370546,-0.177677370456263
-0.005513584964370546,-0.1716541893871791
-0.005513244964370547,-0.1665196743774775
-0.005512904964370546,-0.1613851593677573
-0.005512564964370546,-0.1503262039622261
-0.005512224964370547,-0.1533542512756453
-0.005511884964370546,-0.1478906006883889
-0.005511544964370546,-0.1436776652958055
-0.005511204964370547,-0.1421965551968505
-0.005510864964370546,-0.1314667353688649
-0.005510524964370546,-0.124620715355917
-0.005510184964370547,-0.1188608427488695
-0.005509844964370546,-0.1156682276466774
-0.005509504964370546,-0.1149112158183226
-0.005509164964370547,-0.1113236380230759
-0.005508824964370546,-0.1062549501288678
-0.005508484964370546,-0.102766113006891
-0.005508144964370547,-0.1011204351191632
-0.005507804964370546,-0.09858609117205379
-0.005507464964370546,-0.09391236597091518
-0.005507124964370546,-0.09048935596444124
-0.005506784964370546,-0.08805375269059867
-0.005506444964370546,-0.08512444605044844
-0.005506104964370546,-0.08285341056538401
-0.005505764964370546,-0.08166852248621169
-0.005505424964370546,-0.07712645151609104
-0.005505084964370546,-0.07373635506737167
-0.005504744964370546,-0.07268312121922083
-0.005504404964370546,-0.06991838236784306
-0.005504064964370546,-0.06791065534481508
-0.005503724964370546,-0.064915521589149
-0.005503384964370546,-0.06415850976079557
-0.005503044964370546,-0.06175582004471289
-0.005502704964370546,-0.06271031321959122
-0.005502364964370546,-0.06060384552330339
-0.005502024964370546,-0.05731248974784768
-0.005501684964370546,-0.05737831686335476
-0.005501344964370546,-0.05625925589970185
-0.005501004964370546,-0.05698335417030211
-0.005500664964370546,-0.0548439729162444
-0.005500324964370546,-0.04852456982738093
-0.005499984964370546,-0.04720802751719864
-0.005499644964370547,-0.04457494289683887
-0.005499304964370546,-0.04592439876477092
-0.005498964964370546,-0.04763590376800789
-0.005498624964370547,-0.04457494289683964
-0.005498284964370546,-0.04365336327970648
-0.005497944964370546,-0.04253430231605154
-0.005497604964370547,-0.04108610577485366
-0.005497264964370546,-0.04046074817751444
-0.005496924964370546,-0.03809097201918633
-0.005496584964370547,-0.03634655345819797
-0.005496244964370546,-0.03558954162983999
-0.005495904964370546,-0.03298937056722998
-0.005495564964370547,-0.03127786556399612
-0.005495224964370546,-0.02963218767626515
-0.005494884964370546,-0.02801942334629185
-0.005494544964370547,-0.02736115219120191
-0.005494204964370546,-0.02811816401955552
-0.005493864964370546,-0.02936887921422869
-0.005493524964370547,-0.02923722498321071
-0.005493184964370546,-0.02989549613830161
-0.005492844964370546,-0.03045502662012908
-0.005492504964370547,-0.02808525046180528
-0.005492164964370546,-0.02736115219120071
-0.005491824964370546,-0.02574838786122741
-0.005491484964370547,-0.02485972180185599
-0.005491144964370546,-0.02334569814514474
-0.005490804964370546,-0.02532051161041817
-0.005490464964370547,-0.0282169046928192
-0.005490124964370546,-0.02347735237616297
-0.005489784964370546,-0.02410270997349956
-0.005489444964370547,-0.02166710669966233
-0.005489104964370546,-0.02179876093068056
-0.005488764964370546,-0.02643957257407311
-0.005488424964370547,-0.02532051161041817
-0.005488084964370546,-0.02173293381517102
-0.005487744964370546,-0.02150253891088955
-0.005487404964370547,-0.02186458804618967
-0.005487064964370546,-0.02064678640927124
-0.005486724964370546,-0.02074552708253473
-0.005486384964370546,-0.02041639150498916
-0.005486044964370546,-0.01985686102315744
-0.005485704964370546,-0.01751999842258814
-0.005485364964370546,-0.01778330688462459
-0.005485024964370546,-0.01705920861402607
-0.005484684964370546,-0.01801370178890649
-0.005484344964370546,-0.01824409669318839
-0.005484004964370546,-0.01906693563705495
-0.005483664964370546,-0.02051513217825283
-0.005483324964370546,-0.02077844064028929
-0.005482984964370546,-0.01972520679214322
-0.005482644964370546,-0.01959355256112523
-0.005482304964370546,-0.02156836602639866
-0.005481964964370546,-0.01936315765684172
-0.005481624964370546,-0.01847449159747029
-0.005481284964370546,-0.01893528140603409
-0.005480944964370546,-0.01834283736644847
-0.005480604964370546,-0.01636802390117864
-0.005480264964370546,-0.01965937967663435
-0.005479924964370546,-0.02025182371620255
-0.005479584964370546,-0.01264879187491368
-0.005479244964370546,-0.01327414947225027
-0.005478904964370547,-0.01129933600698044
-0.005478564964370546,-0.01399824774285052
-0.005478224964370546,-0.01735543063381535
-0.005477884964370547,-0.01544644428405451
-0.005477544964370546,-0.01284627322144103
-0.005477204964370546,-0.01449195110916888
-0.005476864964370547,-0.01696046794075617
-0.005476524964370546,-0.01258296475940457
-0.005476184964370546,-0.01199052071982254
-0.005475844964370547,-0.0112335088914691
-0.005475504964370546,-0.009982793696794558
-0.005475164964370546,-0.009357436099457973
-0.005474824964370547,-0.01097020042942834
-0.005474484964370546,-0.01060815129413114
-0.005474144964370546,-0.01189178004655887
-0.005473804964370547,-0.01363619860754722
-0.005473464964370546,-0.0138665935118323
-0.005473124964370546,-0.01419572908937787
-0.005472784964370547,-0.01472234601344982
-0.005472444964370546,-0.01544644428405104
-0.005472104964370546,-0.01761873909585181
-0.005471764964370547,-0.01702629505627086
-0.005471424964370546,-0.01679590015198788
-0.005471084964370546,-0.0159401476503694
-0.005470744964370547,-0.0170592086140223
-0.005470404964370546,-0.01613762899689674
-0.005470064964370546,-0.01478817312895989
-0.005469724964370547,-0.01775039332687003
-0.005469384964370546,-0.01673007303647877
-0.005469044964370546,-0.008205461578048474
-0.005468704964370547,-0.009884053023530886
-0.005468364964370546,-0.01508439514875091
-0.005468024964370546,-0.01166138514227697
-0.005467684964370547,-0.01182595293104976
-0.005467344964370546,-0.01376785283856862
-0.005467004964370546,-0.01291210033695014
-0.005466664964370547,-0.009686571677003543
-0.005466324964370546,-0.01281335966368443
-0.005465984964370546,-0.01169429870003153
-0.005465644964370546,-0.01146390379574963
-0.005465304964370546,-0.01116768177595825
-0.005464964964370546,-0.01097020042943127
-0.005464624964370546,-0.01251713764389546
-0.005464284964370546,-0.01294501389470422
-0.005463944964370546,-0.01268170543266824
-0.005463604964370546,-0.01192469360431343
-0.005463264964370546,-0.0145248646669226
-0.005462924964370546,-0.01406407485835964
-0.005462584964370546,-0.01327414947225027
-0.005462244964370546,-0.01409698841611611
-0.005461904964370546,-0.01515022226426002
-0.005461564964370546,-0.01426155620488698
-0.005461224964370546,-0.01307666812572317
-0.005460884964370546,-0.01320832235674115
-0.005460544964370546,-0.01442612399365977
-0.005460204964370546,-0.01551227139955872
-0.005459864964370546,-0.01472234601345078
-0.005459524964370546,-0.01291210033695014
-0.005459184964370546,-0.01511730870649942
-0.005458844964370546,-0.0117930393732952
-0.005458504964370546,-0.0101802750433219
-0.005458164964370546,-0.01060815129412875
-0.005457824964370546,-0.009291608983948858
-0.005457484964370546,-0.01050941062086747
-0.005457144964370547,-0.00718514128766325
-0.005456804964370546,-0.008732078502121389
-0.005456464964370546,-0.0136361986075504
-0.005456124964370547,-0.01294501389470596
-0.005455784964370546,-0.0131754087989866
-0.005455444964370546,-0.01380076639632318
-0.005455104964370547,-0.01347163081877821
-0.005454764964370546,-0.01373493928081407
-0.005454424964370546,-0.01373493928081407
-0.005454084964370547,-0.01429446976264052
-0.005453744964370546,-0.0124842240861409
-0.005453404964370546,-0.0124842240861409
-0.005453064964370547,-0.01179303937329646
-0.005452724964370546,-0.01445903755141432
-0.005452384964370546,-0.0140969884161142
-0.005452044964370547,-0.01360328504979674
-0.005451704964370546,-0.01459069178243255
-0.005451364964370546,-0.01679590015198788
-0.005451024964370547,-0.01689464082525137
-0.005450684964370546,-0.01475525957120534
-0.005450344964370546,-0.01597306120812395
-0.005450004964370547,-0.01574266630384247
-0.005449664964370546,-0.01518313582201458
-0.005449324964370546,-0.01531479005303281
-0.005448984964370547,-0.01347163081878096
-0.005448644964370546,-0.01268170543266824
-0.005448304964370546,-0.01370202572305951
-0.005447964964370547,-0.01682881370974244
-0.005447624964370546,-0.01403116130060508
-0.005447284964370546,-0.009554917445985316
-0.005446944964370547,-0.0108714597561676
-0.005446604964370546,-0.01037775638984924
-0.005446264964370546,-0.01475525957120534
-0.005445924964370547,-0.01719086284504256
-0.005445584964370546,-0.01468943245569688
-0.005445244964370546,-0.01505148159099635
-0.005444904964370547,-0.0150185680332418
-0.005444564964370546,-0.01235256985512075
-0.005444224964370546,-0.01129933600697684
-0.005443884964370546,-0.01389950706958685
-0.005443544964370546,-0.01202343427757554
-0.005443204964370546,-0.01116768177595861
-0.005442864964370546,-0.01097020042943127
-0.005442524964370546,-0.01149681735350556
-0.005442184964370546,-0.012253829181859
-0.005441844964370546,-0.0129450138947047
-0.005441504964370546,-0.01228674273961398
-0.005441164964370546,-0.01251713764389546
-0.005440824964370546,-0.0150185680332418
-0.005440484964370546,-0.01574266630384175
-0.005440144964370546,-0.01557809851506927
-0.005439804964370546,-0.01574266630384205
-0.005439464964370546,-0.01630219678566952
-0.005439124964370546,-0.01630219678566952
-0.005438784964370546,-0.01600597476587851
-0.005438444964370546,-0.01403116130060035
-0.005438104964370546,-0.01143099023799507
-0.005437764964370546,-0.0143273833203961
-0.005437424964370546,-0.01860614582847325
-0.005437084964370546,-0.01021318860107646
-0.005436744964370546,-0.009291608983948858
-0.005436404964370547,-0.01080563264065573
-0.005436064964370546,-0.01166138514227697
-0.005435724964370546,-0.01528187649527825
-0.005435384964370547,-0.0147223460134518
-0.005435044964370546,-0.01136516312248596
-0.005434704964370546,-0.01429446976264154
-0.005434364964370547,-0.01488691380222249
-0.005434024964370546,-0.01218800206634988
-0.005433684964370546,-0.0113322495647314
-0.005433344964370547,-0.01278044610592928
-0.005433004964370546,-0.01195760716206798
-0.005432664964370546,-0.01008153437005823
-0.005432324964370547,-0.01136516312248362
-0.005431984964370546,-0.01172721225778608
-0.005431644964370546,-0.01261587831715913
-0.005431304964370547,-0.0129450138947041
-0.005430964964370546,-0.01406407485835964
-0.005430624964370546,-0.01307666812572293
-0.005430284964370547,-0.01617054255464567
-0.005429944964370546,-0.0150185680332418
-0.005429604964370546,-0.01380076639632318
-0.005429264964370547,-0.01350454437653271
-0.005428924964370546,-0.01251713764389546
-0.005428584964370546,-0.01162847158452241
-0.005428244964370547,-0.01330706303000177
-0.005427904964370546,-0.01189178004655887
-0.005427564964370546,-0.01080563264065849
-0.005427224964370547,-0.01304375456796837
-0.005426884964370546,-0.01965937967663435
-0.005426544964370546,-0.01228674273961356
-0.005426204964370547,-0.01152973091125874
-0.005425864964370546,-0.01166138514227697
-0.005425524964370546,-0.0117930393732952
-0.005425184964370547,-0.01439321043590521
-0.005424844964370546,-0.01245131052838634
-0.005424504964370546,-0.01136516312248596
-0.005424164964370547,-0.01241839697063178
-0.005423824964370546,-0.01301084101021267
-0.005423484964370546,-0.01238548341287723
-0.005423144964370546,-0.0113322495647314
-0.005422804964370546,-0.01202343427757764
-0.005422464964370546,-0.01231965629736811
-0.005422124964370546,-0.01083854619841304
-0.005421784964370546,-0.01162847158452349
-0.005421444964370546,-0.01222091562410444
-0.005421104964370546,-0.01129933600697684
-0.005420764964370546,-0.01159555802676941
-0.005420424964370546,-0.01245131052838634
-0.005420084964370546,-0.0115626444690133
-0.005419744964370546,-0.01278044610592988
-0.005419404964370546,-0.01166138514227697
-0.005419064964370546,-0.01027901571658557
-0.005418724964370546,-0.01110185466045315
-0.005418384964370546,-0.01310958168347748
-0.005418044964370546,-0.01462360534018711
-0.005417704964370546,-0.01281335966368988
-0.005417364964370546,-0.01468943245569622
-0.005417024964370546,-0.01416281553162331
-0.005416684964370546,-0.0198568610231581
-0.005416344964370546,-0.01788204755788826
-0.005416004964370546,-0.0111018546604495
-0.005415664964370546,-0.01027901571658665
