Analysis/files/cmb03_wrd01/d2s07_ch42.csv

#Digilent WaveForms Oscilloscope Acquisition
#Device Name: ADP3450
#Serial Number: SN:210018B9D9B0
#Date Time: 2024-08-13 16:38:05.907.931.730
#Sample rate: 2.94118e+06Hz
#Samples: 32768
#Trigger: Source: Channel 3 Type: Edge Condition: Rising Level: 60 mV Hyst.: Auto HoldOff: 0 s
#Channel 3: Range: 200 mV/div Offset: 0 V Attenuation: 1 X Coupling: DC Bandwidth: 0 Hz Sample Mode: Average

Time (s),Channel 3 (V)
-0.005570381736111111,0.001899000652600558
-0.005570041736111111,0.003116802289518273
-0.005569701736111111,0.002623098923200814
-0.005569361736111111,-0.000832824641027682
-0.005569021736111111,-0.002313934739979459
-0.005568681736111111,-0.0005036890634821109
-0.005568341736111111,0.0003191498803818167
-0.005568001736111111,-0.0005695161789902075
-0.005567661736111111,-9.985697163754359e-06
-0.005567321736111111,-0.0007669975255185678
-0.005566981736111111,0.001964827768112306
-0.005566641736111111,0.003413024309310185
-0.005566301736111111,0.001964827768109672
-0.005565961736111111,0.0006482854579302016
-0.005565621736111111,0.002195222672391572
-0.005565281736111111,0.002162309114637015
-0.005564941736111111,0.0005166312269060462
-0.005564601736111111,-0.00119487377632781
-0.005564261736111111,-0.005572376957683906
-0.005563921736111111,0.0002533227648746782
-0.005563581736111111,0.001339470170773087
-0.005563241736111111,0.0005495447846637165
-0.005562901736111112,-0.002675983875277013
-0.005562561736111111,-0.006724351479093405
-0.005562221736111111,-0.006954746383375304
-0.005561881736111112,-0.005473636284422928
-0.005561541736111111,-0.007053487056638975
-0.005561201736111111,-0.007053487056638975
-0.005560861736111112,-0.006395215901549031
-0.005560521736111111,-0.00494701936034732
-0.005560181736111111,-0.004914105802592763
-0.005559841736111112,-0.006033166766245669
-0.005559501736111111,-0.00415709397423795
-0.005559161736111111,-0.003795044838937822
-0.005558821736111112,-0.006230648112770617
-0.005558481736111111,-0.007283881960920875
-0.005558141736111111,-0.00540780916891112
-0.005557801736111112,-0.006197734555019053
-0.005557461736111111,-0.007152227729902647
-0.005557121736111111,-0.006592697248075176
-0.005556781736111112,-0.007448449749692104
-0.005556441736111111,-0.007152227729902647
-0.005556101736111111,-0.006098993881756819
-0.005555761736111112,-0.007382622634182211
-0.005555421736111111,-0.007810498884993789
-0.005555081736111111,-0.00586859897747492
-0.005554741736111111,-0.004058353300977571
-0.005554401736111111,-0.006526870132566062
-0.005554061736111111,-0.009554917445985316
-0.005553721736111111,-0.0106410648518857
-0.005553381736111111,-0.003597563492410479
-0.005553041736111111,-0.007645931096221003
-0.005552701736111111,-0.01199052071982254
-0.005552361736111111,-0.0117930393732952
-0.005552021736111111,-0.007711758211730118
-0.005551681736111111,-0.009719485234758102
-0.005551341736111111,-0.01047649706311291
-0.005551001736111111,-0.01047649706311291
-0.005550661736111111,-0.01008153437005823
-0.005550321736111111,-0.009489090330474464
-0.005549981736111111,-0.008534597155594046
-0.005549641736111111,-0.008534597155594046
-0.005549301736111111,-0.008172548020293678
-0.005548961736111111,-0.008040893789275689
-0.005548621736111111,-0.008007980231521132
-0.005548281736111111,-0.008699164944370542
-0.005547941736111111,-0.01073980552514937
-0.005547601736111111,-0.01083854619841304
-0.005547261736111111,-0.01192469360431702
-0.005546921736111111,-0.01389950706958685
-0.005546581736111111,-0.0127146189904228
-0.005546241736111111,-0.01235256985512429
-0.005545901736111111,-0.01324123591449571
-0.005545561736111111,-0.01090437331392216
-0.005545221736111111,-0.009291608983951552
-0.005544881736111111,-0.01077271908290393
-0.005544541736111111,-0.01031192927434013
-0.005544201736111111,-0.008830819175386735
-0.005543861736111111,-0.009752398792512659
-0.005543521736111111,-0.01192469360431343
-0.005543181736111111,-0.01031192927433917
-0.005542841736111111,-0.009785312350267215
-0.005542501736111111,-0.009127041195176074
-0.005542161736111112,-0.008567510713349621
-0.005541821736111111,-0.008896646290894173
-0.005541481736111111,-0.008534597155594046
-0.005541141736111112,-0.008106720904785581
-0.005540801736111111,-0.009686571677003543
-0.005540461736111111,-0.01011444792781279
-0.005540121736111112,-0.00886373273314189
-0.005539781736111111,-0.009127041195176074
-0.005539441736111111,-0.009159954752930631
-0.005539101736111112,-0.008995386964158145
-0.005538761736111111,-0.0113322495647314
-0.005538421736111111,-0.008797905617630502
-0.005538081736111112,-0.008567510713349023
-0.005537741736111111,-0.008040893789275689
-0.005537401736111111,-0.007876326000502903
-0.005537061736111112,-0.0115297309112521
-0.005536721736111111,-0.01324123591449571
-0.005536381736111111,-0.01228674273961356
-0.005536041736111112,-0.009192868310690815
-0.005535701736111111,-0.01268170543266824
-0.005535361736111111,-0.012253829181859
-0.005535021736111112,-0.01083854619841562
-0.005534681736111111,-0.009061214079666959
-0.005534341736111111,-0.01034484283209469
-0.005534001736111111,-0.01077271908290315
-0.005533661736111111,-0.01034484283209469
-0.005533321736111111,-0.0104106699476038
-0.005532981736111111,-0.01070689196739481
-0.005532641736111111,-0.01027901571658557
-0.005532301736111111,-0.0009973924298004675
-0.005531961736111111,-0.009752398792512659
-0.005531621736111111,-0.009456176772721644
-0.005531281736111111,-0.009291608983948858
-0.005530941736111111,-0.009949880139040001
-0.005530601736111111,-0.01060815129413114
-0.005530261736111111,-0.01054232417862203
-0.005529921736111111,-0.01152973091125874
-0.005529581736111111,-0.01113476821820298
-0.005529241736111111,-0.01054232417862203
-0.005528901736111111,-0.0120234342775771
-0.005528561736111111,-0.01363619860755327
-0.005528221736111111,-0.01521604937976914
-0.005527881736111111,-0.01037775638984924
-0.005527541736111111,-0.00892955984864454
-0.005527201736111111,-0.006625610805829733
-0.005526861736111111,-0.008962473406403288
-0.005526521736111111,-0.01021318860107155
-0.005526181736111111,-0.007514276865202775
-0.005525841736111111,-0.007777585327239231
-0.005525501736111111,-0.009851139465772377
-0.005525161736111111,-0.00767884465397556
-0.005524821736111111,-0.008238375135803031
-0.005524481736111111,-0.01067397840964325
-0.005524141736111111,-0.01231965629736811
-0.005523801736111111,-0.01478817312895989
-0.005523461736111111,-0.01686172726751034
-0.005523121736111111,-0.02420145064676323
-0.005522781736111111,-0.03907837875182304
-0.005522441736111111,-0.0608013268698739
-0.005522101736111111,-0.08453200201086641
-0.005521761736111111,-0.114582080240777
-0.005521421736111111,-0.1476272922264103
-0.005521081736111111,-0.1794876161327637
-0.005520741736111111,-0.2084515469567739
-0.005520401736111112,-0.2324784441175569
-0.005520061736111111,-0.2507783822291343
-0.005519721736111111,-0.2645691629282938
-0.005519381736111112,-0.2734229099642536
-0.005519041736111111,-0.2753977234295431
-0.005518701736111111,-0.2733570828487605
-0.005518361736111112,-0.2711189609214547
-0.005518021736111111,-0.2673009882219221
-0.005517681736111111,-0.2628247443673022
-0.005517341736111112,-0.2470920637606526
-0.005517001736111111,-0.2379091811471025
-0.005516661736111111,-0.2297137052662178
-0.005516321736111112,-0.2254349427581332
-0.005515981736111111,-0.2215511429430876
-0.005515641736111111,-0.2107554959995929
-0.005515301736111112,-0.2055222403166279
-0.005514961736111111,-0.200420638864662
-0.005514621736111111,-0.1930150883698867
-0.005514281736111112,-0.1854778836441068
-0.005513941736111111,-0.1791913941129727
-0.005513601736111111,-0.1730036452551159
-0.005513261736111112,-0.1670462913015519
-0.005512921736111111,-0.1610889373479663
-0.005512581736111111,-0.1543087444505275
-0.005512241736111111,-0.1497666734803986
-0.005511901736111111,-0.1455537380878153
-0.005511561736111111,-0.1389381129791493
-0.005511221736111111,-0.1336061166229111
-0.005510881736111111,-0.1305780693094918
-0.005510541736111111,-0.1257726898773265
-0.005510201736111111,-0.1210331375606702
-0.005509861736111111,-0.1184000529403057
-0.005509521736111111,-0.1149770429338317
-0.005509181736111111,-0.1112248973498122
-0.005508841736111111,-0.1086905534027071
-0.005508501736111111,-0.1063866043598923
-0.005508161736111111,-0.1009229537726359
-0.005507821736111111,-0.09838860982553592
-0.005507481736111111,-0.09891522674960787
-0.005507141736111111,-0.08772461711305846
-0.005506801736111111,-0.08298506479639713
-0.005506461736111111,-0.08018741238726487
-0.005506121736111111,-0.07630361257222712
-0.005505781736111111,-0.0800557581562449
-0.005505441736111111,-0.07910126498136449
-0.005505101736111111,-0.07245272631494395
-0.005504761736111111,-0.07261729410371499
-0.005504421736111111,-0.07166280092883456
-0.005504081736111111,-0.0685689264999062
-0.005503741736111111,-0.06662702659238447
-0.005503401736111111,-0.06504717582016858
-0.005503061736111111,-0.06172290648695833
-0.005502721736111111,-0.05843155071150011
-0.005502381736111111,-0.05704918128581122
-0.005502041736111111,-0.05316538147077348
-0.005501701736111111,-0.05099308665896763
-0.005501361736111111,-0.04819543424983536
-0.005501021736111111,-0.04552943607171624
-0.005500681736111111,-0.04358753616419491
-0.005500341736111111,-0.04223808029626052
-0.005500001736111111,-0.04184311760320584
-0.005499661736111112,-0.04085571087057092
-0.005499321736111111,-0.04092153798607824
-0.005498981736111111,-0.04125067356362381
-0.005498641736111112,-0.03963790923365345
-0.005498301736111111,-0.03871632961652291
-0.005497961736111111,-0.0391112923095776
-0.005497621736111112,-0.03631363990044533
-0.005497281736111111,-0.03999995836895064
-0.005496941736111111,-0.04236973452727875
-0.005496601736111112,-0.03374638239560047
-0.005496261736111111,-0.03266023498968441
-0.005495921736111111,-0.03746561442184974
-0.005495581736111112,-0.03407551797313653
-0.005495241736111111,-0.03009297748482895
-0.005494901736111111,-0.03078416219767465
-0.005494561736111112,-0.02976384190728524
-0.005494221736111111,-0.0282169046928192
-0.005493881736111111,-0.02867769450138299
-0.005493541736111112,-0.02900683007892797
-0.005493201736111111,-0.02848021315485565
-0.005492861736111111,-0.02887517584791034
-0.005492521736111112,-0.02851312671261087
-0.005492181736111111,-0.0275257199799735
-0.005491841736111111,-0.0284472995971011
-0.005491501736111111,-0.02690036238263973
-0.005491161736111111,-0.02469515401308158
-0.005490821736111111,-0.02709784372916425
-0.005490481736111111,-0.02502428959062716
-0.005490141736111111,-0.02262159987454449
-0.005489801736111111,-0.02170002025741689
-0.005489461736111111,-0.02127214400660764
-0.005489121736111111,-0.01926441698357966
-0.005488781736111111,-0.01821118313543383
-0.005488441736111111,-0.01834283736645206
-0.005488101736111111,-0.01656550524771065
-0.005487761736111111,-0.01913276275256143
-0.005487421736111111,-0.01577557986159661
-0.005487081736111111,-0.01176012581554759
-0.005486741736111111,-0.01557809851506927
-0.005486401736111111,-0.02324695747188107
-0.005486061736111111,-0.02084426775579068
-0.005485721736111111,-0.01659841880546054
-0.005485381736111111,-0.01880362717501586
-0.005485041736111111,-0.01626928322791419
-0.005484701736111111,-0.01584140697710572
-0.005484361736111111,-0.01663133236321509
-0.005484021736111111,-0.01626928322791478
-0.005483681736111111,-0.01617054255465129
-0.005483341736111111,-0.01607180188138762
-0.005483001736111111,-0.01702629505626756
-0.005482661736111111,-0.01580849341935116
-0.005482321736111111,-0.01620345611240585
-0.005481981736111111,-0.01669715947872224
-0.005481641736111111,-0.01561101207282382
-0.005481301736111111,-0.01600597476587851
-0.005480961736111111,-0.01653259168995346
-0.005480621736111111,-0.01765165265360636
-0.005480281736111111,-0.01784913400013371
-0.005479941736111111,-0.01709212217177566
-0.005479601736111111,-0.01531479005303281
-0.005479261736111111,-0.01465651889794167
-0.005478921736111112,-0.01656550524770251
-0.005478581736111111,-0.01478817312895989
-0.005478241736111111,-0.0120234342775771
-0.005477901736111112,-0.01600597476587126
-0.005477561736111111,-0.01673007303647877
-0.005477221736111111,-0.01083854619841304
-0.005476881736111112,-0.01554518495730615
-0.005476541736111111,-0.0106410648518857
-0.005476201736111111,-0.008666251386612273
-0.005475861736111112,-0.01567683918832018
-0.005475521736111111,-0.01580849341935116
-0.005475181736111111,-0.009785312350267215
-0.005474841736111112,-0.01169429870002806
-0.005474501736111111,-0.01406407485835964
-0.005474161736111111,-0.01189178004655887
-0.005473821736111112,-0.01195760716206786
-0.005473481736111111,-0.01097020042943127
-0.005473141736111111,-0.0106410648518857
-0.005472801736111112,-0.0107068919673947
-0.005472461736111111,-0.01149681735350419
-0.005472121736111111,-0.008633337828857716
-0.005471781736111112,-0.009719485234756126
-0.005471441736111111,-0.01090437331392216
-0.005471101736111111,-0.01014736148556734
-0.005470761736111112,-0.01001570725454935
-0.005470421736111111,-0.01057523773637659
-0.005470081736111111,-0.009982793696794558
-0.005469741736111111,-0.01090437331392216
-0.005469401736111111,-0.01172721225778608
-0.005469061736111111,-0.0108714597561676
-0.005468721736111111,-0.01169429870003153
-0.005468381736111111,-0.01169429870003153
-0.005468041736111111,-0.0127146189904228
-0.005467701736111111,-0.01176012581554064
-0.005467361736111111,-0.01366911216530495
-0.005467021736111111,-0.01623636967016041
-0.005466681736111111,-0.007942153116012016
-0.005466341736111111,-0.01083854619841041
-0.005466001736111111,-0.00939034965721253
-0.005465661736111111,-0.005309068495647449
-0.005465321736111111,-0.01156264446901964
-0.005464981736111111,-0.01505148159099635
-0.005464641736111111,-0.01008153437005823
-0.005464301736111111,-0.01004862081230942
-0.005463961736111111,-0.01320832235674115
-0.005463621736111111,-0.01195760716206798
-0.005463281736111111,-0.01083854619841262
-0.005462941736111111,-0.01060815129413114
-0.005462601736111111,-0.009916966581285444
-0.005462261736111111,-0.009949880139042756
-0.005461921736111111,-0.01146390379574963
-0.005461581736111111,-0.009785312350267215
-0.005461241736111111,-0.009884053023534059
-0.005460901736111111,-0.01162847158452241
-0.005460561736111111,-0.0106410648518857
-0.005460221736111111,-0.009653658119251261
-0.005459881736111111,-0.01090437331392216
-0.005459541736111111,-0.01172721225778608
-0.005459201736111111,-0.01097020042943528
-0.005458861736111111,-0.0131754087989866
-0.005458521736111111,-0.01472234601345078
-0.005458181736111111,-0.0142615562048901
-0.005457841736111111,-0.01597306120812395
-0.005457501736111111,-0.01515022226426002
-0.005457161736111112,-0.01278044610593622
-0.005456821736111111,-0.01419572908937787
-0.005456481736111111,-0.01557809851506927
-0.005456141736111112,-0.0044533159940492
-0.005455801736111111,-0.007349709076429989
-0.005455461736111111,-0.005671117630947577
-0.005455121736111112,-0.00027329415921003
-0.005454781736111111,-0.007514276865202775
-0.005454441736111111,-0.009587831003739873
-0.005454101736111112,-0.005901512535236182
-0.005453761736111111,-0.005934426092984033
-0.005453421736111111,-0.01057523773637659
-0.005453081736111112,-0.009258695426196697
-0.005452741736111111,-0.007942153116012016
-0.005452401736111111,-0.009324522541703417
-0.005452061736111112,-0.008863732733140454
-0.005451721736111111,-0.009192868310685188
-0.005451381736111111,-0.009324522541703417
-0.005451041736111112,-0.009456176772721404
-0.005450701736111111,-0.008995386964157845
-0.005450361736111111,-0.01050941062086747
-0.005450021736111112,-0.01195760716206535
-0.005449681736111111,-0.01143099023799507
-0.005449341736111111,-0.01159555802676786
-0.005449001736111111,-0.01297792745245674
-0.005448661736111111,-0.01185886648880431
-0.005448321736111111,-0.01149681735350419
-0.005447981736111111,-0.01103602754494038
-0.005447641736111111,-0.009324522541703417
-0.005447301736111111,-0.008995386964157845
-0.005446961736111111,-0.01077271908290393
-0.005446621736111111,-0.009554917445985316
-0.005446281736111111,-0.01212217495084077
-0.005445941736111111,-0.01758582553809725
-0.005445601736111111,-0.01317540879898588
-0.005445261736111111,-0.01278044610593191
-0.005444921736111111,-0.01515022226426002
-0.005444581736111111,-0.01103602754494697
-0.005444241736111111,-0.01465651889794167
-0.005443901736111111,-0.01952772544561612
-0.005443561736111111,-0.01557809851506472
-0.005443221736111111,-0.01307666812572293
-0.005442881736111111,-0.01649967813219686
-0.005442541736111111,-0.01459069178241303
-0.005442201736111111,-0.003860871954446936
-0.005441861736111111,-0.01245131052838634
-0.005441521736111111,-0.01070689196739332
-0.005441181736111111,-0.009884053023530886
-0.005440841736111111,-0.009884053023530886
-0.005440501736111111,-0.01027901571658246
-0.005440161736111111,-0.008567510713348603
-0.005439821736111111,-0.0106410648518857
-0.005439481736111111,-0.01215508850859251
-0.005439141736111111,-0.01060815129413114
-0.005438801736111111,-0.009851139465776329
-0.005438461736111111,-0.01041066994760051
-0.005438121736111111,-0.00860042427110316
-0.005437781736111111,-0.007942153116012016
-0.005437441736111111,-0.007909239558255185
-0.005437101736111111,-0.00665852436358429
-0.005436761736111111,-0.006033166766247705
-0.005436421736111112,-0.007415536191936589
-0.005436081736111111,-0.006362302343793276
-0.005435741736111111,-0.007415536191939104
-0.005435401736111112,-0.01436029687813802
-0.005435061736111111,-0.01149681735350419
-0.005434721736111111,-0.004025439743219721
-0.005434381736111112,-0.01231965629735303
-0.005434041736111111,-0.01004862081230367
-0.005433701736111111,-0.009587831003739873
-0.005433361736111112,-0.01538061716853139
-0.005433021736111111,-0.01215508850859533
-0.005432681736111111,-0.009291608983948858
-0.005432341736111112,-0.01152973091125467
-0.005432001736111111,-0.01044358350535836
-0.005431661736111111,-0.007185141287657204
-0.005431321736111112,-0.007185141287657204
-0.005430981736111111,-0.009884053023530886
-0.005430641736111111,-0.009357436099457973
-0.005430301736111112,-0.009324522541703477
-0.005429961736111111,-0.01037775638984924
-0.005429621736111111,-0.01120059533371317
-0.005429281736111112,-0.01238548341287507
-0.005428941736111111,-0.01238548341287723
-0.005428601736111111,-0.01077271908290393
-0.005428261736111111,-0.009554917445987531
-0.005427921736111111,-0.01185886648880431
-0.005427581736111111,-0.0111018546604495
-0.005427241736111111,-0.008732078502121389
-0.005426901736111111,-0.009258695426194301
-0.005426561736111111,-0.01090437331392216
-0.005426221736111111,-0.01004862081230367
-0.005425881736111111,-0.01034484283209469
-0.005425541736111111,-0.009554917445985316
-0.005425201736111111,-0.009785312350267215
-0.005424861736111111,-0.01570975274608749
-0.005424521736111111,-0.01241839697063178
-0.005424181736111111,-0.005440722726665677
-0.005423841736111111,-0.01162847158452882
-0.005423501736111111,-0.01515022226426002
-0.005423161736111111,-0.01189178004655887
-0.005422821736111111,-0.0106081512941321
-0.005422481736111111,-0.01113476821820406
-0.005422141736111111,-0.009159954752930631
-0.005421801736111111,-0.009522003888229442
-0.005421461736111111,-0.008797905617630502
-0.005421121736111111,-0.007777585327239231
-0.005420781736111111,-0.008666251386618201
-0.005420441736111111,-0.01192469360431343
-0.005420101736111111,-0.01083854619841304
-0.005419761736111111,-0.01113476821820687
-0.005419421736111111,-0.01268170543266824
-0.005419081736111111,-0.01208926139308621
-0.005418741736111111,-0.01287918677919463
-0.005418401736111111,-0.01235256985512267
-0.005418061736111111,-0.01162847158452241
-0.005417721736111111,-0.009916966581286941
-0.005417381736111111,-0.01073980552514937
-0.005417041736111111,-0.01050941062086747
-0.005416701736111111,-0.009225781868440284
