Analysis/files/cmb03_wrd01/d2s03_ch19.csv

#Digilent WaveForms Oscilloscope Acquisition
#Device Name: ADP3450
#Serial Number: SN:210018B9D9B0
#Date Time: 2024-08-13 11:40:54.649.822.540
#Sample rate: 2.94118e+06Hz
#Samples: 32768
#Trigger: Source: Channel 3 Type: Edge Condition: Rising Level: 60 mV Hyst.: Auto HoldOff: 0 s
#Channel 3: Range: 200 mV/div Offset: 0 V Attenuation: 1 X Coupling: DC Bandwidth: 0 Hz Sample Mode: Average

Time (s),Channel 3 (V)
-0.005570362476190477,-0.002313934739982752
-0.005570022476190476,-0.001688577142647245
-0.005569682476190476,-0.002281021182228195
-0.005569342476190477,-0.003169687241601236
-0.005569002476190476,-0.001886058489171115
-0.005568662476190476,-0.0005695161789912252
-0.005568322476190476,-0.00188605848917351
-0.005567982476190476,-0.002972205895073595
-0.005567642476190476,-0.002807638106301108
-0.005567302476190476,-0.009258695426194301
-0.005566962476190476,-0.007218054845406134
-0.005566622476190476,-0.004124180416483393
-0.005566282476190476,-0.01008153437005823
-0.005565942476190476,-0.004749538013821475
-0.005565602476190476,-0.005572376957683906
-0.005565262476190476,-0.01218800206634988
-0.005564922476190476,-0.01100311398717804
-0.005564582476190476,-0.006724351479093405
-0.005564242476190476,-0.008863732733139616
-0.005563902476190476,-0.01008153437005499
-0.005563562476190476,-0.008304202251312145
-0.005563222476190476,-0.009061214079666959
-0.005562882476190477,-0.008402942924577014
-0.005562542476190476,-0.008304202251312145
-0.005562202476190476,-0.009324522541703417
-0.005561862476190477,-0.01047649706311082
-0.005561522476190476,-0.009785312350267215
-0.005561182476190476,-0.01083854619841304
-0.005560842476190477,-0.01215508850859293
-0.005560502476190476,-0.0117930393732952
-0.005560162476190476,-0.01195760716206798
-0.005559822476190477,-0.01310958168347539
-0.005559482476190476,-0.01215508850859533
-0.005559142476190476,-0.01103602754494038
-0.005558802476190477,-0.01192469360431181
-0.005558462476190476,-0.0104106699476038
-0.005558122476190476,-0.01070689196739481
-0.005557782476190477,-0.01093728687167629
-0.005557442476190476,-0.01343871726102305
-0.005557102476190476,-0.01212217495084077
-0.005556762476190477,-0.01732251707605133
-0.005556422476190476,-0.01574266630384205
-0.005556082476190476,-0.008205461578048474
-0.005555742476190477,-0.01409698841610348
-0.005555402476190476,-0.01590723409261484
-0.005555062476190476,-0.01347163081877761
-0.005554722476190477,-0.01274753254817867
-0.005554382476190476,-0.01528187649527825
-0.005554042476190476,-0.01327414947225027
-0.005553702476190477,-0.01426155620488698
-0.005553362476190476,-0.01590723409261484
-0.005553022476190476,-0.01577557986159661
-0.005552682476190477,-0.01656550524770598
-0.005552342476190476,-0.01673007303647877
-0.005552002476190476,-0.01751999842258814
-0.005551662476190477,-0.01745417130707902
-0.005551322476190476,-0.01877071361725903
-0.005550982476190476,-0.01751999842258814
-0.005550642476190477,-0.01682881370974244
-0.005550302476190476,-0.01929733054132428
-0.005549962476190476,-0.01383367995407774
-0.005549622476190477,-0.0134058037032685
-0.005549282476190476,-0.01113476821821166
-0.005548942476190476,-0.01531479005303281
-0.005548602476190477,-0.01722377640279712
-0.005548262476190476,-0.01742125774932207
-0.005547922476190476,-0.01610471543914218
-0.005547582476190476,-0.01745417130707902
-0.005547242476190476,-0.018639059386242
-0.005546902476190476,-0.01804661534666105
-0.005546562476190476,-0.01702629505626978
-0.005546222476190476,-0.01758582553809839
-0.005545882476190476,-0.01821118313543383
-0.005545542476190476,-0.01445903755141432
-0.005545202476190476,-0.01663133236321647
-0.005544862476190476,-0.01738834419156991
-0.005544522476190476,-0.01630219678566952
-0.005544182476190476,-0.01722377640279724
-0.005543842476190476,-0.01728960351830624
-0.005543502476190476,-0.01620345611240585
-0.005543162476190476,-0.01524896293752471
-0.005542822476190476,-0.01580849341935116
-0.005542482476190476,-0.01452486466692344
-0.005542142476190477,-0.01531479005303137
-0.005541802476190476,-0.01462360534018711
-0.005541462476190476,-0.01505148159099635
-0.005541122476190477,-0.01505148159099635
-0.005540782476190476,-0.01686172726749699
-0.005540442476190476,-0.01663133236321509
-0.005540102476190477,-0.01863905938623943
-0.005539762476190476,-0.01719086284504256
-0.005539422476190476,-0.01205634783533165
-0.005539082476190477,-0.01722377640278772
-0.005538742476190476,-0.01475525957120534
-0.005538402476190476,-0.01686172726749699
-0.005538062476190477,-0.02143671179537211
-0.005537722476190476,-0.01988977458091625
-0.005537382476190476,-0.01850740515522485
-0.005537042476190477,-0.01896819496378781
-0.005536702476190476,-0.01979103390765257
-0.005536362476190476,-0.01913276275256143
-0.005536022476190477,-0.0159401476503752
-0.005535682476190476,-0.01811244246217016
-0.005535342476190476,-0.01867197294399764
-0.005535002476190477,-0.01719086284504526
-0.005534662476190476,-0.01682881370974244
-0.005534322476190476,-0.02028473727397093
-0.005533982476190477,-0.01965937967663548
-0.005533642476190476,-0.02008725592744359
-0.005533302476190476,-0.02094300842906207
-0.005532962476190477,-0.02051513217825283
-0.005532622476190476,-0.01998851525417992
-0.005532282476190476,-0.02008725592744359
-0.005531942476190477,-0.01870488650175219
-0.005531602476190476,-0.01722377640279712
-0.005531262476190476,-0.01742125774932446
-0.005530922476190477,-0.01728960351830624
-0.005530582476190476,-0.01488691380222357
-0.005530242476190476,-0.01505148159099635
-0.005529902476190477,-0.01495274091773268
-0.005529562476190476,-0.01557809851507813
-0.005529222476190476,-0.02044930506274372
-0.005528882476190477,-0.014557778224678
-0.005528542476190476,-0.01501856803324563
-0.005528202476190476,-0.01712503572953345
-0.005527862476190477,-0.01380076639632318
-0.005527522476190476,-0.01544644428405792
-0.005527182476190476,-0.0192315034258251
-0.005526842476190476,-0.01709212217177889
-0.005526502476190476,-0.01524896293752597
-0.005526162476190476,-0.01649967813219686
-0.005525822476190476,-0.01613762899689674
-0.005525482476190476,-0.01472234601345006
-0.005525142476190476,-0.0143273833203961
-0.005524802476190476,-0.01521604937976914
-0.005524462476190476,-0.01432738332039604
-0.005524122476190476,-0.01429446976264154
-0.005523782476190476,-0.01742125774932446
-0.005523442476190476,-0.02344443881842739
-0.005523102476190476,-0.03387803662660302
-0.005522762476190476,-0.05096017310121816
-0.005522422476190476,-0.07235398564172954
-0.005522082476190476,-0.09944184367368078
-0.005521742476190476,-0.1314667353688649
-0.005521402476190476,-0.1617801220608638
-0.005521062476190476,-0.1902832630762584
-0.005520722476190476,-0.2166470228376586
-0.005520382476190477,-0.2403776979786512
-0.005520042476190476,-0.2561103785853726
-0.005519702476190476,-0.2677946915882404
-0.005519362476190477,-0.2759901674691101
-0.005519022476190476,-0.2798410537264083
-0.005518682476190476,-0.2822108298847364
-0.005518342476190477,-0.2712506151524888
-0.005518002476190476,-0.2634830155223934
-0.005517662476190476,-0.2571636124335184
-0.005517322476190477,-0.2457096943349534
-0.005516982476190476,-0.2415954996156129
-0.005516642476190476,-0.2366913795101839
-0.005516302476190477,-0.2271793613191342
-0.005515962476190476,-0.2174698617815226
-0.005515622476190476,-0.2101959655177655
-0.005515282476190477,-0.20334994550483
-0.005514942476190476,-0.1945291120265963
-0.005514602476190476,-0.1859057598949023
-0.005514262476190477,-0.1805737635386737
-0.005513922476190476,-0.1740239655455072
-0.005513582476190476,-0.1676387353411231
-0.005513242476190477,-0.1638865897571104
-0.005512902476190476,-0.1617142949453028
-0.005512562476190476,-0.1557898545494825
-0.005512222476190477,-0.1525972394472905
-0.005511882476190476,-0.1469690210712613
-0.005511542476190476,-0.1423940365433778
-0.005511202476190477,-0.139925519711786
-0.005510862476190476,-0.1352517945106389
-0.005510522476190476,-0.1300514523854189
-0.005510182476190477,-0.1247523695869352
-0.005509842476190476,-0.1239295306430713
-0.005509502476190476,-0.1169847699568597
-0.005509162476190477,-0.1111919837920577
-0.005508822476190476,-0.1070119619572194
-0.005508482476190476,-0.1017787062742543
-0.005508142476190477,-0.1015153978122179
-0.005507802476190476,-0.09430732866395448
-0.005507462476190476,-0.08584854432104869
-0.005507122476190477,-0.0863093341296125
-0.005506782476190476,-0.08196474450600599
-0.005506442476190476,-0.07923291921238271
-0.005506102476190477,-0.08314963258517502
-0.005505762476190476,-0.08094442421561387
-0.005505422476190476,-0.07775180911342763
-0.005505082476190476,-0.07650109391875448
-0.005504742476190476,-0.07541494651285001
-0.005504402476190476,-0.0731768245855442
-0.005504062476190476,-0.06955633323254293
-0.005503722476190476,-0.07018169082987383
-0.005503382476190476,-0.0670549028431966
-0.005503042476190476,-0.06330275725917708
-0.005502702476190476,-0.06211786918000602
-0.005502362476190476,-0.05826698292272983
-0.005502022476190476,-0.05731248974784768
-0.005501682476190476,-0.05497562714727472
-0.005501342476190476,-0.0553047627248197
-0.005501002476190476,-0.05270459166220968
-0.005500662476190476,-0.05119056800549521
-0.005500322476190476,-0.04852456982738093
-0.005499982476190476,-0.04911701386696296
-0.005499642476190477,-0.04658266991986667
-0.005499302476190476,-0.04641810213108927
-0.005498962476190476,-0.04417998020377939
-0.005498622476190477,-0.04217225318075506
-0.005498282476190476,-0.04167854981443305
-0.005497942476190476,-0.03999995836895064
-0.005497602476190477,-0.04302800568236438
-0.005497262476190476,-0.03999995836895064
-0.005496922476190476,-0.03447048066618504
-0.005496582476190477,-0.03703773817103583
-0.005496242476190476,-0.03503001114801252
-0.005495902476190476,-0.03456922133944872
-0.005495562476190477,-0.03897963807855135
-0.005495222476190476,-0.03733396019083152
-0.005494882476190476,-0.03558954162983999
-0.005494542476190477,-0.03522749249454052
-0.005494202476190476,-0.03562245518759454
-0.005493862476190476,-0.03509583826352163
-0.005493522476190477,-0.03410843153088672
-0.005493182476190476,-0.03351598749130289
-0.005492842476190476,-0.03111329777522022
-0.005492502476190477,-0.02884226229015991
-0.005492162476190476,-0.02976384190728338
-0.005491822476190476,-0.03134369267950212
-0.005491482476190477,-0.02946761988749578
-0.005491142476190476,-0.02739406574895527
-0.005490802476190476,-0.03045502662012908
-0.005490462476190477,-0.03006006392707439
-0.005490122476190476,-0.02854604027036477
-0.005489782476190476,-0.0272953250756916
-0.005489442476190477,-0.02670288103610957
-0.005489102476190476,-0.02719658440242792
-0.005488762476190476,-0.02696618949814603
-0.005488422476190477,-0.02693327594039147
-0.005488082476190476,-0.02479389468634891
-0.005487742476190476,-0.02680162170937324
-0.005487402476190477,-0.02742697930670982
-0.005487062476190476,-0.02963218767626521
-0.005486722476190476,-0.02966510123401971
-0.005486382476190477,-0.02202915583496246
-0.005486042476190476,-0.02673579459385993
-0.005485702476190476,-0.02443184555104513
-0.005485362476190477,-0.02077844064028929
-0.005485022476190476,-0.02393814218472761
-0.005484682476190476,-0.02439893199329057
-0.005484342476190476,-0.02140379823762588
-0.005484002476190476,-0.01900110852154278
-0.005483662476190476,-0.01877071361726131
-0.005483322476190476,-0.01640093745893319
-0.005482982476190476,-0.01452486466692308
-0.005482642476190476,-0.0143273833203961
-0.005482302476190476,-0.01498565447548724
-0.005481962476190476,-0.0144261239936615
-0.005481622476190476,-0.01538061716854192
-0.005481282476190476,-0.01863905938624308
-0.005480942476190476,-0.01860614582848756
-0.005480602476190476,-0.01807952890441561
-0.005480262476190476,-0.01893528140603409
-0.005479922476190476,-0.01923150342582283
-0.005479582476190476,-0.01798078823115194
-0.005479242476190476,-0.01801370178890649
-0.005478902476190477,-0.01847449159746945
-0.005478562476190476,-0.01765165265360636
-0.005478222476190476,-0.01798078823115194
-0.005477882476190477,-0.01778330688462495
-0.005477542476190476,-0.01610471543914218
-0.005477202476190476,-0.01669715947872421
-0.005476862476190477,-0.01719086284504167
-0.005476522476190476,-0.01886945429052498
-0.005476182476190476,-0.01834283736645206
-0.005475842476190477,-0.01202343427758859
-0.005475502476190476,-0.01587432053486028
-0.005475162476190476,-0.01412990197386875
-0.005474822476190477,-0.0123854834128804
-0.005474482476190476,-0.01702629505626978
-0.005474142476190476,-0.01834283736645206
-0.005473802476190477,-0.01528187649528382
-0.005473462476190476,-0.01436029687815065
-0.005473122476190476,-0.01538061716854192
-0.005472782476190477,-0.01640093745893134
-0.005472442476190476,-0.01656550524770598
-0.005472102476190476,-0.01633511034342408
-0.005471762476190477,-0.01804661534665794
-0.005471422476190476,-0.01751999842258814
-0.005471082476190476,-0.01702629505626978
-0.005470742476190477,-0.01689464082525179
-0.005470402476190476,-0.0159401476503694
-0.005470062476190476,-0.01380076639632318
-0.005469722476190477,-0.01347163081877761
-0.005469382476190476,-0.01426155620488698
-0.005469042476190476,-0.01468943245569622
-0.005468702476190477,-0.01590723409261484
-0.005468362476190476,-0.01633511034342408
-0.005468022476190476,-0.01794787467339738
-0.005467682476190477,-0.01936315765684333
-0.005467342476190476,-0.02008725592744359
-0.005467002476190476,-0.01942898477235245
-0.005466662476190477,-0.01975812034989802
-0.005466322476190476,-0.02153545246864787
-0.005465982476190476,-0.0236090066071812
-0.005465642476190477,-0.024069796415745
-0.005465302476190476,-0.01745417130708154
-0.005464962476190476,-0.01883654073277042
-0.005464622476190477,-0.01564392563057838
-0.005464282476190476,-0.009258695426200827
-0.005463942476190476,-0.01284627322144103
-0.005463602476190477,-0.01468943245569622
-0.005463262476190476,-0.01228674273961433
-0.005462922476190476,-0.0127146189904228
-0.005462582476190476,-0.01376785283856862
-0.005462242476190476,-0.01804661534666249
-0.005461902476190476,-0.01883654073277042
-0.005461562476190476,-0.01860614582848852
-0.005461222476190476,-0.01837575092420626
-0.005460882476190476,-0.01817826957767928
-0.005460542476190476,-0.01755291198034269
-0.005460202476190476,-0.01748708486483352
-0.005459862476190476,-0.01745417130707902
-0.005459522476190476,-0.01554518495731471
-0.005459182476190476,-0.01547935784180931
-0.005458842476190476,-0.01751999842258814
-0.005458502476190476,-0.01557809851506927
-0.005458162476190476,-0.01491982735997746
-0.005457822476190476,-0.014557778224678
-0.005457482476190476,-0.01439321043590521
-0.005457142476190477,-0.0145248646669232
-0.005456802476190476,-0.01541353072629648
-0.005456462476190476,-0.01574266630384205
-0.005456122476190477,-0.01771747976911189
-0.005455782476190476,-0.0190011085215432
-0.005455442476190476,-0.01699338149851522
-0.005455102476190477,-0.02489263535959456
-0.005454762476190476,-0.02008725592744359
-0.005454422476190476,-0.01666424592096965
-0.005454082476190477,-0.01933024409908392
-0.005453742476190476,-0.01472234601345078
-0.005453402476190476,-0.01475525957120534
-0.005453062476190477,-0.02074552708252383
-0.005452722476190476,-0.01949481188786156
-0.005452382476190476,-0.01827701025094295
-0.005452042476190477,-0.017684566211362
-0.005451702476190476,-0.01860614582848852
-0.005451362476190476,-0.01926441698357966
-0.005451022476190477,-0.01817826957768125
-0.005450682476190476,-0.01778330688462459
-0.005450342476190476,-0.01877071361726131
-0.005450002476190477,-0.01745417130708142
-0.005449662476190476,-0.01804661534666105
-0.005449322476190476,-0.01817826957767928
-0.005448982476190477,-0.01758582553809833
-0.005448642476190476,-0.01765165265360636
-0.005448302476190476,-0.01788204755788826
-0.005447962476190477,-0.01465651889794167
-0.005447622476190476,-0.0129450138947047
-0.005447282476190476,-0.01406407485835964
-0.005446942476190477,-0.01468943245569622
-0.005446602476190476,-0.01208926139308621
-0.005446262476190476,-0.01152973091125874
-0.005445922476190477,-0.01195760716206798
-0.005445582476190476,-0.01202343427757554
-0.005445242476190476,-0.01116768177595861
-0.005444902476190477,-0.01238548341287723
-0.005444562476190476,-0.01653259168994699
-0.005444222476190476,-0.0140969884161142
-0.005443882476190477,-0.01320832235674115
-0.005443542476190476,-0.016730073036472
-0.005443202476190476,-0.01301084101021381
-0.005442862476190477,-0.0159401476503694
-0.005442522476190476,-0.02186458804618381
-0.005442182476190476,-0.01863905938624308
-0.005441842476190476,-0.01742125774932446
-0.005441502476190476,-0.01801370178890727
-0.005441162476190476,-0.01844157803971573
-0.005440822476190476,-0.01936315765684333
-0.005440482476190476,-0.01751999842258688
-0.005440142476190476,-0.01682881370974244
-0.005439802476190476,-0.01791496111564282
-0.005439462476190476,-0.01873780005950459
-0.005439122476190476,-0.01755291198034269
-0.005438782476190476,-0.01788204755788826
-0.005438442476190476,-0.01712503572953297
-0.005438102476190476,-0.01686172726749699
-0.005437762476190476,-0.01761873909585181
-0.005437422476190476,-0.01715794928728639
-0.005437082476190476,-0.01626928322791496
-0.005436742476190476,-0.01742125774932446
-0.005436402476190477,-0.01860614582848636
-0.005436062476190476,-0.01653259168995142
-0.005435722476190476,-0.01508439514875091
-0.005435382476190477,-0.01567683918833186
-0.005435042476190476,-0.01564392563057838
-0.005434702476190476,-0.01399824774285052
-0.005434362476190477,-0.01495274091773094
-0.005434022476190476,-0.01719086284504256
-0.005433682476190476,-0.01939607121459789
-0.005433342476190477,-0.01241839697064448
-0.005433002476190476,-0.01452486466692344
-0.005432662476190476,-0.01748708486483358
-0.005432322476190477,-0.01709212217177961
-0.005431982476190476,-0.01646676457444231
-0.005431642476190476,-0.01686172726749699
-0.005431302476190477,-0.01745417130707794
-0.005430962476190476,-0.01702629505626978
-0.005430622476190476,-0.01653259168995142
-0.005430282476190477,-0.01817826957767628
-0.005429942476190476,-0.01659841880546054
-0.005429602476190476,-0.01617054255465129
-0.005429262476190477,-0.01676298659423224
-0.005428922476190476,-0.01742125774932446
-0.005428582476190476,-0.01491982735997812
-0.005428242476190477,-0.01505148159099611
-0.005427902476190476,-0.01508439514875091
-0.005427562476190476,-0.01449195110916888
-0.005427222476190477,-0.01396533418509597
-0.005426882476190476,-0.01327414947225027
-0.005426542476190476,-0.01113476821820406
-0.005426202476190477,-0.01159555802676786
-0.005425862476190476,-0.0117930393732952
-0.005425522476190476,-0.01281335966368647
-0.005425182476190477,-0.0111018546604495
-0.005424842476190476,-0.01067397840964026
-0.005424502476190476,-0.01251713764389546
-0.005424162476190477,-0.01189178004655887
-0.005423822476190476,-0.01594014765037365
-0.005423482476190476,-0.01827701025094295
-0.005423142476190477,-0.01561101207282382
-0.005422802476190476,-0.0162363696701649
-0.005422462476190476,-0.01870488650175219
-0.005422122476190477,-0.01844157803971573
-0.005421782476190476,-0.0205809592937644
-0.005421442476190476,-0.02193041516169879
-0.005421102476190476,-0.02209498295047157
-0.005420762476190476,-0.02291782189433412
-0.005420422476190476,-0.02216081006598069
-0.005420082476190476,-0.02202915583496246
-0.005419742476190476,-0.02067969996702364
-0.005419402476190476,-0.01959355256112523
-0.005419062476190476,-0.01804661534666105
-0.005418722476190476,-0.01791496111564372
-0.005418382476190476,-0.01840866448196118
-0.005418042476190476,-0.01712503572953345
-0.005417702476190476,-0.01821118313543431
-0.005417362476190476,-0.01847449159747029
-0.005417022476190476,-0.01821118313543383
-0.005416682476190476,-0.01432738332039711
-0.005416342476190476,-0.01488691380222357
-0.005416002476190476,-0.01376785283856862
-0.005415662476190476,-0.01235256985512716
