Analysis/files/cmb03_wrd01/d2s04_ch43.csv

#Digilent WaveForms Oscilloscope Acquisition
#Device Name: ADP3450
#Serial Number: SN:210018B9D9B0
#Date Time: 2024-08-13 12:30:10.803.349.940
#Sample rate: 2.94118e+06Hz
#Samples: 32768
#Trigger: Source: Channel 3 Type: Edge Condition: Rising Level: 60 mV Hyst.: Auto HoldOff: 0 s
#Channel 3: Range: 200 mV/div Offset: 0 V Attenuation: 1 X Coupling: DC Bandwidth: 0 Hz Sample Mode: Average

Time (s),Channel 3 (V)
-0.005570497243994944,0.0030180616162555
-0.005570157243994943,0.002557271807690323
-0.005569817243994944,0.001800259979336887
-0.005569477243994944,0.002228136230146129
-0.005569137243994943,0.0008457668044531739
-0.005568797243994944,-9.985697163754359e-06
-0.005568457243994944,0.001504037959545873
-0.005568117243994943,0.001569865075051335
-0.005567777243994943,-0.0004378619479729968
-0.005567437243994944,-7.581281267286857e-05
-0.005567097243994943,-0.002149366951221521
-0.005566757243994943,-0.008501683597839487
-0.005566417243994944,-0.006000253208493148
-0.005566077243994943,-0.003301341472621561
-0.005565737243994943,-0.004453315994028964
-0.005565397243994944,-0.004124180416483393
-0.005565057243994943,-0.007843412442749782
-0.005564717243994943,-0.008633337828857716
-0.005564377243994944,-0.005638204073193019
-0.005564037243994943,-0.004321661763013609
-0.005563697243994943,-0.005901512535229476
-0.005563357243994944,-0.006428129459302391
-0.005563017243994944,-0.004617883782805042
-0.005562677243994943,-0.005276154937892892
-0.005562337243994944,-0.00586859897747492
-0.005561997243994944,-0.006033166766247405
-0.005561657243994943,-0.007250968403166318
-0.005561317243994944,-0.008172548020293918
-0.005560977243994944,-0.007645931096221961
-0.005560637243994943,-0.006954746383375304
-0.005560297243994944,-0.008435856482330374
-0.005559957243994944,-0.007020573498886993
-0.005559617243994943,-0.00665852436358429
-0.005559277243994944,-0.008271288693557588
-0.005558937243994944,-0.006164820997269765
-0.005558597243994943,-0.007053487056638975
-0.005558257243994944,-0.009752398792512659
-0.005557917243994944,-0.01100311398718355
-0.005557577243994943,-0.009884053023530886
-0.005557237243994944,-0.01208926139308621
-0.005556897243994944,-0.01363619860754758
-0.005556557243994943,-0.01373493928081407
-0.005556217243994944,-0.01798078823115194
-0.005555877243994944,-0.0124842240861509
-0.005555537243994943,-0.006131907439511376
-0.005555197243994944,-0.01004862081230367
-0.005554857243994944,-0.01241839697062747
-0.005554517243994943,-0.006164820997265934
-0.005554177243994944,-0.006263561670529605
-0.005553837243994944,-0.01001570725454911
-0.005553497243994943,-0.007942153116012016
-0.005553157243994944,-0.009028300521912402
-0.005552817243994944,-0.0101802750433219
-0.005552477243994943,-0.01106894110269494
-0.005552137243994944,-0.01057523773637659
-0.005551797243994944,-0.01274753254817735
-0.005551457243994943,-0.01189178004655731
-0.005551117243994944,-0.01103602754494038
-0.005550777243994944,-0.01070689196739481
-0.005550437243994943,-0.007119314172151922
-0.005550097243994944,-0.009225781868439744
-0.005549757243994944,-0.01090437331392216
-0.005549417243994943,-0.009225781868439684
-0.005549077243994944,-0.009192868310685188
-0.005548737243994944,-0.01169429870003153
-0.005548397243994943,-0.01189178004656079
-0.005548057243994944,-0.0129450138947047
-0.005547717243994944,-0.01393242062734141
-0.005547377243994943,-0.01557809851506657
-0.005547037243994943,-0.0140969884161142
-0.005546697243994944,-0.01419572908937787
-0.005546357243994943,-0.01337289014551316
-0.005546017243994943,-0.0129450138947047
-0.005545677243994944,-0.007777585327239231
-0.005545337243994943,-0.008106720904781688
-0.005544997243994943,-0.006395215901547833
-0.005544657243994944,-0.006230648112775047
-0.005544317243994943,-0.01271461899042016
-0.005543977243994943,-0.01126642244922228
-0.005543637243994944,-0.0104106699476038
-0.005543297243994943,-0.01452486466692056
-0.005542957243994943,-0.0129450138947047
-0.005542617243994944,-0.01159555802676786
-0.005542277243994944,-0.01215508850859431
-0.005541937243994943,-0.01396533418509597
-0.005541597243994944,-0.01324123591449571
-0.005541257243994944,-0.01445903755141211
-0.005540917243994943,-0.0131754087989866
-0.005540577243994944,-0.01310958168347748
-0.005540237243994944,-0.01281335966368701
-0.005539897243994943,-0.01284627322144103
-0.005539557243994944,-0.01031192927434013
-0.005539217243994944,-0.01136516312248404
-0.005538877243994943,-0.01366911216530495
-0.005538537243994944,-0.01327414947225027
-0.005538197243994944,-0.01488691380222063
-0.005537857243994943,-0.01640093745893319
-0.005537517243994944,-0.01551227139956015
-0.005537177243994944,-0.01603888832363211
-0.005536837243994943,-0.01636802390117864
-0.005536497243994944,-0.01442612399365977
-0.005536157243994944,-0.01462360534018675
-0.005535817243994943,-0.02012016948519815
-0.005535477243994944,-0.01801370178890649
-0.005535137243994944,-0.01215508850860598
-0.005534797243994943,-0.0124842240861409
-0.005534457243994944,-0.01024610215883101
-0.005534117243994944,-0.01218800206634635
-0.005533777243994943,-0.01380076639632318
-0.005533437243994944,-0.009982793696794558
-0.005533097243994944,-0.008501683597839487
-0.005532757243994943,-0.01093728687167671
-0.005532417243994944,-0.01011444792781279
-0.005532077243994944,-0.00860042427110316
-0.005531737243994943,-0.008929559848648731
-0.005531397243994944,-0.0111018546604495
-0.005531057243994944,-0.01067397840964026
-0.005530717243994943,-0.0106410648518857
-0.005530377243994944,-0.01093728687167671
-0.005530037243994944,-0.01106894110269494
-0.005529697243994943,-0.01353745793428637
-0.005529357243994944,-0.01333997658775938
-0.005529017243994944,-0.01172721225778608
-0.005528677243994943,-0.01225382918186325
-0.005528337243994944,-0.01459069178243255
-0.005527997243994944,-0.01301084101021381
-0.005527657243994943,-0.01231965629737021
-0.005527317243994944,-0.01347163081877761
-0.005526977243994944,-0.01307666812572293
-0.005526637243994943,-0.01337289014551723
-0.005526297243994944,-0.01518313582201458
-0.005525957243994944,-0.01436029687815065
-0.005525617243994943,-0.01603888832364498
-0.005525277243994943,-0.02258868631678993
-0.005524937243994944,-0.01768456621136092
-0.005524597243994943,-0.01541353072629732
-0.005524257243994943,-0.01587432053486028
-0.005523917243994944,-0.01636802390117864
-0.005523577243994943,-0.02295073545210569
-0.005523237243994943,-0.03154117402602946
-0.005522897243994944,-0.04032909394649621
-0.005522557243994943,-0.05810241513400249
-0.005522217243994943,-0.0830838054696659
-0.005521877243994944,-0.1104020584059483
-0.005521537243994943,-0.1397609519230662
-0.005521197243994943,-0.1688894505357963
-0.005520857243994944,-0.19722802376247
-0.005520517243994944,-0.2216169700585524
-0.005520177243994943,-0.241661326731122
-0.005519837243994944,-0.2575585751265732
-0.005519497243994944,-0.2672351611063953
-0.005519157243994943,-0.2738836997728334
-0.005518817243994944,-0.2752660691985249
-0.005518477243994944,-0.2721392812118476
-0.005518137243994943,-0.2656223967764396
-0.005517797243994944,-0.2598954377271467
-0.005517457243994944,-0.2515353940575044
-0.005517117243994943,-0.2414309318268401
-0.005516777243994944,-0.2343216033518558
-0.005516437243994944,-0.2258299054511955
-0.005516097243994943,-0.2180293922633501
-0.005515757243994944,-0.2123682603295662
-0.005515417243994944,-0.2052589318545948
-0.005515077243994943,-0.1999927626138527
-0.005514737243994944,-0.1965697526073788
-0.005514397243994944,-0.1847208718157598
-0.005514057243994943,-0.1766241366081172
-0.005513717243994944,-0.1705680419812787
-0.005513377243994944,-0.166947550628284
-0.005513037243994943,-0.1632941457175216
-0.005512697243994944,-0.1562177308002918
-0.005512357243994944,-0.148252649823689
-0.005512017243994943,-0.1434143568337691
-0.005511677243994944,-0.1363050283587847
-0.005511337243994944,-0.1317300438309013
-0.005510997243994943,-0.1266942694944541
-0.005510657243994944,-0.1225142476596253
-0.005510317243994944,-0.1198811630392607
-0.005509977243994943,-0.1150099564915863
-0.005509637243994944,-0.1131338836995765
-0.005509297243994944,-0.1103362312904392
-0.005508957243994943,-0.1073081839770118
-0.005508617243994944,-0.1028648536801547
-0.005508277243994944,-0.1011533486769177
-0.005507937243994943,-0.09664419126453554
-0.005507597243994944,-0.09229960164094189
-0.005507257243994944,-0.09085140509974138
-0.005506917243994943,-0.08877785096119667
-0.005506577243994944,-0.08459782912637551
-0.005506237243994944,-0.08212931229478374
-0.005505897243994943,-0.07969370902094
-0.005505557243994944,-0.07610613122569979
-0.005505217243994944,-0.07353887372084433
-0.005504877243994943,-0.07195902294862397
-0.005504537243994943,-0.07107035688925256
-0.005504197243994944,-0.06985255525233394
-0.005503857243994943,-0.06323693014366347
-0.005503517243994943,-0.06076841331207618
-0.005503177243994944,-0.05326412214403715
-0.005502837243994943,-0.06168999292919983
-0.005502497243994943,-0.059517698117403
-0.005502157243994944,-0.05520602205155602
-0.005501817243994943,-0.05290207300873685
-0.005501477243994943,-0.05280333233547335
-0.005501137243994944,-0.05105891377448183
-0.005500797243994943,-0.04990693925307096
-0.005500457243994943,-0.04914992742471751
-0.005500117243994944,-0.047701730883517
-0.005499777243994944,-0.04812960713432547
-0.005499437243994943,-0.04641810213108927
-0.005499097243994944,-0.04464077001234319
-0.005498757243994944,-0.04480533780111568
-0.005498417243994943,-0.04368627683746103
-0.005498077243994944,-0.04131650067913292
-0.005497737243994944,-0.04075697019730647
-0.005497397243994943,-0.03973664990691418
-0.005497057243994944,-0.0363465534581948
-0.005496717243994944,-0.03697191105553025
-0.005496377243994943,-0.03664277547798581
-0.005496037243994944,-0.03476670268597606
-0.005495697243994944,-0.0318703096035803
-0.005495357243994943,-0.03331850614477554
-0.005495017243994944,-0.03233109941213883
-0.005494677243994944,-0.03236401296989333
-0.005494337243994943,-0.03266023498968441
-0.005493997243994944,-0.03526040605229441
-0.005493657243994944,-0.03124495200624575
-0.005493317243994943,-0.03032337238911085
-0.005492977243994944,-0.02920431142545591
-0.005492637243994944,-0.02630791834306015
-0.005492297243994943,-0.03048794017788364
-0.005491957243994944,-0.03065250796665642
-0.005491617243994944,-0.02571547430348184
-0.005491277243994943,-0.02558382007245463
-0.005490937243994944,-0.02420145064676323
-0.005490597243994944,-0.02436601843553601
-0.005490257243994943,-0.02321404391412651
-0.005489917243994944,-0.02235829141250803
-0.005489577243994944,-0.01959355256112523
-0.005489237243994943,-0.01873780005950675
-0.005488897243994944,-0.02005434236968903
-0.005488557243994944,-0.01965937967663435
-0.005488217243994943,-0.01972520679214346
-0.005487877243994944,-0.01972520679214346
-0.005487537243994944,-0.01949481188786156
-0.005487197243994943,-0.01956063900337295
-0.005486857243994944,-0.02081135419804385
-0.005486517243994944,-0.01821118313543383
-0.005486177243994943,-0.0184744915974725
-0.005485837243994944,-0.0196922932343889
-0.005485497243994944,-0.01847449159747029
-0.005485157243994943,-0.01692755438300719
-0.005484817243994944,-0.01751999842258814
-0.005484477243994944,-0.01676298659423332
-0.005484137243994943,-0.01603888832363935
-0.005483797243994943,-0.01949481188786156
-0.005483457243994944,-0.01765165265360636
-0.005483117243994943,-0.01077271908290513
-0.005482777243994943,-0.01143099023799507
-0.005482437243994944,-0.01143099023799507
-0.005482097243994943,-0.01320832235674678
-0.005481757243994943,-0.01630219678566952
-0.005481417243994944,-0.01491982735997812
-0.005481077243994943,-0.01363619860755237
-0.005480737243994943,-0.01472234601345078
-0.005480397243994944,-0.01383367995407774
-0.005480057243994943,-0.01228674273961427
-0.005479717243994943,-0.01268170543266824
-0.005479377243994944,-0.01347163081877761
-0.005479037243994944,-0.01113476821820831
-0.005478697243994943,-0.01106894110269494
-0.005478357243994944,-0.0136361986075504
-0.005478017243994944,-0.01139807668024458
-0.005477677243994943,-0.01143099023799507
-0.005477337243994944,-0.01169429870003153
-0.005476997243994944,-0.0107727190829056
-0.005476657243994943,-0.01189178004655887
-0.005476317243994944,-0.0127146189904228
-0.005475977243994944,-0.01281335966368629
-0.005475637243994943,-0.01268170543266824
-0.005475297243994944,-0.01515022226426002
-0.005474957243994944,-0.01468943245569706
-0.005474617243994943,-0.01482108668671445
-0.005474277243994944,-0.01580849341935116
-0.005473937243994944,-0.0153477036107882
-0.005473597243994943,-0.01383367995407774
-0.005473257243994944,-0.01643385101668775
-0.005472917243994944,-0.01722377640279569
-0.005472577243994943,-0.008567510713348603
-0.005472237243994944,-0.01162847158452241
-0.005471897243994944,-0.01742125774931393
-0.005471557243994943,-0.01472234601345078
-0.005471217243994944,-0.0138665935118323
-0.005470877243994944,-0.01567683918832964
-0.005470537243994943,-0.01584140697710572
-0.005470197243994944,-0.01445903755141432
-0.005469857243994944,-0.01495274091773268
-0.005469517243994943,-0.0150185680332418
-0.005469177243994944,-0.01343871726102305
-0.005468837243994944,-0.01406407485835964
-0.005468497243994943,-0.01330706303000483
-0.005468157243994944,-0.01337289014551394
-0.005467817243994944,-0.01399824774285052
-0.005467477243994943,-0.0134058037032685
-0.005467137243994944,-0.01284627322144103
-0.005466797243994944,-0.01399824774285052
-0.005466457243994943,-0.01350454437652924
-0.005466117243994944,-0.01189178004655887
-0.005465777243994944,-0.01199052071982254
-0.005465437243994943,-0.01228674273961044
-0.005465097243994944,-0.01057523773637659
-0.005464757243994944,-0.01070689196739481
-0.005464417243994943,-0.0103448428320878
-0.005464077243994944,-0.006559783690320619
-0.005463737243994944,-0.00711931417214809
-0.005463397243994943,-0.009554917445974
-0.005463057243994944,-0.003334255030374022
-0.005462717243994944,-0.002149366951209966
-0.005462377243994943,-0.01021318860107987
-0.005462037243994943,-0.01208926139308621
-0.005461697243994944,-0.008732078502121389
-0.005461357243994943,-0.01113476821820508
-0.005461017243994943,-0.01169429870003153
-0.005460677243994944,-0.01245131052838634
-0.005460337243994943,-0.01347163081877797
-0.005459997243994943,-0.01366911216530495
-0.005459657243994944,-0.01482108668671445
-0.005459317243994943,-0.0136032850497956
-0.005458977243994943,-0.01347163081877761
-0.005458637243994944,-0.0111018546604495
-0.005458297243994943,-0.01133224956473158
-0.005457957243994943,-0.01143099023799507
-0.005457617243994944,-0.01050941062086747
-0.005457277243994944,-0.01143099023799339
-0.005456937243994943,-0.01120059533371317
-0.005456597243994944,-0.0111018546604495
-0.005456257243994944,-0.007942153116017764
-0.005455917243994943,-0.01412990197386875
-0.005455577243994944,-0.01159555802676786
-0.005455237243994944,-0.01278044610592976
-0.005454897243994943,-0.01261587831715913
-0.005454557243994944,-0.01120059533371317
-0.005454217243994944,-0.01100311398718619
-0.005453877243994943,-0.0140969884161142
-0.005453537243994944,-0.01587432053486028
-0.005453197243994944,-0.007547190422972479
-0.005452857243994943,-0.0120234342775771
-0.005452517243994944,-0.01189178004655887
-0.005452177243994944,-0.006197734555030848
-0.005451837243994943,-0.01146390379574963
-0.005451497243994944,-0.01297792745245925
-0.005451157243994944,-0.008139634462548159
-0.005450817243994943,-0.008929559848648731
-0.005450477243994944,-0.01070689196739481
-0.005450137243994944,-0.01103602754493979
-0.005449797243994943,-0.012253829181859
-0.005449457243994944,-0.01452486466692344
-0.005449117243994944,-0.01455777822467793
-0.005448777243994943,-0.01327414947225027
-0.005448437243994944,-0.01436029687815065
-0.005448097243994944,-0.01376785283856862
-0.005447757243994943,-0.01528187649527825
-0.005447417243994944,-0.01419572908937787
-0.005447077243994944,-0.0115626444690133
-0.005446737243994943,-0.01222091562410444
-0.005446397243994944,-0.01399824774285052
-0.005446057243994944,-0.01452486466692344
-0.005445717243994943,-0.01123350889147084
-0.005445377243994944,-0.0129450138947047
-0.005445037243994944,-0.01100311398718583
-0.005444697243994943,-0.01228674273961362
-0.005444357243994944,-0.01231965629736811
-0.005444017243994944,-0.0111018546604495
-0.005443677243994943,-0.01222091562411187
-0.005443337243994944,-0.01630219678566952
-0.005442997243994944,-0.02021891015846182
-0.005442657243994943,-0.01106894110270183
-0.005442317243994944,-0.01485400024446901
-0.005441977243994944,-0.01584140697710572
-0.005441637243994943,-0.01172721225779291
-0.005441297243994943,-0.01547935784180559
-0.005440957243994944,-0.01807952890441561
-0.005440617243994943,-0.01350454437653043
-0.005440277243994943,-0.01255005120165001
-0.005439937243994944,-0.01330706303000483
-0.005439597243994943,-0.01008153437005631
-0.005439257243994943,-0.009028300521912402
-0.005438917243994944,-0.009949880139040001
-0.005438577243994943,-0.01004862081230409
-0.005438237243994943,-0.01027901571658557
-0.005437897243994944,-0.01215508850859533
-0.005437557243994943,-0.01271461899042669
-0.005437217243994943,-0.01485400024446901
-0.005436877243994944,-0.01590723409261484
-0.005436537243994944,-0.01455777822468045
-0.005436197243994943,-0.01436029687815065
-0.005435857243994944,-0.01333997658775938
-0.005435517243994944,-0.01340580370326838
-0.005435177243994943,-0.01090437331392216
-0.005434837243994944,-0.01172721225778608
-0.005434497243994944,-0.01083854619841466
-0.005434157243994943,-0.01054232417862203
-0.005433817243994944,-0.01222091562410444
-0.005433477243994944,-0.01152973091126
-0.005433137243994943,-0.01077271908290393
-0.005432797243994944,-0.01301084101021381
-0.005432457243994944,-0.01768456621135242
-0.005432117243994943,-0.008534597155594046
-0.005431777243994944,-0.008106720904784802
-0.005431437243994944,-0.01373493928080383
-0.005431097243994943,-0.01310958168347748
-0.005430757243994944,-0.009752398792512659
-0.005430417243994944,-0.01027901571658461
-0.005430077243994943,-0.01050941062086747
-0.005429737243994944,-0.009423263214967087
-0.005429397243994944,-0.01222091562409935
-0.005429057243994943,-0.00939034965721253
-0.005428717243994944,-0.01093728687167671
-0.005428377243994944,-0.01189178004655713
-0.005428037243994943,-0.0124842240861409
-0.005427697243994944,-0.01176012581554064
-0.005427357243994944,-0.0131754087989866
-0.005427017243994943,-0.01218800206634988
-0.005426677243994944,-0.01235256985512267
-0.005426337243994944,-0.01284627322144103
-0.005425997243994943,-0.01123350889146773
-0.005425657243994944,-0.0111018546604495
-0.005425317243994944,-0.01172721225778608
-0.005424977243994943,-0.01136516312248596
-0.005424637243994944,-0.0113322495647314
-0.005424297243994944,-0.01291210033695014
-0.005423957243994943,-0.0134716308187757
-0.005423617243994944,-0.01241839697063178
-0.005423277243994944,-0.01258296475940457
-0.005422937243994943,-0.01222091562410258
-0.005422597243994944,-0.01120059533371317
-0.005422257243994944,-0.01238548341287723
-0.005421917243994943,-0.01297792745245836
-0.005421577243994944,-0.0124842240861409
-0.005421237243994944,-0.01320832235674115
-0.005420897243994943,-0.01699338149850899
-0.005420557243994943,-0.01357037149204128
-0.005420217243994944,-0.01389950706958685
-0.005419877243994943,-0.01205634783533513
-0.005419537243994943,-0.01396533418509597
-0.005419197243994944,-0.01732251707606079
-0.005418857243994943,-0.01590723409260999
-0.005418517243994943,-0.01324123591449571
-0.005418177243994944,-0.01436029687815065
-0.005417837243994943,-0.014952740917731
-0.005417497243994943,-0.01403116130060508
-0.005417157243994944,-0.0113322495647314
-0.005416817243994943,-0.01199052071982051
-0.005416477243994943,-0.0108714597561676
-0.005416137243994944,-0.01044358350535836
-0.005415797243994943,-0.01179303937329622
