Analysis/files/cmb03_wrd01/d2s02_ch22.csv

#Digilent WaveForms Oscilloscope Acquisition
#Device Name: ADP3450
#Serial Number: SN:210018B9D9B0
#Date Time: 2024-08-13 11:08:30.968.312.040
#Sample rate: 2.94118e+06Hz
#Samples: 32768
#Trigger: Source: Channel 3 Type: Edge Condition: Rising Level: 60 mV Hyst.: Auto HoldOff: 0 s
#Channel 3: Range: 200 mV/div Offset: 0 V Attenuation: 1 X Coupling: DC Bandwidth: 0 Hz Sample Mode: Average

Time (s),Channel 3 (V)
-0.005570519748110831,0.01091731547734921
-0.005570179748110831,0.01341874586669477
-0.005569839748110831,0.0129908696158863
-0.005569499748110831,0.01312252384690453
-0.005569159748110831,0.01229968490303773
-0.005568819748110831,0.01071983413082186
-0.005568479748110831,0.008251317299230079
-0.005568139748110831,0.01312252384689974
-0.005567799748110831,0.01048943922653996
-0.005567459748110831,0.009864081629203377
-0.005567119748110831,0.005420751332332959
-0.005566779748110831,0.0025572718076917
-0.005566439748110831,0.003248456520537399
-0.005566099748110831,0.003511764982574036
-0.005565759748110831,0.003610505655837527
-0.005565419748110831,0.002688926038709928
-0.005565079748110831,0.002754753154217666
-0.005564739748110831,0.001997741325864229
-0.005564399748110831,0.001339470170773087
-0.005564059748110831,0.0006811990156814658
-0.005563719748110831,0.000417890553645488
-0.005563379748110831,-0.0004707755057275538
-0.005563039748110832,-0.002248107624470405
-0.005562699748110831,-0.0006024297367457822
-0.005562359748110831,-0.001096133103064139
-0.005562019748110832,-0.001589836469381597
-0.005561679748110831,-0.001293614449591481
-0.005561339748110831,-0.0002732941592002112
-0.005560999748110832,-0.0009644788720446532
-0.005560659748110831,-0.002083539835700852
-0.005560319748110831,-0.0001416399281819828
-0.005559979748110832,-0.002313934739978801
-0.005559639748110831,-0.00119487377632781
-0.005559299748110831,-0.0008986517565367963
-0.005558959748110832,-0.001491095796117746
-0.005558619748110831,-0.004486229551783521
-0.005558279748110831,-0.007316795518675433
-0.005557939748110832,-0.001359441565111432
-0.005557599748110831,-0.002017712720191738
-0.005557259748110831,0.003709246329101199
-0.005556919748110832,-0.00237976185548079
-0.005556579748110831,-0.005341982053402005
-0.005556239748110831,-0.00494701936034732
-0.005555899748110832,-0.002116453393460558
-0.005555559748110831,-0.003959612627710607
-0.005555219748110831,-0.002840551664055666
-0.005554879748110832,-0.002675983875283179
-0.005554539748110831,-0.002774724548546551
-0.005554199748110831,-0.001787317815909838
-0.005553859748110831,-0.0006024297367457822
-0.005553519748110831,-0.000832824641027682
-0.005553179748110831,-0.000207467043691097
-0.005552839748110831,-4.289925491831147e-05
-0.005552499748110831,-0.001721490700400724
-0.005552159748110831,-0.001622750027137053
-0.005551819748110831,-0.0003062077169547683
-0.005551479748110831,-0.001491095796118764
-0.005551139748110831,-0.001458182238364267
-0.005550799748110831,0.0004508041114000451
-0.005550459748110831,-0.001622750027140405
-0.005550119748110831,-0.003465909261392251
-0.005549779748110831,-0.001721490700400724
-0.005549439748110831,-0.002083539835703726
-0.005549099748110831,-0.003663390607919593
-0.005548759748110831,-0.005704031188702134
-0.005548419748110831,-0.006164820997268867
-0.005548079748110831,-0.007777585327239231
-0.005547739748110831,-0.009258695426194301
-0.005547399748110831,-0.002083539835706719
-0.005547059748110831,-0.005309068495647449
-0.005546719748110831,-0.007975066673766575
-0.005546379748110831,-0.006296475228283144
-0.005546039748110831,-0.005736944746456691
-0.005545699748110831,-0.007481363307448217
-0.005545359748110831,-0.007448449749691864
-0.005545019748110831,-0.006461043017056948
-0.005544679748110831,-0.004815365129329092
-0.005544339748110831,-0.00445331599403064
-0.005543999748110831,-0.005374895611156563
-0.005543659748110831,-0.003893785512201493
-0.005543319748110831,-0.003202600799359146
-0.005542979748110831,-0.005045760033610991
-0.005542639748110831,-0.006164820997265934
-0.005542299748110832,-0.006164820997265934
-0.005541959748110831,-0.006559783690320619
-0.005541619748110831,-0.005934426092984033
-0.005541279748110832,-0.00609899388175652
-0.005540939748110831,-0.007152227729902647
-0.005540599748110831,-0.006691437921338847
-0.005540259748110832,-0.00547363628442245
-0.005539919748110831,-0.007086400614393532
-0.005539579748110831,-0.009587831003739873
-0.005539239748110832,-0.009094127637422414
-0.005538899748110831,-0.008929559848648731
-0.005538559748110831,-0.01008153437005823
-0.005538219748110832,-0.009818225908022251
-0.005537879748110831,-0.008732078502121389
-0.005537539748110831,-0.01037775638984924
-0.005537199748110832,-0.006921832825627033
-0.005536859748110831,-0.005736944746456691
-0.005536519748110831,-0.006691437921338847
-0.005536179748110832,-0.003597563492416107
-0.005535839748110831,-0.007086400614393532
-0.005535499748110831,-0.009949880139040001
-0.005535159748110832,-0.007514276865207206
-0.005534819748110831,-0.004782451571574535
-0.005534479748110831,-0.004617883782801749
-0.005534139748110832,-0.00544072272666418
-0.005533799748110831,-0.002807638106301108
-0.005533459748110831,-0.004091266858728836
-0.005533119748110832,-0.004354575320765292
-0.005532779748110831,-0.003103860126092122
-0.005532439748110831,-0.004617883782801749
-0.005532099748110831,-0.006724351479093405
-0.005531759748110831,-0.004124180416483393
-0.005531419748110831,-0.004288748205256179
-0.005531079748110831,-0.005671117630947577
-0.005530739748110831,-0.004683710898310864
-0.005530399748110831,-0.00540780916891112
-0.005530059748110831,-0.00665852436358429
-0.005529719748110831,-0.005506549842177725
-0.005529379748110831,-0.00711931417214809
-0.005529039748110831,-0.008402942924575817
-0.005528699748110831,-0.008666251386612034
-0.005528359748110831,-0.008534597155594046
-0.005528019748110831,-0.007316795518675433
-0.005527679748110831,-0.008797905617632957
-0.005527339748110831,-0.01014736148556734
-0.005526999748110831,-0.01274753254817735
-0.005526659748110831,-0.004716624456067217
-0.005526319748110831,-0.005704031188702134
-0.005525979748110831,-0.005440722726665677
-0.005525639748110831,-0.006724351479099271
-0.005525299748110831,-0.009949880139040001
-0.005524959748110831,-0.007514276865202775
-0.005524619748110831,-0.006559783690319241
-0.005524279748110831,-0.005802771861965805
-0.005523939748110831,-0.007415536191939104
-0.005523599748110831,-0.008830819175395117
-0.005523259748110831,-0.01436029687815065
-0.005522919748110831,-0.02627500478530033
-0.005522579748110831,-0.04358753616423448
-0.005522239748110831,-0.06399394197202277
-0.005521899748110831,-0.09338574904684227
-0.005521559748110831,-0.1288336507485529
-0.005521219748110831,-0.1577317544570014
-0.005520879748110831,-0.1866956852810117
-0.005520539748110832,-0.2140468517749989
-0.005520199748110831,-0.2356052321042835
-0.005519859748110831,-0.2504163330938342
-0.005519519748110832,-0.259270080129794
-0.005519179748110831,-0.2629893121560751
-0.005518839748110831,-0.2629563985983205
-0.005518499748110832,-0.2615411156148771
-0.005518159748110831,-0.2547938362751903
-0.005517819748110831,-0.248573173859579
-0.005517479748110832,-0.2418258945199071
-0.005517139748110831,-0.2355064914310199
-0.005516799748110831,-0.2297466188239724
-0.005516459748110832,-0.2218802785206475
-0.005516119748110831,-0.2092085587851287
-0.005515779748110831,-0.2008156015577167
-0.005515439748110832,-0.1932454832741823
-0.005515099748110831,-0.1895920783634127
-0.005514759748110831,-0.1850500073932838
-0.005514419748110832,-0.17645956881936
-0.005514079748110831,-0.1705680419812787
-0.005513739748110831,-0.1641169846613855
-0.005513399748110832,-0.1594761730180014
-0.005513059748110831,-0.1535517326221727
-0.005512719748110831,-0.1460803550118882
-0.005512379748110832,-0.1416041111572684
-0.005512039748110831,-0.1378519655732489
-0.005511699748110831,-0.1329149319100654
-0.005511359748110831,-0.1271550593030179
-0.005511019748110831,-0.1254764678575355
-0.005510679748110831,-0.1219218036200433
-0.005510339748110831,-0.1176759546697054
-0.005509999748110831,-0.1139238090856859
-0.005509659748110831,-0.1091842567690297
-0.005509319748110831,-0.1036876926240186
-0.005508979748110831,-0.1002317690597819
-0.005508639748110831,-0.09568969808966127
-0.005508299748110831,-0.08983108480935009
-0.005507959748110831,-0.08792209845957837
-0.005507619748110831,-0.0838408172980207
-0.005507279748110831,-0.08002284459849207
-0.005506939748110831,-0.07689605661181011
-0.005506599748110831,-0.07742267353588206
-0.005506259748110831,-0.07788346334444587
-0.005505919748110831,-0.06863475361541424
-0.005505579748110831,-0.06804230957583329
-0.005505239748110831,-0.06471804024262304
-0.005504899748110831,-0.06494843514691266
-0.005504559748110831,-0.06919428409724279
-0.005504219748110831,-0.06376354706774087
-0.005503879748110831,-0.05816824224946443
-0.005503539748110831,-0.05721374907458401
-0.005503199748110831,-0.05464649156972855
-0.005502859748110831,-0.05204632050711968
-0.005502519748110831,-0.05267167810445512
-0.005502179748110831,-0.04898535963594473
-0.005501839748110831,-0.04789921223004578
-0.005501499748110831,-0.04868913761615372
-0.005501159748110831,-0.05168427137181841
-0.005500819748110831,-0.04842582915411462
-0.005500479748110831,-0.04697763261291674
-0.005500139748110831,-0.04520030049417066
-0.005499799748110832,-0.04329131414440982
-0.005499459748110831,-0.04184311760320584
-0.005499119748110831,-0.04023035327323254
-0.005498779748110832,-0.03723521951757329
-0.005498439748110831,-0.03700482461328594
-0.005498099748110831,-0.03720230595981328
-0.005497759748110832,-0.03368055528008208
-0.005497419748110831,-0.03354890104905744
-0.005497079748110831,-0.03305519768273909
-0.005496739748110832,-0.03088290287094227
-0.005496399748110831,-0.03048794017788364
-0.005496059748110831,-0.03266023498968441
-0.005495719748110832,-0.03091581642869605
-0.005495379748110831,-0.02492554891736349
-0.005495039748110831,-0.0254521658414364
-0.005494699748110832,-0.02166710669966922
-0.005494359748110831,-0.02272034054780816
-0.005494019748110831,-0.02703201661365514
-0.005493679748110832,-0.02367483372269642
-0.005493339748110831,-0.02252285920128081
-0.005492999748110831,-0.02387231506921766
-0.005492659748110832,-0.0245305862243076
-0.005492319748110831,-0.02285199477882639
-0.005491979748110831,-0.02341152526065386
-0.005491639748110832,-0.0240368828579893
-0.005491299748110831,-0.02179876093068056
-0.005490959748110831,-0.0222266371814898
-0.005490619748110831,-0.02258868631678993
-0.005490279748110831,-0.02028473727397093
-0.005489939748110831,-0.01946189833010701
-0.005489599748110831,-0.01798078823115194
-0.005489259748110831,-0.01521604937976914
-0.005488919748110831,-0.01403116130060508
-0.005488579748110831,-0.01274753254817735
-0.005488239748110831,-0.009851139465775311
-0.005487899748110831,-0.009291608983948858
-0.005487559748110831,-0.0101802750433219
-0.005487219748110831,-0.008830819175383862
-0.005486879748110831,-0.008172548020293918
-0.005486539748110831,-0.01123350889146773
-0.005486199748110831,-0.01245131052838993
-0.005485859748110831,-0.01442612399365977
-0.005485519748110831,-0.01886945429052498
-0.005485179748110831,-0.01936315765683214
-0.005484839748110831,-0.01320832235674115
-0.005484499748110831,-0.01406407485835964
-0.005484159748110831,-0.009884053023533101
-0.005483819748110831,-0.0111018546604495
-0.005483479748110831,-0.01320832235674115
-0.005483139748110831,-0.01159555802676319
-0.005482799748110831,-0.009028300521912402
-0.005482459748110831,-0.0106410648518857
-0.005482119748110831,-0.01218800206634707
-0.005481779748110831,-0.0106410648518857
-0.005481439748110831,-0.01120059533371317
-0.005481099748110831,-0.01208926139308226
-0.005480759748110831,-0.009916966581285444
-0.005480419748110831,-0.01057523773637659
-0.005480079748110831,-0.01294501389470242
-0.005479739748110831,-0.01169429870003153
-0.005479399748110831,-0.01067397840964026
-0.005479059748110832,-0.01050941062086777
-0.005478719748110831,-0.009522003888230759
-0.005478379748110831,-0.008435856482330374
-0.005478039748110832,-0.008666251386611853
-0.005477699748110831,-0.006329388786038719
-0.005477359748110831,-0.007448449749693661
-0.005477019748110832,-0.009258695426191009
-0.005476679748110831,-0.008435856482330374
-0.005476339748110831,-0.008764992059875945
-0.005475999748110832,-0.01001570725454684
-0.005475659748110831,-0.01047649706311291
-0.005475319748110831,-0.01136516312248596
-0.005474979748110832,-0.01580849341934308
-0.005474639748110831,-0.007053487056638975
-0.005474299748110831,-0.005440722726665677
-0.005473959748110832,-0.006131907439510118
-0.005473619748110831,-0.006954746383375304
-0.005473279748110831,-0.01070689196739481
-0.005472939748110832,-0.009686571677005399
-0.005472599748110831,-0.01050941062086747
-0.005472259748110831,-0.009357436099457973
-0.005471919748110832,-0.01050941062086538
-0.005471579748110831,-0.009554917445985316
-0.005471239748110831,-0.007975066673766575
-0.005470899748110832,-0.007744671769485094
-0.005470559748110831,-0.008040893789275689
-0.005470219748110831,-0.007283881960920875
-0.005469879748110832,-0.00665852436358429
-0.005469539748110831,-0.008929559848648731
-0.005469199748110831,-0.006230648112775047
-0.005468859748110831,-0.008238375135803031
-0.005468519748110831,-0.008139634462539359
-0.005468179748110831,-0.005967339650738591
-0.005467839748110831,-0.003498822819146808
-0.005467499748110831,-0.003827958396692379
-0.005467159748110831,-0.002643070317528323
-0.005466819748110831,-0.001918972046928067
-0.005466479748110831,-0.00333425503037492
-0.005466139748110831,-0.003827958396692379
-0.005465799748110831,-0.004255834647501621
-0.005465459748110831,-0.004782451571571123
-0.005465119748110831,-0.00290637877956478
-0.005464779748110831,-0.007514276865202775
-0.005464439748110831,-0.01297792745245201
-0.005464099748110831,-0.008995386964157845
-0.005463759748110831,-0.007053487056638975
-0.005463419748110831,-0.007645931096223338
-0.005463079748110831,-0.008929559848648731
-0.005462739748110831,-0.01235256985512267
-0.005462399748110831,-0.01054232417862017
-0.005462059748110831,-0.009522003888230759
-0.005461719748110831,-0.008732078502121389
-0.005461379748110831,-0.008040893789276048
-0.005461039748110831,-0.008238375135803031
-0.005460699748110831,-0.006691437921338847
-0.005460359748110831,-0.006856005710111214
-0.005460019748110831,-0.006625610805829733
-0.005459679748110831,-0.006625610805829733
-0.005459339748110831,-0.005638204073196372
-0.005458999748110831,-0.007481363307448217
-0.005458659748110831,-0.007053487056638975
-0.005458319748110831,-0.00557237695768187
-0.005457979748110831,-0.004453315994028964
-0.005457639748110831,-0.002610156759773766
-0.005457299748110832,-0.002807638106300749
-0.005456959748110831,-0.003729217723428708
-0.005456619748110831,-0.004881192244838206
-0.005456279748110832,-0.003334255030376836
-0.005455939748110831,-0.004650797340556306
-0.005455599748110831,-0.00517741426462922
-0.005455259748110832,-0.005572376957683188
-0.005454919748110831,-0.006296475228284162
-0.005454579748110831,-0.006131907439511376
-0.005454239748110832,-0.01011444792780554
-0.005453899748110831,-0.008040893789275689
-0.005453559748110831,-0.006230648112775047
-0.005453219748110832,-0.003959612627714737
-0.005452879748110831,-0.0007999110832731249
-0.005452539748110831,-0.005704031188702134
-0.005452199748110832,-0.006000253208492609
-0.005451859748110831,-0.002281021182228195
-0.005451519748110831,-0.002083539835700852
-0.005451179748110832,-0.003729217723425714
-0.005450839748110831,-0.004025439743219721
-0.005450499748110831,-0.005341982053402005
-0.005450159748110832,-0.004552056667294072
-0.005449819748110831,-0.004255834647501621
-0.005449479748110831,-0.004650797340556306
-0.005449139748110832,-0.00603316676624519
-0.005448799748110831,-0.004453315994028964
-0.005448459748110831,-0.005243241380138334
-0.005448119748110831,-0.006164820997265934
-0.005447779748110831,-0.005835685419720362
-0.005447439748110831,-0.006164820997265934
-0.005447099748110831,-0.006000253208493148
-0.005446759748110831,-0.005769858304211248
-0.005446419748110831,-0.006921832825620747
-0.005446079748110831,-0.007876326000502903
-0.005445739748110831,-0.006033166766250877
-0.005445399748110831,-0.007777585327239231
-0.005445059748110831,-0.008666251386612273
-0.005444719748110831,-0.008501683597839847
-0.005444379748110831,-0.00869916494436683
-0.005444039748110831,-0.01097020042943127
-0.005443699748110831,-0.01409698841610186
-0.005443359748110831,-0.007316795518675433
-0.005443019748110831,-0.006230648112775047
-0.005442679748110831,-0.002346848297735513
-0.005442339748110831,-0.001359441565100596
-0.005441999748110831,-0.005769858304211248
-0.005441659748110831,-0.004255834647495394
-0.005441319748110831,-0.000832824641027682
-0.005440979748110831,-0.001622750027137053
-0.005440639748110831,-0.002083539835699714
-0.005440299748110831,-0.001458182238364267
-0.005439959748110831,-0.002939292337319337
-0.005439619748110831,-0.004815365129328553
-0.005439279748110831,-0.004519143109538078
-0.005438939748110831,-0.006526870132566062
-0.005438599748110831,-0.008106720904785281
-0.005438259748110831,-0.00837002936682126
-0.005437919748110831,-0.009291608983948858
-0.005437579748110831,-0.009653658119248327
-0.005437239748110831,-0.009291608983948858
-0.005436899748110831,-0.00860042427110316
-0.005436559748110832,-0.007942153116013213
-0.005436219748110831,-0.006461043017056948
-0.005435879748110831,-0.006757265036847961
-0.005435539748110832,-0.007876326000500868
-0.005435199748110831,-0.007349709076429989
-0.005434859748110831,-0.007547190422957332
-0.005434519748110832,-0.009258695426191187
-0.005434179748110831,-0.00767884465397556
-0.005433839748110831,-0.008501683597839487
-0.005433499748110832,-0.01116768177595377
-0.005433159748110831,-0.009324522541703417
-0.005432819748110831,-0.002774724548546551
-0.005432479748110832,-0.004354575320762419
-0.005432139748110831,-0.003070946568337565
-0.005431799748110831,-0.005736944746456691
-0.005431459748110832,-0.008370029366816471
-0.005431119748110831,-0.00767884465397556
-0.005430779748110831,-0.005243241380138334
-0.005430439748110832,-0.006921832825617694
-0.005430099748110831,-0.007777585327239231
-0.005429759748110831,-0.006461043017056948
-0.005429419748110832,-0.007514276865200859
-0.005429079748110831,-0.008567510713348603
-0.005428739748110831,-0.007613017538466446
-0.005428399748110832,-0.007777585327238932
-0.005428059748110831,-0.008929559848648731
-0.005427719748110831,-0.008501683597839487
-0.005427379748110832,-0.008830819175385059
-0.005427039748110831,-0.007580103980711889
-0.005426699748110831,-0.005967339650738591
-0.005426359748110831,-0.006033166766247705
-0.005426019748110831,-0.006921832825620747
-0.005425679748110831,-0.006164820997265934
-0.005425339748110831,-0.006000253208493148
-0.005424999748110831,-0.009127041195176074
-0.005424659748110831,-0.009028300521912402
-0.005424319748110831,-0.008205461578048474
-0.005423979748110831,-0.007415536191938984
-0.005423639748110831,-0.007349709076429989
-0.005423299748110831,-0.006428129459302391
-0.005422959748110831,-0.01113476821820094
-0.005422619748110831,-0.009423263214967087
-0.005422279748110831,-0.002346848297737309
-0.005421939748110831,-0.008468770040086846
-0.005421599748110831,-0.009522003888230759
-0.005421259748110831,-0.00688891926786619
-0.005420919748110831,-0.006000253208495722
-0.005420579748110831,-0.007415536191939104
-0.005420239748110831,-0.006493956574811504
-0.005419899748110831,-0.005769858304211129
-0.005419559748110831,-0.005704031188702134
-0.005419219748110831,-0.001129046660818696
-0.005418879748110831,-0.005802771861967182
-0.005418539748110831,-0.006559783690320619
-0.005418199748110831,-0.006131907439511376
-0.005417859748110831,-0.005243241380139172
