Analysis/files/cmb03_wrd01/d2s04_ch04.csv

#Digilent WaveForms Oscilloscope Acquisition
#Device Name: ADP3450
#Serial Number: SN:210018B9D9B0
#Date Time: 2024-08-13 12:06:27.087.637.170
#Sample rate: 2.94118e+06Hz
#Samples: 32768
#Trigger: Source: Channel 3 Type: Edge Condition: Rising Level: 60 mV Hyst.: Auto HoldOff: 0 s
#Channel 3: Range: 200 mV/div Offset: 0 V Attenuation: 1 X Coupling: DC Bandwidth: 0 Hz Sample Mode: Average

Time (s),Channel 3 (V)
-0.005570302173913044,0.009798254513694264
-0.005569962173913043,0.01104896970836612
-0.005569622173913043,0.01032487143776718
-0.005569282173913044,0.01489985596565062
-0.005568942173913043,0.01210220355651093
-0.005568602173913043,0.01081857480408553
-0.005568262173913044,0.01180598153672225
-0.005567922173913043,0.01098314259285449
-0.005567582173913043,0.008876674896566664
-0.005567242173913044,0.007658873259648051
-0.005566902173913043,0.007296824124343493
-0.005566562173913043,0.004861220850510698
-0.005566222173913044,0.003413024309310185
-0.005565882173913043,0.00364341921358969
-0.005565542173913043,0.0023268769034098
-0.005565202173913044,0.001899000652600558
-0.005564862173913043,0.002030654883617769
-0.005564522173913043,0.001471124401791315
-0.005564182173913044,0.001141988824245744
-0.005563842173913043,0.003413024309309886
-0.005563502173913043,0.003248456520537399
-0.005563162173913044,0.002721839596464486
-0.005562822173913044,0.002688926038709988
-0.005562482173913043,-9.985697163754359e-06
-0.005562142173913044,-0.002313934739982752
-0.005561802173913044,-0.002972205895072696
-0.005561462173913043,0.001207815939754859
-0.005561122173913044,2.292786059080275e-05
-0.005560782173913044,0.001635692190561167
-0.005560442173913043,-0.0001087263704274257
-0.005560102173913044,-0.00336716858812858
-0.005559762173913044,-0.0003062077169603363
-0.005559422173913043,-0.0007340839677640107
-0.005559082173913044,-0.001326528007346039
-0.005558742173913044,-0.001293614449591541
-0.005558402173913043,0.0008128532467001733
-0.005558062173913044,-0.001227787334082367
-0.005557722173913044,-0.001326528007345859
-0.005557382173913043,0.0001545820916090312
-0.005557042173913044,-0.001293614449591481
-0.005556702173913044,-0.002248107624471901
-0.005556362173913043,-0.002577243202019209
-0.005556022173913044,-0.003005119452828451
-0.005555682173913044,-0.002346848297738506
-0.005555342173913043,-0.001161960218573253
-0.005555002173913044,-0.002149366951209966
-0.005554662173913044,-0.00353173637689885
-0.005554322173913043,-0.0006682568522548965
-0.005553982173913044,-0.0005695161789912252
-0.005553642173913044,-0.00267598387528288
-0.005553302173913043,-0.00313677368384668
-0.005552962173913044,-0.004025439743219721
-0.005552622173913044,-0.006230648112775047
-0.005552282173913043,-0.006263561670529605
-0.005551942173913044,-0.00837002936682126
-0.005551602173913044,-0.01093728687167671
-0.005551262173913043,-0.01097020042941379
-0.005550922173913043,-0.001359441565100596
-0.005550582173913044,-0.004716624456065421
-0.005550242173913043,-0.008830819175378235
-0.005549902173913043,-0.005078673591365549
-0.005549562173913044,-0.005111587149120106
-0.005549222173913043,-0.005374895611156982
-0.005548882173913043,-0.005605290515438462
-0.005548542173913044,-0.005440722726665677
-0.005548202173913043,-0.005539463399927612
-0.005547862173913043,-0.004584970225047193
-0.005547522173913044,-0.005638204073193019
-0.005547182173913043,-0.007152227729898695
-0.005546842173913043,-0.004979932918101878
-0.005546502173913044,-0.006131907439511376
-0.005546162173913043,-0.005934426092983076
-0.005545822173913043,-0.00540780916891112
-0.005545482173913044,-0.004584970225047193
-0.005545142173913043,-0.004091266858723568
-0.005544802173913043,-0.00119487377632781
-0.005544462173913044,0.0005495447846637165
-0.005544122173913043,-0.0009973924297960971
-0.005543782173913043,0.001405297286282201
-0.005543442173913044,0.001240729497509416
-0.005543102173913043,0.0004837176691520278
-0.005542762173913043,-0.0009315653142913533
-0.005542422173913044,-0.001688577142646167
-0.005542082173913044,-0.003070946568335051
-0.005541742173913043,-0.002149366951209966
-0.005541402173913044,-0.002774724548546551
-0.005541062173913044,-0.005835685419714794
-0.005540722173913043,-0.002379761855491866
-0.005540382173913044,-0.003564649934655922
-0.005540042173913044,-0.002248107624476033
-0.005539702173913043,-0.005572376957683906
-0.005539362173913044,-0.008633337828857716
-0.005539022173913044,-0.008238375135803749
-0.005538682173913043,-0.006033166766247705
-0.005538342173913044,-0.006066080324002262
-0.005538002173913044,-0.007514276865200141
-0.005537662173913043,-0.006362302343793276
-0.005537322173913044,-0.005243241380138334
-0.005536982173913044,-0.004782451571575373
-0.005536642173913043,-0.006823092152357076
-0.005536302173913044,-0.005440722726665677
-0.005535962173913044,-0.006164820997264616
-0.005535622173913043,-0.006987659941129861
-0.005535282173913044,-0.00494701936034732
-0.005534942173913044,-0.002774724548550502
-0.005534602173913043,-0.003630477050165036
-0.005534262173913044,-0.003070946568337565
-0.005533922173913044,-0.002939292337319576
-0.005533582173913043,-0.005309068495647449
-0.005533242173913044,-0.006559783690320619
-0.005532902173913044,-0.007448449749693661
-0.005532562173913043,-0.00869916494436683
-0.005532222173913044,-0.009357436099457973
-0.005531882173913044,-0.009028300521912402
-0.005531542173913043,-0.009785312350267215
-0.005531202173913044,-0.01083854619841304
-0.005530862173913044,-0.01393242062734141
-0.005530522173913043,-0.008929559848648731
-0.005530182173913043,-0.00688891926786619
-0.005529842173913044,-0.004025439743219721
-0.005529502173913043,-0.003762131281190868
-0.005529162173913043,-0.007942153116012016
-0.005528822173913044,-0.005835685419720362
-0.005528482173913043,-0.004354575320763257
-0.005528142173913043,-0.003235514357110351
-0.005527802173913044,-0.002708897433037437
-0.005527462173913043,-0.002708897433039413
-0.005527122173913043,-0.003795044838937822
-0.005526782173913044,-0.00392669906995605
-0.005526442173913043,-0.004552056667295389
-0.005526102173913043,-0.006066080324002262
-0.005525762173913044,-0.005210327822383777
-0.005525422173913043,-0.005407809168907827
-0.005525082173913043,-0.003597563492410479
-0.005524742173913044,-0.005802771861965805
-0.005524402173913043,-0.005835685419721859
-0.005524062173913043,-0.00665852436358429
-0.005523722173913044,-0.009554917445985316
-0.005523382173913043,-0.01077271908291955
-0.005523042173913043,-0.01936315765684333
-0.005522702173913044,-0.03266023498968441
-0.005522362173913043,-0.05112474089003782
-0.005522022173913043,-0.07689605661180915
-0.005521682173913044,-0.107077789072738
-0.005521342173913043,-0.1377203113422876
-0.005521002173913043,-0.1690211047668145
-0.005520662173913044,-0.1983141711683703
-0.005520322173913044,-0.2243158817944232
-0.005519982173913043,-0.2364938981636566
-0.005519642173913044,-0.2491656178991611
-0.005519302173913044,-0.2535431210805092
-0.005518962173913043,-0.2557812430078271
-0.005518622173913044,-0.260092919073674
-0.005518282173913044,-0.255122971852745
-0.005517942173913043,-0.2461375705857418
-0.005517602173913044,-0.2393902912460576
-0.005517262173913044,-0.2338278999855476
-0.005516922173913043,-0.226060300355462
-0.005516582173913044,-0.2201358599596417
-0.005516242173913044,-0.2104592739798195
-0.005515902173913043,-0.2006839473266984
-0.005515562173913044,-0.1954177780859693
-0.005515222173913044,-0.1893616834591418
-0.005514882173913043,-0.1807712448851914
-0.005514542173913044,-0.1734644350636797
-0.005514202173913044,-0.1689881912090681
-0.005513862173913043,-0.1614839000410209
-0.005513522173913044,-0.1563164714735555
-0.005513182173913044,-0.1493058836718476
-0.005512842173913043,-0.1417686789460412
-0.005512502173913044,-0.1368974723983668
-0.005512162173913044,-0.1332440674876109
-0.005511822173913043,-0.127220886418527
-0.005511482173913044,-0.1210989646761793
-0.005511142173913044,-0.1183671393825511
-0.005510802173913043,-0.1138908955279314
-0.005510462173913044,-0.1115540329273578
-0.005510122173913044,-0.111981909178167
-0.005509782173913043,-0.1046421857989008
-0.005509442173913044,-0.09871774540308051
-0.005509102173913044,-0.09552513030088847
-0.005508762173913043,-0.09210212029441316
-0.005508422173913043,-0.09134510846605973
-0.005508082173913044,-0.09088431865749594
-0.005507742173913043,-0.08522318672370718
-0.005507402173913043,-0.08252427498783843
-0.005507062173913044,-0.07995701748298298
-0.005506722173913043,-0.07587573632141298
-0.005506382173913043,-0.0731768245855442
-0.005506042173913044,-0.07209067717964382
-0.005505702173913043,-0.07093870265822713
-0.005505362173913043,-0.06698907572768747
-0.005505022173913044,-0.06718655707421481
-0.005504682173913043,-0.06708781640094567
-0.005504342173913043,-0.06409268264528645
-0.005504002173913044,-0.06139377090941276
-0.005503662173913043,-0.06066967263880604
-0.005503322173913043,-0.05711500840132033
-0.005502982173913044,-0.05398822041463741
-0.005502642173913043,-0.05112474088998591
-0.005502302173913043,-0.04836000203860814
-0.005501962173913044,-0.04622062078456193
-0.005501622173913043,-0.04645101568884108
-0.005501282173913043,-0.04493699203213421
-0.005500942173913044,-0.04286343789359711
-0.005500602173913043,-0.04454202933907742
-0.005500262173913043,-0.04339005481767002
-0.005499922173913044,-0.04312674635563356
-0.005499582173913044,-0.04589148520701133
-0.005499242173913043,-0.03786057711490443
-0.005498902173913044,-0.03400969085762125
-0.005498562173913044,-0.03249566720091437
-0.005498222173913043,-0.03137660623725668
-0.005497882173913044,-0.03239692652764795
-0.005497542173913044,-0.03157408758378552
-0.005497202173913043,-0.02634083190080944
-0.005496862173913044,-0.02541925228368184
-0.005496522173913044,-0.0246951540130829
-0.005496182173913043,-0.02374066083819943
-0.005495842173913044,-0.02196332871945334
-0.005495502173913044,-0.02160127958415388
-0.005495162173913043,-0.0233786117028993
-0.005494822173913044,-0.0203834779472346
-0.005494482173913044,-0.02071261352477958
-0.005494142173913043,-0.02054804573600739
-0.005493802173913044,-0.01903402207929776
-0.005493462173913044,-0.01765165265360888
-0.005493122173913043,-0.01837575092420662
-0.005492782173913044,-0.01801370178890649
-0.005492442173913044,-0.01755291198034353
-0.005492102173913043,-0.01860614582848852
-0.005491762173913044,-0.01821118313543383
-0.005491422173913044,-0.01923150342582325
-0.005491082173913043,-0.01781622044237915
-0.005490742173913044,-0.01936315765684333
-0.005490402173913044,-0.01748708486483358
-0.005490062173913043,-0.01761873909585181
-0.005489722173913044,-0.01719086284504256
-0.005489382173913044,-0.01653259168995142
-0.005489042173913043,-0.02031765083172549
-0.005488702173913044,-0.01399824774285052
-0.005488362173913044,-0.01152973091125874
-0.005488022173913043,-0.01123350889146629
-0.005487682173913043,-0.01044358350535836
-0.005487342173913044,-0.01508439514875091
-0.005487002173913043,-0.01429446976263956
-0.005486662173913043,-0.01320832235674115
-0.005486322173913044,-0.01320832235674115
-0.005485982173913043,-0.01475525957120618
-0.005485642173913043,-0.01521604937976914
-0.005485302173913044,-0.01419572908937787
-0.005484962173913043,-0.01245131052838766
-0.005484622173913043,-0.0131754087989866
-0.005484282173913044,-0.01106894110269494
-0.005483942173913043,-0.01281335966368252
-0.005483602173913043,-0.0106410648518857
-0.005483262173913044,-0.009982793696794558
-0.005482922173913043,-0.008732078502123364
-0.005482582173913043,-0.009818225908021772
-0.005482242173913044,-0.009752398792512659
-0.005481902173913043,-0.007613017538473391
-0.005481562173913043,-0.01143099023799507
-0.005481222173913044,-0.0115626444690133
-0.005480882173913043,-0.01103602754493302
-0.005480542173913043,-0.006987659941129861
-0.005480202173913044,-0.01106894110269494
-0.005479862173913043,-0.01120059533371185
-0.005479522173913043,-0.01047649706311291
-0.005479182173913044,-0.0115626444690133
-0.005478842173913044,-0.0139653341850916
-0.005478502173913043,-0.0113322495647314
-0.005478162173913044,-0.007020573498884419
-0.005477822173913044,-0.007152227729902407
-0.005477482173913043,-0.005210327822383777
-0.005477142173913044,-0.008666251386612273
-0.005476802173913044,-0.00942326321496571
-0.005476462173913043,-0.007382622634184546
-0.005476122173913044,-0.007613017538466446
-0.005475782173913044,-0.007382622634184965
-0.005475442173913043,-0.006395215901547833
-0.005475102173913044,-0.006757265036847961
-0.005474762173913044,-0.006559783690320978
-0.005474422173913043,-0.004552056667292635
-0.005474082173913044,-0.006033166766247705
-0.005473742173913044,-0.006757265036846644
-0.005473402173913043,-0.005835685419720362
-0.005473062173913044,-0.003334255030374022
-0.005472722173913044,-0.006395215901542265
-0.005472382173913043,-0.00688891926786619
-0.005472042173913044,-0.007876326000502903
-0.005471702173913044,-0.008106720904784382
-0.005471362173913043,-0.008040893789275689
-0.005471022173913044,-0.009949880139040001
-0.005470682173913044,-0.01093728687167492
-0.005470342173913043,-0.009225781868439744
-0.005470002173913044,-0.009258695426194301
-0.005469662173913044,-0.01014736148556734
-0.005469322173913043,-0.01008153437005823
-0.005468982173913044,-0.007975066673766575
-0.005468642173913044,-0.006625610805829733
-0.005468302173913043,-0.008896646290894173
-0.005467962173913044,-0.009785312350267215
-0.005467622173913044,-0.00540780916891112
-0.005467282173913043,-0.004025439743219721
-0.005466942173913043,-0.003070946568337565
-0.005466602173913044,-0.008007980231521132
-0.005466262173913043,-0.01120059533370742
-0.005465922173913043,-0.008040893789275689
-0.005465582173913044,-0.006856005710111633
-0.005465242173913043,-0.008797905617628766
-0.005464902173913043,-0.007843412442748346
-0.005464562173913044,-0.008797905617630502
-0.005464222173913043,-0.009719485234754629
-0.005463882173913043,-0.007810498884993789
-0.005463542173913044,-0.008830819175385059
-0.005463202173913043,-0.009324522541702339
-0.005462862173913043,-0.008732078502121389
-0.005462522173913044,-0.007185141287657204
-0.005462182173913043,-0.008402942924573543
-0.005461842173913043,-0.007152227729902647
-0.005461502173913044,-0.007349709076429989
-0.005461162173913043,-0.007020573498880467
-0.005460822173913043,-0.004848278687083649
-0.005460482173913044,-0.005638204073193019
-0.005460142173913043,-0.005572376957683906
-0.005459802173913043,-0.005572376957683906
-0.005459462173913044,-0.002577243202019209
-0.005459122173913043,-0.003762131281184522
-0.005458782173913043,-0.004453315994028964
-0.005458442173913044,-0.005078673591365549
-0.005458102173913043,-0.008534597155602008
-0.005457762173913043,-0.01291210033695014
-0.005457422173913044,-0.007744671769484675
-0.005457082173913044,-0.008764992059874089
-0.005456742173913043,-0.007547190422957332
-0.005456402173913044,-0.004716624456065421
-0.005456062173913044,-0.0085345971555871
-0.005455722173913043,-0.008337115809066702
-0.005455382173913044,-0.003959612627710607
-0.005455042173913044,-0.003959612627710607
-0.005454702173913043,-0.005539463399929348
-0.005454362173913044,-0.004124180416483393
-0.005454022173913044,-0.003136773683848476
-0.005453682173913043,-0.00415709397423795
-0.005453342173913044,-0.002017712720191738
-0.005453002173913044,-0.001787317815910257
-0.005452662173913043,-0.003597563492410479
-0.005452322173913044,-0.003597563492410479
-0.005451982173913044,-0.003202600799356512
-0.005451642173913043,-0.004914105802592763
-0.005451302173913044,-0.005473636284420234
-0.005450962173913044,-0.005572376957683726
-0.005450622173913043,-0.007152227729902647
-0.005450282173913044,-0.006461043017056948
-0.005449942173913044,-0.006954746383374406
-0.005449602173913043,-0.006691437921338847
-0.005449262173913044,-0.007975066673766575
-0.005448922173913044,-0.006428129459305204
-0.005448582173913043,-0.008534597155594046
-0.005448242173913044,-0.00939034965721253
-0.005447902173913044,-0.01050941062086747
-0.005447562173913043,-0.01357037149204128
-0.005447222173913044,-0.01485400024446901
-0.005446882173913044,-0.007316795518675433
-0.005446542173913043,-0.007283881960920875
-0.005446202173913044,-0.005506549842174791
-0.005445862173913044,-0.004058353300974278
-0.005445522173913043,-0.006954746383372012
-0.005445182173913043,-0.005144500706874663
-0.005444842173913044,-0.0007340839677640107
-0.005444502173913043,-0.0004049483902216127
-0.005444162173913043,-0.002149366951209966
-0.005443822173913044,-0.001392355122855153
-0.005443482173913043,-0.000108726370430958
-0.005443142173913043,-0.002050626277946295
-0.005442802173913044,-0.001392355122855153
-0.005442462173913043,-0.001589836469384531
-0.005442122173913043,-0.002708897433037437
-0.005441782173913044,-0.002741810990791994
-0.005441442173913043,-0.002017712720195091
-0.005441102173913043,-0.003860871954446936
-0.005440762173913044,-0.004782451571574535
-0.005440422173913043,-0.002741810990793671
-0.005440082173913043,-0.003663390607919593
-0.005439742173913044,-0.00665852436358429
-0.005439402173913043,-0.005210327822385693
-0.005439062173913043,-0.006263561670529605
-0.005438722173913044,-0.006757265036847961
-0.005438382173913043,-0.006461043017058325
-0.005438042173913043,-0.007218054845411761
-0.005437702173913044,-0.00767884465397556
-0.005437362173913043,-0.006098993881766219
-0.005437022173913043,-0.01126642244922228
-0.005436682173913044,-0.005769858304211248
-0.005436342173913044,5.584141833476358e-05
-0.005436002173913043,-0.002643070317528323
-0.005435662173913044,-0.004486229551783521
-0.005435322173913044,-0.007020573498879809
-0.005434982173913043,-0.006954746383375304
-0.005434642173913044,-0.005374895611156563
-0.005434302173913044,-0.005638204073192541
-0.005433962173913043,-0.006164820997265934
-0.005433622173913044,-0.007020573498884419
-0.005433282173913044,-0.007909239558255843
-0.005432942173913043,-0.007514276865202775
-0.005432602173913044,-0.008304202251312145
-0.005432262173913044,-0.007909239558258178
-0.005431922173913043,-0.007218054845411761
-0.005431582173913044,-0.008468770040084931
-0.005431242173913044,-0.007909239558258478
-0.005430902173913043,-0.007152227729902647
-0.005430562173913044,-0.006461043017056948
-0.005430222173913044,-0.008139634462536306
-0.005429882173913043,-0.008205461578048474
-0.005429542173913044,-0.009522003888230759
-0.005429202173913044,-0.008600424271104835
-0.005428862173913043,-0.007744671769484675
-0.005428522173913044,-0.007415536191939104
-0.005428182173913044,-0.008468770040083015
-0.005427842173913043,-0.007415536191939104
-0.005427502173913044,-0.004584970225047193
-0.005427162173913044,-0.005572376957683906
-0.005426822173913043,-0.006559783690320619
-0.005426482173913044,-0.01090437331392216
-0.005426142173913044,-0.005506549842174791
-0.005425802173913043,-0.002577243202019209
-0.005425462173913044,-0.008040893789275689
-0.005425122173913044,-0.009258695426194301
-0.005424782173913043,-0.006263561670529605
-0.005424442173913043,-0.004354575320765292
-0.005424102173913044,-0.006164820997265934
-0.005423762173913043,-0.007250968403164761
-0.005423422173913043,-0.006395215901547833
-0.005423082173913044,-0.00790923955825746
-0.005422742173913043,-0.00843585648232768
-0.005422402173913043,-0.006954746383375304
-0.005422062173913044,-0.007514276865202775
-0.005421722173913043,-0.006954746383370515
-0.005421382173913043,-0.004321661763010735
-0.005421042173913044,-0.003400082145883136
-0.005420702173913043,-0.004617883782800073
-0.005420362173913043,-0.00369630416567415
-0.005420022173913044,-0.00313677368384668
-0.005419682173913043,-0.00567111763095075
-0.005419342173913043,-0.007415536191939104
-0.005419002173913044,-0.008304202251312145
-0.005418662173913043,-0.00962074456149449
-0.005418322173913043,-0.009653658119248986
-0.005417982173913044,-0.008501683597839487
-0.005417642173913043,-0.009258695426193104
