Analysis/files/cmb03_wrd01/d2s04_ch36.csv

#Digilent WaveForms Oscilloscope Acquisition
#Device Name: ADP3450
#Serial Number: SN:210018B9D9B0
#Date Time: 2024-08-13 12:27:19.010.568.550
#Sample rate: 2.94118e+06Hz
#Samples: 32768
#Trigger: Source: Channel 3 Type: Edge Condition: Rising Level: 60 mV Hyst.: Auto HoldOff: 0 s
#Channel 3: Range: 200 mV/div Offset: 0 V Attenuation: 1 X Coupling: DC Bandwidth: 0 Hz Sample Mode: Average

Time (s),Channel 3 (V)
-0.005570346847697757,0.007988008837193623
-0.005570006847697756,0.007099342777809745
-0.005569666847697757,0.001141988824245744
-0.005569326847697757,0.002623098923200814
-0.005568986847697756,0.004959961523774489
-0.005568646847697757,0.005025788639283483
-0.005568306847697757,0.002688926038709928
-0.005567966847697756,-0.002906378779566217
-0.005567626847697757,-0.00369630416567415
-0.005567286847697757,-0.002116453393455409
-0.005566946847697756,-0.002346848297737908
-0.005566606847697757,-0.00267598387528288
-0.005566266847697757,-0.003268427914864908
-0.005565926847697756,-0.002116453393452835
-0.005565586847697757,-0.0007011704100094536
-0.005565246847697757,-0.0007999110832731249
-0.005564906847697756,-0.001063219545307546
-0.005564566847697757,5.584141834535986e-05
-0.005564226847697757,-0.0004378619479729968
-0.005563886847697756,-0.00155692291162716
-0.005563546847697757,-0.001129046660818696
-0.005563206847697757,-0.0007011704100094536
-0.005562866847697757,-0.00109613310306342
-0.005562526847697757,0.0005166312269091594
-0.005562186847697757,0.0004508041114000451
-0.005561846847697757,-0.0004378619479713803
-0.005561506847697757,-0.0003062077169547683
-0.005561166847697757,-0.0003720348324638825
-0.005560826847697757,-0.003696304165668103
-0.005560486847697757,-0.001096133103064139
-0.005560146847697757,-0.002840551664055666
-0.005559806847697757,-0.002774724548546671
-0.005559466847697756,-0.004782451571574535
-0.005559126847697757,-0.007645931096221003
-0.005558786847697757,-0.004288748205262285
-0.005558446847697756,-0.003959612627710607
-0.005558106847697757,-0.001622750027137053
-0.005557766847697757,-0.002675983875280964
-0.005557426847697756,-0.007250968403166318
-0.005557086847697757,-0.006987659941129861
-0.005556746847697757,-0.005144500706878016
-0.005556406847697756,-0.005309068495647449
-0.005556066847697757,-0.006428129459302391
-0.005555726847697757,-0.006098993881757418
-0.005555386847697756,-0.00711931417214809
-0.005555046847697757,-0.006131907439511376
-0.005554706847697757,-0.006987659941128304
-0.005554366847697756,-0.008205461578048474
-0.005554026847697757,-0.007777585327239231
-0.005553686847697757,-0.007415536191939104
-0.005553346847697756,-0.00860042427110316
-0.005553006847697757,-0.007382622634184546
-0.005552666847697757,-0.007316795518675433
-0.005552326847697756,-0.007645931096221003
-0.005551986847697757,-0.007086400614393532
-0.005551646847697757,-0.007810498884993789
-0.005551306847697756,-0.007185141287658461
-0.005550966847697757,-0.007876326000502903
-0.005550626847697757,-0.008764992059875945
-0.005550286847697756,-0.008863732733141531
-0.005549946847697757,-0.009916966581285444
-0.005549606847697757,-0.0106410648518857
-0.005549266847697756,-0.01185886648881287
-0.005548926847697757,-0.01656550524770598
-0.005548586847697757,-0.01485400024446901
-0.005548246847697756,-0.007942153116012854
-0.005547906847697757,-0.008402942924575817
-0.005547566847697757,-0.003564649934655922
-0.005547226847697756,-0.002412675413254925
-0.005546886847697757,-0.007086400614393532
-0.005546546847697757,-0.004091266858728836
-0.005546206847697756,-0.002346848297742398
-0.005545866847697757,-0.005144500706874663
-0.005545526847697757,-0.005539463399929348
-0.005545186847697756,-0.005341982053408472
-0.005544846847697757,-0.008896646290894173
-0.005544506847697757,-0.008073807347030245
-0.005544166847697756,-0.009554917445986693
-0.005543826847697757,-0.01031192927434013
-0.005543486847697757,-0.01123350889146773
-0.005543146847697756,-0.009982793696796114
-0.005542806847697757,-0.01083854619841304
-0.005542466847697757,-0.008435856482330374
-0.005542126847697757,-0.008304202251312384
-0.005541786847697757,-0.008962473406403288
-0.005541446847697757,-0.007316795518675433
-0.005541106847697757,-0.007909239558256382
-0.005540766847697757,-0.00711931417214809
-0.005540426847697757,-0.01103602754494038
-0.005540086847697757,-0.01073980552514991
-0.005539746847697757,-0.01172721225778608
-0.005539406847697757,-0.01235256985512267
-0.005539066847697757,-0.01268170543266764
-0.005538726847697757,-0.01350454437653217
-0.005538386847697757,-0.0152489629375237
-0.005538046847697757,-0.01432738332039777
-0.005537706847697756,-0.006362302343793276
-0.005537366847697757,-0.008106720904784802
-0.005537026847697757,-0.005012846475862063
-0.005536686847697756,-0.006625610805829733
-0.005536346847697757,-0.01024610215883101
-0.005536006847697757,-0.008830819175387633
-0.005535666847697756,-0.007020573498884419
-0.005535326847697757,-0.008830819175385059
-0.005534986847697757,-0.009522003888229501
-0.005534646847697756,-0.007942153116012016
-0.005534306847697757,-0.009225781868439744
-0.005533966847697757,-0.009686571677002705
-0.005533626847697756,-0.008435856482330374
-0.005533286847697757,-0.00869916494436683
-0.005532946847697757,-0.009884053023530886
-0.005532606847697756,-0.009554917445985316
-0.005532266847697757,-0.006263561670529605
-0.005531926847697757,-0.006823092152357076
-0.005531586847697756,-0.005967339650738591
-0.005531246847697757,-0.007448449749693661
-0.005530906847697757,-0.007645931096221003
-0.005530566847697756,-0.007020573498884419
-0.005530226847697757,-0.007810498884993789
-0.005529886847697757,-0.01024610215883101
-0.005529546847697756,-0.00909412763741984
-0.005529206847697757,-0.008172548020293918
-0.005528866847697757,-0.008732078502121389
-0.005528526847697756,-0.007678844653977775
-0.005528186847697757,-0.008896646290894173
-0.005527846847697757,-0.01403116130060508
-0.005527506847697756,-0.007316795518669685
-0.005527166847697757,-0.00415709397423795
-0.005526826847697757,-0.005473636284420234
-0.005526486847697756,-0.004255834647508865
-0.005526146847697757,-0.008238375135803031
-0.005525806847697757,-0.008172548020293918
-0.005525466847697756,-0.007481363307450912
-0.005525126847697757,-0.008962473406403288
-0.005524786847697757,-0.01027901571658557
-0.005524446847697756,-0.009818225908019977
-0.005524106847697757,-0.008830819175385059
-0.005523766847697757,-0.01169429870003153
-0.005523426847697756,-0.01600597476588905
-0.005523086847697757,-0.02179876093068056
-0.005522746847697757,-0.03641238057370391
-0.005522406847697756,-0.0551401949360948
-0.005522066847697757,-0.08147104113969258
-0.005521726847697757,-0.1106982804257393
-0.005521386847697756,-0.1434801839493332
-0.005521046847697757,-0.1737277435257162
-0.005520706847697757,-0.2030537234850266
-0.005520366847697757,-0.227640151127636
-0.005520026847697757,-0.2451830774108597
-0.005519686847697757,-0.2587434632057372
-0.005519346847697757,-0.267268074664152
-0.005519006847697757,-0.2706581711128869
-0.005518666847697757,-0.2697365914957592
-0.005518326847697757,-0.267268074664172
-0.005517986847697757,-0.2621664732122111
-0.005517646847697757,-0.2557154158923179
-0.005517306847697757,-0.2532798126184851
-0.005516966847697756,-0.2387978472064756
-0.005516626847697757,-0.2305365442100817
-0.005516286847697757,-0.2229664259265474
-0.005515946847697756,-0.2184901820719138
-0.005515606847697757,-0.2145076415836124
-0.005515266847697757,-0.207661621570677
-0.005514926847697756,-0.2006510337689439
-0.005514586847697757,-0.1929821748121321
-0.005514246847697757,-0.187748919129167
-0.005513906847697756,-0.180277541518873
-0.005513566847697757,-0.1709959182320879
-0.005513226847697757,-0.1633928863907991
-0.005512886847697756,-0.1575671866682286
-0.005512546847697757,-0.1504249446354897
-0.005512206847697757,-0.1433814432760145
-0.005511866847697756,-0.1393001621144494
-0.005511526847697757,-0.1343631284512659
-0.005511186847697757,-0.1316971302731468
-0.005510846847697756,-0.1273196270917906
-0.005510506847697757,-0.1226459018906435
-0.005510166847697757,-0.1192558054419242
-0.005509826847697756,-0.1168202021680869
-0.005509486847697757,-0.1132984514883493
-0.005509146847697757,-0.1096450465775935
-0.005508806847697756,-0.107044875514978
-0.005508466847697757,-0.1040497417593188
-0.005508126847697757,-0.100462163964072
-0.005507786847697756,-0.09796073357471882
-0.005507446847697757,-0.09417567443295163
-0.005507106847697757,-0.09457063712600633
-0.005506766847697756,-0.08927155432750974
-0.005506426847697757,-0.08219513941029286
-0.005506086847697757,-0.07696188372731827
-0.005505746847697756,-0.07373635506737376
-0.005505406847697757,-0.07488832958878117
-0.005505066847697757,-0.07301225679677142
-0.005504726847697756,-0.07018169082987066
-0.005504386847697757,-0.06531048428220507
-0.005504046847697757,-0.06369771995223175
-0.005503706847697756,-0.05997848792596094
-0.005503366847697757,-0.0567529592660202
-0.005503026847697757,-0.05487688647401046
-0.005502686847697756,-0.05300081368199968
-0.005502346847697757,-0.05244128320017322
-0.005502006847697757,-0.05142096290978196
-0.005501666847697756,-0.0510918273322283
-0.005501326847697757,-0.04664849703537118
-0.005500986847697757,-0.04773464444127156
-0.005500646847697756,-0.04529904116743481
-0.005500306847697757,-0.04556234962947079
-0.005499966847697757,-0.045397781840698
-0.005499626847697757,-0.04496990558988954
-0.005499286847697757,-0.04414706664602484
-0.005498946847697757,-0.04569400386048902
-0.005498606847697757,-0.0423039074117758
-0.005498266847697757,-0.04223808029626052
-0.005497926847697757,-0.04075697019730545
-0.005497586847697757,-0.03851884826999964
-0.005497246847697757,-0.03684025682451315
-0.005496906847697757,-0.03562245518759454
-0.005496566847697757,-0.03799223134591834
-0.005496226847697756,-0.03124495200623845
-0.005495886847697757,-0.02739406574895527
-0.005495546847697757,-0.03022463171584203
-0.005495206847697756,-0.03019171815809262
-0.005494866847697757,-0.02805233690404641
-0.005494526847697757,-0.02831564536608239
-0.005494186847697756,-0.02696618949814603
-0.005493846847697757,-0.02538633872592728
-0.005493506847697757,-0.0239381421847294
-0.005493166847697756,-0.02397105574248133
-0.005492826847697757,-0.02722949796018248
-0.005492486847697757,-0.0258471285344936
-0.005492146847697756,-0.02558382007245463
-0.005491806847697757,-0.02525468449490905
-0.005491466847697757,-0.02499137603287308
-0.005491126847697756,-0.02377357439595399
-0.005490786847697757,-0.02133797112211676
-0.005490446847697757,-0.02028473727397093
-0.005490106847697756,-0.01926441698357966
-0.005489766847697757,-0.01919858986807055
-0.005489426847697757,-0.01821118313543383
-0.005489086847697756,-0.01692755438300611
-0.005488746847697757,-0.01663133236321509
-0.005488406847697757,-0.01742125774932446
-0.005488066847697756,-0.01623636967015849
-0.005487726847697757,-0.01518313582201458
-0.005487386847697757,-0.01587432053486028
-0.005487046847697756,-0.01501856803324186
-0.005486706847697757,-0.01505148159099635
-0.005486366847697757,-0.01656550524770598
-0.005486026847697756,-0.01663133236320719
-0.005485686847697757,-0.01228674273961356
-0.005485346847697757,-0.01587432053486028
-0.005485006847697756,-0.01284627322144073
-0.005484666847697757,-0.01268170543266824
-0.005484326847697757,-0.01653259168995142
-0.005483986847697756,-0.01534770361078395
-0.005483646847697757,-0.01347163081877761
-0.005483306847697757,-0.01518313582201458
-0.005482966847697756,-0.01715794928728711
-0.005482626847697757,-0.01666424592096965
-0.005482286847697757,-0.01676298659423332
-0.005481946847697756,-0.01656550524770245
-0.005481606847697757,-0.01462360534018711
-0.005481266847697757,-0.01337289014551394
-0.005480926847697756,-0.01373493928081215
-0.005480586847697757,-0.01268170543266824
-0.005480246847697757,-0.01034484283209469
-0.005479906847697756,-0.01166138514227308
-0.005479566847697757,-0.009522003888230759
-0.005479226847697757,-0.0115626444690133
-0.005478886847697757,-0.0127146189904207
-0.005478546847697757,-0.0127146189904228
-0.005478206847697757,-0.012253829181859
-0.005477866847697757,-0.01350454437652989
-0.005477526847697757,-0.01399824774285052
-0.005477186847697757,-0.0127146189904228
-0.005476846847697757,-0.01284627322144079
-0.005476506847697757,-0.01199052071982254
-0.005476166847697757,-0.01129933600697684
-0.005475826847697757,-0.01495274091772603
-0.005475486847697757,-0.008896646290894173
-0.005475146847697757,-0.004552056667292635
-0.005474806847697757,-0.004486229551783641
-0.005474466847697756,-0.00415709397423795
-0.005474126847697757,-0.007777585327239231
-0.005473786847697757,-0.009752398792509066
-0.005473446847697756,-0.008863732733139616
-0.005473106847697757,-0.009127041195176074
-0.005472766847697757,-0.01080563264065543
-0.005472426847697756,-0.0115626444690133
-0.005472086847697757,-0.01021318860107646
-0.005471746847697757,-0.01123350889146587
-0.005471406847697756,-0.01120059533371317
-0.005471066847697757,-0.009785312350267215
-0.005470726847697757,-0.009423263214967746
-0.005470386847697756,-0.009982793696794558
-0.005470046847697757,-0.008337115809066702
-0.005469706847697757,-0.007942153116012016
-0.005469366847697756,-0.007744671769484675
-0.005469026847697757,-0.007876326000502903
-0.005468686847697757,-0.007185141287657204
-0.005468346847697756,-0.008962473406403288
-0.005468006847697757,-0.008139634462539359
-0.005467666847697757,-0.008271288693557588
-0.005467326847697756,-0.008962473406403288
-0.005466986847697757,-0.0106410648518857
-0.005466646847697757,-0.01001570725454911
-0.005466306847697756,-0.0110360275449417
-0.005465966847697757,-0.01176012581554064
-0.005465626847697757,-0.01152973091125874
-0.005465286847697756,-0.01620345611239687
-0.005464946847697757,-0.01126642244922228
-0.005464606847697757,-0.008863732733139616
-0.005464266847697756,-0.009522003888236267
-0.005463926847697757,-0.01255005120165001
-0.005463586847697757,-0.01534770361078737
-0.005463246847697756,-0.01218800206634797
-0.005462906847697757,-0.01113476821820406
-0.005462566847697757,-0.009785312350267215
-0.005462226847697756,-0.00925869542619496
-0.005461886847697757,-0.00962074456149443
-0.005461546847697757,-0.008995386964157845
-0.005461206847697756,-0.008995386964158983
-0.005460866847697757,-0.00962074456149443
-0.005460526847697757,-0.0104106699476038
-0.005460186847697756,-0.01018027504332436
-0.005459846847697757,-0.01152973091125874
-0.005459506847697757,-0.01120059533371317
-0.005459166847697756,-0.01008153437006487
-0.005458826847697757,-0.01373493928081407
-0.005458486847697757,-0.01083854619841304
-0.005458146847697756,-0.01014736148556495
-0.005457806847697757,-0.008830819175385059
-0.005457466847697757,-0.008995386964157845
-0.005457126847697757,-0.007942153116013932
-0.005456786847697757,-0.00869916494436683
-0.005456446847697757,-0.008172548020293918
-0.005456106847697757,-0.007514276865203973
-0.005455766847697757,-0.008468770040084931
-0.005455426847697757,-0.007250968403166318
-0.005455086847697757,-0.01136516312247847
-0.005454746847697757,-0.01603888832363307
-0.005454406847697757,-0.01169429870003153
-0.005454066847697757,-0.01103602754494158
-0.005453726847697756,-0.01120059533371317
-0.005453386847697757,-0.01169429870003153
-0.005453046847697757,-0.01518313582200823
-0.005452706847697756,-0.01304375456796837
-0.005452366847697757,-0.01205634783533165
-0.005452026847697757,-0.01100311398718774
-0.005451686847697756,-0.01031192927434013
-0.005451346847697757,-0.01080563264065849
-0.005451006847697757,-0.008468770040089182
-0.005450666847697756,-0.007218054845411761
-0.005450326847697757,-0.00688891926786619
-0.005449986847697757,-0.006921832825620687
-0.005449646847697756,-0.00494701936034732
-0.005449306847697757,-0.005210327822383777
-0.005448966847697757,-0.006395215901545678
-0.005448626847697756,-0.007975066673766575
-0.005448286847697757,-0.009916966581285444
-0.005447946847697757,-0.008896646290894173
-0.005447606847697756,-0.008139634462539359
-0.005447266847697757,-0.008139634462539359
-0.005446926847697757,-0.01014736148556734
-0.005446586847697756,-0.008271288693557588
-0.005446246847697757,-0.007053487056638975
-0.005445906847697757,-0.008172548020293918
-0.005445566847697756,-0.007711758211731735
-0.005445226847697757,-0.00860042427110316
-0.005444886847697757,-0.009423263214967087
-0.005444546847697756,-0.01353745793428002
-0.005444206847697757,-0.009851139465776329
-0.005443866847697757,-0.008633337828857716
-0.005443526847697756,-0.007382622634181194
-0.005443186847697757,-0.005539463399929348
-0.005442846847697757,-0.01241839697063178
-0.005442506847697756,-0.01373493928080724
-0.005442166847697757,-0.009982793696794558
-0.005441826847697757,-0.009291608983948858
-0.005441486847697756,-0.01027901571658395
-0.005441146847697757,-0.00939034965721253
-0.005440806847697757,-0.009752398792512659
-0.005440466847697756,-0.009258695426191907
-0.005440126847697757,-0.007942153116012016
-0.005439786847697757,-0.008830819175385059
-0.005439446847697756,-0.009916966581283529
-0.005439106847697757,-0.008863732733139616
-0.005438766847697757,-0.008995386964157845
-0.005438426847697756,-0.00952200388822998
-0.005438086847697757,-0.009094127637421515
-0.005437746847697757,-0.009159954752930631
-0.005437406847697756,-0.006790178594600782
-0.005437066847697757,-0.005835685419720362
-0.005436726847697757,-0.005341982053402005
-0.005436386847697757,-0.00672435147909089
-0.005436046847697757,-0.005835685419720362
-0.005435706847697757,-0.004091266858728836
-0.005435366847697757,-0.007415536191933057
-0.005435026847697757,-0.007382622634184546
-0.005434686847697757,-0.007613017538466446
-0.005434346847697757,-0.007415536191939463
-0.005434006847697757,-0.01307666812572293
-0.005433666847697757,-0.006329388786038719
-0.005433326847697757,-0.004519143109541371
-0.005432986847697756,-0.01044358350535836
-0.005432646847697757,-0.009686571677003543
-0.005432306847697757,-0.008962473406404605
-0.005431966847697756,-0.0111018546604495
-0.005431626847697757,-0.01251713764389546
-0.005431286847697757,-0.01261587831715895
-0.005430946847697756,-0.01297792745245925
-0.005430606847697757,-0.01215508850859533
-0.005430266847697757,-0.01136516312248739
-0.005429926847697756,-0.01103602754494038
-0.005429586847697757,-0.009159954752930631
-0.005429246847697757,-0.008468770040086188
-0.005428906847697756,-0.008337115809066702
-0.005428566847697757,-0.007053487056638975
-0.005428226847697757,-0.005605290515441097
-0.005427886847697756,-0.004453315994028964
-0.005427546847697757,-0.004190007531992507
-0.005427206847697757,-0.003992526185465165
-0.005426866847697756,-0.00415709397423795
-0.005426526847697757,-0.004288748205256179
-0.005426186847697757,-0.004519143109538078
-0.005425846847697756,-0.00790923955825746
-0.005425506847697757,-0.008205461578048474
-0.005425166847697757,-0.006131907439511376
-0.005424826847697756,-0.007645931096221003
-0.005424486847697757,-0.008468770040084931
-0.005424146847697757,-0.007942153116012016
-0.005423806847697756,-0.00741553619194108
-0.005423466847697757,-0.008501683597839487
-0.005423126847697757,-0.008534597155594046
-0.005422786847697756,-0.01018027504332346
-0.005422446847697757,-0.01103602754494038
-0.005422106847697757,-0.009884053023530886
-0.005421766847697756,-0.01129933600697852
-0.005421426847697757,-0.01222091562410444
-0.005421086847697757,-0.01222091562410444
-0.005420746847697756,-0.01129933600697846
-0.005420406847697757,-0.01218800206634988
-0.005420066847697757,-0.01047649706311291
-0.005419726847697756,-0.009851139465774773
-0.005419386847697757,-0.008995386964157845
-0.005419046847697757,-0.007283881960920875
-0.005418706847697756,-0.004716624456066259
-0.005418366847697757,-0.00517741426462922
-0.005418026847697757,-0.00517741426462922
-0.005417686847697756,-0.004683710898313318
-0.005417346847697757,-0.006033166766247705
-0.005417006847697757,-0.007777585327239231
