Analysis/files/cmb03_wrd01/d2s02_ch11.csv

#Digilent WaveForms Oscilloscope Acquisition
#Device Name: ADP3450
#Serial Number: SN:210018B9D9B0
#Date Time: 2024-08-12 18:00:40.978.571.680
#Sample rate: 2.94118e+06Hz
#Samples: 32768
#Trigger: Source: Channel 3 Type: Edge Condition: Rising Level: 60 mV Hyst.: Auto HoldOff: 0 s
#Channel 3: Range: 200 mV/div Offset: 0 V Attenuation: 1 X Coupling: DC Bandwidth: 0 Hz Sample Mode: Average

Time (s),Channel 3 (V)
-0.005570388621089224,0.01364914077097745
-0.005570048621089224,0.01312252384689591
-0.005569708621089224,0.008382971530248308
-0.005569368621089224,0.003676332771346642
-0.005569028621089224,0.00482830729275614
-0.005568688621089224,0.00482830729275614
-0.005568348621089224,0.003643419213592085
-0.005568008621089224,0.003314283636045196
-0.005567668621089224,0.002590185365446257
-0.005567328621089224,0.001668605748318658
-0.005566988621089224,0.002688926038707713
-0.005566648621089224,0.001471124401791315
-0.005566308621089224,0.0006811990156819448
-0.005565968621089224,0.002030654883617649
-0.005565628621089224,0.001405297286282201
-0.005565288621089224,0.00130655661301853
-0.005564948621089224,0.001931914210355115
-0.005564608621089224,0.001931914210355115
-0.005564268621089224,0.0008128532467001733
-0.005563928621089224,0.002096481999123051
-0.005563588621089224,-0.0005695161789912252
-0.005563248621089224,-0.001754404258155281
-0.005562908621089224,0.0003520634381325423
-0.005562568621089224,0.001010334593227516
-0.005562228621089224,-0.0008986517565367963
-0.005561888621089224,-0.001655663584890233
-0.005561548621089224,-0.0001745534859365399
-0.005561208621089224,-0.0001416399281819828
-0.005560868621089224,-0.001622750027134359
-0.005560528621089224,-0.006263561670529605
-0.005560188621089224,-0.000207467043691097
-0.005559848621089224,0.002261049787896196
-0.005559508621089224,0.003050975174010056
-0.005559168621089224,-0.0006353432945003394
-0.005558828621089224,-0.005769858304201909
-0.005558488621089224,-0.003959612627710607
-0.005558148621089224,-0.003169687241601236
-0.005557808621089224,-0.005210327822380066
-0.005557468621089224,-0.005309068495647449
-0.005557128621089224,-0.006098993881756819
-0.005556788621089224,-0.004749538013822432
-0.005556448621089224,-0.003860871954446936
-0.005556108621089224,-0.005210327822383777
-0.005555768621089224,-0.007744671769480065
-0.005555428621089224,-0.006823092152357076
-0.005555088621089224,-0.00619773455502049
-0.005554748621089224,-0.008337115809062811
-0.005554408621089224,-0.008468770040084931
-0.005554068621089224,-0.007613017538466446
-0.005553728621089224,-0.007152227729902647
-0.005553388621089224,-0.006296475228284162
-0.005553048621089224,-0.006790178594602518
-0.005552708621089224,-0.007942153116012016
-0.005552368621089224,-0.007283881960920875
-0.005552028621089224,-0.005045760033610991
-0.005551688621089224,-0.006098993881756819
-0.005551348621089224,-0.006197734555017078
-0.005551008621089224,-0.004321661763010735
-0.005550668621089224,-0.003005119452828451
-0.005550328621089224,-0.008172548020284937
-0.005549988621089224,-0.003235514357110351
-0.005549648621089224,-0.00290637877956478
-0.005549308621089224,-0.003400082145882598
-0.005548968621089224,-0.003103860126092122
-0.005548628621089224,-0.01027901571658557
-0.005548288621089224,-0.01231965629736207
-0.005547948621089224,-0.008995386964157845
-0.005547608621089224,-0.007810498884993789
-0.005547268621089224,-0.009127041195175595
-0.005546928621089224,-0.008863732733139616
-0.005546588621089224,-0.007481363307448217
-0.005546248621089224,-0.008567510713346866
-0.005545908621089224,-0.007613017538466446
-0.005545568621089224,-0.008764992059875945
-0.005545228621089224,-0.009719485234757264
-0.005544888621089224,-0.009258695426194301
-0.005544548621089224,-0.00790923955825746
-0.005544208621089224,-0.0086333378288561
-0.005543868621089224,-0.007744671769484675
-0.005543528621089224,-0.005704031188702134
-0.005543188621089224,-0.005736944746456631
-0.005542848621089224,-0.005704031188702134
-0.005542508621089224,-0.005572376957683906
-0.005542168621089224,-0.005407809168911419
-0.005541828621089224,-0.005309068495647449
-0.005541488621089224,-0.00313677368384668
-0.005541148621089224,-0.003992526185463608
-0.005540808621089224,-0.005704031188702134
-0.005540468621089224,-0.004420402436274407
-0.005540128621089224,-0.006131907439508263
-0.005539788621089224,-0.01149681735350419
-0.005539448621089224,-0.008435856482330374
-0.005539108621089224,-0.006921832825623501
-0.005538768621089224,-0.007415536191939104
-0.005538428621089224,-0.00619773455502049
-0.005538088621089224,-0.01031192927433265
-0.005537748621089224,-0.0120234342775771
-0.005537408621089224,-0.007843412442748346
-0.005537068621089224,-0.008073807347029826
-0.005536728621089224,-0.008995386964157845
-0.005536388621089224,-0.009192868310685188
-0.005536048621089224,-0.007382622634187839
-0.005535708621089224,-0.00790923955825746
-0.005535368621089224,-0.007975066673766575
-0.005535028621089224,-0.007613017538467105
-0.005534688621089224,-0.008666251386612273
-0.005534348621089224,-0.009159954752930631
-0.005534008621089224,-0.008633337828858674
-0.005533668621089224,-0.009522003888230759
-0.005533328621089224,-0.01080563264065849
-0.005532988621089224,-0.009258695426194301
-0.005532648621089224,-0.009028300521912402
-0.005532308621089224,-0.008896646290894173
-0.005531968621089224,-0.007152227729902647
-0.005531628621089224,-0.006461043017056948
-0.005531288621089224,-0.006592697248075176
-0.005530948621089224,-0.005012846475856435
-0.005530608621089224,-0.006033166766247705
-0.005530268621089224,-0.005769858304211248
-0.005529928621089224,-0.006329388786038719
-0.005529588621089224,-0.01024610215883066
-0.005529248621089224,-0.01004862081230367
-0.005528908621089224,-0.007382622634184546
-0.005528568621089224,-0.004584970225047312
-0.005528228621089224,-0.004650797340556306
-0.005527888621089224,-0.006362302343793276
-0.005527548621089224,-0.008040893789271857
-0.005527208621089224,-0.005934426092984033
-0.005526868621089224,-0.004914105802592763
-0.005526528621089224,-0.005967339650739309
-0.005526188621089224,-0.006362302343793276
-0.005525848621089224,-0.007810498884993789
-0.005525508621089224,-0.003070946568343073
-0.005525168621089224,-0.006098993881756819
-0.005524828621089224,-0.009127041195176074
-0.005524488621089224,-0.008238375135805845
-0.005524148621089224,-0.009785312350267215
-0.005523808621089224,-0.01195760716206798
-0.005523468621089224,-0.01564392563059251
-0.005523128621089224,-0.02341152526065386
-0.005522788621089224,-0.03944042788712317
-0.005522448621089224,-0.05744414397891476
-0.005522108621089224,-0.08430160710658452
-0.005521768621089224,-0.115701141204432
-0.005521428621089224,-0.1464753177049973
-0.005521088621089224,-0.1763937417038353
-0.005520748621089224,-0.2047981420460181
-0.005520408621089224,-0.2258957325666508
-0.005520068621089224,-0.2431753503878317
-0.005519728621089224,-0.2533785532917444
-0.005519388621089224,-0.2584472411859369
-0.005519048621089224,-0.2625943494630203
-0.005518708621089224,-0.2572294395490275
-0.005518368621089224,-0.2483098653975588
-0.005518028621089224,-0.2387320200909665
-0.005517688621089224,-0.2308327662298728
-0.005517348621089224,-0.2298453594972378
-0.005517008621089224,-0.2230980801575518
-0.005516668621089224,-0.2124011738873208
-0.005516328621089224,-0.2057197216631578
-0.005515988621089224,-0.2008485151154712
-0.005515648621089224,-0.1967343203961516
-0.005515308621089224,-0.1905794850960606
-0.005514968621089224,-0.1829435396969922
-0.005514628621089224,-0.1771507535321901
-0.005514288621089224,-0.173036558812878
-0.005513948621089224,-0.1670792048592956
-0.005513608621089224,-0.1587520747473927
-0.005513268621089224,-0.1529922021403557
-0.005512928621089224,-0.144829639817215
-0.005512588621089224,-0.1393659892299585
-0.005512248621089224,-0.135021399606357
-0.005511908621089224,-0.1284386880554456
-0.005511568621089224,-0.1237649628542985
-0.005511228621089224,-0.1212635324649521
-0.005510888621089224,-0.1193216325574333
-0.005510548621089224,-0.1143187717787406
-0.005510208621089224,-0.1099083550396299
-0.005509868621089224,-0.1075385788813018
-0.005509528621089224,-0.1037864332972823
-0.005509188621089224,-0.1002317690597901
-0.005508848621089224,-0.0987506589608322
-0.005508508621089224,-0.09717080818861634
-0.005508168621089224,-0.08963360346282276
-0.005507828621089224,-0.08578271720552999
-0.005507488621089224,-0.08051654796481045
-0.005507148621089224,-0.08038489373379221
-0.005506808621089224,-0.08242553431456463
-0.005506468621089224,-0.07686314305405459
-0.005506128621089224,-0.0708728755427252
-0.005505788621089224,-0.07044499929191136
-0.005505448621089224,-0.06791065534481508
-0.005505108621089224,-0.06639663168810545
-0.005504768621089224,-0.06537631139770746
-0.005504428621089224,-0.06168999292920378
-0.005504088621089224,-0.05974809302168491
-0.005503748621089224,-0.05816824224946323
-0.005503408621089224,-0.05655547791949286
-0.005503068621089224,-0.05204632050711854
-0.005502728621089224,-0.0511905680054979
-0.005502388621089224,-0.050005679926336
-0.005502048621089224,-0.04829417492309903
-0.005501708621089224,-0.04763590376800729
-0.005501368621089224,-0.04730676819046232
-0.005501028621089224,-0.04503573270539787
-0.005500688621089224,-0.04513447337865861
-0.005500348621089224,-0.04352170904868825
-0.005500008621089224,-0.04059240240853267
-0.005499668621089224,-0.03940751432937077
-0.005499328621089224,-0.04016452615772342
-0.005498988621089224,-0.03871632961652291
-0.005498648621089224,-0.03812388557694196
-0.005498308621089224,-0.04200768539197863
-0.005497968621089224,-0.03897963807855937
-0.005497628621089224,-0.03407551797313928
-0.005497288621089224,-0.03318685191375732
-0.005496948621089224,-0.02969801479177427
-0.005496608621089224,-0.03292354345171499
-0.005496268621089224,-0.03420717220414859
-0.005495928621089224,-0.02979675546503794
-0.005495588621089224,-0.02722949796018715
-0.005495248621089224,-0.02782194199976451
-0.005494908621089224,-0.02693327594039147
-0.005494568621089224,-0.02509011670613962
-0.005494228621089224,-0.02479389468634526
-0.005493888621089224,-0.02156836602639866
-0.005493548621089224,-0.02146962535313517
-0.005493208621089224,-0.02216081006598069
-0.005492868621089224,-0.02387231506921766
-0.005492528621089224,-0.02186458804619333
-0.005492188621089224,-0.0224570320857717
-0.005491848621089224,-0.02485972180185437
-0.005491508621089224,-0.02321404391412951
-0.005491168621089224,-0.02420145064676323
-0.005490828621089224,-0.0233786117028993
-0.005490488621089224,-0.02278616766331727
-0.005490148621089224,-0.02248994564352626
-0.005489808621089224,-0.0231482167986174
-0.005489468621089224,-0.02104174910232575
-0.005489128621089224,-0.02012016948519815
-0.005488788621089224,-0.0210746626600803
-0.005488448621089224,-0.01896819496378865
-0.005488108621089224,-0.01781622044238986
-0.005487768621089224,-0.02370774728044487
-0.005487428621089224,-0.01870488650175219
-0.005487088621089224,-0.01320832235674157
-0.005486748621089224,-0.01343871726102305
-0.005486408621089224,-0.0113322495647314
-0.005486068621089224,-0.01399824774285484
-0.005485728621089224,-0.01636802390117864
-0.005485388621089224,-0.01373493928081407
-0.005485048621089224,-0.01126642244922306
-0.005484708621089224,-0.01169429870003153
-0.005484368621089224,-0.0108714597561676
-0.005484028621089224,-0.01100311398718254
-0.005483688621089224,-0.009192868310685188
-0.005483348621089224,-0.01054232417862203
-0.005483008621089224,-0.009884053023534059
-0.005482668621089224,-0.01162847158452241
-0.005482328621089224,-0.01307666812572293
-0.005481988621089224,-0.01179303937329424
-0.005481648621089224,-0.01126642244922228
-0.005481308621089224,-0.01301084101021381
-0.005480968621089224,-0.01152973091124886
-0.005480628621089224,-0.006098993881756819
-0.005480288621089224,-0.01090437331392216
-0.005479948621089224,-0.01093728687167606
-0.005479608621089224,-0.01057523773637659
-0.005479268621089224,-0.0117930393732952
-0.005478928621089224,-0.009192868310689918
-0.005478588621089224,-0.009159954752930631
-0.005478248621089224,-0.01073980552514937
-0.005477908621089224,-0.01097020042943085
-0.005477568621089224,-0.01343871726102305
-0.005477228621089224,-0.01587432053486028
-0.005476888621089224,-0.01004862081231427
-0.005476548621089224,-0.01024610215883101
-0.005476208621089224,-0.009719485234758102
-0.005475868621089224,-0.01294501389469883
-0.005475528621089224,-0.01541353072629648
-0.005475188621089224,-0.01360328504979584
-0.005474848621089224,-0.01067397840964559
-0.005474508621089224,-0.009785312350267215
-0.005474168621089224,-0.01008153437005823
-0.005473828621089224,-0.01103602754493865
-0.005473488621089224,-0.008962473406403288
-0.005473148621089224,-0.008863732733139616
-0.005472808621089224,-0.01100311398718194
-0.005472468621089224,-0.01120059533371317
-0.005472128621089224,-0.01126642244922228
-0.005471788621089224,-0.01047649706311435
-0.005471448621089224,-0.008732078502121389
-0.005471108621089224,-0.008567510713348603
-0.005470768621089224,-0.01136516312248087
-0.005470428621089224,-0.009192868310685188
-0.005470088621089224,-0.008073807347030245
-0.005469748621089224,-0.007382622634184546
-0.005469408621089224,-0.009291608983948858
-0.005469068621089224,-0.008238375135803031
-0.005468728621089224,-0.007711758211730118
-0.005468388621089224,-0.008304202251312145
-0.005468048621089224,-0.007283881960920875
-0.005467708621089224,-0.009456176772721644
-0.005467368621089224,-0.009554917445985316
-0.005467028621089224,-0.01083854619841304
-0.005466688621089224,-0.01255005120165001
-0.005466348621089224,-0.006098993881757058
-0.005466008621089224,-0.006230648112775047
-0.005465668621089224,-0.007777585327239231
-0.005465328621089224,-0.005309068495644695
-0.005464988621089224,-0.003795044838937822
-0.005464648621089224,-0.005012846475856435
-0.005464308621089224,-0.005671117630947876
-0.005463968621089224,-0.005835685419720362
-0.005463628621089224,-0.007711758211730118
-0.005463288621089224,-0.01021318860107592
-0.005462948621089224,-0.009916966581285444
-0.005462608621089224,-0.008732078502121389
-0.005462268621089224,-0.01067397840964283
-0.005461928621089224,-0.01208926139308621
-0.005461588621089224,-0.01113476821820406
-0.005461248621089224,-0.01152973091125838
-0.005460908621089224,-0.0113322495647314
-0.005460568621089224,-0.01116768177595861
-0.005460228621089224,-0.0110689411026941
-0.005459888621089224,-0.01060815129413114
-0.005459548621089224,-0.009061214079666959
-0.005459208621089224,-0.009258695426195918
-0.005458868621089224,-0.01014736148556734
-0.005458528621089224,-0.009127041195176074
-0.005458188621089224,-0.007481363307449595
-0.005457848621089224,-0.008238375135803031
-0.005457508621089224,-0.008468770040084931
-0.005457168621089224,-0.008995386964156887
-0.005456828621089224,-0.009225781868439744
-0.005456488621089224,-0.009752398792512659
-0.005456148621089224,-0.00353173637691268
-0.005455808621089224,-0.005934426092984033
-0.005455468621089224,-0.004025439743219721
-0.005455128621089224,-0.002215194066722373
-0.005454788621089224,-0.008040893789275689
-0.005454448621089224,-0.009522003888230759
-0.005454108621089224,-0.008699164944368327
-0.005453768621089224,-0.01014736148556734
-0.005453428621089224,-0.01149681735350419
-0.005453088621089224,-0.01054232417862377
-0.005452748621089224,-0.01284627322144103
-0.005452408621089224,-0.01284627322144103
-0.005452068621089224,-0.01228674273961457
-0.005451728621089224,-0.01245131052838634
-0.005451388621089224,-0.01314249524123204
-0.005451048621089224,-0.01090437331392623
-0.005450708621089224,-0.00962074456149443
-0.005450368621089224,-0.009653658119248986
-0.005450028621089224,-0.006098993881763284
-0.005449688621089224,-0.00665852436358429
-0.005449348621089224,-0.006625610805829733
-0.005449008621089224,-0.006625610805829733
-0.005448668621089224,-0.006000253208493148
-0.005448328621089224,-0.007152227729902647
-0.005447988621089224,-0.007382622634184546
-0.005447648621089224,-0.006921832825620747
-0.005447308621089224,-0.00767884465397556
-0.005446968621089224,-0.008040893789275689
-0.005446628621089224,-0.006000253208493148
-0.005446288621089224,-0.009653658119248986
-0.005445948621089224,-0.008304202251312145
-0.005445608621089224,-0.003169687241603032
-0.005445268621089224,-0.00415709397423795
-0.005444928621089224,-0.003992526185465165
-0.005444588621089224,-0.00754719042296272
-0.005444248621089224,-0.01050941062086747
-0.005443908621089224,-0.009324522541703417
-0.005443568621089224,-0.00744844974969396
-0.005443228621089224,-0.007613017538466446
-0.005442888621089224,-0.008732078502121389
-0.005442548621089224,-0.007777585327240009
-0.005442208621089224,-0.008205461578048474
-0.005441868621089224,-0.008896646290894173
-0.005441528621089224,-0.008073807347030785
-0.005441188621089224,-0.00837002936682126
-0.005440848621089224,-0.01014736148556734
-0.005440508621089224,-0.009587831003737599
-0.005440168621089224,-0.008337115809066702
-0.005439828621089224,-0.009028300521912402
-0.005439488621089224,-0.007876326000507094
-0.005439148621089224,-0.0101802750433219
-0.005438808621089224,-0.009587831003739873
-0.005438468621089224,-0.01041066994760404
-0.005438128621089224,-0.01054232417862203
-0.005437788621089224,-0.01129933600697684
-0.005437448621089224,-0.01087145975616323
-0.005437108621089224,-0.008468770040084931
-0.005436768621089224,-0.009719485234758102
-0.005436428621089224,-0.008863732733141172
-0.005436088621089224,-0.008896646290894173
-0.005435748621089224,-0.007250968403166318
-0.005435408621089224,-0.01087145975616101
-0.005435068621089224,-0.009258695426194301
-0.005434728621089224,-0.009785312350267215
-0.005434388621089224,-0.009554917445985736
-0.005434048621089224,-0.0129450138947047
-0.005433708621089224,-0.01383367995407774
-0.005433368621089224,-0.01139807668024494
-0.005433028621089224,-0.009225781868439744
-0.005432688621089224,-0.009028300521912402
-0.005432348621089224,-0.008567510713349441
-0.005432008621089224,-0.00767884465397556
-0.005431668621089224,-0.007613017538466446
-0.005431328621089224,-0.009159954752927817
-0.005430988621089224,-0.00939034965721253
-0.005430648621089224,-0.009884053023530886
-0.005430308621089224,-0.01057523773637533
-0.005429968621089224,-0.01021318860107646
-0.005429628621089224,-0.008139634462539359
-0.005429288621089224,-0.008830819175383801
-0.005428948621089224,-0.008402942924575817
-0.005428608621089224,-0.006131907439511376
-0.005428268621089224,-0.005243241380139951
-0.005427928621089224,-0.005473636284420234
-0.005427588621089224,-0.004881192244838206
-0.005427248621089224,-0.00438748887851985
-0.005426908621089224,-0.00494701936034732
-0.005426568621089224,-0.004683710898310864
-0.005426228621089224,-0.006395215901547833
-0.005425888621089224,-0.008732078502121389
-0.005425548621089224,-0.01031192927434013
-0.005425208621089224,-0.01139807668024051
-0.005424868621089224,-0.007349709076429989
-0.005424528621089224,-0.008205461578048474
-0.005424188621089224,-0.006296475228284162
-0.005423848621089224,-0.0105094106208725
-0.005423508621089224,-0.01327414947225027
-0.005423168621089224,-0.01333997658775938
-0.005422828621089224,-0.01176012581553711
-0.005422488621089224,-0.009818225908021772
-0.005422148621089224,-0.009028300521912402
-0.005421808621089224,-0.009522003888233094
-0.005421468621089224,-0.01080563264065849
-0.005421128621089224,-0.009061214079666959
-0.005420788621089224,-0.009357436099458093
-0.005420448621089224,-0.009423263214967087
-0.005420108621089224,-0.01031192927434013
-0.005419768621089224,-0.01080563264065567
-0.005419428621089224,-0.009258695426194301
-0.005419088621089224,-0.006493956574811504
-0.005418748621089224,-0.006921832825620508
-0.005418408621089224,-0.006790178594602518
-0.005418068621089224,-0.004617883782801749
-0.005417728621089224,-0.004420402436275844
-0.005417388621089224,-0.005210327822383777
