Analysis/files/cmb03_wrd01/d2s02_ch24.csv

#Digilent WaveForms Oscilloscope Acquisition
#Device Name: ADP3450
#Serial Number: SN:210018B9D9B0
#Date Time: 2024-08-13 11:08:54.575.869.780
#Sample rate: 2.94118e+06Hz
#Samples: 32768
#Trigger: Source: Channel 3 Type: Edge Condition: Rising Level: 60 mV Hyst.: Auto HoldOff: 0 s
#Channel 3: Range: 200 mV/div Offset: 0 V Attenuation: 1 X Coupling: DC Bandwidth: 0 Hz Sample Mode: Average

Time (s),Channel 3 (V)
-0.005570439038461539,0.00574988690988374
-0.005570099038461538,0.004301690368681909
-0.005569759038461538,0.00357759209808297
-0.005569419038461539,0.002886407385237271
-0.005569079038461538,0.002623098923200455
-0.005568739038461538,0.002425617576673472
-0.005568399038461539,0.001043248150982073
-0.005568059038461538,0.002359790461165555
-0.005567719038461538,0.0030180616162555
-0.005567379038461539,0.0006811990156819448
-0.005567039038461538,-0.0003062077169544091
-0.005566699038461538,-0.0001087263704274257
-0.005566359038461539,-0.0007669975255185678
-0.005566019038461538,-0.003663390607927257
-0.005565679038461538,-0.007876326000502903
-0.005565339038461539,-0.002643070317528323
-0.005564999038461538,-0.001886058489167103
-0.005564659038461538,0.001635692190564101
-0.005564319038461539,-7.581281267286857e-05
-0.005563979038461538,-0.005704031188698602
-0.005563639038461538,-0.003762131281183265
-0.005563299038461538,-0.0005036890634821109
-0.005562959038461539,-0.001326528007344542
-0.005562619038461538,-0.002149366951209966
-0.005562279038461538,-0.0002403806014456541
-0.005561939038461539,-0.001392355122853057
-0.005561599038461538,-0.0009644788720459105
-0.005561259038461538,-0.002050626277946295
-0.005560919038461539,-0.004881192244833058
-0.005560579038461538,-0.005934426092984033
-0.005560239038461538,-0.007481363307448217
-0.005559899038461539,-0.00899538696415509
-0.005559559038461538,-0.009686571677003543
-0.005559219038461538,-0.007777585327239231
-0.005558879038461539,-0.009028300521910126
-0.005558539038461538,-0.008732078502121389
-0.005558199038461538,-0.007580103980711889
-0.005557859038461539,-0.008995386964155271
-0.005557519038461538,-0.008139634462539359
-0.005557179038461538,-0.007580103980711889
-0.005556839038461539,-0.007678844653975381
-0.005556499038461538,-0.008732078502121389
-0.005556159038461538,-0.007218054845411761
-0.005555819038461539,-0.00734970907642975
-0.005555479038461538,-0.01083854619841304
-0.005555139038461538,-0.01126642244922228
-0.005554799038461539,-0.006329388786047699
-0.005554459038461538,-0.006131907439511376
-0.005554119038461538,-0.00438748887851985
-0.005553779038461539,-0.00688891926786619
-0.005553439038461538,-0.01212217495084077
-0.005553099038461538,-0.009094127637421515
-0.005552759038461539,-0.005934426092984033
-0.005552419038461538,-0.006987659941129861
-0.005552079038461538,-0.007448449749693661
-0.005551739038461539,-0.008172548020293918
-0.005551399038461538,-0.008271288693559684
-0.005551059038461538,-0.009423263214967087
-0.005550719038461539,-0.009028300521912402
-0.005550379038461538,-0.01116768177596029
-0.005550039038461538,-0.01208926139308621
-0.005549699038461539,-0.01093728687167671
-0.005549359038461538,-0.01189178004656007
-0.005549019038461538,-0.01255005120165001
-0.005548679038461539,-0.01261587831715913
-0.005548339038461538,-0.01370202572306011
-0.005547999038461538,-0.01403116130060508
-0.005547659038461539,-0.01231965629736811
-0.005547319038461538,-0.01218800206635222
-0.005546979038461538,-0.01347163081877761
-0.005546639038461539,-0.01113476821820406
-0.005546299038461538,-0.01054232417862305
-0.005545959038461538,-0.0111018546604495
-0.005545619038461539,-0.01031192927434013
-0.005545279038461538,-0.009982793696805634
-0.005544939038461538,-0.01607180188138762
-0.005544599038461539,-0.009752398792512659
-0.005544259038461538,-0.008238375135803331
-0.005543919038461538,-0.008402942924575817
-0.005543579038461539,-0.00767884465397556
-0.005543239038461538,-0.01139807668024075
-0.005542899038461538,-0.01152973091125874
-0.005542559038461538,-0.01008153437005823
-0.005542219038461539,-0.00935743609945929
-0.005541879038461538,-0.01162847158452241
-0.005541539038461538,-0.01152973091125874
-0.005541199038461539,-0.01097020042943229
-0.005540859038461538,-0.0108714597561676
-0.005540519038461538,-0.01126642244922228
-0.005540179038461539,-0.009357436099461446
-0.005539839038461538,-0.01067397840964026
-0.005539499038461538,-0.01090437331392216
-0.005539159038461539,-0.009620744561496765
-0.005538819038461538,-0.01116768177595861
-0.005538479038461538,-0.01228674273961356
-0.005538139038461539,-0.01314249524123048
-0.005537799038461538,-0.01264879187491368
-0.005537459038461538,-0.01521604937976914
-0.005537119038461539,-0.01472234601345168
-0.005536779038461538,-0.01554518495731471
-0.005536439038461538,-0.01794787467339738
-0.005536099038461539,-0.01613762899690003
-0.005535759038461538,-0.01696046794076066
-0.005535419038461538,-0.01587432053486028
-0.005535079038461539,-0.01482108668671637
-0.005534739038461538,-0.01518313582201458
-0.005534399038461538,-0.0185403187129794
-0.005534059038461539,-0.01077271908291806
-0.005533719038461538,-0.006921832825620747
-0.005533379038461538,-0.006263561670529605
-0.005533039038461539,-0.00494701936034732
-0.005532699038461538,-0.008337115809066702
-0.005532359038461538,-0.01106894110269494
-0.005532019038461539,-0.01185886648880431
-0.005531679038461538,-0.01278044610593191
-0.005531339038461538,-0.01567683918833294
-0.005530999038461539,-0.01515022226426002
-0.005530659038461538,-0.01327414947225027
-0.005530319038461538,-0.01241839697063178
-0.005529979038461539,-0.01261587831715913
-0.005529639038461538,-0.01159555802676708
-0.005529299038461538,-0.01116768177595861
-0.005528959038461539,-0.0129450138947047
-0.005528619038461538,-0.01185886648880419
-0.005528279038461538,-0.0117930393732952
-0.005527939038461539,-0.0136361986075504
-0.005527599038461538,-0.01350454437652977
-0.005527259038461538,-0.01218800206634988
-0.005526919038461539,-0.01320832235674115
-0.005526579038461538,-0.01264879187491416
-0.005526239038461538,-0.01291210033695014
-0.005525899038461539,-0.01399824774285052
-0.005525559038461538,-0.01192469360431103
-0.005525219038461538,-0.01060815129413114
-0.005524879038461539,-0.01050941062086747
-0.005524539038461538,-0.01166138514227787
-0.005524199038461538,-0.01215508850859533
-0.005523859038461539,-0.01241839697063178
-0.005523519038461538,-0.009061214079680609
-0.005523179038461538,-0.01656550524770598
-0.005522839038461539,-0.03180448248806592
-0.005522499038461538,-0.05227671541145702
-0.005522159038461538,-0.08338002748945691
-0.005521819038461539,-0.1135617599503858
-0.005521479038461538,-0.1465082312627542
-0.005521139038461538,-0.1777102840140176
-0.005520799038461538,-0.2064109063759914
-0.005520459038461539,-0.2301744950747384
-0.005520119038461538,-0.2480794704932607
-0.005519779038461538,-0.2617056834036473
-0.005519439038461539,-0.2691112338984092
-0.005519099038461538,-0.2689466661096499
-0.005518759038461538,-0.2680580000502769
-0.005518419038461539,-0.2667414577400969
-0.005518079038461538,-0.2606853631132561
-0.005517739038461538,-0.2530165041564442
-0.005517399038461539,-0.2466641875098263
-0.005517059038461538,-0.2397194268236032
-0.005516719038461538,-0.2316885187314912
-0.005516379038461539,-0.2241513140057114
-0.005516039038461538,-0.2163178872601131
-0.005515699038461538,-0.2080236707059647
-0.005515359038461539,-0.2021321438679097
-0.005515019038461538,-0.194397457795578
-0.005514679038461538,-0.185708278548375
-0.005514339038461539,-0.1777761111295411
-0.005513999038461538,-0.1737935706412253
-0.005513659038461538,-0.1710946589053516
-0.005513319038461539,-0.1612864186945114
-0.005512979038461538,-0.1530909428136089
-0.005512639038461538,-0.1491742294408166
-0.005512299038461539,-0.1442042822198784
-0.005511959038461538,-0.1430193941407144
-0.005511619038461538,-0.1380165333620217
-0.005511279038461539,-0.1296235761346096
-0.005510939038461538,-0.1251802458377445
-0.005510599038461538,-0.1216255816002523
-0.005510259038461539,-0.1146149937985316
-0.005509919038461538,-0.1107311939834939
-0.005509579038461538,-0.1074069246502836
-0.005509239038461539,-0.1040497417593188
-0.005508899038461538,-0.1014166571389485
-0.005508559038461538,-0.09825695559451672
-0.005508219038461539,-0.0958871794361886
-0.005507879038461538,-0.09470229135702191
-0.005507539038461538,-0.09325409481582403
-0.005507199038461539,-0.08983108480935009
-0.005506859038461538,-0.08756004932428255
-0.005506519038461538,-0.08584854432104869
-0.005506179038461539,-0.08229388008355651
-0.005505839038461538,-0.08022032594501428
-0.005505499038461538,-0.07738975997812753
-0.005505159038461539,-0.07386800929838991
-0.005504819038461538,-0.0706095670806839
-0.005504479038461538,-0.06794356890256961
-0.005504139038461539,-0.06560670630199608
-0.005503799038461538,-0.06300653523938457
-0.005503459038461538,-0.06218369629552213
-0.005503119038461539,-0.06386228774100455
-0.005502779038461538,-0.06126211667838328
-0.005502439038461538,-0.0550743678205378
-0.005502099038461539,-0.05303372723975525
-0.005501759038461538,-0.049972766368586
-0.005501419038461538,-0.05247419675792778
-0.005501079038461539,-0.05260585098894601
-0.005500739038461538,-0.04757007665249788
-0.005500399038461538,-0.04707637328618042
-0.005500059038461538,-0.04529904116743434
-0.005499719038461539,-0.0432584005866555
-0.005499379038461538,-0.04233682096952419
-0.005499039038461538,-0.0414152413523966
-0.005498699038461539,-0.03986830413793523
-0.005498359038461538,-0.03901255163631392
-0.005498019038461538,-0.03825553980795911
-0.005497679038461539,-0.03654403480472526
-0.005497339038461538,-0.03605033143840378
-0.005496999038461538,-0.03667568903574037
-0.005496659038461539,-0.03483252980148852
-0.005496319038461538,-0.03292354345172086
-0.005495979038461538,-0.03351598749130289
-0.005495639038461539,-0.03114621133297909
-0.005495299038461538,-0.02805233690404641
-0.005494959038461538,-0.02762446065323717
-0.005494619038461539,-0.02594586920775781
-0.005494279038461538,-0.02525468449490905
-0.005493939038461538,-0.02551799295694551
-0.005493599038461539,-0.02555090651470001
-0.005493259038461538,-0.02551799295694551
-0.005492919038461538,-0.02693327594039147
-0.005492579038461539,-0.03058668085114066
-0.005492239038461538,-0.02459641333981791
-0.005491899038461538,-0.02380648795370854
-0.005491559038461539,-0.02331278458739108
-0.005491219038461538,-0.02146962535313499
-0.005490879038461538,-0.02785485555751907
-0.005490539038461539,-0.02535342516817273
-0.005490199038461538,-0.02100883554457119
-0.005489859038461538,-0.0208442677557984
-0.005489519038461539,-0.0201530830429527
-0.005489179038461538,-0.01965937967663435
-0.005488839038461538,-0.01972520679214346
-0.005488499038461539,-0.02117340333334397
-0.005488159038461538,-0.02058095929376081
-0.005487819038461538,-0.01995560169642536
-0.005487479038461539,-0.02054804573600739
-0.005487139038461538,-0.01613762899689955
-0.005486799038461538,-0.01768456621136092
-0.005486459038461539,-0.01663133236321509
-0.005486119038461538,-0.01432738332039173
-0.005485779038461538,-0.01192469360431343
-0.005485439038461539,-0.01436029687815065
-0.005485099038461538,-0.01505148159099785
-0.005484759038461538,-0.01587432053486028
-0.005484419038461539,-0.01827701025094295
-0.005484079038461538,-0.01893528140603744
-0.005483739038461538,-0.02077844064028929
-0.005483399038461539,-0.02110757621783486
-0.005483059038461538,-0.02054804573600391
-0.005482719038461538,-0.01863905938624308
-0.005482379038461539,-0.01995560169642536
-0.005482039038461538,-0.02314821679860309
-0.005481699038461538,-0.01528187649527825
-0.005481359038461539,-0.01452486466692344
-0.005481019038461538,-0.01337289014551597
-0.005480679038461538,-0.01449195110916888
-0.005480339038461539,-0.01830992380869751
-0.005479999038461538,-0.01620345611239621
-0.005479659038461538,-0.01090437331392216
-0.005479319038461538,-0.01146390379574963
-0.005478979038461539,-0.0141628155316184
-0.005478639038461538,-0.0124842240861409
-0.005478299038461538,-0.0108714597561676
-0.005477959038461539,-0.01139807668023956
-0.005477619038461538,-0.01146390379574963
-0.005477279038461538,-0.01080563264065849
-0.005476939038461539,-0.01287918677919181
-0.005476599038461538,-0.01162847158452241
-0.005476259038461538,-0.0106410648518857
-0.005475919038461539,-0.013043754567964
-0.005475579038461538,-0.01301084101021381
-0.005475239038461538,-0.01215508850859533
-0.005474899038461539,-0.0125171376438948
-0.005474559038461538,-0.01459069178243255
-0.005474219038461538,-0.01508439514875091
-0.005473879038461539,-0.01570975274608636
-0.005473539038461538,-0.01538061716854192
-0.005473199038461538,-0.0152489629375237
-0.005472859038461539,-0.01554518495731417
-0.005472519038461538,-0.0159401476503694
-0.005472179038461538,-0.01373493928081407
-0.005471839038461539,-0.01709212217177279
-0.005471499038461538,-0.01597306120812395
-0.005471159038461538,-0.009094127637421515
-0.005470819038461539,-0.007942153116014112
-0.005470479038461538,-0.006987659941129861
-0.005470139038461538,-0.009686571677003543
-0.005469799038461539,-0.01176012581554064
-0.005469459038461538,-0.01031192927434013
-0.005469119038461538,-0.007316795518675433
-0.005468779038461539,-0.006856005710111633
-0.005468439038461538,-0.009159954752930631
-0.005468099038461538,-0.008764992059875945
-0.005467759038461539,-0.007382622634184546
-0.005467419038461538,-0.008633337828857716
-0.005467079038461538,-0.008764992059875945
-0.005466739038461539,-0.008435856482330374
-0.005466399038461538,-0.01172721225778704
-0.005466059038461538,-0.012253829181859
-0.005465719038461539,-0.01185886648880431
-0.005465379038461538,-0.01353745793428792
-0.005465039038461538,-0.01419572908937787
-0.005464699038461539,-0.01360328504979584
-0.005464359038461538,-0.0122867427396138
-0.005464019038461538,-0.01241839697063178
-0.005463679038461539,-0.01106894110269494
-0.005463339038461538,-0.0103777563898496
-0.005462999038461538,-0.01057523773637659
-0.005462659038461539,-0.01047649706311291
-0.005462319038461538,-0.01001570725455133
-0.005461979038461538,-0.01123350889146773
-0.005461639038461539,-0.01097020042943127
-0.005461299038461538,-0.01455777822467003
-0.005460959038461538,-0.0101802750433219
-0.005460619038461539,-0.005539463399929348
-0.005460279038461538,-0.009884053023532562
-0.005459939038461538,-0.01080563264065849
-0.005459599038461539,-0.008929559848648731
-0.005459259038461538,-0.008007980231524424
-0.005458919038461538,-0.009818225908021772
-0.005458579038461539,-0.008271288693557588
-0.005458239038461538,-0.007316795518675851
-0.005457899038461538,-0.007547190422957332
-0.005457559038461538,-0.006757265036847961
-0.005457219038461539,-0.003334255030380249
-0.005456879038461538,-0.003992526185465165
-0.005456539038461538,-0.005671117630947577
-0.005456199038461539,-0.005638204073193079
-0.005455859038461538,-0.00767884465397556
-0.005455519038461538,-0.009916966581285444
-0.005455179038461539,-0.01054232417862089
-0.005454839038461538,-0.0117930393732952
-0.005454499038461538,-0.01284627322144103
-0.005454159038461539,-0.01110185466045267
-0.005453819038461538,-0.01067397840964026
-0.005453479038461538,-0.01083854619841304
-0.005453139038461539,-0.01034484283209559
-0.005452799038461538,-0.009587831003739873
-0.005452459038461538,-0.01011444792781279
-0.005452119038461539,-0.01159555802676516
-0.005451779038461538,-0.007843412442748346
-0.005451439038461538,-0.009423263214967087
-0.005451099038461539,-0.008567510713350159
-0.005450759038461538,-0.006493956574811504
-0.005450419038461538,-0.01278044610593191
-0.005450079038461539,-0.01478817312895624
-0.005449739038461538,-0.01149681735350419
-0.005449399038461538,-0.01212217495084077
-0.005449059038461539,-0.01343871726102066
-0.005448719038461538,-0.0117930393732952
-0.005448379038461538,-0.01182595293104976
-0.005448039038461539,-0.01149681735350419
-0.005447699038461538,-0.008567510713348603
-0.005447359038461538,-0.00837002936682126
-0.005447019038461539,-0.009028300521912402
-0.005446679038461538,-0.008501683597839487
-0.005446339038461538,-0.008435856482330374
-0.005445999038461539,-0.01031192927434013
-0.005445659038461538,-0.01156264446901551
-0.005445319038461538,-0.01278044610593191
-0.005444979038461539,-0.01238548341287723
-0.005444639038461538,-0.01287918677919367
-0.005444299038461538,-0.01182595293104976
-0.005443959038461539,-0.0120234342775771
-0.005443619038461538,-0.01189178004655803
-0.005443279038461538,-0.01143099023799507
-0.005442939038461539,-0.01215508850859533
-0.005442599038461538,-0.01126642244922025
-0.005442259038461538,-0.01014736148556734
-0.005441919038461539,-0.007218054845411761
-0.005441579038461538,-0.01511730870648745
-0.005441239038461538,-0.005210327822383777
-0.005440899038461539,-0.007580103980711889
-0.005440559038461538,-0.006493956574815336
-0.005440219038461538,-0.00860042427110316
-0.005439879038461539,-0.01412990197386875
-0.005439539038461538,-0.01419572908937332
-0.005439199038461538,-0.01169429870003153
-0.005438859038461539,-0.01261587831715913
-0.005438519038461538,-0.01271461899041639
-0.005438179038461538,-0.009192868310685188
-0.005437839038461539,-0.008468770040084931
-0.005437499038461538,-0.009192868310681656
-0.005437159038461538,-0.007250968403166318
-0.005436819038461538,-0.007711758211730118
-0.005436479038461539,-0.008106720904784084
-0.005436139038461538,-0.01021318860107646
-0.005435799038461538,-0.009159954752930631
-0.005435459038461539,-0.01176012581553591
-0.005435119038461538,-0.01152973091125874
-0.005434779038461538,-0.01024610215883101
-0.005434439038461539,-0.009982793696795037
-0.005434099038461538,-0.009258695426194301
-0.005433759038461538,-0.009357436099457973
-0.005433419038461539,-0.01176012581553627
-0.005433079038461538,-0.01176012581554064
-0.005432739038461538,-0.01008153437005823
-0.005432399038461539,-0.01149681735350161
-0.005432059038461538,-0.0129450138947047
-0.005431719038461538,-0.012253829181859
-0.005431379038461539,-0.01449195110916481
-0.005431039038461538,-0.01245131052838634
-0.005430699038461538,-0.008007980231521132
-0.005430359038461539,-0.01001570725454546
-0.005430019038461538,-0.00962074456149443
-0.005429679038461538,-0.01255005120165001
-0.005429339038461539,-0.0162692832279082
-0.005428999038461538,-0.01528187649527825
-0.005428659038461538,-0.01462360534018711
-0.005428319038461539,-0.01343871726102521
-0.005427979038461538,-0.01505148159099635
-0.005427639038461538,-0.01551227139956015
-0.005427299038461539,-0.01538061716854192
-0.005426959038461538,-0.01577557986159661
-0.005426619038461538,-0.01521604937976914
-0.005426279038461539,-0.01452486466692344
-0.005425939038461538,-0.01597306120812395
-0.005425599038461538,-0.01498565447548724
-0.005425259038461539,-0.01251713764389546
-0.005424919038461538,-0.0111018546604495
-0.005424579038461538,-0.01083854619841304
-0.005424239038461539,-0.009587831003739873
-0.005423899038461538,-0.009159954752928296
-0.005423559038461538,-0.007876326000502903
-0.005423219038461539,-0.007152227729902647
-0.005422879038461538,-0.008929559848649031
-0.005422539038461538,-0.009094127637421515
-0.005422199038461539,-0.008567510713348603
-0.005421859038461538,-0.009587831003741011
-0.005421519038461538,-0.01021318860107646
-0.005421179038461539,-0.009423263214967087
-0.005420839038461538,-0.01350454437653295
-0.005420499038461538,-0.01393242062734141
-0.005420159038461539,-0.007448449749693661
-0.005419819038461538,-0.007645931096220525
-0.005419479038461538,-0.007382622634184546
-0.005419139038461539,-0.007580103980711889
-0.005418799038461538,-0.009818225908021113
-0.005418459038461538,-0.009456176772721644
-0.005418119038461539,-0.007876326000502903
-0.005417779038461538,-0.008337115809068736
-0.005417439038461538,-0.009456176772721644
-0.005417099038461539,-0.01011444792781279
-0.005416759038461538,-0.008830819175385298
-0.005416419038461538,-0.008962473406403288
