Analysis/files/cmb03_wrd01/d2s02_ch44.csv

#Digilent WaveForms Oscilloscope Acquisition
#Device Name: ADP3450
#Serial Number: SN:210018B9D9B0
#Date Time: 2024-08-13 11:19:07.315.332.900
#Sample rate: 2.94118e+06Hz
#Samples: 32768
#Trigger: Source: Channel 3 Type: Edge Condition: Rising Level: 60 mV Hyst.: Auto HoldOff: 0 s
#Channel 3: Range: 200 mV/div Offset: 0 V Attenuation: 1 X Coupling: DC Bandwidth: 0 Hz Sample Mode: Average

Time (s),Channel 3 (V)
-0.00557026180974478,0.008646279992284765
-0.005569921809744779,0.01048943922654026
-0.00556958180974478,0.01065400701531275
-0.00556924180974478,0.01111479682387655
-0.005568901809744779,0.01216803067201902
-0.00556856180974478,0.01032487143776718
-0.00556822180974478,0.01150975951693123
-0.005567881809744779,0.01206928999875451
-0.00556754180974478,0.009765340955939707
-0.00556720180974478,0.01262882048058617
-0.005566861809744779,0.0125959069228106
-0.00556652180974478,0.001043248150982073
-0.00556618180974478,0.001899000652600558
-0.005565841809744779,0.003248456520530994
-0.00556550180974478,-0.0002732941592002112
-0.00556516180974478,-0.0007999110832731249
-0.005564821809744779,-0.0005695161789915844
-0.00556448180974478,-0.0007669975255185678
-0.00556414180974478,-0.001293614449591481
-0.005563801809744779,0.0003849769958921283
-0.005563461809744779,0.001043248150982073
-0.00556312180974478,0.0002204092071181454
-0.00556278180974478,0.002886407385232422
-0.005562441809744779,0.003873814117873984
-0.00556210180974478,0.003972554791137656
-0.00556176180974478,0.003116802289520727
-0.005561421809744779,0.003149715847273728
-0.00556108180974478,0.002359790461164357
-0.00556074180974478,0.0009774210354754733
-0.005560401809744779,-0.0001416399281819828
-0.00556006180974478,-0.001721490700400724
-0.00555972180974478,0.000220409207114613
-0.005559381809744779,0.001141988824245744
-0.00555904180974478,0.0006811990156819448
-0.00555870180974478,-0.0009973924297974142
-0.005558361809744779,-0.0007011704100094536
-0.00555802180974478,-0.004716624456065421
-0.00555768180974478,-0.001655663584897178
-0.005557341809744779,-0.002215194066719081
-0.00555700180974478,-0.002412675413246423
-0.00555666180974478,-0.001721490700401981
-0.005556321809744779,-0.004782451571574535
-0.00555598180974478,-0.007185141287657204
-0.00555564180974478,-0.006493956574812762
-0.005555301809744779,-0.004584970225047193
-0.00555496180974478,-0.005276154937892892
-0.00555462180974478,-0.005934426092982836
-0.005554281809744779,-0.006395215901547833
-0.00555394180974478,-0.006000253208493148
-0.00555360180974478,-0.006000253208493148
-0.005553261809744779,-0.002313934739982752
-0.00555292180974478,-0.004321661763010735
-0.00555258180974478,-0.005802771861965805
-0.005552241809744779,-0.002939292337319337
-0.00555190180974478,-0.002050626277946295
-0.00555156180974478,-0.001918972046928067
-0.005551221809744779,-0.003795044838934229
-0.00555088180974478,-0.001820231373664395
-0.00555054180974478,-0.002313934739982752
-0.005550201809744779,-0.001820231373663557
-0.00554986180974478,-0.001359441565100596
-0.00554952180974478,-0.001458182238364267
-0.005549181809744779,-0.001458182238365045
-0.00554884180974478,-0.00188605848917351
-0.00554850180974478,-0.003400082145883136
-0.005548161809744779,-0.005934426092984931
-0.00554782180974478,-0.006428129459302391
-0.00554748180974478,-0.01113476821820406
-0.005547141809744779,-0.004157093974234358
-0.00554680180974478,-0.002182280508964523
-0.00554646180974478,-0.001589836469382495
-0.005546121809744779,-0.001129046660824443
-0.00554578180974478,-0.004288748205256179
-0.00554544180974478,-0.003070946568337565
-0.005545101809744779,-0.002149366951209966
-0.00554476180974478,-0.002149366951209966
-0.00554442180974478,-0.001589836469382495
-0.005544081809744779,-0.002643070317528084
-0.00554374180974478,-0.002511416086510094
-0.00554340180974478,-0.002972205895073894
-0.005543061809744779,-0.003235514357112566
-0.005542721809744779,-0.004453315994028964
-0.00554238180974478,-0.004782451571574535
-0.00554204180974478,-0.006362302343790403
-0.005541701809744779,-0.006395215901547833
-0.00554136180974478,-0.00494701936034732
-0.00554102180974478,-0.005835685419718745
-0.005540681809744779,-0.006066080324002262
-0.00554034180974478,-0.004255834647501621
-0.00554000180974478,-0.003103860126094217
-0.005539661809744779,-0.003959612627710607
-0.00553932180974478,-0.003992526185465165
-0.00553898180974478,-0.003564649934656701
-0.005538641809744779,-0.00415709397423795
-0.00553830180974478,-0.003597563492410479
-0.00553796180974478,-0.005078673591362855
-0.005537621809744779,-0.006823092152357076
-0.00553728180974478,-0.008764992059875945
-0.00553694180974478,-0.006428129459306642
-0.005536601809744779,-0.002774724548546551
-0.00553626180974478,-0.004091266858728836
-0.00553592180974478,-0.003400082145884394
-0.005535581809744779,-0.008995386964157845
-0.00553524180974478,-0.01103602754494038
-0.00553490180974478,-0.007909239558263148
-0.005534561809744779,-0.008797905617630502
-0.00553422180974478,-0.008962473406403288
-0.00553388180974478,-0.007250968403169431
-0.005533541809744779,-0.006066080324002262
-0.00553320180974478,-0.006362302343793276
-0.00553286180974478,-0.003860871954446936
-0.005532521809744779,-0.003268427914864908
-0.00553218180974478,-0.004025439743219721
-0.00553184180974478,-0.004584970225047193
-0.005531501809744779,-0.005045760033610991
-0.00553116180974478,-0.007152227729902647
-0.00553082180974478,-0.006296475228284162
-0.005530481809744779,-0.004519143109538078
-0.00553014180974478,-0.007975066673766575
-0.00552980180974478,-0.006757265036847961
-0.005529461809744779,-0.007250968403167216
-0.00552912180974478,-0.007744671769484675
-0.00552878180974478,-0.00837002936682126
-0.005528441809744779,-0.008271288693556929
-0.00552810180974478,-0.00790923955825746
-0.00552776180974478,-0.007316795518675433
-0.005527421809744779,-0.006592697248079905
-0.00552708180974478,-0.009192868310685188
-0.00552674180974478,-0.01070689196739481
-0.005526401809744779,-0.008370029366813836
-0.00552606180974478,-0.004288748205256179
-0.00552572180974478,-0.003663390607919593
-0.005525381809744779,-0.001951885604688072
-0.00552504180974478,-0.00494701936034732
-0.00552470180974478,-0.008073807347030245
-0.005524361809744779,-0.004190007531994064
-0.00552402180974478,-0.005045760033610991
-0.00552368180974478,-0.002478502528755537
-0.005523341809744779,-0.01337289014553082
-0.00552300180974478,-0.02265451343229904
-0.00552266180974478,-0.03957208211814139
-0.005522321809744779,-0.05981392013724299
-0.005521981809744779,-0.08673721038042173
-0.00552164180974478,-0.1198811630392607
-0.005521301809744779,-0.1492071429986242
-0.005520961809744779,-0.1784014687268633
-0.00552062180974478,-0.2065754741647642
-0.00552028180974478,-0.2287592120912953
-0.005519941809744779,-0.2467300146253238
-0.00551960180974478,-0.259500475034092
-0.00551926180974478,-0.266181927258255
-0.005518921809744779,-0.2680909136080314
-0.00551858180974478,-0.2674984695684494
-0.00551824180974478,-0.2632197070603647
-0.005517901809744779,-0.2559458107965998
-0.00551756180974478,-0.2499555432852704
-0.00551722180974478,-0.2439323622161974
-0.005516881809744779,-0.2356710592197926
-0.00551654180974478,-0.229845359497236
-0.00551620180974478,-0.2232297343885821
-0.005515861809744779,-0.2106238417685747
-0.00551552180974478,-0.2049297962770363
-0.00551518180974478,-0.196503925491885
-0.005514841809744779,-0.1887363258617942
-0.00551450180974478,-0.1857411921061295
-0.00551416180974478,-0.17981675171032
-0.005513821809744779,-0.171061745347597
-0.00551348180974478,-0.1652031320672859
-0.00551314180974478,-0.1588508154206679
-0.005512801809744779,-0.1529263750248361
-0.00551246180974478,-0.1480222549194071
-0.00551212180974478,-0.1427560856786779
-0.005511781809744779,-0.1348568318175842
-0.00551144180974478,-0.1296894032501188
-0.00551110180974478,-0.127517108438318
-0.005510761809744779,-0.1227775561216618
-0.00551042180974478,-0.1181038309205147
-0.00551008180974478,-0.1150428700493409
-0.005509741809744779,-0.114582080240777
-0.00550940180974478,-0.1128705752375401
-0.00550906180974478,-0.1092500838845388
-0.005508721809744779,-0.1049054942609292
-0.00550838180974478,-0.1004950775218266
-0.00550804180974478,-0.09815821492125304
-0.005507701809744779,-0.09358323039335985
-0.00550736180974478,-0.0882183204793768
-0.00550702180974478,-0.08367624950924793
-0.005506681809744779,-0.08206348517926665
-0.00550634180974478,-0.07768598199791854
-0.00550600180974478,-0.0771593650738456
-0.005505661809744779,-0.07505289737753661
-0.00550532180974478,-0.0655079656287324
-0.00550498180974478,-0.06432307754956834
-0.005504641809744779,-0.06168999292920234
-0.00550430180974478,-0.0609000675430944
-0.00550396180974478,-0.06149251158267643
-0.005503621809744779,-0.05955061167515181
-0.00550328180974478,-0.05639091013072008
-0.00550294180974478,-0.05599594743766539
-0.005502601809744779,-0.05435026954993197
-0.00550226180974478,-0.05128930867876372
-0.00550192180974478,-0.0497752850220541
-0.005501581809744779,-0.04836000203860671
-0.00550124180974478,-0.04757007665249877
-0.00550090180974478,-0.04496990558988876
-0.005500561809744779,-0.04589148520701589
-0.005500221809744779,-0.0456281767449799
-0.00549988180974478,-0.04319257347114268
-0.00549954180974478,-0.04220516673850776
-0.005499201809744779,-0.04039492106200532
-0.00549886180974478,-0.03855176182775013
-0.00549852180974478,-0.0364452941314623
-0.005498181809744779,-0.03545788739882176
-0.00549784180974478,-0.03252858075866617
-0.00549750180974478,-0.03259440787417518
-0.005497161809744779,-0.03210070450785693
-0.00549682180974478,-0.03022463171584718
-0.00549648180974478,-0.02726241151794243
-0.005496141809744779,-0.02831564536608287
-0.00549580180974478,-0.02838147248159198
-0.00549546180974478,-0.03140951979500572
-0.005495121809744779,-0.02515594382164538
-0.00549478180974478,-0.02258868631678993
-0.00549444180974478,-0.02166710669966401
-0.005494101809744779,-0.02143671179538043
-0.00549376180974478,-0.02439893199329057
-0.00549342180974478,-0.02334569814514666
-0.005493081809744779,-0.02239120497026259
-0.00549274180974478,-0.02242411852801714
-0.00549240180974478,-0.02212789650822667
-0.005492061809744779,-0.02183167448843512
-0.00549172180974478,-0.02367483372269031
-0.00549138180974478,-0.02281908122107339
-0.005491041809744779,-0.02298364900984462
-0.00549070180974478,-0.02334569814514474
-0.00549036180974478,-0.02123923044885309
-0.005490021809744779,-0.0206138728515165
-0.00548968180974478,-0.01919858986807055
-0.00548934180974478,-0.01663133236321509
-0.005489001809744779,-0.01468943245569622
-0.00548866180974478,-0.01511730870650547
-0.00548832180974478,-0.01284627322144103
-0.005487981809744779,-0.01179303937329526
-0.00548764180974478,-0.01182595293104976
-0.00548730180974478,-0.01047649706311291
-0.005486961809744779,-0.01097020042943277
-0.00548662180974478,-0.0117930393732952
-0.00548628180974478,-0.01106894110269494
-0.005485941809744779,-0.01126642244922312
-0.00548560180974478,-0.01172721225778608
-0.00548526180974478,-0.01350454437653217
-0.005484921809744779,-0.01597306120811048
-0.00548458180974478,-0.008567510713348603
-0.00548424180974478,-0.007711758211730118
-0.005483901809744779,-0.01261587831716158
-0.00548356180974478,-0.01396533418509597
-0.00548322180974478,-0.01001570725454911
-0.005482881809744779,-0.009620744561496884
-0.00548254180974478,-0.01097020042943127
-0.00548220180974478,-0.0111018546604495
-0.005481861809744779,-0.01139807668023944
-0.00548152180974478,-0.01080563264065849
-0.00548118180974478,-0.01222091562410444
-0.005480841809744779,-0.01050941062086478
-0.00548050180974478,-0.009028300521912402
-0.00548016180974478,-0.006921832825620747
-0.005479821809744779,-0.009456176772722064
-0.005479481809744779,-0.009686571677003543
-0.00547914180974478,-0.009818225908021772
-0.00547880180974478,-0.009357436099458811
-0.005478461809744779,-0.008732078502121389
-0.00547812180974478,-0.01077271908290393
-0.00547778180974478,-0.008863732733143089
-0.005477441809744779,-0.008797905617630502
-0.00547710180974478,-0.009028300521912402
-0.00547676180974478,-0.008929559848648912
-0.005476421809744779,-0.008764992059875945
-0.00547608180974478,-0.008732078502121389
-0.00547574180974478,-0.00988405302352879
-0.005475401809744779,-0.008764992059875945
-0.00547506180974478,-0.01057523773637659
-0.00547472180974478,-0.01080563264065807
-0.005474381809744779,-0.01106894110269494
-0.00547404180974478,-0.005210327822383777
-0.00547370180974478,-0.005144500706874782
-0.005473361809744779,-0.009818225908021772
-0.00547302180974478,-0.006362302343793276
-0.00547268180974478,-0.003926699069960481
-0.005472341809744779,-0.00494701936034732
-0.00547200180974478,-0.008337115809066702
-0.00547166180974478,-0.009884053023528072
-0.005471321809744779,-0.008205461578048474
-0.00547098180974478,-0.009192868310685188
-0.00547064180974478,-0.0113980766802365
-0.005470301809744779,-0.01027901571658557
-0.00546996180974478,-0.007349709076429989
-0.00546962180974478,-0.008007980231521132
-0.005469281809744779,-0.007382622634184546
-0.00546894180974478,-0.007448449749693661
-0.00546860180974478,-0.005605290515438462
-0.005468261809744779,-0.003827958396692379
-0.00546792180974478,-0.003498822819146808
-0.00546758180974478,-0.00494701936034732
-0.005467241809744779,-0.005012846475856435
-0.00546690180974478,-0.003992526185465165
-0.00546656180974478,-0.004683710898310864
-0.005466221809744779,-0.005506549842176228
-0.00546588180974478,-0.006296475228284162
-0.00546554180974478,-0.006559783690320619
-0.005465201809744779,-0.007744671769489524
-0.00546486180974478,-0.0104106699476038
-0.00546452180974478,-0.01310958168347748
-0.005464181809744779,-0.00405835330097841
-0.00546384180974478,-0.006329388786038719
-0.00546350180974478,-0.005374895611156563
-0.005463161809744779,-0.00465079734056834
-0.00546282180974478,-0.01126642244922228
-0.00546248180974478,-0.01093728687167671
-0.005462141809744779,-0.01050941062086747
-0.00546180180974478,-0.01050941062086747
-0.00546146180974478,-0.01195760716206798
-0.005461121809744779,-0.009653658119241623
-0.00546078180974478,-0.005605290515438462
-0.00546044180974478,-0.003729217723428708
-0.005460101809744779,-0.002774724548544635
-0.00545976180974478,-0.001721490700400724
-0.00545942180974478,0.0007799396889456162
-0.005459081809744779,-0.0005366026212382247
-0.00545874180974478,-0.001392355122855153
-0.00545840180974478,-0.002544329644264652
-0.005458061809744779,-0.004091266858730094
-0.005457721809744779,-0.004782451571574535
-0.00545738180974478,-0.00517741426462922
-0.00545704180974478,-0.005934426092982656
-0.005456701809744779,-0.007086400614393532
-0.00545636180974478,-0.004584970225047193
-0.00545602180974478,-0.005572376957682109
-0.005455681809744779,-0.006329388786038719
-0.00545534180974478,-0.005473636284420234
-0.00545500180974478,-0.005736944746456212
-0.005454661809744779,-0.005144500706874663
-0.00545432180974478,-0.00711931417214809
-0.00545398180974478,-0.01136516312247823
-0.005453641809744779,-0.004190007531992507
-0.00545330180974478,-0.003860871954446936
-0.00545296180974478,-0.009192868310675489
-0.005452621809744779,-0.0104106699476038
-0.00545228180974478,-0.008764992059875945
-0.00545194180974478,-0.006230648112779657
-0.005451601809744779,-0.007613017538466446
-0.00545126180974478,-0.006362302343793276
-0.00545092180974478,-0.004420402436277939
-0.005450581809744779,-0.004288748205256179
-0.00545024180974478,-0.004091266858728836
-0.00544990180974478,-0.002939292337321433
-0.005449561809744779,-0.004782451571574535
-0.00544922180974478,-0.005144500706874663
-0.00544888180974478,-0.003959612627712762
-0.005448541809744779,-0.004354575320765292
-0.00544820180974478,-0.005078673591365549
-0.00544786180974478,-0.004848278687083649
-0.005447521809744779,-0.004420402436274407
-0.00544718180974478,-0.005704031188702134
-0.00544684180974478,-0.00517741426462922
-0.005446501809744779,-0.006098993881756819
-0.00544616180974478,-0.007020573498884419
-0.00544582180974478,-0.006362302343793276
-0.005445481809744779,-0.007020573498884478
-0.00544514180974478,-0.007053487056638975
-0.00544480180974478,-0.005440722726665677
-0.005444461809744779,-0.005407809168913335
-0.00544412180974478,-0.006625610805829733
-0.00544378180974478,-0.006066080324002262
-0.005443441809744779,-0.008370029366815992
-0.00544310180974478,-0.005473636284420234
-0.00544276180974478,-0.006000253208493148
-0.005442421809744779,-0.003169687241600518
-0.00544208180974478,-0.002774724548546551
-0.00544174180974478,-0.006987659941129861
-0.005441401809744779,-0.006691437921334776
-0.00544106180974478,-0.004453315994028964
-0.00544072180974478,-0.005341982053402005
-0.005440381809744779,-0.007185141287654988
-0.00544004180974478,-0.005967339650738591
-0.00543970180974478,-0.006625610805829733
-0.005439361809744779,-0.006625610805825901
-0.00543902180974478,-0.004519143109538078
-0.00543868180974478,-0.006856005710111633
-0.005438341809744779,-0.005243241380143064
-0.00543800180974478,-0.007843412442748346
-0.00543766180974478,-0.008238375135803031
-0.005437321809744779,-0.007645931096211304
-0.005436981809744779,-0.002313934739982752
-0.00543664180974478,-0.009028300521912402
-0.00543630180974478,-0.008106720904786478
-0.005435961809744779,-0.006823092152357076
-0.00543562180974478,-0.006954746383375304
-0.00543528180974478,-0.005473636284422928
-0.005434941809744779,-0.005802771861965805
-0.00543460180974478,-0.00586859897747492
-0.00543426180974478,-0.005835685419720422
-0.005433921809744779,-0.00540780916891112
-0.00543358180974478,-0.00790923955825746
-0.00543324180974478,-0.008600424271101902
-0.005432901809744779,-0.01060815129413114
-0.00543256180974478,-0.003202600799355794
-0.00543222180974478,-0.002906378779565319
-0.005431881809744779,-0.003334255030374022
-0.00543154180974478,0.001668605748318658
-0.00543120180974478,-0.00228102118222101
-0.005430861809744779,-0.00688891926786619
-0.00543052180974478,-0.006000253208493148
-0.00543018180974478,-0.006823092152355579
-0.005429841809744779,-0.006757265036847961
-0.00542950180974478,-0.006263561670529605
-0.00542916180974478,-0.007810498884990975
-0.005428821809744779,-0.008238375135803031
-0.00542848180974478,-0.00665852436358429
-0.00542814180974478,-0.00606608032400334
-0.005427801809744779,-0.005539463399929348
-0.00542746180974478,-0.007086400614393532
-0.00542712180974478,-0.007547190422957332
-0.005426781809744779,-0.00711931417214809
-0.00542644180974478,-0.005901512535229476
-0.00542610180974478,-0.008238375135803031
-0.005425761809744779,-0.008337115809066702
-0.00542542180974478,-0.006592697248075176
-0.00542508180974478,-0.006329388786038719
-0.005424741809744779,-0.005835685419720362
-0.00542440180974478,-0.006724351479093405
-0.00542406180974478,-0.007415536191939104
-0.005423721809744779,-0.005769858304207117
-0.00542338180974478,-0.003498822819146808
-0.00542304180974478,-0.00438748887851985
-0.005422701809744779,-0.007580103980713805
-0.00542236180974478,-0.008633337828857716
-0.00542202180974478,-0.0009315653142913533
-0.005421681809744779,-0.004914105802594141
-0.00542134180974478,-0.005671117630947577
-0.00542100180974478,-0.0008986517565367963
-0.005420661809744779,-0.006559783690325109
-0.00542032180974478,-0.009028300521912402
-0.00541998180974478,-0.006921832825620747
-0.005419641809744779,-0.007843412442750022
-0.00541930180974478,-0.008764992059875945
-0.00541896180974478,-0.006987659941129861
-0.005418621809744779,-0.007020573498884598
-0.00541828180974478,-0.00711931417214809
-0.00541794180974478,-0.005309068495647449
-0.005417601809744779,-0.004354575320764514
-0.00541726180974478,-0.00392669906995605
-0.00541692180974478,-0.004321661763010735
-0.005416581809744779,-0.003531736376898311
-0.005416241809744779,-0.001853144931418952
-0.00541590180974478,-0.0004378619479729968
-0.005415561809744779,-0.002478502528756974
-0.005415221809744779,-0.003268427914864908
