Analysis/files/cmb03_wrd01/d2s07_ch06.csv

#Digilent WaveForms Oscilloscope Acquisition
#Device Name: ADP3450
#Serial Number: SN:210018B9D9B0
#Date Time: 2024-08-13 16:15:47.978.701.180
#Sample rate: 2.94118e+06Hz
#Samples: 32768
#Trigger: Source: Channel 3 Type: Edge Condition: Rising Level: 60 mV Hyst.: Auto HoldOff: 0 s
#Channel 3: Range: 200 mV/div Offset: 0 V Attenuation: 1 X Coupling: DC Bandwidth: 0 Hz Sample Mode: Average

Time (s),Channel 3 (V)
-0.00557030392652124,0.003413024309310185
-0.00556996392652124,0.003775073444609954
-0.00556962392652124,0.00357759209808297
-0.00556928392652124,0.001174902382000301
-0.00556894392652124,-0.0003391212747075294
-0.00556860392652124,0.0006482854579273878
-0.00556826392652124,0.0001874956493635883
-0.00556792392652124,-0.001688577142646227
-0.00556758392652124,-0.001721490700400724
-0.00556724392652124,-0.002083539835700852
-0.00556690392652124,-0.001589836469387405
-0.00556656392652124,-0.004288748205256179
-0.00556622392652124,-0.001787317815909838
-0.00556588392652124,0.001076161708740701
-0.00556554392652124,0.003314283636046514
-0.00556520392652124,0.004071295464401327
-0.00556486392652124,-0.001556922911630872
-0.00556452392652124,-0.003169687241601236
-0.00556418392652124,-0.0005695161789912252
-0.00556384392652124,-0.0009644788720474671
-0.00556350392652124,-0.001820231373664395
-0.00556316392652124,-0.002643070317528323
-0.005562823926521241,-0.00553946339992408
-0.00556248392652124,-0.002544329644264652
-0.00556214392652124,-0.0001087263704274257
-0.005561803926521241,-0.002215194066715249
-0.00556146392652124,-0.003235514357110351
-0.00556112392652124,-0.002774724548546551
-0.005560783926521241,-0.003465909261390994
-0.00556044392652124,-0.00540780916891112
-0.00556010392652124,-0.005506549842174791
-0.00555976392652124,-0.00695474638337267
-0.00555942392652124,-0.004222921089747064
-0.00555908392652124,-0.003465909261392251
-0.00555874392652124,-0.004881192244835632
-0.00555840392652124,-0.005671117630947577
-0.00555806392652124,-0.00438748887851985
-0.00555772392652124,-0.004124180416483872
-0.00555738392652124,-0.005210327822383777
-0.00555704392652124,-0.004979932918101878
-0.00555670392652124,-0.005539463399928331
-0.00555636392652124,-0.008139634462539359
-0.00555602392652124,-0.01027901571658557
-0.00555568392652124,-0.004881192244848025
-0.00555534392652124,-0.006954746383375304
-0.00555500392652124,-0.005934426092984033
-0.00555466392652124,-0.007580103980708896
-0.00555432392652124,-0.01330706303000483
-0.00555398392652124,-0.01189178004655887
-0.00555364392652124,-0.009587831003739873
-0.00555330392652124,-0.0120234342775771
-0.00555296392652124,-0.008995386964157845
-0.00555262392652124,-0.008830819175385059
-0.00555228392652124,-0.009061214079666959
-0.00555194392652124,-0.007415536191939104
-0.00555160392652124,-0.006724351479093405
-0.00555126392652124,-0.008468770040088404
-0.00555092392652124,-0.01037775638984924
-0.00555058392652124,-0.008106720904784802
-0.00555024392652124,-0.007580103980713506
-0.00554990392652124,-0.008468770040084931
-0.00554956392652124,-0.007086400614393532
-0.00554922392652124,-0.007942153116013932
-0.00554888392652124,-0.008995386964157845
-0.00554854392652124,-0.008896646290894173
-0.00554820392652124,-0.01018027504332495
-0.00554786392652124,-0.01185886648880431
-0.00554752392652124,-0.0115626444690133
-0.00554718392652124,-0.01031192927434252
-0.00554684392652124,-0.01162847158452241
-0.00554650392652124,-0.009982793696794558
-0.00554616392652124,-0.009851139465781358
-0.00554582392652124,-0.01261587831715913
-0.00554548392652124,-0.01166138514227697
-0.00554514392652124,-0.005868598977477015
-0.00554480392652124,-0.007020573498884419
-0.00554446392652124,-0.004782451571574535
-0.00554412392652124,-0.006625610805834942
-0.00554378392652124,-0.009489090330476201
-0.00554344392652124,-0.007942153116012016
-0.00554310392652124,-0.005967339650744398
-0.00554276392652124,-0.009159954752930631
-0.00554242392652124,-0.009489090330476201
-0.005542083926521241,-0.01037775638984763
-0.00554174392652124,-0.01205634783533165
-0.00554140392652124,-0.01353745793428673
-0.005541063926521241,-0.01189178004656186
-0.00554072392652124,-0.01314249524123204
-0.00554038392652124,-0.01419572908937787
-0.005540043926521241,-0.01297792745246147
-0.00553970392652124,-0.01199052071982254
-0.00553936392652124,-0.01228674273961356
-0.00553902392652124,-0.01185886648880509
-0.00553868392652124,-0.01097020042943127
-0.00553834392652124,-0.01143099023799507
-0.00553800392652124,-0.01064106485188714
-0.00553766392652124,-0.01050941062086747
-0.00553732392652124,-0.0143273833203961
-0.00553698392652124,-0.01018027504332944
-0.00553664392652124,-0.01004862081230367
-0.00553630392652124,-0.00962074456149443
-0.00553596392652124,-0.008764992059877501
-0.00553562392652124,-0.008534597155594046
-0.00553528392652124,-0.01241839697063178
-0.00553494392652124,-0.007152227729912226
-0.00553460392652124,-0.00494701936034732
-0.00553426392652124,-0.004190007531992507
-0.00553392392652124,0.0008457668044455705
-0.00553358392652124,-0.006164820997265934
-0.00553324392652124,-0.008666251386612273
-0.00553290392652124,-0.008304202251312145
-0.00553256392652124,-0.007942153116012016
-0.00553222392652124,-0.01195760716206798
-0.00553188392652124,-0.01324123591449571
-0.00553154392652124,-0.01083854619841304
-0.00553120392652124,-0.0113322495647314
-0.00553086392652124,-0.01241839697063178
-0.00553052392652124,-0.0117930393732952
-0.00553018392652124,-0.0117930393732952
-0.00552984392652124,-0.01291210033695014
-0.00552950392652124,-0.01166138514227595
-0.00552916392652124,-0.0111018546604495
-0.00552882392652124,-0.01235256985512267
-0.00552848392652124,-0.01146390379574801
-0.00552814392652124,-0.01057523773637659
-0.00552780392652124,-0.01139807668024051
-0.00552746392652124,-0.01268170543266657
-0.00552712392652124,-0.01176012581554064
-0.00552678392652124,-0.01343871726102305
-0.00552644392652124,-0.01100311398718176
-0.00552610392652124,-0.008764992059875945
-0.00552576392652124,-0.01097020042943127
-0.00552542392652124,-0.01370202572306161
-0.00552508392652124,-0.01485400024446901
-0.00552474392652124,-0.01626928322791496
-0.00552440392652124,-0.009094127637421874
-0.00552406392652124,-0.009291608983948858
-0.00552372392652124,-0.01139807668024051
-0.00552338392652124,-0.01643385101670715
-0.00552304392652124,-0.02709784372916425
-0.00552270392652124,-0.04339005481767002
-0.00552236392652124,-0.06494843514695403
-0.00552202392652124,-0.09193755250564176
-0.00552168392652124,-0.1204736070788428
-0.00552134392652124,-0.1522351903120442
-0.00552100392652124,-0.1818573922910918
-0.00552066392652124,-0.2093072994583924
-0.005520323926521241,-0.2311619018073786
-0.00551998392652124,-0.245676780777178
-0.00551964392652124,-0.2563078599319
-0.005519303926521241,-0.2628905714827994
-0.00551896392652124,-0.2626272630207749
-0.00551862392652124,-0.2574598344533094
-0.005518283926521241,-0.2534443804072608
-0.00551794392652124,-0.2478490755889788
-0.00551760392652124,-0.2404435250942034
-0.00551726392652124,-0.2324126170021061
-0.00551692392652124,-0.2262248681442348
-0.00551658392652124,-0.2179306515900864
-0.00551624392652124,-0.2135531484087382
-0.00551590392652124,-0.2054893267588638
-0.00551556392652124,-0.1968659746271698
-0.00551522392652124,-0.1913694104821688
-0.00551488392652124,-0.1852804022975657
-0.00551454392652124,-0.1812649482515097
-0.00551420392652124,-0.1752746807401913
-0.00551386392652124,-0.1643144660079128
-0.00551352392652124,-0.1584887662853562
-0.00551318392652124,-0.1534200783911636
-0.00551284392652124,-0.1512148700215991
-0.00551250392652124,-0.1480551684771616
-0.00551216392652124,-0.1420319874080777
-0.00551182392652124,-0.1371936944181578
-0.00551148392652124,-0.1339681657582112
-0.00551114392652124,-0.1288665643062548
-0.00551080392652124,-0.1250156780489717
-0.00551046392652124,-0.1198153359237516
-0.00551012392652124,-0.1147466480295498
-0.00550978392652124,-0.1108299346567575
-0.00550944392652124,-0.1059916416668376
-0.00550910392652124,-0.1013179164656905
-0.00550876392652124,-0.09812530136349309
-0.00550842392652124,-0.09516308116558836
-0.00550808392652124,-0.09032478817566847
-0.00550774392652124,-0.08726382730449296
-0.00550740392652124,-0.08634224768736704
-0.00550706392652124,-0.0821622258525383
-0.00550672392652124,-0.08045072084929701
-0.00550638392652124,-0.07808094469097321
-0.00550604392652124,-0.07353887372084433
-0.00550570392652124,-0.0711690975625134
-0.00550536392652124,-0.06962216034805205
-0.00550502392652124,-0.06738403842074214
-0.00550468392652124,-0.06629789101484104
-0.00550434392652124,-0.0659029283217871
-0.00550400392652124,-0.06952341967478837
-0.00550366392652124,-0.06231535052653767
-0.00550332392652124,-0.06083424042758529
-0.00550298392652124,-0.05853029138476629
-0.00550264392652124,-0.05616051522644339
-0.00550230392652124,-0.05902399475108465
-0.00550196392652124,-0.05708209484356578
-0.00550162392652124,-0.05247419675792479
-0.00550128392652124,-0.05082851887019993
-0.00550094392652124,-0.04951197656001764
-0.00550060392652124,-0.04605605299578837
-0.00550026392652124,-0.0456281767449799
-0.00549992392652124,-0.04483825135887053
-0.005499583926521241,-0.04092153798608537
-0.00549924392652124,-0.03996704481119608
-0.00549890392652124,-0.04036200750425076
-0.005498563926521241,-0.03888089740529839
-0.00549822392652124,-0.03855176182775013
-0.00549788392652124,-0.03802514490367721
-0.005497543926521241,-0.0357870229763714
-0.00549720392652124,-0.03558954162983999
-0.00549686392652124,-0.03552371451433087
-0.00549652392652124,-0.03318685191376157
-0.00549618392652124,-0.03114621133297478
-0.00549584392652124,-0.03137660623725668
-0.00549550392652124,-0.03071833508216673
-0.00549516392652124,-0.02989549613830161
-0.00549482392652124,-0.03075124863992009
-0.00549448392652124,-0.03150826046827353
-0.00549414392652124,-0.03101455710195655
-0.00549380392652124,-0.03252858075866617
-0.00549346392652124,-0.03496418403249897
-0.00549312392652124,-0.02693327594039147
-0.00549278392652124,-0.02357609304942664
-0.00549244392652124,-0.02831564536607424
-0.00549210392652124,-0.02653831324733678
-0.00549176392652124,-0.0243001913200269
-0.00549142392652124,-0.02482680824409885
-0.00549108392652124,-0.02334569814514474
-0.00549074392652124,-0.02242411852801714
-0.00549040392652124,-0.02413562353125412
-0.00549006392652124,-0.02170002025741689
-0.00548972392652124,-0.0210746626600803
-0.00548938392652124,-0.0201530830429527
-0.00548904392652124,-0.01775039332687003
-0.00548870392652124,-0.01817826957767928
-0.00548836392652124,-0.01850740515522485
-0.00548802392652124,-0.0174541713070795
-0.00548768392652124,-0.01771747976911548
-0.00548734392652124,-0.01877071361726131
-0.00548700392652124,-0.009851139465789081
-0.00548666392652124,-0.01686172726749699
-0.00548632392652124,-0.01814535601992472
-0.00548598392652124,-0.01778330688462399
-0.00548564392652124,-0.01745417130707902
-0.00548530392652124,-0.01824409669318839
-0.00548496392652124,-0.01975812034990311
-0.00548462392652124,-0.02255577275903537
-0.00548428392652124,-0.01801370178890649
-0.00548394392652124,-0.0201530830429463
-0.00548360392652124,-0.01663133236321509
-0.00548326392652124,-0.01449195110916888
-0.00548292392652124,-0.01972520679214184
-0.00548258392652124,-0.01883654073277042
-0.00548224392652124,-0.01613762899689674
-0.00548190392652124,-0.01617054255464878
-0.00548156392652124,-0.01478817312895989
-0.00548122392652124,-0.01383367995407774
-0.00548088392652124,-0.01498565447548646
-0.00548054392652124,-0.014557778224678
-0.00548020392652124,-0.01643385101668775
-0.00547986392652124,-0.01699338149851252
-0.00547952392652124,-0.01551227139956015
-0.00547918392652124,-0.01564392563057838
-0.005478843926521241,-0.01745417130707573
-0.00547850392652124,-0.01778330688462459
-0.00547816392652124,-0.01475525957120534
-0.005477823926521241,-0.01426155620488788
-0.00547748392652124,-0.01297792745245925
-0.00547714392652124,-0.01146390379574963
-0.005476803926521241,-0.01156264446901312
-0.00547646392652124,-0.01044358350535836
-0.00547612392652124,-0.01044358350535836
-0.00547578392652124,-0.01172721225778375
-0.00547544392652124,-0.01544644428405104
-0.00547510392652124,-0.01491982735997812
-0.00547476392652124,-0.01557809851506807
-0.00547442392652124,-0.02058095929376194
-0.00547408392652124,-0.02140379823762588
-0.00547374392652124,-0.01570975274609785
-0.00547340392652124,-0.01491982735997812
-0.00547306392652124,-0.01268170543266824
-0.00547272392652124,-0.01462360534018358
-0.00547238392652124,-0.01959355256112523
-0.00547204392652124,-0.01531479005303281
-0.00547170392652124,-0.01320832235674499
-0.00547136392652124,-0.01544644428405104
-0.00547102392652124,-0.01488691380222357
-0.00547068392652124,-0.01393242062734315
-0.00547034392652124,-0.01301084101021381
-0.00547000392652124,-0.01231965629736811
-0.00546966392652124,-0.01245131052838634
-0.00546932392652124,-0.01429446976264154
-0.00546898392652124,-0.01442612399365977
-0.00546864392652124,-0.01264879187491368
-0.00546830392652124,-0.01301084101021381
-0.00546796392652124,-0.01357037149204128
-0.00546762392652124,-0.0120234342775771
-0.00546728392652124,-0.01129933600697684
-0.00546694392652124,-0.01274753254817735
-0.00546660392652124,-0.01245131052838634
-0.00546626392652124,-0.01468943245569928
-0.00546592392652124,-0.01636802390117864
-0.00546558392652124,-0.0143273833203961
-0.00546524392652124,-0.01465651889794418
-0.00546490392652124,-0.01603888832363307
-0.00546456392652124,-0.01412990197386875
-0.00546422392652124,-0.01320832235674888
-0.00546388392652124,-0.01745417130707902
-0.00546354392652124,-0.01412990197386875
-0.00546320392652124,-0.007777585327238812
-0.00546286392652124,-0.007547190422957332
-0.00546252392652124,-0.005374895611156563
-0.00546218392652124,-0.00876499205988295
-0.00546184392652124,-0.01261587831715913
-0.00546150392652124,-0.009291608983948858
-0.00546116392652124,-0.008468770040088941
-0.00546082392652124,-0.01067397840964026
-0.00546048392652124,-0.01228674273961356
-0.00546014392652124,-0.0108714597561679
-0.00545980392652124,-0.01103602754494038
-0.00545946392652124,-0.01205634783533165
-0.00545912392652124,-0.01090437331392719
-0.00545878392652124,-0.01366911216530495
-0.00545844392652124,-0.0120234342775771
-0.00545810392652124,-0.01166138514227859
-0.00545776392652124,-0.01255005120165001
-0.00545742392652124,-0.01376785283856862
-0.005457083926521241,-0.01366911216530513
-0.00545674392652124,-0.0140969884161142
-0.00545640392652124,-0.0159401476503694
-0.005456063926521241,-0.01314249524123713
-0.00545572392652124,-0.01291210033695014
-0.00545538392652124,-0.0124842240861409
-0.005455043926521241,-0.009785312350272125
-0.00545470392652124,-0.008337115809066702
-0.00545436392652124,-0.008402942924575817
-0.00545402392652124,-0.007909239558258358
-0.00545368392652124,-0.00711931417214809
-0.00545334392652124,-0.01103602754494038
-0.00545300392652124,-0.004091266858741468
-0.00545266392652124,-0.004288748205256179
-0.00545232392652124,-0.005835685419720362
-0.00545198392652124,-0.006526870132564805
-0.00545164392652124,-0.01169429870003153
-0.00545130392652124,-0.01231965629736811
-0.00545096392652124,-0.01077271908290674
-0.00545062392652124,-0.0111018546604495
-0.00545028392652124,-0.0124842240861409
-0.00544994392652124,-0.01337289014551232
-0.00544960392652124,-0.0127146189904228
-0.00544926392652124,-0.01050941062086747
-0.00544892392652124,-0.01024610215883149
-0.00544858392652124,-0.009324522541703417
-0.00544824392652124,-0.01054232417862203
-0.00544790392652124,-0.01123350889146773
-0.00544756392652124,-0.01044358350535836
-0.00544722392652124,-0.01205634783533165
-0.00544688392652124,-0.0143273833203961
-0.00544654392652124,-0.01399824774285052
-0.00544620392652124,-0.01278044610593191
-0.00544586392652124,-0.01445903755141432
-0.00544552392652124,-0.01357037149204116
-0.00544518392652124,-0.01350454437653217
-0.00544484392652124,-0.0143273833203961
-0.00544450392652124,-0.01307666812572131
-0.00544416392652124,-0.01218800206634988
-0.00544382392652124,-0.01436029687815065
-0.00544348392652124,-0.01360328504979734
-0.00544314392652124,-0.01442612399365977
-0.00544280392652124,-0.01600597476587851
-0.00544246392652124,-0.009949880139038265
-0.00544212392652124,-0.008995386964157845
-0.00544178392652124,-0.008830819175385059
-0.00544144392652124,-0.01284627322144366
-0.00544110392652124,-0.01429446976264154
-0.00544076392652124,-0.01320832235674115
-0.00544042392652124,-0.005440722726674657
-0.00544008392652124,-0.01037775638984924
-0.00543974392652124,-0.009159954752930631
-0.00543940392652124,-0.00850168359783865
-0.00543906392652124,-0.008040893789275689
-0.00543872392652124,-0.009159954752930631
-0.00543838392652124,-0.01126642244922264
-0.00543804392652124,-0.01146390379574963
-0.00543770392652124,-0.01422864264713243
-0.00543736392652124,-0.01663133236321318
-0.00543702392652124,-0.01557809851506927
-0.00543668392652124,-0.01488691380222357
-0.005436343926521241,-0.01360328504979817
-0.00543600392652124,-0.01264879187491368
-0.00543566392652124,-0.0101802750433219
-0.005435323926521241,-0.01031192927433989
-0.00543498392652124,-0.01047649706311291
-0.00543464392652124,-0.01001570725454911
-0.005434303926521241,-0.009061214079668695
-0.00543396392652124,-0.009159954752930631
-0.00543362392652124,-0.00939034965721253
-0.00543328392652124,-0.009982793696793481
-0.00543294392652124,-0.008732078502121389
-0.00543260392652124,-0.009719485234758102
-0.00543226392652124,-0.009423263214967626
-0.00543192392652124,-0.006263561670529605
-0.00543158392652124,-0.004979932918101878
-0.00543124392652124,-0.001392355122861678
-0.00543090392652124,-0.006066080324002262
-0.00543056392652124,-0.009653658119248986
-0.00543022392652124,-0.007678844653979153
-0.00542988392652124,-0.008073807347030245
-0.00542954392652124,-0.00837002936682126
-0.00542920392652124,-0.0103119292743366
-0.00542886392652124,-0.01261587831715913
-0.00542852392652124,-0.0129450138947047
-0.00542818392652124,-0.01301084101021369
-0.00542784392652124,-0.01436029687815065
-0.00542750392652124,-0.01505148159099635
-0.00542716392652124,-0.01521604937976914
-0.00542682392652124,-0.01505148159099635
-0.00542648392652124,-0.0140969884161142
-0.00542614392652124,-0.01287918677919558
-0.00542580392652124,-0.01449195110916888
-0.00542546392652124,-0.01426155620488698
-0.00542512392652124,-0.01129933600697684
-0.00542478392652124,-0.01218800206634988
-0.00542444392652124,-0.01373493928081407
-0.00542410392652124,-0.01304375456796837
-0.00542376392652124,-0.01195760716206655
-0.00542342392652124,-0.01116768177595861
-0.00542308392652124,-0.01205634783533165
-0.00542274392652124,-0.01317540879898851
-0.00542240392652124,-0.01422864264713243
-0.00542206392652124,-0.01564392563057838
-0.00542172392652124,-0.007942153116011836
-0.00542138392652124,-0.007843412442748346
-0.00542104392652124,-0.003663390607919593
-0.00542070392652124,-0.002741810990799239
-0.00542036392652124,-0.006724351479093405
-0.00542002392652124,-0.006625610805829733
-0.00541968392652124,-0.005736944746460043
-0.00541934392652124,-0.007580103980711889
-0.00541900392652124,-0.008567510713348603
-0.00541866392652124,-0.01083854619841669
-0.00541832392652124,-0.01284627322144103
-0.00541798392652124,-0.01439321043590521
-0.00541764392652124,-0.01264879187491596
-0.00541730392652124,-0.01389950706958685
-0.00541696392652124,-0.01475525957120534
-0.00541662392652124,-0.01567683918833348
-0.00541628392652124,-0.01597306120812395
-0.00541594392652124,-0.01505148159099635
-0.00541560392652124,-0.0150185680332388
-0.00541526392652124,-0.01337289014551394
-0.00541492392652124,-0.01399824774285052
-0.005414583926521241,-0.01087145975617329
-0.00541424392652124,-0.009949880139040001
-0.00541390392652124,-0.01205634783533165
-0.005413563926521241,-0.01123350889146922
-0.00541322392652124,-0.01008153437005823
-0.00541288392652124,-0.01120059533371317
