Analysis/files/cmb03_wrd01/d2s07_ch44.csv

#Digilent WaveForms Oscilloscope Acquisition
#Device Name: ADP3450
#Serial Number: SN:210018B9D9B0
#Date Time: 2024-08-13 16:38:57.046.189.870
#Sample rate: 2.94118e+06Hz
#Samples: 32768
#Trigger: Source: Channel 3 Type: Edge Condition: Rising Level: 60 mV Hyst.: Auto HoldOff: 0 s
#Channel 3: Range: 200 mV/div Offset: 0 V Attenuation: 1 X Coupling: DC Bandwidth: 0 Hz Sample Mode: Average

Time (s),Channel 3 (V)
-0.005570382292191436,0.01032487143776718
-0.005570042292191436,0.007625959701893495
-0.005569702292191436,0.007625959701893495
-0.005569362292191436,0.003676332771346642
-0.005569022292191436,0.002129395556883356
-0.005568682292191436,0.002623098923200814
-0.005568342292191436,0.003511764982573856
-0.005568002292191436,0.003840900560118589
-0.005567662292191436,0.003380110751555628
-0.005567322292191436,0.003116802289519171
-0.005566982292191436,0.004005468348894009
-0.005566642292191436,0.004992875081528926
-0.005566302292191436,0.006473985180483996
-0.005565962292191436,0.003643419213589091
-0.005565622292191436,0.001997741325864229
-0.005565282292191436,0.002590185365446257
-0.005564942292191436,0.003478851424813671
-0.005564602292191436,0.0003849769958909309
-0.005564262292191436,-0.001326528007346039
-0.005563922292191436,-0.0006682568522566328
-0.005563582292191436,-0.001622750027137053
-0.005563242292191436,-0.0005695161789912252
-0.005562902292191437,-0.0002074670436917555
-0.005562562292191436,-0.0006353432945003394
-0.005562222292191436,0.001405297286282201
-0.005561882292191437,0.002359790461162621
-0.005561542292191436,0.0007470261311910591
-0.005561202292191436,0.001109075266491187
-0.005560862292191437,-0.003202600799347951
-0.005560522292191436,-0.002873465221810222
-0.005560182292191436,0.001833173537091444
-0.005559842292191437,0.00259018536544488
-0.005559502292191436,0.0003191498803818167
-0.005559162292191436,-0.002708897433037437
-0.005558822292191437,-0.003202600799354896
-0.005558482292191436,-0.001754404258155281
-0.005558142292191436,-0.001030305987555025
-0.005557802292191437,0.0001216685338523787
-0.005557462292191436,-0.0001745534859365399
-0.005557122292191436,-0.0003720348324638825
-0.005556782292191437,-0.0009644788720448328
-0.005556442292191436,-0.0006682568522548965
-0.005556102292191436,-0.001984799162437181
-0.005555762292191437,-0.001589836469383214
-0.005555422292191436,-0.002741810990791994
-0.005555082292191436,-0.003795044838937822
-0.005554742292191437,-0.002643070317530419
-0.005554402292191436,-0.003005119452828451
-0.005554062292191436,-0.004255834647501621
-0.005553722292191436,-0.005045760033610991
-0.005553382292191436,-0.002774724548546551
-0.005553042292191436,-0.004255834647501621
-0.005552702292191436,-0.005144500706874663
-0.005552362292191436,-0.006131907439511376
-0.005552022292191436,-0.007942153116012016
-0.005551682292191436,-0.007843412442748346
-0.005551342292191436,-0.008732078502121867
-0.005551002292191436,-0.008995386964157845
-0.005550662292191436,-0.008764992059875945
-0.005550322292191436,-0.01060815129411785
-0.005549982292191436,-0.003301341472619465
-0.005549642292191436,-0.001063219545309582
-0.005549302292191436,0.0001216685338541149
-0.005548962292191436,-7.581281267286857e-05
-0.005548622292191436,-0.005341982053402005
-0.005548282292191436,-0.005769858304210171
-0.005547942292191436,-0.00517741426462922
-0.005547602292191436,-0.00688891926786619
-0.005547262292191436,-0.007678844653972387
-0.005546922292191436,-0.005934426092984033
-0.005546582292191436,-0.007415536191939104
-0.005546242292191436,-0.007448449749691266
-0.005545902292191436,-0.006131907439511376
-0.005545562292191436,-0.006757265036847961
-0.005545222292191436,-0.007448449749692883
-0.005544882292191436,-0.007020573498884419
-0.005544542292191436,-0.008073807347030245
-0.005544202292191436,-0.007283881960916325
-0.005543862292191436,-0.004782451571574535
-0.005543522292191436,-0.004453315994028964
-0.005543182292191436,-0.004749538013816446
-0.005542842292191436,-0.002807638106301108
-0.005542502292191436,-0.003795044838937822
-0.005542162292191437,-0.003992526185464806
-0.005541822292191436,-0.004749538013819977
-0.005541482292191436,-0.004617883782801749
-0.005541142292191437,-0.004552056667292755
-0.005540802292191436,-0.002939292337319337
-0.005540462292191436,-0.003729217723428708
-0.005540122292191437,-0.00988405302351969
-0.005539782292191436,-0.007876326000502903
-0.005539442292191436,-0.004058353300974278
-0.005539102292191437,-0.004091266858728776
-0.005538762292191436,-0.00336716858812858
-0.005538422292191436,-0.004749538013819977
-0.005538082292191437,-0.01027901571657551
-0.005537742292191436,-0.008172548020293918
-0.005537402292191436,-0.005111587149120106
-0.005537062292191437,-0.007613017538461896
-0.005536722292191436,0.0001216685338544741
-0.005536382292191436,-0.005901512535229476
-0.005536042292191437,-0.006592697248073919
-0.005535702292191436,-0.007349709076429989
-0.005535362292191436,-0.006230648112775047
-0.005535022292191437,-0.006888919267864993
-0.005534682292191436,-0.008106720904784802
-0.005534342292191436,-0.005243241380138334
-0.005534002292191437,-0.006362302343791241
-0.005533662292191436,-0.007218054845411761
-0.005533322292191436,-0.007942153116012016
-0.005532982292191437,-0.007415536191939104
-0.005532642292191436,-0.008435856482330374
-0.005532302292191436,-0.008732078502121389
-0.005531962292191436,-0.007843412442748346
-0.005531622292191436,-0.009818225908021772
-0.005531282292191436,-0.007185141287657204
-0.005530942292191436,-0.006954746383375304
-0.005530602292191436,-0.006921832825620747
-0.005530262292191436,-0.007250968403166318
-0.005529922292191436,-0.008304202251312145
-0.005529582292191436,-0.01169429870002033
-0.005529242292191436,-0.005539463399929348
-0.005528902292191436,-0.002116453393455409
-0.005528562292191436,-0.003926699069954733
-0.005528222292191436,-0.003202600799355794
-0.005527882292191436,-0.004091266858728836
-0.005527542292191436,-0.00438748887851967
-0.005527202292191436,-0.004288748205256179
-0.005526862292191436,-0.004617883782801749
-0.005526522292191436,-0.004947019360346602
-0.005526182292191436,-0.004552056667292635
-0.005525842292191436,-0.005341982053402005
-0.005525502292191436,-0.00761301753846932
-0.005525162292191436,-0.009192868310685188
-0.005524822292191436,-0.00438748887851985
-0.005524482292191436,-0.006395215901555257
-0.005524142292191436,-0.01047649706311291
-0.005523802292191436,-0.0111018546604495
-0.005523462292191436,-0.01317540879900031
-0.005523122292191436,-0.02071261352478018
-0.005522782292191436,-0.03443756710843049
-0.005522442292191436,-0.05300081368204512
-0.005522102292191436,-0.07742267353588206
-0.005521762292191436,-0.1041484824325824
-0.005521422292191436,-0.1348239182598902
-0.005521082292191436,-0.1680995251496869
-0.005520742292191436,-0.196701406838397
-0.005520402292191437,-0.2202016870751081
-0.005520062292191436,-0.2400485624011487
-0.005519722292191436,-0.2554191938725269
-0.005519382292191437,-0.2647666442748041
-0.005519042292191436,-0.2718430591920509
-0.005518702292191436,-0.2687820983208771
-0.005518362292191437,-0.2622323003277321
-0.005518022292191436,-0.2594346479185829
-0.005517682292191436,-0.2530823312719533
-0.005517342292191437,-0.2501530246318031
-0.005517002292191436,-0.2445577198135231
-0.005516662292191436,-0.2360989354706019
-0.005516322292191437,-0.2266198308373067
-0.005515982292191436,-0.2191813667847596
-0.005515642292191436,-0.2108871502306111
-0.005515302292191437,-0.200223157518154
-0.005514962292191436,-0.1918960274062317
-0.005514622292191436,-0.1863336361457116
-0.005514282292191437,-0.1776773704562788
-0.005513942292191436,-0.1722137198690065
-0.005513602292191436,-0.1699426843839421
-0.005513262292191437,-0.164972737163013
-0.005512922292191436,-0.1596736543645203
-0.005512582292191436,-0.1552632376254096
-0.005512242292191437,-0.1518731411766903
-0.005511902292191436,-0.1461132685696428
-0.005511562292191436,-0.1408800128866682
-0.005511222292191436,-0.1347580911443206
-0.005510882292191436,-0.1289982185372731
-0.005510542292191436,-0.1250156780489717
-0.005510202292191436,-0.1197824223659971
-0.005509862292191436,-0.1131338836995765
-0.005509522292191436,-0.1095792194620844
-0.005509182292191436,-0.1074398382080382
-0.005508842292191436,-0.1061232958978516
-0.005508502292191436,-0.1037535197395278
-0.005508162292191436,-0.0947352049147791
-0.005507822292191436,-0.09157550337033696
-0.005507482292191436,-0.08900824586548617
-0.005507142292191436,-0.08894241874997705
-0.005506802292191436,-0.08779044422855922
-0.005506462292191436,-0.08321545970068411
-0.005506122292191436,-0.07939748700115551
-0.005505782292191436,-0.07778472267117531
-0.005505442292191436,-0.07399966352940812
-0.005505102292191436,-0.07093870265823432
-0.005504762292191436,-0.06817396380684543
-0.005504422292191436,-0.06481678091588669
-0.005504082292191436,-0.06471804024262304
-0.005503742292191436,-0.06152542514042775
-0.005503402292191436,-0.05974809302168491
-0.005503062292191436,-0.05932021677087566
-0.005502722292191436,-0.05721374907458137
-0.005502382292191436,-0.05576555253338349
-0.005502042292191436,-0.05461357801197399
-0.005501702292191436,-0.05411987464565073
-0.005501362292191436,-0.05142096290978196
-0.005501022292191436,-0.05076269175469082
-0.005500682292191436,-0.04839291559636168
-0.005500342292191436,-0.04783338511453523
-0.005500002292191436,-0.04543069539845256
-0.005499662292191437,-0.04355462260644622
-0.005499322292191436,-0.04108610577485102
-0.005498982292191436,-0.03914420586733215
-0.005498642292191437,-0.03878215673203268
-0.005498302292191436,-0.0400328719267052
-0.005497962292191436,-0.03881507028978658
-0.005497622292191437,-0.03394386374212099
-0.005497282292191436,-0.03279188922070263
-0.005496942292191436,-0.03140951979501123
-0.005496602292191437,-0.03549080095656889
-0.005496262292191436,-0.03532623316780353
-0.005495922292191436,-0.03177156893031136
-0.005495582292191437,-0.03154117402602988
-0.005495242292191436,-0.02973092834952882
-0.005494902292191436,-0.02841438603934654
-0.005494562292191437,-0.02920431142545447
-0.005494222292191436,-0.02828273180832831
-0.005493882292191436,-0.02551799295694551
-0.005493542292191437,-0.02067969996703442
-0.005493202292191436,-0.02206206939271702
-0.005492862292191436,-0.02410270997349956
-0.005492522292191437,-0.02433310487778104
-0.005492182292191436,-0.02397105574248133
-0.005491842292191436,-0.02275325410556272
-0.005491502292191437,-0.0216671066996643
-0.005491162292191436,-0.02301656256759917
-0.005490822292191436,-0.02031765083172549
-0.005490482292191436,-0.01877071361726131
-0.005490142292191436,-0.01979103390765257
-0.005489802292191436,-0.01784913400013371
-0.005489462292191436,-0.01738834419156991
-0.005489122292191436,-0.01521604937976914
-0.005488782292191436,-0.01531479005303281
-0.005488442292191436,-0.01429446976264154
-0.005488102292191436,-0.01728960351831072
-0.005487762292191436,-0.01975812034989802
-0.005487422292191436,-0.01129933600697684
-0.005487082292191436,-0.01192469360431498
-0.005486742292191436,-0.01278044610593191
-0.005486402292191436,-0.01251713764389546
-0.005486062292191436,-0.0149527409177325
-0.005485722292191436,-0.01485400024446901
-0.005485382292191436,-0.01508439514875091
-0.005485042292191436,-0.01834283736644931
-0.005484702292191436,-0.01682881370974244
-0.005484362292191436,-0.01373493928081407
-0.005484022292191436,-0.01436029687815323
-0.005483682292191436,-0.01577557986159661
-0.005483342292191436,-0.01353745793428673
-0.005483002292191436,-0.01176012581554238
-0.005482662292191436,-0.0127146189904228
-0.005482322292191436,-0.01350454437653217
-0.005481982292191436,-0.01498565447548508
-0.005481642292191436,-0.01380076639632318
-0.005481302292191436,-0.01182595293104976
-0.005480962292191436,-0.01189178004656079
-0.005480622292191436,-0.0129450138947047
-0.005480282292191436,-0.01060815129413114
-0.005479942292191436,-0.008929559848650886
-0.005479602292191436,-0.01011444792781279
-0.005479262292191436,-0.01047649706311291
-0.005478922292191437,-0.01031192927434043
-0.005478582292191436,-0.01106894110269494
-0.005478242292191436,-0.01100311398718583
-0.005477902292191437,-0.01044358350535938
-0.005477562292191436,-0.01478817312895989
-0.005477222292191436,-0.01574266630384205
-0.005476882292191437,-0.005967339650756371
-0.005476542292191436,-0.00939034965721253
-0.005476202292191436,-0.01426155620488698
-0.005475862292191437,-0.01264879187491662
-0.005475522292191436,-0.01060815129413114
-0.005475182292191436,-0.0117930393732952
-0.005474842292191437,-0.01235256985512165
-0.005474502292191436,-0.01034484283209469
-0.005474162292191436,-0.01047649706311291
-0.005473822292191437,-0.00958783100374149
-0.005473482292191436,-0.009291608983948858
-0.005473142292191436,-0.01044358350535836
-0.005472802292191437,-0.009423263214968943
-0.005472462292191436,-0.008830819175385059
-0.005472122292191436,-0.009653658119248986
-0.005471782292191437,-0.009390349657213009
-0.005471442292191436,-0.008633337828857716
-0.005471102292191436,-0.008271288693557588
-0.005470762292191437,-0.007744671769485632
-0.005470422292191436,-0.008040893789275689
-0.005470082292191436,-0.009225781868439744
-0.005469742292191437,-0.008106720904784802
-0.005469402292191436,-0.007415536191939104
-0.005469062292191436,-0.008402942924575817
-0.005468722292191436,-0.008929559848648731
-0.005468382292191436,-0.007481363307448217
-0.005468042292191436,-0.008073807347030245
-0.005467702292191436,-0.008567510713348603
-0.005467362292191436,-0.009522003888230759
-0.005467022292191436,-0.01212217495084077
-0.005466682292191436,-0.01327414947225027
-0.005466342292191436,-0.009949880139043953
-0.005466002292191436,-0.01212217495084077
-0.005465662292191436,-0.01050941062086747
-0.005465322292191436,-0.01156264446901779
-0.005464982292191436,-0.01403116130060508
-0.005464642292191436,-0.01297792745245925
-0.005464302292191436,-0.01018027504332166
-0.005463962292191436,-0.01004862081230367
-0.005463622292191436,-0.01047649706311291
-0.005463282292191436,-0.008468770040082537
-0.005462942292191436,-0.007152227729902647
-0.005462602292191436,-0.009061214079666959
-0.005462262292191436,-0.008797905617629784
-0.005461922292191436,-0.008402942924575817
-0.005461582292191436,-0.01011444792781279
-0.005461242292191436,-0.009851139465773455
-0.005460902292191436,-0.008271288693557588
-0.005460562292191436,-0.008534597155594046
-0.005460222292191436,-0.008007980231517419
-0.005459882292191436,-0.005967339650738591
-0.005459542292191436,-0.005473636284420234
-0.005459202292191436,-0.00567111763094183
-0.005458862292191436,-0.002511416086510094
-0.005458522292191436,-0.004453315994028964
-0.005458182292191436,-0.005572376957682709
-0.005457842292191436,-0.004914105802592763
-0.005457502292191436,-0.005572376957683906
-0.005457162292191437,-0.007613017538462734
-0.005456822292191436,-0.009587831003739873
-0.005456482292191436,-0.01347163081877761
-0.005456142292191437,-0.00873207850213001
-0.005455802292191436,-0.006098993881756819
-0.005455462292191436,-0.006066080324002262
-0.005455122292191437,-0.006625610805828716
-0.005454782292191436,-0.009686571677003543
-0.005454442292191436,-0.009982793696794558
-0.005454102292191437,-0.008896646290896149
-0.005453762292191436,-0.008995386964157845
-0.005453422292191436,-0.0111018546604495
-0.005453082292191437,-0.008106720904790251
-0.005452742292191436,-0.008501683597839487
-0.005452402292191436,-0.006757265036847961
-0.005452062292191437,-0.00761301753846489
-0.005451722292191436,-0.00837002936682126
-0.005451382292191436,-0.007349709076429989
-0.005451042292191437,-0.009818225908017283
-0.005450702292191436,-0.01116768177595861
-0.005450362292191436,-0.01077271908290393
-0.005450022292191437,-0.001688577142662691
-0.005449682292191436,-0.01199052071982254
-0.005449342292191436,-0.008106720904784802
-0.005449002292191437,-0.008370029366820781
-0.005448662292191436,-0.008501683597839487
-0.005448322292191436,-0.007580103980711889
-0.005447982292191436,-0.007415536191939104
-0.005447642292191436,-0.008633337828857716
-0.005447302292191436,-0.0101802750433219
-0.005446962292191436,-0.008468770040084931
-0.005446622292191436,-0.01057523773637659
-0.005446282292191436,-0.01199052071982254
-0.005445942292191436,-0.01274753254817735
-0.005445602292191436,-0.007514276865202117
-0.005445262292191436,-0.007152227729902647
-0.005444922292191436,-0.006131907439511376
-0.005444582292191436,-0.00557237695769115
-0.005444242292191436,-0.009554917445985316
-0.005443902292191436,-0.006428129459302391
-0.005443562292191436,-0.007711758211730297
-0.005443222292191436,-0.007810498884993789
-0.005442882292191436,-0.005045760033610991
-0.005442542292191436,-0.004124180416487464
-0.005442202292191436,-0.006362302343793276
-0.005441862292191436,-0.006790178594602518
-0.005441522292191436,-0.006790178594601381
-0.005441182292191436,-0.006164820997265934
-0.005440842292191436,-0.005243241380138334
-0.005440502292191436,-0.007481363307449414
-0.005440162292191436,-0.008139634462539359
-0.005439822292191436,-0.004716624456065421
-0.005439482292191436,-0.00363047705016791
-0.005439142292191436,-0.005210327822383777
-0.005438802292191436,-0.00619773455502049
-0.005438462292191436,-0.005802771861967961
-0.005438122292191436,-0.006987659941129861
-0.005437782292191436,-0.007744671769484675
-0.005437442292191436,-0.007843412442749543
-0.005437102292191436,-0.008501683597839487
-0.005436762292191436,-0.00790923955825746
-0.005436422292191437,-0.006296475228287095
-0.005436082292191436,-0.007481363307448217
-0.005435742292191436,-0.01050941062086747
-0.005435402292191437,-0.01205634783532884
-0.005435062292191436,-0.005144500706874663
-0.005434722292191436,-0.00688891926786619
-0.005434382292191437,-0.005111587149123339
-0.005434042292191436,-0.006098993881756819
-0.005433702292191436,-0.01001570725454911
-0.005433362292191437,-0.006658524363590396
-0.005433022292191436,-0.004749538013819977
-0.005432682292191436,-0.006724351479093405
-0.005432342292191437,-0.005407809168913515
-0.005432002292191436,-0.004321661763010735
-0.005431662292191436,-0.005671117630947577
-0.005431322292191437,-0.006197734555019533
-0.005430982292191436,-0.00494701936034732
-0.005430642292191436,-0.004617883782801749
-0.005430302292191437,-0.004453315994029263
-0.005429962292191436,-0.005835685419720362
-0.005429622292191436,-0.007547190422957332
-0.005429282292191437,-0.006230648112777442
-0.005428942292191436,-0.00517741426462922
-0.005428602292191436,-0.007975066673766575
-0.005428262292191437,-0.01044358350535387
-0.005427922292191436,-0.007975066673766575
-0.005427582292191436,-0.00869916494436683
-0.005427242292191437,-0.00860042427110316
-0.005426902292191436,-0.008995386964157845
-0.005426562292191436,-0.009258695426194301
-0.005426222292191436,-0.009554917445985316
-0.005425882292191436,-0.007975066673766575
-0.005425542292191436,-0.009949880139040001
-0.005425202292191436,-0.01511730870650547
-0.005424862292191436,-0.009818225908021772
-0.005424522292191436,-0.006033166766247705
-0.005424182292191436,-0.00517741426462922
-0.005423842292191436,-0.005144500706882565
-0.005423502292191436,-0.009489090330476201
-0.005423162292191436,-0.01027901571658557
-0.005422822292191436,-0.007218054845413378
-0.005422482292191436,-0.008106720904784802
-0.005422142292191436,-0.0106410648518857
-0.005421802292191436,-0.009456176772721045
-0.005421462292191436,-0.009127041195176074
-0.005421122292191436,-0.009423263214967087
-0.005420782292191436,-0.007218054845409187
-0.005420442292191436,-0.005802771861965805
-0.005420102292191436,-0.005704031188702134
-0.005419762292191436,-0.005309068495644575
-0.005419422292191436,-0.003729217723428708
-0.005419082292191436,-0.005078673591365549
-0.005418742292191436,-0.004255834647501262
-0.005418402292191436,-0.004058353300974278
-0.005418062292191436,-0.004815365129329092
-0.005417722292191436,-0.006625610805824046
-0.005417382292191436,-0.003498822819146808
