Analysis/files/cmb03_wrd01/d2s06_ch08.csv

#Digilent WaveForms Oscilloscope Acquisition
#Device Name: ADP3450
#Serial Number: SN:210018B9D9B0
#Date Time: 2024-08-13 15:32:02.473.887.140
#Sample rate: 2.94118e+06Hz
#Samples: 32768
#Trigger: Source: Channel 3 Type: Edge Condition: Rising Level: 60 mV Hyst.: Auto HoldOff: 0 s
#Channel 3: Range: 200 mV/div Offset: 0 V Attenuation: 1 X Coupling: DC Bandwidth: 0 Hz Sample Mode: Average

Time (s),Channel 3 (V)
-0.005570354600484262,0.01341874586669555
-0.005570014600484261,0.01065400701531921
-0.005569674600484261,0.01420867125280492
-0.005569334600484262,0.01661136096888758
-0.005568994600484261,0.01628222539134285
-0.005568654600484261,0.01674301519990581
-0.005568314600484262,0.01098314259285832
-0.005567974600484261,0.007593046144141512
-0.005567634600484261,0.009008329127584893
-0.005567294600484262,0.009962822302467049
-0.005566954600484261,0.005749886909885416
-0.005566614600484261,0.006671466527011338
-0.005566274600484262,0.006046108929674754
-0.005565934600484261,0.00551949200560136
-0.005565594600484261,0.005256183543565383
-0.005565254600484262,0.006111936045183867
-0.005564914600484261,0.005387837774582953
-0.005564574600484261,0.005025788639283483
-0.005564234600484262,0.005848627583147411
-0.005563894600484261,0.005289097101321077
-0.005563554600484261,0.005914454698656525
-0.005563214600484262,0.007263910566593366
-0.005562874600484262,0.006210676718449454
-0.005562534600484261,0.007823441048420837
-0.005562194600484262,0.009074156243094007
-0.005561854600484262,0.00867919355004004
-0.005561514600484261,0.00756013258638438
-0.005561174600484262,0.009534946051657807
-0.005560834600484262,0.008119663068214425
-0.005560494600484261,0.006572725853747667
-0.005560154600484262,0.006013195371920196
-0.005559814600484262,0.001273643055272594
-0.005559474600484261,0.001207815939754859
-0.005559134600484262,0.005190356428056269
-0.005558794600484262,0.004564998830720821
-0.005558454600484261,0.005420751332338168
-0.005558114600484262,0.002754753154219042
-0.005557774600484262,0.0002533227648772525
-0.005557434600484261,0.003248456520537399
-0.005557094600484262,0.004564998830719684
-0.005556754600484262,0.003709246329102755
-0.005556414600484261,0.003676332771346642
-0.005556074600484262,0.004597912388474241
-0.005555734600484262,0.004268776810929268
-0.005555394600484261,0.002030654883618786
-0.005555054600484262,0.0006811990156819448
-0.005554714600484262,0.0006482854579274477
-0.005554374600484261,0.004170036137664999
-0.005554034600484262,-0.003729217723428708
-0.005553694600484262,-0.003432995703637694
-0.005553354600484261,-0.00392669906995605
-0.005553014600484261,-0.003202600799355794
-0.005552674600484262,-0.001524009353873381
-0.005552334600484261,-0.0009644788720459105
-0.005551994600484261,-0.0006024297367457822
-0.005551654600484262,0.003445937867064742
-0.005551314600484261,0.002688926038708851
-0.005550974600484261,0.002096481999127901
-0.005550634600484262,0.002359790461164357
-0.005550294600484261,0.0005166312269047889
-0.005549954600484261,-0.00188605848917351
-0.005549614600484262,-0.003663390607919593
-0.005549274600484261,-0.006888919267867687
-0.005548934600484261,-0.007711758211730118
-0.005548594600484262,-0.002741810990791994
-0.005548254600484261,-0.002675983875285035
-0.005547914600484261,-0.003860871954446936
-0.005547574600484262,-0.007152227729902647
-0.005547234600484261,-0.002281021182224902
-0.005546894600484261,-0.0004707755057275538
-0.005546554600484262,-0.000832824641027682
-0.005546214600484261,-0.0008986517565390114
-0.005545874600484261,-0.002116453393455409
-0.005545534600484262,-0.001524009353873381
-0.005545194600484261,0.003314283636033761
-0.005544854600484261,-0.00369630416567415
-0.005544514600484262,-0.006329388786038719
-0.005544174600484261,-0.000931565314293808
-0.005543834600484261,-0.002281021182228195
-0.005543494600484262,-0.004848278687083649
-0.005543154600484261,-0.004157093974239806
-0.005542814600484261,-0.00517741426462922
-0.005542474600484262,0.0004508041114000451
-0.005542134600484262,0.004959961523766167
-0.005541794600484261,-0.001129046660818696
-0.005541454600484262,-0.002149366951209966
-0.005541114600484262,0.003577592098072553
-0.005540774600484261,0.004367517484192341
-0.005540434600484262,0.001800259979336887
-0.005540094600484262,0.0016356921905644
-0.005539754600484261,0.003906727675628541
-0.005539414600484262,0.004301690368683227
-0.005539074600484262,0.00426877681092873
-0.005538734600484261,0.004729566619492469
-0.005538394600484262,0.003050975174010056
-0.005538054600484262,0.002359790461165614
-0.005537714600484261,0.002261049787900686
-0.005537374600484262,-0.0003720348324638825
-0.005537034600484262,-0.002083539835697739
-0.005536694600484261,-0.001918972046928067
-0.005536354600484262,-0.002610156759773766
-0.005536014600484262,-0.003301341472618208
-0.005535674600484261,-0.003498822819146808
-0.005535334600484262,-0.004420402436274407
-0.005534994600484262,-0.003926699069956948
-0.005534654600484261,-0.002610156759773766
-0.005534314600484262,-0.002248107624473638
-0.005533974600484262,-0.002840551664054588
-0.005533634600484261,-0.0006682568522548965
-0.005533294600484262,-0.00540780916891112
-0.005532954600484262,-0.003531736376901365
-0.005532614600484261,0.003083888731764614
-0.005532274600484261,0.004466258157456012
-0.005531934600484262,0.004104209022155884
-0.005531594600484261,0.000417890553645488
-0.005531254600484261,-0.0008657381987822392
-0.005530914600484262,-0.0007669975255185678
-0.005530574600484261,-0.0002732941592002112
-0.005530234600484261,-0.0001087263704274257
-0.005529894600484262,-0.0009644788720459105
-0.005529554600484261,0.0006482854579283457
-0.005529214600484261,0.001174902382000301
-0.005528874600484262,0.001240729497509416
-0.005528534600484261,0.0007141125734367415
-0.005528194600484261,0.0008457668044547304
-0.005527854600484262,-0.0004707755057275538
-0.005527514600484261,-0.001458182238364088
-0.005527174600484261,-0.001359441565100596
-0.005526834600484262,-0.003070946568337565
-0.005526494600484261,-0.003827958396692319
-0.005526154600484261,-0.003795044838937822
-0.005525814600484262,-0.003729217723428708
-0.005525474600484261,-0.004584970225045636
-0.005525134600484261,-0.003729217723428708
-0.005524794600484262,-0.003432995703637694
-0.005524454600484261,-0.004058353300972123
-0.005524114600484261,-0.002873465221810222
-0.005523774600484262,-0.003070946568337565
-0.005523434600484261,-0.006823092152365937
-0.005523094600484261,-0.01169429870003153
-0.005522754600484262,-0.02765737421099173
-0.005522414600484261,-0.04315965991342405
-0.005522074600484261,-0.06290779456612239
-0.005521734600484262,-0.09677584549556165
-0.005521394600484261,-0.1327503641213464
-0.005521054600484261,-0.1623396525426394
-0.005520714600484262,-0.1892629427858671
-0.005520374600484262,-0.2156267025472194
-0.005520034600484261,-0.2342886897941013
-0.005519694600484262,-0.2455451265461598
-0.005519354600484262,-0.2541026515623291
-0.005519014600484261,-0.2564395141629182
-0.005518674600484262,-0.2534443804072535
-0.005518334600484262,-0.2492314450146778
-0.005517994600484261,-0.2443273249092412
-0.005517654600484262,-0.2384028845134209
-0.005517314600484262,-0.2271135342036283
-0.005516974600484261,-0.2193788481312869
-0.005516634600484262,-0.2096693485936925
-0.005516294600484262,-0.2005852066534513
-0.005515954600484261,-0.1982483440528612
-0.005515614600484262,-0.1913694104821588
-0.005515274600484262,-0.1813307753670371
-0.005514934600484261,-0.1759658654530261
-0.005514594600484262,-0.1712263131363698
-0.005514254600484262,-0.1644790337966979
-0.005513914600484261,-0.1590482967671837
-0.005513574600484262,-0.154341658008282
-0.005513234600484262,-0.1478576871306461
-0.005512894600484261,-0.144237195777633
-0.005512554600484262,-0.1392014214411858
-0.005512214600484262,-0.1340010793159657
-0.005511874600484261,-0.1307426370982646
-0.005511534600484261,-0.1271879728607724
-0.005511194600484262,-0.1220863714088161
-0.005510854600484261,-0.11770886822746
-0.005510514600484261,-0.1136605006236494
-0.005510174600484262,-0.1009887808881449
-0.005509834600484261,-0.1042472231058461
-0.005509494600484261,-0.1009558673303904
-0.005509154600484262,-0.09654545059127975
-0.005508814600484261,-0.09289204568051787
-0.005508474600484261,-0.08956777634731364
-0.005508134600484262,-0.08551940874350311
-0.005507794600484261,-0.08301797835415882
-0.005507454600484261,-0.08413703931781172
-0.005507114600484262,-0.07989119036747386
-0.005506774600484261,-0.07149823314005832
-0.005506434600484261,-0.06958924679029749
-0.005506094600484262,-0.06455347245385024
-0.005505754600484261,-0.06527757072445164
-0.005505414600484261,-0.0659029283217871
-0.005505074600484262,-0.06086715398533984
-0.005504734600484261,-0.05675295926601691
-0.005504394600484261,-0.05494271358951957
-0.005504054600484262,-0.05319829502852804
-0.005503714600484261,-0.05043355617714548
-0.005503374600484261,-0.05056521040816347
-0.005503034600484262,-0.04872205117390827
-0.005502694600484261,-0.04724094107495572
-0.005502354600484261,-0.04862331050064461
-0.005502014600484262,-0.0493144952134903
-0.005501674600484261,-0.04641810213108472
-0.005501334600484261,-0.04391667174174294
-0.005500994600484262,-0.04306091924012445
-0.005500654600484261,-0.0389138109630481
-0.005500314600484261,-0.0377289228838862
-0.005499974600484262,-0.03647820768921303
-0.005499634600484262,-0.03341724681804478
-0.005499294600484261,-0.03292354345172086
-0.005498954600484262,-0.03331850614477554
-0.005498614600484262,-0.0314095197950147
-0.005498274600484261,-0.02956636056075604
-0.005497934600484262,-0.03068542152441098
-0.005497594600484262,-0.03009297748483003
-0.005497254600484261,-0.03015880460033806
-0.005496914600484262,-0.03410843153088492
-0.005496574600484262,-0.0283485589238479
-0.005496234600484261,-0.02574838786122741
-0.005495894600484262,-0.02538633872592728
-0.005495554600484262,-0.02383940151146591
-0.005495214600484261,-0.02449767266655424
-0.005494874600484262,-0.02272034054780816
-0.005494534600484262,-0.01919858986807695
-0.005494194600484261,-0.01649967813219686
-0.005493854600484262,-0.01798078823115194
-0.005493514600484262,-0.01728960351830749
-0.005493174600484261,-0.01738834419156991
-0.005492834600484262,-0.01942898477235245
-0.005492494600484262,-0.01949481188786144
-0.005492154600484261,-0.01633511034342408
-0.005491814600484262,-0.01551227139956015
-0.005491474600484262,-0.01511730870650618
-0.005491134600484261,-0.01281335966368647
-0.005490794600484262,-0.012253829181859
-0.005490454600484262,-0.01278044610593191
-0.005490114600484261,-0.01251713764389546
-0.005489774600484261,-0.01304375456796837
-0.005489434600484262,-0.01416281553162331
-0.005489094600484261,-0.01452486466692344
-0.005488754600484261,-0.01465651889794167
-0.005488414600484262,-0.01666424592096965
-0.005488074600484261,-0.01445903755141079
-0.005487734600484261,-0.01251713764389546
-0.005487394600484262,-0.012253829181859
-0.005487054600484261,-0.01120059533371299
-0.005486714600484261,-0.0111018546604495
-0.005486374600484262,-0.01452486466692344
-0.005486034600484261,-0.007777585327234143
-0.005485694600484261,-0.004979932918101878
-0.005485354600484262,-0.003564649934655922
-0.005485014600484261,-0.004453315994032076
-0.005484674600484261,-0.006164820997265934
-0.005484334600484262,-0.005572376957683906
-0.005483994600484261,-0.004255834647503357
-0.005483654600484261,-0.005210327822383777
-0.005483314600484262,-0.006954746383375304
-0.005482974600484261,-0.006559783690318523
-0.005482634600484261,-0.00540780916891112
-0.005482294600484262,-0.005309068495647449
-0.005481954600484261,-0.006592697248072063
-0.005481614600484261,-0.004881192244838206
-0.005481274600484262,-0.005144500706874663
-0.005480934600484261,-0.00715222772990121
-0.005480594600484261,-0.006362302343793276
-0.005480254600484262,-0.006066080324002262
-0.005479914600484261,-0.006526870132568457
-0.005479574600484261,-0.007843412442748346
-0.005479234600484262,-0.006823092152357076
-0.005478894600484262,-0.009028300521908391
-0.005478554600484261,-0.00837002936682126
-0.005478214600484262,-0.007810498884993789
-0.005477874600484262,-0.007053487056640353
-0.005477534600484261,-0.005934426092984033
-0.005477194600484262,-0.005078673591365549
-0.005476854600484262,-0.004979932918102057
-0.005476514600484261,-0.006625610805829733
-0.005476174600484262,-0.00962074456149443
-0.005475834600484262,-0.00126070089185213
-0.005475494600484261,-0.001161960218573253
-0.005475154600484262,0.0005824583424182735
-0.005474814600484262,0.0002533227648733012
-0.005474474600484261,-0.003103860126092122
-0.005474134600484262,-0.001984799162437181
-0.005473794600484262,0.001076161708731062
-0.005473454600484261,-0.0002403806014456541
-0.005473114600484262,-0.0003062077169547683
-0.005472774600484262,2.292786059020403e-05
-0.005472434600484261,-0.001787317815909838
-0.005472094600484262,-0.002939292337319337
-0.005471754600484262,-0.004157093974235734
-0.005471414600484261,-0.006362302343793276
-0.005471074600484262,-0.006625610805829733
-0.005470734600484262,-0.006888919267865711
-0.005470394600484261,-0.00665852436358429
-0.005470054600484262,-0.005572376957683906
-0.005469714600484262,-0.002412675413246423
-0.005469374600484261,-0.00415709397423795
-0.005469034600484261,-0.002116453393455409
-0.005468694600484262,-0.001161960218573253
-0.005468354600484261,-0.001063219545309582
-0.005468014600484261,-0.0005036890634821109
-0.005467674600484262,8.875497609991696e-05
-0.005467334600484261,-0.0003720348324638825
-0.005466994600484261,-0.002116453393455409
-0.005466654600484262,-0.002116453393455409
-0.005466314600484261,-0.0005366026212321779
-0.005465974600484261,0.001931914210355115
-0.005465634600484262,-0.008830819175385059
-0.005465294600484261,-0.003959612627709289
-0.005464954600484261,-0.003235514357110351
-0.005464614600484262,-0.003498822819146808
-0.005464274600484261,-0.002248107624482379
-0.005463934600484261,-0.007053487056638975
-0.005463594600484262,-0.005309068495647449
-0.005463254600484261,-0.001984799162439097
-0.005462914600484261,-0.003038033010583008
-0.005462574600484262,-0.004025439743219721
-0.005462234600484261,-0.002149366951212481
-0.005461894600484261,-0.003531736376901365
-0.005461554600484262,-0.004255834647501621
-0.005461214600484261,-0.003729217723428767
-0.005460874600484261,-0.003762131281183265
-0.005460534600484262,-0.004288748205256179
-0.005460194600484261,-0.003729217723425894
-0.005459854600484261,-0.002182280508964523
-0.005459514600484262,-0.004782451571574535
-0.005459174600484261,-0.00214936695120805
-0.005458834600484261,-0.001096133103064139
-0.005458494600484262,-0.0009315653142913533
-0.005458154600484261,-0.000931565314294227
-0.005457814600484261,-0.002511416086510094
-0.005457474600484262,-0.002149366951209966
-0.005457134600484262,0.0001216685338503434
-0.005456794600484261,0.0009445074777184018
-0.005456454600484262,-0.0007340839677640107
-0.005456114600484262,-0.0003062077169555466
-0.005455774600484261,0.0006482854579273878
-0.005455434600484262,-0.005045760033610991
-0.005455094600484262,-0.004157093974239566
-0.005454754600484261,-0.002215194066719081
-0.005454414600484262,-0.003169687241601236
-0.005454074600484262,-0.001886058489175844
-0.005453734600484261,-0.005572376957683906
-0.005453394600484262,-0.008304202251312145
-0.005453054600484262,-0.006164820997269825
-0.005452714600484261,-0.004321661763010735
-0.005452374600484262,-0.005012846475856435
-0.005452034600484262,-0.005045760033610932
-0.005451694600484261,-0.003070946568337565
-0.005451354600484262,-0.00313677368384668
-0.005451014600484262,-0.002248107624475254
-0.005450674600484261,0.0005824583424182735
-0.005450334600484262,0.0001216685338544741
-0.005449994600484262,-9.985697163514886e-06
-0.005449654600484261,0.001405297286282201
-0.005449314600484262,0.002623098923200814
-0.005448974600484262,0.0007799396889489689
-0.005448634600484261,0.0005824583424182735
-0.005448294600484262,-0.0003720348324638825
-0.005447954600484262,-0.002544329644264652
-0.005447614600484261,-0.001293614449591481
-0.005447274600484261,-0.00165566358489161
-0.005446934600484262,-0.003235514357110351
-0.005446594600484261,-0.003795044838937822
-0.005446254600484261,-0.003202600799355794
-0.005445914600484262,-0.004420402436274407
-0.005445574600484261,-0.005802771861964608
-0.005445234600484261,-0.005144500706874663
-0.005444894600484262,-0.01004862081230367
-0.005444554600484261,-0.005309068495640623
-0.005444214600484261,-0.001556922911627938
-0.005443874600484262,-0.0006024297367457822
-0.005443534600484261,0.001076161708730464
-0.005443194600484261,-0.002313934739982752
-0.005442854600484262,-0.002248107624473638
-0.005442514600484261,0.0002533227648755762
-0.005442174600484261,0.001833173537091444
-0.005441834600484262,0.002129395556882458
-0.005441494600484261,-0.000306207716951236
-0.005441154600484261,0.001635692190564101
-0.005440814600484262,0.000714112573436502
-0.005440474600484261,-0.0001745534859370188
-0.005440134600484261,-0.0004378619479729968
-0.005439794600484262,-0.0003062077169547683
-0.005439454600484261,-0.002675983875282221
-0.005439114600484261,-0.002313934739982752
-0.005438774600484262,-0.002215194066719081
-0.005438434600484261,-0.00310386012608865
-0.005438094600484261,-0.00119487377632781
-0.005437754600484262,-0.0004707755057275538
-0.005437414600484261,-0.002017712720190181
-0.005437074600484261,-0.001161960218573253
-0.005436734600484262,-0.0009973924298004675
-0.005436394600484262,-0.001655663584890412
-0.005436054600484261,-0.003729217723428708
-0.005435714600484262,-0.002017712720191738
-0.005435374600484262,-0.002873465221808666
-0.005435034600484261,-0.00392669906995605
-0.005434694600484262,-0.007876326000502903
-0.005434354600484262,-0.007580103980712427
-0.005434014600484261,-0.003268427914864908
-0.005433674600484262,-0.00142526868060971
-0.005433334600484262,0.0003191498803786438
-0.005432994600484261,-0.002708897433037437
-0.005432654600484262,-0.003663390607919593
-0.005432314600484262,0.0009115939199555233
-0.005431974600484261,0.001438210844036758
-0.005431634600484262,0.001635692190564101
-0.005431294600484262,0.00176734642158209
-0.005430954600484261,-9.985697163754359e-06
-0.005430614600484262,-0.000832824641027682
-0.005430274600484262,-0.001063219545309163
-0.005429934600484261,-0.003301341472619465
-0.005429594600484262,-0.004420402436274407
-0.005429254600484262,-0.004584970225046893
-0.005428914600484261,-0.006428129459302391
-0.005428574600484262,-0.003630477050165036
-0.005428234600484262,-0.003005119452829589
-0.005427894600484261,-0.00392669906995605
-0.005427554600484262,-0.004091266858728836
-0.005427214600484262,-0.004025439743219721
-0.005426874600484261,-0.005671117630947577
-0.005426534600484261,-0.007185141287657204
-0.005426194600484262,-0.006164820997265934
-0.005425854600484261,-0.006296475228284162
-0.005425514600484261,-0.006823092152357076
-0.005425174600484262,-0.006823092152357076
-0.005424834600484261,-0.005309068495647449
-0.005424494600484261,-0.006823092152357076
-0.005424154600484262,-0.01011444792781279
-0.005423814600484261,-0.006362302343785673
-0.005423474600484261,-0.002182280508964523
-0.005423134600484262,-0.001063219545309582
-0.005422794600484261,0.0002204092071090452
-0.005422454600484261,-0.004782451571574535
-0.005422114600484262,-0.004453315994028964
-0.005421774600484261,0.005980281814153246
-0.005421434600484261,-0.000832824641027682
-0.005421094600484262,-0.001589836469382495
-0.005420754600484261,-4.289925491801212e-05
-0.005420414600484261,0.0001216685338544741
-0.005420074600484262,0.0006482854579273878
-0.005419734600484261,0.001405297286280345
-0.005419394600484261,0.0003849769958909309
-0.005419054600484262,0.0002862363226272596
-0.005418714600484261,0.00133947017076734
-0.005418374600484261,-0.001820231373664395
-0.005418034600484262,-0.004124180416483393
-0.005417694600484261,-0.00507867359136992
