Analysis/files/cmb03_wrd01/d2s07_ch00.csv

#Digilent WaveForms Oscilloscope Acquisition
#Device Name: ADP3450
#Serial Number: SN:210018B9D9B0
#Date Time: 2024-08-13 16:11:32.117.413.530
#Sample rate: 2.94118e+06Hz
#Samples: 32768
#Trigger: Source: Channel 3 Type: Edge Condition: Rising Level: 60 mV Hyst.: Auto HoldOff: 0 s
#Channel 3: Range: 200 mV/div Offset: 0 V Attenuation: 1 X Coupling: DC Bandwidth: 0 Hz Sample Mode: Average

Time (s),Channel 3 (V)
-0.005570403990024938,0.007922181721684508
-0.005570063990024937,0.004104209022154028
-0.005569723990024937,0.003083888731764614
-0.005569383990024938,0.005223269985810825
-0.005569043990024937,0.004433344599697743
-0.005568703990024937,0.002392704018918914
-0.005568363990024938,0.0002862363226272596
-0.005568023990024937,-0.003136773683836981
-0.005567683990024937,0.002195222672391572
-0.005567343990024938,0.003972554791137656
-0.005567003990024937,0.002162309114633422
-0.005566663990024937,0.0001874956493635883
-0.005566323990024938,-0.000207467043691097
-0.005565983990024937,0.002261049787902781
-0.005565643990024937,0.003413024309310185
-0.005565303990024938,0.003149715847273728
-0.005564963990024937,0.004301690368682748
-0.005564623990024937,0.00403838190664677
-0.005564283990024938,0.003939641233383098
-0.005563943990024937,0.002392704018913406
-0.005563603990024937,-0.0006353432945003394
-0.005563263990024938,-0.0007669975255185678
-0.005562923990024938,-0.00109613310306354
-0.005562583990024937,-0.004124180416483393
-0.005562243990024938,-0.006033166766247705
-0.005561903990024938,-0.005111587149121783
-0.005561563990024937,-0.004058353300974278
-0.005561223990024938,-0.004190007531992507
-0.005560883990024938,-0.003827958396693037
-0.005560543990024937,-0.003235514357110351
-0.005560203990024938,-0.002083539835700852
-0.005559863990024938,-0.0003062077169580012
-0.005559523990024937,-0.001853144931418952
-0.005559183990024938,-0.003202600799355794
-0.005558843990024938,-0.002807638106301827
-0.005558503990024937,-0.002972205895073894
-0.005558163990024938,-0.005769858304211248
-0.005557823990024938,-0.01021318860106838
-0.005557483990024937,-0.007152227729902647
-0.005557143990024938,-0.003663390607919593
-0.005556803990024938,-0.002939292337320654
-0.005556463990024937,-0.002807638106301108
-0.005556123990024938,-0.007613017538466446
-0.005555783990024938,-0.009324522541700303
-0.005555443990024937,-0.007086400614393532
-0.005555103990024938,-0.008534597155594046
-0.005554763990024938,-0.01090437331391785
-0.005554423990024937,-0.01097020042943127
-0.005554083990024937,-0.009752398792512659
-0.005553743990024938,-0.01027901571658557
-0.005553403990024937,-0.009752398792512659
-0.005553063990024937,-0.01050941062086747
-0.005552723990024938,-0.008830819175385059
-0.005552383990024937,-0.006691437921338847
-0.005552043990024937,-0.006559783690320619
-0.005551703990024938,-0.006790178594602518
-0.005551363990024937,-0.00524324138013552
-0.005551023990024937,-0.00369630416567415
-0.005550683990024938,-0.003729217723428708
-0.005550343990024937,-0.002939292337321732
-0.005550003990024937,-0.004255834647501621
-0.005549663990024938,-0.005572376957683906
-0.005549323990024937,-0.005341982053403083
-0.005548983990024937,-0.005934426092984033
-0.005548643990024938,-0.008830819175385059
-0.005548303990024937,-0.008534597155590214
-0.005547963990024937,-0.006428129459302391
-0.005547623990024938,-0.007975066673766575
-0.005547283990024937,-0.01208926139307358
-0.005546943990024937,-0.005144500706874663
-0.005546603990024938,-0.003564649934655922
-0.005546263990024937,-0.001491095796120261
-0.005545923990024937,-0.002281021182228195
-0.005545583990024938,-0.007283881960920875
-0.005545243990024937,-0.008139634462534091
-0.005544903990024937,-0.005243241380138334
-0.005544563990024938,-0.009489090330476201
-0.005544223990024937,-0.01208926139308573
-0.005543883990024937,-0.01182595293104976
-0.005543543990024938,-0.01310958168347748
-0.005543203990024937,-0.01498565447548826
-0.005542863990024937,-0.01554518495731471
-0.005542523990024938,-0.01482108668671445
-0.005542183990024938,-0.01501856803324144
-0.005541843990024937,-0.01314249524123204
-0.005541503990024938,-0.01301084101021381
-0.005541163990024938,-0.010772719082908
-0.005540823990024937,-0.009752398792512659
-0.005540483990024938,-0.008764992059875945
-0.005540143990024938,-0.009390349657211392
-0.005539803990024937,-0.00939034965721253
-0.005539463990024938,-0.009258695426194301
-0.005539123990024938,-0.01093728687167366
-0.005538783990024937,-0.009587831003739873
-0.005538443990024938,-0.008732078502121389
-0.005538103990024938,-0.009127041195175356
-0.005537763990024937,-0.007777585327239231
-0.005537423990024938,-0.006526870132566062
-0.005537083990024938,-0.008435856482326901
-0.005536743990024937,-0.01159555802676786
-0.005536403990024938,-0.004190007531992507
-0.005536063990024938,-0.004716624456064463
-0.005535723990024937,-0.004617883782801749
-0.005535383990024938,-0.003432995703637694
-0.005535043990024938,-0.008534597155584765
-0.005534703990024937,-0.008139634462539359
-0.005534363990024938,-0.004683710898310864
-0.005534023990024938,-0.007942153116006089
-0.005533683990024937,-0.008732078502121389
-0.005533343990024937,-0.008205461578048474
-0.005533003990024938,-0.008073807347030245
-0.005532663990024937,-0.006823092152357076
-0.005532323990024937,-0.003103860126092122
-0.005531983990024938,-0.008238375135803031
-0.005531643990024937,-0.009192868310685188
-0.005531303990024937,-0.008402942924575817
-0.005530963990024938,-0.009094127637421515
-0.005530623990024937,-0.01143099023799507
-0.005530283990024937,-0.01120059533371317
-0.005529943990024938,-0.012253829181859
-0.005529603990024937,-0.01518313582201428
-0.005529263990024937,-0.0150185680332418
-0.005528923990024938,-0.01314249524123204
-0.005528583990024937,-0.01347163081877498
-0.005528243990024937,-0.0120234342775771
-0.005527903990024938,-0.01004862081230367
-0.005527563990024937,-0.009982793696794378
-0.005527223990024937,-0.009884053023530886
-0.005526883990024938,-0.008633337828857716
-0.005526543990024937,-0.01278044610593029
-0.005526203990024937,-0.01189178004655887
-0.005525863990024938,-0.007152227729902647
-0.005525523990024937,-0.009061214079663964
-0.005525183990024937,-0.007415536191939104
-0.005524843990024938,-0.008896646290894173
-0.005524503990024937,-0.010871459756167
-0.005524163990024937,-0.01054232417862203
-0.005523823990024938,-0.01126642244922228
-0.005523483990024937,-0.01383367995409193
-0.005523143990024937,-0.02163419314190777
-0.005522803990024938,-0.03489835691699429
-0.005522463990024937,-0.05365908483713692
-0.005522123990024937,-0.07844299382627334
-0.005521783990024938,-0.1068473941684561
-0.005521443990024937,-0.1375886571112715
-0.005521103990024937,-0.1700414250572058
-0.005520763990024938,-0.1963722712608515
-0.005520423990024938,-0.219115539669209
-0.005520083990024937,-0.237053428645484
-0.005519743990024938,-0.248573173859579
-0.005519403990024938,-0.2541684786778436
-0.005519063990024937,-0.2563407734896545
-0.005518723990024938,-0.2537406024270445
-0.005518383990024938,-0.2483756925130615
-0.005518043990024937,-0.244788114717805
-0.005517703990024938,-0.2389295014374938
-0.005517363990024938,-0.230273235748061
-0.005517023990024937,-0.2242500546789613
-0.005516683990024938,-0.2181281329366137
-0.005516343990024938,-0.2109529773461333
-0.005516003990024937,-0.2079578435904556
-0.005515663990024938,-0.2002889846336438
-0.005515323990024938,-0.1882426224954978
-0.005514983990024937,-0.1823840092151647
-0.005514643990024938,-0.1760646061262897
-0.005514303990024938,-0.1721149791957501
-0.005513963990024937,-0.1685932285160053
-0.005513623990024938,-0.1624383932159031
-0.005513283990024938,-0.1560531630115306
-0.005512943990024937,-0.1493717107873439
-0.005512603990024937,-0.144237195777633
-0.005512263990024938,-0.1399913468272951
-0.005511923990024937,-0.1339681657582112
-0.005511583990024937,-0.1296894032501188
-0.005511243990024938,-0.1248181967024443
-0.005510903990024937,-0.1199140765970153
-0.005510563990024937,-0.1171822513033871
-0.005510223990024938,-0.1138908955279314
-0.005509883990024937,-0.1088880347492387
-0.005509543990024937,-0.1053333705117465
-0.005509203990024938,-0.1023382367560818
-0.005508863990024937,-0.09842152338328369
-0.005508523990024937,-0.09522890828109745
-0.005508183990024938,-0.09256291010297835
-0.005507843990024937,-0.0883828882681464
-0.005507503990024937,-0.08663846970715805
-0.005507163990024938,-0.08542066807023946
-0.005506823990024937,-0.08206348517926941
-0.005506483990024937,-0.07920000565462815
-0.005506143990024938,-0.07860756161504612
-0.005505803990024937,-0.0774885006513904
-0.005505463990024937,-0.07706062440058195
-0.005505123990024938,-0.06810813669134241
-0.005504783990024937,-0.0640926826452804
-0.005504443990024937,-0.06076841331207618
-0.005504103990024938,-0.06017596927249415
-0.005503763990024937,-0.06139377090939935
-0.005503423990024937,-0.05402113397239196
-0.005503083990024938,-0.05165135781406385
-0.005502743990024937,-0.05135513579426913
-0.005502403990024937,-0.0493144952134903
-0.005502063990024938,-0.0481625206920808
-0.005501723990024937,-0.04799795290330885
-0.005501383990024937,-0.04845874271187182
-0.005501043990024938,-0.04733968174821687
-0.005500703990024937,-0.04635227501557549
-0.005500363990024937,-0.04378501751072471
-0.005500023990024938,-0.04263304298931521
-0.005499683990024938,-0.04210642606524325
-0.005499343990024937,-0.0393416872138595
-0.005499003990024938,-0.03743270086409518
-0.005498663990024938,-0.0373339601908317
-0.005498323990024937,-0.03512875182127619
-0.005497983990024938,-0.03331850614477554
-0.005497643990024938,-0.03282480277845808
-0.005497303990024937,-0.03029045883135629
-0.005496963990024938,-0.02920431142545591
-0.005496623990024938,-0.0292701385409649
-0.005496283990024937,-0.02861186738587388
-0.005495943990024938,-0.02778902844200995
-0.005495603990024938,-0.02854604027036339
-0.005495263990024937,-0.03170574181480225
-0.005494923990024938,-0.03252858075866617
-0.005494583990024938,-0.02739406574896461
-0.005494243990024937,-0.02782194199976451
-0.005493903990024938,-0.0243001913200269
-0.005493563990024938,-0.02844729959709355
-0.005493223990024937,-0.03187030960357504
-0.005492883990024938,-0.02818399113506464
-0.005492543990024938,-0.02673579459386676
-0.005492203990024937,-0.0282169046928192
-0.005491863990024938,-0.0270649301714097
-0.005491523990024938,-0.02400396930024145
-0.005491183990024937,-0.02278616766331727
-0.005490843990024937,-0.02031765083172549
-0.005490503990024938,-0.01903402207929776
-0.005490163990024937,-0.02123923044885309
-0.005489823990024937,-0.01722377640279712
-0.005489483990024938,-0.01768456621136092
-0.005489143990024937,-0.01821118313543383
-0.005488803990024937,-0.01768456621136092
-0.005488463990024938,-0.01610471543914218
-0.005488123990024937,-0.01827701025094397
-0.005487783990024937,-0.01883654073277042
-0.005487443990024938,-0.01696046794076066
-0.005487103990024937,-0.0181124424621622
-0.005486763990024937,-0.01373493928081407
-0.005486423990024938,-0.01222091562410444
-0.005486083990024937,-0.01482108668671547
-0.005485743990024937,-0.01538061716854192
-0.005485403990024938,-0.0124842240861409
-0.005485063990024937,-0.01310958168348652
-0.005484723990024937,-0.01807952890441561
-0.005484383990024938,-0.009456176772721644
-0.005484043990024937,-0.008797905617630202
-0.005483703990024937,-0.008633337828857716
-0.005483363990024938,-0.007843412442748346
-0.005483023990024937,-0.01337289014551729
-0.005482683990024937,-0.01521604937976914
-0.005482343990024938,-0.01195760716206798
-0.005482003990024937,-0.01162847158452672
-0.005481663990024937,-0.01399824774285052
-0.005481323990024938,-0.01304375456796837
-0.005480983990024937,-0.0126158783171599
-0.005480643990024937,-0.01304375456796837
-0.005480303990024938,-0.01426155620488698
-0.005479963990024937,-0.01613762899690045
-0.005479623990024937,-0.01817826957767928
-0.005479283990024938,-0.01626928322791496
-0.005478943990024938,-0.01412990197387264
-0.005478603990024937,-0.01521604937976914
-0.005478263990024938,-0.01613762899689674
-0.005477923990024938,-0.01330706303000997
-0.005477583990024937,-0.01057523773637659
-0.005477243990024938,-0.01011444792781279
-0.005476903990024938,-0.009982793696794797
-0.005476563990024937,-0.01126642244922228
-0.005476223990024938,-0.0111018546604495
-0.005475883990024938,-0.009653658119251621
-0.005475543990024937,-0.0113322495647314
-0.005475203990024938,-0.01264879187491368
-0.005474863990024938,-0.01024610215883539
-0.005474523990024937,-0.01060815129413114
-0.005474183990024938,-0.01584140697710572
-0.005473843990024938,-0.007975066673780883
-0.005473503990024937,-0.009258695426194301
-0.005473163990024938,-0.01531479005303281
-0.005472823990024938,-0.01412990197387091
-0.005472483990024937,-0.01162847158452241
-0.005472143990024938,-0.01366911216530495
-0.005471803990024938,-0.01304375456796951
-0.005471463990024937,-0.01008153437005823
-0.005471123990024938,-0.01116768177595861
-0.005470783990024938,-0.01146390379574909
-0.005470443990024937,-0.01004862081230367
-0.005470103990024937,-0.009291608983948858
-0.005469763990024938,-0.009258695426194301
-0.005469423990024937,-0.008962473406403288
-0.005469083990024937,-0.01001570725454911
-0.005468743990024938,-0.01004862081230367
-0.005468403990024937,-0.007744671769484675
-0.005468063990024937,-0.009127041195176074
-0.005467723990024938,-0.01001570725454911
-0.005467383990024937,-0.009785312350267215
-0.005467043990024937,-0.009192868310685188
-0.005466703990024938,-0.01070689196739481
-0.005466363990024937,-0.01004862081230355
-0.005466023990024937,-0.009982793696794558
-0.005465683990024938,-0.009653658119248986
-0.005465343990024937,-0.007744671769485453
-0.005465003990024937,-0.008172548020293918
-0.005464663990024938,-0.009949880139040001
-0.005464323990024937,-0.009653658119254015
-0.005463983990024937,-0.01241839697063178
-0.005463643990024938,-0.01353745793428673
-0.005463303990024937,-0.01245131052838436
-0.005462963990024937,-0.01136516312248596
-0.005462623990024938,-0.008797905617630502
-0.005462283990024937,-0.01129933600697834
-0.005461943990024937,-0.01212217495084077
-0.005461603990024938,-0.009028300521912402
-0.005461263990024937,-0.006954746383374586
-0.005460923990024937,-0.006559783690320619
-0.005460583990024938,-0.007777585327239231
-0.005460243990024937,-0.007909239558256143
-0.005459903990024937,-0.007185141287657204
-0.005459563990024938,-0.008271288693557588
-0.005459223990024937,-0.01080563264065855
-0.005458883990024937,-0.01083854619841304
-0.005458543990024938,-0.0129450138947047
-0.005458203990024937,-0.01330706303000393
-0.005457863990024937,-0.01281335966368647
-0.005457523990024938,-0.0129450138947047
-0.005457183990024938,-0.01370202572305813
-0.005456843990024937,-0.01027901571658557
-0.005456503990024938,-0.007744671769484675
-0.005456163990024938,-0.006428129459304785
-0.005455823990024937,-0.004519143109538078
-0.005455483990024938,-0.00369630416567415
-0.005455143990024938,-0.003367168588129178
-0.005454803990024937,-0.004255834647501621
-0.005454463990024938,-0.003235514357110351
-0.005454123990024938,-0.007580103980703986
-0.005453783990024937,-0.0101802750433219
-0.005453443990024938,-0.01370202572305951
-0.005453103990024938,-0.00978531235027434
-0.005452763990024937,-0.009291608983948858
-0.005452423990024938,-0.00837002936682126
-0.005452083990024938,-0.01014736148556411
-0.005451743990024937,-0.01373493928081407
-0.005451403990024938,-0.01113476821820406
-0.005451063990024938,-0.00896247340640724
-0.005450723990024937,-0.00939034965721253
-0.005450383990024938,-0.008205461578048474
-0.005450043990024938,-0.007349709076431546
-0.005449703990024937,-0.008007980231521132
-0.005449363990024938,-0.007152227729902647
-0.005449023990024938,-0.007613017538465609
-0.005448683990024937,-0.008567510713348603
-0.005448343990024937,-0.008468770040084931
-0.005448003990024938,-0.008304202251312145
-0.005447663990024937,-0.009225781868439744
-0.005447323990024937,-0.009225781868439744
-0.005446983990024938,-0.00869916494436683
-0.005446643990024937,-0.006921832825620747
-0.005446303990024937,-0.005967339650738591
-0.005445963990024938,-0.005605290515438462
-0.005445623990024937,-0.006888919267863555
-0.005445283990024937,-0.005440722726665677
-0.005444943990024938,-0.006493956574811504
-0.005444603990024937,-0.00817254802029721
-0.005444263990024937,-0.009982793696794558
-0.005443923990024938,-0.009719485234758102
-0.005443583990024937,-0.01004862081231151
-0.005443243990024937,-0.01436029687815065
-0.005442903990024938,-0.01557809851506927
-0.005442563990024937,-0.01110185466045022
-0.005442223990024937,-0.01149681735350419
-0.005441883990024938,-0.009357436099457973
-0.005441543990024937,-0.01139807668024644
-0.005441203990024937,-0.01465651889794167
-0.005440863990024938,-0.007547190422957332
-0.005440523990024937,-0.001918972046940938
-0.005440183990024937,-0.008995386964157845
-0.005439843990024938,-0.006790178594602518
-0.005439503990024937,-0.005144500706875321
-0.005439163990024937,-0.005506549842174791
-0.005438823990024938,-0.004914105802592763
-0.005438483990024937,-0.004914105802596175
-0.005438143990024937,-0.006790178594602518
-0.005437803990024938,-0.007645931096221003
-0.005437463990024937,-0.006823092152358633
-0.005437123990024937,-0.00767884465397556
-0.005436783990024938,-0.008797905617630502
-0.005436443990024938,-0.008073807347031562
-0.005436103990024937,-0.008830819175385059
-0.005435763990024938,-0.0101802750433219
-0.005435423990024938,-0.01034484283209439
-0.005435083990024937,-0.01291210033695014
-0.005434743990024938,-0.01212217495084077
-0.005434403990024938,-0.01047649706311591
-0.005434063990024937,-0.01139807668024051
-0.005433723990024938,-0.01314249524123204
-0.005433383990024938,-0.01018027504332729
-0.005433043990024937,-0.009291608983948858
-0.005432703990024938,-0.01373493928081407
-0.005432363990024938,-0.01580849341934739
-0.005432023990024937,-0.009456176772721644
-0.005431683990024938,-0.007843412442748346
-0.005431343990024938,-0.004815365129334601
-0.005431003990024937,-0.008666251386612273
-0.005430663990024938,-0.01330706303000483
-0.005430323990024938,-0.01103602754494452
-0.005429983990024937,-0.006098993881756819
-0.005429643990024938,-0.009818225908021772
-0.005429303990024938,-0.01018027504332124
-0.005428963990024937,-0.009061214079666959
-0.005428623990024938,-0.008205461578048474
-0.005428283990024938,-0.008073807347030485
-0.005427943990024937,-0.007349709076429989
-0.005427603990024937,-0.007415536191939104
-0.005427263990024938,-0.007876326000502903
-0.005426923990024937,-0.006000253208493148
-0.005426583990024937,-0.008435856482330374
-0.005426243990024938,-0.01014736148556734
-0.005425903990024937,-0.01024610215883101
-0.005425563990024937,-0.01031192927434013
-0.005425223990024938,-0.01146390379574963
-0.005424883990024937,-0.01143099023799507
-0.005424543990024937,-0.0120234342775771
-0.005424203990024938,-0.01139807668024051
-0.005423863990024937,-0.009785312350266796
-0.005423523990024937,-0.009554917445985316
-0.005423183990024938,-0.01166138514227697
-0.005422843990024937,-0.01041066994759955
-0.005422503990024937,-0.008073807347030245
-0.005422163990024938,-0.0138665935118323
-0.005421823990024937,-0.006888919267864752
-0.005421483990024937,-0.006098993881756819
-0.005421143990024938,-0.00517741426462922
-0.005420803990024937,-0.003762131281192006
-0.005420463990024937,-0.008567510713348603
-0.005420123990024938,-0.009127041195176074
-0.005419783990024937,-0.006888919267862897
-0.005419443990024937,-0.005078673591365549
-0.005419103990024938,-0.007152227729902647
-0.005418763990024937,-0.008172548020292301
-0.005418423990024937,-0.007283881960920875
-0.005418083990024938,-0.007448449749693661
-0.005417743990024937,-0.009851139465779323
-0.005417403990024937,-0.01149681735350419
-0.005417063990024938,-0.01314249524123204
