Analysis/files/cmb03_wrd01/d2s03_ch06.csv

#Digilent WaveForms Oscilloscope Acquisition
#Device Name: ADP3450
#Serial Number: SN:210018B9D9B0
#Date Time: 2024-08-13 11:30:00.443.102.320
#Sample rate: 2.94118e+06Hz
#Samples: 32768
#Trigger: Source: Channel 3 Type: Edge Condition: Rising Level: 60 mV Hyst.: Auto HoldOff: 0 s
#Channel 3: Range: 200 mV/div Offset: 0 V Attenuation: 1 X Coupling: DC Bandwidth: 0 Hz Sample Mode: Average

Time (s),Channel 3 (V)
-0.005570332672112019,0.005947368256411082
-0.005569992672112018,0.004630825946226582
-0.005569652672112018,0.003413024309310185
-0.005569312672112019,0.001964827768109672
-0.005568972672112018,0.001339470170777039
-0.005568632672112018,0.003511764982573856
-0.005568292672112019,0.002919320942991828
-0.005567952672112018,0.002820580269732108
-0.005567612672112018,0.004992875081528926
-0.005567272672112019,0.004927047966019811
-0.005566932672112018,0.003314283636047112
-0.005566592672112018,0.003643419213592085
-0.005566252672112019,0.002952234500746385
-0.005565912672112018,0.001767346421582868
-0.005565572672112018,0.002063568441373343
-0.005565232672112019,0.0009445074777184018
-0.005564892672112018,2.292786059098236e-05
-0.005564552672112018,0.0001216685338544741
-0.005564212672112019,-0.001392355122855153
-0.005563872672112018,-0.006526870132552292
-0.005563532672112018,0.001043248150982073
-0.005563192672112019,0.000417890553645488
-0.005562852672112019,-0.004683710898301584
-0.005562512672112018,-0.004453315994028964
-0.005562172672112019,-0.0009644788720459105
-0.005561832672112019,-0.001589836469381358
-0.005561492672112018,-0.002379761855491866
-0.005561152672112019,-0.0001087263704274257
-0.005560812672112019,-0.001458182238361812
-0.005560472672112018,-0.002741810990791994
-0.005560132672112019,-0.003663390607919593
-0.005559792672112019,-0.00346590926139261
-0.005559452672112018,-0.005078673591365549
-0.005559112672112019,-0.006592697248075176
-0.005558772672112019,-0.004321661763014866
-0.005558432672112018,-0.008567510713348603
-0.005558092672112019,-0.004782451571574535
-0.005557752672112019,-0.006230648112772413
-0.005557412672112018,-0.00665852436358429
-0.005557072672112019,-0.005473636284420234
-0.005556732672112019,-0.004881192244839284
-0.005556392672112018,-0.007218054845411761
-0.005556052672112019,-0.007152227729902647
-0.005555712672112019,-0.002511416086518535
-0.005555372672112018,-0.007382622634184546
-0.005555032672112018,-0.008402942924575817
-0.005554692672112019,-0.00896247340640227
-0.005554352672112018,-0.01070689196739481
-0.005554012672112018,-0.01152973091125874
-0.005553672672112019,-0.01264879187491368
-0.005553332672112018,-0.01376785283856862
-0.005552992672112018,-0.01077271908290393
-0.005552652672112019,-0.009192868310685188
-0.005552312672112018,-0.005835685419720362
-0.005551972672112018,-0.008567510713348603
-0.005551632672112019,-0.0111018546604495
-0.005551292672112018,-0.007711758211727603
-0.005550952672112018,-0.006329388786038719
-0.005550612672112019,-0.007086400614393532
-0.005550272672112018,-0.007415536191938745
-0.005549932672112018,-0.007218054845411761
-0.005549592672112019,-0.005835685419720362
-0.005549252672112018,-0.005638204073196072
-0.005548912672112018,-0.007316795518675433
-0.005548572672112019,-0.006395215901547833
-0.005548232672112018,-0.005177414264629101
-0.005547892672112018,-0.005111587149120106
-0.005547552672112019,-0.00665852436358429
-0.005547212672112018,-0.006263561670529485
-0.005546872672112018,-0.00619773455502049
-0.005546532672112019,-0.005078673591365549
-0.005546192672112018,-0.005868598977479111
-0.005545852672112018,-0.008172548020293918
-0.005545512672112019,-0.009127041195176074
-0.005545172672112018,-0.008666251386614789
-0.005544832672112018,-0.01004862081230367
-0.005544492672112019,-0.0113322495647314
-0.005544152672112018,-0.01139807668024075
-0.005543812672112018,-0.01152973091125874
-0.005543472672112019,-0.01185886648880431
-0.005543132672112018,-0.01324123591449589
-0.005542792672112018,-0.01333997658775938
-0.005542452672112019,-0.008205461578048474
-0.005542112672112019,-0.01087145975616275
-0.005541772672112018,-0.00869916494436683
-0.005541432672112019,-0.007514276865202775
-0.005541092672112019,-0.01445903755140169
-0.005540752672112018,-0.01310958168347748
-0.005540412672112019,-0.00962074456149443
-0.005540072672112019,-0.00925869542619496
-0.005539732672112018,-0.01047649706311291
-0.005539392672112019,-0.01067397840964026
-0.005539052672112019,-0.01034484283209528
-0.005538712672112018,-0.008073807347030245
-0.005538372672112019,-0.01027901571658557
-0.005538032672112019,-0.009225781868441659
-0.005537692672112018,-0.007942153116012016
-0.005537352672112019,-0.008205461578048474
-0.005537012672112019,-0.008501683597838948
-0.005536672672112018,-0.008435856482330374
-0.005536332672112019,-0.009028300521912402
-0.005535992672112019,-0.009390349657211871
-0.005535652672112018,-0.008238375135803031
-0.005535312672112019,-0.01067397840964026
-0.005534972672112019,-0.01189178004655666
-0.005534632672112018,-0.01014736148556734
-0.005534292672112019,-0.009949880139040001
-0.005533952672112019,-0.01027901571658497
-0.005533612672112018,-0.008468770040084931
-0.005533272672112018,-0.006856005710111633
-0.005532932672112019,-0.007942153116012016
-0.005532592672112018,-0.0113322495647314
-0.005532252672112018,-0.009851139465776329
-0.005531912672112019,-0.005638204073193019
-0.005531572672112018,-0.01106894110269494
-0.005531232672112018,-0.008764992059875945
-0.005530892672112019,-0.009884053023530886
-0.005530552672112018,-0.01547935784180559
-0.005530212672112018,-0.01399824774285052
-0.005529872672112019,-0.0106410648518857
-0.005529532672112018,-0.01110185466044914
-0.005529192672112018,-0.01090437331392216
-0.005528852672112019,-0.009851139465776329
-0.005528512672112018,-0.007744671769483597
-0.005528172672112018,-0.007152227729902647
-0.005527832672112019,-0.00767884465397556
-0.005527492672112018,-0.008633337828854483
-0.005527152672112018,-0.006856005710111633
-0.005526812672112019,-0.008040893789275689
-0.005526472672112018,-0.008995386964157545
-0.005526132672112018,-0.008830819175385059
-0.005525792672112019,-0.009192868310685188
-0.005525452672112018,-0.009719485234755527
-0.005525112672112018,-0.008304202251312145
-0.005524772672112019,-0.00860042427110316
-0.005524432672112018,-0.009127041195173199
-0.005524092672112018,-0.007547190422957332
-0.005523752672112019,-0.007711758211730118
-0.005523412672112018,-0.01370202572307484
-0.005523072672112018,-0.02212789650822613
-0.005522732672112019,-0.03529331961004897
-0.005522392672112018,-0.05688461349709197
-0.005522052672112018,-0.0863093341296125
-0.005521712672112019,-0.1197495088082425
-0.005521372672112018,-0.1441384551044292
-0.005521032672112018,-0.1770190993011719
-0.005520692672112019,-0.2032512048315539
-0.005520352672112019,-0.226224868144193
-0.005520012672112018,-0.2469933230873603
-0.005519672672112019,-0.2548267498329449
-0.005519332672112019,-0.2602904004201914
-0.005518992672112018,-0.2625614359052658
-0.005518652672112019,-0.2601258326314286
-0.005518312672112019,-0.2563736870474159
-0.005517972672112018,-0.2477503349157151
-0.005517632672112019,-0.2345190846983831
-0.005517292672112019,-0.2313922967117059
-0.005516952672112018,-0.2290883476688812
-0.005516612672112019,-0.216252060144604
-0.005516272672112019,-0.2079578435904707
-0.005515932672112018,-0.202724587907481
-0.005515592672112019,-0.1966355797228879
-0.005515252672112019,-0.1886046716307906
-0.005514912672112018,-0.1825485770039375
-0.005514572672112019,-0.1755709027599714
-0.005514232672112019,-0.1687907098625449
-0.005513892672112018,-0.166157625242168
-0.005513552672112019,-0.159245778113711
-0.005513212672112019,-0.1547366207013449
-0.005512872672112018,-0.1498654141536623
-0.005512532672112018,-0.1470019346290158
-0.005512192672112019,-0.1406496179823863
-0.005511852672112018,-0.1358113249924664
-0.005511512672112018,-0.1316971302731468
-0.005511172672112019,-0.126332220359154
-0.005510832672112018,-0.1225471612173799
-0.005510492672112018,-0.1141542039899678
-0.005510152672112019,-0.1131667972573311
-0.005509812672112018,-0.1093159110000479
-0.005509472672112018,-0.1070119619572289
-0.005509132672112019,-0.1023053231983272
-0.005508792672112018,-0.09990263348224505
-0.005508452672112018,-0.100165941944281
-0.005508112672112019,-0.08897533230773161
-0.005507772672112018,-0.08354459527822897
-0.005507432672112018,-0.08314963258517502
-0.005507092672112019,-0.07406549064491724
-0.005506752672112018,-0.07297934323902297
-0.005506412672112018,-0.07633652612998168
-0.005506072672112019,-0.06955633323254293
-0.005505732672112018,-0.06652828591912192
-0.005505392672112018,-0.06557379274424152
-0.005505052672112019,-0.06396102841426821
-0.005504712672112018,-0.06145959802491996
-0.005504372672112018,-0.06040636417677605
-0.005504032672112019,-0.06106463533186719
-0.005503692672112018,-0.05938604388638322
-0.005503352672112018,-0.05853029138476629
-0.005503012672112019,-0.05734540330560223
-0.005502672672112018,-0.05553515762910189
-0.005502332672112018,-0.05569972541787438
-0.005501992672112019,-0.05477814580074678
-0.005501652672112018,-0.0511905680054958
-0.005501312672112018,-0.0488537054049265
-0.005500972672112019,-0.04882079184717195
-0.005500632672112018,-0.04635227501557669
-0.005500292672112018,-0.04444328866581585
-0.005499952672112019,-0.04207351250748774
-0.005499612672112019,-0.03976956346467293
-0.005499272672112018,-0.03914420586733215
-0.005498932672112019,-0.03907837875182304
-0.005498592672112019,-0.03641238057370876
-0.005498252672112018,-0.03476670268597606
-0.005497912672112019,-0.03917711942508671
-0.005497572672112019,-0.03591867720739148
-0.005497232672112018,-0.02996132325381072
-0.005496892672112019,-0.03381220951109391
-0.005496552672112019,-0.03055376729339868
-0.005496212672112018,-0.02989549613830161
-0.005495872672112019,-0.0361161585539129
-0.005495532672112019,-0.03137660623726531
-0.005495192672112018,-0.0277561148842554
-0.005494852672112019,-0.02907265719443768
-0.005494512672112019,-0.02982966902279112
-0.005494172672112018,-0.02732823863344615
-0.005493832672112019,-0.0270649301714097
-0.005493492672112019,-0.02989549613829646
-0.005493152672112018,-0.02867769450138299
-0.005492812672112019,-0.02894100296341945
-0.005492472672112019,-0.02884226229015596
-0.005492132672112018,-0.0282169046928192
-0.005491792672112018,-0.02811816401955552
-0.005491452672112019,-0.02861186738587298
-0.005491112672112018,-0.02647248613182767
-0.005490772672112018,-0.02420145064676323
-0.005490432672112019,-0.02482680824409981
-0.005490092672112018,-0.02364192016493576
-0.005489752672112018,-0.02196332871945334
-0.005489412672112019,-0.02170002025741689
-0.005489072672112018,-0.02002142881193448
-0.005488732672112018,-0.01995560169642536
-0.005488392672112019,-0.02077844064028929
-0.005488052672112018,-0.01952772544561295
-0.005487712672112018,-0.01778330688462459
-0.005487372672112019,-0.02370774728044487
-0.005487032672112018,-0.01903402207928651
-0.005486692672112018,-0.01284627322144103
-0.005486352672112019,-0.01600597476587851
-0.005486012672112018,-0.01179303937329268
-0.005485672672112018,-0.0104106699476038
-0.005485332672112019,-0.01692755438300611
-0.005484992672112018,-0.0148869138022171
-0.005484652672112018,-0.0113322495647314
-0.005484312672112019,-0.0136361986075504
-0.005483972672112018,-0.0164996781321928
-0.005483632672112018,-0.01426155620488698
-0.005483292672112019,-0.0143273833203961
-0.005482952672112018,-0.0159401476503679
-0.005482612672112018,-0.01511730870650547
-0.005482272672112019,-0.01482108668671445
-0.005481932672112018,-0.01515022226425978
-0.005481592672112018,-0.0150185680332418
-0.005481252672112019,-0.01426155620488698
-0.005480912672112018,-0.01518313582201338
-0.005480572672112018,-0.01452486466692344
-0.005480232672112019,-0.01452486466692344
-0.005479892672112018,-0.01521604937977069
-0.005479552672112018,-0.01607180188138762
-0.005479212672112019,-0.014557778224678
-0.005478872672112019,-0.01459069178243249
-0.005478532672112018,-0.01389950706958685
-0.005478192672112019,-0.01350454437653217
-0.005477852672112019,-0.01281335966368773
-0.005477512672112018,-0.01268170543266824
-0.005477172672112019,-0.01166138514227697
-0.005476832672112019,-0.01570975274608013
-0.005476492672112018,-0.01399824774285052
-0.005476152672112019,-0.00517741426462922
-0.005475812672112019,-0.01031192927433079
-0.005475472672112018,-0.008567510713348603
-0.005475132672112019,-0.005605290515438462
-0.005474792672112019,-0.01251713764388288
-0.005474452672112018,-0.01445903755141432
-0.005474112672112019,-0.0104106699476038
-0.005473772672112019,-0.01090437331392126
-0.005473432672112018,-0.01442612399365977
-0.005473092672112019,-0.01383367995407774
-0.005472752672112019,-0.01347163081877827
-0.005472412672112018,-0.01531479005303281
-0.005472072672112019,-0.01399824774285052
-0.005471732672112019,-0.01386659351183254
-0.005471392672112018,-0.01208926139308621
-0.005471052672112019,-0.01284627322144103
-0.005470712672112019,-0.01001570725455426
-0.005470372672112018,-0.01024610215883101
-0.005470032672112018,-0.008962473406403288
-0.005469692672112019,-0.006823092152357076
-0.005469352672112018,-0.007744671769484675
-0.005469012672112018,-0.008501683597839487
-0.005468672672112019,-0.00767884465397556
-0.005468332672112018,-0.007777585327239231
-0.005467992672112018,-0.009719485234758102
-0.005467652672112019,-0.008238375135803031
-0.005467312672112018,-0.009258695426194301
-0.005466972672112018,-0.00869916494436683
-0.005466632672112019,-0.008040893789275689
-0.005466292672112018,-0.01083854619841987
-0.005465952672112018,-0.01459069178243255
-0.005465612672112019,-0.002379761855491866
-0.005465272672112018,-0.008534597155601649
-0.005464932672112018,-0.0127146189904228
-0.005464592672112019,-0.008073807347030245
-0.005464252672112018,-0.01231965629737422
-0.005463912672112018,-0.01567683918833294
-0.005463572672112019,-0.01077271908290393
-0.005463232672112018,-0.00952200388823489
-0.005462892672112018,-0.0117930393732952
-0.005462552672112019,-0.01136516312248596
-0.005462212672112018,-0.009028300521914676
-0.005461872672112018,-0.01027901571658557
-0.005461532672112019,-0.01073980552514937
-0.005461192672112018,-0.009686571677004202
-0.005460852672112018,-0.01004862081230367
-0.005460512672112019,-0.01149681735350419
-0.005460172672112018,-0.01182595293105023
-0.005459832672112018,-0.01208926139308621
-0.005459492672112019,-0.01310958168347748
-0.005459152672112018,-0.01251713764389875
-0.005458812672112018,-0.0143273833203961
-0.005458472672112019,-0.01360328504979584
-0.005458132672112018,-0.01139807668023542
-0.005457792672112018,-0.00860042427110316
-0.005457452672112019,-0.009785312350267215
-0.005457112672112019,-0.008205461578051349
-0.005456772672112018,-0.006526870132566062
-0.005456432672112019,-0.006493956574811504
-0.005456092672112019,-0.005276154937895107
-0.005455752672112018,-0.008501683597839487
-0.005455412672112019,-0.01301084101021381
-0.005455072672112019,-0.004190007532008553
-0.005454732672112018,-0.004584970225047193
-0.005454392672112019,-0.009127041195176074
-0.005454052672112019,-0.00547363628442688
-0.005453712672112018,-0.009785312350267215
-0.005453372672112019,-0.01399824774285052
-0.005453032672112019,-0.01129933600698175
-0.005452692672112018,-0.01189178004655887
-0.005452352672112019,-0.01320832235674115
-0.005452012672112019,-0.01287918677919618
-0.005451672672112018,-0.01073980552514937
-0.005451332672112019,-0.01192469360431343
-0.005450992672112019,-0.01310958168347533
-0.005450652672112018,-0.0111018546604495
-0.005450312672112019,-0.01057523773637659
-0.005449972672112019,-0.01120059533371203
-0.005449632672112018,-0.01093728687167671
-0.005449292672112018,-0.009884053023530886
-0.005448952672112019,-0.01041066994760284
-0.005448612672112018,-0.007711758211730118
-0.005448272672112018,-0.006757265036847961
-0.005447932672112019,-0.007185141287657204
-0.005447592672112018,-0.007218054845411761
-0.005447252672112018,-0.007547190422957332
-0.005446912672112019,-0.009127041195176074
-0.005446572672112018,-0.009949880139040001
-0.005446232672112018,-0.009785312350267215
-0.005445892672112019,-0.01195760716206798
-0.005445552672112018,-0.01077271908290393
-0.005445212672112018,-0.01077271908290393
-0.005444872672112019,-0.01515022226426002
-0.005444532672112018,-0.01264879187489901
-0.005444192672112018,-0.004584970225047193
-0.005443852672112019,-0.01073980552514937
-0.005443512672112018,-0.008633337828853645
-0.005443172672112018,-0.006395215901547833
-0.005442832672112019,-0.01287918677919558
-0.005442492672112018,-0.01399824774284555
-0.005442152672112018,-0.01126642244922228
-0.005441812672112019,-0.01070689196739481
-0.005441472672112018,-0.01218800206634599
-0.005441132672112018,-0.01004862081230367
-0.005440792672112019,-0.009686571677003543
-0.005440452672112018,-0.01041066994760093
-0.005440112672112018,-0.008830819175385059
-0.005439772672112019,-0.007744671769484675
-0.005439432672112018,-0.00860042427110292
-0.005439092672112018,-0.008468770040084931
-0.005438752672112019,-0.007020573498884419
-0.005438412672112018,-0.005144500706873526
-0.005438072672112018,-0.004519143109538078
-0.005437732672112019,-0.004782451571574535
-0.005437392672112018,-0.007349709076432384
-0.005437052672112018,-0.008666251386612273
-0.005436712672112019,-0.009522003888230759
-0.005436372672112019,-0.01080563264065615
-0.005436032672112018,-0.01139807668024051
-0.005435692672112019,-0.009159954752930631
-0.005435352672112019,-0.009061214079667139
-0.005435012672112018,-0.009456176772721644
-0.005434672672112019,-0.008238375135803031
-0.005434332672112019,-0.01330706302999561
-0.005433992672112018,-0.01129933600697684
-0.005433652672112019,-0.00494701936034732
-0.005433312672112019,-0.01057523773636635
-0.005432972672112018,-0.0129450138947047
-0.005432632672112019,-0.00939034965721253
-0.005432292672112019,-0.009456176772721524
-0.005431952672112018,-0.01093728687167671
-0.005431612672112019,-0.009851139465776329
-0.005431272672112019,-0.008896646290895909
-0.005430932672112018,-0.009554917445985316
-0.005430592672112019,-0.009522003888230759
-0.005430252672112019,-0.009061214079667796
-0.005429912672112018,-0.008567510713348603
-0.005429572672112019,-0.009785312350267215
-0.005429232672112019,-0.009949880139039701
-0.005428892672112018,-0.01014736148556734
-0.005428552672112019,-0.0136361986075504
-0.005428212672112019,-0.01037775638985517
-0.005427872672112018,-0.01222091562410444
-0.005427532672112018,-0.01360328504979584
-0.005427192672112019,-0.01268170543266824
-0.005426852672112018,-0.01794787467339738
-0.005426512672112018,-0.01857323227073396
-0.005426172672112019,-0.01314249524123204
-0.005425832672112018,-0.01228674273961356
-0.005425492672112018,-0.01199052071982254
-0.005425152672112019,-0.008402942924575817
-0.005424812672112018,-0.006395215901547833
-0.005424472672112018,-0.00688891926786619
-0.005424132672112019,-0.005440722726665677
-0.005423792672112018,-0.006164820997266951
-0.005423452672112018,-0.006724351479093405
-0.005423112672112019,-0.006526870132566062
-0.005422772672112018,-0.006263561670528827
-0.005422432672112018,-0.005835685419720362
-0.005422092672112019,-0.005934426092984033
-0.005421752672112018,-0.005243241380141686
-0.005421412672112018,-0.007086400614393532
-0.005421072672112019,-0.005934426092984033
-0.005420732672112018,-0.007711758211724371
-0.005420392672112018,-0.004552056667292635
-0.005420052672112019,-0.008337115809066702
-0.005419712672112018,-0.00860042427110286
-0.005419372672112018,-0.008435856482330374
-0.005419032672112019,-0.01103602754494038
-0.005418692672112018,-0.01110185466045381
-0.005418352672112018,-0.01347163081877761
-0.005418012672112019,-0.01890236784827953
-0.005417672672112018,-0.01143099023799884
-0.005417332672112018,-0.01350454437653217
-0.005416992672112019,-0.01429446976264154
-0.005416652672112018,-0.008567510713352733
