Analysis/files/cmb03_wrd01/d2s02_ch46.csv

#Digilent WaveForms Oscilloscope Acquisition
#Device Name: ADP3450
#Serial Number: SN:210018B9D9B0
#Date Time: 2024-08-13 11:19:57.517.610.630
#Sample rate: 2.94118e+06Hz
#Samples: 32768
#Trigger: Source: Channel 3 Type: Edge Condition: Rising Level: 60 mV Hyst.: Auto HoldOff: 0 s
#Channel 3: Range: 200 mV/div Offset: 0 V Attenuation: 1 X Coupling: DC Bandwidth: 0 Hz Sample Mode: Average

Time (s),Channel 3 (V)
-0.005570424181091878,0.01410993057954124
-0.005570084181091877,0.01364914077097954
-0.005569744181091877,0.01480111529238694
-0.005569404181091878,0.01351748653995922
-0.005569064181091877,0.01539355933196754
-0.005568724181091877,0.0146036339458596
-0.005568384181091878,0.01308961028914997
-0.005568044181091877,0.01035778499553095
-0.005567704181091877,0.01542647288972353
-0.005567364181091878,0.0141428441372958
-0.005567024181091877,0.01335291875118565
-0.005566684181091877,0.01292504250037719
-0.005566344181091878,0.008382971530248308
-0.005566004181091877,0.007263910566598575
-0.005565664181091877,0.01012739009123984
-0.005565324181091878,0.01022613076450351
-0.005564984181091877,0.009041242685342742
-0.005564644181091877,0.01085148836184009
-0.005564304181091878,0.008876674896566664
-0.005563964181091877,0.00854753931902289
-0.005563624181091877,0.009534946051657807
-0.005563284181091878,0.008876674896566664
-0.005562944181091878,0.006441071622733869
-0.005562604181091877,0.006408158064974882
-0.005562264181091878,0.006046108929674754
-0.005561924181091878,0.006309417391710731
-0.005561584181091877,0.006177763160692982
-0.005561244181091878,0.006375244507220324
-0.005560904181091878,0.006309417391711329
-0.005560564181091877,0.006046108929674754
-0.005560224181091878,0.005223269985810825
-0.005559884181091878,0.0043346039264394
-0.005559544181091877,0.005256183543565383
-0.005559204181091877,0.00700060210455691
-0.005558864181091878,0.006375244507221461
-0.005558524181091877,0.00528909710131994
-0.005558184181091877,0.006210676718447538
-0.005557844181091878,0.00203065488362639
-0.005557504181091877,0.002392704018918914
-0.005557164181091877,0.006737293642520453
-0.005556824181091878,0.004894134408268608
-0.005556484181091877,0.005716973352129182
-0.005556144181091877,0.002195222672391572
-0.005555804181091878,-0.000174553485932229
-0.005555464181091877,0.001141988824245744
-0.005555124181091877,0.002985148058500942
-0.005554784181091878,0.001997741325866025
-0.005554444181091877,0.002886407385237271
-0.005554104181091877,0.004795393735001583
-0.005553764181091878,0.004466258157456012
-0.005553424181091877,0.004992875081528926
-0.005553084181091877,0.005519492005601839
-0.005552744181091878,0.006177763160692982
-0.005552404181091877,0.00403838190664677
-0.005552064181091877,0.003248456520537399
-0.005551724181091878,0.00403838190664677
-0.005551384181091877,0.003445937867063784
-0.005551044181091877,0.002919320942991828
-0.005550704181091878,0.004235863253174112
-0.005550364181091877,0.00186608709484642
-0.005550024181091877,0.002096481999127901
-0.005549684181091878,0.002754753154219042
-0.005549344181091877,0.0007799396889425628
-0.005549004181091877,-0.0008986517565367963
-0.005548664181091878,-0.0003062077169547683
-0.005548324181091877,5.584141833961239e-05
-0.005547984181091877,-0.003103860126092122
-0.005547644181091878,-0.004749538013819977
-0.005547304181091877,-0.003432995703627156
-0.005546964181091877,0.002359790461164357
-0.005546624181091878,0.00380798700236487
-0.005546284181091877,0.004959961523768801
-0.005545944181091877,0.001899000652600558
-0.005545604181091878,-0.000207467043691097
-0.005545264181091877,0.002623098923198898
-0.005544924181091877,0.001569865075054987
-0.005544584181091878,-0.0004049483902184396
-0.005544244181091877,-4.289925491759303e-05
-0.005543904181091877,0.0003520634381363738
-0.005543564181091878,0.001602778632809544
-0.005543224181091877,0.001668605748320394
-0.005542884181091877,0.002623098923200814
-0.005542544181091878,0.002359790461164357
-0.005542204181091878,0.003347197193799275
-0.005541864181091877,0.002721839596464486
-0.005541524181091878,0.003083888731764614
-0.005541184181091878,0.009238724031855597
-0.005540844181091877,0.004992875081528926
-0.005540504181091878,0.005684059794374625
-0.005540164181091878,0.00634233094946457
-0.005539824181091877,0.005947368256411082
-0.005539484181091878,0.004367517484192341
-0.005539144181091878,0.005289097101318263
-0.005538804181091877,0.00426877681092867
-0.005538464181091877,0.002425617576673472
-0.005538124181091878,0.00137238372852956
-0.005537784181091877,0.00107616170873663
-0.005537444181091877,-0.001096133103064139
-0.005537104181091878,-0.004519143109531852
-0.005536764181091877,-0.002050626277946295
-0.005536424181091877,-9.985697163754359e-06
-0.005536084181091878,-0.0002732941591997323
-0.005535744181091877,0.0009115939199638446
-0.005535404181091877,-0.004058353300974278
-0.005535064181091878,-0.005572376957681152
-0.005534724181091877,-0.001688577142646167
-0.005534384181091877,-0.00369630416567415
-0.005534044181091878,-0.00214936695121278
-0.005533704181091877,0.001043248150982073
-0.005533364181091877,0.001833173537091444
-0.005533024181091878,-0.0001416399281819828
-0.005532684181091877,0.001174902382000301
-0.005532344181091877,0.001964827768109672
-0.005532004181091878,0.001010334593227516
-0.005531664181091877,0.0009445074777184018
-0.005531324181091877,-0.0008986517565367963
-0.005530984181091878,0.0001874956493635883
-0.005530644181091877,0.002820580269728157
-0.005530304181091877,0.001866087094846001
-0.005529964181091878,-0.0006682568522548965
-0.005529624181091877,-0.001359441565098141
-0.005529284181091877,-9.985697163754359e-06
-0.005528944181091878,-0.002610156759773766
-0.005528604181091877,-0.003762131281183205
-0.005528264181091877,-0.003729217723428708
-0.005527924181091878,-0.003762131281183265
-0.005527584181091877,-0.00191897204692645
-0.005527244181091877,-0.001030305987555025
-0.005526904181091878,-0.007020573498884419
-0.005526564181091877,-0.002083539835690315
-0.005526224181091877,0.003709246329101199
-0.005525884181091878,0.004005468348892213
-0.005525544181091877,0.003610505655830942
-0.005525204181091877,-9.985697163754359e-06
-0.005524864181091878,-0.0001087263704274257
-0.005524524181091877,0.001931914210354217
-0.005524184181091877,0.001438210844036758
-0.005523844181091878,-0.002116453393455409
-0.005523504181091877,-0.005440722726675914
-0.005523164181091877,-0.01106894110269494
-0.005522824181091878,-0.02512303026389083
-0.005522484181091877,-0.04500281914768649
-0.005522144181091877,-0.068733494288679
-0.005521804181091878,-0.09773033867044381
-0.005521464181091877,-0.128471601613255
-0.005521124181091877,-0.1586204205163745
-0.005520784181091878,-0.1892300292281126
-0.005520444181091878,-0.2151659127386564
-0.005520104181091877,-0.2344861711406286
-0.005519764181091878,-0.2476515942424514
-0.005519424181091878,-0.2597637834961064
-0.005519084181091877,-0.2649641256213485
-0.005518744181091878,-0.2647995578325757
-0.005518404181091878,-0.2624297816742519
-0.005518064181091877,-0.2577560564731005
-0.005517724181091877,-0.2502517653050614
-0.005517384181091878,-0.2440969300049705
-0.005517044181091877,-0.234749479602665
-0.005516704181091877,-0.2270806206458532
-0.005516364181091878,-0.2239209191014215
-0.005516024181091877,-0.2107554959995929
-0.005515684181091877,-0.1997623677095708
-0.005515344181091878,-0.1928834341388809
-0.005515004181091877,-0.1865311174922389
-0.005514664181091877,-0.1835688972943287
-0.005514324181091878,-0.1779406789183097
-0.005513984181091877,-0.1708313504433152
-0.005513644181091877,-0.1654335269715678
-0.005513304181091878,-0.1610231102324652
-0.005512964181091877,-0.1556252867607098
-0.005512624181091877,-0.1487463531900073
-0.005512284181091878,-0.1424598636588869
-0.005511944181091877,-0.137621570668967
-0.005511604181091877,-0.1316313031576376
-0.005511264181091878,-0.1262993068013994
-0.005510924181091877,-0.1219547171777979
-0.005510584181091877,-0.1165239801482959
-0.005510244181091878,-0.1114223786963396
-0.005509904181091877,-0.1084601584984294
-0.005509564181091877,-0.1028648536801547
-0.005509224181091878,-0.09957349790469899
-0.005508884181091877,-0.09710498107309884
-0.005508544181091877,-0.09249708298746923
-0.005508204181091878,-0.08831706115264049
-0.005507864181091877,-0.08581563076328844
-0.005507524181091877,-0.0826888427766112
-0.005507184181091878,-0.08074694286909234
-0.005506844181091877,-0.07673148882303386
-0.005506504181091877,-0.07534911939734498
-0.005506164181091878,-0.07508581093530853
-0.005505824181091877,-0.06787774178705183
-0.005505484181091877,-0.06310527591264972
-0.005505144181091878,-0.05908982186659376
-0.005504804181091877,-0.05639091013072361
-0.005504464181091877,-0.05833281003823895
-0.005504124181091878,-0.05523893560931058
-0.005503784181091877,-0.05000567992633641
-0.005503444181091877,-0.0502360748306179
-0.005503104181091878,-0.0481625206920808
-0.005502764181091877,-0.04552943607171085
-0.005502424181091877,-0.0425672158738061
-0.005502084181091878,-0.04036200750425076
-0.005501744181091877,-0.0382555398079578
-0.005501404181091877,-0.03753144153735886
-0.005501064181091878,-0.03700482461328594
-0.005500724181091877,-0.03427299931966219
-0.005500384181091877,-0.03674151615124949
-0.005500044181091878,-0.03664277547798581
-0.005499704181091878,-0.03364764172232657
-0.005499364181091877,-0.03466796201271239
-0.005499024181091878,-0.03348307393354833
-0.005498684181091878,-0.03144243335276951
-0.005498344181091877,-0.03068542152441098
-0.005498004181091878,-0.03117912489072934
-0.005497664181091878,-0.02966510123402246
-0.005497324181091877,-0.02923722498321047
-0.005496984181091878,-0.02953344700300148
-0.005496644181091878,-0.02719658440243217
-0.005496304181091877,-0.0254521658414364
-0.005495964181091877,-0.02278616766331727
-0.005495624181091878,-0.02673579459385694
-0.005495284181091877,-0.01709212217177889
-0.005494944181091877,-0.01794787467339738
-0.005494604181091878,-0.0212392304488471
-0.005494264181091877,-0.01814535601992472
-0.005493924181091877,-0.01663133236321509
-0.005493584181091878,-0.01870488650174842
-0.005493244181091877,-0.01768456621136092
-0.005492904181091877,-0.01761873909585181
-0.005492564181091878,-0.01761873909585181
-0.005492224181091877,-0.01607180188138762
-0.005491884181091877,-0.01702629505626978
-0.005491544181091878,-0.01705920861402428
-0.005491204181091877,-0.01643385101668775
-0.005490864181091877,-0.01768456621136092
-0.005490524181091878,-0.01886945429052498
-0.005490184181091877,-0.01557809851506927
-0.005489844181091877,-0.01617054255465129
-0.005489504181091878,-0.01570975274608749
-0.005489164181091877,-0.01383367995407774
-0.005488824181091877,-0.01070689196739481
-0.005488484181091878,-0.009357436099457973
-0.005488144181091877,-0.008830819175383024
-0.005487804181091877,-0.007711758211730118
-0.005487464181091878,-0.00790923955825746
-0.005487124181091877,-0.004716624456066978
-0.005486784181091877,-0.005572376957683906
-0.005486444181091878,-0.00665852436358429
-0.005486104181091877,-0.006197734555020371
-0.005485764181091877,-0.006131907439511376
-0.005485424181091878,-0.006856005710111633
-0.005485084181091877,-0.00820546157805039
-0.005484744181091877,-0.009258695426194301
-0.005484404181091878,-0.01185886648880431
-0.005484064181091877,-0.01070689196739033
-0.005483724181091877,-0.008238375135803031
-0.005483384181091878,-0.007382622634184546
-0.005483044181091877,-0.006000253208493866
-0.005482704181091877,-0.006395215901547833
-0.005482364181091878,-0.007547190422957332
-0.005482024181091877,-0.004519143109534845
-0.005481684181091877,-0.002741810990791994
-0.005481344181091878,-0.004552056667292635
-0.005481004181091877,-0.00402543974321577
-0.005480664181091877,-0.001853144931418952
-0.005480324181091878,-0.003235514357110351
-0.005479984181091877,-0.00451914310953742
-0.005479644181091877,-0.00415709397423795
-0.005479304181091878,-0.004486229551783521
-0.005478964181091878,-0.006921832825616317
-0.005478624181091877,-0.007448449749693661
-0.005478284181091878,-0.007382622634184546
-0.005477944181091878,-0.007810498884993011
-0.005477604181091877,-0.007250968403166318
-0.005477264181091878,-0.006033166766247705
-0.005476924181091878,-0.006395215901547175
-0.005476584181091877,-0.004716624456065421
-0.005476244181091878,-0.002708897433037437
-0.005475904181091878,-0.00267598387528294
-0.005475564181091877,-0.00165566358489161
-0.005475224181091877,0.0009115939199638446
-0.005474884181091878,0.001668605748317281
-0.005474544181091877,0.001240729497509416
-0.005474204181091877,-0.001096133103064139
-0.005473864181091878,-0.002313934739980537
-0.005473524181091877,0.00403838190664677
-0.005473184181091877,0.003445937867064742
-0.005472844181091878,0.002458531134429825
-0.005472504181091877,0.0006811990156819448
-0.005472164181091877,-0.001984799162437181
-0.005471824181091878,-0.001853144931419192
-0.005471484181091877,-0.0005695161789912252
-0.005471144181091877,-0.0007669975255185678
-0.005470804181091878,-0.0004049483902190982
-0.005470464181091877,-0.0004049483902184396
-0.005470124181091877,-0.001688577142646167
-0.005469784181091878,-0.001622750027137053
-0.005469444181091877,-0.004255834647501621
-0.005469104181091877,-0.003663390607919593
-0.005468764181091878,-0.003860871954446936
-0.005468424181091877,-0.004848278687083649
-0.005468084181091877,-0.004519143109538078
-0.005467744181091878,-0.003334255030374022
-0.005467404181091877,-0.002807638106301108
-0.005467064181091877,-0.002577243202019209
-0.005466724181091878,-0.0004378619479729968
-0.005466384181091877,-0.0004378619479736553
-0.005466044181091877,-0.0007999110832731249
-0.005465704181091878,0.0005824583424182735
-0.005465364181091877,0.0006482854579255319
-0.005465024181091877,-0.0003720348324638825
-0.005464684181091878,0.0006153719001728307
-0.005464344181091877,0.0007799396889427425
-0.005464004181091877,-0.0007999110832731249
-0.005463664181091878,-0.00517741426462922
-0.005463324181091877,-0.0005695161789923628
-0.005462984181091877,-0.00119487377632781
-0.005462644181091878,0.001438210844036758
-0.005462304181091877,0.0002533227648640813
-0.005461964181091877,-0.004486229551783521
-0.005461624181091878,-0.004617883782801749
-0.005461284181091877,-0.002116453393457085
-0.005460944181091877,-0.003038033010583008
-0.005460604181091878,-0.003729217723428708
-0.005460264181091877,-0.00241267541324774
-0.005459924181091877,-0.00313677368384668
-0.005459584181091878,-0.004058353300974278
-0.005459244181091877,-0.002873465221810881
-0.005458904181091877,-0.003235514357110351
-0.005458564181091878,-0.002511416086510094
-0.005458224181091877,-0.002149366951209188
-0.005457884181091877,-0.001721490700400724
-0.005457544181091878,-0.002610156759773766
-0.005457204181091878,-0.0007669975255219206
-0.005456864181091877,-0.0008657381987822392
-0.005456524181091878,-0.001721490700400724
-0.005456184181091878,0.0001874956493601158
-0.005455844181091877,-0.0009973924298004675
-0.005455504181091878,-0.001721490700400724
-0.005455164181091878,-0.0005036890634843262
-0.005454824181091877,0.001602778632809544
-0.005454484181091877,-0.002412675413246423
-0.005454144181091878,-0.000569516178994578
-0.005453804181091877,-0.0007011704100094536
-0.005453464181091877,-0.00188605848917351
-0.005453124181091878,-0.004947019360341753
-0.005452784181091877,0.0009445074777184018
-0.005452444181091877,-0.0005695161789912252
-0.005452104181091878,0.0006153719001706752
-0.005451764181091877,0.0027876667119736
-0.005451424181091877,-0.002478502528755537
-0.005451084181091878,0.002623098923191534
-0.005450744181091877,-0.0003062077169547683
-0.005450404181091877,-0.0005366026212366681
-0.005450064181091878,-0.002445588970997508
-0.005449724181091877,-0.0009315653142913533
-0.005449384181091877,-0.001721490700400724
-0.005449044181091878,-0.002774724548544635
-0.005448704181091877,-0.001096133103064139
-0.005448364181091877,-0.0007999110832731249
-0.005448024181091878,-0.0008657381987822392
-0.005447684181091877,5.584141834535986e-05
-0.005447344181091877,0.001438210844036758
-0.005447004181091878,0.0007470261311910591
-0.005446664181091877,0.002162309114637015
-0.005446324181091877,0.002392704018918914
-0.005445984181091878,0.001010334593227516
-0.005445644181091877,0.001569865075057082
-0.005445304181091877,0.002721839596464486
-0.005444964181091878,0.0023268769034098
-0.005444624181091877,0.001141988824244547
-0.005444284181091877,0.0004837176691546022
-0.005443944181091878,-0.0005036890634821109
-0.005443604181091877,-4.289925492435828e-05
-0.005443264181091877,-0.00336716858812858
-0.005442924181091878,-0.008567510713348603
-0.005442584181091877,-0.001227787334081649
-0.005442244181091877,-0.000832824641027682
-0.005441904181091878,0.001109075266491187
-0.005441564181091877,-0.002083539835705881
-0.005441224181091877,-0.004848278687083649
-0.005440884181091878,-0.002972205895073894
-0.005440544181091877,-0.001754404258154802
-0.005440204181091877,-0.001491095796118824
-0.005439864181091878,-0.003202600799355794
-0.005439524181091877,-0.001721490700398808
-0.005439184181091877,-0.0006682568522548965
-0.005438844181091878,0.0009774210354729588
-0.005438504181091877,-0.001622750027137292
-0.005438164181091877,-0.001754404258155281
-0.005437824181091878,-0.0001416399281819828
-0.005437484181091877,-0.002379761855490848
-0.005437144181091877,-0.001820231373664395
-0.005436804181091878,-0.002412675413246423
-0.005436464181091878,-0.001392355122857009
-0.005436124181091877,0.0005166312269091594
-0.005435784181091878,0.003709246329101199
-0.005435444181091878,0.002063568441376337
-0.005435104181091877,0.002491444692182586
-0.005434764181091878,0.004466258157456012
-0.005434424181091878,0.004104209022156542
-0.005434084181091877,0.003149715847273728
-0.005433744181091878,0.002096481999127901
-0.005433404181091878,0.001800259979337425
-0.005433064181091877,0.0009115939199638446
-0.005432724181091877,-0.001951885604682624
-0.005432384181091878,-0.002972205895072038
-0.005432044181091877,0.002030654883618786
-0.005431704181091877,0.002688926038709928
-0.005431364181091878,0.002392704018919454
-0.005431024181091877,-0.003400082145883136
-0.005430684181091877,-0.001622750027137053
-0.005430344181091878,0.001010334593222726
-0.005430004181091877,-0.0009644788720459105
-0.005429664181091877,-0.00119487377632781
-0.005429324181091878,-0.002313934739980717
-0.005428984181091877,-0.001556922911627938
-0.005428644181091877,0.003116802289519171
-0.005428304181091878,-0.002149366951200387
-0.005427964181091877,-0.003992526185465165
-0.005427624181091877,0.0006153719001728307
-0.005427284181091878,0.001043248150982073
-0.005426944181091877,-0.001556922911627938
-0.005426604181091877,-0.0002732941592002112
-0.005426264181091878,0.000417890553645488
-0.005425924181091877,0.005552405563356397
-0.005425584181091877,0.005124529312547154
-0.005425244181091878,-0.002478502528755537
-0.005424904181091877,-0.002544329644264652
-0.005424564181091877,-0.0004707755057275538
-0.005424224181091878,-0.003169687241601236
-0.005423884181091877,-0.004486229551782084
-0.005423544181091877,-0.00369630416567415
-0.005423204181091878,-0.002116453393455409
-0.005422864181091877,-0.002478502528755418
-0.005422524181091877,-0.002412675413246423
-0.005422184181091878,-0.000832824641027682
-0.005421844181091877,-0.0003062077169550078
-0.005421504181091877,-0.0004378619479729968
-0.005421164181091878,0.00130655661301853
-0.005420824181091877,0.002458531134424496
-0.005420484181091877,0.0005166312269091594
-0.005420144181091878,0.000714112573436502
-0.005419804181091877,0.0004508041113975306
-0.005419464181091877,-0.0009315653142913533
-0.005419124181091878,-0.002807638106301108
-0.005418784181091877,-0.0005036890634863617
-0.005418444181091877,-0.002840551664055666
-0.005418104181091878,-0.003729217723428708
-0.005417764181091877,-0.001754404258156359
-0.005417424181091877,-0.002346848297737309
