Analysis/files/cmb03_wrd01/d2s05_ch06.csv

#Digilent WaveForms Oscilloscope Acquisition
#Device Name: ADP3450
#Serial Number: SN:210018B9D9B0
#Date Time: 2024-08-13 12:38:28.660.482.460
#Sample rate: 2.94118e+06Hz
#Samples: 32768
#Trigger: Source: Channel 3 Type: Edge Condition: Rising Level: 60 mV Hyst.: Auto HoldOff: 0 s
#Channel 3: Range: 200 mV/div Offset: 0 V Attenuation: 1 X Coupling: DC Bandwidth: 0 Hz Sample Mode: Average

Time (s),Channel 3 (V)
-0.005570442676056339,0.01499859663891429
-0.005570102676056338,0.01447197971484161
-0.005569762676056338,0.0146036339458596
-0.005569422676056339,0.0141428441372958
-0.005569082676056338,0.01226677134528455
-0.005568742676056338,0.01144393240142212
-0.005568402676056339,0.009699513840430593
-0.005568062676056338,0.009172896916362049
-0.005567722676056338,0.01157558663244035
-0.005567382676056339,0.01127936461264933
-0.005567042676056338,0.01016030364899834
-0.005566702676056338,0.01233259846079516
-0.005566362676056339,0.01236551201854972
-0.005566022676056338,0.01085148836184111
-0.005565682676056338,0.01141101884366756
-0.005565342676056339,0.01019321720674895
-0.005565002676056338,0.006967688546802412
-0.005564662676056338,0.00700060210455691
-0.005564322676056339,0.005980281814165639
-0.005563982676056338,0.0042029496954174
-0.005563642676056338,0.0030180616162555
-0.005563302676056339,-0.0006024297367457822
-0.005562962676056339,0.005519492005590703
-0.005562622676056338,0.00653981229599311
-0.005562282676056339,0.008843761338812107
-0.005561942676056339,0.007889268163931687
-0.005561602676056338,0.00426877681092867
-0.005561262676056338,0.006342330949465767
-0.005560922676056339,0.0083171444147356
-0.005560582676056338,0.007395564797611595
-0.005560242676056338,0.006868947873538681
-0.005559902676056339,0.006111936045185245
-0.005559562676056338,0.00630941739171121
-0.005559222676056338,0.007889268163929951
-0.005558882676056339,0.008086749510456934
-0.005558542676056338,0.006243590276202096
-0.005558202676056338,0.00607902248742931
-0.005557862676056339,0.005914454698656824
-0.005557522676056338,0.005025788639283483
-0.005557182676056338,0.004729566619492469
-0.005556842676056339,0.003906727675630038
-0.005556502676056338,0.001734432863827772
-0.005556162676056338,0.002063568441373343
-0.005555822676056339,0.001635692190564879
-0.005555482676056338,-0.0003720348324638825
-0.005555142676056338,-0.0003720348324638825
-0.005554802676056339,0.0005824583424165373
-0.005554462676056338,0.0002533227648727025
-0.005554122676056338,0.0009115939199638446
-0.005553782676056339,0.0002204092071181454
-0.005553442676056338,-0.001622750027137053
-0.005553102676056338,-0.005605290515438462
-0.005552762676056339,0.001899000652600558
-0.005552422676056338,0.002853493827482714
-0.005552082676056338,0.00153695151730043
-0.005551742676056339,0.0030180616162555
-0.005551402676056338,-0.00152400935387404
-0.005551062676056338,-0.00188605848917351
-0.005550722676056339,0.001207815939754859
-0.005550382676056338,0.0007470261311899216
-0.005550042676056338,0.0001216685338544741
-0.005549702676056339,-7.581281267286857e-05
-0.005549362676056338,0.001536951517297376
-0.005549022676056338,-0.0001416399281819828
-0.005548682676056339,0.001010334593227516
-0.005548342676056338,0.001207815939755398
-0.005548002676056338,0.001504037959545873
-0.005547662676056339,0.002063568441373343
-0.005547322676056338,0.002195222672390614
-0.005546982676056338,0.001668605748318658
-0.005546642676056339,0.001174902382000301
-0.005546302676056338,0.0006811990156781132
-0.005545962676056338,-0.00142526868060971
-0.005545622676056339,-0.0007669975255185678
-0.005545282676056338,-0.001359441565104547
-0.005544942676056338,-0.003531736376901365
-0.005544602676056339,-0.003531736376901365
-0.005544262676056338,-0.002281021182227656
-0.005543922676056338,-0.001984799162437181
-0.005543582676056339,-0.002544329644264652
-0.005543242676056338,-0.0003720348324675945
-0.005542902676056338,-0.002412675413246423
-0.005542562676056339,-0.003860871954446936
-0.005542222676056339,0.00499287508151282
-0.005541882676056338,0.004861220850510698
-0.005541542676056339,0.01157558663244035
-0.005541202676056339,0.001899000652618161
-0.005540862676056338,-0.002511416086510094
-0.005540522676056338,-0.001556922911627938
-0.005540182676056339,0.0003849769958873986
-0.005539842676056338,-0.001688577142646167
-0.005539502676056338,-0.003400082145883136
-0.005539162676056339,-0.002906378779565678
-0.005538822676056338,-0.0006682568522548965
-0.005538482676056338,-0.00165566358489161
-0.005538142676056339,-0.001161960218574151
-0.005537802676056338,-0.001096133103064139
-0.005537462676056338,-0.002050626277946295
-0.005537122676056339,-0.002412675413245764
-0.005536782676056338,-0.00313677368384668
-0.005536442676056338,-0.004025439743219721
-0.005536102676056339,-0.005309068495645114
-0.005535762676056338,-0.002643070317528323
-0.005535422676056338,-0.002774724548546551
-0.005535082676056339,-0.001984799162438617
-0.005534742676056338,-0.002379761855491866
-0.005534402676056338,-0.00142526868060971
-0.005534062676056339,-0.0005036890634837873
-0.005533722676056338,0.0001874956493635883
-0.005533382676056338,-0.0003720348324638825
-0.005533042676056339,-0.002577243202019209
-0.005532702676056338,-0.0004707755057275538
-0.005532362676056338,-0.002774724548546551
-0.005532022676056339,0.0001874956493635883
-0.005531682676056338,0.001997741325864229
-0.005531342676056338,0.002458531134428029
-0.005531002676056339,0.003775073444610313
-0.005530662676056338,-0.0006682568522548965
-0.005530322676056338,-0.0005366026212366681
-0.005529982676056339,0.0008128532467001733
-0.005529642676056338,0.001339470170774165
-0.005529302676056338,0.001931914210355115
-0.005528962676056339,0.002293963345655243
-0.005528622676056338,0.002590185365447095
-0.005528282676056338,0.003050975174010056
-0.005527942676056339,0.001833173537091444
-0.005527602676056338,0.001174902381997547
-0.005527262676056338,-0.0003391212747093254
-0.005526922676056339,-0.002083539835700852
-0.005526582676056338,-0.002379761855488933
-0.005526242676056338,-0.0007669975255185678
-0.005525902676056339,-0.00188605848917351
-0.005525562676056338,-0.002906378779559272
-0.005525222676056338,0.0001216685338544741
-0.005524882676056339,0.0007799396889456162
-0.005524542676056338,-0.0001745534859354024
-0.005524202676056338,0.0004508041114000451
-0.005523862676056339,0.0001874956493635883
-0.005523522676056338,-0.001853144931428412
-0.005523182676056338,-0.007053487056638975
-0.005522842676056339,-0.01811244246217016
-0.005522502676056338,-0.0381897126924982
-0.005522162676056338,-0.06468512668486848
-0.005521822676056339,-0.09279330500726024
-0.005521482676056338,-0.1200786443858478
-0.005521142676056338,-0.1529263750248361
-0.005520802676056339,-0.1802117144033639
-0.005520462676056339,-0.2077932758016326
-0.005520122676056338,-0.2317543458470004
-0.005519782676056339,-0.2401143895166579
-0.005519442676056339,-0.2487706552060907
-0.005519102676056338,-0.2542343057933629
-0.005518762676056338,-0.251996183866053
-0.005518422676056339,-0.2491656178991662
-0.005518082676056338,-0.245676780777178
-0.005517742676056338,-0.2408055742295035
-0.005517402676056339,-0.2347494796026761
-0.005517062676056338,-0.2281009409362445
-0.005516722676056338,-0.2205308226526964
-0.005516382676056339,-0.2121707789830541
-0.005516042676056338,-0.2046006606994907
-0.005515702676056338,-0.1947265933731236
-0.005515362676056339,-0.1869919073008168
-0.005515022676056338,-0.1786976907466543
-0.005514682676056338,-0.1708642640010697
-0.005514342676056339,-0.1633270592752898
-0.005514002676056338,-0.1578634086880197
-0.005513662676056338,-0.1521693631964813
-0.005513322676056339,-0.1457512194343543
-0.005512982676056338,-0.141637024715023
-0.005512642676056338,-0.1375228299957034
-0.005512302676056339,-0.1323554014282379
-0.005511962676056338,-0.1296564896923642
-0.005511622676056338,-0.1283070338244274
-0.005511282676056339,-0.1219218036200433
-0.005510942676056338,-0.1111919837920577
-0.005510602676056338,-0.1123439583134672
-0.005510262676056339,-0.1093159110000479
-0.005509922676056338,-0.1036218655085095
-0.005509582676056338,-0.1006925588683539
-0.005509242676056339,-0.09799364713248027
-0.005508902676056338,-0.09519599472333537
-0.005508562676056338,-0.09104888644626871
-0.005508222676056339,-0.0872967408622492
-0.005507882676056338,-0.0841041257600517
-0.005507542676056338,-0.08110899200439248
-0.005507202676056339,-0.07610613122569979
-0.005506862676056338,-0.07255146698820329
-0.005506522676056338,-0.07018169082987952
-0.005506182676056339,-0.06794356890256961
-0.005505842676056338,-0.06458638601160283
-0.005505502676056338,-0.06350023860570442
-0.005505162676056339,-0.06119628956288542
-0.005504822676056338,-0.05816824224946646
-0.005504482676056338,-0.05833281003823895
-0.005504142676056339,-0.05593012032215628
-0.005503802676056338,-0.05395530685688028
-0.005503462676056338,-0.0525400238734369
-0.005503122676056339,-0.052309628969155
-0.005502782676056338,-0.04954489011776963
-0.005502442676056338,-0.04812960713432624
-0.005502102676056339,-0.04826126136534448
-0.005501762676056338,-0.04536486828294129
-0.005501422676056338,-0.04417998020377939
-0.005501082676056339,-0.04236973452727875
-0.005500742676056338,-0.0434887954909207
-0.005500402676056338,-0.0363465534581948
-0.005500062676056339,-0.03535914672555809
-0.005499722676056339,-0.03226527229663535
-0.005499382676056338,-0.02785485555751907
-0.005499042676056339,-0.0328906298939663
-0.005498702676056339,-0.0341742586463917
-0.005498362676056338,-0.03025754527360174
-0.005498022676056338,-0.02851312671261021
-0.005497682676056339,-0.0285789538281192
-0.005497342676056338,-0.02064678640927106
-0.005497002676056338,-0.02782194199976451
-0.005496662676056339,-0.0278877691152735
-0.005496322676056338,-0.02555090651470007
-0.005495982676056338,-0.02558382007245463
-0.005495642676056339,-0.02548507939919114
-0.005495302676056338,-0.02495846247511804
-0.005494962676056338,-0.0236090066071812
-0.005494622676056339,-0.02199624227721084
-0.005494282676056338,-0.01946189833010701
-0.005493942676056338,-0.01946189833010701
-0.005493602676056339,-0.0183099238086996
-0.005493262676056338,-0.01705920861402434
-0.005492922676056338,-0.01626928322791496
-0.005492582676056339,-0.01626928322791496
-0.005492242676056338,-0.01459069178243255
-0.005491902676056338,-0.01412990197386875
-0.005491562676056339,-0.01399824774285076
-0.005491222676056338,-0.01070689196739481
-0.005490882676056338,-0.01044358350535836
-0.005490542676056339,-0.01449195110916888
-0.005490202676056338,-0.008995386964157845
-0.005489862676056338,-0.004914105802592763
-0.005489522676056339,-0.00688891926786619
-0.005489182676056338,-0.008402942924575817
-0.005488842676056338,-0.01274753254817735
-0.005488502676056339,-0.01538061716854192
-0.005488162676056338,-0.01278044610593215
-0.005487822676056338,-0.01291210033695014
-0.005487482676056339,-0.01357037149204128
-0.005487142676056338,-0.01380076639631863
-0.005486802676056338,-0.01129933600697684
-0.005486462676056339,-0.01162847158452241
-0.005486122676056338,-0.01169429870002836
-0.005485782676056338,-0.009949880139040001
-0.005485442676056339,-0.01057523773637659
-0.005485102676056338,-0.0102131886010767
-0.005484762676056338,-0.01034484283209469
-0.005484422676056339,-0.009818225908021772
-0.005484082676056338,-0.01080563264065573
-0.005483742676056338,-0.009291608983948858
-0.005483402676056339,-0.009324522541703417
-0.005483062676056338,-0.01050941062086376
-0.005482722676056338,-0.008468770040084931
-0.005482382676056339,-0.007942153116012016
-0.005482042676056338,-0.007942153116008184
-0.005481702676056338,-0.005835685419720362
-0.005481362676056339,-0.005572376957683906
-0.005481022676056338,-0.005967339650738112
-0.005480682676056338,-0.005704031188702134
-0.005480342676056339,-0.006131907439511376
-0.005480002676056338,-0.0108385461984031
-0.005479662676056338,-0.005374895611156563
-0.005479322676056339,-0.002248107624473638
-0.005478982676056339,-0.00234684829773713
-0.005478642676056338,-0.006954746383375304
-0.005478302676056339,-0.00586859897747492
-0.005477962676056339,-0.003465909261396621
-0.005477622676056338,-0.003531736376901365
-0.005477282676056338,-0.003564649934655922
-0.005476942676056339,-0.003531736376901425
-0.005476602676056338,-0.005276154937892892
-0.005476262676056338,0.001866087094846001
-0.005475922676056339,5.584141834865265e-05
-0.005475582676056338,-0.005736944746456691
-0.005475242676056338,-0.002017712720191738
-0.005474902676056339,-0.0003391212747123789
-0.005474562676056338,-0.002807638106301108
-0.005474222676056338,-0.001820231373664395
-0.005473882676056339,-0.002445588970999843
-0.005473542676056338,-0.0003391212747093254
-0.005473202676056338,0.004334603926437783
-0.005472862676056339,-0.0006682568522457964
-0.005472522676056338,-0.004716624456065421
-0.005472182676056338,-0.0002732941592002112
-0.005471842676056339,-0.0004378619479726974
-0.005471502676056338,-0.003663390607919593
-0.005471162676056338,-0.004716624456065421
-0.005470822676056339,-0.003103860126095056
-0.005470482676056338,-0.005506549842174791
-0.005470142676056338,-0.008567510713348603
-0.005469802676056339,-0.007547190422957332
-0.005469462676056338,-0.008205461578048474
-0.005469122676056338,-0.007942153116012016
-0.005468782676056339,-0.006625610805829733
-0.005468442676056338,-0.006493956574811504
-0.005468102676056338,-0.006493956574811504
-0.005467762676056339,-0.00494701936034732
-0.005467422676056338,-0.003465909261392251
-0.005467082676056338,-0.003070946568337565
-0.005466742676056339,-0.001820231373664395
-0.005466402676056338,-0.0005695161789942785
-0.005466062676056338,-0.002248107624473638
-0.005465722676056339,-0.0008986517565367963
-0.005465382676056338,-0.0008328246410292985
-0.005465042676056338,-0.001721490700400724
-0.005464702676056339,-0.002774724548546551
-0.005464362676056338,-0.005144500706876878
-0.005464022676056338,-0.006362302343793276
-0.005463682676056339,0.0008786803622092876
-0.005463342676056338,0.002392704018919872
-0.005463002676056338,0.002919320942991828
-0.005462662676056339,0.001833173537091444
-0.005462322676056338,0.0002862363226303728
-0.005461982676056338,0.001997741325864229
-0.005461642676056339,0.001504037959545873
-0.005461302676056338,0.000714112573430994
-0.005460962676056338,-0.002313934739982752
-0.005460622676056339,-0.003169687241601236
-0.005460282676056338,-0.001754404258159113
-0.005459942676056338,-0.003860871954446936
-0.005459602676056339,-0.005210327822383777
-0.005459262676056338,-0.004519143109537061
-0.005458922676056338,-0.003959612627710607
-0.005458582676056339,-0.005769858304211248
-0.005458242676056338,-0.003630477050163899
-0.005457902676056338,-0.003005119452828451
-0.005457562676056339,-0.003992526185465165
-0.005457222676056339,-0.0009644788720514189
-0.005456882676056338,-4.289925491831147e-05
-0.005456542676056339,-0.001754404258155281
-0.005456202676056339,0.0007470261311865089
-0.005455862676056338,-0.0004707755057275538
-0.005455522676056338,-0.001096133103064139
-0.005455182676056339,-0.001293614449591122
-0.005454842676056338,-0.0007011704100094536
-0.005454502676056338,-0.002478502528755537
-0.005454162676056339,-0.001721490700402101
-0.005453822676056338,-0.005144500706874663
-0.005453482676056338,-0.0005695161789912252
-0.005453142676056339,0.006177763160680708
-0.005452802676056338,0.006276503833956653
-0.005452462676056338,0.002162309114637015
-0.005452122676056339,-0.001886058489166145
-0.005451782676056338,-0.002643070317528323
-0.005451442676056338,-0.001820231373664395
-0.005451102676056339,-0.004190007531988196
-0.005450762676056338,-0.003959612627710607
-0.005450422676056338,-0.003531736376901365
-0.005450082676056339,-0.003729217723428348
-0.005449742676056338,-0.002313934739982752
-0.005449402676056338,-0.002379761855491866
-0.005449062676056339,-0.001820231373665413
-0.005448722676056338,-0.002116453393455409
-0.005448382676056338,-0.0006024297367457822
-0.005448042676056339,-0.001951885604682624
-0.005447702676056338,-0.0004049483902184396
-0.005447362676056338,0.0002862363226272596
-0.005447022676056339,0.0001874956493635883
-0.005446682676056338,0.001240729497509416
-0.005446342676056338,0.001174902382000301
-0.005446002676056339,0.0009445074777184018
-0.005445662676056338,0.001504037959547309
-0.005445322676056338,0.002293963345655243
-0.005444982676056339,-0.0002732941592002112
-0.005444642676056338,-0.001589836469379622
-0.005444302676056338,-9.985697163754359e-06
-0.005443962676056339,0.0005824583424182735
-0.005443622676056338,-0.004025439743221338
-0.005443282676056338,-0.004914105802592763
-0.005442942676056339,0.00130655661301853
-0.005442602676056338,0.0004508041114027991
-0.005442262676056338,0.001964827768109672
-0.005441922676056339,-0.00267598387528288
-0.005441582676056338,-0.006197734555012049
-0.005441242676056338,-0.001556922911627938
-0.005440902676056339,-0.0001745534859365399
-0.005440562676056338,-0.002873465221808905
-0.005440222676056338,-0.002149366951209966
-0.005439882676056339,-0.0009644788720459105
-0.005439542676056338,-0.002478502528756256
-0.005439202676056338,-0.002873465221810222
-0.005438862676056339,-0.004222921089747064
-0.005438522676056338,-0.004519143109536581
-0.005438182676056338,-0.00369630416567415
-0.005437842676056339,-0.00290637877956478
-0.005437502676056338,-0.003268427914865746
-0.005437162676056338,-0.003729217723428708
-0.005436822676056339,-0.001096133103064139
-0.005436482676056339,-0.0006353432945011776
-0.005436142676056338,-0.0007011704100094536
-0.005435802676056339,-0.001030305987555025
-0.005435462676056339,-0.002215194066716925
-0.005435122676056338,-0.001820231373664395
-0.005434782676056338,-0.0005695161789912252
-0.005434442676056339,-4.289925491926939e-05
-0.005434102676056338,-0.00119487377632781
-0.005433762676056338,0.0009115939199638446
-0.005433422676056339,-0.001194873776323979
-0.005433082676056338,-0.006526870132566062
-0.005432742676056338,-0.0008657381987822392
-0.005432402676056339,-0.0007669975255187475
-0.005432062676056338,-0.001063219545309582
-0.005431722676056338,0.001833173537091444
-0.005431382676056339,-0.002544329644256689
-0.005431042676056338,-0.002939292337319337
-0.005430702676056338,0.0009774210354729588
-0.005430362676056339,0.00143821084403592
-0.005430022676056338,-0.0003062077169547683
-0.005429682676056338,-9.985697163754359e-06
-0.005429342676056339,0.001207815939752643
-0.005429002676056338,0.0002862363226272596
-0.005428662676056338,-0.0003391212747093254
-0.005428322676056339,0.0004508041113986082
-0.005427982676056338,-0.0004378619479729968
-0.005427642676056338,-0.001293614449591481
-0.005427302676056339,-0.001063219545309582
-0.005426962676056338,-0.00188605848917351
-0.005426622676056338,-0.003893785512201493
-0.005426282676056339,-0.0005366026212366681
-0.005425942676056338,-0.001688577142646167
-0.005425602676056338,-0.003663390607919593
-0.005425262676056339,-0.002379761855491866
-0.005424922676056338,-0.001918972046928067
-0.005424582676056338,-0.00188605848917351
-0.005424242676056339,-0.002313934739982752
-0.005423902676056338,-0.002215194066723032
-0.005423562676056338,-0.00438748887851985
-0.005423222676056339,-0.002939292337319337
-0.005422882676056338,-0.005276154937899956
-0.005422542676056338,-0.009159954752930631
-0.005422202676056339,-0.0007011704100094536
-0.005421862676056338,0.0009445074777216946
-0.005421522676056338,0.002754753154219042
-0.005421182676056339,0.002359790461164357
-0.005420842676056338,-0.0001416399281795282
-0.005420502676056338,0.001207815939754859
-0.005420162676056339,0.003149715847273728
-0.005419822676056338,0.001734432863826455
-0.005419482676056338,0.001010334593227516
-0.005419142676056339,0.0006482854579273878
-0.005418802676056338,0.0009115939199607314
-0.005418462676056338,-0.0007999110832731249
-0.005418122676056339,-0.00188605848917351
-0.005417782676056338,-0.002017712720192756
-0.005417442676056338,-0.002577243202019209
