Analysis/files/cmb03_wrd01/d2s05_ch47.csv

#Digilent WaveForms Oscilloscope Acquisition
#Device Name: ADP3450
#Serial Number: SN:210018B9D9B0
#Date Time: 2024-08-13 15:24:27.110.321.420
#Sample rate: 2.94118e+06Hz
#Samples: 32768
#Trigger: Source: Channel 3 Type: Edge Condition: Rising Level: 60 mV Hyst.: Auto HoldOff: 0 s
#Channel 3: Range: 200 mV/div Offset: 0 V Attenuation: 1 X Coupling: DC Bandwidth: 0 Hz Sample Mode: Average

Time (s),Channel 3 (V)
-0.005570305,0.01239842557630427
-0.005569965,0.01180598153671195
-0.005569625,0.006144849602938425
-0.005569285,0.008382971530248308
-0.005568945,0.01206928999875978
-0.005568605,0.01266173403834073
-0.005568265,0.0134516594244501
-0.005567925,0.009139983358598513
-0.005567585,0.006605639411502225
-0.005567245,0.00973242739818515
-0.005566905,0.01035778499551461
-0.005566565,0.006441071622729439
-0.005566225,0.008942502012075779
-0.005565885,0.01009447653348552
-0.005565545,0.01022613076450351
-0.005565205,0.01035778499552173
-0.005564865,0.01150975951692812
-0.005564525,0.009798254513694264
-0.005564185,0.008415885088002865
-0.005563845,0.007955095279434577
-0.005563505,0.005486578447847282
-0.005563165,0.006572725853747667
-0.005562825,0.003314283636052441
-0.005562485,-0.0001745534859365399
-0.005562145,-0.001918972046928067
-0.005561805,-0.0005366026212391827
-0.005561465,-0.001524009353873381
-0.005561125,-0.002017712720191738
-0.005560785,-0.0007999110832753401
-0.005560445,-0.0009315653142913533
-0.005560105,-9.985697163754359e-06
-0.005559765,0.0004178905536447097
-0.005559425,0.002392704018918914
-0.005559085,-0.002215194066719081
-0.005558745,0.006046108929659726
-0.005558405,0.007395564797611595
-0.005558065,0.007362651239857037
-0.005557725,0.006868947873539579
-0.005557385,0.001833173537091444
-0.005557045,0.00107616170873663
-0.005556705,0.00226104978789853
-0.005556365,0.001899000652600558
-0.005556025,0.0001216685338544741
-0.005555685,0.0007141125734354243
-0.005555345,0.001569865075054987
-0.005555005,-0.0003062077169547683
-0.005554665,-0.0009644788720447131
-0.005554325,0.0005166312269091594
-0.005553985,-0.0007999110832731249
-0.005553645,-0.002281021182228195
-0.005553305,-0.001293614449591481
-0.005552965,-0.001392355122855153
-0.005552625,-0.001096133103064139
-0.005552285,-0.0001745534859365399
-0.005551945,-7.581281267286857e-05
-0.005551605,-0.0004049483902184396
-0.005551265,0.0008128532467010713
-0.005550925,0.00130655661301853
-0.005550585,0.0003849769958909309
-0.005550245,0.0008128532467029871
-0.005549905,0.002359790461164357
-0.005549565,0.001833173537091444
-0.005549225,0.001306556613015357
-0.005548885,-0.0004378619479729968
-0.005548545,-0.00540780916891112
-0.005548205,0.001767346421580893
-0.005547865,0.0009774210354729588
-0.005547525,-0.0002732941592002112
-0.005547185,-0.001491095796126487
-0.005546845,-0.005704031188702134
-0.005546505,-0.005671117630947577
-0.005546165,-0.004881192244840362
-0.005545825,-0.006066080324002262
-0.005545485,-0.005243241380138334
-0.005545145,-0.005901512535226483
-0.005544805,-0.004255834647501621
-0.005544465,-0.005506549842174791
-0.005544125,-0.006329388786035426
-0.005543785,-0.004519143109538078
-0.005543445,-0.004091266858728836
-0.005543105,-0.005835685419718745
-0.005542765,-0.00494701936034732
-0.005542425,-0.004979932918101878
-0.005542085,-0.004979932918101878
-0.005541745,-0.003795044838937822
-0.005541405,-0.003235514357110351
-0.005541065,-0.002807638106301887
-0.005540725,-0.002281021182228195
-0.005540385,-0.0007340839677640107
-0.005540045,0.0005495447846613815
-0.005539705,-0.0005695161789912252
-0.005539365,-0.0003720348324638825
-0.005539025,-0.001491095796116789
-0.005538685,-0.003432995703637694
-0.005538345,-0.008007980231521132
-0.005538005,-0.004947019360352889
-0.005537665,-0.0001087263704274257
-0.005537325,-0.00313677368384668
-0.005536985,-0.004584970225044558
-0.005536645,-0.002939292337319337
-0.005536305,-0.001129046660818696
-0.005535965,-0.002412675413244088
-0.005535625,-0.002281021182228195
-0.005535285,-0.001063219545309582
-0.005534945,-0.001063219545309582
-0.005534605,-0.00188605848917351
-0.005534265,-0.00142526868060971
-0.005533925,-0.001886058489172671
-0.005533585,-0.00369630416567415
-0.005533245,-0.004025439743219721
-0.005532905,-0.004058353300974278
-0.005532565,-0.006263561670529605
-0.005532225,-0.006164820997265934
-0.005531885,-0.005934426092984033
-0.005531545,-0.00688891926786619
-0.005531205,-0.007020573498884419
-0.005530865,-0.005078673591365549
-0.005530525,-0.005835685419720362
-0.005530185,-0.005934426092984033
-0.005529845,-0.004486229551783521
-0.005529505,-0.003860871954445619
-0.005529165,-0.00313677368384668
-0.005528825,-0.004519143109538078
-0.005528485,-0.002610156759774664
-0.005528145,-0.003103860126092122
-0.005527805,-0.004255834647501621
-0.005527465,0.0003520634381333803
-0.005527125,-0.001293614449591481
-0.005526785,0.002919320942991828
-0.005526445,0.002754753154209224
-0.005526105,-0.002643070317528323
-0.005525765,-0.0007669975255185678
-0.005525425,0.001174902381995691
-0.005525085,-0.001359441565100596
-0.005524745,-0.002774724548546551
-0.005524405,-0.002182280508967038
-0.005524065,-0.003564649934655922
-0.005523725,-0.005605290515438462
-0.005523385,-0.008896646290908781
-0.005523045,-0.01692755438300611
-0.005522705,-0.03088290287093832
-0.005522365,-0.05059812396596628
-0.005522025,-0.07712645151609104
-0.005521685,-0.1088880347492387
-0.005521345,-0.1370949537449535
-0.005521005,-0.1697452030374148
-0.005520665,-0.2009143422309803
-0.005520325,-0.2240525733323919
-0.005519985,-0.2431424368300771
-0.005519645,-0.2583814140704371
-0.005519305,-0.270032813515529
-0.005518965,-0.2733570828487605
-0.005518625,-0.2731266879444786
-0.005518285,-0.2696707643802564
-0.005517945,-0.2621335596544566
-0.005517605,-0.258315586954928
-0.005517265,-0.2527861092521724
-0.005516925,-0.2380408353781208
-0.005516585,-0.229252915457654
-0.005516245,-0.2204979090949578
-0.005515905,-0.2161204059135857
-0.005515565,-0.2067071283957824
-0.005515225,-0.1968001475116787
-0.005514885,-0.1887692394195488
-0.005514545,-0.1835688972943287
-0.005514205,-0.1767228772813933
-0.005513865,-0.1720162385224792
-0.005513525,-0.16154972715653
-0.005513185,-0.1597723950377872
-0.005512845,-0.1567114341666102
-0.005512505,-0.1476602057841069
-0.005512165,-0.1438093195268238
-0.005511825,-0.1363379419165393
-0.005511485,-0.1314667353688649
-0.005511145,-0.1288994778640094
-0.005510805,-0.1189924969798877
-0.005510465,-0.1118831685049034
-0.005510125,-0.1166556343793141
-0.005509785,-0.1151416107226045
-0.005509445,-0.1066169992641742
-0.005509105,-0.1037206061817732
-0.005508765,-0.1012520893501747
-0.005508425,-0.09753285732391645
-0.005508085,-0.09341866260459683
-0.005507745,-0.08953486278955232
-0.005507405,-0.08581563076329413
-0.005507065,-0.08469656979963919
-0.005506725,-0.0823597071990573
-0.005506385,-0.07778472267118219
-0.005506045,-0.07528329228183586
-0.005505705,-0.0727818618924851
-0.005505365,-0.07034625861865229
-0.005505025,-0.06754860620951494
-0.005504685,-0.06517883005117898
-0.005504345,-0.06086715398533984
-0.005504005,-0.05974809302168491
-0.005503665,-0.05882651340454773
-0.005503325,-0.05356034416382817
-0.005502985,-0.05283624589322791
-0.005502645,-0.04934740877124078
-0.005502305,-0.04710928684393498
-0.005501965,-0.04589148520701637
-0.005501625,-0.04740550886372724
-0.005501285,-0.04809669357657169
-0.005500945,-0.04088862442832368
-0.005500605,-0.04269887010482055
-0.005500265,-0.04062531596628723
-0.005499925,-0.0411848464481147
-0.005499585,-0.04483825135886389
-0.005499245,-0.04134941423688748
-0.005498905,-0.03769600932613165
-0.005498565,-0.03795931778816762
-0.005498225,-0.0374985279796043
-0.005497885,-0.03453630778169416
-0.005497545,-0.03279188922070581
-0.005497205,-0.03226527229662972
-0.005496865,-0.02946761988749236
-0.005496525,-0.02867769450138443
-0.005496185,-0.02709784372916425
-0.005495845,-0.0245305862243088
-0.005495505,-0.02285199477882944
-0.005495165,-0.02160127958415322
-0.005494825,-0.02044930506274372
-0.005494485,-0.01798078823115642
-0.005494145,-0.01817826957767928
-0.005493805,-0.01633511034342408
-0.005493465,-0.01478817312896271
-0.005493125,-0.01649967813219686
-0.005492785,-0.01258296475940457
-0.005492445,-0.01274753254817705
-0.005492105,-0.0143273833203961
-0.005491765,-0.01426155620488698
-0.005491425,-0.01436029687815047
-0.005491085,-0.01883654073277042
-0.005490745,-0.02005434236968903
-0.005490405,-0.01189178004655887
-0.005490065,-0.01324123591449571
-0.005489725,-0.01067397840964026
-0.005489385,-0.01176012581554064
-0.005489045,-0.01468943245569622
-0.005488705,-0.01343871726102305
-0.005488365,-0.01093728687167671
-0.005488025,-0.012352569855125
-0.005487685,-0.0136361986075504
-0.005487345,-0.01208926139308621
-0.005487005,-0.01231965629736853
-0.005486665,-0.01255005120165001
-0.005486325,-0.01199052071982254
-0.005485985,-0.01212217495084304
-0.005485645,-0.01337289014551394
-0.005485305,-0.01251713764389546
-0.005484965,-0.01185886648880629
-0.005484625,-0.0129450138947047
-0.005484285,-0.01235256985512267
-0.005483945,-0.01116768177595628
-0.005483605,-0.009884053023530886
-0.005483265,-0.009061214079666959
-0.005482925,-0.008435856482331451
-0.005482585,-0.009028300521912402
-0.005482245,-0.007218054845411761
-0.005481905,-0.006131907439515507
-0.005481565,-0.008402942924575817
-0.005481225,-0.008205461578048474
-0.005480885,-0.007053487056647417
-0.005480545,-0.01169429870003153
-0.005480205,-0.006461043017056948
-0.005479865,-0.006033166766247405
-0.005479525,-0.00586859897747492
-0.005479185,-0.006395215901547833
-0.005478845,-0.009587831003734065
-0.005478505,-0.00962074456149443
-0.005478165,-0.007283881960920875
-0.005477825,-0.006329388786040455
-0.005477485,-0.005243241380138334
-0.005477145,-0.005309068495647449
-0.005476805,-0.003301341472623117
-0.005476465,0.002623098923200814
-0.005476125,-0.004519143109538078
-0.005475785,-0.003498822819148663
-0.005475445,-0.003301341472619465
-0.005475105,-0.004321661763010735
-0.005474765,-0.004552056667292216
-0.005474425,-0.002379761855491866
-0.005474085,-0.00267598387528288
-0.005473745,-0.002412675413246902
-0.005473405,-0.0001416399281819828
-0.005473065,-0.002116453393455409
-0.005472725,-0.002017712720191917
-0.005472385,-0.003005119452828451
-0.005472045,-0.004519143109538078
-0.005471705,-0.006066080323999449
-0.005471365,-0.006856005710111633
-0.005471025,-0.007514276865202775
-0.005470685,-0.008172548020292721
-0.005470345,-0.007810498884993789
-0.005470005,-0.01162847158452241
-0.005469665,-0.003893785512201493
-0.005469325,-0.0007340839677640107
-0.005468985,0.001405297286282201
-0.005468645,-0.0008986517565367963
-0.005468305,-0.003334255030374022
-0.005467965,-0.0005366026212366681
-0.005467625,-0.0004378619479729968
-0.005467285,-0.0007011704100094536
-0.005466945,-0.002017712720191738
-0.005466605,-0.002379761855491866
-0.005466265,-0.002610156759772688
-0.005465925,-0.002017712720191738
-0.005465585,-0.003070946568337565
-0.005465245,-0.003432995703635239
-0.005464905,-0.002083539835700852
-0.005464565,-0.00244558897100098
-0.005464225,-0.002807638106301168
-0.005463885,-0.002840551664055666
-0.005463545,-0.004420402436274407
-0.005463205,-0.004255834647499585
-0.005462865,-0.00313677368384668
-0.005462525,-0.004650797340556306
-0.005462185,-0.005210327822381023
-0.005461845,-0.00369630416567415
-0.005461505,-0.003729217723428708
-0.005461165,-0.003795044838937462
-0.005460825,-0.003597563492410479
-0.005460485,-0.003663390607919593
-0.005460145,-0.004782451571577409
-0.005459805,-0.006362302343793276
-0.005459465,-0.00939034965721253
-0.005459125,-0.003926699069955093
-0.005458785,-0.003400082145883136
-0.005458445,-0.000832824641027682
-0.005458105,-0.004387488878525537
-0.005457765,-0.007514276865202775
-0.005457425,-0.004321661763010735
-0.005457085,-0.002610156759776879
-0.005456745,-0.002840551664055666
-0.005456405,-0.00267598387528288
-0.005456065,-0.002116453393456427
-0.005455725,-0.002313934739982752
-0.005455385,0.00107616170873663
-0.005455045,0.000220409207119702
-0.005454705,-0.001161960218573253
-0.005454365,-0.0005695161789912252
-0.005454025,-0.001096133103063181
-0.005453685,-0.002807638106301108
-0.005453345,-0.003564649934655922
-0.005453005,-0.003795044838937403
-0.005452665,-0.006493956574811504
-0.005452325,-0.004486229551783521
-0.005451985,-0.004683710898310505
-0.005451645,-0.005572376957683906
-0.005451305,-0.004519143109538078
-0.005450965,-0.004716624456065062
-0.005450625,-0.00540780916891112
-0.005450285,-0.004354575320765292
-0.005449945,-0.003235514357112387
-0.005449605,-0.005111587149120106
-0.005449265,-0.007218054845411761
-0.005448925,0.0007141125734220748
-0.005448585,0.0007799396889456162
-0.005448245,0.001602778632809544
-0.005447905,0.001602778632809544
-0.005447565,-0.00336716858812858
-0.005447225,-0.003564649934655922
-0.005446885,-0.001096133103064139
-0.005446545,-0.00244558897100098
-0.005446205,-0.003202600799355794
-0.005445865,0.0004508041114000451
-0.005445525,-7.58128126747844e-05
-0.005445185,-0.001129046660818696
-0.005444845,0.0005495447846637165
-0.005444505,-0.0001416399281858144
-0.005444165,-0.002248107624473638
-0.005443825,-0.002741810990791994
-0.005443485,-0.002412675413246722
-0.005443145,-0.002577243202019209
-0.005442805,-0.002149366951209966
-0.005442465,0.0007470261311891433
-0.005442125,-0.0003062077169547683
-0.005441785,0.001043248150982073
-0.005441445,0.001240729497505524
-0.005441105,-0.0008986517565367963
-0.005440765,-0.0004707755057275538
-0.005440425,-0.0004707755057294098
-0.005440085,-0.001491095796118824
-0.005439745,-0.00267598387528288
-0.005439405,-0.003498822819149801
-0.005439065,-0.005144500706874663
-0.005438725,-0.009818225908021772
-0.005438385,-0.002083539835699714
-0.005438045,-0.001458182238364267
-0.005437705,-0.000832824641027682
-0.005437365,-0.0007340839677710753
-0.005437025,-0.004617883782801749
-0.005436685,-0.005276154937892892
-0.005436345,-0.0003062077169638088
-0.005436005,-0.001458182238364267
-0.005435665,-0.00369630416567415
-0.005435325,-0.002774724548548228
-0.005434985,-0.002281021182228195
-0.005434645,-0.003893785512201493
-0.005434305,-0.004486229551782444
-0.005433965,-0.004815365129329092
-0.005433625,-0.00540780916891112
-0.005433285,-0.0005695161790000266
-0.005432945,-0.002346848297737309
-0.005432605,-0.00392669906995605
-0.005432265,-0.002675983875285155
-0.005431925,-0.001161960218573253
-0.005431585,-0.002412675413246423
-0.005431245,-0.002182280508964942
-0.005430905,-0.002511416086510094
-0.005430565,-0.004683710898310864
-0.005430225,-0.005407809168909802
-0.005429885,-0.005111587149120106
-0.005429545,-0.005539463399929348
-0.005429205,-0.006790178594600243
-0.005428865,-0.005506549842174791
-0.005428525,-0.009884053023530886
-0.005428185,-0.006526870132572169
-0.005427845,-0.002281021182228195
-0.005427505,-0.001853144931418952
-0.005427165,-0.002313934739982752
-0.005426825,-0.004091266858728836
-0.005426485,-0.005309068495647449
-0.005426145,-0.003729217723428708
-0.005425805,-0.002939292337319337
-0.005425465,-0.003729217723428708
-0.005425125,-0.005309068495647449
-0.005424785,-0.006921832825620747
-0.005424445,-0.004979932918101878
-0.005424105,-0.00586859897747492
-0.005423765,-0.005802771861964308
-0.005423425,-0.004979932918101878
-0.005423085,-0.005243241380138334
-0.005422745,-0.004288748205252167
-0.005422405,-0.002083539835700852
-0.005422065,-0.001721490700400724
-0.005421725,-0.001524009353868652
-0.005421385,0.00107616170873663
-0.005421045,0.00107616170873663
-0.005420705,-0.0007011704100097529
-0.005420365,-0.0008657381987822392
-0.005420025,-0.0008657381987822392
-0.005419685,-0.001491095796119303
-0.005419345,-0.001754404258155281
-0.005419005,-0.002313934739982752
-0.005418665,-0.004387488878517096
-0.005418325,-0.002873465221810222
-0.005417985,-0.006823092152357076
-0.005417645,-4.289925490765471e-05
-0.005417305,0.005815714025392853
-0.005416965,-0.0001416399281819828
-0.005416625,-0.0006024297367426691
-0.005416285,0.001109075266491187
-0.005415945,0.0002862363226272596
-0.005415605,-0.003103860126095296
-0.005415265,-0.004848278687083649
-0.005414925,-0.004288748205256179
-0.005414585,-0.00629647522828051
-0.005414245,-0.007020573498884419
-0.005413905,-0.006033166766247705
-0.005413565,-0.007744671769481562
-0.005413225,-0.007942153116012016
-0.005412885,-0.007316795518675433
-0.005412545,-0.007119314172148449
-0.005412205,-0.006954746383375304
-0.005411865,-0.004979932918101878
-0.005411525,-0.004222921089748441
-0.005411185,-0.004420402436274407
-0.005410845,-0.002116453393455409
-0.005410505,-0.00139235512285647
-0.005410165,-0.002050626277946295
-0.005409825,-0.001227787334082367
-0.005409485,0.0001216685338520194
-0.005409145,-0.0007011704100094536
-0.005408805,5.584141834535986e-05
-0.005408465,-0.0001745534859361208
-0.005408125,-0.001589836469382495
-0.005407785,-0.0003720348324638825
-0.005407445,-0.001392355122853297
-0.005407105,-0.003169687241601236
-0.005406765,-0.004420402436274407
-0.005406425,-0.004584970225046893
-0.005406085,-0.005473636284420234
-0.005405745,-0.007218054845411761
-0.005405405,-0.005309068495647449
-0.005405065,-0.006033166766247705
-0.005404725,-0.005736944746456691
-0.005404385,-0.004519143109538078
-0.005404045,-0.00438748887851985
-0.005403705,-0.005638204073193019
-0.005403365,-0.004881192244838206
-0.005403025,-0.005572376957684863
-0.005402685,-0.006098993881756819
-0.005402345,-0.002807638106301108
-0.005402005,-0.002840551664050098
-0.005401665,0.0002204092071181454
-0.005401325,0.000417890553645488
-0.005400985,0.004959961523800712
-0.005400645,0.0194419269357795
-0.005400305,0.0407699123607325
-0.005399965,0.06565256202322922
-0.005399625,0.09399113524985134
-0.005399285,0.1268717794466539
-0.005398945,0.1594232880659608
-0.005398605,0.1869061087909661
-0.005398265,0.2127432516282934
-0.005397925,0.2322280778190124
-0.005397585,0.2438794772641044
-0.005397245,0.2511533735278615
-0.005396905,0.2542143343990314
-0.005396565,0.2520420395872346
-0.005396225,0.2475328821748602
-0.005395885,0.2438136501485846
-0.005395545,0.2379221233105296
-0.005395205,0.2313723253173727
-0.005394865,0.2242300832846213
-0.005394525,0.2173511497139314
-0.005394185,0.2091885873908012
-0.005393845,0.2012893335297219
-0.005393505,0.1948711897675689
-0.005393165,0.1860503562893476
-0.005392825,0.1768345601180883
-0.005392485,0.167585850389041
-0.005392145,0.1676516775045502
-0.005391805,0.1626488167258666
-0.005391465,0.1593903745081563
-0.005391125,0.1532026256502996
-0.005390785,0.1451717175582022
-0.005390445,0.1454350260202241
-0.005390105,0.1409916957233589
-0.005389765,0.1324999978226986
-0.005389425,0.1288465929119273
-0.005389085,0.1251931880011715
-0.005388745,0.11940040183638
-0.005388405,0.1147266766352223
-0.005388065,0.1092959396057204
-0.005387725,0.1041614245960188
-0.005387385,0.09988266208791707
-0.005387045,0.09435318438515147
-0.005386705,0.08964654562625836
-0.005386365,0.08681597965935789
-0.005386025,0.08352462388390219
-0.005385685,0.079542083395608
-0.005385345,0.07855467666296406
-0.005385005,0.07562537002280847
-0.005384665,0.07239984136286187
-0.005384325,0.07081999059064314
-0.005383985,0.07019463299330655
-0.005383645,0.0657183891386868
-0.005383305,0.06473098240605007
-0.005382965,0.06371066211565882
-0.005382625,0.05893819624124803
-0.005382285,0.05347454565399155
-0.005381945,0.0500515356475176
-0.005381605,0.0532770643074642
-0.005381265,0.05130225084218982
-0.005380925,0.05077563391811786
-0.005380585,0.04593734092819797
-0.005380245,0.04021038187890719
-0.005379905,0.04139526995806909
-0.005379565,0.04037494966767782
-0.005379225,0.03826848197138275
-0.005378885,0.0363924091793764
-0.005378545,0.03622784139060362
-0.005378205,0.03362767032799235
-0.005377865,0.03293648561514791
-0.005377525,0.02974387051295587
-0.005377185,0.02819693329849043
-0.005376845,0.02750574858564599
-0.005376505,0.02651834185300928
