Analysis/files/cmb03_wrd01/d2s06_ch24.csv

#Digilent WaveForms Oscilloscope Acquisition
#Device Name: ADP3450
#Serial Number: SN:210018B9D9B0
#Date Time: 2024-08-13 15:58:41.380.197.800
#Sample rate: 2.94118e+06Hz
#Samples: 32768
#Trigger: Source: Channel 3 Type: Edge Condition: Rising Level: 60 mV Hyst.: Auto HoldOff: 0 s
#Channel 3: Range: 200 mV/div Offset: 0 V Attenuation: 1 X Coupling: DC Bandwidth: 0 Hz Sample Mode: Average

Time (s),Channel 3 (V)
-0.005570322954822955,0.007691786817402609
-0.005569982954822954,0.01167432730570743
-0.005569642954822955,0.01355040009771377
-0.005569302954822955,0.008679193550039321
-0.005568962954822954,0.005453664890096558
-0.005568622954822955,0.00756013258638438
-0.005568282954822955,0.00904124268533945
-0.005567942954822954,0.008020922394946983
-0.005567602954822955,0.007362651239857037
-0.005567262954822955,0.006967688546802352
-0.005566922954822954,0.006704380084764699
-0.005566582954822955,0.006046108929674754
-0.005566242954822955,0.00677020720027501
-0.005565902954822954,0.006572725853745751
-0.005565562954822955,0.005519492005601839
-0.005565222954822955,0.007428478355366152
-0.005564882954822954,0.008547539319017083
-0.005564542954822955,0.006342330949465767
-0.005564202954822955,0.005782800467638296
-0.005563862954822954,0.006046108929672478
-0.005563522954822955,0.004795393735001583
-0.005563182954822955,0.004334603926437783
-0.005562842954822955,0.003215542962784878
-0.005562502954822955,0.00130655661301853
-0.005562162954822955,0.00505870219703804
-0.005561822954822955,0.004959961523774549
-0.005561482954822955,0.002952234500746385
-0.005561142954822955,0.003939641233383098
-0.005560802954822955,0.003050975174011673
-0.005560462954822955,0.003182629405028285
-0.005560122954822955,-0.002807638106301108
-0.005559782954822955,-0.0009315653142947661
-0.005559442954822955,-0.001326528007346039
-0.005559102954822955,-0.001260700891836924
-0.005558762954822955,0.00166860574831333
-0.005558422954822955,-0.003729217723428708
-0.005558082954822955,-0.005736944746456691
-0.005557742954822955,-0.001326528007354061
-0.005557402954822955,-0.001260700891836924
-0.005557062954822955,-0.00290637877956478
-0.005556722954822955,-0.001556922911630393
-0.005556382954822955,-0.0004049483902184396
-0.005556042954822955,-0.0003062077169547683
-0.005555702954822955,0.001010334593225121
-0.005555362954822955,0.001240729497509416
-0.005555022954822955,-0.0001087263704274257
-0.005554682954822955,0.0002862363226265411
-0.005554342954822955,0.0003191498803818167
-0.005554002954822955,-0.0003391212747093254
-0.005553662954822955,-0.001096133103064139
-0.005553322954822955,0.0001874956493635883
-0.005552982954822955,0.0009774210354729588
-0.005552642954822955,-7.581281267286857e-05
-0.005552302954822954,0.000714112573436502
-0.005551962954822955,-0.001359441565100596
-0.005551622954822955,-0.001754404258155281
-0.005551282954822954,-0.0009973924298047781
-0.005550942954822955,-0.00336716858812858
-0.005550602954822955,-0.005374895611156563
-0.005550262954822954,-0.004190007531998554
-0.005549922954822955,-0.007514276865202775
-0.005549582954822955,-0.008863732733139616
-0.005549242954822954,-0.001787317815911694
-0.005548902954822955,-0.002807638106301108
-0.005548562954822955,-0.001820231373664395
-0.005548222954822954,-0.003432995703642842
-0.005547882954822955,-0.006263561670529605
-0.005547542954822955,-0.003729217723428708
-0.005547202954822954,-0.002478502528753142
-0.005546862954822955,-0.001161960218573253
-0.005546522954822955,-0.003301341472619465
-0.005546182954822954,-0.002675983875282042
-0.005545842954822955,-0.002215194066719081
-0.005545502954822955,-0.003268427914864908
-0.005545162954822954,-0.002346848297740302
-0.005544822954822955,-0.003992526185465165
-0.005544482954822955,-0.004617883782801749
-0.005544142954822954,-0.003432995703638232
-0.005543802954822955,-0.003729217723428708
-0.005543462954822955,-0.002544329644264652
-0.005543122954822954,-0.002116453393450679
-0.005542782954822955,0.0004837176691546022
-0.005542442954822955,0.0001874956493635883
-0.005542102954822955,-0.0006353432944988426
-0.005541762954822955,-0.0005695161789912252
-0.005541422954822955,-0.001524009353873381
-0.005541082954822955,-0.003762131281179194
-0.005540742954822955,-0.003038033010583008
-0.005540402954822955,-0.004453315994028964
-0.005540062954822955,-0.006724351479089273
-0.005539722954822955,-0.003959612627710607
-0.005539382954822955,-0.007020573498884419
-0.005539042954822955,-0.008238375135800816
-0.005538702954822955,-0.002182280508964523
-0.005538362954822955,-0.001556922911627938
-0.005538022954822955,-0.001820231373663916
-0.005537682954822955,-0.004683710898310864
-0.005537342954822955,-0.002215194066719081
-0.005537002954822955,-0.0008328246410301966
-0.005536662954822955,0.004564998830719684
-0.005536322954822955,-0.003465909261392251
-0.005535982954822955,-0.004881192244835632
-0.005535642954822955,-0.006098993881756819
-0.005535302954822955,2.292786059080275e-05
-0.005534962954822955,-0.005210327822374258
-0.005534622954822955,-0.008304202251312145
-0.005534282954822955,-0.003597563492410479
-0.005533942954822955,-0.003235514357111009
-0.005533602954822955,-0.00494701936034732
-0.005533262954822955,-0.002281021182228195
-0.005532922954822955,-0.004650797340556306
-0.005532582954822955,0.0004508041114000451
-0.005532242954822955,0.003676332771346642
-0.005531902954822955,-0.00313677368384668
-0.005531562954822954,-0.006164820997265934
-0.005531222954822955,-0.001589836469382495
-0.005530882954822955,-0.001622750027137053
-0.005530542954822954,-0.004815365129329092
-0.005530202954822955,-0.004288748205256179
-0.005529862954822955,-0.005111587149120106
-0.005529522954822954,-0.005736944746454535
-0.005529182954822955,-0.004552056667292635
-0.005528842954822955,-0.00415709397423795
-0.005528502954822954,-0.005341982053403622
-0.005528162954822955,-0.006230648112775047
-0.005527822954822955,-0.004190007531992507
-0.005527482954822954,-0.005802771861964547
-0.005527142954822955,-0.005111587149120106
-0.005526802954822955,-0.004815365129329092
-0.005526462954822954,-0.005276154937890078
-0.005526122954822955,-0.003729217723428708
-0.005525782954822955,-0.00290637877956478
-0.005525442954822954,-0.003597563492410718
-0.005525102954822955,-0.003729217723428708
-0.005524762954822955,-0.001918972046928067
-0.005524422954822954,-0.002807638106299073
-0.005524082954822955,-0.001688577142646167
-0.005523742954822955,-0.002840551664055666
-0.005523402954822954,-0.00902830052192677
-0.005523062954822955,-0.01692755438300611
-0.005522722954822955,-0.0231482167986174
-0.005522382954822954,-0.04408123953055997
-0.005522042954822955,-0.06840435871113343
-0.005521702954822955,-0.09980389280898092
-0.005521362954822954,-0.1339352522005122
-0.005521022954822955,-0.1644790337966856
-0.005520682954822955,-0.1924884714458137
-0.005520342954822955,-0.218720576976148
-0.005520002954822955,-0.2385345387444391
-0.005519662954822955,-0.2534114668494989
-0.005519322954822955,-0.2611132393640513
-0.005518982954822955,-0.26410837311973
-0.005518642954822955,-0.2638450646576935
-0.005518302954822955,-0.2593359072453274
-0.005517962954822955,-0.2548596633906994
-0.005517622954822955,-0.2495605805922158
-0.005517282954822955,-0.2392586370150581
-0.005516942954822955,-0.2304707170945726
-0.005516602954822955,-0.2253032885271072
-0.005516262954822955,-0.2159229245670755
-0.005515922954822955,-0.2078920164749465
-0.005515582954822955,-0.2000585897293619
-0.005515242954822955,-0.1918960274062465
-0.005514902954822955,-0.1830751939280104
-0.005514562954822955,-0.1768545315123991
-0.005514222954822955,-0.1681324387074573
-0.005513882954822955,-0.1608914560014389
-0.005513542954822955,-0.1571722239751739
-0.005513202954822955,-0.1514781784836459
-0.005512862954822955,-0.1508857344440535
-0.005512522954822955,-0.1442042822198784
-0.005512182954822955,-0.1354821894149208
-0.005511842954822955,-0.130413501520719
-0.005511502954822955,-0.1270892321875088
-0.005511162954822955,-0.1263651339169085
-0.005510822954822954,-0.1221521985243252
-0.005510482954822955,-0.1184000529403057
-0.005510142954822955,-0.1137592412969131
-0.005509802954822954,-0.1097108736931026
-0.005509462954822955,-0.1062549501288741
-0.005509122954822955,-0.1018116198320089
-0.005508782954822954,-0.09736828953513661
-0.005508442954822955,-0.09348448972010595
-0.005508102954822955,-0.08871202384569515
-0.005507762954822954,-0.08505861893493423
-0.005507422954822955,-0.08226096652580198
-0.005507082954822955,-0.08018741238726487
-0.005506742954822954,-0.07544786007060283
-0.005506402954822955,-0.07225524496841659
-0.005506062954822955,-0.07067539419619787
-0.005505722954822954,-0.06774608755603558
-0.005505382954822955,-0.06405976908753189
-0.005505042954822955,-0.0611304624473763
-0.005504702954822954,-0.05978100657943611
-0.005504362954822955,-0.05793784734518426
-0.005504022954822955,-0.05596303387991083
-0.005503682954822954,-0.05408696108789886
-0.005503342954822955,-0.05286915945098247
-0.005503002954822955,-0.05290207300873703
-0.005502662954822954,-0.05329703570179069
-0.005502322954822955,-0.05273750521996424
-0.005501982954822955,-0.04352170904868825
-0.005501642954822954,-0.04368627683745499
-0.005501302954822955,-0.04036200750425076
-0.005500962954822955,-0.04023035327323254
-0.005500622954822954,-0.04266595654706174
-0.005500282954822955,-0.03825553980795911
-0.005499942954822955,-0.03562245518759454
-0.005499602954822955,-0.0373339601908284
-0.005499262954822955,-0.03568828230310366
-0.005498922954822955,-0.03512875182127619
-0.005498582954822955,-0.03549080095657565
-0.005498242954822955,-0.03470087557046694
-0.005497902954822955,-0.03249566720091162
-0.005497562954822955,-0.03249566720091162
-0.005497222954822955,-0.03137660623725668
-0.005496882954822955,-0.02979675546503794
-0.005496542954822955,-0.02973092834952894
-0.005496202954822955,-0.02703201661365514
-0.005495862954822955,-0.02413562353125412
-0.005495522954822955,-0.02364192016493665
-0.005495182954822955,-0.0243001913200269
-0.005494842954822955,-0.02219372362373525
-0.005494502954822955,-0.02255577275903472
-0.005494162954822955,-0.02281908122107183
-0.005493822954822955,-0.02229246429699892
-0.005493482954822955,-0.02183167448843596
-0.005493142954822955,-0.02077844064028929
-0.005492802954822955,-0.01788204755788826
-0.005492462954822955,-0.01709212217178033
-0.005492122954822955,-0.01979103390765257
-0.005491782954822955,-0.01468943245569622
-0.005491442954822955,-0.009982793696803119
-0.005491102954822955,-0.01301084101021381
-0.005490762954822955,-0.01146390379574963
-0.005490422954822955,-0.01403116130060508
-0.005490082954822955,-0.01686172726749699
-0.005489742954822955,-0.01284627322144103
-0.005489402954822955,-0.01195760716206798
-0.005489062954822954,-0.01360328504979584
-0.005488722954822955,-0.01274753254817735
-0.005488382954822955,-0.01113476821820406
-0.005488042954822954,-0.01113476821820334
-0.005487702954822955,-0.01073980552514937
-0.005487362954822955,-0.009028300521912402
-0.005487022954822954,-0.00991696658128736
-0.005486682954822955,-0.01097020042943127
-0.005486342954822955,-0.007744671769484675
-0.005486002954822954,-0.009028300521912521
-0.005485662954822955,-0.009094127637421515
-0.005485322954822955,-0.00939034965721253
-0.005484982954822954,-0.009456176772726792
-0.005484642954822955,-0.01228674273961356
-0.005484302954822955,-0.01149681735350419
-0.005483962954822954,-0.009949880139042156
-0.005483622954822955,-0.01113476821820406
-0.005483282954822955,-0.01004862081230367
-0.005482942954822954,-0.008732078502119713
-0.005482602954822955,-0.007810498884993789
-0.005482262954822955,-0.007020573498884419
-0.005481922954822954,-0.007645931096229745
-0.005481582954822955,-0.01245131052838634
-0.005481242954822955,-0.006625610805829733
-0.005480902954822954,-0.001721490700404017
-0.005480562954822955,-0.003531736376901365
-0.005480222954822955,-0.0009973924298004675
-0.005479882954822954,-0.003893785512203768
-0.005479542954822955,-0.005144500706874663
-0.005479202954822955,-0.002741810990791994
-0.005478862954822955,-0.003432995703636436
-0.005478522954822955,-0.005704031188702134
-0.005478182954822955,-0.005572376957683906
-0.005477842954822955,-0.004815365129330469
-0.005477502954822955,-0.007744671769484675
-0.005477162954822955,-0.006790178594602518
-0.005476822954822955,-0.005473636284422629
-0.005476482954822955,-0.005605290515438462
-0.005476142954822955,-0.006856005710111633
-0.005475802954822955,-0.006296475228285179
-0.005475462954822955,-0.00619773455502049
-0.005475122954822955,-0.007086400614393532
-0.005474782954822955,-0.006526870132567079
-0.005474442954822955,-0.007086400614393532
-0.005474102954822955,-0.008007980231521132
-0.005473762954822955,-0.006493956574814258
-0.005473422954822955,-0.005934426092984033
-0.005473082954822955,-0.006296475228284162
-0.005472742954822955,-0.005473636284421731
-0.005472402954822955,-0.003827958396692379
-0.005472062954822955,-0.00369630416567415
-0.005471722954822955,-0.002544329644266747
-0.005471382954822955,-0.004321661763010735
-0.005471042954822955,-0.006033166766247705
-0.005470702954822955,0.001141988824232693
-0.005470362954822955,0.002129395556882458
-0.005470022954822955,0.001405297286282201
-0.005469682954822955,-0.001556922911627938
-0.005469342954822955,-0.004420402436274407
-0.005469002954822955,-0.004255834647501621
-0.005468662954822955,-0.005243241380138334
-0.005468322954822954,-0.005276154937892892
-0.005467982954822955,-0.007876326000502903
-0.005467642954822955,-0.006954746383375304
-0.005467302954822954,-0.003893785512201493
-0.005466962954822955,-0.004650797340556306
-0.005466622954822955,-0.005078673591365549
-0.005466282954822954,-0.003992526185464626
-0.005465942954822955,-0.00369630416567415
-0.005465602954822955,-0.005901512535229476
-0.005465262954822954,-0.005144500706872148
-0.005464922954822955,-0.003762131281183265
-0.005464582954822955,-0.004025439743219721
-0.005464242954822954,-0.002215194066718003
-0.005463902954822955,-0.001622750027137053
-0.005463562954822955,-0.001392355122855153
-0.005463222954822954,-0.000536602621235291
-0.005462882954822955,0.0002204092071181454
-0.005462542954822955,-0.001129046660818696
-0.005462202954822954,-0.001787317815908641
-0.005461862954822955,-0.001129046660818696
-0.005461522954822955,-0.003038033010583008
-0.005461182954822954,-0.003893785512203888
-0.005460842954822955,-0.005210327822383777
-0.005460502954822955,-0.01011444792781279
-0.005460162954822954,-0.003992526185465524
-0.005459822954822955,-0.004190007531992507
-0.005459482954822955,-0.002050626277946295
-0.005459142954822954,-0.005045760033613626
-0.005458802954822955,-0.006493956574811504
-0.005458462954822955,-0.00540780916891112
-0.005458122954822954,-0.003103860126089368
-0.005457782954822955,-0.001589836469382495
-0.005457442954822955,-0.00244558897100098
-0.005457102954822955,-0.002939292337318439
-0.005456762954822955,-0.002478502528755537
-0.005456422954822955,-0.00336716858812858
-0.005456082954822955,-0.004617883782799474
-0.005455742954822955,-0.00392669906995605
-0.005455402954822955,-0.003005119452828451
-0.005455062954822955,-0.004617883782798816
-0.005454722954822955,-0.003827958396692379
-0.005454382954822955,-0.001951885604682624
-0.005454042954822955,-0.002478502528754579
-0.005453702954822955,-0.00290637877956478
-0.005453362954822955,-0.002412675413246423
-0.005453022954822955,-0.002939292337318379
-0.005452682954822955,-0.003860871954446936
-0.005452342954822955,-0.00313677368384668
-0.005452002954822955,-0.003564649934655144
-0.005451662954822955,-0.004321661763010735
-0.005451322954822955,-0.003531736376901365
-0.005450982954822955,-0.003268427914865387
-0.005450642954822955,-0.004881192244838206
-0.005450302954822955,-0.00790923955825746
-0.005449962954822955,-0.003630477050172819
-0.005449622954822955,0.0009115939199638446
-0.005449282954822955,-0.002840551664055666
-0.005448942954822955,-0.003992526185463069
-0.005448602954822955,-0.0004378619479729968
-0.005448262954822955,0.0006482854579273878
-0.005447922954822955,-0.0001087263704274257
-0.005447582954822955,-0.001787317815909838
-0.005447242954822955,-0.001293614449591481
-0.005446902954822955,-0.002379761855491866
-0.005446562954822954,0.0025572718076917
-0.005446222954822955,-0.005078673591365549
-0.005445882954822955,-0.005539463399929348
-0.005445542954822954,-0.00576985830421071
-0.005445202954822955,-0.005473636284420234
-0.005444862954822955,-0.004716624456065421
-0.005444522954822954,-0.004617883782798158
-0.005444182954822955,-0.002643070317528323
-0.005443842954822955,-0.001227787334082367
-0.005443502954822954,-0.000470775505728392
-0.005443162954822955,-0.0009315653142913533
-0.005442822954822955,0.0001545820916090312
-0.005442482954822954,0.001438210844034783
-0.005442142954822955,0.0003520634381363738
-0.005441802954822955,0.001405297286282201
-0.005441462954822954,0.001109075266489451
-0.005441122954822955,0.0001545820916090312
-0.005440782954822955,0.001931914210355115
-0.005440442954822954,0.001141988824243469
-0.005440102954822955,-0.0001087263704274257
-0.005439762954822955,-0.0003062077169547683
-0.005439422954822954,0.001767346421582389
-0.005439082954822955,0.001800259979336887
-0.005438742954822955,0.0009445074777184018
-0.005438402954822954,-0.001063219545311078
-0.005438062954822955,-0.00188605848917351
-0.005437722954822955,-0.001458182238364267
-0.005437382954822954,-0.002511416086514585
-0.005437042954822955,-0.004979932918101878
-0.005436702954822955,-0.005276154937892892
-0.005436362954822955,-0.0039925261854675
-0.005436022954822955,-0.003235514357110351
-0.005435682954822955,-0.003959612627710607
-0.005435342954822955,-0.002675983875285215
-0.005435002954822955,-0.005374895611156563
-0.005434662954822955,-0.0004378619479729968
-0.005434322954822955,-0.0008986517565359581
-0.005433982954822955,-0.003498822819146808
-0.005433642954822955,-0.003169687241601236
-0.005433302954822955,-0.002346848297738806
-0.005432962954822955,0.0007799396889456162
-0.005432622954822955,-0.004617883782801749
-0.005432282954822955,-0.009192868310676866
-0.005431942954822955,-0.005769858304211248
-0.005431602954822955,-0.005111587149120106
-0.005431262954822955,-0.005177414264629101
-0.005430922954822955,-0.00517741426462922
-0.005430582954822955,-0.005473636284420234
-0.005430242954822955,-0.004683710898312301
-0.005429902954822955,-0.003038033010583008
-0.005429562954822955,-0.002182280508964523
-0.005429222954822955,-0.003334255030371927
-0.005428882954822955,-0.0001416399281819828
-0.005428542954822955,-0.002511416086510094
-0.005428202954822955,-0.002379761855492105
-0.005427862954822955,-0.002741810990791994
-0.005427522954822955,-0.004321661763010735
-0.005427182954822955,-0.002313934739982752
-0.005426842954822955,-0.002741810990791994
-0.005426502954822955,-0.003827958396692379
-0.005426162954822955,-0.003334255030374022
-0.005425822954822954,-0.002478502528755537
-0.005425482954822955,-0.002610156759773766
-0.005425142954822955,-0.004354575320765292
-0.005424802954822954,-0.003103860126092122
-0.005424462954822955,-0.003795044838937822
-0.005424122954822955,-0.005374895611156563
-0.005423782954822954,-0.008929559848649809
-0.005423442954822955,-0.009522003888230759
-0.005423102954822955,-0.004321661763010735
-0.005422762954822954,-0.004782451571571422
-0.005422422954822955,-0.003070946568337565
-0.005422082954822955,-0.00688891926786619
-0.005421742954822954,-0.008468770040079064
-0.005421402954822955,-0.005243241380138334
-0.005421062954822955,-0.004288748205256179
-0.005420722954822954,-0.00491410580258983
-0.005420382954822955,-0.003301341472619465
-0.005420042954822955,-9.985697163754359e-06
-0.005419702954822954,-0.0006353432944988426
-0.005419362954822955,0.0001874956493635883
-0.005419022954822955,-0.0002403806014456541
-0.005418682954822954,-0.001326528007346099
-0.005418342954822955,-0.001359441565100596
-0.005418002954822955,-0.002873465221810222
-0.005417662954822954,-0.003992526185463189
