Analysis/files/cmb03_wrd01/d2s03_ch13.csv

#Digilent WaveForms Oscilloscope Acquisition
#Device Name: ADP3450
#Serial Number: SN:210018B9D9B0
#Date Time: 2024-08-13 11:36:41.952.679.920
#Sample rate: 2.94118e+06Hz
#Samples: 32768
#Trigger: Source: Channel 3 Type: Edge Condition: Rising Level: 60 mV Hyst.: Auto HoldOff: 0 s
#Channel 3: Range: 200 mV/div Offset: 0 V Attenuation: 1 X Coupling: DC Bandwidth: 0 Hz Sample Mode: Average

Time (s),Channel 3 (V)
-0.005570499011299436,0.01216803067202238
-0.005570159011299435,0.0120034628832454
-0.005569819011299436,0.009699513840430593
-0.005569479011299436,0.009304551147375908
-0.005569139011299435,0.007560132586384859
-0.005568799011299435,0.007823441048420837
-0.005568459011299436,0.008152576625966409
-0.005568119011299435,0.007198083451081738
-0.005567779011299435,0.005815714025392853
-0.005567439011299436,0.007329737682102481
-0.005567099011299435,0.008448798645755087
-0.005566759011299435,0.007165169893329695
-0.005566419011299436,0.007494305470875266
-0.005566079011299435,0.008185490183720607
-0.005565739011299435,0.007988008837193623
-0.005565399011299436,0.00811966306821185
-0.005565059011299435,0.007658873259645597
-0.005564719011299435,0.00630941739171121
-0.005564379011299436,0.005387837774583611
-0.005564039011299435,0.004137122579898646
-0.005563699011299435,-0.002346848297737309
-0.005563359011299436,0.002261049787900686
-0.005563019011299436,0.00387381411787105
-0.005562679011299435,0.002919320942991828
-0.005562339011299436,0.001569865075054987
-0.005561999011299436,0.0005166312269110753
-0.005561659011299435,-0.0002403806014456541
-0.005561319011299436,0.002985148058500942
-0.005560979011299436,0.003248456520536921
-0.005560639011299435,0.002129395556882458
-0.005560299011299436,0.001964827768109672
-0.005559959011299436,0.001668605748319197
-0.005559619011299435,0.00107616170873663
-0.005559279011299436,-0.0006353432945003394
-0.005558939011299436,0.0006811990156795502
-0.005558599011299435,-0.0009315653142913533
-0.005558259011299436,-0.001820231373664395
-0.005557919011299436,-0.002807638106299313
-0.005557579011299435,-0.003729217723428708
-0.005557239011299436,-0.003795044838937822
-0.005556899011299436,-0.005802771861962153
-0.005556559011299435,-0.005045760033610991
-0.005556219011299436,-0.006757265036847961
-0.005555879011299436,-0.005012846475859607
-0.005555539011299435,-0.00415709397423795
-0.005555199011299436,-0.003070946568337565
-0.005554859011299436,-0.003268427914864549
-0.005554519011299435,0.0002862363226272596
-0.005554179011299436,0.0005495447846637165
-0.005553839011299436,0.0005495447846637165
-0.005553499011299435,0.001931914210355115
-0.005553159011299436,-0.002840551664055666
-0.005552819011299436,0.004894134408265255
-0.005552479011299435,0.01075274768857642
-0.005552139011299436,0.005980281814165639
-0.005551799011299436,0.005256183543565383
-0.005551459011299435,0.00739556479760944
-0.005551119011299436,0.006210676718447538
-0.005550779011299436,0.001899000652600558
-0.005550439011299435,0.001240729497504926
-0.005550099011299436,-0.001227787334082367
-0.005549759011299436,-0.003268427914864908
-0.005549419011299435,-0.002939292337317361
-0.005549079011299436,-0.001853144931418952
-0.005548739011299436,-0.003795044838937822
-0.005548399011299435,-0.003268427914864429
-0.005548059011299435,-0.003005119452828451
-0.005547719011299436,-0.004190007531992507
-0.005547379011299435,-0.00425583464750204
-0.005547039011299435,-0.004486229551783521
-0.005546699011299436,-0.005210327822383777
-0.005546359011299435,-0.006066080323999867
-0.005546019011299435,-0.004749538013819977
-0.005545679011299436,-0.004815365129329092
-0.005545339011299435,-0.003992526185462291
-0.005544999011299435,-0.002412675413246423
-0.005544659011299436,-0.0007669975255185678
-0.005544319011299435,0.0001545820916120247
-0.005543979011299435,0.001800259979336887
-0.005543639011299436,0.002491444692182586
-0.005543299011299435,0.0006811990156801488
-0.005542959011299435,-0.0003062077169547683
-0.005542619011299436,0.003445937867064742
-0.005542279011299436,-0.001984799162427303
-0.005541939011299435,-0.002215194066719081
-0.005541599011299436,-0.002182280508964523
-0.005541259011299436,-0.006428129459294668
-0.005540919011299435,-0.01103602754494038
-0.005540579011299436,-0.003169687241601236
-0.005540239011299436,-0.004387488878517635
-0.005539899011299435,-0.01090437331392216
-0.005539559011299436,-0.006724351479093405
-0.005539219011299436,-0.002577243202026752
-0.005538879011299435,0.0005495447846637165
-0.005538539011299436,-0.001688577142646167
-0.005538199011299436,-0.0008328246410292386
-0.005537859011299435,-0.0007999110832731249
-0.005537519011299436,-0.001063219545309582
-0.005537179011299436,-0.002083539835698996
-0.005536839011299435,-0.003038033010583008
-0.005536499011299436,-0.001820231373664395
-0.005536159011299436,-0.003235514357107777
-0.005535819011299435,-0.006131907439511376
-0.005535479011299436,-0.005671117630947577
-0.005535139011299436,-0.006362302343792019
-0.005534799011299435,-0.007283881960920875
-0.005534459011299436,-0.007020573498884419
-0.005534119011299436,-0.006230648112776484
-0.005533779011299435,-0.00619773455502049
-0.005533439011299436,-0.004255834647501621
-0.005533099011299436,-0.002248107624473638
-0.005532759011299435,-0.004288748205256179
-0.005532419011299436,-0.003531736376901365
-0.005532079011299436,-0.004025439743219721
-0.005531739011299435,-0.004782451571574535
-0.005531399011299436,-0.009094127637421515
-0.005531059011299436,-0.006033166766247705
-0.005530719011299435,-0.002379761855491866
-0.005530379011299436,-0.002478502528755537
-0.005530039011299436,0.0005166312269091594
-0.005529699011299435,-0.003202600799359506
-0.005529359011299436,-0.005243241380138334
-0.005529019011299436,-0.002215194066719081
-0.005528679011299435,-0.002972205895076588
-0.005528339011299436,-0.004453315994028964
-0.005527999011299436,-0.004025439743219721
-0.005527659011299435,-0.00550654984217982
-0.005527319011299436,-0.008271288693557588
-0.005526979011299436,-0.007645931096221003
-0.005526639011299435,-0.00692183282562446
-0.005526299011299435,-0.008962473406403288
-0.005525959011299436,-0.007777585327239231
-0.005525619011299435,-0.007415536191936889
-0.005525279011299435,-0.00619773455502049
-0.005524939011299436,-0.004025439743219721
-0.005524599011299435,-0.004749538013821834
-0.005524259011299435,-0.005769858304211248
-0.005523919011299436,-0.00517741426462922
-0.005523579011299435,-0.007678844653989689
-0.005523239011299435,-0.01544644428405104
-0.005522899011299436,-0.02719658440242792
-0.005522559011299435,-0.04464077001238678
-0.005522219011299435,-0.06860184005766076
-0.005521879011299436,-0.09815821492125304
-0.005521539011299435,-0.1282741202667297
-0.005521199011299435,-0.1595749136912566
-0.005520859011299436,-0.1932783968319231
-0.005520519011299436,-0.2104592739797707
-0.005520179011299435,-0.2273439291078897
-0.005519839011299436,-0.2411017962492946
-0.005519499011299436,-0.2469933230873496
-0.005519159011299435,-0.2564724277206727
-0.005518819011299436,-0.2562749463741454
-0.005518479011299436,-0.2496593212654915
-0.005518139011299435,-0.2443273249092412
-0.005517799011299436,-0.2400814759589033
-0.005517459011299436,-0.2311619018074346
-0.005517119011299435,-0.2232955615040792
-0.005516779011299436,-0.2169432448574496
-0.005516439011299436,-0.2095706079204423
-0.005516099011299435,-0.2021979709834081
-0.005515759011299436,-0.1968330610694153
-0.005515419011299436,-0.1909744477891148
-0.005515079011299435,-0.1835688972943287
-0.005514739011299436,-0.1780394195915632
-0.005514399011299436,-0.1704034741925198
-0.005514059011299435,-0.1638207626415945
-0.005513719011299436,-0.1583900256120926
-0.005513379011299436,-0.153584646179936
-0.005513039011299435,-0.1463436634739247
-0.005512699011299436,-0.1424598636588869
-0.005512359011299436,-0.1389381129791493
-0.005512019011299435,-0.132421228543747
-0.005511679011299436,-0.1277475033425999
-0.005511339011299436,-0.1225142476596253
-0.005510999011299435,-0.1173797326499144
-0.005510659011299436,-0.1163594123595231
-0.005510319011299436,-0.1129364023530492
-0.005509979011299435,-0.1029306807956638
-0.005509639011299436,-0.09832278271002584
-0.005509299011299436,-0.09532764895436113
-0.005508959011299435,-0.09381362529765054
-0.005508619011299436,-0.09328700837357859
-0.005508279011299436,-0.08752713576653109
-0.005507939011299435,-0.08426869354882541
-0.005507599011299436,-0.0817672631594836
-0.005507259011299436,-0.08120773267765613
-0.005506919011299435,-0.0775214142091422
-0.005506579011299436,-0.07557951430162688
-0.005506239011299436,-0.07413131776042636
-0.005505899011299435,-0.07120201112026724
-0.005505559011299435,-0.06926011121275191
-0.005505219011299436,-0.06679159438116011
-0.005504879011299435,-0.065376311397708
-0.005504539011299435,-0.06198621494899479
-0.005504199011299436,-0.06073549975432162
-0.005503859011299435,-0.06007722859922574
-0.005503519011299435,-0.05747705753662046
-0.005503179011299436,-0.05553515762910159
-0.005502839011299435,-0.05550224407134195
-0.005502499011299435,-0.05270459166220968
-0.005502159011299436,-0.05063103752367259
-0.005501819011299435,-0.04951197656001273
-0.005501479011299435,-0.04681306482414396
-0.005501139011299436,-0.04454202933907952
-0.005500799011299435,-0.0420735125074851
-0.005500459011299435,-0.04062531596628723
-0.005500119011299436,-0.04220516673850597
-0.005499779011299436,-0.03904546519407423
-0.005499439011299435,-0.03384512306884846
-0.005499099011299436,-0.03213361806561149
-0.005498759011299436,-0.03252858075866545
-0.005498419011299435,-0.03621489922717657
-0.005498079011299436,-0.03562245518759454
-0.005497739011299436,-0.03239692652765382
-0.005497399011299435,-0.03055376729339275
-0.005497059011299436,-0.03045502662012908
-0.005496719011299436,-0.02979675546503913
-0.005496379011299435,-0.02726241151793704
-0.005496039011299436,-0.02400396930023588
-0.005495699011299436,-0.02420145064676287
-0.005495359011299435,-0.02173293381517144
-0.005495019011299436,-0.02216081006598069
-0.005494679011299436,-0.02137088467987276
-0.005494339011299435,-0.02252285920128081
-0.005493999011299436,-0.02146962535313499
-0.005493659011299436,-0.01676298659424189
-0.005493319011299435,-0.024069796415745
-0.005492979011299436,-0.02156836602639866
-0.005492639011299436,-0.02295073545208754
-0.005492299011299435,-0.02265451343229904
-0.005491959011299436,-0.02219372362373525
-0.005491619011299436,-0.02064678640927388
-0.005491279011299435,-0.02235829141250803
-0.005490939011299436,-0.02067969996702562
-0.005490599011299436,-0.01956063900337068
-0.005490259011299435,-0.02005434236968903
-0.005489919011299436,-0.0192315034258251
-0.005489579011299436,-0.02202915583496246
-0.005489239011299435,-0.01577557986159661
-0.005488899011299436,-0.01360328504979584
-0.005488559011299436,-0.01136516312248596
-0.005488219011299435,-0.01136516312249368
-0.005487879011299436,-0.01561101207282382
-0.005487539011299436,-0.01511730870650547
-0.005487199011299435,-0.01370202572306394
-0.005486859011299436,-0.01613762899689674
-0.005486519011299436,-0.01478817312895989
-0.005486179011299435,-0.01294501389470134
-0.005485839011299436,-0.0111018546604495
-0.005485499011299436,-0.01139807668024051
-0.005485159011299435,-0.01162847158451828
-0.005484819011299435,-0.009357436099457973
-0.005484479011299436,-0.009719485234758102
-0.005484139011299435,-0.008567510713352674
-0.005483799011299435,-0.01080563264065849
-0.005483459011299436,-0.009653658119248986
-0.005483119011299435,-0.008106720904786419
-0.005482779011299435,-0.008995386964157845
-0.005482439011299436,-0.01103602754494038
-0.005482099011299435,-0.01008153437006038
-0.005481759011299435,-0.01126642244922228
-0.005481419011299436,-0.0101802750433219
-0.005481079011299435,-0.009357436099460787
-0.005480739011299435,-0.01090437331392216
-0.005480399011299436,-0.009916966581285444
-0.005480059011299435,-0.007185141287659239
-0.005479719011299435,-0.008304202251312145
-0.005479379011299436,-0.01370202572305951
-0.005479039011299436,-0.009258695426202383
-0.005478699011299435,-0.005671117630947577
-0.005478359011299436,-0.005210327822383777
-0.005478019011299436,-0.003465909261395424
-0.005477679011299435,-0.008666251386612273
-0.005477339011299436,-0.009554917445985316
-0.005476999011299436,-0.005309068495655172
-0.005476659011299435,-0.005374895611156563
-0.005476319011299436,-0.004782451571574535
-0.005475979011299436,-0.00662561080582638
-0.005475639011299435,-0.005605290515438462
-0.005475299011299436,-0.006033166766247705
-0.005474959011299436,-0.0072838819609186
-0.005474619011299435,-0.007382622634184546
-0.005474279011299436,-0.009982793696794558
-0.005473939011299436,-0.009258695426195618
-0.005473599011299435,-0.008501683597839487
-0.005473259011299436,-0.009456176772721644
-0.005472919011299436,-0.007909239558260273
-0.005472579011299435,-0.006362302343793276
-0.005472239011299436,-0.005572376957683906
-0.005471899011299436,-0.006362302343791839
-0.005471559011299435,-0.005111587149120106
-0.005471219011299436,-0.006461043017056948
-0.005470879011299436,-0.007020573498883401
-0.005470539011299435,-0.006625610805829733
-0.005470199011299436,-0.007382622634184546
-0.005469859011299436,-0.007152227729902647
-0.005469519011299435,-0.006987659941129861
-0.005469179011299436,-0.00665852436358429
-0.005468839011299436,-0.01195760716206798
-0.005468499011299435,-0.007942153116012016
-0.005468159011299436,-0.003400082145883136
-0.005467819011299436,-0.005276154937892892
-0.005467479011299435,-0.002412675413246423
-0.005467139011299436,-0.00790923955825746
-0.005466799011299436,-0.008007980231521132
-0.005466459011299435,-0.004914105802590608
-0.005466119011299436,-0.003729217723428708
-0.005465779011299436,-0.005934426092984033
-0.005465439011299435,-0.005802771861964069
-0.005465099011299436,-0.004848278687083649
-0.005464759011299436,-0.006790178594602518
-0.005464419011299435,-0.007645931096221003
-0.005464079011299436,-0.007645931096221003
-0.005463739011299436,-0.007415536191939104
-0.005463399011299435,-0.00734970907642508
-0.005463059011299435,-0.004650797340556306
-0.005462719011299436,-0.005243241380138334
-0.005462379011299435,-0.003400082145877748
-0.005462039011299435,-0.0004378619479729968
-0.005461699011299436,0.001109075266491187
-0.005461359011299435,-0.0003391212747082478
-0.005461019011299435,0.0002533227648727025
-0.005460679011299436,-0.0001087263704274257
-0.005460339011299435,-0.0019847991624373
-0.005459999011299435,-0.002050626277946295
-0.005459659011299436,-0.004321661763010735
-0.005459319011299435,-0.006066080324004298
-0.005458979011299435,-0.007185141287657204
-0.005458639011299436,-0.007777585327239231
-0.005458299011299435,-0.01278044610591814
-0.005457959011299435,-0.005210327822383777
-0.005457619011299436,-0.003498822819146808
-0.005457279011299436,-0.001096133103068509
-0.005456939011299435,-0.002182280508964523
-0.005456599011299436,-0.006921832825620747
-0.005456259011299436,-0.006625610805830272
-0.005455919011299435,-0.004815365129329092
-0.005455579011299436,-0.00619773455502049
-0.005455239011299436,-0.009258695426188733
-0.005454899011299435,-0.009258695426194301
-0.005454559011299436,-0.007250968403166318
-0.005454219011299436,-0.007645931096220285
-0.005453879011299435,-0.008501683597839487
-0.005453539011299436,-0.007744671769484675
-0.005453199011299436,-0.007645931096221183
-0.005452859011299435,-0.008205461578048474
-0.005452519011299436,-0.006362302343793276
-0.005452179011299436,-0.005572376957685343
-0.005451839011299435,-0.00790923955825746
-0.005451499011299436,-0.005605290515438462
-0.005451159011299436,-0.005177414264629998
-0.005450819011299435,-0.006131907439511376
-0.005450479011299436,-0.005769858304211248
-0.005450139011299436,-0.006131907439510718
-0.005449799011299435,-0.006921832825620747
-0.005449459011299436,-0.005769858304211248
-0.005449119011299436,-0.006098993881756221
-0.005448779011299435,-0.00619773455502049
-0.005448439011299436,-0.0009315653142913533
-0.005448099011299436,-0.005309068495647449
-0.005447759011299435,-0.00711931417214809
-0.005447419011299436,-0.0003062077169547683
-0.005447079011299436,0.001043248150982073
-0.005446739011299435,0.001273643055263973
-0.005446399011299436,-0.0009973924298004675
-0.005446059011299436,-0.005967339650738591
-0.005445719011299435,-0.005868598977476117
-0.005445379011299436,-0.006526870132566062
-0.005445039011299436,-0.00665852436358429
-0.005444699011299435,-0.007119314172147372
-0.005444359011299436,-0.006724351479093405
-0.005444019011299436,-0.004486229551783521
-0.005443679011299435,-0.005605290515437625
-0.005443339011299436,-0.005144500706874663
-0.005442999011299436,-0.003893785512201493
-0.005442659011299435,-0.004453315994031119
-0.005442319011299435,-0.005638204073193019
-0.005441979011299436,-0.005736944746456691
-0.005441639011299435,-0.006329388786042551
-0.005441299011299435,-0.008435856482330374
-0.005440959011299436,-0.005736944746456691
-0.005440619011299435,-0.006987659941132974
-0.005440279011299435,-0.00869916494436683
-0.005439939011299436,-0.008402942924575817
-0.005439599011299435,-0.005967339650737574
-0.005439259011299435,-0.00540780916891112
-0.005438919011299436,-0.005309068495647449
-0.005438579011299435,-0.004354575320762957
-0.005438239011299435,-0.003070946568337565
-0.005437899011299436,-0.003630477050165036
-0.005437559011299435,-0.007876326000496257
-0.005437219011299435,-0.004222921089747064
-0.005436879011299436,-0.005210327822383777
-0.005436539011299436,-0.003367168588131932
-0.005436199011299435,-0.00438748887851985
-0.005435859011299436,-0.009851139465776329
-0.005435519011299436,-0.008863732733141411
-0.005435179011299435,-0.005243241380138334
-0.005434839011299436,-0.005276154937892892
-0.005434499011299436,-0.005638204073192361
-0.005434159011299435,-0.005704031188702134
-0.005433819011299436,-0.006230648112775047
-0.005433479011299436,-0.003630477050169766
-0.005433139011299435,-0.00290637877956478
-0.005432799011299436,-0.003992526185465165
-0.005432459011299436,-0.004716624456064104
-0.005432119011299435,-0.002840551664055666
-0.005431779011299436,-0.003202600799355794
-0.005431439011299436,-0.004091266858727219
-0.005431099011299435,-0.004091266858728836
-0.005430759011299436,-0.005012846475856435
-0.005430419011299436,-0.003202600799359087
-0.005430079011299435,-0.001853144931418952
-0.005429739011299436,-0.002017712720191738
-0.005429399011299436,-0.002873465221808666
-0.005429059011299435,-0.0005695161789912252
-0.005428719011299436,0.0004837176691546022
-0.005428379011299436,-0.00175440425815121
-0.005428039011299435,-0.001688577142646167
-0.005427699011299436,-0.00244558897100098
-0.005427359011299436,-0.005309068495647449
-0.005427019011299435,-0.008337115809066702
-0.005426679011299436,-0.002215194066719081
-0.005426339011299436,-0.003465909261392251
-0.005425999011299435,-0.007514276865202775
-0.005425659011299436,-0.005704031188702134
-0.005425319011299436,-0.005572376957683906
-0.005424979011299435,-0.005835685419720362
-0.005424639011299436,-0.005967339650738591
-0.005424299011299436,-0.005045760033610991
-0.005423959011299435,-0.00425583464750192
-0.005423619011299436,-0.004420402436274407
-0.005423279011299436,-0.003729217723428708
-0.005422939011299435,-0.00422292108974425
-0.005422599011299436,-0.00267598387528288
-0.005422259011299436,-0.003795044838937822
-0.005421919011299435,-0.00547363628441784
-0.005421579011299436,-0.00415709397423795
-0.005421239011299436,-0.005704031188702134
-0.005420899011299435,-0.006625610805830631
-0.005420559011299435,-0.00711931417214809
-0.005420219011299436,-0.005736944746456691
-0.005419879011299435,-0.00609899388175203
-0.005419539011299435,-0.003465909261392251
-0.005419199011299436,-0.00290637877956478
-0.005418859011299435,-0.004255834647497669
-0.005418519011299435,-0.002083539835700852
-0.005418179011299436,-0.002708897433037437
-0.005417839011299435,-0.004782451571570105
