Analysis/files/cmb03_wrd01/d2s05_ch41.csv

#Digilent WaveForms Oscilloscope Acquisition
#Device Name: ADP3450
#Serial Number: SN:210018B9D9B0
#Date Time: 2024-08-13 15:22:02.759.854.790
#Sample rate: 2.94118e+06Hz
#Samples: 32768
#Trigger: Source: Channel 3 Type: Edge Condition: Rising Level: 60 mV Hyst.: Auto HoldOff: 0 s
#Channel 3: Range: 200 mV/div Offset: 0 V Attenuation: 1 X Coupling: DC Bandwidth: 0 Hz Sample Mode: Average

Time (s),Channel 3 (V)
-0.005570553209054595,0.001602778632809544
-0.005570213209054594,0.0003191498803833733
-0.005569873209054594,0.001174902382000301
-0.005569533209054595,8.875497609991696e-05
-0.005569193209054594,-0.0001745534859376175
-0.005568853209054594,-0.0007669975255185678
-0.005568513209054595,-0.001227787334082367
-0.005568173209054594,-0.003465909261392789
-0.005567833209054594,-0.003762131281183265
-0.005567493209054595,-0.004025439743219721
-0.005567153209054594,-0.006954746383373807
-0.005566813209054594,-0.006131907439511376
-0.005566473209054595,-0.006493956574811504
-0.005566133209054594,-0.008106720904784084
-0.005565793209054594,-0.007711758211730118
-0.005565453209054595,-0.009357436099457973
-0.005565113209054594,-0.01488691380221195
-0.005564773209054594,-0.008501683597839487
-0.005564433209054595,-0.006625610805829733
-0.005564093209054594,-0.007514276865201818
-0.005563753209054594,-0.006987659941129861
-0.005563413209054595,-0.009159954752930631
-0.005563073209054595,-0.008337115809068199
-0.005562733209054594,-0.005769858304211248
-0.005562393209054594,-0.005309068495647449
-0.005562053209054595,-0.006428129459300355
-0.005561713209054594,-0.007349709076429989
-0.005561373209054594,-0.00711931417214809
-0.005561033209054595,-0.00856751071334597
-0.005560693209054594,-0.00860042427110316
-0.005560353209054594,-0.00790923955825746
-0.005560013209054595,-0.007843412442748466
-0.005559673209054594,-0.009785312350267215
-0.005559333209054594,-0.01014736148556734
-0.005558993209054595,-0.009752398792513377
-0.005558653209054594,-0.01073980552514937
-0.005558313209054594,-0.01212217495084077
-0.005557973209054595,-0.01136516312248733
-0.005557633209054594,-0.01199052071982254
-0.005557293209054594,-0.01212217495084077
-0.005556953209054595,-0.01064106485188839
-0.005556613209054594,-0.0106410648518857
-0.005556273209054594,-0.01034484283209469
-0.005555933209054595,-0.008435856482333847
-0.005555593209054594,-0.01001570725454911
-0.005555253209054594,-0.0104106699476038
-0.005554913209054595,-0.01047649706311279
-0.005554573209054594,-0.01613762899689674
-0.005554233209054594,-0.01320832235674115
-0.005553893209054595,-0.006493956574811504
-0.005553553209054594,-0.0117930393732952
-0.005553213209054594,-0.0136361986075504
-0.005552873209054595,-0.01567683918833294
-0.005552533209054594,-0.01686172726749699
-0.005552193209054594,-0.01478817312895989
-0.005551853209054595,-0.014557778224678
-0.005551513209054594,-0.0132083223567402
-0.005551173209054594,-0.01268170543266824
-0.005550833209054595,-0.01106894110269494
-0.005550493209054594,-0.010542324178624
-0.005550153209054594,-0.01162847158452241
-0.005549813209054595,-0.01077271908290393
-0.005549473209054594,-0.01199052071982721
-0.005549133209054594,-0.014557778224678
-0.005548793209054595,-0.01495274091773268
-0.005548453209054594,-0.01389950706958847
-0.005548113209054594,-0.01478817312895989
-0.005547773209054595,-0.01574266630384205
-0.005547433209054594,-0.01501856803324521
-0.005547093209054594,-0.01689464082525155
-0.005546753209054595,-0.01636802390117864
-0.005546413209054594,-0.01659841880546281
-0.005546073209054594,-0.01784913400013371
-0.005545733209054595,-0.01801370178890649
-0.005545393209054594,-0.01676298659423153
-0.005545053209054594,-0.01577557986159661
-0.005544713209054595,-0.01696046794076066
-0.005544373209054594,-0.01900110852154392
-0.005544033209054594,-0.01939607121459789
-0.005543693209054595,-0.01478817312895989
-0.005543353209054594,-0.01442612399365905
-0.005543013209054594,-0.01403116130060508
-0.005542673209054595,-0.01821118313543383
-0.005542333209054595,-0.01886945429052378
-0.005541993209054594,-0.01544644428405104
-0.005541653209054594,-0.01468943245569622
-0.005541313209054595,-0.01370202572306131
-0.005540973209054594,-0.01185886648880431
-0.005540633209054594,-0.01231965629736811
-0.005540293209054595,-0.01146390379575118
-0.005539953209054594,-0.01083854619841304
-0.005539613209054594,-0.01258296475940457
-0.005539273209054595,-0.01416281553162044
-0.005538933209054594,-0.01291210033695014
-0.005538593209054594,-0.01301084101021381
-0.005538253209054595,-0.01386659351183074
-0.005537913209054594,-0.0127146189904228
-0.005537573209054594,-0.01360328504979584
-0.005537233209054595,-0.01498565447548472
-0.005536893209054594,-0.0131754087989866
-0.005536553209054594,-0.01403116130060508
-0.005536213209054595,-0.01597306120812042
-0.005535873209054594,-0.01564392563057838
-0.005535533209054594,-0.01505148159099635
-0.005535193209054595,-0.0156768391883318
-0.005534853209054594,-0.01320832235674115
-0.005534513209054594,-0.01360328504979584
-0.005534173209054595,-0.01567683918832917
-0.005533833209054594,-0.01880362717501586
-0.005533493209054594,-0.01574266630384205
-0.005533153209054595,-0.01353745793428673
-0.005532813209054594,-0.01373493928081407
-0.005532473209054594,-0.01218800206634988
-0.005532133209054595,-0.01636802390117864
-0.005531793209054594,-0.01488691380222357
-0.005531453209054594,-0.0117930393732952
-0.005531113209054595,-0.01261587831715913
-0.005530773209054594,-0.0124842240861409
-0.005530433209054594,-0.01215508850859533
-0.005530093209054595,-0.01333997658775938
-0.005529753209054594,-0.01505148159099396
-0.005529413209054594,-0.01373493928081407
-0.005529073209054595,-0.01366911216530495
-0.005528733209054594,-0.01488691380222183
-0.005528393209054594,-0.01393242062734141
-0.005528053209054595,-0.01445903755141432
-0.005527713209054594,-0.0146894324556967
-0.005527373209054594,-0.01495274091773268
-0.005527033209054595,-0.01452486466692344
-0.005526693209054594,-0.01584140697710542
-0.005526353209054594,-0.01567683918833294
-0.005526013209054595,-0.01518313582201458
-0.005525673209054594,-0.01656550524770682
-0.005525333209054594,-0.01702629505626978
-0.005524993209054595,-0.01673007303647877
-0.005524653209054594,-0.01682881370974064
-0.005524313209054594,-0.01584140697710572
-0.005523973209054595,-0.01709212217177889
-0.005523633209054594,-0.02153545246866087
-0.005523293209054594,-0.03075124863992009
-0.005522953209054595,-0.03351598749130289
-0.005522613209054594,-0.04957780367556908
-0.005522273209054594,-0.07284768900799862
-0.005521933209054595,-0.09986971992449001
-0.005521593209054594,-0.135877152108033
-0.005521253209054594,-0.1675070811101049
-0.005520913209054595,-0.1952532102971965
-0.005520573209054595,-0.225533683431334
-0.005520233209054594,-0.2484415196285608
-0.005519893209054594,-0.2637792375421844
-0.005519553209054595,-0.2735874777530246
-0.005519213209054594,-0.280005621515181
-0.005518873209054594,-0.277932067376644
-0.005518533209054595,-0.2749698471787392
-0.005518193209054594,-0.2711518744792052
-0.005517853209054594,-0.2631867935026024
-0.005517513209054595,-0.2547609227174511
-0.005517173209054594,-0.2477503349157151
-0.005516833209054594,-0.2399827352856396
-0.005516493209054595,-0.2321822220978238
-0.005516153209054594,-0.2259286461244437
-0.005515813209054594,-0.2182268736098774
-0.005515473209054595,-0.211249199365924
-0.005515133209054594,-0.2055222403166183
-0.005514793209054594,-0.1986762203036705
-0.005514453209054595,-0.1916327189442081
-0.005514113209054594,-0.186300722587957
-0.005513773209054594,-0.1799154923835729
-0.005513433209054595,-0.1733986079481825
-0.005513093209054594,-0.1694160674598692
-0.005512753209054594,-0.1632941457175216
-0.005512413209054595,-0.1502932904044715
-0.005512073209054594,-0.1465740583782066
-0.005511733209054594,-0.1414066298107411
-0.005511393209054595,-0.1384773231705855
-0.005511053209054594,-0.1388722858636402
-0.005510713209054594,-0.1335402895074019
-0.005510373209054595,-0.1288336507485003
-0.005510033209054594,-0.1252460729532535
-0.005509693209054594,-0.1221851120820797
-0.005509353209054595,-0.1178076089007236
-0.005509013209054594,-0.1131997108150765
-0.005508673209054594,-0.1081639364786384
-0.005508333209054595,-0.1034902112774913
-0.005507993209054594,-0.1011204351191568
-0.005507653209054594,-0.09759868443942557
-0.005507313209054595,-0.09450481001049721
-0.005506973209054594,-0.08992982548260749
-0.005506633209054594,-0.08647390191838528
-0.005506293209054595,-0.08344585460496601
-0.005505953209054594,-0.0805494615225634
-0.005505613209054594,-0.07966079546319196
-0.005505273209054595,-0.077949290459955
-0.005504933209054594,-0.07571116853264455
-0.005504593209054594,-0.07541494651285408
-0.005504253209054595,-0.07429588554919914
-0.005503913209054594,-0.07067539419619122
-0.005503573209054594,-0.06702198928544204
-0.005503233209054595,-0.06580418764852342
-0.005502893209054594,-0.06330275725918097
-0.005502553209054594,-0.06544213851322328
-0.005502213209054595,-0.05885942696231186
-0.005501873209054594,-0.05428444243442681
-0.005501533209054594,-0.05339577637505538
-0.005501193209054595,-0.05181592560283664
-0.005500853209054594,-0.0514209629097828
-0.005500513209054594,-0.05188175271834575
-0.005500173209054595,-0.04905118675145385
-0.005499833209054595,-0.04793212578780093
-0.005499493209054594,-0.04684597838189852
-0.005499153209054594,-0.04750424953698966
-0.005498813209054595,-0.04691180549740871
-0.005498473209054594,-0.04641810213108927
-0.005498133209054594,-0.04668141059312574
-0.005497793209054595,-0.04417998020378394
-0.005497453209054594,-0.04325840058665179
-0.005497113209054594,-0.0439495852994975
-0.005496773209054595,-0.04276469722033559
-0.005496433209054594,-0.03957208211814139
-0.005496093209054594,-0.03904546519406848
-0.005495753209054595,-0.03973664990691293
-0.005495413209054594,-0.03598450432289467
-0.005495073209054594,-0.03516166537903075
-0.005494733209054595,-0.03552371451433022
-0.005494393209054594,-0.03424008576190315
-0.005494053209054594,-0.0340426044153758
-0.005493713209054595,-0.03433882643516627
-0.005493373209054594,-0.03364764172232112
-0.005493033209054594,-0.03295645700947542
-0.005492693209054595,-0.03424008576190081
-0.005492353209054594,-0.03489835691699429
-0.005492013209054594,-0.03809097201918633
-0.005491673209054595,-0.0300929774848435
-0.005491333209054594,-0.02966510123401971
-0.005490993209054594,-0.02795359623078274
-0.005490653209054595,-0.02880934873240122
-0.005490313209054594,-0.02999423681156528
-0.005489973209054594,-0.02749280642221894
-0.005489633209054595,-0.02558382007245463
-0.005489293209054594,-0.02676870815161868
-0.005488953209054594,-0.02390522862697221
-0.005488613209054595,-0.02216081006598069
-0.005488273209054594,-0.02235829141250575
-0.005487933209054594,-0.02110757621783486
-0.005487593209054595,-0.0213050575643622
-0.005487253209054594,-0.02035056438947831
-0.005486913209054594,-0.01939607121459789
-0.005486573209054595,-0.02044930506274372
-0.005486233209054594,-0.02091009487130572
-0.005485893209054594,-0.0199226881386708
-0.005485553209054595,-0.02002142881193448
-0.005485213209054594,-0.02222663718148627
-0.005484873209054594,-0.02028473727397093
-0.005484533209054595,-0.01939607121459789
-0.005484193209054594,-0.02044930506274234
-0.005483853209054594,-0.0196922932343889
-0.005483513209054595,-0.01949481188786156
-0.005483173209054594,-0.020449305062743
-0.005482833209054594,-0.02005434236968903
-0.005482493209054595,-0.01988977458091625
-0.005482153209054594,-0.02100883554457424
-0.005481813209054594,-0.0226874269900536
-0.005481473209054595,-0.02505720314838171
-0.005481133209054594,-0.01913276275255976
-0.005480793209054594,-0.01821118313543383
-0.005480453209054595,-0.01679590015198788
-0.005480113209054594,-0.01817826957768424
-0.005479773209054594,-0.02091009487130752
-0.005479433209054595,-0.01755291198034269
-0.005479093209054595,-0.01689464082525275
-0.005478753209054594,-0.01702629505626978
-0.005478413209054595,-0.01547935784180559
-0.005478073209054595,-0.01491982735997914
-0.005477733209054594,-0.01597306120812395
-0.005477393209054594,-0.01531479005303281
-0.005477053209054595,-0.01505148159099683
-0.005476713209054594,-0.0152489629375237
-0.005476373209054594,-0.01577557986159661
-0.005476033209054595,-0.01649967813219555
-0.005475693209054594,-0.01728960351830624
-0.005475353209054594,-0.0152489629375237
-0.005475013209054595,-0.01445903755141576
-0.005474673209054594,-0.01663133236321509
-0.005474333209054594,-0.01597306120812395
-0.005473993209054595,-0.01547935784180649
-0.005473653209054594,-0.01656550524770598
-0.005473313209054594,-0.01890236784827953
-0.005472973209054595,-0.01781622044238112
-0.005472633209054594,-0.01817826957767928
-0.005472293209054594,-0.01877071361726131
-0.005471953209054595,-0.01696046794076396
-0.005471613209054594,-0.01830992380869751
-0.005471273209054594,-0.02272034054780816
-0.005470933209054595,-0.01515022226427379
-0.005470593209054594,-0.01360328504979584
-0.005470253209054594,-0.01462360534018711
-0.005469913209054595,-0.01324123591449571
-0.005469573209054594,-0.01751999842258814
-0.005469233209054594,-0.01886945429052498
-0.005468893209054595,-0.0152489629375237
-0.005468553209054594,-0.01541353072629648
-0.005468213209054594,-0.01640093745893319
-0.005467873209054595,-0.01416281553162331
-0.005467533209054594,-0.01333997658775938
-0.005467193209054594,-0.01498565447548724
-0.005466853209054595,-0.01445903755141432
-0.005466513209054594,-0.01409698841611575
-0.005466173209054594,-0.01495274091773268
-0.005465833209054595,-0.01538061716854192
-0.005465493209054594,-0.01320832235674355
-0.005465153209054594,-0.01452486466692344
-0.005464813209054595,-0.01485400024446901
-0.005464473209054594,-0.01462360534018855
-0.005464133209054594,-0.01541353072629648
-0.005463793209054595,-0.01732251707606079
-0.005463453209054594,-0.01557809851506094
-0.005463113209054594,-0.01100311398718583
-0.005462773209054595,-0.01896819496378865
-0.005462433209054594,-0.01590723409261322
-0.005462093209054594,-0.0150185680332418
-0.005461753209054595,-0.01445903755141432
-0.005461413209054594,-0.01340580370327071
-0.005461073209054594,-0.01462360534018711
-0.005460733209054595,-0.01893528140603409
-0.005460393209054594,-0.01320832235673403
-0.005460053209054594,-0.009291608983948858
-0.005459713209054595,-0.01712503572953345
-0.005459373209054594,-0.01755291198033796
-0.005459033209054594,-0.01495274091773268
-0.005458693209054595,-0.01702629505626978
-0.005458353209054594,-0.01834283736645033
-0.005458013209054594,-0.01738834419156991
-0.005457673209054595,-0.01715794928728801
-0.005457333209054595,-0.01692755438300653
-0.005456993209054594,-0.01640093745893319
-0.005456653209054594,-0.01748708486483358
-0.005456313209054595,-0.0160059747658812
-0.005455973209054594,-0.01357037149204128
-0.005455633209054594,-0.01508439514875091
-0.005455293209054595,-0.0163680239011763
-0.005454953209054594,-0.01534770361078737
-0.005454613209054594,-0.01515022226426002
-0.005454273209054595,-0.0166313323632124
-0.005453933209054594,-0.01515022226426002
-0.005453593209054594,-0.0152489629375237
-0.005453253209054595,-0.01544644428405068
-0.005452913209054594,-0.0138665935118323
-0.005452573209054594,-0.01465651889794167
-0.005452233209054595,-0.01689464082524748
-0.005451893209054594,-0.01640093745893319
-0.005451553209054594,-0.01567683918833294
-0.005451213209054595,-0.01482108668671601
-0.005450873209054594,-0.01472234601345078
-0.005450533209054594,-0.01673007303647877
-0.005450193209054595,-0.01264879187492111
-0.005449853209054594,-0.01139807668024051
-0.005449513209054594,-0.009851139465776329
-0.005449173209054595,-0.01041066994760278
-0.005448833209054594,-0.01567683918833294
-0.005448493209054594,-0.01574266630384205
-0.005448153209054595,-0.01383367995407774
-0.005447813209054594,-0.01498565447548724
-0.005447473209054594,-0.01646676457444231
-0.005447133209054595,-0.01712503572953345
-0.005446793209054594,-0.0150185680332418
-0.005446453209054594,-0.014557778224678
-0.005446113209054595,-0.01643385101668775
-0.005445773209054594,-0.01636802390117624
-0.005445433209054594,-0.01505148159099635
-0.005445093209054595,-0.01557809851506927
-0.005444753209054594,-0.01728960351830462
-0.005444413209054594,-0.01640093745893319
-0.005444073209054595,-0.01505148159099635
-0.005443733209054594,-0.01577557986159475
-0.005443393209054594,-0.01475525957120534
-0.005443053209054595,-0.01515022226426002
-0.005442713209054594,-0.01462360534018567
-0.005442373209054594,-0.01383367995407774
-0.005442033209054595,-0.01301084101021381
-0.005441693209054594,-0.01380076639632324
-0.005441353209054594,-0.01383367995407774
-0.005441013209054595,-0.01208926139308621
-0.005440673209054594,-0.0134716308187833
-0.005440333209054594,-0.01659841880546054
-0.005439993209054595,-0.01669715947872421
-0.005439653209054594,-0.01047649706311471
-0.005439313209054594,-0.01146390379574963
-0.005438973209054595,-0.01008153437005823
-0.005438633209054594,-0.01501856803324701
-0.005438293209054594,-0.01788204755788826
-0.005437953209054595,-0.01436029687815065
-0.005437613209054594,-0.01278044610593598
-0.005437273209054594,-0.0150185680332418
-0.005436933209054595,-0.01439321043590521
-0.005436593209054595,-0.01347163081877929
-0.005436253209054594,-0.0150185680332418
-0.005435913209054594,-0.01396533418509597
-0.005435573209054595,-0.01620345611240178
-0.005435233209054594,-0.01768456621136092
-0.005434893209054594,-0.01666424592096965
-0.005434553209054595,-0.01709212217177812
-0.005434213209054594,-0.01745417130707902
-0.005433873209054594,-0.01587432053486028
-0.005433533209054595,-0.01432738332039891
-0.005433193209054594,-0.01640093745893319
-0.005432853209054594,-0.01538061716854192
-0.005432513209054595,-0.01521604937976944
-0.005432173209054594,-0.01488691380222357
-0.005431833209054594,-0.01547935784180559
-0.005431493209054595,-0.01561101207282358
-0.005431153209054594,-0.01666424592096965
-0.005430813209054594,-0.01719086284504256
-0.005430473209054595,-0.01580849341935368
-0.005430133209054594,-0.01847449159747029
-0.005429793209054594,-0.02334569814514474
-0.005429453209054595,-0.01821118313544317
-0.005429113209054594,-0.01452486466692344
-0.005428773209054594,-0.01482108668671445
-0.005428433209054595,-0.01297792745246261
-0.005428093209054594,-0.01538061716854192
-0.005427753209054594,-0.01663133236321509
-0.005427413209054595,-0.01380076639632318
-0.005427073209054594,-0.01442612399365977
-0.005426733209054594,-0.01778330688462459
-0.005426393209054595,-0.01798078823115194
-0.005426053209054594,-0.01847449159747029
-0.005425713209054594,-0.0199226881386708
-0.005425373209054595,-0.01982394746540713
-0.005425033209054594,-0.01863905938624308
-0.005424693209054594,-0.01850740515522485
-0.005424353209054595,-0.01807952890441561
-0.005424013209054594,-0.01682881370974321
-0.005423673209054594,-0.01725668996055168
-0.005423333209054595,-0.01636802390117864
-0.005422993209054594,-0.01534770361078743
-0.005422653209054594,-0.01538061716854192
-0.005422313209054595,-0.01518313582201458
-0.005421973209054594,-0.01373493928081359
-0.005421633209054594,-0.01347163081877761
-0.005421293209054595,-0.01521604937976914
-0.005420953209054594,-0.01347163081877851
-0.005420613209054594,-0.01396533418509597
-0.005420273209054595,-0.01462360534018711
-0.005419933209054594,-0.01310958168348353
-0.005419593209054594,-0.01643385101668775
-0.005419253209054595,-0.01998851525417992
-0.005418913209054594,-0.01195760716206768
-0.005418573209054594,-0.0117930393732952
-0.005418233209054595,-0.00962074456149443
-0.005417893209054594,-0.007283881960933268
-0.005417553209054594,-0.0140969884161142
-0.005417213209054595,-0.01518313582201458
-0.005416873209054594,-0.01182595293105365
-0.005416533209054594,-0.01396533418509597
-0.005416193209054595,-0.01597306120812395
-0.005415853209054594,-0.01462360534018543
