Analysis/files/cmb03_wrd01/d2s07_ch41.csv

#Digilent WaveForms Oscilloscope Acquisition
#Device Name: ADP3450
#Serial Number: SN:210018B9D9B0
#Date Time: 2024-08-13 16:37:34.484.064.720
#Sample rate: 2.94118e+06Hz
#Samples: 32768
#Trigger: Source: Channel 3 Type: Edge Condition: Rising Level: 60 mV Hyst.: Auto HoldOff: 0 s
#Channel 3: Range: 200 mV/div Offset: 0 V Attenuation: 1 X Coupling: DC Bandwidth: 0 Hz Sample Mode: Average

Time (s),Channel 3 (V)
-0.00557028991011236,0.008415885088002865
-0.005569949910112359,0.006441071622730097
-0.005569609910112359,0.006803120758029567
-0.00556926991011236,0.005684059794374625
-0.005568929910112359,0.0004837176691629839
-0.005568589910112359,0.005091615754792597
-0.00556824991011236,0.009205810474112236
-0.005567909910112359,0.002195222672390614
-0.005567569910112359,0.001668605748318658
-0.00556722991011236,0.004137122579910441
-0.005566889910112359,0.001438210844032508
-0.005566549910112359,-0.0008986517565367963
-0.00556620991011236,-0.001918972046928067
-0.005565869910112359,-0.003498822819151896
-0.005565529910112359,-0.006296475228284162
-0.00556518991011236,-0.006033166766247705
-0.005564849910112359,-0.005704031188702912
-0.005564509910112359,-0.006131907439511376
-0.005564169910112359,-0.004848278687083649
-0.005563829910112359,-0.00392669906995623
-0.005563489910112359,-0.004025439743219721
-0.005563149910112359,-0.0006024297367457822
-0.00556280991011236,-0.0002074670436918154
-0.005562469910112359,-0.001622750027137053
-0.005562129910112359,-0.0003391212747093254
-0.00556178991011236,-0.0007340839677632922
-0.005561449910112359,-0.001984799162437181
-0.005561109910112359,-0.004486229551783521
-0.00556076991011236,-0.005539463399927432
-0.005560429910112359,-0.007580103980711889
-0.005560089910112359,-0.008007980231521132
-0.00555974991011236,-0.009192868310683031
-0.005559409910112359,-0.01139807668024051
-0.005559069910112359,-0.01027901571658557
-0.00555872991011236,-0.008337115809070234
-0.005558389910112359,-0.007645931096221003
-0.005558049910112359,-0.006757265036847961
-0.00555770991011236,-0.006033166766249022
-0.005557369910112359,-0.002807638106301108
-0.005557029910112359,-0.008633337828857716
-0.00555668991011236,-0.01205634783532543
-0.005556349910112359,-0.009916966581285444
-0.005556009910112359,-0.009159954752930631
-0.00555566991011236,-0.01057523773637401
-0.005555329910112359,-0.01054232417862203
-0.005554989910112359,-0.01060815129413114
-0.00555464991011236,-0.009620744561496225
-0.005554309910112359,-0.009653658119248986
-0.005553969910112359,-0.0101802750433219
-0.00555362991011236,-0.00962074456149443
-0.005553289910112359,-0.01001570725454911
-0.005552949910112359,-0.01120059533371317
-0.00555260991011236,-0.01021318860107646
-0.005552269910112359,-0.01060815129413114
-0.005551929910112359,-0.01222091562410444
-0.00555158991011236,-0.01212217495084077
-0.005551249910112359,-0.01064106485188881
-0.005550909910112359,-0.01235256985512267
-0.00555056991011236,-0.01245131052838634
-0.005550229910112359,-0.01037775638985457
-0.005549889910112359,-0.01330706303000483
-0.00554954991011236,-0.01080563264065849
-0.005549209910112359,-0.007481363307449175
-0.005548869910112359,-0.008007980231521132
-0.00554852991011236,-0.01027901571658557
-0.005548189910112359,-0.01182595293103772
-0.005547849910112359,-0.005210327822383777
-0.00554750991011236,-0.006493956574811504
-0.005547169910112359,-0.005473636284415983
-0.005546829910112359,-0.00313677368384668
-0.00554648991011236,-0.007942153116012016
-0.005546149910112359,-0.007744671769485932
-0.005545809910112359,-0.008435856482330374
-0.00554546991011236,-0.01080563264065849
-0.005545129910112359,-0.0108714597561664
-0.005544789910112359,-0.01021318860107646
-0.00554444991011236,-0.01162847158452241
-0.005544109910112359,-0.01251713764389372
-0.005543769910112359,-0.0115626444690133
-0.005543429910112359,-0.01222091562410444
-0.005543089910112359,-0.01271461899042178
-0.005542749910112359,-0.01215508850859533
-0.005542409910112359,-0.0124842240861409
-0.00554206991011236,-0.01255005120164989
-0.005541729910112359,-0.0115626444690133
-0.005541389910112359,-0.01208926139308621
-0.00554104991011236,-0.01192469360431373
-0.005540709910112359,-0.01083854619841304
-0.005540369910112359,-0.01080563264065849
-0.00554002991011236,-0.01357037149203625
-0.005539689910112359,-0.008962473406403288
-0.005539349910112359,-0.007481363307448217
-0.00553900991011236,-0.007645931096220704
-0.005538669910112359,-0.007448449749693661
-0.005538329910112359,-0.00869916494436683
-0.00553798991011236,-0.01343871726101443
-0.005537649910112359,-0.01060815129413114
-0.005537309910112359,-0.005802771861965805
-0.00553696991011236,-0.009127041195170027
-0.005536629910112359,-0.006691437921338847
-0.005536289910112359,-0.01021318860107646
-0.00553594991011236,-0.01271461899041825
-0.005535609910112359,-0.01189178004655887
-0.005535269910112359,-0.01189178004655887
-0.00553492991011236,-0.01291210033694828
-0.005534589910112359,-0.01195760716206798
-0.005534249910112359,-0.012253829181859
-0.00553390991011236,-0.01478817312895529
-0.005533569910112359,-0.01600597476587851
-0.005533229910112359,-0.01360328504979584
-0.00553288991011236,-0.01439321043590521
-0.005532549910112359,-0.01584140697710572
-0.005532209910112359,-0.01515022226426002
-0.00553186991011236,-0.0129450138947047
-0.005531529910112359,-0.01278044610593191
-0.005531189910112359,-0.01097020042943127
-0.00553084991011236,-0.01146390379574963
-0.005530509910112359,-0.0111018546604495
-0.005530169910112359,-0.008501683597839487
-0.00552982991011236,-0.008402942924575817
-0.005529489910112359,-0.01149681735350257
-0.005529149910112359,-0.01060815129413114
-0.00552880991011236,-0.01001570725454911
-0.005528469910112359,-0.01189178004656085
-0.005528129910112359,-0.01297792745245925
-0.00552778991011236,-0.01521604937976914
-0.005527449910112359,-0.01982394746539289
-0.005527109910112359,-0.01199052071982254
-0.00552676991011236,-0.01116768177595861
-0.005526429910112359,-0.0114968173535049
-0.005526089910112359,-0.01189178004655887
-0.00552574991011236,-0.01347163081877761
-0.005525409910112359,-0.01120059533371191
-0.005525069910112359,-0.01050941062086747
-0.00552472991011236,-0.009785312350267215
-0.005524389910112359,-0.008863732733140155
-0.005524049910112359,-0.009159954752930631
-0.00552370991011236,-0.01044358350535836
-0.005523369910112359,-0.01784913400015305
-0.005523029910112359,-0.02848021315485565
-0.00552268991011236,-0.04431163443479762
-0.005522349910112359,-0.06889806207750751
-0.005522009910112359,-0.09954058434694443
-0.005521669910112359,-0.1306109828672464
-0.005521329910112359,-0.1621421711961678
-0.005520989910112359,-0.1927517799078502
-0.005520649910112359,-0.2184243549564047
-0.00552030991011236,-0.2419904623086248
-0.005519969910112359,-0.258611808974719
-0.005519629910112359,-0.2685187898588406
-0.00551928991011236,-0.2744103166968956
-0.005518949910112359,-0.2789523876670352
-0.005518609910112359,-0.2767142657397254
-0.00551826991011236,-0.2698353321690354
-0.005517929910112359,-0.264700817159312
-0.005517589910112359,-0.2573281802222912
-0.00551724991011236,-0.2529177634831886
-0.005516909910112359,-0.2444260655825048
-0.005516569910112359,-0.2305036306523272
-0.00551622991011236,-0.22115618025005
-0.005515889910112359,-0.2131910992734301
-0.005515549910112359,-0.2093731265739015
-0.00551520991011236,-0.2028562421385111
-0.005514869910112359,-0.1926859527923411
-0.005514529910112359,-0.1867615123965208
-0.00551418991011236,-0.1800142330568489
-0.005513849910112359,-0.1726086825620612
-0.005513509910112359,-0.1683299200539688
-0.00551316991011236,-0.1624713067736683
-0.005512829910112359,-0.1569089155131375
-0.005512489910112359,-0.1523339309852541
-0.00551214991011236,-0.1466398854937157
-0.005511809910112359,-0.1414395433684957
-0.005511469910112359,-0.1358442385502209
-0.00551112991011236,-0.1306438964250009
-0.005510789910112359,-0.1256410356463082
-0.005510449910112359,-0.1233370866034892
-0.00551010991011236,-0.1195520274617152
-0.005509769910112359,-0.1173468190921599
-0.005509429910112359,-0.115701141204432
-0.00550908991011236,-0.1126401803332582
-0.005508749910112359,-0.1081968500363897
-0.005508409910112359,-0.1063866043598923
-0.00550806991011236,-0.1025028045448546
-0.005507729910112359,-0.09726954886187239
-0.005507389910112359,-0.09308952702705126
-0.00550704991011236,-0.09157550337034162
-0.005506709910112359,-0.09154258981257796
-0.005506369910112359,-0.0865397290338944
-0.00550602991011236,-0.07910126498136449
-0.005505689910112359,-0.07706062440057274
-0.005505349910112359,-0.07199193650638014
-0.00550500991011236,-0.07436171266470826
-0.005504669910112359,-0.07245272631493671
-0.005504329910112359,-0.06847018582664255
-0.00550398991011236,-0.06777900111379684
-0.005503649910112359,-0.0674498655362479
-0.005503309910112359,-0.06560670630199608
-0.00550296991011236,-0.05747705753662046
-0.005502629910112359,-0.06297362168162762
-0.005502289910112359,-0.06083424042758529
-0.00550194991011236,-0.05783910667192059
-0.005501609910112359,-0.05675295926601601
-0.005501269910112359,-0.05444901022320121
-0.005500929910112359,-0.05451483733871033
-0.005500589910112359,-0.05277041877771575
-0.005500249910112359,-0.05109182733223638
-0.005499909910112359,-0.04970945790654498
-0.00549956991011236,-0.04789921223004764
-0.005499229910112359,-0.04454202933907952
-0.005498889910112359,-0.04207351250748774
-0.00549854991011236,-0.04118484644811631
-0.005498209910112359,-0.03921003298284127
-0.005497869910112359,-0.03868341605876836
-0.00549752991011236,-0.0380909720191874
-0.005497189910112359,-0.03707065172879506
-0.005496849910112359,-0.03677442970900404
-0.00549650991011236,-0.04036200750424424
-0.005496169910112359,-0.04348879549093369
-0.005495829910112359,-0.03377929595333935
-0.00549548991011236,-0.03384512306884834
-0.005495149910112359,-0.03285771633621175
-0.005494809910112359,-0.03437173999292138
-0.00549446991011236,-0.03805805846142507
-0.005494129910112359,-0.03272606210519352
-0.005493789910112359,-0.02900683007892857
-0.00549344991011236,-0.03104747065970739
-0.005493109910112359,-0.03032337238911085
-0.005492769910112359,-0.02558382007245463
-0.00549242991011236,-0.02245703208577739
-0.005492089910112359,-0.02341152526065386
-0.005491749910112359,-0.0236090066071812
-0.00549140991011236,-0.02439893199328913
-0.005491069910112359,-0.02357609304942664
-0.005490729910112359,-0.02370774728044487
-0.00549038991011236,-0.02564964718796374
-0.005490049910112359,-0.02607752343877298
-0.005489709910112359,-0.02390522862697221
-0.00548936991011236,-0.0233786117028993
-0.005489029910112359,-0.02459641333981791
-0.005488689910112359,-0.0245305862243088
-0.00548834991011236,-0.02439893199329057
-0.005488009910112359,-0.02449767266655238
-0.005487669910112359,-0.02347735237616297
-0.00548732991011236,-0.02416853708900867
-0.005486989910112359,-0.02374066083819763
-0.005486649910112359,-0.02275325410556272
-0.00548630991011236,-0.0210746626600803
-0.005485969910112359,-0.02268742699005929
-0.005485629910112359,-0.02581421497673653
-0.00548528991011236,-0.01626928322791496
-0.005484949910112359,-0.01518313582201123
-0.005484609910112359,-0.01333997658775938
-0.00548426991011236,-0.01623636967016041
-0.005483929910112359,-0.02008725592744203
-0.005483589910112359,-0.0192315034258251
-0.00548324991011236,-0.01633511034342408
-0.005482909910112359,-0.01794787467340025
-0.005482569910112359,-0.01952772544561612
-0.00548222991011236,-0.01735543063381535
-0.005481889910112359,-0.01712503572953393
-0.005481549910112359,-0.01738834419156991
-0.00548120991011236,-0.01821118313543383
-0.005480869910112359,-0.01751999842258748
-0.005480529910112359,-0.01715794928728801
-0.00548018991011236,-0.01557809851506927
-0.005479849910112359,-0.01472234601345186
-0.005479509910112359,-0.01531479005303281
-0.005479169910112359,-0.0129450138947047
-0.00547882991011236,-0.01264879187491422
-0.005478489910112359,-0.01268170543266824
-0.005478149910112359,-0.01231965629736811
-0.00547780991011236,-0.01169429870003267
-0.005477469910112359,-0.01314249524123204
-0.005477129910112359,-0.01297792745245925
-0.00547678991011236,-0.01399824774284867
-0.005476449910112359,-0.01541353072629648
-0.005476109910112359,-0.01515022226426002
-0.00547576991011236,-0.0154464442840505
-0.005475429910112359,-0.02077844064028929
-0.005475089910112359,-0.01850740515522485
-0.00547474991011236,-0.01416281553163121
-0.005474409910112359,-0.01511730870650547
-0.005474069910112359,-0.01445903755141432
-0.00547372991011236,-0.01702629505626511
-0.005473389910112359,-0.01824409669318839
-0.005473049910112359,-0.01574266630384205
-0.00547270991011236,-0.01409698841611719
-0.005472369910112359,-0.0150185680332418
-0.005472029910112359,-0.01541353072629648
-0.00547168991011236,-0.01416281553162559
-0.005471349910112359,-0.01389950706958685
-0.005471009910112359,-0.01393242062734141
-0.00547066991011236,-0.01185886648880808
-0.005470329910112359,-0.01149681735350419
-0.005469989910112359,-0.01222091562410444
-0.00546964991011236,-0.01192469360431343
-0.005469309910112359,-0.01077271908290393
-0.005468969910112359,-0.012253829181859
-0.00546862991011236,-0.0113322495647314
-0.005468289910112359,-0.0111018546604495
-0.005467949910112359,-0.01258296475940457
-0.00546760991011236,-0.01333997658775938
-0.005467269910112359,-0.0124842240861409
-0.005466929910112359,-0.01389950706958685
-0.00546658991011236,-0.01429446976264154
-0.005466249910112359,-0.01307666812572406
-0.005465909910112359,-0.01370202572305951
-0.00546556991011236,-0.0138665935118323
-0.005465229910112359,-0.01317540879899396
-0.005464889910112359,-0.01722377640279712
-0.00546454991011236,-0.01176012581554064
-0.005464209910112359,-0.008271288693558426
-0.005463869910112359,-0.008732078502121389
-0.00546352991011236,-0.01149681735350419
-0.005463189910112359,-0.01534770361078647
-0.005462849910112359,-0.01485400024446901
-0.00546250991011236,-0.01748708486483358
-0.005462169910112359,-0.01781622044237711
-0.005461829910112359,-0.01669715947872421
-0.00546148991011236,-0.01620345611240585
-0.005461149910112359,-0.01462360534018436
-0.005460809910112359,-0.01310958168347748
-0.00546046991011236,-0.01264879187491368
-0.005460129910112359,-0.01067397840964115
-0.005459789910112359,-0.01116768177595861
-0.00545944991011236,-0.01264879187491368
-0.005459109910112359,-0.005177414264642451
-0.005458769910112359,-0.01245131052838634
-0.005458429910112359,-0.01597306120812395
-0.005458089910112359,-0.01617054255465039
-0.005457749910112359,-0.01567683918833294
-0.005457409910112359,-0.01732251707606079
-0.00545706991011236,-0.01709212217177931
-0.005456729910112359,-0.01617054255465129
-0.005456389910112359,-0.01646676457444231
-0.00545604991011236,-0.01758582553809521
-0.005455709910112359,-0.01630219678566952
-0.005455369910112359,-0.01617054255465129
-0.00545502991011236,-0.01696046794075923
-0.005454689910112359,-0.01781622044237915
-0.005454349910112359,-0.01544644428405104
-0.00545400991011236,-0.01139807668024788
-0.005453669910112359,-0.009818225908021772
-0.005453329910112359,-0.008666251386612273
-0.00545298991011236,-0.0143273833203858
-0.005452649910112359,-0.01712503572953345
-0.005452309910112359,-0.01297792745245925
-0.00545196991011236,-0.01261587831715979
-0.005451629910112359,-0.01357037149204128
-0.005451289910112359,-0.0131754087989866
-0.00545094991011236,-0.01482108668671146
-0.005450609910112359,-0.01485400024446901
-0.005450269910112359,-0.01169429870003153
-0.00544992991011236,-0.0108056326406601
-0.005449589910112359,-0.01281335966368647
-0.005449249910112359,-0.01189178004655887
-0.00544890991011236,-0.010311929274343
-0.005448569910112359,-0.00962074456149443
-0.005448229910112359,-0.009785312350267215
-0.00544788991011236,-0.01113476821820406
-0.005447549910112359,-0.01129933600697684
-0.005447209910112359,-0.009028300521912402
-0.00544686991011236,-0.009423263214967087
-0.005446529910112359,-0.01162847158452241
-0.005446189910112359,-0.01146390379574963
-0.00544584991011236,-0.01083854619841304
-0.005445509910112359,-0.01077271908290243
-0.005445169910112359,-0.009949880139040001
-0.00544482991011236,-0.01080563264065849
-0.005444489910112359,-0.0127804461059364
-0.005444149910112359,-0.0152489629375237
-0.00544380991011236,-0.008567510713348603
-0.005443469910112359,-0.008073807347042938
-0.005443129910112359,-0.01505148159099635
-0.00544278991011236,-0.01389950706958685
-0.005442449910112359,-0.01294501389470679
-0.005442109910112359,-0.0140969884161142
-0.00544176991011236,-0.01551227139956015
-0.005441429910112359,-0.01577557986159529
-0.005441089910112359,-0.01505148159099635
-0.00544074991011236,-0.01380076639632318
-0.005440409910112359,-0.01505148159099635
-0.005440069910112359,-0.01505148159099635
-0.00543972991011236,-0.01281335966368647
-0.005439389910112359,-0.01251713764389815
-0.005439049910112359,-0.01399824774285052
-0.00543870991011236,-0.01205634783533165
-0.005438369910112359,-0.01172721225778537
-0.005438029910112359,-0.0113322495647314
-0.005437689910112359,-0.01004862081230367
-0.005437349910112359,-0.008962473406404844
-0.005437009910112359,-0.009818225908021772
-0.005436669910112359,-0.009159954752930631
-0.00543632991011236,-0.007909239558259736
-0.005435989910112359,-0.008139634462539359
-0.005435649910112359,-0.007975066673766575
-0.00543530991011236,-0.008764992059874509
-0.005434969910112359,-0.009587831003739873
-0.005434629910112359,-0.01097020042943127
-0.00543428991011236,-0.0118259529310482
-0.005433949910112359,-0.01314249524123204
-0.005433609910112359,-0.01673007303647877
-0.00543326991011236,-0.009916966581297837
-0.005432929910112359,-0.01212217495084077
-0.005432589910112359,-0.01067397840964026
-0.00543224991011236,-0.008699164944370423
-0.005431909910112359,-0.01333997658775938
-0.005431569910112359,-0.01462360534018711
-0.00543122991011236,-0.01146390379575537
-0.005430889910112359,-0.01235256985512267
-0.005430549910112359,-0.01347163081877761
-0.00543020991011236,-0.01274753254817867
-0.005429869910112359,-0.01255005120165001
-0.005429529910112359,-0.0138665935118323
-0.00542918991011236,-0.01228674273961643
-0.005428849910112359,-0.01189178004655887
-0.005428509910112359,-0.0124842240861409
-0.00542816991011236,-0.01218800206635042
-0.005427829910112359,-0.01162847158452241
-0.005427489910112359,-0.01310958168347748
-0.00542714991011236,-0.01238548341287723
-0.005426809910112359,-0.01238548341287723
-0.005426469910112359,-0.0136361986075504
-0.00542612991011236,-0.01149681735350419
-0.005425789910112359,-0.01136516312248596
-0.005425449910112359,-0.01360328504979584
-0.00542510991011236,-0.01445903755141432
-0.005424769910112359,-0.01347163081877761
-0.005424429910112359,-0.01551227139956015
-0.00542408991011236,-0.01419572908937787
-0.005423749910112359,-0.01416281553162828
-0.005423409910112359,-0.01689464082525155
-0.00542306991011236,-0.01860614582848852
-0.005422729910112359,-0.01044358350535973
-0.005422389910112359,-0.01120059533371317
-0.00542204991011236,-0.01037775638984924
-0.005421709910112359,-0.01271461899042418
-0.005421369910112359,-0.01347163081877761
-0.00542102991011236,-0.01159555802676786
-0.005420689910112359,-0.009949880139038924
-0.005420349910112359,-0.009357436099457973
-0.00542000991011236,-0.01044358350535836
-0.005419669910112359,-0.00925869542619508
-0.005419329910112359,-0.009686571677003543
-0.00541898991011236,-0.01337289014551394
-0.005418649910112359,-0.01208926139308705
-0.005418309910112359,-0.01255005120165001
-0.00541796991011236,-0.01241839697063178
-0.005417629910112359,-0.01264879187491123
-0.005417289910112359,-0.01129933600697684
-0.00541694991011236,-0.01050941062086747
-0.005416609910112359,-0.010673978409639
-0.005416269910112359,-0.009982793696794558
-0.005415929910112359,-0.01287918677919558
-0.005415589910112359,-0.006592697248084276
-0.005415249910112359,-0.01159555802676786
-0.005414909910112359,-0.01495274091773268
