Analysis/files/cmb03_wrd01/d2s03_ch38.csv

#Digilent WaveForms Oscilloscope Acquisition
#Device Name: ADP3450
#Serial Number: SN:210018B9D9B0
#Date Time: 2024-08-13 11:50:04.508.421.490
#Sample rate: 2.94118e+06Hz
#Samples: 32768
#Trigger: Source: Channel 3 Type: Edge Condition: Rising Level: 60 mV Hyst.: Auto HoldOff: 0 s
#Channel 3: Range: 200 mV/div Offset: 0 V Attenuation: 1 X Coupling: DC Bandwidth: 0 Hz Sample Mode: Average

Time (s),Channel 3 (V)
-0.00557026580720093,0.00802092239494818
-0.005569925807200929,0.006473985180482859
-0.00556958580720093,0.005848627583147411
-0.00556924580720093,0.005980281814165639
-0.005568905807200929,0.004927047966019392
-0.00556856580720093,0.004696653061737912
-0.00556822580720093,0.004104209022155884
-0.005567885807200929,0.002754753154220719
-0.005567545807200929,0.003676332771346642
-0.00556720580720093,0.00176734642158233
-0.005566865807200929,0.001866087094848755
-0.005566525807200929,0.003380110751555628
-0.00556618580720093,0.006375244507220324
-0.005565845807200929,0.003906727675626745
-0.005565505807200929,0.002919320942991828
-0.00556516580720093,0.0027876667119736
-0.005564825807200929,0.001866087094835164
-0.005564485807200929,-0.004091266858728836
-0.00556414580720093,-0.004025439743219721
-0.005563805807200929,-0.002478502528753202
-0.005563465807200929,-0.00119487377632781
-0.00556312580720093,0.0005824583424182735
-0.00556278580720093,-0.004519143109528798
-0.005562445807200929,-0.006098993881756819
-0.00556210580720093,-0.00165566358489161
-0.00556176580720093,-0.0005366026212387034
-0.005561425807200929,-0.002939292337319337
-0.00556108580720093,-0.003005119452828451
-0.00556074580720093,-0.004716624456062308
-0.005560405807200929,-0.004617883782801749
-0.00556006580720093,-0.003992526185465165
-0.00555972580720093,-0.004782451571573098
-0.005559385807200929,-0.005605290515438462
-0.00555904580720093,-0.003992526185465165
-0.00555870580720093,-0.001293614449596391
-0.005558365807200929,-0.002610156759773766
-0.00555802580720093,-0.002939292337319337
-0.00555768580720093,-0.002511416086510873
-0.005557345807200929,-0.00438748887851985
-0.00555700580720093,-0.003070946568337565
-0.00555666580720093,-0.00395961262770899
-0.005556325807200929,-0.003992526185465165
-0.00555598580720093,-0.005012846475856435
-0.00555564580720093,-0.003696304165676545
-0.005555305807200929,-0.005243241380138334
-0.00555496580720093,-0.006296475228284162
-0.00555462580720093,-0.006329388786038659
-0.005554285807200929,-0.008501683597839487
-0.00555394580720093,-0.01169429870003153
-0.00555360580720093,-0.00586859897747492
-0.005553265807200929,-0.003070946568337565
-0.00555292580720093,-0.00336716858812858
-0.00555258580720093,-0.002741810990791994
-0.005552245807200929,-0.00767884465397556
-0.00555190580720093,-0.00767884465397556
-0.00555156580720093,-0.004815365129329092
-0.005551225807200929,-0.005769858304215439
-0.00555088580720093,-0.008073807347030245
-0.00555054580720093,-0.007744671769484675
-0.005550205807200929,-0.007250968403166019
-0.00554986580720093,-0.007086400614393532
-0.00554952580720093,-0.006461043017056948
-0.005549185807200929,-0.006329388786041831
-0.00554884580720093,-0.008040893789275689
-0.00554850580720093,-0.00790923955825746
-0.005548165807200929,-0.005736944746460163
-0.00554782580720093,-0.007645931096221003
-0.00554748580720093,-0.007382622634184546
-0.005547145807200929,-0.005111587149120585
-0.00554680580720093,-0.005374895611156563
-0.00554646580720093,-0.006428129459302391
-0.005546125807200929,-0.005802771861969697
-0.005545785807200929,-0.007942153116012016
-0.00554544580720093,-0.008534597155594046
-0.005545105807200929,-0.009686571677001089
-0.005544765807200929,-0.008337115809066702
-0.00554442580720093,-0.009851139465776329
-0.005544085807200929,-0.008666251386612932
-0.005543745807200929,-0.009028300521912402
-0.00554340580720093,-0.01353745793428673
-0.005543065807200929,-0.005671117630946679
-0.005542725807200929,-0.00517741426462922
-0.00554238580720093,-0.005243241380138334
-0.00554204580720093,-0.005012846475856854
-0.005541705807200929,-0.009127041195176074
-0.00554136580720093,-0.01001570725454911
-0.00554102580720093,-0.007415536191943834
-0.005540685807200929,-0.00711931417214809
-0.00554034580720093,-0.00860042427110316
-0.00554000580720093,-0.008402942924576176
-0.005539665807200929,-0.008106720904784802
-0.00553932580720093,-0.008304202251312145
-0.00553898580720093,-0.008896646290893095
-0.005538645807200929,-0.00790923955825746
-0.00553830580720093,-0.008995386964157845
-0.00553796580720093,-0.009489090330475302
-0.005537625807200929,-0.006921832825620747
-0.00553728580720093,-0.00665852436358429
-0.00553694580720093,-0.007909239558255184
-0.005536605807200929,-0.006691437921338847
-0.00553626580720093,-0.007711758211730118
-0.00553592580720093,-0.00922578186843699
-0.005535585807200929,-0.01004862081230367
-0.00553524580720093,-0.01008153437005823
-0.00553490580720093,-0.009818225908022251
-0.005534565807200929,-0.008468770040084931
-0.00553422580720093,-0.008797905617630502
-0.00553388580720093,-0.008172548020295056
-0.005533545807200929,-0.007876326000502903
-0.00553320580720093,-0.01047649706311291
-0.00553286580720093,-0.008633337828857716
-0.005532525807200929,-0.003729217723428708
-0.00553218580720093,-0.003235514357110351
-0.00553184580720093,-0.002248107624473638
-0.005531505807200929,-0.005440722726665677
-0.00553116580720093,-0.007086400614393532
-0.00553082580720093,-0.005802771861965805
-0.005530485807200929,-0.007711758211730118
-0.00553014580720093,-0.007975066673766575
-0.00552980580720093,-0.009752398792512659
-0.005529465807200929,-0.01077271908290171
-0.00552912580720093,-0.009554917445985316
-0.00552878580720093,-0.01097020042943127
-0.005528445807200929,-0.01018027504331663
-0.00552810580720093,-0.007283881960920875
-0.00552776580720093,-0.006823092152357076
-0.005527425807200929,-0.00741553619193186
-0.00552708580720093,-0.003432995703637694
-0.00552674580720093,-0.004091266858728836
-0.005526405807200929,-0.006823092152357196
-0.00552606580720093,-0.00688891926786619
-0.00552572580720093,-0.00711931417214809
-0.005525385807200929,-0.007975066673766216
-0.005525045807200929,-0.007777585327239231
-0.00552470580720093,-0.006987659941129861
-0.005524365807200929,-0.008172548020293978
-0.005524025807200929,-0.008205461578048474
-0.00552368580720093,-0.01057523773637659
-0.005523345807200929,-0.01623636967017915
-0.005523005807200929,-0.02653831324733678
-0.00552266580720093,-0.04513447337866155
-0.005522325807200929,-0.06326984370146731
-0.005521985807200929,-0.08788918490183123
-0.00552164580720093,-0.116293585244014
-0.005521305807200929,-0.1475285515531518
-0.005520965807200929,-0.1822194414263919
-0.00552062580720093,-0.2105909282108201
-0.00552028580720093,-0.2308985933453449
-0.005519945807200929,-0.2513379127109618
-0.00551960580720093,-0.2602245733046922
-0.00551926580720093,-0.2670376797598732
-0.005518925807200929,-0.2696049372647411
-0.00551858580720093,-0.2685846169743498
-0.00551824580720093,-0.2644045951395286
-0.005517905807200929,-0.2591713394565464
-0.00551756580720093,-0.2534772939650081
-0.00551722580720093,-0.2459730027969827
-0.005516885807200929,-0.2409701420182764
-0.00551654580720093,-0.2310302475764001
-0.00551620580720093,-0.2210245260190329
-0.005515865807200929,-0.2141785060060669
-0.00551552580720093,-0.2055222403166183
-0.00551518580720093,-0.197425505109012
-0.005514845807200929,-0.1900528681719765
-0.00551450580720093,-0.1847866989312474
-0.00551416580720093,-0.1775786297830124
-0.005513825807200929,-0.172477028331043
-0.00551348580720093,-0.1656310083180951
-0.00551314580720093,-0.1585875069586327
-0.005512805807200929,-0.1547695342590913
-0.00551246580720093,-0.1520047954077085
-0.00551212580720093,-0.1475614651108433
-0.005511785807200929,-0.1355809300881845
-0.00551144580720093,-0.132125006523956
-0.00551110580720093,-0.1254435542997809
-0.005510765807200929,-0.1247852831446898
-0.00551042580720093,-0.1236333086232803
-0.00551008580720093,-0.1170835106301234
-0.005509745807200929,-0.1120477362936761
-0.00550940580720093,-0.1105337126369665
-0.00550906580720093,-0.1042472231058461
-0.005508725807200929,-0.09957349790469468
-0.00550838580720093,-0.0972037217463709
-0.00550804580720093,-0.09331992193133315
-0.005507705807200929,-0.08969943057832888
-0.00550736580720093,-0.088053752690604
-0.00550702580720093,-0.08713217307347643
-0.005506685807200929,-0.08387373085577071
-0.00550634580720093,-0.08137230046642893
-0.00550600580720093,-0.0783113395952551
-0.005505665807200929,-0.07347304660533108
-0.00550532580720093,-0.07120201112027078
-0.00550498580720093,-0.06804230957583329
-0.005504645807200929,-0.06452055889609208
-0.005504305807200929,-0.06254574543082225
-0.00550396580720093,-0.06185456071797656
-0.005503625807200929,-0.05892525407781924
-0.005503285807200929,-0.05797076090293882
-0.00550294580720093,-0.05678587282377476
-0.005502605807200929,-0.05411987464565138
-0.005502265807200929,-0.05178301204508209
-0.00550192580720093,-0.05441609666544665
-0.005501585807200929,-0.05017024771509675
-0.005501245807200929,-0.04355462260644281
-0.00550090580720093,-0.04358753616419737
-0.005500565807200929,-0.04204059894973851
-0.005500225807200929,-0.04496990558988876
-0.00549988580720093,-0.04622062078456193
-0.00549954580720093,-0.04240264808504025
-0.005499205807200929,-0.04121776000586926
-0.00549886580720093,-0.04306091924012445
-0.00549852580720093,-0.04174437692994456
-0.005498185807200929,-0.03937460077161405
-0.00549784580720093,-0.04019743971547798
-0.00549750580720093,-0.0399670448111965
-0.005497165807200929,-0.03697191105553139
-0.00549682580720093,-0.03575410941861278
-0.00549648580720093,-0.03483252980148685
-0.005496145807200929,-0.03242984008540251
-0.00549580580720093,-0.03150826046827491
-0.00549546580720093,-0.03015880460034052
-0.005495125807200929,-0.02716367084467337
-0.00549478580720093,-0.02653831324733678
-0.00549444580720093,-0.02548507939919287
-0.005494105807200929,-0.02357609304942664
-0.00549376580720093,-0.02216081006598069
-0.00549342580720093,-0.0220620693927172
-0.005493085807200929,-0.01913276275256143
-0.00549274580720093,-0.01886945429052498
-0.00549240580720093,-0.01906693563705196
-0.005492065807200929,-0.01834283736645206
-0.00549172580720093,-0.0199226881386708
-0.00549138580720093,-0.02403688285798296
-0.005491045807200929,-0.01738834419156991
-0.00549070580720093,-0.01686172726749699
-0.00549036580720093,-0.01577557986159661
-0.005490025807200929,-0.01689464082525155
-0.00548968580720093,-0.01982394746540713
-0.00548934580720093,-0.0201530830429527
-0.005489005807200929,-0.01867197294399764
-0.00548866580720093,-0.01830992380869751
-0.00548832580720093,-0.02008725592744359
-0.005487985807200929,-0.02071261352477772
-0.00548764580720093,-0.01936315765684333
-0.00548730580720093,-0.01906693563705232
-0.005486965807200929,-0.01926441698357823
-0.00548662580720093,-0.01847449159747029
-0.00548628580720093,-0.01965937967663435
-0.005485945807200929,-0.02091009487130554
-0.00548560580720093,-0.01982394746540713
-0.00548526580720093,-0.01946189833010701
-0.005484925807200929,-0.02077844064028713
-0.00548458580720093,-0.01959355256112523
-0.00548424580720093,-0.01814535601992472
-0.005483905807200929,-0.01821118313543126
-0.00548356580720093,-0.01679590015198788
-0.00548322580720093,-0.01626928322791496
-0.005482885807200929,-0.01567683918832743
-0.005482545807200929,-0.01264879187491368
-0.00548220580720093,-0.01182595293104976
-0.005481865807200929,-0.01159555802676774
-0.005481525807200929,-0.01152973091125874
-0.00548118580720093,-0.01373493928081407
-0.005480845807200929,-0.01436029687813958
-0.005480505807200929,-0.008271288693557588
-0.00548016580720093,-0.007415536191939104
-0.005479825807200929,-0.004321661763023787
-0.005479485807200929,-0.01149681735350419
-0.00547914580720093,-0.0138665935118323
-0.00547880580720093,-0.01235256985512542
-0.005478465807200929,-0.01301084101021381
-0.00547812580720093,-0.01136516312248596
-0.00547778580720093,-0.009752398792515592
-0.005477445807200929,-0.01100311398718583
-0.00547710580720093,-0.008929559848648731
-0.00547676580720093,-0.007777585327241327
-0.005476425807200929,-0.007975066673766575
-0.00547608580720093,-0.008238375135803031
-0.00547574580720093,-0.007514276865204093
-0.005475405807200929,-0.00869916494436683
-0.00547506580720093,-0.007744671769484675
-0.00547472580720093,-0.007810498884993669
-0.005474385807200929,-0.008863732733139616
-0.00547404580720093,-0.009061214079666959
-0.00547370580720093,-0.008468770040086008
-0.005473365807200929,-0.01027901571658557
-0.00547302580720093,-0.01218800206634988
-0.00547268580720093,-0.009916966581289575
-0.005472345807200929,-0.009522003888230759
-0.00547200580720093,-0.008238375135803031
-0.00547166580720093,-0.008402942924575517
-0.005471325807200929,-0.007744671769484675
-0.00547098580720093,-0.007185141287657204
-0.00547064580720093,-0.008172548020292122
-0.005470305807200929,-0.009522003888230759
-0.00546996580720093,-0.006428129459302391
-0.00546962580720093,-0.005473636284420234
-0.005469285807200929,-0.006428129459302391
-0.00546894580720093,-0.01080563264065849
-0.00546860580720093,-0.01327414947225027
-0.005468265807200929,-0.01008153437005823
-0.00546792580720093,-0.01004862081230367
-0.00546758580720093,-0.01011444792781279
-0.005467245807200929,-0.009719485234758102
-0.00546690580720093,-0.01215508850859533
-0.00546656580720093,-0.01044358350535836
-0.005466225807200929,-0.009258695426193104
-0.00546588580720093,-0.00860042427110316
-0.00546554580720093,-0.01034484283209469
-0.005465205807200929,-0.009291608983950116
-0.00546486580720093,-0.009982793696794558
-0.00546452580720093,-0.009916966581285444
-0.005464185807200929,-0.009620744561498262
-0.00546384580720093,-0.01172721225778608
-0.00546350580720093,-0.01097020042943127
-0.005463165807200929,-0.009785312350267814
-0.00546282580720093,-0.01011444792781279
-0.00546248580720093,-0.01044358350535836
-0.005462145807200929,-0.008797905617626431
-0.005461805807200929,-0.006559783690320619
-0.00546146580720093,-0.005078673591365549
-0.005461125807200929,-0.004815365129330529
-0.005460785807200929,-0.005605290515438462
-0.00546044580720093,-0.00837002936682126
-0.005460105807200929,-0.01050941062085616
-0.005459765807200929,-0.004288748205256179
-0.00545942580720093,-0.007876326000502903
-0.005459085807200929,-0.01320832235673517
-0.005458745807200929,-0.009916966581285444
-0.00545840580720093,-0.008732078502121389
-0.005458065807200929,-0.009686571677003483
-0.005457725807200929,-0.009653658119248986
-0.00545738580720093,-0.009456176772721644
-0.00545704580720093,-0.008995386964158683
-0.005456705807200929,-0.008139634462539359
-0.00545636580720093,-0.008995386964157845
-0.00545602580720093,-0.008633337828858376
-0.005455685807200929,-0.008007980231521132
-0.00545534580720093,-0.008073807347030245
-0.00545500580720093,-0.009258695426192145
-0.005454665807200929,-0.008534597155594046
-0.00545432580720093,-0.008764992059875945
-0.00545398580720093,-0.0104435835053553
-0.005453645807200929,-0.009324522541703417
-0.00545330580720093,-0.01152973091125874
-0.00545296580720093,-0.01136516312248626
-0.005452625807200929,-0.01149681735350419
-0.00545228580720093,-0.009159954752930631
-0.00545194580720093,-0.009587831003739094
-0.005451605807200929,-0.008435856482330374
-0.00545126580720093,-0.008534597155594046
-0.00545092580720093,-0.006526870132569714
-0.005450585807200929,-0.004881192244838206
-0.00545024580720093,-0.005769858304211248
-0.00544990580720093,-0.004782451571576331
-0.005449565807200929,-0.008732078502121389
-0.00544922580720093,-0.009291608983948858
-0.00544888580720093,-0.007942153116014471
-0.005448545807200929,-0.007942153116012016
-0.00544820580720093,-0.007053487056638975
-0.00544786580720093,-0.00790923955825746
-0.005447525807200929,-0.008732078502121389
-0.00544718580720093,-0.00767884465397556
-0.00544684580720093,-0.008435856482330374
-0.005446505807200929,-0.007448449749693661
-0.00544616580720093,-0.006954746383375304
-0.00544582580720093,-0.00767884465397556
-0.005445485807200929,-0.008040893789273354
-0.00544514580720093,-0.006757265036847961
-0.00544480580720093,-0.007514276865202775
-0.005444465807200929,-0.009094127637420018
-0.00544412580720093,-0.008271288693557588
-0.00544378580720093,-0.008468770040084931
-0.005443445807200929,-0.009489090330475363
-0.00544310580720093,-0.009028300521912402
-0.00544276580720093,-0.007645931096221003
-0.005442425807200929,-0.005539463399928211
-0.00544208580720093,-0.004914105802592763
-0.00544174580720093,-0.003762131281183265
-0.005441405807200929,-0.004584970225047073
-0.005441065807200929,-0.004519143109538078
-0.00544072580720093,-0.01004862081230367
-0.005440385807200929,-0.00764593109621819
-0.005440045807200929,-0.006098993881756819
-0.00543970580720093,-0.00619773455502049
-0.005439365807200929,-0.008139634462546244
-0.005439025807200929,-0.01192469360431343
-0.00543868580720093,-0.008435856482330374
-0.005438345807200929,-0.007514276865205469
-0.005438005807200929,-0.008995386964157845
-0.00543766580720093,-0.008139634462539359
-0.005437325807200929,-0.009653658119250124
-0.005436985807200929,-0.01027901571658557
-0.00543664580720093,-0.005078673591365549
-0.00543630580720093,-0.01320832235672637
-0.005435965807200929,-0.01353745793428673
-0.00543562580720093,-0.009094127637421515
-0.00543528580720093,-0.009752398792511462
-0.005434945807200929,-0.01333997658775938
-0.00543460580720093,-0.01146390379574963
-0.00543426580720093,-0.01090437331392318
-0.005433925807200929,-0.006362302343793276
-0.00543358580720093,-0.005934426092984033
-0.00543324580720093,-0.00896247340639778
-0.005432905807200929,-0.003169687241601236
-0.00543256580720093,-0.003762131281183265
-0.00543222580720093,-0.004124180416482734
-0.005431885807200929,-0.005802771861965805
-0.00543154580720093,-0.005440722726665677
-0.00543120580720093,-0.006329388786037102
-0.005430865807200929,-0.009028300521912402
-0.00543052580720093,-0.008929559848648731
-0.00543018580720093,-0.008271288693558785
-0.005429845807200929,-0.008962473406403288
-0.00542950580720093,-0.0104106699476038
-0.00542916580720093,-0.008896646290896927
-0.005428825807200929,-0.008863732733139616
-0.00542848580720093,-0.008764992059875945
-0.00542814580720093,-0.008304202251312983
-0.005427805807200929,-0.007942153116012016
-0.00542746580720093,-0.008238375135803031
-0.00542712580720093,-0.007942153116012016
-0.005426785807200929,-0.00711931417214809
-0.00542644580720093,-0.008995386964157845
-0.00542610580720093,-0.009028300521912402
-0.005425765807200929,-0.007744671769484675
-0.00542542580720093,-0.007218054845411761
-0.00542508580720093,-0.00665852436358429
-0.005424745807200929,-0.01152973091125874
-0.00542440580720093,-0.009028300521912402
-0.00542406580720093,-0.004881192244838206
-0.005423725807200929,-0.002149366951209488
-0.00542338580720093,-0.00188605848917351
-0.00542304580720093,-0.006790178594602518
-0.005422705807200929,-0.008567510713343694
-0.00542236580720093,-0.00586859897747492
-0.00542202580720093,-0.006395215901547833
-0.005421685807200929,-0.009489090330476201
-0.00542134580720093,-0.009489090330476201
-0.00542100580720093,-0.01004862081230367
-0.005420665807200929,-0.008007980231521911
-0.00542032580720093,-0.008435856482330374
-0.00541998580720093,-0.0115626444690133
-0.005419645807200929,-0.01110185466044896
-0.005419305807200929,-0.01080563264065849
-0.00541896580720093,-0.01146390379574963
-0.005418625807200929,-0.01179303937329227
-0.005418285807200929,-0.0101802750433219
-0.00541794580720093,-0.01050941062086747
-0.005417605807200929,-0.007613017538465429
-0.005417265807200929,-0.007053487056638975
-0.00541692580720093,-0.007777585327239231
-0.005416585807200929,-0.006987659941128184
-0.005416245807200929,-0.006066080324002262
-0.00541590580720093,-0.006164820997265934
-0.005415565807200929,-0.006921832825618951
-0.005415225807200929,-0.005934426092984033
