Analysis/files/cmb03_wrd01/d2s06_ch42.csv

#Digilent WaveForms Oscilloscope Acquisition
#Device Name: ADP3450
#Serial Number: SN:210018B9D9B0
#Date Time: 2024-08-13 16:06:01.111.933.780
#Sample rate: 2.94118e+06Hz
#Samples: 32768
#Trigger: Source: Channel 3 Type: Edge Condition: Rising Level: 60 mV Hyst.: Auto HoldOff: 0 s
#Channel 3: Range: 200 mV/div Offset: 0 V Attenuation: 1 X Coupling: DC Bandwidth: 0 Hz Sample Mode: Average

Time (s),Channel 3 (V)
-0.005570529173333334,0.009798254513694264
-0.005570189173333333,0.009831168071445706
-0.005569849173333334,0.00811966306821185
-0.005569509173333334,0.008317144414739193
-0.005569169173333333,0.00650689873823556
-0.005568829173333334,0.004861220850510698
-0.005568489173333334,0.004202949695419555
-0.005568149173333333,0.004729566619492588
-0.005567809173333334,0.004795393735001583
-0.005567469173333334,0.004564998830719684
-0.005567129173333333,0.003939641233380883
-0.005566789173333334,0.002721839596464486
-0.005566449173333334,0.0025572718076917
-0.005566109173333333,0.004202949695414347
-0.005565769173333334,0.001339470170773087
-0.005565429173333334,0.0001545820916090312
-0.005565089173333333,0.001076161708733637
-0.005564749173333334,-0.0005695161789912252
-0.005564409173333334,-0.0008986517565367963
-0.005564069173333333,-0.0002403806014433192
-0.005563729173333334,0.001043248150982073
-0.005563389173333334,0.001043248150982073
-0.005563049173333334,0.002656012480952438
-0.005562709173333334,0.001964827768109672
-0.005562369173333334,-0.001556922911627938
-0.005562029173333334,-0.002445588970999364
-0.005561689173333334,0.003347197193801071
-0.005561349173333334,0.0023268769034098
-0.005561009173333334,0.003116802289517734
-0.005560669173333334,0.0009115939199638446
-0.005560329173333334,-0.00313677368384668
-0.005559989173333334,-0.00241267541324774
-0.005559649173333334,-0.0006353432945003394
-0.005559309173333334,-0.003663390607919593
-0.005558969173333334,-0.004519143109536521
-0.005558629173333334,-0.004519143109538078
-0.005558289173333334,-0.006098993881756819
-0.005557949173333334,-0.006888919267864752
-0.005557609173333334,-0.006066080324002262
-0.005557269173333334,-0.005638204073193019
-0.005556929173333334,-0.0046837108983126
-0.005556589173333334,-0.003202600799355794
-0.005556249173333334,-0.003795044838937822
-0.005555909173333334,-0.003729217723428827
-0.005555569173333334,-0.001622750027137053
-0.005555229173333334,-0.002544329644264652
-0.005554889173333334,-0.004749538013815967
-0.005554549173333334,-0.005243241380138334
-0.005554209173333334,-0.003860871954446936
-0.005553869173333334,-0.005638204073193019
-0.005553529173333334,-0.005638204073193019
-0.005553189173333334,-0.005736944746456691
-0.005552849173333334,-0.00688891926786619
-0.005552509173333334,-0.006625610805829733
-0.005552169173333334,-0.006098993881756819
-0.005551829173333334,-0.01057523773637659
-0.005551489173333334,-0.008238375135794529
-0.005551149173333334,-0.003564649934655922
-0.005550809173333334,-0.003729217723428708
-0.005550469173333334,-0.00237976185549468
-0.005550129173333334,-0.00392669906995605
-0.005549789173333334,-0.007547190422957332
-0.005549449173333333,-0.005473636284418558
-0.005549109173333334,-0.004552056667292635
-0.005548769173333334,-0.006757265036847961
-0.005548429173333333,-0.007448449749689529
-0.005548089173333334,-0.00517741426462922
-0.005547749173333334,-0.005671117630947577
-0.005547409173333333,-0.005638204073190265
-0.005547069173333334,-0.004124180416483393
-0.005546729173333334,-0.005078673591365549
-0.005546389173333333,-0.006921832825621106
-0.005546049173333334,-0.00711931417214809
-0.005545709173333334,-0.008468770040084931
-0.005545369173333333,-0.01073980552514853
-0.005545029173333334,-0.01027901571658557
-0.005544689173333334,-0.009456176772721644
-0.005544349173333333,-0.0105094106208646
-0.005544009173333334,-0.008929559848648731
-0.005543669173333334,-0.008238375135803031
-0.005543329173333333,-0.008633337828855621
-0.005542989173333334,-0.007481363307448217
-0.005542649173333334,-0.00860042427110316
-0.005542309173333334,-0.008172548020294696
-0.005541969173333334,-0.007876326000502903
-0.005541629173333334,-0.007481363307448217
-0.005541289173333334,-0.01189178004655085
-0.005540949173333334,-0.008863732733139616
-0.005540609173333334,-0.003762131281183265
-0.005540269173333334,-0.004255834647500723
-0.005539929173333334,-0.003893785512201493
-0.005539589173333334,-0.008172548020293918
-0.005539249173333334,-0.01149681735349814
-0.005538909173333334,-0.008863732733139616
-0.005538569173333334,-0.008468770040084931
-0.005538229173333334,-0.009851139465773814
-0.005537889173333334,-0.009456176772721644
-0.005537549173333334,-0.008830819175385059
-0.005537209173333334,-0.01060815129412791
-0.005536869173333334,-0.01162847158452241
-0.005536529173333334,-0.01083854619841304
-0.005536189173333334,-0.01162847158452098
-0.005535849173333334,-0.006428129459302391
-0.005535509173333334,-0.0127146189904228
-0.005535169173333334,-0.009587831003745561
-0.005534829173333334,-0.008468770040084931
-0.005534489173333334,-0.006856005710111633
-0.005534149173333334,-0.004947019360350793
-0.005533809173333334,-0.005473636284420234
-0.005533469173333334,-0.003498822819146808
-0.005533129173333334,-0.00336716858812858
-0.005532789173333334,-0.004584970225047193
-0.005532449173333334,-0.005144500706874663
-0.005532109173333334,-0.004782451571574535
-0.005531769173333334,-0.005802771861965805
-0.005531429173333334,-0.007250968403166318
-0.005531089173333334,-0.009686571677003543
-0.005530749173333334,-0.01258296475940457
-0.005530409173333334,-0.006954746383375304
-0.005530069173333334,-0.006131907439511376
-0.005529729173333334,-0.005605290515445048
-0.005529389173333334,-0.009225781868439744
-0.005529049173333334,-0.01251713764389546
-0.005528709173333334,-0.008797905617626013
-0.005528369173333334,-0.006329388786038719
-0.005528029173333334,-0.00711931417214809
-0.005527689173333333,-0.008304202251314839
-0.005527349173333334,-0.009785312350267215
-0.005527009173333334,-0.008666251386612273
-0.005526669173333333,-0.009884053023536813
-0.005526329173333334,-0.01314249524123204
-0.005525989173333334,-0.01357037149204128
-0.005525649173333333,-0.01307666812572131
-0.005525309173333334,-0.01218800206634988
-0.005524969173333334,-0.01185886648880431
-0.005524629173333333,-0.01116768177596011
-0.005524289173333334,-0.01199052071982254
-0.005523949173333334,-0.01034484283209469
-0.005523609173333333,-0.01100311398719804
-0.005523269173333334,-0.01771747976911548
-0.005522929173333334,-0.02910557075219224
-0.005522589173333333,-0.04437746155035092
-0.005522249173333334,-0.06866766717316988
-0.005521909173333334,-0.09884939963409875
-0.005521569173333333,-0.1302489337320034
-0.005521229173333334,-0.1616484678297937
-0.005520889173333334,-0.1940354086602779
-0.005520549173333334,-0.2204320819793847
-0.005520209173333334,-0.2455780401039143
-0.005519869173333334,-0.2547280091596812
-0.005519529173333334,-0.2636804968689045
-0.005519189173333334,-0.265819878122967
-0.005518849173333334,-0.2684529627433315
-0.005518509173333334,-0.2699669864000384
-0.005518169173333334,-0.263812151099939
-0.005517829173333334,-0.2567028226249546
-0.005517489173333334,-0.2510746042489356
-0.005517149173333334,-0.2446235469290322
-0.005516809173333334,-0.2378104404738389
-0.005516469173333334,-0.2286933849758431
-0.005516129173333334,-0.219740897266587
-0.005515789173333334,-0.2130594450424119
-0.005515449173333334,-0.20565389454765
-0.005515109173333334,-0.197524245782261
-0.005514769173333334,-0.1906453122115585
-0.005514429173333334,-0.1858728463371564
-0.005514089173333334,-0.1769861857434173
-0.005513749173333334,-0.1731682130438887
-0.005513409173333334,-0.1682970064962231
-0.005513069173333334,-0.1611876780212299
-0.005512729173333334,-0.1565468663778374
-0.005512389173333334,-0.1509844751173172
-0.005512049173333334,-0.1447308991439514
-0.005511709173333334,-0.1394976434609768
-0.005511369173333334,-0.1343960420090204
-0.005511029173333334,-0.1293602676725732
-0.005510689173333334,-0.1248511102601988
-0.005510349173333334,-0.1224813341018708
-0.005510009173333334,-0.1217243222735159
-0.005509669173333334,-0.1132984514883493
-0.005509329173333334,-0.10507006204971
-0.005508989173333334,-0.1006596453105881
-0.005508649173333334,-0.09443898289498809
-0.005508309173333334,-0.09480103203028822
-0.005507969173333334,-0.09315535414255086
-0.005507629173333334,-0.08792209845958579
-0.005507289173333334,-0.08486113758841199
-0.005506949173333333,-0.08367624950924134
-0.005506609173333334,-0.08005575815624663
-0.005506269173333334,-0.07745558709363662
-0.005505929173333333,-0.07521746516632118
-0.005505589173333334,-0.07215650429515294
-0.005505249173333334,-0.07074122131170699
-0.005504909173333333,-0.06949050611702746
-0.005504569173333334,-0.06600166899505075
-0.005504229173333334,-0.06379646062549543
-0.005503889173333333,-0.06254574543081692
-0.005503549173333334,-0.05961643879066668
-0.005503209173333334,-0.05665421859275654
-0.005502869173333333,-0.05543641695583319
-0.005502529173333334,-0.05283624589322791
-0.005502189173333334,-0.05201340694936398
-0.005501849173333333,-0.05063103752366965
-0.005501509173333334,-0.04901827319369929
-0.005501169173333334,-0.04658266991986206
-0.005500829173333333,-0.04635227501557765
-0.005500489173333334,-0.04496990558988876
-0.005500149173333334,-0.04082279731281457
-0.005499809173333334,-0.03937460077161669
-0.005499469173333334,-0.04283052433584255
-0.005499129173333334,-0.03713647884430417
-0.005498789173333334,-0.03397677729987243
-0.005498449173333334,-0.03351598749130289
-0.005498109173333334,-0.03282480277845719
-0.005497769173333334,-0.03601741788064342
-0.005497429173333334,-0.03687317038226771
-0.005497089173333334,-0.0317386553725568
-0.005496749173333334,-0.03180448248806581
-0.005496409173333334,-0.03167282825704769
-0.005496069173333334,-0.03029045883135629
-0.005495729173333334,-0.02880934873240391
-0.005495389173333334,-0.02910557075219224
-0.005495049173333334,-0.02818399113506464
-0.005494709173333334,-0.02795359623078316
-0.005494369173333334,-0.02864478094362844
-0.005494029173333334,-0.02828273180832831
-0.005493689173333334,-0.02936887921422672
-0.005493349173333334,-0.02940179277198325
-0.005493009173333334,-0.02745989286446438
-0.005492669173333334,-0.02614335055428449
-0.005492329173333334,-0.02594586920775475
-0.005491989173333334,-0.02492554891736349
-0.005491649173333334,-0.02202915583496773
-0.005491309173333334,-0.02146962535313499
-0.005490969173333334,-0.0196922932343889
-0.005490629173333334,-0.01699338149851522
-0.005490289173333334,-0.009423263214967087
-0.005489949173333334,-0.01689464082525155
-0.005489609173333334,-0.01699338149851522
-0.005489269173333334,-0.01942898477235245
-0.005488929173333334,-0.0224570320857717
-0.005488589173333334,-0.01656550524770598
-0.005488249173333334,-0.01557809851506908
-0.005487909173333334,-0.01547935784180559
-0.005487569173333334,-0.01610471543914218
-0.005487229173333334,-0.01735543063381134
-0.005486889173333334,-0.01515022226426002
-0.005486549173333334,-0.01274753254817735
-0.005486209173333334,-0.01304375456796951
-0.005485869173333334,-0.01366911216530495
-0.005485529173333334,-0.01255005120165001
-0.005485189173333333,-0.01215508850859862
-0.005484849173333334,-0.01396533418509597
-0.005484509173333334,-0.0150185680332418
-0.005484169173333333,-0.01409698841611785
-0.005483829173333334,-0.01610471543914218
-0.005483489173333334,-0.01705920861402434
-0.005483149173333333,-0.01610471543913811
-0.005482809173333334,-0.0138665935118323
-0.005482469173333334,-0.01383367995407774
-0.005482129173333333,-0.01337289014551238
-0.005481789173333334,-0.01251713764389546
-0.005481449173333334,-0.0124842240861409
-0.005481109173333333,-0.008929559848650766
-0.005480769173333334,-0.01004862081230367
-0.005480429173333334,-0.01152973091125874
-0.005480089173333333,-0.01057523773637419
-0.005479749173333334,-0.009258695426194301
-0.005479409173333334,-0.0120234342775771
-0.005479069173333334,-0.01429446976263741
-0.005478729173333334,-0.01544644428405104
-0.005478389173333334,-0.01531479005303281
-0.005478049173333334,-0.006987659941145009
-0.005477709173333334,-0.01146390379574963
-0.005477369173333334,-0.01610471543914218
-0.005477029173333334,-0.01264879187491997
-0.005476689173333334,-0.01011444792781279
-0.005476349173333334,-0.01241839697063178
-0.005476009173333334,-0.01426155620488363
-0.005475669173333334,-0.01278044610593191
-0.005475329173333334,-0.01258296475940457
-0.005474989173333334,-0.01294501389470404
-0.005474649173333334,-0.01255005120165001
-0.005474309173333334,-0.01419572908937787
-0.005473969173333334,-0.01291210033695248
-0.005473629173333334,-0.01169429870003153
-0.005473289173333334,-0.01199052071982254
-0.005472949173333334,-0.01264879187491249
-0.005472609173333334,-0.01024610215883101
-0.005472269173333334,-0.008863732733139616
-0.005471929173333334,-0.008073807347031682
-0.005471589173333334,-0.006230648112775047
-0.005471249173333334,-0.006954746383375304
-0.005470909173333334,-0.006296475228285359
-0.005470569173333334,-0.005769858304211248
-0.005470229173333334,-0.00494701936034732
-0.005469889173333334,-0.00688891926786619
-0.005469549173333334,-0.007185141287657204
-0.005469209173333334,-0.004486229551783521
-0.005468869173333334,-0.005012846475856435
-0.005468529173333334,-0.005539463399929348
-0.005468189173333334,-0.005967339650738591
-0.005467849173333334,-0.002708897433037437
-0.005467509173333334,-0.003531736376901365
-0.005467169173333334,-0.001491095796118824
-0.005466829173333334,-0.005276154937892892
-0.005466489173333334,-0.01100311398718026
-0.005466149173333334,-0.007942153116012016
-0.005465809173333334,-0.008304202251312145
-0.005465469173333334,-0.01073980552514829
-0.005465129173333334,-0.01014736148556734
-0.005464789173333334,-0.009324522541703417
-0.005464449173333333,-0.009884053023530227
-0.005464109173333334,-0.009522003888230759
-0.005463769173333334,-0.0101802750433219
-0.005463429173333333,-0.01073980552514722
-0.005463089173333334,-0.009554917445985316
-0.005462749173333334,-0.009159954752930631
-0.005462409173333333,-0.008271288693555314
-0.005462069173333334,-0.007020573498884419
-0.005461729173333334,-0.006230648112775047
-0.005461389173333333,-0.006625610805828895
-0.005461049173333334,-0.006164820997265934
-0.005460709173333334,-0.006329388786038719
-0.005460369173333333,-0.008567510713348063
-0.005460029173333334,-0.008271288693557588
-0.005459689173333334,-0.007448449749693661
-0.005459349173333333,-0.007909239558258119
-0.005459009173333334,-0.008271288693557588
-0.005458669173333334,-0.006724351479093405
-0.005458329173333333,-0.008139634462546903
-0.005457989173333334,-0.01228674273961356
-0.005457649173333334,-0.008337115809066702
-0.005457309173333334,-0.004650797340563012
-0.005456969173333334,-0.005144500706874663
-0.005456629173333334,-0.004091266858728836
-0.005456289173333334,-0.008435856482322472
-0.005455949173333334,-0.01001570725454911
-0.005455609173333334,-0.005835685419720362
-0.005455269173333334,-0.00741553619193623
-0.005454929173333334,-0.01001570725454911
-0.005454589173333334,-0.009916966581285444
-0.005454249173333334,-0.0104764970631119
-0.005453909173333334,-0.0115626444690133
-0.005453569173333334,-0.0129450138947047
-0.005453229173333334,-0.01143099023799782
-0.005452889173333334,-0.01139807668024051
-0.005452549173333334,-0.0104106699476038
-0.005452209173333334,-0.00968657167700486
-0.005451869173333334,-0.009982793696794558
-0.005451529173333334,-0.009587831003739873
-0.005451189173333334,-0.00830420225131448
-0.005450849173333334,-0.009423263214967087
-0.005450509173333334,-0.009949880139040001
-0.005450169173333334,-0.008699164944369106
-0.005449829173333334,-0.007876326000502903
-0.005449489173333334,-0.008172548020293918
-0.005449149173333334,-0.006131907439515088
-0.005448809173333334,-0.006559783690320619
-0.005448469173333334,-0.007086400614393532
-0.005448129173333334,-0.007283881960920875
-0.005447789173333334,-0.008501683597839487
-0.005447449173333334,-0.0140969884161142
-0.005447109173333334,-0.007547190422957332
-0.005446769173333334,-0.006230648112775047
-0.005446429173333334,-0.00711931417214809
-0.005446089173333334,-0.007580103980711889
-0.005445749173333334,-0.01067397840963936
-0.005445409173333334,-0.0101802750433219
-0.005445069173333334,-0.007349709076429989
-0.005444729173333334,-0.001556922911639793
-0.005444389173333334,-0.008073807347030245
-0.005444049173333334,-0.007777585327239231
-0.005443709173333333,-0.00507867359136507
-0.005443369173333334,-0.004815365129329092
-0.005443029173333334,-0.005045760033610991
-0.005442689173333333,-0.004617883782805581
-0.005442349173333334,-0.006724351479093405
-0.005442009173333334,-0.006691437921338847
-0.005441669173333333,-0.007613017538470697
-0.005441329173333334,-0.009949880139040001
-0.005440989173333334,-0.01014736148556734
-0.005440649173333333,-0.009127041195175893
-0.005440309173333334,-0.009028300521912402
-0.005439969173333334,-0.01008153437005823
-0.005439629173333333,-0.009522003888228605
-0.005439289173333334,-0.008337115809066702
-0.005438949173333334,-0.009028300521912402
-0.005438609173333333,-0.007711758211729759
-0.005438269173333334,-0.007514276865202775
-0.005437929173333334,-0.008271288693557588
-0.005437589173333333,-0.006592697248074517
-0.005437249173333334,-0.006230648112775047
-0.005436909173333334,-0.01077271908290393
-0.005436569173333334,-0.004979932918112415
-0.005436229173333334,-0.004058353300974278
-0.005435889173333334,-0.004255834647501621
-0.005435549173333334,-0.002774724548549245
-0.005435209173333334,-0.008304202251312145
-0.005434869173333334,-0.009357436099457973
-0.005434529173333334,-0.007218054845415652
-0.005434189173333334,-0.006033166766247705
-0.005433849173333334,-0.007415536191939104
-0.005433509173333334,-0.009192868310681954
-0.005433169173333334,-0.009094127637421515
-0.005432829173333334,-0.008468770040084931
-0.005432489173333334,-0.009291608983947361
-0.005432149173333334,-0.008468770040084931
-0.005431809173333334,-0.009028300521912402
-0.005431469173333334,-0.009719485234756844
-0.005431129173333334,-0.007942153116012016
-0.005430789173333334,-0.008435856482330374
-0.005430449173333334,-0.008073807347030905
-0.005430109173333334,-0.00711931417214809
-0.005429769173333334,-0.006493956574811504
-0.005429429173333334,-0.006362302343793516
-0.005429089173333334,-0.005901512535229476
-0.005428749173333334,-0.005243241380138334
-0.005428409173333334,-0.007547190422953142
-0.005428069173333334,-0.006428129459302391
-0.005427729173333334,-0.006263561670529605
-0.005427389173333334,-0.007020573498884419
-0.005427049173333334,-0.00767884465397556
-0.005426709173333334,-0.01044358350535836
-0.005426369173333334,-0.01106894110269494
-0.005426029173333334,-0.006790178594602518
-0.005425689173333334,-0.005638204073193019
-0.005425349173333334,-0.004453315994028964
-0.005425009173333334,-0.007744671769484675
-0.005424669173333334,-0.007086400614393532
-0.005424329173333334,-0.006164820997265934
-0.005423989173333334,-0.005506549842176288
-0.005423649173333334,-0.006329388786038719
-0.005423309173333334,-0.006559783690320619
-0.005422969173333334,-0.008732078502121987
-0.005422629173333334,-0.009061214079666959
-0.005422289173333334,-0.009982793696794558
-0.005421949173333333,-0.01047649706311154
-0.005421609173333334,-0.009719485234758102
-0.005421269173333334,-0.01070689196739481
-0.005420929173333333,-0.01083854619841226
-0.005420589173333334,-0.0104106699476038
-0.005420249173333334,-0.01004862081230367
-0.005419909173333333,-0.01090437331392108
-0.005419569173333334,-0.01031192927434013
-0.005419229173333334,-0.009818225908021772
-0.005418889173333333,-0.01064106485188396
-0.005418549173333334,-0.009686571677003543
-0.005418209173333334,-0.009258695426194301
-0.005417869173333333,-0.008304202251310948
-0.005417529173333334,-0.007645931096221003
-0.005417189173333334,-0.005243241380138334
