Analysis/files/cmb03_wrd01/d2s05_ch03.csv

#Digilent WaveForms Oscilloscope Acquisition
#Device Name: ADP3450
#Serial Number: SN:210018B9D9B0
#Date Time: 2024-08-13 12:37:07.151.542.600
#Sample rate: 2.94118e+06Hz
#Samples: 32768
#Trigger: Source: Channel 3 Type: Edge Condition: Rising Level: 60 mV Hyst.: Auto HoldOff: 0 s
#Channel 3: Range: 200 mV/div Offset: 0 V Attenuation: 1 X Coupling: DC Bandwidth: 0 Hz Sample Mode: Average

Time (s),Channel 3 (V)
-0.005570499741267788,0.01236551201854972
-0.005570159741267787,0.01368205432872865
-0.005569819741267788,0.0118388950944768
-0.005569479741267788,0.01035778499552173
-0.005569139741267787,0.01098314259285706
-0.005568799741267788,0.01029195788001262
-0.005568459741267788,0.01796081683682443
-0.005568119741267787,0.007625959701896428
-0.005567779741267788,0.009238724031866792
-0.005567439741267788,0.009205810474112236
-0.005567099741267787,0.01065400701531125
-0.005566759741267788,0.00983116807144882
-0.005566419741267788,0.008646279992284765
-0.005566079741267787,0.009107069800842877
-0.005565739741267788,0.005980281814165639
-0.005565399741267788,0.003939641233383098
-0.005565059741267787,0.01118062393938734
-0.005564719741267788,0.01210220355651326
-0.005564379741267788,0.006605639411502225
-0.005564039741267787,0.008152576625968924
-0.005563699741267788,0.009534946051657807
-0.005563359741267788,0.006836034315784124
-0.005563019741267788,0.004630825946232809
-0.005562679741267788,0.005256183543565383
-0.005562339741267788,0.005091615754792597
-0.005561999741267788,0.002392704018923824
-0.005561659741267788,0.004137122579910441
-0.005561319741267788,0.005190356428056269
-0.005560979741267788,0.00410420902215786
-0.005560639741267788,0.00357759209808297
-0.005560299741267788,0.002721839596464486
-0.005559959741267788,0.001668605748320574
-0.005559619741267788,0.003380110751555628
-0.005559279741267788,0.002952234500746385
-0.005558939741267788,0.0002533227648776116
-0.005558599741267788,0.0008128532467001733
-0.005558259741267788,0.0023268769034098
-0.005557919741267788,0.002458531134427789
-0.005557579741267788,0.0004508041114000451
-0.005557239741267788,-0.0001087263704274257
-0.005556899741267788,-0.0002732941591999119
-0.005556559741267788,-0.0008657381987822392
-0.005556219741267788,-0.001096133103064139
-0.005555879741267788,-0.002807638106297995
-0.005555539741267788,-0.003268427914864908
-0.005555199741267788,-0.0005036890634821109
-0.005554859741267788,0.0002862363226258227
-0.005554519741267788,-0.0005366026212366681
-0.005554179741267788,0.00153695151730043
-0.005553839741267788,0.002754753154219042
-0.005553499741267788,0.002293963345655243
-0.005553159741267788,0.002491444692182586
-0.005552819741267788,0.0025572718076917
-0.005552479741267788,0.002359790461164357
-0.005552139741267788,0.002754753154219042
-0.005551799741267788,0.002195222672391572
-0.005551459741267788,0.0008786803622091679
-0.005551119741267788,0.0008128532467001733
-0.005550779741267788,-0.0005036890634821109
-0.005550439741267787,-0.001260700891834589
-0.005550099741267788,2.292786059080275e-05
-0.005549759741267788,0.000714112573436502
-0.005549419741267787,0.002326876903401119
-0.005549079741267788,-0.00244558897100098
-0.005548739741267788,-0.005341982053402005
-0.005548399741267787,-0.003926699069954254
-0.005548059741267788,-0.002939292337319337
-0.005547719741267788,-0.002577243202019209
-0.005547379741267787,-0.002741810990791036
-0.005547039741267788,-0.002215194066719081
-0.005546699741267788,-0.001458182238364267
-0.005546359741267787,-0.001161960218573552
-0.005546019741267788,-0.001326528007346039
-0.005545679741267788,0.0005495447846637165
-0.005545339741267787,-9.985697167107046e-06
-0.005544999741267788,-0.001853144931418952
-0.005544659741267788,-0.000832824641027682
-0.005544319741267787,-0.0003720348324695102
-0.005543979741267788,-0.003465909261392251
-0.005543639741267788,-0.003597563492410479
-0.005543299741267787,-0.002478502528757213
-0.005542959741267788,-0.003400082145883136
-0.005542619741267788,-0.002972205895073894
-0.005542279741267788,-0.0007011704100135844
-0.005541939741267788,-0.0007340839677640107
-0.005541599741267788,-0.0004049483902184396
-0.005541259741267788,0.001306556613015417
-0.005540919741267788,0.000417890553645488
-0.005540579741267788,-0.002248107624473638
-0.005540239741267788,-0.004650797340551936
-0.005539899741267788,0.001141988824245744
-0.005539559741267788,0.0001545820916090312
-0.005539219741267788,0.002458531134423838
-0.005538879741267788,-0.0005366026212366681
-0.005538539741267788,-0.004716624456065421
-0.005538199741267788,-0.003268427914867542
-0.005537859741267788,-0.001096133103064139
-0.005537519741267788,-0.002774724548546551
-0.005537179741267788,-0.001688577142648143
-0.005536839741267788,-0.001392355122855153
-0.005536499741267788,-0.0006024297367457822
-0.005536159741267788,0.001076161708733577
-0.005535819741267788,0.0001874956493635883
-0.005535479741267788,-0.0005366026212366681
-0.005535139741267788,-0.001622750027135077
-0.005534799741267788,-0.002774724548546551
-0.005534459741267788,-0.004453315994028964
-0.005534119741267788,-0.004815365129328434
-0.005533779741267788,-0.004420402436274407
-0.005533439741267788,-0.004321661763010735
-0.005533099741267788,-0.005934426092984033
-0.005532759741267788,-0.003334255030374022
-0.005532419741267788,-0.003762131281183265
-0.005532079741267788,-0.00517741426462922
-0.005531739741267788,-0.004749538013819977
-0.005531399741267788,-0.00540780916891112
-0.005531059741267788,-0.005638204073193019
-0.005530719741267788,-0.004552056667292635
-0.005530379741267788,-0.004848278687083649
-0.005530039741267788,-0.005341982053402005
-0.005529699741267788,-0.007547190422945777
-0.005529359741267788,-0.00119487377632781
-0.005529019741267788,-0.0007011704100094536
-0.005528679741267787,0.001207815939754919
-0.005528339741267788,0.001240729497509416
-0.005527999741267788,-0.006559783690320619
-0.005527659741267787,-0.00405835330096883
-0.005527319741267788,-0.001063219545309582
-0.005526979741267788,0.0002533227648727025
-0.005526639741267787,-0.0006682568522539386
-0.005526299741267788,-0.0001416399281819828
-0.005525959741267788,-0.001951885604682624
-0.005525619741267787,-0.0006353432945020158
-0.005525279741267788,-0.001556922911627938
-0.005524939741267788,-0.004519143109538078
-0.005524599741267787,0.0004508041113867541
-0.005524259741267788,-0.006856005710111633
-0.005523919741267788,-0.007053487056638975
-0.005523579741267787,-0.007975066673773939
-0.005523239741267788,-0.0120234342775771
-0.005522899741267788,-0.02278616766331727
-0.005522559741267787,-0.03868341605880883
-0.005522219741267788,-0.06093298110084896
-0.005521879741267788,-0.08867911028794059
-0.005521539741267787,-0.1200457308280867
-0.005521199741267788,-0.1493058836718348
-0.005520859741267788,-0.1778419382450358
-0.005520519741267788,-0.2035145132935436
-0.005520179741267788,-0.2226702039067426
-0.005519839741267788,-0.2388636743219847
-0.005519499741267788,-0.2524898872323466
-0.005519159741267788,-0.2518645296350348
-0.005518819741267788,-0.2490010501103883
-0.005518479741267788,-0.2463679654900285
-0.005518139741267788,-0.2401473030744124
-0.005517799741267788,-0.2378433540315934
-0.005517459741267788,-0.2279363731474897
-0.005517119741267788,-0.2161862330290948
-0.005516779741267788,-0.2100313977289927
-0.005516439741267788,-0.2036461675246202
-0.005516099741267788,-0.1966026661651334
-0.005515759741267788,-0.1887363258617942
-0.005515419741267788,-0.1846550447002366
-0.005515079741267788,-0.1800471466145911
-0.005514739741267788,-0.1733986079481706
-0.005514399741267788,-0.1694160674598764
-0.005514059741267788,-0.1636891084105763
-0.005513719741267788,-0.1580279764767924
-0.005513379741267788,-0.1531238563713723
-0.005513039741267788,-0.1497995870381532
-0.005512699741267788,-0.142821912794187
-0.005512359741267788,-0.1368316452828577
-0.005512019741267788,-0.1325857963325198
-0.005511679741267788,-0.1265626152634358
-0.005511339741267788,-0.1204077799633337
-0.005510999741267788,-0.115997363224223
-0.005510659741267788,-0.1098425279241208
-0.005510319741267788,-0.1056625060892921
-0.005509979741267788,-0.1033914706042276
-0.005509639741267788,-0.1000342877132628
-0.005509299741267788,-0.09786199290146202
-0.005508959741267788,-0.1010216944458845
-0.005508619741267788,-0.09279330500726024
-0.005508279741267788,-0.08703343240021275
-0.005507939741267787,-0.0846965697996338
-0.005507599741267788,-0.08173434960172904
-0.005507259741267788,-0.08252427498783843
-0.005506919741267787,-0.08124064623539597
-0.005506579741267788,-0.07314391102778964
-0.005506239741267788,-0.0712678382357799
-0.005505899741267787,-0.07064248063843821
-0.005505559741267788,-0.06784482822930596
-0.005505219741267788,-0.06340149793244074
-0.005504879741267787,-0.06083424042758152
-0.005504539741267788,-0.05876068628904819
-0.005504199741267788,-0.05586429320664717
-0.005503859741267787,-0.05382365262585989
-0.005503519741267788,-0.05122348156325461
-0.005503179741267788,-0.04882079184717195
-0.005502839741267787,-0.04724094107495195
-0.005502499741267788,-0.0465497563621075
-0.005502159741267788,-0.04378501751072471
-0.005501819741267787,-0.04102027865934197
-0.005501479741267788,-0.04105319221709647
-0.005501139741267788,-0.03917711942508671
-0.005500799741267787,-0.03878215673203077
-0.005500459741267788,-0.03809097201918633
-0.005500119741267788,-0.03763018221062252
-0.005499779741267788,-0.03736687374858655
-0.005499439741267788,-0.0377289228838862
-0.005499099741267788,-0.0372681330753224
-0.005498759741267788,-0.04003287192670017
-0.005498419741267788,-0.0368073432667586
-0.005498079741267788,-0.03137660623725668
-0.005497739741267788,-0.03006006392707679
-0.005497399741267788,-0.02848021315485565
-0.005497059741267788,-0.03022463171584718
-0.005496719741267788,-0.03137660623725459
-0.005496379741267788,-0.02913848430994679
-0.005496039741267788,-0.02719658440242792
-0.005495699741267788,-0.0251559438216491
-0.005495359741267788,-0.02347735237616297
-0.005495019741267788,-0.02298364900984462
-0.005494679741267788,-0.02035056438948483
-0.005494339741267788,-0.0192315034258251
-0.005493999741267788,-0.01929733054133422
-0.005493659741267788,-0.01781622044238184
-0.005493319741267788,-0.01574266630384205
-0.005492979741267788,-0.01587432053486028
-0.005492639741267788,-0.01459069178243489
-0.005492299741267788,-0.01357037149204128
-0.005491959741267788,-0.01459069178243255
-0.005491619741267788,-0.01422864264713308
-0.005491279741267788,-0.01360328504979584
-0.005490939741267788,-0.01580849341935116
-0.005490599741267788,-0.01682881370974244
-0.005490259741267788,-0.01541353072629648
-0.005489919741267788,-0.01422864264713243
-0.005489579741267788,-0.01357037149204128
-0.005489239741267788,-0.01274753254817735
-0.005488899741267788,-0.01100311398718583
-0.005488559741267788,-0.0120234342775771
-0.005488219741267788,-0.01468943245569431
-0.005487879741267788,-0.0136361986075504
-0.005487539741267788,-0.01054232417862203
-0.005487199741267787,-0.01073980552514997
-0.005486859741267788,-0.01106894110269494
-0.005486519741267788,-0.01452486466692344
-0.005486179741267787,-0.01626928322790952
-0.005485839741267788,-0.01327414947225027
-0.005485499741267788,-0.01310958168347748
-0.005485159741267787,-0.01245131052838329
-0.005484819741267788,-0.01077271908290393
-0.005484479741267788,-0.01146390379574963
-0.005484139741267787,-0.01073980552515069
-0.005483799741267788,-0.01146390379574963
-0.005483459741267788,-0.01008153437005823
-0.005483119741267787,-0.01027901571658312
-0.005482779741267788,-0.008929559848648731
-0.005482439741267788,-0.00939034965721253
-0.005482099741267787,-0.009719485234754389
-0.005481759741267788,-0.00767884465397556
-0.005481419741267788,-0.008238375135803031
-0.005481079741267787,-0.008040893789265152
-0.005480739741267788,-0.002248107624473638
-0.005480399741267788,-0.006526870132566062
-0.005480059741267787,-0.008699164944359886
-0.005479719741267788,-0.004881192244838206
-0.005479379741267788,-0.003301341472619465
-0.005479039741267788,-0.004782451571571841
-0.005478699741267788,-0.00336716858812858
-0.005478359741267788,-0.003992526185465165
-0.005478019741267788,-0.007316795518669386
-0.005477679741267788,-0.0113322495647314
-0.005477339741267788,-0.004519143109538078
-0.005476999741267788,-0.005078673591364532
-0.005476659741267788,-0.003301341472619465
-0.005476319741267788,-0.003893785512201493
-0.005475979741267788,-0.009094127637412056
-0.005475639741267788,-0.008238375135803031
-0.005475299741267788,-0.005671117630947577
-0.005474959741267788,-0.007349709076426936
-0.005474619741267788,-0.007580103980711889
-0.005474279741267788,-0.005967339650738591
-0.005473939741267788,-0.006987659941128005
-0.005473599741267788,-0.006592697248075176
-0.005473259741267788,-0.003729217723428708
-0.005472919741267788,-0.003268427914865746
-0.005472579741267788,-0.004190007531992507
-0.005472239741267788,-0.003103860126092122
-0.005471899741267788,-0.002050626277948211
-0.005471559741267788,-0.002972205895073894
-0.005471219741267788,-0.0004049483902184396
-0.005470879741267788,-0.00254432964426076
-0.005470539741267788,-0.00244558897100098
-0.005470199741267788,-0.001622750027137053
-0.005469859741267788,-0.001129046660818696
-0.005469519741267788,-0.00313677368384668
-0.005469179741267788,-0.003597563492410479
-0.005468839741267788,-0.00313677368384668
-0.005468499741267788,-0.004650797340556306
-0.005468159741267788,-0.006098993881756819
-0.005467819741267788,-0.007876326000502903
-0.005467479741267788,-0.01152973091125874
-0.005467139741267788,-0.009752398792512659
-0.005466799741267788,-0.005045760033610991
-0.005466459741267788,-0.005309068495644036
-0.005466119741267788,-0.003432995703637694
-0.005465779741267788,-0.004519143109538078
-0.005465439741267787,-0.006493956574807313
-0.005465099741267788,-0.004190007531992507
-0.005464759741267788,-0.002182280508964523
-0.005464419741267787,-0.004387488878520149
-0.005464079741267788,-0.004552056667292635
-0.005463739741267788,-0.004321661763010735
-0.005463399741267787,-0.004749538013822731
-0.005463059741267788,-0.006263561670529605
-0.005462719741267788,-0.00517741426462922
-0.005462379741267787,-0.005638204073195833
-0.005462039741267788,-0.007185141287657204
-0.005461699741267788,-0.007086400614393532
-0.005461359741267787,-0.005638204073194636
-0.005461019741267788,-0.006526870132566062
-0.005460679741267788,-0.003729217723428708
-0.005460339741267787,-0.00412418041648429
-0.005459999741267788,-0.004617883782801749
-0.005459659741267788,-0.003663390607919593
-0.005459319741267787,-0.002412675413246962
-0.005458979741267788,-0.002708897433037437
-0.005458639741267788,-0.003762131281183265
-0.005458299741267787,-0.001886058489174228
-0.005457959741267788,-0.002281021182228195
-0.005457619741267788,-0.001030305987555025
-0.005457279741267788,-0.0007669975255190468
-0.005456939741267788,-0.004552056667292635
-0.005456599741267788,-0.003729217723428708
-0.005456259741267788,0.002820580269716243
-0.005455919741267788,0.00176734642158233
-0.005455579741267788,0.0003191498803818167
-0.005455239741267788,-0.002741810990786426
-0.005454899741267788,-0.007448449749693661
-0.005454559741267788,-0.007415536191939104
-0.005454219741267788,-0.006461043017058684
-0.005453879741267788,-0.008995386964157845
-0.005453539741267788,-0.009522003888230759
-0.005453199741267788,-0.008402942924577852
-0.005452859741267788,-0.00790923955825746
-0.005452519741267788,-0.00767884465397556
-0.005452179741267788,-0.006592697248077151
-0.005451839741267788,-0.00586859897747492
-0.005451499741267788,-0.006098993881756819
-0.005451159741267788,-0.003860871954451007
-0.005450819741267788,-0.001161960218573253
-0.005450479741267788,-0.001260700891836924
-0.005450139741267788,-0.002412675413244328
-0.005449799741267788,-0.002511416086510094
-0.005449459741267788,-0.002511416086510094
-0.005449119741267788,-0.004815365129324902
-0.005448779741267788,-0.005012846475856435
-0.005448439741267788,-0.00540780916891112
-0.005448099741267788,-0.005473636284420234
-0.005447759741267788,-0.003597563492410479
-0.005447419741267788,-0.003334255030374022
-0.005447079741267788,-0.002281021182228195
-0.005446739741267788,-0.003564649934655922
-0.005446399741267788,-0.004519143109538078
-0.005446059741267788,0.001931914210355115
-0.005445719741267788,0.003939641233385493
-0.005445379741267788,0.005256183543565383
-0.005445039741267788,0.001569865075054987
-0.005444699741267787,-0.001293614449590523
-0.005444359741267788,-0.0007669975255185678
-0.005444019741267788,-0.00142526868060971
-0.005443679741267787,-0.002379761855491926
-0.005443339741267788,-0.002412675413246423
-0.005442999741267788,-0.00336716858812858
-0.005442659741267787,-0.003729217723426851
-0.005442319741267788,-0.002708897433037437
-0.005441979741267788,-0.003992526185465165
-0.005441639741267787,-0.002741810990791935
-0.005441299741267788,-0.002708897433037437
-0.005440959741267788,-0.004617883782801749
-0.005440619741267787,-0.005012846475853621
-0.005440279741267788,-0.003465909261392251
-0.005439939741267788,-0.002511416086510094
-0.005439599741267787,-0.004091266858726621
-0.005439259741267788,-0.002873465221810222
-0.005438919741267788,-0.001556922911627938
-0.005438579741267787,-0.002248107624473997
-0.005438239741267788,-0.00244558897100098
-0.005437899741267788,-0.003597563492410479
-0.005437559741267787,-0.003564649934654964
-0.005437219741267788,-0.003038033010583008
-0.005436879741267788,0.001141988824245744
-0.005436539741267788,-0.002906378779557415
-0.005436199741267788,-0.007218054845411761
-0.005435859741267788,-0.008830819175385059
-0.005435519741267788,-0.002346848297749103
-0.005435179741267788,-0.001030305987555025
-0.005434839741267788,-0.006757265036847961
-0.005434499741267788,-0.005276154937895586
-0.005434159741267788,-0.003038033010583008
-0.005433819741267788,-0.00313677368384668
-0.005433479741267788,-0.003432995703637155
-0.005433139741267788,-0.003301341472619465
-0.005432799741267788,-0.001556922911627938
-0.005432459741267788,-0.002807638106298833
-0.005432119741267788,-0.002412675413246423
-0.005431779741267788,-0.002281021182228195
-0.005431439741267788,-0.00280763810630015
-0.005431099741267788,-0.004782451571574535
-0.005430759741267788,-0.00540780916891112
-0.005430419741267788,-0.005967339650737574
-0.005430079741267788,-0.009291608983948858
-0.005429739741267788,-0.007382622634184546
-0.005429399741267788,-0.006954746383376082
-0.005429059741267788,-0.005671117630947577
-0.005428719741267788,-0.004025439743219721
-0.005428379741267788,-0.003663390607920252
-0.005428039741267788,-0.002248107624473638
-0.005427699741267788,-0.001820231373664395
-0.005427359741267788,-0.001129046660818696
-0.005427019741267788,-0.003334255030374022
-0.005426679741267788,-0.002610156759773766
-0.005426339741267788,-0.003202600799355794
-0.005425999741267788,-0.004716624456065421
-0.005425659741267788,-0.008468770040084931
-0.005425319741267788,-0.002774724548546551
-0.005424979741267788,-0.003070946568337565
-0.005424639741267788,-0.003597563492410479
-0.005424299741267788,-0.006066080324002262
-0.005423959741267788,-0.005177414264625568
-0.005423619741267788,-0.003169687241601236
-0.005423279741267788,-0.002840551664055666
-0.005422939741267787,-0.004519143109538497
-0.005422599741267788,-0.004749538013819977
-0.005422259741267788,-0.001721490700400724
-0.005421919741267787,0.003116802289508095
-0.005421579741267788,-0.002972205895073894
-0.005421239741267788,-0.006559783690320619
-0.005420899741267787,-0.003729217723430983
-0.005420559741267788,-0.004979932918101878
-0.005420219741267788,-0.005341982053402005
-0.005419879741267787,-0.004058353300976793
-0.005419539741267788,-0.005440722726665677
-0.005419199741267788,-0.00336716858812858
-0.005418859741267787,-0.003893785512199337
-0.005418519741267788,-0.002708897433037437
-0.005418179741267788,-0.002313934739982752
-0.005417839741267787,-0.002346848297735992
