Analysis/files/cmb03_d2s01/wrd09_ch46.csv

#Digilent WaveForms Oscilloscope Acquisition
#Device Name: ADP3450
#Serial Number: SN:210018B9D9B0
#Date Time: 2024-08-09 13:20:27.551.286.320
#Sample rate: 2.94118e+06Hz
#Samples: 32768
#Trigger: Source: Channel 3 Type: Edge Condition: Rising Level: 20 mV Hyst.: Auto HoldOff: 0 s
#Channel 3: Range: 200 mV/div Offset: 0 V Attenuation: 1 X Coupling: DC Bandwidth: 0 Hz Sample Mode: Average

Time (s),Channel 3 (V)
-0.005570369600000001,0.01180598153672225
-0.0055700296,0.007362651239857516
-0.0055696896,0.007625959701893495
-0.005569349600000001,0.008547539319021094
-0.0055690096,0.006539812295993409
-0.0055686696,0.006704380084765896
-0.005568329600000001,0.004762480177247026
-0.0055679896,0.00334719719380155
-0.0055676496,0.003610505655837527
-0.005567309600000001,0.003149715847273728
-0.0055669696,0.001767346421583108
-0.0055666296,0.002195222672391572
-0.005566289600000001,0.004696653061737912
-0.0055659496,0.004137122579910201
-0.0055656096,0.004005468348892213
-0.0055652696,0.005223269985810825
-0.0055649296,0.003577592098084646
-0.0055645896,0.004499171715210569
-0.0055642496,0.005322010659074497
-0.0055639096,0.004367517484192581
-0.0055635696,0.004499171715210569
-0.0055632296,0.006408158064974882
-0.005562889600000001,0.005914454698657422
-0.0055625496,0.0008457668044547304
-0.0055622096,0.006177763160692982
-0.005561869600000001,0.00894250201207075
-0.0055615296,0.004202949695419555
-0.0055611896,0.006605639411502225
-0.005560849600000001,0.00199774132587261
-0.0055605096,-0.0007999110832731249
-0.0055601696,0.002623098923200814
-0.005559829600000001,0.003050975174009278
-0.0055594896,0.0005166312269091594
-0.0055591496,0.001931914210355115
-0.005558809600000001,0.001010334593229192
-0.0055584696,0.004597912388474241
-0.0055581296,0.003544678540328413
-0.005557789600000001,-0.004519143109523409
-0.0055574496,-0.006329388786038719
-0.0055571096,-0.005309068495647449
-0.005556769600000001,-0.00517741426462946
-0.0055564296,-0.007382622634184546
-0.0055560896,-0.006823092152357076
-0.005555749600000001,-0.002972205895080899
-0.0055554096,-0.003531736376901365
-0.0055550696,-0.002873465221810222
-0.005554729600000001,-0.0004707755057319243
-0.0055543896,0.0005495447846637165
-0.0055540496,0.0002204092071181454
-0.005553709600000001,0.002886407385237271
-0.0055533696,0.002096481999127901
-0.0055530296,0.002820580269728157
-0.005552689600000001,0.00426877681092867
-0.0055523496,0.002392704018918914
-0.0055520096,0.001372383728527644
-0.005551669600000001,0.001734432863827772
-0.0055513296,-9.985697168843258e-06
-0.0055509896,-0.002807638106301108
-0.005550649600000001,-0.002708897433037437
-0.0055503096,-0.001721490700403837
-0.0055499696,-0.003432995703637694
-0.005549629600000001,-0.003531736376901365
-0.0055492896,-0.007152227729907137
-0.0055489496,-0.00962074456149443
-0.005548609600000001,-0.002313934739982752
-0.0055482696,-0.006790178594601201
-0.0055479296,-0.006066080324002262
-0.005547589600000001,-0.004486229551783521
-0.0055472496,-0.008534597155593687
-0.0055469096,-0.008337115809066702
-0.005546569600000001,-0.00494701936034732
-0.0055462296,-0.003235514357113165
-0.0055458896,-0.004782451571574535
-0.005545549600000001,-0.003893785512201493
-0.0055452096,-0.002478502528755597
-0.0055448696,-0.002511416086510094
-0.005544529600000001,-0.00415709397423795
-0.0055441896,-0.002774724548546072
-0.0055438496,-0.002511416086510094
-0.0055435096,-0.00313677368384668
-0.0055431696,-0.002248107624473398
-0.0055428296,-0.002116453393455409
-0.0055424896,-0.003531736376901365
-0.005542149600000001,-0.003498822819146867
-0.0055418096,-0.003597563492410479
-0.0055414696,-0.006230648112775047
-0.005541129600000001,-0.005704031188703091
-0.0055407896,-0.004815365129329092
-0.0055404496,-0.008073807347030245
-0.005540109600000001,-0.00718514128765882
-0.0055397696,-0.006362302343793276
-0.0055394296,-0.006230648112775047
-0.005539089600000001,-0.007086400614391975
-0.0055387496,-0.007415536191939104
-0.0055384096,-0.01162847158452241
-0.005538069600000001,-0.004124180416497043
-0.0055377296,-0.005144500706874663
-0.0055373896,-0.006329388786038719
-0.005537049600000001,0.004005468348873413
-0.0055367096,-0.006131907439511376
-0.0055363696,-0.008304202251312145
-0.005536029600000001,-0.006954746383377759
-0.0055356896,-0.004815365129329092
-0.0055353496,-0.007218054845411761
-0.005535009600000001,-0.007316795518675253
-0.0055346696,-0.006329388786038719
-0.0055343296,-0.006033166766247705
-0.005533989600000001,-0.005638204073193737
-0.0055336496,-0.004288748205256179
-0.0055333096,-0.003103860126092122
-0.005532969600000001,-0.004584970225047193
-0.0055326296,-0.002939292337319337
-0.0055322896,-0.003992526185465165
-0.005531949600000001,-0.004683710898310864
-0.0055316096,-0.005341982053402005
-0.0055312696,-0.004617883782801749
-0.005530929600000001,-0.004914105802592763
-0.0055305896,-0.006033166766247705
-0.0055302496,-0.005934426092984033
-0.005529909600000001,-0.00665852436358429
-0.0055295696,-0.00649395657480887
-0.0055292296,-0.005045760033610991
-0.005528889600000001,-0.005572376957683906
-0.0055285496,-0.007283881960922133
-0.0055282096,-0.007975066673766575
-0.005527869600000001,-0.009587831003739873
-0.0055275296,-0.003268427914870835
-0.0055271896,-0.006526870132566062
-0.005526849600000001,-0.005309068495647449
-0.0055265096,-0.002281021182236277
-0.0055261696,-0.006724351479093405
-0.005525829600000001,-0.008732078502121389
-0.0055254896,-0.007580103980709374
-0.0055251496,-0.00619773455502049
-0.005524809600000001,-0.003860871954446936
-0.0055244696,-0.004190007531991849
-0.0055241296,-0.003827958396692379
-0.005523789600000001,-0.003334255030374022
-0.0055234496,-0.004091266858730273
-0.0055231096,-0.004881192244838206
-0.0055227696,-0.007645931096221003
-0.0055224296,-0.01534770361080461
-0.0055220896,-0.02482680824409981
-0.0055217496,-0.0391112923095776
-0.0055214096,-0.06145959802497498
-0.0055210696,-0.09065392375321402
-0.0055207296,-0.1189266698643786
-0.005520389600000001,-0.150392031077678
-0.0055200496,-0.181692824502319
-0.0055197096,-0.2077932758016828
-0.005519369600000001,-0.2312935560383938
-0.0055190296,-0.247980729819997
-0.0055186896,-0.2575914886843277
-0.005518349600000001,-0.2640096324464546
-0.0055180096,-0.2680580000502769
-0.0055176696,-0.2675313831262039
-0.005517329600000001,-0.2659515323539881
-0.0055169896,-0.255188798968245
-0.0055166496,-0.2481452976087698
-0.005516309600000001,-0.2435044859653857
-0.0055159696,-0.2307669391143636
-0.0055156296,-0.2247108444875251
-0.005515289600000001,-0.2195763294778236
-0.0055149496,-0.2091098181118651
-0.0055146096,-0.2016384405015806
-0.005514269600000001,-0.1931796561586748
-0.0055139296,-0.1881109682644576
-0.0055135896,-0.1836676379675924
-0.005513249600000001,-0.1772824077632199
-0.0055129096,-0.172773250350834
-0.0055125696,-0.1676058217833686
-0.005512229600000001,-0.1616484678297937
-0.0055118896,-0.156645607051101
-0.0055115496,-0.1517744005034266
-0.005511209600000001,-0.1456195652033244
-0.0055108696,-0.1391026807679221
-0.0055105296,-0.136436682589803
-0.005510189600000001,-0.1299527117121552
-0.0055098496,-0.123797876412053
-0.0055095096,-0.1208027426563884
-0.005509169600000001,-0.1160302767819776
-0.0055088296,-0.1105337126369606
-0.0055084896,-0.1073081839770199
-0.005508149600000001,-0.1034243841619822
-0.0055078096,-0.09937601655816848
-0.0055074696,-0.09763159799718013
-0.005507129600000001,-0.09453772356825177
-0.0055067896,-0.09410984731743736
-0.0055064496,-0.09127928135055061
-0.005506109600000001,-0.08295215123864766
-0.0055057696,-0.08081276998459086
-0.0055054296,-0.07498707026204485
-0.005505089600000001,-0.07100452977374344
-0.0055047496,-0.07357178727859554
-0.0055044096,-0.07172862804434368
-0.005504069600000001,-0.06774608755604228
-0.0055037296,-0.06718655707421302
-0.0055033896,-0.06619915034157808
-0.005503049600000001,-0.06593584187954163
-0.0055027096,-0.06211786918000829
-0.0055023696,-0.059517698117403
-0.0055020296,-0.05760871176763869
-0.0055016896,-0.05435026954993161
-0.0055013496,-0.05109182733223638
-0.0055010096,-0.04918284098247207
-0.0055006696,-0.04556234962946552
-0.0055003296,-0.04266595654706976
-0.0054999896,-0.04401541241500661
-0.005499649600000001,-0.04260012943156322
-0.0054993096,-0.04131650067913292
-0.0054989696,-0.04233682096952419
-0.005498629600000001,-0.04276469722033266
-0.0054982896,-0.04227099385401508
-0.0054979496,-0.03967082279140507
-0.005497609600000001,-0.03842010759673418
-0.0054972696,-0.03558954162983999
-0.0054969296,-0.03499709759025796
-0.005496589600000001,-0.03377929595334156
-0.0054962496,-0.0342729993196577
-0.0054959096,-0.02953344700300148
-0.005495569600000001,-0.02430019132003642
-0.0054952296,-0.02745989286446438
-0.0054948896,-0.0236090066071812
-0.005494549600000001,-0.02291782189433676
-0.0054942096,-0.0289080894056649
-0.0054938696,-0.02653831324733678
-0.005493529600000001,-0.02430019132003097
-0.0054931896,-0.02485972180185437
-0.0054928496,-0.02459641333981791
-0.005492509600000001,-0.02588004209224331
-0.0054921696,-0.02492554891736349
-0.0054918296,-0.02318113035637196
-0.005491489600000001,-0.01926441698358679
-0.0054911496,-0.02110757621783486
-0.0054908096,-0.02183167448843512
-0.005490469600000001,-0.0215354524686441
-0.0054901296,-0.02133797112211676
-0.0054897896,-0.01811244246217016
-0.005489449600000001,-0.02025182371621638
-0.0054891096,-0.01909984919480688
-0.0054887696,-0.01659841880546054
-0.005488429600000001,-0.01742125774932446
-0.0054880896,-0.01794787467339546
-0.0054877496,-0.01689464082525155
-0.005487409600000001,-0.01709212217177889
-0.0054870696,-0.01696046794075641
-0.0054867296,-0.01462360534018711
-0.005486389600000001,-0.01580849341935116
-0.0054860496,-0.0174541713070804
-0.0054857096,-0.01821118313543383
-0.005485369600000001,-0.02295073545209006
-0.0054850296,-0.01761873909585504
-0.0054846896,-0.01939607121459789
-0.005484349600000001,-0.01850740515522485
-0.0054840096,-0.01439321043590766
-0.0054836696,-0.01574266630384205
-0.005483329600000001,-0.01896819496378865
-0.0054829896,-0.01771747976911129
-0.0054826496,-0.01541353072629648
-0.005482309600000001,-0.0159401476503694
-0.0054819696,-0.01630219678567192
-0.0054816296,-0.01761873909585181
-0.005481289600000001,-0.01557809851506927
-0.0054809496,-0.01666424592096869
-0.0054806096,-0.01613762899689674
-0.0054802696,-0.014557778224678
-0.0054799296,-0.01399824774284801
-0.0054795896,-0.01261587831715913
-0.0054792496,-0.01060815129413114
-0.005478909600000001,-0.009390349657214745
-0.0054785696,-0.01057523773637659
-0.0054782296,-0.009061214079666959
-0.005477889600000001,-0.00820546157805003
-0.0054775496,-0.008040893789275689
-0.0054772096,-0.007843412442748346
-0.005476869600000001,-0.007415536191939882
-0.0054765296,-0.008929559848648731
-0.0054761896,-0.009291608983948858
-0.005475849600000001,-0.008468770040086428
-0.0054755096,-0.01093728687167671
-0.0054751696,-0.01241839697063178
-0.005474829600000001,-0.01350454437653019
-0.0054744896,-0.007152227729902647
-0.0054741496,-0.006823092152357076
-0.005473809600000001,-0.006493956574812103
-0.0054734696,-0.002248107624473638
-0.0054731296,-0.006395215901547833
-0.005472789600000001,-0.009653658119243059
-0.0054724496,-0.008073807347030245
-0.0054721096,-0.008402942924575817
-0.005471769600000001,-0.009192868310683751
-0.0054714296,-0.009554917445985316
-0.0054710896,-0.009884053023530886
-0.005470749600000001,-0.008205461578051527
-0.0054704096,-0.008929559848648731
-0.0054700696,-0.008962473406403288
-0.005469729600000001,-0.00767884465397556
-0.0054693896,-0.007942153116012016
-0.0054690496,-0.008797905617630502
-0.005468709600000001,-0.009028300521912402
-0.0054683696,-0.006921832825620747
-0.0054680296,-0.008633337828857716
-0.005467689600000001,-0.006724351479093405
-0.0054673496,-0.00688891926786619
-0.0054670096,-0.007777585327239231
-0.005466669600000001,-0.007942153116012016
-0.0054663296,-0.006757265036850835
-0.0054659896,-0.008337115809066702
-0.005465649600000001,-0.008666251386612273
-0.0054653096,-0.006888919267867627
-0.0054649696,-0.00767884465397556
-0.005464629600000001,-0.008337115809066702
-0.0054642896,-0.01106894110268734
-0.0054639496,-0.00688891926786619
-0.005463609600000001,-0.002939292337319337
-0.0054632696,-0.005704031188693992
-0.0054629296,-0.001227787334082367
-0.005462589600000001,-0.002643070317528323
-0.0054622496,-0.006888919267864752
-0.0054619096,-0.006098993881756819
-0.005461569600000001,-0.006131907439511376
-0.0054612296,-0.007349709076432025
-0.0054608896,-0.008468770040084931
-0.005460549600000001,-0.01004862081230367
-0.0054602096,-0.01001570725454876
-0.0054598696,-0.009818225908021772
-0.0054595296,-0.009752398792512659
-0.0054591896,-0.008732078502117078
-0.0054588496,-0.006362302343793276
-0.0054585096,-0.006362302343793276
-0.0054581696,-0.004321661763006844
-0.0054578296,-0.002182280508964523
-0.0054574896,-0.002149366951209966
-0.005457149600000001,-0.002083539835700972
-0.0054568096,-0.001853144931418952
-0.0054564696,-0.00336716858812858
-0.005456129600000001,-0.004683710898308469
-0.0054557896,-0.002149366951209966
-0.0054554496,-0.003432995703637694
-0.005455109600000001,-0.004848278687081074
-0.0054547696,-0.003070946568337565
-0.0054544296,-0.00313677368384668
-0.005454089600000001,-0.005835685419715453
-0.0054537496,-0.01060815129413114
-0.0054534096,-0.006263561670529605
-0.005453069600000001,-0.003169687241606864
-0.0054527296,-0.007777585327239231
-0.0054523896,-0.009192868310685188
-0.005452049600000001,-0.007810498884996304
-0.0054517096,-0.007382622634184546
-0.0054513696,-0.007711758211730118
-0.005451029600000001,-0.008962473406401012
-0.0054506896,-0.007744671769484675
-0.0054503496,-0.00767884465397556
-0.005450009600000001,-0.008337115809065505
-0.0054496696,-0.008304202251312145
-0.0054493296,-0.009028300521912402
-0.005448989600000001,-0.006000253208498656
-0.0054486496,-0.007053487056638975
-0.0054483096,-0.005243241380138334
-0.005447969600000001,-0.009686571677003543
-0.0054476296,-0.005572376957683906
-0.0054472896,-0.006395215901547833
-0.005446949600000001,-0.006461043017056948
-0.0054466096,-0.007053487056638975
-0.0054462696,-0.01231965629736811
-0.005445929600000001,-0.006559783690320619
-0.0054455896,-0.007152227729906658
-0.0054452496,-0.009357436099457973
-0.005444909600000001,-0.009686571677003543
-0.0054445696,-0.009818225908018121
-0.0054442296,-0.007810498884993789
-0.005443889600000001,-0.006362302343793276
-0.0054435496,-0.007349709076430229
-0.0054432096,-0.007481363307448217
-0.005442869600000001,-0.005078673591365549
-0.0054425296,-0.006098993881755802
-0.0054421896,-0.005539463399929348
-0.005441849600000001,-0.00494701936034732
-0.0054415096,-0.005704031188702912
-0.0054411696,-0.006131907439511376
-0.005440829600000001,-0.004552056667292635
-0.0054404896,-0.0051115871491228
-0.0054401496,-0.006592697248075176
-0.005439809600000001,-0.004881192244838206
-0.0054394696,-0.004255834647502879
-0.0054391296,-0.00494701936034732
-0.005438789600000001,-0.00438748887851985
-0.0054384496,-0.002939292337322091
-0.0054381096,-0.004453315994028964
-0.0054377696,-0.006625610805829733
-0.0054374296,-0.01284627322142935
-0.0054370896,-0.006428129459302391
-0.0054367496,-0.006230648112775047
-0.005436409600000001,-0.005934426092984572
-0.0054360696,-0.002708897433037437
-0.0054357296,-0.007053487056638975
-0.005435389600000001,-0.006856005710111992
-0.0054350496,-0.003498822819146808
-0.0054347096,-0.001984799162437181
-0.005434369600000001,-0.004288748205251987
-0.0054340296,-0.005210327822383777
-0.0054336896,-0.004025439743219721
-0.005433349600000001,-0.005012846475854638
-0.0054330096,-0.008468770040084931
-0.0054326696,-0.01129933600697684
-0.005432329600000001,-0.01070689196739589
-0.0054319896,-0.01093728687167671
-0.0054316496,-0.01281335966368647
-0.005431309600000001,-0.01169429870003356
-0.0054309696,-0.01021318860107646
-0.0054306296,-0.009291608983948858
-0.005430289600000001,-0.006856005710116063
-0.0054299496,-0.00517741426462922
-0.0054296096,-0.006098993881756819
-0.005429269600000001,-0.004124180416486985
-0.0054289296,-0.003202600799355794
-0.0054285896,-0.005506549842174791
-0.005428249600000001,-0.007086400614390659
-0.0054279096,-0.008073807347030245
-0.0054275696,-0.008633337828857716
-0.005427229600000001,-0.01011444792781279
-0.0054268896,-0.0136361986075504
-0.0054265496,-0.008205461578048474
-0.005426209600000001,-0.006823092152357076
-0.0054258696,-0.008073807347030245
-0.0054255296,-0.004617883782801749
-0.005425189600000001,-0.009258695426194301
-0.0054248496,-0.01077271908290393
-0.0054245096,-0.008896646290894173
-0.005424169600000001,-0.008337115809066702
-0.0054238296,-0.008205461578049791
-0.0054234896,-0.008929559848648731
-0.005423149600000001,-0.006559783690320619
-0.0054228096,-0.005967339650739608
-0.0054224696,-0.006526870132566062
-0.005422129600000001,-0.007613017538466446
-0.0054217896,-0.005671117630946619
-0.0054214496,-0.005144500706874663
-0.005421109600000001,-0.007218054845411761
-0.0054207696,-0.004979932918099244
-0.0054204296,-0.003531736376901365
-0.005420089600000001,-0.003992526185465165
-0.0054197496,-0.004025439743217746
-0.0054194096,-0.002939292337319337
-0.005419069600000001,-0.005078673591365549
-0.0054187296,-0.005144500706873405
-0.0054183896,-0.004453315994028964
-0.005418049600000001,-0.005901512535229476
-0.0054177096,-0.005967339650737454
-0.0054173696,-0.005341982053402005
-0.0054170296,-0.005638204073193019
-0.0054166896,-0.008830819175392723
-0.0054163496,-0.01304375456796837
-0.0054160096,-0.006790178594602518
-0.0054156696,-0.006921832825622484
-0.0054153296,-0.007876326000502903
-0.0054149896,-0.00415709397423795
-0.005414649600000001,-0.006526870132561751
-0.0054143096,-0.009522003888230759
-0.0054139696,-0.005045760033610991
-0.005413629600000001,-0.004552056667293533
-0.0054132896,-0.005539463399929348
-0.0054129496,-0.004979932918101878
-0.005412609600000001,-0.005407809168910342
-0.0054122696,-0.005967339650738591
-0.0054119296,-0.00711931417214809
-0.005411589600000001,-0.00866625138660946
-0.0054112496,-0.006691437921338847
-0.0054109096,-0.005012846475856435
-0.005410569600000001,-0.006098993881754843
-0.0054102296,-0.007250968403166318
-0.0054098896,-0.004321661763010735
-0.005409549600000001,-0.005671117630945122
-0.0054092096,-0.007415536191939104
-0.0054088696,-0.007711758211730118
-0.005408529600000001,-0.008600424271101543
-0.0054081896,-0.007843412442748346
-0.0054078496,-0.006362302343793276
-0.005407509600000001,-0.00692183282561973
-0.0054071696,-0.007218054845411761
-0.0054068296,-0.005045760033610991
-0.005406489600000001,-0.004387488878521048
-0.0054061496,-0.005802771861965805
-0.0054058096,-0.007185141287657204
-0.005405469600000001,-0.008929559848648731
-0.0054051296,-0.001227787334082367
-0.0054047896,-0.00494701936034732
-0.005404449600000001,-0.003070946568337565
-0.0054041096,-0.00165566358489161
-0.0054037696,-0.008040893789275689
-0.005403429600000001,-0.009159954752930631
-0.0054030896,-0.007678844653975141
-0.0054027496,-0.007448449749693661
-0.005402409600000001,-0.007514276865202775
-0.0054020696,-0.008337115809064547
-0.0054017296,-0.007152227729902647
-0.005401389600000001,-0.00540780916891112
-0.0054010496,-0.004716624456058954
-0.0054007096,-0.001161960218573253
-0.005400369600000001,0.009567859609412364
-0.0054000296,0.02362194877062914
-0.0053996896,0.03510878042694868
-0.005399349600000001,0.06137379951508525
-0.0053990096,0.09004150831935598
-0.0053986696,0.1183471679882236
-0.005398329600000001,0.1478377157363068
-0.0053979896,0.1757154991544571
-0.0053976496,0.1979650641964972
-0.005397309600000001,0.2150801142288669
-0.0053969696,0.2288708949280377
-0.0053966296,0.2351244709013922
-0.0053962896,0.2396665418715211
-0.0053959496,0.2408843435084326
-0.0053956096,0.237000543693402
-0.0053952696,0.2294633389676084
-0.0053949296,0.2254478849215523
-0.0053945896,0.2253820578060433
