Analysis/files/cmb03_d2s01/wrd09_ch47.csv

#Digilent WaveForms Oscilloscope Acquisition
#Device Name: ADP3450
#Serial Number: SN:210018B9D9B0
#Date Time: 2024-08-09 13:20:58.907.753.200
#Sample rate: 2.94118e+06Hz
#Samples: 32768
#Trigger: Source: Channel 3 Type: Edge Condition: Rising Level: 20 mV Hyst.: Auto HoldOff: 0 s
#Channel 3: Range: 200 mV/div Offset: 0 V Attenuation: 1 X Coupling: DC Bandwidth: 0 Hz Sample Mode: Average

Time (s),Channel 3 (V)
-0.005570365714285715,0.01348457298220466
-0.005570025714285714,0.01308961028914716
-0.005569685714285714,0.01154267307468579
-0.005569345714285715,0.01114771038163111
-0.005569005714285714,0.009798254513690791
-0.005568665714285714,0.007889268163929951
-0.005568325714285715,0.007033515662311467
-0.005567985714285714,0.008975415569826863
-0.005567645714285714,0.007066429220066024
-0.005567305714285715,0.007066429220066024
-0.005566965714285714,0.01012739009123606
-0.005566625714285714,0.008053835952702737
-0.005566285714285715,0.004170036137664999
-0.005565945714285714,0.01150975951693004
-0.005565605714285714,0.01085148836184009
-0.005565265714285715,0.009699513840430593
-0.005564925714285714,0.010489439226525
-0.005564585714285714,0.002261049787900686
-0.005564245714285715,0.002063568441373343
-0.005563905714285714,0.00578280046763638
-0.005563565714285714,0.004729566619492469
-0.005563225714285715,0.003149715847273728
-0.005562885714285715,0.004170036137663142
-0.005562545714285714,0.004170036137664999
-0.005562205714285715,0.002952234500746385
-0.005561865714285715,0.002524358249937921
-0.005561525714285714,0.002195222672391572
-0.005561185714285715,0.0003520634381363738
-0.005560845714285715,0.0005824583424178544
-0.005560505714285714,0.0007799396889456162
-0.005560165714285715,-0.0006353432945003394
-0.005559825714285715,-0.0006682568522548367
-0.005559485714285714,0.000714112573436502
-0.005559145714285714,2.292786059080275e-05
-0.005558805714285715,-0.000635343294499142
-0.005558465714285714,-0.0006353432945003394
-0.005558125714285714,-0.001293614449591481
-0.005557785714285715,-0.001622750027136454
-0.005557445714285714,0.002129395556882458
-0.005557105714285714,0.000417890553645488
-0.005556765714285715,0.0007470261311904604
-0.005556425714285714,0.00130655661301853
-0.005556085714285714,-0.0003062077169547683
-0.005555745714285715,-0.005802771861955807
-0.005555405714285714,-0.0009315653142913533
-0.005555065714285714,-0.002083539835700852
-0.005554725714285715,-0.003400082145880742
-0.005554385714285714,-0.003169687241601236
-0.005554045714285714,-0.00790923955825746
-0.005553705714285715,-0.009225781868439744
-0.005553365714285714,-0.005506549842174791
-0.005553025714285714,-0.004025439743219721
-0.005552685714285715,-0.005572376957683906
-0.005552345714285714,-0.003992526185465165
-0.005552005714285714,-0.002182280508964523
-0.005551665714285715,-0.003564649934655922
-0.005551325714285714,-0.002741810990779122
-0.005550985714285714,0.004334603926437783
-0.005550645714285715,-0.002873465221810222
-0.005550305714285714,-0.004288748205252406
-0.005549965714285714,-0.002215194066719081
-0.005549625714285715,-0.003959612627710607
-0.005549285714285714,-0.004157093974235854
-0.005548945714285714,-0.003005119452828451
-0.005548605714285715,-0.004255834647501621
-0.005548265714285714,-0.005901512535227501
-0.005547925714285714,-0.004815365129329092
-0.005547585714285715,-0.003992526185465165
-0.005547245714285714,-0.004354575320764394
-0.005546905714285714,-0.003860871954446936
-0.005546565714285715,-0.003959612627710607
-0.005546225714285714,-0.005144500706872866
-0.005545885714285714,-0.00415709397423795
-0.005545545714285715,-0.008797905617630502
-0.005545205714285714,-0.005605290515432536
-0.005544865714285714,-0.002346848297737309
-0.005544525714285715,-0.001392355122855153
-0.005544185714285714,-0.002083539835705582
-0.005543845714285714,-0.004683710898310864
-0.005543505714285715,-0.004519143109538078
-0.005543165714285714,-0.003301341472624075
-0.005542825714285714,-0.005835685419720362
-0.005542485714285715,-0.006066080324002262
-0.005542145714285715,-0.006987659941128184
-0.005541805714285714,-0.007283881960920875
-0.005541465714285715,-0.00688891926786619
-0.005541125714285715,-0.008534597155591052
-0.005540785714285714,-0.006987659941129861
-0.005540445714285715,-0.005045760033610991
-0.005540105714285715,-0.004881192244838506
-0.005539765714285714,-0.00619773455502049
-0.005539425714285715,-0.003630477050165036
-0.005539085714285715,-0.002610156759775622
-0.005538745714285714,-0.002939292337319337
-0.005538405714285714,-0.0006353432945003394
-0.005538065714285715,-0.0007999110832728255
-0.005537725714285714,-0.001589836469382495
-0.005537385714285714,-0.002017712720191738
-0.005537045714285715,-0.002017712720191738
-0.005536705714285714,-0.005078673591365549
-0.005536365714285714,-0.006395215901547833
-0.005536025714285715,-0.007218054845410264
-0.005535685714285714,-0.009357436099457973
-0.005535345714285714,-0.008896646290894173
-0.005535005714285715,-0.01199052071981691
-0.005534665714285714,-0.008073807347030245
-0.005534325714285714,-0.002873465221810222
-0.005533985714285715,-0.005374895611152013
-0.005533645714285714,-0.006823092152357076
-0.005533305714285714,-0.004683710898310864
-0.005532965714285715,-0.003400082145883136
-0.005532625714285714,-0.006230648112775047
-0.005532285714285714,-0.005934426092984033
-0.005531945714285715,-0.004453315994028964
-0.005531605714285714,-0.005045760033610991
-0.005531265714285714,-0.007020573498884419
-0.005530925714285715,-0.003827958396692379
-0.005530585714285714,-0.00313677368384668
-0.005530245714285714,-0.003235514357110351
-0.005529905714285715,-0.002116453393455409
-0.005529565714285714,-0.001392355122858565
-0.005529225714285714,-0.003268427914864908
-0.005528885714285715,-0.002511416086510094
-0.005528545714285714,-0.001096133103069587
-0.005528205714285714,-0.004091266858728836
-0.005527865714285715,-0.004650797340556306
-0.005527525714285714,-0.005078673591368064
-0.005527185714285714,-0.006461043017056948
-0.005526845714285715,-0.007053487056638975
-0.005526505714285714,-0.00616482099726749
-0.005526165714285714,-0.007020573498884419
-0.005525825714285715,-0.006066080324002262
-0.005525485714285714,-0.00300511945282893
-0.005525145714285714,-0.003268427914864908
-0.005524805714285715,-0.003235514357110351
-0.005524465714285714,-0.003663390607913367
-0.005524125714285714,-0.0002403806014456541
-0.005523785714285715,-0.0009644788720459105
-0.005523445714285714,0.00272183959645808
-0.005523105714285714,-0.0007999110832731249
-0.005522765714285715,-0.008304202251312145
-0.005522425714285714,-0.009851139465791057
-0.005522085714285714,-0.01794787467339738
-0.005521745714285715,-0.03578702297636733
-0.005521405714285714,-0.058168242249514
-0.005521065714285714,-0.08446617489535729
-0.005520725714285715,-0.1165568937060505
-0.005520385714285715,-0.1484172176124038
-0.005520045714285714,-0.1784014687268633
-0.005519705714285715,-0.2077274486861737
-0.005519365714285715,-0.2292529154576148
-0.005519025714285714,-0.2456109536616689
-0.005518685714285715,-0.2598625241693922
-0.005518345714285715,-0.2661819272582556
-0.005518005714285714,-0.2670705933176401
-0.005517665714285714,-0.2673997288951857
-0.005517325714285715,-0.2658527916807243
-0.005516985714285714,-0.2582497598394188
-0.005516645714285714,-0.2525557143478804
-0.005516305714285715,-0.2462692248167715
-0.005515965714285714,-0.2356710592197926
-0.005515625714285714,-0.2281996816095082
-0.005515285714285715,-0.2208270446725008
-0.005514945714285714,-0.2107884095573475
-0.005514605714285714,-0.2041727844486815
-0.005514265714285715,-0.2013422184817947
-0.005513925714285714,-0.1878476598024212
-0.005513585714285714,-0.1783027280535996
-0.005513245714285715,-0.1719174978492271
-0.005512905714285714,-0.1645777744699493
-0.005512565714285714,-0.1628662694667123
-0.005512225714285715,-0.1577975815725105
-0.005511885714285714,-0.1489109209787801
-0.005511545714285714,-0.145125861837006
-0.005511205714285715,-0.139333075672204
-0.005510865714285714,-0.1347580911443206
-0.005510525714285714,-0.1291298727682913
-0.005510185714285715,-0.1250485916067262
-0.005509845714285714,-0.1186304478445876
-0.005509505714285714,-0.1128376616797855
-0.005509165714285715,-0.1106653668679848
-0.005508825714285714,-0.1075714924390469
-0.005508485714285714,-0.1023711503138364
-0.005508145714285715,-0.0947352049147791
-0.005507805714285714,-0.09710498107310256
-0.005507465714285714,-0.09453772356825177
-0.005507125714285715,-0.09029187461791391
-0.005506785714285714,-0.08841580182589576
-0.005506445714285714,-0.08380790374026614
-0.005506105714285715,-0.08124064623541069
-0.005505765714285714,-0.07982536325195809
-0.005505425714285714,-0.07617195834120891
-0.005505085714285715,-0.07399966352940812
-0.005504745714285714,-0.07291351612350205
-0.005504405714285714,-0.06978672813682482
-0.005504065714285715,-0.06837144515337887
-0.005503725714285714,-0.07005003659884391
-0.005503385714285714,-0.06050510485003972
-0.005503045714285715,-0.05583137964889261
-0.005502705714285714,-0.05471231868523599
-0.005502365714285714,-0.05379073906811007
-0.005502025714285715,-0.05467940512748311
-0.005501685714285714,-0.05234254252690453
-0.005501345714285714,-0.04957780367552676
-0.005501005714285715,-0.04645101568884383
-0.005500665714285714,-0.04434454799255032
-0.005500325714285714,-0.04332422770216091
-0.005499985714285715,-0.03999995836895064
-0.005499645714285715,-0.03950625500263318
-0.005499305714285714,-0.03687317038226771
-0.005498965714285715,-0.0345033942239396
-0.005498625714285715,-0.03486544335923907
-0.005498285714285714,-0.03707065172879506
-0.005497945714285715,-0.03443756710843049
-0.005497605714285715,-0.03262732143193314
-0.005497265714285714,-0.03453630778169416
-0.005496925714285715,-0.03338433326028466
-0.005496585714285715,-0.03147534691052382
-0.005496245714285714,-0.03108038421746566
-0.005495905714285714,-0.03025754527360174
-0.005495565714285715,-0.02798650978854143
-0.005495225714285714,-0.02907265719443768
-0.005494885714285714,-0.0268345352671278
-0.005494545714285715,-0.02512303026389394
-0.005494205714285714,-0.02611043699652754
-0.005493865714285714,-0.02745989286446438
-0.005493525714285715,-0.03042211306236913
-0.005493185714285714,-0.02492554891736349
-0.005492845714285714,-0.02374066083819943
-0.005492505714285715,-0.02133797112212113
-0.005492165714285714,-0.02285199477882639
-0.005491825714285714,-0.02673579459386412
-0.005491485714285715,-0.02459641333982181
-0.005491145714285714,-0.02364192016493576
-0.005490805714285714,-0.02166710669966233
-0.005490465714285715,-0.02127214400660764
-0.005490125714285714,-0.0190011085215432
-0.005489785714285714,-0.02018599660070726
-0.005489445714285715,-0.01827701025094295
-0.005489105714285714,-0.01860614582848852
-0.005488765714285714,-0.01886945429052498
-0.005488425714285715,-0.01705920861402434
-0.005488085714285714,-0.01574266630384151
-0.005487745714285714,-0.01544644428405104
-0.005487405714285715,-0.01422864264713243
-0.005487065714285714,-0.01152973091126174
-0.005486725714285714,-0.0131754087989866
-0.005486385714285715,-0.01268170543266824
-0.005486045714285714,-0.011036027544942
-0.005485705714285714,-0.01192469360431343
-0.005485365714285715,-0.012253829181859
-0.005485025714285714,-0.01031192927434133
-0.005484685714285714,-0.01097020042943127
-0.005484345714285715,-0.01070689196739481
-0.005484005714285714,-0.008271288693557229
-0.005483665714285714,-0.008073807347030245
-0.005483325714285715,-0.01047649706311291
-0.005482985714285714,-0.01087145975615521
-0.005482645714285714,-0.004058353300974278
-0.005482305714285715,-0.005440722726665677
-0.005481965714285714,-0.002972205895075031
-0.005481625714285714,-0.003597563492410479
-0.005481285714285715,-0.008666251386612273
-0.005480945714285714,-0.008468770040081638
-0.005480605714285714,-0.00665852436358429
-0.005480265714285715,-0.009258695426194301
-0.005479925714285714,-0.009686571677002346
-0.005479585714285714,-0.009028300521912402
-0.005479245714285715,-0.01097020042943127
-0.005478905714285715,-0.009686571677005878
-0.005478565714285714,-0.009159954752930631
-0.005478225714285715,-0.009489090330476201
-0.005477885714285715,-0.01024610215882964
-0.005477545714285714,-0.009192868310685188
-0.005477205714285715,-0.008797905617630502
-0.005476865714285715,-0.008435856482331033
-0.005476525714285714,-0.006066080324002262
-0.005476185714285715,-0.006329388786038719
-0.005475845714285715,-0.005144500706876818
-0.005475505714285714,-0.00369630416567415
-0.005475165714285714,-0.003301341472619465
-0.005474825714285715,-0.004091266858727399
-0.005474485714285714,-0.003038033010583008
-0.005474145714285714,-0.003070946568337565
-0.005473805714285715,-0.005473636284415864
-0.005473465714285714,-0.003827958396692379
-0.005473125714285714,-0.005144500706874663
-0.005472785714285715,-0.007415536191934973
-0.005472445714285714,-0.01001570725454911
-0.005472105714285714,-0.002807638106301108
-0.005471765714285715,-0.002281021182229153
-0.005471425714285714,-0.00142526868060971
-0.005471085714285714,-0.002412675413246423
-0.005470745714285715,-0.007020573498876038
-0.005470405714285714,-0.005704031188702134
-0.005470065714285714,-0.003992526185465165
-0.005469725714285715,-0.005605290515438462
-0.005469385714285714,-0.004552056667292635
-0.005469045714285714,-0.002149366951209966
-0.005468705714285715,-0.002544329644264652
-0.005468365714285714,-0.004650797340556306
-0.005468025714285714,-0.002050626277946295
-0.005467685714285715,-0.003762131281183265
-0.005467345714285714,-0.00540780916891112
-0.005467005714285714,-0.004321661763010735
-0.005466665714285715,-0.005341982053402005
-0.005466325714285714,-0.007086400614391078
-0.005465985714285714,-0.005736944746456691
-0.005465645714285715,-0.005210327822383777
-0.005465305714285714,-0.004453315994018128
-0.005464965714285714,0.001504037959545873
-0.005464625714285715,-0.004979932918101878
-0.005464285714285714,-0.004881192244836889
-0.005463945714285714,-0.00415709397423795
-0.005463605714285715,-0.004782451571574535
-0.005463265714285714,-0.005572376957684923
-0.005462925714285714,-0.006131907439511376
-0.005462585714285715,-0.004321661763010735
-0.005462245714285714,-0.008797905617621702
-0.005461905714285714,-0.003959612627710607
-0.005461565714285715,-0.001063219545309582
-0.005461225714285714,-0.001326528007344841
-0.005460885714285714,-0.0006682568522548965
-0.005460545714285715,-0.004782451571574535
-0.005460205714285714,-0.007415536191934314
-0.005459865714285714,-0.004782451571574535
-0.005459525714285715,-0.004091266858728836
-0.005459185714285714,-0.004848278687084128
-0.005458845714285714,-0.005111587149120106
-0.005458505714285715,-0.005309068495647449
-0.005458165714285714,-0.005835685419719943
-0.005457825714285714,-0.005605290515438462
-0.005457485714285715,-0.004354575320765292
-0.005457145714285715,-0.005868598977472166
-0.005456805714285714,-0.008402942924575817
-0.005456465714285715,-0.005539463399929348
-0.005456125714285715,-0.004815365129330409
-0.005455785714285714,-0.004486229551783521
-0.005455445714285715,-0.004255834647501621
-0.005455105714285715,-0.002182280508968295
-0.005454765714285714,-0.002050626277946295
-0.005454425714285715,-0.0009315653142913533
-0.005454085714285715,-0.001129046660818337
-0.005453745714285714,-0.004091266858728836
-0.005453405714285714,-0.002873465221810222
-0.005453065714285715,0.0001545820916035228
-0.005452725714285714,-0.002017712720191738
-0.005452385714285714,-0.003564649934655922
-0.005452045714285715,-0.00264307031753
-0.005451705714285714,-0.005802771861965805
-0.005451365714285714,-0.003301341472619465
-0.005451025714285715,-0.0007669975255231777
-0.005450685714285714,-0.002182280508964523
-0.005450345714285714,-0.0005695161789912252
-0.005450005714285715,-0.003169687241596507
-0.005449665714285714,-0.004617883782801749
-0.005449325714285714,-0.003860871954446936
-0.005448985714285715,-0.001458182238368637
-0.005448645714285714,-0.0006353432945003394
-0.005448305714285714,-0.002116453393455409
-0.005447965714285715,-0.001359441565100596
-0.005447625714285714,-0.0006024297367457822
-0.005447285714285714,-0.002807638106301108
-0.005446945714285715,-0.00290637877956478
-0.005446605714285714,-0.004584970225047193
-0.005446265714285714,-0.007711758211730118
-0.005445925714285715,-0.008797905617630502
-0.005445585714285714,-0.006987659941132495
-0.005445245714285714,-0.008435856482330374
-0.005444905714285715,-0.008337115809066702
-0.005444565714285714,-0.006362302343792738
-0.005444225714285714,-0.006066080324002262
-0.005443885714285715,-0.006757265036847961
-0.005443545714285714,-0.005572376957685822
-0.005443205714285714,-0.006625610805829733
-0.005442865714285715,-0.007086400614393532
-0.005442525714285714,-0.006691437921340284
-0.005442185714285714,-0.007481363307448217
-0.005441845714285715,-0.008238375135803031
-0.005441505714285714,-0.009916966581287
-0.005441165714285714,-0.01077271908290393
-0.005440825714285715,-0.004486229551783521
-0.005440485714285714,-0.002017712720190301
-0.005440145714285714,-0.001227787334082367
-0.005439805714285715,-0.00415709397423795
-0.005439465714285714,-0.005671117630943625
-0.005439125714285714,-0.003498822819146808
-0.005438785714285715,-0.003663390607919593
-0.005438445714285714,-0.00491410580258989
-0.005438105714285714,-0.003334255030374022
-0.005437765714285715,-0.004650797340556306
-0.005437425714285714,-0.005440722726663043
-0.005437085714285714,-0.003992526185465165
-0.005436745714285715,-0.005111587149120106
-0.005436405714285715,-0.005473636284419576
-0.005436065714285714,-0.005704031188702134
-0.005435725714285715,-0.006362302343793276
-0.005435385714285715,-0.006691437921338248
-0.005435045714285714,-0.003235514357110351
-0.005434705714285715,-0.004979932918101878
-0.005434365714285715,-0.004650797340556905
-0.005434025714285714,-0.0006353432945003394
-0.005433685714285715,-0.0007340839677640107
-0.005433345714285715,-0.001491095796117447
-0.005433005714285714,-0.001524009353873381
-0.005432665714285714,-0.001820231373664395
-0.005432325714285715,-0.003465909261389257
-0.005431985714285714,-0.003564649934655922
-0.005431645714285714,-0.003762131281183265
-0.005431305714285715,-0.004584970225045695
-0.005430965714285714,-0.007876326000502903
-0.005430625714285714,-0.004848278687083649
-0.005430285714285715,-0.001491095796124931
-0.005429945714285714,-0.001326528007346039
-0.005429605714285714,0.0007470261311910591
-0.005429265714285715,-0.004683710898300985
-0.005428925714285714,-0.006362302343793276
-0.005428585714285714,-0.00369630416567415
-0.005428245714285715,-0.004749538013818061
-0.005427905714285714,-0.007218054845411761
-0.005427565714285714,-0.005210327822383777
-0.005427225714285715,-0.006724351479093405
-0.005426885714285714,-0.006296475228284162
-0.005426545714285714,-0.004716624456065421
-0.005426205714285715,-0.004255834647501621
-0.005425865714285714,-0.004288748205256179
-0.005425525714285714,-0.00517741426462922
-0.005425185714285715,-0.001918972046928067
-0.005424845714285714,-0.003432995703637694
-0.005424505714285714,-0.0005366026212366681
-0.005424165714285715,-0.001326528007346039
-0.005423825714285714,-0.003630477050165815
-0.005423485714285714,-0.004058353300974278
-0.005423145714285715,-0.005572376957683906
-0.005422805714285714,-0.009225781868442917
-0.005422465714285714,-0.01097020042943127
-0.005422125714285715,-0.003597563492410479
-0.005421785714285714,-0.009620744561494969
-0.005421445714285714,-0.009916966581285444
-0.005421105714285715,-0.007020573498884419
-0.005420765714285714,-0.008007980231524305
-0.005420425714285714,-0.009752398792512659
-0.005420085714285715,-0.0005695161789912252
-0.005419745714285714,-0.001063219545307846
-0.005419405714285714,-0.0001087263704274257
-0.005419065714285715,0.0008457668044547304
-0.005418725714285714,-0.004782451571572859
-0.005418385714285714,-0.003860871954446936
-0.005418045714285715,-0.001359441565100596
-0.005417705714285714,-0.001886058489176623
