Analysis/files/cmb03_d2s01/wrd06_ch10.csv

#Digilent WaveForms Oscilloscope Acquisition
#Device Name: ADP3450
#Serial Number: SN:210018B9D9B0
#Date Time: 2024-08-09 18:07:41.444.263.440
#Sample rate: 2.94118e+06Hz
#Samples: 32768
#Trigger: Source: Channel 3 Type: Edge Condition: Rising Level: 60 mV Hyst.: Auto HoldOff: 0 s
#Channel 3: Range: 200 mV/div Offset: -20 mV Attenuation: 1 X Coupling: DC Bandwidth: 0 Hz Sample Mode: Average

Time (s),Channel 3 (V)
-0.005570332840043526,0.001639589248053776
-0.005569992840043525,0.0001584791490982262
-0.005569652840043526,-0.0001048293129377494
-0.005569312840043526,-0.0008947546990471199
-0.005568972840043525,-0.003494925761657073
-0.005568632840043526,-0.003462012203902576
-0.005568292840043526,-0.004284851147766503
-0.005567952840043525,-0.004910208745106262
-0.005567612840043526,-0.006654627306094615
-0.005567272840043526,-0.005634307015703346
-0.005566932840043525,-0.008069910289540511
-0.005566592840043526,-0.008036996731786015
-0.005566252840043526,-0.008497786540349814
-0.005565912840043525,-0.008958576348916067
-0.005565572840043526,-0.01030803221685045
-0.005565232840043526,-0.01001181019705944
-0.005564892840043525,-0.01073590846766203
-0.005564552840043526,-0.01201953722008742
-0.005564212840043526,-0.01080173558316881
-0.005563872840043525,-0.01090047625643536
-0.005563532840043526,-0.01248032702865122
-0.005563192840043526,-0.008497786540349814
-0.005562852840043526,-0.009024403464421769
-0.005562512840043526,-0.006522973075076387
-0.005562172840043526,-0.008366132309331583
-0.005561832840043526,-0.01096630337193687
-0.005561492840043526,-0.0107359084676597
-0.005561152840043526,-0.008300305193822469
-0.005560812840043526,-0.009518106830738867
-0.005560472840043526,-0.01099921692969615
-0.005560132840043526,-0.01159166096927818
-0.005559792840043526,-0.01152583385376919
-0.005559452840043526,-0.01248032702865122
-0.005559112840043526,-0.01228284568212388
-0.005558772840043526,-0.01152583385377045
-0.005558432840043525,-0.01320442529925148
-0.005558092840043526,-0.01327025241476059
-0.005557752840043526,-0.01205245077784419
-0.005557412840043525,-0.01297403039496958
-0.005557072840043526,-0.01573876924635238
-0.005556732840043526,-0.0142247455896455
-0.005556392840043525,-0.01323733885700604
-0.005556052840043526,-0.01333607953026971
-0.005555712840043526,-0.01139417962275437
-0.005555372840043525,-0.01116378471846894
-0.005555032840043526,-0.01122961183397805
-0.005554692840043526,-0.01040677289011562
-0.005554352840043525,-0.009452279715231968
-0.005554012840043526,-0.01129543894948717
-0.005553672840043526,-0.01248032702865122
-0.005553332840043525,-0.01695657088327099
-0.005552992840043526,-0.01083464914092337
-0.005552652840043526,-0.01063716779439602
-0.005552312840043525,-0.01037385933235957
-0.005551972840043526,-0.01310568462598781
-0.005551632840043526,-0.01639704040144352
-0.005551292840043525,-0.01422474558964293
-0.005550952840043526,-0.01432348626290642
-0.005550612840043526,-0.01478427607147022
-0.005550272840043525,-0.01504758453350686
-0.005549932840043526,-0.01514632520677035
-0.005549592840043526,-0.0147184489559611
-0.005549252840043525,-0.01425765914739869
-0.005548912840043526,-0.01501467097575212
-0.005548572840043526,-0.01692365732551643
-0.005548232840043525,-0.01685783021001163
-0.005547892840043526,-0.01922760636833543
-0.005547552840043526,-0.02100493848708151
-0.005547212840043525,-0.02103785204483553
-0.005546872840043526,-0.02074163002504506
-0.005546532840043526,-0.02005044531219936
-0.005546192840043525,-0.01794397761590417
-0.005545852840043526,-0.01600207770838883
-0.005545512840043526,-0.01652869463246175
-0.005545172840043525,-0.01468553539820781
-0.005544832840043526,-0.01537672011105225
-0.005544492840043526,-0.0170223979987801
-0.005544152840043525,-0.01903012502180671
-0.005543812840043526,-0.01827311319345327
-0.005543472840043526,-0.02133407406462708
-0.005543132840043525,-0.02495456541761454
-0.005542792840043526,-0.01735153357632568
-0.005542452840043526,-0.01689074376776187
-0.005542112840043526,-0.01471844895596506
-0.005541772840043526,-0.01300694395272414
-0.005541432840043526,-0.01636412684368896
-0.005541092840043526,-0.01652869463246145
-0.005540752840043526,-0.007806601827504114
-0.005540412840043526,-0.01494884386024301
-0.005540072840043526,-0.01583750991961443
-0.005539732840043526,-0.01382978289658807
-0.005539392840043526,-0.01478427607147022
-0.005539052840043526,-0.01666034886347656
-0.005538712840043526,-0.01504758453350668
-0.005538372840043526,-0.01573876924635238
-0.005538032840043526,-0.01833894030895766
-0.005537692840043526,-0.01692365732551643
-0.005537352840043526,-0.01695657088327099
-0.005537012840043526,-0.01784523694264242
-0.005536672840043525,-0.0170223979987801
-0.005536332840043526,-0.01633121328593441
-0.005535992840043526,-0.01735153357632382
-0.005535652840043525,-0.01731862001857112
-0.005535312840043526,-0.01626538617042529
-0.005534972840043526,-0.01715405222979671
-0.005534632840043525,-0.01771358271162581
-0.005534292840043526,-0.01781232338488947
-0.005533952840043526,-0.01847059453997942
-0.005533612840043525,-0.01797689117366226
-0.005533272840043526,-0.0179439776159077
-0.005532932840043526,-0.02307849262561861
-0.005532592840043525,-0.01939217415710821
-0.005532252840043526,-0.0161008183816525
-0.005531912840043526,-0.01567294213084326
-0.005531572840043525,-0.01570585568859782
-0.005531232840043526,-0.02166320964217266
-0.005530892840043526,-0.02130116050687253
-0.005530552840043525,-0.01873390300201707
-0.005530212840043526,-0.01873390300201707
-0.005529872840043526,-0.01912886569507176
-0.005529532840043525,-0.02037958088974128
-0.005529192840043526,-0.01837185386671695
-0.005528852840043526,-0.01689074376776187
-0.005528512840043525,-0.01837185386671474
-0.005528172840043526,-0.01715405222979833
-0.005527832840043526,-0.01623247261267073
-0.005527492840043525,-0.01593625059287936
-0.005527152840043526,-0.01573876924635238
-0.005526812840043526,-0.01478427607147022
-0.005526472840043525,-0.01557420145758031
-0.005526132840043526,-0.01596916415063428
-0.005525792840043526,-0.01455388116718832
-0.005525452840043525,-0.01550837434207215
-0.005525112840043526,-0.01642995395919808
-0.005524772840043526,-0.0158704234773706
-0.005524432840043525,-0.01550837434207203
-0.005524092840043526,-0.01636412684368896
-0.005523752840043526,-0.01675908953674365
-0.005523412840043525,-0.02090619781383592
-0.005523072840043526,-0.03084609225569409
-0.005522732840043526,-0.04717121690195441
-0.005522392840043525,-0.06718266001676632
-0.005522052840043526,-0.08982718775186044
-0.005521712840043526,-0.1202393151170712
-0.005521372840043525,-0.1494336408454246
-0.005521032840043526,-0.1831042104282753
-0.005520692840043526,-0.2134505106779769
-0.005520352840043526,-0.2342518791788192
-0.005520012840043526,-0.2529138664256909
-0.005519672840043526,-0.2669350420291322
-0.005519332840043526,-0.2732873586757502
-0.005518992840043526,-0.2767761957977448
-0.005518652840043526,-0.2744064196394167
-0.005518312840043526,-0.2695022995339966
-0.005517972840043526,-0.263610772695922
-0.005517632840043526,-0.2567976662407286
-0.005517292840043526,-0.2487009310331223
-0.005516952840043526,-0.2421840465977053
-0.005516612840043526,-0.2346468418719117
-0.005516272840043526,-0.225200650796371
-0.005515932840043525,-0.2177292731860694
-0.005515592840043526,-0.2108174260576124
-0.005515252840043526,-0.2020295061371616
-0.005514912840043525,-0.1946897827578794
-0.005514572840043526,-0.1878766763026861
-0.005514232840043526,-0.1808002613854691
-0.005513892840043525,-0.1736580193527174
-0.005513552840043526,-0.1679968874189336
-0.005513212840043526,-0.1624344961584235
-0.005512872840043525,-0.1564113150893295
-0.005512532840043526,-0.1550289456636381
-0.005512192840043526,-0.1512768000796186
-0.005511852840043525,-0.1397899684232781
-0.005511512840043526,-0.1337667873541942
-0.005511172840043526,-0.1310020485028114
-0.005510832840043525,-0.1296525926348745
-0.005510492840043526,-0.123892720027827
-0.005510152840043526,-0.1182315880940432
-0.005509812840043525,-0.1165859102063154
-0.005509472840043526,-0.115499762800415
-0.005509132840043526,-0.1125046290447503
-0.005508792840043525,-0.1093120139425441
-0.005508452840043526,-0.1015444143124828
-0.005508112840043526,-0.1038812769130563
-0.005507772840043525,-0.1006886618108509
-0.005507432840043526,-0.09331602487384347
-0.005507092840043526,-0.09157160631285194
-0.005506752840043525,-0.08877395390370921
-0.005506412840043526,-0.08581173370580447
-0.005506072840043526,-0.08465975918439497
-0.005505732840043525,-0.07603640705269323
-0.005505392840043526,-0.07175764454460856
-0.005505052840043526,-0.07771499849818342
-0.005504712840043525,-0.07550979012861682
-0.005504372840043526,-0.06932204127077135
-0.005504032840043526,-0.06849920232690743
-0.005503692840043525,-0.06797258540282979
-0.005503352840043526,-0.06537241434022451
-0.005503012840043526,-0.06362799577923298
-0.005502672840043525,-0.06241019414230878
-0.005502332840043526,-0.05934923327114055
-0.005501992840043526,-0.05878970278931308
-0.005501652840043525,-0.05674906220852676
-0.005501312840043526,-0.05467550806999343
-0.005500972840043526,-0.05372101489511128
-0.005500632840043525,-0.05223990479615872
-0.005500292840043526,-0.0536222742218476
-0.005499952840043526,-0.04977138796456442
-0.005499612840043526,-0.05069296758169035
-0.005499272840043526,-0.04700664911318164
-0.005498932840043526,-0.04651294574686327
-0.005498592840043526,-0.0450647492056654
-0.005498252840043526,-0.04411025603078061
-0.005497912840043526,-0.04262914593182553
-0.005497572840043526,-0.04108220871736416
-0.005497232840043526,-0.03976566640717907
-0.005496892840043526,-0.03328169552953131
-0.005496552840043526,-0.04160882564141911
-0.005496212840043526,-0.03943653082963349
-0.005495872840043526,-0.0348286327439955
-0.005495532840043526,-0.03413744803115105
-0.005495192840043525,-0.03311712774075853
-0.005494852840043526,-0.03657305130498702
-0.005494512840043526,-0.03904156813657432
-0.005494172840043525,-0.03709966822905994
-0.005493832840043526,-0.03601352082315955
-0.005493492840043526,-0.03726423601783045
-0.005493152840043525,-0.03683635976702349
-0.005492812840043526,-0.0339070531268679
-0.005492472840043526,-0.0339399666846224
-0.005492132840043525,-0.03354500399156777
-0.005491792840043526,-0.03101066004446688
-0.005491452840043526,-0.03025364821611344
-0.005491112840043525,-0.0306815244669213
-0.005490772840043526,-0.03028656177386662
-0.005490432840043526,-0.03038530244713029
-0.005490092840043525,-0.03012199398509383
-0.005489752840043526,-0.02903584657919345
-0.005489412840043526,-0.02686355176739268
-0.005489072840043525,-0.02732434157595648
-0.005488732840043526,-0.02528370099517394
-0.005488392840043526,-0.02544826878394672
-0.005488052840043525,-0.02406589935825059
-0.005487712840043526,-0.02146572829564531
-0.005487372840043526,-0.02166320964217266
-0.005487032840043525,-0.02163029608441768
-0.005486692840043526,-0.0213999011801362
-0.005486352840043526,-0.02350636887642785
-0.005486012840043525,-0.0254153552261845
-0.005485672840043526,-0.02120241983360886
-0.005485332840043526,-0.01965548261914467
-0.005484992840043525,-0.02064288935179007
-0.005484652840043526,-0.02541535522619216
-0.005484312840043526,-0.02893710590592977
-0.005483972840043525,-0.02712686022942932
-0.005483632840043526,-0.02722560090269281
-0.005483292840043526,-0.02561283657271951
-0.005482952840043525,-0.02669898397862109
-0.005482612840043526,-0.02735725513371103
-0.005482272840043526,-0.02689646532514724
-0.005481932840043525,-0.02636984840107534
-0.005481592840043526,-0.02692937888290179
-0.005481252840043526,-0.02729142801820192
-0.005480912840043525,-0.02607362638128103
-0.005480572840043526,-0.02482291118661014
-0.005480232840043526,-0.02199234521971823
-0.005479892840043525,-0.02057706223627275
-0.005479552840043526,-0.02084037069830873
-0.005479212840043526,-0.01926051992608999
-0.005478872840043526,-0.01807563184692809
-0.005478532840043526,-0.01745027424958934
-0.005478192840043526,-0.01820728607794416
-0.005477852840043526,-0.01679200309450078
-0.005477512840043526,-0.01619955905491618
-0.005477172840043526,-0.01606790482389795
-0.005476832840043526,-0.01432348626290959
-0.005476492840043526,-0.01521215232227946
-0.005476152840043526,-0.01833894030896239
-0.005475812840043526,-0.01883264367527985
-0.005475472840043526,-0.01379686933883351
-0.005475132840043526,-0.01511341164901579
-0.005474792840043526,-0.01369812866557241
-0.005474452840043526,-0.01633121328593441
-0.005474112840043526,-0.02074163002504506
-0.005473772840043526,-0.01685783021001439
-0.005473432840043525,-0.01642995395919808
-0.005473092840043526,-0.01883264367528074
-0.005472752840043526,-0.01764775559611885
-0.005472412840043525,-0.017252792903062
-0.005472072840043526,-0.01856933521324429
-0.005471732840043526,-0.0185035080977353
-0.005471392840043525,-0.01656160819021631
-0.005471052840043526,-0.0170223979987801
-0.005470712840043526,-0.01718696578755259
-0.005470372840043525,-0.01718696578755289
-0.005470032840043526,-0.01675908953674365
-0.005469692840043526,-0.01698948444102555
-0.005469352840043525,-0.01689074376776187
-0.005469012840043526,-0.01768066915387125
-0.005468672840043526,-0.01761484203836213
-0.005468332840043525,-0.01728570646081656
-0.005467992840043526,-0.01847059453998062
-0.005467652840043526,-0.019556741945881
-0.005467312840043525,-0.01968839617689923
-0.005466972840043526,-0.01952382838812644
-0.005466632840043526,-0.02031375377423581
-0.005466292840043525,-0.01830602675121238
-0.005465952840043526,-0.02080745714055417
-0.005465612840043526,-0.02268352993256393
-0.005465272840043525,-0.01442222693616901
-0.005464932840043526,-0.01382978289658807
-0.005464592840043526,-0.01307277106823325
-0.005464252840043525,-0.01382978289659471
-0.005463912840043526,-0.0174831878073439
-0.005463572840043526,-0.01787815050039859
-0.005463232840043525,-0.01557420145758276
-0.005462892840043526,-0.01731862001857112
-0.005462552840043526,-0.01988587752342657
-0.005462212840043525,-0.02087328425606383
-0.005461872840043526,-0.0211695062758543
-0.005461532840043526,-0.02159738252666354
-0.005461192840043525,-0.02281518416357491
-0.005460852840043526,-0.01883264367528074
-0.005460512840043526,-0.02064288935178139
-0.005460172840043525,-0.0210049384870793
-0.005459832840043526,-0.0197871368501629
-0.005459492840043526,-0.02005044531219936
-0.005459152840043525,-0.0209720249293245
-0.005458812840043526,-0.01962256906139011
-0.005458472840043526,-0.01991879108118113
-0.005458132840043525,-0.02176195031543034
-0.005457792840043526,-0.01847059453998062
-0.005457452840043526,-0.01870098944426252
-0.005457112840043526,-0.01942508771486146
-0.005456772840043526,-0.01781232338488947
-0.005456432840043526,-0.0186351623287534
-0.005456092840043526,-0.01824019963569943
-0.005455752840043526,-0.01922760636833543
-0.005455412840043526,-0.02156446896890898
-0.005455072840043526,-0.015409633668818
-0.005454732840043526,-0.01175622875805097
-0.005454392840043526,-0.01057134067888691
-0.005454052840043526,-0.01208536433559378
-0.005453712840043526,-0.01652869463246175
-0.005453372840043526,-0.01504758453350668
-0.005453032840043526,-0.01333607953027282
-0.005452692840043525,-0.01550837434207047
-0.005452352840043526,-0.01873390300201707
-0.005452012840043526,-0.01837185386671761
-0.005451672840043525,-0.01847059453998062
-0.005451332840043526,-0.01754901492285302
-0.005450992840043526,-0.01702239799878106
-0.005450652840043525,-0.01833894030896239
-0.005450312840043526,-0.0174831878073439
-0.005449972840043526,-0.01899721146405078
-0.005449632840043525,-0.02021501310097214
-0.005449292840043526,-0.01939217415710821
-0.005448952840043526,-0.02037958088974313
-0.005448612840043525,-0.02192651810420911
-0.005448272840043526,-0.02110367916034518
-0.005447932840043526,-0.02018209954321758
-0.005447592840043525,-0.02133407406462708
-0.005447252840043526,-0.01942508771486277
-0.005446912840043526,-0.01879973011752619
-0.005446572840043525,-0.0190959521373172
-0.005446232840043526,-0.01850350809773518
-0.005445892840043526,-0.01738444713408023
-0.005445552840043525,-0.01580459636187047
-0.005445212840043526,-0.02074163002504506
-0.005444872840043526,-0.01564002857308871
-0.005444532840043525,-0.01333607953027714
-0.005444192840043526,-0.01741736069183479
-0.005443852840043526,-0.01893138434854442
-0.005443512840043525,-0.01754901492285493
-0.005443172840043526,-0.01860224877099884
-0.005442832840043526,-0.0179439776159077
-0.005442492840043525,-0.01623247261267229
-0.005442152840043526,-0.01708822511428922
-0.005441812840043526,-0.01557420145757959
-0.005441472840043525,-0.01504758453350901
-0.005441132840043526,-0.01633121328593441
-0.005440792840043526,-0.01600207770838883
-0.005440452840043525,-0.01685783021001151
-0.005440112840043526,-0.01916177925282632
-0.005439772840043526,-0.01962256906139011
-0.005439432840043525,-0.01926051992609274
-0.005439092840043526,-0.02077454358279961
-0.005438752840043526,-0.02166320964217266
-0.005438412840043525,-0.01939217415710528
-0.005438072840043526,-0.01777940982713492
-0.005437732840043526,-0.01669326242123453
-0.005437392840043525,-0.01346773376129734
-0.005437052840043526,-0.0186351623287534
-0.005436712840043526,-0.01929343348384455
-0.005436372840043526,-0.01570585568860435
-0.005436032840043526,-0.01501467097575212
-0.005435692840043526,-0.01685783021000732
-0.005435352840043526,-0.01606790482389939
-0.005435012840043526,-0.01642995395919808
-0.005434672840043526,-0.01830602675120783
-0.005434332840043526,-0.01840476742447132
-0.005433992840043526,-0.02087328425606329
-0.005433652840043526,-0.02133407406462708
-0.005433312840043526,-0.02051123512076465
-0.005432972840043526,-0.02107076560259063
-0.005432632840043526,-0.01972130973465379
-0.005432292840043526,-0.02051123512076172
-0.005431952840043526,-0.01768066915387125
-0.005431612840043526,-0.01810854540468049
-0.005431272840043526,-0.01626538617042864
-0.005430932840043525,-0.01573876924635238
-0.005430592840043526,-0.01554128789982503
-0.005430252840043526,-0.01402726424311816
-0.005429912840043525,-0.01320442529925148
-0.005429572840043526,-0.01369812866556984
-0.005429232840043526,-0.01402726424311481
-0.005428892840043525,-0.01317151174149692
-0.005428552840043526,-0.01754901492285302
-0.005428212840043526,-0.01903012502180539
-0.005427872840043525,-0.01307277106823325
-0.005427532840043526,-0.01429057270515186
-0.005427192840043526,-0.01452096760943376
-0.005426852840043525,-0.01659452174797086
-0.005426512840043526,-0.01856933521324429
-0.005426172840043526,-0.01662743530572542
-0.005425832840043525,-0.01629829972817985
-0.005425492840043526,-0.01870098944426252
-0.005425152840043526,-0.01889847079078986
-0.005424812840043525,-0.01879973011752619
-0.005424472840043526,-0.02123533339136342
-0.005424132840043526,-0.02199234521971823
-0.005423792840043525,-0.02074163002504596
-0.005423452840043526,-0.02123533339136342
-0.005423112840043526,-0.02182777743094544
-0.005422772840043525,-0.019820050407915
-0.005422432840043526,-0.01847059453998062
-0.005422092840043526,-0.01873390300201707
-0.005421752840043525,-0.01840476742446941
-0.005421412840043526,-0.017252792903062
-0.005421072840043526,-0.01820728607794416
-0.005420732840043525,-0.01751610136509852
-0.005420392840043526,-0.01754901492285302
-0.005420052840043526,-0.01824019963569871
-0.005419712840043525,-0.01718696578755229
-0.005419372840043526,-0.01685783021000732
-0.005419032840043526,-0.01718696578755289
-0.005418692840043525,-0.01708822511429065
-0.005418352840043526,-0.01787815050039859
-0.005418012840043526,-0.02126824694911797
-0.005417672840043525,-0.01478427607146812
-0.005417332840043526,-0.01363230155006072
-0.005416992840043526,-0.01126252539173261
-0.005416652840043525,-0.01340190664578397
-0.005416312840043526,-0.01623247261267073
-0.005415972840043526,-0.01534380655329769
-0.005415632840043525,-0.01399435068536306
