Analysis/files/cmb03_d2s01/wrd05_ch20.csv

#Digilent WaveForms Oscilloscope Acquisition
#Device Name: ADP3450
#Serial Number: SN:210018B9D9B0
#Date Time: 2024-08-09 15:44:58.552.902.580
#Sample rate: 2.94118e+06Hz
#Samples: 32768
#Trigger: Source: Channel 3 Type: Edge Condition: Rising Level: 20 mV Hyst.: Auto HoldOff: 0 s
#Channel 3: Range: 200 mV/div Offset: 0 V Attenuation: 1 X Coupling: DC Bandwidth: 0 Hz Sample Mode: Average

Time (s),Channel 3 (V)
-0.005570480528455285,0.002458531134428029
-0.005570140528455284,0.003709246329104252
-0.005569800528455284,0.005387837774583611
-0.005569460528455285,0.00574988690988374
-0.005569120528455284,0.006934774989046838
-0.005568780528455284,0.006408158064974882
-0.005568440528455285,0.005322010659074497
-0.005568100528455284,0.005289097101322514
-0.005567760528455284,0.006704380084765896
-0.005567420528455285,0.004630825946228797
-0.005567080528455284,0.002952234500747403
-0.005566740528455284,0.003511764982573856
-0.005566400528455285,0.001207815939754859
-0.005566060528455284,-0.003334255030372046
-0.005565720528455284,-0.002248107624473638
-0.005565380528455285,0.003972554791137656
-0.005565040528455284,-0.0005695161789838613
-0.005564700528455284,0.003478851424819299
-0.005564360528455285,0.004235863253174112
-0.005564020528455284,-0.00428874820525552
-0.005563680528455284,-0.00392669906995605
-0.005563340528455285,-0.001359441565100596
-0.005563000528455285,-0.003729217723424397
-0.005562660528455284,-0.004552056667292635
-0.005562320528455285,-0.004486229551783521
-0.005561980528455285,-0.003926699069957068
-0.005561640528455284,-0.003630477050165036
-0.005561300528455285,-0.003597563492410479
-0.005560960528455285,-0.003597563492410479
-0.005560620528455284,-0.003103860126092122
-0.005560280528455285,-0.002116453393455409
-0.005559940528455285,-0.003663390607916779
-0.005559600528455284,-0.003827958396692379
-0.005559260528455285,-0.002972205895073894
-0.005558920528455285,-0.003893785512199817
-0.005558580528455284,-0.005144500706874663
-0.005558240528455285,-0.005572376957683906
-0.005557900528455285,-0.006888919267863795
-0.005557560528455284,-0.006230648112775047
-0.005557220528455285,-0.005934426092984033
-0.005556880528455285,-0.007547190422954399
-0.005556540528455284,-0.006954746383375304
-0.005556200528455285,-0.004716624456065421
-0.005555860528455285,-0.006362302343790283
-0.005555520528455284,-0.008962473406403288
-0.005555180528455285,-0.01245131052838634
-0.005554840528455285,-0.005440722726678429
-0.005554500528455284,-0.008633337828857716
-0.005554160528455285,-0.008929559848648731
-0.005553820528455285,-0.004255834647501621
-0.005553480528455284,-0.008271288693557588
-0.005553140528455285,-0.01113476821820406
-0.005552800528455285,-0.007152227729902647
-0.005552460528455284,-0.007942153116012016
-0.005552120528455285,-0.009127041195176074
-0.005551780528455285,-0.009291608983948858
-0.005551440528455284,-0.009653658119247311
-0.005551100528455285,-0.008732078502121389
-0.005550760528455285,-0.008271288693557588
-0.005550420528455284,-0.007810498884994507
-0.005550080528455285,-0.008205461578048474
-0.005549740528455285,-0.006263561670529605
-0.005549400528455284,-0.008402942924573062
-0.005549060528455284,-0.00688891926786619
-0.005548720528455285,-0.005901512535229476
-0.005548380528455284,-0.007152227729904204
-0.005548040528455284,-0.008007980231521132
-0.005547700528455285,-0.007645931096221003
-0.005547360528455284,-0.007942153116013333
-0.005547020528455284,-0.008666251386612273
-0.005546680528455285,-0.007152227729902647
-0.005546340528455284,-0.008402942924576835
-0.005546000528455284,-0.008962473406403288
-0.005545660528455285,-0.008271288693557588
-0.005545320528455284,-0.008139634462546542
-0.005544980528455284,-0.01208926139308621
-0.005544640528455285,-0.01577557986159661
-0.005544300528455284,-0.007152227729904802
-0.005543960528455284,-0.008337115809066702
-0.005543620528455285,-0.01185886648880431
-0.005543280528455284,-0.0106739784096372
-0.005542940528455284,-0.008995386964157845
-0.005542600528455285,-0.009554917445985316
-0.005542260528455285,-0.009028300521913359
-0.005541920528455284,-0.009225781868439744
-0.005541580528455285,-0.008732078502121389
-0.005541240528455285,-0.007678844653977476
-0.005540900528455284,-0.006757265036847961
-0.005540560528455285,-0.006592697248075176
-0.005540220528455285,-0.006164820997266712
-0.005539880528455284,-0.005967339650738591
-0.005539540528455285,-0.006428129459302391
-0.005539200528455285,-0.005934426092984931
-0.005538860528455284,-0.004782451571574535
-0.005538520528455285,-0.008106720904784802
-0.005538180528455285,-0.0069547463833774
-0.005537840528455284,-0.008435856482330374
-0.005537500528455285,-0.008271288693557588
-0.005537160528455285,-0.007580103980713146
-0.005536820528455284,-0.006921832825620747
-0.005536480528455285,-0.009192868310685188
-0.005536140528455285,-0.006823092152361387
-0.005535800528455284,-0.006362302343793276
-0.005535460528455285,-0.007843412442748346
-0.005535120528455285,-0.003630477050172699
-0.005534780528455284,-0.006329388786038719
-0.005534440528455285,-0.008271288693557588
-0.005534100528455285,-0.007218054845413677
-0.005533760528455284,-0.003959612627710607
-0.005533420528455285,-0.01060815129413114
-0.005533080528455285,-0.01195760716206798
-0.005532740528455284,-0.008896646290894173
-0.005532400528455285,-0.01050941062086747
-0.005532060528455285,-0.01291210033695014
-0.005531720528455284,-0.01208926139308621
-0.005531380528455285,-0.01241839697063178
-0.005531040528455285,-0.01350454437653217
-0.005530700528455284,-0.01185886648880431
-0.005530360528455285,-0.01185886648880431
-0.005530020528455285,-0.01192469360431343
-0.005529680528455284,-0.01100311398718625
-0.005529340528455285,-0.01123350889146773
-0.005529000528455285,-0.01162847158452241
-0.005528660528455284,-0.01077271908290483
-0.005528320528455285,-0.01126642244922228
-0.005527980528455285,-0.009752398792512659
-0.005527640528455284,-0.008534597155593147
-0.005527300528455284,-0.008040893789275689
-0.005526960528455285,-0.008666251386612273
-0.005526620528455284,-0.008468770040084032
-0.005526280528455284,-0.007975066673766575
-0.005525940528455285,-0.009324522541703417
-0.005525600528455284,-0.009094127637421994
-0.005525260528455284,-0.009357436099457973
-0.005524920528455285,-0.01057523773637659
-0.005524580528455284,-0.01485400024445913
-0.005524240528455284,-0.009423263214967087
-0.005523900528455285,-0.008106720904784802
-0.005523560528455284,-0.01251713764388809
-0.005523220528455284,-0.008468770040084931
-0.005522880528455285,-0.01449195110916888
-0.005522540528455284,-0.02133797112213023
-0.005522200528455284,-0.02874352161689211
-0.005521860528455285,-0.04552943607171624
-0.005521520528455284,-0.06985255525238471
-0.005521180528455284,-0.09776325222819837
-0.005520840528455285,-0.1293931812303278
-0.005520500528455285,-0.1570734833018599
-0.005520160528455284,-0.1860374141259205
-0.005519820528455285,-0.2195434159200597
-0.005519480528455285,-0.2415954996155728
-0.005519140528455284,-0.2534772939650081
-0.005518800528455285,-0.2635817561956571
-0.005518460528455285,-0.2688808389941311
-0.005518120528455284,-0.2688479254363862
-0.005517780528455285,-0.2658857052384761
-0.005517440528455285,-0.2628247443673078
-0.005517100528455284,-0.2568015632982183
-0.005516760528455285,-0.2486060874173336
-0.005516420528455285,-0.2423195978862246
-0.005516080528455284,-0.2337949864277829
-0.005515740528455285,-0.224941239391807
-0.005515400528455285,-0.2159229245670748
-0.005515060528455284,-0.2090110774386014
-0.005514720528455285,-0.2000585897293619
-0.005514380528455285,-0.1930480019276539
-0.005514040528455284,-0.1881438818222122
-0.005513700528455285,-0.1797180110370456
-0.005513360528455285,-0.1756367298754879
-0.005513020528455284,-0.1709959182320879
-0.005512680528455285,-0.1643473795656674
-0.005512340528455285,-0.1585545934008653
-0.005512000528455284,-0.1536175597376818
-0.005511660528455285,-0.1478576871306343
-0.005511320528455285,-0.1453233431835334
-0.005510980528455284,-0.1403204824048407
-0.005510640528455285,-0.1269904915142451
-0.005510300528455285,-0.1270563186297542
-0.005509960528455284,-0.1201773850590518
-0.005509620528455285,-0.113693414181404
-0.005509280528455285,-0.1152074378381136
-0.005508940528455284,-0.109645046577583
-0.005508600528455285,-0.1039180875283005
-0.005508260528455285,-0.1002317690597901
-0.005507920528455284,-0.09944184367367515
-0.005507580528455285,-0.09634796924475242
-0.005507240528455285,-0.09443898289498809
-0.005506900528455284,-0.0937807117398908
-0.005506560528455284,-0.09039061529117756
-0.005506220528455285,-0.08719800018898552
-0.005505880528455284,-0.08479531047290155
-0.005505540528455284,-0.0840712122023026
-0.005505200528455285,-0.07998993104073754
-0.005504860528455284,-0.07643526680324171
-0.005504520528455284,-0.07442753978021738
-0.005504180528455285,-0.07166280092883456
-0.005503840528455284,-0.06787774178705806
-0.005503500528455284,-0.06652828591912366
-0.005503160528455285,-0.0635989792789681
-0.005502820528455284,-0.06139377090940971
-0.005502480528455284,-0.05971517946393035
-0.005502140528455285,-0.05668713215051109
-0.005501800528455284,-0.05392239329912638
-0.005501460528455284,-0.05286915945098247
-0.005501120528455285,-0.05142096290978196
-0.005500780528455284,-0.05148679002529376
-0.005500440528455284,-0.05296790012424614
-0.005500100528455285,-0.04329131414440635
-0.005499760528455285,-0.04365336327970582
-0.005499420528455284,-0.04105319221709647
-0.005499080528455285,-0.03598450432289467
-0.005498740528455285,-0.03980247702241635
-0.005498400528455284,-0.04036200750425076
-0.005498060528455285,-0.03707065172879506
-0.005497720528455285,-0.03581993653412417
-0.005497380528455284,-0.0377289228838862
-0.005497040528455285,-0.03809097201918633
-0.005496700528455285,-0.03479961624373661
-0.005496360528455284,-0.03420717220414859
-0.005496020528455285,-0.0340426044153758
-0.005495680528455285,-0.03239692652765094
-0.005495340528455284,-0.03127786556399301
-0.005495000528455285,-0.03091581642869288
-0.005494660528455285,-0.02838147248159659
-0.005494320528455284,-0.02801942334629185
-0.005493980528455285,-0.02874352161689211
-0.005493640528455285,-0.02755863353773021
-0.005493300528455284,-0.02917139786770135
-0.005492960528455285,-0.0295992741185106
-0.005492620528455285,-0.02989549613830107
-0.005492280528455284,-0.0282169046928192
-0.005491940528455285,-0.03167282825704769
-0.005491600528455285,-0.02992840969605934
-0.005491260528455284,-0.02867769450138299
-0.005490920528455285,-0.02805233690404641
-0.005490580528455285,-0.02696618949814603
-0.005490240528455284,-0.02795359623078274
-0.005489900528455285,-0.0275257199799735
-0.005489560528455285,-0.01883654073277042
-0.005489220528455284,-0.0203834779472346
-0.005488880528455285,-0.01798078823115194
-0.005488540528455285,-0.007547190422957332
-0.005488200528455284,-0.0207126135247797
-0.005487860528455285,-0.02044930506274372
-0.005487520528455285,-0.01659841880546054
-0.005487180528455284,-0.01725668996055228
-0.005486840528455285,-0.01758582553809725
-0.005486500528455285,-0.01886945429052498
-0.005486160528455284,-0.01748708486483394
-0.005485820528455284,-0.01768456621136092
-0.005485480528455285,-0.01903402207929776
-0.005485140528455284,-0.01900110852154147
-0.005484800528455284,-0.01804661534666105
-0.005484460528455285,-0.01972520679214346
-0.005484120528455284,-0.01936315765684124
-0.005483780528455284,-0.01821118313543383
-0.005483440528455285,-0.01844157803971573
-0.005483100528455284,-0.01840866448195968
-0.005482760528455284,-0.01758582553809725
-0.005482420528455285,-0.01778330688462459
-0.005482080528455284,-0.01860614582848624
-0.005481740528455284,-0.01735543063381535
-0.005481400528455285,-0.01768456621136092
-0.005481060528455284,-0.0169604679407548
-0.005480720528455284,-0.01373493928081407
-0.005480380528455285,-0.01442612399365977
-0.005480040528455284,-0.01412990197387091
-0.005479700528455284,-0.01531479005303281
-0.005479360528455285,-0.01686172726749699
-0.005479020528455285,-0.01067397840965151
-0.005478680528455284,-0.01281335966368647
-0.005478340528455285,-0.01080563264065849
-0.005478000528455285,-0.006888919267873314
-0.005477660528455284,-0.01097020042943127
-0.005477320528455285,-0.01419572908937787
-0.005476980528455285,-0.01202343427758105
-0.005476640528455284,-0.01172721225778608
-0.005476300528455285,-0.01189178004655887
-0.005475960528455285,-0.01353745793428373
-0.005475620528455284,-0.01350454437653217
-0.005475280528455285,-0.01310958168347748
-0.005474940528455285,-0.01330706303000447
-0.005474600528455284,-0.01330706303000483
-0.005474260528455285,-0.01238548341287723
-0.005473920528455285,-0.01333997658775765
-0.005473580528455284,-0.01337289014551394
-0.005473240528455285,-0.01103602754494038
-0.005472900528455285,-0.01077271908290441
-0.005472560528455284,-0.01185886648880431
-0.005472220528455285,-0.009884053023530886
-0.005471880528455285,-0.009390349657213429
-0.005471540528455284,-0.01004862081230367
-0.005471200528455285,-0.00767884465397556
-0.005470860528455285,-0.008172548020293019
-0.005470520528455284,-0.009258695426194301
-0.005470180528455285,-0.008402942924575817
-0.005469840528455285,-0.008962473406403288
-0.005469500528455284,-0.01149681735350419
-0.005469160528455285,-0.01241839697063178
-0.005468820528455285,-0.01495274091773268
-0.005468480528455284,-0.01215508850859533
-0.005468140528455285,-0.008271288693557588
-0.005467800528455285,-0.01195760716206798
-0.005467460528455284,-0.008732078502121389
-0.005467120528455285,-0.009159954752930631
-0.005466780528455285,-0.01482108668671445
-0.005466440528455284,-0.01406407485835635
-0.005466100528455285,-0.012253829181859
-0.005465760528455285,-0.01152973091125874
-0.005465420528455284,-0.01185886648880443
-0.005465080528455285,-0.01192469360431343
-0.005464740528455285,-0.01031192927434013
-0.005464400528455284,-0.01027901571658617
-0.005464060528455284,-0.01060815129413114
-0.005463720528455285,-0.009324522541703417
-0.005463380528455284,-0.0101473614855689
-0.005463040528455284,-0.01100311398718583
-0.005462700528455285,-0.0113322495647314
-0.005462360528455284,-0.01123350889147234
-0.005462020528455284,-0.01376785283856862
-0.005461680528455285,-0.01274753254817735
-0.005461340528455284,-0.01360328504979859
-0.005461000528455284,-0.01511730870650547
-0.005460660528455285,-0.01426155620488698
-0.005460320528455284,-0.01357037149204284
-0.005459980528455284,-0.01442612399365977
-0.005459640528455285,-0.0136361986075504
-0.005459300528455284,-0.01100311398718463
-0.005458960528455284,-0.01034484283209469
-0.005458620528455285,-0.009851139465776329
-0.005458280528455284,-0.01120059533370401
-0.005457940528455284,-0.006164820997265934
-0.005457600528455285,-0.00313677368384668
-0.005457260528455285,-0.006757265036841376
-0.005456920528455284,-0.003992526185465165
-0.005456580528455285,-0.006493956574811504
-0.005456240528455285,-0.01162847158451307
-0.005455900528455284,-0.01083854619841304
-0.005455560528455285,-0.009489090330476201
-0.005455220528455285,-0.01060815129412911
-0.005454880528455284,-0.01090437331392216
-0.005454540528455285,-0.01185886648880431
-0.005454200528455285,-0.01146390379575035
-0.005453860528455284,-0.01143099023799507
-0.005453520528455285,-0.01149681735350419
-0.005453180528455285,-0.01169429870003117
-0.005452840528455284,-0.01067397840964026
-0.005452500528455285,-0.009127041195176074
-0.005452160528455285,-0.008271288693559144
-0.005451820528455284,-0.007415536191939104
-0.005451480528455285,-0.009258695426194301
-0.005451140528455285,-0.009061214079667318
-0.005450800528455284,-0.008633337828857716
-0.005450460528455285,-0.01284627322144103
-0.005450120528455285,-0.01169429870003362
-0.005449780528455284,-0.01136516312248596
-0.005449440528455285,-0.0106410648518857
-0.005449100528455285,-0.01113476821820316
-0.005448760528455284,-0.009061214079666959
-0.005448420528455285,-0.009225781868439744
-0.005448080528455285,-0.009785312350267215
-0.005447740528455284,-0.009423263214967087
-0.005447400528455285,-0.01212217495084077
-0.005447060528455285,-0.004222921089747064
-0.005446720528455284,-0.006362302343793276
-0.005446380528455285,-0.005111587149120106
-0.005446040528455285,-0.001096133103064139
-0.005445700528455284,-0.007250968403168473
-0.005445360528455285,-0.008435856482330374
-0.005445020528455285,-0.006691437921338847
-0.005444680528455284,-0.006066080324005435
-0.005444340528455285,-0.007810498884993789
-0.005444000528455285,-0.00860042427110316
-0.005443660528455284,-0.00896247340640203
-0.005443320528455284,-0.008271288693557588
-0.005442980528455285,-0.007975066673766575
-0.005442640528455284,-0.007942153116003695
-0.005442300528455284,-0.00336716858812858
-0.005441960528455285,-0.008501683597839487
-0.005441620528455284,-0.01205634783533172
-0.005441280528455284,-0.01208926139308621
-0.005440940528455285,-0.01482108668671445
-0.005440600528455284,-0.01607180188138589
-0.005440260528455284,-0.01511730870650547
-0.005439920528455285,-0.01551227139956015
-0.005439580528455284,-0.0150514815909939
-0.005439240528455284,-0.01370202572305951
-0.005438900528455285,-0.01264879187491368
-0.005438560528455284,-0.01166138514227398
-0.005438220528455284,-0.01001570725454911
-0.005437880528455285,-0.008238375135803031
-0.005437540528455284,-0.009785312350268353
-0.005437200528455284,-0.0104106699476038
-0.005436860528455285,-0.0136361986075504
-0.005436520528455285,-0.005967339650752541
-0.005436180528455284,-0.009653658119248986
-0.005435840528455285,-0.008666251386612273
-0.005435500528455285,-0.005704031188707522
-0.005435160528455284,-0.01083854619841304
-0.005434820528455285,-0.0111018546604495
-0.005434480528455285,-0.008205461578053743
-0.005434140528455284,-0.007283881960920875
-0.005433800528455285,-0.008534597155594046
-0.005433460528455285,-0.0078763260005041
-0.005433120528455284,-0.007645931096221003
-0.005432780528455285,-0.006296475228284162
-0.005432440528455285,-0.008040893789272516
-0.005432100528455284,-0.01001570725454911
-0.005431760528455285,-0.009456176772721644
-0.005431420528455285,-0.01212217495083592
-0.005431080528455284,-0.01241839697063178
-0.005430740528455285,-0.01301084101021381
-0.005430400528455285,-0.01245131052838736
-0.005430060528455284,-0.0127146189904228
-0.005429720528455285,-0.01093728687167671
-0.005429380528455285,-0.01044358350535926
-0.005429040528455284,-0.01189178004655887
-0.005428700528455285,-0.00962074456149443
-0.005428360528455285,-0.008863732733140993
-0.005428020528455284,-0.01008153437005823
-0.005427680528455285,-0.01031192927434013
-0.005427340528455285,-0.00962074456149443
-0.005427000528455284,-0.01090437331392216
-0.005426660528455285,-0.0113322495647314
-0.005426320528455285,-0.01459069178243255
-0.005425980528455284,-0.01034484283209469
-0.005425640528455285,-0.008666251386612273
-0.005425300528455285,-0.01047649706311291
-0.005424960528455284,-0.006000253208493148
-0.005424620528455285,-0.01011444792781279
-0.005424280528455285,-0.01478817312895989
-0.005423940528455284,-0.01001570725454816
-0.005423600528455285,-0.009489090330476201
-0.005423260528455285,-0.01034484283209469
-0.005422920528455284,-0.01136516312248787
-0.005422580528455285,-0.01241839697063178
-0.005422240528455285,-0.01320832235674115
-0.005421900528455284,-0.01531479005303407
-0.005421560528455284,-0.01600597476587851
-0.005421220528455285,-0.01541353072629648
-0.005420880528455284,-0.01449195110916936
-0.005420540528455284,-0.01475525957120534
-0.005420200528455285,-0.0136361986075504
-0.005419860528455284,-0.01258296475940601
-0.005419520528455284,-0.01337289014551394
-0.005419180528455285,-0.01120059533371317
-0.005418840528455284,-0.01070689196739523
-0.005418500528455284,-0.01093728687167671
-0.005418160528455285,-0.01113476821820406
-0.005417820528455284,-0.009752398792511462
-0.005417480528455284,-0.009094127637421515
-0.005417140528455285,-0.01097020042943127
-0.005416800528455284,-0.00968657167700486
