Analysis/files/cmb03_d2s01/wrd05_ch37.csv

#Digilent WaveForms Oscilloscope Acquisition
#Device Name: ADP3450
#Serial Number: SN:210018B9D9B0
#Date Time: 2024-08-09 15:52:56.087.436.840
#Sample rate: 2.94118e+06Hz
#Samples: 32768
#Trigger: Source: Channel 3 Type: Edge Condition: Rising Level: 20 mV Hyst.: Auto HoldOff: 0 s
#Channel 3: Range: 200 mV/div Offset: 0 V Attenuation: 1 X Coupling: DC Bandwidth: 0 Hz Sample Mode: Average

Time (s),Channel 3 (V)
-0.005570340072072072,0.009008329127584893
-0.005570000072072072,0.00943620537839234
-0.005569660072072072,0.008448798645757422
-0.005569320072072072,0.007658873259648051
-0.005568980072072072,0.008745020665548197
-0.005568640072072072,0.008613366434530208
-0.005568300072072072,0.008086749510457293
-0.005567960072072072,0.00877793422330473
-0.005567620072072072,0.00973242739818515
-0.005567280072072072,0.008350057972493751
-0.005566940072072072,0.007889268163922526
-0.005566600072072072,0.00380798700236487
-0.005566260072072072,0.01114771038163111
-0.005565920072072072,0.01187180865222993
-0.005565580072072072,0.01108188326612199
-0.005565240072072072,0.007428478355366152
-0.005564900072072072,0.001833173537094916
-0.005564560072072072,0.003742159886855756
-0.005564220072072072,0.002721839596464486
-0.005563880072072072,0.001207815939750428
-0.005563540072072072,-0.001227787334082367
-0.005563200072072072,-0.002017712720191738
-0.005562860072072072,0.0007470261311860299
-0.005562520072072072,-0.0006024297367457822
-0.005562180072072072,-0.003005119452828451
-0.005561840072072072,-0.002906378779564959
-0.005561500072072072,-0.0003391212747093254
-0.005561160072072072,-0.001260700891836924
-0.005560820072072072,-0.00237976185548983
-0.005560480072072072,-0.001392355122855153
-0.005560140072072072,-0.0008657381987822392
-0.005559800072072072,-0.0004707755057282723
-0.005559460072072072,-0.0003062077169547683
-0.005559120072072072,-0.001129046660818696
-0.005558780072072072,-0.00214936695120811
-0.005558440072072072,-0.0005695161789912252
-0.005558100072072072,-0.001820231373664395
-0.005557760072072072,-0.003992526185461214
-0.005557420072072072,-0.004222921089747064
-0.005557080072072072,-0.003235514357110351
-0.005556740072072072,-0.003400082145882837
-0.005556400072072072,-0.008007980231521132
-0.005556060072072072,-0.007547190422957332
-0.005555720072072072,-0.001688577142656823
-0.005555380072072072,5.584141834535986e-05
-0.005555040072072072,-0.0003062077169547683
-0.005554700072072072,-0.003465909261386503
-0.005554360072072072,-0.005736944746456691
-0.005554020072072072,-0.0008986517565367963
-0.005553680072072072,-0.001359441565100596
-0.005553340072072072,-0.003762131281183265
-0.005553000072072072,-0.003202600799355794
-0.005552660072072072,-0.003301341472619465
-0.005552320072072072,-0.003762131281183265
-0.005551980072072072,-0.00415709397423795
-0.005551640072072072,-0.00369630416567415
-0.005551300072072072,-0.005177414264626407
-0.005550960072072072,-0.003630477050165036
-0.005550620072072072,-0.004683710898310864
-0.005550280072072072,-0.005572376957683606
-0.005549940072072072,-0.00540780916891112
-0.005549600072072072,-0.006329388786038719
-0.005549260072072072,-0.006757265036850296
-0.005548920072072072,-0.008040893789275689
-0.005548580072072072,-0.00837002936682126
-0.005548240072072072,-0.00978531235026542
-0.005547900072072072,-0.008797905617630502
-0.005547560072072072,-0.006362302343793276
-0.005547220072072072,-0.00781049888499361
-0.005546880072072072,-0.007711758211730118
-0.005546540072072072,-0.005276154937892892
-0.005546200072072072,-0.006197734555028632
-0.005545860072072072,-0.01067397840964026
-0.005545520072072072,-0.009949880139040001
-0.005545180072072072,-0.00461788378280133
-0.005544840072072072,-0.00438748887851985
-0.005544500072072072,-0.00267598387528288
-0.005544160072072072,-0.00619773455502522
-0.005543820072072072,-0.008797905617630502
-0.005543480072072072,-0.004815365129329092
-0.005543140072072072,-0.004255834647506291
-0.005542800072072072,-0.006823092152357076
-0.005542460072072072,-0.004782451571574535
-0.005542120072072072,-0.005473636284418977
-0.005541780072072072,-0.005440722726665677
-0.005541440072072072,-0.00688891926786619
-0.005541100072072072,-0.007514276865201638
-0.005540760072072072,-0.009423263214967087
-0.005540420072072072,-0.009094127637421515
-0.005540080072072072,-0.009357436099457495
-0.005539740072072072,-0.01044358350535836
-0.005539400072072072,-0.00869916494436683
-0.005539060072072072,-0.006658524363588002
-0.005538720072072072,-0.006757265036847961
-0.005538380072072072,-0.00586859897747492
-0.005538040072072072,-0.003795044838941593
-0.005537700072072072,-0.003531736376901365
-0.005537360072072072,-0.003235514357110351
-0.005537020072072072,-0.002149366951211942
-0.005536680072072072,-0.002807638106301108
-0.005536340072072072,-0.004190007531992507
-0.005536000072072072,-0.005078673591363932
-0.005535660072072072,-0.006098993881756819
-0.005535320072072072,-0.01080563264065849
-0.005534980072072072,-0.003696304165687082
-0.005534640072072072,-0.003235514357110351
-0.005534300072072072,-0.003235514357110351
-0.005533960072072072,-0.003432995703637334
-0.005533620072072072,-0.008337115809066702
-0.005533280072072072,-0.007744671769484675
-0.005532940072072072,-0.004453315994028964
-0.005532600072072072,-0.005704031188702134
-0.005532260072072072,-0.007020573498884419
-0.005531920072072072,-0.005934426092984033
-0.005531580072072072,-0.004782451571574535
-0.005531240072072072,-0.005736944746456691
-0.005530900072072072,-0.005934426092984033
-0.005530560072072072,-0.004749538013819977
-0.005530220072072072,-0.005473636284420234
-0.005529880072072072,-0.006000253208493148
-0.005529540072072072,-0.005144500706879572
-0.005529200072072072,-0.007843412442748346
-0.005528860072072072,-0.008863732733139616
-0.005528520072072072,-0.005111587149122022
-0.005528180072072072,-0.006164820997265934
-0.005527840072072072,-0.007020573498884419
-0.005527500072072072,-0.005111587149121243
-0.005527160072072072,-0.005736944746456691
-0.005526820072072072,-0.006823092152357076
-0.005526480072072072,-0.006987659941130579
-0.005526140072072072,-0.007382622634184546
-0.005525800072072072,-0.00837002936682126
-0.005525460072072072,-0.00688891926785661
-0.005525120072072072,-0.001622750027137053
-0.005524780072072072,-0.01508439514875091
-0.005524440072072072,-0.005407809168909144
-0.005524100072072072,-0.004321661763010735
-0.005523760072072072,-0.01031192927434013
-0.005523420072072072,-0.009094127637420138
-0.005523080072072072,-0.008337115809066702
-0.005522740072072072,-0.01192469360431343
-0.005522400072072072,-0.01896819496380697
-0.005522060072072072,-0.02903974363668312
-0.005521720072072072,-0.04773464444127156
-0.005521380072072072,-0.07172862804439434
-0.005521040072072072,-0.09957349790469899
-0.005520700072072072,-0.1316313031576376
-0.005520360072072072,-0.1639524168725539
-0.005520020072072072,-0.193212569716414
-0.005519680072072072,-0.2205308226526964
-0.005519340072072072,-0.242615819905964
-0.005519000072072072,-0.2561762057008817
-0.005518660072072072,-0.2664452357203035
-0.005518320072072072,-0.272764638809167
-0.005517980072072072,-0.2709873066904324
-0.005517640072072072,-0.2669389390866219
-0.005517300072072072,-0.2641083731197352
-0.005516960072072072,-0.2570977853180093
-0.005516620072072072,-0.2486719145328427
-0.005516280072072072,-0.2414309318268533
-0.005515940072072072,-0.2329063203684099
-0.005515600072072072,-0.2250070665073161
-0.005515260072072072,-0.2187864040917162
-0.005514920072072072,-0.210821323115102
-0.005514580072072072,-0.2046335742572453
-0.005514240072072072,-0.1945949391421236
-0.005513900072072072,-0.1889996343238307
-0.005513560072072072,-0.1806066770964186
-0.005513220072072072,-0.1753075942979445
-0.005512880072072072,-0.1741556197765254
-0.005512540072072072,-0.165268959182795
-0.005512200072072072,-0.1595090865757475
-0.005511860072072072,-0.1542758308927729
-0.005511520072072072,-0.1475943786685978
-0.005511180072072072,-0.1418345060615503
-0.005510840072072072,-0.1372595215336669
-0.005510500072072072,-0.1319275251774286
-0.005510160072072072,-0.1270563186297542
-0.005509820072072072,-0.1222838527553434
-0.005509480072072072,-0.1158986225509593
-0.005509140072072072,-0.1113236380230759
-0.005508800072072072,-0.1079664551321005
-0.005508460072072072,-0.1021407554095544
-0.005508120072072072,-0.09871774540308051
-0.005507780072072072,-0.09753285732391094
-0.005507440072072072,-0.09450481001049721
-0.005507100072072072,-0.09016022038689567
-0.005506760072072072,-0.08798792557508893
-0.005506420072072072,-0.08469656979963919
-0.005506080072072072,-0.08186600383274728
-0.005505740072072072,-0.07952914123216875
-0.005505400072072072,-0.0767973159385455
-0.005505060072072072,-0.07386800929838991
-0.005504720072072072,-0.0737034415096228
-0.005504380072072072,-0.07683022949630006
-0.005504040072072072,-0.06909554342397911
-0.005503700072072072,-0.06563961985974678
-0.005503360072072072,-0.06353315216345898
-0.005503020072072072,-0.05981392013719402
-0.005502680072072072,-0.06182164716022176
-0.005502340072072072,-0.06168999292920378
-0.005502000072072072,-0.05609468811092907
-0.005501660072072072,-0.05365908483709172
-0.005501320072072072,-0.05359325772158272
-0.005500980072072072,-0.05049938329265435
-0.005500640072072072,-0.04832708848084479
-0.005500300072072072,-0.04348879549093369
-0.005499960072072072,-0.04213933962299685
-0.005499620072072072,-0.03967082279140956
-0.005499280072072072,-0.03993413125344152
-0.005498940072072072,-0.0384201075967319
-0.005498600072072072,-0.03739978730634248
-0.005498260072072072,-0.03891381096305026
-0.005497920072072072,-0.0361161585539129
-0.005497580072072072,-0.03450339422394254
-0.005497240072072072,-0.0342729993196577
-0.005496900072072072,-0.0333514197025301
-0.005496560072072072,-0.03019171815809837
-0.005496220072072072,-0.03052085373563819
-0.005495880072072072,-0.03032337238911085
-0.005495540072072072,-0.02913848430994895
-0.005495200072072072,-0.03006006392707439
-0.005494860072072072,-0.03015880460033806
-0.005494520072072072,-0.02910557075219415
-0.005494180072072072,-0.03058668085114731
-0.005493840072072072,-0.0354249738410672
-0.005493500072072072,-0.02769028776876035
-0.005493160072072072,-0.02627500478530033
-0.005492820072072072,-0.02588004209224564
-0.005492480072072072,-0.02413562353125729
-0.005492140072072072,-0.02920431142545591
-0.005491800072072072,-0.02907265719443768
-0.005491460072072072,-0.02574838786123346
-0.005491120072072072,-0.02331278458739018
-0.005490780072072072,-0.0222266371814898
-0.005490440072072072,-0.02064678640927106
-0.005490100072072072,-0.01956063900337068
-0.005489760072072072,-0.01933024409908878
-0.005489420072072072,-0.02002142881193448
-0.005489080072072072,-0.01916567631031599
-0.005488740072072072,-0.02094300842906207
-0.005488400072072072,-0.01998851525417992
-0.005488060072072072,-0.01732251707606067
-0.005487720072072072,-0.01725668996055168
-0.005487380072072072,-0.01643385101668775
-0.005487040072072072,-0.01511730870650295
-0.005486700072072072,-0.01373493928081407
-0.005486360072072072,-0.01491982735997812
-0.005486020072072072,-0.01373493928081365
-0.005485680072072072,-0.01350454437653217
-0.005485340072072072,-0.01429446976264154
-0.005485000072072072,-0.01327414947225015
-0.005484660072072072,-0.01320832235674115
-0.005484320072072072,-0.01399824774285052
-0.005483980072072072,-0.01294501389471003
-0.005483640072072072,-0.01587432053486028
-0.005483300072072072,-0.01633511034342408
-0.005482960072072072,-0.009291608983949038
-0.005482620072072072,-0.00939034965721253
-0.005482280072072072,-0.009785312350267215
-0.005481940072072072,-0.0137678528385712
-0.005481600072072072,-0.01518313582201458
-0.005481260072072072,-0.01231965629736811
-0.005480920072072072,-0.01103602754494146
-0.005480580072072072,-0.01162847158452241
-0.005480240072072072,-0.01324123591449571
-0.005479900072072072,-0.01327414947224967
-0.005479560072072072,-0.0129450138947047
-0.005479220072072072,-0.01373493928081407
-0.005478880072072072,-0.01363619860755058
-0.005478540072072072,-0.01192469360431343
-0.005478200072072072,-0.00494701936034732
-0.005477860072072072,-0.0122867427396002
-0.005477520072072072,-0.01060815129413114
-0.005477180072072072,-0.009884053023530886
-0.005476840072072072,-0.009456176772722423
-0.005476500072072072,-0.008337115809066702
-0.005476160072072072,-0.00869916494436683
-0.005475820072072072,-0.009390349657211272
-0.005475480072072072,-0.009061214079666959
-0.005475140072072072,-0.008501683597839487
-0.005474800072072072,-0.01113476821819927
-0.005474460072072072,-0.01004862081230367
-0.005474120072072072,-0.0108714597561676
-0.005473780072072072,-0.01185886648880252
-0.005473440072072072,-0.01212217495084077
-0.005473100072072072,-0.01521604937976914
-0.005472760072072072,-0.01228674273961888
-0.005472420072072072,-0.008007980231521132
-0.005472080072072072,-0.00517741426462922
-0.005471740072072072,-0.002906378779568911
-0.005471400072072072,-0.007316795518675433
-0.005471060072072072,-0.006263561670529605
-0.005470720072072072,-0.002708897433043903
-0.005470380072072072,-0.002643070317528323
-0.005470040072072072,-0.005802771861965805
-0.005469700072072072,-0.006954746383375304
-0.005469360072072072,-0.006790178594602518
-0.005469020072072072,-0.005901512535229476
-0.005468680072072072,-0.006823092152357076
-0.005468340072072072,-0.009159954752930631
-0.005468000072072072,-0.008007980231521132
-0.005467660072072072,-0.007810498884993789
-0.005467320072072072,-0.007942153116012016
-0.005466980072072072,-0.008172548020293918
-0.005466640072072072,-0.00767884465397556
-0.005466300072072072,-0.008007980231519515
-0.005465960072072072,-0.00711931417214809
-0.005465620072072072,-0.006691437921338847
-0.005465280072072072,-0.009653658119247311
-0.005464940072072072,-0.008732078502121389
-0.005464600072072072,-0.008040893789275689
-0.005464260072072072,-0.007810498884994807
-0.005463920072072072,-0.00837002936682126
-0.005463580072072072,-0.007547190422957332
-0.005463240072072072,-0.007119314172148629
-0.005462900072072072,-0.007415536191939104
-0.005462560072072072,-0.008995386964157845
-0.005462220072072072,-0.005736944746452978
-0.005461880072072072,-0.00369630416567415
-0.005461540072072072,-0.001688577142646167
-0.005461200072072072,-0.002643070317537243
-0.005460860072072072,-0.007547190422957332
-0.005460520072072072,-0.008238375135803031
-0.005460180072072072,-0.006033166766248303
-0.005459840072072072,-0.006362302343793276
-0.005459500072072072,-0.006526870132566062
-0.005459160072072072,-0.006395215901546456
-0.005458820072072072,-0.005638204073193019
-0.005458480072072072,-0.005638204073193019
-0.005458140072072072,-0.005506549842177665
-0.005457800072072072,-0.007086400614393532
-0.005457460072072072,-0.006164820997265934
-0.005457120072072072,-0.005210327822385514
-0.005456780072072072,-0.005078673591365549
-0.005456440072072072,-0.004848278687083649
-0.005456100072072072,-0.00340008214588577
-0.005455760072072072,-0.003070946568337565
-0.005455420072072072,-0.001984799162437181
-0.005455080072072072,-0.000503689063484805
-0.005454740072072072,-0.002017712720191738
-0.005454400072072072,-0.002544329644264652
-0.005454060072072072,-0.001886058489174707
-0.005453720072072072,-0.002149366951209966
-0.005453380072072072,-0.004979932918101878
-0.005453040072072072,-0.002972205895077546
-0.005452700072072072,-0.003465909261392251
-0.005452360072072072,-0.008501683597839487
-0.005452020072072072,-0.009653658119246891
-0.005451680072072072,-0.004222921089747064
-0.005451340072072072,-0.00540780916891112
-0.005451000072072072,-0.005835685419719584
-0.005450660072072072,-0.007481363307448217
-0.005450320072072072,-0.01024610215883101
-0.005449980072072072,-0.007481363307453246
-0.005449640072072072,-0.004749538013819977
-0.005449300072072072,-0.006625610805829733
-0.005448960072072072,-0.005572376957685822
-0.005448620072072072,-0.005671117630947577
-0.005448280072072072,-0.005539463399929348
-0.005447940072072072,-0.00665852436358429
-0.005447600072072072,-0.006066080324002262
-0.005447260072072072,-0.00688891926786619
-0.005446920072072072,-0.008304202251312145
-0.005446580072072072,-0.006724351479093405
-0.005446240072072072,-0.008205461578048474
-0.005445900072072072,-0.008172548020293918
-0.005445560072072072,-0.007481363307447978
-0.005445220072072072,-0.007349709076429989
-0.005444880072072072,-0.00869916494436683
-0.005444540072072072,-0.00764593109622256
-0.005444200072072072,-0.008501683597839487
-0.005443860072072072,-0.008040893789275689
-0.005443520072072072,-0.004584970225049109
-0.005443180072072072,-0.005638204073193019
-0.005442840072072072,-0.006954746383375304
-0.005442500072072072,-0.006987659941129681
-0.005442160072072072,-0.00688891926786619
-0.005441820072072072,-0.0106410648518857
-0.005441480072072072,-0.01449195110915679
-0.005441140072072072,-0.007843412442748346
-0.005440800072072072,-0.007547190422957332
-0.005440460072072072,-0.005901512535230974
-0.005440120072072072,-0.006724351479093405
-0.005439780072072072,-0.01067397840964026
-0.005439440072072072,-0.008205461578043746
-0.005439100072072072,-0.005605290515438462
-0.005438760072072072,-0.007316795518675433
-0.005438420072072072,-0.008468770040083734
-0.005438080072072072,-0.007810498884993789
-0.005437740072072072,-0.008567510713348603
-0.005437400072072072,-0.01067397840963625
-0.005437060072072072,-0.008468770040084931
-0.005436720072072072,-0.00837002936682126
-0.005436380072072072,-0.009653658119246651
-0.005436040072072072,-0.00790923955825746
-0.005435700072072072,-0.007349709076429989
-0.005435360072072072,-0.007086400614394011
-0.005435020072072072,-0.007415536191939104
-0.005434680072072072,-0.004881192244838206
-0.005434340072072072,-0.006823092152353544
-0.005434000072072072,-0.004486229551783521
-0.005433660072072072,-0.003169687241601236
-0.005433320072072072,-0.004584970225044618
-0.005432980072072072,-0.003432995703637694
-0.005432640072072072,-0.00438748887851985
-0.005432300072072072,-0.006098993881753706
-0.005431960072072072,-0.007382622634184546
-0.005431620072072072,-0.005309068495647449
-0.005431280072072072,-0.008370029366815692
-0.005430940072072072,-0.009225781868439744
-0.005430600072072072,-0.005539463399929348
-0.005430260072072072,-0.005012846475857392
-0.005429920072072072,-0.00415709397423795
-0.005429580072072072,-0.008337115809066702
-0.005429240072072072,-0.008534597155593687
-0.005428900072072072,-0.007744671769484675
-0.005428560072072072,-0.007218054845411761
-0.005428220072072072,-0.008797905617627628
-0.005427880072072072,-0.009291608983948858
-0.005427540072072072,-0.008534597155594046
-0.005427200072072072,-0.008567510713348603
-0.005426860072072072,-0.00790923955825746
-0.005426520072072072,-0.005901512535229476
-0.005426180072072072,-0.005638204073193019
-0.005425840072072072,-0.006757265036847961
-0.005425500072072072,-0.00540780916891112
-0.005425160072072072,-0.005111587149120106
-0.005424820072072072,-0.006033166766247705
-0.005424480072072072,-0.005572376957683906
-0.005424140072072072,-0.00517741426462922
-0.005423800072072072,-0.006493956574812103
-0.005423460072072072,-0.006823092152357076
-0.005423120072072072,-0.007283881960920875
-0.005422780072072072,-0.01018027504332118
-0.005422440072072072,-0.009785312350267215
-0.005422100072072072,-0.007448449749693661
-0.005421760072072072,-0.007843412442745772
-0.005421420072072072,-0.006428129459302391
-0.005421080072072072,-0.006559783690320619
-0.005420740072072072,-0.009719485234749421
-0.005420400072072072,-0.00494701936034732
-0.005420060072072072,-0.003992526185465165
-0.005419720072072072,-0.003795044838941174
-0.005419380072072072,-0.005638204073193019
-0.005419040072072072,-0.01031192927434013
-0.005418700072072072,-0.01156264446901138
-0.005418360072072072,-0.01050941062086747
-0.005418020072072072,-0.009489090330476201
-0.005417680072072072,-0.00906121407966606
-0.005417340072072072,-0.008567510713348603
