Analysis/files/cmb03_d2s01/wrd03_ch00.csv

#Digilent WaveForms Oscilloscope Acquisition
#Device Name: ADP3450
#Serial Number: SN:210018B9D9B0
#Date Time: 2024-08-09 12:36:15.110.928.220
#Sample rate: 2.94118e+06Hz
#Samples: 32768
#Trigger: Source: Channel 3 Type: Edge Condition: Rising Level: 20 mV Hyst.: Auto HoldOff: 0 s
#Channel 3: Range: 200 mV/div Offset: 0 V Attenuation: 1 X Coupling: DC Bandwidth: 0 Hz Sample Mode: Average

Time (s),Channel 3 (V)
-0.005570326678899083,0.01305669673139542
-0.005569986678899083,0.01318835096241131
-0.005569646678899083,0.01190472220998592
-0.005569306678899083,0.01615057116032378
-0.005568966678899083,0.008679193550038183
-0.005568626678899083,0.008053835952702737
-0.005568286678899083,0.007625959701893495
-0.005567946678899083,0.007724700375158663
-0.005567606678899083,0.008547539319021094
-0.005567266678899083,0.007527219028629823
-0.005566926678899083,0.008086749510458371
-0.005566586678899083,0.008679193550039321
-0.005566246678899083,0.008942502012075779
-0.005565906678899083,0.008876674896566725
-0.005565566678899083,0.008909588454321223
-0.005565226678899083,0.007955095279439066
-0.005564886678899083,0.006144849602939502
-0.005564546678899083,0.006737293642520453
-0.005564206678899083,0.004499171715210569
-0.005563866678899083,0.004532085272958959
-0.005563526678899083,0.001141988824245744
-0.005563186678899083,0.008317144414739193
-0.005562846678899083,0.005190356428061956
-0.005562506678899083,0.007296824124347924
-0.005562166678899083,0.007395564797611595
-0.005561826678899083,0.001339470170784104
-0.005561486678899083,0.003314283636046514
-0.005561146678899083,0.002096481999127901
-0.005560806678899083,0.0001216685338580664
-0.005560466678899083,0.00176734642158233
-0.005560126678899083,0.002688926038709928
-0.005559786678899083,0.001899000652601995
-0.005559446678899083,0.002590185365446257
-0.005559106678899083,0.005025788639283483
-0.005558766678899083,0.003972554791139572
-0.005558426678899083,0.004202949695419555
-0.005558086678899083,0.0030180616162555
-0.005557746678899083,0.001635692190566615
-0.005557406678899083,0.001109075266491187
-0.005557066678899083,0.001141988824245744
-0.005556726678899083,-0.0005036890634791175
-0.005556386678899083,-0.002116453393455409
-0.005556046678899083,-0.001063219545309582
-0.005555706678899083,-0.002577243202016455
-0.005555366678899083,-0.003235514357110351
-0.005555026678899083,-0.002313934739982752
-0.005554686678899083,-0.002873465221809205
-0.005554346678899083,-0.003103860126092122
-0.005554006678899083,-0.002544329644264652
-0.005553666678899083,-0.001853144931418952
-0.005553326678899083,-0.004881192244838206
-0.005552986678899083,-0.001556922911627938
-0.005552646678899083,0.003050975174010056
-0.005552306678899083,0.002359790461164357
-0.005551966678899083,0.00380798700236487
-0.005551626678899083,-0.001096133103064139
-0.005551286678899083,-0.003827958396685494
-0.005550946678899083,-4.289925491831147e-05
-0.005550606678899083,-7.581281267286857e-05
-0.005550266678899083,-0.001688577142646047
-0.005549926678899083,-0.001622750027137053
-0.005549586678899083,-0.0007011704100094536
-0.005549246678899083,-0.002313934739984907
-0.005548906678899083,-0.003498822819146808
-0.005548566678899083,-0.003597563492410479
-0.005548226678899083,-0.004354575320768285
-0.005547886678899083,-0.006000253208493148
-0.005547546678899083,-0.005045760033610991
-0.005547206678899083,-0.005769858304210829
-0.005546866678899083,-0.005539463399929348
-0.005546526678899083,-0.003663390607919593
-0.005546186678899083,-0.003465909261395065
-0.005545846678899083,-0.005012846475856435
-0.005545506678899083,-0.003268427914864908
-0.005545166678899083,-0.002445588971002776
-0.005544826678899083,-0.003432995703637694
-0.005544486678899083,-0.002116453393455409
-0.005544146678899083,-0.00175440425815582
-0.005543806678899083,-0.002050626277946295
-0.005543466678899083,-0.001129046660818696
-0.005543126678899083,-0.002215194066727283
-0.005542786678899083,-0.006724351479093405
-0.005542446678899083,-0.001030305987555025
-0.005542106678899083,-0.0003062077169560854
-0.005541766678899083,-0.000832824641027682
-0.005541426678899083,0.0002533227648727025
-0.005541086678899083,-0.004584970225038391
-0.005540746678899083,-0.005473636284420234
-0.005540406678899083,-0.00392669906995605
-0.005540066678899083,-0.003663390607920072
-0.005539726678899083,-0.005572376957683906
-0.005539386678899083,-0.005506549842174791
-0.005539046678899083,-0.003959612627713421
-0.005538706678899083,-0.005111587149120106
-0.005538366678899083,-0.005078673591365549
-0.005538026678899083,-0.003432995703640687
-0.005537686678899083,-0.002544329644264652
-0.005537346678899083,-0.00290637877956478
-0.005537006678899083,-0.002017712720193354
-0.005536666678899083,-0.0007011704100094536
-0.005536326678899083,-0.001326528007346039
-0.005535986678899083,-0.0005036890634836077
-0.005535646678899083,-0.001096133103064139
-0.005535306678899083,-0.001754404258155281
-0.005534966678899083,-0.001458182238364806
-0.005534626678899083,0.001833173537091444
-0.005534286678899083,8.875497609991696e-05
-0.005533946678899083,-0.0009315653142894975
-0.005533606678899083,-0.0008986517565367963
-0.005533266678899083,-0.002939292337319337
-0.005532926678899083,-0.003597563492410479
-0.005532586678899083,-0.006098993881756819
-0.005532246678899083,-0.01100311398718583
-0.005531906678899083,-0.004617883782801749
-0.005531566678899083,-0.002610156759773766
-0.005531226678899083,-0.002215194066719081
-0.005530886678899083,-0.004255834647501621
-0.005530546678899083,-0.006921832825620747
-0.005530206678899083,-0.006000253208493148
-0.005529866678899083,-0.004025439743219721
-0.005529526678899083,-0.00458497022504803
-0.005529186678899083,-0.005045760033610991
-0.005528846678899083,-0.006625610805829733
-0.005528506678899083,-0.005243241380139531
-0.005528166678899083,-0.005901512535229476
-0.005527826678899083,-0.007152227729902647
-0.005527486678899083,-0.00688891926786613
-0.005527146678899083,-0.006856005710111633
-0.005526806678899083,-0.007514276865202775
-0.005526466678899083,-0.006362302343791001
-0.005526126678899083,-0.005111587149120106
-0.005525786678899083,-0.005704031188702134
-0.005525446678899083,0.003511764982563199
-0.005525106678899083,-0.002346848297737309
-0.005524766678899083,-0.003498822819146808
-0.005524426678899083,-0.003465909261391592
-0.005524086678899083,-0.003103860126092122
-0.005523746678899083,-0.003795044838937822
-0.005523406678899083,-0.006263561670528468
-0.005523066678899083,-0.005638204073193019
-0.005522726678899083,-0.008666251386612273
-0.005522386678899083,-0.01426155620491787
-0.005522046678899083,-0.03124495200623845
-0.005521706678899083,-0.04536486828294345
-0.005521366678899083,-0.06758151976732027
-0.005521026678899083,-0.09549221674313393
-0.005520686678899083,-0.1260689118971175
-0.005520346678899083,-0.1629979236976634
-0.005520006678899083,-0.1897237325944309
-0.005519666678899083,-0.2114137671546841
-0.005519326678899083,-0.2293187425731306
-0.005518986678899083,-0.2426158199060042
-0.005518646678899083,-0.2484744331863154
-0.005518306678899083,-0.2497909754964953
-0.005517966678899083,-0.2477174213579605
-0.005517626678899083,-0.2427474741370224
-0.005517286678899083,-0.2394232048038182
-0.005516946678899083,-0.2324784441176006
-0.005516606678899083,-0.224941239391807
-0.005516266678899083,-0.2175686024547996
-0.005515926678899083,-0.2108871502306111
-0.005515586678899083,-0.2015396998283169
-0.005515246678899083,-0.1934758781784651
-0.005514906678899083,-0.1875185242248756
-0.005514566678899083,-0.1802446279611185
-0.005514226678899083,-0.1751430265091714
-0.005513886678899083,-0.1707326097700515
-0.005513546678899083,-0.1640840711036309
-0.005513206678899083,-0.1574355324372225
-0.005512866678899083,-0.1534859055066636
-0.005512526678899083,-0.1470348481867704
-0.005512186678899083,-0.141637024715023
-0.005511846678899083,-0.1378848791310035
-0.005511506678899083,-0.1364695961475575
-0.005511166678899083,-0.1310717726758102
-0.005510826678899083,-0.1224813341018708
-0.005510486678899083,-0.1176101275541963
-0.005510146678899083,-0.1118831685049034
-0.005509806678899083,-0.1147466480295498
-0.005509466678899083,-0.1112248973498122
-0.005509126678899083,-0.1042143095480915
-0.005508786678899083,-0.09950767078918672
-0.005508446678899083,-0.09776325222819837
-0.005508106678899083,-0.09318826770031494
-0.005507766678899083,-0.08854745605691579
-0.005507426678899083,-0.08492696470392108
-0.005507086678899083,-0.08074694286909234
-0.005506746678899083,-0.0793645734433952
-0.005506406678899083,-0.07620487189896347
-0.005506066678899083,-0.07189319583311649
-0.005505726678899083,-0.07005003659886062
-0.005505386678899083,-0.06968798746356114
-0.005505046678899083,-0.06771317399828772
-0.005504706678899083,-0.0654421385132255
-0.005504366678899083,-0.0666599401501419
-0.005504026678899083,-0.06511300293567771
-0.005503686678899083,-0.06313818947040302
-0.005503346678899083,-0.06244700475755859
-0.005503006678899083,-0.05932021677087566
-0.005502666678899083,-0.05652256436173669
-0.005502326678899083,-0.05563389830236527
-0.005501986678899083,-0.05342868993280994
-0.005501646678899083,-0.05135513579427631
-0.005501306678899083,-0.05326412214403715
-0.005500966678899083,-0.05257293743119146
-0.005500626678899083,-0.04473951068560507
-0.005500286678899083,-0.04375210395297015
-0.005499946678899083,-0.04102027865934191
-0.005499606678899083,-0.03976956346467102
-0.005499266678899083,-0.04121776000586926
-0.005498926678899083,-0.03693899749777683
-0.005498586678899083,-0.03295645700948267
-0.005498246678899083,-0.03331850614477554
-0.005497906678899083,-0.03354890104905744
-0.005497566678899083,-0.03134369267950613
-0.005497226678899083,-0.02943470632973781
-0.005496886678899083,-0.02920431142545591
-0.005496546678899083,-0.02765737421099454
-0.005496206678899083,-0.02834855892383742
-0.005495866678899083,-0.02884226229015578
-0.005495526678899083,-0.02703201661365843
-0.005495186678899083,-0.02528759805266361
-0.005494846678899083,-0.0282169046928192
-0.005494506678899083,-0.02604460988102238
-0.005494166678899083,-0.02367483372269031
-0.005493826678899083,-0.02318113035637196
-0.005493486678899083,-0.02219372362373704
-0.005493146678899083,-0.02051513217825283
-0.005492806678899083,-0.02094300842906207
-0.005492466678899083,-0.0194289847723552
-0.005492126678899083,-0.01880362717501586
-0.005491786678899083,-0.02002142881193448
-0.005491446678899083,-0.01998851525417998
-0.005491106678899083,-0.01844157803971573
-0.005490766678899083,-0.02156836602639866
-0.005490426678899083,-0.02143671179538043
-0.005490086678899083,-0.0138665935118323
-0.005489746678899083,-0.01383367995407774
-0.005489406678899083,-0.0127146189904228
-0.005489066678899083,-0.01442612399365977
-0.005488726678899083,-0.01712503572953345
-0.005488386678899083,-0.01472234601345078
-0.005488046678899083,-0.01274753254817837
-0.005487706678899083,-0.01330706303000483
-0.005487366678899083,-0.01419572908937787
-0.005487026678899083,-0.01120059533371305
-0.005486686678899083,-0.01113476821820406
-0.005486346678899083,-0.01182595293104976
-0.005486006678899083,-0.01176012581554034
-0.005485666678899083,-0.01159555802676786
-0.005485326678899083,-0.01255005120165001
-0.005484986678899083,-0.01314249524122809
-0.005484646678899083,-0.01097020042943127
-0.005484306678899083,-0.0111018546604495
-0.005483966678899083,-0.01070689196739314
-0.005483626678899083,-0.009785312350267215
-0.005483286678899083,-0.01123350889146773
-0.005482946678899083,-0.01235256985512141
-0.005482606678899083,-0.01166138514227697
-0.005482266678899083,-0.0124842240861409
-0.005481926678899083,-0.0134387172610106
-0.005481586678899083,-0.006592697248075176
-0.005481246678899083,-0.01060815129413114
-0.005480906678899083,-0.01212217495083975
-0.005480566678899083,-0.0115626444690133
-0.005480226678899083,-0.01195760716206798
-0.005479886678899083,-0.00573694474645238
-0.005479546678899083,-0.00336716858812858
-0.005479206678899083,-0.003005119452828451
-0.005478866678899083,-0.006033166766242196
-0.005478526678899083,-0.008797905617630502
-0.005478186678899083,-0.008666251386612273
-0.005477846678899083,-0.005802771861971014
-0.005477506678899083,-0.006493956574811504
-0.005477166678899083,-0.006098993881756819
-0.005476826678899083,-0.008139634462535647
-0.005476486678899083,-0.007580103980711889
-0.005476146678899083,-0.008402942924575817
-0.005475806678899083,-0.01083854619840861
-0.005475466678899083,-0.01044358350535836
-0.005475126678899083,-0.009982793696794558
-0.005474786678899083,-0.009522003888231597
-0.005474446678899083,-0.00869916494436683
-0.005474106678899083,-0.004782451571574535
-0.005473766678899083,-0.004848278687083529
-0.005473426678899083,-0.004255834647501621
-0.005473086678899083,-0.002346848297737309
-0.005472746678899083,-0.001688577142647364
-0.005472406678899083,-0.001754404258155281
-0.005472066678899083,-0.003005119452828451
-0.005471726678899083,-0.002445588971001998
-0.005471386678899083,-0.004881192244838206
-0.005471046678899083,-0.003827958396692379
-0.005470706678899083,-0.005210327822381263
-0.005470366678899083,-0.006362302343793276
-0.005470026678899083,-0.008435856482330374
-0.005469686678899083,-0.008633337828857716
-0.005469346678899083,-0.00369630416567415
-0.005469006678899083,-0.003762131281183265
-0.005468666678899083,-0.002873465221810222
-0.005468326678899083,-0.005341982053402005
-0.005467986678899083,-0.006954746383375304
-0.005467646678899083,-0.00494701936034732
-0.005467306678899083,-0.005835685419720362
-0.005466966678899083,-0.007481363307448217
-0.005466626678899083,-0.007580103980711889
-0.005466286678899083,-0.008929559848650407
-0.005465946678899083,-0.009851139465776329
-0.005465606678899083,-0.009423263214967087
-0.005465266678899083,-0.009291608983949456
-0.005464926678899083,-0.00962074456149443
-0.005464586678899083,-0.009061214079666959
-0.005464246678899083,-0.008468770040087146
-0.005463906678899083,-0.009686571677003543
-0.005463566678899083,-0.00860042427110316
-0.005463226678899083,-0.006428129459304486
-0.005462886678899083,-0.007580103980711889
-0.005462546678899083,-0.006066080324002262
-0.005462206678899083,-0.005210327822383298
-0.005461866678899083,-0.00494701936034732
-0.005461526678899083,-0.003827958396692379
-0.005461186678899083,-0.001556922911630333
-0.005460846678899083,-0.002873465221810222
-0.005460506678899083,-0.00119487377632781
-0.005460166678899083,-0.0004049483902221515
-0.005459826678899083,-0.00244558897100098
-0.005459486678899083,-0.00688891926786619
-0.005459146678899083,-0.000536602621231639
-0.005458806678899083,0.002228136230146129
-0.005458466678899083,0.00130655661301853
-0.005458126678899083,0.0009115939199537267
-0.005457786678899083,-0.004650797340556306
-0.005457446678899083,-0.004782451571574535
-0.005457106678899083,-0.003795044838939617
-0.005456766678899083,-0.006000253208493148
-0.005456426678899083,-0.006098993881756819
-0.005456086678899083,-0.005276154937894389
-0.005455746678899083,-0.003959612627710607
-0.005455406678899083,-0.005934426092984033
-0.005455066678899083,-0.005309068495648587
-0.005454726678899083,-0.004716624456065421
-0.005454386678899083,-0.005012846475856435
-0.005454046678899083,-0.004486229551784479
-0.005453706678899083,-0.004881192244838206
-0.005453366678899083,-0.005045760033610991
-0.005453026678899083,-0.004914105802593003
-0.005452686678899083,-0.003564649934655922
-0.005452346678899083,-0.004815365129329092
-0.005452006678899083,-0.003992526185466662
-0.005451666678899083,-0.002774724548546551
-0.005451326678899083,-0.003103860126092122
-0.005450986678899083,-0.002906378779565139
-0.005450646678899083,-0.002017712720191738
-0.005450306678899083,-0.002577243202019209
-0.005449966678899083,-0.001984799162438258
-0.005449626678899083,-0.00142526868060971
-0.005449286678899083,-0.001589836469382495
-0.005448946678899083,-0.004124180416478783
-0.005448606678899083,0.004466258157456012
-0.005448266678899083,0.001964827768109672
-0.005447926678899083,-0.004190007531992507
-0.005447586678899083,-0.004650797340556306
-0.005447246678899083,-0.004782451571574535
-0.005446906678899083,-0.007613017538466446
-0.005446566678899083,-0.007777585327239231
-0.005446226678899083,-0.006428129459302391
-0.005445886678899083,-0.008468770040084931
-0.005445546678899083,-0.008139634462537024
-0.005445206678899083,-0.006856005710111633
-0.005444866678899083,-0.007942153116012016
-0.005444526678899083,-0.006493956574809828
-0.005444186678899083,-0.005572376957683906
-0.005443846678899083,-0.00586859897747492
-0.005443506678899083,-0.005605290515436247
-0.005443166678899083,-0.00438748887851985
-0.005442826678899083,-0.005309068495647449
-0.005442486678899083,-0.006197734555017976
-0.005442146678899083,-0.004815365129329092
-0.005441806678899083,-0.006066080324002262
-0.005441466678899083,-0.006296475228281827
-0.005441126678899083,-0.005012846475856435
-0.005440786678899083,-0.005901512535229476
-0.005440446678899083,-0.004881192244832699
-0.005440106678899083,-0.001853144931418952
-0.005439766678899083,-0.002708897433037437
-0.005439426678899083,-0.003202600799354118
-0.005439086678899083,-0.002281021182228195
-0.005438746678899083,-0.003432995703637694
-0.005438406678899083,-0.00451914310953275
-0.005438066678899083,-0.001589836469382495
-0.005437726678899083,0.0002862363226272596
-0.005437386678899083,-0.0009973924297989108
-0.005437046678899083,-0.0001416399281819828
-0.005436706678899083,-0.00494701936034732
-0.005436366678899083,-0.001458182238370613
-0.005436026678899083,0.003906727675628541
-0.005435686678899083,0.0001874956493635883
-0.005435346678899083,-0.005177414264619462
-0.005435006678899083,-0.002281021182228195
-0.005434666678899083,-0.001293614449591481
-0.005434326678899083,-0.003827958396687769
-0.005433986678899083,-0.004025439743219721
-0.005433646678899083,-0.002840551664055666
-0.005433306678899083,-0.002412675413247202
-0.005432966678899083,-0.00336716858812858
-0.005432626678899083,0.0002862363226272596
-0.005432286678899083,-0.0009973924297981326
-0.005431946678899083,-0.002017712720191738
-0.005431606678899083,-0.0007669975255185678
-0.005431266678899083,-0.00109613310306354
-0.005430926678899083,-0.003729217723428708
-0.005430586678899083,-0.0005366026212366681
-0.005430246678899083,-0.0005366026212366681
-0.005429906678899083,-0.003235514357110351
-0.005429566678899083,-0.004782451571574535
-0.005429226678899083,-0.005835685419718446
-0.005428886678899083,-0.007250968403166318
-0.005428546678899083,-0.008139634462539359
-0.005428206678899083,-0.008534597155593328
-0.005427866678899083,-0.00962074456149443
-0.005427526678899083,-0.008468770040084931
-0.005427186678899083,-0.005736944746456691
-0.005426846678899083,-0.008962473406403288
-0.005426506678899083,-0.01031192927434013
-0.005426166678899083,-0.003795044838937822
-0.005425826678899083,-0.003268427914864908
-0.005425486678899083,-0.003235514357110351
-0.005425146678899083,-0.004815365129329092
-0.005424806678899083,-0.01057523773637659
-0.005424466678899083,-0.009423263214967087
-0.005424126678899083,-0.006526870132566062
-0.005423786678899083,-0.008600424271104237
-0.005423446678899083,-0.009192868310685188
-0.005423106678899083,-0.00790923955825746
-0.005422766678899083,-0.005276154937894449
-0.005422426678899083,-0.006131907439511376
-0.005422086678899083,-0.004914105802592763
-0.005421746678899083,-0.003959612627709649
-0.005421406678899083,-0.003432995703637694
-0.005421066678899083,-0.00119487377632781
-0.005420726678899083,-0.0009315653142921317
-0.005420386678899083,-0.001359441565100596
-0.005420046678899083,-0.002478502528755537
-0.005419706678899083,-0.002248107624478607
-0.005419366678899083,-0.004979932918101878
-0.005419026678899083,-0.006757265036847961
-0.005418686678899083,-0.00609899388176089
-0.005418346678899083,-0.008337115809066702
-0.005418006678899083,-0.008238375135803031
-0.005417666678899083,-0.007975066673766875
