Analysis/files/cmb03_d2s01/wrd03_ch18.csv

#Digilent WaveForms Oscilloscope Acquisition
#Device Name: ADP3450
#Serial Number: SN:210018B9D9B0
#Date Time: 2024-08-09 12:43:53.133.889.240
#Sample rate: 2.94118e+06Hz
#Samples: 32768
#Trigger: Source: Channel 3 Type: Edge Condition: Rising Level: 20 mV Hyst.: Auto HoldOff: 0 s
#Channel 3: Range: 200 mV/div Offset: 0 V Attenuation: 1 X Coupling: DC Bandwidth: 0 Hz Sample Mode: Average

Time (s),Channel 3 (V)
-0.005570286355785838,0.01078566124633098
-0.005569946355785838,0.006408158064981348
-0.005569606355785838,0.009962822302467049
-0.005569266355785838,0.013682054328732
-0.005568926355785838,0.01489985596564786
-0.005568586355785838,0.01338583230894099
-0.005568246355785838,0.008942502012075779
-0.005567906355785837,0.009502032493904149
-0.005567566355785838,0.009995735860221606
-0.005567226355785838,0.008481712203511979
-0.005566886355785837,0.006836034315778377
-0.005566546355785838,0.003676332771346642
-0.005566206355785838,0.003149715847273728
-0.005565866355785837,0.00278766671196905
-0.005565526355785838,0.0002862363226272596
-0.005565186355785838,-0.0004707755057275538
-0.005564846355785837,0.0005495447846628783
-0.005564506355785838,8.875497609991696e-05
-0.005564166355785838,-0.0006353432945003394
-0.005563826355785837,0.001405297286291002
-0.005563486355785838,0.006243590276202096
-0.005563146355785838,0.005519492005601839
-0.005562806355785838,0.002919320942996558
-0.005562466355785838,0.003709246329101199
-0.005562126355785838,0.0030180616162555
-0.005561786355785838,0.003972554791135919
-0.005561446355785838,0.003643419213592085
-0.005561106355785838,0.001668605748318658
-0.005560766355785838,0.0009445074777197188
-0.005560426355785838,-0.0001416399281819828
-0.005560086355785838,0.000417890553645488
-0.005559746355785838,-0.002511416086504766
-0.005559406355785838,-0.005835685419720362
-0.005559066355785838,0.000417890553645488
-0.005558726355785838,0.002326876903406328
-0.005558386355785838,-0.00244558897100098
-0.005558046355785838,-0.004782451571574535
-0.005557706355785838,-0.001951885604687773
-0.005557366355785838,-0.001458182238364267
-0.005557026355785838,-0.003070946568337565
-0.005556686355785838,-0.004749538013816924
-0.005556346355785838,-0.003038033010583008
-0.005556006355785838,-0.002939292337319337
-0.005555666355785838,-0.002116453393456906
-0.005555326355785838,-0.0008657381987822392
-0.005554986355785838,-0.00165566358489161
-0.005554646355785838,-0.00188605848917309
-0.005554306355785838,-0.0002403806014456541
-0.005553966355785838,-0.0003062077169547683
-0.005553626355785838,-0.003564649934655922
-0.005553286355785838,-0.003465909261392251
-0.005552946355785838,-0.003070946568337565
-0.005552606355785838,-0.003959612627710607
-0.005552266355785838,-0.004979932918101878
-0.005551926355785838,-0.005144500706874663
-0.005551586355785838,-0.006033166766247705
-0.005551246355785838,-0.003992526185463009
-0.005550906355785838,-0.002807638106301108
-0.005550566355785838,-0.002610156759773766
-0.005550226355785838,-0.002643070317525569
-0.005549886355785838,-0.001129046660818696
-0.005549546355785838,-0.001096133103064139
-0.005549206355785838,-0.002116453393453194
-0.005548866355785838,-0.0008986517565367963
-0.005548526355785838,-0.002281021182228195
-0.005548186355785838,-0.002215194066717404
-0.005547846355785838,-0.001293614449591481
-0.005547506355785838,-0.003070946568337565
-0.005547166355785837,-0.002675983875282401
-0.005546826355785838,-0.002412675413246423
-0.005546486355785838,-0.002149366951209966
-0.005546146355785837,-0.007481363307435944
-0.005545806355785838,-0.0007340839677640107
-0.005545466355785838,-0.001326528007346039
-0.005545126355785837,-0.0001745534859363004
-0.005544786355785838,-4.289925491831147e-05
-0.005544446355785838,-0.005802771861965805
-0.005544106355785837,-0.00570403118869944
-0.005543766355785838,-0.004222921089747064
-0.005543426355785838,-0.004683710898310864
-0.005543086355785837,-0.007645931096221303
-0.005542746355785838,-0.007810498884993789
-0.005542406355785838,-0.005967339650738591
-0.005542066355785838,-0.006559783690319541
-0.005541726355785838,-0.006000253208493148
-0.005541386355785838,-0.004321661763010735
-0.005541046355785838,-0.003169687241603332
-0.005540706355785838,-0.002807638106301108
-0.005540366355785838,-0.002149366951209966
-0.005540026355785838,-0.003729217723425834
-0.005539686355785838,-0.004617883782801749
-0.005539346355785838,-0.005078673591365549
-0.005539006355785838,-0.006658524363581417
-0.005538666355785838,-0.007613017538466446
-0.005538326355785838,-0.007613017538466446
-0.005537986355785838,-0.00626356167053206
-0.005537646355785838,-0.006987659941129861
-0.005537306355785838,-0.005440722726665677
-0.005536966355785838,-0.005473636284420175
-0.005536626355785838,-0.006000253208493148
-0.005536286355785838,-0.006230648112775047
-0.005535946355785838,-0.009620744561488263
-0.005535606355785838,-0.01189178004655887
-0.005535266355785838,-0.006559783690320619
-0.005534926355785838,-0.005572376957685702
-0.005534586355785838,-0.006098993881756819
-0.005534246355785838,-0.008040893789275689
-0.005533906355785838,-0.01083854619840795
-0.005533566355785838,-0.008830819175385059
-0.005533226355785838,-0.007283881960920875
-0.005532886355785838,-0.007250968403166318
-0.005532546355785838,-0.007382622634184546
-0.005532206355785838,-0.007415536191939104
-0.005531866355785838,-0.005144500706874663
-0.005531526355785838,-0.003893785512201493
-0.005531186355785838,-0.004552056667292635
-0.005530846355785838,-0.003498822819146808
-0.005530506355785838,-0.002807638106301108
-0.005530166355785838,-0.004650797340556306
-0.005529826355785838,-0.005572376957683906
-0.005529486355785838,-0.006856005710113609
-0.005529146355785838,-0.007942153116012016
-0.005528806355785838,-0.007481363307448217
-0.005528466355785838,-0.007942153116015788
-0.005528126355785838,-0.01001570725454911
-0.005527786355785838,-0.009982793696794558
-0.005527446355785838,-0.008666251386614069
-0.005527106355785838,-0.009653658119248986
-0.005526766355785838,-0.009982793696794558
-0.005526426355785838,-0.007415536191940362
-0.005526086355785838,-0.008106720904784802
-0.005525746355785838,-0.009094127637421515
-0.005525406355785837,-0.01090437331391012
-0.005525066355785838,-0.004288748205256179
-0.005524726355785838,-0.002840551664055666
-0.005524386355785837,-0.0002403806014483482
-0.005524046355785838,-0.001721490700400724
-0.005523706355785838,-0.008633337828857716
-0.005523366355785837,-0.004749538013819977
-0.005523026355785838,-0.004749538013819977
-0.005522686355785838,-0.01044358350535836
-0.005522346355785837,-0.0175529119803667
-0.005522006355785838,-0.03075124863992009
-0.005521666355785838,-0.0527704187777188
-0.005521326355785837,-0.07656692103432063
-0.005520986355785838,-0.1079335415743565
-0.005520646355785838,-0.1404521366358589
-0.005520306355785838,-0.1668488099549657
-0.005519966355785838,-0.2014409591550533
-0.005519626355785838,-0.2265210901640258
-0.005519286355785838,-0.2443602384669633
-0.005518946355785838,-0.2551229718527359
-0.005518606355785838,-0.262923485040566
-0.005518266355785838,-0.2643716815817638
-0.005517926355785838,-0.2624626952320021
-0.005517586355785838,-0.2594346479185829
-0.005517246355785838,-0.2549584040639713
-0.005516906355785838,-0.2468287552985875
-0.005516566355785838,-0.2411347098070491
-0.005516226355785838,-0.2344203440251317
-0.005515886355785838,-0.2259286461244437
-0.005515546355785838,-0.2184243549564047
-0.005515206355785838,-0.2114466807124513
-0.005514866355785838,-0.2065096470492551
-0.005514526355785838,-0.1932783968319231
-0.005514186355785838,-0.1852145751820713
-0.005513846355785838,-0.1765583094926081
-0.005513506355785838,-0.1697781165951693
-0.005513166355785838,-0.167967870918672
-0.005512826355785838,-0.15894955609392
-0.005512486355785838,-0.1506224259820171
-0.005512146355785838,-0.1476602057841069
-0.005511806355785838,-0.1438422330845783
-0.005511466355785838,-0.1380823604775308
-0.005511126355785838,-0.1347580911443206
-0.005510786355785838,-0.1330465861410836
-0.005510446355785838,-0.1305780693094918
-0.005510106355785838,-0.1262993068013994
-0.005509766355785838,-0.1224484205441162
-0.005509426355785838,-0.1174784733231781
-0.005509086355785838,-0.1143516853364951
-0.005508746355785838,-0.1101387499439003
-0.005508406355785838,-0.1037864332972823
-0.005508066355785838,-0.09986971992449001
-0.005507726355785838,-0.0978949064592094
-0.005507386355785838,-0.09394527952866974
-0.005507046355785838,-0.09233251519869645
-0.005506706355785838,-0.091674244043598
-0.005506366355785838,-0.08765878999754934
-0.005506026355785838,-0.08617767989859426
-0.005505686355785838,-0.08367624950923949
-0.005505346355785838,-0.07903543786585537
-0.005505006355785838,-0.07554660074387232
-0.005504666355785837,-0.07798220401769899
-0.005504326355785838,-0.0721894178529075
-0.005503986355785838,-0.06455347245385024
-0.005503646355785837,-0.06396102841426161
-0.005503306355785838,-0.06034053706126693
-0.005502966355785838,-0.06093298110084896
-0.005502626355785837,-0.06178873360245888
-0.005502286355785838,-0.05708209484356578
-0.005501946355785838,-0.05431735599218298
-0.005501606355785837,-0.05550224407134506
-0.005501266355785838,-0.05441609666544665
-0.005500926355785838,-0.05151970358304563
-0.005500586355785837,-0.05010442059960057
-0.005500246355785838,-0.05059812396591803
-0.005499906355785838,-0.04819543424983536
-0.005499566355785838,-0.04720802751720044
-0.005499226355785838,-0.04707637328618042
-0.005498886355785838,-0.04464077001234319
-0.005498546355785838,-0.04490407847437917
-0.005498206355785838,-0.04315965991338813
-0.005497866355785838,-0.04197477183422407
-0.005497526355785838,-0.03904546519407381
-0.005497186355785838,-0.0398024770224233
-0.005496846355785838,-0.03707065172879506
-0.005496506355785838,-0.03456922133945327
-0.005496166355785838,-0.03499709759025796
-0.005495826355785838,-0.03256149431642073
-0.005495486355785838,-0.03124495200624084
-0.005495146355785838,-0.03075124863992009
-0.005494806355785838,-0.02913848430994679
-0.005494466355785838,-0.02769028776874892
-0.005494126355785838,-0.0328906298939663
-0.005493786355785838,-0.02607752343877298
-0.005493446355785838,-0.02140379823763438
-0.005493106355785838,-0.02183167448843512
-0.005492766355785838,-0.02173293381517144
-0.005492426355785838,-0.02607752343876508
-0.005492086355785838,-0.02647248613182767
-0.005491746355785838,-0.02538633872592728
-0.005491406355785838,-0.02453058622431036
-0.005491066355785838,-0.02515594382164538
-0.005490726355785838,-0.02535342516817273
-0.005490386355785838,-0.0229178218943355
-0.005490046355785838,-0.02321404391412651
-0.005489706355785838,-0.02347735237616297
-0.005489366355785838,-0.02193041516169879
-0.005489026355785838,-0.02110757621783486
-0.005488686355785838,-0.02189750160394423
-0.005488346355785838,-0.02048221862049827
-0.005488006355785838,-0.02025182371621303
-0.005487666355785838,-0.01840866448196118
-0.005487326355785838,-0.01794787467339738
-0.005486986355785838,-0.01663133236321803
-0.005486646355785838,-0.01824409669318839
-0.005486306355785838,-0.01830992380869751
-0.005485966355785838,-0.01663133236321749
-0.005485626355785838,-0.01794787467339738
-0.005485286355785838,-0.01659841880546054
-0.005484946355785838,-0.01696046794075929
-0.005484606355785838,-0.01620345611240585
-0.005484266355785838,-0.01531479005303281
-0.005483926355785838,-0.01748708486483735
-0.005483586355785838,-0.01956063900337068
-0.005483246355785838,-0.01393242062734141
-0.005482906355785837,-0.01241839697063178
-0.005482566355785838,-0.01241839697063178
-0.005482226355785838,-0.01758582553809725
-0.005481886355785837,-0.019692293234381
-0.005481546355785838,-0.01534770361078737
-0.005481206355785838,-0.01462360534018711
-0.005480866355785837,-0.01478817312895983
-0.005480526355785838,-0.01475525957120534
-0.005480186355785838,-0.01488691380222357
-0.005479846355785837,-0.01343871726102287
-0.005479506355785838,-0.01333997658775938
-0.005479166355785838,-0.01330706303000483
-0.005478826355785838,-0.01393242062734027
-0.005478486355785838,-0.01343871726102305
-0.005478146355785838,-0.0140969884161142
-0.005477806355785838,-0.0128133596636888
-0.005477466355785838,-0.009456176772721644
-0.005477126355785838,-0.003860871954446936
-0.005476786355785838,-0.01057523773636437
-0.005476446355785838,-0.007580103980711889
-0.005476106355785838,-0.008007980231521132
-0.005475766355785838,-0.008501683597838589
-0.005475426355785838,-0.007250968403166318
-0.005475086355785838,-0.008238375135803031
-0.005474746355785838,-0.008238375135803031
-0.005474406355785838,-0.007382622634184546
-0.005474066355785838,-0.008468770040084931
-0.005473726355785838,-0.009686571677001328
-0.005473386355785838,-0.01320832235674115
-0.005473046355785838,-0.009522003888230759
-0.005472706355785838,-0.00925869542619478
-0.005472366355785838,-0.006296475228284162
-0.005472026355785838,-0.00540780916891112
-0.005471686355785838,-0.009587831003732269
-0.005471346355785838,-0.008764992059875945
-0.005471006355785838,-0.005736944746456691
-0.005470666355785838,-0.006921832825618592
-0.005470326355785838,-0.007481363307448217
-0.005469986355785838,-0.006131907439511376
-0.005469646355785838,-0.00688891926786619
-0.005469306355785838,-0.007382622634184546
-0.005468966355785838,-0.007185141287657204
-0.005468626355785838,-0.008271288693557588
-0.005468286355785838,-0.008468770040084931
-0.005467946355785838,-0.007975066673766575
-0.005467606355785838,-0.008830819175385059
-0.005467266355785838,-0.01027901571658557
-0.005466926355785838,-0.008501683597839487
-0.005466586355785838,-0.009127041195176074
-0.005466246355785838,-0.01050941062086657
-0.005465906355785838,-0.01001570725454911
-0.005465566355785838,-0.009522003888230759
-0.005465226355785838,-0.007185141287655108
-0.005464886355785838,-0.006033166766247705
-0.005464546355785838,-0.006526870132566062
-0.005464206355785838,-0.007678844653971848
-0.005463866355785838,-0.005638204073193019
-0.005463526355785838,-0.006954746383375304
-0.005463186355785838,-0.01225382918186049
-0.005462846355785838,-0.01307666812572293
-0.005462506355785838,-0.005704031188702134
-0.005462166355785837,-0.007250968403161768
-0.005461826355785838,-0.004749538013819977
-0.005461486355785838,-0.005967339650738591
-0.005461146355785837,-0.008995386964152276
-0.005460806355785838,-0.005934426092984033
-0.005460466355785838,-0.002643070317528323
-0.005460126355785837,-0.004157093974239147
-0.005459786355785838,-0.004815365129329092
-0.005459446355785838,-0.004124180416483393
-0.005459106355785837,-0.004979932918103315
-0.005458766355785838,-0.005769858304211248
-0.005458426355785838,-0.006066080324002262
-0.005458086355785837,-0.007119314172150425
-0.005457746355785838,-0.008402942924575817
-0.005457406355785838,-0.00711931417214809
-0.005457066355785838,-0.007547190422956554
-0.005456726355785838,-0.00939034965721253
-0.005456386355785838,-0.008402942924575817
-0.005456046355785838,-0.006592697248078468
-0.005455706355785838,-0.008238375135803031
-0.005455366355785838,-0.007645931096221003
-0.005455026355785838,-0.007711758211729998
-0.005454686355785838,-0.008929559848648731
-0.005454346355785838,-0.009127041195176074
-0.005454006355785838,-0.01044358350535596
-0.005453666355785838,-0.01307666812572293
-0.005453326355785838,-0.01146390379574963
-0.005452986355785838,-0.009390349657216301
-0.005452646355785838,-0.01383367995407774
-0.005452306355785838,-0.008929559848648731
-0.005451966355785838,-0.004584970225055095
-0.005451626355785838,-0.004025439743219721
-0.005451286355785838,-0.003005119452828451
-0.005450946355785838,-0.007316795518667589
-0.005450606355785838,-0.008797905617630502
-0.005450266355785838,-0.007777585327239231
-0.005449926355785838,-0.006823092152358812
-0.005449586355785838,-0.009028300521912402
-0.005449246355785838,-0.009522003888230759
-0.005448906355785838,-0.007185141287661454
-0.005448566355785838,-0.00688891926786619
-0.005448226355785838,-0.006625610805829733
-0.005447886355785838,-0.005374895611156563
-0.005447546355785838,-0.004420402436274407
-0.005447206355785838,-0.004914105802592763
-0.005446866355785838,-0.004091266858728836
-0.005446526355785838,-0.002610156759773766
-0.005446186355785838,-0.004486229551783521
-0.005445846355785838,-0.003202600799355794
-0.005445506355785838,-0.00353173637690376
-0.005445166355785838,-0.004848278687083649
-0.005444826355785838,-0.00540780916891112
-0.005444486355785838,-0.00530906849565158
-0.005444146355785838,-0.007580103980711889
-0.005443806355785838,-0.008073807347030245
-0.005443466355785838,-0.008073807347031562
-0.005443126355785838,-0.008797905617630502
-0.005442786355785838,-0.01021318860107646
-0.005442446355785838,-0.009653658119259164
-0.005442106355785838,-0.0152489629375237
-0.005441766355785838,-0.0113322495647314
-0.005441426355785837,-0.007152227729902407
-0.005441086355785838,-0.007020573498884419
-0.005440746355785838,-0.006230648112775047
-0.005440406355785837,-0.009818225908023089
-0.005440066355785838,-0.01054232417862203
-0.005439726355785838,-0.009357436099457973
-0.005439386355785837,-0.009653658119250124
-0.005439046355785838,-0.01027901571658557
-0.005438706355785838,-0.01215508850859533
-0.005438366355785837,-0.01149681735350341
-0.005438026355785838,-0.01106894110269494
-0.005437686355785838,-0.01268170543266824
-0.005437346355785837,-0.01116768177595442
-0.005437006355785838,-0.008863732733139616
-0.005436666355785838,-0.00860042427110316
-0.005436326355785838,-0.006625610805833326
-0.005435986355785838,-0.005374895611156563
-0.005435646355785838,-0.004881192244838206
-0.005435306355785838,-0.004617883782802228
-0.005434966355785838,-0.005473636284420234
-0.005434626355785838,-0.005769858304211248
-0.005434286355785838,-0.00145818223837211
-0.005433946355785838,-0.004716624456065421
-0.005433606355785838,-0.007876326000502903
-0.005433266355785838,-0.007810498884993909
-0.005432926355785838,-0.007152227729902647
-0.005432586355785838,-0.008666251386612273
-0.005432246355785838,-0.01031192927433714
-0.005431906355785838,-0.01383367995407774
-0.005431566355785838,-0.01291210033695014
-0.005431226355785838,-0.007053487056649632
-0.005430886355785838,-0.008501683597839487
-0.005430546355785838,-0.01031192927434013
-0.005430206355785838,-0.007942153116016327
-0.005429866355785838,-0.00688891926786619
-0.005429526355785838,-0.00790923955825746
-0.005429186355785838,-0.007942153116011956
-0.005428846355785838,-0.007810498884993789
-0.005428506355785838,-0.006625610805829733
-0.005428166355785838,-0.0082054615780456
-0.005427826355785838,-0.00688891926786619
-0.005427486355785838,-0.003531736376901365
-0.005427146355785838,-0.002610156759773766
-0.005426806355785838,-0.002083539835700852
-0.005426466355785838,-0.001787317815909838
-0.005426126355785838,-0.002774724548546551
-0.005425786355785838,-0.005341982053402005
-0.005425446355785838,-0.006164820997265934
-0.005425106355785838,-0.009159954752930631
-0.005424766355785838,-0.01103602754494038
-0.005424426355785838,-0.01044358350535836
-0.005424086355785838,-0.01060815129413114
-0.005423746355785838,-0.01064106485188301
-0.005423406355785838,-0.009159954752930631
-0.005423066355785838,-0.008139634462539359
-0.005422726355785838,-0.007020573498881365
-0.005422386355785838,-0.005341982053402005
-0.005422046355785838,-0.004617883782801749
-0.005421706355785838,-0.00583568541972126
-0.005421366355785838,-0.006329388786038719
-0.005421026355785838,-0.005901512535229476
-0.005420686355785838,-0.004716624456067516
-0.005420346355785838,-0.00586859897747492
-0.005420006355785838,-0.004058353300974278
-0.005419666355785837,-0.009291608983953708
-0.005419326355785838,-0.01195760716206798
-0.005418986355785838,-0.008007980231521132
-0.005418646355785837,-0.007481363307451211
-0.005418306355785838,-0.009127041195176074
-0.005417966355785838,-0.006164820997265934
-0.005417626355785837,-0.005671117630949553
-0.005417286355785838,-0.006757265036847961
