Analysis/files/cmb03_d2s01/wrd09_ch34.csv

#Digilent WaveForms Oscilloscope Acquisition
#Device Name: ADP3450
#Serial Number: SN:210018B9D9B0
#Date Time: 2024-08-09 13:15:17.447.972.490
#Sample rate: 2.94118e+06Hz
#Samples: 32768
#Trigger: Source: Channel 3 Type: Edge Condition: Rising Level: 20 mV Hyst.: Auto HoldOff: 0 s
#Channel 3: Range: 200 mV/div Offset: 0 V Attenuation: 1 X Coupling: DC Bandwidth: 0 Hz Sample Mode: Average

Time (s),Channel 3 (V)
-0.005570427813084112,0.007066429220066024
-0.005570087813084112,0.004795393735001464
-0.005569747813084112,0.004729566619492469
-0.005569407813084112,0.004367517484192341
-0.005569067813084112,0.005025788639276119
-0.005568727813084112,0.0009774210354729588
-0.005568387813084112,0.001438210844036758
-0.005568047813084112,-0.0002074670436956471
-0.005567707813084112,-0.002708897433037437
-0.005567367813084112,-0.002610156759773766
-0.005567027813084112,-0.002939292337320235
-0.005566687813084112,-0.003432995703637694
-0.005566347813084112,-0.00336716858812858
-0.005566007813084112,-0.0012936144495922
-0.005565667813084112,-0.001688577142646167
-0.005565327813084112,-0.001227787334082367
-0.005564987813084112,0.001635692190561646
-0.005564647813084112,0.0002862363226272596
-0.005564307813084112,0.00107616170873663
-0.005563967813084112,-0.001589836469388482
-0.005563627813084112,-0.004881192244838206
-0.005563287813084112,0.001602778632809544
-0.005562947813084113,0.001339470170773566
-0.005562607813084112,-0.0004378619479729968
-0.005562267813084112,-0.005671117630947577
-0.005561927813084113,-0.008337115809061851
-0.005561587813084112,-0.009752398792512659
-0.005561247813084112,-0.01027901571658557
-0.005560907813084113,-0.01027901571658557
-0.005560567813084112,-0.009982793696794558
-0.005560227813084112,-0.002840551664055666
-0.005559887813084113,-0.01031192927432654
-0.005559547813084112,-0.008764992059875945
-0.005559207813084112,-0.009324522541703417
-0.005558867813084113,-0.007777585327242045
-0.005558527813084112,-0.007152227729902647
-0.005558187813084112,-0.008732078502121389
-0.005557847813084112,-0.008995386964157366
-0.005557507813084112,-0.008633337828857716
-0.005557167813084112,-0.009949880139040001
-0.005556827813084112,-0.009949880139040001
-0.005556487813084112,-0.009752398792512659
-0.005556147813084112,-0.01116768177595861
-0.005555807813084112,-0.01182595293104856
-0.005555467813084112,-0.009456176772721644
-0.005555127813084112,-0.01083854619841304
-0.005554787813084112,-0.009653658119251143
-0.005554447813084112,-0.008238375135803031
-0.005554107813084112,-0.007218054845411761
-0.005553767813084112,-0.008304202251312145
-0.005553427813084112,-0.0101802750433219
-0.005553087813084112,-0.0127146189904228
-0.005552747813084112,-0.006526870132566062
-0.005552407813084112,-0.00586859897747492
-0.005552067813084112,-0.007382622634184546
-0.005551727813084112,-0.01136516312248596
-0.005551387813084112,-0.01146390379574693
-0.005551047813084112,-0.009982793696794558
-0.005550707813084112,-0.01004862081230367
-0.005550367813084112,-0.01050941062086442
-0.005550027813084112,-0.008830819175385059
-0.005549687813084112,-0.008435856482330374
-0.005549347813084112,-0.007448449749692883
-0.005549007813084112,-0.007020573498884419
-0.005548667813084112,-0.008007980231521132
-0.005548327813084112,-0.007349709076427595
-0.005547987813084112,-0.006033166766247705
-0.005547647813084112,-0.008106720904784802
-0.005547307813084112,-0.009620744561491555
-0.005546967813084112,-0.008040893789275689
-0.005546627813084112,-0.009653658119248986
-0.005546287813084112,-0.01189178004655791
-0.005545947813084112,-0.01136516312248596
-0.005545607813084112,-0.01235256985512267
-0.005545267813084112,-0.0123525698551195
-0.005544927813084112,-0.01060815129413114
-0.005544587813084112,-0.009522003888230759
-0.005544247813084112,-0.01083854619841119
-0.005543907813084112,-0.009818225908021772
-0.005543567813084112,-0.009159954752930631
-0.005543227813084112,-0.0127804461059397
-0.005542887813084112,-0.01705920861402434
-0.005542547813084112,-0.01373493928081407
-0.005542207813084113,-0.01314249524123312
-0.005541867813084112,-0.01192469360431343
-0.005541527813084112,-0.01255005120165001
-0.005541187813084113,-0.01771747976910608
-0.005540847813084112,-0.01738834419156991
-0.005540507813084112,-0.01307666812572293
-0.005540167813084113,-0.01505148159099276
-0.005539827813084112,-0.01505148159099635
-0.005539487813084112,-0.01304375456796837
-0.005539147813084113,-0.01225382918186043
-0.005538807813084112,-0.01241839697063178
-0.005538467813084112,-0.01143099023799507
-0.005538127813084113,-0.01116768177595909
-0.005537787813084112,-0.01215508850859533
-0.005537447813084112,-0.01031192927434013
-0.005537107813084113,-0.0118588664888015
-0.005536767813084112,-0.01403116130060508
-0.005536427813084112,-0.01136516312248596
-0.005536087813084112,-0.01225382918185738
-0.005535747813084112,-0.01373493928081407
-0.005535407813084112,-0.01412990197386875
-0.005535067813084112,-0.01110185466045501
-0.005534727813084112,-0.01258296475940457
-0.005534387813084112,-0.01136516312248596
-0.005534047813084112,-0.01212217495083939
-0.005533707813084112,-0.01330706303000483
-0.005533367813084112,-0.01333997658775938
-0.005533027813084112,-0.01370202572305951
-0.005532687813084112,-0.01738834419156991
-0.005532347813084112,-0.02100883554457119
-0.005532007813084112,-0.01297792745245925
-0.005531667813084112,-0.01310958168347748
-0.005531327813084112,-0.01189178004655887
-0.005530987813084112,-0.0117930393732952
-0.005530647813084112,-0.01564392563057838
-0.005530307813084112,-0.01534770361078737
-0.005529967813084112,-0.01149681735350419
-0.005529627813084112,-0.01327414947225248
-0.005529287813084112,-0.01449195110916888
-0.005528947813084112,-0.01297792745245925
-0.005528607813084112,-0.01314249524123402
-0.005528267813084112,-0.01422864264713243
-0.005527927813084112,-0.01337289014551394
-0.005527587813084112,-0.01235256985512572
-0.005527247813084112,-0.01403116130060508
-0.005526907813084112,-0.01176012581554064
-0.005526567813084112,-0.01182595293105251
-0.005526227813084112,-0.01333997658775938
-0.005525887813084112,-0.01327414947225027
-0.005525547813084112,-0.01044358350536273
-0.005525207813084112,-0.01284627322144103
-0.005524867813084112,-0.01403116130060508
-0.005524527813084112,-0.01324123591449972
-0.005524187813084112,-0.01544644428405104
-0.005523847813084112,-0.01587432053486028
-0.005523507813084112,-0.01663133236321749
-0.005523167813084112,-0.01794787467339738
-0.005522827813084112,-0.01956063900337068
-0.005522487813084112,-0.0231482167986447
-0.005522147813084112,-0.03815679913469544
-0.005521807813084112,-0.05217797473813677
-0.005521467813084112,-0.06945759255932864
-0.005521127813084112,-0.09661127770678887
-0.005520787813084112,-0.1275500219960725
-0.005520447813084113,-0.1625371338891031
-0.005520107813084112,-0.1943316306800689
-0.005519767813084112,-0.2189838854382322
-0.005519427813084113,-0.2404764386519189
-0.005519087813084112,-0.2582168462816642
-0.005518747813084112,-0.2701973813043231
-0.005518407813084113,-0.2750027607364797
-0.005518067813084112,-0.276516784393198
-0.005517727813084112,-0.2759901674691251
-0.005517387813084113,-0.2706910846706511
-0.005517047813084112,-0.2626601765785295
-0.005516707813084112,-0.2581181056084006
-0.005516367813084113,-0.2490010501104049
-0.005516027813084112,-0.2402789573054306
-0.005515687813084112,-0.2344203440251195
-0.005515347813084112,-0.2267514850683216
-0.005515007813084112,-0.2187205769761957
-0.005514667813084112,-0.2050614505080545
-0.005514327813084112,-0.2092743859006302
-0.005513987813084112,-0.1995977999207981
-0.005513647813084112,-0.1941670628912961
-0.005513307813084112,-0.1861361547991988
-0.005512967813084112,-0.1772824077632083
-0.005512627813084112,-0.1712263131363698
-0.005512287813084112,-0.1653347862983041
-0.005511947813084112,-0.1598711357110476
-0.005511607813084112,-0.1594432594602384
-0.005511267813084112,-0.1493717107873439
-0.005510927813084112,-0.1411433213487046
-0.005510587813084112,-0.1359100656657301
-0.005510247813084112,-0.1325199692170107
-0.005509907813084112,-0.13070972354051
-0.005509567813084112,-0.1256410356463082
-0.005509227813084112,-0.1194203732306969
-0.005508887813084112,-0.1159644496664618
-0.005508547813084112,-0.1123439583134672
-0.005508207813084112,-0.109677960135348
-0.005507867813084112,-0.1056625060892834
-0.005507527813084112,-0.1009229537726359
-0.005507187813084112,-0.09845443694104405
-0.005506847813084112,-0.09420858799069853
-0.005506507813084112,-0.08999565259812289
-0.005506167813084112,-0.08910698653874985
-0.005505827813084112,-0.08588145787879505
-0.005505487813084112,-0.08137230046642893
-0.005505147813084112,-0.08015449882951031
-0.005504807813084112,-0.07972662257869446
-0.005504467813084112,-0.07610613122569979
-0.005504127813084112,-0.07357178727859889
-0.005503787813084112,-0.07245272631493815
-0.005503447813084112,-0.06926011121275191
-0.005503107813084112,-0.06731821130523305
-0.005502767813084112,-0.0666928537078888
-0.005502427813084112,-0.06247991831531315
-0.005502087813084112,-0.06086715398533984
-0.005501747813084112,-0.06037345061902083
-0.005501407813084112,-0.06001140148372136
-0.005501067813084112,-0.05747705753662046
-0.005500727813084112,-0.05099308665896978
-0.005500387813084112,-0.04938032232899942
-0.005500047813084112,-0.04651684280435295
-0.005499707813084113,-0.04990693925306616
-0.005499367813084112,-0.05102600021672727
-0.005499027813084112,-0.0472409410749532
-0.005498687813084113,-0.04743842242148019
-0.005498347813084112,-0.04760299021025333
-0.005498007813084112,-0.04559526318722535
-0.005497667813084113,-0.04404832597276398
-0.005497327813084112,-0.0425672158738061
-0.005496987813084112,-0.03914420586733215
-0.005496647813084113,-0.03759726865287079
-0.005496307813084112,-0.03713647884430417
-0.005495967813084112,-0.03430591287741226
-0.005495627813084113,-0.03460213489720274
-0.005495287813084112,-0.03466796201271239
-0.005494947813084112,-0.03321976547151188
-0.005494607813084113,-0.03131077912175103
-0.005494267813084112,-0.03108038421746566
-0.005493927813084112,-0.02877643517464666
-0.005493587813084112,-0.02663705392060435
-0.005493247813084112,-0.02676870815161868
-0.005492907813084112,-0.02482680824409981
-0.005492567813084112,-0.02430019132002786
-0.005492227813084112,-0.02380648795370854
-0.005491887813084112,-0.02331278458739018
-0.005491547813084112,-0.02291782189433622
-0.005491207813084112,-0.02525468449490905
-0.005490867813084112,-0.03019171815809262
-0.005490527813084112,-0.02479389468634526
-0.005490187813084112,-0.02380648795370854
-0.005489847813084112,-0.02311530324086284
-0.005489507813084112,-0.02166710669966233
-0.005489167813084112,-0.02611043699652754
-0.005488827813084112,-0.02719658440242792
-0.005488487813084112,-0.0236090066071812
-0.005488147813084112,-0.0240039693002375
-0.005487807813084112,-0.02489263535960893
-0.005487467813084112,-0.02288490833658094
-0.005487127813084112,-0.02258868631679269
-0.005486787813084112,-0.02410270997349956
-0.005486447813084112,-0.0236090066071812
-0.005486107813084112,-0.02341152526065769
-0.005485767813084112,-0.02551799295694551
-0.005485427813084112,-0.02505720314838171
-0.005485087813084112,-0.02439893199329147
-0.005484747813084112,-0.02489263535960893
-0.005484407813084112,-0.02344443881840842
-0.005484067813084112,-0.0210746626600824
-0.005483727813084112,-0.0222266371814898
-0.005483387813084112,-0.02120631689109853
-0.005483047813084112,-0.01886945429052683
-0.005482707813084112,-0.01988977458091625
-0.005482367813084112,-0.01913276275256143
-0.005482027813084112,-0.01794787467339726
-0.005481687813084112,-0.01788204755788826
-0.005481347813084112,-0.01765165265360636
-0.005481007813084112,-0.01498565447549005
-0.005480667813084112,-0.01653259168995142
-0.005480327813084112,-0.02173293381517144
-0.005479987813084112,-0.0150514815909939
-0.005479647813084112,-0.01370202572305951
-0.005479307813084112,-0.01426155620488698
-0.005478967813084113,-0.01419572908937799
-0.005478627813084112,-0.01926441698357966
-0.005478287813084112,-0.01870488650175219
-0.005477947813084113,-0.01485400024447601
-0.005477607813084112,-0.01580849341935116
-0.005477267813084112,-0.01781622044237915
-0.005476927813084113,-0.01554518495731884
-0.005476587813084112,-0.01547935784180559
-0.005476247813084112,-0.01636802390117864
-0.005475907813084113,-0.01597306120812467
-0.005475567813084112,-0.01452486466692344
-0.005475227813084112,-0.01584140697710572
-0.005474887813084113,-0.01620345611240519
-0.005474547813084112,-0.01597306120812395
-0.005474207813084112,-0.01811244246217016
-0.005473867813084113,-0.01775039332687069
-0.005473527813084112,-0.01640093745893319
-0.005473187813084112,-0.01696046794076066
-0.005472847813084112,-0.01929733054132997
-0.005472507813084112,-0.01577557986159661
-0.005472167813084112,-0.01709212217177889
-0.005471827813084112,-0.01620345611240747
-0.005471487813084112,-0.01429446976264154
-0.005471147813084112,-0.01528187649527825
-0.005470807813084112,-0.01551227139955973
-0.005470467813084112,-0.01518313582201458
-0.005470127813084112,-0.01830992380869751
-0.005469787813084112,-0.01959355256112523
-0.005469447813084112,-0.007053487056638975
-0.005469107813084112,-0.01136516312248596
-0.005468767813084112,-0.01702629505626978
-0.005468427813084112,-0.01564392563057838
-0.005468087813084112,-0.01297792745245925
-0.005467747813084112,-0.01620345611240585
-0.005467407813084112,-0.01584140697710572
-0.005467067813084112,-0.01314249524123204
-0.005466727813084112,-0.01610471543914218
-0.005466387813084112,-0.01498565447548281
-0.005466047813084112,-0.01255005120165001
-0.005465707813084112,-0.01278044610593191
-0.005465367813084112,-0.0128133596636821
-0.005465027813084112,-0.0104106699476038
-0.005464687813084112,-0.01139807668024051
-0.005464347813084112,-0.01192469360430972
-0.005464007813084112,-0.009884053023530886
-0.005463667813084112,-0.01199052071982254
-0.005463327813084112,-0.01143099023799321
-0.005462987813084112,-0.0104106699476038
-0.005462647813084112,-0.01146390379574963
-0.005462307813084112,-0.01363619860754609
-0.005461967813084112,-0.01126642244922228
-0.005461627813084112,-0.01136516312248596
-0.005461287813084112,-0.01373493928081509
-0.005460947813084112,-0.01429446976264154
-0.005460607813084112,-0.0150185680332418
-0.005460267813084112,-0.01511730870650481
-0.005459927813084112,-0.01475525957120534
-0.005459587813084112,-0.01538061716854192
-0.005459247813084112,-0.01106894110269518
-0.005458907813084112,-0.01120059533371317
-0.005458567813084112,-0.008435856482330374
-0.005458227813084112,-0.008666251386623469
-0.005457887813084112,-0.01482108668671445
-0.005457547813084112,-0.01574266630384205
-0.005457207813084113,-0.01432738332039867
-0.005456867813084112,-0.01488691380222357
-0.005456527813084112,-0.01541353072629648
-0.005456187813084113,-0.01531479005303299
-0.005455847813084112,-0.0143273833203961
-0.005455507813084112,-0.01287918677919558
-0.005455167813084113,-0.01363619860754902
-0.005454827813084112,-0.014557778224678
-0.005454487813084112,-0.01222091562410444
-0.005454147813084113,-0.01294501389470338
-0.005453807813084112,-0.01353745793428673
-0.005453467813084112,-0.01333997658775938
-0.005453127813084113,-0.01284627322144193
-0.005452787813084112,-0.01366911216530495
-0.005452447813084112,-0.01268170543266824
-0.005452107813084112,-0.01212217495084179
-0.005451767813084112,-0.012253829181859
-0.005451427813084112,-0.01169429870003153
-0.005451087813084112,-0.009522003888234711
-0.005450747813084112,-0.01080563264065849
-0.005450407813084112,-0.01152973091125874
-0.005450067813084112,-0.009785312350270388
-0.005449727813084112,-0.009916966581285444
-0.005449387813084112,-0.01097020042943127
-0.005449047813084112,-0.01547935784179739
-0.005448707813084112,-0.01261587831715913
-0.005448367813084112,-0.01070689196739481
-0.005448027813084112,-0.01034484283209469
-0.005447687813084112,-0.01396533418509597
-0.005447347813084112,-0.01607180188138762
-0.005447007813084112,-0.0113322495647314
-0.005446667813084112,-0.009818225908021772
-0.005446327813084112,-0.01297792745245925
-0.005445987813084112,-0.01090437331392216
-0.005445647813084112,-0.01337289014550987
-0.005445307813084112,-0.01113476821820406
-0.005444967813084112,-0.007448449749693661
-0.005444627813084112,-0.01403116130060664
-0.005444287813084112,-0.01488691380222357
-0.005443947813084112,-0.01083854619841304
-0.005443607813084112,-0.01271461899042507
-0.005443267813084112,-0.01396533418509597
-0.005442927813084112,-0.01538061716854192
-0.005442587813084112,-0.01251713764388875
-0.005442247813084112,-0.008830819175385059
-0.005441907813084112,-0.01067397840964026
-0.005441567813084112,-0.01521604937976758
-0.005441227813084112,-0.01436029687815065
-0.005440887813084112,-0.01073980552514937
-0.005440547813084112,-0.00978531235026937
-0.005440207813084112,-0.01097020042943127
-0.005439867813084112,-0.01077271908290393
-0.005439527813084112,-0.008435856482332289
-0.005439187813084112,-0.009489090330476201
-0.005438847813084112,-0.01047649706311291
-0.005438507813084112,-0.01021318860107945
-0.005438167813084112,-0.01185886648880431
-0.005437827813084112,-0.01162847158452241
-0.005437487813084112,-0.01162847158452271
-0.005437147813084112,-0.0117930393732952
-0.005436807813084112,-0.01357037149204128
-0.005436467813084113,-0.01373493928081377
-0.005436127813084112,-0.01353745793428673
-0.005435787813084112,-0.0152489629375237
-0.005435447813084113,-0.01541353072629618
-0.005435107813084112,-0.01403116130060508
-0.005434767813084112,-0.01531479005303281
-0.005434427813084113,-0.01508439514875133
-0.005434087813084112,-0.01347163081877761
-0.005433747813084112,-0.01412990197386875
-0.005433407813084113,-0.01317540879898833
-0.005433067813084112,-0.0152489629375237
-0.005432727813084112,-0.01176012581554064
-0.005432387813084113,-0.00902830052191737
-0.005432047813084112,-0.006823092152357076
-0.005431707813084112,-0.007810498884993789
-0.005431367813084113,-0.01304375456795885
-0.005431027813084112,-0.01199052071982254
-0.005430687813084112,-0.01176012581554064
-0.005430347813084112,-0.0122867427396126
-0.005430007813084112,-0.01258296475940457
-0.005429667813084112,-0.01264879187491368
-0.005429327813084112,-0.01389950706958458
-0.005428987813084112,-0.01439321043590521
-0.005428647813084112,-0.01350454437653217
-0.005428307813084112,-0.01531479005302952
-0.005427967813084112,-0.01436029687815065
-0.005427627813084112,-0.01547935784180559
-0.005427287813084112,-0.01669715947872421
-0.005426947813084112,-0.01577557986159661
-0.005426607813084112,-0.0134058037032685
-0.005426267813084112,-0.01373493928081407
-0.005425927813084112,-0.01172721225778608
-0.005425587813084112,-0.009719485234758102
-0.005425247813084112,-0.01047649706311291
-0.005424907813084112,-0.009653658119248986
-0.005424567813084112,-0.00939034965721253
-0.005424227813084112,-0.009851139465776329
-0.005423887813084112,-0.00596733965074356
-0.005423547813084112,-0.00869916494436683
-0.005423207813084112,-0.01268170543266824
-0.005422867813084112,-0.0153477036107909
-0.005422527813084112,-0.01728960351830624
-0.005422187813084112,-0.01222091562410444
-0.005421847813084112,-0.01248422408613551
-0.005421507813084112,-0.009522003888230759
-0.005421167813084112,-0.01047649706311291
-0.005420827813084112,-0.01623636967015723
-0.005420487813084112,-0.01449195110916888
-0.005420147813084112,-0.01231965629736811
-0.005419807813084112,-0.01419572908937924
-0.005419467813084112,-0.01495274091773268
-0.005419127813084112,-0.01320832235674115
-0.005418787813084112,-0.01515022226425912
-0.005418447813084112,-0.01465651889794167
-0.005418107813084112,-0.01307666812572293
-0.005417767813084112,-0.01501856803324096
-0.005417427813084112,-0.014557778224678
-0.005417087813084112,-0.01347163081877761
-0.005416747813084112,-0.01449195110916589
-0.005416407813084112,-0.01284627322144103
-0.005416067813084112,-0.01136516312248596
