Analysis/files/cmb03_d2s01/wrd04_ch46.csv

#Digilent WaveForms Oscilloscope Acquisition
#Device Name: ADP3450
#Serial Number: SN:210018B9D9B0
#Date Time: 2024-08-09 15:29:20.626.291.140
#Sample rate: 2.94118e+06Hz
#Samples: 32768
#Trigger: Source: Channel 3 Type: Edge Condition: Rising Level: 20 mV Hyst.: Auto HoldOff: 0 s
#Channel 1: Range: 200 mV/div Offset: -820 mV Attenuation: 1 X Coupling: DC Bandwidth: 0 Hz Sample Mode: Average
#Channel 3: Range: 200 mV/div Offset: 0 V Attenuation: 1 X Coupling: DC Bandwidth: 0 Hz Sample Mode: Average

Time (s),Channel 1 (V),Channel 3 (V)
-0.00557022125925926,0.001117632441553607,0.01601891692930556
-0.00556988125925926,0.0008879024815486941,0.0158214355827751
-0.00556954125925926,0.0009535396129786156,0.01410993057954124
-0.00556920125925926,0.001051995310123677,0.01332000519343187
-0.005568861259259259,0.001281725270128709,0.0119705493255003
-0.00556852125925926,0.001281725270128709,0.01486694240789606
-0.00556818125925926,0.001216088138698668,0.01308961028914997
-0.005567841259259259,0.001183269572983767,0.01229968490303833
-0.00556750125925926,0.001248906704413688,0.01104896970836743
-0.00556716125925926,0.001150451007268627,0.01035778499552173
-0.005566821259259259,0.0009535396129793916,0.008909588454317869
-0.00556648125925926,0.00138018096727377,0.007066429220066024
-0.00556614125925926,0.001642729492993933,0.005651146236620068
-0.005565801259259259,0.00131454383584343,0.005354924216831569
-0.00556546125925926,0.001150451007268627,0.006737293642520453
-0.00556512125925926,0.001248906704413688,0.005881541140901968
-0.005564781259259259,0.001347362401558391,0.006046108929676251
-0.00556444125925926,0.001150451007268627,0.006868947873538681
-0.00556410125925926,0.00141299953298879,0.002293963345655243
-0.005563761259259259,0.001445818098703811,0.00644107162273812
-0.00556342125925926,0.001445818098703811,0.01121353749714022
-0.00556308125925926,0.001150451007268627,0.009633686724921478
-0.00556274125925926,0.001051995310123856,0.009864081629202957
-0.00556240125925926,0.001117632441553607,0.007395564797611595
-0.00556206125925926,0.001117632441553607,0.006605639411502225
-0.00556172125925926,0.001019176744408835,0.008086749510454599
-0.00556138125925926,0.001117632441553607,0.01045652566878541
-0.00556104125925926,0.0008879024815485748,0.00904124268533945
-0.00556070125925926,0.001019176744408418,0.008481712203512997
-0.00556036125925926,0.001248906704413688,0.01062109345755819
-0.00556002125925926,0.001183269572983647,0.00811966306821185
-0.00555968125925926,0.001281725270128529,0.007889268163930371
-0.00555934125925926,0.001150451007268627,0.006704380084765896
-0.00555900125925926,0.001183269572983647,0.00779052749066628
-0.00555866125925926,0.001380180967273411,0.004499171715216556
-0.00555832125925926,0.0009535396129786156,0.003939641233383098
-0.00555798125925926,0.0008879024815485748,0.005420751332338168
-0.00555764125925926,0.0009863581786934568,0.004170036137667274
-0.00555730125925926,0.001084813875838697,0.004202949695419555
-0.00555696125925926,0.001314543835843729,0.004104209022155884
-0.00555662125925926,0.001248906704413808,0.003347197193802448
-0.00555628125925926,0.00138018096727377,0.003742159886855756
-0.00555594125925926,0.001478636664418831,0.003116802289519171
-0.00555560125925926,0.001577092361563713,0.0009115939199678558
-0.00555526125925926,0.001248906704413688,0.0002862363226272596
-0.00555492125925926,0.0009535396129786156,0.000714112573436502
-0.00555458125925926,0.0009863581786935763,-0.0003720348324619068
-0.00555424125925926,0.0009207210472635952,-0.001359441565100596
-0.00555390125925926,0.0008550839158335544,-0.004190007531992507
-0.00555356125925926,0.001051995310123677,-0.0004707755057275538
-0.00555322125925926,0.001019176744408656,0.002458531134428029
-0.00555288125925926,0.000986358178693636,0.004170036137664999
-0.00555254125925926,0.001019176744408656,0.003478851424819299
-0.00555220125925926,0.001183269572983647,-0.00142526868060971
-0.00555186125925926,0.001445818098703811,-0.0009973924298004675
-0.00555152125925926,0.00141299953298879,0.00130655661301853
-0.00555118125925926,0.00115045100726809,-0.002544329644262616
-0.00555084125925926,0.0008550839158335544,-0.00142526868060971
-0.00555050125925926,0.0009207210472635952,-0.0007669975255185678
-0.00555016125925926,0.001347362401558749,-0.001293614449588249
-0.00554982125925926,0.001347362401558749,0.0004837176691546022
-0.00554948125925926,0.001544273795848872,0.001899000652600558
-0.00554914125925926,0.00147863666441895,0.001767346421579336
-0.00554880125925926,0.001544273795848872,0.0001216685338544741
-0.00554846125925926,0.001347362401558749,0.0002862363226272596
-0.00554812125925926,0.001150451007268567,-0.001918972046919026
-0.00554778125925926,0.001117632441553607,0.003050975174010056
-0.00554744125925926,0.001117632441553607,-0.003334255030374022
-0.005547101259259259,0.001150451007268149,-0.004650797340553792
-0.00554676125925926,0.0008879024815485748,-0.003268427914864908
-0.00554642125925926,0.0009535396129786156,-0.001392355122855153
-0.005546081259259259,0.001117632441553786,0.0001874956493627501
-0.00554574125925926,0.001216088138698668,-0.0002732941592002112
-0.00554540125925926,0.001248906704413688,0.001602778632809544
-0.005545061259259259,0.0009863581786937554,0.002030654883616691
-0.00554472125925926,0.001051995310123677,0.0008786803622092876
-0.00554438125925926,0.00138018096727377,0.002886407385237271
-0.005544041259259259,0.001117632441553547,0.003248456520531353
-0.00554370125925926,0.001084813875838697,-7.581281267286857e-05
-0.00554336125925926,0.0008879024815485748,0.001833173537091444
-0.005543021259259259,0.0009207210472640728,0.007889268163925161
-0.00554268125925926,0.001183269572983647,0.005256183543565383
-0.00554234125925926,0.001577092361563892,0.006506898738238553
-0.00554200125925926,0.001117632441554442,0.002458531134435392
-0.00554166125925926,0.001019176744408656,-0.002972205895073894
-0.00554132125925926,0.001117632441553607,-0.001260700891836924
-0.00554098125925926,0.001314543835843371,-0.0007011704100104713
-0.00554064125925926,0.001183269572983647,-0.003169687241601236
-0.00554030125925926,0.001347362401558749,-0.001030305987555025
-0.00553996125925926,0.001216088138698906,-0.0001416399281835993
-0.00553962125925926,0.00138018096727377,-0.001951885604682624
-0.00553928125925926,0.001281725270128709,-0.001524009353873381
-0.00553894125925926,0.0009863581786941733,-0.000240380601447989
-0.00553860125925926,0.0008550839158335544,-0.0006682568522548965
-0.00553826125925926,0.001281725270128709,-0.003498822819146808
-0.00553792125925926,0.001248906704413748,-0.002544329644266388
-0.00553758125925926,0.001051995310123677,-0.00142526868060971
-0.00553724125925926,0.00138018096727377,0.0001545820916090312
-0.00553690125925926,0.001478636664418652,0.001471124401788921
-0.00553656125925926,0.00138018096727377,0.0001216685338544741
-0.00553622125925926,0.001281725270128709,0.0003849769958909309
-0.00553588125925926,0.0009863581786941733,0.002458531134424257
-0.00553554125925926,0.001248906704413688,0.001931914210355115
-0.00553520125925926,0.001183269572983647,0.0002862363226272596
-0.00553486125925926,0.001051995310123915,0.0005166312269087403
-0.00553452125925926,0.001051995310123677,0.00130655661301853
-0.00553418125925926,0.001248906704413688,-0.0005695161789912252
-0.00553384125925926,0.001216088138698727,-0.0004378619479732363
-0.00553350125925926,0.0008550839158335544,-0.003564649934655922
-0.00553316125925926,0.0008550839158335544,-0.008205461578048474
-0.00553282125925926,0.001445818098703811,-0.0008986517565367963
-0.00553248125925926,0.001675548058708842,0.0006811990156819448
-0.00553214125925926,0.001675548058708842,2.292786059080275e-05
-0.00553180125925926,0.001281725270128709,-0.001984799162437181
-0.00553146125925926,0.001511455230133851,-0.002807638106301108
-0.00553112125925926,0.001248906704413688,-0.0008657381987822392
-0.00553078125925926,0.001117632441553607,0.0005824583424182735
-0.00553044125925926,0.001281725270128709,-0.0003062077169547683
-0.00553010125925926,0.001117632441553607,-0.001787317815909838
-0.00552976125925926,0.0007238096529734728,-0.002182280508964523
-0.00552942125925926,0.001051995310124214,-0.001096133103069108
-0.00552908125925926,0.001347362401558749,-0.003827958396692379
-0.00552874125925926,0.001806822321568924,-0.005736944746456691
-0.00552840125925926,0.00128172527012841,-0.002873465221810522
-0.00552806125925926,0.001117632441553607,-0.003038033010583008
-0.00552772125925926,0.0009535396129786156,-0.004222921089747064
-0.00552738125925926,0.001216088138698011,-0.003005119452827853
-0.00552704125925926,0.0008550839158335544,-0.00267598387528288
-0.00552670125925926,0.0009207210472635952,-0.004025439743219721
-0.005526361259259259,0.0008879024815492315,-0.003893785512201433
-0.00552602125925926,0.001248906704413688,-0.003860871954446936
-0.00552568125925926,0.001281725270128709,-0.004650797340556306
-0.005525341259259259,0.00111763244155295,-0.003136773683845003
-0.00552500125925926,0.0007566282186884932,-0.002215194066719081
-0.00552466125925926,0.001117632441553607,-0.00267598387528288
-0.005524321259259259,0.00124890670441339,-0.002807638106298714
-0.00552398125925926,0.001084813875838697,-0.001491095796118824
-0.00552364125925926,0.001117632441553607,-0.002116453393455409
-0.005523301259259259,0.001150451007268687,-0.004222921089749938
-0.00552296125925926,0.001183269572983647,-0.005802771861965805
-0.00552262125925926,0.001216088138698668,0.0008786803622092876
-0.005522281259259259,0.001380180967273113,-0.00734970907645268
-0.00552194125925926,0.001019176744408656,-0.01982394746540713
-0.00552160125925926,0.001051995310123677,-0.03394386374211213
-0.005521261259259259,0.001248906704413509,-0.0549098000318153
-0.00552092125925926,0.001150451007268627,-0.08255718854559299
-0.00552058125925926,0.001117632441553607,-0.1152403513958682
-0.00552024125925926,0.001183269572983528,-0.1479893413615929
-0.00551990125925926,0.00138018096727377,-0.1787635178621634
-0.00551956125925926,0.001445818098703811,-0.2075957944551554
-0.00551922125925926,0.001577092361563653,-0.2320505678667469
-0.00551888125925926,0.001117632441553607,-0.2475528535691878
-0.00551854125925926,0.0009535396129786156,-0.2590067716677736
-0.00551820125925926,0.0009535396129786156,-0.266708544182326
-0.00551786125925926,0.0009207210472635952,-0.2666756306245854
-0.00551752125925926,0.001084813875838697,-0.26410837311973
-0.00551718125925926,0.001216088138698429,-0.2595992157073639
-0.00551684125925926,0.001150451007268627,-0.2529177634831806
-0.00551650125925926,0.001117632441553607,-0.2438336215429228
-0.00551616125925926,0.001577092361563056,-0.2378433540316043
-0.00551582125925926,0.001117632441553607,-0.228660471418072
-0.00551548125925926,0.00138018096727377,-0.2202016870751508
-0.00551514125925926,0.001248906704413927,-0.2135531484087424
-0.00551480125925926,0.001051995310123677,-0.2061805114717095
-0.00551446125925926,0.001281725270128709,-0.1982154304951066
-0.00551412125925926,0.001314543835843669,-0.1921593358682792
-0.00551378125925926,0.000986358178693636,-0.1856424514328658
-0.00551344125925926,0.001183269572983647,-0.1779406789182995
-0.00551310125925926,0.001412999532988372,-0.1712592266941365
-0.00551276125925926,0.001642729492993933,-0.1660588845689044
-0.00551242125925926,0.001774003755853903,-0.1591141238826928
-0.00551208125925926,0.001314543835843729,-0.1526630665627996
-0.00551174125925926,0.00138018096727377,-0.1467715397247339
-0.00551140125925926,0.001544273795848872,-0.1405508773091226
-0.00551106125925926,0.00138018096727377,-0.1364037690320484
-0.00551072125925926,0.001445818098703811,-0.1332111539298564
-0.00551038125925926,0.00138018096727377,-0.1301831066164371
-0.00551004125925926,0.001117632441553607,-0.1226788154483981
-0.00550970125925926,0.001150451007268627,-0.1208356562141429
-0.00550936125925926,0.001051995310123677,-0.1141871175477224
-0.00550902125925926,0.000822265350118534,-0.1108299346567575
-0.00550868125925926,0.000855083915834032,-0.1122781311979459
-0.00550834125925926,0.001117632441553607,-0.1055966789737829
-0.00550800125925926,0.001084813875838697,-0.1006925588683539
-0.00550766125925926,0.001281725270129126,-0.09888231319184666
-0.00550732125925926,0.001511455230133851,-0.09522890828109745
-0.00550698125925926,0.001248906704413688,-0.09042352884893212
-0.00550664125925926,0.0009535396129784364,-0.08815249336386362
-0.00550630125925926,0.0008550839158335544,-0.08591437143655781
-0.00550596125925926,0.001347362401558749,-0.08209639873702917
-0.005505621259259259,0.001248906704413509,-0.07989119036746943
-0.00550528125925926,0.001150451007268627,-0.07745558709363662
-0.00550494125925926,0.001117632441553607,-0.07113618400476165
-0.005504601259259259,0.001019176744408955,-0.07228815852617014
-0.00550426125925926,0.001183269572983647,-0.07172862804434368
-0.00550392125925926,0.001511455230133851,-0.06692324861217835
-0.005503581259259259,0.001216088138698489,-0.06445473178058239
-0.00550324125925926,0.001117632441553607,-0.06215078273776757
-0.00550290125925926,0.001281725270128709,-0.05853029138476629
-0.005502561259259259,0.001150451007268269,-0.05546933051358583
-0.00550222125925926,0.0009535396129786156,-0.05181592560283664
-0.00550188125925926,0.001183269572983647,-0.04980819857980866
-0.005501541259259259,0.001248906704413748,-0.04740550886372701
-0.00550120125925926,0.001281725270128709,-0.04796503934555346
-0.00550086125925926,0.001314543835843729,-0.04589148520701637
-0.005500521259259259,0.001216088138698309,-0.0494132358867581
-0.00550018125925926,0.001019176744408656,-0.05168427137181841
-0.00549984125925926,0.001019176744408656,-0.04306091924012445
-0.00549950125925926,0.001117632441553427,-0.04085571087057314
-0.00549916125925926,0.001248906704413688,-0.0402632668309871
-0.00549882125925926,0.001216088138698668,-0.04230390741176963
-0.00549848125925926,0.0009863581786940538,-0.03818971269245748
-0.00549814125925926,0.001084813875838697,-0.03624781278493113
-0.00549780125925926,0.001117632441553607,-0.0342729993196577
-0.00549746125925926,0.001150451007268567,-0.03256149431642385
-0.00549712125925926,0.001019176744408656,-0.03160700114153858
-0.00549678125925926,0.001150451007268627,-0.03351598749130289
-0.00549644125925926,0.001183269572983588,-0.02722949796019392
-0.00549610125925926,0.001281725270128709,-0.02834855892383742
-0.00549576125925926,0.001281725270128709,-0.03295645700947542
-0.00549542125925926,0.001117632441553905,-0.0260116963232765
-0.00549508125925926,0.001248906704413688,-0.02699910305590058
-0.00549474125925926,0.001084813875838697,-0.02861186738587388
-0.00549440125925926,0.001084813875838697,-0.02699910305590352
-0.00549406125925926,0.001150451007268627,-0.02696618949814603
-0.00549372125925926,0.001117632441553607,-0.02367483372269031
-0.00549338125925926,0.001150451007268567,-0.01834283736646176
-0.00549304125925926,0.0008879024815485748,-0.02163419314190777
-0.00549270125925926,0.0009207210472635952,-0.0247609811285907
-0.00549236125925926,0.0009535396129785558,-0.01985686102317061
-0.00549202125925926,0.001051995310123677,-0.0190011085215432
-0.00549168125925926,0.001084813875838697,-0.02120631689109853
-0.00549134125925926,0.001412999532988193,-0.01929733054133769
-0.00549100125925926,0.001248906704413688,-0.01824409669318839
-0.00549066125925926,0.001216088138698668,-0.0203834779472346
-0.00549032125925926,0.0008550839158335544,-0.01965937967663435
-0.00548998125925926,0.001281725270128709,-0.01775039332687003
-0.00548964125925926,0.001544273795848872,-0.01722377640279712
-0.00548930125925926,0.00141299953298879,-0.01653259168995142
-0.00548896125925926,0.001314543835843729,-0.01580849341935116
-0.00548862125925926,0.001314543835843729,-0.01478817312895989
-0.00548828125925926,0.001117632441553607,-0.01505148159099635
-0.00548794125925926,0.001084813875838697,-0.01271461899042513
-0.00548760125925926,0.001084813875838697,-0.01399824774285052
-0.00548726125925926,0.00138018096727377,-0.0134058037032685
-0.00548692125925926,0.001412999532988253,-0.01304375456796831
-0.00548658125925926,0.001117632441553607,-0.01301084101021381
-0.00548624125925926,0.001019176744408656,-0.01307666812572293
-0.00548590125925926,0.001281725270128649,-0.01212217495083867
-0.00548556125925926,0.001248906704413688,-0.01097020042943127
-0.00548522125925926,0.001051995310123677,-0.01067397840964026
-0.00548488125925926,0.001183269572984125,-0.007975066673773519
-0.00548454125925926,0.001445818098703811,-0.0117930393732952
-0.00548420125925926,0.001281725270128709,-0.01001570725454911
-0.005483861259259259,0.001183269572983647,-0.004354575320760862
-0.00548352125925926,0.001183269572983647,-0.001918972046928067
-0.00548318125925926,0.001511455230133851,-0.001918972046928067
-0.005482841259259259,0.001347362401559287,-0.006362302343794534
-0.00548250125925926,0.001642729492993933,-0.007053487056638975
-0.00548216125925926,0.00138018096727377,-0.006033166766247705
-0.005481821259259259,0.001511455230133254,-0.005736944746462378
-0.00548148125925926,0.001183269572983647,-0.008863732733139616
-0.00548114125925926,0.000986358178693636,-0.008271288693557588
-0.005480801259259259,0.001084813875838757,-0.008764992059874988
-0.00548046125925926,0.001117632441553607,-0.008238375135803031
-0.00548012125925926,0.001117632441553607,-0.009094127637421515
-0.005479781259259259,0.001216088138698787,-0.009423263214963196
-0.00547944125925926,0.001281725270128709,-0.007283881960920875
-0.00547910125925926,0.00138018096727377,-0.008797905617630502
-0.00547876125925926,0.001445818098703691,-0.009159954752929972
-0.00547842125925926,0.001314543835843729,-0.007185141287657204
-0.00547808125925926,0.001445818098703811,-0.008106720904784802
-0.00547774125925926,0.001183269572984125,-0.008797905617629245
-0.00547740125925926,0.001084813875838697,-0.00790923955825746
-0.00547706125925926,0.0009535396129786156,-0.007547190422957332
-0.00547672125925926,0.001577092361562758,-0.008271288693556271
-0.00547638125925926,0.00141299953298879,-0.006395215901547833
-0.00547604125925926,0.00141299953298879,-0.005572376957683906
-0.00547570125925926,0.001117632441554144,-0.005901512535228878
-0.00547536125925926,0.001183269572983647,-0.00517741426462922
-0.00547502125925926,0.001183269572983647,-0.004584970225047193
-0.00547468125925926,0.001248906704413569,-0.004782451571574176
-0.00547434125925926,0.0009207210472635952,-0.007448449749693661
-0.00547400125925926,0.001183269572983647,-0.006230648112775047
-0.00547366125925926,0.00131454383584349,-0.0001087263704385617
-0.00547332125925926,0.001051995310123677,-0.0004049483902184396
-0.00547298125925926,0.001051995310123677,0.001569865075054987
-0.00547264125925926,0.001183269572983409,-0.002182280508957698
-0.00547230125925926,0.001642729492993933,-0.007514276865202775
-0.00547196125925926,0.001445818098703811,-0.005934426092984033
-0.00547162125925926,0.001347362401558928,-0.005078673591367106
-0.00547128125925926,0.001445818098703811,-0.00767884465397556
-0.00547094125925926,0.001019176744408656,-0.00711931417214809
-0.00547060125925926,0.0008550839158338528,-0.00771175821172904
-0.00547026125925926,0.001248906704413688,-0.008106720904784802
-0.00546992125925926,0.001511455230133851,-0.006066080324002262
-0.00546958125925926,0.00141299953298879,-0.00665852436358429
-0.00546924125925926,0.001084813875838697,-0.007185141287657204
-0.00546890125925926,0.00138018096727377,-0.006296475228284162
-0.00546856125925926,0.001774003755853903,-0.005769858304211248
-0.00546822125925926,0.001609910927278912,-0.006395215901547833
-0.00546788125925926,0.001511455230133851,-0.004025439743219721
-0.00546754125925926,0.001642729492993933,-0.00392669906995605
-0.00546720125925926,0.001642729492993933,-0.002050626277946295
-0.00546686125925926,0.001183269572983647,-0.001951885604682624
-0.00546652125925926,0.001117632441553607,-0.0005695161789912252
-0.00546618125925926,0.001380180967274008,-0.002182280508962787
