Analysis/files/cmb03_d2s01/wrd05_ch02.csv

#Digilent WaveForms Oscilloscope Acquisition
#Device Name: ADP3450
#Serial Number: SN:210018B9D9B0
#Date Time: 2024-08-09 15:36:52.550.288.890
#Sample rate: 2.94118e+06Hz
#Samples: 32768
#Trigger: Source: Channel 3 Type: Edge Condition: Rising Level: 20 mV Hyst.: Auto HoldOff: 0 s
#Channel 1: Range: 200 mV/div Offset: -820 mV Attenuation: 1 X Coupling: DC Bandwidth: 0 Hz Sample Mode: Average
#Channel 3: Range: 200 mV/div Offset: 0 V Attenuation: 1 X Coupling: DC Bandwidth: 0 Hz Sample Mode: Average

Time (s),Channel 1 (V),Channel 3 (V)
-0.005570295768688294,0.000986358178693636,-0.001392355122855153
-0.005569955768688293,0.000723809652974428,-0.004453315994032017
-0.005569615768688294,0.001248906704413688,-0.006131907439511376
-0.005569275768688294,0.001347362401558749,-0.006296475228284162
-0.005568935768688293,0.001445818098703631,-0.006033166766250818
-0.005568595768688294,0.001347362401558749,-0.007744671769484675
-0.005568255768688294,0.00141299953298879,-0.005506549842174791
-0.005567915768688293,0.001347362401558331,-0.008764992059869121
-0.005567575768688294,0.001117632441553607,-0.005012846475856435
-0.005567235768688294,0.001347362401558749,-0.002281021182228195
-0.005566895768688293,0.001577092361564012,-0.0003391212747104031
-0.005566555768688294,0.001642729492993933,-0.0009315653142913533
-0.005566215768688294,0.001478636664418831,-0.006954746383375304
-0.005565875768688293,0.001544273795848573,-0.0061319074395094
-0.005565535768688293,0.00138018096727377,-0.005045760033610991
-0.005565195768688294,0.001117632441553607,-0.00711931417214809
-0.005564855768688293,0.0009207210472642519,-0.009324522541702579
-0.005564515768688293,0.001281725270128709,-0.008863732733139616
-0.005564175768688294,0.001445818098703811,-0.008534597155594046
-0.005563835768688293,0.001412999532988432,-0.007613017538470578
-0.005563495768688293,0.001216088138698668,-0.009884053023530886
-0.005563155768688294,0.001150451007268627,-0.01077271908290393
-0.005562815768688294,0.00128172527012847,-0.01031192927434097
-0.005562475768688293,0.001150451007268627,-0.01189178004655887
-0.005562135768688294,0.0009535396129786156,-0.01307666812572293
-0.005561795768688294,0.001183269572983229,-0.01544644428404673
-0.005561455768688293,0.00138018096727377,-0.01505148159099635
-0.005561115768688294,0.001314543835843729,-0.0159401476503694
-0.005560775768688294,0.001183269572983886,-0.01524896293752495
-0.005560435768688293,0.001183269572983647,-0.014557778224678
-0.005560095768688294,0.001347362401558749,-0.01459069178243255
-0.005559755768688294,0.001478636664418592,-0.01129933600698283
-0.005559415768688293,0.001248906704413688,-0.01149681735350419
-0.005559075768688294,0.001478636664418831,-0.01205634783533165
-0.005558735768688294,0.001216088138699145,-0.01208926139308615
-0.005558395768688293,0.0008879024815485748,-0.0113322495647314
-0.005558055768688294,0.0008550839158335544,-0.01231965629736811
-0.005557715768688294,0.000887902481548515,-0.01541353072629085
-0.005557375768688293,0.001117632441553607,-0.01228674273961356
-0.005557035768688294,0.00141299953298879,-0.008764992059875945
-0.005556695768688294,0.001609910927278554,-0.007185141287660077
-0.005556355768688293,0.001708366624423863,-0.00586859897747492
-0.005556015768688294,0.001905278018713985,-0.01116768177595861
-0.005555675768688294,0.001774003755854142,-0.01580849341934272
-0.005555335768688293,0.001445818098703811,-0.01380076639632318
-0.005554995768688294,0.001347362401558749,-0.01445903755141432
-0.005554655768688294,0.001051995310124214,-0.01722377640279209
-0.005554315768688293,0.000986358178693636,-0.01643385101668775
-0.005553975768688294,0.001150451007268627,-0.01705920861402434
-0.005553635768688294,0.001577092361563892,-0.01649967813219686
-0.005553295768688293,0.001281725270128709,-0.0143273833203961
-0.005552955768688294,0.001150451007268627,-0.01324123591449571
-0.005552615768688294,0.001281725270128709,-0.01376785283856862
-0.005552275768688293,0.001150451007268627,-0.01169429870003153
-0.005551935768688294,0.001084813875838697,-0.01054232417862203
-0.005551595768688294,0.0008879024815485748,-0.01120059533371317
-0.005551255768688293,0.001150451007268567,-0.01208926139308663
-0.005550915768688294,0.001117632441553607,-0.01231965629736811
-0.005550575768688294,0.001314543835843729,-0.01389950706958685
-0.005550235768688293,0.00147863666441907,-0.0139324206273444
-0.005549895768688294,0.001609910927278912,-0.01557809851506927
-0.005549555768688294,0.001511455230133851,-0.01807952890441561
-0.005549215768688293,0.00131454383584343,-0.01890236784827905
-0.005548875768688294,0.001150451007268627,-0.01863905938624308
-0.005548535768688294,0.001150451007268627,-0.01919858986807055
-0.005548195768688293,0.001577092361563773,-0.01900110852154123
-0.005547855768688294,0.001511455230133851,-0.01791496111564282
-0.005547515768688294,0.001511455230133851,-0.02272034054780816
-0.005547175768688293,0.001642729492993455,-0.01919858986806175
-0.005546835768688294,0.00138018096727377,-0.01436029687815065
-0.005546495768688294,0.001347362401558749,-0.01406407485835964
-0.005546155768688293,0.001248906704413927,-0.01567683918833737
-0.005545815768688294,0.00138018096727377,-0.01811244246217016
-0.005545475768688294,0.001609910927278912,-0.0185403187129794
-0.005545135768688293,0.001347362401558272,-0.01709212217177656
-0.005544795768688294,0.001084813875838697,-0.01580849341935116
-0.005544455768688294,0.0008550839158335544,-0.01633511034342408
-0.005544115768688293,0.001314543835843729,-0.0181782695776758
-0.005543775768688293,0.001314543835843729,-0.01626928322791496
-0.005543435768688294,0.001216088138698668,-0.01653259168995142
-0.005543095768688293,0.001084813875838697,-0.01715794928728759
-0.005542755768688293,0.001084813875838697,-0.01692755438300611
-0.005542415768688294,0.001019176744408656,-0.01649967813219686
-0.005542075768688294,0.001183269572983349,-0.01781622044237675
-0.005541735768688293,0.001281725270128709,-0.01738834419156991
-0.005541395768688294,0.001248906704413688,-0.01649967813219686
-0.005541055768688294,0.001248906704413688,-0.01699338149851432
-0.005540715768688293,0.000986358178693636,-0.01705920861402434
-0.005540375768688294,0.001051995310123677,-0.01508439514875091
-0.005540035768688294,0.001051995310123677,-0.01679590015198477
-0.005539695768688293,0.000986358178693636,-0.01761873909585181
-0.005539355768688294,0.0009207210472635952,-0.01827701025094295
-0.005539015768688294,0.0008550839158336737,-0.01817826957767946
-0.005538675768688293,0.0009207210472635952,-0.01936315765684333
-0.005538335768688294,0.0007566282186884932,-0.01735543063381535
-0.005537995768688294,0.0008550839158333753,-0.01768456621136032
-0.005537655768688293,0.001183269572983647,-0.01896819496378865
-0.005537315768688294,0.001117632441553607,-0.02097592198681663
-0.005536975768688294,0.001117632441553607,-0.01939607121460076
-0.005536635768688293,0.0008550839158335544,-0.01653259168995142
-0.005536295768688294,0.001051995310123677,-0.01584140697710572
-0.005535955768688294,0.001084813875838638,-0.01455777822468033
-0.005535615768688293,0.001051995310123677,-0.01946189833010701
-0.005535275768688294,0.00141299953298879,-0.01919858986807055
-0.005534935768688294,0.001478636664418711,-0.01570975274609384
-0.005534595768688293,0.001347362401558749,-0.01673007303647877
-0.005534255768688294,0.001248906704413688,-0.01564392563057838
-0.005533915768688294,0.001183269572983767,-0.01452486466692547
-0.005533575768688293,0.00141299953298879,-0.01373493928081407
-0.005533235768688294,0.00141299953298879,-0.01320832235674115
-0.005532895768688294,0.001347362401558749,-0.01327414947225027
-0.005532555768688293,0.001216088138698668,-0.01330706303000483
-0.005532215768688294,0.001117632441553607,-0.01370202572305951
-0.005531875768688294,0.0009207210472635952,-0.01459069178243255
-0.005531535768688293,0.0008550839158335544,-0.01577557986159661
-0.005531195768688294,0.001084813875838697,-0.01830992380869751
-0.005530855768688294,0.000822265350118534,-0.01886945429052498
-0.005530515768688293,0.001216088138698668,-0.01988977458091625
-0.005530175768688294,0.00138018096727377,-0.02206206939271702
-0.005529835768688294,0.001314543835843729,-0.02117340333334397
-0.005529495768688293,0.00138018096727365,-0.01715794928729082
-0.005529155768688294,0.001314543835843729,-0.01870488650175219
-0.005528815768688294,0.001117632441553607,-0.02008725592744359
-0.005528475768688293,0.001281725270129246,-0.01804661534666183
-0.005528135768688294,0.001577092361563892,-0.01847449159747029
-0.005527795768688294,0.001577092361563892,-0.01564392563057838
-0.005527455768688293,0.001347362401558331,-0.01495274091774406
-0.005527115768688294,0.001117632441553607,-0.02120631689109853
-0.005526775768688294,0.00141299953298879,-0.01646676457444231
-0.005526435768688293,0.00138018096727371,-0.01264879187491572
-0.005526095768688294,0.001347362401558749,-0.01376785283856862
-0.005525755768688294,0.001216088138698668,-0.01373493928081407
-0.005525415768688293,0.001183269572983528,-0.01794787467340337
-0.005525075768688294,0.001117632441553607,-0.02123923044885309
-0.005524735768688294,0.001347362401558749,-0.01883654073277042
-0.005524395768688293,0.001478636664418891,-0.01791496111564659
-0.005524055768688294,0.001511455230133851,-0.01998851525417992
-0.005523715768688294,0.001281725270128709,-0.01926441698357966
-0.005523375768688293,0.001281725270129007,-0.01821118313543539
-0.005523035768688293,0.001445818098703811,-0.01906693563705232
-0.005522695768688294,0.001248906704413688,-0.02505720314838171
-0.005522355768688293,0.001117632441553905,-0.03104747065973715
-0.005522015768688293,0.001281725270128709,-0.04536486828294345
-0.005521675768688294,0.001248906704413688,-0.06738403842074214
-0.005521335768688293,0.001380180967273591,-0.09407693375974593
-0.005520995768688293,0.001281725270128709,-0.1259372576660993
-0.005520655768688294,0.001675548058708842,-0.1574026188794558
-0.005520315768688294,0.00154427379584911,-0.1874856106670663
-0.005519975768688293,0.001248906704413688,-0.2137506297552576
-0.005519635768688294,0.0009535396129786156,-0.236757206625693
-0.005519295768688294,0.0007566282186888514,-0.2524898872323427
-0.005518955768688293,0.0008550839158335544,-0.2617385969614019
-0.005518615768688294,0.000986358178693636,-0.268123827165786
-0.005518275768688294,0.001150451007268329,-0.2694074559182114
-0.005517935768688293,0.001019176744408656,-0.2686833576476134
-0.005517595768688294,0.001084813875838697,-0.2656553103341942
-0.005517255768688294,0.00124890670441339,-0.2591055123410492
-0.005516915768688293,0.00138018096727377,-0.2551558854104904
-0.005516575768688294,0.001577092361563892,-0.2499555432852704
-0.005516235768688294,0.001051995310124632,-0.236954687972244
-0.005515895768688293,0.000986358178693636,-0.2274097562233988
-0.005515555768688294,0.0008550839158335544,-0.2197738108243416
-0.005515215768688294,0.00115045100726809,-0.214770950045658
-0.005514875768688293,0.001281725270128709,-0.2095376943626743
-0.005514535768688294,0.001248906704413688,-0.1993674050165161
-0.005514195768688294,0.001150451007268806,-0.1910073613468739
-0.005513855768688293,0.00141299953298879,-0.1849512667200202
-0.005513515768688294,0.001347362401558749,-0.1797838381525547
-0.005513175768688294,0.001248906704413867,-0.1745176689118351
-0.005512835768688293,0.001544273795848872,-0.1678362166876504
-0.005512495768688294,0.001445818098703811,-0.1621750847538666
-0.005512155768688294,0.001445818098703811,-0.1581267171500561
-0.005511815768688293,0.001117632441553607,-0.1521364496387267
-0.005511475768688294,0.001314543835843729,-0.1459816143386245
-0.005511135768688294,0.001544273795848872,-0.1407154450978954
-0.005510795768688293,0.001577092361563892,-0.1354163622994117
-0.005510455768688294,0.001577092361563892,-0.1288665643062548
-0.005510115768688294,0.001117632441553607,-0.1246865424714261
-0.005509775768688293,0.001084813875838697,-0.1199469901547699
-0.005509435768688294,0.001183269572983647,-0.1153061785113773
-0.005509095768688294,0.001281725270128709,-0.1140883768744587
-0.005508755768688293,0.001544273795848752,-0.111257810907561
-0.005508415768688294,0.001478636664418831,-0.1080651958053747
-0.005508075768688294,0.00141299953298879,-0.1058599874358194
-0.005507735768688293,0.001314543835843371,-0.1023382367560762
-0.005507395768688294,0.001117632441553607,-0.09924436232715345
-0.005507055768688294,0.00141299953298879,-0.09407693375968798
-0.005506715768688293,0.001478636664418473,-0.09434024222171696
-0.005506375768688294,0.001281725270128709,-0.09022604750240479
-0.005506035768688294,0.001347362401558749,-0.08107607844663792
-0.005505695768688293,0.001084813875839234,-0.07896961075033709
-0.005505355768688294,0.00138018096727377,-0.07393383641389903
-0.005505015768688294,0.00138018096727377,-0.07472376180000839
-0.005504675768688293,0.001412999532988253,-0.07594156343691964
-0.005504335768688294,0.001117632441553607,-0.07189319583311649
-0.005503995768688294,0.001544273795848872,-0.06952341967478837
-0.005503655768688293,0.001281725270128171,-0.06945759255927661
-0.005503315768688294,0.000986358178693636,-0.06800939601807873
-0.005502975768688294,0.0009207210472635952,-0.06554087918648696
-0.005502635768688293,0.0009207210472634758,-0.06540922495546614
-0.005502295768688294,0.0008550839158335544,-0.06399394197202277
-0.005501955768688294,0.0009207210472635952,-0.06254574543082225
-0.005501615768688293,0.001216088138699026,-0.06132794379390077
-0.005501275768688293,0.00141299953298879,-0.05974809302168491
-0.005500935768688294,0.001216088138698668,-0.05625925589970185
-0.005500595768688293,0.001380180967273471,-0.05375782551035294
-0.005500255768688293,0.001216088138698668,-0.05234254252690956
-0.005499915768688294,0.0009207210472635952,-0.04957780367552676
-0.005499575768688294,0.0009863581786935165,-0.04842582915411935
-0.005499235768688293,0.001248906704413688,-0.04780047155678067
-0.005498895768688294,0.001051995310123677,-0.04737259530597143
-0.005498555768688294,0.001183269572983409,-0.04694471905516297
-0.005498215768688293,0.001281725270128709,-0.04635227501558016
-0.005497875768688294,0.001248906704413688,-0.04401541241500661
-0.005497535768688294,0.00134736240155857,-0.04299509212461719
-0.005497195768688293,0.001347362401558749,-0.04227099385401508
-0.005496855768688294,0.001117632441553607,-0.040493661735269
-0.005496515768688294,0.0009863581786938747,-0.04052657529302349
-0.005496175768688293,0.001019176744408656,-0.04269887010482432
-0.005495835768688294,0.0008550839158335544,-0.03345016037579378
-0.005495495768688294,0.001216088138698011,-0.03262732143193135
-0.005495155768688293,0.001248906704413688,-0.03200196383459326
-0.005494815768688294,0.001281725270128709,-0.03279188922070263
-0.005494475768688294,0.001281725270128709,-0.03499709759025395
-0.005494135768688293,0.001248906704413688,-0.03348307393354833
-0.005493795768688294,0.001150451007268627,-0.03213361806561149
-0.005493455768688294,0.001117632441553666,-0.03239692652764747
-0.005493115768688293,0.001248906704413688,-0.03361472816456656
-0.005492775768688294,0.001150451007268627,-0.03302228412498454
-0.005492435768688294,0.001084813875838817,-0.03203487739234961
-0.005492095768688293,0.001084813875838697,-0.03246275364315706
-0.005491755768688294,0.001445818098703811,-0.03055376729339275
-0.005491415768688294,0.001314543835843968,-0.02808525046180546
-0.005491075768688293,0.001117632441553607,-0.02732823863344615
-0.005490735768688294,0.001117632441553607,-0.02719658440242792
-0.005490395768688294,0.0008879024815485748,-0.02604460988101842
-0.005490055768688293,0.0007894467844035136,-0.02518885737939994
-0.005489715768688294,0.001150451007268627,-0.0261433505542821
-0.005489375768688294,0.001248906704413688,-0.0270649301714097
-0.005489035768688293,0.001183269572983647,-0.02643957257407311
-0.005488695768688294,0.0009535396129786156,-0.02755863353772805
-0.005488355768688294,0.000822265350118534,-0.02620917766979121
-0.005488015768688293,0.000723809652974428,-0.02676870815161952
-0.005487675768688294,0.001248906704413688,-0.02722949796018248
-0.005487335768688294,0.0009535396129786156,-0.02801942334629185
-0.005486995768688293,0.001019176744409671,-0.02663705392060058
-0.005486655768688294,0.001577092361563892,-0.02670288103610957
-0.005486315768688294,0.001314543835843729,-0.02647248613182767
-0.005485975768688293,0.001150451007268448,-0.02732823863343412
-0.005485635768688294,0.001051995310123677,-0.02071261352478018
-0.005485295768688294,0.001019176744408656,-0.01863905938624308
-0.005484955768688293,0.001019176744408418,-0.01640093745893715
-0.005484615768688294,0.0008879024815485748,-0.01857323227073396
-0.005484275768688294,0.0007566282186884932,-0.02137088467987132
-0.005483935768688293,0.0008879024815488732,-0.01060815129414701
-0.005483595768688294,0.001051995310123677,-0.01933024409908878
-0.005483255768688294,0.0008879024815485748,-0.02087718131355296
-0.005482915768688293,0.0009207210472639534,-0.02071261352478054
-0.005482575768688294,0.001117632441553607,-0.02091009487130752
-0.005482235768688294,0.001084813875838697,-0.0215354524686441
-0.005481895768688293,0.001183269572983647,-0.01988977458091739
-0.005481555768688294,0.001183269572983647,-0.02051513217825283
-0.005481215768688294,0.001019176744408656,-0.02173293381517144
-0.005480875768688293,0.0009863581786936956,-0.02005434236968999
-0.005480535768688293,0.001019176744408656,-0.02058095929376194
-0.005480195768688294,0.001183269572983647,-0.0222266371814898
-0.005479855768688293,0.001019176744409015,-0.02196332871945191
-0.005479515768688293,0.001216088138698668,-0.02117340333334397
-0.005479175768688294,0.001150451007268627,-0.02117340333334397
-0.005478835768688294,0.001314543835843431,-0.02114048977558948
-0.005478495768688293,0.001314543835843729,-0.01903402207929776
-0.005478155768688294,0.0009207210472635952,-0.02051513217825283
-0.005477815768688294,0.0006253539558289489,-0.01834283736645602
-0.005477475768688293,0.0008550839158335544,-0.01814535601992472
-0.005477135768688294,0.000986358178693636,-0.01857323227073396
-0.005476795768688294,0.0009535396129786753,-0.01722377640279957
-0.005476455768688293,0.001281725270128709,-0.01465651889794167
-0.005476115768688294,0.001347362401558749,-0.01705920861402434
-0.005475775768688294,0.001084813875839175,-0.0222924642969894
-0.005475435768688293,0.0007566282186884932,-0.01320832235674115
-0.005475095768688294,0.0007566282186884932,-0.01330706303000483
-0.005474755768688294,0.0008550839158333753,-0.01179303937329795
-0.005474415768688293,0.001281725270128709,-0.01304375456796837
-0.005474075768688294,0.001511455230133851,-0.01824409669318839
-0.005473735768688294,0.001117632441554323,-0.01784913400013443
-0.005473395768688293,0.0008550839158335544,-0.01541353072629648
-0.005473055768688294,0.00141299953298879,-0.01758582553809725
-0.005472715768688294,0.001478636664418711,-0.02008725592743904
-0.005472375768688293,0.001544273795848872,-0.01620345611240585
-0.005472035768688294,0.001248906704413688,-0.01649967813219686
-0.005471695768688294,0.001216088138698727,-0.01689464082525083
-0.005471355768688293,0.001117632441553607,-0.01633511034342408
-0.005471015768688294,0.001084813875838697,-0.01649967813219686
-0.005470675768688294,0.001511455230133075,-0.01758582553809528
-0.005470335768688293,0.001347362401558749,-0.01725668996055168
-0.005469995768688294,0.001117632441553607,-0.01600597476587851
-0.005469655768688294,0.0009535396129786156,-0.01844157803971573
-0.005469315768688293,0.001281725270128709,-0.01775039332687003
-0.005468975768688294,0.001248906704413688,-0.01653259168995142
-0.005468635768688294,0.001347362401558749,-0.01689464082525155
-0.005468295768688293,0.001084813875838697,-0.01830992380869751
-0.005467955768688294,0.001019176744408656,-0.01784913400013371
-0.005467615768688294,0.001019176744408656,-0.01755291198034269
-0.005467275768688293,0.001117632441553607,-0.01791496111564282
