Analysis/files/cmb03_d2s01/wrd05_ch18.csv

#Digilent WaveForms Oscilloscope Acquisition
#Device Name: ADP3450
#Serial Number: SN:210018B9D9B0
#Date Time: 2024-08-09 15:44:04.705.479.320
#Sample rate: 2.94118e+06Hz
#Samples: 32768
#Trigger: Source: Channel 3 Type: Edge Condition: Rising Level: 20 mV Hyst.: Auto HoldOff: 0 s
#Channel 3: Range: 200 mV/div Offset: 0 V Attenuation: 1 X Coupling: DC Bandwidth: 0 Hz Sample Mode: Average

Time (s),Channel 3 (V)
-0.005570404475247526,0.007033515662311467
-0.005570064475247525,0.001471124401791615
-0.005569724475247525,0.001635692190564101
-0.005569384475247526,0.005091615754792597
-0.005569044475247525,0.003083888731762398
-0.005568704475247525,0.001866087094846001
-0.005568364475247525,0.003413024309310185
-0.005568024475247525,0.003215542962777514
-0.005567684475247525,0.0002862363226272596
-0.005567344475247525,0.0005166312269091594
-0.005567004475247525,2.292786058786915e-05
-0.005566664475247525,-0.001589836469382495
-0.005566324475247525,-0.002248107624473638
-0.005565984475247525,-0.002149366951211284
-0.005565644475247525,-0.002873465221810222
-0.005565304475247525,-0.001524009353873381
-0.005564964475247525,-0.0003062077169571032
-0.005564624475247525,-0.001589836469382495
-0.005564284475247525,-0.001491095796118824
-0.005563944475247525,-0.0005695161789943384
-0.005563604475247525,-0.002281021182228195
-0.005563264475247525,-0.003432995703637694
-0.005562924475247526,-0.001787317815912832
-0.005562584475247525,-0.000832824641027682
-0.005562244475247525,-0.002774724548546551
-0.005561904475247526,-0.002708897433037557
-0.005561564475247525,-0.00619773455502049
-0.005561224475247525,-0.01001570725454911
-0.005560884475247526,-0.003893785512212629
-0.005560544475247525,-0.004288748205256179
-0.005560204475247525,-0.004222921089747064
-0.005559864475247526,-0.00570403118869944
-0.005559524475247525,-0.00837002936682126
-0.005559184475247525,-0.007975066673766575
-0.005558844475247526,-0.004650797340562353
-0.005558504475247525,-0.006461043017056948
-0.005558164475247525,-0.00767884465397556
-0.005557824475247526,-0.006098993881759693
-0.005557484475247525,-0.005605290515438462
-0.005557144475247525,-0.007152227729902647
-0.005556804475247526,-0.008567510713346028
-0.005556464475247525,-0.006296475228284162
-0.005556124475247525,-0.008106720904784802
-0.005555784475247526,-0.008271288693557288
-0.005555444475247525,-0.008073807347030245
-0.005555104475247525,-0.008402942924575817
-0.005554764475247526,-0.007810498884994866
-0.005554424475247525,-0.006954746383375304
-0.005554084475247525,-0.007448449749693661
-0.005553744475247526,-0.007810498884993789
-0.005553404475247525,-0.006823092152357076
-0.005553064475247525,-0.005934426092984033
-0.005552724475247526,-0.00619773455502049
-0.005552384475247525,-0.006164820997265934
-0.005552044475247525,-0.005638204073193019
-0.005551704475247526,-0.007744671769484675
-0.005551364475247525,-0.009620744561503171
-0.005551024475247525,-0.01442612399365977
-0.005550684475247526,-0.01245131052838634
-0.005550344475247525,-0.009357436099458154
-0.005550004475247525,-0.009456176772721644
-0.005549664475247526,-0.008995386964157845
-0.005549324475247525,-0.01330706303000357
-0.005548984475247525,-0.01261587831715913
-0.005548644475247526,-0.01199052071982254
-0.005548304475247525,-0.01136516312248817
-0.005547964475247525,-0.01258296475940457
-0.005547624475247525,-0.01357037149204128
-0.005547284475247525,-0.01251713764389504
-0.005546944475247525,-0.01228674273961356
-0.005546604475247525,-0.01261587831715913
-0.005546264475247525,-0.01403116130060089
-0.005545924475247525,-0.01172721225778608
-0.005545584475247525,-0.01406407485835964
-0.005545244475247525,-0.01304375456796592
-0.005544904475247525,-0.01169429870003153
-0.005544564475247525,-0.01143099023799507
-0.005544224475247525,-0.01090437331391773
-0.005543884475247525,-0.008468770040084931
-0.005543544475247525,-0.007415536191939104
-0.005543204475247525,-0.008007980231521312
-0.005542864475247525,-0.008106720904784802
-0.005542524475247525,-0.008666251386612273
-0.005542184475247526,-0.01054232417861862
-0.005541844475247525,-0.01264879187491368
-0.005541504475247525,-0.01258296475940457
-0.005541164475247526,-0.01297792745245854
-0.005540824475247525,-0.01350454437653217
-0.005540484475247525,-0.01804661534666105
-0.005540144475247526,-0.01018027504333621
-0.005539804475247525,-0.008896646290894173
-0.005539464475247525,-0.007053487056638975
-0.005539124475247526,-0.006691437921339505
-0.005538784475247525,-0.0129450138947047
-0.005538444475247525,-0.01126642244922228
-0.005538104475247526,-0.01008153437006038
-0.005537764475247525,-0.01166138514227697
-0.005537424475247525,-0.01189178004655887
-0.005537084475247526,-0.007876326000510206
-0.005536744475247525,-0.01014736148556734
-0.005536404475247525,-0.01274753254817735
-0.005536064475247526,-0.01133224956473397
-0.005535724475247525,-0.01231965629736811
-0.005535384475247525,-0.01008153437005823
-0.005535044475247526,-0.009752398792513257
-0.005534704475247525,-0.009456176772721644
-0.005534364475247525,-0.006954746383375304
-0.005534024475247526,-0.007185141287656785
-0.005533684475247525,-0.007613017538466446
-0.005533344475247525,-0.007580103980711889
-0.005533004475247526,-0.007349709076429989
-0.005532664475247525,-0.01054232417862203
-0.005532324475247525,-0.01235256985512267
-0.005531984475247526,-0.01176012581554064
-0.005531644475247525,-0.01281335966368647
-0.005531304475247525,-0.01307666812572293
-0.005530964475247526,-0.01258296475940457
-0.005530624475247525,-0.01251713764389546
-0.005530284475247525,-0.01663133236321509
-0.005529944475247526,-0.01531479005303281
-0.005529604475247525,-0.00721805484541691
-0.005529264475247525,-0.01004862081230367
-0.005528924475247526,-0.01278044610593191
-0.005528584475247525,-0.01090437331392138
-0.005528244475247525,-0.01047649706311291
-0.005527904475247526,-0.009752398792512659
-0.005527564475247525,-0.01004862081230505
-0.005527224475247525,-0.01080563264065849
-0.005526884475247525,-0.0104106699476038
-0.005526544475247525,-0.009719485234759299
-0.005526204475247525,-0.01037775638984924
-0.005525864475247525,-0.01060815129413114
-0.005525524475247525,-0.01103602754494404
-0.005525184475247525,-0.01304375456796837
-0.005524844475247525,-0.01120059533371317
-0.005524504475247525,-0.01189178004656288
-0.005524164475247525,-0.0140969884161142
-0.005523824475247525,-0.01350454437653217
-0.005523484475247525,-0.01264879187491632
-0.005523144475247525,-0.0140969884161142
-0.005522804475247525,-0.01742125774932446
-0.005522464475247525,-0.02120631689111847
-0.005522124475247525,-0.03216653162336605
-0.005521784475247525,-0.04829417492309903
-0.005521444475247525,-0.07037917217646755
-0.005521104475247525,-0.1037535197395278
-0.005520764475247525,-0.1312363404645829
-0.005520424475247526,-0.1634916270639902
-0.005520084475247525,-0.1929492612543775
-0.005519744475247525,-0.22062956332596
-0.005519404475247526,-0.2469274959718034
-0.005519064475247525,-0.2607841037865197
-0.005518724475247525,-0.2691770610139318
-0.005518384475247526,-0.2730937743867169
-0.005518044475247525,-0.2746077980434337
-0.005517704475247525,-0.2713493558257326
-0.005517364475247526,-0.2653920018721685
-0.005517024475247525,-0.2595663021496011
-0.005516684475247525,-0.2531152448297079
-0.005516344475247526,-0.246367965490036
-0.005516004475247525,-0.2378433540315934
-0.005515664475247525,-0.2307669391143636
-0.005515324475247526,-0.220333341306188
-0.005514984475247525,-0.2125986552338481
-0.005514644475247525,-0.2072008317621007
-0.005514304475247526,-0.1989724423234764
-0.005513964475247525,-0.1916327189441952
-0.005513624475247525,-0.1874197835516119
-0.005513284475247526,-0.1824827498884374
-0.005512944475247525,-0.1742543604497891
-0.005512604475247525,-0.1687248827470235
-0.005512264475247526,-0.1644132066811765
-0.005511924475247525,-0.1576659273414923
-0.005511584475247525,-0.1526630665627996
-0.005511244475247526,-0.1470677617445249
-0.005510904475247525,-0.1443688500086512
-0.005510564475247525,-0.1415711975995139
-0.005510224475247526,-0.1308084642137737
-0.005509884475247525,-0.1248181967024443
-0.005509544475247525,-0.118597534286833
-0.005509204475247526,-0.1184987936135694
-0.005508864475247525,-0.1168202021680778
-0.005508524475247525,-0.1117844278316397
-0.005508184475247526,-0.1072423568615108
-0.005507844475247525,-0.1049384078186853
-0.005507504475247525,-0.1013508300234451
-0.005507164475247526,-0.09894814030736243
-0.005506824475247525,-0.09611757434046331
-0.005506484475247525,-0.09216794740992365
-0.005506144475247526,-0.09012730682914111
-0.005505804475247525,-0.08502570537717866
-0.005505464475247525,-0.08166852248621995
-0.005505124475247525,-0.0806152886380741
-0.005504784475247525,-0.07738975997812184
-0.005504444475247525,-0.07426297199144458
-0.005504104475247525,-0.07495415670429029
-0.005503764475247525,-0.07324265170104817
-0.005503424475247525,-0.07041208573416141
-0.005503084475247525,-0.06863475361541532
-0.005502744475247525,-0.06744986553624444
-0.005502404475247525,-0.06369771995223175
-0.005502064475247525,-0.06126211667839453
-0.005501724475247525,-0.06027470994575171
-0.005501384475247525,-0.05691752705479299
-0.005501044475247525,-0.05438318310769209
-0.005500704475247525,-0.05257293743119355
-0.005500364475247525,-0.05372491195260096
-0.005500024475247525,-0.05273750521996424
-0.005499684475247526,-0.04631936145783729
-0.005499344475247525,-0.04365336327970648
-0.005499004475247525,-0.04019743971547798
-0.005498664475247526,-0.04260012943155628
-0.005498324475247525,-0.04552943607171624
-0.005497984475247525,-0.04220516673850597
-0.005497644475247526,-0.03986830413793666
-0.005497304475247525,-0.04181020404545128
-0.005496964475247525,-0.03904546519406848
-0.005496624475247526,-0.03631363990044521
-0.005496284475247525,-0.03512875182127619
-0.005495944475247525,-0.0328906298939663
-0.005495604475247526,-0.0340755179731282
-0.005495264475247525,-0.03420717220414859
-0.005494924475247525,-0.03417425864639403
-0.005494584475247526,-0.03503001114801096
-0.005494244475247525,-0.03677442970900404
-0.005493904475247525,-0.03618198566942202
-0.005493564475247526,-0.03601741788064953
-0.005493224475247525,-0.0356553687453491
-0.005492884475247525,-0.03381220951109391
-0.005492544475247526,-0.03348307393354893
-0.005492204475247525,-0.03295645700947542
-0.005491864475247525,-0.03242984008540251
-0.005491524475247526,-0.03025754527360569
-0.005491184475247525,-0.03111329777522022
-0.005490844475247525,-0.02917139786770135
-0.005490504475247526,-0.02242411852801714
-0.005490164475247525,-0.02841438603934654
-0.005489824475247525,-0.03275897566294807
-0.005489484475247526,-0.02492554891736349
-0.005489144475247525,-0.02225955073924436
-0.005488804475247525,-0.02206206939271702
-0.005488464475247526,-0.01988977458091625
-0.005488124475247525,-0.02324695747187963
-0.005487784475247525,-0.0224570320857717
-0.005487444475247526,-0.0190011085215432
-0.005487104475247525,-0.01725668996055545
-0.005486764475247525,-0.01933024409908878
-0.005486424475247526,-0.01847449159747029
-0.005486084475247525,-0.01988977458091966
-0.005485744475247525,-0.021765847372926
-0.005485404475247526,-0.02189750160394423
-0.005485064475247525,-0.02387231506921898
-0.005484724475247525,-0.02459641333981791
-0.005484384475247525,-0.02416853708900867
-0.005484044475247525,-0.02347735237616645
-0.005483704475247525,-0.02538633872592728
-0.005483364475247525,-0.02390522862697221
-0.005483024475247525,-0.02163419314190634
-0.005482684475247525,-0.0208442677557984
-0.005482344475247525,-0.01946189833010701
-0.005482004475247525,-0.01873780005950603
-0.005481664475247525,-0.01834283736645206
-0.005481324475247525,-0.01830992380869751
-0.005480984475247525,-0.01610471543914326
-0.005480644475247525,-0.01669715947872421
-0.005480304475247525,-0.01689464082525155
-0.005479964475247525,-0.01557809851507435
-0.005479624475247525,-0.01837575092420662
-0.005479284475247525,-0.0222266371814898
-0.005478944475247526,-0.01426155620490147
-0.005478604475247525,-0.01324123591449571
-0.005478264475247525,-0.0129450138947047
-0.005477924475247526,-0.01600597476587294
-0.005477584475247525,-0.0136361986075504
-0.005477244475247525,-0.0117930393732952
-0.005476904475247526,-0.01185886648880419
-0.005476564475247525,-0.0129450138947047
-0.005476224475247525,-0.01607180188138762
-0.005475884475247526,-0.01936315765683734
-0.005475544475247525,-0.01505148159099635
-0.005475204475247525,-0.01689464082525155
-0.005474864475247526,-0.0211075762178272
-0.005474524475247525,-0.01702629505626978
-0.005474184475247525,-0.01623636967016041
-0.005473844475247526,-0.01722377640279532
-0.005473504475247525,-0.01478817312895989
-0.005473164475247525,-0.01692755438300611
-0.005472824475247526,-0.01271461899043046
-0.005472484475247525,-0.007975066673766575
-0.005472144475247525,-0.0143273833203961
-0.005471804475247526,-0.01715794928728286
-0.005471464475247525,-0.01429446976264154
-0.005471124475247525,-0.01495274091773268
-0.005470784475247526,-0.01663133236321204
-0.005470444475247525,-0.01403116130060508
-0.005470104475247525,-0.01419572908937787
-0.005469764475247526,-0.01554518495731471
-0.005469424475247525,-0.01416281553162331
-0.005469084475247525,-0.01383367995407774
-0.005468744475247526,-0.0140969884161142
-0.005468404475247525,-0.01347163081877761
-0.005468064475247525,-0.01136516312248596
-0.005467724475247526,-0.01182595293104976
-0.005467384475247525,-0.01176012581554064
-0.005467044475247525,-0.01067397840964026
-0.005466704475247526,-0.01113476821820406
-0.005466364475247525,-0.01162847158452074
-0.005466024475247525,-0.01070689196739481
-0.005465684475247526,-0.01199052071982254
-0.005465344475247525,-0.01166138514227703
-0.005465004475247525,-0.01169429870003153
-0.005464664475247526,-0.01245131052838634
-0.005464324475247525,-0.01310958168347473
-0.005463984475247525,-0.01159555802676786
-0.005463644475247526,-0.01350454437653217
-0.005463304475247525,-0.01742125774930913
-0.005462964475247525,-0.008995386964157845
-0.005462624475247525,-0.008863732733139616
-0.005462284475247525,-0.008468770040083673
-0.005461944475247525,-0.007777585327239231
-0.005461604475247525,-0.01205634783533165
-0.005461264475247525,-0.01248422408613581
-0.005460924475247525,-0.009686571677003543
-0.005460584475247525,-0.01050941062086747
-0.005460244475247525,-0.01245131052838197
-0.005459904475247525,-0.01004862081230367
-0.005459564475247525,-0.01189178004655887
-0.005459224475247525,-0.01297792745245812
-0.005458884475247525,-0.01235256985512267
-0.005458544475247525,-0.01192469360431343
-0.005458204475247525,-0.01432738332039664
-0.005457864475247525,-0.01462360534018711
-0.005457524475247525,-0.01442612399365977
-0.005457184475247526,-0.0151831358220132
-0.005456844475247525,-0.01600597476587851
-0.005456504475247525,-0.01488691380222357
-0.005456164475247526,-0.01459069178243309
-0.005455824475247525,-0.01518313582201458
-0.005455484475247525,-0.0143273833203961
-0.005455144475247526,-0.01538061716854001
-0.005454804475247525,-0.01626928322791496
-0.005454464475247525,-0.01663133236321509
-0.005454124475247526,-0.01709212217177805
-0.005453784475247525,-0.01771747976911548
-0.005453444475247525,-0.01715794928728801
-0.005453104475247526,-0.01919858986806684
-0.005452764475247525,-0.02156836602639866
-0.005452424475247525,-0.01238548341287723
-0.005452084475247526,-0.01307666812572167
-0.005451744475247525,-0.0120234342775771
-0.005451404475247525,-0.01439321043590521
-0.005451064475247526,-0.0156768391883306
-0.005450724475247525,-0.01320832235674115
-0.005450384475247525,-0.01146390379574963
-0.005450044475247526,-0.01113476821820466
-0.005449704475247525,-0.01228674273961356
-0.005449364475247525,-0.008732078502121389
-0.005449024475247526,-0.008863732733139376
-0.005448684475247525,-0.009587831003739873
-0.005448344475247525,-0.009522003888230759
-0.005448004475247526,-0.008040893789275689
-0.005447664475247525,-0.009785312350267215
-0.005447324475247525,-0.01327414947225027
-0.005446984475247526,-0.0111018546604495
-0.005446644475247525,-0.01235256985512267
-0.005446304475247525,-0.01278044610593191
-0.005445964475247526,-0.01291210033695014
-0.005445624475247525,-0.0139653341850989
-0.005445284475247525,-0.01557809851506927
-0.005444944475247526,-0.01320832235674115
-0.005444604475247525,-0.01511730870650439
-0.005444264475247525,-0.01452486466692344
-0.005443924475247526,-0.007020573498884419
-0.005443584475247525,-0.01370202572305975
-0.005443244475247525,-0.01383367995407774
-0.005442904475247526,-0.01310958168347748
-0.005442564475247525,-0.0158414069770959
-0.005442224475247525,-0.01044358350535836
-0.005441884475247525,-0.007613017538466446
-0.005441544475247525,-0.007250968403168952
-0.005441204475247525,-0.00869916494436683
-0.005440864475247525,-0.01291210033695014
-0.005440524475247525,-0.01202343427757644
-0.005440184475247525,-0.01166138514227697
-0.005439844475247525,-0.01083854619841304
-0.005439504475247525,-0.01001570725454983
-0.005439164475247525,-0.0104106699476038
-0.005438824475247525,-0.009686571677003543
-0.005438484475247525,-0.009456176772722901
-0.005438144475247525,-0.01014736148556734
-0.005437804475247525,-0.01159555802676786
-0.005437464475247525,-0.01083854619841478
-0.005437124475247525,-0.0117930393732952
-0.005436784475247525,-0.01281335966368647
-0.005436444475247526,-0.01047649706311717
-0.005436104475247525,-0.01123350889146773
-0.005435764475247525,-0.01327414947225027
-0.005435424475247526,-0.01426155620488519
-0.005435084475247525,-0.01307666812572293
-0.005434744475247525,-0.01406407485835964
-0.005434404475247526,-0.01353745793428768
-0.005434064475247525,-0.01357037149204128
-0.005433724475247525,-0.01498565447548724
-0.005433384475247526,-0.01274753254818143
-0.005433044475247525,-0.01222091562410444
-0.005432704475247525,-0.01393242062734141
-0.005432364475247526,-0.01709212217177315
-0.005432024475247525,-0.01814535601992472
-0.005431684475247525,-0.0117930393732952
-0.005431344475247526,-0.01271461899042112
-0.005431004475247525,-0.01136516312248596
-0.005430664475247525,-0.01508439514875091
-0.005430324475247526,-0.0151831358220144
-0.005429984475247525,-0.0129450138947047
-0.005429644475247525,-0.01235256985512267
-0.005429304475247526,-0.01386659351182954
-0.005428964475247525,-0.01205634783533165
-0.005428624475247525,-0.01215508850859533
-0.005428284475247526,-0.0136361986075477
-0.005427944475247525,-0.01182595293104976
-0.005427604475247525,-0.01136516312248596
-0.005427264475247526,-0.01149681735350419
-0.005426924475247525,-0.009719485234758102
-0.005426584475247525,-0.01106894110269494
-0.005426244475247526,-0.01195760716206798
-0.005425904475247525,-0.01116768177595861
-0.005425564475247525,-0.01008153437005823
-0.005425224475247526,-0.01199052071982254
-0.005424884475247525,-0.01310958168347748
-0.005424544475247525,-0.01212217495084077
-0.005424204475247526,-0.01333997658775938
-0.005423864475247525,-0.01389950706958524
-0.005423524475247525,-0.01301084101021381
-0.005423184475247526,-0.01449195110916888
-0.005422844475247525,-0.01327414947224973
-0.005422504475247525,-0.01297792745245925
-0.005422164475247526,-0.01324123591449571
-0.005421824475247525,-0.01751999842258466
-0.005421484475247525,-0.01561101207282382
-0.005421144475247525,-0.009587831003739873
-0.005420804475247525,-0.009587831003735203
-0.005420464475247525,-0.007020573498884419
-0.005420124475247525,-0.01149681735350419
-0.005419784475247525,-0.01508439514874588
-0.005419444475247525,-0.01231965629736811
-0.005419104475247525,-0.01264879187491368
-0.005418764475247525,-0.01607180188138654
-0.005418424475247525,-0.01547935784180559
-0.005418084475247525,-0.01511730870650547
-0.005417744475247525,-0.01590723409261382
-0.005417404475247525,-0.01534770361078737
-0.005417064475247525,-0.01475525957120534
-0.005416724475247525,-0.01491982735997603
-0.005416384475247525,-0.01376785283856862
-0.005416044475247525,-0.01258296475940457
