Analysis/files/cmb03_d2s01/wrd02_ch20.csv

#Digilent WaveForms Oscilloscope Acquisition
#Device Name: ADP3450
#Serial Number: SN:210018B9D9B0
#Date Time: 2024-08-09 12:03:20.615.233.240
#Sample rate: 2.94118e+06Hz
#Samples: 32768
#Trigger: Source: Channel 3 Type: Edge Condition: Rising Level: 20 mV Hyst.: Auto HoldOff: 0 s
#Channel 3: Range: 200 mV/div Offset: 0 V Attenuation: 1 X Coupling: DC Bandwidth: 0 Hz Sample Mode: Average

Time (s),Channel 3 (V)
-0.005570528476821193,0.00811966306821185
-0.005570188476821192,0.009041242685336756
-0.005569848476821192,0.00756013258638438
-0.005569508476821193,0.006836034315784124
-0.005569168476821192,0.006309417391713305
-0.005568828476821192,0.007461391913120709
-0.005568488476821193,0.006408158064974882
-0.005568148476821192,0.007033515662311467
-0.005567808476821192,0.007033515662311467
-0.005567468476821193,0.005124529312547154
-0.005567128476821192,0.005980281814164741
-0.005566788476821192,0.005486578447847282
-0.005566448476821193,0.004729566619492469
-0.005566108476821192,0.005025788639285099
-0.005565768476821192,0.005914454698656525
-0.005565428476821193,0.00482830729275614
-0.005565088476821192,0.005420751332338886
-0.005564748476821192,0.005815714025392853
-0.005564408476821193,0.004137122579910441
-0.005564068476821192,0.002491444692183005
-0.005563728476821192,0.002721839596464486
-0.005563388476821193,-0.003465909261392251
-0.005563048476821193,-0.003992526185464207
-0.005562708476821192,0.001569865075054987
-0.005562368476821193,-0.0001087263704274257
-0.005562028476821193,-9.985697163933971e-06
-0.005561688476821192,-0.003169687241601236
-0.005561348476821193,-0.00392669906995605
-0.005561008476821193,-0.002149366951213199
-0.005560668476821192,-0.0007011704100094536
-0.005560328476821193,-0.0006353432945003394
-0.005559988476821193,-0.002149366951207212
-0.005559648476821192,-0.0005695161789912252
-0.005559308476821193,-4.289925491831147e-05
-0.005558968476821193,-0.002182280508960632
-0.005558628476821192,-0.003795044838937822
-0.005558288476821193,-0.004091266858728836
-0.005557948476821193,-0.00534198205339973
-0.005557608476821192,-0.007316795518675433
-0.005557268476821193,-0.007382622634184546
-0.005556928476821193,-0.008370029366819465
-0.005556588476821192,-0.006954746383375304
-0.005556248476821193,-0.005704031188702134
-0.005555908476821193,-0.005473636284420653
-0.005555568476821192,-0.005374895611156563
-0.005555228476821193,-0.005802771861965805
-0.005554888476821193,-0.005605290515438822
-0.005554548476821192,-0.007316795518675433
-0.005554208476821192,-0.007053487056638975
-0.005553868476821193,-0.007711758211730118
-0.005553528476821192,-0.009489090330476201
-0.005553188476821192,-0.009061214079666959
-0.005552848476821193,-0.01314249524123204
-0.005552508476821192,-0.007810498884993789
-0.005552168476821192,-0.005144500706874663
-0.005551828476821193,0.0001545820916090312
-0.005551488476821192,-0.001721490700413476
-0.005551148476821192,-0.008732078502121389
-0.005550808476821193,-0.006625610805829733
-0.005550468476821192,-0.004848278687084547
-0.005550128476821192,-0.005341982053402005
-0.005549788476821193,-0.003860871954446936
-0.005549448476821192,-0.005473636284420115
-0.005549108476821192,-0.00540780916891112
-0.005548768476821193,-0.005506549842174791
-0.005548428476821192,-0.007415536191939164
-0.005548088476821192,-0.007448449749693661
-0.005547748476821193,-0.008962473406403288
-0.005547408476821192,-0.009653658119250843
-0.005547068476821192,-0.01067397840964026
-0.005546728476821193,-0.008172548020293918
-0.005546388476821192,-0.009456176772720266
-0.005546048476821192,-0.00869916494436683
-0.005545708476821193,-0.007283881960920875
-0.005545368476821192,-0.008205461578049791
-0.005545028476821192,-0.008929559848648731
-0.005544688476821193,-0.007580103980711889
-0.005544348476821192,-0.006395215901550467
-0.005544008476821192,-0.007843412442748346
-0.005543668476821193,-0.008040893789275689
-0.005543328476821192,-0.008567510713348903
-0.005542988476821192,-0.008732078502121389
-0.005542648476821193,-0.0111018546604495
-0.005542308476821193,-0.01172721225778495
-0.005541968476821192,-0.005111587149120106
-0.005541628476821193,-0.008205461578048474
-0.005541288476821193,-0.01057523773637228
-0.005540948476821192,-0.009061214079666959
-0.005540608476821193,-0.008073807347030245
-0.005540268476821193,-0.007876326000503262
-0.005539928476821192,-0.007744671769484675
-0.005539588476821193,-0.007975066673766575
-0.005539248476821193,-0.006856005710113668
-0.005538908476821192,-0.008304202251312145
-0.005538568476821193,-0.008896646290894173
-0.005538228476821193,-0.008699164944367189
-0.005537888476821192,-0.008205461578048474
-0.005537548476821193,-0.008863732733139616
-0.005537208476821193,-0.008402942924576655
-0.005536868476821192,-0.007185141287657204
-0.005536528476821193,-0.008304202251312145
-0.005536188476821193,-0.006263561670533317
-0.005535848476821192,-0.006493956574811504
-0.005535508476821193,-0.007185141287657204
-0.005535168476821193,-0.005539463399932341
-0.005534828476821192,-0.006098993881756819
-0.005534488476821193,-0.007613017538466446
-0.005534148476821193,-0.008666251386610358
-0.005533808476821192,-0.008040893789275689
-0.005533468476821192,-0.0101802750433219
-0.005533128476821193,-0.01060815129413114
-0.005532788476821192,-0.01077271908290393
-0.005532448476821192,-0.01136516312248596
-0.005532108476821193,-0.01287918677919558
-0.005531768476821192,-0.0113322495647314
-0.005531428476821192,-0.01050941062086747
-0.005531088476821193,-0.0106410648518857
-0.005530748476821192,-0.004782451571574535
-0.005530408476821192,-0.009028300521912402
-0.005530068476821193,-0.0124842240861409
-0.005529728476821192,-0.007547190422955356
-0.005529388476821192,-0.006461043017056948
-0.005529048476821193,-0.00860042427110316
-0.005528708476821192,-0.008238375135801774
-0.005528368476821192,-0.007547190422957332
-0.005528028476821193,-0.008896646290894173
-0.005527688476821192,-0.007316795518675313
-0.005527348476821192,-0.007250968403166318
-0.005527008476821193,-0.008764992059875945
-0.005526668476821192,-0.009028300521911862
-0.005526328476821192,-0.008732078502121389
-0.005525988476821193,-0.009094127637421515
-0.005525648476821192,-0.008271288693557527
-0.005525308476821192,-0.008238375135803031
-0.005524968476821193,-0.008139634462539359
-0.005524628476821192,-0.007678844653973764
-0.005524288476821192,-0.006691437921338847
-0.005523948476821193,-0.007645931096221003
-0.005523608476821192,-0.008402942924575637
-0.005523268476821192,-0.008304202251312145
-0.005522928476821193,-0.01120059533371317
-0.005522588476821192,-0.01663133236323203
-0.005522248476821192,-0.02594586920775475
-0.005521908476821193,-0.04306091924012445
-0.005521568476821192,-0.06981964169461734
-0.005521228476821192,-0.09068683731096858
-0.005520888476821193,-0.1182683987092874
-0.005520548476821193,-0.1492400565562693
-0.005520208476821192,-0.1768874450701537
-0.005519868476821193,-0.2058842894519185
-0.005519528476821193,-0.2257640783356348
-0.005519188476821192,-0.2360660219128473
-0.005518848476821193,-0.2417271538466312
-0.005518508476821193,-0.2444589791402544
-0.005518168476821192,-0.239061155668512
-0.005517828476821193,-0.2319518271935277
-0.005517488476821193,-0.2251716342961013
-0.005517148476821192,-0.2160545787980766
-0.005516808476821193,-0.2091427316696196
-0.005516468476821193,-0.2057855487786609
-0.005516128476821192,-0.202132143867899
-0.005515788476821193,-0.1988078745346887
-0.005515448476821193,-0.1975900728977723
-0.005515108476821192,-0.1961418763565696
-0.005514768476821193,-0.1932454832741685
-0.005514428476821193,-0.1916327189441982
-0.005514088476821192,-0.189493337690149
-0.005513748476821193,-0.1841942548916653
-0.005513408476821193,-0.1808699855584611
-0.005513068476821192,-0.1766241366081172
-0.005512728476821192,-0.1707326097700515
-0.005512388476821193,-0.1654993540870769
-0.005512048476821192,-0.1602002712885932
-0.005511708476821192,-0.1547037071435822
-0.005511368476821193,-0.1503920310777352
-0.005511028476821192,-0.1525972394472905
-0.005510688476821192,-0.1398267790385224
-0.005510348476821193,-0.1343302148935113
-0.005510008476821192,-0.1307426370982646
-0.005509668476821192,-0.1280108118046364
-0.005509328476821193,-0.1264309610324176
-0.005508988476821192,-0.1225142476596151
-0.005508648476821192,-0.116886029283596
-0.005508308476821193,-0.1075714924390564
-0.005507968476821192,-0.1079335415743533
-0.005507628476821192,-0.1061562094556104
-0.005507288476821193,-0.1010875215614086
-0.005506948476821192,-0.09805947424798334
-0.005506608476821192,-0.0947352049147791
-0.005506268476821193,-0.0928262185650148
-0.005505928476821192,-0.09055518307994928
-0.005505588476821192,-0.08996273904036833
-0.005505248476821193,-0.08558523585901223
-0.005504908476821192,-0.08413703931780699
-0.005504568476821192,-0.08153686825520171
-0.005504228476821193,-0.0783113395952551
-0.005503888476821192,-0.07515163805081385
-0.005503548476821192,-0.07307808391228054
-0.005503208476821193,-0.06955633323254293
-0.005502868476821192,-0.06685742149666624
-0.005502528476821192,-0.06521174360894139
-0.005502188476821193,-0.06047219129228516
-0.005501848476821192,-0.05846446426925814
-0.005501508476821192,-0.05899108119333009
-0.005501168476821193,-0.05737831686335679
-0.005500828476821192,-0.05889234052006145
-0.005500488476821192,-0.05616051522643818
-0.005500148476821193,-0.0520792340648731
-0.005499808476821193,-0.04859039694289639
-0.005499468476821192,-0.04760299021025333
-0.005499128476821193,-0.04911701386696296
-0.005498788476821193,-0.04799795290331005
-0.005498448476821192,-0.04533195472518889
-0.005498108476821193,-0.04520030049417066
-0.005497768476821193,-0.04263304298931988
-0.005497428476821192,-0.04240264808503331
-0.005497088476821193,-0.04125067356362381
-0.005496748476821193,-0.03881507028979102
-0.005496408476821192,-0.03763018221062252
-0.005496068476821193,-0.03690608394002227
-0.005495728476821193,-0.03509583826352493
-0.005495388476821192,-0.0347337891282215
-0.005495048476821193,-0.03407551797313036
-0.005494708476821193,-0.03117912489073461
-0.005494368476821192,-0.03061959440890186
-0.005494028476821193,-0.03058668085114731
-0.005493688476821193,-0.02874352161689546
-0.005493348476821192,-0.02732823863344615
-0.005493008476821193,-0.0266041403628459
-0.005492668476821193,-0.02597878276551045
-0.005492328476821192,-0.02538633872592728
-0.005491988476821193,-0.02604460988101842
-0.005491648476821193,-0.02551799295694647
-0.005491308476821192,-0.02528759805266361
-0.005490968476821192,-0.02666996747835501
-0.005490628476821193,-0.02874352161689211
-0.005490288476821192,-0.02992840969605616
-0.005489948476821192,-0.02410270997349956
-0.005489608476821193,-0.02232537785475347
-0.005489268476821192,-0.01959355256112523
-0.005488928476821192,-0.02321404391412651
-0.005488588476821193,-0.02466224045532703
-0.005488248476821192,-0.02114048977558858
-0.005487908476821192,-0.02067969996702562
-0.005487568476821193,-0.02367483372269031
-0.005487228476821192,-0.02272034054781145
-0.005486888476821192,-0.0245305862243088
-0.005486548476821193,-0.02248994564352626
-0.005486208476821192,-0.01867197294400626
-0.005485868476821192,-0.02341152526065386
-0.005485528476821193,-0.02212789650822613
-0.005485188476821192,-0.01824409669318786
-0.005484848476821192,-0.01794787467339738
-0.005484508476821193,-0.02005434236968903
-0.005484168476821192,-0.01890236784827666
-0.005483828476821192,-0.01732251707606079
-0.005483488476821193,-0.01228674273961356
-0.005483148476821192,-0.01212217495085071
-0.005482808476821192,-0.01758582553809725
-0.005482468476821193,-0.01561101207282382
-0.005482128476821192,-0.01380076639632402
-0.005481788476821192,-0.01426155620488698
-0.005481448476821193,-0.01676298659423332
-0.005481108476821192,-0.01590723409261238
-0.005480768476821192,-0.014557778224678
-0.005480428476821193,-0.01475525957120534
-0.005480088476821192,-0.01462360534018358
-0.005479748476821192,-0.01268170543266824
-0.005479408476821193,-0.0117930393732952
-0.005479068476821193,-0.0130108410102116
-0.005478728476821192,-0.0111018546604495
-0.005478388476821193,-0.01034484283209469
-0.005478048476821193,-0.01126642244922061
-0.005477708476821192,-0.01139807668024051
-0.005477368476821193,-0.0124842240861409
-0.005477028476821193,-0.01498565447548269
-0.005476688476821192,-0.0140969884161142
-0.005476348476821193,-0.01357037149204128
-0.005476008476821193,-0.0145248646669217
-0.005475668476821192,-0.01442612399365977
-0.005475328476821193,-0.01360328504979584
-0.005474988476821193,-0.01399824774284981
-0.005474648476821192,-0.01389950706958685
-0.005474308476821193,-0.01696046794076066
-0.005473968476821193,-0.01195760716207708
-0.005473628476821192,-0.009061214079666959
-0.005473288476821193,-0.007547190422957332
-0.005472948476821193,-0.006790178594603896
-0.005472608476821192,-0.01152973091125874
-0.005472268476821193,-0.01189178004655887
-0.005471928476821193,-0.01004862081230702
-0.005471588476821192,-0.01070689196739481
-0.005471248476821193,-0.01024610215883101
-0.005470908476821193,-0.009291608983950594
-0.005470568476821192,-0.008863732733139616
-0.005470228476821192,-0.008271288693557588
-0.005469888476821193,-0.007744671769484675
-0.005469548476821192,-0.007777585327239231
-0.005469208476821192,-0.007613017538466446
-0.005468868476821193,-0.007514276865202775
-0.005468528476821192,-0.008633337828857716
-0.005468188476821192,-0.009818225908021772
-0.005467848476821193,-0.007975066673766575
-0.005467508476821192,-0.01073980552514937
-0.005467168476821192,-0.01060815129413114
-0.005466828476821193,-0.01044358350535836
-0.005466488476821192,-0.01179303937329442
-0.005466148476821192,-0.01136516312248596
-0.005465808476821193,-0.01004862081230367
-0.005465468476821192,-0.01067397840964157
-0.005465128476821192,-0.01139807668024051
-0.005464788476821193,-0.004650797340556306
-0.005464448476821192,-0.00892955984865418
-0.005464108476821192,-0.01192469360431343
-0.005463768476821193,-0.01636802390117864
-0.005463428476821192,-0.01146390379574843
-0.005463088476821192,-0.01080563264065849
-0.005462748476821193,-0.009423263214967087
-0.005462408476821192,-0.01080563264066896
-0.005462068476821192,-0.01656550524770598
-0.005461728476821193,-0.01310958168347748
-0.005461388476821192,-0.01097020042943295
-0.005461048476821192,-0.01189178004655887
-0.005460708476821193,-0.0108714597561676
-0.005460368476821192,-0.01004862081230355
-0.005460028476821192,-0.009982793696794558
-0.005459688476821193,-0.009884053023530886
-0.005459348476821192,-0.007415536191942696
-0.005459008476821192,-0.00939034965721253
-0.005458668476821193,-0.009818225908021772
-0.005458328476821192,-0.009192868310689916
-0.005457988476821192,-0.0117930393732952
-0.005457648476821193,-0.01116768177595861
-0.005457308476821193,-0.01047649706311417
-0.005456968476821192,-0.01060815129413114
-0.005456628476821193,-0.01238548341287723
-0.005456288476821193,-0.01103602754494284
-0.005455948476821192,-0.01097020042943127
-0.005455608476821193,-0.009884053023530886
-0.005455268476821193,-0.008007980231524544
-0.005454928476821192,-0.007349709076429989
-0.005454588476821193,-0.008139634462539359
-0.005454248476821193,-0.005605290515443073
-0.005453908476821192,-0.005572376957683906
-0.005453568476821193,-0.01126642244922228
-0.005453228476821193,-0.009719485234760915
-0.005452888476821192,-0.005605290515438462
-0.005452548476821193,-0.004288748205256179
-0.005452208476821193,-0.003465909261393747
-0.005451868476821192,-0.00711931417214809
-0.005451528476821193,-0.008995386964157845
-0.005451188476821193,-0.0059673396507441
-0.005450848476821192,-0.004716624456065421
-0.005450508476821193,-0.008304202251312145
-0.005450168476821193,-0.008271288693557649
-0.005449828476821192,-0.00790923955825746
-0.005449488476821193,-0.008172548020293918
-0.005449148476821193,-0.009489090330473807
-0.005448808476821192,-0.008666251386612273
-0.005448468476821192,-0.009851139465776329
-0.005448128476821193,-0.01070689196739481
-0.005447788476821192,-0.00939034965721253
-0.005447448476821192,-0.01123350889146773
-0.005447108476821193,-0.0113322495647314
-0.005446768476821192,-0.009587831003739873
-0.005446428476821192,-0.009357436099457973
-0.005446088476821193,-0.01199052071982254
-0.005445748476821192,-0.01027901571658371
-0.005445408476821192,-0.009258695426194301
-0.005445068476821193,-0.01159555802676786
-0.005444728476821192,-0.01041066994760434
-0.005444388476821192,-0.01070689196739481
-0.005444048476821193,-0.01126642244922228
-0.005443708476821192,-0.01139807668024129
-0.005443368476821192,-0.01182595293104976
-0.005443028476821193,-0.01636802390117864
-0.005442688476821192,-0.008896646290888306
-0.005442348476821192,-0.005671117630947577
-0.005442008476821193,-0.005078673591365549
-0.005441668476821192,-0.00468371089831739
-0.005441328476821192,-0.008271288693557588
-0.005440988476821193,-0.007580103980711889
-0.005440648476821192,-0.006033166766248183
-0.005440308476821192,-0.006296475228284162
-0.005439968476821193,-0.009258695426194301
-0.005439628476821192,-0.01113476821820334
-0.005439288476821192,-0.01073980552514937
-0.005438948476821193,-0.01182595293104976
-0.005438608476821192,-0.0134058037032664
-0.005438268476821192,-0.012253829181859
-0.005437928476821193,-0.01235256985512267
-0.005437588476821192,-0.01182595293104628
-0.005437248476821192,-0.009916966581285444
-0.005436908476821193,-0.008567510713348603
-0.005436568476821193,-0.009258695426193043
-0.005436228476821192,-0.006296475228284162
-0.005435888476821193,-0.005210327822383777
-0.005435548476821193,-0.006724351479090651
-0.005435208476821192,-0.006296475228284162
-0.005434868476821193,-0.005769858304211248
-0.005434528476821193,-0.007382622634181613
-0.005434188476821192,-0.008172548020293918
-0.005433848476821193,-0.009127041195176074
-0.005433508476821193,-0.009324522541703057
-0.005433168476821192,-0.009719485234758102
-0.005432828476821193,-0.01031192927434013
-0.005432488476821193,-0.0142615562048798
-0.005432148476821192,-0.006625610805829733
-0.005431808476821193,-0.005111587149120106
-0.005431468476821193,-0.004420402436275664
-0.005431128476821192,-0.006395215901547833
-0.005430788476821193,-0.009719485234758102
-0.005430448476821193,-0.008567510713350698
-0.005430108476821192,-0.008040893789275689
-0.005429768476821193,-0.008534597155594046
-0.005429428476821193,-0.009653658119246952
-0.005429088476821192,-0.01034484283209469
-0.005428748476821193,-0.008238375135803031
-0.005428408476821193,-0.008666251386611494
-0.005428068476821192,-0.009225781868439744
-0.005427728476821192,-0.008304202251312145
-0.005427388476821193,-0.007415536191939104
-0.005427048476821192,-0.007942153116012016
-0.005426708476821192,-0.006757265036847961
-0.005426368476821193,-0.005276154937892892
-0.005426028476821192,-0.006987659941129861
-0.005425688476821192,-0.006461043017056948
-0.005425348476821193,-0.005704031188702134
-0.005425008476821192,-0.005802771861965805
-0.005424668476821192,-0.008205461578048474
-0.005424328476821193,-0.007020573498884419
-0.005423988476821192,-0.00774467176948695
-0.005423648476821192,-0.008995386964157845
-0.005423308476821193,-0.00837002936682126
-0.005422968476821192,-0.01103602754494386
-0.005422628476821192,-0.0129450138947047
-0.005422288476821193,-0.01758582553809725
-0.005421948476821192,-0.01439321043589839
-0.005421608476821192,-0.0106410648518857
-0.005421268476821193,-0.01113476821820406
-0.005420928476821192,-0.01455777822467859
-0.005420588476821192,-0.01488691380222357
-0.005420248476821193,-0.01320832235674115
-0.005419908476821192,-0.01251713764389528
-0.005419568476821192,-0.01241839697063178
-0.005419228476821193,-0.01014736148556734
-0.005418888476821192,-0.009554917445983939
-0.005418548476821192,-0.008797905617630502
-0.005418208476821193,-0.007744671769484675
-0.005417868476821192,-0.005868598977476297
-0.005417528476821192,-0.006625610805829733
-0.005417188476821193,-0.005769858304211248
