Analysis/files/cmb03_d2s01/wrd06_ch12.csv

#Digilent WaveForms Oscilloscope Acquisition
#Device Name: ADP3450
#Serial Number: SN:210018B9D9B0
#Date Time: 2024-08-09 18:08:31.634.735.760
#Sample rate: 2.94118e+06Hz
#Samples: 32768
#Trigger: Source: Channel 3 Type: Edge Condition: Rising Level: 60 mV Hyst.: Auto HoldOff: 0 s
#Channel 3: Range: 200 mV/div Offset: -20 mV Attenuation: 1 X Coupling: DC Bandwidth: 0 Hz Sample Mode: Average

Time (s),Channel 3 (V)
-0.00557045361430396,-0.0003023106594650937
-0.005570113614303959,-0.0002364835439544834
-0.005569773614303959,0.0005863553999079472
-0.00556943361430396,-0.000697273352519779
-0.005569093614303959,-0.001223890276591315
-0.005568753614303959,-0.0004668784482378778
-0.00556841361430396,-0.002046729220456619
-0.005568073614303959,-0.002441691913515136
-0.005567733614303959,-0.004548159609802961
-0.00556739361430396,-0.005436825669176002
-0.005567053614303959,-0.003856974896959835
-0.005566713614303959,-0.005272257880403218
-0.00556637361430396,-0.00570013413121246
-0.005566033614303959,-0.004910208745103149
-0.005565693614303959,-0.004943122302857646
-0.00556535361430396,-0.005963442593248915
-0.005565013614303959,-0.006490059517323268
-0.005564673614303959,-0.007279984903431201
-0.00556433361430396,-0.008958576348913613
-0.005563993614303959,-0.01373104222331727
-0.005563653614303959,-0.009814328850532097
-0.00556331361430396,-0.004679813840821188
-0.00556297361430396,-0.009847242408277255
-0.005562633614303959,-0.01080173558316881
-0.00556229361430396,-0.008629440771368041
-0.00556195361430396,-0.009452279715230471
-0.005561613614303959,-0.010044723754814
-0.00556127361430396,-0.009221884810950071
-0.00556093361430396,-0.008892749233405097
-0.005560593614303959,-0.007576206923222212
-0.00556025361430396,-0.006819195094867402
-0.00555991361430396,-0.007839515385256814
-0.005559573614303959,-0.00764203403873133
-0.005559233614303959,-0.007411639134449428
-0.00555889361430396,-0.008991489906665295
-0.005558553614303959,-0.01271072193293312
-0.005558213614303959,-0.007740774711995
-0.00555787361430396,-0.009518106830737848
-0.005557533614303959,-0.006786281537112842
-0.005557193614303959,-0.0070495899991493
-0.00555685361430396,-0.0130069439527133
-0.005556513614303959,-0.01106504404520527
-0.005556173614303959,-0.008036996731786015
-0.00555583361430396,-0.009880155966037857
-0.005555493614303959,-0.01080173558316881
-0.005555153614303959,-0.008958576348913613
-0.00555481361430396,-0.01040677289011149
-0.005554473614303959,-0.01185496943131464
-0.005554133614303959,-0.01241449991314211
-0.00555379361430396,-0.01307277106823325
-0.005553453614303959,-0.01494884386024301
-0.005553113614303959,-0.01448805405167921
-0.00555277361430396,-0.01652869463246175
-0.005552433614303959,-0.01646286751695263
-0.005552093614303959,-0.01646286751695263
-0.00555175361430396,-0.01606790482389795
-0.005551413614303959,-0.01731862001856914
-0.005551073614303959,-0.01623247261267073
-0.00555073361430396,-0.01261198125966945
-0.005550393614303959,-0.01317151174149537
-0.005550053614303959,-0.01231575923987844
-0.00554971361430396,-0.01139417962275084
-0.005549373614303959,-0.01132835250724203
-0.005549033614303959,-0.01149292029601451
-0.00554869361430396,-0.01126252539173261
-0.005548353614303959,-0.01455388116718395
-0.005548013614303959,-0.01215119145110565
-0.00554767361430396,-0.006588800190585501
-0.005547333614303959,-0.007576206923220835
-0.005546993614303959,-0.006819195094867402
-0.00554665361430396,-0.01139417962275084
-0.005546313614303959,-0.01366521510781354
-0.005545973614303959,-0.01271072193293312
-0.00554563361430396,-0.01169040164254185
-0.005545293614303959,-0.01402726424311972
-0.005544953614303959,-0.01639704040144352
-0.00554461361430396,-0.01445514049392465
-0.005544273614303959,-0.01448805405168226
-0.005543933614303959,-0.01616664549716162
-0.00554359361430396,-0.01593625059287972
-0.005543253614303959,-0.01557420145758198
-0.005542913614303959,-0.01689074376776187
-0.00554257361430396,-0.01623247261267073
-0.00554223361430396,-0.01587042347737126
-0.005541893614303959,-0.01642995395919808
-0.00554155361430396,-0.01455388116718832
-0.00554121361430396,-0.01198662366233753
-0.005540873614303959,-0.01182205587356008
-0.00554053361430396,-0.01208536433559654
-0.00554019361430396,-0.01043968644787168
-0.005539853614303959,-0.01169040164254185
-0.00553951361430396,-0.01435639982066098
-0.00553917361430396,-0.0152121523222779
-0.005538833614303959,-0.01629829972817985
-0.005538493614303959,-0.01619955905491618
-0.00553815361430396,-0.01820728607794051
-0.005537813614303959,-0.01889847079078986
-0.005537473614303959,-0.01373104222332439
-0.00553713361430396,-0.01280946260619847
-0.005536793614303959,-0.01195371010457831
-0.005536453614303959,-0.01560711501533415
-0.00553611361430396,-0.01873390300201138
-0.005535773614303959,-0.0174831878073439
-0.005535433614303959,-0.01715405222979833
-0.00553509361430396,-0.01830602675120573
-0.005534753614303959,-0.01606790482389795
-0.005534413614303959,-0.01745027424958934
-0.00553407361430396,-0.01531089299554702
-0.005533733614303959,-0.01429057270515186
-0.005533393614303959,-0.01465262184045199
-0.00553305361430396,-0.01406017780086997
-0.005532713614303959,-0.01445514049392465
-0.005532373614303959,-0.01350064731904249
-0.00553203361430396,-0.01356647443455161
-0.005531693614303959,-0.00421902403225739
-0.005531353614303959,-0.01415891847413363
-0.00553101361430396,-0.01257906770191489
-0.005530673614303959,-0.01195371010457831
-0.005530333614303959,-0.01244741347089667
-0.00552999361430396,-0.01438931337841554
-0.005529653614303959,-0.01468553539820535
-0.005529313614303959,-0.01402726424311541
-0.00552897361430396,-0.01389561001209718
-0.005528633614303959,-0.01356647443454963
-0.005528293614303959,-0.01248032702865122
-0.00552795361430396,-0.01317151174149692
-0.005527613614303959,-0.01587042347736078
-0.005527273614303959,-0.01047260000562324
-0.00552693361430396,-0.01060425423664147
-0.005526593614303959,-0.01053842712113187
-0.005526253614303959,-0.0102751186590959
-0.00552591361430396,-0.01656160819021631
-0.005525573614303959,-0.01870098944425875
-0.005525233614303959,-0.01662743530572542
-0.00552489361430396,-0.0179439776159077
-0.005524553614303959,-0.01804271828916802
-0.005524213614303959,-0.01619955905491618
-0.00552387361430396,-0.01745027424958934
-0.005523533614303959,-0.01853642165549649
-0.005523193614303959,-0.02225565368175468
-0.00552285361430396,-0.03295255995198575
-0.005522513614303959,-0.04924477104053534
-0.005522173614303959,-0.07333749531682732
-0.00552183361430396,-0.1033546599889834
-0.005521493614303959,-0.1362682177435967
-0.005521153614303959,-0.1671740484750696
-0.00552081361430396,-0.1994622486322901
-0.00552047361430396,-0.2279983032054393
-0.005520133614303959,-0.2461665870860067
-0.00551979361430396,-0.2599902813429207
-0.00551945361430396,-0.267889535204
-0.005519113614303959,-0.2698972622270424
-0.00551877361430396,-0.2681199301082963
-0.00551843361430396,-0.2647956607750921
-0.005518093614303959,-0.2588053932637566
-0.00551775361430396,-0.2529138664256909
-0.00551741361430396,-0.2501491275743132
-0.005517073614303959,-0.2447842176603153
-0.005516733614303959,-0.2303351658060647
-0.00551639361430396,-0.2236537135819018
-0.005516053614303959,-0.2140100411598044
-0.005515713614303959,-0.2073615024933839
-0.00551537361430396,-0.2034777026783532
-0.005515033614303959,-0.1938669438140155
-0.005514693614303959,-0.1846511476427395
-0.00551435361430396,-0.1795166326330379
-0.005514013614303959,-0.1746454260853541
-0.005513673614303959,-0.1666145179932422
-0.00551333361430396,-0.1618749656765946
-0.005512993614303959,-0.1562138337428021
-0.005512653614303959,-0.1486766290170085
-0.00551231361430396,-0.1444307800666707
-0.005511973614303959,-0.1397899684232781
-0.005511633614303959,-0.1350833296643764
-0.00551129361430396,-0.1306399993675113
-0.005510953614303959,-0.1283031367669377
-0.005510613614303959,-0.1226420048331539
-0.00551027361430396,-0.1190544270379071
-0.005509933614303959,-0.1156972441469423
-0.005509593614303959,-0.1114513951966045
-0.00550925361430396,-0.1078638174013577
-0.005508913614303959,-0.1053294734542507
-0.005508573614303959,-0.1019393770055374
-0.00550823361430396,-0.09746313315091767
-0.005507893614303959,-0.09443508583749143
-0.005507553614303959,-0.09058419958021524
-0.00550721361430396,-0.08577882014804991
-0.005506873614303959,-0.08791820140208617
-0.005506533614303959,-0.08245455081483963
-0.00550619361430396,-0.07488443253129151
-0.005505853614303959,-0.0730083597392782
-0.005505513614303959,-0.07106645983176288
-0.00550517361430396,-0.07129685473604477
-0.005504833614303959,-0.07050692934992751
-0.005504493614303959,-0.06616233972633387
-0.00550415361430396,-0.06138987385192308
-0.005503813614303959,-0.05984293663745584
-0.005503473614303959,-0.05816434519197649
-0.00550313361430396,-0.05431345893469331
-0.005502793614303959,-0.05431345893469253
-0.005502453614303959,-0.05388558268388407
-0.00550211361430396,-0.05266778104696545
-0.005501773614303959,-0.05243738614268697
-0.005501433614303959,-0.05431345893469331
-0.00550109361430396,-0.05062714046618291
-0.005500753614303959,-0.04914603036722659
-0.005500413614303959,-0.04845484565438214
-0.00550007361430396,-0.04723704401746353
-0.00549973361430396,-0.04572302036075665
-0.005499393614303959,-0.04453813228158985
-0.00549905361430396,-0.04466978651260808
-0.00549871361430396,-0.0420037883344938
-0.005498373614303959,-0.04285954083610743
-0.00549803361430396,-0.0418063069879616
-0.00549769361430396,-0.04157591208368012
-0.005497353614303959,-0.04183922054571616
-0.00549701361430396,-0.04144425785266147
-0.00549667361430396,-0.04190504766122444
-0.005496333614303959,-0.04308993574038934
-0.005495993614303959,-0.03640848351621424
-0.00549565361430396,-0.03275507860546505
-0.005495313614303959,-0.03127396850650333
-0.005494973614303959,-0.03012199398509383
-0.00549463361430396,-0.03298547350973509
-0.005494293614303959,-0.03081317869793953
-0.005493953614303959,-0.02600779926577419
-0.00549361361430396,-0.02640276195882816
-0.005493273614303959,-0.02567866368822862
-0.005492933614303959,-0.02650150263209255
-0.00549259361430396,-0.02511913320640367
-0.005492253614303959,-0.02610653993903787
-0.005491913614303959,-0.02768639071125661
-0.00549157361430396,-0.02696229244065767
-0.005491233614303959,-0.02646858907433799
-0.005490893614303959,-0.02660024330535622
-0.00549055361430396,-0.02735725513371103
-0.005490213614303959,-0.02403298580050077
-0.005489873614303959,-0.02390133156948254
-0.00548953361430396,-0.02251896214379114
-0.005489193614303959,-0.02090619781381784
-0.005488853614303959,-0.02051123512076316
-0.00548851361430396,-0.02113659271809974
-0.005488173614303959,-0.02037958088974613
-0.005487833614303959,-0.02103785204483607
-0.00548749361430396,-0.02146572829564531
-0.005487153614303959,-0.01521215232229413
-0.005486813614303959,-0.02327597397214595
-0.00548647361430396,-0.02294683839460038
-0.005486133614303959,-0.02515204676414595
-0.005485793614303959,-0.0197871368501629
-0.00548545361430396,-0.01856933521324429
-0.005485113614303959,-0.01662743530571991
-0.005484773614303959,-0.01359938799230617
-0.00548443361430396,-0.01827311319345327
-0.005484093614303959,-0.01577168280410215
-0.005483753614303959,-0.01313859818374236
-0.00548341361430396,-0.01264489481742401
-0.005483073614303959,-0.01277654904844247
-0.005482733614303959,-0.01290820327946047
-0.00548239361430396,-0.01429057270515186
-0.005482053614303959,-0.01429057270515048
-0.005481713614303959,-0.01353356087679705
-0.00548137361430396,-0.01415891847413363
-0.005481033614303959,-0.01485010318698113
-0.005480693614303959,-0.01583750991961605
-0.00548035361430396,-0.01557420145757959
-0.005480013614303959,-0.01623247261266726
-0.005479673614303959,-0.01432348626290642
-0.00547933361430396,-0.01514632520677035
-0.00547899361430396,-0.01593625059287828
-0.005478653614303959,-0.01422474558964275
-0.00547831361430396,-0.01396143712760629
-0.00547797361430396,-0.0150475845335047
-0.005477633614303959,-0.01613373193940706
-0.00547729361430396,-0.01537672011105225
-0.00547695361430396,-0.01738444713407658
-0.005476613614303959,-0.0161008183816525
-0.00547627361430396,-0.0170223979987801
-0.00547593361430396,-0.01978713685015787
-0.005475593614303959,-0.02169612319992721
-0.00547525361430396,-0.01185496943131464
-0.00547491361430396,-0.01162457452703316
-0.005474573614303959,-0.01103213048745071
-0.005474233614303959,-0.01155874741152362
-0.00547389361430396,-0.01633121328592572
-0.005473553614303959,-0.01521215232227946
-0.005473213614303959,-0.01557420145757959
-0.00547287361430396,-0.01873390300201132
-0.005472533614303959,-0.01952382838812644
-0.005472193614303959,-0.01761484203836213
-0.00547185361430396,-0.01827311319345208
-0.005471513614303959,-0.0186351623287534
-0.005471173614303959,-0.01531089299554313
-0.00547083361430396,-0.01366521510781827
-0.005470493614303959,-0.01264489481742401
-0.005470153614303959,-0.01248032702865122
-0.00546981361430396,-0.01053842712113235
-0.005469473614303959,-0.01149292029601451
-0.005469133614303959,-0.01014346442807767
-0.00546879361430396,-0.01090047625643248
-0.005468453614303959,-0.01244741347089667
-0.005468113614303959,-0.01261198125966945
-0.00546777361430396,-0.01287528972170591
-0.005467433614303959,-0.01399435068536085
-0.005467093614303959,-0.01531089299554313
-0.00546675361430396,-0.01435639982066098
-0.005466413614303959,-0.01524506588003354
-0.005466073614303959,-0.01498175741799757
-0.00546573361430396,-0.01333607953026971
-0.005465393614303959,-0.01791106405814051
-0.005465053614303959,-0.0109663033719416
-0.00546471361430396,-0.008892749233404499
-0.005464373614303959,-0.00849778654035125
-0.005464033614303959,-0.009287711926459184
-0.00546369361430396,-0.01455388116718832
-0.005463353614303959,-0.01521215232227533
-0.005463013614303959,-0.01294111683721502
-0.00546267361430396,-0.01238158635538755
-0.005462333614303959,-0.01307277106823415
-0.005461993614303959,-0.01356647443455161
-0.00546165361430396,-0.01159166096927818
-0.005461313614303959,-0.01201953722008832
-0.005460973614303959,-0.01251324058640578
-0.00546063361430396,-0.01129543894948717
-0.005460293614303959,-0.01165748808478927
-0.005459953614303959,-0.01274363549068768
-0.00545961361430396,-0.01297403039496958
-0.005459273614303959,-0.0128423761639544
-0.005458933614303959,-0.01452096760943376
-0.00545859361430396,-0.01514632520677035
-0.005458253614303959,-0.01501467097575266
-0.005457913614303959,-0.01531089299554313
-0.00545757361430396,-0.01567294213084326
-0.00545723361430396,-0.01445514049392686
-0.005456893614303959,-0.01623247261267073
-0.00545655361430396,-0.01656160819021631
-0.00545621361430396,-0.01419183203189251
-0.005455873614303959,-0.01409309135862452
-0.00545553361430396,-0.01438931337841554
-0.00545519361430396,-0.01540963366880495
-0.005454853614303959,-0.01689074376776187
-0.00545451361430396,-0.01109795760295982
-0.00545417361430396,-0.01050551356337887
-0.005453833614303959,-0.009551020388495642
-0.005453493614303959,-0.01241449991314211
-0.00545315361430396,-0.01508049809125638
-0.005452813614303959,-0.01280946260619679
-0.005452473614303959,-0.01379686933883351
-0.00545213361430396,-0.01580459636185784
-0.005451793614303959,-0.01606790482389795
-0.005451453614303959,-0.01715405222979833
-0.00545111361430396,-0.01606790482389992
-0.005450773614303959,-0.0161008183816525
-0.005450433614303959,-0.01511341164901579
-0.00545009361430396,-0.01406017780087188
-0.005449753614303959,-0.0118878829890692
-0.005449413614303959,-0.01238158635538755
-0.00544907361430396,-0.01320442529924998
-0.005448733614303959,-0.01244741347089667
-0.005448393614303959,-0.01409309135862452
-0.00544805361430396,-0.01442222693617009
-0.005447713614303959,-0.01498175741799757
-0.005447373614303959,-0.01406017780086997
-0.00544703361430396,-0.01438931337841554
-0.005446693614303959,-0.01060425423664147
-0.005446353614303959,-0.01126252539173261
-0.00544601361430396,-0.00978141529277754
-0.005445673614303959,-0.008399045867087042
-0.005445333614303959,-0.008892749233404499
-0.00544499361430396,-0.01178914231580552
-0.005444653614303959,-0.01824019963568788
-0.005444313614303959,-0.01228284568212388
-0.00544397361430396,-0.01034094577460501
-0.005443633614303959,-0.01488301674473605
-0.005443293614303959,-0.01606790482389795
-0.00544295361430396,-0.01076882202541425
-0.005442613614303959,-0.01185496943131739
-0.005442273614303959,-0.01336899308802426
-0.00544193361430396,-0.01366521510781528
-0.005441593614303959,-0.01317151174149435
-0.005441253614303959,-0.01175622875805097
-0.00544091361430396,-0.01340190664577882
-0.005440573614303959,-0.01317151174149674
-0.005440233614303959,-0.01307277106823325
-0.00543989361430396,-0.01310568462598781
-0.005439553614303959,-0.01310568462598667
-0.005439213614303959,-0.01248032702865122
-0.00543887361430396,-0.01271072193293312
-0.005438533614303959,-0.01290820327945831
-0.005438193614303959,-0.01172331520029641
-0.00543785361430396,-0.01346773376128794
-0.005437513614303959,-0.01481718962921933
-0.005437173614303959,-0.01182205587356008
-0.00543683361430396,-0.01241449991314211
-0.00543649361430396,-0.01386269645433999
-0.005436153614303959,-0.0147184489559611
-0.00543581361430396,-0.01402726424311541
-0.00543547361430396,-0.01557420145757677
-0.005435133614303959,-0.01478427607147022
-0.00543479361430396,-0.01491593030248845
-0.00543445361430396,-0.01593625059287786
-0.005434113614303959,-0.01517923876452491
-0.00543377361430396,-0.01429057270515186
-0.00543343361430396,-0.01619955905491271
-0.005433093614303959,-0.01373104222332439
-0.005432753614303959,-0.01461970828269744
-0.00543241361430396,-0.01290820327946358
-0.005432073614303959,-0.01583750991961605
-0.005431733614303959,-0.01968839617689923
-0.00543139361430396,-0.01728570646082093
-0.005431053614303959,-0.0161008183816525
-0.005430713614303959,-0.01557420145757959
-0.00543037361430396,-0.01590333703512456
-0.005430033614303959,-0.01629829972817985
-0.005429693614303959,-0.01475136251371566
-0.00542935361430396,-0.01452096760943418
-0.005429013614303959,-0.01422474558964275
-0.005428673614303959,-0.01452096760943376
-0.00542833361430396,-0.01438931337841578
-0.005427993614303959,-0.01481718962922478
-0.005427653614303959,-0.01139417962275084
-0.00542731361430396,-0.01076882202541425
-0.005426973614303959,-0.01244741347089667
-0.005426633614303959,-0.01149292029601451
-0.00542629361430396,-0.00968267461951387
-0.005425953614303959,-0.01132835250724173
-0.005425613614303959,-0.01224993212436933
-0.00542527361430396,-0.01116378471846894
-0.005424933614303959,-0.01122961183397805
-0.005424593614303959,-0.01090047625643248
-0.00542425361430396,-0.01070299490990514
-0.005423913614303959,-0.01218410500886249
-0.005423573614303959,-0.01343482020353338
-0.00542323361430396,-0.01659452174797086
-0.005422893614303959,-0.01452096760942927
-0.005422553614303959,-0.01205245077784198
-0.00542221361430396,-0.01053842712113235
-0.005421873614303959,-0.01113087116072277
-0.005421533614303959,-0.01573876924635238
-0.00542119361430396,-0.0167920030944982
-0.005420853614303959,-0.0148171896292252
-0.005420513614303959,-0.01504758453350668
-0.00542017361430396,-0.01485010318697934
-0.005419833614303959,-0.01406017780087206
-0.005419493614303959,-0.01521215232227946
-0.00541915361430396,-0.01419183203188819
-0.005418813614303959,-0.01429057270515066
-0.005418473614303959,-0.01363230155006072
-0.00541813361430396,-0.01317151174149692
-0.005417793614303959,-0.01248032702865397
-0.005417453614303959,-0.01399435068536085
-0.00541711361430396,-0.01336899308802426
-0.005416773614303959,-0.0126119812596737
-0.005416433614303959,-0.01494884386024301
-0.00541609361430396,-0.01465262184045199
-0.005415753614303959,-0.01353356087679645
-0.005415413614303959,-0.01320442529925148
-0.00541507361430396,-0.01313859818374236
-0.00541473361430396,-0.0115587474115265
-0.005414393614303959,-0.01126252539173261
