Analysis/files/cmb03_d2s01/wrd07_ch18.csv

#Digilent WaveForms Oscilloscope Acquisition
#Device Name: ADP3450
#Serial Number: SN:210018B9D9B0
#Date Time: 2024-08-09 17:43:05.523.861.490
#Sample rate: 2.94118e+06Hz
#Samples: 32768
#Trigger: Source: Channel 3 Type: Edge Condition: Rising Level: 60 mV Hyst.: Auto HoldOff: 0 s
#Channel 3: Range: 200 mV/div Offset: -20 mV Attenuation: 1 X Coupling: DC Bandwidth: 0 Hz Sample Mode: Average

Time (s),Channel 3 (V)
-0.005570377857142857,0.004963858581264044
-0.005570037857142857,0.005194253485545285
-0.005569697857142857,0.004832204350245815
-0.005569357857142857,0.002725736653954161
-0.005569017857142857,0.003120699347007529
-0.005568677857142857,0.002396601076408589
-0.005568337857142857,0.002001638383353904
-0.005567997857142857,0.001112972323979367
-0.005567657857142857,0.0002901333801169359
-0.005567317857142857,0.0005534418421533904
-0.005566977857142857,0.002264946845388207
-0.005566637857142857,0.001080058766226306
-0.005566297857142857,-0.00227712412473852
-0.005565957857142857,0.006280400891447346
-0.005565617857142857,0.0068399313732738
-0.005565277857142857,-0.0003352242172196505
-0.005564937857142857,0.002659909538455884
-0.005564597857142857,0.008617263492019883
-0.005564257857142857,-0.001190976718838135
-0.005563917857142857,2.682491808365099e-05
-0.005563577857142857,0.001771243479072003
-0.005563237857142857,0.001442107901526435
-0.005562897857142857,0.0002572198223645345
-0.005562557857142857,0.00180415703682656
-0.005562217857142857,0.0002901333801169359
-0.005561877857142857,-0.0001706564284460283
-0.005561537857142857,-0.0002693971017105369
-0.005561197857142857,-0.001717593642911051
-0.005560857857142857,-0.00240877835575549
-0.005560517857142857,-0.003198703741866118
-0.005560177857142857,-0.002507519029020421
-0.005559837857142857,-0.002770827491056397
-0.005559497857142857,-0.001553025854138263
-0.005559157857142857,-0.002145469893720293
-0.005558817857142857,-0.003856974896954148
-0.005558477857142857,-0.004021542685730045
-0.005558137857142857,-0.006786281537112842
-0.005557797857142857,-0.008530700098101198
-0.005557457857142857,-0.007510379807713099
-0.005557117857142857,-0.005568479900194229
-0.005556777857142857,-0.007345812018937082
-0.005556437857142857,-0.00570013413121246
-0.005556097857142857,-0.004251937590011946
-0.005555757857142857,-0.004284851147766443
-0.005555417857142857,-0.004482332494293848
-0.005555077857142857,-0.003988629127975488
-0.005554737857142857,-0.005173517207137389
-0.005554397857142857,-0.005667220573457903
-0.005554057857142857,-0.004646900283066632
-0.005553717857142857,-0.005074776533875874
-0.005553377857142857,-0.00510769009163043
-0.005553037857142857,-0.003494925761657133
-0.005552697857142857,-0.004284851147766503
-0.005552357857142857,-0.005206430764894101
-0.005552017857142857,-0.008497786540349814
-0.005551677857142857,-0.00570013413121246
-0.005551337857142857,-0.006852108652621301
-0.005550997857142857,-0.006490059517321831
-0.005550657857142857,-0.003955715570220932
-0.005550317857142857,-0.01004472375481298
-0.005549977857142857,-0.009485193272986525
-0.005549637857142857,-0.006424232401812717
-0.005549297857142857,-0.008234478078316948
-0.005548957857142857,-0.01020929154358678
-0.005548617857142857,-0.01090047625643248
-0.005548277857142857,-0.009781415292779516
-0.005547937857142857,-0.01086756269867793
-0.005547597857142857,-0.01083464914092337
-0.005547257857142857,-0.01169040164254173
-0.005546917857142857,-0.01162457452703274
-0.005546577857142857,-0.01103213048745071
-0.005546237857142857,-0.01198662366233508
-0.005545897857142857,-0.01320442529925148
-0.005545557857142857,-0.01106504404520527
-0.005545217857142857,-0.01169040164254448
-0.005544877857142857,-0.01313859818374236
-0.005544537857142857,-0.0121182778933511
-0.005544197857142857,-0.01218410500886045
-0.005543857857142857,-0.01231575923987844
-0.005543517857142857,-0.009518106830741082
-0.005543177857142857,-0.008925662791158338
-0.005542837857142857,-0.008530700098104371
-0.005542497857142857,-0.007082503556903857
-0.005542157857142857,-0.00560139345795148
-0.005541817857142857,-0.009485193272986525
-0.005541477857142857,-0.01067008135215058
-0.005541137857142857,-0.00379114778146066
-0.005540797857142857,-0.003922802012466375
-0.005540457857142857,-0.004449418936539287
-0.005540117857142857,-0.006325491728545631
-0.005539777857142857,-0.01116378471846894
-0.005539437857142857,-0.009057317022177283
-0.005539097857142857,-0.008464872982596334
-0.005538757857142857,-0.01040677289011413
-0.005538417857142857,-0.01067008135215058
-0.005538077857142857,-0.009254798368707202
-0.005537737857142857,-0.008826922117895385
-0.005537397857142857,-0.010044723754814
-0.005537057857142857,-0.008497786540352627
-0.005536717857142857,-0.01011055087032311
-0.005536377857142857,-0.01129543894948717
-0.005536037857142857,-0.009188971253199346
-0.005535697857142857,-0.009188971253195514
-0.005535357857142857,-0.009452279715231968
-0.005535017857142857,-0.009123144137686995
-0.005534677857142857,-0.008399045867086143
-0.005534337857142857,-0.01034094577460501
-0.005533997857142857,-0.009847242408287552
-0.005533657857142857,-0.009847242408286654
-0.005533317857142857,-0.01043968644786868
-0.005532977857142857,-0.008958576348913613
-0.005532637857142857,-0.008794008560140829
-0.005532297857142857,-0.009221884810950071
-0.005531957857142857,-0.008892749233404499
-0.005531617857142857,-0.006786281537112842
-0.005531277857142857,-0.01109795760295982
-0.005530937857142857,-0.0118878829890692
-0.005530597857142857,-0.006160923939776259
-0.005530257857142857,-0.006391318844058157
-0.005529917857142857,-0.006128010382021702
-0.005529577857142857,-0.01001181019706297
-0.005529237857142857,-0.01195371010457831
-0.005528897857142857,-0.01093338981418704
-0.005528557857142857,-0.008662354329125052
-0.005528217857142857,-0.01001181019705944
-0.005527877857142857,-0.01126252539173261
-0.005527537857142857,-0.009254798368702053
-0.005527197857142857,-0.00783951538525867
-0.005526857857142857,-0.008563613655858927
-0.005526517857142857,-0.007247071345674549
-0.005526177857142857,-0.006095096824267145
-0.005525837857142857,-0.007576206923222212
-0.005525497857142857,-0.006917935768130953
-0.005525157857142857,-0.006852108652621959
-0.005524817857142857,-0.007971169616276898
-0.005524477857142857,-0.01053842712113134
-0.005524137857142857,-0.009978896639304884
-0.005523797857142857,-0.01221701856661477
-0.005523457857142857,-0.01455388116719808
-0.005523117857142857,-0.01991879108118113
-0.005522777857142857,-0.03331460908728587
-0.005522437857142857,-0.04858649988544378
-0.005522097857142857,-0.07244882925745427
-0.005521757857142857,-0.1011165380616735
-0.005521417857142857,-0.1334376517766959
-0.005521077857142857,-0.1594722759605033
-0.005520737857142857,-0.2008446180579816
-0.005520397857142857,-0.2223042577139138
-0.005520057857142857,-0.2407358500565048
-0.005519717857142857,-0.2554482103727918
-0.005519377857142857,-0.2661122030852489
-0.005519037857142857,-0.2734848400222891
-0.005518697857142857,-0.2724645197318978
-0.005518357857142857,-0.2678237080885137
-0.005518017857142857,-0.2625575388477761
-0.005517677857142857,-0.2557773459503374
-0.005517337857142857,-0.2479768327625215
-0.005516997857142857,-0.2391230857265315
-0.005516657857142857,-0.2306313878258557
-0.005516317857142857,-0.2229625288690579
-0.005515977857142857,-0.2145366580838773
-0.005515637857142857,-0.2072298482623656
-0.005515297857142857,-0.2015687163285921
-0.005514957857142857,-0.1949201776621613
-0.005514617857142857,-0.1887653423620591
-0.005514277857142857,-0.18379539514113
-0.005513937857142857,-0.1776734733987733
-0.005513597857142857,-0.1707616262703164
-0.005513257857142857,-0.1657587654916328
-0.005512917857142857,-0.1604925962508945
-0.005512577857142857,-0.1527908237363282
-0.005512237857142857,-0.1482158392084447
-0.005511897857142857,-0.1444307800666707
-0.005511557857142857,-0.1395924870767508
-0.005511217857142857,-0.13482002120234
-0.005510877857142857,-0.1312982705226024
-0.005510537857142857,-0.1296525926348745
-0.005510197857142857,-0.1251434352225002
-0.005509857857142857,-0.115499762800415
-0.005509517857142857,-0.1087195699029762
-0.005509177857142857,-0.1035850548932653
-0.005508837857142857,-0.1036837955665269
-0.005508497857142857,-0.1025318210451195
-0.005508157857142857,-0.0978910094017269
-0.005507817857142857,-0.09519209766585018
-0.005507477857142857,-0.09351350622037083
-0.005507137857142857,-0.09018923688716055
-0.005506797857142857,-0.08811568274861697
-0.005506457857142857,-0.08456101851113129
-0.005506117857142857,-0.08041391023405708
-0.005505777857142857,-0.07820870186449931
-0.005505437857142857,-0.07685924599656493
-0.005505097857142857,-0.073436235990091
-0.005504757857142857,-0.07053984290768679
-0.005504417857142857,-0.06879542434669844
-0.005504077857142857,-0.06639273463061576
-0.005503737857142857,-0.06487871097390098
-0.005503397857142857,-0.06204814500701423
-0.005503057857142857,-0.05872387567380396
-0.005502717857142857,-0.05882261634706667
-0.005502377857142857,-0.05829599942299472
-0.005502037857142857,-0.05645284018873952
-0.005501697857142857,-0.05618953172670444
-0.005501357857142857,-0.05694654355505787
-0.005501017857142857,-0.05648575374649408
-0.005500677857142857,-0.05388558268388491
-0.005500337857142857,-0.05434637249244786
-0.005499997857142857,-0.05549834701385736
-0.005499657857142857,-0.04664459997789761
-0.005499317857142857,-0.04411025603078061
-0.005498977857142857,-0.04124677650613413
-0.005498637857142857,-0.03864660544352885
-0.005498297857142857,-0.04266205948958009
-0.005497957857142857,-0.04101638160185223
-0.005497617857142857,-0.03825164275047447
-0.005497277857142857,-0.03739589024885095
-0.005496937857142857,-0.03703384111355083
-0.005496597857142857,-0.03479571918624502
-0.005496257857142857,-0.03351209043381322
-0.005495917857142857,-0.03288673283647663
-0.005495577857142857,-0.03071443802467981
-0.005495237857142857,-0.02999033975407561
-0.005494897857142857,-0.03038530244713029
-0.005494557857142857,-0.02949663638775887
-0.005494217857142857,-0.02870671100164788
-0.005493877857142857,-0.02689646532514724
-0.005493537857142857,-0.02518496032191338
-0.005493197857142857,-0.02478999762885558
-0.005492857857142857,-0.02600779926577419
-0.005492517857142857,-0.02376967733846838
-0.005492177857142857,-0.02344054176091874
-0.005491837857142857,-0.02548118234170128
-0.005491497857142857,-0.02442794849355737
-0.005491157857142857,-0.02337471464540963
-0.005490817857142857,-0.02396715868499166
-0.005490477857142857,-0.02360510954969153
-0.005490137857142857,-0.02242022147052747
-0.005489797857142857,-0.02785095850002939
-0.005489457857142857,-0.02534952811068305
-0.005489117857142857,-0.01991879108118113
-0.005488777857142857,-0.02100493848708151
-0.005488437857142857,-0.0197871368501629
-0.005488097857142857,-0.02186069098870287
-0.005487757857142857,-0.02344054176091874
-0.005487417857142857,-0.02100493848708151
-0.005487077857142857,-0.01804271828917431
-0.005486737857142857,-0.01965548261914467
-0.005486397857142857,-0.01916177925282632
-0.005486057857142857,-0.01830602675120771
-0.005485717857142857,-0.01824019963569871
-0.005485377857142857,-0.01866807588650796
-0.005485037857142857,-0.01800980473141622
-0.005484697857142857,-0.01768066915387125
-0.005484357857142857,-0.01705531155653466
-0.005484017857142857,-0.01646286751695263
-0.005483677857142857,-0.01646286751695263
-0.005483337857142857,-0.01771358271162581
-0.005482997857142857,-0.0163641268436892
-0.005482657857142857,-0.01649578107470719
-0.005482317857142857,-0.01856933521324429
-0.005481977857142857,-0.0183060267512028
-0.005481637857142857,-0.01554128789982503
-0.005481297857142857,-0.01685783021000732
-0.005480957857142857,-0.015837509919613
-0.005480617857142857,-0.01415891847413363
-0.005480277857142857,-0.01392852356985173
-0.005479937857142857,-0.01445514049392423
-0.005479597857142857,-0.01422474558964275
-0.005479257857142857,-0.01952382838812644
-0.005478917857142857,-0.0128423761639635
-0.005478577857142857,-0.0102751186590959
-0.005478237857142857,-0.009978896639304884
-0.005477897857142857,-0.01106504404520329
-0.005477557857142857,-0.007378725576694872
-0.005477217857142857,-0.01376395578107895
-0.005476877857142857,-0.01274363549068954
-0.005476537857142857,-0.01185496943131464
-0.005476197857142857,-0.01300694395272414
-0.005475857857142857,-0.01303985751047864
-0.005475517857142857,-0.01379686933883351
-0.005475177857142857,-0.01261198125966945
-0.005474837857142857,-0.01379686933883135
-0.005474497857142857,-0.01297403039496958
-0.005474157857142857,-0.01234867279763299
-0.005473817857142857,-0.01389561001209437
-0.005473477857142857,-0.01182205587356008
-0.005473137857142857,-0.01307277106823325
-0.005472797857142857,-0.01343482020353272
-0.005472457857142857,-0.01386269645434262
-0.005472117857142857,-0.01231575923987844
-0.005471777857142857,-0.01415891847413028
-0.005471437857142857,-0.01429057270515186
-0.005471097857142857,-0.01336899308802426
-0.005470757857142857,-0.01521215232227611
-0.005470417857142857,-0.01392852356985173
-0.005470077857142857,-0.01343482020353338
-0.005469737857142857,-0.01402726424311541
-0.005469397857142857,-0.01488301674473389
-0.005469057857142857,-0.01652869463246175
-0.005468717857142857,-0.01577168280410694
-0.005468377857142857,-0.0109663033719416
-0.005468037857142857,-0.009485193272986525
-0.005467697857142857,-0.00968267461951387
-0.005467357857142857,-0.01169040164254185
-0.005467017857142857,-0.01438931337841554
-0.005466677857142857,-0.01261198125966945
-0.005466337857142857,-0.01284237616395374
-0.005465997857142857,-0.01415891847413363
-0.005465657857142857,-0.01070299490990514
-0.005465317857142857,-0.009913069523797025
-0.005464977857142857,-0.01060425423664147
-0.005464637857142857,-0.01011055087032311
-0.005464297857142857,-0.01119669827622589
-0.005463957857142857,-0.01251324058640578
-0.005463617857142857,-0.01257906770191489
-0.005463277857142857,-0.0152779794377887
-0.005462937857142857,-0.01534380655329769
-0.005462597857142857,-0.01373104222332439
-0.005462257857142857,-0.01346773376128932
-0.005461917857142857,-0.01422474558964275
-0.005461577857142857,-0.01333607953026971
-0.005461237857142857,-0.01221701856661458
-0.005460897857142857,-0.0121182778933511
-0.005460557857142857,-0.01169040164254185
-0.005460217857142857,-0.01198662366233304
-0.005459877857142857,-0.01208536433559654
-0.005459537857142857,-0.01113087116071438
-0.005459197857142857,-0.01007763731257209
-0.005458857857142857,-0.01201953722008742
-0.005458517857142857,-0.01534380655329769
-0.005458177857142857,-0.01215119145110308
-0.005457837857142857,-0.0107359084676597
-0.005457497857142857,-0.01076882202541425
-0.005457157857142857,-0.01050551356337828
-0.005456817857142857,-0.01540963366880681
-0.005456477857142857,-0.01603499126614339
-0.005456137857142857,-0.01139417962275928
-0.005455797857142857,-0.01040677289011413
-0.005455457857142857,-0.01198662366233286
-0.005455117857142857,-0.008201564520565684
-0.005454777857142857,-0.007247071345676644
-0.005454437857142857,-0.008695267886877155
-0.005454097857142857,-0.007740774711996736
-0.005453757857142857,-0.008761095002386268
-0.005453417857142857,-0.009188971253195514
-0.005453077857142857,-0.008958576348914032
-0.005452737857142857,-0.0102751186590959
-0.005452397857142857,-0.01122961183397805
-0.005452057857142857,-0.009682674619516683
-0.005451717857142857,-0.01083464914092337
-0.005451377857142857,-0.0111966982762235
-0.005451037857142857,-0.009945983081552603
-0.005450697857142857,-0.01017637798583223
-0.005450357857142857,-0.0109663033719416
-0.005450017857142857,-0.009682674619516204
-0.005449677857142857,-0.009518106830741082
-0.005449337857142857,-0.01047260000562324
-0.005448997857142857,-0.01057134067888673
-0.005448657857142857,-0.009123144137686397
-0.005448317857142857,-0.0118878829890692
-0.005447977857142857,-0.01606790482389795
-0.005447637857142857,-0.008596527213613484
-0.005447297857142857,-0.008300305193822469
-0.005446957857142857,-0.009583933946250199
-0.005446617857142857,-0.01053842712113235
-0.005446277857142857,-0.01438931337841554
-0.005445937857142857,-0.01432348626290642
-0.005445597857142857,-0.01195371010458166
-0.005445257857142857,-0.01379686933883351
-0.005444917857142857,-0.01412600491637908
-0.005444577857142857,-0.01415891847413363
-0.005444237857142857,-0.01415891847413363
-0.005443897857142857,-0.01478427607147022
-0.005443557857142857,-0.01425765914739623
-0.005443217857142857,-0.01366521510781528
-0.005442877857142857,-0.01442222693617009
-0.005442537857142857,-0.01330316597251216
-0.005442197857142857,-0.0116574880847873
-0.005441857857142857,-0.01169040164254185
-0.005441517857142857,-0.009913069523792893
-0.005441177857142857,-0.008333218751577026
-0.005440837857142857,-0.009419366157477412
-0.005440497857142857,-0.008695267886878293
-0.005440157857142857,-0.009320625484213741
-0.005439817857142857,-0.01080173558316881
-0.005439477857142857,-0.01162457452703591
-0.005439137857142857,-0.01336899308802426
-0.005438797857142857,-0.01475136251371566
-0.005438457857142857,-0.0152779794377872
-0.005438117857142857,-0.01452096760943376
-0.005437777857142857,-0.01922760636833543
-0.005437437857142857,-0.01912886569505236
-0.005437097857142857,-0.008464872982595257
-0.005436757857142857,-0.01103213048745071
-0.005436417857142857,-0.01333607953026552
-0.005436077857142857,-0.009386452599722855
-0.005435737857142857,-0.008135737405049685
-0.005435397857142857,-0.01050551356337349
-0.005435057857142857,-0.01067008135215058
-0.005434717857142857,-0.01017637798583223
-0.005434377857142857,-0.01080173558316767
-0.005434037857142857,-0.003560752877166246
-0.005433697857142857,-0.01057134067888691
-0.005433357857142857,-0.01083464914092289
-0.005433017857142857,-0.01017637798583223
-0.005432677857142857,-0.008596527213613484
-0.005432337857142857,-0.01093338981418279
-0.005431997857142857,-0.01093338981418704
-0.005431657857142857,-0.0111966982762235
-0.005431317857142857,-0.01175622875804995
-0.005430977857142857,-0.01277654904844223
-0.005430637857142857,-0.01129543894948717
-0.005430297857142857,-0.01300694395272102
-0.005429957857142857,-0.01185496943131464
-0.005429617857142857,-0.01014346442807767
-0.005429277857142857,-0.01011055087032317
-0.005428937857142857,-0.008267391636067913
-0.005428597857142857,-0.006819195094867402
-0.005428257857142857,-0.006555886632831423
-0.005427917857142857,-0.007609120480976773
-0.005427577857142857,-0.005074776533875874
-0.005427237857142857,-0.005074776533875874
-0.005426897857142857,-0.008135737405049685
-0.005426557857142857,-0.003034135953093334
-0.005426217857142857,-0.005601393457948786
-0.005425877857142857,-0.004548159609802961
-0.005425537857142857,-0.007905342500767784
-0.005425197857142857,-0.01149292029601451
-0.005424857857142857,-0.0116574880847873
-0.005424517857142857,-0.01034094577460501
-0.005424177857142857,-0.01205245077784198
-0.005423837857142857,-0.01346773376128447
-0.005423497857142857,-0.01155874741152362
-0.005423157857142857,-0.01238158635538755
-0.005422817857142857,-0.01287528972170573
-0.005422477857142857,-0.01277654904844223
-0.005422137857142857,-0.01001181019705944
-0.005421797857142857,-0.01152583385376949
-0.005421457857142857,-0.01175622875805097
-0.005421117857142857,-0.009616847504004756
-0.005420777857142857,-0.008794008560142624
-0.005420437857142857,-0.00978141529277754
-0.005420097857142857,-0.008925662791159056
-0.005419757857142857,-0.0094851932729894
-0.005419417857142857,-0.01106504404520527
-0.005419077857142857,-0.01020929154358678
-0.005418737857142857,-0.01142709318050959
-0.005418397857142857,-0.01373104222332439
-0.005418057857142857,-0.01340190664577882
-0.005417717857142857,-0.01333607953027252
-0.005417377857142857,-0.01488301674473389
-0.005417037857142857,-0.01550837434207047
-0.005416697857142857,-0.02060997579402449
-0.005416357857142857,-0.0193263470415991
