Analysis/files/cmb03_d2s01/wrd06_ch33.csv

#Digilent WaveForms Oscilloscope Acquisition
#Device Name: ADP3450
#Serial Number: SN:210018B9D9B0
#Date Time: 2024-08-09 18:18:46.566.266.950
#Sample rate: 2.94118e+06Hz
#Samples: 32768
#Trigger: Source: Channel 3 Type: Edge Condition: Rising Level: 60 mV Hyst.: Auto HoldOff: 0 s
#Channel 3: Range: 200 mV/div Offset: -20 mV Attenuation: 1 X Coupling: DC Bandwidth: 0 Hz Sample Mode: Average

Time (s),Channel 3 (V)
-0.005570513418693982,0.00387771117536366
-0.005570173418693982,0.003877711175363301
-0.005569833418693982,0.003680229828836316
-0.005569493418693982,0.004141019637400115
-0.005569153418693982,0.003482748482309573
-0.005568813418693982,0.003811884059854546
-0.005568473418693982,0.002462428191917703
-0.005568133418693982,0.004634723003710569
-0.005567793418693982,0.0002901333801169359
-0.005567453418693982,-0.003659493550429917
-0.005567113418693982,-0.004449418936538569
-0.005566773418693982,-0.004054456243484602
-0.005566433418693982,-0.003396185088393462
-0.005566093418693982,-0.003593666434919845
-0.005565753418693982,-0.003067049510847891
-0.005565413418693982,-0.004054456243484602
-0.005565073418693982,-0.00675336797934679
-0.005564733418693982,-0.000433964890483321
-0.005564393418693982,-7.191575518319254e-05
-0.005564053418693982,-0.0004010513327360084
-0.005563713418693982,-0.004383591821030174
-0.005563373418693982,-0.008300305193822469
-0.005563033418693982,-0.008004083174031998
-0.005562693418693982,-0.006193837497530816
-0.005562353418693982,-0.006522973075076387
-0.005562013418693982,-0.00649005951732189
-0.005561673418693982,-0.006193837497530816
-0.005561333418693982,-0.005897615477739801
-0.005560993418693982,-0.006522973075075249
-0.005560653418693982,-0.007411639134449428
-0.005560313418693982,-0.005963442593248915
-0.005559973418693982,-0.005700134131212939
-0.005559633418693982,-0.007115417114658414
-0.005559293418693982,-0.006259664613039929
-0.005558953418693982,-0.005864701919985962
-0.005558613418693982,-0.005338084995912332
-0.005558273418693982,-0.006128010382021702
-0.005557933418693982,-0.004613986725314829
-0.005557593418693982,-0.007378725576694872
-0.005557253418693982,-0.006325491728549043
-0.005556913418693982,-0.006193837497531055
-0.005556573418693982,-0.00764203403873133
-0.005556233418693982,-0.008464872982595257
-0.005555893418693982,-0.009814328850529642
-0.005555553418693982,-0.01159166096927818
-0.005555213418693982,-0.01274363549068768
-0.005554873418693982,-0.01692365732550883
-0.005554533418693982,-0.01652869463246175
-0.005554193418693982,-0.01182205587356008
-0.005553853418693982,-0.009748501735022983
-0.005553513418693982,-0.009485193272986525
-0.005553173418693982,-0.01317151174149692
-0.005552833418693982,-0.01297403039496958
-0.005552493418693982,-0.01001181019705944
-0.005552153418693982,-0.01132835250724173
-0.005551813418693982,-0.01109795760295982
-0.005551473418693982,-0.01076882202541473
-0.005551133418693982,-0.01103213048745071
-0.005550793418693982,-0.01001181019705944
-0.005550453418693982,-0.00961684750400691
-0.005550113418693982,-0.01080173558316881
-0.005549773418693982,-0.01047260000562324
-0.005549433418693982,-0.01139417962275563
-0.005549093418693982,-0.01402726424311541
-0.005548753418693982,-0.01468553539820655
-0.005548413418693982,-0.01491593030249043
-0.005548073418693982,-0.01600207770838883
-0.005547733418693982,-0.01712113867204378
-0.005547393418693982,-0.01550837434207197
-0.005547053418693982,-0.01633121328593441
-0.005546713418693982,-0.01590333703512516
-0.005546373418693982,-0.01399435068536079
-0.005546033418693982,-0.01396143712760629
-0.005545693418693982,-0.01224993212436933
-0.005545353418693982,-0.01083464914092151
-0.005545013418693982,-0.009814328850532097
-0.005544673418693982,-0.01218410500886021
-0.005544333418693982,-0.01277654904842781
-0.005543993418693982,-0.004844381629593972
-0.005543653418693982,-0.004251937590011946
-0.005543313418693982,-0.002375864798005424
-0.005542973418693982,-0.004153196916748276
-0.005542633418693982,-0.007214157787922088
-0.005542293418693982,-0.005996356151005687
-0.005541953418693982,-0.003692407108184477
-0.005541613418693982,-0.007740774711995
-0.005541273418693982,-0.008958576348911397
-0.005540933418693982,-0.008596527213613484
-0.005540593418693982,-0.01060425423664147
-0.005540253418693982,-0.01211827789334834
-0.005539913418693982,-0.01274363549068768
-0.005539573418693982,-0.01557420145757959
-0.005539233418693982,-0.01698948444102297
-0.005538893418693982,-0.01672617597898909
-0.005538553418693982,-0.01800980473141682
-0.005538213418693982,-0.01781232338488983
-0.005537873418693982,-0.01721987934530745
-0.005537533418693982,-0.01689074376776187
-0.005537193418693982,-0.01573876924635447
-0.005536853418693982,-0.01402726424311541
-0.005536513418693982,-0.01422474558964275
-0.005536173418693982,-0.0135993879923073
-0.005535833418693982,-0.01122961183397805
-0.005535493418693982,-0.01290820327946047
-0.005535153418693982,-0.01261198125966999
-0.005534813418693982,-0.0118878829890692
-0.005534473418693982,-0.01159166096927818
-0.005534133418693982,-0.0161995590549078
-0.005533793418693982,-0.01399435068536085
-0.005533453418693982,-0.008695267886877155
-0.005533113418693982,-0.008991489906668169
-0.005532773418693982,-0.007115417114658414
-0.005532433418693982,-0.01201953722008742
-0.005532093418693982,-0.01379686933883351
-0.005531753418693982,-0.01106504404520527
-0.005531413418693982,-0.009485193272986525
-0.005531073418693982,-0.01267780837517857
-0.005530733418693982,-0.01261198125966945
-0.005530393418693982,-0.01159166096927818
-0.005530053418693982,-0.0121182778933511
-0.005529713418693982,-0.0139285235698506
-0.005529373418693982,-0.01330316597251515
-0.005529033418693982,-0.01399435068536085
-0.005528693418693982,-0.01455388116718419
-0.005528353418693982,-0.01228284568212388
-0.005528013418693982,-0.01195371010457831
-0.005527673418693982,-0.01248032702864888
-0.005527333418693982,-0.0111966982762235
-0.005526993418693982,-0.01090047625643248
-0.005526653418693982,-0.01244741347089589
-0.005526313418693982,-0.01201953722008742
-0.005525973418693982,-0.01290820327946047
-0.005525633418693982,-0.01475136251371459
-0.005525293418693982,-0.01415891847413363
-0.005524953418693982,-0.01554128789982503
-0.005524613418693982,-0.01557420145758055
-0.005524273418693982,-0.0161008183816525
-0.005523933418693982,-0.01728570646081656
-0.005523593418693982,-0.02294683839459619
-0.005523253418693982,-0.02064288935178139
-0.005522913418693982,-0.02946372283000269
-0.005522573418693982,-0.0440115153575568
-0.005522233418693982,-0.06593194482205197
-0.005521893418693982,-0.09640989930277186
-0.005521553418693982,-0.1242218556054286
-0.005521213418693982,-0.1549960321058835
-0.005520873418693982,-0.1885678610155317
-0.005520533418693982,-0.2184862850143697
-0.005520193418693982,-0.2429081448683055
-0.005519853418693982,-0.2598586271119024
-0.005519513418693982,-0.2730569637714559
-0.005519173418693982,-0.2799029837844277
-0.005518833418693982,-0.2810220447480827
-0.005518493418693982,-0.2805941684972742
-0.005518153418693982,-0.2761179246426537
-0.005517813418693982,-0.2680211894350326
-0.005517473418693982,-0.2607802067290432
-0.005517133418693982,-0.254394976524646
-0.005516793418693982,-0.2456399701619338
-0.005516453418693982,-0.236720396010465
-0.005516113418693982,-0.2304009929215738
-0.005515773418693982,-0.2221067763674255
-0.005515433418693982,-0.2147670529881726
-0.005515093418693982,-0.2070652804735928
-0.005514753418693982,-0.1992647672857628
-0.005514413418693982,-0.191464254097947
-0.005514073418693982,-0.184980283220285
-0.005513733418693982,-0.1763569310885911
-0.005513393418693982,-0.1721439956960154
-0.005513053418693982,-0.1678981467456699
-0.005512713418693982,-0.1541731931620196
-0.005512373418693982,-0.1483145798817084
-0.005512033418693982,-0.1423901394858881
-0.005511693418693982,-0.1414027327532514
-0.005511353418693982,-0.1386709074596232
-0.005511013418693982,-0.1323844179285028
-0.005510673418693982,-0.1292576299418199
-0.005510333418693982,-0.1236294115657906
-0.005509993418693982,-0.1200089202127893
-0.005509653418693982,-0.1167833915528427
-0.005509313418693982,-0.1114184816388499
-0.005508973418693982,-0.1075346818238089
-0.005508633418693982,-0.1057244361473115
-0.005508293418693982,-0.102860956622665
-0.005507953418693982,-0.099010070365379
-0.005507613418693982,-0.09743021959316311
-0.005507273418693982,-0.0938426417979164
-0.005506933418693982,-0.09130829785081351
-0.005506593418693982,-0.09022215044491511
-0.005506253418693982,-0.0869966217849685
-0.005505913418693982,-0.0843635371646021
-0.005505573418693982,-0.08334321687421267
-0.005505233418693982,-0.08044682379181164
-0.005504893418693982,-0.07810996119122988
-0.005504553418693982,-0.07360080377886377
-0.005504213418693982,-0.07208678012215414
-0.005503873418693982,-0.06767636338303758
-0.005503533418693982,-0.06441792116534234
-0.005503193418693982,-0.06102782471662296
-0.005502853418693982,-0.06109365183212184
-0.005502513418693982,-0.05546543345610281
-0.005502173418693982,-0.05128541162127406
-0.005501833418693982,-0.04799405584581518
-0.005501493418693982,-0.04624963728482682
-0.005501153418693982,-0.05115375739025583
-0.005500813418693982,-0.04947516594476718
-0.005500473418693982,-0.04605215593829947
-0.005500133418693982,-0.0459534152650358
-0.005499793418693982,-0.04394568824201147
-0.005499453418693982,-0.04322158997140756
-0.005499113418693982,-0.04216835612326173
-0.005498773418693982,-0.04104929515960883
-0.005498433418693982,-0.03841621053924223
-0.005498093418693982,-0.03890991390556058
-0.005497753418693982,-0.03825164275047064
-0.005497413418693982,-0.03660596486274158
-0.005497073418693982,-0.03733006313334184
-0.005496733418693982,-0.0353881632258265
-0.005496393418693982,-0.03489445985950462
-0.005496053418693982,-0.03515776832154107
-0.005495713418693982,-0.03453241072420563
-0.005495373418693982,-0.03324878197177675
-0.005495033418693982,-0.03357791754932233
-0.005494693418693982,-0.03542107678357417
-0.005494353418693982,-0.03265633793219473
-0.005494013418693982,-0.03153727696853979
-0.005493673418693982,-0.02933206859898847
-0.005493333418693982,-0.02966120417653003
-0.005492993418693982,-0.02794969917329306
-0.005492653418693982,-0.03094483292895232
-0.005492313418693982,-0.03002325331183016
-0.005491973418693982,-0.02462542984008279
-0.005491633418693982,-0.02610653993903517
-0.005491293418693982,-0.02222274012400013
-0.005490953418693982,-0.02429629426253722
-0.005490613418693982,-0.02706103311392002
-0.005490273418693982,-0.02469125695559191
-0.005489933418693982,-0.02189360454645455
-0.005489593418693982,-0.02307849262561861
-0.005489253418693982,-0.0234734553186733
-0.005488913418693982,-0.02126824694911797
-0.005488573418693982,-0.02238730791277291
-0.005488233418693982,-0.02074163002504105
-0.005487893418693982,-0.01853642165548973
-0.005487553418693982,-0.01705531155653466
-0.005487213418693982,-0.01784523694264062
-0.005486873418693982,-0.01596916415063428
-0.005486533418693982,-0.01626538617042529
-0.005486193418693982,-0.01600207770838877
-0.005485853418693982,-0.01596916415063428
-0.005485513418693982,-0.01666034886347997
-0.005485173418693982,-0.01751610136509816
-0.005484833418693982,-0.01735153357632568
-0.005484493418693982,-0.01741736069183479
-0.005484153418693982,-0.01768066915387064
-0.005483813418693982,-0.01735153357632568
-0.005483473418693982,-0.01804271828917137
-0.005483133418693982,-0.01889847079078956
-0.005482793418693982,-0.01873390300201707
-0.005482453418693982,-0.02041249444749949
-0.005482113418693982,-0.02502039253312814
-0.005481773418693982,-0.01988587752342657
-0.005481433418693982,-0.01603499126614339
-0.005481093418693982,-0.01735153357632328
-0.005480753418693982,-0.01603499126614339
-0.005480413418693982,-0.02005044531219936
-0.005480073418693982,-0.0204454080052498
-0.005479733418693982,-0.01810854540468049
-0.005479393418693982,-0.01646286751695263
-0.005479053418693982,-0.01695657088327009
-0.005478713418693982,-0.01636412684368896
-0.005478373418693982,-0.01389561001209718
-0.005478033418693982,-0.01501467097575008
-0.005477693418693982,-0.01475136251371566
-0.005477353418693982,-0.01310568462598781
-0.005477013418693982,-0.01419183203188622
-0.005476673418693982,-0.01448805405167921
-0.005476333418693982,-0.01379686933883351
-0.005475993418693982,-0.0126448948174261
-0.005475653418693982,-0.01392852356985173
-0.005475313418693982,-0.01297403039496958
-0.005474973418693982,-0.01106504404520874
-0.005474633418693982,-0.0063584052863036
-0.005474293418693982,-0.01359938799230617
-0.005473953418693982,-0.01359938799230617
-0.005473613418693982,-0.01455388116718832
-0.005473273418693982,-0.01432348626290642
-0.005472933418693982,-0.01504758453350536
-0.005472593418693982,-0.01445514049392465
-0.005472253418693982,-0.01478427607147022
-0.005471913418693982,-0.01438931337841625
-0.005471573418693982,-0.01646286751695263
-0.005471233418693982,-0.009156057695440954
-0.005470893418693982,-0.009320625484213441
-0.005470553418693982,-0.008069910289540572
-0.005470213418693982,-0.01014346442807767
-0.005469873418693982,-0.01389561001209718
-0.005469533418693982,-0.01142709318050539
-0.005469193418693982,-0.0121182778933511
-0.005468853418693982,-0.01195371010457831
-0.005468513418693982,-0.01248032702865122
-0.005468173418693982,-0.0130398575104787
-0.005467833418693982,-0.01238158635538755
-0.005467493418693982,-0.01185496943131464
-0.005467153418693982,-0.01172331520029641
-0.005466813418693982,-0.01106504404520527
-0.005466473418693982,-0.01271072193293647
-0.005466133418693982,-0.01455388116718832
-0.005465793418693982,-0.01277654904844223
-0.005465453418693982,-0.01149292029601379
-0.005465113418693982,-0.01109795760295982
-0.005464773418693982,-0.01175622875805097
-0.005464433418693982,-0.01119669827622332
-0.005464093418693982,-0.01109795760295982
-0.005463753418693982,-0.01099921692969615
-0.005463413418693982,-0.01320442529925172
-0.005463073418693982,-0.01333607953026971
-0.005462733418693982,-0.01323733885700604
-0.005462393418693982,-0.01238158635538713
-0.005462053418693982,-0.01215119145110565
-0.005461713418693982,-0.01373104222332439
-0.005461373418693982,-0.01590333703511996
-0.005461033418693982,-0.0130398575104787
-0.005460693418693982,-0.008234478078313356
-0.005460353418693982,-0.01386269645434555
-0.005460013418693982,-0.01547546078431592
-0.005459673418693982,-0.01317151174149692
-0.005459333418693982,-0.0129411168372152
-0.005458993418693982,-0.0130398575104787
-0.005458653418693982,-0.01491593030248845
-0.005458313418693982,-0.01195371010457717
-0.005457973418693982,-0.01132835250724173
-0.005457633418693982,-0.01175622875805097
-0.005457293418693982,-0.01201953722008695
-0.005456953418693982,-0.0102751186590959
-0.005456613418693982,-0.01067008135215058
-0.005456273418693982,-0.009583933946252175
-0.005455933418693982,-0.008069910289540572
-0.005455593418693982,-0.009748501735022983
-0.005455253418693982,-0.008629440771370076
-0.005454913418693982,-0.0084319594248407
-0.005454573418693982,-0.009814328850532097
-0.005454233418693982,-0.01198662366232891
-0.005453893418693982,-0.0116574880847873
-0.005453553418693982,-0.01205245077784198
-0.005453213418693982,-0.011854969431315
-0.005452873418693982,-0.01182205587356008
-0.005452533418693982,-0.01215119145110565
-0.005452193418693982,-0.01317151174149507
-0.005451853418693982,-0.01083464914092337
-0.005451513418693982,-0.0109663033719416
-0.005451173418693982,-0.012184105008858
-0.005450833418693982,-0.01099921692969615
-0.005450493418693982,-0.01504758453350668
-0.005450153418693982,-0.009353539041978654
-0.005449813418693982,-0.01034094577460501
-0.005449473418693982,-0.009913069523795767
-0.005449133418693982,-0.01027511865909524
-0.005448793418693982,-0.01517923876452491
-0.005448453418693982,-0.01346773376128794
-0.005448113418693982,-0.01261198125966945
-0.005447773418693982,-0.01248032702865122
-0.005447433418693982,-0.01267780837517857
-0.005447093418693982,-0.01264489481742401
-0.005446753418693982,-0.01162457452703274
-0.005446413418693982,-0.009814328850532097
-0.005446073418693982,-0.009814328850532097
-0.005445733418693982,-0.01113087116071169
-0.005445393418693982,-0.009649761061759313
-0.005445053418693982,-0.01093338981418704
-0.005444713418693982,-0.01195371010457903
-0.005444373418693982,-0.01234867279763299
-0.005444033418693982,-0.0105055135633778
-0.005443693418693982,-0.01188788298906746
-0.005443353418693982,-0.01093338981418704
-0.005443013418693982,-0.01037385933235957
-0.005442673418693982,-0.01014346442807713
-0.005442333418693982,-0.009847242408286654
-0.005441993418693982,-0.009518106830741082
-0.005441653418693982,-0.009781415292776522
-0.005441313418693982,-0.009221884810950071
-0.005440973418693982,-0.009353539041968298
-0.005440633418693982,-0.01057134067889152
-0.005440293418693982,-0.01310568462598781
-0.005439953418693982,-0.01241449991314211
-0.005439613418693982,-0.007411639134450566
-0.005439273418693982,-0.008036996731786015
-0.005438933418693982,-0.00783951538525867
-0.005438593418693982,-0.01103213048746011
-0.005438253418693982,-0.01619955905491618
-0.005437913418693982,-0.01429057270515186
-0.005437573418693982,-0.01540963366880842
-0.005437233418693982,-0.01629829972817985
-0.005436893418693982,-0.01537672011105225
-0.005436553418693982,-0.01514632520677077
-0.005436213418693982,-0.01550837434207047
-0.005435873418693982,-0.01379686933883351
-0.005435533418693982,-0.01294111683721658
-0.005435193418693982,-0.01547546078431592
-0.005434853418693982,-0.01415891847413363
-0.005434513418693982,-0.01363230155006168
-0.005434173418693982,-0.01399435068536085
-0.005433833418693982,-0.01346773376128794
-0.005433493418693982,-0.01445514049392285
-0.005433153418693982,-0.01392852356985173
-0.005432813418693982,-0.01327025241476059
-0.005432473418693982,-0.0119207965468262
-0.005432133418693982,-0.01373104222332439
-0.005431793418693982,-0.0121182778933511
-0.005431453418693982,-0.01182205587356062
-0.005431113418693982,-0.01169040164254185
-0.005430773418693982,-0.01159166096927818
-0.005430433418693982,-0.01116378471846972
-0.005430093418693982,-0.01122961183397805
-0.005429753418693982,-0.01422474558964275
-0.005429413418693982,-0.01310568462598984
-0.005429073418693982,-0.007905342500767784
-0.005428733418693982,-0.009485193272986525
-0.005428393418693982,-0.007806601827507167
-0.005428053418693982,-0.008991489906668169
-0.005427713418693982,-0.01238158635538755
-0.005427373418693982,-0.01422474558964275
-0.005427033418693982,-0.01218410500886021
-0.005426693418693982,-0.01560711501533415
-0.005426353418693982,-0.01435639982066098
-0.005426013418693982,-0.01442222693617009
-0.005425673418693982,-0.0167920030944982
-0.005425333418693982,-0.01685783021000732
-0.005424993418693982,-0.01583750991961605
-0.005424653418693982,-0.0167920030944982
-0.005424313418693982,-0.01685783021000732
-0.005423973418693982,-0.01488301674473611
-0.005423633418693982,-0.0161008183816525
-0.005423293418693982,-0.01580459636186149
-0.005422953418693982,-0.01429057270515072
-0.005422613418693982,-0.01366521510781528
-0.005422273418693982,-0.01317151174149692
-0.005421933418693982,-0.01178914231580582
-0.005421593418693982,-0.01195371010457831
-0.005421253418693982,-0.01146000673825995
-0.005420913418693982,-0.0098143288505306
-0.005420573418693982,-0.008991489906668169
-0.005420233418693982,-0.008695267886877155
-0.005419893418693982,-0.008629440771370855
-0.005419553418693982,-0.01017637798583223
-0.005419213418693982,-0.01504758453350668
-0.005418873418693982,-0.006490059517322429
-0.005418533418693982,-0.006819195094867402
-0.005418193418693982,-0.007115417114658414
-0.005417853418693982,-0.005535566342448414
-0.005417513418693982,-0.01034094577460501
-0.005417173418693982,-0.01195371010457831
-0.005416833418693982,-0.01020929154359055
-0.005416493418693982,-0.01228284568212388
-0.005416153418693982,-0.01623247261267073
