Analysis/files/cmb03_d2s01/wrd04_ch19.csv

#Digilent WaveForms Oscilloscope Acquisition
#Device Name: ADP3450
#Serial Number: SN:210018B9D9B0
#Date Time: 2024-08-09 15:14:35.075.446.210
#Sample rate: 2.94118e+06Hz
#Samples: 32768
#Trigger: Source: Channel 3 Type: Edge Condition: Rising Level: 20 mV Hyst.: Auto HoldOff: 0 s
#Channel 3: Range: 200 mV/div Offset: 0 V Attenuation: 1 X Coupling: DC Bandwidth: 0 Hz Sample Mode: Average

Time (s),Channel 3 (V)
-0.005570220000000001,0.001734432863827772
-0.00556988,0.0002862363226285168
-0.00556954,0.0009774210354729588
-0.005569200000000001,0.0003191498803818167
-0.00556886,-0.001227787334080931
-0.00556852,-0.0004378619479729968
-0.005568180000000001,-9.985697163754359e-06
-0.00556784,-0.004815365129326278
-0.0055675,-0.003268427914864908
-0.005567160000000001,0.003775073444610313
-0.00556682,0.002491444692181508
-0.00556648,0.001899000652600558
-0.005566140000000001,-0.002478502528755537
-0.0055658,-0.006362302343792678
-0.00556546,-0.006033166766247705
-0.005565120000000001,-0.005901512535229476
-0.00556478,-0.008501683597840325
-0.00556444,-0.008962473406403288
-0.005564100000000001,-0.00767884465397556
-0.00556376,-0.008435856482334445
-0.00556342,-0.01067397840964026
-0.005563080000000001,-0.009159954752930631
-0.005562740000000001,-0.01018027504332004
-0.0055624,-0.01120059533371317
-0.005562060000000001,-0.01123350889146773
-0.005561720000000001,-0.01123350889146773
-0.00556138,-0.01251713764389546
-0.005561040000000001,-0.01083854619841304
-0.005560700000000001,-0.01057523773637706
-0.00556036,-0.01284627322144103
-0.005560020000000001,-0.01238548341287723
-0.005559680000000001,-0.01162847158452379
-0.00555934,-0.01261587831715913
-0.005559000000000001,-0.01320832235674115
-0.005558660000000001,-0.01333997658775914
-0.00555832,-0.01389950706958685
-0.005557980000000001,-0.01208926139308621
-0.005557640000000001,-0.01067397840964283
-0.0055573,-0.01610471543914218
-0.005556960000000001,-0.01090437331392216
-0.005556620000000001,-0.007218054845418467
-0.00555628,-0.008863732733139616
-0.005555940000000001,-0.01067397840964026
-0.005555600000000001,-0.01439321043589844
-0.00555526,-0.01505148159099635
-0.005554920000000001,-0.01498565447548724
-0.005554580000000001,-0.01455777822467877
-0.00555424,-0.01515022226426002
-0.005553900000000001,-0.01610471543914218
-0.005553560000000001,-0.0143273833203961
-0.00555322,-0.01422864264713243
-0.00555288,-0.01449195110916888
-0.005552540000000001,-0.01445903755141432
-0.0055522,-0.014557778224678
-0.00555186,-0.01399824774285052
-0.005551520000000001,-0.01426155620488698
-0.00555118,-0.01320832235674211
-0.00555084,-0.01373493928081407
-0.005550500000000001,-0.01475525957120534
-0.00555016,-0.01231965629737176
-0.00554982,-0.0143273833203961
-0.005549480000000001,-0.01399824774285052
-0.00554914,-0.0133070630300059
-0.0055488,-0.01389950706958685
-0.005548460000000001,-0.01291210033695014
-0.00554812,-0.01301084101021483
-0.00554778,-0.01357037149204128
-0.005547440000000001,-0.01468943245569622
-0.0055471,-0.01136516312250056
-0.00554676,-0.01939607121459789
-0.005546420000000001,-0.01722377640279712
-0.00554608,-0.01551227139956931
-0.00554574,-0.02054804573600739
-0.005545400000000001,-0.02067969996702562
-0.00554506,-0.01761873909585061
-0.00554472,-0.01696046794076066
-0.005544380000000001,-0.01834283736645206
-0.00554404,-0.01491982735997639
-0.0055437,-0.01396533418509597
-0.005543360000000001,-0.01442612399365977
-0.00554302,-0.01281335966368539
-0.00554268,-0.01222091562410444
-0.005542340000000001,-0.01304375456796837
-0.005542000000000001,-0.01459069178242974
-0.00554166,-0.01274753254817735
-0.005541320000000001,-0.01505148159099635
-0.005540980000000001,-0.0156439256305773
-0.00554064,-0.01505148159099635
-0.005540300000000001,-0.01649967813219686
-0.005539960000000001,-0.01719086284504131
-0.00553962,-0.01534770361078737
-0.005539280000000001,-0.01357037149204128
-0.005538940000000001,-0.01541353072629313
-0.0055386,-0.01534770361078737
-0.005538260000000001,-0.01666424592096965
-0.005537920000000001,-0.01768456621135906
-0.00553758,-0.01735543063381535
-0.005537240000000001,-0.01913276275256143
-0.005536900000000001,-0.02084426775579529
-0.00553656,-0.0190011085215432
-0.005536220000000001,-0.01784913400013371
-0.005535880000000001,-0.01811244246216968
-0.00553554,-0.01659841880546054
-0.005535200000000001,-0.01495274091773268
-0.005534860000000001,-0.01465651889794221
-0.00553452,-0.0150185680332418
-0.005534180000000001,-0.01403116130060508
-0.005533840000000001,-0.01468943245569503
-0.0055335,-0.01426155620488698
-0.005533160000000001,-0.0136361986075504
-0.005532820000000001,-0.01544644428405104
-0.00553248,-0.01798078823115194
-0.00553214,-0.01462360534018711
-0.005531800000000001,-0.01370202572305951
-0.00553146,-0.01468943245569622
-0.00553112,-0.01139807668024051
-0.005530780000000001,-0.01676298659423332
-0.00553044,-0.01840866448196118
-0.0055301,-0.01468943245569622
-0.005529760000000001,-0.01373493928081407
-0.00552942,-0.01406407485835868
-0.00552908,-0.01353745793428673
-0.005528740000000001,-0.01301084101021381
-0.0055284,-0.01544644428404948
-0.00552806,-0.01459069178243255
-0.005527720000000001,-0.01653259168995142
-0.00552738,-0.01883654073276772
-0.00552704,-0.01735543063381535
-0.005526700000000001,-0.01663133236321509
-0.00552636,-0.01719086284504125
-0.00552602,-0.01646676457444231
-0.005525680000000001,-0.0143273833203961
-0.00552534,-0.01607180188138738
-0.005525,-0.0159401476503694
-0.005524660000000001,-0.01557809851506927
-0.00552432,-0.01702629505627145
-0.00552398,-0.01794787467339738
-0.005523640000000001,-0.01656550524770598
-0.0055233,-0.01732251707606337
-0.00552296,-0.01873780005950675
-0.005522620000000001,-0.02146962535313499
-0.00552228,-0.03269314854747273
-0.00552194,-0.05125639512100917
-0.005521600000000001,-0.06452055889609568
-0.00552126,-0.09022604750246124
-0.00552092,-0.1212635324649521
-0.005520580000000001,-0.1548682749323549
-0.005520240000000001,-0.1875514377825707
-0.0055199,-0.2142772466793305
-0.005519560000000001,-0.2354077507577562
-0.005519220000000001,-0.2542343057933286
-0.00551888,-0.2681896542812951
-0.005518540000000001,-0.275101501409752
-0.005518200000000001,-0.2772408826637944
-0.00551786,-0.2772079691060437
-0.005517520000000001,-0.2734558235220242
-0.005517180000000001,-0.2652603476411544
-0.00551684,-0.2580851920506461
-0.005516500000000001,-0.2498238890542522
-0.005516160000000001,-0.2394890319193401
-0.00551582,-0.2318860000780186
-0.005515480000000001,-0.2229005988110245
-0.005515140000000001,-0.2137177161975198
-0.0055148,-0.2072337453198553
-0.005514460000000001,-0.2008156015577167
-0.005514120000000001,-0.1936404459672363
-0.00551378,-0.1887363258617942
-0.005513440000000001,-0.1831739346012741
-0.005513100000000001,-0.1759329518952847
-0.00551276,-0.1707984368855606
-0.005512420000000001,-0.1665196743774682
-0.005512080000000001,-0.1597065679222748
-0.00551174,-0.1549999291633732
-0.005511400000000001,-0.1547366207013367
-0.005511060000000001,-0.1422952958701141
-0.00551072,-0.1354492758571663
-0.00551038,-0.1311046862335647
-0.005510040000000001,-0.1260359983393629
-0.0055097,-0.12550938141529
-0.00550936,-0.1212964460227067
-0.005509020000000001,-0.1165239801482959
-0.00550868,-0.1125743532177462
-0.00550834,-0.1110274160032849
-0.005508000000000001,-0.1071765297460017
-0.00550766,-0.1022065825250599
-0.00550732,-0.1001988555020356
-0.005506980000000001,-0.09684167261107077
-0.00550664,-0.09236542875644625
-0.0055063,-0.089765257693841
-0.005505960000000001,-0.08815249336386768
-0.00550562,-0.08321545970067878
-0.00550528,-0.08028615306052853
-0.005504940000000001,-0.0784759073840279
-0.0055046,-0.07584282276365632
-0.00550426,-0.07199193650638014
-0.005503920000000001,-0.07093870265823432
-0.00550358,-0.06850309938439253
-0.00550324,-0.06600166899505075
-0.005502900000000001,-0.06501426226241405
-0.00550256,-0.06346732504794782
-0.00550222,-0.06234826408429492
-0.005501880000000001,-0.06277614033510415
-0.00550154,-0.06122920312063093
-0.0055012,-0.05625925589970185
-0.005500860000000001,-0.06053801840779428
-0.00550052,-0.05520602205155171
-0.00550018,-0.05283624589322791
-0.005499840000000001,-0.05026898838837246
-0.005499500000000001,-0.05263876454669626
-0.00549916,-0.05365908483709184
-0.005498820000000001,-0.04928158165573574
-0.005498480000000001,-0.04845874271187332
-0.00549814,-0.04641810213108927
-0.005497800000000001,-0.04529904116743434
-0.005497460000000001,-0.04378501751072746
-0.00549712,-0.04059240240853267
-0.005496780000000001,-0.03950625500263228
-0.005496440000000001,-0.03802514490367991
-0.0054961,-0.03674151615124949
-0.005495760000000001,-0.03420717220414859
-0.005495420000000001,-0.03483252980148403
-0.00549508,-0.03242984008540251
-0.005494740000000001,-0.03223235873887517
-0.005494400000000001,-0.03338433326028257
-0.00549406,-0.03154117402602946
-0.005493720000000001,-0.02927013854096502
-0.005493380000000001,-0.03029045883135444
-0.00549304,-0.03022463171584718
-0.005492700000000001,-0.02861186738587388
-0.005492360000000001,-0.02775611488425695
-0.00549202,-0.02601169632326387
-0.005491680000000001,-0.02331278458739018
-0.005491340000000001,-0.02538633872592351
-0.005491,-0.02588004209224564
-0.005490660000000001,-0.02874352161689211
-0.005490320000000001,-0.02555090651470007
-0.00548998,-0.02736115219120071
-0.00548964,-0.02686744882488236
-0.005489300000000001,-0.02495846247511804
-0.00548896,-0.02913848430994679
-0.00548862,-0.02973092834952882
-0.005488280000000001,-0.0277561148842554
-0.00548794,-0.02683453526712648
-0.0054876,-0.02611043699652754
-0.005487260000000001,-0.0245305862243088
-0.00548692,-0.02650539968958133
-0.00548658,-0.02601169632326387
-0.005486240000000001,-0.02505720314838171
-0.0054859,-0.02515594382164676
-0.00548556,-0.0259129556500002
-0.005485220000000001,-0.02502428959062716
-0.00548488,-0.02495846247511649
-0.00548454,-0.02410270997349956
-0.005484200000000001,-0.02170002025741689
-0.00548386,-0.02295073545208665
-0.00548352,-0.0210746626600803
-0.005483180000000001,-0.01965937967663435
-0.00548284,-0.01877071361726125
-0.0054825,-0.01873780005950675
-0.005482160000000001,-0.01715794928728801
-0.00548182,-0.0174541713070816
-0.00548148,-0.01886945429052498
-0.005481140000000001,-0.01742125774932446
-0.0054808,-0.01939607121460322
-0.00548046,-0.02232537785475347
-0.005480120000000001,-0.02413562353125412
-0.00547978,-0.0159072340926149
-0.00547944,-0.0159401476503694
-0.005479100000000001,-0.01360328504979584
-0.005478760000000001,-0.01278044610593341
-0.00547842,-0.01811244246217016
-0.005478080000000001,-0.01570975274608749
-0.005477740000000001,-0.01412990197387163
-0.0054774,-0.0159401476503694
-0.005477060000000001,-0.01738834419156991
-0.005476720000000001,-0.01686172726749795
-0.00547638,-0.01998851525417992
-0.005476040000000001,-0.02064678640927106
-0.005475700000000001,-0.01837575092421075
-0.00547536,-0.01873780005950675
-0.005475020000000001,-0.01860614582848852
-0.005474680000000001,-0.01623636967016472
-0.00547434,-0.01541353072629648
-0.005474000000000001,-0.01482108668671445
-0.005473660000000001,-0.01271461899042663
-0.00547332,-0.01370202572305951
-0.005472980000000001,-0.01347163081877761
-0.005472640000000001,-0.01136516312248979
-0.0054723,-0.01189178004655887
-0.005471960000000001,-0.01389950706958685
-0.005471620000000001,-0.01380076639632336
-0.00547128,-0.01445903755141432
-0.005470940000000001,-0.01811244246217016
-0.005470600000000001,-0.0177174797691162
-0.00547026,-0.01768456621136092
-0.005469920000000001,-0.02044930506274372
-0.005469580000000001,-0.02025182371621638
-0.00546924,-0.0129450138947047
-0.0054689,-0.01478817312895989
-0.005468560000000001,-0.01287918677919558
-0.00546822,-0.01478817312895989
-0.00546788,-0.01827701025094295
-0.005467540000000001,-0.01597306120812395
-0.0054672,-0.01426155620488698
-0.00546686,-0.01426155620488698
-0.005466520000000001,-0.01544644428405104
-0.00546618,-0.01333997658775824
-0.00546584,-0.0127146189904228
-0.005465500000000001,-0.01370202572305951
-0.00546516,-0.01080563264066112
-0.00546482,-0.012253829181859
-0.005464480000000001,-0.0129450138947047
-0.00546414,-0.01238548341287591
-0.0054638,-0.01166138514227697
-0.005463460000000001,-0.01399824774285052
-0.00546312,-0.01189178004656031
-0.00546278,-0.01268170543266824
-0.005462440000000001,-0.01406407485835964
-0.0054621,-0.01294501389470733
-0.00546176,-0.01439321043590521
-0.005461420000000001,-0.01804661534666105
-0.00546108,-0.01890236784827708
-0.00546074,-0.01755291198034269
-0.005460400000000001,-0.01959355256112523
-0.00546006,-0.01929733054133368
-0.00545972,-0.0190011085215432
-0.005459380000000001,-0.0236090066071812
-0.00545904,-0.01794787467339355
-0.0054587,-0.01584140697710572
-0.005458360000000001,-0.01459069178243255
-0.00545802,-0.01521604937977363
-0.00545768,-0.01768456621136092
-0.005457340000000001,-0.01765165265360636
-0.005457000000000001,-0.01653259168995346
-0.00545666,-0.01620345611240585
-0.005456320000000001,-0.01682881370974244
-0.005455980000000001,-0.01854031871297629
-0.00545564,-0.01623636967016041
-0.005455300000000001,-0.00860042427110316
-0.005454960000000001,-0.01580849341933805
-0.00545462,-0.01531479005303281
-0.005454280000000001,-0.0136361986075504
-0.005453940000000001,-0.01468943245569431
-0.0054536,-0.01274753254817735
-0.005453260000000001,-0.01199052071982254
-0.005452920000000001,-0.01327414947224793
-0.00545258,-0.0134058037032685
-0.005452240000000001,-0.0120234342775771
-0.005451900000000001,-0.01284627322143953
-0.00545156,-0.01333997658775938
-0.005451220000000001,-0.01284627322144103
-0.005450880000000001,-0.01399824774284843
-0.00545054,-0.01475525957120534
-0.005450200000000001,-0.01518313582201458
-0.005449860000000001,-0.01636802390117648
-0.00544952,-0.01936315765684333
-0.005449180000000001,-0.02025182371621638
-0.005448840000000001,-0.02272034054780367
-0.0054485,-0.01686172726749699
-0.005448160000000001,-0.01531479005303281
-0.005447820000000001,-0.01327414947225027
-0.00544748,-0.01508439514875091
-0.00544714,-0.01906693563705232
-0.005446800000000001,-0.01768456621136092
-0.00544646,-0.01696046794076066
-0.00544612,-0.01649967813219686
-0.005445780000000001,-0.01584140697710572
-0.00544544,-0.01712503572952872
-0.0054451,-0.01452486466692344
-0.005444760000000001,-0.01278044610593191
-0.00544442,-0.01057523773637874
-0.00544408,-0.01176012581554064
-0.005443740000000001,-0.01083854619841304
-0.0054434,-0.01222091562410378
-0.00544306,-0.01185886648880431
-0.005442720000000001,-0.0111018546604495
-0.00544238,-0.01505148159099462
-0.00544204,-0.0140969884161142
-0.005441700000000001,-0.01291210033695014
-0.00544136,-0.01241839697063448
-0.00544102,-0.01389950706958685
-0.005440680000000001,-0.01337289014551394
-0.00544034,-0.0124183969706343
-0.00544,-0.01380076639632318
-0.005439660000000001,-0.01195760716206798
-0.00543932,-0.01353745793428852
-0.00543898,-0.01452486466692344
-0.005438640000000001,-0.01626928322791496
-0.0054383,-0.01863905938623536
-0.00543796,-0.01439321043590521
-0.005437620000000001,-0.01429446976264154
-0.00543728,-0.01294501389470985
-0.00543694,-0.01577557986159661
-0.005436600000000001,-0.01985686102316169
-0.005436260000000001,-0.01798078823115535
-0.00543592,-0.01709212217177889
-0.005435580000000001,-0.01715794928728801
-0.005435240000000001,-0.01501856803324569
-0.0054349,-0.01343871726102305
-0.005434560000000001,-0.01287918677919558
-0.005434220000000001,-0.01129933600697972
-0.00543388,-0.01090437331392216
-0.005433540000000001,-0.01189178004655887
-0.005433200000000001,-0.01208926139308585
-0.00543286,-0.0129450138947047
-0.005432520000000001,-0.01370202572305951
-0.005432180000000001,-0.01166138514228068
-0.00543184,-0.01284627322144103
-0.005431500000000001,-0.01304375456796837
-0.005431160000000001,-0.01255005120165091
-0.00543082,-0.0134058037032685
-0.005430480000000001,-0.01534770361078737
-0.005430140000000001,-0.01501856803324239
-0.0054298,-0.01436029687815065
-0.005429460000000001,-0.01452486466692344
-0.005429120000000001,-0.01347163081877953
-0.00542878,-0.01412990197386875
-0.005428440000000001,-0.01426155620488698
-0.005428100000000001,-0.01807952890440866
-0.00542776,-0.01208926139308621
-0.005427420000000001,-0.01192469360431343
-0.005427080000000001,-0.01182595293104976
-0.00542674,-0.0108714597561676
-0.0054264,-0.0159401476503694
-0.005426060000000001,-0.01673007303647877
-0.00542572,-0.01350454437653217
-0.00542538,-0.01360328504979584
-0.005425040000000001,-0.01610471543914218
-0.0054247,-0.01475525957120534
-0.00542436,-0.01551227139956015
-0.005424020000000001,-0.01722377640279712
-0.00542368,-0.01646676457444255
-0.00542334,-0.01659841880546054
-0.005423000000000001,-0.01794787467339738
-0.00542266,-0.01807952890441399
-0.00542232,-0.01719086284504256
-0.005421980000000001,-0.01738834419156991
-0.00542164,-0.01659841880546017
-0.0054213,-0.01640093745893319
-0.005420960000000001,-0.01663133236321509
-0.00542062,-0.01603888832363289
-0.00542028,-0.0159401476503694
-0.005419940000000001,-0.01613762899689674
-0.0054196,-0.01613762899688937
-0.00541926,-0.01208926139308621
-0.005418920000000001,-0.01370202572305951
-0.00541858,-0.01222091562410312
-0.00541824,-0.01149681735350419
-0.005417900000000001,-0.01287918677919558
-0.00541756,-0.01784913400012317
-0.00541722,-0.01205634783533165
-0.005416880000000001,-0.009324522541703417
-0.00541654,-0.01705920861401961
-0.0054162,-0.01445903755141432
-0.005415860000000001,-0.01228674273961356
-0.00541552,-0.01462360534018789
-0.00541518,-0.01505148159099635
-0.005414840000000001,-0.01485400024446901
-0.005414500000000001,-0.01531479005303197
-0.00541416,-0.01735543063381535
-0.005413820000000001,-0.01709212217177889
-0.005413480000000001,-0.01788204755788683
-0.00541314,-0.01669715947872421
-0.005412800000000001,-0.01788204755788826
-0.005412460000000001,-0.01715794928728933
-0.00541212,-0.01610471543914218
-0.005411780000000001,-0.01488691380222357
-0.005411440000000001,-0.01426155620488812
-0.0054111,-0.0131754087989866
-0.005410760000000001,-0.01301084101021381
-0.005410420000000001,-0.01409698841611222
-0.00541008,-0.01403116130060508
-0.005409740000000001,-0.01422864264713243
-0.005409400000000001,-0.009785312350275297
-0.00540906,-0.01768456621136092
-0.005408720000000001,-0.01692755438300611
-0.005408380000000001,-0.0170262950562696
-0.00540804,-0.01732251707606079
-0.005407700000000001,-0.01603888832363307
-0.005407360000000001,-0.01850740515522036
-0.00540702,-0.01314249524123204
-0.005406680000000001,-0.01419572908937787
-0.005406340000000001,-0.01113476821820963
-0.005406,-0.01307666812572293
-0.00540566,-0.01679590015198788
-0.005405320000000001,-0.01636802390117864
-0.00540498,-0.0159401476503694
-0.00540464,-0.01860614582848852
-0.005404300000000001,-0.01709212217177889
-0.00540396,-0.01758582553809725
-0.00540362,-0.01663133236321509
-0.005403280000000001,-0.01511730870650547
-0.00540294,-0.01551227139955913
-0.0054026,-0.01495274091773268
-0.005402260000000001,-0.01422864264713243
-0.00540192,-0.01363619860754968
-0.00540158,-0.01324123591449571
-0.005401240000000001,-0.01301084101021381
-0.0054009,-0.0106081512941218
-0.00540056,-0.005473636284420234
-0.005400220000000001,0.006737293642520453
-0.00539988,0.02237123357597435
-0.00539954,0.04396252746292454
-0.005399200000000001,0.07312393963346214
-0.00539886,0.1027461416126174
-0.00539852,0.1323354300339104
-0.005398180000000001,0.160377781240793
-0.00539784,0.1845363326326716
-0.0053975,0.203033752090699
-0.005397160000000001,0.2148168057668305
-0.00539682,0.2250858357862631
-0.00539648,0.2310102761820726
-0.005396140000000001,0.2325242998387822
-0.0053958,0.2318989422414287
-0.00539546,0.222584405396906
-0.005395120000000001,0.2136319176876664
-0.00539478,0.2116571042223807
-0.00539444,0.2049098248827088
-0.005394100000000001,0.1964839540975422
-0.005393760000000001,0.1917773153386491
-0.00539342,0.1838122343620377
-0.005393080000000001,0.177097868580108
