Analysis/files/cmb03_d2s01/wrd04_ch13.csv

#Digilent WaveForms Oscilloscope Acquisition
#Device Name: ADP3450
#Serial Number: SN:210018B9D9B0
#Date Time: 2024-08-09 15:11:12.489.995.690
#Sample rate: 2.94118e+06Hz
#Samples: 32768
#Trigger: Source: Channel 3 Type: Edge Condition: Rising Level: 20 mV Hyst.: Auto HoldOff: 0 s
#Channel 3: Range: 200 mV/div Offset: 0 V Attenuation: 1 X Coupling: DC Bandwidth: 0 Hz Sample Mode: Average

Time (s),Channel 3 (V)
-0.005570505234899329,0.01285921538486808
-0.005570165234899328,0.008053835952697109
-0.005569825234899329,0.004959961523774369
-0.005569485234899329,0.008382971530248308
-0.005569145234899328,0.006967688546798161
-0.005568805234899329,0.004663739503983355
-0.005568465234899329,0.005387837774583611
-0.005568125234899328,0.005223269985808371
-0.005567785234899329,0.003873814117873984
-0.005567445234899329,0.00357759209808297
-0.005567105234899328,0.005025788639280729
-0.005566765234899329,0.003511764982573856
-0.005566425234899329,0.003380110751555628
-0.005566085234899328,0.003116802289516117
-0.005565745234899329,0.001438210844036758
-0.005565405234899329,0.0006811990156819448
-0.005565065234899328,0.0004178905536419558
-0.005564725234899329,-0.001524009353873381
-0.005564385234899329,-0.003860871954446936
-0.005564045234899328,-0.002346848297734974
-0.005563705234899329,-0.001063219545309582
-0.005563365234899329,-0.001458182238364267
-0.005563025234899329,-0.001293614449591781
-0.005562685234899329,-0.001524009353873381
-0.005562345234899329,-0.002840551664055666
-0.005562005234899329,-0.002248107624474715
-0.005561665234899329,-0.00415709397423795
-0.005561325234899329,-0.005736944746456691
-0.005560985234899329,-0.005210327822384735
-0.005560645234899329,-0.00517741426462922
-0.005560305234899329,-0.005802771861965805
-0.005559965234899329,-0.004749538013821893
-0.005559625234899329,-0.003827958396692379
-0.005559285234899329,-0.004321661763010735
-0.005558945234899329,-0.002741810990794868
-0.005558605234899329,-0.001096133103064139
-0.005558265234899329,-0.003038033010583008
-0.005557925234899329,-0.003498822819145969
-0.005557585234899329,-0.003795044838937822
-0.005557245234899329,-0.007415536191939104
-0.005556905234899329,-0.004881192244842817
-0.005556565234899329,-0.00494701936034732
-0.005556225234899329,-0.004255834647501621
-0.005555885234899329,-0.005769858304208494
-0.005555545234899329,-0.00860042427110316
-0.005555205234899329,-0.007250968403166318
-0.005554865234899329,-0.006000253208495423
-0.005554525234899329,-0.00711931417214809
-0.005554185234899329,-0.004782451571574535
-0.005553845234899329,-0.006263561670529605
-0.005553505234899329,-0.006625610805829733
-0.005553165234899329,-0.007645931096221003
-0.005552825234899329,-0.009324522541703417
-0.005552485234899329,-0.009752398792512659
-0.005552145234899329,-0.01146390379574963
-0.005551805234899329,-0.01176012581554064
-0.005551465234899329,-0.00962074456149006
-0.005551125234899329,-0.007218054845411761
-0.005550785234899329,-0.00665852436358429
-0.005550445234899328,-0.005704031188700038
-0.005550105234899329,-0.004552056667292635
-0.005549765234899329,-0.004288748205256179
-0.005549425234899328,-0.004650797340557564
-0.005549085234899329,-0.005341982053402005
-0.005548745234899329,-0.006230648112775047
-0.005548405234899328,-0.006592697248073619
-0.005548065234899329,-0.005736944746456691
-0.005547725234899329,-0.006395215901547833
-0.005547385234899328,-0.008304202251316515
-0.005547045234899329,-0.01070689196739481
-0.005546705234899329,-0.007975066673766575
-0.005546365234899328,-0.005243241380137017
-0.005546025234899329,-0.004519143109538078
-0.005545685234899329,-0.003202600799355794
-0.005545345234899328,-0.008304202251315139
-0.005545005234899329,-0.009949880139040001
-0.005544665234899329,-0.005967339650738591
-0.005544325234899328,-0.007152227729903724
-0.005543985234899329,-0.007744671769484675
-0.005543645234899329,-0.007020573498884419
-0.005543305234899328,-0.007678844653976099
-0.005542965234899329,-0.007975066673766575
-0.005542625234899329,-0.008995386964157845
-0.005542285234899329,-0.009324522541702818
-0.005541945234899329,-0.00962074456149443
-0.005541605234899329,-0.008830819175385059
-0.005541265234899329,-0.003729217723437987
-0.005540925234899329,-0.01212217495084077
-0.005540585234899329,-0.01073980552514937
-0.005540245234899329,-0.0103777563898499
-0.005539905234899329,-0.01103602754494038
-0.005539565234899329,-0.01014736148556734
-0.005539225234899329,-0.00935743609945941
-0.005538885234899329,-0.01027901571658557
-0.005538545234899329,-0.008534597155594046
-0.005538205234899329,-0.00837002936682156
-0.005537865234899329,-0.008995386964157845
-0.005537525234899329,-0.008732078502121389
-0.005537185234899329,-0.008929559848648372
-0.005536845234899329,-0.01070689196739481
-0.005536505234899329,-0.01373493928081407
-0.005536165234899329,-0.01274753254817915
-0.005535825234899329,-0.01014736148556734
-0.005535485234899329,-0.008271288693557588
-0.005535145234899329,-0.006592697248078229
-0.005534805234899329,-0.01235256985512267
-0.005534465234899329,-0.01429446976264154
-0.005534125234899329,-0.009620744561502931
-0.005533785234899329,-0.01011444792781279
-0.005533445234899329,-0.01218800206634988
-0.005533105234899329,-0.01097020042943127
-0.005532765234899329,-0.01037775638984924
-0.005532425234899329,-0.01021318860107646
-0.005532085234899329,-0.009522003888230759
-0.005531745234899329,-0.009522003888230759
-0.005531405234899329,-0.009357436099457973
-0.005531065234899329,-0.007942153116012016
-0.005530725234899329,-0.008633337828857716
-0.005530385234899329,-0.009653658119248986
-0.005530045234899329,-0.008830819175385059
-0.005529705234899328,-0.008797905617630981
-0.005529365234899329,-0.009061214079666959
-0.005529025234899329,-0.009324522541703417
-0.005528685234899328,-0.008337115809069635
-0.005528345234899329,-0.009949880139040001
-0.005528005234899329,-0.007843412442748346
-0.005527665234899328,-0.006691437921342379
-0.005527325234899329,-0.008633337828857716
-0.005526985234899329,-0.008073807347030245
-0.005526645234899328,-0.007349709076432145
-0.005526305234899329,-0.008534597155594046
-0.005525965234899329,-0.0111018546604495
-0.005525625234899328,-0.002675983875283838
-0.005525285234899329,-0.003202600799355794
-0.005524945234899329,-0.001688577142646167
-0.005524605234899328,-0.002873465221819383
-0.005524265234899329,-0.00790923955825746
-0.005523925234899329,-0.008830819175385059
-0.005523585234899328,-0.00586859897747947
-0.005523245234899329,-0.00837002936682126
-0.005522905234899329,-0.01166138514227697
-0.005522565234899328,-0.01547935784182469
-0.005522225234899329,-0.02597878276550931
-0.005521885234899329,-0.04138232779464204
-0.005521545234899328,-0.06234826408434455
-0.005521205234899329,-0.08963360346282276
-0.005520865234899329,-0.1217243222735159
-0.005520525234899329,-0.1530580292557973
-0.005520185234899329,-0.1826144041194466
-0.005519845234899329,-0.2104263604220473
-0.005519505234899329,-0.2307669391143266
-0.005519165234899329,-0.2455122129884052
-0.005518825234899329,-0.2544976142553993
-0.005518485234899329,-0.2590396852255199
-0.005518145234899329,-0.2574598344533094
-0.005517805234899329,-0.2553533667570178
-0.005517465234899329,-0.2501859381895617
-0.005517125234899329,-0.2432411775033408
-0.005516785234899329,-0.2381395760513844
-0.005516445234899329,-0.2289896069956342
-0.005516105234899329,-0.2224068954447061
-0.005515765234899329,-0.2175356888970317
-0.005515425234899329,-0.2134214941777196
-0.005515085234899329,-0.1996965405940617
-0.005514745234899329,-0.1934429646206959
-0.005514405234899329,-0.1870577344163234
-0.005514065234899329,-0.1809358126739642
-0.005513725234899329,-0.1777761111295267
-0.005513385234899329,-0.1702389064037468
-0.005513045234899329,-0.1618788627340756
-0.005512705234899329,-0.1559873358960099
-0.005512365234899329,-0.1525972394472905
-0.005512025234899329,-0.1458170465498518
-0.005511685234899329,-0.1408470993289136
-0.005511345234899329,-0.1377532248999853
-0.005511005234899329,-0.1318946116196741
-0.005510665234899329,-0.1268917508409814
-0.005510325234899329,-0.1236991357387894
-0.005509985234899329,-0.1200457308280335
-0.005509645234899329,-0.1152732649536228
-0.005509305234899329,-0.1112907244653213
-0.005508965234899329,-0.107176529745994
-0.005508625234899329,-0.1029306807956638
-0.005508285234899329,-0.1000013741555082
-0.005507945234899328,-0.09766451155492727
-0.005507605234899329,-0.0935832303933696
-0.005507265234899329,-0.09170715760135986
-0.005506925234899328,-0.09022604750239886
-0.005506585234899329,-0.08696760528470363
-0.005506245234899329,-0.08505861893493932
-0.005505905234899328,-0.0837749901825077
-0.005505565234899329,-0.08163560892846539
-0.005505225234899329,-0.08314963258517502
-0.005504885234899328,-0.07640235324547877
-0.005504545234899329,-0.06978672813682482
-0.005504205234899329,-0.06593584187954163
-0.005503865234899328,-0.06376354706774093
-0.005503525234899329,-0.06379646062549543
-0.005503185234899329,-0.06168999292920378
-0.005502845234899328,-0.05754288465212538
-0.005502505234899329,-0.05523893560931058
-0.005502165234899329,-0.05362617127933728
-0.005501825234899328,-0.05319829502852463
-0.005501485234899329,-0.05132222223651828
-0.005501145234899329,-0.05076269175469082
-0.005500805234899328,-0.05007150704184248
-0.005500465234899329,-0.04862331050064461
-0.005500125234899329,-0.04615479366905282
-0.005499785234899329,-0.04668141059312478
-0.005499445234899329,-0.04480533780111598
-0.005499105234899329,-0.04246847520054242
-0.005498765234899329,-0.04148106846790751
-0.005498425234899329,-0.04052657529302355
-0.005498085234899329,-0.03802514490367721
-0.005497745234899329,-0.02913848430996296
-0.005497405234899329,-0.03516166537903075
-0.005497065234899329,-0.0333514197025301
-0.005496725234899329,-0.03285771633621264
-0.005496385234899329,-0.03190322316132959
-0.005496045234899329,-0.02996132325381072
-0.005495705234899329,-0.03032337238911019
-0.005495365234899329,-0.03124495200623845
-0.005495025234899329,-0.03154117402602946
-0.005494685234899329,-0.03223235873887391
-0.005494345234899329,-0.02541925228368184
-0.005494005234899329,-0.02482680824409981
-0.005493665234899329,-0.02301656256760247
-0.005493325234899329,-0.02482680824409981
-0.005492985234899329,-0.02805233690404641
-0.005492645234899329,-0.02601169632326758
-0.005492305234899329,-0.0259129556500002
-0.005491965234899329,-0.02805233690404641
-0.005491625234899329,-0.02752571997997445
-0.005491285234899329,-0.02762446065323717
-0.005490945234899329,-0.02838147248159198
-0.005490605234899329,-0.02588004209224564
-0.005490265234899329,-0.02449767266655424
-0.005489925234899329,-0.02462932689757247
-0.005489585234899329,-0.02380648795370854
-0.005489245234899329,-0.02400396930023588
-0.005488905234899329,-0.02229246429699892
-0.005488565234899329,-0.02133797112211676
-0.005488225234899329,-0.02021891015846206
-0.005487885234899329,-0.02035056438948005
-0.005487545234899329,-0.0185403187129794
-0.005487205234899328,-0.01653259168995489
-0.005486865234899329,-0.01844157803971573
-0.005486525234899329,-0.01679590015198788
-0.005486185234899328,-0.01761873909585175
-0.005485845234899329,-0.01758582553809725
-0.005485505234899329,-0.01715794928728801
-0.005485165234899328,-0.01692755438300886
-0.005484825234899329,-0.01844157803971573
-0.005484485234899329,-0.02321404391412651
-0.005484145234899328,-0.01778330688462112
-0.005483805234899329,-0.01587432053486028
-0.005483465234899329,-0.01482108668671445
-0.005483125234899328,-0.01238548341288124
-0.005482785234899329,-0.01459069178243255
-0.005482445234899329,-0.01623636967016041
-0.005482105234899328,-0.01251713764389528
-0.005481765234899329,-0.01241839697063178
-0.005481425234899329,-0.0136361986075504
-0.005481085234899328,-0.01080563264065861
-0.005480745234899329,-0.0108714597561676
-0.005480405234899329,-0.01116768177595861
-0.005480065234899328,-0.01110185466044884
-0.005479725234899329,-0.01073980552514937
-0.005479385234899329,-0.01215508850859533
-0.005479045234899329,-0.01317540879898474
-0.005478705234899329,-0.0120234342775771
-0.005478365234899329,-0.01268170543266824
-0.005478025234899329,-0.01093728687167989
-0.005477685234899329,-0.01004862081230367
-0.005477345234899329,-0.01083854619841304
-0.005477005234899329,-0.01090437331392204
-0.005476665234899329,-0.009916966581285444
-0.005476325234899329,-0.01083854619841304
-0.005475985234899329,-0.01152973091125748
-0.005475645234899329,-0.01050941062086747
-0.005475305234899329,-0.01090437331392216
-0.005474965234899329,-0.01093728687167665
-0.005474625234899329,-0.0104106699476038
-0.005474285234899329,-0.01261587831715913
-0.005473945234899329,-0.01804661534665117
-0.005473605234899329,-0.01037775638984924
-0.005473265234899329,-0.008929559848648731
-0.005472925234899329,-0.009884053023529149
-0.005472585234899329,-0.00767884465397556
-0.005472245234899329,-0.0115626444690133
-0.005471905234899329,-0.01179303937329478
-0.005471565234899329,-0.008929559848648731
-0.005471225234899329,-0.009357436099457973
-0.005470885234899329,-0.01199052071981775
-0.005470545234899329,-0.009916966581285444
-0.005470205234899329,-0.0108714597561676
-0.005469865234899329,-0.01120059533371317
-0.005469525234899329,-0.01255005120165001
-0.005469185234899329,-0.009719485234758102
-0.005468845234899329,-0.01057523773637659
-0.005468505234899329,-0.01189178004655887
-0.005468165234899329,-0.01192469360431343
-0.005467825234899329,-0.01324123591449571
-0.005467485234899329,-0.01215508850859533
-0.005467145234899329,-0.01264879187491368
-0.005466805234899329,-0.01231965629736811
-0.005466465234899328,-0.01218800206634635
-0.005466125234899329,-0.01024610215883101
-0.005465785234899329,-0.01001570725454911
-0.005465445234899328,-0.01027901571658312
-0.005465105234899329,-0.008929559848648731
-0.005464765234899329,-0.009225781868439744
-0.005464425234899328,-0.00939034965721265
-0.005464085234899329,-0.009456176772721644
-0.005463745234899329,-0.01004862081230367
-0.005463405234899328,-0.01709212217176405
-0.005463065234899329,-0.008929559848648731
-0.005462725234899329,-0.006559783690320619
-0.005462385234899328,-0.007942153116008903
-0.005462045234899329,-0.006230648112775047
-0.005461705234899329,-0.009884053023530886
-0.005461365234899328,-0.01018027504331969
-0.005461025234899329,-0.008962473406403288
-0.005460685234899329,-0.009456176772721644
-0.005460345234899328,-0.01199052071982392
-0.005460005234899329,-0.01274753254817735
-0.005459665234899329,-0.01083854619841304
-0.005459325234899328,-0.01314249524123258
-0.005458985234899329,-0.01343871726102305
-0.005458645234899329,-0.01310958168347748
-0.005458305234899328,-0.01324123591449835
-0.005457965234899329,-0.01468943245569622
-0.005457625234899329,-0.01478817312895989
-0.005457285234899329,-0.0123854834128816
-0.005456945234899329,-0.01182595293104976
-0.005456605234899329,-0.008995386964157845
-0.005456265234899329,-0.007810498884995945
-0.005455925234899329,-0.008797905617630502
-0.005455585234899329,-0.007283881960920875
-0.005455245234899329,-0.007415536191938864
-0.005454905234899329,-0.009785312350267215
-0.005454565234899329,-0.01034484283209469
-0.005454225234899329,-0.00600025320850105
-0.005453885234899329,-0.008732078502121389
-0.005453545234899329,-0.01080563264065849
-0.005453205234899329,-0.01245131052838335
-0.005452865234899329,-0.01106894110269494
-0.005452525234899329,-0.004782451571574535
-0.005452185234899329,-0.003038033010586181
-0.005451845234899329,-0.003432995703637694
-0.005451505234899329,-0.008040893789275689
-0.005451165234899329,-0.008830819175383623
-0.005450825234899329,-0.007613017538466446
-0.005450485234899329,-0.008073807347030245
-0.005450145234899329,-0.008468770040084212
-0.005449805234899329,-0.01024610215883101
-0.005449465234899329,-0.01146390379574963
-0.005449125234899329,-0.01136516312248614
-0.005448785234899329,-0.01281335966368647
-0.005448445234899329,-0.01412990197386875
-0.005448105234899329,-0.0143273833203961
-0.005447765234899329,-0.01360328504979584
-0.005447425234899329,-0.01429446976264154
-0.005447085234899329,-0.01231965629736811
-0.005446745234899329,-0.009587831003739873
-0.005446405234899329,-0.009587831003739873
-0.005446065234899329,-0.009653658119248986
-0.005445725234899329,-0.009258695426196038
-0.005445385234899329,-0.01021318860107646
-0.005445045234899329,-0.01001570725454911
-0.005444705234899328,-0.01100311398718918
-0.005444365234899329,-0.01284627322144103
-0.005444025234899329,-0.01222091562410444
-0.005443685234899328,-0.009785312350267694
-0.005443345234899329,-0.01004862081230367
-0.005443005234899329,-0.01136516312248596
-0.005442665234899328,-0.01340580370326556
-0.005442325234899329,-0.0117930393732952
-0.005441985234899329,-0.004683710898310864
-0.005441645234899328,-0.008205461578056258
-0.005441305234899329,-0.0124842240861409
-0.005440965234899329,-0.01011444792781279
-0.005440625234899328,-0.006691437921340344
-0.005440285234899329,-0.007514276865202775
-0.005439945234899329,-0.009884053023530886
-0.005439605234899328,-0.008600424271103579
-0.005439265234899329,-0.008830819175385059
-0.005438925234899329,-0.01031192927434013
-0.005438585234899328,-0.01152973091125844
-0.005438245234899329,-0.01136516312248596
-0.005437905234899329,-0.0120234342775771
-0.005437565234899328,-0.01133224956472972
-0.005437225234899329,-0.0104106699476038
-0.005436885234899329,-0.01330706303000483
-0.005436545234899329,-0.0123854834128789
-0.005436205234899329,-0.0108714597561676
-0.005435865234899329,-0.01136516312248596
-0.005435525234899329,-0.0120234342775759
-0.005435185234899329,-0.01073980552514937
-0.005434845234899329,-0.01113476821820406
-0.005434505234899329,-0.0106410648518866
-0.005434165234899329,-0.01031192927434013
-0.005433825234899329,-0.01097020042943127
-0.005433485234899329,-0.01113476821820376
-0.005433145234899329,-0.008863732733139616
-0.005432805234899329,-0.008271288693557588
-0.005432465234899329,-0.01215508850858826
-0.005432125234899329,-0.009785312350267215
-0.005431785234899329,-0.007580103980711889
-0.005431445234899329,-0.007415536191939403
-0.005431105234899329,-0.005440722726665677
-0.005430765234899329,-0.0108714597561676
-0.005430425234899329,-0.01347163081877288
-0.005430085234899329,-0.01031192927434013
-0.005429745234899329,-0.009719485234758102
-0.005429405234899329,-0.01343871726101629
-0.005429065234899329,-0.0117930393732952
-0.005428725234899329,-0.008732078502121389
-0.005428385234899329,-0.007678844653977476
-0.005428045234899329,-0.007250968403166318
-0.005427705234899329,-0.004979932918101878
-0.005427365234899329,-0.005967339650738591
-0.005427025234899329,-0.006493956574811504
-0.005426685234899329,-0.006559783690320619
-0.005426345234899329,-0.008534597155594046
-0.005426005234899329,-0.01011444792781279
-0.005425665234899329,-0.01077271908290393
-0.005425325234899329,-0.01090437331392216
-0.005424985234899329,-0.01231965629736811
-0.005424645234899329,-0.01097020042943127
-0.005424305234899329,-0.01136516312248596
-0.005423965234899328,-0.01087145975616574
-0.005423625234899329,-0.009851139465776329
-0.005423285234899329,-0.009818225908021772
-0.005422945234899328,-0.009818225908019198
-0.005422605234899329,-0.008402942924575817
-0.005422265234899329,-0.008797905617630502
-0.005421925234899328,-0.01261587831714296
-0.005421585234899329,-0.003729217723428708
-0.005421245234899329,-0.004124180416483393
-0.005420905234899328,-0.005012846475859129
-0.005420565234899329,-0.006493956574811504
-0.005420225234899329,-0.01159555802676786
-0.005419885234899328,-0.01426155620488579
-0.005419545234899329,-0.01360328504979584
-0.005419205234899329,-0.0136361986075504
-0.005418865234899328,-0.01584140697710285
-0.005418525234899329,-0.01426155620488698
-0.005418185234899329,-0.01208926139308621
-0.005417845234899328,-0.01218800206634922
-0.005417505234899329,-0.01182595293104976
-0.005417165234899329,-0.01021318860107646
-0.005416825234899328,-0.009752398792513257
