Analysis/files/cmb03_d2s01/wrd05_ch04.csv

#Digilent WaveForms Oscilloscope Acquisition
#Device Name: ADP3450
#Serial Number: SN:210018B9D9B0
#Date Time: 2024-08-09 15:37:43.325.548.530
#Sample rate: 2.94118e+06Hz
#Samples: 32768
#Trigger: Source: Channel 3 Type: Edge Condition: Rising Level: 20 mV Hyst.: Auto HoldOff: 0 s
#Channel 3: Range: 200 mV/div Offset: 0 V Attenuation: 1 X Coupling: DC Bandwidth: 0 Hz Sample Mode: Average

Time (s),Channel 3 (V)
-0.005570490649819495,0.0006811990156819448
-0.005570150649819494,0.002261049787899309
-0.005569810649819495,0.001504037959545873
-0.005569470649819495,-0.001392355122855153
-0.005569130649819494,-0.000569516178994518
-0.005568790649819495,-0.002379761855491866
-0.005568450649819495,-0.004749538013819977
-0.005568110649819494,-0.006000253208497698
-0.005567770649819495,-0.008501683597839487
-0.005567430649819495,-0.00767884465397556
-0.005567090649819494,-0.006691437921339625
-0.005566750649819495,-0.00711931417214809
-0.005566410649819495,-0.007613017538466446
-0.005566070649819494,-0.006526870132572049
-0.005565730649819495,-0.009818225908021772
-0.005565390649819495,-0.004782451571574535
-0.005565050649819494,-0.002511416086510873
-0.005564710649819495,-0.002939292337319337
-0.005564370649819495,-0.004683710898310864
-0.005564030649819494,-0.009949880139037547
-0.005563690649819495,-0.00860042427110316
-0.005563350649819495,-0.01004862081230367
-0.005563010649819495,-0.01169429870002853
-0.005562670649819495,-0.01120059533371317
-0.005562330649819495,-0.01235256985512267
-0.005561990649819495,-0.0120234342775777
-0.005561650649819495,-0.01192469360431343
-0.005561310649819495,-0.01166138514227697
-0.005560970649819495,-0.01238548341287591
-0.005560630649819495,-0.01238548341287723
-0.005560290649819495,-0.01255005120165001
-0.005559950649819495,-0.01340580370326694
-0.005559610649819495,-0.01143099023799507
-0.005559270649819495,-0.01241839697063178
-0.005558930649819495,-0.01268170543266776
-0.005558590649819495,-0.0127146189904228
-0.005558250649819495,-0.0115626444690133
-0.005557910649819495,-0.01179303937329478
-0.005557570649819495,-0.01241839697063178
-0.005557230649819495,-0.01287918677919558
-0.005556890649819495,-0.01353745793428553
-0.005556550649819495,-0.01439321043590521
-0.005556210649819495,-0.01538061716854192
-0.005555870649819495,-0.01768456621135673
-0.005555530649819495,-0.01975812034989802
-0.005555190649819495,-0.02054804573600739
-0.005554850649819495,-0.01442612399367091
-0.005554510649819495,-0.01347163081877761
-0.005554170649819495,-0.01143099023799507
-0.005553830649819495,-0.01333997658775938
-0.005553490649819495,-0.01738834419156991
-0.005553150649819495,-0.01393242062734141
-0.005552810649819495,-0.01360328504979584
-0.005552470649819495,-0.01518313582201458
-0.005552130649819495,-0.0136361986075504
-0.005551790649819495,-0.01350454437653217
-0.005551450649819495,-0.0134716308187754
-0.005551110649819495,-0.012253829181859
-0.005550770649819495,-0.01126642244922228
-0.005550430649819495,-0.01116768177595802
-0.005550090649819495,-0.01083854619841304
-0.005549750649819495,-0.01047649706311291
-0.005549410649819495,-0.01189178004655672
-0.005549070649819495,-0.01070689196739481
-0.005548730649819495,-0.0111018546604495
-0.005548390649819494,-0.01162847158452235
-0.005548050649819495,-0.01159555802676786
-0.005547710649819495,-0.01208926139308621
-0.005547370649819494,-0.0137678528385712
-0.005547030649819495,-0.01518313582201458
-0.005546690649819495,-0.01567683918833294
-0.005546350649819494,-0.01751999842258778
-0.005546010649819495,-0.01732251707606079
-0.005545670649819495,-0.01673007303647877
-0.005545330649819494,-0.01834283736646003
-0.005544990649819495,-0.02272034054780816
-0.005544650649819495,-0.01719086284504256
-0.005544310649819494,-0.01406407485835868
-0.005543970649819495,-0.01353745793428673
-0.005543630649819495,-0.01215508850859533
-0.005543290649819494,-0.01732251707606277
-0.005542950649819495,-0.01840866448196118
-0.005542610649819495,-0.01475525957120534
-0.005542270649819495,-0.01610471543913972
-0.005541930649819495,-0.01755291198034269
-0.005541590649819495,-0.01699338149851522
-0.005541250649819495,-0.0160388883236348
-0.005540910649819495,-0.01689464082525155
-0.005540570649819495,-0.01656550524770598
-0.005540230649819495,-0.01097020042944145
-0.005539890649819495,-0.0131754087989866
-0.005539550649819495,-0.01659841880546054
-0.005539210649819495,-0.0146236053401907
-0.005538870649819495,-0.01452486466692344
-0.005538530649819495,-0.01597306120812395
-0.005538190649819495,-0.01445903755141708
-0.005537850649819495,-0.01472234601345078
-0.005537510649819495,-0.01551227139956015
-0.005537170649819495,-0.01564392563057814
-0.005536830649819495,-0.01663133236321509
-0.005536490649819495,-0.01590723409261484
-0.005536150649819495,-0.01505148159099791
-0.005535810649819495,-0.01636802390117864
-0.005535470649819495,-0.01692755438300611
-0.005535130649819495,-0.01594014765037119
-0.005534790649819495,-0.01847449159747029
-0.005534450649819495,-0.02370774728044487
-0.005534110649819495,-0.01824409669319833
-0.005533770649819495,-0.01626928322791496
-0.005533430649819495,-0.01626928322791496
-0.005533090649819495,-0.01491982735997812
-0.005532750649819495,-0.01722377640279712
-0.005532410649819495,-0.01705920861402434
-0.005532070649819495,-0.01383367995407774
-0.005531730649819495,-0.01557809851506927
-0.005531390649819495,-0.01640093745893319
-0.005531050649819495,-0.01676298659423332
-0.005530710649819495,-0.01587432053486028
-0.005530370649819495,-0.01702629505626978
-0.005530030649819495,-0.01942898477235245
-0.005529690649819495,-0.01426155620488938
-0.005529350649819495,-0.01557809851506927
-0.005529010649819495,-0.01564392563057838
-0.005528670649819495,-0.015841406977105
-0.005528330649819495,-0.01544644428405104
-0.005527990649819495,-0.01613762899689674
-0.005527650649819494,-0.01587432053486387
-0.005527310649819495,-0.01784913400013371
-0.005526970649819495,-0.02008725592744359
-0.005526630649819494,-0.01854031871298186
-0.005526290649819495,-0.01988977458091625
-0.005525950649819495,-0.02035056438948005
-0.005525610649819494,-0.02137088467986988
-0.005525270649819495,-0.02058095929376194
-0.005524930649819495,-0.02146962535313499
-0.005524590649819494,-0.02067969996702843
-0.005524250649819495,-0.0222266371814898
-0.005523910649819495,-0.02436601843553601
-0.005523570649819494,-0.01452486466692254
-0.005523230649819495,-0.01403116130060508
-0.005522890649819495,-0.01353745793428673
-0.005522550649819494,-0.02170002025743934
-0.005522210649819495,-0.0340426044153758
-0.005521870649819495,-0.04984111213756322
-0.005521530649819494,-0.07353887372089762
-0.005521190649819495,-0.1028319401224002
-0.005520850649819495,-0.1369303859561213
-0.005520510649819495,-0.1667500692816958
-0.005520170649819495,-0.1965697526073788
-0.005519830649819495,-0.2227031174644971
-0.005519490649819495,-0.2449197689487828
-0.005519150649819495,-0.2580522784928915
-0.005518810649819495,-0.2677946915882404
-0.005518470649819495,-0.2742786624658763
-0.005518130649819495,-0.2747065387166974
-0.005517790649819495,-0.2729292065979513
-0.005517450649819495,-0.2675972102417228
-0.005517110649819495,-0.2598625241693922
-0.005516770649819495,-0.2532798126184807
-0.005516430649819495,-0.2465654468365633
-0.005516090649819495,-0.2375471320118024
-0.005515750649819495,-0.2293187425731631
-0.005515410649819495,-0.2224727225602277
-0.005515070649819495,-0.2134873212932211
-0.005514730649819495,-0.2056538945476366
-0.005514390649819495,-0.200058589729372
-0.005514050649819495,-0.1926530392345865
-0.005513710649819495,-0.1893945970168854
-0.005513370649819495,-0.1825485770039499
-0.005513030649819495,-0.1685932285160053
-0.005512690649819495,-0.1670792048592956
-0.005512350649819495,-0.1624383932159031
-0.005512010649819495,-0.1556252867607098
-0.005511670649819495,-0.1500958090579442
-0.005511330649819495,-0.146837366840243
-0.005510990649819495,-0.1414724569262502
-0.005510650649819495,-0.1348239182598297
-0.005510310649819495,-0.1320591794084469
-0.005509970649819495,-0.1287678236329912
-0.005509630649819495,-0.1247523695869352
-0.005509290649819495,-0.1201115579435426
-0.005508950649819495,-0.1192228918841625
-0.005508610649819495,-0.1153390920691319
-0.005508270649819495,-0.1107641075412484
-0.005507930649819495,-0.1076702331123112
-0.005507590649819495,-0.1028319401224002
-0.005507250649819495,-0.09907979453838064
-0.005506910649819494,-0.096874586168817
-0.005506570649819495,-0.09229960164094189
-0.005506230649819495,-0.08969943057833188
-0.005505890649819494,-0.08739548153550833
-0.005505550649819495,-0.08489405114616652
-0.005505210649819495,-0.08166852248621995
-0.005504870649819494,-0.08133938690866917
-0.005504530649819495,-0.0784759073840279
-0.005504190649819495,-0.07594156343692701
-0.005503850649819494,-0.07498707026204125
-0.005503510649819495,-0.07301225679677142
-0.005503170649819495,-0.06962216034805205
-0.005502830649819494,-0.06840435871113079
-0.005502490649819495,-0.06695616216993291
-0.005502150649819495,-0.06353315216345898
-0.005501810649819494,-0.06205204206450259
-0.005501470649819495,-0.06132794379390365
-0.005501130649819495,-0.05780619311416604
-0.005500790649819494,-0.05648965080398243
-0.005500450649819495,-0.05576555253338349
-0.005500110649819495,-0.05306664079750981
-0.005499770649819495,-0.05142096290978495
-0.005499430649819495,-0.05165135781406385
-0.005499090649819495,-0.04918284098247207
-0.005498750649819495,-0.04753716309474721
-0.005498410649819495,-0.04714220040168953
-0.005498070649819495,-0.04217225318075141
-0.005497730649819495,-0.04286343789359585
-0.005497390649819495,-0.04006578548445976
-0.005497050649819495,-0.04223808029626052
-0.005496710649819495,-0.04394958529949438
-0.005496370649819495,-0.0411848464481147
-0.005496030649819495,-0.040493661735269
-0.005495690649819495,-0.04075697019730497
-0.005495350649819495,-0.04108610577485102
-0.005495010649819495,-0.04062531596628723
-0.005494670649819495,-0.03809097201919093
-0.005494330649819495,-0.03246275364315706
-0.005493990649819495,-0.04069114308179634
-0.005493650649819495,-0.03723521951757413
-0.005493310649819495,-0.03641238057370391
-0.005492970649819495,-0.03545788739882176
-0.005492630649819495,-0.03424008576190536
-0.005492290649819495,-0.0321994451811206
-0.005491950649819495,-0.03058668085114731
-0.005491610649819495,-0.02854604027036848
-0.005491270649819495,-0.02634083190080944
-0.005490930649819495,-0.02663705392060045
-0.005490590649819495,-0.02472806757083614
-0.005490250649819495,-0.02341152526065386
-0.005489910649819495,-0.02505720314838171
-0.005489570649819495,-0.0247609811285907
-0.005489230649819495,-0.02400396930023588
-0.005488890649819495,-0.02535342516817273
-0.005488550649819495,-0.02732823863344615
-0.005488210649819495,-0.0311132977752125
-0.005487870649819495,-0.02686744882488236
-0.005487530649819495,-0.02709784372916425
-0.005487190649819495,-0.02489263535960791
-0.005486850649819495,-0.02433310487778146
-0.005486510649819495,-0.02936887921422869
-0.005486170649819495,-0.02894100296341329
-0.005485830649819495,-0.02555090651470007
-0.005485490649819495,-0.02489263535960893
-0.005485150649819494,-0.02268742699005444
-0.005484810649819495,-0.0231482167986174
-0.005484470649819495,-0.02347735237616297
-0.005484130649819494,-0.02202915583495887
-0.005483790649819495,-0.02005434236968903
-0.005483450649819495,-0.02229246429699892
-0.005483110649819494,-0.02199624227720784
-0.005482770649819495,-0.02196332871945334
-0.005482430649819495,-0.01903402207929776
-0.005482090649819494,-0.01860614582848864
-0.005481750649819495,-0.01867197294399764
-0.005481410649819495,-0.01985686102316169
-0.005481070649819494,-0.01969229323438824
-0.005480730649819495,-0.01933024409908878
-0.005480390649819495,-0.02225955073924436
-0.005480050649819494,-0.02225955073924388
-0.005479710649819495,-0.0219962422772079
-0.005479370649819495,-0.02160127958415322
-0.005479030649819495,-0.02153545246864422
-0.005478690649819495,-0.02087718131355296
-0.005478350649819495,-0.0201530830429527
-0.005478010649819495,-0.02166710669965958
-0.005477670649819495,-0.02189750160394423
-0.005477330649819495,-0.01689464082525155
-0.005476990649819495,-0.01814535601992244
-0.005476650649819495,-0.01531479005303281
-0.005476310649819495,-0.01699338149851522
-0.005475970649819495,-0.02110757621782738
-0.005475630649819495,-0.01956063900337068
-0.005475290649819495,-0.01626928322791496
-0.005474950649819495,-0.01959355256111919
-0.005474610649819495,-0.01870488650175219
-0.005474270649819495,-0.01824409669318839
-0.005473930649819495,-0.01949481188785929
-0.005473590649819495,-0.01870488650175219
-0.005473250649819495,-0.01719086284504256
-0.005472910649819495,-0.01761873909585103
-0.005472570649819495,-0.0192315034258251
-0.005472230649819495,-0.01886945429052498
-0.005471890649819495,-0.02084426775579481
-0.005471550649819495,-0.0208442677557984
-0.005471210649819495,-0.02209498295047157
-0.005470870649819495,-0.02383940151145993
-0.005470530649819495,-0.02374066083819943
-0.005470190649819495,-0.02146962535313499
-0.005469850649819495,-0.02206206939271702
-0.005469510649819495,-0.02206206939271702
-0.005469170649819495,-0.02077844064028929
-0.005468830649819495,-0.01982394746540713
-0.005468490649819495,-0.02005434236968903
-0.005468150649819495,-0.01873780005950675
-0.005467810649819495,-0.01768456621136092
-0.005467470649819495,-0.02219372362373525
-0.005467130649819495,-0.01926441698357966
-0.005466790649819495,-0.01472234601345078
-0.005466450649819495,-0.01475525957120103
-0.005466110649819495,-0.01238548341287723
-0.005465770649819495,-0.01538061716854192
-0.005465430649819495,-0.01758582553809282
-0.005465090649819495,-0.01515022226426002
-0.005464750649819495,-0.01307666812572293
-0.005464410649819494,-0.01534770361078599
-0.005464070649819495,-0.01459069178243255
-0.005463730649819495,-0.01370202572305951
-0.005463390649819494,-0.01505148159099659
-0.005463050649819495,-0.01518313582201458
-0.005462710649819495,-0.0152489629375237
-0.005462370649819494,-0.01699338149851893
-0.005462030649819495,-0.01903402207929776
-0.005461690649819495,-0.01929733054133422
-0.005461350649819494,-0.02173293381517096
-0.005461010649819495,-0.02146962535313499
-0.005460670649819495,-0.02067969996702562
-0.005460330649819494,-0.02064678640926939
-0.005459990649819495,-0.01972520679214346
-0.005459650649819495,-0.01863905938624308
-0.005459310649819494,-0.01735543063381691
-0.005458970649819495,-0.01821118313543383
-0.005458630649819495,-0.01613762899689674
-0.005458290649819494,-0.01422864264713308
-0.005457950649819495,-0.01459069178243255
-0.005457610649819495,-0.01419572908937787
-0.005457270649819495,-0.01429446976264136
-0.005456930649819495,-0.0192315034258251
-0.005456590649819495,-0.01297792745245925
-0.005456250649819495,-0.01090437331392593
-0.005455910649819495,-0.01913276275256143
-0.005455570649819495,-0.01949481188786156
-0.005455230649819495,-0.0178162204423822
-0.005454890649819495,-0.02140379823762588
-0.005454550649819495,-0.02341152526065386
-0.005454210649819495,-0.02104174910233006
-0.005453870649819495,-0.02025182371621638
-0.005453530649819495,-0.02077844064028929
-0.005453190649819495,-0.01919858986807342
-0.005452850649819495,-0.01860614582848852
-0.005452510649819495,-0.01781622044237915
-0.005452170649819495,-0.01857323227073258
-0.005451830649819495,-0.01794787467339738
-0.005451490649819495,-0.01794787467339738
-0.005451150649819495,-0.01643385101669051
-0.005450810649819495,-0.01528187649527825
-0.005450470649819495,-0.01610471543914218
-0.005450130649819495,-0.01515022226426176
-0.005449790649819495,-0.01445903755141432
-0.005449450649819495,-0.01544644428405104
-0.005449110649819495,-0.01432738332039813
-0.005448770649819495,-0.006362302343793276
-0.005448430649819495,-0.01449195110916888
-0.005448090649819495,-0.01422864264713243
-0.005447750649819495,-0.01403116130060508
-0.005447410649819495,-0.01765165265360636
-0.005447070649819495,-0.01123350889146773
-0.005446730649819495,-0.01123350889146773
-0.005446390649819495,-0.01857323227073396
-0.005446050649819495,-0.0192315034258251
-0.005445710649819495,-0.01468943245569826
-0.005445370649819495,-0.01580849341935116
-0.005445030649819495,-0.01821118313543383
-0.005444690649819495,-0.01409698841611533
-0.005444350649819495,-0.01472234601345078
-0.005444010649819495,-0.01554518495731471
-0.005443670649819495,-0.0156110120728234
-0.005443330649819495,-0.01538061716854192
-0.005442990649819495,-0.01722377640279712
-0.005442650649819494,-0.01886945429052713
-0.005442310649819495,-0.02005434236968903
-0.005441970649819495,-0.02206206939271702
-0.005441630649819494,-0.02146962535313493
-0.005441290649819495,-0.02143671179538043
-0.005440950649819495,-0.02206206939271702
-0.005440610649819494,-0.02212789650822439
-0.005440270649819495,-0.02117340333334397
-0.005439930649819495,-0.02067969996702562
-0.005439590649819494,-0.01956063900336499
-0.005439250649819495,-0.01643385101668775
-0.005438910649819495,-0.01742125774932446
-0.005438570649819494,-0.01646676457444057
-0.005438230649819495,-0.01551227139956015
-0.005437890649819495,-0.01538061716854192
-0.005437550649819494,-0.02216081006597284
-0.005437210649819495,-0.01784913400013371
-0.005436870649819495,-0.014557778224678
-0.005436530649819495,-0.01863905938623565
-0.005436190649819495,-0.01465651889794167
-0.005435850649819495,-0.01613762899689674
-0.005435510649819495,-0.0213708846798618
-0.005435170649819495,-0.01449195110916888
-0.005434830649819495,-0.01330706303000483
-0.005434490649819495,-0.0160388883236281
-0.005434150649819495,-0.01712503572953345
-0.005433810649819495,-0.01554518495731471
-0.005433470649819495,-0.01840866448195597
-0.005433130649819495,-0.01959355256112523
-0.005432790649819495,-0.02035056438948005
-0.005432450649819495,-0.02100883554456999
-0.005432110649819495,-0.02018599660070726
-0.005431770649819495,-0.01959355256112523
-0.005431430649819495,-0.01975812034989772
-0.005431090649819495,-0.01949481188786156
-0.005430750649819495,-0.01725668996055168
-0.005430410649819495,-0.01682881370974321
-0.005430070649819495,-0.01603888832363307
-0.005429730649819495,-0.01617054255465129
-0.005429390649819495,-0.01617054255465129
-0.005429050649819495,-0.01570975274608749
-0.005428710649819495,-0.0150185680332418
-0.005428370649819495,-0.01518313582201428
-0.005428030649819495,-0.01643385101668775
-0.005427690649819495,-0.01508439514875091
-0.005427350649819495,-0.01689464082525155
-0.005427010649819495,-0.02318113035637196
-0.005426670649819495,-0.01834283736645206
-0.005426330649819495,-0.01468943245569622
-0.005425990649819495,-0.01965937967663435
-0.005425650649819495,-0.0124842240861409
-0.005425310649819495,-0.01284627322144103
-0.005424970649819495,-0.01857323227073396
-0.005424630649819495,-0.01584140697710572
-0.005424290649819495,-0.01324123591449571
-0.005423950649819495,-0.01643385101669164
-0.005423610649819495,-0.01857323227073396
-0.005423270649819495,-0.01646676457444231
-0.005422930649819495,-0.01854031871297898
-0.005422590649819495,-0.01830992380869751
-0.005422250649819495,-0.01817826957767928
-0.005421910649819494,-0.0195277254456142
-0.005421570649819495,-0.01847449159747029
-0.005421230649819495,-0.01821118313543383
-0.005420890649819494,-0.01873780005950777
-0.005420550649819495,-0.01929733054133422
-0.005420210649819495,-0.01705920861402434
-0.005419870649819494,-0.01755291198034137
-0.005419530649819495,-0.01682881370974244
-0.005419190649819495,-0.01577557986159661
-0.005418850649819494,-0.01646676457444237
-0.005418510649819495,-0.01649967813219686
-0.005418170649819495,-0.01587432053486028
-0.005417830649819494,-0.01501856803324533
-0.005417490649819495,-0.01696046794076066
-0.005417150649819495,-0.01531479005303281
-0.005416810649819494,-0.01584140697711135
-0.005416470649819495,-0.01893528140603409
-0.005416130649819495,-0.01886945429052498
-0.005415790649819494,-0.01113476821821316
-0.005415450649819495,-0.01613762899689674
