Analysis/files/cmb03_d2s01/wrd04_ch42.csv

#Digilent WaveForms Oscilloscope Acquisition
#Device Name: ADP3450
#Serial Number: SN:210018B9D9B0
#Date Time: 2024-08-09 15:27:18.673.582.190
#Sample rate: 2.94118e+06Hz
#Samples: 32768
#Trigger: Source: Channel 3 Type: Edge Condition: Rising Level: 20 mV Hyst.: Auto HoldOff: 0 s
#Channel 1: Range: 200 mV/div Offset: -820 mV Attenuation: 1 X Coupling: DC Bandwidth: 0 Hz Sample Mode: Average
#Channel 3: Range: 200 mV/div Offset: 0 V Attenuation: 1 X Coupling: DC Bandwidth: 0 Hz Sample Mode: Average

Time (s),Channel 1 (V),Channel 3 (V)
-0.00557029975308642,0.000986358178693636,0.005256183543565383
-0.00556995975308642,0.0009863581786940538,0.003413024309306952
-0.00556961975308642,0.001216088138698668,0.001635692190564101
-0.00556927975308642,0.001150451007268627,-0.0006024297367457822
-0.00556893975308642,0.001281725270128529,-0.004321661763001216
-0.00556859975308642,0.001183269572983647,0.0009115939199638446
-0.00556825975308642,0.001577092361563892,0.001931914210355115
-0.00556791975308642,0.001380180967273113,0.001339470170769615
-0.00556757975308642,0.001019176744408656,-0.0005695161789912252
-0.00556723975308642,0.001347362401558749,-0.003860871954446936
-0.00556689975308642,0.001117632441553487,-0.003070946568336428
-0.00556655975308642,0.001051995310123677,-0.00244558897100098
-0.00556621975308642,0.001084813875838697,-0.003169687241601236
-0.00556587975308642,0.001117632441554323,-0.003597563492411557
-0.00556553975308642,0.001511455230133851,-0.004190007531992507
-0.00556519975308642,0.00138018096727377,-0.006296475228284162
-0.00556485975308642,0.001084813875838757,-0.002741810990793611
-0.00556451975308642,0.001117632441553607,-0.003630477050165036
-0.00556417975308642,0.001084813875838697,-0.003597563492410479
-0.00556383975308642,0.0009535396129784962,-0.003400082145885651
-0.00556349975308642,0.0008879024815485748,-0.004782451571574535
-0.00556315975308642,0.001117632441553607,-0.005341982053402005
-0.005562819753086421,0.001412999532988253,-0.005210327822384017
-0.00556247975308642,0.001248906704413688,-0.006493956574811504
-0.00556213975308642,0.001019176744408656,-0.007152227729902647
-0.005561799753086421,0.001216088138698309,-7.581281268574051e-05
-0.00556145975308642,0.001216088138698668,-0.005736944746456691
-0.00556111975308642,0.001019176744408656,-0.007250968403166318
-0.005560779753086421,0.001117632441553427,-0.006888919267866848
-0.00556043975308642,0.001019176744408656,-0.00665852436358429
-0.00556009975308642,0.001248906704413688,-0.007711758211730118
-0.005559759753086421,0.001084813875838996,-0.007152227729903664
-0.00555941975308642,0.001019176744408656,-0.008797905617630502
-0.00555907975308642,0.001314543835843729,-0.01103602754494038
-0.005558739753086421,0.001478636664418533,-0.01636802390116894
-0.00555839975308642,0.00141299953298879,-0.01077271908290393
-0.00555805975308642,0.001117632441553607,-0.01123350889146773
-0.005557719753086421,0.001117632441553607,-0.01113476821820424
-0.00555737975308642,0.001216088138698668,-0.01057523773637659
-0.00555703975308642,0.001445818098703811,-0.01584140697710572
-0.00555669975308642,0.001577092361563653,-0.01459069178243483
-0.00555635975308642,0.001478636664418831,-0.01027901571658557
-0.00555601975308642,0.001445818098703811,-0.01222091562410444
-0.00555567975308642,0.001183269572984125,-0.01129933600697852
-0.00555533975308642,0.001216088138698668,-0.008468770040084931
-0.00555499975308642,0.001084813875838697,-0.008666251386612273
-0.00555465975308642,0.001019176744408776,-0.009357436099456716
-0.00555431975308642,0.001183269572983647,-0.008073807347030245
-0.00555397975308642,0.001183269572983647,-0.009785312350267215
-0.00555363975308642,0.001150451007268627,-0.01412990197386875
-0.00555329975308642,0.001216088138698668,-0.01383367995407774
-0.00555295975308642,0.001117632441553607,-0.01389950706958685
-0.00555261975308642,0.001051995310123677,-0.01314249524123204
-0.00555227975308642,0.001084813875838697,-0.01337289014551394
-0.00555193975308642,0.001051995310123677,-0.0124842240861409
-0.00555159975308642,0.000986358178693636,-0.0127146189904228
-0.00555125975308642,0.0009535396129791528,-0.01064106485188438
-0.00555091975308642,0.001248906704413688,-0.009916966581285444
-0.00555057975308642,0.00138018096727377,-0.01057523773637659
-0.00555023975308642,0.001412999532988372,-0.009324522541701741
-0.00554989975308642,0.001183269572983647,-0.008402942924575817
-0.00554955975308642,0.00138018096727377,-0.008501683597839487
-0.00554921975308642,0.00118326957298311,-0.008995386964157664
-0.00554887975308642,0.0008879024815485748,-0.008896646290894173
-0.00554853975308642,0.0009535396129786156,-0.01508439514875091
-0.00554819975308642,0.001150451007269224,-0.01110185466044555
-0.00554785975308642,0.001478636664418831,-0.008929559848648731
-0.00554751975308642,0.001708366624423863,-0.0108714597561676
-0.00554717975308642,0.001544273795848693,-0.01182595293105784
-0.00554683975308642,0.001445818098703811,-0.01626928322791496
-0.00554649975308642,0.00138018096727377,-0.01679590015198788
-0.00554615975308642,0.001380180967272994,-0.01478817312895702
-0.00554581975308642,0.0009535396129786156,-0.01320832235674115
-0.00554547975308642,0.001084813875838697,-0.01429446976264154
-0.00554513975308642,0.001248906704413867,-0.01350454437653139
-0.00554479975308642,0.001347362401558749,-0.01307666812572293
-0.00554445975308642,0.001084813875838697,-0.01343871726102305
-0.00554411975308642,0.001117632441553607,-0.01538061716853941
-0.00554377975308642,0.001117632441553607,-0.01399824774285052
-0.00554343975308642,0.001117632441553607,-0.0129450138947047
-0.00554309975308642,0.0009863581786938747,-0.01498565447548263
-0.00554275975308642,0.001117632441553607,-0.01245131052838634
-0.00554241975308642,0.001248906704413688,-0.01123350889146773
-0.005542079753086421,0.00134736240155857,-0.01090437331392276
-0.00554173975308642,0.001347362401558749,-0.0115626444690133
-0.00554139975308642,0.001445818098703811,-0.01126642244922228
-0.005541059753086421,0.001380180967273889,-0.01238548341287519
-0.00554071975308642,0.001511455230133851,-0.01212217495084077
-0.00554037975308642,0.00141299953298879,-0.01027901571658557
-0.005540039753086421,0.001380180967273829,-0.01255005120164588
-0.00553969975308642,0.001478636664418831,-0.01241839697063178
-0.00553935975308642,0.001281725270128709,-0.01136516312248596
-0.005539019753086421,0.001281725270128709,-0.01103602754494098
-0.00553867975308642,0.001347362401558749,-0.01478817312895989
-0.00553833975308642,0.0009535396129786156,-0.01804661534666105
-0.005537999753086421,0.0009207210472636549,-0.01202343427758805
-0.00553765975308642,0.001019176744408656,-0.009916966581285444
-0.00553731975308642,0.001117632441553607,-0.01350454437653217
-0.005536979753086421,0.0009863581786938747,-0.01561101207281999
-0.00553663975308642,0.001314543835843729,-0.01113476821820406
-0.00553629975308642,0.001445818098703811,-0.01027901571658557
-0.00553595975308642,0.001478636664418771,-0.01090437331392102
-0.00553561975308642,0.001281725270128709,-0.01228674273961356
-0.00553527975308642,0.001183269572983647,-0.01090437331392216
-0.00553493975308642,0.001150451007268687,-0.01222091562410205
-0.00553459975308642,0.001183269572983647,-0.01416281553162331
-0.00553425975308642,0.001117632441553607,-0.01478817312895989
-0.00553391975308642,0.001150451007268567,-0.01495274091773238
-0.00553357975308642,0.001281725270128709,-0.01603888832363307
-0.00553323975308642,0.001216088138698668,-0.01531479005303281
-0.00553289975308642,0.001248906704413688,-0.01412990197386875
-0.00553255975308642,0.001478636664418831,-0.01505148159099635
-0.00553221975308642,0.001478636664418831,-0.01468943245569622
-0.00553187975308642,0.001478636664418831,-0.01422864264713243
-0.00553153975308642,0.001117632441553607,-0.01406407485835964
-0.00553119975308642,0.0009535396129786156,-0.01742125774932446
-0.00553085975308642,0.001051995310123677,-0.01205634783533165
-0.00553051975308642,0.001248906704413688,-0.01304375456796837
-0.00553017975308642,0.001281725270128709,-0.01067397840964026
-0.00552983975308642,0.001511455230133851,-0.01083854619841304
-0.00552949975308642,0.00144581809870387,-0.01544644428404745
-0.00552915975308642,0.001478636664418831,-0.01347163081877761
-0.00552881975308642,0.001511455230133851,-0.01159555802676786
-0.00552847975308642,0.001347362401558331,-0.01264879187491656
-0.00552813975308642,0.001117632441553607,-0.01422864264713243
-0.00552779975308642,0.001051995310123677,-0.01251713764389546
-0.00552745975308642,0.00124890670441339,-0.01179303937329652
-0.00552711975308642,0.001084813875838697,-0.01251713764389546
-0.00552677975308642,0.00138018096727377,-0.01031192927434013
-0.00552643975308642,0.001412999532987716,-0.01179303937329634
-0.00552609975308642,0.000822265350118534,-0.01241839697063178
-0.00552575975308642,0.0008879024815485748,-0.01268170543266824
-0.00552541975308642,0.0009535396129788543,-0.01195760716207373
-0.00552507975308642,0.001084813875838697,-0.01511730870650547
-0.00552473975308642,0.001183269572983647,-0.01333997658775938
-0.00552439975308642,0.001019176744408418,-0.01327414947225111
-0.00552405975308642,0.0008879024815485748,-0.01373493928081407
-0.00552371975308642,0.001117632441553607,-0.01347163081877761
-0.00552337975308642,0.0008550839158339126,-0.01399824774285064
-0.00552303975308642,0.001051995310123677,-0.01406407485835964
-0.00552269975308642,0.001248906704413688,-0.01663133236321509
-0.00552235975308642,0.001380180967273531,-0.02107466266010503
-0.00552201975308642,0.001248906704413688,-0.03466796201271239
-0.00552167975308642,0.001216088138698668,-0.05270459166220968
-0.00552133975308642,0.00138018096727377,-0.07653400747656658
-0.00552099975308642,0.00138018096727377,-0.1081639364786384
-0.00552065975308642,0.001281725270128709,-0.1334086352763837
-0.005520319753086421,0.001084813875839055,-0.1641828117768386
-0.00551997975308642,0.000986358178693636,-0.1924884714458137
-0.00551963975308642,0.001117632441553607,-0.2220119327516515
-0.005519299753086421,0.001084813875838757,-0.2465325332787519
-0.00551895975308642,0.001150451007268627,-0.2613765478261018
-0.00551861975308642,0.001117632441553607,-0.2656882238919487
-0.005518279753086421,0.000855083915834032,-0.2786561656472206
-0.00551793975308642,0.001150451007268627,-0.2798739672841629
-0.00551759975308642,0.001445818098703811,-0.2767142657397254
-0.005517259753086421,0.001741185190138346,-0.2716126642877783
-0.00551691975308642,0.001741185190138883,-0.2643716815817664
-0.00551657975308642,0.001445818098703811,-0.2559128972388452
-0.005516239753086421,0.001445818098703811,-0.2496593212654908
-0.00551589975308642,0.001806822321568924,-0.2405422657674671
-0.00551555975308642,0.001872459452998965,-0.2349469609491924
-0.005515219753086421,0.00160991092727939,-0.2258628190089511
-0.00551487975308642,0.00141299953298879,-0.2178319109168227
-0.00551453975308642,0.001248906704413688,-0.2106238417685747
-0.00551419975308642,0.001314543835843609,-0.2051931047390826
-0.00551385975308642,0.001216088138698668,-0.1967343203961516
-0.00551351975308642,0.001248906704413688,-0.1895920783634127
-0.00551317975308642,0.001675548058708066,-0.1833055888323037
-0.00551283975308642,0.002167826544434148,-0.1761633467995534
-0.00551249975308642,0.001642729492993933,-0.1707326097700515
-0.00551215975308642,0.001248906704413688,-0.1664538472619591
-0.00551181975308642,0.001117632441553607,-0.1601673577308386
-0.00551147975308642,0.001248906704413688,-0.1536833868531909
-0.00551113975308642,0.00138018096727377,-0.1522022767542358
-0.00551079975308642,0.001347362401558749,-0.1502932904044715
-0.00551045975308642,0.001445818098703811,-0.1372924350914214
-0.00551011975308642,0.001741185190138883,-0.1327832776790471
-0.00550977975308642,0.001347362401558749,-0.1262005661281357
-0.00550943975308642,0.00138018096727377,-0.1221192849665706
-0.00550909975308642,0.00138018096727377,-0.1232712594879801
-0.00550875975308642,0.001511455230133433,-0.1172151648611293
-0.00550841975308642,0.001281725270128709,-0.1104678855214574
-0.00550807975308642,0.00138018096727377,-0.1075714924390564
-0.00550773975308642,0.001544273795848872,-0.1046750993566524
-0.00550739975308642,0.001544273795848872,-0.1030294214689275
-0.00550705975308642,0.001216088138698668,-0.09963932502020811
-0.00550671975308642,0.001150451007268985,-0.09605174722495524
-0.00550637975308642,0.001347362401558749,-0.092661650776242
-0.00550603975308642,0.001347362401558749,-0.09164133048585074
-0.00550569975308642,0.001183269572984006,-0.08963360346281402
-0.00550535975308642,0.00138018096727377,-0.08482822403065743
-0.00550501975308642,0.001642729492993933,-0.08199765806376552
-0.00550467975308642,0.001248906704413509,-0.07998993104073078
-0.00550433975308642,0.001150451007268627,-0.07627069901447256
-0.00550399975308642,0.001281725270128709,-0.07281477545024406
-0.00550365975308642,0.00138018096727371,-0.07064248063843655
-0.00550331975308642,0.001347362401558749,-0.06692324861217835
-0.00550297975308642,0.001248906704413688,-0.06537631139771416
-0.00550263975308642,0.00138018096727371,-0.06478386735812698
-0.00550229975308642,0.001347362401558749,-0.06195330139124023
-0.00550195975308642,0.0009535396129786156,-0.06037345061902149
-0.00550161975308642,0.001281725270129007,-0.05978100657943682
-0.00550127975308642,0.001445818098703811,-0.05833281003823895
-0.00550093975308642,0.001347362401558749,-0.05718083551682945
-0.00550059975308642,0.001412999532988372,-0.06024179638799087
-0.00550025975308642,0.001183269572983647,-0.05342868993280994
-0.00549991975308642,0.001347362401558749,-0.05030190194612701
-0.005499579753086421,0.001347362401558749,-0.05026898838837252
-0.00549923975308642,0.00138018096727377,-0.04852456982738093
-0.00549889975308642,0.001183269572983647,-0.05013733415735423
-0.005498559753086421,0.001117632441553726,-0.04914992742471931
-0.00549821975308642,0.001117632441553607,-0.04579274453375269
-0.00549787975308642,0.001183269572983647,-0.04427872087704306
-0.005497539753086421,0.0008550839158341513,-0.04289635145135418
-0.00549719975308642,0.001117632441553607,-0.04246847520054242
-0.00549685975308642,0.001117632441553607,-0.04128358712137837
-0.005496519753086421,0.001478636664418174,-0.0408886244283244
-0.00549617975308642,0.00138018096727377,-0.03996704481119608
-0.00549583975308642,0.001577092361563892,-0.03736687374858607
-0.005495499753086421,0.001577092361563892,-0.03730104663307707
-0.00549515975308642,0.001609910927278912,-0.03713647884430417
-0.00549481975308642,0.001511455230133851,-0.03628072634268568
-0.005494479753086421,0.001314543835844087,-0.03460213489720633
-0.00549413975308642,0.001183269572983647,-0.03493127047474884
-0.00549379975308642,0.001248906704413688,-0.03348307393354833
-0.00549345975308642,0.001117632441553845,-0.03154117402603299
-0.00549311975308642,0.001445818098703811,-0.03091581642869288
-0.00549277975308642,0.001577092361563892,-0.03006006392707439
-0.00549243975308642,0.001347362401559167,-0.02854604027036752
-0.00549209975308642,0.001117632441553607,-0.02867769450138299
-0.00549175975308642,0.001051995310123677,-0.02719658440242792
-0.00549141975308642,0.0009863581786937554,-0.02482680824410412
-0.00549107975308642,0.0008550839158335544,-0.02485972180185437
-0.00549073975308642,0.001216088138698668,-0.0266041403628459
-0.00549039975308642,0.00141299953298879,-0.02828273180832831
-0.00549005975308642,0.00141299953298879,-0.02058095929376194
-0.00548971975308642,0.001281725270128709,-0.02117340333334397
-0.00548937975308642,0.0009535396129786156,-0.01765165265360636
-0.00548903975308642,0.001150451007268627,-0.01840866448196118
-0.00548869975308642,0.001019176744408656,-0.02327987102963563
-0.00548835975308642,0.0008550839158335544,-0.01982394746540713
-0.00548801975308642,0.001084813875838876,-0.01834283736645296
-0.00548767975308642,0.001183269572983647,-0.01883654073277042
-0.00548733975308642,0.001051995310123677,-0.0208442677557984
-0.00548699975308642,0.001084813875839175,-0.02061387285151818
-0.00548665975308642,0.001347362401558749,-0.0215354524686441
-0.00548631975308642,0.001347362401558749,-0.02110757621783486
-0.00548597975308642,0.001117632441553547,-0.02156836602640123
-0.00548563975308642,0.001084813875838697,-0.02298364900984462
-0.00548529975308642,0.001084813875838697,-0.02212789650822613
-0.00548495975308642,0.001347362401558451,-0.02298364900984354
-0.00548461975308642,0.001183269572983647,-0.02239120497026259
-0.00548427975308642,0.001314543835843729,-0.02137088467987132
-0.00548393975308642,0.001248906704413987,-0.01979103390765353
-0.00548359975308642,0.00141299953298879,-0.02031765083172549
-0.00548325975308642,0.00138018096727377,-0.0206138728515165
-0.00548291975308642,0.001183269572983409,-0.01975812034989879
-0.00548257975308642,0.001051995310123677,-0.02018599660070726
-0.00548223975308642,0.001248906704413688,-0.02025182371621638
-0.00548189975308642,0.001281725270128171,-0.01992268813866961
-0.00548155975308642,0.000986358178693636,-0.01926441698357966
-0.00548121975308642,0.0008550839158335544,-0.01903402207929776
-0.00548087975308642,0.0007566282186887917,-0.01699338149851756
-0.00548053975308642,0.0009207210472635952,-0.01827701025094295
-0.00548019975308642,0.001216088138698668,-0.02301656256759917
-0.00547985975308642,0.001380180967273411,-0.01360328504979201
-0.00547951975308642,0.001183269572983647,-0.01149681735350419
-0.00547917975308642,0.001084813875838697,-0.01373493928081407
-0.005478839753086421,0.001150451007268507,-0.01340580370326909
-0.00547849975308642,0.001084813875838697,-0.01801370178890649
-0.00547815975308642,0.000658172521543432,-0.01913276275256143
-0.005477819753086421,0.0008879024815481569,-0.01702629505627361
-0.00547747975308642,0.001051995310123677,-0.01814535601992472
-0.00547713975308642,0.001084813875838697,-0.01909984919480688
-0.005476799753086421,0.001084813875838697,-0.01821118313543545
-0.00547645975308642,0.001051995310123677,-0.01577557986159661
-0.00547611975308642,0.0008550839158335544,-0.01554518495731471
-0.005475779753086421,0.00118326957298305,-0.008205461578061825
-0.00547543975308642,0.001347362401558749,-0.01472234601345078
-0.00547509975308642,0.001511455230133851,-0.01544644428405104
-0.005474759753086421,0.001216088138699205,-0.01429446976264363
-0.00547441975308642,0.001216088138698668,-0.01465651889794167
-0.00547407975308642,0.001248906704413688,-0.01580849341935116
-0.005473739753086421,0.0009863581786941134,-0.01603888832363265
-0.00547339975308642,0.001117632441553607,-0.01554518495731471
-0.00547305975308642,0.001216088138698668,-0.01547935784180559
-0.005472719753086421,0.00131454383584355,-0.01679590015198549
-0.00547237975308642,0.001019176744408656,-0.01531479005303281
-0.00547203975308642,0.0006253539558284116,-0.01590723409261484
-0.00547169975308642,0.000690991087258333,-0.01613762899689632
-0.00547135975308642,0.0008550839158335544,-0.01603888832363307
-0.00547101975308642,0.000986358178693636,-0.01656550524770598
-0.00547067975308642,0.001084813875838518,-0.01669715947872397
-0.00547033975308642,0.00141299953298879,-0.01765165265360636
-0.00546999975308642,0.001051995310123677,-0.02100883554457119
-0.00546965975308642,0.001248906704413688,-0.01515022226426002
-0.00546931975308642,0.00141299953298879,-0.01439321043590521
-0.00546897975308642,0.001347362401558749,-0.01320832235674115
-0.00546863975308642,0.000986358178693636,-0.01462360534018711
-0.00546829975308642,0.0008879024815485748,-0.01933024409908878
-0.00546795975308642,0.0009535396129786156,-0.01728960351830624
-0.00546761975308642,0.0009535396129786156,-0.01620345611240585
-0.00546727975308642,0.0007238096529734728,-0.01475525957120534
-0.00546693975308642,0.0008879024815485748,-0.0138665935118323
-0.00546659975308642,0.0009535396129786156,-0.01393242062734141
-0.00546625975308642,0.001183269572983588,-0.0145577782246762
-0.00546591975308642,0.001150451007268627,-0.01357037149204128
