Analysis/files/cmb03_d2s01/wrd07_ch28.csv

#Digilent WaveForms Oscilloscope Acquisition
#Device Name: ADP3450
#Serial Number: SN:210018B9D9B0
#Date Time: 2024-08-09 17:47:27.164.552.790
#Sample rate: 2.94118e+06Hz
#Samples: 32768
#Trigger: Source: Channel 3 Type: Edge Condition: Rising Level: 60 mV Hyst.: Auto HoldOff: 0 s
#Channel 3: Range: 200 mV/div Offset: -20 mV Attenuation: 1 X Coupling: DC Bandwidth: 0 Hz Sample Mode: Average

Time (s),Channel 3 (V)
-0.005570495277108434,-0.001454285180874593
-0.005570155277108434,-3.900219743330554e-05
-0.005569815277108434,-0.002606259702284092
-0.005569475277108434,0.002067465498863018
-0.005569135277108434,0.002001638383356838
-0.005568795277108434,0.003614402713327202
-0.005568455277108434,0.004930945023509487
-0.005568115277108434,0.004568895888205586
-0.005567775277108434,0.00249534174967226
-0.005567435277108434,0.002989045115990616
-0.005567095277108434,0.00361440271332373
-0.005566755277108434,0.001705416363562889
-0.005566415277108434,-0.0008289275835380062
-0.005566075277108434,-0.003099963068603405
-0.005565735277108434,-0.00362657999267536
-0.005565395277108434,-0.00491020874510309
-0.005565055277108434,-0.006292578170794965
-0.005564715277108434,-0.006555886632830944
-0.005564375277108434,-0.007214157787922088
-0.005564035277108434,-0.007444552692202488
-0.005563695277108434,-0.006621713748340058
-0.005563355277108434,-0.006983762883640186
-0.005563015277108434,-0.008530700098101557
-0.005562675277108434,-0.006424232401812717
-0.005562335277108434,-0.005733047688967017
-0.005561995277108434,-0.005469739226931038
-0.005561655277108434,-0.006325491728549043
-0.005561315277108434,-0.0070495899991493
-0.005560975277108434,-0.008201564520556703
-0.005560635277108434,-0.006160923939776259
-0.005560295277108434,-0.007477466249958542
-0.005559955277108434,-0.009814328850527847
-0.005559615277108434,-0.01099921692969615
-0.005559275277108434,-0.01442222693617009
-0.005558935277108434,-0.008728181444642068
-0.005558595277108434,-0.007082503556903857
-0.005558255277108434,-0.006029269708758032
-0.005557915277108434,-0.007444552692201411
-0.005557575277108434,-0.009913069523795767
-0.005557235277108434,-0.009945983081550328
-0.005556895277108434,-0.008563613655861443
-0.005556555277108434,-0.01057134067888691
-0.005556215277108434,-0.0105055135633778
-0.005555875277108434,-0.009090230579934414
-0.005555535277108434,-0.01020929154358678
-0.005555195277108434,-0.009649761061759313
-0.005554855277108434,-0.01070299490990322
-0.005554515277108434,-0.01155874741152362
-0.005554175277108434,-0.01159166096927818
-0.005553835277108434,-0.01224993212436933
-0.005553495277108434,-0.01313859818374236
-0.005553155277108434,-0.01251324058640578
-0.005552815277108434,-0.01244741347089667
-0.005552475277108434,-0.01481718962922478
-0.005552135277108434,-0.01353356087679705
-0.005551795277108434,-0.01300694395272414
-0.005551455277108434,-0.0125132405864047
-0.005551115277108434,-0.01192079654682375
-0.005550775277108434,-0.01034094577460501
-0.005550435277108434,-0.01139417962274677
-0.005550095277108434,-0.009156057695440954
-0.005549755277108434,-0.008102823847295128
-0.005549415277108434,-0.008102823847297104
-0.005549075277108434,-0.009188971253195514
-0.005548735277108434,-0.009353539041968298
-0.005548395277108434,-0.004482332494298218
-0.005548055277108434,-0.006885022210376516
-0.005547715277108434,-0.00491020874510309
-0.005547375277108434,-0.01043968644787659
-0.005547035277108434,-0.01478427607147022
-0.005546695277108434,-0.0118878829890692
-0.005546355277108434,-0.01215119145110894
-0.005546015277108434,-0.01396143712760629
-0.005545675277108434,-0.01366521510781528
-0.005545335277108434,-0.01224993212437447
-0.005544995277108434,-0.01508049809126123
-0.005544655277108434,-0.01399435068536085
-0.005544315277108434,-0.01409309135862638
-0.005543975277108434,-0.01511341164901579
-0.005543635277108434,-0.01517923876452491
-0.005543295277108434,-0.01537672011105165
-0.005542955277108434,-0.01504758453350668
-0.005542615277108434,-0.01452096760943376
-0.005542275277108434,-0.01241449991314594
-0.005541935277108434,-0.01373104222332439
-0.005541595277108434,-0.01234867279763299
-0.005541255277108434,-0.01053842712113565
-0.005540915277108434,-0.01149292029601451
-0.005540575277108434,-0.01129543894948717
-0.005540235277108434,-0.01014346442807976
-0.005539895277108434,-0.009320625484213741
-0.005539555277108434,-0.008859835675649942
-0.005539215277108434,-0.00718124423017058
-0.005538875277108434,-0.009583933946250199
-0.005538535277108434,-0.01445514049392465
-0.005538195277108434,-0.006325491728563832
-0.005537855277108434,-0.006852108652621959
-0.005537515277108434,-0.009913069523795767
-0.005537175277108434,-0.01034094577460423
-0.005536835277108434,-0.01554128789982503
-0.005536495277108434,-0.01623247261267073
-0.005536155277108434,-0.01475136251371836
-0.005535815277108434,-0.01718696578755289
-0.005535475277108434,-0.01807563184692593
-0.005535135277108434,-0.01685783021000953
-0.005534795277108434,-0.01465262184045199
-0.005534455277108434,-0.01590333703512516
-0.005534115277108434,-0.01155874741153153
-0.005533775277108434,-0.01083464914092337
-0.005533435277108434,-0.01053842712113235
-0.005533095277108434,-0.01070299490990514
-0.005532755277108434,-0.009715588177268426
-0.005532415277108434,-0.01090047625643248
-0.005532075277108434,-0.01155874741152362
-0.005531735277108434,-0.01136126606499628
-0.005531395277108434,-0.01205245077784198
-0.005531055277108434,-0.01343482020353338
-0.005530715277108434,-0.01271072193293312
-0.005530375277108434,-0.01373104222332439
-0.005530035277108434,-0.01221701856661477
-0.005529695277108434,-0.01211827789335116
-0.005529355277108434,-0.01215119145110565
-0.005529015277108434,-0.01317151174149692
-0.005528675277108434,-0.01356647443455651
-0.005528335277108434,-0.01626538617042529
-0.005527995277108434,-0.01708822511428922
-0.005527655277108434,-0.01047260000562426
-0.005527315277108434,-0.01103213048745071
-0.005526975277108434,-0.01412600491637908
-0.005526635277108434,-0.01751610136509331
-0.005526295277108434,-0.01468553539820655
-0.005525955277108434,-0.01531089299554313
-0.005525615277108434,-0.01768066915385993
-0.005525275277108434,-0.01146000673825995
-0.005524935277108434,-0.0211695062758543
-0.005524595277108434,-0.01883264367527093
-0.005524255277108434,-0.01343482020353338
-0.005523915277108434,-0.02008335886995392
-0.005523575277108434,-0.02195943166196702
-0.005523235277108434,-0.02380259089621887
-0.005522895277108434,-0.03561855813010487
-0.005522555277108434,-0.05530086566736906
-0.005522215277108434,-0.07676050532330125
-0.005521875277108434,-0.105691522589557
-0.005521535277108434,-0.1320552823510122
-0.005521195277108434,-0.1623028419273952
-0.005520855277108434,-0.198507755457408
-0.005520515277108434,-0.2225675661759455
-0.005520175277108434,-0.2395838755350952
-0.005519835277108434,-0.2558760866236011
-0.005519495277108434,-0.267922448761747
-0.005519155277108434,-0.2698972622270424
-0.005518815277108434,-0.2702593113623425
-0.005518475277108434,-0.270292224920097
-0.005518135277108434,-0.2634132913493946
-0.005517795277108434,-0.2556786052770737
-0.005517455277108434,-0.2492933750727012
-0.005517115277108434,-0.2423486143864781
-0.005516775277108434,-0.2341860520633479
-0.005516435277108434,-0.227043810030622
-0.005516095277108434,-0.2188812477074789
-0.005515755277108434,-0.2113769565394398
-0.005515415277108434,-0.2052879483548578
-0.005515075277108434,-0.1977178300712986
-0.005514735277108434,-0.1890944779396047
-0.005514395277108434,-0.1833675188903221
-0.005514055277108434,-0.1763240175308365
-0.005513715277108434,-0.1700375279997161
-0.005513375277108434,-0.1640143469306431
-0.005513035277108434,-0.1590114861519395
-0.005512695277108434,-0.1537453169112103
-0.005512355277108434,-0.1533503542181557
-0.005512015277108434,-0.1486766290170085
-0.005511675277108434,-0.1369264888986317
-0.005511335277108434,-0.1316603196579025
-0.005510995277108434,-0.126492891090437
-0.005510655277108434,-0.125011780991482
-0.005510315277108434,-0.1222470421400992
-0.005509975277108434,-0.1171125271303883
-0.005509635277108434,-0.1142490476057418
-0.005509295277108434,-0.1122742341404684
-0.005508955277108434,-0.1116159629853693
-0.005508615277108434,-0.1072384598040211
-0.005508275277108434,-0.1042104124906019
-0.005507935277108434,-0.1023014261408292
-0.005507595277108434,-0.09769352805519957
-0.005507255277108434,-0.0939084689134255
-0.005506915277108434,-0.08910308948125867
-0.005506575277108434,-0.08828025053739624
-0.005506235277108434,-0.08423188293358572
-0.005505895277108434,-0.08242163725707831
-0.005505555277108434,-0.07870240523082012
-0.005505215277108434,-0.07590475282168277
-0.005504875277108434,-0.07369954445212207
-0.005504535277108434,-0.0707373242542173
-0.005504195277108434,-0.06682061088142502
-0.005503855277108434,-0.06352925510596828
-0.005503515277108434,-0.06296972462414183
-0.005503175277108434,-0.05967836884868611
-0.005502835277108434,-0.05780229605667635
-0.005502495277108434,-0.05780229605667635
-0.005502155277108434,-0.05898718413584041
-0.005501815277108434,-0.05948088750214339
-0.005501475277108434,-0.0510221031592376
-0.005501135277108434,-0.04980430152231898
-0.005500795277108434,-0.0464142050736038
-0.005500455277108434,-0.0487181541164186
-0.005500115277108434,-0.05049548623516468
-0.005499775277108434,-0.04888272190519431
-0.005499435277108434,-0.04799405584581835
-0.005499095277108434,-0.04654585930461783
-0.005498755277108434,-0.04499892209015646
-0.005498415277108434,-0.04299119506712566
-0.005498075277108434,-0.04253040525856187
-0.005497735277108434,-0.03986440708044758
-0.005497395277108434,-0.04006188842697008
-0.005497055277108434,-0.04009480198472463
-0.005496715277108434,-0.0393377901563712
-0.005496375277108434,-0.03844912409699678
-0.005496035277108434,-0.03851495121250589
-0.005495695277108434,-0.03644139707397257
-0.005495355277108434,-0.03453241072420449
-0.005495015277108434,-0.03453241072420449
-0.005494675277108434,-0.03288673283647962
-0.005494335277108434,-0.0325246837011765
-0.005493995277108434,-0.03196515321934903
-0.005493655277108434,-0.03124105494875009
-0.005493315277108434,-0.02897001946368433
-0.005492975277108434,-0.0306815244669213
-0.005492635277108434,-0.02999033975407686
-0.005492295277108434,-0.02778513138452028
-0.005491955277108434,-0.02844340253961142
-0.005491615277108434,-0.03242594302790559
-0.005491275277108434,-0.02623819417005609
-0.005490935277108434,-0.02462542984008279
-0.005490595277108434,-0.02485582474436469
-0.005490255277108434,-0.02360510954969153
-0.005489915277108434,-0.02989159908081193
-0.005489575277108434,-0.0292991550412299
-0.005489235277108434,-0.02502039253313748
-0.005488895277108434,-0.0266989839786199
-0.005488555277108434,-0.02742308224922015
-0.005488215277108434,-0.02613945349679128
-0.005487875277108434,-0.02551409589945584
-0.005487535277108434,-0.02610653993903787
-0.005487195277108434,-0.02666607042086594
-0.005486855277108434,-0.02699520599841091
-0.005486515277108434,-0.02650150263209255
-0.005486175277108434,-0.02564575013047305
-0.005485835277108434,-0.02508621964864659
-0.005485495277108434,-0.02403298580050077
-0.005485155277108434,-0.02265061637480656
-0.005484815277108434,-0.02110367916034518
-0.005484475277108434,-0.02281518416358216
-0.005484135277108434,-0.02031375377423623
-0.005483795277108434,-0.02054414867851771
-0.005483455277108434,-0.01968839617689923
-0.005483115277108434,-0.01949091483036644
-0.005482775277108434,-0.01649578107470719
-0.005482435277108434,-0.01751610136509846
-0.005482095277108434,-0.01768066915386885
-0.005481755277108434,-0.01636412684368896
-0.005481415277108434,-0.02014918598546303
-0.005481075277108434,-0.01425765914739994
-0.005480735277108434,-0.01570585568859782
-0.005480395277108434,-0.0181743725201896
-0.005480055277108434,-0.0206428893517754
-0.005479715277108434,-0.01735153357632568
-0.005479375277108434,-0.01596916415063428
-0.005479035277108434,-0.01718696578755068
-0.005478695277108434,-0.01534380655329769
-0.005478355277108434,-0.01461970828269744
-0.005478015277108434,-0.01577168280410484
-0.005477675277108434,-0.01494884386024301
-0.005477335277108434,-0.01402726424311541
-0.005476995277108434,-0.01540963366880429
-0.005476655277108434,-0.01494884386024301
-0.005476315277108434,-0.01531089299554313
-0.005475975277108434,-0.01652869463245953
-0.005475635277108434,-0.01738444713408023
-0.005475295277108434,-0.01718696578755289
-0.005474955277108434,-0.01485010318698359
-0.005474615277108434,-0.01494884386024301
-0.005474275277108434,-0.01192079654682375
-0.005473935277108434,-0.01547546078430946
-0.005473595277108434,-0.01768066915387125
-0.005473255277108434,-0.01248032702865122
-0.005472915277108434,-0.01277654904844169
-0.005472575277108434,-0.01491593030248845
-0.005472235277108434,-0.01356647443455161
-0.005471895277108434,-0.01386269645434208
-0.005471555277108434,-0.01524506588003402
-0.005471215277108434,-0.01646286751695263
-0.005470875277108434,-0.01573876924635369
-0.005470535277108434,-0.01662743530572542
-0.005470195277108434,-0.01527797943778858
-0.005469855277108434,-0.01501467097575212
-0.005469515277108434,-0.01531089299554313
-0.005469175277108434,-0.01399435068536085
-0.005468835277108434,-0.01310568462598781
-0.005468495277108434,-0.01485010318697934
-0.005468155277108434,-0.01327025241476059
-0.005467815277108434,-0.01155874741152362
-0.005467475277108434,-0.01201953722008742
-0.005467135277108434,-0.01231575923987844
-0.005466795277108434,-0.01195371010457831
-0.005466455277108434,-0.01327025241476119
-0.005466115277108434,-0.01359938799230617
-0.005465775277108434,-0.01415891847413363
-0.005465435277108434,-0.01718696578756181
-0.005465095277108434,-0.0220910858929819
-0.005464755277108434,-0.01379686933883351
-0.005464415277108434,-0.01465262184044942
-0.005464075277108434,-0.01323733885700604
-0.005463735277108434,-0.01264489481742401
-0.005463395277108434,-0.01616664549716144
-0.005463055277108434,-0.01606790482389795
-0.005462715277108434,-0.01389561001209718
-0.005462375277108434,-0.01455388116719383
-0.005462035277108434,-0.01758192848060757
-0.005461695277108434,-0.017252792903062
-0.005461355277108434,-0.01616664549716258
-0.005461015277108434,-0.01669326242123453
-0.005460675277108434,-0.01567294213084326
-0.005460335277108434,-0.01425765914739791
-0.005459995277108434,-0.01458679472494288
-0.005459655277108434,-0.01531089299554313
-0.005459315277108434,-0.01366521510781779
-0.005458975277108434,-0.01504758453350668
-0.005458635277108434,-0.01524506588003402
-0.005458295277108434,-0.01471844895596398
-0.005457955277108434,-0.01629829972817985
-0.005457615277108434,-0.01685783021000732
-0.005457275277108434,-0.01537672011105494
-0.005456935277108434,-0.01540963366880681
-0.005456595277108434,-0.01583750991961605
-0.005456255277108434,-0.01382978289659172
-0.005455915277108434,-0.01442222693617009
-0.005455575277108434,-0.01425765914739731
-0.005455235277108434,-0.01343482020353487
-0.005454895277108434,-0.01850350809773518
-0.005454555277108434,-0.01593625059287972
-0.005454215277108434,-0.009649761061770748
-0.005453875277108434,-0.009485193272986525
-0.005453535277108434,-0.009287711926459184
-0.005453195277108434,-0.01122961183397452
-0.005452855277108434,-0.01231575923987844
-0.005452515277108434,-0.01132835250724173
-0.005452175277108434,-0.01178914231580469
-0.005451835277108434,-0.01208536433559654
-0.005451495277108434,-0.01369812866556984
-0.005451155277108434,-0.0140930913586238
-0.005450815277108434,-0.01402726424311541
-0.005450475277108434,-0.01399435068536085
-0.005450135277108434,-0.01468553539820529
-0.005449795277108434,-0.01485010318697934
-0.005449455277108434,-0.01494884386024301
-0.005449115277108434,-0.01511341164901549
-0.005448775277108434,-0.01373104222332439
-0.005448435277108434,-0.01399435068536085
-0.005448095277108434,-0.01425765914739731
-0.005447755277108434,-0.01277654904844223
-0.005447415277108434,-0.01271072193293312
-0.005447075277108434,-0.01366521510781528
-0.005446735277108434,-0.01313859818374236
-0.005446395277108434,-0.01346773376128794
-0.005446055277108434,-0.01540963366880681
-0.005445715277108434,-0.01392852356985155
-0.005445375277108434,-0.01382978289658807
-0.005445035277108434,-0.01280946260619679
-0.005444695277108434,-0.01425765914740036
-0.005444355277108434,-0.01593625059287972
-0.005444015277108434,-0.008399045867086143
-0.005443675277108434,-0.008431959424838485
-0.005443335277108434,-0.007214157787922088
-0.005442995277108434,-0.01238158635538755
-0.005442655277108434,-0.01652869463246037
-0.005442315277108434,-0.01577168280410694
-0.005441975277108434,-0.01468553539820655
-0.005441635277108434,-0.01708822511428718
-0.005441295277108434,-0.01596916415063428
-0.005440955277108434,-0.01685783021000732
-0.005440615277108434,-0.01781232338488947
-0.005440275277108434,-0.01781232338488947
-0.005439935277108434,-0.0184047674244715
-0.005439595277108434,-0.01906303857955941
-0.005439255277108434,-0.01728570646081656
-0.005438915277108434,-0.01751610136509846
-0.005438575277108434,-0.01800980473141395
-0.005438235277108434,-0.01642995395919808
-0.005437895277108434,-0.0158704234773706
-0.005437555277108434,-0.0166603488634765
-0.005437215277108434,-0.01475136251371566
-0.005436875277108434,-0.00978141529277754
-0.005436535277108434,-0.0161995590549045
-0.005436195277108434,-0.01682491665225276
-0.005435855277108434,-0.01570585568859782
-0.005435515277108434,-0.01478427607147189
-0.005435175277108434,-0.01340190664577882
-0.005434835277108434,-0.01248032702865122
-0.005434495277108434,-0.01254615414416022
-0.005434155277108434,-0.01577168280410694
-0.005433815277108434,-0.0102751186590959
-0.005433475277108434,-0.008695267886880029
-0.005433135277108434,-0.008036996731786015
-0.005432795277108434,-0.005568479900194229
-0.005432455277108434,-0.01139417962274025
-0.005432115277108434,-0.01093338981418704
-0.005431775277108434,-0.008102823847295128
-0.005431435277108434,-0.00866235432912158
-0.005431095277108434,-0.009945983081550328
-0.005430755277108434,-0.009945983081550328
-0.005430415277108434,-0.01040677289011329
-0.005430075277108434,-0.01300694395272414
-0.005429735277108434,-0.01162457452703274
-0.005429395277108434,-0.01264489481742215
-0.005429055277108434,-0.01452096760943376
-0.005428715277108434,-0.01583750991961605
-0.005428375277108434,-0.01504758453350812
-0.005428035277108434,-0.01626538617042529
-0.005427695277108434,-0.01564002857308871
-0.005427355277108434,-0.01554128789982503
-0.005427015277108434,-0.01718696578755289
-0.005426675277108434,-0.01531089299554313
-0.005426335277108434,-0.01406017780086997
-0.005425995277108434,-0.01379686933883351
-0.005425655277108434,-0.01432348626290642
-0.005425315277108434,-0.01224993212436933
-0.005424975277108434,-0.0118878829890692
-0.005424635277108434,-0.01205245077784198
-0.005424295277108434,-0.01122961183397805
-0.005423955277108434,-0.01810854540467528
-0.005423615277108434,-0.01524506588003402
-0.005423275277108434,-0.00988015596604121
-0.005422935277108434,-0.009945983081549908
-0.005422595277108434,-0.009715588177268426
-0.005422255277108434,-0.01234867279763299
-0.005421915277108434,-0.01264489481742089
-0.005421575277108434,-0.01093338981418704
-0.005421235277108434,-0.01020929154358678
-0.005420895277108434,-0.01228284568212675
-0.005420555277108434,-0.01386269645434262
-0.005420215277108434,-0.01201953722008742
-0.005419875277108434,-0.01412600491638321
-0.005419535277108434,-0.01639704040144352
-0.005419195277108434,-0.01626538617042529
-0.005418855277108434,-0.01498175741800068
-0.005418515277108434,-0.01669326242123453
-0.005418175277108434,-0.01695657088327099
-0.005417835277108434,-0.01741736069183587
-0.005417495277108434,-0.01800980473141682
-0.005417155277108434,-0.01698948444102555
-0.005416815277108434,-0.01636412684368776
-0.005416475277108434,-0.01570585568859782
-0.005416135277108434,-0.01557420145757959
