Analysis/files/cmb03_d2s01/wrd05_ch23.csv

#Digilent WaveForms Oscilloscope Acquisition
#Device Name: ADP3450
#Serial Number: SN:210018B9D9B0
#Date Time: 2024-08-09 15:59:43.382.515.350
#Sample rate: 2.94118e+06Hz
#Samples: 32768
#Trigger: Source: Channel 3 Type: Edge Condition: Rising Level: 20 mV Hyst.: Auto HoldOff: 0 s
#Channel 3: Range: 200 mV/div Offset: 0 V Attenuation: 1 X Coupling: DC Bandwidth: 0 Hz Sample Mode: Average

Time (s),Channel 3 (V)
-0.005570347745664741,0.01424158481055947
-0.00557000774566474,0.01315543740464825
-0.00556966774566474,0.007198083451084253
-0.005569327745664741,0.007922181721684508
-0.00556898774566474,0.006901861431288629
-0.00556864774566474,0.004367517484192341
-0.005568307745664741,0.00380798700236487
-0.00556796774566474,0.003709246329099223
-0.00556762774566474,0.002623098923200814
-0.005567287745664741,0.0004508041114000451
-0.00556694774566474,0.0004508041113986083
-0.00556660774566474,-0.0003391212747093254
-0.005566267745664741,-0.001622750027137053
-0.00556592774566474,-0.0005366026212369076
-0.00556558774566474,-0.0006682568522548965
-0.005565247745664741,-0.0009644788720459105
-0.00556490774566474,0.0006482854579299623
-0.00556456774566474,0.002063568441373343
-0.005564227745664741,0.0008457668044547304
-0.00556388774566474,0.0007470261311926157
-0.00556354774566474,0.001602778632809544
-0.005563207745664741,-0.001129046660818696
-0.005562867745664741,8.875497609770171e-05
-0.00556252774566474,-0.0006682568522548965
-0.005562187745664741,-0.002873465221810222
-0.005561847745664741,-0.005309068495643018
-0.00556150774566474,-0.004584970225047193
-0.005561167745664741,-0.0004378619479729968
-0.005560827745664741,-0.002577243202015317
-0.00556048774566474,0.0007799396889456162
-0.005560147745664741,-0.003465909261392251
-0.005559807745664741,-0.006395215901542505
-0.00555946774566474,-0.004914105802592763
-0.005559127745664741,-0.00494701936034732
-0.005558787745664741,-0.007415536191934614
-0.00555844774566474,-0.007415536191939104
-0.005558107745664741,-0.005638204073193019
-0.005557767745664741,-0.005704031188702014
-0.00555742774566474,-0.004815365129329092
-0.005557087745664741,-0.005440722726665677
-0.005556747745664741,-0.006461043017055091
-0.00555640774566474,-0.004617883782801749
-0.00555606774566474,-0.006428129459302391
-0.005555727745664741,-0.007678844653973285
-0.00555538774566474,-0.007613017538466446
-0.00555504774566474,-0.006987659941129861
-0.005554707745664741,-0.007316795518674834
-0.00555436774566474,-0.006921832825620747
-0.00555402774566474,-0.006000253208493148
-0.005553687745664741,-0.006493956574811504
-0.00555334774566474,-0.006033166766247705
-0.00555300774566474,-0.004552056667292635
-0.005552667745664741,-0.005506549842174791
-0.00555232774566474,-0.007086400614393532
-0.00555198774566474,-0.005473636284420234
-0.005551647745664741,-0.005901512535229476
-0.00555130774566474,-0.01149681735349389
-0.00555096774566474,-0.005835685419720362
-0.005550627745664741,-0.005440722726665677
-0.00555028774566474,-0.006033166766248542
-0.00554994774566474,-0.006493956574811504
-0.005549607745664741,-0.01136516312248596
-0.00554926774566474,-0.01199052071981464
-0.00554892774566474,-0.007645931096221003
-0.005548587745664741,-0.008501683597839487
-0.00554824774566474,-0.01004862081230116
-0.00554790774566474,-0.008666251386612273
-0.005547567745664741,-0.007152227729902647
-0.00554722774566474,-0.008929559848646755
-0.00554688774566474,-0.007843412442748346
-0.005546547745664741,-0.006625610805829733
-0.00554620774566474,-0.008040893789273354
-0.00554586774566474,-0.006757265036847961
-0.005545527745664741,-0.005309068495647449
-0.00554518774566474,-0.005704031188701894
-0.00554484774566474,-0.005572376957683906
-0.005544507745664741,-0.005309068495647449
-0.00554416774566474,-0.005638204073193378
-0.00554382774566474,-0.005835685419720362
-0.005543487745664741,-0.00517741426462922
-0.00554314774566474,-0.006230648112775765
-0.00554280774566474,-0.006625610805829733
-0.005542467745664741,-0.004321661763010735
-0.005542127745664741,-0.005473636284418139
-0.00554178774566474,-0.006954746383375304
-0.005541447745664741,-0.006592697248075176
-0.005541107745664741,-0.007678844653973584
-0.00554076774566474,-0.01353745793428673
-0.005540427745664741,-0.007382622634184546
-0.005540087745664741,-0.006230648112777143
-0.00553974774566474,-0.006757265036847961
-0.005539407745664741,-0.006921832825620747
-0.005539067745664741,-0.0110360275449329
-0.00553872774566474,-0.01162847158452241
-0.005538387745664741,-0.01004862081230367
-0.005538047745664741,-0.009982793696794678
-0.00553770774566474,-0.01047649706311291
-0.005537367745664741,-0.00962074456149443
-0.005537027745664741,-0.008633337828859512
-0.00553668774566474,-0.009094127637421515
-0.005536347745664741,-0.008633337828857716
-0.005536007745664741,-0.0076459310962228
-0.00553566774566474,-0.007810498884993789
-0.00553532774566474,-0.007645931096221003
-0.005534987745664741,-0.005934426092987146
-0.00553464774566474,-0.006428129459302391
-0.00553430774566474,-0.006724351479093405
-0.005533967745664741,-0.006395215901548431
-0.00553362774566474,-0.00688891926786619
-0.00553328774566474,-0.008040893789275689
-0.005532947745664741,-0.006954746383375304
-0.00553260774566474,-0.007547190422957332
-0.00553226774566474,-0.009291608983948858
-0.005531927745664741,-0.008633337828857716
-0.00553158774566474,-0.008534597155594046
-0.00553124774566474,-0.01037775638984924
-0.005530907745664741,-0.01139807668024051
-0.00553056774566474,-0.01169429870003153
-0.00553022774566474,-0.01636802390117864
-0.005529887745664741,-0.009028300521912402
-0.00552954774566474,-0.008402942924576894
-0.00552920774566474,-0.008995386964157845
-0.005528867745664741,-0.008205461578048474
-0.00552852774566474,-0.01192469360431343
-0.00552818774566474,-0.01192469360431343
-0.005527847745664741,-0.01116768177595861
-0.00552750774566474,-0.0106081512941315
-0.00552716774566474,-0.01080563264065849
-0.005526827745664741,-0.01136516312248596
-0.00552648774566474,-0.009949880139040959
-0.00552614774566474,-0.01047649706311291
-0.005525807745664741,-0.009225781868439744
-0.00552546774566474,-0.00892955984864909
-0.00552512774566474,-0.009127041195176074
-0.005524787745664741,-0.01034484283209469
-0.00552444774566474,-0.008666251386602875
-0.00552410774566474,-0.003498822819146808
-0.005523767745664741,-0.006823092152357076
-0.00552342774566474,-0.006823092152360668
-0.00552308774566474,-0.008797905617630502
-0.005522747745664741,-0.01169429870003153
-0.00552240774566474,-0.02005434236971064
-0.00552206774566474,-0.03193613671908415
-0.005521727745664741,-0.05286915945098247
-0.00552138774566474,-0.07817968536428742
-0.00552104774566474,-0.1059587281090831
-0.005520707745664741,-0.1385760638438492
-0.005520367745664741,-0.1700414250571485
-0.00552002774566474,-0.2022637980989172
-0.005519687745664741,-0.2245791902565069
-0.005519347745664741,-0.241200536922528
-0.00551900774566474,-0.2539380837735719
-0.005518667745664741,-0.2628247443673022
-0.005518327745664741,-0.271875972749789
-0.00551798774566474,-0.2727646388091785
-0.005517647745664741,-0.2687820983208771
-0.005517307745664741,-0.2647008171593195
-0.00551696774566474,-0.2586776360902281
-0.005516627745664741,-0.2498568026120068
-0.005516287745664741,-0.241595499615628
-0.00551594774566474,-0.2327088390218825
-0.005515607745664741,-0.2244804495832432
-0.005515267745664741,-0.215659616105038
-0.00551492774566474,-0.2068387826268006
-0.005514587745664741,-0.1986103931881613
-0.005514247745664741,-0.1924555578880704
-0.00551390774566474,-0.1838651193141198
-0.00551356774566474,-0.1760975196840443
-0.005513227745664741,-0.1699097708261988
-0.00551288774566474,-0.1636891084105763
-0.00551254774566474,-0.1577317544570014
-0.005512207745664741,-0.1546049664703185
-0.00551186774566474,-0.1502603768467169
-0.00551152774566474,-0.1442042822198784
-0.005511187745664741,-0.1417028518305321
-0.00551084774566474,-0.1382469282663036
-0.00551050774566474,-0.1324870556592561
-0.005510167745664741,-0.1289653049795185
-0.00550982774566474,-0.1249827644912171
-0.00550948774566474,-0.1238307899698076
-0.005509147745664741,-0.1172480784188962
-0.00550880774566474,-0.1086905534027001
-0.00550846774566474,-0.1025028045448546
-0.005508127745664741,-0.1014495706967088
-0.00550778774566474,-0.1014495706966961
-0.00550744774566474,-0.09450481001049721
-0.005507107745664741,-0.09174007115911442
-0.00550676774566474,-0.09071975086871936
-0.00550642774566474,-0.08864619673018603
-0.005506087745664741,-0.08627642057185794
-0.00550574774566474,-0.08180017671722432
-0.00550540774566474,-0.07419714487593548
-0.005505067745664741,-0.07617195834120891
-0.00550472774566474,-0.07186028227535109
-0.00550438774566474,-0.0659029283217871
-0.005504047745664741,-0.0643559911073229
-0.00550370774566474,-0.06458638601160414
-0.00550336774566474,-0.06422433687630466
-0.005503027745664741,-0.06277614033510415
-0.00550268774566474,-0.05826698292273163
-0.00550234774566474,-0.05925438965536655
-0.005502007745664741,-0.06254574543082225
-0.00550166774566474,-0.05945187100188683
-0.00550132774566474,-0.05556807118685615
-0.005500987745664741,-0.05349451704831906
-0.00550064774566474,-0.05316538147076845
-0.00550030774566474,-0.05040064261939069
-0.005499967745664741,-0.0483929155963627
-0.005499627745664741,-0.04687889193965583
-0.00549928774566474,-0.04618770722680737
-0.005498947745664741,-0.04322548702889724
-0.005498607745664741,-0.04167854981443587
-0.00549826774566474,-0.04098736510158735
-0.005497927745664741,-0.03779474999939531
-0.005497587745664741,-0.03601741788065246
-0.00549724774566474,-0.03591867720738556
-0.005496907745664741,-0.03460213489720328
-0.005496567745664741,-0.03289062989396942
-0.00549622774566474,-0.03308811124049365
-0.005495887745664741,-0.03305519768273909
-0.005495547745664741,-0.03114621133297825
-0.00549520774566474,-0.02999423681156528
-0.005494867745664741,-0.02785485555751907
-0.005494527745664741,-0.02722949796018362
-0.00549418774566474,-0.02696618949814603
-0.005493847745664741,-0.02719658440242792
-0.005493507745664741,-0.02979675546503321
-0.00549316774566474,-0.02913848430994679
-0.00549282774566474,-0.02354317949167209
-0.005492487745664741,-0.02225955073924669
-0.00549214774566474,-0.02067969996702562
-0.00549180774566474,-0.02400396930023588
-0.005491467745664741,-0.02436601843553535
-0.00549112774566474,-0.02219372362373525
-0.00549078774566474,-0.02232537785475347
-0.005490447745664741,-0.02193041516169879
-0.00549010774566474,-0.02120631689109853
-0.00548976774566474,-0.02127214400660764
-0.005489427745664741,-0.02120631689109853
-0.00548908774566474,-0.02028473727397093
-0.00548874774566474,-0.02094300842906207
-0.005488407745664741,-0.01979103390765257
-0.00548806774566474,-0.01979103390765287
-0.00548772774566474,-0.01995560169642536
-0.005487387745664741,-0.01844157803971573
-0.00548704774566474,-0.01656550524770388
-0.00548670774566474,-0.01541353072629648
-0.005486367745664741,-0.01603888832363307
-0.00548602774566474,-0.01551227139955734
-0.00548568774566474,-0.01396533418509597
-0.005485347745664741,-0.01452486466692344
-0.00548500774566474,-0.01373493928081509
-0.00548466774566474,-0.01429446976264154
-0.005484327745664741,-0.01475525957120534
-0.00548398774566474,-0.01449195110917038
-0.00548364774566474,-0.01531479005303281
-0.005483307745664741,-0.01692755438300611
-0.00548296774566474,-0.0199556016964162
-0.00548262774566474,-0.01491982735997812
-0.005482287745664741,-0.01301084101021381
-0.00548194774566474,-0.01238548341287334
-0.00548160774566474,-0.01024610215883101
-0.005481267745664741,-0.01719086284504256
-0.00548092774566474,-0.01426155620488309
-0.00548058774566474,-0.01212217495084077
-0.005480247745664741,-0.01258296475940457
-0.00547990774566474,-0.012286742739612
-0.00547956774566474,-0.01143099023799507
-0.005479227745664741,-0.01123350889146773
-0.005478887745664741,-0.01172721225778519
-0.00547854774566474,-0.01070689196739481
-0.005478207745664741,-0.01208926139308621
-0.005477867745664741,-0.008995386964163472
-0.00547752774566474,-0.01054232417862203
-0.005477187745664741,-0.01373493928081407
-0.005476847745664741,-0.01357037149204158
-0.00547650774566474,-0.01274753254817735
-0.005476167745664741,-0.01192469360431343
-0.005475827745664741,-0.01258296475940337
-0.00547548774566474,-0.01143099023799507
-0.005475147745664741,-0.01212217495084077
-0.005474807745664741,-0.01343871726102066
-0.00547446774566474,-0.01350454437653217
-0.005474127745664741,-0.01449195110916888
-0.005473787745664741,-0.01373493928081545
-0.00547344774566474,-0.01406407485835964
-0.005473107745664741,-0.01255005120165001
-0.005472767745664741,-0.01534770361078228
-0.00547242774566474,-0.01699338149851522
-0.005472087745664741,-0.009456176772721644
-0.005471747745664741,-0.011134768218201
-0.00547140774566474,-0.01014736148556734
-0.00547106774566474,-0.01208926139308621
-0.005470727745664741,-0.01607180188138038
-0.00547038774566474,-0.0138665935118323
-0.00547004774566474,-0.009719485234758102
-0.005469707745664741,-0.0120234342775771
-0.00546936774566474,-0.01264879187491368
-0.00546902774566474,-0.009653658119248986
-0.005468687745664741,-0.009028300521912402
-0.00546834774566474,-0.009291608983948858
-0.00546800774566474,-0.008797905617630502
-0.005467667745664741,-0.00939034965721253
-0.00546732774566474,-0.0101802750433219
-0.00546698774566474,-0.007218054845411761
-0.005466647745664741,-0.008172548020293918
-0.00546630774566474,-0.009818225908019977
-0.00546596774566474,-0.008830819175385059
-0.005465627745664741,-0.008139634462539359
-0.00546528774566474,-0.01018027504332627
-0.00546494774566474,-0.01258296475940457
-0.005464607745664741,-0.01235256985512267
-0.00546426774566474,-0.01268170543266621
-0.00546392774566474,-0.0115626444690133
-0.005463587745664741,-0.01189178004655887
-0.00546324774566474,-0.01241839697063005
-0.00546290774566474,-0.01146390379574963
-0.005462567745664741,-0.009752398792512659
-0.00546222774566474,-0.01264879187491266
-0.00546188774566474,-0.01208926139308621
-0.005461547745664741,-0.004552056667292635
-0.00546120774566474,-0.006197734555017617
-0.00546086774566474,-0.004617883782801749
-0.005460527745664741,-0.007876326000502903
-0.00546018774566474,-0.01103602754493823
-0.00545984774566474,-0.009851139465776329
-0.005459507745664741,-0.008073807347030245
-0.00545916774566474,-0.009686571677006896
-0.00545882774566474,-0.01152973091125874
-0.005458487745664741,-0.0101802750433219
-0.00545814774566474,-0.009489090330477219
-0.00545780774566474,-0.01004862081230367
-0.005457467745664741,-0.008238375135803031
-0.005457127745664741,-0.007218054845413617
-0.00545678774566474,-0.008304202251312145
-0.005456447745664741,-0.007250968403166318
-0.005456107745664741,-0.007020573498884838
-0.00545576774566474,-0.008732078502121389
-0.005455427745664741,-0.009357436099457973
-0.005455087745664741,-0.009225781868439984
-0.00545474774566474,-0.009916966581285444
-0.005454407745664741,-0.01021318860107646
-0.005454067745664741,-0.009686571677004501
-0.00545372774566474,-0.009916966581285444
-0.005453387745664741,-0.009094127637421515
-0.005453047745664741,-0.008468770040086069
-0.00545270774566474,-0.008073807347030245
-0.005452367745664741,-0.009192868310685188
-0.005452027745664741,-0.008600424271104237
-0.00545168774566474,-0.01258296475940457
-0.005451347745664741,-0.01123350889146773
-0.005451007745664741,-0.004255834647514313
-0.00545066774566474,-0.009094127637421515
-0.00545032774566474,-0.01172721225778608
-0.005449987745664741,-0.009127041195180804
-0.00544964774566474,-0.007942153116012016
-0.00544930774566474,-0.01031192927434013
-0.005448967745664741,-0.009324522541705212
-0.00544862774566474,-0.00837002936682126
-0.00544828774566474,-0.009851139465776329
-0.005447947745664741,-0.008534597155594046
-0.00544760774566474,-0.008304202251312145
-0.00544726774566474,-0.01077271908290393
-0.005446927745664741,-0.01027901571658557
-0.00544658774566474,-0.00962074456149443
-0.00544624774566474,-0.0111018546604495
-0.005445907745664741,-0.01268170543266824
-0.00544556774566474,-0.01103602754494062
-0.00544522774566474,-0.01116768177595861
-0.005444887745664741,-0.01120059533371317
-0.00544454774566474,-0.01031192927434085
-0.00544420774566474,-0.01070689196739481
-0.005443867745664741,-0.01123350889146773
-0.00544352774566474,-0.01057523773637671
-0.00544318774566474,-0.0106410648518857
-0.005442847745664741,-0.01166138514227697
-0.00544250774566474,-0.0108056326406583
-0.00544216774566474,-0.01070689196739481
-0.005441827745664741,-0.01162847158452241
-0.00544148774566474,-0.01073980552514997
-0.00544114774566474,-0.01106894110269494
-0.005440807745664741,-0.01139807668024051
-0.00544046774566474,-0.01057523773637371
-0.00544012774566474,-0.008995386964157845
-0.005439787745664741,-0.009587831003739873
-0.00543944774566474,-0.008040893789272575
-0.00543910774566474,-0.006329388786038719
-0.005438767745664741,-0.006987659941129861
-0.00543842774566474,-0.004486229551783222
-0.00543808774566474,-0.004321661763010735
-0.005437747745664741,-0.004914105802592763
-0.00543740774566474,-0.005901512535228099
-0.00543706774566474,-0.005144500706874663
-0.005436727745664741,-0.009094127637421515
-0.005436387745664741,-0.007876326000505118
-0.00543604774566474,-0.006559783690320619
-0.005435707745664741,-0.007053487056638975
-0.005435367745664741,-0.00461788378280618
-0.00543502774566474,-0.01031192927434013
-0.005434687745664741,-0.0106410648518857
-0.005434347745664741,-0.009225781868442319
-0.00543400774566474,-0.007843412442748346
-0.005433667745664741,-0.009061214079666959
-0.005433327745664741,-0.008600424271103998
-0.00543298774566474,-0.008238375135803031
-0.005432647745664741,-0.009159954752930631
-0.005432307745664741,-0.01018027504332004
-0.00543196774566474,-0.009916966581285444
-0.005431627745664741,-0.005572376957683906
-0.005431287745664741,-0.01031192927433151
-0.00543094774566474,-0.01169429870003153
-0.005430607745664741,-0.01162847158452241
-0.005430267745664741,-0.01202343427757638
-0.00542992774566474,-0.01231965629736811
-0.00542958774566474,-0.01182595293104976
-0.005429247745664741,-0.01169429870003177
-0.00542890774566474,-0.01060815129413114
-0.00542856774566474,-0.008962473406403288
-0.005428227745664741,-0.009916966581283708
-0.00542788774566474,-0.009489090330476201
-0.00542754774566474,-0.009522003888230759
-0.005427207745664741,-0.0113322495647314
-0.00542686774566474,-0.01251713764389546
-0.00542652774566474,-0.01333997658775938
-0.005426187745664741,-0.01597306120812395
-0.00542584774566474,-0.009653658119248986
-0.00542550774566474,-0.007152227729902647
-0.005425167745664741,-0.007283881960920875
-0.00542482774566474,-0.01031192927434013
-0.00542448774566474,-0.01333997658775938
-0.005424147745664741,-0.009324522541703417
-0.00542380774566474,-0.007810498884996603
-0.00542346774566474,-0.009357436099457973
-0.005423127745664741,-0.009785312350267215
-0.00542278774566474,-0.00945617677271871
-0.00542244774566474,-0.007843412442748346
-0.005422107745664741,-0.008073807347030245
-0.00542176774566474,-0.008468770040088822
-0.00542142774566474,-0.01060815129413114
-0.005421087745664741,-0.00837002936682126
-0.00542074774566474,-0.008995386964161377
-0.00542040774566474,-0.01093728687167671
-0.005420067745664741,-0.008962473406403288
-0.00541972774566474,-0.008205461578047038
-0.00541938774566474,-0.007415536191939104
-0.005419047745664741,-0.006625610805829733
-0.00541870774566474,-0.007349709076431666
-0.00541836774566474,-0.008271288693557588
-0.005418027745664741,-0.006987659941129861
-0.00541768774566474,-0.008600424271106992
-0.00541734774566474,-0.01070689196739481
-0.005417007745664741,-0.01001570725454911
-0.00541666774566474,-0.01037775638985074
-0.00541632774566474,-0.01120059533371317
-0.005415987745664741,-0.01120059533371317
-0.00541564774566474,-0.01630219678565989
-0.00541530774566474,-0.01100311398718583
-0.005414967745664741,-0.008567510713348603
