Analysis/files/cmb03_d2s01/wrd03_ch35.csv

#Digilent WaveForms Oscilloscope Acquisition
#Device Name: ADP3450
#Serial Number: SN:210018B9D9B0
#Date Time: 2024-08-09 12:51:02.759.534.510
#Sample rate: 2.94118e+06Hz
#Samples: 32768
#Trigger: Source: Channel 3 Type: Edge Condition: Rising Level: 20 mV Hyst.: Auto HoldOff: 0 s
#Channel 3: Range: 200 mV/div Offset: 0 V Attenuation: 1 X Coupling: DC Bandwidth: 0 Hz Sample Mode: Average

Time (s),Channel 3 (V)
-0.005570475741710297,0.0008786803622092876
-0.005570135741710297,0.0007470261311878861
-0.005569795741710297,-0.0009973924298004675
-0.005569455741710297,-0.001096133103064139
-0.005569115741710297,-0.00050368906348714
-0.005568775741710297,-0.003268427914864908
-0.005568435741710297,-0.003762131281183265
-0.005568095741710297,-0.003301341472620543
-0.005567755741710297,-0.003893785512201493
-0.005567415741710297,-0.007349709076429989
-0.005567075741710297,-0.008699164944356233
-0.005566735741710297,-0.002873465221810222
-0.005566395741710297,-0.001984799162437181
-0.005566055741710297,0.0002862363226242661
-0.005565715741710297,-0.001359441565100596
-0.005565375741710297,-0.006428129459302391
-0.005565035741710297,-0.003630477050162821
-0.005564695741710297,-0.002412675413246423
-0.005564355741710297,-0.006329388786038719
-0.005564015741710297,-0.007415536191939403
-0.005563675741710297,-0.007580103980711889
-0.005563335741710297,-0.008633337828857716
-0.005562995741710298,-0.007777585327240788
-0.005562655741710297,-0.007942153116012016
-0.005562315741710297,-0.007942153116012016
-0.005561975741710298,-0.008468770040083973
-0.005561635741710297,-0.006987659941129861
-0.005561295741710297,-0.007876326000502903
-0.005560955741710298,-0.009028300521910306
-0.005560615741710297,-0.006724351479093405
-0.005560275741710297,-0.008304202251312145
-0.005559935741710298,-0.007547190422958709
-0.005559595741710297,-0.007777585327239231
-0.005559255741710297,-0.007876326000502903
-0.005558915741710298,-0.009390349657209775
-0.005558575741710297,-0.008402942924575817
-0.005558235741710297,-0.01097020042943127
-0.005557895741710298,-0.01343871726101856
-0.005557555741710297,-0.0120234342775771
-0.005557215741710297,-0.01373493928081407
-0.005556875741710298,-0.01867197294398865
-0.005556535741710297,-0.01442612399365977
-0.005556195741710297,-0.007316795518675433
-0.005555855741710298,-0.007645931096220405
-0.005555515741710297,-0.005374895611156563
-0.005555175741710297,-0.008995386964157845
-0.005554835741710298,-0.01149681735349964
-0.005554495741710297,-0.009587831003739873
-0.005554155741710297,-0.009423263214967087
-0.005553815741710297,-0.0124842240861409
-0.005553475741710297,-0.012253829181859
-0.005553135741710297,-0.01106894110269494
-0.005552795741710297,-0.01307666812572293
-0.005552455741710297,-0.01268170543266824
-0.005552115741710297,-0.01212217495084077
-0.005551775741710297,-0.01327414947225027
-0.005551435741710297,-0.01343871726102138
-0.005551095741710297,-0.01251713764389546
-0.005550755741710297,-0.01452486466692344
-0.005550415741710297,-0.01636802390117511
-0.005550075741710297,-0.01442612399365977
-0.005549735741710297,-0.0159401476503694
-0.005549395741710297,-0.01620345611240513
-0.005549055741710297,-0.01580849341935116
-0.005548715741710297,-0.0152489629375237
-0.005548375741710297,-0.01538061716853971
-0.005548035741710297,-0.01416281553162331
-0.005547695741710297,-0.01475525957120534
-0.005547355741710297,-0.01409698841610995
-0.005547015741710297,-0.01176012581554064
-0.005546675741710297,-0.01284627322144103
-0.005546335741710297,-0.01738834419155799
-0.005545995741710297,-0.01083854619841304
-0.005545655741710297,-0.009752398792512659
-0.005545315741710297,-0.01133224956473822
-0.005544975741710297,-0.01508439514875091
-0.005544635741710297,-0.01890236784827953
-0.005544295741710297,-0.01541353072629474
-0.005543955741710297,-0.01445903755141432
-0.005543615741710297,-0.01623636967016041
-0.005543275741710297,-0.01788204755788515
-0.005542935741710297,-0.01617054255465129
-0.005542595741710297,-0.01297792745245925
-0.005542255741710298,-0.01343871726102222
-0.005541915741710297,-0.01370202572305951
-0.005541575741710297,-0.01324123591449571
-0.005541235741710298,-0.01268170543266926
-0.005540895741710297,-0.01505148159099635
-0.005540555741710297,-0.01498565447548724
-0.005540215741710298,-0.01620345611240363
-0.005539875741710297,-0.01722377640279712
-0.005539535741710297,-0.01541353072629648
-0.005539195741710298,-0.01495274091773352
-0.005538855741710297,-0.01580849341935116
-0.005538515741710297,-0.01376785283856862
-0.005538175741710298,-0.01146390379575382
-0.005537835741710297,-0.01327414947225027
-0.005537495741710297,-0.0129450138947047
-0.005537155741710298,-0.01205634783533327
-0.005536815741710297,-0.01347163081877761
-0.005536475741710297,-0.01353745793428673
-0.005536135741710298,-0.01534770361078407
-0.005535795741710297,-0.02212789650822613
-0.005535455741710297,-0.01699338149851522
-0.005535115741710298,-0.01528187649528137
-0.005534775741710297,-0.01557809851506927
-0.005534435741710297,-0.01755291198034269
-0.005534095741710298,-0.02015308304294797
-0.005533755741710297,-0.01840866448196118
-0.005533415741710297,-0.01610471543914218
-0.005533075741710297,-0.01439321043590521
-0.005532735741710297,-0.01633511034342408
-0.005532395741710297,-0.01597306120812395
-0.005532055741710297,-0.01518313582201458
-0.005531715741710297,-0.01521604937976914
-0.005531375741710297,-0.01742125774932446
-0.005531035741710297,-0.01821118313543383
-0.005530695741710297,-0.01732251707606079
-0.005530355741710297,-0.01867197294399764
-0.005530015741710297,-0.01883654073277042
-0.005529675741710297,-0.01788204755788803
-0.005529335741710297,-0.01775039332687003
-0.005528995741710297,-0.01597306120812395
-0.005528655741710297,-0.01445903755141564
-0.005528315741710297,-0.01518313582201458
-0.005527975741710297,-0.014557778224678
-0.005527635741710297,-0.01215508850859736
-0.005527295741710297,-0.01327414947225027
-0.005526955741710297,-0.01383367995407774
-0.005526615741710297,-0.01360328504979644
-0.005526275741710297,-0.01393242062734141
-0.005525935741710297,-0.01528187649527825
-0.005525595741710297,-0.01742125774932129
-0.005525255741710297,-0.01567683918833294
-0.005524915741710297,-0.01228674273961356
-0.005524575741710297,-0.01001570725454612
-0.005524235741710297,-0.00837002936682126
-0.005523895741710297,-0.01436029687815065
-0.005523555741710297,-0.01646676457443967
-0.005523215741710297,-0.0150185680332418
-0.005522875741710297,-0.02140379823762588
-0.005522535741710297,-0.03108038421749332
-0.005522195741710297,-0.04628644790007105
-0.005521855741710297,-0.06797648246032417
-0.005521515741710297,-0.09233251519874956
-0.005521175741710297,-0.1215268409269886
-0.005520835741710297,-0.1536833868531909
-0.005520495741710298,-0.1835030701787654
-0.005520155741710297,-0.2082540656102466
-0.005519815741710297,-0.2328404932529007
-0.005519475741710298,-0.2501201110740118
-0.005519135741710297,-0.2611132393640653
-0.005518795741710297,-0.2677946915882404
-0.005518455741710298,-0.2701315541888097
-0.005518115741710297,-0.2686504440898589
-0.005517775741710297,-0.2668731119711128
-0.005517435741710298,-0.2635817561956631
-0.005517095741710297,-0.2564395141629182
-0.005516755741710297,-0.2518645296350348
-0.005516415741710298,-0.2471249773183871
-0.005516075741710297,-0.2388636743219847
-0.005515735741710297,-0.2311948153651729
-0.005515395741710298,-0.2252374614116089
-0.005515055741710297,-0.2205966497682055
-0.005514715741710297,-0.2085502876300376
-0.005514375741710298,-0.1995977999208144
-0.005514035741710297,-0.1901516088452402
-0.005513695741710297,-0.1831081074857649
-0.005513355741710298,-0.1815940838290581
-0.005513015741710297,-0.1763608281460807
-0.005512675741710297,-0.166157625242168
-0.005512335741710297,-0.1618130356185665
-0.005511995741710297,-0.1573697053217013
-0.005511655741710297,-0.149733759922644
-0.005511315741710297,-0.1457841329920972
-0.005510975741710297,-0.1406167044246317
-0.005510635741710297,-0.1353505351839026
-0.005510295741710297,-0.1309730320025465
-0.005509955741710297,-0.1264967881479267
-0.005509615741710297,-0.120901483329652
-0.005509275741710297,-0.116293585244014
-0.005508935741710297,-0.1123439583134585
-0.005508595741710297,-0.1076044059968109
-0.005508255741710297,-0.105366284069501
-0.005507915741710297,-0.1043130502213503
-0.005507575741710297,-0.1016141384854815
-0.005507235741710297,-0.09996846059775369
-0.005506895741710297,-0.1005938181950825
-0.005506555741710297,-0.09631505568699786
-0.005506215741710297,-0.09302369991154213
-0.005505875741710297,-0.09351740327785275
-0.005505535741710297,-0.08927155432752262
-0.005505195741710297,-0.08492696470392108
-0.005504855741710297,-0.08657264259164776
-0.005504515741710297,-0.08591437143655781
-0.005504175741710297,-0.07574408209039965
-0.005503835741710297,-0.07337430593206264
-0.005503495741710297,-0.06847018582664255
-0.005503155741710297,-0.06738403842074214
-0.005502815741710297,-0.06998420948334258
-0.005502475741710297,-0.06471804024262304
-0.005502135741710297,-0.05885942696231186
-0.005501795741710297,-0.05945187100189419
-0.005501455741710297,-0.05961643879066668
-0.005501115741710297,-0.05698335417030211
-0.005500775741710297,-0.05612760166868321
-0.005500435741710297,-0.05589720676440172
-0.005500095741710297,-0.05379073906811007
-0.005499755741710298,-0.05237545608466668
-0.005499415741710297,-0.05079560531244537
-0.005499075741710297,-0.04891953252043561
-0.005498735741710298,-0.0467472377086388
-0.005498395741710297,-0.04763590376800789
-0.005498055741710297,-0.04388375818398838
-0.005497715741710298,-0.04085571087057464
-0.005497375741710297,-0.04302800568236989
-0.005497035741710297,-0.04457494289683408
-0.005496695741710298,-0.04236973452728277
-0.005496355741710297,-0.042797610778088
-0.005496015741710297,-0.04078988375506001
-0.005495675741710298,-0.03897963807856267
-0.005495335741710297,-0.03921003298284127
-0.005494995741710297,-0.0377289228838862
-0.005494655741710298,-0.03493127047475393
-0.005494315741710297,-0.03858467538550468
-0.005493975741710297,-0.03644529413145847
-0.005493635741710298,-0.02874352161690612
-0.005493295741710297,-0.02769028776874628
-0.005492955741710297,-0.02673579459386412
-0.005492615741710298,-0.02838147248158899
-0.005492275741710297,-0.03068542152441098
-0.005491935741710297,-0.02867769450138299
-0.005491595741710298,-0.02637374545856819
-0.005491255741710297,-0.02815107757731008
-0.005490915741710297,-0.02976384190728338
-0.005490575741710297,-0.02874352161689211
-0.005490235741710297,-0.02584712853449108
-0.005489895741710297,-0.02446475910879968
-0.005489555741710297,-0.02439893199329057
-0.005489215741710297,-0.0231482167986174
-0.005488875741710297,-0.02469515401308158
-0.005488535741710297,-0.02295073545209006
-0.005488195741710297,-0.02291782189433951
-0.005487855741710297,-0.02512303026389083
-0.005487515741710297,-0.0259129556500002
-0.005487175741710297,-0.02347735237616459
-0.005486835741710297,-0.02436601843553601
-0.005486495741710297,-0.02509011670613627
-0.005486155741710297,-0.02420145064676527
-0.005485815741710297,-0.02532051161041817
-0.005485475741710297,-0.0243001913200269
-0.005485135741710297,-0.02341152526065739
-0.005484795741710297,-0.02535342516817273
-0.005484455741710297,-0.02541925228368184
-0.005484115741710297,-0.0234444388184162
-0.005483775741710297,-0.02772320132650084
-0.005483435741710297,-0.02189750160394423
-0.005483095741710297,-0.01844157803972406
-0.005482755741710297,-0.02301656256759917
-0.005482415741710297,-0.0231482167986174
-0.005482075741710297,-0.01959355256112661
-0.005481735741710297,-0.02035056438948005
-0.005481395741710297,-0.02258868631678993
-0.005481055741710297,-0.01916567631031426
-0.005480715741710297,-0.01821118313543383
-0.005480375741710297,-0.01847449159747029
-0.005480035741710297,-0.01692755438300287
-0.005479695741710297,-0.01515022226426002
-0.005479355741710297,-0.01515022226426002
-0.005479015741710298,-0.01564392563057748
-0.005478675741710297,-0.0159401476503694
-0.005478335741710297,-0.01725668996055168
-0.005477995741710298,-0.0169933814985157
-0.005477655741710297,-0.01659841880546054
-0.005477315741710297,-0.01824409669318839
-0.005476975741710298,-0.01867197294399686
-0.005476635741710297,-0.01765165265360636
-0.005476295741710297,-0.01775039332687003
-0.005475955741710298,-0.01890236784827744
-0.005475615741710297,-0.01699338149851522
-0.005475275741710297,-0.01696046794076066
-0.005474935741710298,-0.01817826957767706
-0.005474595741710297,-0.01646676457444231
-0.005474255741710297,-0.01623636967016041
-0.005473915741710298,-0.01742125774932231
-0.005473575741710297,-0.01788204755788826
-0.005473235741710297,-0.01801370178890649
-0.005472895741710298,-0.01702629505627157
-0.005472555741710297,-0.01663133236321509
-0.005472215741710297,-0.01376785283856862
-0.005471875741710298,-0.01801370178889877
-0.005471535741710297,-0.02074552708253473
-0.005471195741710297,-0.01472234601345078
-0.005470855741710298,-0.01607180188138517
-0.005470515741710297,-0.01620345611240585
-0.005470175741710297,-0.01505148159099635
-0.005469835741710297,-0.01649967813219686
-0.005469495741710297,-0.01643385101668775
-0.005469155741710297,-0.01570975274608749
-0.005468815741710297,-0.01580849341935116
-0.005468475741710297,-0.01607180188138762
-0.005468135741710297,-0.01422864264713243
-0.005467795741710297,-0.01544644428405104
-0.005467455741710297,-0.01393242062734141
-0.005467115741710297,-0.01357037149204128
-0.005466775741710297,-0.01399824774285052
-0.005466435741710297,-0.01366911216530358
-0.005466095741710297,-0.01291210033695014
-0.005465755741710297,-0.01314249524123204
-0.005465415741710297,-0.01459069178243028
-0.005465075741710297,-0.01333997658775938
-0.005464735741710297,-0.01324123591449571
-0.005464395741710297,-0.01455777822467548
-0.005464055741710297,-0.0131754087989866
-0.005463715741710297,-0.01281335966368647
-0.005463375741710297,-0.01373493928082335
-0.005463035741710297,-0.01883654073277042
-0.005462695741710297,-0.01255005120165001
-0.005462355741710297,-0.01268170543266848
-0.005462015741710297,-0.01281335966368647
-0.005461675741710297,-0.01116768177595861
-0.005461335741710297,-0.01653259168995585
-0.005460995741710297,-0.01896819496378865
-0.005460655741710297,-0.01570975274608749
-0.005460315741710297,-0.01613762899690242
-0.005459975741710297,-0.01926441698357966
-0.005459635741710297,-0.01867197294399764
-0.005459295741710297,-0.01751999842258874
-0.005458955741710297,-0.01784913400013371
-0.005458615741710297,-0.01508439514875091
-0.005458275741710297,-0.01491982735998076
-0.005457935741710297,-0.01636802390117864
-0.005457595741710297,-0.01459069178243255
-0.005457255741710298,-0.01393242062734261
-0.005456915741710297,-0.01610471543914218
-0.005456575741710297,-0.01436029687815065
-0.005456235741710298,-0.01333997658776124
-0.005455895741710297,-0.01422864264713243
-0.005455555741710297,-0.01380076639632318
-0.005455215741710298,-0.01248422408614329
-0.005454875741710297,-0.01426155620488698
-0.005454535741710297,-0.01445903755141432
-0.005454195741710298,-0.01143099023800058
-0.005453855741710297,-0.01189178004655887
-0.005453515741710297,-0.01149681735350419
-0.005453175741710298,-0.01041066994760578
-0.005452835741710297,-0.01182595293104976
-0.005452495741710297,-0.01636802390117864
-0.005452155741710298,-0.01027901571659665
-0.005451815741710297,-0.009785312350267215
-0.005451475741710297,-0.009785312350267215
-0.005451135741710298,-0.00234684829775084
-0.005450795741710297,-0.01570975274608749
-0.005450455741710297,-0.0185403187129794
-0.005450115741710298,-0.01686172726750005
-0.005449775741710297,-0.01679590015198788
-0.005449435741710297,-0.01975812034989802
-0.005449095741710298,-0.01844157803971813
-0.005448755741710297,-0.01850740515522485
-0.005448415741710297,-0.01926441698357966
-0.005448075741710297,-0.01919858986807055
-0.005447735741710297,-0.01942898477235245
-0.005447395741710297,-0.01939607121459789
-0.005447055741710297,-0.01827701025094295
-0.005446715741710297,-0.01702629505626978
-0.005446375741710297,-0.01801370178890649
-0.005446035741710297,-0.01712503572953345
-0.005445695741710297,-0.01468943245569862
-0.005445355741710297,-0.01600597476587851
-0.005445015741710297,-0.01597306120812395
-0.005444675741710297,-0.01561101207282472
-0.005444335741710297,-0.01610471543914218
-0.005443995741710297,-0.01597306120812395
-0.005443655741710297,-0.01281335966368671
-0.005443315741710297,-0.0129450138947047
-0.005442975741710297,-0.01353745793428673
-0.005442635741710297,-0.01103602754494434
-0.005442295741710297,-0.01320832235674115
-0.005441955741710297,-0.01640093745893319
-0.005441615741710297,-0.008304202251312504
-0.005441275741710297,-0.008501683597839487
-0.005440935741710297,-0.009785312350267215
-0.005440595741710297,-0.01264879187492051
-0.005440255741710297,-0.01640093745893319
-0.005439915741710297,-0.01656550524770598
-0.005439575741710297,-0.01508439514875277
-0.005439235741710297,-0.01610471543914218
-0.005438895741710297,-0.01728960351830624
-0.005438555741710297,-0.01640093745893038
-0.005438215741710297,-0.01485400024446901
-0.005437875741710297,-0.01554518495731471
-0.005437535741710297,-0.01452486466692056
-0.005437195741710297,-0.0129450138947047
-0.005436855741710297,-0.01485400024446901
-0.005436515741710298,-0.01515022226425948
-0.005436175741710297,-0.0131754087989866
-0.005435835741710297,-0.01439321043590521
-0.005435495741710298,-0.01459069178243219
-0.005435155741710297,-0.01291210033695014
-0.005434815741710297,-0.01383367995407774
-0.005434475741710298,-0.01445903755141319
-0.005434135741710297,-0.01310958168347748
-0.005433795741710297,-0.01439321043590521
-0.005433455741710298,-0.01445903755141421
-0.005433115741710297,-0.0138665935118323
-0.005432775741710297,-0.01531479005303281
-0.005432435741710298,-0.01771747976911111
-0.005432095741710297,-0.01719086284504256
-0.005431755741710297,-0.02002142881193448
-0.005431415741710298,-0.02235829141250378
-0.005431075741710297,-0.01590723409261484
-0.005430735741710297,-0.01468943245569622
-0.005430395741710298,-0.0149856544754867
-0.005430055741710297,-0.01821118313543383
-0.005429715741710297,-0.01498565447548724
-0.005429375741710298,-0.01498565447548724
-0.005429035741710297,-0.01646676457444231
-0.005428695741710297,-0.01646676457444231
-0.005428355741710298,-0.01821118313543066
-0.005428015741710297,-0.01844157803971573
-0.005427675741710297,-0.0124842240861409
-0.005427335741710297,-0.01765165265360636
-0.005426995741710297,-0.01926441698357966
-0.005426655741710297,-0.01301084101021381
-0.005426315741710297,-0.01307666812572293
-0.005425975741710297,-0.01426155620488698
-0.005425635741710297,-0.0120234342775771
-0.005425295741710297,-0.01241839697063178
-0.005424955741710297,-0.008797905617630502
-0.005424615741710297,-0.006559783690320619
-0.005424275741710297,-0.01324123591449571
-0.005423935741710297,-0.01501856803323258
-0.005423595741710297,-0.009949880139040001
-0.005423255741710297,-0.01097020042943127
-0.005422915741710297,-0.01534770361078659
-0.005422575741710297,-0.01491982735997812
-0.005422235741710297,-0.01544644428405104
-0.005421895741710297,-0.0190011085215435
-0.005421555741710297,-0.01916567631031599
-0.005421215741710297,-0.01725668996055168
-0.005420875741710297,-0.01949481188785869
-0.005420535741710297,-0.01791496111564282
-0.005420195741710297,-0.0150185680332418
-0.005419855741710297,-0.01600597476587785
-0.005419515741710297,-0.01564392563057838
-0.005419175741710297,-0.01380076639632318
-0.005418835741710297,-0.01396533418509711
-0.005418495741710297,-0.01459069178243255
-0.005418155741710297,-0.0131754087989866
-0.005417815741710297,-0.01416281553162403
-0.005417475741710297,-0.014557778224678
-0.005417135741710297,-0.0140969884161142
-0.005416795741710297,-0.01258296475940792
-0.005416455741710297,-0.01442612399365977
-0.005416115741710297,-0.01297792745245925
-0.005415775741710297,-0.01630219678567479
