Analysis/files/cmb03_d2s01/wrd05_ch15.csv

#Digilent WaveForms Oscilloscope Acquisition
#Device Name: ADP3450
#Serial Number: SN:210018B9D9B0
#Date Time: 2024-08-09 15:42:47.605.502.330
#Sample rate: 2.94118e+06Hz
#Samples: 32768
#Trigger: Source: Channel 3 Type: Edge Condition: Rising Level: 20 mV Hyst.: Auto HoldOff: 0 s
#Channel 3: Range: 200 mV/div Offset: 0 V Attenuation: 1 X Coupling: DC Bandwidth: 0 Hz Sample Mode: Average

Time (s),Channel 3 (V)
-0.005570272133333334,0.005223269985810825
-0.005569932133333334,0.004663739503986348
-0.005569592133333334,0.00630941739171121
-0.005569252133333334,0.00505870219703804
-0.005568912133333334,0.001207815939752763
-0.005568572133333334,5.584141834535986e-05
-0.005568232133333334,0.00630941739171121
-0.005567892133333334,0.004466258157459785
-0.005567552133333334,0.00653981229599311
-0.005567212133333334,0.002623098923200814
-0.005566872133333334,-0.0003720348324551416
-0.005566532133333334,0.004433344599701455
-0.005566192133333334,0.005190356428056269
-0.005565852133333334,0.003511764982578107
-0.005565512133333334,0.005848627583147411
-0.005565172133333334,0.00630941739171121
-0.005564832133333334,0.00509161575479146
-0.005564492133333334,0.004466258157456012
-0.005564152133333334,0.004992875081528926
-0.005563812133333334,0.0029851480585019
-0.005563472133333334,0.003511764982573856
-0.005563132133333334,0.002886407385237271
-0.005562792133333334,0.001964827768111349
-0.005562452133333334,0.0005166312269091594
-0.005562112133333334,0.001207815939754859
-0.005561772133333334,0.0005824583424194111
-0.005561432133333334,-0.001096133103064139
-0.005561092133333334,0.0005166312269091594
-0.005560752133333334,-0.0008328246410252274
-0.005560412133333334,-0.0007999110832731249
-0.005560072133333334,-0.000207467043691097
-0.005559732133333334,0.0006153719001713339
-0.005559392133333334,-0.0001745534859365399
-0.005559052133333334,-0.0008657381987822392
-0.005558712133333334,-0.002544329644261599
-0.005558372133333334,-0.009127041195176074
-0.005558032133333334,-0.00438748887851985
-0.005557692133333334,-0.004222921089747363
-0.005557352133333334,-0.004420402436274407
-0.005557012133333334,-0.003465909261392251
-0.005556672133333334,-0.008304202251303343
-0.005556332133333334,-0.007580103980711889
-0.005555992133333334,-0.005144500706874663
-0.005555652133333334,-0.004552056667293712
-0.005555312133333334,-0.006625610805829733
-0.005554972133333334,-0.005671117630947577
-0.005554632133333334,-0.005407809168911599
-0.005554292133333334,-0.007152227729902647
-0.005553952133333334,-0.007185141287657204
-0.005553612133333334,-0.006362302343793276
-0.005553272133333334,-0.007580103980711889
-0.005552932133333334,-0.006954746383375304
-0.005552592133333334,-0.006395215901547833
-0.005552252133333334,-0.006395215901547833
-0.005551912133333334,-0.006066080324002262
-0.005551572133333334,-0.005078673591365549
-0.005551232133333334,-0.004617883782804264
-0.005550892133333334,-0.006000253208493148
-0.005550552133333334,-0.003005119452828451
-0.005550212133333334,-0.003202600799359326
-0.005549872133333334,-0.005144500706874663
-0.005549532133333334,-0.003070946568337565
-0.005549192133333334,-0.003926699069958565
-0.005548852133333334,-0.005309068495647449
-0.005548512133333334,-0.007020573498884419
-0.005548172133333334,-0.008007980231529993
-0.005547832133333334,-0.01287918677919558
-0.005547492133333334,-0.003597563492410479
-0.005547152133333334,-0.002939292337320175
-0.005546812133333334,-0.003400082145883136
-0.005546472133333334,-0.00369630416567415
-0.005546132133333334,-0.006823092152357794
-0.005545792133333334,-0.007218054845411761
-0.005545452133333334,-0.006592697248075176
-0.005545112133333334,-0.006395215901550946
-0.005544772133333334,-0.008106720904784802
-0.005544432133333334,-0.00767884465397556
-0.005544092133333334,-0.006197734555022227
-0.005543752133333334,-0.007152227729902647
-0.005543412133333334,-0.006724351479093405
-0.005543072133333334,-0.006493956574810487
-0.005542732133333334,-0.005934426092984033
-0.005542392133333334,-0.006559783690320619
-0.005542052133333334,0.0008457668044412597
-0.005541712133333334,-0.004979932918101878
-0.005541372133333334,-0.006757265036847961
-0.005541032133333334,-0.00356464993466173
-0.005540692133333334,-0.003432995703637694
-0.005540352133333334,-0.004782451571574535
-0.005540012133333334,-0.003663390607921629
-0.005539672133333334,-0.00369630416567415
-0.005539332133333334,-0.004519143109538078
-0.005538992133333334,-0.005605290515436487
-0.005538652133333334,-0.004881192244838206
-0.005538312133333334,-0.006757265036847961
-0.005537972133333334,-0.007547190422955895
-0.005537632133333334,-0.009686571677003543
-0.005537292133333334,-0.0140969884161142
-0.005536952133333334,-0.008205461578059191
-0.005536612133333334,-0.007218054845411761
-0.005536272133333334,-0.007744671769484675
-0.005535932133333334,-0.009489090330473028
-0.005535592133333334,-0.0113322495647314
-0.005535252133333334,-0.01120059533371317
-0.005534912133333334,-0.008567510713353392
-0.005534572133333334,-0.006461043017056948
-0.005534232133333334,-0.006724351479093405
-0.005533892133333334,-0.007942153116009801
-0.005533552133333334,-0.006823092152357076
-0.005533212133333334,-0.007580103980711889
-0.005532872133333334,-0.008732078502121389
-0.005532532133333334,-0.008238375135803031
-0.005532192133333334,-0.007514276865202775
-0.005531852133333334,-0.008863732733139616
-0.005531512133333334,-0.006724351479093405
-0.005531172133333334,-0.00540780916891112
-0.005530832133333334,-0.007711758211730118
-0.005530492133333334,-0.007250968403166318
-0.005530152133333334,-0.007152227729902647
-0.005529812133333334,-0.008995386964157845
-0.005529472133333334,-0.01166138514227865
-0.005529132133333334,-0.01258296475940457
-0.005528792133333334,-0.01264879187491368
-0.005528452133333334,-0.01264879187490991
-0.005528112133333334,-0.01057523773637659
-0.005527772133333334,-0.01123350889146773
-0.005527432133333334,-0.01077271908290662
-0.005527092133333334,-0.012253829181859
-0.005526752133333334,-0.006395215901547833
-0.005526412133333334,-0.004420402436271114
-0.005526072133333334,-0.002610156759773766
-0.005525732133333334,-0.0009315653142913533
-0.005525392133333334,-0.004552056667290539
-0.005525052133333334,-0.003400082145883136
-0.005524712133333334,-0.001260700891836924
-0.005524372133333334,-0.002346848297738327
-0.005524032133333334,-0.00290637877956478
-0.005523692133333334,-0.003070946568337565
-0.005523352133333334,-0.00497993291810541
-0.005523012133333334,-0.006921832825620747
-0.005522672133333334,-0.01097020042943127
-0.005522332133333334,-0.02021891015848104
-0.005521992133333334,-0.03078416219767465
-0.005521652133333334,-0.05089434598570904
-0.005521312133333334,-0.07732393286267199
-0.005520972133333334,-0.106781567052947
-0.005520632133333334,-0.1361733741277665
-0.005520292133333334,-0.1696464623640902
-0.005519952133333334,-0.1989724423234615
-0.005519612133333334,-0.2217815378473695
-0.005519272133333334,-0.2411347098070139
-0.005518932133333334,-0.2543988735821356
-0.005518592133333334,-0.2617056834036473
-0.005518252133333334,-0.2629234850405637
-0.005517912133333334,-0.2623639545587385
-0.005517572133333334,-0.2561432921431271
-0.005517232133333334,-0.2498568026120182
-0.005516892133333334,-0.243076609714568
-0.005516552133333334,-0.2380079218203662
-0.005516212133333334,-0.228857952764616
-0.005515872133333334,-0.2174698617815226
-0.005515532133333334,-0.2108871502306111
-0.005515192133333334,-0.2020004896368969
-0.005514852133333334,-0.2000256761716073
-0.005514512133333334,-0.194101235775787
-0.005514172133333334,-0.1852474887398273
-0.005513832133333334,-0.1790597398819544
-0.005513492133333334,-0.1722137198690065
-0.005513152133333334,-0.1646765151432267
-0.005512812133333334,-0.1580938035923015
-0.005512472133333334,-0.1516098327146538
-0.005512132133333334,-0.1457512194343426
-0.005511792133333334,-0.1408141857711591
-0.005511452133333334,-0.1357784114347118
-0.005511112133333334,-0.1316313031576376
-0.005510772133333334,-0.129524835461346
-0.005510432133333334,-0.1260689118971175
-0.005510092133333334,-0.1208027426563884
-0.005509752133333334,-0.1174784733231781
-0.005509412133333334,-0.1146808209140407
-0.005509072133333334,-0.1095792194620844
-0.005508732133333334,-0.1058929009935665
-0.005508392133333334,-0.1017787062742543
-0.005508052133333334,-0.09661127770678887
-0.005507712133333334,-0.09170715760135459
-0.005507372133333334,-0.08881076451895883
-0.005507032133333334,-0.08433452066433905
-0.005506692133333334,-0.08170143604397546
-0.005506352133333334,-0.08222805296804742
-0.005506012133333334,-0.08272175633436576
-0.005505672133333334,-0.07370344150961566
-0.005505332133333334,-0.07291351612350774
-0.005504992133333334,-0.07005003659886128
-0.005504652133333334,-0.06672576726565665
-0.005504312133333334,-0.06981964169457938
-0.005503972133333334,-0.06613332322606899
-0.005503632133333334,-0.06155833869818184
-0.005503292133333334,-0.059517698117403
-0.005502952133333334,-0.05695044061254755
-0.005502612133333334,-0.05461357801197262
-0.005502272133333334,-0.05385656618361918
-0.005501932133333334,-0.0534616034905645
-0.005501592133333334,-0.04961071723328143
-0.005501252133333334,-0.04967654434879043
-0.005500912133333334,-0.04895244607819017
-0.005500572133333334,-0.04668141059312232
-0.005500232133333334,-0.04480533780111598
-0.005499892133333334,-0.043093832797879
-0.005499552133333334,-0.04273178366257954
-0.005499212133333334,-0.03904546519406848
-0.005498872133333334,-0.0386505025010138
-0.005498532133333334,-0.03644529413146248
-0.005498192133333334,-0.03279188922070263
-0.005497852133333334,-0.03341724681803922
-0.005497512133333334,-0.03019171815809849
-0.005497172133333334,-0.02903974363668312
-0.005496832133333334,-0.02989549613830161
-0.005496492133333334,-0.02966510123402013
-0.005496152133333334,-0.02275325410556272
-0.005495812133333334,-0.03325267902926643
-0.005495472133333334,-0.03526040605229076
-0.005495132133333334,-0.0268345352671278
-0.005494792133333334,-0.02643957257407311
-0.005494452133333334,-0.02370774728044984
-0.005494112133333334,-0.0247609811285907
-0.005493772133333334,-0.02624209122754577
-0.005493432133333334,-0.02433310487778493
-0.005493092133333334,-0.021765847372926
-0.005492752133333334,-0.02397105574248133
-0.005492412133333334,-0.0243331048777808
-0.005492072133333334,-0.02327987102963563
-0.005491732133333334,-0.02479389468634526
-0.005491392133333334,-0.02456349978206378
-0.005491052133333334,-0.02160127958415322
-0.005490712133333334,-0.0210746626600803
-0.005490372133333334,-0.02179876093068056
-0.005490032133333334,-0.02137088467987132
-0.005489692133333334,-0.02041639150498916
-0.005489352133333334,-0.02137088467987132
-0.005489012133333334,-0.0208442677557984
-0.005488672133333334,-0.01893528140603409
-0.005488332133333334,-0.01979103390765257
-0.005487992133333334,-0.01916567631031342
-0.005487652133333334,-0.01775039332687003
-0.005487312133333334,-0.01649967813219686
-0.005486972133333334,-0.01630219678566641
-0.005486632133333334,-0.01459069178243255
-0.005486292133333334,-0.01587432053486028
-0.005485952133333334,-0.01515022226425733
-0.005485612133333334,-0.01366911216530495
-0.005485272133333334,-0.01886945429052498
-0.005484932133333334,-0.0148869138022168
-0.005484592133333334,-0.01116768177595861
-0.005484252133333334,-0.009225781868439744
-0.005483912133333334,-0.008797905617637087
-0.005483572133333334,-0.01241839697063178
-0.005483232133333334,-0.01333997658775938
-0.005482892133333334,-0.01064106485188522
-0.005482552133333334,-0.01037775638984924
-0.005482212133333334,-0.01106894110269494
-0.005481872133333334,-0.01501856803323958
-0.005481532133333334,-0.01380076639632318
-0.005481192133333334,-0.01287918677919558
-0.005480852133333334,-0.01324123591449422
-0.005480512133333334,-0.01241839697063178
-0.005480172133333334,-0.01268170543266824
-0.005479832133333334,-0.01143099023799178
-0.005479492133333334,-0.00962074456149443
-0.005479152133333334,-0.007415536191939104
-0.005478812133333334,-0.007613017538466087
-0.005478472133333334,-0.007349709076429989
-0.005478132133333334,-0.00540780916891112
-0.005477792133333334,-0.006493956574809528
-0.005477452133333334,-0.006691437921338847
-0.005477112133333334,-0.007580103980711889
-0.005476772133333334,-0.008139634462538341
-0.005476432133333334,-0.00962074456149443
-0.005476092133333334,-0.007975066673766575
-0.005475752133333334,-0.007942153116012077
-0.005475412133333334,-0.008929559848648731
-0.005475072133333334,-0.008830819175385059
-0.005474732133333334,-0.009851139465774473
-0.005474392133333334,-0.001918972046928067
-0.005474052133333334,-0.001458182238364267
-0.005473712133333334,-0.005967339650730389
-0.005473372133333334,-0.005210327822383777
-0.005473032133333334,-0.003663390607919593
-0.005472692133333334,-0.006823092152351329
-0.005472352133333334,-0.00962074456149443
-0.005472012133333334,-0.008732078502121389
-0.005471672133333334,-0.008962473406402868
-0.005471332133333334,-0.0131754087989866
-0.005470992133333334,-0.01416281553162331
-0.005470652133333334,-0.01383367995407834
-0.005470312133333334,-0.01498565447548724
-0.005469972133333334,-0.01541353072629648
-0.005469632133333334,-0.01465651889794167
-0.005469292133333334,-0.01426155620488698
-0.005468952133333334,-0.0143273833203961
-0.005468612133333334,-0.01215508850859533
-0.005468272133333334,-0.01205634783533165
-0.005467932133333334,-0.01238548341287723
-0.005467592133333334,-0.009587831003739873
-0.005467252133333334,-0.008666251386612273
-0.005466912133333334,-0.006954746383375304
-0.005466572133333334,-0.005934426092984033
-0.005466232133333334,-0.003860871954448074
-0.005465892133333334,-0.004486229551783521
-0.005465552133333334,-0.001622750027137053
-0.005465212133333334,-0.0008657381987880465
-0.005464872133333334,-0.004058353300974278
-0.005464532133333334,-0.006362302343793276
-0.005464192133333334,-0.004025439743224691
-0.005463852133333334,-0.006757265036847961
-0.005463512133333334,-0.00790923955825746
-0.005463172133333334,-0.007086400614404668
-0.005462832133333334,-0.01320832235674115
-0.005462492133333334,-0.0138665935118323
-0.005462152133333334,-0.009851139465777467
-0.005461812133333334,-0.01047649706311291
-0.005461472133333334,-0.01060815129413114
-0.005461132133333334,-0.009752398792510863
-0.005460792133333334,-0.008764992059875945
-0.005460452133333334,-0.009192868310685188
-0.005460112133333334,-0.007349709076431067
-0.005459772133333334,-0.007942153116012016
-0.005459432133333334,-0.007843412442748346
-0.005459092133333334,-0.008304202251311427
-0.005458752133333334,-0.00790923955825746
-0.005458412133333334,-0.008764992059875945
-0.005458072133333334,-0.008402942924576415
-0.005457732133333334,-0.008732078502121389
-0.005457392133333334,-0.009522003888230759
-0.005457052133333334,-0.007678844653978913
-0.005456712133333334,-0.008139634462539359
-0.005456372133333334,-0.008468770040084931
-0.005456032133333334,-0.009587831003737838
-0.005455692133333334,-0.007250968403166318
-0.005455352133333334,-0.008995386964157845
-0.005455012133333334,-0.009456176772720806
-0.005454672133333334,-0.008040893789275689
-0.005454332133333334,-0.01195760716206798
-0.005453992133333334,-0.01561101207281718
-0.005453652133333334,-0.007777585327239231
-0.005453312133333334,-0.00688891926786619
-0.005452972133333334,-0.006296475228285239
-0.005452632133333334,-0.005605290515438462
-0.005452292133333334,-0.009225781868439744
-0.005451952133333334,-0.008699164944367788
-0.005451612133333334,-0.005671117630947577
-0.005451272133333334,-0.008205461578048474
-0.005450932133333334,-0.009225781868437888
-0.005450592133333334,-0.008106720904784802
-0.005450252133333334,-0.001853144931418952
-0.005449912133333334,-0.00866625138659988
-0.005449572133333334,-0.008468770040084931
-0.005449232133333334,-0.008764992059875945
-0.005448892133333334,-0.009818225908019857
-0.005448552133333334,-0.009357436099457973
-0.005448212133333334,-0.009587831003739873
-0.005447872133333334,-0.01011444792781279
-0.005447532133333334,-0.008929559848648731
-0.005447192133333334,-0.007382622634184546
-0.005446852133333334,-0.007316795518675433
-0.005446512133333334,-0.005276154937892892
-0.005446172133333334,-0.003038033010583008
-0.005445832133333334,-0.00267598387528288
-0.005445492133333334,-0.003663390607917199
-0.005445152133333334,-0.002346848297737309
-0.005444812133333334,-0.004617883782801749
-0.005444472133333334,-0.006790178594601081
-0.005444132133333334,-0.006000253208493148
-0.005443792133333334,-0.01245131052838634
-0.005443452133333334,-0.01083854619840544
-0.005443112133333334,-0.00665852436358429
-0.005442772133333334,-0.005572376957683906
-0.005442432133333334,-0.00524324138014498
-0.005442092133333334,-0.008896646290894173
-0.005441752133333334,-0.01057523773637659
-0.005441412133333334,-0.008962473406400653
-0.005441072133333334,-0.007514276865202775
-0.005440732133333334,-0.008567510713348603
-0.005440392133333334,-0.009785312350265958
-0.005440052133333334,-0.009094127637421515
-0.005439712133333334,-0.00767884465397556
-0.005439372133333334,-0.008633337828857836
-0.005439032133333334,-0.00869916494436683
-0.005438692133333334,-0.008238375135803031
-0.005438352133333334,-0.00876499205987415
-0.005438012133333334,-0.007777585327239231
-0.005437672133333334,-0.006856005710111633
-0.005437332133333334,-0.007053487056635263
-0.005436992133333334,-0.005012846475856435
-0.005436652133333334,-0.003827958396692379
-0.005436312133333334,-0.005045760033608776
-0.005435972133333334,-0.006724351479093405
-0.005435632133333334,-0.006856005710111633
-0.005435292133333334,-0.008666251386608981
-0.005434952133333334,-0.01166138514227697
-0.005434612133333334,-0.01080563264065849
-0.005434272133333334,-0.01251713764389234
-0.005433932133333334,-0.01238548341287723
-0.005433592133333334,-0.01037775638984924
-0.005433252133333334,-0.01189178004655612
-0.005432912133333334,-0.01116768177595861
-0.005432572133333334,-0.003729217723428708
-0.005432232133333334,-0.002050626277949348
-0.005431892133333334,-0.002248107624473638
-0.005431552133333334,-0.004091266858728836
-0.005431212133333334,-0.007909239558250514
-0.005430872133333334,-0.006823092152357076
-0.005430532133333334,-0.006954746383375304
-0.005430192133333334,-0.008995386964154133
-0.005429852133333334,-0.01034484283209469
-0.005429512133333334,-0.009916966581285444
-0.005429172133333334,-0.008732078502123545
-0.005428832133333334,-0.01054232417862203
-0.005428492133333334,-0.009456176772721644
-0.005428152133333334,-0.00939034965721265
-0.005427812133333334,-0.009324522541703417
-0.005427472133333334,-0.008797905617630502
-0.005427132133333334,-0.008468770040084931
-0.005426792133333334,-0.009357436099457973
-0.005426452133333334,-0.009785312350267215
-0.005426112133333334,-0.007777585327239231
-0.005425772133333334,-0.008435856482330374
-0.005425432133333334,-0.01027901571658557
-0.005425092133333334,-0.008337115809066702
-0.005424752133333334,-0.00767884465397556
-0.005424412133333334,-0.008040893789275689
-0.005424072133333334,-0.007711758211730118
-0.005423732133333334,-0.007547190422959487
-0.005423392133333334,-0.008732078502121389
-0.005423052133333334,-0.009554917445985316
-0.005422712133333334,-0.01264879187490207
-0.005422372133333334,-0.006263561670529605
-0.005422032133333334,-0.005736944746456691
-0.005421692133333334,-0.004519143109539874
-0.005421352133333334,-0.005506549842174791
-0.005421012133333334,-0.009225781868439744
-0.005420672133333334,-0.006757265036845866
-0.005420332133333334,-0.005605290515438462
-0.005419992133333334,-0.006790178594602518
-0.005419652133333334,-0.00748136330744714
-0.005419312133333334,-0.00688891926786619
-0.005418972133333334,-0.007547190422957332
-0.005418632133333334,-0.00665852436358429
-0.005418292133333334,-0.00665852436358429
-0.005417952133333334,-0.006098993881756819
-0.005417612133333334,-0.00675726503684862
-0.005417272133333334,-0.00711931417214809
