Analysis/files/cmb03_d2s01/wrd05_ch14.csv

#Digilent WaveForms Oscilloscope Acquisition
#Device Name: ADP3450
#Serial Number: SN:210018B9D9B0
#Date Time: 2024-08-09 15:42:23.685.357.150
#Sample rate: 2.94118e+06Hz
#Samples: 32768
#Trigger: Source: Channel 3 Type: Edge Condition: Rising Level: 20 mV Hyst.: Auto HoldOff: 0 s
#Channel 3: Range: 200 mV/div Offset: 0 V Attenuation: 1 X Coupling: DC Bandwidth: 0 Hz Sample Mode: Average

Time (s),Channel 3 (V)
-0.005570543623853211,0.009436205378394135
-0.005570203623853211,0.008975415569830995
-0.005569863623853211,0.009337464705130465
-0.005569523623853211,0.0118388950944768
-0.005569183623853211,0.005716973352124931
-0.005568843623853211,0.003380110751555628
-0.005568503623853211,0.00607902248742931
-0.005568163623853211,0.004071295464394442
-0.005567823623853211,0.0002862363226272596
-0.005567483623853211,0.0009445074777184018
-0.005567143623853211,0.001109075266489152
-0.005566803623853211,-9.985697163754359e-06
-0.005566463623853211,0.002458531134428029
-0.00556612362385321,0.001899000652598881
-0.005565783623853211,0.0009774210354729588
-0.005565443623853211,0.0008457668044547304
-0.00556510362385321,0.002886407385232481
-0.005564763623853211,0.0002533227648727025
-0.005564423623853211,-0.001491095796118824
-0.00556408362385321,-0.0003062077169542894
-0.005563743623853211,-4.289925491831147e-05
-0.005563403623853211,0.001273643055263973
-0.005563063623853211,0.000319149880383553
-0.005562723623853211,-0.001063219545309582
-0.005562383623853211,-0.001984799162437181
-0.005562043623853211,-0.000470775505730308
-0.005561703623853211,-0.001524009353873381
-0.005561363623853211,-0.003827958396692379
-0.005561023623853211,-0.003762131281183384
-0.005560683623853211,-0.00767884465397556
-0.005560343623853211,-0.01037775638984924
-0.005560003623853211,-0.004321661763021752
-0.005559663623853211,-0.005045760033610991
-0.005559323623853211,-0.004255834647501621
-0.005558983623853211,-0.006296475228280449
-0.005558643623853211,-0.007843412442748346
-0.005558303623853211,-0.005671117630947577
-0.005557963623853211,-0.002972205895078803
-0.005557623623853211,-0.001524009353873381
-0.005557283623853211,-0.00119487377632781
-0.005556943623853211,-0.0002074670436928931
-0.005556603623853211,0.0001874956493635883
-0.005556263623853211,-0.002577243202019209
-0.005555923623853211,-0.001951885604683761
-0.005555583623853211,-0.003762131281183265
-0.005555243623853211,-0.007744671769484675
-0.005554903623853211,-0.009192868310682552
-0.005554563623853211,-0.008633337828857716
-0.005554223623853211,-0.01011444792781279
-0.005553883623853211,-0.01143099023799507
-0.005553543623853211,-0.009291608983948858
-0.005553203623853211,-0.008732078502121389
-0.005552863623853211,-0.007975066673766575
-0.005552523623853211,-0.006033166766247705
-0.005552183623853211,-0.006098993881756819
-0.005551843623853211,-0.006098993881756819
-0.005551503623853211,-0.004650797340556007
-0.005551163623853211,-0.004486229551783521
-0.005550823623853211,-0.005276154937892892
-0.005550483623853211,-0.00557237695769121
-0.005550143623853211,-0.009587831003739873
-0.005549803623853211,-0.006592697248075176
-0.005549463623853211,-0.002939292337320115
-0.005549123623853211,-0.00336716858812858
-0.005548783623853211,-0.003235514357110351
-0.005548443623853211,-0.006691437921340164
-0.005548103623853211,-0.007415536191939104
-0.005547763623853211,-0.003070946568337565
-0.005547423623853211,-0.005309068495644455
-0.005547083623853211,-0.003663390607919593
-0.005546743623853211,-0.005111587149120106
-0.005546403623853211,-0.004914105802594081
-0.005546063623853211,-0.005638204073193019
-0.005545723623853211,-0.007053487056638975
-0.00554538362385321,-0.007316795518675073
-0.005545043623853211,-0.00711931417214809
-0.005544703623853211,-0.007316795518675433
-0.00554436362385321,-0.0080079802315176
-0.005544023623853211,-0.006066080324002262
-0.005543683623853211,-0.006987659941129861
-0.00554334362385321,-0.007316795518675133
-0.005543003623853211,-0.007152227729902647
-0.005542663623853211,-0.007185141287657204
-0.005542323623853211,-0.008370029366819104
-0.005541983623853211,-0.008040893789275689
-0.005541643623853211,-0.008435856482330374
-0.005541303623853211,-0.01031192927433672
-0.005540963623853211,-0.009225781868439744
-0.005540623623853211,-0.008764992059875945
-0.005540283623853211,-0.009785312350265359
-0.005539943623853211,-0.01215508850859533
-0.005539603623853211,-0.01255005120165001
-0.005539263623853211,-0.005802771861978078
-0.005538923623853211,-0.00392669906995605
-0.005538583623853211,-0.001491095796118824
-0.005538243623853211,-0.003762131281179134
-0.005537903623853211,-0.00688891926786619
-0.005537563623853211,-0.005769858304211248
-0.005537223623853211,-0.005605290515438762
-0.005536883623853211,-0.009522003888230759
-0.005536543623853211,-0.009752398792512659
-0.005536203623853211,-0.01100311398718355
-0.005535863623853211,-0.01123350889146773
-0.005535523623853211,-0.01047649706311291
-0.005535183623853211,-0.009357436099460008
-0.005534843623853211,-0.009357436099457973
-0.005534503623853211,-0.008567510713348603
-0.005534163623853211,-0.00728388196092321
-0.005533823623853211,-0.007448449749693661
-0.005533483623853211,-0.004914105802592763
-0.005533143623853211,-0.005243241380138334
-0.005532803623853211,-0.006066080324002262
-0.005532463623853211,-0.007481363307448217
-0.005532123623853211,-0.006954746383375304
-0.005531783623853211,-0.008764992059875945
-0.005531443623853211,-0.009225781868439744
-0.005531103623853211,-0.00790923955825746
-0.005530763623853211,-0.009423263214967087
-0.005530423623853211,-0.008962473406403288
-0.005530083623853211,-0.009192868310685188
-0.005529743623853211,-0.01070689196740403
-0.005529403623853211,-0.01577557986159661
-0.005529063623853211,-0.005045760033610991
-0.005528723623853211,-0.007975066673765139
-0.005528383623853211,-0.007185141287657204
-0.005528043623853211,-0.00392669906995605
-0.005527703623853211,-0.006625610805832248
-0.005527363623853211,-0.008007980231521132
-0.005527023623853211,-0.005769858304211248
-0.005526683623853211,-0.005309068495650562
-0.005526343623853211,-0.007020573498884419
-0.005526003623853211,-0.006000253208493148
-0.005525663623853211,-0.005671117630950451
-0.005525323623853211,-0.007250968403166318
-0.005524983623853211,-0.007316795518675433
-0.00552464362385321,-0.007975066673768969
-0.005524303623853211,-0.009291608983948858
-0.005523963623853211,-0.01008153437005823
-0.00552362362385321,-0.008995386964162215
-0.005523283623853211,-0.01139807668024051
-0.005522943623853211,-0.01083854619841304
-0.00552260362385321,-0.01501856803325551
-0.005522263623853211,-0.02255577275903537
-0.005521923623853211,-0.03549080095657631
-0.00552158362385321,-0.05477814580079564
-0.005521243623853211,-0.08163560892846539
-0.005520903623853211,-0.1142529446632315
-0.005520563623853211,-0.1433814432759615
-0.005520223623853211,-0.1755709027599714
-0.005519883623853211,-0.2034157726203267
-0.005519543623853211,-0.2269160528570377
-0.005519203623853211,-0.2438994486584319
-0.005518863623853211,-0.2598954377271467
-0.005518523623853211,-0.2602904004202006
-0.005518183623853211,-0.2591713394565464
-0.005517843623853211,-0.2587763767634917
-0.005517503623853211,-0.2525557143478918
-0.005517163623853211,-0.2502188517473069
-0.005516823623853211,-0.2446893740445413
-0.005516483623853211,-0.2351773558534916
-0.005516143623853211,-0.2266198308372895
-0.005515803623853211,-0.2197738108243416
-0.005515463623853211,-0.2116112485012263
-0.005515123623853211,-0.2025271065609536
-0.005514783623853211,-0.1969647153004335
-0.005514443623853211,-0.1884730173997732
-0.005514103623853211,-0.1812320346937552
-0.005513763623853211,-0.1760646061262897
-0.005513423623853211,-0.1699097708261987
-0.005513083623853211,-0.1637220219683308
-0.005512743623853211,-0.1576659273414923
-0.005512403623853211,-0.1525972394472905
-0.005512063623853211,-0.1471006753022795
-0.005511723623853211,-0.1431510483717326
-0.005511383623853211,-0.1379507062465126
-0.005511043623853211,-0.1327832776790471
-0.005510703623853211,-0.1293602676725732
-0.005510363623853211,-0.1262663932436448
-0.005510023623853211,-0.1208027426563884
-0.005509683623853211,-0.1169518563991052
-0.005509343623853211,-0.1135617599503858
-0.005509003623853211,-0.1109615888877728
-0.005508663623853211,-0.1093159110000479
-0.005508323623853211,-0.1072752704192654
-0.005507983623853211,-0.09779616578594574
-0.005507643623853211,-0.09384653885540606
-0.005507303623853211,-0.089765257693841
-0.005506963623853211,-0.08858036961467503
-0.005506623623853211,-0.08752713576653109
-0.005506283623853211,-0.08249136143008387
-0.005505943623853211,-0.07847590738402234
-0.005505603623853211,-0.07541494651285408
-0.005505263623853211,-0.07350596016308977
-0.005504923623853211,-0.06909554342397192
-0.005504583623853211,-0.06514591649343227
-0.005504243623853211,-0.06468512668486848
-0.005503903623853211,-0.062479918315308
-0.005503563623853211,-0.05964935234842123
-0.005503223623853211,-0.05806950157620249
-0.00550288362385321,-0.05859611850026912
-0.005502543623853211,-0.05514019493604691
-0.005502203623853211,-0.05448192378095577
-0.00550186362385321,-0.05336286281729514
-0.005501523623853211,-0.0502360748306179
-0.005501183623853211,-0.04868913761615372
-0.00550084362385321,-0.04730676819045603
-0.005500503623853211,-0.04385084462623382
-0.005500163623853211,-0.0425672158738061
-0.005499823623853211,-0.04194185827647064
-0.005499483623853211,-0.04039492106200532
-0.005499143623853211,-0.0393416872138595
-0.005498803623853211,-0.04082279731281187
-0.005498463623853211,-0.04046074817751444
-0.005498123623853211,-0.04181020404545128
-0.005497783623853211,-0.04368627683745762
-0.005497443623853211,-0.03595159076514012
-0.005497103623853211,-0.03384512306884846
-0.005496763623853211,-0.03137660623726117
-0.005496423623853211,-0.03302228412498454
-0.005496083623853211,-0.0340426044153758
-0.005495743623853211,-0.03108038421747105
-0.005495403623853211,-0.02894100296341945
-0.005495063623853211,-0.02696618949814603
-0.005494723623853211,-0.02716367084467301
-0.005494383623853211,-0.02611043699652754
-0.005494043623853211,-0.02535342516817273
-0.005493703623853211,-0.02512303026389125
-0.005493363623853211,-0.02627500478530033
-0.005493023623853211,-0.02594586920775475
-0.005492683623853211,-0.02670288103610819
-0.005492343623853211,-0.02769028776874628
-0.005492003623853211,-0.02624209122754577
-0.005491663623853211,-0.02505720314838387
-0.005491323623853211,-0.02318113035637196
-0.005490983623853211,-0.02087718131355296
-0.005490643623853211,-0.01840866448196118
-0.005490303623853211,-0.01765165265360636
-0.005489963623853211,-0.01669715947872421
-0.005489623623853211,-0.01505148159099635
-0.005489283623853211,-0.01761873909585181
-0.005488943623853211,-0.01788204755788826
-0.005488603623853211,-0.01643385101668775
-0.005488263623853211,-0.01659841880546347
-0.005487923623853211,-0.01821118313543383
-0.005487583623853211,-0.02114048977558942
-0.005487243623853211,-0.01534770361078485
-0.005486903623853211,-0.01396533418509597
-0.005486563623853211,-0.01245131052838634
-0.005486223623853211,-0.01376785283856635
-0.005485883623853211,-0.01251713764389546
-0.005485543623853211,-0.01765165265360636
-0.005485203623853211,-0.01682881370974399
-0.005484863623853211,-0.01768456621136092
-0.005484523623853211,-0.01699338149851522
-0.005484183623853211,-0.01600597476587719
-0.005483843623853211,-0.01528187649527825
-0.005483503623853211,-0.01366911216530495
-0.005483163623853211,-0.01281335966368401
-0.005482823623853211,-0.01146390379574963
-0.005482483623853211,-0.01037775638984924
-0.00548214362385321,-0.008896646290895968
-0.005481803623853211,-0.009884053023530886
-0.005481463623853211,-0.007218054845411761
-0.00548112362385321,-0.006954746383377998
-0.005480783623853211,-0.008435856482330374
-0.005480443623853211,-0.008732078502121389
-0.00548010362385321,-0.009258695426197713
-0.005479763623853211,-0.01113476821820406
-0.005479423623853211,-0.01462360534018711
-0.005479083623853211,-0.01271461899042627
-0.005478743623853211,-0.01314249524123204
-0.005478403623853211,-0.01304375456796837
-0.005478063623853211,-0.0126487918749144
-0.005477723623853211,-0.01347163081877761
-0.005477383623853211,-0.01491982735997812
-0.005477043623853211,-0.01656550524770298
-0.005476703623853211,-0.008337115809066702
-0.005476363623853211,-0.008797905617630502
-0.005476023623853211,-0.008666251386612513
-0.005475683623853211,-0.008139634462539359
-0.005475343623853211,-0.0115626444690133
-0.005475003623853211,-0.009522003888234471
-0.005474663623853211,-0.006395215901547833
-0.005474323623853211,-0.007975066673766575
-0.005473983623853211,-0.006395215901550707
-0.005473643623853211,-0.004584970225047193
-0.005473303623853211,-0.006428129459302391
-0.005472963623853211,-0.007547190422955296
-0.005472623623853211,-0.006856005710111633
-0.005472283623853211,-0.005835685419720362
-0.005471943623853211,-0.007316795518672739
-0.005471603623853211,-0.007152227729902647
-0.005471263623853211,-0.00767884465397556
-0.005470923623853211,-0.00781049888499355
-0.005470583623853211,-0.007053487056638975
-0.005470243623853211,-0.01014736148556734
-0.005469903623853211,-0.01093728687167671
-0.005469563623853211,-0.01024610215883101
-0.005469223623853211,-0.009587831003739873
-0.005468883623853211,-0.01080563264065849
-0.005468543623853211,-0.008995386964157845
-0.005468203623853211,-0.009554917445985316
-0.005467863623853211,-0.008962473406403288
-0.005467523623853211,-0.00837002936682126
-0.005467183623853211,-0.008764992059875945
-0.005466843623853211,-0.01324123591449571
-0.005466503623853211,-0.01021318860106646
-0.005466163623853211,-0.004716624456065421
-0.005465823623853211,-0.006098993881756819
-0.005465483623853211,-0.005835685419726109
-0.005465143623853211,-0.008995386964157845
-0.005464803623853211,-0.01097020042943127
-0.005464463623853211,-0.008238375135803331
-0.005464123623853211,-0.008402942924575817
-0.005463783623853211,-0.009949880139040001
-0.005463443623853211,-0.01024610215882736
-0.005463103623853211,-0.008238375135803031
-0.005462763623853211,-0.007250968403166318
-0.005462423623853211,-0.007777585327237136
-0.005462083623853211,-0.006625610805829733
-0.005461743623853211,-0.007152227729902647
-0.005461403623853211,-0.008238375135801055
-0.005461063623853211,-0.007152227729902647
-0.005460723623853211,-0.00962074456149443
-0.00546038362385321,-0.01001570725454618
-0.005460043623853211,-0.008402942924575817
-0.005459703623853211,-0.007448449749693661
-0.00545936362385321,-0.00784341244274679
-0.005459023623853211,-0.006987659941129861
-0.005458683623853211,-0.006098993881756819
-0.00545834362385321,-0.007250968403163145
-0.005458003623853211,-0.005506549842174791
-0.005457663623853211,-0.006461043017056948
-0.005457323623853211,-0.006197734555020969
-0.005456983623853211,-0.006329388786038719
-0.005456643623853211,-0.007942153116012016
-0.005456303623853211,-0.01195760716206068
-0.005455963623853211,-0.005802771861965805
-0.005455623623853211,-0.00369630416567415
-0.005455283623853211,-0.0102131886010646
-0.005454943623853211,-0.01004862081230367
-0.005454603623853211,-0.006856005710111633
-0.005454263623853211,-0.007711758211728561
-0.005453923623853211,-0.009127041195176074
-0.005453583623853211,-0.006823092152357076
-0.005453243623853211,-0.004321661763015286
-0.005452903623853211,-0.005638204073193019
-0.005452563623853211,-0.004848278687083649
-0.005452223623853211,-0.004979932918101638
-0.005451883623853211,-0.006757265036847961
-0.005451543623853211,-0.007020573498884419
-0.005451203623853211,-0.008534597155591291
-0.005450863623853211,-0.009818225908021772
-0.005450523623853211,-0.009489090330476201
-0.005450183623853211,-0.00866625138661377
-0.005449843623853211,-0.008995386964157845
-0.005449503623853211,-0.007645931096221003
-0.005449163623853211,-0.006526870132568098
-0.005448823623853211,-0.008797905617630502
-0.005448483623853211,-0.007580103980711889
-0.005448143623853211,-0.007086400614393532
-0.005447803623853211,-0.007415536191939104
-0.005447463623853211,-0.00767884465397556
-0.005447123623853211,-0.006362302343793276
-0.005446783623853211,-0.006559783690320619
-0.005446443623853211,-0.007152227729902647
-0.005446103623853211,-0.005934426092984033
-0.005445763623853211,-0.01041066994759518
-0.005445423623853211,-0.005671117630947577
-0.005445083623853211,-0.006691437921338847
-0.005444743623853211,-0.005473636284423347
-0.005444403623853211,-0.007185141287657204
-0.005444063623853211,-0.0120234342775771
-0.005443723623853211,-0.008501683597839009
-0.005443383623853211,-0.008238375135803031
-0.005443043623853211,-0.008764992059875945
-0.005442703623853211,-0.004881192244843774
-0.005442363623853211,-0.007942153116012016
-0.005442023623853211,-0.01034484283209469
-0.005441683623853211,-0.0111347682182019
-0.005441343623853211,-0.009949880139040001
-0.005441003623853211,-0.009127041195176074
-0.005440663623853211,-0.007843412442749364
-0.005440323623853211,-0.008402942924575817
-0.005439983623853211,-0.007283881960920875
-0.00543964362385321,-0.004650797340559299
-0.005439303623853211,-0.006296475228284162
-0.005438963623853211,-0.005111587149120106
-0.00543862362385321,-0.004255834647500544
-0.005438283623853211,-0.003663390607919593
-0.005437943623853211,-0.004782451571574535
-0.00543760362385321,-0.004387488878521886
-0.005437263623853211,-0.005506549842174791
-0.005436923623853211,-0.006625610805829733
-0.005436583623853211,-0.00725096840316518
-0.005436243623853211,-0.007810498884993789
-0.005435903623853211,-0.009785312350267215
-0.005435563623853211,-0.01205634783532752
-0.005435223623853211,-0.01057523773637659
-0.005434883623853211,-0.005605290515438462
-0.005434543623853211,-0.004848278687085026
-0.005434203623853211,-0.003268427914864908
-0.005433863623853211,-0.006395215901547833
-0.005433523623853211,-0.008501683597835655
-0.005433183623853211,-0.005309068495647449
-0.005432843623853211,-0.007086400614393532
-0.005432503623853211,-0.007909239558255962
-0.005432163623853211,-0.008040893789275689
-0.005431823623853211,-0.007645931096221003
-0.005431483623853211,-0.007645931096221003
-0.005431143623853211,-0.007481363307448217
-0.005430803623853211,-0.00688891926786619
-0.005430463623853211,-0.00725096840316566
-0.005430123623853211,-0.006724351479093405
-0.005429783623853211,-0.009028300521912402
-0.005429443623853211,-0.009390349657211871
-0.005429103623853211,-0.008271288693557588
-0.005428763623853211,-0.009324522541703417
-0.005428423623853211,-0.008732078502122466
-0.005428083623853211,-0.008830819175385059
-0.005427743623853211,-0.007349709076429989
-0.005427403623853211,-0.007283881960920875
-0.005427063623853211,-0.005572376957683906
-0.005426723623853211,-0.005012846475856435
-0.005426383623853211,-0.005243241380138334
-0.005426043623853211,-0.003860871954446936
-0.005425703623853211,-0.004453315994028964
-0.005425363623853211,-0.007152227729902647
-0.005425023623853211,-0.01106894110269494
-0.005424683623853211,-0.003959612627710607
-0.005424343623853211,-0.005045760033610991
-0.005424003623853211,-0.004354575320764694
-0.005423663623853211,-0.004025439743219721
-0.005423323623853211,-0.008797905617630502
-0.005422983623853211,-0.01034484283208852
-0.005422643623853211,-0.006954746383375304
-0.005422303623853211,-0.009357436099457973
-0.005421963623853211,-0.01100311398718254
-0.005421623623853211,-0.009192868310685188
-0.005421283623853211,-0.009653658119248986
-0.005420943623853211,-0.009291608983948259
-0.005420603623853211,-0.008962473406403288
-0.005420263623853211,-0.008732078502121389
-0.005419923623853211,-0.009159954752929253
-0.005419583623853211,-0.008402942924575817
-0.005419243623853211,-0.0101802750433219
-0.00541890362385321,-0.01073980552514722
-0.005418563623853211,-0.009554917445985316
-0.005418223623853211,-0.01001570725454911
-0.00541788362385321,-0.01064106485188552
-0.005417543623853211,-0.01054232417862203
