Analysis/files/cmb03_d2s01/wrd05_ch13.csv

#Digilent WaveForms Oscilloscope Acquisition
#Device Name: ADP3450
#Serial Number: SN:210018B9D9B0
#Date Time: 2024-08-09 15:41:59.022.820.210
#Sample rate: 2.94118e+06Hz
#Samples: 32768
#Trigger: Source: Channel 3 Type: Edge Condition: Rising Level: 20 mV Hyst.: Auto HoldOff: 0 s
#Channel 3: Range: 200 mV/div Offset: 0 V Attenuation: 1 X Coupling: DC Bandwidth: 0 Hz Sample Mode: Average

Time (s),Channel 3 (V)
-0.005570408888888889,0.00176734642158233
-0.005570068888888889,0.0002862363226267207
-0.005569728888888889,-9.985697163754359e-06
-0.005569388888888889,-0.001754404258155281
-0.005569048888888889,-0.00188605848917351
-0.005568708888888889,-0.00188605848917351
-0.005568368888888889,-0.004552056667292635
-0.005568028888888889,-0.003762131281182906
-0.005567688888888889,-0.003564649934655922
-0.005567348888888889,-0.003432995703637694
-0.005567008888888889,-0.004058353300970267
-0.005566668888888889,-0.001853144931418952
-0.005566328888888889,-0.001820231373664395
-0.005565988888888889,-0.001754404258154143
-0.005565648888888889,-0.001129046660818696
-0.005565308888888889,-0.001359441565100596
-0.005564968888888889,-0.005243241380136358
-0.005564628888888889,-0.00415709397423795
-0.005564288888888889,-0.00119487377632781
-0.005563948888888889,-0.004453315994029861
-0.005563608888888889,-0.00494701936034732
-0.005563268888888889,-0.0115626444690133
-0.00556292888888889,-0.0151502222642535
-0.005562588888888889,-0.01255005120165001
-0.005562248888888889,-0.01389950706958685
-0.00556190888888889,-0.01482108668671278
-0.005561568888888889,-0.01505148159099635
-0.005561228888888889,-0.01287918677919558
-0.00556088888888889,-0.01357037149204002
-0.005560548888888889,-0.01238548341287723
-0.005560208888888889,-0.01031192927434013
-0.00555986888888889,-0.01156264446901102
-0.005559528888888889,-0.012253829181859
-0.005559188888888889,-0.01172721225778608
-0.005558848888888889,-0.01205634783533106
-0.005558508888888889,-0.01208926139308621
-0.005558168888888889,-0.01166138514227697
-0.005557828888888889,-0.01340580370326532
-0.005557488888888889,-0.01307666812572293
-0.005557148888888889,-0.01139807668024051
-0.005556808888888889,-0.01162847158452199
-0.005556468888888889,-0.01350454437653217
-0.005556128888888889,-0.0108714597561676
-0.005555788888888889,-0.009752398792514693
-0.005555448888888889,-0.01031192927434013
-0.005555108888888889,-0.009357436099457973
-0.005554768888888889,-0.01162847158451828
-0.005554428888888889,-0.01682881370974244
-0.005554088888888889,-0.01238548341287723
-0.005553748888888889,-0.01258296475940457
-0.005553408888888889,-0.01534770361078737
-0.005553068888888889,-0.01472234601345078
-0.005552728888888889,-0.02048221862049827
-0.005552388888888889,-0.02173293381517144
-0.005552048888888889,-0.01949481188786156
-0.005551708888888889,-0.0196922932343889
-0.005551368888888889,-0.01988977458091224
-0.005551028888888889,-0.01768456621136092
-0.005550688888888889,-0.01541353072629648
-0.005550348888888889,-0.01508439514874923
-0.005550008888888889,-0.01416281553162331
-0.005549668888888889,-0.01136516312248596
-0.005549328888888889,-0.01225382918186115
-0.005548988888888889,-0.01343871726102305
-0.005548648888888889,-0.01258296475940457
-0.005548308888888889,-0.01310958168348024
-0.005547968888888889,-0.01462360534018711
-0.005547628888888889,-0.01373493928081407
-0.005547288888888889,-0.01475525957120779
-0.005546948888888889,-0.01610471543914218
-0.005546608888888889,-0.01333997658775938
-0.005546268888888889,-0.01432738332039963
-0.005545928888888889,-0.01626928322791496
-0.005545588888888889,-0.01518313582201458
-0.005545248888888889,-0.01518313582201572
-0.005544908888888889,-0.01580849341935116
-0.005544568888888889,-0.01626928322791496
-0.005544228888888889,-0.01603888832364079
-0.005543888888888889,-0.02028473727397093
-0.005543548888888889,-0.01357037149204128
-0.005543208888888889,-0.01106894110269632
-0.005542868888888889,-0.01182595293104976
-0.005542528888888889,-0.01083854619841304
-0.00554218888888889,-0.0160718018813781
-0.005541848888888889,-0.01742125774932446
-0.005541508888888889,-0.01570975274608749
-0.00554116888888889,-0.01633511034342294
-0.005540828888888889,-0.01778330688462459
-0.005540488888888889,-0.01791496111564282
-0.00554014888888889,-0.0169604679407624
-0.005539808888888889,-0.01794787467339738
-0.005539468888888889,-0.01784913400013371
-0.00553912888888889,-0.01587432053486387
-0.005538788888888889,-0.01541353072629648
-0.005538448888888889,-0.01564392563057838
-0.005538108888888889,-0.0142615562048895
-0.005537768888888889,-0.01347163081877761
-0.005537428888888889,-0.01383367995407774
-0.005537088888888889,-0.01498565447548514
-0.005536748888888889,-0.0134058037032685
-0.005536408888888889,-0.01426155620488698
-0.005536068888888889,-0.01511730870650391
-0.005535728888888889,-0.01534770361078737
-0.005535388888888889,-0.01827701025094295
-0.005535048888888889,-0.01916567631031437
-0.005534708888888889,-0.01949481188786156
-0.005534368888888889,-0.02012016948519815
-0.005534028888888889,-0.01663133236322144
-0.005533688888888889,-0.02031765083172549
-0.005533348888888889,-0.02186458804618967
-0.005533008888888889,-0.01459069178243255
-0.005532668888888889,-0.01538061716854192
-0.005532328888888889,-0.01867197294399764
-0.005531988888888889,-0.01518313582201458
-0.005531648888888889,-0.01320832235674115
-0.005531308888888889,-0.01495274091773268
-0.005530968888888889,-0.01485400024446901
-0.005530628888888889,-0.01383367995407774
-0.005530288888888889,-0.01472234601345078
-0.005529948888888889,-0.01630219678566952
-0.005529608888888889,-0.01547935784180841
-0.005529268888888889,-0.01702629505626978
-0.005528928888888889,-0.01863905938624308
-0.005528588888888889,-0.01860614582848953
-0.005528248888888889,-0.01916567631031599
-0.005527908888888889,-0.01906693563705232
-0.005527568888888889,-0.01817826957767957
-0.005527228888888889,-0.01834283736645206
-0.005526888888888889,-0.01962646611887979
-0.005526548888888889,-0.01745417130707765
-0.005526208888888889,-0.01669715947872421
-0.005525868888888889,-0.01975812034989802
-0.005525528888888889,-0.0218645880461853
-0.005525188888888889,-0.01946189833010701
-0.005524848888888889,-0.01840866448196118
-0.005524508888888889,-0.0181782695776773
-0.005524168888888889,-0.01709212217177889
-0.005523828888888889,-0.01702629505626978
-0.005523488888888889,-0.01939607121459046
-0.005523148888888889,-0.01531479005303281
-0.005522808888888889,-0.01738834419156991
-0.005522468888888889,-0.02502428959064488
-0.005522128888888889,-0.03476670268597606
-0.005521788888888889,-0.05922147609761199
-0.005521448888888889,-0.08588145787885096
-0.005521108888888889,-0.1121135634091853
-0.005520768888888889,-0.1443030228931421
-0.00552042888888889,-0.1761304332417409
-0.005520088888888889,-0.2040082166599087
-0.005519748888888889,-0.2272122748768715
-0.00551940888888889,-0.2473553722226238
-0.005519068888888889,-0.2586776360902281
-0.005518728888888889,-0.2656223967764396
-0.00551838888888889,-0.2681567407235359
-0.005518048888888889,-0.2658857052384761
-0.005517708888888889,-0.2613107207105926
-0.00551736888888889,-0.2552875396415196
-0.005517028888888889,-0.2489023094371246
-0.005516688888888889,-0.2406739199984853
-0.005516348888888889,-0.2360660219128557
-0.005516008888888889,-0.2294174832464268
-0.005515668888888889,-0.2203662548639236
-0.005515328888888889,-0.2155279618740125
-0.005514988888888889,-0.2098997434979744
-0.005514648888888889,-0.2035474268513449
-0.005514308888888889,-0.1961089627988286
-0.005513968888888889,-0.1908427935580859
-0.005513628888888889,-0.1830751939280104
-0.005513288888888889,-0.1784672958423808
-0.005512948888888889,-0.1772494942054538
-0.005512608888888889,-0.1659930574533953
-0.005512268888888889,-0.1579292358035288
-0.005511928888888889,-0.1538479546419637
-0.005511588888888889,-0.1504249446354897
-0.005511248888888889,-0.146837366840243
-0.005510908888888889,-0.1390039400946584
-0.005510568888888889,-0.1329478454678199
-0.005510228888888889,-0.129524835461346
-0.005509888888888889,-0.12550938141529
-0.005509548888888889,-0.1221521985243252
-0.005509208888888889,-0.1155365734156592
-0.005508868888888889,-0.1087892940759803
-0.005508528888888889,-0.111685687158376
-0.005508188888888889,-0.1068144806107016
-0.005507848888888889,-0.1004950775218239
-0.005507508888888889,-0.09901396742287152
-0.005507168888888889,-0.09463646424151545
-0.005506828888888889,-0.09305661346929286
-0.005506488888888889,-0.09095014577300503
-0.005506148888888889,-0.08114190556214704
-0.005505808888888889,-0.08094442421562741
-0.005505468888888889,-0.08519027316595754
-0.005505128888888889,-0.08045072084930133
-0.005504788888888889,-0.07607321766794642
-0.005504448888888889,-0.07673148882303638
-0.005504108888888889,-0.07528329228183586
-0.005503768888888889,-0.07225524496841473
-0.005503428888888889,-0.07123492467802534
-0.005503088888888889,-0.06807522313358785
-0.005502748888888889,-0.06610040966831156
-0.005502408888888889,-0.06452055889609568
-0.005502068888888889,-0.06267739966184049
-0.005501728888888889,-0.06136085735165533
-0.005501388888888889,-0.05978100657943946
-0.005501048888888889,-0.05843155071150262
-0.005500708888888889,-0.05546933051359038
-0.005500368888888889,-0.05431735599218298
-0.005500028888888889,-0.0518488391605912
-0.00549968888888889,-0.04918284098247692
-0.005499348888888889,-0.04668141059312574
-0.005499008888888889,-0.04457494289683408
-0.00549866888888889,-0.0419747718342288
-0.005498328888888889,-0.04095445154383279
-0.005497988888888889,-0.04078988375506001
-0.00549764888888889,-0.03953916856038912
-0.005497308888888889,-0.04108610577485102
-0.005496968888888889,-0.04546360895620712
-0.00549662888888889,-0.04167854981443993
-0.005496288888888889,-0.03591867720738556
-0.005495948888888889,-0.03624781278493113
-0.005495608888888889,-0.03315393835600839
-0.005495268888888889,-0.03568828230310366
-0.005494928888888889,-0.03825553980795911
-0.005494588888888889,-0.03522749249454537
-0.005494248888888889,-0.03351598749130289
-0.005493908888888889,-0.03595159076514012
-0.005493568888888889,-0.03430591287741525
-0.005493228888888889,-0.03285771633621175
-0.005492888888888889,-0.03256149431642073
-0.005492548888888889,-0.03368055528007364
-0.005492208888888889,-0.03187030960357504
-0.005491868888888889,-0.03206779095010238
-0.005491528888888889,-0.03242984008540185
-0.005491188888888889,-0.03058668085114731
-0.005490848888888889,-0.03206779095010238
-0.005490508888888889,-0.03108038421746566
-0.005490168888888889,-0.03117912489072934
-0.005489828888888889,-0.02874352161689211
-0.005489488888888889,-0.02867769450138299
-0.005489148888888889,-0.02166710669966233
-0.005488808888888889,-0.02769028776874628
-0.005488468888888889,-0.02742697930670982
-0.005488128888888889,-0.02568256074572051
-0.005487788888888889,-0.02690036238263691
-0.005487448888888889,-0.02716367084467337
-0.005487108888888889,-0.026373745458564
-0.005486768888888889,-0.026373745458564
-0.005486428888888889,-0.03048794017788364
-0.005486088888888889,-0.02558382007244744
-0.005485748888888889,-0.02163419314190777
-0.005485408888888889,-0.02239120497026259
-0.005485068888888889,-0.01893528140604038
-0.005484728888888889,-0.02239120497026259
-0.005484388888888889,-0.02341152526065386
-0.005484048888888889,-0.02051513217825074
-0.005483708888888889,-0.01936315765684333
-0.005483368888888889,-0.02189750160394423
-0.005483028888888889,-0.02146962535313439
-0.005482688888888889,-0.02114048977558942
-0.005482348888888889,-0.02163419314190777
-0.005482008888888889,-0.02048221862049756
-0.005481668888888889,-0.02008725592744359
-0.005481328888888889,-0.0206138728515165
-0.005480988888888889,-0.02242411852801283
-0.005480648888888889,-0.02005434236968903
-0.005480308888888889,-0.01867197294399764
-0.005479968888888889,-0.02005434236969101
-0.005479628888888889,-0.02114048977558942
-0.005479288888888889,-0.0206138728515165
-0.00547894888888889,-0.01992268813867206
-0.005478608888888889,-0.01965937967663435
-0.005478268888888889,-0.02087718131355296
-0.00547792888888889,-0.0215683660263974
-0.005477588888888889,-0.02008725592744359
-0.005477248888888889,-0.01906693563705232
-0.00547690888888889,-0.02100883554456766
-0.005476568888888889,-0.02028473727397093
-0.005476228888888889,-0.0213050575643622
-0.00547588888888889,-0.02446475910879393
-0.005475548888888889,-0.01742125774932446
-0.005475208888888889,-0.01600597476587851
-0.005474868888888889,-0.01633511034342348
-0.005474528888888889,-0.01728960351830624
-0.005474188888888889,-0.02005434236968903
-0.005473848888888889,-0.01913276275256311
-0.005473508888888889,-0.01811244246217016
-0.005473168888888889,-0.01715794928728801
-0.005472828888888889,-0.01768456621135996
-0.005472488888888889,-0.01719086284504256
-0.005472148888888889,-0.01653259168995142
-0.005471808888888889,-0.01725668996055036
-0.005471468888888889,-0.01758582553809725
-0.005471128888888889,-0.01544644428405104
-0.005470788888888889,-0.01505148159099707
-0.005470448888888889,-0.01702629505626978
-0.005470108888888889,-0.01577557986159661
-0.005469768888888889,-0.01567683918833294
-0.005469428888888889,-0.01613762899689674
-0.005469088888888889,-0.01712503572953345
-0.005468748888888889,-0.01811244246217016
-0.005468408888888889,-0.01765165265360636
-0.005468068888888889,-0.01778330688462459
-0.005467728888888889,-0.01633511034342408
-0.005467388888888889,-0.01817826957767928
-0.005467048888888889,-0.01732251707606079
-0.005466708888888889,-0.01643385101668775
-0.005466368888888889,-0.01673007303647901
-0.005466028888888889,-0.01686172726749699
-0.005465688888888889,-0.01972520679214346
-0.005465348888888889,-0.01913276275255048
-0.005465008888888889,-0.01310958168347748
-0.005464668888888889,-0.012253829181859
-0.005464328888888889,-0.01222091562411103
-0.005463988888888889,-0.01584140697710572
-0.005463648888888889,-0.01722377640279712
-0.005463308888888889,-0.01633511034342629
-0.005462968888888889,-0.01755291198034269
-0.005462628888888889,-0.01863905938624308
-0.005462288888888889,-0.01854031871298066
-0.005461948888888889,-0.0192315034258251
-0.005461608888888889,-0.01883654073277042
-0.005461268888888889,-0.01728960351830647
-0.005460928888888889,-0.01742125774932446
-0.005460588888888889,-0.01709212217177889
-0.005460248888888889,-0.01732251707606271
-0.005459908888888889,-0.01837575092420662
-0.005459568888888889,-0.01979103390765257
-0.005459228888888889,-0.01972520679214496
-0.005458888888888889,-0.02054804573600739
-0.005458548888888889,-0.02018599660070726
-0.005458208888888889,-0.01982394746540708
-0.005457868888888889,-0.01979103390765257
-0.005457528888888889,-0.02008725592744359
-0.00545718888888889,-0.01926441698358116
-0.005456848888888889,-0.02048221862049827
-0.005456508888888889,-0.01942898477235245
-0.00545616888888889,-0.01860614582849001
-0.005455828888888889,-0.01906693563705232
-0.005455488888888889,-0.01893528140603409
-0.00545514888888889,-0.0224241185280108
-0.005454808888888889,-0.01909984919480688
-0.005454468888888889,-0.01623636967016041
-0.00545412888888889,-0.01498565447548951
-0.005453788888888889,-0.01393242062734141
-0.005453448888888889,-0.01926441698357966
-0.005453108888888889,-0.01903402207929818
-0.005452768888888889,-0.01633511034342408
-0.005452428888888889,-0.01699338149851522
-0.005452088888888889,-0.01570975274608983
-0.005451748888888889,-0.01462360534018711
-0.005451408888888889,-0.01531479005303281
-0.005451068888888889,-0.01653259168994921
-0.005450728888888889,-0.01564392563057838
-0.005450388888888889,-0.01709212217177889
-0.005450048888888889,-0.01863905938624026
-0.005449708888888889,-0.01814535601992472
-0.005449368888888889,-0.01821118313543383
-0.005449028888888889,-0.0174870848648349
-0.005448688888888889,-0.01649967813219686
-0.005448348888888889,-0.01495274091773268
-0.005448008888888889,-0.01705920861402434
-0.005447668888888889,-0.01475525957120534
-0.005447328888888889,-0.01607180188138762
-0.005446988888888889,-0.01531479005303281
-0.005446648888888889,-0.01426155620488698
-0.005446308888888889,-0.01570975274608749
-0.005445968888888889,-0.01738834419156991
-0.005445628888888889,-0.01751999842258784
-0.005445288888888889,-0.01735543063381535
-0.005444948888888889,-0.01903402207929776
-0.005444608888888889,-0.01738834419156949
-0.005444268888888889,-0.01715794928728801
-0.005443928888888889,-0.01745417130707902
-0.005443588888888889,-0.01485400024446865
-0.005443248888888889,-0.01465651889794167
-0.005442908888888889,-0.01965937967663435
-0.005442568888888889,-0.01643385101668278
-0.005442228888888889,-0.01370202572305951
-0.005441888888888889,-0.01472234601345078
-0.005441548888888889,-0.01541353072629612
-0.005441208888888889,-0.01521604937976914
-0.005440868888888889,-0.01742125774932446
-0.005440528888888889,-0.01926441698357996
-0.005440188888888889,-0.01942898477235245
-0.005439848888888889,-0.01890236784827953
-0.005439508888888889,-0.01979103390764838
-0.005439168888888889,-0.01748708486483358
-0.005438828888888889,-0.01725668996055168
-0.005438488888888889,-0.01669715947872295
-0.005438148888888889,-0.01600597476587851
-0.005437808888888889,-0.01574266630384205
-0.005437468888888889,-0.01590723409261424
-0.005437128888888889,-0.01557809851506927
-0.005436788888888889,-0.01633511034342408
-0.00543644888888889,-0.01873780005950238
-0.005436108888888889,-0.01748708486483358
-0.005435768888888889,-0.01623636967016041
-0.00543542888888889,-0.01594014765036993
-0.005435088888888889,-0.01613762899689674
-0.005434748888888889,-0.0150185680332418
-0.00543440888888889,-0.01663133236321216
-0.005434068888888889,-0.01959355256112523
-0.005433728888888889,-0.01231965629736811
-0.00543338888888889,-0.01403116130060197
-0.005433048888888889,-0.01192469360431343
-0.005432708888888889,-0.0115626444690133
-0.005432368888888889,-0.01709212217176884
-0.005432028888888889,-0.01847449159747029
-0.005431688888888889,-0.0152489629375237
-0.005431348888888889,-0.01594014765036814
-0.005431008888888889,-0.01775039332687003
-0.005430668888888889,-0.01636802390117864
-0.005430328888888889,-0.01603888832363367
-0.005429988888888889,-0.01485400024446901
-0.005429648888888889,-0.01445903755141432
-0.005429308888888889,-0.01429446976264184
-0.005428968888888889,-0.01498565447548724
-0.005428628888888889,-0.01521604937976914
-0.005428288888888889,-0.01508439514875115
-0.005427948888888889,-0.01607180188138762
-0.005427608888888889,-0.01597306120812395
-0.005427268888888889,-0.01699338149851522
-0.005426928888888889,-0.01804661534666105
-0.005426588888888889,-0.01742125774932446
-0.005426248888888889,-0.01636802390117864
-0.005425908888888889,-0.01886945429052498
-0.005425568888888889,-0.01867197294399764
-0.005425228888888889,-0.01755291198034269
-0.005424888888888889,-0.01814535601992472
-0.005424548888888889,-0.01778330688462459
-0.005424208888888889,-0.01705920861402434
-0.005423868888888889,-0.01742125774932494
-0.005423528888888889,-0.01768456621136092
-0.005423188888888889,-0.009949880139040001
-0.005422848888888889,-0.01136516312248302
-0.005422508888888889,-0.009752398792512659
-0.005422168888888889,-0.01090437331392216
-0.005421828888888889,-0.01587432053485854
-0.005421488888888889,-0.01491982735997812
-0.005421148888888889,-0.01231965629736811
-0.005420808888888889,-0.01366911216530681
-0.005420468888888889,-0.01468943245569622
-0.005420128888888889,-0.01403116130060508
-0.005419788888888889,-0.01603888832363414
-0.005419448888888889,-0.01663133236321509
-0.005419108888888889,-0.01646676457444231
-0.005418768888888889,-0.01557809851507196
-0.005418428888888889,-0.01705920861402434
-0.005418088888888889,-0.01607180188138762
-0.005417748888888889,-0.01432738332039669
-0.005417408888888889,-0.01465651889794167
-0.005417068888888889,-0.01521604937976914
-0.005416728888888889,-0.01547935784180398
-0.005416388888888889,-0.01459069178243255
-0.005416048888888889,-0.01570975274608749
-0.005415708888888889,-0.01590723409261705
-0.005415368888888889,-0.01712503572953345
