Analysis/files/cmb03_d2s01/wrd04_ch02.csv

#Digilent WaveForms Oscilloscope Acquisition
#Device Name: ADP3450
#Serial Number: SN:210018B9D9B0
#Date Time: 2024-08-09 15:06:45.545.618.980
#Sample rate: 2.94118e+06Hz
#Samples: 32768
#Trigger: Source: Channel 3 Type: Edge Condition: Rising Level: 20 mV Hyst.: Auto HoldOff: 0 s
#Channel 3: Range: 200 mV/div Offset: 0 V Attenuation: 1 X Coupling: DC Bandwidth: 0 Hz Sample Mode: Average

Time (s),Channel 3 (V)
-0.005570539957894738,0.002293963345655243
-0.005570199957894737,0.002392704018917837
-0.005569859957894737,0.001800259979336887
-0.005569519957894738,-0.0006682568522548965
-0.005569179957894737,-0.002774724548543498
-0.005568839957894737,-0.001096133103064139
-0.005568499957894738,-0.001622750027137053
-0.005568159957894737,-0.001721490700399107
-0.005567819957894737,-0.000832824641027682
-0.005567479957894738,-0.0009644788720459105
-0.005567139957894737,-7.581281267011458e-05
-0.005566799957894737,0.001438210844036758
-0.005566459957894738,0.0006811990156819448
-0.005566119957894737,-0.0008328246410285202
-0.005565779957894737,-0.001293614449591481
-0.005565439957894738,-0.005605290515438462
-0.005565099957894737,-0.005309068495643018
-0.005564759957894737,-0.002873465221810222
-0.005564419957894738,-0.003268427914864908
-0.005564079957894737,-0.003465909261398717
-0.005563739957894737,-0.007020573498884419
-0.005563399957894738,-0.00665852436358429
-0.005563059957894738,-0.005177414264631914
-0.005562719957894737,-0.003992526185465165
-0.005562379957894738,-0.003202600799355794
-0.005562039957894738,-0.004288748205254203
-0.005561699957894737,-0.002741810990791994
-0.005561359957894738,-0.001524009353873381
-0.005561019957894738,-0.002412675413244807
-0.005560679957894737,-0.003893785512201493
-0.005560339957894738,-0.002544329644264652
-0.005559999957894738,-0.005177414264624431
-0.005559659957894737,-0.007415536191939104
-0.005559319957894738,-0.006856005710111633
-0.005558979957894738,-0.008501683597836493
-0.005558639957894737,-0.0111018546604495
-0.005558299957894738,-0.01047649706311291
-0.005557959957894738,-0.01004862081230445
-0.005557619957894737,-0.01116768177595861
-0.005557279957894738,-0.01011444792781279
-0.005556939957894738,-0.008238375135806443
-0.005556599957894737,-0.008106720904784802
-0.005556259957894738,-0.006493956574811504
-0.005555919957894738,-0.007119314172146953
-0.005555579957894737,-0.009094127637421515
-0.005555239957894737,-0.01004862081230367
-0.005554899957894738,-0.01231965629736398
-0.005554559957894737,-0.008205461578048474
-0.005554219957894737,-0.007316795518675433
-0.005553879957894738,-0.008929559848648731
-0.005553539957894737,-0.008040893789275689
-0.005553199957894737,-0.01281335966368647
-0.005552859957894738,-0.01241839697063178
-0.005552519957894737,-0.01047649706311291
-0.005552179957894737,-0.009752398792512659
-0.005551839957894738,-0.008567510713348603
-0.005551499957894737,-0.0097194852347587
-0.005551159957894737,-0.01004862081230367
-0.005550819957894738,-0.009522003888230759
-0.005550479957894737,-0.009752398792514156
-0.005550139957894737,-0.01057523773637659
-0.005549799957894738,-0.009258695426194301
-0.005549459957894737,-0.00958783100374149
-0.005549119957894737,-0.01047649706311291
-0.005548779957894738,-0.009159954752930631
-0.005548439957894737,-0.01008153437006038
-0.005548099957894737,-0.01126642244922228
-0.005547759957894738,-0.01195760716206798
-0.005547419957894737,-0.01037775638985134
-0.005547079957894737,-0.01152973091125874
-0.005546739957894738,-0.0104106699476038
-0.005546399957894737,-0.01014736148556752
-0.005546059957894737,-0.01024610215883101
-0.005545719957894738,-0.009949880139040001
-0.005545379957894737,-0.008732078502123904
-0.005545039957894737,-0.01011444792781279
-0.005544699957894738,-0.01231965629736811
-0.005544359957894737,-0.01488691380221405
-0.005544019957894737,-0.009653658119248986
-0.005543679957894738,-0.01001570725454911
-0.005543339957894737,-0.008732078502122766
-0.005542999957894737,-0.009489090330476201
-0.005542659957894738,-0.0152489629375237
-0.005542319957894738,-0.01340580370327185
-0.005541979957894737,-0.01166138514227697
-0.005541639957894738,-0.01330706303000483
-0.005541299957894738,-0.01212217495084292
-0.005540959957894737,-0.01172721225778608
-0.005540619957894738,-0.01281335966368647
-0.005540279957894738,-0.01159555802677007
-0.005539939957894737,-0.009554917445985316
-0.005539599957894738,-0.01011444792781279
-0.005539259957894738,-0.01024610215883077
-0.005538919957894737,-0.01100311398718583
-0.005538579957894738,-0.01162847158452241
-0.005538239957894738,-0.009686571677007075
-0.005537899957894737,-0.009028300521912402
-0.005537559957894738,-0.009159954752930631
-0.005537219957894738,-0.009587831003739094
-0.005536879957894737,-0.008040893789275689
-0.005536539957894738,-0.008337115809066702
-0.005536199957894738,-0.008402942924575697
-0.005535859957894737,-0.009225781868439744
-0.005535519957894738,-0.003334255030374022
-0.005535179957894738,-0.0107398055251359
-0.005534839957894737,-0.0113322495647314
-0.005534499957894738,-0.01212217495084077
-0.005534159957894738,-0.01758582553808731
-0.005533819957894737,-0.0138665935118323
-0.005533479957894737,-0.0101802750433219
-0.005533139957894738,-0.01047649706311291
-0.005532799957894737,-0.008830819175385059
-0.005532459957894737,-0.01235256985512267
-0.005532119957894738,-0.01426155620488698
-0.005531779957894737,-0.0111018546604495
-0.005531439957894737,-0.01057523773637659
-0.005531099957894738,-0.01350454437653217
-0.005530759957894737,-0.01228674273961356
-0.005530419957894737,-0.01152973091125874
-0.005530079957894738,-0.0127146189904228
-0.005529739957894737,-0.01294501389470218
-0.005529399957894737,-0.0115626444690133
-0.005529059957894738,-0.01333997658775938
-0.005528719957894737,-0.01442612399365486
-0.005528379957894737,-0.01172721225778608
-0.005528039957894738,-0.01123350889146773
-0.005527699957894737,-0.01149681735350454
-0.005527359957894737,-0.01169429870003153
-0.005527019957894738,-0.01172721225778608
-0.005526679957894737,-0.01195760716206589
-0.005526339957894737,-0.01080563264065849
-0.005525999957894738,-0.01152973091125874
-0.005525659957894737,-0.01399824774284681
-0.005525319957894737,-0.01195760716206798
-0.005524979957894738,-0.01182595293104976
-0.005524639957894737,-0.01261587831715931
-0.005524299957894737,-0.0127146189904228
-0.005523959957894738,-0.01169429870003153
-0.005523619957894737,-0.01567683918832617
-0.005523279957894737,-0.01195760716206798
-0.005522939957894738,-0.007218054845411761
-0.005522599957894737,-0.01844157803973417
-0.005522259957894737,-0.02857895382811932
-0.005521919957894738,-0.04036200750425076
-0.005521579957894737,-0.06271031321964768
-0.005521239957894737,-0.09164133048585074
-0.005520899957894738,-0.1202432121745609
-0.005520559957894738,-0.1530909428135491
-0.005520219957894737,-0.1837663786408561
-0.005519879957894738,-0.211347940039175
-0.005519539957894738,-0.2344203440250775
-0.005519199957894737,-0.251403739826471
-0.005518859957894738,-0.2593688208030738
-0.005518519957894738,-0.2646679036015478
-0.005518179957894737,-0.2656223967764396
-0.005517839957894738,-0.2607511902287651
-0.005517499957894738,-0.2555508481035546
-0.005517159957894737,-0.249988456843025
-0.005516819957894738,-0.2431095232723225
-0.005516479957894738,-0.23738256422304
-0.005516139957894737,-0.2305365442100817
-0.005515799957894738,-0.2229005988110245
-0.005515459957894738,-0.216712849953179
-0.005515119957894737,-0.2120720383097752
-0.005514779957894738,-0.2049627098347909
-0.005514439957894738,-0.1953190374127232
-0.005514099957894737,-0.1893945970168854
-0.005513759957894738,-0.1836018108520833
-0.005513419957894738,-0.1781052467070822
-0.005513079957894737,-0.1715554487139154
-0.005512739957894737,-0.1628991830244669
-0.005512399957894738,-0.1578963222457742
-0.005512059957894737,-0.1502932904044715
-0.005511719957894737,-0.1484172176124618
-0.005511379957894738,-0.1432827026027509
-0.005511039957894737,-0.1365683368208212
-0.005510699957894737,-0.1310388591180556
-0.005510359957894738,-0.1266613559366995
-0.005510019957894737,-0.1229750374681891
-0.005509679957894737,-0.1199469901547699
-0.005509339957894738,-0.1158986225509593
-0.005508999957894737,-0.1128047481220269
-0.005508659957894737,-0.1105995397524756
-0.005508319957894738,-0.1048396671454281
-0.005507979957894737,-0.1012850029079316
-0.005507639957894737,-0.09888231319185331
-0.005507299957894738,-0.0938136252976515
-0.005506959957894737,-0.08937029500078181
-0.005506619957894737,-0.0869017781691945
-0.005506279957894738,-0.08495987826167564
-0.005505939957894737,-0.08107607844663683
-0.005505599957894737,-0.08048363440705589
-0.005505259957894738,-0.07762015488240942
-0.005504919957894737,-0.07416423131818009
-0.005504579957894737,-0.07370344150961711
-0.005504239957894738,-0.07110327044700709
-0.005503899957894737,-0.06777900111379438
-0.005503559957894737,-0.06642954524586001
-0.005503219957894738,-0.06784482822930596
-0.005502879957894737,-0.06968798746354407
-0.005502539957894737,-0.06030762350351238
-0.005502199957894738,-0.05816824224946616
-0.005501859957894737,-0.05431735599218124
-0.005501519957894737,-0.05336286281730083
-0.005501179957894738,-0.05540350339808336
-0.005500839957894737,-0.05188175271833839
-0.005500499957894737,-0.04783338511453523
-0.005500159957894738,-0.04822834780758992
-0.005499819957894738,-0.04569400386049362
-0.005499479957894737,-0.04345588193317913
-0.005499139957894738,-0.04269887010482432
-0.005498799957894738,-0.04098736510159047
-0.005498459957894737,-0.03825553980795911
-0.005498119957894738,-0.03891381096305026
-0.005497779957894738,-0.03647820768921746
-0.005497439957894737,-0.03572119586085822
-0.005497099957894738,-0.03572119586085822
-0.005496759957894738,-0.03499709759025928
-0.005496419957894737,-0.03371346883783023
-0.005496079957894738,-0.03463504845495783
-0.005495739957894738,-0.03345016037579594
-0.005495399957894737,-0.03157408758378402
-0.005495059957894738,-0.03114621133297478
-0.005494719957894738,-0.03154117402602874
-0.005494379957894737,-0.02903974363668312
-0.005494039957894738,-0.02880934873240122
-0.005493699957894738,-0.03045502662012609
-0.005493359957894737,-0.03002715036931984
-0.005493019957894738,-0.02828273180832831
-0.005492679957894738,-0.03246275364314945
-0.005492339957894737,-0.03061959440890186
-0.005491999957894738,-0.01751999842258814
-0.005491659957894738,-0.0226874269900442
-0.005491319957894737,-0.02166710669966233
-0.005490979957894737,-0.02265451343229904
-0.005490639957894738,-0.02650539968958223
-0.005490299957894737,-0.02374066083819943
-0.005489959957894737,-0.0213050575643622
-0.005489619957894738,-0.02462932689757247
-0.005489279957894737,-0.02311530324086284
-0.005488939957894737,-0.02127214400660764
-0.005488599957894738,-0.0219962422772079
-0.005488259957894737,-0.02225955073924232
-0.005487919957894737,-0.02114048977558942
-0.005487579957894738,-0.02143671179538043
-0.005487239957894737,-0.02199624227720353
-0.005486899957894737,-0.01959355256112523
-0.005486559957894738,-0.02146962535313499
-0.005486219957894737,-0.01962646611887602
-0.005485879957894737,-0.01755291198034269
-0.005485539957894738,-0.01784913400013371
-0.005485199957894737,-0.02038347794723275
-0.005484859957894737,-0.01936315765684333
-0.005484519957894738,-0.01807952890441561
-0.005484179957894737,-0.02048221862049935
-0.005483839957894737,-0.0210746626600803
-0.005483499957894738,-0.02064678640927106
-0.005483159957894737,-0.01995560169642147
-0.005482819957894737,-0.01781622044237915
-0.005482479957894738,-0.01824409669318839
-0.005482139957894737,-0.02308238968309464
-0.005481799957894737,-0.01557809851506927
-0.005481459957894738,-0.01231965629736811
-0.005481119957894737,-0.01268170543266962
-0.005480779957894737,-0.01343871726102305
-0.005480439957894738,-0.01801370178890649
-0.005480099957894737,-0.01755291198034018
-0.005479759957894737,-0.01617054255465129
-0.005479419957894738,-0.01630219678566952
-0.005479079957894738,-0.01768456621135841
-0.005478739957894737,-0.01643385101668775
-0.005478399957894738,-0.0140969884161142
-0.005478059957894738,-0.01436029687815017
-0.005477719957894737,-0.01570975274608749
-0.005477379957894738,-0.01416281553162331
-0.005477039957894738,-0.01373493928081485
-0.005476699957894737,-0.01445903755141432
-0.005476359957894738,-0.0129450138947047
-0.005476019957894738,-0.01314249524123168
-0.005475679957894737,-0.0124842240861409
-0.005475339957894738,-0.01103602754494038
-0.005474999957894738,-0.009982793696796473
-0.005474659957894737,-0.01304375456796837
-0.005474319957894738,-0.01231965629736811
-0.005473979957894738,-0.01110185466045172
-0.005473639957894737,-0.01396533418509597
-0.005473299957894738,-0.01337289014551394
-0.005472959957894738,-0.01317540879898696
-0.005472619957894737,-0.01419572908937787
-0.005472279957894738,-0.01488691380222357
-0.005471939957894738,-0.01459069178243309
-0.005471599957894737,-0.01877071361726131
-0.005471259957894738,-0.01215508850859533
-0.005470919957894738,-0.01001570725455301
-0.005470579957894737,-0.0104106699476038
-0.005470239957894737,-0.01215508850859533
-0.005469899957894738,-0.01452486466692344
-0.005469559957894737,-0.01264879187491368
-0.005469219957894737,-0.01060815129413114
-0.005468879957894738,-0.01077271908290393
-0.005468539957894737,-0.01176012581554064
-0.005468199957894737,-0.01044358350535836
-0.005467859957894738,-0.008501683597839487
-0.005467519957894737,-0.008863732733139616
-0.005467179957894737,-0.008896646290894173
-0.005466839957894738,-0.007481363307448217
-0.005466499957894737,-0.007547190422961583
-0.005466159957894737,-0.009884053023530886
-0.005465819957894738,-0.01027901571658557
-0.005465479957894737,-0.01176012581554369
-0.005465139957894737,-0.01343871726102305
-0.005464799957894738,-0.01357037149204128
-0.005464459957894737,-0.0115297309112621
-0.005464119957894737,-0.01337289014551394
-0.005463779957894738,-0.01307666812572293
-0.005463439957894737,-0.01129933600697738
-0.005463099957894737,-0.01159555802676786
-0.005462759957894738,-0.01241839697063178
-0.005462419957894737,-0.0117272122577865
-0.005462079957894737,-0.01195760716206798
-0.005461739957894738,-0.01195760716206798
-0.005461399957894737,-0.01324123591450038
-0.005461059957894737,-0.01580849341935116
-0.005460719957894738,-0.009554917445985316
-0.005460379957894737,-0.008600424271101782
-0.005460039957894737,-0.007843412442748346
-0.005459699957894738,-0.01215508850859533
-0.005459359957894737,-0.01419572908937523
-0.005459019957894737,-0.01274753254817735
-0.005458679957894738,-0.01241839697063178
-0.005458339957894737,-0.01310958168347605
-0.005457999957894737,-0.01231965629736811
-0.005457659957894738,-0.01222091562410444
-0.005457319957894738,-0.01152973091126
-0.005456979957894737,-0.01008153437005823
-0.005456639957894738,-0.01162847158452241
-0.005456299957894738,-0.009785312350270569
-0.005455959957894737,-0.01126642244922228
-0.005455619957894738,-0.01376785283856862
-0.005455279957894738,-0.01445903755141307
-0.005454939957894737,-0.01281335966368647
-0.005454599957894738,-0.01231965629736811
-0.005454259957894738,-0.01294501389470356
-0.005453919957894737,-0.0113322495647314
-0.005453579957894738,-0.01172721225778608
-0.005453239957894738,-0.01248422408613952
-0.005452899957894737,-0.01149681735350419
-0.005452559957894738,-0.01297792745245925
-0.005452219957894738,-0.01327414947224973
-0.005451879957894737,-0.0150185680332418
-0.005451539957894738,-0.01192469360431343
-0.005451199957894738,-0.01426155620488273
-0.005450859957894737,-0.01603888832363307
-0.005450519957894738,-0.009851139465776329
-0.005450179957894738,-0.007613017538470518
-0.005449839957894737,-0.005901512535229476
-0.005449499957894737,-0.004584970225047193
-0.005449159957894738,-0.01103602754492865
-0.005448819957894737,-0.0111018546604495
-0.005448479957894737,-0.003663390607919593
-0.005448139957894738,-0.00688891926786619
-0.005447799957894737,-0.01067397840964026
-0.005447459957894737,-0.009884053023530886
-0.005447119957894738,-0.01106894110269494
-0.005446779957894737,-0.01166138514227697
-0.005446439957894737,-0.0124842240861409
-0.005446099957894738,-0.01429446976264154
-0.005445759957894737,-0.01353745793428457
-0.005445419957894737,-0.01235256985512267
-0.005445079957894738,-0.01274753254817735
-0.005444739957894737,-0.01166138514227487
-0.005444399957894737,-0.01050941062086747
-0.005444059957894738,-0.009982793696794558
-0.005443719957894737,-0.01156264446901192
-0.005443379957894737,-0.01080563264065849
-0.005443039957894738,-0.01106894110269494
-0.005442699957894737,-0.01241839697062993
-0.005442359957894737,-0.01139807668024051
-0.005442019957894738,-0.01199052071982254
-0.005441679957894737,-0.01389950706958416
-0.005441339957894737,-0.01241839697063178
-0.005440999957894738,-0.01001570725454911
-0.005440659957894737,-0.01231965629737793
-0.005440319957894737,-0.01771747976911548
-0.005439979957894738,-0.01222091562410444
-0.005439639957894737,-0.0106410648518851
-0.005439299957894737,-0.01031192927434013
-0.005438959957894738,-0.009653658119248986
-0.005438619957894737,-0.01271461899042729
-0.005438279957894737,-0.01518313582201458
-0.005437939957894738,-0.009159954752930631
-0.005437599957894737,-0.009752398792515712
-0.005437259957894737,-0.01143099023799507
-0.005436919957894738,-0.01097020042943127
-0.005436579957894738,-0.01176012581553921
-0.005436239957894737,-0.01215508850859533
-0.005435899957894738,-0.012253829181859
-0.005435559957894738,-0.01202343427757752
-0.005435219957894737,-0.01301084101021381
-0.005434879957894738,-0.01215508850859533
-0.005434539957894738,-0.01235256985512231
-0.005434199957894737,-0.0127146189904228
-0.005433859957894738,-0.01228674273961356
-0.005433519957894738,-0.01205634783533207
-0.005433179957894737,-0.01241839697063178
-0.005432839957894738,-0.01231965629736811
-0.005432499957894738,-0.01238548341287711
-0.005432159957894737,-0.01347163081877761
-0.005431819957894738,-0.01258296475940457
-0.005431479957894738,-0.01255005120165007
-0.005431139957894737,-0.01245131052838634
-0.005430799957894738,-0.01258296475940457
-0.005430459957894738,-0.01090437331392521
-0.005430119957894737,-0.01399824774285052
-0.005429779957894738,-0.01669715947872421
-0.005429439957894738,-0.00748136330746498
-0.005429099957894737,-0.005572376957683906
-0.005428759957894738,-0.004321661763010735
-0.005428419957894738,-0.00725096840316099
-0.005428079957894737,-0.01090437331392216
-0.005427739957894737,-0.01057523773637659
-0.005427399957894738,-0.009456176772721644
-0.005427059957894737,-0.01195760716206798
-0.005426719957894737,-0.01449195110916888
-0.005426379957894738,-0.0129450138947047
-0.005426039957894737,-0.01261587831715913
-0.005425699957894737,-0.01251713764389546
-0.005425359957894738,-0.01215508850859533
-0.005425019957894737,-0.01116768177595861
-0.005424679957894737,-0.01215508850859533
-0.005424339957894738,-0.0101802750433219
-0.005423999957894737,-0.00886373273314243
-0.005423659957894737,-0.0104106699476038
-0.005423319957894738,-0.009061214079666959
-0.005422979957894737,-0.008633337828859812
-0.005422639957894737,-0.009785312350267215
-0.005422299957894738,-0.01100311398718583
-0.005421959957894737,-0.009818225908025544
-0.005421619957894737,-0.01189178004655887
-0.005421279957894738,-0.0124842240861409
-0.005420939957894737,-0.01087145975616754
-0.005420599957894737,-0.01083854619841304
-0.005420259957894738,-0.01143099023799507
-0.005419919957894737,-0.00909412763742882
-0.005419579957894737,-0.01310958168347748
-0.005419239957894738,-0.01357037149204128
-0.005418899957894737,-0.008402942924577373
-0.005418559957894737,-0.009258695426194301
-0.005418219957894738,-0.01070689196739481
-0.005417879957894737,-0.01436029687815425
-0.005417539957894737,-0.01633511034342408
-0.005417199957894738,-0.01403116130060508
-0.005416859957894737,-0.01189178004655869
-0.005416519957894737,-0.0117930393732952
-0.005416179957894738,-0.01199052071982254
