Analysis/files/cmb03_d2s01/wrd02_ch18.csv

#Digilent WaveForms Oscilloscope Acquisition
#Device Name: ADP3450
#Serial Number: SN:210018B9D9B0
#Date Time: 2024-08-09 12:02:33.681.732.370
#Sample rate: 2.94118e+06Hz
#Samples: 32768
#Trigger: Source: Channel 3 Type: Edge Condition: Rising Level: 20 mV Hyst.: Auto HoldOff: 0 s
#Channel 3: Range: 200 mV/div Offset: 0 V Attenuation: 1 X Coupling: DC Bandwidth: 0 Hz Sample Mode: Average

Time (s),Channel 3 (V)
-0.00557034075862069,0.01289212894262263
-0.005570000758620689,0.01410993057953759
-0.005569660758620689,0.01210220355651326
-0.00556932075862069,0.006013195371920196
-0.005568980758620689,0.004170036137677451
-0.005568640758620689,0.01101605615061288
-0.00556830075862069,0.008580452876775651
-0.005567960758620689,0.002590185365446976
-0.005567620758620689,0.002985148058500942
-0.00556728075862069,0.004202949695419555
-0.005566940758620689,0.003511764982573976
-0.005566600758620689,0.00357759209808297
-0.00556626075862069,0.003149715847273728
-0.005565920758620689,0.003116802289518752
-0.005565580758620689,0.002886407385237271
-0.00556524075862069,0.002096481999127901
-0.005564900758620689,0.0005166312269098179
-0.005564560758620689,0.0008786803622092876
-0.00556422075862069,-0.000207467043691097
-0.005563880758620689,-0.0006353432944973459
-0.005563540758620689,0.001010334593227516
-0.00556320075862069,0.000714112573436502
-0.00556286075862069,0.0005495447846640158
-0.005562520758620689,0.0027876667119736
-0.00556218075862069,0.001668605748318658
-0.00556184075862069,0.001273643055264691
-0.005561500758620689,0.002162309114637015
-0.00556116075862069,0.001141988824245744
-0.00556082075862069,-0.002412675413239957
-0.005560480758620689,-0.002313934739982752
-0.00556014075862069,-0.003400082145883136
-0.00555980075862069,-0.005539463399925457
-0.005559460758620689,-0.005473636284420234
-0.00555912075862069,-0.004782451571574535
-0.00555878075862069,-0.007349709076425319
-0.005558440758620689,-0.004552056667292635
-0.00555810075862069,-0.002116453393455409
-0.00555776075862069,-0.002215194066718901
-0.005557420758620689,-0.0005695161789912252
-0.00555708075862069,-0.001951885604682624
-0.00555674075862069,-0.005276154937886844
-0.005556400758620689,-0.001984799162437181
-0.00555606075862069,-0.001359441565100596
-0.00555572075862069,-0.003103860126088949
-0.005555380758620689,-0.004255834647501621
-0.00555504075862069,-0.003531736376901365
-0.00555470075862069,-0.004124180416482316
-0.005554360758620689,-0.007514276865202775
-0.005554020758620689,-0.006856005710111633
-0.00555368075862069,-0.007711758211730118
-0.005553340758620689,-0.00869916494436683
-0.005553000758620689,-0.007975066673766575
-0.00555266075862069,-0.007547190422957332
-0.005552320758620689,-0.005012846475856435
-0.005551980758620689,-0.004617883782801749
-0.00555164075862069,-0.003334255030374022
-0.005551300758620689,-0.005012846475854219
-0.005550960758620689,-0.003795044838937822
-0.00555062075862069,-0.005605290515438462
-0.005550280758620689,-0.008435856482329536
-0.005549940758620689,-0.007975066673766575
-0.00554960075862069,-0.008435856482330374
-0.005549260758620689,-0.0106081512941336
-0.005548920758620689,-0.01195760716206798
-0.00554858075862069,-0.01429446976264154
-0.005548240758620689,-0.01942898477233928
-0.005547900758620689,-0.01218800206634988
-0.00554756075862069,-0.01047649706311291
-0.005547220758620689,-0.008534597155595841
-0.005546880758620689,-0.009522003888230759
-0.00554654075862069,-0.01185886648880431
-0.005546200758620689,-0.008962473406399695
-0.005545860758620689,-0.006987659941129861
-0.00554552075862069,-0.006724351479093405
-0.005545180758620689,-0.008337115809065983
-0.005544840758620689,-0.007942153116012016
-0.00554450075862069,-0.007843412442748346
-0.005544160758620689,-0.008962473406408556
-0.005543820758620689,-0.01185886648880431
-0.00554348075862069,-0.01083854619841304
-0.005543140758620689,-0.009192868310687942
-0.005542800758620689,-0.01070689196739481
-0.00554246075862069,-0.0104106699476038
-0.00554212075862069,-0.009192868310687403
-0.005541780758620689,-0.009225781868439744
-0.00554144075862069,-0.009357436099457973
-0.00554110075862069,-0.007777585327242105
-0.005540760758620689,-0.004979932918101878
-0.00554042075862069,-0.009719485234758102
-0.00554008075862069,-0.009390349657213129
-0.005539740758620689,-0.009225781868439744
-0.00553940075862069,-0.009028300521912402
-0.00553906075862069,-0.008271288693558965
-0.005538720758620689,-0.008337115809066702
-0.00553838075862069,-0.009752398792512659
-0.00553804075862069,-0.01231965629736344
-0.005537700758620689,-0.01327414947225027
-0.00553736075862069,-0.00962074456149443
-0.00553702075862069,-0.009456176772721944
-0.005536680758620689,-0.008633337828857716
-0.00553634075862069,-0.01337289014551394
-0.00553600075862069,-0.01570975274608324
-0.005535660758620689,-0.01199052071982254
-0.00553532075862069,-0.01231965629736811
-0.00553498075862069,-0.01238548341287711
-0.005534640758620689,-0.0120234342775771
-0.00553430075862069,-0.01218800206634988
-0.00553396075862069,-0.01297792745245782
-0.005533620758620689,-0.01136516312248596
-0.00553328075862069,-0.01080563264065849
-0.00553294075862069,-0.01024610215883101
-0.005532600758620689,-0.01120059533371317
-0.005532260758620689,-0.01238548341287723
-0.00553192075862069,-0.01208926139308621
-0.005531580758620689,-0.01222091562410444
-0.005531240758620689,-0.01426155620488698
-0.00553090075862069,-0.01534770361078737
-0.005530560758620689,-0.0140969884161142
-0.005530220758620689,-0.01301084101021381
-0.00552988075862069,-0.01241839697063178
-0.005529540758620689,-0.01083854619841322
-0.005529200758620689,-0.01093728687167671
-0.00552886075862069,-0.01054232417862203
-0.005528520758620689,-0.009916966581286104
-0.005528180758620689,-0.01027901571658557
-0.00552784075862069,-0.01412990197386875
-0.005527500758620689,-0.01778330688461244
-0.005527160758620689,-0.0111018546604495
-0.00552682075862069,-0.01120059533371317
-0.005526480758620689,-0.0101473614855704
-0.005526140758620689,-0.01182595293104976
-0.00552580075862069,-0.01636802390117864
-0.005525460758620689,-0.01360328504979195
-0.005525120758620689,-0.01146390379574963
-0.00552478075862069,-0.01310958168347748
-0.005524440758620689,-0.01271461899041687
-0.005524100758620689,-0.009456176772721644
-0.00552376075862069,-0.008929559848648731
-0.005523420758620689,-0.01031192927433959
-0.005523080758620689,-0.01001570725454911
-0.00552274075862069,-0.01310958168347748
-0.005522400758620689,-0.02137088467989784
-0.005522060758620689,-0.03595159076514012
-0.00552172075862069,-0.0562263423419473
-0.005521380758620689,-0.08203057162157221
-0.005521040758620689,-0.1106982804257393
-0.00552070075862069,-0.1418674196193049
-0.00552036075862069,-0.1734973486213767
-0.005520020758620689,-0.1992686643432525
-0.00551968075862069,-0.2210574395767693
-0.00551934075862069,-0.2378104404738084
-0.005519000758620689,-0.2464996197210419
-0.00551866075862069,-0.2500213704007795
-0.00551832075862069,-0.2492314450146716
-0.005517980758620689,-0.2441627571204684
-0.00551764075862069,-0.2354735778732653
-0.00551730075862069,-0.2319847407512886
-0.005516960758620689,-0.2231968208308155
-0.00551662075862069,-0.2094389536894106
-0.00551628075862069,-0.204304438679709
-0.005515940758620689,-0.1968001475116607
-0.00551560075862069,-0.1958456543367786
-0.00551526075862069,-0.1961089627988145
-0.005514920758620689,-0.1911061020201223
-0.00551458075862069,-0.1868273395120299
-0.00551424075862069,-0.1861361547991854
-0.005513900758620689,-0.1853791429708294
-0.00551356075862069,-0.1811662075782461
-0.00551322075862069,-0.1790926534397128
-0.005512880758620689,-0.1765253959348535
-0.00551254075862069,-0.1732340401593978
-0.00551220075862069,-0.1684286607272325
-0.005511860758620689,-0.1641169846613855
-0.005511520758620689,-0.1586862476318836
-0.00551118075862069,-0.1526959801205542
-0.005510840758620689,-0.1478247735728797
-0.005510500758620689,-0.1403533959625953
-0.00551016075862069,-0.1345276962400387
-0.005509820758620689,-0.1311046862335647
-0.005509480758620689,-0.1265955288211904
-0.00550914075862069,-0.1221521985243252
-0.005508800758620689,-0.1194203732306935
-0.005508460758620689,-0.1175443004386872
-0.00550812075862069,-0.1147137344717953
-0.005507780758620689,-0.1128376616797789
-0.005507440758620689,-0.1091842567690297
-0.00550710075862069,-0.105892900993574
-0.005506760758620689,-0.1082626771518914
-0.005506420758620689,-0.1024040638715909
-0.00550608075862069,-0.09437315577947897
-0.005505740758620689,-0.09075266442647165
-0.005505400758620689,-0.08742839509326744
-0.00550506075862069,-0.08621059345634882
-0.005504720758620689,-0.08446617489534922
-0.005504380758620689,-0.08002284459849207
-0.00550404075862069,-0.07571116853264509
-0.005503700758620689,-0.07449336689572122
-0.005503360758620689,-0.07159697381332547
-0.00550302075862069,-0.07080704842721608
-0.005502680758620689,-0.06774608755604145
-0.005502340758620689,-0.06728529774747849
-0.00550200075862069,-0.06531048428220507
-0.005501660758620689,-0.06297362168163115
-0.005501320758620689,-0.06277614033510415
-0.00550098075862069,-0.0604392777345306
-0.005500640758620689,-0.05787202022967407
-0.005500300758620689,-0.05727957619009312
-0.00549996075862069,-0.05494271358951957
-0.00549962075862069,-0.05184883916059683
-0.005499280758620689,-0.05168427137181841
-0.00549894075862069,-0.05030190194612701
-0.00549860075862069,-0.04875496473166565
-0.005498260758620689,-0.04957780367552676
-0.00549792075862069,-0.04859039694289004
-0.00549758075862069,-0.04783338511453661
-0.005497240758620689,-0.04671432415088029
-0.00549690075862069,-0.04628644790007105
-0.00549656075862069,-0.04641810213108903
-0.005496220758620689,-0.04773464444127156
-0.00549588075862069,-0.03743270086409518
-0.00549554075862069,-0.0348983569169989
-0.005495200758620689,-0.03121203844848389
-0.00549486075862069,-0.02739406574895527
-0.00549452075862069,-0.03674151615123249
-0.005494180758620689,-0.03305519768273909
-0.00549384075862069,-0.03318685191375732
-0.00549350075862069,-0.03453630778169171
-0.005493160758620689,-0.03410843153088492
-0.00549282075862069,-0.03308811124049365
-0.00549248075862069,-0.03348307393354761
-0.005492140758620689,-0.03108038421746566
-0.00549180075862069,-0.03108038421746566
-0.00549146075862069,-0.03048794017788472
-0.005491120758620689,-0.02854604027036477
-0.005490780758620689,-0.02907265719443768
-0.00549044075862069,-0.02805233690404641
-0.005490100758620689,-0.02792068267302818
-0.005489760758620689,-0.02762446065323717
-0.00548942075862069,-0.02650539968958223
-0.005489080758620689,-0.02387231506921766
-0.005488740758620689,-0.02393814218472677
-0.00548840075862069,-0.02472806757083614
-0.005488060758620689,-0.02291782189433454
-0.005487720758620689,-0.02239120497026259
-0.00548738075862069,-0.02216081006598069
-0.005487040758620689,-0.02193041516169945
-0.005486700758620689,-0.02229246429699892
-0.00548636075862069,-0.02433310487778146
-0.005486020758620689,-0.02453058622431006
-0.005485680758620689,-0.0252217709371545
-0.00548534075862069,-0.0199226881386708
-0.005485000758620689,-0.01979103390764689
-0.005484660758620689,-0.01666424592096965
-0.00548432075862069,-0.01896819496378865
-0.005483980758620689,-0.02281908122106464
-0.005483640758620689,-0.01886945429052498
-0.00548330075862069,-0.01794787467339738
-0.005482960758620689,-0.01801370178890511
-0.005482620758620689,-0.01725668996055168
-0.00548228075862069,-0.01775039332687003
-0.005481940758620689,-0.01834283736644943
-0.005481600758620689,-0.01689464082525155
-0.00548126075862069,-0.01705920861402434
-0.005480920758620689,-0.01850740515522066
-0.005480580758620689,-0.01620345611240585
-0.00548024075862069,-0.01712503572953345
-0.005479900758620689,-0.01656550524770274
-0.005479560758620689,-0.01478817312895989
-0.00547922075862069,-0.01442612399365977
-0.00547888075862069,-0.01594014765036664
-0.005478540758620689,-0.01482108668671445
-0.00547820075862069,-0.01383367995407774
-0.00547786075862069,-0.01452486466692218
-0.005477520758620689,-0.01412990197386875
-0.00547718075862069,-0.01465651889794167
-0.00547684075862069,-0.01416281553162421
-0.005476500758620689,-0.01327414947225027
-0.00547616075862069,-0.01304375456796837
-0.00547582075862069,-0.01584140697710063
-0.005475480758620689,-0.01867197294399764
-0.00547514075862069,-0.01097020042943127
-0.00547480075862069,-0.01077271908290429
-0.005474460758620689,-0.01159555802676786
-0.00547412075862069,-0.009225781868439744
-0.00547378075862069,-0.01294501389469793
-0.005473440758620689,-0.01327414947225027
-0.00547310075862069,-0.01011444792781279
-0.00547276075862069,-0.01041066994760326
-0.005472420758620689,-0.01208926139308621
-0.00547208075862069,-0.0111018546604495
-0.00547174075862069,-0.01054232417862305
-0.005471400758620689,-0.01287918677919558
-0.00547106075862069,-0.01235256985512267
-0.00547072075862069,-0.01255005120164965
-0.005470380758620689,-0.01274753254817735
-0.00547004075862069,-0.01245131052838634
-0.00546970075862069,-0.0113322495647314
-0.005469360758620689,-0.01149681735350419
-0.005469020758620689,-0.009752398792512659
-0.00546868075862069,-0.009357436099457973
-0.005468340758620689,-0.01044358350535836
-0.005468000758620689,-0.01057523773637659
-0.00546766075862069,-0.01050941062086747
-0.005467320758620689,-0.01176012581554064
-0.005466980758620689,-0.0124842240861409
-0.00546664075862069,-0.01327414947225027
-0.005466300758620689,-0.01501856803324377
-0.005465960758620689,-0.01610471543914218
-0.00546562075862069,-0.01541353072629648
-0.005465280758620689,-0.01873780005951136
-0.005464940758620689,-0.02127214400660764
-0.00546460075862069,-0.01205634783533165
-0.005464260758620689,-0.0109372868716745
-0.005463920758620689,-0.009719485234758102
-0.00546358075862069,-0.01024610215883101
-0.005463240758620689,-0.01409698841611378
-0.005462900758620689,-0.0138665935118323
-0.00546256075862069,-0.01222091562410444
-0.005462220758620689,-0.01442612399366222
-0.005461880758620689,-0.01577557986159661
-0.00546154075862069,-0.01465651889794167
-0.005461200758620689,-0.01320832235674283
-0.005460860758620689,-0.01412990197386875
-0.00546052075862069,-0.01258296475940457
-0.005460180758620689,-0.01090437331392264
-0.005459840758620689,-0.01116768177595861
-0.00545950075862069,-0.01159555802676786
-0.005459160758620689,-0.01100311398718619
-0.005458820758620689,-0.01120059533371317
-0.00545848075862069,-0.0111018546604495
-0.005458140758620689,-0.01004862081230499
-0.005457800758620689,-0.01077271908290393
-0.00545746075862069,-0.009949880139040001
-0.00545712075862069,-0.009489090330477038
-0.005456780758620689,-0.01001570725454911
-0.00545644075862069,-0.01222091562410444
-0.00545610075862069,-0.01110185466045154
-0.005455760758620689,-0.01245131052838634
-0.00545542075862069,-0.01333997658775938
-0.00545508075862069,-0.01268170543266944
-0.005454740758620689,-0.01603888832363307
-0.00545440075862069,-0.01093728687167671
-0.00545406075862069,-0.007152227729909532
-0.005453720758620689,-0.004979932918101878
-0.00545338075862069,-0.005210327822383777
-0.00545304075862069,-0.009982793696785876
-0.005452700758620689,-0.01136516312248596
-0.00545236075862069,-0.01070689196739481
-0.00545202075862069,-0.01070689196739481
-0.005451680758620689,-0.01162847158452241
-0.00545134075862069,-0.01278044610593191
-0.00545100075862069,-0.01241839697063244
-0.005450660758620689,-0.01199052071982254
-0.00545032075862069,-0.01350454437653217
-0.00544998075862069,-0.01478817312895756
-0.005449640758620689,-0.01406407485835964
-0.00544930075862069,-0.01258296475940457
-0.00544896075862069,-0.01491982735997387
-0.005448620758620689,-0.01551227139956015
-0.005448280758620689,-0.01380076639632318
-0.00544794075862069,-0.01422864264713243
-0.005447600758620689,-0.01143099023799507
-0.005447260758620689,-0.0113322495647314
-0.00544692075862069,-0.01034484283209469
-0.005446580758620689,-0.008205461578048474
-0.005446240758620689,-0.008501683597839487
-0.00544590075862069,-0.008797905617630502
-0.005445560758620689,-0.00725096840316548
-0.005445220758620689,-0.006790178594602518
-0.00544488075862069,-0.007218054845411761
-0.005444540758620689,-0.008764992059883549
-0.005444200758620689,-0.0129450138947047
-0.00544386075862069,-0.007086400614393532
-0.005443520758620689,-0.006362302343802137
-0.005443180758620689,-0.01123350889146773
-0.00544284075862069,-0.01261587831715913
-0.005442500758620689,-0.01281335966368701
-0.005442160758620689,-0.01310958168347748
-0.00544182075862069,-0.01482108668671445
-0.005441480758620689,-0.01478817312896031
-0.005441140758620689,-0.0150185680332418
-0.00544080075862069,-0.01659841880546054
-0.005440460758620689,-0.01653259168994837
-0.005440120758620689,-0.01485400024446901
-0.00543978075862069,-0.01452486466692344
-0.005439440758620689,-0.01594014765036598
-0.005439100758620689,-0.01406407485835964
-0.00543876075862069,-0.01231965629736811
-0.005438420758620689,-0.01215508850859407
-0.005438080758620689,-0.01146390379574963
-0.00543774075862069,-0.01185886648880431
-0.005437400758620689,-0.01215508850859209
-0.005437060758620689,-0.01037775638984924
-0.00543672075862069,-0.01067397840964026
-0.00543638075862069,-0.01264879187491009
-0.005436040758620689,-0.01162847158452241
-0.00543570075862069,-0.008764992059875945
-0.00543536075862069,-0.008962473406402929
-0.005435020758620689,-0.00962074456149443
-0.00543468075862069,-0.008830819175385059
-0.00543434075862069,-0.009522003888229501
-0.005434000758620689,-0.009324522541703417
-0.00543366075862069,-0.0117930393732952
-0.00543332075862069,-0.008468770040090978
-0.005432980758620689,-0.01008153437005823
-0.00543264075862069,-0.009061214079666959
-0.00543230075862069,-0.008600424271103998
-0.005431960758620689,-0.0159401476503694
-0.00543162075862069,-0.01373493928081407
-0.00543128075862069,-0.01248422408614317
-0.005430940758620689,-0.01255005120165001
-0.00543060075862069,-0.01284627322144103
-0.00543026075862069,-0.01116768177596167
-0.005429920758620689,-0.01103602754494038
-0.00542958075862069,-0.008929559848648731
-0.00542924075862069,-0.006230648112779956
-0.005428900758620689,-0.007218054845411761
-0.00542856075862069,-0.006329388786038719
-0.00542822075862069,-0.006757265036847183
-0.005427880758620689,-0.007777585327239231
-0.005427540758620689,-0.009522003888230759
-0.00542720075862069,-0.01189178004655887
-0.005426860758620689,-0.01281335966368647
-0.005426520758620689,-0.01291210033695014
-0.00542618075862069,-0.01192469360431343
-0.005425840758620689,-0.01320832235674115
-0.005425500758620689,-0.01228674273961356
-0.00542516075862069,-0.01057523773637659
-0.005424820758620689,-0.01103602754494038
-0.005424480758620689,-0.01169429870003153
-0.00542414075862069,-0.01031192927434013
-0.005423800758620689,-0.01011444792781949
-0.005423460758620689,-0.01380076639632318
-0.00542312075862069,-0.01511730870650547
-0.005422780758620689,-0.009423263214968704
-0.005422440758620689,-0.01031192927434013
-0.00542210075862069,-0.00939034965721253
-0.005421760758620689,-0.01274753254818454
-0.005421420758620689,-0.01669715947872421
-0.00542108075862069,-0.01472234601345078
-0.005420740758620689,-0.01294501389470787
-0.005420400758620689,-0.01468943245569622
-0.00542006075862069,-0.01518313582201458
-0.005419720758620689,-0.01100311398718768
-0.005419380758620689,-0.0120234342775771
-0.00541904075862069,-0.0115626444690133
-0.005418700758620689,-0.009949880139042995
-0.005418360758620689,-0.01159555802676786
-0.00541802075862069,-0.01126642244922228
-0.005417680758620689,-0.01176012581554214
-0.005417340758620689,-0.01258296475940457
-0.00541700075862069,-0.01310958168347748
-0.005416660758620689,-0.01212217495084245
-0.005416320758620689,-0.01304375456796837
-0.00541598075862069,-0.0134058037032685
-0.005415640758620689,-0.01314249524123264
-0.005415300758620689,-0.01347163081877761
-0.00541496075862069,-0.01445903755141432
-0.00541462075862069,-0.0136032850497974
