Analysis/files/cmb03_d2s01/wrd03_ch24.csv

#Digilent WaveForms Oscilloscope Acquisition
#Device Name: ADP3450
#Serial Number: SN:210018B9D9B0
#Date Time: 2024-08-09 12:46:11.745.618.980
#Sample rate: 2.94118e+06Hz
#Samples: 32768
#Trigger: Source: Channel 3 Type: Edge Condition: Rising Level: 20 mV Hyst.: Auto HoldOff: 0 s
#Channel 3: Range: 200 mV/div Offset: 0 V Attenuation: 1 X Coupling: DC Bandwidth: 0 Hz Sample Mode: Average

Time (s),Channel 3 (V)
-0.005570237341576507,0.008415885088002865
-0.005569897341576507,0.008547539319016844
-0.005569557341576507,0.006210676718447538
-0.005569217341576507,0.001141988824245744
-0.005568877341576507,0.003445937867069831
-0.005568537341576507,0.006243590276202096
-0.005568197341576507,0.004334603926437783
-0.005567857341576507,0.002359790461169626
-0.005567517341576507,0.005256183543565383
-0.005567177341576507,0.003050975174010056
-0.005566837341576506,0.001339470170774464
-0.005566497341576507,0.002096481999127901
-0.005566157341576507,0.001372383728527644
-0.005565817341576506,-0.0005695161789920036
-0.005565477341576507,-0.0009973924298004675
-0.005565137341576507,-0.001951885604682624
-0.005564797341576506,-0.003465909261390515
-0.005564457341576507,-0.002511416086510094
-0.005564117341576507,-0.004584970225047193
-0.005563777341576506,-0.005901512535227261
-0.005563437341576507,-0.004683710898310864
-0.005563097341576507,-0.004190007531992507
-0.005562757341576507,-0.006164820997262342
-0.005562417341576507,-0.006559783690320619
-0.005562077341576507,-0.005078673591365549
-0.005561737341576507,-0.007119314172144378
-0.005561397341576507,-0.005934426092984033
-0.005561057341576507,-0.00517741426462922
-0.005560717341576507,-0.00912704119516889
-0.005560377341576507,-0.009785312350267215
-0.005560037341576507,0.0003520634381363738
-0.005559697341576507,-0.003334255030367317
-0.005559357341576507,-0.007316795518675433
-0.005559017341576507,-0.00438748887851985
-0.005558677341576507,-0.0006353432945071648
-0.005558337341576507,-0.003235514357110351
-0.005557997341576507,-0.006757265036847961
-0.005557657341576507,-0.006296475228285
-0.005557317341576507,-0.006263561670529605
-0.005556977341576507,-0.004453315994028964
-0.005556637341576507,-0.003103860126094577
-0.005556297341576507,-0.003531736376901365
-0.005555957341576507,-0.002939292337319337
-0.005555617341576507,-0.003531736376900287
-0.005555277341576507,-0.005506549842174791
-0.005554937341576507,-0.006757265036847961
-0.005554597341576507,-0.007580103980710392
-0.005554257341576507,-0.0101802750433219
-0.005553917341576507,-0.01014736148556734
-0.005553577341576507,-0.01004862081230367
-0.005553237341576507,-0.01146390379574963
-0.005552897341576507,-0.01241839697063178
-0.005552557341576507,-0.01106894110269494
-0.005552217341576507,-0.01215508850859533
-0.005551877341576507,-0.01238548341287723
-0.005551537341576507,-0.008995386964157845
-0.005551197341576507,-0.008304202251312863
-0.005550857341576507,-0.00869916494436683
-0.005550517341576507,-0.006987659941129861
-0.005550177341576507,-0.01054232417861359
-0.005549837341576507,-0.005901512535229476
-0.005549497341576507,-0.004519143109538078
-0.005549157341576507,-0.003597563492413173
-0.005548817341576507,-0.005078673591365549
-0.005548477341576507,-0.008732078502121389
-0.005548137341576507,-0.008106720904783605
-0.005547797341576507,-0.007448449749693661
-0.005547457341576507,-0.007316795518675433
-0.005547117341576507,-0.00669143792133777
-0.005546777341576507,-0.006098993881756819
-0.005546437341576507,-0.005506549842174791
-0.005546097341576506,-0.005802771861968679
-0.005545757341576507,-0.007382622634184546
-0.005545417341576507,-0.00767884465397556
-0.005545077341576506,-0.008007980231524844
-0.005544737341576507,-0.01004862081230367
-0.005544397341576507,-0.009719485234758102
-0.005544057341576506,-0.008995386964156528
-0.005543717341576507,-0.008271288693557588
-0.005543377341576507,-0.007975066673766575
-0.005543037341576506,-0.007448449749695158
-0.005542697341576507,-0.008271288693557588
-0.005542357341576507,-0.009324522541703417
-0.005542017341576507,-0.008007980231523527
-0.005541677341576507,-0.009291608983948858
-0.005541337341576507,-0.01090437331392216
-0.005540997341576507,-0.009028300521915814
-0.005540657341576507,-0.00837002936682126
-0.005540317341576507,-0.009127041195176074
-0.005539977341576507,-0.01225382918185331
-0.005539637341576507,-0.01333997658775938
-0.005539297341576507,-0.008863732733139616
-0.005538957341576507,-0.008073807347031682
-0.005538617341576507,-0.008205461578048474
-0.005538277341576507,-0.01231965629736811
-0.005537937341576507,-0.01491982735997339
-0.005537597341576507,-0.008764992059875945
-0.005537257341576507,-0.009686571677003543
-0.005536917341576507,-0.01011444792781201
-0.005536577341576507,-0.008797905617630502
-0.005536237341576507,-0.008534597155594046
-0.005535897341576507,-0.00846877004008505
-0.005535557341576507,-0.009851139465776329
-0.005535217341576507,-0.01129933600697684
-0.005534877341576507,-0.01274753254817472
-0.005534537341576507,-0.0104106699476038
-0.005534197341576507,-0.01251713764389546
-0.005533857341576507,-0.01353745793428487
-0.005533517341576507,-0.01327414947225027
-0.005533177341576507,-0.01245131052838634
-0.005532837341576507,-0.01360328504979584
-0.005532497341576507,-0.01251713764389546
-0.005532157341576507,-0.012253829181859
-0.005531817341576507,-0.0136361986075504
-0.005531477341576507,-0.0101802750433219
-0.005531137341576507,-0.009719485234758102
-0.005530797341576507,-0.01060815129413114
-0.005530457341576507,-0.009522003888230759
-0.005530117341576507,-0.008402942924575817
-0.005529777341576507,-0.01169429870003153
-0.005529437341576507,-0.01663133236320629
-0.005529097341576507,-0.0117930393732952
-0.005528757341576507,-0.01152973091125874
-0.005528417341576507,-0.01113476821820208
-0.005528077341576507,-0.01004862081230367
-0.005527737341576507,-0.01389950706958685
-0.005527397341576507,-0.01419572908937014
-0.005527057341576507,-0.009949880139040001
-0.005526717341576507,-0.01021318860107646
-0.005526377341576507,-0.01251713764389216
-0.005526037341576507,-0.01070689196739481
-0.005525697341576507,-0.01090437331392216
-0.005525357341576507,-0.01116768177596005
-0.005525017341576507,-0.01195760716206798
-0.005524677341576507,-0.01126642244922228
-0.005524337341576506,-0.01241839697063107
-0.005523997341576507,-0.0120234342775771
-0.005523657341576507,-0.01126642244922228
-0.005523317341576506,-0.0124842240861418
-0.005522977341576507,-0.01297792745245925
-0.005522637341576507,-0.01709212217177889
-0.005522297341576506,-0.02765737421101938
-0.005521957341576507,-0.04286343789359711
-0.005521617341576507,-0.0632040165859134
-0.005521277341576506,-0.09124636779285046
-0.005520937341576507,-0.1211647917916885
-0.005520597341576507,-0.1512477835793537
-0.005520257341576507,-0.1827460583504075
-0.005519917341576507,-0.2092085587851287
-0.005519577341576507,-0.2294833103619359
-0.005519237341576507,-0.2496922348231972
-0.005518897341576507,-0.2617056834036473
-0.005518557341576507,-0.2596979563806193
-0.005518217341576507,-0.2617385969613982
-0.005517877341576507,-0.2603891410934651
-0.005517537341576507,-0.2563736870474091
-0.005517197341576507,-0.2544647006976483
-0.005516857341576507,-0.2476515942424514
-0.005516517341576507,-0.2390282421107575
-0.005516177341576507,-0.2328734068106665
-0.005515837341576507,-0.2279034595897172
-0.005515497341576507,-0.219148453227005
-0.005515157341576507,-0.207233745319877
-0.005514817341576507,-0.2078591029171919
-0.005514477341576507,-0.2011118235775077
-0.005514137341576507,-0.1929163476966379
-0.005513797341576507,-0.1866298581655026
-0.005513457341576507,-0.1797838381525547
-0.005513117341576507,-0.1716212758294394
-0.005512777341576507,-0.1663551065886954
-0.005512437341576507,-0.1582583713810743
-0.005512097341576507,-0.1506553395397716
-0.005511757341576507,-0.1465740583782066
-0.005511417341576507,-0.1409787535599319
-0.005511077341576507,-0.1337706844116839
-0.005510737341576507,-0.1299856252699098
-0.005510397341576507,-0.1257068627618174
-0.005510057341576507,-0.1207369155408792
-0.005509717341576507,-0.115404919184641
-0.005509377341576507,-0.112278131197958
-0.005509037341576507,-0.1072752704192654
-0.005508697341576507,-0.109282997442288
-0.005508357341576507,-0.1063536908021378
-0.005508017341576507,-0.09726954886188
-0.005507677341576507,-0.09453772356824949
-0.005507337341576507,-0.09328700837357859
-0.005506997341576507,-0.09532764895436113
-0.005506657341576507,-0.0943731557794719
-0.005506317341576507,-0.09048935596444124
-0.005505977341576507,-0.08693469172694906
-0.005505637341576507,-0.0853219273969735
-0.005505297341576507,-0.0840712122023026
-0.005504957341576507,-0.07857464805729156
-0.005504617341576507,-0.07406549064491395
-0.005504277341576507,-0.07225524496841659
-0.005503937341576507,-0.0699512959255976
-0.005503597341576506,-0.06484969447363641
-0.005503257341576507,-0.06218369629552213
-0.005502917341576507,-0.06103172177411263
-0.005502577341576506,-0.0582669829227275
-0.005502237341576507,-0.05698335417030211
-0.005501897341576507,-0.05546933051359248
-0.005501557341576506,-0.05204632050712057
-0.005501217341576507,-0.05316538147077348
-0.005500877341576507,-0.05240836964241867
-0.005500537341576506,-0.05013733415735189
-0.005500197341576507,-0.0488537054049265
-0.005499857341576507,-0.04865622405839916
-0.005499517341576507,-0.04523321405193145
-0.005499177341576507,-0.04470659712785231
-0.005498837341576507,-0.04470659712785231
-0.005498497341576507,-0.04325840058665443
-0.005498157341576507,-0.04658266991986206
-0.005497817341576507,-0.04441037510806129
-0.005497477341576507,-0.03924294654060523
-0.005497137341576507,-0.03651112124696759
-0.005496797341576507,-0.03667568903574037
-0.005496457341576507,-0.03894672452080068
-0.005496117341576507,-0.03621489922717657
-0.005495777341576507,-0.0340426044153758
-0.005495437341576507,-0.0329564570094774
-0.005495097341576507,-0.03160700114153858
-0.005494757341576507,-0.03177156893031136
-0.005494417341576507,-0.03068542152441295
-0.005494077341576507,-0.02930305209871958
-0.005493737341576507,-0.02976384190728338
-0.005493397341576507,-0.02910557075219343
-0.005493057341576507,-0.02769028776874628
-0.005492717341576507,-0.02611043699652754
-0.005492377341576507,-0.02719658440242595
-0.005492037341576507,-0.02502428959062716
-0.005491697341576507,-0.02459641333981791
-0.005491357341576507,-0.02456349978206342
-0.005491017341576507,-0.0231482167986174
-0.005490677341576507,-0.02206206939271702
-0.005490337341576507,-0.02248994564352626
-0.005489997341576507,-0.01919858986807055
-0.005489657341576507,-0.01732251707606079
-0.005489317341576507,-0.01728960351830624
-0.005488977341576507,-0.01709212217177889
-0.005488637341576507,-0.01541353072629648
-0.005488297341576507,-0.01827701025094295
-0.005487957341576507,-0.02058095929376302
-0.005487617341576507,-0.02117340333334397
-0.005487277341576507,-0.01630219678566952
-0.005486937341576507,-0.01580849341934721
-0.005486597341576507,-0.0136361986075504
-0.005486257341576507,-0.01692755438300611
-0.005485917341576507,-0.02054804573599859
-0.005485577341576507,-0.01570975274608749
-0.005485237341576507,-0.01528187649527825
-0.005484897341576507,-0.01712503572953022
-0.005484557341576507,-0.01534770361078737
-0.005484217341576507,-0.01600597476587851
-0.005483877341576507,-0.01551227139956003
-0.005483537341576507,-0.01544644428405104
-0.005483197341576507,-0.01426155620488698
-0.005482857341576506,-0.01547935784180164
-0.005482517341576507,-0.01330706303000483
-0.005482177341576507,-0.01343871726102305
-0.005481837341576506,-0.0145906917824286
-0.005481497341576507,-0.01241839697063178
-0.005481157341576507,-0.01169429870003153
-0.005480817341576506,-0.01152973091125862
-0.005480477341576507,-0.01146390379574963
-0.005480137341576507,-0.009719485234758102
-0.005479797341576506,-0.01231965629736793
-0.005479457341576507,-0.01222091562410444
-0.005479117341576507,-0.01189178004655887
-0.005478777341576507,-0.01531479005302658
-0.005478437341576507,-0.01597306120812395
-0.005478097341576507,-0.01515022226426002
-0.005477757341576507,-0.01580849341934997
-0.005477417341576507,-0.01998851525417992
-0.005477077341576507,-0.01867197294399764
-0.005476737341576507,-0.01330706303001459
-0.005476397341576507,-0.01353745793428673
-0.005476057341576507,-0.01162847158452241
-0.005475717341576507,-0.01501856803323563
-0.005475377341576507,-0.01834283736645206
-0.005475037341576507,-0.01607180188138762
-0.005474697341576507,-0.01416281553162678
-0.005474357341576507,-0.01584140697710572
-0.005474017341576507,-0.0152489629375237
-0.005473677341576507,-0.0139982477428528
-0.005473337341576507,-0.01360328504979584
-0.005472997341576507,-0.01324123591449571
-0.005472657341576507,-0.01129933600698037
-0.005472317341576507,-0.01139807668024051
-0.005471977341576507,-0.008139634462539359
-0.005471637341576507,-0.007711758211730896
-0.005471297341576507,-0.01067397840964026
-0.005470957341576507,-0.01103602754494038
-0.005470617341576507,-0.01014736148556896
-0.005470277341576507,-0.01146390379574963
-0.005469937341576507,-0.01172721225778608
-0.005469597341576507,-0.009686571677003543
-0.005469257341576507,-0.01126642244922228
-0.005468917341576507,-0.01080563264065849
-0.005468577341576507,-0.009423263214967087
-0.005468237341576507,-0.009423263214967087
-0.005467897341576507,-0.009225781868439744
-0.005467557341576507,-0.007481363307448217
-0.005467217341576507,-0.008139634462539359
-0.005466877341576507,-0.01426155620488698
-0.005466537341576507,-0.005539463399929348
-0.005466197341576507,-0.005111587149121303
-0.005465857341576507,-0.005769858304211248
-0.005465517341576507,-0.005341982053402005
-0.005465177341576507,-0.01103602754494182
-0.005464837341576507,-0.01182595293104976
-0.005464497341576507,-0.008962473406403288
-0.005464157341576507,-0.009324522541709882
-0.005463817341576507,-0.01287918677919558
-0.005463477341576507,-0.01070689196739481
-0.005463137341576507,-0.008600424271103998
-0.005462797341576507,-0.009061214079666959
-0.005462457341576507,-0.008929559848648731
-0.005462117341576507,-0.007250968403166378
-0.005461777341576507,-0.007283881960920875
-0.005461437341576507,-0.006592697248075176
-0.005461097341576506,-0.00573694474646148
-0.005460757341576507,-0.00837002936682126
-0.005460417341576507,-0.009785312350267215
-0.005460077341576506,-0.008402942924580726
-0.005459737341576507,-0.0111018546604495
-0.005459397341576507,-0.0129450138947047
-0.005459057341576506,-0.01133224956473014
-0.005458717341576507,-0.0106410648518857
-0.005458377341576507,-0.01031192927434013
-0.005458037341576506,-0.008600424271104417
-0.005457697341576507,-0.009291608983948858
-0.005457357341576507,-0.008304202251312145
-0.005457017341576507,-0.006559783690323792
-0.005456677341576507,-0.008797905617630502
-0.005456337341576507,-0.01419572908937787
-0.005455997341576507,-0.00688891926787948
-0.005455657341576507,-0.006296475228284162
-0.005455317341576507,-0.00767884465397556
-0.005454977341576507,-0.009916966581281373
-0.005454637341576507,-0.01468943245569622
-0.005454297341576507,-0.01482108668671445
-0.005453957341576507,-0.01347163081878007
-0.005453617341576507,-0.01222091562410444
-0.005453277341576507,-0.01373493928081407
-0.005452937341576507,-0.01268170543267016
-0.005452597341576507,-0.01014736148556734
-0.005452257341576507,-0.009028300521912402
-0.005451917341576507,-0.009357436099457375
-0.005451577341576507,-0.007777585327239231
-0.005451237341576507,-0.008929559848648731
-0.005450897341576507,-0.008896646290894233
-0.005450557341576507,-0.007711758211730118
-0.005450217341576507,-0.008962473406403288
-0.005449877341576507,-0.01008153437005619
-0.005449537341576507,-0.007514276865202775
-0.005449197341576507,-0.007810498884993789
-0.005448857341576507,-0.009127041195173678
-0.005448517341576507,-0.008271288693557588
-0.005448177341576507,-0.007218054845411761
-0.005447837341576507,-0.008764992059875945
-0.005447497341576507,-0.008995386964157845
-0.005447157341576507,-0.008666251386612273
-0.005446817341576507,-0.01120059533371317
-0.005446477341576507,-0.01093728687167671
-0.005446137341576507,-0.01485400024446901
-0.005445797341576507,-0.01426155620488698
-0.005445457341576507,-0.01060815129412983
-0.005445117341576507,-0.009884053023530886
-0.005444777341576507,-0.008797905617630502
-0.005444437341576507,-0.01347163081877623
-0.005444097341576507,-0.0127146189904228
-0.005443757341576507,-0.0111018546604495
-0.005443417341576507,-0.01008153437005583
-0.005443077341576507,-0.008764992059875945
-0.005442737341576507,-0.009127041195176074
-0.005442397341576507,-0.008863732733139076
-0.005442057341576507,-0.008567510713348603
-0.005441717341576507,-0.008501683597839487
-0.005441377341576507,-0.01090437331392288
-0.005441037341576507,-0.01129933600697684
-0.005440697341576507,-0.01218800206634988
-0.005440357341576506,-0.01324123591449523
-0.005440017341576507,-0.01297792745245925
-0.005439677341576507,-0.01159555802676786
-0.005439337341576506,-0.0118588664888024
-0.005438997341576507,-0.01080563264065849
-0.005438657341576507,-0.009456176772721644
-0.005438317341576506,-0.009752398792513257
-0.005437977341576507,-0.01008153437005823
-0.005437637341576507,-0.008468770040084931
-0.005437297341576506,-0.009752398792514036
-0.005436957341576507,-0.01050941062086747
-0.005436617341576507,-0.008238375135803031
-0.005436277341576507,-0.009423263214964932
-0.005435937341576507,-0.01176012581554064
-0.005435597341576507,-0.01547935784180559
-0.005435257341576507,-0.01024610215884053
-0.005434917341576507,-0.006724351479093405
-0.005434577341576507,-0.01176012581554064
-0.005434237341576507,-0.01044358350536075
-0.005433897341576507,-0.008732078502121389
-0.005433557341576507,-0.006790178594602518
-0.005433217341576507,-0.006526870132566541
-0.005432877341576507,-0.007250968403166318
-0.005432537341576507,-0.006757265036847961
-0.005432197341576507,-0.007711758211728381
-0.005431857341576507,-0.01014736148556734
-0.005431517341576507,-0.01057523773637659
-0.005431177341576507,-0.01212217495083796
-0.005430837341576507,-0.01350454437653217
-0.005430497341576507,-0.0124842240861409
-0.005430157341576507,-0.01034484283209858
-0.005429817341576507,-0.0120234342775771
-0.005429477341576507,-0.01126642244922228
-0.005429137341576507,-0.00965365811925192
-0.005428797341576507,-0.01116768177595861
-0.005428457341576507,-0.004881192244838206
-0.005428117341576507,-0.01152973091124665
-0.005427777341576507,-0.01258296475940457
-0.005427437341576507,-0.01284627322144103
-0.005427097341576507,-0.01113476821820406
-0.005426757341576507,-0.0120234342775771
-0.005426417341576507,-0.01192469360431343
-0.005426077341576507,-0.01027901571658557
-0.005425737341576507,-0.0104106699476038
-0.005425397341576507,-0.01169429870003153
-0.005425057341576507,-0.01123350889146773
-0.005424717341576507,-0.006526870132566062
-0.005424377341576507,-0.007086400614393532
-0.005424037341576507,-0.003992526185465165
-0.005423697341576507,-0.004354575320774752
-0.005423357341576507,-0.009554917445985316
-0.005423017341576507,-0.006987659941129861
-0.005422677341576507,-0.005243241380146416
-0.005422337341576507,-0.009686571677003543
-0.005421997341576507,-0.01212217495084077
-0.005421657341576507,-0.01238548341287747
-0.005421317341576507,-0.01251713764389546
-0.005420977341576507,-0.0134058037032685
-0.005420637341576507,-0.01317540879898983
-0.005420297341576507,-0.01495274091773268
-0.005419957341576507,-0.01472234601345078
-0.005419617341576507,-0.01179303937329723
-0.005419277341576507,-0.01291210033695014
-0.005418937341576507,-0.01380076639632318
-0.005418597341576506,-0.01199052071982009
-0.005418257341576507,-0.0106410648518857
-0.005417917341576507,-0.01129933600697684
-0.005417577341576506,-0.00978531235026524
-0.005417237341576507,-0.00869916494436683
-0.005416897341576507,-0.01004862081230367
-0.005416557341576506,-0.007645931096221901
