Analysis/files/cmb03_d2s01/wrd05_ch21.csv

#Digilent WaveForms Oscilloscope Acquisition
#Device Name: ADP3450
#Serial Number: SN:210018B9D9B0
#Date Time: 2024-08-09 15:45:25.142.416.690
#Sample rate: 2.94118e+06Hz
#Samples: 32768
#Trigger: Source: Channel 3 Type: Edge Condition: Rising Level: 20 mV Hyst.: Auto HoldOff: 0 s
#Channel 3: Range: 200 mV/div Offset: 0 V Attenuation: 1 X Coupling: DC Bandwidth: 0 Hz Sample Mode: Average

Time (s),Channel 3 (V)
-0.005570394838709677,0.01223385778753149
-0.005570054838709677,0.01131227817040066
-0.005569714838709677,0.009534946051657807
-0.005569374838709677,0.007527219028629823
-0.005569034838709677,0.005486578447849498
-0.005568694838709677,0.006704380084765896
-0.005568354838709677,0.004499171715210569
-0.005568014838709677,0.001076161708753214
-0.005567674838709677,0.01019321720674895
-0.005567334838709677,0.01009447653348528
-0.005566994838709677,0.01081857480408296
-0.005566654838709677,0.009403291820639578
-0.005566314838709677,0.005223269985810825
-0.005565974838709677,0.004202949695426859
-0.005565634838709677,0.008218403741475522
-0.005565294838709677,0.007988008837193623
-0.005564954838709677,0.005519492005604713
-0.005564614838709677,0.007099342777820581
-0.005564274838709677,0.007329737682102481
-0.005563934838709677,0.006013195371917562
-0.005563594838709677,0.004564998830719684
-0.005563254838709677,0.004630825946228797
-0.005562914838709678,0.002853493827485946
-0.005562574838709677,0.002985148058500942
-0.005562234838709677,0.002985148058500942
-0.005561894838709678,0.001833173537093539
-0.005561554838709677,0.0001874956493635883
-0.005561214838709677,0.001833173537091444
-0.005560874838709678,0.001569865075055466
-0.005560534838709677,0.0008128532467001733
-0.005560194838709677,0.001471124401791315
-0.005559854838709678,0.00058245834241989
-0.005559514838709677,0.0007799396889456162
-0.005559174838709677,0.0009115939199638446
-0.005558834838709678,0.001471124401790298
-0.005558494838709677,-0.0006353432945003394
-0.005558154838709677,0.0008786803622092876
-0.005557814838709678,-0.003597563492402337
-0.005557474838709677,-0.001392355122855153
-0.005557134838709677,0.003380110751555628
-0.005556794838709678,0.002656012480956688
-0.005556454838709677,0.001899000652600558
-0.005556114838709677,-0.0002403806014456541
-0.005555774838709678,-0.0005366026212361292
-0.005555434838709677,-0.0005366026212366681
-0.005555094838709677,-0.000832824641027682
-0.005554754838709678,-0.0009315653142911737
-0.005554414838709677,-0.003762131281183265
-0.005554074838709677,-0.005078673591365549
-0.005553734838709678,-0.003169687241601236
-0.005553394838709677,-0.003070946568337565
-0.005553054838709677,-0.003400082145883136
-0.005552714838709677,-0.001096133103064139
-0.005552374838709677,-0.002083539835700852
-0.005552034838709677,-0.002840551664055666
-0.005551694838709677,-0.001853144931418952
-0.005551354838709677,-0.002643070317529401
-0.005551014838709677,-0.003235514357110351
-0.005550674838709677,0.002886407385237271
-0.005550334838709677,-0.005638204073193378
-0.005549994838709677,-0.005835685419720362
-0.005549654838709677,-0.005210327822383777
-0.005549314838709677,-0.005835685419720003
-0.005548974838709677,-0.005638204073193019
-0.005548634838709677,-0.004716624456065421
-0.005548294838709677,-0.003367168588129837
-0.005547954838709677,-0.004058353300974278
-0.005547614838709677,-0.003795044838937822
-0.005547274838709677,-0.007283881960912193
-0.005546934838709677,-0.002511416086510094
-0.005546594838709677,0.001372383728527644
-0.005546254838709677,0.002754753154217366
-0.005545914838709677,0.001833173537091444
-0.005545574838709677,-0.003795044838937822
-0.005545234838709677,-0.002544329644263394
-0.005544894838709677,-0.001853144931418952
-0.005544554838709677,-0.002873465221810222
-0.005544214838709677,-0.003038033010585283
-0.005543874838709677,-0.004288748205256179
-0.005543534838709677,-0.004354575320765292
-0.005543194838709677,-0.002577243202022442
-0.005542854838709677,-0.004354575320765292
-0.005542514838709677,-0.00619773455502049
-0.005542174838709678,-0.005868598977475518
-0.005541834838709677,-0.006296475228284162
-0.005541494838709677,-0.006098993881756819
-0.005541154838709678,-0.0063293887860383
-0.005540814838709677,-0.006329388786038719
-0.005540474838709677,-0.006526870132566062
-0.005540134838709678,-0.004683710898314217
-0.005539794838709677,-0.00336716858812858
-0.005539454838709677,-0.004650797340556306
-0.005539114838709678,-0.004222921089747842
-0.005538774838709677,-0.002511416086510094
-0.005538434838709677,-0.00267598387528288
-0.005538094838709678,-0.003367168588127322
-0.005537754838709677,-0.003663390607919593
-0.005537414838709677,-0.003169687241601236
-0.005537074838709678,-0.005440722726661545
-0.005536734838709677,-0.005967339650738591
-0.005536394838709677,-0.00188605848917351
-0.005536054838709678,-0.003038033010580913
-0.005535714838709677,0.0003849769958909309
-0.005535374838709677,-0.004683710898310864
-0.005535034838709678,-0.008929559848641008
-0.005534694838709677,-0.005309068495647449
-0.005534354838709677,-0.004058353300974278
-0.005534014838709678,-0.005374895611154168
-0.005533674838709677,-0.004584970225047193
-0.005533334838709677,-0.003235514357110351
-0.005532994838709678,-0.003597563492410479
-0.005532654838709677,-0.002379761855491866
-0.005532314838709677,-0.001754404258155281
-0.005531974838709677,-0.00267598387528288
-0.005531634838709677,-0.002807638106301108
-0.005531294838709677,-0.00313677368384668
-0.005530954838709677,-0.002807638106301108
-0.005530614838709677,-0.00415709397423795
-0.005530274838709677,-0.003597563492410479
-0.005529934838709677,-0.006033166766247705
-0.005529594838709677,-0.004782451571575014
-0.005529254838709677,-0.005045760033610991
-0.005528914838709677,-0.005638204073193019
-0.005528574838709677,-0.00553946339992809
-0.005528234838709677,-0.004848278687083649
-0.005527894838709677,-0.003103860126092122
-0.005527554838709677,-0.00320260079935286
-0.005527214838709677,-0.001589836469382495
-0.005526874838709677,-0.001820231373664395
-0.005526534838709677,-0.006625610805822609
-0.005526194838709677,-0.002708897433037437
-0.005525854838709677,-0.001491095796118824
-0.005525514838709677,-0.003169687241599441
-0.005525174838709677,-0.002182280508964523
-0.005524834838709677,-0.007053487056638975
-0.005524494838709677,-0.009884053023525796
-0.005524154838709677,-0.007086400614393532
-0.005523814838709677,-0.007250968403166318
-0.005523474838709677,-0.009192868310682374
-0.005523134838709677,-0.007645931096221003
-0.005522794838709677,-0.01027901571658557
-0.005522454838709677,-0.01432738332041004
-0.005522114838709677,-0.0219962422772079
-0.005521774838709677,-0.03631363990044024
-0.005521434838709677,-0.05905690830888955
-0.005521094838709677,-0.08673721038042173
-0.005520754838709677,-0.1168531157258415
-0.005520414838709678,-0.1490754887674943
-0.005520074838709677,-0.1809358126739642
-0.005519734838709677,-0.2074641402241372
-0.005519394838709678,-0.2313922967116567
-0.005519054838709677,-0.2481123840510152
-0.005518714838709677,-0.2575256615688186
-0.005518374838709678,-0.2634830155223826
-0.005518034838709677,-0.2648653849480848
-0.005517694838709677,-0.2622323003277202
-0.005517354838709678,-0.2564395141629287
-0.005517014838709677,-0.2518974431927893
-0.005516674838709677,-0.244261497793732
-0.005516334838709678,-0.239159896341785
-0.005515994838709677,-0.2354406643155108
-0.005515654838709677,-0.219148453227005
-0.005515314838709678,-0.2116770756167341
-0.005514974838709677,-0.2038436488711359
-0.005514634838709677,-0.198116689821843
-0.005514294838709678,-0.1945291120266028
-0.005513954838709677,-0.1873539564361028
-0.005513614838709677,-0.1794547025750091
-0.005513274838709678,-0.1736619164102176
-0.005512934838709677,-0.1695148081331329
-0.005512594838709677,-0.1626029610046759
-0.005512254838709678,-0.1548024478168458
-0.005511914838709677,-0.1497995870381532
-0.005511574838709677,-0.1438093195268238
-0.005511234838709678,-0.1363050283587847
-0.005510894838709677,-0.1308084642137737
-0.005510554838709677,-0.1255752085307991
-0.005510214838709677,-0.1193545461151878
-0.005509874838709677,-0.1158327954354502
-0.005509534838709677,-0.1120148227359216
-0.005509194838709677,-0.1077689737855837
-0.005508854838709677,-0.1016799656009875
-0.005508514838709677,-0.09993554703999913
-0.005508174838709677,-0.0951301676078338
-0.005507834838709677,-0.09387945241315079
-0.005507494838709677,-0.08848162894141326
-0.005507154838709677,-0.08565106297452135
-0.005506814838709677,-0.08357750883598042
-0.005506474838709677,-0.08147104113969258
-0.005506134838709677,-0.07887087007708257
-0.005505794838709677,-0.07916709209687239
-0.005505454838709677,-0.07850882094178246
-0.005505114838709677,-0.06935885188601557
-0.005504774838709677,-0.0668245079389012
-0.005504434838709677,-0.05941895744413933
-0.005504094838709677,-0.06307236235489516
-0.005503754838709677,-0.06461929956935157
-0.005503414838709677,-0.06034053706126693
-0.005503074838709677,-0.05833281003823895
-0.005502734838709677,-0.05629216945745533
-0.005502394838709677,-0.05569972541787438
-0.005502054838709677,-0.05388947974137374
-0.005501714838709677,-0.05175009848732633
-0.005501374838709677,-0.05109182733223638
-0.005501034838709677,-0.05017024771510879
-0.005500694838709677,-0.04720802751719649
-0.005500354838709677,-0.04602313943803459
-0.005500014838709677,-0.04460785645458863
-0.005499674838709678,-0.04016452615773151
-0.005499334838709677,-0.03799223134592265
-0.005498994838709677,-0.0370377381710405
-0.005498654838709678,-0.03456922133945321
-0.005498314838709677,-0.03266023498968441
-0.005497974838709677,-0.03249566720091162
-0.005497634838709678,-0.03292354345172008
-0.005497294838709677,-0.03272606210519352
-0.005496954838709677,-0.02969801479177427
-0.005496614838709678,-0.03009297748482823
-0.005496274838709677,-0.02818399113506464
-0.005495934838709677,-0.02897391652117401
-0.005495594838709678,-0.02874352161689253
-0.005495254838709677,-0.02867769450138299
-0.005494914838709677,-0.03009297748482895
-0.005494574838709678,-0.023543179491684
-0.005494234838709677,-0.02137088467987132
-0.005493894838709677,-0.01919858986807055
-0.005493554838709678,-0.02061387285151393
-0.005493214838709677,-0.0222266371814898
-0.005492874838709677,-0.01985686102316169
-0.005492534838709678,-0.01909984919480825
-0.005492194838709677,-0.01745417130707902
-0.005491854838709677,-0.01804661534666105
-0.005491514838709678,-0.01830992380869703
-0.005491174838709677,-0.01824409669318839
-0.005490834838709677,-0.01768456621136092
-0.005490494838709678,-0.01857323227073396
-0.005490154838709677,-0.01590723409261484
-0.005489814838709677,-0.0150185680332418
-0.005489474838709677,-0.01617054255465129
-0.005489134838709677,-0.01498565447548724
-0.005488794838709677,-0.01360328504979584
-0.005488454838709677,-0.01472234601345078
-0.005488114838709677,-0.01570975274608678
-0.005487774838709677,-0.01531479005303281
-0.005487434838709677,-0.01590723409261484
-0.005487094838709677,-0.01561101207282215
-0.005486754838709677,-0.01468943245569622
-0.005486414838709677,-0.01472234601345078
-0.005486074838709677,-0.01449195110916637
-0.005485734838709677,-0.01310958168347748
-0.005485394838709677,-0.01416281553162331
-0.005485054838709677,-0.0155122713995632
-0.005484714838709677,-0.01719086284504256
-0.005484374838709677,-0.009357436099457973
-0.005484034838709677,-0.009324522541698747
-0.005483694838709677,-0.006757265036847961
-0.005483354838709677,-0.006098993881756819
-0.005483014838709677,-0.0108056326406537
-0.005482674838709677,-0.008172548020293918
-0.005482334838709677,-0.006164820997265934
-0.005481994838709677,-0.006954746383375304
-0.005481654838709677,-0.006954746383375304
-0.005481314838709677,-0.005210327822383777
-0.005480974838709677,-0.005704031188697703
-0.005480634838709677,-0.003268427914864908
-0.005480294838709677,-0.001688577142646167
-0.005479954838709677,-0.003663390607917019
-0.005479614838709677,-0.002248107624473638
-0.005479274838709677,-0.003564649934655922
-0.005478934838709678,-0.004058353300973381
-0.005478594838709677,-0.005506549842174791
-0.005478254838709677,-0.005078673591365549
-0.005477914838709678,-0.005868598977473482
-0.005477574838709677,-0.006921832825620747
-0.005477234838709677,-0.006559783690320619
-0.005476894838709678,-0.007152227729901569
-0.005476554838709677,-0.007283881960920875
-0.005476214838709677,-0.007580103980711889
-0.005475874838709678,-0.007185141287657922
-0.005475534838709677,-0.008238375135803031
-0.005475194838709677,-0.007415536191939104
-0.005474854838709678,-0.007349709076430109
-0.005474514838709677,-0.008962473406403288
-0.005474174838709677,-0.01146390379574963
-0.005473834838709678,-0.003334255030388811
-0.005473494838709677,-0.002544329644264652
-0.005473154838709677,-0.007218054845411761
-0.005472814838709678,-0.00507867359136944
-0.005472474838709677,-0.003663390607919593
-0.005472134838709677,-0.003202600799355794
-0.005471794838709678,-0.003202600799355794
-0.005471454838709677,-0.002379761855491866
-0.005471114838709677,-0.0003062077169547683
-0.005470774838709678,0.0001874956493626902
-0.005470434838709677,-0.002281021182228195
-0.005470094838709677,-0.002741810990791994
-0.005469754838709678,-0.002972205895073894
-0.005469414838709677,-0.00586859897747492
-0.005469074838709677,-0.006790178594602518
-0.005468734838709677,-0.007645931096221003
-0.005468394838709677,-0.006921832825620747
-0.005468054838709677,-0.00767884465397556
-0.005467714838709677,-0.005341982053402005
-0.005467374838709677,-0.005210327822383777
-0.005467034838709677,-0.006724351479093405
-0.005466694838709677,-0.005045760033610991
-0.005466354838709677,-0.005243241380137676
-0.005466014838709677,-0.004881192244838206
-0.005465674838709677,-0.005374895611156563
-0.005465334838709677,-0.004914105802595697
-0.005464994838709677,-0.006526870132566062
-0.005464654838709677,-0.005835685419720362
-0.005464314838709677,-0.004749538013827102
-0.005463974838709677,-0.008666251386612273
-0.005463634838709677,-0.002741810990791994
-0.005463294838709677,-0.00320260079935316
-0.005462954838709677,-0.001754404258155281
-0.005462614838709677,-0.004091266858728836
-0.005462274838709677,-0.006757265036847722
-0.005461934838709677,-0.006625610805829733
-0.005461594838709677,-0.002873465221810222
-0.005461254838709677,-0.003959612627712224
-0.005460914838709677,-0.004848278687083649
-0.005460574838709677,-0.004354575320765292
-0.005460234838709677,-0.00320260079935741
-0.005459894838709677,-0.004091266858728836
-0.005459554838709677,-0.006395215901547833
-0.005459214838709677,-0.005440722726667293
-0.005458874838709677,-0.006329388786038719
-0.005458534838709677,-0.006757265036847961
-0.005458194838709677,-0.005572376957670795
-0.005457854838709677,0.001635692190564101
-0.005457514838709677,-0.006592697248075176
-0.005457174838709678,-0.005045760033613805
-0.005456834838709677,-0.004025439743219721
-0.005456494838709677,-0.004124180416483393
-0.005456154838709678,-0.002741810990794509
-0.005455814838709677,-0.002741810990791994
-0.005455474838709677,-0.002643070317528323
-0.005455134838709678,-0.002972205895073295
-0.005454794838709677,-0.001326528007346039
-0.005454454838709677,-0.002215194066719081
-0.005454114838709678,-0.003729217723425954
-0.005453774838709677,-0.006790178594602518
-0.005453434838709677,-0.003301341472619465
-0.005453094838709678,-0.001820231373667089
-0.005452754838709677,-0.001227787334082367
-0.005452414838709677,0.000417890553645488
-0.005452074838709678,-0.004288748205247617
-0.005451734838709677,-0.002873465221810222
-0.005451394838709677,-0.001161960218573253
-0.005451054838709678,-0.00405835330096901
-0.005450714838709677,-0.00415709397423795
-0.005450374838709677,-0.005341982053402005
-0.005450034838709678,-0.006493956574809409
-0.005449694838709677,-0.005934426092984033
-0.005449354838709677,-0.007316795518675433
-0.005449014838709678,-0.008337115809064845
-0.005448674838709677,-0.006493956574811504
-0.005448334838709677,-0.006000253208493148
-0.005447994838709678,-0.008402942924575817
-0.005447654838709677,-0.008238375135803031
-0.005447314838709677,-0.007481363307448217
-0.005446974838709677,-0.006954746383375304
-0.005446634838709677,-0.007415536191939104
-0.005446294838709677,-0.006362302343793276
-0.005445954838709677,-0.006296475228284162
-0.005445614838709677,-0.005407809168908964
-0.005445274838709677,-0.004222921089747064
-0.005444934838709677,-0.004979932918101878
-0.005444594838709677,-0.005111587149115735
-0.005444254838709677,-0.002708897433037437
-0.005443914838709677,-0.002741810990791994
-0.005443574838709677,-0.005144500706879632
-0.005443234838709677,-0.007876326000502903
-0.005442894838709677,-0.000207467043691097
-0.005442554838709677,0.0008457668044580831
-0.005442214838709677,0.002688926038709928
-0.005441874838709677,0.0003191498803818167
-0.005441534838709677,-0.005341982053398353
-0.005441194838709677,-0.003334255030374022
-0.005440854838709677,-0.003005119452828451
-0.005440514838709677,-0.005901512535230794
-0.005440174838709677,-0.006625610805829733
-0.005439834838709677,-0.005243241380138334
-0.005439494838709677,-0.00550654984217509
-0.005439154838709677,-0.005671117630947577
-0.005438814838709677,-0.004881192244838206
-0.005438474838709677,-0.00494701936034726
-0.005438134838709677,-0.004914105802592763
-0.005437794838709677,-0.004848278687083649
-0.005437454838709677,-0.006921832825620508
-0.005437114838709677,-0.006790178594602518
-0.005436774838709677,-0.006362302343793276
-0.005436434838709678,-0.005736944746457829
-0.005436094838709677,-0.005309068495647449
-0.005435754838709677,-0.003400082145883136
-0.005435414838709678,-0.002774724548547689
-0.005435074838709677,-0.002741810990791994
-0.005434734838709677,-0.0004378619479729968
-0.005434394838709678,0.0003520634381349369
-0.005434054838709677,-0.0002403806014456541
-0.005433714838709677,0.00176734642158233
-0.005433374838709678,0.002326876903408783
-0.005433034838709677,-0.001721490700400724
-0.005432694838709677,0.0009774210354729588
-0.005432354838709678,0.003083888731760782
-0.005432014838709677,0.001997741325864229
-0.005431674838709677,-0.000832824641027682
-0.005431334838709678,-0.006790178594591682
-0.005430994838709677,-0.01047649706311291
-0.005430654838709677,-0.00767884465397556
-0.005430314838709678,-0.006888919267867627
-0.005429974838709677,-0.00962074456149443
-0.005429634838709677,-0.008402942924575817
-0.005429294838709678,-0.006625610805832966
-0.005428954838709677,-0.006559783690320619
-0.005428614838709677,-0.007152227729902647
-0.005428274838709678,-0.00507867359136932
-0.005427934838709677,-0.005967339650738591
-0.005427594838709677,-0.006164820997265934
-0.005427254838709678,-0.005671117630947577
-0.005426914838709677,-0.006362302343793276
-0.005426574838709677,-0.006856005710111633
-0.005426234838709677,-0.005934426092984033
-0.005425894838709677,-0.006000253208493148
-0.005425554838709677,-0.007053487056638975
-0.005425214838709677,-0.006164820997265934
-0.005424874838709677,-0.005802771861965805
-0.005424534838709677,-0.00665852436358429
-0.005424194838709677,-0.004716624456065421
-0.005423854838709677,-0.004815365129329092
-0.005423514838709677,-0.004815365129329092
-0.005423174838709677,-0.004025439743219721
-0.005422834838709677,-0.005177414264637183
-0.005422494838709677,-0.009554917445985316
-0.005422154838709677,-0.002939292337319337
-0.005421814838709677,-0.002017712720191259
-0.005421474838709677,-0.001754404258155281
-0.005421134838709677,-0.00244558897100098
-0.005420794838709677,-0.004881192244837428
-0.005420454838709677,-0.004453315994028964
-0.005420114838709677,-0.00142526868060971
-0.005419774838709677,-0.001425268680611327
-0.005419434838709677,-0.002313934739982752
-0.005419094838709677,-0.002149366951209966
-0.005418754838709677,-0.001425268680608812
-0.005418414838709677,-0.0009315653142913533
-0.005418074838709677,-0.002412675413246423
-0.005417734838709677,-4.289925492112533e-05
