Analysis/files/cmb03_d2s01/wrd02_ch13.csv

#Digilent WaveForms Oscilloscope Acquisition
#Device Name: ADP3450
#Serial Number: SN:210018B9D9B0
#Date Time: 2024-08-09 12:00:35.669.584.950
#Sample rate: 2.94118e+06Hz
#Samples: 32768
#Trigger: Source: Channel 3 Type: Edge Condition: Rising Level: 20 mV Hyst.: Auto HoldOff: 0 s
#Channel 3: Range: 200 mV/div Offset: 0 V Attenuation: 1 X Coupling: DC Bandwidth: 0 Hz Sample Mode: Average

Time (s),Channel 3 (V)
-0.005570482327586207,0.004861220850510698
-0.005570142327586207,0.005684059794376242
-0.005569802327586207,0.006572725853747667
-0.005569462327586207,0.00677020720027501
-0.005569122327586207,0.00446625815745218
-0.005568782327586207,0.002359790461164357
-0.005568442327586207,0.004005468348892213
-0.005568102327586207,0.008152576625957369
-0.005567762327586207,0.003182629405028285
-0.005567422327586207,-0.001458182238364267
-0.005567082327586207,0.001076161708740282
-0.005566742327586207,0.003083888731764614
-0.005566402327586207,0.001569865075054987
-0.005566062327586207,0.0001545820916057384
-0.005565722327586207,-0.00165566358489161
-0.005565382327586207,-0.00188605848917351
-0.005565042327586207,-0.002708897433041927
-0.005564702327586207,-0.00517741426462922
-0.005564362327586207,-0.00619773455502049
-0.005564022327586206,-0.004486229551785018
-0.005563682327586207,-0.005309068495647449
-0.005563342327586207,-0.004617883782801749
-0.005563002327586207,-0.003959612627711804
-0.005562662327586207,-0.003465909261392251
-0.005562322327586207,-0.003992526185465165
-0.005561982327586207,-0.001951885604686336
-0.005561642327586207,0.001043248150982073
-0.005561302327586207,-0.0009315653142913533
-0.005560962327586207,-0.002939292337315685
-0.005560622327586207,-0.003893785512201493
-0.005560282327586207,-0.00494701936034732
-0.005559942327586207,-0.005868598977473243
-0.005559602327586207,-0.00665852436358429
-0.005559262327586207,-0.01021318860107646
-0.005558922327586207,-0.01366911216529867
-0.005558582327586207,-0.009752398792512659
-0.005558242327586207,-0.00837002936682126
-0.005557902327586207,-0.007382622634186342
-0.005557562327586207,-0.004782451571574535
-0.005557222327586207,-0.007547190422957332
-0.005556882327586207,-0.008896646290891718
-0.005556542327586207,-0.005276154937892892
-0.005556202327586207,-0.006461043017056948
-0.005555862327586207,-0.00738262263418287
-0.005555522327586207,-0.006066080324002262
-0.005555182327586207,-0.009028300521912402
-0.005554842327586207,-0.01001570725454732
-0.005554502327586207,-0.008962473406403288
-0.005554162327586207,-0.00790923955825746
-0.005553822327586207,-0.008863732733139616
-0.005553482327586207,-0.008435856482330374
-0.005553142327586207,-0.00939034965721253
-0.005552802327586207,-0.009884053023530886
-0.005552462327586207,-0.007975066673766575
-0.005552122327586207,-0.008435856482330374
-0.005551782327586207,-0.01031192927434013
-0.005551442327586207,-0.009456176772720865
-0.005551102327586207,-0.009028300521912402
-0.005550762327586207,-0.0106410648518857
-0.005550422327586207,-0.01159555802676804
-0.005550082327586207,-0.01169429870003153
-0.005549742327586207,-0.01245131052838634
-0.005549402327586207,-0.01330706303000105
-0.005549062327586207,-0.01123350889146773
-0.005548722327586207,-0.01416281553162331
-0.005548382327586207,-0.01590723409260047
-0.005548042327586207,-0.008007980231521132
-0.005547702327586207,-0.008106720904784802
-0.005547362327586207,-0.005967339650739369
-0.005547022327586207,-0.006395215901547833
-0.005546682327586207,-0.01152973091125874
-0.005546342327586207,-0.01222091562410133
-0.005546002327586207,-0.01050941062086747
-0.005545662327586207,-0.01320832235674115
-0.005545322327586207,-0.01393242062733692
-0.005544982327586207,-0.01146390379574963
-0.005544642327586207,-0.01139807668024051
-0.005544302327586207,-0.01274753254817514
-0.005543962327586207,-0.01152973091125874
-0.005543622327586207,-0.01080563264065849
-0.005543282327586206,-0.01189178004655947
-0.005542942327586207,-0.01222091562410444
-0.005542602327586207,-0.01166138514227697
-0.005542262327586207,-0.01291210033694786
-0.005541922327586207,-0.01149681735350419
-0.005541582327586207,-0.01120059533371317
-0.005541242327586207,-0.01268170543266555
-0.005540902327586207,-0.01251713764389546
-0.005540562327586207,-0.01129933600697684
-0.005540222327586207,-0.01261587831715673
-0.005539882327586207,-0.01278044610593191
-0.005539542327586207,-0.012253829181859
-0.005539202327586207,-0.01409698841611084
-0.005538862327586207,-0.01442612399365977
-0.005538522327586207,-0.01307666812572293
-0.005538182327586207,-0.0181453560199155
-0.005537842327586207,-0.01646676457444231
-0.005537502327586207,-0.01126642244922228
-0.005537162327586207,-0.01097020042943181
-0.005536822327586207,-0.01008153437005823
-0.005536482327586207,-0.01152973091125874
-0.005536142327586207,-0.01505148159098995
-0.005535802327586207,-0.0129450138947047
-0.005535462327586207,-0.0106410648518857
-0.005535122327586207,-0.01176012581553861
-0.005534782327586207,-0.01238548341287723
-0.005534442327586207,-0.01199052071982254
-0.005534102327586207,-0.01225382918185852
-0.005533762327586207,-0.01370202572305951
-0.005533422327586207,-0.01307666812572293
-0.005533082327586207,-0.01304375456796837
-0.005532742327586207,-0.01505148159099635
-0.005532402327586207,-0.01462360534018711
-0.005532062327586207,-0.01343871726102305
-0.005531722327586207,-0.01393242062734141
-0.005531382327586207,-0.01403116130060508
-0.005531042327586207,-0.01238548341287723
-0.005530702327586207,-0.01429446976264154
-0.005530362327586207,-0.01459069178243255
-0.005530022327586207,-0.01373493928081407
-0.005529682327586207,-0.01459069178243531
-0.005529342327586207,-0.01610471543914218
-0.005529002327586207,-0.01482108668671445
-0.005528662327586207,-0.01482108668671362
-0.005528322327586207,-0.01436029687815065
-0.005527982327586207,-0.01370202572305951
-0.005527642327586207,-0.01870488650174411
-0.005527302327586207,-0.01426155620488698
-0.005526962327586207,-0.01103602754494038
-0.005526622327586207,-0.0108714597561685
-0.005526282327586207,-0.01136516312248596
-0.005525942327586207,-0.01383367995407774
-0.005525602327586207,-0.0130108410102089
-0.005525262327586207,-0.01031192927434013
-0.005524922327586207,-0.009094127637421515
-0.005524582327586207,-0.009028300521912282
-0.005524242327586207,-0.008962473406403288
-0.005523902327586207,-0.0101802750433219
-0.005523562327586207,-0.008929559848655736
-0.005523222327586207,-0.01278044610593191
-0.005522882327586207,-0.01459069178243255
-0.005522542327586207,-0.01867197294401853
-0.005522202327586207,-0.03015880460033806
-0.005521862327586207,-0.04694471905516219
-0.005521522327586206,-0.06613332322611647
-0.005521182327586207,-0.09223377452543277
-0.005520842327586207,-0.122612988332889
-0.005520502327586207,-0.1489767480942413
-0.005520162327586207,-0.1788622585354271
-0.005519822327586207,-0.2023296252144263
-0.005519482327586207,-0.2190826261114654
-0.005519142327586207,-0.2294833103619359
-0.005518802327586207,-0.2357039727775472
-0.005518462327586207,-0.2298124459394922
-0.005518122327586207,-0.2306023713255909
-0.005517782327586207,-0.2270806206458532
-0.005517442327586207,-0.2193459345735464
-0.005517102327586207,-0.2162849737023585
-0.005516762327586207,-0.2033499455048176
-0.005516422327586207,-0.1967672339539181
-0.005516082327586207,-0.1908427935580859
-0.005515742327586207,-0.1890325478815852
-0.005515402327586207,-0.19199476807949
-0.005515062327586207,-0.1888350665350579
-0.005514722327586207,-0.1860703276836751
-0.005514382327586207,-0.1854120565285851
-0.005514042327586207,-0.1847208718157382
-0.005513702327586207,-0.1818903058488463
-0.005513362327586207,-0.1795863568060315
-0.005513022327586207,-0.175373421413444
-0.005512682327586207,-0.1708971775588243
-0.005512342327586207,-0.1663551065886954
-0.005512002327586207,-0.1608914560014389
-0.005511662327586207,-0.1559544223382553
-0.005511322327586207,-0.1503262039622261
-0.005510982327586207,-0.143644751738051
-0.005510642327586207,-0.1395963841342404
-0.005510302327586207,-0.1374570028801942
-0.005509962327586207,-0.1321908336394651
-0.005509622327586207,-0.1245548882404078
-0.005509282327586207,-0.1215268409269886
-0.005508942327586207,-0.1183342258247901
-0.005508602327586207,-0.1147795615873044
-0.005508262327586207,-0.1115211193696032
-0.005507922327586207,-0.1084930720561769
-0.005507582327586207,-0.1046092722411462
-0.005507242327586207,-0.1028319401224002
-0.005506902327586207,-0.1025028045448426
-0.005506562327586207,-0.09592009299394316
-0.005506222327586207,-0.089765257693841
-0.005505882327586207,-0.08756004932427758
-0.005505542327586207,-0.08311671902742046
-0.005505202327586207,-0.0853877545124849
-0.005504862327586207,-0.08390664441351935
-0.005504522327586207,-0.07814677180648233
-0.005504182327586207,-0.07587573632141789
-0.005503842327586207,-0.07528329228182898
-0.005503502327586207,-0.07149823314006179
-0.005503162327586207,-0.06981964169457938
-0.005502822327586207,-0.06945759255927422
-0.005502482327586207,-0.06669285370789646
-0.005502142327586207,-0.06379646062549543
-0.005501802327586207,-0.06303944879713742
-0.005501462327586207,-0.06129503023614909
-0.005501122327586207,-0.05783910667192059
-0.005500782327586206,-0.05612760166867584
-0.005500442327586207,-0.0518488391605912
-0.005500102327586207,-0.0493144952134903
-0.005499762327586207,-0.04984111213756226
-0.005499422327586207,-0.04868913761615372
-0.005499082327586207,-0.04694471905516219
-0.005498742327586207,-0.04727385463270716
-0.005498402327586207,-0.04809669357657169
-0.005498062327586207,-0.04733968174821687
-0.005497722327586207,-0.04720802751719889
-0.005497382327586207,-0.04638518857333472
-0.005497042327586207,-0.04378501751072471
-0.005496702327586207,-0.04315965991338926
-0.005496362327586207,-0.0465497563621075
-0.005496022327586207,-0.04177729048769672
-0.005495682327586207,-0.03624781278494119
-0.005495342327586207,-0.03605033143840378
-0.005495002327586207,-0.03216653162336605
-0.005494662327586207,-0.03473378912821683
-0.005494322327586207,-0.0368073432667586
-0.005493982327586207,-0.03256149431642073
-0.005493642327586207,-0.03025754527360593
-0.005493302327586207,-0.03121203844848389
-0.005492962327586207,-0.0289080894056649
-0.005492622327586207,-0.02785485555752098
-0.005492282327586207,-0.02795359623078274
-0.005491942327586207,-0.02742697930670982
-0.005491602327586207,-0.02614335055428443
-0.005491262327586207,-0.02680162170937324
-0.005490922327586207,-0.02693327594039147
-0.005490582327586207,-0.02462932689757247
-0.005490242327586207,-0.0256825607457183
-0.005489902327586207,-0.0261433505542821
-0.005489562327586207,-0.02489263535960893
-0.005489222327586207,-0.02699910305590058
-0.005488882327586207,-0.02828273180832831
-0.005488542327586207,-0.02640665901631855
-0.005488202327586207,-0.02676870815162144
-0.005487862327586207,-0.02828273180832831
-0.005487522327586207,-0.02607752343877298
-0.005487182327586207,-0.02574838786122891
-0.005486842327586207,-0.02657122680509134
-0.005486502327586207,-0.024069796415745
-0.005486162327586207,-0.02584712853449911
-0.005485822327586207,-0.03025754527360174
-0.005485482327586207,-0.0213050575643622
-0.005485142327586207,-0.02087718131356296
-0.005484802327586207,-0.026373745458564
-0.005484462327586207,-0.02492554891736349
-0.005484122327586207,-0.02156836602640076
-0.005483782327586207,-0.02272034054780816
-0.005483442327586207,-0.02163419314190777
-0.005483102327586207,-0.01909984919480796
-0.005482762327586207,-0.0196922932343889
-0.005482422327586207,-0.01860614582848852
-0.005482082327586207,-0.01676298659423626
-0.005481742327586207,-0.01837575092420662
-0.005481402327586207,-0.01821118313543383
-0.005481062327586207,-0.01676298659423494
-0.005480722327586207,-0.01765165265360636
-0.005480382327586207,-0.01834283736645206
-0.005480042327586206,-0.01883654073276886
-0.005479702327586207,-0.01798078823115194
-0.005479362327586207,-0.02071261352478018
-0.005479022327586207,-0.02058095929376218
-0.005478682327586207,-0.01857323227073396
-0.005478342327586207,-0.01847449159747029
-0.005478002327586207,-0.01738834419157188
-0.005477662327586207,-0.01564392563057838
-0.005477322327586207,-0.01646676457444231
-0.005476982327586207,-0.01570975274608887
-0.005476642327586207,-0.01478817312895989
-0.005476302327586207,-0.01827701025094295
-0.005475962327586207,-0.01798078823115247
-0.005475622327586207,-0.01603888832363307
-0.005475282327586207,-0.01798078823115194
-0.005474942327586207,-0.02091009487130219
-0.005474602327586207,-0.01979103390765257
-0.005474262327586207,-0.01952772544561612
-0.005473922327586207,-0.01956063900337062
-0.005473582327586207,-0.01659841880546054
-0.005473242327586207,-0.01686172726749699
-0.005472902327586207,-0.01610471543914356
-0.005472562327586207,-0.01399824774285052
-0.005472222327586207,-0.01373493928081407
-0.005471882327586207,-0.01360328504979608
-0.005471542327586207,-0.01241839697063178
-0.005471202327586207,-0.01333997658775938
-0.005470862327586207,-0.01617054255464614
-0.005470522327586207,-0.01590723409261484
-0.005470182327586207,-0.01403116130060508
-0.005469842327586207,-0.0152489629375237
-0.005469502327586207,-0.0115626444690133
-0.005469162327586207,-0.0129450138947047
-0.005468822327586207,-0.01699338149851522
-0.005468482327586207,-0.01215508850859533
-0.005468142327586207,-0.00869916494436683
-0.005467802327586207,-0.01067397840964026
-0.005467462327586207,-0.01166138514227697
-0.005467122327586207,-0.01106894110269494
-0.005466782327586207,-0.01176012581554064
-0.005466442327586207,-0.01195760716206673
-0.005466102327586207,-0.01126642244922228
-0.005465762327586207,-0.01406407485835964
-0.005465422327586207,-0.01324123591449272
-0.005465082327586207,-0.01159555802676786
-0.005464742327586207,-0.01228674273961356
-0.005464402327586207,-0.01347163081877611
-0.005464062327586207,-0.01264879187491368
-0.005463722327586207,-0.01238548341287723
-0.005463382327586207,-0.01314249524123246
-0.005463042327586207,-0.01337289014551394
-0.005462702327586207,-0.01491982735997812
-0.005462362327586207,-0.01455777822467746
-0.005462022327586207,-0.01426155620488698
-0.005461682327586207,-0.01422864264713243
-0.005461342327586207,-0.01633511034342127
-0.005461002327586207,-0.01478817312895989
-0.005460662327586207,-0.0140969884161142
-0.005460322327586207,-0.02005434236967688
-0.005459982327586207,-0.01337289014551394
-0.005459642327586207,-0.009719485234758102
-0.005459302327586207,-0.008370029366816112
-0.005458962327586207,-0.005539463399929348
-0.005458622327586207,-0.007185141287657204
-0.005458282327586206,-0.01034484283209127
-0.005457942327586207,-0.008468770040084931
-0.005457602327586207,-0.00688891926786619
-0.005457262327586207,-0.00952200388822597
-0.005456922327586207,-0.01037775638984924
-0.005456582327586207,-0.01050941062086747
-0.005456242327586207,-0.01120059533371191
-0.005455902327586207,-0.01238548341287723
-0.005455562327586207,-0.01205634783533165
-0.005455222327586207,-0.01347163081877504
-0.005454882327586207,-0.01531479005303281
-0.005454542327586207,-0.01307666812572293
-0.005454202327586207,-0.01445903755141181
-0.005453862327586207,-0.01544644428405104
-0.005453522327586207,-0.0150185680332418
-0.005453182327586207,-0.01462360534018783
-0.005452842327586207,-0.01468943245569622
-0.005452502327586207,-0.01291210033695014
-0.005452162327586207,-0.01251713764389617
-0.005451822327586207,-0.01406407485835964
-0.005451482327586207,-0.01287918677919558
-0.005451142327586207,-0.0114309902379977
-0.005450802327586207,-0.0136361986075504
-0.005450462327586207,-0.01307666812572293
-0.005450122327586207,-0.01330706303000441
-0.005449782327586207,-0.01636802390117864
-0.005449442327586207,-0.009752398792512659
-0.005449102327586207,-0.008238375135805786
-0.005448762327586207,-0.007942153116012016
-0.005448422327586207,-0.009653658119248986
-0.005448082327586207,-0.01169429870003153
-0.005447742327586207,-0.01172721225778608
-0.005447402327586207,-0.01054232417862203
-0.005447062327586207,-0.01097020042943127
-0.005446722327586207,-0.01274753254817735
-0.005446382327586207,-0.01238548341287723
-0.005446042327586207,-0.0129450138947047
-0.005445702327586207,-0.0123854834128783
-0.005445362327586207,-0.01297792745245925
-0.005445022327586207,-0.01182595293104976
-0.005444682327586207,-0.01212217495084412
-0.005444342327586207,-0.01396533418509597
-0.005444002327586207,-0.01373493928081407
-0.005443662327586207,-0.01231965629736997
-0.005443322327586207,-0.01333997658775938
-0.005442982327586207,-0.0129450138947047
-0.005442642327586207,-0.01241839697063322
-0.005442302327586207,-0.01320832235674115
-0.005441962327586207,-0.0140969884161142
-0.005441622327586207,-0.01327414947225302
-0.005441282327586207,-0.01478817312895989
-0.005440942327586207,-0.01320832235674115
-0.005440602327586207,-0.01080563264065842
-0.005440262327586207,-0.01077271908290393
-0.005439922327586207,-0.01120059533371317
-0.005439582327586207,-0.01373493928081167
-0.005439242327586207,-0.01241839697063178
-0.005438902327586207,-0.009916966581285444
-0.005438562327586207,-0.009357436099457734
-0.005438222327586207,-0.009225781868439744
-0.005437882327586207,-0.01541353072629648
-0.005437542327586206,-0.01580849341934931
-0.005437202327586207,-0.01478817312895989
-0.005436862327586207,-0.01468943245569622
-0.005436522327586207,-0.01531479005303167
-0.005436182327586207,-0.01304375456796837
-0.005435842327586207,-0.01449195110916888
-0.005435502327586207,-0.01347163081877947
-0.005435162327586207,-0.01251713764389546
-0.005434822327586207,-0.01297792745245925
-0.005434482327586207,-0.01103602754494392
-0.005434142327586207,-0.01004862081230367
-0.005433802327586207,-0.008732078502121389
-0.005433462327586207,-0.009094127637420856
-0.005433122327586207,-0.007580103980711889
-0.005432782327586207,-0.008337115809066702
-0.005432442327586207,-0.003696304165682592
-0.005432102327586207,-0.009192868310685188
-0.005431762327586207,-0.01281335966368647
-0.005431422327586207,-0.01396533418509387
-0.005431082327586207,-0.01373493928081407
-0.005430742327586207,-0.01380076639632318
-0.005430402327586207,-0.0160059747658745
-0.005430062327586207,-0.01373493928081407
-0.005429722327586207,-0.01416281553162331
-0.005429382327586207,-0.01491982735997675
-0.005429042327586207,-0.01840866448196118
-0.005428702327586207,-0.012253829181859
-0.005428362327586207,-0.01090437331392461
-0.005428022327586207,-0.009324522541703417
-0.005427682327586207,-0.008732078502121389
-0.005427342327586207,-0.01452486466692344
-0.005427002327586207,-0.0129450138947047
-0.005426662327586207,-0.01037775638984924
-0.005426322327586207,-0.01182595293104976
-0.005425982327586207,-0.0129450138947047
-0.005425642327586207,-0.01176012581554064
-0.005425302327586207,-0.01255005120165001
-0.005424962327586207,-0.01274753254817735
-0.005424622327586207,-0.01218800206634988
-0.005424282327586207,-0.01235256985512267
-0.005423942327586207,-0.01304375456796622
-0.005423602327586207,-0.01185886648880431
-0.005423262327586207,-0.01208926139308621
-0.005422922327586207,-0.01301084101021214
-0.005422582327586207,-0.01208926139308621
-0.005422242327586207,-0.01185886648880431
-0.005421902327586207,-0.01166138514227458
-0.005421562327586207,-0.01034484283209469
-0.005421222327586207,-0.01205634783533165
-0.005420882327586207,-0.01129933600697672
-0.005420542327586207,-0.01123350889146773
-0.005420202327586207,-0.01097020042943127
-0.005419862327586207,-0.0134387172610227
-0.005419522327586207,-0.01324123591449571
-0.005419182327586207,-0.01245131052838634
-0.005418842327586207,-0.01422864264713668
-0.005418502327586207,-0.01656550524770598
-0.005418162327586207,-0.009225781868439744
-0.005417822327586207,-0.01031192927433798
-0.005417482327586207,-0.009127041195176074
-0.005417142327586207,-0.009851139465776329
-0.005416802327586207,-0.01587432053485741
-0.005416462327586207,-0.01429446976264154
-0.005416122327586207,-0.01189178004655887
-0.005415782327586206,-0.01350454437653307
