Analysis/files/cmb03_d2s01/wrd05_ch22.csv

#Digilent WaveForms Oscilloscope Acquisition
#Device Name: ADP3450
#Serial Number: SN:210018B9D9B0
#Date Time: 2024-08-09 15:45:50.246.746.910
#Sample rate: 2.94118e+06Hz
#Samples: 32768
#Trigger: Source: Channel 3 Type: Edge Condition: Rising Level: 20 mV Hyst.: Auto HoldOff: 0 s
#Channel 3: Range: 200 mV/div Offset: 0 V Attenuation: 1 X Coupling: DC Bandwidth: 0 Hz Sample Mode: Average

Time (s),Channel 3 (V)
-0.005570222796052632,0.02128508617003469
-0.005569882796052632,0.0176645948170297
-0.005569542796052632,0.01562395423625087
-0.005569202796052632,0.01608474404481467
-0.005568862796052632,0.01384662211749718
-0.005568522796052632,0.009666600282676035
-0.005568182796052632,0.009633686724921478
-0.005567842796052632,0.008810847781056593
-0.005567502796052632,0.008284230856984636
-0.005567162796052632,0.008185490183720966
-0.005566822796052632,0.007527219028627668
-0.005566482796052632,0.006342330949465767
-0.005566142796052632,0.006803120758029567
-0.005565802796052632,0.007461391913116697
-0.005565462796052632,0.005256183543565383
-0.005565122796052632,0.006013195371920196
-0.005564782796052632,0.005848627583147231
-0.005564442796052632,0.00574988690988374
-0.005564102796052632,0.006967688546802352
-0.005563762796052632,0.008053835952701359
-0.005563422796052632,0.007296824124347924
-0.005563082796052632,0.008152576625966409
-0.005562742796052633,0.009962822302463757
-0.005562402796052632,0.007593046144138938
-0.005562062796052632,0.007230997008838809
-0.005561722796052633,0.006868947873539339
-0.005561382796052632,0.006342330949465767
-0.005561042796052632,0.00403838190664677
-0.005560702796052632,0.009469118936138814
-0.005560362796052632,0.006704380084765896
-0.005560022796052632,0.007625959701893495
-0.005559682796052632,0.008646279992282908
-0.005559342796052632,0.001207815939754859
-0.005559002796052632,0.00130655661301853
-0.005558662796052632,0.004137122579905292
-0.005558322796052632,0.003314283636046514
-0.005557982796052632,0.001174902382000301
-0.005557642796052632,0.002688926038707174
-0.005557302796052632,0.0025572718076917
-0.005556962796052632,0.0009445074777184018
-0.005556622796052632,0.0006482854579279267
-0.005556282796052632,0.003149715847273728
-0.005555942796052632,0.001800259979336887
-0.005555602796052632,0.001767346421582389
-0.005555262796052632,0.002952234500746385
-0.005554922796052632,0.001339470170773087
-0.005554582796052632,0.002162309114635518
-0.005554242796052632,0.002754753154219042
-0.005553902796052632,0.002096481999127901
-0.005553562796052632,0.001141988824245744
-0.005553222796052632,0.001931914210355115
-0.005552882796052632,0.0008128532467001733
-0.005552542796052632,-0.0001087263704274257
-0.005552202796052632,0.001043248150982073
-0.005551862796052632,0.001109075266491187
-0.005551522796052632,0.002721839596464486
-0.005551182796052632,0.001668605748310935
-0.005550842796052632,-0.002577243202019209
-0.005550502796052632,0.002656012480955371
-0.005550162796052632,0.004433344599700737
-0.005549822796052632,0.00403838190664677
-0.005549482796052632,0.0006482854579273878
-0.005549142796052632,-0.002379761855490549
-0.005548802796052632,-0.00165566358489161
-0.005548462796052632,0.000417890553645488
-0.005548122796052632,0.0002862363226281576
-0.005547782796052632,0.0007799396889456162
-0.005547442796052632,-0.0001416399281819828
-0.005547102796052632,8.875497610117421e-05
-0.005546762796052632,0.0007799396889456162
-0.005546422796052632,-0.001030305987555025
-0.005546082796052632,-0.0006353432945001597
-0.005545742796052632,-0.0005366026212366681
-0.005545402796052632,-0.0007999110832731249
-0.005545062796052632,-0.001820231373660983
-0.005544722796052632,5.584141834535986e-05
-0.005544382796052632,-0.001096133103064139
-0.005544042796052632,-0.0009644788720431565
-0.005543702796052632,0.0005495447846637165
-0.005543362796052632,-0.001161960218573253
-0.005543022796052632,-0.001820231373661761
-0.005542682796052632,-0.0003720348324638825
-0.005542342796052632,-0.0007340839677640107
-0.005542002796052633,0.0005166312269068843
-0.005541662796052632,0.002030654883618786
-0.005541322796052632,0.002293963345655243
-0.005540982796052633,0.00114198882424784
-0.005540642796052632,-0.0007999110832731249
-0.005540302796052632,-0.004815365129329092
-0.005539962796052633,0.0005166312268994602
-0.005539622796052632,0.000417890553645488
-0.005539282796052632,0.0008786803622092876
-0.005538942796052632,-0.001622750027132502
-0.005538602796052632,-0.006098993881756819
-0.005538262796052632,-0.00267598387528288
-0.005537922796052632,-0.002972205895073355
-0.005537582796052632,-0.004190007531992507
-0.005537242796052632,-0.005309068495647449
-0.005536902796052632,-0.003795044838940576
-0.005536562796052632,-0.004453315994028964
-0.005536222796052632,-0.0007011704100094536
-0.005535882796052632,-0.001491095796117387
-0.005535542796052632,-0.001161960218573253
-0.005535202796052632,0.0002204092071181454
-0.005534862796052632,2.292786059116198e-05
-0.005534522796052632,-0.0006353432945003394
-0.005534182796052632,0.0007799396889456162
-0.005533842796052632,0.007790527490653528
-0.005533502796052632,-0.001161960218573253
-0.005533162796052632,-0.0006353432945003394
-0.005532822796052632,0.001997741325864229
-0.005532482796052632,0.001174902382000301
-0.005532142796052632,0.001602778632809544
-0.005531802796052632,0.001372383728527644
-0.005531462796052632,2.292786059080275e-05
-0.005531122796052632,-0.0007011704100094536
-0.005530782796052632,-0.000832824641027682
-0.005530442796052632,-0.002412675413246423
-0.005530102796052632,-0.006724351479093405
-0.005529762796052632,-9.985697163754359e-06
-0.005529422796052632,0.001405297286285255
-0.005529082796052632,0.003083888731764614
-0.005528742796052632,0.003972554791137656
-0.005528402796052632,-0.000898651756537874
-0.005528062796052632,-0.001491095796118824
-0.005527722796052632,0.002919320942991828
-0.005527382796052632,0.0006811990156770356
-0.005527042796052632,-0.002017712720191738
-0.005526702796052632,0.0001874956493635883
-0.005526362796052632,0.0002204092071162296
-0.005526022796052632,-0.000832824641027682
-0.005525682796052632,-0.0008657381987822392
-0.005525342796052632,-0.001161960218573253
-0.005525002796052632,-0.001161960218573253
-0.005524662796052632,-0.000207467043691097
-0.005524322796052632,-0.0003062077169572828
-0.005523982796052632,-0.001688577142646167
-0.005523642796052632,0.000417890553645488
-0.005523302796052632,0.001240729497506901
-0.005522962796052632,-0.0001416399281819828
-0.005522622796052632,-0.00244558897100098
-0.005522282796052632,-0.007909239558278294
-0.005521942796052632,-0.01936315765684333
-0.005521602796052632,-0.03641238057370391
-0.005521262796052632,-0.06330275725923162
-0.005520922796052632,-0.09328700837357859
-0.005520582796052632,-0.123501654392262
-0.005520242796052633,-0.1545391393547529
-0.005519902796052632,-0.1889996343238307
-0.005519562796052632,-0.2180952193788591
-0.005519222796052633,-0.2308327662298496
-0.005518882796052632,-0.2460059163547236
-0.005518542796052632,-0.2553533667570178
-0.005518202796052632,-0.2627918308095342
-0.005517862796052632,-0.2661490137005125
-0.005517522796052632,-0.2611132393640653
-0.005517182796052632,-0.2544317871399023
-0.005516842796052632,-0.2483427789552971
-0.005516502796052632,-0.2429449554835498
-0.005516162796052632,-0.2328404932529191
-0.005515822796052632,-0.2248095851607888
-0.005515482796052632,-0.2170748990884679
-0.005515142796052632,-0.2095706079204425
-0.005514802796052632,-0.2019017489636171
-0.005514462796052632,-0.1950886425084237
-0.005514122796052632,-0.1886375851885423
-0.005513782796052632,-0.1787306043044088
-0.005513442796052632,-0.1742543604497891
-0.005513102796052632,-0.1671450319748177
-0.005512762796052632,-0.1604635797506297
-0.005512422796052632,-0.156053163011519
-0.005512082796052632,-0.1524326716585177
-0.005511742796052632,-0.1469031939557521
-0.005511402796052632,-0.1420978145235868
-0.005511062796052632,-0.1360088063389937
-0.005510722796052632,-0.1295906625768551
-0.005510382796052632,-0.1255752085307991
-0.005510042796052632,-0.1185317071713239
-0.005509702796052632,-0.1118831685049034
-0.005509362796052632,-0.1115211193696032
-0.005509022796052632,-0.1046092722411462
-0.005508682796052632,-0.09489977270354472
-0.005508342796052632,-0.09095014577300503
-0.005508002796052632,-0.0882183204793768
-0.005507662796052632,-0.0887449374034502
-0.005507322796052632,-0.08900824586548617
-0.005506982796052632,-0.08433452066433905
-0.005506642796052632,-0.08064820219582435
-0.005506302796052632,-0.07827842603750054
-0.005505962796052632,-0.0775543277669003
-0.005505622796052632,-0.072716034776974
-0.005505282796052632,-0.06919428409724279
-0.005504942796052632,-0.06695616216993291
-0.005504602796052632,-0.06287488100836268
-0.005504262796052632,-0.06004431504147592
-0.005503922796052632,-0.05783910667192059
-0.005503582796052632,-0.05718083551682478
-0.005503242796052632,-0.05461357801197399
-0.005502902796052632,-0.05497562714727412
-0.005502562796052632,-0.05556807118685436
-0.005502222796052632,-0.05458066445421944
-0.005501882796052632,-0.05435026954993754
-0.005501542796052632,-0.05316538147077036
-0.005501202796052632,-0.05145387646753651
-0.005500862796052632,-0.04898535963594473
-0.005500522796052632,-0.04934740877123827
-0.005500182796052632,-0.04572691741824358
-0.005499842796052632,-0.04339005481767002
-0.005499502796052633,-0.04204059894973564
-0.005499162796052632,-0.04177729048769672
-0.005498822796052632,-0.04019743971547798
-0.005498482796052633,-0.03266023498969812
-0.005498142796052632,-0.03009297748482895
-0.005497802796052632,-0.02495846247511804
-0.005497462796052633,-0.02722949796017835
-0.005497122796052632,-0.0289080894056649
-0.005496782796052632,-0.02439893199329057
-0.005496442796052632,-0.02216081006598476
-0.005496102796052632,-0.02459641333981791
-0.005495762796052632,-0.02278616766331727
-0.005495422796052632,-0.02212789650822733
-0.005495082796052632,-0.0199226881386708
-0.005494742796052632,-0.01656550524770598
-0.005494402796052632,-0.01692755438300545
-0.005494062796052632,-0.01863905938624308
-0.005493722796052632,-0.01620345611240585
-0.005493382796052632,-0.01745417130707675
-0.005493042796052632,-0.01840866448196118
-0.005492702796052632,-0.01742125774932446
-0.005492362796052632,-0.0170262950562705
-0.005492022796052632,-0.01778330688462459
-0.005491682796052632,-0.01656550524770598
-0.005491342796052632,-0.01656550524770598
-0.005491002796052632,-0.01788204755788826
-0.005490662796052632,-0.01613762899689674
-0.005490322796052632,-0.014557778224678
-0.005489982796052632,-0.00767884465397556
-0.005489642796052632,-0.01281335966368647
-0.005489302796052632,-0.01189178004655887
-0.005488962796052632,-0.01080563264065849
-0.005488622796052632,-0.01301084101021381
-0.005488282796052632,-0.01241839697063178
-0.005487942796052632,-0.007119314172148449
-0.005487602796052632,-0.007316795518675433
-0.005487262796052632,-0.00540780916891112
-0.005486922796052632,-0.00925869542619957
-0.005486582796052632,-0.01215508850859533
-0.005486242796052632,-0.008666251386612273
-0.005485902796052632,-0.007283881960922133
-0.005485562796052632,-0.007975066673766575
-0.005485222796052632,-0.005539463399929348
-0.005484882796052632,-0.004683710898310325
-0.005484542796052632,-0.00438748887851985
-0.005484202796052632,-0.003235514357110351
-0.005483862796052632,-0.002906378779570647
-0.005483522796052632,-0.006131907439511376
-0.005483182796052632,-0.006230648112775047
-0.005482842796052632,-0.005012846475857272
-0.005482502796052632,-0.005473636284420234
-0.005482162796052632,-0.005704031188702134
-0.005481822796052632,-0.006066080324002262
-0.005481482796052632,-0.006066080324002262
-0.005481142796052632,-0.00494701936034732
-0.005480802796052632,-0.005111587149123578
-0.005480462796052632,-0.007020573498884419
-0.005480122796052632,-0.006954746383375304
-0.005479782796052632,-0.005276154937891634
-0.005479442796052632,-0.004584970225047193
-0.005479102796052632,-0.006625610805829733
-0.005478762796052633,-0.005506549842176827
-0.005478422796052632,-0.007250968403166318
-0.005478082796052632,-0.008797905617630502
-0.005477742796052633,-0.0003062077169702134
-0.005477402796052632,-0.001260700891836924
-0.005477062796052632,-0.001063219545309582
-0.005476722796052633,-0.00155692291162704
-0.005476382796052632,-0.005144500706874663
-0.005476042796052632,-0.003038033010583008
-0.005475702796052632,-0.00158983646938513
-0.005475362796052632,-0.00267598387528288
-0.005475022796052632,-0.004255834647501621
-0.005474682796052632,-0.002643070317531256
-0.005474342796052632,-0.00313677368384668
-0.005474002796052632,-0.006230648112775047
-0.005473662796052632,-0.005769858304212086
-0.005473322796052632,-0.005473636284420234
-0.005472982796052632,-0.00711931417214809
-0.005472642796052632,-0.007382622634184067
-0.005472302796052632,-0.006164820997265934
-0.005471962796052632,-0.00665852436358429
-0.005471622796052632,-0.005671117630949373
-0.005471282796052632,-0.005144500706874663
-0.005470942796052632,-0.004914105802592763
-0.005470602796052632,-0.00471662445606578
-0.005470262796052632,-0.002149366951209966
-0.005469922796052632,-0.003531736376901365
-0.005469582796052632,-0.003038033010583008
-0.005469242796052632,-0.001556922911627938
-0.005468902796052632,-0.0006353432945003394
-0.005468562796052632,-0.001754404258155281
-0.005468222796052632,-0.001556922911627938
-0.005467882796052632,-0.003992526185465165
-0.005467542796052632,-0.006164820997265934
-0.005467202796052632,0.0005824583424182735
-0.005466862796052632,0.00130655661301853
-0.005466522796052632,0.002886407385237271
-0.005466182796052632,0.001438210844031729
-0.005465842796052632,-0.001326528007346039
-0.005465502796052632,-9.985697163754359e-06
-0.005465162796052632,0.000253322764871086
-0.005464822796052632,-0.0006353432945003394
-0.005464482796052632,-0.005341982053402005
-0.005464142796052632,-0.005177414264629639
-0.005463802796052632,-0.00540780916891112
-0.005463462796052632,-0.007185141287657204
-0.005463122796052632,-0.006362302343792019
-0.005462782796052632,-0.005671117630947577
-0.005462442796052632,-0.004848278687083649
-0.005462102796052632,-0.005341982053396139
-0.005461762796052632,-0.002116453393455409
-0.005461422796052632,-0.002643070317528323
-0.005461082796052632,-0.002412675413242053
-0.005460742796052632,-9.985697163754359e-06
-0.005460402796052632,-4.289925491831147e-05
-0.005460062796052632,0.0006482854579280464
-0.005459722796052632,0.001010334593227516
-0.005459382796052632,0.00107616170873663
-0.005459042796052632,-9.985697162257623e-06
-0.005458702796052632,0.0008128532467001733
-0.005458362796052632,5.584141834535986e-05
-0.005458022796052632,-0.001096133103066114
-0.005457682796052632,-0.002182280508964523
-0.005457342796052632,-0.003301341472619465
-0.005457002796052633,0.005223269985795318
-0.005456662796052632,0.005782800467638296
-0.005456322796052632,0.007922181721684508
-0.005455982796052633,0.004992875081534254
-0.005455642796052632,0.001931914210355115
-0.005455302796052632,0.002754753154219042
-0.005454962796052632,0.001964827768111109
-0.005454622796052632,-0.0004707755057275538
-0.005454282796052632,-0.00119487377632781
-0.005453942796052632,-0.000339121274710882
-0.005453602796052632,-0.001721490700400724
-0.005453262796052632,-0.001524009353873381
-0.005452922796052632,-0.002281021182226818
-0.005452582796052632,-0.002346848297737309
-0.005452242796052632,-0.001984799162437181
-0.005451902796052632,-0.00152400935387422
-0.005451562796052632,-0.001984799162437181
-0.005451222796052632,-0.0007340839677640107
-0.005450882796052632,-0.001688577142644431
-0.005450542796052632,-0.002972205895073894
-0.005450202796052632,-0.001491095796118824
-0.005449862796052632,-0.002215194066717763
-0.005449522796052632,-0.004255834647501621
-0.005449182796052632,-0.00392669906995605
-0.005448842796052632,-0.002116453393458702
-0.005448502796052632,-0.003597563492410479
-0.005448162796052632,-0.002873465221810222
-0.005447822796052632,-0.002149366951209966
-0.005447482796052632,-0.002610156759773766
-0.005447142796052632,-0.006395215901547833
-0.005446802796052632,-0.003795044838937822
-0.005446462796052632,0.002293963345655243
-0.005446122796052632,0.004005468348892213
-0.005445782796052632,-0.006263561670529605
-0.005445442796052632,-0.004881192244837967
-0.005445102796052632,-0.004749538013819977
-0.005444762796052632,-0.005835685419720362
-0.005444422796052632,-0.005967339650737394
-0.005444082796052632,-0.005309068495647449
-0.005443742796052632,-0.004255834647501621
-0.005443402796052632,-0.004420402436274886
-0.005443062796052632,-0.004683710898310864
-0.005442722796052632,-0.002215194066719081
-0.005442382796052632,-0.001721490700402101
-0.005442042796052632,-0.002478502528755537
-0.005441702796052632,-0.001063219545309582
-0.005441362796052632,0.0004508041113993267
-0.005441022796052632,5.584141834535986e-05
-0.005440682796052632,0.001174902382000301
-0.005440342796052632,0.001306556613017333
-0.005440002796052632,0.0006482854579273878
-0.005439662796052632,0.001438210844036758
-0.005439322796052632,0.001602778632809005
-0.005438982796052632,0.00130655661301853
-0.005438642796052632,0.001240729497509416
-0.005438302796052632,0.002524358249936963
-0.005437962796052632,0.002425617576673472
-0.005437622796052632,0.002656012480955371
-0.005437282796052632,0.003281370078292196
-0.005436942796052632,0.003413024309310185
-0.005436602796052632,0.001438210844036758
-0.005436262796052633,-0.001622750027131484
-0.005435922796052632,-0.00267598387528288
-0.005435582796052632,-0.001063219545309582
-0.005435242796052633,-0.0005695161789921233
-0.005434902796052632,0.0005166312269091594
-0.005434562796052632,-0.00392669906995605
-0.005434222796052633,-0.004650797340554989
-0.005433882796052632,-0.001820231373664395
-0.005433542796052632,-0.002050626277946295
-0.005433202796052632,-0.002873465221808726
-0.005432862796052632,-0.001820231373664395
-0.005432522796052632,-0.00119487377632781
-0.005432182796052632,-0.001853144931417755
-0.005431842796052632,-0.001918972046928067
-0.005431502796052632,-0.00313677368384668
-0.005431162796052632,-0.002675983875283718
-0.005430822796052632,-0.00188605848917351
-0.005430482796052632,-0.003564649934655922
-0.005430142796052632,-0.003367168588128939
-0.005429802796052632,-0.002215194066719081
-0.005429462796052632,-0.001556922911627938
-0.005429122796052632,-0.001096133103064977
-0.005428782796052632,0.001833173537091444
-0.005428442796052632,0.001339470170773087
-0.005428102796052632,0.002886407385234457
-0.005427762796052632,0.003840900560119427
-0.005427422796052632,0.002359790461164357
-0.005427082796052632,0.0025572718076917
-0.005426742796052632,0.001207815939754859
-0.005426402796052632,0.0003849769958909309
-0.005426062796052632,-0.002346848297737309
-0.005425722796052632,-0.006724351479093405
-0.005425382796052632,-0.0006353432945003394
-0.005425042796052632,-0.0003062077169547683
-0.005424702796052632,0.0007799396889456162
-0.005424362796052632,0.0003520634381363738
-0.005424022796052632,-0.005111587149120106
-0.005423682796052632,-0.00507867359136058
-0.005423342796052632,-0.002346848297737309
-0.005423002796052632,-0.004255834647501621
-0.005422662796052632,-0.004321661763008101
-0.005422322796052632,-0.002873465221810222
-0.005421982796052632,-0.003400082145883136
-0.005421642796052632,-0.00293929233731802
-0.005421302796052632,-0.002215194066719081
-0.005420962796052632,-0.002840551664055666
-0.005420622796052632,-0.003169687241599261
-0.005420282796052632,-0.002083539835700852
-0.005419942796052632,-0.003597563492410479
-0.005419602796052632,-0.003893785512196225
-0.005419262796052632,-0.0009973924298004675
-0.005418922796052632,0.0003849769958909309
-0.005418582796052632,-0.001194873776327092
-0.005418242796052632,-0.0007999110832731249
-0.005417902796052632,-0.0006682568522548965
-0.005417562796052632,-0.002346848297738028
-0.005417222796052632,-0.002741810990791994
