Analysis/files/cmb03_d2s01/wrd02_ch04.csv

#Digilent WaveForms Oscilloscope Acquisition
#Device Name: ADP3450
#Serial Number: SN:210018B9D9B0
#Date Time: 2024-08-09 11:56:35.342.339.840
#Sample rate: 2.94118e+06Hz
#Samples: 32768
#Trigger: Source: Channel 3 Type: Edge Condition: Rising Level: 20 mV Hyst.: Auto HoldOff: 0 s
#Channel 3: Range: 200 mV/div Offset: 0 V Attenuation: 1 X Coupling: DC Bandwidth: 0 Hz Sample Mode: Average

Time (s),Channel 3 (V)
-0.005570302702702703,0.008975415569830336
-0.005569962702702703,0.006243590276202635
-0.005569622702702703,0.00653981229599311
-0.005569282702702703,0.004795393735001583
-0.005568942702702703,0.002985148058503936
-0.005568602702702703,0.004630825946228797
-0.005568262702702703,0.002261049787900686
-0.005567922702702703,0.000747026131189742
-0.005567582702702703,2.292786059080275e-05
-0.005567242702702703,-0.001161960218573253
-0.005566902702702703,-0.0042558346475021
-0.005566562702702703,-0.004519143109538078
-0.005566222702702703,-0.006428129459302391
-0.005565882702702703,-0.007744671769481083
-0.005565542702702703,-0.005769858304211248
-0.005565202702702703,-0.005605290515438462
-0.005564862702702703,-0.00488119224483641
-0.005564522702702703,-0.003893785512201493
-0.005564182702702703,-0.002643070317528323
-0.005563842702702703,-0.005210327822383538
-0.005563502702702703,-0.005078673591365549
-0.005563162702702703,0.0023268769034098
-0.005562822702702704,0.00601319537191349
-0.005562482702702703,-0.001293614449591481
-0.005562142702702703,-0.00369630416567415
-0.005561802702702704,-0.009390349657202172
-0.005561462702702703,-0.009949880139040001
-0.005561122702702703,-0.007645931096221003
-0.005560782702702704,-0.00922578186843687
-0.005560442702702703,-0.009324522541703417
-0.005560102702702703,-0.006757265036847961
-0.005559762702702704,-0.005638204073195055
-0.005559422702702703,-0.005605290515438462
-0.005559082702702703,-0.004124180416483393
-0.005558742702702704,-0.004617883782800852
-0.005558402702702703,-0.005901512535229476
-0.005558062702702703,-0.005967339650738591
-0.005557722702702704,-0.006658524363583032
-0.005557382702702703,-0.008896646290894173
-0.005557042702702703,-0.01080563264065849
-0.005556702702702703,-0.01037775638985002
-0.005556362702702703,-0.01376785283856862
-0.005556022702702703,-0.01373493928081407
-0.005555682702702703,-0.01271461899042465
-0.005555342702702703,-0.01314249524123204
-0.005555002702702703,-0.01255005120165001
-0.005554662702702703,-0.01192469360431457
-0.005554322702702703,-0.01011444792781279
-0.005553982702702703,-0.008402942924575817
-0.005553642702702703,-0.006066080324002262
-0.005553302702702703,-0.009719485234758102
-0.005552962702702703,-0.01093728687167671
-0.005552622702702703,-0.004881192244838206
-0.005552282702702703,-0.006823092152357076
-0.005551942702702703,-0.007185141287657204
-0.005551602702702703,-0.01044358350535836
-0.005551262702702703,-0.0146894324556964
-0.005550922702702703,-0.01478817312895989
-0.005550582702702703,-0.01123350889146773
-0.005550242702702703,-0.01228674273961751
-0.005549902702702703,-0.01445903755141432
-0.005549562702702703,-0.0117930393732952
-0.005549222702702703,-0.01004862081230361
-0.005548882702702703,-0.01001570725454911
-0.005548542702702703,-0.009818225908021772
-0.005548202702702703,-0.008699164944369104
-0.005547862702702703,-0.009949880139040001
-0.005547522702702703,-0.008172548020293918
-0.005547182702702703,-0.008699164944369824
-0.005546842702702703,-0.01034484283209469
-0.005546502702702703,-0.009192868310685188
-0.005546162702702703,-0.008304202251313701
-0.005545822702702703,-0.009159954752930631
-0.005545482702702703,-0.009752398792512659
-0.005545142702702703,-0.009225781868439564
-0.005544802702702703,-0.009127041195176074
-0.005544462702702703,-0.009916966581285444
-0.005544122702702703,-0.009686571677007913
-0.005543782702702703,-0.01208926139308621
-0.005543442702702703,-0.01251713764389546
-0.005543102702702703,-0.01320832235675007
-0.005542762702702703,-0.01811244246217016
-0.005542422702702703,-0.01380076639632318
-0.005542082702702704,-0.01110185466045441
-0.005541742702702703,-0.009456176772721644
-0.005541402702702703,-0.01090437331392216
-0.005541062702702704,-0.01465651889793484
-0.005540722702702703,-0.01287918677919558
-0.005540382702702703,-0.01083854619841304
-0.005540042702702704,-0.009884053023532622
-0.005539702702702703,-0.01011444792781279
-0.005539362702702703,-0.01073980552514937
-0.005539022702702704,-0.01011444792781393
-0.005538682702702703,-0.009587831003739873
-0.005538342702702703,-0.01162847158452241
-0.005538002702702704,-0.01248422408613934
-0.005537662702702703,-0.01120059533371317
-0.005537322702702703,-0.01251713764389546
-0.005536982702702704,-0.01307666812572191
-0.005536642702702703,-0.0115626444690133
-0.005536302702702703,-0.01268170543266824
-0.005535962702702703,-0.0119576071620693
-0.005535622702702703,-0.01090437331392216
-0.005535282702702703,-0.009587831003739873
-0.005534942702702703,-0.01087145975616526
-0.005534602702702703,-0.0104106699476038
-0.005534262702702703,-0.0104106699476038
-0.005533922702702703,-0.01136516312248422
-0.005533582702702703,-0.01077271908290393
-0.005533242702702703,-0.01185886648880431
-0.005532902702702703,-0.01287918677919558
-0.005532562702702703,-0.01310958168347748
-0.005532222702702703,-0.01584140697710572
-0.005531882702702703,-0.009061214079666959
-0.005531542702702703,-0.008534597155594046
-0.005531202702702703,-0.01287918677919558
-0.005530862702702703,-0.01383367995407774
-0.005530522702702703,-0.01103602754494038
-0.005530182702702703,-0.01228674273961356
-0.005529842702702703,-0.01264879187491368
-0.005529502702702703,-0.01202343427757572
-0.005529162702702703,-0.01126642244922228
-0.005528822702702703,-0.0111018546604495
-0.005528482702702703,-0.01054232417862023
-0.005528142702702703,-0.009554917445985316
-0.005527802702702703,-0.01077271908290393
-0.005527462702702703,-0.01245131052838424
-0.005527122702702703,-0.01129933600697684
-0.005526782702702703,-0.0124842240861409
-0.005526442702702703,-0.01347163081877576
-0.005526102702702703,-0.01245131052838634
-0.005525762702702703,-0.01152973091125874
-0.005525422702702703,-0.01136516312248416
-0.005525082702702703,-0.01037775638984924
-0.005524742702702703,-0.01008153437005823
-0.005524402702702703,-0.0117272122577868
-0.005524062702702703,-0.01212217495084077
-0.005523722702702703,-0.01255005120165001
-0.005523382702702703,-0.0135703714920423
-0.005523042702702703,-0.01412990197386875
-0.005522702702702703,-0.01649967813219686
-0.005522362702702703,-0.02268742699007803
-0.005522022702702703,-0.0361161585539129
-0.005521682702702703,-0.05263876454670057
-0.005521342702702703,-0.07696188372737496
-0.005521002702702703,-0.1081310229208839
-0.005520662702702703,-0.1363050283587847
-0.005520322702702704,-0.1716212758293603
-0.005519982702702703,-0.2015726133860715
-0.005519642702702703,-0.2185230956296684
-0.005519302702702704,-0.2334658508502102
-0.005518962702702703,-0.2418588080776494
-0.005518622702702703,-0.2408055742295035
-0.005518282702702704,-0.23580271345082
-0.005517942702702703,-0.2290883476688812
-0.005517602702702703,-0.2180293922633501
-0.005517262702702704,-0.2022308845411913
-0.005516922702702703,-0.2044690064684725
-0.005516582702702703,-0.1964380983763606
-0.005516242702702704,-0.1921593358682759
-0.005515902702702703,-0.1913694104821588
-0.005515562702702703,-0.1895591648056582
-0.005515222702702703,-0.1895591648056582
-0.005514882702702703,-0.1913694104821588
-0.005514542702702703,-0.1899541274987128
-0.005514202702702703,-0.1885388445152694
-0.005513862702702703,-0.1872881293205937
-0.005513522702702703,-0.1820548736376191
-0.005513182702702703,-0.1769203586279176
-0.005512842702702703,-0.1724112012155339
-0.005512502702702703,-0.1673754268790867
-0.005512162702702703,-0.1604306661928751
-0.005511822702702703,-0.1565797799355919
-0.005511482702702703,-0.1564810392623283
-0.005511142702702703,-0.1434801839492782
-0.005510802702702703,-0.1400900875005588
-0.005510462702702703,-0.1366012503785758
-0.005510122702702703,-0.1335073759496474
-0.005509782702702703,-0.1339023386427021
-0.005509442702702703,-0.1306768099827555
-0.005509102702702703,-0.1249498509334625
-0.005508762702702703,-0.1217901493890168
-0.005508422702702703,-0.1172809919766507
-0.005508082702702703,-0.1108628482145121
-0.005507742702702703,-0.1065840857064137
-0.005507402702702703,-0.1033256434887185
-0.005507062702702703,-0.09815821492125304
-0.005506722702702703,-0.0913121949083032
-0.005506382702702703,-0.09022604750240479
-0.005506042702702703,-0.08825123403713137
-0.005505702702702703,-0.0856839765322731
-0.005505362702702703,-0.08413703931781172
-0.005505022702702703,-0.08278758344987489
-0.005504682702702703,-0.08143812758193875
-0.005504342702702703,-0.08183309027499272
-0.005504002702702703,-0.07989119036747386
-0.005503662702702703,-0.07551368718611548
-0.005503322702702703,-0.07426297199144458
-0.005502982702702703,-0.07143240602455267
-0.005502642702702703,-0.06866766717316533
-0.005502302702702703,-0.06616623678382355
-0.005501962702702703,-0.06412559620304101
-0.005501622702702703,-0.06086715398533991
-0.005501282702702703,-0.0609000675430944
-0.005500942702702703,-0.06198621494899479
-0.005500602702702703,-0.05109182733223645
-0.005500262702702703,-0.05112474088999094
-0.005499922702702703,-0.04924866809798119
-0.005499582702702704,-0.04974237146429865
-0.005499242702702703,-0.05128930867876372
-0.005498902702702703,-0.04855748338513548
-0.005498562702702704,-0.04661558347762015
-0.005498222702702703,-0.04529904116743434
-0.005497882702702703,-0.04427872087704306
-0.005497542702702704,-0.04121776000587482
-0.005497202702702703,-0.03917711942508671
-0.005496862702702703,-0.03970373634915963
-0.005496522702702704,-0.03904546519406969
-0.005496182702702703,-0.0379593177881681
-0.005495842702702703,-0.03881507028978658
-0.005495502702702704,-0.03891381096305008
-0.005495162702702703,-0.03868341605876836
-0.005494822702702703,-0.03684025682451315
-0.005494482702702704,-0.03466796201271634
-0.005494142702702703,-0.03200196383459326
-0.005493802702702703,-0.03006006392707439
-0.005493462702702703,-0.0299613232538109
-0.005493122702702703,-0.02759154709548261
-0.005492782702702703,-0.0289080894056649
-0.005492442702702703,-0.02999423681156331
-0.005492102702702703,-0.03104747065971111
-0.005491762702702703,-0.03216653162336605
-0.005491422702702703,-0.03285771633621049
-0.005491082702702703,-0.03233109941213883
-0.005490742702702703,-0.03591867720738556
-0.005490402702702703,-0.02999423681156528
-0.005490062702702703,-0.02492554891736349
-0.005489722702702703,-0.02272034054780816
-0.005489382702702703,-0.02202915583496246
-0.005489042702702703,-0.02597878276550931
-0.005488702702702703,-0.02446475910879968
-0.005488362702702703,-0.02347735237616297
-0.005488022702702703,-0.02436601843553033
-0.005487682702702703,-0.02123923044885309
-0.005487342702702703,-0.0219962422772079
-0.005487002702702703,-0.02252285920127938
-0.005486662702702703,-0.02173293381517144
-0.005486322702702703,-0.0222266371814898
-0.005485982702702703,-0.02393814218472827
-0.005485642702702703,-0.0247609811285907
-0.005485302702702703,-0.02492554891736349
-0.005484962702702703,-0.02564964718795919
-0.005484622702702703,-0.0231482167986174
-0.005484282702702703,-0.02160127958415322
-0.005483942702702703,-0.02100883554456676
-0.005483602702702703,-0.01857323227073396
-0.005483262702702703,-0.01791496111564282
-0.005482922702702703,-0.01850740515522257
-0.005482582702702703,-0.01725668996055168
-0.005482242702702703,-0.01801370178890649
-0.005481902702702703,-0.01982394746540779
-0.005481562702702703,-0.02018599660070726
-0.005481222702702703,-0.01916567631031599
-0.005480882702702703,-0.01982394746540959
-0.005480542702702703,-0.02117340333334397
-0.005480202702702703,-0.02321404391412651
-0.005479862702702703,-0.01626928322791155
-0.005479522702702703,-0.01439321043590521
-0.005479182702702703,-0.01228674273961356
-0.005478842702702704,-0.01419572908937439
-0.005478502702702703,-0.01870488650175219
-0.005478162702702703,-0.0152489629375237
-0.005477822702702704,-0.01538061716854168
-0.005477482702702703,-0.01485400024446901
-0.005477142702702703,-0.01465651889794167
-0.005476802702702704,-0.01370202572306125
-0.005476462702702703,-0.01482108668671445
-0.005476122702702703,-0.01360328504979584
-0.005475782702702704,-0.01110185466045405
-0.005475442702702703,-0.0115626444690133
-0.005475102702702703,-0.0111018546604495
-0.005474762702702704,-0.009752398792515113
-0.005474422702702703,-0.01060815129413114
-0.005474082702702703,-0.01037775638984924
-0.005473742702702704,-0.01008153437005877
-0.005473402702702703,-0.01149681735350419
-0.005473062702702703,-0.01287918677919558
-0.005472722702702703,-0.01307666812572257
-0.005472382702702703,-0.01485400024446901
-0.005472042702702703,-0.01491982735997812
-0.005471702702702703,-0.008797905617641637
-0.005471362702702703,-0.01811244246217016
-0.005471022702702703,-0.01893528140603409
-0.005470682702702703,-0.01738834419157272
-0.005470342702702703,-0.01686172726749699
-0.005470002702702703,-0.01844157803971573
-0.005469662702702703,-0.01794787467339738
-0.005469322702702703,-0.01057523773637659
-0.005468982702702703,-0.008732078502121389
-0.005468642702702703,-0.003893785512201493
-0.005468302702702703,-0.006428129459302391
-0.005467962702702703,-0.01073980552514937
-0.005467622702702703,-0.007481363307448217
-0.005467282702702703,-0.007777585327239231
-0.005466942702702703,-0.01116768177595861
-0.005466602702702703,-0.01261587831715913
-0.005466262702702703,-0.01330706303000758
-0.005465922702702703,-0.01482108668671445
-0.005465582702702703,-0.01505148159099635
-0.005465242702702703,-0.01580849341935661
-0.005464902702702703,-0.01880362717501586
-0.005464562702702703,-0.01722377640279712
-0.005464222702702703,-0.0158743205348616
-0.005463882702702703,-0.01659841880546054
-0.005463542702702703,-0.01676298659423332
-0.005463202702702703,-0.01478817312896121
-0.005462862702702703,-0.01551227139956015
-0.005462522702702703,-0.01468943245569622
-0.005462182702702703,-0.01310958168347958
-0.005461842702702703,-0.01426155620488698
-0.005461502702702703,-0.01393242062734141
-0.005461162702702703,-0.01182595293104946
-0.005460822702702703,-0.01166138514227697
-0.005460482702702703,-0.0113322495647314
-0.005460142702702703,-0.009785312350267396
-0.005459802702702703,-0.009884053023530886
-0.005459462702702703,-0.01399824774285052
-0.005459122702702703,-0.006592697248074697
-0.005458782702702703,-0.006329388786038719
-0.005458442702702703,-0.006395215901547833
-0.005458102702702703,-0.006230648112784566
-0.005457762702702703,-0.01146390379574963
-0.005457422702702703,-0.01403116130060508
-0.005457082702702704,-0.01347163081877863
-0.005456742702702703,-0.01222091562410444
-0.005456402702702703,-0.0140969884161142
-0.005456062702702704,-0.01373493928081473
-0.005455722702702703,-0.01222091562410444
-0.005455382702702703,-0.01215508850859533
-0.005455042702702704,-0.01110185466045142
-0.005454702702702703,-0.009719485234758102
-0.005454362702702703,-0.01106894110269494
-0.005454022702702704,-0.01120059533371293
-0.005453682702702703,-0.01021318860107646
-0.005453342702702703,-0.01011444792781279
-0.005453002702702704,-0.01087145975616622
-0.005452662702702703,-0.009653658119248986
-0.005452322702702703,-0.01008153437005823
-0.005451982702702703,-0.01031192927433971
-0.005451642702702703,-0.00962074456149443
-0.005451302702702703,-0.01149681735350419
-0.005450962702702703,-0.01337289014551053
-0.005450622702702703,-0.01228674273961356
-0.005450282702702703,-0.01238548341287723
-0.005449942702702703,-0.01383367995407511
-0.005449602702702703,-0.01343871726102305
-0.005449262702702703,-0.01268170543266824
-0.005448922702702703,-0.01837575092419626
-0.005448582702702703,-0.01106894110269494
-0.005448242702702703,-0.0106410648518857
-0.005447902702702703,-0.01123350889146773
-0.005447562702702703,-0.01077271908290393
-0.005447222702702703,-0.01383367995407774
-0.005446882702702703,-0.01393242062734141
-0.005446542702702703,-0.01126642244922228
-0.005446202702702703,-0.009489090330476201
-0.005445862702702703,-0.01215508850859533
-0.005445522702702703,-0.01176012581553944
-0.005445182702702703,-0.0111018546604495
-0.005444842702702703,-0.01245131052838634
-0.005444502702702703,-0.01261587831715787
-0.005444162702702703,-0.01192469360431343
-0.005443822702702703,-0.01278044610593191
-0.005443482702702703,-0.01429446976264172
-0.005443142702702703,-0.01439321043590521
-0.005442802702702703,-0.0138665935118323
-0.005442462702702703,-0.01495274091773322
-0.005442122702702703,-0.0152489629375237
-0.005441782702702703,-0.01534770361078737
-0.005441442702702703,-0.01577557986159481
-0.005441102702702703,-0.01478817312895989
-0.005440762702702703,-0.01373493928081407
-0.005440422702702703,-0.01291210033694763
-0.005440082702702703,-0.01152973091125874
-0.005439742702702703,-0.01113476821820406
-0.005439402702702703,-0.01139807668024111
-0.005439062702702703,-0.01172721225778608
-0.005438722702702703,-0.0134058037032685
-0.005438382702702703,-0.01587432053484938
-0.005438042702702703,-0.009884053023530886
-0.005437702702702703,-0.009225781868439744
-0.005437362702702703,-0.008007980231529993
-0.005437022702702703,-0.01287918677919558
-0.005436682702702703,-0.0138665935118323
-0.005436342702702704,-0.01162847158452648
-0.005436002702702703,-0.01182595293104976
-0.005435662702702703,-0.01090437331392216
-0.005435322702702704,-0.01133224956473062
-0.005434982702702703,-0.01011444792781279
-0.005434642702702703,-0.008402942924575817
-0.005434302702702704,-0.008501683597839307
-0.005433962702702703,-0.008468770040084931
-0.005433622702702703,-0.00860042427110316
-0.005433282702702704,-0.009522003888229083
-0.005432942702702703,-0.01241839697063178
-0.005432602702702703,-0.01129933600697684
-0.005432262702702704,-0.01172721225778531
-0.005431922702702703,-0.0131754087989866
-0.005431582702702703,-0.01261587831715913
-0.005431242702702704,-0.01073980552515278
-0.005430902702702703,-0.01050941062086747
-0.005430562702702703,-0.008633337828857716
-0.005430222702702703,-0.008435856482330733
-0.005429882702702703,-0.009192868310685188
-0.005429542702702703,-0.01097020042943127
-0.005429202702702703,-0.01014736148556884
-0.005428862702702703,-0.01195760716206798
-0.005428522702702703,-0.01301084101021381
-0.005428182702702703,-0.01712503572952597
-0.005427842702702703,-0.01268170543266824
-0.005427502702702703,-0.01044358350535836
-0.005427162702702703,-0.009159954752930631
-0.005426822702702703,-0.009324522541703417
-0.005426482702702703,-0.01498565447548724
-0.005426142702702703,-0.007613017538466446
-0.005425802702702703,-0.01350454437653217
-0.005425462702702703,-0.01722377640279712
-0.005425122702702703,-0.01649967813219686
-0.005424782702702703,-0.01577557986159661
-0.005424442702702703,-0.0159401476503694
-0.005424102702702703,-0.01468943245569622
-0.005423762702702703,-0.01248422408613952
-0.005423422702702703,-0.01172721225778608
-0.005423082702702703,-0.01083854619841304
-0.005422742702702703,-0.008402942924576415
-0.005422402702702703,-0.008732078502121389
-0.005422062702702703,-0.008929559848648731
-0.005421722702702703,-0.008304202251311246
-0.005421382702702703,-0.007810498884993789
-0.005421042702702703,-0.008995386964157845
-0.005420702702702703,-0.01050941062087262
-0.005420362702702703,-0.01333997658775938
-0.005420022702702703,-0.01452486466692344
-0.005419682702702703,-0.01623636967016436
-0.005419342702702703,-0.01840866448196118
-0.005419002702702703,-0.01867197294399764
-0.005418662702702703,-0.0147881731289593
-0.005418322702702703,-0.01445903755141432
-0.005417982702702703,-0.01725668996055168
-0.005417642702702703,-0.01531479005301832
-0.005417302702702703,-0.007349709076429989
-0.005416962702702703,-0.007218054845411761
-0.005416622702702703,-0.006625610805836798
-0.005416282702702703,-0.01050941062086747
-0.005415942702702703,-0.01518313582201458
