Analysis/files/cmb03_d2s01/wrd03_ch33.csv

#Digilent WaveForms Oscilloscope Acquisition
#Device Name: ADP3450
#Serial Number: SN:210018B9D9B0
#Date Time: 2024-08-09 12:50:17.504.613.570
#Sample rate: 2.94118e+06Hz
#Samples: 32768
#Trigger: Source: Channel 3 Type: Edge Condition: Rising Level: 20 mV Hyst.: Auto HoldOff: 0 s
#Channel 3: Range: 200 mV/div Offset: 0 V Attenuation: 1 X Coupling: DC Bandwidth: 0 Hz Sample Mode: Average

Time (s),Channel 3 (V)
-0.005570547933194155,0.01197054932549503
-0.005570207933194155,0.01118062393938482
-0.005569867933194155,0.01071983413082186
-0.005569527933194155,0.007033515662311467
-0.005569187933194155,0.006836034315788435
-0.005568847933194155,0.009205810474112236
-0.005568507933194155,0.008218403741475522
-0.005568167933194154,0.005519492005604114
-0.005567827933194155,0.00677020720027501
-0.005567487933194155,0.006046108929674754
-0.005567147933194154,0.003478851424817383
-0.005566807933194155,0.002425617576673472
-0.005566467933194155,0.004235863253174112
-0.005566127933194154,0.001306556613017512
-0.005565787933194155,0.0007470261311910591
-0.005565447933194155,0.001372383728527644
-0.005565107933194154,0.001899000652600737
-0.005564767933194155,0.001997741325864229
-0.005564427933194155,0.00130655661301853
-0.005564087933194154,-0.0001745534859423472
-0.005563747933194155,-0.00336716858812858
-0.005563407933194155,-0.002248107624473638
-0.005563067933194155,-0.003663390607917019
-0.005562727933194155,-0.004848278687083649
-0.005562387933194155,-0.003465909261392251
-0.005562047933194155,-0.003465909261392251
-0.005561707933194155,-0.003959612627710607
-0.005561367933194155,-0.004519143109538078
-0.005561027933194155,-0.006197734555017437
-0.005560687933194155,-0.008205461578048474
-0.005560347933194155,0.003215542962782842
-0.005560007933194155,-0.003103860126080627
-0.005559667933194155,-0.002643070317528323
-0.005559327933194155,-0.004190007531992507
-0.005558987933194155,-0.006757265036843292
-0.005558647933194155,-0.00665852436358429
-0.005558307933194155,-0.004815365129329092
-0.005557967933194155,-0.004288748205257136
-0.005557627933194155,-0.005473636284420234
-0.005557287933194155,-0.004519143109538078
-0.005556947933194155,-0.002445588971004752
-0.005556607933194155,-0.003597563492410479
-0.005556267933194155,-0.004453315994028964
-0.005555927933194155,-0.001820231373669185
-0.005555587933194155,-0.003070946568337565
-0.005555247933194155,-0.005309068495647449
-0.005554907933194155,-0.005374895611156443
-0.005554567933194155,-0.00711931417214809
-0.005554227933194155,-0.007349709076429989
-0.005553887933194155,-0.008435856482330374
-0.005553547933194155,-0.008172548020293918
-0.005553207933194155,-0.007744671769484675
-0.005552867933194155,-0.004815365129329092
-0.005552527933194155,-0.004124180416483393
-0.005552187933194155,-0.006362302343793276
-0.005551847933194155,-0.005967339650738591
-0.005551507933194155,-0.004519143109541011
-0.005551167933194155,-0.006131907439511376
-0.005550827933194155,-0.008172548020293918
-0.005550487933194155,-0.01268170543265986
-0.005550147933194155,-0.008073807347030245
-0.005549807933194155,-0.005802771861965805
-0.005549467933194155,-0.00478245157157705
-0.005549127933194155,-0.006164820997265934
-0.005548787933194155,-0.01097020042943127
-0.005548447933194155,-0.008304202251310469
-0.005548107933194155,-0.007382622634184546
-0.005547767933194155,-0.008534597155594046
-0.005547427933194155,-0.009127041195173978
-0.005547087933194155,-0.007975066673766575
-0.005546747933194155,-0.008666251386612273
-0.005546407933194154,-0.006658524363585128
-0.005546067933194155,-0.00711931417214809
-0.005545727933194155,-0.009159954752930631
-0.005545387933194154,-0.007020573498884239
-0.005545047933194155,-0.006921832825620747
-0.005544707933194155,-0.009587831003739873
-0.005544367933194154,-0.01018027504332112
-0.005544027933194155,-0.009752398792512659
-0.005543687933194155,-0.01024610215883101
-0.005543347933194154,-0.01054232417861844
-0.005543007933194155,-0.008567510713348603
-0.005542667933194155,-0.009061214079666959
-0.005542327933194155,-0.007744671769487069
-0.005541987933194155,-0.005374895611156563
-0.005541647933194155,-0.006066080324002262
-0.005541307933194155,-0.005671117630948295
-0.005540967933194155,-0.003531736376901365
-0.005540627933194155,-0.003992526185465165
-0.005540287933194155,-0.005802771861962513
-0.005539947933194155,-0.009258695426194301
-0.005539607933194155,-0.006033166766247705
-0.005539267933194155,-0.004354575320768345
-0.005538927933194155,-0.003498822819146808
-0.005538587933194155,-0.004584970225047193
-0.005538247933194155,-0.01083854619840167
-0.005537907933194155,-0.01080563264065849
-0.005537567933194155,-0.009225781868439744
-0.005537227933194155,-0.01080563264065561
-0.005536887933194155,-0.01021318860107646
-0.005536547933194155,-0.009159954752930631
-0.005536207933194155,-0.010706891967392
-0.005535867933194155,-0.01011444792781279
-0.005535527933194155,-0.01024610215883101
-0.005535187933194155,-0.01297792745245429
-0.005534847933194155,-0.01347163081877761
-0.005534507933194155,-0.01284627322144103
-0.005534167933194155,-0.01380076639632145
-0.005533827933194155,-0.0136361986075504
-0.005533487933194155,-0.0104106699476038
-0.005533147933194155,-0.009884053023530886
-0.005532807933194155,-0.009061214079666959
-0.005532467933194155,-0.006230648112775047
-0.005532127933194155,-0.006098993881756819
-0.005531787933194155,-0.005210327822383777
-0.005531447933194155,-0.004815365129329092
-0.005531107933194155,-0.005967339650738591
-0.005530767933194155,-0.007218054845411761
-0.005530427933194155,-0.006230648112775047
-0.005530087933194155,-0.006428129459302391
-0.005529747933194155,-0.01103602754494074
-0.005529407933194155,-0.01123350889146773
-0.005529067933194155,-0.004584970225047193
-0.005528727933194155,-0.005177414264628023
-0.005528387933194155,-0.004519143109538078
-0.005528047933194155,-0.006131907439511376
-0.005527707933194155,-0.009785312350259671
-0.005527367933194155,-0.005638204073193019
-0.005527027933194155,-0.004486229551783521
-0.005526687933194155,-0.007250968403168174
-0.005526347933194155,-0.008271288693557588
-0.005526007933194155,-0.006526870132566062
-0.005525667933194154,-0.007777585327244679
-0.005525327933194155,-0.01077271908290393
-0.005524987933194155,-0.008732078502121389
-0.005524647933194154,-0.0104106699476035
-0.005524307933194155,-0.01024610215883101
-0.005523967933194155,-0.00962074456149443
-0.005523627933194154,-0.01083854619841406
-0.005523287933194155,-0.01139807668024051
-0.005522947933194155,-0.01149681735350419
-0.005522607933194154,-0.01603888832365264
-0.005522267933194155,-0.02680162170937324
-0.005521927933194155,-0.04072405663955089
-0.005521587933194154,-0.06257865898862783
-0.005521247933194155,-0.09062101019545948
-0.005520907933194155,-0.1208685697718974
-0.005520567933194155,-0.1516098327145979
-0.005520227933194155,-0.1831081074857649
-0.005519887933194155,-0.2109858909038748
-0.005519547933194155,-0.2316885187314536
-0.005519207933194155,-0.2555837616612997
-0.005518867933194155,-0.2642400273507482
-0.005518527933194155,-0.2641083731197302
-0.005518187933194155,-0.2679263458192586
-0.005517847933194155,-0.2626601765785295
-0.005517507933194155,-0.2601587461891877
-0.005517167933194155,-0.2569661310869911
-0.005516827933194155,-0.2475528535691878
-0.005516487933194155,-0.2310960746919392
-0.005516147933194155,-0.234453257582874
-0.005515807933194155,-0.227245188434626
-0.005515467933194155,-0.2162849737023785
-0.005515127933194155,-0.2089123367653377
-0.005514787933194155,-0.2026258472342173
-0.005514447933194155,-0.1935087917362216
-0.005514107933194155,-0.1872223022050846
-0.005513767933194155,-0.1813307753670189
-0.005513427933194155,-0.1733656943904305
-0.005513087933194155,-0.1679349573609141
-0.005512747933194155,-0.1629320965822214
-0.005512407933194155,-0.1575671866682286
-0.005512067933194155,-0.1507211666552808
-0.005511727933194155,-0.1481539091504253
-0.005511387933194155,-0.1432827026027509
-0.005511047933194155,-0.1373911757646851
-0.005510707933194155,-0.1349884860486024
-0.005510367933194155,-0.1309730320025465
-0.005510027933194155,-0.126101825454872
-0.005509687933194155,-0.123501654392262
-0.005509347933194155,-0.1195520274617152
-0.005509007933194155,-0.1155694869734152
-0.005508667933194155,-0.1163594123595231
-0.005508327933194155,-0.1054650247427647
-0.005507987933194155,-0.09825695559451031
-0.005507647933194155,-0.0947352049147791
-0.005507307933194155,-0.0939781930864243
-0.005506967933194155,-0.09434024222172019
-0.005506627933194155,-0.09200337962115088
-0.005506287933194155,-0.08864619673018603
-0.005505947933194155,-0.08486113758840953
-0.005505607933194155,-0.08351168172047513
-0.005505267933194155,-0.08120773267765613
-0.005504927933194155,-0.07663274814976581
-0.005504587933194155,-0.07284768900799862
-0.005504247933194155,-0.07248563987269852
-0.005503907933194154,-0.06985255525232729
-0.005503567933194155,-0.06619915034157808
-0.005503227933194155,-0.06560670630199608
-0.005502887933194154,-0.06287488100836273
-0.005502547933194155,-0.06007722859923047
-0.005502207933194155,-0.05941895744413933
-0.005501867933194154,-0.05645673724622261
-0.005501527933194155,-0.05283624589322791
-0.005501187933194155,-0.05270459166220968
-0.005500847933194154,-0.05237545608465807
-0.005500507933194155,-0.04905118675145385
-0.005500167933194155,-0.04921575454022663
-0.005499827933194155,-0.04812960713432822
-0.005499487933194155,-0.04526612760967978
-0.005499147933194155,-0.04358753616419737
-0.005498807933194155,-0.04253430231605345
-0.005498467933194155,-0.04276469722033344
-0.005498127933194155,-0.04352170904868825
-0.005497787933194155,-0.03753144153736975
-0.005497447933194155,-0.03614907211166746
-0.005497107933194155,-0.03535914672555809
-0.005496767933194155,-0.04009869904220568
-0.005496427933194155,-0.04059240240853267
-0.005496087933194155,-0.03746561442184974
-0.005495747933194155,-0.03605033143840636
-0.005495407933194155,-0.03644529413145847
-0.005495067933194155,-0.03479961624373062
-0.005494727933194155,-0.03443756710843115
-0.005494387933194155,-0.03233109941213883
-0.005494047933194155,-0.02936887921422869
-0.005493707933194155,-0.02923722498321071
-0.005493367933194155,-0.02778902844200995
-0.005493027933194155,-0.02541925228368184
-0.005492687933194155,-0.02495846247511888
-0.005492347933194155,-0.02518885737939994
-0.005492007933194155,-0.02235829141250803
-0.005491667933194155,-0.02212789650822655
-0.005491327933194155,-0.02262159987454449
-0.005490987933194155,-0.02058095929376194
-0.005490647933194155,-0.02110757621783486
-0.005490307933194155,-0.0213050575643622
-0.005489967933194155,-0.01959355256112523
-0.005489627933194155,-0.01807952890441561
-0.005489287933194155,-0.01933024409908878
-0.005488947933194155,-0.01821118313543383
-0.005488607933194155,-0.01784913400013371
-0.005488267933194155,-0.0204163915049964
-0.005487927933194155,-0.02439893199329057
-0.005487587933194155,-0.01847449159747029
-0.005487247933194155,-0.01751999842259574
-0.005486907933194155,-0.02170002025741689
-0.005486567933194155,-0.0210746626600803
-0.005486227933194155,-0.01952772544561516
-0.005485887933194155,-0.0190011085215432
-0.005485547933194155,-0.01890236784827953
-0.005485207933194155,-0.01923150342582265
-0.005484867933194155,-0.01788204755788826
-0.005484527933194155,-0.01551227139956015
-0.005484187933194155,-0.01577557986159589
-0.005483847933194155,-0.01538061716854192
-0.005483507933194155,-0.01314249524123204
-0.005483167933194154,-0.01333997658775866
-0.005482827933194155,-0.0129450138947047
-0.005482487933194155,-0.01189178004655887
-0.005482147933194154,-0.0117930393732958
-0.005481807933194155,-0.01212217495084077
-0.005481467933194155,-0.0117930393732952
-0.005481127933194154,-0.01123350889147084
-0.005480787933194155,-0.0129450138947047
-0.005480447933194155,-0.01097020042943127
-0.005480107933194154,-0.008995386964157127
-0.005479767933194155,-0.00860042427110316
-0.005479427933194155,-0.009192868310685188
-0.005479087933194155,-0.007810498884996304
-0.005478747933194155,-0.009225781868439744
-0.005478407933194155,-0.01113476821820406
-0.005478067933194155,-0.01070689196739559
-0.005477727933194155,-0.01228674273961356
-0.005477387933194155,-0.01347163081877761
-0.005477047933194155,-0.007909239558267576
-0.005476707933194155,-0.009192868310685188
-0.005476367933194155,-0.007053487056638975
-0.005476027933194155,-0.009028300521908809
-0.005475687933194155,-0.01274753254817735
-0.005475347933194155,-0.01169429870003153
-0.005475007933194155,-0.007810498885000854
-0.005474667933194155,-0.009522003888230759
-0.005474327933194155,-0.01047649706311291
-0.005473987933194155,-0.008139634462543611
-0.005473647933194155,-0.007316795518675433
-0.005473307933194155,-0.008666251386612273
-0.005472967933194155,-0.007283881960923389
-0.005472627933194155,-0.001787317815909838
-0.005472287933194155,-0.009225781868439744
-0.005471947933194155,-0.009653658119248208
-0.005471607933194155,-0.009522003888230759
-0.005471267933194155,-0.01014736148556734
-0.005470927933194155,-0.009851139465776869
-0.005470587933194155,-0.006625610805829733
-0.005470247933194155,-0.007810498884993789
-0.005469907933194155,-0.006000253208493148
-0.005469567933194155,-0.004848278687083649
-0.005469227933194155,-0.005210327822383777
-0.005468887933194155,-0.006526870132566062
-0.005468547933194155,-0.007448449749693661
-0.005468207933194155,-0.008995386964157845
-0.005467867933194155,-0.009916966581285444
-0.005467527933194155,-0.008896646290894173
-0.005467187933194155,-0.01495274091773268
-0.005466847933194155,-0.01337289014551394
-0.005466507933194155,-0.007415536191940601
-0.005466167933194155,-0.008238375135803031
-0.005465827933194155,-0.008501683597839487
-0.005465487933194155,-0.01037775638984996
-0.005465147933194155,-0.01077271908290393
-0.005464807933194155,-0.009258695426194301
-0.005464467933194155,-0.008172548020295534
-0.005464127933194155,-0.009061214079666959
-0.005463787933194155,-0.009061214079666959
-0.005463447933194155,-0.007283881960921054
-0.005463107933194155,-0.007382622634184546
-0.005462767933194155,-0.009554917445985316
-0.005462427933194154,-0.008732078502117019
-0.005462087933194155,-0.006329388786038719
-0.005461747933194155,-0.006987659941129861
-0.005461407933194154,-0.006461043017050961
-0.005461067933194155,-0.003169687241601236
-0.005460727933194155,-0.003597563492410479
-0.005460387933194154,-0.003400082145882598
-0.005460047933194155,-0.003103860126092122
-0.005459707933194155,-0.004979932918101878
-0.005459367933194154,-0.007185141287656605
-0.005459027933194155,-0.006856005710111633
-0.005458687933194155,-0.007481363307448217
-0.005458347933194154,-0.008666251386611555
-0.005458007933194155,-0.008271288693557588
-0.005457667933194155,-0.007448449749693661
-0.005457327933194155,-0.009159954752927517
-0.005456987933194155,-0.008732078502121389
-0.005456647933194155,-0.01380076639632318
-0.005456307933194155,-0.01297792745246075
-0.005455967933194155,-0.007942153116012016
-0.005455627933194155,-0.008732078502121389
-0.005455287933194155,-0.01083854619840921
-0.005454947933194155,-0.01389950706958685
-0.005454607933194155,-0.01396533418509597
-0.005454267933194155,-0.01307666812572454
-0.005453927933194155,-0.01205634783533165
-0.005453587933194155,-0.01215508850859533
-0.005453247933194155,-0.01271461899042178
-0.005452907933194155,-0.01057523773637659
-0.005452567933194155,-0.00869916494436683
-0.005452227933194155,-0.00978531235026524
-0.005451887933194155,-0.009522003888230759
-0.005451547933194155,-0.005473636284420234
-0.005451207933194155,-0.006428129459300654
-0.005450867933194155,-0.007152227729902647
-0.005450527933194155,-0.006033166766247705
-0.005450187933194155,-0.0072838819609186
-0.005449847933194155,-0.007942153116012016
-0.005449507933194155,-0.007744671769484675
-0.005449167933194155,-0.007777585327239172
-0.005448827933194155,-0.008633337828857716
-0.005448487933194155,-0.007152227729902647
-0.005448147933194155,-0.006164820997265934
-0.005447807933194155,-0.007942153116012016
-0.005447467933194155,-0.00767884465397556
-0.005447127933194155,-0.005901512535229476
-0.005446787933194155,-0.006164820997265934
-0.005446447933194155,-0.009258695426194301
-0.005446107933194155,-0.01123350889146773
-0.005445767933194155,-0.005934426092985949
-0.005445427933194155,-0.006987659941129861
-0.005445087933194155,-0.005341982053402005
-0.005444747933194155,-0.009225781868448246
-0.005444407933194155,-0.01389950706958685
-0.005444067933194155,-0.0101802750433219
-0.005443727933194155,-0.00886373273314201
-0.005443387933194155,-0.0101802750433219
-0.005443047933194155,-0.008830819175385059
-0.005442707933194155,-0.008468770040084991
-0.005442367933194155,-0.008501683597839487
-0.005442027933194155,-0.006493956574811504
-0.005441687933194155,-0.007810498884996244
-0.005441347933194155,-0.009159954752930631
-0.005441007933194155,-0.008238375135803031
-0.005440667933194154,-0.008435856482335103
-0.005440327933194155,-0.01103602754494038
-0.005439987933194155,-0.0111018546604495
-0.005439647933194154,-0.009225781868441122
-0.005439307933194155,-0.009982793696794558
-0.005438967933194155,-0.008633337828857716
-0.005438627933194154,-0.007382622634186941
-0.005438287933194155,-0.00869916494436683
-0.005437947933194155,-0.008271288693557588
-0.005437607933194154,-0.0062306481127787
-0.005437267933194155,-0.008238375135803031
-0.005436927933194155,-0.008304202251312145
-0.005436587933194155,-0.007810498884994687
-0.005436247933194155,-0.009818225908021772
-0.005435907933194155,-0.01215508850859533
-0.005435567933194155,-0.01380076639632019
-0.005435227933194155,-0.008073807347030245
-0.005434887933194155,-0.008534597155594046
-0.005434547933194155,-0.006625610805833206
-0.005434207933194155,-0.01189178004655887
-0.005433867933194155,-0.01103602754494038
-0.005433527933194155,-0.007547190422963678
-0.005433187933194155,-0.009423263214967087
-0.005432847933194155,-0.01090437331392216
-0.005432507933194155,-0.00896247340640682
-0.005432167933194155,-0.009686571677003543
-0.005431827933194155,-0.006296475228284162
-0.005431487933194155,-0.008402942924571985
-0.005431147933194155,-0.01182595293104976
-0.005430807933194155,-0.009554917445985316
-0.005430467933194155,-0.008304202251314421
-0.005430127933194155,-0.008863732733139616
-0.005429787933194155,-0.009554917445985316
-0.005429447933194155,-0.01103602754493769
-0.005429107933194155,-0.004617883782801749
-0.005428767933194155,0.001504037959545873
-0.005428427933194155,-0.007942153115994834
-0.005428087933194155,-0.01008153437005823
-0.005427747933194155,-0.006790178594602518
-0.005427407933194155,-0.006559783690320619
-0.005427067933194155,-0.006098993881756819
-0.005426727933194155,-0.006263561670529605
-0.005426387933194155,-0.007152227729902647
-0.005426047933194155,-0.004979932918101878
-0.005425707933194155,-0.007415536191939104
-0.005425367933194155,-0.008896646290894173
-0.005425027933194155,-0.008633337828857716
-0.005424687933194155,-0.009324522541703417
-0.005424347933194155,-0.01123350889146773
-0.005424007933194155,-0.01044358350535854
-0.005423667933194155,-0.01054232417862203
-0.005423327933194155,-0.01080563264065849
-0.005422987933194155,-0.008238375135801116
-0.005422647933194155,-0.007185141287657204
-0.005422307933194155,-0.008962473406403288
-0.005421967933194155,-0.00899538696415497
-0.005421627933194155,-0.007415536191939104
-0.005421287933194155,-0.01031192927434013
-0.005420947933194155,-0.01126642244922043
-0.005420607933194155,-0.01024610215883101
-0.005420267933194155,-0.01238548341287723
-0.005419927933194154,-0.01324123591449607
-0.005419587933194155,-0.01343871726102305
-0.005419247933194155,-0.008304202251312145
-0.005418907933194154,-0.00866625138660449
-0.005418567933194155,-0.00438748887851985
-0.005418227933194155,-0.005012846475856435
-0.005417887933194154,-0.008666251386607903
-0.005417547933194155,-0.006263561670529605
