Analysis/files/cmb03_d2s01/wrd09_ch31.csv

#Digilent WaveForms Oscilloscope Acquisition
#Device Name: ADP3450
#Serial Number: SN:210018B9D9B0
#Date Time: 2024-08-09 13:13:45.167.946.570
#Sample rate: 2.94118e+06Hz
#Samples: 32768
#Trigger: Source: Channel 3 Type: Edge Condition: Rising Level: 20 mV Hyst.: Auto HoldOff: 0 s
#Channel 3: Range: 200 mV/div Offset: 0 V Attenuation: 1 X Coupling: DC Bandwidth: 0 Hz Sample Mode: Average

Time (s),Channel 3 (V)
-0.00557055682983683,0.01927735914700671
-0.00557021682983683,0.01828995241436676
-0.00556987682983683,0.01651262029562391
-0.00556953682983683,0.01740128635499695
-0.00556919682983683,0.01618348471807583
-0.00556885682983683,0.01480111529238694
-0.00556851682983683,0.01325417807792276
-0.00556817682983683,0.01206928999875248
-0.00556783682983683,0.008646279992284765
-0.00556749682983683,0.009436205378394135
-0.00556715682983683,0.00894250201207069
-0.00556681682983683,0.006144849602938425
-0.00556647682983683,0.00653981229599311
-0.00556613682983683,0.007560132586381806
-0.00556579682983683,0.006144849602938425
-0.00556545682983683,0.004301690368683227
-0.00556511682983683,0.00709934277781627
-0.00556477682983683,0.004729566619492469
-0.00556443682983683,0.0006482854579273878
-0.00556409682983683,0.008975415569828182
-0.00556375682983683,0.00779052749066628
-0.00556341682983683,0.005124529312547154
-0.00556307682983683,0.01075274768856618
-0.00556273682983683,0.005322010659074497
-0.00556239682983683,-0.0007011704100094536
-0.00556205682983683,0.002886407385230745
-0.00556171682983683,0.002030654883618786
-0.00556137682983683,0.003281370078291956
-0.00556103682983683,0.0005166312269141884
-0.00556069682983683,-0.0007011704100094536
-0.00556035682983683,-0.002149366951209966
-0.00556001682983683,-0.001425268680611027
-0.00555967682983683,-0.0003391212747093254
-0.00555933682983683,-0.00165566358489161
-0.00555899682983683,2.292786058774934e-05
-0.00555865682983683,0.001931914210355115
-0.00555831682983683,0.001438210844036758
-0.00555797682983683,0.002919320942989134
-0.00555763682983683,0.005453664890092726
-0.00555729682983683,0.003676332771346642
-0.00555695682983683,0.002787666711975216
-0.00555661682983683,0.00357759209808297
-0.00555627682983683,0.001174902382000301
-0.00555593682983683,-0.0002732941591975771
-0.00555559682983683,0.0007470261311910591
-0.00555525682983683,0.0002533227648727025
-0.00555491682983683,-0.0003062077169537506
-0.00555457682983683,0.0002533227648727025
-0.00555423682983683,-0.0009644788720459105
-0.00555389682983683,-0.005704031188702134
-0.00555355682983683,0.002228136230146129
-0.00555321682983683,0.0005166312269091594
-0.00555287682983683,-0.002610156759773766
-0.00555253682983683,0.003873814117873984
-0.00555219682983683,0.00130655661301853
-0.00555185682983683,-0.005045760033610991
-0.00555151682983683,-0.002511416086505066
-0.00555117682983683,0.0002533227648727025
-0.00555083682983683,-0.0009644788720459105
-0.00555049682983683,-0.00182023137366236
-0.00555015682983683,-0.0007011704100094536
-0.00554981682983683,-0.001984799162437181
-0.00554947682983683,-0.001524009353870627
-0.00554913682983683,-9.985697163754359e-06
-0.00554879682983683,-0.0008657381987822392
-0.00554845682983683,-0.001161960218571996
-0.00554811682983683,-0.0004707755057275538
-0.00554777682983683,-0.001326528007346039
-0.00554743682983683,-0.002346848297735453
-0.00554709682983683,-0.001326528007346039
-0.00554675682983683,-0.00392669906995605
-0.00554641682983683,-0.005012846475852363
-0.00554607682983683,-0.002774724548546551
-0.00554573682983683,-0.003498822819146808
-0.00554539682983683,-0.003498822819143215
-0.00554505682983683,-0.001524009353873381
-0.00554471682983683,-0.001293614449591481
-0.00554437682983683,-0.001491095796117866
-0.00554403682983683,-0.0009644788720459105
-0.00554369682983683,-0.001787317815909838
-0.00554335682983683,-0.007415536191928567
-0.00554301682983683,-0.001622750027137053
-0.00554267682983683,0.0002533227648727025
-0.00554233682983683,-0.003696304165666966
-0.00554199682983683,0.001833173537091444
-0.00554165682983683,-0.0001087263704274257
-0.00554131682983683,-0.006066080323991426
-0.00554097682983683,-0.003959612627710607
-0.00554063682983683,-0.0008657381987822392
-0.00554029682983683,-0.004453315994022438
-0.00553995682983683,-0.005671117630947577
-0.00553961682983683,-0.003597563492410479
-0.00553927682983683,-0.00382795839669196
-0.00553893682983683,-0.00336716858812858
-0.00553859682983683,-0.001918972046928067
-0.00553825682983683,-0.002741810990790498
-0.00553791682983683,-0.004025439743219721
-0.00553757682983683,-0.001951885604682624
-0.00553723682983683,-0.003630477050161983
-0.00553689682983683,-0.005671117630947577
-0.00553655682983683,-0.002939292337319337
-0.00553621682983683,-0.003827958396690762
-0.00553587682983683,-0.003893785512201493
-0.00553553682983683,-0.003169687241601236
-0.00553519682983683,-0.002445588971002298
-0.00553485682983683,-0.003860871954446936
-0.00553451682983683,-0.002643070317528323
-0.00553417682983683,-0.001293614449593936
-0.00553383682983683,-0.00313677368384668
-0.00553349682983683,-0.00188605848917351
-0.00553315682983683,-0.001359441565100596
-0.00553281682983683,-0.004288748205256179
-0.00553247682983683,-0.006066080324002262
-0.00553213682983683,0.003149715847273728
-0.00553179682983683,-0.001524009353873381
-0.00553145682983683,-0.0006353432945003394
-0.00553111682983683,0.004005468348892213
-0.00553077682983683,-0.00244558897100098
-0.00553043682983683,-0.003992526185465165
-0.00553009682983683,0.0001216685338544741
-0.00552975682983683,-0.000174553485939713
-0.00552941682983683,-0.001918972046928067
-0.00552907682983683,-0.0003720348324638825
-0.00552873682983683,-0.0006353432945024348
-0.00552839682983683,-0.001787317815909838
-0.00552805682983683,-0.00188605848917351
-0.00552771682983683,-0.00336716858813301
-0.00552737682983683,-0.005802771861965805
-0.00552703682983683,-0.005671117630947577
-0.00552669682983683,-0.005835685419723355
-0.00552635682983683,-0.007481363307448217
-0.00552601682983683,-0.006526870132566062
-0.00552567682983683,-0.006329388786039736
-0.00552533682983683,-0.00688891926786619
-0.00552499682983683,-0.006493956574811504
-0.00552465682983683,-0.004815365129328733
-0.00552431682983683,-0.004617883782801749
-0.00552397682983683,-0.004124180416483393
-0.00552363682983683,-0.001984799162439456
-0.00552329682983683,-0.003235514357110351
-0.00552295682983683,-0.002807638106301108
-0.00552261682983683,-0.004124180416503329
-0.00552227682983683,-0.01508439514875091
-0.00552193682983683,-0.02617626411203666
-0.00552159682983683,-0.03591867720743848
-0.00552125682983683,-0.06501426226241405
-0.00552091682983683,-0.09252999654522379
-0.00552057682983683,-0.1228433832371157
-0.00552023682983683,-0.159245778113711
-0.00551989682983683,-0.1875185242248756
-0.00551955682983683,-0.2103276197487422
-0.00551921682983683,-0.2320176543090368
-0.00551887682983683,-0.2488364823216155
-0.00551853682983683,-0.2563078599318864
-0.00551819682983683,-0.2608499309020288
-0.00551785682983683,-0.2630551392715841
-0.00551751682983683,-0.2550900582949958
-0.00551717682983683,-0.2514366533842255
-0.00551683682983683,-0.2483098653975426
-0.00551649682983683,-0.2419246351931701
-0.00551615682983683,-0.232972147483919
-0.00551581682983683,-0.2265540037217803
-0.00551547682983683,-0.2177660838013296
-0.00551513682983683,-0.2087477689765649
-0.00551479682983683,-0.202132143867899
-0.00551445682983683,-0.1947924204886461
-0.00551411682983683,-0.186300722587957
-0.00551377682983683,-0.1802446279611185
-0.00551343682983683,-0.1747151502583629
-0.00551309682983683,-0.1676387353411231
-0.00551275682983683,-0.1621750847538666
-0.00551241682983683,-0.1566126934933465
-0.00551207682983683,-0.1508857344440535
-0.00551173682983683,-0.1474627244375796
-0.00551139682983683,-0.1466398854937157
-0.00551105682983683,-0.1335732030651565
-0.00551071682983683,-0.1272867135340361
-0.00551037682983683,-0.1291956998838004
-0.00551003682983683,-0.121493927369234
-0.00550969682983683,-0.1156682276466774
-0.00550935682983683,-0.1135946735081403
-0.00550901682983683,-0.1114552922540848
-0.00550867682983683,-0.1063536908021378
-0.00550833682983683,-0.1021078418517999
-0.00550799682983683,-0.09911270809612592
-0.00550765682983683,-0.09401110664417886
-0.00550731682983683,-0.09239834231420554
-0.00550697682983683,-0.0887120238456876
-0.00550663682983683,-0.08456491556862097
-0.00550629682983683,-0.08311671902742046
-0.00550595682983683,-0.08199765806375828
-0.00550561682983683,-0.07801511757546409
-0.00550527682983683,-0.07577699564815421
-0.00550493682983683,-0.07439462622245593
-0.00550459682983683,-0.07060956708068875
-0.00550425682983683,-0.06978672813682482
-0.00550391682983683,-0.06698907572767981
-0.00550357682983683,-0.06277614033510415
-0.00550323682983683,-0.06063675908105794
-0.00550289682983683,-0.06155833869817423
-0.00550255682983683,-0.05533767628257425
-0.00550221682983683,-0.0497752850220541
-0.00550187682983683,-0.04898535963593383
-0.00550153682983683,-0.04299509212461534
-0.00550119682983683,-0.04319257347114268
-0.00550085682983683,-0.04332422770215348
-0.00550051682983683,-0.03924294654059583
-0.00550017682983683,-0.03716939240205873
-0.00549983682983683,-0.03891381096304709
-0.00549949682983683,-0.03809097201918633
-0.00549915682983683,-0.03743270086409518
-0.00549881682983683,-0.03865050250101158
-0.00549847682983683,-0.03901255163631392
-0.00549813682983683,-0.03677442970900404
-0.00549779682983683,-0.03562245518759664
-0.00549745682983683,-0.0356553687453491
-0.00549711682983683,-0.03351598749130289
-0.00549677682983683,-0.03298937056723093
-0.00549643682983683,-0.03150826046827491
-0.00549609682983683,-0.02900683007892857
-0.00549575682983683,-0.02844729959710211
-0.00549541682983683,-0.02917139786770135
-0.00549507682983683,-0.02617626411203666
-0.00549473682983683,-0.0244647591088028
-0.00549439682983683,-0.02482680824409981
-0.00549405682983683,-0.02285199477882639
-0.00549371682983683,-0.02084426775580206
-0.00549337682983683,-0.02179876093068056
-0.00549303682983683,-0.01988977458091625
-0.00549269682983683,-0.02123923044885064
-0.00549235682983683,-0.02548507939919096
-0.00549201682983683,-0.01646676457444231
-0.00549167682983683,-0.01768456621135871
-0.00549133682983683,-0.01794787467339738
-0.00549099682983683,-0.01406407485835964
-0.00549065682983683,-0.01725668996055168
-0.00549031682983683,-0.02012016948519815
-0.00548997682983683,-0.01649967813219686
-0.00548963682983683,-0.01515022226426002
-0.00548929682983683,-0.01676298659423332
-0.00548895682983683,-0.01623636967016041
-0.00548861682983683,-0.0134058037032685
-0.00548827682983683,-0.01294501389470787
-0.00548793682983683,-0.01468943245569622
-0.00548759682983683,-0.01297792745245925
-0.00548725682983683,-0.01274753254817688
-0.00548691682983683,-0.0124842240861409
-0.00548657682983683,-0.01245131052838634
-0.00548623682983683,-0.01169429870003057
-0.00548589682983683,-0.01116768177595861
-0.00548555682983683,-0.0101802750433219
-0.00548521682983683,-0.009225781868443157
-0.00548487682983683,-0.0111018546604495
-0.00548453682983683,-0.01031192927434013
-0.00548419682983683,-0.009522003888233932
-0.00548385682983683,-0.01126642244922228
-0.00548351682983683,-0.01182595293104976
-0.00548317682983683,-0.01103602754494308
-0.00548283682983683,-0.01251713764389546
-0.00548249682983683,-0.01261587831715913
-0.00548215682983683,-0.01087145975617784
-0.00548181682983683,-0.01649967813219686
-0.00548147682983683,-0.01050941062086747
-0.00548113682983683,-0.007415536191944432
-0.00548079682983683,-0.01034484283209469
-0.00548045682983683,-0.00619773455502049
-0.00548011682983683,-0.007119314172154197
-0.00547977682983683,-0.01047649706311291
-0.00547943682983683,-0.007316795518675433
-0.00547909682983683,-0.003926699069962217
-0.00547875682983683,-0.005045760033610991
-0.00547841682983683,-0.00665852436358429
-0.00547807682983683,-0.00606608032400334
-0.00547773682983683,-0.005605290515438462
-0.00547739682983683,-0.009127041195176074
-0.00547705682983683,-0.008534597155595123
-0.00547671682983683,-0.01034484283209469
-0.00547637682983683,-0.01011444792781279
-0.00547603682983683,-0.01011444792781279
-0.00547569682983683,-0.009324522541703417
-0.00547535682983683,-0.01008153437005823
-0.00547501682983683,-0.009752398792513257
-0.00547467682983683,-0.007942153116012016
-0.00547433682983683,-0.00962074456149443
-0.00547399682983683,-0.008205461578051049
-0.00547365682983683,-0.006296475228284162
-0.00547331682983683,0.0003849769958909309
-0.00547297682983683,-0.007613017538451897
-0.00547263682983683,-0.003860871954446936
-0.00547229682983683,-0.003531736376901365
-0.00547195682983683,-0.00478245157157226
-0.00547161682983683,-0.003893785512201493
-0.00547127682983683,-0.009818225908021772
-0.00547093682983683,-0.005111587149128668
-0.00547059682983683,-0.004519143109538078
-0.00547025682983683,-0.007152227729902647
-0.00546991682983683,-0.003301341472619465
-0.00546957682983683,-0.006493956574811504
-0.00546923682983683,-0.009094127637421515
-0.00546889682983683,-0.007580103980711889
-0.00546855682983683,-0.004617883782801749
-0.00546821682983683,-0.005341982053402005
-0.00546787682983683,-0.006098993881756819
-0.00546753682983683,-0.003465909261392251
-0.00546719682983683,-0.002741810990791994
-0.00546685682983683,-0.004979932918101878
-0.00546651682983683,-0.00497993291809637
-0.00546617682983683,-0.001951885604682624
-0.00546583682983683,-0.003432995703637694
-0.00546549682983683,-0.003959612627709829
-0.00546515682983683,-0.003531736376901365
-0.00546481682983683,-0.002972205895073894
-0.00546447682983683,-0.002050626277943661
-0.00546413682983683,-0.0006024297367457822
-0.00546379682983683,-0.001853144931418952
-0.00546345682983683,-0.0009315653142865638
-0.00546311682983683,0.001701519306073215
-0.00546277682983683,0.001207815939754859
-0.00546243682983683,-0.001227787334084104
-0.00546209682983683,-0.002182280508964523
-0.00546175682983683,-0.003630477050165036
-0.00546141682983683,-0.005309068495652059
-0.00546107682983683,-0.007843412442748346
-0.00546073682983683,-0.01245131052838634
-0.00546039682983683,-0.009225781868431303
-0.00546005682983683,-0.004584970225047193
-0.00545971682983683,-0.00790923955825746
-0.00545937682983683,-0.00419000753199574
-0.00545903682983683,-0.005967339650738591
-0.00545869682983683,-0.008633337828857716
-0.00545835682983683,-0.007250968403161828
-0.00545801682983683,-0.004782451571574535
-0.00545767682983683,-0.004815365129329092
-0.00545733682983683,-0.005605290515437025
-0.00545699682983683,-0.005605290515438462
-0.00545665682983683,-0.004321661763010735
-0.00545631682983683,-0.005638204073190625
-0.00545597682983683,-0.007020573498884419
-0.00545563682983683,-0.003762131281183265
-0.00545529682983683,-0.005111587149117651
-0.00545495682983683,-0.006066080324002262
-0.00545461682983683,-0.00494701936034732
-0.00545427682983683,-0.004749538013820337
-0.00545393682983683,-0.003400082145883136
-0.00545359682983683,-0.002083539835700852
-0.00545325682983683,-0.001886058489173869
-0.00545291682983683,-0.003992526185465165
-0.00545257682983683,-0.002050626277946295
-0.00545223682983683,-0.002281021182227776
-0.00545189682983683,-0.004782451571574535
-0.00545155682983683,-0.003432995703637694
-0.00545121682983683,-0.001622750027140345
-0.00545087682983683,-0.001293614449591481
-0.00545053682983683,-0.0002732941592002112
-0.00545019682983683,-0.002577243202015018
-0.00544985682983683,-0.006098993881756819
-0.00544951682983683,0.001273643055263973
-0.00544917682983683,-0.002972205895066171
-0.00544883682983683,-0.003959612627710607
-0.00544849682983683,-0.001688577142646167
-0.00544815682983683,-0.006033166766247705
-0.00544781682983683,-0.008106720904784802
-0.00544747682983683,-0.005243241380138334
-0.00544713682983683,-0.004716624456065421
-0.00544679682983683,-0.006066080324002262
-0.00544645682983683,-0.006790178594602518
-0.00544611682983683,-0.005243241380138334
-0.00544577682983683,-0.005704031188704349
-0.00544543682983683,-0.006921832825620747
-0.00544509682983683,-0.004650797340556306
-0.00544475682983683,-0.004848278687084307
-0.00544441682983683,-0.005210327822383777
-0.00544407682983683,-0.003597563492410479
-0.00544373682983683,-0.00297220589507545
-0.00544339682983683,-0.003827958396692379
-0.00544305682983683,-0.003992526185465165
-0.00544271682983683,-0.003729217723433437
-0.00544237682983683,-0.006329388786038719
-0.00544203682983683,-0.005045760033610991
-0.00544169682983683,-0.003531736376902562
-0.00544135682983683,-0.004190007531992507
-0.00544101682983683,-0.003630477050165036
-0.00544067682983683,-0.0006024297367465006
-0.00544033682983683,-0.0009973924298004675
-0.00543999682983683,-0.00119487377632781
-0.00543965682983683,-0.004683710898308888
-0.00543931682983683,-0.003597563492410479
-0.00543897682983683,-0.0003062077169547683
-0.00543863682983683,-0.003827958396689325
-0.00543829682983683,-0.002149366951209966
-0.00543795682983683,-0.003005119452828451
-0.00543761682983683,-0.007711758211728142
-0.00543727682983683,-0.006625610805829733
-0.00543693682983683,-0.003959612627710607
-0.00543659682983683,-0.003432995703638652
-0.00543625682983683,-0.003301341472619465
-0.00543591682983683,-0.003005119452828451
-0.00543557682983683,-0.0012277873340856
-0.00543523682983683,-0.0001416399281819828
-0.00543489682983683,-0.000207467043691097
-0.00543455682983683,0.001339470170770273
-0.00543421682983683,0.0007470261311910591
-0.00543387682983683,-0.0005695161789912252
-0.00543353682983683,-0.0008986517565361976
-0.00543319682983683,-0.0005036890634821109
-0.00543285682983683,-0.005473636284420234
-0.00543251682983683,-0.005012846475857272
-0.00543217682983683,-0.004519143109538078
-0.00543183682983683,-0.005539463399929348
-0.00543149682983683,-0.006428129459300774
-0.00543115682983683,-0.005835685419720362
-0.00543081682983683,-0.006987659941129861
-0.00543047682983683,-0.007119314172147851
-0.00543013682983683,-0.004881192244838206
-0.00542979682983683,-0.005276154937892892
-0.00542945682983683,0.00101033459321608
-0.00542911682983683,-0.00494701936034732
-0.00542877682983683,-0.007415536191939104
-0.00542843682983683,-0.0007011704100216669
-0.00542809682983683,0.0007799396889456162
-0.00542775682983683,-0.0003720348324638825
-0.00542741682983683,0.002985148058500942
-0.00542707682983683,-0.0004049483902184396
-0.00542673682983683,-0.004881192244838206
-0.00542639682983683,-0.003268427914864908
-0.00542605682983683,-0.00336716858812858
-0.00542571682983683,-0.004124180416483393
-0.00542537682983683,-0.004321661763010735
-0.00542503682983683,-0.004584970225047193
-0.00542469682983683,-0.002873465221810222
-0.00542435682983683,-0.004848278687083649
-0.00542401682983683,-0.004716624456066438
-0.00542367682983683,-0.005276154937892892
-0.00542333682983683,-0.007053487056638975
-0.00542299682983683,-0.008732078502120192
-0.00542265682983683,-0.008073807347030245
-0.00542231682983683,-0.008468770040084931
-0.00542197682983683,-0.007613017538463513
-0.00542163682983683,-0.006000253208493148
-0.00542129682983683,-0.00586859897747492
-0.00542095682983683,-0.00711931417214324
-0.00542061682983683,-0.004453315994028964
-0.00542027682983683,-0.002511416086510094
-0.00541993682983683,-0.003827958396689386
-0.00541959682983683,-0.002182280508964523
-0.00541925682983683,-0.001359441565100596
-0.00541891682983683,-0.00122778733408584
-0.00541857682983683,-0.00313677368384668
-0.00541823682983683,-0.005704031188702134
-0.00541789682983683,0.0006153719001673227
-0.00541755682983683,-0.002412675413246423
-0.00541721682983683,-0.000832824641027682
-0.00541687682983683,0.001240729497500555
-0.00541653682983683,-0.003630477050165036
-0.00541619682983683,-0.004190007531992507
-0.00541585682983683,-7.581281267376662e-05
-0.00541551682983683,-0.0005695161789912252
-0.00541517682983683,-0.0007340839677640107
-0.00541483682983683,-0.001227787334081469
-0.00541449682983683,-0.001688577142646167
