Analysis/files/cmb03_d2s01/wrd03_ch32.csv

#Digilent WaveForms Oscilloscope Acquisition
#Device Name: ADP3450
#Serial Number: SN:210018B9D9B0
#Date Time: 2024-08-09 12:49:53.765.264.420
#Sample rate: 2.94118e+06Hz
#Samples: 32768
#Trigger: Source: Channel 3 Type: Edge Condition: Rising Level: 20 mV Hyst.: Auto HoldOff: 0 s
#Channel 3: Range: 200 mV/div Offset: 0 V Attenuation: 1 X Coupling: DC Bandwidth: 0 Hz Sample Mode: Average

Time (s),Channel 3 (V)
-0.005570521739130435,0.01289212894262263
-0.005570181739130434,0.01223385778752742
-0.005569841739130435,0.009995735860221606
-0.005569501739130435,0.01081857480408553
-0.005569161739130434,0.010127390091236
-0.005568821739130435,0.00802092239494818
-0.005568481739130435,0.00811966306821185
-0.005568141739130434,0.007889268163926837
-0.005567801739130435,0.006177763160692982
-0.005567461739130435,0.007593046144138938
-0.005567121739130434,0.008777934223301078
-0.005566781739130435,0.007724700375157166
-0.005566441739130435,0.006342330949465767
-0.005566101739130434,0.00775761393290843
-0.005565761739130435,0.005947368256411082
-0.005565421739130435,0.005223269985810825
-0.005565081739130434,0.005124529312543921
-0.005564741739130435,0.003347197193801071
-0.005564401739130435,0.002096481999127901
-0.005564061739130434,0.003643419213589151
-0.005563721739130435,0.002030654883618786
-0.005563381739130435,-0.001293614449591481
-0.005563041739130435,-0.0009644788720465092
-0.005562701739130435,0.006868947873538681
-0.005562361739130435,0.005552405563356397
-0.005562021739130435,0.007329737682099248
-0.005561681739130435,0.005025788639283483
-0.005561341739130435,0.0006153719001728307
-0.005561001739130435,0.001306556613017273
-0.005560661739130435,0.002952234500746385
-0.005560321739130435,0.000714112573436502
-0.005559981739130435,0.001141988824244966
-0.005559641739130435,0.00403838190664677
-0.005559301739130435,0.002985148058500942
-0.005558961739130435,0.003347197193800412
-0.005558621739130435,0.003643419213592085
-0.005558281739130435,0.001997741325864229
-0.005557941739130435,0.001207815939756295
-0.005557601739130434,0.0005166312269091594
-0.005557261739130435,-0.001721490700400724
-0.005556921739130435,-0.003301341472616591
-0.005556581739130434,-0.002379761855491866
-0.005556241739130435,-0.003860871954446936
-0.005555901739130435,-0.005078673591363334
-0.005555561739130434,-0.004617883782801749
-0.005555221739130435,-0.00540780916891112
-0.005554881739130435,-0.007349709076426457
-0.005554541739130434,-0.005901512535229476
-0.005554201739130435,-0.00688891926786619
-0.005553861739130435,-0.006987659941129861
-0.005553521739130434,-0.005309068495647449
-0.005553181739130435,-0.00369630416567415
-0.005552841739130435,-0.009061214079666959
-0.005552501739130434,-0.006362302343793276
-0.005552161739130435,-0.00119487377632781
-0.005551821739130435,-0.003762131281183265
-0.005551481739130434,-0.001853144931426077
-0.005551141739130435,-0.005769858304211248
-0.005550801739130435,-0.008732078502121389
-0.005550461739130434,-0.006493956574807194
-0.005550121739130435,-0.004124180416483393
-0.005549781739130435,-0.006790178594602518
-0.005549441739130434,-0.005144500706870831
-0.005549101739130435,-0.003038033010583008
-0.005548761739130435,-0.004354575320765292
-0.005548421739130434,-0.004091266858727399
-0.005548081739130435,-0.003301341472619465
-0.005547741739130435,-0.003400082145883136
-0.005547401739130434,-0.005473636284418857
-0.005547061739130435,-0.004716624456065421
-0.005546721739130435,-0.004222921089747064
-0.005546381739130434,0.0009445074777105589
-0.005546041739130435,-0.00336716858812858
-0.005545701739130435,-0.003827958396692379
-0.005545361739130434,-0.004025439743217865
-0.005545021739130435,-0.003005119452828451
-0.005544681739130435,-0.001688577142646167
-0.005544341739130434,-0.004387488878516318
-0.005544001739130435,-0.00244558897100098
-0.005543661739130435,-0.0007340839677640107
-0.005543321739130434,-0.002807638106302605
-0.005542981739130435,-0.003630477050165036
-0.005542641739130435,-0.003202600799355794
-0.005542301739130435,-0.009028300521901806
-0.005541961739130435,-0.01090437331392216
-0.005541621739130435,-0.006066080324002262
-0.005541281739130435,-0.00883081917538003
-0.005540941739130435,-0.006856005710111633
-0.005540601739130435,-0.008633337828857716
-0.005540261739130435,-0.01070689196739104
-0.005539921739130435,-0.0108714597561676
-0.005539581739130435,-0.00665852436358429
-0.005539241739130435,-0.007514276865201218
-0.005538901739130435,-0.008205461578048474
-0.005538561739130435,-0.007152227729902647
-0.005538221739130435,-0.008863732733136502
-0.005537881739130435,-0.009423263214967087
-0.005537541739130435,-0.008304202251312145
-0.005537201739130435,-0.007580103980713206
-0.005536861739130435,-0.009061214079666959
-0.005536521739130435,-0.008534597155594046
-0.005536181739130435,-0.005374895611162311
-0.005535841739130434,-0.006230648112775047
-0.005535501739130435,-0.005243241380138334
-0.005535161739130435,-0.005407809168910821
-0.005534821739130434,-0.00586859897747492
-0.005534481739130435,-0.003531736376901365
-0.005534141739130435,-0.001260700891841055
-0.005533801739130434,-0.003038033010583008
-0.005533461739130435,-0.003038033010583008
-0.005533121739130435,0.0002862363226272596
-0.005532781739130434,-0.001161960218573253
-0.005532441739130435,-0.002972205895073894
-0.005532101739130435,-0.004683710898310864
-0.005531761739130434,-0.007613017538466446
-0.005531421739130435,-0.001524009353873381
-0.005531081739130435,-0.0005036890634821109
-0.005530741739130434,-0.000832824641027682
-0.005530401739130435,-0.004848278687083649
-0.005530061739130435,-0.006461043017056948
-0.005529721739130434,-0.005341982053402544
-0.005529381739130435,-0.005638204073193019
-0.005529041739130435,-0.006724351479093405
-0.005528701739130434,-0.0058356854197212
-0.005528361739130435,-0.006296475228284162
-0.005528021739130435,-0.006724351479093405
-0.005527681739130434,-0.006362302343794654
-0.005527341739130435,-0.00711931417214809
-0.005527001739130435,-0.007020573498884419
-0.005526661739130434,-0.005802771861970176
-0.005526321739130435,-0.008205461578048474
-0.005525981739130435,-0.007349709076429989
-0.005525641739130434,-0.005473636284419696
-0.005525301739130435,-0.00517741426462922
-0.005524961739130435,-0.005638204073193019
-0.005524621739130434,-0.002873465221812378
-0.005524281739130435,-0.004058353300974278
-0.005523941739130435,-0.004519143109538078
-0.005523601739130434,-0.004058353300978649
-0.005523261739130435,-0.006461043017056948
-0.005522921739130435,-0.01159555802676786
-0.005522581739130434,-0.01439321043592024
-0.005522241739130435,-0.02265451343229904
-0.005521901739130435,-0.03983539058017786
-0.005521561739130434,-0.062414091199856
-0.005521221739130435,-0.09098305933075959
-0.005520881739130435,-0.1140554633167041
-0.005520541739130435,-0.1445334177973686
-0.005520201739130435,-0.1789939127664453
-0.005519861739130435,-0.2053576725278456
-0.005519521739130435,-0.2252703749693164
-0.005519181739130435,-0.2417271538466312
-0.005518841739130435,-0.2541684786778537
-0.005518501739130435,-0.2596650428228548
-0.005518161739130435,-0.2598954377271467
-0.005517821739130435,-0.2593688208030738
-0.005517481739130435,-0.2551887989682526
-0.005517141739130435,-0.2478490755889788
-0.005516801739130435,-0.2423195978862132
-0.005516461739130435,-0.2354406643155233
-0.005516121739130435,-0.2274097562233988
-0.005515781739130435,-0.220037119286378
-0.005515441739130435,-0.2132569263889516
-0.005515101739130434,-0.203613253966854
-0.005514761739130435,-0.1990382694389706
-0.005514421739130435,-0.1944632849110955
-0.005514081739130434,-0.1876501784558938
-0.005513741739130435,-0.1817586516178281
-0.005513401739130435,-0.1793559619017498
-0.005513061739130434,-0.1727074232353249
-0.005512721739130435,-0.1669146370705228
-0.005512381739130435,-0.1609243695591935
-0.005512041739130434,-0.153156769929118
-0.005511701739130435,-0.1461790956851519
-0.005511361739130435,-0.1420978145235868
-0.005511021739130434,-0.1374240893224397
-0.005510681739130435,-0.1268259237254723
-0.005510341739130435,-0.124094098431844
-0.005510001739130434,-0.1175772139964417
-0.005509661739130435,-0.1131997108150856
-0.005509321739130435,-0.1137263277391586
-0.005508981739130434,-0.1075056653235334
-0.005508641739130435,-0.09990263348224457
-0.005508301739130435,-0.09842152338328949
-0.005507961739130434,-0.09608466078270644
-0.005507621739130435,-0.09085140509974138
-0.005507281739130435,-0.08930446788527718
-0.005506941739130434,-0.08811957980610965
-0.005506601739130435,-0.08621059345634882
-0.005506261739130435,-0.08301797835415678
-0.005505921739130434,-0.08183309027498338
-0.005505581739130435,-0.07669857526528182
-0.005505241739130435,-0.07393383641389903
-0.005504901739130434,-0.072814775450237
-0.005504561739130435,-0.06893097563520634
-0.005504221739130435,-0.06633080457259632
-0.005503881739130434,-0.0663637181303425
-0.005503541739130435,-0.06175582004471289
-0.005503201739130435,-0.05616051522643818
-0.005502861739130434,-0.06103172177410646
-0.005502521739130435,-0.05764162532539325
-0.005502181739130435,-0.05569972541787438
-0.005501841739130434,-0.05431735599217903
-0.005501501739130435,-0.05214506118038222
-0.005501161739130435,-0.05017024771510879
-0.005500821739130434,-0.05458066445420789
-0.005500481739130435,-0.04822834780758992
-0.005500141739130435,-0.04240264808503331
-0.005499801739130435,-0.04197477183422484
-0.005499461739130435,-0.04069114308179634
-0.005499121739130435,-0.04227099385401508
-0.005498781739130435,-0.04075697019730821
-0.005498441739130435,-0.0377289228838862
-0.005498101739130435,-0.0351945789367853
-0.005497761739130435,-0.03440465355067737
-0.005497421739130435,-0.03338433326028466
-0.005497081739130435,-0.02923722498321047
-0.005496741739130435,-0.02959927411850994
-0.005496401739130435,-0.02696618949814603
-0.005496061739130435,-0.02630791834305488
-0.005495721739130435,-0.02400396930024008
-0.005495381739130435,-0.02690036238263691
-0.005495041739130435,-0.026373745458564
-0.005494701739130435,-0.0251888573794021
-0.005494361739130434,-0.02551799295694551
-0.005494021739130435,-0.02400396930023588
-0.005493681739130435,-0.02285199477882848
-0.005493341739130434,-0.02265451343229904
-0.005493001739130435,-0.02123923044885309
-0.005492661739130435,-0.01867197294400231
-0.005492321739130434,-0.01946189833010701
-0.005491981739130435,-0.02064678640927106
-0.005491641739130435,-0.01791496111564779
-0.005491301739130434,-0.01850740515522485
-0.005490961739130435,-0.01880362717501586
-0.005490621739130435,-0.01959355256112523
-0.005490281739130434,-0.0226874269900536
-0.005489941739130435,-0.01462360534018711
-0.005489601739130435,-0.01014736148556734
-0.005489261739130434,-0.01541353072629648
-0.005488921739130435,-0.01541353072629648
-0.005488581739130435,-0.01185886648880431
-0.005488241739130434,-0.01050941062087172
-0.005487901739130435,-0.01284627322144103
-0.005487561739130435,-0.01245131052838634
-0.005487221739130434,-0.01100311398718643
-0.005486881739130435,-0.0113322495647314
-0.005486541739130435,-0.01070689196739481
-0.005486201739130434,-0.01120059533371533
-0.005485861739130435,-0.01238548341287723
-0.005485521739130435,-0.01215508850859533
-0.005485181739130434,-0.01149681735350844
-0.005484841739130435,-0.01383367995407774
-0.005484501739130435,-0.01343871726102305
-0.005484161739130434,-0.01027901571658575
-0.005483821739130435,-0.01037775638984924
-0.005483481739130435,-0.009225781868439744
-0.005483141739130434,-0.007942153116012375
-0.005482801739130435,-0.008139634462539359
-0.005482461739130435,-0.008732078502121389
-0.005482121739130434,-0.007777585327241327
-0.005481781739130435,-0.008929559848648731
-0.005481441739130435,-0.01129933600697684
-0.005481101739130434,-0.009851139465779203
-0.005480761739130435,-0.01143099023799507
-0.005480421739130435,-0.01008153437005823
-0.005480081739130434,-0.004157093974244835
-0.005479741739130435,-0.007942153116012016
-0.005479401739130435,-0.01274753254817735
-0.005479061739130435,-0.008732078502128694
-0.005478721739130435,-0.007086400614393532
-0.005478381739130435,-0.01024610215883101
-0.005478041739130435,-0.009192868310687103
-0.005477701739130435,-0.006362302343793276
-0.005477361739130435,-0.006625610805829733
-0.005477021739130435,-0.007152227729901689
-0.005476681739130435,-0.00494701936034732
-0.005476341739130435,-0.005374895611156563
-0.005476001739130435,-0.007185141287653911
-0.005475661739130435,-0.007777585327239231
-0.005475321739130435,-0.009456176772721644
-0.005474981739130435,-0.009752398792512119
-0.005474641739130435,-0.008073807347030245
-0.005474301739130435,-0.007547190422957332
-0.005473961739130435,-0.008304202251310767
-0.005473621739130435,-0.005111587149120106
-0.005473281739130435,-0.00438748887851985
-0.005472941739130435,-0.005012846475855297
-0.005472601739130434,-0.004584970225047193
-0.005472261739130435,-0.004881192244838206
-0.005471921739130435,-0.006954746383371532
-0.005471581739130434,-0.006526870132566062
-0.005471241739130435,-0.00767884465397556
-0.005470901739130435,-0.01422864264712051
-0.005470561739130434,-0.007514276865202775
-0.005470221739130435,-0.004058353300974278
-0.005469881739130435,-0.008830819175385059
-0.005469541739130434,-0.00290637877956478
-0.005469201739130435,-0.002840551664055666
-0.005468861739130435,-0.007218054845411761
-0.005468521739130434,-0.004584970225047193
-0.005468181739130435,-0.0003391212747093254
-0.005467841739130435,-0.001820231373664395
-0.005467501739130434,-0.003070946568337565
-0.005467161739130435,-0.001392355122855153
-0.005466821739130435,-0.004058353300974278
-0.005466481739130434,-0.005736944746456571
-0.005466141739130435,-0.005671117630947577
-0.005465801739130435,-0.006329388786038719
-0.005465461739130434,-0.006625610805828416
-0.005465121739130435,-0.005901512535229476
-0.005464781739130435,-0.00494701936034732
-0.005464441739130434,-0.005539463399925936
-0.005464101739130435,-0.003663390607919593
-0.005463761739130435,-0.003334255030374022
-0.005463421739130434,-0.004947019360344985
-0.005463081739130435,-0.003663390607919593
-0.005462741739130435,-0.002972205895073894
-0.005462401739130434,-0.004979932918103255
-0.005462061739130435,-0.005736944746456691
-0.005461721739130435,-0.004255834647501621
-0.005461381739130434,-0.006066080324001843
-0.005461041739130435,-0.005835685419720362
-0.005460701739130435,-0.004979932918101878
-0.005460361739130434,-0.005868598977476895
-0.005460021739130435,-0.006954746383375304
-0.005459681739130435,-0.00119487377632781
-0.005459341739130434,-0.008073807347024677
-0.005459001739130435,-0.005012846475856435
-0.005458661739130435,-0.00188605848917351
-0.005458321739130434,-0.007744671769485153
-0.005457981739130435,-0.008007980231521132
-0.005457641739130435,-0.004519143109538078
-0.005457301739130435,-0.005012846475855537
-0.005456961739130435,-0.007382622634184546
-0.005456621739130435,-0.006164820997265934
-0.005456281739130435,-0.00596733965073895
-0.005455941739130435,-0.007876326000502903
-0.005455601739130435,-0.00711931417214809
-0.005455261739130435,-0.005934426092986189
-0.005454921739130435,-0.008402942924575817
-0.005454581739130435,-0.009028300521912402
-0.005454241739130435,-0.007645931096223518
-0.005453901739130435,-0.00869916494436683
-0.005453561739130435,-0.008172548020293918
-0.005453221739130435,-0.006000253208497099
-0.005452881739130435,-0.005078673591365549
-0.005452541739130435,-0.005506549842174791
-0.005452201739130435,-0.00372921772343194
-0.005451861739130434,-0.005473636284420234
-0.005451521739130435,-0.004321661763010735
-0.005451181739130435,-0.001787317815914448
-0.005450841739130434,-0.002577243202019209
-0.005450501739130435,-0.00290637877956478
-0.005450161739130435,-0.001787317815911874
-0.005449821739130434,-0.003005119452828451
-0.005449481739130435,-0.005605290515438462
-0.005449141739130435,0.003413024309293781
-0.005448801739130434,0.0008786803622092876
-0.005448461739130435,-0.0001745534859365399
-0.005448121739130435,0.005354924216829054
-0.005447781739130434,-0.001589836469382495
-0.005447441739130435,-0.008040893789275689
-0.005447101739130435,-0.006856005710111633
-0.005446761739130434,-0.005704031188702134
-0.005446421739130435,-0.008797905617630502
-0.005446081739130435,-0.01014736148556734
-0.005445741739130434,-0.007711758211732692
-0.005445401739130435,-0.009127041195176074
-0.005445061739130435,-0.006790178594602518
-0.005444721739130434,-0.006658524363585668
-0.005444381739130435,-0.007415536191939104
-0.005444041739130435,-0.008172548020293918
-0.005443701739130434,-0.005572376957684624
-0.005443361739130435,-0.005967339650738591
-0.005443021739130435,-0.007020573498884419
-0.005442681739130434,-0.004519143109539215
-0.005442341739130435,-0.005144500706874663
-0.005442001739130435,-0.003959612627710607
-0.005441661739130434,-0.00290637877956484
-0.005441321739130435,-0.002939292337319337
-0.005440981739130435,-0.003301341472619465
-0.005440641739130434,-0.002182280508964882
-0.005440301739130435,-0.002379761855491866
-0.005439961739130435,-0.005045760033610991
-0.005439621739130434,-0.003005119452834318
-0.005439281739130435,-0.006230648112775047
-0.005438941739130435,-0.009456176772721644
-0.005438601739130434,-0.001951885604690107
-0.005438261739130435,-0.006066080324002262
-0.005437921739130435,-0.005572376957683906
-0.005437581739130434,-0.003202600799363397
-0.005437241739130435,-0.007382622634184546
-0.005436901739130435,-0.009785312350267215
-0.005436561739130435,-0.006461043017062995
-0.005436221739130435,-0.003795044838937822
-0.005435881739130435,-0.008007980231521132
-0.005435541739130435,-0.00813963446253912
-0.005435201739130435,-0.005638204073193019
-0.005434861739130435,-0.007415536191939104
-0.005434521739130435,-0.00758010398071159
-0.005434181739130435,-0.005934426092984033
-0.005433841739130435,-0.008007980231521132
-0.005433501739130435,-0.007645931096221662
-0.005433161739130435,-0.004815365129329092
-0.005432821739130435,-0.004222921089747064
-0.005432481739130435,-0.005407809168908964
-0.005432141739130435,-0.003465909261392251
-0.005431801739130435,-0.003762131281183265
-0.005431461739130435,-0.004255834647500723
-0.005431121739130435,-0.004782451571574535
-0.005430781739130435,-0.005769858304211248
-0.005430441739130435,-0.006131907439510718
-0.005430101739130434,-0.00494701936034732
-0.005429761739130435,-0.004486229551783521
-0.005429421739130435,-0.005506549842172935
-0.005429081739130434,-0.004486229551783521
-0.005428741739130435,-0.004255834647501621
-0.005428401739130435,-0.01024610215882012
-0.005428061739130434,-0.006823092152357076
-0.005427721739130435,-0.001260700891836924
-0.005427381739130435,-0.007152227729902647
-0.005427041739130434,-0.002281021182228195
-0.005426701739130435,-0.002643070317528323
-0.005426361739130435,-0.009127041195176074
-0.005426021739130434,-0.00790923955825746
-0.005425681739130435,-0.00438748887851985
-0.005425341739130435,-0.005835685419720362
-0.005425001739130434,-0.007152227729902647
-0.005424661739130435,-0.005078673591365549
-0.005424321739130435,-0.004486229551783521
-0.005423981739130434,-0.005572376957681631
-0.005423641739130435,-0.004321661763010735
-0.005423301739130435,-0.00438748887851985
-0.005422961739130434,-0.00544072272666388
-0.005422621739130435,-0.004453315994028964
-0.005422281739130435,-0.003795044838937822
-0.005421941739130434,-0.006658524363581417
-0.005421601739130435,-0.005078673591365549
-0.005421261739130435,-0.004815365129329092
-0.005420921739130434,-0.005341982053404819
-0.005420581739130435,-0.00688891926786619
-0.005420241739130435,-0.005012846475856435
-0.005419901739130434,-0.007514276865203673
-0.005419561739130435,-0.008007980231521132
-0.005419221739130435,-0.007481363307448217
-0.005418881739130434,-0.009522003888232794
-0.005418541739130435,-0.0106410648518857
-0.005418201739130435,-0.00860042427110316
-0.005417861739130434,-0.01297792745244656
-0.005417521739130435,-0.006000253208493148
