Analysis/files/cmb03_d2s01/wrd09_ch43.csv

#Digilent WaveForms Oscilloscope Acquisition
#Device Name: ADP3450
#Serial Number: SN:210018B9D9B0
#Date Time: 2024-08-09 13:19:12.063.687.350
#Sample rate: 2.94118e+06Hz
#Samples: 32768
#Trigger: Source: Channel 3 Type: Edge Condition: Rising Level: 20 mV Hyst.: Auto HoldOff: 0 s
#Channel 3: Range: 200 mV/div Offset: 0 V Attenuation: 1 X Coupling: DC Bandwidth: 0 Hz Sample Mode: Average

Time (s),Channel 3 (V)
-0.005570238823529412,0.007395564797611595
-0.005569898823529412,0.005256183543560593
-0.005569558823529412,0.002623098923200814
-0.005569218823529412,0.003840900560119427
-0.005568878823529412,0.002425617576674729
-0.005568538823529412,0.003116802289519171
-0.005568198823529412,0.005091615754792597
-0.005567858823529412,0.005289097101317425
-0.005567518823529412,0.003906727675628541
-0.005567178823529412,0.005223269985810825
-0.005566838823529411,0.00502578863928043
-0.005566498823529412,0.003347197193801071
-0.005566158823529412,0.002754753154219042
-0.005565818823529411,-0.0001745534859371386
-0.005565478823529412,-0.0005036890634821109
-0.005565138823529412,-0.0009315653142913533
-0.005564798823529411,-0.0007669975255219205
-0.005564458823529412,-0.002610156759773766
-0.005564118823529412,-0.001754404258155281
-0.005563778823529411,-0.0008986517565367963
-0.005563438823529412,-0.0008986517565367963
-0.005563098823529412,-0.001161960218573253
-0.005562758823529412,-0.000174553485938336
-0.005562418823529412,-0.0009973924298004675
-0.005562078823529412,0.0003520634381363738
-0.005561738823529412,0.001931914210352241
-0.005561398823529412,-0.001556922911627938
-0.005561058823529412,-0.001853144931418952
-0.005560718823529412,-0.001556922911628477
-0.005560378823529412,-0.004222921089747064
-0.005560038823529412,-0.00688891926786619
-0.005559698823529412,-0.006428129459303229
-0.005559358823529412,-0.006098993881756819
-0.005559018823529412,-0.00767884465397556
-0.005558678823529412,-0.005078673591370279
-0.005558338823529412,-0.005144500706874663
-0.005557998823529412,-0.004584970225047193
-0.005557658823529412,-0.003136773683849314
-0.005557318823529412,-0.002610156759773766
-0.005556978823529412,-0.006559783690320619
-0.005556638823529412,-0.001392355122864552
-0.005556298823529412,-0.00119487377632781
-0.005555958823529412,-0.001622750027137053
-0.005555618823529412,-0.002445588970999484
-0.005555278823529412,-0.006625610805829733
-0.005554938823529412,-0.007415536191939104
-0.005554598823529412,-0.004321661763016363
-0.005554258823529412,-0.004716624456065421
-0.005553918823529412,-0.007020573498884419
-0.005553578823529412,-0.006856005710111633
-0.005553238823529412,-0.005012846475856435
-0.005552898823529412,-0.008271288693557588
-0.005552558823529412,-0.008106720904784802
-0.005552218823529412,-0.007053487056638975
-0.005551878823529412,-0.008040893789275689
-0.005551538823529412,-0.008863732733139616
-0.005551198823529412,-0.007415536191942696
-0.005550858823529412,-0.00939034965721253
-0.005550518823529412,-0.0115626444690133
-0.005550178823529412,-0.01024610215883209
-0.005549838823529412,-0.01083854619841304
-0.005549498823529412,-0.01235256985512267
-0.005549158823529412,-0.004387488878531525
-0.005548818823529412,-0.01080563264065849
-0.005548478823529412,-0.01129933600697684
-0.005548138823529412,-0.00958783100373652
-0.005547798823529412,-0.007744671769484675
-0.005547458823529412,-0.007843412442748346
-0.005547118823529412,-0.007415536191941379
-0.005546778823529412,-0.008666251386612273
-0.005546438823529412,-0.0111018546604495
-0.005546098823529412,-0.003301341472624853
-0.005545758823529412,-0.006263561670529605
-0.005545418823529412,-0.00540780916891112
-0.005545078823529411,-0.00293929233732688
-0.005544738823529412,-0.007086400614393532
-0.005544398823529412,-0.009522003888230759
-0.005544058823529411,-0.007580103980711709
-0.005543718823529412,-0.007481363307448217
-0.005543378823529412,-0.009159954752930631
-0.005543038823529411,-0.008896646290892497
-0.005542698823529412,-0.007975066673766575
-0.005542358823529412,-0.009489090330476201
-0.005542018823529412,-0.01047649706311112
-0.005541678823529412,-0.006790178594602518
-0.005541338823529412,-0.007547190422957332
-0.005540998823529412,-0.009423263214963675
-0.005540658823529412,-0.007185141287657204
-0.005540318823529412,-0.005835685419720362
-0.005539978823529412,-0.005407809168911898
-0.005539638823529412,-0.00540780916891112
-0.005539298823529412,-0.00438748887851985
-0.005538958823529412,-0.006888919267861639
-0.005538618823529412,-0.00586859897747492
-0.005538278823529412,-0.005078673591365549
-0.005537938823529412,-0.007613017538461836
-0.005537598823529412,-0.008764992059875945
-0.005537258823529412,-0.008205461578048474
-0.005536918823529412,-0.007843412442749005
-0.005536578823529412,-0.009324522541703417
-0.005536238823529412,-0.01143099023799507
-0.005535898823529412,-0.01370202572305538
-0.005535558823529412,-0.006428129459302391
-0.005535218823529412,-0.00939034965721253
-0.005534878823529412,-0.009851139465775491
-0.005534538823529412,-0.007382622634184546
-0.005534198823529412,-0.0111018546604495
-0.005533858823529412,-0.01041066994760506
-0.005533518823529412,-0.008468770040084931
-0.005533178823529412,-0.007876326000502903
-0.005532838823529412,-0.008830819175385059
-0.005532498823529412,-0.009719485234758102
-0.005532158823529412,-0.009456176772721644
-0.005531818823529412,-0.01162847158452241
-0.005531478823529412,-0.0143273833203961
-0.005531138823529412,-0.01291210033695014
-0.005530798823529412,-0.01162847158452241
-0.005530458823529412,-0.01287918677919558
-0.005530118823529412,-0.01215508850859533
-0.005529778823529412,-0.009884053023530886
-0.005529438823529412,-0.008567510713348483
-0.005529098823529412,-0.008501683597839487
-0.005528758823529412,-0.006757265036847961
-0.005528418823529412,-0.00771175821172916
-0.005528078823529412,-0.007185141287657204
-0.005527738823529412,-0.005374895611156563
-0.005527398823529412,-0.006658524363585367
-0.005527058823529412,-0.007250968403166318
-0.005526718823529412,-0.005572376957683906
-0.005526378823529412,-0.004584970225053179
-0.005526038823529412,-0.007876326000502903
-0.005525698823529412,-0.007415536191939104
-0.005525358823529412,-0.01294501389470039
-0.005525018823529412,-0.01057523773637659
-0.005524678823529412,-0.007810498884993789
-0.005524338823529411,-0.01129933600697134
-0.005523998823529412,-0.008271288693557588
-0.005523658823529412,-0.009324522541703417
-0.005523318823529411,-0.0133070630300065
-0.005522978823529412,-0.01422864264713243
-0.005522638823529412,-0.01452486466692344
-0.005522298823529411,-0.0223253778547788
-0.005521958823529412,-0.03624781278493113
-0.005521618823529412,-0.05260585098894601
-0.005521278823529411,-0.07515163805087048
-0.005520938823529412,-0.1042143095480915
-0.005520598823529412,-0.1354492758571663
-0.005520258823529412,-0.1642815524501058
-0.005519918823529412,-0.196405184818606
-0.005519578823529412,-0.2224727225602152
-0.005519238823529412,-0.2422537707706681
-0.005518898823529412,-0.2569661310869911
-0.005518558823529412,-0.2674326424529402
-0.005518218823529412,-0.2713493558257254
-0.005517878823529412,-0.2711847880369598
-0.005517538823529412,-0.2697365914957592
-0.005517198823529412,-0.2635817561956683
-0.005516858823529412,-0.2581181056084006
-0.005516518823529412,-0.2521278380970712
-0.005516178823529412,-0.2425499927905125
-0.005515838823529412,-0.2331367152726918
-0.005515498823529412,-0.2266856579527985
-0.005515158823529412,-0.2186876634184557
-0.005514818823529412,-0.211347940039175
-0.005514478823529412,-0.1985774796304068
-0.005514138823529412,-0.190579485096064
-0.005513798823529412,-0.1859386734526569
-0.005513458823529412,-0.1767557908391354
-0.005513118823529412,-0.1738923113144942
-0.005512778823529412,-0.1726745096775703
-0.005512438823529412,-0.1655322676448314
-0.005512098823529412,-0.1591799509982019
-0.005511758823529412,-0.1536833868531909
-0.005511418823529412,-0.1493717107873439
-0.005511078823529412,-0.1447308991439514
-0.005510738823529412,-0.1387077180748674
-0.005510398823529412,-0.1340998199892294
-0.005510058823529412,-0.1302818472897008
-0.005509718823529412,-0.1240611848740895
-0.005509378823529412,-0.1199469901547699
-0.005509038823529412,-0.1165239801482959
-0.005508698823529412,-0.1104349719636928
-0.005508358823529412,-0.1049054942609373
-0.005508018823529412,-0.101581224927727
-0.005507678823529412,-0.09756577088166131
-0.005507338823529412,-0.09223377452543277
-0.005506998823529412,-0.09065392375321402
-0.005506658823529412,-0.08673721038041982
-0.005506318823529412,-0.08568397653227591
-0.005505978823529412,-0.08239262075682019
-0.005505638823529412,-0.07966079546318371
-0.005505298823529412,-0.07511872449306306
-0.005504958823529412,-0.07396674997165356
-0.005504618823529412,-0.07324265170105236
-0.005504278823529412,-0.07271603477698041
-0.005503938823529412,-0.06978672813682482
-0.005503598823529412,-0.06182164716022595
-0.005503258823529412,-0.06399394197202277
-0.005502918823529412,-0.05171718492957297
-0.005502578823529411,-0.05606177455318061
-0.005502238823529412,-0.05941895744413933
-0.005501898823529412,-0.05586429320664717
-0.005501558823529411,-0.0530666407975061
-0.005501218823529412,-0.05102600021672727
-0.005500878823529412,-0.05026898838837246
-0.005500538823529411,-0.04895244607818413
-0.005500198823529412,-0.0456281767449799
-0.005499858823529412,-0.04444328866581585
-0.005499518823529412,-0.04315965991339046
-0.005499178823529412,-0.0411848464481147
-0.005498838823529412,-0.03845302115448646
-0.005498498823529412,-0.03881507028978592
-0.005498158823529412,-0.0377289228838862
-0.005497818823529412,-0.03637946701594936
-0.005497478823529412,-0.03637946701594936
-0.005497138823529412,-0.03516166537903075
-0.005496798823529412,-0.03302228412498454
-0.005496458823529412,-0.03325267902926601
-0.005496118823529412,-0.03341724681803922
-0.005495778823529412,-0.02880934873240122
-0.005495438823529412,-0.02749280642222133
-0.005495098823529412,-0.02765737421099173
-0.005494758823529412,-0.02673579459386412
-0.005494418823529412,-0.02732823863344508
-0.005494078823529412,-0.02871060805913755
-0.005493738823529412,-0.03163991469929314
-0.005493398823529412,-0.02880934873240637
-0.005493058823529412,-0.02548507939919096
-0.005492718823529412,-0.02857895382811932
-0.005492378823529412,-0.02308238968311829
-0.005492038823529412,-0.02285199477882639
-0.005491698823529412,-0.02696618949814603
-0.005491358823529412,-0.0249584624751217
-0.005491018823529412,-0.02275325410556272
-0.005490678823529412,-0.02094300842906207
-0.005490338823529412,-0.02018599660070726
-0.005489998823529412,-0.02133797112211676
-0.005489658823529412,-0.01979103390765257
-0.005489318823529412,-0.01735543063381535
-0.005488978823529412,-0.01745417130707902
-0.005488638823529412,-0.01751999842258814
-0.005488298823529412,-0.01696046794076066
-0.005487958823529412,-0.01617054255465261
-0.005487618823529412,-0.01689464082525155
-0.005487278823529412,-0.01534770361078737
-0.005486938823529412,-0.01696046794075869
-0.005486598823529412,-0.01587432053486028
-0.005486258823529412,-0.01278044610593191
-0.005485918823529412,-0.01337289014551735
-0.005485578823529412,-0.0152489629375237
-0.005485238823529412,-0.01333997658775938
-0.005484898823529412,-0.01231965629737248
-0.005484558823529412,-0.01472234601345078
-0.005484218823529412,-0.01422864264713243
-0.005483878823529412,-0.01357037149204182
-0.005483538823529412,-0.0138665935118323
-0.005483198823529412,-0.01399824774285052
-0.005482858823529412,-0.01577557986158416
-0.005482518823529412,-0.008929559848648731
-0.005482178823529412,-0.01255005120165001
-0.005481838823529411,-0.009061214079662767
-0.005481498823529412,-0.006757265036847961
-0.005481158823529412,-0.01347163081877761
-0.005480818823529411,-0.01343871726101737
-0.005480478823529412,-0.01031192927434013
-0.005480138823529412,-0.01004862081230367
-0.005479798823529411,-0.00994988013904102
-0.005479458823529412,-0.01050941062086747
-0.005479118823529412,-0.0101802750433219
-0.005478778823529412,-0.008435856482333547
-0.005478438823529412,-0.00962074456149443
-0.005478098823529412,-0.009818225908021772
-0.005477758823529412,-0.009752398792512778
-0.005477418823529412,-0.008995386964157845
-0.005477078823529412,-0.009094127637421515
-0.005476738823529412,-0.007250968403169671
-0.005476398823529412,-0.008040893789275689
-0.005476058823529412,-0.009719485234758102
-0.005475718823529412,-0.008501683597841703
-0.005475378823529412,-0.009159954752930631
-0.005475038823529412,-0.01152973091125874
-0.005474698823529412,-0.01248422408613916
-0.005474358823529412,-0.008633337828857716
-0.005474018823529412,-0.01004862081230367
-0.005473678823529412,-0.009653658119249705
-0.005473338823529412,-0.008468770040084931
-0.005472998823529412,-0.01004862081230367
-0.005472658823529412,-0.0109372868716751
-0.005472318823529412,-0.01274753254817735
-0.005471978823529412,-0.005276154937892892
-0.005471638823529412,-0.009884053023522504
-0.005471298823529412,-0.005967339650738591
-0.005470958823529412,-0.00336716858812858
-0.005470618823529412,-0.01004862081229152
-0.005470278823529412,-0.01060815129413114
-0.005469938823529412,-0.007349709076429989
-0.005469598823529412,-0.008040893789275689
-0.005469258823529412,-0.008929559848648731
-0.005468918823529412,-0.008732078502121389
-0.005468578823529412,-0.009094127637421515
-0.005468238823529412,-0.007942153116012016
-0.005467898823529412,-0.007547190422957332
-0.005467558823529412,-0.007942153116012016
-0.005467218823529412,-0.007514276865202775
-0.005466878823529412,-0.007382622634184546
-0.005466538823529412,-0.009094127637421515
-0.005466198823529412,-0.009127041195176613
-0.005465858823529412,-0.009423263214967087
-0.005465518823529412,-0.01301084101021381
-0.005465178823529412,-0.01301084101021261
-0.005464838823529412,-0.01235256985512267
-0.005464498823529412,-0.01330706303000483
-0.005464158823529412,-0.01429446976263693
-0.005463818823529412,-0.01176012581554064
-0.005463478823529412,-0.01136516312248596
-0.005463138823529412,-0.01162847158451762
-0.005462798823529412,-0.008995386964157845
-0.005462458823529412,-0.008271288693557588
-0.005462118823529412,-0.009522003888234352
-0.005461778823529412,-0.01149681735350419
-0.005461438823529412,-0.002807638106301108
-0.005461098823529411,-0.00682309215235522
-0.005460758823529412,-0.005802771861965805
-0.005460418823529412,-0.00415709397423795
-0.005460078823529411,-0.008830819175387155
-0.005459738823529412,-0.009982793696794558
-0.005459398823529412,-0.00665852436358429
-0.005459058823529411,-0.006691437921340284
-0.005458718823529412,-0.007481363307448217
-0.005458378823529412,-0.004519143109538078
-0.005458038823529411,-0.0047495380138186
-0.005457698823529412,-0.003992526185465165
-0.005457358823529412,-0.003959612627710607
-0.005457018823529412,-0.003893785512201613
-0.005456678823529412,-0.006066080324002262
-0.005456338823529412,-0.009949880139040001
-0.005455998823529412,-0.01380076639631618
-0.005455658823529412,-0.01383367995407774
-0.005455318823529412,-0.01258296475940457
-0.005454978823529412,-0.01231965629736859
-0.005454638823529412,-0.0115626444690133
-0.005454298823529412,-0.009522003888230759
-0.005453958823529412,-0.009489090330476261
-0.005453618823529412,-0.01004862081230367
-0.005453278823529412,-0.008501683597839487
-0.005452938823529412,-0.008896646290893455
-0.005452598823529412,-0.0113322495647314
-0.005452258823529412,-0.0108714597561676
-0.005451918823529412,-0.01054232417862263
-0.005451578823529412,-0.01241839697063178
-0.005451238823529412,-0.01584140697710572
-0.005450898823529412,-0.01264879187491949
-0.005450558823529412,-0.007547190422957332
-0.005450218823529412,-0.01152973091125874
-0.005449878823529412,-0.007185141287665106
-0.005449538823529412,-0.007777585327239231
-0.005449198823529412,-0.01261587831715913
-0.005448858823529412,-0.01110185466045225
-0.005448518823529412,-0.008764992059875945
-0.005448178823529412,-0.009785312350267215
-0.005447838823529412,-0.008567510713348603
-0.005447498823529412,-0.008073807347030245
-0.005447158823529412,-0.008435856482330374
-0.005446818823529412,-0.008205461578048474
-0.005446478823529412,-0.007942153116012016
-0.005446138823529412,-0.007053487056638975
-0.005445798823529412,-0.005341982053402005
-0.005445458823529412,-0.005967339650740268
-0.005445118823529412,-0.00688891926786619
-0.005444778823529412,-0.004486229551783521
-0.005444438823529412,-0.003334255030377136
-0.005444098823529412,-0.005045760033610991
-0.005443758823529412,-0.005309068495647449
-0.005443418823529412,-0.005177414264630598
-0.005443078823529412,-0.005934426092984033
-0.005442738823529412,-0.006790178594602518
-0.005442398823529412,-0.007316795518677109
-0.005442058823529412,-0.008238375135803031
-0.005441718823529412,-0.008007980231521132
-0.005441378823529412,-0.005868598977482523
-0.005441038823529412,-0.01004862081230367
-0.005440698823529412,-0.0140969884161142
-0.005440358823529412,-0.009291608983939758
-0.005440018823529412,-0.004288748205256179
-0.005439678823529412,-0.009785312350267215
-0.005439338823529411,-0.009785312350260809
-0.005438998823529412,-0.006263561670529605
-0.005438658823529412,-0.005769858304211248
-0.005438318823529411,-0.00458497022504869
-0.005437978823529412,-0.00540780916891112
-0.005437638823529412,-0.005704031188702134
-0.005437298823529411,-0.004749538013820277
-0.005436958823529412,-0.004914105802592763
-0.005436618823529412,-0.004716624456065421
-0.005436278823529412,-0.004387488878520448
-0.005435938823529412,-0.002577243202019209
-0.005435598823529412,-0.003663390607919593
-0.005435258823529412,-0.00346590926139261
-0.005434918823529412,-0.004584970225047193
-0.005434578823529412,-0.007250968403166318
-0.005434238823529412,-0.006461043017058385
-0.005433898823529412,-0.006098993881756819
-0.005433558823529412,-0.008106720904784802
-0.005433218823529412,-0.00909412763741972
-0.005432878823529412,-0.006790178594602518
-0.005432538823529412,-0.008764992059875945
-0.005432198823529412,-0.009192868310684409
-0.005431858823529412,-0.008435856482330374
-0.005431518823529412,-0.006987659941129861
-0.005431178823529412,-0.008271288693555253
-0.005430838823529412,-0.004453315994028964
-0.005430498823529412,-0.009028300521912402
-0.005430158823529412,-0.01373493928080551
-0.005429818823529412,-0.009423263214967087
-0.005429478823529412,-0.007481363307448217
-0.005429138823529412,-0.009587831003736041
-0.005428798823529412,-0.00939034965721253
-0.005428458823529412,-0.008962473406403288
-0.005428118823529412,-0.009423263214966249
-0.005427778823529412,-0.01021318860107646
-0.005427438823529412,-0.01034484283209469
-0.005427098823529412,-0.01195760716206798
-0.005426758823529412,-0.0104106699476038
-0.005426418823529412,-0.009982793696794558
-0.005426078823529412,-0.009522003888230759
-0.005425738823529412,-0.01083854619841304
-0.005425398823529412,-0.008007980231521132
-0.005425058823529412,-0.009028300521912402
-0.005424718823529412,-0.008435856482330374
-0.005424378823529412,-0.008435856482330374
-0.005424038823529412,-0.008304202251312145
-0.005423698823529412,-0.008139634462536485
-0.005423358823529412,-0.006559783690320619
-0.005423018823529412,-0.007316795518675433
-0.005422678823529412,-0.00915995475292662
-0.005422338823529412,-0.006954746383375304
-0.005421998823529412,-0.007283881960920875
-0.005421658823529412,-0.01231965629736392
-0.005421318823529412,-0.01001570725454911
-0.005420978823529412,-0.004716624456065421
-0.005420638823529412,-0.00988405302352454
-0.005420298823529412,-0.006395215901547833
-0.005419958823529412,-0.007448449749693661
-0.005419618823529412,-0.01261587831715272
-0.005419278823529412,-0.009094127637421515
-0.005418938823529412,-0.008501683597839487
-0.005418598823529411,-0.01110185466044932
-0.005418258823529412,-0.01100311398718583
-0.005417918823529412,-0.01297792745245925
-0.005417578823529411,-0.00702057349887939
-0.005417238823529412,-0.004255834647501621
