Analysis/files/cmb03_d2s01/wrd09_ch08.csv

#Digilent WaveForms Oscilloscope Acquisition
#Device Name: ADP3450
#Serial Number: SN:210018B9D9B0
#Date Time: 2024-08-09 13:04:43.158.266.550
#Sample rate: 2.94118e+06Hz
#Samples: 32768
#Trigger: Source: Channel 3 Type: Edge Condition: Rising Level: 20 mV Hyst.: Auto HoldOff: 0 s
#Channel 3: Range: 200 mV/div Offset: 0 V Attenuation: 1 X Coupling: DC Bandwidth: 0 Hz Sample Mode: Average

Time (s),Channel 3 (V)
-0.005570352600000001,-0.002478502528755537
-0.0055700126,0.002491444692185579
-0.005569672600000001,0.004137122579910441
-0.005569332600000001,0.00357759209808297
-0.0055689926,0.000253322764874319
-0.005568652600000001,0.001141988824245744
-0.005568312600000001,0.002590185365446257
-0.0055679726,-0.00142526868060953
-0.005567632600000001,-0.001326528007346039
-0.005567292600000001,-0.00119487377632781
-0.0055669526,-0.002840551664052552
-0.005566612600000001,-0.001129046660818696
-0.005566272600000001,-0.001359441565100596
-0.0055659326,-0.002083539835702169
-0.0055655926,-0.002807638106301108
-0.005565252600000001,-0.002807638106301108
-0.0055649126,-0.005309068495645892
-0.0055645726,-0.004453315994028964
-0.005564232600000001,-0.004025439743219721
-0.0055638926,-0.005243241380137616
-0.0055635526,-0.004848278687083649
-0.005563212600000001,-0.003498822819146808
-0.005562872600000001,-0.002939292337320355
-0.0055625326,-0.003202600799355794
-0.005562192600000001,-0.003301341472619465
-0.005561852600000001,-0.006131907439506227
-0.0055615126,-0.006625610805829733
-0.005561172600000001,-0.004782451571574535
-0.005560832600000001,-0.007415536191934314
-0.0055604926,-0.008534597155594046
-0.005560152600000001,-0.01195760716206798
-0.005559812600000001,-0.00856751071335477
-0.0055594726,-0.005638204073193019
-0.005559132600000001,-0.004354575320765292
-0.005558792600000001,-0.00521032782238222
-0.0055584526,-0.01008153437005823
-0.005558112600000001,-0.009653658119248986
-0.005557772600000001,-0.007382622634188677
-0.0055574326,-0.009061214079666959
-0.005557092600000001,-0.01083854619841304
-0.005556752600000001,-0.009225781868442678
-0.0055564126,-0.01008153437005823
-0.005556072600000001,-0.008995386964157845
-0.005555732600000001,-0.008764992059876365
-0.0055553926,-0.009489090330476201
-0.005555052600000001,-0.009258695426194301
-0.005554712600000001,-0.008040893789277904
-0.0055543726,-0.009324522541703417
-0.005554032600000001,-0.01083854619841304
-0.005553692600000001,-0.008797905617630502
-0.0055533526,-0.008896646290894173
-0.005553012600000001,-0.008139634462539359
-0.005552672600000001,-0.007185141287657204
-0.0055523326,-0.007942153116012016
-0.005551992600000001,-0.008732078502121389
-0.005551652600000001,-0.00869916494436683
-0.0055513126,-0.0101144479278165
-0.005550972600000001,-0.01215508850859533
-0.005550632600000001,-0.01083854619841304
-0.0055502926,-0.01136516312249063
-0.005549952600000001,-0.01393242062734141
-0.005549612600000001,-0.01719086284504256
-0.0055492726,-0.009357436099457793
-0.005548932600000001,-0.009258695426194301
-0.005548592600000001,-0.01373493928081407
-0.0055482526,-0.01146390379574975
-0.005547912600000001,-0.01152973091125874
-0.005547572600000001,-0.01215508850859533
-0.0055472326,-0.01149681735350568
-0.005546892600000001,-0.01231965629736811
-0.005546552600000001,-0.01083854619841304
-0.0055462126,-0.009653658119249406
-0.005545872600000001,-0.009884053023530886
-0.005545532600000001,-0.01044358350535836
-0.0055451926,-0.007876326000505357
-0.0055448526,-0.009225781868439744
-0.005544512600000001,-0.01037775638984924
-0.0055441726,-0.008468770040086188
-0.0055438326,-0.009159954752930631
-0.005543492600000001,-0.01123350889146773
-0.0055431526,-0.01182595293105155
-0.0055428126,-0.01281335966368647
-0.005542472600000001,-0.01439321043590521
-0.005542132600000001,-0.01511730870650415
-0.0055417926,-0.01531479005303281
-0.005541452600000001,-0.01636802390117864
-0.005541112600000001,-0.01666424592096911
-0.0055407726,-0.0113322495647314
-0.005540432600000001,-0.01297792745245925
-0.005540092600000001,-0.01021318860108149
-0.0055397526,-0.01169429870003153
-0.005539412600000001,-0.01728960351830624
-0.005539072600000001,-0.01574266630384486
-0.0055387326,-0.01310958168347748
-0.005538392600000001,-0.01531479005303281
-0.005538052600000001,-0.01557809851506879
-0.0055377126,-0.01274753254817735
-0.005537372600000001,-0.0127146189904228
-0.005537032600000001,-0.01373493928081221
-0.0055366926,-0.01136516312248596
-0.005536352600000001,-0.01103602754494038
-0.005536012600000001,-0.01235256985512027
-0.0055356726,-0.01208926139308621
-0.005535332600000001,-0.01264879187491368
-0.005534992600000001,-0.01294501389470416
-0.0055346526,-0.01106894110269494
-0.005534312600000001,-0.00962074456149443
-0.005533972600000001,-0.01133224956472829
-0.0055336326,-0.01001570725454911
-0.005533292600000001,-0.01047649706311291
-0.005532952600000001,-0.01238548341287723
-0.0055326126,-0.01360328504979584
-0.005532272600000001,-0.01366911216530495
-0.005531932600000001,-0.01538061716854192
-0.0055315926,-0.01577557986159661
-0.005531252600000001,-0.01416281553162331
-0.005530912600000001,-0.01942898477235245
-0.0055305726,-0.01452486466692344
-0.005530232600000001,-0.009159954752930631
-0.005529892600000001,-0.01011444792781279
-0.0055295526,-0.008929559848657172
-0.005529212600000001,-0.01357037149204128
-0.005528872600000001,-0.01442612399365977
-0.0055285326,-0.01370202572305508
-0.005528192600000001,-0.01126642244922228
-0.005527852600000001,-0.0138665935118323
-0.0055275126,-0.01380076639632127
-0.005527172600000001,-0.01274753254817735
-0.005526832600000001,-0.01152973091125874
-0.0055264926,-0.01264879187491135
-0.005526152600000001,-0.01136516312248596
-0.005525812600000001,-0.004617883782801749
-0.0055254726,-0.01432738332039346
-0.005525132600000001,-0.01287918677919558
-0.005524792600000001,-0.012253829181859
-0.0055244526,-0.01366911216530483
-0.0055241126,-0.01360328504979584
-0.005523772600000001,-0.01284627322144103
-0.0055234326,-0.01403116130060766
-0.0055230926,-0.01544644428405104
-0.005522752600000001,-0.01719086284504256
-0.0055224126,-0.02321404391414609
-0.0055220726,-0.03397677729986669
-0.005521732600000001,-0.0497752850220541
-0.0055213926,-0.0729464296813141
-0.0055210526,-0.1014166571389542
-0.005520712600000001,-0.130413501520719
-0.005520372600000001,-0.166223452357612
-0.0055200326,-0.1932783968319231
-0.005519692600000001,-0.2117758162899842
-0.005519352600000001,-0.2314581238271735
-0.0055190126,-0.2461375705857418
-0.005518672600000001,-0.2554521074302815
-0.005518332600000001,-0.2598296106116296
-0.0055179926,-0.2598296106116376
-0.005517652600000001,-0.256604081951691
-0.005517312600000001,-0.2528190228099238
-0.0055169726,-0.2466971010675693
-0.005516632600000001,-0.23846871162893
-0.005516292600000001,-0.232379703444348
-0.0055159526,-0.2266198308372895
-0.005515612600000001,-0.2175027753392771
-0.005515272600000001,-0.2073983131086465
-0.0055149326,-0.2036790810823631
-0.005514592600000001,-0.1967343203961516
-0.005514252600000001,-0.1890983749971082
-0.0055139126,-0.1822194414263919
-0.005513572600000001,-0.1775786297829993
-0.005513232600000001,-0.1708313504433274
-0.0055128926,-0.1663221930309408
-0.005512552600000001,-0.1610889373479663
-0.005512212600000001,-0.1534200783911544
-0.0055118726,-0.1513136106948628
-0.005511532600000001,-0.1470348481867704
-0.005511192600000001,-0.1417357653882867
-0.0055108526,-0.1363050283587847
-0.005510512600000001,-0.1335073759496474
-0.005510172600000001,-0.1299527117121552
-0.0055098326,-0.1291956998838004
-0.005509492600000001,-0.1178405224584782
-0.005509152600000001,-0.1112248973498122
-0.0055088126,-0.1064524314753979
-0.005508472600000001,-0.1045105315678826
-0.005508132600000001,-0.1042143095480915
-0.0055077926,-0.09822404203675456
-0.005507452600000001,-0.09404402020193342
-0.005507112600000001,-0.09233251519869645
-0.0055067726,-0.08782335778631756
-0.005506432600000001,-0.08532192739697578
-0.005506092600000001,-0.08120773267765613
-0.0055057526,-0.07778472267118136
-0.005505412600000001,-0.07732393286261841
-0.005505072600000001,-0.07488832958878117
-0.0055047326,-0.07146531958230878
-0.005504392600000001,-0.07232107208392571
-0.005504052600000001,-0.07353887372084433
-0.0055037126,-0.07051082640742105
-0.005503372600000001,-0.06830561803786975
-0.005503032600000001,-0.06718655707421481
-0.0055026926,-0.06455347245384749
-0.0055023526,-0.0630394487971406
-0.005502012600000001,-0.06139377090941276
-0.0055016726,-0.05823406936497067
-0.0055013326,-0.05569972541787438
-0.005500992600000001,-0.05652256436173831
-0.0055006526,-0.05329703570178704
-0.0055003126,-0.05072977819693626
-0.005499972600000001,-0.05128930867876372
-0.005499632600000001,-0.05191466627609918
-0.0054992926,-0.05102600021672727
-0.005498952600000001,-0.04385084462623382
-0.005498612600000001,-0.04187603116096399
-0.0054982726,-0.03868341605876836
-0.005497932600000001,-0.04105319221709647
-0.005497592600000001,-0.04352170904868376
-0.0054972526,-0.03947334144487773
-0.005496912600000001,-0.03871632961652291
-0.005496572600000001,-0.03957208211813984
-0.0054962326,-0.03621489922717657
-0.005495892600000001,-0.03631363990044024
-0.005495552600000001,-0.03641238057370373
-0.0054952126,-0.03387803662660302
-0.005494872600000001,-0.03430591287741226
-0.005494532600000001,-0.03463504845495723
-0.0054941926,-0.03285771633621175
-0.005493852600000001,-0.03256149431642073
-0.005493512600000001,-0.03275897566294771
-0.0054931726,-0.03206779095010238
-0.005492832600000001,-0.03025754527360174
-0.005492492600000001,-0.03246275364315305
-0.0054921526,-0.03114621133297478
-0.005491812600000001,-0.03029045883135629
-0.005491472600000001,-0.02943470632973937
-0.0054911326,-0.0275257199799735
-0.005490792600000001,-0.02581421497673653
-0.005490452600000001,-0.02512303026389083
-0.0054901126,-0.0238394015114631
-0.005489772600000001,-0.021765847372926
-0.005489432600000001,-0.02374066083819943
-0.0054890926,-0.0289080894056649
-0.005488752600000001,-0.02252285920128081
-0.005488412600000001,-0.021765847372926
-0.0054880726,-0.02146962535313319
-0.005487732600000001,-0.02048221862049827
-0.005487392600000001,-0.0254521658414364
-0.0054870526,-0.02252285920127267
-0.005486712600000001,-0.01804661534666105
-0.005486372600000001,-0.02031765083172549
-0.0054860326,-0.02127214400660603
-0.005485692600000001,-0.0203834779472346
-0.005485352600000001,-0.02012016948519815
-0.0054850126,-0.02212789650822661
-0.005484672600000001,-0.02239120497026259
-0.005484332600000001,-0.02150253891088955
-0.0054839926,-0.02156836602639651
-0.005483652600000001,-0.0203834779472346
-0.005483312600000001,-0.01748708486483358
-0.0054829726,-0.01482108668672756
-0.005482632600000001,-0.02202915583496246
-0.005482292600000001,-0.01949481188786156
-0.0054819526,-0.02196332871945322
-0.0054816126,-0.02189750160394423
-0.005481272600000001,-0.0208442677557984
-0.0054809326,-0.02196332871945179
-0.0054805926,-0.02110757621783486
-0.005480252600000001,-0.01952772544561612
-0.0054799126,-0.01768456621136008
-0.0054795726,-0.01722377640279712
-0.005479232600000001,-0.0140969884161142
-0.005478892600000001,-0.01610471543913853
-0.0054785526,-0.01919858986807055
-0.005478212600000001,-0.01090437331392216
-0.005477872600000001,-0.01024610215883221
-0.0054775326,-0.01050941062086747
-0.005477192600000001,-0.01389950706958685
-0.005476852600000001,-0.01768456621135404
-0.0054765126,-0.01896819496378865
-0.005476172600000001,-0.01584140697710572
-0.005475832600000001,-0.01715794928728561
-0.0054754926,-0.02044930506274372
-0.005475152600000001,-0.02008725592744359
-0.005474812600000001,-0.0199885152541801
-0.0054744726,-0.02173293381517144
-0.005474132600000001,-0.02146962535313499
-0.005473792600000001,-0.02031765083172759
-0.0054734526,-0.0224570320857717
-0.005473112600000001,-0.02239120497026259
-0.005472772600000001,-0.01946189833011234
-0.0054724326,-0.01886945429052498
-0.005472092600000001,-0.01844157803971573
-0.005471752600000001,-0.01541353072630199
-0.0054714126,-0.01452486466692344
-0.005471072600000001,-0.012253829181859
-0.005470732600000001,-0.009159954752936258
-0.0054703926,-0.0106410648518857
-0.005470052600000001,-0.01057523773637659
-0.005469712600000001,-0.009554917445985316
-0.0054693726,-0.009258695426194301
-0.005469032600000001,-0.01268170543266824
-0.005468692600000001,-0.01297792745245925
-0.0054683526,-0.01722377640279712
-0.005468012600000001,-0.01383367995407774
-0.005467672600000001,-0.009949880139040001
-0.0054673326,-0.01093728687167671
-0.005466992600000001,-0.01136516312248596
-0.005466652600000001,-0.01491982735997812
-0.0054663126,-0.0151831358220141
-0.005465972600000001,-0.01491982735997812
-0.005465632600000001,-0.014557778224678
-0.0054652926,-0.01409698841611557
-0.005464952600000001,-0.01485400024446901
-0.005464612600000001,-0.01452486466692344
-0.0054642726,-0.01301084101021531
-0.005463932600000001,-0.01383367995407774
-0.005463592600000001,-0.01389950706958685
-0.0054632526,-0.01110185466045154
-0.005462912600000001,-0.01222091562410444
-0.005462572600000001,-0.01218800206634988
-0.0054622326,-0.01057523773637563
-0.005461892600000001,-0.01004862081230367
-0.005461552600000001,-0.01070689196739481
-0.0054612126,-0.01024610215883012
-0.0054608726,-0.009752398792512659
-0.005460532600000001,-0.0111018546604495
-0.0054601926,-0.0107727190829062
-0.0054598526,-0.0120234342775771
-0.005459512600000001,-0.014557778224678
-0.0054591726,-0.01485400024446895
-0.0054588326,-0.01482108668671445
-0.005458492600000001,-0.01610471543914218
-0.0054581526,-0.01883654073277665
-0.0054578126,-0.02225955073924436
-0.005457472600000001,-0.01696046794076066
-0.005457132600000001,-0.01561101207282628
-0.0054567926,-0.0150185680332418
-0.005456452600000001,-0.01626928322791496
-0.005456112600000001,-0.02025182371620913
-0.0054557726,-0.01551227139956015
-0.005455432600000001,-0.01396533418509597
-0.005455092600000001,-0.01524896293752136
-0.0054547526,-0.01376785283856862
-0.005454412600000001,-0.01310958168347748
-0.005454072600000001,-0.01416281553162139
-0.0054537326,-0.01353745793428673
-0.005453392600000001,-0.01531479005303281
-0.005453052600000001,-0.01732251707605714
-0.0054527126,-0.01580849341935116
-0.005452372600000001,-0.01623636967016041
-0.005452032600000001,-0.01692755438300485
-0.0054516926,-0.01544644428405104
-0.005451352600000001,-0.01406407485835964
-0.005451012600000001,-0.01485400024446757
-0.0054506726,-0.01538061716854192
-0.005450332600000001,-0.01416281553162331
-0.005449992600000001,-0.01531479005303071
-0.0054496526,-0.01498565447548724
-0.005449312600000001,-0.01215508850859533
-0.005448972600000001,-0.01222091562410432
-0.0054486326,-0.01261587831715913
-0.005448292600000001,-0.01103602754494038
-0.005447952600000001,-0.01189178004655887
-0.0054476126,-0.01551227139956015
-0.005447272600000001,-0.01850740515522485
-0.005446932600000001,-0.01228674273961356
-0.0054465926,-0.01208926139308621
-0.005446252600000001,-0.009818225908021772
-0.005445912600000001,-0.01195760716206798
-0.0054455726,-0.01640093745892775
-0.005445232600000001,-0.0134058037032685
-0.005444892600000001,-0.01070689196739481
-0.0054445526,-0.01416281553162181
-0.005444212600000001,-0.01333997658775938
-0.005443872600000001,-0.01396533418509597
-0.0054435326,-0.01307666812572269
-0.005443192600000001,-0.0129450138947047
-0.005442852600000001,-0.01176012581554064
-0.0054425126,-0.01189178004655803
-0.005442172600000001,-0.01143099023799507
-0.005441832600000001,-0.01169429870003153
-0.0054414926,-0.01271461899042388
-0.005441152600000001,-0.01330706303000483
-0.005440812600000001,-0.01120059533371317
-0.0054404726,-0.007613017538471296
-0.005440132600000001,-0.01027901571658557
-0.005439792600000001,-0.009752398792512659
-0.0054394526,-0.009620744561495267
-0.0054391126,-0.01008153437005823
-0.005438772600000001,-0.0104106699476038
-0.0054384326,-0.01176012581554549
-0.0054380926,-0.01442612399365977
-0.005437752600000001,-0.01353745793428673
-0.0054374126,-0.0137349392808252
-0.0054370726,-0.01985686102316169
-0.005436732600000001,-0.01314249524123204
-0.005436392600000001,-0.00968657167700983
-0.0054360526,-0.01047649706311291
-0.005435712600000001,-0.009916966581285444
-0.005435372600000001,-0.0139982477428431
-0.0054350326,-0.01656550524770598
-0.005434692600000001,-0.0138665935118323
-0.005434352600000001,-0.01370202572305981
-0.0054340126,-0.01666424592096965
-0.005433672600000001,-0.01610471543914218
-0.005433332600000001,-0.0135045443765369
-0.0054329926,-0.01393242062734141
-0.005432652600000001,-0.0140969884161142
-0.005432312600000001,-0.01353745793428774
-0.0054319726,-0.01482108668671445
-0.005431632600000001,-0.01459069178243255
-0.005431292600000001,-0.01324123591449817
-0.0054309526,-0.01465651889794167
-0.005430612600000001,-0.01570975274608749
-0.005430272600000001,-0.01008153437006847
-0.0054299326,-0.01001570725454911
-0.005429592600000001,-0.0111018546604495
-0.005429252600000001,-0.01014736148556908
-0.0054289126,-0.01067397840964026
-0.005428572600000001,-0.01208926139308621
-0.005428232600000001,-0.01403116130060155
-0.0054278926,-0.014557778224678
-0.005427552600000001,-0.01765165265360636
-0.005427212600000001,-0.01646676457444231
-0.0054268726,-0.01574266630384205
-0.005426532600000001,-0.02150253891088955
-0.005426192600000001,-0.01426155620488698
-0.0054258526,-0.009719485234758102
-0.005425512600000001,-0.01485400024446901
-0.005425172600000001,-0.01574266630384205
-0.0054248326,-0.01212217495084077
-0.005424492600000001,-0.01383367995407774
-0.005424152600000001,-0.01439321043590521
-0.0054238126,-0.01182595293105011
-0.005423472600000001,-0.0120234342775771
-0.005423132600000001,-0.012253829181859
-0.0054227926,-0.01014736148556668
-0.005422452600000001,-0.009785312350267215
-0.005422112600000001,-0.0101802750433219
-0.0054217726,-0.009818225908023568
-0.005421432600000001,-0.01080563264065849
-0.005421092600000001,-0.0120234342775771
-0.0054207526,-0.008830819175387934
-0.005420412600000001,-0.0104106699476038
-0.005420072600000001,-0.01139807668024051
-0.0054197326,-0.009752398792513198
-0.005419392600000001,-0.01004862081230367
-0.005419052600000001,-0.01287918677919558
-0.0054187126,-0.01320832235674002
-0.0054183726,-0.01258296475940457
-0.005418032600000001,-0.0140969884161142
-0.0054176926,-0.01547935784180392
-0.0054173526,-0.014557778224678
-0.005417012600000001,-0.01735543063381535
-0.0054166726,-0.01702629505626942
-0.0054163326,-0.01682881370974244
-0.005415992600000001,-0.01807952890441561
-0.0054156526,-0.01554518495731243
-0.0054153126,-0.01429446976264154
-0.005414972600000001,-0.01047649706311291
-0.005414632600000001,-0.01459069178242507
-0.0054142926,-0.0152489629375237
-0.005413952600000001,-0.01258296475940457
-0.005413612600000001,-0.01264879187491356
-0.0054132726,-0.01212217495084077
-0.005412932600000001,-0.01399824774285052
-0.005412592600000001,-0.01416281553162301
-0.0054122526,-0.01307666812572293
-0.005411912600000001,-0.01284627322144103
-0.005411572600000001,-0.01337289014551298
-0.0054112326,-0.01106894110269494
-0.005410892600000001,-0.01100311398718583
-0.005410552600000001,-0.01202343427757524
-0.0054102126,-0.01166138514227697
-0.005409872600000001,-0.0120234342775771
-0.005409532600000001,-0.01511730870649984
-0.0054091926,-0.01646676457444231
-0.005408852600000001,-0.01505148159099635
-0.005408512600000001,-0.01636802390117624
-0.0054081726,-0.01603888832363307
-0.005407832600000001,-0.0150185680332418
-0.005407492600000001,-0.01587432053485872
-0.0054071526,-0.01692755438300611
-0.005406812600000001,-0.01468943245569622
-0.005406472600000001,-0.01422864264713326
-0.0054061326,-0.01574266630384205
-0.005405792600000001,-0.01725668996055168
-0.005405452600000001,-0.01067397840964026
-0.0054051126,-0.009916966581285444
-0.005404772600000001,-0.008040893789275689
-0.005404432600000001,-0.008271288693557588
-0.0054040926,-0.01436029687815065
-0.005403752600000001,-0.0134058037032685
