Analysis/files/cmb03_d2s01/wrd02_ch08.csv

#Digilent WaveForms Oscilloscope Acquisition
#Device Name: ADP3450
#Serial Number: SN:210018B9D9B0
#Date Time: 2024-08-09 11:58:02.268.014.730
#Sample rate: 2.94118e+06Hz
#Samples: 32768
#Trigger: Source: Channel 3 Type: Edge Condition: Rising Level: 20 mV Hyst.: Auto HoldOff: 0 s
#Channel 3: Range: 200 mV/div Offset: 0 V Attenuation: 1 X Coupling: DC Bandwidth: 0 Hz Sample Mode: Average

Time (s),Channel 3 (V)
-0.005570286126418153,0.009798254513694264
-0.005569946126418152,0.01045652566878397
-0.005569606126418152,0.009666600282676035
-0.005569266126418153,0.009633686724921478
-0.005568926126418152,0.01088440191958998
-0.005568586126418152,0.008317144414739193
-0.005568246126418153,0.007527219028629823
-0.005567906126418152,0.007132256335572624
-0.005567566126418152,0.00574988690988374
-0.005567226126418153,0.004334603926437783
-0.005566886126418152,0.003281370078291178
-0.005566546126418152,0.002853493827482714
-0.005566206126418153,0.002886407385237271
-0.005565866126418152,0.004894134408263937
-0.005565526126418152,0.004170036137664999
-0.005565186126418153,0.004433344599701455
-0.005564846126418152,0.005651146236618511
-0.005564506126418152,0.004795393735001583
-0.005564166126418153,0.00505870219703804
-0.005563826126418152,0.005190356428050821
-0.005563486126418152,0.002195222672391572
-0.005563146126418153,-0.003005119452828451
-0.005562806126418153,0.00486122085049639
-0.005562466126418152,0.004597912388474241
-0.005562126126418153,0.004071295464401327
-0.005561786126418153,0.002557271807694454
-0.005561446126418152,-0.002050626277946295
-0.005561106126418153,-0.0009644788720459105
-0.005560766126418153,0.001536951517295879
-0.005560426126418152,0.001043248150982073
-0.005560086126418153,-0.0007340839677640107
-0.005559746126418153,0.0008457668044518565
-0.005559406126418152,0.001833173537091444
-0.005559066126418153,0.0007799396889456162
-0.005558726126418153,5.58414183466769e-05
-0.005558386126418152,0.00107616170873663
-0.005558046126418153,-0.002017712720191738
-0.005557706126418153,-0.003498822819144114
-0.005557366126418152,-0.003663390607919593
-0.005557026126418152,-0.004848278687083649
-0.005556686126418153,-0.006888919267862477
-0.005556346126418152,-0.006395215901547833
-0.005556006126418152,-0.006066080324002262
-0.005555666126418153,-0.007316795518673157
-0.005555326126418152,-0.005835685419720362
-0.005554986126418152,-0.006230648112775047
-0.005554646126418153,-0.005736944746457588
-0.005554306126418152,-0.004354575320765292
-0.005553966126418152,-0.00415709397423795
-0.005553626126418153,-0.003498822819146808
-0.005553286126418152,-0.004091266858728836
-0.005552946126418152,-0.0004049483902184396
-0.005552606126418153,-0.008863732733139616
-0.005552266126418152,-0.001787317815909838
-0.005551926126418152,-0.005111587149120106
-0.005551586126418153,-0.009686571677003543
-0.005551246126418152,-0.007448449749692524
-0.005550906126418152,-0.006823092152357076
-0.005550566126418153,-0.009159954752930631
-0.005550226126418152,-0.009192868310681475
-0.005549886126418152,-0.007152227729902647
-0.005549546126418153,-0.008172548020293918
-0.005549206126418152,-0.008863732733136922
-0.005548866126418152,-0.007382622634184546
-0.005548526126418153,-0.008205461578048474
-0.005548186126418152,-0.009061214079664204
-0.005547846126418152,-0.007547190422957332
-0.005547506126418153,-0.006691437921338847
-0.005547166126418152,-0.005967339650737753
-0.005546826126418152,-0.005506549842174791
-0.005546486126418153,-0.004552056667292635
-0.005546146126418152,-0.006724351479091309
-0.005545806126418152,-0.005572376957683906
-0.005545466126418153,-0.005539463399929348
-0.005545126126418152,-0.007283881960922312
-0.005544786126418152,-0.008073807347030245
-0.005544446126418153,-0.008962473406403288
-0.005544106126418152,-0.008962473406402091
-0.005543766126418152,-0.008304202251312145
-0.005543426126418153,-0.008501683597839487
-0.005543086126418152,-0.010147361485568
-0.005542746126418152,-0.01050941062086747
-0.005542406126418153,-0.009554917445985316
-0.005542066126418153,-0.01149681735350065
-0.005541726126418152,-0.01205634783533165
-0.005541386126418153,-0.01199052071982254
-0.005541046126418153,-0.01208926139308603
-0.005540706126418152,-0.009982793696794558
-0.005540366126418153,-0.008271288693557588
-0.005540026126418153,-0.007514276865204153
-0.005539686126418152,-0.007382622634184546
-0.005539346126418153,-0.004782451571574535
-0.005539006126418153,-0.005177414264628502
-0.005538666126418152,-0.006757265036847961
-0.005538326126418153,-0.005802771861965805
-0.005537986126418153,-0.008007980231517121
-0.005537646126418152,-0.005341982053402005
-0.005537306126418153,-0.005835685419720362
-0.005536966126418153,-0.006033166766247345
-0.005536626126418152,-0.005572376957683906
-0.005536286126418152,-0.01044358350535836
-0.005535946126418153,-0.0123525698551192
-0.005535606126418152,-0.0111018546604495
-0.005535266126418152,-0.009818225908021772
-0.005534926126418153,-0.008633337828859871
-0.005534586126418152,-0.007448449749693661
-0.005534246126418152,-0.005671117630947577
-0.005533906126418153,-0.005671117630947577
-0.005533566126418152,-0.004354575320765292
-0.005533226126418152,-0.005934426092984033
-0.005532886126418153,-0.006263561670529605
-0.005532546126418152,-0.00860042427110316
-0.005532206126418152,-0.01037775638984924
-0.005531866126418153,-0.01021318860107646
-0.005531526126418152,-0.0101802750433219
-0.005531186126418152,-0.009423263214967087
-0.005530846126418153,-0.00962074456149443
-0.005530506126418152,-0.008468770040084931
-0.005530166126418152,-0.009291608983948858
-0.005529826126418153,-0.008304202251312145
-0.005529486126418152,-0.007678844653979871
-0.005529146126418152,-0.01004862081230367
-0.005528806126418153,-0.009127041195176074
-0.005528466126418152,-0.008007980231523767
-0.005528126126418152,-0.009456176772721644
-0.005527786126418153,-0.0111018546604495
-0.005527446126418152,-0.01189178004654971
-0.005527106126418152,-0.006856005710111633
-0.005526766126418153,-0.006493956574811504
-0.005526426126418152,-0.005276154937898699
-0.005526086126418152,-0.008468770040084931
-0.005525746126418153,-0.01235256985512267
-0.005525406126418152,-0.009719485234754929
-0.005525066126418152,-0.007975066673766575
-0.005524726126418153,-0.01093728687167671
-0.005524386126418152,-0.009225781868441061
-0.005524046126418152,-0.009949880139040001
-0.005523706126418153,-0.009094127637421515
-0.005523366126418152,-0.009818225908022791
-0.005523026126418152,-0.01037775638984924
-0.005522686126418153,-0.01426155620488698
-0.005522346126418152,-0.01896819496381164
-0.005522006126418152,-0.03160700114153858
-0.005521666126418153,-0.04970945790654498
-0.005521326126418152,-0.07199193650643343
-0.005520986126418152,-0.101285002907936
-0.005520646126418153,-0.1317958709464104
-0.005520306126418153,-0.1616484678297394
-0.005519966126418152,-0.1869260801852936
-0.005519626126418153,-0.2100643112867472
-0.005519286126418153,-0.2253691156425884
-0.005518946126418152,-0.2323467898865824
-0.005518606126418153,-0.2351444422957197
-0.005518266126418153,-0.2311948153651801
-0.005517926126418152,-0.2244475360254887
-0.005517586126418153,-0.216844504184186
-0.005517246126418153,-0.2123353467718199
-0.005516906126418152,-0.2067729555112915
-0.005516566126418153,-0.1956481729902512
-0.005516226126418153,-0.1920276816372565
-0.005515886126418152,-0.1870248208585572
-0.005515546126418152,-0.1873868699938574
-0.005515206126418153,-0.1898224732676902
-0.005514866126418152,-0.186004500568166
-0.005514526126418152,-0.1831739346012741
-0.005514186126418153,-0.1846550447002265
-0.005513846126418152,-0.1806725042119277
-0.005513506126418152,-0.1778090246872812
-0.005513166126418153,-0.175208853624676
-0.005512826126418152,-0.1698439437106784
-0.005512486126418152,-0.1633599728330307
-0.005512146126418153,-0.1576988408992469
-0.005511806126418152,-0.1523668445430086
-0.005511466126418152,-0.1475285515530887
-0.005511126126418153,-0.1427560856786779
-0.005510786126418152,-0.1367987317251031
-0.005510446126418152,-0.1332440674876109
-0.005510106126418153,-0.1306768099827555
-0.005509766126418152,-0.1268588372832269
-0.005509426126418152,-0.1224484205441162
-0.005509086126418153,-0.1198153359237516
-0.005508746126418152,-0.1163594123595162
-0.005508406126418152,-0.1125414396599945
-0.005508066126418153,-0.1040826553170733
-0.005507726126418152,-0.1074069246502768
-0.005507386126418152,-0.1036876926240186
-0.005507046126418153,-0.1002317690597901
-0.005506706126418152,-0.1018445333897447
-0.005506366126418152,-0.09154258981258706
-0.005506026126418153,-0.08568397653227591
-0.005505686126418152,-0.08318254614292135
-0.005505346126418152,-0.07867338873055524
-0.005505006126418153,-0.08068111575358322
-0.005504666126418152,-0.07923291921237331
-0.005504326126418152,-0.07406549064491724
-0.005503986126418153,-0.07304517035452598
-0.005503646126418152,-0.07241981275718191
-0.005503306126418152,-0.06830561803786975
-0.005502966126418153,-0.06521174360894139
-0.005502626126418152,-0.06129503023614424
-0.005502286126418152,-0.05862903205802996
-0.005501946126418153,-0.05510728137829235
-0.005501606126418152,-0.05392239329912824
-0.005501266126418152,-0.05388947974137374
-0.005500926126418153,-0.05224380185364588
-0.005500586126418152,-0.05204632050711561
-0.005500246126418152,-0.05043355617714524
-0.005499906126418153,-0.04905118675145385
-0.005499566126418153,-0.04747133597923798
-0.005499226126418152,-0.04605605299578915
-0.005498886126418153,-0.04421289376153395
-0.005498546126418153,-0.04473951068560591
-0.005498206126418152,-0.04622062078456193
-0.005497866126418153,-0.04500281914764332
-0.005497526126418153,-0.0440483259727629
-0.005497186126418152,-0.04368627683746103
-0.005496846126418153,-0.04220516673850597
-0.005496506126418153,-0.04128358712138005
-0.005496166126418152,-0.04246847520054242
-0.005495826126418153,-0.0321994451811206
-0.005495486126418153,-0.02973092834953331
-0.005495146126418152,-0.02946761988749236
-0.005494806126418153,-0.02736115219120071
-0.005494466126418153,-0.03117912489072239
-0.005494126126418152,-0.03163991469929314
-0.005493786126418152,-0.03048794017788364
-0.005493446126418153,-0.02897391652117676
-0.005493106126418152,-0.02973092834952882
-0.005492766126418152,-0.0282169046928192
-0.005492426126418153,-0.02703201661365729
-0.005492086126418152,-0.02792068267302818
-0.005491746126418152,-0.02640665901631855
-0.005491406126418153,-0.02545216584143813
-0.005491066126418152,-0.02657122680509134
-0.005490726126418152,-0.02670288103610957
-0.005490386126418153,-0.02469515401308158
-0.005490046126418152,-0.0226874269900536
-0.005489706126418152,-0.02166710669966233
-0.005489366126418153,-0.01916567631031599
-0.005489026126418152,-0.01916567631031599
-0.005488686126418152,-0.01817826957767928
-0.005488346126418153,-0.01715794928728801
-0.005488006126418152,-0.01702629505627157
-0.005487666126418152,-0.01801370178890649
-0.005487326126418153,-0.01821118313543383
-0.005486986126418152,-0.01804661534666261
-0.005486646126418152,-0.01890236784827953
-0.005486306126418153,-0.01824409669318839
-0.005485966126418152,-0.02248994564352291
-0.005485626126418152,-0.02064678640927106
-0.005485286126418153,-0.01508439514875091
-0.005484946126418152,-0.01478817312895876
-0.005484606126418152,-0.01416281553162331
-0.005484266126418153,-0.01873780005950675
-0.005483926126418152,-0.01821118313543078
-0.005483586126418152,-0.01653259168995142
-0.005483246126418153,-0.01761873909585181
-0.005482906126418152,-0.01821118313543365
-0.005482566126418152,-0.01811244246217016
-0.005482226126418153,-0.01794787467339738
-0.005481886126418152,-0.01781622044237855
-0.005481546126418152,-0.01748708486483358
-0.005481206126418153,-0.01656550524770598
-0.005480866126418152,-0.0161376289968944
-0.005480526126418152,-0.01485400024446901
-0.005480186126418153,-0.0143273833203961
-0.005479846126418152,-0.01162847158452086
-0.005479506126418152,-0.01077271908290393
-0.005479166126418153,-0.0104106699476038
-0.005478826126418153,-0.01004862081230433
-0.005478486126418152,-0.008797905617630502
-0.005478146126418153,-0.01103602754494038
-0.005477806126418153,-0.01093728687167689
-0.005477466126418152,-0.01129933600697684
-0.005477126126418153,-0.01320832235674115
-0.005476786126418153,-0.01333997658775914
-0.005476446126418152,-0.01258296475940457
-0.005476106126418153,-0.0134058037032685
-0.005475766126418153,-0.01468943245569389
-0.005475426126418152,-0.01745417130707902
-0.005475086126418153,-0.01146390379574963
-0.005474746126418153,-0.009851139465779262
-0.005474406126418152,-0.007481363307448217
-0.005474066126418153,-0.008106720904784802
-0.005473726126418153,-0.01241839697062394
-0.005473386126418152,-0.01185886648880431
-0.005473046126418152,-0.01004862081230367
-0.005472706126418153,-0.01133224956472906
-0.005472366126418152,-0.01208926139308621
-0.005472026126418152,-0.01297792745245925
-0.005471686126418153,-0.01176012581554286
-0.005471346126418152,-0.01120059533371317
-0.005471006126418152,-0.009916966581285444
-0.005470666126418153,-0.01021318860107592
-0.005470326126418152,-0.00869916494436683
-0.005469986126418152,-0.007975066673766575
-0.005469646126418153,-0.008863732733139616
-0.005469306126418152,-0.008896646290894173
-0.005468966126418152,-0.009554917445985316
-0.005468626126418153,-0.01050941062086747
-0.005468286126418152,-0.01235256985512267
-0.005467946126418152,-0.0124842240861409
-0.005467606126418153,-0.01327414947225027
-0.005467266126418152,-0.0143273833203961
-0.005466926126418152,-0.0131754087989866
-0.005466586126418153,-0.01439321043590521
-0.005466246126418152,-0.01376785283856515
-0.005465906126418152,-0.01185886648880431
-0.005465566126418153,-0.0101802750433219
-0.005465226126418152,-0.01294501389469937
-0.005464886126418152,-0.01001570725454911
-0.005464546126418153,-0.003103860126092122
-0.005464206126418152,-0.004222921089742753
-0.005463866126418152,-0.001853144931418952
-0.005463526126418153,-0.004584970225047193
-0.005463186126418152,-0.006098993881757777
-0.005462846126418152,-0.006625610805829733
-0.005462506126418153,-0.008139634462539359
-0.005462166126418152,-0.009916966581284008
-0.005461826126418152,-0.009127041195176074
-0.005461486126418153,-0.007086400614393532
-0.005461146126418152,-0.007942153116009681
-0.005460806126418152,-0.00665852436358429
-0.005460466126418153,-0.005901512535229476
-0.005460126126418152,-0.006559783690321756
-0.005459786126418152,-0.007185141287657204
-0.005459446126418153,-0.00711931417214809
-0.005459106126418152,-0.008699164944368088
-0.005458766126418152,-0.00939034965721253
-0.005458426126418153,-0.008732078502121389
-0.005458086126418152,-0.009159954752933984
-0.005457746126418152,-0.01100311398718583
-0.005457406126418153,-0.00939034965721253
-0.005457066126418153,-0.00879790561763158
-0.005456726126418152,-0.01027901571658557
-0.005456386126418153,-0.008633337828857716
-0.005456046126418153,-0.00896247340640269
-0.005455706126418152,-0.008007980231521132
-0.005455366126418153,-0.00665852436358429
-0.005455026126418153,-0.006263561670530323
-0.005454686126418152,-0.01376785283856862
-0.005454346126418153,-0.009686571677003543
-0.005454006126418153,-0.004650797340565466
-0.005453666126418152,-0.006428129459302391
-0.005453326126418153,-0.006362302343793276
-0.005452986126418153,-0.01024610215882395
-0.005452646126418152,-0.01060815129413114
-0.005452306126418153,-0.007481363307448217
-0.005451966126418153,-0.006724351479094782
-0.005451626126418152,-0.008567510713348603
-0.005451286126418152,-0.007942153116012016
-0.005450946126418153,-0.005736944746460701
-0.005450606126418152,-0.006559783690320619
-0.005450266126418152,-0.008501683597839487
-0.005449926126418153,-0.008797905617629963
-0.005449586126418152,-0.009225781868439744
-0.005449246126418152,-0.009522003888230759
-0.005448906126418153,-0.00925869542619478
-0.005448566126418152,-0.008468770040084931
-0.005448226126418152,-0.008732078502121389
-0.005447886126418153,-0.006164820997265934
-0.005447546126418152,-0.005506549842174791
-0.005447206126418152,-0.007876326000502903
-0.005446866126418153,-0.007481363307448217
-0.005446526126418152,-0.007810498884993789
-0.005446186126418152,-0.009719485234758102
-0.005445846126418153,-0.009061214079666959
-0.005445506126418152,-0.008962473406406461
-0.005445166126418152,-0.01070689196739481
-0.005444826126418153,-0.01057523773637659
-0.005444486126418152,-0.01050941062087747
-0.005444146126418152,-0.01600597476587851
-0.005443806126418153,-0.01515022226426002
-0.005443466126418152,-0.008666251386612093
-0.005443126126418152,-0.008567510713348603
-0.005442786126418153,-0.006691437921338847
-0.005442446126418152,-0.009225781868443396
-0.005442106126418152,-0.01123350889146773
-0.005441766126418153,-0.007810498884993789
-0.005441426126418152,-0.006559783690323492
-0.005441086126418152,-0.008139634462539359
-0.005440746126418153,-0.008666251386612273
-0.005440406126418152,-0.007645931096223997
-0.005440066126418152,-0.009291608983948858
-0.005439726126418153,-0.01162847158452241
-0.005439386126418152,-0.01097020042943115
-0.005439046126418152,-0.01090437331392216
-0.005438706126418153,-0.01139807668024051
-0.005438366126418152,-0.01106894110269303
-0.005438026126418152,-0.01001570725454911
-0.005437686126418153,-0.008830819175385059
-0.005437346126418152,-0.008172548020290625
-0.005437006126418152,-0.006362302343793276
-0.005436666126418153,-0.007876326000502903
-0.005436326126418153,-0.003860871954454241
-0.005435986126418152,-0.004716624456065421
-0.005435646126418153,-0.004420402436274407
-0.005435306126418153,-0.006526870132562231
-0.005434966126418152,-0.006691437921338847
-0.005434626126418153,-0.008501683597839487
-0.005434286126418153,-0.01110185466044477
-0.005433946126418152,-0.01172721225778608
-0.005433606126418153,-0.01419572908937787
-0.005433266126418153,-0.008205461578059372
-0.005432926126418152,-0.006164820997265934
-0.005432586126418153,-0.005012846475856435
-0.005432246126418153,-0.007382622634180235
-0.005431906126418152,-0.009818225908021772
-0.005431566126418153,-0.007448449749693661
-0.005431226126418153,-0.007843412442747628
-0.005430886126418152,-0.008929559848648731
-0.005430546126418152,-0.009686571677003543
-0.005430206126418153,-0.01050941062086598
-0.005429866126418152,-0.01034484283209469
-0.005429526126418152,-0.01073980552514937
-0.005429186126418153,-0.01146390379574831
-0.005428846126418152,-0.01057523773637659
-0.005428506126418152,-0.009423263214967087
-0.005428166126418153,-0.01004862081230253
-0.005427826126418152,-0.009061214079666959
-0.005427486126418152,-0.00790923955825746
-0.005427146126418153,-0.00688891926786619
-0.005426806126418152,-0.005341982053402005
-0.005426466126418152,-0.003498822819146808
-0.005426126126418153,-0.003959612627710607
-0.005425786126418152,-0.005276154937892892
-0.005425446126418152,-0.005309068495647449
-0.005425106126418153,-0.006691437921338847
-0.005424766126418152,-0.009357436099457973
-0.005424426126418152,-0.008764992059875945
-0.005424086126418153,-0.008238375135803031
-0.005423746126418152,-0.008995386964158025
-0.005423406126418152,-0.009094127637421515
-0.005423066126418153,-0.01054232417862203
-0.005422726126418152,-0.001622750027140226
-0.005422386126418152,-0.00336716858812858
-0.005422046126418153,-0.007514276865202775
-0.005421706126418152,-0.006724351479094183
-0.005421366126418152,-0.007152227729902647
-0.005421026126418153,-0.008139634462539359
-0.005420686126418152,-0.01212217495083891
-0.005420346126418152,-0.0111018546604495
-0.005420006126418153,-0.01291210033695014
-0.005419666126418152,-0.01376785283856922
-0.005419326126418152,-0.0140969884161142
-0.005418986126418153,-0.01307666812572293
-0.005418646126418152,-0.01350454437653253
-0.005418306126418152,-0.01370202572305951
-0.005417966126418153,-0.00665852436358429
-0.005417626126418152,-0.01080563264065555
-0.005417286126418152,-0.009192868310685188
-0.005416946126418153,-0.00688891926786619
