Analysis/files/cmb03_d2s01/wrd03_ch03.csv

#Digilent WaveForms Oscilloscope Acquisition
#Device Name: ADP3450
#Serial Number: SN:210018B9D9B0
#Date Time: 2024-08-09 12:37:41.146.619.800
#Sample rate: 2.94118e+06Hz
#Samples: 32768
#Trigger: Source: Channel 3 Type: Edge Condition: Rising Level: 20 mV Hyst.: Auto HoldOff: 0 s
#Channel 3: Range: 200 mV/div Offset: 0 V Attenuation: 1 X Coupling: DC Bandwidth: 0 Hz Sample Mode: Average

Time (s),Channel 3 (V)
-0.005570549457364342,0.005322010659074497
-0.005570209457364341,0.002721839596457541
-0.005569869457364342,-0.001096133103064139
-0.005569529457364342,-0.0007011704100094536
-0.005569189457364341,-0.0006024297367511107
-0.005568849457364342,-0.003531736376901365
-0.005568509457364342,-0.004914105802592763
-0.005568169457364341,-0.004420402436275424
-0.005567829457364342,-0.004979932918101878
-0.005567489457364342,-0.005276154937892892
-0.005567149457364341,-0.003564649934657
-0.005566809457364342,-0.00415709397423795
-0.005566469457364342,-0.005802771861965805
-0.005566129457364341,-0.004387488878520389
-0.005565789457364342,-0.004683710898310864
-0.005565449457364342,-0.006724351479093405
-0.005565109457364341,-0.006921832825622903
-0.005564769457364342,-0.008106720904784802
-0.005564429457364342,-0.008271288693557588
-0.005564089457364341,-0.006131907439512393
-0.005563749457364341,-0.006691437921338847
-0.005563409457364342,-0.00790923955825746
-0.005563069457364342,-0.007152227729904024
-0.005562729457364341,-0.006263561670529605
-0.005562389457364342,-0.008238375135803031
-0.005562049457364342,-0.009489090330473925
-0.005561709457364341,-0.01347163081877761
-0.005561369457364342,-0.01574266630384205
-0.005561029457364342,-0.009390349657224085
-0.005560689457364341,-0.009884053023530886
-0.005560349457364342,-0.01057523773637659
-0.005560009457364342,-0.01222091562410145
-0.005559669457364341,-0.01366911216530495
-0.005559329457364342,-0.01333997658775938
-0.005558989457364342,-0.01353745793428637
-0.005558649457364341,-0.01307666812572293
-0.005558309457364342,-0.0136361986075504
-0.005557969457364342,-0.01370202572305939
-0.005557629457364341,-0.01310958168347748
-0.005557289457364342,-0.01274753254817735
-0.005556949457364342,-0.01373493928081227
-0.005556609457364341,-0.01103602754494038
-0.005556269457364342,-0.01060815129413114
-0.005555929457364342,-0.01179303937329304
-0.005555589457364341,-0.009818225908021772
-0.005555249457364342,-0.01054232417862203
-0.005554909457364342,-0.01103602754493949
-0.005554569457364341,-0.01080563264065849
-0.005554229457364342,-0.01067397840964026
-0.005553889457364342,-0.01047649706311291
-0.005553549457364341,-0.01143099023799507
-0.005553209457364342,-0.01159555802676786
-0.005552869457364342,-0.0140969884161142
-0.005552529457364341,-0.01333997658775938
-0.005552189457364342,-0.01314249524123204
-0.005551849457364342,-0.01495274091773268
-0.005551509457364341,-0.01327414947225302
-0.005551169457364342,-0.01478817312895989
-0.005550829457364342,-0.01396533418509597
-0.005550489457364341,-0.009752398792511521
-0.005550149457364342,-0.009127041195176074
-0.005549809457364342,-0.009653658119248986
-0.005549469457364341,-0.01567683918833623
-0.005549129457364342,-0.01748708486483358
-0.005548789457364342,-0.01603888832363307
-0.005548449457364341,-0.01610471543914589
-0.005548109457364342,-0.01814535601992472
-0.005547769457364342,-0.01748708486483358
-0.005547429457364341,-0.01755291198034257
-0.005547089457364342,-0.01748708486483358
-0.005546749457364342,-0.01702629505626978
-0.005546409457364341,-0.01630219678566851
-0.005546069457364342,-0.01574266630384205
-0.005545729457364342,-0.01373493928081407
-0.005545389457364341,-0.01376785283856797
-0.005545049457364342,-0.0134058037032685
-0.005544709457364342,-0.01090437331392216
-0.005544369457364341,-0.01143099023799507
-0.005544029457364342,-0.01143099023799507
-0.005543689457364342,-0.01100311398718583
-0.005543349457364341,-0.01199052071982607
-0.005543009457364341,-0.01393242062734141
-0.005542669457364342,-0.01350454437653217
-0.005542329457364342,-0.01353745793428666
-0.005541989457364341,-0.01468943245569622
-0.005541649457364342,-0.01426155620488698
-0.005541309457364342,-0.01689464082524676
-0.005540969457364341,-0.01804661534666105
-0.005540629457364342,-0.02216081006598069
-0.005540289457364342,-0.01613762899690769
-0.005539949457364341,-0.01666424592096965
-0.005539609457364342,-0.01449195110916888
-0.005539269457364342,-0.01343871726102497
-0.005538929457364341,-0.01798078823115194
-0.005538589457364342,-0.01580849341935116
-0.005538249457364342,-0.01248422408614695
-0.005537909457364341,-0.012253829181859
-0.005537569457364342,-0.01261587831715913
-0.005537229457364342,-0.0104764970631168
-0.005536889457364341,-0.01199052071982254
-0.005536549457364342,-0.01330706303000483
-0.005536209457364342,-0.0124183969706334
-0.005535869457364341,-0.01320832235674115
-0.005535529457364342,-0.0136361986075504
-0.005535189457364342,-0.007448449749704916
-0.005534849457364341,-0.01531479005303281
-0.005534509457364342,-0.01472234601345078
-0.005534169457364342,-0.01261587831716296
-0.005533829457364341,-0.01261587831715913
-0.005533489457364342,-0.01320832235674115
-0.005533149457364342,-0.01268170543266824
-0.005532809457364341,-0.01208926139308621
-0.005532469457364342,-0.0127146189904228
-0.005532129457364342,-0.01261587831715913
-0.005531789457364341,-0.01264879187491368
-0.005531449457364342,-0.01422864264713243
-0.005531109457364342,-0.01452486466692344
-0.005530769457364341,-0.01623636967016041
-0.005530429457364342,-0.02005434236968903
-0.005530089457364342,-0.02179876093068056
-0.005529749457364341,-0.01380076639632468
-0.005529409457364342,-0.01462360534018711
-0.005529069457364342,-0.01373493928081407
-0.005528729457364341,-0.01567683918834066
-0.005528389457364342,-0.0199226881386708
-0.005528049457364342,-0.01696046794076066
-0.005527709457364341,-0.01449195110917086
-0.005527369457364342,-0.01557809851506927
-0.005527029457364342,-0.01686172726749699
-0.005526689457364341,-0.01403116130060454
-0.005526349457364342,-0.01373493928081407
-0.005526009457364342,-0.01449195110916888
-0.005525669457364341,-0.01314249524123366
-0.005525329457364342,-0.01403116130060508
-0.005524989457364342,-0.0152489629375237
-0.005524649457364341,-0.01495274091773466
-0.005524309457364342,-0.01603888832363307
-0.005523969457364342,-0.01761873909585181
-0.005523629457364341,-0.01686172726749538
-0.005523289457364342,-0.01597306120812395
-0.005522949457364342,-0.01962646611887979
-0.005522609457364341,-0.02532051161044008
-0.005522269457364342,-0.03736687374858607
-0.005521929457364342,-0.05612760166868362
-0.005521589457364341,-0.07956205478998259
-0.005521249457364341,-0.1094146516733116
-0.005520909457364342,-0.1415053704840048
-0.005520569457364342,-0.1716212758293697
-0.005520229457364341,-0.1980837762640884
-0.005519889457364342,-0.2268173121838168
-0.005519549457364342,-0.2410688826915141
-0.005519209457364341,-0.2501530246317978
-0.005518869457364342,-0.2581510191661551
-0.005518529457364342,-0.259862524169389
-0.005518189457364341,-0.2624297816742476
-0.005517849457364342,-0.2598296106116376
-0.005517509457364342,-0.2541026515623551
-0.005517169457364341,-0.2471908044338876
-0.005516829457364342,-0.2411347098070491
-0.005516489457364342,-0.2360331083551021
-0.005516149457364341,-0.22806802737849
-0.005515809457364342,-0.2210903531345239
-0.005515469457364342,-0.2147709500456604
-0.005515129457364341,-0.2070691775310825
-0.005514789457364342,-0.1994661456897798
-0.005514449457364342,-0.1952202967394497
-0.005514109457364341,-0.1881767953799667
-0.005513769457364342,-0.179685097479291
-0.005513429457364342,-0.1751759400669249
-0.005513089457364341,-0.169876857268433
-0.005512749457364342,-0.1642815524501583
-0.005512409457364342,-0.1581267171500561
-0.005512069457364341,-0.1538808681997182
-0.005511729457364342,-0.1492729701140803
-0.005511389457364342,-0.1427560856786779
-0.005511049457364341,-0.1386089774016037
-0.005510709457364342,-0.1320591794084469
-0.005510369457364342,-0.129228613441555
-0.005510029457364341,-0.1256739492040628
-0.005509689457364342,-0.1234687408345075
-0.005509349457364342,-0.1229421239104345
-0.005509009457364341,-0.1133971921616048
-0.005508669457364342,-0.1089209483069932
-0.005508329457364342,-0.1050371484919555
-0.005507989457364341,-0.1040826553170726
-0.005507649457364342,-0.1036876926240186
-0.005507309457364342,-0.09884939963409875
-0.005506969457364341,-0.0953276489543527
-0.005506629457364342,-0.09068683731096858
-0.005506289457364342,-0.0876917035553039
-0.005505949457364341,-0.08512444605044371
-0.005505609457364342,-0.08252427498783843
-0.005505269457364342,-0.07959496834768284
-0.005504929457364341,-0.07745558709363111
-0.005504589457364342,-0.07442753978021738
-0.005504249457364342,-0.07169571448658912
-0.005503909457364341,-0.07159697381332115
-0.005503569457364342,-0.06922719765499735
-0.005503229457364342,-0.06639663168810545
-0.005502889457364341,-0.06550796562873103
-0.005502549457364342,-0.0647509538003776
-0.005502209457364342,-0.06363189283672263
-0.005501869457364341,-0.06208495562225774
-0.005501529457364342,-0.06168999292920378
-0.005501189457364342,-0.05787202022967515
-0.005500849457364341,-0.05675295926601733
-0.005500509457364341,-0.05517310849380146
-0.005500169457364342,-0.05168427137181841
-0.005499829457364342,-0.04938032232900361
-0.005499489457364341,-0.04826126136534448
-0.005499149457364342,-0.04891953252043561
-0.005498809457364342,-0.04872205117390863
-0.005498469457364341,-0.04111901933260558
-0.005498129457364342,-0.03953916856038684
-0.005497789457364342,-0.04302800568236354
-0.005497449457364341,-0.04151398202566026
-0.005497109457364342,-0.03884798384754114
-0.005496769457364342,-0.03950625500263108
-0.005496429457364341,-0.04055948885077811
-0.005496089457364342,-0.0400328719267052
-0.005495749457364342,-0.03795931778817187
-0.005495409457364341,-0.03947334144487773
-0.005495069457364342,-0.0391112923095776
-0.005494729457364342,-0.03562245518760089
-0.005494389457364341,-0.03486544335923973
-0.005494049457364342,-0.03506292470576707
-0.005493709457364342,-0.03397677729986866
-0.005493369457364341,-0.03512875182127619
-0.005493029457364342,-0.03598450432289467
-0.005492689457364342,-0.03503001114801425
-0.005492349457364341,-0.03509583826352163
-0.005492009457364342,-0.03397677729986669
-0.005491669457364342,-0.03285771633621378
-0.005491329457364341,-0.03055376729339275
-0.005490989457364342,-0.02936887921422869
-0.005490649457364342,-0.02745989286446438
-0.005490309457364341,-0.02663705392060045
-0.005489969457364342,-0.02031765083172549
-0.005489629457364342,-0.02446475910879968
-0.005489289457364341,-0.02571547430347286
-0.005488949457364342,-0.02657122680509134
-0.005488609457364342,-0.02894100296341945
-0.005488269457364341,-0.0230823896831114
-0.005487929457364342,-0.02479389468634526
-0.005487589457364342,-0.02272034054780816
-0.005487249457364341,-0.02025182371622703
-0.005486909457364342,-0.02611043699652754
-0.005486569457364342,-0.02439893199329057
-0.005486229457364341,-0.02137088467987138
-0.005485889457364342,-0.02140379823762588
-0.005485549457364342,-0.02281908122107183
-0.005485209457364341,-0.0197252067921431
-0.005484869457364342,-0.01952772544561612
-0.005484529457364342,-0.02094300842906207
-0.005484189457364341,-0.01942898477235287
-0.005483849457364342,-0.01965937967663435
-0.005483509457364342,-0.02186458804618967
-0.005483169457364341,-0.02344443881840686
-0.005482829457364342,-0.02258868631678993
-0.005482489457364342,-0.02242411852801714
-0.005482149457364341,-0.0224570320857708
-0.005481809457364342,-0.02196332871945334
-0.005481469457364342,-0.02321404391412651
-0.005481129457364341,-0.02193041516169597
-0.005480789457364342,-0.0203834779472346
-0.005480449457364342,-0.02071261352478018
-0.005480109457364341,-0.02077844064028731
-0.005479769457364341,-0.0196922932343889
-0.005479429457364342,-0.01844157803971573
-0.005479089457364342,-0.01854031871297922
-0.005478749457364341,-0.01890236784827953
-0.005478409457364342,-0.0233786117028993
-0.005478069457364342,-0.02110757621783899
-0.005477729457364341,-0.01544644428405104
-0.005477389457364342,-0.01620345611240585
-0.005477049457364342,-0.01735543063381325
-0.005476709457364341,-0.02002142881193448
-0.005476369457364342,-0.02179876093068056
-0.005476029457364342,-0.01909984919481179
-0.005475689457364341,-0.01686172726749699
-0.005475349457364342,-0.01748708486483358
-0.005475009457364342,-0.01742125774932458
-0.005474669457364341,-0.01580849341935116
-0.005474329457364342,-0.01541353072629648
-0.005473989457364342,-0.0176187390958478
-0.005473649457364341,-0.01775039332687003
-0.005473309457364342,-0.01728960351830624
-0.005472969457364342,-0.01883654073276761
-0.005472629457364341,-0.01877071361726131
-0.005472289457364342,-0.01873780005950675
-0.005471949457364342,-0.01952772544561468
-0.005471609457364341,-0.01830992380869751
-0.005471269457364342,-0.01798078823115194
-0.005470929457364342,-0.01913276275255934
-0.005470589457364341,-0.01873780005950675
-0.005470249457364342,-0.01811244246217016
-0.005469909457364342,-0.01886945429052498
-0.005469569457364341,-0.01939607121459789
-0.005469229457364342,-0.01751999842258814
-0.005468889457364342,-0.01686172726749699
-0.005468549457364341,-0.01623636967016041
-0.005468209457364342,-0.01630219678566952
-0.005467869457364342,-0.02041639150498916
-0.005467529457364341,-0.01738834419156991
-0.005467189457364342,-0.01327414947225027
-0.005466849457364342,-0.0138665935118323
-0.005466509457364341,-0.01673007303648302
-0.005466169457364342,-0.01906693563705232
-0.005465829457364342,-0.01515022226426002
-0.005465489457364341,-0.01557809851507172
-0.005465149457364342,-0.01692755438300611
-0.005464809457364342,-0.01663133236321509
-0.005464469457364341,-0.01982394746540186
-0.005464129457364342,-0.01692755438300611
-0.005463789457364342,-0.01182595293104976
-0.005463449457364341,-0.01857323227073378
-0.005463109457364342,-0.01847449159747029
-0.005462769457364342,-0.01347163081877761
-0.005462429457364341,-0.01501856803324617
-0.005462089457364342,-0.01742125774932446
-0.005461749457364342,-0.01682881370974244
-0.005461409457364341,-0.01745417130707124
-0.005461069457364342,-0.0131754087989866
-0.005460729457364342,-0.01449195110916888
-0.005460389457364341,-0.02094300842905866
-0.005460049457364342,-0.01906693563705232
-0.005459709457364342,-0.01449195110916888
-0.005459369457364341,-0.01584140697710572
-0.005459029457364342,-0.01584140697710572
-0.005458689457364342,-0.01327414947225027
-0.005458349457364341,-0.01241839697063406
-0.005458009457364341,-0.01366911216530495
-0.005457669457364342,-0.0136361986075504
-0.005457329457364342,-0.01297792745246045
-0.005456989457364341,-0.01314249524123204
-0.005456649457364342,-0.01215508850859533
-0.005456309457364342,-0.01301084101021226
-0.005455969457364341,-0.01416281553162331
-0.005455629457364342,-0.01406407485835964
-0.005455289457364342,-0.01320832235674271
-0.005454949457364341,-0.01544644428405104
-0.005454609457364342,-0.01712503572953345
-0.005454269457364342,-0.01564392563058108
-0.005453929457364341,-0.01656550524770598
-0.005453589457364342,-0.01544644428405104
-0.005453249457364342,-0.01498565447548808
-0.005452909457364341,-0.01465651889794167
-0.005452569457364342,-0.01465651889794167
-0.005452229457364342,-0.01360328504979775
-0.005451889457364341,-0.01811244246217016
-0.005451549457364342,-0.01844157803971573
-0.005451209457364342,-0.01347163081878665
-0.005450869457364341,-0.01465651889794167
-0.005450529457364342,-0.01495274091773268
-0.005450189457364342,-0.01926441698357182
-0.005449849457364341,-0.01952772544561612
-0.005449509457364342,-0.01725668996055168
-0.005449169457364342,-0.01656550524770723
-0.005448829457364341,-0.01617054255465129
-0.005448489457364342,-0.01597306120812395
-0.005448149457364342,-0.01722377640279712
-0.005447809457364341,-0.01482108668671445
-0.005447469457364342,-0.01554518495731471
-0.005447129457364342,-0.01689464082525155
-0.005446789457364341,-0.01636802390117864
-0.005446449457364342,-0.01821118313543383
-0.005446109457364342,-0.01712503572953345
-0.005445769457364341,-0.01663133236321725
-0.005445429457364342,-0.01781622044237915
-0.005445089457364342,-0.01755291198034269
-0.005444749457364341,-0.01241839697063633
-0.005444409457364342,-0.01491982735997812
-0.005444069457364342,-0.01870488650175219
-0.005443729457364341,-0.01761873909585318
-0.005443389457364342,-0.01837575092420662
-0.005443049457364342,-0.01913276275256143
-0.005442709457364341,-0.01867197294399614
-0.005442369457364342,-0.01784913400013371
-0.005442029457364342,-0.01824409669318839
-0.005441689457364341,-0.01821118313543958
-0.005441349457364342,-0.02137088467987132
-0.005441009457364342,-0.01636802390117864
-0.005440669457364341,-0.01317540879898714
-0.005440329457364342,-0.01347163081877761
-0.005439989457364342,-0.01274753254817735
-0.005439649457364341,-0.01791496111564061
-0.005439309457364342,-0.01669715947872421
-0.005438969457364342,-0.01482108668671445
-0.005438629457364341,-0.0147223460134494
-0.005438289457364342,-0.01396533418509597
-0.005437949457364342,-0.01442612399365977
-0.005437609457364341,-0.0132412359144944
-0.005437269457364341,-0.01251713764389546
-0.005436929457364342,-0.01152973091125874
-0.005436589457364342,-0.01347163081877408
-0.005436249457364341,-0.01337289014551394
-0.005435909457364342,-0.01436029687815065
-0.005435569457364342,-0.01485400024446811
-0.005435229457364341,-0.01419572908937787
-0.005434889457364342,-0.01564392563057838
-0.005434549457364342,-0.01626928322791383
-0.005434209457364341,-0.01561101207282382
-0.005433869457364342,-0.01610471543914218
-0.005433529457364342,-0.01765165265360355
-0.005433189457364341,-0.01837575092420662
-0.005432849457364342,-0.01751999842258814
-0.005432509457364342,-0.01929733054133098
-0.005432169457364341,-0.01962646611887979
-0.005431829457364342,-0.02067969996702562
-0.005431489457364342,-0.02146962535313355
-0.005431149457364341,-0.02433310487778146
-0.005430809457364342,-0.02443184555104513
-0.005430469457364342,-0.01742125774933721
-0.005430129457364341,-0.01755291198034269
-0.005429789457364342,-0.01419572908937787
-0.005429449457364342,-0.01590723409261173
-0.005429109457364341,-0.01890236784827953
-0.005428769457364342,-0.01505148159099635
-0.005428429457364342,-0.01169429870003763
-0.005428089457364341,-0.01422864264713243
-0.005427749457364342,-0.01360328504979584
-0.005427409457364342,-0.01472234601345078
-0.005427069457364341,-0.01580849341935116
-0.005426729457364342,-0.01709212217177889
-0.005426389457364342,-0.01791496111564282
-0.005426049457364341,-0.01926441698357966
-0.005425709457364342,-0.01821118313543383
-0.005425369457364342,-0.01692755438300611
-0.005425029457364341,-0.01626928322791496
-0.005424689457364342,-0.01426155620488698
-0.005424349457364342,-0.01416281553162331
-0.005424009457364341,-0.01482108668671344
-0.005423669457364342,-0.01426155620488698
-0.005423329457364342,-0.01406407485835964
-0.005422989457364341,-0.01603888832363516
-0.005422649457364342,-0.01719086284504256
-0.005422309457364342,-0.01636802390117864
-0.005421969457364341,-0.01765165265360828
-0.005421629457364342,-0.01870488650175219
-0.005421289457364342,-0.01814535601992472
-0.005420949457364341,-0.01919858986807743
-0.005420609457364342,-0.02298364900984462
-0.005420269457364342,-0.01893528140603409
-0.005419929457364341,-0.01505148159099581
-0.005419589457364342,-0.01475525957120534
-0.005419249457364342,-0.01077271908290393
-0.005418909457364341,-0.01449195110917301
-0.005418569457364342,-0.01676298659423332
-0.005418229457364342,-0.01403116130060508
-0.005417889457364341,-0.01353745793429151
-0.005417549457364342,-0.01617054255465129
-0.005417209457364342,-0.01794787467339738
-0.005416869457364341,-0.01811244246217124
-0.005416529457364342,-0.01870488650175219
-0.005416189457364342,-0.01821118313543383
-0.005415849457364341,-0.0170592086140253
