Analysis/files/cmb03_d2s01/wrd06_ch23.csv

#Digilent WaveForms Oscilloscope Acquisition
#Device Name: ADP3450
#Serial Number: SN:210018B9D9B0
#Date Time: 2024-08-09 18:26:59.442.876.270
#Sample rate: 2.94118e+06Hz
#Samples: 32768
#Trigger: Source: Channel 3 Type: Edge Condition: Rising Level: 60 mV Hyst.: Auto HoldOff: 0 s
#Channel 3: Range: 200 mV/div Offset: -20 mV Attenuation: 1 X Coupling: DC Bandwidth: 0 Hz Sample Mode: Average

Time (s),Channel 3 (V)
-0.005570412752525253,0.01184279215196648
-0.005570072752525253,0.007926078779171428
-0.005569732752525253,0.006412055122464556
-0.005569392752525253,0.004568895888209358
-0.005569052752525253,0.003449834924553041
-0.005568712752525253,0.002692823096199604
-0.005568372752525253,0.001869984152335677
-0.005568032752525253,-0.0004668784482361416
-0.005567692752525253,0.0004876147266442768
-0.005567352752525253,0.001080058766226306
-0.005567012752525253,0.001771243479071704
-0.005566672752525253,0.001606675690299219
-0.005566332752525253,0.00328526713578163
-0.005565992752525253,0.003581489155571089
-0.005565652752525253,0.002725736653954161
-0.005565312752525253,0.004799290792491258
-0.005564972752525253,0.003482748482310292
-0.005564632752525253,0.004206846752909232
-0.005564292752525253,0.004601809445963915
-0.005563952752525253,-0.0002035699862010641
-0.005563612752525253,-6.088639674078911e-06
-0.005563272752525253,0.0052271670433005
-0.005562932752525254,0.004832204350246533
-0.005562592752525253,0.00180415703682656
-0.005562252752525253,-0.0007631004680288926
-0.005561912752525254,-0.003231617299616184
-0.005561572752525253,-0.001322630949856365
-0.005561232752525253,-0.002606259702284092
-0.005560892752525253,-0.002968308837583562
-0.005560552752525253,-0.004515246052048404
-0.005560212752525253,-0.00500894941836676
-0.005559872752525253,-0.005206430764893742
-0.005559532752525253,-0.007016676441394743
-0.005559192752525253,-0.005930529035494358
-0.005558852752525253,-0.004186110474506005
-0.005558512752525253,-0.002902481722075106
-0.005558172752525253,-0.003527839319411689
-0.005557832752525253,-0.00280374104881275
-0.005557492752525253,-0.001717593642911051
-0.005557152752525253,-0.002507519029020421
-0.005556812752525253,-0.001388458065367515
-0.005556472752525253,-0.002935395279829663
-0.005556132752525253,-0.003560752877166246
-0.005555792752525253,-0.002540432586776834
-0.005555452752525253,-0.002770827491056876
-0.005555112752525253,-0.004745640956330302
-0.005554772752525253,-0.003856974896958877
-0.005554432752525253,-0.004745640956330302
-0.005554092752525253,-0.005831788362230687
-0.005553752752525253,-0.005370998553666888
-0.005553412752525253,-0.009254798368704627
-0.005553072752525253,-0.008069910289540572
-0.005552732752525253,-0.001849247873929278
-0.005552392752525253,-0.001125149603329021
-0.005552052752525253,-0.001717593642911051
-0.005551712752525253,-0.005041862976121317
-0.005551372752525253,-0.005700134131210903
-0.005551032752525253,-0.004844381629593972
-0.005550692752525253,-0.005667220573457903
-0.005550352752525253,-0.005996356151002634
-0.005550012752525253,-0.005535566342439673
-0.005549672752525253,-0.004712727398575745
-0.005549332752525253,-0.003955715570224344
-0.005548992752525253,-0.005831788362230687
-0.005548652752525253,-0.006325491728549043
-0.005548312752525253,-0.005733047688968394
-0.005547972752525253,-0.006490059517321831
-0.005547632752525253,-0.007806601827504114
-0.005547292752525253,-0.007707861154240563
-0.005546952752525253,-0.007773688269749557
-0.005546612752525253,-0.007543293365467656
-0.005546272752525253,-0.006687540863848453
-0.005545932752525253,-0.006292578170794486
-0.005545592752525253,-0.007279984903431201
-0.005545252752525253,-0.00540391211141905
-0.005544912752525253,-0.004087369801239162
-0.005544572752525253,-0.005963442593248915
-0.005544232752525253,-0.004482332494294386
-0.005543892752525253,-0.004778554514084859
-0.005543552752525253,-0.000433964890483321
-0.005543212752525253,-0.007115417114665359
-0.005542872752525253,-0.01093338981418704
-0.005542532752525253,-0.00491020874510309
-0.005542192752525254,-0.004350678263276634
-0.005541852752525253,-0.002770827491056876
-0.005541512752525253,-0.005338084995912332
-0.005541172752525254,-0.01129543894947633
-0.005540832752525253,-0.009188971253195514
-0.005540492752525253,-0.007247071345676644
-0.005540152752525253,-0.008662354329120023
-0.005539812752525253,-0.008399045867086143
-0.005539472752525253,-0.007576206923222212
-0.005539132752525253,-0.008135737405048667
-0.005538792752525253,-0.007905342500767784
-0.005538452752525253,-0.009057317022177283
-0.005538112752525253,-0.009781415292776223
-0.005537772752525253,-0.009452279715231968
-0.005537432752525253,-0.009452279715231968
-0.005537092752525253,-0.01086756269867535
-0.005536752752525253,-0.01020929154358678
-0.005536412752525253,-0.008859835675649942
-0.005536072752525253,-0.008761095002386449
-0.005535732752525253,-0.006720454421603728
-0.005535392752525253,-0.006095096824267145
-0.005535052752525253,-0.006654627306093597
-0.005534712752525253,-0.004581073167557518
-0.005534372752525253,-0.002606259702284092
-0.005534032752525253,-0.003791147781445992
-0.005533692752525253,-0.002737913933302319
-0.005533352752525253,-0.003297444415129792
-0.005533012752525253,-0.003462012203902576
-0.005532672752525253,-0.007378725576694872
-0.005532332752525253,-0.01076882202541425
-0.005531992752525253,-0.0063584052863036
-0.005531652752525253,-0.008761095002386268
-0.005531312752525253,-0.01142709318050539
-0.005530972752525253,-0.01139417962275084
-0.005530632752525253,-0.009913069523795767
-0.005530292752525253,-0.00968267461951387
-0.005529952752525253,-0.008366132309331583
-0.005529612752525253,-0.008497786540348077
-0.005529272752525253,-0.007543293365467656
-0.005528932752525253,-0.007312898461185758
-0.005528592752525253,-0.007543293365466398
-0.005528252752525253,-0.006852108652621959
-0.005527912752525253,-0.006983762883640186
-0.005527572752525253,-0.007543293365468553
-0.005527232752525253,-0.008036996731786015
-0.005526892752525253,-0.006522973075076387
-0.005526552752525253,-0.009254798368704029
-0.005526212752525253,-0.008925662791159056
-0.005525872752525253,-0.009353539041968298
-0.005525532752525253,-0.009551020388497618
-0.005525192752525253,-0.01063716779439602
-0.005524852752525253,-0.00988015596604121
-0.005524512752525253,-0.008991489906666853
-0.005524172752525253,-0.008267391636067913
-0.005523832752525253,-0.006292578170794486
-0.005523492752525253,-0.008826922117905802
-0.005523152752525253,-0.01455388116718832
-0.005522812752525253,-0.02409881291600988
-0.005522472752525253,-0.04144425785271302
-0.005522132752525253,-0.06978283107933514
-0.005521792752525253,-0.09239444525671589
-0.005521452752525253,-0.1238598064701301
-0.005521112752525253,-0.1555226490299564
-0.005520772752525253,-0.1852435916823215
-0.005520432752525254,-0.2182229765523277
-0.005520092752525253,-0.2398471839971317
-0.005519752752525253,-0.2539671002738367
-0.005519412752525253,-0.2645652658707848
-0.005519072752525253,-0.272299951943125
-0.005518732752525253,-0.2712138045372247
-0.005518392752525253,-0.2674616589532119
-0.005518052752525253,-0.2641044760622403
-0.005517712752525253,-0.2564685306631831
-0.005517372752525253,-0.2487338445908762
-0.005517032752525253,-0.2412624669805777
-0.005516692752525253,-0.234251879178857
-0.005516352752525253,-0.2248386016610708
-0.005516012752525253,-0.2168406071266963
-0.005515672752525253,-0.2103566362490485
-0.005515332752525253,-0.2004167418071904
-0.005514992752525253,-0.1934390675632062
-0.005514652752525253,-0.1867247017812766
-0.005514312752525253,-0.1806686071544491
-0.005513972752525253,-0.1740200684880175
-0.005513632752525253,-0.1681943687654609
-0.005513292752525253,-0.161183780963753
-0.005512952752525253,-0.1557859574919929
-0.005512612752525253,-0.1510793187330912
-0.005512272752525253,-0.1445953478554435
-0.005511932752525253,-0.1418306090040607
-0.005511592752525253,-0.1385392532286049
-0.005511252752525253,-0.1269865944567554
-0.005510912752525253,-0.1222799556978537
-0.005510572752525253,-0.1182645016517978
-0.005510232752525253,-0.1168492186683518
-0.005509892752525253,-0.1156643305891878
-0.005509552752525253,-0.1113526545233408
-0.005509212752525253,-0.107765076728094
-0.005508872752525253,-0.1043420667216153
-0.005508532752525253,-0.1017089821012555
-0.005508192752525253,-0.09822014497927248
-0.005507852752525253,-0.092427358814463
-0.005507512752525253,-0.08834607765290536
-0.005507172752525253,-0.08475849985765863
-0.005506832752525253,-0.08011768821425828
-0.005506492752525253,-0.07583892570617365
-0.005506152752525253,-0.07340332243233644
-0.005505812752525253,-0.06859794300016563
-0.005505472752525253,-0.0656028092445064
-0.005505132752525253,-0.06379256356800575
-0.005504792752525253,-0.0609949111588678
-0.005504452752525253,-0.06066577558132282
-0.005504112752525253,-0.06063286202356827
-0.005503772752525253,-0.0601720722150025
-0.005503432752525253,-0.05908592480910408
-0.005503092752525253,-0.05859222144278573
-0.005502752752525253,-0.05641992663097909
-0.005502412752525253,-0.05319439797103836
-0.005502072752525253,-0.05256904037370178
-0.005501732752525253,-0.04963973373355062
-0.005501392752525253,-0.05207533700738342
-0.005501052752525253,-0.04634837795809049
-0.005500712752525253,-0.0421683561232576
-0.005500372752525253,-0.03989732063819729
-0.005500032752525253,-0.03848203765475134
-0.005499692752525254,-0.04197087477672804
-0.005499352752525253,-0.04022645621574286
-0.005499012752525253,-0.03742880380660551
-0.005498672752525254,-0.03654013774723409
-0.005498332752525253,-0.03654013774723247
-0.005497992752525253,-0.03446658360869537
-0.005497652752525253,-0.0341703615889049
-0.005497312752525253,-0.03282090572096751
-0.005496972752525253,-0.02794969917329306
-0.005496632752525253,-0.03150436341077877
-0.005496292752525253,-0.0309119193712032
-0.005495952752525253,-0.02768639071125661
-0.005495612752525253,-0.0265344161898492
-0.005495272752525253,-0.02584323147700141
-0.005494932752525253,-0.02485582474436469
-0.005494592752525253,-0.02403298580050226
-0.005494252752525253,-0.0243950349358009
-0.005493912752525253,-0.02413172647376444
-0.005493572752525253,-0.0245596027245729
-0.005493232752525253,-0.02462542984008279
-0.005492892752525253,-0.02242022147052747
-0.005492552752525253,-0.02261770281705445
-0.005492212752525253,-0.02238730791277291
-0.005491872752525253,-0.0213999011801362
-0.005491532752525253,-0.01975422329241134
-0.005491192752525253,-0.02133407406462708
-0.005490852752525253,-0.02156446896890898
-0.005490512752525253,-0.01432348626290642
-0.005490172752525253,-0.01415891847413363
-0.005489832752525253,-0.01271072193293312
-0.005489492752525253,-0.01415891847413363
-0.005489152752525253,-0.0197871368501629
-0.005488812752525253,-0.01728570646081656
-0.005488472752525253,-0.01527797943778858
-0.005488132752525253,-0.01675908953674161
-0.005487792752525253,-0.01564002857308871
-0.005487452752525253,-0.01376395578107895
-0.005487112752525253,-0.01432348626290409
-0.005486772752525253,-0.0130398575104787
-0.005486432752525253,-0.009583933946250199
-0.005486092752525253,-0.009781415292780055
-0.005485752752525253,-0.01116378471846894
-0.005485412752525253,-0.01014346442807767
-0.005485072752525253,-0.01136126606499826
-0.005484732752525253,-0.01244741347089667
-0.005484392752525253,-0.01313859818374236
-0.005484052752525253,-0.01373104222332511
-0.005483712752525253,-0.01412600491637908
-0.005483372752525253,-0.01257906770191489
-0.005483032752525253,-0.01231575923987796
-0.005482692752525253,-0.01205245077784198
-0.005482352752525253,-0.01070299490990514
-0.005482012752525253,-0.01152583385376817
-0.005481672752525253,-0.01103213048745071
-0.005481332752525253,-0.0102751186590959
-0.005480992752525253,-0.01113087116072654
-0.005480652752525253,-0.01781232338488947
-0.005480312752525253,-0.01241449991314211
-0.005479972752525253,-0.0084319594248407
-0.005479632752525253,-0.0084319594248407
-0.005479292752525253,-0.005996356151003471
-0.005478952752525254,-0.008267391636063782
-0.005478612752525253,-0.008991489906668169
-0.005478272752525253,-0.006753367979358285
-0.005477932752525254,-0.004877295187351945
-0.005477592752525253,-0.007247071345676644
-0.005477252752525253,-0.00714833067241297
-0.005476912752525253,-0.005041862976125149
-0.005476572752525253,-0.006424232401812717
-0.005476232752525253,-0.007181244230167527
-0.005475892752525253,-0.007312898461185519
-0.005475552752525253,-0.007872428943013227
-0.005475212752525253,-0.0111966982762235
-0.005474872752525253,-0.01053842712113355
-0.005474532752525253,-0.01070299490990514
-0.005474192752525253,-0.0111966982762235
-0.005473852752525253,-0.00961684750400763
-0.005473512752525253,-0.009748501735022983
-0.005473172752525253,-0.01037385933235957
-0.005472832752525253,-0.009156057695443169
-0.005472492752525253,-0.008563613655858927
-0.005472152752525253,-0.01103213048745071
-0.005471812752525253,-0.01050551356337875
-0.005471472752525253,-0.00909023057993184
-0.005471132752525253,-0.0102751186590959
-0.005470792752525253,-0.01004472375481442
-0.005470452752525253,-0.010044723754814
-0.005470112752525253,-0.01504758453350668
-0.005469772752525253,-0.008004083174031458
-0.005469432752525253,-0.004581073167557518
-0.005469092752525253,-0.005338084995912332
-0.005468752752525253,-0.004186110474502833
-0.005468412752525253,-0.008695267886877155
-0.005468072752525253,-0.008530700098104371
-0.005467732752525253,-0.006193837497530816
-0.005467392752525253,-0.005272257880403218
-0.005467052752525253,-0.008135737405049685
-0.005466712752525253,-0.009188971253195514
-0.005466372752525253,-0.008102823847298123
-0.005466032752525253,-0.009748501735022983
-0.005465692752525253,-0.01129543894948717
-0.005465352752525253,-0.01182205587355805
-0.005465012752525253,-0.01070299490990514
-0.005464672752525253,-0.01109795760295982
-0.005464332752525253,-0.009518106830738808
-0.005463992752525253,-0.008267391636067913
-0.005463652752525253,-0.008925662791159056
-0.005463312752525253,-0.007214157787919513
-0.005462972752525253,-0.005798874804476131
-0.005462632752525253,-0.006852108652621959
-0.005462292752525253,-0.006358405286302043
-0.005461952752525253,-0.005502652784685116
-0.005461612752525253,-0.006720454421603728
-0.005461272752525253,-0.006852108652622617
-0.005460932752525253,-0.007214157787922088
-0.005460592752525253,-0.008300305193822469
-0.005460252752525253,-0.008267391636070367
-0.005459912752525253,-0.009616847504004756
-0.005459572752525253,-0.01231575923987844
-0.005459232752525253,-0.007115417114655121
-0.005458892752525253,-0.005305171438157775
-0.005458552752525253,-0.00510769009163043
-0.005458212752525253,-0.006852108652626808
-0.005457872752525253,-0.009518106830741082
-0.005457532752525253,-0.00714833067241297
-0.005457192752525254,-0.007115417114658473
-0.005456852752525253,-0.007740774711995
-0.005456512752525253,-0.008004083174031458
-0.005456172752525254,-0.009978896639301292
-0.005455832752525253,-0.008497786540349814
-0.005455492752525253,-0.008695267886877155
-0.005455152752525253,-0.009221884810949113
-0.005454812752525253,-0.008234478078313356
-0.005454472752525253,-0.007971169616276898
-0.005454132752525253,-0.009057317022175307
-0.005453792752525253,-0.01047260000562324
-0.005453452752525253,-0.009057317022177283
-0.005453112752525253,-0.01043968644786617
-0.005452772752525253,-0.009287711926459184
-0.005452432752525253,-0.007378725576694872
-0.005452092752525253,-0.007905342500766827
-0.005451752752525253,-0.007740774711995
-0.005451412752525253,-0.006193837497530816
-0.005451072752525253,-0.006029269708758331
-0.005450732752525253,-0.006852108652621959
-0.005450392752525253,-0.004581073167557518
-0.005450052752525253,-0.002836654606569162
-0.005449712752525253,-0.007674947596485886
-0.005449372752525253,-0.009353539041968298
-0.005449032752525253,-0.01037385933235771
-0.005448692752525253,-0.004021542685730045
-0.005448352752525253,-0.003725320665939034
-0.005448012752525253,-0.002869568164320546
-0.005447672752525253,-0.006852108652621959
-0.005447332752525253,-0.009814328850532097
-0.005446992752525253,-0.007773688269749557
-0.005446652752525253,-0.008892749233404499
-0.005446312752525253,-0.008168650962804242
-0.005445972752525253,-0.007938256058522341
-0.005445632752525253,-0.007971169616274504
-0.005445292752525253,-0.006654627306094615
-0.005444952752525253,-0.006193837497530816
-0.005444612752525253,-0.005601393457949863
-0.005444272752525253,-0.006193837497530816
-0.005443932752525253,-0.00510769009163043
-0.005443592752525253,-0.005963442593250591
-0.005443252752525253,-0.006885022210376516
-0.005442912752525253,-0.005634307015703346
-0.005442572752525253,-0.00520643076489434
-0.005442232752525253,-0.005338084995912332
-0.005441892752525253,-0.005206430764894101
-0.005441552752525253,-0.00533808499591311
-0.005441212752525253,-0.005765961246721574
-0.005440872752525253,-0.003955715570220932
-0.005440532752525253,-0.00491020874510758
-0.005440192752525253,-0.007378725576694872
-0.005439852752525253,-0.007345812018940315
-0.005439512752525253,-0.007016676441396539
-0.005439172752525253,-0.008004083174031458
-0.005438832752525253,-0.01310568462598781
-0.005438492752525253,-0.01004472375481053
-0.005438152752525253,-0.008135737405049685
-0.005437812752525253,-0.006720454421603728
-0.005437472752525253,-0.007806601827517285
-0.005437132752525253,-0.01504758453350668
-0.005436792752525253,-0.01465262184045199
-0.005436452752525254,-0.01007763731257688
-0.005436112752525253,-0.01129543894948717
-0.005435772752525253,-0.01040677289011413
-0.005435432752525254,-0.008991489906670744
-0.005435092752525253,-0.006588800190585501
-0.005434752752525253,-0.005930529035494358
-0.005434412752525253,-0.004153196916751509
-0.005434072752525253,-0.003922802012466375
-0.005433732752525253,-0.005173517207139544
-0.005433392752525253,-0.004515246052049601
-0.005433052752525253,-0.006753367979358285
-0.005432712752525253,-0.0070495899991493
-0.005432372752525253,-0.006786281537113321
-0.005432032752525253,-0.006292578170794486
-0.005431692752525253,-0.007247071345676644
-0.005431352752525253,-0.006588800190586698
-0.005431012752525253,-0.006917935768131073
-0.005430672752525253,-0.009057317022177283
-0.005430332752525253,-0.007576206923224907
-0.005429992752525253,-0.008662354329122598
-0.005429652752525253,-0.008826922117895385
-0.005429312752525253,-0.008036996731787451
-0.005428972752525253,-0.00714833067241297
-0.005428632752525253,-0.00909023057993184
-0.005428292752525253,-0.013138598183735
-0.005427952752525253,-0.005634307015703346
-0.005427612752525253,-0.005403912111421445
-0.005427272752525253,-0.003132876626357004
-0.005426932752525253,-0.005272257880403218
-0.005426592752525253,-0.008892749233404499
-0.005426252752525253,-0.007477466249958542
-0.005425912752525253,-0.004449418936539287
-0.005425572752525253,-0.004646900283066632
-0.005425232752525253,-0.006786281537112842
-0.005424892752525253,-0.005634307015703346
-0.005424552752525253,-0.006292578170794486
-0.005424212752525253,-0.006588800190585501
-0.005423872752525253,-0.006950849325886647
-0.005423532752525253,-0.007510379807713099
-0.005423192752525253,-0.009287711926459184
-0.005422852752525253,-0.008464872982592863
-0.005422512752525253,-0.00714833067241297
-0.005422172752525253,-0.008991489906668169
-0.005421832752525253,-0.007510379807709446
-0.005421492752525253,-0.005502652784685116
-0.005421152752525253,-0.005305171438157775
-0.005420812752525253,-0.005272257880399746
-0.005420472752525253,-0.003363271530638905
-0.005420132752525253,-0.003824061339202704
-0.005419792752525253,-0.00313287662635916
-0.005419452752525253,-0.00431776470552106
-0.005419112752525253,-0.005502652784685116
-0.005418772752525253,-0.006062183266515582
-0.005418432752525253,-0.007707861154240443
-0.005418092752525253,-0.01336899308802426
-0.005417752752525253,-0.01274363549067744
-0.005417412752525253,-0.007115417114658414
