Analysis/files/cmb03_d2s01/wrd09_ch03.csv

#Digilent WaveForms Oscilloscope Acquisition
#Device Name: ADP3450
#Serial Number: SN:210018B9D9B0
#Date Time: 2024-08-09 13:02:59.038.157.830
#Sample rate: 2.94118e+06Hz
#Samples: 32768
#Trigger: Source: Channel 3 Type: Edge Condition: Rising Level: 20 mV Hyst.: Auto HoldOff: 0 s
#Channel 3: Range: 200 mV/div Offset: 0 V Attenuation: 1 X Coupling: DC Bandwidth: 0 Hz Sample Mode: Average

Time (s),Channel 3 (V)
-0.005570380848287113,-0.001820231373664395
-0.005570040848287112,-0.001425268680608273
-0.005569700848287113,-0.0006353432945003394
-0.005569360848287113,-0.007283881960920875
-0.005569020848287112,-0.002774724548538229
-0.005568680848287113,0.001800259979336887
-0.005568340848287113,-0.006098993881756819
-0.005568000848287112,-0.009982793696787973
-0.005567660848287113,-0.006362302343793276
-0.005567320848287113,-0.006461043017056948
-0.005566980848287112,-0.008732078502119234
-0.005566640848287113,-0.007547190422957332
-0.005566300848287113,-0.009028300521912402
-0.005565960848287112,-0.008797905617627569
-0.005565620848287113,-0.007185141287657204
-0.005565280848287113,-0.007580103980711889
-0.005564940848287112,-0.007448449749691984
-0.005564600848287113,-0.006526870132566062
-0.005564260848287113,-0.005473636284420234
-0.005563920848287112,-0.006164820997262821
-0.005563580848287113,-0.004453315994028964
-0.005563240848287113,-0.007349709076429989
-0.005562900848287113,-0.008205461578046918
-0.005562560848287113,-0.007744671769484675
-0.005562220848287113,-0.009522003888230759
-0.005561880848287113,-0.01083854619841065
-0.005561540848287113,-0.01008153437005823
-0.005561200848287113,-0.009291608983948858
-0.005560860848287113,-0.01070689196739224
-0.005560520848287113,-0.008896646290894173
-0.005560180848287113,-0.009752398792512659
-0.005559840848287113,-0.01225382918185445
-0.005559500848287113,-0.01649967813219686
-0.005559160848287113,-0.01034484283209469
-0.005558820848287113,-0.01222091562410103
-0.005558480848287113,-0.01120059533371317
-0.005558140848287113,-0.009554917445985316
-0.005557800848287113,-0.01554518495730381
-0.005557460848287113,-0.01449195110916888
-0.005557120848287113,-0.01139807668024051
-0.005556780848287113,-0.01238548341287543
-0.005556440848287113,-0.01442612399365977
-0.005556100848287113,-0.0127146189904228
-0.005555760848287113,-0.01416281553162068
-0.005555420848287113,-0.0140969884161142
-0.005555080848287113,-0.0134058037032685
-0.005554740848287113,-0.01353745793428649
-0.005554400848287113,-0.01406407485835964
-0.005554060848287113,-0.01436029687815065
-0.005553720848287113,-0.0143273833203961
-0.005553380848287113,-0.01692755438300611
-0.005553040848287113,-0.01577557986159661
-0.005552700848287113,-0.01712503572953345
-0.005552360848287113,-0.01784913400013371
-0.005552020848287113,-0.01807952890441561
-0.005551680848287113,-0.01584140697710572
-0.005551340848287113,-0.01676298659423165
-0.005551000848287113,-0.01584140697710572
-0.005550660848287113,-0.01495274091773268
-0.005550320848287113,-0.01597306120812581
-0.005549980848287113,-0.01699338149851522
-0.005549640848287113,-0.01600597476587851
-0.005549300848287112,-0.01794787467340462
-0.005548960848287113,-0.02193041516169879
-0.005548620848287113,-0.008732078502121389
-0.005548280848287112,-0.01501856803323976
-0.005547940848287113,-0.01389950706958685
-0.005547600848287113,-0.01014736148556734
-0.005547260848287112,-0.01531479005303377
-0.005546920848287113,-0.01584140697710572
-0.005546580848287113,-0.01182595293104976
-0.005546240848287112,-0.01278044610593556
-0.005545900848287113,-0.01478817312895989
-0.005545560848287113,-0.01291210033695014
-0.005545220848287112,-0.0133070630300062
-0.005544880848287113,-0.01406407485835964
-0.005544540848287113,-0.01406407485835964
-0.005544200848287112,-0.01386659351183703
-0.005543860848287113,-0.01646676457444231
-0.005543520848287113,-0.01719086284504256
-0.005543180848287112,-0.01765165265360738
-0.005542840848287113,-0.01821118313543383
-0.005542500848287113,-0.01745417130707902
-0.005542160848287113,-0.01646676457444411
-0.005541820848287113,-0.01768456621136092
-0.005541480848287113,-0.01574266630384205
-0.005541140848287113,-0.01317540879899127
-0.005540800848287113,-0.01554518495731471
-0.005540460848287113,-0.01636802390117864
-0.005540120848287113,-0.0156110120728252
-0.005539780848287113,-0.01666424592096965
-0.005539440848287113,-0.01666424592096965
-0.005539100848287113,-0.01867197294399398
-0.005538760848287113,-0.02285199477882639
-0.005538420848287113,-0.02515594382164538
-0.005538080848287113,-0.01630219678568563
-0.005537740848287113,-0.01778330688462459
-0.005537400848287113,-0.01840866448196118
-0.005537060848287113,-0.01758582553809875
-0.005536720848287113,-0.01919858986807055
-0.005536380848287113,-0.01837575092420662
-0.005536040848287113,-0.01449195110917595
-0.005535700848287113,-0.01452486466692344
-0.005535360848287113,-0.01623636967016041
-0.005535020848287113,-0.01459069178243555
-0.005534680848287113,-0.01554518495731471
-0.005534340848287113,-0.01771747976911548
-0.005534000848287113,-0.0197910339076488
-0.005533660848287113,-0.02025182371621638
-0.005533320848287113,-0.02127214400660764
-0.005532980848287113,-0.02137088467987132
-0.005532640848287113,-0.01962646611887979
-0.005532300848287113,-0.01939607121459789
-0.005531960848287113,-0.01827701025094295
-0.005531620848287113,-0.01620345611240585
-0.005531280848287113,-0.01719086284504256
-0.005530940848287113,-0.01821118313543383
-0.005530600848287113,-0.01574266630384205
-0.005530260848287113,-0.01768456621136092
-0.005529920848287113,-0.01979103390765257
-0.005529580848287113,-0.01893528140603439
-0.005529240848287113,-0.01909984919480688
-0.005528900848287113,-0.0206138728515165
-0.005528560848287113,-0.01906693563705747
-0.005528220848287113,-0.02189750160394423
-0.005527880848287113,-0.0226874269900536
-0.005527540848287112,-0.01475525957120462
-0.005527200848287113,-0.01436029687815065
-0.005526860848287113,-0.01416281553162331
-0.005526520848287112,-0.01610471543914278
-0.005526180848287113,-0.01643385101668775
-0.005525840848287113,-0.01686172726749699
-0.005525500848287112,-0.01584140697710782
-0.005525160848287113,-0.01699338149851522
-0.005524820848287113,-0.01794787467339738
-0.005524480848287112,-0.01798078823115181
-0.005524140848287113,-0.01791496111564282
-0.005523800848287113,-0.0192315034258251
-0.005523460848287112,-0.0195935525611226
-0.005523120848287113,-0.01814535601992472
-0.005522780848287113,-0.02272034054780816
-0.005522440848287112,-0.03065250796667827
-0.005522100848287113,-0.04266595654706976
-0.005521760848287113,-0.06376354706774087
-0.005521420848287112,-0.08979817125165121
-0.005521080848287113,-0.1204077799633337
-0.005520740848287113,-0.1526959801205542
-0.005520400848287113,-0.1859386734525964
-0.005520060848287113,-0.2137835433130122
-0.005519720848287113,-0.2371850828765023
-0.005519380848287113,-0.257624402242045
-0.005519040848287113,-0.2672680746641675
-0.005518700848287113,-0.2732912557332514
-0.005518360848287113,-0.2754635505450482
-0.005518020848287113,-0.273027947271215
-0.005517680848287113,-0.2708227389016596
-0.005517340848287113,-0.2596321292651306
-0.005517000848287113,-0.2497251483809885
-0.005516660848287113,-0.2391269827840211
-0.005516320848287113,-0.2333012830614751
-0.005515980848287113,-0.229549137477445
-0.005515640848287113,-0.221156180250033
-0.005515300848287113,-0.2124999145606002
-0.005514960848287113,-0.2089123367653377
-0.005514620848287113,-0.2012763913662805
-0.005514280848287113,-0.1955823458747525
-0.005513940848287113,-0.1901186952874856
-0.005513600848287113,-0.1830093668125013
-0.005513260848287113,-0.1780394195915722
-0.005512920848287113,-0.1731352994861342
-0.005512580848287113,-0.1668488099550137
-0.005512240848287113,-0.1611876780212299
-0.005511900848287113,-0.1565468663778374
-0.005511560848287113,-0.149437537902853
-0.005511220848287113,-0.1434472703915236
-0.005510880848287113,-0.1399584332695406
-0.005510540848287113,-0.134132733546984
-0.005510200848287113,-0.1279778982468818
-0.005509860848287113,-0.1251144187222353
-0.005509520848287113,-0.1203419528478245
-0.005509180848287113,-0.1150757836070954
-0.005508840848287113,-0.1134959328348691
-0.005508500848287113,-0.1093488245578025
-0.005508160848287113,-0.1048396671454281
-0.005507820848287113,-0.1031610756999433
-0.005507480848287113,-0.1018445333897634
-0.005507140848287113,-0.09940893011592622
-0.005506800848287112,-0.09147676269707365
-0.005506460848287113,-0.08910698653874985
-0.005506120848287113,-0.08512444605044844
-0.005505780848287112,-0.08407121220230702
-0.005505440848287113,-0.08650681547613984
-0.005505100848287113,-0.08051654796481045
-0.005504760848287112,-0.07706062440058117
-0.005504420848287113,-0.07663274814977269
-0.005504080848287113,-0.07367052795186255
-0.005503740848287112,-0.0708728755427252
-0.005503400848287113,-0.0708728755427252
-0.005503060848287113,-0.06830561803786975
-0.005502720848287112,-0.06201912850675276
-0.005502380848287113,-0.06389520129875911
-0.005502040848287113,-0.06478386735813213
-0.005501700848287112,-0.06290779456612275
-0.005501360848287113,-0.06310527591264972
-0.005501020848287113,-0.06162416581369466
-0.005500680848287112,-0.06004431504147795
-0.005500340848287113,-0.06116337600513086
-0.005500000848287113,-0.05978100657943946
-0.005499660848287113,-0.05721374907458868
-0.005499320848287113,-0.05658839147724742
-0.005498980848287113,-0.05487688647401046
-0.005498640848287113,-0.05155261714080623
-0.005498300848287113,-0.050005679926336
-0.005497960848287113,-0.04674723770863485
-0.005497620848287113,-0.04335714125992163
-0.005497280848287113,-0.04355462260644281
-0.005496940848287113,-0.04730676819046232
-0.005496600848287113,-0.04069114308180837
-0.005496260848287113,-0.03848593471224102
-0.005495920848287113,-0.04115193289036014
-0.005495580848287113,-0.03917711942509031
-0.005495240848287113,-0.04273178366257888
-0.005494900848287113,-0.04312674635563356
-0.005494560848287113,-0.03973664990692035
-0.005494220848287113,-0.03914420586733215
-0.005493880848287113,-0.04069114308179634
-0.005493540848287113,-0.03792640423041857
-0.005493200848287113,-0.035885763649631
-0.005492860848287113,-0.03700482461328594
-0.005492520848287113,-0.03555662807208806
-0.005492180848287113,-0.03229818585438428
-0.005491840848287113,-0.03187030960357504
-0.005491500848287113,-0.03233109941213799
-0.005491160848287113,-0.03048794017788364
-0.005490820848287113,-0.03078416219767465
-0.005490480848287113,-0.03009297748482895
-0.005490140848287113,-0.02877643517464666
-0.005489800848287113,-0.03081707575542921
-0.005489460848287113,-0.03144243335276579
-0.005489120848287113,-0.03019171815809262
-0.005488780848287113,-0.03065250796665642
-0.005488440848287113,-0.02946761988749236
-0.005488100848287113,-0.02811816401955463
-0.005487760848287113,-0.02762446065323717
-0.005487420848287113,-0.0266041403628459
-0.005487080848287113,-0.02578130141898676
-0.005486740848287113,-0.02841438603934654
-0.005486400848287113,-0.03516166537903075
-0.005486060848287112,-0.02666996747835292
-0.005485720848287113,-0.02551799295694551
-0.005485380848287113,-0.02597878276550931
-0.005485040848287112,-0.02643957257407796
-0.005484700848287113,-0.02910557075219224
-0.005484360848287113,-0.02838147248159198
-0.005484020848287112,-0.02673579459386287
-0.005483680848287113,-0.02604460988101842
-0.005483340848287113,-0.02815107757731008
-0.005483000848287112,-0.02620917766978864
-0.005482660848287113,-0.02479389468634526
-0.005482320848287113,-0.02512303026389083
-0.005481980848287112,-0.02568256074571369
-0.005481640848287113,-0.0231482167986174
-0.005481300848287113,-0.02354317949167209
-0.005480960848287112,-0.02420145064675808
-0.005480620848287113,-0.02137088467987132
-0.005480280848287113,-0.02146962535313499
-0.005479940848287112,-0.02110757621783282
-0.005479600848287113,-0.01998851525417992
-0.005479260848287113,-0.01952772544561612
-0.005478920848287113,-0.02048221862049654
-0.005478580848287113,-0.01830992380869751
-0.005478240848287113,-0.01929733054133422
-0.005477900848287113,-0.021864588046185
-0.005477560848287113,-0.02150253891088955
-0.005477220848287113,-0.02202915583496246
-0.005476880848287113,-0.02314821679861536
-0.005476540848287113,-0.02239120497026259
-0.005476200848287113,-0.02272034054780816
-0.005475860848287113,-0.02778902844200073
-0.005475520848287113,-0.0201530830429527
-0.005475180848287113,-0.01939607121459789
-0.005474840848287113,-0.02071261352477778
-0.005474500848287113,-0.02179876093068056
-0.005474160848287113,-0.02456349978206336
-0.005473820848287113,-0.02337861170290146
-0.005473480848287113,-0.02189750160394423
-0.005473140848287113,-0.01979103390765257
-0.005472800848287113,-0.020679699967024
-0.005472460848287113,-0.01919858986807055
-0.005472120848287113,-0.01719086284504256
-0.005471780848287113,-0.01659841880546161
-0.005471440848287113,-0.01653259168995142
-0.005471100848287113,-0.01551227139956015
-0.005470760848287113,-0.0149527409177337
-0.005470420848287113,-0.01649967813219686
-0.005470080848287113,-0.01445903755141432
-0.005469740848287113,-0.01445903755141432
-0.005469400848287113,-0.01478817312895989
-0.005469060848287113,-0.01465651889794167
-0.005468720848287113,-0.01528187649527825
-0.005468380848287113,-0.01676298659423332
-0.005468040848287113,-0.01755291198034269
-0.005467700848287113,-0.01801370178890649
-0.005467360848287113,-0.02087718131355296
-0.005467020848287113,-0.02048221862049827
-0.005466680848287113,-0.01965937967663435
-0.005466340848287113,-0.02008725592744431
-0.005466000848287113,-0.02048221862049827
-0.005465660848287113,-0.02288490833658094
-0.005465320848287113,-0.02074552708252623
-0.005464980848287113,-0.01607180188138762
-0.005464640848287113,-0.01518313582201458
-0.005464300848287112,-0.015183135822022
-0.005463960848287113,-0.01926441698357966
-0.005463620848287113,-0.01942898477235245
-0.005463280848287112,-0.01699338149851774
-0.005462940848287113,-0.01837575092420662
-0.005462600848287113,-0.01778330688462459
-0.005462260848287112,-0.01761873909585313
-0.005461920848287113,-0.01834283736645206
-0.005461580848287113,-0.01768456621136092
-0.005461240848287112,-0.01857323227073396
-0.005460900848287113,-0.01857323227073396
-0.005460560848287113,-0.01834283736645206
-0.005460220848287112,-0.01518313582201931
-0.005459880848287113,-0.01778330688462459
-0.005459540848287113,-0.01607180188138762
-0.005459200848287112,-0.01465651889794478
-0.005458860848287113,-0.01636802390117864
-0.005458520848287113,-0.01748708486483358
-0.005458180848287112,-0.01847449159747376
-0.005457840848287113,-0.0203834779472346
-0.005457500848287113,-0.0208442677557984
-0.005457160848287113,-0.01988977458091798
-0.005456820848287113,-0.02104174910232575
-0.005456480848287113,-0.01373493928081407
-0.005456140848287113,-0.01962646611886907
-0.005455800848287113,-0.01985686102316169
-0.005455460848287113,-0.01988977458091625
-0.005455120848287113,-0.02133797112211413
-0.005454780848287113,-0.01798078823115194
-0.005454440848287113,-0.01314249524123204
-0.005454100848287113,-0.01679590015198124
-0.005453760848287113,-0.01965937967663435
-0.005453420848287113,-0.01824409669318839
-0.005453080848287113,-0.01758582553809845
-0.005452740848287113,-0.01929733054133422
-0.005452400848287113,-0.02081135419804385
-0.005452060848287113,-0.01982394746540893
-0.005451720848287113,-0.01837575092420662
-0.005451380848287113,-0.02018599660070726
-0.005451040848287113,-0.01873780005950938
-0.005450700848287113,-0.01679590015198788
-0.005450360848287113,-0.01807952890441561
-0.005450020848287113,-0.01965937967663147
-0.005449680848287113,-0.0192315034258251
-0.005449340848287113,-0.02005434236968903
-0.005449000848287113,-0.01975812034989856
-0.005448660848287113,-0.01952772544561612
-0.005448320848287113,-0.02058095929376194
-0.005447980848287113,-0.02081135419804385
-0.005447640848287113,-0.01840866448196118
-0.005447300848287113,-0.01781622044237915
-0.005446960848287113,-0.01979103390765257
-0.005446620848287113,-0.01827701025094295
-0.005446280848287113,-0.02140379823762588
-0.005445940848287113,-0.01781622044237915
-0.005445600848287113,-0.01725668996055341
-0.005445260848287113,-0.01821118313543383
-0.005444920848287113,-0.01873780005950675
-0.005444580848287113,-0.02193041516169897
-0.005444240848287113,-0.02202915583496246
-0.005443900848287113,-0.02232537785475347
-0.005443560848287112,-0.02288490833658017
-0.005443220848287113,-0.0224570320857717
-0.005442880848287113,-0.02186458804618967
-0.005442540848287112,-0.020679699967024
-0.005442200848287113,-0.01979103390765257
-0.005441860848287113,-0.02018599660070726
-0.005441520848287112,-0.01919858986806145
-0.005441180848287113,-0.01419572908937787
-0.005440840848287113,-0.01633511034342408
-0.005440500848287112,-0.01738834419156548
-0.005440160848287113,-0.01495274091773268
-0.005439820848287113,-0.01676298659423332
-0.005439480848287112,-0.01709212217178213
-0.005439140848287113,-0.01886945429052498
-0.005438800848287113,-0.0190011085215432
-0.005438460848287112,-0.02018599660070313
-0.005438120848287113,-0.01791496111564282
-0.005437780848287113,-0.01962646611887979
-0.005437440848287112,-0.02127214400660393
-0.005437100848287113,-0.0192315034258251
-0.005436760848287113,-0.0190011085215432
-0.005436420848287113,-0.0202518237162141
-0.005436080848287113,-0.02209498295047157
-0.005435740848287113,-0.0226874269900536
-0.005435400848287113,-0.01804661534666949
-0.005435060848287113,-0.01755291198034269
-0.005434720848287113,-0.01580849341935116
-0.005434380848287113,-0.01956063900336385
-0.005434040848287113,-0.02209498295047157
-0.005433700848287113,-0.01959355256112523
-0.005433360848287113,-0.0199226881386702
-0.005433020848287113,-0.02156836602639866
-0.005432680848287113,-0.02140379823762588
-0.005432340848287113,-0.02005434236969149
-0.005432000848287113,-0.02163419314190777
-0.005431660848287113,-0.01755291198034269
-0.005431320848287113,-0.01837575092420513
-0.005430980848287113,-0.01847449159747029
-0.005430640848287113,-0.01712503572953345
-0.005430300848287113,-0.01728960351830594
-0.005429960848287113,-0.0199226881386708
-0.005429620848287113,-0.01949481188786156
-0.005429280848287113,-0.01775039332687321
-0.005428940848287113,-0.0208442677557984
-0.005428600848287113,-0.01877071361726131
-0.005428260848287113,-0.01821118313543485
-0.005427920848287113,-0.01830992380869751
-0.005427580848287113,-0.01692755438300611
-0.005427240848287113,-0.01630219678566952
-0.005426900848287113,-0.01794787467339738
-0.005426560848287113,-0.01696046794076066
-0.005426220848287113,-0.01617054255465129
-0.005425880848287113,-0.01929733054133422
-0.005425540848287113,-0.02393814218472677
-0.005425200848287113,-0.02067969996702562
-0.005424860848287113,-0.01880362717501586
-0.005424520848287113,-0.01952772544561612
-0.005424180848287113,-0.01732251707606079
-0.005423840848287113,-0.02216081006598195
-0.005423500848287113,-0.02285199477882639
-0.005423160848287113,-0.01834283736645206
-0.005422820848287112,-0.01870488650175375
-0.005422480848287113,-0.01956063900337068
-0.005422140848287113,-0.01620345611240585
-0.005421800848287112,-0.0146236053401919
-0.005421460848287113,-0.01725668996055168
-0.005421120848287113,-0.01653259168995142
-0.005420780848287112,-0.01715794928729142
-0.005420440848287113,-0.01903402207929776
-0.005420100848287113,-0.02100883554457119
-0.005419760848287112,-0.02110757621783654
-0.005419420848287113,-0.02202915583496246
-0.005419080848287113,-0.0210746626600803
-0.005418740848287112,-0.01857323227073791
-0.005418400848287113,-0.02074552708253473
-0.005418060848287113,-0.0201530830429527
-0.005417720848287112,-0.01804661534666081
-0.005417380848287113,-0.01791496111564282
-0.005417040848287113,-0.01735543063381535
-0.005416700848287112,-0.01597306120812473
-0.005416360848287113,-0.01640093745893319
-0.005416020848287113,-0.01679590015198788
-0.005415680848287112,-0.01475525957121144
