Analysis/files/cmb03_d2s01/wrd02_ch44.csv

#Digilent WaveForms Oscilloscope Acquisition
#Device Name: ADP3450
#Serial Number: SN:210018B9D9B0
#Date Time: 2024-08-09 12:14:50.898.104.380
#Sample rate: 2.94118e+06Hz
#Samples: 32768
#Trigger: Source: Channel 3 Type: Edge Condition: Rising Level: 20 mV Hyst.: Auto HoldOff: 0 s
#Channel 3: Range: 200 mV/div Offset: 0 V Attenuation: 1 X Coupling: DC Bandwidth: 0 Hz Sample Mode: Average

Time (s),Channel 3 (V)
-0.005570390000000001,0.005585319121110954
-0.00557005,0.005058702197037562
-0.00556971,0.004795393735001583
-0.005569370000000001,0.003281370078291956
-0.00556903,0.002293963345655842
-0.00556869,0.002623098923200814
-0.005568350000000001,0.001964827768109672
-0.00556801,0.0005166312269113745
-0.00556767,0.001734432863827772
-0.005567330000000001,0.0008128532467001733
-0.00556699,5.584141833835514e-05
-0.00556665,-0.003795044838937822
-0.005566310000000001,-0.001721490700400724
-0.00556597,0.0006482854579281662
-0.00556563,0.00107616170873663
-0.005565290000000001,0.002129395556882458
-0.00556495,-0.004288748205258753
-0.00556461,-0.005704031188702134
-0.005564270000000001,-0.003070946568337565
-0.00556393,-0.004749538013824169
-0.00556359,-0.007053487056638975
-0.00556325,-0.006000253208493148
-0.005562910000000001,-0.004848278687085744
-0.00556257,-0.005078673591365549
-0.00556223,-0.004420402436274407
-0.005561890000000001,-0.005638204073190804
-0.00556155,-0.006362302343793276
-0.00556121,-0.005671117630947577
-0.005560870000000001,-0.0077775853272354
-0.00556053,-0.009291608983948858
-0.00556019,-0.007152227729902647
-0.005559850000000001,-0.007218054845411642
-0.00555951,-0.00711931417214809
-0.00555917,-0.005769858304211248
-0.005558830000000001,-0.006790178594600662
-0.00555849,-0.007580103980711889
-0.00555815,-0.007152227729902647
-0.005557810000000001,-0.007810498884992592
-0.00555747,-0.01106894110269494
-0.00555713,-0.01080563264065849
-0.005556790000000001,-0.01162847158452092
-0.00555645,-0.01241839697063178
-0.00555611,-0.01778330688462459
-0.005555770000000001,-0.0116942987000426
-0.00555543,-0.008172548020293918
-0.00555509,-0.01396533418509597
-0.005554750000000001,-0.01287918677919756
-0.00555441,-0.01172721225778608
-0.00555407,-0.01291210033695014
-0.005553730000000001,-0.01360328504979584
-0.00555339,-0.01310958168347748
-0.00555305,-0.01320832235674115
-0.005552710000000001,-0.01274753254817735
-0.00555237,-0.01320832235674115
-0.00555203,-0.01376785283856862
-0.005551690000000001,-0.0115626444690133
-0.00555135,-0.01284627322144205
-0.00555101,-0.0134058037032685
-0.005550670000000001,-0.01182595293104976
-0.00555033,-0.01136516312248781
-0.00554999,-0.01238548341287723
-0.005549650000000001,-0.0117930393732952
-0.00554931,-0.01169429870003231
-0.00554897,-0.01212217495084077
-0.005548630000000001,-0.01241839697063178
-0.00554829,-0.01248422408614365
-0.00554795,-0.01399824774285052
-0.005547610000000001,-0.01449195110916888
-0.00554727,-0.01478817312896265
-0.00554693,-0.01630219678566952
-0.005546590000000001,-0.01663133236321509
-0.00554625,-0.01580849341935284
-0.00554591,-0.01673007303647877
-0.005545570000000001,-0.01719086284504256
-0.00554523,-0.01491982735997806
-0.00554489,-0.01488691380222357
-0.005544550000000001,-0.01505148159099635
-0.00554421,-0.01215508850859551
-0.00554387,-0.012253829181859
-0.005543530000000001,-0.01208926139308621
-0.00554319,-0.01100311398718565
-0.00554285,-0.01090437331392216
-0.00554251,-0.0129450138947047
-0.005542170000000001,-0.01251713764389623
-0.00554183,-0.01538061716854192
-0.00554149,-0.01491982735997812
-0.005541150000000001,-0.01577557986159505
-0.00554081,-0.01149681735350419
-0.00554047,-0.01330706303000483
-0.005540130000000001,-0.01050941062087256
-0.00553979,-0.01215508850859533
-0.00553945,-0.01837575092420662
-0.005539110000000001,-0.01719086284504472
-0.00553877,-0.01350454437653217
-0.00553843,-0.01422864264713243
-0.005538090000000001,-0.01992268813866045
-0.00553775,-0.01702629505626978
-0.00553741,-0.01728960351830624
-0.005537070000000001,-0.01712503572953375
-0.00553673,-0.01528187649527825
-0.00553639,-0.01534770361078737
-0.005536050000000001,-0.01626928322791329
-0.00553571,-0.01518313582201458
-0.00553537,-0.01452486466692344
-0.005535030000000001,-0.01557809851506735
-0.00553469,-0.01274753254817735
-0.00553435,-0.01228674273961356
-0.005534010000000001,-0.01347163081877546
-0.00553367,-0.01238548341287723
-0.00553333,-0.01231965629736811
-0.005532990000000001,-0.01278044610593191
-0.00553265,-0.0138665935118323
-0.00553231,-0.01373493928081407
-0.005531970000000001,-0.0159401476503694
-0.00553163,-0.01584140697710572
-0.00553129,-0.0152489629375237
-0.005530950000000001,-0.02008725592744359
-0.00553061,-0.01725668996055168
-0.00553027,-0.01488691380222357
-0.005529930000000001,-0.01633511034342408
-0.00552959,-0.01465651889794526
-0.00552925,-0.01663133236321509
-0.005528910000000001,-0.01979103390765257
-0.00552857,-0.01669715947872086
-0.00552823,-0.01485400024446901
-0.005527890000000001,-0.01422864264713243
-0.00552755,-0.01524896293752148
-0.00552721,-0.01403116130060508
-0.005526870000000001,-0.01442612399365977
-0.00552653,-0.01521604937976836
-0.00552619,-0.01478817312895989
-0.005525850000000001,-0.01679590015198788
-0.00552551,-0.01830992380869427
-0.00552517,-0.01653259168995142
-0.005524830000000001,-0.01442612399365977
-0.00552449,-0.01755291198034042
-0.00552415,-0.01630219678566952
-0.005523810000000001,-0.01564392563057838
-0.00552347,-0.01567683918833563
-0.00552313,-0.01715794928728801
-0.005522790000000001,-0.02137088467987132
-0.00552245,-0.02943470632976032
-0.00552211,-0.04181020404545128
-0.00552177,-0.05941895744413933
-0.00552143,-0.08690177816924875
-0.00552109,-0.1167214614948233
-0.00552075,-0.1475943786685978
-0.005520410000000001,-0.1825814905616284
-0.00552007,-0.2091098181118651
-0.00551973,-0.2274426697811534
-0.005519390000000001,-0.243570313080857
-0.00551905,-0.2519303567505439
-0.00551871,-0.2565382548361819
-0.005518370000000001,-0.2572294395490263
-0.00551803,-0.2488364823216155
-0.00551769,-0.238764933648721
-0.005517350000000001,-0.2283313358405454
-0.00551701,-0.2214194887120694
-0.00551667,-0.2124340874450753
-0.005516330000000001,-0.2056209809898944
-0.00551599,-0.2022967116566717
-0.00551565,-0.1973267644357336
-0.005515310000000001,-0.1954836052014818
-0.00551497,-0.1963393577030969
-0.00551463,-0.1955494323169875
-0.005514290000000001,-0.1936404459672267
-0.00551395,-0.1939695815447688
-0.00551361,-0.1933113103896777
-0.005513270000000001,-0.189822473267701
-0.00551293,-0.1860374141259205
-0.00551259,-0.181100380462737
-0.005512250000000001,-0.1742543604497891
-0.00551191,-0.1689881912090599
-0.00551157,-0.1637220219683308
-0.005511230000000001,-0.1559215087805008
-0.00551089,-0.1519718818499539
-0.00551055,-0.1472981566488068
-0.005510210000000001,-0.1434472703915236
-0.00550987,-0.1431510483717326
-0.00550953,-0.1333428081608746
-0.005509190000000001,-0.1284386880554456
-0.00550885,-0.1239624442008252
-0.00550851,-0.1236333086232803
-0.005508170000000001,-0.1231396052569619
-0.00550783,-0.1184987936135613
-0.00550749,-0.1140883768744587
-0.005507150000000001,-0.1117186007161306
-0.00550681,-0.1084930720561788
-0.00550647,-0.1056295925315375
-0.005506130000000001,-0.1023382367560818
-0.00550579,-0.09713789463085873
-0.00550545,-0.09545930318537937
-0.005505110000000001,-0.09213503385216909
-0.00550477,-0.0895348627895559
-0.00550443,-0.08779044422856755
-0.005504090000000001,-0.08581563076329413
-0.00550375,-0.08377499018250692
-0.00550341,-0.08120773267765613
-0.005503070000000001,-0.07929874632789183
-0.00550273,-0.0742958855491944
-0.00550239,-0.07169571448658912
-0.005502050000000001,-0.06962216034805205
-0.00550171,-0.06563961985974684
-0.00550137,-0.06356606572121354
-0.005501030000000001,-0.06238117764204947
-0.00550069,-0.06004431504147262
-0.00550035,-0.05823406936497528
-0.00550001,-0.0590569083088392
-0.005499670000000001,-0.05928730321312069
-0.00549933,-0.05816824224946616
-0.00549899,-0.0506968646391817
-0.005498650000000001,-0.0494790630022653
-0.00549831,-0.04579274453375269
-0.00549797,-0.0490841003092084
-0.005497630000000001,-0.04977528502205284
-0.00549729,-0.04638518857333472
-0.00549695,-0.04529904116743434
-0.005496610000000001,-0.04394958529949995
-0.00549627,-0.04174437692994216
-0.00549593,-0.04134941423688748
-0.005495590000000001,-0.04125067356362399
-0.00549525,-0.03851884826999557
-0.00549491,-0.0379593177881681
-0.005494570000000001,-0.03269314854744854
-0.00549423,-0.03845302115448646
-0.00549389,-0.03756435509511341
-0.005493550000000001,-0.03572119586086157
-0.00549321,-0.03318685191375732
-0.00549287,-0.03239692652764795
-0.005492530000000001,-0.03400969085761831
-0.00549219,-0.03443756710843049
-0.00549185,-0.03578702297636733
-0.005491510000000001,-0.0385188482699906
-0.00549117,-0.03614907211166746
-0.00549083,-0.03433882643516682
-0.005490490000000001,-0.03302228412498454
-0.00549015,-0.03203487739234782
-0.00548981,-0.03088290287093832
-0.005489470000000001,-0.03295645700947542
-0.00548913,-0.03555662807208543
-0.00548879,-0.02699910305590058
-0.005488450000000001,-0.02377357439595399
-0.00548811,-0.02120631689109296
-0.00548777,-0.01814535601992472
-0.005487430000000001,-0.02166710669966233
-0.00548709,-0.02094300842906177
-0.00548675,-0.02077844064028929
-0.005486410000000001,-0.02374066083819943
-0.00548607,-0.02742697930670713
-0.00548573,-0.02594586920775475
-0.005485390000000001,-0.02485972180185437
-0.00548505,-0.02611043699652215
-0.00548471,-0.0231482167986174
-0.005484370000000001,-0.02097592198681663
-0.00548403,-0.02038347794723538
-0.00548369,-0.02081135419804385
-0.005483350000000001,-0.0190011085215432
-0.00548301,-0.01988977458091535
-0.00548267,-0.01939607121459789
-0.005482330000000001,-0.01804661534666105
-0.00548199,-0.01873780005950872
-0.00548165,-0.01982394746540713
-0.005481310000000001,-0.01755291198034269
-0.00548097,-0.01807952890441728
-0.00548063,-0.0190011085215432
-0.005480290000000001,-0.01801370178890649
-0.00547995,-0.0184086644819616
-0.00547961,-0.01863905938624308
-0.00547927,-0.01742125774932446
-0.005478930000000001,-0.02114048977558265
-0.00547859,-0.02535342516817273
-0.00547825,-0.01755291198034269
-0.005477910000000001,-0.01801370178890565
-0.00547757,-0.01735543063381535
-0.00547723,-0.01821118313543383
-0.005476890000000001,-0.0221608100659735
-0.00547655,-0.02064678640927106
-0.00547621,-0.01784913400013371
-0.005475870000000001,-0.0191327627525591
-0.00547553,-0.02110757621783486
-0.00547519,-0.01886945429052498
-0.005474850000000001,-0.01679590015199165
-0.00547451,-0.01679590015198788
-0.00547417,-0.01508439514875091
-0.005473830000000001,-0.01416281553162499
-0.00547349,-0.01475525957120534
-0.00547315,-0.01547935784180559
-0.005472810000000001,-0.01465651889794316
-0.00547247,-0.01705920861402434
-0.00547213,-0.01696046794076066
-0.005471790000000001,-0.01715794928728765
-0.00547145,-0.01821118313543383
-0.00547111,-0.01745417130707902
-0.005470770000000001,-0.01610471543914464
-0.00547043,-0.01577557986159661
-0.00547009,-0.01692755438300611
-0.005469750000000001,-0.01426155620488698
-0.00546941,-0.01449195110916888
-0.00546907,-0.0138665935118323
-0.005468730000000001,-0.01366911216530495
-0.00546839,-0.01656550524770598
-0.00546805,-0.01307666812572293
-0.005467710000000001,-0.009587831003739873
-0.00546737,-0.009423263214967087
-0.00546703,-0.01093728687167671
-0.005466690000000001,-0.01561101207282382
-0.00546635,-0.01778330688462639
-0.00546601,-0.01877071361726131
-0.005465670000000001,-0.01903402207929776
-0.00546533,-0.01962646611888147
-0.00546499,-0.02054804573600739
-0.005464650000000001,-0.02054804573600739
-0.00546431,-0.01725668996055234
-0.00546397,-0.01761873909585181
-0.005463630000000001,-0.01666424592096965
-0.00546329,-0.01485400024447021
-0.00546295,-0.01551227139956015
-0.005462610000000001,-0.01617054255465129
-0.00546227,-0.01491982735997962
-0.00546193,-0.01574266630384205
-0.005461590000000001,-0.01758582553809725
-0.00546125,-0.01626928322791574
-0.00546091,-0.01669715947872421
-0.005460570000000001,-0.01738834419156991
-0.00546023,-0.01656550524770706
-0.00545989,-0.01715794928728801
-0.005459550000000001,-0.01804661534666105
-0.00545921,-0.01692755438300497
-0.00545887,-0.01630219678566952
-0.00545853,-0.01557809851506927
-0.00545819,-0.01689464082525885
-0.00545785,-0.02091009487130752
-0.00545751,-0.01518313582201458
-0.005457170000000001,-0.01445903755141564
-0.00545683,-0.01357037149204128
-0.00545649,-0.01689464082525155
-0.005456150000000001,-0.01952772544561133
-0.00545581,-0.01663133236321509
-0.00545547,-0.01406407485835964
-0.005455130000000001,-0.01541353072629403
-0.00545479,-0.01436029687815065
-0.00545445,-0.01357037149204128
-0.005454110000000001,-0.01495274091773017
-0.00545377,-0.01297792745245925
-0.00545343,-0.01320832235674115
-0.005453090000000001,-0.01432738332039406
-0.00545275,-0.01370202572305951
-0.00545241,-0.01505148159099635
-0.005452070000000001,-0.01554518495731381
-0.00545173,-0.0150185680332418
-0.00545139,-0.01505148159099635
-0.005451050000000001,-0.0168288137097392
-0.00545071,-0.009686571677003543
-0.00545037,-0.01705920861402434
-0.005450030000000001,-0.01807952890441375
-0.00544969,-0.01821118313543383
-0.00544935,-0.01649967813219686
-0.005449010000000001,-0.01640093745893337
-0.00544867,-0.01663133236321509
-0.00544833,-0.01636802390117864
-0.005447990000000001,-0.01692755438300611
-0.00544765,-0.01817826957767928
-0.00544731,-0.01982394746540713
-0.005446970000000001,-0.01508439514875091
-0.00544663,-0.0143273833203961
-0.00544629,-0.01176012581554064
-0.005445950000000001,-0.01274753254817735
-0.00544561,-0.01745417130707609
-0.00544527,-0.01584140697710572
-0.005444930000000001,-0.01376785283856862
-0.00544459,-0.01495274091773334
-0.00544425,-0.01531479005303281
-0.005443910000000001,-0.01478817312895989
-0.00544357,-0.01594014765036526
-0.00544323,-0.01366911216530495
-0.005442890000000001,-0.01389950706958685
-0.00544255,-0.01607180188138792
-0.00544221,-0.01623636967016041
-0.005441870000000001,-0.01498565447548724
-0.00544153,-0.01587432053485926
-0.00544119,-0.01531479005303281
-0.005440850000000001,-0.01465651889794167
-0.00544051,-0.01521604937976782
-0.00544017,-0.01449195110916888
-0.005439830000000001,-0.01357037149204128
-0.00543949,-0.01462360534018717
-0.00543915,-0.01465651889794167
-0.005438810000000001,-0.01343871726102305
-0.00543847,-0.01406407485836221
-0.00543813,-0.01547935784180559
-0.005437790000000001,-0.01633511034342408
-0.00543745,-0.01745417130708711
-0.00543711,-0.02189750160394423
-0.00543677,-0.01699338149851522
-0.005436430000000001,-0.01429446976264645
-0.00543609,-0.01422864264713243
-0.00543575,-0.01195760716206798
-0.005435410000000001,-0.0153147900530267
-0.00543507,-0.01702629505626978
-0.00543473,-0.014557778224678
-0.005434390000000001,-0.01386659351183355
-0.00543405,-0.01702629505626978
-0.00543371,-0.01758582553809725
-0.005433370000000001,-0.01765165265360624
-0.00543303,-0.02018599660070726
-0.00543269,-0.02048221862049827
-0.005432350000000001,-0.01975812034989934
-0.00543201,-0.02064678640927106
-0.00543167,-0.02058095929376194
-0.005431330000000001,-0.01791496111564767
-0.00543099,-0.01722377640279712
-0.00543065,-0.01626928322791496
-0.005430310000000001,-0.0123196562973753
-0.00542997,-0.01116768177595861
-0.00542963,-0.01097020042943127
-0.005429290000000001,-0.01024610215883233
-0.00542895,-0.0120234342775771
-0.00542861,-0.01366911216530495
-0.005428270000000001,-0.01491982735997585
-0.00542793,-0.01732251707606079
-0.00542759,-0.01870488650175219
-0.005427250000000001,-0.01847449159747029
-0.00542691,-0.01834283736645206
-0.00542657,-0.0226874269900536
-0.005426230000000001,-0.01590723409261484
-0.00542589,-0.01031192927434013
-0.00542555,-0.01600597476587851
-0.005425210000000001,-0.01498565447548724
-0.00542487,-0.01080563264065849
-0.00542453,-0.01146390379574963
-0.005424190000000001,-0.01373493928081407
-0.00542385,-0.01261587831716008
-0.00542351,-0.01314249524123204
-0.005423170000000001,-0.01403116130060508
-0.00542283,-0.01366911216530873
-0.00542249,-0.01574266630384205
-0.005422150000000001,-0.01551227139956015
-0.00542181,-0.01551227139956273
-0.00542147,-0.01692755438300611
-0.005421130000000001,-0.01857323227073396
-0.00542079,-0.01607180188138595
-0.00542045,-0.01515022226426002
-0.005420110000000001,-0.01778330688462459
-0.00541977,-0.01567683918833515
-0.00541943,-0.01689464082525155
-0.005419090000000001,-0.01751999842258814
-0.00541875,-0.0183757509242056
-0.00541841,-0.01781622044237915
-0.005418070000000001,-0.01768456621136092
-0.00541773,-0.01696046794075725
-0.00541739,-0.01508439514875091
-0.005417050000000001,-0.01630219678566952
-0.00541671,-0.01452486466692458
-0.00541637,-0.01515022226426002
-0.00541603,-0.01264879187491368
-0.00541569,-0.01083854619841011
-0.00541535,-0.009225781868439744
-0.00541501,-0.008764992059875945
-0.005414670000000001,-0.01274753254817011
-0.00541433,-0.01399824774285052
-0.00541399,-0.01218800206634988
-0.005413650000000001,-0.01340580370326628
-0.00541331,-0.01399824774285052
-0.00541297,-0.01373493928081407
-0.005412630000000001,-0.01442612399365851
-0.00541229,-0.01297792745245925
-0.00541195,-0.0131754087989866
-0.005411610000000001,-0.01340580370326808
-0.00541127,-0.01149681735350419
-0.00541093,-0.01106894110269494
-0.005410590000000001,-0.01403116130059969
-0.00541025,-0.01534770361078737
-0.00540991,-0.01557809851506927
-0.005409570000000001,-0.01827701025093804
-0.00540923,-0.01909984919480688
-0.00540889,-0.01880362717501586
-0.005408550000000001,-0.01863905938624338
-0.00540821,-0.01768456621136092
-0.00540787,-0.01577557986159661
-0.005407530000000001,-0.01623636967015957
-0.00540719,-0.01452486466692344
-0.00540685,-0.006164820997265934
-0.005406510000000001,-0.01419572908936326
-0.00540617,-0.01722377640279712
-0.00540583,-0.01946189833010701
-0.005405490000000001,-0.01297792745245925
-0.00540515,-0.01399824774285052
-0.00540481,-0.0129450138947047
-0.005404470000000001,-0.01482108668671445
-0.00540413,-0.01913276275256143
-0.00540379,-0.01623636967016041
-0.005403450000000001,-0.01452486466692344
-0.00540311,-0.01541353072629379
-0.00540277,-0.01393242062734141
-0.005402430000000001,-0.01123350889146773
-0.00540209,-0.01261587831715428
-0.00540175,-0.009949880139040001
-0.005401410000000001,-0.00962074456149443
-0.00540107,-0.01001570725454403
-0.00540073,-0.007218054845411761
-0.005400390000000001,0.00153695151730043
-0.00540005,0.01236551201858624
-0.00539971,0.03244278224882955
-0.005399370000000001,0.05992560297388474
-0.00539903,0.08839583043162963
-0.00539869,0.1175243290443597
-0.005398350000000001,0.1476073208320249
-0.00539801,0.1729178467453155
-0.00539767,0.1928305491867863
-0.005397330000000001,0.2076087366185825
-0.00539699,0.214915546440098
-0.00539665,0.2170549276941404
-0.005396310000000001,0.2162320887502764
-0.00539597,0.2089581924864958
-0.00539563,0.1960560778467329
-0.005395290000000001,0.1882884782166575
-0.00539495,0.1865440596556493
-0.00539461,0.1773940905998991
-0.00539427,0.1738394263624069
-0.005393930000000001,0.166631357214172
-0.00539359,0.1613322744156752
-0.00539325,0.163274174323194
-0.005392910000000001,0.1638337048050205
-0.00539257,0.1612664473001661
-0.00539223,0.1613981015311843
-0.005391890000000001,0.1617930642242383
-0.00539155,0.1571193390230919
-0.00539121,0.1521164782443992
-0.005390870000000001,0.1482985055448775
-0.00539053,0.141946188898241
-0.00539019,0.1357255264826298
-0.005389850000000001,0.1302947894531377
-0.00538951,0.1252919286744351
-0.00538917,0.1210131661663427
-0.005388830000000001,0.1194991425096358
-0.00538849,0.1152203800015407
-0.00538815,0.110513741242639
-0.005387810000000001,0.1084072735463512
-0.00538747,0.1051159177708917
-0.00538713,0.1001788841077081
-0.005386790000000001,0.09695335544776736
-0.00538645,0.09313538274823285
-0.00538611,0.08971237274175892
-0.005385770000000001,0.08665141187059068
