Analysis/files/cmb03_d2s01/wrd06_ch27.csv

#Digilent WaveForms Oscilloscope Acquisition
#Device Name: ADP3450
#Serial Number: SN:210018B9D9B0
#Date Time: 2024-08-09 18:16:00.078.819.190
#Sample rate: 2.94118e+06Hz
#Samples: 32768
#Trigger: Source: Channel 3 Type: Edge Condition: Rising Level: 60 mV Hyst.: Auto HoldOff: 0 s
#Channel 3: Range: 200 mV/div Offset: -20 mV Attenuation: 1 X Coupling: DC Bandwidth: 0 Hz Sample Mode: Average

Time (s),Channel 3 (V)
-0.00557040516431925,0.01085538541932977
-0.005570065164319249,0.01157948368991368
-0.005569725164319249,0.00259408242293593
-0.00556938516431925,0.002659909538445047
-0.005569045164319249,0.005161339927788453
-0.005568705164319249,0.003548575597818088
-0.00556836516431925,0.003811884059854546
-0.005568025164319249,0.005029685696782856
-0.005567685164319249,0.01036168205301141
-0.00556734516431925,0.004930945023509487
-0.005567005164319249,0.006280400891447525
-0.005566665164319249,0.00693867204653747
-0.00556632516431925,0.00693867204653747
-0.005565985164319249,0.006379141564706946
-0.005565645164319249,0.004700550119227587
-0.00556530516431925,0.005556302620846072
-0.005564965164319249,0.004667636561470337
-0.005564625164319249,0.00318652646251796
-0.00556428516431925,0.003318180693536187
-0.005563945164319249,0.003548575597814855
-0.005563605164319249,0.001771243479072003
-0.00556326516431925,0.0006192689576625041
-0.00556292516431925,0.001047145208470971
-0.005562585164319249,0.0002572198223623791
-0.00556224516431925,0.003153612904763403
-0.00556190516431925,0.0031865264625179
-0.005561565164319249,0.002462428191917703
-0.00556122516431925,0.001639589248053776
-0.00556088516431925,0.001310453670508803
-0.005560545164319249,0.002034551941108461
-0.00556020516431925,-0.0005656191215015517
-0.00555986516431925,0.00075092318867834
-0.005559525164319249,-0.0008289275835380062
-0.00555918516431925,-0.0009276682568016767
-0.00555884516431925,0.0002901333801147207
-0.005558505164319249,0.0004876147266442768
-0.00555816516431925,-0.0007301869102743358
-0.00555782516431925,-0.001750507200663752
-0.005557485164319249,5.973847583503472e-05
-0.005557145164319249,-0.001651766527401934
-0.00555680516431925,-0.001421371623120455
-0.005556465164319249,-0.002507519029020421
-0.005556125164319249,-0.003791147781448147
-0.00555578516431925,-0.005733047688963485
-0.005555445164319249,-0.001388458065365479
-0.005555105164319249,-0.004120283358993719
-0.00555476516431925,-0.002836654606568324
-0.005554425164319249,-0.003429098646148019
-0.005554085164319249,-0.009287711926459184
-0.00555374516431925,-0.008036996731786015
-0.005553405164319249,-0.005897615477739801
-0.005553065164319249,-0.00764203403873133
-0.00555272516431925,-0.008036996731786015
-0.005552385164319249,-0.006292578170794486
-0.005552045164319249,-0.006555886632830944
-0.00555170516431925,-0.008300305193822469
-0.005551365164319249,-0.007609120480975576
-0.005551025164319249,-0.00695084932588563
-0.00555068516431925,-0.008826922117895385
-0.005550345164319249,-0.006555886632829747
-0.005550005164319249,-0.005897615477739801
-0.00554966516431925,-0.005206430764894101
-0.005549325164319249,-0.003034135953088484
-0.005548985164319249,-0.0003681377749742074
-0.00554864516431925,-0.001849247873929278
-0.005548305164319249,-0.002474605471265801
-0.005547965164319249,-0.002441691913511304
-0.00554762516431925,-0.004449418936539287
-0.005547285164319249,-0.005272257880404715
-0.005546945164319249,-0.006095096824267145
-0.00554660516431925,-0.007938256058522341
-0.005546265164319249,-0.008004083174031519
-0.005545925164319249,-0.008036996731786015
-0.00554558516431925,-0.01300694395272414
-0.005545245164319249,-0.009748501735012625
-0.005544905164319249,-0.004054456243484602
-0.00554456516431925,-0.003462012203902576
-0.005544225164319249,-0.003198703741871746
-0.005543885164319249,-0.006292578170794486
-0.00554354516431925,-0.007411639134449428
-0.005543205164319249,-0.003856974896955585
-0.005542865164319249,-0.002935395279829663
-0.00554252516431925,-0.00431776470552106
-0.00554218516431925,-0.005370998553664972
-0.005541845164319249,-0.00431776470552106
-0.00554150516431925,-0.005338084995912332
-0.00554116516431925,-0.008069910289535603
-0.005540825164319249,-0.007806601827504114
-0.00554048516431925,-0.005436825669176002
-0.00554014516431925,-0.006983762883637373
-0.005539805164319249,-0.00695084932588563
-0.00553946516431925,-0.006522973075076387
-0.00553912516431925,-0.007609120480974797
-0.005538785164319249,-0.008497786540349814
-0.00553844516431925,-0.0070495899991493
-0.00553810516431925,-0.008662354329119664
-0.005537765164319249,-0.008859835675649942
-0.00553742516431925,-0.007181244230167527
-0.00553708516431925,-0.007214157787922028
-0.005536745164319249,-0.006325491728549043
-0.005536405164319249,-0.00510769009163043
-0.00553606516431925,-0.004778554514085457
-0.005535725164319249,-0.005765961246721574
-0.005535385164319249,-0.005140603649384987
-0.00553504516431925,-0.01080173558315851
-0.005534705164319249,-0.008530700098104371
-0.005534365164319249,-0.004679813840821188
-0.00553402516431925,-0.005436825669174625
-0.005533685164319249,-0.003396185088393462
-0.005533345164319249,-0.008168650962804242
-0.00553300516431925,-0.008168650962804242
-0.005532665164319249,-0.006555886632830944
-0.005532325164319249,-0.007115417114658414
-0.00553198516431925,-0.006095096824267145
-0.005531645164319249,-0.008333218751577026
-0.005531305164319249,-0.006555886632830944
-0.00553096516431925,-0.005140603649384987
-0.005530625164319249,-0.005568479900194229
-0.005530285164319249,-0.00570013413121246
-0.00552994516431925,-0.005370998553666888
-0.005529605164319249,-0.006193837497534648
-0.005529265164319249,-0.008300305193822469
-0.00552892516431925,-0.006095096824267145
-0.005528585164319249,-0.007609120480975636
-0.005528245164319249,-0.006983762883640186
-0.00552790516431925,-0.005798874804476131
-0.005527565164319249,-0.004910208745105365
-0.005527225164319249,-0.006160923939776259
-0.00552688516431925,-0.005206430764894101
-0.005526545164319249,-0.004976035860614119
-0.005526205164319249,-0.006029269708758032
-0.00552586516431925,-0.007444552692203985
-0.005525525164319249,-0.008036996731785595
-0.005525185164319249,-0.007806601827504114
-0.00552484516431925,-0.009978896639304884
-0.005524505164319249,-0.0117562287580381
-0.005524165164319249,-0.004679813840821188
-0.00552382516431925,-0.004021542685730045
-0.005523485164319249,-0.005601393457963634
-0.005523145164319249,-0.01376395578107895
-0.00552280516431925,-0.02423046714702811
-0.005522465164319249,-0.04480144074366588
-0.005522125164319249,-0.06655730241938854
-0.00552178516431925,-0.09848345344130893
-0.005521445164319249,-0.1273815571498708
-0.005521105164319249,-0.160755904712931
-0.00552076516431925,-0.1917604761177238
-0.00552042516431925,-0.2169064342421597
-0.005520085164319249,-0.2385306416869494
-0.00551974516431925,-0.2559748272968647
-0.00551940516431925,-0.2660134624119864
-0.005519065164319249,-0.2703251384778516
-0.00551872516431925,-0.2718391621345612
-0.00551838516431925,-0.2673300047221951
-0.005518045164319249,-0.2635449455804129
-0.00551770516431925,-0.257291369607047
-0.00551736516431925,-0.2488325852641412
-0.005517025164319249,-0.2416903432313869
-0.00551668516431925,-0.2345810147564026
-0.00551634516431925,-0.2264184524332873
-0.005516005164319249,-0.2180254952058604
-0.00551566516431925,-0.2128580666383949
-0.00551532516431925,-0.2034777026783632
-0.005514985164319249,-0.1953480539129705
-0.005514645164319249,-0.1877779356294224
-0.00551430516431925,-0.1855727272598711
-0.005513965164319249,-0.1733947108906809
-0.005513625164319249,-0.1631585944290137
-0.00551328516431925,-0.1569379320134137
-0.005512945164319249,-0.1509147509443184
-0.005512605164319249,-0.1500919120004545
-0.00551226516431925,-0.1458460630501166
-0.005511925164319249,-0.1381772040933048
-0.005511585164319249,-0.1328781212948211
-0.00551124516431925,-0.1305741722520021
-0.005510905164319249,-0.1248801267604638
-0.005510565164319249,-0.1210950676186897
-0.00551022516431925,-0.1167175644373336
-0.005509885164319249,-0.112899591737805
-0.005509545164319249,-0.1091474461537855
-0.00550920516431925,-0.105395300569766
-0.005508865164319249,-0.102103944794302
-0.005508525164319249,-0.09759478738193592
-0.00550818516431925,-0.09529083833911692
-0.005507845164319249,-0.09176908765937157
-0.005507505164319249,-0.08752323870904144
-0.00550716516431925,-0.08577882014804991
-0.005506825164319249,-0.08304699485441741
-0.005506485164319249,-0.0807101322538481
-0.00550614516431925,-0.07722129513186504
-0.005505805164319249,-0.07481860541577551
-0.005505465164319249,-0.07103354627400832
-0.00550512516431925,-0.06787384472957084
-0.005504785164319249,-0.06632690751510126
-0.005504445164319249,-0.06336468731719652
-0.00550410516431925,-0.06280515683536905
-0.005503765164319249,-0.06626108039958324
-0.005503425164319249,-0.05839474009625838
-0.00550308516431925,-0.05556417412936648
-0.005502745164319249,-0.05352353354857956
-0.005502405164319249,-0.05112084383250127
-0.00550206516431925,-0.05378684201062039
-0.005501725164319249,-0.05181202854533679
-0.005501385164319249,-0.04621672372707226
-0.00550104516431925,-0.04516348987892643
-0.005500705164319249,-0.04608506949604912
-0.005500365164319249,-0.04338615776018035
-0.00550002516431925,-0.04246457814305275
-0.00549968516431925,-0.0419050476612263
-0.005499345164319249,-0.04022645621574286
-0.00549900516431925,-0.03802124784618754
-0.00549866516431925,-0.0372313224600796
-0.005498325164319249,-0.03565147168785943
-0.00549798516431925,-0.03315004129851309
-0.00549764516431925,-0.03324878197177657
-0.005497305164319249,-0.03203098033485814
-0.00549696516431925,-0.03002325331183016
-0.00549662516431925,-0.03058278379365662
-0.005496285164319249,-0.02959537706102092
-0.00549594516431925,-0.02679772465188356
-0.00549560516431925,-0.0264685890743386
-0.005495265164319249,-0.02653441618984711
-0.00549492516431925,-0.02548118234170128
-0.00549458516431925,-0.02584323147700075
-0.005494245164319249,-0.02686355176739268
-0.005493905164319249,-0.02692937888290179
-0.00549356516431925,-0.03022073465835152
-0.005493225164319249,-0.03071443802467586
-0.005492885164319249,-0.02380259089621887
-0.00549254516431925,-0.02271644349032046
-0.005492205164319249,-0.02159738252666354
-0.005491865164319249,-0.0230126655101095
-0.00549152516431925,-0.02393424512723542
-0.005491185164319249,-0.02060997579402683
-0.005490845164319249,-0.017252792903062
-0.00549050516431925,-0.0167920030944982
-0.005490165164319249,-0.01689074376776187
-0.005489825164319249,-0.01629829972817985
-0.00548948516431925,-0.01504758453350668
-0.005489145164319249,-0.01557420145757959
-0.005488805164319249,-0.01662743530572542
-0.00548846516431925,-0.01603499126614339
-0.005488125164319249,-0.01662743530572362
-0.005487785164319249,-0.01564002857308871
-0.00548744516431925,-0.01623247261267073
-0.005487105164319249,-0.01685783021000732
-0.005486765164319249,-0.01685783021000732
-0.00548642516431925,-0.01442222693617009
-0.005486085164319249,-0.01465262184045379
-0.005485745164319249,-0.01564002857308871
-0.00548540516431925,-0.01445514049392465
-0.005485065164319249,-0.01343482020353499
-0.005484725164319249,-0.01432348626290642
-0.00548438516431925,-0.01373104222332439
-0.005484045164319249,-0.01264489481742401
-0.005483705164319249,-0.01264489481742401
-0.00548336516431925,-0.01238158635538755
-0.005483025164319249,-0.01531089299553667
-0.005482685164319249,-0.01175622875805097
-0.00548234516431925,-0.008629440771368041
-0.005482005164319249,-0.008662354329123855
-0.005481665164319249,-0.009353539041968298
-0.00548132516431925,-0.01327025241476059
-0.005480985164319249,-0.01412600491637357
-0.005480645164319249,-0.01109795760295982
-0.00548030516431925,-0.01037385933235957
-0.005479965164319249,-0.009353539041966921
-0.005479625164319249,-0.008596527213613484
-0.00547928516431925,-0.007905342500767784
-0.00547894516431925,-0.007642034038731808
-0.005478605164319249,-0.007938256058522341
-0.00547826516431925,-0.008728181444631711
-0.00547792516431925,-0.008596527213613724
-0.005477585164319249,-0.006160923939776259
-0.00547724516431925,-0.0111966982762235
-0.00547690516431925,-0.0100118101970616
-0.005476565164319249,-0.01001181019705944
-0.00547622516431925,-0.01113087116071438
-0.00547588516431925,-0.01109795760295988
-0.005475545164319249,-0.01083464914092337
-0.00547520516431925,-0.01178914231580552
-0.00547486516431925,-0.01221701856661399
-0.005474525164319249,-0.01122961183397805
-0.00547418516431925,-0.01208536433559654
-0.00547384516431925,-0.01116378471847062
-0.005473505164319249,-0.01152583385376907
-0.00547316516431925,-0.01198662366233286
-0.00547282516431925,-0.01455388116718365
-0.005472485164319249,-0.01419183203188819
-0.005472145164319249,-0.00783951538525867
-0.00547180516431925,-0.006621713748342273
-0.005471465164319249,-0.003099963068602447
-0.005471125164319249,-0.005502652784685116
-0.00547078516431925,-0.009156057695434308
-0.005470445164319249,-0.006720454421603728
-0.005470105164319249,-0.003692407108184477
-0.00546976516431925,-0.008036996731786015
-0.005469425164319249,-0.007576206923222212
-0.005469085164319249,-0.0084319594248407
-0.00546874516431925,-0.009123144137686397
-0.005468405164319249,-0.007872428943013227
-0.005468065164319249,-0.009616847504004756
-0.00546772516431925,-0.01063716779439602
-0.005467385164319249,-0.009847242408286654
-0.005467045164319249,-0.008464872982595257
-0.00546670516431925,-0.01030803221685045
-0.005466365164319249,-0.009287711926457987
-0.005466025164319249,-0.008629440771368041
-0.00546568516431925,-0.01034094577460501
-0.005465345164319249,-0.00780660182750136
-0.005465005164319249,-0.006292578170794486
-0.00546466516431925,-0.006753367979358285
-0.005464325164319249,-0.006391318844054685
-0.005463985164319249,-0.004482332494293848
-0.00546364516431925,-0.0063584052863036
-0.005463305164319249,-0.006753367979358525
-0.005462965164319249,-0.006885022210376516
-0.00546262516431925,-0.007444552692203985
-0.005462285164319249,-0.009913069523798102
-0.005461945164319249,-0.0111966982762235
-0.00546160516431925,-0.005239344322648658
-0.005461265164319249,-0.005239344322641713
-0.005460925164319249,-0.001421371623120036
-0.00546058516431925,-0.006062183266512589
-0.005460245164319249,-0.008135737405043997
-0.005459905164319249,-0.00500894941836676
-0.00545956516431925,-0.003725320665939034
-0.005459225164319249,-0.006687540863848573
-0.005458885164319249,-0.0063584052863036
-0.00545854516431925,-0.006983762883640186
-0.005458205164319249,-0.007444552692203447
-0.005457865164319249,-0.00714833067241297
-0.00545752516431925,-0.008267391636067913
-0.00545718516431925,-0.009945983081547274
-0.005456845164319249,-0.01146000673825995
-0.00545650516431925,-0.01060425423664147
-0.00545616516431925,-0.01340190664577373
-0.005455825164319249,-0.01353356087679705
-0.00545548516431925,-0.01136126606499628
-0.00545514516431925,-0.0111637847184693
-0.005454805164319249,-0.009518106830741082
-0.00545446516431925,-0.00783951538525867
-0.00545412516431925,-0.006753367979360261
-0.005453785164319249,-0.006819195094867402
-0.00545344516431925,-0.004186110474502833
-0.00545310516431925,-0.004186110474502833
-0.005452765164319249,-0.005338084995912332
-0.00545242516431925,-0.004548159609802961
-0.00545208516431925,-0.005403912111419888
-0.005451745164319249,-0.01043968644786868
-0.005451405164319249,-0.003922802012466375
-0.00545106516431925,-0.004087369801238863
-0.005450725164319249,-0.005074776533875874
-0.005450385164319249,-0.004811468071839416
-0.00545004516431925,-0.009188971253187551
-0.005449705164319249,-0.01162457452703274
-0.005449365164319249,-0.009188971253195514
-0.00544902516431925,-0.00922188481095001
-0.005448685164319249,-0.009057317022177283
-0.005448345164319249,-0.008102823847295128
-0.00544800516431925,-0.005568479900194229
-0.005447665164319249,-0.005568479900194229
-0.005447325164319249,-0.004548159609802961
-0.00544698516431925,-0.002869568164320546
-0.005446645164319249,-0.00570013413121246
-0.005446305164319249,-0.005733047688967017
-0.00544596516431925,-0.004087369801239162
-0.005445625164319249,-0.004976035860614957
-0.005445285164319249,-0.006490059517321831
-0.00544494516431925,-0.005535566342439673
-0.005444605164319249,-0.005502652784686972
-0.005444265164319249,-0.006522973075076387
-0.00544392516431925,-0.006852108652621959
-0.005443585164319249,-0.008201564520562451
-0.005443245164319249,-0.01020929154358678
-0.00544290516431925,-0.0084319594248407
-0.005442565164319249,-0.00853070009810431
-0.005442225164319249,-0.008497786540349814
-0.00544188516431925,-0.008399045867086143
-0.005441545164319249,-0.008991489906675773
-0.005441205164319249,-0.01317151174149692
-0.00544086516431925,-0.004877295187348533
-0.005440525164319249,-0.003758234223702451
-0.005440185164319249,-0.008629440771368041
-0.00543984516431925,-0.008102823847295128
-0.005439505164319249,-0.003626579992677336
-0.005439165164319249,-0.004712727398575745
-0.00543882516431925,-0.005864701919985244
-0.005438485164319249,-0.005798874804478047
-0.005438145164319249,-0.006852108652621959
-0.00543780516431925,-0.009123144137686397
-0.005437465164319249,-0.01001181019706244
-0.005437125164319249,-0.0116574880847873
-0.00543678516431925,-0.01287528972170591
-0.00543644516431925,-0.01047260000562761
-0.005436105164319249,-0.01040677289011413
-0.00543576516431925,-0.01155874741152362
-0.00543542516431925,-0.008036996731792421
-0.005435085164319249,-0.007938256058522341
-0.00543474516431925,-0.007707861154240443
-0.00543440516431925,-0.005700134131216112
-0.005434065164319249,-0.003692407108184477
-0.00543372516431925,-0.005403912111421445
-0.00543338516431925,-0.00487729518734949
-0.005433045164319249,-0.003725320665939034
-0.00543270516431925,-0.005370998553666888
-0.00543236516431925,0.00121171299723256
-0.005432025164319249,-0.003922802012466375
-0.00543168516431925,-0.005634307015703346
-0.00543134516431925,-0.005403912111421864
-0.005431005164319249,-0.006457145959567274
-0.005430665164319249,-0.006128010382021702
-0.00543032516431925,-0.004613986725314829
-0.005429985164319249,-0.003922802012466375
-0.005429645164319249,-0.0009276682568016767
-0.00542930516431925,-0.004877295187341348
-0.005428965164319249,-0.0063584052863036
-0.005428625164319249,-0.004054456243484602
-0.00542828516431925,-0.004712727398574548
-0.005427945164319249,-0.005864701919985244
-0.005427605164319249,-0.008036996731786015
-0.00542726516431925,-0.00764203403873133
-0.005426925164319249,-0.007378725576694872
-0.005426585164319249,-0.006424232401812717
-0.00542624516431925,-0.00714833067241297
-0.005425905164319249,-0.007674947596485886
-0.005425565164319249,-0.006983762883640186
-0.00542522516431925,-0.0070495899991493
-0.005424885164319249,-0.005173517207139544
-0.005424545164319249,-0.005765961246721574
-0.00542420516431925,-0.007609120480976773
-0.005423865164319249,-0.008300305193820972
-0.005423525164319249,-0.007477466249958542
-0.00542318516431925,-0.008892749233404499
-0.005422845164319249,-0.009814328850532336
-0.005422505164319249,-0.009945983081550328
-0.00542216516431925,-0.01106504404520527
-0.005421825164319249,-0.01034094577460519
-0.005421485164319249,-0.01043968644786868
-0.00542114516431925,-0.0111966982762235
-0.005420805164319249,-0.01320442529925507
-0.005420465164319249,-0.01517923876452491
-0.00542012516431925,-0.005272257880403218
-0.005419785164319249,-0.007345812018936483
-0.005419445164319249,-0.005239344322648658
-0.00541910516431925,-0.005403912111421445
-0.005418765164319249,-0.009057317022174409
-0.005418425164319249,-0.007477466249958542
-0.00541808516431925,-0.005041862976121317
-0.005417745164319249,-0.005798874804475951
-0.005417405164319249,-0.00570013413121246
-0.00541706516431925,-0.004581073167557518
-0.005416725164319249,-0.006062183266512409
-0.005416385164319249,-0.005963442593248915
-0.00541604516431925,-0.005469739226930559
-0.005415705164319249,-0.006654627306094315
