Analysis/files/cmb03_d2s01/wrd06_ch43.csv

#Digilent WaveForms Oscilloscope Acquisition
#Device Name: ADP3450
#Serial Number: SN:210018B9D9B0
#Date Time: 2024-08-09 18:24:14.430.217.560
#Sample rate: 2.94118e+06Hz
#Samples: 32768
#Trigger: Source: Channel 3 Type: Edge Condition: Rising Level: 60 mV Hyst.: Auto HoldOff: 0 s
#Channel 3: Range: 200 mV/div Offset: -20 mV Attenuation: 1 X Coupling: DC Bandwidth: 0 Hz Sample Mode: Average

Time (s),Channel 3 (V)
-0.005570364931846345,0.008419782145492541
-0.005570024931846345,0.006082919544911143
-0.005569684931846345,0.001771243479072003
-0.005569344931846345,0.00387771117536366
-0.005569004931846345,0.004700550119229084
-0.005568664931846345,0.005523389063091515
-0.005568324931846345,0.006050005987164429
-0.005567984931846345,0.004996772139020576
-0.005567644931846345,0.006082919544918986
-0.005567304931846345,0.006148746660428099
-0.005566964931846345,0.003713143386590454
-0.005566624931846345,0.003482748482308975
-0.005566284931846345,0.001968724825599347
-0.005565944931846345,-3.900219742905481e-05
-0.005565604931846345,-0.0002693971017105369
-0.005565264931846345,2.682491808047791e-05
-0.005564924931846345,-0.001882161431685212
-0.005564584931846345,-0.002639173260038648
-0.005564244931846345,-0.001618852969647377
-0.005563904931846345,-0.003626579992677336
-0.005563564931846345,-0.004712727398575745
-0.005563224931846345,-0.003856974896957261
-0.005562884931846345,-0.00329744441513081
-0.005562544931846345,-0.004482332494293848
-0.005562204931846345,-0.002935395279829663
-0.005561864931846345,-0.003264530857374633
-0.005561524931846345,-0.003955715570220932
-0.005561184931846345,-0.007609120480976773
-0.005560844931846345,-0.005996356151006405
-0.005560504931846345,-0.002705000375547762
-0.005560164931846345,-0.002244210566983963
-0.005559824931846345,-0.001750507200666506
-0.005559484931846345,-0.00695084932588563
-0.005559144931846345,-0.008366132309331583
-0.005558804931846345,-0.006555886632834237
-0.005558464931846345,-0.0070495899991493
-0.005558124931846345,-0.007773688269749557
-0.005557784931846345,-0.007905342500767545
-0.005557444931846345,-0.007510379807713099
-0.005557104931846345,-0.007181244230167527
-0.005556764931846345,-0.004976035860616214
-0.005556424931846345,-0.004613986725312075
-0.005556084931846345,-0.005272257880403218
-0.005555744931846345,-0.003363271530642378
-0.005555404931846345,-0.003297444415129792
-0.005555064931846345,-0.004548159609802961
-0.005554724931846345,-0.004284851147766982
-0.005554384931846345,-0.006062183266512589
-0.005554044931846345,-0.008958576348913613
-0.005553704931846345,-0.007477466249958542
-0.005553364931846345,-0.008596527213613484
-0.005553024931846345,-0.008958576348913613
-0.005552684931846345,-0.008267391636067913
-0.005552344931846345,-0.00783951538525867
-0.005552004931846345,-0.008399045867086143
-0.005551664931846345,-0.00764203403873133
-0.005551324931846345,-0.00639131884406109
-0.005550984931846345,-0.008004083174031458
-0.005550644931846345,-0.009945983081550328
-0.005550304931846345,-0.007773688269741295
-0.005549964931846345,-0.003231617299620675
-0.005549624931846345,-0.002836654606565989
-0.005549284931846345,-0.0003681377749828286
-0.005548944931846345,-0.00510769009163043
-0.005548604931846345,-0.007477466249958542
-0.005548264931846345,-0.004416505378787365
-0.005547924931846345,-0.005864701919985244
-0.005547584931846345,-0.008925662791159056
-0.005547244931846345,-0.008596527213615519
-0.005546904931846345,-0.009715588177268426
-0.005546564931846345,-0.009583933946250199
-0.005546224931846345,-0.009748501735024779
-0.005545884931846345,-0.0107359084676597
-0.005545544931846345,-0.01139417962275084
-0.005545204931846345,-0.01126252539173524
-0.005544864931846345,-0.01271072193293312
-0.005544524931846345,-0.01419183203188819
-0.005544184931846345,-0.01264489481742191
-0.005543844931846345,-0.01149292029601451
-0.005543504931846345,-0.01142709318050539
-0.005543164931846345,-0.008892749233402763
-0.005542824931846345,-0.007938256058522341
-0.005542484931846345,-0.009024403464422726
-0.005542144931846345,-0.008892749233404738
-0.005541804931846345,-0.008333218751577026
-0.005541464931846345,-0.008596527213613484
-0.005541124931846345,-0.009913069523793373
-0.005540784931846345,-0.009748501735022983
-0.005540444931846345,-0.01267780837517857
-0.005540104931846345,-0.01619955905490977
-0.005539764931846345,-0.009551020388495642
-0.005539424931846345,-0.009583933946250199
-0.005539084931846345,-0.009518106830741202
-0.005538744931846345,-0.008794008560140829
-0.005538404931846345,-0.01284237616395135
-0.005538064931846345,-0.01241449991314288
-0.005537724931846345,-0.008859835675649942
-0.005537384931846345,-0.009386452599722855
-0.005537044931846345,-0.009156057695441373
-0.005536704931846345,-0.007115417114658414
-0.005536364931846345,-0.007674947596485886
-0.005536024931846345,-0.008761095002384292
-0.005535684931846345,-0.008761095002386268
-0.005535344931846345,-0.009419366157477412
-0.005535004931846345,-0.01198662366232819
-0.005534664931846345,-0.01067008135215058
-0.005534324931846345,-0.005963442593248915
-0.005533984931846345,-0.01198662366232191
-0.005533644931846345,-0.01195371010457831
-0.005533304931846345,-0.01034094577460501
-0.005532964931846345,-0.01063716779439602
-0.005532624931846345,-0.01090047625643248
-0.005532284931846345,-0.009978896639304884
-0.005531944931846345,-0.01162457452703274
-0.005531604931846345,-0.01053842712113235
-0.005531264931846345,-0.01007763731256855
-0.005530924931846345,-0.009649761061759313
-0.005530584931846345,-0.01083464914092337
-0.005530244931846345,-0.009221884810950071
-0.005529904931846345,-0.0118878829890692
-0.005529564931846345,-0.01271072193292049
-0.005529224931846345,-0.005765961246721574
-0.005528884931846345,-0.006819195094867402
-0.005528544931846345,-0.007707861154244455
-0.005528204931846345,-0.009913069523795767
-0.005527864931846345,-0.01126252539173261
-0.005527524931846345,-0.01020929154358403
-0.005527184931846345,-0.008695267886877155
-0.005526844931846345,-0.009287711926459184
-0.005526504931846345,-0.01053842712112918
-0.005526164931846345,-0.008794008560140829
-0.005525824931846345,-0.009945983081550328
-0.005525484931846345,-0.01030803221684734
-0.005525144931846345,-0.008596527213613484
-0.005524804931846345,-0.007477466249958542
-0.005524464931846345,-0.008761095002383994
-0.005524124931846345,-0.007510379807713099
-0.005523784931846345,-0.007674947596485886
-0.005523444931846345,-0.009945983081562361
-0.005523104931846345,-0.01656160819021631
-0.005522764931846345,-0.02722560090269281
-0.005522424931846345,-0.04522931699448003
-0.005522084931846345,-0.06968409040607149
-0.005521744931846345,-0.09798975007499058
-0.005521404931846345,-0.1314299247536797
-0.005521064931846345,-0.1639156062573685
-0.005520724931846345,-0.1940644251605428
-0.005520384931846345,-0.2215143323277935
-0.005520044931846345,-0.2457387108351974
-0.005519704931846345,-0.2604181575937299
-0.005519364931846345,-0.2751963450254992
-0.005519024931846345,-0.2772698991640631
-0.005518684931846345,-0.2752621721410352
-0.005518344931846345,-0.2714441994415135
-0.005518004931846345,-0.2658818081809864
-0.005517664931846345,-0.2619980083659487
-0.005517324931846345,-0.2547899392177138
-0.005516984931846345,-0.2446525634292971
-0.005516644931846345,-0.2357988163933212
-0.005516304931846345,-0.2284920065718228
-0.005515964931846345,-0.2207902340572432
-0.005515624931846345,-0.2121668819255492
-0.005515284931846345,-0.2044980229687514
-0.005514944931846345,-0.1974216080515076
-0.005514604931846345,-0.1897198355369412
-0.005514264931846345,-0.1825775935042153
-0.005513924931846345,-0.1772126835902096
-0.005513584931846345,-0.1708932805013346
-0.005513244931846345,-0.1636522977953452
-0.005512904931846345,-0.1577278573995118
-0.005512564931846345,-0.1539427982577377
-0.005512224931846345,-0.1471296918025443
-0.005511884931846345,-0.1422913988126245
-0.005511544931846345,-0.1381772040933048
-0.005511204931846345,-0.1329110348525757
-0.005510864931846345,-0.1298171604236473
-0.005510524931846345,-0.1257687928198368
-0.005510184931846345,-0.1210621540609351
-0.005509844931846345,-0.1164871695330517
-0.005509504931846345,-0.1131299866420869
-0.005509164931846345,-0.1103652477907041
-0.005508824931846345,-0.106909324226457
-0.005508484931846345,-0.09670612132256287
-0.005508144931846345,-0.09308562996956157
-0.005507804931846345,-0.08785237428658554
-0.005507464931846345,-0.08706244890047762
-0.005507124931846345,-0.08804985563311435
-0.005506784931846345,-0.08383692024052652
-0.005506444931846345,-0.08136840340893925
-0.005506104931846345,-0.0788011459040838
-0.005505764931846345,-0.0755427036863773
-0.005505424931846345,-0.07261339704622705
-0.005505084931846345,-0.07123102762053565
-0.005504744931846345,-0.06951952261729594
-0.005504404931846345,-0.06800549896058905
-0.005504064931846345,-0.06570154991777005
-0.005503724931846345,-0.0627393297198567
-0.005503384931846345,-0.06096199760111384
-0.005503044931846345,-0.05862513500054029
-0.005502704931846345,-0.05457676739672396
-0.005502364931846345,-0.05138415229453772
-0.005502024931846345,-0.05049548623516468
-0.005501684931846345,-0.04799405584581607
-0.005501344931846345,-0.04674334065114517
-0.005501004931846345,-0.04644711863135415
-0.005500664931846345,-0.04569010680299534
-0.005500324931846345,-0.04348489843344402
-0.005499984931846345,-0.04262914593182553
-0.005499644931846345,-0.0405885053510467
-0.005499304931846345,-0.03588186659214133
-0.005498964931846345,-0.03650722418947791
-0.005498624931846345,-0.03950235794513716
-0.005498284931846345,-0.03650722418947791
-0.005497944931846345,-0.03203098033485814
-0.005497604931846345,-0.03384122601135549
-0.005497264931846345,-0.0318334989883308
-0.005496924931846345,-0.03499320053276828
-0.005496584931846345,-0.03716549534456511
-0.005496244931846345,-0.0325246837011765
-0.005495904931846345,-0.03064861090916675
-0.005495564931846345,-0.02920041436796887
-0.005495224931846345,-0.02679772465188356
-0.005494884931846345,-0.02396715868499166
-0.005494544931846345,-0.02406589935825514
-0.005494204931846345,-0.02202525877747279
-0.005493864931846345,-0.0223214807972638
-0.005493524931846345,-0.02274935704807227
-0.005493184931846345,-0.02258478925930026
-0.005492844931846345,-0.02311140618337317
-0.005492504931846345,-0.02380259089621761
-0.005492164931846345,-0.02413172647376444
-0.005491824931846345,-0.02330888752990051
-0.005491484931846345,-0.02452668916681691
-0.005491144931846345,-0.02383550445397342
-0.005490804931846345,-0.01870098944426252
-0.005490464931846345,-0.02321014685663684
-0.005490124931846345,-0.02179486387319089
-0.005489784931846345,-0.02172903675768177
-0.005489444931846345,-0.0202479266587267
-0.005489104931846345,-0.0209391113715724
-0.005488764931846345,-0.01889847079078986
-0.005488424931846345,-0.02172903675768177
-0.005488084931846345,-0.02650150263207668
-0.005487744931846345,-0.01777940982713492
-0.005487404931846345,-0.01669326242123453
-0.005487064931846345,-0.01531089299554158
-0.005486724931846345,-0.01445514049392465
-0.005486384931846345,-0.0158704234773706
-0.005486044931846345,-0.01564002857307865
-0.005485704931846345,-0.01011055087032311
-0.005485364931846345,-0.01040677289011413
-0.005485024931846345,-0.01106504404520179
-0.005484684931846345,-0.009156057695440954
-0.005484344931846345,-0.008892749233404499
-0.005484004931846345,-0.01027511865909596
-0.005483664931846345,-0.01030803221685045
-0.005483324931846345,-0.008464872982595257
-0.005482984931846345,-0.01155874741152554
-0.005482644931846345,-0.01261198125966945
-0.005482304931846345,-0.01300694395272414
-0.005481964931846345,-0.01425765914739671
-0.005481624931846345,-0.01392852356985173
-0.005481284931846345,-0.01465262184045199
-0.005480944931846345,-0.01596916415063476
-0.005480604931846345,-0.01623247261267073
-0.005480264931846345,-0.01452096760943376
-0.005479924931846345,-0.01580459636186346
-0.005479584931846345,-0.01689074376776187
-0.005479244931846345,-0.01517923876452491
-0.005478904931846345,-0.01336899308802756
-0.005478564931846345,-0.01366521510781528
-0.005478224931846345,-0.01264489481742401
-0.005477884931846345,-0.0127436354906875
-0.005477544931846345,-0.01603499126614339
-0.005477204931846345,-0.007247071345676644
-0.005476864931846345,-0.006654627306095692
-0.005476524931846345,-0.007115417114658414
-0.005476184931846345,-0.009123144137686397
-0.005475844931846345,-0.0103409457746028
-0.005475504931846345,-0.01113087116071438
-0.005475164931846345,-0.008826922117895385
-0.005474824931846345,-0.008859835675649881
-0.005474484931846345,-0.01063716779439602
-0.005474144931846345,-0.009353539041968298
-0.005473804931846345,-0.009123144137686817
-0.005473464931846345,-0.009945983081550328
-0.005473124931846345,-0.01106504404520527
-0.005472784931846345,-0.009814328850534373
-0.005472444931846345,-0.0116574880847873
-0.005472104931846345,-0.01215119145110565
-0.005471764931846345,-0.01195371010457867
-0.005471424931846345,-0.01205245077784198
-0.005471084931846345,-0.01067008135215058
-0.005470744931846345,-0.009419366157479687
-0.005470404931846345,-0.008991489906668169
-0.005470064931846345,-0.009254798368704627
-0.005469724931846345,-0.007247071345676644
-0.005469384931846345,-0.006555886632830944
-0.005469044931846345,-0.01043968644786868
-0.005468704931846345,-0.009748501735022983
-0.005468364931846345,-0.008629440771368041
-0.005468024931846345,-0.009057317022177283
-0.005467684931846345,-0.01014346442807767
-0.005467344931846345,-0.01267780837517857
-0.005467004931846345,-0.01327025241476059
-0.005466664931846345,-0.007806601827504114
-0.005466324931846345,-0.007411639134451883
-0.005465984931846345,-0.008761095002386268
-0.005465644931846345,-0.01330316597251515
-0.005465304931846345,-0.01280946260619392
-0.005464964931846345,-0.01122961183397805
-0.005464624931846345,-0.01057134067888691
-0.005464284931846345,-0.01086756269867721
-0.005463944931846345,-0.01047260000562324
-0.005463604931846345,-0.009945983081550328
-0.005463264931846345,-0.009123144137688312
-0.005462924931846345,-0.01017637798583223
-0.005462584931846345,-0.01099921692969615
-0.005462244931846345,-0.01007763731256778
-0.005461904931846345,-0.009649761061759313
-0.005461564931846345,-0.008267391636067913
-0.005461224931846345,-0.006654627306093777
-0.005460884931846345,-0.006193837497530816
-0.005460544931846345,-0.005864701919985244
-0.005460204931846345,-0.006193837497531175
-0.005459864931846345,-0.006391318844058157
-0.005459524931846345,-0.00909023057993184
-0.005459184931846345,-0.009419366157477651
-0.005458844931846345,-0.009551020388495642
-0.005458504931846345,-0.01067008135215058
-0.005458164931846345,-0.01113087116071313
-0.005457824931846345,-0.01043968644786868
-0.005457484931846345,-0.01132835250724173
-0.005457144931846345,-0.01182205587355918
-0.005456804931846345,-0.01435639982066098
-0.005456464931846345,-0.01093338981418704
-0.005456124931846345,-0.006193837497539437
-0.005455784931846345,-0.009156057695440954
-0.005455444931846345,-0.01146000673825995
-0.005455104931846345,-0.008695267886882184
-0.005454764931846345,-0.007576206923222212
-0.005454424931846345,-0.01011055087032311
-0.005454084931846345,-0.0102422051013411
-0.005453744931846345,-0.009518106830741082
-0.005453404931846345,-0.009518106830741082
-0.005453064931846345,-0.01096630337193896
-0.005452724931846345,-0.01014346442807767
-0.005452384931846345,-0.009551020388495642
-0.005452044931846345,-0.009715588177268126
-0.005451704931846345,-0.007411639134449428
-0.005451364931846345,-0.00695084932588563
-0.005451024931846345,-0.00668754086384965
-0.005450684931846345,-0.006424232401812717
-0.005450344931846345,-0.005765961246721574
-0.005450004931846345,-0.008859835675644315
-0.005449664931846345,-0.007115417114658414
-0.005449324931846345,-0.006588800190585501
-0.005448984931846345,-0.00612801038202254
-0.005448644931846345,-0.006522973075076387
-0.005448304931846345,-0.005667220573457903
-0.005447964931846345,-0.00500894941836676
-0.005447624931846345,-0.006457145959567274
-0.005447284931846345,-0.004778554514084859
-0.005446944931846345,-0.001651766527401934
-0.005446604931846345,-0.0109663033719416
-0.005446264931846345,-0.01076882202541425
-0.005445924931846345,-0.009913069523795767
-0.005445584931846345,-0.01060425423663775
-0.005445244931846345,-0.008563613655858927
-0.005444904931846345,-0.01182205587356008
-0.005444564931846345,-0.01603499126613387
-0.005444224931846345,-0.01080173558316881
-0.005443884931846345,-0.009748501735022983
-0.005443544931846345,-0.010505513563376
-0.005443204931846345,-0.009518106830741082
-0.005442864931846345,-0.008135737405049685
-0.005442524931846345,-0.006950849325887426
-0.005442184931846345,-0.007938256058522341
-0.005441844931846345,-0.007115417114658414
-0.005441504931846345,-0.007971169616277855
-0.005441164931846345,-0.008497786540349814
-0.005440824931846345,-0.009715588177268426
-0.005440484931846345,-0.01139417962275234
-0.005440144931846345,-0.01221701856661477
-0.005439804931846345,-0.008761095002386268
-0.005439464931846345,-0.008464872982594717
-0.005439124931846345,-0.008168650962804242
-0.005438784931846345,-0.006983762883640186
-0.005438444931846345,-0.007148330672408899
-0.005438104931846345,-0.00491020874510309
-0.005437764931846345,-0.004548159609802961
-0.005437424931846345,-0.00527225788040657
-0.005437084931846345,-0.007115417114658414
-0.005436744931846345,-0.005074776533875874
-0.005436404931846345,-0.006819195094864229
-0.005436064931846345,-0.0130398575104787
-0.005435724931846345,-0.007543293365467656
-0.005435384931846345,-0.006687540863850728
-0.005435044931846345,-0.007477466249958542
-0.005434704931846345,-0.008300305193822469
-0.005434364931846345,-0.01208536433558965
-0.005434024931846345,-0.01392852356985173
-0.005433684931846345,-0.01070299490990514
-0.005433344931846345,-0.0100118101970607
-0.005433004931846345,-0.01053842712113235
-0.005432664931846345,-0.009913069523795767
-0.005432324931846345,-0.01004472375481376
-0.005431984931846345,-0.009254798368704627
-0.005431644931846345,-0.01142709318050539
-0.005431304931846345,-0.01050551356337947
-0.005430964931846345,-0.01195371010457831
-0.005430624931846345,-0.01129543894948717
-0.005430284931846345,-0.01017637798583426
-0.005429944931846345,-0.01080173558316881
-0.005429604931846345,-0.01083464914092337
-0.005429264931846345,-0.00876109500239004
-0.005428924931846345,-0.008201564520558799
-0.005428584931846345,-0.01007763731256855
-0.005428244931846345,-0.008958576348915647
-0.005427904931846345,-0.008036996731786015
-0.005427564931846345,-0.008399045867086143
-0.005427224931846345,-0.008004083174031458
-0.005426884931846345,-0.008201564520558799
-0.005426544931846345,-0.009024403464422726
-0.005426204931846345,-0.008267391636067913
-0.005425864931846345,-0.01099921692969615
-0.005425524931846345,-0.01350064731904249
-0.005425184931846345,-0.007510379807713099
-0.005424844931846345,-0.006786281537112842
-0.005424504931846345,-0.006325491728549043
-0.005424164931846345,-0.009616847504004756
-0.005423824931846345,-0.01050551356337361
-0.005423484931846345,-0.008201564520558799
-0.005423144931846345,-0.006062183266512589
-0.005422804931846345,-0.006193837497532373
-0.005422464931846345,-0.0070495899991493
-0.005422124931846345,-0.006226751055285373
-0.005421784931846345,-0.007148330672413988
-0.005421444931846345,-0.007707861154240443
-0.005421104931846345,-0.007773688269749557
-0.005420764931846345,-0.006325491728549642
-0.005420424931846345,-0.006654627306094615
-0.005420084931846345,-0.007806601827504114
-0.005419744931846345,-0.006292578170794007
-0.005419404931846345,-0.006029269708758032
-0.005419064931846345,-0.006852108652621959
-0.005418724931846345,-0.007872428943012209
-0.005418384931846345,-0.007312898461185758
-0.005418044931846345,-0.009057317022177283
-0.005417704931846345,-0.008991489906666972
-0.005417364931846345,-0.008333218751577026
-0.005417024931846345,-0.009221884810950071
