Analysis/files/cmb03_d2s01/wrd02_ch39.csv

#Digilent WaveForms Oscilloscope Acquisition
#Device Name: ADP3450
#Serial Number: SN:210018B9D9B0
#Date Time: 2024-08-09 12:16:54.423.593.850
#Sample rate: 2.94118e+06Hz
#Samples: 32768
#Trigger: Source: Channel 3 Type: Edge Condition: Rising Level: 20 mV Hyst.: Auto HoldOff: 0 s
#Channel 3: Range: 200 mV/div Offset: 0 V Attenuation: 1 X Coupling: DC Bandwidth: 0 Hz Sample Mode: Average

Time (s),Channel 3 (V)
-0.005570264835164836,0.01526190510095074
-0.005569924835164835,0.0133529187511832
-0.005569584835164836,0.01157558663244035
-0.005569244835164836,0.01187180865223136
-0.005568904835164835,0.01233259846078852
-0.005568564835164836,0.008679193550039321
-0.005568224835164836,0.005519492005601839
-0.005567884835164835,0.006342330949476603
-0.005567544835164836,0.0122996849030406
-0.005567204835164836,0.008646279992284765
-0.005566864835164835,0.004466258157458946
-0.005566524835164836,0.00607902248742931
-0.005566184835164836,0.007494305470875266
-0.005565844835164835,0.006868947873537064
-0.005565504835164835,0.005980281814165639
-0.005565164835164836,0.01108188326612199
-0.005564824835164835,0.008415885087996998
-0.005564484835164835,0.005190356428056269
-0.005564144835164836,0.004630825946228797
-0.005563804835164835,0.004795393735001104
-0.005563464835164835,0.004532085272965126
-0.005563124835164836,0.00403838190664677
-0.005562784835164836,0.004696653061736715
-0.005562444835164835,0.004630825946228797
-0.005562104835164836,0.003939641233383098
-0.005561764835164836,0.004927047966018015
-0.005561424835164835,0.004959961523774369
-0.005561084835164836,0.00357759209808297
-0.005560744835164836,0.00393964123338244
-0.005560404835164835,0.003083888731764614
-0.005560064835164836,0.002359790461164357
-0.005559724835164836,0.002721839596463827
-0.005559384835164835,0.001240729497509416
-0.005559044835164836,0.005223269985810825
-0.005558704835164836,0.004367517484193898
-0.005558364835164835,0.005815714025392853
-0.005558024835164836,0.0023268769034098
-0.005557684835164836,-0.003136773683836741
-0.005557344835164835,-0.001622750027137053
-0.005557004835164836,-0.003070946568337565
-0.005556664835164836,-0.006131907439505807
-0.005556324835164835,-0.004782451571574535
-0.005555984835164836,-0.004124180416483393
-0.005555644835164836,-0.003893785512201912
-0.005555304835164835,-0.002741810990791994
-0.005554964835164836,-0.003301341472619465
-0.005554624835164836,-0.003334255030373962
-0.005554284835164835,-0.001918972046928067
-0.005553944835164836,-0.002873465221810222
-0.005553604835164836,-0.003103860126092122
-0.005553264835164835,-0.002116453393455409
-0.005552924835164836,-0.0007999110832731249
-0.005552584835164836,-0.001359441565100596
-0.005552244835164835,-0.0009315653142913533
-0.005551904835164836,-0.0009644788720459105
-0.005551564835164836,-0.001161960218573253
-0.005551224835164835,-4.289925491837133e-05
-0.005550884835164836,-7.581281267286857e-05
-0.005550544835164836,-0.002149366951209966
-0.005550204835164835,-0.002379761855486717
-0.005549864835164836,0.0004508041114000451
-0.005549524835164836,-0.001984799162437181
-0.005549184835164835,-0.009127041195167513
-0.005548844835164836,-0.004420402436274407
-0.005548504835164836,-0.002215194066719081
-0.005548164835164835,-0.00590151253522313
-0.005547824835164836,-0.002412675413246423
-0.005547484835164836,-0.004255834647501621
-0.005547144835164835,-0.008633337828848496
-0.005546804835164836,-0.003564649934655922
-0.005546464835164836,-0.00142526868060971
-0.005546124835164835,-0.002577243202018071
-0.005545784835164836,-0.001951885604682624
-0.005545444835164836,-0.001063219545309582
-0.005545104835164835,-0.00228102118223047
-0.005544764835164835,-0.003531736376901365
-0.005544424835164836,-0.004255834647501621
-0.005544084835164835,-0.006724351479092806
-0.005543744835164835,-0.006395215901547833
-0.005543404835164836,-0.006362302343793276
-0.005543064835164835,-0.007152227729902946
-0.005542724835164835,-0.007316795518675433
-0.005542384835164836,-0.005506549842174791
-0.005542044835164836,-0.005572376957683786
-0.005541704835164835,-0.00665852436358429
-0.005541364835164836,-0.005144500706874663
-0.005541024835164836,-0.005967339650737094
-0.005540684835164835,-0.005210327822383777
-0.005540344835164836,-0.004519143109538078
-0.005540004835164836,-0.005473636284418498
-0.005539664835164835,-0.006823092152357076
-0.005539324835164836,-0.006066080324002262
-0.005538984835164836,-0.006856005710110196
-0.005538644835164835,-0.01228674273961356
-0.005538304835164836,-0.01080563264065849
-0.005537964835164836,-0.003268427914878619
-0.005537624835164835,-0.007942153116012016
-0.005537284835164836,-0.00290637877956478
-0.005536944835164836,-0.0004049483902229898
-0.005536604835164835,-0.005704031188702134
-0.005536264835164836,-0.003762131281183265
-0.005535924835164836,-0.0002403806014520601
-0.005535584835164835,-0.002840551664055666
-0.005535244835164836,-0.003465909261392251
-0.005534904835164836,-0.002412675413248339
-0.005534564835164835,-0.003959612627710607
-0.005534224835164836,-0.00494701936034732
-0.005533884835164836,-0.00494701936034732
-0.005533544835164835,-0.006000253208493148
-0.005533204835164836,-0.005144500706874663
-0.005532864835164836,-0.006000253208493148
-0.005532524835164835,-0.006066080324002262
-0.005532184835164836,-0.005835685419720362
-0.005531844835164836,-0.005210327822383777
-0.005531504835164835,-0.006230648112775047
-0.005531164835164836,-0.007185141287657204
-0.005530824835164836,-0.00494701936034732
-0.005530484835164835,-0.007152227729902647
-0.005530144835164836,-0.007547190422957332
-0.005529804835164836,-0.007975066673766575
-0.005529464835164835,-0.008073807347033897
-0.005529124835164836,-0.01008153437005823
-0.005528784835164836,-0.009522003888230759
-0.005528444835164835,-0.008402942924582641
-0.005528104835164836,-0.01215508850859533
-0.005527764835164836,-0.006329388786038719
-0.005527424835164835,0.0006482854579197246
-0.005527084835164836,-0.003564649934655922
-0.005526744835164836,-9.985697163754359e-06
-0.005526404835164835,0.001701519306060403
-0.005526064835164836,-0.005341982053402005
-0.005525724835164836,-0.00586859897747492
-0.005525384835164835,-0.003235514357116039
-0.005525044835164836,-0.006362302343793276
-0.005524704835164836,-0.007448449749693661
-0.005524364835164835,-0.005901512535229836
-0.005524024835164836,-0.006098993881756819
-0.005523684835164836,-0.006428129459302391
-0.005523344835164835,-0.00527615493789355
-0.005523004835164835,-0.005638204073193019
-0.005522664835164836,-0.008304202251312145
-0.005522324835164835,-0.01347163081879982
-0.005521984835164835,-0.0256825607457183
-0.005521644835164836,-0.04523321405192522
-0.005521304835164835,-0.06531048428225746
-0.005520964835164835,-0.09410984731744251
-0.005520624835164836,-0.1266613559366995
-0.005520284835164836,-0.1568430883975735
-0.005519944835164835,-0.1847537853734928
-0.005519604835164836,-0.2104592739798019
-0.005519264835164836,-0.2283313358404939
-0.005518924835164835,-0.2389953285530029
-0.005518584835164836,-0.2452818180841233
-0.005518244835164836,-0.2394561183615773
-0.005517904835164835,-0.2405093522097125
-0.005517564835164836,-0.2395548590348304
-0.005517224835164836,-0.2309315069031521
-0.005516884835164835,-0.2146063822568761
-0.005516544835164836,-0.2127303094648663
-0.005516204835164836,-0.2037778217556431
-0.005515864835164835,-0.1953190374127056
-0.005515524835164836,-0.1984787389571431
-0.005515184835164836,-0.1962735305875918
-0.005514844835164835,-0.1899870410564674
-0.005514504835164836,-0.1887034123040397
-0.005514164835164836,-0.1883742767264947
-0.005513824835164835,-0.1849183531622656
-0.005513484835164836,-0.1811991211360006
-0.005513144835164836,-0.1797838381525573
-0.005512804835164835,-0.175373421413444
-0.005512464835164836,-0.1702059928459786
-0.005512124835164836,-0.1663880201464499
-0.005511784835164835,-0.1602331848463478
-0.005511444835164836,-0.1563164714735555
-0.005511104835164836,-0.1513794378103719
-0.005510764835164835,-0.1455208245300607
-0.005510424835164836,-0.1397280383652587
-0.005510084835164836,-0.1372924350914214
-0.005509744835164835,-0.1342314742202476
-0.005509404835164836,-0.1270563186297542
-0.005509064835164836,-0.1228762967949254
-0.005508724835164835,-0.1185975342868258
-0.005508384835164836,-0.1146149937985316
-0.005508044835164836,-0.1113236380230759
-0.005507704835164835,-0.1069790483994668
-0.005507364835164836,-0.1028319401224002
-0.005507024835164836,-0.1017787062742543
-0.005506684835164835,-0.1039839146437882
-0.005506344835164836,-0.09220086096767821
-0.005506004835164836,-0.09029187461791391
-0.005505664835164835,-0.08969943057831643
-0.005505324835164836,-0.08120773267765613
-0.005504984835164836,-0.08199765806376552
-0.005504644835164835,-0.08331420037393701
-0.005504304835164836,-0.07738975997812753
-0.005503964835164836,-0.07357178727859889
-0.005503624835164835,-0.07337430593206629
-0.005503284835164836,-0.07047791284967053
-0.005502944835164836,-0.06682450793891467
-0.005502604835164835,-0.06639663168809509
-0.005502264835164835,-0.06070258619656706
-0.005501924835164836,-0.05935313032863022
-0.005501584835164835,-0.05718083551682657
-0.005501244835164835,-0.05560098474461071
-0.005500904835164836,-0.05319829502852804
-0.005500564835164835,-0.05267167810445267
-0.005500224835164835,-0.05132222223651828
-0.005499884835164836,-0.04753716309474422
-0.005499544835164836,-0.04717511395944475
-0.005499204835164835,-0.04450911578132496
-0.005498864835164836,-0.04161272269892394
-0.005498524835164836,-0.04006578548446257
-0.005498184835164835,-0.03950625500263228
-0.005497844835164836,-0.03710356528654962
-0.005497504835164836,-0.03713647884430411
-0.005497164835164835,-0.03647820768921303
-0.005496824835164836,-0.03503001114801252
-0.005496484835164836,-0.03769600932612679
-0.005496144835164835,-0.04105319221709647
-0.005495804835164836,-0.0319690502768387
-0.005495464835164836,-0.03361472816456357
-0.005495124835164835,-0.03397677729986669
-0.005494784835164836,-0.02722949796018248
-0.005494444835164836,-0.03045502662012321
-0.005494104835164835,-0.03193613671908415
-0.005493764835164836,-0.02657122680509134
-0.005493424835164836,-0.02446475910880351
-0.005493084835164835,-0.02492554891736349
-0.005492744835164836,-0.02357609304942664
-0.005492404835164836,-0.02091009487131237
-0.005492064835164835,-0.02262159987454449
-0.005491724835164836,-0.02183167448843512
-0.005491384835164836,-0.02186458804618962
-0.005491044835164835,-0.02272034054780816
-0.005490704835164836,-0.02393814218472677
-0.005490364835164836,-0.02216081006598069
-0.005490024835164835,-0.02140379823762588
-0.005489684835164836,-0.02173293381517144
-0.005489344835164836,-0.01949481188786156
-0.005489004835164835,-0.01936315765684333
-0.005488664835164836,-0.01893528140603409
-0.005488324835164836,-0.01705920861402434
-0.005487984835164835,-0.01636802390117918
-0.005487644835164836,-0.01666424592096965
-0.005487304835164836,-0.01452486466692344
-0.005486964835164835,-0.0138007663963245
-0.005486624835164836,-0.01452486466692344
-0.005486284835164836,-0.01291210033695014
-0.005485944835164835,-0.01278044610594071
-0.005485604835164836,-0.01761873909585181
-0.005485264835164836,-0.01607180188138762
-0.005484924835164835,-0.008929559848661424
-0.005484584835164836,-0.01590723409261484
-0.005484244835164836,-0.01159555802676786
-0.005483904835164835,-0.01070689196740392
-0.005483564835164836,-0.01570975274608749
-0.005483224835164836,-0.01597306120812395
-0.005482884835164835,-0.01287918677919882
-0.005482544835164836,-0.01465651889794167
-0.005482204835164836,-0.01574266630384205
-0.005481864835164835,-0.01380076639632612
-0.005481524835164835,-0.01541353072629648
-0.005481184835164836,-0.01478817312895989
-0.005480844835164835,-0.01347163081877701
-0.005480504835164835,-0.01314249524123204
-0.005480164835164836,-0.01264879187491368
-0.005479824835164835,-0.01100311398718319
-0.005479484835164835,-0.009554917445985316
-0.005479144835164836,-0.01073980552514937
-0.005478804835164836,-0.009028300521915516
-0.005478464835164835,-0.008666251386612273
-0.005478124835164836,-0.008962473406403288
-0.005477784835164836,-0.008732078502121808
-0.005477444835164835,-0.008501683597839487
-0.005477104835164836,-0.009028300521912402
-0.005476764835164836,-0.009061214079666898
-0.005476424835164835,-0.007415536191939104
-0.005476084835164836,-0.008666251386612273
-0.005475744835164836,-0.008962473406402749
-0.005475404835164835,-0.008567510713348603
-0.005475064835164836,-0.0138665935118323
-0.005474724835164836,-0.01001570725455612
-0.005474384835164835,-0.005243241380138334
-0.005474044835164836,-0.009357436099457973
-0.005473704835164836,-0.004058353300983917
-0.005473364835164835,-0.003038033010583008
-0.005473024835164836,-0.008962473406403288
-0.005472684835164836,-0.008205461578049852
-0.005472344835164835,-0.003795044838937822
-0.005472004835164836,-0.00586859897747492
-0.005471664835164836,-0.007481363307445284
-0.005471324835164835,0.0008786803622092876
-0.005470984835164836,-0.005572376957683906
-0.005470644835164836,-0.006197734555019353
-0.005470304835164835,-0.004519143109538078
-0.005469964835164836,-0.004255834647501621
-0.005469624835164836,-0.005210327822383777
-0.005469284835164835,-0.004914105802592763
-0.005468944835164836,-0.005111587149120106
-0.005468604835164836,-0.006856005710111633
-0.005468264835164835,-0.006526870132566062
-0.005467924835164836,-0.006131907439511376
-0.005467584835164836,-0.007349709076429989
-0.005467244835164835,-0.007514276865202775
-0.005466904835164836,-0.007448449749693661
-0.005466564835164836,-0.008402942924575817
-0.005466224835164835,-0.009357436099457854
-0.005465884835164836,-0.009291608983948858
-0.005465544835164836,-0.009916966581285444
-0.005465204835164835,-0.01067397840963714
-0.005464864835164836,-0.008962473406403288
-0.005464524835164836,-0.01113476821820406
-0.005464184835164835,-0.01169429870001428
-0.005463844835164836,-0.002215194066719081
-0.005463504835164836,-0.006724351479093405
-0.005463164835164835,-0.006066080323996934
-0.005462824835164836,-0.00313677368384668
-0.005462484835164836,-0.009818225908021772
-0.005462144835164835,-0.01126642244921306
-0.005461804835164836,-0.00619773455502049
-0.005461464835164836,-0.006757265036847961
-0.005461124835164835,-0.008238375135799319
-0.005460784835164836,-0.00619773455502049
-0.005460444835164836,-0.004650797340556306
-0.005460104835164835,-0.005605290515440378
-0.005459764835164835,-0.00665852436358429
-0.005459424835164836,-0.005934426092984033
-0.005459084835164835,-0.007185141287659239
-0.005458744835164835,-0.008304202251312145
-0.005458404835164836,-0.008534597155594046
-0.005458064835164835,-0.009258695426192745
-0.005457724835164835,-0.008402942924575817
-0.005457384835164836,-0.00619773455502049
-0.005457044835164836,-0.00619773455502049
-0.005456704835164835,-0.006230648112775047
-0.005456364835164836,-0.003630477050165036
-0.005456024835164836,-0.002840551664057102
-0.005455684835164835,-0.004222921089747064
-0.005455344835164836,-0.003268427914864908
-0.005455004835164836,-0.002939292337319935
-0.005454664835164835,-0.004058353300974278
-0.005454324835164836,-0.003729217723428708
-0.005453984835164836,-0.008699164944357789
-0.005453644835164835,-0.008633337828857716
-0.005453304835164836,-0.002116453393455409
-0.005452964835164836,-0.00711931417213899
-0.005452624835164835,-0.004716624456065421
-0.005452284835164836,-0.002840551664055666
-0.005451944835164836,-0.008732078502110673
-0.005451604835164835,-0.009489090330476201
-0.005451264835164836,-0.005736944746456691
-0.005450924835164836,-0.006921832825618592
-0.005450584835164835,-0.007777585327239231
-0.005450244835164836,-0.007349709076429989
-0.005449904835164836,-0.004749538013824707
-0.005449564835164835,-0.005374895611156563
-0.005449224835164836,-0.005934426092984033
-0.005448884835164836,-0.004354575320768166
-0.005448544835164835,-0.003432995703637694
-0.005448204835164836,-0.00438748887851985
-0.005447864835164836,-0.003498822819146808
-0.005447524835164835,-0.003762131281183265
-0.005447184835164836,-0.004222921089747064
-0.005446844835164836,-0.003334255030374022
-0.005446504835164835,-0.003893785512201493
-0.005446164835164836,-0.005210327822383777
-0.005445824835164836,-0.004354575320765292
-0.005445484835164835,-0.002939292337320654
-0.005445144835164836,-0.003663390607919593
-0.005444804835164836,-0.00392669906995605
-0.005444464835164835,-0.004650797340557923
-0.005444124835164836,-0.005539463399929348
-0.005443784835164836,-0.006987659941129861
-0.005443444835164835,-0.009390349657220373
-0.005443104835164836,-0.01370202572305951
-0.005442764835164836,-0.00369630416567415
-0.005442424835164835,-0.003564649934664783
-0.005442084835164836,-0.008435856482330374
-0.005441744835164836,-0.006592697248075176
-0.005441404835164835,-0.004058353300975296
-0.005441064835164836,-0.004617883782801749
-0.005440724835164836,-0.006559783690320619
-0.005440384835164835,-0.004881192244841379
-0.005440044835164836,-0.006625610805829733
-0.005439704835164836,-0.006987659941129861
-0.005439364835164835,-0.006098993881756759
-0.005439024835164835,-0.006066080324002262
-0.005438684835164836,-0.00688891926786619
-0.005438344835164835,-0.006230648112774209
-0.005438004835164835,-0.005769858304211248
-0.005437664835164836,-0.007053487056638975
-0.005437324835164835,-0.005802771861966823
-0.005436984835164835,-0.006362302343793276
-0.005436644835164836,-0.006461043017056948
-0.005436304835164836,-0.004584970225050606
-0.005435964835164835,-0.003729217723428708
-0.005435624835164836,-0.004749538013819977
-0.005435284835164836,-0.004519143109538497
-0.005434944835164835,-0.003301341472619465
-0.005434604835164836,-0.006691437921338847
-0.005434264835164836,-0.005605290515440438
-0.005433924835164835,-0.003663390607919593
-0.005433584835164836,-0.003103860126092122
-0.005433244835164836,-0.0006353432945048298
-0.005432904835164835,-0.004486229551783521
-0.005432564835164836,-0.008271288693557588
-0.005432224835164836,-0.005572376957688815
-0.005431884835164835,-0.003795044838937822
-0.005431544835164836,-0.005078673591365549
-0.005431204835164836,-0.005769858304209992
-0.005430864835164835,-0.004519143109538078
-0.005430524835164836,-0.003762131281183265
-0.005430184835164836,-0.005078673591363154
-0.005429844835164835,-0.003630477050165036
-0.005429504835164836,-0.005012846475856435
-0.005429164835164836,-0.005243241380137915
-0.005428824835164835,-0.00517741426462922
-0.005428484835164836,-0.005638204073193019
-0.005428144835164836,-0.007448449749690368
-0.005427804835164835,-0.008106720904784802
-0.005427464835164836,-0.007086400614393532
-0.005427124835164836,-0.008830819175385059
-0.005426784835164835,-0.008040893789275689
-0.005426444835164836,-0.006691437921338847
-0.005426104835164836,-0.006461043017056948
-0.005425764835164835,-0.006000253208493148
-0.005425424835164836,-0.004881192244838206
-0.005425084835164836,-0.005243241380138334
-0.005424744835164835,-0.00688891926786619
-0.005424404835164836,-0.0005036890634821109
-0.005424064835164836,-0.01310958168347748
-0.005423724835164835,-0.007152227729895642
-0.005423384835164836,-0.003301341472619465
-0.005423044835164836,-0.005605290515438462
-0.005422704835164835,-0.001030305987556342
-0.005422364835164836,-0.001754404258155281
-0.005422024835164836,-0.006428129459302391
-0.005421684835164835,-0.004552056667286948
-0.005421344835164836,-0.00142526868060971
-0.005421004835164836,-0.002972205895073894
-0.005420664835164835,-0.004782451571573038
-0.005420324835164836,-0.003959612627710607
-0.005419984835164836,-0.003301341472619465
-0.005419644835164835,-0.005802771861965925
-0.005419304835164836,-0.00586859897747492
-0.005418964835164836,-0.006263561670529605
-0.005418624835164835,-0.007613017538466387
-0.005418284835164836,-0.007580103980711889
-0.005417944835164836,-0.007086400614393532
-0.005417604835164835,-0.008139634462536006
