Analysis/files/cmb03_d2s01/wrd04_ch01.csv

#Digilent WaveForms Oscilloscope Acquisition
#Device Name: ADP3450
#Serial Number: SN:210018B9D9B0
#Date Time: 2024-08-09 15:06:18.861.502.280
#Sample rate: 2.94118e+06Hz
#Samples: 32768
#Trigger: Source: Channel 3 Type: Edge Condition: Rising Level: 20 mV Hyst.: Auto HoldOff: 0 s
#Channel 3: Range: 200 mV/div Offset: 0 V Attenuation: 1 X Coupling: DC Bandwidth: 0 Hz Sample Mode: Average

Time (s),Channel 3 (V)
-0.005570526086956522,0.008745020665548437
-0.005570186086956521,0.008777934223291739
-0.005569846086956522,0.002590185365446257
-0.005569506086956522,0.003676332771346642
-0.005569166086956521,0.007889268163928275
-0.005568826086956522,0.006967688546802352
-0.005568486086956522,0.006737293642520453
-0.005568146086956521,0.003840900560114997
-0.005567806086956522,0.001405297286282201
-0.005567466086956522,0.003511764982573856
-0.005567126086956521,0.004927047966015441
-0.005566786086956522,0.002524358249937143
-0.005566446086956522,0.002096481999127901
-0.005566106086956521,0.002886407385234577
-0.005565766086956522,0.001405297286282201
-0.005565426086956522,-0.000207467043691097
-0.005565086086956521,-0.0002403806014471508
-0.005564746086956522,-0.001063219545309582
-0.005564406086956522,-0.00313677368384668
-0.005564066086956521,-0.002281021182226937
-0.005563726086956522,-0.001589836469382495
-0.005563386086956522,-0.003202600799355794
-0.005563046086956522,-0.001721490700403418
-0.005562706086956522,-0.001556922911627938
-0.005562366086956522,-0.001688577142646167
-0.005562026086956522,-0.0005036890634842663
-0.005561686086956522,-0.0004707755057275538
-0.005561346086956522,-0.001359441565100596
-0.005561006086956522,-0.002313934739981016
-0.005560666086956522,-0.001129046660818696
-0.005560326086956522,-0.003564649934655922
-0.005559986086956522,-0.00596733965073422
-0.005559646086956522,-0.007942153116012016
-0.005559306086956522,-0.0115626444690133
-0.005558966086956522,-0.005967339650748769
-0.005558626086956522,-0.003202600799355794
-0.005558286086956522,-0.002939292337319337
-0.005557946086956522,-0.004650797340553193
-0.005557606086956522,-0.006823092152357076
-0.005557266086956522,-0.005736944746456691
-0.005556926086956522,-0.00527615493789373
-0.005556586086956521,-0.005967339650738591
-0.005556246086956522,-0.007777585327239231
-0.005555906086956522,-0.009258695426191607
-0.005555566086956521,-0.008271288693557588
-0.005555226086956522,-0.008863732733139616
-0.005554886086956522,-0.010213188601074
-0.005554546086956521,-0.008666251386612273
-0.005554206086956522,-0.008040893789275689
-0.005553866086956522,-0.008567510713348603
-0.005553526086956521,-0.007316795518675433
-0.005553186086956522,-0.005769858304211248
-0.005552846086956522,-0.006296475228284162
-0.005552506086956521,-0.002939292337319337
-0.005552166086956522,-0.002182280508964523
-0.005551826086956522,-0.002116453393455409
-0.005551486086956521,-0.003729217723426672
-0.005551146086956522,-0.002610156759773766
-0.005550806086956522,-0.003959612627710607
-0.005550466086956521,-0.005835685419716709
-0.005550126086956522,-0.003827958396692379
-0.005549786086956522,-0.004650797340556306
-0.005549446086956521,-0.005835685419724254
-0.005549106086956522,-0.007975066673766575
-0.005548766086956522,-0.008435856482330374
-0.005548426086956521,-0.00419000753199161
-0.005548086086956522,-0.00369630416567415
-0.005547746086956522,-0.003038033010583008
-0.005547406086956521,-0.006493956574815276
-0.005547066086956522,-0.008567510713348603
-0.005546726086956522,-0.007020573498884419
-0.005546386086956521,-0.006526870132567918
-0.005546046086956522,-0.007547190422957332
-0.005545706086956522,-0.006954746383375304
-0.005545366086956521,-0.008534597155593328
-0.005545026086956522,-0.008139634462539359
-0.005544686086956522,-0.007448449749693661
-0.005544346086956521,-0.008666251386611794
-0.005544006086956522,-0.008402942924575817
-0.005543666086956522,-0.007218054845411761
-0.005543326086956521,-0.007283881960919678
-0.005542986086956522,-0.006625610805829733
-0.005542646086956522,-0.005045760033610991
-0.005542306086956522,-0.00590151253522792
-0.005541966086956522,-0.008205461578048474
-0.005541626086956522,-0.006559783690320619
-0.005541286086956522,-0.008139634462536485
-0.005540946086956522,-0.01044358350535836
-0.005540606086956522,-0.009554917445985316
-0.005540266086956522,-0.009324522541703836
-0.005539926086956522,-0.01044358350535836
-0.005539586086956522,-0.009456176772721644
-0.005539246086956522,-0.01008153437005709
-0.005538906086956522,-0.01123350889146773
-0.005538566086956522,-0.007053487056638975
-0.005538226086956522,-0.008106720904782887
-0.005537886086956522,-0.007053487056638975
-0.005537546086956522,-0.005473636284420234
-0.005537206086956522,-0.003070946568341936
-0.005536866086956522,-0.008929559848648731
-0.005536526086956522,-0.008337115809066702
-0.005536186086956522,-0.005802771861970415
-0.005535846086956521,-0.008040893789275689
-0.005535506086956522,-0.009192868310685188
-0.005535166086956522,-0.00820546157805027
-0.005534826086956521,-0.008468770040084931
-0.005534486086956522,-0.009653658119248986
-0.005534146086956522,-0.007415536191943175
-0.005533806086956521,-0.007843412442748346
-0.005533466086956522,-0.00688891926786619
-0.005533126086956522,-0.006954746383375304
-0.005532786086956521,-0.008040893789275689
-0.005532446086956522,-0.009192868310685188
-0.005532106086956522,-0.009291608983948858
-0.005531766086956521,-0.01126642244922228
-0.005531426086956522,-0.01251713764389546
-0.005531086086956522,-0.01034484283209469
-0.005530746086956521,-0.009653658119248986
-0.005530406086956522,-0.01083854619841304
-0.005530066086956522,-0.008797905617630502
-0.005529726086956521,-0.00685600571011253
-0.005529386086956522,-0.007349709076429989
-0.005529046086956522,-0.007316795518675433
-0.005528706086956521,-0.007316795518680282
-0.005528366086956522,-0.009982793696794558
-0.005528026086956522,-0.01245131052838634
-0.005527686086956521,-0.004947019360348578
-0.005527346086956522,-0.005638204073193019
-0.005527006086956522,-0.005769858304211248
-0.005526666086956521,-0.003926699069964132
-0.005526326086956522,-0.00837002936682126
-0.005525986086956522,-0.008435856482330374
-0.005525646086956521,-0.006428129459303708
-0.005525306086956522,-0.007152227729902647
-0.005524966086956522,-0.007876326000502903
-0.005524626086956521,-0.006362302343792319
-0.005524286086956522,-0.005835685419720362
-0.005523946086956522,-0.006790178594602518
-0.005523606086956521,-0.003926699069954792
-0.005523266086956522,-0.003235514357110351
-0.005522926086956522,-0.006329388786038719
-0.005522586086956521,-0.009686571677019229
-0.005522246086956522,-0.01830992380869751
-0.005521906086956522,-0.03371346883783023
-0.005521566086956521,-0.05418570176121229
-0.005521226086956522,-0.08031906661828309
-0.005520886086956522,-0.1123439583134672
-0.005520546086956522,-0.1434801839492216
-0.005520206086956522,-0.1739910519877526
-0.005519866086956522,-0.2037778217556268
-0.005519526086956522,-0.2272781019923378
-0.005519186086956522,-0.2430436961568135
-0.005518846086956522,-0.2551229718527359
-0.005518506086956522,-0.2620019054234258
-0.005518166086956522,-0.263515929080148
-0.005517826086956522,-0.265819878122967
-0.005517486086956522,-0.2599612648426665
-0.005517146086956522,-0.2484744331863154
-0.005516806086956522,-0.2435703130808864
-0.005516466086956522,-0.2351444422957351
-0.005516126086956522,-0.2291212612266358
-0.005515786086956522,-0.2234272157350974
-0.005515446086956522,-0.2145076415836287
-0.005515106086956521,-0.2058842894519185
-0.005514766086956522,-0.196701406838397
-0.005514426086956522,-0.1912377562511505
-0.005514086086956521,-0.1839309464296289
-0.005513746086956522,-0.1782369009380905
-0.005513406086956522,-0.1735302621791974
-0.005513066086956521,-0.1666842421662409
-0.005512726086956522,-0.1618788627340756
-0.005512386086956522,-0.15894955609392
-0.005512046086956521,-0.1532884241601362
-0.005511706086956522,-0.1469690210712613
-0.005511366086956522,-0.1419990738503231
-0.005511026086956521,-0.1366670774940849
-0.005510686086956522,-0.1307755506560191
-0.005510346086956522,-0.1267600966099632
-0.005510006086956521,-0.1215597544847432
-0.005509666086956522,-0.1153390920691319
-0.005509326086956522,-0.1127718345642764
-0.005508986086956521,-0.1104349719636928
-0.005508646086956522,-0.1049054942609373
-0.005508306086956522,-0.101581224927727
-0.005507966086956521,-0.09921144876939254
-0.005507626086956522,-0.09572261164741583
-0.005507286086956522,-0.09522890828109745
-0.005506946086956521,-0.08953486278954446
-0.005506606086956522,-0.08150395469744715
-0.005506266086956522,-0.07781763622893675
-0.005505926086956521,-0.07492124314653627
-0.005505586086956522,-0.07521746516632674
-0.005505246086956522,-0.07340721948982609
-0.005504906086956521,-0.06830561803786675
-0.005504566086956522,-0.0666599401501419
-0.005504226086956522,-0.06330275725917708
-0.005503886086956521,-0.06287488100836358
-0.005503546086956522,-0.06053801840779428
-0.005503206086956522,-0.05984683369494857
-0.005502866086956521,-0.05932021677086992
-0.005502526086956522,-0.05616051522643818
-0.005502186086956522,-0.05356034416382817
-0.005501846086956521,-0.05257293743118888
-0.005501506086956522,-0.0511576544477455
-0.005501166086956522,-0.04710928684393498
-0.005500826086956521,-0.04701054617066718
-0.005500486086956522,-0.04473951068560687
-0.005500146086956522,-0.04273178366257888
-0.005499806086956522,-0.04082279731281804
-0.005499466086956522,-0.03927586009835039
-0.005499126086956522,-0.03769600932613165
-0.005498786086956522,-0.03601741788065228
-0.005498446086956522,-0.03651112124696759
-0.005498106086956522,-0.03614907211166746
-0.005497766086956522,-0.03591867720738597
-0.005497426086956522,-0.03651112124696759
-0.005497086086956522,-0.03641238057370391
-0.005496746086956522,-0.0389467245208002
-0.005496406086956522,-0.03568828230310366
-0.005496066086956522,-0.03167282825704769
-0.005495726086956522,-0.02854604027037045
-0.005495386086956522,-0.02762446065323717
-0.005495046086956522,-0.03022463171584718
-0.005494706086956522,-0.02308238968312128
-0.005494366086956522,-0.02795359623078274
-0.005494026086956522,-0.02834855892383742
-0.005493686086956522,-0.027459892864466
-0.005493346086956521,-0.02643957257407311
-0.005493006086956522,-0.0252217709371545
-0.005492666086956522,-0.02255577275904022
-0.005492326086956521,-0.02212789650822613
-0.005491986086956522,-0.02074552708253473
-0.005491646086956522,-0.01926441698358235
-0.005491306086956521,-0.01916567631031599
-0.005490966086956522,-0.01979103390765257
-0.005490626086956522,-0.01742125774932446
-0.005490286086956521,-0.01692755438300611
-0.005489946086956522,-0.01771747976911548
-0.005489606086956522,-0.01765165265360636
-0.005489266086956521,-0.01722377640279712
-0.005488926086956522,-0.01916567631031599
-0.005488586086956522,-0.01998851525417992
-0.005488246086956521,-0.02025182371622129
-0.005487906086956522,-0.02295073545209006
-0.005487566086956522,-0.02081135419804385
-0.005487226086956521,-0.01942898477235329
-0.005486886086956522,-0.01988977458091625
-0.005486546086956522,-0.02344443881840842
-0.005486206086956521,-0.01867197294398033
-0.005485866086956522,-0.009159954752930631
-0.005485526086956522,-0.01241839697063178
-0.005485186086956521,-0.01468943245569449
-0.005484846086956522,-0.01373493928081407
-0.005484506086956522,-0.01218800206634988
-0.005484166086956521,-0.01294501389470733
-0.005483826086956522,-0.01439321043590521
-0.005483486086956522,-0.0143273833203961
-0.005483146086956521,-0.01383367995407576
-0.005482806086956522,-0.01274753254817735
-0.005482466086956522,-0.01373493928081407
-0.005482126086956521,-0.01278044610593251
-0.005481786086956522,-0.01310958168347748
-0.005481446086956522,-0.01360328504979584
-0.005481106086956521,-0.0140311613006058
-0.005480766086956522,-0.01442612399365977
-0.005480426086956522,-0.01547935784180559
-0.005480086086956521,-0.01505148159099426
-0.005479746086956522,-0.01389950706958685
-0.005479406086956522,-0.01554518495731471
-0.005479066086956522,-0.01538061716854222
-0.005478726086956522,-0.0131754087989866
-0.005478386086956522,-0.01330706303000483
-0.005478046086956522,-0.01251713764389689
-0.005477706086956522,-0.01083854619841304
-0.005477366086956522,-0.0104106699476038
-0.005477026086956522,-0.01004862081230433
-0.005476686086956522,-0.005704031188702134
-0.005476346086956522,-0.007316795518675433
-0.005476006086956522,-0.01050941062086166
-0.005475666086956522,-0.005638204073193019
-0.005475326086956522,-0.008271288693557588
-0.005474986086956522,-0.008797905617629545
-0.005474646086956522,-0.01215508850859533
-0.005474306086956522,-0.01732251707606079
-0.005473966086956522,-0.01584140697710842
-0.005473626086956522,-0.0131754087989866
-0.005473286086956522,-0.01439321043590521
-0.005472946086956522,-0.01475525957120468
-0.005472606086956521,-0.01261587831715913
-0.005472266086956522,-0.01021318860107646
-0.005471926086956522,-0.01031192927433995
-0.005471586086956521,-0.008764992059875945
-0.005471246086956522,-0.00688891926786619
-0.005470906086956522,-0.00748136330744714
-0.005470566086956521,-0.006493956574811504
-0.005470226086956522,-0.004815365129329092
-0.005469886086956522,-0.004848278687083649
-0.005469546086956521,-0.005210327822383777
-0.005469206086956522,-0.003630477050165036
-0.005468866086956522,-0.004979932918101878
-0.005468526086956521,-0.005835685419720362
-0.005468186086956522,-0.004650797340556306
-0.005467846086956522,-0.005835685419720362
-0.005467506086956521,-0.004749538013819977
-0.005467166086956522,-0.003465909261392251
-0.005466826086956522,-0.003564649934655922
-0.005466486086956521,-0.005309068495647628
-0.005466146086956522,-0.00540780916891112
-0.005465806086956522,-0.009225781868439744
-0.005465466086956521,-0.01459069178242058
-0.005465126086956522,-0.008007980231521132
-0.005464786086956522,-0.007942153116012016
-0.005464446086956521,-0.01014736148557363
-0.005464106086956522,-0.01360328504979584
-0.005463766086956522,-0.0115626444690133
-0.005463426086956521,-0.009127041195176672
-0.005463086086956522,-0.009456176772721644
-0.005462746086956522,-0.008764992059875945
-0.005462406086956521,-0.009094127637422773
-0.005462066086956522,-0.009785312350267215
-0.005461726086956522,-0.003498822819146808
-0.005461386086956521,-0.007942153116018782
-0.005461046086956522,-0.01166138514227697
-0.005460706086956522,-0.006823092152357076
-0.005460366086956521,-0.007349709076432983
-0.005460026086956522,-0.008995386964157845
-0.005459686086956522,-0.008040893789275689
-0.005459346086956521,-0.01116768177595245
-0.005459006086956522,-0.007777585327239231
-0.005458666086956522,-0.004914105802592763
-0.005458326086956521,-0.01192469360431995
-0.005457986086956522,-0.01551227139956015
-0.005457646086956522,-0.01021318860107646
-0.005457306086956522,-0.01004862081230397
-0.005456966086956522,-0.01205634783533165
-0.005456626086956522,-0.009851139465776329
-0.005456286086956522,-0.008830819175386915
-0.005455946086956522,-0.01070689196739481
-0.005455606086956522,-0.01097020042943127
-0.005455266086956522,-0.008567510713352974
-0.005454926086956522,-0.009258695426194301
-0.005454586086956522,-0.008238375135803031
-0.005454246086956522,-0.007152227729904623
-0.005453906086956522,-0.006987659941129861
-0.005453566086956522,-0.005473636284420234
-0.005453226086956522,-0.00372921772343188
-0.005452886086956522,-0.00392669906995605
-0.005452546086956522,-0.004683710898310864
-0.005452206086956522,-0.003432995703639969
-0.005451866086956522,-0.004650797340556306
-0.005451526086956522,-0.00688891926786619
-0.005451186086956522,-0.006658524363584709
-0.005450846086956521,-0.002215194066719081
-0.005450506086956522,-0.01034484283209469
-0.005450166086956522,-0.0113322495647296
-0.005449826086956521,-0.01284627322144103
-0.005449486086956522,-0.01817826957767928
-0.005449146086956522,-0.01050941062088142
-0.005448806086956521,-0.009851139465776329
-0.005448466086956522,-0.008238375135803031
-0.005448126086956522,-0.007942153116012016
-0.005447786086956521,-0.01222091562410444
-0.005447446086956522,-0.01284627322144103
-0.005447106086956522,-0.01073980552514937
-0.005446766086956521,-0.01103602754494038
-0.005446426086956522,-0.01468943245569622
-0.005446086086956522,-0.01343871726102305
-0.005445746086956521,-0.01152973091125958
-0.005445406086956522,-0.01199052071982254
-0.005445066086956522,-0.0131754087989866
-0.005444726086956521,-0.01001570725455187
-0.005444386086956522,-0.01152973091125874
-0.005444046086956522,-0.01268170543266824
-0.005443706086956521,-0.009982793696795635
-0.005443366086956522,-0.01057523773637659
-0.005443026086956522,-0.01077271908290393
-0.005442686086956521,-0.01067397840963966
-0.005442346086956522,-0.01034484283209469
-0.005442006086956522,-0.01100311398718583
-0.005441666086956521,-0.008534597155591711
-0.005441326086956522,-0.007250968403166318
-0.005440986086956522,-0.009061214079666959
-0.005440646086956521,-0.006954746383374646
-0.005440306086956522,-0.006592697248075176
-0.005439966086956522,-0.007876326000502903
-0.005439626086956521,-0.009587831003741609
-0.005439286086956522,-0.01054232417862203
-0.005438946086956522,-0.01376785283856862
-0.005438606086956521,-0.006493956574811265
-0.005438266086956522,-0.006362302343793276
-0.005437926086956522,-0.008402942924575817
-0.005437586086956521,-0.009192868310692732
-0.005437246086956522,-0.01333997658775938
-0.005436906086956522,-0.01343871726102305
-0.005436566086956522,-0.01304375456796909
-0.005436226086956522,-0.01073980552514937
-0.005435886086956522,-0.01080563264065849
-0.005435546086956522,-0.009489090330478595
-0.005435206086956522,-0.007876326000502903
-0.005434866086956522,-0.007547190422957332
-0.005434526086956522,-0.00662561080583141
-0.005434186086956522,-0.005144500706874663
-0.005433846086956522,-0.005506549842174791
-0.005433506086956522,-0.007678844653971608
-0.005433166086956522,-0.00665852436358429
-0.005432826086956522,-0.005835685419720362
-0.005432486086956522,-0.006263561670528827
-0.005432146086956522,-0.005967339650738591
-0.005431806086956522,-0.005802771861965805
-0.005431466086956522,-0.006724351479091728
-0.005431126086956522,-0.005901512535229476
-0.005430786086956522,-0.005967339650738591
-0.005430446086956522,-0.007349709076427475
-0.005430106086956521,-0.007415536191939104
-0.005429766086956522,-0.007316795518675433
-0.005429426086956522,-0.00639521590154951
-0.005429086086956521,-0.00688891926786619
-0.005428746086956522,-0.01054232417862203
-0.005428406086956522,-0.006625610805836858
-0.005428066086956521,-0.004914105802592763
-0.005427726086956522,-0.004091266858728836
-0.005427386086956522,-0.006329388786038719
-0.005427046086956521,-0.01185886648880431
-0.005426706086956522,-0.0106410648518857
-0.005426366086956522,-0.00860042427110316
-0.005426026086956521,-0.01024610215883101
-0.005425686086956522,-0.009225781868439744
-0.005425346086956522,-0.008534597155594046
-0.005425006086956521,-0.00860042427110316
-0.005424666086956522,-0.007876326000502903
-0.005424326086956522,-0.008139634462539359
-0.005423986086956521,-0.009258695426193043
-0.005423646086956522,-0.008567510713348603
-0.005423306086956522,-0.007613017538466446
-0.005422966086956521,-0.009423263214963734
-0.005422626086956522,-0.007580103980711889
-0.005422286086956522,-0.006066080324002262
-0.005421946086956521,-0.007053487056638197
-0.005421606086956522,-0.006625610805829733
-0.005421266086956522,-0.006856005710111633
-0.005420926086956521,-0.007777585327240249
-0.005420586086956522,-0.008337115809066702
-0.005420246086956522,-0.007975066673766575
-0.005419906086956521,-0.007382622634185983
-0.005419566086956522,-0.008172548020293918
-0.005419226086956522,-0.005835685419720362
-0.005418886086956521,-0.006263561670532598
-0.005418546086956522,-0.00790923955825746
-0.005418206086956522,-0.01014736148556734
-0.005417866086956521,-0.006329388786035905
-0.005417526086956522,-0.004782451571574535
