Analysis/files/cmb03_d2s01/wrd09_ch39.csv

#Digilent WaveForms Oscilloscope Acquisition
#Device Name: ADP3450
#Serial Number: SN:210018B9D9B0
#Date Time: 2024-08-09 13:21:31.504.807.390
#Sample rate: 2.94118e+06Hz
#Samples: 32768
#Trigger: Source: Channel 3 Type: Edge Condition: Rising Level: 20 mV Hyst.: Auto HoldOff: 0 s
#Channel 3: Range: 200 mV/div Offset: 0 V Attenuation: 1 X Coupling: DC Bandwidth: 0 Hz Sample Mode: Average

Time (s),Channel 3 (V)
-0.005570421359223301,0.01220094422977693
-0.005570081359223301,0.01325417807791845
-0.005569741359223301,0.01088440191959465
-0.005569401359223301,0.01039069855327629
-0.005569061359223301,0.009469118936165455
-0.005568721359223301,0.01868491510742468
-0.005568381359223301,0.01266173403834073
-0.005568041359223301,0.004104209022156602
-0.005567701359223301,0.004499171715210569
-0.005567361359223301,0.005947368256411082
-0.005567021359223301,0.004334603926433473
-0.005566681359223301,0.001964827768109672
-0.005566341359223301,0.001668605748318658
-0.005566001359223301,0.001010334593228773
-0.005565661359223301,0.001701519306073215
-0.005565321359223301,0.0008786803622092876
-0.005564981359223301,0.0007799396889494478
-0.005564641359223301,0.002886407385237271
-0.005564301359223301,0.0027876667119736
-0.0055639613592233,0.002721839596466641
-0.005563621359223301,0.003906727675628541
-0.005563281359223301,0.003314283636046514
-0.005562941359223301,0.003413024309310005
-0.005562601359223301,0.004433344599701455
-0.005562261359223301,0.002721839596464486
-0.005561921359223301,0.0009115939199671374
-0.005561581359223301,0.002458531134428029
-0.005561241359223301,0.002820580269728157
-0.005560901359223301,0.0006482854579313393
-0.005560561359223301,-0.0004049483902184396
-0.005560221359223301,-0.002116453393455409
-0.005559881359223301,-0.00389378551219826
-0.005559541359223301,-0.006625610805829733
-0.005559201359223301,-0.00962074456149443
-0.005558861359223301,-0.004025439743229899
-0.005558521359223301,-0.007580103980711889
-0.005558181359223301,-0.004222921089747064
-0.005557841359223301,-0.00224810762447723
-0.005557501359223301,-0.008106720904784802
-0.005557161359223301,-0.007316795518675433
-0.005556821359223301,-0.004387488878525178
-0.005556481359223301,-0.005835685419720362
-0.005556141359223301,-0.006856005710111633
-0.005555801359223301,-0.007645931096219566
-0.005555461359223301,-0.006164820997265934
-0.005555121359223301,-0.00517741426462922
-0.005554781359223301,-0.006526870132563607
-0.005554441359223301,-0.007580103980711889
-0.005554101359223301,-0.005374895611156563
-0.005553761359223301,-0.00494701936034732
-0.005553421359223301,-0.005736944746456691
-0.005553081359223301,-0.00438748887851985
-0.005552741359223301,-0.004354575320765292
-0.005552401359223301,-0.003498822819146808
-0.005552061359223301,-0.001853144931418952
-0.005551721359223301,-0.002643070317528323
-0.005551381359223301,-0.003992526185463968
-0.005551041359223301,-0.003334255030374022
-0.005550701359223301,-0.00336716858812858
-0.005550361359223301,-0.005309068495646491
-0.005550021359223301,-0.004782451571574535
-0.005549681359223301,-0.004683710898310864
-0.005549341359223301,-0.004552056667291677
-0.005549001359223301,-0.004025439743219721
-0.005548661359223301,-0.007942153116012016
-0.005548321359223301,-0.001524009353877453
-0.005547981359223301,-0.003762131281183265
-0.005547641359223301,-0.004058353300974278
-0.005547301359223301,-0.001853144931430208
-0.005546961359223301,-0.008040893789275689
-0.005546621359223301,-0.01208926139308621
-0.005546281359223301,-0.00994988013904066
-0.005545941359223301,-0.01031192927434013
-0.005545601359223301,-0.01120059533371317
-0.005545261359223301,-0.01136516312248494
-0.005544921359223301,-0.01080563264065849
-0.005544581359223301,-0.007810498884993789
-0.005544241359223301,-0.007448449749691685
-0.005543901359223301,-0.006362302343793276
-0.005543561359223301,-0.005111587149120106
-0.0055432213592233,-0.003630477050167192
-0.005542881359223301,-0.004815365129329092
-0.005542541359223301,-0.003795044838937822
-0.005542201359223301,-0.003432995703638352
-0.005541861359223301,-0.005078673591365549
-0.005541521359223301,-0.004420402436274407
-0.005541181359223301,-0.005638204073190804
-0.005540841359223301,-0.00711931417214809
-0.005540501359223301,-0.00711931417214809
-0.005540161359223301,-0.006691437921339625
-0.005539821359223301,-0.007250968403166318
-0.005539481359223301,-0.006987659941129861
-0.005539141359223301,-0.005309068495650502
-0.005538801359223301,-0.006823092152357076
-0.005538461359223301,-0.009225781868439744
-0.005538121359223301,-0.01083854619841011
-0.005537781359223301,-0.00415709397423795
-0.005537441359223301,-0.009258695426194301
-0.005537101359223301,-0.007744671769487428
-0.005536761359223301,-0.004782451571574535
-0.005536421359223301,-0.01113476821820406
-0.005536081359223301,-0.01199052071982099
-0.005535741359223301,-0.008205461578048474
-0.005535401359223301,-0.007448449749693661
-0.005535061359223301,-0.007843412442747628
-0.005534721359223301,-0.006164820997265934
-0.005534381359223301,-0.006823092152357076
-0.005534041359223301,-0.004519143109542269
-0.005533701359223301,-0.005638204073193019
-0.005533361359223301,-0.005210327822383777
-0.005533021359223301,-0.005309068495647449
-0.005532681359223301,-0.005045760033610991
-0.005532341359223301,-0.006625610805829733
-0.005532001359223301,-0.007086400614393532
-0.005531661359223301,-0.006033166766247705
-0.005531321359223301,-0.008962473406403288
-0.005530981359223301,-0.009554917445985316
-0.005530641359223301,-0.009456176772721644
-0.005530301359223301,-0.00962074456149443
-0.005529961359223301,-0.009028300521912402
-0.005529621359223301,-0.007514276865203852
-0.005529281359223301,-0.008106720904784802
-0.005528941359223301,-0.01057523773637659
-0.005528601359223301,-0.008732078502124083
-0.005528261359223301,-0.01021318860107646
-0.005527921359223301,-0.01222091562410444
-0.005527581359223301,-0.01439321043589072
-0.005527241359223301,-0.006428129459302391
-0.005526901359223301,-0.005309068495647449
-0.005526561359223301,-0.006362302343783637
-0.005526221359223301,-0.001063219545309582
-0.005525881359223301,-0.002741810990791994
-0.005525541359223301,-0.006658524363585308
-0.005525201359223301,-0.007218054845411761
-0.005524861359223301,-0.007711758211730118
-0.005524521359223301,-0.009719485234756785
-0.005524181359223301,-0.008995386964157845
-0.005523841359223301,-0.009456176772721644
-0.005523501359223301,-0.00906121407966618
-0.005523161359223301,-0.008633337828857716
-0.005522821359223301,-0.01103602754494038
-0.005522481359223301,-0.01547935784182014
-0.005522141359223301,-0.02347735237616297
-0.005521801359223301,-0.0391112923095776
-0.0055214613592233,-0.06004431504151963
-0.005521121359223301,-0.0840712122023026
-0.005520781359223301,-0.1147466480295498
-0.005520441359223301,-0.1446321584706333
-0.005520101359223301,-0.174780977373862
-0.005519761359223301,-0.2031195506005357
-0.005519421359223301,-0.2272451884345821
-0.005519081359223301,-0.2454463858728961
-0.005518741359223301,-0.2590725987832828
-0.005518401359223301,-0.267432642452925
-0.005518061359223301,-0.2685187898588406
-0.005517721359223301,-0.2695720237069865
-0.005517381359223301,-0.2681238271657886
-0.005517041359223301,-0.266116100142758
-0.005516701359223301,-0.2563736870474091
-0.005516361359223301,-0.2459400892392334
-0.005516021359223301,-0.2436032266386409
-0.005515681359223301,-0.2313593831539457
-0.005515341359223301,-0.2233613886196028
-0.005515001359223301,-0.2203991684216781
-0.005514661359223301,-0.2110517180193839
-0.005514321359223301,-0.2010459964620168
-0.005513981359223301,-0.1931467426009049
-0.005513641359223301,-0.1852474887398112
-0.005513301359223301,-0.1780065060338218
-0.005512961359223301,-0.1732669537171524
-0.005512621359223301,-0.1673425133213321
-0.005512281359223301,-0.1624054796581485
-0.005511941359223301,-0.1586862476318836
-0.005511601359223301,-0.1536504732954364
-0.005511261359223301,-0.1492071429985711
-0.005510921359223301,-0.1437434924113146
-0.005510581359223301,-0.136732904609594
-0.005510241359223301,-0.1316642167153922
-0.005509901359223301,-0.1278791575736181
-0.005509561359223301,-0.1214281002537249
-0.005509221359223301,-0.1164581530327868
-0.005508881359223301,-0.1142529446632239
-0.005508541359223301,-0.1100729228284027
-0.005508201359223301,-0.1053991976272556
-0.005507861359223301,-0.1031610756999388
-0.005507521359223301,-0.0993431030004171
-0.005507181359223301,-0.09592009299394316
-0.005506841359223301,-0.09513016760783655
-0.005506501359223301,-0.09664419126454343
-0.005506161359223301,-0.08693469172694906
-0.005505821359223301,-0.08259010210335076
-0.005505481359223301,-0.08436743422209361
-0.005505141359223301,-0.0764023532454908
-0.005504801359223301,-0.07399966352941471
-0.005504461359223301,-0.07762015488240942
-0.005504121359223301,-0.07199193650638014
-0.005503781359223301,-0.06804230957583197
-0.005503441359223301,-0.06731821130523305
-0.005503101359223301,-0.06452055889609568
-0.005502761359223301,-0.06195330139123825
-0.005502421359223301,-0.06086715398533984
-0.005502081359223301,-0.05895816763557554
-0.005501741359223301,-0.05418570176116355
-0.005501401359223301,-0.05352743060607361
-0.005501061359223301,-0.05053229685040891
-0.0055007213592233,-0.04888661896267938
-0.005500381359223301,-0.04796503934555346
-0.005500041359223301,-0.04464077001234319
-0.005499701359223301,-0.04408123953051674
-0.005499361359223301,-0.04362044972195192
-0.005499021359223301,-0.04240264808503331
-0.005498681359223301,-0.03980247702242803
-0.005498341359223301,-0.04019743971547798
-0.005498001359223301,-0.0393416872138595
-0.005497661359223301,-0.03789349067266162
-0.005497321359223301,-0.0377289228838862
-0.005496981359223301,-0.03716939240205873
-0.005496641359223301,-0.03693899749777724
-0.005496301359223301,-0.03720230595981328
-0.005495961359223301,-0.03930877365610494
-0.005495621359223301,-0.03957208211814092
-0.005495281359223301,-0.03065250796665642
-0.005494941359223301,-0.03410843153088492
-0.005494601359223301,-0.0307841621976807
-0.005494261359223301,-0.0249913760328726
-0.005493921359223301,-0.02927013854096502
-0.005493581359223301,-0.03012589104258195
-0.005493241359223301,-0.02485972180185437
-0.005492901359223301,-0.02505720314838171
-0.005492561359223301,-0.02443184555104626
-0.005492221359223301,-0.02285199477882639
-0.005491881359223301,-0.02311530324086284
-0.005491541359223301,-0.02183167448843745
-0.005491201359223301,-0.02189750160394423
-0.005490861359223301,-0.02202915583496246
-0.005490521359223301,-0.02150253891088955
-0.005490181359223301,-0.02127214400660764
-0.005489841359223301,-0.0215354524686441
-0.005489501359223301,-0.02002142881193448
-0.005489161359223301,-0.01880362717501586
-0.005488821359223301,-0.01844157803971573
-0.005488481359223301,-0.01863905938624308
-0.005488141359223301,-0.01745417130708154
-0.005487801359223301,-0.01883654073277042
-0.005487461359223301,-0.01962646611887979
-0.005487121359223301,-0.01880362717501574
-0.005486781359223301,-0.01873780005950675
-0.005486441359223301,-0.01942898477235245
-0.005486101359223301,-0.02081135419803912
-0.005485761359223301,-0.01821118313543383
-0.005485421359223301,-0.02206206939271702
-0.005485081359223301,-0.02232537785473964
-0.005484741359223301,-0.01472234601345078
-0.005484401359223301,-0.01863905938624308
-0.005484061359223301,-0.01570975274608013
-0.005483721359223301,-0.01166138514227697
-0.005483381359223301,-0.01735543063381535
-0.005483041359223301,-0.01896819496376913
-0.005482701359223301,-0.008238375135803031
-0.005482361359223301,-0.01258296475940457
-0.005482021359223301,-0.01570975274608468
-0.005481681359223301,-0.01416281553162331
-0.005481341359223301,-0.01478817312895989
-0.005481001359223301,-0.01505148159099815
-0.005480661359223301,-0.01603888832363307
-0.005480321359223301,-0.01495274091773268
-0.0054799813592233,-0.01623636967015699
-0.005479641359223301,-0.01436029687815065
-0.005479301359223301,-0.01383367995407774
-0.005478961359223301,-0.01301084101021531
-0.005478621359223301,-0.01159555802676786
-0.005478281359223301,-0.01093728687167671
-0.005477941359223301,-0.01024610215883227
-0.005477601359223301,-0.009949880139040001
-0.005477261359223301,-0.01021318860107646
-0.005476921359223301,-0.01241839697062777
-0.005476581359223301,-0.01136516312248596
-0.005476241359223301,-0.01176012581554064
-0.005475901359223301,-0.01380076639631947
-0.005475561359223301,-0.0124842240861409
-0.005475221359223301,-0.01044358350535836
-0.005474881359223301,-0.01281335966368216
-0.005474541359223301,-0.01669715947872421
-0.005474201359223301,-0.008732078502121389
-0.005473861359223301,-0.009258695426193344
-0.005473521359223301,-0.009785312350267215
-0.005473181359223301,-0.003070946568337565
-0.005472841359223301,-0.008435856482320616
-0.005472501359223301,-0.01255005120165001
-0.005472161359223301,-0.007415536191939104
-0.005471821359223301,-0.007744671769484076
-0.005471481359223301,-0.01189178004655887
-0.005471141359223301,-0.01268170543266824
-0.005470801359223301,-0.01212217495084179
-0.005470461359223301,-0.01241839697063178
-0.005470121359223301,-0.01192469360431343
-0.005469781359223301,-0.01245131052838634
-0.005469441359223301,-0.01192469360431343
-0.005469101359223301,-0.008995386964157845
-0.005468761359223301,-0.008205461578048474
-0.005468421359223301,-0.008929559848648731
-0.005468081359223301,-0.007185141287657204
-0.005467741359223301,-0.005934426092984033
-0.005467401359223301,-0.006329388786038719
-0.005467061359223301,-0.008073807347030245
-0.005466721359223301,-0.008205461578048474
-0.005466381359223301,-0.01034484283209517
-0.005466041359223301,-0.01060815129413114
-0.005465701359223301,-0.01103602754494038
-0.005465361359223301,-0.01268170543266686
-0.005465021359223301,-0.01192469360431343
-0.005464681359223301,-0.009949880139040001
-0.005464341359223301,-0.01189178004656336
-0.005464001359223301,-0.01436029687815065
-0.005463661359223301,-0.004519143109538078
-0.005463321359223301,-0.003926699069965091
-0.005462981359223301,-0.008896646290894173
-0.005462641359223301,-0.00790923955825746
-0.005462301359223301,-0.006790178594608086
-0.005461961359223301,-0.009851139465776329
-0.005461621359223301,-0.009423263214967087
-0.005461281359223301,-0.008007980231524724
-0.005460941359223301,-0.009982793696794558
-0.005460601359223301,-0.008896646290894173
-0.005460261359223301,-0.007481363307448577
-0.005459921359223301,-0.00767884465397556
-0.005459581359223301,-0.006592697248075176
-0.005459241359223301,-0.006658524363585427
-0.005458901359223301,-0.007283881960920875
-0.005458561359223301,-0.006098993881756819
-0.0054582213592233,-0.008567510713344172
-0.005457881359223301,-0.006131907439511376
-0.005457541359223301,-0.008007980231521132
-0.005457201359223301,-0.005309068495652358
-0.005456861359223301,-0.00517741426462922
-0.005456521359223301,-0.01067397840964026
-0.005456181359223301,-0.009916966581286822
-0.005455841359223301,-0.007481363307448217
-0.005455501359223301,-0.00790923955825746
-0.005455161359223301,-0.008007980231520951
-0.005454821359223301,-0.008172548020293918
-0.005454481359223301,-0.008764992059875945
-0.005454141359223301,-0.006131907439516165
-0.005453801359223301,-0.006296475228284162
-0.005453461359223301,-0.008238375135803031
-0.005453121359223301,-0.008106720904785042
-0.005452781359223301,-0.008764992059875945
-0.005452441359223301,-0.01126642244922228
-0.005452101359223301,-0.01126642244922228
-0.005451761359223301,-0.0113322495647314
-0.005451421359223301,-0.01199052071982254
-0.005451081359223301,-0.00998279369679821
-0.005450741359223301,-0.008732078502121389
-0.005450401359223301,-0.009949880139040001
-0.005450061359223301,-0.009456176772722542
-0.005449721359223301,-0.007152227729902647
-0.005449381359223301,-0.007514276865202775
-0.005449041359223301,-0.008073807347029227
-0.005448701359223301,-0.007086400614393532
-0.005448361359223301,-0.007810498884993789
-0.005448021359223301,-0.008830819175385059
-0.005447681359223301,-0.0108714597561676
-0.005447341359223301,-0.004255834647501621
-0.005447001359223301,-0.009785312350267215
-0.005446661359223301,-0.007580103980711889
-0.005446321359223301,-0.00540780916891112
-0.005445981359223301,-0.01192469360431343
-0.005445641359223301,-0.01343871726101611
-0.005445301359223301,-0.00962074456149443
-0.005444961359223301,-0.008007980231521132
-0.005444621359223301,-0.008271288693555612
-0.005444281359223301,-0.007185141287657204
-0.005443941359223301,-0.008534597155594046
-0.005443601359223301,-0.007547190422956793
-0.005443261359223301,-0.007250968403166318
-0.005442921359223301,-0.0115626444690133
-0.005442581359223301,-0.01093728687167378
-0.005442241359223301,-0.009324522541703417
-0.005441901359223301,-0.01001570725454911
-0.005441561359223301,-0.009258695426191487
-0.005441221359223301,-0.007711758211730118
-0.005440881359223301,-0.008337115809066702
-0.005440541359223301,-0.007514276865201218
-0.005440201359223301,-0.00665852436358429
-0.005439861359223301,-0.00438748887851985
-0.005439521359223301,-0.005012846475860267
-0.005439181359223301,-0.00711931417214809
-0.005438841359223301,-0.00767884465397556
-0.005438501359223301,-0.009554917445982023
-0.005438161359223301,-0.007744671769484675
-0.005437821359223301,-0.008205461578048474
-0.0054374813592233,-0.01008153437006386
-0.005437141359223301,-0.0131754087989866
-0.005436801359223301,-0.005473636284420234
-0.005436461359223301,-0.008271288693552498
-0.005436121359223301,-0.007283881960920875
-0.005435781359223301,-0.002248107624473638
-0.005435441359223301,-0.006625610805821771
-0.005435101359223301,-0.008830819175385059
-0.005434761359223301,-0.005506549842174791
-0.005434421359223301,-0.004617883782803366
-0.005434081359223301,-0.007152227729902647
-0.005433741359223301,-0.006395215901547833
-0.005433401359223301,-0.008435856482326662
-0.005433061359223301,-0.008501683597839487
-0.005432721359223301,-0.006592697248075176
-0.005432381359223301,-0.007415536191937607
-0.005432041359223301,-0.006428129459302391
-0.005431701359223301,-0.006033166766247705
-0.005431361359223301,-0.007053487056637119
-0.005431021359223301,-0.007316795518675433
-0.005430681359223301,-0.005309068495647449
-0.005430341359223301,-0.005572376957683427
-0.005430001359223301,-0.007777585327239231
-0.005429661359223301,-0.007415536191939104
-0.005429321359223301,-0.006888919267867147
-0.005428981359223301,-0.007448449749693661
-0.005428641359223301,-0.007711758211730118
-0.005428301359223301,-0.008534597155592549
-0.005427961359223301,-0.009324522541703417
-0.005427621359223301,-0.008106720904784802
-0.005427281359223301,-0.00711931417214809
-0.005426941359223301,-0.01083854619841304
-0.005426601359223301,-0.01429446976264154
-0.005426261359223301,-0.006098993881756819
-0.005425921359223301,-0.006066080324002262
-0.005425581359223301,-0.00767884465397556
-0.005425241359223301,-0.002939292337319337
-0.005424901359223301,-0.008534597155594046
-0.005424561359223301,-0.01208926139308621
-0.005424221359223301,-0.008567510713348603
-0.005423881359223301,-0.01050941062087172
-0.005423541359223301,-0.01284627322144103
-0.005423201359223301,-0.01054232417862203
-0.005422861359223301,-0.0103448428320963
-0.005422521359223301,-0.01123350889146773
-0.005422181359223301,-0.01073980552514937
-0.005421841359223301,-0.01126642244922312
-0.005421501359223301,-0.01172721225778608
-0.005421161359223301,-0.01136516312248596
-0.005420821359223301,-0.01123350889146928
-0.005420481359223301,-0.01208926139308621
-0.005420141359223301,-0.009884053023530886
-0.005419801359223301,-0.009258695426197056
-0.005419461359223301,-0.01077271908290393
-0.005419121359223301,-0.008468770040084931
-0.005418781359223301,-0.008435856482331153
-0.005418441359223301,-0.008863732733139616
-0.005418101359223301,-0.008073807347030245
-0.005417761359223301,-0.008205461578049312
-0.005417421359223301,-0.008666251386612273
-0.005417081359223301,-0.008172548020293918
