Analysis/files/cmb03_d2s01/wrd05_ch09.csv

#Digilent WaveForms Oscilloscope Acquisition
#Device Name: ADP3450
#Serial Number: SN:210018B9D9B0
#Date Time: 2024-08-09 15:39:58.352.107.380
#Sample rate: 2.94118e+06Hz
#Samples: 32768
#Trigger: Source: Channel 3 Type: Edge Condition: Rising Level: 20 mV Hyst.: Auto HoldOff: 0 s
#Channel 3: Range: 200 mV/div Offset: 0 V Attenuation: 1 X Coupling: DC Bandwidth: 0 Hz Sample Mode: Average

Time (s),Channel 3 (V)
-0.005570484714285714,0.007625959701893495
-0.005570144714285714,0.006605639411499291
-0.005569804714285714,0.004992875081528926
-0.005569464714285714,0.007461391913120709
-0.005569124714285714,0.007296824124344271
-0.005568784714285714,0.00528909710131994
-0.005568444714285714,0.004729566619492469
-0.005568104714285714,0.0007799396889553748
-0.005567764714285714,0.006144849602938425
-0.005567424714285714,0.00779052749066628
-0.005567084714285714,0.007691786817401412
-0.005566744714285714,0.007033515662311467
-0.005566404714285714,0.001833173537091444
-0.005566064714285714,0.004005468348891495
-0.005565724714285714,0.003610505655837527
-0.005565384714285714,0.002063568441373343
-0.005565044714285714,0.001635692190563742
-0.005564704714285714,0.001438210844036758
-0.005564364714285714,0.00130655661301853
-0.005564024714285714,0.000714112573434646
-0.005563684714285714,-0.0003062077169547683
-0.005563344714285714,-0.001063219545309582
-0.005563004714285715,-0.0009315653142915928
-0.005562664714285714,-0.00267598387528288
-0.005562324714285714,-0.004650797340556306
-0.005561984714285715,-0.003202600799358428
-0.005561644714285714,-0.003663390607919593
-0.005561304714285714,-0.004881192244838206
-0.005560964714285715,-0.005045760033610692
-0.005560624714285714,-0.004782451571574535
-0.005560284714285714,-0.003992526185465165
-0.005559944714285715,-0.002774724548548766
-0.005559604714285714,-0.002972205895073894
-0.005559264714285714,-0.004288748205256179
-0.005558924714285715,-0.003926699069956708
-0.005558584714285714,-0.002412675413246423
-0.005558244714285714,-0.004881192244838206
-0.005557904714285715,-0.006230648112772593
-0.005557564714285714,-0.009357436099457973
-0.005557224714285714,-0.001820231373664395
-0.005556884714285715,0.0008128532466953838
-0.005556544714285714,-0.004091266858728836
-0.005556204714285714,-0.005374895611156563
-0.005555864714285715,-0.004354575320767148
-0.005555524714285714,-0.003005119452828451
-0.005555184714285714,-0.003992526185465165
-0.005554844714285715,-0.003531736376902203
-0.005554504714285714,-0.002873465221810222
-0.005554164714285714,-0.00267598387528288
-0.005553824714285715,-0.00313677368384668
-0.005553484714285714,-0.002248107624473638
-0.005553144714285714,-0.002379761855491866
-0.005552804714285715,-0.003465909261392251
-0.005552464714285714,-0.003400082145883136
-0.005552124714285714,-0.003827958396692379
-0.005551784714285714,-0.005341982053402005
-0.005551444714285714,-0.00596733965073895
-0.005551104714285714,-0.006164820997265934
-0.005550764714285714,-0.006724351479093405
-0.005550424714285714,-0.005572376957684085
-0.005550084714285714,-0.005671117630947577
-0.005549744714285714,-0.005967339650738591
-0.005549404714285714,-0.006823092152355519
-0.005549064714285714,-0.005967339650738591
-0.005548724714285714,-0.00837002936682126
-0.005548384714285714,-0.009127041195172481
-0.005548044714285714,-0.007152227729902647
-0.005547704714285714,-0.008304202251312145
-0.005547364714285714,-0.01136516312247524
-0.005547024714285714,-0.005473636284420234
-0.005546684714285714,-0.006164820997265934
-0.005546344714285714,-0.005440722726662085
-0.005546004714285714,-0.003465909261392251
-0.005545664714285714,-0.007744671769484675
-0.005545324714285714,-0.007349709076422326
-0.005544984714285714,-0.00313677368384668
-0.005544644714285714,-0.004255834647501621
-0.005544304714285714,-0.006592697248073559
-0.005543964714285714,-0.005704031188702134
-0.005543624714285714,-0.005309068495647449
-0.005543284714285714,-0.007152227729902587
-0.005542944714285714,-0.00711931417214809
-0.005542604714285714,-0.006757265036847961
-0.005542264714285715,-0.007942153116009862
-0.005541924714285714,-0.008633337828857716
-0.005541584714285714,-0.007777585327239231
-0.005541244714285715,-0.007382622634185264
-0.005540904714285714,-0.006131907439511376
-0.005540564714285714,-0.005638204073193019
-0.005540224714285715,-0.006164820997264976
-0.005539884714285714,-0.004255834647501621
-0.005539544714285714,-0.003992526185465165
-0.005539204714285715,-0.005440722726663043
-0.005538864714285714,-0.007481363307448217
-0.005538524714285714,-0.006362302343793276
-0.005538184714285715,-0.006724351479092746
-0.005537844714285714,-0.007843412442748346
-0.005537504714285714,-0.00790923955825746
-0.005537164714285715,-0.01268170543265956
-0.005536824714285714,-0.01320832235674115
-0.005536484714285714,-0.007744671769484675
-0.005536144714285715,-0.007283881960921713
-0.005535804714285714,-0.009159954752930631
-0.005535464714285714,-0.01215508850859533
-0.005535124714285715,-0.01432738332039214
-0.005534784714285714,-0.01159555802676786
-0.005534444714285714,-0.009456176772721644
-0.005534104714285715,-0.009587831003739633
-0.005533764714285714,-0.008962473406403288
-0.005533424714285714,-0.007843412442748346
-0.005533084714285715,-0.008073807347030245
-0.005532744714285714,-0.008764992059875945
-0.005532404714285714,-0.008139634462539359
-0.005532064714285715,-0.009225781868439744
-0.005531724714285714,-0.01001570725454911
-0.005531384714285714,-0.009159954752930631
-0.005531044714285714,-0.008501683597839487
-0.005530704714285714,-0.00869916494436683
-0.005530364714285714,-0.009522003888230759
-0.005530024714285714,-0.007086400614393532
-0.005529684714285714,-0.001096133103078029
-0.005529344714285714,-0.008732078502121389
-0.005529004714285714,-0.00688891926786619
-0.005528664714285714,-0.005736944746458607
-0.005528324714285714,-0.006790178594602518
-0.005527984714285714,-0.005572376957683906
-0.005527644714285714,-0.005309068495651161
-0.005527304714285714,-0.007349709076429989
-0.005526964714285714,-0.007514276865202775
-0.005526624714285714,-0.01228674273960553
-0.005526284714285714,-0.007876326000502903
-0.005525944714285714,-0.005374895611156563
-0.005525604714285714,-0.004617883782803486
-0.005525264714285714,-0.005572376957683906
-0.005524924714285714,-0.01073980552514937
-0.005524584714285714,-0.008896646290893215
-0.005524244714285714,-0.00837002936682126
-0.005523904714285714,-0.008106720904784802
-0.005523564714285714,-0.008633337828857477
-0.005523224714285714,-0.008501683597839487
-0.005522884714285714,-0.009949880139040001
-0.005522544714285714,-0.01162847158453732
-0.005522204714285714,-0.01982394746540713
-0.005521864714285714,-0.0372681330753224
-0.005521524714285714,-0.06017596927254767
-0.005521184714285714,-0.0896006899050682
-0.005520844714285714,-0.1210660511184248
-0.005520504714285715,-0.1538808681996586
-0.005520164714285714,-0.1856424514328658
-0.005519824714285714,-0.2135202348509757
-0.005519484714285715,-0.2350786151801714
-0.005519144714285714,-0.2493630992456884
-0.005518804714285714,-0.2608170173442743
-0.005518464714285715,-0.2654249154299039
-0.005518124714285714,-0.2659515323539852
-0.005517784714285714,-0.2616069427303837
-0.005517444714285715,-0.2558470701233466
-0.005517104714285714,-0.2489352229948792
-0.005516764714285714,-0.2433070046188499
-0.005516424714285715,-0.2381395760513939
-0.005516084714285714,-0.2290554341111267
-0.005515744714285714,-0.2160874923558312
-0.005515404714285715,-0.2093731265739137
-0.005515064714285714,-0.19982819482508
-0.005514724714285714,-0.1953190374127056
-0.005514384714285715,-0.1916656325019564
-0.005514044714285714,-0.1823840092151647
-0.005513704714285714,-0.1765912230503627
-0.005513364714285715,-0.1728719910241045
-0.005513024714285714,-0.1640511575458764
-0.005512684714285714,-0.1572051375329285
-0.005512344714285715,-0.1536175597376818
-0.005512004714285714,-0.1476602057841069
-0.005511664714285714,-0.1431839619294872
-0.005511324714285715,-0.139925519711786
-0.005510984714285714,-0.1363050283587847
-0.005510644714285714,-0.1328491047945562
-0.005510304714285715,-0.1283728609399365
-0.005509964714285714,-0.1223825934286071
-0.005509624714285714,-0.1166227208215596
-0.005509284714285714,-0.1125085261022399
-0.005508944714285714,-0.1076373195545541
-0.005508604714285714,-0.1013508300234451
-0.005508264714285714,-0.09786199290146202
-0.005507924714285714,-0.09443898289497971
-0.005507584714285714,-0.08983108480935009
-0.005507244714285714,-0.08617767989859426
-0.005506904714285714,-0.08354459527822257
-0.005506564714285714,-0.0796278819054374
-0.005506224714285714,-0.07762015488240942
-0.005505884714285714,-0.0824255343145593
-0.005505544714285714,-0.07393383641389903
-0.005505204714285714,-0.06942467900152469
-0.005504864714285714,-0.06922719765499286
-0.005504524714285714,-0.06675868082340558
-0.005504184714285714,-0.06791065534481508
-0.005503844714285714,-0.06800939601806753
-0.005503504714285714,-0.06185456071797656
-0.005503164714285714,-0.05922147609761199
-0.005502824714285714,-0.05964935234841429
-0.005502484714285714,-0.05583137964889261
-0.005502144714285714,-0.05267167810445512
-0.005501804714285714,-0.0521121476226258
-0.005501464714285714,-0.05109182733223638
-0.005501124714285714,-0.04865622405839916
-0.005500784714285714,-0.04631936145782333
-0.005500444714285714,-0.04506864626315243
-0.005500104714285714,-0.04345588193317913
-0.005499764714285715,-0.04283052433584369
-0.005499424714285714,-0.04078988375506001
-0.005499084714285714,-0.0388808974052957
-0.005498744714285715,-0.03934168721385866
-0.005498404714285714,-0.03930877365610494
-0.005498064714285714,-0.03766309576837708
-0.005497724714285715,-0.03667568903574217
-0.005497384714285714,-0.03631363990044024
-0.005497044714285714,-0.03562245518759454
-0.005496704714285715,-0.03374638239558821
-0.005496364714285714,-0.03394386374211213
-0.005496024714285714,-0.03137660623725668
-0.005495684714285715,-0.03219944518111911
-0.005495344714285714,-0.03558954162983999
-0.005495004714285714,-0.02867769450138299
-0.005494664714285715,-0.02564964718796925
-0.005494324714285714,-0.02597878276550931
-0.005493984714285714,-0.021765847372926
-0.005493644714285715,-0.02357609304942335
-0.005493304714285714,-0.02439893199329057
-0.005492964714285714,-0.02133797112211676
-0.005492624714285715,-0.02156836602639824
-0.005492284714285714,-0.0229178218943355
-0.005491944714285714,-0.02324695747188107
-0.005491604714285715,-0.02219372362373716
-0.005491264714285714,-0.02344443881840842
-0.005490924714285714,-0.02459641333981791
-0.005490584714285715,-0.02311530324086284
-0.005490244714285714,-0.02295073545209006
-0.005489904714285714,-0.0245305862243088
-0.005489564714285715,-0.0236090066071812
-0.005489224714285714,-0.02288490833658094
-0.005488884714285714,-0.0229178218943355
-0.005488544714285714,-0.02160127958415322
-0.005488204714285714,-0.02272034054780636
-0.005487864714285714,-0.02173293381517144
-0.005487524714285714,-0.0208442677557984
-0.005487184714285714,-0.02114048977558804
-0.005486844714285714,-0.0203834779472346
-0.005486504714285714,-0.01919858986807055
-0.005486164714285714,-0.01742125774932698
-0.005485824714285714,-0.01880362717501586
-0.005485484714285714,-0.01768456621136092
-0.005485144714285714,-0.02097592198681477
-0.005484804714285714,-0.01995560169642536
-0.005484464714285714,-0.0129450138947047
-0.005484124714285714,-0.01090437331390875
-0.005483784714285714,-0.003531736376901365
-0.005483444714285714,-0.01238548341287723
-0.005483104714285714,-0.01376785283856761
-0.005482764714285714,-0.01320832235674115
-0.005482424714285714,-0.01231965629736811
-0.005482084714285714,-0.01399824774284873
-0.005481744714285714,-0.01301084101021381
-0.005481404714285714,-0.01327414947225027
-0.005481064714285714,-0.01238548341287974
-0.005480724714285714,-0.01376785283856862
-0.005480384714285714,-0.01478817312895989
-0.005480044714285714,-0.01241839697063262
-0.005479704714285714,-0.01287918677919558
-0.005479364714285714,-0.01360328504979584
-0.005479024714285715,-0.01363619860755034
-0.005478684714285714,-0.01182595293104976
-0.005478344714285714,-0.01241839697063178
-0.005478004714285715,-0.01192469360431433
-0.005477664714285714,-0.01228674273961356
-0.005477324714285714,-0.01327414947225027
-0.005476984714285715,-0.01261587831716032
-0.005476644714285714,-0.01228674273961356
-0.005476304714285714,-0.01228674273961356
-0.005475964714285715,-0.01228674273961356
-0.005475624714285714,-0.01116768177595861
-0.005475284714285714,-0.01222091562410444
-0.005474944714285715,-0.009785312350271646
-0.005474604714285714,-0.01034484283209469
-0.005474264714285714,-0.01241839697063178
-0.005473924714285715,-0.00639521590155879
-0.005473584714285714,-0.005736944746456691
-0.005473244714285714,-0.005045760033610991
-0.005472904714285715,-0.009620744561486108
-0.005472564714285714,-0.01152973091125874
-0.005472224714285714,-0.01044358350535836
-0.005471884714285715,-0.01004862081230439
-0.005471544714285714,-0.01080563264065849
-0.005471204714285714,-0.01192469360431343
-0.005470864714285715,-0.01320832235673882
-0.005470524714285714,-0.01297792745245925
-0.005470184714285714,-0.01241839697063178
-0.005469844714285715,-0.01399824774285052
-0.005469504714285714,-0.01330706303000483
-0.005469164714285714,-0.01396533418509597
-0.005468824714285715,-0.01274753254817735
-0.005468484714285714,-0.0115626444690133
-0.005468144714285714,-0.009752398792512659
-0.005467804714285714,-0.01024610215883101
-0.005467464714285714,-0.009127041195176074
-0.005467124714285714,-0.007514276865202775
-0.005466784714285714,-0.007744671769484675
-0.005466444714285714,-0.007942153116011237
-0.005466104714285714,-0.007514276865202775
-0.005465764714285714,-0.006625610805829733
-0.005465424714285714,-0.007415536191938206
-0.005465084714285714,-0.006921832825620747
-0.005464744714285714,-0.007152227729902647
-0.005464404714285714,-0.008797905617636249
-0.005464064714285714,-0.01195760716206798
-0.005463724714285714,-0.008468770040084931
-0.005463384714285714,-0.008007980231518198
-0.005463044714285714,-0.006395215901547833
-0.005462704714285714,-0.005078673591365549
-0.005462364714285714,-0.01008153437005601
-0.005462024714285714,-0.008863732733139616
-0.005461684714285714,-0.00688891926786619
-0.005461344714285714,-0.006954746383375663
-0.005461004714285714,-0.007152227729902647
-0.005460664714285714,-0.006098993881756819
-0.005460324714285714,-0.006362302343793695
-0.005459984714285714,-0.006592697248075176
-0.005459644714285714,-0.006033166766247705
-0.005459304714285714,-0.00856751071334998
-0.005458964714285714,-0.009324522541703417
-0.005458624714285714,-0.01077271908290393
-0.005458284714285714,-0.01231965629736991
-0.005457944714285714,-0.01330706303000483
-0.005457604714285714,-0.0129450138947047
-0.005457264714285715,-0.01310958168347718
-0.005456924714285714,-0.01468943245569622
-0.005456584714285714,-0.0124842240861409
-0.005456244714285715,-0.01212217495084143
-0.005455904714285714,-0.01054232417862203
-0.005455564714285714,-0.009851139465776329
-0.005455224714285715,-0.008501683597841942
-0.005454884714285714,-0.008764992059875945
-0.005454544714285714,-0.007448449749693661
-0.005454204714285715,-0.008468770040083074
-0.005453864714285714,-0.01172721225778608
-0.005453524714285714,-0.01416281553162331
-0.005453184714285715,-0.00702057349889741
-0.005452844714285714,-0.007218054845411761
-0.005452504714285714,-0.006164820997265934
-0.005452164714285715,-0.00715222772990085
-0.005451824714285714,-0.01143099023799507
-0.005451484714285714,-0.01057523773637659
-0.005451144714285715,-0.00695474638338189
-0.005450804714285714,-0.009094127637421515
-0.005450464714285714,-0.009522003888230759
-0.005450124714285715,-0.008238375135805366
-0.005449784714285714,-0.008962473406403288
-0.005449444714285714,-0.00939034965721253
-0.005449104714285715,-0.008830819175386077
-0.005448764714285714,-0.009028300521912402
-0.005448424714285714,-0.009258695426194301
-0.005448084714285715,-0.008797905617630502
-0.005447744714285714,-0.008995386964157845
-0.005447404714285714,-0.009522003888230759
-0.005447064714285715,-0.008304202251312145
-0.005446724714285714,-0.006329388786038719
-0.005446384714285714,-0.006757265036847961
-0.005446044714285714,-0.005111587149120106
-0.005445704714285714,-0.005078673591367405
-0.005445364714285714,-0.006098993881756819
-0.005445024714285714,-0.006395215901547833
-0.005444684714285714,-0.008139634462542353
-0.005444344714285714,-0.009785312350267215
-0.005444004714285714,-0.008732078502121389
-0.005443664714285714,-0.008995386964167363
-0.005443324714285714,-0.01422864264713243
-0.005442984714285714,-0.01152973091125874
-0.005442644714285714,-0.004420402436276083
-0.005442304714285714,-0.005341982053402005
-0.005441964714285714,-0.005572376957683906
-0.005441624714285714,-0.00886373273314716
-0.005441284714285714,-0.01301084101021381
-0.005440944714285714,-0.009456176772721644
-0.005440604714285714,-0.009719485234760437
-0.005440264714285714,-0.01100311398718583
-0.005439924714285714,-0.0117930393732952
-0.005439584714285714,-0.008699164944366171
-0.005439244714285714,-0.008337115809066702
-0.005438904714285714,-0.008271288693557588
-0.005438564714285714,-0.006033166766247405
-0.005438224714285714,-0.00586859897747492
-0.005437884714285714,0.001405297286282201
-0.005437544714285714,-0.005407809168908665
-0.005437204714285714,-0.004058353300974278
-0.005436864714285714,-0.005539463399929348
-0.005436524714285715,-0.005572376957683846
-0.005436184714285714,-0.005769858304211248
-0.005435844714285714,-0.007448449749693661
-0.005435504714285715,-0.008370029366819584
-0.005435164714285714,-0.009884053023530886
-0.005434824714285714,-0.01060815129413114
-0.005434484714285715,-0.01241839697062849
-0.005434144714285714,-0.01060815129413114
-0.005433804714285714,-0.01146390379574963
-0.005433464714285715,-0.01166138514227661
-0.005433124714285714,-0.01143099023799507
-0.005432784714285714,-0.01669715947872421
-0.005432444714285715,-0.009818225908034285
-0.005432104714285714,-0.005934426092984033
-0.005431764714285714,-0.01146390379574963
-0.005431424714285715,-0.01248422408613904
-0.005431084714285714,-0.009028300521912402
-0.005430744714285714,-0.009884053023530886
-0.005430404714285715,-0.01008153437005787
-0.005430064714285714,-0.008666251386612273
-0.005429724714285714,-0.009324522541703417
-0.005429384714285715,-0.01083854619841029
-0.005429044714285714,-0.009456176772721644
-0.005428704714285714,-0.008402942924575817
-0.005428364714285715,-0.00991696658128269
-0.005428024714285714,-0.009554917445985316
-0.005427684714285714,-0.008304202251312145
-0.005427344714285715,-0.007843412442748346
-0.005427004714285714,-0.009094127637421515
-0.005426664714285714,-0.00767884465397556
-0.005426324714285715,-0.01057523773637659
-0.005425984714285714,-0.008238375135803031
-0.005425644714285714,-0.008106720904784802
-0.005425304714285714,-0.008732078502121389
-0.005424964714285714,-0.008633337828857716
-0.005424624714285714,-0.007448449749693661
-0.005424284714285714,-0.006526870132566062
-0.005423944714285714,-0.008238375135799917
-0.005423604714285714,-0.006526870132566062
-0.005423264714285714,-0.008501683597839487
-0.005422924714285714,-0.007942153116012316
-0.005422584714285714,-0.008106720904784802
-0.005422244714285714,-0.01027901571658557
-0.005421904714285714,-0.007810498884995107
-0.005421564714285714,-0.008534597155594046
-0.005421224714285714,-0.004914105802592763
-0.005420884714285714,-0.009916966581290173
-0.005420544714285714,-0.01251713764389546
-0.005420204714285714,-0.01004862081230367
-0.005419864714285714,-0.008370029366822757
-0.005419524714285714,-0.009192868310685188
-0.005419184714285714,-0.009094127637421515
-0.005418844714285714,-0.008995386964158324
-0.005418504714285714,-0.009258695426194301
-0.005418164714285714,-0.007152227729902647
-0.005417824714285714,-0.00925869542619478
-0.005417484714285714,-0.009522003888230759
