Analysis/files/cmb03_d2s01/wrd02_ch36.csv

#Digilent WaveForms Oscilloscope Acquisition
#Device Name: ADP3450
#Serial Number: SN:210018B9D9B0
#Date Time: 2024-08-09 12:11:39.488.734.550
#Sample rate: 2.94118e+06Hz
#Samples: 32768
#Trigger: Source: Channel 3 Type: Edge Condition: Rising Level: 20 mV Hyst.: Auto HoldOff: 0 s
#Channel 3: Range: 200 mV/div Offset: 0 V Attenuation: 1 X Coupling: DC Bandwidth: 0 Hz Sample Mode: Average

Time (s),Channel 3 (V)
-0.00557045248459959,0.00904124268533945
-0.005570112484599589,0.00946911893614941
-0.005569772484599589,0.009864081629203377
-0.00556943248459959,0.008646279992284765
-0.005569092484599589,0.008284230856984397
-0.005568752484599589,0.008152576625966409
-0.00556841248459959,0.006276503833956653
-0.005568072484599589,0.004367517484193179
-0.005567732484599589,0.00482830729275614
-0.00556739248459959,0.002590185365446257
-0.005567052484599589,0.001569865075054987
-0.005566712484599589,0.001569865075054987
-0.00556637248459959,0.002096481999127901
-0.005566032484599589,0.001141988824246702
-0.005565692484599589,0.001668605748318658
-0.00556535248459959,0.001635692190564101
-0.005565012484599589,0.0003520634381329612
-0.005564672484599589,-0.001524009353873381
-0.00556433248459959,-0.002774724548546551
-0.005563992484599589,0.001833173537090785
-0.005563652484599589,0.001471124401791315
-0.00556331248459959,0.003215542962782842
-0.00556297248459959,-0.003893785512188561
-0.005562632484599589,-0.007316795518675433
-0.00556229248459959,-0.004650797340556306
-0.00556195248459959,-0.004617883782801809
-0.005561612484599589,-0.005341982053402005
-0.00556127248459959,-0.004881192244838206
-0.00556093248459959,-0.003630477050167311
-0.005560592484599589,-0.004486229551783521
-0.00556025248459959,-0.002741810990791994
-0.00555991248459959,-0.004157093974235375
-0.005559572484599589,-0.004716624456065421
-0.00555923248459959,-0.003400082145883136
-0.00555889248459959,-0.003630477050164617
-0.005558552484599589,-0.003432995703637694
-0.005558212484599589,-0.003169687241601236
-0.00555787248459959,-0.003696304165673192
-0.005557532484599589,-0.004782451571574535
-0.005557192484599589,-0.003564649934655922
-0.00555685248459959,-0.003696304165673911
-0.005556512484599589,-0.006625610805829733
-0.005556172484599589,-0.005802771861965805
-0.00555583248459959,-0.005407809168911838
-0.005555492484599589,-0.005736944746456691
-0.005555152484599589,-0.004519143109538078
-0.00555481248459959,-0.003432995703639669
-0.005554472484599589,-0.005769858304211248
-0.005554132484599589,-0.01001570725454911
-0.00555379248459959,-0.003103860126092122
-0.005553452484599589,-0.003334255030374022
-0.005553112484599589,-0.003005119452828451
-0.00555277248459959,-0.002478502528755537
-0.005552432484599589,-0.007415536191939104
-0.005552092484599589,-0.007613017538466446
-0.00555175248459959,-0.003663390607919593
-0.005551412484599589,-0.006493956574815157
-0.005551072484599589,-0.008501683597839487
-0.00555073248459959,-0.00837002936682126
-0.005550392484599589,-0.009785312350270928
-0.005550052484599589,-0.01182595293104976
-0.00554971248459959,-0.01169429870003153
-0.005549372484599589,-0.01202343427757961
-0.005549032484599589,-0.0134058037032685
-0.00554869248459959,-0.01208926139308621
-0.005548352484599589,-0.01077271908290459
-0.005548012484599589,-0.01113476821820406
-0.00554767248459959,-0.009489090330476201
-0.005547332484599589,-0.006954746383376322
-0.005546992484599589,-0.007514276865202775
-0.00554665248459959,-0.007218054845411761
-0.005546312484599589,-0.007086400614397185
-0.005545972484599589,-0.009094127637421515
-0.00554563248459959,-0.007942153116012016
-0.005545292484599589,-0.00883081917538925
-0.005544952484599589,-0.01113476821820406
-0.00554461248459959,-0.01241839697063178
-0.005544272484599589,-0.01100311398718733
-0.005543932484599589,-0.01182595293104976
-0.00554359248459959,-0.01840866448196118
-0.005543252484599589,-0.01044358350535363
-0.005542912484599589,-0.007843412442748346
-0.00554257248459959,-0.006954746383375304
-0.00554223248459959,-0.004288748205261028
-0.005541892484599589,-0.008139634462539359
-0.00554155248459959,-0.009785312350267215
-0.00554121248459959,-0.007283881960925425
-0.005540872484599589,-0.008402942924575817
-0.00554053248459959,-0.01120059533371317
-0.00554019248459959,-0.01268170543266555
-0.005539852484599589,-0.01215508850859533
-0.00553951248459959,-0.0143273833203961
-0.00553917248459959,-0.01386659351183313
-0.005538832484599589,-0.01383367995407774
-0.00553849248459959,-0.01478817312895989
-0.00553815248459959,-0.01419572908937894
-0.005537812484599589,-0.01330706303000483
-0.00553747248459959,-0.01337289014551394
-0.00553713248459959,-0.01301084101021447
-0.005536792484599589,-0.007744671769484675
-0.005536452484599589,-0.008534597155594046
-0.00553611248459959,-0.01004862081230092
-0.005535772484599589,-0.008106720904784802
-0.005535432484599589,-0.007777585327239231
-0.00553509248459959,-0.007777585327239231
-0.005534752484599589,-0.007185141287657204
-0.005534412484599589,-0.008732078502121389
-0.00553407248459959,-0.01080563264065471
-0.005533732484599589,-0.009554917445985316
-0.005533392484599589,-0.01422864264713243
-0.00553305248459959,-0.01485400024446901
-0.005532712484599589,-0.007185141287657204
-0.005532372484599589,-0.007415536191939104
-0.00553203248459959,-0.007250968403166318
-0.005531692484599589,-0.00939034965721253
-0.005531352484599589,-0.01307666812572293
-0.00553101248459959,-0.01347163081877761
-0.005530672484599589,-0.01139807668024051
-0.005530332484599589,-0.01238548341287723
-0.00552999248459959,-0.01373493928081407
-0.005529652484599589,-0.01287918677919145
-0.005529312484599589,-0.01060815129413114
-0.00552897248459959,-0.01136516312248596
-0.005528632484599589,-0.0108385461984131
-0.005528292484599589,-0.0108714597561676
-0.00552795248459959,-0.0115626444690133
-0.005527612484599589,-0.01120059533370928
-0.005527272484599589,-0.009061214079666959
-0.00552693248459959,-0.009423263214967087
-0.005526592484599589,-0.009916966581281852
-0.005526252484599589,-0.007942153116012016
-0.00552591248459959,-0.008534597155594046
-0.005525572484599589,-0.01070689196739446
-0.005525232484599589,-0.01050941062086747
-0.00552489248459959,-0.01172721225778608
-0.005524552484599589,-0.01452486466692254
-0.005524212484599589,-0.01403116130060508
-0.00552387248459959,-0.01445903755141432
-0.005523532484599589,-0.01626928322791281
-0.005523192484599589,-0.01508439514875091
-0.00552285248459959,-0.0208442677557984
-0.005522512484599589,-0.02199624227721682
-0.005522172484599589,-0.02690036238263691
-0.00552183248459959,-0.03976956346466874
-0.005521492484599589,-0.06093298110090386
-0.005521152484599589,-0.09111471356177783
-0.00552081248459959,-0.1237320492965439
-0.00552047248459959,-0.1536175597376274
-0.005520132484599589,-0.1830093668125013
-0.00551979248459959,-0.2092414723428833
-0.00551945248459959,-0.2292858290153721
-0.005519112484599589,-0.2433070046188499
-0.00551877248459959,-0.2477174213579605
-0.00551843248459959,-0.2506796415558653
-0.005518092484599589,-0.2463679654900237
-0.00551775248459959,-0.2396206861503395
-0.00551741248459959,-0.2327417525796496
-0.005517072484599589,-0.2224727225602152
-0.00551673248459959,-0.2135202348509757
-0.00551639248459959,-0.2066742148380403
-0.005516052484599589,-0.2029549828117629
-0.005515712484599589,-0.1980508627063339
-0.00551537248459959,-0.1965697526073815
-0.005515032484599589,-0.1968330610694153
-0.005514692484599589,-0.194924074719651
-0.00551435248459959,-0.1932454832741716
-0.005514012484599589,-0.1927188663500956
-0.005513672484599589,-0.188604671630776
-0.00551333248459959,-0.1836347244098469
-0.005512992484599589,-0.181692824502319
-0.005512652484599589,-0.1784672958423724
-0.00551231248459959,-0.1748138909316166
-0.005511972484599589,-0.1642486388924037
-0.005511632484599589,-0.1582912849388289
-0.00551129248459959,-0.153156769929118
-0.005510952484599589,-0.1507540802130353
-0.005510612484599589,-0.1501945497312079
-0.00551027248459959,-0.1420319874080777
-0.005509932484599589,-0.1370949537448941
-0.005509592484599589,-0.1331124132565927
-0.00550925248459959,-0.1296894032501188
-0.005508912484599589,-0.1251473322799858
-0.005508572484599589,-0.12290921035268
-0.00550823248459959,-0.1182025715937783
-0.005507892484599589,-0.1151086971648422
-0.005507552484599589,-0.1108628482145121
-0.00550721248459959,-0.1073410975347745
-0.005506872484599589,-0.1037206061817685
-0.005506532484599589,-0.1011204351191632
-0.00550619248459959,-0.09647962347577063
-0.005505852484599589,-0.09160841692809295
-0.005505512484599589,-0.08983108480935009
-0.00550517248459959,-0.08542066807023946
-0.005504832484599589,-0.0812077326776523
-0.005504492484599589,-0.07910126498136449
-0.00550415248459959,-0.07699479728507283
-0.005503812484599589,-0.07465793468449754
-0.005503472484599589,-0.07370344150961711
-0.00550313248459959,-0.07136657890904358
-0.005502792484599589,-0.0671207299587073
-0.005502452484599589,-0.06800939601807873
-0.00550211248459959,-0.0685689264999062
-0.005501772484599589,-0.06494843514689277
-0.005501432484599589,-0.05826698292272983
-0.00550109248459959,-0.05727957619009312
-0.005500752484599589,-0.05441609666545114
-0.005500412484599589,-0.05688461349703844
-0.00550007248459959,-0.05882651340455731
-0.00549973248459959,-0.05303372723976579
-0.005499392484599589,-0.05112474088999094
-0.00549905248459959,-0.05082851887019993
-0.00549871248459959,-0.04793212578780417
-0.005498372484599589,-0.04381793106847926
-0.00549803248459959,-0.04292926500910622
-0.00549769248459959,-0.04154689558341734
-0.005497352484599589,-0.03937460077161405
-0.00549701248459959,-0.04013161259996887
-0.00549667248459959,-0.0385188482699985
-0.005496332484599589,-0.03812388557694089
-0.00549599248459959,-0.03904546519406848
-0.00549565248459959,-0.03664277547799018
-0.005495312484599589,-0.03433882643516682
-0.00549497248459959,-0.03417425864639403
-0.00549463248459959,-0.03289062989396864
-0.005494292484599589,-0.02966510123401971
-0.005493952484599589,-0.03029045883135629
-0.00549361248459959,-0.03009297748482931
-0.005493272484599589,-0.02894100296341945
-0.005492932484599589,-0.02861186738587388
-0.00549259248459959,-0.02927013854096383
-0.005492252484599589,-0.02834855892383742
-0.005491912484599589,-0.0282169046928192
-0.00549157248459959,-0.03400969085761071
-0.005491232484599589,-0.0261433505542821
-0.005490892484599589,-0.02535342516817273
-0.00549055248459959,-0.02630791834305488
-0.005490212484599589,-0.02495846247511804
-0.005489872484599589,-0.02555090651470007
-0.00548953248459959,-0.02900683007892857
-0.005489192484599589,-0.02772320132650084
-0.005488852484599589,-0.02505720314838171
-0.00548851248459959,-0.02495846247511804
-0.005488172484599589,-0.0221608100659747
-0.005487832484599589,-0.01886945429052498
-0.00548749248459959,-0.01893528140603409
-0.005487152484599589,-0.01719086284504107
-0.005486812484599589,-0.01636802390117864
-0.00548647248459959,-0.01692755438300611
-0.005486132484599589,-0.01656550524770412
-0.005485792484599589,-0.01554518495731471
-0.00548545248459959,-0.01656550524770598
-0.005485112484599589,-0.01521604937976836
-0.005484772484599589,-0.01478817312895989
-0.00548443248459959,-0.014557778224678
-0.005484092484599589,-0.01594014765036808
-0.005483752484599589,-0.01521604937976914
-0.00548341248459959,-0.01725668996055168
-0.005483072484599589,-0.01738834419157015
-0.005482732484599589,-0.01751999842258814
-0.00548239248459959,-0.01692755438300611
-0.005482052484599589,-0.01804661534665913
-0.005481712484599589,-0.01699338149851522
-0.00548137248459959,-0.01886945429052498
-0.005481032484599589,-0.02084426775578002
-0.005480692484599589,-0.01073980552514937
-0.00548035248459959,-0.0113322495647314
-0.005480012484599589,-0.01788204755788449
-0.005479672484599589,-0.01580849341935116
-0.00547933248459959,-0.01176012581554064
-0.00547899248459959,-0.01284627322143905
-0.005478652484599589,-0.01373493928081407
-0.00547831248459959,-0.01212217495084077
-0.00547797248459959,-0.01258296475940373
-0.005477632484599589,-0.01251713764389546
-0.00547729248459959,-0.01172721225778608
-0.00547695248459959,-0.01320832235673846
-0.005476612484599589,-0.01307666812572293
-0.00547627248459959,-0.01189178004655887
-0.00547593248459959,-0.01129933600697792
-0.005475592484599589,-0.01320832235674115
-0.00547525248459959,-0.01291210033695014
-0.00547491248459959,-0.01116768177596179
-0.005474572484599589,-0.01185886648880431
-0.00547423248459959,-0.009949880139040001
-0.00547389248459959,-0.01064106485188444
-0.005473552484599589,-0.01090437331392216
-0.005473212484599589,-0.01090437331392216
-0.00547287248459959,-0.01044358350535919
-0.005472532484599589,-0.01337289014551394
-0.005472192484599589,-0.01436029687815065
-0.00547185248459959,-0.01287918677919828
-0.005471512484599589,-0.01485400024446901
-0.005471172484599589,-0.01419572908937787
-0.00547083248459959,-0.01636802390117469
-0.005470492484599589,-0.01544644428405104
-0.005470152484599589,-0.01231965629736811
-0.00546981248459959,-0.009818225908021772
-0.005469472484599589,-0.007777585327239231
-0.005469132484599589,-0.01258296475940457
-0.00546879248459959,-0.0115626444690133
-0.005468452484599589,-0.01004862081230367
-0.005468112484599589,-0.00962074456149443
-0.00546777248459959,-0.01139807668024051
-0.005467432484599589,-0.01093728687167671
-0.005467092484599589,-0.01080563264065849
-0.00546675248459959,-0.009982793696794558
-0.005466412484599589,-0.009752398792513377
-0.005466072484599589,-0.01014736148556734
-0.00546573248459959,-0.00869916494436683
-0.005465392484599589,-0.007744671769485812
-0.005465052484599589,-0.00837002936682126
-0.00546471248459959,-0.008797905617630502
-0.005464372484599589,-0.00734970907643442
-0.005464032484599589,-0.009785312350267215
-0.00546369248459959,-0.01047649706311291
-0.005463352484599589,-0.01070689196739817
-0.005463012484599589,-0.01255005120165001
-0.00546267248459959,-0.01287918677919558
-0.005462332484599589,-0.01100311398718948
-0.005461992484599589,-0.01301084101021381
-0.00546165248459959,-0.01488691380222357
-0.005461312484599589,-0.01353745793429038
-0.005460972484599589,-0.01554518495731471
-0.00546063248459959,-0.01617054255465129
-0.005460292484599589,-0.01959355256111853
-0.005459952484599589,-0.01590723409261484
-0.00545961248459959,-0.01215508850859533
-0.005459272484599589,-0.01047649706311022
-0.005458932484599589,-0.008995386964157845
-0.00545859248459959,-0.01320832235674115
-0.005458252484599589,-0.01383367995407074
-0.005457912484599589,-0.009982793696794558
-0.00545757248459959,-0.009258695426194301
-0.00545723248459959,-0.008995386964158324
-0.005456892484599589,-0.007316795518675433
-0.00545655248459959,-0.007349709076429989
-0.00545621248459959,-0.007678844653974962
-0.005455872484599589,-0.004979932918101878
-0.00545553248459959,-0.006921832825620747
-0.00545519248459959,-0.005144500706877895
-0.005454852484599589,-0.005473636284420234
-0.00545451248459959,-0.006461043017056948
-0.00545417248459959,-0.008863732733135246
-0.005453832484599589,-0.007382622634184546
-0.00545349248459959,-0.009159954752930631
-0.00545315248459959,-0.01031192927433803
-0.005452812484599589,-0.009916966581285444
-0.005452472484599589,-0.01222091562410444
-0.00545213248459959,-0.01228674273961344
-0.005451792484599589,-0.01166138514227697
-0.005451452484599589,-0.01297792745245925
-0.00545111248459959,-0.01347163081877671
-0.005450772484599589,-0.01021318860107646
-0.005450432484599589,-0.01057523773637659
-0.00545009248459959,-0.01485400024446123
-0.005449752484599589,-0.01567683918833294
-0.005449412484599589,-0.008271288693557588
-0.00544907248459959,-0.00896247340640203
-0.005448732484599589,-0.007152227729902647
-0.005448392484599589,-0.008995386964157845
-0.00544805248459959,-0.01268170543266824
-0.005447712484599589,-0.009884053023530886
-0.005447372484599589,-0.009489090330476201
-0.00544703248459959,-0.01044358350535836
-0.005446692484599589,-0.01320832235674115
-0.005446352484599589,-0.01149681735350419
-0.00544601248459959,-0.012253829181859
-0.005445672484599589,-0.01139807668023746
-0.005445332484599589,-0.009719485234758102
-0.00544499248459959,-0.009884053023530886
-0.005444652484599589,-0.008764992059872892
-0.005444312484599589,-0.007086400614393532
-0.00544397248459959,-0.007152227729902647
-0.005443632484599589,-0.008732078502114804
-0.005443292484599589,-0.005111587149120106
-0.00544295248459959,-0.006428129459302391
-0.005442612484599589,-0.01222091562410432
-0.005442272484599589,-0.01215508850859533
-0.00544193248459959,-0.01192469360431343
-0.005441592484599589,-0.01199052071981721
-0.005441252484599589,-0.009061214079666959
-0.00544091248459959,-0.007645931096221003
-0.005440572484599589,-0.007481363307445464
-0.005440232484599589,-0.005967339650738591
-0.00543989248459959,-0.005210327822383777
-0.005439552484599589,-0.01100311398718679
-0.005439212484599589,-0.01152973091125874
-0.00543887248459959,-0.006362302343793276
-0.005438532484599589,-0.007283881960923689
-0.005438192484599589,-0.008830819175385059
-0.00543785248459959,-0.0131754087989866
-0.005437512484599589,-0.01320832235673918
-0.005437172484599589,-0.01212217495084077
-0.00543683248459959,-0.01416281553162331
-0.00543649248459959,-0.01597306120812066
-0.005436152484599589,-0.01692755438300611
-0.00543581248459959,-0.014557778224678
-0.00543547248459959,-0.009785312350275896
-0.005435132484599589,-0.01373493928081407
-0.00543479248459959,-0.01465651889794167
-0.00543445248459959,-0.009818225908030574
-0.005434112484599589,-0.009225781868439744
-0.00543377248459959,-0.009258695426194301
-0.00543343248459959,-0.00856751071334986
-0.005433092484599589,-0.01212217495084077
-0.00543275248459959,-0.005704031188702134
-0.00543241248459959,-0.004091266858731769
-0.005432072484599589,-0.01241839697063178
-0.00543173248459959,-0.01166138514227697
-0.00543139248459959,-0.00797506667377328
-0.005431052484599589,-0.009719485234758102
-0.005430712484599589,-0.01031192927434013
-0.00543037248459959,-0.009489090330477698
-0.005430032484599589,-0.01143099023799507
-0.005429692484599589,-0.01185886648880431
-0.00542935248459959,-0.009522003888235011
-0.005429012484599589,-0.01014736148556734
-0.005428672484599589,-0.01083854619841304
-0.00542833248459959,-0.009423263214969661
-0.005427992484599589,-0.00939034965721253
-0.005427652484599589,-0.009258695426194301
-0.00542731248459959,-0.008468770040084931
-0.005426972484599589,-0.008962473406403288
-0.005426632484599589,-0.008995386964157845
-0.00542629248459959,-0.008205461578048474
-0.005425952484599589,-0.008797905617630502
-0.005425612484599589,-0.01093728687167671
-0.00542527248459959,-0.009916966581285444
-0.005424932484599589,-0.00939034965721253
-0.005424592484599589,-0.01073980552514937
-0.00542425248459959,-0.01044358350535836
-0.005423912484599589,-0.01093728687168144
-0.005423572484599589,-0.01353745793428673
-0.00542323248459959,-0.01478817312895989
-0.005422892484599589,-0.007810498884994687
-0.005422552484599589,-0.008304202251312145
-0.00542221248459959,-0.005309068495647449
-0.005421872484599589,-0.007580103980719133
-0.005421532484599589,-0.0115626444690133
-0.00542119248459959,-0.008929559848648731
-0.005420852484599589,-0.00764593109622681
-0.005420512484599589,-0.01083854619841304
-0.00542017248459959,-0.01172721225778608
-0.005419832484599589,-0.009686571677005639
-0.005419492484599589,-0.01083854619841304
-0.00541915248459959,-0.01083854619841304
-0.005418812484599589,-0.008633337828858615
-0.005418472484599589,-0.009127041195176074
-0.00541813248459959,-0.01034484283209469
-0.005417792484599589,-0.009028300521913359
-0.005417452484599589,-0.009554917445985316
-0.00541711248459959,-0.0106410648518857
-0.005416772484599589,-0.01090437331392485
-0.005416432484599589,-0.01238548341287723
-0.00541609248459959,-0.014557778224678
-0.005415752484599589,-0.01455777822467967
-0.005415412484599589,-0.01547935784180559
-0.00541507248459959,-0.01725668996055168
