Analysis/files/cmb03_d2s01/wrd04_ch36.csv

#Digilent WaveForms Oscilloscope Acquisition
#Device Name: ADP3450
#Serial Number: SN:210018B9D9B0
#Date Time: 2024-08-09 15:24:32.155.339.610
#Sample rate: 2.94118e+06Hz
#Samples: 32768
#Trigger: Source: Channel 3 Type: Edge Condition: Rising Level: 20 mV Hyst.: Auto HoldOff: 0 s
#Channel 1: Range: 200 mV/div Offset: -820 mV Attenuation: 1 X Coupling: DC Bandwidth: 0 Hz Sample Mode: Average
#Channel 3: Range: 200 mV/div Offset: 0 V Attenuation: 1 X Coupling: DC Bandwidth: 0 Hz Sample Mode: Average

Time (s),Channel 1 (V),Channel 3 (V)
-0.005570258648233488,0.00141299953298879,0.001800259979336887
-0.005569918648233487,0.001577092361563653,0.001207815939752524
-0.005569578648233487,0.001445818098703811,-7.581281267286857e-05
-0.005569238648233488,0.001051995310123677,-0.001556922911627938
-0.005568898648233487,0.000953539612978138,-0.005473636284409338
-0.005568558648233487,0.0006909910872584524,0.0005166312269091594
-0.005568218648233487,0.0005597168243983708,0.001734432863827772
-0.005567878648233487,0.0008550839158337335,0.001602778632803856
-0.005567538648233487,0.0009535396129786156,-0.001524009353873381
-0.005567198648233487,0.001084813875838697,-0.006987659941129861
-0.005566858648233487,0.001117632441553368,-0.001787317815916065
-0.005566518648233487,0.000986358178693636,-0.005210327822383777
-0.005566178648233487,0.001281725270128709,-0.008633337828857716
-0.005565838648233487,0.001248906704413628,-0.008797905617628766
-0.005565498648233487,0.001216088138698668,-0.007843412442748346
-0.005565158648233487,0.00138018096727377,-0.00837002936682126
-0.005564818648233487,0.001544273795848812,-0.007020573498885017
-0.005564478648233487,0.001511455230133851,-0.007349709076429989
-0.005564138648233487,0.001019176744408656,-0.006856005710111633
-0.005563798648233487,0.001051995310124095,-0.006526870132565404
-0.005563458648233487,0.001281725270128709,-0.006164820997265934
-0.005563118648233487,0.00138018096727377,-0.007481363307448217
-0.005562778648233488,0.001051995310124274,-0.00708640061439425
-0.005562438648233487,0.001117632441553607,-0.006724351479093405
-0.005562098648233487,0.001478636664418831,-0.008073807347030245
-0.005561758648233488,0.001741185190138406,-0.007975066673766755
-0.005561418648233487,0.001511455230133851,-0.007810498884993789
-0.005561078648233487,0.001019176744408656,-0.009192868310685188
-0.005560738648233488,0.0009863581786936956,-0.009390349657212171
-0.005560398648233487,0.001248906704413688,-0.009818225908021772
-0.005560058648233487,0.001150451007268627,-0.01136516312248596
-0.005559718648233488,0.001314543835843431,-0.01281335966368383
-0.005559378648233487,0.001150451007268627,-0.0104106699476038
-0.005559038648233487,0.00138018096727377,-0.01347163081877761
-0.005558698648233488,0.001642729492993455,-0.01587432053485591
-0.005558358648233487,0.001281725270128709,-0.00860042427110316
-0.005558018648233487,0.001511455230133851,-0.008271288693557588
-0.005557678648233488,0.001412999532988969,-0.006954746383377699
-0.005557338648233487,0.001445818098703811,-0.008732078502121389
-0.005556998648233487,0.001248906704413688,-0.01449195110916888
-0.005556658648233488,0.001412999532988492,-0.01396533418509693
-0.005556318648233487,0.001084813875838697,-0.01113476821820406
-0.005555978648233487,0.0008879024815485748,-0.01126642244922228
-0.005555638648233488,0.001347362401557914,-0.01455777822467201
-0.005555298648233487,0.001347362401558749,-0.01304375456796837
-0.005554958648233487,0.001577092361563892,-0.01222091562410444
-0.005554618648233488,0.001314543835844206,-0.01245131052838592
-0.005554278648233487,0.001051995310123677,-0.01291210033695014
-0.005553938648233487,0.001117632441553607,-0.012253829181859
-0.005553598648233488,0.001150451007268627,-0.01297792745245925
-0.005553258648233487,0.001347362401558749,-0.01373493928081407
-0.005552918648233487,0.001248906704413688,-0.01373493928081407
-0.005552578648233488,0.001281725270128709,-0.01518313582201458
-0.005552238648233487,0.001314543835843729,-0.01580849341935116
-0.005551898648233487,0.001445818098703811,-0.01419572908937787
-0.005551558648233488,0.001511455230133851,-0.0150185680332418
-0.005551218648233487,0.001478636664418711,-0.01544644428404864
-0.005550878648233487,0.00141299953298879,-0.01412990197386875
-0.005550538648233488,0.001216088138698668,-0.01373493928081407
-0.005550198648233487,0.0009535396129786156,-0.0141299019738651
-0.005549858648233487,0.0009535396129786156,-0.01212217495084077
-0.005549518648233488,0.001347362401558749,-0.01324123591449571
-0.005549178648233487,0.001478636664418473,-0.01347163081877815
-0.005548838648233487,0.001281725270128709,-0.01376785283856862
-0.005548498648233488,0.00138018096727377,-0.01863905938624308
-0.005548158648233487,0.00121608813869825,-0.0143602968781497
-0.005547818648233487,0.000986358178693636,-0.01383367995407774
-0.005547478648233488,0.001019176744408656,-0.01426155620488698
-0.005547138648233487,0.001084813875838757,-0.01906693563705112
-0.005546798648233487,0.001117632441553607,-0.01840866448196118
-0.005546458648233487,0.001248906704413688,-0.01610471543914218
-0.005546118648233487,0.001150451007268209,-0.01676298659423368
-0.005545778648233487,0.0009207210472635952,-0.01696046794076066
-0.005545438648233487,0.001281725270128709,-0.01491982735997812
-0.005545098648233487,0.001347362401559048,-0.01903402207928908
-0.005544758648233487,0.001511455230133851,-0.01426155620488698
-0.005544418648233487,0.001314543835843729,-0.01412990197386875
-0.005544078648233487,0.001347362401559048,-0.01923150342582097
-0.005543738648233487,0.001511455230133851,-0.01696046794076066
-0.005543398648233487,0.001609910927278912,-0.01518313582201458
-0.005543058648233487,0.001445818098703811,-0.01719086284504298
-0.005542718648233487,0.001445818098703811,-0.01742125774932446
-0.005542378648233487,0.001347362401558749,-0.01603888832363307
-0.005542038648233488,0.001511455230133553,-0.01340580370327329
-0.005541698648233487,0.001248906704413688,-0.0101802750433219
-0.005541358648233487,0.001248906704413688,-0.01307666812572293
-0.005541018648233488,0.001281725270128649,-0.01676298659422662
-0.005540678648233487,0.001183269572983647,-0.01373493928081407
-0.005540338648233487,0.001117632441553607,-0.01284627322144103
-0.005539998648233488,0.001183269572983528,-0.01327414947224949
-0.005539658648233487,0.001183269572983647,-0.01449195110916888
-0.005539318648233487,0.001511455230133851,-0.01429446976264154
-0.005538978648233488,0.001248906704414166,-0.01455777822467752
-0.005538638648233487,0.001084813875838697,-0.01590723409261484
-0.005538298648233487,0.001019176744408656,-0.01557809851506927
-0.005537958648233488,0.001117632441553427,-0.01682881370974016
-0.005537618648233487,0.00138018096727377,-0.01738834419156991
-0.005537278648233487,0.001248906704413688,-0.01669715947872421
-0.005536938648233488,0.001248906704413688,-0.01488691380222686
-0.005536598648233487,0.001281725270128709,-0.01600597476587851
-0.005536258648233487,0.000986358178693636,-0.01610471543914218
-0.005535918648233488,0.0007894467844038718,-0.0146565188979443
-0.005535578648233487,0.0007566282186884932,-0.01478817312895989
-0.005535238648233487,0.001216088138698668,-0.01465651889794167
-0.005534898648233488,0.00131454383584355,-0.01380076639632474
-0.005534558648233487,0.00138018096727377,-0.01350454437653217
-0.005534218648233487,0.001117632441553607,-0.01370202572305951
-0.005533878648233488,0.001314543835843371,-0.01241839697063412
-0.005533538648233487,0.00141299953298879,-0.01403116130060508
-0.005533198648233487,0.001577092361563892,-0.01472234601345078
-0.005532858648233488,0.001544273795848872,-0.01942898477235245
-0.005532518648233487,0.00138018096727377,-0.01844157803971573
-0.005532178648233487,0.001445818098703811,-0.01452486466692344
-0.005531838648233488,0.00138018096727377,-0.01416281553162331
-0.005531498648233487,0.001314543835843729,-0.01333997658775938
-0.005531158648233487,0.001642729492993933,-0.01867197294399764
-0.005530818648233488,0.001609910927278912,-0.01916567631031599
-0.005530478648233487,0.001314543835843729,-0.01617054255465129
-0.005530138648233487,0.001150451007268627,-0.01620345611240585
-0.005529798648233488,0.001150451007268627,-0.01738834419156991
-0.005529458648233487,0.0008879024815481569,-0.01577557986159852
-0.005529118648233487,0.000658172521543432,-0.01682881370974244
-0.005528778648233488,0.000986358178693636,-0.01745417130707902
-0.005528438648233487,0.001281725270128768,-0.0164996781321971
-0.005528098648233487,0.001314543835843729,-0.01663133236321509
-0.005527758648233488,0.001117632441553607,-0.01491982735997812
-0.005527418648233487,0.001183269572983767,-0.01570975274609067
-0.005527078648233487,0.001248906704413688,-0.01745417130707902
-0.005526738648233488,0.001183269572983647,-0.01636802390117864
-0.005526398648233487,0.001314543835843908,-0.0156439256305791
-0.005526058648233487,0.00141299953298879,-0.01603888832363307
-0.005525718648233487,0.001248906704413688,-0.01702629505626978
-0.005525378648233487,0.001117632441553786,-0.01505148159099653
-0.005525038648233487,0.001216088138698668,-0.01515022226426002
-0.005524698648233487,0.001084813875838697,-0.01511730870650547
-0.005524358648233487,0.001183269572983946,-0.0147881731289587
-0.005524018648233487,0.001347362401558749,-0.01412990197386875
-0.005523678648233487,0.001445818098703811,-0.009357436099457973
-0.005523338648233487,0.001117632441553965,-0.01482108668671817
-0.005522998648233487,0.001314543835843729,-0.01686172726749699
-0.005522658648233487,0.001183269572983647,-0.02331278458739018
-0.005522318648233487,0.001281725270127992,-0.03190322316134025
-0.005521978648233487,0.0008879024815485748,-0.03776183644164076
-0.005521638648233487,0.001281725270128709,-0.05691752705479299
-0.005521298648233487,0.00134736240155863,-0.08051654796486277
-0.005520958648233487,0.001281725270128709,-0.1092829974422934
-0.005520618648233487,0.001281725270128709,-0.1460474414541336
-0.005520278648233488,0.001248906704413748,-0.1739910519877018
-0.005519938648233487,0.0009207210472635952,-0.2012763913662805
-0.005519598648233487,0.001183269572983647,-0.2283313358405264
-0.005519258648233488,0.001478636664418294,-0.2498568026119676
-0.005518918648233487,0.001314543835843729,-0.2642400273507482
-0.005518578648233487,0.00138018096727377,-0.2735545641952879
-0.005518238648233488,0.001248906704413927,-0.2776358453568455
-0.005517898648233487,0.00138018096727377,-0.2764838708354435
-0.005517558648233487,0.00138018096727377,-0.2742786624658881
-0.005517218648233488,0.001281725270128888,-0.2707239982284024
-0.005516878648233487,0.001150451007268627,-0.2633184477336206
-0.005516538648233487,0.001248906704413688,-0.2558799836810907
-0.005516198648233488,0.001248906704413688,-0.2482111247242929
-0.005515858648233487,0.0008550839158335544,-0.2407068335562399
-0.005515518648233487,0.0007238096529734728,-0.2339924677743102
-0.005515178648233488,0.0008550839158333156,-0.2281667680517642
-0.005514838648233487,0.00141299953298879,-0.2197079837088325
-0.005514498648233487,0.001150451007268627,-0.2124011738873208
-0.005514158648233488,0.0009535396129789738,-0.2072008317621102
-0.005513818648233487,0.001347362401558749,-0.1999927626138527
-0.005513478648233487,0.001216088138698668,-0.1911061020201223
-0.005513138648233488,0.0008879024815491717,-0.1843917362382049
-0.005512798648233487,0.001117632441553607,-0.1764266552615898
-0.005512458648233487,0.00138018096727377,-0.1704034741925059
-0.005512118648233488,0.001183269572983647,-0.1670792048592956
-0.005511778648233487,0.001544273795848872,-0.1511161293483354
-0.005511438648233487,0.001806822321568924,-0.1447308991439514
-0.005511098648233488,0.001478636664418831,-0.1401230010583134
-0.005510758648233487,0.001019176744408656,-0.1375557435534579
-0.005510418648233487,0.001117632441553607,-0.1359429792234846
-0.005510078648233488,0.001314543835843729,-0.1307426370982646
-0.005509738648233487,0.001511455230133851,-0.1278462440158636
-0.005509398648233487,0.001117632441553607,-0.1240282713163349
-0.005509058648233488,0.000986358178693636,-0.1209673104451611
-0.005508718648233487,0.001150451007269104,-0.1165239801482878
-0.005508378648233487,0.00141299953298879,-0.1120806498514307
-0.005508038648233488,0.001117632441553607,-0.1094804787888207
-0.005507698648233487,0.001117632441553487,-0.1073081839770122
-0.005507358648233487,0.001051995310123677,-0.1030623350266821
-0.005507018648233488,0.001051995310123677,-0.1004950775218266
-0.005506678648233487,0.001117632441553965,-0.09921144876939386
-0.005506338648233487,0.001314543835843729,-0.09644670991801607
-0.005505998648233488,0.001150451007268627,-0.09252999654522379
-0.005505658648233487,0.001248906704413927,-0.09016022038689021
-0.005505318648233487,0.00138018096727377,-0.08716508663123099
-0.005504978648233488,0.001281725270128709,-0.0842357799910754
-0.005504638648233487,0.001314543835844326,-0.08252427498783184
-0.005504298648233487,0.001642729492993933,-0.07890378363483713
-0.005503958648233487,0.001478636664418831,-0.07498707026204485
-0.005503618648233487,0.001150451007268985,-0.07376926862512209
-0.005503278648233487,0.001347362401558749,-0.07149823314006179
-0.005502938648233487,0.00138018096727377,-0.06748277909400582
-0.005502598648233487,0.001019176744409612,-0.06580418764851875
-0.005502258648233487,0.001544273795848872,-0.06323693014366796
-0.005501918648233487,0.001445818098703811,-0.06346732504794986
-0.005501578648233487,0.001478636664418891,-0.05586429320664549
-0.005501238648233487,0.001511455230133851,-0.05494271358951957
-0.005500898648233487,0.001183269572983647,-0.0509272595434636
-0.005500558648233487,0.001150451007268926,-0.05431735599219142
-0.005500218648233487,0.001314543835843729,-0.05895816763557554
-0.005499878648233487,0.001445818098703811,-0.05448192378095577
-0.005499538648233488,0.001380180967273889,-0.05244128320017694
-0.005499198648233487,0.001478636664418831,-0.0534616034905645
-0.005498858648233487,0.001248906704413688,-0.05283624589322791
-0.005498518648233488,0.001248906704413688,-0.04967654434879618
-0.005498178648233487,0.001314543835843729,-0.04895244607819017
-0.005497838648233487,0.001281725270128709,-0.04733968174821687
-0.005497498648233488,0.001248906704413748,-0.04523321405192905
-0.005497158648233487,0.001117632441553607,-0.04414706664602484
-0.005496818648233487,0.001544273795848872,-0.04154689558341482
-0.005496478648233488,0.001544273795848872,-0.04029618038874393
-0.005496138648233487,0.00138018096727377,-0.03983539058017786
-0.005495798648233487,0.00138018096727377,-0.03970373634915963
-0.005495458648233488,0.001150451007269045,-0.03799223134592577
-0.005495118648233487,0.001478636664418831,-0.03789349067265899
-0.005494778648233487,0.001314543835843729,-0.03759726865286797
-0.005494438648233488,0.001150451007268925,-0.03595159076514311
-0.005494098648233487,0.001051995310123677,-0.03608324499615834
-0.005493758648233487,0.001117632441553607,-0.03572119586085822
-0.005493418648233488,0.0008879024815489926,-0.03282480277846245
-0.005493078648233487,0.001117632441553607,-0.03331850614477554
-0.005492738648233487,0.001019176744408656,-0.03127786556399301
-0.005492398648233488,0.001544273795847917,-0.02801942334629778
-0.005492058648233487,0.001675548058708842,-0.03055376729339275
-0.005491718648233487,0.001445818098703811,-0.03318685191375732
-0.005491378648233488,0.001150451007269164,-0.02525468449492348
-0.005491038648233487,0.001281725270128709,-0.02472806757083614
-0.005490698648233487,0.00138018096727377,-0.02640665901631855
-0.005490358648233488,0.001445818098703811,-0.02676870815161868
-0.005490018648233487,0.001281725270128709,-0.03065250796665642
-0.005489678648233487,0.001183269572983647,-0.03015880460033806
-0.005489338648233488,0.001150451007268627,-0.02739406574895527
-0.005488998648233487,0.001117632441553607,-0.02907265719443768
-0.005488658648233487,0.001117632441553607,-0.02973092834952882
-0.005488318648233488,0.001216088138698668,-0.02857895382811932
-0.005487978648233487,0.001183269572983289,-0.02611043699652802
-0.005487638648233487,0.000986358178693636,-0.026373745458564
-0.005487298648233488,0.001051995310123677,-0.02423436420451779
-0.005486958648233487,0.001216088138699026,-0.02311530324086326
-0.005486618648233487,0.00141299953298879,-0.02334569814514474
-0.005486278648233488,0.00141299953298879,-0.02235829141250803
-0.005485938648233487,0.00141299953298885,-0.02107466266008192
-0.005485598648233487,0.001445818098703811,-0.02196332871945334
-0.005485258648233488,0.001183269572983647,-0.02114048977558942
-0.005484918648233487,0.001248906704414166,-0.02002142881193513
-0.005484578648233487,0.001511455230133851,-0.0203834779472346
-0.005484238648233488,0.001478636664418831,-0.02143671179538043
-0.005483898648233487,0.001183269572983349,-0.02160127958415262
-0.005483558648233487,0.001019176744408656,-0.02127214400660764
-0.005483218648233487,0.001544273795848872,-0.0190011085215432
-0.005482878648233487,0.001577092361563713,-0.01857323227073372
-0.005482538648233487,0.001478636664418831,-0.01844157803971573
-0.005482198648233487,0.001183269572983647,-0.01995560169642536
-0.005481858648233487,0.001117632441553845,-0.02077844064029665
-0.005481518648233487,0.001248906704413688,-0.02482680824409981
-0.005481178648233487,0.001445818098703811,-0.02021891015846182
-0.005480838648233487,0.001380180967273591,-0.01462360534018741
-0.005480498648233487,0.001281725270128709,-0.01478817312895989
-0.005480158648233487,0.001117632441553607,-0.01913276275256143
-0.005479818648233487,0.000986358178693636,-0.02222663718148244
-0.005479478648233487,0.000986358178693636,-0.01817826957767928
-0.005479138648233487,0.001216088138698668,-0.01804661534666105
-0.005478798648233488,0.001183269572983707,-0.01778330688462507
-0.005478458648233487,0.001183269572983647,-0.01807952890441561
-0.005478118648233487,0.000986358178693636,-0.01798078823115194
-0.005477778648233488,0.0007238096529739504,-0.01903402207929585
-0.005477438648233487,0.001051995310123677,-0.01804661534666105
-0.005477098648233487,0.0009535396129786156,-0.01840866448196118
-0.005476758648233488,0.001051995310123498,-0.01988977458091355
-0.005476418648233487,0.001314543835843729,-0.01821118313543383
-0.005476078648233487,0.001314543835843729,-0.01998851525417992
-0.005475738648233488,0.001281725270128768,-0.01962646611888045
-0.005475398648233487,0.001445818098703811,-0.01939607121459789
-0.005475058648233487,0.00138018096727377,-0.0190011085215432
-0.005474718648233488,0.001314543835843848,-0.02035056438947759
-0.005474378648233487,0.001347362401558749,-0.01867197294399764
-0.005474038648233487,0.00141299953298879,-0.01781622044237915
-0.005473698648233488,0.001544273795848633,-0.01821118313543311
-0.005473358648233487,0.001806822321568924,-0.014557778224678
-0.005473018648233487,0.00138018096727377,-0.0138665935118323
-0.005472678648233488,0.0009863581786943524,-0.01521604937976668
-0.005472338648233487,0.0009535396129786156,-0.01580849341935116
-0.005471998648233487,0.000822265350118534,-0.01538061716854192
-0.005471658648233488,0.001248906704412912,-0.01742125774932075
-0.005471318648233487,0.001642729492993933,-0.02189750160394423
-0.005470978648233487,0.001609910927278912,-0.01597306120812395
-0.005470638648233488,0.001314543835844266,-0.01554518495731549
-0.005470298648233487,0.001183269572983647,-0.01396533418509597
-0.005469958648233487,0.001281725270128709,-0.0136361986075504
-0.005469618648233488,0.00141299953298879,-0.01949481188786156
-0.005469278648233487,0.00141299953298879,-0.02012016948519815
-0.005468938648233487,0.001248906704413688,-0.01538061716854192
-0.005468598648233488,0.001019176744408656,-0.01554518495731471
-0.005468258648233487,0.001281725270128709,-0.01669715947872421
-0.005467918648233487,0.001478636664418831,-0.01491982735997812
-0.005467578648233488,0.001248906704413688,-0.01554518495731471
-0.005467238648233487,0.001216088138698668,-0.01518313582201458
