Analysis/files/cmb03_d2s01/wrd07_ch09.csv

#Digilent WaveForms Oscilloscope Acquisition
#Device Name: ADP3450
#Serial Number: SN:210018B9D9B0
#Date Time: 2024-08-09 17:38:42.390.376.240
#Sample rate: 2.94118e+06Hz
#Samples: 32768
#Trigger: Source: Channel 3 Type: Edge Condition: Rising Level: 60 mV Hyst.: Auto HoldOff: 0 s
#Channel 3: Range: 200 mV/div Offset: -20 mV Attenuation: 1 X Coupling: DC Bandwidth: 0 Hz Sample Mode: Average

Time (s),Channel 3 (V)
-0.005570236209302326,0.009209707531601911
-0.005569896209302326,0.006346228006957418
-0.005569556209302326,0.007432375412855827
-0.005569216209302326,0.008386868587737984
-0.005568876209302326,0.008683090607528039
-0.005568536209302326,0.008156473683456083
-0.005568196209302326,0.008419782145492541
-0.005567856209302326,0.007531116086119199
-0.005567516209302326,0.007366548297346712
-0.005567176209302326,0.006905758488782913
-0.005566836209302326,0.00519425348555181
-0.005566496209302326,0.008419782145492541
-0.005566156209302326,0.007267807624083042
-0.005565816209302326,0.006280400891443934
-0.005565476209302326,0.004963858581264044
-0.005565136209302326,0.0052271670433005
-0.005564796209302326,0.003318180693533194
-0.005564456209302326,0.001672502805808333
-0.005564116209302326,0.002725736653954161
-0.005563776209302326,0.0008825774197006385
-0.005563436209302326,0.00180415703682656
-0.005563096209302326,0.002626995980690491
-0.005562756209302327,0.002363687518654511
-0.005562416209302326,0.0009154909774535189
-0.005562076209302326,0.0059183517561462
-0.005561736209302327,0.005391734832074243
-0.005561396209302326,0.007662770317137727
-0.005561056209302326,0.004535982330454802
-0.005560716209302327,-3.900219742031426e-05
-0.005560376209302326,0.001211712997244534
-0.005560036209302326,0.00249534174967226
-0.005559696209302327,0.001178799439492372
-0.005559356209302326,-0.0005327055637469914
-0.005559016209302326,0.0005534418421533904
-0.005558676209302327,0.001409194343770318
-0.005558336209302326,0.0004217876111351632
-0.005557996209302326,0.0007838367464352916
-0.005557656209302327,0.001672502805806716
-0.005557316209302326,0.002396601076408589
-0.005556976209302326,0.001771243479072003
-0.005556636209302327,0.002824477327215916
-0.005556296209302326,0.001376280786017318
-0.005555956209302326,0.0005205282843988336
-0.005555616209302327,0.0004876147266443366
-0.005555276209302326,-0.001125149603329021
-0.005554936209302326,-0.003231617299620675
-0.005554596209302327,-0.002112556335967772
-0.005554256209302326,-0.002408778355756747
-0.005553916209302326,-0.002145469893720293
-0.005553576209302327,-0.001717593642911051
-0.005553236209302326,-0.0009934953723107938
-0.005552896209302326,-0.0006314462370106654
-0.005552556209302326,0.0001584791490987052
-0.005552216209302326,-0.003429098646148019
-0.005551876209302326,0.001343367228262761
-0.005551536209302326,0.003811884059854546
-0.005551196209302326,0.004272673868413975
-0.005550856209302326,0.001869984152335677
-0.005550516209302326,-0.003856974896957261
-0.005550176209302326,-0.004646900283063938
-0.005549836209302326,-0.003165790184111561
-0.005549496209302326,-0.004120283358993719
-0.005549156209302326,-0.004679813840822326
-0.005548816209302326,-0.005305171438157775
-0.005548476209302326,-0.004844381629593972
-0.005548136209302326,-0.003198703741865998
-0.005547796209302326,-0.003132876626357004
-0.005547456209302326,-0.00237586479800219
-0.005547116209302326,-0.001059322487823559
-0.005546776209302326,-0.003067049510847891
-0.005546436209302326,-0.003165790184111561
-0.005546096209302326,-0.003593666434924216
-0.005545756209302326,-0.005469739226930559
-0.005545416209302326,-0.007740774711995
-0.005545076209302326,-0.006424232401813495
-0.005544736209302326,-0.006852108652621959
-0.005544396209302326,-0.007214157787922088
-0.005544056209302326,-0.0052393443226477
-0.005543716209302326,-0.004712727398575745
-0.005543376209302326,-0.004712727398575745
-0.005543036209302326,-0.003626579992672486
-0.005542696209302326,-0.002046729220456619
-0.005542356209302326,-0.00362657999267536
-0.005542016209302327,-0.003856974896956842
-0.005541676209302326,-0.007905342500767784
-0.005541336209302326,-0.002737913933302319
-0.005540996209302327,-0.002277124124739358
-0.005540656209302326,-0.0008289275835380062
-0.005540316209302326,-0.002211297009229406
-0.005539976209302327,-0.008234478078302399
-0.005539636209302326,-0.0063584052863036
-0.005539296209302326,-0.004778554514084859
-0.005538956209302327,-0.004449418936539886
-0.005538616209302326,-0.003165790184111561
-0.005538276209302326,-0.003067049510847891
-0.005537936209302327,-0.0004339648904881106
-0.005537596209302326,0.002626995980690491
-0.005537256209302326,0.0005205282843988336
-0.005536916209302327,-0.004350678263266756
-0.005536576209302326,-0.003067049510847891
-0.005536236209302326,-0.003824061339202704
-0.005535896209302327,-0.004679813840819631
-0.005535556209302326,-0.002902481722075106
-0.005535216209302326,-0.002573346144529535
-0.005534876209302327,-0.00165176652740361
-0.005534536209302326,-0.001717593642911051
-0.005534196209302326,-0.001618852969647377
-0.005533856209302327,-0.004548159609797633
-0.005533516209302326,-0.004515246052048404
-0.005533176209302326,-0.004679813840821188
-0.005532836209302327,-0.004844381629593972
-0.005532496209302326,-0.005864701919985244
-0.005532156209302326,-0.004581073167557518
-0.005531816209302327,-0.005041862976121317
-0.005531476209302326,-0.008234478078313356
-0.005531136209302326,-0.0063584052863036
-0.005530796209302326,-0.00296830883758422
-0.005530456209302326,-0.003132876626357004
-0.005530116209302326,-0.0008947546990471199
-0.005529776209302326,-0.005634307015703346
-0.005529436209302326,-0.009682674619507763
-0.005529096209302326,-0.006325491728549043
-0.005528756209302326,-0.005206430764894101
-0.005528416209302326,-0.005370998553664494
-0.005528076209302326,-0.004054456243484602
-0.005527736209302326,-0.004186110474502833
-0.005527396209302326,-0.004087369801238145
-0.005527056209302326,-0.003527839319411689
-0.005526716209302326,-0.004712727398575745
-0.005526376209302326,-0.006654627306094315
-0.005526036209302326,-0.006490059517321831
-0.005525696209302326,-0.005338084995912332
-0.005525356209302326,-0.005469739226929122
-0.005525016209302326,-0.004679813840821188
-0.005524676209302326,-0.00500894941836676
-0.005524336209302326,-0.00388988845471098
-0.005523996209302326,-0.003429098646148019
-0.005523656209302326,-0.003527839319411689
-0.005523316209302326,-0.0072141577879346
-0.005522976209302326,-0.01409309135862452
-0.005522636209302326,-0.0234734553186733
-0.005522296209302326,-0.0426291459318705
-0.005521956209302326,-0.06734722780549793
-0.005521616209302326,-0.09700234334235389
-0.005521276209302326,-0.1286980994600586
-0.005520936209302326,-0.1651004943365325
-0.005520596209302326,-0.1877779356294224
-0.005520256209302327,-0.210850339615325
-0.005519916209302326,-0.2313225725387014
-0.005519576209302326,-0.2436980702544149
-0.005519236209302327,-0.2549874205642075
-0.005518896209302326,-0.2585420848017201
-0.005518556209302326,-0.2561723086433921
-0.005518216209302327,-0.2518935461353074
-0.005517876209302326,-0.2484376225710712
-0.005517536209302326,-0.2416903432313869
-0.005517196209302327,-0.2359962977398589
-0.005516856209302326,-0.2285578336873186
-0.005516516209302326,-0.2200332222288884
-0.005516176209302327,-0.2130555479849349
-0.005515836209302326,-0.2068677991270655
-0.005515496209302326,-0.2002521740183995
-0.005515156209302327,-0.1918263032332482
-0.005514816209302326,-0.1866588746657674
-0.005514476209302326,-0.1794508055175194
-0.005514136209302327,-0.1723743906003025
-0.005513796209302326,-0.1657587654916237
-0.005513456209302326,-0.1595381030760124
-0.005513116209302327,-0.1538440575844844
-0.005512776209302326,-0.1471296918025443
-0.005512436209302326,-0.1441016444891251
-0.005512096209302327,-0.1349845889911128
-0.005511756209302326,-0.1306729129252658
-0.005511416209302326,-0.1260321012818733
-0.005511076209302327,-0.1215229438694989
-0.005510736209302326,-0.1202064015593166
-0.005510396209302326,-0.1178366254009885
-0.005510056209302326,-0.1068434971109665
-0.005509716209302326,-0.1017748092167647
-0.005509376209302326,-0.09881258901885451
-0.005509036209302326,-0.09591619593645348
-0.005508696209302326,-0.09591619593644504
-0.005508356209302326,-0.09127538429306095
-0.005508016209302326,-0.08712827601598674
-0.005507676209302326,-0.08584464726355583
-0.005507336209302326,-0.08410022870256748
-0.005506996209302326,-0.0816317118709757
-0.005506656209302326,-0.07926193571264507
-0.005506316209302326,-0.07787956628695619
-0.005505976209302326,-0.07541104945536442
-0.005505636209302326,-0.07175764454460419
-0.005505296209302326,-0.06935495482852591
-0.005504956209302326,-0.06609651261082475
-0.005504616209302326,-0.06185066366048329
-0.005504276209302326,-0.05987585019521346
-0.005503936209302326,-0.05734150624811257
-0.005503596209302326,-0.05592622326465953
-0.005503256209302326,-0.05204242344962886
-0.005502916209302326,-0.05276652172022912
-0.005502576209302326,-0.05112084383249977
-0.005502236209302326,-0.05029800488863734
-0.005501896209302326,-0.04970556084905531
-0.005501556209302326,-0.04756617959500863
-0.005501216209302326,-0.04730287113297264
-0.005500876209302326,-0.04677625420889973
-0.005500536209302326,-0.04552553901422494
-0.005500196209302326,-0.04463687295485352
-0.005499856209302326,-0.04111512227511591
-0.005499516209302327,-0.03617808861194132
-0.005499176209302326,-0.03387413956911334
-0.005498836209302326,-0.03173475831506713
-0.005498496209302327,-0.03433492937767241
-0.005498156209302326,-0.03407162091564069
-0.005497816209302326,-0.03041821600488485
-0.005497476209302327,-0.028509229655124
-0.005497136209302326,-0.02752182292248382
-0.005496796209302326,-0.02689646532514724
-0.005496456209302327,-0.02600779926577581
-0.005496116209302326,-0.02462542984008279
-0.005495776209302326,-0.02636984840107432
-0.005495436209302327,-0.02742308224921824
-0.005495096209302326,-0.02617236705454698
-0.005494756209302326,-0.02768639071125661
-0.005494416209302327,-0.02798261273104708
-0.005494076209302326,-0.02548118234170128
-0.005493736209302326,-0.02577740436149229
-0.005493396209302327,-0.02373676378071347
-0.005493056209302326,-0.02291392483684582
-0.005492716209302326,-0.01962256906139011
-0.005492376209302327,-0.01906303857956366
-0.005492036209302326,-0.01261198125966945
-0.005491696209302326,-0.01754901492285302
-0.005491356209302327,-0.01389561001210383
-0.005491016209302326,-0.01234867279763299
-0.005490676209302326,-0.01057134067888691
-0.005490336209302327,-0.009616847504004756
-0.005489996209302326,-0.0109663033719416
-0.005489656209302326,-0.01330316597251515
-0.005489316209302326,-0.008859835675649942
-0.005488976209302326,-0.009287711926459184
-0.005488636209302326,-0.009452279715231968
-0.005488296209302326,-0.01070299490990514
-0.005487956209302326,-0.01606790482389711
-0.005487616209302326,-0.01560711501533415
-0.005487276209302326,-0.01317151174149692
-0.005486936209302326,-0.01478427607146746
-0.005486596209302326,-0.01327025241476059
-0.005486256209302326,-0.01327025241476059
-0.005485916209302326,-0.01254615414415938
-0.005485576209302326,-0.01201953722008742
-0.005485236209302326,-0.01185496943131464
-0.005484896209302326,-0.01152583385376751
-0.005484556209302326,-0.01067008135215058
-0.005484216209302326,-0.01106504404520527
-0.005483876209302326,-0.01188788298906758
-0.005483536209302326,-0.01099921692969615
-0.005483196209302326,-0.0102751186590959
-0.005482856209302326,-0.01060425423664099
-0.005482516209302326,-0.01034094577460501
-0.005482176209302326,-0.009485193272986525
-0.005481836209302326,-0.009353539041964466
-0.005481496209302326,-0.007247071345676644
-0.005481156209302326,-0.006391318844058157
-0.005480816209302326,-0.007839515385258072
-0.005480476209302326,-0.007510379807713099
-0.005480136209302326,-0.007312898461185758
-0.005479796209302326,-0.007839515385270465
-0.005479456209302326,-0.01432348626290642
-0.005479116209302326,-0.0121182778933511
-0.005478776209302327,-0.008497786540356399
-0.005478436209302326,-0.00783951538525867
-0.005478096209302326,-0.005272257880403218
-0.005477756209302327,-0.008267391636062464
-0.005477416209302326,-0.01083464914092337
-0.005477076209302326,-0.005305171438157775
-0.005476736209302327,-0.003725320665941907
-0.005476396209302326,-0.005601393457948786
-0.005476056209302326,-0.003198703741866118
-0.005475716209302327,-0.004383591821028018
-0.005475376209302326,-0.003593666434920803
-0.005475036209302326,-0.004284851147766503
-0.005474696209302327,-0.004548159609802482
-0.005474356209302326,-0.005305171438157775
-0.005474016209302326,-0.006193837497530816
-0.005473676209302327,-0.006226751055285313
-0.005473336209302326,-0.008234478078313356
-0.005472996209302326,-0.007576206923222212
-0.005472656209302327,-0.007378725576695231
-0.005472316209302326,-0.006555886632830944
-0.005471976209302326,-0.006029269708758032
-0.005471636209302327,-0.004581073167560152
-0.005471296209302326,-0.004646900283066632
-0.005470956209302326,-0.005930529035494358
-0.005470616209302327,-0.004153196916751509
-0.005470276209302326,-0.005370998553666888
-0.005469936209302326,-0.007279984903431201
-0.005469596209302327,-0.006885022210376516
-0.005469256209302326,-0.006095096824267145
-0.005468916209302326,-0.01020929154358678
-0.005468576209302327,-0.007872428943013227
-0.005468236209302326,-0.002112556335965736
-0.005467896209302326,-0.001783420758420164
-0.005467556209302326,0.0005534418421533904
-0.005467216209302326,-0.003791147781448147
-0.005466876209302326,-0.005502652784685116
-0.005466536209302326,-0.001717593642911051
-0.005466196209302326,-0.001223890276597481
-0.005465856209302326,-0.003856974896957261
-0.005465516209302326,-0.003264530857375231
-0.005465176209302326,-0.00323161729962295
-0.005464836209302326,-0.004482332494293848
-0.005464496209302326,-0.004548159609802961
-0.005464156209302326,-0.003856974896959596
-0.005463816209302326,-0.005140603649384987
-0.005463476209302326,-0.007016676441394743
-0.005463136209302326,-0.005700134131214316
-0.005462796209302326,-0.006720454421603728
-0.005462456209302326,-0.006555886632830944
-0.005462116209302326,-0.004317764705522437
-0.005461776209302326,-0.005074776533875874
-0.005461436209302326,-0.004943122302857646
-0.005461096209302326,-0.003955715570220932
-0.005460756209302326,-0.003955715570220932
-0.005460416209302326,-0.006325491728549043
-0.005460076209302326,-0.004548159609801703
-0.005459736209302326,-0.003856974896957261
-0.005459396209302326,-0.004350678263275617
-0.005459056209302326,-0.002145469893721909
-0.005458716209302326,-0.003034135953093334
-0.005458376209302326,-0.006391318844058157
-0.005458036209302326,0.001606675690299758
-0.005457696209302326,0.001902897710090234
-0.005457356209302326,0.0007509231886807348
-0.005457016209302327,-0.001059322487816615
-0.005456676209302326,-0.006325491728549043
-0.005456336209302326,-0.007576206923222212
-0.005455996209302327,-0.006029269708760845
-0.005455656209302326,-0.007279984903431201
-0.005455316209302326,-0.007082503556903857
-0.005454976209302327,-0.006588800190586399
-0.005454636209302326,-0.005272257880403218
-0.005454296209302326,-0.004186110474502833
-0.005453956209302327,-0.003725320665939872
-0.005453616209302326,-0.002737913933302319
-0.005453276209302326,-0.00362657999267536
-0.005452936209302327,-0.003462012203902875
-0.005452596209302326,-0.002935395279829663
-0.005452256209302326,-0.003758234223693591
-0.005451916209302327,-0.005140603649382473
-0.005451576209302326,-0.004646900283066632
-0.005451236209302326,-0.00500894941836676
-0.005450896209302327,-0.007378725576690561
-0.005450556209302326,-0.006062183266512589
-0.005450216209302326,-0.005897615477739801
-0.005449876209302327,-0.008234478078309106
-0.005449536209302326,-0.0063584052863036
-0.005449196209302326,-0.006687540863849172
-0.005448856209302327,-0.007049589999148642
-0.005448516209302326,-0.0084319594248407
-0.005448176209302326,-0.01020929154358678
-0.005447836209302327,-0.01251324058640578
-0.005447496209302326,-0.003692407108184477
-0.005447156209302326,-0.00421902403225739
-0.005446816209302326,-0.008563613655858927
-0.005446476209302326,-0.0008618411412925631
-0.005446136209302326,-0.003132876626357004
-0.005445796209302326,-0.005535566342439673
-0.005445456209302326,-0.005502652784680984
-0.005445116209302326,-0.003231617299620675
-0.005444776209302326,-0.004712727398575745
-0.005444436209302326,-0.005469739226927566
-0.005444096209302326,-0.003824061339202704
-0.005443756209302326,-0.002507519029020421
-0.005443416209302326,-0.001618852969646718
-0.005443076209302326,-0.001256803834347248
-0.005442736209302326,-0.002672086817793205
-0.005442396209302326,-0.004613986725311117
-0.005442056209302326,-0.004087369801239162
-0.005441716209302326,-0.004284851147766503
-0.005441376209302326,-0.006819195094867223
-0.005441036209302326,-0.006720454421603728
-0.005440696209302326,-0.005469739226930559
-0.005440356209302326,-0.005798874804477208
-0.005440016209302326,-0.006391318844058157
-0.005439676209302326,-0.006226751055285373
-0.005439336209302326,-0.006852108652618127
-0.005438996209302326,-0.004745640956330302
-0.005438656209302326,-0.00510769009163043
-0.005438316209302326,-0.004910208745103329
-0.005437976209302326,-0.005041862976121317
-0.005437636209302326,-0.006325491728549043
-0.005437296209302326,-0.002737913933305971
-0.005436956209302326,-0.004745640956330302
-0.005436616209302326,-0.003856974896957261
-0.005436276209302327,-0.002639173260040864
-0.005435936209302326,-0.007971169616276898
-0.005435596209302326,-0.007971169616276898
-0.005435256209302327,-0.005634307015707597
-0.005434916209302326,-0.005897615477739801
-0.005434576209302326,-0.004482332494293848
-0.005434236209302327,-0.004120283358994377
-0.005433896209302326,-0.001158063161083578
-0.005433556209302326,-0.001388458065365479
-0.005433216209302327,-0.0003681377749760633
-0.005432876209302326,-0.0007301869102743358
-0.005432536209302326,-0.0008289275835380062
-0.005432196209302327,-0.002737913933298846
-0.005431856209302326,-0.005074776533875874
-0.005431516209302326,-0.003198703741866118
-0.005431176209302327,-0.004646900283063997
-0.005430836209302326,-0.005568479900194229
-0.005430496209302326,-0.007115417114658414
-0.005430156209302327,-0.005436825669179055
-0.005429816209302326,-0.006193837497530816
-0.005429476209302326,-0.006457145959567274
-0.005429136209302327,-0.005403912111423361
-0.005428796209302326,-0.006226751055285373
-0.005428456209302326,-0.005239344322648658
-0.005428116209302327,-0.004646900283067709
-0.005427776209302326,-0.004284851147766503
-0.005427436209302326,-0.008168650962804242
-0.005427096209302327,-0.008300305193822469
-0.005426756209302326,-0.001816334316174721
-0.005426416209302326,-0.004120283358993719
-0.005426076209302327,-0.001454285180874593
-0.005425736209302326,-0.003692407108184477
-0.005425396209302326,-0.005765961246721574
-0.005425056209302326,-0.003429098646148019
-0.005424716209302326,-0.0005985326792561085
-0.005424376209302326,-0.001651766527401934
-0.005424036209302326,-0.0005327055637469914
-0.005423696209302326,0.000125565591339718
-0.005423356209302326,-0.002310037682493077
-0.005423016209302326,-0.003165790184111561
-0.005422676209302326,-0.005008949418370951
-0.005422336209302326,-0.007312898461185758
-0.005421996209302326,-0.007773688269749557
-0.005421656209302326,-0.00777368826975273
-0.005421316209302326,-0.009518106830741082
-0.005420976209302326,-0.008102823847295128
-0.005420636209302326,-0.007839515385257652
-0.005420296209302326,-0.007279984903431201
-0.005419956209302326,-0.007181244230167527
-0.005419616209302326,-0.005798874804474095
-0.005419276209302326,-0.004679813840821188
-0.005418936209302326,-0.006095096824267145
-0.005418596209302326,-0.004844381629593733
-0.005418256209302326,-0.004712727398575745
-0.005417916209302326,-0.004449418936539287
-0.005417576209302326,-0.004251937590013683
