Analysis/files/cmb03_d2s01/wrd02_ch34.csv

#Digilent WaveForms Oscilloscope Acquisition
#Device Name: ADP3450
#Serial Number: SN:210018B9D9B0
#Date Time: 2024-08-09 12:10:41.380.352.230
#Sample rate: 2.94118e+06Hz
#Samples: 32768
#Trigger: Source: Channel 3 Type: Edge Condition: Rising Level: 20 mV Hyst.: Auto HoldOff: 0 s
#Channel 3: Range: 200 mV/div Offset: 0 V Attenuation: 1 X Coupling: DC Bandwidth: 0 Hz Sample Mode: Average

Time (s),Channel 3 (V)
-0.005570241215106733,0.002886407385237271
-0.005569901215106732,0.003544678540331647
-0.005569561215106733,0.005322010659074497
-0.005569221215106733,0.01147684595917668
-0.005568881215106732,0.003742159886858749
-0.005568541215106733,0.005387837774583611
-0.005568201215106733,0.004762480177247026
-0.005567861215106732,0.001734432863826695
-0.005567521215106733,0.001141988824245744
-0.005567181215106733,-0.0009315653142913533
-0.005566841215106732,-0.002050626277946654
-0.005566501215106733,-0.002248107624473638
-0.005566161215106733,-0.003795044838937822
-0.005565821215106732,-0.004552056667293893
-0.005565481215106733,-0.005243241380138334
-0.005565141215106733,-0.0005366026212366681
-0.005564801215106732,-0.002675983875276354
-0.005564461215106732,0.0009115939199638446
-0.005564121215106733,-0.0007999110832731249
-0.005563781215106732,-0.006000253208489136
-0.005563441215106732,-0.003795044838937822
-0.005563101215106733,-0.00244558897100098
-0.005562761215106733,-0.00626356167052266
-0.005562421215106732,-0.006395215901547833
-0.005562081215106733,-0.003729217723428708
-0.005561741215106733,-0.00524324138013558
-0.005561401215106732,-0.005078673591365549
-0.005561061215106733,-0.005045760033610991
-0.005560721215106733,-0.004914105802593003
-0.005560381215106732,-0.005111587149120106
-0.005560041215106733,-0.002708897433037437
-0.005559701215106733,-0.003432995703636376
-0.005559361215106732,-0.005539463399929348
-0.005559021215106733,-0.002873465221810222
-0.005558681215106733,-0.003992526185463129
-0.005558341215106732,-0.005835685419720362
-0.005558001215106733,-0.007349709076429989
-0.005557661215106733,-0.007547190422956973
-0.005557321215106732,-0.008534597155594046
-0.005556981215106733,-0.008633337828857716
-0.005556641215106733,-0.009620744561492634
-0.005556301215106732,-0.01106894110269494
-0.005555961215106733,-0.009423263214967087
-0.005555621215106733,-0.009456176772721583
-0.005555281215106732,-0.01561101207282382
-0.005554941215106733,-0.01182595293104976
-0.005554601215106733,-0.006559783690330198
-0.005554261215106732,-0.008435856482330374
-0.005553921215106733,-0.007514276865202775
-0.005553581215106733,-0.01251713764389546
-0.005553241215106732,-0.01459069178243255
-0.005552901215106733,-0.01307666812572293
-0.005552561215106733,-0.0124842240861409
-0.005552221215106732,-0.0150185680332418
-0.005551881215106733,-0.01617054255465129
-0.005551541215106733,-0.01399824774285052
-0.005551201215106732,-0.0156768391883315
-0.005550861215106733,-0.01488691380222357
-0.005550521215106733,-0.01376785283856862
-0.005550181215106732,-0.0142615562048856
-0.005549841215106733,-0.01350454437653217
-0.005549501215106733,-0.01162847158452241
-0.005549161215106732,-0.01123350889147168
-0.005548821215106733,-0.0134058037032685
-0.005548481215106733,-0.01080563264065849
-0.005548141215106732,-0.01008153437005925
-0.005547801215106733,-0.0106410648518857
-0.005547461215106733,-0.01031192927434013
-0.005547121215106732,-0.009884053023533939
-0.005546781215106733,-0.0115626444690133
-0.005546441215106733,-0.01090437331392216
-0.005546101215106732,-0.01090437331392539
-0.005545761215106733,-0.01268170543266824
-0.005545421215106733,-0.01123350889146773
-0.005545081215106732,-0.01073980552515769
-0.005544741215106733,-0.01531479005303281
-0.005544401215106733,-0.01304375456796837
-0.005544061215106732,-0.007185141287659658
-0.005543721215106732,-0.008534597155594046
-0.005543381215106733,-0.008106720904784802
-0.005543041215106732,-0.01080563264066393
-0.005542701215106732,-0.01380076639632318
-0.005542361215106733,-0.01310958168347748
-0.005542021215106733,-0.01261587831716002
-0.005541681215106732,-0.01459069178243255
-0.005541341215106733,-0.01518313582201458
-0.005541001215106733,-0.01347163081878073
-0.005540661215106732,-0.01429446976264154
-0.005540321215106733,-0.01538061716854192
-0.005539981215106733,-0.01432738332039801
-0.005539641215106732,-0.0131754087989866
-0.005539301215106733,-0.01488691380222357
-0.005538961215106733,-0.0144590375514151
-0.005538621215106732,-0.01215508850859533
-0.005538281215106733,-0.01255005120165001
-0.005537941215106733,-0.01123350889147012
-0.005537601215106732,-0.0101802750433219
-0.005537261215106733,-0.01113476821820406
-0.005536921215106733,-0.01139807668024003
-0.005536581215106732,-0.009884053023530886
-0.005536241215106733,-0.01090437331392216
-0.005535901215106733,-0.01192469360431157
-0.005535561215106732,-0.01129933600697684
-0.005535221215106733,-0.01284627322144103
-0.005534881215106733,-0.01307666812572251
-0.005534541215106732,-0.01370202572305951
-0.005534201215106733,-0.01765165265360636
-0.005533861215106733,-0.01179303937330585
-0.005533521215106732,-0.01116768177595861
-0.005533181215106733,-0.01083854619841304
-0.005532841215106733,-0.01488691380222357
-0.005532501215106732,-0.01715794928728801
-0.005532161215106733,-0.01722377640279712
-0.005531821215106733,-0.01620345611240585
-0.005531481215106732,-0.01472234601345078
-0.005531141215106733,-0.01482108668671445
-0.005530801215106733,-0.01508439514875091
-0.005530461215106732,-0.01360328504979584
-0.005530121215106733,-0.01278044610593191
-0.005529781215106733,-0.01528187649527825
-0.005529441215106732,-0.01557809851506723
-0.005529101215106733,-0.01445903755141432
-0.005528761215106733,-0.01557809851506927
-0.005528421215106732,-0.0146236053401849
-0.005528081215106733,-0.0134058037032685
-0.005527741215106733,-0.01347163081877761
-0.005527401215106732,-0.013669112165304
-0.005527061215106733,-0.01314249524123204
-0.005526721215106733,-0.009982793696794558
-0.005526381215106732,-0.01294501389470679
-0.005526041215106733,-0.0140969884161142
-0.005525701215106733,-0.01584140697710572
-0.005525361215106732,-0.01646676457443973
-0.005525021215106733,-0.01505148159099635
-0.005524681215106733,-0.01508439514875091
-0.005524341215106732,-0.01567683918833827
-0.005524001215106733,-0.01860614582848852
-0.005523661215106733,-0.01834283736645206
-0.005523321215106732,-0.01251713764389815
-0.005522981215106732,-0.01399824774285052
-0.005522641215106733,-0.01663133236321509
-0.005522301215106732,-0.02834855892386724
-0.005521961215106732,-0.04473951068560687
-0.005521621215106733,-0.06129503023614909
-0.005521281215106732,-0.08792209845964116
-0.005520941215106732,-0.1183671393825511
-0.005520601215106733,-0.1488121803055164
-0.005520261215106733,-0.1801788008455523
-0.005519921215106732,-0.2078920164749465
-0.005519581215106733,-0.226948966414835
-0.005519241215106733,-0.2423854250016942
-0.005518901215106732,-0.251699961846262
-0.005518561215106733,-0.2538064295425536
-0.005518221215106733,-0.2529506770409367
-0.005517881215106732,-0.2472237179916422
-0.005517541215106733,-0.238172489609139
-0.005517201215106733,-0.2297137052662332
-0.005516861215106732,-0.2230980801575518
-0.005516521215106733,-0.2142772466793305
-0.005516181215106733,-0.208155324936994
-0.005515841215106732,-0.2049956233925454
-0.005515501215106733,-0.201013082904244
-0.005515161215106733,-0.1992357507855012
-0.005514821215106732,-0.1957469136635149
-0.005514481215106733,-0.1928176070233593
-0.005514141215106733,-0.190744052884826
-0.005513801215106732,-0.1903820037495221
-0.005513461215106733,-0.1910731884623678
-0.005513121215106733,-0.1812649482515276
-0.005512781215106732,-0.1771507535321901
-0.005512441215106733,-0.1715554487139154
-0.005512101215106733,-0.1667500692817501
-0.005511761215106732,-0.1675070811101049
-0.005511421215106733,-0.1624054796581485
-0.005511081215106733,-0.1542100037772638
-0.005510741215106732,-0.1512806971371082
-0.005510401215106733,-0.1470019346290158
-0.005510061215106733,-0.1401559146160679
-0.005509721215106732,-0.1357784114347118
-0.005509381215106733,-0.1323883149859924
-0.005509041215106733,-0.127517108438318
-0.005508701215106732,-0.1227446425639023
-0.005508361215106733,-0.1200457308280335
-0.005508021215106733,-0.1165239801482959
-0.005507681215106732,-0.1134959328348725
-0.005507341215106733,-0.1112248973498122
-0.005507001215106733,-0.1070448755149835
-0.005506661215106732,-0.1043788773368612
-0.005506321215106733,-0.1026673723336274
-0.005505981215106733,-0.09894814030736243
-0.005505641215106732,-0.09437315577947807
-0.005505301215106733,-0.09387945241316062
-0.005504961215106733,-0.090357701733423
-0.005504621215106732,-0.08693469172694589
-0.005504281215106733,-0.08519027316595754
-0.005503941215106733,-0.08084568354235602
-0.005503601215106732,-0.07709353795833358
-0.005503261215106733,-0.0754807736283632
-0.005502921215106733,-0.07623778545671803
-0.005502581215106732,-0.06415850976079461
-0.005502241215106733,-0.06363189283672263
-0.005501901215106733,-0.06139377090941276
-0.005501561215106732,-0.06004431504148538
-0.005501221215106732,-0.06524465716669595
-0.005500881215106733,-0.06103172177411263
-0.005500541215106732,-0.05764162532539241
-0.005500201215106732,-0.05718083551682945
-0.005499861215106733,-0.05780619311416604
-0.005499521215106733,-0.05402113397239885
-0.005499181215106732,-0.05309955435526437
-0.005498841215106733,-0.05221088829589133
-0.005498501215106733,-0.0489853596359506
-0.005498161215106732,-0.047701730883517
-0.005497821215106733,-0.04671432415088029
-0.005497481215106733,-0.04503573270540093
-0.005497141215106732,-0.04269887010482432
-0.005496801215106733,-0.04269887010482432
-0.005496461215106733,-0.04026326683099153
-0.005496121215106732,-0.03838719403897734
-0.005495781215106733,-0.03976956346466874
-0.005495441215106733,-0.03894672452080631
-0.005495101215106732,-0.03743270086409518
-0.005494761215106733,-0.03786057711490443
-0.005494421215106733,-0.03848593471223988
-0.005494081215106732,-0.0368073432667586
-0.005493741215106733,-0.03532623316780353
-0.005493401215106733,-0.03437173999292311
-0.005493061215106732,-0.03226527229662972
-0.005492721215106733,-0.03578702297636733
-0.005492381215106733,-0.03163991469930068
-0.005492041215106732,-0.0254521658414364
-0.005491701215106733,-0.02584712853449108
-0.005491361215106733,-0.02436601843553871
-0.005491021215106732,-0.02634083190080944
-0.005490681215106733,-0.02584712853449108
-0.005490341215106733,-0.02301656256759917
-0.005490001215106732,-0.02285199477882639
-0.005489661215106733,-0.0233786117028993
-0.005489321215106733,-0.02551799295694551
-0.005488981215106732,-0.02466224045532703
-0.005488641215106733,-0.02528759805266361
-0.005488301215106733,-0.02696618949814603
-0.005487961215106732,-0.02607752343877293
-0.005487621215106733,-0.02604460988101842
-0.005487281215106733,-0.0277561148842554
-0.005486941215106732,-0.02637374545855993
-0.005486601215106733,-0.02413562353125412
-0.005486261215106733,-0.02357609304942664
-0.005485921215106732,-0.02245703208576739
-0.005485581215106733,-0.02008725592744359
-0.005485241215106733,-0.02054804573600739
-0.005484901215106732,-0.02137088467986869
-0.005484561215106733,-0.0199226881386708
-0.005484221215106733,-0.02071261352478018
-0.005483881215106732,-0.01630219678567575
-0.005483541215106733,-0.01972520679214346
-0.005483201215106733,-0.02209498295047157
-0.005482861215106732,-0.02272034054780924
-0.005482521215106733,-0.02331278458739018
-0.005482181215106733,-0.02953344700300148
-0.005481841215106732,-0.02242411852801176
-0.005481501215106733,-0.01946189833010701
-0.005481161215106733,-0.01735543063381535
-0.005480821215106732,-0.01883654073277467
-0.005480481215106732,-0.02117340333334397
-0.005480141215106733,-0.01890236784827953
-0.005479801215106732,-0.0172566899605524
-0.005479461215106732,-0.01765165265360636
-0.005479121215106733,-0.01751999842258814
-0.005478781215106733,-0.01821118313543258
-0.005478441215106732,-0.01778330688462459
-0.005478101215106733,-0.01676298659423332
-0.005477761215106733,-0.0182770102509402
-0.005477421215106732,-0.0185403187129794
-0.005477081215106733,-0.01847449159747029
-0.005476741215106733,-0.01847449159747029
-0.005476401215106732,-0.01821118313543383
-0.005476061215106733,-0.01686172726749699
-0.005475721215106733,-0.01775039332686842
-0.005475381215106732,-0.01794787467339738
-0.005475041215106733,-0.01491982735997812
-0.005474701215106733,-0.01373493928081622
-0.005474361215106732,-0.0159401476503694
-0.005474021215106733,-0.01600597476587851
-0.005473681215106733,-0.01584140697710602
-0.005473341215106732,-0.01686172726749699
-0.005473001215106733,-0.01781622044237915
-0.005472661215106733,-0.01900110852154105
-0.005472321215106732,-0.01949481188786156
-0.005471981215106733,-0.02025182371621638
-0.005471641215106733,-0.02193041516169573
-0.005471301215106732,-0.01534770361078737
-0.005470961215106733,-0.0140969884161142
-0.005470621215106733,-0.01136516312249092
-0.005470281215106732,-0.01195760716206798
-0.005469941215106733,-0.0140969884161142
-0.005469601215106733,-0.01287918677919558
-0.005469261215106732,-0.0108714597561676
-0.005468921215106733,-0.01169429870003153
-0.005468581215106733,-0.009982793696794558
-0.005468241215106732,-0.01060815129413114
-0.005467901215106733,-0.01208926139308621
-0.005467561215106733,-0.01129933600697684
-0.005467221215106732,-0.01258296475940457
-0.005466881215106733,-0.01462360534018711
-0.005466541215106733,-0.01412990197386875
-0.005466201215106732,-0.01620345611240795
-0.005465861215106733,-0.01735543063381535
-0.005465521215106733,-0.01482108668671445
-0.005465181215106732,-0.01366911216530627
-0.005464841215106733,-0.01439321043590521
-0.005464501215106733,-0.01255005120165001
-0.005464161215106732,-0.0110031139871884
-0.005463821215106733,-0.01241839697063178
-0.005463481215106733,-0.01189178004655887
-0.005463141215106732,-0.01241839697063214
-0.005462801215106733,-0.01261587831715913
-0.005462461215106733,-0.01251713764389546
-0.005462121215106732,-0.01241839697063316
-0.005461781215106733,-0.0131754087989866
-0.005461441215106733,-0.0185403187129794
-0.005461101215106732,-0.01162847158452235
-0.005460761215106733,-0.01159555802676786
-0.005460421215106733,-0.01083854619841304
-0.005460081215106732,-0.008863732733149254
-0.005459741215106732,-0.01416281553162331
-0.005459401215106733,-0.01633511034342408
-0.005459061215106732,-0.01495274091773184
-0.005458721215106732,-0.01449195110916888
-0.005458381215106733,-0.01748708486483358
-0.005458041215106732,-0.01597306120812347
-0.005457701215106732,-0.01570975274608749
-0.005457361215106733,-0.01686172726749699
-0.005457021215106733,-0.01610471543914356
-0.005456681215106732,-0.01498565447548724
-0.005456341215106733,-0.01570975274608749
-0.005456001215106733,-0.0144261239936621
-0.005455661215106732,-0.01083854619841304
-0.005455321215106733,-0.01136516312248596
-0.005454981215106733,-0.01100311398718649
-0.005454641215106732,-0.009554917445985316
-0.005454301215106733,-0.01083854619841304
-0.005453961215106733,-0.0125500512016469
-0.005453621215106732,-0.01215508850859533
-0.005453281215106733,-0.0136361986075504
-0.005452941215106733,-0.01376785283856839
-0.005452601215106732,-0.01297792745245925
-0.005452261215106733,-0.01399824774285052
-0.005451921215106733,-0.01406407485835952
-0.005451581215106732,-0.01389950706958685
-0.005451241215106733,-0.01439321043590521
-0.005450901215106733,-0.02051513217824169
-0.005450561215106732,-0.01324123591449571
-0.005450221215106733,-0.01073980552514937
-0.005449881215106733,-0.0174870848648213
-0.005449541215106732,-0.01669715947872421
-0.005449201215106733,-0.01445903755141432
-0.005448861215106733,-0.01544644428404924
-0.005448521215106732,-0.01577557986159661
-0.005448181215106733,-0.01452486466692344
-0.005447841215106733,-0.01561101207282382
-0.005447501215106732,-0.01442612399365977
-0.005447161215106733,-0.0134058037032685
-0.005446821215106733,-0.0143273833203961
-0.005446481215106732,-0.01208926139308621
-0.005446141215106733,-0.009225781868439744
-0.005445801215106733,-0.00860042427110316
-0.005445461215106732,-0.009489090330473746
-0.005445121215106733,-0.008139634462539359
-0.005444781215106733,-0.009094127637421515
-0.005444441215106732,-0.01172721225778387
-0.005444101215106733,-0.01050941062086747
-0.005443761215106733,-0.01146390379574963
-0.005443421215106732,-0.01268170543266669
-0.005443081215106733,-0.01182595293104976
-0.005442741215106733,-0.01182595293104976
-0.005442401215106732,-0.01255005120164702
-0.005442061215106733,-0.01090437331392216
-0.005441721215106733,-0.01073980552514937
-0.005441381215106732,-0.01110185466043621
-0.005441041215106733,-0.003795044838937822
-0.005440701215106733,-0.01301084101021381
-0.005440361215106732,-0.01314249524122707
-0.005440021215106733,-0.0104106699476038
-0.005439681215106733,-0.009949880139040001
-0.005439341215106732,-0.008304202251316456
-0.005439001215106733,-0.01067397840964026
-0.005438661215106733,-0.01284627322144103
-0.005438321215106732,-0.01080563264065759
-0.005437981215106732,-0.01031192927434013
-0.005437641215106733,-0.0111018546604495
-0.005437301215106732,-0.01294501389470554
-0.005436961215106732,-0.0134058037032685
-0.005436621215106733,-0.01274753254817735
-0.005436281215106733,-0.01468943245569269
-0.005435941215106732,-0.0152489629375237
-0.005435601215106733,-0.01498565447548724
-0.005435261215106733,-0.01567683918833168
-0.005434921215106732,-0.01804661534666105
-0.005434581215106733,-0.01738834419156991
-0.005434241215106733,-0.01610471543914451
-0.005433901215106732,-0.01584140697710572
-0.005433561215106733,-0.01380076639632318
-0.005433221215106733,-0.01515022226425757
-0.005432881215106732,-0.01610471543914218
-0.005432541215106733,-0.01347163081877761
-0.005432201215106733,-0.01340580370326862
-0.005431861215106732,-0.01419572908937787
-0.005431521215106733,-0.01357037149204128
-0.005431181215106733,-0.01360328504979578
-0.005430841215106732,-0.01393242062734141
-0.005430501215106733,-0.01459069178243255
-0.005430161215106733,-0.01916567631030767
-0.005429821215106732,-0.01528187649527825
-0.005429481215106733,-0.01324123591449571
-0.005429141215106733,-0.01156264446901635
-0.005428801215106732,-0.01241839697063178
-0.005428461215106733,-0.01692755438300611
-0.005428121215106733,-0.0158414069771077
-0.005427781215106732,-0.01287918677919558
-0.005427441215106733,-0.01228674273961356
-0.005427101215106733,-0.01189178004655887
-0.005426761215106732,-0.01241839697063178
-0.005426421215106733,-0.01238548341287723
-0.005426081215106733,-0.0108714597561676
-0.005425741215106732,-0.01129933600697684
-0.005425401215106733,-0.01465651889794167
-0.005425061215106733,-0.01245131052838634
-0.005424721215106732,-0.01159555802676786
-0.005424381215106733,-0.01264879187491368
-0.005424041215106733,-0.01278044610593191
-0.005423701215106732,-0.01222091562410845
-0.005423361215106733,-0.01442612399365977
-0.005423021215106733,-0.01412990197386875
-0.005422681215106732,-0.01445903755141762
-0.005422341215106733,-0.01626928322791496
-0.005422001215106733,-0.01636802390117864
-0.005421661215106732,-0.01462360534018705
-0.005421321215106733,-0.01459069178243255
-0.005420981215106733,-0.01412990197386875
-0.005420641215106732,-0.01182595293104946
-0.005420301215106733,-0.01166138514227697
-0.005419961215106733,-0.01251713764389546
-0.005419621215106732,-0.01310958168346527
-0.005419281215106733,-0.006395215901547833
-0.005418941215106733,-0.006263561670529605
-0.005418601215106732,-0.004584970225054377
-0.005418261215106733,-0.008534597155594046
-0.005417921215106733,-0.01412990197386875
-0.005417581215106732,-0.01195760716206739
-0.005417241215106732,-0.01162847158452241
-0.005416901215106733,-0.01462360534018711
-0.005416561215106732,-0.01515022226426146
-0.005416221215106732,-0.0159401476503694
-0.005415881215106733,-0.01748708486483358
-0.005415541215106732,-0.01679590015198512
