Analysis/files/cmb03_d2s01/wrd05_ch32.csv

#Digilent WaveForms Oscilloscope Acquisition
#Device Name: ADP3450
#Serial Number: SN:210018B9D9B0
#Date Time: 2024-08-09 15:50:11.825.369.340
#Sample rate: 2.94118e+06Hz
#Samples: 32768
#Trigger: Source: Channel 3 Type: Edge Condition: Rising Level: 20 mV Hyst.: Auto HoldOff: 0 s
#Channel 3: Range: 200 mV/div Offset: 0 V Attenuation: 1 X Coupling: DC Bandwidth: 0 Hz Sample Mode: Average

Time (s),Channel 3 (V)
-0.005570323227176221,0.01407701702178669
-0.00556998322717622,0.01081857480408577
-0.005569643227176221,0.01095022903510376
-0.005569303227176221,0.01052235278429452
-0.00556896322717622,0.009732427398186347
-0.005568623227176221,0.01039069855327629
-0.005568283227176221,0.009600773167166921
-0.00556794322717622,0.008514625761265101
-0.005567603227176221,0.007724700375157166
-0.005567263227176221,0.009074156243094007
-0.00556692322717622,0.007428478355366511
-0.00556658322717622,0.007625959701893495
-0.005566243227176221,0.009469118936148692
-0.00556590322717622,0.008810847781055875
-0.00556556322717622,0.007889268163929951
-0.005565223227176221,0.007724700375157166
-0.00556488322717622,0.008185490183720905
-0.00556454322717622,0.008152576625966409
-0.005564203227176221,0.007230997008838809
-0.00556386322717622,0.003413024309311622
-0.00556352322717622,0.004202949695419555
-0.005563183227176221,0.005223269985810825
-0.005562843227176221,0.003149715847277499
-0.00556250322717622,-0.002873465221810222
-0.005562163227176221,0.004235863253174112
-0.005561823227176221,0.006473985180479924
-0.00556148322717622,0.00528909710131994
-0.005561143227176221,0.005684059794374625
-0.005560803227176221,0.0002862363226370781
-0.00556046322717622,0.0006153719001728307
-0.005560123227176221,0.003149715847273728
-0.005559783227176221,0.001997741325866324
-0.00555944322717622,-0.001392355122855153
-0.005559103227176221,-0.002610156759773766
-0.005558763227176221,-0.001425268680611865
-0.00555842322717622,-0.00336716858812858
-0.005558083227176221,-0.003795044838937822
-0.005557743227176221,-0.003827958396692319
-0.00555740322717622,-0.004683710898310864
-0.005557063227176221,-0.00290637877956478
-0.005556723227176221,-0.001984799162438857
-0.00555638322717622,-0.0009644788720459105
-0.005556043227176221,-0.0007999110832731249
-0.005555703227176221,0.00140529728627819
-0.00555536322717622,0.0005824583424182735
-0.005555023227176221,-0.0009973924298004675
-0.005554683227176221,-0.001853144931417396
-0.00555434322717622,-0.003400082145883136
-0.005554003227176221,-0.003564649934655922
-0.005553663227176221,-0.002577243202019209
-0.00555332322717622,-0.002972205895073894
-0.005552983227176221,-0.003103860126092122
-0.005552643227176221,-0.001293614449591481
-0.00555230322717622,-0.002379761855491866
-0.005551963227176221,-0.006592697248075176
-0.005551623227176221,0.0002204092071181454
-0.00555128322717622,0.001043248150980337
-0.005550943227176221,8.875497609991696e-05
-0.005550603227176221,-0.001129046660818696
-0.00555026322717622,-0.005967339650737394
-0.005549923227176221,-0.005309068495647449
-0.005549583227176221,-0.002939292337319337
-0.00554924322717622,-0.002807638106304521
-0.005548903227176221,-0.004683710898310864
-0.005548563227176221,-0.004058353300974278
-0.00554822322717622,-0.002248107624473219
-0.005547883227176221,-0.002017712720191738
-0.005547543227176221,-0.003005119452828451
-0.00554720322717622,-0.0004049483902193377
-0.005546863227176221,-0.0008986517565367963
-0.005546523227176221,-0.001688577142646167
-0.00554618322717622,-0.00149109579612056
-0.00554584322717622,-0.00244558897100098
-0.005545503227176221,-0.003827958396692379
-0.00554516322717622,-0.002675983875284436
-0.00554482322717622,-0.003531736376901365
-0.005544483227176221,-0.003400082145883136
-0.00554414322717622,-0.00349882281914555
-0.00554380322717622,-0.002807638106301108
-0.005543463227176221,-0.003169687241601236
-0.00554312322717622,-0.003367168588129837
-0.00554278322717622,-0.004058353300974278
-0.005542443227176221,-0.006461043017056948
-0.005542103227176221,-0.005704031188703511
-0.00554176322717622,-0.007481363307448217
-0.005541423227176221,-0.01004862081230367
-0.005541083227176221,-0.003268427914877242
-0.00554074322717622,-0.002346848297737309
-0.005540403227176221,-0.0003391212747093254
-0.005540063227176221,-0.002708897433033126
-0.00553972322717622,-0.006000253208493148
-0.005539383227176221,-0.004584970225047193
-0.005539043227176221,-0.003795044838939258
-0.00553870322717622,-0.003432995703637694
-0.005538363227176221,-0.004650797340556306
-0.005538023227176221,-0.003729217723430384
-0.00553768322717622,-0.002939292337319337
-0.005537343227176221,-0.0002732941592002112
-0.005537003227176221,-0.001260700891835128
-0.00553666322717622,-0.0006353432945003394
-0.005536323227176221,-0.0003062077169547683
-0.005535983227176221,-0.002215194066715608
-0.00553564322717622,-0.00267598387528288
-0.005535303227176221,-0.005539463399929348
-0.005534963227176221,-0.005769858304210829
-0.00553462322717622,-0.005210327822383777
-0.005534283227176221,-0.005111587149120106
-0.005533943227176221,-0.006790178594599465
-0.00553360322717622,-0.006461043017056948
-0.005533263227176221,-0.005572376957683906
-0.005532923227176221,-0.005440722726665677
-0.00553258322717622,-0.004914105802592763
-0.005532243227176221,-0.004848278687083649
-0.005531903227176221,-0.00517741426462922
-0.00553156322717622,-0.005605290515438462
-0.005531223227176221,-0.008633337828857716
-0.005530883227176221,-0.005012846475856435
-0.00553054322717622,-0.001622750027137053
-0.005530203227176221,-0.006263561670529605
-0.005529863227176221,-0.006757265036847961
-0.00552952322717622,-0.004650797340557743
-0.005529183227176221,-0.005440722726665677
-0.005528843227176221,-0.00619773455502049
-0.00552850322717622,-0.005901512535225166
-0.005528163227176221,-0.003531736376901365
-0.005527823227176221,-0.002149366951209966
-0.00552748322717622,0.00364341921358065
-0.005527143227176221,-0.002643070317528323
-0.005526803227176221,-0.002017712720191738
-0.00552646322717622,-0.002807638106303144
-0.005526123227176221,-0.00392669906995605
-0.005525783227176221,-0.003301341472619465
-0.00552544322717622,-0.005078673591363813
-0.005525103227176221,-0.004124180416483393
-0.005524763227176221,-0.004815365129329092
-0.00552442322717622,-0.0045520566672903
-0.00552408322717622,-0.003268427914864908
-0.005523743227176221,-0.003795044838937822
-0.00552340322717622,-0.003696304165676485
-0.00552306322717622,-0.004979932918101878
-0.005522723227176221,-0.005539463399929348
-0.00552238322717622,-0.01090437331393647
-0.00552204322717622,-0.01877071361726131
-0.005521703227176221,-0.03470087557046694
-0.00552136322717622,-0.05402113397244195
-0.00552102322717622,-0.08150395469744715
-0.005520683227176221,-0.1112907244653213
-0.005520343227176221,-0.1424269501010758
-0.00552000322717622,-0.1740239655455072
-0.005519663227176221,-0.2005852066534348
-0.005519323227176221,-0.2251058071805352
-0.00551898322717622,-0.2441298435627138
-0.005518643227176221,-0.2547609227174358
-0.005518303227176221,-0.2598954377271374
-0.00551796322717622,-0.2653261747566486
-0.005517623227176221,-0.2646679036015575
-0.005517283227176221,-0.2595663021496104
-0.00551694322717622,-0.2551558854104904
-0.005516603227176221,-0.2495276670344612
-0.005516263227176221,-0.2438994486584422
-0.00551592322717622,-0.2360331083550928
-0.005515583227176221,-0.2250399800650707
-0.005515243227176221,-0.2159558381248295
-0.00551490322717622,-0.2064109063759914
-0.005514563227176221,-0.2031524641582902
-0.005514223227176221,-0.1976229864555347
-0.00551388322717622,-0.188308449610985
-0.005513543227176221,-0.1808370720007005
-0.005513203227176221,-0.175307594297945
-0.00551286322717622,-0.1688236234202872
-0.005512523227176221,-0.1613193322522481
-0.005512183227176221,-0.1533542512756453
-0.00551184322717622,-0.1490754887675529
-0.005511503227176221,-0.1449612940482333
-0.005511163227176221,-0.1391355943256767
-0.00551082322717622,-0.1333757217186292
-0.005510483227176221,-0.1300843659431734
-0.005510143227176221,-0.1250156780489717
-0.00550980322717622,-0.1199140765970153
-0.005509463227176221,-0.1138579819701768
-0.005509123227176221,-0.1089538618647478
-0.00550878322717622,-0.104675099356651
-0.005508443227176221,-0.1022724096405727
-0.005508103227176221,-0.09832278271002584
-0.00550776322717622,-0.09460355068375831
-0.005507423227176221,-0.09318826770031494
-0.005507083227176221,-0.09180589827462352
-0.00550674322717622,-0.08736256797775413
-0.005506403227176221,-0.08505861893493932
-0.005506063227176221,-0.08153686825520171
-0.00550572322717622,-0.08048363440705296
-0.005505383227176221,-0.07887087007708257
-0.005505043227176221,-0.07024751794538861
-0.00550470322717622,-0.06534339783995319
-0.005504363227176221,-0.061821647160222
-0.005504023227176221,-0.06386228774100455
-0.00550368322717622,-0.06313818947039536
-0.00550334322717622,-0.05823406936497528
-0.005503003227176221,-0.05500854070502868
-0.00550266322717622,-0.05438318310768784
-0.00550232322717622,-0.05204632050711854
-0.005501983227176221,-0.05063103752367259
-0.00550164322717622,-0.04760299021025082
-0.00550130322717622,-0.04622062078456193
-0.005500963227176221,-0.04631936145782561
-0.00550062322717622,-0.04477242424335825
-0.00550028322717622,-0.04302800568236989
-0.005499943227176221,-0.04207351250748774
-0.005499603227176221,-0.04016452615772689
-0.00549926322717622,-0.03930877365610494
-0.005498923227176221,-0.03812388557694089
-0.005498583227176221,-0.03687317038226999
-0.00549824322717622,-0.03453630778169416
-0.005497903227176221,-0.03443756710843049
-0.005497563227176221,-0.03397677729986753
-0.00549722322717622,-0.03111329777522022
-0.005496883227176221,-0.02989549613830161
-0.005496543227176221,-0.03078416219767303
-0.00549620322717622,-0.02880934873240122
-0.005495863227176221,-0.02765737421099173
-0.005495523227176221,-0.02824981825057267
-0.00549518322717622,-0.03203487739234782
-0.005494843227176221,-0.0254521658414364
-0.005494503227176221,-0.02295073545209461
-0.00549416322717622,-0.02035056438948005
-0.005493823227176221,-0.01929733054133422
-0.005493483227176221,-0.02459641333980828
-0.00549314322717622,-0.0219962422772079
-0.005492803227176221,-0.01844157803971573
-0.005492463227176221,-0.01956063900336864
-0.00549212322717622,-0.02008725592744359
-0.005491783227176221,-0.01840866448196118
-0.005491443227176221,-0.01738834419157176
-0.00549110322717622,-0.01666424592096965
-0.005490763227176221,-0.01488691380222357
-0.005490423227176221,-0.01347163081877761
-0.00549008322717622,-0.01199052071982254
-0.005489743227176221,-0.0101802750433219
-0.005489403227176221,-0.01021318860107646
-0.00548906322717622,-0.01047649706311291
-0.005488723227176221,-0.01021318860107646
-0.005488383227176221,-0.01129933600697684
-0.00548804322717622,-0.01199052071982099
-0.005487703227176221,-0.01113476821820406
-0.005487363227176221,-0.01073980552514937
-0.00548702322717622,-0.01146390379574675
-0.005486683227176221,-0.009884053023530886
-0.005486343227176221,-0.01143099023799507
-0.00548600322717622,-0.01041066994760392
-0.005485663227176221,-0.01047649706311291
-0.005485323227176221,-0.009489090330476201
-0.00548498322717622,-0.01004862081231361
-0.005484643227176221,-0.01551227139956015
-0.005484303227176221,-0.00665852436358429
-0.00548396322717622,-0.007218054845410504
-0.005483623227176221,-0.006526870132566062
-0.005483283227176221,-0.006098993881756819
-0.00548294322717622,-0.006921832825624159
-0.00548260322717622,-0.008797905617630502
-0.005482263227176221,-0.007316795518675433
-0.00548192322717622,-0.007744671769486471
-0.00548158322717622,-0.008732078502121389
-0.005481243227176221,-0.006098993881756819
-0.00548090322717622,-0.004716624456063864
-0.00548056322717622,-0.003860871954446936
-0.005480223227176221,-0.003465909261392251
-0.00547988322717622,-0.003992526185468278
-0.00547954322717622,-0.005704031188702134
-0.005479203227176221,-0.006131907439511376
-0.005478863227176221,-0.008238375135799199
-0.00547852322717622,-0.009949880139040001
-0.005478183227176221,-0.00939034965721253
-0.005477843227176221,-0.008863732733140573
-0.00547750322717622,-0.008468770040084931
-0.005477163227176221,-0.007613017538466446
-0.005476823227176221,-0.005177414264633651
-0.00547648322717622,-0.004979932918101878
-0.005476143227176221,-0.004124180416483393
-0.005475803227176221,-0.002445588971004034
-0.00547546322717622,-0.001853144931418952
-0.005475123227176221,-0.0009315653142913533
-0.005474783227176221,-0.00109613310306384
-0.00547444322717622,-0.006724351479093405
-0.005474103227176221,-0.005934426092984033
-0.005473763227176221,0.0003520634381249388
-0.00547342322717622,-0.001063219545309582
-0.005473083227176221,-0.001524009353873381
-0.005472743227176221,-0.004782451571568608
-0.00547240322717622,-0.006921832825620747
-0.005472063227176221,-0.004222921089747064
-0.005471723227176221,-0.004354575320765053
-0.00547138322717622,-0.003959612627710607
-0.005471043227176221,-0.004255834647501621
-0.005470703227176221,-0.001161960218578881
-0.00547036322717622,-0.002346848297737309
-0.005470023227176221,-0.002939292337319337
-0.005469683227176221,-0.002577243202019209
-0.00546934322717622,-0.002939292337319337
-0.005469003227176221,-0.003334255030374022
-0.005468663227176221,-0.003729217723428708
-0.00546832322717622,-0.00188605848917351
-0.005467983227176221,-0.002774724548546551
-0.005467643227176221,-0.001918972046928067
-0.00546730322717622,-0.001392355122855153
-0.005466963227176221,-0.002017712720191738
-0.005466623227176221,-0.003762131281183265
-0.00546628322717622,-0.003202600799358548
-0.005465943227176221,-0.004716624456065421
-0.005465603227176221,-0.006329388786038719
-0.00546526322717622,-0.005868598977475757
-0.005464923227176221,-0.006329388786038719
-0.005464583227176221,-0.006164820997265934
-0.00546424322717622,-0.0054407227266731
-0.005463903227176221,-0.009522003888230759
-0.005463563227176221,-0.007448449749693661
-0.00546322322717622,-0.001886058489174288
-0.005462883227176221,-0.002313934739982752
-0.005462543227176221,-0.00244558897100098
-0.00546220322717622,-0.006230648112774808
-0.005461863227176221,-0.006098993881756819
-0.005461523227176221,-0.002643070317528323
-0.00546118322717622,-0.001853144931419671
-0.00546084322717622,-0.002248107624473638
-0.005460503227176221,-0.003531736376901365
-0.00546016322717622,-0.003202600799355854
-0.00545982322717622,-0.003235514357110351
-0.005459483227176221,-0.005276154937892892
-0.00545914322717622,-0.004584970225046714
-0.00545880322717622,-0.004321661763010735
-0.005458463227176221,-0.003103860126092122
-0.00545812322717622,-0.004420402436271593
-0.00545778322717622,-0.002873465221810222
-0.005457443227176221,-0.003597563492410479
-0.005457103227176221,-0.002610156759775562
-0.00545676322717622,-0.00290637877956478
-0.005456423227176221,-0.003103860126092122
-0.005456083227176221,-0.003827958396691062
-0.00545574322717622,-0.003070946568337565
-0.005455403227176221,-0.002873465221810222
-0.005455063227176221,-0.004683710898307571
-0.00545472322717622,-0.003202600799355794
-0.005454383227176221,-0.002577243202019209
-0.005454043227176221,-0.002840551664055187
-0.00545370322717622,-0.002774724548546551
-0.005453363227176221,-0.006921832825620747
-0.005453023227176221,-0.001194873776338227
-0.00545268322717622,0.001964827768109672
-0.005452343227176221,0.003775073444610313
-0.005452003227176221,0.002524358249939418
-0.00545166322717622,-0.001458182238364267
-0.005451323227176221,-0.0001416399281819828
-0.005450983227176221,0.001536951517297376
-0.00545064322717622,-0.0004049483902184396
-0.005450303227176221,-0.002610156759773766
-0.005449963227176221,-0.002478502528755777
-0.00544962322717622,-0.002643070317528323
-0.005449283227176221,-0.00188605848917351
-0.005448943227176221,-0.002017712720191499
-0.00544860322717622,-0.003169687241601236
-0.005448263227176221,-0.001392355122855153
-0.005447923227176221,-0.002313934739982752
-0.00544758322717622,-0.00336716858812858
-0.005447243227176221,-0.002840551664055666
-0.005446903227176221,-0.003005119452828451
-0.00544656322717622,-0.003992526185465165
-0.005446223227176221,-0.003235514357110351
-0.005445883227176221,-0.002346848297737309
-0.00544554322717622,-0.002906378779563403
-0.005445203227176221,-0.002149366951209966
-0.005444863227176221,-0.001227787334082367
-0.00544452322717622,-0.002675983875281862
-0.005444183227176221,-0.002116453393455409
-0.005443843227176221,-0.002610156759773766
-0.00544350322717622,-0.00287346522181591
-0.005443163227176221,-0.006000253208493148
-0.005442823227176221,-0.004617883782801749
-0.00544248322717622,-0.0003720348324640023
-0.005442143227176221,-0.0004378619479729968
-0.005441803227176221,0.00130655661301853
-0.00544146322717622,-0.004519143109542568
-0.005441123227176221,-0.006987659941129861
-0.005440783227176221,-0.004255834647501621
-0.00544044322717622,-0.002807638106303443
-0.00544010322717622,-0.004091266858728836
-0.005439763227176221,-0.002873465221810222
-0.00543942322717622,-0.002182280508965122
-0.00543908322717622,-0.002511416086510094
-0.005438743227176221,-0.002050626277946295
-0.00543840322717622,-0.001227787334072788
-0.00543806322717622,0.00403838190664677
-0.005437723227176221,-0.003795044838937822
-0.00543738322717622,-0.002774724548546431
-0.00543704322717622,-0.002708897433037437
-0.005436703227176221,-0.003103860126092122
-0.005436363227176221,-0.002346848297738686
-0.00543602322717622,-0.003663390607919593
-0.005435683227176221,-0.003498822819146808
-0.005435343227176221,-0.003038033010583847
-0.00543500322717622,-0.00494701936034732
-0.005434663227176221,-0.003498822819146808
-0.005434323227176221,-0.003038033010583847
-0.00543398322717622,-0.003432995703637694
-0.005433643227176221,-0.003235514357110351
-0.005433303227176221,-0.001524009353876495
-0.00543296322717622,-0.00165566358489161
-0.005432623227176221,-0.005638204073193019
-0.005432283227176221,-0.005671117630947517
-0.00543194322717622,-0.0003720348324638825
-0.005431603227176221,-0.001820231373664395
-0.005431263227176221,-9.985697167047081e-06
-0.00543092322717622,-0.001326528007346039
-0.005430583227176221,-0.003597563492410479
-0.005430243227176221,-0.0008328246410327111
-0.00542990322717622,-0.0003391212747093254
-0.005429563227176221,-0.002873465221810222
-0.005429223227176221,-0.003202600799355195
-0.00542888322717622,-0.00313677368384668
-0.005428543227176221,-0.005638204073193019
-0.005428203227176221,-0.006296475228282965
-0.00542786322717622,-0.00586859897747492
-0.005427523227176221,-0.006296475228284162
-0.005427183227176221,-0.007250968403166318
-0.00542684322717622,-0.007218054845411761
-0.005426503227176221,-0.007975066673766575
-0.005426163227176221,-0.00688891926786619
-0.00542582322717622,-0.006098993881756819
-0.005425483227176221,-0.00711931417214809
-0.005425143227176221,-0.007975066673766575
-0.00542480322717622,-0.006329388786038719
-0.005424463227176221,-0.006428129459302391
-0.005424123227176221,-0.006033166766247705
-0.00542378322717622,-0.003498822819145191
-0.005423443227176221,-0.002610156759773766
-0.005423103227176221,-0.00188605848917351
-0.00542276322717622,-0.000701170410010651
-0.005422423227176221,-0.001359441565100596
-0.005422083227176221,-0.007152227729902647
-0.00542174322717622,0.00186608709484642
-0.005421403227176221,0.002096481999127901
-0.005421063227176221,0.0025572718076917
-0.00542072322717622,0.001701519306064774
-0.005420383227176221,-0.002939292337319337
-0.005420043227176221,-0.001853144931418952
-0.00541970322717622,0.0005495447846628185
-0.005419363227176221,5.584141834535986e-05
-0.005419023227176221,-0.00244558897100098
-0.00541868322717622,-0.001326528007342746
-0.00541834322717622,0.0004837176691546022
-0.005418003227176221,-0.000207467043691097
-0.00541766322717622,-0.001359441565100177
-0.00541732322717622,-0.001129046660818696
-0.005416983227176221,-0.001524009353873381
-0.00541664322717622,-0.003367168588127143
-0.00541630322717622,-0.002577243202019209
