Analysis/files/cmb03_d2s01/wrd07_ch21.csv

#Digilent WaveForms Oscilloscope Acquisition
#Device Name: ADP3450
#Serial Number: SN:210018B9D9B0
#Date Time: 2024-08-09 17:44:39.386.290.610
#Sample rate: 2.94118e+06Hz
#Samples: 32768
#Trigger: Source: Channel 3 Type: Edge Condition: Rising Level: 60 mV Hyst.: Auto HoldOff: 0 s
#Channel 3: Range: 200 mV/div Offset: -20 mV Attenuation: 1 X Coupling: DC Bandwidth: 0 Hz Sample Mode: Average

Time (s),Channel 3 (V)
-0.005570452290076336,0.01401508696376725
-0.005570112290076336,0.01134908878564926
-0.005569772290076336,0.01197444638298471
-0.005569432290076336,0.008683090607528997
-0.005569092290076336,0.008551436376507595
-0.005568752290076336,0.006807017815519241
-0.005568412290076336,0.008024819452437855
-0.005568072290076336,0.008485609261001056
-0.005567732290076336,0.008156473683456083
-0.005567392290076336,0.008880571954056339
-0.005567052290076336,0.009999632917710324
-0.005566712290076336,0.009473015993638367
-0.005566372290076336,0.009110966858338239
-0.005566032290076336,0.01572659196698823
-0.005565692290076336,0.00693867204653747
-0.005565352290076336,0.006774104257764684
-0.005565012290076336,0.007728597432644326
-0.005564672290076336,0.006346228006955442
-0.005564332290076336,0.005655043294109744
-0.005563992290076336,0.006214573775937871
-0.005563652290076336,0.006576622911237342
-0.005563312290076336,0.005589216178600628
-0.005562972290076336,0.006346228006954065
-0.005562632290076336,0.005819611082882528
-0.005562292290076336,0.004108106079645558
-0.005561952290076336,0.004996772139016984
-0.005561612290076336,0.001540848574790105
-0.005561272290076336,0.005720870409618857
-0.005560932290076336,0.005523389063091874
-0.005560592290076336,0.005457561947582401
-0.005560252290076336,0.0007509231886807348
-0.005559912290076336,-0.004943122302847289
-0.005559572290076336,-0.004087369801239162
-0.005559232290076336,-0.003824061339202704
-0.005558892290076336,-0.00412028335899318
-0.005558552290076336,-0.002639173260038648
-0.005558212290076336,-0.002902481722075106
-0.005557872290076336,-0.003165790184111082
-0.005557532290076336,-0.001059322487819907
-0.005557192290076336,-0.001190976718838135
-0.005556852290076336,-0.0005985326792571862
-0.005556512290076336,-0.0005656191215015517
-0.005556172290076336,-0.0004010513327287642
-0.005555832290076336,-0.0009276682568007188
-0.005555492290076336,0.001343367228262761
-0.005555152290076336,0.0007509231886807348
-0.005554812290076336,-0.0003023106594631779
-0.005554472290076336,0.0009813180929626325
-0.005554132290076336,0.00045470116888972
-0.005553792290076336,-0.0004997920059924346
-0.005553452290076336,-0.001289717392101805
-0.005553112290076336,-0.0006643597947652222
-0.005552772290076336,-0.002112556335965736
-0.005552432290076336,-6.088639674078911e-06
-0.005552092290076336,-6.088639674078911e-06
-0.005551752290076336,-0.001816334316174721
-0.005551412290076336,-0.005338084995911014
-0.005551072290076336,-0.004613986725312075
-0.005550732290076336,0.001672502805808333
-0.005550392290076336,-0.003692407108186812
-0.005550052290076336,-0.004976035860612203
-0.005549712290076336,-0.002310037682493077
-0.005549372290076336,-0.0006643597947657012
-0.005549032290076336,-0.0009276682568016767
-0.005548692290076336,-0.0006643597947652222
-0.005548352290076336,-0.001421371623117701
-0.005548012290076336,-0.0001377428706923062
-0.005547672290076336,-0.000697273352519779
-0.005547332290076336,-0.00237586479800219
-0.005546992290076336,-0.00237586479800219
-0.005546652290076336,-0.004153196916748276
-0.005546312290076336,-0.004021542685731003
-0.005545972290076336,-0.004548159609802961
-0.005545632290076336,-0.004712727398575745
-0.005545292290076336,-0.005568479900193092
-0.005544952290076336,-0.004943122302857646
-0.005544612290076336,-0.003659493550429917
-0.005544272290076336,-0.005140603649382413
-0.005543932290076336,-0.003725320665939034
-0.005543592290076336,-0.003659493550429917
-0.005543252290076336,-0.002441691913512561
-0.005542912290076336,-0.003132876626357004
-0.005542572290076336,-0.002935395279829663
-0.005542232290076336,-0.004087369801237067
-0.005541892290076336,-0.00510769009163043
-0.005541552290076336,-0.004120283358993719
-0.005541212290076336,-0.006588800190581011
-0.005540872290076336,-0.006457145959567274
-0.005540532290076336,-0.005502652784685116
-0.005540192290076336,-0.005765961246721095
-0.005539852290076336,-0.006391318844058157
-0.005539512290076336,-0.005173517207139544
-0.005539172290076336,-0.005074776533876053
-0.005538832290076336,-0.005733047688967017
-0.005538492290076336,-0.003429098646148019
-0.005538152290076336,-0.002705000375549079
-0.005537812290076336,-0.00217838345147485
-0.005537472290076336,-0.0002364835439559801
-0.005537132290076336,0.0004876147266429597
-0.005536792290076336,-0.001289717392101805
-0.005536452290076336,-0.003429098646148019
-0.005536112290076336,0.0004547011688826553
-0.005535772290076336,-0.002606259702284092
-0.005535432290076336,-0.0001377428706923062
-0.005535092290076336,-0.001190976718836219
-0.005534752290076336,-0.005831788362230687
-0.005534412290076336,-0.003396185088393462
-0.005534072290076336,-0.0002364835439617277
-0.005533732290076336,0.0009154909774535189
-0.005533392290076336,-0.001256803834347248
-0.005533052290076336,0.0002243062646078188
-0.005532712290076336,-0.0005327055637469914
-0.005532372290076336,-0.00217838345147485
-0.005532032290076336,-0.003132876626357004
-0.005531692290076336,-0.004153196916748276
-0.005531352290076336,-0.006193837497530816
-0.005531012290076336,-0.003593666434920803
-0.005530672290076336,-0.00421902403225739
-0.005530332290076336,-0.00441650537878473
-0.005529992290076336,-0.003363271530638905
-0.005529652290076336,-0.003067049510849148
-0.005529312290076336,-0.003758234223693591
-0.005528972290076336,-0.004284851147766503
-0.005528632290076336,-0.003692407108186333
-0.005528292290076336,-0.004712727398575745
-0.005527952290076336,-0.003955715570220932
-0.005527612290076336,-0.003856974896958997
-0.005527272290076336,-0.004811468071839416
-0.005526932290076336,-0.00421902403225739
-0.005526592290076336,-0.005107690091639052
-0.005526252290076336,-0.009847242408286654
-0.005525912290076336,-0.009156057695440954
-0.005525572290076336,-0.002145469893722568
-0.005525232290076336,-0.003396185088393462
-0.005524892290076336,-0.002507519029020421
-0.005524552290076336,-0.004581073167559793
-0.005524212290076336,-0.005831788362230687
-0.005523872290076336,-0.003527839319411689
-0.005523532290076336,-0.004581073167564283
-0.005523192290076336,-0.008300305193822469
-0.005522852290076336,-0.01613373193940706
-0.005522512290076336,-0.02821300763536814
-0.005522172290076336,-0.04944225238701886
-0.005521832290076336,-0.07560853080189175
-0.005521492290076336,-0.1045724616259609
-0.005521152290076336,-0.1369594024563862
-0.005520812290076336,-0.1684576772274974
-0.005520472290076336,-0.1952493132396581
-0.005520132290076336,-0.2145037445261228
-0.005519792290076336,-0.2412953805383322
-0.005519452290076336,-0.2522885088283343
-0.005519112290076336,-0.2579167272043836
-0.005518772290076336,-0.2609776880755574
-0.005518432290076336,-0.2592990966300781
-0.005518092290076336,-0.254394976524646
-0.005517752290076336,-0.249787078439008
-0.005517412290076336,-0.2424144415020006
-0.005517072290076336,-0.2345151876408935
-0.005516732290076336,-0.2278008218589638
-0.005516392290076336,-0.2208889747305194
-0.005516052290076336,-0.2126934988496221
-0.005515712290076336,-0.2096983650939574
-0.005515372290076336,-0.2016016298863511
-0.005515032290076336,-0.1879425034181952
-0.005514692290076336,-0.1816231003293202
-0.005514352290076336,-0.1746454260853668
-0.005514012290076336,-0.1717819465607076
-0.005513672290076336,-0.169379256844625
-0.005513332290076336,-0.162961113082498
-0.005512992290076336,-0.1570037591289115
-0.005512652290076336,-0.1526262559475554
-0.005512312290076336,-0.1490057645945541
-0.005511972290076336,-0.142028090350588
-0.005511632290076336,-0.1360707363970132
-0.005511292290076336,-0.131100789176075
-0.005510952290076336,-0.1249459538759729
-0.005510612290076336,-0.1187252914603616
-0.005510272290076336,-0.1158947254934697
-0.005509932290076336,-0.1110235189457952
-0.005509592290076336,-0.1055598683585387
-0.005509252290076336,-0.1024001668141012
-0.005508912290076336,-0.09845053988354537
-0.005508572290076336,-0.09348059266261627
-0.005508232290076336,-0.09097916227326994
-0.005507892290076336,-0.08788528784433568
-0.005507552290076336,-0.08465975918439497
-0.005507212290076336,-0.08271785927687608
-0.005506872290076336,-0.07998603398324056
-0.005506532290076336,-0.07597057993719189
-0.005506192290076336,-0.07439072916497314
-0.005505852290076336,-0.07327166820131287
-0.005505512290076336,-0.07034236156116261
-0.005505172290076336,-0.07100063271625376
-0.005504832290076336,-0.06326594664392404
-0.005504492290076336,-0.05842765365401294
-0.005504152290076336,-0.05770355538341269
-0.005503812290076336,-0.05375392845287057
-0.005503472290076336,-0.05635409951547584
-0.005503132290076336,-0.05345770643307483
-0.005502792290076336,-0.05112084383249486
-0.005502452290076336,-0.04759909315276365
-0.005502112290076336,-0.04776366094153644
-0.005501772290076336,-0.04565719324524269
-0.005501432290076336,-0.04450521872383529
-0.005501092290076336,-0.04137843073715236
-0.005500752290076336,-0.04012771554247644
-0.005500412290076336,-0.03861369188576957
-0.005500072290076336,-0.03670470553600525
-0.005499732290076336,-0.03693510044028674
-0.005499392290076336,-0.0357502123611231
-0.005499052290076336,-0.03453241072420449
-0.005498712290076336,-0.03354500399156957
-0.005498372290076336,-0.03410453447339525
-0.005498032290076336,-0.0320638938926127
-0.005497692290076336,-0.0309448329289598
-0.005497352290076336,-0.0309119193712032
-0.005497012290076336,-0.02910167369470256
-0.005496672290076336,-0.02903584657919357
-0.005496332290076336,-0.02893710590592977
-0.005495992290076336,-0.02706103311392002
-0.005495652290076336,-0.02515204676415918
-0.005495312290076336,-0.02686355176739268
-0.005494972290076336,-0.02696229244065635
-0.005494632290076336,-0.02939789571448915
-0.005494292290076336,-0.0239342451272371
-0.005493952290076336,-0.02340762820316418
-0.005493612290076336,-0.02232148079726578
-0.005493272290076336,-0.02360510954969153
-0.005492932290076336,-0.02574449080373774
-0.005492592290076336,-0.02166320964218008
-0.005492252290076336,-0.01926051992608999
-0.005491912290076336,-0.0179439776159077
-0.005491572290076336,-0.01702239799878178
-0.005491232290076336,-0.01603499126614339
-0.005490892290076336,-0.01517923876452491
-0.005490552290076336,-0.01271072193293312
-0.005490212290076336,-0.01185496943131464
-0.005489872290076336,-0.01205245077784198
-0.005489532290076336,-0.01007763731256855
-0.005489192290076336,-0.01248032702865122
-0.005488852290076336,-0.01343482020353338
-0.005488512290076336,-0.01343482020353338
-0.005488172290076336,-0.01320442529925453
-0.005487832290076336,-0.01488301674473389
-0.005487492290076336,-0.01406017780086997
-0.005487152290076336,-0.0131715117414983
-0.005486812290076336,-0.01392852356985173
-0.005486472290076336,-0.01113087116071438
-0.005486132290076336,-0.01007763731256784
-0.005485792290076336,-0.00968267461951387
-0.005485452290076336,-0.00968267461951387
-0.005485112290076336,-0.009221884810951687
-0.005484772290076336,-0.01011055087032311
-0.005484432290076336,-0.01448805405167921
-0.005484092290076336,-0.01287528972169938
-0.005483752290076336,-0.009287711926459184
-0.005483412290076336,-0.008629440771368041
-0.005483072290076336,-0.006852108652628365
-0.005482732290076336,-0.01037385933235957
-0.005482392290076336,-0.01142709318050539
-0.005482052290076336,-0.007279984903430782
-0.005481712290076336,-0.0070495899991493
-0.005481372290076336,-0.007938256058522341
-0.005481032290076336,-0.006226751055285373
-0.005480692290076336,-0.006226751055285373
-0.005480352290076336,-0.006786281537112842
-0.005480012290076336,-0.006917935768129037
-0.005479672290076336,-0.005798874804476131
-0.005479332290076336,-0.007477466249958542
-0.005478992290076336,-0.006062183266515163
-0.005478652290076336,-0.005897615477739801
-0.005478312290076336,-0.004811468071839416
-0.005477972290076336,-0.002968308837587573
-0.005477632290076336,-0.004613986725312075
-0.005477292290076336,-0.003988629127975488
-0.005476952290076336,-0.003429098646149037
-0.005476612290076336,-0.002079642778211176
-0.005476272290076336,-0.004811468071839416
-0.005475932290076336,-0.004251937590012964
-0.005475592290076336,-0.003692407108184477
-0.005475252290076336,-0.004284851147766503
-0.005474912290076336,-0.005305171438155919
-0.005474572290076336,-0.005469739226930559
-0.005474232290076336,-0.002046729220456619
-0.005473892290076336,-0.01238158635536875
-0.005473552290076336,-0.005041862976121317
-0.005473212290076336,-0.003593666434920803
-0.005472872290076336,-0.003198703741866836
-0.005472532290076336,-0.002112556335965736
-0.005472192290076336,-0.005733047688967017
-0.005471852290076336,-0.00461398672531411
-0.005471512290076336,-0.002672086817793205
-0.005471172290076336,-0.003264530857375231
-0.005470832290076336,-0.005008949418363587
-0.005470492290076336,-0.004021542685730045
-0.005470152290076336,-0.004087369801239162
-0.005469812290076336,-0.006160923939776259
-0.005469472290076336,-0.004646900283066632
-0.005469132290076336,-0.004449418936539287
-0.005468792290076336,-0.006555886632830944
-0.005468452290076336,-0.00500894941836676
-0.005468112290076336,-0.004581073167557518
-0.005467772290076336,-0.004778554514084859
-0.005467432290076336,-0.004087369801239162
-0.005467092290076336,-0.00158593941189282
-0.005466752290076336,-0.00237586479800219
-0.005466412290076336,-0.002606259702284511
-0.005466072290076336,-0.002836654606565989
-0.005465732290076336,-0.004679813840821188
-0.005465392290076336,-0.005634307015702089
-0.005465052290076336,-0.004943122302857646
-0.005464712290076336,-0.006193837497530816
-0.005464372290076336,-0.006819195094867043
-0.005464032290076336,-0.006621713748340058
-0.005463692290076336,-0.009551020388495642
-0.005463352290076336,-0.01043968644785928
-0.005463012290076336,-0.005272257880403218
-0.005462672290076336,-0.006292578170794486
-0.005462332290076336,-0.004844381629597385
-0.005461992290076336,-0.006720454421603728
-0.005461652290076336,-0.009485193272986525
-0.005461312290076336,-0.008201564520554788
-0.005460972290076336,-0.005996356151003471
-0.005460632290076336,-0.005601393457948786
-0.005460292290076336,-0.005831788362230568
-0.005459952290076336,-0.005765961246721574
-0.005459612290076336,-0.00362657999267536
-0.005459272290076336,-0.003791147781445932
-0.005458932290076336,-0.002573346144529535
-0.005458592290076336,-0.003067049510847891
-0.005458252290076336,-0.003264530857372777
-0.005457912290076336,-0.001915074989438392
-0.005457572290076336,-0.0001048293129377494
-0.005457232290076336,-0.001125149603327165
-0.005456892290076336,-0.003593666434920803
-0.005456552290076336,-0.003099963068602447
-0.005456212290076336,-0.003922802012464878
-0.005455872290076336,-0.006621713748340058
-0.005455532290076336,-0.006029269708758032
-0.005455192290076336,-0.007279984903428926
-0.005454852290076336,-0.006786281537112842
-0.005454512290076336,-0.005733047688967017
-0.005454172290076336,-0.005074776533877071
-0.005453832290076336,-0.006424232401812717
-0.005453492290076336,-0.005930529035494358
-0.005453152290076336,-0.0102422051013335
-0.005452812290076336,-0.00714833067241297
-0.005452472290076336,-0.005305171438157775
-0.005452132290076336,-0.005765961246720736
-0.005451792290076336,-0.005041862976121317
-0.005451452290076336,-0.008036996731786015
-0.005451112290076336,-0.008069910289540511
-0.005450772290076336,-0.005403912111421445
-0.005450432290076336,-0.003692407108184477
-0.005450092290076336,-0.003692407108184477
-0.005449752290076336,-0.002013815662702062
-0.005449412290076336,-0.003034135953093334
-0.005449072290076336,-0.002112556335967413
-0.005448732290076336,-0.00237586479800219
-0.005448392290076336,-0.001816334316174721
-0.005448052290076336,-0.002540432586774978
-0.005447712290076336,-0.00421902403225739
-0.005447372290076336,-0.004021542685730045
-0.005447032290076336,-0.003462012203902576
-0.005446692290076336,-0.003824061339202704
-0.005446352290076336,-0.005765961246721574
-0.005446012290076336,-0.003198703741866118
-0.005445672290076336,-0.003099963068603286
-0.005445332290076336,-0.003560752877166246
-0.005444992290076336,-0.001849247873929278
-0.005444652290076336,-0.002178383451475029
-0.005444312290076336,-0.00227712412473852
-0.005443972290076336,-0.002507519029020421
-0.005443632290076336,-0.001454285180878544
-0.005443292290076336,-0.00362657999267536
-0.005442952290076336,-0.00441650537878473
-0.005442612290076336,-0.008399045867080037
-0.005442272290076336,-0.005041862976121317
-0.005441932290076336,-0.002705000375547762
-0.005441592290076336,-0.00290248172207337
-0.005441252290076336,-0.001947988547192948
-0.005440912290076336,-0.006193837497530816
-0.005440572290076336,-0.005272257880399626
-0.005440232290076336,-0.003297444415129792
-0.005439892290076336,-0.003001222395338777
-0.005439552290076336,-0.002112556335965736
-0.005439212290076336,-0.002112556335965736
-0.005438872290076336,-0.0003352242172196505
-0.005438532290076336,-0.0009276682568007786
-0.005438192290076336,-0.000433964890483321
-0.005437852290076336,-0.003001222395338777
-0.005437512290076336,-0.00247460547127095
-0.005437172290076336,-0.005272257880403218
-0.005436832290076336,-0.007609120480976773
-0.005436492290076336,-0.006160923939778893
-0.005436152290076336,-0.006128010382021702
-0.005435812290076336,-0.006457145959567274
-0.005435472290076336,-0.005634307015704844
-0.005435132290076336,-0.004811468071839416
-0.005434792290076336,-0.005041862976121317
-0.005434452290076336,-0.003988629127977404
-0.005434112290076336,-0.004284851147766503
-0.005433772290076336,-0.004613986725312075
-0.005433432290076336,-0.002310037682497267
-0.005433092290076336,-0.002342951240247634
-0.005432752290076336,-0.003330357972884349
-0.005432412290076336,-0.005469739226926668
-0.005432072290076336,-0.004120283358993719
-0.005431732290076336,-7.191575518319254e-05
-0.005431392290076336,0.001080058766224211
-0.005431052290076336,0.00183707059458112
-0.005430712290076336,-3.900219742863573e-05
-0.005430372290076336,-0.005897615477729145
-0.005430032290076336,-0.003791147781448147
-0.005429692290076336,-0.002737913933302319
-0.005429352290076336,-0.004120283358991205
-0.005429012290076336,-0.003988629127975488
-0.005428672290076336,-0.004811468071839416
-0.005428332290076336,0.0009813180929520958
-0.005427992290076336,-0.005963442593248915
-0.005427652290076336,-0.004482332494293848
-0.005427312290076336,-0.006160923939776259
-0.005426972290076336,-0.004284851147766503
-0.005426632290076336,-0.002836654606565989
-0.005426292290076336,-0.003132876626357004
-0.005425952290076336,-0.001092236045574464
-0.005425612290076336,-0.0006314462370106654
-0.005425272290076336,-0.001454285180874593
-0.005424932290076336,-0.002408778355756747
-0.005424592290076336,-0.001651766527401934
-0.005424252290076336,-0.003856974896957261
-0.005423912290076336,-0.004877295187347215
-0.005423572290076336,-0.004153196916748276
-0.005423232290076336,-0.00500894941836676
-0.005422892290076336,-0.005272257880403457
-0.005422552290076336,-0.005403912111421445
-0.005422212290076336,-0.005831788362230687
-0.005421872290076336,-0.009485193272984071
-0.005421532290076336,-0.008135737405049685
-0.005421192290076336,-0.0005327055637469914
-0.005420852290076336,-0.003758234223697422
-0.005420512290076336,-0.005864701919985244
-0.005420172290076336,-0.002474605471265861
-0.005419832290076336,-0.001684680085156311
-0.005419492290076336,-0.00158593941189282
-0.005419152290076336,-0.001125149603329021
-0.005418812290076336,-0.002145469893721969
-0.005418472290076336,-0.003067049510847891
-0.005418132290076336,-0.003132876626357004
