Analysis/files/cmb03_d2s01/wrd06_ch45.csv

#Digilent WaveForms Oscilloscope Acquisition
#Device Name: ADP3450
#Serial Number: SN:210018B9D9B0
#Date Time: 2024-08-09 18:24:37.161.978.350
#Sample rate: 2.94118e+06Hz
#Samples: 32768
#Trigger: Source: Channel 3 Type: Edge Condition: Rising Level: 60 mV Hyst.: Auto HoldOff: 0 s
#Channel 3: Range: 200 mV/div Offset: -20 mV Attenuation: 1 X Coupling: DC Bandwidth: 0 Hz Sample Mode: Average

Time (s),Channel 3 (V)
-0.005570356949941793,-0.001026408930065351
-0.005570016949941792,-0.0007631004680301499
-0.005569676949941793,-0.001454285180874593
-0.005569336949941793,0.0008825774196989621
-0.005568996949941792,-0.001223890276597541
-0.005568656949941793,-0.003889888454711818
-0.005568316949941793,-0.003462012203902576
-0.005567976949941792,-0.004515246052051817
-0.005567636949941793,-0.006391318844058157
-0.005567296949941793,-0.007905342500767784
-0.005566956949941792,-0.008036996731787991
-0.005566616949941793,-0.009123144137686397
-0.005566276949941793,-0.007181244230167527
-0.005565936949941792,-0.006983762883641863
-0.005565596949941793,-0.007905342500767784
-0.005565256949941793,-0.006325491728549043
-0.005564916949941792,-0.0056672205734591
-0.005564576949941793,-0.006325491728549043
-0.005564236949941793,-0.00570013413121246
-0.005563896949941792,-0.005502652784687989
-0.005563556949941793,-0.007082503556903857
-0.005563216949941793,-0.008234478078313356
-0.005562876949941793,-0.008563613655858329
-0.005562536949941793,-0.01060425423664147
-0.005562196949941793,-0.01284237616395135
-0.005561856949941793,-0.01251324058640638
-0.005561516949941793,-0.01284237616395135
-0.005561176949941793,-0.01409309135862452
-0.005560836949941793,-0.01320442529925309
-0.005560496949941793,-0.01264489481742401
-0.005560156949941793,-0.01274363549068768
-0.005559816949941793,-0.01162457452703477
-0.005559476949941793,-0.01126252539173261
-0.005559136949941793,-0.01224993212436933
-0.005558796949941793,-0.01155874741152488
-0.005558456949941793,-0.01215119145110565
-0.005558116949941793,-0.01313859818374236
-0.005557776949941793,-0.01333607953026935
-0.005557436949941793,-0.01264489481742401
-0.005557096949941793,-0.01336899308802426
-0.005556756949941793,-0.01662743530571949
-0.005556416949941793,-0.01244741347089667
-0.005556076949941793,-0.01382978289658807
-0.005555736949941793,-0.01142709318050977
-0.005555396949941793,-0.01017637798583223
-0.005555056949941793,-0.01573876924635238
-0.005554716949941793,-0.01517923876452592
-0.005554376949941793,-0.01090047625643248
-0.005554036949941793,-0.01251324058640578
-0.005553696949941793,-0.01524506588003402
-0.005553356949941793,-0.01412600491637908
-0.005553016949941793,-0.01468553539820655
-0.005552676949941793,-0.01583750991961605
-0.005552336949941792,-0.01666034886347997
-0.005551996949941793,-0.01600207770838883
-0.005551656949941793,-0.01616664549716162
-0.005551316949941792,-0.01455388116718635
-0.005550976949941793,-0.01346773376128794
-0.005550636949941793,-0.01406017780086997
-0.005550296949941792,-0.01379686933883105
-0.005549956949941793,-0.01244741347089667
-0.005549616949941793,-0.01353356087679705
-0.005549276949941792,-0.01300694395272449
-0.005548936949941793,-0.01320442529925148
-0.005548596949941793,-0.01452096760943376
-0.005548256949941792,-0.01445514049392453
-0.005547916949941793,-0.01438931337841554
-0.005547576949941793,-0.01540963366880681
-0.005547236949941792,-0.01675908953674113
-0.005546896949941793,-0.01537672011105225
-0.005546556949941793,-0.02005044531219936
-0.005546216949941792,-0.01942508771484834
-0.005545876949941793,-0.01149292029601451
-0.005545536949941793,-0.01557420145757959
-0.005545196949941792,-0.009386452599718724
-0.005544856949941793,-0.007115417114658414
-0.005544516949941793,-0.01313859818374236
-0.005544176949941792,-0.01346773376128033
-0.005543836949941793,-0.009287711926459184
-0.005543496949941793,-0.01090047625643248
-0.005543156949941792,-0.01488301674473186
-0.005542816949941793,-0.01376395578107895
-0.005542476949941793,-0.01425765914739731
-0.005542136949941793,-0.01613373193940365
-0.005541796949941793,-0.01741736069183479
-0.005541456949941793,-0.01833894030896239
-0.005541116949941793,-0.02139990118013063
-0.005540776949941793,-0.02146572829564531
-0.005540436949941793,-0.0211695062758543
-0.005540096949941793,-0.02133407406462678
-0.005539756949941793,-0.02080745714055417
-0.005539416949941793,-0.01843768098222606
-0.005539076949941793,-0.0168249166522557
-0.005538736949941793,-0.01662743530572542
-0.005538396949941793,-0.01379686933883351
-0.005538056949941793,-0.013895610012097
-0.005537716949941793,-0.01366521510781528
-0.005537376949941793,-0.01412600491637908
-0.005537036949941793,-0.015047584533505
-0.005536696949941793,-0.0167920030944982
-0.005536356949941793,-0.01619955905491618
-0.005536016949941793,-0.02110367916033626
-0.005535676949941793,-0.01656160819021631
-0.005535336949941793,-0.01113087116071438
-0.005534996949941793,-0.0168249166522424
-0.005534656949941793,-0.01241449991314211
-0.005534316949941793,-0.01359938799230617
-0.005533976949941793,-0.01896429790628921
-0.005533636949941793,-0.01791106405815315
-0.005533296949941793,-0.01396143712760629
-0.005532956949941793,-0.01429057270515186
-0.005532616949941793,-0.01577168280410694
-0.005532276949941793,-0.01284237616395135
-0.005531936949941793,-0.01172331520029641
-0.005531596949941792,-0.007543293365467656
-0.005531256949941793,-0.01251324058640578
-0.005530916949941793,-0.01323733885700604
-0.005530576949941792,-0.01461970828269744
-0.005530236949941793,-0.01580459636186149
-0.005529896949941793,-0.01583750991961605
-0.005529556949941792,-0.01636412684368992
-0.005529216949941793,-0.01689074376776187
-0.005528876949941793,-0.01698948444102555
-0.005528536949941792,-0.01682491665225599
-0.005528196949941793,-0.01860224877099884
-0.005527856949941793,-0.01745027424958934
-0.005527516949941792,-0.01656160819021673
-0.005527176949941793,-0.0167920030944982
-0.005526836949941793,-0.01531089299554313
-0.005526496949941792,-0.01419183203188736
-0.005526156949941793,-0.01373104222332439
-0.005525816949941793,-0.01435639982066098
-0.005525476949941792,-0.01708822511428113
-0.005525136949941793,-0.01264489481742401
-0.005524796949941793,-0.01300694395272414
-0.005524456949941792,-0.01666034886347183
-0.005524116949941793,-0.01218410500886021
-0.005523776949941793,-0.01735153357632568
-0.005523436949941792,-0.02462542984009255
-0.005523096949941793,-0.02999033975407561
-0.005522756949941793,-0.04230001035427997
-0.005522416949941792,-0.06194940433380025
-0.005522076949941793,-0.08926765727003294
-0.005521736949941793,-0.1184619829983251
-0.005521396949941792,-0.1500589984427579
-0.005521056949941793,-0.1819193223491112
-0.005520716949941793,-0.2125618446186039
-0.005520376949941793,-0.2383989874558842
-0.005520036949941793,-0.2581800356664201
-0.005519696949941793,-0.2735506671377982
-0.005519356949941793,-0.2799688108999252
-0.005519016949941793,-0.2854982886027024
-0.005518676949941793,-0.2859590784112662
-0.005518336949941793,-0.2818119701341996
-0.005517996949941793,-0.2756571348340899
-0.005517656949941793,-0.270226397804588
-0.005517316949941793,-0.2631828964451255
-0.005516976949941793,-0.2531113477722182
-0.005516636949941793,-0.2459691057394793
-0.005516296949941793,-0.2371153587035196
-0.005515956949941793,-0.2299072895552555
-0.005515616949941793,-0.2229954424267985
-0.005515276949941793,-0.2180913223213784
-0.005514936949941793,-0.2121997954833038
-0.005514596949941793,-0.1970595589162075
-0.005514256949941793,-0.1942619065070752
-0.005513916949941793,-0.1844207527384576
-0.005513576949941793,-0.1759290548377818
-0.005513236949941793,-0.1755670057024824
-0.005512896949941793,-0.1700704415574707
-0.005512556949941793,-0.1618420521188314
-0.005512216949941793,-0.1575303760529844
-0.005511876949941793,-0.151836330561446
-0.005511536949941793,-0.1470967782447898
-0.005511196949941793,-0.1425217937169063
-0.005510856949941793,-0.1381772040933048
-0.005510516949941793,-0.1336022195654214
-0.005510176949941793,-0.1315286654268843
-0.005509836949941792,-0.1272828164765464
-0.005509496949941793,-0.1228394861796812
-0.005509156949941793,-0.1196797846352437
-0.005508816949941792,-0.1154997628004061
-0.005508476949941793,-0.1106285562527405
-0.005508136949941793,-0.1069093242264756
-0.005507796949941792,-0.1013469329659438
-0.005507456949941793,-0.0949946163193259
-0.005507116949941793,-0.09209822323692488
-0.005506776949941792,-0.08890560813472571
-0.005506436949941793,-0.08498889476194052
-0.005506096949941793,-0.08380400668277646
-0.005505756949941792,-0.08248746437259258
-0.005505416949941793,-0.08159879831322114
-0.005505076949941793,-0.08001894754100242
-0.005504736949941792,-0.0820266745640207
-0.005504396949941793,-0.07669467820779213
-0.005504056949941793,-0.06823589386487097
-0.005503716949941792,-0.07195512589112497
-0.005503376949941793,-0.06593194482205197
-0.005503036949941793,-0.06310137885516007
-0.005502696949941792,-0.06800549896058414
-0.005502356949941793,-0.06530658722471538
-0.005502016949941793,-0.06073160269683194
-0.005501676949941792,-0.05951380105991362
-0.005501336949941793,-0.05967836884868611
-0.005500996949941793,-0.05526795210957546
-0.005500656949941792,-0.05306274374001648
-0.005500316949941793,-0.05105501671699215
-0.005499976949941793,-0.04914603036722785
-0.005499636949941793,-0.04796114228806594
-0.005499296949941793,-0.04703956267093618
-0.005498956949941793,-0.04562427968749023
-0.005498616949941793,-0.04532805766769975
-0.005498276949941793,-0.04575593391850846
-0.005497936949941793,-0.04230001035427997
-0.005497596949941793,-0.04223418323877096
-0.005497256949941793,-0.04269497304733465
-0.005496916949941793,-0.04098346804409768
-0.005496576949941793,-0.04269497304733154
-0.005496236949941793,-0.04190504766122528
-0.005495896949941793,-0.04200378833448895
-0.005495556949941793,-0.04108220871736303
-0.005495216949941793,-0.04088472737083401
-0.005494876949941793,-0.03844912409699678
-0.005494536949941793,-0.0381858156349608
-0.005494196949941793,-0.04144425785266147
-0.005493856949941793,-0.03278799216321296
-0.005493516949941793,-0.03212972100812302
-0.005493176949941793,-0.03403870735788612
-0.005492836949941793,-0.02785095850002939
-0.005492496949941793,-0.03068152446691615
-0.005492156949941793,-0.03571729880336854
-0.005491816949941793,-0.03216263456587638
-0.005491476949941793,-0.02900293302144464
-0.005491136949941793,-0.03110940071773054
-0.005490796949941793,-0.03008908042733927
-0.005490456949941793,-0.02880545167491155
-0.005490116949941793,-0.02850922965512053
-0.005489776949941793,-0.02992451263856649
-0.005489436949941793,-0.02801552628880218
-0.005489096949941792,-0.02841048898185686
-0.005488756949941793,-0.02821300763532952
-0.005488416949941793,-0.02511913320640115
-0.005488076949941792,-0.02656732974759921
-0.005487736949941793,-0.02521787387966482
-0.005487396949941793,-0.02334180108765507
-0.005487056949941792,-0.02182777743094939
-0.005486716949941793,-0.02400007224274621
-0.005486376949941793,-0.02344054176091874
-0.005486036949941792,-0.02360510954969135
-0.005485696949941793,-0.02350636887642785
-0.005485356949941793,-0.0223214807972638
-0.005485016949941792,-0.02265061637480632
-0.005484676949941793,-0.02097202492932695
-0.005484336949941793,-0.02126824694911797
-0.005483996949941792,-0.02627110772781383
-0.005483656949941793,-0.02801552628880218
-0.005483316949941793,-0.01870098944426252
-0.005482976949941792,-0.02344054176091569
-0.005482636949941793,-0.02176195031543633
-0.005482296949941793,-0.01814145896243505
-0.005481956949941792,-0.02327597397214966
-0.005481616949941793,-0.0253166145529285
-0.005481276949941793,-0.02192651810420911
-0.005480936949941792,-0.0200175317544487
-0.005480596949941793,-0.02215691300849101
-0.005480256949941793,-0.02120241983360886
-0.005479916949941792,-0.02100493848708014
-0.005479576949941793,-0.0202479266587267
-0.005479236949941793,-0.0207087164672905
-0.005478896949941793,-0.01919469281058363
-0.005478556949941793,-0.01922760636833543
-0.005478216949941793,-0.01995170463893569
-0.005477876949941793,-0.0185693352132468
-0.005477536949941793,-0.01919469281058087
-0.005477196949941793,-0.02021501310097214
-0.005476856949941793,-0.01883264367528326
-0.005476516949941793,-0.01833894030896239
-0.005476176949941793,-0.02130116050687253
-0.005475836949941793,-0.02182777743094448
-0.005475496949941793,-0.02100493848708151
-0.005475156949941793,-0.0220910858929819
-0.005474816949941793,-0.02261770281705385
-0.005474476949941793,-0.02265061637480937
-0.005474136949941793,-0.02288101127909127
-0.005473796949941793,-0.02169612319992937
-0.005473456949941793,-0.02334180108765507
-0.005473116949941793,-0.02215691300849101
-0.005472776949941793,-0.01616664549717252
-0.005472436949941793,-0.01837185386671695
-0.005472096949941793,-0.01379686933883351
-0.005471756949941793,-0.01333607953027055
-0.005471416949941793,-0.01833894030896239
-0.005471076949941793,-0.01738444713408023
-0.005470736949941793,-0.01481718962922945
-0.005470396949941793,-0.01511341164901579
-0.005470056949941793,-0.01850350809773518
-0.005469716949941793,-0.01797689117366226
-0.005469376949941793,-0.017252792903062
-0.005469036949941793,-0.0181743725201896
-0.005468696949941793,-0.02126824694911797
-0.005468356949941792,-0.02123533339136342
-0.005468016949941793,-0.01988587752342657
-0.005467676949941793,-0.02202525877747279
-0.005467336949941792,-0.01972130973465379
-0.005466996949941793,-0.01939217415710821
-0.005466656949941793,-0.01866807588650796
-0.005466316949941792,-0.01725279290305949
-0.005465976949941793,-0.0158704234773706
-0.005465636949941793,-0.01567294213084326
-0.005465296949941792,-0.01662743530572159
-0.005464956949941793,-0.01452096760943376
-0.005464616949941793,-0.01445514049392465
-0.005464276949941792,-0.0146197082826969
-0.005463936949941793,-0.01432348626290642
-0.005463596949941793,-0.01438931337841554
-0.005463256949941792,-0.01465262184045798
-0.005462916949941793,-0.0179439776159077
-0.005462576949941793,-0.01475136251371566
-0.005462236949941792,-0.01241449991314642
-0.005461896949941793,-0.01478427607147022
-0.005461556949941793,-0.01106504404520527
-0.005461216949941792,-0.01379686933884362
-0.005460876949941793,-0.01935926059935366
-0.005460536949941793,-0.01682491665225276
-0.005460196949941792,-0.01442222693617195
-0.005459856949941793,-0.01544254722656136
-0.005459516949941793,-0.0170223979987801
-0.005459176949941792,-0.01692365732551643
-0.005458836949941793,-0.01692365732551643
-0.005458496949941793,-0.01695657088327099
-0.005458156949941792,-0.01912886569507343
-0.005457816949941793,-0.02005044531219936
-0.005457476949941793,-0.01843768098222606
-0.005457136949941793,-0.01965548261914246
-0.005456796949941793,-0.01850350809773518
-0.005456456949941793,-0.01781232338488947
-0.005456116949941793,-0.01797689117366196
-0.005455776949941793,-0.0186351623287534
-0.005455436949941793,-0.01754901492285302
-0.005455096949941793,-0.01820728607794296
-0.005454756949941793,-0.01958965550363556
-0.005454416949941793,-0.0181743725201896
-0.005454076949941793,-0.01797689117366262
-0.005453736949941793,-0.01912886569507176
-0.005453396949941793,-0.01771358271162581
-0.005453056949941793,-0.0165616081902184
-0.005452716949941793,-0.01761484203836213
-0.005452376949941793,-0.02123533339136342
-0.005452036949941793,-0.01465262184046396
-0.005451696949941793,-0.01382978289658807
-0.005451356949941793,-0.0147184489559611
-0.005451016949941793,-0.008102823847307162
-0.005450676949941793,-0.01162457452703274
-0.005450336949941793,-0.01554128789982503
-0.005449996949941793,-0.01303985751048325
-0.005449656949941793,-0.01172331520029641
-0.005449316949941793,-0.01425765914739731
-0.005448976949941793,-0.01646286751694862
-0.005448636949941793,-0.01705531155653466
-0.005448296949941793,-0.01807563184692593
-0.005447956949941793,-0.01636412684368896
-0.005447616949941793,-0.01741736069183479
-0.005447276949941793,-0.01718696578755289
-0.005446936949941793,-0.01629829972817985
-0.005446596949941792,-0.01547546078431592
-0.005446256949941793,-0.01580459636186149
-0.005445916949941793,-0.0158704234773706
-0.005445576949941792,-0.01478427607147309
-0.005445236949941793,-0.01636412684368896
-0.005444896949941793,-0.01524506588003402
-0.005444556949941792,-0.01547546078431712
-0.005444216949941793,-0.01613373193940706
-0.005443876949941793,-0.01485010318697934
-0.005443536949941792,-0.01452096760943718
-0.005443196949941793,-0.01639704040144352
-0.005442856949941793,-0.01596916415063428
-0.005442516949941792,-0.01412600491638537
-0.005442176949941793,-0.01758192848060757
-0.005441836949941793,-0.01942508771486277
-0.005441496949941792,-0.01165748808478664
-0.005441156949941793,-0.01129543894948717
-0.005440816949941793,-0.01682491665225276
-0.005440476949941792,-0.01386269645434017
-0.005440136949941793,-0.01251324058640578
-0.005439796949941793,-0.01445514049392465
-0.005439456949941792,-0.01336899308802546
-0.005439116949941793,-0.01402726424311541
-0.005438776949941793,-0.01534380655329769
-0.005438436949941792,-0.01623247261266935
-0.005438096949941793,-0.01547546078431592
-0.005437756949941793,-0.01633121328593441
-0.005437416949941792,-0.01129543894950309
-0.005437076949941793,-0.02005044531219936
-0.005436736949941793,-0.01820728607794416
-0.005436396949941793,-0.0164957810747103
-0.005436056949941793,-0.01623247261267073
-0.005435716949941793,-0.01698948444102555
-0.005435376949941793,-0.01718696578755253
-0.005435036949941793,-0.01531089299554313
-0.005434696949941793,-0.01745027424958934
-0.005434356949941793,-0.01725279290306236
-0.005434016949941793,-0.01735153357632568
-0.005433676949941793,-0.01751610136509846
-0.005433336949941793,-0.01669326242123603
-0.005432996949941793,-0.01531089299554313
-0.005432656949941793,-0.01514632520677035
-0.005432316949941793,-0.01524506588003384
-0.005431976949941793,-0.0121182778933511
-0.005431636949941793,-0.01455388116718832
-0.005431296949941793,-0.009090230579941778
-0.005430956949941793,-0.00988015596604121
-0.005430616949941793,-0.008497786540349814
-0.005430276949941793,-0.01083464914091912
-0.005429936949941793,-0.01626538617042529
-0.005429596949941793,-0.0158704234773706
-0.005429256949941793,-0.01679200309449652
-0.005428916949941793,-0.01712113867204378
-0.005428576949941793,-0.01705531155653466
-0.005428236949941793,-0.01689074376776217
-0.005427896949941793,-0.01728570646081656
-0.005427556949941793,-0.01728570646081656
-0.005427216949941793,-0.01698948444102555
-0.005426876949941793,-0.01656160819021631
-0.005426536949941793,-0.01554128789982503
-0.005426196949941793,-0.01741736069183479
-0.005425856949941792,-0.01675908953674365
-0.005425516949941793,-0.01524506588003402
-0.005425176949941793,-0.01633121328593441
-0.005424836949941792,-0.01771358271162581
-0.005424496949941793,-0.01652869463246175
-0.005424156949941793,-0.0174831878073439
-0.005423816949941792,-0.01738444713407945
-0.005423476949941793,-0.01695657088327099
-0.005423136949941793,-0.0179439776159077
-0.005422796949941792,-0.01794397761590309
-0.005422456949941793,-0.01540963366880681
-0.005422116949941793,-0.01481718962922478
-0.005421776949941792,-0.01728570646082237
-0.005421436949941793,-0.0204783215630086
-0.005421096949941793,-0.01402726424311541
-0.005420756949941792,-0.01419183203189568
-0.005420416949941793,-0.01830602675120783
-0.005420076949941793,-0.01501467097575212
-0.005419736949941792,-0.01761484203837003
-0.005419396949941793,-0.02195943166196367
-0.005419056949941793,-0.01847059453998062
-0.005418716949941792,-0.01843768098222516
-0.005418376949941793,-0.0179439776159077
-0.005418036949941793,-0.01768066915387125
-0.005417696949941792,-0.016923657325515
-0.005417356949941793,-0.01613373193940706
-0.005417016949941793,-0.01672617597898909
-0.005416676949941792,-0.01623247261267373
-0.005416336949941793,-0.01787815050039859
-0.005415996949941793,-0.01662743530572542
-0.005415656949941792,-0.01906303857956109
