Analysis/files/cmb03_d2s01/wrd07_ch27.csv

#Digilent WaveForms Oscilloscope Acquisition
#Device Name: ADP3450
#Serial Number: SN:210018B9D9B0
#Date Time: 2024-08-09 17:47:02.808.605.930
#Sample rate: 2.94118e+06Hz
#Samples: 32768
#Trigger: Source: Channel 3 Type: Edge Condition: Rising Level: 60 mV Hyst.: Auto HoldOff: 0 s
#Channel 3: Range: 200 mV/div Offset: -20 mV Attenuation: 1 X Coupling: DC Bandwidth: 0 Hz Sample Mode: Average

Time (s),Channel 3 (V)
-0.005570303041474655,0.01009837359097495
-0.005569963041474654,0.008485609261004048
-0.005569623041474655,0.009802151571183939
-0.005569283041474655,0.008551436376510768
-0.005568943041474654,0.008485609261003032
-0.005568603041474655,0.009242621089356468
-0.005568263041474655,0.009308448204865582
-0.005567923041474654,0.009110966858339497
-0.005567583041474655,0.009802151571183939
-0.005567243041474655,0.0100654600332204
-0.005566903041474654,0.008386868587736906
-0.005566563041474655,0.007794424548155956
-0.005566223041474655,0.007893165221419626
-0.005565883041474654,0.00723489406633082
-0.005565543041474654,0.008518522818756211
-0.005565203041474655,0.006774104257764684
-0.005564863041474654,0.004206846752906179
-0.005564523041474654,0.002528255307426817
-0.005564183041474655,0.001442107901526435
-0.005563843041474654,-0.005634307015699874
-0.005563503041474654,-0.003725320665939034
-0.005563163041474655,0.0006192689576625041
-0.005562823041474655,-3.900219742743833e-05
-0.005562483041474654,0.0001584791490987052
-0.005562143041474655,-0.003560752877166246
-0.005561803041474655,-0.004087369801238205
-0.005561463041474654,-0.002244210566983963
-0.005561123041474655,-0.0003681377749742074
-0.005560783041474655,0.0002572198223612415
-0.005560443041474654,-0.000697273352519779
-0.005560103041474655,0.001507935017035548
-0.005559763041474655,0.002100379056616497
-0.005559423041474654,0.001705416363562889
-0.005559083041474655,0.001935811267844791
-0.005558743041474655,0.00111297232398236
-0.005558403041474654,-0.001026408930065351
-0.005558063041474655,-0.0006643597947652222
-0.005557723041474655,-0.0009276682568011977
-0.005557383041474654,-0.002803741048811433
-0.005557043041474655,-0.002606259702284092
-0.005556703041474655,-0.001355544507613197
-0.005556363041474654,0.0004876147266442768
-0.005556023041474655,-0.0002693971017105369
-0.005555683041474655,-0.0001377428706925456
-0.005555343041474654,-0.001454285180874593
-0.005555003041474655,-0.003001222395338777
-0.005554663041474655,-0.003363271530638247
-0.005554323041474654,-0.007576206923222212
-0.005553983041474655,-0.00909023057993184
-0.005553643041474655,-0.01300694395272414
-0.005553303041474654,-0.01267780837517857
-0.005552963041474655,-0.007905342500767784
-0.005552623041474655,-0.005897615477739801
-0.005552283041474654,-0.003692407108184477
-0.005551943041474655,-0.007115417114658414
-0.005551603041474655,-0.008135737405049685
-0.005551263041474654,-0.005206430764891646
-0.005550923041474655,-0.003856974896957261
-0.005550583041474655,-0.004153196916748276
-0.005550243041474654,-0.002869568164322282
-0.005549903041474655,-0.003824061339202704
-0.005549563041474655,-0.00237586479800219
-0.005549223041474654,-0.002441691913511843
-0.005548883041474655,-0.002737913933302319
-0.005548543041474655,-0.003198703741866118
-0.005548203041474654,-0.003330357972885905
-0.005547863041474655,-0.004186110474502833
-0.005547523041474655,-0.005074776533875874
-0.005547183041474654,-0.004482332494293069
-0.005546843041474655,-0.004054456243484602
-0.005546503041474655,-0.003692407108184477
-0.005546163041474654,-0.003165790184114674
-0.005545823041474655,-0.004877295187348533
-0.005545483041474655,-0.005963442593248915
-0.005545143041474654,-0.006029269708761444
-0.005544803041474654,-0.007905342500767784
-0.005544463041474655,-0.008991489906668169
-0.005544123041474654,-0.00757620692322359
-0.005543783041474654,-0.008333218751577026
-0.005543443041474655,-0.008596527213613484
-0.005543103041474654,-0.01162457452702256
-0.005542763041474654,-0.006029269708758032
-0.005542423041474655,-0.002013815662702062
-0.005542083041474655,-0.005338084995906284
-0.005541743041474654,-0.005601393457948786
-0.005541403041474655,-0.002770827491056876
-0.005541063041474655,-0.002606259702284391
-0.005540723041474654,-0.003330357972884349
-0.005540383041474655,-0.003067049510847891
-0.005540043041474655,-0.003527839319410851
-0.005539703041474654,-0.003725320665939034
-0.005539363041474655,-0.006292578170794486
-0.005539023041474655,-0.006160923939776498
-0.005538683041474654,-0.00570013413121246
-0.005538343041474655,-0.007312898461185758
-0.005538003041474655,-0.007905342500766707
-0.005537663041474654,-0.00764203403873133
-0.005537323041474655,-0.005996356151003471
-0.005536983041474655,-0.006588800190584424
-0.005536643041474654,-0.005338084995912332
-0.005536303041474655,-0.006325491728549043
-0.005535963041474655,-0.007839515385255916
-0.005535623041474654,-0.006983762883640186
-0.005535283041474655,-0.008300305193822469
-0.005534943041474655,-0.008925662791157918
-0.005534603041474654,-0.009221884810950071
-0.005534263041474655,-0.008201564520558799
-0.005533923041474655,-0.00843195942484028
-0.005533583041474654,-0.007773688269749557
-0.005533243041474655,-0.008530700098104371
-0.005532903041474655,-0.00764203403873133
-0.005532563041474654,-0.004778554514084859
-0.005532223041474655,-0.004186110474502833
-0.005531883041474655,-0.005930529035494358
-0.005531543041474654,-0.003198703741866118
-0.005531203041474655,-0.00168468008515649
-0.005530863041474655,-0.006917935768131073
-0.005530523041474654,-0.006687540863849172
-0.005530183041474655,-0.004021542685730045
-0.005529843041474655,-0.004449418936539287
-0.005529503041474654,-0.005469739226926727
-0.005529163041474655,-0.003363271530638905
-0.005528823041474655,-0.003527839319411689
-0.005528483041474654,-0.00510769009162612
-0.005528143041474655,-0.002737913933302319
-0.005527803041474655,-0.002244210566983963
-0.005527463041474654,-0.003494925761658569
-0.005527123041474655,-0.004284851147766503
-0.005526783041474655,-0.004120283358993719
-0.005526443041474654,-0.005173517207143556
-0.005526103041474655,-0.007378725576694872
-0.005525763041474655,-0.0084319594248407
-0.005525423041474654,-0.008859835675645392
-0.005525083041474655,-0.0063584052863036
-0.005524743041474655,-0.00783951538525867
-0.005524403041474654,-0.008662354329121161
-0.005524063041474655,-0.007872428943013227
-0.005523723041474655,-0.007115417114658414
-0.005523383041474654,-0.01063716779440914
-0.005523043041474654,-0.01784523694264403
-0.005522703041474655,-0.02857505677062965
-0.005522363041474654,-0.05000178286889183
-0.005522023041474654,-0.07501608676230972
-0.005521683041474655,-0.09795683651723602
-0.005521343041474654,-0.130245036674514
-0.005521003041474654,-0.1618091385610768
-0.005520663041474655,-0.1934719811209608
-0.005520323041474655,-0.2216789001165649
-0.005519983041474654,-0.2410978991918049
-0.005519643041474655,-0.2537367053695548
-0.005519303041474655,-0.2627550201942871
-0.005518963041474654,-0.2675603996264688
-0.005518623041474655,-0.2665729928938321
-0.005518283041474655,-0.2615701321151485
-0.005517943041474654,-0.2568634933562378
-0.005517603041474655,-0.2487009310331076
-0.005517263041474655,-0.2410978991918187
-0.005516923041474654,-0.2351076316804755
-0.005516583041474655,-0.2276691676279456
-0.005516243041474655,-0.2202636171331837
-0.005515903041474654,-0.2127922395228858
-0.005515563041474655,-0.2056829110479015
-0.005515223041474655,-0.1984090147841576
-0.005514883041474654,-0.1922870930417967
-0.005514543041474655,-0.1849144561047759
-0.005514203041474655,-0.1789571021512119
-0.005513863041474654,-0.1743821176233177
-0.005513523041474655,-0.1689842941515703
-0.005513183041474655,-0.1618420521188444
-0.005512843041474654,-0.1565100557625931
-0.005512503041474655,-0.151540108541655
-0.005512163041474655,-0.146339766416435
-0.005511823041474654,-0.1449573969907436
-0.005511483041474655,-0.133108516199103
-0.005511143041474655,-0.1260321012818733
-0.005510803041474654,-0.1211279811764442
-0.005510463041474655,-0.1168821322261064
-0.005510123041474655,-0.1157301577046969
-0.005509783041474654,-0.1116159629853772
-0.005509443041474655,-0.107699249612585
-0.005509103041474655,-0.1034534006622471
-0.005508763041474654,-0.09848345344130767
-0.005508423041474655,-0.09779226872846325
-0.005508083041474655,-0.09344767910486171
-0.005507743041474654,-0.09055128602245732
-0.005507403041474655,-0.08870812678820547
-0.005507063041474655,-0.08689788111170485
-0.005506723041474654,-0.08373817956726706
-0.005506383041474655,-0.08357361177849457
-0.005506043041474655,-0.07982146619447505
-0.005505703041474654,-0.07435781560721588
-0.005505363041474655,-0.07287670550826353
-0.005505023041474655,-0.06968409040607149
-0.005504683041474654,-0.06616233972632932
-0.005504343041474655,-0.06366090933698754
-0.005504003041474655,-0.06112656538988662
-0.005503663041474654,-0.05862513500053813
-0.005503323041474655,-0.05744024692137623
-0.005502983041474655,-0.05635409951547584
-0.005502643041474654,-0.05388558268388156
-0.005502303041474654,-0.05250321325819266
-0.005501963041474655,-0.05138415229453772
-0.005501623041474654,-0.05089044892821828
-0.005501283041474654,-0.05029800488863734
-0.005500943041474655,-0.04216835612326173
-0.005500603041474654,-0.0393707037141203
-0.005500263041474654,-0.03713258178681449
-0.005499923041474655,-0.03960109861840628
-0.005499583041474655,-0.04147717141041262
-0.005499243041474654,-0.03930487659861526
-0.005498903041474655,-0.03890991390556058
-0.005498563041474655,-0.0398973206381955
-0.005498223041474654,-0.03752754447986918
-0.005497883041474655,-0.0350590276482774
-0.005497543041474655,-0.03558564457234936
-0.005497203041474654,-0.03308421418300397
-0.005496863041474655,-0.03173475831506713
-0.005496523041474655,-0.03015490754285127
-0.005496183041474654,-0.02933206859898446
-0.005495843041474655,-0.02923332792572079
-0.005495503041474655,-0.02946372283000227
-0.005495163041474654,-0.02739016869146559
-0.005494823041474655,-0.02762056359574749
-0.005494483041474655,-0.027521822922484
-0.005494143041474654,-0.02604071282352875
-0.005493803041474655,-0.02400007224274621
-0.005493463041474655,-0.02350636887642875
-0.005493123041474654,-0.0218606909887
-0.005492783041474655,-0.02067580290953594
-0.005492443041474655,-0.02077454358279943
-0.005492103041474654,-0.01810854540468049
-0.005491763041474655,-0.01824019963569871
-0.005491423041474655,-0.01886555723303417
-0.005491083041474654,-0.02383550445397342
-0.005490743041474655,-0.01807563184692593
-0.005490403041474655,-0.01521215232227946
-0.005490063041474654,-0.01274363549068768
-0.005489723041474655,-0.01053842712113235
-0.005489383041474655,-0.017252792903062
-0.005489043041474654,-0.01593625059287972
-0.005488703041474655,-0.01481718962922478
-0.005488363041474655,-0.01534380655329769
-0.005488023041474654,-0.01962256906137802
-0.005487683041474655,-0.01297403039496958
-0.005487343041474655,-0.0184047674244715
-0.005487003041474654,-0.01949091483036782
-0.005486663041474655,-0.017252792903062
-0.005486323041474655,-0.01718696578755289
-0.005485983041474654,-0.01656160819021523
-0.005485643041474655,-0.01596916415063428
-0.005485303041474655,-0.01409309135862452
-0.005484963041474654,-0.01382978289658543
-0.005484623041474655,-0.01238158635538755
-0.005484283041474655,-0.0107359084676597
-0.005483943041474654,-0.0109992169296931
-0.005483603041474655,-0.009320625484213741
-0.005483263041474655,-0.008991489906668169
-0.005482923041474654,-0.008069910289541888
-0.005482583041474655,-0.008794008560140829
-0.005482243041474655,-0.007477466249958542
-0.005481903041474654,-0.008267391636066296
-0.005481563041474655,-0.007378725576694872
-0.005481223041474655,-0.007740774711995
-0.005480883041474654,-0.01159166096928519
-0.005480543041474654,-0.01544254722656136
-0.005480203041474655,-0.008168650962804242
-0.005479863041474654,-0.008596527213618513
-0.005479523041474654,-0.01136126606499628
-0.005479183041474655,-0.0105055135633778
-0.005478843041474655,-0.01458679472493545
-0.005478503041474654,-0.01550837434207047
-0.005478163041474655,-0.01201953722008742
-0.005477823041474655,-0.01211827789335092
-0.005477483041474654,-0.01290820327946047
-0.005477143041474655,-0.009616847504004756
-0.005476803041474655,-0.008497786540351849
-0.005476463041474654,-0.009320625484213741
-0.005476123041474655,-0.008464872982595257
-0.005475783041474655,-0.007279984903433357
-0.005475443041474654,-0.007444552692203985
-0.005475103041474655,-0.008761095002386268
-0.005474763041474655,-0.00889274923340426
-0.005474423041474654,-0.01109795760295982
-0.005474083041474655,-0.01011055087032311
-0.005473743041474655,-0.009386452599724171
-0.005473403041474654,-0.01132835250724173
-0.005473063041474655,-0.00988015596604121
-0.005472723041474655,-0.007971169616280371
-0.005472383041474654,-0.007971169616276898
-0.005472043041474655,-0.008333218751577026
-0.005471703041474655,-0.007740774711996077
-0.005471363041474654,-0.007214157787922088
-0.005471023041474655,-0.00695084932588563
-0.005470683041474655,-0.006193837497532193
-0.005470343041474654,-0.01034094577460501
-0.005470003041474655,-0.01093338981418704
-0.005469663041474655,-0.003034135953093334
-0.005469323041474654,-0.003429098646148019
-0.005468983041474655,-0.00491020874510309
-0.005468643041474655,-0.006325491728549043
-0.005468303041474654,-0.009353539041968298
-0.005467963041474655,-0.007872428943013227
-0.005467623041474655,-0.007181244230167527
-0.005467283041474654,-0.009287711926459184
-0.005466943041474655,-0.01053842712113235
-0.005466603041474655,-0.008991489906668169
-0.005466263041474654,-0.007971169616278334
-0.005465923041474655,-0.008761095002386268
-0.005465583041474655,-0.008069910289540572
-0.005465243041474654,-0.007049589999150617
-0.005464903041474655,-0.007773688269749557
-0.005464563041474655,-0.007905342500767784
-0.005464223041474654,-0.006687540863850968
-0.005463883041474655,-0.007674947596485886
-0.005463543041474655,-0.007740774711995
-0.005463203041474654,-0.007312898461185878
-0.005462863041474655,-0.007378725576694872
-0.005462523041474655,-0.008135737405049685
-0.005462183041474654,-0.006917935768129936
-0.005461843041474655,-0.006292578170794486
-0.005461503041474655,-0.005733047688967017
-0.005461163041474654,-0.005601393457948068
-0.005460823041474655,-0.005206430764894101
-0.005460483041474655,-0.006588800190585501
-0.005460143041474654,-0.006490059517331051
-0.005459803041474654,-0.01155874741152362
-0.005459463041474655,-0.01294111683721502
-0.005459123041474654,-0.006654627306094675
-0.005458783041474654,-0.006687540863849172
-0.005458443041474655,-0.005798874804476131
-0.005458103041474654,-0.008300305193822828
-0.005457763041474654,-0.008497786540349814
-0.005457423041474655,-0.007247071345676644
-0.005457083041474655,-0.00714833067241315
-0.005456743041474654,-0.007510379807713099
-0.005456403041474655,-0.007411639134449428
-0.005456063041474655,-0.005173517207143616
-0.005455723041474654,-0.004021542685730045
-0.005455383041474655,-0.00431776470552106
-0.005455043041474655,-0.004745640956329524
-0.005454703041474654,-0.004548159609802961
-0.005454363041474655,-0.005601393457948786
-0.005454023041474655,-0.007971169616272587
-0.005453683041474654,-0.005667220573457903
-0.005453343041474655,-0.006819195094867402
-0.005453003041474655,-0.005798874804477987
-0.005452663041474654,-0.006029269708758032
-0.005452323041474655,-0.005634307015703346
-0.005451983041474655,-0.005930529035493819
-0.005451643041474654,-0.006424232401812717
-0.005451303041474655,-0.008102823847295128
-0.005450963041474655,-0.01020929154358295
-0.005450623041474654,-0.009123144137686397
-0.005450283041474655,-0.01007763731256855
-0.005449943041474655,-0.01103213048744897
-0.005449603041474654,-0.01060425423664147
-0.005449263041474655,-0.01336899308802426
-0.005448923041474655,-0.007312898461196774
-0.005448583041474654,-0.00431776470552106
-0.005448243041474655,-0.003099963068602447
-0.005447903041474655,-0.002803741048811433
-0.005447563041474654,-0.007411639134449428
-0.005447223041474655,-0.006753367979358285
-0.005446883041474655,-0.005206430764894101
-0.005446543041474654,-0.006160923939776259
-0.005446203041474655,-0.005831788362230687
-0.005445863041474655,-0.0084319594248407
-0.005445523041474654,-0.006819195094869139
-0.005445183041474655,-0.007773688269749557
-0.005444843041474655,-0.007510379807713099
-0.005444503041474654,-0.007411639134448471
-0.005444163041474655,-0.006885022210376516
-0.005443823041474655,-0.007740774711995
-0.005443483041474654,-0.009254798368701873
-0.005443143041474655,-0.007740774711995
-0.005442803041474655,-0.006391318844058157
-0.005442463041474654,-0.002244210566997613
-0.005442123041474655,-0.009748501735022983
-0.005441783041474655,-0.008300305193822469
-0.005441443041474654,-0.008201564520560176
-0.005441103041474655,-0.008958576348913613
-0.005440763041474655,-0.009024403464422726
-0.005440423041474654,-0.01053842712112679
-0.005440083041474655,-0.007477466249958542
-0.005439743041474655,-0.0063584052863036
-0.005439403041474654,-0.00629257817079718
-0.005439063041474654,-0.007773688269749557
-0.005438723041474655,-0.009188971253195514
-0.005438383041474654,-0.002968308837585178
-0.005438043041474654,-0.003494925761657133
-0.005437703041474655,-0.002145469893720293
-0.005437363041474654,-0.005963442593252926
-0.005437023041474654,-0.008168650962804242
-0.005436683041474655,-0.005436825669176002
-0.005436343041474655,-0.005074776533876532
-0.005436003041474654,-0.006819195094867402
-0.005435663041474655,-0.006588800190585501
-0.005435323041474655,-0.004976035860615137
-0.005434983041474654,-0.00695084932588563
-0.005434643041474655,-0.007411639134449428
-0.005434303041474655,-0.008859835675647309
-0.005433963041474654,-0.008892749233404499
-0.005433623041474655,-0.008892749233404499
-0.005433283041474655,-0.006753367979362176
-0.005432943041474654,-0.007773688269749557
-0.005432603041474655,-0.006786281537112842
-0.005432263041474655,-0.005864701919986921
-0.005431923041474654,-0.0063584052863036
-0.005431583041474655,-0.005535566342439673
-0.005431243041474655,-0.006819195094865067
-0.005430903041474654,-0.007543293365467656
-0.005430563041474655,-0.007082503556903857
-0.005430223041474655,-0.005008949418370531
-0.005429883041474654,-0.006029269708758032
-0.005429543041474655,-0.005601393457948786
-0.005429203041474655,-0.004449418936541383
-0.005428863041474654,-0.003889888454711818
-0.005428523041474655,-0.009188971253195514
-0.005428183041474655,-0.005963442593254781
-0.005427843041474654,-0.0007960140257834494
-0.005427503041474655,-0.003527839319411689
-0.005427163041474655,-0.0008618411412925631
-0.005426823041474654,-0.005963442593248915
-0.005426483041474655,-0.007115417114658414
-0.005426143041474655,-0.003856974896957261
-0.005425803041474654,-0.003692407108184477
-0.005425463041474655,-0.006391318844058157
-0.005425123041474655,-0.006292578170794486
-0.005424783041474654,-0.005272257880403218
-0.005424443041474655,-0.00714833067241297
-0.005424103041474655,-0.005996356151003471
-0.005423763041474654,-0.004811468071841392
-0.005423423041474655,-0.005897615477739801
-0.005423083041474655,-0.006029269708758032
-0.005422743041474654,-0.005568479900194588
-0.005422403041474655,-0.005765961246721574
-0.005422063041474655,-0.006391318844058157
-0.005421723041474654,-0.006062183266515582
-0.005421383041474655,-0.007707861154240443
-0.005421043041474655,-0.006852108652621959
-0.005420703041474654,-0.006819195094866864
-0.005420363041474655,-0.006522973075076387
-0.005420023041474655,-0.006588800190585501
-0.005419683041474654,-0.006128010382021582
-0.005419343041474655,-0.006062183266512589
-0.005419003041474655,-0.008004083174031458
-0.005418663041474654,-0.007477466249962434
-0.005418323041474655,-0.009616847504004756
-0.005417983041474655,-0.0147184489559611
-0.005417643041474654,-0.005930529035492262
-0.005417303041474654,-0.004778554514084859
