Analysis/files/cmb03_d2s01/wrd07_ch26.csv

#Digilent WaveForms Oscilloscope Acquisition
#Device Name: ADP3450
#Serial Number: SN:210018B9D9B0
#Date Time: 2024-08-09 17:46:37.963.664.100
#Sample rate: 2.94118e+06Hz
#Samples: 32768
#Trigger: Source: Channel 3 Type: Edge Condition: Rising Level: 60 mV Hyst.: Auto HoldOff: 0 s
#Channel 3: Range: 200 mV/div Offset: -20 mV Attenuation: 1 X Coupling: DC Bandwidth: 0 Hz Sample Mode: Average

Time (s),Channel 3 (V)
-0.005570301830508475,0.005062599254527716
-0.005569961830508475,0.003778970502096338
-0.005569621830508475,0.001771243479072003
-0.005569281830508475,0.001244626554999091
-0.005568941830508474,0.0003230469378711934
-0.005568601830508475,0.0001584791490987052
-0.005568261830508475,0.0003230469378714927
-0.005567921830508474,-0.001585939411890784
-0.005567581830508475,-0.0004668784482378778
-0.005567241830508475,-0.0007301869102743358
-0.005566901830508474,-0.0006314462370123417
-0.005566561830508475,-0.001553025854138263
-0.005566221830508475,-0.0004668784482378778
-0.005565881830508474,-0.0002693971017182002
-0.005565541830508475,-0.004482332494293848
-0.005565201830508475,0.002890304442726945
-0.005564861830508474,0.001968724825600066
-0.005564521830508475,0.002363687518654033
-0.005564181830508475,0.001738329921317446
-0.005563841830508474,-0.004021542685731722
-0.005563501830508475,-0.004943122302857646
-0.005563161830508475,-0.003791147781448147
-0.005562821830508475,-0.004383591821029096
-0.005562481830508475,-0.006819195094867402
-0.005562141830508475,-0.004383591821030174
-0.005561801830508475,-0.005305171438156098
-0.005561461830508475,-0.004350678263275617
-0.005561121830508475,-0.004021542685730045
-0.005560781830508475,-0.003560752877167085
-0.005560441830508475,-0.005930529035494358
-0.005560101830508475,-0.006424232401812717
-0.005559761830508475,-0.006687540863848693
-0.005559421830508475,-0.008102823847295128
-0.005559081830508475,-0.007872428943013227
-0.005558741830508475,-0.008168650962803703
-0.005558401830508475,-0.008794008560140829
-0.005558061830508475,-0.008267391636067913
-0.005557721830508475,-0.00642423240181607
-0.005557381830508475,-0.006259664613039929
-0.005557041830508475,-0.006062183266512589
-0.005556701830508475,-0.003889888454715769
-0.005556361830508475,-0.003560752877166246
-0.005556021830508475,-0.004877295187348533
-0.005555681830508475,-0.004613986725312554
-0.005555341830508475,-0.006292578170794486
-0.005555001830508475,-0.007938256058522341
-0.005554661830508475,-0.0004997920060059655
-0.005554321830508475,-0.002046729220456619
-0.005553981830508475,-0.001783420758420164
-0.005553641830508475,-0.005272257880403218
-0.005553301830508475,-0.0084319594248407
-0.005552961830508475,-0.008530700098104371
-0.005552621830508475,-0.009386452599722855
-0.005552281830508475,-0.007510379807713099
-0.005551941830508475,-0.009452279715231968
-0.005551601830508475,-0.008728181444631711
-0.005551261830508475,-0.008826922117894907
-0.005550921830508475,-0.008563613655858927
-0.005550581830508475,-0.009485193272986525
-0.005550241830508475,-0.009945983081549729
-0.005549901830508475,-0.009616847504004756
-0.005549561830508475,-0.0102751186590959
-0.005549221830508475,-0.008267391636067014
-0.005548881830508475,-0.007773688269749557
-0.005548541830508475,-0.006983762883640186
-0.005548201830508474,-0.005700134131211562
-0.005547861830508475,-0.005206430764894101
-0.005547521830508475,-0.005305171438157775
-0.005547181830508474,-0.004021542685731423
-0.005546841830508475,-0.004778554514084859
-0.005546501830508475,-0.0084319594248407
-0.005546161830508474,-0.005831788362233022
-0.005545821830508475,-0.007115417114658414
-0.005545481830508475,-0.009254798368704627
-0.005545141830508474,-0.01020929154359492
-0.005544801830508475,-0.01468553539820655
-0.005544461830508475,-0.01024220510134134
-0.005544121830508474,-0.008761095002384712
-0.005543781830508475,-0.007905342500767784
-0.005543441830508475,-0.007576206923222212
-0.005543101830508474,-0.01020929154358211
-0.005542761830508475,-0.00764203403873133
-0.005542421830508475,-0.006720454421603728
-0.005542081830508475,-0.007609120480975156
-0.005541741830508475,-0.00783951538525867
-0.005541401830508475,-0.009254798368704627
-0.005541061830508475,-0.01067008135214801
-0.005540721830508475,-0.01251324058640578
-0.005540381830508475,-0.01195371010457831
-0.005540041830508475,-0.01103213048745239
-0.005539701830508475,-0.009945983081550328
-0.005539361830508475,-0.009913069523795767
-0.005539021830508475,-0.01057134067888571
-0.005538681830508475,-0.00909023057993184
-0.005538341830508475,-0.008761095002386268
-0.005538001830508475,-0.01132835250723706
-0.005537661830508475,-0.008333218751577026
-0.005537321830508475,-0.009485193272986525
-0.005536981830508475,-0.01093338981418441
-0.005536641830508475,-0.01132835250724173
-0.005536301830508475,-0.01172331520029641
-0.005535961830508475,-0.01116378471846996
-0.005535621830508475,-0.0116574880847873
-0.005535281830508475,-0.01034094577460501
-0.005534941830508475,-0.01146000673825792
-0.005534601830508475,-0.01363230155006072
-0.005534261830508475,-0.01517923876452491
-0.005533921830508475,-0.008958576348924928
-0.005533581830508475,-0.006885022210376516
-0.005533241830508475,-0.005568479900194229
-0.005532901830508475,-0.007576206923222212
-0.005532561830508475,-0.01155874741152362
-0.005532221830508475,-0.007806601827504114
-0.005531881830508475,-0.007806601827504114
-0.005531541830508475,-0.0105055135633778
-0.005531201830508475,-0.01043968644786868
-0.005530861830508475,-0.01030803221685045
-0.005530521830508475,-0.01254615414416034
-0.005530181830508475,-0.01126252539173261
-0.005529841830508475,-0.01099921692969615
-0.005529501830508475,-0.01178914231580498
-0.005529161830508475,-0.01149292029601451
-0.005528821830508475,-0.01139417962275084
-0.005528481830508475,-0.0116574880847861
-0.005528141830508475,-0.01099921692969615
-0.005527801830508475,-0.009583933946250199
-0.005527461830508474,-0.009551020388490015
-0.005527121830508475,-0.006457145959567274
-0.005526781830508475,-0.005041862976121317
-0.005526441830508474,-0.008794008560138254
-0.005526101830508475,-0.007378725576694872
-0.005525761830508475,-0.006457145959567274
-0.005525421830508474,-0.006786281537113979
-0.005525081830508475,-0.007411639134449428
-0.005524741830508475,-0.006424232401812717
-0.005524401830508474,-0.008563613655867908
-0.005524061830508475,-0.01350064731904249
-0.005523721830508475,-0.009485193272986525
-0.005523381830508474,-0.01218410500887745
-0.005523041830508475,-0.02166320964217266
-0.005522701830508475,-0.0341374480311498
-0.005522361830508474,-0.05869096211610209
-0.005522021830508475,-0.08765489294005965
-0.005521681830508475,-0.1134262086618779
-0.005521341830508474,-0.1446940885287644
-0.005521001830508475,-0.1761594497420637
-0.005520661830508475,-0.2029181721965186
-0.005520321830508475,-0.2267146744530202
-0.005519981830508475,-0.2459691057394793
-0.005519641830508475,-0.2585091712439656
-0.005519301830508475,-0.2648944014483381
-0.005518961830508475,-0.2708846689596791
-0.005518621830508475,-0.2706871876131517
-0.005518281830508475,-0.267461658953211
-0.005517941830508475,-0.2618005270194213
-0.005517601830508475,-0.2549215934487189
-0.005517261830508475,-0.2470552531453941
-0.005516921830508475,-0.2395509619773407
-0.005516581830508475,-0.2319150165782835
-0.005516241830508475,-0.2219422085786708
-0.005515901830508475,-0.2150303614501957
-0.005515561830508475,-0.2078222923019477
-0.005515221830508475,-0.1997255570943413
-0.005514881830508475,-0.1926491421770968
-0.005514541830508475,-0.1853752459133397
-0.005514201830508475,-0.1792204106132487
-0.005513861830508475,-0.1750074752206542
-0.005513521830508475,-0.1754024379137089
-0.005513181830508475,-0.1620724470231375
-0.005512841830508475,-0.1574645489374753
-0.005512501830508475,-0.1536794897957012
-0.005512161830508475,-0.148643715459254
-0.005511821830508475,-0.1467347291094897
-0.005511481830508475,-0.141139424291215
-0.005511141830508475,-0.1335693060076668
-0.005510801830508475,-0.1288955808065197
-0.005510461830508475,-0.1252092623380093
-0.005510121830508475,-0.1193177354999436
-0.005509781830508475,-0.1143148747212509
-0.005509441830508475,-0.1107602104837588
-0.005509101830508475,-0.105987744609348
-0.005508761830508475,-0.09993164998250322
-0.005508421830508475,-0.09650863997603551
-0.005508081830508475,-0.0936780740091436
-0.005507741830508475,-0.08857647255718097
-0.005507401830508475,-0.08512054899295876
-0.005507061830508475,-0.08242163725708507
-0.005506721830508475,-0.08067721869608994
-0.005506381830508475,-0.07870240523082012
-0.005506041830508475,-0.07804413407572899
-0.005505701830508474,-0.07564144435964673
-0.005505361830508475,-0.07587183926392821
-0.005505021830508475,-0.07471986474251871
-0.005504681830508474,-0.07202095300664256
-0.005504341830508475,-0.07067149713870818
-0.005504001830508475,-0.06958534973280781
-0.005503661830508474,-0.0671497464589714
-0.005503321830508475,-0.06761053626753438
-0.005502981830508475,-0.06895999213547122
-0.005502641830508474,-0.05846056721176211
-0.005502301830508475,-0.05549834701385736
-0.005501961830508475,-0.05349061999082937
-0.005501621830508474,-0.05362227422184569
-0.005501281830508475,-0.05256904037370178
-0.005500941830508475,-0.04766492026827277
-0.005500601830508474,-0.04690790843991287
-0.005500261830508475,-0.04411025603078061
-0.005499921830508475,-0.04282662727835288
-0.005499581830508475,-0.04048976467778358
-0.005499241830508475,-0.03969983929166995
-0.005498901830508475,-0.04029228333125198
-0.005498561830508475,-0.03979857996493451
-0.005498221830508475,-0.03825164275046944
-0.005497881830508475,-0.03864660544352412
-0.005497541830508475,-0.0401277155424765
-0.005497201830508475,-0.03861369188576957
-0.005496861830508475,-0.03752754447986918
-0.005496521830508475,-0.03742880380660569
-0.005496181830508475,-0.0350590276482774
-0.005495841830508475,-0.03446658360869537
-0.005495501830508475,-0.03186641254609009
-0.005495161830508475,-0.02979285840754826
-0.005494821830508475,-0.02900293302143889
-0.005494481830508475,-0.02946372283000185
-0.005494141830508475,-0.02818009407757496
-0.005493801830508475,-0.02725851446044737
-0.005493461830508475,-0.0292662414834717
-0.005493121830508475,-0.0281471805198204
-0.005492781830508475,-0.03147144985303067
-0.005492441830508475,-0.02531661455293969
-0.005492101830508475,-0.02386841801172798
-0.005491761830508475,-0.02307849262561861
-0.005491421830508475,-0.02235439435501967
-0.005491081830508475,-0.02673189753637445
-0.005490741830508475,-0.02699520599841091
-0.005490401830508475,-0.02511913320640115
-0.005490061830508475,-0.02597488570801964
-0.005489721830508475,-0.02508621964864659
-0.005489381830508475,-0.0253166145529285
-0.005489041830508475,-0.02498747897538292
-0.005488701830508475,-0.02380259089621887
-0.005488361830508475,-0.02258478925930026
-0.005488021830508475,-0.0225847892592972
-0.005487681830508475,-0.02090619781381784
-0.005487341830508475,-0.0200175317544448
-0.005487001830508475,-0.01949091483036931
-0.005486661830508475,-0.01807563184692593
-0.005486321830508475,-0.01669326242123453
-0.005485981830508475,-0.01692365732551656
-0.005485641830508475,-0.01698948444102555
-0.005485301830508475,-0.01659452174797086
-0.005484961830508474,-0.01843768098222397
-0.005484621830508475,-0.01728570646081656
-0.005484281830508475,-0.01903012502180809
-0.005483941830508474,-0.01922760636833334
-0.005483601830508475,-0.01807563184692593
-0.005483261830508475,-0.017252792903062
-0.005482921830508474,-0.01695657088327392
-0.005482581830508475,-0.01856933521324429
-0.005482241830508475,-0.01982005040791746
-0.005481901830508474,-0.01392852356985024
-0.005481561830508475,-0.01310568462598781
-0.005481221830508475,-0.01172331520029641
-0.005480881830508474,-0.009880155966051209
-0.005480541830508475,-0.01537672011105225
-0.005480201830508475,-0.01501467097575212
-0.005479861830508474,-0.01231575923988047
-0.005479521830508475,-0.01343482020353338
-0.005479181830508475,-0.01231575923987844
-0.005478841830508475,-0.01139417962275252
-0.005478501830508475,-0.0116574880847873
-0.005478161830508475,-0.01221701856661477
-0.005477821830508475,-0.01149292029601582
-0.005477481830508475,-0.01231575923987844
-0.005477141830508475,-0.01198662366233286
-0.005476801830508475,-0.01192079654682387
-0.005476461830508475,-0.01248032702865122
-0.005476121830508475,-0.01149292029601451
-0.005475781830508475,-0.01132835250724203
-0.005475441830508475,-0.01178914231580552
-0.005475101830508475,-0.01129543894948717
-0.005474761830508475,-0.01155874741152314
-0.005474421830508475,-0.01271072193293312
-0.005474081830508475,-0.01277654904844223
-0.005473741830508475,-0.01234867279763377
-0.005473401830508475,-0.01221701856661477
-0.005473061830508475,-0.01290820327946047
-0.005472721830508475,-0.012414499913143
-0.005472381830508475,-0.01458679472494288
-0.005472041830508475,-0.02008335886995392
-0.005471701830508475,-0.01419183203189891
-0.005471361830508475,-0.01060425423664147
-0.005471021830508475,-0.01458679472494288
-0.005470681830508475,-0.01531089299554182
-0.005470341830508475,-0.01106504404520527
-0.005470001830508475,-0.01136126606499628
-0.005469661830508475,-0.01037385933235957
-0.005469321830508475,-0.0105055135633778
-0.005468981830508475,-0.009485193272986525
-0.005468641830508475,-0.007609120480976773
-0.005468301830508475,-0.008464872982595257
-0.005467961830508475,-0.007806601827504114
-0.005467621830508475,-0.009419366157477412
-0.005467281830508475,-0.005733047688967017
-0.005466941830508475,-0.007971169616276898
-0.005466601830508475,-0.008662354329122598
-0.005466261830508475,-0.009419366157480406
-0.005465921830508475,-0.01106504404520527
-0.005465581830508475,-0.01103213048745071
-0.005465241830508475,-0.01290820327946047
-0.005464901830508475,-0.01290820327946047
-0.005464561830508475,-0.01396143712760629
-0.005464221830508475,-0.01129543894948711
-0.005463881830508475,-0.01126252539173261
-0.005463541830508475,-0.01139417962275084
-0.005463201830508474,-0.009649761061762666
-0.005462861830508475,-0.01149292029601451
-0.005462521830508475,-0.008596527213613484
-0.005462181830508474,-0.007049589999148402
-0.005461841830508475,-0.006555886632830944
-0.005461501830508475,-0.005831788362230687
-0.005461161830508474,-0.008431959424846628
-0.005460821830508475,-0.01169040164254185
-0.005460481830508475,-0.01070299490990514
-0.005460141830508474,-0.01004472375481442
-0.005459801830508475,-0.0102751186590959
-0.005459461830508475,-0.01024220510134134
-0.005459121830508474,-0.009320625484211467
-0.005458781830508475,-0.008069910289540572
-0.005458441830508475,-0.008925662791159056
-0.005458101830508474,-0.007510379807711482
-0.005457761830508475,-0.006621713748340058
-0.005457421830508475,-0.007279984903431201
-0.005457081830508475,-0.009419366157473521
-0.005456741830508475,-0.009156057695440954
-0.005456401830508475,-0.009913069523795767
-0.005456061830508475,-0.01221701856661057
-0.005455721830508475,-0.01251324058640578
-0.005455381830508475,-0.01369812866556984
-0.005455041830508475,-0.01333607953027037
-0.005454701830508475,-0.01327025241476059
-0.005454361830508475,-0.01254615414416034
-0.005454021830508475,-0.0129411168372143
-0.005453681830508475,-0.01132835250724173
-0.005453341830508475,-0.01106504404520527
-0.005453001830508475,-0.01192079654682219
-0.005452661830508475,-0.01185496943131464
-0.005452321830508475,-0.01517923876452491
-0.005451981830508475,-0.008431959424852973
-0.005451641830508475,-0.0070495899991493
-0.005451301830508475,-0.00500894941836676
-0.005450961830508475,-0.004745640956330781
-0.005450621830508475,-0.008069910289540572
-0.005450281830508475,-0.006687540863849172
-0.005449941830508475,-0.006391318844058695
-0.005449601830508475,-0.006753367979358285
-0.005449261830508475,-0.007411639134449428
-0.005448921830508475,-0.008464872982593342
-0.005448581830508475,-0.008925662791159056
-0.005448241830508475,-0.00783951538525867
-0.005447901830508475,-0.008135737405049685
-0.005447561830508475,-0.00909023057993184
-0.005447221830508475,-0.007872428943013227
-0.005446881830508475,-0.008991489906668169
-0.005446541830508475,-0.01037385933235957
-0.005446201830508475,-0.01024220510134134
-0.005445861830508475,-0.0107359084676597
-0.005445521830508475,-0.01165748808478586
-0.005445181830508475,-0.01086756269867793
-0.005444841830508475,-0.009518106830741082
-0.005444501830508475,-0.01037385933235819
-0.005444161830508475,-0.009616847504004756
-0.005443821830508475,-0.008464872982595257
-0.005443481830508475,-0.009254798368701574
-0.005443141830508475,-0.007576206923222212
-0.005442801830508475,-0.006555886632830944
-0.005442461830508474,-0.007181244230170281
-0.005442121830508475,-0.008695267886877155
-0.005441781830508475,-0.009353539041968298
-0.005441441830508474,-0.003099963068605082
-0.005441101830508475,-0.004548159609802961
-0.005440761830508475,-0.003560752877166246
-0.005440421830508474,-0.00767494759649337
-0.005440081830508475,-0.01178914231580552
-0.005439741830508475,-0.009649761061759313
-0.005439401830508474,-0.009847242408291922
-0.005439061830508475,-0.01274363549068768
-0.005438721830508475,-0.008958576348913613
-0.005438381830508474,-0.009353539041972609
-0.005438041830508475,-0.01172331520029641
-0.005437701830508475,-0.0109663033719416
-0.005437361830508474,-0.01007763731257251
-0.005437021830508475,-0.01224993212436933
-0.005436681830508475,-0.01244741347089667
-0.005436341830508475,-0.01313859818374111
-0.005436001830508475,-0.01333607953026971
-0.005435661830508475,-0.01234867279763299
-0.005435321830508475,-0.01172331520029755
-0.005434981830508475,-0.01234867279763299
-0.005434641830508475,-0.007444552692203985
-0.005434301830508475,-0.01224993212436058
-0.005433961830508475,-0.01330316597251515
-0.005433621830508475,-0.01264489481742401
-0.005433281830508475,-0.01251324058640602
-0.005432941830508475,-0.01363230155006072
-0.005432601830508475,-0.0130398575104787
-0.005432261830508475,-0.0130069439527242
-0.005431921830508475,-0.01287528972170591
-0.005431581830508475,-0.01590333703512516
-0.005431241830508475,-0.01468553539820877
-0.005430901830508475,-0.009024403464422726
-0.005430561830508475,-0.008892749233404499
-0.005430221830508475,-0.005601393457954773
-0.005429881830508475,-0.009254798368704627
-0.005429541830508475,-0.01307277106823325
-0.005429201830508475,-0.008431959424849141
-0.005428861830508475,-0.007345812018940315
-0.005428521830508475,-0.0111966982762235
-0.005428181830508475,-0.01155874741152296
-0.005427841830508475,-0.01192079654682375
-0.005427501830508475,-0.01350064731904249
-0.005427161830508475,-0.01382978289658807
-0.005426821830508475,-0.01244741347089667
-0.005426481830508475,-0.01389561001209718
-0.005426141830508475,-0.01409309135862452
-0.005425801830508475,-0.01228284568212388
-0.005425461830508475,-0.01317151174149692
-0.005425121830508475,-0.01224993212436933
-0.005424781830508475,-0.01159166096927818
-0.005424441830508475,-0.0118878829890692
-0.005424101830508475,-0.01043968644786868
-0.005423761830508475,-0.008662354329124154
-0.005423421830508475,-0.009518106830741082
-0.005423081830508475,-0.009748501735022983
-0.005422741830508475,-0.007312898461185638
-0.005422401830508475,-0.007247071345676644
-0.005422061830508475,-0.008596527213613484
-0.005421721830508474,-0.008991489906671164
-0.005421381830508475,-0.01063716779439602
-0.005421041830508475,-0.01409309135862452
-0.005420701830508474,-0.007576206923221913
-0.005420361830508475,-0.007411639134449428
-0.005420021830508475,-0.008168650962804242
-0.005419681830508474,-0.005996356151011374
-0.005419341830508475,-0.01034094577460501
-0.005419001830508475,-0.009847242408286654
-0.005418661830508474,-0.007905342500768502
-0.005418321830508475,-0.008300305193822469
-0.005417981830508475,-0.01162457452703274
-0.005417641830508474,-0.0127436354906872
-0.005417301830508475,-0.01248032702865122
-0.005416961830508475,-0.01452096760943376
-0.005416621830508474,-0.01415891847413274
