Analysis/files/cmb03_d2s01/wrd07_ch31.csv

#Digilent WaveForms Oscilloscope Acquisition
#Device Name: ADP3450
#Serial Number: SN:210018B9D9B0
#Date Time: 2024-08-09 17:48:43.531.959.740
#Sample rate: 2.94118e+06Hz
#Samples: 32768
#Trigger: Source: Channel 3 Type: Edge Condition: Rising Level: 60 mV Hyst.: Auto HoldOff: 0 s
#Channel 3: Range: 200 mV/div Offset: -20 mV Attenuation: 1 X Coupling: DC Bandwidth: 0 Hz Sample Mode: Average

Time (s),Channel 3 (V)
-0.005570232170022372,0.01315933446214876
-0.005569892170022371,0.01598990042903942
-0.005569552170022371,0.01529871571619498
-0.005569212170022372,0.01579241908251333
-0.005568872170022371,0.01543036994720901
-0.005568532170022371,0.01312642090439421
-0.005568192170022372,0.01184279215196648
-0.005567852170022371,0.009473015993635493
-0.005567512170022371,0.007893165221419626
-0.005567172170022372,0.007366548297346712
-0.005566832170022371,0.004437241657186878
-0.005566492170022371,0.002100379056617575
-0.005566152170022372,0.007399461855101271
-0.005565812170022371,0.00953884310914796
-0.005565472170022371,0.009802151571183939
-0.005565132170022372,0.006346228006955442
-0.005564792170022371,0.003680229828839848
-0.005564452170022371,0.005622129736355185
-0.005564112170022372,0.006050005987164429
-0.005563772170022371,0.004173933195152938
-0.005563432170022371,0.003219440020272517
-0.005563092170022372,0.001573762132544662
-0.005562752170022372,0.002232033287634608
-0.005562412170022371,0.001639589248053776
-0.005562072170022372,0.0002243062646078188
-0.005561732170022372,0.0007509231886797769
-0.005561392170022371,0.001475021459280992
-0.005561052170022372,0.002791563769463275
-0.005560712170022372,0.003976451848625175
-0.005560372170022371,0.007103239835310256
-0.005560032170022372,0.006313314449200885
-0.005559692170022372,0.006774104257763846
-0.005559352170022371,0.006741190700010127
-0.005559012170022372,0.005391734832073286
-0.005558672170022372,0.003877711175366414
-0.005558332170022371,0.001639589248053776
-0.005557992170022371,0.001310453670508204
-0.005557652170022372,-6.088639671684125e-06
-0.005557312170022371,0.0001584791490987052
-0.005556972170022371,0.0001255655913441484
-0.005556632170022372,-0.0009934953723087583
-0.005556292170022371,-0.004943122302857646
-0.005555952170022371,-0.003462012203902576
-0.005555612170022372,0.004503068772685756
-0.005555272170022371,0.001343367228262761
-0.005554932170022371,-0.002079642778211176
-0.005554592170022372,-0.0002693971017138296
-0.005554252170022371,0.001211712997244534
-0.005553912170022371,0.001112972323980863
-0.005553572170022372,0.002989045115990616
-0.005553232170022371,0.002363687518654033
-0.005552892170022371,-0.0005656191215015517
-0.005552552170022372,-0.00168468008515649
-0.005552212170022371,-0.001520112296383706
-0.005551872170022371,-3.900219742863573e-05
-0.005551532170022372,-0.003429098646148019
-0.005551192170022371,-0.002178383451473293
-0.005550852170022371,-0.001322630949856365
-0.005550512170022372,-0.002079642778211176
-0.005550172170022371,-0.003132876626354729
-0.005549832170022371,-0.001882161431683835
-0.005549492170022372,-0.003034135953093334
-0.005549152170022371,-0.005370998553664972
-0.005548812170022371,-0.00431776470552106
-0.005548472170022372,-0.005403912111421445
-0.005548132170022371,-0.005634307015700533
-0.005547792170022371,-0.004087369801239162
-0.005547452170022372,-0.004251937590011946
-0.005547112170022371,-0.004449418936538389
-0.005546772170022371,-0.003955715570220932
-0.005546432170022372,-0.003198703741866118
-0.005546092170022371,-0.003922802012465836
-0.005545752170022371,-0.00362657999267536
-0.005545412170022372,-0.0002693971017105369
-0.005545072170022371,-0.002046729220450752
-0.005544732170022371,0.001178799439489977
-0.005544392170022372,0.0009813180929626325
-0.005544052170022371,-0.004416505378780001
-0.005543712170022371,-0.001816334316174721
-0.005543372170022372,-0.0003681377749742074
-0.005543032170022371,-0.001059322487822422
-0.005542692170022371,-0.002441691913511304
-0.005542352170022372,-0.001651766527401934
-0.005542012170022372,-0.002310037682491879
-0.005541672170022371,-0.00148719873862915
-0.005541332170022372,-0.0009934953723107938
-0.005540992170022372,-0.001190976718837775
-0.005540652170022371,-0.001849247873929278
-0.005540312170022372,-0.002079642778211176
-0.005539972170022372,-0.001585939411893718
-0.005539632170022371,-0.005239344322648658
-0.005539292170022372,-0.004679813840821188
-0.005538952170022372,-0.005140603649384149
-0.005538612170022371,-0.005634307015703346
-0.005538272170022372,-0.002836654606565989
-0.005537932170022372,-0.003988629127973393
-0.005537592170022371,-0.004284851147766503
-0.005537252170022372,-0.003758234223693591
-0.005536912170022372,-0.002375864798004705
-0.005536572170022371,-0.003264530857375231
-0.005536232170022371,-0.003264530857375231
-0.005535892170022372,-0.003758234223692692
-0.005535552170022371,-0.009715588177268426
-0.005535212170022371,-0.004383591821030174
-0.005534872170022372,-0.001125149603334948
-0.005534532170022371,-0.002046729220456619
-0.005534192170022371,-0.001454285180874593
-0.005533852170022372,-0.004449418936533838
-0.005533512170022371,-0.006259664613039929
-0.005533172170022371,-0.004943122302857646
-0.005532832170022372,-0.004449418936539287
-0.005532492170022371,-0.005436825669176002
-0.005532152170022371,-0.005173517207139544
-0.005531812170022372,-0.002902481722075106
-0.005531472170022371,-0.004120283358993719
-0.005531132170022371,-0.005436825669176002
-0.005530792170022372,-0.003330357972884349
-0.005530452170022371,-0.004383591821030174
-0.005530112170022371,-0.007279984903431201
-0.005529772170022372,-0.005173517207139544
-0.005529432170022371,-0.004350678263276934
-0.005529092170022371,-0.005074776533875874
-0.005528752170022372,-0.002573346144529535
-0.005528412170022371,-0.001783420758421481
-0.005528072170022371,-0.002507519029020421
-0.005527732170022372,-0.002310037682493077
-0.005527392170022371,-0.002342951240250328
-0.005527052170022371,-0.003824061339202704
-0.005526712170022372,-0.005041862976121317
-0.005526372170022371,-0.005074776533879825
-0.005526032170022371,-0.007247071345676644
-0.005525692170022372,-0.007378725576694872
-0.005525352170022371,-0.008431959424845729
-0.005525012170022371,-0.0111966982762235
-0.005524672170022372,-0.002672086817793205
-0.005524332170022371,-0.00132263094985409
-0.005523992170022371,-7.191575518319254e-05
-0.005523652170022372,-0.002672086817793205
-0.005523312170022371,-0.009353539041982547
-0.005522972170022371,-0.01718696578755289
-0.005522632170022372,-0.02956246350326636
-0.005522292170022371,-0.05108793027479646
-0.005521952170022371,-0.07843909676878366
-0.005521612170022372,-0.1094436681735765
-0.005521272170022371,-0.1404811531361811
-0.005520932170022371,-0.171979427907235
-0.005520592170022372,-0.201107926520018
-0.005520252170022372,-0.2238841084861301
-0.005519912170022371,-0.2409662449607867
-0.005519572170022372,-0.2540658409471004
-0.005519232170022372,-0.2607802067290179
-0.005518892170022371,-0.2617346999039122
-0.005518552170022372,-0.2619980083659487
-0.005518212170022372,-0.257653418742355
-0.005517872170022371,-0.252091027481827
-0.005517532170022372,-0.2462982413170249
-0.005517192170022372,-0.239287653515317
-0.005516852170022371,-0.229643981093219
-0.005516512170022372,-0.2236537135818896
-0.005516172170022372,-0.2161823359716188
-0.005515832170022371,-0.2059462195099379
-0.005515492170022371,-0.1993964215167811
-0.005515152170022372,-0.1922212659263006
-0.005514812170022371,-0.1877779356294224
-0.005514472170022371,-0.1802736444613834
-0.005514132170022372,-0.1692146890558723
-0.005513792170022371,-0.1618091385610768
-0.005513452170022371,-0.1538769711422286
-0.005513112170022372,-0.1514742814261502
-0.005512772170022371,-0.146339766416435
-0.005512432170022371,-0.1395266599612417
-0.005512092170022372,-0.1344250585092853
-0.005511752170022371,-0.1320881959087118
-0.005511412170022371,-0.1274144707075646
-0.005511072170022372,-0.1242876827208817
-0.005510732170022371,-0.1188569456913798
-0.005510392170022371,-0.1141503069324781
-0.005510052170022372,-0.1107602104837588
-0.005509712170022371,-0.1061523123981208
-0.005509372170022371,-0.1022026854675739
-0.005509032170022372,-0.09868093478783629
-0.005508692170022371,-0.09601493660969711
-0.005508352170022371,-0.08498889476194052
-0.005508012170022372,-0.09005758265614233
-0.005507672170022371,-0.08686496755394509
-0.005507332170022371,-0.08400148802930382
-0.005506992170022372,-0.08064430513833898
-0.005506652170022371,-0.07778082561368731
-0.005506312170022371,-0.07491734608904604
-0.005505972170022372,-0.071132286947272
-0.005505632170022371,-0.07027653444564831
-0.005505292170022371,-0.06741305492100705
-0.005504952170022372,-0.0663598210728612
-0.005504612170022371,-0.06586611770654849
-0.005504272170022371,-0.06895999213547122
-0.005503932170022372,-0.06112656538988662
-0.005503592170022371,-0.05671614865077131
-0.005503252170022371,-0.05414889114592052
-0.005502912170022372,-0.0510221031592376
-0.005502572170022371,-0.05480716230100621
-0.005502232170022371,-0.05181202854534697
-0.005501892170022372,-0.04829027786560936
-0.005501552170022371,-0.04917894392498054
-0.005501212170022371,-0.04815862363459113
-0.005500872170022372,-0.04522931699443555
-0.005500532170022371,-0.04473561362811844
-0.005500192170022371,-0.04542679834096289
-0.005499852170022372,-0.04134551717939781
-0.005499512170022372,-0.04039102400451738
-0.005499172170022371,-0.0380541614039421
-0.005498832170022372,-0.03673761909375981
-0.005498492170022372,-0.03522359543705294
-0.005498152170022371,-0.0348286327439955
-0.005497812170022372,-0.03173475831506713
-0.005497472170022372,-0.0309448329289592
-0.005497132170022371,-0.03054987023590307
-0.005496792170022372,-0.02778513138452028
-0.005496452170022372,-0.02531661455293299
-0.005496112170022371,-0.02482291118661014
-0.005495772170022372,-0.02406589935825532
-0.005495432170022372,-0.02353928243418337
-0.005495092170022371,-0.02340762820316418
-0.005494752170022371,-0.0218606909887
-0.005494412170022372,-0.02054414867852011
-0.005494072170022371,-0.02222274012400013
-0.005493732170022371,-0.02502039253313748
-0.005493392170022372,-0.01705531155654915
-0.005493052170022371,-0.01590333703512516
-0.005492712170022371,-0.01567294213084326
-0.005492372170022372,-0.01741736069183162
-0.005492032170022371,-0.02156446896890898
-0.005491692170022371,-0.0200175317544448
-0.005491352170022372,-0.0176806691538755
-0.005491012170022371,-0.01952382838812644
-0.005490672170022371,-0.01991879108118113
-0.005490332170022372,-0.01889847079078986
-0.005489992170022371,-0.01708822511428922
-0.005489652170022371,-0.01800980473141682
-0.005489312170022372,-0.01689074376776187
-0.005488972170022371,-0.01652869463246175
-0.005488632170022371,-0.01642995395919808
-0.005488292170022372,-0.01603499126614339
-0.005487952170022371,-0.01406017780087152
-0.005487612170022371,-0.01491593030248845
-0.005487272170022372,-0.01327025241476059
-0.005486932170022371,-0.01234867279763401
-0.005486592170022371,-0.01290820327946047
-0.005486252170022372,-0.01149292029601451
-0.005485912170022371,-0.01218410500886039
-0.005485572170022371,-0.01228284568212388
-0.005485232170022372,-0.0121182778933511
-0.005484892170022371,-0.009419366157475675
-0.005484552170022371,-0.008464872982595257
-0.005484212170022372,-0.008399045867086143
-0.005483872170022371,-0.006720454421614504
-0.005483532170022371,-0.01264489481742401
-0.005483192170022372,-0.009616847504004756
-0.005482852170022371,-0.007477466249959021
-0.005482512170022371,-0.007740774711995
-0.005482172170022372,-0.008530700098104371
-0.005481832170022371,-0.01221701856661698
-0.005481492170022371,-0.01343482020353338
-0.005481152170022372,-0.01099921692969615
-0.005480812170022371,-0.008925662791161811
-0.005480472170022371,-0.01043968644786868
-0.005480132170022372,-0.01129543894948717
-0.005479792170022371,-0.008497786540350891
-0.005479452170022371,-0.00909023057993184
-0.005479112170022372,-0.01024220510134134
-0.005478772170022372,-0.01040677289011383
-0.005478432170022371,-0.008925662791159056
-0.005478092170022372,-0.01080173558316881
-0.005477752170022372,-0.01027511865909685
-0.005477412170022371,-0.01060425423664147
-0.005477072170022372,-0.01090047625643248
-0.005476732170022372,-0.008958576348917145
-0.005476392170022371,-0.006720454421603728
-0.005476052170022372,-0.006259664613039929
-0.005475712170022372,-0.005370998553668505
-0.005475372170022371,-0.002935395279829663
-0.005475032170022372,-0.002869568164320546
-0.005474692170022372,-0.004186110474500438
-0.005474352170022371,-0.00421902403225739
-0.005474012170022372,-0.005897615477739801
-0.005473672170022372,-0.006522973075075249
-0.005473332170022371,-0.008464872982595257
-0.005472992170022371,-0.01320442529925148
-0.005472652170022372,-0.009221884810957315
-0.005472312170022371,-0.003527839319411689
-0.005471972170022371,-0.003001222395338777
-0.005471632170022372,-0.003396185088392744
-0.005471292170022371,-0.006226751055285373
-0.005470952170022371,-0.006029269708758032
-0.005470612170022372,-0.003824061339206715
-0.005470272170022371,-0.003593666434920803
-0.005469932170022371,-0.003692407108184477
-0.005469592170022372,-0.003988629127975488
-0.005469252170022371,-0.002342951240247634
-0.005468912170022371,-0.002540432586774978
-0.005468572170022372,-0.00421902403225739
-0.005468232170022371,-0.004745640956330302
-0.005467892170022371,-0.005173517207139544
-0.005467552170022372,-0.006687540863849172
-0.005467212170022371,-0.00764203403873133
-0.005466872170022371,-0.006720454421603728
-0.005466532170022372,-0.010044723754814
-0.005466192170022371,-0.008168650962799872
-0.005465852170022371,-0.005765961246721574
-0.005465512170022372,-0.005897615477739801
-0.005465172170022371,-0.00639131884405702
-0.005464832170022371,-0.005765961246721574
-0.005464492170022372,-0.005041862976121317
-0.005464152170022371,-0.007477466249957105
-0.005463812170022371,-0.006687540863849172
-0.005463472170022372,-0.006983762883640186
-0.005463132170022371,-0.005107690091642285
-0.005462792170022371,-0.01162457452703274
-0.005462452170022372,-0.01152583385376907
-0.005462112170022371,-0.003626579992672666
-0.005461772170022371,-0.002145469893720293
-0.005461432170022372,-0.0004997920059924346
-0.005461092170022371,-0.002902481722079417
-0.005460752170022371,-0.005272257880403218
-0.005460412170022372,-0.00296830883758422
-0.005460072170022371,-0.002474605471268555
-0.005459732170022371,-0.003955715570220932
-0.005459392170022372,-0.003758234223693591
-0.005459052170022371,-0.004021542685731662
-0.005458712170022371,-0.00491020874510309
-0.005458372170022372,-0.004712727398575745
-0.005458032170022371,-0.006160923939774882
-0.005457692170022371,-0.005403912111421445
-0.005457352170022372,-0.00491020874510309
-0.005457012170022372,-0.005436825669175045
-0.005456672170022371,-0.007214157787922088
-0.005456332170022372,-0.004515246052048404
-0.005455992170022372,-0.004877295187347874
-0.005455652170022371,-0.004778554514084859
-0.005455312170022372,-0.00500894941836676
-0.005454972170022372,-0.006490059517319137
-0.005454632170022371,-0.007872428943013227
-0.005454292170022372,-0.00783951538525867
-0.005453952170022372,-0.006391318844060791
-0.005453612170022371,-0.009518106830741082
-0.005453272170022372,-0.008761095002386268
-0.005452932170022372,-0.007839515385260346
-0.005452592170022371,-0.008366132309331583
-0.005452252170022371,-0.01155874741152362
-0.005451912170022372,-0.01030803221685273
-0.005451572170022371,-0.005370998553666888
-0.005451232170022371,-0.004482332494293848
-0.005450892170022372,-0.0007301869102811611
-0.005450552170022371,-0.005074776533875874
-0.005450212170022371,-0.006621713748340058
-0.005449872170022372,-0.003264530857381338
-0.005449532170022371,-0.002869568164320546
-0.005449192170022371,-0.004449418936539287
-0.005448852170022372,-0.004219024032257808
-0.005448512170022371,-0.003791147781448147
-0.005448172170022371,-0.00510769009163043
-0.005447832170022372,-0.003988629127975488
-0.005447492170022371,-0.005535566342439673
-0.005447152170022371,-0.005634307015703346
-0.005446812170022372,-0.00421902403225739
-0.005446472170022371,-0.004613986725312075
-0.005446132170022371,-0.007247071345676644
-0.005445792170022372,-0.006259664613039929
-0.005445452170022371,-0.004811468071842888
-0.005445112170022371,-0.006720454421603728
-0.005444772170022372,-0.007115417114658414
-0.005444432170022371,-0.007378725576697207
-0.005444092170022371,-0.008662354329122598
-0.005443752170022372,-0.008333218751577026
-0.005443412170022371,-0.006885022210378013
-0.005443072170022371,-0.007707861154240443
-0.005442732170022372,-0.006621713748340058
-0.005442392170022371,-0.003725320665938315
-0.005442052170022371,-0.003330357972884349
-0.005441712170022372,-0.006588800190585501
-0.005441372170022371,0.0006850960731765903
-0.005441032170022371,0.003416921366799861
-0.005440692170022372,0.003021958673745176
-0.005440352170022371,0.003877711175351806
-0.005440012170022371,-0.002639173260038648
-0.005439672170022372,-0.004021542685730045
-0.005439332170022371,-0.002737913933305372
-0.005438992170022371,-0.00441650537878473
-0.005438652170022372,-0.006786281537112842
-0.005438312170022371,-0.005634307015701849
-0.005437972170022371,-0.004811468071839416
-0.005437632170022372,-0.006160923939776259
-0.005437292170022371,-0.00339618508839442
-0.005436952170022371,-0.003922802012466375
-0.005436612170022372,-0.005733047688967017
-0.005436272170022372,-0.004811468071841092
-0.005435932170022371,-0.005667220573457903
-0.005435592170022372,-0.007971169616276898
-0.005435252170022372,-0.007707861154240922
-0.005434912170022371,-0.004745640956330302
-0.005434572170022372,-0.005634307015703346
-0.005434232170022372,-0.005502652784685355
-0.005433892170022371,-0.003692407108184477
-0.005433552170022372,-0.003955715570220932
-0.005433212170022372,-0.003593666434921461
-0.005432872170022371,-0.003198703741866118
-0.005432532170022372,-0.003725320665939034
-0.005432192170022372,-0.004120283358993001
-0.005431852170022371,-0.002145469893720293
-0.005431512170022372,-0.004646900283066632
-0.005431172170022372,-0.006259664613036996
-0.005430832170022371,0.003351094251290744
-0.005430492170022371,0.0005205282843988336
-0.005430152170022372,-0.004219024032248768
-0.005429812170022371,-0.001717593642911051
-0.005429472170022371,-0.001256803834347248
-0.005429132170022372,-0.004317764705515491
-0.005428792170022371,-0.004482332494293848
-0.005428452170022371,-0.001783420758420164
-0.005428112170022372,-0.002902481722073071
-0.005427772170022371,-0.002540432586774978
-0.005427432170022371,-0.00227712412473852
-0.005427092170022372,-0.003429098646148019
-0.005426752170022371,-0.002606259702284092
-0.005426412170022371,-0.003165790184111561
-0.005426072170022372,-0.004581073167557518
-0.005425732170022371,-0.005765961246721574
-0.005425392170022371,-0.003692407108184477
-0.005425052170022372,-0.004120283358993719
-0.005424712170022371,-0.004087369801239162
-0.005424372170022371,-0.003165790184111561
-0.005424032170022372,-0.004186110474502833
-0.005423692170022371,-0.004745640956329524
-0.005423352170022371,-0.00431776470552106
-0.005423012170022372,-0.004976035860612203
-0.005422672170022371,-0.006424232401812837
-0.005422332170022371,-0.006490059517321831
-0.005421992170022372,-0.007872428943013227
-0.005421652170022371,-0.009682674619509559
-0.005421312170022371,-0.007312898461185758
-0.005420972170022372,-0.009386452599722855
-0.005420632170022371,-0.006885022210373582
-0.005420292170022371,-0.005272257880403218
-0.005419952170022372,-0.002639173260038648
-0.005419612170022371,-0.001158063161092917
-0.005419272170022371,-0.006292578170794486
-0.005418932170022372,-0.007082503556903857
-0.005418592170022371,-0.0041531969167375
-0.005418252170022371,0.001771243479072003
-0.005417912170022372,-0.002935395279829663
-0.005417572170022371,-0.005798874804474993
-0.005417232170022371,-0.005173517207139544
