Analysis/files/cmb03_d2s01/wrd04_ch08.csv

#Digilent WaveForms Oscilloscope Acquisition
#Device Name: ADP3450
#Serial Number: SN:210018B9D9B0
#Date Time: 2024-08-09 15:09:08.559.306.430
#Sample rate: 2.94118e+06Hz
#Samples: 32768
#Trigger: Source: Channel 3 Type: Edge Condition: Rising Level: 20 mV Hyst.: Auto HoldOff: 0 s
#Channel 3: Range: 200 mV/div Offset: 0 V Attenuation: 1 X Coupling: DC Bandwidth: 0 Hz Sample Mode: Average

Time (s),Channel 3 (V)
-0.005570313996840443,0.006375244507220324
-0.005569973996840442,0.007066429220063569
-0.005569633996840443,0.005716973352129182
-0.005569293996840443,0.006901861431293239
-0.005568953996840442,0.008382971530247051
-0.005568613996840443,0.007691786817402609
-0.005568273996840443,0.007658873259648051
-0.005567933996840442,0.007856354606171921
-0.005567593996840443,0.005947368256411082
-0.005567253996840443,0.004301690368683227
-0.005566913996840442,0.004992875081524256
-0.005566573996840443,0.002425617576673472
-0.005566233996840443,0.0001545820916090312
-0.005565893996840442,-0.001721490700401981
-0.005565553996840443,-0.002412675413246423
-0.005565213996840443,-0.003531736376901365
-0.005564873996840442,-0.003005119452831924
-0.005564533996840443,-0.004914105802592763
-0.005564193996840443,-0.007645931096221003
-0.005563853996840442,-0.002182280508966199
-0.005563513996840443,-0.003103860126092122
-0.005563173996840443,-0.002610156759773766
-0.005562833996840443,-0.00363047705016318
-0.005562493996840443,-0.005901512535229476
-0.005562153996840443,-0.005769858304211248
-0.005561813996840443,-0.003630477050168928
-0.005561473996840443,-0.004519143109538078
-0.005561133996840443,-0.005045760033610991
-0.005560793996840443,-0.003235514357113643
-0.005560453996840443,-0.003169687241601236
-0.005560113996840443,-0.004749538013819977
-0.005559773996840443,-0.004979932918101459
-0.005559433996840443,-0.004420402436274407
-0.005559093996840443,-0.006131907439511376
-0.005558753996840443,-0.006526870132565344
-0.005558413996840443,-0.004650797340556306
-0.005558073996840443,-0.005341982053402005
-0.005557733996840443,-0.006395215901545917
-0.005557393996840443,-0.006164820997265934
-0.005557053996840443,-0.006757265036847961
-0.005556713996840443,-0.009390349657207741
-0.005556373996840443,-0.008402942924575817
-0.005556033996840443,-0.008238375135803031
-0.005555693996840443,-0.009258695426192445
-0.005555353996840443,-0.007185141287657204
-0.005555013996840443,-0.006131907439511376
-0.005554673996840443,-0.005407809168912437
-0.005554333996840442,-0.006592697248075176
-0.005553993996840443,-0.01004862081230367
-0.005553653996840443,-0.005473636284420234
-0.005553313996840442,-0.003005119452828451
-0.005552973996840443,0.003413024309310185
-0.005552633996840443,-0.004650797340556306
-0.005552293996840442,-0.008830819175385059
-0.005551953996840443,-0.009061214079666959
-0.005551613996840443,-0.008040893789275689
-0.005551273996840442,-0.008666251386611794
-0.005550933996840443,-0.008402942924575817
-0.005550593996840443,-0.009159954752930631
-0.005550253996840442,-0.007909239558256741
-0.005549913996840443,-0.007514276865202775
-0.005549573996840443,-0.009258695426194301
-0.005549233996840442,-0.008995386964154193
-0.005548893996840443,-0.006987659941129861
-0.005548553996840443,-0.006526870132566062
-0.005548213996840442,-0.008370029366817968
-0.005547873996840443,-0.006559783690320619
-0.005547533996840443,-0.005539463399929348
-0.005547193996840442,-0.007613017538468362
-0.005546853996840443,-0.008666251386612273
-0.005546513996840443,-0.009554917445985316
-0.005546173996840442,-0.01090437331392078
-0.005545833996840443,-0.01014736148556734
-0.005545493996840443,-0.007843412442748346
-0.005545153996840442,-0.010147361485568
-0.005544813996840443,-0.01050941062086747
-0.005544473996840443,-0.008797905617630502
-0.005544133996840442,-0.008732078502125878
-0.005543793996840443,-0.01120059533371317
-0.005543453996840443,-0.01366911216530495
-0.005543113996840442,-0.008797905617629904
-0.005542773996840443,-0.008468770040084931
-0.005542433996840443,-0.008172548020293918
-0.005542093996840443,-0.009587831003737298
-0.005541753996840443,-0.01429446976264154
-0.005541413996840443,-0.01192469360431343
-0.005541073996840443,-0.009094127637426664
-0.005540733996840443,-0.0111018546604495
-0.005540393996840443,-0.009949880139040001
-0.005540053996840443,-0.009949880139040001
-0.005539713996840443,-0.009094127637421515
-0.005539373996840443,-0.007744671769484675
-0.005539033996840443,-0.008304202251311127
-0.005538693996840443,-0.009719485234758102
-0.005538353996840443,-0.009719485234758102
-0.005538013996840443,-0.008534597155596201
-0.005537673996840443,-0.01136516312248596
-0.005537333996840443,-0.01057523773637659
-0.005536993996840443,-0.009522003888232674
-0.005536653996840443,-0.01027901571658557
-0.005536313996840443,-0.009258695426194301
-0.005535973996840443,-0.009127041195176313
-0.005535633996840443,-0.01126642244922228
-0.005535293996840443,-0.01090437331392216
-0.005534953996840443,-0.007942153116017404
-0.005534613996840443,-0.009423263214967087
-0.005534273996840443,-0.008962473406403288
-0.005533933996840443,-0.00738262263418742
-0.005533593996840443,-0.008468770040084931
-0.005533253996840443,-0.01343871726102305
-0.005532913996840443,-0.009423263214967087
-0.005532573996840442,-0.007744671769484675
-0.005532233996840443,-0.008896646290894173
-0.005531893996840443,-0.005671117630947577
-0.005531553996840442,-0.0111018546604495
-0.005531213996840443,-0.01304375456796837
-0.005530873996840443,-0.009884053023530886
-0.005530533996840442,-0.009324522541703417
-0.005530193996840443,-0.01070689196739481
-0.005529853996840443,-0.009752398792512659
-0.005529513996840442,-0.009653658119252579
-0.005529173996840443,-0.01162847158452241
-0.005528833996840443,-0.01199052071982254
-0.005528493996840442,-0.01166138514228062
-0.005528153996840443,-0.01366911216530495
-0.005527813996840443,-0.01557809851506927
-0.005527473996840442,-0.01324123591449841
-0.005527133996840443,-0.01472234601345078
-0.005526793996840443,-0.0134058037032685
-0.005526453996840442,-0.01166138514227643
-0.005526113996840443,-0.01136516312248596
-0.005525773996840443,-0.01139807668024051
-0.005525433996840442,-0.01018027504332064
-0.005525093996840443,-0.009489090330476201
-0.005524753996840443,-0.01060815129413114
-0.005524413996840442,-0.009752398792513975
-0.005524073996840443,-0.01047649706311291
-0.005523733996840443,-0.01126642244922228
-0.005523393996840442,-0.01008153437006296
-0.005523053996840443,-0.01268170543266824
-0.005522713996840443,-0.02077844064028929
-0.005522373996840442,-0.02127214400662896
-0.005522033996840443,-0.03298937056722998
-0.005521693996840443,-0.05309955435526437
-0.005521353996840442,-0.07804803113328007
-0.005521013996840443,-0.1118173413893943
-0.005520673996840443,-0.1434801839492782
-0.005520333996840443,-0.1713250538095829
-0.005519993996840443,-0.201013082904244
-0.005519653996840443,-0.2275084968966625
-0.005519313996840443,-0.2452489045263365
-0.005518973996840443,-0.2564066006051636
-0.005518633996840443,-0.2657540510074579
-0.005518293996840443,-0.2667085441823383
-0.005517953996840443,-0.2631867935026024
-0.005517613996840443,-0.2584472411859461
-0.005517273996840443,-0.2523582330013642
-0.005516933996840443,-0.2434386588498681
-0.005516593996840443,-0.236164762586111
-0.005516253996840443,-0.2274426697811693
-0.005515913996840443,-0.219148453227005
-0.005515573996840443,-0.2117429027322296
-0.005515233996840443,-0.2055880674321386
-0.005514893996840443,-0.1973596779934882
-0.005514553996840443,-0.1915339782709316
-0.005514213996840443,-0.1875185242248829
-0.005513873996840443,-0.1810674669049824
-0.005513533996840443,-0.1746822367005983
-0.005513193996840443,-0.1710946589053581
-0.005512853996840443,-0.1654335269715678
-0.005512513996840443,-0.1611218509057208
-0.005512173996840443,-0.1615826407142846
-0.005511833996840442,-0.1473639837643159
-0.005511493996840443,-0.139333075672204
-0.005511153996840443,-0.1329478454678199
-0.005510813996840442,-0.1283728609399365
-0.005510473996840443,-0.1261347390126266
-0.005510133996840443,-0.1203748664055791
-0.005509793996840442,-0.1152403513958682
-0.005509453996840443,-0.1120806498514307
-0.005509113996840443,-0.1125414396599945
-0.005508773996840442,-0.1023382367560858
-0.005508433996840443,-0.1045434451256371
-0.005508093996840443,-0.1015153978122179
-0.005507753996840442,-0.09888231319184367
-0.005507413996840443,-0.0935832303933696
-0.005507073996840443,-0.09042352884893212
-0.005506733996840442,-0.08772461711304977
-0.005506393996840443,-0.08295215123864766
-0.005506053996840443,-0.0796278819054374
-0.005505713996840442,-0.07725810574710486
-0.005505373996840443,-0.07482250247327205
-0.005505033996840443,-0.07238689919943483
-0.005504693996840442,-0.07172862804433973
-0.005504353996840443,-0.06955633323254293
-0.005504013996840443,-0.06672576726565102
-0.005503673996840442,-0.06669285370789155
-0.005503333996840443,-0.06399394197202277
-0.005502993996840443,-0.06126211667839453
-0.005502653996840442,-0.06073549975431904
-0.005502313996840443,-0.05932021677087566
-0.005501973996840443,-0.0630394487971406
-0.005501633996840442,-0.05560098474460137
-0.005501293996840443,-0.0504664697348998
-0.005500953996840443,-0.04766881732576245
-0.005500613996840442,-0.04743842242148515
-0.005500273996840443,-0.04997276636858144
-0.005499933996840443,-0.04799795290330802
-0.005499593996840443,-0.04493699203213977
-0.005499253996840443,-0.04467368357009775
-0.005498913996840443,-0.04450911578132496
-0.005498573996840443,-0.04256721587380963
-0.005498233996840443,-0.0414152413523966
-0.005497893996840443,-0.03970373634915963
-0.005497553996840443,-0.03815679913469826
-0.005497213996840443,-0.03812388557694089
-0.005496873996840443,-0.0356553687453491
-0.005496533996840443,-0.03414134508864223
-0.005496193996840443,-0.03453630778169416
-0.005495853996840443,-0.03325267902926643
-0.005495513996840443,-0.03282480277845796
-0.005495173996840443,-0.03308811124049365
-0.005494833996840443,-0.03387803662660302
-0.005494493996840443,-0.03256149431642313
-0.005494153996840443,-0.03292354345172086
-0.005493813996840443,-0.03229818585438428
-0.005493473996840443,-0.02940179277198852
-0.005493133996840443,-0.02982966902279249
-0.005492793996840443,-0.02884226229015578
-0.005492453996840443,-0.02551799295695156
-0.005492113996840443,-0.02225955073924436
-0.005491773996840443,-0.02258868631678993
-0.005491433996840443,-0.02555090651469468
-0.005491093996840442,-0.02202915583496246
-0.005490753996840443,-0.01821118313543383
-0.005490413996840443,-0.01709212217177889
-0.005490073996840442,-0.01890236784827953
-0.005489733996840443,-0.02272034054780816
-0.005489393996840443,-0.0233786117028993
-0.005489053996840442,-0.01962646611887979
-0.005488713996840443,-0.02114048977558942
-0.005488373996840443,-0.02104174910232575
-0.005488033996840442,-0.01998851525418237
-0.005487693996840443,-0.02133797112211676
-0.005487353996840443,-0.01985686102316169
-0.005487013996840442,-0.02038347794723496
-0.005486673996840443,-0.02058095929376194
-0.005486333996840443,-0.02058095929376194
-0.005485993996840442,-0.0180466153466647
-0.005485653996840443,-0.02005434236968903
-0.005485313996840443,-0.0201530830429527
-0.005484973996840442,-0.01850740515522623
-0.005484633996840443,-0.01926441698357966
-0.005484293996840443,-0.01949481188786156
-0.005483953996840442,-0.01748708486483208
-0.005483613996840443,-0.01666424592096965
-0.005483273996840443,-0.01574266630384205
-0.005482933996840442,-0.01231965629736781
-0.005482593996840443,-0.01215508850859533
-0.005482253996840443,-0.01324123591449571
-0.005481913996840442,-0.01304375456797136
-0.005481573996840443,-0.01468943245569622
-0.005481233996840443,-0.01712503572953345
-0.005480893996840442,-0.02446475910878621
-0.005480553996840443,-0.01705920861402434
-0.005480213996840443,-0.01794787467339738
-0.005479873996840442,-0.01630219678567036
-0.005479533996840443,-0.01676298659423332
-0.005479193996840443,-0.01985686102316169
-0.005478853996840443,-0.01821118313543683
-0.005478513996840443,-0.01439321043590521
-0.005478173996840443,-0.01610471543914218
-0.005477833996840443,-0.01567683918833371
-0.005477493996840443,-0.01347163081877761
-0.005477153996840443,-0.01347163081877761
-0.005476813996840443,-0.01380076639632258
-0.005476473996840443,-0.01324123591449571
-0.005476133996840443,-0.01360328504979584
-0.005475793996840443,-0.01511730870650271
-0.005475453996840443,-0.01422864264713243
-0.005475113996840443,-0.01472234601345078
-0.005474773996840443,-0.01607180188138517
-0.005474433996840443,-0.01416281553162331
-0.005474093996840443,-0.01412990197386875
-0.005473753996840443,-0.0147223460134497
-0.005473413996840443,-0.01380076639632318
-0.005473073996840443,-0.01337289014551394
-0.005472733996840443,-0.01445903755141235
-0.005472393996840443,-0.01396533418509597
-0.005472053996840443,-0.01449195110916888
-0.005471713996840443,-0.01587432053485776
-0.005471373996840443,-0.01554518495731471
-0.005471033996840443,-0.01541353072629648
-0.005470693996840443,-0.01883654073276419
-0.005470353996840443,-0.01985686102316169
-0.005470013996840443,-0.01162847158452241
-0.005469673996840443,-0.01129933600697684
-0.005469333996840442,-0.009192868310685188
-0.005468993996840443,-0.009192868310685188
-0.005468653996840443,-0.0115626444690133
-0.005468313996840442,-0.009192868310685188
-0.005467973996840443,-0.007975066673766575
-0.005467633996840443,-0.008962473406403288
-0.005467293996840442,-0.01172721225778608
-0.005466953996840443,-0.0104106699476038
-0.005466613996840443,-0.01238548341287723
-0.005466273996840442,-0.0140311613006055
-0.005465933996840443,-0.01426155620488698
-0.005465593996840443,-0.01353745793428673
-0.005465253996840442,-0.01406407485835784
-0.005464913996840443,-0.01307666812572293
-0.005464573996840443,-0.006033166766247705
-0.005464233996840442,-0.0111347682182043
-0.005463893996840443,-0.01126642244922228
-0.005463553996840443,-0.008271288693557588
-0.005463213996840442,-0.01044358350535752
-0.005462873996840443,-0.009982793696794558
-0.005462533996840443,-0.008040893789275689
-0.005462193996840442,-0.009620744561497424
-0.005461853996840443,-0.01126642244922228
-0.005461513996840443,-0.01054232417862203
-0.005461173996840442,-0.01159555802676983
-0.005460833996840443,-0.01268170543266824
-0.005460493996840443,-0.01261587831715913
-0.005460153996840442,-0.01794787467339008
-0.005459813996840443,-0.01393242062734141
-0.005459473996840443,-0.009785312350267215
-0.005459133996840442,-0.009851139465777108
-0.005458793996840443,-0.01027901571658557
-0.005458453996840443,-0.01245131052838634
-0.005458113996840442,-0.01166138514227433
-0.005457773996840443,-0.01021318860107646
-0.005457433996840443,-0.008106720904784802
-0.005457093996840443,-0.008732078502120251
-0.005456753996840443,-0.009028300521912402
-0.005456413996840443,-0.008534597155594046
-0.005456073996840443,-0.008666251386612034
-0.005455733996840443,-0.01090437331392216
-0.005455393996840443,-0.01044358350535836
-0.005455053996840443,-0.009456176772723439
-0.005454713996840443,-0.01320832235674115
-0.005454373996840443,-0.009982793696794558
-0.005454033996840443,-0.009324522541704613
-0.005453693996840443,-0.008732078502121389
-0.005453353996840443,-0.008830819175385059
-0.005453013996840443,-0.007448449749696175
-0.005452673996840443,-0.00962074456149443
-0.005452333996840443,-0.0115626444690133
-0.005451993996840443,-0.01011444792781542
-0.005451653996840443,-0.01264879187491368
-0.005451313996840443,-0.01307666812572293
-0.005450973996840443,-0.01255005120165097
-0.005450633996840443,-0.0127146189904228
-0.005450293996840443,-0.01426155620488698
-0.005449953996840443,-0.01373493928081503
-0.005449613996840443,-0.01646676457444231
-0.005449273996840443,-0.009982793696794558
-0.005448933996840443,-0.007152227729907795
-0.005448593996840442,-0.01284627322144103
-0.005448253996840443,-0.01208926139308621
-0.005447913996840443,-0.009587831003739873
-0.005447573996840442,-0.01034484283209469
-0.005447233996840443,-0.01370202572305951
-0.005446893996840443,-0.01287918677919558
-0.005446553996840442,-0.012253829181859
-0.005446213996840443,-0.01307666812572293
-0.005445873996840443,-0.0136361986075504
-0.005445533996840442,-0.01274753254817813
-0.005445193996840443,-0.0131754087989866
-0.005444853996840443,-0.0127146189904228
-0.005444513996840442,-0.01070689196739811
-0.005444173996840443,-0.01251713764389546
-0.005443833996840443,-0.01205634783533165
-0.005443493996840442,-0.01090437331392138
-0.005443153996840443,-0.01047649706311291
-0.005442813996840443,-0.01222091562410444
-0.005442473996840442,-0.01129933600697559
-0.005442133996840443,-0.01060815129413114
-0.005441793996840443,-0.01090437331392216
-0.005441453996840442,-0.009587831003742867
-0.005441113996840443,-0.01123350889146773
-0.005440773996840443,-0.0120234342775771
-0.005440433996840442,-0.01189178004655821
-0.005440093996840443,-0.01152973091125874
-0.005439753996840443,-0.01245131052838634
-0.005439413996840442,-0.01340580370326191
-0.005439073996840443,-0.009785312350267215
-0.005438733996840443,-0.01011444792781279
-0.005438393996840442,-0.008205461578045182
-0.005438053996840443,-0.006395215901547833
-0.005437713996840443,-0.0117930393732952
-0.005437373996840442,-0.01333997658775364
-0.005437033996840443,-0.0101802750433219
-0.005436693996840443,-0.01143099023799507
-0.005436353996840443,-0.0122538291818575
-0.005436013996840443,-0.01027901571658557
-0.005435673996840443,-0.009522003888230759
-0.005435333996840443,-0.009456176772721763
-0.005434993996840443,-0.008732078502121389
-0.005434653996840443,-0.01008153437005823
-0.005434313996840443,-0.01129933600697463
-0.005433973996840443,-0.01152973091125874
-0.005433633996840443,-0.01547935784180559
-0.005433293996840443,-0.01679590015198549
-0.005432953996840443,-0.0159401476503694
-0.005432613996840443,-0.01462360534018711
-0.005432273996840443,-0.01343871726102521
-0.005431933996840443,-0.01215508850859533
-0.005431593996840443,-0.01044358350535836
-0.005431253996840443,-0.01162847158452026
-0.005430913996840443,-0.01044358350535836
-0.005430573996840443,-0.009554917445985316
-0.005430233996840443,-0.01050941062086574
-0.005429893996840443,-0.01047649706311291
-0.005429553996840443,-0.009423263214967087
-0.005429213996840443,-0.0115955580267639
-0.005428873996840443,-0.01620345611240585
-0.005428533996840443,-0.009159954752930631
-0.005428193996840443,-0.009324522541703116
-0.005427853996840443,-0.008106720904784802
-0.005427513996840443,-0.00837002936682126
-0.005427173996840443,-0.01360328504979584
-0.005426833996840442,-0.01284627322144103
-0.005426493996840443,-0.009456176772721644
-0.005426153996840443,-0.008764992059875945
-0.005425813996840442,-0.01126642244922228
-0.005425473996840443,-0.01011444792781279
-0.005425133996840443,-0.01070689196739481
-0.005424793996840442,-0.01195760716206798
-0.005424453996840443,-0.0117930393732952
-0.005424113996840443,-0.01166138514227697
-0.005423773996840442,-0.0143932104359015
-0.005423433996840443,-0.01235256985512267
-0.005423093996840443,-0.01139807668024051
-0.005422753996840442,-0.01133224956472727
-0.005422413996840443,-0.009061214079666959
-0.005422073996840443,-0.007942153116012016
-0.005421733996840442,-0.008732078502120431
-0.005421393996840443,-0.008205461578048474
-0.005421053996840443,-0.007580103980711889
-0.005420713996840442,-0.009587831003731371
-0.005420373996840443,-0.004914105802592763
-0.005420033996840443,-0.009982793696794558
-0.005419693996840442,-0.01297792745246009
-0.005419353996840443,-0.01343871726102305
-0.005419013996840443,-0.0117930393732952
-0.005418673996840442,-0.01666424592096953
-0.005418333996840443,-0.01659841880546054
-0.005417993996840443,-0.008929559848648731
-0.005417653996840442,-0.009719485234756067
-0.005417313996840443,-0.00860042427110316
-0.005416973996840443,-0.01241839697063178
-0.005416633996840442,-0.01333997658775585
-0.005416293996840443,-0.01139807668024051
