Analysis/files/cmb03_d2s01/wrd05_ch27.csv

#Digilent WaveForms Oscilloscope Acquisition
#Device Name: ADP3450
#Serial Number: SN:210018B9D9B0
#Date Time: 2024-08-09 15:47:45.689.516.580
#Sample rate: 2.94118e+06Hz
#Samples: 32768
#Trigger: Source: Channel 3 Type: Edge Condition: Rising Level: 20 mV Hyst.: Auto HoldOff: 0 s
#Channel 3: Range: 200 mV/div Offset: 0 V Attenuation: 1 X Coupling: DC Bandwidth: 0 Hz Sample Mode: Average

Time (s),Channel 3 (V)
-0.005570328053244593,0.0007799396889456162
-0.005569988053244592,0.006013195371926063
-0.005569648053244593,0.009238724031866792
-0.005569308053244593,0.008185490183720966
-0.005568968053244592,0.005453664890084344
-0.005568628053244593,0.0008457668044547304
-0.005568288053244593,-9.985697163754359e-06
-0.005567948053244592,0.0001216685338486667
-0.005567608053244593,-0.003070946568337565
-0.005567268053244593,-0.003301341472619465
-0.005566928053244592,-0.003992526185463907
-0.005566588053244593,-0.003301341472619465
-0.005566248053244593,-0.002017712720191738
-0.005565908053244592,-0.003070946568339122
-0.005565568053244593,-0.00392669906995605
-0.005565228053244593,-0.002972205895073894
-0.005564888053244592,-0.001984799162437779
-0.005564548053244593,-0.002313934739982752
-0.005564208053244593,-0.002116453393455409
-0.005563868053244592,-0.003630477050165515
-0.005563528053244593,-0.003893785512201493
-0.005563188053244593,-0.003235514357110351
-0.005562848053244593,-0.004881192244835213
-0.005562508053244593,-0.007975066673766575
-0.005562168053244593,-0.007448449749693661
-0.005561828053244593,-0.008139634462538101
-0.005561488053244593,-0.009719485234758102
-0.005561148053244593,-0.01067397840964026
-0.005560808053244593,-0.01106894110269422
-0.005560468053244593,-0.01149681735350419
-0.005560128053244593,-0.01185886648880431
-0.005559788053244593,-0.01018027504332495
-0.005559448053244593,-0.007152227729902647
-0.005559108053244593,-0.005341982053402005
-0.005558768053244593,-0.002840551664060216
-0.005558428053244593,-0.00619773455502049
-0.005558088053244593,-0.01083854619841304
-0.005557748053244593,-0.007744671769490303
-0.005557408053244593,-0.006856005710111633
-0.005557068053244593,-0.007349709076429989
-0.005556728053244593,-0.00685600571011253
-0.005556388053244593,-0.007283881960920875
-0.005556048053244593,-0.006098993881756819
-0.005555708053244593,-0.004584970225049946
-0.005555368053244593,-0.00438748887851985
-0.005555028053244593,-0.006362302343793276
-0.005554688053244593,-0.006526870132565763
-0.005554348053244593,-0.008435856482330374
-0.005554008053244593,-0.008732078502121389
-0.005553668053244593,-0.00939034965721253
-0.005553328053244592,-0.01106894110269494
-0.005552988053244593,-0.01297792745245925
-0.005552648053244593,-0.01162847158452241
-0.005552308053244592,-0.01307666812572293
-0.005551968053244593,-0.01482108668671445
-0.005551628053244593,-0.01422864264713243
-0.005551288053244592,-0.01373493928081461
-0.005550948053244593,-0.01403116130060508
-0.005550608053244593,-0.01235256985512267
-0.005550268053244592,-0.01179303937329604
-0.005549928053244593,-0.012253829181859
-0.005549588053244593,-0.01607180188138762
-0.005549248053244592,-0.01034484283209397
-0.005548908053244593,-0.009949880139040001
-0.005548568053244593,-0.01037775638984924
-0.005548228053244592,-0.008600424271110584
-0.005547888053244593,-0.01268170543266824
-0.005547548053244593,-0.01429446976264154
-0.005547208053244592,-0.009752398792512778
-0.005546868053244593,-0.009818225908021772
-0.005546528053244593,-0.01093728687167671
-0.005546188053244592,-0.01080563264065807
-0.005545848053244593,-0.01057523773637659
-0.005545508053244593,-0.01195760716206798
-0.005545168053244592,-0.01149681735350197
-0.005544828053244593,-0.01027901571658557
-0.005544488053244593,-0.0127146189904228
-0.005544148053244592,-0.01149681735350239
-0.005543808053244593,-0.01050941062086747
-0.005543468053244593,-0.01136516312248596
-0.005543128053244592,-0.01202343427757734
-0.005542788053244593,-0.01215508850859533
-0.005542448053244593,-0.0134058037032685
-0.005542108053244593,-0.01419572908937643
-0.005541768053244593,-0.01422864264713243
-0.005541428053244593,-0.01577557986159661
-0.005541088053244593,-0.01399824774285376
-0.005540748053244593,-0.01389950706958685
-0.005540408053244593,-0.0136361986075504
-0.005540068053244593,-0.01393242062734087
-0.005539728053244593,-0.01258296475940457
-0.005539388053244593,-0.01412990197386875
-0.005539048053244593,-0.01919858986806133
-0.005538708053244593,-0.01310958168347748
-0.005538368053244593,-0.01090437331392216
-0.005538028053244593,-0.01113476821820364
-0.005537688053244593,-0.01034484283209469
-0.005537348053244593,-0.01564392563057838
-0.005537008053244593,-0.01696046794075827
-0.005536668053244593,-0.01389950706958685
-0.005536328053244593,-0.01255005120165001
-0.005535988053244593,-0.01468943245569233
-0.005535648053244593,-0.01383367995407774
-0.005535308053244593,-0.01373493928081407
-0.005534968053244593,-0.01350454437653259
-0.005534628053244593,-0.01337289014551394
-0.005534288053244593,-0.01241839697063178
-0.005533948053244593,-0.01396533418509315
-0.005533608053244593,-0.01264879187491368
-0.005533268053244593,-0.01162847158452241
-0.005532928053244593,-0.01231965629736811
-0.005532588053244593,-0.01208926139308621
-0.005532248053244593,-0.01172721225778608
-0.005531908053244593,-0.01149681735350419
-0.005531568053244592,-0.01199052071982254
-0.005531228053244593,-0.0106410648518857
-0.005530888053244593,-0.01231965629736811
-0.005530548053244592,-0.01274753254817735
-0.005530208053244593,-0.01245131052838634
-0.005529868053244593,-0.01149681735350419
-0.005529528053244592,-0.01337289014551604
-0.005529188053244593,-0.01452486466692344
-0.005528848053244593,-0.01488691380222357
-0.005528508053244592,-0.01890236784826726
-0.005528168053244593,-0.01215508850859533
-0.005527828053244593,-0.01195760716206798
-0.005527488053244592,-0.01238548341288393
-0.005527148053244593,-0.01607180188138762
-0.005526808053244593,-0.01893528140603409
-0.005526468053244592,-0.01761873909584983
-0.005526128053244593,-0.01653259168995142
-0.005525788053244593,-0.01231965629736811
-0.005525448053244592,-0.01597306120812533
-0.005525108053244593,-0.01673007303647877
-0.005524768053244593,-0.01538061716854192
-0.005524428053244592,-0.01544644428405038
-0.005524088053244593,-0.01508439514875091
-0.005523748053244593,-0.01468943245569622
-0.005523408053244592,-0.01409698841611623
-0.005523068053244593,-0.01521604937976914
-0.005522728053244593,-0.01699338149851522
-0.005522388053244592,-0.02390522862699844
-0.005522048053244593,-0.03832136692346823
-0.005521708053244593,-0.05764162532539325
-0.005521368053244592,-0.08443326133766038
-0.005521028053244593,-0.1161290174552412
-0.005520688053244593,-0.1483184769391981
-0.005520348053244593,-0.1813636889247133
-0.005520008053244593,-0.2105909282108201
-0.005519668053244593,-0.2339924677743102
-0.005519328053244593,-0.2535760346382361
-0.005518988053244593,-0.2673339017796766
-0.005518648053244593,-0.2751673285252612
-0.005518308053244593,-0.2800714486306812
-0.005517968053244593,-0.2792486096868262
-0.005517628053244593,-0.2671693339909038
-0.005517288053244593,-0.2650957798523705
-0.005516948053244593,-0.2620019054234383
-0.005516608053244593,-0.2515353940574891
-0.005516268053244593,-0.2416942402888945
-0.005515928053244593,-0.2356710592197926
-0.005515588053244593,-0.2284300765137901
-0.005515248053244593,-0.2172065533195065
-0.005514908053244593,-0.2096035214781834
-0.005514568053244593,-0.2026587607919719
-0.005514228053244593,-0.194924074719665
-0.005513888053244593,-0.1875843513403847
-0.005513548053244593,-0.1810016397894733
-0.005513208053244593,-0.1732998672749209
-0.005512868053244593,-0.1664209337042045
-0.005512528053244593,-0.1622738254271303
-0.005512188053244593,-0.1558885952227462
-0.005511848053244593,-0.1515769191568992
-0.005511508053244593,-0.1487134396322528
-0.005511168053244593,-0.1433814432760145
-0.005510828053244592,-0.1392672485566949
-0.005510488053244593,-0.135613843645939
-0.005510148053244593,-0.1309730320025465
-0.005509808053244592,-0.1262334796858903
-0.005509468053244593,-0.122612988332889
-0.005509128053244593,-0.1181038309205147
-0.005508788053244592,-0.1132326243728358
-0.005508448053244593,-0.110797021099003
-0.005508108053244593,-0.1071436161882471
-0.005507768053244592,-0.1046421857988867
-0.005507428053244593,-0.09687458616882533
-0.005507088053244593,-0.09443898289498809
-0.005506748053244592,-0.08946903567404933
-0.005506408053244593,-0.08910698653874985
-0.005506068053244593,-0.09104888644626871
-0.005505728053244592,-0.08568397653226867
-0.005505388053244593,-0.08170143604397451
-0.005505048053244593,-0.08140521402418349
-0.005504708053244592,-0.07781763622893106
-0.005504368053244593,-0.07469084824225383
-0.005504028053244593,-0.07199193650638014
-0.005503688053244592,-0.06853601294214295
-0.005503348053244593,-0.06376354706774087
-0.005503008053244593,-0.06241409119980403
-0.005502668053244592,-0.05915564898210084
-0.005502328053244593,-0.05803658801844794
-0.005501988053244593,-0.05731248974784768
-0.005501648053244592,-0.05790493378742515
-0.005501308053244593,-0.05540350339808336
-0.005500968053244593,-0.05589720676440172
-0.005500628053244592,-0.05494271358951514
-0.005500288053244593,-0.05250711031568234
-0.005499948053244593,-0.05257293743119146
-0.005499608053244593,-0.05096017310122109
-0.005499268053244593,-0.04914992742471751
-0.005498928053244593,-0.04681306482414396
-0.005498588053244593,-0.04552943607171857
-0.005498248053244593,-0.04325840058665179
-0.005497908053244593,-0.04352170904868825
-0.005497568053244593,-0.04599022588027554
-0.005497228053244593,-0.03930877365610494
-0.005496888053244593,-0.03647820768921303
-0.005496548053244593,-0.03667568903574001
-0.005496208053244593,-0.03545788739882176
-0.005495868053244593,-0.03874924317427747
-0.005495528053244593,-0.04059240240852931
-0.005495188053244593,-0.03786057711490443
-0.005494848053244593,-0.03720230595981328
-0.005494508053244593,-0.03855176182774767
-0.005494168053244593,-0.03562245518759454
-0.005493828053244593,-0.0328906298939663
-0.005493488053244593,-0.03259440787417583
-0.005493148053244593,-0.03269314854743896
-0.005492808053244593,-0.02976384190728338
-0.005492468053244593,-0.02969801479177439
-0.005492128053244593,-0.03147534691052035
-0.005491788053244593,-0.03038919950461997
-0.005491448053244593,-0.02973092834953002
-0.005491108053244593,-0.02841438603934654
-0.005490768053244593,-0.02696618949814603
-0.005490428053244593,-0.02732823863344615
-0.005490088053244593,-0.02696618949814603
-0.005489748053244593,-0.02495846247511804
-0.005489408053244593,-0.02489263535960893
-0.005489068053244592,-0.02380648795370854
-0.005488728053244593,-0.02163419314190777
-0.005488388053244593,-0.02212789650822613
-0.005488048053244592,-0.02235829141250504
-0.005487708053244593,-0.02071261352478018
-0.005487368053244593,-0.02285199477882639
-0.005487028053244592,-0.02785485555750398
-0.005486688053244593,-0.01956063900337068
-0.005486348053244593,-0.01857323227073396
-0.005486008053244592,-0.01630219678567108
-0.005485668053244593,-0.01715794928728801
-0.005485328053244593,-0.01982394746540713
-0.005484988053244592,-0.01946189833010144
-0.005484648053244593,-0.01640093745893319
-0.005484308053244593,-0.01663133236321509
-0.005483968053244592,-0.01962646611887955
-0.005483628053244593,-0.01949481188786156
-0.005483288053244593,-0.02048221862049827
-0.005482948053244592,-0.02051513217825654
-0.005482608053244593,-0.02255577275903537
-0.005482268053244593,-0.02229246429699892
-0.005481928053244592,-0.02127214400660603
-0.005481588053244593,-0.0203834779472346
-0.005481248053244593,-0.01699338149851522
-0.005480908053244592,-0.01659841880545964
-0.005480568053244593,-0.01610471543914218
-0.005480228053244593,-0.01613762899689674
-0.005479888053244592,-0.01554518495731716
-0.005479548053244593,-0.01689464082525155
-0.005479208053244593,-0.01603888832363307
-0.005478868053244593,-0.00860042427111669
-0.005478528053244593,-0.01830992380869751
-0.005478188053244593,-0.0159401476503694
-0.005477848053244593,-0.01564392563057892
-0.005477508053244593,-0.01640093745893319
-0.005477168053244593,-0.0159401476503694
-0.005476828053244593,-0.0193631576568371
-0.005476488053244593,-0.0185403187129794
-0.005476148053244593,-0.01426155620488698
-0.005475808053244593,-0.01498565447548592
-0.005475468053244593,-0.01515022226426002
-0.005475128053244593,-0.01755291198034269
-0.005474788053244593,-0.01890236784827708
-0.005474448053244593,-0.01666424592096965
-0.005474108053244593,-0.01643385101668775
-0.005473768053244593,-0.01607180188138828
-0.005473428053244593,-0.01663133236321509
-0.005473088053244593,-0.01933024409908878
-0.005472748053244593,-0.01811244246217238
-0.005472408053244593,-0.01761873909585181
-0.005472068053244593,-0.01873780005950675
-0.005471728053244593,-0.01623636967016496
-0.005471388053244593,-0.01551227139956015
-0.005471048053244593,-0.01534770361078737
-0.005470708053244593,-0.01449195110917044
-0.005470368053244593,-0.01511730870650547
-0.005470028053244593,-0.01442612399365977
-0.005469688053244593,-0.01327414947225027
-0.005469348053244593,-0.01343871726102305
-0.005469008053244593,-0.01584140697710572
-0.005468668053244593,-0.01478817312895989
-0.005468328053244592,-0.01412990197386875
-0.005467988053244593,-0.01617054255465129
-0.005467648053244593,-0.01673007303647877
-0.005467308053244592,-0.01738834419156991
-0.005466968053244593,-0.01719086284504256
-0.005466628053244593,-0.01801370178890649
-0.005466288053244592,-0.02107466266006977
-0.005465948053244593,-0.01528187649527825
-0.005465608053244593,-0.01215508850859533
-0.005465268053244592,-0.008468770040083255
-0.005464928053244593,-0.007547190422957332
-0.005464588053244593,-0.01199052071982254
-0.005464248053244592,-0.01208926139308286
-0.005463908053244593,-0.01024610215883101
-0.005463568053244593,-0.01261587831715913
-0.005463228053244592,-0.01304375456796975
-0.005462888053244593,-0.01380076639632318
-0.005462548053244593,-0.01515022226426002
-0.005462208053244592,-0.01284627322144079
-0.005461868053244593,-0.0127146189904228
-0.005461528053244593,-0.01373493928081407
-0.005461188053244592,-0.01287918677919391
-0.005460848053244593,-0.01195760716206798
-0.005460508053244593,-0.01258296475940457
-0.005460168053244592,-0.01268170543266824
-0.005459828053244593,-0.01268170543266824
-0.005459488053244593,-0.01412990197386875
-0.005459148053244592,-0.01376785283856791
-0.005458808053244593,-0.01337289014551394
-0.005458468053244593,-0.01442612399365977
-0.005458128053244592,-0.01478817312895924
-0.005457788053244593,-0.01442612399365977
-0.005457448053244593,-0.01360328504979584
-0.005457108053244593,-0.01478817312895774
-0.005456768053244593,-0.01353745793428673
-0.005456428053244593,-0.01508439514875091
-0.005456088053244593,-0.01482108668671493
-0.005455748053244593,-0.01817826957767928
-0.005455408053244593,-0.01310958168347748
-0.005455068053244593,-0.01225382918186055
-0.005454728053244593,-0.0115626444690133
-0.005454388053244593,-0.01103602754494038
-0.005454048053244593,-0.01751999842257634
-0.005453708053244593,-0.01659841880546054
-0.005453368053244593,-0.01449195110916888
-0.005453028053244593,-0.01607180188138475
-0.005452688053244593,-0.01620345611240585
-0.005452348053244593,-0.01623636967016041
-0.005452008053244593,-0.0162692832279149
-0.005451668053244593,-0.01574266630384205
-0.005451328053244593,-0.0150185680332418
-0.005450988053244593,-0.01538061716854126
-0.005450648053244593,-0.01561101207282382
-0.005450308053244593,-0.01505148159099635
-0.005449968053244593,-0.01498565447548736
-0.005449628053244593,-0.01528187649527825
-0.005449288053244593,-0.01475525957120534
-0.005448948053244593,-0.01505148159099581
-0.005448608053244593,-0.01531479005303281
-0.005448268053244593,-0.01399824774285052
-0.005447928053244593,-0.01462360534018711
-0.005447588053244592,-0.01561101207282382
-0.005447248053244593,-0.01422864264713243
-0.005446908053244593,-0.01383367995407774
-0.005446568053244592,-0.01185886648880431
-0.005446228053244593,-0.01182595293104976
-0.005445888053244593,-0.01176012581554064
-0.005445548053244592,-0.01636802390117529
-0.005445208053244593,-0.01452486466692344
-0.005444868053244593,-0.009653658119248986
-0.005444528053244592,-0.01212217495083706
-0.005444188053244593,-0.01008153437005823
-0.005443848053244593,-0.01073980552514937
-0.005443508053244592,-0.01603888832363211
-0.005443168053244593,-0.01551227139956015
-0.005442828053244593,-0.01050941062086747
-0.005442488053244592,-0.01271461899042513
-0.005442148053244593,-0.01399824774285052
-0.005441808053244593,-0.01373493928081407
-0.005441468053244592,-0.01347163081877845
-0.005441128053244593,-0.01393242062734141
-0.005440788053244593,-0.01274753254817735
-0.005440448053244592,-0.01340580370326939
-0.005440108053244593,-0.01389950706958685
-0.005439768053244593,-0.01268170543266824
-0.005439428053244592,-0.01416281553162301
-0.005439088053244593,-0.01399824774285052
-0.005438748053244593,-0.01343871726102305
-0.005438408053244592,-0.01337289014551604
-0.005438068053244593,-0.01452486466692344
-0.005437728053244593,-0.01399824774285052
-0.005437388053244592,-0.01399824774285184
-0.005437048053244593,-0.01472234601345078
-0.005436708053244593,-0.0143273833203961
-0.005436368053244593,-0.01462360534018657
-0.005436028053244593,-0.01475525957120534
-0.005435688053244593,-0.01643385101668775
-0.005435348053244593,-0.01617054255465177
-0.005435008053244593,-0.01946189833010701
-0.005434668053244593,-0.01850740515522485
-0.005434328053244593,-0.01215508850860688
-0.005433988053244593,-0.01199052071982254
-0.005433648053244593,-0.01047649706311291
-0.005433308053244593,-0.01162847158452032
-0.005432968053244593,-0.01544644428405104
-0.005432628053244593,-0.014557778224678
-0.005432288053244593,-0.007777585327251564
-0.005431948053244593,-0.01231965629736811
-0.005431608053244593,-0.01436029687815065
-0.005431268053244593,-0.01426155620488716
-0.005430928053244593,-0.01159555802676786
-0.005430588053244593,-0.01399824774285052
-0.005430248053244593,-0.0118588664888082
-0.005429908053244593,-0.01152973091125874
-0.005429568053244593,-0.01343871726102305
-0.005429228053244593,-0.01182595293105269
-0.005428888053244593,-0.01268170543266824
-0.005428548053244593,-0.01324123591449571
-0.005428208053244593,-0.01380076639632216
-0.005427868053244593,-0.01077271908290393
-0.005427528053244593,-0.01228674273961356
-0.005427188053244593,-0.0124842240861409
-0.005426848053244593,-0.01287918677919558
-0.005426508053244593,-0.01449195110916888
-0.005426168053244593,-0.01350454437653217
-0.005425828053244592,-0.01531479005303281
-0.005425488053244593,-0.01686172726749699
-0.005425148053244593,-0.01732251707606079
-0.005424808053244592,-0.01515022226426002
-0.005424468053244593,-0.01830992380869751
-0.005424128053244593,-0.01215508850859533
-0.005423788053244592,-0.009752398792512659
-0.005423448053244593,-0.009752398792512659
-0.005423108053244593,-0.008830819175385059
-0.005422768053244592,-0.01255005120165241
-0.005422428053244593,-0.0138665935118323
-0.005422088053244593,-0.01508439514875091
-0.005421748053244592,-0.01386659351183278
-0.005421408053244593,-0.01412990197386875
-0.005421068053244593,-0.01452486466692344
-0.005420728053244592,-0.01511730870650439
-0.005420388053244593,-0.01452486466692344
-0.005420048053244593,-0.01360328504979584
-0.005419708053244592,-0.01268170543266926
-0.005419368053244593,-0.01324123591449571
-0.005419028053244593,-0.01488691380222357
-0.005418688053244592,-0.01202343427757369
-0.005418348053244593,-0.01014736148556734
-0.005418008053244593,-0.009719485234758102
-0.005417668053244592,-0.01034484283209415
-0.005417328053244593,-0.01004862081230367
-0.005416988053244593,-0.009949880139040001
-0.005416648053244592,-0.01156264446901785
-0.005416308053244593,-0.01406407485835964
-0.005415968053244593,-0.01584140697710572
