Analysis/files/cmb03_d2s01/wrd09_ch44.csv

#Digilent WaveForms Oscilloscope Acquisition
#Device Name: ADP3450
#Serial Number: SN:210018B9D9B0
#Date Time: 2024-08-09 13:19:34.997.444.100
#Sample rate: 2.94118e+06Hz
#Samples: 32768
#Trigger: Source: Channel 3 Type: Edge Condition: Rising Level: 20 mV Hyst.: Auto HoldOff: 0 s
#Channel 3: Range: 200 mV/div Offset: 0 V Attenuation: 1 X Coupling: DC Bandwidth: 0 Hz Sample Mode: Average

Time (s),Channel 3 (V)
-0.005570301231527094,0.003544678540328413
-0.005569961231527094,0.005881541140898855
-0.005569621231527094,0.004170036137664999
-0.005569281231527094,0.001372383728527644
-0.005568941231527093,0.0001874956493646659
-0.005568601231527094,0.0007799396889456162
-0.005568261231527094,-0.000832824641027682
-0.005567921231527093,0.0006811990156796698
-0.005567581231527094,-0.0005695161789912252
-0.005567241231527094,-0.0009644788720459105
-0.005566901231527093,-0.0007011704100091542
-0.005566561231527094,-0.0005366026212366681
-0.005566221231527094,-0.003038033010583008
-0.005565881231527093,-0.002675983875280964
-0.005565541231527094,-0.001622750027137053
-0.005565201231527094,-0.002972205895073894
-0.005564861231527093,-0.003597563492412934
-0.005564521231527094,-0.00494701936034732
-0.005564181231527094,-0.009949880139040001
-0.005563841231527093,-0.004453315994023456
-0.005563501231527094,-0.00142526868060971
-0.005563161231527094,-0.001688577142646167
-0.005562821231527094,-0.002807638106299073
-0.005562481231527094,-0.004255834647501621
-0.005562141231527094,-0.005901512535229476
-0.005561801231527094,-0.002807638106306736
-0.005561461231527094,-0.002412675413246423
-0.005561121231527094,-0.003795044838937822
-0.005560781231527094,-0.004617883782800252
-0.005560441231527094,-0.003630477050165036
-0.005560101231527094,-0.004881192244838206
-0.005559761231527094,-0.008205461578042427
-0.005559421231527094,-0.007876326000502903
-0.005559081231527094,-0.009258695426194301
-0.005558741231527094,-0.01133224956472763
-0.005558401231527094,-0.01004862081230367
-0.005558061231527094,-0.009061214079666959
-0.005557721231527094,-0.009785312350265899
-0.005557381231527094,-0.008797905617630502
-0.005557041231527094,-0.006131907439511376
-0.005556701231527094,-0.007250968403164282
-0.005556361231527094,-0.006625610805829733
-0.005556021231527094,-0.006559783690320619
-0.005555681231527094,-0.009258695426189392
-0.005555341231527094,-0.009423263214967087
-0.005555001231527094,-0.00939034965721253
-0.005554661231527094,-0.01031192927433845
-0.005554321231527094,-0.01057523773637659
-0.005553981231527094,-0.01195760716206798
-0.005553641231527094,-0.01564392563057838
-0.005553301231527094,-0.009159954752930631
-0.005552961231527094,-0.006823092152357076
-0.005552621231527094,-0.01215508850859533
-0.005552281231527094,-0.01172721225778608
-0.005551941231527094,-0.006592697248075176
-0.005551601231527094,-0.008139634462539359
-0.005551261231527094,-0.01031192927433732
-0.005550921231527094,-0.008764992059875945
-0.005550581231527094,-0.00837002936682126
-0.005550241231527094,-0.01077271908290387
-0.005549901231527094,-0.01073980552514937
-0.005549561231527094,-0.009653658119248986
-0.005549221231527094,-0.01110185466044926
-0.005548881231527094,-0.01097020042943127
-0.005548541231527094,-0.009291608983948858
-0.005548201231527094,-0.0114968173535067
-0.005547861231527094,-0.01287918677919558
-0.005547521231527094,-0.01136516312248596
-0.005547181231527093,-0.01208926139308723
-0.005546841231527094,-0.01264879187491368
-0.005546501231527094,-0.009982793696794558
-0.005546161231527093,-0.01090437331392282
-0.005545821231527094,-0.01126642244922228
-0.005545481231527094,-0.01001570725454911
-0.005545141231527093,-0.01116768177596041
-0.005544801231527094,-0.01215508850859533
-0.005544461231527094,-0.004848278687083649
-0.005544121231527093,-0.01304375456797082
-0.005543781231527094,-0.01439321043590521
-0.005543441231527094,-0.01531479005303281
-0.005543101231527093,-0.01333997658775872
-0.005542761231527094,-0.01297792745245925
-0.005542421231527094,-0.01100311398718583
-0.005542081231527094,-0.008205461578053564
-0.005541741231527094,-0.01320832235674115
-0.005541401231527094,-0.01452486466692344
-0.005541061231527094,-0.01110185466045573
-0.005540721231527094,-0.0136361986075504
-0.005540381231527094,-0.01515022226426002
-0.005540041231527094,-0.01218800206635527
-0.005539701231527094,-0.01258296475940457
-0.005539361231527094,-0.01176012581554064
-0.005539021231527094,-0.009884053023534298
-0.005538681231527094,-0.01008153437005823
-0.005538341231527094,-0.009982793696794558
-0.005538001231527094,-0.01103602754493847
-0.005537661231527094,-0.01238548341287723
-0.005537321231527094,-0.01281335966368647
-0.005536981231527094,-0.01136516312248859
-0.005536641231527094,-0.01482108668671445
-0.005536301231527094,-0.01709212217177889
-0.005535961231527094,-0.01538061716854504
-0.005535621231527094,-0.01366911216530495
-0.005535281231527094,-0.0150185680332418
-0.005534941231527094,-0.01403116130060688
-0.005534601231527094,-0.01343871726102305
-0.005534261231527094,-0.01330706303000483
-0.005533921231527094,-0.0123854834128789
-0.005533581231527094,-0.01281335966368647
-0.005533241231527094,-0.01498565447548724
-0.005532901231527094,-0.01732251707606079
-0.005532561231527094,-0.009522003888230759
-0.005532221231527094,-0.01060815129413114
-0.005531881231527094,-0.0115626444690133
-0.005531541231527094,-0.01195760716206798
-0.005531201231527094,-0.01926441698357966
-0.005530861231527094,-0.01745417130707902
-0.005530521231527094,-0.01475525957120534
-0.005530181231527094,-0.01682881370974244
-0.005529841231527094,-0.01719086284504256
-0.005529501231527094,-0.01271461899042453
-0.005529161231527094,-0.01366911216530495
-0.005528821231527094,-0.01353745793428673
-0.005528481231527094,-0.01133224956472978
-0.005528141231527094,-0.01044358350535836
-0.005527801231527094,-0.01143099023799507
-0.005527461231527094,-0.01057523773637706
-0.005527121231527094,-0.01083854619841304
-0.005526781231527094,-0.01215508850859533
-0.005526441231527093,-0.00985113946577555
-0.005526101231527094,-0.009423263214967087
-0.005525761231527094,-0.01067397840964026
-0.005525421231527093,-0.009686571677001748
-0.005525081231527094,-0.00869916494436683
-0.005524741231527094,-0.01004862081230367
-0.005524401231527093,-0.01004862081230062
-0.005524061231527094,-0.00837002936682126
-0.005523721231527094,-0.009752398792512659
-0.005523381231527093,-0.009620744561496464
-0.005523041231527094,-0.01073980552514937
-0.005522701231527094,-0.01883654073277042
-0.005522361231527093,-0.02716367084468396
-0.005522021231527094,-0.03298937056722998
-0.005521681231527094,-0.05514019493604691
-0.005521341231527093,-0.0803190666183411
-0.005521001231527094,-0.1122123040824489
-0.005520661231527094,-0.1480222549194071
-0.005520321231527094,-0.178401468726808
-0.005519981231527094,-0.207924930032701
-0.005519641231527094,-0.2340912084475739
-0.005519301231527094,-0.2560774650275781
-0.005518961231527094,-0.2691770610139318
-0.005518621231527094,-0.278228289396435
-0.005518281231527094,-0.2824741383467652
-0.005517941231527094,-0.2806638926702722
-0.005517601231527094,-0.2766155250664617
-0.005517261231527094,-0.2701315541888257
-0.005516921231527094,-0.2622652138854748
-0.005516581231527094,-0.2528519363676714
-0.005516241231527094,-0.2458084350082091
-0.005515901231527094,-0.2360989354706019
-0.005515561231527094,-0.2275743240121716
-0.005515221231527094,-0.2211890938077991
-0.005514881231527094,-0.2143759873525942
-0.005514541231527094,-0.2058842894519185
-0.005514201231527094,-0.1981496033796116
-0.005513861231527094,-0.193508791736205
-0.005513521231527094,-0.1859386734526569
-0.005513181231527094,-0.1815611702713087
-0.005512841231527094,-0.1757025569909896
-0.005512501231527094,-0.1715554487139154
-0.005512161231527094,-0.1711933995786153
-0.005511821231527094,-0.1605294068661388
-0.005511481231527094,-0.1530909428136089
-0.005511141231527094,-0.1472981566488068
-0.005510801231527094,-0.1455208245300607
-0.005510461231527094,-0.1429535670252053
-0.005510121231527094,-0.1374899164379488
-0.005509781231527094,-0.1307755506560191
-0.005509441231527094,-0.1264967881479267
-0.005509101231527094,-0.1221192849665706
-0.005508761231527094,-0.1176101275541854
-0.005508421231527094,-0.1115869464851124
-0.005508081231527094,-0.1055637654160284
-0.005507741231527094,-0.1034902112774821
-0.005507401231527094,-0.09845443694104405
-0.005507061231527094,-0.09348448972010595
-0.005506721231527094,-0.09095014577299905
-0.005506381231527094,-0.08765878999754934
-0.005506041231527094,-0.08374207662475702
-0.005505701231527094,-0.08133938690867083
-0.005505361231527094,-0.07939748700115551
-0.005505021231527094,-0.07462502112674471
-0.005504681231527093,-0.07419714487593075
-0.005504341231527094,-0.07159697381332547
-0.005504001231527094,-0.06949050611703381
-0.005503661231527093,-0.06830561803786778
-0.005503321231527094,-0.06721947063196937
-0.005502981231527094,-0.06613332322606899
-0.005502641231527093,-0.06669285370789305
-0.005502301231527094,-0.06481678091588669
-0.005501961231527094,-0.06610040966831443
-0.005501621231527093,-0.0654421385132022
-0.005501281231527094,-0.05385656618361918
-0.005500941231527094,-0.05494271358951957
-0.005500601231527093,-0.0535603441638305
-0.005500261231527094,-0.0548439729162559
-0.005499921231527094,-0.05481105935850134
-0.005499581231527094,-0.05125639512101564
-0.005499241231527094,-0.05030190194612701
-0.005498901231527094,-0.05030190194612701
-0.005498561231527094,-0.04783338511453972
-0.005498221231527094,-0.04783338511453523
-0.005497881231527094,-0.04694471905516219
-0.005497541231527094,-0.04470659712785638
-0.005497201231527094,-0.0439495852994975
-0.005496861231527094,-0.04260012943156065
-0.005496521231527094,-0.0396379092336559
-0.005496181231527094,-0.03907837875182304
-0.005495841231527094,-0.0377289228838862
-0.005495501231527094,-0.03447048066619097
-0.005495161231527094,-0.03272606210519352
-0.005494821231527094,-0.03420717220414859
-0.005494481231527094,-0.03368055528007663
-0.005494141231527094,-0.03272606210519352
-0.005493801231527094,-0.03140951979501123
-0.005493461231527094,-0.03167282825704721
-0.005493121231527094,-0.03183739604582048
-0.005492781231527094,-0.03160700114153858
-0.005492441231527094,-0.02838147248159785
-0.005492101231527094,-0.02611043699652754
-0.005491761231527094,-0.02808525046180097
-0.005491421231527094,-0.03160700114153217
-0.005491081231527094,-0.02709784372916425
-0.005490741231527094,-0.02229246429699892
-0.005490401231527094,-0.02239120497026259
-0.005490061231527094,-0.02058095929376194
-0.005489721231527094,-0.02462932689757247
-0.005489381231527094,-0.02555090651470007
-0.005489041231527094,-0.02156836602639866
-0.005488701231527094,-0.02127214400660764
-0.005488361231527094,-0.0233786117028993
-0.005488021231527094,-0.02100883554457137
-0.005487681231527094,-0.02110757621783486
-0.005487341231527094,-0.0222266371814898
-0.005487001231527094,-0.02212789650822625
-0.005486661231527094,-0.02219372362373525
-0.005486321231527094,-0.02311530324086284
-0.005485981231527094,-0.02146962535313583
-0.005485641231527094,-0.02193041516169879
-0.005485301231527094,-0.02367483372269031
-0.005484961231527094,-0.02199624227720641
-0.005484621231527094,-0.02117340333334397
-0.005484281231527094,-0.02239120497026259
-0.005483941231527093,-0.02318113035636753
-0.005483601231527094,-0.02074552708253473
-0.005483261231527094,-0.0210746626600803
-0.005482921231527093,-0.02038347794723257
-0.005482581231527094,-0.01926441698357966
-0.005482241231527094,-0.01979103390765257
-0.005481901231527093,-0.01804661534665842
-0.005481561231527094,-0.01659841880546054
-0.005481221231527094,-0.01821118313543383
-0.005480881231527093,-0.02173293381515348
-0.005480541231527094,-0.01185886648880431
-0.005480201231527094,-0.01228674273961356
-0.005479861231527093,-0.01116768177595849
-0.005479521231527094,-0.0111018546604495
-0.005479181231527094,-0.01663133236321509
-0.005478841231527094,-0.01659841880546059
-0.005478501231527094,-0.01436029687815065
-0.005478161231527094,-0.01682881370974244
-0.005477821231527094,-0.02067969996701861
-0.005477481231527094,-0.01942898477235245
-0.005477141231527094,-0.01933024409908878
-0.005476801231527094,-0.02199624227720305
-0.005476461231527094,-0.0199226881386708
-0.005476121231527094,-0.01929733054133422
-0.005475781231527094,-0.01979103390765168
-0.005475441231527094,-0.01936315765684333
-0.005475101231527094,-0.01771747976911548
-0.005474761231527094,-0.01854031871297791
-0.005474421231527094,-0.01761873909585181
-0.005474081231527094,-0.01541353072629648
-0.005473741231527094,-0.01686172726749436
-0.005473401231527094,-0.01610471543914218
-0.005473061231527094,-0.01449195110916888
-0.005472721231527094,-0.01459069178243237
-0.005472381231527094,-0.01439321043590521
-0.005472041231527094,-0.01222091562410444
-0.005471701231527094,-0.01304375456796687
-0.005471361231527094,-0.01281335966368647
-0.005471021231527094,-0.01097020042943127
-0.005470681231527094,-0.01281335966368312
-0.005470341231527094,-0.01804661534666105
-0.005470001231527094,-0.01057523773637659
-0.005469661231527094,-0.009061214079666959
-0.005469321231527094,-0.009916966581285444
-0.005468981231527094,-0.01047649706311291
-0.005468641231527094,-0.0150185680332418
-0.005468301231527094,-0.01567683918833294
-0.005467961231527094,-0.01258296475940457
-0.005467621231527094,-0.01297792745245925
-0.005467281231527094,-0.01518313582201458
-0.005466941231527094,-0.01337289014551394
-0.005466601231527094,-0.01228674273961356
-0.005466261231527094,-0.01472234601344994
-0.005465921231527094,-0.01426155620488698
-0.005465581231527094,-0.01383367995407774
-0.005465241231527094,-0.01567683918833869
-0.005464901231527094,-0.01883654073277042
-0.005464561231527094,-0.01663133236321509
-0.005464221231527094,-0.01784913400013275
-0.005463881231527094,-0.01732251707606079
-0.005463541231527094,-0.01570975274608749
-0.005463201231527093,-0.01699338149851516
-0.005462861231527094,-0.01696046794076066
-0.005462521231527094,-0.01557809851506927
-0.005462181231527093,-0.01406407485836191
-0.005461841231527094,-0.01531479005303281
-0.005461501231527094,-0.01301084101021381
-0.005461161231527093,-0.01255005120165115
-0.005460821231527094,-0.0131754087989866
-0.005460481231527094,-0.01182595293104976
-0.005460141231527093,-0.01541353072629397
-0.005459801231527094,-0.01403116130060508
-0.005459461231527094,-0.009851139465776329
-0.005459121231527093,-0.008764992059879897
-0.005458781231527094,-0.01093728687167671
-0.005458441231527094,-0.01330706303000483
-0.005458101231527093,-0.009423263214968763
-0.005457761231527094,-0.01034484283209469
-0.005457421231527094,-0.01047649706311291
-0.005457081231527094,-0.01116768177595736
-0.005456741231527094,-0.0115626444690133
-0.005456401231527094,-0.01172721225778608
-0.005456061231527094,-0.0104106699476062
-0.005455721231527094,-0.01304375456796837
-0.005455381231527094,-0.01416281553162331
-0.005455041231527094,-0.0131424952412339
-0.005454701231527094,-0.01465651889794167
-0.005454361231527094,-0.01617054255465129
-0.005454021231527094,-0.01557809851507034
-0.005453681231527094,-0.01584140697710572
-0.005453341231527094,-0.01748708486483358
-0.005453001231527094,-0.01669715947872565
-0.005452661231527094,-0.01686172726749699
-0.005452321231527094,-0.01719086284504256
-0.005451981231527094,-0.01659841880546161
-0.005451641231527094,-0.01482108668671445
-0.005451301231527094,-0.01742125774932446
-0.005450961231527094,-0.01393242062734776
-0.005450621231527094,-0.01027901571658557
-0.005450281231527094,-0.01077271908290393
-0.005449941231527094,-0.01212217495083832
-0.005449601231527094,-0.01491982735997812
-0.005449261231527094,-0.008995386964157845
-0.005448921231527094,-0.006625610805834044
-0.005448581231527094,-0.005210327822383777
-0.005448241231527094,-0.007613017538466446
-0.005447901231527094,-0.01162847158452241
-0.005447561231527094,-0.01057523773637659
-0.005447221231527094,-0.01100311398718583
-0.005446881231527094,-0.0138665935118323
-0.005446541231527094,-0.01508439514875091
-0.005446201231527094,-0.01570975274608749
-0.005445861231527094,-0.01709212217177889
-0.005445521231527094,-0.01570975274608905
-0.005445181231527094,-0.01656550524770598
-0.005444841231527094,-0.01584140697710572
-0.005444501231527094,-0.01403116130060365
-0.005444161231527094,-0.01324123591449571
-0.005443821231527094,-0.01498565447548724
-0.005443481231527094,-0.01287918677919271
-0.005443141231527094,-0.01129933600697684
-0.005442801231527094,-0.01238548341287723
-0.005442461231527094,-0.01268170543266567
-0.005442121231527094,-0.01126642244922228
-0.005441781231527094,-0.01310958168347748
-0.005441441231527093,-0.01281335966368575
-0.005441101231527094,-0.01241839697063178
-0.005440761231527094,-0.01422864264713243
-0.005440421231527093,-0.01436029687814904
-0.005440081231527094,-0.01347163081877761
-0.005439741231527094,-0.01495274091773268
-0.005439401231527093,-0.01906693563705124
-0.005439061231527094,-0.01847449159747029
-0.005438721231527094,-0.01116768177595861
-0.005438381231527093,-0.01067397840963678
-0.005438041231527094,-0.008764992059875945
-0.005437701231527094,-0.01327414947225027
-0.005437361231527093,-0.01594014765036377
-0.005437021231527094,-0.01284627322144103
-0.005436681231527094,-0.01393242062734141
-0.005436341231527094,-0.01781622044237208
-0.005436001231527094,-0.01636802390117864
-0.005435661231527094,-0.01505148159099635
-0.005435321231527094,-0.01561101207282281
-0.005434981231527094,-0.01547935784180559
-0.005434641231527094,-0.0150185680332418
-0.005434301231527094,-0.01557809851506825
-0.005433961231527094,-0.01498565447548724
-0.005433621231527094,-0.01314249524123204
-0.005433281231527094,-0.01468943245569341
-0.005432941231527094,-0.01468943245569622
-0.005432601231527094,-0.01208926139308621
-0.005432261231527094,-0.01281335966368515
-0.005431921231527094,-0.01350454437653217
-0.005431581231527094,-0.01284627322144103
-0.005431241231527094,-0.01366911216530346
-0.005430901231527094,-0.01475525957120534
-0.005430561231527094,-0.01353745793428673
-0.005430221231527094,-0.01452486466692164
-0.005429881231527094,-0.01472234601345078
-0.005429541231527094,-0.01278044610593191
-0.005429201231527094,-0.01146390379575202
-0.005428861231527094,-0.01765165265360636
-0.005428521231527094,-0.01231965629736811
-0.005428181231527094,-0.006362302343804112
-0.005427841231527094,-0.01251713764389546
-0.005427501231527094,-0.01324123591449571
-0.005427161231527094,-0.01169429870003153
-0.005426821231527094,-0.01268170543266824
-0.005426481231527094,-0.01320832235674115
-0.005426141231527094,-0.01258296475940457
-0.005425801231527094,-0.01412990197386875
-0.005425461231527094,-0.01406407485835964
-0.005425121231527094,-0.01426155620488698
-0.005424781231527094,-0.01570975274608749
-0.005424441231527094,-0.01597306120812395
-0.005424101231527094,-0.0152489629375237
-0.005423761231527094,-0.01574266630384409
-0.005423421231527094,-0.01686172726749699
-0.005423081231527094,-0.01505148159099635
-0.005422741231527094,-0.01646676457444225
-0.005422401231527094,-0.01643385101668775
-0.005422061231527094,-0.01373493928081407
-0.005421721231527094,-0.01386659351183308
-0.005421381231527094,-0.01429446976264154
-0.005421041231527094,-0.0131754087989866
-0.005420701231527093,-0.01166138514227936
-0.005420361231527094,-0.01297792745245925
-0.005420021231527094,-0.01189178004655887
-0.005419681231527093,-0.01054232417862347
-0.005419341231527094,-0.0113322495647314
-0.005419001231527094,-0.01097020042943127
-0.005418661231527093,-0.01133224956474032
-0.005418321231527094,-0.01623636967016041
-0.005417981231527094,-0.01258296475940457
-0.005417641231527093,-0.01333997658775753
-0.005417301231527094,-0.01231965629736811
-0.005416961231527094,-0.01162847158452241
-0.005416621231527093,-0.01462360534018621
-0.005416281231527094,-0.01412990197386875
-0.005415941231527094,-0.01189178004655887
