Analysis/files/cmb03_d2s01/wrd07_ch02.csv

#Digilent WaveForms Oscilloscope Acquisition
#Device Name: ADP3450
#Serial Number: SN:210018B9D9B0
#Date Time: 2024-08-09 17:35:52.340.716.800
#Sample rate: 2.94118e+06Hz
#Samples: 32768
#Trigger: Source: Channel 3 Type: Edge Condition: Rising Level: 60 mV Hyst.: Auto HoldOff: 0 s
#Channel 3: Range: 200 mV/div Offset: -20 mV Attenuation: 1 X Coupling: DC Bandwidth: 0 Hz Sample Mode: Average

Time (s),Channel 3 (V)
-0.005570383901345292,0.002264946845390362
-0.005570043901345291,0.002594082422933356
-0.005569703901345291,0.001178799439489977
-0.005569363901345292,0.0006521825154170643
-0.005569023901345291,0.001244626554998971
-0.005568683901345291,0.001178799439489977
-0.005568343901345292,-0.0008618411412925631
-0.005568003901345291,-0.0006972733525210362
-0.005567663901345291,-0.001388458065365479
-0.005567323901345292,-0.003330357972884349
-0.005566983901345291,-0.004021542685729447
-0.005566643901345291,-0.003692407108184477
-0.005566303901345292,-0.004548159609802961
-0.005565963901345291,-0.004581073167558476
-0.005565623901345291,-0.00510769009163043
-0.005565283901345292,-0.005897615477739801
-0.005564943901345291,-0.007049589999147982
-0.005564603901345291,-0.006325491728549043
-0.005564263901345292,-0.007411639134449428
-0.005563923901345291,-0.006852108652619445
-0.005563583901345291,-0.005469739226930559
-0.005563243901345292,-0.006325491728549043
-0.005562903901345292,-0.005305171438159631
-0.005562563901345291,-0.006490059517321831
-0.005562223901345292,-0.009945983081550328
-0.005561883901345292,-0.005041862976130238
-0.005561543901345291,-0.002342951240247634
-0.005561203901345292,-0.001355544507610922
-0.005560863901345292,-0.003429098646144247
-0.005560523901345291,-0.006720454421603728
-0.005560183901345292,-0.005403912111421445
-0.005559843901345292,-0.00365949355043309
-0.005559503901345291,-0.003955715570220932
-0.005559163901345292,-0.005897615477739801
-0.005558823901345292,-0.007576206923219159
-0.005558483901345291,-0.006391318844058157
-0.005558143901345292,-0.008958576348913613
-0.005557803901345292,-0.01119669827621943
-0.005557463901345291,-0.01218410500886021
-0.005557123901345292,-0.01251324058640578
-0.005556783901345292,-0.0134677337612862
-0.005556443901345291,-0.01531089299554313
-0.005556103901345292,-0.01448805405167921
-0.005555763901345292,-0.01392852356985275
-0.005555423901345291,-0.01307277106823325
-0.005555083901345292,-0.01215119145110565
-0.005554743901345292,-0.01221701856661465
-0.005554403901345291,-0.01201953722008742
-0.005554063901345292,-0.01020929154358678
-0.005553723901345292,-0.01043968644786868
-0.005553383901345291,-0.01238158635538755
-0.005553043901345292,-0.01030803221685045
-0.005552703901345292,-0.01132835250724173
-0.005552363901345291,-0.01402726424311541
-0.005552023901345291,-0.01764775559611669
-0.005551683901345292,-0.01330316597251515
-0.005551343901345291,-0.01119669827622134
-0.005551003901345291,-0.01001181019705944
-0.005550663901345292,-0.008201564520558799
-0.005550323901345291,-0.01294111683721472
-0.005549983901345291,-0.01277654904844223
-0.005549643901345292,-0.00764203403873133
-0.005549303901345291,-0.01162457452703633
-0.005548963901345291,-0.01359938799230617
-0.005548623901345292,-0.01162457452703274
-0.005548283901345291,-0.01307277106823109
-0.005547943901345291,-0.0118878829890692
-0.005547603901345292,-0.01126252539173261
-0.005547263901345291,-0.01109795760295833
-0.005546923901345291,-0.0102751186590959
-0.005546583901345292,-0.01001181019705944
-0.005546243901345291,-0.009353539041970633
-0.005545903901345291,-0.01063716779439602
-0.005545563901345292,-0.009254798368704627
-0.005545223901345291,-0.009748501735023164
-0.005544883901345291,-0.009847242408286654
-0.005544543901345292,-0.008201564520558799
-0.005544203901345291,-0.009188971253196591
-0.005543863901345291,-0.00978141529277754
-0.005543523901345292,-0.0102751186590959
-0.005543183901345291,-0.01053842712113972
-0.005542843901345291,-0.01458679472494288
-0.005542503901345292,-0.01307277106823325
-0.005542163901345292,-0.01287528972170627
-0.005541823901345291,-0.01636412684368896
-0.005541483901345292,-0.01843768098222606
-0.005541143901345292,-0.0108346491409372
-0.005540803901345291,-0.008892749233404499
-0.005540463901345292,-0.008036996731786015
-0.005540123901345292,-0.008135737405049505
-0.005539783901345291,-0.01465262184045199
-0.005539443901345292,-0.01149292029601451
-0.005539103901345292,-0.009682674619517162
-0.005538763901345291,-0.01231575923987844
-0.005538423901345292,-0.0147184489559611
-0.005538083901345292,-0.01376395578108069
-0.005537743901345291,-0.01333607953026971
-0.005537403901345292,-0.01475136251371566
-0.005537063901345292,-0.01415891847413471
-0.005536723901345291,-0.01452096760943376
-0.005536383901345292,-0.01534380655329769
-0.005536043901345292,-0.01475136251371674
-0.005535703901345291,-0.01494884386024301
-0.005535363901345292,-0.01468553539820655
-0.005535023901345292,-0.01425765914739809
-0.005534683901345291,-0.01494884386024301
-0.005534343901345292,-0.01675908953674365
-0.005534003901345292,-0.01708822511428862
-0.005533663901345291,-0.01771358271162581
-0.005533323901345292,-0.01926051992608999
-0.005532983901345292,-0.01837185386671695
-0.005532643901345291,-0.01721987934530745
-0.005532303901345292,-0.01728570646081656
-0.005531963901345292,-0.01547546078431592
-0.005531623901345291,-0.01419183203188819
-0.005531283901345291,-0.01873390300201707
-0.005530943901345292,-0.01501467097575212
-0.005530603901345291,-0.0102751186590959
-0.005530263901345291,-0.008991489906668169
-0.005529923901345292,-0.009123144137686397
-0.005529583901345291,-0.01116378471847397
-0.005529243901345291,-0.01392852356985173
-0.005528903901345292,-0.01106504404520527
-0.005528563901345291,-0.01109795760296407
-0.005528223901345291,-0.01343482020353338
-0.005527883901345292,-0.01435639982066098
-0.005527543901345291,-0.01402726424311553
-0.005527203901345291,-0.01409309135862452
-0.005526863901345292,-0.01682491665225276
-0.005526523901345291,-0.01570585568860022
-0.005526183901345291,-0.0170223979987801
-0.005525843901345292,-0.01593625059287972
-0.005525503901345291,-0.01540963366880597
-0.005525163901345291,-0.01494884386024301
-0.005524823901345292,-0.01498175741799757
-0.005524483901345291,-0.01524506588003252
-0.005524143901345291,-0.01442222693617009
-0.005523803901345292,-0.01777940982713492
-0.005523463901345291,-0.01958965550364496
-0.005523123901345291,-0.02475708407110103
-0.005522783901345292,-0.0345982378397136
-0.005522443901345291,-0.05075879469723825
-0.005522103901345291,-0.07116520050502653
-0.005521763901345292,-0.09874676190334541
-0.005521423901345291,-0.1287639265755578
-0.005521083901345291,-0.1597026708647852
-0.005520743901345292,-0.1930770184279061
-0.005520403901345292,-0.2134834242356944
-0.005520063901345291,-0.2323099792713382
-0.005519723901345292,-0.2477464378582254
-0.005519383901345292,-0.2582787763396646
-0.005519043901345291,-0.2678237080885053
-0.005518703901345292,-0.267988275877278
-0.005518363901345292,-0.263149982887367
-0.005518023901345291,-0.2578179865311199
-0.005517683901345292,-0.2515644105577541
-0.005517343901345292,-0.2446196498715551
-0.005517003901345291,-0.2362925197596396
-0.005516663901345292,-0.2271425507038727
-0.005516323901345292,-0.2186837663609669
-0.005515983901345291,-0.2120681412522855
-0.005515643901345292,-0.2051892076815831
-0.005515303901345292,-0.1996268164210731
-0.005514963901345291,-0.1936365489097336
-0.005514623901345292,-0.1882387254379862
-0.005514283901345292,-0.1838941358143926
-0.005513943901345291,-0.1784304852271282
-0.005513603901345292,-0.1709261940590892
-0.005513263901345292,-0.1650675807787886
-0.005512923901345291,-0.1593735352872396
-0.005512583901345292,-0.1523300339277644
-0.005512243901345292,-0.1470967782447898
-0.005511903901345291,-0.1420610039083426
-0.005511563901345292,-0.1349516754333582
-0.005511223901345292,-0.1302779502322111
-0.005510883901345291,-0.1254396572422912
-0.005510543901345291,-0.1246168182984273
-0.005510203901345292,-0.1193835626154527
-0.005509863901345291,-0.1124717154869957
-0.005509523901345291,-0.1088183105762399
-0.005509183901345292,-0.105461127685275
-0.005508843901345291,-0.1069093242264753
-0.005508503901345291,-0.1067447564377028
-0.005508163901345292,-0.0992075517119092
-0.005507823901345291,-0.09617950439848509
-0.005507483901345291,-0.09351350622037083
-0.005507143901345292,-0.08923474371227841
-0.005506803901345291,-0.08505472187744503
-0.005506463901345291,-0.08252037793034875
-0.005506123901345292,-0.08117092206241192
-0.005505783901345291,-0.07837326965327136
-0.005505443901345291,-0.07662885109228301
-0.005505103901345292,-0.07258048348847251
-0.005504763901345291,-0.07136268185155335
-0.005504423901345291,-0.07106645983176288
-0.005504083901345292,-0.06688643799693411
-0.005503743901345291,-0.06392421779901938
-0.005503403901345291,-0.06138987385192308
-0.005503063901345292,-0.05763772826790358
-0.005502723901345291,-0.05572874191813933
-0.005502383901345291,-0.05576165547589382
-0.005502043901345292,-0.05227281835391077
-0.005501703901345291,-0.05023217777312637
-0.005501363901345291,-0.04921185748273695
-0.005501023901345292,-0.04769783382602733
-0.005500683901345291,-0.04661168642012652
-0.005500343901345291,-0.04638129151584505
-0.005500003901345292,-0.04993595575333721
-0.005499663901345292,-0.04266205948959333
-0.005499323901345291,-0.04151008496817059
-0.005498983901345292,-0.03904156813657881
-0.005498643901345292,-0.04075307313981266
-0.005498303901345291,-0.04239875102754363
-0.005497963901345292,-0.03650722418947791
-0.005497623901345292,-0.03469697851298056
-0.005497283901345291,-0.0334462633183041
-0.005496943901345292,-0.03341334976054954
-0.005496603901345292,-0.03486154630174742
-0.005496263901345291,-0.03071443802467586
-0.005495923901345292,-0.03022073465835751
-0.005495583901345292,-0.0361780886119215
-0.005495243901345291,-0.03555273101459575
-0.005494903901345292,-0.03308421418300397
-0.005494563901345292,-0.0339070531268664
-0.005494223901345291,-0.03308421418300397
-0.005493883901345292,-0.03433492937767714
-0.005493543901345292,-0.03064861090917346
-0.005493203901345291,-0.02380259089621887
-0.005492863901345292,-0.02715977378718369
-0.005492523901345292,-0.03028656177386093
-0.005492183901345291,-0.02656732974760166
-0.005491843901345292,-0.02571157724598318
-0.005491503901345292,-0.02660024330535461
-0.005491163901345291,-0.02577740436149229
-0.005490823901345292,-0.02574449080373774
-0.005490483901345292,-0.02528370099517394
-0.005490143901345291,-0.02432920782029178
-0.005489803901345292,-0.02390133156948254
-0.005489463901345292,-0.02304557906786405
-0.005489123901345291,-0.02304557906786405
-0.005488783901345291,-0.02321014685663684
-0.005488443901345292,-0.02413172647376444
-0.005488103901345291,-0.02205817233522566
-0.005487763901345291,-0.02113659271809974
-0.005487423901345292,-0.02146572829564531
-0.005487083901345291,-0.02057706223627143
-0.005486743901345291,-0.02011627242770847
-0.005486403901345292,-0.01991879108118113
-0.005486063901345291,-0.02120241983360724
-0.005485723901345291,-0.02031375377423581
-0.005485383901345292,-0.0197871368501629
-0.005485043901345291,-0.01814145896243601
-0.005484703901345291,-0.01866807588650796
-0.005484363901345292,-0.01879973011752619
-0.005484023901345291,-0.02172903675767261
-0.005483683901345291,-0.01669326242123453
-0.005483343901345292,-0.01376395578107895
-0.005483003901345291,-0.01366521510781043
-0.005482663901345291,-0.01099921692969615
-0.005482323901345292,-0.01603499126614339
-0.005481983901345291,-0.01613373193940323
-0.005481643901345291,-0.01402726424311541
-0.005481303901345292,-0.01455388116718832
-0.005480963901345291,-0.01527797943778744
-0.005480623901345291,-0.01465262184045199
-0.005480283901345292,-0.01633121328593441
-0.005479943901345291,-0.01768066915387059
-0.005479603901345291,-0.01731862001857112
-0.005479263901345292,-0.01669326242123453
-0.005478923901345292,-0.01606790482389909
-0.005478583901345291,-0.01425765914739731
-0.005478243901345292,-0.01415891847413363
-0.005477903901345292,-0.01327025241476221
-0.005477563901345291,-0.01185496943131464
-0.005477223901345292,-0.0121182778933511
-0.005476883901345292,-0.01386269645433945
-0.005476543901345291,-0.01432348626290642
-0.005476203901345292,-0.01527797943778858
-0.005475863901345292,-0.01642995395919598
-0.005475523901345291,-0.01669326242123453
-0.005475183901345292,-0.01606790482389795
-0.005474843901345292,-0.01692365732551488
-0.005474503901345291,-0.01689074376776187
-0.005474163901345292,-0.01728570646081656
-0.005473823901345292,-0.02100493848707475
-0.005473483901345291,-0.02060997579402683
-0.005473143901345292,-0.01323733885700604
-0.005472803901345292,-0.01363230155006
-0.005472463901345291,-0.01238158635538755
-0.005472123901345292,-0.01415891847413363
-0.005471783901345292,-0.01613373193940347
-0.005471443901345291,-0.01323733885700604
-0.005471103901345292,-0.0130398575104787
-0.005470763901345292,-0.01373104222332313
-0.005470423901345291,-0.01461970828269744
-0.005470083901345292,-0.01264489481742401
-0.005469743901345292,-0.01350064731904249
-0.005469403901345291,-0.01527797943778858
-0.005469063901345292,-0.01169040164254185
-0.005468723901345292,-0.01090047625643248
-0.005468383901345291,-0.01169040164254185
-0.005468043901345291,-0.01175622875805097
-0.005467703901345292,-0.01129543894948717
-0.005467363901345291,-0.01277654904844223
-0.005467023901345291,-0.01399435068536085
-0.005466683901345292,-0.01406017780086997
-0.005466343901345291,-0.01435639982065936
-0.005466003901345291,-0.01346773376128794
-0.005465663901345292,-0.01290820327946047
-0.005465323901345291,-0.01290820327945957
-0.005464983901345291,-0.01241449991314211
-0.005464643901345292,-0.01178914231580552
-0.005464303901345291,-0.01162457452703573
-0.005463963901345291,-0.01327025241476059
-0.005463623901345292,-0.01465262184045199
-0.005463283901345291,-0.01850350809772374
-0.005462943901345291,-0.01221701856661477
-0.005462603901345292,-0.009419366157477412
-0.005462263901345291,-0.009123144137686817
-0.005461923901345291,-0.009353539041968298
-0.005461583901345292,-0.01244741347089667
-0.005461243901345291,-0.01267780837517671
-0.005460903901345291,-0.0116574880847873
-0.005460563901345292,-0.01195371010457831
-0.005460223901345291,-0.007839515385269627
-0.005459883901345291,-0.01386269645434262
-0.005459543901345292,-0.01076882202541425
-0.005459203901345291,-0.01149292029601529
-0.005458863901345291,-0.01192079654682375
-0.005458523901345292,-0.0111966982762235
-0.005458183901345291,-0.01047260000562785
-0.005457843901345291,-0.01300694395272414
-0.005457503901345292,-0.01478427607147022
-0.005457163901345292,-0.01366521510781731
-0.005456823901345291,-0.01481718962922478
-0.005456483901345292,-0.01399435068536085
-0.005456143901345292,-0.01445514049392381
-0.005455803901345291,-0.01432348626290642
-0.005455463901345292,-0.01432348626290642
-0.005455123901345292,-0.01228284568212759
-0.005454783901345291,-0.01218410500886021
-0.005454443901345292,-0.01310568462598781
-0.005454103901345292,-0.01113087116071798
-0.005453763901345291,-0.01284237616395135
-0.005453423901345292,-0.01386269645434262
-0.005453083901345292,-0.01689074376775637
-0.005452743901345291,-0.0161008183816525
-0.005452403901345292,-0.01034094577460501
-0.005452063901345292,-0.01297403039496479
-0.005451723901345291,-0.01531089299554313
-0.005451383901345292,-0.01336899308802426
-0.005451043901345292,-0.01103213048745496
-0.005450703901345291,-0.01159166096927818
-0.005450363901345292,-0.01175622875805097
-0.005450023901345292,-0.009320625484218172
-0.005449683901345291,-0.008629440771368041
-0.005449343901345292,-0.01080173558316881
-0.005449003901345292,-0.01083464914092331
-0.005448663901345291,-0.01261198125966945
-0.005448323901345292,-0.01554128789982503
-0.005447983901345292,-0.01721987934530745
-0.005447643901345291,-0.01965548261914467
-0.005447303901345292,-0.01475136251371566
-0.005446963901345292,-0.01606790482389795
-0.005446623901345291,-0.01113087116071438
-0.005446283901345291,-0.0107359084676597
-0.005445943901345292,-0.01508049809126123
-0.005445603901345291,-0.01468553539820116
-0.005445263901345291,-0.01172331520029641
-0.005444923901345292,-0.01271072193293312
-0.005444583901345291,-0.01310568462598715
-0.005444243901345291,-0.01274363549068768
-0.005443903901345292,-0.01350064731904249
-0.005443563901345291,-0.0115587474115247
-0.005443223901345291,-0.01215119145110565
-0.005442883901345292,-0.01228284568212388
-0.005442543901345291,-0.01310568462598667
-0.005442203901345291,-0.01248032702865122
-0.005441863901345292,-0.01300694395272414
-0.005441523901345291,-0.01264489481742646
-0.005441183901345291,-0.01399435068536085
-0.005440843901345292,-0.01409309135862452
-0.005440503901345291,-0.01188788298906842
-0.005440163901345291,-0.01146000673825995
-0.005439823901345292,-0.01317151174149692
-0.005439483901345291,-0.01389561001209419
-0.005439143901345291,-0.01224993212436933
-0.005438803901345292,-0.01323733885700604
-0.005438463901345291,-0.01508049809125944
-0.005438123901345291,-0.01409309135862452
-0.005437783901345292,-0.01409309135862452
-0.005437443901345291,-0.01642995395919826
-0.005437103901345291,-0.01652869463246175
-0.005436763901345292,-0.01063716779439602
-0.005436423901345292,-0.0121841050088574
-0.005436083901345291,-0.009583933946250199
-0.005435743901345292,-0.01271072193293312
-0.005435403901345292,-0.0165945217479638
-0.005435063901345291,-0.01514632520677035
-0.005434723901345292,-0.01310568462598781
-0.005434383901345292,-0.0143893133784132
-0.005434043901345291,-0.01425765914739731
-0.005433703901345292,-0.01248032702865122
-0.005433363901345292,-0.01317151174149567
-0.005433023901345291,-0.01185496943131464
-0.005432683901345292,-0.01007763731256855
-0.005432343901345292,-0.01257906770191034
-0.005432003901345291,-0.01182205587356008
-0.005431663901345292,-0.01070299490990514
-0.005431323901345292,-0.009682674619515726
-0.005430983901345291,-0.01070299490990514
-0.005430643901345292,-0.009485193272986525
-0.005430303901345292,-0.01093338981418441
-0.005429963901345291,-0.01201953722008742
-0.005429623901345292,-0.01149292029601451
-0.005429283901345292,-0.01432348626290127
-0.005428943901345291,-0.01455388116718832
-0.005428603901345292,-0.01307277106823325
-0.005428263901345292,-0.01195371010458035
-0.005427923901345291,-0.01274363549068768
-0.005427583901345292,-0.01149292029601451
-0.005427243901345292,-0.01172331520029641
-0.005426903901345291,-0.01557420145757959
-0.005426563901345292,-0.008135737405049685
-0.005426223901345292,-0.006490059517321831
-0.005425883901345291,-0.006490059517321831
-0.005425543901345291,-0.004778554514084859
-0.005425203901345292,-0.009452279715231968
-0.005424863901345291,-0.01169040164254185
-0.005424523901345291,-0.01053842712113235
-0.005424183901345292,-0.01106504404520527
-0.005423843901345291,-0.01327025241476089
-0.005423503901345291,-0.01343482020353338
-0.005423163901345292,-0.01369812866556984
-0.005422823901345291,-0.01350064731904195
-0.005422483901345291,-0.01320442529925148
-0.005422143901345292,-0.01238158635538755
-0.005421803901345291,-0.01396143712760516
-0.005421463901345291,-0.01333607953026971
-0.005421123901345292,-0.01317151174149692
-0.005420783901345291,-0.01330316597251779
-0.005420443901345291,-0.01475136251371566
-0.005420103901345292,-0.01425765914739731
-0.005419763901345291,-0.01610081838165388
-0.005419423901345291,-0.01685783021000732
-0.005419083901345292,-0.01639704040144352
-0.005418743901345291,-0.01642995395919916
-0.005418403901345291,-0.0170223979987801
-0.005418063901345292,-0.01596916415063428
-0.005417723901345291,-0.01468553539820907
-0.005417383901345291,-0.01606790482389795
-0.005417043901345292,-0.01478427607147022
-0.005416703901345291,-0.01508049809126788
-0.005416363901345291,-0.01873390300201707
-0.005416023901345292,-0.0116574880847873
