Analysis/files/cmb03_d2s01/wrd07_ch19.csv

#Digilent WaveForms Oscilloscope Acquisition
#Device Name: ADP3450
#Serial Number: SN:210018B9D9B0
#Date Time: 2024-08-09 17:43:37.913.726.540
#Sample rate: 2.94118e+06Hz
#Samples: 32768
#Trigger: Source: Channel 3 Type: Edge Condition: Rising Level: 60 mV Hyst.: Auto HoldOff: 0 s
#Channel 3: Range: 200 mV/div Offset: -20 mV Attenuation: 1 X Coupling: DC Bandwidth: 0 Hz Sample Mode: Average

Time (s),Channel 3 (V)
-0.005570400464576075,-0.0004668784482378778
-0.005570060464576075,-0.002375864798006741
-0.005569720464576075,-0.004877295187348533
-0.005569380464576075,-0.004021542685730045
-0.005569040464576075,-0.005831788362232783
-0.005568700464576075,-0.006983762883640186
-0.005568360464576075,-0.006292578170794486
-0.005568020464576075,-0.006852108652623636
-0.005567680464576075,-0.007773688269749557
-0.005567340464576075,-0.007247071345676644
-0.005567000464576075,-0.006193837497530936
-0.005566660464576075,-0.006259664613039929
-0.005566320464576075,-0.007411639134449428
-0.005565980464576075,-0.008168650962805739
-0.005565640464576075,-0.008991489906668169
-0.005565300464576075,-0.009419366157477412
-0.005564960464576075,-0.01142709318050635
-0.005564620464576075,-0.01195371010457831
-0.005564280464576075,-0.01043968644786868
-0.005563940464576075,-0.009945983081552362
-0.005563600464576075,-0.01106504404520527
-0.005563260464576075,-0.01053842712113235
-0.005562920464576075,-0.01254615414415669
-0.005562580464576075,-0.01738444713408023
-0.005562240464576075,-0.01106504404520527
-0.005561900464576075,-0.01001181019706136
-0.005561560464576075,-0.01053842712113235
-0.005561220464576075,-0.01113087116071438
-0.005560880464576075,-0.01274363549068475
-0.005560540464576075,-0.01248032702865122
-0.005560200464576075,-0.010044723754814
-0.005559860464576075,-0.01073590846765844
-0.005559520464576075,-0.01198662366233286
-0.005559180464576075,-0.01274363549068768
-0.005558840464576075,-0.01185496943131625
-0.005558500464576075,-0.01208536433559654
-0.005558160464576075,-0.01208536433559654
-0.005557820464576075,-0.01165748808478807
-0.005557480464576075,-0.01106504404520527
-0.005557140464576075,-0.01053842712113235
-0.005556800464576075,-0.01080173558316833
-0.005556460464576075,-0.0116574880847873
-0.005556120464576075,-0.01336899308802426
-0.005555780464576075,-0.01399435068535971
-0.005555440464576075,-0.0158704234773706
-0.005555100464576075,-0.01666034886347997
-0.005554760464576075,-0.0175819284806059
-0.005554420464576075,-0.01675908953674365
-0.005554080464576075,-0.01797689117366226
-0.005553740464576075,-0.01768066915387125
-0.005553400464576075,-0.01669326242123453
-0.005553060464576075,-0.01781232338488947
-0.005552720464576075,-0.01922760636833543
-0.005552380464576075,-0.02189360454645455
-0.005552040464576075,-0.01501467097575212
-0.005551700464576075,-0.01633121328593441
-0.005551360464576075,-0.01336899308802678
-0.005551020464576075,-0.01475136251371566
-0.005550680464576075,-0.01896429790629897
-0.005550340464576075,-0.01721987934530541
-0.005550000464576075,-0.0161008183816525
-0.005549660464576075,-0.01784523694264403
-0.005549320464576075,-0.01870098944426264
-0.005548980464576075,-0.01876681655977163
-0.005548640464576075,-0.01708822511428922
-0.005548300464576075,-0.01498175741800415
-0.005547960464576075,-0.01860224877099884
-0.005547620464576075,-0.01919469281058087
-0.005547280464576075,-0.01768066915386963
-0.005546940464576075,-0.0167920030944982
-0.005546600464576075,-0.01646286751695263
-0.005546260464576075,-0.01587042347737126
-0.005545920464576075,-0.01623247261267073
-0.005545580464576075,-0.01616664549716162
-0.005545240464576075,-0.01656160819021511
-0.005544900464576075,-0.01590333703512516
-0.005544560464576075,-0.0170223979987801
-0.005544220464576075,-0.01735153357632268
-0.005543880464576075,-0.01570585568859782
-0.005543540464576075,-0.01646286751695263
-0.005543200464576075,-0.01642995395919754
-0.005542860464576075,-0.01613373193940706
-0.005542520464576075,-0.01626538617042529
-0.005542180464576075,-0.02126824694910887
-0.005541840464576075,-0.01639704040144352
-0.005541500464576075,-0.01215119145110565
-0.005541160464576075,-0.01695657088326225
-0.005540820464576075,-0.01708822511428922
-0.005540480464576075,-0.01564002857308871
-0.005540140464576075,-0.01646286751695114
-0.005539800464576075,-0.01623247261267073
-0.005539460464576075,-0.0147184489559611
-0.005539120464576075,-0.0148171896292246
-0.005538780464576075,-0.01616664549716162
-0.005538440464576075,-0.01399435068536085
-0.005538100464576075,-0.01537672011104973
-0.005537760464576075,-0.01340190664577882
-0.005537420464576075,-0.01422474558964275
-0.005537080464576075,-0.01610081838164909
-0.005536740464576075,-0.01791106405815315
-0.005536400464576075,-0.01830602675120783
-0.005536060464576075,-0.0198529639656692
-0.005535720464576075,-0.02238730791277291
-0.005535380464576075,-0.02034666733199037
-0.005535040464576075,-0.01863516232875652
-0.005534700464576075,-0.01810854540468049
-0.005534360464576075,-0.01382978289658807
-0.005534020464576075,-0.01797689117365472
-0.005533680464576075,-0.02067580290953594
-0.005533340464576075,-0.01540963366880681
-0.005533000464576075,-0.01619955905491618
-0.005532660464576075,-0.01876681655977163
-0.005532320464576075,-0.01797689117366226
-0.005531980464576075,-0.01810854540468049
-0.005531640464576075,-0.02005044531219936
-0.005531300464576075,-0.0197871368501629
-0.005530960464576075,-0.0186351623287534
-0.005530620464576075,-0.01982005040791746
-0.005530280464576075,-0.01768066915387125
-0.005529940464576075,-0.01754901492285302
-0.005529600464576075,-0.01689074376776127
-0.005529260464576075,-0.01656160819021631
-0.005528920464576075,-0.01600207770838883
-0.005528580464576075,-0.01751610136510085
-0.005528240464576075,-0.01883264367528074
-0.005527900464576075,-0.01758192848060757
-0.005527560464576075,-0.01903012502180869
-0.005527220464576075,-0.01935926059935366
-0.005526880464576075,-0.01985296396567202
-0.005526540464576075,-0.0184047674244721
-0.005526200464576075,-0.01873390300201707
-0.005525860464576075,-0.01685783021000732
-0.005525520464576075,-0.01945800127262128
-0.005525180464576075,-0.0216302960844181
-0.005524840464576075,-0.01419183203188819
-0.005524500464576075,-0.01573876924634974
-0.005524160464576075,-0.01429057270515186
-0.005523820464576075,-0.01853642165548973
-0.005523480464576075,-0.02327597397215733
-0.005523140464576075,-0.0295295499455118
-0.005522800464576075,-0.03960109861840628
-0.005522460464576075,-0.05895427057813351
-0.005522120464576075,-0.08515346255071332
-0.005521780464576075,-0.113195813757596
-0.005521440464576075,-0.1436408546806175
-0.005521100464576075,-0.1745466854120904
-0.005520760464576075,-0.2030498264275369
-0.005520420464576075,-0.2262867982022119
-0.005520080464576075,-0.2468577717988524
-0.005519740464576075,-0.2580812949931564
-0.005519400464576075,-0.2652564505836368
-0.005519060464576075,-0.2712467180949792
-0.005518720464576075,-0.2722670383853705
-0.005518380464576075,-0.2696339537650107
-0.005518040464576075,-0.266507165778323
-0.005517700464576075,-0.2623600575012488
-0.005517360464576075,-0.2554152968150499
-0.005517020464576075,-0.2486021903598439
-0.005516680464576075,-0.2409004178452775
-0.005516340464576075,-0.2328695097531802
-0.005516000464576075,-0.22473986098779
-0.005515660464576075,-0.2185521121299333
-0.005515320464576075,-0.2117719192325069
-0.005514980464576075,-0.2076906380709294
-0.005514640464576075,-0.1948214369888976
-0.005514300464576075,-0.1864943068770098
-0.005513960464576075,-0.1796482868640468
-0.005513620464576075,-0.1765214988773638
-0.005513280464576075,-0.1736909329104771
-0.005512940464576075,-0.1652321485675508
-0.005512600464576075,-0.16045968269314
-0.005512260464576075,-0.1556543032609747
-0.005511920464576075,-0.1514413678683913
-0.005511580464576075,-0.1462410257431713
-0.005511240464576075,-0.1420610039083426
-0.005510900464576075,-0.137716414284741
-0.005510560464576075,-0.133108516199103
-0.005510220464576075,-0.1278423469583739
-0.005509880464576075,-0.1214242031962353
-0.005509540464576075,-0.1181986745362887
-0.005509200464576075,-0.1145781831832874
-0.005508860464576075,-0.1094436681735694
-0.005508520464576075,-0.1055269548007842
-0.005508180464576075,-0.1034534006622471
-0.005507840464576075,-0.1000633042135207
-0.005507500464576075,-0.09621241795624449
-0.005507160464576075,-0.09364516045138904
-0.005506820464576075,-0.09005758265613514
-0.005506480464576075,-0.08610795572559546
-0.005506140464576075,-0.08446227783786761
-0.005505800464576075,-0.08080887292710658
-0.005505460464576075,-0.07794539340246531
-0.005505120464576075,-0.07781373917144707
-0.005504780464576075,-0.07722129513184797
-0.005504440464576075,-0.06784093117181628
-0.005504100464576075,-0.0679067582873254
-0.005503760464576075,-0.06570154991776891
-0.005503420464576075,-0.06507619232043349
-0.005503080464576075,-0.06820298030711641
-0.005502740464576075,-0.06609651261080912
-0.005502400464576075,-0.05750607403688534
-0.005502060464576075,-0.06366090933698754
-0.005501720464576075,-0.06346342799045371
-0.005501380464576075,-0.05990876375296802
-0.005501040464576075,-0.05882261634706763
-0.005500700464576075,-0.05711111134382521
-0.005500360464576075,-0.05411597758816596
-0.005500020464576075,-0.05309565729777469
-0.005499680464576075,-0.05273360816247523
-0.005499340464576075,-0.05000178286884633
-0.005499000464576075,-0.05039674556190101
-0.005498660464576075,-0.04980430152232006
-0.005498320464576075,-0.04703956267093618
-0.005497980464576075,-0.04529514410994465
-0.005497640464576075,-0.04463687295485472
-0.005497300464576075,-0.04266205948958009
-0.005496960464576075,-0.04131260362164325
-0.005496620464576075,-0.04081890025532579
-0.005496280464576075,-0.03910739525208792
-0.005495940464576075,-0.03709966822905994
-0.005495600464576075,-0.03805416140394036
-0.005495260464576075,-0.03663887842049614
-0.005494920464576075,-0.03496028697501373
-0.005494580464576075,-0.03979857996492482
-0.005494240464576075,-0.033676658222586
-0.005493900464576075,-0.03232720235464916
-0.005493560464576075,-0.0306156973514153
-0.005493220464576075,-0.02910167369470256
-0.005492880464576075,-0.03272216504770385
-0.005492540464576075,-0.03262342437444035
-0.005492200464576075,-0.0295295499455118
-0.005491860464576075,-0.02712686022942914
-0.005491520464576075,-0.02867379744389051
-0.005491180464576075,-0.02469125695559191
-0.005490840464576075,-0.02291392483684582
-0.005490500464576075,-0.02179486387319089
-0.005490160464576075,-0.02172903675768177
-0.005489820464576075,-0.02153155541115443
-0.005489480464576075,-0.02248604858603658
-0.005489140464576075,-0.02607362638128331
-0.005488800464576075,-0.02574449080373774
-0.005488460464576075,-0.02709394667167458
-0.005488120464576075,-0.02778513138451884
-0.005487780464576075,-0.02699520599841091
-0.005487440464576075,-0.02571157724598318
-0.005487100464576075,-0.02587614503475758
-0.005486760464576075,-0.02676481109412901
-0.005486420464576075,-0.02455960272457368
-0.005486080464576075,-0.02505330609088911
-0.005485740464576075,-0.02344054176091874
-0.005485400464576075,-0.0239342451272371
-0.005485060464576075,-0.0234734553186721
-0.005484720464576075,-0.02281518416358216
-0.005484380464576075,-0.02561283657271951
-0.005484040464576075,-0.01978713685016242
-0.005483700464576075,-0.01952382838812644
-0.005483360464576075,-0.0181743725201896
-0.005483020464576075,-0.01853642165550146
-0.005482680464576075,-0.02498747897538292
-0.005482340464576075,-0.02482291118661014
-0.005482000464576075,-0.02235439435501883
-0.005481660464576075,-0.02261770281705481
-0.005481320464576075,-0.02172903675768177
-0.005480980464576075,-0.02110367916034494
-0.005480640464576075,-0.02097202492932695
-0.005480300464576075,-0.01952382838812644
-0.005479960464576075,-0.01932634704159862
-0.005479620464576075,-0.01906303857956265
-0.005479280464576075,-0.0179439776159077
-0.005478940464576075,-0.01731862001857225
-0.005478600464576075,-0.0179439776159077
-0.005478260464576075,-0.01735153357632568
-0.005477920464576075,-0.01725279290306218
-0.005477580464576075,-0.01800980473141682
-0.005477240464576075,-0.01787815050039859
-0.005476900464576075,-0.01692365732551817
-0.005476560464576075,-0.01731862001857112
-0.005476220464576075,-0.01965548261914467
-0.005475880464576075,-0.01863516232875526
-0.005475540464576075,-0.02005044531219936
-0.005475200464576075,-0.02051123512076316
-0.005474860464576075,-0.02011627242770919
-0.005474520464576075,-0.02031375377423581
-0.005474180464576075,-0.02485582474436469
-0.005473840464576075,-0.02024792665873508
-0.005473500464576075,-0.01669326242123453
-0.005473160464576075,-0.01774649626938036
-0.005472820464576075,-0.01547546078432005
-0.005472480464576075,-0.01958965550363556
-0.005472140464576075,-0.0200175317544448
-0.005471800464576075,-0.01695657088327656
-0.005471460464576075,-0.01596916415063428
-0.005471120464576075,-0.01705531155653466
-0.005470780464576075,-0.0165945217479717
-0.005470440464576075,-0.01636412684368896
-0.005470100464576075,-0.01797689117366226
-0.005469760464576075,-0.01629829972817985
-0.005469420464576075,-0.01623247261267073
-0.005469080464576075,-0.01689074376776187
-0.005468740464576075,-0.0181743725201896
-0.005468400464576075,-0.01715405222979833
-0.005468060464576075,-0.0186351623287534
-0.005467720464576075,-0.01827311319345327
-0.005467380464576075,-0.01781232338488947
-0.005467040464576075,-0.01807563184692593
-0.005466700464576075,-0.01751610136509846
-0.005466360464576075,-0.01633121328593171
-0.005466020464576075,-0.01485010318697934
-0.005465680464576075,-0.01478427607147022
-0.005465340464576075,-0.01274363549068852
-0.005465000464576075,-0.01320442529925148
-0.005464660464576075,-0.01399435068536085
-0.005464320464576075,-0.01399435068536857
-0.005463980464576075,-0.01824019963569871
-0.005463640464576075,-0.01912886569507176
-0.005463300464576075,-0.01508049809126093
-0.005462960464576075,-0.01491593030248845
-0.005462620464576075,-0.0147184489559611
-0.005462280464576075,-0.01764775559612304
-0.005461940464576075,-0.02113659271809974
-0.005461600464576075,-0.0200175317544448
-0.005461260464576075,-0.01909595213732121
-0.005460920464576075,-0.02130116050687253
-0.005460580464576075,-0.02110367916034518
-0.005460240464576075,-0.02093911137157091
-0.005459900464576075,-0.02011627242770847
-0.005459560464576075,-0.02113659271809974
-0.005459220464576075,-0.01929343348384113
-0.005458880464576075,-0.01741736069183479
-0.005458540464576075,-0.01771358271162581
-0.005458200464576075,-0.01764775559611544
-0.005457860464576075,-0.01695657088327099
-0.005457520464576075,-0.0161008183816525
-0.005457180464576075,-0.0161666454971615
-0.005456840464576075,-0.01550837434207047
-0.005456500464576075,-0.01175622875805097
-0.005456160464576075,-0.01754901492284248
-0.005455820464576075,-0.01837185386671695
-0.005455480464576075,-0.0184047674244715
-0.005455140464576075,-0.01942508771486092
-0.005454800464576075,-0.01896429790629897
-0.005454460464576075,-0.01899721146405353
-0.005454120464576075,-0.01824019963570009
-0.005453780464576075,-0.01906303857956265
-0.005453440464576075,-0.01827311319345327
-0.005453100464576075,-0.01146000673827235
-0.005452760464576075,-0.01208536433559654
-0.005452420464576075,-0.01011055087032311
-0.005452080464576075,-0.01412600491637178
-0.005451740464576075,-0.01843768098222606
-0.005451400464576075,-0.01870098944426252
-0.005451060464576075,-0.0188326436752805
-0.005450720464576075,-0.0197871368501629
-0.005450380464576075,-0.02014918598546303
-0.005450040464576075,-0.02031375377423551
-0.005449700464576075,-0.02179486387319089
-0.005449360464576075,-0.02037958088974493
-0.005449020464576075,-0.01942508771486451
-0.005448680464576075,-0.01899721146405353
-0.005448340464576075,-0.0186351623287534
-0.005448000464576075,-0.01889847079078986
-0.005447660464576075,-0.0181743725201896
-0.005447320464576075,-0.01544254722656136
-0.005446980464576075,-0.01501467097575212
-0.005446640464576075,-0.01646286751695263
-0.005446300464576075,-0.01396143712760629
-0.005445960464576075,-0.01313859818374236
-0.005445620464576075,-0.01429057270515204
-0.005445280464576075,-0.01438931337841554
-0.005444940464576075,-0.01501467097575212
-0.005444600464576075,-0.015903337035126
-0.005444260464576075,-0.01636412684368896
-0.005443920464576075,-0.01508049809126123
-0.005443580464576075,-0.01666034886348901
-0.005443240464576075,-0.0216302960844181
-0.005442900464576075,-0.01402726424311541
-0.005442560464576075,-0.01399435068536013
-0.005442220464576075,-0.01359938799230617
-0.005441880464576075,-0.01402726424311541
-0.005441540464576075,-0.01955674194587825
-0.005441200464576075,-0.01804271828917137
-0.005440860464576075,-0.01537672011105225
-0.005440520464576075,-0.01616664549716371
-0.005440180464576075,-0.01731862001857112
-0.005439840464576075,-0.01531089299554313
-0.005439500464576075,-0.01573876924635417
-0.005439160464576075,-0.01672617597898909
-0.005438820464576075,-0.01501467097575212
-0.005438480464576075,-0.01517923876452574
-0.005438140464576075,-0.01564002857308871
-0.005437800464576075,-0.01616664549716162
-0.005437460464576075,-0.01521215232228156
-0.005437120464576075,-0.01636412684368896
-0.005436780464576075,-0.01488301674473389
-0.005436440464576075,-0.01587042347736881
-0.005436100464576075,-0.01731862001857112
-0.005435760464576075,-0.01777940982713492
-0.005435420464576075,-0.01820728607794338
-0.005435080464576075,-0.0188655572330353
-0.005434740464576075,-0.01926051992608999
-0.005434400464576075,-0.0166603488634847
-0.005434060464576075,-0.01814145896243505
-0.005433720464576075,-0.01850350809773518
-0.005433380464576075,-0.01847059453998067
-0.005433040464576075,-0.02465834339783735
-0.005432700464576075,-0.02107076560259063
-0.005432360464576075,-0.01705531155654197
-0.005432020464576075,-0.02297975195235494
-0.005431680464576075,-0.02541535522619216
-0.005431340464576075,-0.02077454358280805
-0.005431000464576075,-0.01958965550363556
-0.005430660464576075,-0.02103785204483607
-0.005430320464576075,-0.01879973011753026
-0.005429980464576075,-0.01649578107470719
-0.005429640464576075,-0.01692365732551643
-0.005429300464576075,-0.01573876924635453
-0.005428960464576075,-0.01511341164901579
-0.005428620464576075,-0.0158704234773706
-0.005428280464576075,-0.0147184489559632
-0.005427940464576075,-0.01465262184045199
-0.005427600464576075,-0.01616664549716162
-0.005427260464576075,-0.01662743530572542
-0.005426920464576075,-0.01498175741799757
-0.005426580464576075,-0.0161008183816525
-0.005426240464576075,-0.01554128789982503
-0.005425900464576075,-0.01540963366880681
-0.005425560464576075,-0.01629829972817985
-0.005425220464576075,-0.01626538617042529
-0.005424880464576075,-0.01475136251371566
-0.005424540464576075,-0.01531089299554313
-0.005424200464576075,-0.0179439776159077
-0.005423860464576075,-0.01669326242123681
-0.005423520464576075,-0.0179439776159077
-0.005423180464576075,-0.01945800127261733
-0.005422840464576075,-0.02034666733198977
-0.005422500464576075,-0.0200175317544448
-0.005422160464576075,-0.02103785204483607
-0.005421820464576075,-0.02123533339135863
-0.005421480464576075,-0.01860224877099884
-0.005421140464576075,-0.01998461819669024
-0.005420800464576075,-0.0174502742495891
-0.005420460464576075,-0.01731862001857112
-0.005420120464576075,-0.01619955905491618
-0.005419780464576075,-0.01422474558964143
-0.005419440464576075,-0.01350064731904249
-0.005419100464576075,-0.01379686933883351
-0.005418760464576075,-0.01435639982065846
-0.005418420464576075,-0.01297403039496958
-0.005418080464576075,-0.01521215232227946
-0.005417740464576075,-0.01498175741799745
-0.005417400464576075,-0.01491593030248845
-0.005417060464576075,-0.01616664549716162
-0.005416720464576075,-0.01649578107470522
-0.005416380464576075,-0.01540963366880681
-0.005416040464576075,-0.01531089299554313
-0.005415700464576075,-0.01531089299553631
-0.005415360464576075,-0.01155874741152362
