Analysis/files/cmb03_d2s01/wrd05_ch45.csv

#Digilent WaveForms Oscilloscope Acquisition
#Device Name: ADP3450
#Serial Number: SN:210018B9D9B0
#Date Time: 2024-08-09 15:56:40.489.260.350
#Sample rate: 2.94118e+06Hz
#Samples: 32768
#Trigger: Source: Channel 3 Type: Edge Condition: Rising Level: 20 mV Hyst.: Auto HoldOff: 0 s
#Channel 3: Range: 200 mV/div Offset: 0 V Attenuation: 1 X Coupling: DC Bandwidth: 0 Hz Sample Mode: Average

Time (s),Channel 3 (V)
-0.005570547831578948,0.002886407385237271
-0.005570207831578947,0.002458531134426113
-0.005569867831578947,0.001405297286282201
-0.005569527831578948,0.002491444692182586
-0.005569187831578947,0.002326876903404113
-0.005568847831578947,-0.0007999110832731249
-0.005568507831578948,-0.001392355122855153
-0.005568167831578947,0.004959961523769879
-0.005567827831578947,0.002491444692182586
-0.005567487831578947,0.004992875081528926
-0.005567147831578947,0.001833173537081805
-0.005566807831578947,-0.003465909261392251
-0.005566467831578947,-0.001458182238364267
-0.005566127831578947,-0.001458182238366901
-0.005565787831578947,-0.00290637877956478
-0.005565447831578947,-0.004354575320765292
-0.005565107831578947,-0.003070946568340259
-0.005564767831578947,-0.004552056667292635
-0.005564427831578947,-0.00392669906995605
-0.005564087831578947,-0.002708897433040551
-0.005563747831578947,-0.004420402436274407
-0.005563407831578947,-0.002840551664055666
-0.005563067831578948,-0.003103860126091644
-0.005562727831578947,-0.002939292337319337
-0.005562387831578947,-0.00586859897747492
-0.005562047831578948,-0.004749538013822013
-0.005561707831578947,-0.00711931417214809
-0.005561367831578947,-0.01014736148556734
-0.005561027831578948,-0.008797905617632957
-0.005560687831578947,-0.009061214079666959
-0.005560347831578947,-0.009587831003739873
-0.005560007831578948,-0.008271288693559982
-0.005559667831578947,-0.006856005710111633
-0.005559327831578947,-0.008534597155594046
-0.005558987831578948,-0.00837002936682156
-0.005558647831578947,-0.008304202251312145
-0.005558307831578947,-0.01169429870003153
-0.005557967831578948,-0.01393242062733734
-0.005557627831578947,-0.008205461578048474
-0.005557287831578947,-0.00665852436358429
-0.005556947831578948,-0.005671117630949373
-0.005556607831578947,-0.006296475228284162
-0.005556267831578947,-0.009818225908021772
-0.005555927831578948,-0.008238375135805906
-0.005555587831578947,-0.005638204073193019
-0.005555247831578947,-0.007975066673766575
-0.005554907831578948,-0.009258695426191966
-0.005554567831578947,-0.007942153116012016
-0.005554227831578947,-0.001754404258155281
-0.005553887831578948,-0.008830819175385059
-0.005553547831578947,-0.008007980231521132
-0.005553207831578947,-0.007975066673766575
-0.005552867831578948,-0.0101802750433219
-0.005552527831578947,-0.009949880139040001
-0.005552187831578947,-0.01011444792781279
-0.005551847831578948,-0.01284627322144103
-0.005551507831578947,-0.0113651631224862
-0.005551167831578947,-0.01149681735350419
-0.005550827831578948,-0.0115626444690133
-0.005550487831578947,-0.01126642244922115
-0.005550147831578947,-0.0106410648518857
-0.005549807831578948,-0.01245131052838634
-0.005549467831578947,-0.01241839697063142
-0.005549127831578947,-0.01222091562410444
-0.005548787831578948,-0.01452486466692344
-0.005548447831578947,-0.01465651889794281
-0.005548107831578947,-0.01528187649527825
-0.005547767831578948,-0.02091009487130752
-0.005547427831578947,-0.01679590015198069
-0.005547087831578947,-0.01284627322144103
-0.005546747831578948,-0.01044358350535836
-0.005546407831578947,-0.01136516312249188
-0.005546067831578947,-0.01462360534018711
-0.005545727831578947,-0.01459069178243255
-0.005545387831578947,-0.01106894110269428
-0.005545047831578947,-0.01070689196739481
-0.005544707831578947,-0.01103602754494038
-0.005544367831578947,-0.01126642244922228
-0.005544027831578947,-0.01126642244922228
-0.005543687831578947,-0.01192469360431343
-0.005543347831578947,-0.01436029687815197
-0.005543007831578947,-0.01508439514875091
-0.005542667831578947,-0.01705920861402434
-0.005542327831578948,-0.01906693563704867
-0.005541987831578947,-0.01692755438300611
-0.005541647831578947,-0.01636802390117864
-0.005541307831578948,-0.01584140697710668
-0.005540967831578947,-0.01491982735997812
-0.005540627831578947,-0.01274753254817735
-0.005540287831578948,-0.01281335966368635
-0.005539947831578947,-0.01284627322144103
-0.005539607831578947,-0.01126642244922228
-0.005539267831578948,-0.01208926139308472
-0.005538927831578947,-0.01287918677919558
-0.005538587831578947,-0.01291210033695014
-0.005538247831578948,-0.01327414947224961
-0.005537907831578947,-0.01373493928081407
-0.005537567831578947,-0.01426155620488698
-0.005537227831578948,-0.01705920861401925
-0.005536887831578947,-0.01060815129413114
-0.005536547831578947,-0.009094127637421515
-0.005536207831578948,-0.007152227729906179
-0.005535867831578947,-0.00790923955825746
-0.005535527831578947,-0.01169429870003153
-0.005535187831578948,-0.009324522541707727
-0.005534847831578947,-0.007975066673766575
-0.005534507831578947,-0.009949880139040001
-0.005534167831578948,-0.01093728687167492
-0.005533827831578947,-0.01307666812572293
-0.005533487831578947,-0.01304375456796837
-0.005533147831578948,-0.01436029687815065
-0.005532807831578947,-0.01547935784180559
-0.005532467831578947,-0.01468943245569622
-0.005532127831578948,-0.01357037149204128
-0.005531787831578947,-0.01465651889794167
-0.005531447831578947,-0.0136361986075504
-0.005531107831578948,-0.01291210033695014
-0.005530767831578947,-0.01370202572305951
-0.005530427831578947,-0.01287918677919558
-0.005530087831578948,-0.01389950706958685
-0.005529747831578947,-0.01357037149204446
-0.005529407831578947,-0.01531479005303281
-0.005529067831578948,-0.014557778224678
-0.005528727831578947,-0.01561101207282239
-0.005528387831578947,-0.01482108668671445
-0.005528047831578948,-0.0138665935118323
-0.005527707831578947,-0.01278044610593101
-0.005527367831578947,-0.01228674273961356
-0.005527027831578948,-0.01508439514875091
-0.005526687831578947,-0.01143099023799064
-0.005526347831578947,-0.008995386964157845
-0.005526007831578948,-0.007580103980711889
-0.005525667831578947,-0.006098993881766458
-0.005525327831578947,-0.01139807668024051
-0.005524987831578947,-0.01330706303000483
-0.005524647831578947,-0.01228674273961308
-0.005524307831578947,-0.0120234342775771
-0.005523967831578947,-0.01445903755141432
-0.005523627831578947,-0.01478817312896235
-0.005523287831578947,-0.01613762899689674
-0.005522947831578947,-0.01811244246217016
-0.005522607831578947,-0.02193041516171723
-0.005522267831578947,-0.03206779095010238
-0.005521927831578947,-0.04938032232899942
-0.005521587831578947,-0.07261729410376731
-0.005521247831578947,-0.1004292504063175
-0.005520907831578947,-0.1325528827747652
-0.005520567831578948,-0.1635245406217471
-0.005520227831578947,-0.195220296739442
-0.005519887831578947,-0.2233943021773429
-0.005519547831578948,-0.2440969300049216
-0.005519207831578947,-0.2607511902287651
-0.005518867831578947,-0.2730608608289695
-0.005518527831578948,-0.2776358453568447
-0.005518187831578947,-0.2783270300696987
-0.005517847831578947,-0.2762534759311616
-0.005517507831578948,-0.2706252575551425
-0.005517167831578947,-0.2653590883144031
-0.005516827831578947,-0.259796697053883
-0.005516487831578948,-0.2559128972388523
-0.005516147831578947,-0.2393902912460576
-0.005515807831578947,-0.2325442712331097
-0.005515467831578948,-0.2242829682367309
-0.005515127831578947,-0.2164824550488859
-0.005514787831578947,-0.2132240128311847
-0.005514447831578948,-0.2059172030096863
-0.005514107831578947,-0.1969647153004335
-0.005513767831578947,-0.1904478308650312
-0.005513427831578948,-0.1852474887398206
-0.005513087831578947,-0.1776115433407539
-0.005512747831578947,-0.1739581384299981
-0.005512407831578948,-0.1681324387074415
-0.005512067831578947,-0.1608914560014389
-0.005511727831578947,-0.1557898545494825
-0.005511387831578948,-0.1506553395397716
-0.005511047831578947,-0.1449283804904787
-0.005510707831578947,-0.1385760638438492
-0.005510367831578948,-0.1349555724908479
-0.005510027831578947,-0.1286690829597275
-0.005509687831578947,-0.1204077799633337
-0.005509347831578948,-0.1177746953429691
-0.005509007831578947,-0.1161290174552352
-0.005508667831578947,-0.112804748122031
-0.005508327831578948,-0.109677960135348
-0.005507987831578947,-0.106386604359884
-0.005507647831578947,-0.1017787062742543
-0.005507307831578948,-0.09907979453838064
-0.005506967831578947,-0.09506434049231678
-0.005506627831578947,-0.09071975086872314
-0.005506287831578948,-0.09127928135055061
-0.005505947831578947,-0.08858036961465958
-0.005505607831578947,-0.07903543786585537
-0.005505267831578948,-0.07900252430810081
-0.005504927831578947,-0.07712645151609218
-0.005504587831578947,-0.07775180911342763
-0.005504247831578948,-0.07860756161504612
-0.005503907831578947,-0.07432879910694837
-0.005503567831578947,-0.07139949246679811
-0.005503227831578947,-0.06939176544377013
-0.005502887831578947,-0.06968798746355449
-0.005502547831578947,-0.06603458255280531
-0.005502207831578947,-0.06244700475755859
-0.005501867831578947,-0.0608342404275811
-0.005501527831578947,-0.05853029138476629
-0.005501187831578947,-0.05648965080398375
-0.005500847831578947,-0.05444901022319636
-0.005500507831578947,-0.05178301204508209
-0.005500167831578947,-0.0493144952134903
-0.005499827831578948,-0.04891953252043633
-0.005499487831578947,-0.04740550886372599
-0.005499147831578947,-0.04480533780111598
-0.005498807831578948,-0.04559526318722391
-0.005498467831578947,-0.04464077001234319
-0.005498127831578947,-0.04381793106847926
-0.005497787831578948,-0.04325840058665281
-0.005497447831578947,-0.04243556164278787
-0.005497107831578947,-0.03917711942508671
-0.005496767831578948,-0.03960499567589518
-0.005496427831578947,-0.04009869904221431
-0.005496087831578947,-0.03805805846143177
-0.005495747831578948,-0.04144815491014498
-0.005495407831578947,-0.03802514490367721
-0.005495067831578947,-0.03292354345172086
-0.005494727831578948,-0.03256149431642139
-0.005494387831578947,-0.02976384190728338
-0.005494047831578947,-0.03321976547151188
-0.005493707831578948,-0.0328906298939669
-0.005493367831578947,-0.03101455710195655
-0.005493027831578947,-0.03058668085114731
-0.005492687831578948,-0.03006006392707535
-0.005492347831578947,-0.03190322316132959
-0.005492007831578947,-0.03061959440890186
-0.005491667831578948,-0.03042211306237488
-0.005491327831578947,-0.02989549613830161
-0.005490987831578947,-0.03029045883135629
-0.005490647831578948,-0.02848021315485565
-0.005490307831578947,-0.02880934873240122
-0.005489967831578947,-0.02795359623078274
-0.005489627831578948,-0.02574838786122741
-0.005489287831578947,-0.02634083190080944
-0.005488947831578947,-0.02571547430347286
-0.005488607831578948,-0.02318113035637196
-0.005488267831578947,-0.02173293381516827
-0.005487927831578947,-0.01998851525417992
-0.005487587831578948,-0.01689464082525155
-0.005487247831578947,-0.01646676457444387
-0.005486907831578947,-0.01732251707606079
-0.005486567831578948,-0.01557809851506927
-0.005486227831578947,-0.01771747976911919
-0.005485887831578947,-0.01975812034989802
-0.005485547831578948,-0.02051513217825283
-0.005485207831578947,-0.02469515401307488
-0.005484867831578947,-0.02100883554457119
-0.005484527831578948,-0.01834283736645206
-0.005484187831578947,-0.01830992380869828
-0.005483847831578947,-0.01873780005950675
-0.005483507831578948,-0.02248994564352626
-0.005483167831578947,-0.02150253891088607
-0.005482827831578947,-0.01959355256112523
-0.005482487831578947,-0.01979103390765257
-0.005482147831578947,-0.02002142881193453
-0.005481807831578947,-0.02005434236968903
-0.005481467831578947,-0.01998851525417992
-0.005481127831578947,-0.01992268813867176
-0.005480787831578947,-0.02044930506274372
-0.005480447831578947,-0.02094300842906207
-0.005480107831578947,-0.01975812034989934
-0.005479767831578947,-0.02048221862049827
-0.005479427831578947,-0.02104174910232575
-0.005479087831578948,-0.01877071361726544
-0.005478747831578947,-0.01890236784827953
-0.005478407831578947,-0.01709212217177889
-0.005478067831578948,-0.01623636967016196
-0.005477727831578947,-0.01541353072629648
-0.005477387831578947,-0.01699338149851522
-0.005477047831578948,-0.01715794928728771
-0.005476707831578947,-0.01794787467339738
-0.005476367831578947,-0.02041639150498916
-0.005476027831578948,-0.0188036271750188
-0.005475687831578947,-0.01784913400013371
-0.005475347831578947,-0.01758582553809725
-0.005475007831578948,-0.02025182371621153
-0.005474667831578947,-0.01794787467339738
-0.005474327831578947,-0.01261587831715913
-0.005473987831578948,-0.01208926139308717
-0.005473647831578947,-0.009061214079666959
-0.005473307831578947,-0.01258296475940457
-0.005472967831578948,-0.01495274091772837
-0.005472627831578947,-0.01264879187491368
-0.005472287831578947,-0.01146390379574963
-0.005471947831578948,-0.01485400024446284
-0.005471607831578947,-0.01419572908937787
-0.005471267831578947,-0.01538061716854192
-0.005470927831578948,-0.01636802390117684
-0.005470587831578947,-0.01587432053486028
-0.005470247831578947,-0.01544644428405104
-0.005469907831578948,-0.01623636967016041
-0.005469567831578947,-0.01452486466692344
-0.005469227831578947,-0.0134058037032685
-0.005468887831578948,-0.01251713764389546
-0.005468547831578947,-0.01024610215883101
-0.005468207831578947,-0.01245131052838634
-0.005467867831578948,-0.0134058037032685
-0.005467527831578947,-0.01327414947225027
-0.005467187831578947,-0.01419572908937787
-0.005466847831578948,-0.01732251707606079
-0.005466507831578947,-0.01765165265360421
-0.005466167831578947,-0.01646676457444231
-0.005465827831578948,-0.01666424592096965
-0.005465487831578947,-0.01580849341934931
-0.005465147831578947,-0.01478817312895989
-0.005464807831578948,-0.006987659941129861
-0.005464467831578947,-0.01613762899689081
-0.005464127831578947,-0.01287918677919558
-0.005463787831578948,-0.006559783690320619
-0.005463447831578947,-0.01080563264066346
-0.005463107831578947,-0.01353745793428673
-0.005462767831578948,-0.0120234342775771
-0.005462427831578947,-0.01235256985512518
-0.005462087831578947,-0.01373493928081407
-0.005461747831578947,-0.01320832235674115
-0.005461407831578947,-0.01419572908937392
-0.005461067831578947,-0.0120234342775771
-0.005460727831578947,-0.01255005120165001
-0.005460387831578947,-0.01412990197386857
-0.005460047831578947,-0.01403116130060508
-0.005459707831578947,-0.01261587831715913
-0.005459367831578947,-0.01185886648880605
-0.005459027831578947,-0.01281335966368647
-0.005458687831578947,-0.01166138514227697
-0.005458347831578947,-0.01248422408614228
-0.005458007831578947,-0.01324123591449571
-0.005457667831578947,-0.01152973091125874
-0.005457327831578948,-0.01189178004655821
-0.005456987831578947,-0.01103602754494038
-0.005456647831578947,-0.01103602754494038
-0.005456307831578948,-0.01189178004655731
-0.005455967831578947,-0.01192469360431343
-0.005455627831578947,-0.01123350889146773
-0.005455287831578948,-0.01320832235673756
-0.005454947831578947,-0.01436029687815065
-0.005454607831578947,-0.0134058037032685
-0.005454267831578948,-0.01383367995407696
-0.005453927831578947,-0.01742125774932446
-0.005453587831578947,-0.01301084101021381
-0.005453247831578948,-0.01370202572305825
-0.005452907831578947,-0.01238548341287723
-0.005452567831578947,-0.01310958168347748
-0.005452227831578948,-0.01722377640278964
-0.005451887831578947,-0.01567683918833294
-0.005451547831578947,-0.01347163081877761
-0.005451207831578948,-0.01258296475940619
-0.005450867831578947,-0.0134058037032685
-0.005450527831578947,-0.01320832235674115
-0.005450187831578948,-0.01189178004656127
-0.005449847831578947,-0.0120234342775771
-0.005449507831578947,-0.01044358350535836
-0.005449167831578948,-0.01041066994760386
-0.005448827831578947,-0.01162847158452241
-0.005448487831578947,-0.01301084101021381
-0.005448147831578948,-0.01297792745245925
-0.005447807831578947,-0.01505148159099635
-0.005447467831578947,-0.01396533418509597
-0.005447127831578948,-0.01373493928081407
-0.005446787831578947,-0.01274753254817735
-0.005446447831578947,-0.0120234342775771
-0.005446107831578948,-0.01011444792781279
-0.005445767831578947,-0.01064106485188564
-0.005445427831578947,-0.01060815129413114
-0.005445087831578948,-0.0104106699476038
-0.005444747831578947,-0.01034484283209948
-0.005444407831578947,-0.01297792745245925
-0.005444067831578948,-0.0136361986075504
-0.005443727831578947,-0.01883654073276294
-0.005443387831578947,-0.01472234601345078
-0.005443047831578948,-0.01287918677919558
-0.005442707831578947,-0.01314249524123288
-0.005442367831578947,-0.01360328504979584
-0.005442027831578948,-0.01811244246217016
-0.005441687831578947,-0.01755291198033946
-0.005441347831578947,-0.01577557986159661
-0.005441007831578948,-0.01636802390117864
-0.005440667831578947,-0.01432738332039376
-0.005440327831578947,-0.01304375456796837
-0.005439987831578947,-0.01347163081877761
-0.005439647831578947,-0.01248422408614222
-0.005439307831578947,-0.01320832235674115
-0.005438967831578947,-0.01416281553162331
-0.005438627831578947,-0.01468943245569802
-0.005438287831578947,-0.01567683918833294
-0.005437947831578947,-0.01649967813219686
-0.005437607831578947,-0.0150185680332409
-0.005437267831578947,-0.01452486466692344
-0.005436927831578947,-0.01515022226426002
-0.005436587831578948,-0.01386659351183463
-0.005436247831578947,-0.01389950706958685
-0.005435907831578947,-0.01442612399365977
-0.005435567831578948,-0.01307666812572538
-0.005435227831578947,-0.01287918677919558
-0.005434887831578947,-0.01376785283856862
-0.005434547831578948,-0.01314249524123318
-0.005434207831578947,-0.01212217495084077
-0.005433867831578947,-0.01261587831715913
-0.005433527831578948,-0.01422864264712949
-0.005433187831578947,-0.01587432053486028
-0.005432847831578947,-0.01031192927434013
-0.005432507831578948,-0.009522003888232195
-0.005432167831578947,-0.008863732733139616
-0.005431827831578947,-0.01083854619841304
-0.005431487831578948,-0.01547935784179715
-0.005431147831578947,-0.01268170543266824
-0.005430807831578947,-0.01152973091125874
-0.005430467831578948,-0.01462360534018148
-0.005430127831578947,-0.01366911216530495
-0.005429787831578947,-0.01442612399365977
-0.005429447831578948,-0.01491982735997723
-0.005429107831578947,-0.01620345611240585
-0.005428767831578947,-0.01459069178243255
-0.005428427831578948,-0.01462360534018705
-0.005428087831578947,-0.01468943245569622
-0.005427747831578947,-0.01452486466692344
-0.005427407831578948,-0.01478817312895989
-0.005427067831578947,-0.01399824774285052
-0.005426727831578947,-0.01475525957120534
-0.005426387831578948,-0.01564392563057838
-0.005426047831578947,-0.01682881370974244
-0.005425707831578947,-0.01620345611240585
-0.005425367831578948,-0.01712503572953345
-0.005425027831578947,-0.01778330688462459
-0.005424687831578947,-0.01689464082525155
-0.005424347831578948,-0.01827701025094295
-0.005424007831578947,-0.01745417130708064
-0.005423667831578947,-0.01834283736645206
-0.005423327831578948,-0.01597306120812395
-0.005422987831578947,-0.02153545246863213
-0.005422647831578947,-0.01495274091773268
-0.005422307831578948,-0.01126642244922228
-0.005421967831578947,-0.009620744561487185
-0.005421627831578947,-0.005638204073193019
-0.005421287831578948,-0.009357436099457973
-0.005420947831578947,-0.009916966581279458
-0.005420607831578947,-0.006625610805829733
-0.005420267831578948,-0.002807638106301108
-0.005419927831578947,-0.009061214079670192
-0.005419587831578947,-0.01083854619841304
-0.005419247831578947,-0.01215508850859533
-0.005418907831578947,-0.01320832235674229
-0.005418567831578947,-0.01383367995407774
-0.005418227831578947,-0.01337289014551394
-0.005417887831578947,-0.01412990197386893
-0.005417547831578947,-0.01422864264713243
-0.005417207831578947,-0.0129450138947047
-0.005416867831578947,-0.01511730870650355
-0.005416527831578947,-0.01406407485835964
-0.005416187831578947,-0.01324123591449571
