Analysis/files/cmb03_d2s01/wrd05_ch10.csv

#Digilent WaveForms Oscilloscope Acquisition
#Device Name: ADP3450
#Serial Number: SN:210018B9D9B0
#Date Time: 2024-08-09 15:40:45.998.398.900
#Sample rate: 2.94118e+06Hz
#Samples: 32768
#Trigger: Source: Channel 3 Type: Edge Condition: Rising Level: 20 mV Hyst.: Auto HoldOff: 0 s
#Channel 3: Range: 200 mV/div Offset: 0 V Attenuation: 1 X Coupling: DC Bandwidth: 0 Hz Sample Mode: Average

Time (s),Channel 3 (V)
-0.005570454421052632,0.006408158064974882
-0.005570114421052631,0.004137122579906729
-0.005569774421052632,0.002096481999127901
-0.005569434421052632,0.000417890553645488
-0.005569094421052631,-0.001326528007348014
-0.005568754421052632,-0.002412675413246423
-0.005568414421052632,-0.003169687241601236
-0.005568074421052631,-0.002017712720194312
-0.005567734421052632,-0.003432995703637694
-0.005567394421052632,-0.002741810990791994
-0.005567054421052631,-0.002182280508964703
-0.005566714421052632,-0.002281021182228195
-0.005566374421052632,-0.002412675413246423
-0.005566034421052631,-0.002050626277945577
-0.005565694421052631,-0.00165566358489161
-0.005565354421052632,-0.003038033010583008
-0.005565014421052631,-0.002149366951211284
-0.005564674421052631,-0.002873465221810222
-0.005564334421052632,-0.00313677368384668
-0.005563994421052631,-0.005539463399928929
-0.005563654421052631,-0.005309068495647449
-0.005563314421052632,-0.0007340839677640107
-0.005562974421052632,-0.001063219545308983
-0.005562634421052631,0.001043248150982073
-0.005562294421052632,-0.00313677368384668
-0.005561954421052632,-0.005704031188697464
-0.005561614421052631,-0.005704031188702134
-0.005561274421052632,-0.005440722726665677
-0.005560934421052632,-0.007975066673761966
-0.005560594421052631,-0.009094127637421515
-0.005560254421052632,-0.0120234342775771
-0.005559914421052632,-0.01205634783533159
-0.005559574421052631,-0.01185886648880431
-0.005559234421052632,-0.01185886648880431
-0.005558894421052632,-0.01139807668024135
-0.005558554421052631,-0.01044358350535836
-0.005558214421052632,-0.009554917445985316
-0.005557874421052632,-0.009324522541703836
-0.005557534421052631,-0.007547190422957332
-0.005557194421052632,-0.007448449749693661
-0.005556854421052632,-0.008633337828855562
-0.005556514421052631,-0.006362302343793276
-0.005556174421052632,-0.007283881960920875
-0.005555834421052632,-0.008172548020292301
-0.005555494421052631,-0.00837002936682126
-0.005555154421052632,-0.00837002936682126
-0.005554814421052632,-0.009456176772719668
-0.005554474421052631,-0.008896646290894173
-0.005554134421052632,-0.008435856482330374
-0.005553794421052632,-0.01060815129413114
-0.005553454421052631,-0.01406407485835964
-0.005553114421052632,-0.007316795518675433
-0.005552774421052632,-0.006691437921338847
-0.005552434421052631,-0.007810498884993789
-0.005552094421052632,-0.008007980231521132
-0.005551754421052632,-0.01416281553162331
-0.005551414421052631,-0.0145906917824283
-0.005551074421052632,-0.012253829181859
-0.005550734421052632,-0.01366911216530495
-0.005550394421052631,-0.01399824774284807
-0.005550054421052632,-0.01264879187491368
-0.005549714421052632,-0.01205634783533165
-0.005549374421052631,-0.01218800206634839
-0.005549034421052632,-0.01136516312248596
-0.005548694421052632,-0.01100311398718583
-0.005548354421052631,-0.01287918677919726
-0.005548014421052632,-0.01380076639632318
-0.005547674421052632,-0.01199052071982254
-0.005547334421052631,-0.01373493928081365
-0.005546994421052632,-0.01350454437653217
-0.005546654421052632,-0.0134058037032685
-0.005546314421052631,-0.01426155620488644
-0.005545974421052632,-0.01396533418509597
-0.005545634421052632,-0.01333997658775938
-0.005545294421052631,-0.01455777822467626
-0.005544954421052632,-0.01360328504979584
-0.005544614421052632,-0.01004862081230367
-0.005544274421052631,-0.01208926139308885
-0.005543934421052631,-0.01353745793428673
-0.005543594421052632,-0.0120234342775771
-0.005543254421052631,-0.01287918677919912
-0.005542914421052631,-0.01482108668671445
-0.005542574421052632,-0.005638204073193019
-0.005542234421052632,-0.007152227729899893
-0.005541894421052631,-0.006592697248075176
-0.005541554421052632,-0.009818225908021772
-0.005541214421052632,-0.01403116130059742
-0.005540874421052631,-0.01264879187491368
-0.005540534421052632,-0.01113476821820406
-0.005540194421052632,-0.01287918677919241
-0.005539854421052631,-0.0138665935118323
-0.005539514421052632,-0.01185886648880431
-0.005539174421052632,-0.01248422408613976
-0.005538834421052631,-0.01284627322144103
-0.005538494421052632,-0.01261587831715913
-0.005538154421052632,-0.01278044610593161
-0.005537814421052631,-0.01416281553162331
-0.005537474421052632,-0.01482108668671445
-0.005537134421052632,-0.01208926139309118
-0.005536794421052631,-0.01176012581554064
-0.005536454421052632,-0.01139807668024051
-0.005536114421052632,-0.01008153437006062
-0.005535774421052631,-0.01235256985512267
-0.005535434421052632,-0.009916966581285444
-0.005535094421052632,-0.009390349657213488
-0.005534754421052631,-0.0108714597561676
-0.005534414421052632,-0.01287918677919558
-0.005534074421052632,-0.009587831003745859
-0.005533734421052631,-0.01060815129413114
-0.005533394421052632,-0.01143099023799507
-0.005533054421052632,-0.0113322495647314
-0.005532714421052631,-0.01515022226426002
-0.005532374421052632,-0.01580849341935116
-0.005532034421052632,-0.01034484283209469
-0.005531694421052631,-0.01143099023799507
-0.005531354421052632,-0.01067397840964026
-0.005531014421052632,-0.01241839697063178
-0.005530674421052631,-0.01478817312895989
-0.005530334421052632,-0.01357037149204128
-0.005529994421052632,-0.01251713764389546
-0.005529654421052631,-0.01284627322144246
-0.005529314421052632,-0.0136361986075504
-0.005528974421052632,-0.01152973091125874
-0.005528634421052631,-0.01156264446901563
-0.005528294421052632,-0.01284627322144103
-0.005527954421052632,-0.01245131052838634
-0.005527614421052631,-0.01215508850859826
-0.005527274421052632,-0.01376785283856862
-0.005526934421052632,-0.01574266630384205
-0.005526594421052631,-0.01432738332039729
-0.005526254421052632,-0.01498565447548724
-0.005525914421052632,-0.01498565447548724
-0.005525574421052631,-0.01449195110916888
-0.005525234421052632,-0.01449195110916888
-0.005524894421052632,-0.01320832235674115
-0.005524554421052631,-0.01021318860107753
-0.005524214421052632,-0.01080563264065849
-0.005523874421052632,-0.01192469360431343
-0.005523534421052631,-0.01014736148556926
-0.005523194421052631,-0.01120059533371317
-0.005522854421052632,-0.01534770361078737
-0.005522514421052631,-0.02318113035640111
-0.005522174421052631,-0.03921003298284127
-0.005521834421052632,-0.05145387646753651
-0.005521494421052631,-0.0738021821829324
-0.005521154421052631,-0.102173668967309
-0.005520814421052632,-0.1347580911443206
-0.005520474421052632,-0.1697781165951056
-0.005520134421052631,-0.1990382694389706
-0.005519794421052632,-0.222637290348988
-0.005519454421052632,-0.2426816470214768
-0.005519114421052631,-0.2566699090672001
-0.005518774421052632,-0.2651286934101212
-0.005518434421052632,-0.2688150118786249
-0.005518094421052631,-0.2673339017796766
-0.005517754421052632,-0.2651286934101212
-0.005517414421052632,-0.2588092903212578
-0.005517074421052631,-0.2521278380970712
-0.005516734421052632,-0.2443273249092412
-0.005516394421052632,-0.2385345387444497
-0.005516054421052631,-0.2292200018998995
-0.005515714421052632,-0.2227689445800063
-0.005515374421052632,-0.2151329991809629
-0.005515034421052631,-0.205917203009673
-0.005514694421052632,-0.1996965405940617
-0.005514354421052632,-0.1940024951025337
-0.005514014421052631,-0.1866956852810117
-0.005513674421052632,-0.1791255669974635
-0.005513334421052632,-0.1760316925685408
-0.005512994421052631,-0.1690211047668145
-0.005512654421052632,-0.1620105169650938
-0.005512314421052632,-0.1566126934933465
-0.005511974421052631,-0.1518402276189357
-0.005511634421052632,-0.1515769191568992
-0.005511294421052632,-0.1423940365433778
-0.005510954421052631,-0.1354492758571663
-0.005510614421052632,-0.1302160201741917
-0.005510274421052632,-0.1276487626693362
-0.005509934421052631,-0.1275500219960725
-0.005509594421052632,-0.122316766313098
-0.005509254421052632,-0.1166556343793141
-0.005508914421052631,-0.1129693159107968
-0.005508574421052632,-0.1091513432112751
-0.005508234421052632,-0.1049713213764464
-0.005507894421052631,-0.101482484254454
-0.005507554421052632,-0.09634796924475242
-0.005507214421052632,-0.09239834231420554
-0.005506874421052631,-0.08867911028793286
-0.005506534421052632,-0.08443326133760273
-0.005506194421052632,-0.08074694286909234
-0.005505854421052631,-0.07870630228830196
-0.005505514421052632,-0.07439462622246282
-0.005505174421052632,-0.07255146698820761
-0.005504834421052631,-0.07245272631494085
-0.005504494421052632,-0.07074122131170699
-0.005504154421052632,-0.06902971630847002
-0.005503814421052631,-0.0696879874635585
-0.005503474421052632,-0.06823979092236063
-0.005503134421052632,-0.06491552158915037
-0.005502794421052631,-0.06323693014366276
-0.005502454421052632,-0.06037345061902149
-0.005502114421052632,-0.05721374907458401
-0.005501774421052631,-0.05612760166868763
-0.005501434421052631,-0.05833281003823895
-0.005501094421052632,-0.05537058984032881
-0.005500754421052631,-0.04783338511453428
-0.005500414421052631,-0.04730676819046232
-0.005500074421052632,-0.04391667174174294
-0.005499734421052632,-0.04589148520701277
-0.005499394421052631,-0.04914992742471751
-0.005499054421052632,-0.04506864626315243
-0.005498714421052632,-0.04283052433584662
-0.005498374421052631,-0.04365336327970648
-0.005498034421052632,-0.03874924317427747
-0.005497694421052632,-0.03795931778816954
-0.005497354421052631,-0.040493661735269
-0.005497014421052632,-0.03851884826999557
-0.005496674421052632,-0.03598450432289928
-0.005496334421052631,-0.03539206028331265
-0.005495994421052632,-0.03233109941213883
-0.005495654421052632,-0.03098164354420445
-0.005495314421052631,-0.03111329777522022
-0.005494974421052632,-0.02979675546503794
-0.005494634421052632,-0.02966510123401995
-0.005494294421052631,-0.03167282825704769
-0.005493954421052632,-0.03150826046827491
-0.005493614421052632,-0.02979675546504105
-0.005493274421052631,-0.03084998931318376
-0.005492934421052632,-0.03084998931318376
-0.005492594421052632,-0.02864478094363245
-0.005492254421052631,-0.02838147248159198
-0.005491914421052632,-0.02805233690404641
-0.005491574421052632,-0.02706493017141149
-0.005491234421052631,-0.02749280642221894
-0.005490894421052632,-0.03210070450785693
-0.005490554421052632,-0.02831564536608287
-0.005490214421052631,-0.02193041516169879
-0.005489874421052632,-0.02295073545209006
-0.005489534421052632,-0.02064678640927106
-0.005489194421052631,-0.02400396930023588
-0.005488854421052632,-0.02495846247511804
-0.005488514421052632,-0.0213050575643622
-0.005488174421052631,-0.02021891015846452
-0.005487834421052632,-0.02170002025741689
-0.005487494421052632,-0.01952772544561612
-0.005487154421052631,-0.01748708486483053
-0.005486814421052632,-0.01580849341935116
-0.005486474421052632,-0.01561101207282382
-0.005486134421052631,-0.01459069178243465
-0.005485794421052632,-0.01574266630384205
-0.005485454421052632,-0.01574266630384205
-0.005485114421052631,-0.01719086284504861
-0.005484774421052632,-0.02051513217825283
-0.005484434421052632,-0.02120631689109853
-0.005484094421052631,-0.02123923044885279
-0.005483754421052632,-0.0210746626600803
-0.005483414421052632,-0.0226874269900536
-0.005483074421052631,-0.02176584737292523
-0.005482734421052632,-0.02133797112211676
-0.005482394421052632,-0.02235829141250803
-0.005482054421052631,-0.01979103390765407
-0.005481714421052632,-0.0206138728515165
-0.005481374421052632,-0.01979103390765257
-0.005481034421052631,-0.0187707136172631
-0.005480694421052631,-0.01975812034989802
-0.005480354421052632,-0.0252217709371545
-0.005480014421052631,-0.01817826957767802
-0.005479674421052631,-0.01748708486483358
-0.005479334421052632,-0.01919858986807055
-0.005478994421052632,-0.01880362717501658
-0.005478654421052631,-0.02255577275903537
-0.005478314421052632,-0.02160127958415322
-0.005477974421052632,-0.01834283736645799
-0.005477634421052631,-0.01686172726749699
-0.005477294421052632,-0.01607180188138762
-0.005476954421052632,-0.01498565447548921
-0.005476614421052631,-0.01231965629736811
-0.005476274421052632,-0.01370202572305951
-0.005475934421052632,-0.01301084101021507
-0.005475594421052631,-0.01393242062734141
-0.005475254421052632,-0.01511730870650547
-0.005474914421052632,-0.01442612399366103
-0.005474574421052631,-0.01472234601345078
-0.005474234421052632,-0.01554518495731471
-0.005473894421052632,-0.01534770361078772
-0.005473554421052631,-0.01380076639632318
-0.005473214421052632,-0.0129450138947047
-0.005472874421052632,-0.01399824774284861
-0.005472534421052631,-0.01284627322144103
-0.005472194421052632,-0.01215508850859533
-0.005471854421052632,-0.01343871726102072
-0.005471514421052631,-0.01320832235674115
-0.005471174421052632,-0.01347163081877761
-0.005470834421052632,-0.01445903755141253
-0.005470494421052631,-0.01383367995407774
-0.005470154421052632,-0.01587432053486028
-0.005469814421052632,-0.01788204755788826
-0.005469474421052631,-0.008929559848648731
-0.005469134421052632,-0.00939034965721253
-0.005468794421052632,-0.01376785283856862
-0.005468454421052631,-0.01070689196739481
-0.005468114421052632,-0.007876326000502903
-0.005467774421052632,-0.008567510713348603
-0.005467434421052631,-0.009916966581285444
-0.005467094421052632,-0.009587831003739873
-0.005466754421052632,-0.01126642244922228
-0.005466414421052631,-0.01189178004656402
-0.005466074421052632,-0.01472234601345078
-0.005465734421052632,-0.01610471543914218
-0.005465394421052631,-0.01646676457444183
-0.005465054421052632,-0.01620345611240585
-0.005464714421052632,-0.01462360534018711
-0.005464374421052631,-0.01426155620488303
-0.005464034421052632,-0.01208926139308621
-0.005463694421052632,-0.01034484283209469
-0.005463354421052631,-0.01126642244921983
-0.005463014421052632,-0.009916966581285444
-0.005462674421052632,-0.01070689196739481
-0.005462334421052631,-0.01251713764389791
-0.005461994421052632,-0.0138665935118323
-0.005461654421052632,-0.01412990197386875
-0.005461314421052631,-0.01594014765036892
-0.005460974421052632,-0.01567683918833294
-0.005460634421052632,-0.01491982735997812
-0.005460294421052631,-0.01577557986159391
-0.005459954421052631,-0.01429446976264154
-0.005459614421052632,-0.01485400024446901
-0.005459274421052631,-0.009851139465778065
-0.005458934421052631,-0.01080563264065849
-0.005458594421052632,-0.007316795518675433
-0.005458254421052631,-0.007580103980722366
-0.005457914421052631,-0.01333997658775938
-0.005457574421052632,-0.01238548341287723
-0.005457234421052632,-0.01205634783533225
-0.005456894421052631,-0.01439321043590521
-0.005456554421052632,-0.01603888832363307
-0.005456214421052632,-0.01521604937977064
-0.005455874421052631,-0.01607180188138762
-0.005455534421052632,-0.01531479005303281
-0.005455194421052632,-0.01432738332039789
-0.005454854421052631,-0.01613762899689674
-0.005454514421052632,-0.01412990197386875
-0.005454174421052632,-0.01442612399365923
-0.005453834421052631,-0.01505148159099635
-0.005453494421052632,-0.0152489629375237
-0.005453154421052632,-0.01528187649527819
-0.005452814421052631,-0.01564392563057838
-0.005452474421052632,-0.01478817312895989
-0.005452134421052632,-0.01320832235674403
-0.005451794421052631,-0.0143273833203961
-0.005451454421052632,-0.009357436099457973
-0.005451114421052632,-0.01041066994760188
-0.005450774421052631,-0.01274753254817735
-0.005450434421052632,-0.01373493928081407
-0.005450094421052632,-0.01205634783533471
-0.005449754421052631,-0.01264879187491368
-0.005449414421052632,-0.01702629505626978
-0.005449074421052632,-0.01409698841611953
-0.005448734421052631,-0.008732078502121389
-0.005448394421052632,-0.009554917445985316
-0.005448054421052632,-0.007481363307448217
-0.005447714421052631,-0.01123350889146773
-0.005447374421052632,-0.01426155620488698
-0.005447034421052632,-0.01251713764389546
-0.005446694421052631,-0.01287918677919558
-0.005446354421052632,-0.01468943245569622
-0.005446014421052632,-0.014557778224678
-0.005445674421052631,-0.0148869138022247
-0.005445334421052632,-0.01551227139956015
-0.005444994421052632,-0.01488691380222357
-0.005444654421052631,-0.01399824774285052
-0.005444314421052632,-0.01399824774285052
-0.005443974421052632,-0.01373493928081407
-0.005443634421052631,-0.0114639037957525
-0.005443294421052632,-0.01304375456796837
-0.005442954421052632,-0.01343871726102305
-0.005442614421052631,-0.01218800206634779
-0.005442274421052632,-0.01103602754494038
-0.005441934421052632,-0.01106894110269494
-0.005441594421052631,-0.009752398792513975
-0.005441254421052632,-0.01047649706311291
-0.005440914421052632,-0.0113322495647314
-0.005440574421052631,-0.009916966581287899
-0.005440234421052632,-0.01126642244922228
-0.005439894421052632,-0.01212217495084077
-0.005439554421052631,-0.01172721225778608
-0.005439214421052632,-0.01172721225778608
-0.005438874421052632,-0.01610471543914218
-0.005438534421052631,-0.01011444792781129
-0.005438194421052631,-0.009291608983948858
-0.005437854421052632,-0.009752398792512659
-0.005437514421052631,-0.0106410648518942
-0.005437174421052631,-0.01531479005303281
-0.005436834421052632,-0.01534770361078737
-0.005436494421052632,-0.01307666812572706
-0.005436154421052631,-0.01176012581554064
-0.005435814421052632,-0.01320832235674115
-0.005435474421052632,-0.01291210033695068
-0.005435134421052631,-0.01195760716206798
-0.005434794421052632,-0.01208926139308621
-0.005434454421052632,-0.01245131052838568
-0.005434114421052631,-0.01192469360431343
-0.005433774421052632,-0.01258296475940457
-0.005433434421052632,-0.01544644428404583
-0.005433094421052631,-0.01357037149204128
-0.005432754421052632,-0.01478817312895989
-0.005432414421052632,-0.01531479005303185
-0.005432074421052631,-0.0150185680332418
-0.005431734421052632,-0.01452486466692344
-0.005431394421052632,-0.01511730870650439
-0.005431054421052631,-0.01383367995407774
-0.005430714421052632,-0.01291210033695014
-0.005430374421052632,-0.01373493928081257
-0.005430034421052631,-0.009916966581285444
-0.005429694421052632,-0.01080563264065849
-0.005429354421052632,-0.01116768177595795
-0.005429014421052631,-0.01080563264065849
-0.005428674421052632,-0.0106410648518857
-0.005428334421052632,-0.01643385101667721
-0.005427994421052631,-0.01310958168347748
-0.005427654421052632,-0.01143099023799507
-0.005427314421052632,-0.0129450138947047
-0.005426974421052631,-0.01182595293104976
-0.005426634421052632,-0.01574266630384205
-0.005426294421052632,-0.01712503572953345
-0.005425954421052631,-0.01518313582201458
-0.005425614421052632,-0.0138665935118323
-0.005425274421052632,-0.01491982735997812
-0.005424934421052631,-0.01528187649527825
-0.005424594421052632,-0.01468943245569622
-0.005424254421052632,-0.01422864264713243
-0.005423914421052631,-0.01393242062733985
-0.005423574421052632,-0.01307666812572293
-0.005423234421052632,-0.01376785283856862
-0.005422894421052631,-0.01488691380222171
-0.005422554421052632,-0.0138665935118323
-0.005422214421052632,-0.01330706303000483
-0.005421874421052631,-0.01442612399365845
-0.005421534421052632,-0.01370202572305951
-0.005421194421052632,-0.01284627322144103
-0.005420854421052631,-0.01320832235673882
-0.005420514421052632,-0.01192469360431343
-0.005420174421052632,-0.01123350889146773
-0.005419834421052631,-0.01383367995407702
-0.005419494421052632,-0.01343871726102305
-0.005419154421052632,-0.01320832235674115
-0.005418814421052631,-0.01393242062734279
-0.005418474421052632,-0.01468943245569622
-0.005418134421052632,-0.01597306120812395
-0.005417794421052631,-0.0145248646669126
-0.005417454421052631,-0.008567510713348603
-0.005417114421052632,-0.006329388786038719
-0.005416774421052631,-0.006000253208499853
-0.005416434421052631,-0.009686571677003543
-0.005416094421052632,-0.01169429870003153
