Analysis/files/cmb03_d2s01/wrd04_ch17.csv

#Digilent WaveForms Oscilloscope Acquisition
#Device Name: ADP3450
#Serial Number: SN:210018B9D9B0
#Date Time: 2024-08-09 15:13:08.016.572.010
#Sample rate: 2.94118e+06Hz
#Samples: 32768
#Trigger: Source: Channel 3 Type: Edge Condition: Rising Level: 20 mV Hyst.: Auto HoldOff: 0 s
#Channel 3: Range: 200 mV/div Offset: 0 V Attenuation: 1 X Coupling: DC Bandwidth: 0 Hz Sample Mode: Average

Time (s),Channel 3 (V)
-0.005570321930184806,0.01012739009123984
-0.005569981930184805,0.007823441048420058
-0.005569641930184805,0.007395564797611595
-0.005569301930184806,0.006671466527011338
-0.005568961930184805,0.005058702197035047
-0.005568621930184805,0.003413024309310185
-0.005568281930184805,0.004564998830719684
-0.005567941930184805,0.003149715847271752
-0.005567601930184805,0.002063568441373343
-0.005567261930184805,-0.0002403806014456541
-0.005566921930184805,0.005519492005602019
-0.005566581930184805,0.005618232678865511
-0.005566241930184805,0.0009445074777184018
-0.005565901930184805,0.001866087094845761
-0.005565561930184805,0.001734432863827772
-0.005565221930184805,0.001240729497509416
-0.005564881930184805,-0.0005695161789917042
-0.005564541930184805,-0.000832824641027682
-0.005564201930184805,-0.0007999110832731249
-0.005563861930184805,-0.003005119452828631
-0.005563521930184805,-0.003103860126092122
-0.005563181930184805,-0.00188605848917351
-0.005562841930184806,-0.00270889743303594
-0.005562501930184805,-0.003663390607919593
-0.005562161930184805,-0.003630477050165036
-0.005561821930184806,-0.003663390607919534
-0.005561481930184805,-0.002840551664055666
-0.005561141930184805,-0.002281021182228195
-0.005560801930184806,-0.003334255030372106
-0.005560461930184805,-0.004881192244838206
-0.005560121930184805,-0.004058353300974278
-0.005559781930184806,-0.003696304165674809
-0.005559441930184805,-0.00665852436358429
-0.005559101930184805,-0.005802771861965805
-0.005558761930184806,-0.004519143109540413
-0.005558421930184805,-0.003795044838937822
-0.005558081930184805,-0.004025439743219721
-0.005557741930184806,-0.003367168588129777
-0.005557401930184805,-0.005243241380138334
-0.005557061930184805,-0.004255834647501621
-0.005556721930184806,-0.003729217723429666
-0.005556381930184805,-0.006066080324002262
-0.005556041930184805,-0.006164820997265934
-0.005555701930184806,-0.005473636284421492
-0.005555361930184805,-0.005440722726665677
-0.005555021930184805,-0.007777585327239231
-0.005554681930184806,-0.007020573498885796
-0.005554341930184805,-0.008139634462539359
-0.005554001930184805,-0.009752398792512659
-0.005553661930184806,-0.008534597155594046
-0.005553321930184805,-0.01050941062086747
-0.005552981930184805,-0.01301084101021381
-0.005552641930184806,-0.01050941062086747
-0.005552301930184805,-0.008633337828857716
-0.005551961930184805,-0.008863732733139616
-0.005551621930184806,-0.004914105802592763
-0.005551281930184805,-0.008304202251317833
-0.005550941930184805,-0.01143099023799507
-0.005550601930184806,-0.007349709076429989
-0.005550261930184805,-0.007613017538470398
-0.005549921930184805,-0.009785312350267215
-0.005549581930184806,-0.008172548020293918
-0.005549241930184805,-0.006197734555020371
-0.005548901930184805,-0.006131907439511376
-0.005548561930184806,-0.006230648112775047
-0.005548221930184805,-0.004420402436274706
-0.005547881930184805,-0.004584970225047193
-0.005547541930184806,-0.005736944746456691
-0.005547201930184805,-0.004848278687084786
-0.005546861930184805,-0.005473636284420234
-0.005546521930184805,-0.007086400614393532
-0.005546181930184805,-0.007185141287657802
-0.005545841930184805,-0.007514276865202775
-0.005545501930184805,-0.009094127637421515
-0.005545161930184805,-0.008435856482328698
-0.005544821930184805,-0.007514276865202775
-0.005544481930184805,-0.008666251386612273
-0.005544141930184805,-0.008732078502120251
-0.005543801930184805,-0.008106720904784802
-0.005543461930184805,-0.009916966581285444
-0.005543121930184805,-0.008962473406409934
-0.005542781930184805,-0.01261587831715913
-0.005542441930184805,-0.01343871726102305
-0.005542101930184806,-0.008106720904794501
-0.005541761930184805,-0.006362302343793276
-0.005541421930184805,-0.006856005710111633
-0.005541081930184806,-0.008995386964153954
-0.005540741930184805,-0.01212217495084077
-0.005540401930184805,-0.01350454437653217
-0.005540061930184806,-0.01041066994760943
-0.005539721930184805,-0.01004862081230367
-0.005539381930184805,-0.006526870132566062
-0.005539041930184806,-0.008468770040081399
-0.005538701930184805,-0.009554917445985316
-0.005538361930184805,-0.009028300521912402
-0.005538021930184806,-0.009752398792511342
-0.005537681930184805,-0.008468770040084931
-0.005537341930184805,-0.009456176772721644
-0.005537001930184806,-0.01120059533371
-0.005536661930184805,-0.01024610215883101
-0.005536321930184805,-0.01126642244922228
-0.005535981930184806,-0.01044358350535985
-0.005535641930184805,-0.009818225908021772
-0.005535301930184805,-0.008929559848648731
-0.005534961930184806,-0.009949880139038145
-0.005534621930184805,-0.009949880139040001
-0.005534281930184805,-0.009719485234758102
-0.005533941930184806,-0.01083854619841101
-0.005533601930184805,-0.01152973091125874
-0.005533261930184805,-0.01004862081230367
-0.005532921930184806,-0.009587831003739873
-0.005532581930184805,-0.0104106699476038
-0.005532241930184805,-0.009884053023530886
-0.005531901930184806,-0.0124842240861409
-0.005531561930184805,-0.006461043017056948
-0.005531221930184805,-0.006362302343793276
-0.005530881930184806,-0.006395215901547833
-0.005530541930184805,-0.00688891926786619
-0.005530201930184805,-0.00962074456149443
-0.005529861930184806,-0.009653658119248986
-0.005529521930184805,-0.008995386964156648
-0.005529181930184805,-0.008337115809066702
-0.005528841930184806,-0.009456176772721644
-0.005528501930184805,-0.01011444792781327
-0.005528161930184805,-0.01037775638984924
-0.005527821930184806,-0.01159555802676786
-0.005527481930184805,-0.01205634783533076
-0.005527141930184805,-0.0115626444690133
-0.005526801930184806,-0.01070689196739481
-0.005526461930184805,-0.01251713764389246
-0.005526121930184805,-0.0108714597561676
-0.005525781930184805,-0.008797905617630502
-0.005525441930184805,-0.009159954752931588
-0.005525101930184805,-0.009686571677003543
-0.005524761930184805,-0.009522003888230759
-0.005524421930184805,-0.009094127637425885
-0.005524081930184805,-0.01149681735350419
-0.005523741930184805,-0.009686571677003543
-0.005523401930184805,-0.0124842240861412
-0.005523061930184805,-0.01264879187491368
-0.005522721930184805,-0.01333997658775938
-0.005522381930184805,-0.01794787467341767
-0.005522041930184805,-0.02910557075219224
-0.005521701930184805,-0.04845874271187182
-0.005521361930184805,-0.06652828591916761
-0.005521021930184805,-0.09068683731096858
-0.005520681930184805,-0.1201444715012972
-0.005520341930184806,-0.1516427462723511
-0.005520001930184805,-0.1862678090302024
-0.005519661930184805,-0.2135531484087303
-0.005519321930184806,-0.2327746661373566
-0.005518981930184805,-0.2493630992456884
-0.005518641930184805,-0.2606853631132561
-0.005518301930184806,-0.2635488426378973
-0.005517961930184805,-0.2647337307170666
-0.005517621930184805,-0.2618702511924201
-0.005517281930184806,-0.2577889700308625
-0.005516941930184805,-0.2513049991532073
-0.005516601930184805,-0.2444918926980139
-0.005516261930184806,-0.238271230282414
-0.005515921930184805,-0.2318860000780186
-0.005515581930184805,-0.2258957325666892
-0.005515241930184806,-0.2182927007254003
-0.005514901930184805,-0.2100972248445018
-0.005514561930184805,-0.2068058690690461
-0.005514221930184806,-0.1961747899143435
-0.005513881930184805,-0.1887363258617942
-0.005513541930184805,-0.1844575633537018
-0.005513201930184806,-0.1769861857434309
-0.005512861930184805,-0.1714896215984063
-0.005512521930184805,-0.1665525879352227
-0.005512181930184806,-0.160957283116948
-0.005511841930184805,-0.1547037071435822
-0.005511501930184805,-0.1505895124242625
-0.005511161930184806,-0.1484172176124618
-0.005510821930184805,-0.1362062876855211
-0.005510481930184805,-0.1300843659431734
-0.005510141930184806,-0.1243244933361259
-0.005509801930184805,-0.1199140765970153
-0.005509461930184805,-0.1204077799633337
-0.005509121930184806,-0.1172151648611416
-0.005508781930184805,-0.110994502445527
-0.005508441930184805,-0.1091513432112751
-0.005508101930184806,-0.1076373195545655
-0.005507761930184805,-0.1029306807956594
-0.005507421930184805,-0.1004950775218266
-0.005507081930184806,-0.09717080818861634
-0.005506741930184805,-0.0930236999115359
-0.005506401930184805,-0.0896006899050682
-0.005506061930184806,-0.08578271720553957
-0.005505721930184805,-0.08186600383274058
-0.005505381930184805,-0.07817968536423689
-0.005505041930184805,-0.07706062440058195
-0.005504701930184805,-0.07120201112026532
-0.005504361930184805,-0.06820687736460609
-0.005504021930184805,-0.06669285370789646
-0.005503681930184805,-0.0650142622624104
-0.005503341930184805,-0.06300653523938607
-0.005503001930184805,-0.06244700475755859
-0.005502661930184805,-0.06195330139123526
-0.005502321930184805,-0.05922147609761199
-0.005501981930184805,-0.05846446426925718
-0.005501641930184805,-0.05573263897562637
-0.005501301930184805,-0.05431735599218298
-0.005500961930184805,-0.0564567372462292
-0.005500621930184805,-0.05632508301519677
-0.005500281930184805,-0.04852456982738093
-0.005499941930184805,-0.04859039694289004
-0.005499601930184806,-0.04733968174821915
-0.005499261930184805,-0.05040064261939069
-0.005498921930184805,-0.05151970358304563
-0.005498581930184806,-0.04845874271187738
-0.005498241930184805,-0.04496990558988876
-0.005497901930184805,-0.04503573270539787
-0.005497561930184806,-0.04444328866581693
-0.005497221930184805,-0.04036200750425076
-0.005496881930184805,-0.03779474999939531
-0.005496541930184806,-0.03769600932613183
-0.005496201930184805,-0.0347337891282215
-0.005495861930184805,-0.02673579459386412
-0.005495521930184806,-0.02933596565646941
-0.005495181930184805,-0.02716367084467337
-0.005494841930184805,-0.02716367084467337
-0.005494501930184806,-0.02713075728691887
-0.005494161930184805,-0.0270649301714097
-0.005493821930184805,-0.02680162170937324
-0.005493481930184806,-0.02943470632973302
-0.005493141930184805,-0.03009297748482895
-0.005492801930184805,-0.02900683007892857
-0.005492461930184806,-0.03015880460033597
-0.005492121930184805,-0.02900683007892857
-0.005491781930184805,-0.02778902844200995
-0.005491441930184806,-0.0284472995970999
-0.005491101930184805,-0.02719658440242792
-0.005490761930184805,-0.02611043699652754
-0.005490421930184806,-0.03108038421746566
-0.005490081930184805,-0.02861186738587388
-0.005489741930184805,-0.02295073545209006
-0.005489401930184806,-0.02265451343229904
-0.005489061930184805,-0.02173293381517144
-0.005488721930184805,-0.02420145064676323
-0.005488381930184806,-0.02331278458739018
-0.005488041930184805,-0.02025182371621524
-0.005487701930184805,-0.01962646611887979
-0.005487361930184806,-0.02100883554457119
-0.005487021930184805,-0.01985686102315918
-0.005486681930184805,-0.01847449159747029
-0.005486341930184806,-0.01821118313543383
-0.005486001930184805,-0.02061387285151261
-0.005485661930184805,-0.01847449159747029
-0.005485321930184806,-0.01653259168995142
-0.005484981930184805,-0.01788204755788892
-0.005484641930184805,-0.01824409669318839
-0.005484301930184806,-0.01811244246217016
-0.005483961930184805,-0.01814535601992376
-0.005483621930184805,-0.01761873909585181
-0.005483281930184805,-0.01620345611240585
-0.005482941930184805,-0.0164009374589329
-0.005482601930184805,-0.01623636967016041
-0.005482261930184805,-0.01373493928081407
-0.005481921930184805,-0.01353745793428864
-0.005481581930184805,-0.01459069178243255
-0.005481241930184805,-0.01376785283856862
-0.005480901930184805,-0.01307666812572293
-0.005480561930184805,-0.01307666812572293
-0.005480221930184805,-0.0150185680332418
-0.005479881930184805,-0.01965937967662315
-0.005479541930184805,-0.01350454437653217
-0.005479201930184805,-0.01136516312248596
-0.005478861930184806,-0.010838546198414
-0.005478521930184805,-0.01393242062734141
-0.005478181930184805,-0.01768456621136092
-0.005477841930184806,-0.01429446976264771
-0.005477501930184805,-0.01281335966368647
-0.005477161930184805,-0.01383367995407774
-0.005476821930184806,-0.01343871726102377
-0.005476481930184805,-0.0115626444690133
-0.005476141930184805,-0.01083854619841304
-0.005475801930184806,-0.009884053023532622
-0.005475461930184805,-0.01120059533371317
-0.005475121930184805,-0.01129933600697684
-0.005474781930184806,-0.01008153437006044
-0.005474441930184805,-0.01195760716206798
-0.005474101930184805,-0.01373493928081407
-0.005473761930184806,-0.01264879187491566
-0.005473421930184805,-0.01228674273961356
-0.005473081930184805,-0.01287918677919558
-0.005472741930184806,-0.01241839697063262
-0.005472401930184805,-0.01310958168347748
-0.005472061930184805,-0.01422864264713243
-0.005471721930184806,-0.01327414947225201
-0.005471381930184805,-0.01320832235674115
-0.005471041930184805,-0.01439321043590521
-0.005470701930184806,-0.01442612399365971
-0.005470361930184805,-0.0143273833203961
-0.005470021930184805,-0.01465651889794167
-0.005469681930184806,-0.01860614582848852
-0.005469341930184805,-0.01702629505626978
-0.005469001930184805,-0.01291210033695014
-0.005468661930184806,-0.01097020042943127
-0.005468321930184805,-0.009785312350267215
-0.005467981930184805,-0.01353745793428673
-0.005467641930184806,-0.01551227139956015
-0.005467301930184805,-0.01136516312248596
-0.005466961930184805,-0.01047649706311291
-0.005466621930184806,-0.0124842240861409
-0.005466281930184805,-0.01179303937329448
-0.005465941930184805,-0.01139807668024051
-0.005465601930184806,-0.01103602754494038
-0.005465261930184805,-0.01021318860107867
-0.005464921930184805,-0.01143099023799507
-0.005464581930184806,-0.0115626444690133
-0.005464241930184805,-0.01004862081230134
-0.005463901930184805,-0.008764992059875945
-0.005463561930184806,-0.01014736148556734
-0.005463221930184805,-0.01027901571658354
-0.005462881930184805,-0.009159954752930631
-0.005462541930184805,-0.009324522541703417
-0.005462201930184805,-0.009719485234757743
-0.005461861930184805,-0.009522003888230759
-0.005461521930184805,-0.01199052071982254
-0.005461181930184805,-0.01172721225778597
-0.005460841930184805,-0.01166138514227697
-0.005460501930184805,-0.01403116130060508
-0.005460161930184805,-0.01357037149203913
-0.005459821930184805,-0.01238548341287723
-0.005459481930184805,-0.01264879187491368
-0.005459141930184805,-0.01765165265360169
-0.005458801930184805,-0.01508439514875091
-0.005458461930184805,-0.01070689196739481
-0.005458121930184805,-0.01034484283209002
-0.005457781930184805,-0.007777585327239231
-0.005457441930184805,-0.009028300521912402
-0.005457101930184806,-0.01034484283209229
-0.005456761930184805,-0.006493956574811504
-0.005456421930184805,-0.004749538013819977
-0.005456081930184806,-0.007909239558251712
-0.005455741930184805,-0.008435856482330374
-0.005455401930184805,-0.008666251386612273
-0.005455061930184806,-0.009587831003738197
-0.005454721930184805,-0.01027901571658557
-0.005454381930184805,-0.009982793696794558
-0.005454041930184806,-0.01083854619841149
-0.005453701930184805,-0.01166138514227697
-0.005453361930184805,-0.01129933600697684
-0.005453021930184806,-0.01320832235673768
-0.005452681930184805,-0.01324123591449571
-0.005452341930184805,-0.007843412442748346
-0.005452001930184806,-0.01004862081229966
-0.005451661930184805,-0.01389950706958685
-0.005451321930184805,-0.0127146189904228
-0.005450981930184806,-0.01258296475940481
-0.005450641930184805,-0.01251713764389546
-0.005450301930184805,-0.0117930393732952
-0.005449961930184806,-0.01162847158452271
-0.005449621930184805,-0.01139807668024051
-0.005449281930184805,-0.009851139465776329
-0.005448941930184806,-0.01169429870002817
-0.005448601930184805,-0.01482108668671445
-0.005448261930184805,-0.00767884465397556
-0.005447921930184806,-0.005078673591365549
-0.005447581930184805,-0.006592697248075176
-0.005447241930184805,-0.007481363307448217
-0.005446901930184806,-0.01146390379574963
-0.005446561930184805,-0.01067397840964026
-0.005446221930184805,-0.009522003888230759
-0.005445881930184806,-0.01001570725454911
-0.005445541930184805,-0.01215508850859275
-0.005445201930184805,-0.01073980552514937
-0.005444861930184806,-0.008271288693557588
-0.005444521930184805,-0.009390349657215165
-0.005444181930184805,-0.01083854619841304
-0.005443841930184806,-0.01060815129413114
-0.005443501930184805,-0.01041066994760422
-0.005443161930184805,-0.0106410648518857
-0.005442821930184806,-0.01027901571658557
-0.005442481930184805,-0.01258296475940415
-0.005442141930184805,-0.01235256985512267
-0.005441801930184805,-0.009916966581285444
-0.005441461930184805,-0.01057523773637904
-0.005441121930184805,-0.01192469360431343
-0.005440781930184805,-0.01004862081230367
-0.005440441930184805,-0.008995386964158504
-0.005440101930184805,-0.009357436099457973
-0.005439761930184805,-0.008238375135803031
-0.005439421930184805,-0.009061214079667557
-0.005439081930184805,-0.00939034965721253
-0.005438741930184805,-0.005572376957683906
-0.005438401930184805,-0.008402942924583361
-0.005438061930184805,-0.01255005120165001
-0.005437721930184805,-0.004881192244838206
-0.005437381930184805,-0.005374895611165304
-0.005437041930184805,-0.0101802750433219
-0.005436701930184805,-0.01146390379574963
-0.005436361930184806,-0.01018027504332424
-0.005436021930184805,-0.01176012581554064
-0.005435681930184805,-0.0111018546604495
-0.005435341930184806,-0.011068941102695
-0.005435001930184805,-0.01054232417862203
-0.005434661930184805,-0.01152973091125874
-0.005434321930184806,-0.009982793696797372
-0.005433981930184805,-0.009719485234758102
-0.005433641930184805,-0.0113322495647314
-0.005433301930184806,-0.009982793696797013
-0.005432961930184805,-0.009291608983948858
-0.005432621930184805,-0.009785312350267215
-0.005432281930184806,-0.008929559848650287
-0.005431941930184805,-0.008797905617630502
-0.005431601930184805,-0.009159954752930631
-0.005431261930184806,-0.008468770040086188
-0.005430921930184805,-0.00767884465397556
-0.005430581930184805,-0.009916966581285444
-0.005430241930184806,-0.009554917445985975
-0.005429901930184805,-0.008995386964157845
-0.005429561930184805,-0.009982793696794558
-0.005429221930184806,-0.008106720904788214
-0.005428881930184805,-0.008337115809066702
-0.005428541930184805,-0.008863732733139616
-0.005428201930184806,-0.008929559848648612
-0.005427861930184805,-0.01093728687167671
-0.005427521930184805,-0.007316795518675433
-0.005427181930184806,-0.009851139465776329
-0.005426841930184805,-0.007448449749693661
-0.005426501930184805,-0.006296475228284162
-0.005426161930184806,-0.01169429870003153
-0.005425821930184805,-0.01011444792781279
-0.005425481930184805,-0.007349709076429989
-0.005425141930184806,-0.008337115809066702
-0.005424801930184805,-0.007810498884993789
-0.005424461930184805,-0.007777585327239231
-0.005424121930184806,-0.007975066673766575
-0.005423781930184805,-0.007678844653974902
-0.005423441930184805,-0.007316795518675433
-0.005423101930184806,-0.00962074456149443
-0.005422761930184805,-0.009061214079667378
-0.005422421930184805,-0.009291608983948858
-0.005422081930184806,-0.009949880139040001
-0.005421741930184805,-0.01126642244922139
-0.005421401930184805,-0.01077271908290393
-0.005421061930184806,-0.01162847158452241
-0.005420721930184805,-0.01182595293104952
-0.005420381930184805,-0.01169429870003153
-0.005420041930184805,-0.01373493928081407
-0.005419701930184805,-0.01202343427757393
-0.005419361930184805,-0.01027901571658557
-0.005419021930184805,-0.0111018546604495
-0.005418681930184805,-0.01159555802676648
-0.005418341930184805,-0.01083854619841304
-0.005418001930184805,-0.01050941062086747
-0.005417661930184805,-0.01715794928728621
-0.005417321930184805,-0.01617054255465129
-0.005416981930184805,-0.01189178004655887
-0.005416641930184805,-0.01156264446900839
