Analysis/files/cmb03_d2s01/wrd06_ch29.csv

#Digilent WaveForms Oscilloscope Acquisition
#Device Name: ADP3450
#Serial Number: SN:210018B9D9B0
#Date Time: 2024-08-09 18:17:01.344.974.260
#Sample rate: 2.94118e+06Hz
#Samples: 32768
#Trigger: Source: Channel 3 Type: Edge Condition: Rising Level: 60 mV Hyst.: Auto HoldOff: 0 s
#Channel 3: Range: 200 mV/div Offset: -20 mV Attenuation: 1 X Coupling: DC Bandwidth: 0 Hz Sample Mode: Average

Time (s),Channel 3 (V)
-0.005570463418013857,0.0002572198223623791
-0.005570123418013857,0.005523389063091694
-0.005569783418013857,0.005622129736355185
-0.005569443418013857,0.002199119729881245
-0.005569103418013857,0.001902897710084606
-0.005568763418013857,-0.001190976718838135
-0.005568423418013857,0.0003559604956260495
-0.005568083418013857,0.005885438198377155
-0.005567743418013857,-0.002079642778211176
-0.005567403418013857,-0.006621713748340058
-0.005567063418013857,-0.002836654606561559
-0.005566723418013857,-0.0004010513327287642
-0.005566383418013857,-0.003330357972884349
-0.005566043418013857,-0.001783420758420104
-0.005565703418013857,-0.001750507200665607
-0.005565363418013857,-0.003429098646148019
-0.005565023418013857,-0.0029024817220781
-0.005564683418013857,-0.004548159609802961
-0.005564343418013857,-0.007444552692203985
-0.005564003418013857,-0.009024403464419253
-0.005563663418013857,-0.007115417114658414
-0.005563323418013857,-0.009847242408286654
-0.005562983418013858,-0.01027511865909512
-0.005562643418013857,-0.009123144137686397
-0.005562303418013857,-0.009978896639304884
-0.005561963418013858,-0.009123144137687953
-0.005561623418013857,-0.008892749233404499
-0.005561283418013857,-0.009419366157477412
-0.005560943418013858,-0.008596527213614981
-0.005560603418013857,-0.007345812018940315
-0.005560263418013857,-0.007872428943013227
-0.005559923418013858,-0.007971169616276717
-0.005559583418013857,-0.005930529035494358
-0.005559243418013857,-0.007279984903431201
-0.005558903418013857,-0.01287528972169573
-0.005558563418013857,-0.00783951538525867
-0.005558223418013857,-0.005338084995912332
-0.005557883418013857,-0.004712727398576883
-0.005557543418013857,-0.003165790184111561
-0.005557203418013857,-0.007543293365467656
-0.005556863418013857,-0.007872428943012629
-0.005556523418013857,-0.003725320665939034
-0.005556183418013857,-0.004811468071839416
-0.005555843418013857,-0.007806601827498665
-0.005555503418013857,-0.007872428943013227
-0.005555163418013857,-0.006490059517321831
-0.005554823418013857,-0.00935353904196309
-0.005554483418013857,-0.009188971253195514
-0.005554143418013857,-0.008662354329122598
-0.005553803418013857,-0.009945983081550328
-0.005553463418013857,-0.009419366157477412
-0.005553123418013857,-0.008102823847295128
-0.005552783418013857,-0.010044723754814
-0.005552443418013857,-0.01014346442807767
-0.005552103418013857,-0.009978896639304884
-0.005551763418013857,-0.01063716779439602
-0.005551423418013857,-0.01175622875805025
-0.005551083418013857,-0.01136126606499628
-0.005550743418013857,-0.01241449991314211
-0.005550403418013857,-0.01290820327945849
-0.005550063418013857,-0.01182205587356008
-0.005549723418013857,-0.01254615414416034
-0.005549383418013857,-0.01083464914092241
-0.005549043418013857,-0.01030803221685045
-0.005548703418013857,-0.01629829972817985
-0.005548363418013857,-0.01751610136508762
-0.005548023418013857,-0.01155874741152362
-0.005547683418013857,-0.01136126606499628
-0.005547343418013857,-0.01020929154358978
-0.005547003418013857,-0.01185496943131464
-0.005546663418013857,-0.01442222693617009
-0.005546323418013857,-0.01284237616394686
-0.005545983418013857,-0.01037385933235957
-0.005545643418013857,-0.009913069523795767
-0.005545303418013857,-0.01241449991314229
-0.005544963418013857,-0.01251324058640578
-0.005544623418013857,-0.0102751186590959
-0.005544283418013857,-0.01034094577460501
-0.005543943418013857,-0.01034094577460501
-0.005543603418013857,-0.01024220510134134
-0.005543263418013857,-0.01106504404520539
-0.005542923418013857,-0.01113087116071438
-0.005542583418013857,-0.01040677289011413
-0.005542243418013858,-0.01198662366232999
-0.005541903418013857,-0.0130398575104787
-0.005541563418013857,-0.01241449991314211
-0.005541223418013858,-0.01320442529925004
-0.005540883418013857,-0.01498175741799757
-0.005540543418013857,-0.01452096760943376
-0.005540203418013858,-0.01373104222332583
-0.005539863418013857,-0.01287528972170591
-0.005539523418013857,-0.01192079654682375
-0.005539183418013858,-0.01063716779439836
-0.005538843418013857,-0.009518106830741082
-0.005538503418013857,-0.008366132309331583
-0.005538163418013857,-0.01090047625642787
-0.005537823418013857,-0.005733047688967017
-0.005537483418013857,-0.002474605471265861
-0.005537143418013857,-0.005963442593242569
-0.005536803418013857,-0.008168650962804242
-0.005536463418013857,-0.0070495899991493
-0.005536123418013857,-0.008728181444628658
-0.005535783418013857,-0.01053842712113235
-0.005535443418013857,-0.01007763731256855
-0.005535103418013857,-0.009287711926460621
-0.005534763418013857,-0.01116378471846894
-0.005534423418013857,-0.0121182778933511
-0.005534083418013857,-0.01017637798583576
-0.005533743418013857,-0.01083464914092337
-0.005533403418013857,-0.01284237616395135
-0.005533063418013857,-0.01629829972817985
-0.005532723418013857,-0.01067008135215058
-0.005532383418013857,-0.01261198125966945
-0.005532043418013857,-0.01060425423664147
-0.005531703418013857,-0.01060425423664147
-0.005531363418013857,-0.01580459636186149
-0.005531023418013857,-0.01343482020353338
-0.005530683418013857,-0.01011055087032311
-0.005530343418013857,-0.01185496943131464
-0.005530003418013857,-0.01327025241476059
-0.005529663418013857,-0.01146000673825894
-0.005529323418013857,-0.01090047625643248
-0.005528983418013857,-0.0116574880847873
-0.005528643418013857,-0.01201953722008563
-0.005528303418013857,-0.01103213048745071
-0.005527963418013857,-0.01169040164254185
-0.005527623418013857,-0.01076882202541707
-0.005527283418013857,-0.01231575923987844
-0.005526943418013857,-0.01300694395272414
-0.005526603418013857,-0.01215119145110661
-0.005526263418013857,-0.01267780837517857
-0.005525923418013857,-0.0121182778933511
-0.005525583418013857,-0.011032130487447
-0.005525243418013857,-0.008991489906668169
-0.005524903418013857,-0.009913069523795767
-0.005524563418013857,-0.00790534250076976
-0.005524223418013857,-0.008991489906668169
-0.005523883418013857,-0.009945983081550328
-0.005523543418013857,-0.01093338981419835
-0.005523203418013857,-0.01715405222979833
-0.005522863418013857,-0.03308421418300397
-0.005522523418013857,-0.05102210315927029
-0.005522183418013857,-0.06899290569322578
-0.005521843418013857,-0.0982859720947816
-0.005521503418013857,-0.1304425180210508
-0.005521163418013857,-0.1672069620328242
-0.005520823418013857,-0.1997255570943266
-0.005520483418013858,-0.2229625288690017
-0.005520143418013857,-0.2439942922742059
-0.005519803418013857,-0.2604510711514845
-0.005519463418013858,-0.2697985215537617
-0.005519123418013857,-0.2704238791511153
-0.005518783418013857,-0.2704567927088699
-0.005518443418013858,-0.2690744232831809
-0.005518103418013857,-0.2642690438510131
-0.005517763418013857,-0.2575546780690834
-0.005517423418013858,-0.2523872495016274
-0.005517083418013857,-0.2462982413170249
-0.005516743418013857,-0.2390901721687769
-0.005516403418013857,-0.23201375725156
-0.005516063418013857,-0.2225346526182347
-0.005515723418013857,-0.2150303614501957
-0.005515383418013857,-0.2076906380709428
-0.005515043418013857,-0.2000217791141176
-0.005514703418013857,-0.1914971676556873
-0.005514363418013857,-0.1852106781245784
-0.005514023418013857,-0.1783646581116191
-0.005513683418013857,-0.1714198974254075
-0.005513343418013857,-0.1672398755905863
-0.005513003418013857,-0.1599001522113125
-0.005512663418013857,-0.1560163523962748
-0.005512323418013857,-0.1552922541256745
-0.005511983418013857,-0.1448915698752345
-0.005511643418013857,-0.1360707363970132
-0.005511303418013857,-0.131100789176075
-0.005510963418013857,-0.1274802978230738
-0.005510623418013857,-0.1254725708000458
-0.005510283418013857,-0.1211279811764442
-0.005509943418013857,-0.113788257797178
-0.005509603418013857,-0.1089170512495035
-0.005509263418013857,-0.1055269548007842
-0.005508923418013857,-0.1031571786424457
-0.005508583418013857,-0.09746313315091767
-0.005508243418013857,-0.09621241795624449
-0.005507903418013857,-0.09384264179791221
-0.005507563418013857,-0.09153869275509741
-0.005507223418013857,-0.08926765727003294
-0.005506883418013857,-0.08666748620741589
-0.005506543418013857,-0.0827836863923852
-0.005506203418013857,-0.07992020686773874
-0.005505863418013857,-0.07722129513185839
-0.005505523418013857,-0.07356789022110921
-0.005505183418013857,-0.07083606492748099
-0.005504843418013857,-0.07027653444565093
-0.005504503418013857,-0.06886125146220753
-0.005504163418013857,-0.06645856174612488
-0.005503823418013857,-0.06573446347552264
-0.005503483418013857,-0.06464831606962423
-0.005503143418013857,-0.06175192298722321
-0.005502803418013857,-0.06004041798397445
-0.005502463418013857,-0.05355644710633849
-0.005502123418013857,-0.05892135702033131
-0.005501783418013857,-0.0575060740368739
-0.005501443418013857,-0.05121958450576494
-0.005501103418013857,-0.04753326603725454
-0.005500763418013857,-0.04555845257198747
-0.005500423418013857,-0.04904728969396416
-0.005500083418013857,-0.04624963728482682
-0.005499743418013858,-0.04078598669758027
-0.005499403418013857,-0.04151008496817059
-0.005499063418013857,-0.03943653082963349
-0.005498723418013858,-0.03795542073068112
-0.005498383418013857,-0.03703384111355083
-0.005498043418013857,-0.03703384111355083
-0.005497703418013858,-0.03667179197825136
-0.005497363418013857,-0.03716549534456905
-0.005497023418013857,-0.03601352082315955
-0.005496683418013858,-0.0354869038990876
-0.005496343418013857,-0.03542107678357753
-0.005496003418013857,-0.0348286327439955
-0.005495663418013857,-0.03324878197177963
-0.005495323418013857,-0.0329854735097403
-0.005494983418013857,-0.03097774648671232
-0.005494643418013857,-0.02867379744389751
-0.005494303418013857,-0.02883836523266611
-0.005493963418013857,-0.02801552628880218
-0.005493623418013857,-0.02469125695559796
-0.005493283418013857,-0.02396715868499166
-0.005492943418013857,-0.02357219599193697
-0.005492603418013857,-0.02330888752990099
-0.005492263418013857,-0.02284809772133671
-0.005491923418013857,-0.02350636887642785
-0.005491583418013857,-0.02709394667166805
-0.005491243418013857,-0.02238730791277291
-0.005490903418013857,-0.02097202492932695
-0.005490563418013857,-0.01906303857956265
-0.005490223418013857,-0.01807563184692593
-0.005489883418013857,-0.02515204676415571
-0.005489543418013857,-0.02518496032191027
-0.005489203418013857,-0.0213999011801362
-0.005488863418013857,-0.02321014685663684
-0.005488523418013857,-0.02465834339783735
-0.005488183418013857,-0.02281518416358096
-0.005487843418013857,-0.02215691300849101
-0.005487503418013857,-0.02133407406462708
-0.005487163418013857,-0.0200833588699538
-0.005486823418013857,-0.0200175317544448
-0.005486483418013857,-0.02057706223627227
-0.005486143418013857,-0.01922760636833585
-0.005485803418013857,-0.01945800127261733
-0.005485463418013857,-0.0209391113715724
-0.005485123418013857,-0.02041249444749883
-0.005484783418013857,-0.02005044531219936
-0.005484443418013857,-0.02044540800525405
-0.005484103418013857,-0.01919469281057973
-0.005483763418013857,-0.01856933521324429
-0.005483423418013857,-0.01870098944426252
-0.005483083418013857,-0.01583750991961395
-0.005482743418013857,-0.01468553539820655
-0.005482403418013857,-0.01511341164901579
-0.005482063418013857,-0.01521215232227665
-0.005481723418013857,-0.01366521510781528
-0.005481383418013857,-0.0174831878073439
-0.005481043418013857,-0.01830602675119424
-0.005480703418013857,-0.01083464914092337
-0.005480363418013857,-0.01238158635538755
-0.005480023418013857,-0.01034094577460908
-0.005479683418013857,-0.01257906770191489
-0.005479343418013857,-0.01824019963569871
-0.005479003418013858,-0.01774649626938126
-0.005478663418013857,-0.01455388116718832
-0.005478323418013857,-0.01580459636186149
-0.005477983418013858,-0.01580459636186149
-0.005477643418013857,-0.01300694395272414
-0.005477303418013857,-0.01330316597251515
-0.005476963418013858,-0.01188788298907177
-0.005476623418013857,-0.01162457452703274
-0.005476283418013857,-0.01172331520029641
-0.005475943418013858,-0.01294111683721281
-0.005475603418013857,-0.01152583385376907
-0.005475263418013857,-0.01083464914092337
-0.005474923418013857,-0.01340190664577415
-0.005474583418013857,-0.01215119145110565
-0.005474243418013857,-0.01224993212436933
-0.005473903418013857,-0.01218410500886033
-0.005473563418013857,-0.01257906770191489
-0.005473223418013857,-0.01178914231580552
-0.005472883418013857,-0.01363230155005737
-0.005472543418013857,-0.01310568462598781
-0.005472203418013857,-0.01146000673825995
-0.005471863418013857,-0.01310568462598482
-0.005471523418013857,-0.009913069523795767
-0.005471183418013857,-0.009616847504004756
-0.005470843418013857,-0.01409309135861638
-0.005470503418013857,-0.01040677289011413
-0.005470163418013857,-0.005765961246721574
-0.005469823418013857,-0.006424232401812717
-0.005469483418013857,-0.006687540863849172
-0.005469143418013857,-0.009320625484213741
-0.005468803418013857,-0.0118878829890692
-0.005468463418013857,-0.01043968644786868
-0.005468123418013857,-0.01053842712113235
-0.005467783418013857,-0.01155874741152362
-0.005467443418013857,-0.01448805405167921
-0.005467103418013857,-0.01330316597251515
-0.005466763418013857,-0.01317151174149692
-0.005466423418013857,-0.01455388116718533
-0.005466083418013857,-0.01290820327946047
-0.005465743418013857,-0.01241449991314211
-0.005465403418013857,-0.01359938799230395
-0.005465063418013857,-0.01238158635538755
-0.005464723418013857,-0.01313859818374236
-0.005464383418013857,-0.01356647443455352
-0.005464043418013857,-0.01461970828269744
-0.005463703418013857,-0.01425765914739731
-0.005463363418013857,-0.0161337319394076
-0.005463023418013857,-0.01642995395919808
-0.005462683418013857,-0.01583750991961605
-0.005462343418013857,-0.01560711501533121
-0.005462003418013857,-0.01399435068536085
-0.005461663418013857,-0.01261198125966945
-0.005461323418013857,-0.0136652151078127
-0.005460983418013857,-0.01224993212436933
-0.005460643418013857,-0.01264489481742401
-0.005460303418013857,-0.01689074376775188
-0.005459963418013857,-0.01139417962275084
-0.005459623418013857,-0.009221884810950071
-0.005459283418013857,-0.009188971253197729
-0.005458943418013857,-0.01040677289011413
-0.005458603418013857,-0.01284237616395135
-0.005458263418013857,-0.01169040164253694
-0.005457923418013857,-0.008991489906668169
-0.005457583418013857,-0.01030803221685045
-0.005457243418013858,-0.01060425423664093
-0.005456903418013857,-0.01132835250724173
-0.005456563418013857,-0.01070299490990514
-0.005456223418013858,-0.009913069523797204
-0.005455883418013857,-0.00909023057993184
-0.005455543418013857,-0.01057134067888691
-0.005455203418013858,-0.01323733885700119
-0.005454863418013857,-0.01290820327946047
-0.005454523418013857,-0.01373104222332439
-0.005454183418013858,-0.01294111683721646
-0.005453843418013857,-0.01491593030248845
-0.005453503418013857,-0.01527797943778858
-0.005453163418013857,-0.01412600491638118
-0.005452823418013857,-0.01399435068536085
-0.005452483418013857,-0.01297403039496958
-0.005452143418013857,-0.01208536433559815
-0.005451803418013857,-0.01067008135215058
-0.005451463418013857,-0.01178914231580552
-0.005451123418013857,-0.01053842712113463
-0.005450783418013857,-0.01287528972170591
-0.005450443418013857,-0.01350064731904249
-0.005450103418013857,-0.01718696578754618
-0.005449763418013857,-0.01606790482389795
-0.005449423418013857,-0.01264489481742401
-0.005449083418013857,-0.01290820327945999
-0.005448743418013857,-0.01136126606499628
-0.005448403418013857,-0.01508049809126123
-0.005448063418013857,-0.01672617597898909
-0.005447723418013857,-0.01386269645434262
-0.005447383418013857,-0.01373104222332439
-0.005447043418013857,-0.01406017780086997
-0.005446703418013857,-0.01132835250724173
-0.005446363418013857,-0.01185496943131464
-0.005446023418013857,-0.01340190664577882
-0.005445683418013857,-0.01228284568212861
-0.005445343418013857,-0.01488301674473389
-0.005445003418013857,-0.01448805405167921
-0.005444663418013857,-0.01488301674473305
-0.005444323418013857,-0.01442222693617009
-0.005443983418013857,-0.01422474558964275
-0.005443643418013857,-0.01320442529924657
-0.005443303418013857,-0.0105055135633778
-0.005442963418013857,-0.01060425423664147
-0.005442623418013857,-0.01024220510134188
-0.005442283418013857,-0.01053842712113235
-0.005441943418013857,-0.01208536433559654
-0.005441603418013857,-0.01208536433559911
-0.005441263418013857,-0.01350064731904249
-0.005440923418013857,-0.01485010318697934
-0.005440583418013857,-0.01369812866556906
-0.005440243418013857,-0.01327025241476059
-0.005439903418013857,-0.01498175741799757
-0.005439563418013857,-0.0181414589624208
-0.005439223418013857,-0.01030803221685045
-0.005438883418013857,-0.009583933946250199
-0.005438543418013857,-0.008497786540350353
-0.005438203418013857,-0.008794008560140829
-0.005437863418013857,-0.01231575923987844
-0.005437523418013857,-0.01178914231580007
-0.005437183418013857,-0.008794008560140829
-0.005436843418013857,-0.009847242408286654
-0.005436503418013858,-0.0116245745270295
-0.005436163418013857,-0.01063716779439602
-0.005435823418013857,-0.01040677289011413
-0.005435483418013858,-0.011854969431312
-0.005435143418013857,-0.01093338981418704
-0.005434803418013857,-0.0111966982762235
-0.005434463418013858,-0.01248032702864888
-0.005434123418013857,-0.01178914231580552
-0.005433783418013857,-0.009320625484213741
-0.005433443418013858,-0.01057134067888463
-0.005433103418013857,-0.00988015596604121
-0.005432763418013857,-0.009518106830741082
-0.005432423418013857,-0.01030803221684902
-0.005432083418013857,-0.0109663033719416
-0.005431743418013857,-0.01218410500886021
-0.005431403418013857,-0.01452096760942951
-0.005431063418013857,-0.01369812866556984
-0.005430723418013857,-0.01336899308802426
-0.005430383418013857,-0.0154096336688031
-0.005430043418013857,-0.01580459636186149
-0.005429703418013857,-0.01531089299554313
-0.005429363418013857,-0.01856933521323836
-0.005429023418013857,-0.01870098944426252
-0.005428683418013857,-0.0121182778933511
-0.005428343418013857,-0.01261198125966856
-0.005428003418013857,-0.01080173558316881
-0.005427663418013857,-0.01238158635538755
-0.005427323418013857,-0.01517923876452491
-0.005426983418013857,-0.01290820327946047
-0.005426643418013857,-0.01162457452703274
-0.005426303418013857,-0.01264489481742401
-0.005425963418013857,-0.01461970828269744
-0.005425623418013857,-0.01267780837517857
-0.005425283418013857,-0.01336899308802426
-0.005424943418013857,-0.01343482020353338
-0.005424603418013857,-0.01231575923987844
-0.005424263418013857,-0.009978896639304884
-0.005423923418013857,-0.01034094577460627
-0.005423583418013857,-0.01103213048745071
-0.005423243418013857,-0.009221884810950071
-0.005422903418013857,-0.01053842712113355
-0.005422563418013857,-0.0111966982762235
-0.005422223418013857,-0.01106504404520527
-0.005421883418013857,-0.01136126606499592
-0.005421543418013857,-0.01116378471846894
-0.005421203418013857,-0.0102751186590959
-0.005420863418013857,-0.01001181019705992
-0.005420523418013857,-0.0102751186590959
-0.005420183418013857,-0.009419366157477412
-0.005419843418013857,-0.01067008135215088
-0.005419503418013857,-0.01083464914092337
-0.005419163418013857,-0.01017637798583223
-0.005418823418013857,-0.01429057270515228
-0.005418483418013857,-0.01452096760943376
-0.005418143418013857,-0.006555886632830944
-0.005417803418013857,-0.01093338981419512
-0.005417463418013857,-0.01537672011105225
-0.005417123418013857,-0.01205245077784198
-0.005416783418013857,-0.01290820327946214
-0.005416443418013857,-0.01382978289658807
-0.005416103418013857,-0.01363230155006072
