Analysis/files/cmb03_d2s01/wrd04_ch22.csv

#Digilent WaveForms Oscilloscope Acquisition
#Device Name: ADP3450
#Serial Number: SN:210018B9D9B0
#Date Time: 2024-08-09 15:16:25.354.075.680
#Sample rate: 2.94118e+06Hz
#Samples: 32768
#Trigger: Source: Channel 3 Type: Edge Condition: Rising Level: 20 mV Hyst.: Auto HoldOff: 0 s
#Channel 3: Range: 200 mV/div Offset: 0 V Attenuation: 1 X Coupling: DC Bandwidth: 0 Hz Sample Mode: Average

Time (s),Channel 3 (V)
-0.005570226652173913,0.013682054328732
-0.005569886652173913,0.0148669424079045
-0.005569546652173913,0.01950775405128861
-0.005569206652173913,0.01914570491598848
-0.005568866652173913,0.01842160664537829
-0.005568526652173913,0.01295795605813175
-0.005568186652173913,0.01466946106136872
-0.005567846652173913,0.02362194877058885
-0.005567506652173913,0.01295795605813175
-0.005567166652173913,0.0122996849030406
-0.005566826652173913,0.01302378317364362
-0.005566486652173913,0.01453780683035049
-0.005566146652173913,0.0169075829886786
-0.005565806652173912,0.0130237831736405
-0.005565466652173913,0.01282630182711352
-0.005565126652173913,0.0143732390415777
-0.005564786652173912,0.01420867125280025
-0.005564446652173913,0.01164141374794946
-0.005564106652173913,0.01177306797896769
-0.005563766652173912,0.009962822302480041
-0.005563426652173913,0.01710506433520594
-0.005563086652173913,0.01651262029562391
-0.005562746652173913,0.01016030364900595
-0.005562406652173913,0.01144393240142212
-0.005562066652173913,0.01262882048058617
-0.005561726652173913,0.01098314259286131
-0.005561386652173913,0.008382971530248308
-0.005561046652173913,0.006144849602938425
-0.005560706652173913,0.006737293642519375
-0.005560366652173913,0.007757613932911723
-0.005560026652173913,0.006013195371920196
-0.005559686652173913,0.004202949695422848
-0.005559346652173913,0.004894134408265255
-0.005559006652173913,0.005815714025392853
-0.005558666652173913,0.004729566619494445
-0.005558326652173913,0.005256183543565383
-0.005557986652173913,0.00426877681092867
-0.005557646652173913,0.004367517484192162
-0.005557306652173913,0.006342330949465767
-0.005556966652173913,0.005716973352129182
-0.005556626652173913,0.005091615754793735
-0.005556286652173913,0.00607902248742931
-0.005555946652173913,0.007955095279439066
-0.005555606652173913,0.006572725853750181
-0.005555266652173913,0.005947368256411082
-0.005554926652173913,0.007099342777820581
-0.005554586652173913,0.002787666711981443
-0.005554246652173913,0.003643419213592085
-0.005553906652173913,0.01124645105489478
-0.005553566652173913,0.01025904432225806
-0.005553226652173913,0.01075274768857642
-0.005552886652173913,0.009370378262885021
-0.005552546652173913,0.00528909710131994
-0.005552206652173913,0.006013195371920196
-0.005551866652173913,0.006276503833956653
-0.005551526652173913,0.002820580269728157
-0.005551186652173913,0.002359790461164118
-0.005550846652173913,0.002228136230146129
-0.005550506652173913,0.002030654883618786
-0.005550166652173913,0.00150403795954713
-0.005549826652173913,0.002195222672391572
-0.005549486652173913,0.001635692190564101
-0.005549146652173913,0.0008457668044577239
-0.005548806652173913,0.002491444692182586
-0.005548466652173913,0.002261049787900686
-0.005548126652173913,0.002425617576675148
-0.005547786652173913,0.003347197193801071
-0.005547446652173913,0.004235863253174112
-0.005547106652173913,0.00390672767562908
-0.005546766652173913,0.004202949695419555
-0.005546426652173913,0.004564998830719684
-0.005546086652173913,0.002557271807692059
-0.005545746652173913,0.002754753154219042
-0.005545406652173913,0.003676332771346642
-0.005545066652173913,0.001800259979336827
-0.005544726652173913,0.00176734642158233
-0.005544386652173913,0.0008786803622092876
-0.005544046652173912,-0.0005036890634712746
-0.005543706652173913,0.005453664890092726
-0.005543366652173913,0.007296824124347924
-0.005543026652173912,0.007922181721678521
-0.005542686652173913,0.004630825946228797
-0.005542346652173913,-0.0003391212747093254
-0.005542006652173913,0.001273643055261039
-0.005541666652173913,0.001438210844036758
-0.005541326652173913,0.002228136230146129
-0.005540986652173913,0.0007141125734392562
-0.005540646652173913,0.001438210844036758
-0.005540306652173913,0.002820580269728157
-0.005539966652173913,0.003939641233381063
-0.005539626652173913,0.002623098923200814
-0.005539286652173913,0.002656012480955371
-0.005538946652173913,0.002754753154218863
-0.005538606652173913,0.001043248150982073
-0.005538266652173913,0.002524358249937143
-0.005537926652173913,0.003676332771344546
-0.005537586652173913,0.003314283636046514
-0.005537246652173913,0.003445937867064742
-0.005536906652173913,0.005782800467634045
-0.005536566652173913,0.005091615754792597
-0.005536226652173913,0.00426877681092867
-0.005535886652173913,0.004762480177246129
-0.005535546652173913,0.003544678540328413
-0.005535206652173913,0.0027876667119736
-0.005534866652173913,0.003906727675626506
-0.005534526652173913,0.003511764982573856
-0.005534186652173913,-0.002083539835700852
-0.005533846652173913,0.002557271807683259
-0.005533506652173913,0.005947368256411082
-0.005533166652173913,0.004663739503983355
-0.005532826652173913,0.006111936045183867
-0.005532486652173913,0.001635692190564101
-0.005532146652173913,-0.0007999110832731249
-0.005531806652173913,0.001273643055263973
-0.005531466652173913,0.001372383728527644
-0.005531126652173913,-0.0003720348324638825
-0.005530786652173913,-0.0004378619479729968
-0.005530446652173913,0.0005495447846637165
-0.005530106652173913,-0.0004707755057275538
-0.005529766652173913,0.000417890553645488
-0.005529426652173913,0.001569865075054208
-0.005529086652173913,0.001141988824245744
-0.005528746652173913,0.001043248150982073
-0.005528406652173913,0.002721839596465384
-0.005528066652173913,0.003215542962782842
-0.005527726652173913,0.004466258157456012
-0.005527386652173913,0.005980281814166716
-0.005527046652173913,0.006572725853747667
-0.005526706652173913,0.00653981229599311
-0.005526366652173913,0.007856354606172341
-0.005526026652173913,0.006177763160692982
-0.005525686652173913,0.003643419213592085
-0.005525346652173913,0.00660563941149983
-0.005525006652173913,0.00528909710131994
-0.005524666652173913,0.003413024309310185
-0.005524326652173913,0.004137122579902658
-0.005523986652173913,-0.0001416399281819828
-0.005523646652173913,-0.001129046660818696
-0.005523306652173912,0.004038381906646111
-0.005522966652173913,0.003676332771346642
-0.005522626652173913,0.00482830729275614
-0.005522286652173912,-4.289925494776722e-05
-0.005521946652173913,-0.01623636967016041
-0.005521606652173913,-0.02857895382811932
-0.005521266652173912,-0.04826126136539195
-0.005520926652173913,-0.07436171266470826
-0.005520586652173913,-0.1057283332048012
-0.005520246652173913,-0.1358771521079206
-0.005519906652173913,-0.1658284896646225
-0.005519566652173913,-0.1937721001982415
-0.005519226652173913,-0.2163508008178265
-0.005518886652173913,-0.2319847407512823
-0.005518546652173913,-0.2444260655825048
-0.005518206652173913,-0.2525886279056202
-0.005517866652173913,-0.2538064295425536
-0.005517526652173913,-0.2523582330013531
-0.005517186652173913,-0.2496264077077298
-0.005516846652173913,-0.2434386588498681
-0.005516506652173913,-0.2371850828765023
-0.005516166652173913,-0.2303061493058124
-0.005515826652173913,-0.2210903531345239
-0.005515486652173913,-0.2140139382172941
-0.005515146652173913,-0.2064767334915142
-0.005514806652173913,-0.1974255051089973
-0.005514466652173913,-0.1895591648056582
-0.005514126652173913,-0.185774105663891
-0.005513786652173913,-0.1846879582579837
-0.005513446652173913,-0.1699097708261876
-0.005513106652173913,-0.1612205915790003
-0.005512766652173913,-0.1598711357110476
-0.005512426652173913,-0.1554936325296915
-0.005512086652173913,-0.1480551684771616
-0.005511746652173913,-0.1420649009658322
-0.005511406652173913,-0.1363050283587847
-0.005511066652173913,-0.1331453268143473
-0.005510726652173913,-0.1288007371907457
-0.005510386652173913,-0.1210989646761793
-0.005510046652173913,-0.1166556343793141
-0.005509706652173913,-0.1118831685049034
-0.005509366652173913,-0.1074727517657927
-0.005509026652173913,-0.1013179164656905
-0.005508686652173913,-0.09707206751534302
-0.005508346652173913,-0.09177298471686898
-0.005508006652173913,-0.08871202384569515
-0.005507666652173913,-0.08581563076328527
-0.005507326652173913,-0.08094442421561968
-0.005506986652173913,-0.08022032594501943
-0.005506646652173913,-0.07330847881656076
-0.005506306652173913,-0.07238689919943483
-0.005505966652173913,-0.06731821130523305
-0.005505626652173913,-0.06521174360894648
-0.005505286652173913,-0.06800939601807873
-0.005504946652173913,-0.06636371813035088
-0.005504606652173913,-0.06399394197201821
-0.005504266652173913,-0.06149251158267643
-0.005503926652173913,-0.0592873032131211
-0.005503586652173913,-0.05718083551682723
-0.005503246652173913,-0.05596303387991083
-0.005502906652173913,-0.05142096290978196
-0.005502566652173912,-0.0505322968504049
-0.005502226652173913,-0.04832708848085359
-0.005501886652173913,-0.04743842242148055
-0.005501546652173912,-0.0443774615503047
-0.005501206652173913,-0.04325840058665179
-0.005500866652173913,-0.03993413125344152
-0.005500526652173912,-0.03874924317427699
-0.005500186652173913,-0.03848593471224102
-0.005499846652173913,-0.03489835691699429
-0.005499506652173913,-0.03318685191376043
-0.005499166652173913,-0.03242984008540251
-0.005498826652173913,-0.03180448248806592
-0.005498486652173913,-0.02920431142546064
-0.005498146652173913,-0.02834855892383742
-0.005497806652173913,-0.02765737421099173
-0.005497466652173913,-0.02604460988102136
-0.005497126652173913,-0.026373745458564
-0.005496786652173913,-0.02558382007245463
-0.005496446652173913,-0.015150222264279
-0.005496106652173913,-0.01673007303647877
-0.005495766652173913,-0.0219962422772079
-0.005495426652173913,-0.01814535601993172
-0.005495086652173913,-0.01824409669318839
-0.005494746652173913,-0.02081135419804385
-0.005494406652173913,-0.01939607121460046
-0.005494066652173913,-0.01877071361726131
-0.005493726652173913,-0.01847449159747029
-0.005493386652173913,-0.01617054255465548
-0.005493046652173913,-0.01623636967016041
-0.005492706652173913,-0.01666424592096965
-0.005492366652173913,-0.01380076639632839
-0.005492026652173913,-0.01347163081877761
-0.005491686652173913,-0.01337289014551394
-0.005491346652173913,-0.01248422408614252
-0.005491006652173913,-0.01152973091125874
-0.005490666652173913,-0.01166138514227697
-0.005490326652173913,-0.01057523773637659
-0.005489986652173913,-0.009818225908021772
-0.005489646652173913,-0.01106894110269494
-0.005489306652173913,-0.009653658119248986
-0.005488966652173913,-0.008468770040084931
-0.005488626652173913,-0.009554917445985316
-0.005488286652173913,-0.009127041195176074
-0.005487946652173913,-0.007415536191934793
-0.005487606652173913,-0.005045760033610991
-0.005487266652173913,-0.006625610805829733
-0.005486926652173913,-0.006428129459307719
-0.005486586652173913,-0.009357436099457973
-0.005486246652173913,-0.009884053023530886
-0.005485906652173913,-0.003202600799361302
-0.005485566652173913,-0.006230648112775047
-0.005485226652173913,-0.01199052071982254
-0.005484886652173913,-0.007876326000494102
-0.005484546652173913,-0.003038033010583008
-0.005484206652173913,-0.00369630416567415
-0.005483866652173913,-0.002972205895069703
-0.005483526652173913,-0.0006682568522548965
-0.005483186652173913,-0.001129046660818696
-0.005482846652173913,-0.0003062077169552473
-0.005482506652173913,-0.0005695161789912252
-0.005482166652173913,-0.00244558897100098
-0.005481826652173913,-0.0009315653142916527
-0.005481486652173913,-0.001096133103064139
-0.005481146652173913,-0.003005119452828451
-0.005480806652173912,-0.003432995703638711
-0.005480466652173913,-0.003992526185465165
-0.005480126652173913,-0.002643070317528323
-0.005479786652173912,-0.002643070317525809
-0.005479446652173913,-0.001260700891836924
-0.005479106652173913,-0.0008986517565367963
-0.005478766652173913,0.0002204092071161099
-0.005478426652173913,0.001866087094846001
-0.005478086652173913,0.004433344599701455
-0.005477746652173913,0.003314283636048549
-0.005477406652173913,0.004104209022155884
-0.005477066652173913,0.00700060210455691
-0.005476726652173913,-0.0007999110832589357
-0.005476386652173913,0.0023268769034098
-0.005476046652173913,0.001899000652600558
-0.005475706652173913,-0.001260700891831177
-0.005475366652173913,0.003939641233383098
-0.005475026652173913,0.0002533227648727025
-0.005474686652173913,-0.005276154937882834
-0.005474346652173913,-0.002248107624473638
-0.005474006652173913,-0.0004707755057275538
-0.005473666652173913,-0.00313677368384183
-0.005473326652173913,-0.002643070317528323
-0.005472986652173913,-9.985697163754359e-06
-0.005472646652173913,-0.001655663584888616
-0.005472306652173913,-0.001820231373664395
-0.005471966652173913,-0.001787317815909838
-0.005471626652173913,-0.002083539835700313
-0.005471286652173913,-0.002050626277946295
-0.005470946652173913,-9.985697163754359e-06
-0.005470606652173913,-0.000372034832463224
-0.005470266652173913,-0.0005695161789912252
-0.005469926652173913,0.001997741325864229
-0.005469586652173913,0.0025572718076917
-0.005469246652173913,0.003281370078291956
-0.005468906652173913,0.004071295464401327
-0.005468566652173913,0.004104209022155884
-0.005468226652173913,0.004696653061737912
-0.005467886652173913,0.005881541140901968
-0.005467546652173913,0.005486578447847282
-0.005467206652173913,0.002425617576673472
-0.005466866652173913,0.0023268769034098
-0.005466526652173913,-0.001622750027137053
-0.005466186652173913,0.004795393735004158
-0.005465846652173913,0.006210676718447538
-0.005465506652173913,0.004202949695419555
-0.005465166652173913,0.008777934223298743
-0.005464826652173913,0.006441071622729439
-0.005464486652173913,0.002129395556882458
-0.005464146652173913,0.001701519306074832
-0.005463806652173913,0.002590185365446257
-0.005463466652173913,0.001405297286282201
-0.005463126652173913,-0.0006353432945006986
-0.005462786652173913,-0.000832824641027682
-0.005462446652173913,-0.0006353432945003394
-0.005462106652173913,-0.001129046660820971
-0.005461766652173913,-0.002379761855491866
-0.005461426652173913,-0.0009315653142913533
-0.005461086652173913,-0.002445588971002597
-0.005460746652173913,-0.003334255030374022
-0.005460406652173913,-0.001096133103064139
-0.005460066652173912,-0.0007340839677661061
-0.005459726652173913,-0.00188605848917351
-0.005459386652173913,0.0006153719001728307
-0.005459046652173912,0.002491444692181628
-0.005458706652173913,0.001964827768109672
-0.005458366652173913,0.003511764982573856
-0.005458026652173912,0.004696653061737732
-0.005457686652173913,0.004597912388474241
-0.005457346652173913,0.004367517484192341
-0.005457006652173913,0.005519492005599744
-0.005456666652173913,0.004630825946228797
-0.005456326652173913,0.003413024309310185
-0.005455986652173913,0.002919320942992726
-0.005455646652173913,0.009896995186957936
-0.005455306652173913,0.006177763160692982
-0.005454966652173913,0.007494305470872872
-0.005454626652173913,0.01154267307468579
-0.005454286652173913,0.005354924216829054
-0.005453946652173913,0.004861220850511595
-0.005453606652173913,0.006441071622729439
-0.005453266652173913,0.006704380084765896
-0.005452926652173913,0.005420751332340503
-0.005452586652173913,0.004630825946228797
-0.005452246652173913,0.004334603926437783
-0.005451906652173913,0.004400431041946778
-0.005451566652173913,0.004532085272965126
-0.005451226652173913,0.002491444692182586
-0.005450886652173913,0.003413024309308508
-0.005450546652173913,0.002261049787900686
-0.005450206652173913,0.001866087094846001
-0.005449866652173913,0.001931914210354995
-0.005449526652173913,0.002656012480955371
-0.005449186652173913,0.002293963345655243
-0.005448846652173913,0.001569865075056304
-0.005448506652173913,0.0023268769034098
-0.005448166652173913,5.584141834535986e-05
-0.005447826652173913,-0.0003062077169547683
-0.005447486652173913,0.0009115939199638446
-0.005447146652173913,0.001866087094846001
-0.005446806652173913,0.0023268769034098
-0.005446466652173913,0.004104209022155884
-0.005446126652173913,0.003182629405028285
-0.005445786652173913,-0.0008986517565367963
-0.005445446652173913,0.007461391913116458
-0.005445106652173913,0.005124529312547154
-0.005444766652173913,0.00107616170873663
-0.005444426652173913,0.005354924216822887
-0.005444086652173913,0.001964827768109672
-0.005443746652173913,-0.004058353300974278
-0.005443406652173913,0.0004508041114045354
-0.005443066652173913,0.002919320942991828
-0.005442726652173913,0.001174902382000301
-0.005442386652173913,0.003445937867067376
-0.005442046652173913,0.004894134408265255
-0.005441706652173913,0.004499171715210569
-0.005441366652173913,0.004202949695421352
-0.005441026652173913,0.005190356428056269
-0.005440686652173913,0.003347197193801071
-0.005440346652173913,0.004104209022154447
-0.005440006652173913,0.003314283636046514
-0.005439666652173913,0.003083888731764614
-0.005439326652173913,0.002228136230146967
-0.005438986652173913,0.002688926038709928
-0.005438646652173913,0.001997741325864229
-0.005438306652173912,-9.98569716159906e-06
-0.005437966652173913,0.001174902382000301
-0.005437626652173913,-0.0009644788720459105
-0.005437286652173912,-0.0008328246410260056
-0.005436946652173913,8.875497609991696e-05
-0.005436606652173913,0.0006811990156819448
-0.005436266652173913,-0.000273294159198475
-0.005435926652173913,0.002293963345655243
-0.005435586652173913,0.002030654883618786
-0.005435246652173913,-0.001293614449585435
-0.005434906652173913,0.008646279992284765
-0.005434566652173913,0.003906727675628541
-0.005434226652173913,0.005486578447844409
-0.005433886652173913,0.01042361211103085
-0.005433546652173913,0.005782800467638296
-0.005433206652173913,0.001174902382008683
-0.005432866652173913,0.003939641233383098
-0.005432526652173913,0.00482830729275614
-0.005432186652173913,0.0005495447846714996
-0.005431846652173913,0.0003520634381363738
-0.005431506652173913,0.001405297286282201
-0.005431166652173913,0.005289097101312875
-0.005430826652173913,0.006144849602938425
-0.005430486652173913,0.004861220850510698
-0.005430146652173913,0.005256183543564665
-0.005429806652173913,0.004170036137664999
-0.005429466652173913,0.005157442870301712
-0.005429126652173913,0.002820580269732408
-0.005428786652173913,0.0002204092071181454
-0.005428446652173913,0.002195222672391572
-0.005428106652173913,0.001668605748319616
-0.005427766652173913,0.001273643055263973
-0.005427426652173913,0.001405297286282201
-0.005427086652173913,0.001471124401791315
-0.005426746652173913,0.001141988824245744
-0.005426406652173913,0.001569865075054987
-0.005426066652173913,0.001701519306073215
-0.005425726652173913,-0.0003062077169547683
-0.005425386652173913,-0.0002403806014456541
-0.005425046652173913,-0.003070946568337565
-0.005424706652173913,0.003380110751555628
-0.005424366652173913,0.001010334593227516
-0.005424026652173913,0.000417890553645488
-0.005423686652173913,0.005947368256404496
-0.005423346652173913,0.0023268769034098
-0.005423006652173913,-0.0007999110832731249
-0.005422666652173913,-0.000141639928178211
-0.005422326652173913,0.001931914210355115
-0.005421986652173913,0.002623098923200814
-0.005421646652173913,0.002261049787902841
-0.005421306652173913,0.003445937867064742
-0.005420966652173913,0.005025788639283483
-0.005420626652173913,0.005387837774585587
-0.005420286652173913,0.006473985180483996
-0.005419946652173913,0.006046108929674754
-0.005419606652173913,0.003709246329099822
-0.005419266652173913,0.002952234500746385
-0.005418926652173913,0.004466258157456012
-0.005418586652173913,0.003018061616251069
-0.005418246652173913,0.0005824583424182735
-0.005417906652173913,0.001635692190564101
-0.005417566652173912,0.001964827768108235
-0.005417226652173913,0.001174902382000301
-0.005416886652173913,0.0009774210354729588
-0.005416546652173912,0.001438210844036698
-0.005416206652173913,0.001405297286282201
-0.005415866652173913,0.002293963345655243
