Analysis/files/cmb03_d2s01/wrd06_ch15.csv

#Digilent WaveForms Oscilloscope Acquisition
#Device Name: ADP3450
#Serial Number: SN:210018B9D9B0
#Date Time: 2024-08-09 18:09:43.884.376.960
#Sample rate: 2.94118e+06Hz
#Samples: 32768
#Trigger: Source: Channel 3 Type: Edge Condition: Rising Level: 60 mV Hyst.: Auto HoldOff: 0 s
#Channel 3: Range: 200 mV/div Offset: -20 mV Attenuation: 1 X Coupling: DC Bandwidth: 0 Hz Sample Mode: Average

Time (s),Channel 3 (V)
-0.005570402648171501,0.01078955830382065
-0.005570062648171501,0.01059207695729588
-0.005569722648171501,0.01200735994073926
-0.005569382648171501,0.01078955830382065
-0.005569042648171501,0.007465288970612001
-0.005568702648171501,0.008353955029983425
-0.005568362648171501,0.008057733010192412
-0.005568022648171501,0.006510795795732718
-0.005567682648171501,0.008979312627320012
-0.005567342648171501,0.009703410897920267
-0.005567002648171501,0.008321041472229049
-0.005566662648171501,0.008419782145492541
-0.005566322648171501,0.009242621089356468
-0.005565982648171501,0.008683090607529356
-0.005565642648171501,0.008880571954056339
-0.005565302648171501,0.008485609261001654
-0.005564962648171501,0.007958992336929458
-0.005564622648171501,0.008353955029983425
-0.005564282648171501,0.007991905894683298
-0.005563942648171501,0.005786697525125875
-0.005563602648171501,0.004634723003718472
-0.005563262648171501,0.004206846752909232
-0.005562922648171501,0.002956131558238334
-0.005562582648171501,-0.0002693971017105369
-0.005562242648171501,0.0002572198223623791
-0.005561902648171501,-0.0004339648904820637
-0.005561562648171501,-0.000697273352519779
-0.005561222648171501,-0.00217838345147485
-0.005560882648171501,0.002890304442717725
-0.005560542648171501,0.0007838367464352916
-0.005560202648171501,0.003416921366799861
-0.005559862648171501,0.004733463676979749
-0.005559522648171501,-0.002244210566983963
-0.005559182648171501,-0.001289717392101805
-0.005558842648171501,0.001771243479066435
-0.005558502648171501,0.0001584791490987052
-0.005558162648171501,-0.0008289275835380062
-0.005557822648171501,0.000191392706851406
-0.005557482648171501,-0.0004668784482378778
-0.005557142648171501,-0.0007960140257834494
-0.005556802648171501,-0.0008618411412924434
-0.005556462648171501,-0.00168468008515649
-0.005556122648171501,-0.002441691913511304
-0.005555782648171501,-0.0003681377749779791
-0.005555442648171501,-0.0002693971017105369
-0.005555102648171501,-6.088639674078911e-06
-0.005554762648171501,0.001639589248050782
-0.005554422648171501,0.002264946845390362
-0.005554082648171501,0.001869984152335677
-0.005553742648171501,0.003515662040063532
-0.005553402648171501,0.002363687518654033
-0.005553062648171501,0.00114588588173542
-0.005552722648171501,0.001475021459280992
-0.005552382648171501,0.001014231650717189
-0.005552042648171501,0.0006521825154170643
-0.005551702648171501,0.001935811267844791
-0.005551362648171501,0.001178799439481715
-0.005551022648171501,-0.003363271530638905
-0.005550682648171501,-0.002770827491056876
-0.005550342648171501,0.003515662040058323
-0.005550002648171501,0.0006521825154170643
-0.005549662648171501,0.002264946845390362
-0.005549322648171501,0.001837070594573637
-0.005548982648171501,-0.00227712412473852
-0.005548642648171501,0.001211712997244534
-0.005548302648171501,0.002561168865179817
-0.005547962648171501,0.001705416363562889
-0.005547622648171501,0.0009813180929626325
-0.005547282648171501,0.002264946845388267
-0.005546942648171501,0.001112972323980863
-0.005546602648171501,-0.0003681377749742074
-0.005546262648171501,-0.0002693971017132909
-0.005545922648171501,-0.001783420758420164
-0.005545582648171501,-0.002902481722075106
-0.005545242648171501,-0.003001222395339555
-0.005544902648171501,-0.003429098646148019
-0.005544562648171501,-0.004054456243484602
-0.005544222648171501,-0.003560752877166246
-0.005543882648171501,-0.003560752877166246
-0.005543542648171501,-0.003692407108184477
-0.005543202648171501,-0.00237586479800243
-0.005542862648171501,-0.002507519029020421
-0.005542522648171501,-0.001223890276592692
-0.005542182648171501,-0.0003681377749757639
-0.005541842648171501,0.0005205282843988336
-0.005541502648171501,-0.000433964890483321
-0.005541162648171501,-0.0003681377749743271
-0.005540822648171501,-0.0009934953723107938
-0.005540482648171501,-0.006687540863849172
-0.005540142648171501,-0.002375864798010033
-0.005539802648171501,0.0008167503041898484
-0.005539462648171501,-0.0002035699862014233
-0.005539122648171501,-0.000104829312937929
-0.005538782648171501,-0.003396185088393462
-0.005538442648171501,-0.005338084995912332
-0.005538102648171501,-0.004186110474504928
-0.005537762648171501,-0.003856974896957261
-0.005537422648171501,-0.004482332494293848
-0.005537082648171501,-0.005634307015701251
-0.005536742648171501,-0.00431776470552106
-0.005536402648171501,-0.004976035860612203
-0.005536062648171501,-0.007016676441391031
-0.005535722648171501,-0.00570013413121246
-0.005535382648171501,-0.007609120480976773
-0.005535042648171501,-0.008366132309330206
-0.005534702648171501,-0.007510379807713099
-0.005534362648171501,-0.005502652784685116
-0.005534022648171501,-0.005798874804475592
-0.005533682648171501,-0.004844381629593972
-0.005533342648171501,-0.002441691913511304
-0.005533002648171501,-0.003264530857375231
-0.005532662648171501,-0.001421371623120036
-0.005532322648171501,-0.0009934953723107938
-0.005531982648171501,0.002232033287635805
-0.005531642648171501,0.0007838367464352916
-0.005531302648171501,0.0003230469378714927
-0.005530962648171501,-0.001059322487819907
-0.005530622648171501,-0.0007301869102743358
-0.005530282648171501,-0.0002693971017105369
-0.005529942648171501,-0.006588800190585501
-0.005529602648171501,-0.0004997920059906385
-0.005529262648171501,0.0004876147266442768
-0.005528922648171501,5.973847583503472e-05
-0.005528582648171501,-0.0001706564284515363
-0.005528242648171501,-0.002737913933302319
-0.005527902648171501,-0.00362657999267536
-0.005527562648171501,-0.002277124124737682
-0.005527222648171501,-0.001816334316174721
-0.005526882648171501,-0.003692407108184477
-0.005526542648171501,-0.004284851147767341
-0.005526202648171501,-0.004745640956330302
-0.005525862648171501,-0.004943122302857646
-0.005525522648171501,-0.006325491728548624
-0.005525182648171501,-0.006095096824267145
-0.005524842648171501,-0.00570013413121246
-0.005524502648171501,-0.005338084995910296
-0.005524162648171501,-0.00421902403225739
-0.005523822648171501,-0.001816334316174721
-0.005523482648171501,-0.0009934953723176188
-0.005523142648171501,-0.004745640956330302
-0.005522802648171501,-0.01169040164254185
-0.005522462648171501,-0.02636984840111497
-0.005522122648171501,-0.0487181541164186
-0.005521782648171501,-0.07837326965327454
-0.005521442648171501,-0.1102994206752563
-0.005521102648171501,-0.144035817373616
-0.005520762648171501,-0.1737238464682265
-0.005520422648171501,-0.203543529793801
-0.005520082648171501,-0.2274716862814183
-0.005519742648171501,-0.244882958333579
-0.005519402648171501,-0.2567647526829525
-0.005519062648171501,-0.2553823832572827
-0.005518722648171501,-0.2567647526829741
-0.005518382648171501,-0.251728978346536
-0.005518042648171501,-0.2519264596930542
-0.005517702648171501,-0.2472198209341525
-0.005517362648171501,-0.2378065434163663
-0.005517022648171501,-0.2309934369611559
-0.005516682648171501,-0.2240486762749443
-0.005516342648171501,-0.2164127308759009
-0.005516002648171501,-0.2090400939388663
-0.005515662648171501,-0.2024573823879549
-0.005515322648171501,-0.194261906507085
-0.005514982648171501,-0.1865930475502583
-0.005514642648171501,-0.1795166326330286
-0.005514302648171501,-0.1713869838676677
-0.005513962648171501,-0.1644093096236868
-0.005513622648171501,-0.1570695862444206
-0.005513282648171501,-0.1495982086341497
-0.005512942648171501,-0.1449903105484981
-0.005512602648171501,-0.1401520175585783
-0.005512262648171501,-0.1348858483178491
-0.005511922648171501,-0.1304754315787384
-0.005511582648171501,-0.1271840758032828
-0.005511242648171501,-0.1228065726219267
-0.005510902648171501,-0.1180341067475159
-0.005510562648171501,-0.1136895171239143
-0.005510222648171501,-0.1090816190382763
-0.005509882648171501,-0.1058890039360843
-0.005509542648171501,-0.1029926108536833
-0.005509202648171501,-0.1026634752761377
-0.005508862648171501,-0.09519209766584193
-0.005508522648171501,-0.08897143525024195
-0.005508182648171501,-0.08535094389724066
-0.005507842648171501,-0.08268494571912297
-0.005507502648171501,-0.08347487110523091
-0.005507162648171501,-0.07778082561369251
-0.005506822648171501,-0.0737653715676366
-0.005506482648171501,-0.07379828512539111
-0.005506142648171501,-0.07116520050502653
-0.005505802648171501,-0.06853211588465451
-0.005505462648171501,-0.06441792116534234
-0.005505122648171501,-0.05944797394440422
-0.005504782648171501,-0.06175192298721364
-0.005504442648171501,-0.05648575374649408
-0.005504102648171501,-0.05510338432080267
-0.005503762648171501,-0.05247029970043668
-0.005503422648171501,-0.05168037431432874
-0.005503082648171501,-0.05003469642660088
-0.005502742648171501,-0.04858649988538685
-0.005502402648171501,-0.04114803583287047
-0.005502062648171501,-0.04121386294837958
-0.005501722648171501,-0.04384694756873625
-0.005501382648171501,-0.0395023579451426
-0.005501042648171501,-0.03617808861193234
-0.005500702648171501,-0.03614517505417575
-0.005500362648171501,-0.03502611409052284
-0.005500022648171501,-0.0355198174568412
-0.005499682648171501,-0.03361083110708035
-0.005499342648171501,-0.0341374480311498
-0.005499002648171501,-0.03430201581992259
-0.005498662648171501,-0.03344626331830566
-0.005498322648171501,-0.03117522783323966
-0.005497982648171501,-0.03071443802467586
-0.005497642648171501,-0.02985868552305894
-0.005497302648171501,-0.02748890936472927
-0.005496962648171501,-0.02748890936472927
-0.005496622648171501,-0.02666607042086683
-0.005496282648171501,-0.02505330609089204
-0.005495942648171501,-0.02656732974760166
-0.005495602648171501,-0.02478999762885881
-0.005495262648171501,-0.0227822706058276
-0.005494922648171501,-0.02176195031543633
-0.005494582648171501,-0.02189360454645431
-0.005494242648171501,-0.01975422329240834
-0.005493902648171501,-0.01866807588650796
-0.005493562648171501,-0.01837185386671749
-0.005493222648171501,-0.02169612319992721
-0.005492882648171501,-0.01998461819669024
-0.005492542648171501,-0.01415891847414423
-0.005492202648171501,-0.01307277106823325
-0.005491862648171501,-0.01251324058640578
-0.005491522648171501,-0.01675908953673592
-0.005491182648171501,-0.01866807588650796
-0.005490842648171501,-0.01547546078431592
-0.005490502648171501,-0.01508049809126123
-0.005490162648171501,-0.0174831878073439
-0.005489822648171501,-0.01544254722656136
-0.005489482648171501,-0.01524506588003402
-0.005489142648171501,-0.01422474558964275
-0.005488802648171501,-0.01373104222332439
-0.005488462648171501,-0.01307277106823325
-0.005488122648171501,-0.01376395578107781
-0.005487782648171501,-0.01313859818374236
-0.005487442648171501,-0.01369812866556984
-0.005487102648171501,-0.0152450658800242
-0.005486762648171501,-0.009847242408286654
-0.005486422648171501,-0.01080173558316881
-0.005486082648171501,-0.01185496943130955
-0.005485742648171501,-0.009057317022177283
-0.005485402648171501,-0.007115417114658414
-0.005485062648171501,-0.006753367979356429
-0.005484722648171501,-0.005733047688967017
-0.005484382648171501,-0.004482332494293848
-0.005484042648171501,-0.006588800190585441
-0.005483702648171501,-0.006555886632830944
-0.005483362648171501,-0.006522973075076387
-0.005483022648171501,-0.008695267886886973
-0.005482682648171501,-0.01409309135862452
-0.005482342648171501,-0.007872428943013227
-0.005482002648171501,-0.006983762883640306
-0.005481662648171501,-0.0070495899991493
-0.005481322648171501,-0.006522973075076387
-0.005480982648171501,-0.01119669827622038
-0.005480642648171501,-0.009485193272986525
-0.005480302648171501,-0.006292578170794486
-0.005479962648171501,-0.006621713748340597
-0.005479622648171501,-0.006917935768131073
-0.005479282648171501,-0.003231617299620675
-0.005478942648171501,-0.002013815662704277
-0.005478602648171501,-0.002902481722075106
-0.005478262648171501,-0.003363271530638905
-0.005477922648171501,-0.002902481722075945
-0.005477582648171501,-0.002705000375547762
-0.005477242648171501,-0.002935395279829663
-0.005476902648171501,-0.00296830883758416
-0.005476562648171501,-0.004153196916748276
-0.005476222648171501,2.682491808047791e-05
-0.005475882648171501,0.0004547011688889417
-0.005475542648171501,-0.001520112296383706
-0.005475202648171501,-0.001618852969647377
-0.005474862648171501,-0.001454285180874892
-0.005474522648171501,-0.002639173260038648
-0.005474182648171501,-0.004877295187348533
-0.005473842648171501,-0.004581073167558057
-0.005473502648171501,-0.006490059517321831
-0.005473162648171501,-0.005667220573457903
-0.005472822648171501,-0.005107690091631448
-0.005472482648171501,-0.008695267886877155
-0.005472142648171501,-0.01001181019705944
-0.005471802648171501,-0.003626579992686975
-0.005471462648171501,-0.002211297009229406
-0.005471122648171501,-0.002441691913511304
-0.005470782648171501,-0.004449418936535636
-0.005470442648171501,-0.007674947596485886
-0.005470102648171501,-0.004943122302857646
-0.005469762648171501,-0.00227712412473852
-0.005469422648171501,-0.003659493550429917
-0.005469082648171501,-0.004943122302857646
-0.005468742648171501,-0.004087369801239162
-0.005468402648171501,-0.002244210566983963
-0.005468062648171501,-0.006852108652621959
-0.005467722648171501,-0.007247071345676644
-0.005467382648171501,-0.007477466249958542
-0.005467042648171501,-0.007674947596485886
-0.005466702648171501,-0.006457145959567274
-0.005466362648171501,-0.005535566342440151
-0.005466022648171501,-0.005798874804476131
-0.005465682648171501,-0.004943122302857646
-0.005465342648171501,-0.003429098646151851
-0.005465002648171501,-0.005535566342439673
-0.005464662648171501,-0.006259664613039929
-0.005464322648171501,-0.004712727398575925
-0.005463982648171501,-0.004811468071839416
-0.005463642648171501,-0.005206430764894101
-0.005463302648171501,-0.004153196916749114
-0.005462962648171501,-0.004613986725312075
-0.005462622648171501,-0.004712727398575745
-0.005462282648171501,-0.00398862912798405
-0.005461942648171501,-0.008695267886877155
-0.005461602648171501,-0.005272257880403218
-0.005461262648171501,-0.001816334316172566
-0.005460922648171501,-0.0006314462370106654
-0.005460582648171501,-0.001520112296383706
-0.005460242648171501,-0.005667220573458382
-0.005459902648171501,-0.005930529035494358
-0.005459562648171501,-0.003659493550429917
-0.005459222648171501,-0.003494925761659468
-0.005458882648171501,-0.004778554514084859
-0.005458542648171501,-0.00500894941836676
-0.005458202648171501,-0.003659493550428241
-0.005457862648171501,-0.002737913933302319
-0.005457522648171501,-0.002573346144529535
-0.005457182648171501,-0.001421371623122131
-0.005456842648171501,-0.0008289275835380062
-0.005456502648171501,-0.001717593642911051
-0.005456162648171501,-0.002935395279827448
-0.005455822648171501,-0.001125149603329021
-0.005455482648171501,-0.003067049510847891
-0.005455142648171501,-0.004087369801237306
-0.005454802648171501,-0.003330357972884349
-0.005454462648171501,-0.004186110474502833
-0.005454122648171501,-0.005272257880401242
-0.005453782648171501,-0.004712727398575745
-0.005453442648171501,-0.004581073167557518
-0.005453102648171501,-0.006720454421599837
-0.005452762648171501,-0.005206430764894101
-0.005452422648171501,-0.003889888454711818
-0.005452082648171501,-0.003692407108184836
-0.005451742648171501,-0.003922802012466375
-0.005451402648171501,-0.006621713748340058
-0.005451062648171501,-0.000796014025794046
-0.005450722648171501,0.001672502805808333
-0.005450382648171501,-0.00217838345147485
-0.005450042648171501,-0.003856974896954208
-0.005449702648171501,-0.002540432586774978
-0.005449362648171501,-0.002474605471265861
-0.005449022648171501,-0.004284851147763211
-0.005448682648171501,-0.004548159609802961
-0.005448342648171501,-0.002408778355756747
-0.005448002648171501,-0.002737913933302319
-0.005447662648171501,-0.0001377428706923062
-0.005447322648171501,0.0009154909774535189
-0.005446982648171501,0.0002243062646078188
-0.005446642648171501,-0.0007631004680288926
-0.005446302648171501,-0.0001377428706923062
-0.005445962648171501,-0.002803741048811433
-0.005445622648171501,-0.005469739226928703
-0.005445282648171501,-0.004449418936539287
-0.005444942648171501,-0.006424232401812717
-0.005444602648171501,-0.0067533679793605
-0.005444262648171501,-0.007971169616276898
-0.005443922648171501,-0.007247071345676644
-0.005443582648171501,-0.007740774711992545
-0.005443242648171501,-0.006391318844058157
-0.005442902648171501,-0.005667220573457903
-0.005442562648171501,-0.006852108652619504
-0.005442222648171501,-0.005502652784685116
-0.005441882648171501,-0.004811468071839416
-0.005441542648171501,0.001606675690288442
-0.005441202648171501,-0.00431776470552106
-0.005440862648171501,-0.002672086817793205
-0.005440522648171501,-0.001059322487817513
-0.005440182648171501,0.0002572198223623791
-0.005439842648171501,0.00180415703682656
-0.005439502648171501,0.001442107901526914
-0.005439162648171501,0.001705416363562889
-0.005438822648171501,0.002692823096199604
-0.005438482648171501,0.003186526462515565
-0.005438142648171501,0.001869984152335677
-0.005437802648171501,0.002363687518654033
-0.005437462648171501,0.001145885881733265
-0.005437122648171501,-3.900219742863573e-05
-0.005436782648171501,-0.0007301869102743358
-0.005436442648171501,-0.003560752877161098
-0.005436102648171501,-0.00500894941836676
-0.005435762648171501,-0.001289717392101805
-0.005435422648171501,-0.001783420758419266
-0.005435082648171501,-0.0006314462370106654
-0.005434742648171501,-0.003396185088393462
-0.005434402648171501,-0.006193837497525727
-0.005434062648171501,-0.003692407108184477
-0.005433722648171501,-0.001915074989438392
-0.005433382648171501,-0.003165790184109286
-0.005433042648171501,-0.00362657999267536
-0.005432702648171501,-0.002606259702284092
-0.005432362648171501,-0.001158063161086212
-0.005432022648171501,-0.004054456243484602
-0.005431682648171501,-0.004844381629593972
-0.005431342648171501,-0.005206430764893443
-0.005431002648171501,-0.005338084995912332
-0.005430662648171501,-0.007576206923222212
-0.005430322648171501,-0.005634307015706878
-0.005429982648171501,-0.005996356151003471
-0.005429642648171501,-0.00491020874510309
-0.005429302648171501,-0.001980902104952833
-0.005428962648171501,-0.000697273352519779
-0.005428622648171501,-0.0002693971017105369
-0.005428282648171501,0.001376280786014324
-0.005427942648171501,0.0005863553999079472
-0.005427602648171501,-0.00227712412473852
-0.005427262648171501,-0.003560752877166246
-0.005426922648171501,-0.004844381629593972
-0.005426582648171501,-0.005733047688967017
-0.005426242648171501,-0.005074776533875874
-0.005425902648171501,-0.008267391636067913
-0.005425562648171501,-0.002145469893720293
-0.005425222648171501,0.0002901333801169359
-0.005424882648171501,0.002890304442726945
-0.005424542648171501,0.002199119729881245
-0.005424202648171501,-0.002803741048811433
-0.005423862648171501,-0.001585939411890425
-0.005423522648171501,-0.0002693971017105369
-0.005423182648171501,-0.0005327055637469914
-0.005422842648171501,-0.002968308837582843
-0.005422502648171501,-0.002211297009229406
-0.005422162648171501,-0.003132876626357004
-0.005421822648171501,-0.001717593642915062
-0.005421482648171501,-0.003922802012466375
-0.005421142648171501,-0.004844381629593972
-0.005420802648171501,-0.00418611047450433
-0.005420462648171501,-0.00500894941836676
-0.005420122648171501,-0.006325491728549043
-0.005419782648171501,-0.006457145959560688
-0.005419442648171501,-0.002836654606565989
-0.005419102648171501,-0.003692407108184477
-0.005418762648171501,-0.002540432586775158
-0.005418422648171501,-0.002639173260038648
-0.005418082648171501,-0.00431776470552106
-0.005417742648171501,-0.004449418936541024
