Analysis/files/cmb03_d2s01/wrd09_ch10.csv

#Digilent WaveForms Oscilloscope Acquisition
#Device Name: ADP3450
#Serial Number: SN:210018B9D9B0
#Date Time: 2024-08-09 13:05:31.597.758.020
#Sample rate: 2.94118e+06Hz
#Samples: 32768
#Trigger: Source: Channel 3 Type: Edge Condition: Rising Level: 20 mV Hyst.: Auto HoldOff: 0 s
#Channel 3: Range: 200 mV/div Offset: 0 V Attenuation: 1 X Coupling: DC Bandwidth: 0 Hz Sample Mode: Average

Time (s),Channel 3 (V)
-0.005570286397306398,0.004564998830719684
-0.005569946397306397,0.005618232678861798
-0.005569606397306397,0.00357759209808297
-0.005569266397306398,0.0009115939199638446
-0.005568926397306397,0.002853493827482415
-0.005568586397306397,0.002688926038709928
-0.005568246397306398,0.002162309114637015
-0.005567906397306397,0.001504037959548507
-0.005567566397306397,0.002952234500746385
-0.005567226397306398,0.002195222672391572
-0.005566886397306397,0.0009445074777158873
-0.005566546397306397,-0.0004378619479729968
-0.005566206397306398,-0.002412675413246423
-0.005565866397306397,-0.001655663584889454
-0.005565526397306397,-0.0004707755057275538
-0.005565186397306398,-0.002544329644264652
-0.005564846397306397,-0.003893785512199577
-0.005564506397306397,-0.002840551664055666
-0.005564166397306398,-0.005374895611156563
-0.005563826397306397,-0.009061214079654925
-0.005563486397306397,-0.00244558897100098
-0.005563146397306398,-0.003301341472619465
-0.005562806397306398,-0.002675983875284017
-0.005562466397306397,-0.003762131281183265
-0.005562126397306398,-0.008172548020293918
-0.005561786397306398,-0.006987659941132016
-0.005561446397306397,-0.00244558897100098
-0.005561106397306398,-0.003795044838937822
-0.005560766397306398,-0.005276154937890198
-0.005560426397306397,-0.004782451571574535
-0.005560086397306398,-0.004321661763010735
-0.005559746397306398,-0.007020573498879509
-0.005559406397306397,-0.006329388786038719
-0.005559066397306398,-0.006164820997265934
-0.005558726397306398,-0.007843412442745293
-0.005558386397306397,-0.005440722726665677
-0.005558046397306397,-0.003663390607919593
-0.005557706397306398,-0.00524324138013546
-0.005557366397306397,-0.005802771861965805
-0.005557026397306397,-0.004881192244838206
-0.005556686397306398,-0.005769858304209632
-0.005556346397306397,-0.007843412442748346
-0.005556006397306397,-0.007975066673766575
-0.005555666397306398,-0.009982793696790906
-0.005555326397306397,-0.009357436099457973
-0.005554986397306397,-0.009423263214967087
-0.005554646397306398,-0.01143099023799142
-0.005554306397306397,-0.01241839697063178
-0.005553966397306397,-0.01106894110269494
-0.005553626397306398,-0.01445903755141432
-0.005553286397306397,-0.009357436099457973
-0.005552946397306397,-0.006691437921338847
-0.005552606397306398,-0.006131907439511376
-0.005552266397306397,-0.00517741426462922
-0.005551926397306397,-0.007645931096221003
-0.005551586397306398,-0.008732078502121389
-0.005551246397306397,-0.007678844653976099
-0.005550906397306397,-0.007975066673766575
-0.005550566397306398,-0.008106720904784802
-0.005550226397306397,-0.01113476821820496
-0.005549886397306397,-0.01162847158452241
-0.005549546397306398,-0.01146390379574963
-0.005549206397306397,-0.01347163081877965
-0.005548866397306397,-0.01459069178243255
-0.005548526397306398,-0.0136361986075504
-0.005548186397306397,-0.01386659351183062
-0.005547846397306397,-0.0129450138947047
-0.005547506397306398,-0.01143099023799507
-0.005547166397306397,-0.01034484283209469
-0.005546826397306397,-0.01034484283209469
-0.005546486397306398,-0.008633337828857716
-0.005546146397306397,-0.009719485234759719
-0.005545806397306397,-0.01060815129413114
-0.005545466397306398,-0.01024610215883101
-0.005545126397306397,-0.01011444792781536
-0.005544786397306397,-0.01152973091125874
-0.005544446397306398,-0.01159555802676786
-0.005544106397306397,-0.01103602754494206
-0.005543766397306397,-0.01195760716206798
-0.005543426397306398,-0.01120059533371317
-0.005543086397306397,-0.01353745793427673
-0.005542746397306397,-0.008040893789275689
-0.005542406397306398,-0.003860871954446936
-0.005542066397306398,-0.008370029366813058
-0.005541726397306397,-0.008205461578048474
-0.005541386397306398,-0.004453315994028964
-0.005541046397306398,-0.004815365129328434
-0.005540706397306397,-0.009258695426194301
-0.005540366397306398,-0.008732078502121389
-0.005540026397306398,-0.00823837513580393
-0.005539686397306397,-0.01152973091125874
-0.005539346397306398,-0.01185886648880431
-0.005539006397306398,-0.01014736148557046
-0.005538666397306397,-0.01123350889146773
-0.005538326397306398,-0.01027901571658557
-0.005537986397306398,-0.0099498801390406
-0.005537646397306397,-0.009456176772721644
-0.005537306397306398,-0.01100311398718583
-0.005536966397306398,-0.01037775638985038
-0.005536626397306397,-0.0120234342775771
-0.005536286397306397,-0.01380076639632318
-0.005535946397306398,-0.01340580370326921
-0.005535606397306397,-0.0143273833203961
-0.005535266397306397,-0.01597306120812395
-0.005534926397306398,-0.01603888832363294
-0.005534586397306397,-0.0124842240861409
-0.005534246397306397,-0.01376785283856862
-0.005533906397306398,-0.0128791867791972
-0.005533566397306397,-0.009916966581285444
-0.005533226397306397,-0.00962074456149443
-0.005532886397306398,-0.0101802750433219
-0.005532546397306397,-0.007349709076429989
-0.005532206397306397,-0.00711931417214809
-0.005531866397306398,-0.007744671769484675
-0.005531526397306397,0.0008457668044547304
-0.005531186397306397,-0.0111018546604495
-0.005530846397306398,-0.01472234601345078
-0.005530506397306397,-0.0104106699476038
-0.005530166397306397,-0.009916966581285444
-0.005529826397306398,-0.01113476821820406
-0.005529486397306397,-0.009620744561493352
-0.005529146397306397,-0.009028300521912402
-0.005528806397306398,-0.01024610215883101
-0.005528466397306397,-0.009719485234757562
-0.005528126397306397,-0.009423263214967087
-0.005527786397306398,-0.01139807668024051
-0.005527446397306397,-0.01093728687167678
-0.005527106397306397,-0.01097020042943127
-0.005526766397306398,-0.01222091562410444
-0.005526426397306397,-0.01195760716206805
-0.005526086397306397,-0.01199052071982254
-0.005525746397306398,-0.0143273833203961
-0.005525406397306397,-0.01511730870650672
-0.005525066397306397,-0.01580849341935116
-0.005524726397306398,-0.01794787467339738
-0.005524386397306397,-0.01679590015198303
-0.005524046397306397,-0.01412990197386875
-0.005523706397306398,-0.01383367995407774
-0.005523366397306397,-0.01376785283856683
-0.005523026397306397,-0.01278044610593191
-0.005522686397306398,-0.01659841880546054
-0.005522346397306397,-0.02532051161042823
-0.005522006397306397,-0.03084998931318376
-0.005521666397306398,-0.05102600021672727
-0.005521326397306397,-0.0742958855492484
-0.005520986397306397,-0.1013837435811996
-0.005520646397306398,-0.1378848791310035
-0.005520306397306398,-0.1697781165951113
-0.005519966397306397,-0.195220296739442
-0.005519626397306398,-0.2207941311147328
-0.005519286397306398,-0.2408714013449761
-0.005518946397306397,-0.2558799836810907
-0.005518606397306398,-0.2638450646576935
-0.005518266397306398,-0.2686504440898502
-0.005517926397306397,-0.2657211374497033
-0.005517586397306398,-0.2619031647501747
-0.005517246397306398,-0.257756056473108
-0.005516906397306397,-0.249988456843025
-0.005516566397306398,-0.2403118708631852
-0.005516226397306398,-0.2329063203684233
-0.005515886397306397,-0.2261590410287256
-0.005515546397306397,-0.2169761584152042
-0.005515206397306398,-0.2093731265739154
-0.005514866397306397,-0.202132143867899
-0.005514526397306397,-0.1931138290431503
-0.005514186397306398,-0.1856424514328794
-0.005513846397306397,-0.179685097479291
-0.005513506397306397,-0.172477028331043
-0.005513166397306398,-0.166782982839515
-0.005512826397306397,-0.1634257999485398
-0.005512486397306397,-0.1582912849388289
-0.005512146397306398,-0.1565139528200828
-0.005511806397306397,-0.1529592885825906
-0.005511466397306397,-0.1416041111572684
-0.005511126397306398,-0.1361733741277665
-0.005510786397306397,-0.1304464150784736
-0.005510446397306397,-0.127813330458109
-0.005510106397306398,-0.1254435542997809
-0.005509766397306397,-0.1201773850590518
-0.005509426397306397,-0.1143845988942497
-0.005509086397306398,-0.1107641075412484
-0.005508746397306397,-0.1089867754224956
-0.005508406397306397,-0.1053004569539919
-0.005508066397306398,-0.1019103605052726
-0.005507726397306397,-0.09980389280897678
-0.005507386397306397,-0.09753285732391645
-0.005507046397306398,-0.09417567443295163
-0.005506706397306397,-0.09262873721848405
-0.005506366397306397,-0.0907526644264777
-0.005506026397306398,-0.08594728499431237
-0.005505686397306397,-0.08282049700762531
-0.005505346397306397,-0.08054946152256501
-0.005505006397306398,-0.07462502112674471
-0.005504666397306397,-0.07192610939086722
-0.005504326397306397,-0.06981964169457938
-0.005503986397306398,-0.06593584187954163
-0.005503646397306397,-0.06491552158914864
-0.005503306397306397,-0.06396102841426821
-0.005502966397306398,-0.06178873360246744
-0.005502626397306397,-0.06001140148372088
-0.005502286397306397,-0.05974809302168491
-0.005501946397306398,-0.05876068628904819
-0.005501606397306397,-0.06017596927248397
-0.005501266397306397,-0.05458066445421944
-0.005500926397306398,-0.05086143242795448
-0.005500586397306397,-0.04819543424983547
-0.005500246397306397,-0.04826126136534448
-0.005499906397306398,-0.05066395108142714
-0.005499566397306398,-0.04819543424983985
-0.005499226397306397,-0.04608896655354371
-0.005498886397306398,-0.04552943607171624
-0.005498546397306398,-0.04414706664602735
-0.005498206397306397,-0.04283052433584255
-0.005497866397306398,-0.04299509212461534
-0.005497526397306398,-0.03930877365611164
-0.005497186397306397,-0.03825553980795911
-0.005496846397306398,-0.03664277547798581
-0.005496506397306398,-0.03509583826352445
-0.005496166397306397,-0.03414134508863947
-0.005495826397306398,-0.03377929595333935
-0.005495486397306398,-0.03015880460034465
-0.005495146397306397,-0.0282169046928192
-0.005494806397306397,-0.02963218767626515
-0.005494466397306398,-0.02877643517464822
-0.005494126397306397,-0.026373745458564
-0.005493786397306397,-0.0275257199799735
-0.005493446397306398,-0.02788776911527296
-0.005493106397306397,-0.02745989286446438
-0.005492766397306397,-0.02808525046180097
-0.005492426397306398,-0.02838147248159144
-0.005492086397306397,-0.02696618949814603
-0.005491746397306397,-0.02950053344524692
-0.005491406397306398,-0.03045502662012734
-0.005491066397306397,-0.03104747065971111
-0.005490726397306397,-0.02525468449490905
-0.005490386397306398,-0.02443184555104513
-0.005490046397306397,-0.02166710669966233
-0.005489706397306397,-0.02456349978206336
-0.005489366397306398,-0.02739406574895527
-0.005489026397306397,-0.0233786117028993
-0.005488686397306397,-0.02110757621783486
-0.005488346397306398,-0.01814535601992472
-0.005488006397306397,-0.0190340220793007
-0.005487666397306397,-0.02064678640927106
-0.005487326397306398,-0.02104174910232575
-0.005486986397306397,-0.01939607121459759
-0.005486646397306397,-0.0192315034258251
-0.005486306397306398,-0.01926441698357966
-0.005485966397306397,-0.01804661534665884
-0.005485626397306397,-0.01682881370974244
-0.005485286397306398,-0.01689464082525155
-0.005484946397306397,-0.01742125774932201
-0.005484606397306397,-0.01607180188138762
-0.005484266397306398,-0.01929733054133422
-0.005483926397306397,-0.01877071361725831
-0.005483586397306397,-0.01712503572953345
-0.005483246397306398,-0.01626928322791496
-0.005482906397306397,-0.01630219678566563
-0.005482566397306397,-0.01416281553162331
-0.005482226397306398,-0.01422864264713243
-0.005481886397306397,-0.01528187649527729
-0.005481546397306397,-0.01475525957120534
-0.005481206397306398,-0.01587432053486028
-0.005480866397306397,-0.01962646611887608
-0.005480526397306397,-0.01758582553809725
-0.005480186397306398,-0.0134058037032685
-0.005479846397306397,-0.01465651889793646
-0.005479506397306397,-0.0117930393732952
-0.005479166397306398,-0.01380076639632318
-0.005478826397306398,-0.01751999842258137
-0.005478486397306397,-0.0152489629375237
-0.005478146397306398,-0.01478817312895989
-0.005477806397306398,-0.01676298659422973
-0.005477466397306397,-0.01702629505626978
-0.005477126397306398,-0.01666424592096965
-0.005476786397306398,-0.01834283736644901
-0.005476446397306397,-0.01495274091773268
-0.005476106397306398,-0.01297792745245925
-0.005475766397306398,-0.01442612399365713
-0.005475426397306397,-0.01488691380222357
-0.005475086397306398,-0.01310958168347748
-0.005474746397306398,-0.01268170543266902
-0.005474406397306397,-0.01491982735997812
-0.005474066397306398,-0.01380076639632318
-0.005473726397306398,-0.01498565447548508
-0.005473386397306397,-0.01304375456796837
-0.005473046397306397,-0.01185886648880431
-0.005472706397306398,-0.01284627322143923
-0.005472366397306397,-0.0143273833203961
-0.005472026397306397,-0.0127146189904228
-0.005471686397306398,-0.01218800206635084
-0.005471346397306397,-0.01442612399365977
-0.005471006397306397,-0.01330706303000483
-0.005470666397306398,-0.01636802390117307
-0.005470326397306397,-0.01946189833010701
-0.005469986397306397,-0.01172721225778608
-0.005469646397306398,-0.01185886648880431
-0.005469306397306397,-0.01320832235674115
-0.005468966397306397,-0.01353745793428673
-0.005468626397306398,-0.01600597476587851
-0.005468286397306397,-0.01597306120812395
-0.005467946397306397,-0.01304375456796837
-0.005467606397306398,-0.01241839697063178
-0.005467266397306397,-0.01162847158452241
-0.005466926397306397,-0.009489090330476201
-0.005466586397306398,-0.008139634462539359
-0.005466246397306397,-0.00978531235027009
-0.005465906397306397,-0.01136516312248596
-0.005465566397306398,-0.01100311398718583
-0.005465226397306397,-0.01419572908938332
-0.005464886397306397,-0.01719086284504256
-0.005464546397306398,-0.01653259168995142
-0.005464206397306397,-0.01439321043590844
-0.005463866397306397,-0.01617054255465129
-0.005463526397306398,-0.01442612399365977
-0.005463186397306397,-0.01439321043590353
-0.005462846397306397,-0.01347163081877761
-0.005462506397306398,-0.01284627322144103
-0.005462166397306397,-0.01255005120165199
-0.005461826397306397,-0.0136361986075504
-0.005461486397306398,-0.01327414947225027
-0.005461146397306397,-0.01189178004656318
-0.005460806397306397,-0.01426155620488698
-0.005460466397306398,-0.01445903755141432
-0.005460126397306397,-0.01472234601345707
-0.005459786397306397,-0.01817826957767928
-0.005459446397306398,-0.01136516312248596
-0.005459106397306397,-0.00915995475293057
-0.005458766397306397,-0.009127041195176074
-0.005458426397306398,-0.01008153437005823
-0.005458086397306397,-0.0118259529310479
-0.005457746397306397,-0.01080563264065849
-0.005457406397306398,-0.00837002936682126
-0.005457066397306398,-0.008666251386611734
-0.005456726397306397,-0.008764992059875945
-0.005456386397306398,-0.009456176772721644
-0.005456046397306398,-0.007777585327242285
-0.005455706397306397,-0.009159954752930631
-0.005455366397306398,-0.01044358350535836
-0.005455026397306398,-0.00909412763742397
-0.005454686397306397,-0.009653658119248986
-0.005454346397306398,-0.01152973091125874
-0.005454006397306398,-0.01041066994760583
-0.005453666397306397,-0.01024610215883101
-0.005453326397306398,-0.01172721225778608
-0.005452986397306398,-0.01083854619841466
-0.005452646397306397,-0.01008153437005823
-0.005452306397306397,-0.01176012581554064
-0.005451966397306398,-0.01159555802676816
-0.005451626397306397,-0.01159555802676786
-0.005451286397306397,-0.01324123591449571
-0.005450946397306398,-0.01225382918186079
-0.005450606397306397,-0.0115626444690133
-0.005450266397306397,-0.01245131052838634
-0.005449926397306398,-0.01353745793428475
-0.005449586397306397,-0.01584140697710572
-0.005449246397306397,-0.01436029687815065
-0.005448906397306398,-0.010213188601084
-0.005448566397306397,-0.009489090330476201
-0.005448226397306397,-0.008501683597839487
-0.005447886397306398,-0.01123350889146773
-0.005447546397306397,-0.01208926139308621
-0.005447206397306397,-0.009225781868439744
-0.005446866397306398,-0.01136516312248596
-0.005446526397306397,-0.01172721225778608
-0.005446186397306397,-0.01284627322144103
-0.005445846397306398,-0.01531479005303281
-0.005445506397306397,-0.01551227139955351
-0.005445166397306397,-0.01185886648880431
-0.005444826397306398,-0.01366911216530495
-0.005444486397306397,-0.01613762899689356
-0.005444146397306397,-0.01439321043590521
-0.005443806397306398,-0.01459069178243255
-0.005443466397306397,-0.01366911216529963
-0.005443126397306397,-0.01073980552514937
-0.005442786397306398,-0.0115626444690133
-0.005442446397306397,-0.01143099023799304
-0.005442106397306397,-0.01031192927434013
-0.005441766397306398,-0.01143099023799507
-0.005441426397306397,-0.0122209156241033
-0.005441086397306397,-0.01159555802676786
-0.005440746397306398,-0.01199052071982254
-0.005440406397306397,-0.0126487918749129
-0.005440066397306397,-0.01222091562410444
-0.005439726397306398,-0.01314249524123204
-0.005439386397306397,-0.01409698841611767
-0.005439046397306397,-0.01600597476587851
-0.005438706397306398,-0.009258695426194301
-0.005438366397306397,-0.008830819175381767
-0.005438026397306397,-0.007020573498884419
-0.005437686397306398,-0.006033166766247705
-0.005437346397306397,-0.01100311398718828
-0.005437006397306397,-0.01235256985512267
-0.005436666397306398,-0.01139807668024051
-0.005436326397306398,-0.01350454437652834
-0.005435986397306397,-0.01182595293104976
-0.005435646397306398,-0.01054232417862203
-0.005435306397306398,-0.01360328504979027
-0.005434966397306397,-0.01284627322144103
-0.005434626397306398,-0.0111018546604495
-0.005434286397306398,-0.01251713764389288
-0.005433946397306397,-0.01459069178243255
-0.005433606397306398,-0.0150185680332418
-0.005433266397306398,-0.01452486466692434
-0.005432926397306397,-0.01449195110916888
-0.005432586397306398,-0.01268170543266824
-0.005432246397306398,-0.01366911216530316
-0.005431906397306397,-0.01278044610593191
-0.005431566397306398,-0.01080563264065849
-0.005431226397306398,-0.01047649706311351
-0.005430886397306397,-0.01258296475940457
-0.005430546397306397,-0.01212217495084077
-0.005430206397306398,-0.01037775638985242
-0.005429866397306397,-0.01320832235674115
-0.005429526397306397,-0.01169429870003153
-0.005429186397306398,-0.0108056326406601
-0.005428846397306397,-0.01383367995407774
-0.005428506397306397,-0.01422864264713243
-0.005428166397306398,-0.007843412442759962
-0.005427826397306397,-0.009028300521912402
-0.005427486397306397,-0.009291608983948858
-0.005427146397306398,-0.01231965629736811
-0.005426806397306397,-0.01636802390117864
-0.005426466397306397,-0.01482108668671445
-0.005426126397306398,-0.01291210033695014
-0.005425786397306397,-0.01324123591449571
-0.005425446397306397,-0.0124842240861409
-0.005425106397306398,-0.009916966581285444
-0.005424766397306397,-0.01014736148556734
-0.005424426397306397,-0.01021318860107646
-0.005424086397306398,-0.008402942924575817
-0.005423746397306397,-0.009357436099460848
-0.005423406397306397,-0.01093728687167671
-0.005423066397306398,-0.0111018546604495
-0.005422726397306397,-0.0113322495647332
-0.005422386397306397,-0.01231965629736811
-0.005422046397306398,-0.01027901571658557
-0.005421706397306397,-0.0101473614855701
-0.005421366397306397,-0.01166138514227697
-0.005421026397306398,-0.00962074456149443
-0.005420686397306397,-0.008797905617633855
-0.005420346397306397,-0.0106410648518857
-0.005420006397306398,-0.0111018546604495
-0.005419666397306397,-0.009258695426196695
-0.005419326397306397,-0.01057523773637659
-0.005418986397306398,-0.009785312350267215
-0.005418646397306397,-0.01087145975617754
-0.005418306397306397,-0.01633511034342408
-0.005417966397306398,-0.01241839697063178
-0.005417626397306397,-0.008468770040095946
-0.005417286397306397,-0.01452486466692344
-0.005416946397306398,-0.01689464082525155
-0.005416606397306397,-0.01129933600697798
-0.005416266397306397,-0.01192469360431343
-0.005415926397306398,-0.01268170543266824
