Analysis/files/cmb03_d2s01/wrd02_ch43.csv

#Digilent WaveForms Oscilloscope Acquisition
#Device Name: ADP3450
#Serial Number: SN:210018B9D9B0
#Date Time: 2024-08-09 12:14:16.784.466.400
#Sample rate: 2.94118e+06Hz
#Samples: 32768
#Trigger: Source: Channel 3 Type: Edge Condition: Rising Level: 20 mV Hyst.: Auto HoldOff: 0 s
#Channel 3: Range: 200 mV/div Offset: 0 V Attenuation: 1 X Coupling: DC Bandwidth: 0 Hz Sample Mode: Average

Time (s),Channel 3 (V)
-0.005570337432188066,0.008975415569830336
-0.005569997432188065,0.009469118936151086
-0.005569657432188065,0.01078566124633098
-0.005569317432188066,0.008415885088002865
-0.005568977432188065,0.005914454698659398
-0.005568637432188065,0.007494305470875266
-0.005568297432188066,0.00505870219703804
-0.005567957432188065,0.003347197193800113
-0.005567617432188065,0.002820580269728157
-0.005567277432188066,0.002096481999127901
-0.005566937432188065,-0.002412675413244747
-0.005566597432188065,-0.001491095796118824
-0.005566257432188066,0.005223269985810825
-0.005565917432188065,-0.0002732941591835077
-0.005565577432188065,0.008909588454321223
-0.005565237432188066,0.003314283636046514
-0.005564897432188065,-0.005045760033609075
-0.005564557432188065,-0.003992526185465165
-0.005564217432188065,-0.001063219545309582
-0.005563877432188065,-0.002610156759773586
-0.005563537432188065,-0.002511416086510094
-0.005563197432188065,-0.002379761855491866
-0.005562857432188066,-0.002873465221809324
-0.005562517432188065,-0.002577243202019209
-0.005562177432188065,-0.00313677368384668
-0.005561837432188066,-0.005802771861960956
-0.005561497432188065,-0.006164820997265934
-0.005561157432188065,-0.00665852436358429
-0.005560817432188066,-0.009785312350261527
-0.005560477432188065,-0.01021318860107646
-0.005560137432188065,-0.006790178594602518
-0.005559797432188066,-0.007020573498884
-0.005559457432188065,-0.005605290515438462
-0.005559117432188065,-0.004617883782801749
-0.005558777432188066,-0.003564649934657838
-0.005558437432188065,-0.002939292337319337
-0.005558097432188065,-0.00188605848917351
-0.005557757432188066,-0.00152400935387404
-0.005557417432188065,-0.002281021182228195
-0.005557077432188065,-0.0007340839677640107
-0.005556737432188066,-0.00109613310306348
-0.005556397432188065,-0.006559783690320619
-0.005556057432188065,-0.006461043017056948
-0.005555717432188066,-0.0007340839677744274
-0.005555377432188065,-0.00688891926786619
-0.005555037432188065,-0.003795044838937822
-0.005554697432188066,-0.001556922911632009
-0.005554357432188065,-0.01014736148556734
-0.005554017432188065,-0.008732078502121389
-0.005553677432188066,-0.006131907439511376
-0.005553337432188065,-0.006790178594602518
-0.005552997432188065,-0.008633337828857716
-0.005552657432188066,-0.007415536191939104
-0.005552317432188065,-0.006625610805829733
-0.005551977432188065,-0.007777585327239231
-0.005551637432188066,-0.00586859897747492
-0.005551297432188065,-0.0075471904229538
-0.005550957432188065,-0.005605290515438462
-0.005550617432188066,-0.004815365129329092
-0.005550277432188065,-0.005572376957685702
-0.005549937432188065,-0.006559783690320619
-0.005549597432188066,-0.006098993881756819
-0.005549257432188065,-0.006921832825624699
-0.005548917432188065,-0.009094127637421515
-0.005548577432188066,-0.009587831003739873
-0.005548237432188065,-0.01034484283209469
-0.005547897432188065,-0.01034484283209469
-0.005547557432188066,-0.009686571677003543
-0.005547217432188065,-0.009390349657214386
-0.005546877432188065,-0.0104106699476038
-0.005546537432188066,-0.00939034965721253
-0.005546197432188065,-0.008172548020300383
-0.005545857432188065,-0.01172721225778608
-0.005545517432188066,-0.01274753254817735
-0.005545177432188065,-0.004947019360355642
-0.005544837432188065,-0.009522003888230759
-0.005544497432188066,-0.008238375135803031
-0.005544157432188065,-0.003597563492424489
-0.005543817432188065,-0.01129933600697684
-0.005543477432188065,-0.01255005120165001
-0.005543137432188065,-0.007678844653976757
-0.005542797432188065,-0.008337115809066702
-0.005542457432188065,-0.01034484283209469
-0.005542117432188066,-0.009982793696795217
-0.005541777432188065,-0.01021318860107646
-0.005541437432188065,-0.01054232417862203
-0.005541097432188066,-0.009620744561496105
-0.005540757432188065,-0.01113476821820406
-0.005540417432188065,-0.01304375456796837
-0.005540077432188066,-0.01208926139308795
-0.005539737432188065,-0.0129450138947047
-0.005539397432188065,-0.01468943245569622
-0.005539057432188066,-0.01360328504979781
-0.005538717432188065,-0.01189178004655887
-0.005538377432188065,-0.01218800206634988
-0.005538037432188066,-0.008929559848654659
-0.005537697432188065,-0.008633337828857716
-0.005537357432188065,-0.008666251386612273
-0.005537017432188066,-0.008007980231522329
-0.005536677432188065,-0.006493956574811504
-0.005536337432188065,-0.008238375135803031
-0.005535997432188066,-0.008468770040084511
-0.005535657432188065,-0.008073807347030245
-0.005535317432188065,-0.01116768177595861
-0.005534977432188066,-0.01475525957119881
-0.005534637432188065,-0.008271288693557588
-0.005534297432188065,-0.008830819175385059
-0.005533957432188066,-0.01087145975616389
-0.005533617432188065,-0.00586859897747492
-0.005533277432188065,-0.0101802750433219
-0.005532937432188066,-0.01518313582201458
-0.005532597432188065,-0.01123350889146773
-0.005532257432188065,-0.0115626444690133
-0.005531917432188066,-0.01297792745245925
-0.005531577432188065,-0.0111018546604495
-0.005531237432188065,-0.0104106699476038
-0.005530897432188066,-0.01113476821820406
-0.005530557432188065,-0.01004862081230367
-0.005530217432188065,-0.01004862081230367
-0.005529877432188066,-0.01218800206634988
-0.005529537432188065,-0.01199052071982033
-0.005529197432188065,-0.01077271908290393
-0.005528857432188066,-0.0111018546604495
-0.005528517432188065,-0.01073980552514608
-0.005528177432188065,-0.008929559848648731
-0.005527837432188066,-0.008797905617630502
-0.005527497432188065,-0.007448449749692164
-0.005527157432188065,-0.006625610805829733
-0.005526817432188066,-0.007942153116012016
-0.005526477432188065,-0.006888919267866549
-0.005526137432188065,-0.007086400614393532
-0.005525797432188066,-0.008501683597839487
-0.005525457432188065,-0.01106894110269039
-0.005525117432188065,-0.008567510713348603
-0.005524777432188066,-0.01241839697063178
-0.005524437432188065,-0.01692755438299036
-0.005524097432188065,-0.008271288693557588
-0.005523757432188066,-0.009752398792512659
-0.005523417432188065,-0.01215508850858713
-0.005523077432188065,-0.007645931096221003
-0.005522737432188066,-0.01475525957120534
-0.005522397432188065,-0.02541925228368693
-0.005522057432188065,-0.0282169046928192
-0.005521717432188065,-0.04888661896268106
-0.005521377432188065,-0.07788346334449557
-0.005521037432188065,-0.1052017162807283
-0.005520697432188065,-0.1352517945106389
-0.005520357432188066,-0.1676058217833097
-0.005520017432188065,-0.1952861238549511
-0.005519677432188065,-0.2174040346660135
-0.005519337432188066,-0.2348153067181425
-0.005518997432188065,-0.2449855960643323
-0.005518657432188065,-0.2478819891467333
-0.005518317432188066,-0.2476515942424518
-0.005517977432188065,-0.2430436961568135
-0.005517637432188065,-0.2351444422957197
-0.005517297432188066,-0.2275414104544309
-0.005516957432188065,-0.2202346006329054
-0.005516617432188065,-0.2119074705210024
-0.005516277432188066,-0.2063121657027379
-0.005515937432188065,-0.2024612794454445
-0.005515597432188065,-0.1982483440528612
-0.005515257432188066,-0.1972609373202263
-0.005514917432188065,-0.1957798272212694
-0.005514577432188065,-0.1926859527923411
-0.005514237432188066,-0.1909744477891072
-0.005513897432188065,-0.1928505205811138
-0.005513557432188065,-0.1886375851885305
-0.005513217432188066,-0.1767228772814025
-0.005512877432188065,-0.1754721620867077
-0.005512537432188065,-0.1732011266016432
-0.005512197432188066,-0.1662234523576772
-0.005511857432188065,-0.1610231102324571
-0.005511517432188065,-0.1565468663778374
-0.005511177432188066,-0.1508199073285444
-0.005510837432188065,-0.1485817854012345
-0.005510497432188065,-0.143940973757842
-0.005510157432188066,-0.1372924350914214
-0.005509817432188065,-0.1351201402796207
-0.005509477432188065,-0.1303147608474554
-0.005509137432188066,-0.1264967881479267
-0.005508797432188065,-0.1223167663130928
-0.005508457432188065,-0.1194862003462061
-0.005508117432188066,-0.1144175124520043
-0.005507777432188065,-0.1116856871583679
-0.005507437432188065,-0.1072094433037563
-0.005507097432188066,-0.1014495706967088
-0.005506757432188065,-0.0982240420367566
-0.005506417432188065,-0.09516308116558836
-0.005506077432188066,-0.09134510846605973
-0.005505737432188065,-0.08693469172694619
-0.005505397432188065,-0.08535484095473034
-0.005505057432188066,-0.08232679364131107
-0.005504717432188065,-0.07992410392522704
-0.005504377432188065,-0.07916709209687359
-0.005504037432188066,-0.07557951430162688
-0.005503697432188065,-0.07241981275718508
-0.005503357432188065,-0.07005003659886128
-0.005503017432188066,-0.06787774178706052
-0.005502677432188065,-0.06633080457259052
-0.005502337432188065,-0.06313818947040428
-0.005501997432188066,-0.0602088828302487
-0.005501657432188065,-0.05727957619009114
-0.005501317432188065,-0.05619342878419274
-0.005500977432188065,-0.05836572359599351
-0.005500637432188065,-0.0565883914772403
-0.005500297432188065,-0.05267167810445512
-0.005499957432188065,-0.05128930867876372
-0.005499617432188066,-0.04891953252043992
-0.005499277432188065,-0.04707637328618042
-0.005498937432188065,-0.04496990558988876
-0.005498597432188066,-0.042205166738511
-0.005498257432188065,-0.04115193289036014
-0.005497917432188065,-0.04075697019730545
-0.005497577432188066,-0.03934168721386207
-0.005497237432188065,-0.03901255163631392
-0.005496897432188065,-0.0398024770224233
-0.005496557432188066,-0.03710356528655452
-0.005496217432188065,-0.03743270086409518
-0.005495877432188065,-0.0370377381710405
-0.005495537432188066,-0.03697191105553151
-0.005495197432188065,-0.03460213489720328
-0.005494857432188065,-0.03440465355067593
-0.005494517432188066,-0.03226527229663361
-0.005494177432188065,-0.02966510123401971
-0.005493837432188065,-0.02805233690404641
-0.005493497432188066,-0.02690036238263901
-0.005493157432188065,-0.02574838786122741
-0.005492817432188065,-0.02611043699652754
-0.005492477432188066,-0.0301258910425762
-0.005492137432188065,-0.03015880460033806
-0.005491797432188065,-0.02341152526065386
-0.005491457432188066,-0.02729532507568453
-0.005491117432188065,-0.02354317949167209
-0.005490777432188065,-0.01965937967663435
-0.005490437432188066,-0.02354317949167209
-0.005490097432188065,-0.0236090066071812
-0.005489757432188065,-0.01972520679214346
-0.005489417432188066,-0.01939607121459789
-0.005489077432188065,-0.01873780005950675
-0.005488737432188065,-0.01788204755788826
-0.005488397432188066,-0.01702629505626978
-0.005488057432188065,-0.01755291198034048
-0.005487717432188065,-0.01633511034342408
-0.005487377432188066,-0.01761873909585181
-0.005487037432188065,-0.01699338149851408
-0.005486697432188065,-0.01636802390117864
-0.005486357432188066,-0.01807952890441561
-0.005486017432188065,-0.01854031871297785
-0.005485677432188065,-0.01768456621136092
-0.005485337432188066,-0.01873780005950675
-0.005484997432188065,-0.01909984919480466
-0.005484657432188065,-0.01788204755788826
-0.005484317432188066,-0.01682881370974244
-0.005483977432188065,-0.01742125774932207
-0.005483637432188065,-0.01610471543914218
-0.005483297432188066,-0.01630219678566952
-0.005482957432188065,-0.01597306120812257
-0.005482617432188065,-0.01521604937976914
-0.005482277432188066,-0.0159401476503694
-0.005481937432188065,-0.01929733054133589
-0.005481597432188065,-0.02021891015846182
-0.005481257432188066,-0.01347163081877761
-0.005480917432188065,-0.01505148159099635
-0.005480577432188065,-0.01505148159099635
-0.005480237432188065,-0.00962074456149443
-0.005479897432188065,-0.01505148159100042
-0.005479557432188065,-0.01728960351830624
-0.005479217432188065,-0.01376785283856862
-0.005478877432188066,-0.01363619860755064
-0.005478537432188065,-0.01027901571658557
-0.005478197432188065,-0.01360328504979584
-0.005477857432188066,-0.01488691380222123
-0.005477517432188065,-0.01347163081877761
-0.005477177432188065,-0.01235256985512267
-0.005476837432188066,-0.01185886648880521
-0.005476497432188065,-0.01149681735350419
-0.005476157432188065,-0.009522003888230759
-0.005475817432188066,-0.009554917445985255
-0.005475477432188065,-0.009324522541703417
-0.005475137432188065,-0.007152227729902647
-0.005474797432188066,-0.008435856482328039
-0.005474457432188065,-0.01050941062086747
-0.005474117432188065,-0.01067397840964026
-0.005473777432188066,-0.01123350889146671
-0.005473437432188065,-0.01347163081877761
-0.005473097432188065,-0.01278044610593191
-0.005472757432188066,-0.01353745793428535
-0.005472417432188065,-0.0127146189904228
-0.005472077432188065,-0.0111018546604495
-0.005471737432188066,-0.01067397840964104
-0.005471397432188065,-0.0106410648518857
-0.005471057432188065,-0.01208926139308621
-0.005470717432188066,-0.004519143109551848
-0.005470377432188065,-0.007613017538466446
-0.005470037432188065,-0.008304202251312145
-0.005469697432188066,-0.004815365129329092
-0.005469357432188065,-0.01050941062086747
-0.005469017432188065,-0.01584140697710572
-0.005468677432188066,-0.01419572908937787
-0.005468337432188065,-0.01389950706958685
-0.005467997432188065,-0.01508439514875091
-0.005467657432188066,-0.01333997658775938
-0.005467317432188065,-0.01192469360431343
-0.005466977432188065,-0.01093728687167671
-0.005466637432188066,-0.007711758211730118
-0.005466297432188065,-0.006888919267866549
-0.005465957432188065,-0.007086400614393532
-0.005465617432188066,-0.005572376957683906
-0.005465277432188065,-0.005506549842176049
-0.005464937432188065,-0.00619773455502049
-0.005464597432188066,-0.006592697248075176
-0.005464257432188065,-0.007909239558260991
-0.005463917432188065,-0.009851139465776329
-0.005463577432188066,-0.01034484283209469
-0.005463237432188065,-0.009949880139044432
-0.005462897432188065,-0.01238548341287723
-0.005462557432188066,-0.01090437331392216
-0.005462217432188065,-0.01024610215883131
-0.005461877432188065,-0.0104106699476038
-0.005461537432188066,-0.009719485234758102
-0.005461197432188065,-0.008863732733143328
-0.005460857432188065,-0.01090437331392216
-0.005460517432188066,-0.01511730870650547
-0.005460177432188065,-0.008699164944365213
-0.005459837432188065,-0.007810498884993789
-0.005459497432188066,-0.01123350889146773
-0.005459157432188065,-0.006625610805834523
-0.005458817432188065,-0.009258695426194301
-0.005458477432188065,-0.01547935784180559
-0.005458137432188065,-0.01274753254817466
-0.005457797432188065,-0.01126642244922228
-0.005457457432188065,-0.01353745793428673
-0.005457117432188066,-0.01278044610593329
-0.005456777432188065,-0.01139807668024051
-0.005456437432188065,-0.01136516312248596
-0.005456097432188066,-0.00715222772991031
-0.005455757432188065,-0.006856005710111633
-0.005455417432188065,-0.007744671769484675
-0.005455077432188066,-0.007086400614394729
-0.005454737432188065,-0.006856005710111633
-0.005454397432188065,-0.007942153116012016
-0.005454057432188066,-0.00899538696415593
-0.005453717432188065,-0.008007980231521132
-0.005453377432188065,-0.007711758211730118
-0.005453037432188066,-0.005967339650741764
-0.005452697432188065,-0.00517741426462922
-0.005452357432188065,-0.006296475228284162
-0.005452017432188066,-0.006066080324002681
-0.005451677432188065,-0.005967339650738591
-0.005451337432188065,-0.00688891926786619
-0.005450997432188066,-0.009127041195172002
-0.005450657432188065,-0.00939034965721253
-0.005450317432188065,-0.01136516312248596
-0.005449977432188066,-0.01666424592096001
-0.005449637432188065,-0.01152973091125874
-0.005449297432188065,-0.007843412442748346
-0.005448957432188066,-0.01189178004655151
-0.005448617432188065,-0.006691437921338847
-0.005448277432188065,-0.007020573498884419
-0.005447937432188066,-0.0129450138947047
-0.005447597432188065,-0.0108714597561676
-0.005447257432188065,-0.008238375135803031
-0.005446917432188066,-0.0104106699476038
-0.005446577432188065,-0.009127041195176074
-0.005446237432188065,-0.008468770040084931
-0.005445897432188066,-0.008238375135803031
-0.005445557432188065,-0.008501683597838171
-0.005445217432188065,-0.007777585327239231
-0.005444877432188066,-0.009127041195176074
-0.005444537432188065,-0.00939034965721235
-0.005444197432188065,-0.009291608983948858
-0.005443857432188066,-0.009127041195176074
-0.005443517432188065,-0.01004862081230026
-0.005443177432188065,-0.008172548020293918
-0.005442837432188066,-0.009192868310685188
-0.005442497432188065,-0.0109702004294284
-0.005442157432188065,-0.00939034965721253
-0.005441817432188066,-0.01057523773637659
-0.005441477432188065,-0.01018027504332148
-0.005441137432188065,-0.009949880139040001
-0.005440797432188066,-0.009818225908021772
-0.005440457432188065,-0.01136516312248224
-0.005440117432188065,-0.009324522541703417
-0.005439777432188066,-0.009587831003739873
-0.005439437432188065,-0.01399824774284118
-0.005439097432188065,-0.008863732733139616
-0.005438757432188066,-0.00438748887851985
-0.005438417432188065,-0.01018027504331202
-0.005438077432188065,-0.004749538013819977
-0.005437737432188065,-0.004914105802592763
-0.005437397432188065,-0.01156264446900971
-0.005437057432188065,-0.009587831003739873
-0.005436717432188065,-0.006724351479093405
-0.005436377432188066,-0.009554917445980167
-0.005436037432188065,-0.01037775638984924
-0.005435697432188065,-0.008468770040084931
-0.005435357432188066,-0.008402942924575937
-0.005435017432188065,-0.007020573498884419
-0.005434677432188065,-0.007613017538466446
-0.005434337432188066,-0.0105094106208622
-0.005433997432188065,-0.0101802750433219
-0.005433657432188065,-0.008797905617630502
-0.005433317432188066,-0.009489090330474943
-0.005432977432188065,-0.009982793696794558
-0.005432637432188065,-0.007975066673766575
-0.005432297432188066,-0.008271288693557049
-0.005431957432188065,-0.009291608983948858
-0.005431617432188065,-0.008139634462539359
-0.005431277432188066,-0.008172548020293857
-0.005430937432188065,-0.008567510713348603
-0.005430597432188065,-0.00790923955825746
-0.005430257432188066,-0.007448449749694499
-0.005429917432188065,-0.009094127637421515
-0.005429577432188065,-0.008139634462539359
-0.005429237432188066,-0.007415536191940421
-0.005428897432188065,-0.01116768177595861
-0.005428557432188065,-0.01462360534018711
-0.005428217432188066,-0.008007980231533166
-0.005427877432188065,-0.009028300521912402
-0.005427537432188065,-0.009192868310685188
-0.005427197432188066,-0.004584970225047193
-0.005426857432188065,-0.01067397840964026
-0.005426517432188065,-0.01412990197386875
-0.005426177432188066,-0.009258695426194301
-0.005425837432188065,-0.008830819175385059
-0.005425497432188065,-0.0113322495647314
-0.005425157432188066,-0.01008153437005823
-0.005424817432188065,-0.00860042427110316
-0.005424477432188065,-0.008337115809066702
-0.005424137432188066,-0.006691437921338847
-0.005423797432188065,-0.006230648112776844
-0.005423457432188065,-0.007218054845411761
-0.005423117432188066,-0.005572376957683906
-0.005422777432188065,-0.005078673591368183
-0.005422437432188065,-0.006526870132566062
-0.005422097432188066,-0.006724351479093405
-0.005421757432188065,-0.006395215901549689
-0.005421417432188065,-0.007415536191939104
-0.005421077432188066,-0.008534597155594046
-0.005420737432188065,-0.009818225908025485
-0.005420397432188065,-0.01185886648880431
-0.005420057432188066,-0.01172721225778608
-0.005419717432188065,-0.01156264446901581
-0.005419377432188065,-0.0129450138947047
-0.005419037432188066,-0.01255005120165001
-0.005418697432188065,-0.01060815129413444
-0.005418357432188065,-0.01241839697063178
-0.005418017432188066,-0.01324123591449571
-0.005417677432188065,-0.004255834647505752
-0.005417337432188065,-0.006526870132566062
-0.005416997432188066,-0.00688891926786619
-0.005416657432188065,-0.001918972046939562
