Analysis/files/cmb03_d2s01/wrd06_ch01.csv

#Digilent WaveForms Oscilloscope Acquisition
#Device Name: ADP3450
#Serial Number: SN:210018B9D9B0
#Date Time: 2024-08-09 18:01:02.979.041.420
#Sample rate: 2.94118e+06Hz
#Samples: 32768
#Trigger: Source: Channel 3 Type: Edge Condition: Rising Level: 60 mV Hyst.: Auto HoldOff: 0 s
#Channel 3: Range: 200 mV/div Offset: -20 mV Attenuation: 1 X Coupling: DC Bandwidth: 0 Hz Sample Mode: Average

Time (s),Channel 3 (V)
-0.005570327153762268,0.002890304442726945
-0.005569987153762268,0.001442107901525776
-0.005569647153762268,0.001080058766226306
-0.005569307153762268,0.0008496638619444052
-0.005568967153762268,0.001409194343770737
-0.005568627153762268,0.0007838367464352916
-0.005568287153762268,0.0005863553999079472
-0.005567947153762268,0.001376280786013486
-0.005567607153762268,-0.0007301869102743358
-0.005567267153762268,-0.006325491728549043
-0.005566927153762268,0.0008825774197015963
-0.005566587153762268,0.002330773960899476
-0.005566247153762268,0.001475021459280992
-0.005565907153762268,0.002363687518646848
-0.005565567153762268,-0.00158593941189282
-0.005565227153762268,-0.001783420758420164
-0.005564887153762268,0.001606675690299039
-0.005564547153762268,0.001507935017035548
-0.005564207153762268,-0.0001048293129377494
-0.005563867153762268,0.0003888740533798879
-0.005563527153762268,-6.088639674078911e-06
-0.005563187153762268,-0.001783420758420164
-0.005562847153762269,-0.001520112296384185
-0.005562507153762268,-6.088639674078911e-06
-0.005562167153762268,-0.0002035699862014233
-0.005561827153762269,0.0006192689576610073
-0.005561487153762268,-0.003692407108184477
-0.005561147153762268,-0.004646900283066632
-0.005560807153762269,-0.005370998553665572
-0.005560467153762268,-0.006917935768131073
-0.005560127153762268,-0.005996356151003471
-0.005559787153762269,-0.00734581201893786
-0.005559447153762268,-0.005996356151003471
-0.005559107153762268,-0.007674947596485886
-0.005558767153762269,-0.008662354329120802
-0.005558427153762268,-0.007773688269749557
-0.005558087153762268,-0.008925662791159056
-0.005557747153762269,-0.009156057695440534
-0.005557407153762268,-0.009485193272986525
-0.005557067153762268,-0.01152583385376907
-0.005556727153762269,-0.0146526218404463
-0.005556387153762268,-0.006885022210376516
-0.005556047153762268,-0.006160923939776259
-0.005555707153762269,-0.005272257880404835
-0.005555367153762268,-0.005996356151003471
-0.005555027153762268,-0.009386452599722855
-0.005554687153762269,-0.008333218751578941
-0.005554347153762268,-0.006325491728549043
-0.005554007153762268,-0.00764203403873133
-0.005553667153762269,-0.01172331520029641
-0.005553327153762268,-0.01040677289011413
-0.005552987153762268,-0.008958576348913613
-0.005552647153762269,-0.009287711926459184
-0.005552307153762268,-0.01113087116071438
-0.005551967153762268,-0.009452279715231968
-0.005551627153762268,-0.00968267461951387
-0.005551287153762268,-0.01067008135214974
-0.005550947153762268,-0.01020929154358678
-0.005550607153762268,-0.01093338981418704
-0.005550267153762268,-0.01011055087032168
-0.005549927153762268,-0.009320625484213741
-0.005549587153762268,-0.009188971253195514
-0.005549247153762268,-0.0119207965468213
-0.005548907153762268,-0.01057134067888691
-0.005548567153762268,-0.01116378471846894
-0.005548227153762268,-0.01303985751047612
-0.005547887153762268,-0.01162457452703274
-0.005547547153762268,-0.01139417962275084
-0.005547207153762268,-0.0109663033719398
-0.005546867153762268,-0.009978896639304884
-0.005546527153762268,-0.01093338981418704
-0.005546187153762268,-0.008004083174024334
-0.005545847153762268,-0.004087369801239162
-0.005545507153762268,-0.002869568164320546
-0.005545167153762268,-0.003659493550437939
-0.005544827153762268,-0.008069910289540572
-0.005544487153762268,-0.009978896639304884
-0.005544147153762268,-0.007707861154240683
-0.005543807153762268,-0.00783951538525867
-0.005543467153762268,-0.007576206923222212
-0.005543127153762268,-0.008464872982597352
-0.005542787153762268,-0.009616847504004756
-0.005542447153762268,-0.009649761061759313
-0.005542107153762269,-0.01011055087032227
-0.005541767153762268,-0.01198662366233286
-0.005541427153762268,-0.01198662366233286
-0.005541087153762269,-0.01175622875805139
-0.005540747153762268,-0.01248032702865122
-0.005540407153762268,-0.01136126606499628
-0.005540067153762269,-0.01122961183397829
-0.005539727153762268,-0.01185496943131464
-0.005539387153762268,-0.01099921692969615
-0.005539047153762269,-0.009748501735025259
-0.005538707153762268,-0.01017637798583223
-0.005538367153762268,-0.01076882202541425
-0.005538027153762269,-0.009616847504006851
-0.005537687153762268,-0.01053842712113235
-0.005537347153762268,-0.01040677289011413
-0.005537007153762269,-0.01159166096927603
-0.005536667153762268,-0.0116574880847873
-0.005536327153762268,-0.01458679472494288
-0.005535987153762269,-0.01731862001856615
-0.005535647153762268,-0.01080173558316881
-0.005535307153762268,-0.01070299490990514
-0.005534967153762269,-0.007971169616281866
-0.005534627153762268,-0.009485193272986525
-0.005534287153762268,-0.01195371010457831
-0.005533947153762269,-0.00859652721361959
-0.005533607153762268,-0.006292578170794486
-0.005533267153762268,-0.008399045867086143
-0.005532927153762269,-0.008168650962804242
-0.005532587153762268,-0.007444552692203985
-0.005532247153762268,-0.01070299490990514
-0.005531907153762269,-0.01024220510134134
-0.005531567153762268,-0.01040677289011413
-0.005531227153762268,-0.0116574880847873
-0.005530887153762268,-0.01129543894948717
-0.005530547153762268,-0.009978896639304884
-0.005530207153762268,-0.01047260000562324
-0.005529867153762268,-0.01007763731256855
-0.005529527153762268,-0.009221884810952884
-0.005529187153762268,-0.01076882202541425
-0.005528847153762268,-0.0107359084676597
-0.005528507153762268,-0.01093338981419141
-0.005528167153762268,-0.01333607953026971
-0.005527827153762268,-0.01448805405167921
-0.005527487153762268,-0.01366521510781761
-0.005527147153762268,-0.01494884386024301
-0.005526807153762268,-0.01544254722656136
-0.005526467153762268,-0.01488301674473198
-0.005526127153762268,-0.01382978289658807
-0.005525787153762268,-0.01728570646081656
-0.005525447153762268,-0.01379686933882081
-0.005525107153762268,-0.006819195094867402
-0.005524767153762268,-0.006424232401812717
-0.005524427153762268,-0.00198090210495451
-0.005524087153762268,-0.005831788362230687
-0.005523747153762268,-0.009188971253195514
-0.005523407153762268,-0.009814328850545208
-0.005523067153762268,-0.0170223979987801
-0.005522727153762268,-0.03331460908728587
-0.005522387153762268,-0.0525690403737468
-0.005522047153762268,-0.07732003580512872
-0.005521707153762268,-0.1083246072099215
-0.005521367153762268,-0.1398557955388438
-0.005521027153762268,-0.1709261940590892
-0.005520687153762268,-0.200219260460645
-0.005520347153762269,-0.2256943541626258
-0.005520007153762268,-0.2435335024656421
-0.005519667153762268,-0.2565672713364467
-0.005519327153762269,-0.2652893641413885
-0.005518987153762268,-0.2674287453954506
-0.005518647153762268,-0.2671325233756596
-0.005518307153762269,-0.2637424269269463
-0.005517967153762268,-0.2565343577786922
-0.005517627153762268,-0.2499845597855353
-0.005517287153762269,-0.2444550820827798
-0.005516947153762268,-0.2354696808157756
-0.005516607153762268,-0.2277679083012093
-0.005516267153762269,-0.2220080356941722
-0.005515927153762268,-0.2134175971202224
-0.005515587153762268,-0.2063411822029926
-0.005515247153762269,-0.1967962504541884
-0.005514907153762268,-0.1885678610155317
-0.005514567153762268,-0.180076163114856
-0.005514227153762269,-0.1726376990623397
-0.005513887153762268,-0.1656271112606054
-0.005513547153762268,-0.1642447418349141
-0.005513207153762269,-0.1595051895182664
-0.005512867153762268,-0.1509147509443184
-0.005512527153762268,-0.1455827545880802
-0.005512187153762269,-0.1425217937169063
-0.005511847153762268,-0.136827748225368
-0.005511507153762268,-0.1304425180209839
-0.005511167153762269,-0.1258675334931005
-0.005510827153762268,-0.1222470421400992
-0.005510487153762268,-0.116684650879579
-0.005510147153762269,-0.1132616408731051
-0.005509807153762268,-0.1103981613484586
-0.005509467153762268,-0.1057244361473115
-0.005509127153762268,-0.10398001758632
-0.005508787153762268,-0.1016760685434964
-0.005508447153762268,-0.09917463815415464
-0.005508107153762268,-0.09473130785728942
-0.005507767153762268,-0.09305271641180228
-0.005507427153762268,-0.090452545349197
-0.005507087153762268,-0.08844481832616902
-0.005506747153762268,-0.08666748620741493
-0.005506407153762268,-0.08225706946831229
-0.005506067153762268,-0.07893280013510201
-0.005505727153762268,-0.07465403762700618
-0.005505387153762268,-0.07277796483499985
-0.005505047153762268,-0.07083606492748099
-0.005504707153762268,-0.07090189204297301
-0.005504367153762268,-0.06152152808294132
-0.005504027153762268,-0.06023789933051358
-0.005503687153762268,-0.05770355538341281
-0.005503347153762268,-0.05776938249892181
-0.005503007153762268,-0.05783520961443091
-0.005502667153762268,-0.05372101489510882
-0.005502327153762268,-0.05237155902717443
-0.005501987153762268,-0.05016635065761912
-0.005501647153762268,-0.04812571007683526
-0.005501307153762268,-0.04740161180623632
-0.005500967153762268,-0.04513057632117188
-0.005500627153762268,-0.04387986112649702
-0.005500287153762268,-0.04295828150937111
-0.005499947153762268,-0.04124677650613413
-0.005499607153762269,-0.04101638160185265
-0.005499267153762268,-0.0427278866050892
-0.005498927153762268,-0.03933779015636982
-0.005498587153762269,-0.03752754447987248
-0.005498247153762268,-0.03670470553600525
-0.005497907153762268,-0.03512485476378651
-0.005497567153762269,-0.03288673283648071
-0.005497227153762268,-0.03262342437444017
-0.005496887153762268,-0.03239302947015827
-0.005496547153762269,-0.03107648715997838
-0.005496207153762268,-0.0327550786054584
-0.005495867153762268,-0.03295255995198575
-0.005495527153762269,-0.03160310408405136
-0.005495187153762268,-0.03124105494874877
-0.005494847153762268,-0.03209680745036726
-0.005494507153762269,-0.03660596486273338
-0.005494167153762268,-0.03196515321934903
-0.005493827153762268,-0.02834466186634775
-0.005493487153762269,-0.02623819417005992
-0.005493147153762268,-0.02567866368822862
-0.005492807153762268,-0.02739016869146559
-0.005492467153762269,-0.02745599580697458
-0.005492127153762268,-0.02228856723950924
-0.005491787153762268,-0.02284809772133671
-0.005491447153762269,-0.02116950627585736
-0.005491107153762268,-0.02034666733199037
-0.005490767153762268,-0.02103785204483607
-0.005490427153762269,-0.0200175317544448
-0.005490087153762268,-0.01962256906139011
-0.005489747153762268,-0.0211695062758543
-0.005489407153762269,-0.01998461819669024
-0.005489067153762268,-0.0188655572330353
-0.005488727153762268,-0.01942508771486277
-0.005488387153762268,-0.0179439776159077
-0.005488047153762268,-0.01662743530572512
-0.005487707153762268,-0.01646286751695263
-0.005487367153762268,-0.01633121328593441
-0.005487027153762268,-0.01452096760943424
-0.005486687153762268,-0.01478427607147022
-0.005486347153762268,-0.01577168280410694
-0.005486007153762268,-0.01531089299554595
-0.005485667153762268,-0.01685783021000732
-0.005485327153762268,-0.0167920030944982
-0.005484987153762268,-0.01764775559611537
-0.005484647153762268,-0.01692365732551643
-0.005484307153762268,-0.01847059453998062
-0.005483967153762268,-0.02103785204482457
-0.005483627153762268,-0.0147184489559611
-0.005483287153762268,-0.01297403039496958
-0.005482947153762268,-0.01132835250724179
-0.005482607153762268,-0.01136126606499628
-0.005482267153762268,-0.01577168280410694
-0.005481927153762268,-0.01468553539820182
-0.005481587153762268,-0.01208536433559654
-0.005481247153762268,-0.01412600491637908
-0.005480907153762268,-0.01540963366880274
-0.005480567153762268,-0.01317151174149692
-0.005480227153762268,-0.01396143712760629
-0.005479887153762268,-0.01244741347089643
-0.005479547153762268,-0.01231575923987844
-0.005479207153762268,-0.01198662366233286
-0.005478867153762269,-0.01201953722008736
-0.005478527153762268,-0.01043968644786868
-0.005478187153762268,-0.0109663033719416
-0.005477847153762269,-0.01139417962275006
-0.005477507153762268,-0.00909023057993184
-0.005477167153762268,-0.01014346442807767
-0.005476827153762269,-0.01067008135214962
-0.005476487153762268,-0.01040677289011413
-0.005476147153762268,-0.01113087116071438
-0.005475807153762269,-0.01241449991313977
-0.005475467153762268,-0.01438931337841554
-0.005475127153762268,-0.01445514049392465
-0.005474787153762269,-0.01547546078431406
-0.005474447153762268,-0.01468553539820655
-0.005474107153762268,-0.01452096760943376
-0.005473767153762269,-0.01817437252018296
-0.005473427153762268,-0.01774649626938036
-0.005473087153762268,-0.01126252539173261
-0.005472747153762269,-0.01132835250724161
-0.005472407153762268,-0.01169040164254185
-0.005472067153762268,-0.01353356087679705
-0.005471727153762269,-0.0177794098271272
-0.005471387153762268,-0.01636412684368896
-0.005471047153762268,-0.01583750991961605
-0.005470707153762269,-0.0176148420383589
-0.005470367153762268,-0.01814145896243505
-0.005470027153762268,-0.01692365732551643
-0.005469687153762269,-0.01619955905491618
-0.005469347153762268,-0.01504758453350668
-0.005469007153762268,-0.01040677289011413
-0.005468667153762269,-0.01106504404520527
-0.005468327153762268,-0.01327025241476059
-0.005467987153762268,-0.009913069523795767
-0.005467647153762269,-0.008102823847295128
-0.005467307153762268,-0.009287711926459184
-0.005466967153762268,-0.007378725576694872
-0.005466627153762268,-0.006259664613039929
-0.005466287153762268,-0.008234478078314613
-0.005465947153762268,-0.008925662791159056
-0.005465607153762268,-0.008991489906668169
-0.005465267153762268,-0.01093338981418734
-0.005464927153762268,-0.01109795760295982
-0.005464587153762268,-0.01057134067888691
-0.005464247153762268,-0.0129740303949706
-0.005463907153762268,-0.01353356087679705
-0.005463567153762268,-0.01313859818374236
-0.005463227153762268,-0.01896429790628945
-0.005462887153762268,-0.01373104222332439
-0.005462547153762268,-0.008662354329122598
-0.005462207153762268,-0.01478427607147285
-0.005461867153762268,-0.01623247261267073
-0.005461527153762268,-0.01234867279763299
-0.005461187153762268,-0.01178914231581085
-0.005460847153762268,-0.0147184489559611
-0.005460507153762268,-0.01313859818374236
-0.005460167153762268,-0.01198662366233029
-0.005459827153762268,-0.01057134067888691
-0.005459487153762268,-0.008728181444631711
-0.005459147153762268,-0.007082503556903976
-0.005458807153762268,-0.00714833067241297
-0.005458467153762268,-0.003889888454711818
-0.005458127153762268,-0.003001222395342489
-0.005457787153762268,-0.005041862976121317
-0.005457447153762268,-0.005239344322648658
-0.005457107153762269,-0.006885022210373523
-0.005456767153762268,-0.008662354329122598
-0.005456427153762268,-0.01057134067888691
-0.005456087153762269,-0.009814328850533474
-0.005455747153762268,-0.01241449991314211
-0.005455407153762268,-0.01185496943131464
-0.005455067153762269,-0.01211827789335062
-0.005454727153762268,-0.01346773376128794
-0.005454387153762268,-0.01307277106823325
-0.005454047153762269,-0.01099921692969992
-0.005453707153762268,-0.01175622875805097
-0.005453367153762268,-0.01162457452703274
-0.005453027153762269,-0.009880155966044383
-0.005452687153762268,-0.01320442529925148
-0.005452347153762268,-0.009123144137686397
-0.005452007153762269,-0.009518106830740364
-0.005451667153762268,-0.009057317022177283
-0.005451327153762268,-0.008069910289540572
-0.005450987153762269,-0.01343482020352362
-0.005450647153762268,-0.01251324058640578
-0.005450307153762268,-0.01277654904844223
-0.005449967153762269,-0.01195371010457981
-0.005449627153762268,-0.01208536433559654
-0.005449287153762268,-0.01113087116071438
-0.005448947153762269,-0.008399045867091112
-0.005448607153762268,-0.007279984903431201
-0.005448267153762268,-0.008168650962804242
-0.005447927153762269,-0.007510379807713099
-0.005447587153762268,-0.006325491728549043
-0.005447247153762268,-0.01030803221685045
-0.005446907153762269,-0.0111966982762235
-0.005446567153762268,-0.01132835250724173
-0.005446227153762268,-0.01284237616395135
-0.005445887153762268,-0.01218410500886021
-0.005445547153762268,-0.0118549694313138
-0.005445207153762268,-0.01139417962275084
-0.005444867153762268,-0.01201953722008742
-0.005444527153762268,-0.01024220510134331
-0.005444187153762268,-0.01132835250724173
-0.005443847153762268,-0.01142709318050539
-0.005443507153762268,-0.010933389814188
-0.005443167153762268,-0.01146000673825995
-0.005442827153762268,-0.01244741347089667
-0.005442487153762268,-0.01379686933883698
-0.005442147153762268,-0.01570585568859782
-0.005441807153762268,-0.01001181019705944
-0.005441467153762268,-0.009287711926457687
-0.005441127153762268,-0.008464872982595257
-0.005440787153762268,-0.01136126606499628
-0.005440447153762268,-0.01508049809125566
-0.005440107153762268,-0.01201953722008742
-0.005439767153762268,-0.01129543894948717
-0.005439427153762268,-0.01159166096927776
-0.005439087153762268,-0.01136126606499628
-0.005438747153762268,-0.01175622875805097
-0.005438407153762268,-0.0114600067382587
-0.005438067153762268,-0.01076882202541425
-0.005437727153762268,-0.01113087116071438
-0.005437387153762268,-0.01188788298906507
-0.005437047153762268,-0.009616847504004756
-0.005436707153762268,-0.01106504404520527
-0.005436367153762269,-0.01047260000562432
-0.005436027153762268,-0.01040677289011413
-0.005435687153762268,-0.01080173558316881
-0.005435347153762269,-0.0109004762564323
-0.005435007153762268,-0.01099921692969615
-0.005434667153762268,-0.01057134067888691
-0.005434327153762269,-0.0118549694313123
-0.005433987153762268,-0.009748501735022983
-0.005433647153762268,-0.009715588177268426
-0.005433307153762269,-0.01011055087032239
-0.005432967153762268,-0.0107359084676597
-0.005432627153762268,-0.01090047625643248
-0.005432287153762269,-0.01165748808478592
-0.005431947153762268,-0.01745027424958934
-0.005431607153762268,-0.01330316597251515
-0.005431267153762269,-0.01323733885700616
-0.005430927153762268,-0.01182205587356008
-0.005430587153762268,-0.009847242408286654
-0.005430247153762269,-0.01392852356984431
-0.005429907153762268,-0.0130398575104787
-0.005429567153762268,-0.00909023057993184
-0.005429227153762269,-0.008234478078314912
-0.005428887153762268,-0.009386452599722855
-0.005428547153762268,-0.007971169616276898
-0.005428207153762269,-0.00938645259972028
-0.005427867153762268,-0.01020929154358678
-0.005427527153762268,-0.008958576348913613
-0.005427187153762269,-0.01063716779439602
-0.005426847153762268,-0.01185496943131464
-0.005426507153762268,-0.01129543894948717
-0.005426167153762269,-0.01070299490990514
-0.005425827153762268,-0.01313859818374236
-0.005425487153762268,-0.01070299490990514
-0.005425147153762268,-0.01001181019705944
-0.005424807153762268,-0.009945983081550328
-0.005424467153762268,-0.009221884810950071
-0.005424127153762268,-0.008563613655858927
-0.005423787153762268,-0.00909023057993184
-0.005423447153762268,-0.00909023057993184
-0.005423107153762268,-0.008859835675649942
-0.005422767153762268,-0.009847242408281444
-0.005422427153762268,-0.006983762883640186
-0.005422087153762268,-0.01126252539173261
-0.005421747153762268,-0.0162324726126769
-0.005421407153762268,-0.01962256906139011
-0.005421067153762268,-0.01205245077784198
-0.005420727153762268,-0.01014346442807671
-0.005420387153762268,-0.009616847504004756
-0.005420047153762268,-0.009616847504004756
-0.005419707153762268,-0.01241449991313995
-0.005419367153762268,-0.01122961183397805
-0.005419027153762268,-0.008596527213613484
-0.005418687153762268,-0.01119669827622613
-0.005418347153762268,-0.01264489481742401
-0.005418007153762268,-0.01142709318050539
-0.005417667153762268,-0.01132835250724394
-0.005417327153762268,-0.01254615414416034
-0.005416987153762268,-0.008267391636067913
-0.005416647153762268,-0.008234478078313895
-0.005416307153762268,-0.008530700098104371
