Analysis/files/cmb03_d2s01/wrd05_ch11.csv

#Digilent WaveForms Oscilloscope Acquisition
#Device Name: ADP3450
#Serial Number: SN:210018B9D9B0
#Date Time: 2024-08-09 15:41:11.129.530.440
#Sample rate: 2.94118e+06Hz
#Samples: 32768
#Trigger: Source: Channel 3 Type: Edge Condition: Rising Level: 20 mV Hyst.: Auto HoldOff: 0 s
#Channel 3: Range: 200 mV/div Offset: 0 V Attenuation: 1 X Coupling: DC Bandwidth: 0 Hz Sample Mode: Average

Time (s),Channel 3 (V)
-0.005570261176470589,0.005552405563356397
-0.005569921176470588,0.004927047966016399
-0.005569581176470589,0.003050975174010056
-0.005569241176470589,0.003050975174010056
-0.005568901176470588,0.002524358249936125
-0.005568561176470589,0.001964827768109672
-0.005568221176470589,0.001339470170773087
-0.005567881176470588,-0.004881192244835572
-0.005567541176470589,-0.003432995703637694
-0.005567201176470589,0.001141988824245744
-0.005566861176470588,0.001174902381999104
-0.005566521176470589,0.0005166312269091594
-0.005566181176470589,-0.00392669906995605
-0.005565841176470588,-0.003860871954445559
-0.005565501176470589,-0.003103860126092122
-0.005565161176470589,-0.003103860126092122
-0.005564821176470588,-0.004683710898313079
-0.005564481176470589,-0.005901512535229476
-0.005564141176470589,-0.00438748887851985
-0.005563801176470588,-0.00369630416567427
-0.005563461176470589,-0.003762131281183265
-0.005563121176470589,-0.0002403806014456541
-0.005562781176470589,0.002063568441369153
-0.005562441176470589,0.001569865075054987
-0.005562101176470589,0.00130655661301853
-0.005561761176470589,0.003018061616252387
-0.005561421176470589,-0.000832824641027682
-0.005561081176470589,-0.001524009353873381
-0.005560741176470589,-0.002346848297735812
-0.005560401176470589,-0.004650797340556306
-0.005560061176470589,-0.006329388786038719
-0.005559721176470589,-0.006888919267865172
-0.005559381176470589,-0.007152227729902647
-0.005559041176470589,-0.008468770040084931
-0.005558701176470589,-0.008172548020294457
-0.005558361176470589,-0.008106720904784802
-0.005558021176470589,-0.008106720904784802
-0.005557681176470589,-0.01011444792780914
-0.005557341176470589,-0.01212217495084077
-0.005557001176470589,-0.006164820997265934
-0.005556661176470589,-0.005243241380140011
-0.005556321176470588,-0.003432995703637694
-0.005555981176470589,-0.006823092152357076
-0.005555641176470589,-0.01057523773636976
-0.005555301176470588,-0.008633337828857716
-0.005554961176470589,-0.007744671769484675
-0.005554621176470589,-0.008797905617628587
-0.005554281176470588,-0.007942153116012016
-0.005553941176470589,-0.007152227729902647
-0.005553601176470589,-0.004782451571574535
-0.005553261176470588,-0.003597563492410479
-0.005552921176470589,-0.004255834647501621
-0.005552581176470589,-0.005440722726665677
-0.005552241176470588,-0.004749538013819977
-0.005551901176470589,-0.006625610805829733
-0.005551561176470589,-0.008040893789275689
-0.005551221176470588,-0.007283881960922731
-0.005550881176470589,-0.008304202251312145
-0.005550541176470589,-0.008797905617630502
-0.005550201176470588,-0.008271288693558487
-0.005549861176470589,-0.008764992059875945
-0.005549521176470589,-0.009357436099457973
-0.005549181176470588,-0.008040893789273832
-0.005548841176470589,-0.007020573498884419
-0.005548501176470589,-0.008172548020293918
-0.005548161176470588,-0.006395215901548611
-0.005547821176470589,-0.006823092152357076
-0.005547481176470589,-0.007053487056638975
-0.005547141176470588,-0.009587831003745202
-0.005546801176470589,-0.01251713764389546
-0.005546461176470589,-0.006823092152357076
-0.005546121176470588,-0.006888919267862298
-0.005545781176470589,-0.004749538013819977
-0.005545441176470589,-0.007218054845411761
-0.005545101176470588,-0.01083854619841089
-0.005544761176470589,-0.009653658119248986
-0.005544421176470589,-0.007053487056638975
-0.005544081176470588,-0.00685600571011277
-0.005543741176470589,-0.007481363307448217
-0.005543401176470589,-0.01011444792781279
-0.005543061176470588,-0.01011444792781177
-0.005542721176470589,-0.009554917445985316
-0.005542381176470589,-0.01205634783533165
-0.005542041176470589,-0.01261587831715811
-0.005541701176470589,-0.0127146189904228
-0.005541361176470589,-0.01291210033695014
-0.005541021176470589,-0.01445903755141151
-0.005540681176470589,-0.01422864264713243
-0.005540341176470589,-0.01406407485835964
-0.005540001176470589,-0.007316795518687706
-0.005539661176470589,-0.01577557986159661
-0.005539321176470589,-0.01376785283856862
-0.005538981176470589,-0.01366911216530513
-0.005538641176470589,-0.01307666812572293
-0.005538301176470589,-0.01113476821820406
-0.005537961176470589,-0.01129933600697654
-0.005537621176470589,-0.009719485234758102
-0.005537281176470589,-0.009127041195176074
-0.005536941176470589,-0.01037775638984697
-0.005536601176470589,-0.01465651889794167
-0.005536261176470589,-0.01120059533371317
-0.005535921176470589,-0.006263561670538586
-0.005535581176470588,-0.008435856482330374
-0.005535241176470589,-0.004058353300974278
-0.005534901176470589,-0.007909239558250455
-0.005534561176470588,-0.009028300521912402
-0.005534221176470589,-0.005309068495647449
-0.005533881176470589,-0.006131907439509879
-0.005533541176470588,-0.009094127637421515
-0.005533201176470589,-0.009719485234758102
-0.005532861176470589,-0.009818225908021772
-0.005532521176470588,-0.01080563264065849
-0.005532181176470589,-0.01057523773637659
-0.005531841176470589,-0.01251713764389546
-0.005531501176470588,-0.01261587831715913
-0.005531161176470589,-0.01205634783533165
-0.005530821176470589,-0.01162847158452241
-0.005530481176470588,-0.01304375456796837
-0.005530141176470589,-0.01320832235674115
-0.005529801176470589,-0.01162847158452241
-0.005529461176470588,-0.01116768177595802
-0.005529121176470589,-0.01083854619841304
-0.005528781176470589,-0.01120059533371317
-0.005528441176470588,-0.01110185466044896
-0.005528101176470589,-0.01080563264065849
-0.005527761176470589,-0.009719485234758102
-0.005527421176470588,-0.009785312350268293
-0.005527081176470589,-0.01037775638984924
-0.005526741176470589,-0.008567510713348603
-0.005526401176470588,-0.008271288693567646
-0.005526061176470589,-0.01380076639632318
-0.005525721176470589,-0.008040893789275689
-0.005525381176470588,-0.004157093974238967
-0.005525041176470589,-0.004716624456065421
-0.005524701176470589,-0.004091266858728836
-0.005524361176470588,-0.01034484283209732
-0.005524021176470589,-0.0117930393732952
-0.005523681176470589,-0.01024610215883101
-0.005523341176470588,-0.0118917800465651
-0.005523001176470589,-0.01531479005303281
-0.005522661176470589,-0.01821118313543383
-0.005522321176470588,-0.02337861170292247
-0.005521981176470589,-0.0361161585539129
-0.005521641176470589,-0.05385656618361918
-0.005521301176470588,-0.07778472267123542
-0.005520961176470589,-0.1070448755149835
-0.005520621176470589,-0.1385102367283401
-0.005520281176470589,-0.169086931882268
-0.005519941176470589,-0.1983141711683703
-0.005519601176470589,-0.2248095851607888
-0.005519261176470589,-0.2417271538466004
-0.005518921176470589,-0.2560774650276181
-0.005518581176470589,-0.2651945205256304
-0.005518241176470589,-0.2674326424529362
-0.005517901176470589,-0.2659515323539852
-0.005517561176470589,-0.2625614359052658
-0.005517221176470589,-0.2549254905062224
-0.005516881176470589,-0.2490339636681428
-0.005516541176470589,-0.242484165674986
-0.005516201176470589,-0.2328075796951638
-0.005515861176470589,-0.226356522375253
-0.005515521176470589,-0.2216498836163513
-0.005515181176470589,-0.2067400419535641
-0.005514841176470589,-0.1996965405940617
-0.005514501176470589,-0.1916327189441952
-0.005514161176470589,-0.1872881293206016
-0.005513821176470588,-0.1851487480665475
-0.005513481176470589,-0.1774798891097357
-0.005513141176470589,-0.1698110301529378
-0.005512801176470588,-0.1633270592752761
-0.005512461176470589,-0.1591470374404474
-0.005512121176470589,-0.1521364496387267
-0.005511781176470588,-0.1455537380878153
-0.005511441176470589,-0.1412420620219683
-0.005511101176470589,-0.1366670774940849
-0.005510761176470588,-0.1317629573886559
-0.005510421176470589,-0.1273525406495452
-0.005510081176470589,-0.1234358272767529
-0.005509741176470588,-0.1181038309205147
-0.005509401176470589,-0.1142529446632315
-0.005509061176470589,-0.1103362312904392
-0.005508721176470588,-0.1052346298384753
-0.005508381176470589,-0.1010875215614086
-0.005508041176470589,-0.09792782001697115
-0.005507701176470588,-0.09355031683560708
-0.005507361176470589,-0.08917281365425897
-0.005507021176470589,-0.08624350701410338
-0.005506681176470588,-0.08153686825519404
-0.005506341176470589,-0.07732393286261841
-0.005506001176470589,-0.07534911939734498
-0.005505661176470588,-0.07399966352941004
-0.005505321176470589,-0.07505289737755397
-0.005504981176470589,-0.0743287991069537
-0.005504641176470588,-0.0691284569817308
-0.005504301176470589,-0.06754860620951494
-0.005503961176470589,-0.06478386735813213
-0.005503621176470588,-0.0659029283217859
-0.005503281176470589,-0.06524465716669595
-0.005502941176470589,-0.06070258619656706
-0.005502601176470588,-0.05912273542434496
-0.005502261176470589,-0.05727957619009312
-0.005501921176470589,-0.05616051522643818
-0.005501581176470588,-0.05372491195259521
-0.005501241176470589,-0.05056521040816347
-0.005500901176470589,-0.04938032232899942
-0.005500561176470588,-0.04707637328617748
-0.005500221176470589,-0.04546360895620712
-0.005499881176470589,-0.04306091924012445
-0.005499541176470589,-0.04292926500910647
-0.005499201176470589,-0.03940751432936861
-0.005498861176470589,-0.0391112923095776
-0.005498521176470589,-0.03930877365610458
-0.005498181176470589,-0.03693899749777683
-0.005497841176470589,-0.03605033143840378
-0.005497501176470589,-0.03598450432289479
-0.005497161176470589,-0.03394386374211213
-0.005496821176470589,-0.03308811124049365
-0.005496481176470589,-0.03292354345172116
-0.005496141176470589,-0.03242984008540251
-0.005495801176470589,-0.03157408758378402
-0.005495461176470589,-0.03150826046827503
-0.005495121176470589,-0.02920431142545591
-0.005494781176470589,-0.03483252980148517
-0.005494441176470589,-0.03048794017789154
-0.005494101176470589,-0.02640665901631855
-0.005493761176470589,-0.03061959440890186
-0.005493421176470589,-0.0301588046003389
-0.005493081176470588,-0.02792068267302818
-0.005492741176470589,-0.02703201661365514
-0.005492401176470589,-0.02703201661365514
-0.005492061176470588,-0.0272953250756916
-0.005491721176470589,-0.02502428959062716
-0.005491381176470589,-0.02420145064676472
-0.005491041176470588,-0.02400396930023588
-0.005490701176470589,-0.02179876093068056
-0.005490361176470589,-0.02137088467987132
-0.005490021176470588,-0.0215354524686441
-0.005489681176470589,-0.02100883554457119
-0.005489341176470589,-0.01952772544561612
-0.005489001176470588,-0.02044930506274372
-0.005488661176470589,-0.02005434236968903
-0.005488321176470589,-0.02058095929376194
-0.005487981176470588,-0.02028473727396626
-0.005487641176470589,-0.01771747976911548
-0.005487301176470589,-0.01738834419156991
-0.005486961176470588,-0.01893528140603828
-0.005486621176470589,-0.02123923044885309
-0.005486281176470589,-0.01926441698357966
-0.005485941176470588,-0.02018599660071085
-0.005485601176470589,-0.02216081006598069
-0.005485261176470589,-0.02281908122107183
-0.005484921176470588,-0.02245703208577511
-0.005484581176470589,-0.02433310487778146
-0.005484241176470589,-0.01965937967663435
-0.005483901176470588,-0.01900110852154081
-0.005483561176470589,-0.01768456621136092
-0.005483221176470589,-0.01376785283856862
-0.005482881176470588,-0.01633511034342654
-0.005482541176470589,-0.01768456621136092
-0.005482201176470589,-0.01366911216530495
-0.005481861176470588,-0.01366911216530615
-0.005481521176470589,-0.0143273833203961
-0.005481181176470589,-0.01373493928081407
-0.005480841176470588,-0.01376785283857198
-0.005480501176470589,-0.01561101207282382
-0.005480161176470589,-0.01449195110916888
-0.005479821176470588,-0.01386659351183595
-0.005479481176470589,-0.01587432053486028
-0.005479141176470589,-0.01570975274608749
-0.005478801176470589,-0.01505148159099755
-0.005478461176470589,-0.01357037149204128
-0.005478121176470589,-0.0117930393732952
-0.005477781176470589,-0.009916966581288857
-0.005477441176470589,-0.009489090330476201
-0.005477101176470589,-0.009522003888230759
-0.005476761176470589,-0.008600424271104835
-0.005476421176470589,-0.01031192927434013
-0.005476081176470589,-0.01353745793428673
-0.005475741176470589,-0.01363619860755022
-0.005475401176470589,-0.01459069178243255
-0.005475061176470589,-0.01633511034342408
-0.005474721176470589,-0.01676298659423255
-0.005474381176470589,-0.01870488650175219
-0.005474041176470589,-0.02258868631678993
-0.005473701176470589,-0.01547935784181853
-0.005473361176470589,-0.0138665935118323
-0.005473021176470589,-0.014557778224678
-0.005472681176470589,-0.01376785283857006
-0.005472341176470589,-0.01643385101668775
-0.005472001176470589,-0.01485400024446901
-0.005471661176470589,-0.01241839697063621
-0.005471321176470588,-0.01205634783533165
-0.005470981176470589,-0.01166138514227697
-0.005470641176470589,-0.01067397840964205
-0.005470301176470588,-0.009291608983948858
-0.005469961176470589,-0.01024610215883101
-0.005469621176470589,-0.01031192927434013
-0.005469281176470588,-0.00939034965721253
-0.005468941176470589,-0.01054232417862203
-0.005468601176470589,-0.009159954752930631
-0.005468261176470588,-0.01004862081230367
-0.005467921176470589,-0.009127041195176074
-0.005467581176470589,-0.01080563264065849
-0.005467241176470588,-0.009884053023530886
-0.005466901176470589,-0.01149681735350419
-0.005466561176470589,-0.01241839697063178
-0.005466221176470588,-0.01100311398718457
-0.005465881176470589,-0.01031192927434013
-0.005465541176470589,-0.01044358350535836
-0.005465201176470588,-0.01004862081230271
-0.005464861176470589,-0.009522003888230759
-0.005464521176470589,-0.01126642244922228
-0.005464181176470588,-0.01060815129413294
-0.005463841176470589,-0.01159555802676786
-0.005463501176470589,-0.01561101207282382
-0.005463161176470588,-0.008337115809066462
-0.005462821176470589,-0.008205461578048474
-0.005462481176470589,-0.008929559848648731
-0.005462141176470588,-0.009851139465782555
-0.005461801176470589,-0.01327414947225027
-0.005461461176470589,-0.01189178004655887
-0.005461121176470588,-0.0109372868716745
-0.005460781176470589,-0.009719485234758102
-0.005460441176470589,-0.01146390379574963
-0.005460101176470588,-0.01050941062086867
-0.005459761176470589,-0.01116768177595861
-0.005459421176470589,-0.01126642244922228
-0.005459081176470588,-0.01034484283209505
-0.005458741176470589,-0.01054232417862203
-0.005458401176470589,-0.009456176772721644
-0.005458061176470588,-0.0113322495647299
-0.005457721176470589,-0.01050941062086747
-0.005457381176470589,-0.01129933600697684
-0.005457041176470589,-0.01208926139308478
-0.005456701176470589,-0.01070689196739481
-0.005456361176470589,-0.01004862081230367
-0.005456021176470589,-0.009818225908022192
-0.005455681176470589,-0.009686571677003543
-0.005455341176470589,-0.00869916494436683
-0.005455001176470589,-0.01087145975616365
-0.005454661176470589,-0.0113322495647314
-0.005454321176470589,-0.01097020042943127
-0.005453981176470589,-0.01133224956473074
-0.005453641176470589,-0.01258296475940457
-0.005453301176470589,-0.01751999842258814
-0.005452961176470589,-0.01294501389471302
-0.005452621176470589,-0.01024610215883101
-0.005452281176470589,-0.008534597155594046
-0.005451941176470589,-0.007448449749695637
-0.005451601176470589,-0.0101802750433219
-0.005451261176470589,-0.01004862081230367
-0.005450921176470589,-0.007382622634189396
-0.005450581176470588,-0.007349709076429989
-0.005450241176470589,-0.006921832825620747
-0.005449901176470589,0.0002862363226141485
-0.005449561176470588,-0.006098993881756819
-0.005449221176470589,-0.007415536191939104
-0.005448881176470589,-0.008402942924574022
-0.005448541176470588,-0.009357436099457973
-0.005448201176470589,-0.0101802750433219
-0.005447861176470589,-0.01097020042943127
-0.005447521176470588,-0.01304375456796837
-0.005447181176470589,-0.01199052071982254
-0.005446841176470589,-0.0117930393732952
-0.005446501176470588,-0.01268170543266824
-0.005446161176470589,-0.01287918677919558
-0.005445821176470589,-0.01310958168347748
-0.005445481176470588,-0.01307666812572532
-0.005445141176470589,-0.01439321043590521
-0.005444801176470589,-0.01251713764389546
-0.005444461176470588,-0.01301084101021315
-0.005444121176470589,-0.01264879187491368
-0.005443781176470589,-0.01103602754494038
-0.005443441176470588,-0.01126642244922528
-0.005443101176470589,-0.01291210033695014
-0.005442761176470589,-0.01491982735997812
-0.005442421176470588,-0.009192868310681236
-0.005442081176470589,-0.007020573498884419
-0.005441741176470589,-0.005243241380138334
-0.005441401176470588,-0.008106720904789172
-0.005441061176470589,-0.01050941062086747
-0.005440721176470589,-0.005572376957683906
-0.005440381176470588,-0.004848278687089456
-0.005440041176470589,-0.008040893789275689
-0.005439701176470589,-0.007547190422957332
-0.005439361176470588,-0.009258695426192865
-0.005439021176470589,-0.008468770040084931
-0.005438681176470589,-0.007547190422957332
-0.005438341176470588,-0.01610471543913924
-0.005438001176470589,-0.01449195110916888
-0.005437661176470589,-0.0124842240861409
-0.005437321176470588,-0.01337289014551592
-0.005436981176470589,-0.01445903755141432
-0.005436641176470589,-0.01376785283856862
-0.005436301176470589,-0.01004862081231044
-0.005435961176470589,-0.004584970225047193
-0.005435621176470589,-0.008205461578048474
-0.005435281176470589,-0.01294501389469608
-0.005434941176470589,-0.009028300521912402
-0.005434601176470589,-0.01050941062086747
-0.005434261176470589,-0.0113322495647299
-0.005433921176470589,-0.01258296475940457
-0.005433581176470589,-0.01324123591449571
-0.005433241176470589,-0.01139807668024387
-0.005432901176470589,-0.0115626444690133
-0.005432561176470589,-0.0115626444690133
-0.005432221176470589,-0.0103448428320969
-0.005431881176470589,-0.008337115809066702
-0.005431541176470589,-0.008534597155594046
-0.005431201176470589,-0.007349709076432145
-0.005430861176470589,-0.005835685419720362
-0.005430521176470589,-0.006395215901547833
-0.005430181176470589,-0.006724351479092806
-0.005429841176470588,-0.007415536191939104
-0.005429501176470589,-0.009554917445985316
-0.005429161176470589,-0.01136516312248266
-0.005428821176470588,-0.012253829181859
-0.005428481176470589,-0.01235256985512267
-0.005428141176470589,-0.0119576071620687
-0.005427801176470588,-0.009489090330476201
-0.005427461176470589,-0.008468770040084931
-0.005427121176470589,-0.007448449749693661
-0.005426781176470588,-0.009982793696794558
-0.005426441176470589,-0.005901512535229476
-0.005426101176470589,-0.003663390607919593
-0.005425761176470588,-0.002741810990791994
-0.005425421176470589,-0.003630477050165036
-0.005425081176470589,-0.01057523773637659
-0.005424741176470588,-0.01218800206634988
-0.005424401176470589,-0.008732078502121389
-0.005424061176470589,-0.01146390379574963
-0.005423721176470588,-0.01320832235673912
-0.005423381176470589,-0.01208926139308621
-0.005423041176470589,-0.01268170543266824
-0.005422701176470588,-0.01189178004655905
-0.005422361176470589,-0.01199052071982254
-0.005422021176470589,-0.01215508850859533
-0.005421681176470588,-0.01169429870002788
-0.005421341176470589,-0.009686571677003543
-0.005421001176470589,-0.009785312350267215
-0.005420661176470588,-0.01001570725454738
-0.005420321176470589,-0.009061214079666959
-0.005419981176470589,-0.009949880139040001
-0.005419641176470588,-0.01083854619841388
-0.005419301176470589,-0.01129933600697684
-0.005418961176470589,-0.01152973091125874
-0.005418621176470588,-0.01185886648880341
-0.005418281176470589,-0.01136516312248596
-0.005417941176470589,-0.01103602754494038
-0.005417601176470588,-0.01195760716206505
-0.005417261176470589,-0.01034484283209469
-0.005416921176470589,-0.00962074456149443
-0.005416581176470588,-0.01146390379575412
