Analysis/files/cmb03_d2s01/wrd04_ch35.csv

#Digilent WaveForms Oscilloscope Acquisition
#Device Name: ADP3450
#Serial Number: SN:210018B9D9B0
#Date Time: 2024-08-09 15:24:08.230.791.980
#Sample rate: 2.94118e+06Hz
#Samples: 32768
#Trigger: Source: Channel 3 Type: Edge Condition: Rising Level: 20 mV Hyst.: Auto HoldOff: 0 s
#Channel 1: Range: 200 mV/div Offset: -820 mV Attenuation: 1 X Coupling: DC Bandwidth: 0 Hz Sample Mode: Average
#Channel 3: Range: 200 mV/div Offset: 0 V Attenuation: 1 X Coupling: DC Bandwidth: 0 Hz Sample Mode: Average

Time (s),Channel 1 (V),Channel 3 (V)
-0.005570397070524413,0.001347362401558749,-0.00336716858812858
-0.005570057070524412,0.00124890670441333,-0.0028734652218113
-0.005569717070524413,0.001051995310123677,-0.003465909261392251
-0.005569377070524413,0.001117632441553607,-0.004124180416483393
-0.005569037070524412,0.001150451007269164,-0.002675983875285694
-0.005568697070524413,0.001445818098703811,-0.004222921089747064
-0.005568357070524413,0.001577092361563892,-0.006428129459302391
-0.005568017070524412,0.00134736240155857,-0.005144500706874004
-0.005567677070524413,0.001248906704413688,-0.004782451571574535
-0.005567337070524413,0.001183269572983647,-0.006526870132566062
-0.005566997070524412,0.00144581809870393,-0.006625610805829913
-0.005566657070524413,0.001511455230133851,-0.006724351479093405
-0.005566317070524413,0.001511455230133851,-0.009324522541703417
-0.005565977070524412,0.001609910927278196,-0.008633337828857357
-0.005565637070524413,0.001216088138698668,-0.008435856482330374
-0.005565297070524413,0.001150451007268627,-0.009061214079666959
-0.005564957070524412,0.001216088138698429,-0.007053487056635263
-0.005564617070524413,0.001084813875838697,-0.005012846475856435
-0.005564277070524413,0.001248906704413688,-0.006691437921338847
-0.005563937070524412,0.001609910927278554,-0.008501683597846912
-0.005563597070524413,0.00141299953298879,-0.01258296475940457
-0.005563257070524413,0.001478636664418831,-0.006757265036847961
-0.005562917070524413,0.001314543835844027,-0.007053487056638437
-0.005562577070524413,0.001347362401558749,-0.008337115809066702
-0.005562237070524413,0.001347362401558749,-0.01083854619841304
-0.005561897070524413,0.001609910927278435,-0.01452486466691673
-0.005561557070524413,0.001478636664418831,-0.01136516312248596
-0.005561217070524413,0.001445818098703811,-0.01044358350535836
-0.005560877070524413,0.001281725270129007,-0.01097020042943031
-0.005560537070524413,0.001281725270128709,-0.01129933600697684
-0.005560197070524413,0.000986358178693636,-0.00939034965721253
-0.005559857070524413,0.001511455230132896,-0.01199052071981781
-0.005559517070524413,0.001577092361563892,-0.01241839697063178
-0.005559177070524413,0.001511455230133851,-0.01278044610593191
-0.005558837070524413,0.001347362401559048,-0.01515022226425571
-0.005558497070524413,0.001084813875838697,-0.01376785283856862
-0.005558157070524413,0.001019176744408656,-0.01518313582201458
-0.005557817070524413,0.00124890670441327,-0.01702629505626643
-0.005557477070524413,0.001347362401558749,-0.01696046794076066
-0.005557137070524413,0.000822265350118534,-0.0159401476503694
-0.005556797070524413,0.001216088138697951,-0.01748708486483077
-0.005556457070524413,0.001347362401558749,-0.01857323227073396
-0.005556117070524413,0.001084813875838697,-0.01821118313543383
-0.005555777070524413,0.00124890670441339,-0.0198239474654042
-0.005555437070524413,0.001150451007268627,-0.01995560169642536
-0.005555097070524413,0.001248906704413688,-0.01732251707606079
-0.005554757070524413,0.001380180967273531,-0.0184744915974682
-0.005554417070524413,0.001445818098703811,-0.01801370178890649
-0.005554077070524413,0.00138018096727377,-0.01689464082525155
-0.005553737070524413,0.001216088138698668,-0.01988977458091625
-0.005553397070524413,0.0008879024815485748,-0.02367483372269031
-0.005553057070524413,0.001117632441553607,-0.01630219678566952
-0.005552717070524413,0.001248906704413688,-0.01653259168995142
-0.005552377070524413,0.001248906704413688,-0.01515022226426002
-0.005552037070524413,0.001084813875838697,-0.01547935784180559
-0.005551697070524413,0.001183269572983647,-0.01906693563705232
-0.005551357070524413,0.001281725270128888,-0.0173554306338084
-0.005551017070524413,0.00138018096727377,-0.01353745793428673
-0.005550677070524413,0.001117632441553607,-0.0143273833203961
-0.005550337070524413,0.001150451007268627,-0.01561101207282155
-0.005549997070524413,0.001150451007268627,-0.01436029687815065
-0.005549657070524413,0.001216088138698668,-0.01518313582201458
-0.005549317070524412,0.001051995310123378,-0.01715794928728861
-0.005548977070524413,0.0008879024815485748,-0.01748708486483358
-0.005548637070524413,0.0008550839158335544,-0.01768456621136092
-0.005548297070524412,0.001412999532989029,-0.01834283736645057
-0.005547957070524413,0.001544273795848872,-0.01751999842258814
-0.005547617070524413,0.001248906704413688,-0.01653259168995142
-0.005547277070524412,0.0008222653501185937,-0.01689464082524993
-0.005546937070524413,0.0008550839158335544,-0.01600597476587851
-0.005546597070524413,0.0009207210472635952,-0.01439321043590521
-0.005546257070524412,0.001347362401558749,-0.01505148159099893
-0.005545917070524413,0.001347362401558749,-0.01646676457444231
-0.005545577070524413,0.001248906704413688,-0.0140969884161142
-0.005545237070524412,0.0009207210472634161,-0.01613762899689758
-0.005544897070524413,0.000822265350118534,-0.01659841880546054
-0.005544557070524413,0.0008550839158335544,-0.01666424592096965
-0.005544217070524412,0.001150451007268627,-0.01850740515522718
-0.005543877070524413,0.001150451007268627,-0.01979103390765257
-0.005543537070524413,0.001150451007268627,-0.02117340333334397
-0.005543197070524412,0.001347362401558511,-0.022588686316777
-0.005542857070524413,0.001216088138698668,-0.01547935784180559
-0.005542517070524413,0.001117632441553607,-0.008468770040084931
-0.005542177070524413,0.001216088138698489,-0.01689464082523622
-0.005541837070524413,0.001019176744408656,-0.01673007303647877
-0.005541497070524413,0.001183269572983647,-0.01475525957120534
-0.005541157070524413,0.001117632441553726,-0.01531479005303179
-0.005540817070524413,0.001150451007268627,-0.01646676457444231
-0.005540477070524413,0.001216088138698668,-0.01646676457444231
-0.005540137070524413,0.001281725270128589,-0.01742125774932273
-0.005539797070524413,0.001478636664418831,-0.02058095929376194
-0.005539457070524413,0.001117632441553607,-0.02005434236968903
-0.005539117070524413,0.001380180967273292,-0.01972520679214406
-0.005538777070524413,0.00141299953298879,-0.02173293381517144
-0.005538437070524413,0.001084813875838697,-0.02189750160394423
-0.005538097070524413,0.001019176744408776,-0.02058095929376434
-0.005537757070524413,0.001314543835843729,-0.02021891015846182
-0.005537417070524413,0.001183269572983647,-0.02041639150498916
-0.005537077070524413,0.001117632441553726,-0.01867197294400081
-0.005536737070524413,0.0009535396129786156,-0.01926441698357966
-0.005536397070524413,0.001183269572983647,-0.02255577275903537
-0.005536057070524413,0.001347362401558451,-0.01547935784181847
-0.005535717070524413,0.001084813875838697,-0.01926441698357966
-0.005535377070524413,0.001084813875838697,-0.01830992380869751
-0.005535037070524413,0.001347362401558272,-0.0160059747658827
-0.005534697070524413,0.001183269572983647,-0.0208442677557984
-0.005534357070524413,0.001019176744408656,-0.02308238968310829
-0.005534017070524413,0.001216088138698309,-0.02035056438948502
-0.005533677070524413,0.001314543835843729,-0.0190011085215432
-0.005533337070524413,0.00141299953298879,-0.0192315034258251
-0.005532997070524413,0.001511455230133851,-0.01712503572953345
-0.005532657070524413,0.001314543835843729,-0.01761873909585181
-0.005532317070524413,0.001478636664418831,-0.01758582553809725
-0.005531977070524413,0.001216088138698668,-0.01557809851506927
-0.005531637070524413,0.001117632441553607,-0.01584140697710572
-0.005531297070524413,0.0008550839158335544,-0.01738834419156991
-0.005530957070524413,0.0008879024815485748,-0.01830992380869751
-0.005530617070524413,0.001314543835843729,-0.01653259168995142
-0.005530277070524413,0.001544273795848872,-0.01778330688462459
-0.005529937070524413,0.001117632441553607,-0.01890236784827953
-0.005529597070524413,0.001281725270128291,-0.01893528140603565
-0.005529257070524413,0.001051995310123677,-0.01979103390765257
-0.005528917070524413,0.001248906704413688,-0.01998851525417992
-0.005528577070524412,0.001019176744409074,-0.01880362717501718
-0.005528237070524413,0.001248906704413688,-0.01952772544561612
-0.005527897070524413,0.001281725270128709,-0.02087718131355296
-0.005527557070524412,0.00124890670441333,-0.0197581203498967
-0.005527217070524413,0.001051995310123677,-0.01903402207929776
-0.005526877070524413,0.001248906704413688,-0.01807952890441561
-0.005526537070524412,0.001675548058708723,-0.01807952890442482
-0.005526197070524413,0.001609910927278912,-0.0231482167986174
-0.005525857070524413,0.00138018096727377,-0.01906693563705232
-0.005525517070524412,0.001281725270128231,-0.01673007303648248
-0.005525177070524413,0.001019176744408656,-0.01877071361726131
-0.005524837070524413,0.001019176744408656,-0.02091009487130752
-0.005524497070524412,0.001216088138698309,-0.02509011670613615
-0.005524157070524413,0.001019176744408656,-0.02502428959062716
-0.005523817070524413,0.000986358178693636,-0.02344443881840842
-0.005523477070524412,0.0009863581786935165,-0.02295073545208904
-0.005523137070524413,0.0009207210472635952,-0.02239120497026259
-0.005522797070524413,0.001051995310123677,-0.02436601843553601
-0.005522457070524412,0.001248906704413509,-0.02841438603936606
-0.005522117070524413,0.001150451007268627,-0.03914420586733215
-0.005521777070524413,0.00138018096727377,-0.0562263423419473
-0.005521437070524412,0.00144581809870387,-0.07864047517285198
-0.005521097070524413,0.001478636664418831,-0.1068473941684561
-0.005520757070524413,0.00141299953298879,-0.1384444096128309
-0.005520417070524413,0.001216088138699026,-0.1715883622716097
-0.005520077070524413,0.000986358178693636,-0.1996307134785526
-0.005519737070524413,0.001019176744408656,-0.227837632474208
-0.005519397070524413,0.001117632441553427,-0.2489023094370863
-0.005519057070524413,0.001314543835843729,-0.2656553103341942
-0.005518717070524413,0.001314543835843729,-0.2760559945846342
-0.005518377070524413,0.001248906704413808,-0.2821450027692162
-0.005518037070524413,0.001248906704413688,-0.2827374468088093
-0.005517697070524413,0.001544273795848872,-0.2810259418055723
-0.005517357070524413,0.001314543835844147,-0.2783928571852126
-0.005517017070524413,0.0009207210472635952,-0.2688808389941408
-0.005516677070524413,0.0008550839158335544,-0.2622981274432293
-0.005516337070524413,0.001216088138698011,-0.2553533667570305
-0.005515997070524413,0.001183269572983647,-0.2515683076152437
-0.005515657070524413,0.00138018096727377,-0.2418258945198948
-0.005515317070524413,0.001216088138698966,-0.2302732357480663
-0.005514977070524413,0.001347362401558749,-0.221156180250033
-0.005514637070524413,0.001216088138698668,-0.2116770756167205
-0.005514297070524413,0.001183269572983707,-0.2093072994583967
-0.005513957070524413,0.001150451007268627,-0.2029878963695174
-0.005513617070524413,0.00141299953298879,-0.1932454832741685
-0.005513277070524413,0.001708366624423325,-0.1860045005681792
-0.005512937070524413,0.00141299953298879,-0.1837663786408561
-0.005512597070524413,0.001281725270128709,-0.1754721620867077
-0.005512257070524413,0.001511455230133851,-0.1693173267866055
-0.005511917070524413,0.000986358178693636,-0.1637549355260854
-0.005511577070524413,0.000986358178693636,-0.1573697053217013
-0.005511237070524413,0.0008550839158335544,-0.1508199073285444
-0.005510897070524413,0.0009207210472635952,-0.1471994159755431
-0.005510557070524413,0.0009207210472635952,-0.1414724569262502
-0.005510217070524413,0.001183269572983647,-0.1368645588406122
-0.005509877070524413,0.001281725270128709,-0.1335732030651565
-0.005509537070524413,0.001281725270128709,-0.1281424660356546
-0.005509197070524413,0.001544273795848872,-0.1244232340093896
-0.005508857070524413,0.001281725270128888,-0.1211318782339261
-0.005508517070524413,0.00138018096727377,-0.1168202021680869
-0.005508177070524413,0.001445818098703811,-0.1118831685049034
-0.005507837070524413,0.001478636664418711,-0.1076373195545623
-0.005507497070524413,0.00141299953298879,-0.1058599874358194
-0.005507157070524413,0.00138018096727377,-0.1005279910795812
-0.005506817070524412,0.001248906704413748,-0.09993554703999069
-0.005506477070524413,0.001281725270128709,-0.09529473539660657
-0.005506137070524413,0.001314543835843729,-0.09325409481582403
-0.005505797070524412,0.001248906704413927,-0.09667710482228443
-0.005505457070524413,0.00138018096727377,-0.08923864076976806
-0.005505117070524413,0.001248906704413688,-0.0821622258525383
-0.005504777070524412,0.001248906704414106,-0.07916709209686963
-0.005504437070524413,0.001478636664418831,-0.07699479728507283
-0.005504097070524413,0.001741185190138883,-0.07778472267118219
-0.005503757070524412,0.001675548058708604,-0.07926583277012787
-0.005503417070524413,0.001544273795848872,-0.0740984042026718
-0.005503077070524413,0.0009535396129786156,-0.0712678382357799
-0.005502737070524412,0.001117632441553129,-0.07116909756251424
-0.005502397070524413,0.0008550839158335544,-0.07008295015661584
-0.005502057070524413,0.001117632441553607,-0.06702198928544204
-0.005501717070524412,0.001314543835844147,-0.06521174360894025
-0.005501377070524413,0.001544273795848872,-0.0645863860116048
-0.005501037070524413,0.001281725270128709,-0.06399394197202277
-0.005500697070524412,0.0009535396129788543,-0.06149251158267523
-0.005500357070524413,0.001084813875838697,-0.06083424042758529
-0.005500017070524413,0.001347362401558749,-0.05820115580722072
-0.005499677070524413,0.001314543835843789,-0.05681878638153183
-0.005499337070524413,0.001150451007268627,-0.05602886099541995
-0.005498997070524413,0.001216088138698668,-0.05329703570179171
-0.005498657070524413,0.00131454383584355,-0.05043355617715045
-0.005498317070524413,0.001445818098703811,-0.04878787828941739
-0.005497977070524413,0.001281725270128709,-0.04694471905516219
-0.005497637070524413,0.001183269572983826,-0.03911129230959184
-0.005497297070524413,0.001281725270128709,-0.04529904116743434
-0.005496957070524413,0.001084813875838697,-0.04516738693641611
-0.005496617070524413,0.0007894467844040509,-0.04503573270539812
-0.005496277070524413,0.0009207210472635952,-0.04543069539845256
-0.005495937070524413,0.001117632441553607,-0.04668141059312574
-0.005495597070524413,0.001019176744408835,-0.04849165626962307
-0.005495257070524413,0.00138018096727377,-0.04763590376800789
-0.005494917070524413,0.001445818098703811,-0.04115193289036014
-0.005494577070524413,0.001544273795848693,-0.03953916856038978
-0.005494237070524413,0.00138018096727377,-0.03756435509511341
-0.005493897070524413,0.001117632441553607,-0.04016452615772342
-0.005493557070524413,0.001150451007268567,-0.04009869904221443
-0.005493217070524413,0.001117632441553607,-0.03684025682451315
-0.005492877070524413,0.001577092361563892,-0.03555662807208543
-0.005492537070524413,0.001577092361563892,-0.03437173999292353
-0.005492197070524413,0.001248906704413688,-0.03381220951109391
-0.005491857070524413,0.001216088138698668,-0.03374638239558479
-0.005491517070524413,0.001084813875838936,-0.03318685191375834
-0.005491177070524413,0.001117632441553607,-0.03331850614477554
-0.005490837070524413,0.001084813875838697,-0.03407551797313036
-0.005490497070524413,0.001183269572983647,-0.03295645700947542
-0.005490157070524413,0.001216088138698668,-0.03140951979501123
-0.005489817070524413,0.001117632441553607,-0.03177156893031136
-0.005489477070524413,0.00141299953298879,-0.03140951979501123
-0.005489137070524413,0.001216088138698668,-0.03038919950461997
-0.005488797070524413,0.001281725270128709,-0.02880934873240122
-0.005488457070524413,0.001478636664418831,-0.02769028776874628
-0.005488117070524413,0.001445818098703214,-0.02759154709548303
-0.005487777070524413,0.001117632441553607,-0.02782194199976451
-0.005487437070524413,0.001314543835843729,-0.02871060805913755
-0.005487097070524413,0.001183269572983946,-0.02736115219120095
-0.005486757070524413,0.001347362401558749,-0.02749280642221894
-0.005486417070524413,0.00141299953298879,-0.02726241151793704
-0.005486077070524412,0.00128172527012835,-0.02522177093715132
-0.005485737070524413,0.001084813875838697,-0.02347735237616297
-0.005485397070524413,0.00138018096727377,-0.02716367084467337
-0.005485057070524412,0.001511455230133911,-0.02397105574247121
-0.005484717070524413,0.001544273795848872,-0.01840866448196118
-0.005484377070524413,0.001544273795848872,-0.01837575092420662
-0.005484037070524412,0.001478636664418711,-0.01521604937977566
-0.005483697070524413,0.00141299953298879,-0.01880362717501586
-0.005483357070524413,0.001314543835843729,-0.0219962422772079
-0.005483017070524412,0.0009863581786939345,-0.01886945429052348
-0.005482677070524413,0.001150451007268627,-0.01804661534666105
-0.005482337070524413,0.001347362401558749,-0.01956063900337068
-0.005481997070524412,0.001544273795848693,-0.0196593796766359
-0.005481657070524413,0.001445818098703811,-0.02051513217825283
-0.005481317070524413,0.001117632441553607,-0.02146962535313499
-0.005480977070524412,0.001577092361563474,-0.02054804573600619
-0.005480637070524413,0.001347362401558749,-0.01988977458091625
-0.005480297070524413,0.001117632441553607,-0.02160127958415322
-0.005479957070524412,0.001150451007268567,-0.02140379823762145
-0.005479617070524413,0.001117632441553607,-0.01896819496378865
-0.005479277070524413,0.00138018096727377,-0.01801370178890649
-0.005478937070524413,0.00138018096727377,-0.0179478746733975
-0.005478597070524413,0.00138018096727377,-0.01689464082525155
-0.005478257070524413,0.001248906704413688,-0.01732251707606079
-0.005477917070524413,0.001051995310124035,-0.01742125774932428
-0.005477577070524413,0.0008550839158335544,-0.01877071361726131
-0.005477237070524413,0.001216088138698668,-0.02008725592744359
-0.005476897070524413,0.001380180967273471,-0.02209498295046792
-0.005476557070524413,0.00138018096727377,-0.02025182371621638
-0.005476217070524413,0.001216088138698668,-0.02156836602639866
-0.005475877070524413,0.0009535396129790931,-0.02278616766331506
-0.005475537070524413,0.001051995310123677,-0.02255577275903537
-0.005475197070524413,0.0009535396129786156,-0.02443184555104513
-0.005474857070524413,0.001183269572983229,-0.02620917766978798
-0.005474517070524413,0.00141299953298879,-0.01771747976911548
-0.005474177070524413,0.001314543835843729,-0.01577557986159661
-0.005473837070524413,0.001084813875839115,-0.01600597476587809
-0.005473497070524413,0.0009535396129786156,-0.01590723409261484
-0.005473157070524413,0.000986358178693636,-0.01840866448196118
-0.005472817070524413,0.001347362401558093,-0.01906693563705112
-0.005472477070524413,0.00138018096727377,-0.01761873909585181
-0.005472137070524413,0.001183269572983647,-0.01886945429052498
-0.005471797070524413,0.001478636664418294,-0.02031765083172286
-0.005471457070524413,0.00141299953298879,-0.02133797112211676
-0.005471117070524413,0.001347362401558749,-0.0203834779472346
-0.005470777070524413,0.00138018096727371,-0.02295073545208539
-0.005470437070524413,0.00138018096727377,-0.02301656256759917
-0.005470097070524413,0.001248906704413688,-0.02002142881193448
-0.005469757070524413,0.00141299953298879,-0.02071261352478018
-0.005469417070524413,0.001609910927278912,-0.02058095929376194
-0.005469077070524413,0.001347362401558749,-0.0190011085215432
-0.005468737070524413,0.001248906704413688,-0.01814535601992472
-0.005468397070524413,0.00138018096727377,-0.01995560169642536
-0.005468057070524413,0.001708366624423863,-0.02031765083172549
-0.005467717070524413,0.00141299953298879,-0.02091009487130752
-0.005467377070524413,0.001216088138698668,-0.02097592198681663
