Analysis/files/cmb03_d2s01/wrd04_ch06.csv

#Digilent WaveForms Oscilloscope Acquisition
#Device Name: ADP3450
#Serial Number: SN:210018B9D9B0
#Date Time: 2024-08-09 15:08:20.166.218.050
#Sample rate: 2.94118e+06Hz
#Samples: 32768
#Trigger: Source: Channel 3 Type: Edge Condition: Rising Level: 20 mV Hyst.: Auto HoldOff: 0 s
#Channel 3: Range: 200 mV/div Offset: 0 V Attenuation: 1 X Coupling: DC Bandwidth: 0 Hz Sample Mode: Average

Time (s),Channel 3 (V)
-0.005570302580645161,0.0162163982758329
-0.005569962580645161,0.01585434914053217
-0.005569622580645161,0.0155252135629872
-0.005569282580645161,0.01710506433520594
-0.005568942580645161,0.01621639827583008
-0.005568602580645161,0.01466946106136872
-0.005568262580645161,0.01513025086993251
-0.005567922580645161,0.01539355933196239
-0.005567582580645161,0.01177306797896769
-0.005567242580645161,0.01065400701531275
-0.005566902580645161,0.01078566124632906
-0.005566562580645161,0.00973242739818515
-0.005566222580645161,0.009271637589621349
-0.005565882580645161,0.009732427398183354
-0.005565542580645161,0.008745020665548437
-0.005565202580645161,0.007724700375157166
-0.005564862580645161,0.00973242739817611
-0.005564522580645161,0.004762480177247026
-0.005564182580645161,0.007296824124347924
-0.005563842580645161,0.01226677134528575
-0.005563502580645161,0.01210220355651326
-0.005563162580645161,0.01220094422977693
-0.005562822580645162,0.009074156243099695
-0.005562482580645161,0.006934774989047795
-0.005562142580645161,0.01249716624956795
-0.005561802580645162,0.01315543740465789
-0.005561462580645161,0.006901861431293239
-0.005561122580645161,0.005947368256411082
-0.005560782580645162,0.007362651239854463
-0.005560442580645161,0.00700060210455691
-0.005560102580645161,0.006375244507220324
-0.005559762580645162,0.006572725853747308
-0.005559422580645161,0.005716973352129182
-0.005559082580645161,0.004729566619492469
-0.005558742580645161,0.004696653061737972
-0.005558402580645161,0.00403838190664677
-0.005558062580645161,0.001273643055263973
-0.005557722580645161,0.001701519306072437
-0.005557382580645161,0.003149715847273728
-0.005557042580645161,0.001899000652600558
-0.005556702580645161,0.001339470170774105
-0.005556362580645161,0.002359790461164357
-0.005556022580645161,0.003116802289519171
-0.005555682580645161,0.002096481999129756
-0.005555342580645161,0.002721839596464486
-0.005555002580645161,0.00176734642158233
-0.005554662580645161,0.001536951517300849
-0.005554322580645161,0.001899000652600558
-0.005553982580645161,-0.0002732941592002112
-0.005553642580645161,0.004400431041946898
-0.005553302580645161,0.006342330949465767
-0.005552962580645161,0.008843761338812107
-0.005552622580645161,0.003906727675628541
-0.005552282580645161,0.0006482854579273878
-0.005551942580645161,0.00130655661301853
-0.005551602580645161,0.001734432863827772
-0.005551262580645161,0.001602778632807628
-0.005550922580645161,0.0005495447846637165
-0.005550582580645161,0.001701519306073215
-0.005550242580645161,0.002656012480961418
-0.005549902580645161,0.005980281814165639
-0.005549562580645161,0.00426877681092867
-0.005549222580645161,0.004499171715209971
-0.005548882580645161,0.004170036137664999
-0.005548542580645161,0.003314283636046514
-0.005548202580645161,0.002623098923200874
-0.005547862580645161,0.002656012480955371
-0.005547522580645161,0.001734432863827772
-0.005547182580645161,0.0008786803622121613
-0.005546842580645161,0.002458531134428029
-0.005546502580645161,0.0004508041114000451
-0.005546162580645161,0.001109075266493103
-0.005545822580645161,0.002162309114637015
-0.005545482580645161,0.003775073444610313
-0.005545142580645161,0.003413024309309826
-0.005544802580645161,0.003215542962782842
-0.005544462580645161,0.0025572718076917
-0.005544122580645161,0.0006153719001668437
-0.005543782580645161,-0.00267598387528288
-0.005543442580645161,-9.985697163754359e-06
-0.005543102580645161,0.001372383728526447
-0.005542762580645161,0.000714112573436502
-0.005542422580645161,0.003314283636046514
-0.005542082580645162,-0.002445588970990504
-0.005541742580645161,-0.003827958396692379
-0.005541402580645161,0.0007799396889456162
-0.005541062580645162,0.000747026131191119
-0.005540722580645161,0.0008457668044547304
-0.005540382580645161,0.0009774210354729588
-0.005540042580645162,0.0004837176691555003
-0.005539702580645161,-4.289925491831147e-05
-0.005539362580645161,0.0009115939199638446
-0.005539022580645162,-0.0001087263704255698
-0.005538682580645161,8.875497609991696e-05
-0.005538342580645161,0.00130655661301853
-0.005538002580645161,0.001767346421581491
-0.005537662580645161,0.002392704018918914
-0.005537322580645161,0.003709246329101199
-0.005536982580645161,0.003873814117873685
-0.005536642580645161,0.003314283636046514
-0.005536302580645161,0.004762480177247026
-0.005535962580645161,0.004927047966019512
-0.005535622580645161,0.0025572718076917
-0.005535282580645161,0.0027876667119736
-0.005534942580645161,0.00374215988685402
-0.005534602580645161,0.002030654883618786
-0.005534262580645161,0.00107616170873663
-0.005533922580645161,0.001931914210353558
-0.005533582580645161,-0.003169687241601236
-0.005533242580645161,0.003511764982573856
-0.005532902580645161,0.005157442870301712
-0.005532562580645161,0.004959961523774369
-0.005532222580645161,0.005256183543565383
-0.005531882580645161,0.003248456520537399
-0.005531542580645161,0.001504037959545873
-0.005531202580645161,0.001471124401791315
-0.005530862580645161,0.002458531134428029
-0.005530522580645161,5.584141834535986e-05
-0.005530182580645161,-0.001359441565100596
-0.005529842580645161,-0.002116453393455409
-0.005529502580645161,-0.003663390607918695
-0.005529162580645161,-0.003169687241601236
-0.005528822580645161,-0.001063219545309582
-0.005528482580645161,-0.0005036890634819912
-0.005528142580645161,-0.0004378619479729968
-0.005527802580645161,0.000714112573436502
-0.005527462580645161,0.002293963345654465
-0.005527122580645161,0.001866087094846001
-0.005526782580645161,0.002293963345655243
-0.005526442580645161,0.002524358249936245
-0.005526102580645161,0.002030654883618786
-0.005525762580645161,0.002985148058500942
-0.005525422580645161,0.002623098923199378
-0.005525082580645161,0.001833173537091444
-0.005524742580645161,0.001471124401791315
-0.005524402580645161,0.00239270401891646
-0.005524062580645161,0.001043248150982073
-0.005523722580645161,2.292786059080275e-05
-0.005523382580645161,-0.0004707755057362948
-0.005523042580645161,-0.005276154937892892
-0.005522702580645161,5.584141834535986e-05
-0.005522362580645161,-0.001326528007360886
-0.005522022580645161,-0.009489090330476201
-0.005521682580645161,-0.02946761988749236
-0.005521342580645161,-0.05099308665901953
-0.005521002580645161,-0.07673148882303638
-0.005520662580645161,-0.1095792194620844
-0.005520322580645162,-0.1424927772165816
-0.005519982580645161,-0.1737935706412253
-0.005519642580645161,-0.2040740437754178
-0.005519302580645162,-0.2202675141906305
-0.005518962580645161,-0.2376458726850661
-0.005518622580645161,-0.252884849925426
-0.005518282580645162,-0.2543988735821329
-0.005517942580645161,-0.2487706552061064
-0.005517602580645161,-0.2493301856879339
-0.005517262580645162,-0.2460059163547296
-0.005516922580645161,-0.2388965878797392
-0.005516582580645161,-0.2299770137282543
-0.005516242580645161,-0.2177331702435813
-0.005515902580645161,-0.2135531484087303
-0.005515562580645161,-0.210821323115102
-0.005515222580645161,-0.2010130829042619
-0.005514882580645161,-0.1922909900992864
-0.005514542580645161,-0.1877818326869121
-0.005514202580645161,-0.1827131447927195
-0.005513862580645161,-0.1747151502583529
-0.005513522580645161,-0.1703705606347513
-0.005513182580645161,-0.1644461202389418
-0.005512842580645161,-0.1568760019553829
-0.005512502580645161,-0.1497666734803986
-0.005512162580645161,-0.1450271211637424
-0.005511822580645161,-0.1392343349989403
-0.005511482580645161,-0.1330465861410836
-0.005511142580645161,-0.1302489337319462
-0.005510802580645161,-0.1254764678575355
-0.005510462580645161,-0.1187291885178512
-0.005510122580645161,-0.1150099564915863
-0.005509782580645161,-0.1104678855214574
-0.005509442580645161,-0.1065511721486651
-0.005509102580645161,-0.1035231248352459
-0.005508762580645161,-0.09990263348223655
-0.005508422580645161,-0.09549221674313393
-0.005508082580645161,-0.09417567443295163
-0.005507742580645161,-0.09088431865749211
-0.005507402580645161,-0.08877785096120427
-0.005507062580645161,-0.08811957980611312
-0.005506722580645161,-0.07890378363482844
-0.005506382580645161,-0.07413131776042636
-0.005506042580645161,-0.07008295015661584
-0.005505702580645161,-0.06988546881008731
-0.005505362580645161,-0.06922719765499735
-0.005505022580645161,-0.06554087918648696
-0.005504682580645161,-0.06346732504794531
-0.005504342580645161,-0.06096589465860352
-0.005504002580645161,-0.05866194561578452
-0.005503662580645161,-0.05708209484355991
-0.005503322580645161,-0.05385656618361918
-0.005502982580645161,-0.05013733415735423
-0.005502642580645161,-0.04845874271186709
-0.005502302580645161,-0.0458585716492618
-0.005501962580645161,-0.04493699203213421
-0.005501622580645161,-0.04552943607171546
-0.005501282580645161,-0.04510155982090699
-0.005500942580645161,-0.04213933962299685
-0.005500602580645161,-0.04325840058664838
-0.005500262580645161,-0.04138232779464204
-0.005499922580645161,-0.03907837875182304
-0.005499582580645162,-0.03861758894326008
-0.005499242580645161,-0.03700482461328594
-0.005498902580645161,-0.03410843153088492
-0.005498562580645162,-0.0330881112404955
-0.005498222580645161,-0.03272606210519352
-0.005497882580645161,-0.02903974363668312
-0.005497542580645162,-0.03019171815809053
-0.005497202580645161,-0.02996132325381072
-0.005496862580645161,-0.03242984008540251
-0.005496522580645162,-0.02640665901632951
-0.005496182580645161,-0.02232537785475347
-0.005495842580645161,-0.02002142881193448
-0.005495502580645161,-0.01804661534666464
-0.005495162580645161,-0.02239120497026259
-0.005494822580645161,-0.01903402207929776
-0.005494482580645161,-0.01728960351830941
-0.005494142580645161,-0.01824409669318839
-0.005493802580645161,-0.01699338149851522
-0.005493462580645161,-0.01633511034342528
-0.005493122580645161,-0.01742125774932446
-0.005492782580645161,-0.01768456621136092
-0.005492442580645161,-0.01528187649528262
-0.005492102580645161,-0.01722377640279712
-0.005491762580645161,-0.01636802390117864
-0.005491422580645161,-0.01495274091773525
-0.005491082580645161,-0.01495274091773268
-0.005490742580645161,-0.0143273833203961
-0.005490402580645161,-0.0127146189904228
-0.005490062580645161,-0.01152973091125874
-0.005489722580645161,-0.01264879187491368
-0.005489382580645161,-0.01004862081230367
-0.005489042580645161,-0.0104106699476038
-0.005488702580645161,-0.01050941062086747
-0.005488362580645161,-0.01054232417862203
-0.005488022580645161,-0.01136516312248745
-0.005487682580645161,-0.01218800206634988
-0.005487342580645161,-0.01097020042943127
-0.005487002580645161,-0.01083854619841981
-0.005486662580645161,-0.014557778224678
-0.005486322580645161,-0.01182595293104976
-0.005485982580645161,-0.004288748205256777
-0.005485642580645161,-0.004617883782801749
-0.005485302580645161,-0.003268427914864908
-0.005484962580645161,-0.004255834647506231
-0.005484622580645161,-0.006790178594602518
-0.005484282580645161,-0.00313677368384668
-0.005483942580645161,-0.00323551435711532
-0.005483602580645161,-0.005967339650738591
-0.005483262580645161,-0.006526870132566062
-0.005482922580645161,-0.004749538013824468
-0.005482582580645161,-0.007218054845411761
-0.005482242580645161,-0.00860042427110316
-0.005481902580645161,-0.006197734555023304
-0.005481562580645161,-0.007744671769484675
-0.005481222580645161,-0.007382622634184546
-0.005480882580645161,-0.005901512535228758
-0.005480542580645161,-0.005506549842174791
-0.005480202580645161,-0.005144500706874663
-0.005479862580645161,-0.002807638106300749
-0.005479522580645161,-0.002610156759773766
-0.005479182580645161,-0.002544329644264652
-0.005478842580645162,-0.001556922911629734
-0.005478502580645161,-0.0009973924298004675
-0.005478162580645161,-0.00267598387528288
-0.005477822580645162,-0.001984799162438438
-0.005477482580645161,-0.002281021182228195
-0.005477142580645161,-0.003465909261392251
-0.005476802580645162,-0.005671117630943566
-0.005476462580645161,-0.00517741426462922
-0.005476122580645161,-0.01097020042943127
-0.005475782580645162,-0.002149366951226011
-0.005475442580645161,0.0002533227648727025
-0.005475102580645161,-0.003301341472619465
-0.005474762580645161,-0.001194873776331642
-0.005474422580645161,0.003149715847273728
-0.005474082580645161,0.002030654883618786
-0.005473742580645161,0.004630825946224068
-0.005473402580645161,0.004795393735001583
-0.005473062580645161,-0.0007999110832731249
-0.005472722580645161,-0.002478502528752484
-0.005472382580645161,-0.0005366026212366681
-0.005472042580645161,-7.581281267286857e-05
-0.005471702580645161,-0.001359441565098261
-0.005471362580645161,0.0001545820916090312
-0.005471022580645161,-0.0005036890634821109
-0.005470682580645161,-0.001688577142644012
-0.005470342580645161,-0.004255834647501621
-0.005470002580645161,0.0004837176691546022
-0.005469662580645161,-0.002083539835700852
-0.005469322580645161,0.001043248150982073
-0.005468982580645161,0.0027876667119736
-0.005468642580645161,-0.003268427914864908
-0.005468302580645161,-0.002149366951209966
-0.005467962580645161,0.0005824583424182735
-0.005467622580645161,-0.001326528007346039
-0.005467282580645161,-0.001984799162437181
-0.005466942580645161,-0.002412675413246423
-0.005466602580645161,-0.002182280508964523
-0.005466262580645161,-0.002017712720188984
-0.005465922580645161,-0.0005036890634821109
-0.005465582580645161,-0.0007011704100094536
-0.005465242580645161,-0.002313934739980776
-0.005464902580645161,-0.001227787334082367
-0.005464562580645161,-0.001063219545309582
-0.005464222580645161,-0.00293929233731784
-0.005463882580645161,-0.002116453393455409
-0.005463542580645161,-0.003400082145883136
-0.005463202580645161,-0.002577243202014
-0.005462862580645161,0.0002862363226272596
-0.005462522580645161,-0.0002732941592002112
-0.005462182580645161,-0.00175440425815097
-0.005461842580645161,0.0006153719001728307
-0.005461502580645161,0.001043248150982073
-0.005461162580645161,-0.0008657381987837359
-0.005460822580645161,-0.001688577142646167
-0.005460482580645161,-0.001754404258155281
-0.005460142580645161,-0.004749538013824647
-0.005459802580645161,-0.007316795518675433
-0.005459462580645161,-9.985697163754359e-06
-0.005459122580645161,-0.001129046660814745
-0.005458782580645161,0.001043248150982073
-0.005458442580645161,0.0006153719001728307
-0.005458102580645161,-0.00435457532076164
-0.005457762580645161,-0.002346848297737309
-0.005457422580645161,0.0005166312269091594
-0.005457082580645162,-9.985697162796466e-06
-0.005456742580645161,-0.0005366026212366681
-0.005456402580645161,0.002359790461164357
-0.005456062580645162,0.003347197193799275
-0.005455722580645161,0.004104209022155884
-0.005455382580645161,0.004466258157456012
-0.005455042580645162,0.004268776810929029
-0.005454702580645161,0.002425617576673472
-0.005454362580645161,0.00176734642158233
-0.005454022580645162,0.001306556613019368
-0.005453682580645161,-0.0007999110832731249
-0.005453342580645161,-0.0004707755057275538
-0.005453002580645161,-0.0001416399281825815
-0.005452662580645161,-0.001326528007346039
-0.005452322580645161,-0.001293614449591481
-0.005451982580645161,-0.0009644788720465092
-0.005451642580645161,-0.002840551664055666
-0.005451302580645161,-0.002544329644264652
-0.005450962580645161,-0.001918972046929204
-0.005450622580645161,-0.003334255030374022
-0.005450282580645161,-0.00290637877956478
-0.005449942580645161,-0.003663390607918217
-0.005449602580645161,-0.005967339650738591
-0.005449262580645161,-0.0003391212747093254
-0.005448922580645161,0.001569865075051514
-0.005448582580645161,0.001635692190564101
-0.005448242580645161,-0.0007340839677640107
-0.005447902580645161,-0.002050626277946295
-0.005447562580645161,-0.001589836469382495
-0.005447222580645161,-0.0004378619479729968
-0.005446882580645161,-0.00188605848917351
-0.005446542580645161,0.0009445074777184018
-0.005446202580645161,0.0004508041114000451
-0.005445862580645161,0.001569865075054987
-0.005445522580645161,0.001043248150980217
-0.005445182580645161,2.292786059080275e-05
-0.005444842580645161,0.0006482854579273878
-0.005444502580645161,-0.001951885604683941
-0.005444162580645161,-0.00267598387528288
-0.005443822580645161,-0.00267598387528288
-0.005443482580645161,-0.001886058489176204
-0.005443142580645161,-0.00336716858812858
-0.005442802580645161,-0.002939292337319337
-0.005442462580645161,-0.002182280508964763
-0.005442122580645161,-0.002313934739982752
-0.005441782580645161,-0.001853144931418952
-0.005441442580645161,-0.0002403806014451752
-0.005441102580645161,2.292786059080275e-05
-0.005440762580645161,-0.0005366026212366681
-0.005440422580645161,0.001569865075053729
-0.005440082580645161,0.0008786803622092876
-0.005439742580645161,0.0002533227648727025
-0.005439402580645161,-0.002050626277951683
-0.005439062580645161,-0.005012846475856435
-0.005438722580645161,0.000417890553645488
-0.005438382580645161,0.001569865075057082
-0.005438042580645161,0.002721839596464486
-0.005437702580645161,-0.0009315653142913533
-0.005437362580645161,-0.0007011704100061009
-0.005437022580645161,0.001141988824245744
-0.005436682580645161,0.002853493827482714
-0.005436342580645162,0.002293963345656261
-0.005436002580645161,0.003906727675628541
-0.005435662580645161,0.001471124401791315
-0.005435322580645162,0.0009115939199648624
-0.005434982580645161,0.001010334593227516
-0.005434642580645161,-0.0006682568522548965
-0.005434302580645162,0.0001874956493620317
-0.005433962580645161,-0.0005366026212366681
-0.005433622580645161,-0.001161960218573253
-0.005433282580645162,-0.001622750027136214
-0.005432942580645161,-0.0007340839677640107
-0.005432602580645161,-0.00336716858812858
-0.005432262580645161,-0.003334255030374082
-0.005431922580645161,-0.002050626277946295
-0.005431582580645161,-0.003663390607919593
-0.005431242580645161,-0.002643070317530179
-0.005430902580645161,-0.001820231373664395
-0.005430562580645161,-0.0002732941592002112
-0.005430222580645161,-0.001491095796116609
-0.005429882580645161,-0.0001087263704274257
-0.005429542580645161,0.0001545820916090312
-0.005429202580645161,0.001964827768106379
-0.005428862580645161,-0.004058353300974278
-0.005428522580645161,0.002096481999127901
-0.005428182580645161,0.001635692190564939
-0.005427842580645161,0.006013195371920196
-0.005427502580645161,0.002656012480955371
-0.005427162580645161,-0.0009973924298004675
-0.005426822580645161,0.001141988824245744
-0.005426482580645161,0.002096481999127901
-0.005426142580645161,-0.001063219545309582
-0.005425802580645161,-0.003005119452828451
-0.005425462580645161,-0.002807638106301108
-0.005425122580645161,-0.003860871954446936
-0.005424782580645161,-0.003005119452828451
-0.005424442580645161,-0.001293614449591481
-0.005424102580645161,-0.001293614449591481
-0.005423762580645161,-0.001721490700398389
-0.005423422580645161,-0.0004378619479729968
-0.005423082580645161,0.0008786803622092876
-0.005422742580645161,-0.0009315653142890184
-0.005422402580645161,0.0003520634381363738
-0.005422062580645161,0.002458531134428029
-0.005421722580645161,0.002030654883618906
-0.005421382580645161,0.002096481999127901
-0.005421042580645161,0.001800259979336887
-0.005420702580645161,0.0009115939199658204
-0.005420362580645161,0.001997741325864229
-0.005420022580645161,0.002392704018918914
-0.005419682580645161,-0.0007669975255175501
-0.005419342580645161,-0.000207467043691097
-0.005419002580645161,0.0002204092071181454
-0.005418662580645161,-0.005144500706860713
-0.005418322580645161,0.002524358249937143
-0.005417982580645161,0.004861220850510698
-0.005417642580645161,0.00446625815745709
-0.005417302580645161,0.00505870219703804
-0.005416962580645161,0.002656012480955371
