Analysis/files/cmb03_d2s01/wrd05_ch29.csv

#Digilent WaveForms Oscilloscope Acquisition
#Device Name: ADP3450
#Serial Number: SN:210018B9D9B0
#Date Time: 2024-08-09 15:48:40.028.540.140
#Sample rate: 2.94118e+06Hz
#Samples: 32768
#Trigger: Source: Channel 3 Type: Edge Condition: Rising Level: 20 mV Hyst.: Auto HoldOff: 0 s
#Channel 3: Range: 200 mV/div Offset: 0 V Attenuation: 1 X Coupling: DC Bandwidth: 0 Hz Sample Mode: Average

Time (s),Channel 3 (V)
-0.005570252272727273,0.002919320942991828
-0.005569912272727273,0.001734432863824719
-0.005569572272727273,5.584141834535986e-05
-0.005569232272727273,-0.001293614449591481
-0.005568892272727273,-0.0002732941592054797
-0.005568552272727273,-0.003169687241601236
-0.005568212272727273,-0.00244558897100098
-0.005567872272727273,-0.001096133103064378
-0.005567532272727273,-0.001227787334082367
-0.005567192272727273,-0.002807638106301108
-0.005566852272727273,-0.006856005710107322
-0.005566512272727273,-0.004486229551783521
-0.005566172272727273,-0.002577243202019209
-0.005565832272727273,-0.00221519406671938
-0.005565492272727273,-0.002379761855491866
-0.005565152272727273,-0.006230648112775047
-0.005564812272727273,-0.006428129459297841
-0.005564472272727273,-0.00392669906995605
-0.005564132272727273,-0.00369630416567415
-0.005563792272727273,-0.004190007531990412
-0.005563452272727273,-0.003038033010583008
-0.005563112272727273,-0.00336716858812858
-0.005562772272727274,-0.003268427914865088
-0.005562432272727273,-0.00244558897100098
-0.005562092272727273,-0.004288748205256179
-0.005561752272727274,-0.004782451571573637
-0.005561412272727273,-0.006164820997265934
-0.005561072272727273,-0.008468770040084931
-0.005560732272727274,-0.007678844653976997
-0.005560392272727273,-0.006921832825620747
-0.005560052272727273,-0.008337115809066702
-0.005559712272727274,-0.009851139465773574
-0.005559372272727273,-0.009423263214967087
-0.005559032272727273,-0.01146390379574963
-0.005558692272727274,-0.01307666812571999
-0.005558352272727273,-0.01185886648880431
-0.005558012272727273,-0.0131754087989866
-0.005557672272727274,-0.01182595293105221
-0.005557332272727273,-0.01106894110269494
-0.005556992272727273,-0.01129933600697684
-0.005556652272727274,-0.01258296475940223
-0.005556312272727273,-0.01620345611240585
-0.005555972272727273,-0.01001570725454911
-0.005555632272727274,-0.009818225908022131
-0.005555292272727273,-0.00869916494436683
-0.005554952272727273,-0.007744671769484675
-0.005554612272727273,-0.01314249524122222
-0.005554272272727273,-0.01136516312248596
-0.005553932272727273,-0.009258695426194301
-0.005553592272727273,-0.009949880139040001
-0.005553252272727273,-0.01116768177595861
-0.005552912272727273,-0.01057523773637659
-0.005552572272727273,-0.01182595293104976
-0.005552232272727273,-0.01251713764389546
-0.005551892272727273,-0.01185886648880431
-0.005551552272727273,-0.01182595293104976
-0.005551212272727273,-0.01182595293104874
-0.005550872272727273,-0.01126642244922228
-0.005550532272727273,-0.01182595293104976
-0.005550192272727273,-0.01179303937329556
-0.005549852272727273,-0.01199052071982254
-0.005549512272727273,-0.01258296475940457
-0.005549172272727273,-0.01301084101021082
-0.005548832272727273,-0.01136516312248596
-0.005548492272727273,-0.01231965629736811
-0.005548152272727273,-0.01357037149203901
-0.005547812272727273,-0.01231965629736811
-0.005547472272727273,-0.01146390379574963
-0.005547132272727273,-0.01222091562410306
-0.005546792272727273,-0.01146390379574963
-0.005546452272727273,-0.01044358350535836
-0.005546112272727273,-0.01261587831716589
-0.005545772272727273,-0.01633511034342408
-0.005545432272727273,-0.008995386964157845
-0.005545092272727273,-0.008929559848649869
-0.005544752272727273,-0.009554917445985316
-0.005544412272727273,-0.008962473406403288
-0.005544072272727273,-0.01495274091773358
-0.005543732272727273,-0.01544644428405104
-0.005543392272727273,-0.01314249524123204
-0.005543052272727273,-0.01508439514875432
-0.005542712272727273,-0.01696046794076066
-0.005542372272727273,-0.01528187649527825
-0.005542032272727274,-0.01442612399366132
-0.005541692272727273,-0.01742125774932446
-0.005541352272727273,-0.01498565447548724
-0.005541012272727274,-0.01557809851506819
-0.005540672272727273,-0.01646676457444231
-0.005540332272727273,-0.01495274091773268
-0.005539992272727274,-0.01679590015198453
-0.005539652272727273,-0.01686172726749699
-0.005539312272727273,-0.01610471543914218
-0.005538972272727274,-0.01432738332039933
-0.005538632272727273,-0.01162847158452241
-0.005538292272727273,-0.01143099023799507
-0.005537952272727274,-0.01416281553161834
-0.005537612272727273,-0.01538061716854192
-0.005537272272727273,-0.01452486466692344
-0.005536932272727274,-0.01482108668671391
-0.005536592272727273,-0.01607180188138762
-0.005536252272727273,-0.01702629505626978
-0.005535912272727274,-0.01620345611240735
-0.005535572272727273,-0.01985686102316169
-0.005535232272727273,-0.02031765083172549
-0.005534892272727274,-0.01327414947226308
-0.005534552272727273,-0.01376785283856862
-0.005534212272727273,-0.01149681735350419
-0.005533872272727274,-0.01357037149203751
-0.005533532272727273,-0.01541353072629648
-0.005533192272727273,-0.01422864264713243
-0.005532852272727273,-0.01185886648880431
-0.005532512272727273,-0.01182595293104976
-0.005532172272727273,-0.01429446976264154
-0.005531832272727273,-0.0143273833203961
-0.005531492272727273,-0.0136361986075504
-0.005531152272727273,-0.01396533418509597
-0.005530812272727273,-0.01570975274608749
-0.005530472272727273,-0.01663133236321509
-0.005530132272727273,-0.01745417130707902
-0.005529792272727273,-0.01551227139956015
-0.005529452272727273,-0.01343871726102413
-0.005529112272727273,-0.01403116130060508
-0.005528772272727273,-0.01274753254817735
-0.005528432272727273,-0.01057523773637491
-0.005528092272727273,-0.009653658119248986
-0.005527752272727273,-0.009554917445985316
-0.005527412272727273,-0.01044358350536027
-0.005527072272727273,-0.01149681735350419
-0.005526732272727273,-0.01126642244922228
-0.005526392272727273,-0.01090437331392515
-0.005526052272727273,-0.01255005120165001
-0.005525712272727273,-0.01462360534018711
-0.005525372272727273,-0.01406407485836497
-0.005525032272727273,-0.01699338149851522
-0.005524692272727273,-0.01896819496378865
-0.005524352272727273,-0.01294501389470607
-0.005524012272727273,-0.01370202572305951
-0.005523672272727273,-0.01478817312895989
-0.005523332272727273,-0.01781622044237604
-0.005522992272727273,-0.01610471543914218
-0.005522652272727273,-0.02077844064028929
-0.005522312272727273,-0.03009297748486224
-0.005521972272727273,-0.0483929155963627
-0.005521632272727273,-0.07258438054596217
-0.005521292272727273,-0.100988780888196
-0.005520952272727273,-0.1290311320950276
-0.005520612272727273,-0.1655322676448314
-0.005520272272727274,-0.1979521220330112
-0.005519932272727273,-0.2198067243820961
-0.005519592272727273,-0.2426487334637588
-0.005519252272727274,-0.2593029936875343
-0.005518912272727273,-0.2672022475486583
-0.005518572272727273,-0.2716784914032781
-0.005518232272727274,-0.272731725251422
-0.005517892272727273,-0.2686175305321043
-0.005517552272727273,-0.2626930901362841
-0.005517212272727274,-0.257262353106792
-0.005516872272727273,-0.249692234823234
-0.005516532272727273,-0.2422537707707041
-0.005516192272727274,-0.2350786151802237
-0.005515852272727273,-0.2268173121838168
-0.005515512272727273,-0.2199383786131144
-0.005515172272727274,-0.2134873212932329
-0.005514832272727273,-0.2063121657027277
-0.005514492272727273,-0.1986103931881613
-0.005514152272727274,-0.1943645442378312
-0.005513812272727273,-0.1879464004756848
-0.005513472272727273,-0.1806066770964186
-0.005513132272727274,-0.1752417671824356
-0.005512792272727273,-0.1696135488063965
-0.005512452272727273,-0.1640511575458764
-0.005512112272727273,-0.1591799509982019
-0.005511772272727273,-0.155164496952146
-0.005511432272727273,-0.1485159582857254
-0.005511092272727273,-0.1443688500086512
-0.005510752272727273,-0.1395634705764859
-0.005510412272727273,-0.1340339928737203
-0.005510072272727273,-0.1295906625768551
-0.005509732272727273,-0.1261347390126266
-0.005509392272727273,-0.1206381748676155
-0.005509052272727273,-0.1165568937060505
-0.005508712272727273,-0.112804748122022
-0.005508372272727273,-0.1079006280166019
-0.005508032272727273,-0.1046421857989008
-0.005507692272727273,-0.101449570696701
-0.005507352272727273,-0.09717080818861634
-0.005507012272727273,-0.09315535414256038
-0.005506672272727273,-0.09174007115910723
-0.005506332272727273,-0.08779044422856755
-0.005505992272727273,-0.08502570537718476
-0.005505652272727273,-0.08354459527822364
-0.005505312272727273,-0.08022032594501943
-0.005504972272727273,-0.07798220401770953
-0.005504632272727273,-0.07587573632141471
-0.005504292272727273,-0.07413131776042636
-0.005503952272727273,-0.06583710120627798
-0.005503612272727273,-0.066330804572588
-0.005503272272727273,-0.06175582004471289
-0.005502932272727273,-0.05869485917353907
-0.005502592272727273,-0.06333567081693167
-0.005502252272727273,-0.06336858437468618
-0.005501912272727273,-0.05955061167515756
-0.005501572272727273,-0.05853029138476815
-0.005501232272727273,-0.05955061167515756
-0.005500892272727273,-0.05698335417030211
-0.005500552272727273,-0.0552718491670646
-0.005500212272727273,-0.05497562714727412
-0.005499872272727273,-0.05296790012424614
-0.005499532272727274,-0.05217797473813821
-0.005499192272727273,-0.05171718492957297
-0.005498852272727273,-0.05178301204508209
-0.005498512272727274,-0.05063103752367468
-0.005498172272727273,-0.04727385463270776
-0.005497832272727273,-0.04536486828294345
-0.005497492272727274,-0.04250138875830219
-0.005497152272727273,-0.04131650067913292
-0.005496812272727273,-0.03973664990691418
-0.005496472272727274,-0.03575410941862002
-0.005496132272727273,-0.03621489922717657
-0.005495792272727273,-0.03407551797313036
-0.005495452272727274,-0.02489263535962563
-0.005495112272727273,-0.03160700114153858
-0.005494772272727273,-0.03187030960357504
-0.005494432272727274,-0.0286776945013888
-0.005494092272727273,-0.0333514197025301
-0.005493752272727273,-0.03321976547151188
-0.005493412272727274,-0.02729532507570237
-0.005493072272727273,-0.02923722498321047
-0.005492732272727273,-0.0284472995971011
-0.005492392272727274,-0.02986258258054448
-0.005492052272727273,-0.03200196383459326
-0.005491712272727273,-0.03078416219767465
-0.005491372272727273,-0.0278548555575244
-0.005491032272727273,-0.02894100296341945
-0.005490692272727273,-0.0295992741185106
-0.005490352272727273,-0.02788776911527362
-0.005490012272727273,-0.02808525046180097
-0.005489672272727273,-0.02742697930670982
-0.005489332272727273,-0.02611043699652754
-0.005488992272727273,-0.0261433505542821
-0.005488652272727273,-0.02693327594039147
-0.005488312272727273,-0.02400396930023588
-0.005487972272727273,-0.02242411852801762
-0.005487632272727273,-0.0226874269900536
-0.005487292272727273,-0.02324695747188107
-0.005486952272727273,-0.02077844064028809
-0.005486612272727273,-0.02012016948519815
-0.005486272272727273,-0.02018599660070726
-0.005485932272727273,-0.02130505756436507
-0.005485592272727273,-0.02288490833658094
-0.005485252272727273,-0.02005434236968903
-0.005484912272727273,-0.02025182371621847
-0.005484572272727273,-0.02140379823762588
-0.005484232272727273,-0.0245305862243088
-0.005483892272727273,-0.02318113035638088
-0.005483552272727273,-0.02808525046180097
-0.005483212272727273,-0.02670288103610957
-0.005482872272727273,-0.02295073545209096
-0.005482532272727273,-0.02344443881840842
-0.005482192272727273,-0.02133797112211676
-0.005481852272727273,-0.02462932689757001
-0.005481512272727273,-0.02327987102963563
-0.005481172272727273,-0.02255577275903537
-0.005480832272727273,-0.01969229323438861
-0.005480492272727273,-0.01952772544561612
-0.005480152272727273,-0.0190011085215432
-0.005479812272727273,-0.01811244246217058
-0.005479472272727273,-0.01834283736645206
-0.005479132272727273,-0.01689464082525155
-0.005478792272727274,-0.01738834419156901
-0.005478452272727273,-0.01659841880546054
-0.005478112272727273,-0.01824409669318839
-0.005477772272727274,-0.01715794928728998
-0.005477432272727273,-0.01686172726749699
-0.005477092272727273,-0.01682881370974244
-0.005476752272727274,-0.01886945429052126
-0.005476412272727273,-0.01771747976911548
-0.005476072272727273,-0.01794787467339738
-0.005475732272727274,-0.0176845662113614
-0.005475392272727273,-0.01643385101668775
-0.005475052272727273,-0.01715794928728801
-0.005474712272727274,-0.01649967813219806
-0.005474372272727273,-0.01557809851506927
-0.005474032272727273,-0.01620345611240585
-0.005473692272727274,-0.01748708486483124
-0.005473352272727273,-0.01692755438300611
-0.005473012272727273,-0.01877071361726131
-0.005472672272727274,-0.01212217495085286
-0.005472332272727273,-0.01129933600697684
-0.005471992272727273,-0.0104106699476038
-0.005471652272727274,-0.01169429870002919
-0.005471312272727273,-0.01419572908937787
-0.005470972272727273,-0.01350454437653217
-0.005470632272727274,-0.01281335966368773
-0.005470292272727273,-0.01383367995407774
-0.005469952272727273,-0.0127146189904228
-0.005469612272727273,-0.01449195110916888
-0.005469272272727273,-0.01436029687815065
-0.005468932272727273,-0.01406407485835964
-0.005468592272727273,-0.01419572908937787
-0.005468252272727273,-0.01508439514875091
-0.005467912272727273,-0.01541353072629648
-0.005467572272727273,-0.01564392563057838
-0.005467232272727273,-0.01584140697710572
-0.005466892272727273,-0.01439321043590521
-0.005466552272727273,-0.01330706303000483
-0.005466212272727273,-0.01343871726102294
-0.005465872272727273,-0.01337289014551394
-0.005465532272727273,-0.0134058037032685
-0.005465192272727273,-0.01501856803324383
-0.005464852272727273,-0.01613762899689674
-0.005464512272727273,-0.01761873909585181
-0.005464172272727273,-0.01804661534666051
-0.005463832272727273,-0.01775039332687003
-0.005463492272727273,-0.01748708486483358
-0.005463152272727273,-0.01870488650175782
-0.005462812272727273,-0.02179876093068056
-0.005462472272727273,-0.0185403187129794
-0.005462132272727273,-0.01501856803324042
-0.005461792272727273,-0.01426155620488698
-0.005461452272727273,-0.01208926139308621
-0.005461112272727273,-0.01557809851507435
-0.005460772272727273,-0.01837575092420662
-0.005460432272727273,-0.01488691380222357
-0.005460092272727273,-0.01426155620488974
-0.005459752272727273,-0.01577557986159661
-0.005459412272727273,-0.01337289014551394
-0.005459072272727273,-0.01294501389470709
-0.005458732272727273,-0.01426155620488698
-0.005458392272727273,-0.01357037149204128
-0.005458052272727273,-0.01426155620488722
-0.005457712272727273,-0.01439321043590521
-0.005457372272727273,-0.014557778224678
-0.005457032272727274,-0.0133070630300071
-0.005456692272727273,-0.01366911216530495
-0.005456352272727273,-0.01218800206634988
-0.005456012272727274,-0.01291210033694882
-0.005455672272727273,-0.01337289014551394
-0.005455332272727273,-0.01278044610593191
-0.005454992272727274,-0.01360328504979434
-0.005454652272727273,-0.01370202572305951
-0.005454312272727273,-0.01373493928081407
-0.005453972272727274,-0.01258296475940666
-0.005453632272727273,-0.0136361986075504
-0.005453292272727273,-0.01465651889794167
-0.005452952272727274,-0.01353745793428876
-0.005452612272727273,-0.0106410648518857
-0.005452272272727273,-0.01873780005950675
-0.005451932272727274,-0.01419572908938613
-0.005451592272727273,-0.01215508850859533
-0.005451252272727273,-0.01241839697063178
-0.005450912272727274,-0.01057523773637994
-0.005450572272727273,-0.01468943245569622
-0.005450232272727273,-0.01715794928728801
-0.005449892272727274,-0.01455777822468272
-0.005449552272727273,-0.01452486466692344
-0.005449212272727273,-0.01547935784180559
-0.005448872272727273,-0.0154135307262966
-0.005448532272727273,-0.01590723409261484
-0.005448192272727273,-0.01673007303647877
-0.005447852272727273,-0.01649967813219686
-0.005447512272727273,-0.01258296475940457
-0.005447172272727273,-0.01452486466692344
-0.005446832272727273,-0.01380076639632318
-0.005446492272727273,-0.01274753254817735
-0.005446152272727273,-0.01353745793428673
-0.005445812272727273,-0.0138665935118323
-0.005445472272727273,-0.01357037149204032
-0.005445132272727273,-0.01304375456796837
-0.005444792272727273,-0.01383367995407774
-0.005444452272727273,-0.01271461899042471
-0.005444112272727273,-0.01376785283856862
-0.005443772272727273,-0.01429446976264154
-0.005443432272727273,-0.01330706303000692
-0.005443092272727273,-0.01445903755141432
-0.005442752272727273,-0.01636802390117864
-0.005442412272727273,-0.01501856803324311
-0.005442072272727273,-0.01574266630384205
-0.005441732272727273,-0.01906693563705232
-0.005441392272727273,-0.01212217495084017
-0.005441052272727273,-0.0117930393732952
-0.005440712272727273,-0.0101802750433219
-0.005440372272727273,-0.009752398792518466
-0.005440032272727273,-0.0129450138947047
-0.005439692272727273,-0.01291210033695014
-0.005439352272727273,-0.01011444792781333
-0.005439012272727273,-0.0104106699476038
-0.005438672272727273,-0.0120234342775771
-0.005438332272727273,-0.01347163081877492
-0.005437992272727273,-0.01199052071982254
-0.005437652272727273,-0.01324123591449571
-0.005437312272727273,-0.01422864264713255
-0.005436972272727273,-0.01429446976264154
-0.005436632272727273,-0.01590723409261484
-0.005436292272727274,-0.01669715947872277
-0.005435952272727273,-0.01640093745893319
-0.005435612272727273,-0.01607180188138762
-0.005435272272727274,-0.0163680239011781
-0.005434932272727273,-0.01567683918833294
-0.005434592272727273,-0.014557778224678
-0.005434252272727274,-0.01524896293752244
-0.005433912272727273,-0.0134058037032685
-0.005433572272727273,-0.0150185680332418
-0.005433232272727274,-0.01465651889794233
-0.005432892272727273,-0.01320832235674115
-0.005432552272727273,-0.01264879187491368
-0.005432212272727274,-0.01436029687814754
-0.005431872272727273,-0.01370202572305951
-0.005431532272727273,-0.01419572908937787
-0.005431192272727274,-0.01837575092419902
-0.005430852272727273,-0.009159954752930631
-0.005430512272727273,-0.009291608983948858
-0.005430172272727274,-0.007678844653978494
-0.005429832272727273,-0.009587831003739873
-0.005429492272727273,-0.01297792745245925
-0.005429152272727274,-0.0135703714920402
-0.005428812272727273,-0.01057523773637659
-0.005428472272727273,-0.00962074456149443
-0.005428132272727273,-0.01245131052838119
-0.005427792272727273,-0.01314249524123204
-0.005427452272727273,-0.01403116130060508
-0.005427112272727273,-0.01505148159099635
-0.005426772272727273,-0.01761873909585181
-0.005426432272727273,-0.01844157803971573
-0.005426092272727273,-0.0196922932343889
-0.005425752272727273,-0.01972520679214346
-0.005425412272727273,-0.01745417130707902
-0.005425072272727273,-0.01666424592096965
-0.005424732272727273,-0.01610471543914218
-0.005424392272727273,-0.01452486466692344
-0.005424052272727273,-0.01264879187491368
-0.005423712272727273,-0.01353745793428409
-0.005423372272727273,-0.01208926139308621
-0.005423032272727273,-0.01241839697063178
-0.005422692272727273,-0.01396533418509573
-0.005422352272727273,-0.01383367995407774
-0.005422012272727273,-0.01426155620488698
-0.005421672272727273,-0.01574266630384349
-0.005421332272727273,-0.01653259168995142
-0.005420992272727273,-0.01952772544561612
-0.005420652272727273,-0.01699338149850774
-0.005420312272727273,-0.01287918677919558
-0.005419972272727273,-0.01195760716206798
-0.005419632272727273,-0.01041066994760985
-0.005419292272727273,-0.01373493928081407
-0.005418952272727273,-0.01353745793428673
-0.005418612272727273,-0.01218800206635168
-0.005418272272727273,-0.0131754087989866
-0.005417932272727273,-0.012253829181859
-0.005417592272727273,-0.01189178004656013
-0.005417252272727273,-0.01258296475940457
-0.005416912272727273,-0.01241839697063178
-0.005416572272727273,-0.0112664224492242
-0.005416232272727273,-0.01231965629736811
-0.005415892272727273,-0.01264879187491368
-0.005415552272727273,-0.01320832235674451
