Analysis/files/cmb03_d2s01/wrd03_ch47.csv

#Digilent WaveForms Oscilloscope Acquisition
#Device Name: ADP3450
#Serial Number: SN:210018B9D9B0
#Date Time: 2024-08-09 12:55:42.161.965.710
#Sample rate: 2.94118e+06Hz
#Samples: 32768
#Trigger: Source: Channel 3 Type: Edge Condition: Rising Level: 20 mV Hyst.: Auto HoldOff: 0 s
#Channel 3: Range: 200 mV/div Offset: 0 V Attenuation: 1 X Coupling: DC Bandwidth: 0 Hz Sample Mode: Average

Time (s),Channel 3 (V)
-0.005570287877697843,0.0134516594244501
-0.005569947877697842,0.0133529187511899
-0.005569607877697842,0.01526190510095074
-0.005569267877697842,0.01032487143776718
-0.005568927877697842,0.009502032493896126
-0.005568587877697842,0.005585319121110954
-0.005568247877697842,0.002063568441373343
-0.005567907877697842,0.009831168071448881
-0.005567567877697842,0.009864081629203377
-0.005567227877697842,0.009205810474112236
-0.005566887877697842,0.01016030364898834
-0.005566547877697842,0.006836034315784124
-0.005566207877697842,0.01012739009123984
-0.005565867877697842,0.01325417807791851
-0.005565527877697842,0.01091731547734921
-0.005565187877697842,0.009633686724921478
-0.005564847877697842,0.009995735860219091
-0.005564507877697842,0.008613366434530208
-0.005564167877697842,0.004367517484192341
-0.005563827877697842,0.003972554791138613
-0.005563487877697842,0.004499171715210569
-0.005563147877697842,0.002491444692182586
-0.005562807877697843,0.002228136230146608
-0.005562467877697842,0.002886407385237271
-0.005562127877697842,0.002721839596464486
-0.005561787877697843,0.003939641233380883
-0.005561447877697842,0.004762480177247026
-0.005561107877697842,0.002228136230146129
-0.005560767877697843,0.001372383728529201
-0.005560427877697842,0.002721839596464486
-0.005560087877697842,0.0003520634381363738
-0.005559747877697843,-0.001853144931414941
-0.005559407877697842,-0.001458182238364267
-0.005559067877697842,-0.002281021182228195
-0.005558727877697843,-0.002445588971000681
-0.005558387877697842,-0.002149366951209966
-0.005558047877697842,-0.004650797340556306
-0.005557707877697843,-0.007678844653970052
-0.005557367877697842,0.00176734642158233
-0.005557027877697842,0.002458531134428029
-0.005556687877697843,0.002623098923200515
-0.005556347877697842,0.0007470261311910591
-0.005556007877697842,-0.001161960218573253
-0.005555667877697843,0.0007141125734330892
-0.005555327877697842,0.0009115939199638446
-0.005554987877697842,-0.000207467043691097
-0.005554647877697843,-0.002807638106296379
-0.005554307877697842,-0.0001745534859365399
-0.005553967877697842,0.0008128532467001733
-0.005553627877697843,-0.0006024297367457822
-0.005553287877697842,-0.0001087263704274257
-0.005552947877697842,0.001997741325864229
-0.005552607877697843,0.001043248150982073
-0.005552267877697842,-0.0004049483902184396
-0.005551927877697842,0.0007799396889456162
-0.005551587877697843,-0.0003391212747093254
-0.005551247877697842,-0.0004049483902155659
-0.005550907877697842,0.001174902382000301
-0.005550567877697843,-0.0001416399281819828
-0.005550227877697842,-0.001326528007341429
-0.005549887877697842,0.001207815939754859
-0.005549547877697843,0.001833173537091444
-0.005549207877697842,-7.581281267095275e-05
-0.005548867877697842,0.0009774210354729588
-0.005548527877697843,0.0009115939199638446
-0.005548187877697842,-9.985697163634621e-06
-0.005547847877697842,5.584141834535986e-05
-0.005547507877697842,-0.003597563492410479
-0.005547167877697842,0.000747026131195669
-0.005546827877697842,0.003281370078291956
-0.005546487877697842,0.004071295464401327
-0.005546147877697842,0.002985148058493039
-0.005545807877697842,-0.001359441565100596
-0.005545467877697842,-0.00188605848917351
-0.005545127877697842,-0.0007999110832747413
-0.005544787877697842,-0.001688577142646167
-0.005544447877697842,-0.001622750027137053
-0.005544107877697842,-0.00303803301058205
-0.005543767877697842,-0.002511416086510094
-0.005543427877697842,-0.002478502528755537
-0.005543087877697842,-0.003827958396695672
-0.005542747877697842,-0.005638204073193019
-0.005542407877697842,-0.005045760033610991
-0.005542067877697843,-0.004420402436275544
-0.005541727877697842,-0.006296475228284162
-0.005541387877697842,-0.002708897433037437
-0.005541047877697843,-0.00231393473998347
-0.005540707877697842,-0.001853144931418952
-0.005540367877697842,-0.00165566358489161
-0.005540027877697843,-0.001820231373664096
-0.005539687877697842,-0.003268427914864908
-0.005539347877697842,-0.002412675413246423
-0.005539007877697843,-0.0009973924298030418
-0.005538667877697842,-0.003860871954446936
-0.005538327877697842,-0.002972205895073894
-0.005537987877697843,-0.0007340839677680818
-0.005537647877697842,-0.001622750027137053
-0.005537307877697842,-0.004124180416483393
-0.005536967877697843,-0.004782451571573337
-0.005536627877697842,0.002129395556882458
-0.005536287877697842,-0.0003062077169547683
-0.005535947877697843,-0.003564649934649995
-0.005535607877697842,-0.002939292337319337
-0.005535267877697842,-0.001260700891836924
-0.005534927877697843,-0.0005695161789924825
-0.005534587877697842,-4.289925491831147e-05
-0.005534247877697842,-0.0004707755057275538
-0.005533907877697843,0.0007799396889433411
-0.005533567877697842,-9.985697163754359e-06
-0.005533227877697842,-0.0009315653142913533
-0.005532887877697843,-0.0004049483902184396
-0.005532547877697842,-0.001556922911627938
-0.005532207877697842,-0.003334255030374022
-0.005531867877697843,-0.003400082145883136
-0.005531527877697842,-0.003432995703637694
-0.005531187877697842,-0.00688891926786619
-0.005530847877697843,-0.006230648112775047
-0.005530507877697842,-0.00619773455502049
-0.005530167877697842,-0.007152227729902647
-0.005529827877697843,-0.007152227729902647
-0.005529487877697842,-0.005704031188702613
-0.005529147877697842,-0.005967339650738591
-0.005528807877697843,-0.005309068495647449
-0.005528467877697842,-0.002544329644265969
-0.005528127877697842,-0.003268427914864908
-0.005527787877697843,-0.003169687241601236
-0.005527447877697842,-0.004190007531984784
-0.005527107877697842,5.584141834535986e-05
-0.005526767877697842,0.001569865075054987
-0.005526427877697842,-0.00702057349888406
-0.005526087877697842,-0.006823092152357076
-0.005525747877697842,-0.004486229551783521
-0.005525407877697842,-0.003367168588131813
-0.005525067877697842,-0.005144500706874663
-0.005524727877697842,-0.005605290515438462
-0.005524387877697842,-0.003531736376901185
-0.005524047877697842,-0.003432995703637694
-0.005523707877697842,-0.00438748887851985
-0.005523367877697842,-0.00346590926138345
-0.005523027877697842,0.001372383728527644
-0.005522687877697842,-0.004815365129329092
-0.005522347877697842,-0.01505148159101593
-0.005522007877697842,-0.02581421497673653
-0.005521667877697842,-0.04658266991986206
-0.005521327877697842,-0.07087287554277866
-0.005520987877697842,-0.1002646826175447
-0.005520647877697842,-0.1332440674876109
-0.005520307877697843,-0.1650056507207008
-0.005519967877697842,-0.1933442239474322
-0.005519627877697842,-0.2189180583227231
-0.005519287877697843,-0.2395877725925473
-0.005518947877697842,-0.2501530246317978
-0.005518607877697842,-0.2592700801298101
-0.005518267877697843,-0.2630551392715773
-0.005517927877697842,-0.2617056834036473
-0.005517587877697842,-0.263515929080148
-0.005517247877697843,-0.2545305278131702
-0.005516907877697842,-0.2437677944274137
-0.005516567877697842,-0.2398181674968669
-0.005516227877697843,-0.2299441001705177
-0.005515887877697842,-0.2222423276559334
-0.005515547877697842,-0.2190497125537413
-0.005515207877697843,-0.2105909282108355
-0.005514867877697842,-0.2014738727128078
-0.005514527877697842,-0.1966684932806425
-0.005514187877697843,-0.1913694104821684
-0.005513847877697842,-0.1829764532547467
-0.005513507877697842,-0.1740897926610163
-0.005513167877697843,-0.1704034741925126
-0.005512827877697842,-0.1641828117768946
-0.005512487877697842,-0.1560860765692736
-0.005512147877697843,-0.1510173886750718
-0.005511807877697842,-0.1469690210712613
-0.005511467877697842,-0.1402875688470862
-0.005511127877697843,-0.1366012503785758
-0.005510787877697842,-0.1312363404645829
-0.005510447877697842,-0.125213159395499
-0.005510107877697843,-0.1212964460227067
-0.005509767877697842,-0.1175113868809326
-0.005509427877697842,-0.1100729228284027
-0.005509087877697843,-0.1060245552245922
-0.005508747877697842,-0.1046421857988931
-0.005508407877697842,-0.1003963368485629
-0.005508067877697843,-0.09654545059127975
-0.005507727877697842,-0.09460355068375742
-0.005507387877697842,-0.09269456433399656
-0.005507047877697843,-0.09427441510621531
-0.005506707877697842,-0.08607893922532388
-0.005506367877697842,-0.08239262075682019
-0.005506027877697842,-0.08153686825520171
-0.005505687877697842,-0.0763365261299836
-0.005505347877697842,-0.07738975997812753
-0.005505007877697842,-0.07623778545671803
-0.005504667877697842,-0.07232107208391764
-0.005504327877697842,-0.06787774178706052
-0.005503987877697842,-0.06616623678382355
-0.005503647877697842,-0.06465221312710721
-0.005503307877697842,-0.06096589465860352
-0.005502967877697842,-0.05708209484356578
-0.005502627877697842,-0.05714792195907184
-0.005502287877697842,-0.05546933051359248
-0.005501947877697842,-0.05178301204508209
-0.005501607877697842,-0.05033481550388037
-0.005501267877697842,-0.04967654434879043
-0.005500927877697842,-0.0467801512663894
-0.005500587877697842,-0.04434454799254972
-0.005500247877697842,-0.04299509212461534
-0.005499907877697842,-0.03940751432936861
-0.005499567877697843,-0.03901255163631465
-0.005499227877697842,-0.03940751432936861
-0.005498887877697842,-0.03809097201918633
-0.005498547877697843,-0.03670860259349744
-0.005498207877697842,-0.03884798384754114
-0.005497867877697842,-0.03930877365610494
-0.005497527877697843,-0.03680734326676315
-0.005497187877697842,-0.03743270086409518
-0.005496847877697842,-0.0351945789367853
-0.005496507877697843,-0.03588576364962975
-0.005496167877697842,-0.03529331961004897
-0.005495827877697842,-0.02561673363020918
-0.005495487877697843,-0.02568256074571818
-0.005495147877697842,-0.02946761988749236
-0.005494807877697842,-0.02578130141898197
-0.005494467877697843,-0.02225955073925076
-0.005494127877697842,-0.02304947612535373
-0.005493787877697842,-0.02219372362373525
-0.005493447877697843,-0.01975812034990245
-0.005493107877697842,-0.01873780005950675
-0.005492767877697842,-0.01919858986807055
-0.005492427877697843,-0.01719086284504622
-0.005492087877697842,-0.01649967813219686
-0.005491747877697842,-0.01778330688462459
-0.005491407877697843,-0.01623636967016322
-0.005491067877697842,-0.01597306120812395
-0.005490727877697842,-0.01590723409261484
-0.005490387877697843,-0.01515022226426002
-0.005490047877697842,-0.01320832235674115
-0.005489707877697842,-0.01488691380222357
-0.005489367877697843,-0.01436029687815065
-0.005489027877697842,-0.01412990197386875
-0.005488687877697842,-0.01649967813219686
-0.005488347877697843,-0.01653259168995142
-0.005488007877697842,-0.01442612399366258
-0.005487667877697842,-0.01597306120812395
-0.005487327877697843,-0.01623636967016041
-0.005486987877697842,-0.01432738332039616
-0.005486647877697842,-0.01436029687815065
-0.005486307877697843,-0.01528187649527825
-0.005485967877697842,-0.01304375456796789
-0.005485627877697842,-0.01278044610593191
-0.005485287877697843,-0.01278044610593191
-0.005484947877697842,-0.01366911216529837
-0.005484607877697842,-0.01004862081230367
-0.005484267877697842,-0.01143099023799507
-0.005483927877697842,-0.007777585327237196
-0.005483587877697842,-0.00665852436358429
-0.005483247877697842,-0.01176012581554064
-0.005482907877697842,-0.01126642244921414
-0.005482567877697842,-0.006790178594602518
-0.005482227877697842,-0.007481363307448217
-0.005481887877697842,-0.007316795518672858
-0.005481547877697842,-0.005901512535229476
-0.005481207877697842,-0.005638204073193019
-0.005480867877697842,-0.003334255030373843
-0.005480527877697842,-0.003235514357110351
-0.005480187877697842,-0.004453315994028964
-0.005479847877697842,-0.005736944746455793
-0.005479507877697842,-0.005243241380138334
-0.005479167877697842,-0.00665852436358429
-0.005478827877697843,-0.009159954752926081
-0.005478487877697842,-0.00619773455502049
-0.005478147877697842,-0.00711931417214809
-0.005477807877697843,-0.0069876599411301
-0.005477467877697842,-0.006493956574811504
-0.005477127877697842,-0.006757265036847961
-0.005476787877697843,-0.007744671769482878
-0.005476447877697842,-0.00540780916891112
-0.005476107877697842,0.001734432863827772
-0.005475767877697843,-0.006428129459287543
-0.005475427877697842,-0.004255834647501621
-0.005475087877697842,-0.002544329644264652
-0.005474747877697843,-0.006362302343786331
-0.005474407877697842,-0.003334255030374022
-0.005474067877697842,0.004005468348892213
-0.005473727877697843,-0.001096133103054859
-0.005473387877697842,0.001438210844036758
-0.005473047877697842,0.003676332771346642
-0.005472707877697843,-0.00451914310952317
-0.005472367877697842,-0.004453315994028964
-0.005472027877697842,-0.0006353432945003394
-0.005471687877697843,-0.002906378779560649
-0.005471347877697842,-0.004782451571574535
-0.005471007877697842,-0.003630477050165036
-0.005470667877697843,-0.004486229551781964
-0.005470327877697842,-0.004848278687083649
-0.005469987877697842,-0.00438748887851985
-0.005469647877697843,-0.006428129459302391
-0.005469307877697842,-0.008666251386612273
-0.005468967877697842,-0.007053487056638975
-0.005468627877697843,-0.006625610805829733
-0.005468287877697842,-0.008304202251312145
-0.005467947877697842,-0.007975066673766575
-0.005467607877697843,-0.008304202251312145
-0.005467267877697842,-0.009456176772721644
-0.005466927877697842,-0.007481363307448217
-0.005466587877697843,-0.007283881960920875
-0.005466247877697842,-0.007942153116008006
-0.005465907877697842,-0.005736944746456691
-0.005465567877697843,-0.004025439743219721
-0.005465227877697842,-0.004683710898309307
-0.005464887877697842,-0.003827958396692379
-0.005464547877697843,-0.003070946568337565
-0.005464207877697842,-0.005078673591368901
-0.005463867877697842,-0.006921832825620747
-0.005463527877697842,0.002952234500746385
-0.005463187877697842,-0.0009315653142917724
-0.005462847877697842,-0.001161960218573253
-0.005462507877697842,0.005684059794374625
-0.005462167877697842,0.0005824583424121669
-0.005461827877697842,-0.002774724548546551
-0.005461487877697842,0.0001545820916090312
-0.005461147877697842,-0.001655663584898554
-0.005460807877697842,-0.005473636284420234
-0.005460467877697842,-0.00494701936034732
-0.005460127877697842,-0.006658524363586326
-0.005459787877697842,-0.007777585327239231
-0.005459447877697842,-0.005078673591365549
-0.005459107877697842,-0.003202600799356931
-0.005458767877697842,-0.003827958396692379
-0.005458427877697842,-0.001491095796118824
-0.005458087877697842,-0.0004707755057283321
-0.005457747877697842,-0.0008986517565367963
-0.005457407877697842,-0.0003062077169547683
-0.005457067877697843,0.001043248150979618
-0.005456727877697842,-0.001227787334082367
-0.005456387877697842,-0.001293614449591481
-0.005456047877697843,-0.001688577142645449
-0.005455707877697842,-0.004091266858728836
-0.005455367877697842,-0.004453315994028964
-0.005455027877697843,-0.004222921089747483
-0.005454687877697842,-0.005440722726665677
-0.005454347877697842,-0.006987659941129861
-0.005454007877697843,-0.005309068495650502
-0.005453667877697842,-0.007975066673766575
-0.005453327877697842,-0.01047649706311291
-0.005452987877697843,8.875497608070056e-05
-0.005452647877697842,-0.001951885604682624
-0.005452307877697842,-0.0005366026212366681
-0.005451967877697843,0.004696653061728393
-0.005451627877697842,-0.0001745534859365399
-0.005451287877697842,-0.004354575320765292
-0.005450947877697843,-0.0007011704100160989
-0.005450607877697842,-0.002807638106301108
-0.005450267877697842,-0.006823092152357076
-0.005449927877697843,-0.006164820997267131
-0.005449587877697842,-0.006033166766247705
-0.005449247877697842,-0.007448449749693661
-0.005448907877697843,-0.006691437921340224
-0.005448567877697842,-0.004354575320765292
-0.005448227877697842,-0.004782451571574535
-0.005447887877697843,-0.003103860126092122
-0.005447547877697842,-0.0006682568522548965
-0.005447207877697842,-0.0009315653142913533
-0.005446867877697843,0.0004508041114000451
-0.005446527877697842,0.00153695151730043
-0.005446187877697842,0.0007470261311910591
-0.005445847877697843,-7.581281267286857e-05
-0.005445507877697842,0.001734432863823462
-0.005445167877697842,-0.0006353432945003394
-0.005444827877697843,-0.002281021182228195
-0.005444487877697842,-0.002807638106301527
-0.005444147877697842,-0.003038033010583008
-0.005443807877697843,-0.005276154937892892
-0.005443467877697842,-0.00409126685872686
-0.005443127877697842,-0.003005119452828451
-0.005442787877697843,-0.007975066673766575
-0.005442447877697842,0.0009115939199631262
-0.005442107877697842,0.0005166312269091594
-0.005441767877697842,-0.001161960218573253
-0.005441427877697842,0.00229396334564776
-0.005441087877697842,-0.001820231373664395
-0.005440747877697842,-0.007152227729902647
-0.005440407877697842,-0.004255834647497909
-0.005440067877697842,-0.002215194066719081
-0.005439727877697842,-0.006296475228284162
-0.005439387877697842,-0.006066080324000645
-0.005439047877697842,-0.00517741426462922
-0.005438707877697842,-0.007020573498884419
-0.005438367877697842,-0.008304202251308374
-0.005438027877697842,-0.006230648112775047
-0.005437687877697842,-0.007415536191939104
-0.005437347877697842,-0.007152227729899115
-0.005437007877697842,-0.005210327822383777
-0.005436667877697842,-0.004354575320765292
-0.005436327877697843,-0.003400082145884872
-0.005435987877697842,-0.001458182238364267
-0.005435647877697842,-0.0007340839677640107
-0.005435307877697843,-0.001392355122853955
-0.005434967877697842,0.0004837176691546022
-0.005434627877697842,0.0002862363226272596
-0.005434287877697843,-0.00162275002713358
-0.005433947877697842,-0.002248107624473638
-0.005433607877697842,0.000714112573436502
-0.005433267877697843,-0.0002403806014439179
-0.005432927877697842,-0.001721490700400724
-0.005432587877697842,-0.001359441565100596
-0.005432247877697843,-0.006921832825610629
-0.005431907877697842,-0.00415709397423795
-0.005431567877697842,0.0006153719001728307
-0.005431227877697843,-0.004683710898301225
-0.005430887877697842,-0.002544329644264652
-0.005430547877697842,-0.0009315653142913533
-0.005430207877697843,-0.008304202251298734
-0.005429867877697842,-0.00837002936682126
-0.005429527877697842,0.0004837176691546022
-0.005429187877697843,-0.005605290515427386
-0.005428847877697842,-0.007744671769484675
-0.005428507877697842,-0.00415709397423795
-0.005428167877697843,-0.004321661763010436
-0.005427827877697842,-0.004058353300974278
-0.005427487877697842,-0.001392355122855153
-0.005427147877697843,-0.0005695161789912252
-0.005426807877697842,-0.002116453393455409
-0.005426467877697842,-0.001063219545309582
-0.005426127877697843,-0.0009644788720459105
-0.005425787877697842,-0.001853144931418952
-0.005425447877697842,-0.001556922911627938
-0.005425107877697843,-0.002248107624473638
-0.005424767877697842,-0.003103860126092122
-0.005424427877697842,-0.001918972046928067
-0.005424087877697843,8.875497609991696e-05
-0.005423747877697842,-0.001886058489173629
-0.005423407877697842,-0.001951885604682624
-0.005423067877697843,-0.0006682568522548965
-0.005422727877697842,-0.002544329644268963
-0.005422387877697842,-0.004914105802592763
-0.005422047877697843,-0.005374895611156563
-0.005421707877697842,-0.01014736148555717
-0.005421367877697842,-0.004552056667292635
-0.005421027877697842,-0.002741810990791994
-0.005420687877697842,-0.005012846475847514
-0.005420347877697842,-0.0001087263704274257
-0.005420007877697842,-9.985697163754359e-06
-0.005419667877697842,-0.004420402436270875
-0.005419327877697842,-0.002478502528755537
-0.005418987877697842,0.001931914210355115
-0.005418647877697842,0.0001874956493583198
-0.005418307877697842,-0.002708897433037437
-0.005417967877697842,-0.001096133103064139
-0.005417627877697842,-0.00112904666082139
