Analysis/files/cmb03_d2s01/wrd07_ch01.csv

#Digilent WaveForms Oscilloscope Acquisition
#Device Name: ADP3450
#Serial Number: SN:210018B9D9B0
#Date Time: 2024-08-09 17:35:28.031.965.100
#Sample rate: 2.94118e+06Hz
#Samples: 32768
#Trigger: Source: Channel 3 Type: Edge Condition: Rising Level: 60 mV Hyst.: Auto HoldOff: 0 s
#Channel 3: Range: 200 mV/div Offset: -20 mV Attenuation: 1 X Coupling: DC Bandwidth: 0 Hz Sample Mode: Average

Time (s),Channel 3 (V)
-0.005570488578616353,0.004634723003718472
-0.005570148578616352,0.007070326277556776
-0.005569808578616353,0.007662770317137727
-0.005569468578616353,0.006280400891446328
-0.005569128578616352,0.006543709353481827
-0.005568788578616353,0.00601709242940987
-0.005568448578616353,0.004700550119227587
-0.005568108578616352,-0.0001706564284504586
-0.005567768578616353,-0.002145469893720293
-0.005567428578616353,0.002890304442726945
-0.005567088578616352,0.002232033287640595
-0.005566748578616353,0.004865117908000373
-0.005566408578616353,-6.088639674078911e-06
-0.005566068578616352,-0.002639173260032362
-0.005565728578616353,0.0008167503041898484
-0.005565388578616353,0.001376280786017318
-0.005565048578616352,-0.001355544507611042
-0.005564708578616353,-0.001421371623120036
-0.005564368578616353,-0.001322630949856365
-0.005564028578616352,-0.002244210566983125
-0.005563688578616353,-0.001783420758420164
-0.005563348578616353,-0.002013815662702062
-0.005563008578616353,-0.003429098646145445
-0.005562668578616353,-0.0007631004680288926
-0.005562328578616353,-0.00158593941189282
-0.005561988578616353,-0.002672086817791229
-0.005561648578616353,-0.002803741048811433
-0.005561308578616353,-0.00362657999267536
-0.005560968578616353,-0.003889888454711339
-0.005560628578616352,-0.003560752877166246
-0.005560288578616353,-0.002639173260038648
-0.005559948578616353,-0.004515246052044992
-0.005559608578616352,-0.003824061339202704
-0.005559268578616353,-0.003593666434920803
-0.005558928578616353,-0.004219024032256252
-0.005558588578616352,-0.004613986725312075
-0.005558248578616353,-0.005831788362230687
-0.005557908578616353,-0.005535566342440211
-0.005557568578616352,-0.01067008135215058
-0.005557228578616353,-0.004021542685730045
-0.005556888578616353,-0.003198703741867614
-0.005556548578616352,-0.002902481722075106
-0.005556208578616353,-0.002211297009229406
-0.005555868578616353,-0.007444552692194466
-0.005555528578616352,-0.006654627306094615
-0.005555188578616353,-0.004449418936539287
-0.005554848578616353,-0.003659493550431353
-0.005554508578616352,-0.005798874804476131
-0.005554168578616353,-0.003165790184111561
-0.005553828578616353,-0.004515246052048404
-0.005553488578616352,-0.00570013413121246
-0.005553148578616353,-0.005140603649384987
-0.005552808578616353,-0.005930529035494358
-0.005552468578616352,-0.007806601827504114
-0.005552128578616353,-0.0084319594248407
-0.005551788578616353,-0.006621713748340058
-0.005551448578616352,-0.008004083174029123
-0.005551108578616353,-0.006720454421603728
-0.005550768578616353,-0.004646900283066632
-0.005550428578616352,-0.004745640956329404
-0.005550088578616353,-0.004251937590011946
-0.005549748578616353,-0.00362657999267536
-0.005549408578616352,-0.004120283358997671
-0.005549068578616353,-0.006292578170794486
-0.005548728578616353,-0.005502652784685116
-0.005548388578616352,-0.007247071345676884
-0.005548048578616353,-0.007378725576694872
-0.005547708578616353,-0.007938256058522341
-0.005547368578616352,-0.01067008135215555
-0.005547028578616353,-0.01340190664577882
-0.005546688578616353,-0.006160923939776259
-0.005546348578616352,-0.006193837497530636
-0.005546008578616353,-0.006095096824267145
-0.005545668578616353,-0.005206430764894101
-0.005545328578616352,-0.009781415292774367
-0.005544988578616353,-0.008036996731786015
-0.005544648578616353,-0.007214157787922088
-0.005544308578616352,-0.00876109500238968
-0.005543968578616353,-0.01063716779439602
-0.005543628578616353,-0.009024403464422726
-0.005543288578616352,-0.007938256058525633
-0.005542948578616353,-0.009748501735022983
-0.005542608578616353,-0.008168650962804242
-0.005542268578616353,-0.008366132309331224
-0.005541928578616353,-0.0084319594248407
-0.005541588578616353,-0.008530700098104371
-0.005541248578616353,-0.007609120480978449
-0.005540908578616353,-0.008596527213613484
-0.005540568578616353,-0.00968267461951387
-0.005540228578616353,-0.009353539041968896
-0.005539888578616353,-0.009616847504004756
-0.005539548578616353,-0.01080173558316881
-0.005539208578616353,-0.01027511865909685
-0.005538868578616352,-0.01040677289011413
-0.005538528578616353,-0.008958576348913613
-0.005538188578616353,-0.007115417114661767
-0.005537848578616352,-0.006490059517321831
-0.005537508578616353,-0.006983762883640186
-0.005537168578616353,-0.00704958999914918
-0.005536828578616352,-0.01172331520029641
-0.005536488578616353,-0.008958576348913613
-0.005536148578616353,-0.006062183266517857
-0.005535808578616352,-0.006193837497530816
-0.005535468578616353,-0.001059322487819907
-0.005535128578616353,-0.01034094577458813
-0.005534788578616352,-0.01083464914092337
-0.005534448578616353,-0.006786281537112842
-0.005534108578616353,-0.006292578170795384
-0.005533768578616352,-0.005733047688967017
-0.005533428578616353,-0.005140603649384987
-0.005533088578616353,-0.004976035860612203
-0.005532748578616352,-0.004712727398575745
-0.005532408578616353,-0.006292578170794486
-0.005532068578616353,-0.005436825669176002
-0.005531728578616352,-0.005173517207139544
-0.005531388578616353,-0.006786281537112842
-0.005531048578616353,-0.008629440771368041
-0.005530708578616352,-0.008366132309331583
-0.005530368578616353,-0.009485193272986525
-0.005530028578616353,-0.01093338981418704
-0.005529688578616352,-0.009485193272986706
-0.005529348578616353,-0.009583933946250199
-0.005529008578616353,-0.0107359084676597
-0.005528668578616352,-0.008563613655857252
-0.005528328578616353,-0.00764203403873133
-0.005527988578616353,-0.007378725576694872
-0.005527648578616352,-0.008662354329122659
-0.005527308578616353,-0.008695267886877155
-0.005526968578616353,-0.01007763731256855
-0.005526628578616352,-0.01152583385377715
-0.005526288578616353,-0.01596916415063428
-0.005525948578616353,-0.01132835250724173
-0.005525608578616352,-0.009419366157474957
-0.005525268578616353,-0.008069910289540572
-0.005524928578616353,-0.008399045867086143
-0.005524588578616352,-0.01241449991314175
-0.005524248578616353,-0.01221701856661477
-0.005523908578616353,-0.009518106830741082
-0.005523568578616352,-0.01037385933236442
-0.005523228578616353,-0.0130398575104787
-0.005522888578616353,-0.02060997579402683
-0.005522548578616352,-0.03226137523917375
-0.005522208578616353,-0.05079170825495569
-0.005521868578616353,-0.07620097484147378
-0.005521528578616352,-0.1062839666291969
-0.005521188578616353,-0.1381113769777957
-0.005520848578616353,-0.1692476026136067
-0.005520508578616353,-0.2005483960381336
-0.005520168578616353,-0.223258750888835
-0.005519828578616353,-0.2418549110201597
-0.005519488578616353,-0.2548886798909406
-0.005519148578616353,-0.2602865033627117
-0.005518808578616353,-0.2623600575012488
-0.005518468578616353,-0.2617017863461589
-0.005518128578616352,-0.2570609747027651
-0.005517788578616353,-0.2505770038251173
-0.005517448578616353,-0.2442246871784994
-0.005517108578616352,-0.2381027654361402
-0.005516768578616353,-0.2306643013836103
-0.005516428578616353,-0.2240157627172019
-0.005516088578616352,-0.2188483341497243
-0.005515748578616353,-0.2102249820180303
-0.005515408578616353,-0.1973886944937764
-0.005515068578616352,-0.1897856626524504
-0.005514728578616353,-0.1805369529234198
-0.005514388578616353,-0.1772126835902156
-0.005514048578616352,-0.1746783396431087
-0.005513708578616353,-0.1656929383761146
-0.005513368578616353,-0.1592089674984786
-0.005513028578616352,-0.1544035880663015
-0.005512688578616353,-0.1482487527661993
-0.005512348578616353,-0.1438383360270886
-0.005512008578616352,-0.139131697268187
-0.005511668578616353,-0.1335034788921577
-0.005511328578616353,-0.1287639265755015
-0.005510988578616352,-0.1256371385888186
-0.005510648578616353,-0.1199760066550347
-0.005510308578616353,-0.1150718865496057
-0.005509968578616352,-0.1122084070249593
-0.005509628578616353,-0.1074030275927939
-0.005509288578616353,-0.1033875735467379
-0.005508948578616352,-0.1004253533488223
-0.005508608578616353,-0.09739730603540855
-0.005508268578616353,-0.09420469093321651
-0.005507928578616352,-0.09176908765937415
-0.005507588578616353,-0.08893852169248739
-0.005507248578616353,-0.08568007947478623
-0.005506908578616352,-0.08492306764642467
-0.005506568578616353,-0.08120383562016648
-0.005506228578616353,-0.07876823234632924
-0.005505888578616352,-0.07583892570617562
-0.005505548578616353,-0.07692507311207403
-0.005505208578616353,-0.07307418685479086
-0.005504868578616352,-0.06507619232043116
-0.005504528578616353,-0.06379256356800575
-0.005504188578616353,-0.0593821468288951
-0.005503848578616352,-0.05994167731072186
-0.005503508578616353,-0.05954671461766788
-0.005503168578616353,-0.05372101489511128
-0.005502828578616352,-0.05098918960148215
-0.005502488578616353,-0.05049548623516468
-0.005502148578616353,-0.04842193209662759
-0.005501808578616352,-0.04720413045971023
-0.005501468578616353,-0.04789531517255467
-0.005501128578616353,-0.045492625456472
-0.005500788578616352,-0.04457104583934385
-0.005500448578616353,-0.0442748238195534
-0.005500108578616353,-0.04411025603078061
-0.005499768578616353,-0.04197087477673828
-0.005499428578616353,-0.04104929515960679
-0.005499088578616353,-0.0392061359253516
-0.005498748578616353,-0.03667179197825531
-0.005498408578616353,-0.03617808861193234
-0.005498068578616353,-0.03466406495522271
-0.005497728578616353,-0.0335450039915698
-0.005497388578616353,-0.03364374466483144
-0.005497048578616353,-0.03446658360869537
-0.005496708578616353,-0.03334752264504246
-0.005496368578616352,-0.03400579380013157
-0.005496028578616353,-0.03370957178034056
-0.005495688578616353,-0.03127396850650777
-0.005495348578616352,-0.03193223966159447
-0.005495008578616353,-0.0352894225525593
-0.005494668578616353,-0.02765347715351594
-0.005494328578616352,-0.02311140618337317
-0.005493988578616353,-0.0234734553186733
-0.005493648578616353,-0.02060997579403203
-0.005493308578616352,-0.02597488570801964
-0.005492968578616353,-0.02498747897538292
-0.005492628578616353,-0.02209108589298717
-0.005492288578616352,-0.02195943166196367
-0.005491948578616353,-0.02419755358927355
-0.005491608578616353,-0.02344054176092012
-0.005491268578616352,-0.02195943166196367
-0.005490928578616353,-0.0225518757015457
-0.005490588578616353,-0.01544254722656136
-0.005490248578616352,-0.02261770281705481
-0.005489908578616353,-0.02100493848708151
-0.005489568578616353,-0.0197871368501629
-0.005489228578616352,-0.01777940982713492
-0.005488888578616353,-0.01738444713408023
-0.005488548578616353,-0.0179439776159077
-0.005488208578616352,-0.01534380655329895
-0.005487868578616353,-0.01603499126614339
-0.005487528578616353,-0.01547546078431592
-0.005487188578616352,-0.01465262184045223
-0.005486848578616353,-0.01478427607147022
-0.005486508578616353,-0.01501467097575212
-0.005486168578616352,-0.01498175741799715
-0.005485828578616353,-0.01475136251371566
-0.005485488578616353,-0.01603499126614339
-0.005485148578616352,-0.0142247455896467
-0.005484808578616353,-0.01639704040144352
-0.005484468578616353,-0.0167920030944982
-0.005484128578616352,-0.01086756269867745
-0.005483788578616353,-0.01060425423664147
-0.005483448578616353,-0.009913069523795767
-0.005483108578616352,-0.0115587474115326
-0.005482768578616353,-0.01649578107470719
-0.005482428578616353,-0.01666034886347997
-0.005482088578616352,-0.01573876924635417
-0.005481748578616353,-0.01672617597898909
-0.005481408578616353,-0.01800980473141682
-0.005481068578616352,-0.01922760636833244
-0.005480728578616353,-0.01758192848060757
-0.005480388578616353,-0.01814145896243505
-0.005480048578616352,-0.01731862001856806
-0.005479708578616353,-0.01564002857308871
-0.005479368578616353,-0.01504758453350668
-0.005479028578616353,-0.01409309135862626
-0.005478688578616353,-0.01063716779439602
-0.005478348578616353,-0.009221884810950071
-0.005478008578616353,-0.008695267886878112
-0.005477668578616353,-0.006391318844058157
-0.005477328578616353,-0.006062183266512589
-0.005476988578616353,-0.005667220573458621
-0.005476648578616353,-0.005930529035494358
-0.005476308578616353,-0.007181244230167527
-0.005475968578616353,-0.007839515385257474
-0.005475628578616352,-0.007707861154240443
-0.005475288578616353,-0.008102823847295128
-0.005474948578616353,-0.008366132309331104
-0.005474608578616352,-0.008300305193822469
-0.005474268578616353,-0.0118878829890692
-0.005473928578616353,-0.008728181444637459
-0.005473588578616352,-0.005930529035494358
-0.005473248578616353,-0.007938256058522341
-0.005472908578616353,-0.008859835675648266
-0.005472568578616352,-0.01379686933883351
-0.005472228578616353,-0.01564002857308871
-0.005471888578616353,-0.01317151174150141
-0.005471548578616352,-0.01445514049392465
-0.005471208578616353,-0.01452096760943376
-0.005470868578616353,-0.01382978289658932
-0.005470528578616352,-0.01261198125966945
-0.005470188578616353,-0.01053842712113235
-0.005469848578616353,-0.009452279715231968
-0.005469508578616352,-0.0084319594248407
-0.005469168578616353,-0.007411639134449428
-0.005468828578616353,-0.006786281537112842
-0.005468488578616352,-0.006983762883640186
-0.005468148578616353,-0.005403912111421445
-0.005467808578616353,-0.006226751055285373
-0.005467468578616352,-0.006917935768131073
-0.005467128578616353,-0.006259664613039929
-0.005466788578616353,-0.006325491728549043
-0.005466448578616352,-0.007411639134447991
-0.005466108578616353,-0.006621713748340058
-0.005465768578616353,-0.003791147781448147
-0.005465428578616352,-0.004679813840821308
-0.005465088578616353,-0.004745640956330302
-0.005464748578616353,-0.003955715570220932
-0.005464408578616352,-0.005535566342446079
-0.005464068578616353,-0.009057317022177283
-0.005463728578616353,-0.01294111683721502
-0.005463388578616352,-0.005700134131214675
-0.005463048578616353,-0.006917935768131073
-0.005462708578616353,-0.01103213048745071
-0.005462368578616352,-0.009419366157473161
-0.005462028578616353,-0.007082503556903857
-0.005461688578616353,-0.00714833067241297
-0.005461348578616352,-0.007082503556905414
-0.005461008578616353,-0.007938256058522341
-0.005460668578616353,-0.006457145959567274
-0.005460328578616352,-0.00790534250076976
-0.005459988578616353,-0.008991489906668169
-0.005459648578616353,-0.008859835675649942
-0.005459308578616352,-0.008596527213616239
-0.005458968578616353,-0.01011055087032311
-0.005458628578616353,-0.008300305193822469
-0.005458288578616352,-0.008366132309332482
-0.005457948578616353,-0.008859835675649942
-0.005457608578616353,-0.007674947596485886
-0.005457268578616353,-0.007115417114659431
-0.005456928578616353,-0.008563613655858927
-0.005456588578616353,-0.007905342500767784
-0.005456248578616353,-0.006457145959569908
-0.005455908578616353,-0.006654627306094615
-0.005455568578616353,-0.008530700098104371
-0.005455228578616353,-0.00770786115424194
-0.005454888578616352,-0.009024403464422726
-0.005454548578616353,-0.00909023057993184
-0.005454208578616353,-0.009485193272985807
-0.005453868578616352,-0.0107359084676597
-0.005453528578616353,-0.01201953722008742
-0.005453188578616353,-0.01208536433559642
-0.005452848578616352,-0.008925662791159056
-0.005452508578616353,-0.01007763731256855
-0.005452168578616353,-0.006062183266519893
-0.005451828578616352,-0.009551020388495642
-0.005451488578616353,-0.01205245077784198
-0.005451148578616353,-0.008826922117901252
-0.005450808578616352,-0.007115417114658414
-0.005450468578616353,-0.009320625484213741
-0.005450128578616353,-0.00968267461951321
-0.005449788578616352,-0.008629440771368041
-0.005449448578616353,-0.01086756269867793
-0.005449108578616353,-0.009254798368707561
-0.005448768578616352,-0.01020929154358678
-0.005448428578616353,-0.01014346442807767
-0.005448088578616353,-0.00988015596604121
-0.005447748578616352,-0.008794008560140829
-0.005447408578616353,-0.009649761061759313
-0.005447068578616353,-0.009913069523795767
-0.005446728578616352,-0.007115417114658414
-0.005446388578616353,-0.00764203403873133
-0.005446048578616353,-0.003955715570220932
-0.005445708578616352,-0.007938256058520126
-0.005445368578616353,-0.006720454421603728
-0.005445028578616353,-0.009287711926459184
-0.005444688578616352,-0.00853070009810461
-0.005444348578616353,-0.008662354329122598
-0.005444008578616353,-0.009551020388495642
-0.005443668578616352,-0.008431959424843035
-0.005443328578616353,-0.009715588177268426
-0.005442988578616353,-0.01429057270515186
-0.005442648578616352,-0.008596527213609354
-0.005442308578616353,-0.006325491728549043
-0.005441968578616353,-0.006687540863849172
-0.005441628578616352,-0.006490059517330811
-0.005441288578616353,-0.01142709318050539
-0.005440948578616353,-0.01175622875805097
-0.005440608578616352,-0.008925662791160372
-0.005440268578616353,-0.009649761061759313
-0.005439928578616353,-0.009978896639304884
-0.005439588578616352,-0.009551020388493967
-0.005439248578616353,-0.008629440771368041
-0.005438908578616353,-0.00909023057993184
-0.005438568578616352,-0.008431959424837586
-0.005438228578616353,-0.006720454421603728
-0.005437888578616353,-0.008135737405049685
-0.005437548578616352,-0.007905342500765689
-0.005437208578616353,-0.006753367979358285
-0.005436868578616353,-0.006259664613039929
-0.005436528578616353,-0.008234478078309763
-0.005436188578616353,-0.008036996731786015
-0.005435848578616353,-0.007872428943013227
-0.005435508578616353,-0.008366132309330684
-0.005435168578616353,-0.008662354329122598
-0.005434828578616353,-0.008958576348913613
-0.005434488578616353,-0.009386452599722076
-0.005434148578616353,-0.008695267886877155
-0.005433808578616353,-0.008168650962804242
-0.005433468578616353,-0.009616847504002123
-0.005433128578616352,-0.008892749233404499
-0.005432788578616353,-0.01155874741152362
-0.005432448578616353,-0.01402726424311092
-0.005432108578616352,-0.007247071345676644
-0.005431768578616353,-0.006983762883640186
-0.005431428578616353,-0.007707861154239127
-0.005431088578616352,-0.008201564520558799
-0.005430748578616353,-0.01014346442807767
-0.005430408578616353,-0.009123144137688253
-0.005430068578616352,-0.006391318844058157
-0.005429728578616353,-0.008695267886877155
-0.005429388578616353,-0.007576206923224248
-0.005429048578616352,-0.007938256058522341
-0.005428708578616353,-0.007181244230167527
-0.005428368578616353,-0.007642034038730492
-0.005428028578616352,-0.007181244230167527
-0.005427688578616353,-0.004613986725312075
-0.005427348578616353,-0.004482332494293848
-0.005427008578616352,-0.004482332494293848
-0.005426668578616353,-0.004383591821030174
-0.005426328578616353,-0.004021542685730045
-0.005425988578616352,-0.0070495899991493
-0.005425648578616353,-0.006555886632830944
-0.005425308578616353,-0.007247071345676644
-0.005424968578616352,-0.008267391636067913
-0.005424628578616353,-0.007444552692203985
-0.005424288578616353,-0.008596527213613484
-0.005423948578616352,-0.008991489906666792
-0.005423608578616353,-0.008234478078313356
-0.005423268578616353,-0.008234478078313356
-0.005422928578616352,-0.008892749233406355
-0.005422588578616353,-0.009913069523795767
-0.005422248578616353,-0.01185496943131464
-0.005421908578616352,-0.01445514049391142
-0.005421568578616353,-0.007181244230167527
-0.005421228578616353,-0.007378725576694872
-0.005420888578616352,-0.006621713748342393
-0.005420548578616353,-0.007905342500767784
-0.005420208578616353,-0.009715588177268426
-0.005419868578616352,-0.007806601827503336
-0.005419528578616353,-0.007378725576694872
-0.005419188578616353,-0.007214157787922088
-0.005418848578616352,-0.00731289846118444
-0.005418508578616353,-0.006588800190585501
-0.005418168578616353,-0.005601393457948786
-0.005417828578616352,-0.00724707134567874
-0.005417488578616353,-0.008399045867086143
