Analysis/files/cmb03_d2s01/wrd09_ch13.csv

#Digilent WaveForms Oscilloscope Acquisition
#Device Name: ADP3450
#Serial Number: SN:210018B9D9B0
#Date Time: 2024-08-09 13:06:43.564.803.670
#Sample rate: 2.94118e+06Hz
#Samples: 32768
#Trigger: Source: Channel 3 Type: Edge Condition: Rising Level: 20 mV Hyst.: Auto HoldOff: 0 s
#Channel 3: Range: 200 mV/div Offset: 0 V Attenuation: 1 X Coupling: DC Bandwidth: 0 Hz Sample Mode: Average

Time (s),Channel 3 (V)
-0.005570555565217392,0.00700060210455691
-0.005570215565217391,0.008876674896569419
-0.005569875565217391,0.01039069855327629
-0.005569535565217392,0.007856354606175394
-0.005569195565217391,0.004499171715208294
-0.005568855565217391,0.003248456520537399
-0.005568515565217392,0.0023268769034098
-0.005568175565217391,0.001569865075046485
-0.005567835565217391,-0.003103860126092122
-0.005567495565217392,0.0004837176691546022
-0.005567155565217391,0.001141988824242691
-0.005566815565217391,-0.0005366026212366681
-0.005566475565217392,0.0002204092071181454
-0.005566135565217391,-0.004025439743222056
-0.005565795565217391,-0.005309068495647449
-0.005565455565217392,-0.003893785512201493
-0.005565115565217391,-0.00254432964426567
-0.005564775565217391,-0.003103860126092122
-0.005564435565217392,-0.003400082145883136
-0.005564095565217391,-0.001688577142648023
-0.005563755565217391,-0.002708897433037437
-0.005563415565217391,-0.00336716858812858
-0.005563075565217392,-0.002610156759775143
-0.005562735565217391,-0.002873465221810222
-0.005562395565217391,-0.003893785512201493
-0.005562055565217392,-0.0002732941592067965
-0.005561715565217391,-0.002478502528755537
-0.005561375565217391,-0.003465909261392251
-0.005561035565217392,-0.003498822819146748
-0.005560695565217391,-0.002708897433037437
-0.005560355565217391,-0.004354575320765292
-0.005560015565217392,-0.006724351479089094
-0.005559675565217391,-0.006329388786038719
-0.005559335565217391,-0.00790923955825746
-0.005558995565217392,-0.007678844653975979
-0.005558655565217391,-0.007415536191939104
-0.005558315565217391,-0.008304202251312145
-0.005557975565217392,-0.008501683597839128
-0.005557635565217391,-0.0108714597561676
-0.005557295565217391,-0.01021318860107646
-0.005556955565217392,-0.004025439743230977
-0.005556615565217391,-0.006559783690320619
-0.005556275565217391,-0.005045760033610991
-0.005555935565217392,-0.002708897433041688
-0.005555595565217391,-0.007942153116012016
-0.005555255565217391,-0.008863732733139616
-0.005554915565217392,-0.007250968403169251
-0.005554575565217391,-0.007283881960920875
-0.005554235565217391,-0.008534597155594046
-0.005553895565217392,-0.01027901571658557
-0.005553555565217391,-0.009192868310685188
-0.005553215565217391,-0.009159954752930631
-0.005552875565217392,-0.008830819175385059
-0.005552535565217391,-0.008073807347030245
-0.005552195565217391,-0.007810498884993789
-0.005551855565217392,-0.009982793696794558
-0.005551515565217391,-0.008962473406402749
-0.005551175565217391,-0.008666251386612273
-0.005550835565217392,-0.01103602754494038
-0.005550495565217391,-0.01255005120165025
-0.005550155565217391,-0.01268170543266824
-0.005549815565217392,-0.01310958168347748
-0.005549475565217391,-0.01412990197386678
-0.005549135565217391,-0.01304375456796837
-0.005548795565217392,-0.01350454437653217
-0.005548455565217391,-0.01399824774284472
-0.005548115565217391,-0.01080563264065849
-0.005547775565217392,-0.009719485234758102
-0.005547435565217391,-0.0103119292743357
-0.005547095565217391,-0.007876326000502903
-0.005546755565217392,-0.01169429870003153
-0.005546415565217391,-0.005374895611156084
-0.005546075565217391,-0.005111587149120106
-0.005545735565217392,-0.006987659941129861
-0.005545395565217391,-0.007020573498891603
-0.005545055565217391,-0.01097020042943127
-0.005544715565217392,-0.0111018546604495
-0.005544375565217391,-0.01169429870003279
-0.005544035565217391,-0.01238548341287723
-0.005543695565217392,-0.01320832235674115
-0.005543355565217391,-0.01557809851506292
-0.005543015565217391,-0.01208926139308621
-0.005542675565217391,-0.006461043017056948
-0.005542335565217392,-0.009291608983943709
-0.005541995565217391,-0.01462360534018711
-0.005541655565217391,-0.01054232417862203
-0.005541315565217392,-0.01034484283209505
-0.005540975565217391,-0.01287918677919558
-0.005540635565217391,-0.01146390379574963
-0.005540295565217392,-0.01149681735350412
-0.005539955565217391,-0.01146390379574963
-0.005539615565217391,-0.01139807668024051
-0.005539275565217392,-0.01027901571658761
-0.005538935565217391,-0.01103602754494038
-0.005538595565217391,-0.01073980552514937
-0.005538255565217392,-0.0115626444690118
-0.005537915565217391,-0.01376785283856862
-0.005537575565217391,-0.01136516312248596
-0.005537235565217392,-0.01192469360431241
-0.005536895565217391,-0.01347163081877761
-0.005536555565217391,-0.01159555802676786
-0.005536215565217392,-0.01133224956473188
-0.005535875565217391,-0.01116768177595861
-0.005535535565217391,-0.01106894110269494
-0.005535195565217392,-0.009225781868443098
-0.005534855565217391,-0.0104106699476038
-0.005534515565217391,-0.008764992059875945
-0.005534175565217392,-0.008534597155594466
-0.005533835565217391,-0.01008153437005823
-0.005533495565217391,-0.01222091562410444
-0.005533155565217392,-0.007810498884993789
-0.005532815565217391,-0.00517741426462922
-0.005532475565217391,-0.01080563264065849
-0.005532135565217392,-0.005572376957683906
-0.005531795565217391,-0.007975066673766575
-0.005531455565217391,-0.01544644428405104
-0.005531115565217392,-0.01261587831715913
-0.005530775565217391,-0.01080563264065849
-0.005530435565217391,-0.01287918677919558
-0.005530095565217392,-0.01222091562410444
-0.005529755565217391,-0.01152973091125958
-0.005529415565217391,-0.01199052071982254
-0.005529075565217392,-0.01126642244922228
-0.005528735565217391,-0.009884053023530527
-0.005528395565217391,-0.009686571677003543
-0.005528055565217392,-0.009884053023530886
-0.005527715565217391,-0.008863732733140933
-0.005527375565217391,-0.009587831003739873
-0.005527035565217392,-0.009324522541703417
-0.005526695565217391,-0.008402942924576955
-0.005526355565217391,-0.009028300521912402
-0.005526015565217392,-0.009949880139040001
-0.005525675565217391,-0.007975066673770107
-0.005525335565217391,-0.009916966581285444
-0.005524995565217392,-0.0106410648518857
-0.005524655565217391,-0.01031192927434139
-0.005524315565217391,-0.01100311398718583
-0.005523975565217392,-0.01011444792781279
-0.005523635565217391,-0.003630477050175094
-0.005523295565217391,-0.009159954752930631
-0.005522955565217392,-0.01590723409261484
-0.005522615565217391,-0.01728960351831007
-0.005522275565217391,-0.01939607121459789
-0.005521935565217392,-0.03845302115448646
-0.005521595565217391,-0.05523893560935254
-0.005521255565217391,-0.0783113395952551
-0.005520915565217391,-0.1156353140889229
-0.005520575565217392,-0.1464094905893778
-0.005520235565217391,-0.1753405078556895
-0.005519895565217391,-0.2045019200262271
-0.005519555565217392,-0.2282655087249741
-0.005519215565217391,-0.2448868553910686
-0.005518875565217391,-0.2572952666645367
-0.005518535565217392,-0.2640096324464541
-0.005518195565217391,-0.2643716815817664
-0.005517855565217391,-0.2643058544662573
-0.005517515565217392,-0.2588422038790108
-0.005517175565217391,-0.2518645296350348
-0.005516835565217391,-0.2461046570279873
-0.005516495565217392,-0.2383370573979259
-0.005516155565217391,-0.2291870883421449
-0.005515815565217391,-0.2207941311147328
-0.005515475565217392,-0.2150013449499413
-0.005515135565217391,-0.2054564132011092
-0.005514795565217391,-0.1983799982838794
-0.005514455565217392,-0.1904478308650456
-0.005514115565217391,-0.1835359837365742
-0.005513775565217391,-0.1783356416113542
-0.005513435565217392,-0.1739910519877605
-0.005513095565217391,-0.1662892794731863
-0.005512755565217391,-0.1622409118693758
-0.005512415565217392,-0.162965010139976
-0.005512075565217391,-0.1564152121468191
-0.005511735565217391,-0.1440397144311057
-0.005511395565217392,-0.1453233431835334
-0.005511055565217391,-0.1371278673026487
-0.005510715565217391,-0.1289982185372731
-0.005510375565217392,-0.1312034269068284
-0.005510035565217391,-0.125213159395499
-0.005509695565217391,-0.1158986225509593
-0.005509355565217392,-0.1121793905246944
-0.005509015565217391,-0.109282997442284
-0.005508675565217391,-0.1041155688748279
-0.005508335565217392,-0.1006267317528448
-0.005507995565217391,-0.09917853521163643
-0.005507655565217391,-0.09483394558804278
-0.005507315565217392,-0.09361614395112416
-0.005506975565217391,-0.09022604750239803
-0.005506635565217391,-0.08650681547613984
-0.005506295565217392,-0.08387373085577526
-0.005505955565217391,-0.08180017671723241
-0.005505615565217391,-0.07864047517280068
-0.005505275565217392,-0.07462502112674471
-0.005504935565217391,-0.07465793468449347
-0.005504595565217391,-0.07146531958230723
-0.005504255565217392,-0.07018169082987952
-0.005503915565217391,-0.06958924679029144
-0.005503575565217391,-0.0662649774570872
-0.005503235565217392,-0.06511300293567771
-0.005502895565217391,-0.06471804024261735
-0.005502555565217391,-0.0615912522559401
-0.005502215565217392,-0.05882651340455731
-0.005501875565217391,-0.05987974725270529
-0.005501535565217391,-0.06106463533186719
-0.005501195565217392,-0.04974237146429954
-0.005500855565217391,-0.05109182733223315
-0.005500515565217391,-0.0493144952134903
-0.005500175565217391,-0.04200768539197863
-0.005499835565217392,-0.04651684280434475
-0.005499495565217391,-0.04888661896268106
-0.005499155565217391,-0.04329131414440635
-0.005498815565217392,-0.04292926500910688
-0.005498475565217391,-0.04342296837542458
-0.005498135565217391,-0.04125067356362381
-0.005497795565217392,-0.03970373634916245
-0.005497455565217391,-0.04065822952404178
-0.005497115565217391,-0.03792640423041354
-0.005496775565217392,-0.03641238057370667
-0.005496435565217391,-0.03598450432289467
-0.005496095565217391,-0.03292354345172086
-0.005495755565217392,-0.03052085373564256
-0.005495415565217391,-0.03052085373563819
-0.005495075565217391,-0.02986258258054705
-0.005494735565217392,-0.02871060805913965
-0.005494395565217391,-0.02913848430994679
-0.005494055565217391,-0.02969801479177427
-0.005493715565217392,-0.03015880460033723
-0.005493375565217391,-0.03029045883135629
-0.005493035565217391,-0.02874352161689211
-0.005492695565217392,-0.02699910305590376
-0.005492355565217391,-0.02699910305590058
-0.005492015565217391,-0.02680162170937324
-0.005491675565217392,-0.02436601843554044
-0.005491335565217391,-0.02663705392060045
-0.005490995565217391,-0.0319690502768387
-0.005490655565217392,-0.02627500478530033
-0.005490315565217391,-0.02469515401308158
-0.005489975565217391,-0.02798650978853729
-0.005489635565217392,-0.02232537785475347
-0.005489295565217391,-0.02331278458739018
-0.005488955565217391,-0.02778902844200995
-0.005488615565217392,-0.02334569814514474
-0.005488275565217391,-0.02018599660070875
-0.005487935565217391,-0.02100883554457119
-0.005487595565217392,-0.01979103390765257
-0.005487255565217391,-0.01847449159747041
-0.005486915565217391,-0.0185403187129794
-0.005486575565217392,-0.01873780005950675
-0.005486235565217391,-0.0169604679407633
-0.005485895565217391,-0.01840866448196118
-0.005485555565217392,-0.01965937967663435
-0.005485215565217391,-0.01830992380869996
-0.005484875565217391,-0.01965937967663435
-0.005484535565217392,-0.01975812034989802
-0.005484195565217391,-0.01900110852154338
-0.005483855565217391,-0.01909984919480688
-0.005483515565217392,-0.01781622044237915
-0.005483175565217391,-0.01600597476587809
-0.005482835565217391,-0.01577557986159661
-0.005482495565217392,-0.01659841880546054
-0.005482155565217391,-0.01465651889794251
-0.005481815565217391,-0.01511730870650547
-0.005481475565217392,-0.0152489629375237
-0.005481135565217391,-0.01360328504980087
-0.005480795565217391,-0.01636802390117864
-0.005480455565217392,-0.02005434236968903
-0.005480115565217391,-0.01436029687814461
-0.005479775565217391,-0.01103602754494038
-0.005479435565217392,-0.01620345611240585
-0.005479095565217392,-0.01057523773638682
-0.005478755565217391,-0.01284627322144103
-0.005478415565217391,-0.01926441698357966
-0.005478075565217392,-0.01663133236321988
-0.005477735565217391,-0.01353745793428673
-0.005477395565217391,-0.01027901571658557
-0.005477055565217392,-0.01686172726748502
-0.005476715565217391,-0.01422864264713243
-0.005476375565217391,-0.01491982735997812
-0.005476035565217392,-0.01551227139955907
-0.005475695565217391,-0.01459069178243255
-0.005475355565217391,-0.01636802390117864
-0.005475015565217392,-0.01699338149851408
-0.005474675565217391,-0.01626928322791496
-0.005474335565217391,-0.01725668996055168
-0.005473995565217392,-0.01827701025094109
-0.005473655565217391,-0.01722377640279712
-0.005473315565217391,-0.01751999842258814
-0.005472975565217392,-0.01814535601992358
-0.005472635565217391,-0.01715794928728801
-0.005472295565217391,-0.01742125774932446
-0.005471955565217392,-0.01781622044237843
-0.005471615565217391,-0.01603888832363307
-0.005471275565217391,-0.01610471543914218
-0.005470935565217392,-0.01613762899689668
-0.005470595565217391,-0.01564392563057838
-0.005470255565217391,-0.01468943245569622
-0.005469915565217392,-0.0152489629375237
-0.005469575565217391,-0.01679590015198788
-0.005469235565217391,-0.008139634462539359
-0.005468895565217392,-0.0120234342775771
-0.005468555565217391,-0.01034484283209469
-0.005468215565217391,-0.004519143109538078
-0.005467875565217392,-0.01169429870003153
-0.005467535565217391,-0.01459069178243255
-0.005467195565217391,-0.008995386964157845
-0.005466855565217392,-0.009884053023530886
-0.005466515565217391,-0.01393242062734087
-0.005466175565217391,-0.0136361986075504
-0.005465835565217392,-0.01491982735997812
-0.005465495565217391,-0.01705920861402284
-0.005465155565217391,-0.01623636967016041
-0.005464815565217392,-0.01587432053486028
-0.005464475565217391,-0.01584140697710165
-0.005464135565217391,-0.01360328504979584
-0.005463795565217392,-0.01169429870003153
-0.005463455565217391,-0.01287918677919259
-0.005463115565217391,-0.01123350889146773
-0.005462775565217392,-0.0113322495647314
-0.005462435565217391,-0.01261587831715691
-0.005462095565217391,-0.01139807668024051
-0.005461755565217392,-0.01208926139308621
-0.005461415565217391,-0.01396533418509507
-0.005461075565217391,-0.01347163081877761
-0.005460735565217392,-0.01360328504979584
-0.005460395565217391,-0.01482108668671487
-0.005460055565217391,-0.01505148159099635
-0.005459715565217392,-0.01376785283856862
-0.005459375565217391,-0.01676298659423584
-0.005459035565217391,-0.01814535601992472
-0.005458695565217392,-0.008205461578048474
-0.005458355565217391,-0.01284627322143881
-0.005458015565217391,-0.01162847158452241
-0.005457675565217391,-0.004979932918101878
-0.005457335565217392,-0.01110185466043836
-0.005456995565217391,-0.01320832235674115
-0.005456655565217391,-0.009522003888230759
-0.005456315565217392,-0.008699164944368327
-0.005455975565217391,-0.01350454437653217
-0.005455635565217391,-0.01222091562410444
-0.005455295565217392,-0.01218800206634994
-0.005454955565217391,-0.01366911216530495
-0.005454615565217391,-0.0134058037032685
-0.005454275565217392,-0.01399824774284945
-0.005453935565217391,-0.014557778224678
-0.005453595565217391,-0.014557778224678
-0.005453255565217392,-0.01199052071982721
-0.005452915565217391,-0.01357037149204128
-0.005452575565217391,-0.01241839697063178
-0.005452235565217392,-0.0109702004294339
-0.005451895565217391,-0.01212217495084077
-0.005451555565217391,-0.01278044610593191
-0.005451215565217392,-0.0129121003369499
-0.005450875565217391,-0.01330706303000483
-0.005450535565217391,-0.01403116130060508
-0.005450195565217392,-0.01222091562410773
-0.005449855565217391,-0.01380076639632318
-0.005449515565217391,-0.01426155620488698
-0.005449175565217392,-0.01261587831716212
-0.005448835565217391,-0.01406407485835964
-0.005448495565217391,-0.01640093745893319
-0.005448155565217392,-0.006987659941129861
-0.005447815565217391,-0.005276154937892892
-0.005447475565217391,-0.01205634783533165
-0.005447135565217392,-0.009686571677003543
-0.005446795565217391,-0.007481363307448217
-0.005446455565217391,-0.01152973091125874
-0.005446115565217392,-0.01241839697063178
-0.005445775565217391,-0.01133224956473379
-0.005445435565217391,-0.01264879187491368
-0.005445095565217392,-0.01281335966368647
-0.005444755565217391,-0.01297792745246291
-0.005444415565217391,-0.01498565447548724
-0.005444075565217392,-0.01416281553162331
-0.005443735565217391,-0.01524896293752465
-0.005443395565217391,-0.01577557986159661
-0.005443055565217392,-0.01567683918833294
-0.005442715565217391,-0.0153147900530261
-0.005442375565217391,-0.01162847158452241
-0.005442035565217392,-0.01189178004655887
-0.005441695565217391,-0.008666251386617722
-0.005441355565217391,-0.01166138514227697
-0.005441015565217392,-0.01574266630384205
-0.005440675565217391,-0.01343871726102024
-0.005440335565217391,-0.01189178004655887
-0.005439995565217392,-0.01462360534018711
-0.005439655565217391,-0.01403116130060526
-0.005439315565217391,-0.01412990197386875
-0.005438975565217392,-0.01360328504979584
-0.005438635565217391,-0.01189178004655941
-0.005438295565217391,-0.01218800206634988
-0.005437955565217392,-0.0129450138947047
-0.005437615565217391,-0.01195760716206888
-0.005437275565217391,-0.01245131052838634
-0.005436935565217391,-0.01465651889794167
-0.005436595565217392,-0.01452486466692368
-0.005436255565217391,-0.01324123591449571
-0.005435915565217391,-0.01399824774285052
-0.005435575565217392,-0.01383367995407804
-0.005435235565217391,-0.01182595293104976
-0.005434895565217391,-0.01274753254817735
-0.005434555565217392,-0.01320832235674032
-0.005434215565217391,-0.01103602754494038
-0.005433875565217391,-0.01139807668024051
-0.005433535565217392,-0.0115955580267675
-0.005433195565217391,-0.01060815129413114
-0.005432855565217391,-0.01080563264065849
-0.005432515565217392,-0.01643385101667751
-0.005432175565217391,-0.01014736148556734
-0.005431835565217391,-0.006131907439511376
-0.005431495565217392,-0.01261587831714733
-0.005431155565217391,-0.006790178594602518
-0.005430815565217391,-0.007316795518675433
-0.005430475565217392,-0.005769858304214062
-0.005430135565217391,-0.01162847158452241
-0.005429795565217391,-0.009785312350267215
-0.005429455565217392,-0.006395215901553999
-0.005429115565217391,-0.00494701936034732
-0.005428775565217391,-0.005934426092984033
-0.005428435565217392,-0.006625610805828476
-0.005428095565217391,-0.007053487056638975
-0.005427755565217391,-0.008732078502121389
-0.005427415565217392,-0.01208926139308621
-0.005427075565217391,-0.0124842240861409
-0.005426735565217391,-0.01241839697063178
-0.005426395565217392,-0.01459069178243255
-0.005426055565217391,-0.01505148159099635
-0.005425715565217391,-0.01429446976264154
-0.005425375565217392,-0.01584140697710572
-0.005425035565217391,-0.01715794928728801
-0.005424695565217391,-0.01544644428405104
-0.005424355565217392,-0.01663133236321509
-0.005424015565217391,-0.01534770361078126
-0.005423675565217391,-0.01199052071982254
-0.005423335565217392,-0.01060815129413114
-0.005422995565217391,-0.01106894110269093
-0.005422655565217391,-0.008863732733139616
-0.005422315565217392,-0.007218054845411761
-0.005421975565217391,-0.008304202251314299
-0.005421635565217391,-0.009489090330476201
-0.005421295565217392,-0.01449195110916888
-0.005420955565217391,-0.007613017538467105
-0.005420615565217391,-0.007975066673766575
-0.005420275565217392,-0.006625610805829733
-0.005419935565217391,-0.008238375135810815
-0.005419595565217391,-0.01251713764389546
-0.005419255565217392,-0.01004862081230367
-0.005418915565217391,-0.009522003888232735
-0.005418575565217391,-0.01060815129413114
-0.005418235565217392,-0.01264879187491368
-0.005417895565217391,-0.0142615562048877
-0.005417555565217391,-0.01465651889794167
-0.005417215565217392,-0.01422864264713243
-0.005416875565217391,-0.01478817312896151
-0.005416535565217391,-0.01567683918833294
