Analysis/files/cmb03_d2s01/wrd04_ch37.csv

#Digilent WaveForms Oscilloscope Acquisition
#Device Name: ADP3450
#Serial Number: SN:210018B9D9B0
#Date Time: 2024-08-09 15:25:12.123.318.490
#Sample rate: 2.94118e+06Hz
#Samples: 32768
#Trigger: Source: Channel 3 Type: Edge Condition: Rising Level: 20 mV Hyst.: Auto HoldOff: 0 s
#Channel 1: Range: 200 mV/div Offset: -820 mV Attenuation: 1 X Coupling: DC Bandwidth: 0 Hz Sample Mode: Average
#Channel 3: Range: 200 mV/div Offset: 0 V Attenuation: 1 X Coupling: DC Bandwidth: 0 Hz Sample Mode: Average

Time (s),Channel 1 (V),Channel 3 (V)
-0.005570237496522949,0.001183269572983647,0.009469118936148692
-0.005569897496522948,0.001150451007268328,0.008119663068208558
-0.005569557496522949,0.000986358178693636,0.00630941739171121
-0.005569217496522949,0.001117632441553607,0.004992875081528926
-0.005568877496522948,0.001117632441553308,0.005190356428052677
-0.005568537496522949,0.0009535396129786156,0.003215542962782842
-0.005568197496522949,0.001281725270128709,0.001141988824245744
-0.005567857496522948,0.001642729492993336,0.003018061616253105
-0.005567517496522949,0.001314543835843729,0.001701519306073215
-0.005567177496522949,0.001183269572983647,0.002491444692182586
-0.005566837496522948,0.001150451007268388,0.002063568441374541
-0.005566497496522949,0.001019176744408656,0.002721839596464486
-0.005566157496522949,0.0007894467844035136,0.002195222672391572
-0.005565817496522948,0.001019176744409194,0.003676332771343049
-0.005565477496522949,0.001314543835843729,0.001701519306073215
-0.005565137496522949,0.001281725270128709,-0.005243241380138334
-0.005564797496522948,0.001183269572983588,0.0026889260387137
-0.005564457496522949,0.001150451007268627,0.004762480177247026
-0.005564117496522949,0.000986358178693636,-0.003202600799355794
-0.005563777496522948,0.001150451007268866,-0.003235514357101311
-0.005563437496522949,0.001281725270128709,0.001734432863827772
-0.005563097496522949,0.001084813875838697,0.00107616170873663
-0.005562757496522949,0.001117632441553547,-0.0002732941591977566
-0.005562417496522949,0.0007566282186884932,0.001833173537091444
-0.005562077496522949,0.000822265350118534,0.001372383728527644
-0.005561737496522949,0.001216088138697951,0.001569865075054627
-0.005561397496522949,0.00138018096727377,0.0005166312269091594
-0.005561057496522949,0.001347362401558749,0.0005495447846637165
-0.005560717496522949,0.001314543835843789,-0.0006353432944981839
-0.005560377496522949,0.001216088138698668,-0.0007011704100094536
-0.005560037496522949,0.001183269572983647,-0.002248107624473638
-0.005559697496522949,0.001347362401558451,-0.004519143109533948
-0.005559357496522949,0.001051995310123677,-0.003729217723428708
-0.005559017496522949,0.0009535396129786156,-0.005045760033610991
-0.005558677496522949,0.0009863581786935763,-0.005704031188700937
-0.005558337496522949,0.0008550839158335544,-0.004519143109538078
-0.005557997496522949,0.001051995310123677,-0.005111587149120106
-0.005557657496522949,0.001117632441553487,-0.005210327822383598
-0.005557317496522949,0.0008550839158335544,-0.004354575320765292
-0.005556977496522949,0.001019176744408656,-0.004354575320765292
-0.005556637496522949,0.001051995310123617,-0.004716624456064762
-0.005556297496522949,0.0009535396129786156,-0.0003062077169547683
-0.005555957496522949,0.00138018096727377,-0.001918972046928067
-0.005555617496522949,0.0009863581786943524,-0.004486229551778851
-0.005555277496522949,0.00138018096727377,-0.003663390607919593
-0.005554937496522949,0.001544273795848872,-0.00267598387528288
-0.005554597496522949,0.001380180967274068,-0.004058353300971764
-0.005554257496522949,0.00141299953298879,-0.00313677368384668
-0.005553917496522949,0.00138018096727377,-0.00267598387528288
-0.005553577496522949,0.000986358178693636,-0.003432995703637694
-0.005553237496522949,0.0009535396129786156,-0.004321661763010735
-0.005552897496522949,0.001117632441553607,-0.005802771861965805
-0.005552557496522949,0.00141299953298879,-0.006921832825620747
-0.005552217496522949,0.001642729492993933,-0.005901512535229476
-0.005551877496522949,0.001839640887283944,-0.006954746383375304
-0.005551537496522949,0.001642729492993933,-0.005309068495647449
-0.005551197496522949,0.001183269572983409,-0.008172548020298768
-0.005550857496522949,0.001051995310123677,-0.01083854619841304
-0.005550517496522949,0.0008550839158335544,-0.009258695426194301
-0.005550177496522949,0.0009207210472636549,-0.008271288693556809
-0.005549837496522949,0.0009535396129786156,-0.007843412442748346
-0.005549497496522949,0.000822265350118534,-0.007547190422957332
-0.005549157496522948,0.001183269572983647,-0.008007980231515084
-0.005548817496522949,0.001183269572983647,-0.004683710898310864
-0.005548477496522949,0.0009207210472635952,-0.004683710898310864
-0.005548137496522948,0.001051995310123319,-0.005276154937892892
-0.005547797496522949,0.0008550839158335544,-0.005276154937892892
-0.005547457496522949,0.0008879024815485748,-0.005144500706874663
-0.005547117496522948,0.001380180967273949,-0.005671117630947757
-0.005546777496522949,0.001478636664418831,-0.005769858304211248
-0.005546437496522949,0.00138018096727377,-0.006921832825620747
-0.005546097496522948,0.001248906704413569,-0.009423263214966129
-0.005545757496522949,0.001183269572983647,-0.008896646290894173
-0.005545417496522949,0.001216088138698668,-0.008764992059875945
-0.005545077496522948,0.001314543835843729,-0.009653658119250962
-0.005544737496522949,0.001314543835843729,-0.01073980552514937
-0.005544397496522949,0.001511455230133851,-0.007843412442748346
-0.005544057496522948,0.001281725270128709,-0.007547190422956554
-0.005543717496522949,0.001281725270128709,-0.00711931417214809
-0.005543377496522949,0.001347362401558749,-0.006098993881756819
-0.005543037496522948,0.001183269572983946,-0.006493956574815456
-0.005542697496522949,0.001347362401558749,-0.008666251386612273
-0.005542357496522949,0.001281725270128709,-0.01255005120165001
-0.005542017496522949,0.001117632441553905,-0.005835685419732575
-0.005541677496522949,0.0008879024815485748,-0.006592697248075176
-0.005541337496522949,0.001117632441553607,-0.004552056667292635
-0.005540997496522949,0.001183269572983528,-0.00461788378280163
-0.005540657496522949,0.001051995310123677,-0.009258695426194301
-0.005540317496522949,0.0009535396129786156,-0.007152227729902647
-0.005539977496522949,0.001248906704413151,-0.00521032782238731
-0.005539637496522949,0.001347362401558749,-0.005309068495647449
-0.005539297496522949,0.000986358178693636,-0.006329388786038719
-0.005538957496522949,0.001248906704413211,-0.005309068495649305
-0.005538617496522949,0.001577092361563892,-0.007415536191939104
-0.005538277496522949,0.00138018096727377,-0.006263561670529605
-0.005537937496522949,0.001314543835843848,-0.006131907439511615
-0.005537597496522949,0.001183269572983647,-0.008040893789275689
-0.005537257496522949,0.0009207210472635952,-0.008304202251312145
-0.005536917496522949,0.0008550839158336737,-0.008929559848647593
-0.005536577496522949,0.001084813875838697,-0.00939034965721253
-0.005536237496522949,0.00141299953298879,-0.0101802750433219
-0.005535897496522949,0.001216088138699026,-0.009192868310686983
-0.005535557496522949,0.001150451007268627,-0.0111018546604495
-0.005535217496522949,0.000986358178693636,-0.01004862081230367
-0.005534877496522949,0.0008879024815487539,-0.006691437921344953
-0.005534537496522949,0.001248906704413688,-0.006823092152357076
-0.005534197496522949,0.001051995310123677,-0.008402942924575817
-0.005533857496522949,0.001117632441553487,-0.00705348705664143
-0.005533517496522949,0.001183269572983647,-0.006131907439511376
-0.005533177496522949,0.001577092361563892,-0.008073807347030245
-0.005532837496522949,0.00138018096727377,-0.008172548020293918
-0.005532497496522949,0.001642729492993933,-0.01120059533371317
-0.005532157496522949,0.00138018096727377,-0.01261587831715913
-0.005531817496522949,0.001347362401558749,-0.005341982053402005
-0.005531477496522949,0.001281725270128709,-0.004782451571574535
-0.005531137496522949,0.001314543835843729,-0.005374895611156563
-0.005530797496522949,0.001478636664418831,-0.006428129459302391
-0.005530457496522949,0.00141299953298879,-0.008139634462539359
-0.005530117496522949,0.001216088138698668,-0.006757265036847961
-0.005529777496522949,0.0009207210472635952,-0.004881192244838206
-0.005529437496522949,0.001150451007269224,-0.005407809168913036
-0.005529097496522949,0.001478636664418831,-0.006461043017056948
-0.005528757496522949,0.001248906704413688,-0.005901512535229476
-0.005528417496522949,0.001216088138698787,-0.005572376957688097
-0.005528077496522949,0.001281725270128709,-0.007876326000502903
-0.005527737496522949,0.001216088138698668,-0.007876326000502903
-0.005527397496522948,0.001117632441553368,-0.006000253208496261
-0.005527057496522949,0.000986358178693636,-0.007711758211730118
-0.005526717496522949,0.001084813875838697,-0.008896646290894173
-0.005526377496522948,0.001117632441553786,-0.008666251386611614
-0.005526037496522949,0.001216088138698668,-0.008304202251312145
-0.005525697496522949,0.001281725270128709,-0.008337115809066702
-0.005525357496522948,0.001347362401558033,-0.007481363307449655
-0.005525017496522949,0.0009535396129786156,-0.008271288693557588
-0.005524677496522949,0.0009207210472635952,-0.008666251386612273
-0.005524337496522948,0.001084813875839115,-0.00695474638337722
-0.005523997496522949,0.001314543835843729,-0.008007980231521132
-0.005523657496522949,0.001347362401558749,-0.009522003888230759
-0.005523317496522948,0.000953539612978914,-0.008205461578049193
-0.005522977496522949,0.001117632441553607,-0.00860042427110316
-0.005522637496522949,0.001281725270128709,-0.01241839697063178
-0.005522297496522948,0.00128172527012841,-0.0219962422772361
-0.005521957496522949,0.001117632441553607,-0.0374985279796043
-0.005521617496522949,0.001150451007268627,-0.05049938329265435
-0.005521277496522948,0.001511455230133613,-0.07541494651290706
-0.005520937496522949,0.00138018096727377,-0.1045434451256371
-0.005520597496522949,0.00141299953298879,-0.1423611229856233
-0.005520257496522949,0.001314543835843908,-0.1733986079481142
-0.005519917496522949,0.000986358178693636,-0.1991370101122343
-0.005519577496522949,0.000986358178693636,-0.2245791902565069
-0.005519237496522949,0.001314543835843132,-0.2468616688563015
-0.005518897496522949,0.001248906704413688,-0.25890803099451
-0.005518557496522949,0.001150451007268627,-0.2693745423604591
-0.005518217496522949,0.00128172527012847,-0.2677946915882433
-0.005517877496522949,0.001019176744408656,-0.2691441474561772
-0.005517537496522949,0.001117632441553607,-0.2692758016871954
-0.005517197496522949,0.001577092361563056,-0.2609815851330622
-0.005516857496522949,0.001741185190138883,-0.2522594923280894
-0.005516517496522949,0.001774003755853903,-0.2464667061632874
-0.005516177496522949,0.001150451007269761,-0.2375142184540641
-0.005515837496522949,0.001150451007268627,-0.2296807917084633
-0.005515497496522949,0.0009535396129786156,-0.2172394668772407
-0.005515157496522949,0.001248906704413151,-0.2087148554188259
-0.005514817496522949,0.001216088138698668,-0.206740041953537
-0.005514477496522949,0.001281725270128709,-0.2005852066534348
-0.005514137496522949,0.001248906704413748,-0.1923568172148105
-0.005513797496522949,0.001347362401558749,-0.185708278548375
-0.005513457496522949,0.001216088138698668,-0.1805737635386641
-0.005513117496522949,0.001117632441553786,-0.175077199393663
-0.005512777496522949,0.001051995310123677,-0.1690211047668145
-0.005512437496522949,0.001216088138698668,-0.1625371338891668
-0.005512097496522949,0.001642729492993933,-0.1549011884901095
-0.005511757496522949,0.001609910927278912,-0.1495362785761167
-0.005511417496522949,0.001314543835843729,-0.1474627244375796
-0.005511077496522949,0.001248906704413688,-0.143644751738051
-0.005510737496522949,0.001347362401558749,-0.1389051994213948
-0.005510397496522949,0.001478636664418831,-0.1346922640288114
-0.005510057496522949,0.001117632441553607,-0.1322566607549742
-0.005509717496522949,0.001248906704413688,-0.126924664398736
-0.005509377496522949,0.001019176744408656,-0.121790149389025
-0.005509037496522949,0.001117632441553607,-0.1179392631317419
-0.005508697496522949,0.001150451007269045,-0.1153061785113656
-0.005508357496522949,0.00138018096727377,-0.1088551211914841
-0.005508017496522949,0.00138018096727377,-0.1046092722411462
-0.005507677496522949,0.001609910927278614,-0.1006925588683447
-0.005507337496522949,0.001445818098703811,-0.09562387097415215
-0.005506997496522949,0.001445818098703811,-0.09121345423504149
-0.005506657496522948,0.001117632441553845,-0.08716508663123104
-0.005506317496522949,0.001248906704413688,-0.08719800018898552
-0.005505977496522949,0.001150451007268627,-0.07926583277013727
-0.005505637496522948,0.000986358178693636,-0.07551368718611416
-0.005505297496522949,0.000986358178693636,-0.07353887372084433
-0.005504957496522949,0.001117632441553607,-0.07028043150314317
-0.005504617496522948,0.001478636664418234,-0.07409840420266642
-0.005504277496522949,0.001150451007268627,-0.07113618400476165
-0.005503937496522949,0.001117632441553607,-0.06669285370789646
-0.005503597496522948,0.001412999532988492,-0.06488260803139353
-0.005503257496522949,0.001248906704413688,-0.06363189283672263
-0.005502917496522949,0.001314543835843729,-0.05876068628904819
-0.005502577496522948,0.001609910927278495,-0.05757579820988341
-0.005502237496522949,0.00138018096727377,-0.05718083551682945
-0.005501897496522949,0.001347362401558749,-0.05494271358951957
-0.005501557496522948,0.001183269572983468,-0.05303372723975525
-0.005501217496522949,0.001084813875838697,-0.05303372723975525
-0.005500877496522949,0.00138018096727377,-0.05102600021672727
-0.005500537496522948,0.001708366624423146,-0.04914992742471644
-0.005500197496522949,0.001314543835843729,-0.04855748338513548
-0.005499857496522949,0.001314543835843729,-0.04417998020377939
-0.005499517496522949,0.00134736240155869,-0.04194185827647358
-0.005499177496522949,0.001183269572983647,-0.04148106846790571
-0.005498837496522949,0.001051995310123677,-0.03851884826999557
-0.005498497496522949,0.0009863581786937554,-0.03641238057370774
-0.005498157496522949,0.001019176744408656,-0.0354249738410672
-0.005497817496522949,0.001347362401558749,-0.03447048066618504
-0.005497477496522949,0.00138018096727371,-0.03196905027684326
-0.005497137496522949,0.001216088138698668,-0.03045502662012908
-0.005496797496522949,0.0009535396129786156,-0.02992840969605616
-0.005496457496522949,0.001019176744408537,-0.02999423681156516
-0.005496117496522949,0.001051995310123677,-0.0347337891282215
-0.005495777496522949,0.001117632441553607,-0.03443756710843049
-0.005495437496522949,0.001216088138698489,-0.02848021315486649
-0.005495097496522949,0.001183269572983647,-0.03108038421746566
-0.005494757496522949,0.001347362401558749,-0.03012589104258351
-0.005494417496522949,0.001347362401558749,-0.0315082604682724
-0.005494077496522949,0.001314543835843729,-0.03213361806561149
-0.005493737496522949,0.001117632441553607,-0.02716367084467337
-0.005493397496522949,0.001347362401558331,-0.02426727776227761
-0.005493057496522949,0.001511455230133851,-0.02472806757083614
-0.005492717496522949,0.001511455230133851,-0.02364192016493576
-0.005492377496522949,0.001248906704414166,-0.02067969996703101
-0.005492037496522949,0.001183269572983647,-0.0208442677557984
-0.005491697496522949,0.001183269572983647,-0.02189750160394423
-0.005491357496522949,0.001183269572983647,-0.02058095929376434
-0.005491017496522949,0.001248906704413688,-0.02114048977558942
-0.005490677496522949,0.001347362401558749,-0.02239120497026259
-0.005490337496522949,0.001051995310123677,-0.02239120497026259
-0.005489997496522949,0.0008879024815485748,-0.02097592198681663
-0.005489657496522949,0.001084813875838697,-0.0219962422772079
-0.005489317496522949,0.000986358178693636,-0.02067969996702562
-0.005488977496522949,0.001150451007268627,-0.01962646611887979
-0.005488637496522949,0.001150451007268627,-0.01929733054133422
-0.005488297496522949,0.001248906704413688,-0.01784913400013371
-0.005487957496522949,0.001183269572983826,-0.01656550524770274
-0.005487617496522949,0.001281725270128709,-0.01478817312895989
-0.005487277496522949,0.001281725270128709,-0.01472234601345078
-0.005486937496522949,0.001117632441553308,-0.0134716308187818
-0.005486597496522949,0.0009535396129786156,-0.01577557986159661
-0.005486257496522949,0.001248906704413688,-0.01630219678566952
-0.005485917496522949,0.001281725270128171,-0.02021891015846739
-0.005485577496522949,0.000986358178693636,-0.02327987102963563
-0.005485237496522949,0.001117632441553607,-0.01742125774932446
-0.005484897496522948,0.001347362401559108,-0.01794787467339343
-0.005484557496522949,0.001544273795848872,-0.01577557986159661
-0.005484217496522949,0.001347362401558749,-0.02002142881193448
-0.005483877496522948,0.00134736240155857,-0.02094300842905531
-0.005483537496522949,0.001248906704413688,-0.01722377640279712
-0.005483197496522949,0.001248906704413688,-0.01633511034342408
-0.005482857496522948,0.001248906704413808,-0.01630219678566773
-0.005482517496522949,0.001314543835843729,-0.01531479005303281
-0.005482177496522949,0.001051995310123677,-0.01488691380222357
-0.005481837496522948,0.001019176744408716,-0.01439321043590443
-0.005481497496522949,0.001051995310123677,-0.01396533418509597
-0.005481157496522949,0.001084813875838697,-0.01445903755141432
-0.005480817496522948,0.001412999532989327,-0.01393242062733985
-0.005480477496522949,0.001708366624423863,-0.01307666812572293
-0.005480137496522949,0.001577092361563892,-0.01366911216530495
-0.005479797496522948,0.001445818098703631,-0.01340580370326634
-0.005479457496522949,0.001347362401558749,-0.01222091562410444
-0.005479117496522949,0.001183269572983647,-0.01258296475940457
-0.005478777496522949,0.001380180967273411,-0.01212217495084161
-0.005478437496522949,0.001347362401558749,-0.01090437331392216
-0.005478097496522949,0.00141299953298879,-0.01044358350535836
-0.005477757496522949,0.001019176744409373,-0.01199052071981973
-0.005477417496522949,0.001084813875838697,-0.01073980552514937
-0.005477077496522949,0.001117632441553607,-0.01176012581554064
-0.005476737496522949,0.001117632441553607,-0.0121880020663491
-0.005476397496522949,0.001117632441553607,-0.0117930393732952
-0.005476057496522949,0.0008550839158335544,-0.01261587831715913
-0.005475717496522949,0.001314543835842893,-0.01623636967015382
-0.005475377496522949,0.001248906704413688,-0.01310958168347748
-0.005475037496522949,0.001216088138698668,-0.00790923955825746
-0.005474697496522949,0.001609910927278196,-0.007843412442748466
-0.005474357496522949,0.001314543835843729,-0.007415536191939104
-0.005474017496522949,0.001314543835843729,-0.01116768177595861
-0.005473677496522949,0.001150451007268925,-0.01271461899041998
-0.005473337496522949,0.00138018096727377,-0.009423263214967087
-0.005472997496522949,0.00138018096727377,-0.008666251386612273
-0.005472657496522949,0.001150451007269045,-0.0107068919673911
-0.005472317496522949,0.001183269572983647,-0.009258695426194301
-0.005471977496522949,0.001216088138698668,-0.007942153116012016
-0.005471637496522949,0.001412999532988432,-0.008172548020293498
-0.005471297496522949,0.001675548058708842,-0.009719485234758102
-0.005470957496522949,0.001577092361563892,-0.008896646290894173
-0.005470617496522949,0.00147863666441901,-0.009489090330475123
-0.005470277496522949,0.001445818098703811,-0.009258695426194301
-0.005469937496522949,0.001478636664418831,-0.007810498884993789
-0.005469597496522949,0.00141299953298879,-0.00837002936682126
-0.005469257496522949,0.001544273795848872,-0.008073807347030245
-0.005468917496522949,0.001675548058708842,-0.005638204073193019
-0.005468577496522949,0.001609910927278912,-0.005506549842174791
-0.005468237496522949,0.00141299953298879,-0.006428129459302391
-0.005467897496522949,0.001019176744408656,-0.002248107624473638
-0.005467557496522949,0.001117632441553607,-0.004321661763010735
