Analysis/files/cmb03_d2s01/wrd03_ch05.csv

#Digilent WaveForms Oscilloscope Acquisition
#Device Name: ADP3450
#Serial Number: SN:210018B9D9B0
#Date Time: 2024-08-09 12:38:59.346.795.240
#Sample rate: 2.94118e+06Hz
#Samples: 32768
#Trigger: Source: Channel 3 Type: Edge Condition: Rising Level: 20 mV Hyst.: Auto HoldOff: 0 s
#Channel 3: Range: 200 mV/div Offset: 0 V Attenuation: 1 X Coupling: DC Bandwidth: 0 Hz Sample Mode: Average

Time (s),Channel 3 (V)
-0.005570387368421053,0.005091615754792597
-0.005570047368421052,0.004795393735005774
-0.005569707368421052,0.007099342777820581
-0.005569367368421053,0.005124529312547154
-0.005569027368421052,0.005947368256414016
-0.005568687368421052,0.00756013258638438
-0.005568347368421053,0.006046108929674754
-0.005568007368421052,0.007165169893332927
-0.005567667368421052,0.008942502012075779
-0.005567327368421053,0.007658873259648051
-0.005566987368421052,0.006342330949468162
-0.005566647368421052,0.007658873259648051
-0.005566307368421053,0.00574988690988374
-0.005565967368421052,0.003577592098083988
-0.005565627368421052,0.004137122579910441
-0.005565287368421053,-0.001951885604682624
-0.005564947368421052,0.0007799396889517827
-0.005564607368421052,0.004170036137664999
-0.005564267368421053,0.004202949695419555
-0.005563927368421052,0.003709246329095391
-0.005563587368421052,0.0005166312269091594
-0.005563247368421053,-0.0003391212747093254
-0.005562907368421053,-0.000141639928182342
-0.005562567368421052,0.001635692190564101
-0.005562227368421053,0.00107616170873663
-0.005561887368421053,-0.0005695161789882317
-0.005561547368421052,8.875497609991696e-05
-0.005561207368421053,-0.0002403806014456541
-0.005560867368421053,-0.002083539835697499
-0.005560527368421052,-0.001622750027137053
-0.005560187368421053,-0.001392355122855153
-0.005559847368421053,-0.001655663584891131
-0.005559507368421052,0.003939641233383098
-0.005559167368421053,-0.0002403806014456541
-0.005558827368421053,-0.001392355122853057
-0.005558487368421052,0.001043248150982073
-0.005558147368421053,0.002063568441373343
-0.005557807368421053,-0.0009644788720404025
-0.005557467368421052,-0.001918972046928067
-0.005557127368421053,-0.003005119452828451
-0.005556787368421053,-0.004782451571571303
-0.005556447368421052,-0.008962473406403288
-0.005556107368421053,-0.008172548020293918
-0.005555767368421053,-0.008205461578048414
-0.005555427368421052,-0.009522003888230759
-0.005555087368421053,-0.01011444792781279
-0.005554747368421053,-0.01310958168347203
-0.005554407368421052,-0.008040893789275689
-0.005554067368421053,-0.006625610805829733
-0.005553727368421053,-0.004584970225047193
-0.005553387368421052,-0.007942153116012016
-0.005553047368421053,-0.01208926139308621
-0.005552707368421053,-0.01103602754494038
-0.005552367368421052,-0.009357436099457973
-0.005552027368421053,-0.008797905617630502
-0.005551687368421053,-0.00711931417214809
-0.005551347368421052,-0.008172548020292362
-0.005551007368421053,-0.007316795518675433
-0.005550667368421053,-0.003992526185465165
-0.005550327368421052,-0.004749538013820576
-0.005549987368421052,-0.005078673591365549
-0.005549647368421053,-0.005539463399929348
-0.005549307368421052,-0.004420402436275724
-0.005548967368421052,-0.005144500706874663
-0.005548627368421053,-0.003795044838937822
-0.005548287368421052,-0.005671117630950151
-0.005547947368421052,-0.007086400614393532
-0.005547607368421053,-0.006461043017056948
-0.005547267368421052,-0.009061214079670192
-0.005546927368421052,-0.01083854619841304
-0.005546587368421053,-0.0113322495647314
-0.005546247368421052,-0.01014736148556908
-0.005545907368421052,-0.0111018546604495
-0.005545567368421053,-0.009159954752930631
-0.005545227368421052,-0.007415536191937846
-0.005544887368421052,-0.006724351479093405
-0.005544547368421053,-0.005243241380138334
-0.005544207368421052,-0.008007980231506165
-0.005543867368421052,0.0002204092071181454
-0.005543527368421053,-0.0001416399281819828
-0.005543187368421052,0.002030654883610584
-0.005542847368421052,-0.002478502528755537
-0.005542507368421053,-0.008007980231521132
-0.005542167368421053,-0.007053487056640712
-0.005541827368421052,-0.006362302343793276
-0.005541487368421053,-0.008830819175385059
-0.005541147368421053,-0.008995386964157545
-0.005540807368421052,-0.0101802750433219
-0.005540467368421053,-0.01034484283209469
-0.005540127368421053,-0.009127041195178289
-0.005539787368421052,-0.008501683597839487
-0.005539447368421053,-0.008271288693557588
-0.005539107368421053,-0.007711758211731135
-0.005538767368421052,-0.007349709076429989
-0.005538427368421053,-0.008468770040084931
-0.005538087368421053,-0.007382622634186522
-0.005537747368421052,-0.008468770040084931
-0.005537407368421053,-0.01215508850859533
-0.005537067368421053,-0.01113476821820591
-0.005536727368421052,-0.01014736148556734
-0.005536387368421053,-0.01159555802676786
-0.005536047368421053,-0.01129933600697738
-0.005535707368421052,-0.009061214079666959
-0.005535367368421053,-0.008995386964157845
-0.005535027368421053,-0.007942153116013932
-0.005534687368421052,-0.005341982053402005
-0.005534347368421053,-0.006954746383375304
-0.005534007368421053,-0.01116768177595095
-0.005533667368421052,-0.005309068495647449
-0.005533327368421053,-0.004453315994028964
-0.005532987368421053,-0.005671117630947577
-0.005532647368421052,-0.00415709397423795
-0.005532307368421053,-0.009554917445985316
-0.005531967368421053,-0.01192469360431343
-0.005531627368421052,-0.007942153116012016
-0.005531287368421053,-0.008402942924575817
-0.005530947368421053,-0.01116768177595861
-0.005530607368421052,-0.009587831003739873
-0.005530267368421053,-0.007250968403166318
-0.005529927368421053,-0.006559783690320619
-0.005529587368421052,-0.005704031188700038
-0.005529247368421053,-0.004552056667292635
-0.005528907368421053,-0.005572376957683906
-0.005528567368421052,-0.004683710898312421
-0.005528227368421052,-0.005539463399929348
-0.005527887368421053,-0.005934426092984033
-0.005527547368421052,-0.006329388786039556
-0.005527207368421052,-0.006790178594602518
-0.005526867368421053,-0.007283881960920875
-0.005526527368421052,-0.007744671769482998
-0.005526187368421052,-0.006823092152357076
-0.005525847368421053,-0.008567510713348603
-0.005525507368421052,-0.009390349657208998
-0.005525167368421052,-0.007448449749693661
-0.005524827368421053,-0.008732078502121389
-0.005524487368421052,-0.009324522541702279
-0.005524147368421052,-0.00869916494436683
-0.005523807368421053,-0.01050941062086747
-0.005523467368421052,-0.01610471543913236
-0.005523127368421052,-0.01070689196739481
-0.005522787368421053,-0.01047649706311291
-0.005522447368421052,-0.0242343642045406
-0.005522107368421052,-0.03677442970900404
-0.005521767368421053,-0.05329703570179171
-0.005521427368421052,-0.07952914123222563
-0.005521087368421052,-0.1080651958053747
-0.005520747368421053,-0.1366999910518394
-0.005520407368421053,-0.1669804641859769
-0.005520067368421052,-0.193508791736205
-0.005519727368421053,-0.2135860619664848
-0.005519387368421053,-0.2333341966191832
-0.005519047368421052,-0.2460388299124781
-0.005518707368421053,-0.2529177634831806
-0.005518367368421053,-0.2577889700308462
-0.005518027368421052,-0.2546292684864175
-0.005517687368421053,-0.2488035687638609
-0.005517347368421053,-0.2442285842359858
-0.005517007368421052,-0.2369217744144658
-0.005516667368421053,-0.2285617307448083
-0.005516327368421053,-0.2202346006329205
-0.005515987368421052,-0.2138493704285213
-0.005515647368421053,-0.2052918454123364
-0.005515307368421053,-0.1983470847261375
-0.005514967368421052,-0.1887363258617942
-0.005514627368421053,-0.1837992921986107
-0.005514287368421053,-0.1812978618092689
-0.005513947368421052,-0.1762291739150625
-0.005513607368421053,-0.1705351284235241
-0.005513267368421053,-0.1659272303378945
-0.005512927368421052,-0.16154972715653
-0.005512587368421053,-0.1522681038697449
-0.005512247368421053,-0.1455866516455699
-0.005511907368421052,-0.1389381129791493
-0.005511567368421053,-0.1358442385502209
-0.005511227368421053,-0.1329478454678199
-0.005510887368421052,-0.125805603435081
-0.005510547368421053,-0.1217572358312705
-0.005510207368421053,-0.11770886822746
-0.005509867368421052,-0.1151745242803591
-0.005509527368421053,-0.1116198600428669
-0.005509187368421053,-0.1080651958053747
-0.005508847368421052,-0.1059587281090758
-0.005508507368421053,-0.1019761876207817
-0.005508167368421053,-0.09894814030736243
-0.005507827368421052,-0.09516308116558135
-0.005507487368421052,-0.09131219490830517
-0.005507147368421053,-0.08736256797775832
-0.005506807368421052,-0.08512444605044754
-0.005506467368421052,-0.08463074268413007
-0.005506127368421053,-0.07857464805729156
-0.005505787368421052,-0.07620487189896191
-0.005505447368421052,-0.07534911939734498
-0.005505107368421053,-0.07350596016308977
-0.005504767368421052,-0.07041208573415823
-0.005504427368421052,-0.06866766717316988
-0.005504087368421053,-0.06633080457259632
-0.005503747368421052,-0.06517883005118551
-0.005503407368421052,-0.06445473178058658
-0.005503067368421053,-0.0634344114901953
-0.005502727368421052,-0.06326984370141114
-0.005502387368421052,-0.05701626772805667
-0.005502047368421053,-0.05602886099541995
-0.005501707368421052,-0.05099308665897422
-0.005501367368421052,-0.05181592560283664
-0.005501027368421053,-0.05543641695583792
-0.005500687368421052,-0.05188175271834181
-0.005500347368421052,-0.04970945790654498
-0.005500007368421053,-0.05010442059959967
-0.005499667368421053,-0.0473725953059764
-0.005499327368421052,-0.04589148520701637
-0.005498987368421053,-0.04496990558988876
-0.005498647368421053,-0.04075697019731311
-0.005498307368421052,-0.03970373634915963
-0.005497967368421053,-0.03641238057370391
-0.005497627368421053,-0.03624781278493143
-0.005497287368421052,-0.03430591287741226
-0.005496947368421053,-0.03453630778169416
-0.005496607368421053,-0.03351598749130474
-0.005496267368421052,-0.03177156893031136
-0.005495927368421053,-0.0331210247982482
-0.005495587368421053,-0.03098164354420588
-0.005495247368421052,-0.02982966902279249
-0.005494907368421053,-0.03055376729339275
-0.005494567368421053,-0.03029045883135677
-0.005494227368421052,-0.02788776911527362
-0.005493887368421053,-0.02801942334629185
-0.005493547368421053,-0.02775611488425588
-0.005493207368421052,-0.02548507939919096
-0.005492867368421053,-0.02650539968958223
-0.005492527368421053,-0.02647248613182773
-0.005492187368421052,-0.02459641333981791
-0.005491847368421053,-0.01761873909585181
-0.005491507368421053,-0.01834283736645075
-0.005491167368421052,-0.01603888832363307
-0.005490827368421053,-0.01988977458091625
-0.005490487368421053,-0.02564964718796374
-0.005490147368421052,-0.02436601843553601
-0.005489807368421053,-0.02321404391412651
-0.005489467368421053,-0.02722949796018248
-0.005489127368421052,-0.02551799295694551
-0.005488787368421053,-0.02456349978206336
-0.005488447368421053,-0.02647248613182767
-0.005488107368421052,-0.02462932689757127
-0.005487767368421053,-0.02397105574248133
-0.005487427368421053,-0.02446475910879968
-0.005487087368421052,-0.02462932689756804
-0.005486747368421052,-0.02219372362373525
-0.005486407368421053,-0.02255577275903537
-0.005486067368421052,-0.02239120497025642
-0.005485727368421052,-0.0190011085215432
-0.005485387368421053,-0.01834283736645206
-0.005485047368421052,-0.01738834419156613
-0.005484707368421052,-0.01531479005303281
-0.005484367368421053,-0.01538061716854192
-0.005484027368421052,-0.01472234601344575
-0.005483687368421052,-0.01195760716206798
-0.005483347368421053,-0.01241839697063178
-0.005483007368421052,-0.01416281553161696
-0.005482667368421052,-0.01067397840964026
-0.005482327368421053,-0.01360328504979584
-0.005481987368421052,-0.01903402207928507
-0.005481647368421052,-0.01205634783533165
-0.005481307368421053,-0.01129933600697684
-0.005480967368421052,-0.01251713764389384
-0.005480627368421052,-0.01162847158452241
-0.005480287368421053,-0.01482108668671445
-0.005479947368421052,-0.01452486466691661
-0.005479607368421052,-0.01077271908290393
-0.005479267368421053,-0.0104106699476038
-0.005478927368421053,-0.01152973091125671
-0.005478587368421052,-0.01097020042943127
-0.005478247368421053,-0.009686571677003543
-0.005477907368421053,-0.01133224956472841
-0.005477567368421052,-0.01192469360431343
-0.005477227368421053,-0.01215508850859533
-0.005476887368421053,-0.01452486466691913
-0.005476547368421052,-0.01547935784180559
-0.005476207368421053,-0.01452486466692344
-0.005475867368421053,-0.01518313582201338
-0.005475527368421052,-0.01439321043590521
-0.005475187368421053,-0.01215508850859533
-0.005474847368421053,-0.01093728687167893
-0.005474507368421052,-0.01139807668024051
-0.005474167368421053,-0.01001570725454911
-0.005473827368421053,-0.008863732733141711
-0.005473487368421052,-0.008633337828857716
-0.005473147368421053,-0.008435856482330374
-0.005472807368421053,-0.007316795518677468
-0.005472467368421052,-0.008863732733139616
-0.005472127368421053,-0.007975066673766575
-0.005471787368421053,-0.008699164944365513
-0.005471447368421052,-0.01383367995407774
-0.005471107368421053,-0.007316795518675433
-0.005470767368421053,-0.005835685419723056
-0.005470427368421052,-0.007020573498884419
-0.005470087368421053,-0.007942153116012016
-0.005469747368421053,-0.004650797340556306
-0.005469407368421052,-0.01126642244922228
-0.005469067368421053,-0.01057523773637659
-0.005468727368421053,-0.008139634462539359
-0.005468387368421052,-0.009291608983948858
-0.005468047368421053,-0.009489090330476201
-0.005467707368421053,-0.008172548020293918
-0.005467367368421052,-0.008534597155594046
-0.005467027368421053,-0.009489090330476201
-0.005466687368421053,-0.008205461578048474
-0.005466347368421052,-0.009291608983951791
-0.005466007368421053,-0.01090437331392216
-0.005465667368421053,-0.009357436099457973
-0.005465327368421052,-0.008896646290896029
-0.005464987368421052,-0.009916966581285444
-0.005464647368421053,-0.007777585327239231
-0.005464307368421052,-0.008139634462540915
-0.005463967368421052,-0.008995386964157845
-0.005463627368421053,-0.008238375135803031
-0.005463287368421052,-0.009916966581290054
-0.005462947368421052,-0.01245131052838634
-0.005462607368421053,-0.01044358350535836
-0.005462267368421052,-0.009982793696798688
-0.005461927368421052,-0.012253829181859
-0.005461587368421053,-0.01281335966368647
-0.005461247368421052,-0.01360328504979763
-0.005460907368421052,-0.01459069178243255
-0.005460567368421053,-0.009324522541703417
-0.005460227368421052,-0.008172548020295833
-0.005459887368421052,-0.009225781868439744
-0.005459547368421053,-0.01212217495084077
-0.005459207368421052,-0.01432738332039364
-0.005458867368421052,-0.01297792745245925
-0.005458527368421053,-0.01238548341287723
-0.005458187368421052,-0.01060815129412845
-0.005457847368421052,-0.009127041195176074
-0.005457507368421053,-0.008304202251312145
-0.005457167368421053,-0.007250968403168234
-0.005456827368421052,-0.007613017538466446
-0.005456487368421053,-0.00790923955825746
-0.005456147368421053,-0.006526870132568576
-0.005455807368421052,-0.006230648112775047
-0.005455467368421053,-0.008830819175385059
-0.005455127368421053,-0.007942153116013633
-0.005454787368421052,-0.005769858304211248
-0.005454447368421053,-0.005605290515438462
-0.005454107368421053,-0.005901512535228938
-0.005453767368421052,-0.005440722726665677
-0.005453427368421053,-0.007185141287657204
-0.005453087368421053,-0.008238375135801116
-0.005452747368421052,-0.007744671769484675
-0.005452407368421053,-0.0120234342775771
-0.005452067368421053,-0.01245131052838556
-0.005451727368421052,-0.01116768177595861
-0.005451387368421053,-0.01037775638984924
-0.005451047368421053,-0.01218800206634659
-0.005450707368421052,-0.01475525957120534
-0.005450367368421053,-0.007152227729902647
-0.005450027368421053,-0.007152227729902647
-0.005449687368421052,-0.002840551664055666
-0.005449347368421053,-0.004354575320765292
-0.005449007368421053,-0.009324522541694375
-0.005448667368421052,-0.008106720904784802
-0.005448327368421053,-0.005572376957683906
-0.005447987368421053,-0.008205461578048474
-0.005447647368421052,-0.009456176772721644
-0.005447307368421053,-0.009061214079666959
-0.005446967368421053,-0.01185886648880431
-0.005446627368421052,-0.01169429870003153
-0.005446287368421053,-0.01245131052838634
-0.005445947368421053,-0.01327414947225027
-0.005445607368421052,-0.01255005120164636
-0.005445267368421053,-0.01054232417862203
-0.005444927368421053,-0.008995386964157845
-0.005444587368421052,-0.007942153116008543
-0.005444247368421052,-0.006033166766247705
-0.005443907368421053,-0.006625610805829733
-0.005443567368421052,-0.007843412442749782
-0.005443227368421052,-0.008633337828857716
-0.005442887368421053,-0.01097020042943127
-0.005442547368421052,-0.01126642244922043
-0.005442207368421052,-0.01024610215883101
-0.005441867368421053,-0.01008153437005823
-0.005441527368421052,-0.01064106485188079
-0.005441187368421052,-0.007942153116012016
-0.005440847368421053,-0.007218054845411761
-0.005440507368421052,-0.008468770040090678
-0.005440167368421052,-0.01162847158452241
-0.005439827368421053,-0.005012846475856435
-0.005439487368421052,-0.005407809168909683
-0.005439147368421052,-0.004617883782801749
-0.005438807368421053,-0.004650797340556306
-0.005438467368421052,-0.01139807668023752
-0.005438127368421052,-0.009752398792512659
-0.005437787368421053,-0.006098993881756819
-0.005437447368421052,-0.007810498884996363
-0.005437107368421052,-0.009225781868439744
-0.005436767368421053,-0.007415536191939104
-0.005436427368421053,-0.008633337828855501
-0.005436087368421052,-0.00837002936682126
-0.005435747368421053,-0.006526870132566062
-0.005435407368421053,-0.00547363628442215
-0.005435067368421052,-0.006493956574811504
-0.005434727368421053,-0.005572376957683906
-0.005434387368421053,-0.005111587149120944
-0.005434047368421052,-0.00619773455502049
-0.005433707368421053,-0.006066080324002262
-0.005433367368421053,-0.007448449749691146
-0.005433027368421052,-0.008797905617630502
-0.005432687368421053,-0.007777585327239231
-0.005432347368421053,-0.007777585327239231
-0.005432007368421052,-0.009522003888230759
-0.005431667368421053,-0.007843412442748346
-0.005431327368421053,-0.005638204073197031
-0.005430987368421052,-0.007020573498884419
-0.005430647368421053,-0.005671117630947577
-0.005430307368421053,-0.004749538013821654
-0.005429967368421052,-0.009686571677003543
-0.005429627368421053,-0.008534597155594046
-0.005429287368421053,-0.003827958396700941
-0.005428947368421052,-0.005243241380138334
-0.005428607368421053,-0.005078673591365549
-0.005428267368421053,-0.0104106699475941
-0.005427927368421052,-0.01343871726102305
-0.005427587368421053,-0.0111018546604495
-0.005427247368421053,-0.009456176772721644
-0.005426907368421052,-0.0111018546604495
-0.005426567368421053,-0.01083854619841304
-0.005426227368421053,-0.009456176772721644
-0.005425887368421052,-0.007580103980711889
-0.005425547368421053,-0.009357436099457973
-0.005425207368421053,-0.009258695426194301
-0.005424867368421052,-0.006592697248075176
-0.005424527368421053,-0.0115626444690133
-0.005424187368421053,-0.0138665935118323
-0.005423847368421052,-0.0133399765877601
-0.005423507368421053,-0.01373493928081407
-0.005423167368421053,-0.01215508850859533
-0.005422827368421052,-0.01004862081230313
-0.005422487368421052,-0.009752398792512659
-0.005422147368421053,-0.009357436099457973
-0.005421807368421052,-0.008699164944369285
-0.005421467368421052,-0.01004862081230367
-0.005421127368421053,-0.009719485234758102
-0.005420787368421052,-0.008666251386616704
-0.005420447368421052,-0.0111018546604495
-0.005420107368421053,-0.01057523773637659
-0.005419767368421052,-0.009818225908033267
-0.005419427368421052,-0.01613762899689674
-0.005419087368421053,-0.01251713764389546
-0.005418747368421052,-0.008797905617632478
-0.005418407368421052,-0.009884053023530886
-0.005418067368421053,-0.01054232417862203
-0.005417727368421052,-0.01274753254817562
-0.005417387368421052,-0.0117930393732952
-0.005417047368421053,-0.008205461578048474
