Analysis/files/cmb03_d2s01/wrd06_ch14.csv

#Digilent WaveForms Oscilloscope Acquisition
#Device Name: ADP3450
#Serial Number: SN:210018B9D9B0
#Date Time: 2024-08-09 18:09:20.538.021.900
#Sample rate: 2.94118e+06Hz
#Samples: 32768
#Trigger: Source: Channel 3 Type: Edge Condition: Rising Level: 60 mV Hyst.: Auto HoldOff: 0 s
#Channel 3: Range: 200 mV/div Offset: -20 mV Attenuation: 1 X Coupling: DC Bandwidth: 0 Hz Sample Mode: Average

Time (s),Channel 3 (V)
-0.00557052247043364,0.0149695801386494
-0.00557018247043364,0.01473918523436607
-0.00556984247043364,0.01394925984825813
-0.00556950247043364,0.01236940907603939
-0.00556916247043364,0.008156473683457639
-0.00556882247043364,0.009012226185074568
-0.00556848247043364,0.006313314449200885
-0.00556814247043364,0.006708277142254912
-0.00556780247043364,0.006346228006955442
-0.00556746247043364,0.0052271670433005
-0.00556712247043364,0.004568895888211215
-0.00556678247043364,0.005589216178600628
-0.00556644247043364,0.005885438198391643
-0.00556610247043364,0.003449834924554179
-0.00556576247043364,0.003318180693536187
-0.00556542247043364,0.005720870409618857
-0.00556508247043364,0.00371314338659656
-0.00556474247043364,0.0068399313732738
-0.00556440247043364,0.003614402713327202
-0.00556406247043364,-0.0003352242172137833
-0.00556372247043364,0.002890304442726945
-0.00556338247043364,0.003844797617609103
-0.005563042470433641,0.0007180096309318657
-0.00556270247043364,0.002857390884972388
-0.00556236247043364,0.003614402713327202
-0.005562022470433641,0.003449834924554717
-0.00556168247043364,0.005260080601055058
-0.00556134247043364,0.004963858581264044
-0.005561002470433641,0.003680229828838651
-0.00556066247043364,0.002824477327217832
-0.00556032247043364,0.002561168865181374
-0.005559982470433641,0.0007180096309295308
-0.00555964247043364,-0.001289717392101805
-0.00555930247043364,-0.0005985326792561085
-0.005558962470433641,-0.0006972733525195993
-0.00555862247043364,-0.001355544507610922
-0.00555828247043364,0.0006850960731716212
-0.005557942470433641,-0.0003681377749722916
-0.00555760247043364,-0.001125149603329021
-0.00555726247043364,-0.001915074989438392
-0.005556922470433641,-0.001190976718839452
-0.00555658247043364,-0.002639173260038648
-0.00555624247043364,-0.003198703741866118
-0.005555902470433641,-0.004054456243483045
-0.00555556247043364,-0.01001181019705944
-0.00555522247043364,-0.003363271530638905
-0.005554882470433641,-0.0007301869102791254
-0.00555454247043364,-0.001421371623120036
-0.00555420247043364,0.001442107901526435
-0.005553862470433641,-0.0005656191215015517
-0.00555352247043364,-0.000697273352519779
-0.00555318247043364,0.002363687518654033
-0.005552842470433641,0.003910624733118217
-0.00555250247043364,0.002067465498863018
-0.00555216247043364,0.004634723003718472
-0.00555182247043364,0.005260080601055058
-0.00555148247043364,0.003186526462516284
-0.00555114247043364,0.002264946845390362
-0.00555080247043364,0.002396601076408589
-0.00555046247043364,0.0007180096309193528
-0.00555012247043364,-0.003034135953093334
-0.00554978247043364,-0.003692407108184477
-0.00554944247043364,-0.004317764705521718
-0.00554910247043364,-0.004679813840821188
-0.00554876247043364,-0.002770827491056876
-0.00554842247043364,-0.004186110474503311
-0.00554808247043364,-0.004449418936539287
-0.00554774247043364,-0.002639173260038648
-0.00554740247043364,-0.002375864798005004
-0.00554706247043364,-0.003922802012466375
-0.00554672247043364,-0.002836654606565989
-0.00554638247043364,-0.001915074989439769
-0.00554604247043364,-0.002672086817793205
-0.00554570247043364,-0.003198703741866118
-0.00554536247043364,-0.00497603586061807
-0.00554502247043364,-0.008201564520558799
-0.00554468247043364,-0.001553025854138263
-0.00554434247043364,-0.002178383451476406
-0.00554400247043364,-0.003034135953093334
-0.00554366247043364,-0.00491020874510309
-0.00554332247043364,-0.007905342500768204
-0.00554298247043364,-0.008135737405049685
-0.00554264247043364,-0.004449418936539287
-0.005542302470433641,-0.005008949418365743
-0.00554196247043364,-0.005601393457948786
-0.00554162247043364,-0.005206430764894101
-0.005541282470433641,-0.003889888454714213
-0.00554094247043364,-0.005206430764894101
-0.00554060247043364,-0.007938256058522341
-0.005540262470433641,-0.00639131884406097
-0.00553992247043364,-0.006029269708758032
-0.00553958247043364,-0.007181244230167527
-0.005539242470433641,-0.00560139345795166
-0.00553890247043364,-0.005831788362230687
-0.00553856247043364,-0.004811468071839416
-0.005538222470433641,-0.004416505378785449
-0.00553788247043364,-0.002705000375547762
-0.00553754247043364,-0.002112556335965736
-0.005537202470433641,-0.0004339648904863743
-0.00553686247043364,0.0007509231886807348
-0.00553652247043364,0.00045470116888972
-0.005536182470433641,0.0001913927068537409
-0.00553584247043364,0.0001255655913441484
-0.00553550247043364,-0.001947988547192948
-0.005535162470433641,-0.002211297009228928
-0.00553482247043364,-0.006983762883640186
-0.00553448247043364,-0.007609120480976773
-0.005534142470433641,-0.003363271530646628
-0.00553380247043364,-0.002606259702284092
-0.00553346247043364,-0.002310037682493077
-0.005533122470433641,-0.005469739226930559
-0.00553278247043364,-0.005733047688967017
-0.00553244247043364,-0.003198703741866118
-0.005532102470433641,-0.002836654606565989
-0.00553176247043364,-0.00362657999267536
-0.00553142247043364,-0.004844381629593972
-0.00553108247043364,-0.005765961246721574
-0.00553074247043364,-0.005239344322648658
-0.00553040247043364,-0.004943122302857646
-0.00553006247043364,-0.005798874804476131
-0.00552972247043364,-0.003659493550427462
-0.00552938247043364,-0.002310037682493077
-0.00552904247043364,-0.001651766527401934
-0.00552870247043364,-0.0002693971017091001
-0.00552836247043364,0.0005205282843988336
-0.00552802247043364,-3.900219742863573e-05
-0.00552768247043364,-7.191575518217476e-05
-0.00552734247043364,0.0004876147266442768
-0.00552700247043364,-0.001322630949856365
-0.00552666247043364,-0.001849247873929098
-0.00552632247043364,-0.001750507200665607
-0.00552598247043364,-0.002244210566983963
-0.00552564247043364,-0.003165790184112579
-0.00552530247043364,-0.003725320665939034
-0.00552496247043364,-0.003494925761657133
-0.00552462247043364,-0.005667220573463291
-0.00552428247043364,-0.008629440771368041
-0.00552394247043364,-0.003527839319411689
-0.00552360247043364,-0.002639173260042121
-0.00552326247043364,-0.004548159609802961
-0.00552292247043364,-0.01152583385376907
-0.00552258247043364,-0.02926624148350456
-0.00552224247043364,-0.04532805766769921
-0.00552190247043364,-0.0721196936799087
-0.00552156247043364,-0.1035850548933232
-0.00552122247043364,-0.135412465241922
-0.00552088247043364,-0.1655283705873418
-0.005520542470433641,-0.1908059829427957
-0.00552020247043364,-0.2153594970277412
-0.00551986247043364,-0.2379052840896129
-0.005519522470433641,-0.2502478682475494
-0.00551918247043364,-0.2575546780690834
-0.00551884247043364,-0.2589699610525294
-0.005518502470433641,-0.257883813646631
-0.00551816247043364,-0.2534075697920092
-0.00551782247043364,-0.2467261175678341
-0.005517482470433641,-0.2382673332249284
-0.00551714247043364,-0.2310921776344195
-0.00551680247043364,-0.221547245885598
-0.005516462470433641,-0.21519492923898
-0.00551612247043364,-0.2070981940313474
-0.00551578247043364,-0.1992647672857628
-0.005515442470433641,-0.1936365489097438
-0.00551510247043364,-0.1875146271673859
-0.00551476247043364,-0.1805369529234198
-0.005514422470433641,-0.173065575313149
-0.00551408247043364,-0.1708274533858255
-0.00551374247043364,-0.1644751367391959
-0.005513402470433641,-0.1541073660465293
-0.00551306247043364,-0.1479525307464083
-0.00551272247043364,-0.1413369056377423
-0.005512382470433641,-0.1408432022714239
-0.00551204247043364,-0.1396912277500144
-0.00551170247043364,-0.1326148128327847
-0.005511362470433641,-0.1246168182984273
-0.00551102247043364,-0.1233990166615087
-0.00551068247043364,-0.1189556863646435
-0.00551034247043364,-0.1145123560677783
-0.00551000247043364,-0.110069025770913
-0.00550966247043364,-0.1069422377842301
-0.00550932247043364,-0.1023014261408376
-0.00550898247043364,-0.09894424324986646
-0.00550864247043364,-0.09548831968564425
-0.00550830247043364,-0.08976136063635132
-0.00550796247043364,-0.08627252351436161
-0.00550762247043364,-0.08261911860361243
-0.00550728247043364,-0.07722129513186504
-0.00550694247043364,-0.07244882925744876
-0.00550660247043364,-0.06942078194403503
-0.00550626247043364,-0.06510910587818805
-0.00550592247043364,-0.06287098395087617
-0.00550558247043364,-0.06178483654497777
-0.00550524247043364,-0.05941506038664966
-0.00550490247043364,-0.05776938249892145
-0.00550456247043364,-0.05757190115239446
-0.00550422247043364,-0.05717693845933978
-0.00550388247043364,-0.05497173008979067
-0.00550354247043364,-0.05839474009625838
-0.00550320247043364,-0.05717693845933978
-0.00550286247043364,-0.0509562760437265
-0.00550252247043364,-0.0498701286378281
-0.00550218247043364,-0.04638129151584505
-0.00550184247043364,-0.04730287113297222
-0.00550150247043364,-0.04707247622869074
-0.00550116247043364,-0.04308993574038934
-0.00550082247043364,-0.03815290207720606
-0.00550048247043364,-0.03831746986597855
-0.00550014247043364,-0.03693510044028715
-0.005499802470433641,-0.03367665822259193
-0.00549946247043364,-0.03216263456587638
-0.00549912247043364,-0.03097774648671232
-0.005498782470433641,-0.0287396245594065
-0.00549844247043364,-0.02788387205778395
-0.00549810247043364,-0.0283775754241023
-0.005497762470433641,-0.02630402128556898
-0.00549742247043364,-0.02643567551658343
-0.00549708247043364,-0.02798261273104762
-0.005496742470433641,-0.02663315686311324
-0.00549640247043364,-0.02485582474436469
-0.00549606247043364,-0.02505330609089204
-0.005495722470433641,-0.02367093666520316
-0.00549538247043364,-0.02100493848708151
-0.00549504247043364,-0.01952382838812644
-0.005494702470433641,-0.018898470790791
-0.00549436247043364,-0.01824019963569871
-0.00549402247043364,-0.01893138434854442
-0.005493682470433641,-0.01932634704159838
-0.00549334247043364,-0.02090619781381784
-0.00549300247043364,-0.02534952811068305
-0.005492662470433641,-0.0187668165597836
-0.00549232247043364,-0.01741736069183479
-0.00549198247043364,-0.01623247261267073
-0.005491642470433641,-0.01675908953674269
-0.00549130247043364,-0.0193263470415991
-0.00549096247043364,-0.01804271828917137
-0.005490622470433641,-0.0161008183816525
-0.00549028247043364,-0.01458679472494288
-0.00548994247043364,-0.01455388116718832
-0.005489602470433641,-0.01491593030248845
-0.00548926247043364,-0.01274363549068768
-0.00548892247043364,-0.0111966982762235
-0.00548858247043364,-0.01083464914092337
-0.00548824247043364,-0.008991489906666015
-0.00548790247043364,-0.007806601827504114
-0.00548756247043364,-0.00783951538525867
-0.00548722247043364,-0.006654627306094315
-0.00548688247043364,-0.006490059517321831
-0.00548654247043364,-0.006292578170794486
-0.00548620247043364,-0.005733047688963485
-0.00548586247043364,-0.003791147781448147
-0.00548552247043364,-0.006193837497530816
-0.00548518247043364,-0.008761095002385729
-0.00548484247043364,-0.008464872982595257
-0.00548450247043364,-0.01024220510134134
-0.00548416247043364,-0.01267780837517743
-0.00548382247043364,-0.01205245077784198
-0.00548348247043364,-0.0121182778933511
-0.00548314247043364,-0.01241449991314157
-0.00548280247043364,-0.0121182778933511
-0.00548246247043364,-0.01379686933883351
-0.00548212247043364,-0.004449418936540605
-0.00548178247043364,-0.005173517207139544
-0.00548144247043364,-0.0084319594248407
-0.00548110247043364,-0.008135737405045853
-0.00548076247043364,-0.006029269708758032
-0.00548042247043364,-0.008596527213613484
-0.00548008247043364,-0.009847242408285217
-0.00547974247043364,-0.009057317022177283
-0.00547940247043364,-0.01030803221685045
-0.005479062470433641,-0.01053842712113193
-0.00547872247043364,-0.009616847504004756
-0.00547838247043364,-0.008366132309331583
-0.005478042470433641,-0.01014346442807443
-0.00547770247043364,-0.008794008560140829
-0.00547736247043364,-0.007115417114658414
-0.005477022470433641,-0.007444552692203387
-0.00547668247043364,-0.005535566342439673
-0.00547634247043364,-0.003791147781448147
-0.005476002470433641,-0.002342951240250268
-0.00547566247043364,-0.002474605471265861
-0.00547532247043364,-0.001322630949856365
-0.005474982470433641,0.001606675690293891
-0.00547464247043364,5.973847583503472e-05
-0.00547430247043364,-0.003264530857375231
-0.005473962470433641,-0.001947988547195343
-0.00547362247043364,-0.003330357972884349
-0.00547328247043364,-0.002540432586774978
-0.005472942470433641,-0.002408778355756987
-0.00547260247043364,-0.003922802012466375
-0.00547226247043364,-0.006457145959567274
-0.005471922470433641,-0.002375864798009614
-0.00547158247043364,-0.004844381629593972
-0.00547124247043364,-0.003231617299620675
-0.005470902470433641,-0.001684680085159304
-0.00547056247043364,-0.008069910289540572
-0.00547022247043364,-0.007477466249958542
-0.005469882470433641,-0.003363271530638905
-0.00546954247043364,-0.004646900283066632
-0.00546920247043364,-0.004548159609802961
-0.005468862470433641,-0.002869568164320546
-0.00546852247043364,-0.0009934953723107938
-0.00546818247043364,-0.002705000375547762
-0.00546784247043364,-0.001553025854138263
-0.00546750247043364,-0.001816334316174721
-0.00546716247043364,-0.001947988547192948
-0.00546682247043364,-0.0007301869102743358
-0.00546648247043364,-0.002672086817794822
-0.00546614247043364,-0.003560752877166246
-0.00546580247043364,-0.002672086817793205
-0.00546546247043364,-0.002112556335974477
-0.00546512247043364,-0.006917935768131073
-0.00546478247043364,-0.007477466249958542
-0.00546444247043364,-0.006852108652623277
-0.00546410247043364,-0.007576206923222212
-0.00546376247043364,-0.006325491728549043
-0.00546342247043364,-0.007115417114657516
-0.00546308247043364,-0.006621713748340058
-0.00546274247043364,-0.006424232401812717
-0.00546240247043364,-0.005074776533883058
-0.00546206247043364,-0.009024403464422726
-0.00546172247043364,-0.01037385933235957
-0.00546138247043364,-0.002639173260038529
-0.00546104247043364,-0.002573346144529535
-0.00546070247043364,-0.000960581814556237
-0.00546036247043364,-0.00342909864615209
-0.00546002247043364,-0.005667220573457903
-0.00545968247043364,-0.00441650537878473
-0.00545934247043364,-0.001585939411896771
-0.00545900247043364,-0.003758234223693591
-0.00545866247043364,-0.005239344322648658
-0.00545832247043364,-0.004251937590011587
-0.00545798247043364,-0.004054456243484602
-0.00545764247043364,-0.003824061339202704
-0.005457302470433641,-0.003001222395340274
-0.00545696247043364,-0.001125149603329021
-0.00545662247043364,-0.00158593941189282
-0.005456282470433641,-0.0002035699862039378
-0.00545594247043364,-0.0003681377749742074
-0.00545560247043364,-0.002441691913511304
-0.005455262470433641,-0.002507519029020302
-0.00545492247043364,-0.0008947546990471199
-0.00545458247043364,-0.002902481722075106
-0.005454242470433641,-0.002869568164320606
-0.00545390247043364,-0.002310037682493077
-0.00545356247043364,-0.003264530857375231
-0.005453222470433641,-0.002902481722075765
-0.00545288247043364,-0.002803741048811433
-0.00545254247043364,-0.00296830883758422
-0.005452202470433641,-0.003165790184111202
-0.00545186247043364,-0.001322630949856365
-0.00545152247043364,-0.006588800190585501
-0.005451182470433641,-0.002375864798009854
-0.00545084247043364,0.001540848574790105
-0.00545050247043364,0.00180415703682656
-0.005450162470433641,0.002264946845389524
-0.00544982247043364,-0.001882161431683835
-0.00544948247043364,-0.00362657999267536
-0.005449142470433641,-0.002902481722076424
-0.00544880247043364,-0.002836654606565989
-0.00544846247043364,-0.005469739226930559
-0.005448122470433641,-0.006852108652621959
-0.00544778247043364,-0.005864701919985244
-0.00544744247043364,-0.007543293365467656
-0.005447102470433641,-0.008629440771368041
-0.00544676247043364,-0.009748501735022983
-0.00544642247043364,-0.008201564520558799
-0.00544608247043364,-0.0105055135633778
-0.00544574247043364,-0.009880155966038636
-0.00544540247043364,-0.008464872982595257
-0.00544506247043364,-0.008135737405049685
-0.00544472247043364,-0.006160923939774223
-0.00544438247043364,-0.005041862976121317
-0.00544404247043364,-0.00491020874510309
-0.00544370247043364,-0.005338084995911314
-0.00544336247043364,-0.004778554514084859
-0.00544302247043364,-0.004811468071839416
-0.00544268247043364,-0.005272257880401781
-0.00544234247043364,-0.004482332494293848
-0.00544200247043364,-0.004976035860612203
-0.00544166247043364,-0.004251937590011707
-0.00544132247043364,-0.004120283358993719
-0.00544098247043364,-0.007444552692203985
-0.00544064247043364,-0.0003681377749713336
-0.00544030247043364,0.001211712997244534
-0.00543996247043364,0.002396601076408589
-0.00543962247043364,-0.0003023106594735952
-0.00543928247043364,-0.004976035860612203
-0.00543894247043364,-0.004054456243484602
-0.00543860247043364,-0.002375864798004585
-0.00543826247043364,-0.003692407108184477
-0.00543792247043364,-0.004844381629593972
-0.00543758247043364,-0.004745640956330302
-0.00543724247043364,-0.004745640956330302
-0.00543690247043364,-0.003560752877166246
-0.005436562470433641,-0.004811468071837141
-0.00543622247043364,-0.00421902403225739
-0.00543588247043364,-0.002869568164320546
-0.005435542470433641,-0.003988629127973453
-0.00543520247043364,-0.004284851147766503
-0.00543486247043364,-0.003198703741866118
-0.005434522470433641,-0.005107690091626958
-0.00543418247043364,-0.006128010382021702
-0.00543384247043364,-0.005930529035494358
-0.005433502470433641,-0.007707861154237211
-0.00543316247043364,-0.009221884810950071
-0.00543282247043364,-0.008004083174031458
-0.005432482470433641,-0.007642034038731988
-0.00543214247043364,-0.008036996731786015
-0.00543180247043364,-0.006654627306094615
-0.005431462470433641,-0.006226751055286151
-0.00543112247043364,-0.006062183266512589
-0.00543078247043364,-0.008004083174031458
-0.005430442470433641,-0.007839515385258971
-0.00543010247043364,-0.001980902104947505
-0.00542976247043364,-0.0009934953723107938
-0.005429422470433641,0.002001638383348456
-0.00542908247043364,0.004733463676982144
-0.00542874247043364,-0.006160923939776259
-0.005428402470433641,-0.00138845806537416
-0.00542806247043364,-0.002474605471265861
-0.00542772247043364,-0.003297444415129792
-0.005427382470433641,-0.00570013413121246
-0.00542704247043364,-0.006325491728549043
-0.00542670247043364,-0.006325491728549043
-0.005426362470433641,-0.004844381629593972
-0.00542602247043364,-0.003692407108184477
-0.00542568247043364,-0.003264530857375231
-0.00542534247043364,-0.001915074989438392
-0.00542500247043364,-0.00168468008515649
-0.00542466247043364,-0.00227712412473852
-0.00542432247043364,-0.001454285180874593
-0.00542398247043364,-0.001553025854141795
-0.00542364247043364,-0.003494925761657133
-0.00542330247043364,-0.003955715570220932
-0.00542296247043364,-0.00415319691675079
-0.00542262247043364,-0.005535566342439673
-0.00542228247043364,-0.005568479900194229
-0.00542194247043364,-0.004186110474503192
-0.00542160247043364,-0.004383591821030174
-0.00542126247043364,-0.003955715570220932
-0.00542092247043364,-0.002408778355758364
-0.00542058247043364,-0.003297444415129792
-0.00542024247043364,-0.005733047688967017
-0.00541990247043364,-0.003099963068591132
-0.00541956247043364,0.003120699347008846
-0.00541922247043364,0.001771243479072003
-0.00541888247043364,0.003877711175356117
-0.00541854247043364,-0.0002693971017105369
-0.00541820247043364,-0.003429098646148019
-0.00541786247043364,-0.001092236045578476
-0.00541752247043364,-0.003297444415129792
-0.00541718247043364,-0.003363271530638905
-0.00541684247043364,-0.003856974896957082
-0.00541650247043364,-0.003758234223693591
-0.00541616247043364,-0.00491020874510309
-0.00541582247043364,-0.003363271530636989
-0.00541548247043364,-0.002310037682493077
-0.00541514247043364,-0.004844381629593972
-0.005414802470433641,-0.003725320665941069
