Analysis/files/cmb03_d2s01/wrd07_ch03.csv

#Digilent WaveForms Oscilloscope Acquisition
#Device Name: ADP3450
#Serial Number: SN:210018B9D9B0
#Date Time: 2024-08-09 17:36:17.011.464.560
#Sample rate: 2.94118e+06Hz
#Samples: 32768
#Trigger: Source: Channel 3 Type: Edge Condition: Rising Level: 60 mV Hyst.: Auto HoldOff: 0 s
#Channel 3: Range: 200 mV/div Offset: -20 mV Attenuation: 1 X Coupling: DC Bandwidth: 0 Hz Sample Mode: Average

Time (s),Channel 3 (V)
-0.005570396876404495,0.001409194343771875
-0.005570056876404494,0.0001913927068529626
-0.005569716876404495,2.682491808047791e-05
-0.005569376876404495,-0.001882161431683835
-0.005569036876404494,-0.0008618411412899288
-0.005568696876404495,0.0005863553999079472
-0.005568356876404495,-0.001256803834347248
-0.005568016876404494,0.001606675690290298
-0.005567676876404495,-0.003297444415129792
-0.005567336876404495,-0.007971169616276898
-0.005566996876404494,-0.003231617299619358
-0.005566656876404495,-0.002507519029020421
-0.005566316876404495,-0.005403912111421445
-0.005565976876404494,-0.006193837497529139
-0.005565636876404495,-0.005272257880403218
-0.005565296876404495,-0.006391318844058157
-0.005564956876404494,-0.007707861154241401
-0.005564616876404495,-0.008234478078313356
-0.005564276876404495,-0.008761095002386268
-0.005563936876404494,-0.008201564520557422
-0.005563596876404495,-0.007444552692203985
-0.005563256876404495,-0.007872428943013227
-0.005562916876404495,-0.006457145959569848
-0.005562576876404495,-0.005041862976121317
-0.005562236876404495,-0.004284851147766503
-0.005561896876404495,-0.005996356151000358
-0.005561556876404495,-0.006687540863849172
-0.005561216876404495,-0.007905342500767784
-0.005560876876404495,-0.01096630337193603
-0.005560536876404495,-0.01336899308802426
-0.005560196876404495,-0.01415891847413363
-0.005559856876404495,-0.01514632520676855
-0.005559516876404495,-0.01402726424311541
-0.005559176876404495,-0.01623247261267073
-0.005558836876404495,-0.01764775559611412
-0.005558496876404495,-0.0107359084676597
-0.005558156876404495,-0.009485193272986525
-0.005557816876404495,-0.009419366157477531
-0.005557476876404495,-0.0121182778933511
-0.005557136876404495,-0.01540963366880681
-0.005556796876404495,-0.01317151174150099
-0.005556456876404495,-0.01162457452703274
-0.005556116876404495,-0.0121182778933511
-0.005555776876404495,-0.0120853643355966
-0.005555436876404495,-0.01149292029601451
-0.005555096876404495,-0.01109795760295982
-0.005554756876404495,-0.01165748808478628
-0.005554416876404495,-0.01172331520029641
-0.005554076876404495,-0.01159166096927818
-0.005553736876404495,-0.01359938799230617
-0.005553396876404494,-0.01224993212436933
-0.005553056876404495,-0.01116378471846894
-0.005552716876404495,-0.01195371010457831
-0.005552376876404494,-0.01320442529925148
-0.005552036876404495,-0.01300694395272414
-0.005551696876404495,-0.01373104222332439
-0.005551356876404494,-0.01669326242123166
-0.005551016876404495,-0.01511341164901579
-0.005550676876404495,-0.01642995395919808
-0.005550336876404494,-0.01567294213084212
-0.005549996876404495,-0.01504758453350668
-0.005549656876404495,-0.01406017780086997
-0.005549316876404494,-0.01475136251371668
-0.005548976876404495,-0.01531089299554313
-0.005548636876404495,-0.01781232338488947
-0.005548296876404494,-0.0118878829890674
-0.005547956876404495,-0.01090047625643248
-0.005547616876404495,-0.01205245077784198
-0.005547276876404494,-0.01389561001210574
-0.005546936876404495,-0.01860224877099884
-0.005546596876404495,-0.01583750991961605
-0.005546256876404494,-0.01488301674473677
-0.005545916876404495,-0.01646286751695263
-0.005545576876404495,-0.01606790482389795
-0.005545236876404494,-0.01656160819021816
-0.005544896876404495,-0.01758192848060757
-0.005544556876404495,-0.0181743725201896
-0.005544216876404494,-0.01873390300201893
-0.005543876876404495,-0.01975422329240834
-0.005543536876404495,-0.0181743725201896
-0.005543196876404494,-0.01991879108118359
-0.005542856876404495,-0.02126824694911797
-0.005542516876404495,-0.02136698762238164
-0.005542176876404495,-0.02087328425606419
-0.005541836876404495,-0.02261770281705481
-0.005541496876404495,-0.02238730791277291
-0.005541156876404495,-0.01985296396567663
-0.005540816876404495,-0.01929343348384455
-0.005540476876404495,-0.01537672011105225
-0.005540136876404495,-0.01376395578108189
-0.005539796876404495,-0.01261198125966945
-0.005539456876404495,-0.01178914231580552
-0.005539116876404495,-0.01136126606499706
-0.005538776876404495,-0.01343482020353338
-0.005538436876404495,-0.01754901492285302
-0.005538096876404495,-0.01037385933237262
-0.005537756876404495,-0.01228284568212388
-0.005537416876404495,-0.01136126606499628
-0.005537076876404495,-0.01195371010457723
-0.005536736876404495,-0.01613373193940706
-0.005536396876404495,-0.01629829972817985
-0.005536056876404495,-0.01392852356985604
-0.005535716876404495,-0.01475136251371566
-0.005535376876404495,-0.01662743530572542
-0.005535036876404495,-0.01504758453350955
-0.005534696876404495,-0.01461970828269744
-0.005534356876404495,-0.01564002857308871
-0.005534016876404495,-0.01359938799230988
-0.005533676876404495,-0.01432348626290642
-0.005533336876404495,-0.01593625059287972
-0.005532996876404495,-0.01567294213084326
-0.005532656876404494,-0.01675908953674365
-0.005532316876404495,-0.01988587752342657
-0.005531976876404495,-0.0193263470415991
-0.005531636876404494,-0.01952382838812644
-0.005531296876404495,-0.02018209954321758
-0.005530956876404495,-0.01893138434854442
-0.005530616876404494,-0.01876681655977163
-0.005530276876404495,-0.01705531155653466
-0.005529936876404495,-0.01652869463246175
-0.005529596876404494,-0.01596916415063398
-0.005529256876404495,-0.01580459636186149
-0.005528916876404495,-0.01573876924635238
-0.005528576876404494,-0.01557420145758504
-0.005528236876404495,-0.01856933521324429
-0.005527896876404495,-0.01425765914739731
-0.005527556876404494,-0.01047260000561863
-0.005527216876404495,-0.007938256058522341
-0.005526876876404495,-0.009978896639304884
-0.005526536876404494,-0.01564002857308979
-0.005526196876404495,-0.01623247261267073
-0.005525856876404495,-0.01531089299554313
-0.005525516876404494,-0.01531089299554289
-0.005525176876404495,-0.01517923876452491
-0.005524836876404495,-0.01606790482389795
-0.005524496876404494,-0.01363230155006186
-0.005524156876404495,-0.01425765914739731
-0.005523816876404495,-0.01531089299554313
-0.005523476876404494,-0.0177135827116358
-0.005523136876404495,-0.02321014685663684
-0.005522796876404495,-0.03700092755579627
-0.005522456876404494,-0.05444511316575368
-0.005522116876404495,-0.07761625782491974
-0.005521776876404495,-0.1078309038436032
-0.005521436876404494,-0.138374685439888
-0.005521096876404495,-0.1690830348248339
-0.005520756876404495,-0.1992976808435174
-0.005520416876404495,-0.2252664779118157
-0.005520076876404495,-0.2452120939111245
-0.005519736876404495,-0.2577850729733653
-0.005519396876404495,-0.2658818081809717
-0.005519056876404495,-0.2683174114548236
-0.005518716876404495,-0.2695022995339877
-0.005518376876404495,-0.2661122030852744
-0.005518036876404495,-0.2617676134616668
-0.005517696876404495,-0.2540000138315913
-0.005517356876404495,-0.2440601193897331
-0.005517016876404495,-0.235963384182094
-0.005516676876404495,-0.2263855388755179
-0.005516336876404495,-0.2226992204070142
-0.005515996876404495,-0.216346903760378
-0.005515656876404495,-0.2076577245131749
-0.005515316876404495,-0.199725557094341
-0.005514976876404495,-0.1942619065070701
-0.005514636876404495,-0.1888969965930773
-0.005514296876404495,-0.1834662595635853
-0.005513956876404495,-0.1774430784944915
-0.005513616876404495,-0.1711236754056165
-0.005513276876404495,-0.1669765671285498
-0.005512936876404495,-0.1607888182706856
-0.005512596876404495,-0.1552922541256745
-0.005512256876404495,-0.149828603538418
-0.005511916876404495,-0.1434104597762794
-0.005511576876404495,-0.1377493278424956
-0.005511236876404495,-0.1328452077370666
-0.005510896876404494,-0.1276448656118465
-0.005510556876404495,-0.1213583760807261
-0.005510216876404495,-0.1195481304042255
-0.005509876876404494,-0.1174416627079339
-0.005509536876404495,-0.1136566035661598
-0.005509196876404495,-0.1108260375992679
-0.005508856876404494,-0.1081271258633923
-0.005508516876404495,-0.1070738920152484
-0.005508176876404495,-0.1041445853750928
-0.005507836876404494,-0.1042104124905993
-0.005507496876404495,-0.1027622159494014
-0.005507156876404495,-0.09216405035243397
-0.005506816876404494,-0.08923474371227003
-0.005506476876404495,-0.08462684562664041
-0.005506136876404495,-0.08212541523729405
-0.005505796876404494,-0.08186210677524898
-0.005505456876404495,-0.07712255445860139
-0.005505116876404495,-0.07379828512539111
-0.005504776876404494,-0.07511482743557041
-0.005504436876404495,-0.07346914954784553
-0.005504096876404495,-0.07129685473604477
-0.005503756876404494,-0.07159307675583375
-0.005503416876404495,-0.07047401579218085
-0.005503076876404495,-0.06770927694079804
-0.005502736876404494,-0.06642564818836792
-0.005502396876404495,-0.06510910587818805
-0.005502056876404495,-0.06234436702680524
-0.005501716876404494,-0.06076451625458297
-0.005501376876404495,-0.05882261634706763
-0.005501036876404495,-0.05566291480263014
-0.005500696876404494,-0.05414889114591681
-0.005500356876404495,-0.05210825056513798
-0.005500016876404495,-0.04957390661803709
-0.005499676876404495,-0.04766492026827624
-0.005499336876404495,-0.04743452536399088
-0.005498996876404495,-0.04447230516608073
-0.005498656876404495,-0.04345198487569131
-0.005498316876404495,-0.04170756631469794
-0.005497976876404495,-0.04157591208367971
-0.005497636876404495,-0.04134551717939822
-0.005497296876404495,-0.0450318356479082
-0.005496956876404495,-0.03940361727187894
-0.005496616876404495,-0.03647431063172869
-0.005496276876404495,-0.0366717919782507
-0.005495936876404495,-0.03565147168785943
-0.005495596876404495,-0.0396010986183991
-0.005495256876404495,-0.03844912409699678
-0.005494916876404495,-0.03647431063172336
-0.005494576876404495,-0.03690218688253182
-0.005494236876404495,-0.0364413970739688
-0.005493896876404495,-0.03515776832154107
-0.005493556876404495,-0.03262342437444478
-0.005493216876404495,-0.03285381927872207
-0.005492876876404495,-0.03236011591240372
-0.005492536876404495,-0.03199806677710425
-0.005492196876404495,-0.03282090572096751
-0.005491856876404495,-0.0341374480311498
-0.005491516876404495,-0.03252468370117944
-0.005491176876404495,-0.0329854735097403
-0.005490836876404495,-0.03216263456587638
-0.005490496876404495,-0.03074735158243042
-0.005490156876404494,-0.02926624148347535
-0.005489816876404495,-0.02850922965512053
-0.005489476876404495,-0.0281471805198204
-0.005489136876404494,-0.02640276195882888
-0.005488796876404495,-0.02683063820963812
-0.005488456876404495,-0.0253166145529285
-0.005488116876404494,-0.02505330609089354
-0.005487776876404495,-0.02587614503475597
-0.005487436876404495,-0.02587614503475597
-0.005487096876404494,-0.02926624148346553
-0.005486756876404495,-0.02386841801172798
-0.005486416876404495,-0.02297975195235494
-0.005486076876404494,-0.02163029608441953
-0.005485736876404495,-0.02242022147052747
-0.005485396876404495,-0.02525078743741938
-0.005485056876404494,-0.0273572551337078
-0.005484716876404495,-0.02557992301496495
-0.005484376876404495,-0.02656732974760166
-0.005484036876404494,-0.02584323147699926
-0.005483696876404495,-0.02465834339783735
-0.005483356876404495,-0.02574449080373774
-0.005483016876404494,-0.02271644349031974
-0.005482676876404495,-0.02340762820316418
-0.005482336876404495,-0.02100493848708151
-0.005481996876404494,-0.01906303857956145
-0.005481656876404495,-0.0184047674244715
-0.005481316876404495,-0.01975422329240834
-0.005480976876404494,-0.01853642165548961
-0.005480636876404495,-0.01847059453998062
-0.005480296876404495,-0.019556741945881
-0.005479956876404494,-0.01731862001857632
-0.005479616876404495,-0.02018209954321758
-0.005479276876404495,-0.02189360454645455
-0.005478936876404495,-0.02344054176091593
-0.005478596876404495,-0.02271644349031848
-0.005478256876404495,-0.02297975195235494
-0.005477916876404495,-0.022189826566247
-0.005477576876404495,-0.01998461819669024
-0.005477236876404495,-0.01972130973465379
-0.005476896876404495,-0.02297975195234901
-0.005476556876404495,-0.0227822706058276
-0.005476216876404495,-0.01735153357632568
-0.005475876876404495,-0.01922760636833202
-0.005475536876404495,-0.01820728607794416
-0.005475196876404495,-0.0223214807972638
-0.005474856876404495,-0.02627110772780347
-0.005474516876404495,-0.02330888752990051
-0.005474176876404495,-0.02268352993256393
-0.005473836876404495,-0.02344054176091736
-0.005473496876404495,-0.02297975195235494
-0.005473156876404495,-0.02130116050687253
-0.005472816876404495,-0.02186069098869898
-0.005472476876404495,-0.01988587752342657
-0.005472136876404495,-0.01751610136509846
-0.005471796876404495,-0.0181743725201884
-0.005471456876404495,-0.01715405222979833
-0.005471116876404495,-0.01606790482389795
-0.005470776876404495,-0.01570585568859848
-0.005470436876404495,-0.0147184489559611
-0.005470096876404495,-0.01402726424311541
-0.005469756876404495,-0.01550837434207047
-0.005469416876404494,-0.01616664549716162
-0.005469076876404495,-0.01501467097575212
-0.005468736876404495,-0.01784523694264403
-0.005468396876404494,-0.01926051992608999
-0.005468056876404495,-0.01649578107470719
-0.005467716876404495,-0.01712113867204378
-0.005467376876404494,-0.01827311319345327
-0.005467036876404495,-0.01847059453998062
-0.005466696876404495,-0.02044540800525405
-0.005466356876404494,-0.0231114061833603
-0.005466016876404495,-0.01603499126614339
-0.005465676876404495,-0.01600207770838883
-0.005465336876404494,-0.01554128789982545
-0.005464996876404495,-0.01577168280410694
-0.005464656876404495,-0.01958965550363556
-0.005464316876404494,-0.01853642165548943
-0.005463976876404495,-0.01837185386671695
-0.005463636876404495,-0.01899721146405353
-0.005463296876404494,-0.0201491859854604
-0.005462956876404495,-0.01870098944426252
-0.005462616876404495,-0.01926051992608999
-0.005462276876404494,-0.02024792665872568
-0.005461936876404495,-0.01968839617689923
-0.005461596876404495,-0.01916177925282632
-0.005461256876404494,-0.01978713685016524
-0.005460916876404495,-0.02107076560259063
-0.005460576876404495,-0.02034666733199037
-0.005460236876404494,-0.01955674194588118
-0.005459896876404495,-0.01965548261914467
-0.005459556876404495,-0.0186351623287534
-0.005459216876404494,-0.01899721146405275
-0.005458876876404495,-0.01856933521324429
-0.005458536876404495,-0.01692365732551643
-0.005458196876404494,-0.01672617597898986
-0.005457856876404495,-0.01715405222979833
-0.005457516876404495,-0.01754901492285302
-0.005457176876404495,-0.01544254722656519
-0.005456836876404495,-0.01613373193940706
-0.005456496876404495,-0.01853642165548973
-0.005456156876404495,-0.02182777743093945
-0.005455816876404495,-0.01564002857308871
-0.005455476876404495,-0.01257906770191489
-0.005455136876404495,-0.01916177925281435
-0.005454796876404495,-0.02074163002504506
-0.005454456876404495,-0.01856933521324429
-0.005454116876404495,-0.01883264367528027
-0.005453776876404495,-0.01991879108118113
-0.005453436876404495,-0.01952382838812644
-0.005453096876404495,-0.01639704040144921
-0.005452756876404495,-0.01735153357632568
-0.005452416876404495,-0.0167920030944982
-0.005452076876404495,-0.01511341164901885
-0.005451736876404495,-0.01524506588003402
-0.005451396876404495,-0.01478427607147022
-0.005451056876404495,-0.01363230155006281
-0.005450716876404495,-0.01350064731904249
-0.005450376876404495,-0.01623247261267073
-0.005450036876404495,-0.01406017780087392
-0.005449696876404495,-0.01468553539820655
-0.005449356876404495,-0.01554128789982503
-0.005449016876404495,-0.01310568462599224
-0.005448676876404495,-0.01478427607147022
-0.005448336876404495,-0.01478427607147022
-0.005447996876404495,-0.01461970828269744
-0.005447656876404494,-0.01419183203188819
-0.005447316876404495,-0.01662743530572542
-0.005446976876404495,-0.01698948444102555
-0.005446636876404494,-0.01600207770838883
-0.005446296876404495,-0.01550837434207047
-0.005445956876404495,-0.0147184489559611
-0.005445616876404494,-0.01392852356984994
-0.005445276876404495,-0.01294111683721502
-0.005444936876404495,-0.01402726424311541
-0.005444596876404494,-0.01343482020354068
-0.005444256876404495,-0.01745027424958934
-0.005443916876404495,-0.01346773376128794
-0.005443576876404494,-0.01363230155005838
-0.005443236876404495,-0.01234867279763299
-0.005442896876404495,-0.01238158635538755
-0.005442556876404494,-0.01804271828917185
-0.005442216876404495,-0.01830602675120783
-0.005441876876404495,-0.01761484203836213
-0.005441536876404494,-0.01784523694264828
-0.005441196876404495,-0.02018209954321758
-0.005440856876404495,-0.02008335886995392
-0.005440516876404494,-0.0187009894442606
-0.005440176876404495,-0.01764775559611669
-0.005439836876404495,-0.01685783021000732
-0.005439496876404494,-0.01442222693616907
-0.005439156876404495,-0.01386269645434262
-0.005438816876404495,-0.01382978289658807
-0.005438476876404494,-0.01317151174149585
-0.005438136876404495,-0.01257906770191489
-0.005437796876404495,-0.01524506588003402
-0.005437456876404494,-0.0159691641506323
-0.005437116876404495,-0.01488301674473389
-0.005436776876404495,-0.01689074376776187
-0.005436436876404495,-0.01820728607794177
-0.005436096876404495,-0.01847059453998062
-0.005435756876404495,-0.02166320964217266
-0.005435416876404495,-0.02212399945073561
-0.005435076876404495,-0.02189360454645455
-0.005434736876404495,-0.02077454358279961
-0.005434396876404495,-0.02070871646729062
-0.005434056876404495,-0.02248604858603658
-0.005433716876404495,-0.02100493848708151
-0.005433376876404495,-0.01531089299555349
-0.005433036876404495,-0.01280946260619679
-0.005432696876404495,-0.0107359084676597
-0.005432356876404495,-0.01399435068535492
-0.005432016876404495,-0.01926051992608999
-0.005431676876404495,-0.01570585568859782
-0.005431336876404495,-0.01738444713407718
-0.005430996876404495,-0.01771358271162581
-0.005430656876404495,-0.01745027424958934
-0.005430316876404495,-0.01662743530572692
-0.005429976876404495,-0.01432348626290642
-0.005429636876404495,-0.01412600491637908
-0.005429296876404495,-0.01399435068536109
-0.005428956876404495,-0.01379686933883351
-0.005428616876404495,-0.01327025241476059
-0.005428276876404495,-0.01610081838164736
-0.005427936876404495,-0.01751610136509846
-0.005427596876404495,-0.01728570646081656
-0.005427256876404495,-0.01751610136509846
-0.005426916876404494,-0.01804271828917137
-0.005426576876404495,-0.01873390300201707
-0.005426236876404495,-0.01912886569507176
-0.005425896876404494,-0.02031375377423581
-0.005425556876404495,-0.01998461819669024
-0.005425216876404495,-0.01985296396567202
-0.005424876876404494,-0.01991879108118113
-0.005424536876404495,-0.0200175317544448
-0.005424196876404495,-0.02005044531219936
-0.005423856876404494,-0.02330888752989812
-0.005423516876404495,-0.02199234521971823
-0.005423176876404495,-0.01494884386024301
-0.005422836876404494,-0.01508049809125866
-0.005422496876404495,-0.01366521510781528
-0.005422156876404495,-0.01554128789982503
-0.005421816876404494,-0.01843768098222487
-0.005421476876404495,-0.01777940982713492
-0.005421136876404495,-0.01738444713408023
-0.005420796876404494,-0.01909595213731289
-0.005420456876404495,-0.01672617597898909
-0.005420116876404495,-0.01600207770838883
-0.005419776876404494,-0.01804271828917131
-0.005419436876404495,-0.01800980473141682
-0.005419096876404495,-0.0179439776159077
-0.005418756876404494,-0.02054414867851921
-0.005418416876404495,-0.02136698762238164
-0.005418076876404495,-0.02031375377423581
-0.005417736876404494,-0.02034666733198983
-0.005417396876404495,-0.02005044531219936
-0.005417056876404495,-0.01797689117366226
-0.005416716876404494,-0.01777940982713528
-0.005416376876404495,-0.01797689117366226
-0.005416036876404495,-0.01715405222979833
-0.005415696876404494,-0.01675908953674317
