Analysis/files/cmb03_d2s01/wrd02_ch41.csv

#Digilent WaveForms Oscilloscope Acquisition
#Device Name: ADP3450
#Serial Number: SN:210018B9D9B0
#Date Time: 2024-08-09 12:13:18.721.681.640
#Sample rate: 2.94118e+06Hz
#Samples: 32768
#Trigger: Source: Channel 3 Type: Edge Condition: Rising Level: 20 mV Hyst.: Auto HoldOff: 0 s
#Channel 3: Range: 200 mV/div Offset: 0 V Attenuation: 1 X Coupling: DC Bandwidth: 0 Hz Sample Mode: Average

Time (s),Channel 3 (V)
-0.0055705344,0.0120692899987587
-0.0055701944,0.01167432730570114
-0.0055698544,0.01009447653348528
-0.0055695144,0.007757613932911723
-0.0055691744,0.007757613932909029
-0.0055688344,0.006276503833956653
-0.0055684944,0.005782800467638296
-0.0055681544,0.006276503833956952
-0.0055678144,0.006441071622729439
-0.0055674744,0.006473985180483996
-0.0055671344,0.006901861431292401
-0.0055667944,0.006441071622729439
-0.0055664544,0.004433344599701455
-0.0055661144,0.005025788639280071
-0.0055657744,0.003149715847273728
-0.0055654344,0.001174902382000301
-0.0055650944,0.003083888731763955
-0.0055647544,0.002721839596464486
-0.0055644144,0.001899000652600558
-0.0055640744,0.002623098923200276
-0.0055637344,0.0023268769034098
-0.0055633944,-0.003630477050165036
-0.005563054400000001,0.0005495447846561134
-0.0055627144,0.003182629405028285
-0.0055623744,8.875497609991696e-05
-0.005562034400000001,0.001043248150980337
-0.0055616944,-0.003202600799355794
-0.0055613544,-0.00517741426462922
-0.005561014400000001,-0.003103860126095894
-0.0055606744,-0.002544329644264652
-0.0055603344,-0.004420402436274407
-0.005559994400000001,-0.004519143109537898
-0.0055596544,-0.00313677368384668
-0.0055593144,-0.005045760033610991
-0.005558974400000001,-0.006296475228281887
-0.0055586344,-0.006066080324002262
-0.0055582944,-0.004354575320765292
-0.005557954400000001,-0.005638204073190684
-0.0055576144,-0.005638204073193019
-0.0055572744,-0.005243241380138334
-0.0055569344,-0.005901512535228279
-0.0055565944,-0.004584970225047193
-0.0055562544,-0.004552056667292635
-0.0055559144,-0.005045760033610094
-0.0055555744,-0.003038033010583008
-0.0055552344,-0.001918972046928067
-0.0055548944,-0.001227787334083625
-0.0055545544,-0.0008657381987822392
-0.0055542144,0.000417890553645488
-0.0055538744,-0.001030305987555025
-0.0055535344,-0.002182280508964523
-0.0055531944,-0.002741810990791994
-0.0055528544,-0.009258695426194301
-0.0055525144,-0.008402942924575817
-0.0055521744,-0.005078673591365549
-0.0055518344,-0.005506549842174791
-0.0055514944,-0.004979932918107985
-0.0055511544,-0.008337115809066702
-0.0055508144,-0.01050941062086747
-0.0055504744,-0.008732078502118695
-0.0055501344,-0.007250968403166318
-0.0055497944,-0.008929559848648731
-0.0055494544,-0.008633337828855382
-0.0055491144,-0.007349709076429989
-0.0055487744,-0.006559783690320619
-0.0055484344,-0.007481363307443907
-0.0055480944,-0.005111587149120106
-0.0055477544,-0.004222921089747064
-0.0055474144,-0.005440722726664839
-0.0055470744,-0.004979932918101878
-0.0055467344,-0.006559783690320619
-0.0055463944,-0.007843412442747447
-0.0055460544,-0.007349709076429989
-0.0055457144,-0.007547190422957332
-0.0055453744,-0.009719485234759599
-0.0055450344,-0.01054232417862203
-0.0055446944,-0.009423263214967087
-0.0055443544,-0.0103777563898502
-0.0055440144,-0.01090437331392216
-0.0055436744,-0.00962074456149443
-0.0055433344,-0.01073980552514943
-0.0055429944,-0.01077271908290393
-0.0055426544,-0.01103602754494038
-0.005542314400000001,-0.01399824774284514
-0.0055419744,-0.006329388786038719
-0.0055416344,-0.005835685419720362
-0.005541294400000001,-0.004190007531995501
-0.0055409544,-0.007152227729902647
-0.0055406144,-0.01077271908290393
-0.005540274400000001,-0.009982793696795994
-0.0055399344,-0.009192868310685188
-0.0055395944,-0.00962074456149443
-0.005539254400000001,-0.01004862081230289
-0.0055389144,-0.009258695426194301
-0.0055385744,-0.01113476821820406
-0.005538234400000001,-0.00978531235026967
-0.0055378944,-0.009686571677003543
-0.0055375544,-0.009554917445985316
-0.005537214400000001,-0.009423263214967326
-0.0055368744,-0.009916966581285444
-0.0055365344,-0.008764992059875945
-0.0055361944,-0.008435856482330972
-0.0055358544,-0.007777585327239231
-0.0055355144,-0.008633337828857716
-0.0055351744,-0.0007999110832873739
-0.0055348344,-0.009061214079666959
-0.0055344944,-0.009949880139040001
-0.0055341544,-0.00721805484541673
-0.0055338144,-0.00767884465397556
-0.0055334744,-0.008896646290894173
-0.0055331344,-0.008271288693557588
-0.0055327944,-0.008534597155594046
-0.0055324544,-0.009719485234758102
-0.0055321144,-0.0115626444690133
-0.0055317744,-0.01235256985512267
-0.0055314344,-0.008468770040084931
-0.0055310944,-0.006691437921338847
-0.0055307544,-0.005539463399929348
-0.0055304144,-0.009785312350267215
-0.0055300744,-0.0127146189904228
-0.0055297344,-0.00846877004008547
-0.0055293944,-0.008764992059875945
-0.0055290544,-0.008271288693557588
-0.0055287144,-0.009324522541703776
-0.0055283744,-0.009522003888230759
-0.0055280344,-0.01011444792781279
-0.0055276944,-0.008764992059876126
-0.0055273544,-0.008863732733139616
-0.0055270144,-0.009752398792512659
-0.0055266744,-0.007975066673766395
-0.0055263344,-0.007876326000502903
-0.0055259944,-0.006559783690320619
-0.0055256544,-0.006066080324001783
-0.0055253144,-0.005802771861965805
-0.0055249744,-0.006559783690320619
-0.0055246344,-0.005868598977475099
-0.0055242944,-0.005967339650738591
-0.0055239544,-0.007777585327239231
-0.0055236144,-0.007448449749694199
-0.0055232744,-0.007744671769484675
-0.0055229344,-0.01083854619841304
-0.0055225944,-0.01449195110918457
-0.0055222544,-0.02311530324086284
-0.0055219144,-0.03914420586733215
-0.0055215744,-0.06300653523942223
-0.0055212344,-0.08288632412313854
-0.0055208944,-0.1137592412969131
-0.005520554400000001,-0.1438751466422781
-0.0055202144,-0.1725757690043067
-0.0055198744,-0.2043373522374543
-0.005519534400000001,-0.2263894359329674
-0.0055191944,-0.2381066624936299
-0.0055188544,-0.2463021383745146
-0.005518514400000001,-0.2488364823216109
-0.0055181744,-0.2461704841434964
-0.0055178344,-0.2389953285530029
-0.005517494400000001,-0.2307340255566241
-0.0055171544,-0.2196092430355688
-0.0055168144,-0.211940384078757
-0.005516474400000001,-0.2066742148380374
-0.0055161344,-0.2003877253069074
-0.0055157944,-0.1958785678945331
-0.0055154544,-0.1931138290431553
-0.0055151144,-0.1912706698088951
-0.0055147744,-0.1895591648056582
-0.0055144344,-0.1896579054789216
-0.0055140944,-0.1863994632612207
-0.0055137544,-0.1846221311424746
-0.0055134144,-0.1841284277761571
-0.0055130744,-0.1809687262317187
-0.0055127344,-0.1766570501658717
-0.0055123944,-0.1745176689118255
-0.0055120544,-0.1695148081331329
-0.0055117144,-0.1641169846613855
-0.0055113744,-0.1619776034073393
-0.0055110344,-0.158653334074129
-0.0055106944,-0.1447967262594605
-0.0055103544,-0.1398267790385224
-0.0055100144,-0.1351201402796207
-0.0055096744,-0.1305780693094918
-0.0055093344,-0.1299527117121552
-0.0055089944,-0.1247194560291709
-0.0055086544,-0.1193874596729424
-0.0055083144,-0.1160961038974867
-0.0055079744,-0.1124756125444784
-0.0055076344,-0.1086576398449568
-0.0055072944,-0.1041484824325824
-0.0055069544,-0.1010216944458923
-0.0055066144,-0.09707206751535266
-0.0055062744,-0.09410984731744251
-0.0055059344,-0.09223377452542744
-0.0055055944,-0.08930446788527718
-0.0055052544,-0.08660555614940349
-0.0055049144,-0.08581563076328981
-0.0055045744,-0.08344585460496601
-0.0055042344,-0.08002284459849207
-0.0055038944,-0.07719227863159646
-0.0055035544,-0.07515163805081762
-0.0055032144,-0.07153114669781635
-0.0055028744,-0.07005003659885768
-0.0055025344,-0.06807522313358785
-0.0055021944,-0.06504717582016858
-0.0055018544,-0.06336858437468108
-0.0055015144,-0.06057093196554883
-0.0055011744,-0.05793784734518426
-0.0055008344,-0.0616570793714388
-0.0055004944,-0.05593012032215628
-0.0055001544,-0.0509272595434636
-0.005499814400000001,-0.04908410030921175
-0.0054994744,-0.05030190194612701
-0.0054991344,-0.05194757983385487
-0.005498794400000001,-0.05145387646753741
-0.0054984544,-0.04780047155678067
-0.0054981144,-0.04559526318722535
-0.005497774400000001,-0.04437746155030895
-0.0054974344,-0.04421289376153395
-0.0054970944,-0.04217225318075141
-0.005496754400000001,-0.03957208211814613
-0.0054964144,-0.03904546519406848
-0.0054960744,-0.03700482461328594
-0.005495734400000001,-0.0350958382635251
-0.0054953944,-0.03374638239558479
-0.0054950544,-0.03259440787417529
-0.005494714400000001,-0.03114621133297741
-0.0054943744,-0.02992840969605616
-0.0054940344,-0.02976384190728338
-0.0054936944,-0.02699910305590561
-0.0054933544,-0.02630791834305488
-0.0054930144,-0.02584712853449108
-0.0054926744,-0.02509011670613765
-0.0054923344,-0.02393814218472677
-0.0054919944,-0.0229178218943355
-0.0054916544,-0.02209498295047307
-0.0054913144,-0.02308238968310829
-0.0054909744,-0.02581421497673653
-0.0054906344,-0.02716367084467337
-0.0054902944,-0.03052085373563819
-0.0054899544,-0.02597878276550931
-0.0054896144,-0.02509011670613627
-0.0054892744,-0.01725668996055168
-0.0054889344,-0.02449767266655424
-0.0054885944,-0.02726241151793704
-0.0054882544,-0.02239120497025756
-0.0054879144,-0.01962646611887979
-0.0054875744,-0.01873780005950675
-0.0054872344,-0.0178491340001306
-0.0054868944,-0.01613762899689674
-0.0054865544,-0.01554518495731471
-0.0054862144,-0.01491982735997842
-0.0054858744,-0.01508439514875091
-0.0054855344,-0.01663133236321509
-0.0054851944,-0.01673007303648092
-0.0054848544,-0.01791496111564282
-0.0054845144,-0.01926441698357966
-0.0054841744,-0.0195277254456169
-0.0054838344,-0.01995560169642536
-0.0054834944,-0.02123923044885309
-0.0054831544,-0.01952772544561402
-0.0054828144,-0.01837575092420662
-0.0054824744,-0.01840866448196118
-0.0054821344,-0.01518313582201063
-0.0054817944,-0.01301084101021381
-0.0054814544,-0.01241839697063178
-0.0054811144,-0.01159555802676696
-0.0054807744,-0.0111018546604495
-0.0054804344,-0.0136361986075504
-0.0054800944,-0.01340580370327436
-0.0054797544,-0.01663133236321509
-0.0054794144,-0.01143099023799507
-0.005479074400000001,-0.01073980552515063
-0.0054787344,-0.008534597155594046
-0.0054783944,-0.009916966581285444
-0.005478054400000001,-0.01468943245568754
-0.0054777144,-0.012253829181859
-0.0054773744,-0.0117930393732952
-0.005477034400000001,-0.01278044610593012
-0.0054766944,-0.0127146189904228
-0.0054763544,-0.0129450138947047
-0.005476014400000001,-0.01340580370326766
-0.0054756744,-0.01245131052838634
-0.0054753344,-0.01116768177595861
-0.005474994400000001,-0.0137349392808094
-0.0054746544,-0.01357037149204128
-0.0054743144,-0.01429446976264154
-0.005473974400000001,-0.01383367995407858
-0.0054736344,-0.01422864264713243
-0.0054732944,-0.01330706303000483
-0.0054729544,-0.01189178004656145
-0.0054726144,-0.01024610215883101
-0.0054722744,-0.009258695426194301
-0.0054719344,-0.0115955580267636
-0.0054715944,-0.01185886648880431
-0.0054712544,-0.0117930393732952
-0.0054709144,-0.01399824774284651
-0.0054705744,-0.01462360534018711
-0.0054702344,-0.01429446976264154
-0.0054698944,-0.01422864264713243
-0.0054695544,-0.01722377640279712
-0.0054692144,-0.01034484283209469
-0.0054688744,-0.00837002936682126
-0.0054685344,-0.007843412442748346
-0.0054681944,-0.005210327822383777
-0.0054678544,-0.009785312350267215
-0.0054675144,-0.01116768177595861
-0.0054671744,-0.008732078502121389
-0.0054668344,-0.008797905617630502
-0.0054664944,-0.01050941062086729
-0.0054661544,-0.0104106699476038
-0.0054658144,-0.01050941062086747
-0.0054654744,-0.01179303937329346
-0.0054651344,-0.01083854619841304
-0.0054647944,-0.009686571677003543
-0.0054644544,-0.01083854619841041
-0.0054641144,-0.00939034965721253
-0.0054637744,-0.008633337828857716
-0.0054634344,-0.006526870132566421
-0.0054630944,-0.006724351479093405
-0.0054627544,-0.00586859897747492
-0.0054624144,-0.007777585327238154
-0.0054620744,-0.007185141287657204
-0.0054617344,-0.005769858304211248
-0.0054613944,-0.00919286831068411
-0.0054610544,-0.00860042427110316
-0.0054607144,-0.008073807347030245
-0.0054603744,-0.008896646290894891
-0.0054600344,-0.009291608983948858
-0.0054596944,-0.009686571677003543
-0.0054593544,-0.01139807668025027
-0.0054590144,-0.01676298659423332
-0.0054586744,-0.01004862081230367
-0.0054583344,-0.008567510713357642
-0.0054579944,-0.01353745793428673
-0.0054576544,-0.0129450138947047
-0.005457314400000001,-0.01031192927434492
-0.0054569744,-0.01149681735350419
-0.0054566344,-0.01120059533371317
-0.005456294400000001,-0.008501683597844397
-0.0054559544,-0.008271288693557588
-0.0054556144,-0.008271288693557588
-0.005455274400000001,-0.007086400614395688
-0.0054549344,-0.00790923955825746
-0.0054545944,-0.007777585327239231
-0.005454254400000001,-0.007613017538466746
-0.0054539144,-0.005934426092984033
-0.0054535744,-0.007086400614393532
-0.005453234400000001,-0.006066080324004118
-0.0054528944,-0.006230648112775047
-0.0054525544,-0.008007980231521132
-0.005452214400000001,-0.007514276865203673
-0.0054518744,-0.009456176772721644
-0.0054515344,-0.009324522541703417
-0.0054511944,-0.008370029366822997
-0.0054508544,-0.008402942924575817
-0.0054505144,-0.01027901571658557
-0.0054501744,-0.008073807347034256
-0.0054498344,-0.00790923955825746
-0.0054494944,-0.008995386964157845
-0.0054491544,-0.007448449749696474
-0.0054488144,-0.009653658119248986
-0.0054484744,-0.0104106699476038
-0.0054481344,-0.007645931096221003
-0.0054477944,-0.008106720904784802
-0.0054474544,-0.005539463399929348
-0.0054471144,-0.008764992059875945
-0.0054467744,-0.01097020042943127
-0.0054464344,-0.00939034965721253
-0.0054460944,-0.00711931417214809
-0.0054457544,-0.007744671769485992
-0.0054454144,-0.008468770040084931
-0.0054450744,-0.008139634462539359
-0.0054447344,-0.005407809168911479
-0.0054443944,-0.005605290515438462
-0.0054440544,-0.005605290515438462
-0.0054437144,-0.004387488878517455
-0.0054433744,-0.003070946568337565
-0.0054430344,-0.009949880139040001
-0.0054426944,-0.01057523773637605
-0.0054423544,-0.01027901571658557
-0.0054420144,-0.01097020042943127
-0.0054416744,-0.009159954752929253
-0.0054413344,-0.008402942924575817
-0.0054409944,-0.007975066673766575
-0.0054406544,-0.0063623023437916
-0.0054403144,-0.005440722726665677
-0.0054399744,-0.005045760033610991
-0.0054396344,-0.004387488878520149
-0.0054392944,-0.004552056667292635
-0.0054389544,-0.006329388786038719
-0.0054386144,-0.008139634462546664
-0.0054382744,-0.01215508850859533
-0.0054379344,-0.006954746383375304
-0.0054375944,-0.007942153116012016
-0.0054372544,-0.007942153116012016
-0.0054369144,-0.01004862081230367
-0.005436574400000001,-0.01531479005302323
-0.0054362344,-0.01353745793428673
-0.0054358944,-0.0111018546604495
-0.005435554400000001,-0.011068941102695
-0.0054352144,-0.009258695426194301
-0.0054348744,-0.008106720904784802
-0.005434534400000001,-0.007349709076431367
-0.0054341944,-0.005704031188702134
-0.0054338544,-0.006296475228284162
-0.005433514400000001,-0.007119314172146593
-0.0054331744,-0.008402942924575817
-0.0054328344,-0.009423263214967087
-0.005432494400000001,-0.009522003888230579
-0.0054321544,-0.009949880139040001
-0.0054318144,-0.01001570725454911
-0.005431474400000001,-0.01050941062086657
-0.0054311344,-0.008929559848648731
-0.0054307944,-0.009357436099457973
-0.0054304544,-0.0102461021588294
-0.0054301144,-0.01031192927434013
-0.0054297744,-0.009719485234758102
-0.0054294344,-0.01064106485188402
-0.0054290944,-0.01199052071982254
-0.0054287544,-0.01037775638984924
-0.0054284144,-0.01179303937329262
-0.0054280744,-0.01347163081877761
-0.0054277344,-0.01419572908937787
-0.0054273944,-0.008205461578048474
-0.0054270544,-0.006823092152357076
-0.0054267144,-0.00540780916891112
-0.0054263744,-0.006987659941129861
-0.0054260344,-0.01205634783533165
-0.0054256944,-0.009522003888230759
-0.0054253544,-0.005539463399929348
-0.0054250144,-0.006954746383375304
-0.0054246744,-0.006263561670529605
-0.0054243344,-0.00586859897747492
-0.0054239944,-0.005967339650739369
-0.0054236544,-0.006395215901547833
-0.0054233144,-0.007547190422957332
-0.0054229744,-0.008040893789278324
-0.0054226344,-0.009489090330476201
-0.0054222944,-0.009653658119248986
-0.0054219544,-0.0108385461984158
-0.0054216144,-0.01235256985512267
-0.0054212744,-0.01143099023799507
-0.0054209344,-0.01182595293104946
-0.0054205944,-0.01166138514227697
-0.0054202544,-0.01014736148556734
-0.0054199144,-0.009818225908019557
-0.0054195744,-0.00860042427110316
-0.0054192344,-0.00586859897747492
-0.0054188944,-0.004716624456066798
-0.0054185544,-0.005473636284420234
-0.0054182144,-0.004782451571574535
-0.0054178744,-0.006526870132577677
-0.0054175344,-0.01291210033695014
-0.0054171944,-0.008666251386612273
-0.0054168544,-0.007909239558260573
-0.0054165144,-0.00962074456149443
-0.0054161744,-0.007876326000502903
-0.0054158344,-0.01014736148557219
-0.0054154944,-0.01281335966368647
-0.0054151544,-0.008863732733139616
-0.005414814400000001,-0.009258695426193583
-0.0054144744,-0.009686571677003543
-0.0054141344,-0.009851139465776329
-0.005413794400000001,-0.009719485234758341
-0.0054134544,-0.009423263214967087
-0.0054131144,-0.008863732733139616
-0.005412774400000001,-0.007218054845414754
-0.0054124344,-0.008271288693557588
-0.0054120944,-0.008238375135803031
-0.005411754400000001,-0.007678844653976578
-0.0054114144,-0.008962473406403288
-0.0054110744,-0.009159954752930631
-0.005410734400000001,-0.009258695426194121
-0.0054103944,-0.009785312350267215
-0.0054100544,-0.01090437331392216
-0.0054097144,-0.01080563264065867
-0.0054093744,-0.01218800206634988
-0.0054090344,-0.01291210033695014
-0.0054086944,-0.01129933600697978
-0.0054083544,-0.01169429870003153
-0.0054080144,-0.01162847158452241
-0.0054076744,-0.01031192927434253
-0.0054073344,-0.01083854619841304
-0.0054069944,-0.01422864264713243
-0.0054066544,-0.00642812945931658
-0.0054063144,-0.00290637877956478
-0.0054059744,-0.001787317815909838
-0.0054056344,-0.001491095796118824
-0.0054052944,-0.004848278687083649
-0.0054049544,-0.005473636284420234
-0.0054046144,-0.005210327822383777
-0.0054042744,-0.005374895611156563
-0.0054039344,-0.007415536191939104
-0.0054035944,-0.008139634462539359
-0.0054032544,-0.006461043017057726
-0.0054029144,-0.00688891926786619
-0.0054025744,-0.00711931417214809
-0.0054022344,-0.005769858304212865
-0.0054018944,-0.00665852436358429
-0.0054015544,-0.007185141287657204
-0.0054012144,-0.006757265036843232
-0.0054008744,-0.00415709397423795
-0.0054005344,-0.0001745534859365399
-0.0054001944,0.01157558663246813
-0.0053998544,0.02684747743055485
-0.0053995144,0.04820837641326241
-0.0053991744,0.07575702425387748
-0.0053988344,0.1036677212296911
-0.0053984944,0.1319075537831011
-0.0053981544,0.1588966711418805
-0.0053978144,0.1822982107053281
-0.0053974744,0.204745257093936
-0.0053971344,0.2101101670079384
-0.0053967944,0.2154092498064125
-0.0053964544,0.2135990041299119
-0.0053961144,0.2187993462551221
-0.0053957744,0.2134344363411391
-0.0053954344,0.2018817775692895
-0.0053950944,0.1946407948632801
-0.0053947544,0.1908886492792675
-0.0053944144,0.1826602598406282
-0.005394074400000001,0.1768016465603277
-0.0053937344,0.1744647839597435
-0.0053933944,0.1720291806859062
-0.005393054400000001,0.1682112079863846
-0.0053927144,0.168408689332905
-0.0053923744,0.1662693080788588
-0.005392034400000001,0.1651502471152058
-0.0053916944,0.1637678776895124
-0.0053913544,0.1604765219140567
-0.005391014400000001,0.15632941363699
-0.0053906744,0.1520506511288901
-0.0053903344,0.1492200851619982
-0.005389994400000001,0.1425057193800807
-0.0053896544,0.1378978212944305
-0.0053893144,0.1320062944563648
-0.005388974400000001,0.1256868913675013
-0.0053886344,0.1211119068396064
-0.0053882944,0.1156482562523499
-0.0053879544,0.1111061852822293
-0.0053876144,0.1076502617179926
-0.0053872744,0.1057412753682282
-0.0053869344,0.09938895872161026
-0.0053865944,0.1021866111307361
-0.0053862544,0.1003763654542354
-0.0053859144,0.08908701514444287
-0.0053855744,0.08566400513794839
-0.0053852344,0.0873425965834308
