Analysis/files/cmb03_d2s01/wrd09_ch06.csv

#Digilent WaveForms Oscilloscope Acquisition
#Device Name: ADP3450
#Serial Number: SN:210018B9D9B0
#Date Time: 2024-08-09 13:04:12.321.389.270
#Sample rate: 2.94118e+06Hz
#Samples: 32768
#Trigger: Source: Channel 3 Type: Edge Condition: Rising Level: 20 mV Hyst.: Auto HoldOff: 0 s
#Channel 3: Range: 200 mV/div Offset: 0 V Attenuation: 1 X Coupling: DC Bandwidth: 0 Hz Sample Mode: Average

Time (s),Channel 3 (V)
-0.005570431496062993,0.02039642011066165
-0.005570091496062992,0.02121925905452648
-0.005569751496062992,0.02171296242084393
-0.005569411496062993,0.01753294058601518
-0.005569071496062992,0.01756585414376274
-0.005568731496062992,0.01371496788648656
-0.005568391496062993,0.01111479682387655
-0.005568051496062992,0.01624931183358308
-0.005567711496062992,0.01384662211750479
-0.005567371496062993,0.00871210710779388
-0.005567031496062992,0.009995735860225558
-0.005566691496062992,0.01216803067202238
-0.005566351496062993,0.00904124268533945
-0.005566011496062992,0.006934774989053842
-0.005565671496062992,0.01025904432225806
-0.005565331496062993,0.01019321720674895
-0.005564991496062992,0.009271637589623504
-0.005564651496062992,0.01045652566878541
-0.005564311496062993,0.01180598153672225
-0.005563971496062992,0.01134519172815947
-0.005563631496062992,0.01190472220998592
-0.005563291496062992,0.01213511711426782
-0.005562951496062993,0.01091731547735142
-0.005562611496062992,0.01157558663244035
-0.005562271496062992,0.0122996849030406
-0.005561931496062993,0.008810847781063896
-0.005561591496062992,0.009370378262885021
-0.005561251496062992,0.01249716624956795
-0.005560911496062993,0.01269464759609493
-0.005560571496062992,0.0143732390415777
-0.005560231496062992,0.0118388950944768
-0.005559891496062993,0.008020922394955124
-0.005559551496062992,0.008350057972493751
-0.005559211496062992,0.008284230856984636
-0.005558871496062993,0.003478851424828041
-0.005558531496062992,0.001569865075054987
-0.005558191496062992,0.002293963345655243
-0.005557851496062993,0.00209648199912826
-0.005557511496062992,0.0007799396889456162
-0.005557171496062992,0.002721839596464486
-0.005556831496062993,0.00565114623661474
-0.005556491496062992,0.005025788639283483
-0.005556151496062992,0.007428478355366152
-0.005555811496062993,0.007922181721683609
-0.005555471496062992,0.007823441048420837
-0.005555131496062992,0.007395564797611595
-0.005554791496062993,0.007988008837192546
-0.005554451496062992,0.004861220850510698
-0.005554111496062992,0.003380110751555628
-0.005553771496062993,0.004894134408265255
-0.005553431496062992,0.002228136230146129
-0.005553091496062992,0.001931914210355115
-0.005552751496062993,0.002919320942991828
-0.005552411496062992,0.002524358249937143
-0.005552071496062992,0.002952234500746385
-0.005551731496062993,0.003116802289519171
-0.005551391496062992,-0.000766997525505217
-0.005551051496062992,0.006572725853747667
-0.005550711496062993,0.008350057972493751
-0.005550371496062992,0.007230997008833661
-0.005550031496062992,0.004400431041946898
-0.005549691496062993,0.0007470261311910591
-0.005549351496062992,-0.0005695161789906864
-0.005549011496062992,-0.0002732941592002112
-0.005548671496062993,0.0002204092071181454
-0.005548331496062992,0.0004837176691566378
-0.005547991496062992,0.001602778632809544
-0.005547651496062993,0.004301690368683227
-0.005547311496062992,0.005387837774583013
-0.005546971496062992,0.00505870219703804
-0.005546631496062993,0.006046108929674754
-0.005546291496062992,0.007527219028625692
-0.005545951496062992,0.005256183543565383
-0.005545611496062993,0.004795393735001583
-0.005545271496062992,0.004367517484190545
-0.005544931496062992,0.003380110751555628
-0.005544591496062993,0.001668605748318658
-0.005544251496062992,0.002228136230143794
-0.005543911496062992,0.0009445074777184018
-0.005543571496062993,-0.001787317815909838
-0.005543231496062992,0.0008457668044541317
-0.005542891496062992,0.0005166312269091594
-0.005542551496062992,0.0002533227648727025
-0.005542211496062993,0.001734432863825078
-0.005541871496062992,0.003676332771346642
-0.005541531496062992,-0.0005036890634821109
-0.005541191496062993,-0.0008657381987815806
-0.005540851496062992,0.004762480177247026
-0.005540511496062992,0.00403838190664677
-0.005540171496062993,0.01019321720673775
-0.005539831496062992,0.003314283636046514
-0.005539491496062992,-0.002379761855491866
-0.005539151496062993,0.001734432863820289
-0.005538811496062992,0.003511764982573856
-0.005538471496062992,0.0006482854579273878
-0.005538131496062993,-0.0003062077169530321
-0.005537791496062992,0.001043248150982073
-0.005537451496062992,-0.000832824641027682
-0.005537111496062993,-0.0007999110832731847
-0.005536771496062992,0.0001216685338544741
-0.005536431496062992,-0.0004049483902184396
-0.005536091496062993,-0.0004049483902184396
-0.005535751496062992,0.002096481999127901
-0.005535411496062992,0.001010334593227516
-0.005535071496062993,0.001471124401790477
-0.005534731496062992,0.003840900560119427
-0.005534391496062992,0.003511764982573856
-0.005534051496062993,0.003314283636046873
-0.005533711496062992,0.004663739503983355
-0.005533371496062992,0.003906727675628541
-0.005533031496062993,0.002721839596464486
-0.005532691496062992,0.004795393735001583
-0.005532351496062992,0.006704380084765896
-0.005532011496062993,0.002985148058500942
-0.005531671496062992,0.002590185365446257
-0.005531331496062992,-0.0005695161789912252
-0.005530991496062993,-0.004058353300974278
-0.005530651496062992,0.002886407385237271
-0.005530311496062992,0.002524358249937143
-0.005529971496062993,0.001339470170773087
-0.005529631496062992,0.002952234500743152
-0.005529291496062992,0.001174902382000301
-0.005528951496062993,0.001405297286282201
-0.005528611496062992,0.003840900560121104
-0.005528271496062992,0.004762480177247026
-0.005527931496062993,0.004466258157456012
-0.005527591496062992,0.004071295464401208
-0.005527251496062992,0.004005468348892213
-0.005526911496062993,0.001931914210355115
-0.005526571496062992,0.001536951517302465
-0.005526231496062992,0.002656012480955371
-0.005525891496062993,0.001339470170773087
-0.005525551496062992,2.292786059313766e-05
-0.005525211496062992,0.00130655661301853
-0.005524871496062993,0.002886407385237271
-0.005524531496062992,0.00193191421035739
-0.005524191496062992,0.003182629405028285
-0.005523851496062993,0.004630825946228797
-0.005523511496062992,0.003610505655839084
-0.005523171496062992,0.004466258157456012
-0.005522831496062993,0.00574988690988374
-0.005522491496062992,0.001339470170763987
-0.005522151496062992,-0.003663390607919593
-0.005521811496062992,-0.01314249524123204
-0.005521471496062992,-0.03127786556404018
-0.005521131496062992,-0.05721374907458401
-0.005520791496062992,-0.08723091374674008
-0.005520451496062993,-0.1109945024454871
-0.005520111496062992,-0.1423282094278687
-0.005519771496062992,-0.1694818945753783
-0.005519431496062993,-0.197063455973647
-0.005519091496062992,-0.2225385496757244
-0.005518751496062992,-0.2355064914310199
-0.005518411496062993,-0.2446893740445246
-0.005518071496062992,-0.2503175924205706
-0.005517731496062992,-0.2497251483809885
-0.005517391496062993,-0.2479478162622457
-0.005517051496062992,-0.243076609714568
-0.005516711496062992,-0.2351115287379652
-0.005516371496062993,-0.2287592120913472
-0.005516031496062992,-0.2235259564083611
-0.005515691496062992,-0.2159558381248129
-0.005515351496062993,-0.209406040131668
-0.005515011496062992,-0.2034486861780812
-0.005514671496062992,-0.1954177780859693
-0.005514331496062993,-0.1885059309575249
-0.005513991496062992,-0.1827131447927103
-0.005513651496062992,-0.1761304332417988
-0.005513311496062993,-0.1668488099550306
-0.005512971496062992,-0.1639853304303673
-0.005512631496062992,-0.15894955609392
-0.005512291496062993,-0.1518731411766903
-0.005511951496062992,-0.1478576871306343
-0.005511611496062992,-0.1427231721209234
-0.005511271496062993,-0.1367658181673485
-0.005510931496062992,-0.1341656471047385
-0.005510591496062992,-0.1292944405570641
-0.005510251496062993,-0.1146808209140407
-0.005509911496062992,-0.110797021099003
-0.005509571496062992,-0.1051029756074646
-0.005509231496062993,-0.1019103605052726
-0.005508891496062992,-0.1012191757924182
-0.005508551496062992,-0.09644670991801607
-0.005508211496062993,-0.09187172539013264
-0.005507871496062992,-0.09022604750240473
-0.005507531496062992,-0.09019313394465023
-0.005507191496062993,-0.08601311210982149
-0.005506851496062992,-0.08252427498783388
-0.005506511496062992,-0.08002284459849207
-0.005506171496062993,-0.0760073905524361
-0.005505831496062992,-0.07159697381332027
-0.005505491496062992,-0.068733494288679
-0.005505151496062993,-0.0657383605330143
-0.005504811496062992,-0.06080132686982888
-0.005504471496062992,-0.05978100657943946
-0.005504131496062993,-0.05652256436173831
-0.005503791496062992,-0.05184883916059018
-0.005503451496062992,-0.05128930867876372
-0.005503111496062993,-0.05017024771510879
-0.005502771496062992,-0.04710928684393408
-0.005502431496062992,-0.04661558347761662
-0.005502091496062993,-0.04661558347761662
-0.005501751496062992,-0.04329131414440432
-0.005501411496062992,-0.04217225318075141
-0.005501071496062993,-0.04197477183422407
-0.005500731496062992,-0.04131650067913867
-0.005500391496062992,-0.0444762022235704
-0.005500051496062992,-0.03848593471224102
-0.005499711496062993,-0.03519457893679129
-0.005499371496062992,-0.0340426044153758
-0.005499031496062992,-0.03470087557046694
-0.005498691496062993,-0.03588576364962884
-0.005498351496062992,-0.03249566720091162
-0.005498011496062992,-0.02917139786770135
-0.005497671496062993,-0.02811816401955744
-0.005497331496062992,-0.0247609811285907
-0.005496991496062992,-0.02594586920775475
-0.005496651496062993,-0.02265451343230503
-0.005496311496062992,-0.0215354524686441
-0.005495971496062992,-0.02193041516169879
-0.005495631496062993,-0.0217658473729263
-0.005495291496062992,-0.02094300842906207
-0.005494951496062992,-0.02110757621783486
-0.005494611496062993,-0.02025182371621793
-0.005494271496062992,-0.01617054255465129
-0.005493931496062992,-0.01607180188138762
-0.005493591496062993,-0.01136516312249452
-0.005493251496062992,-0.01301084101021381
-0.005492911496062992,-0.01567683918833294
-0.005492571496062993,-0.01755291198033928
-0.005492231496062992,-0.01659841880546054
-0.005491891496062992,-0.01534770361078737
-0.005491551496062993,-0.01623636967015879
-0.005491211496062992,-0.01439321043590521
-0.005490871496062992,-0.01327414947225027
-0.005490531496062993,-0.01656550524770598
-0.005490191496062992,-0.01686172726749699
-0.005489851496062992,-0.009324522541703417
-0.005489511496062993,-0.009785312350267215
-0.005489171496062992,-0.009061214079666959
-0.005488831496062992,-0.009752398792512659
-0.005488491496062993,-0.01370202572305951
-0.005488151496062992,-0.01162847158451643
-0.005487811496062992,-0.008337115809066702
-0.005487471496062993,-0.01027901571658557
-0.005487131496062992,-0.01146390379574562
-0.005486791496062992,-0.009258695426194301
-0.005486451496062993,-0.01070689196739481
-0.005486111496062992,-0.009291608983944667
-0.005485771496062992,-0.006987659941129861
-0.005485431496062993,-0.008337115809066702
-0.005485091496062992,-0.00873207850211666
-0.005484751496062992,-0.006131907439511376
-0.005484411496062993,-0.005572376957683906
-0.005484071496062992,-0.007185141287655886
-0.005483731496062992,-0.006461043017056948
-0.005483391496062993,-0.007415536191939104
-0.005483051496062992,-0.009818225908019378
-0.005482711496062992,-0.008501683597839487
-0.005482371496062993,-0.007810498884993789
-0.005482031496062992,-0.008863732733135544
-0.005481691496062992,-0.006625610805829733
-0.005481351496062993,-0.004255834647501621
-0.005481011496062992,-0.004058353300971165
-0.005480671496062992,-0.002346848297737309
-0.005480331496062993,-0.001293614449591481
-0.005479991496062992,-0.006724351479079814
-0.005479651496062992,0.0007470261311910591
-0.005479311496062992,0.003050975174010056
-0.005478971496062993,0.001767346421584664
-0.005478631496062992,0.00130655661301853
-0.005478291496062992,-0.0008986517565367963
-0.005477951496062993,-0.001392355122854255
-0.005477611496062992,2.292786059080275e-05
-0.005477271496062992,-0.0001416399281819828
-0.005476931496062993,-0.002281021182224303
-0.005476591496062992,-0.002017712720191738
-0.005476251496062992,-0.00165566358489161
-0.005475911496062993,-0.001556922911628118
-0.005475571496062992,-0.002807638106301108
-0.005475231496062992,-0.001030305987555025
-0.005474891496062993,-0.0007011704100100523
-0.005474551496062992,-0.00244558897100098
-0.005474211496062992,-0.002346848297737309
-0.005473871496062993,-0.001491095796120381
-0.005473531496062992,-0.004782451571574535
-0.005473191496062992,-0.004190007531992507
-0.005472851496062993,-0.002511416086513148
-0.005472511496062992,-0.003268427914864908
-0.005472171496062992,-0.002346848297737309
-0.005471831496062993,0.0009115939199579176
-0.005471491496062992,2.292786059080275e-05
-0.005471151496062992,0.001372383728527644
-0.005470811496062993,0.004071295464396418
-0.005470471496062992,0.004696653061737912
-0.005470131496062992,0.002820580269728157
-0.005469791496062993,0.0004508041114000451
-0.005469451496062992,0.007428478355366152
-0.005469111496062992,0.006671466527011338
-0.005468771496062993,0.008053835952702737
-0.005468431496062992,0.004729566619492469
-0.005468091496062992,-0.0004378619479729968
-0.005467751496062993,0.001800259979336887
-0.005467411496062992,0.002129395556882458
-0.005467071496062992,-0.001392355122855153
-0.005466731496062993,-0.00165566358489161
-0.005466391496062992,-0.001918972046927109
-0.005466051496062992,-0.001392355122855153
-0.005465711496062993,-0.001984799162437181
-0.005465371496062992,-0.002708897433039652
-0.005465031496062992,-0.00392669906995605
-0.005464691496062993,-0.00336716858812858
-0.005464351496062992,-0.00270889743304061
-0.005464011496062992,-0.004453315994028964
-0.005463671496062993,-0.002741810990791994
-0.005463331496062992,-0.0005695161789930213
-0.005462991496062992,-0.001556922911627938
-0.005462651496062993,-0.0004707755057275538
-0.005462311496062992,0.000319149880381697
-0.005461971496062992,0.0002533227648727025
-0.005461631496062993,-0.0003062077169547683
-0.005461291496062992,0.001438210844036459
-0.005460951496062992,0.001273643055263973
-0.005460611496062993,-0.0009973924298004675
-0.005460271496062992,0.001438210844035262
-0.005459931496062992,0.0006153719001728307
-0.005459591496062993,-0.00494701936034732
-0.005459251496062992,-0.001886058489168002
-0.005458911496062992,0.001141988824245744
-0.005458571496062993,-0.0006682568522548965
-0.005458231496062992,0.0002862363226192969
-0.005457891496062992,-0.004091266858728836
-0.005457551496062992,-0.006757265036847961
-0.005457211496062993,-0.003301341472625751
-0.005456871496062992,-0.002577243202019209
-0.005456531496062992,-0.002478502528755537
-0.005456191496062993,-0.002379761855492045
-0.005455851496062992,-0.0001416399281819828
-0.005455511496062992,-0.001063219545309582
-0.005455171496062993,-0.0003720348324651398
-0.005454831496062992,0.0001874956493635883
-0.005454491496062992,-0.0006682568522548965
-0.005454151496062993,0.0007141125734339874
-0.005453811496062992,0.002985148058500942
-0.005453471496062992,0.002524358249937143
-0.005453131496062993,0.001668605748320215
-0.005452791496062992,0.00357759209808297
-0.005452451496062992,0.002293963345655243
-0.005452111496062993,0.001010334593229851
-0.005451771496062992,0.0008457668044547304
-0.005451431496062992,-0.0007340839677640107
-0.005451091496062993,-0.002149366951207392
-0.005450751496062992,-0.0007340839677640107
-0.005450411496062992,-0.001524009353873381
-0.005450071496062993,-0.001260700891837403
-0.005449731496062992,0.0004508041114000451
-0.005449391496062992,-0.004025439743219721
-0.005449051496062993,0.001931914210344279
-0.005448711496062992,0.007165169893329695
-0.005448371496062992,0.003314283636046514
-0.005448031496062993,0.0005166312269091594
-0.005447691496062992,0.002952234500746385
-0.005447351496062992,0.003413024309310185
-0.005447011496062993,0.004301690368683227
-0.005446671496062992,0.003380110751555628
-0.005446331496062992,-0.001096133103064139
-0.005445991496062993,-0.002610156759773766
-0.005445651496062992,-0.002939292337320295
-0.005445311496062992,-0.003465909261392251
-0.005444971496062993,-0.004650797340556306
-0.005444631496062992,-0.00451914310953287
-0.005444291496062992,-0.00165566358489161
-0.005443951496062993,-0.0006682568522548965
-0.005443611496062992,0.0006153719001762432
-0.005443271496062992,0.002491444692182586
-0.005442931496062993,0.004071295464401327
-0.005442591496062992,0.00354467854032991
-0.005442251496062992,0.004367517484192341
-0.005441911496062993,0.004202949695419555
-0.005441571496062992,0.002425617576671197
-0.005441231496062992,0.001174902382000301
-0.005440891496062993,0.001339470170773087
-0.005440551496062992,-0.0009973924298006471
-0.005440211496062992,-0.001096133103064139
-0.005439871496062993,-0.001293614449591481
-0.005439531496062992,-0.002675983875278929
-0.005439191496062992,-0.0005036890634821109
-0.005438851496062993,0.0009115939199638446
-0.005438511496062992,-0.0004707755057279729
-0.005438171496062992,-0.0007011704100094536
-0.005437831496062993,0.002359790461164357
-0.005437491496062992,0.002787666711971624
-0.005437151496062992,0.001701519306073215
-0.005436811496062992,5.584141834535986e-05
-0.005436471496062993,0.002458531134423658
-0.005436131496062992,0.002392704018918914
-0.005435791496062992,0.002985148058500942
-0.005435451496062993,0.004071295464399351
-0.005435111496062992,-0.002083539835700852
-0.005434771496062992,-0.001129046660818696
-0.005434431496062993,0.002063568441367536
-0.005434091496062992,-7.581281267286857e-05
-0.005433751496062992,-7.581281267286857e-05
-0.005433411496062993,-4.289925491837133e-05
-0.005433071496062992,0.001569865075054987
-0.005432731496062992,0.001931914210355115
-0.005432391496062993,0.002886407385235535
-0.005432051496062992,0.002359790461164357
-0.005431711496062992,0.00357759209808297
-0.005431371496062993,0.005190356428053335
-0.005431031496062992,0.002623098923200814
-0.005430691496062992,0.003281370078291956
-0.005430351496062993,0.005453664890088774
-0.005430011496062992,0.00426877681092867
-0.005429671496062992,0.00357759209808297
-0.005429331496062993,0.003709246329100959
-0.005428991496062992,0.001701519306073215
-0.005428651496062992,0.0006153719001728307
-0.005428311496062993,0.002688926038706157
-0.005427971496062992,0.0003849769958909309
-0.005427631496062992,-0.00188605848917351
-0.005427291496062993,-0.0005366026212366681
-0.005426951496062992,-0.001359441565100596
-0.005426611496062992,-0.006230648112775047
-0.005426271496062993,-0.001622750027137053
-0.005425931496062992,0.001339470170773087
-0.005425591496062992,0.001734432863827772
-0.005425251496062993,0.003873814117873984
-0.005424911496062992,0.0003849769958909309
-0.005424571496062992,-0.0007999110832731249
-0.005424231496062993,0.003215542962782842
-0.005423891496062992,0.004170036137661047
-0.005423551496062992,0.001997741325864229
-0.005423211496062993,0.001931914210355115
-0.005422871496062992,0.003413024309307071
-0.005422531496062992,0.001701519306073215
-0.005422191496062993,2.292786059080275e-05
-0.005421851496062992,0.001109075266486937
-0.005421511496062992,-0.001227787334082367
-0.005421171496062993,-0.001293614449591481
-0.005420831496062992,-0.0005036890634836675
-0.005420491496062992,-0.001359441565100596
-0.005420151496062993,-0.001754404258155281
-0.005419811496062992,0.0005166312269088002
-0.005419471496062992,0.0003191498803818167
-0.005419131496062993,-0.0008657381987822392
-0.005418791496062992,0.001964827768108714
-0.005418451496062992,0.001438210844036758
-0.005418111496062993,0.0007799396889456162
-0.005417771496062992,0.001602778632808766
-0.005417431496062992,0.001174902382000301
-0.005417091496062993,-0.0006353432945003394
-0.005416751496062992,-0.001030305987558437
