Analysis/files/cmb03_d2s01/wrd10_ch34.csv

#Digilent WaveForms Oscilloscope Acquisition
#Device Name: ADP3450
#Serial Number: SN:210018B9D9B0
#Date Time: 2024-08-09 17:24:22.623.649.680
#Sample rate: 2.94118e+06Hz
#Samples: 32768
#Trigger: Source: Channel 3 Type: Edge Condition: Rising Level: 60 mV Hyst.: Auto HoldOff: 0 s
#Channel 3: Range: 200 mV/div Offset: 0 V Attenuation: 1 X Coupling: DC Bandwidth: 0 Hz Sample Mode: Average

Time (s),Channel 3 (V)
-0.005570356245487365,0.004005468348892213
-0.005570016245487364,0.004367517484191743
-0.005569676245487365,0.00403838190664677
-0.005569336245487365,0.004696653061737912
-0.005568996245487364,0.0009774210354709832
-0.005568656245487365,-0.0001087263704274257
-0.005568316245487365,0.006638552969256781
-0.005567976245487364,0.006309417391712108
-0.005567636245487365,0.006803120758029567
-0.005567296245487365,0.005124529312547154
-0.005566956245487364,0.0006482854579270286
-0.005566616245487365,0.0004508041114000451
-0.005566276245487365,0.002129395556882458
-0.005565936245487364,-0.001886058489172312
-0.005565596245487365,-0.001227787334082367
-0.005565256245487365,-0.001392355122855153
-0.005564916245487364,-0.002873465221812857
-0.005564576245487365,-0.004321661763010735
-0.005564236245487365,-0.003762131281183265
-0.005563896245487364,-0.004255834647505093
-0.005563556245487365,-0.006164820997265934
-0.005563216245487365,-0.006461043017056948
-0.005562876245487365,-0.005934426092984991
-0.005562536245487365,-0.005473636284420234
-0.005562196245487365,-0.004288748205256179
-0.005561856245487365,-0.004617883782801151
-0.005561516245487365,-0.006230648112775047
-0.005561176245487365,-0.004815365129329092
-0.005560836245487365,-0.004914105802592584
-0.005560496245487365,-0.006395215901547833
-0.005560156245487365,-0.006921832825620747
-0.005559816245487365,-0.0062964752282853
-0.005559476245487365,-0.006592697248075176
-0.005559136245487365,-0.006856005710111633
-0.005558796245487365,-0.007020573498884119
-0.005558456245487365,-0.01083854619841304
-0.005558116245487365,-0.01034484283209469
-0.005557776245487365,-0.004486229551794178
-0.005557436245487365,-0.005341982053402005
-0.005557096245487365,-0.004519143109538078
-0.005556756245487365,-0.008106720904778276
-0.005556416245487365,-0.009357436099457973
-0.005556076245487365,-0.006362302343793276
-0.005555736245487365,-0.007053487056637718
-0.005555396245487365,-0.008633337828857716
-0.005555056245487365,-0.009719485234758102
-0.005554716245487365,-0.008337115809069217
-0.005554376245487365,-0.009258695426194301
-0.005554036245487365,-0.01176012581554064
-0.005553696245487365,-0.007975066673766575
-0.005553356245487365,-0.006954746383375304
-0.005553016245487365,-0.006625610805829733
-0.005552676245487365,-0.006131907439511376
-0.005552336245487365,-0.004815365129329092
-0.005551996245487365,-0.004815365129329092
-0.005551656245487365,-0.005506549842174791
-0.005551316245487365,-0.005407809168916149
-0.005550976245487365,-0.008172548020293918
-0.005550636245487365,-0.008797905617630502
-0.005550296245487365,-0.01001570725455085
-0.005549956245487365,-0.01097020042943127
-0.005549616245487365,-0.0113322495647314
-0.005549276245487364,-0.01057523773637611
-0.005548936245487365,-0.01031192927434013
-0.005548596245487365,-0.01083854619841304
-0.005548256245487364,-0.009522003888242014
-0.005547916245487365,-0.01570975274608749
-0.005547576245487365,-0.009522003888230759
-0.005547236245487364,-0.005704031188703331
-0.005546896245487365,-0.006362302343793276
-0.005546556245487365,-0.005210327822383777
-0.005546216245487364,-0.009192868310686924
-0.005545876245487365,-0.01014736148556734
-0.005545536245487365,-0.008633337828857716
-0.005545196245487364,-0.009686571677003604
-0.005544856245487365,-0.009719485234758102
-0.005544516245487365,-0.01139807668024051
-0.005544176245487364,-0.01182595293105119
-0.005543836245487365,-0.01261587831715913
-0.005543496245487365,-0.01274753254817735
-0.005543156245487364,-0.01116768177595718
-0.005542816245487365,-0.01037775638984924
-0.005542476245487365,-0.01034484283209469
-0.005542136245487365,-0.01080563264065765
-0.005541796245487365,-0.009949880139040001
-0.005541456245487365,-0.009785312350267215
-0.005541116245487365,-0.008863732733141292
-0.005540776245487365,-0.01027901571658557
-0.005540436245487365,-0.01031192927434013
-0.005540096245487365,-0.009818225908022671
-0.005539756245487365,-0.009357436099457973
-0.005539416245487365,-0.009949880139040001
-0.005539076245487365,-0.01208926139308232
-0.005538736245487365,-0.01205634783533165
-0.005538396245487365,-0.01100311398718583
-0.005538056245487365,-0.0137020257230546
-0.005537716245487365,-0.01505148159099635
-0.005537376245487365,-0.01498565447548724
-0.005537036245487365,-0.008567510713360278
-0.005536696245487365,-0.009028300521912402
-0.005536356245487365,-0.008764992059875945
-0.005536016245487365,-0.01343871726101455
-0.005535676245487365,-0.01416281553162331
-0.005535336245487365,-0.01241839697063178
-0.005534996245487365,-0.01406407485835665
-0.005534656245487365,-0.01426155620488698
-0.005534316245487365,-0.01429446976264154
-0.005533976245487365,-0.01281335966368916
-0.005533636245487365,-0.01320832235674115
-0.005533296245487365,-0.01376785283856862
-0.005532956245487365,-0.01350454437653217
-0.005532616245487365,-0.0127146189904228
-0.005532276245487365,-0.01274753254817735
-0.005531936245487365,-0.01412990197386875
-0.005531596245487365,-0.01297792745245925
-0.005531256245487365,-0.01083854619841304
-0.005530916245487365,-0.009291608983948858
-0.005530576245487365,-0.01176012581554064
-0.005530236245487365,-0.01080563264065849
-0.005529896245487365,-0.009587831003739873
-0.005529556245487365,-0.01077271908290171
-0.005529216245487365,-0.009554917445985316
-0.005528876245487365,-0.01113476821820406
-0.005528536245487365,-0.01077271908290159
-0.005528196245487365,-0.009489090330476201
-0.005527856245487365,-0.007382622634184546
-0.005527516245487364,-0.008830819175390747
-0.005527176245487365,-0.01195760716206798
-0.005526836245487365,-0.01231965629736811
-0.005526496245487364,-0.005868598977475757
-0.005526156245487365,-0.006329388786038719
-0.005525816245487365,-0.008073807347030245
-0.005525476245487364,-0.01182595293105443
-0.005525136245487365,-0.01439321043590521
-0.005524796245487365,-0.0115626444690133
-0.005524456245487364,-0.0129121003369517
-0.005524116245487365,-0.01376785283856862
-0.005523776245487365,-0.0129450138947047
-0.005523436245487364,-0.01452486466693595
-0.005523096245487365,-0.02140379823762588
-0.005522756245487365,-0.03206779095010238
-0.005522416245487364,-0.04845874271191588
-0.005522076245487365,-0.07268312121922585
-0.005521736245487365,-0.1003634232908084
-0.005521396245487364,-0.1328820183523697
-0.005521056245487365,-0.165268959182795
-0.005520716245487365,-0.1942658035645598
-0.005520376245487365,-0.2207283039991756
-0.005520036245487365,-0.2431095232723225
-0.005519696245487365,-0.2585788954169644
-0.005519356245487365,-0.2682225678390321
-0.005519016245487365,-0.273916613330588
-0.005518676245487365,-0.2738178726573243
-0.005518336245487365,-0.2715797507300185
-0.005517996245487365,-0.2665439763935672
-0.005517656245487365,-0.2583485005126825
-0.005517316245487365,-0.2512720855954656
-0.005516976245487365,-0.2465983603943056
-0.005516636245487365,-0.2430107825990589
-0.005516296245487365,-0.2287262985336071
-0.005515956245487365,-0.2210574395767693
-0.005515616245487365,-0.2128948772536391
-0.005515276245487365,-0.2056209809898953
-0.005514936245487365,-0.2016055269438261
-0.005514596245487365,-0.1938708408715051
-0.005514256245487365,-0.183996773545156
-0.005513916245487365,-0.1793230483439909
-0.005513576245487365,-0.1744189282385619
-0.005513236245487365,-0.1672437726480815
-0.005512896245487365,-0.1625700474469213
-0.005512556245487365,-0.1593445187869747
-0.005512216245487365,-0.1546707935858276
-0.005511876245487365,-0.1501945497312079
-0.005511536245487365,-0.1469361075135067
-0.005511196245487365,-0.1419990738503231
-0.005510856245487365,-0.1380823604775308
-0.005510516245487365,-0.1342314742202476
-0.005510176245487365,-0.1280437253623909
-0.005509836245487365,-0.1218888900622887
-0.005509496245487365,-0.118597534286833
-0.005509156245487365,-0.1129693159108038
-0.005508816245487365,-0.1083943313829105
-0.005508476245487365,-0.1029965079111729
-0.005508136245487365,-0.09963932502020811
-0.005507796245487365,-0.09654545059127424
-0.005507456245487365,-0.09351740327786048
-0.005507116245487365,-0.09078557798423226
-0.005506776245487364,-0.08746130865102451
-0.005506436245487365,-0.08884367807671339
-0.005506096245487365,-0.08700051884245819
-0.005505756245487364,-0.0761061312256935
-0.005505416245487365,-0.07265020766147129
-0.005505076245487365,-0.0685689264999062
-0.005504736245487364,-0.06873349428868374
-0.005504396245487365,-0.07133366535128902
-0.005504056245487365,-0.06695616216993291
-0.005503716245487364,-0.0640926826452871
-0.005503376245487365,-0.06445473178058658
-0.005503036245487365,-0.06438890466507746
-0.005502696245487364,-0.0607684133120721
-0.005502356245487365,-0.05853029138476629
-0.005502016245487365,-0.05849737782701173
-0.005501676245487364,-0.05609468811092362
-0.005501336245487365,-0.05309955435526437
-0.005500996245487365,-0.04549652251396168
-0.005500656245487364,-0.052474196757923
-0.005500316245487365,-0.04984111213756322
-0.005499976245487365,-0.0481625206920808
-0.005499636245487365,-0.04546360895621203
-0.005499296245487365,-0.04240264808503331
-0.005498956245487365,-0.04243556164278787
-0.005498616245487365,-0.03986830413793708
-0.005498276245487365,-0.03881507028978658
-0.005497936245487365,-0.03677442970900404
-0.005497596245487365,-0.03657694836247706
-0.005497256245487365,-0.03624781278493113
-0.005496916245487365,-0.03447048066618504
-0.005496576245487365,-0.03410843153088558
-0.005496236245487365,-0.03226527229662972
-0.005495896245487365,-0.03812388557694089
-0.005495556245487365,-0.03173865537256842
-0.005495216245487365,-0.02950053344524692
-0.005494876245487365,-0.02930305209871958
-0.005494536245487365,-0.03068542152440846
-0.005494196245487365,-0.03410843153088492
-0.005493856245487365,-0.03269314854743896
-0.005493516245487365,-0.03009297748483368
-0.005493176245487365,-0.02900683007892857
-0.005492836245487365,-0.02996132325381072
-0.005492496245487365,-0.02749280642222343
-0.005492156245487365,-0.02426727776227234
-0.005491816245487365,-0.02216081006598069
-0.005491476245487365,-0.02268742699005264
-0.005491136245487365,-0.0215354524686441
-0.005490796245487365,-0.02002142881193448
-0.005490456245487365,-0.01946189833010701
-0.005490116245487365,-0.01834283736645206
-0.005489776245487365,-0.01817826957767928
-0.005489436245487365,-0.01666424592096965
-0.005489096245487365,-0.01659841880546054
-0.005488756245487365,-0.01564392563057838
-0.005488416245487365,-0.01745417130707902
-0.005488076245487365,-0.01847449159746975
-0.005487736245487365,-0.01817826957767928
-0.005487396245487365,-0.01771747976911548
-0.005487056245487365,-0.01896819496378901
-0.005486716245487365,-0.01916567631031599
-0.005486376245487365,-0.01811244246217016
-0.005486036245487365,-0.01916567631031797
-0.005485696245487365,-0.02025182371621638
-0.005485356245487365,-0.0245305862243088
-0.005485016245487364,-0.01607180188138547
-0.005484676245487365,-0.01488691380222357
-0.005484336245487365,-0.0196922932343889
-0.005483996245487364,-0.01946189833010473
-0.005483656245487365,-0.01821118313543383
-0.005483316245487365,-0.01811244246217016
-0.005482976245487364,-0.01998851525417771
-0.005482636245487365,-0.01877071361726131
-0.005482296245487365,-0.02031765083172549
-0.005481956245487364,-0.01909984919480346
-0.005481616245487365,-0.01722377640279712
-0.005481276245487365,-0.01666424592096965
-0.005480936245487364,-0.01761873909585007
-0.005480596245487365,-0.01666424592096965
-0.005480256245487365,-0.01327414947225027
-0.005479916245487364,-0.01337289014551568
-0.005479576245487365,-0.0143273833203961
-0.005479236245487365,-0.0143273833203961
-0.005478896245487365,-0.01393242062734213
-0.005478556245487365,-0.01439321043590521
-0.005478216245487365,-0.01547935784180559
-0.005477876245487365,-0.016631332363213
-0.005477536245487365,-0.01705920861402434
-0.005477196245487365,-0.01478817312895989
-0.005476856245487365,-0.01515022226425936
-0.005476516245487365,-0.01551227139956015
-0.005476176245487365,-0.01396533418509597
-0.005475836245487365,-0.01205634783533513
-0.005475496245487365,-0.01238548341287723
-0.005475156245487365,-0.01067397840964026
-0.005474816245487365,-0.013767852838563
-0.005474476245487365,-0.00962074456149443
-0.005474136245487365,-0.01008153437005823
-0.005473796245487365,-0.01231965629736404
-0.005473456245487365,-0.01090437331392216
-0.005473116245487365,-0.01478817312895989
-0.005472776245487365,-0.01653259168994825
-0.005472436245487365,-0.009489090330476201
-0.005472096245487365,-0.0117930393732952
-0.005471756245487365,-0.01896819496377559
-0.005471416245487365,-0.01696046794076066
-0.005471076245487365,-0.01459069178243255
-0.005470736245487365,-0.0140969884161151
-0.005470396245487365,-0.01396533418509597
-0.005470056245487365,-0.01462360534018711
-0.005469716245487365,-0.01291210033695014
-0.005469376245487365,-0.01376785283856862
-0.005469036245487365,-0.01610471543914218
-0.005468696245487365,-0.01607180188138762
-0.005468356245487365,-0.01547935784180559
-0.005468016245487365,-0.01561101207282382
-0.005467676245487365,-0.01597306120812395
-0.005467336245487365,-0.01445903755141432
-0.005466996245487365,-0.01459069178243255
-0.005466656245487365,-0.0134058037032685
-0.005466316245487365,-0.01208926139308801
-0.005465976245487365,-0.01307666812572293
-0.005465636245487365,-0.01251713764389546
-0.005465296245487365,-0.01080563264065926
-0.005464956245487365,-0.01123350889146773
-0.005464616245487365,-0.01080563264065849
-0.005464276245487364,-0.01047649706311321
-0.005463936245487365,-0.0106410648518857
-0.005463596245487365,-0.01008153437005823
-0.005463256245487364,-0.01363619860755369
-0.005462916245487365,-0.01544644428405104
-0.005462576245487365,-0.008929559848648731
-0.005462236245487364,-0.006954746383373747
-0.005461896245487365,-0.006098993881756819
-0.005461556245487365,-0.008271288693557588
-0.005461216245487364,-0.01034484283209307
-0.005460876245487365,-0.009456176772721644
-0.005460536245487365,-0.009357436099457973
-0.005460196245487364,-0.01199052071982356
-0.005459856245487365,-0.01255005120165001
-0.005459516245487365,-0.01399824774285052
-0.005459176245487364,-0.01373493928081371
-0.005458836245487365,-0.01353745793428673
-0.005458496245487365,-0.01426155620488698
-0.005458156245487364,-0.01317540879898462
-0.005457816245487365,-0.01208926139308621
-0.005457476245487365,-0.005967339650738591
-0.005457136245487365,-0.01399824774283592
-0.005456796245487365,-0.01192469360431343
-0.005456456245487365,-0.01205634783533165
-0.005456116245487365,-0.01090437331392425
-0.005455776245487365,-0.0115626444690133
-0.005455436245487365,-0.01231965629736811
-0.005455096245487365,-0.01143099023799669
-0.005454756245487365,-0.01097020042943127
-0.005454416245487365,-0.01113476821820406
-0.005454076245487365,-0.01281335966368342
-0.005453736245487365,-0.0115626444690133
-0.005453396245487365,-0.01166138514227697
-0.005453056245487365,-0.01291210033694786
-0.005452716245487365,-0.01715794928728801
-0.005452376245487365,-0.01152973091125874
-0.005452036245487365,-0.009620744561497903
-0.005451696245487365,-0.007547190422957332
-0.005451356245487365,-0.007942153116012016
-0.005451016245487365,-0.01455777822466596
-0.005450676245487365,-0.01465651889794167
-0.005450336245487365,-0.01100311398718583
-0.005449996245487365,-0.0137349392808091
-0.005449656245487365,-0.01610471543914218
-0.005449316245487365,-0.01643385101668775
-0.005448976245487365,-0.01534770361078934
-0.005448636245487365,-0.01350454437653217
-0.005448296245487365,-0.01301084101021381
-0.005447956245487365,-0.01383367995407774
-0.005447616245487365,-0.01287918677919558
-0.005447276245487365,-0.01014736148556734
-0.005446936245487365,-0.01106894110269494
-0.005446596245487365,-0.01106894110269494
-0.005446256245487365,-0.01008153437005823
-0.005445916245487365,-0.009159954752930631
-0.005445576245487365,-0.006921832825621825
-0.005445236245487365,-0.007514276865202775
-0.005444896245487365,-0.007613017538466446
-0.005444556245487365,-0.008435856482322771
-0.005444216245487365,-0.004255834647501621
-0.005443876245487365,-0.005769858304211248
-0.005443536245487364,-0.007152227729902228
-0.005443196245487365,-0.006921832825620747
-0.005442856245487365,-0.007744671769484675
-0.005442516245487364,-0.008304202251322742
-0.005442176245487365,-0.01412990197386875
-0.005441836245487365,-0.009522003888230759
-0.005441496245487364,-0.009949880139038983
-0.005441156245487365,-0.00939034965721253
-0.005440816245487365,-0.01054232417862203
-0.005440476245487364,-0.01663133236321497
-0.005440136245487365,-0.01656550524770598
-0.005439796245487365,-0.01176012581554064
-0.005439456245487364,-0.01129933600697816
-0.005439116245487365,-0.0120234342775771
-0.005438776245487365,-0.0101802750433219
-0.005438436245487364,-0.01123350889146653
-0.005438096245487365,-0.01057523773637659
-0.005437756245487365,-0.01218800206634988
-0.005437416245487364,-0.01251713764389611
-0.005437076245487365,-0.01287918677919558
-0.005436736245487365,-0.01182595293104976
-0.005436396245487365,-0.01218800206634922
-0.005436056245487365,-0.01281335966368647
-0.005435716245487365,-0.01143099023799507
-0.005435376245487365,-0.01057523773637814
-0.005435036245487365,-0.01067397840964026
-0.005434696245487365,-0.01195760716206798
-0.005434356245487365,-0.01123350889146904
-0.005434016245487365,-0.01159555802676786
-0.005433676245487365,-0.01008153437005823
-0.005433336245487365,-0.009949880139040241
-0.005432996245487365,-0.01067397840964026
-0.005432656245487365,-0.009159954752930631
-0.005432316245487365,-0.009686571677002586
-0.005431976245487365,-0.01406407485835964
-0.005431636245487365,-0.01472234601345078
-0.005431296245487365,-0.008271288693569322
-0.005430956245487365,-0.012253829181859
-0.005430616245487365,-0.0101802750433219
-0.005430276245487365,-0.01304375456796316
-0.005429936245487365,-0.01643385101668775
-0.005429596245487365,-0.01324123591449571
-0.005429256245487365,-0.0121550885085973
-0.005428916245487365,-0.01419572908937787
-0.005428576245487365,-0.01584140697710572
-0.005428236245487365,-0.01403116130060838
-0.005427896245487365,-0.014557778224678
-0.005427556245487365,-0.01511730870650547
-0.005427216245487365,-0.01449195110916888
-0.005426876245487365,-0.01557809851506927
-0.005426536245487365,-0.01475525957120534
-0.005426196245487365,-0.01228674273961356
-0.005425856245487365,-0.01208926139308621
-0.005425516245487365,-0.01228674273961356
-0.005425176245487365,-0.01008153437005823
-0.005424836245487365,-0.009587831003739873
-0.005424496245487365,-0.0106410648518857
-0.005424156245487365,-0.0104106699476038
-0.005423816245487365,-0.009982793696795037
-0.005423476245487365,-0.01024610215883101
-0.005423136245487365,-0.009291608983948858
-0.005422796245487365,-0.009884053023531963
-0.005422456245487365,-0.01047649706311291
-0.005422116245487365,-0.009653658119248986
-0.005421776245487364,-0.01073980552516153
-0.005421436245487365,-0.01742125774932446
-0.005421096245487365,-0.01547935784180559
-0.005420756245487364,-0.008929559848655616
-0.005420416245487365,-0.0127146189904228
-0.005420076245487365,-0.01376785283856862
-0.005419736245487364,-0.009949880139039283
-0.005419396245487365,-0.009554917445985316
-0.005419056245487365,-0.009884053023530886
-0.005418716245487364,-0.009291608983949097
-0.005418376245487365,-0.009423263214967087
-0.005418036245487365,-0.01176012581554064
-0.005417696245487364,-0.01189178004656175
-0.005417356245487365,-0.01347163081877761
-0.005417016245487365,-0.01508439514875091
-0.005416676245487364,-0.0154793578418032
-0.005416336245487365,-0.01416281553162331
