Analysis/files/cmb03_d2s01/wrd12_ch32.csv

#Digilent WaveForms Oscilloscope Acquisition
#Device Name: ADP3450
#Serial Number: SN:210018B9D9B0
#Date Time: 2024-08-12 11:33:18.040.297.690
#Sample rate: 2.94118e+06Hz
#Samples: 32768
#Trigger: Source: Channel 3 Type: Edge Condition: Rising Level: 60 mV Hyst.: Auto HoldOff: 0 s
#Channel 3: Range: 200 mV/div Offset: 0 V Attenuation: 1 X Coupling: DC Bandwidth: 0 Hz Sample Mode: Average

Time (s),Channel 3 (V)
-0.005570407544483986,0.007230997008838809
-0.005570067544483985,0.005651146236616416
-0.005569727544483986,0.003643419213592085
-0.005569387544483986,0.003215542962782842
-0.005569047544483985,0.001471124401789699
-0.005568707544483986,0.0005824583424182735
-0.005568367544483986,0.0005495447846637165
-0.005568027544483985,-0.0002403806014529582
-0.005567687544483986,-0.004255834647501621
-0.005567347544483986,-0.00313677368384668
-0.005567007544483985,0.003676332771346761
-0.005566667544483986,0.003742159886855756
-0.005566327544483986,0.005157442870301712
-0.005565987544483985,0.002293963345651531
-0.005565647544483986,0.0002533227648727025
-0.005565307544483986,0.005025788639283483
-0.005564967544483985,0.004367517484187731
-0.005564627544483986,0.001833173537091444
-0.005564287544483986,0.00176734642158233
-0.005563947544483985,0.002623098923196863
-0.005563607544483986,0.0004508041114000451
-0.005563267544483986,-0.001063219545309582
-0.005562927544483986,5.584141834332444e-05
-0.005562587544483986,-0.0007340839677640107
-0.005562247544483986,-0.001260700891836924
-0.005561907544483986,-0.001688577142645389
-0.005561567544483986,-0.001918972046928067
-0.005561227544483986,-0.002610156759773766
-0.005560887544483986,-0.003169687241600219
-0.005560547544483986,-0.003531736376901365
-0.005560207544483986,-0.005045760033610991
-0.005559867544483986,-0.003959612627712583
-0.005559527544483986,-0.00438748887851985
-0.005559187544483986,-0.005078673591365549
-0.005558847544483986,-0.002412675413251273
-0.005558507544483986,-0.000832824641027682
-0.005558167544483986,-0.007448449749693661
-0.005557827544483986,-0.005572376957687319
-0.005557487544483986,-0.006000253208493148
-0.005557147544483986,-0.01159555802676786
-0.005556807544483986,-0.005407809168922376
-0.005556467544483986,-0.003070946568337565
-0.005556127544483986,-0.004486229551783521
-0.005555787544483986,-0.001392355122860781
-0.005555447544483985,-0.005243241380138334
-0.005555107544483986,-0.006164820997265934
-0.005554767544483986,-0.00501284647585853
-0.005554427544483985,-0.004881192244838206
-0.005554087544483986,-0.007580103980711889
-0.005553747544483986,-0.007514276865202775
-0.005553407544483985,-0.006098993881756819
-0.005553067544483986,-0.007975066673766575
-0.005552727544483986,-0.006592697248075176
-0.005552387544483985,-0.006428129459302391
-0.005552047544483986,-0.005473636284420234
-0.005551707544483986,-0.006790178594602518
-0.005551367544483985,-0.0047495380138186
-0.005551027544483986,-0.003992526185465165
-0.005550687544483986,-0.003992526185465165
-0.005550347544483985,-0.003827958396694833
-0.005550007544483986,-0.00517741426462922
-0.005549667544483986,-0.004914105802592763
-0.005549327544483985,-0.005045760033612488
-0.005548987544483986,-0.00586859897747492
-0.005548647544483986,-0.007415536191939104
-0.005548307544483985,-0.006559783690320499
-0.005547967544483986,-0.006493956574811504
-0.005547627544483986,-0.006263561670529605
-0.005547287544483985,-0.006329388786042431
-0.005546947544483986,-0.00837002936682126
-0.005546607544483986,-0.008732078502121389
-0.005546267544483985,-0.001886058489174886
-0.005545927544483986,-0.002643070317528323
-0.005545587544483986,-0.004222921089747064
-0.005545247544483985,-0.006493956574819945
-0.005544907544483986,-0.01113476821820406
-0.005544567544483986,-0.01100311398718583
-0.005544227544483985,-0.01215508850859365
-0.005543887544483986,-0.01123350889146773
-0.005543547544483986,-0.01176012581554064
-0.005543207544483985,-0.009916966581281612
-0.005542867544483986,-0.007810498884993789
-0.005542527544483986,-0.007613017538466446
-0.005542187544483986,-0.006888919267867506
-0.005541847544483986,-0.005671117630947577
-0.005541507544483986,-0.005736944746456691
-0.005541167544483986,-0.008666251386606944
-0.005540827544483986,-0.007810498884993789
-0.005540487544483986,-0.008797905617630502
-0.005540147544483986,-0.0100157072545469
-0.005539807544483986,-0.009357436099457973
-0.005539467544483986,-0.01031192927434013
-0.005539127544483986,-0.009686571677004681
-0.005538787544483986,-0.009094127637421515
-0.005538447544483986,-0.009291608983948858
-0.005538107544483986,-0.0112005953337097
-0.005537767544483986,-0.01031192927434013
-0.005537427544483986,-0.009916966581285444
-0.005537087544483986,-0.01011444792781243
-0.005536747544483986,-0.01021318860107646
-0.005536407544483986,-0.01396533418509597
-0.005536067544483986,-0.01143099023799968
-0.005535727544483986,-0.007448449749693661
-0.005535387544483986,-0.006493956574811504
-0.005535047544483986,-0.006856005710110974
-0.005534707544483985,-0.0111018546604495
-0.005534367544483986,-0.009423263214967087
-0.005534027544483986,-0.00784341244275122
-0.005533687544483985,-0.008633337828857716
-0.005533347544483986,-0.01057523773637659
-0.005533007544483986,-0.01031192927434013
-0.005532667544483985,-0.01123350889146773
-0.005532327544483986,-0.01097020042943127
-0.005531987544483986,-0.01231965629736811
-0.005531647544483985,-0.01146390379574963
-0.005531307544483986,-0.01008153437005823
-0.005530967544483986,-0.01027901571658557
-0.005530627544483985,-0.01021318860107646
-0.005530287544483986,-0.008995386964157845
-0.005529947544483986,-0.008139634462539359
-0.005529607544483985,-0.008732078502122705
-0.005529267544483986,-0.009456176772721644
-0.005528927544483986,-0.01014736148556734
-0.005528587544483985,-0.01106894110269542
-0.005528247544483986,-0.0113322495647314
-0.005527907544483986,-0.01070689196739481
-0.005527567544483985,-0.01083854619841047
-0.005527227544483986,-0.009423263214967087
-0.005526887544483986,-0.008995386964157845
-0.005526547544483985,-0.008040893789277364
-0.005526207544483986,-0.008962473406403288
-0.005525867544483986,-0.01176012581554064
-0.005525527544483985,-0.008995386964154252
-0.005525187544483986,-0.007020573498884419
-0.005524847544483986,-0.005802771861965805
-0.005524507544483985,-0.005111587149130164
-0.005524167544483986,-0.0106410648518857
-0.005523827544483986,-0.0120234342775771
-0.005523487544483985,-0.01373493928082874
-0.005523147544483986,-0.02179876093068056
-0.005522807544483986,-0.03463504845495783
-0.005522467544483985,-0.0527704187777634
-0.005522127544483986,-0.07729101930486384
-0.005521787544483986,-0.1054321111850102
-0.005521447544483985,-0.1349226589331502
-0.005521107544483986,-0.1661905387999226
-0.005520767544483986,-0.1923897307725501
-0.005520427544483986,-0.2157583567782431
-0.005520087544483986,-0.2360001947973382
-0.005519747544483986,-0.2494289263611975
-0.005519407544483986,-0.2576573157998218
-0.005519067544483986,-0.2617056834036473
-0.005518727544483986,-0.2633184477336206
-0.005518387544483986,-0.2592042530143085
-0.005518047544483986,-0.2534772939650081
-0.005517707544483986,-0.2476186806846969
-0.005517367544483986,-0.2408384877872704
-0.005517027544483986,-0.2348482202759287
-0.005516687544483986,-0.2266856579527985
-0.005516347544483986,-0.2207283039992345
-0.005516007544483986,-0.2143759873525942
-0.005515667544483986,-0.2112821129236658
-0.005515327544483986,-0.2044360929107304
-0.005514987544483986,-0.1896908190366764
-0.005514647544483986,-0.1829435396969922
-0.005514307544483986,-0.173596089294715
-0.005513967544483986,-0.169580635248642
-0.005513627544483986,-0.1687907098625326
-0.005513287544483986,-0.1611876780212437
-0.005512947544483985,-0.1549011884901095
-0.005512607544483986,-0.153156769929118
-0.005512267544483986,-0.14854887184348
-0.005511927544483985,-0.1428548263519416
-0.005511587544483986,-0.1390039400946584
-0.005511247544483986,-0.1355151029726754
-0.005510907544483985,-0.1301501930586826
-0.005510567544483986,-0.1244890611248987
-0.005510227544483986,-0.1193545461151878
-0.005509887544483985,-0.1144833395675134
-0.005509547544483986,-0.1101716635016664
-0.005509207544483986,-0.1049384078186918
-0.005508867544483985,-0.09924436232714476
-0.005508527544483986,-0.09447189645274265
-0.005508187544483986,-0.09114762711953239
-0.005507847544483985,-0.08482822403065635
-0.005507507544483986,-0.0842357799910754
-0.005507167544483986,-0.0830838054696659
-0.005506827544483985,-0.07883795651932768
-0.005506487544483986,-0.07864047517280068
-0.005506147544483986,-0.07781763622893675
-0.005505807544483985,-0.07449336689571967
-0.005505467544483986,-0.07074122131170699
-0.005505127544483986,-0.07093870265823432
-0.005504787544483985,-0.07018169082985905
-0.005504447544483986,-0.05892525407782098
-0.005504107544483986,-0.0611304624473763
-0.005503767544483985,-0.06099880821635364
-0.005503427544483986,-0.05856320494252085
-0.005503087544483986,-0.05662130503500198
-0.005502747544483985,-0.05747705753661861
-0.005502407544483986,-0.0564567372462292
-0.005502067544483986,-0.05458066445421944
-0.005501727544483985,-0.05405404753014245
-0.005501387544483986,-0.05181592560283664
-0.005501047544483986,-0.05082851887019993
-0.005500707544483985,-0.04842582915411127
-0.005500367544483986,-0.04513447337866155
-0.005500027544483986,-0.0442458073192885
-0.005499687544483986,-0.04378501751072555
-0.005499347544483986,-0.04065822952404178
-0.005499007544483986,-0.03769600932613165
-0.005498667544483986,-0.03575410941861631
-0.005498327544483986,-0.03447048066618504
-0.005497987544483986,-0.0340426044153758
-0.005497647544483986,-0.0341084315308848
-0.005497307544483986,-0.0333514197025301
-0.005496967544483986,-0.03354890104905744
-0.005496627544483986,-0.03483252980148284
-0.005496287544483986,-0.03341724681803922
-0.005495947544483986,-0.03246275364315706
-0.005495607544483986,-0.03187030960357611
-0.005495267544483986,-0.02999423681156528
-0.005494927544483986,-0.02982966902279249
-0.005494587544483986,-0.03104747065970889
-0.005494247544483986,-0.02611043699652754
-0.005493907544483986,-0.0252217709371545
-0.005493567544483986,-0.02439893199329207
-0.005493227544483986,-0.02393814218472677
-0.005492887544483986,-0.02798650978853729
-0.005492547544483986,-0.02637374545856693
-0.005492207544483985,-0.02354317949167209
-0.005491867544483986,-0.02351026593391753
-0.005491527544483986,-0.02252285920128261
-0.005491187544483985,-0.02242411852801714
-0.005490847544483986,-0.02005434236968903
-0.005490507544483986,-0.02031765083172549
-0.005490167544483985,-0.01916567631031599
-0.005489827544483986,-0.01728960351830624
-0.005489487544483986,-0.0152489629375237
-0.005489147544483985,-0.01531479005303281
-0.005488807544483986,-0.01505148159099635
-0.005488467544483986,-0.01383367995407774
-0.005488127544483985,-0.01488691380222153
-0.005487787544483986,-0.01376785283856862
-0.005487447544483986,-0.01505148159099635
-0.005487107544483985,-0.01636802390117529
-0.005486767544483986,-0.01452486466692344
-0.005486427544483986,-0.01324123591449571
-0.005486087544483985,-0.01304375456796771
-0.005485747544483986,-0.01268170543266824
-0.005485407544483986,-0.01126642244922228
-0.005485067544483985,-0.01268170543266794
-0.005484727544483986,-0.01251713764389546
-0.005484387544483986,-0.01689464082525155
-0.005484047544483985,-0.01666424592096222
-0.005483707544483986,-0.01258296475940457
-0.005483367544483986,-0.01215508850859533
-0.005483027544483985,-0.01176012581554723
-0.005482687544483986,-0.01538061716854192
-0.005482347544483986,-0.01728960351830624
-0.005482007544483985,-0.01426155620488549
-0.005481667544483986,-0.01343871726102305
-0.005481327544483986,-0.01422864264713243
-0.005480987544483985,-0.01370202572305963
-0.005480647544483986,-0.01376785283856862
-0.005480307544483986,-0.01073980552514937
-0.005479967544483985,-0.01008153437005613
-0.005479627544483986,-0.008929559848648731
-0.005479287544483986,-0.009061214079666959
-0.005478947544483986,-0.009522003888229921
-0.005478607544483986,-0.01034484283209469
-0.005478267544483986,-0.01037775638984924
-0.005477927544483986,-0.01123350889146617
-0.005477587544483986,-0.01149681735350419
-0.005477247544483986,-0.009291608983948858
-0.005476907544483986,-0.009489090330475842
-0.005476567544483986,-0.009258695426194301
-0.005476227544483986,-0.008073807347030245
-0.005475887544483986,-0.006461043017059881
-0.005475547544483986,-0.006395215901547833
-0.005475207544483986,-0.008271288693557588
-0.005474867544483986,-0.006954746383377699
-0.005474527544483986,-0.007547190422957332
-0.005474187544483986,-0.008567510713348603
-0.005473847544483986,-0.01291210033694224
-0.005473507544483986,-0.008633337828857716
-0.005473167544483986,-0.007316795518675433
-0.005472827544483986,-0.004749538013824647
-0.005472487544483986,-0.004914105802592763
-0.005472147544483986,-0.009686571677003543
-0.005471807544483986,-0.01100311398718343
-0.005471467544483985,-0.008797905617630502
-0.005471127544483986,-0.01149681735350419
-0.005470787544483986,-0.01199052071982164
-0.005470447544483985,-0.01103602754494038
-0.005470107544483986,-0.01054232417862203
-0.005469767544483986,-0.006921832825620747
-0.005469427544483985,-0.008238375135803031
-0.005469087544483986,-0.01021318860107646
-0.005468747544483986,-0.008468770040084931
-0.005468407544483985,-0.009159954752930631
-0.005468067544483986,-0.009884053023530886
-0.005467727544483986,-0.008205461578048474
-0.005467387544483985,-0.007711758211730118
-0.005467047544483986,-0.008435856482330374
-0.005466707544483986,-0.008633337828857716
-0.005466367544483985,-0.008370029366819883
-0.005466027544483986,-0.007613017538466446
-0.005465687544483986,-0.007448449749693661
-0.005465347544483985,-0.005177414264631855
-0.005465007544483986,-0.006625610805829733
-0.005464667544483986,-0.00688891926786619
-0.005464327544483985,-0.006954746383375903
-0.005463987544483986,-0.007283881960920875
-0.005463647544483986,-0.01208926139308621
-0.005463307544483985,-0.01261587831714715
-0.005462967544483986,-0.006033166766247705
-0.005462627544483986,-0.006987659941129861
-0.005462287544483985,-0.004453315994034651
-0.005461947544483986,-0.007580103980711889
-0.005461607544483986,-0.01090437331392216
-0.005461267544483985,-0.007975066673764899
-0.005460927544483986,-0.007053487056638975
-0.005460587544483986,-0.008007980231521132
-0.005460247544483985,-0.008995386964157845
-0.005459907544483986,-0.008995386964157845
-0.005459567544483986,-0.009061214079666959
-0.005459227544483985,-0.00955491744598747
-0.005458887544483986,-0.01073980552514937
-0.005458547544483986,-0.01189178004655887
-0.005458207544483985,-0.01268170543266459
-0.005457867544483986,-0.01067397840964026
-0.005457527544483986,-0.01120059533371317
-0.005457187544483986,-0.01097020042943169
-0.005456847544483986,-0.008995386964157845
-0.005456507544483986,-0.007415536191939104
-0.005456167544483986,-0.007316795518675612
-0.005455827544483986,-0.005967339650738591
-0.005455487544483986,-0.004782451571574535
-0.005455147544483986,-0.005111587149119507
-0.005454807544483986,-0.003400082145883136
-0.005454467544483986,-0.003795044838937822
-0.005454127544483986,-0.003827958396692319
-0.005453787544483986,-0.003959612627710607
-0.005453447544483986,-0.003762131281183265
-0.005453107544483986,-0.008435856482321872
-0.005452767544483986,-0.006987659941129861
-0.005452427544483986,-0.001589836469382495
-0.005452087544483986,-0.004486229551778253
-0.005451747544483986,-0.003005119452828451
-0.005451407544483986,-0.006066080324002262
-0.005451067544483986,-0.01054232417861389
-0.005450727544483986,-0.009192868310685188
-0.005450387544483986,-0.008139634462539359
-0.005450047544483986,-0.009620744561491736
-0.005449707544483985,-0.01162847158452241
-0.005449367544483986,-0.01021318860107646
-0.005449027544483986,-0.01113476821820238
-0.005448687544483985,-0.01027901571658557
-0.005448347544483986,-0.009851139465776329
-0.005448007544483986,-0.009719485234758102
-0.005447667544483985,-0.01103602754494038
-0.005447327544483986,-0.009982793696794558
-0.005446987544483986,-0.009456176772721644
-0.005446647544483985,-0.01001570725454911
-0.005446307544483986,-0.009554917445985316
-0.005445967544483986,-0.009554917445985316
-0.005445627544483985,-0.008863732733139017
-0.005445287544483986,-0.008534597155594046
-0.005444947544483986,-0.007942153116012016
-0.005444607544483985,-0.007843412442746311
-0.005444267544483986,-0.006724351479093405
-0.005443927544483986,-0.004979932918101878
-0.005443587544483985,-0.006559783690317506
-0.005443247544483986,-0.004848278687083649
-0.005442907544483986,-0.005144500706874663
-0.005442567544483985,-0.00909412763741463
-0.005442227544483986,-0.005309068495647449
-0.005441887544483986,-0.0001416399281819828
-0.005441547544483985,-0.001293614449592379
-0.005441207544483986,-0.001787317815909838
-0.005440867544483986,-0.005605290515438462
-0.005440527544483985,-0.006098993881755202
-0.005440187544483986,-0.005210327822383777
-0.005439847544483986,-0.00586859897747492
-0.005439507544483985,-0.006329388786041532
-0.005439167544483986,-0.007876326000502903
-0.005438827544483986,-0.004453315994028964
-0.005438487544483985,-0.005605290515438702
-0.005438147544483986,-0.005736944746456691
-0.005437807544483986,-0.004716624456065421
-0.005437467544483985,-0.00606608032400352
-0.005437127544483986,-0.006757265036847961
-0.005436787544483986,-0.00860042427110316
-0.005436447544483986,-0.008732078502121149
-0.005436107544483986,-0.01083854619841304
-0.005435767544483986,-0.01090437331392216
-0.005435427544483986,-0.01139807668023961
-0.005435087544483986,-0.01185886648880431
-0.005434747544483986,-0.01172721225778608
-0.005434407544483986,-0.01090437331392365
-0.005434067544483986,-0.01027901571658557
-0.005433727544483986,-0.01014736148556734
-0.005433387544483986,-0.00922578186844142
-0.005433047544483986,-0.009489090330476201
-0.005432707544483986,-0.00869916494436683
-0.005432367544483986,-0.009225781868438787
-0.005432027544483986,-0.009061214079666959
-0.005431687544483986,-0.003498822819146808
-0.005431347544483986,-0.002379761855493902
-0.005431007544483986,-0.0009973924298004675
-0.005430667544483986,-0.005539463399929348
-0.005430327544483986,-0.008402942924570608
-0.005429987544483986,-0.006098993881756819
-0.005429647544483986,-0.005736944746456691
-0.005429307544483986,-0.007514276865199543
-0.005428967544483985,-0.00767884465397556
-0.005428627544483986,-0.009192868310685188
-0.005428287544483986,-0.007678844653978314
-0.005427947544483985,-0.008040893789275689
-0.005427607544483986,-0.009127041195176074
-0.005427267544483986,-0.00837002936682126
-0.005426927544483985,-0.008567510713348603
-0.005426587544483986,-0.008764992059875945
-0.005426247544483986,-0.009061214079666959
-0.005425907544483985,-0.007316795518675433
-0.005425567544483986,-0.00860042427110316
-0.005425227544483986,-0.002379761855491866
-0.005424887544483985,-0.009522003888230759
-0.005424547544483986,-0.008304202251312145
-0.005424207544483986,-0.008139634462539359
-0.005423867544483985,-0.007909239558257399
-0.005423527544483986,-0.007876326000502903
-0.005423187544483986,-0.008402942924575817
-0.005422847544483985,-0.005802771861966823
-0.005422507544483986,-0.006362302343793276
-0.005422167544483986,-0.007613017538466446
-0.005421827544483985,-0.009982793696796234
-0.005421487544483986,-0.01090437331392216
-0.005421147544483986,-0.006461043017056948
-0.005420807544483985,-0.006461043017053775
-0.005420467544483986,-0.004716624456065421
-0.005420127544483986,-0.007349709076429989
-0.005419787544483985,-0.008732078502114923
-0.005419447544483986,-0.00517741426462922
-0.005419107544483986,-0.00392669906995605
-0.005418767544483985,-0.004486229551784899
-0.005418427544483986,-0.005243241380138334
-0.005418087544483986,-0.004650797340556306
-0.005417747544483985,-0.003959612627711744
-0.005417407544483986,-0.004584970225047193
