Analysis/files/cmb03_d2s01/wrd12_ch11.csv

#Digilent WaveForms Oscilloscope Acquisition
#Device Name: ADP3450
#Serial Number: SN:210018B9D9B0
#Date Time: 2024-08-12 11:23:18.821.049.530
#Sample rate: 2.94118e+06Hz
#Samples: 32768
#Trigger: Source: Channel 3 Type: Edge Condition: Rising Level: 60 mV Hyst.: Auto HoldOff: 0 s
#Channel 3: Range: 200 mV/div Offset: 0 V Attenuation: 1 X Coupling: DC Bandwidth: 0 Hz Sample Mode: Average

Time (s),Channel 3 (V)
-0.005570228876276958,0.008053835952702737
-0.005569888876276958,0.00861336643452913
-0.005569548876276958,0.00802092239494818
-0.005569208876276958,0.00904124268533945
-0.005568868876276958,0.007329737682100206
-0.005568528876276958,0.00607902248742931
-0.005568188876276958,0.005420751332338168
-0.005567848876276957,0.005749886909880027
-0.005567508876276958,0.003709246329101199
-0.005567168876276958,0.004005468348892213
-0.005566828876276957,0.004400431041946479
-0.005566488876276958,0.004170036137664999
-0.005566148876276958,0.004499171715210569
-0.005565808876276957,0.004334603926431676
-0.005565468876276958,0.0009774210354729588
-0.005565128876276958,0.002063568441373343
-0.005564788876276957,0.006868947873535927
-0.005564448876276958,0.005354924216829054
-0.005564108876276958,0.004202949695419555
-0.005563768876276957,8.875497609159511e-05
-0.005563428876276958,-0.004486229551783521
-0.005563088876276958,-0.003465909261392251
-0.005562748876276958,-9.985697170040563e-06
-0.005562408876276958,-0.006790178594602518
-0.005562068876276958,-0.00962074456149443
-0.005561728876276958,-0.005210327822391799
-0.005561388876276958,-0.00392669906995605
-0.005561048876276958,-0.005210327822383777
-0.005560708876276958,-0.00363047705016791
-0.005560368876276958,-0.002972205895073894
-0.005560028876276958,-0.004881192244838206
-0.005559688876276958,-0.005012846475856195
-0.005559348876276958,-0.006263561670529605
-0.005559008876276958,-0.00869916494436683
-0.005558668876276958,-0.007481363307450433
-0.005558328876276958,-0.006691437921338847
-0.005557988876276958,-0.006592697248075176
-0.005557648876276958,-0.006559783690320679
-0.005557308876276958,-0.004058353300974278
-0.005556968876276958,-0.004716624456065421
-0.005556628876276958,-0.004222921089747962
-0.005556288876276958,-0.00336716858812858
-0.005555948876276958,-0.004749538013819977
-0.005555608876276958,-0.004321661763011513
-0.005555268876276958,-0.005605290515438462
-0.005554928876276958,-0.01067397840964026
-0.005554588876276958,-0.007152227729909052
-0.005554248876276958,-0.005111587149120106
-0.005553908876276958,-0.003729217723428708
-0.005553568876276958,-0.004190007531992507
-0.005553228876276958,-0.009225781868439744
-0.005552888876276958,-0.007744671769484675
-0.005552548876276958,-0.004486229551783521
-0.005552208876276958,-0.005111587149120106
-0.005551868876276958,-0.004190007531992507
-0.005551528876276958,-0.005012846475856435
-0.005551188876276958,-0.00530906849564697
-0.005550848876276958,-0.005045760033610991
-0.005550508876276958,-0.007613017538466446
-0.005550168876276958,-0.00692183282562446
-0.005549828876276958,-0.008962473406403288
-0.005549488876276958,-0.008468770040084931
-0.005549148876276958,-0.007942153116009742
-0.005548808876276958,-0.006691437921338847
-0.005548468876276958,-0.007349709076429989
-0.005548128876276958,-0.006592697248072841
-0.005547788876276958,-0.005309068495647449
-0.005547448876276958,-0.007185141287657204
-0.005547108876276957,-0.007152227729902347
-0.005546768876276958,-0.006987659941129861
-0.005546428876276958,-0.007415536191939104
-0.005546088876276957,-0.008468770040083673
-0.005545748876276958,-0.007777585327239231
-0.005545408876276958,-0.00790923955825746
-0.005545068876276957,-0.008468770040085231
-0.005544728876276958,-0.008633337828857716
-0.005544388876276958,-0.01212217495084077
-0.005544048876276957,-0.006526870132561811
-0.005543708876276958,-0.004190007531992507
-0.005543368876276958,-0.002939292337319337
-0.005543028876276957,-0.004716624456073263
-0.005542688876276958,-0.009028300521912402
-0.005542348876276958,-0.005341982053402005
-0.005542008876276958,-0.005111587149120525
-0.005541668876276958,-0.007086400614393532
-0.005541328876276958,-0.007316795518675433
-0.005540988876276958,-0.007481363307447918
-0.005540648876276958,-0.008238375135803031
-0.005540308876276958,-0.009982793696794558
-0.005539968876276958,-0.01156264446901042
-0.005539628876276958,-0.0113322495647314
-0.005539288876276958,-0.01027901571658557
-0.005538948876276958,-0.01024610215883108
-0.005538608876276958,-0.01034484283209469
-0.005538268876276958,-0.008830819175385059
-0.005537928876276958,-0.007876326000504639
-0.005537588876276958,-0.008534597155594046
-0.005537248876276958,-0.008238375135803031
-0.005536908876276958,-0.008567510713348004
-0.005536568876276958,-0.00962074456149443
-0.005536228876276958,-0.009423263214967087
-0.005535888876276958,-0.009159954752931109
-0.005535548876276958,-0.009719485234758102
-0.005535208876276958,-0.01129933600697684
-0.005534868876276958,-0.01027901571658743
-0.005534528876276958,-0.01169429870003153
-0.005534188876276958,-0.01551227139956015
-0.005533848876276958,-0.009752398792523136
-0.005533508876276958,-0.007283881960920875
-0.005533168876276958,-0.004617883782801749
-0.005532828876276958,-0.001688577142646167
-0.005532488876276958,-0.005638204073193019
-0.005532148876276958,-0.005309068495647449
-0.005531808876276958,-0.002149366951209966
-0.005531468876276958,-0.003169687241601236
-0.005531128876276958,-0.004749538013819977
-0.005530788876276958,-0.00517741426462922
-0.005530448876276958,-0.006000253208493148
-0.005530108876276958,-0.006724351479093405
-0.005529768876276958,-0.006263561670529605
-0.005529428876276958,-0.006592697248076493
-0.005529088876276958,-0.007316795518675433
-0.005528748876276958,-0.006856005710111633
-0.005528408876276958,-0.007382622634186402
-0.005528068876276958,-0.008402942924575817
-0.005527728876276958,-0.007415536191939104
-0.005527388876276958,-0.008402942924576894
-0.005527048876276958,-0.008995386964157845
-0.005526708876276958,-0.008896646290894173
-0.005526368876276957,-0.008468770040086128
-0.005526028876276958,-0.009127041195176074
-0.005525688876276958,-0.007810498884993789
-0.005525348876276957,-0.006888919267864812
-0.005525008876276958,-0.006131907439511376
-0.005524668876276958,-0.004749538013819977
-0.005524328876276957,-0.004321661763012592
-0.005523988876276958,-0.005341982053402005
-0.005523648876276958,-0.01136516312248596
-0.005523308876276957,-0.009587831003751787
-0.005522968876276958,-0.01613762899689674
-0.005522628876276958,-0.03907837875182304
-0.005522288876276957,-0.06228243696883525
-0.005521948876276958,-0.08946903567404998
-0.005521608876276958,-0.1204736070788428
-0.005521268876276957,-0.153979608873035
-0.005520928876276958,-0.1831739346012741
-0.005520588876276958,-0.2093072994583924
-0.005520248876276958,-0.2298782730549532
-0.005519908876276958,-0.244261497793732
-0.005519568876276958,-0.2546292684864175
-0.005519228876276958,-0.2585788954169572
-0.005518888876276958,-0.259500475034092
-0.005518548876276958,-0.2515024804997346
-0.005518208876276958,-0.2520620109815611
-0.005517868876276958,-0.2440640164472047
-0.005517528876276958,-0.2375471320118024
-0.005517188876276958,-0.2280680273785072
-0.005516848876276958,-0.2201029464018871
-0.005516508876276958,-0.2128948772536391
-0.005516168876276958,-0.2071350046466021
-0.005515828876276958,-0.2001573304026255
-0.005515488876276958,-0.1944632849110872
-0.005515148876276958,-0.1886704987462957
-0.005514808876276958,-0.18198904652211
-0.005514468876276958,-0.1777431975717721
-0.005514128876276958,-0.1710288317898547
-0.005513788876276958,-0.1625371338891668
-0.005513448876276958,-0.1575013595527195
-0.005513108876276958,-0.1543087444505333
-0.005512768876276958,-0.1429206534674507
-0.005512428876276958,-0.1393989027877131
-0.005512088876276958,-0.1328491047945562
-0.005511748876276958,-0.1312363404645829
-0.005511408876276958,-0.1306768099827555
-0.005511068876276958,-0.1234029137189983
-0.005510728876276958,-0.1163264988017686
-0.005510388876276958,-0.1132326243728402
-0.005510048876276958,-0.110797021099003
-0.005509708876276958,-0.1046750993566554
-0.005509368876276958,-0.1004292504063175
-0.005509028876276958,-0.09855317761430774
-0.005508688876276958,-0.09529473539660173
-0.005508348876276958,-0.09262873721848747
-0.005508008876276958,-0.08933738144303174
-0.005507668876276958,-0.08762587643978818
-0.005507328876276958,-0.0840053850867935
-0.005506988876276958,-0.08219513941029286
-0.005506648876276958,-0.07841008026851226
-0.005506308876276958,-0.07482250247327205
-0.005505968876276958,-0.07337430593207156
-0.005505628876276958,-0.07199193650637517
-0.005505288876276958,-0.06926011121275191
-0.005504948876276958,-0.06567253341750517
-0.005504608876276957,-0.06573836053300675
-0.005504268876276958,-0.0615912522559401
-0.005503928876276958,-0.0606696726388125
-0.005503588876276957,-0.0585961185002729
-0.005503248876276958,-0.05721374907458401
-0.005502908876276958,-0.06057093196554883
-0.005502568876276957,-0.05408696108789425
-0.005502228876276958,-0.05033481550388157
-0.005501888876276958,-0.04589148520701637
-0.005501548876276957,-0.04668141059312658
-0.005501208876276958,-0.04714220040168953
-0.005500868876276958,-0.045397781840698
-0.005500528876276957,-0.04088862442832279
-0.005500188876276958,-0.04039492106200532
-0.005499848876276958,-0.0402632668309871
-0.005499508876276958,-0.04085571087056805
-0.005499168876276958,-0.03993413125344152
-0.005498828876276958,-0.03753144153735886
-0.005498488876276958,-0.03888089740529324
-0.005498148876276958,-0.03766309576837708
-0.005497808876276958,-0.03595159076514012
-0.005497468876276958,-0.03509583826352319
-0.005497128876276958,-0.03391095018435757
-0.005496788876276958,-0.03236401296989339
-0.005496448876276958,-0.03203487739234841
-0.005496108876276958,-0.03140951979501123
-0.005495768876276958,-0.02818399113506464
-0.005495428876276958,-0.02917139786769955
-0.005495088876276958,-0.02838147248159198
-0.005494748876276958,-0.0256825607457183
-0.005494408876276958,-0.02433310487778391
-0.005494068876276958,-0.0249913760328726
-0.005493728876276958,-0.02423436420451779
-0.005493388876276958,-0.02308238968311038
-0.005493048876276958,-0.02387231506921766
-0.005492708876276958,-0.02571547430347286
-0.005492368876276958,-0.02663705392059878
-0.005492028876276958,-0.01959355256112523
-0.005491688876276958,-0.01709212217177889
-0.005491348876276958,-0.01419572908938314
-0.005491008876276958,-0.01692755438300611
-0.005490668876276958,-0.01936315765684333
-0.005490328876276958,-0.01505148159099635
-0.005489988876276958,-0.01403116130060508
-0.005489648876276958,-0.01468943245569622
-0.005489308876276958,-0.01570975274608749
-0.005488968876276958,-0.01564392563057838
-0.005488628876276958,-0.01580849341935116
-0.005488288876276958,-0.01495274091773268
-0.005487948876276958,-0.01692755438300509
-0.005487608876276958,-0.01636802390117864
-0.005487268876276958,-0.01653259168995142
-0.005486928876276958,-0.01617054255465129
-0.005486588876276958,-0.01617054255465129
-0.005486248876276958,-0.01449195110916888
-0.005485908876276958,-0.01264879187491278
-0.005485568876276958,-0.01215508850859533
-0.005485228876276958,-0.01037775638984924
-0.005484888876276958,-0.01090437331392575
-0.005484548876276958,-0.01287918677919558
-0.005484208876276958,-0.01324123591449571
-0.005483868876276957,-0.01498565447549209
-0.005483528876276958,-0.01765165265360636
-0.005483188876276958,-0.01893528140603409
-0.005482848876276957,-0.01775039332687345
-0.005482508876276958,-0.01962646611887979
-0.005482168876276958,-0.02318113035637196
-0.005481828876276957,-0.01669715947872103
-0.005481488876276958,-0.01495274091773268
-0.005481148876276958,-0.01333997658775938
-0.005480808876276957,-0.01284627322144839
-0.005480468876276958,-0.01689464082525155
-0.005480128876276958,-0.01715794928728801
-0.005479788876276957,-0.01327414947224979
-0.005479448876276958,-0.01301084101021381
-0.005479108876276958,-0.01462360534018711
-0.005478768876276958,-0.01333997658776172
-0.005478428876276958,-0.0129450138947047
-0.005478088876276958,-0.01426155620488698
-0.005477748876276958,-0.01439321043590497
-0.005477408876276958,-0.01357037149204128
-0.005477068876276958,-0.01475525957120534
-0.005476728876276958,-0.01245131052839053
-0.005476388876276958,-0.01001570725454911
-0.005476048876276958,-0.009423263214967087
-0.005475708876276958,-0.007349709076433762
-0.005475368876276958,-0.005671117630947577
-0.005475028876276958,-0.006362302343793276
-0.005474688876276958,-0.005769858304212326
-0.005474348876276958,-0.001227787334082367
-0.005474008876276958,-0.008304202251312145
-0.005473668876276958,-0.01018027504331849
-0.005473328876276958,-0.008732078502121389
-0.005472988876276958,-0.009258695426194301
-0.005472648876276958,-0.009982793696793241
-0.005472308876276958,-0.008633337828857716
-0.005471968876276958,-0.01047649706311291
-0.005471628876276958,-0.01429446976263459
-0.005471288876276958,-0.006000253208493148
-0.005470948876276958,-0.006131907439511376
-0.005470608876276958,-0.005440722726666933
-0.005470268876276958,-0.006461043017056948
-0.005469928876276958,-0.01021318860107646
-0.005469588876276958,-0.01024610215883101
-0.005469248876276958,-0.008205461578048474
-0.005468908876276958,-0.009719485234758102
-0.005468568876276958,-0.01245131052838634
-0.005468228876276958,-0.01097020042943127
-0.005467888876276958,-0.01136516312248596
-0.005467548876276958,-0.01327414947225027
-0.005467208876276958,-0.01241839697063178
-0.005466868876276958,-0.01185886648880431
-0.005466528876276958,-0.01080563264065849
-0.005466188876276958,-0.009719485234754389
-0.005465848876276958,-0.00767884465397556
-0.005465508876276958,-0.009686571677003543
-0.005465168876276958,-0.008106720904782946
-0.005464828876276958,-0.007086400614393532
-0.005464488876276958,-0.009159954752930631
-0.005464148876276958,-0.01004862081230439
-0.005463808876276958,-0.01044358350535836
-0.005463468876276958,-0.01106894110269494
-0.005463128876276958,-0.01218800206634761
-0.005462788876276958,-0.01093728687167671
-0.005462448876276958,-0.01189178004655887
-0.005462108876276957,-0.01113476821820112
-0.005461768876276958,-0.009522003888230759
-0.005461428876276958,-0.01166138514227697
-0.005461088876276957,-0.01357037149202763
-0.005460748876276958,-0.006066080324002262
-0.005460408876276958,-0.005374895611156563
-0.005460068876276957,-0.006296475228285778
-0.005459728876276958,-0.007185141287657204
-0.005459388876276958,-0.01047649706311291
-0.005459048876276957,-0.009522003888229682
-0.005458708876276958,-0.008929559848648731
-0.005458368876276958,-0.01047649706311291
-0.005458028876276957,-0.011595558026766
-0.005457688876276958,-0.01057523773637659
-0.005457348876276958,-0.01008153437005823
-0.005457008876276958,-0.01110185466044764
-0.005456668876276958,-0.01073980552514937
-0.005456328876276958,-0.009785312350267215
-0.005455988876276958,-0.01008153437005769
-0.005455648876276958,-0.01008153437005823
-0.005455308876276958,-0.008764992059875945
-0.005454968876276958,-0.009225781868438906
-0.005454628876276958,-0.00939034965721253
-0.005454288876276958,-0.00790923955825746
-0.005453948876276958,-0.008040893789275449
-0.005453608876276958,-0.009028300521912402
-0.005453268876276958,-0.009258695426194301
-0.005452928876276958,-0.008238375135804887
-0.005452588876276958,-0.009653658119248986
-0.005452248876276958,-0.008468770040084931
-0.005451908876276958,-0.009225781868438367
-0.005451568876276958,-0.009522003888230759
-0.005451228876276958,-0.009653658119248986
-0.005450888876276958,-0.01376785283856114
-0.005450548876276958,-0.009489090330476201
-0.005450208876276958,-0.006757265036847961
-0.005449868876276958,-0.005407809168913575
-0.005449528876276958,-0.006164820997265934
-0.005449188876276958,-0.008896646290894173
-0.005448848876276958,-0.009423263214966129
-0.005448508876276958,-0.008238375135803031
-0.005448168876276958,-0.008271288693557588
-0.005447828876276958,-0.009884053023530886
-0.005447488876276958,-0.009258695426194301
-0.005447148876276958,-0.008830819175385059
-0.005446808876276958,-0.007382622634184546
-0.005446468876276958,-0.009423263214967087
-0.005446128876276958,-0.008896646290894173
-0.005445788876276958,-0.008172548020293918
-0.005445448876276958,-0.008732078502122287
-0.005445108876276958,-0.009225781868439744
-0.005444768876276958,-0.007975066673766575
-0.005444428876276958,-0.00662561080583135
-0.005444088876276958,-0.007514276865202775
-0.005443748876276958,-0.005901512535229476
-0.005443408876276958,-0.007119314172150126
-0.005443068876276958,-0.008238375135803031
-0.005442728876276958,-0.007349709076429989
-0.005442388876276958,-0.007020573498884239
-0.005442048876276958,-0.006921832825620747
-0.005441708876276958,-0.007283881960920875
-0.005441368876276957,-0.006461043017057666
-0.005441028876276958,-0.006856005710111633
-0.005440688876276958,-0.006428129459302391
-0.005440348876276957,-0.01011444792780788
-0.005440008876276958,-0.007415536191939104
-0.005439668876276958,-0.004749538013819977
-0.005439328876276957,-0.004255834647501621
-0.005438988876276958,-0.004255834647501621
-0.005438648876276958,-0.008764992059875945
-0.005438308876276957,-0.01037775638984182
-0.005437968876276958,-0.006296475228284162
-0.005437628876276958,-0.005901512535229476
-0.005437288876276957,-0.007283881960922911
-0.005436948876276958,-0.008402942924575817
-0.005436608876276958,-0.009159954752930631
-0.005436268876276958,-0.008732078502122168
-0.005435928876276958,-0.01050941062086747
-0.005435588876276958,-0.0108714597561676
-0.005435248876276958,-0.009554917445987712
-0.005434908876276958,-0.008929559848648731
-0.005434568876276958,-0.008567510713348603
-0.005434228876276958,-0.007086400614396226
-0.005433888876276958,-0.006724351479093405
-0.005433548876276958,-0.008271288693557588
-0.005433208876276958,-0.005967339650742781
-0.005432868876276958,-0.00711931417214809
-0.005432528876276958,-0.008764992059875945
-0.005432188876276958,-0.008106720904785999
-0.005431848876276958,-0.007218054845411761
-0.005431508876276958,-0.008040893789275689
-0.005431168876276958,-0.008962473406401612
-0.005430828876276958,-0.008304202251312145
-0.005430488876276958,-0.009159954752930631
-0.005430148876276958,-0.008402942924577194
-0.005429808876276958,-0.01475525957120534
-0.005429468876276958,-0.01103602754494038
-0.005429128876276958,-0.009851139465778484
-0.005428788876276958,-0.006724351479093405
-0.005428448876276958,-0.008205461578048474
-0.005428108876276958,-0.01172721225777968
-0.005427768876276958,-0.008205461578048474
-0.005427428876276958,-0.008007980231521132
-0.005427088876276958,-0.01031192927434013
-0.005426748876276958,-0.01073980552514937
-0.005426408876276958,-0.01251713764389546
-0.005426068876276958,-0.01278044610593191
-0.005425728876276958,-0.0111018546604495
-0.005425388876276958,-0.0111018546604495
-0.005425048876276958,-0.01103602754494038
-0.005424708876276958,-0.01004862081230367
-0.005424368876276958,-0.008666251386612273
-0.005424028876276958,-0.009258695426194301
-0.005423688876276958,-0.009752398792510324
-0.005423348876276958,-0.008468770040084931
-0.005423008876276958,-0.008666251386612273
-0.005422668876276958,-0.008007980231522209
-0.005422328876276958,-0.00860042427110316
-0.005421988876276958,-0.008666251386612273
-0.005421648876276958,-0.008600424271100107
-0.005421308876276958,-0.006921832825620747
-0.005420968876276958,-0.008040893789275689
-0.005420628876276957,-0.009061214079667318
-0.005420288876276958,-0.009258695426194301
-0.005419948876276958,-0.008797905617630502
-0.005419608876276957,-0.01386659351182769
-0.005419268876276958,-0.0113322495647314
-0.005418928876276958,-0.007547190422957332
-0.005418588876276957,-0.006823092152352945
-0.005418248876276958,-0.004552056667292635
-0.005417908876276958,-0.009291608983948858
-0.005417568876276957,-0.01294501389469949
-0.005417228876276958,-0.01008153437005823
