Analysis/files/cmb03_d2s01/wrd10_ch36.csv

#Digilent WaveForms Oscilloscope Acquisition
#Device Name: ADP3450
#Serial Number: SN:210018B9D9B0
#Date Time: 2024-08-09 17:25:13.166.152.800
#Sample rate: 2.94118e+06Hz
#Samples: 32768
#Trigger: Source: Channel 3 Type: Edge Condition: Rising Level: 60 mV Hyst.: Auto HoldOff: 0 s
#Channel 3: Range: 200 mV/div Offset: 0 V Attenuation: 1 X Coupling: DC Bandwidth: 0 Hz Sample Mode: Average

Time (s),Channel 3 (V)
-0.005570480666666667,0.004663739503983355
-0.005570140666666667,0.003544678540330449
-0.005569800666666667,0.004663739503983355
-0.005569460666666667,0.005486578447847282
-0.005569120666666667,0.005091615754793256
-0.005568780666666667,0.005453664890092726
-0.005568440666666667,0.004663739503983355
-0.005568100666666667,0.001997741325860457
-0.005567760666666667,-7.581281267286857e-05
-0.005567420666666667,-0.00142526868060971
-0.005567080666666667,0.0003191498803758298
-0.005566740666666667,-0.002972205895073894
-0.005566400666666667,-0.004321661763010735
-0.005566060666666667,-0.002807638106302965
-0.005565720666666667,-0.003827958396692379
-0.005565380666666667,-0.00494701936034732
-0.005565040666666667,-0.006790178594600662
-0.005564700666666667,-0.005769858304211248
-0.005564360666666667,-0.005605290515438462
-0.005564020666666667,-0.004288748205256238
-0.005563680666666667,-0.004321661763010735
-0.005563340666666667,-0.005835685419720362
-0.005563000666666667,-0.002346848297743655
-0.005562660666666667,-0.002313934739982752
-0.005562320666666667,-0.004058353300974278
-0.005561980666666667,-0.006724351479088555
-0.005561640666666667,-0.008666251386612273
-0.005561300666666667,-0.003531736376901365
-0.005560960666666667,-0.003498822819146867
-0.005560620666666667,-0.003564649934655922
-0.005560280666666667,-0.007975066673766575
-0.005559940666666667,-0.01024610215882688
-0.005559600666666667,-0.008205461578048474
-0.005559260666666667,-0.008797905617630502
-0.005558920666666667,-0.01024610215882838
-0.005558580666666667,-0.01021318860107646
-0.005558240666666667,-0.01021318860107646
-0.005557900666666667,-0.009489090330477517
-0.005557560666666667,-0.008402942924575817
-0.005557220666666667,-0.007777585327239231
-0.005556880666666667,-0.007283881960921773
-0.005556540666666667,-0.007349709076429989
-0.005556200666666667,-0.007876326000502903
-0.005555860666666667,-0.00899538696415581
-0.005555520666666667,-0.008106720904784802
-0.005555180666666667,-0.008007980231521132
-0.005554840666666667,-0.009094127637419539
-0.005554500666666667,-0.009423263214967087
-0.005554160666666667,-0.009554917445985316
-0.005553820666666667,-0.009851139465776329
-0.005553480666666667,-0.01080563264065849
-0.005553140666666667,-0.01162847158452241
-0.005552800666666667,-0.01208926139308621
-0.005552460666666667,-0.0106410648518857
-0.005552120666666667,-0.01070689196739481
-0.005551780666666667,-0.01208926139308621
-0.005551440666666667,-0.01557809851506495
-0.005551100666666667,-0.01320832235674115
-0.005550760666666667,-0.009291608983948858
-0.005550420666666667,-0.009884053023530168
-0.005550080666666667,-0.009489090330476201
-0.005549740666666667,-0.01389950706958685
-0.005549400666666667,-0.01617054255464441
-0.005549060666666667,-0.01238548341287723
-0.005548720666666667,-0.01274753254817735
-0.005548380666666667,-0.0135045443765278
-0.005548040666666667,-0.0111018546604495
-0.005547700666666667,-0.01080563264065849
-0.005547360666666667,-0.01047649706311154
-0.005547020666666667,-0.009719485234758102
-0.005546680666666667,-0.009127041195176074
-0.005546340666666667,-0.01113476821820292
-0.005546000666666667,-0.01050941062086747
-0.005545660666666667,-0.01205634783533165
-0.005545320666666667,-0.01268170543266579
-0.005544980666666667,-0.0113322495647314
-0.005544640666666667,-0.0111018546604495
-0.005544300666666667,-0.01195760716206858
-0.005543960666666667,-0.01228674273961356
-0.005543620666666667,-0.01120059533371317
-0.005543280666666667,-0.01208926139308526
-0.005542940666666667,-0.0115626444690133
-0.005542600666666667,-0.0129450138947047
-0.005542260666666667,-0.01380076639632163
-0.005541920666666667,-0.01324123591449571
-0.005541580666666667,-0.0150185680332418
-0.005541240666666667,-0.01547935784180476
-0.005540900666666667,-0.02150253891088955
-0.005540560666666667,-0.01301084101021381
-0.005540220666666667,-0.0131095816834773
-0.005539880666666667,-0.01172721225778608
-0.005539540666666667,-0.01199052071982254
-0.005539200666666667,-0.01498565447548179
-0.005538860666666667,-0.0129450138947047
-0.005538520666666667,-0.009094127637421515
-0.005538180666666667,-0.01034484283209241
-0.005537840666666667,-0.007876326000502903
-0.005537500666666667,-0.00711931417214809
-0.005537160666666667,-0.01031192927433432
-0.005536820666666667,-0.012253829181859
-0.005536480666666667,-0.01327414947225027
-0.005536140666666667,-0.0116942987000344
-0.005535800666666667,-0.01307666812572293
-0.005535460666666667,-0.01215508850859533
-0.005535120666666667,-0.01166138514227787
-0.005534780666666667,-0.01172721225778608
-0.005534440666666667,-0.01067397840964026
-0.005534100666666667,-0.01195760716206565
-0.005533760666666667,-0.01278044610593191
-0.005533420666666667,-0.01439321043590521
-0.005533080666666667,-0.01343871726102305
-0.005532740666666667,-0.01541353072629648
-0.005532400666666667,-0.0159401476503694
-0.005532060666666667,-0.01518313582201458
-0.005531720666666667,-0.01459069178243255
-0.005531380666666667,-0.01416281553162331
-0.005531040666666667,-0.01561101207282382
-0.005530700666666667,-0.01705920861402434
-0.005530360666666667,-0.01903402207929776
-0.005530020666666667,-0.01080563264065849
-0.005529680666666667,-0.01179303937329017
-0.005529340666666667,-0.009028300521912402
-0.005529000666666667,-0.00860042427110316
-0.005528660666666667,-0.01202343427757434
-0.005528320666666667,-0.01050941062086747
-0.005527980666666667,-0.009587831003739873
-0.005527640666666667,-0.01103602754494667
-0.005527300666666667,-0.01449195110916888
-0.005526960666666667,-0.01215508850859533
-0.005526620666666667,-0.01320832235674403
-0.005526280666666667,-0.01478817312895989
-0.005525940666666667,-0.01347163081877761
-0.005525600666666667,-0.01222091562410468
-0.005525260666666667,-0.01235256985512267
-0.005524920666666667,-0.01182595293104976
-0.005524580666666667,-0.01100311398718702
-0.005524240666666667,-0.01166138514227697
-0.005523900666666667,-0.01129933600697684
-0.005523560666666667,-0.0143602968781634
-0.005523220666666667,-0.02137088467987132
-0.005522880666666667,-0.03213361806561149
-0.005522540666666667,-0.04882079184721744
-0.005522200666666667,-0.07383509574063535
-0.005521860666666667,-0.1019432740630271
-0.005521520666666667,-0.1327832776791053
-0.005521180666666667,-0.1647752558164766
-0.005520840666666667,-0.1939037544292597
-0.005520500666666667,-0.2222094140981273
-0.005520160666666667,-0.2480465569355061
-0.005519820666666667,-0.2588751174367554
-0.005519480666666667,-0.2654907425454093
-0.005519140666666667,-0.2722709354428601
-0.005518800666666667,-0.2739824404460971
-0.005518460666666667,-0.275298982756277
-0.005518120666666667,-0.2720405405385782
-0.005517780666666667,-0.2662477543737762
-0.005517440666666667,-0.2607182766710207
-0.005517100666666667,-0.2532468990607262
-0.005516760666666667,-0.2458084350081962
-0.005516420666666667,-0.235868540566338
-0.005516080666666667,-0.2285617307448083
-0.005515740666666667,-0.221452402269824
-0.005515400666666667,-0.2107225824418579
-0.005515060666666667,-0.2055222403166183
-0.005514720666666667,-0.1977217271287883
-0.005514380666666667,-0.1922580765415418
-0.005514040666666667,-0.1841942548916653
-0.005513700666666667,-0.1781381602648268
-0.005513360666666667,-0.1718845842914724
-0.005513020666666667,-0.1659601438956407
-0.005512680666666667,-0.1607927153281752
-0.005512340666666667,-0.1547366207013367
-0.005512000666666667,-0.1496350192493804
-0.005511660666666667,-0.1447638127017059
-0.005511320666666667,-0.1414395433684957
-0.005510980666666667,-0.135021399606357
-0.005510640666666667,-0.1304793286362281
-0.005510300666666667,-0.1254435542997809
-0.005509960666666667,-0.1219547171777979
-0.005509620666666667,-0.1229421239104345
-0.005509280666666667,-0.1123439583134672
-0.005508940666666667,-0.1072094433037518
-0.005508600666666667,-0.104773840029919
-0.005508260666666667,-0.1036876926240186
-0.005507920666666667,-0.1031939892576924
-0.005507580666666667,-0.09884939963409875
-0.005507240666666667,-0.0947352049147791
-0.005506900666666667,-0.09065392375321264
-0.005506560666666667,-0.08989691192485921
-0.005506220666666667,-0.08647390191838528
-0.005505880666666667,-0.08189891739049825
-0.005505540666666667,-0.07992410392522842
-0.005505200666666667,-0.07752141420914574
-0.005504860666666667,-0.07436171266470556
-0.005504520666666667,-0.07288060256575318
-0.005504180666666667,-0.0712678382357799
-0.005503840666666667,-0.06929302477050013
-0.005503500666666667,-0.06580418764852342
-0.005503160666666667,-0.06415850976079557
-0.005502820666666667,-0.06208495562225499
-0.005502480666666667,-0.06017596927249415
-0.005502140666666667,-0.05846446426925718
-0.005501800666666667,-0.05655547791948855
-0.005501460666666667,-0.05418570176116475
-0.005501120666666667,-0.0525400238734369
-0.005500780666666667,-0.04964363079103192
-0.005500440666666667,-0.04747133597923511
-0.005500100666666667,-0.04496990558988876
-0.005499760666666667,-0.04510155982090675
-0.005499420666666667,-0.04496990558988876
-0.005499080666666667,-0.04720802751719864
-0.005498740666666667,-0.04029618038875422
-0.005498400666666667,-0.03881507028978658
-0.005498060666666667,-0.03641238057370391
-0.005497720666666667,-0.03726813307532085
-0.005497380666666667,-0.03901255163631392
-0.005497040666666667,-0.03660986192023126
-0.005496700666666667,-0.03430591287741645
-0.005496360666666667,-0.03532623316780353
-0.005496020666666667,-0.03368055528007567
-0.005495680666666667,-0.03328559258702171
-0.005495340666666667,-0.03321976547151188
-0.005495000666666667,-0.03321976547151188
-0.005494660666666667,-0.02973092834953517
-0.005494320666666667,-0.03124495200623845
-0.005493980666666667,-0.03163991469929314
-0.005493640666666667,-0.03275897566294604
-0.005493300666666667,-0.03266023498968441
-0.005492960666666667,-0.03006006392707439
-0.005492620666666667,-0.03035628594686487
-0.005492280666666667,-0.02864478094362844
-0.005491940666666667,-0.02719658440242792
-0.005491600666666667,-0.02505720314838561
-0.005491260666666667,-0.02364192016493576
-0.005490920666666667,-0.02229246429699892
-0.005490580666666667,-0.02225955073924436
-0.005490240666666667,-0.02321404391412651
-0.005489900666666667,-0.0210746626600803
-0.005489560666666667,-0.02193041516169879
-0.005489220666666667,-0.021765847372926
-0.005488880666666667,-0.02574838786122741
-0.005488540666666667,-0.02189750160394423
-0.005488200666666667,-0.01686172726749604
-0.005487860666666667,-0.01633511034342408
-0.005487520666666667,-0.01426155620488698
-0.005487180666666667,-0.01610471543914841
-0.005486840666666667,-0.01952772544561612
-0.005486500666666667,-0.01758582553809725
-0.005486160666666667,-0.01906693563705705
-0.005485820666666667,-0.02166710669966233
-0.005485480666666667,-0.02143671179538043
-0.005485140666666667,-0.02166710669966335
-0.005484800666666667,-0.0222266371814898
-0.005484460666666667,-0.02166710669966233
-0.005484120666666667,-0.01982394746540791
-0.005483780666666667,-0.02025182371621638
-0.005483440666666667,-0.01893528140603409
-0.005483100666666667,-0.0179478746733978
-0.005482760666666667,-0.01817826957767928
-0.005482420666666667,-0.01531479005303281
-0.005482080666666667,-0.01412990197386792
-0.005481740666666667,-0.01366911216530495
-0.005481400666666667,-0.01531479005303281
-0.005481060666666667,-0.01396533418509746
-0.005480720666666667,-0.01478817312895989
-0.005480380666666667,-0.01610471543914218
-0.005480040666666667,-0.01679590015199051
-0.005479700666666667,-0.01824409669318839
-0.005479360666666667,-0.01557809851506927
-0.005479020666666667,-0.01570975274608725
-0.005478680666666667,-0.01439321043590521
-0.005478340666666667,-0.01952772544561612
-0.005478000666666667,-0.01419572908938757
-0.005477660666666667,-0.00860042427110316
-0.005477320666666667,-0.01452486466692344
-0.005476980666666667,-0.01584140697710333
-0.005476640666666667,-0.01268170543266824
-0.005476300666666667,-0.01350454437653217
-0.005475960666666667,-0.01505148159099354
-0.005475620666666667,-0.01528187649527825
-0.005475280666666667,-0.01508439514875091
-0.005474940666666667,-0.01324123591449907
-0.005474600666666667,-0.01376785283856862
-0.005474260666666667,-0.01505148159099635
-0.005473920666666667,-0.01343871726102599
-0.005473580666666667,-0.01284627322144103
-0.005473240666666667,-0.01231965629736811
-0.005472900666666667,-0.01218800206635012
-0.005472560666666667,-0.01027901571658557
-0.005472220666666667,-0.009982793696794558
-0.005471880666666667,-0.008830819175387155
-0.005471540666666667,-0.009357436099457973
-0.005471200666666667,-0.01189178004655887
-0.005470860666666667,-0.01090437331392395
-0.005470520666666667,-0.01268170543266824
-0.005470180666666667,-0.01307666812572293
-0.005469840666666667,-0.014557778224678
-0.005469500666666667,-0.01301084101021381
-0.005469160666666667,-0.01429446976264154
-0.005468820666666667,-0.01268170543266824
-0.005468480666666667,-0.01324123591449571
-0.005468140666666667,-0.01452486466692344
-0.005467800666666667,-0.01475525957120534
-0.005467460666666667,-0.0127146189904228
-0.005467120666666667,-0.01310958168347748
-0.005466780666666667,-0.01205634783533165
-0.005466440666666667,-0.01561101207283029
-0.005466100666666667,-0.01916567631031599
-0.005465760666666667,-0.01656550524770598
-0.005465420666666667,-0.01528187649527927
-0.005465080666666667,-0.01584140697710572
-0.005464740666666667,-0.01630219678566952
-0.005464400666666667,-0.01449195110916649
-0.005464060666666667,-0.0131754087989866
-0.005463720666666667,-0.01478817312895989
-0.005463380666666667,-0.01406407485835521
-0.005463040666666667,-0.01162847158452241
-0.005462700666666667,-0.01189178004655887
-0.005462360666666667,-0.01281335966368677
-0.005462020666666667,-0.01297792745245925
-0.005461680666666667,-0.01343871726102305
-0.005461340666666667,-0.01251713764389707
-0.005461000666666667,-0.0134058037032685
-0.005460660666666667,-0.01320832235674115
-0.005460320666666667,-0.01179303937329203
-0.005459980666666667,-0.01004862081230367
-0.005459640666666667,-0.009522003888230759
-0.005459300666666667,-0.01011444792781123
-0.005458960666666667,-0.009258695426194301
-0.005458620666666667,-0.009061214079666959
-0.005458280666666667,-0.01024610215883287
-0.005457940666666667,-0.01126642244922228
-0.005457600666666667,-0.01610471543914218
-0.005457260666666667,-0.01027901571659617
-0.005456920666666667,-0.009127041195176074
-0.005456580666666667,-0.008205461578048474
-0.005456240666666667,-0.009390349657210376
-0.005455900666666667,-0.01222091562410444
-0.005455560666666667,-0.01166138514227697
-0.005455220666666667,-0.008863732733144704
-0.005454880666666667,-0.01103602754494038
-0.005454540666666667,-0.009851139465776329
-0.005454200666666667,-0.01037775638984829
-0.005453860666666667,-0.01070689196739481
-0.005453520666666667,-0.008995386964157845
-0.005453180666666667,-0.01212217495083508
-0.005452840666666667,-0.01185886648880431
-0.005452500666666667,-0.01333997658775938
-0.005452160666666667,-0.01623636967015514
-0.005451820666666667,-0.01768456621136092
-0.005451480666666667,-0.01376785283856862
-0.005451140666666667,-0.0200543423696776
-0.005450800666666667,-0.01867197294399764
-0.005450460666666667,-0.01709212217177889
-0.005450120666666667,-0.0169933814985154
-0.005449780666666667,-0.01676298659423332
-0.005449440666666667,-0.01508439514875091
-0.005449100666666667,-0.01436029687815197
-0.005448760666666667,-0.01406407485835964
-0.005448420666666667,-0.0129450138947047
-0.005448080666666667,-0.01192469360431343
-0.005447740666666667,-0.01169429870003153
-0.005447400666666667,-0.01307666812572293
-0.005447060666666667,-0.01468943245569622
-0.005446720666666667,-0.008732078502121389
-0.005446380666666667,-0.007020573498884419
-0.005446040666666667,-0.005440722726665677
-0.005445700666666667,-0.007777585327247553
-0.005445360666666667,-0.01235256985512267
-0.005445020666666667,-0.01080563264065849
-0.005444680666666667,-0.009620744561494669
-0.005444340666666667,-0.009752398792512659
-0.005444000666666667,-0.008633337828857716
-0.005443660666666667,-0.008995386964160959
-0.005443320666666667,-0.01070689196739481
-0.005442980666666667,-0.0104106699476038
-0.005442640666666667,-0.01136516312248847
-0.005442300666666667,-0.01274753254817735
-0.005441960666666667,-0.01495274091773268
-0.005441620666666667,-0.01462360534018879
-0.005441280666666667,-0.01554518495731471
-0.005440940666666667,-0.01366911216530495
-0.005440600666666667,-0.01442612399366097
-0.005440260666666667,-0.01508439514875091
-0.005439920666666667,-0.01452486466692344
-0.005439580666666667,-0.01412990197386947
-0.005439240666666667,-0.01452486466692344
-0.005438900666666667,-0.01393242062734141
-0.005438560666666667,-0.01310958168347718
-0.005438220666666667,-0.0129450138947047
-0.005437880666666667,-0.01106894110269494
-0.005437540666666667,-0.01093728687167719
-0.005437200666666667,-0.01120059533371317
-0.005436860666666667,-0.01515022226426002
-0.005436520666666667,-0.0118917800465648
-0.005436180666666667,-0.008468770040084931
-0.005435840666666667,-0.009719485234758102
-0.005435500666666667,-0.008172548020296731
-0.005435160666666667,-0.0131754087989866
-0.005434820666666667,-0.01459069178243255
-0.005434480666666667,-0.01070689196740188
-0.005434140666666667,-0.01146390379574963
-0.005433800666666667,-0.01366911216530495
-0.005433460666666667,-0.01238548341287956
-0.005433120666666667,-0.01205634783533165
-0.005432780666666667,-0.01337289014551394
-0.005432440666666667,-0.01422864264713087
-0.005432100666666667,-0.01251713764389546
-0.005431760666666667,-0.01189178004655887
-0.005431420666666667,-0.01212217495084035
-0.005431080666666667,-0.01129933600697684
-0.005430740666666667,-0.01199052071982254
-0.005430400666666667,-0.01100311398718762
-0.005430060666666667,-0.01139807668024051
-0.005429720666666667,-0.0120234342775771
-0.005429380666666667,-0.01129933600697816
-0.005429040666666667,-0.0108714597561676
-0.005428700666666667,-0.01169429870003153
-0.005428360666666667,-0.0132083223567384
-0.005428020666666667,-0.01139807668024051
-0.005427680666666667,-0.01373493928081407
-0.005427340666666667,-0.01281335966368647
-0.005427000666666667,-0.01350454437653217
-0.005426660666666667,-0.01241839697063178
-0.005426320666666667,-0.01745417130707902
-0.005425980666666667,-0.01024610215883101
-0.005425640666666667,-0.008863732733139616
-0.005425300666666667,-0.009258695426194301
-0.005424960666666667,-0.007382622634184546
-0.005424620666666667,-0.01268170543266824
-0.005424280666666667,-0.01268170543266824
-0.005423940666666667,-0.01110185466045303
-0.005423600666666667,-0.01304375456796837
-0.005423260666666667,-0.01659841880546054
-0.005422920666666667,-0.01610471543914134
-0.005422580666666667,-0.01564392563057838
-0.005422240666666667,-0.01732251707606079
-0.005421900666666667,-0.01498565447548628
-0.005421560666666667,-0.01445903755141432
-0.005421220666666667,-0.01337289014551394
-0.005420880666666667,-0.01261587831715691
-0.005420540666666667,-0.01139807668024051
-0.005420200666666667,-0.01218800206634988
-0.005419860666666667,-0.01110185466044836
-0.005419520666666667,-0.01047649706311291
-0.005419180666666667,-0.01057523773637659
-0.005418840666666667,-0.01050941062086789
-0.005418500666666667,-0.01073980552514937
-0.005418160666666667,-0.009752398792512659
-0.005417820666666667,-0.01083854619841382
-0.005417480666666667,-0.01126642244922228
-0.005417140666666667,-0.01218800206634988
-0.005416800666666667,-0.01343871726102252
-0.005416460666666667,-0.01314249524123204
-0.005416120666666667,-0.01515022226426002
