Analysis/files/cmb03_d2s01/wrd12_ch39.csv

#Digilent WaveForms Oscilloscope Acquisition
#Device Name: ADP3450
#Serial Number: SN:210018B9D9B0
#Date Time: 2024-08-12 11:44:42.511.366.900
#Sample rate: 2.94118e+06Hz
#Samples: 32768
#Trigger: Source: Channel 3 Type: Edge Condition: Rising Level: 60 mV Hyst.: Auto HoldOff: 0 s
#Channel 3: Range: 200 mV/div Offset: 0 V Attenuation: 1 X Coupling: DC Bandwidth: 0 Hz Sample Mode: Average

Time (s),Channel 3 (V)
-0.005570547901840492,0.009962822302467049
-0.005570207901840491,0.008251317299232055
-0.005569867901840491,0.009337464705130465
-0.005569527901840492,0.006506898738238553
-0.005569187901840491,0.00558531912111281
-0.005568847901840491,0.006605639411502225
-0.005568507901840491,0.006111936045183867
-0.005568167901840491,0.003709246329099582
-0.005567827901840491,0.002820580269728157
-0.005567487901840491,0.002491444692182586
-0.005567147901840491,0.0003520634381335001
-0.005566807901840491,-0.001227787334082367
-0.005566467901840491,-0.005835685419720362
-0.005566127901840491,0.0008786803622102455
-0.005565787901840491,0.001405297286282201
-0.005565447901840491,0.003050975174010056
-0.005565107901840491,0.002688926038701966
-0.005564767901840491,-0.001688577142646167
-0.005564427901840491,-0.0003720348324638825
-0.005564087901840491,8.875497609919852e-05
-0.005563747901840491,-0.0003062077169547683
-0.005563407901840491,-0.0009315653142913533
-0.005563067901840492,-0.0006682568522553755
-0.005562727901840491,-0.001556922911627938
-0.005562387901840491,-0.0004378619479729968
-0.005562047901840492,-0.0004378619479729968
-0.005561707901840491,-0.001688577142646167
-0.005561367901840491,-0.001096133103064139
-0.005561027901840492,-0.00310386012608847
-0.005560687901840491,-0.003729217723428708
-0.005560347901840491,-0.003729217723428708
-0.005560007901840492,-0.003959612627710188
-0.005559667901840491,-0.005440722726665677
-0.005559327901840491,-0.003465909261392251
-0.005558987901840492,-0.003400082145883256
-0.005558647901840491,-0.00494701936034732
-0.005558307901840491,-0.00494701936034732
-0.005557967901840492,-0.005473636284419277
-0.005557627901840491,-0.006757265036847961
-0.005557287901840491,-0.008205461578048474
-0.005556947901840492,-0.006987659941132076
-0.005556607901840491,-0.008764992059875945
-0.005556267901840491,-0.01031192927434013
-0.005555927901840492,-0.01126642244922055
-0.005555587901840491,-0.005243241380138334
-0.005555247901840491,-0.004914105802592763
-0.005554907901840492,-0.002346848297741979
-0.005554567901840491,-0.004354575320765292
-0.005554227901840491,-0.007942153116012016
-0.005553887901840492,-0.00438748887851985
-0.005553547901840491,-0.004288748205256179
-0.005553207901840491,-0.005967339650738591
-0.005552867901840492,-0.006559783690320619
-0.005552527901840491,-0.006757265036847961
-0.005552187901840491,-0.008007980231521132
-0.005551847901840492,-0.007250968403166318
-0.005551507901840491,-0.007645931096223518
-0.005551167901840491,-0.009028300521912402
-0.005550827901840492,-0.008304202251312145
-0.005550487901840491,-0.009686571677004681
-0.005550147901840491,-0.01031192927434013
-0.005549807901840492,-0.008633337828857716
-0.005549467901840491,-0.008732078502123125
-0.005549127901840491,-0.009686571677003543
-0.005548787901840492,-0.01004862081230367
-0.005548447901840491,-0.008534597155598655
-0.005548107901840491,-0.01106894110269494
-0.005547767901840491,-0.01172721225778608
-0.005547427901840491,-0.01103602754494003
-0.005547087901840491,-0.01083854619841304
-0.005546747901840491,-0.01073980552514937
-0.005546407901840491,-0.01004862081230625
-0.005546067901840491,-0.01146390379574963
-0.005545727901840491,-0.01561101207282382
-0.005545387901840491,-0.008435856482330972
-0.005545047901840491,-0.008764992059875945
-0.005544707901840491,-0.008764992059875945
-0.005544367901840491,-0.007678844653984182
-0.005544027901840491,-0.01241839697063178
-0.005543687901840491,-0.01320832235674115
-0.005543347901840491,-0.01106894110269428
-0.005543007901840491,-0.01070689196739481
-0.005542667901840491,-0.01077271908290393
-0.005542327901840492,-0.004979932918112415
-0.005541987901840491,-0.01185886648880431
-0.005541647901840491,-0.01152973091125874
-0.005541307901840492,-0.01106894110269578
-0.005540967901840491,-0.009159954752930631
-0.005540627901840491,-0.009587831003739873
-0.005540287901840492,-0.007744671769488027
-0.005539947901840491,-0.007283881960920875
-0.005539607901840491,-0.006790178594602518
-0.005539267901840492,-0.005473636284422629
-0.005538927901840491,-0.005638204073193019
-0.005538587901840491,-0.008040893789275689
-0.005538247901840492,-0.008995386964156108
-0.005537907901840491,-0.008040893789275689
-0.005537567901840491,-0.008830819175385059
-0.005537227901840492,-0.01057523773637341
-0.005536887901840491,-0.009423263214967087
-0.005536547901840491,-0.009982793696794558
-0.005536207901840492,-0.01050941062086651
-0.005535867901840491,-0.01057523773637659
-0.005535527901840491,-0.01314249524123204
-0.005535187901840492,-0.01577557986159182
-0.005534847901840491,-0.008040893789275689
-0.005534507901840491,-0.008764992059875945
-0.005534167901840492,-0.009094127637420917
-0.005533827901840491,-0.008995386964157845
-0.005533487901840491,-0.01159555802676786
-0.005533147901840492,-0.01176012581554064
-0.005532807901840491,-0.009258695426194301
-0.005532467901840491,-0.009818225908021772
-0.005532127901840492,-0.0104106699476038
-0.005531787901840491,-0.01050941062086747
-0.005531447901840491,-0.0101802750433219
-0.005531107901840492,-0.01152973091125874
-0.005530767901840491,-0.009785312350267215
-0.005530427901840491,-0.008567510713348603
-0.005530087901840492,-0.01004862081230367
-0.005529747901840491,-0.009785312350265599
-0.005529407901840491,-0.008896646290894173
-0.005529067901840492,-0.009324522541703417
-0.005528727901840491,-0.01057523773637695
-0.005528387901840491,-0.01077271908290393
-0.005528047901840492,-0.0120234342775771
-0.005527707901840491,-0.01218800206634851
-0.005527367901840491,-0.01143099023799507
-0.005527027901840492,-0.01166138514227697
-0.005526687901840491,-0.01195760716206439
-0.005526347901840491,-0.009982793696794558
-0.005526007901840491,-0.008435856482330374
-0.005525667901840491,-0.009489090330472847
-0.005525327901840491,-0.007645931096221003
-0.005524987901840491,-0.009949880139040001
-0.005524647901840491,-0.01205634783532004
-0.005524307901840491,-0.005671117630947577
-0.005523967901840491,-0.006362302343793276
-0.005523627901840491,-0.007942153116024888
-0.005523287901840491,-0.0150185680332418
-0.005522947901840491,-0.02887517584791034
-0.005522607901840491,-0.04533195472522841
-0.005522267901840491,-0.0670549028431966
-0.005521927901840491,-0.09545930318537937
-0.005521587901840491,-0.1263651339169641
-0.005521247901840491,-0.156941829070892
-0.005520907901840491,-0.1859386734526569
-0.005520567901840492,-0.2146063822568239
-0.005520227901840491,-0.2359343676818291
-0.005519887901840491,-0.2508442093446435
-0.005519547901840492,-0.2643058544662328
-0.005519207901840491,-0.2715139236145053
-0.005518867901840491,-0.2724684167893875
-0.005518527901840492,-0.2699998999578002
-0.005518187901840491,-0.2672680746641675
-0.005517847901840491,-0.2605866224399924
-0.005517507901840492,-0.2540368244468474
-0.005517167901840491,-0.2464337926055328
-0.005516827901840491,-0.2380408353781208
-0.005516487901840492,-0.229977013728269
-0.005516147901840491,-0.2225385496757244
-0.005515807901840491,-0.2147709500456489
-0.005515467901840492,-0.2057526352209166
-0.005515127901840491,-0.2008814286732258
-0.005514787901840491,-0.1934100510629413
-0.005514447901840492,-0.1901845224030006
-0.005514107901840491,-0.1791913941129727
-0.005513767901840491,-0.1703047335192422
-0.005513427901840492,-0.1637878490838518
-0.005513087901840491,-0.1598711357110476
-0.005512747901840491,-0.1593445187869747
-0.005512407901840492,-0.1533213377178908
-0.005512067901840491,-0.1468044532824885
-0.005511727901840491,-0.1423611229856233
-0.005511387901840492,-0.1377861384577398
-0.005511047901840491,-0.133013672583329
-0.005510707901840491,-0.128701996517482
-0.005510367901840492,-0.1234029137189983
-0.005510027901840491,-0.1197824223659971
-0.005509687901840491,-0.1159315361087139
-0.005509347901840492,-0.1103033177326846
-0.005509007901840491,-0.1069132212839568
-0.005508667901840491,-0.1022724096405727
-0.005508327901840492,-0.09884939963409875
-0.005507987901840491,-0.09489977270354717
-0.005507647901840491,-0.09229960164094189
-0.005507307901840492,-0.09016022038689567
-0.005506967901840491,-0.08752713576652721
-0.005506627901840491,-0.0853877545124849
-0.005506287901840492,-0.08278758344987489
-0.005505947901840491,-0.08101025133112419
-0.005505607901840491,-0.0784759073840279
-0.005505267901840491,-0.07633652612998168
-0.005504927901840491,-0.07149823314006083
-0.005504587901840491,-0.07097161621598888
-0.005504247901840491,-0.06949050611703381
-0.005503907901840491,-0.07110327044699631
-0.005503567901840491,-0.06517883005118683
-0.005503227901840491,-0.06080132686983073
-0.005502887901840491,-0.05908982186658736
-0.005502547901840491,-0.05556807118685615
-0.005502207901840491,-0.05846446426925718
-0.005501867901840491,-0.05602886099541594
-0.005501527901840491,-0.05382365262586462
-0.005501187901840491,-0.05188175271834575
-0.005500847901840491,-0.05033481550388133
-0.005500507901840491,-0.05020316127286335
-0.005500167901840491,-0.04980819857980866
-0.005499827901840492,-0.04855748338513776
-0.005499487901840491,-0.0456281767449799
-0.005499147901840491,-0.04552943607171624
-0.005498807901840492,-0.04365336327970989
-0.005498467901840491,-0.04194185827646951
-0.005498127901840491,-0.03601741788064923
-0.005497787901840492,-0.0399670448111889
-0.005497447901840491,-0.0377289228838862
-0.005497107901840491,-0.03739978730634063
-0.005496767901840492,-0.0365769483624782
-0.005496427901840491,-0.0342729993196577
-0.005496087901840491,-0.03486544335923973
-0.005495747901840492,-0.03447048066618576
-0.005495407901840491,-0.03341724681803922
-0.005495067901840491,-0.03269314854743896
-0.005494727901840492,-0.032298185854385
-0.005494387901840491,-0.03025754527360174
-0.005494047901840491,-0.03002715036931984
-0.005493707901840492,-0.03266023498967962
-0.005493367901840491,-0.03272606210519352
-0.005493027901840491,-0.02469515401308158
-0.005492687901840492,-0.02499137603287206
-0.005492347901840491,-0.02364192016493576
-0.005492007901840491,-0.02693327594039147
-0.005491667901840492,-0.03084998931317664
-0.005491327901840491,-0.02732823863344615
-0.005490987901840491,-0.02690036238263691
-0.005490647901840492,-0.02785485555751907
-0.005490307901840491,-0.02762446065323717
-0.005489967901840491,-0.0266041403628459
-0.005489627901840492,-0.02574838786122741
-0.005489287901840491,-0.02416853708900867
-0.005488947901840491,-0.02219372362373525
-0.005488607901840492,-0.02295073545209006
-0.005488267901840491,-0.02245703208576871
-0.005487927901840491,-0.02081135419804385
-0.005487587901840492,-0.02048221862049827
-0.005487247901840491,-0.02097592198681579
-0.005486907901840491,-0.02051513217825283
-0.005486567901840492,-0.02005434236968903
-0.005486227901840491,-0.01965937967663159
-0.005485887901840491,-0.01814535601992472
-0.005485547901840492,-0.01873780005950675
-0.005485207901840491,-0.01942898477234832
-0.005484867901840491,-0.01715794928728801
-0.005484527901840491,-0.01597306120812395
-0.005484187901840491,-0.0164338510166859
-0.005483847901840491,-0.01541353072629648
-0.005483507901840491,-0.0143273833203961
-0.005483167901840491,-0.01824409669318175
-0.005482827901840491,-0.01459069178243255
-0.005482487901840491,-0.01083854619841304
-0.005482147901840491,-0.01205634783533082
-0.005481807901840491,-0.01159555802676786
-0.005481467901840491,-0.01613762899689674
-0.005481127901840491,-0.01725668996054695
-0.005480787901840491,-0.01465651889794167
-0.005480447901840491,-0.01416281553162331
-0.005480107901840491,-0.01511730870650589
-0.005479767901840491,-0.01534770361078737
-0.005479427901840491,-0.01472234601345078
-0.005479087901840492,-0.01521604937976824
-0.005478747901840491,-0.01623636967016041
-0.005478407901840491,-0.01436029687815065
-0.005478067901840492,-0.01623636967015699
-0.005477727901840491,-0.01640093745893319
-0.005477387901840491,-0.01577557986159661
-0.005477047901840492,-0.01485400024447069
-0.005476707901840491,-0.01574266630384205
-0.005476367901840491,-0.01478817312895989
-0.005476027901840492,-0.0146894324556964
-0.005475687901840491,-0.01495274091773268
-0.005475347901840491,-0.01380076639632318
-0.005475007901840492,-0.01386659351183218
-0.005474667901840491,-0.01383367995407774
-0.005474327901840491,-0.012253829181859
-0.005473987901840492,-0.009785312350271705
-0.005473647901840491,-0.01001570725454911
-0.005473307901840491,-0.009159954752930631
-0.005472967901840492,-0.01133224956472745
-0.005472627901840491,-0.01422864264713243
-0.005472287901840491,-0.00837002936682126
-0.005471947901840492,-0.009357436099456178
-0.005471607901840491,-0.01083854619841304
-0.005471267901840491,-0.01268170543266824
-0.005470927901840492,-0.01659841880545341
-0.005470587901840491,-0.01626928322791496
-0.005470247901840491,-0.01478817312895989
-0.005469907901840492,-0.01643385101668775
-0.005469567901840491,-0.01643385101668775
-0.005469227901840491,-0.01676298659423332
-0.005468887901840492,-0.01478817312895989
-0.005468547901840491,-0.01416281553162331
-0.005468207901840491,-0.01429446976264154
-0.005467867901840492,-0.0124842240861409
-0.005467527901840491,-0.01330706303000483
-0.005467187901840491,-0.01314249524123204
-0.005466847901840492,-0.01301084101021381
-0.005466507901840491,-0.01241839697063484
-0.005466167901840491,-0.0140969884161142
-0.005465827901840492,-0.01429446976264154
-0.005465487901840491,-0.01422864264713488
-0.005465147901840491,-0.01557809851506927
-0.005464807901840492,-0.01488691380222357
-0.005464467901840491,-0.01373493928081395
-0.005464127901840491,-0.01366911216530495
-0.005463787901840492,-0.01419572908937787
-0.005463447901840491,-0.01143099023799764
-0.005463107901840491,-0.01284627322144103
-0.005462767901840491,-0.01274753254817735
-0.005462427901840491,-0.01584140697710524
-0.005462087901840491,-0.01557809851506927
-0.005461747901840491,-0.007086400614393532
-0.005461407901840491,-0.009258695426199391
-0.005461067901840491,-0.01205634783533165
-0.005460727901840491,-0.0101802750433219
-0.005460387901840491,-0.007415536191945331
-0.005460047901840491,-0.01083854619841304
-0.005459707901840491,-0.0120234342775771
-0.005459367901840491,-0.01228674273961529
-0.005459027901840491,-0.01324123591449571
-0.005458687901840491,-0.01449195110916888
-0.005458347901840491,-0.01449195110917044
-0.005458007901840491,-0.01534770361078737
-0.005457667901840491,-0.01643385101668775
-0.005457327901840492,-0.01389950706959146
-0.005456987901840491,-0.01324123591449571
-0.005456647901840491,-0.01182595293104976
-0.005456307901840492,-0.009818225908025424
-0.005455967901840491,-0.007580103980711889
-0.005455627901840491,-0.00711931417214809
-0.005455287901840492,-0.006362302343794654
-0.005454947901840491,-0.002215194066719081
-0.005454607901840491,-0.003762131281183265
-0.005454267901840492,-0.0009644788720509991
-0.005453927901840491,-0.004453315994028964
-0.005453587901840491,-0.007020573498884419
-0.005453247901840492,-0.01011444792780716
-0.005452907901840491,-0.01057523773637659
-0.005452567901840491,-0.01228674273961356
-0.005452227901840492,-0.01347163081877546
-0.005451887901840491,-0.01478817312895989
-0.005451547901840491,-0.01182595293104976
-0.005451207901840492,-0.01208926139308573
-0.005450867901840491,-0.009159954752930631
-0.005450527901840491,-0.007020573498884419
-0.005450187901840492,-0.01274753254816694
-0.005449847901840491,-0.01080563264065849
-0.005449507901840491,-0.007744671769484675
-0.005449167901840492,-0.007975066673766155
-0.005448827901840491,-0.007283881960920875
-0.005448487901840491,-0.006395215901547833
-0.005448147901840492,-0.006559783690320619
-0.005447807901840491,-0.007415536191939104
-0.005447467901840491,-0.008205461578048474
-0.005447127901840492,-0.01011444792781279
-0.005446787901840491,-0.009884053023530886
-0.005446447901840491,-0.0108714597561676
-0.005446107901840492,-0.01235256985512267
-0.005445767901840491,-0.01258296475940265
-0.005445427901840491,-0.01152973091125874
-0.005445087901840492,-0.01143099023799507
-0.005444747901840491,-0.01248422408613952
-0.005444407901840491,-0.01172721225778608
-0.005444067901840492,-0.01274753254817735
-0.005443727901840491,-0.01320832235674181
-0.005443387901840491,-0.01357037149204128
-0.005443047901840492,-0.0134058037032685
-0.005442707901840491,-0.0140969884161109
-0.005442367901840491,-0.01228674273961356
-0.005442027901840491,-0.0115626444690133
-0.005441687901840491,-0.01459069178243429
-0.005441347901840491,-0.01554518495731471
-0.005441007901840491,-0.008995386964157845
-0.005440667901840491,-0.008205461578045421
-0.005440327901840491,-0.006526870132566062
-0.005439987901840491,-0.00860042427110316
-0.005439647901840491,-0.01347163081877258
-0.005439307901840491,-0.01070689196739481
-0.005438967901840491,-0.008732078502121389
-0.005438627901840491,-0.01192469360431421
-0.005438287901840491,-0.01235256985512267
-0.005437947901840491,-0.01231965629736811
-0.005437607901840491,-0.01287918677919618
-0.005437267901840491,-0.01320832235674115
-0.005436927901840491,-0.01258296475940457
-0.005436587901840492,-0.01353745793428499
-0.005436247901840491,-0.01195760716206798
-0.005435907901840491,-0.008896646290894173
-0.005435567901840492,-0.008896646290894173
-0.005435227901840491,-0.009192868310685188
-0.005434887901840491,-0.008007980231521132
-0.005434547901840492,-0.008205461578048115
-0.005434207901840491,-0.01080563264065849
-0.005433867901840491,-0.01116768177595861
-0.005433527901840492,-0.012517137643893
-0.005433187901840491,-0.01475525957120534
-0.005432847901840491,-0.01439321043590521
-0.005432507901840492,-0.01538061716854013
-0.005432167901840491,-0.01715794928728801
-0.005431827901840491,-0.01538061716854192
-0.005431487901840492,-0.01587432053485938
-0.005431147901840491,-0.02048221862049827
-0.005430807901840491,-0.01541353072629648
-0.005430467901840492,-0.01172721225779279
-0.005430127901840491,-0.01235256985512267
-0.005429787901840491,-0.01034484283209469
-0.005429447901840492,-0.01353745793428092
-0.005429107901840491,-0.01590723409261484
-0.005428767901840491,-0.01166138514227697
-0.005428427901840492,-0.01123350889146851
-0.005428087901840491,-0.01235256985512267
-0.005427747901840491,-0.01231965629736811
-0.005427407901840492,-0.01060815129413114
-0.005427067901840491,-0.01054232417862203
-0.005426727901840491,-0.01097020042943127
-0.005426387901840492,-0.008040893789275689
-0.005426047901840491,-0.00837002936682126
-0.005425707901840491,-0.01014736148556734
-0.005425367901840492,-0.01031192927434013
-0.005425027901840491,-0.01080563264065849
-0.005424687901840491,-0.01350454437653217
-0.005424347901840492,-0.01353745793428673
-0.005424007901840491,-0.01406407485836209
-0.005423667901840491,-0.01541353072629648
-0.005423327901840492,-0.01485400024446901
-0.005422987901840491,-0.01478817312896031
-0.005422647901840491,-0.0150185680332418
-0.005422307901840492,-0.01360328504979584
-0.005421967901840491,-0.01212217495084143
-0.005421627901840491,-0.0124842240861409
-0.005421287901840492,-0.01126642244922228
-0.005420947901840491,-0.01083854619842071
-0.005420607901840491,-0.01505148159099635
-0.005420267901840491,-0.01139807668024051
-0.005419927901840491,-0.006526870132567439
-0.005419587901840491,-0.007283881960920875
-0.005419247901840491,-0.007448449749693661
-0.005418907901840491,-0.01031192927434438
-0.005418567901840491,-0.01264879187491368
-0.005418227901840491,-0.01004862081230367
-0.005417887901840491,-0.01008153437005943
-0.005417547901840491,-0.01073980552514937
-0.005417207901840491,-0.01083854619841304
-0.005416867901840491,-0.008337115809066882
-0.005416527901840491,-0.008435856482330374
