Analysis/files/cmb03_d2s01/wrd10_ch11.csv

#Digilent WaveForms Oscilloscope Acquisition
#Device Name: ADP3450
#Serial Number: SN:210018B9D9B0
#Date Time: 2024-08-09 17:11:48.510.563.840
#Sample rate: 2.94118e+06Hz
#Samples: 32768
#Trigger: Source: Channel 3 Type: Edge Condition: Rising Level: 60 mV Hyst.: Auto HoldOff: 0 s
#Channel 3: Range: 200 mV/div Offset: 0 V Attenuation: 1 X Coupling: DC Bandwidth: 0 Hz Sample Mode: Average

Time (s),Channel 3 (V)
-0.005570438695652174,0.01223385778753149
-0.005570098695652174,0.01052235278428578
-0.005569758695652174,0.005716973352129182
-0.005569418695652174,0.009699513840430593
-0.005569078695652174,0.009732427398187485
-0.005568738695652174,0.01101605615061288
-0.005568398695652174,0.009666600282676035
-0.005568058695652174,0.004202949695421412
-0.005567718695652174,0.005223269985810825
-0.005567378695652174,0.007527219028629823
-0.005567038695652174,0.005157442870300035
-0.005566698695652174,0.004235863253174112
-0.005566358695652174,0.00357759209808297
-0.005566018695652174,0.002063568441373343
-0.005565678695652174,0.002063568441373343
-0.005565338695652174,0.002293963345655243
-0.005564998695652174,0.0009774210354725995
-0.005564658695652174,0.0007799396889456162
-0.005564318695652174,0.002392704018918914
-0.005563978695652174,0.0008786803622108442
-0.005563638695652174,0.001734432863827772
-0.005563298695652174,0.0007470261311910591
-0.005562958695652175,-0.0008328246410248081
-0.005562618695652174,-0.0004049483902184396
-0.005562278695652174,-0.001392355122855153
-0.005561938695652175,-0.003103860126089009
-0.005561598695652174,-0.003202600799355794
-0.005561258695652174,-0.0009973924298004675
-0.005560918695652175,-0.0003720348324650201
-0.005560578695652174,0.001207815939754859
-0.005560238695652174,0.002656012480955371
-0.005559898695652175,0.002392704018919393
-0.005559558695652174,0.003116802289519171
-0.005559218695652174,-0.002083539835700852
-0.005558878695652174,0.001899000652593313
-0.005558538695652174,0.004992875081528926
-0.005558198695652174,0.001273643055263973
-0.005557858695652174,-0.0009644788720418397
-0.005557518695652174,0.001043248150982073
-0.005557178695652174,-0.0003391212747093254
-0.005556838695652174,-0.0005036890634818116
-0.005556498695652174,-0.003038033010583008
-0.005556158695652174,-0.003762131281183265
-0.005555818695652174,-0.004782451571572679
-0.005555478695652174,-0.006329388786038719
-0.005555138695652174,-0.004683710898310864
-0.005554798695652174,-0.004091266858729913
-0.005554458695652174,-0.004979932918101878
-0.005554118695652174,-0.003959612627710607
-0.005553778695652174,-0.002939292337319337
-0.005553438695652174,-0.003070946568337565
-0.005553098695652174,-0.00267598387528288
-0.005552758695652174,-0.002544329644264652
-0.005552418695652174,-0.002708897433037437
-0.005552078695652174,-0.003038033010583008
-0.005551738695652174,-0.002741810990791994
-0.005551398695652174,-0.003465909261393209
-0.005551058695652174,-0.003992526185465165
-0.005550718695652174,-0.002643070317528323
-0.005550378695652174,-0.002840551664056983
-0.005550038695652174,-0.003564649934655922
-0.005549698695652174,-0.003202600799355794
-0.005549358695652174,-0.002906378779571245
-0.005549018695652174,-0.006461043017056948
-0.005548678695652174,0.0005495447846637165
-0.005548338695652174,-0.001096133103062882
-0.005547998695652174,-0.0004049483902184396
-0.005547658695652174,2.292786059080275e-05
-0.005547318695652174,-0.005605290515442175
-0.005546978695652174,-0.007645931096221003
-0.005546638695652174,-0.00688891926786619
-0.005546298695652174,-0.008205461578051828
-0.005545958695652174,-0.01004862081230367
-0.005545618695652174,-0.009818225908021772
-0.005545278695652174,-0.01070689196739428
-0.005544938695652174,-0.0104106699476038
-0.005544598695652174,-0.00869916494436683
-0.005544258695652174,-0.007975066673765437
-0.005543918695652174,-0.007349709076429989
-0.005543578695652174,-0.006230648112775047
-0.005543238695652174,-0.004519143109538377
-0.005542898695652174,-0.004683710898310864
-0.005542558695652174,-0.004782451571574535
-0.005542218695652175,-0.00448622955178406
-0.005541878695652174,-0.003860871954446936
-0.005541538695652174,-0.00438748887851985
-0.005541198695652175,-0.004091266858729375
-0.005540858695652174,-0.00540780916891112
-0.005540518695652174,-0.006131907439511376
-0.005540178695652175,-0.004979932918103973
-0.005539838695652174,-0.006921832825620747
-0.005539498695652174,-0.00711931417214809
-0.005539158695652175,-0.007218054845411582
-0.005538818695652174,-0.01103602754494038
-0.005538478695652174,-0.008073807347030245
-0.005538138695652174,-0.003334255030382644
-0.005537798695652174,-0.003729217723428708
-0.005537458695652174,-0.003663390607919593
-0.005537118695652174,-0.006428129459297362
-0.005536778695652174,-0.007415536191939104
-0.005536438695652174,-0.005111587149120106
-0.005536098695652174,-0.005341982053401586
-0.005535758695652174,-0.007415536191939104
-0.005535418695652174,-0.00688891926786619
-0.005535078695652174,-0.00688891926786619
-0.005534738695652174,-0.007283881960920875
-0.005534398695652174,-0.008995386964157845
-0.005534058695652174,-0.007909239558259435
-0.005533718695652174,-0.008139634462539359
-0.005533378695652174,-0.009324522541703417
-0.005533038695652174,-0.009456176772721644
-0.005532698695652174,-0.00438748887851985
-0.005532358695652174,-0.005769858304211248
-0.005532018695652174,-0.008732078502121389
-0.005531678695652174,-0.006230648112775047
-0.005531338695652174,-0.007152227729902647
-0.005530998695652174,-0.007349709076429989
-0.005530658695652174,-0.006461043017056948
-0.005530318695652174,-0.006164820997265934
-0.005529978695652174,-0.007316795518675433
-0.005529638695652174,-0.004288748205259591
-0.005529298695652174,-0.006164820997265934
-0.005528958695652174,-0.007382622634184546
-0.005528618695652174,-0.007645931096228487
-0.005528278695652174,-0.01176012581554064
-0.005527938695652174,-0.007876326000502903
-0.005527598695652174,-0.007547190422955057
-0.005527258695652174,-0.006296475228284162
-0.005526918695652174,-0.005605290515438462
-0.005526578695652174,-0.006724351479097356
-0.005526238695652174,-0.008896646290894173
-0.005525898695652174,-0.007415536191939104
-0.005525558695652174,-0.005638204073194397
-0.005525218695652174,-0.006395215901547833
-0.005524878695652174,-0.005045760033610991
-0.005524538695652174,-0.006987659941127466
-0.005524198695652174,-0.005671117630947577
-0.005523858695652174,-0.007218054845411761
-0.005523518695652174,-0.006592697248086431
-0.005523178695652174,-0.01278044610593191
-0.005522838695652174,-0.02324695747188107
-0.005522498695652174,-0.03980247702246329
-0.005522158695652174,-0.06178873360246744
-0.005521818695652174,-0.08999565259812289
-0.005521478695652174,-0.1234687408345636
-0.005521138695652174,-0.1543087444505275
-0.005520798695652174,-0.1837992921986107
-0.005520458695652175,-0.20904399099631
-0.005520118695652174,-0.2288250392068448
-0.005519778695652174,-0.244195670678223
-0.005519438695652175,-0.2541355651200811
-0.005519098695652174,-0.2579864513773824
-0.005518758695652174,-0.2579535378196278
-0.005518418695652175,-0.2570977853180109
-0.005518078695652174,-0.2554191938725269
-0.005517738695652174,-0.248573173859579
-0.005517398695652175,-0.2364280710481696
-0.005517058695652174,-0.2308656797876273
-0.005516718695652174,-0.2201029464018871
-0.005516378695652174,-0.2153633940852396
-0.005516038695652174,-0.2095706079204289
-0.005515698695652174,-0.1986103931881613
-0.005515358695652174,-0.191171929135645
-0.005515018695652174,-0.1840955142184017
-0.005514678695652174,-0.1763608281460807
-0.005514338695652174,-0.1687577963047919
-0.005513998695652174,-0.1641169846613855
-0.005513658695652174,-0.1577317544570014
-0.005513318695652174,-0.1526301530050543
-0.005512978695652174,-0.146541144820452
-0.005512638695652174,-0.1419661602925686
-0.005512298695652174,-0.1384114960550764
-0.005511958695652174,-0.1335732030651565
-0.005511618695652174,-0.1281753795934091
-0.005511278695652174,-0.123501654392262
-0.005510938695652174,-0.120901483329652
-0.005510598695652174,-0.1143187717787406
-0.005510258695652174,-0.1104678855214574
-0.005509918695652174,-0.1066828263796833
-0.005509578695652174,-0.1024040638715909
-0.005509238695652174,-0.09898105386511696
-0.005508898695652174,-0.09713789463085622
-0.005508558695652174,-0.09407693375968798
-0.005508218695652174,-0.09025896106015935
-0.005507878695652174,-0.08900824586548658
-0.005507538695652174,-0.08923864076976806
-0.005507198695652174,-0.0806152886380741
-0.005506858695652174,-0.07554660074386609
-0.005506518695652174,-0.07212359073739838
-0.005506178695652174,-0.06774608755604228
-0.005505838695652174,-0.06804230957583228
-0.005505498695652174,-0.06748277909400582
-0.005505158695652174,-0.0622824369687858
-0.005504818695652174,-0.06126211667839285
-0.005504478695652174,-0.06034053706126693
-0.005504138695652174,-0.05826698292272983
-0.005503798695652174,-0.05783910667191939
-0.005503458695652174,-0.05718083551682945
-0.005503118695652174,-0.05566681186011983
-0.005502778695652174,-0.05300081368199705
-0.005502438695652174,-0.05099308665897272
-0.005502098695652174,-0.04891953252043561
-0.005501758695652174,-0.04668141059312131
-0.005501418695652174,-0.0442458073192885
-0.005501078695652174,-0.04105319221709647
-0.005500738695652174,-0.04023035327323331
-0.005500398695652174,-0.04065822952404178
-0.005500058695652174,-0.0398024770224233
-0.005499718695652175,-0.03921003298284235
-0.005499378695652174,-0.03976956346466874
-0.005499038695652174,-0.03983539058017786
-0.005498698695652175,-0.03851884826999796
-0.005498358695652174,-0.03684025682451315
-0.005498018695652174,-0.03417425864639403
-0.005497678695652175,-0.03229818585438769
-0.005497338695652174,-0.03315393835600276
-0.005496998695652174,-0.03516166537903075
-0.005496658695652175,-0.0285460402703768
-0.005496318695652174,-0.02604460988101842
-0.005495978695652174,-0.0254521658414364
-0.005495638695652174,-0.02278616766332212
-0.005495298695652174,-0.02690036238263691
-0.005494958695652174,-0.02699910305590058
-0.005494618695652174,-0.02281908122107943
-0.005494278695652174,-0.0231482167986174
-0.005493938695652174,-0.02472806757083614
-0.005493598695652174,-0.02416853708900969
-0.005493258695652174,-0.02433310487778146
-0.005492918695652174,-0.02548507939919096
-0.005492578695652174,-0.02607752343877191
-0.005492238695652174,-0.02327987102963563
-0.005491898695652174,-0.02390522862697221
-0.005491558695652174,-0.02123923044885794
-0.005491218695652174,-0.01979103390765257
-0.005490878695652174,-0.0190011085215432
-0.005490538695652174,-0.01719086284504256
-0.005490198695652174,-0.01623636967016041
-0.005489858695652174,-0.01686172726749699
-0.005489518695652174,-0.01564392563057838
-0.005489178695652174,-0.009258695426194301
-0.005488838695652174,-0.01544644428405104
-0.005488498695652174,-0.01442612399365977
-0.005488158695652174,-0.01370202572305999
-0.005487818695652174,-0.01396533418509597
-0.005487478695652174,-0.01281335966368647
-0.005487138695652174,-0.01287918677920133
-0.005486798695652174,-0.01603888832363307
-0.005486458695652174,-0.01515022226426002
-0.005486118695652174,-0.009127041195175534
-0.005485778695652174,-0.008830819175385059
-0.005485438695652174,-0.008106720904784802
-0.005485098695652174,-0.009225781868445313
-0.005484758695652174,-0.01228674273961356
-0.005484418695652174,-0.009324522541703417
-0.005484078695652174,-0.008929559848652143
-0.005483738695652174,-0.01080563264065849
-0.005483398695652174,-0.0111018546604495
-0.005483058695652174,-0.01120059533371598
-0.005482718695652174,-0.01274753254817735
-0.005482378695652174,-0.01337289014551394
-0.005482038695652174,-0.009357436099457075
-0.005481698695652174,-0.008863732733139616
-0.005481358695652174,-0.01083854619841304
-0.005481018695652174,-0.01057523773637419
-0.005480678695652174,-0.009258695426194301
-0.005480338695652174,-0.009719485234758102
-0.005479998695652174,-0.01027901571658366
-0.005479658695652174,-0.009225781868439744
-0.005479318695652174,-0.01034484283209469
-0.005478978695652175,-0.009258695426196277
-0.005478638695652174,-0.007843412442748346
-0.005478298695652174,-0.00939034965721253
-0.005477958695652175,-0.009982793696793481
-0.005477618695652174,-0.009554917445985316
-0.005477278695652174,-0.009884053023530886
-0.005476938695652175,-0.01080563264065681
-0.005476598695652174,-0.01143099023799507
-0.005476258695652174,-0.01505148159099635
-0.005475918695652175,-0.01505148159099635
-0.005475578695652174,-0.007448449749693661
-0.005475238695652174,-0.008139634462539359
-0.005474898695652174,-0.007250968403167935
-0.005474558695652174,-0.007349709076429989
-0.005474218695652174,-0.01044358350535836
-0.005473878695652174,-0.008797905617633496
-0.005473538695652174,-0.006230648112775047
-0.005473198695652174,-0.008040893789275689
-0.005472858695652174,-0.00623064811277834
-0.005472518695652174,-0.004683710898310864
-0.005472178695652174,-0.005243241380138334
-0.005471838695652174,-0.006329388786036743
-0.005471498695652174,-0.005078673591365549
-0.005471158695652174,-0.005045760033610991
-0.005470818695652174,-0.006790178594599345
-0.005470478695652174,-0.005210327822383777
-0.005470138695652174,-0.00619773455502049
-0.005469798695652174,-0.006395215901547833
-0.005469458695652174,-0.007514276865202775
-0.005469118695652174,-0.00869916494436683
-0.005468778695652174,-0.01050941062086747
-0.005468438695652174,-0.01060815129413114
-0.005468098695652174,-0.01034484283209469
-0.005467758695652174,-0.01215508850859533
-0.005467418695652174,-0.01129933600697684
-0.005467078695652174,-0.009818225908021772
-0.005466738695652174,-0.008435856482330374
-0.005466398695652174,-0.00906121407966606
-0.005466058695652174,-0.008567510713348603
-0.005465718695652174,-0.01169429870003153
-0.005465378695652174,-0.004749538013814111
-0.005465038695652174,-0.001524009353873381
-0.005464698695652174,-0.002116453393455409
-0.005464358695652174,-0.001787317815916723
-0.005464018695652174,-0.005572376957683906
-0.005463678695652174,-0.005374895611156563
-0.005463338695652174,-0.004914105802591925
-0.005462998695652174,-0.004453315994028964
-0.005462658695652174,-0.006856005710111633
-0.005462318695652174,-0.00692183282561919
-0.005461978695652174,-0.006066080324002262
-0.005461638695652174,-0.006559783690320619
-0.005461298695652174,-0.007119314172145456
-0.005460958695652174,-0.005671117630947577
-0.005460618695652174,-0.004091266858728836
-0.005460278695652174,-0.005835685419718805
-0.005459938695652174,-0.004979932918101878
-0.005459598695652174,-0.005506549842174791
-0.005459258695652174,-0.005374895611157162
-0.005458918695652174,-0.005704031188702134
-0.005458578695652174,-0.006526870132566062
-0.005458238695652174,-0.006987659941129083
-0.005457898695652174,-0.006559783690320619
-0.005457558695652174,-0.005276154937892892
-0.005457218695652175,-0.006823092152354262
-0.005456878695652174,-0.006164820997265934
-0.005456538695652174,-0.005440722726665677
-0.005456198695652175,-0.005111587149120704
-0.005455858695652174,-0.005276154937892892
-0.005455518695652174,-0.006329388786038719
-0.005455178695652175,-0.009028300521907492
-0.005454838695652174,-0.003235514357110351
-0.005454498695652174,-0.0007669975255185678
-0.005454158695652175,-0.0005695161789915844
-0.005453818695652174,-0.00165566358489161
-0.005453478695652174,-0.004716624456065421
-0.005453138695652174,-0.005012846475855896
-0.005452798695652174,-0.006131907439511376
-0.005452458695652174,-0.006987659941129861
-0.005452118695652174,-0.008501683597836733
-0.005451778695652174,-0.01014736148556734
-0.005451438695652174,-0.008732078502121389
-0.005451098695652174,-0.008205461578049432
-0.005450758695652174,-0.008073807347030245
-0.005450418695652174,-0.005901512535229476
-0.005450078695652174,-0.005111587149121543
-0.005449738695652174,-0.006493956574811504
-0.005449398695652174,-0.00415709397423795
-0.005449058695652174,-0.005440722726663342
-0.005448718695652174,-0.006033166766247705
-0.005448378695652174,-0.006856005710111633
-0.005448038695652174,-0.00688891926786619
-0.005447698695652174,-0.005704031188702134
-0.005447358695652174,-0.00711931417214809
-0.005447018695652174,-0.00688891926786619
-0.005446678695652174,-0.007975066673766575
-0.005446338695652174,-0.007053487056638975
-0.005445998695652174,-0.006098993881756819
-0.005445658695652174,-0.0003062077169689574
-0.005445318695652174,-0.008106720904784802
-0.005444978695652174,-0.01100311398718583
-0.005444638695652174,-0.006329388786031115
-0.005444298695652174,-0.002149366951209966
-0.005443958695652174,-0.001820231373664395
-0.005443618695652174,-0.001096133103073718
-0.005443278695652174,-0.006362302343793276
-0.005442938695652174,-0.006987659941129861
-0.005442598695652174,-0.005605290515442773
-0.005442258695652174,-0.007975066673766575
-0.005441918695652174,-0.009818225908021772
-0.005441578695652174,-0.008666251386613949
-0.005441238695652174,-0.009587831003739873
-0.005440898695652174,-0.009127041195176074
-0.005440558695652174,-0.00823837513580351
-0.005440218695652174,-0.008501683597839487
-0.005439878695652174,-0.007382622634184546
-0.005439538695652174,-0.007613017538469559
-0.005439198695652174,-0.009324522541703417
-0.005438858695652174,-0.00962074456149443
-0.005438518695652174,-0.008271288693558067
-0.005438178695652174,-0.008534597155594046
-0.005437838695652174,-0.009818225908021772
-0.005437498695652174,-0.008764992059875286
-0.005437158695652174,-0.008402942924575817
-0.005436818695652174,-0.007448449749693661
-0.005436478695652175,-0.007053487056639694
-0.005436138695652174,-0.00767884465397556
-0.005435798695652174,-0.007086400614393532
-0.005435458695652175,-0.006033166766249621
-0.005435118695652174,-0.005276154937892892
-0.005434778695652174,-0.005572376957683906
-0.005434438695652175,-0.008830819175379132
-0.005434098695652174,-0.003432995703637694
-0.005433758695652174,0.0002862363226272596
-0.005433418695652175,-0.004190007531984365
-0.005433078695652174,-0.005901512535229476
-0.005432738695652174,-0.004486229551783521
-0.005432398695652174,-0.003827958396693576
-0.005432058695652174,-0.004124180416483393
-0.005431718695652174,-0.006098993881756819
-0.005431378695652174,-0.004914105802594919
-0.005431038695652174,-0.006000253208493148
-0.005430698695652174,-0.006526870132566062
-0.005430358695652174,-0.007744671769482459
-0.005430018695652174,-0.008435856482330374
-0.005429678695652174,-0.008732078502121389
-0.005429338695652174,-0.008040893789276946
-0.005428998695652174,-0.007645931096221003
-0.005428658695652174,-0.007942153116012016
-0.005428318695652174,-0.007678844653976039
-0.005427978695652174,-0.006098993881756819
-0.005427638695652174,-0.006066080324002262
-0.005427298695652174,-0.005835685419720362
-0.005426958695652174,-0.005638204073193019
-0.005426618695652174,-0.004683710898310864
-0.005426278695652174,-0.005111587149120106
-0.005425938695652174,-0.004354575320765292
-0.005425598695652174,-0.003531736376901365
-0.005425258695652174,-0.003400082145883136
-0.005424918695652174,-0.002116453393455409
-0.005424578695652174,-0.002708897433037437
-0.005424238695652174,-0.005440722726665677
-0.005423898695652174,-0.005967339650732844
-0.005423558695652174,-0.002807638106301108
-0.005423218695652174,-0.006362302343793276
-0.005422878695652174,-0.003893785512208318
-0.005422538695652174,-0.007645931096221003
-0.005422198695652174,-0.01050941062086747
-0.005421858695652174,-0.007580103980708776
-0.005421518695652174,-0.00586859897747492
-0.005421178695652174,-0.00837002936682126
-0.005420838695652174,-0.006362302343787469
-0.005420498695652174,-0.003169687241601236
-0.005420158695652174,-0.00392669906995605
-0.005419818695652174,-0.001820231373665832
-0.005419478695652174,-0.002610156759773766
-0.005419138695652174,-0.00188605848917351
-0.005418798695652174,-0.00369630416567409
-0.005418458695652174,-0.003663390607919593
-0.005418118695652174,-0.00711931417214809
-0.005417778695652174,-0.007316795518674055
