Analysis/files/cmb03_d2s01/wrd11_ch11.csv

#Digilent WaveForms Oscilloscope Acquisition
#Device Name: ADP3450
#Serial Number: SN:210018B9D9B0
#Date Time: 2024-08-12 12:52:07.347.454.430
#Sample rate: 2.94118e+06Hz
#Samples: 32768
#Trigger: Source: Channel 3 Type: Edge Condition: Rising Level: 60 mV Hyst.: Auto HoldOff: 0 s
#Channel 3: Range: 200 mV/div Offset: 0 V Attenuation: 1 X Coupling: DC Bandwidth: 0 Hz Sample Mode: Average

Time (s),Channel 3 (V)
-0.00557048570071259,0.006901861431293239
-0.005570145700712589,0.007461391913114722
-0.005569805700712589,0.004170036137664999
-0.00556946570071259,0.003413024309310185
-0.005569125700712589,0.004499171715208833
-0.005568785700712589,0.003544678540328413
-0.00556844570071259,0.004137122579910441
-0.005568105700712589,0.004170036137664999
-0.005567765700712589,0.004170036137664999
-0.005567425700712589,-0.0005695161789912252
-0.005567085700712589,-0.001524009353864281
-0.005566745700712589,0.003478851424819299
-0.005566405700712589,0.002590185365446257
-0.005566065700712589,0.003182629405019664
-0.005565725700712589,-0.001556922911627938
-0.005565385700712589,-0.002610156759773766
-0.005565045700712589,-0.0007011704100082562
-0.005564705700712589,-4.289925491831147e-05
-0.005564365700712589,-0.002478502528755537
-0.005564025700712589,-0.001030305987553109
-0.005563685700712589,2.292786059080275e-05
-0.005563345700712589,-0.001754404258155281
-0.00556300570071259,-0.001556922911628298
-0.005562665700712589,-0.001951885604682624
-0.005562325700712589,-0.0007340839677640107
-0.00556198570071259,-0.0009315653142909941
-0.005561645700712589,-0.001359441565100596
-0.005561305700712589,-0.004190007531992507
-0.00556096570071259,-0.004255834647501501
-0.005560625700712589,-0.004288748205256179
-0.005560285700712589,-0.007777585327239231
-0.00555994570071259,-0.0081396344625387
-0.005559605700712589,-0.007613017538466446
-0.005559265700712589,-0.007152227729902647
-0.00555892570071259,-0.006131907439513232
-0.005558585700712589,-0.005078673591365549
-0.005558245700712589,-0.005144500706874663
-0.00555790570071259,-0.00458497022504821
-0.005557565700712589,-0.002708897433037437
-0.005557225700712589,-0.003827958396692379
-0.00555688570071259,-0.008600424271094479
-0.005556545700712589,-0.006362302343793276
-0.005556205700712589,-0.002116453393455409
-0.00555586570071259,-0.004519143109533707
-0.005555525700712589,-0.002807638106301108
-0.005555185700712589,-0.006757265036847961
-0.00555484570071259,-0.009192868310680757
-0.005554505700712589,-0.00688891926786619
-0.005554165700712589,-0.006625610805829733
-0.00555382570071259,-0.01014736148556734
-0.005553485700712589,-0.009818225908021772
-0.005553145700712589,-0.009127041195176074
-0.00555280570071259,-0.009456176772721644
-0.005552465700712589,-0.008732078502121389
-0.005552125700712589,-0.006395215901547833
-0.00555178570071259,-0.006395215901547833
-0.005551445700712589,-0.005605290515436906
-0.005551105700712589,-0.004749538013819977
-0.00555076570071259,-0.005736944746456691
-0.005550425700712589,-0.004914105802592225
-0.005550085700712589,-0.004617883782801749
-0.00554974570071259,-0.007053487056638975
-0.005549405700712589,-0.009324522541704494
-0.005549065700712589,-0.009916966581285444
-0.00554872570071259,-0.01060815129413114
-0.005548385700712589,-0.01264879187490955
-0.005548045700712589,-0.01037775638984924
-0.00554770570071259,-0.01057523773637659
-0.005547365700712589,-0.01087145975616568
-0.005547025700712589,-0.009818225908021772
-0.005546685700712589,-0.0106410648518857
-0.005546345700712589,-0.01343871726101012
-0.005546005700712589,-0.006329388786038719
-0.005545665700712589,-0.005539463399929348
-0.005545325700712589,-0.005835685419722218
-0.005544985700712589,-0.006856005710111633
-0.005544645700712589,-0.009916966581285444
-0.005544305700712589,-0.009225781868436332
-0.005543965700712589,-0.007349709076429989
-0.005543625700712589,-0.006921832825620747
-0.005543285700712589,-0.006131907439511376
-0.005542945700712589,-0.006131907439511376
-0.005542605700712589,-0.005144500706874663
-0.00554226570071259,-0.006888919267863017
-0.005541925700712589,-0.007448449749693661
-0.005541585700712589,-0.006921832825620747
-0.00554124570071259,-0.01041066994759745
-0.005540905700712589,-0.0113322495647314
-0.005540565700712589,-0.01054232417862203
-0.00554022570071259,-0.01067397840964002
-0.005539885700712589,-0.01083854619841304
-0.005539545700712589,-0.01100311398718583
-0.00553920570071259,-0.01001570725455091
-0.005538865700712589,-0.01301084101021381
-0.005538525700712589,-0.01004862081230367
-0.00553818570071259,-0.01083854619841161
-0.005537845700712589,-0.01143099023799507
-0.005537505700712589,-0.01123350889146773
-0.00553716570071259,-0.01031192927434181
-0.005536825700712589,-0.01060815129413114
-0.005536485700712589,-0.009752398792512659
-0.00553614570071259,-0.01077271908290207
-0.005535805700712589,-0.01024610215883101
-0.005535465700712589,-0.00540780916891112
-0.00553512570071259,-0.0032684279148688
-0.005534785700712589,-0.003432995703637694
-0.005534445700712589,-0.007975066673766575
-0.00553410570071259,-0.0100486208122999
-0.005533765700712589,-0.006691437921338847
-0.005533425700712589,-0.008501683597839487
-0.00553308570071259,-0.008929559848648731
-0.005532745700712589,-0.01067397840964026
-0.005532405700712589,-0.007876326000502903
-0.00553206570071259,-0.009818225908021772
-0.005531725700712589,-0.01353745793428673
-0.005531385700712589,-0.01215508850859533
-0.00553104570071259,-0.01120059533371317
-0.005530705700712589,-0.01106894110269494
-0.005530365700712589,-0.0117930393732952
-0.00553002570071259,-0.01027901571658557
-0.005529685700712589,-0.01004862081230559
-0.005529345700712589,-0.0111018546604495
-0.00552900570071259,-0.0115626444690133
-0.005528665700712589,-0.01149681735350526
-0.005528325700712589,-0.01208926139308621
-0.00552798570071259,-0.01261587831715913
-0.005527645700712589,-0.01241839697063322
-0.005527305700712589,-0.01320832235674115
-0.00552696570071259,-0.01241839697063178
-0.005526625700712589,-0.01110185466044824
-0.005526285700712589,-0.0104106699476038
-0.00552594570071259,-0.01320832235674115
-0.005525605700712589,-0.01491982735996938
-0.005525265700712589,-0.01011444792781279
-0.005524925700712589,-0.009324522541703417
-0.005524585700712589,-0.007086400614393831
-0.005524245700712589,-0.007250968403166318
-0.005523905700712589,-0.01357037149204128
-0.005523565700712589,-0.01498565447549658
-0.005523225700712589,-0.02012016948519815
-0.005522885700712589,-0.03743270086409518
-0.005522545700712589,-0.05882651340460886
-0.005522205700712589,-0.08716508663123099
-0.005521865700712589,-0.1189266698643786
-0.005521525700712589,-0.1497995870382087
-0.005521185700712589,-0.1803433686343822
-0.005520845700712589,-0.2085502876300376
-0.00552050570071259,-0.2308327662298322
-0.005520165700712589,-0.2448539418333141
-0.005519825700712589,-0.2568015632982183
-0.00551948570071259,-0.260948671575285
-0.005519145700712589,-0.2610144986908016
-0.005518805700712589,-0.259204253014301
-0.00551846570071259,-0.2543330464666354
-0.005518125700712589,-0.2478819891467333
-0.005517785700712589,-0.2410359691337855
-0.00551744570071259,-0.23484822027594
-0.005517105700712589,-0.2263894359330075
-0.005516765700712589,-0.2194117616890414
-0.00551642570071259,-0.2120062111942795
-0.005516085700712589,-0.2042056980064361
-0.005515745700712589,-0.1962406170298332
-0.00551540570071259,-0.1939366679870184
-0.005515065700712589,-0.186004500568166
-0.005514725700712589,-0.1727074232353249
-0.00551438570071259,-0.1676716488988868
-0.005514045700712589,-0.159772395037784
-0.005513705700712589,-0.1574026188794558
-0.00551336570071259,-0.155361978298677
-0.005513025700712589,-0.149437537902853
-0.005512685700712589,-0.1428877399096962
-0.00551234570071259,-0.1415711975995139
-0.005512005700712589,-0.1375228299957034
-0.005511665700712589,-0.1315983895998831
-0.00551132570071259,-0.1286361694019729
-0.005510985700712589,-0.1243244933361259
-0.005510645700712589,-0.1202102986168063
-0.00551030570071259,-0.1163923259172777
-0.005509965700712589,-0.1138579819701768
-0.005509625700712589,-0.1091842567690297
-0.00550928570071259,-0.1057612467625557
-0.005508945700712589,-0.1014824842544548
-0.005508605700712589,-0.09677584549556165
-0.00550826570071259,-0.09417567443295163
-0.005507925700712589,-0.0901602203868877
-0.005507585700712589,-0.08578271720553957
-0.00550724570071259,-0.0830838054696659
-0.005506905700712589,-0.08196474450600437
-0.005506565700712589,-0.07834425315300966
-0.00550622570071259,-0.0764023532454908
-0.005505885700712589,-0.07544786007060247
-0.005505545700712589,-0.07205776362188926
-0.00550520570071259,-0.0698854688100885
-0.005504865700712589,-0.07241981275718508
-0.005504525700712589,-0.07005003659886128
-0.005504185700712589,-0.06122920312063997
-0.005503845700712589,-0.05984683369494468
-0.005503505700712589,-0.05770745244090236
-0.005503165700712589,-0.05803658801844794
-0.005502825700712589,-0.05721374907457515
-0.005502485700712589,-0.05234254252690956
-0.005502145700712589,-0.04875496473166283
-0.005501805700712589,-0.0495778036755255
-0.005501465700712589,-0.04888661896268106
-0.005501125700712589,-0.04635227501558016
-0.005500785700712589,-0.04605605299578933
-0.005500445700712589,-0.04615479366905282
-0.005500105700712589,-0.04493699203213421
-0.00549976570071259,-0.04437746155030776
-0.005499425700712589,-0.04480533780111598
-0.005499085700712589,-0.04263304298931521
-0.00549874570071259,-0.0415468955834168
-0.005498405700712589,-0.04217225318075141
-0.005498065700712589,-0.04006578548445976
-0.00549772570071259,-0.03917711942508833
-0.005497385700712589,-0.03805805846143177
-0.005497045700712589,-0.03598450432289467
-0.00549670570071259,-0.03503001114801425
-0.005496365700712589,-0.03410843153088492
-0.005496025700712589,-0.03163991469929314
-0.00549568570071259,-0.02936887921423283
-0.005495345700712589,-0.02969801479177427
-0.005495005700712589,-0.02848021315485565
-0.00549466570071259,-0.02844729959710116
-0.005494325700712589,-0.03203487739234782
-0.005493985700712589,-0.02525468449490905
-0.00549364570071259,-0.02410270997350165
-0.005493305700712589,-0.02380648795370854
-0.005492965700712589,-0.0259129556500002
-0.00549262570071259,-0.02848021315485098
-0.005492285700712589,-0.02755863353772805
-0.005491945700712589,-0.02742697930670982
-0.00549160570071259,-0.02686744882488337
-0.005491265700712589,-0.02811816401955552
-0.005490925700712589,-0.0266041403628459
-0.00549058570071259,-0.02601169632326387
-0.005490245700712589,-0.02492554891736349
-0.005489905700712589,-0.02492554891736349
-0.00548956570071259,-0.0226874269900536
-0.005489225700712589,-0.02229246429699892
-0.005488885700712589,-0.02262159987454449
-0.00548854570071259,-0.0206138728515165
-0.005488205700712589,-0.0197910339076518
-0.005487865700712589,-0.01936315765684333
-0.00548752570071259,-0.01771747976911548
-0.005487185700712589,-0.0169604679407621
-0.005486845700712589,-0.01775039332687003
-0.00548650570071259,-0.01488691380222357
-0.005486165700712589,-0.01442612399365516
-0.005485825700712589,-0.01189178004655887
-0.00548548570071259,-0.01347163081877761
-0.005485145700712589,-0.01709212217177907
-0.005484805700712589,-0.01719086284504256
-0.00548446570071259,-0.02041639150498916
-0.005484125700712589,-0.02137088467987629
-0.005483785700712589,-0.02410270997349956
-0.00548344570071259,-0.01544644428405104
-0.005483105700712589,-0.01531479005304005
-0.005482765700712589,-0.01929733054133422
-0.005482425700712589,-0.01748708486483358
-0.005482085700712589,-0.01340580370326862
-0.005481745700712589,-0.01347163081877761
-0.005481405700712589,-0.01452486466692344
-0.005481065700712589,-0.01258296475940541
-0.005480725700712589,-0.01304375456796837
-0.005480385700712589,-0.01320832235674115
-0.005480045700712589,-0.01347163081877869
-0.005479705700712589,-0.01406407485835964
-0.005479365700712589,-0.01613762899689674
-0.00547902570071259,-0.0165984188054597
-0.005478685700712589,-0.01607180188138762
-0.005478345700712589,-0.01794787467339738
-0.00547800570071259,-0.01617054255465453
-0.005477665700712589,-0.01755291198034269
-0.005477325700712589,-0.01626928322791496
-0.00547698570071259,-0.0134387172610282
-0.005476645700712589,-0.01162847158452241
-0.005476305700712589,-0.01143099023799507
-0.00547596570071259,-0.01120059533371359
-0.005475625700712589,-0.009324522541703417
-0.005475285700712589,-0.01077271908290393
-0.00547494570071259,-0.0122538291818563
-0.005474605700712589,-0.01215508850859533
-0.005474265700712589,-0.01330706303000483
-0.00547392570071259,-0.01449195110916673
-0.005473585700712589,-0.01534770361078737
-0.005473245700712589,-0.012253829181859
-0.00547290570071259,-0.01380076639632037
-0.005472565700712589,-0.01149681735350419
-0.005472225700712589,-0.009127041195176074
-0.00547188570071259,-0.01426155620487764
-0.005471545700712589,-0.01465651889794167
-0.005471205700712589,-0.01100311398718583
-0.00547086570071259,-0.01235256985512021
-0.005470525700712589,-0.01301084101021381
-0.005470185700712589,-0.01090437331392216
-0.00546984570071259,-0.01231965629736811
-0.005469505700712589,-0.01215508850859533
-0.005469165700712589,-0.01199052071982254
-0.00546882570071259,-0.01195760716206798
-0.005468485700712589,-0.01258296475940457
-0.005468145700712589,-0.01149681735350419
-0.00546780570071259,-0.01189178004655887
-0.005467465700712589,-0.009423263214967087
-0.005467125700712589,-0.006625610805829733
-0.00546678570071259,-0.006592697248075176
-0.005466445700712589,-0.006658524363583273
-0.005466105700712589,-0.006098993881756819
-0.00546576570071259,-0.007448449749693661
-0.005465425700712589,-0.009258695426192565
-0.005465085700712589,-0.008304202251312145
-0.00546474570071259,-0.009719485234758102
-0.005464405700712589,-0.01060815129412995
-0.005464065700712589,-0.009949880139040001
-0.00546372570071259,-0.009884053023530886
-0.005463385700712589,-0.01376785283857168
-0.005463045700712589,-0.01544644428405104
-0.00546270570071259,-0.008633337828857716
-0.005462365700712589,-0.01077271908290153
-0.005462025700712589,-0.009456176772721644
-0.005461685700712589,-0.01215508850859533
-0.005461345700712589,-0.01597306120812168
-0.005461005700712589,-0.01472234601345078
-0.005460665700712589,-0.01215508850859533
-0.005460325700712589,-0.01412990197386672
-0.005459985700712589,-0.01301084101021381
-0.005459645700712589,-0.01123350889146773
-0.005459305700712589,-0.01215508850859437
-0.005458965700712589,-0.01162847158452241
-0.005458625700712589,-0.01199052071982254
-0.005458285700712589,-0.01156264446901414
-0.005457945700712589,-0.0120234342775771
-0.005457605700712589,-0.0113322495647314
-0.00545726570071259,-0.01274753254817478
-0.005456925700712589,-0.01426155620488698
-0.005456585700712589,-0.01231965629736811
-0.00545624570071259,-0.01439321043590144
-0.005455905700712589,-0.01610471543914218
-0.005455565700712589,-0.01485400024446901
-0.00545522570071259,-0.0125500512016542
-0.005454885700712589,-0.01245131052838634
-0.005454545700712589,-0.01073980552514937
-0.00545420570071259,-0.008995386964161018
-0.005453865700712589,-0.009061214079666959
-0.005453525700712589,-0.007876326000502903
-0.00545318570071259,-0.006428129459305025
-0.005452845700712589,-0.01123350889146773
-0.005452505700712589,-0.008929559848648731
-0.00545216570071259,-0.003795044838947161
-0.005451825700712589,-0.004288748205256179
-0.005451485700712589,-0.004222921089747064
-0.00545114570071259,-0.007744671769478269
-0.005450805700712589,-0.01011444792781279
-0.005450465700712589,-0.008304202251312145
-0.00545012570071259,-0.008073807347030665
-0.005449785700712589,-0.01113476821820406
-0.005449445700712589,-0.01172721225778608
-0.00544910570071259,-0.009357436099462284
-0.005448765700712589,-0.01261587831715913
-0.005448425700712589,-0.01083854619841304
-0.00544808570071259,-0.009522003888230759
-0.005447745700712589,-0.009357436099457973
-0.005447405700712589,-0.01159555802676786
-0.00544706570071259,-0.01047649706311291
-0.005446725700712589,-0.0131754087989866
-0.005446385700712589,-0.01347163081877761
-0.00544604570071259,-0.01324123591449571
-0.005445705700712589,-0.0141957290893799
-0.005445365700712589,-0.01531479005303281
-0.00544502570071259,-0.01436029687815065
-0.005444685700712589,-0.01478817312896079
-0.005444345700712589,-0.01528187649527825
-0.00544400570071259,-0.01557809851506927
-0.005443665700712589,-0.01515022226426224
-0.005443325700712589,-0.01636802390117864
-0.00544298570071259,-0.01613762899689674
-0.005442645700712589,-0.01676298659423841
-0.005442305700712589,-0.01956063900337068
-0.00544196570071259,-0.01261587831715913
-0.005441625700712589,-0.009357436099454441
-0.005441285700712589,-0.007415536191939104
-0.005440945700712589,-0.008962473406403288
-0.005440605700712589,-0.01126642244921761
-0.005440265700712589,-0.00869916494436683
-0.005439925700712589,-0.007152227729902647
-0.005439585700712589,-0.006559783690312956
-0.005439245700712589,-0.002346848297737309
-0.005438905700712589,-0.00767884465397556
-0.005438565700712589,-0.009554917445985255
-0.005438225700712589,-0.009522003888230759
-0.005437885700712589,-0.01215508850859533
-0.005437545700712589,-0.01251713764389761
-0.005437205700712589,-0.01370202572305951
-0.005436865700712589,-0.01699338149851522
-0.00543652570071259,-0.01584140697710782
-0.005436185700712589,-0.01574266630384205
-0.005435845700712589,-0.01551227139956015
-0.00543550570071259,-0.01389950706958979
-0.005435165700712589,-0.01149681735350419
-0.005434825700712589,-0.01146390379574963
-0.00543448570071259,-0.01087145975616868
-0.005434145700712589,-0.009258695426194301
-0.005433805700712589,-0.009785312350267215
-0.00543346570071259,-0.009159954752931769
-0.005433125700712589,-0.009094127637421515
-0.005432785700712589,-0.009423263214967087
-0.00543244570071259,-0.01146390379574591
-0.005432105700712589,-0.01403116130060508
-0.005431765700712589,-0.01416281553162331
-0.00543142570071259,-0.007777585327250846
-0.005431085700712589,-0.007975066673766575
-0.005430745700712589,-0.007053487056638975
-0.00543040570071259,-0.01064106485187917
-0.005430065700712589,-0.01333997658775938
-0.005429725700712589,-0.009291608983948858
-0.00542938570071259,-0.009324522541703356
-0.005429045700712589,-0.01054232417862203
-0.005428705700712589,-0.01057523773637659
-0.00542836570071259,-0.009159954752933205
-0.005428025700712589,-0.008435856482330374
-0.005427685700712589,-0.009291608983948858
-0.00542734570071259,-0.00939034965721253
-0.005427005700712589,-0.008896646290894173
-0.005426665700712589,-0.007415536191939104
-0.00542632570071259,-0.01031192927434013
-0.005425985700712589,-0.009818225908021772
-0.005425645700712589,-0.008995386964157845
-0.00542530570071259,-0.008567510713348603
-0.005424965700712589,-0.009818225908021772
-0.005424625700712589,-0.009554917445985316
-0.00542428570071259,-0.009127041195176074
-0.005423945700712589,-0.01018027504331849
-0.005423605700712589,-0.008304202251312145
-0.00542326570071259,-0.009554917445985316
-0.005422925700712589,-0.01057523773637275
-0.005422585700712589,-0.008468770040084931
-0.00542224570071259,-0.0104106699476038
-0.005421905700712589,-0.01057523773638383
-0.005421565700712589,-0.014557778224678
-0.00542122570071259,-0.0117930393732952
-0.005420885700712589,-0.008468770040084931
-0.005420545700712589,-0.008468770040084931
-0.00542020570071259,-0.005802771861965805
-0.005419865700712589,-0.01018027504332693
-0.005419525700712589,-0.0129450138947047
-0.005419185700712589,-0.007711758211730118
-0.005418845700712589,-0.009719485234761575
-0.005418505700712589,-0.01162847158452241
-0.005418165700712589,-0.01208926139308621
-0.005417825700712589,-0.01169429870003177
-0.005417485700712589,-0.01182595293104976
-0.005417145700712589,-0.01146390379574963
-0.005416805700712589,-0.01113476821820519
-0.005416465700712589,-0.01176012581554064
-0.005416125700712589,-0.01077271908290393
-0.005415785700712589,-0.01057523773637718
