Analysis/files/cmb03_d2s01/wrd10_ch32.csv

#Digilent WaveForms Oscilloscope Acquisition
#Device Name: ADP3450
#Serial Number: SN:210018B9D9B0
#Date Time: 2024-08-09 17:23:28.856.175.160
#Sample rate: 2.94118e+06Hz
#Samples: 32768
#Trigger: Source: Channel 3 Type: Edge Condition: Rising Level: 60 mV Hyst.: Auto HoldOff: 0 s
#Channel 3: Range: 200 mV/div Offset: 0 V Attenuation: 1 X Coupling: DC Bandwidth: 0 Hz Sample Mode: Average

Time (s),Channel 3 (V)
-0.005570467146739131,0.01078566124633098
-0.005570127146739131,0.006704380084779546
-0.005569787146739131,0.01420867125280492
-0.005569447146739131,0.01272756115384985
-0.005569107146739131,0.01315543740465657
-0.005568767146739131,0.01177306797896769
-0.005568427146739131,0.008382971530248308
-0.005568087146739131,0.01075274768857983
-0.005567747146739131,0.01262882048058617
-0.005567407146739131,0.01052235278429452
-0.005567067146739131,0.00851462576127013
-0.005566727146739131,0.01048943922653996
-0.005566387146739131,0.007593046144138938
-0.005566047146739131,0.008646279992285243
-0.005565707146739131,0.008909588454321223
-0.005565367146739131,0.008613366434530208
-0.005565027146739131,0.008810847781058867
-0.005564687146739131,0.009534946051657807
-0.005564347146739131,0.008415885088002865
-0.005564007146739131,0.007461391913122924
-0.005563667146739131,0.008679193550039321
-0.005563327146739131,0.007889268163929951
-0.005562987146739131,0.005782800467642128
-0.005562647146739131,0.00528909710131994
-0.005562307146739131,0.003380110751555628
-0.005561967146739131,0.001767346421585263
-0.005561627146739131,0.0003191498803818167
-0.005561287146739131,-0.0001416399281819828
-0.005560947146739131,-0.001524009353870867
-0.005560607146739131,-0.0001087263704274257
-0.005560267146739131,0.0005166312269091594
-0.005559927146739131,-0.001589836469378664
-0.005559587146739131,-0.002116453393455409
-0.005559247146739131,0.00574988690988374
-0.005558907146739131,0.008119663068207539
-0.005558567146739131,0.008251317299230079
-0.005558227146739131,0.005519492005601839
-0.005557887146739131,0.0004508041114092655
-0.005557547146739131,0.002392704018918914
-0.005557207146739131,0.002754753154219042
-0.005556867146739131,0.001174902382003175
-0.005556527146739131,-0.0001416399281819828
-0.005556187146739131,0.002096481999127901
-0.005555847146739131,0.002063568441373403
-0.005555507146739131,0.001899000652600558
-0.005555167146739131,0.002524358249937143
-0.005554827146739131,0.002261049787901165
-0.005554487146739131,0.008679193550039321
-0.005554147146739131,-0.0001416399281819828
-0.005553807146739131,0.000714112573436502
-0.005553467146739131,-0.0001416399281819828
-0.005553127146739131,0.0002204092071181454
-0.005552787146739131,0.0001874956493635883
-0.005552447146739131,-0.001524009353873381
-0.005552107146739131,-0.0006353432945003394
-0.005551767146739131,-0.001030305987555025
-0.005551427146739131,-0.001030305987554726
-0.005551087146739131,-0.0008657381987822392
-0.005550747146739131,-0.0004049483902184396
-0.005550407146739131,-0.0001087263704296408
-0.005550067146739131,-0.001326528007346039
-0.005549727146739131,-0.002281021182228195
-0.005549387146739131,-0.00428874820524642
-0.005549047146739131,0.00107616170873663
-0.005548707146739131,0.000417890553645488
-0.005548367146739131,0.0002533227648679129
-0.005548027146739131,-0.002379761855491866
-0.005547687146739131,-0.007086400614393532
-0.005547347146739131,-0.005177414264625629
-0.005547007146739131,-0.003202600799355794
-0.005546667146739131,-0.003893785512201493
-0.005546327146739131,-0.004321661763011813
-0.005545987146739131,-0.004914105802592763
-0.005545647146739131,-0.002708897433037437
-0.005545307146739131,-0.003334255030375758
-0.005544967146739131,-0.004288748205256179
-0.005544627146739131,-0.004091266858728836
-0.005544287146739131,-0.003268427914865387
-0.005543947146739131,-0.003531736376901365
-0.005543607146739131,-0.003630477050165036
-0.005543267146739131,-0.003301341472619645
-0.005542927146739131,-0.003400082145883136
-0.005542587146739131,-0.0009973924298004675
-0.005542247146739131,-0.0003720348324650201
-0.005541907146739131,-0.00119487377632781
-0.005541567146739131,-0.00188605848917351
-0.005541227146739131,-0.001293614449592559
-0.005540887146739131,-0.001227787334082367
-0.005540547146739131,-0.002643070317528323
-0.005540207146739131,-0.002774724548546312
-0.005539867146739131,-0.000832824641027682
-0.005539527146739131,-0.001622750027137053
-0.005539187146739131,-0.005276154937886246
-0.005538847146739131,-0.0009644788720459105
-0.005538507146739131,0.0008128532467001733
-0.005538167146739131,0.003149715847269477
-0.005537827146739131,0.001339470170773087
-0.005537487146739131,-0.003400082145883136
-0.005537147146739131,-0.004124180416482076
-0.005536807146739131,-0.001556922911627938
-0.005536467146739131,-0.002017712720191738
-0.005536127146739131,-0.002873465221808666
-0.005535787146739131,-0.002050626277946295
-0.005535447146739131,-0.002577243202019209
-0.005535107146739131,-0.0006024297367493744
-0.005534767146739131,0.001010334593227516
-0.005534427146739131,0.001174902382000301
-0.005534087146739131,0.0004508041114013623
-0.005533747146739131,0.001109075266491187
-0.005533407146739131,0.001010334593227516
-0.005533067146739131,-0.0003391212747093254
-0.005532727146739131,-0.0003062077169547683
-0.005532387146739131,-0.002511416086510094
-0.005532047146739131,-0.003070946568337565
-0.005531707146739131,-0.003070946568337565
-0.005531367146739131,-0.003762131281183265
-0.005531027146739131,-0.003597563492410479
-0.005530687146739131,-0.002017712720191738
-0.005530347146739131,0.001800259979336887
-0.005530007146739131,0.001405297286282201
-0.005529667146739131,0.00278766671197348
-0.005529327146739131,0.002721839596464486
-0.005528987146739131,0.00130655661301853
-0.005528647146739131,-0.004519143109529816
-0.005528307146739131,2.292786059080275e-05
-0.005527967146739131,-0.0004378619479729968
-0.005527627146739131,0.0006153719001728905
-0.005527287146739131,0.0006482854579273878
-0.005526947146739131,-0.004650797340556306
-0.005526607146739131,-0.003334255030366778
-0.005526267146739131,0.0006482854579273878
-0.005525927146739131,0.0005824583424182735
-0.005525587146739131,-0.0005695161789891896
-0.005525247146739131,0.0005495447846637165
-0.005524907146739131,-0.0004707755057275538
-0.005524567146739131,-0.0005366026212360694
-0.005524227146739131,-0.000207467043691097
-0.005523887146739131,-0.001161960218573253
-0.005523547146739131,-0.003202600799362499
-0.005523207146739131,-0.00688891926786619
-0.005522867146739131,-0.01465651889794167
-0.005522527146739131,-0.02979675546507218
-0.005522187146739131,-0.04862331050064461
-0.005521847146739131,-0.07567825497489056
-0.005521507146739131,-0.104806753587729
-0.005521167146739131,-0.1352847080683935
-0.005520827146739131,-0.1661247116844135
-0.005520487146739131,-0.1953190374126526
-0.005520147146739131,-0.2182597871676319
-0.005519807146739131,-0.2359672812395837
-0.005519467146739131,-0.2512720855954249
-0.005519127146739131,-0.2593029936875647
-0.005518787146739131,-0.264700817159312
-0.005518447146739131,-0.2676630373572167
-0.005518107146739131,-0.2601258326314286
-0.005517767146739131,-0.2520290974238075
-0.005517427146739131,-0.2451172502953631
-0.005517087146739131,-0.2374813048962933
-0.005516747146739131,-0.2325442712331097
-0.005516407146739131,-0.2264881766062822
-0.005516067146739131,-0.2151988262964581
-0.005515727146739131,-0.2079907571482101
-0.005515387146739131,-0.2005522930956937
-0.005515047146739131,-0.1942328900068052
-0.005514707146739131,-0.1861032412414297
-0.005514367146739131,-0.180968726231728
-0.005514027146739131,-0.1733327808326615
-0.005513687146739131,-0.1660259710111498
-0.005513347146739131,-0.1616155542720472
-0.005513007146739131,-0.1554278054141824
-0.005512667146739131,-0.1506224259820171
-0.005512327146739131,-0.1427231721209234
-0.005511987146739131,-0.1386089774016037
-0.005511647146739131,-0.1311375997913193
-0.005511307146739131,-0.1245548882404078
-0.005510967146739131,-0.1155036598579046
-0.005510627146739131,-0.1146149937985316
-0.005510287146739131,-0.1107311939834939
-0.005509947146739131,-0.1058270738780649
-0.005509607146739131,-0.1024369774293455
-0.005509267146739131,-0.09832278271002584
-0.005508927146739131,-0.09407693375968043
-0.005508587146739131,-0.08992982548261377
-0.005508247146739131,-0.08765878999754934
-0.005507907146739131,-0.08900824586547024
-0.005507567146739131,-0.08025323950277399
-0.005507227146739131,-0.07544786007060864
-0.005506887146739131,-0.07347304660533623
-0.005506547146739131,-0.07403257708716268
-0.005506207146739131,-0.0717944551598528
-0.005505867146739131,-0.06626497745708271
-0.005505527146739131,-0.06379646062549543
-0.005505187146739131,-0.06254574543082225
-0.005504847146739131,-0.05945187100189622
-0.005504507146739131,-0.06073549975432162
-0.005504167146739131,-0.05375782551035551
-0.005503827146739131,-0.04859039694289693
-0.005503487146739131,-0.05237545608466411
-0.005503147146739131,-0.04684597838189852
-0.005502807146739131,-0.04503573270539698
-0.005502467146739131,-0.04454202933907952
-0.005502127146739131,-0.040493661735269
-0.005501787146739131,-0.03950625500263102
-0.005501447146739131,-0.03881507028978658
-0.005501107146739131,-0.03351598749130289
-0.005500767146739131,-0.03562245518760286
-0.005500427146739131,-0.04019743971547798
-0.005500087146739131,-0.03763018221062252
-0.005499747146739131,-0.03670860259349661
-0.005499407146739131,-0.03713647884430417
-0.005499067146739131,-0.03516166537903075
-0.005498727146739131,-0.03233109941214398
-0.005498387146739131,-0.03193613671908415
-0.005498047146739131,-0.03163991469929314
-0.005497707146739131,-0.02798650978854394
-0.005497367146739131,-0.02673579459386412
-0.005497027146739131,-0.02653831324733678
-0.005496687146739131,-0.02502428959062991
-0.005496347146739131,-0.02479389468634526
-0.005496007146739131,-0.02295073545209006
-0.005495667146739131,-0.02163419314191017
-0.005495327146739131,-0.02054804573600739
-0.005494987146739131,-0.0203834779472346
-0.005494647146739131,-0.01850740515522826
-0.005494307146739131,-0.01751999842258814
-0.005493967146739131,-0.01715794928728801
-0.005493627146739131,-0.01521604937977267
-0.005493287146739131,-0.01350454437653217
-0.005492947146739131,-0.01370202572305951
-0.005492607146739131,-0.01162847158452618
-0.005492267146739131,-0.01218800206634988
-0.005491927146739131,-0.01452486466692344
-0.005491587146739131,-0.006625610805844102
-0.005491247146739131,-0.007053487056638975
-0.005490907146739131,-0.00837002936682126
-0.005490567146739131,-0.01136516312248596
-0.005490227146739131,-0.01485400024446901
-0.005489887146739131,-0.01383367995407774
-0.005489547146739131,-0.01376785283856862
-0.005489207146739131,-0.01452486466692344
-0.005488867146739131,-0.01521604937976914
-0.005488527146739131,-0.01416281553162331
-0.005488187146739131,-0.01248422408614132
-0.005487847146739131,-0.0127146189904228
-0.005487507146739131,-0.01146390379574963
-0.005487167146739131,-0.01004862081230343
-0.005486827146739131,-0.009916966581285444
-0.005486487146739131,-0.01031192927434013
-0.005486147146739131,-0.009390349657209057
-0.005485807146739131,-0.007481363307448217
-0.005485467146739131,-0.007152227729902647
-0.005485127146739131,-0.005736944746455494
-0.005484787146739131,-0.005078673591365549
-0.005484447146739131,-0.005835685419720362
-0.005484107146739131,-0.004420402436274048
-0.005483767146739131,-0.004222921089747064
-0.005483427146739131,-0.006461043017056948
-0.005483087146739131,-0.003103860126091644
-0.005482747146739131,-0.002840551664055666
-0.005482407146739131,-0.003400082145883136
-0.005482067146739131,-0.003893785512208018
-0.005481727146739131,-0.007481363307448217
-0.005481387146739131,-0.005736944746456691
-0.005481047146739131,-0.002577243202017592
-0.005480707146739131,-0.001688577142646167
-0.005480367146739131,-0.0009644788720459105
-0.005480027146739131,-0.003663390607920791
-0.005479687146739131,-0.004321661763010735
-0.005479347146739131,-0.002281021182228195
-0.005479007146739131,-0.002281021182228195
-0.005478667146739131,-0.00290637877956478
-0.005478327146739131,-0.002017712720191738
-0.005477987146739131,-0.002544329644263694
-0.005477647146739131,-0.001096133103064139
-0.005477307146739131,-0.002873465221810222
-0.005476967146739131,-0.00254432964426525
-0.005476627146739131,-0.001161960218573253
-0.005476287146739131,-0.001359441565100596
-0.005475947146739131,-0.001721490700400065
-0.005475607146739131,-0.001129046660818696
-0.005475267146739131,-0.001622750027137053
-0.005474927146739131,-0.001425268680610069
-0.005474587146739131,-0.000832824641027682
-0.005474247146739131,-0.002182280508964523
-0.005473907146739131,-0.002511416086509496
-0.005473567146739131,-0.003268427914864908
-0.005473227146739131,-0.00165566358489161
-0.005472887146739131,-0.003400082145879963
-0.005472547146739131,-0.00369630416567415
-0.005472207146739131,-0.002577243202019209
-0.005471867146739131,-0.002610156759773706
-0.005471527146739131,-0.005802771861965805
-0.005471187146739131,-0.006625610805829733
-0.005470847146739131,0.002688926038692986
-0.005470507146739131,-0.00119487377632781
-0.005470167146739131,-0.002972205895073894
-0.005469827146739131,-0.001161960218573253
-0.005469487146739131,-0.001096133103064139
-0.005469147146739131,-0.001787317815909838
-0.005468807146739131,-0.00336716858812858
-0.005468467146739131,-0.003630477050165036
-0.005468127146739131,-0.003531736376901365
-0.005467787146739131,-0.003103860126092122
-0.005467447146739131,-0.000832824641027682
-0.005467107146739131,-0.0001087263704274257
-0.005466767146739131,-0.003169687241601236
-0.005466427146739131,-0.002050626277943481
-0.005466087146739131,-0.0005036890634821109
-0.005465747146739131,-0.003301341472619465
-0.005465407146739131,0.00114198882424329
-0.005465067146739131,-0.000207467043691097
-0.005464727146739131,0.003939641233383098
-0.005464387146739131,0.0009445074777153484
-0.005464047146739131,-0.0007340839677640107
-0.005463707146739131,0.001866087094846001
-0.005463367146739131,0.003939641233378548
-0.005463027146739131,0.001438210844036758
-0.005462687146739131,5.584141834535986e-05
-0.005462347146739131,-0.000273294159206258
-0.005462007146739131,-0.003597563492410479
-0.005461667146739131,-0.002544329644264652
-0.005461327146739131,-0.00376213128118536
-0.005460987146739131,-0.004914105802592763
-0.005460647146739131,-0.005605290515438462
-0.005460307146739131,-0.003663390607917677
-0.005459967146739131,-0.002610156759773766
-0.005459627146739131,-0.001622750027137053
-0.005459287146739131,-0.001227787334083505
-0.005458947146739131,-0.001853144931418952
-0.005458607146739131,0.001471124401791315
-0.005458267146739131,0.001438210844035082
-0.005457927146739131,0.0005166312269091594
-0.005457587146739131,-0.0006024297367457822
-0.005457247146739131,0.001207815939751566
-0.005456907146739131,0.0002862363226272596
-0.005456567146739131,-0.001458182238364267
-0.005456227146739131,-0.002248107624472201
-0.005455887146739131,-0.002939292337319337
-0.005455547146739131,-0.005704031188702134
-0.005455207146739131,-0.003235514357114841
-0.005454867146739131,0.0006153719001728307
-0.005454527146739131,0.002491444692182586
-0.005454187146739131,0.004235863253170939
-0.005453847146739131,-0.0007340839677640107
-0.005453507146739131,-0.003070946568337565
-0.005453167146739131,2.292786058517501e-05
-0.005452827146739131,-0.0009315653142913533
-0.005452487146739131,-0.003202600799355794
-0.005452147146739131,-0.002248107624475374
-0.005451807146739131,-0.001688577142646167
-0.005451467146739131,-0.002149366951209966
-0.005451127146739131,-0.0007669975255210823
-0.005450787146739131,0.0002862363226272596
-0.005450447146739131,-7.581281267286857e-05
-0.005450107146739131,0.0004508041113990872
-0.005449767146739131,0.0005166312269091594
-0.005449427146739131,0.0002204092071181454
-0.005449087146739131,0.0002204092071181454
-0.005448747146739131,-4.289925491831147e-05
-0.005448407146739131,-0.0001416399281819828
-0.005448067146739131,-0.001260700891836924
-0.005447727146739131,-0.001227787334082367
-0.005447387146739131,-0.002873465221810222
-0.005447047146739131,-0.003169687241601236
-0.005446707146739131,-0.003432995703637694
-0.005446367146739131,-0.004914105802592763
-0.005446027146739131,-0.005012846475856435
-0.005445687146739131,-0.005440722726665796
-0.005445347146739131,-0.005506549842174791
-0.005445007146739131,-0.008764992059875945
-0.005444667146739131,-0.001556922911624466
-0.005444327146739131,0.0003520634381363738
-0.005443987146739131,0.0004508041114000451
-0.005443647146739131,0.001569865075045647
-0.005443307146739131,-0.003564649934655922
-0.005442967146739131,-0.003301341472619465
-0.005442627146739131,0.0001216685338536359
-0.005442287146739131,-0.0003391212747093254
-0.005441947146739131,-0.001096133103064139
-0.005441607146739131,5.584141834763489e-05
-0.005441267146739131,0.00130655661301853
-0.005440927146739131,-0.000832824641027682
-0.005440587146739131,-0.00103030598755712
-0.005440247146739131,-0.002182280508964523
-0.005439907146739131,-0.004025439743219721
-0.005439567146739131,-0.003334255030373244
-0.005439227146739131,-0.00290637877956478
-0.005438887146739131,-0.002840551664055666
-0.005438547146739131,-0.001721490700398269
-0.005438207146739131,-0.0003720348324638825
-0.005437867146739131,0.0003520634381363738
-0.005437527146739131,0.0007470261311908196
-0.005437187146739131,0.0006153719001728307
-0.005436847146739131,0.0001874956493635883
-0.005436507146739131,-0.0005036890634808537
-0.005436167146739131,0.0002862363226272596
-0.005435827146739131,0.00107616170873663
-0.005435487146739131,0.001010334593227636
-0.005435147146739131,0.0009445074777184018
-0.005434807146739131,-0.00267598387528288
-0.005434467146739131,0.002293963345646202
-0.005434127146739131,0.004663739503983355
-0.005433787146739131,0.002656012480955371
-0.005433447146739131,0.0007470261311945316
-0.005433107146739131,-0.003070946568337565
-0.005432767146739131,-0.004716624456065421
-0.005432427146739131,-0.002675983875286592
-0.005432087146739131,-0.003893785512201493
-0.005431747146739131,-0.003795044838937822
-0.005431407146739131,-0.00346590926139285
-0.005431067146739131,-0.002281021182228195
-0.005430727146739131,-0.001918972046928067
-0.005430387146739131,-0.002412675413245525
-0.005430047146739131,-0.001524009353873381
-0.005429707146739131,-0.002116453393455409
-0.005429367146739131,-0.002313934739982393
-0.005429027146739131,-0.003070946568337565
-0.005428687146739131,-0.001260700891836924
-0.005428347146739131,-0.00214936695120835
-0.005428007146739131,-0.001293614449591481
-0.005427667146739131,-0.001096133103064139
-0.005427327146739131,-0.0007669975255185678
-0.005426987146739131,-0.002083539835700852
-0.005426647146739131,-0.0006682568522548965
-0.005426307146739131,0.001602778632809544
-0.005425967146739131,0.001964827768109672
-0.005425627146739131,0.002656012480955371
-0.005425287146739131,0.002425617576673472
-0.005424947146739131,0.001372383728527644
-0.005424607146739131,0.001174902382000301
-0.005424267146739131,-0.004321661763010735
-0.005423927146739131,0.003347197193807836
-0.005423587146739131,0.007066429220066024
-0.005423247146739131,0.002886407385237271
-0.005422907146739131,0.000681199015676377
-0.005422567146739131,-0.002379761855491866
-0.005422227146739131,-0.001359441565100596
-0.005421887146739131,-0.001918972046928965
-0.005421547146739131,-0.002412675413246423
-0.005421207146739131,-0.002478502528755537
-0.005420867146739131,-0.002445588971001938
-0.005420527146739131,-0.002972205895073894
-0.005420187146739131,-0.001227787334082367
-0.005419847146739131,-0.001096133103064019
-0.005419507146739131,-0.001030305987555025
-0.005419167146739131,-0.0006682568522548965
-0.005418827146739131,-0.001392355122855991
-0.005418487146739131,-0.001853144931418952
-0.005418147146739131,-0.000832824641027682
-0.005417807146739131,-0.001293614449593278
