Analysis/files/cmb03_d2s01/wrd10_ch27.csv

#Digilent WaveForms Oscilloscope Acquisition
#Device Name: ADP3450
#Serial Number: SN:210018B9D9B0
#Date Time: 2024-08-09 17:20:46.927.938.780
#Sample rate: 2.94118e+06Hz
#Samples: 32768
#Trigger: Source: Channel 3 Type: Edge Condition: Rising Level: 60 mV Hyst.: Auto HoldOff: 0 s
#Channel 3: Range: 200 mV/div Offset: 0 V Attenuation: 1 X Coupling: DC Bandwidth: 0 Hz Sample Mode: Average

Time (s),Channel 3 (V)
-0.005570488786717753,0.005684059794374625
-0.005570148786717752,0.002557271807685833
-0.005569808786717752,-0.0006682568522548965
-0.005569468786717753,0.004137122579910441
-0.005569128786717752,0.005058702197039478
-0.005568788786717752,0.005848627583147411
-0.005568448786717753,0.004137122579910441
-0.005568108786717752,-0.0006353432944972861
-0.005567768786717752,0.001043248150982073
-0.005567428786717753,0.002228136230146129
-0.005567088786717752,-0.0006353432945009979
-0.005566748786717752,-0.0009973924298004675
-0.005566408786717753,-0.002281021182228195
-0.005566068786717752,-0.003926699069955392
-0.005565728786717752,-0.003564649934655922
-0.005565388786717753,-0.002939292337319337
-0.005565048786717752,-0.003301341472620004
-0.005564708786717752,-0.003597563492410479
-0.005564368786717753,-0.004354575320765292
-0.005564028786717752,-0.004519143109535743
-0.005563688786717752,-0.003235514357110351
-0.005563348786717753,-0.005045760033610991
-0.005563008786717753,-0.005506549842173953
-0.005562668786717752,-0.005440722726665677
-0.005562328786717753,-0.004815365129329092
-0.005561988786717753,-0.005407809168910042
-0.005561648786717752,-0.005835685419720362
-0.005561308786717753,-0.004848278687083649
-0.005560968786717753,-0.005440722726664599
-0.005560628786717752,-0.005704031188702134
-0.005560288786717753,-0.005012846475856435
-0.005559948786717753,-0.005407809168910402
-0.005559608786717752,-0.01008153437005823
-0.005559268786717753,-0.007152227729902647
-0.005558928786717753,-0.003136773683853984
-0.005558588786717752,-0.003597563492410479
-0.005558248786717753,-0.001754404258155281
-0.005557908786717753,-0.006823092152347856
-0.005557568786717752,-0.009061214079666959
-0.005557228786717753,-0.006526870132566062
-0.005556888786717753,-0.0060660803240031
-0.005556548786717752,-0.00790923955825746
-0.005556208786717753,-0.007349709076429989
-0.005555868786717753,-0.00567111763095063
-0.005555528786717752,-0.007152227729902647
-0.005555188786717753,-0.005934426092984033
-0.005554848786717753,-0.006263561670529006
-0.005554508786717752,-0.008073807347030245
-0.005554168786717753,-0.009159954752930631
-0.005553828786717753,-0.01073980552514937
-0.005553488786717752,-0.01116768177595861
-0.005553148786717753,-0.01027901571658557
-0.005552808786717753,-0.01027901571658557
-0.005552468786717752,-0.01014736148556734
-0.005552128786717752,-0.0106410648518857
-0.005551788786717753,-0.009916966581285444
-0.005551448786717752,-0.01067397840964056
-0.005551108786717752,-0.01083854619841304
-0.005550768786717753,-0.01080563264065849
-0.005550428786717752,-0.01304375456796687
-0.005550088786717752,-0.01222091562410444
-0.005549748786717753,-0.01258296475940457
-0.005549408786717752,-0.01255005120165833
-0.005549068786717752,-0.01712503572953345
-0.005548728786717753,-0.01031192927434013
-0.005548388786717752,-0.006921832825621346
-0.005548048786717752,-0.007250968403166318
-0.005547708786717753,-0.005901512535229476
-0.005547368786717752,-0.009949880139031321
-0.005547028786717752,-0.00517741426462922
-0.005546688786717753,-0.006329388786038719
-0.005546348786717752,-0.007580103980714403
-0.005546008786717752,-0.008962473406403288
-0.005545668786717753,-0.009456176772721644
-0.005545328786717752,-0.009390349657215644
-0.005544988786717752,-0.0111018546604495
-0.005544648786717753,-0.01136516312248596
-0.005544308786717752,-0.01235256985512441
-0.005543968786717752,-0.01330706303000483
-0.005543628786717753,-0.0134058037032685
-0.005543288786717752,-0.01205634783532938
-0.005542948786717752,-0.01080563264065849
-0.005542608786717753,-0.01106894110269494
-0.005542268786717753,-0.00988405302353304
-0.005541928786717752,-0.01014736148556734
-0.005541588786717753,-0.01027901571658557
-0.005541248786717753,-0.0087649920598787
-0.005540908786717752,-0.009818225908021772
-0.005540568786717753,-0.01116768177595861
-0.005540228786717753,-0.01090437331392264
-0.005539888786717752,-0.01097020042943127
-0.005539548786717753,-0.01037775638984924
-0.005539208786717753,-0.01073980552514871
-0.005538868786717752,-0.01218800206634988
-0.005538528786717753,-0.01748708486483358
-0.005538188786717753,-0.008139634462556363
-0.005537848786717752,-0.006790178594602518
-0.005537508786717753,-0.01333997658775938
-0.005537168786717753,-0.01330706303000489
-0.005536828786717752,-0.008402942924575817
-0.005536488786717753,-0.009324522541703417
-0.005536148786717753,-0.01116768177595526
-0.005535808786717752,-0.01067397840964026
-0.005535468786717753,-0.01231965629736811
-0.005535128786717753,-0.01228674273961362
-0.005534788786717752,-0.01491982735997812
-0.005534448786717753,-0.01538061716854192
-0.005534108786717753,-0.01501856803324246
-0.005533768786717752,-0.0143273833203961
-0.005533428786717753,-0.01310958168347748
-0.005533088786717753,-0.01255005120165001
-0.005532748786717752,-0.01113476821820406
-0.005532408786717753,-0.01205634783533165
-0.005532068786717753,-0.0117930393732952
-0.005531728786717752,-0.006263561670529605
-0.005531388786717753,-0.008501683597839487
-0.005531048786717753,-0.01620345611240585
-0.005530708786717752,-0.01287918677919558
-0.005530368786717752,-0.009061214079666959
-0.005530028786717753,-0.01208926139308621
-0.005529688786717752,-0.01176012581553938
-0.005529348786717752,-0.01106894110269494
-0.005529008786717753,-0.01034484283209469
-0.005528668786717752,-0.01143099023799369
-0.005528328786717752,-0.01067397840964026
-0.005527988786717753,-0.01136516312248596
-0.005527648786717752,-0.0109043733139197
-0.005527308786717752,-0.009554917445985316
-0.005526968786717753,-0.01008153437005823
-0.005526628786717752,-0.01034484283209678
-0.005526288786717752,-0.01149681735350419
-0.005525948786717753,-0.01287918677919558
-0.005525608786717752,-0.01538061716854264
-0.005525268786717752,-0.01577557986159661
-0.005524928786717753,-0.01781622044237915
-0.005524588786717752,-0.01735543063381487
-0.005524248786717752,-0.01709212217177889
-0.005523908786717753,-0.01679590015198788
-0.005523568786717752,-0.01798078823115619
-0.005523228786717752,-0.02031765083172549
-0.005522888786717753,-0.02801942334629185
-0.005522548786717752,-0.04812960713435474
-0.005522208786717752,-0.06379646062549543
-0.005521868786717753,-0.08571689009003047
-0.005521528786717752,-0.1203748664056401
-0.005521188786717752,-0.1539137817574728
-0.005520848786717753,-0.1817257380600736
-0.005520508786717753,-0.2100643112866957
-0.005520168786717752,-0.2345849118138923
-0.005519828786717753,-0.2508442093446435
-0.005519488786717753,-0.2643058544662328
-0.005519148786717752,-0.2691112338984227
-0.005518808786717753,-0.2712506151524689
-0.005518468786717753,-0.2694403694759715
-0.005518128786717752,-0.2649641256213485
-0.005517788786717753,-0.2572952666645367
-0.005517448786717753,-0.2507783822291462
-0.005517108786717752,-0.2442944113514866
-0.005516768786717753,-0.23586854056632
-0.005516428786717753,-0.2292200018999116
-0.005516088786717752,-0.2221765005404242
-0.005515748786717753,-0.2155937889895128
-0.005515408786717753,-0.2086819418610684
-0.005515068786717752,-0.20242836588769
-0.005514728786717753,-0.1956810865480058
-0.005514388786717753,-0.1889338072083338
-0.005514048786717752,-0.1824827498884284
-0.005513708786717753,-0.1757683841064987
-0.005513368786717753,-0.1693502403443718
-0.005513028786717752,-0.1632941457175216
-0.005512688786717753,-0.1569089155131375
-0.005512348786717753,-0.1504578581932443
-0.005512008786717752,-0.1456195652033244
-0.005511668786717753,-0.1397938654807678
-0.005511328786717753,-0.1334744623918928
-0.005510988786717752,-0.1305122421939827
-0.005510648786717753,-0.1253448136265172
-0.005510308786717753,-0.1202761257323154
-0.005509968786717752,-0.1161290174552412
-0.005509628786717752,-0.1135946735081403
-0.005509288786717753,-0.1088551211914841
-0.005508948786717752,-0.1078018873433313
-0.005508608786717752,-0.1039510010860551
-0.005508268786717753,-0.09888231319185331
-0.005507928786717752,-0.09618340145597926
-0.005507588786717752,-0.09598592010945228
-0.005507248786717753,-0.09006147971363199
-0.005506908786717752,-0.08667138326491189
-0.005506568786717752,-0.08627642057185794
-0.005506228786717753,-0.08255718854559299
-0.005505888786717752,-0.0828204970076289
-0.005505548786717752,-0.08252427498783843
-0.005505208786717753,-0.07495415670429029
-0.005504868786717752,-0.07218941785290577
-0.005504528786717752,-0.07123492467802534
-0.005504188786717753,-0.06797648246032417
-0.005503848786717752,-0.06623206389933091
-0.005503508786717752,-0.06527757072445051
-0.005503168786717753,-0.06274322677734961
-0.005502828786717752,-0.05487688647402057
-0.005502488786717752,-0.0604392777345306
-0.005502148786717753,-0.05734540330560223
-0.005501808786717752,-0.05543641695583547
-0.005501468786717752,-0.05408696108790108
-0.005501128786717753,-0.05191466627610031
-0.005500788786717752,-0.05010442059959704
-0.005500448786717752,-0.04865622405839916
-0.005500108786717753,-0.04694471905516219
-0.005499768786717753,-0.04589148520701828
-0.005499428786717752,-0.04401541241500661
-0.005499088786717753,-0.04385084462623382
-0.005498748786717753,-0.03937460077162219
-0.005498408786717752,-0.03924294654059583
-0.005498068786717753,-0.03786057711490443
-0.005497728786717753,-0.037037738171042
-0.005497388786717752,-0.03651112124696759
-0.005497048786717753,-0.04144815491015115
-0.005496708786717753,-0.03782766355715646
-0.005496368786717752,-0.03193613671908415
-0.005496028786717753,-0.03802514490367721
-0.005495688786717753,-0.03993413125343805
-0.005495348786717752,-0.03088290287093832
-0.005495008786717753,-0.03368055528007567
-0.005494668786717753,-0.0381897126924418
-0.005494328786717752,-0.03456922133944872
-0.005493988786717753,-0.03101455710195655
-0.005493648786717753,-0.0316070011415375
-0.005493308786717752,-0.03081707575542921
-0.005492968786717753,-0.02979675546503794
-0.005492628786717753,-0.02778902844201361
-0.005492288786717752,-0.02555090651470007
-0.005491948786717753,-0.02597878276550931
-0.005491608786717753,-0.02591295565000032
-0.005491268786717752,-0.02650539968958223
-0.005490928786717753,-0.02104174910232575
-0.005490588786717753,-0.01781622044237915
-0.005490248786717752,-0.02469515401308158
-0.005489908786717753,-0.0266041403628459
-0.005489568786717753,-0.0222266371814898
-0.005489228786717752,-0.02035056438948005
-0.005488888786717753,-0.02334569814514474
-0.005488548786717753,-0.02443184555104513
-0.005488208786717752,-0.02252285920128063
-0.005487868786717752,-0.02242411852801714
-0.005487528786717753,-0.0229178218943355
-0.005487188786717752,-0.02446475910879699
-0.005486848786717752,-0.02298364900984462
-0.005486508786717753,-0.02341152526065386
-0.005486168786717752,-0.02140379823762516
-0.005485828786717752,-0.02100883554457119
-0.005485488786717753,-0.02248994564352626
-0.005485148786717752,-0.02061387285151549
-0.005484808786717752,-0.02005434236968903
-0.005484468786717753,-0.01857323227073396
-0.005484128786717752,-0.01946189833010587
-0.005483788786717752,-0.01883654073277042
-0.005483448786717753,-0.01956063900337068
-0.005483108786717752,-0.01890236784827905
-0.005482768786717752,-0.01863905938624308
-0.005482428786717753,-0.01975812034989802
-0.005482088786717752,-0.01916567631031773
-0.005481748786717752,-0.02012016948519815
-0.005481408786717753,-0.02298364900984462
-0.005481068786717752,-0.01653259168994939
-0.005480728786717752,-0.01541353072629648
-0.005480388786717753,-0.0143273833203961
-0.005480048786717752,-0.01462360534019046
-0.005479708786717752,-0.01646676457444231
-0.005479368786717753,-0.01459069178243255
-0.005479028786717753,-0.01366911216530663
-0.005478688786717752,-0.01215508850859533
-0.005478348786717753,-0.0129450138947047
-0.005478008786717753,-0.01495274091772903
-0.005477668786717752,-0.01376785283856862
-0.005477328786717753,-0.01383367995407774
-0.005476988786717753,-0.01366911216530525
-0.005476648786717752,-0.01396533418509597
-0.005476308786717753,-0.01337289014551394
-0.005475968786717753,-0.01291210033695098
-0.005475628786717752,-0.01245131052838634
-0.005475288786717753,-0.01185886648880431
-0.005474948786717753,-0.01333997658775669
-0.005474608786717752,-0.0138665935118323
-0.005474268786717753,-0.01465651889794167
-0.005473928786717753,-0.01501856803324114
-0.005473588786717752,-0.01771747976911548
-0.005473248786717753,-0.01656550524770598
-0.005472908786717753,-0.01686172726749646
-0.005472568786717752,-0.01755291198034269
-0.005472228786717753,-0.01696046794076066
-0.005471888786717753,-0.018902367848276
-0.005471548786717752,-0.01732251707606079
-0.005471208786717753,-0.01903402207929776
-0.005470868786717753,-0.01959355256112422
-0.005470528786717752,-0.01261587831715913
-0.005470188786717753,-0.01034484283209469
-0.005469848786717753,-0.009192868310685188
-0.005469508786717752,-0.01310958168347748
-0.005469168786717753,-0.01485400024446901
-0.005468828786717753,-0.01264879187491368
-0.005468488786717752,-0.01337289014551394
-0.005468148786717753,-0.01574266630384205
-0.005467808786717753,-0.014557778224678
-0.005467468786717752,-0.01600597476587851
-0.005467128786717752,-0.0152489629375237
-0.005466788786717753,-0.01498565447548724
-0.005466448786717752,-0.01491982735997812
-0.005466108786717752,-0.01491982735997812
-0.005465768786717753,-0.01380076639632318
-0.005465428786717752,-0.01347163081877761
-0.005465088786717752,-0.01347163081877761
-0.005464748786717753,-0.01301084101021381
-0.005464408786717752,-0.01261587831715721
-0.005464068786717752,-0.0115626444690133
-0.005463728786717753,-0.01050941062086747
-0.005463388786717752,-0.01123350889146815
-0.005463048786717752,-0.01146390379574963
-0.005462708786717753,-0.01106894110269494
-0.005462368786717752,-0.01057523773638072
-0.005462028786717752,-0.01284627322144103
-0.005461688786717753,-0.0129450138947047
-0.005461348786717752,-0.01422864264713045
-0.005461008786717752,-0.01314249524123204
-0.005460668786717753,-0.01659841880546054
-0.005460328786717752,-0.01083854619841388
-0.005459988786717752,-0.01129933600697684
-0.005459648786717753,-0.01008153437005823
-0.005459308786717752,-0.01024610215884353
-0.005458968786717752,-0.01712503572953345
-0.005458628786717753,-0.01393242062734141
-0.005458288786717752,-0.0118259529310576
-0.005457948786717752,-0.01613762899689674
-0.005457608786717753,-0.01673007303647877
-0.005457268786717753,-0.01468943245569994
-0.005456928786717752,-0.01541353072629648
-0.005456588786717753,-0.01439321043590521
-0.005456248786717753,-0.01294501389470733
-0.005455908786717752,-0.01373493928081407
-0.005455568786717753,-0.01376785283856862
-0.005455228786717753,-0.01360328504979614
-0.005454888786717752,-0.01324123591449571
-0.005454548786717753,-0.0150185680332418
-0.005454208786717753,-0.01353745793428942
-0.005453868786717752,-0.01452486466692344
-0.005453528786717753,-0.01574266630384205
-0.005453188786717753,-0.01383367995408121
-0.005452848786717752,-0.01422864264713243
-0.005452508786717753,-0.0143273833203961
-0.005452168786717753,-0.01294501389470721
-0.005451828786717752,-0.01419572908937787
-0.005451488786717753,-0.0129450138947047
-0.005451148786717753,-0.01222091562410576
-0.005450808786717752,-0.01113476821820406
-0.005450468786717753,-0.01429446976264154
-0.005450128786717753,-0.01626928322791137
-0.005449788786717752,-0.01014736148556734
-0.005449448786717753,-0.01152973091125874
-0.005449108786717753,-0.01136516312248626
-0.005448768786717752,-0.01396533418509597
-0.005448428786717753,-0.01784913400013371
-0.005448088786717753,-0.01613762899689674
-0.005447748786717752,-0.01373493928081407
-0.005447408786717753,-0.01544644428405104
-0.005447068786717753,-0.01630219678566952
-0.005446728786717752,-0.01353745793428673
-0.005446388786717752,-0.01320832235674115
-0.005446048786717753,-0.01301084101021381
-0.005445708786717752,-0.01245131052838568
-0.005445368786717752,-0.01208926139308621
-0.005445028786717753,-0.01136516312248596
-0.005444688786717752,-0.01149681735350401
-0.005444348786717752,-0.01139807668024051
-0.005444008786717753,-0.01258296475940457
-0.005443668786717752,-0.01172721225778399
-0.005443328786717752,-0.01057523773637659
-0.005442988786717753,-0.01169429870003153
-0.005442648786717752,-0.0122867427396117
-0.005442308786717752,-0.01126642244922228
-0.005441968786717753,-0.01021318860107646
-0.005441628786717752,-0.008995386964159281
-0.005441288786717752,-0.009785312350267215
-0.005440948786717753,-0.01057523773637659
-0.005440608786717752,-0.01139807668023997
-0.005440268786717752,-0.0111018546604495
-0.005439928786717753,-0.01751999842258814
-0.005439588786717752,-0.0165984188054491
-0.005439248786717752,-0.01031192927434013
-0.005438908786717753,-0.0106410648518857
-0.005438568786717752,-0.009587831003744543
-0.005438228786717752,-0.01215508850859533
-0.005437888786717753,-0.01459069178243255
-0.005437548786717752,-0.01436029687814646
-0.005437208786717752,-0.01205634783533165
-0.005436868786717753,-0.01399824774285052
-0.005436528786717753,-0.01528187649527592
-0.005436188786717752,-0.01399824774285052
-0.005435848786717753,-0.01347163081877761
-0.005435508786717753,-0.01268170543266968
-0.005435168786717752,-0.01205634783533165
-0.005434828786717753,-0.01097020042943127
-0.005434488786717753,-0.01126642244922174
-0.005434148786717752,-0.01073980552514937
-0.005433808786717753,-0.009587831003739873
-0.005433468786717753,-0.01064106485188378
-0.005433128786717752,-0.009324522541703417
-0.005432788786717753,-0.009752398792512659
-0.005432448786717753,-0.0092586954261952
-0.005432108786717752,-0.01044358350535836
-0.005431768786717753,-0.01139807668024051
-0.005431428786717753,-0.01261587831715691
-0.005431088786717752,-0.01343871726102305
-0.005430748786717753,-0.0131754087989866
-0.005430408786717753,-0.01587432053485537
-0.005430068786717752,-0.01475525957120534
-0.005429728786717753,-0.01521604937976914
-0.005429388786717753,-0.01854031871297336
-0.005429048786717752,-0.01152973091125874
-0.005428708786717753,-0.009818225908021772
-0.005428368786717753,-0.009752398792512778
-0.005428028786717752,-0.01034484283209469
-0.005427688786717753,-0.01412990197386875
-0.005427348786717753,-0.01399824774285052
-0.005427008786717752,-0.01281335966368647
-0.005426668786717753,-0.0124842240861409
-0.005426328786717753,-0.0129450138947047
-0.005425988786717752,-0.01320832235674115
-0.005425648786717753,-0.01113476821820406
-0.005425308786717753,-0.01057523773637659
-0.005424968786717752,-0.01057523773637659
-0.005424628786717752,-0.01152973091125874
-0.005424288786717753,-0.01205634783533165
-0.005423948786717752,-0.01225382918186055
-0.005423608786717752,-0.01310958168347748
-0.005423268786717753,-0.01287918677919558
-0.005422928786717752,-0.01268170543266758
-0.005422588786717752,-0.01231965629736811
-0.005422248786717753,-0.01245131052838634
-0.005421908786717752,-0.01294501389470554
-0.005421568786717752,-0.0134058037032685
-0.005421228786717753,-0.01426155620488698
-0.005420888786717752,-0.0145248646669238
-0.005420548786717752,-0.01472234601345078
-0.005420208786717753,-0.01159555802676786
-0.005419868786717752,-0.01268170543266752
-0.005419528786717752,-0.01228674273961356
-0.005419188786717753,-0.01304375456796837
-0.005418848786717752,-0.01610471543913464
-0.005418508786717752,-0.01195760716206798
-0.005418168786717753,-0.01123350889146773
-0.005417828786717752,-0.01129933600698361
-0.005417488786717752,-0.0150185680332418
-0.005417148786717753,-0.01633511034342408
-0.005416808786717752,-0.0171250357295301
-0.005416468786717752,-0.01528187649527825
-0.005416128786717753,-0.01488691380222357
