Analysis/files/cmb03_d2s01/wrd12_ch07.csv

#Digilent WaveForms Oscilloscope Acquisition
#Device Name: ADP3450
#Serial Number: SN:210018B9D9B0
#Date Time: 2024-08-12 11:46:24.211.930.020
#Sample rate: 2.94118e+06Hz
#Samples: 32768
#Trigger: Source: Channel 3 Type: Edge Condition: Rising Level: 60 mV Hyst.: Auto HoldOff: 0 s
#Channel 3: Range: 200 mV/div Offset: 0 V Attenuation: 1 X Coupling: DC Bandwidth: 0 Hz Sample Mode: Average

Time (s),Channel 3 (V)
-0.005570260848056538,0.01328709163567732
-0.005569920848056537,0.01243133913405626
-0.005569580848056538,0.01101605615061288
-0.005569240848056538,0.007691786817402609
-0.005568900848056537,0.01118062393938794
-0.005568560848056537,0.01243133913405883
-0.005568220848056538,0.01424158481055947
-0.005567880848056537,0.01292504250036623
-0.005567540848056537,0.006901861431293239
-0.005567200848056538,0.008086749510457293
-0.005566860848056537,0.009304551147372974
-0.005566520848056537,0.007691786817402609
-0.005566180848056538,0.007395564797611595
-0.005565840848056537,0.007889268163931866
-0.005565500848056537,0.008942502012075779
-0.005565160848056538,0.009567859609412364
-0.005564820848056537,0.01071983413081875
-0.005564480848056537,0.009008329127584893
-0.005564140848056538,0.009929908744712493
-0.005563800848056537,0.007922181721680556
-0.005563460848056537,0.00574988690988374
-0.005563120848056538,0.005124529312547154
-0.005562780848056538,0.004202949695421232
-0.005562440848056537,0.002392704018918914
-0.005562100848056538,0.002129395556882458
-0.005561760848056538,0.003610505655834833
-0.005561420848056537,0.002754753154219042
-0.005561080848056538,0.003610505655837527
-0.005560740848056538,0.005420751332334875
-0.005560400848056537,0.005157442870301712
-0.005560060848056538,0.004466258157456012
-0.005559720848056538,0.004992875081527968
-0.005559380848056537,0.003281370078291956
-0.005559040848056538,-4.289925491831147e-05
-0.005558700848056538,-0.002939292337314069
-0.005558360848056537,0.001240729497509416
-0.005558020848056538,0.00357759209808297
-0.005557680848056538,-0.002050626277936058
-0.005557340848056537,-0.002807638106301108
-0.005557000848056538,-0.001688577142646167
-0.005556660848056538,-0.002313934739981614
-0.005556320848056537,-0.002643070317528323
-0.005555980848056538,-0.003992526185465165
-0.005555640848056538,-0.002511416086512789
-0.005555300848056537,-0.002379761855491866
-0.005554960848056538,-0.002281021182228195
-0.005554620848056538,-0.0006682568522578302
-0.005554280848056537,0.0002533227648727025
-0.005553940848056538,0.0003849769958909309
-0.005553600848056538,0.001043248150982073
-0.005553260848056537,0.002952234500746385
-0.005552920848056538,0.002096481999127901
-0.005552580848056538,-4.289925491831147e-05
-0.005552240848056537,0.0006811990156819448
-0.005551900848056538,0.001569865075054987
-0.005551560848056538,0.0009115939199638446
-0.005551220848056537,0.001174902381998865
-0.005550880848056538,0.0003849769958909309
-0.005550540848056538,-0.0004707755057275538
-0.005550200848056537,0.001273643055261219
-0.005549860848056538,-0.0002403806014456541
-0.005549520848056538,-0.00119487377632781
-0.005549180848056537,0.0007799396889460352
-0.005548840848056538,0.001010334593227516
-0.005548500848056538,0.0006482854579273878
-0.005548160848056537,0.00101033459323488
-0.005547820848056538,0.00505870219703804
-0.005547480848056538,0.003742159886855756
-0.005547140848056537,0.005980281814158215
-0.005546800848056537,0.001899000652600558
-0.005546460848056538,-0.004321661763010735
-0.005546120848056537,-0.003498822819145251
-0.005545780848056537,-0.002643070317528323
-0.005545440848056538,-0.005802771861965805
-0.005545100848056537,-0.006559783690318045
-0.005544760848056537,-0.005144500706874663
-0.005544420848056538,-0.005572376957683906
-0.005544080848056537,-0.006329388786031295
-0.005543740848056537,-0.002248107624473638
-0.005543400848056538,-0.004815365129329092
-0.005543060848056537,-0.005967339650737214
-0.005542720848056537,-0.005210327822383777
-0.005542380848056538,-0.003070946568337565
-0.005542040848056538,-0.003103860126092063
-0.005541700848056537,-0.001458182238364267
-0.005541360848056538,-0.000832824641027682
-0.005541020848056538,-0.00145818223836313
-0.005540680848056537,-0.0004378619479729968
-0.005540340848056538,-0.00267598387528288
-0.005540000848056538,-0.003103860126091344
-0.005539660848056537,-0.002281021182228195
-0.005539320848056538,-0.003400082145883136
-0.005538980848056538,-0.004091266858727578
-0.005538640848056537,-0.003005119452828451
-0.005538300848056538,-0.003070946568337565
-0.005537960848056538,-0.006823092152350251
-0.005537620848056537,-0.0001745534859365399
-0.005537280848056538,0.001701519306073215
-0.005536940848056538,0.00199774132586369
-0.005536600848056537,0.0003520634381363738
-0.005536260848056538,-0.002215194066719081
-0.005535920848056538,-0.001359441565102152
-0.005535580848056537,0.0003191498803818167
-0.005535240848056538,-0.0009973924298004675
-0.005534900848056538,-0.001260700891836445
-0.005534560848056537,-0.001293614449591481
-0.005534220848056538,-0.0005036890634821109
-0.005533880848056538,-0.001622750027135017
-0.005533540848056537,-0.003301341472619465
-0.005533200848056538,-0.002478502528755537
-0.005532860848056538,-0.002379761855491866
-0.005532520848056537,-0.002050626277946295
-0.005532180848056538,-0.001293614449591481
-0.005531840848056538,-0.001491095796118824
-0.005531500848056537,-0.001622750027137053
-0.005531160848056538,0.000714112573436502
-0.005530820848056538,-0.0007340839677640107
-0.005530480848056537,-0.002840551664055666
-0.005530140848056538,-0.001787317815909838
-0.005529800848056538,-0.002083539835700852
-0.005529460848056537,-0.002610156759774843
-0.005529120848056538,-0.003202600799355794
-0.005528780848056538,-0.00313677368384668
-0.005528440848056537,-0.003531736376900527
-0.005528100848056538,-0.003070946568337565
-0.005527760848056538,-0.005309068495647449
-0.005527420848056537,-0.008139634462526905
-0.005527080848056538,-0.001293614449591481
-0.005526740848056538,-0.0006682568522548965
-0.005526400848056537,0.0002204092071112604
-0.005526060848056537,-0.003564649934655922
-0.005525720848056538,-0.005671117630947577
-0.005525380848056537,-0.003762131281183564
-0.005525040848056537,-0.00392669906995605
-0.005524700848056538,-0.003005119452828451
-0.005524360848056537,-0.003268427914866106
-0.005524020848056537,-0.00392669906995605
-0.005523680848056538,-0.002807638106301108
-0.005523340848056537,-0.005341982053416733
-0.005523000848056537,-0.01343871726102305
-0.005522660848056538,-0.02505720314838171
-0.005522320848056537,-0.0454965225140073
-0.005521980848056537,-0.07057665352293419
-0.005521640848056538,-0.1002975961752993
-0.005521300848056537,-0.1311705133491288
-0.005520960848056537,-0.1613851593677573
-0.005520620848056538,-0.1879134869179303
-0.005520280848056538,-0.2094389536893715
-0.005519940848056537,-0.2292858290154086
-0.005519600848056538,-0.2403447844209398
-0.005519260848056538,-0.2470591502028572
-0.005518920848056537,-0.2500871975162887
-0.005518580848056538,-0.2499226297275159
-0.005518240848056538,-0.2464667061632937
-0.005517900848056537,-0.2416284131733675
-0.005517560848056538,-0.2375142184540479
-0.005517220848056538,-0.2326430119063823
-0.005516880848056537,-0.2201029464018871
-0.005516540848056538,-0.2109200637883657
-0.005516200848056538,-0.2023954523299509
-0.005515860848056537,-0.1966355797228879
-0.005515520848056538,-0.1953848645282147
-0.005515180848056538,-0.186136154799201
-0.005514840848056537,-0.1772494942054538
-0.005514500848056538,-0.1724441147732884
-0.005514160848056538,-0.1651702185095446
-0.005513820848056537,-0.1579950629190379
-0.005513480848056538,-0.1509515615595627
-0.005513140848056538,-0.1449283804904897
-0.005512800848056537,-0.1393659892299585
-0.005512460848056538,-0.1368974723983668
-0.005512120848056538,-0.1328491047945562
-0.005511780848056537,-0.1287349100752366
-0.005511440848056538,-0.1254106407420263
-0.005511100848056538,-0.1210002240029157
-0.005510760848056537,-0.1160961038974867
-0.005510420848056538,-0.1118502549471488
-0.005510080848056538,-0.1087234669604659
-0.005509740848056537,-0.1027331994491365
-0.005509400848056538,-0.100165941944281
-0.005509060848056538,-0.0961175743404705
-0.005508720848056537,-0.09141093558156453
-0.005508380848056538,-0.08904115942324073
-0.005508040848056538,-0.08561814941676679
-0.005507700848056537,-0.0825901021033407
-0.005507360848056538,-0.07883795651932804
-0.005507020848056538,-0.08048363440705589
-0.005506680848056537,-0.07669857526526937
-0.005506340848056538,-0.06985255525233394
-0.005506000848056538,-0.06725238418972393
-0.005505660848056537,-0.06343441149019804
-0.005505320848056537,-0.06494843514690493
-0.005504980848056538,-0.06508008937792314
-0.005504640848056537,-0.06106463533185539
-0.005504300848056537,-0.05458066445421944
-0.005503960848056538,-0.05481105935850134
-0.005503620848056537,-0.05237545608465932
-0.005503280848056537,-0.04974237146429954
-0.005502940848056538,-0.04941323588675398
-0.005502600848056537,-0.04760299021025154
-0.005502260848056537,-0.04661558347761662
-0.005501920848056538,-0.04529904116743434
-0.005501580848056537,-0.04595731232251955
-0.005501240848056537,-0.04269887010482432
-0.005500900848056538,-0.04148106846790571
-0.005500560848056537,-0.04141524135239318
-0.005500220848056537,-0.03953916856038684
-0.005499880848056538,-0.03927586009835039
-0.005499540848056538,-0.037860577114907
-0.005499200848056537,-0.03585285009187644
-0.005498860848056538,-0.035885763649631
-0.005498520848056538,-0.03634655345819396
-0.005498180848056537,-0.02894100296341945
-0.005497840848056538,-0.03483252980148517
-0.005497500848056538,-0.03595159076513808
-0.005497160848056537,-0.03144243335276579
-0.005496820848056538,-0.02884226229015578
-0.005496480848056538,-0.03226527229662349
-0.005496140848056537,-0.02640665901631855
-0.005495800848056538,-0.02077844064028929
-0.005495460848056538,-0.01942898477235491
-0.005495120848056537,-0.01603888832363307
-0.005494780848056538,-0.01702629505626978
-0.005494440848056538,-0.0203176508317195
-0.005494100848056537,-0.01834283736645206
-0.005493760848056538,-0.01669715947872421
-0.005493420848056538,-0.01784913400013161
-0.005493080848056537,-0.01903402207929776
-0.005492740848056538,-0.01860614582848852
-0.005492400848056538,-0.01811244246217106
-0.005492060848056537,-0.01784913400013371
-0.005491720848056538,-0.01656550524770598
-0.005491380848056538,-0.01692755438300545
-0.005491040848056537,-0.01771747976911548
-0.005490700848056538,-0.01547935784180559
-0.005490360848056538,-0.01518313582201458
-0.005490020848056537,-0.01676298659423332
-0.005489680848056538,-0.01580849341935116
-0.005489340848056538,-0.01610471543914218
-0.005489000848056537,-0.01564392563057838
-0.005488660848056538,-0.01478817312895989
-0.005488320848056538,-0.0152489629375237
-0.005487980848056537,-0.01607180188138529
-0.005487640848056538,-0.01478817312895989
-0.005487300848056538,-0.01389950706958685
-0.005486960848056537,-0.01350454437653157
-0.005486620848056538,-0.0131754087989866
-0.005486280848056538,-0.01482108668671445
-0.005485940848056537,-0.01584140697709423
-0.005485600848056538,-0.009522003888230759
-0.005485260848056538,-0.008468770040084931
-0.005484920848056537,-0.007810498884999956
-0.005484580848056538,-0.01120059533371317
-0.005484240848056538,-0.01320832235674115
-0.005483900848056537,-0.01159555802676534
-0.005483560848056537,-0.01021318860107646
-0.005483220848056538,-0.009423263214967087
-0.005482880848056537,-0.008567510713346507
-0.005482540848056537,-0.007415536191939104
-0.005482200848056538,-0.005572376957683906
-0.005481860848056537,-0.003465909261393388
-0.005481520848056537,-0.004091266858728836
-0.005481180848056538,-0.002840551664055666
-0.005480840848056537,-0.002708897433037557
-0.005480500848056537,-0.002774724548546551
-0.005480160848056538,-0.001326528007346039
-0.005479820848056537,-4.289925492148455e-05
-0.005479480848056537,-0.001787317815909838
-0.005479140848056538,-0.001293614449591481
-0.005478800848056538,-0.001392355122854973
-0.005478460848056537,-0.002708897433037437
-0.005478120848056538,-0.003465909261392251
-0.005477780848056538,-0.0040583533009732
-0.005477440848056537,-0.005045760033610991
-0.005477100848056538,-0.00494701936034732
-0.005476760848056538,-0.003992526185466901
-0.005476420848056537,-0.004979932918101878
-0.005476080848056538,-0.004255834647501621
-0.005475740848056538,-0.003498822819148185
-0.005475400848056537,-0.007843412442748346
-0.005475060848056538,-0.002281021182228195
-0.005474720848056538,-0.001293614449593278
-0.005474380848056537,-0.0002403806014456541
-0.005474040848056538,-0.005309068495647449
-0.005473700848056538,-0.008238375135797702
-0.005473360848056537,-0.006000253208493148
-0.005473020848056538,-0.004222921089747064
-0.005472680848056538,-0.003169687241603152
-0.005472340848056537,-0.003465909261392251
-0.005472000848056538,-0.00244558897100098
-0.005471660848056538,-0.002281021182228494
-0.005471320848056537,-0.001030305987555025
-0.005470980848056538,-0.002807638106301108
-0.005470640848056538,-0.003169687241600578
-0.005470300848056537,-0.004091266858728836
-0.005469960848056538,-0.00619773455502049
-0.005469620848056538,-0.004782451571574535
-0.005469280848056537,-0.005736944746456691
-0.005468940848056538,-0.005671117630947577
-0.005468600848056538,-0.005506549842174791
-0.005468260848056537,-0.003235514357110351
-0.005467920848056538,-0.004453315994028964
-0.005467580848056538,-0.004815365129329092
-0.005467240848056537,-0.004255834647501621
-0.005466900848056538,-0.005341982053402005
-0.005466560848056538,-0.004255834647501621
-0.005466220848056537,-0.003992526185465284
-0.005465880848056538,-0.004058353300974278
-0.005465540848056538,-0.006559783690320619
-0.005465200848056537,-0.009554917445972982
-0.005464860848056538,-0.002774724548546551
-0.005464520848056538,-0.003663390607919593
-0.005464180848056537,-0.002643070317527784
-0.005463840848056538,-0.002346848297737309
-0.005463500848056538,-0.007185141287657204
-0.005463160848056537,-0.00488119224483198
-0.005462820848056537,-0.001458182238364267
-0.005462480848056538,-0.002643070317528323
-0.005462140848056537,-0.003136773683844405
-0.005461800848056537,-0.00188605848917351
-0.005461460848056538,-0.00244558897100098
-0.005461120848056537,-0.002577243202017712
-0.005460780848056537,-0.001754404258155281
-0.005460440848056538,-0.003795044838937822
-0.005460100848056537,-0.004255834647501202
-0.005459760848056537,-0.004025439743219721
-0.005459420848056538,-0.004321661763010735
-0.005459080848056537,-0.003696304165672953
-0.005458740848056537,-0.003038033010583008
-0.005458400848056538,-0.002478502528755537
-0.005458060848056537,-0.003334255030371089
-0.005457720848056537,-0.001721490700400724
-0.005457380848056538,-0.003663390607919593
-0.005457040848056538,-0.003959612627710068
-0.005456700848056537,-0.003005119452828451
-0.005456360848056538,-0.004650797340556306
-0.005456020848056538,-0.004650797340556306
-0.005455680848056537,-0.005341982053402005
-0.005455340848056538,-0.004058353300974278
-0.005455000848056538,-0.008468770040076908
-0.005454660848056537,-0.009324522541703417
-0.005454320848056538,-0.001951885604682624
-0.005453980848056538,-0.00234684829773659
-0.005453640848056537,-9.985697163754359e-06
-0.005453300848056538,-0.001951885604682624
-0.005452960848056538,-4.289925492178387e-05
-0.005452620848056537,-0.00438748887851985
-0.005452280848056538,-0.001326528007346039
-0.005451940848056538,-0.002478502528753442
-0.005451600848056537,-0.002149366951209966
-0.005451260848056538,-0.002873465221810222
-0.005450920848056538,-0.00254432964426525
-0.005450580848056537,-0.003005119452828451
-0.005450240848056538,-0.002939292337319337
-0.005449900848056538,-0.004782451571571183
-0.005449560848056537,-0.006000253208493148
-0.005449220848056538,-0.005473636284420234
-0.005448880848056538,-0.005901512535228698
-0.005448540848056537,-0.006823092152357076
-0.005448200848056538,-0.005144500706874663
-0.005447860848056538,-0.005309068495647449
-0.005447520848056537,-0.003235514357110351
-0.005447180848056538,-0.001326528007346039
-0.005446840848056538,-0.001030305987555025
-0.005446500848056537,-0.001688577142646167
-0.005446160848056538,-7.581281267286857e-05
-0.005445820848056538,0.0004508041114000451
-0.005445480848056537,-0.001820231373662958
-0.005445140848056538,-0.001030305987555025
-0.005444800848056538,-0.002379761855491866
-0.005444460848056537,-0.007843412442736012
-0.005444120848056538,-0.001063219545309582
-0.005443780848056538,-9.985697163754359e-06
-0.005443440848056537,-0.001392355122856949
-0.005443100848056538,-0.002379761855491866
-0.005442760848056538,-0.006329388786038719
-0.005442420848056537,-0.00560529051543511
-0.005442080848056538,-0.003762131281183265
-0.005441740848056538,-0.00415709397423795
-0.005441400848056537,-0.005901512535229357
-0.005441060848056537,-0.005835685419720362
-0.005440720848056538,-0.003663390607919593
-0.005440380848056537,-0.004815365129330469
-0.005440040848056537,-0.005572376957683906
-0.005439700848056538,-0.004716624456065421
-0.005439360848056537,-0.003893785512204187
-0.005439020848056537,-0.005374895611156563
-0.005438680848056538,-0.003729217723428708
-0.005438340848056537,-0.00326842791486431
-0.005438000848056537,-0.002939292337319337
-0.005437660848056538,-0.0008657381987822392
-0.005437320848056537,-0.0005366026212386438
-0.005436980848056537,-0.001622750027137053
-0.005436640848056538,-0.0009644788720459105
-0.005436300848056538,-0.002577243202016275
-0.005435960848056537,-0.003564649934655922
-0.005435620848056538,-0.004190007531992507
-0.005435280848056538,-0.003235514357112087
-0.005434940848056537,-0.003992526185465165
-0.005434600848056538,-0.003301341472619465
-0.005434260848056538,-0.004584970225044858
-0.005433920848056537,-0.007514276865202775
-0.005433580848056538,0.0009774210354729588
-0.005433240848056538,0.001899000652598881
-0.005432900848056537,-0.003597563492410479
-0.005432560848056538,-0.002412675413246423
-0.005432220848056538,0.001635692190556737
-0.005431880848056537,0.0001545820916090312
-0.005431540848056538,-0.001392355122855153
-0.005431200848056538,0.0005495447846601842
-0.005430860848056537,0.0007799396889456162
-0.005430520848056538,0.0001874956493635883
-0.005430180848056538,0.001767346421579456
-0.005429840848056537,0.002096481999127901
-0.005429500848056538,0.0009115939199638446
-0.005429160848056538,0.002359790461161723
-0.005428820848056537,0.002688926038709928
-0.005428480848056538,0.002688926038709928
-0.005428140848056538,0.002359790461164956
-0.005427800848056537,0.001207815939754859
-0.005427460848056538,-4.289925491831147e-05
-0.005427120848056538,-0.002577243202019209
-0.005426780848056537,-0.00165566358489161
-0.005426440848056538,-0.005341982053402005
-0.005426100848056538,-0.004190007531992507
-0.005425760848056537,-0.003301341472619465
-0.005425420848056538,-0.00267598387528288
-0.005425080848056538,-0.002840551664055666
-0.005424740848056537,-0.001589836469382495
-0.005424400848056538,-0.002346848297737309
-0.005424060848056538,-0.003334255030374022
-0.005423720848056537,-0.001886058489179257
-0.005423380848056538,-0.005045760033610991
-0.005423040848056538,-0.002972205895073894
-0.005422700848056537,-0.002972205895070361
-0.005422360848056538,-0.001030305987555025
-0.005422020848056538,0.0007470261311910591
-0.005421680848056537,-0.003169687241602554
-0.005421340848056538,-0.003893785512201493
-0.005421000848056538,-0.002478502528755537
-0.005420660848056537,-0.001194873776331103
-0.005420320848056537,-0.003005119452828451
-0.005419980848056538,-0.003202600799355794
-0.005419640848056537,-0.003038033010581032
-0.005419300848056537,-0.001951885604682624
-0.005418960848056538,-0.0003062077169547683
-0.005418620848056537,0.001043248150985486
-0.005418280848056537,0.002919320942991828
-0.005417940848056538,0.00153695151730043
-0.005417600848056537,0.002063568441374182
