Analysis/files/cmb03_d2s01/wrd12_ch19.csv

#Digilent WaveForms Oscilloscope Acquisition
#Device Name: ADP3450
#Serial Number: SN:210018B9D9B0
#Date Time: 2024-08-12 11:27:02.064.846.150
#Sample rate: 2.94118e+06Hz
#Samples: 32768
#Trigger: Source: Channel 3 Type: Edge Condition: Rising Level: 60 mV Hyst.: Auto HoldOff: 0 s
#Channel 3: Range: 200 mV/div Offset: 0 V Attenuation: 1 X Coupling: DC Bandwidth: 0 Hz Sample Mode: Average

Time (s),Channel 3 (V)
-0.005570307764952781,-0.001359441565100596
-0.00556996776495278,-0.0009644788720481256
-0.005569627764952781,-0.002182280508964523
-0.005569287764952781,-0.003663390607919593
-0.00556894776495278,-0.008007980231513648
-0.005568607764952781,-0.003893785512201493
-0.005568267764952781,-0.002939292337319337
-0.00556792776495278,-0.002445588971003315
-0.005567587764952781,-0.003729217723428708
-0.005567247764952781,-0.008732078502121389
-0.00556690776495278,-0.01014736148556561
-0.005566567764952781,-0.009192868310685188
-0.005566227764952781,-0.01166138514227697
-0.00556588776495278,-0.01274753254817604
-0.00556554776495278,-0.0120234342775771
-0.005565207764952781,-0.01393242062734141
-0.00556486776495278,-0.01366911216530334
-0.00556452776495278,-0.01278044610593191
-0.005564187764952781,-0.0131754087989866
-0.00556384776495278,-0.01218800206635078
-0.00556350776495278,-0.01268170543266824
-0.005563167764952781,-0.0127146189904228
-0.005562827764952781,-0.01235256985512333
-0.00556248776495278,-0.0113322495647314
-0.005562147764952781,-0.01208926139308621
-0.005561807764952781,-0.0111018546604513
-0.00556146776495278,-0.009127041195176074
-0.005561127764952781,-0.01004862081230367
-0.005560787764952781,-0.01149681735350155
-0.00556044776495278,-0.0115626444690133
-0.005560107764952781,-0.01195760716206798
-0.005559767764952781,-0.01399824774284681
-0.00555942776495278,-0.01373493928081407
-0.005559087764952781,-0.01475525957120534
-0.005558747764952781,-0.01781622044237358
-0.00555840776495278,-0.02005434236968903
-0.005558067764952781,-0.01406407485835964
-0.005557727764952781,-0.01399824774285064
-0.00555738776495278,-0.01218800206634988
-0.005557047764952781,-0.0124842240861409
-0.005556707764952781,-0.01751999842257898
-0.00555636776495278,-0.01653259168995142
-0.005556027764952781,-0.01478817312895989
-0.005555687764952781,-0.01817826957767311
-0.00555534776495278,-0.01811244246217016
-0.005555007764952781,-0.01840866448196118
-0.005554667764952781,-0.01850740515522467
-0.00555432776495278,-0.01798078823115194
-0.005553987764952781,-0.01814535601992472
-0.005553647764952781,-0.01742125774932446
-0.00555330776495278,-0.01844157803971573
-0.005552967764952781,-0.01725668996055168
-0.005552627764952781,-0.0185403187129794
-0.00555228776495278,-0.01778330688462459
-0.005551947764952781,-0.01765165265360636
-0.005551607764952781,-0.01748708486483358
-0.00555126776495278,-0.01689464082525071
-0.005550927764952781,-0.01643385101668775
-0.005550587764952781,-0.01590723409261484
-0.00555024776495278,-0.01844157803971436
-0.005549907764952781,-0.01768456621136092
-0.005549567764952781,-0.01794787467339738
-0.00554922776495278,-0.01919858986807079
-0.005548887764952781,-0.01933024409908878
-0.005548547764952781,-0.02008725592744359
-0.00554820776495278,-0.02446475910880058
-0.005547867764952781,-0.02495846247511804
-0.005547527764952781,-0.01883654073277042
-0.00554718776495278,-0.02064678640926849
-0.005546847764952781,-0.0192315034258251
-0.005546507764952781,-0.02110757621783486
-0.00554616776495278,-0.0244318455510404
-0.005545827764952781,-0.02183167448843512
-0.005545487764952781,-0.01860614582848852
-0.00554514776495278,-0.01824409669318797
-0.00554480776495278,-0.01801370178890649
-0.005544467764952781,-0.01508439514875091
-0.00554412776495278,-0.01577557986159571
-0.00554378776495278,-0.01528187649527825
-0.005543447764952781,-0.01498565447548724
-0.00554310776495278,-0.0153806171685445
-0.00554276776495278,-0.01679590015198788
-0.005542427764952781,-0.01587432053486028
-0.005542087764952781,-0.01646676457444123
-0.00554174776495278,-0.01811244246217016
-0.005541407764952781,-0.01748708486483358
-0.005541067764952781,-0.01877071361725897
-0.00554072776495278,-0.0190011085215432
-0.005540387764952781,-0.01965937967663435
-0.005540047764952781,-0.01913276275256239
-0.00553970776495278,-0.02035056438948005
-0.005539367764952781,-0.01837575092420662
-0.005539027764952781,-0.01847449159747011
-0.00553868776495278,-0.01880362717501586
-0.005538347764952781,-0.02035056438948005
-0.005538007764952781,-0.01982394746540809
-0.00553766776495278,-0.024069796415745
-0.005537327764952781,-0.02074552708253473
-0.005536987764952781,-0.01626928322792311
-0.00553664776495278,-0.01666424592096965
-0.005536307764952781,-0.01692755438300611
-0.005535967764952781,-0.0206467864092643
-0.00553562776495278,-0.01956063900337068
-0.005535287764952781,-0.01814535601992472
-0.005534947764952781,-0.01807952890441573
-0.00553460776495278,-0.01807952890441561
-0.005534267764952781,-0.01827701025094295
-0.005533927764952781,-0.01817826957767946
-0.00553358776495278,-0.0190011085215432
-0.005533247764952781,-0.01873780005950675
-0.005532907764952781,-0.01732251707606079
-0.00553256776495278,-0.01241839697063178
-0.005532227764952781,-0.021765847372926
-0.005531887764952781,-0.02067969996702562
-0.00553154776495278,-0.01952772544561612
-0.005531207764952781,-0.02179876093068056
-0.005530867764952781,-0.0210746626600803
-0.00553052776495278,-0.02028473727397093
-0.005530187764952781,-0.02074552708253473
-0.005529847764952781,-0.01946189833010701
-0.00552950776495278,-0.01942898477235221
-0.005529167764952781,-0.01929733054133422
-0.005528827764952781,-0.0190011085215432
-0.00552848776495278,-0.01748708486483639
-0.005528147764952781,-0.01903402207929776
-0.005527807764952781,-0.01988977458091625
-0.00552746776495278,-0.02044930506275174
-0.005527127764952781,-0.02485972180185437
-0.005526787764952781,-0.0199226881386708
-0.00552644776495278,-0.01669715947872343
-0.005526107764952781,-0.01626928322791496
-0.005525767764952781,-0.01715794928728801
-0.00552542776495278,-0.01863905938624416
-0.005525087764952781,-0.0192315034258251
-0.005524747764952781,-0.01775039332687003
-0.00552440776495278,-0.0195277254456172
-0.00552406776495278,-0.02012016948519815
-0.005523727764952781,-0.02225955073924436
-0.00552338776495278,-0.02584712853451036
-0.00552304776495278,-0.03644529413145847
-0.005522707764952781,-0.05263876454670057
-0.00552236776495278,-0.07334139237436706
-0.00552202776495278,-0.1008571266571267
-0.005521687764952781,-0.1321908336394651
-0.00552134776495278,-0.1633928863908372
-0.00552100776495278,-0.1919289409639862
-0.005520667764952781,-0.2192142803425141
-0.005520327764952781,-0.2420892029818897
-0.00551998776495278,-0.2579535378196278
-0.005519647764952781,-0.2699340728422866
-0.005519307764952781,-0.2759243403536051
-0.00551896776495278,-0.277043401317271
-0.005518627764952781,-0.2755622912183159
-0.005518287764952781,-0.2717772320765487
-0.00551794776495278,-0.2650628662946121
-0.005517607764952781,-0.2578877107041187
-0.005517267764952781,-0.2504492466516023
-0.00551692776495278,-0.2443273249092412
-0.005516587764952781,-0.2350457016224561
-0.005516247764952781,-0.2226043767912561
-0.00551590776495278,-0.2153633940852309
-0.005515567764952781,-0.2061475979139549
-0.005515227764952781,-0.2037449081978766
-0.00551488776495278,-0.2009143422309803
-0.005514547764952781,-0.1933113103896777
-0.005514207764952781,-0.1863994632612332
-0.00551386776495278,-0.1815282567135462
-0.005513527764952781,-0.1740568791032618
-0.005513187764952781,-0.1686261420737697
-0.00551284776495278,-0.1636561948528217
-0.005512507764952781,-0.155164496952146
-0.005512167764952781,-0.1516098327146538
-0.00551182776495278,-0.1465082312626974
-0.005511487764952781,-0.1418345060615503
-0.005511147764952781,-0.1384773231705855
-0.00551080776495278,-0.1323224878704833
-0.005510467764952781,-0.1274841948805635
-0.005510127764952781,-0.1231066916992073
-0.00550978776495278,-0.118893756306624
-0.005509447764952781,-0.1135946735081403
-0.005509107764952781,-0.1098754414818754
-0.00550876776495278,-0.1071765297459948
-0.005508427764952781,-0.1033914706042276
-0.005508087764952781,-0.1006267317528448
-0.00550774776495278,-0.09786199290145538
-0.005507407764952781,-0.09420858799070619
-0.005507067764952781,-0.09055518307995036
-0.00550672776495278,-0.08946903567404968
-0.005506387764952781,-0.08930446788527718
-0.005506047764952781,-0.08749422220877653
-0.00550570776495278,-0.08031906661828034
-0.005505367764952781,-0.07880504296157348
-0.005505027764952781,-0.07580990920590877
-0.00550468776495278,-0.07683022949630114
-0.005504347764952781,-0.07742267353588206
-0.005504007764952781,-0.07284768900799862
-0.00550366776495278,-0.06965507390580407
-0.005503327764952781,-0.06827270448011519
-0.005502987764952781,-0.06547505207097784
-0.00550264776495278,-0.06405976908752757
-0.00550230776495278,-0.06168999292920378
-0.005501967764952781,-0.05932021677087566
-0.00550162776495278,-0.05704918128580906
-0.00550128776495278,-0.05586429320664717
-0.005500947764952781,-0.05441609666544665
-0.00550060776495278,-0.05293498656648925
-0.00550026776495278,-0.05165135781406385
-0.005499927764952781,-0.0488537054049265
-0.005499587764952781,-0.04812960713432756
-0.00549924776495278,-0.04684597838189852
-0.005498907764952781,-0.0456281767449799
-0.005498567764952781,-0.04457494289683599
-0.00549822776495278,-0.04579274453375269
-0.005497887764952781,-0.04411415308827028
-0.005497547764952781,-0.04230390741177293
-0.00549720776495278,-0.04128358712137837
-0.005496867764952781,-0.04085571087056913
-0.005496527764952781,-0.0399012176956887
-0.00549618776495278,-0.04082279731281457
-0.005495847764952781,-0.04549652251396168
-0.005495507764952781,-0.03855176182776276
-0.00549516776495278,-0.03779474999939531
-0.005494827764952781,-0.0374985279796043
-0.005494487764952781,-0.03368055528008262
-0.00549414776495278,-0.03881507028978658
-0.005493807764952781,-0.04006578548445976
-0.005493467764952781,-0.03614907211167458
-0.00549312776495278,-0.03568828230310366
-0.005492787764952781,-0.03512875182127619
-0.005492447764952781,-0.03196905027684445
-0.00549210776495278,-0.03279188922070263
-0.005491767764952781,-0.03147534691052035
-0.005491427764952781,-0.03015880460034046
-0.00549108776495278,-0.03002715036931984
-0.005490747764952781,-0.02930305209871958
-0.005490407764952781,-0.02927013854096502
-0.00549006776495278,-0.02742697930670982
-0.005489727764952781,-0.02805233690404641
-0.005489387764952781,-0.02551799295694551
-0.00548904776495278,-0.02709784372916425
-0.005488707764952781,-0.02709784372916425
-0.005488367764952781,-0.02400396930023588
-0.00548802776495278,-0.02344443881840937
-0.005487687764952781,-0.02397105574248133
-0.005487347764952781,-0.02973092834952882
-0.00548700776495278,-0.02762446065323788
-0.005486667764952781,-0.02801942334629185
-0.005486327764952781,-0.02874352161689211
-0.00548598776495278,-0.02713075728691983
-0.005485647764952781,-0.02769028776874628
-0.005485307764952781,-0.03019171815809262
-0.00548496776495278,-0.02143671179538013
-0.005484627764952781,-0.02127214400660764
-0.005484287764952781,-0.02104174910232575
-0.00548394776495278,-0.01969229323439806
-0.005483607764952781,-0.02472806757083614
-0.005483267764952781,-0.02295073545209006
-0.00548292776495278,-0.02067969996702616
-0.005482587764952781,-0.02097592198681663
-0.005482247764952781,-0.02206206939271702
-0.00548190776495278,-0.02097592198681651
-0.00548156776495278,-0.02091009487130752
-0.005481227764952781,-0.0219962422772079
-0.00548088776495278,-0.02170002025741623
-0.00548054776495278,-0.02133797112211676
-0.005480207764952781,-0.02327987102963563
-0.00547986776495278,-0.02383940151146244
-0.00547952776495278,-0.02347735237616297
-0.005479187764952781,-0.02420145064676323
-0.005478847764952781,-0.02268742699005636
-0.00547850776495278,-0.02143671179538043
-0.005478167764952781,-0.02183167448843512
-0.005477827764952781,-0.02196332871945311
-0.00547748776495278,-0.02071261352478018
-0.005477147764952781,-0.0213050575643622
-0.005476807764952781,-0.02351026593391352
-0.00547646776495278,-0.02120631689109853
-0.005476127764952781,-0.02166710669966233
-0.005475787764952781,-0.02127214400660836
-0.00547544776495278,-0.02064678640927106
-0.005475107764952781,-0.02462932689757247
-0.005474767764952781,-0.02400396930023702
-0.00547442776495278,-0.01742125774932446
-0.005474087764952781,-0.01903402207929776
-0.005473747764952781,-0.01900110852154326
-0.00547340776495278,-0.01952772544561612
-0.005473067764952781,-0.02179876093068056
-0.005472727764952781,-0.0189681949637938
-0.00547238776495278,-0.01791496111564282
-0.005472047764952781,-0.01873780005950675
-0.005471707764952781,-0.01877071361726125
-0.00547136776495278,-0.01811244246217016
-0.005471027764952781,-0.01811244246217016
-0.005470687764952781,-0.02028473727396698
-0.00547034776495278,-0.01916567631031599
-0.005470007764952781,-0.01959355256112523
-0.005469667764952781,-0.0203834779472346
-0.00546932776495278,-0.01847449159747029
-0.005468987764952781,-0.01692755438300611
-0.005468647764952781,-0.01745417130707902
-0.00546830776495278,-0.01827701025094295
-0.005467967764952781,-0.01778330688462459
-0.005467627764952781,-0.01926441698357966
-0.00546728776495278,-0.02170002025741689
-0.005466947764952781,-0.02074552708253473
-0.005466607764952781,-0.02248994564352626
-0.00546626776495278,-0.0220620693927157
-0.005465927764952781,-0.02133797112211676
-0.005465587764952781,-0.02041639150498916
-0.00546524776495278,-0.02137088467986874
-0.005464907764952781,-0.01995560169642536
-0.005464567764952781,-0.0236090066071812
-0.00546422776495278,-0.01965937967662423
-0.005463887764952781,-0.0140969884161142
-0.005463547764952781,-0.01857323227073396
-0.00546320776495278,-0.0203176508317192
-0.005462867764952781,-0.01686172726749699
-0.005462527764952781,-0.01699338149851522
-0.00546218776495278,-0.01933024409908788
-0.005461847764952781,-0.01883654073277042
-0.005461507764952781,-0.01788204755788826
-0.00546116776495278,-0.01919858986807085
-0.005460827764952781,-0.01936315765684333
-0.005460487764952781,-0.01751999842258814
-0.00546014776495278,-0.01837575092420411
-0.00545980776495278,-0.01699338149851522
-0.005459467764952781,-0.01597306120812395
-0.00545912776495278,-0.01712503572953543
-0.00545878776495278,-0.01821118313543383
-0.005458447764952781,-0.01722377640279712
-0.00545810776495278,-0.01926441698358385
-0.00545776776495278,-0.02156836602639866
-0.005457427764952781,-0.02067969996702562
-0.005457087764952781,-0.02044930506274414
-0.00545674776495278,-0.02206206939271702
-0.005456407764952781,-0.02146962535313499
-0.005456067764952781,-0.02117340333334451
-0.00545572776495278,-0.02133797112211676
-0.005455387764952781,-0.01959355256112523
-0.005455047764952781,-0.01933024409908925
-0.00545470776495278,-0.02028473727397093
-0.005454367764952781,-0.02146962535313499
-0.005454027764952781,-0.01669715947873289
-0.00545368776495278,-0.01623636967016041
-0.005453347764952781,-0.01449195110916888
-0.005453007764952781,-0.01215508850859958
-0.00545266776495278,-0.01663133236321509
-0.005452327764952781,-0.01719086284504256
-0.005451987764952781,-0.01482108668671876
-0.00545164776495278,-0.01518313582201458
-0.005451307764952781,-0.01765165265360636
-0.005450967764952781,-0.01623636967016298
-0.00545062776495278,-0.01788204755788826
-0.005450287764952781,-0.01751999842258814
-0.005449947764952781,-0.01745417130707914
-0.00544960776495278,-0.01788204755788826
-0.005449267764952781,-0.01926441698357966
-0.005448927764952781,-0.01956063900337014
-0.00544858776495278,-0.02012016948519815
-0.005448247764952781,-0.02209498295047157
-0.005447907764952781,-0.02133797112211676
-0.00544756776495278,-0.02146962535313499
-0.005447227764952781,-0.02216081006598069
-0.005446887764952781,-0.0210746626600803
-0.00544654776495278,-0.02091009487130752
-0.005446207764952781,-0.0208442677557984
-0.005445867764952781,-0.02091009487130752
-0.00544552776495278,-0.01883654073277072
-0.005445187764952781,-0.0190011085215432
-0.005444847764952781,-0.01821118313543383
-0.00544450776495278,-0.01778330688462824
-0.005444167764952781,-0.01979103390765257
-0.005443827764952781,-0.02347735237616297
-0.00544348776495278,-0.01472234601344258
-0.005443147764952781,-0.01021318860107646
-0.005442807764952781,-0.01495274091773268
-0.00544246776495278,-0.01442612399366575
-0.005442127764952781,-0.01771747976911548
-0.005441787764952781,-0.01584140697710572
-0.00544144776495278,-0.01482108668671385
-0.005441107764952781,-0.01449195110916888
-0.005440767764952781,-0.01636802390117864
-0.00544042776495278,-0.01452486466692703
-0.005440087764952781,-0.01649967813219686
-0.005439747764952781,-0.01847449159747029
-0.00543940776495278,-0.01564392563058209
-0.00543906776495278,-0.01768456621136092
-0.005438727764952781,-0.01926441698357966
-0.00543838776495278,-0.019099849194804
-0.00543804776495278,-0.01751999842258814
-0.005437707764952781,-0.01817826957767928
-0.00543736776495278,-0.01656550524770622
-0.00543702776495278,-0.01669715947872421
-0.005436687764952781,-0.01801370178890649
-0.005436347764952781,-0.01768456621136152
-0.00543600776495278,-0.01590723409261484
-0.005435667764952781,-0.01567683918833294
-0.005435327764952781,-0.01689464082524934
-0.00543498776495278,-0.01580849341935116
-0.005434647764952781,-0.01603888832363307
-0.005434307764952781,-0.0155780985150701
-0.00543396776495278,-0.01682881370974244
-0.005433627764952781,-0.02212789650822613
-0.005433287764952781,-0.02199624227720814
-0.00543294776495278,-0.01600597476587851
-0.005432607764952781,-0.01636802390117864
-0.005432267764952781,-0.01705920861402308
-0.00543192776495278,-0.01936315765684333
-0.005431587764952781,-0.01933024409908878
-0.005431247764952781,-0.0142615562048962
-0.00543090776495278,-0.0127146189904228
-0.005430567764952781,-0.01419572908937787
-0.005430227764952781,-0.01478817312895882
-0.00542988776495278,-0.01278044610593191
-0.005429547764952781,-0.01416281553162331
-0.005429207764952781,-0.01728960351830055
-0.00542886776495278,-0.01857323227073396
-0.005428527764952781,-0.0192315034258251
-0.005428187764952781,-0.01982394746540606
-0.00542784776495278,-0.021765847372926
-0.005427507764952781,-0.02150253891088955
-0.005427167764952781,-0.02216081006598069
-0.00542682776495278,-0.02173293381517144
-0.005426487764952781,-0.02166710669966233
-0.005426147764952781,-0.02324695747188107
-0.00542580776495278,-0.02298364900984462
-0.005425467764952781,-0.02239120497026259
-0.005425127764952781,-0.02189750160394423
-0.00542478776495278,-0.02351026593391753
-0.005424447764952781,-0.02202915583496246
-0.005424107764952781,-0.02235829141250803
-0.00542376776495278,-0.02272034054780516
-0.005423427764952781,-0.0210746626600803
-0.005423087764952781,-0.02377357439595399
-0.00542274776495278,-0.02314821679860573
-0.005422407764952781,-0.01673007303647877
-0.005422067764952781,-0.01505148159099635
-0.00542172776495278,-0.01419572908937906
-0.005421387764952781,-0.01485400024446901
-0.005421047764952781,-0.01702629505626978
-0.00542070776495278,-0.0170592086140226
-0.005420367764952781,-0.01610471543914218
-0.005420027764952781,-0.01867197294399764
-0.00541968776495278,-0.02044930506274216
-0.005419347764952781,-0.01959355256112523
-0.005419007764952781,-0.01933024409908878
-0.00541866776495278,-0.02044930506274186
-0.00541832776495278,-0.01942898477235245
-0.005417987764952781,-0.01926441698357966
-0.00541764776495278,-0.02038347794723508
-0.00541730776495278,-0.02064678640927106
-0.005416967764952781,-0.01965937967663435
-0.00541662776495278,-0.01952772544561708
-0.00541628776495278,-0.02005434236968903
-0.005415947764952781,-0.01952772544561612
-0.00541560776495278,-0.01939607121459711
-0.00541526776495278,-0.01896819496378865
-0.005414927764952781,-0.01801370178890649
-0.005414587764952781,-0.01830992380869697
-0.00541424776495278,-0.01946189833010701
-0.005413907764952781,-0.01860614582848852
