Analysis/files/cmb03_d2s01/wrd12_ch47.csv

#Digilent WaveForms Oscilloscope Acquisition
#Device Name: ADP3450
#Serial Number: SN:210018B9D9B0
#Date Time: 2024-08-12 11:43:10.189.706.920
#Sample rate: 2.94118e+06Hz
#Samples: 32768
#Trigger: Source: Channel 3 Type: Edge Condition: Rising Level: 60 mV Hyst.: Auto HoldOff: 0 s
#Channel 3: Range: 200 mV/div Offset: 0 V Attenuation: 1 X Coupling: DC Bandwidth: 0 Hz Sample Mode: Average

Time (s),Channel 3 (V)
-0.005570306768893757,0.01127936461264933
-0.005569966768893757,0.009962822302465374
-0.005569626768893757,0.00904124268533945
-0.005569286768893757,0.007263910566593366
-0.005568946768893757,0.006177763160689569
-0.005568606768893757,0.004301690368683227
-0.005568266768893757,0.008350057972493751
-0.005567926768893757,0.00746139191312023
-0.005567586768893757,0.007198083451084253
-0.005567246768893757,0.003511764982573856
-0.005566906768893757,-0.001359441565097063
-0.005566566768893757,0.0005824583424182735
-0.005566226768893757,0.00700060210455691
-0.005565886768893757,-0.0009973924297977735
-0.005565546768893757,0.0004837176691546022
-0.005565206768893757,0.0005166312269091594
-0.005564866768893757,0.001240729497510972
-0.005564526768893757,0.002096481999127901
-0.005564186768893757,0.002129395556882458
-0.005563846768893757,0.001438210844040171
-0.005563506768893757,0.003314283636046514
-0.005563166768893757,0.002853493827482714
-0.005562826768893758,0.001405297286284835
-0.005562486768893757,0.00107616170873663
-0.005562146768893757,0.001569865075054987
-0.005561806768893758,0.0001545820916116056
-0.005561466768893757,-0.0004049483902184396
-0.005561126768893757,-0.0005036890634821109
-0.005560786768893758,-0.002807638106296918
-0.005560446768893757,-0.00188605848917351
-0.005560106768893757,-0.002610156759773766
-0.005559766768893758,-0.004190007531989634
-0.005559426768893757,-0.00267598387528288
-0.005559086768893757,-0.0007669975255185678
-0.005558746768893758,-0.003465909261387342
-0.005558406768893757,-0.00415709397423795
-0.005558066768893757,-0.007086400614393532
-0.005557726768893758,-0.002083539835709952
-0.005557386768893757,-0.001260700891836924
-0.005557046768893757,-0.0008986517565367963
-0.005556706768893757,-0.001622750027135736
-0.005556366768893757,-0.006329388786038719
-0.005556026768893757,-0.003762131281183265
-0.005555686768893757,-0.001392355122859464
-0.005555346768893757,-0.002281021182228195
-0.005555006768893757,-0.002149366951209966
-0.005554666768893757,-0.001556922911629016
-0.005554326768893757,-0.001030305987555025
-0.005553986768893757,-9.985697163754359e-06
-0.005553646768893757,8.875497609991696e-05
-0.005553306768893757,-0.001491095796118824
-0.005552966768893757,-0.0003720348324638825
-0.005552626768893757,-0.0007999110832731249
-0.005552286768893757,-0.003400082145883136
-0.005551946768893757,-0.004190007531992507
-0.005551606768893757,-0.004288748205256179
-0.005551266768893757,-0.005012846475858949
-0.005550926768893757,-0.006395215901547833
-0.005550586768893757,-0.006296475228284162
-0.005550246768893757,-0.006724351479092567
-0.005549906768893757,-0.006263561670529605
-0.005549566768893757,-0.003202600799355794
-0.005549226768893757,-0.003136773683848356
-0.005548886768893757,-0.004058353300974278
-0.005548546768893757,-0.002281021182228195
-0.005548206768893757,-0.003367168588139655
-0.005547866768893757,-0.009456176772721644
-0.005547526768893757,-0.004979932918101878
-0.005547186768893757,-0.003926699069956948
-0.005546846768893757,-0.004420402436274407
-0.005546506768893757,-0.003202600799355794
-0.005546166768893757,-0.007053487056642447
-0.005545826768893757,-0.008962473406403288
-0.005545486768893757,-0.005078673591365549
-0.005545146768893757,-0.006230648112777981
-0.005544806768893757,-0.007843412442748346
-0.005544466768893757,-0.007415536191939104
-0.005544126768893757,-0.006625610805832128
-0.005543786768893757,-0.007942153116012016
-0.005543446768893757,-0.007382622634184546
-0.005543106768893757,-0.00626356167053176
-0.005542766768893757,-0.007448449749693661
-0.005542426768893757,-0.006724351479093405
-0.005542086768893758,-0.006724351479093405
-0.005541746768893757,-0.00767884465397556
-0.005541406768893757,-0.006757265036847961
-0.005541066768893758,-0.005539463399931563
-0.005540726768893757,-0.005572376957683906
-0.005540386768893757,-0.003301341472619465
-0.005540046768893758,-0.001655663584894603
-0.005539706768893757,-0.002182280508964523
-0.005539366768893757,-0.003465909261392251
-0.005539026768893758,-0.002610156759775322
-0.005538686768893757,-0.00438748887851985
-0.005538346768893757,-0.00767884465397556
-0.005538006768893758,-0.007250968403167096
-0.005537666768893757,-0.009094127637421515
-0.005537326768893757,-0.0136361986075504
-0.005536986768893758,-0.008633337828866817
-0.005536646768893757,-0.002939292337319337
-0.005536306768893757,-0.009686571677003543
-0.005535966768893757,-0.009159954752931588
-0.005535626768893757,-0.005901512535229476
-0.005535286768893757,-0.007250968403166318
-0.005534946768893757,-0.007218054845411821
-0.005534606768893757,-0.006131907439511376
-0.005534266768893757,-0.004091266858728836
-0.005533926768893757,-0.003762131281183864
-0.005533586768893757,-0.003531736376901365
-0.005533246768893757,-0.003531736376901365
-0.005532906768893757,-0.004222921089747064
-0.005532566768893757,-0.003564649934655922
-0.005532226768893757,-0.005473636284420234
-0.005531886768893757,-0.005473636284420234
-0.005531546768893757,-0.005901512535229476
-0.005531206768893757,-0.005440722726665677
-0.005530866768893757,-0.005934426092984033
-0.005530526768893757,-0.004354575320765292
-0.005530186768893757,-0.005473636284420234
-0.005529846768893757,-0.006757265036847961
-0.005529506768893757,-0.006526870132565284
-0.005529166768893757,-0.006098993881756819
-0.005528826768893757,-0.00767884465397556
-0.005528486768893757,-0.007185141287655886
-0.005528146768893757,-0.006461043017056948
-0.005527806768893757,-0.00767884465397556
-0.005527466768893757,-0.005572376957689533
-0.005527126768893757,-0.008666251386612273
-0.005526786768893757,-0.00586859897747492
-0.005526446768893757,-0.00580277186196353
-0.005526106768893757,-0.004552056667292635
-0.005525766768893757,-0.003729217723428708
-0.005525426768893757,-0.00850168359783823
-0.005525086768893757,-0.007810498884993789
-0.005524746768893757,-0.007020573498884419
-0.005524406768893757,-0.007020573498887352
-0.005524066768893757,-0.008633337828857716
-0.005523726768893757,-0.01172721225778608
-0.005523386768893757,-0.01531479005304891
-0.005523046768893757,-0.02416853708900867
-0.005522706768893757,-0.03878215673203202
-0.005522366768893757,-0.06066967263885747
-0.005522026768893757,-0.0853877545124849
-0.005521686768893757,-0.115997363224223
-0.005521346768893757,-0.1457841329921519
-0.005521006768893757,-0.1758671247797624
-0.005520666768893757,-0.2029878963695174
-0.005520326768893758,-0.2275414104543724
-0.005519986768893757,-0.2379091811471025
-0.005519646768893757,-0.2589409445522645
-0.005519306768893758,-0.2672680746641523
-0.005518966768893757,-0.2682225678390496
-0.005518626768893757,-0.2662806679315308
-0.005518286768893758,-0.263186793502608
-0.005517946768893757,-0.2580851920506461
-0.005517606768893757,-0.2495276670344612
-0.005517266768893758,-0.2424183385594898
-0.005516926768893757,-0.2374483913385387
-0.005516586768893757,-0.2299441001704997
-0.005516246768893758,-0.2174369482237908
-0.005515906768893757,-0.2100972248445018
-0.005515566768893757,-0.2006510337689439
-0.005515226768893758,-0.1970963695314582
-0.005514886768893757,-0.193805013755996
-0.005514546768893757,-0.1836018108520833
-0.005514206768893757,-0.1766899637236389
-0.005513866768893757,-0.1722466334267611
-0.005513526768893757,-0.1662892794731863
-0.005513186768893757,-0.1605294068661492
-0.005512846768893757,-0.1541441766617547
-0.005512506768893757,-0.1487792667477619
-0.005512166768893757,-0.1426244314476597
-0.005511826768893757,-0.1378519655732489
-0.005511486768893757,-0.1320262658506923
-0.005511146768893757,-0.1274183677650543
-0.005510806768893757,-0.1229421239104345
-0.005510466768893757,-0.1182354851515329
-0.005510126768893757,-0.1140554633167041
-0.005509786768893757,-0.1091513432112751
-0.005509446768893757,-0.1036218655085095
-0.005509106768893757,-0.09931018944266254
-0.005508766768893757,-0.09723663530411791
-0.005508426768893757,-0.09308952702705126
-0.005508086768893757,-0.0892057272120135
-0.005507746768893757,-0.08798792557509233
-0.005507406768893757,-0.08657264259164896
-0.005507066768893757,-0.08341294104721148
-0.005506726768893757,-0.08087859710011552
-0.005506386768893757,-0.08361042239373881
-0.005506046768893757,-0.07653400747650904
-0.005505706768893757,-0.07169571448658385
-0.005505366768893757,-0.0687993214041881
-0.005505026768893757,-0.06356606572121354
-0.005504686768893757,-0.06600166899505105
-0.005504346768893757,-0.06616623678382355
-0.005504006768893757,-0.06126211667839453
-0.005503666768893757,-0.05918856253985516
-0.005503326768893757,-0.05793784734518426
-0.005502986768893757,-0.05510728137829235
-0.005502646768893757,-0.05319829502852409
-0.005502306768893757,-0.05102600021672727
-0.005501966768893757,-0.04947906300226309
-0.005501626768893757,-0.04829417492309849
-0.005501286768893757,-0.04799795290330802
-0.005500946768893757,-0.04757007665249877
-0.005500606768893757,-0.04654975636210726
-0.005500266768893757,-0.04641810213108927
-0.005499926768893757,-0.04523321405192522
-0.005499586768893758,-0.0420076853919845
-0.005499246768893757,-0.04036200750425076
-0.005498906768893757,-0.03957208211814139
-0.005498566768893758,-0.0371364788443086
-0.005498226768893757,-0.03605033143840378
-0.005497886768893757,-0.03476670268597606
-0.005497546768893758,-0.0330551976827422
-0.005497206768893757,-0.03256149431642073
-0.005496866768893757,-0.03236401296989339
-0.005496526768893758,-0.02936887921423414
-0.005496186768893757,-0.03068542152441098
-0.005495846768893757,-0.03259440787417529
-0.005495506768893758,-0.02380648795372453
-0.005495166768893757,-0.0229178218943355
-0.005494826768893757,-0.02008725592744359
-0.005494486768893758,-0.0199556016964256
-0.005494146768893757,-0.02377357439595399
-0.005493806768893757,-0.02357609304942664
-0.005493466768893757,-0.0217000202574203
-0.005493126768893757,-0.02179876093068056
-0.005492786768893757,-0.02183167448843512
-0.005492446768893757,-0.02091009487130919
-0.005492106768893757,-0.02110757621783486
-0.005491766768893757,-0.01975812034989802
-0.005491426768893757,-0.01814535601992765
-0.005491086768893757,-0.01758582553809725
-0.005490746768893757,-0.01886945429052498
-0.005490406768893757,-0.01811244246217016
-0.005490066768893757,-0.01679590015198788
-0.005489726768893757,-0.01728960351830624
-0.005489386768893757,-0.01807952890441561
-0.005489046768893757,-0.01617054255465129
-0.005488706768893757,-0.01705920861402434
-0.005488366768893757,-0.01679590015198788
-0.005488026768893757,-0.01551227139955913
-0.005487686768893757,-0.01495274091773268
-0.005487346768893757,-0.01515022226426002
-0.005487006768893757,-0.01399824774284939
-0.005486666768893757,-0.01337289014551394
-0.005486326768893757,-0.01475525957120534
-0.005485986768893757,-0.01185886648881048
-0.005485646768893757,-0.0152489629375237
-0.005485306768893757,-0.01518313582201458
-0.005484966768893757,-0.009423263214965231
-0.005484626768893757,-0.008402942924575817
-0.005484286768893757,-0.006296475228284162
-0.005483946768893757,-0.01001570725455025
-0.005483606768893757,-0.0106410648518857
-0.005483266768893757,-0.009225781868439744
-0.005482926768893757,-0.006954746383379675
-0.005482586768893757,-0.009357436099457973
-0.005482246768893757,-0.0101802750433219
-0.005481906768893757,-0.01136516312248632
-0.005481566768893757,-0.0115626444690133
-0.005481226768893757,-0.01205634783533165
-0.005480886768893757,-0.01281335966368479
-0.005480546768893757,-0.01189178004655887
-0.005480206768893757,-0.01264879187491368
-0.005479866768893757,-0.01287918677919409
-0.005479526768893757,-0.01205634783533165
-0.005479186768893757,-0.01199052071982254
-0.005478846768893758,-0.01215508850859503
-0.005478506768893757,-0.009851139465776329
-0.005478166768893757,-0.009554917445985316
-0.005477826768893758,-0.009916966581284785
-0.005477486768893757,-0.008402942924575817
-0.005477146768893757,-0.007876326000502903
-0.005476806768893758,-0.007810498884993909
-0.005476466768893757,-0.007975066673766575
-0.005476126768893757,-0.00688891926786619
-0.005475786768893758,-0.008732078502118035
-0.005475446768893757,-0.006757265036847961
-0.005475106768893757,-0.01136516312248596
-0.005474766768893758,-0.0096536581192521
-0.005474426768893757,-0.003729217723428708
-0.005474086768893757,0.0001874956493635883
-0.005473746768893758,0.001635692190561467
-0.005473406768893757,-0.005736944746456691
-0.005473066768893757,-0.006098993881756819
-0.005472726768893757,-0.006131907439511316
-0.005472386768893757,-0.005473636284420234
-0.005472046768893757,-0.008172548020293918
-0.005471706768893757,-0.009785312350264282
-0.005471366768893757,-0.009818225908021772
-0.005471026768893757,-0.008732078502121389
-0.005470686768893757,-0.007810498884995466
-0.005470346768893757,-0.009061214079666959
-0.005470006768893757,-0.007744671769484675
-0.005469666768893757,-0.008732078502121389
-0.005469326768893757,-0.008468770040084931
-0.005468986768893757,-0.007942153116012016
-0.005468646768893757,-0.007810498884993789
-0.005468306768893757,-0.008435856482330374
-0.005467966768893757,-0.007810498884993789
-0.005467626768893757,-0.007382622634184546
-0.005467286768893757,-0.009522003888230759
-0.005466946768893757,-0.007876326000502903
-0.005466606768893757,-0.006921832825620747
-0.005466266768893757,-0.007020573498884359
-0.005465926768893757,-0.006987659941129861
-0.005465586768893757,-0.006592697248075176
-0.005465246768893757,-0.007448449749696415
-0.005464906768893757,-0.008962473406403288
-0.005464566768893757,-0.009061214079666959
-0.005464226768893757,-0.004025439743221159
-0.005463886768893757,-0.004815365129329092
-0.005463546768893757,-0.002544329644264652
-0.005463206768893757,-0.005045760033619912
-0.005462866768893757,-0.009949880139040001
-0.005462526768893757,-0.00860042427110316
-0.005462186768893757,-0.006823092152359411
-0.005461846768893757,-0.008106720904784802
-0.005461506768893757,-0.007514276865202775
-0.005461166768893757,-0.008205461578049193
-0.005460826768893757,-0.00860042427110316
-0.005460486768893757,-0.007218054845411761
-0.005460146768893757,-0.006296475228287874
-0.005459806768893757,-0.008337115809066702
-0.005459466768893757,-0.006230648112775047
-0.005459126768893757,-0.005638204073194037
-0.005458786768893757,-0.00619773455502049
-0.005458446768893757,-0.006131907439511376
-0.005458106768893757,-0.00613190743951413
-0.005457766768893757,-0.007645931096221003
-0.005457426768893757,-0.007547190422957332
-0.005457086768893758,-0.006362302343795432
-0.005456746768893757,-0.007777585327239231
-0.005456406768893757,-0.007711758211730118
-0.005456066768893758,-0.005868598977478273
-0.005455726768893757,-0.005045760033610991
-0.005455386768893757,-0.004815365129329092
-0.005455046768893758,-0.003005119452831744
-0.005454706768893757,-0.003169687241601236
-0.005454366768893757,-0.005243241380138334
-0.005454026768893758,-0.007711758211725627
-0.005453686768893757,-0.002544329644264652
-0.005453346768893757,-0.003729217723428708
-0.005453006768893758,-0.002906378779566276
-0.005452666768893757,-0.005309068495647449
-0.005452326768893757,-0.01001570725454911
-0.005451986768893758,-0.008501683597842242
-0.005451646768893757,-0.006823092152357076
-0.005451306768893757,-0.009587831003739873
-0.005450966768893757,-0.01008153437005733
-0.005450626768893757,-0.009324522541703417
-0.005450286768893757,-0.009094127637421515
-0.005449946768893757,-0.009159954752930511
-0.005449606768893757,-0.007152227729902647
-0.005449266768893757,-0.007152227729902647
-0.005448926768893757,-0.006526870132567199
-0.005448586768893757,-0.005309068495647449
-0.005448246768893757,-0.005671117630947577
-0.005447906768893757,-0.005374895611156563
-0.005447566768893757,-0.00586859897747492
-0.005447226768893757,-0.005769858304211248
-0.005446886768893757,-0.006395215901547833
-0.005446546768893757,-0.006493956574811504
-0.005446206768893757,-0.008732078502121389
-0.005445866768893757,-0.009587831003739873
-0.005445526768893757,-0.006921832825622065
-0.005445186768893757,-0.007645931096221003
-0.005444846768893757,-0.009489090330476201
-0.005444506768893757,-0.008567510713348542
-0.005444166768893757,-0.008534597155594046
-0.005443826768893757,-0.01445903755141432
-0.005443486768893757,-0.009884053023523881
-0.005443146768893757,-0.006033166766247705
-0.005442806768893757,-0.006000253208493148
-0.005442466768893757,-0.003860871954451905
-0.005442126768893757,-0.006592697248075176
-0.005441786768893757,-0.007810498884993789
-0.005441446768893757,-0.003465909261390994
-0.005441106768893757,-0.002774724548546551
-0.005440766768893757,-0.004288748205256179
-0.005440426768893757,-0.005506549842171738
-0.005440086768893757,-0.003827958396692379
-0.005439746768893757,-0.004782451571574535
-0.005439406768893757,-0.00576985830421059
-0.005439066768893757,-0.00540780916891112
-0.005438726768893757,-0.006625610805829733
-0.005438386768893757,-0.006362302343793157
-0.005438046768893757,-0.006296475228284162
-0.005437706768893757,-0.006625610805829733
-0.005437366768893757,-0.007250968403165121
-0.005437026768893757,-0.006592697248075176
-0.005436686768893757,-0.004617883782801749
-0.005436346768893758,-0.005901512535227142
-0.005436006768893757,-0.003235514357110351
-0.005435666768893757,-0.002643070317528323
-0.005435326768893758,-0.003005119452827792
-0.005434986768893757,-0.002939292337319337
-0.005434646768893757,-0.00267598387528288
-0.005434306768893758,-0.005802771861960118
-0.005433966768893757,-0.007283881960920875
-0.005433626768893757,-0.008797905617630502
-0.005433286768893758,-0.01416281553161355
-0.005432946768893757,-0.007316795518675433
-0.005432606768893757,-0.006987659941129861
-0.005432266768893758,-0.006856005710111872
-0.005431926768893757,-0.006691437921338847
-0.005431586768893757,-0.01014736148556734
-0.005431246768893758,-0.01129933600697475
-0.005430906768893757,-0.00711931417214809
-0.005430566768893757,-0.00688891926786619
-0.005430226768893757,-0.006395215901548731
-0.005429886768893757,-0.004486229551783521
-0.005429546768893757,-0.001227787334082367
-0.005429206768893757,-0.001425268680609351
-0.005428866768893757,-0.000832824641027682
-0.005428526768893757,0.0006153719001728307
-0.005428186768893757,-0.001589836469378484
-0.005427846768893757,0.002623098923200814
-0.005427506768893757,-0.004782451571574535
-0.005427166768893757,-0.00517741426462922
-0.005426826768893757,-0.007053487056638975
-0.005426486768893757,-0.003860871954446936
-0.005426146768893757,-0.003432995703637694
-0.005425806768893757,-0.004486229551783521
-0.005425466768893757,-0.003301341472619465
-0.005425126768893757,-0.00336716858812858
-0.005424786768893757,-0.003400082145883136
-0.005424446768893757,-0.004782451571574535
-0.005424106768893757,-0.003498822819146808
-0.005423766768893757,-0.005934426092983195
-0.005423426768893757,-0.005473636284420234
-0.005423086768893757,-0.008139634462539359
-0.005422746768893757,-0.00952200388822076
-0.005422406768893757,-0.004025439743219721
-0.005422066768893757,-0.004914105802592763
-0.005421726768893757,-0.003202600799363996
-0.005421386768893757,-0.007711758211730118
-0.005421046768893757,-0.009785312350267215
-0.005420706768893757,-0.008073807347027132
-0.005420366768893757,-0.006362302343793276
-0.005420026768893757,-0.005835685419720362
-0.005419686768893757,-0.007711758211730297
-0.005419346768893757,-0.007810498884993789
-0.005419006768893757,-0.006395215901547833
-0.005418666768893757,-0.005835685419723475
-0.005418326768893757,-0.007547190422957332
-0.005417986768893757,-0.006395215901547833
-0.005417646768893757,-0.006954746383374406
