Analysis/files/cmb03_d2s01/wrd10_ch26.csv

#Digilent WaveForms Oscilloscope Acquisition
#Device Name: ADP3450
#Serial Number: SN:210018B9D9B0
#Date Time: 2024-08-09 17:20:15.465.038.560
#Sample rate: 2.94118e+06Hz
#Samples: 32768
#Trigger: Source: Channel 3 Type: Edge Condition: Rising Level: 60 mV Hyst.: Auto HoldOff: 0 s
#Channel 3: Range: 200 mV/div Offset: 0 V Attenuation: 1 X Coupling: DC Bandwidth: 0 Hz Sample Mode: Average

Time (s),Channel 3 (V)
-0.005570540813648294,0.0003520634381363738
-0.005570200813648294,-0.000306207716950757
-0.005569860813648294,0.001899000652600558
-0.005569520813648294,0.001339470170773087
-0.005569180813648294,-0.004124180416480938
-0.005568840813648294,-0.002774724548546551
-0.005568500813648294,-0.0009644788720459105
-0.005568160813648294,-0.001589836469383693
-0.005567820813648294,-0.002248107624473638
-0.005567480813648294,-0.00267598387528288
-0.005567140813648294,-0.003630477050165156
-0.005566800813648294,-0.00369630416567415
-0.005566460813648294,-0.003400082145883136
-0.005566120813648294,-0.005835685419719823
-0.005565780813648294,-0.005539463399929348
-0.005565440813648294,-0.005210327822383777
-0.005565100813648294,-0.005868598977476357
-0.005564760813648294,-0.00665852436358429
-0.005564420813648294,-0.005704031188702134
-0.005564080813648294,-0.00580277186196353
-0.005563740813648294,-0.004552056667292635
-0.005563400813648294,-0.003301341472619465
-0.005563060813648294,-0.004058353300972901
-0.005562720813648294,-0.004683710898310864
-0.005562380813648294,-0.002939292337319337
-0.005562040813648294,-0.003663390607918276
-0.005561700813648294,-0.006724351479093405
-0.005561360813648294,-0.006856005710111633
-0.005561020813648294,-0.006066080324003699
-0.005560680813648294,-0.00837002936682126
-0.005560340813648294,-0.0129450138947047
-0.005560000813648294,-0.00636230234380525
-0.005559660813648294,-0.008468770040084931
-0.005559320813648294,-0.007448449749693661
-0.005558980813648294,-0.009719485234753971
-0.005558640813648294,-0.01528187649527825
-0.005558300813648294,-0.01330706303000483
-0.005557960813648294,-0.01133224956473499
-0.005557620813648294,-0.0115626444690133
-0.005557280813648294,-0.01159555802676786
-0.005556940813648294,-0.008962473406408078
-0.005556600813648294,-0.00962074456149443
-0.005556260813648294,-0.008732078502121389
-0.005555920813648294,-0.008007980231522448
-0.005555580813648294,-0.009258695426194301
-0.005555240813648294,-0.00962074456149443
-0.005554900813648294,-0.0100157072545484
-0.005554560813648294,-0.008995386964157845
-0.005554220813648294,-0.009258695426194301
-0.005553880813648294,-0.007448449749693661
-0.005553540813648294,-0.008468770040084931
-0.005553200813648294,-0.01001570725454911
-0.005552860813648294,-0.008995386964157845
-0.005552520813648294,-0.01146390379574963
-0.005552180813648294,-0.01241839697063178
-0.005551840813648294,-0.01172721225778608
-0.005551500813648294,-0.01156264446901593
-0.005551160813648294,-0.01301084101021381
-0.005550820813648294,-0.01192469360431343
-0.005550480813648294,-0.01110185466046004
-0.005550140813648294,-0.01689464082525155
-0.005549800813648294,-0.01205634783533165
-0.005549460813648294,-0.009258695426193642
-0.005549120813648294,-0.008896646290894173
-0.005548780813648294,-0.008797905617630502
-0.005548440813648294,-0.01172721225778824
-0.005548100813648294,-0.01291210033695014
-0.005547760813648294,-0.01050941062086747
-0.005547420813648294,-0.01004862081230625
-0.005547080813648294,-0.01146390379574963
-0.005546740813648294,-0.01182595293104976
-0.005546400813648294,-0.01185886648880665
-0.005546060813648294,-0.01314249524123204
-0.005545720813648294,-0.01436029687815065
-0.005545380813648294,-0.01478817312896253
-0.005545040813648294,-0.01623636967016041
-0.005544700813648294,-0.01544644428405104
-0.005544360813648294,-0.01426155620488579
-0.005544020813648294,-0.01360328504979584
-0.005543680813648294,-0.01422864264713243
-0.005543340813648294,-0.01327414947224907
-0.005543000813648294,-0.01261587831715913
-0.005542660813648294,-0.01491982735997812
-0.005542320813648294,-0.01050941062087549
-0.005541980813648294,-0.01100311398718583
-0.005541640813648294,-0.01544644428405104
-0.005541300813648294,-0.01380076639632618
-0.005540960813648294,-0.01376785283856862
-0.005540620813648294,-0.01310958168347748
-0.005540280813648294,-0.0129121003369505
-0.005539940813648294,-0.01268170543266824
-0.005539600813648294,-0.01844157803971573
-0.005539260813648294,-0.01205634783534327
-0.005538920813648294,-0.009192868310685188
-0.005538580813648294,-0.01426155620488698
-0.005538240813648294,-0.01603888832362983
-0.005537900813648294,-0.01287918677919558
-0.005537560813648294,-0.014557778224678
-0.005537220813648294,-0.01580849341934889
-0.005536880813648294,-0.0129450138947047
-0.005536540813648294,-0.01320832235674115
-0.005536200813648294,-0.01258296475940571
-0.005535860813648294,-0.0115626444690133
-0.005535520813648294,-0.0108714597561676
-0.005535180813648294,-0.01034484283209564
-0.005534840813648294,-0.008797905617630502
-0.005534500813648294,-0.0113322495647314
-0.005534160813648294,-0.01291210033694727
-0.005533820813648294,-0.01251713764389546
-0.005533480813648294,-0.0152489629375237
-0.005533140813648294,-0.01626928322791496
-0.005532800813648294,-0.01590723409261484
-0.005532460813648294,-0.01738834419156991
-0.005532120813648294,-0.01827701025094295
-0.005531780813648294,-0.01689464082525155
-0.005531440813648294,-0.01702629505626978
-0.005531100813648294,-0.01656550524770598
-0.005530760813648294,-0.01584140697710572
-0.005530420813648294,-0.01347163081877761
-0.005530080813648294,-0.01287918677919558
-0.005529740813648294,-0.01278044610593329
-0.005529400813648294,-0.01353745793428673
-0.005529060813648294,-0.01195760716206798
-0.005528720813648294,-0.01129933600697666
-0.005528380813648294,-0.01120059533371317
-0.005528040813648294,-0.009554917445985316
-0.005527700813648294,-0.01561101207282837
-0.005527360813648294,-0.01811244246217016
-0.005527020813648294,-0.01551227139956015
-0.005526680813648294,-0.01636802390117965
-0.005526340813648294,-0.01692755438300611
-0.005526000813648294,-0.01758582553809725
-0.005525660813648294,-0.01449195110916894
-0.005525320813648294,-0.01452486466692344
-0.005524980813648294,-0.01330706303000483
-0.005524640813648294,-0.01416281553162181
-0.005524300813648294,-0.01333997658775938
-0.005523960813648294,-0.014557778224678
-0.005523620813648294,-0.01765165265361373
-0.005523280813648294,-0.02170002025741689
-0.005522940813648294,-0.02940179277198325
-0.005522600813648294,-0.04490407847441646
-0.005522260813648294,-0.06514591649343227
-0.005521920813648294,-0.09213503385216909
-0.005521580813648294,-0.1230079510260023
-0.005521240813648294,-0.1552303240676551
-0.005520900813648294,-0.1839309464296289
-0.005520560813648294,-0.2127632230225684
-0.005520220813648294,-0.2358027134508109
-0.005519880813648294,-0.2521936652125803
-0.005519540813648294,-0.2645033358127623
-0.005519200813648294,-0.2725671574626511
-0.005518860813648294,-0.2782941165119441
-0.005518520813648294,-0.2707239982284098
-0.005518180813648294,-0.2664452357203035
-0.005517840813648294,-0.2601916597469377
-0.005517500813648294,-0.2552875396415176
-0.005517160813648294,-0.25370768886929
-0.005516820813648294,-0.2423854250017223
-0.005516480813648294,-0.2304378035368398
-0.005516140813648294,-0.2228347716955154
-0.005515800813648294,-0.214540555141367
-0.005515460813648294,-0.2072995724353776
-0.005515120813648294,-0.200124416844871
-0.005514780813648294,-0.1930480019276412
-0.005514440813648294,-0.1874856106671312
-0.005514100813648294,-0.183996773545138
-0.005513760813648294,-0.1780723331493177
-0.005513420813648294,-0.1728390774663527
-0.005513080813648294,-0.1673425133213321
-0.005512740813648294,-0.1616155542720392
-0.005512400813648294,-0.1558556816649917
-0.005512060813648294,-0.150556598866508
-0.005511720813648294,-0.1455866516455699
-0.005511380813648294,-0.1403863095203498
-0.005511040813648294,-0.1357784114347118
-0.005510700813648294,-0.1306768099827555
-0.005510360813648294,-0.126332220359154
-0.005510020813648294,-0.1216255816002523
-0.005509680813648294,-0.1172809919766507
-0.005509340813648294,-0.1116198600428669
-0.005509000813648294,-0.1087892940759734
-0.005508660813648294,-0.1079006280166019
-0.005508320813648294,-0.1035560383930004
-0.005507980813648294,-0.09489977270354706
-0.005507640813648294,-0.09223377452543277
-0.005507300813648294,-0.08848162894141326
-0.005506960813648294,-0.08772461711305941
-0.005506620813648294,-0.08825123403713137
-0.005506280813648294,-0.08357750883598425
-0.005505940813648294,-0.08094442421562069
-0.005505600813648294,-0.08150395469744715
-0.005505260813648294,-0.07939748700115551
-0.005504920813648294,-0.07880504296157108
-0.005504580813648294,-0.07748850065139118
-0.005504240813648294,-0.07429588554919914
-0.005503900813648294,-0.07021460438763336
-0.005503560813648294,-0.06981964169457938
-0.005503220813648294,-0.06692324861217835
-0.005502880813648294,-0.06366480639447306
-0.005502540813648294,-0.06139377090941276
-0.005502200813648294,-0.05806950157620249
-0.005501860813648294,-0.05546933051358697
-0.005501520813648294,-0.05244128320017322
-0.005501180813648294,-0.05112474088999094
-0.005500840813648294,-0.04832708848085395
-0.005500500813648294,-0.04852456982738093
-0.005500160813648294,-0.04836000203860814
-0.005499820813648294,-0.04809669357657217
-0.005499480813648294,-0.04796503934555346
-0.005499140813648294,-0.04855748338513548
-0.005498800813648294,-0.04780047155678205
-0.005498460813648294,-0.047701730883517
-0.005498120813648294,-0.050005679926336
-0.005497780813648294,-0.04062531596630429
-0.005497440813648294,-0.03930877365610494
-0.005497100813648294,-0.03456922133944872
-0.005496760813648294,-0.03331850614477782
-0.005496420813648294,-0.03483252980148517
-0.005496080813648294,-0.0340426044153758
-0.005495740813648294,-0.03414134508863929
-0.005495400813648294,-0.0365769483624767
-0.005495060813648294,-0.03710356528654962
-0.005494720813648294,-0.03641238057370517
-0.005494380813648294,-0.03499709759025796
-0.005494040813648294,-0.03377929595333935
-0.005493700813648294,-0.0343059128774113
-0.005493360813648294,-0.03262732143192985
-0.005493020813648294,-0.03226527229662972
-0.005492680813648294,-0.0323969265276477
-0.005492340813648294,-0.02963218767626515
-0.005492000813648294,-0.02871060805913755
-0.005491660813648294,-0.02686744882488571
-0.005491320813648294,-0.02535342516817273
-0.005490980813648294,-0.02403688285799044
-0.005490640813648294,-0.02357609304942664
-0.005490300813648294,-0.02166710669966233
-0.005489960813648294,-0.02252285920128081
-0.005489620813648294,-0.02400396930023588
-0.005489280813648294,-0.02347735237616297
-0.005488940813648294,-0.02367483372269031
-0.005488600813648294,-0.02265451343229904
-0.005488260813648294,-0.02499137603287433
-0.005487920813648294,-0.02594586920775475
-0.005487580813648294,-0.02713075728691881
-0.005487240813648294,-0.01916567631031659
-0.005486900813648294,-0.01949481188786156
-0.005486560813648294,-0.02074552708253473
-0.005486220813648294,-0.02199624227721455
-0.005485880813648294,-0.02564964718796374
-0.005485540813648294,-0.02258868631678993
-0.005485200813648294,-0.02209498295047139
-0.005484860813648294,-0.0219962422772079
-0.005484520813648294,-0.02170002025741689
-0.005484180813648294,-0.01926441698357804
-0.005483840813648294,-0.01837575092420662
-0.005483500813648294,-0.01949481188786156
-0.005483160813648294,-0.01956063900336858
-0.005482820813648294,-0.01840866448196118
-0.005482480813648294,-0.01873780005950675
-0.005482140813648294,-0.02071261352477754
-0.005481800813648294,-0.01926441698357966
-0.005481460813648294,-0.01877071361726131
-0.005481120813648294,-0.01893528140603421
-0.005480780813648294,-0.0190011085215432
-0.005480440813648294,-0.01883654073277042
-0.005480100813648294,-0.02035056438947591
-0.005479760813648294,-0.01807952890441561
-0.005479420813648294,-0.01933024409908878
-0.005479080813648294,-0.01949481188786126
-0.005478740813648294,-0.01880362717501586
-0.005478400813648294,-0.01692755438300611
-0.005478060813648294,-0.01610471543914367
-0.005477720813648294,-0.01617054255465129
-0.005477380813648294,-0.0196922932343889
-0.005477040813648294,-0.01988977458091589
-0.005476700813648294,-0.01376785283856862
-0.005476360813648294,-0.01567683918833294
-0.005476020813648294,-0.01544644428405146
-0.005475680813648294,-0.01880362717501586
-0.005475340813648294,-0.02127214400660764
-0.005475000813648294,-0.01801370178891242
-0.005474660813648294,-0.01933024409908878
-0.005474320813648294,-0.01873780005950675
-0.005473980813648294,-0.01850740515522527
-0.005473640813648294,-0.01824409669318839
-0.005473300813648294,-0.01626928322791496
-0.005472960813648294,-0.01696046794075941
-0.005472620813648294,-0.01613762899689674
-0.005472280813648294,-0.01505148159099635
-0.005471940813648294,-0.01386659351183445
-0.005471600813648294,-0.01561101207282382
-0.005471260813648294,-0.01488691380222357
-0.005470920813648294,-0.01455777822467859
-0.005470580813648294,-0.01515022226426002
-0.005470240813648294,-0.01508439514875091
-0.005469900813648294,-0.0152489629375237
-0.005469560813648294,-0.01570975274608749
-0.005469220813648294,-0.01389950706958685
-0.005468880813648294,-0.01284627322144103
-0.005468540813648294,-0.01268170543266824
-0.005468200813648294,-0.01274753254817735
-0.005467860813648294,-0.01205634783533165
-0.005467520813648294,-0.01376785283856862
-0.005467180813648294,-0.01508439514875091
-0.005466840813648294,-0.02051513217825283
-0.005466500813648294,-0.01508439514874977
-0.005466160813648294,-0.01445903755141432
-0.005465820813648294,-0.01370202572305951
-0.005465480813648294,-0.0136032850498041
-0.005465140813648294,-0.01814535601992472
-0.005464800813648294,-0.01626928322791496
-0.005464460813648294,-0.01455777822468195
-0.005464120813648294,-0.01673007303647877
-0.005463780813648294,-0.01636802390117864
-0.005463440813648294,-0.01594014765037119
-0.005463100813648294,-0.01692755438300611
-0.005462760813648294,-0.01745417130707902
-0.005462420813648294,-0.01653259168995184
-0.005462080813648294,-0.01676298659423332
-0.005461740813648294,-0.01640093745893319
-0.005461400813648294,-0.01732251707606217
-0.005461060813648294,-0.01807952890441561
-0.005460720813648294,-0.01742125774932446
-0.005460380813648294,-0.01781622044237759
-0.005460040813648294,-0.01696046794076066
-0.005459700813648294,-0.01590723409261484
-0.005459360813648294,-0.01307666812572472
-0.005459020813648294,-0.01406407485835964
-0.005458680813648294,-0.0138665935118323
-0.005458340813648294,-0.01307666812572245
-0.005458000813648294,-0.01281335966368647
-0.005457660813648294,-0.01396533418509597
-0.005457320813648294,-0.01551227139955734
-0.005456980813648294,-0.01541353072629648
-0.005456640813648294,-0.01814535601992472
-0.005456300813648294,-0.02035056438947604
-0.005455960813648294,-0.01380076639632318
-0.005455620813648294,-0.01324123591449571
-0.005455280813648294,-0.01225382918186079
-0.005454940813648294,-0.01261587831715913
-0.005454600813648294,-0.01755291198034269
-0.005454260813648294,-0.01561101207282736
-0.005453920813648294,-0.01373493928081407
-0.005453580813648294,-0.01636802390117864
-0.005453240813648294,-0.01551227139956171
-0.005452900813648294,-0.0143273833203961
-0.005452560813648294,-0.0143273833203961
-0.005452220813648294,-0.01472234601345006
-0.005451880813648294,-0.01268170543266824
-0.005451540813648294,-0.01396533418509597
-0.005451200813648294,-0.01337289014551502
-0.005450860813648294,-0.01380076639632318
-0.005450520813648294,-0.01139807668024051
-0.005450180813648294,-0.01225382918185744
-0.005449840813648294,-0.01330706303000483
-0.005449500813648294,-0.0134058037032685
-0.005449160813648294,-0.01357037149204098
-0.005448820813648294,-0.01327414947225027
-0.005448480813648294,-0.01310958168347748
-0.005448140813648294,-0.01350454437653217
-0.005447800813648294,-0.01380076639632318
-0.005447460813648294,-0.01498565447548724
-0.005447120813648294,-0.01452486466692344
-0.005446780813648294,-0.01491982735997812
-0.005446440813648294,-0.01561101207282382
-0.005446100813648294,-0.01965937967663435
-0.005445760813648294,-0.01613762899689027
-0.005445420813648294,-0.01258296475940457
-0.005445080813648294,-0.01215508850859533
-0.005444740813648294,-0.01116768177596382
-0.005444400813648294,-0.01403116130060508
-0.005444060813648294,-0.01607180188138762
-0.005443720813648294,-0.01357037149204164
-0.005443380813648294,-0.01376785283856862
-0.005443040813648294,-0.01396533418509597
-0.005442700813648294,-0.01179303937329741
-0.005442360813648294,-0.01301084101021381
-0.005442020813648294,-0.01281335966368647
-0.005441680813648294,-0.01291210033694649
-0.005441340813648294,-0.01090437331392216
-0.005441000813648294,-0.01123350889146773
-0.005440660813648294,-0.01255005120164546
-0.005440320813648294,-0.01004862081230367
-0.005439980813648294,-0.01126642244922228
-0.005439640813648294,-0.01057523773637802
-0.005439300813648294,-0.01136516312248596
-0.005438960813648294,-0.012253829181859
-0.005438620813648294,-0.01442612399365959
-0.005438280813648294,-0.0143273833203961
-0.005437940813648294,-0.01403116130060508
-0.005437600813648294,-0.01659841880545886
-0.005437260813648294,-0.01567683918833294
-0.005436920813648294,-0.01544644428405104
-0.005436580813648294,-0.01508439514875157
-0.005436240813648294,-0.01521604937976914
-0.005435900813648294,-0.01597306120812395
-0.005435560813648294,-0.02044930506273557
-0.005435220813648294,-0.01333997658775938
-0.005434880813648294,-0.01185886648880431
-0.005434540813648294,-0.01389950706958314
-0.005434200813648294,-0.01212217495084077
-0.005433860813648294,-0.01689464082525155
-0.005433520813648294,-0.01811244246216795
-0.005433180813648294,-0.01587432053486028
-0.005432840813648294,-0.01633511034342408
-0.005432500813648294,-0.01682881370974154
-0.005432160813648294,-0.0152489629375237
-0.005431820813648294,-0.01360328504979584
-0.005431480813648294,-0.01376785283856832
-0.005431140813648294,-0.01192469360431343
-0.005430800813648294,-0.00962074456149443
-0.005430460813648294,-0.009357436099458452
-0.005430120813648294,-0.01149681735350419
-0.005429780813648294,-0.01070689196739481
-0.005429440813648294,-0.01143099023799375
-0.005429100813648294,-0.01343871726102305
-0.005428760813648294,-0.01478817312895989
-0.005428420813648294,-0.01626928322791227
-0.005428080813648294,-0.01771747976911548
-0.005427740813648294,-0.01719086284504256
-0.005427400813648294,-0.01696046794076066
-0.005427060813648294,-0.01847449159747029
-0.005426720813648294,-0.01715794928728801
-0.005426380813648294,-0.01613762899689674
-0.005426040813648294,-0.01564392563057838
-0.005425700813648294,-0.0143273833203961
-0.005425360813648294,-0.01801370178890649
-0.005425020813648294,-0.01788204755788826
-0.005424680813648294,-0.01004862081230367
-0.005424340813648294,-0.01215508850859533
-0.005424000813648294,-0.01699338149850965
-0.005423660813648294,-0.01393242062734141
-0.005423320813648294,-0.01176012581554064
-0.005422980813648294,-0.01393242062734189
-0.005422640813648294,-0.01419572908937787
-0.005422300813648294,-0.01330706303000483
-0.005421960813648294,-0.01225382918185852
-0.005421620813648294,-0.01199052071982254
-0.005421280813648294,-0.01001570725454911
-0.005420940813648294,-0.009324522541705033
-0.005420600813648294,-0.01021318860107646
-0.005420260813648294,-0.009291608983948858
-0.005419920813648294,-0.01011444792781752
-0.005419580813648294,-0.0127146189904228
-0.005419240813648294,-0.01347163081877761
-0.005418900813648294,-0.01386659351183601
-0.005418560813648294,-0.01590723409261484
-0.005418220813648294,-0.01584140697710572
-0.005417880813648294,-0.01712503572953345
-0.005417540813648294,-0.01712503572953345
-0.005417200813648294,-0.01636802390117864
-0.005416860813648294,-0.01590723409261633
-0.005416520813648294,-0.01673007303647877
-0.005416180813648294,-0.01472234601345078
-0.005415840813648294,-0.01426155620488722
