Analysis/files/cmb03_d2s01/wrd10_ch01.csv

#Digilent WaveForms Oscilloscope Acquisition
#Device Name: ADP3450
#Serial Number: SN:210018B9D9B0
#Date Time: 2024-08-09 17:07:31.757.252.320
#Sample rate: 2.94118e+06Hz
#Samples: 32768
#Trigger: Source: Channel 3 Type: Edge Condition: Rising Level: 60 mV Hyst.: Auto HoldOff: 0 s
#Channel 3: Range: 200 mV/div Offset: 0 V Attenuation: 1 X Coupling: DC Bandwidth: 0 Hz Sample Mode: Average

Time (s),Channel 3 (V)
-0.005570265,0.006177763160692982
-0.005569925,0.004564998830718487
-0.005569585,0.003906727675628541
-0.005569245,0.002623098923200814
-0.005568905,0.001405297286284776
-0.005568565,0.002820580269728157
-0.005568225,0.002228136230146129
-0.005567885,0.003314283636047052
-0.005567545,0.003610505655837527
-0.005567205,0.001833173537091444
-0.005566865,5.584141834667698e-05
-0.005566525,0.0007799396889456162
-0.005566185,-0.001556922911627938
-0.005565845,-0.002939292337314847
-0.005565505,-0.0004707755057275538
-0.005565165,-0.0005366026212366681
-0.005564825,0.0008457668044549699
-0.005564485,0.0009774210354729588
-0.005564145,0.0003849769958909309
-0.005563805,-0.004584970225046594
-0.005563465,-0.004255834647501621
-0.005563125,0.001273643055263973
-0.005562785000000001,-0.002083539835694745
-0.005562445,-0.0003391212747093254
-0.005562105,-0.002873465221810222
-0.005561765000000001,-0.005671117630942488
-0.005561425,-0.003498822819146808
-0.005561085,-0.002116453393455409
-0.005560745000000001,-0.004255834647497729
-0.005560405,-0.003762131281183265
-0.005560065,-0.001787317815909838
-0.005559725000000001,-0.004453315994024114
-0.005559385,-0.003762131281183265
-0.005559045,-0.00336716858812858
-0.005558705000000001,-0.001260700891840756
-0.005558365,-0.001524009353873381
-0.005558025,-0.002741810990791994
-0.005557685000000001,-0.004519143109534845
-0.005557345,-0.005671117630947577
-0.005557005,-0.003827958396692379
-0.005556665000000001,-0.007678844653968555
-0.005556325,-0.007711758211730118
-0.005555985,-0.006559783690320619
-0.005555645000000001,-0.007678844653973524
-0.005555305,-0.007810498884993789
-0.005554965,-0.006559783690320619
-0.005554625000000001,-0.006724351479093105
-0.005554285,-0.007876326000502903
-0.005553945,-0.006428129459302391
-0.005553605000000001,-0.007711758211730118
-0.005553265,-0.01172721225778608
-0.005552925,-0.01304375456796837
-0.005552585000000001,-0.006559783690320619
-0.005552245,-0.007218054845411761
-0.005551905,-0.005341982053402005
-0.005551565,-0.006954746383375304
-0.005551225,-0.00925869542619065
-0.005550885,-0.007250968403166318
-0.005550545,-0.003498822819146808
-0.005550205,-0.005539463399926594
-0.005549865,-0.004025439743219721
-0.005549525,-0.002610156759773766
-0.005549185,-0.003465909261392789
-0.005548845,-0.003762131281183265
-0.005548505,-0.003827958396692379
-0.005548165,-0.005276154937895705
-0.005547825,-0.006823092152357076
-0.005547485,-0.007448449749693661
-0.005547145,-0.01018027504332322
-0.005546805,-0.01090437331392216
-0.005546465,-0.009884053023530886
-0.005546125,-0.01100311398718613
-0.005545785,-0.01116768177595861
-0.005545445,-0.01014736148556734
-0.005545105,-0.009225781868435793
-0.005544765,-0.007053487056638975
-0.005544425,-0.006395215901547833
-0.005544085,-0.005210327822383478
-0.005543745,-0.005045760033610991
-0.005543405,-0.003729217723428708
-0.005543065,-0.006461043017067964
-0.005542725,-0.01251713764389546
-0.005542385,-0.005605290515438462
-0.005542045000000001,-0.006131907439510418
-0.005541705,-0.006790178594602518
-0.005541365,-0.007020573498884419
-0.005541025000000001,-0.01159555802675953
-0.005540685,-0.01195760716206798
-0.005540345,-0.009225781868439744
-0.005540005000000001,-0.01245131052838047
-0.005539665,-0.01185886648880431
-0.005539325,-0.009587831003739873
-0.005538985000000001,-0.008501683597841463
-0.005538645,-0.009192868310685188
-0.005538305,-0.007580103980711889
-0.005537965000000001,-0.007415536191939403
-0.005537625,-0.008567510713348603
-0.005537285,-0.008567510713348603
-0.005536945000000001,-0.00632938878604279
-0.005536605,-0.00415709397423795
-0.005536265,-0.01192469360431343
-0.005535925000000001,-0.009357436099462643
-0.005535585,-0.01093728687167671
-0.005535245,-0.01189178004655887
-0.005534905000000001,-0.01192469360431337
-0.005534565,-0.0120234342775771
-0.005534225,-0.01393242062734141
-0.005533885000000001,-0.0140640748583594
-0.005533545,-0.01419572908937787
-0.005533205,-0.01482108668671445
-0.005532865000000001,-0.0136361986075504
-0.005532525,-0.01488691380222357
-0.005532185,-0.01830992380869751
-0.005531845000000001,-0.009949880139040001
-0.005531505,-0.006329388786038719
-0.005531165,-0.005276154937892892
-0.005530825,-0.004222921089747064
-0.005530485,-0.007218054845411761
-0.005530145,-0.005276154937892892
-0.005529805,-0.001589836469382495
-0.005529465,-0.002215194066724349
-0.005529125,-0.005111587149120106
-0.005528785,-0.006856005710111633
-0.005528445,-0.008304202251320048
-0.005528105,-0.01264879187491368
-0.005527765,-0.01208926139308621
-0.005527425,-0.01337289014551645
-0.005527085,-0.01475525957120534
-0.005526745,-0.01475525957120534
-0.005526405,-0.01304375456796843
-0.005526065,-0.01307666812572293
-0.005525725,-0.01264879187491368
-0.005525385,-0.009719485234760078
-0.005525045,-0.01080563264065849
-0.005524705,-0.00869916494436683
-0.005524365,-0.007876326000503382
-0.005524025,-0.008139634462539359
-0.005523685,-0.009554917445985316
-0.005523345,-0.01024610215884167
-0.005523005,-0.01610471543914218
-0.005522665,-0.03019171815809262
-0.005522325,-0.04691180549745996
-0.005521985,-0.07567825497489056
-0.005521645,-0.1021078418517999
-0.005521305,-0.1302818472897569
-0.005520965,-0.1611547644634753
-0.005520625,-0.189493337690149
-0.005520285000000001,-0.2173711211082082
-0.005519945,-0.2379750082626116
-0.005519605,-0.2514366533842255
-0.005519265000000001,-0.2596321292650953
-0.005518925,-0.2640754595619754
-0.005518585,-0.2654907425454214
-0.005518245000000001,-0.2623968681164986
-0.005517905,-0.2555179345457906
-0.005517565,-0.2498568026120068
-0.005517225000000001,-0.241003055576047
-0.005516885,-0.2331696288304463
-0.005516545,-0.225764078335671
-0.005516205000000001,-0.2185230956296816
-0.005515865,-0.2078591029171919
-0.005515525,-0.2011118235775077
-0.005515185000000001,-0.1946607662576262
-0.005514845,-0.1863665497034661
-0.005514505,-0.1807383313274368
-0.005514165000000001,-0.1739910519877649
-0.005513825,-0.1668817235127683
-0.005513485,-0.1616155542720392
-0.005513145000000001,-0.1566126934933556
-0.005512805,-0.1513136106948628
-0.005512465,-0.1458170465498518
-0.005512125000000001,-0.1426902585631688
-0.005511785,-0.1372266079759124
-0.005511445,-0.137325348649176
-0.005511105000000001,-0.124916937375708
-0.005510765,-0.1176759546697054
-0.005510425,-0.1118173413893943
-0.005510085000000001,-0.1088222076337295
-0.005509745,-0.1088222076337295
-0.005509405,-0.104181395990337
-0.005509065,-0.101581224927727
-0.005508725,-0.09927727588490277
-0.005508385,-0.09641379636026151
-0.005508045,-0.09427441510621531
-0.005507705,-0.09006147971362539
-0.005507365,-0.08644098836063072
-0.005507025,-0.0840053850867935
-0.005506685,-0.08094442421561075
-0.005506345,-0.07604030411019067
-0.005506005,-0.07505289737755397
-0.005505665,-0.07274894833472755
-0.005505325,-0.06866766717316988
-0.005504985,-0.0664953723613691
-0.005504645,-0.06409268264528153
-0.005504305,-0.06139377090941276
-0.005503965,-0.05922147609761199
-0.005503625,-0.05691752705478766
-0.005503285,-0.05398822041463741
-0.005502945,-0.05188175271834575
-0.005502605,-0.05142096290977801
-0.005502265,-0.04924866809798119
-0.005501925,-0.04868913761615372
-0.005501585,-0.04720802751719937
-0.005501245,-0.04760299021025333
-0.005500905,-0.04697763261291674
-0.005500565,-0.04151398202565924
-0.005500225,-0.04095445154383279
-0.005499885,-0.03792640423041354
-0.005499545000000001,-0.04283052433583363
-0.005499205,-0.04437746155030674
-0.005498865,-0.03976956346466874
-0.005498525000000001,-0.0390454651940698
-0.005498185,-0.03815679913469544
-0.005497845,-0.03670860259349493
-0.005497505000000001,-0.03503001114801557
-0.005497165,-0.03341724681803922
-0.005496825,-0.03266023498968441
-0.005496485000000001,-0.03163991469929499
-0.005496145,-0.03104747065971111
-0.005495805,-0.02953344700300148
-0.005495465000000001,-0.03025754527360042
-0.005495125,-0.03015880460033806
-0.005494785,-0.02818399113506464
-0.005494445000000001,-0.02824981825057363
-0.005494105,-0.02801942334629185
-0.005493765,-0.02620917766979121
-0.005493425000000001,-0.02061387285152668
-0.005493085,-0.02745989286446438
-0.005492745,-0.0245305862243088
-0.005492405000000001,-0.0234115252606559
-0.005492065,-0.02202915583496246
-0.005491725,-0.02058095929376194
-0.005491385000000001,-0.01956063900337253
-0.005491045,-0.01936315765684333
-0.005490705,-0.02258868631678993
-0.005490365000000001,-0.01801370178890649
-0.005490025,-0.01699338149851522
-0.005489685,-0.01498565447548724
-0.005489345000000001,-0.01268170543266824
-0.005489005,-0.01804661534666105
-0.005488665,-0.01679590015198788
-0.005488325,-0.01327414947225027
-0.005487985,-0.01511730870650888
-0.005487645,-0.01699338149851522
-0.005487305,-0.01620345611240585
-0.005486965,-0.01689464082525203
-0.005486625,-0.01715794928728801
-0.005486285,-0.01587432053486028
-0.005485945,-0.0163680239011793
-0.005485605,-0.01673007303647877
-0.005485265,-0.01584140697710572
-0.005484925,-0.01557809851506597
-0.005484585,-0.01376785283856862
-0.005484245,-0.01347163081877761
-0.005483905,-0.0128462732214424
-0.005483565,-0.01360328504979584
-0.005483225,-0.01106894110269494
-0.005482885,-0.01149681735350431
-0.005482545,-0.0115626444690133
-0.005482205,-0.01067397840964026
-0.005481865,-0.01070689196739733
-0.005481525,-0.01208926139308621
-0.005481185,-0.01251713764389546
-0.005480845,-0.01284627322144737
-0.005480505,-0.01633511034342408
-0.005480165,-0.01837575092420662
-0.005479825,-0.01251713764389294
-0.005479485,-0.01113476821820406
-0.005479145,-0.009028300521912402
-0.005478805000000001,-0.007678844653978015
-0.005478465,-0.01238548341287723
-0.005478125,-0.01274753254817735
-0.005477785000000001,-0.008699164944374194
-0.005477445,-0.01037775638984924
-0.005477105,-0.01083854619841304
-0.005476765000000001,-0.009686571677005639
-0.005476425,-0.01136516312248596
-0.005476085,-0.01185886648880431
-0.005475745000000001,-0.01110185466045088
-0.005475405,-0.01297792745245925
-0.005475065,-0.01445903755141432
-0.005474725000000001,-0.0135703714920429
-0.005474385,-0.01485400024446901
-0.005474045,-0.0140969884161142
-0.005473705000000001,-0.01353745793428774
-0.005473365,-0.01222091562410444
-0.005473025,-0.0115626444690133
-0.005472685000000001,-0.009258695426198492
-0.005472345,-0.009719485234758102
-0.005472005,-0.01097020042943127
-0.005471665000000001,-0.009324522541706411
-0.005471325,-0.01050941062086747
-0.005470985,-0.01205634783533165
-0.005470645000000001,-0.01176012581554118
-0.005470305,-0.009884053023530886
-0.005469965,-0.01465651889794167
-0.005469625000000001,-0.01238548341287723
-0.005469285,-0.00711931417214809
-0.005468945,-0.009851139465776329
-0.005468605000000001,-0.007876326000502903
-0.005468265,-0.01215508850859533
-0.005467925,-0.01498565447548724
-0.005467585000000001,-0.01320832235674115
-0.005467245,-0.01080563264065849
-0.005466905,-0.01284627322144103
-0.005466565,-0.01123350889146773
-0.005466225,-0.00833711580906772
-0.005465885,-0.008896646290894173
-0.005465545,-0.008238375135803031
-0.005465205,-0.007152227729902647
-0.005464865,-0.007152227729902647
-0.005464525,-0.007514276865202775
-0.005464185,-0.006526870132566301
-0.005463845,-0.00665852436358429
-0.005463505,-0.007053487056638975
-0.005463165,-0.005802771861968918
-0.005462825,-0.007514276865202775
-0.005462485,-0.009192868310685188
-0.005462145,-0.009620744561497483
-0.005461805,-0.01129933600697684
-0.005461465,-0.01347163081877761
-0.005461125,-0.0125171376438939
-0.005460785,-0.01166138514227697
-0.005460445,-0.01162847158452241
-0.005460105,-0.01080563264065483
-0.005459765,-0.008797905617630502
-0.005459425,-0.01314249524123204
-0.005459085,-0.01202343427756321
-0.005458745,-0.00438748887851985
-0.005458405,-0.01083854619841304
-0.005458065,-0.01340580370326293
-0.005457725,-0.01034484283209469
-0.005457385,-0.01067397840964026
-0.005457045000000001,-0.01182595293104766
-0.005456705,-0.00962074456149443
-0.005456365,-0.009061214079666959
-0.005456025000000001,-0.009587831003738915
-0.005455685,-0.008139634462539359
-0.005455345,-0.008337115809066702
-0.005455005000000001,-0.008337115809066702
-0.005454665,-0.007744671769484675
-0.005454325,-0.008139634462539359
-0.005453985000000001,-0.008238375135802851
-0.005453645,-0.007744671769484675
-0.005453305,-0.007975066673766575
-0.005452965000000001,-0.008633337828856519
-0.005452625,-0.006461043017056948
-0.005452285,-0.007580103980711889
-0.005451945000000001,-0.01008153437005368
-0.005451605,-0.009653658119248986
-0.005451265,-0.009916966581285444
-0.005450925000000001,-0.01090437331392036
-0.005450585,-0.007086400614393532
-0.005450245,-0.007645931096221003
-0.005449905000000001,-0.01442612399364743
-0.005449565,-0.00767884465397556
-0.005449225,-0.007777585327239231
-0.005448885000000001,-0.007020573498885796
-0.005448545,-0.005111587149120106
-0.005448205,-0.009949880139040001
-0.005447865000000001,-0.0101802750433219
-0.005447525,-0.008402942924575817
-0.005447185,-0.008995386964157845
-0.005446845000000001,-0.01103602754494038
-0.005446505,-0.01090437331392216
-0.005446165,-0.009818225908021772
-0.005445825,-0.0101802750433219
-0.005445485,-0.01126642244921893
-0.005445145,-0.009423263214967087
-0.005444805,-0.009357436099457973
-0.005444465,-0.008534597155590094
-0.005444125,-0.006362302343793276
-0.005443785,-0.007316795518675433
-0.005443445,-0.007119314172145336
-0.005443105,-0.005605290515438462
-0.005442765,-0.00688891926786619
-0.005442425,-0.009258695426195498
-0.005442085,-0.009916966581285444
-0.005441745,-0.009982793696794558
-0.005441405,-0.01070689196739458
-0.005441065,-0.01057523773637659
-0.005440725,-0.0104106699476038
-0.005440385,-0.01097020042942977
-0.005440045,-0.01014736148556734
-0.005439705,-0.0134058037032685
-0.005439365,-0.01307666812571185
-0.005439025,-0.006987659941129861
-0.005438685,-0.005210327822383777
-0.005438345,-0.005210327822388627
-0.005438005,-0.007876326000502903
-0.005437665,-0.009653658119248986
-0.005437325,-0.007185141287654928
-0.005436985,-0.005934426092984033
-0.005436645,-0.008106720904784802
-0.005436305000000001,-0.008830819175383742
-0.005435965,-0.009061214079666959
-0.005435625,-0.007744671769484675
-0.005435285000000001,-0.009159954752928056
-0.005434945,-0.01067397840964026
-0.005434605,-0.006691437921338847
-0.005434265000000001,-0.00975239879250709
-0.005433925,-0.00837002936682126
-0.005433585,-0.009159954752930631
-0.005433245000000001,-0.008699164944367668
-0.005432905,-0.01090437331392216
-0.005432565,-0.007481363307448217
-0.005432225000000001,-0.008468770040083135
-0.005431885,-0.009489090330476201
-0.005431545,-0.008337115809066702
-0.005431205000000001,-0.008929559848647654
-0.005430865,-0.009884053023530886
-0.005430525,-0.01054232417862203
-0.005430185000000001,-0.01149681735350245
-0.005429845,-0.0134058037032685
-0.005429505,-0.01373493928081407
-0.005429165000000001,-0.0168946408252458
-0.005428825,-0.01238548341287723
-0.005428485,-0.008534597155594046
-0.005428145000000001,-0.007218054845414156
-0.005427805,-0.006724351479093405
-0.005427465,-0.01077271908290393
-0.005427125000000001,-0.009916966581285444
-0.005426785,-0.009094127637421515
-0.005426445,-0.01004862081230367
-0.005426105000000001,-0.01120059533371317
-0.005425765,-0.009225781868439744
-0.005425425,-0.01106894110269494
-0.005425085,-0.008468770040084931
-0.005424745,-0.009028300521912402
-0.005424405,-0.007876326000502903
-0.005424065,-0.005835685419720362
-0.005423725,-0.006428129459304367
-0.005423385,-0.007514276865202775
-0.005423045,-0.008073807347030245
-0.005422705,-0.007645931096222021
-0.005422365,-0.008205461578048474
-0.005422025,-0.007185141287657204
-0.005421685,-0.008304202251315916
-0.005421345,-0.01037775638984924
-0.005421005,-0.008830819175385059
-0.005420665,-0.009851139465776688
-0.005420325,-0.01004862081230367
-0.005419985,-0.01031192927434013
-0.005419645,-0.008797905617634215
-0.005419305,-0.01083854619841304
-0.005418965,-0.01159555802676786
-0.005418625,-0.01274753254816825
-0.005418285,-0.007744671769484675
-0.005417945,-0.006856005710111633
-0.005417605,-0.005835685419723595
-0.005417265,-0.007613017538466446
-0.005416925,-0.01189178004655887
-0.005416585,-0.008929559848647354
-0.005416245,-0.008172548020293918
-0.005415905,-0.008435856482330374
-0.005415565,-0.006329388786040754
-0.005415225,-0.007448449749693661
-0.005414885,-0.006493956574811504
-0.005414545000000001,-0.005802771861967062
-0.005414205,-0.006461043017056948
-0.005413865,-0.009423263214967087
-0.005413525000000001,-0.00820546157805069
-0.005413185,-0.009752398792512659
-0.005412845,-0.01162847158452241
-0.005412505000000001,-0.01083854619841448
-0.005412165,-0.01080563264065849
-0.005411825,-0.01172721225778608
-0.005411485000000001,-0.01123350889146863
-0.005411145,-0.01083854619841304
-0.005410805,-0.01208926139308621
-0.005410465000000001,-0.01097020042943331
-0.005410125,-0.01034484283209469
-0.005409785,-0.01123350889146773
-0.005409445000000001,-0.009258695426197894
-0.005409105,-0.009159954752930631
-0.005408765,-0.009489090330476201
-0.005408425000000001,-0.01215508850859048
-0.005408085,-0.009522003888230759
-0.005407745,-0.006263561670529605
-0.005407405000000001,-0.003005119452834378
-0.005407065,-0.002840551664055666
-0.005406725,-0.01037775638984924
-0.005406385000000001,-0.009522003888232315
-0.005406045,-0.006625610805829733
-0.005405705,-0.008139634462539359
-0.005405365000000001,-0.01004862081230367
-0.005405025,-0.00860042427110316
-0.005404685,-0.009028300521912402
-0.005404345000000001,-0.0113322495647314
-0.005404005,-0.009752398792512659
-0.005403665,-0.009061214079666959
-0.005403325,-0.00837002936682126
-0.005402985,-0.007185141287655467
-0.005402645,-0.006230648112775047
-0.005402305,-0.007810498884993789
-0.005401965,-0.005309068495647329
-0.005401625,-0.005243241380138334
-0.005401285,-0.003301341472619465
-0.005400945,0.003445937867088151
-0.005400605,0.01631513894909657
-0.005400265,0.0363924091793764
-0.005399925,0.06295365028735943
-0.005399585,0.09343160476802387
-0.005399245,0.1214739559749065
-0.005398905,0.1524785273797527
-0.005398565,0.1818045073390097
-0.005398225,0.2016842962227622
-0.005397885,0.2131711278791297
-0.005397545,0.228080969541917
-0.005397205,0.2353548658056741
-0.005396865,0.2395348876405019
-0.005396525,0.2390082707164299
-0.005396185,0.2288050678125172
-0.005395845,0.2229135409744465
-0.005395505,0.2201488021230687
-0.005395165,0.2129407329748207
-0.005394825,0.2021779995890703
-0.005394485,0.1965497812130513
-0.005394145,0.1898025018733671
-0.005393805000000001,0.1827590005139047
-0.005393465,0.1760446347319622
-0.005393125,0.1684416028906595
-0.005392785000000001,0.1599499049899992
-0.005392445,0.1545520815182364
-0.005392105,0.1478048021785522
-0.005391765000000001,0.1421107566870242
-0.005391425,0.1367787603307756
-0.005391085,0.1326316520537014
-0.005390745000000001,0.1268717794466644
-0.005390405,0.1226917576118251
-0.005390065,0.1185117357769964
-0.005389725000000001,0.1132455665362768
-0.005389385,0.109328853163475
-0.005389045,0.1066299414276013
-0.005388705000000001,0.1005738468007738
-0.005388365,0.09767745371836173
-0.005388025,0.09428735726964235
-0.005387685000000001,0.08681597965937148
-0.005387345,0.08210934090045624
-0.005387005,0.08632227629303954
-0.005386665000000001,0.08125358839884697
-0.005386325,0.07878507156724596
-0.005385985,0.07325559386448036
-0.005385645000000001,0.06571838913870051
-0.005385305,0.06321695874934044
-0.005384965,0.06361192144239514
-0.005384625000000001,0.05985977585837562
