Analysis/files/cmb03_d2s01/wrd11_ch32.csv

#Digilent WaveForms Oscilloscope Acquisition
#Device Name: ADP3450
#Serial Number: SN:210018B9D9B0
#Date Time: 2024-08-12 13:10:02.637.882.420
#Sample rate: 2.94118e+06Hz
#Samples: 32768
#Trigger: Source: Channel 3 Type: Edge Condition: Rising Level: 60 mV Hyst.: Auto HoldOff: 0 s
#Channel 3: Range: 200 mV/div Offset: 0 V Attenuation: 1 X Coupling: DC Bandwidth: 0 Hz Sample Mode: Average

Time (s),Channel 3 (V)
-0.005570332390011891,0.01071983413082186
-0.00556999239001189,0.01009447653347851
-0.00556965239001189,0.006375244507220324
-0.005569312390011891,0.004894134408265255
-0.00556897239001189,0.004400431041943665
-0.00556863239001189,0.002623098923200814
-0.005568292390011891,0.0009774210354729588
-0.00556795239001189,8.875497609901891e-05
-0.00556761239001189,-0.0004049483902184396
-0.005567272390011891,-0.0007999110832731249
-0.00556693239001189,0.001240729497507979
-0.00556659239001189,0.0004508041114000451
-0.005566252390011891,0.0005495447846637165
-0.00556591239001189,0.003018061616257176
-0.00556557239001189,0.003939641233383098
-0.005565232390011891,0.002524358249937143
-0.00556489239001189,0.005124529312545537
-0.00556455239001189,0.004235863253174112
-0.005564212390011891,0.002721839596464486
-0.00556387239001189,0.00338011075155437
-0.00556353239001189,0.002688926038709928
-0.005563192390011891,0.0005495447846637165
-0.005562852390011891,-0.002379761855486538
-0.00556251239001189,-0.003202600799355794
-0.005562172390011891,0.002392704018918914
-0.005561832390011891,0.001701519306074472
-0.00556149239001189,-0.0002403806014456541
-0.005561152390011891,0.002293963345655243
-0.005560812390011891,0.006934774989039355
-0.00556047239001189,0.005947368256411082
-0.005560132390011891,0.005091615754792597
-0.005559792390011891,0.004334603926439161
-0.00555945239001189,0.002886407385237271
-0.005559112390011891,-0.001359441565100596
-0.005558772390011891,-0.004387488878514341
-0.00555843239001189,-0.00313677368384668
-0.005558092390011891,-0.005144500706874663
-0.005557752390011891,-0.005835685419719105
-0.00555741239001189,-0.005769858304211248
-0.005557072390011891,-0.00494701936034732
-0.005556732390011891,-0.004321661763011873
-0.00555639239001189,-0.003729217723428708
-0.005556052390011891,-0.001688577142646167
-0.005555712390011891,-0.002708897433035581
-0.00555537239001189,-0.001622750027137053
-0.005555032390011891,-0.0005036890634821109
-0.005554692390011891,-0.002445588970997448
-0.00555435239001189,-0.002116453393455409
-0.005554012390011891,-0.001721490700400724
-0.005553672390011891,-0.002939292337319337
-0.00555333239001189,-0.003202600799355794
-0.00555299239001189,-0.003860871954446936
-0.005552652390011891,-0.006066080324002262
-0.00555231239001189,-0.007645931096221003
-0.00555197239001189,-0.003531736376901365
-0.005551632390011891,-0.003465909261392251
-0.00555129239001189,-0.0001087263704317363
-0.00555095239001189,-0.002478502528755537
-0.005550612390011891,-0.006395215901547833
-0.00555027239001189,-0.004222921089743652
-0.00554993239001189,-0.002346848297737309
-0.005549592390011891,-0.004584970225047193
-0.00554925239001189,-0.004420402436272132
-0.00554891239001189,-0.003169687241601236
-0.005548572390011891,-0.003762131281183265
-0.00554823239001189,-0.005012846475855238
-0.00554789239001189,-0.004354575320765292
-0.005547552390011891,-0.005144500706874663
-0.00554721239001189,-0.00810672090478151
-0.00554687239001189,-0.006296475228284162
-0.005546532390011891,-0.005473636284420234
-0.00554619239001189,-0.01083854619840999
-0.00554585239001189,-0.009159954752930631
-0.005545512390011891,-0.007810498884993789
-0.00554517239001189,-0.01014736148556423
-0.00554483239001189,-0.008435856482330374
-0.005544492390011891,-0.007415536191939104
-0.00554415239001189,-0.006921832825621944
-0.00554381239001189,-0.007580103980711889
-0.005543472390011891,-0.006823092152357076
-0.00554313239001189,-0.006493956574812223
-0.00554279239001189,-0.00688891926786619
-0.005542452390011891,-0.007415536191939104
-0.005542112390011891,-0.01208926139307771
-0.00554177239001189,-0.005440722726665677
-0.005541432390011891,-0.003301341472619465
-0.005541092390011891,-0.002313934739984548
-0.00554075239001189,-0.00369630416567415
-0.005540412390011891,-0.007349709076429989
-0.005540072390011891,-0.007843412442747447
-0.00553973239001189,-0.007316795518675433
-0.005539392390011891,-0.008040893789275689
-0.005539052390011891,-0.007942153116012197
-0.00553871239001189,-0.009192868310685188
-0.005538372390011891,-0.008732078502121389
-0.005538032390011891,-0.009719485234756306
-0.00553769239001189,-0.007942153116012016
-0.005537352390011891,-0.006526870132566062
-0.005537012390011891,-0.005868598977476117
-0.00553667239001189,-0.007481363307448217
-0.005536332390011891,-0.006493956574811504
-0.005535992390011891,-0.004848278687086642
-0.00553565239001189,-0.005506549842174791
-0.005535312390011891,-0.006362302343793276
-0.005534972390011891,-0.006033166766248303
-0.00553463239001189,-0.005473636284420234
-0.005534292390011891,-0.005506549842174791
-0.005533952390011891,-0.004387488878521886
-0.00553361239001189,-0.005572376957683906
-0.005533272390011891,-0.00586859897747492
-0.005532932390011891,-0.003795044838937822
-0.00553259239001189,-0.004222921089747064
-0.00553225239001189,-0.005473636284420234
-0.005531912390011891,-0.008501683597839487
-0.00553157239001189,-0.009653658119248986
-0.00553123239001189,-0.004190007531992507
-0.005530892390011891,-0.004453315994028964
-0.00553055239001189,-0.005078673591365549
-0.00553021239001189,-0.007053487056638975
-0.005529872390011891,-0.009192868310685188
-0.00552953239001189,-0.006098993881755382
-0.00552919239001189,-0.005309068495647449
-0.005528852390011891,-0.006395215901547833
-0.00552851239001189,-0.004453315994032555
-0.00552817239001189,-0.006428129459302391
-0.005527832390011891,-0.006164820997265934
-0.00552749239001189,-0.005868598977475757
-0.00552715239001189,-0.006329388786038719
-0.005526812390011891,-0.006098993881756819
-0.00552647239001189,-0.005901512535229836
-0.00552613239001189,-0.006098993881756819
-0.005525792390011891,-0.00790923955825746
-0.00552545239001189,-0.006164820997270185
-0.00552511239001189,-0.008501683597839487
-0.005524772390011891,-0.009719485234758102
-0.00552443239001189,-0.009357436099456657
-0.00552409239001189,-0.008633337828857716
-0.005523752390011891,-0.01129933600697684
-0.00552341239001189,-0.01485400024447961
-0.00552307239001189,-0.02067969996702562
-0.005522732390011891,-0.03637946701594936
-0.00552239239001189,-0.0561934287842441
-0.00552205239001189,-0.08443326133760273
-0.005521712390011891,-0.1163264988017686
-0.00552137239001189,-0.1539466953152732
-0.00552103239001189,-0.1791913941129727
-0.005520692390011891,-0.2058513758941639
-0.005520352390011891,-0.22836424939824
-0.00552001239001189,-0.2460717434702327
-0.005519672390011891,-0.2622652138854748
-0.005519332390011891,-0.2673009882219129
-0.00551899239001189,-0.2667414577400946
-0.005518652390011891,-0.2643387680240119
-0.005518312390011891,-0.2627918308095505
-0.00551797239001189,-0.2549584040639631
-0.005517632390011891,-0.2480794704932607
-0.005517292390011891,-0.2416613267311337
-0.00551695239001189,-0.2334987644079919
-0.005516612390011891,-0.2263236088174984
-0.005516272390011891,-0.219740897266599
-0.00551593239001189,-0.2120062111942661
-0.005515592390011891,-0.2049297962770363
-0.005515252390011891,-0.1995319728052988
-0.00551491239001189,-0.1921593358682682
-0.005514572390011891,-0.1853791429708294
-0.005514232390011891,-0.1807054177696908
-0.00551389239001189,-0.1726745096775703
-0.005513552390011891,-0.1639524168726127
-0.005513212390011891,-0.1596407408067736
-0.00551287239001189,-0.154045435988491
-0.005512532390011891,-0.1469690210712613
-0.005512192390011891,-0.1432168754872417
-0.00551185239001189,-0.1389710265369039
-0.00551151239001189,-0.1349884860486024
-0.005511172390011891,-0.1327503641212926
-0.00551083239001189,-0.1309730320025465
-0.00551049239001189,-0.116886029283596
-0.005510152390011891,-0.1134959328348767
-0.00550981239001189,-0.1096450465775935
-0.00550947239001189,-0.1058599874358194
-0.005509132390011891,-0.1059916416668376
-0.00550879239001189,-0.100758385983852
-0.00550845239001189,-0.09466937779926998
-0.005508112390011891,-0.09174007115911442
-0.00550777239001189,-0.08894241874996699
-0.00550743239001189,-0.08341294104721148
-0.005507092390011891,-0.07923291921238271
-0.00550675239001189,-0.0775872413246466
-0.00550641239001189,-0.07304517035452598
-0.005506072390011891,-0.07100452977374344
-0.00550573239001189,-0.06860184005765807
-0.00550539239001189,-0.06712072995870569
-0.005505052390011891,-0.06452055889609568
-0.00550471239001189,-0.06353315216345551
-0.00550437239001189,-0.06162416581369466
-0.005504032390011891,-0.05800367446069338
-0.00550369239001189,-0.0592543896553602
-0.00550335239001189,-0.05576555253338349
-0.005503012390011891,-0.05540350339808336
-0.00550267239001189,-0.05224380185364624
-0.00550233239001189,-0.05244128320017322
-0.005501992390011891,-0.05089434598570904
-0.00550165239001189,-0.04855748338513471
-0.00550131239001189,-0.04812960713432624
-0.005500972390011891,-0.04579274453375269
-0.00550063239001189,-0.04671432415087538
-0.00550029239001189,-0.04401541241500661
-0.005499952390011891,-0.0384201075967319
-0.005499612390011891,-0.03891381096304936
-0.00549927239001189,-0.03756435509511341
-0.005498932390011891,-0.03654403480472215
-0.005498592390011891,-0.03861758894325547
-0.00549825239001189,-0.03687317038226771
-0.005497912390011891,-0.03371346883783023
-0.005497572390011891,-0.03272606210519532
-0.00549723239001189,-0.03345016037579378
-0.005496892390011891,-0.03012589104258351
-0.005496552390011891,-0.02818399113506817
-0.00549621239001189,-0.02834855892383742
-0.005495872390011891,-0.02742697930670982
-0.005495532390011891,-0.02466224045533206
-0.00549519239001189,-0.0252217709371545
-0.005494852390011891,-0.0245305862243088
-0.005494512390011891,-0.02137088467987707
-0.00549417239001189,-0.02196332871945334
-0.005493832390011891,-0.02077844064028929
-0.005493492390011891,-0.01933024409909141
-0.00549315239001189,-0.01840866448196118
-0.005492812390011891,-0.01863905938624308
-0.005492472390011891,-0.01544644428405685
-0.00549213239001189,-0.01597306120812395
-0.005491792390011891,-0.01564392563057838
-0.005491452390011891,-0.014162815531626
-0.00549111239001189,-0.01343871726102305
-0.005490772390011891,-0.01416281553162331
-0.005490432390011891,-0.01597306120812395
-0.00549009239001189,-0.0203834779472346
-0.00548975239001189,-0.01574266630384205
-0.005489412390011891,-0.01465651889794167
-0.00548907239001189,-0.01551227139956015
-0.00548873239001189,-0.01679590015198788
-0.005488392390011891,-0.0206138728515165
-0.00548805239001189,-0.0187378000595013
-0.00548771239001189,-0.01574266630384205
-0.005487372390011891,-0.01735543063381535
-0.00548703239001189,-0.01620345611240364
-0.00548669239001189,-0.01498565447548724
-0.005486352390011891,-0.01301084101021381
-0.00548601239001189,-0.0135045443765284
-0.00548567239001189,-0.01143099023799507
-0.005485332390011891,-0.01050941062086747
-0.00548499239001189,-0.008468770040086547
-0.00548465239001189,-0.009357436099457973
-0.005484312390011891,-0.01126642244922228
-0.00548397239001189,-0.009225781868441779
-0.00548363239001189,-0.01034484283209469
-0.005483292390011891,-0.01139807668024051
-0.00548295239001189,-0.01103602754494074
-0.00548261239001189,-0.01123350889146773
-0.005482272390011891,-0.01297792745245925
-0.00548193239001189,-0.01176012581554016
-0.00548159239001189,-0.01149681735350419
-0.005481252390011891,-0.01268170543266824
-0.00548091239001189,-0.01152973091125599
-0.00548057239001189,-0.01001570725454911
-0.005480232390011891,-0.0108714597561676
-0.00547989239001189,-0.009818225908027101
-0.00547955239001189,-0.01274753254817735
-0.005479212390011891,-0.007152227729902647
-0.005478872390011891,-0.003827958396698426
-0.00547853239001189,-0.002807638106301108
-0.005478192390011891,-0.002313934739982752
-0.005477852390011891,-0.006197734555013426
-0.00547751239001189,-0.005835685419720362
-0.005477172390011891,-0.002840551664055666
-0.005476832390011891,-0.004749538013816505
-0.00547649239001189,-0.003103860126092122
-0.005476152390011891,-0.004058353300974278
-0.005475812390011891,-0.002906378779566875
-0.00547547239001189,-0.003795044838937822
-0.005475132390011891,-0.004025439743219721
-0.005474792390011891,-0.0054736362844176
-0.00547445239001189,-0.005309068495647449
-0.005474112390011891,-0.00586859897747492
-0.005473772390011891,-0.009291608983942632
-0.00547343239001189,-0.006856005710111633
-0.005473092390011891,-0.005967339650738591
-0.005472752390011891,-0.005934426092984093
-0.00547241239001189,-0.00540780916891112
-0.005472072390011891,-0.004914105802592763
-0.005471732390011891,-0.004881192244838266
-0.00547139239001189,-0.005539463399929348
-0.005471052390011891,-0.004255834647501621
-0.005470712390011891,-0.006197734555016958
-0.00547037239001189,-0.005835685419720362
-0.005470032390011891,-0.00619773455502049
-0.005469692390011891,-0.006395215901547833
-0.00546935239001189,-0.01050941062086747
-0.00546901239001189,-0.009258695426194301
-0.005468672390011891,-0.005835685419720362
-0.00546833239001189,-0.005605290515438462
-0.00546799239001189,-0.003795044838937822
-0.005467652390011891,-0.006461043017056948
-0.00546731239001189,-0.00962074456149443
-0.00546697239001189,-0.006395215901547833
-0.005466632390011891,-0.005309068495647449
-0.00546629239001189,-0.006625610805827578
-0.00546595239001189,-0.005440722726665677
-0.005465612390011891,-0.005309068495647449
-0.00546527239001189,-0.006526870132566182
-0.00546493239001189,-0.006592697248075176
-0.005464592390011891,-0.006823092152357076
-0.00546425239001189,-0.008073807347030185
-0.00546391239001189,-0.008040893789275689
-0.005463572390011891,-0.006461043017056948
-0.00546323239001189,-0.008534597155590214
-0.00546289239001189,-0.006428129459302391
-0.005462552390011891,-0.00494701936034732
-0.00546221239001189,-0.005276154937893131
-0.00546187239001189,-0.00540780916891112
-0.005461532390011891,-0.004190007531992507
-0.00546119239001189,-0.004321661763013729
-0.00546085239001189,-0.005967339650738591
-0.005460512390011891,-0.004222921089747064
-0.00546017239001189,-0.005374895611158
-0.00545983239001189,-0.006164820997265934
-0.005459492390011891,-0.005309068495647449
-0.00545915239001189,-0.005243241380146416
-0.00545881239001189,-0.009686571677003543
-0.005458472390011891,-0.006230648112775047
-0.00545813239001189,-0.001359441565102991
-0.00545779239001189,-0.00267598387528288
-0.005457452390011891,-0.002050626277946295
-0.005457112390011891,-0.007448449749683842
-0.00545677239001189,-0.006724351479093405
-0.005456432390011891,-0.004716624456065421
-0.005456092390011891,-0.005638204073191343
-0.00545575239001189,-0.007250968403166318
-0.005455412390011891,-0.007086400614393532
-0.005455072390011891,-0.006921832825621047
-0.00545473239001189,-0.009522003888230759
-0.005454392390011891,-0.009291608983948858
-0.005454052390011891,-0.004420402436283268
-0.00545371239001189,-0.008666251386612273
-0.005453372390011891,-0.007283881960920875
-0.005453032390011891,-0.006790178594603416
-0.00545269239001189,-0.005309068495647449
-0.005452352390011891,-0.005605290515438462
-0.005452012390011891,-0.003827958396695611
-0.00545167239001189,-0.004584970225047193
-0.005451332390011891,-0.004617883782801749
-0.005450992390011891,-0.00412418041648429
-0.00545065239001189,-0.004650797340556306
-0.005450312390011891,-0.005704031188702134
-0.005449972390011891,-0.006098993881756101
-0.00544963239001189,-0.005736944746456691
-0.005449292390011891,-0.006724351479093405
-0.005448952390011891,-0.006362302343793935
-0.00544861239001189,-0.008238375135803031
-0.005448272390011891,-0.01208926139308621
-0.005447932390011891,-0.003663390607919593
-0.00544759239001189,-0.002281021182228195
-0.00544725239001189,-0.0003720348324638825
-0.005446912390011891,-0.0008657381987822392
-0.00544657239001189,-0.002511416086510094
-0.00544623239001189,-0.00119487377632781
-0.005445892390011891,-0.001227787334082367
-0.00544555239001189,-0.003235514357116697
-0.00544521239001189,-0.006724351479093405
-0.005444872390011891,-0.007580103980711889
-0.00544453239001189,-0.00655978369032475
-0.00544419239001189,-0.008830819175385059
-0.005443852390011891,-0.01031192927434013
-0.00544351239001189,-0.008205461578044164
-0.00544317239001189,-0.005835685419720362
-0.005442832390011891,-0.006790178594602518
-0.00544249239001189,-0.003202600799356752
-0.00544215239001189,-0.003729217723428708
-0.005441812390011891,-0.002610156759773766
-0.00544147239001189,-0.001655663584893046
-0.00544113239001189,-0.00244558897100098
-0.005440792390011891,-0.004552056667292635
-0.00544045239001189,-0.003630477050166892
-0.00544011239001189,-0.004650797340556306
-0.005439772390011891,-0.005276154937892892
-0.00543943239001189,-0.006098993881756041
-0.00543909239001189,-0.005671117630947577
-0.005438752390011891,-0.006329388786038719
-0.00543841239001189,-0.006625610805832786
-0.00543807239001189,-0.008304202251312145
-0.005437732390011891,-0.009258695426194301
-0.00543739239001189,-0.0007340839677689798
-0.00543705239001189,-0.003465909261392251
-0.005436712390011891,-0.007152227729902647
-0.005436372390011891,-0.006362302343794713
-0.00543603239001189,-0.006066080324002262
-0.005435692390011891,-0.007316795518675433
-0.005435352390011891,-0.009127041195172781
-0.00543501239001189,-0.008468770040084931
-0.005434672390011891,-0.009686571677003543
-0.005434332390011891,-0.01097020042942894
-0.00543399239001189,-0.007415536191939104
-0.005433652390011891,-0.008567510713348603
-0.005433312390011891,-0.008699164944366591
-0.00543297239001189,-0.007020573498884419
-0.005432632390011891,-0.006395215901547833
-0.005432292390011891,-0.006592697248074817
-0.00543195239001189,-0.006329388786038719
-0.005431612390011891,-0.005341982053402005
-0.005431272390011891,-0.006164820997264437
-0.00543093239001189,-0.006493956574811504
-0.005430592390011891,-0.005835685419720362
-0.005430252390011891,-0.007250968403163744
-0.00542991239001189,-0.007481363307448217
-0.005429572390011891,-0.006296475228284162
-0.005429232390011891,-0.007448449749691565
-0.00542889239001189,-0.007514276865202775
-0.005428552390011891,-0.006098993881756819
-0.005428212390011891,-0.004617883782804443
-0.00542787239001189,-0.005572376957683906
-0.005427532390011891,-0.005736944746456691
-0.005427192390011891,-0.003762131281183265
-0.00542685239001189,-0.003103860126092122
-0.00542651239001189,-0.003070946568337565
-0.005426172390011891,-0.001622750027137053
-0.00542583239001189,-0.006625610805829733
-0.00542549239001189,-0.007250968403166318
-0.005425152390011891,-0.003795044838937822
-0.00542481239001189,-0.006066080324002262
-0.00542447239001189,-0.005572376957683906
-0.005424132390011891,-0.00540780916891112
-0.00542379239001189,-0.004650797340557204
-0.00542345239001189,-0.005144500706874663
-0.005423112390011891,-0.005078673591365549
-0.00542277239001189,-0.005012846475857033
-0.00542243239001189,-0.005341982053402005
-0.005422092390011891,-0.003893785512201493
-0.00542175239001189,-0.005407809168909563
-0.00542141239001189,-0.004552056667292635
-0.005421072390011891,-0.003762131281183265
-0.00542073239001189,-0.003498822819147167
-0.00542039239001189,-0.00369630416567415
-0.005420052390011891,-0.003564649934655922
-0.00541971239001189,-0.00316968724160423
-0.00541937239001189,-0.004815365129329092
-0.005419032390011891,-0.001392355122855153
-0.00541869239001189,-0.002313934739985386
-0.00541835239001189,-0.003762131281183265
-0.005418012390011891,-0.004453315994028964
-0.00541767239001189,-0.005111587149125853
-0.00541733239001189,-0.008271288693557588
-0.005416992390011891,-0.01439321043590521
-0.00541665239001189,-0.00790923955825746
-0.00541631239001189,-0.00790923955825746
-0.005415972390011891,-0.006757265036847961
