Analysis/files/cmb03_d2s01/wrd11_ch38.csv

#Digilent WaveForms Oscilloscope Acquisition
#Device Name: ADP3450
#Serial Number: SN:210018B9D9B0
#Date Time: 2024-08-12 13:13:55.596.663.890
#Sample rate: 2.94118e+06Hz
#Samples: 32768
#Trigger: Source: Channel 3 Type: Edge Condition: Rising Level: 60 mV Hyst.: Auto HoldOff: 0 s
#Channel 3: Range: 200 mV/div Offset: 0 V Attenuation: 1 X Coupling: DC Bandwidth: 0 Hz Sample Mode: Average

Time (s),Channel 3 (V)
-0.005570421832669323,0.01697341010418771
-0.005570081832669323,0.01476820173463478
-0.005569741832669323,0.01608474404481467
-0.005569401832669323,0.01615057116032378
-0.005569061832669323,0.01131227817040401
-0.005568721832669323,0.011378105285913
-0.005568381832669323,0.0157556084672691
-0.005568041832669323,0.01387953567526222
-0.005567701832669323,0.01545938644747809
-0.005567361832669323,0.01631513894909657
-0.005567021832669323,0.01476820173463179
-0.005566681832669323,0.01443906615708682
-0.005566341832669323,0.01420867125280492
-0.005566001832669322,0.01348457298219909
-0.005565661832669323,0.01042361211103085
-0.005565321832669323,0.01124645105489478
-0.005564981832669322,0.009469118936147674
-0.005564641832669323,0.008909588454321223
-0.005564301832669323,0.009403291820639578
-0.005563961832669322,0.008745020665544485
-0.005563621832669323,0.006572725853747667
-0.005563281832669323,0.007823441048420837
-0.005562941832669323,0.00815257662596581
-0.005562601832669323,0.005322010659074497
-0.005562261832669323,0.00482830729275614
-0.005561921832669323,0.004170036137666196
-0.005561581832669323,0.002590185365446257
-0.005561241832669323,0.003676332771346642
-0.005560901832669323,0.003478851424819658
-0.005560561832669323,0.0002533227648727025
-0.005560221832669323,-0.001589836469382495
-0.005559881832669323,0.007461391913104245
-0.005559541832669323,0.006934774989047795
-0.005559201832669323,0.008152576625966409
-0.005558861832669323,0.005782800467642607
-0.005558521832669323,0.003116802289519171
-0.005558181832669323,0.005782800467638296
-0.005557841832669323,0.007000602104554695
-0.005557501832669323,0.004663739503983355
-0.005557161832669323,0.003775073444610313
-0.005556821832669323,0.006210676718443108
-0.005556481832669323,0.005124529312547154
-0.005556141832669323,0.004696653061737912
-0.005555801832669323,0.006111936045181293
-0.005555461832669323,0.007889268163929951
-0.005555121832669323,0.006605639411502225
-0.005554781832669323,0.006704380084765716
-0.005554441832669323,0.006638552969256781
-0.005554101832669323,0.004894134408265255
-0.005553761832669323,0.004564998830719684
-0.005553421832669323,0.003511764982573856
-0.005553081832669323,0.001141988824245744
-0.005552741832669323,2.292786059080275e-05
-0.005552401832669323,0.0002533227648727025
-0.005552061832669323,-0.002083539835700852
-0.005551721832669323,-0.001359441565100596
-0.005551381832669323,-0.0007999110832748611
-0.005551041832669323,-0.001754404258155281
-0.005550701832669323,-0.00165566358489161
-0.005550361832669323,-0.00079991108327995
-0.005550021832669323,-0.004552056667292635
-0.005549681832669323,0.0005166312269091594
-0.005549341832669323,0.003577592098084766
-0.005549001832669323,0.004564998830719684
-0.005548661832669323,0.004696653061737912
-0.005548321832669323,0.0006811990156805678
-0.005547981832669323,-7.581281267286857e-05
-0.005547641832669323,0.002096481999127901
-0.005547301832669323,0.001504037959543538
-0.005546961832669323,0.0002204092071181454
-0.005546621832669323,-0.002346848297737309
-0.005546281832669323,-0.0004049483902195772
-0.005545941832669323,-0.001030305987555025
-0.005545601832669323,-0.001359441565100596
-0.005545261832669322,-0.001293614449590523
-0.005544921832669323,-0.0007669975255185678
-0.005544581832669323,-0.002083539835700852
-0.005544241832669322,-0.002610156759771551
-0.005543901832669323,-0.001392355122855153
-0.005543561832669323,-0.003762131281183265
-0.005543221832669322,-0.003498822819143215
-0.005542881832669323,-0.001524009353873381
-0.005542541832669323,-0.002511416086510094
-0.005542201832669323,-0.00185314493142015
-0.005541861832669323,-0.0007011704100094536
-0.005541521832669323,0.0003849769958909309
-0.005541181832669323,0.0003849769958909309
-0.005540841832669323,0.001504037959545873
-0.005540501832669323,0.001471124401791315
-0.005540161832669323,0.0006811990156833817
-0.005539821832669323,-0.003432995703637694
-0.005539481832669323,0.001109075266491187
-0.005539141832669323,0.003182629405024513
-0.005538801832669323,0.008317144414739193
-0.005538461832669323,0.003248456520537399
-0.005538121832669323,-0.004321661762996965
-0.005537781832669323,-0.003762131281183265
-0.005537441832669323,-0.002313934739982752
-0.005537101832669323,-0.003005119452827194
-0.005536761832669323,-0.003630477050165036
-0.005536421832669323,-0.002807638106301108
-0.005536081832669323,-0.003400082145882059
-0.005535741832669323,-0.002478502528755537
-0.005535401832669323,-0.002544329644264652
-0.005535061832669323,-0.00303803301058211
-0.005534721832669323,-0.003597563492410479
-0.005534381832669323,-0.002478502528755537
-0.005534041832669323,-0.002313934739983051
-0.005533701832669323,-0.002577243202019209
-0.005533361832669323,-0.0005695161789912252
-0.005533021832669323,-0.0006353432945003394
-0.005532681832669323,-0.001030305987555025
-0.005532341832669323,0.0004837176691546022
-0.005532001832669323,-0.0004049483902184396
-0.005531661832669323,-0.001721490700400724
-0.005531321832669323,0.0002533227648727025
-0.005530981832669323,0.0003191498803818167
-0.005530641832669323,-0.0005366026212366681
-0.005530301832669323,0.0006482854579273878
-0.005529961832669323,0.001931914210355115
-0.005529621832669323,-0.0006682568522605841
-0.005529281832669323,-0.003795044838937822
-0.005528941832669323,0.001602778632809544
-0.005528601832669323,0.0007470261311923762
-0.005528261832669323,0.001471124401791315
-0.005527921832669323,-0.0007999110832731249
-0.005527581832669323,-0.005539463399929228
-0.005527241832669323,-0.005473636284420234
-0.005526901832669323,-0.00119487377632781
-0.005526561832669323,-0.002511416086510214
-0.005526221832669323,-0.002577243202019209
-0.005525881832669323,-0.001491095796118824
-0.005525541832669323,-0.001392355122853476
-0.005525201832669323,-0.0004707755057275538
-0.005524861832669323,0.0003520634381363738
-0.005524521832669323,0.000681199015680508
-0.005524181832669323,-0.0001087263704274257
-0.005523841832669323,0.0002204092071181454
-0.005523501832669322,-0.002972205895088801
-0.005523161832669323,-0.01116768177595861
-0.005522821832669323,-0.02374066083819943
-0.005522481832669322,-0.04279761077813392
-0.005522141832669323,-0.06804230957583329
-0.005521801832669323,-0.09789490645921659
-0.005521461832669322,-0.1302160201742493
-0.005521121832669323,-0.1619117762918302
-0.005520781832669323,-0.1921593358682682
-0.005520441832669323,-0.2157583567782426
-0.005520101832669323,-0.2370205150877295
-0.005519761832669323,-0.2522594923280894
-0.005519421832669323,-0.2627260036940195
-0.005519081832669323,-0.270427776208605
-0.005518741832669323,-0.2644704222550301
-0.005518401832669323,-0.2613436342683528
-0.005518061832669323,-0.2567357361827092
-0.005517721832669323,-0.2507125551136252
-0.005517381832669323,-0.2470920637606305
-0.005517041832669323,-0.2380408353781208
-0.005516701832669323,-0.2292200018998995
-0.005516361832669323,-0.2203991684216942
-0.005516021832669323,-0.214244333121576
-0.005515681832669323,-0.2067729555112915
-0.005515341832669323,-0.1986103931881762
-0.005515001832669323,-0.1923568172147955
-0.005514661832669323,-0.1854449700863385
-0.005514321832669323,-0.1784343822846306
-0.005513981832669323,-0.1713908809251426
-0.005513641832669323,-0.1663221930309408
-0.005513301832669323,-0.1593774323447419
-0.005512961832669323,-0.1531896834868725
-0.005512621832669323,-0.1484501311702163
-0.005512281832669323,-0.1421965551968505
-0.005511941832669323,-0.1356467572036936
-0.005511601832669323,-0.1327832776790471
-0.005511261832669323,-0.1277145897848453
-0.005510921832669323,-0.120605261309861
-0.005510581832669323,-0.1181367444782692
-0.005510241832669323,-0.1138908955279314
-0.005509901832669323,-0.1094146516733116
-0.005509561832669323,-0.1075385788813018
-0.005509221832669323,-0.1039510010860551
-0.005508881832669323,-0.1020420147362859
-0.005508541832669323,-0.09937601655817166
-0.005508201832669323,-0.08884367807671339
-0.005507861832669323,-0.08186600383274262
-0.005507521832669323,-0.07929874632789183
-0.005507181832669323,-0.07952914123217372
-0.005506841832669323,-0.07320973814329068
-0.005506501832669323,-0.06876640784643356
-0.005506161832669323,-0.06850309938439708
-0.005505821832669323,-0.06682450793891186
-0.005505481832669323,-0.06527757072445051
-0.005505141832669323,-0.06488260803139581
-0.005504801832669323,-0.05757579820988983
-0.005504461832669323,-0.06070258619656706
-0.005504121832669323,-0.0613608573516582
-0.005503781832669323,-0.05655547791948867
-0.005503441832669323,-0.05425152887667387
-0.005503101832669323,-0.0550743678205378
-0.005502761832669322,-0.05286915945098061
-0.005502421832669323,-0.0518488391605912
-0.005502081832669323,-0.04615479366905282
-0.005501741832669322,-0.04039492106201389
-0.005501401832669323,-0.04510155982090699
-0.005501061832669323,-0.04355462260644281
-0.005500721832669322,-0.0405265752930184
-0.005500381832669323,-0.03769600932613165
-0.005500041832669323,-0.03802514490367721
-0.005499701832669323,-0.03763018221062325
-0.005499361832669323,-0.0345033942239396
-0.005499021832669323,-0.03384512306884846
-0.005498681832669323,-0.03252858075866857
-0.005498341832669323,-0.03012589104258351
-0.005498001832669323,-0.02867769450138299
-0.005497661832669323,-0.02930305209871844
-0.005497321832669323,-0.02736115219120071
-0.005496981832669323,-0.02745989286446438
-0.005496641832669323,-0.0272624115179374
-0.005496301832669323,-0.02561673363020918
-0.005495961832669323,-0.02532051161041817
-0.005495621832669323,-0.02522177093715468
-0.005495281832669323,-0.0247609811285907
-0.005494941832669323,-0.02278616766331727
-0.005494601832669323,-0.02321404391412574
-0.005494261832669323,-0.02044930506274372
-0.005493921832669323,-0.01821118313543383
-0.005493581832669323,-0.01811244246217034
-0.005493241832669323,-0.01676298659423332
-0.005492901832669323,-0.01975812034989802
-0.005492561832669323,-0.01742125774932871
-0.005492221832669323,-0.0124842240861409
-0.005491881832669323,-0.005111587149120106
-0.005491541832669323,-0.01073980552513914
-0.005491201832669323,-0.01475525957120534
-0.005490861832669323,-0.01584140697710572
-0.005490521832669323,-0.01310958168347748
-0.005490181832669323,-0.01452486466692344
-0.005489841832669323,-0.01475525957120534
-0.005489501832669323,-0.01498565447548724
-0.005489161832669323,-0.01485400024446901
-0.005488821832669323,-0.01301084101021381
-0.005488481832669323,-0.0124842240861409
-0.005488141832669323,-0.01251713764389372
-0.005487801832669323,-0.0115626444690133
-0.005487461832669323,-0.01050941062086747
-0.005487121832669323,-0.01060815129412815
-0.005486781832669323,-0.008962473406403288
-0.005486441832669323,-0.009719485234758102
-0.005486101832669323,-0.009785312350265659
-0.005485761832669323,-0.008929559848648731
-0.005485421832669323,-0.009357436099457973
-0.005485081832669323,-0.008863732733141292
-0.005484741832669323,-0.009785312350267215
-0.005484401832669323,-0.008337115809066702
-0.005484061832669323,-0.008402942924576415
-0.005483721832669323,-0.008732078502121389
-0.005483381832669323,-0.00860042427110316
-0.005483041832669323,-0.009423263214965351
-0.005482701832669323,-0.008468770040084931
-0.005482361832669323,-0.01070689196739481
-0.005482021832669322,-0.0050128464758541
-0.005481681832669323,-0.003729217723428708
-0.005481341832669323,-0.001754404258155281
-0.005481001832669322,-0.001820231373677686
-0.005480661832669323,-0.009127041195176074
-0.005480321832669323,-0.007481363307448217
-0.005479981832669322,-0.004914105802592644
-0.005479641832669323,-0.004848278687083649
-0.005479301832669323,-0.00415709397423795
-0.005478961832669323,-0.002281021182231607
-0.005478621832669323,-0.002643070317528323
-0.005478281832669323,-0.0009315653142913533
-0.005477941832669323,0.001076161708732978
-0.005477601832669323,0.0004837176691546022
-0.005477261832669323,0.0004837176691546022
-0.005476921832669323,0.001043248150981055
-0.005476581832669323,0.00107616170873663
-0.005476241832669323,-0.0005036890634821109
-0.005475901832669323,0.0004178905536438116
-0.005475561832669323,-0.0003062077169547683
-0.005475221832669323,-0.001984799162437181
-0.005474881832669323,-0.001227787334083744
-0.005474541832669323,-0.002281021182228195
-0.005474201832669323,-0.003235514357110351
-0.005473861832669323,-0.001918972046930461
-0.005473521832669323,-0.002248107624473638
-0.005473181832669323,-0.0006353432945003394
-0.005472841832669323,-7.581281267388627e-05
-0.005472501832669323,0.0003191498803818167
-0.005472161832669323,-0.00540780916891112
-0.005471821832669323,-0.001886058489179915
-0.005471481832669323,0.001833173537091444
-0.005471141832669323,-0.0006024297367457822
-0.005470801832669323,0.000253322764871146
-0.005470461832669323,-0.00290637877956478
-0.005470121832669323,-0.005309068495647449
-0.005469781832669323,-0.002610156759773766
-0.005469441832669323,-0.001589836469382495
-0.005469101832669323,-0.003762131281183265
-0.005468761832669323,-0.003531736376901365
-0.005468421832669323,-0.002379761855491866
-0.005468081832669323,-0.002412675413246423
-0.005467741832669323,-0.003169687241601236
-0.005467401832669323,-0.001458182238364267
-0.005467061832669323,-0.001984799162437181
-0.005466721832669323,-0.002248107624473638
-0.005466381832669323,-0.0005036890634835478
-0.005466041832669323,-0.001293614449591481
-0.005465701832669323,-0.001491095796118824
-0.005465361832669323,-0.001491095796119842
-0.005465021832669323,-0.002050626277946295
-0.005464681832669323,-0.003268427914864908
-0.005464341832669323,-0.003301341472618148
-0.005464001832669323,-0.002577243202019209
-0.005463661832669323,-0.002379761855491866
-0.005463321832669323,-0.000931565314291533
-0.005462981832669323,-0.001030305987555025
-0.005462641832669323,-0.0009644788720459105
-0.005462301832669323,-0.001227787334084702
-0.005461961832669323,-0.002511416086510094
-0.005461621832669323,-0.007876326000502903
-0.005461281832669323,-9.985697159563501e-06
-0.005460941832669323,0.002293963345655243
-0.005460601832669323,0.00176734642158233
-0.005460261832669322,0.0007470261311848926
-0.005459921832669323,-0.002643070317528323
-0.005459581832669323,-0.0007340839677640107
-0.005459241832669322,-0.0001745534859368393
-0.005458901832669323,-0.0003391212747093254
-0.005458561832669323,-0.001589836469382495
-0.005458221832669322,-0.0004707755057246801
-0.005457881832669323,0.001109075266491187
-0.005457541832669323,-0.000832824641027682
-0.005457201832669323,-0.00109613310306366
-0.005456861832669323,8.875497609991696e-05
-0.005456521832669323,0.0001874956493635883
-0.005456181832669323,-0.001721490700397251
-0.005455841832669323,-0.000207467043691097
-0.005455501832669323,0.000417890553645488
-0.005455161832669323,-0.000569516178989429
-0.005454821832669323,-4.289925491831147e-05
-0.005454481832669323,-0.001030305987555025
-0.005454141832669323,0.0002204092071158702
-0.005453801832669323,-0.0002732941592002112
-0.005453461832669323,-9.985697163754359e-06
-0.005453121832669323,-0.002050626277942583
-0.005452781832669323,-0.0002403806014456541
-0.005452441832669323,-0.0002732941592002112
-0.005452101832669323,-0.001326528007344123
-0.005451761832669323,-0.001260700891836924
-0.005451421832669323,-0.003827958396692379
-0.005451081832669323,-0.001096133103069108
-0.005450741832669323,0.004104209022155884
-0.005450401832669323,0.001668605748318658
-0.005450061832669323,-0.002215194066712016
-0.005449721832669323,0.001043248150982073
-0.005449381832669323,0.002063568441373343
-0.005449041832669323,0.0008786803622114429
-0.005448701832669323,-0.0002403806014456541
-0.005448361832669323,0.0004508041114000451
-0.005448021832669323,0.0009115939199638446
-0.005447681832669323,-0.0009644788720459105
-0.005447341832669323,5.584141834535986e-05
-0.005447001832669323,5.584141834535986e-05
-0.005446661832669323,-0.001260700891836924
-0.005446321832669323,-0.001688577142646167
-0.005445981832669323,-0.002643070317528323
-0.005445641832669323,-0.003827958396683698
-0.005445301832669323,0.0009445074777184018
-0.005444961832669323,0.007362651239857037
-0.005444621832669323,0.003281370078288783
-0.005444281832669323,0.00153695151730043
-0.005443941832669323,-0.001589836469382495
-0.005443601832669323,0.0001874956493665219
-0.005443261832669323,0.001800259979336887
-0.005442921832669323,0.0001874956493635883
-0.005442581832669323,-0.001688577142646526
-0.005442241832669323,-0.00188605848917351
-0.005441901832669323,-0.0001416399281819828
-0.005441561832669323,-0.0006682568522554354
-0.005441221832669323,-0.0009644788720459105
-0.005440881832669323,-0.0003062077169547683
-0.005440541832669323,-0.0006353432945009381
-0.005440201832669323,-0.0009644788720459105
-0.005439861832669323,-0.0003062077169547683
-0.005439521832669322,-0.0003720348324666964
-0.005439181832669323,-0.001918972046928067
-0.005438841832669323,-0.00142526868060971
-0.005438501832669322,-0.001853144931421287
-0.005438161832669323,-0.00313677368384668
-0.005437821832669323,-0.003597563492410479
-0.005437481832669322,-0.000964478872048904
-0.005437141832669323,-0.002610156759773766
-0.005436801832669323,-0.002248107624473638
-0.005436461832669323,-0.003860871954444002
-0.005436121832669323,-0.005374895611156563
-0.005435781832669323,-0.007580103980711889
-0.005435441832669323,-0.008962473406400773
-0.005435101832669323,-0.002281021182228195
-0.005434761832669323,-0.003202600799355794
-0.005434421832669323,-0.0008328246410319929
-0.005434081832669323,-0.002346848297737309
-0.005433741832669323,-0.004749538013819977
-0.005433401832669323,-0.002050626277951204
-0.005433061832669323,0.0001874956493635883
-0.005432721832669323,0.0007799396889456162
-0.005432381832669323,0.002491444692179472
-0.005432041832669323,0.003413024309310185
-0.005431701832669323,0.002952234500746385
-0.005431361832669323,0.003445937867063844
-0.005431021832669323,0.003840900560119427
-0.005430681832669323,0.001964827768109672
-0.005430341832669323,0.0009774210354747549
-0.005430001832669323,0.0006482854579273878
-0.005429661832669323,-0.0002732941592002112
-0.005429321832669323,-0.0008986517565356589
-0.005428981832669323,-0.001721490700400724
-0.005428641832669323,-0.003169687241601236
-0.005428301832669323,-0.00300511945282875
-0.005427961832669323,-0.002544329644264652
-0.005427621832669323,-0.003729217723428708
-0.005427281832669323,-0.003992526185465165
-0.005426941832669323,-0.002774724548546551
-0.005426601832669323,-0.003202600799355794
-0.005426261832669323,-0.004486229551783521
-0.005425921832669323,-0.002972205895073894
-0.005425581832669323,-0.003597563492410479
-0.005425241832669323,-0.007316795518675433
-0.005424901832669323,-0.008534597155594046
-0.005424561832669323,-0.003465909261392251
-0.005424221832669323,-0.004354575320765292
-0.005423881832669323,-0.003465909261398657
-0.005423541832669323,-0.006987659941129861
-0.005423201832669323,-0.008929559848648731
-0.005422861832669323,-0.005769858304207356
-0.005422521832669323,-0.003630477050165036
-0.005422181832669323,-0.00392669906995605
-0.005421841832669323,-0.002182280508961949
-0.005421501832669323,-0.0007669975255185678
-0.005421161832669323,-9.985697163754359e-06
-0.005420821832669323,0.0009115939199637848
-0.005420481832669323,0.0008786803622092876
-0.005420141832669323,0.0008786803622092876
-0.005419801832669323,0.0009445074777195992
-0.005419461832669323,0.001602778632809544
-0.005419121832669323,0.001240729497509416
-0.005418781832669322,0.0009445074777191202
-0.005418441832669323,0.001339470170773087
-0.005418101832669323,0.001043248150982073
-0.005417761832669322,0.0007141125734387171
