Analysis/files/cmb03_d2s01/wrd11_ch24.csv

#Digilent WaveForms Oscilloscope Acquisition
#Device Name: ADP3450
#Serial Number: SN:210018B9D9B0
#Date Time: 2024-08-12 13:05:37.451.636.710
#Sample rate: 2.94118e+06Hz
#Samples: 32768
#Trigger: Source: Channel 3 Type: Edge Condition: Rising Level: 60 mV Hyst.: Auto HoldOff: 0 s
#Channel 3: Range: 200 mV/div Offset: 0 V Attenuation: 1 X Coupling: DC Bandwidth: 0 Hz Sample Mode: Average

Time (s),Channel 3 (V)
-0.005570555618556701,0.002688926038709928
-0.005570215618556701,0.003380110751553951
-0.005569875618556701,0.002458531134428029
-0.005569535618556701,0.001602778632809544
-0.005569195618556701,-9.985697164832009e-06
-0.005568855618556701,-0.0006024297367457822
-0.005568515618556701,-0.003334255030374022
-0.005568175618556701,-0.002445588970998286
-0.005567835618556701,-0.0009644788720459105
-0.005567495618556701,-0.00188605848917351
-0.0055671556185567,-0.001622750027134418
-0.005566815618556701,-0.0001745534859365399
-0.005566475618556701,0.0003191498803818167
-0.0055661356185567,-0.004848278687076704
-0.005565795618556701,-0.001030305987555025
-0.005565455618556701,-0.002643070317528323
-0.0055651156185567,-0.00201771272018605
-0.005564775618556701,0.001109075266491187
-0.005564435618556701,-0.004453315994028964
-0.0055640956185567,-0.006263561670523318
-0.005563755618556701,-0.002807638106301108
-0.005563415618556701,-0.001918972046928067
-0.005563075618556701,-0.005967339650731228
-0.005562735618556701,-0.005144500706874663
-0.005562395618556701,-0.005276154937892892
-0.005562055618556701,-0.006559783690318284
-0.005561715618556701,-0.005736944746456691
-0.005561375618556701,-0.005309068495647449
-0.005561035618556701,-0.004387488878521527
-0.005560695618556701,-0.004552056667292635
-0.005560355618556701,-0.003795044838937822
-0.005560015618556701,-0.005144500706872208
-0.005559675618556701,-0.004914105802592763
-0.005559335618556701,-0.005638204073193019
-0.005558995618556701,-0.007218054845408888
-0.005558655618556701,-0.007810498884993789
-0.005558315618556701,-0.007250968403166318
-0.005557975618556701,-0.003136773683854163
-0.005557635618556701,-0.009028300521912402
-0.005557295618556701,-0.008205461578048474
-0.005556955618556701,-0.008337115809066462
-0.005556615618556701,-0.008732078502121389
-0.005556275618556701,-0.00860042427110316
-0.005555935618556701,-0.009785312350265061
-0.005555595618556701,-0.01422864264713243
-0.005555255618556701,-0.007481363307448217
-0.005554915618556701,-0.007547190422957212
-0.005554575618556701,-0.007613017538466446
-0.005554235618556701,-0.009028300521912402
-0.005553895618556701,-0.01281335966368647
-0.005553555618556701,-0.01159555802676786
-0.005553215618556701,-0.009456176772721644
-0.005552875618556701,-0.008995386964157845
-0.005552535618556701,-0.01123350889146773
-0.005552195618556701,-0.01060815129413114
-0.005551855618556701,-0.00860042427110316
-0.005551515618556701,-0.008764992059878041
-0.005551175618556701,-0.009916966581285444
-0.005550835618556701,-0.009785312350267215
-0.005550495618556701,-0.0102790157165885
-0.005550155618556701,-0.01189178004655887
-0.005549815618556701,-0.01185886648880431
-0.005549475618556701,-0.01478817312895798
-0.005549135618556701,-0.01373493928081407
-0.005548795618556701,-0.01304375456796837
-0.005548455618556701,-0.01478817312896163
-0.005548115618556701,-0.01574266630384205
-0.005547775618556701,-0.01491982735997812
-0.005547435618556701,-0.01436029687815089
-0.005547095618556701,-0.01449195110916888
-0.005546755618556701,-0.01366911216530495
-0.005546415618556701,-0.01218800206634887
-0.005546075618556701,-0.01162847158452241
-0.005545735618556701,-0.00939034965721253
-0.0055453956185567,-0.01110185466045112
-0.005545055618556701,-0.01199052071982254
-0.005544715618556701,-0.005506549842174791
-0.0055443756185567,-0.004486229551783521
-0.005544035618556701,-0.004486229551783521
-0.005543695618556701,-0.009324522541703417
-0.0055433556185567,-0.01169429870002901
-0.005543015618556701,-0.01031192927434013
-0.005542675618556701,-0.009818225908021772
-0.005542335618556701,-0.01031192927433923
-0.005541995618556701,-0.009851139465776329
-0.005541655618556701,-0.01047649706311291
-0.005541315618556701,-0.01034484283209493
-0.005540975618556701,-0.01031192927434013
-0.005540635618556701,-0.01146390379574963
-0.005540295618556701,-0.01208926139308508
-0.005539955618556701,-0.01350454437653217
-0.005539615618556701,-0.0143273833203961
-0.005539275618556701,-0.01360328504979716
-0.005538935618556701,-0.01353745793428673
-0.005538595618556701,-0.0143273833203961
-0.005538255618556701,-0.01320832235674319
-0.005537915618556701,-0.01327414947225027
-0.005537575618556701,-0.01426155620488698
-0.005537235618556701,-0.01393242062734201
-0.005536895618556701,-0.01251713764389546
-0.005536555618556701,-0.01228674273961356
-0.005536215618556701,-0.01271461899042202
-0.005535875618556701,-0.01050941062086747
-0.005535535618556701,-0.01103602754494038
-0.005535195618556701,-0.01136516312248536
-0.005534855618556701,-0.014557778224678
-0.005534515618556701,-0.01031192927434013
-0.005534175618556701,-0.008205461578052306
-0.005533835618556701,-0.007086400614393532
-0.005533495618556701,-0.007053487056638975
-0.005533155618556701,-0.01376785283856862
-0.005532815618556701,-0.01215508850859533
-0.005532475618556701,-0.009456176772721644
-0.005532135618556701,-0.0117930393732952
-0.005531795618556701,-0.01261587831715913
-0.005531455618556701,-0.01436029687815065
-0.005531115618556701,-0.01439321043590521
-0.005530775618556701,-0.01412990197386875
-0.005530435618556701,-0.0134058037032685
-0.005530095618556701,-0.01538061716854192
-0.005529755618556701,-0.01521604937976638
-0.005529415618556701,-0.01370202572305951
-0.005529075618556701,-0.01478817312895989
-0.005528735618556701,-0.01386659351183373
-0.005528395618556701,-0.01465651889794167
-0.005528055618556701,-0.01436029687815065
-0.005527715618556701,-0.01419572908937559
-0.005527375618556701,-0.0129450138947047
-0.005527035618556701,-0.01357037149204128
-0.005526695618556701,-0.01353745793428313
-0.005526355618556701,-0.0115626444690133
-0.005526015618556701,-0.01097020042943127
-0.005525675618556701,-0.01205634783532752
-0.005525335618556701,-0.009785312350267215
-0.005524995618556701,-0.009752398792512659
-0.0055246556185567,-0.01271461899042789
-0.005524315618556701,-0.01551227139956015
-0.005523975618556701,-0.01057523773637659
-0.0055236356185567,-0.01495274091774286
-0.005523295618556701,-0.02054804573600739
-0.005522955618556701,-0.03486544335923973
-0.0055226156185567,-0.06083424042763073
-0.005522275618556701,-0.08581563076329413
-0.005521935618556701,-0.1127060074487673
-0.0055215956185567,-0.1468702803980568
-0.005521255618556701,-0.1794547025750091
-0.005520915618556701,-0.2076616215706646
-0.005520575618556701,-0.2308656797875851
-0.005520235618556701,-0.2490997907836519
-0.005519895618556701,-0.2603891410934651
-0.005519555618556701,-0.2685846169743348
-0.005519215618556701,-0.271612664287769
-0.005518875618556701,-0.2693745423604591
-0.005518535618556701,-0.2668401984133628
-0.005518195618556701,-0.261804424076911
-0.005517855618556701,-0.2548267498329449
-0.005517515618556701,-0.2477832484734825
-0.005517175618556701,-0.241365104711331
-0.005516835618556701,-0.232445530559846
-0.005516495618556701,-0.2242171411212217
-0.005516155618556701,-0.2172065533194861
-0.005515815618556701,-0.2071350046465916
-0.005515475618556701,-0.2005522930956922
-0.005515135618556701,-0.1936075324094687
-0.005514795618556701,-0.1873868699938574
-0.005514455618556701,-0.179816751710323
-0.005514115618556701,-0.1775786297829993
-0.005513775618556701,-0.1686590556315144
-0.005513435618556701,-0.1567772612821409
-0.005513095618556701,-0.1563822985890646
-0.005512755618556701,-0.1486476125167437
-0.005512415618556701,-0.1463765770316792
-0.005512075618556701,-0.1455208245300607
-0.005511735618556701,-0.140221741731577
-0.005511395618556701,-0.1323554014282379
-0.005511055618556701,-0.1299197981544007
-0.005510715618556701,-0.1259043441083447
-0.005510375618556701,-0.1195849410194697
-0.005510035618556701,-0.1150099564915863
-0.005509695618556701,-0.1112578109075668
-0.005509355618556701,-0.1074727517657927
-0.005509015618556701,-0.1043459637791041
-0.005508675618556701,-0.1012191757924269
-0.005508335618556701,-0.09644670991801607
-0.005507995618556701,-0.09414276087519265
-0.005507655618556701,-0.09170715760135986
-0.005507315618556701,-0.0876917035553039
-0.005506975618556701,-0.08502570537717931
-0.005506635618556701,-0.08203057162152005
-0.005506295618556701,-0.0794633141166646
-0.005505955618556701,-0.0753820329550975
-0.005505615618556701,-0.07426297199144458
-0.005505275618556701,-0.07120201112027078
-0.005504935618556701,-0.06968798746355778
-0.005504595618556701,-0.06784482822930596
-0.005504255618556701,-0.06504717582016858
-0.005503915618556701,-0.06271031321960122
-0.005503575618556701,-0.06610040966831443
-0.005503235618556701,-0.05902399475108465
-0.0055028956185567,-0.05425152887667267
-0.005502555618556701,-0.05359325772158272
-0.005502215618556701,-0.0534616034905645
-0.0055018756185567,-0.05500854070502695
-0.005501535618556701,-0.05405404753014652
-0.005501195618556701,-0.05059812396591803
-0.0055008556185567,-0.04914992742471566
-0.005500515618556701,-0.04812960713432624
-0.005500175618556701,-0.0472409410749532
-0.005499835618556701,-0.04335714125992253
-0.005499495618556701,-0.04378501751072471
-0.005499155618556701,-0.04404832597276116
-0.005498815618556701,-0.0424026480850363
-0.005498475618556701,-0.04134941423688748
-0.005498135618556701,-0.04181020404545128
-0.005497795618556701,-0.03970373634916346
-0.005497455618556701,-0.03822262625020455
-0.005497115618556701,-0.03684025682451315
-0.005496775618556701,-0.03466796201271634
-0.005496435618556701,-0.03269314854743896
-0.005496095618556701,-0.03252858075866617
-0.005495755618556701,-0.03078416219767783
-0.005495415618556701,-0.02927013854096502
-0.005495075618556701,-0.02782194199976451
-0.005494735618556701,-0.02647248613183013
-0.005494395618556701,-0.02509011670613627
-0.005494055618556701,-0.02515594382164538
-0.005493715618556701,-0.02551799295694485
-0.005493375618556701,-0.02505720314838171
-0.005493035618556701,-0.03081707575542921
-0.005492695618556701,-0.02726241151794351
-0.005492355618556701,-0.02413562353125412
-0.005492015618556701,-0.02301656256759917
-0.005491675618556701,-0.02360900660718012
-0.005491335618556701,-0.02762446065323717
-0.005490995618556701,-0.02670288103610957
-0.005490655618556701,-0.02351026593391753
-0.005490315618556701,-0.02166710669966233
-0.005489975618556701,-0.02235829141250803
-0.005489635618556701,-0.02137088467987132
-0.005489295618556701,-0.0192315034258251
-0.005488955618556701,-0.01834283736645206
-0.005488615618556701,-0.0190011085215432
-0.005488275618556701,-0.0183428373664529
-0.005487935618556701,-0.01880362717501586
-0.005487595618556701,-0.02012016948519815
-0.005487255618556701,-0.02058095929376194
-0.005486915618556701,-0.02058095929376194
-0.005486575618556701,-0.02219372362373525
-0.005486235618556701,-0.02166710669965862
-0.005485895618556701,-0.01962646611887979
-0.005485555618556701,-0.01942898477235245
-0.005485215618556701,-0.01659841880545796
-0.005484875618556701,-0.01518313582201458
-0.005484535618556701,-0.01472234601345078
-0.005484195618556701,-0.01518313582201356
-0.005483855618556701,-0.01462360534018711
-0.005483515618556701,-0.01547935784180559
-0.005483175618556701,-0.01771747976911685
-0.005482835618556701,-0.01847449159747029
-0.005482495618556701,-0.01998851525417992
-0.0054821556185567,-0.01478817312895912
-0.005481815618556701,-0.01436029687815065
-0.005481475618556701,-0.01264879187491368
-0.0054811356185567,-0.01728960351831007
-0.005480795618556701,-0.01939607121459789
-0.005480455618556701,-0.01751999842258814
-0.0054801156185567,-0.01728960351830642
-0.005479775618556701,-0.01738834419156991
-0.005479435618556701,-0.01745417130707902
-0.005479095618556701,-0.01682881370974357
-0.005478755618556701,-0.01636802390117864
-0.005478415618556701,-0.01462360534018711
-0.005478075618556701,-0.01333997658776172
-0.005477735618556701,-0.01241839697063178
-0.005477395618556701,-0.01083854619841304
-0.005477055618556701,-0.01041066994760458
-0.005476715618556701,-0.009291608983948858
-0.005476375618556701,-0.009587831003739873
-0.005476035618556701,-0.009094127637422414
-0.005475695618556701,-0.008929559848648731
-0.005475355618556701,-0.008271288693557588
-0.005475015618556701,-0.01041066994759991
-0.005474675618556701,-0.01222091562410444
-0.005474335618556701,-0.01097020042943127
-0.005473995618556701,-0.01340580370326407
-0.005473655618556701,-0.01561101207282382
-0.005473315618556701,-0.01554518495731471
-0.005472975618556701,-0.01422864264713482
-0.005472635618556701,-0.01570975274608749
-0.005472295618556701,-0.01870488650175219
-0.005471955618556701,-0.01567683918833845
-0.005471615618556701,-0.01060815129413114
-0.005471275618556701,-0.008863732733139616
-0.005470935618556701,-0.00738262263418724
-0.005470595618556701,-0.01166138514227697
-0.005470255618556701,-0.01383367995407774
-0.005469915618556701,-0.009916966581285444
-0.005469575618556701,-0.0111018546604495
-0.005469235618556701,-0.0129450138947047
-0.005468895618556701,-0.00688891926786619
-0.005468555618556701,-0.01498565447548724
-0.005468215618556701,-0.01412990197386875
-0.005467875618556701,-0.01327414947225027
-0.005467535618556701,-0.01429446976264154
-0.005467195618556701,-0.01557809851506927
-0.005466855618556701,-0.01320832235674115
-0.005466515618556701,-0.01090437331392294
-0.005466175618556701,-0.0113322495647314
-0.005465835618556701,-0.009916966581285444
-0.005465495618556701,-0.00952200388823028
-0.005465155618556701,-0.009258695426194301
-0.005464815618556701,-0.008402942924575817
-0.005464475618556701,-0.009884053023533819
-0.005464135618556701,-0.01149681735350419
-0.005463795618556701,-0.009127041195176074
-0.005463455618556701,-0.009159954752931349
-0.005463115618556701,-0.009554917445985316
-0.005462775618556701,-0.009785312350267215
-0.005462435618556701,-0.009818225908026921
-0.005462095618556701,-0.01264879187491368
-0.005461755618556701,-0.01557809851506927
-0.0054614156185567,-0.008337115809070114
-0.005461075618556701,-0.01021318860107646
-0.005460735618556701,-0.009061214079666959
-0.0054603956185567,-0.009489090330483804
-0.005460055618556701,-0.01366911216530495
-0.005459715618556701,-0.01403116130060508
-0.0054593756185567,-0.01182595293105299
-0.005459035618556701,-0.01360328504979584
-0.005458695618556701,-0.01373493928081407
-0.0054583556185567,-0.01330706303000578
-0.005458015618556701,-0.01383367995407774
-0.005457675618556701,-0.01350454437653217
-0.005457335618556701,-0.01320832235674169
-0.005456995618556701,-0.01228674273961356
-0.005456655618556701,-0.01304375456796837
-0.005456315618556701,-0.01376785283856731
-0.005455975618556701,-0.01314249524123204
-0.005455635618556701,-0.01412990197386875
-0.005455295618556701,-0.01376785283856928
-0.005454955618556701,-0.01452486466692344
-0.005454615618556701,-0.01416281553162331
-0.005454275618556701,-0.01380076639632384
-0.005453935618556701,-0.01192469360431343
-0.005453595618556701,-0.01241839697063178
-0.005453255618556701,-0.01139807668024237
-0.005452915618556701,-0.01050941062086747
-0.005452575618556701,-0.0106410648518857
-0.005452235618556701,-0.0106081512941312
-0.005451895618556701,-0.009028300521912402
-0.005451555618556701,-0.01261587831715913
-0.005451215618556701,-0.01557809851506388
-0.005450875618556701,-0.006625610805829733
-0.005450535618556701,-0.01149681735350419
-0.005450195618556701,-0.01636802390116978
-0.005449855618556701,-0.01347163081877761
-0.005449515618556701,-0.0131754087989866
-0.005449175618556701,-0.01478817312895696
-0.005448835618556701,-0.0129450138947047
-0.005448495618556701,-0.01152973091125874
-0.005448155618556701,-0.01251713764389546
-0.005447815618556701,-0.01143099023799507
-0.005447475618556701,-0.01067397840964026
-0.005447135618556701,-0.01080563264065849
-0.005446795618556701,-0.01126642244922228
-0.005446455618556701,-0.01241839697063178
-0.005446115618556701,-0.01419572908937787
-0.005445775618556701,-0.01301084101021561
-0.005445435618556701,-0.01399824774285052
-0.005445095618556701,-0.01429446976264154
-0.005444755618556701,-0.01386659351182858
-0.005444415618556701,-0.01182595293104976
-0.005444075618556701,-0.01100311398718583
-0.005443735618556701,-0.01031192927433791
-0.005443395618556701,-0.009094127637421515
-0.005443055618556701,-0.009653658119248986
-0.005442715618556701,-0.009653658119248268
-0.005442375618556701,-0.009258695426194301
-0.005442035618556701,-0.01004862081230367
-0.005441695618556701,-0.01123350889146761
-0.005441355618556701,-0.01116768177595861
-0.005441015618556701,-0.01389950706958685
-0.005440675618556701,-0.009587831003742147
-0.005440335618556701,-0.01083854619841304
-0.005439995618556701,-0.008863732733139616
-0.0054396556185567,-0.009982793696799887
-0.005439315618556701,-0.01291210033695014
-0.005438975618556701,-0.01238548341287723
-0.0054386356185567,-0.01080563264065771
-0.005438295618556701,-0.01037775638984924
-0.005437955618556701,-0.008797905617630502
-0.0054376156185567,-0.009159954752931051
-0.005437275618556701,-0.00939034965721253
-0.005436935618556701,-0.008633337828857716
-0.005436595618556701,-0.01050941062086406
-0.005436255618556701,-0.0115626444690133
-0.005435915618556701,-0.01347163081877761
-0.005435575618556701,-0.01449195110916703
-0.005435235618556701,-0.01373493928081407
-0.005434895618556701,-0.01393242062734141
-0.005434555618556701,-0.01366911216530543
-0.005434215618556701,-0.01478817312895989
-0.005433875618556701,-0.0127146189904228
-0.005433535618556701,-0.01317540879898576
-0.005433195618556701,-0.01429446976264154
-0.005432855618556701,-0.01347163081877761
-0.005432515618556701,-0.01442612399365803
-0.005432175618556701,-0.01426155620488698
-0.005431835618556701,-0.01436029687815065
-0.005431495618556701,-0.01409698841611468
-0.005431155618556701,-0.01547935784180559
-0.005430815618556701,-0.01646676457444231
-0.005430475618556701,-0.01643385101668781
-0.005430135618556701,-0.01185886648880431
-0.005429795618556701,-0.01093728687167671
-0.005429455618556701,-0.008863732733143387
-0.005429115618556701,-0.01310958168347748
-0.005428775618556701,-0.01498565447548724
-0.005428435618556701,-0.01284627322144492
-0.005428095618556701,-0.01189178004655887
-0.005427755618556701,-0.01281335966368647
-0.005427415618556701,-0.01245131052838634
-0.005427075618556701,-0.01245131052838634
-0.005426735618556701,-0.01185886648880431
-0.005426395618556701,-0.0117930393732952
-0.005426055618556701,-0.01129933600697684
-0.005425715618556701,-0.0113322495647314
-0.005425375618556701,-0.01024610215883101
-0.005425035618556701,-0.01116768177595861
-0.005424695618556701,-0.00790923955825746
-0.005424355618556701,-0.01031192927434013
-0.005424015618556701,-0.01241839697063382
-0.005423675618556701,-0.01353745793428673
-0.005423335618556701,-0.0127146189904228
-0.005422995618556701,-0.01235256985512488
-0.005422655618556701,-0.01357037149204128
-0.005422315618556701,-0.01245131052838634
-0.005421975618556701,-0.01172721225778471
-0.005421635618556701,-0.01097020042943127
-0.005421295618556701,-0.01123350889146773
-0.005420955618556701,-0.009258695426197953
-0.005420615618556701,-0.01126642244922228
-0.005420275618556701,-0.01445903755141432
-0.005419935618556701,-0.0075142768652005
-0.005419595618556701,-0.006263561670529605
-0.005419255618556701,-0.005934426092984033
-0.0054189156185567,-0.004058353300983259
-0.005418575618556701,-0.008995386964157845
-0.005418235618556701,-0.0106410648518857
-0.0054178956185567,-0.008534597155597399
-0.005417555618556701,-0.01037775638984924
-0.005417215618556701,-0.01281335966368647
-0.0054168756185567,-0.01271461899042483
-0.005416535618556701,-0.01383367995407774
-0.005416195618556701,-0.01426155620488698
-0.0054158556185567,-0.01169429870002836
