Analysis/files/cmb03_d2s01/wrd11_ch17.csv

#Digilent WaveForms Oscilloscope Acquisition
#Device Name: ADP3450
#Serial Number: SN:210018B9D9B0
#Date Time: 2024-08-12 12:58:52.893.842.000
#Sample rate: 2.94118e+06Hz
#Samples: 32768
#Trigger: Source: Channel 3 Type: Edge Condition: Rising Level: 60 mV Hyst.: Auto HoldOff: 0 s
#Channel 3: Range: 200 mV/div Offset: 0 V Attenuation: 1 X Coupling: DC Bandwidth: 0 Hz Sample Mode: Average

Time (s),Channel 3 (V)
-0.005570528858218319,0.008613366434530208
-0.005570188858218319,0.005552405563353882
-0.005569848858218319,0.004170036137664999
-0.005569508858218319,0.005552405563356397
-0.005569168858218319,0.004268776810921186
-0.005568828858218319,0.0001545820916090312
-0.005568488858218319,0.002688926038709928
-0.005568148858218319,0.007329737682100744
-0.005567808858218319,0.006375244507220324
-0.005567468858218319,0.008580452876775651
-0.005567128858218319,0.003807987002358883
-0.005566788858218319,0.0005166312269091594
-0.005566448858218319,0.003083888731764614
-0.005566108858218319,0.002886407385230326
-0.005565768858218319,-0.0009315653142913533
-0.005565428858218319,-0.002346848297737309
-0.005565088858218319,-0.004058353300977991
-0.005564748858218319,-0.006098993881756819
-0.005564408858218319,-0.005144500706874663
-0.005564068858218319,-0.006395215901550288
-0.005563728858218319,-0.007744671769484675
-0.005563388858218319,-0.00711931417214809
-0.005563048858218319,-0.005769858304213703
-0.005562708858218319,-0.005736944746456691
-0.005562368858218319,-0.00392669906995605
-0.005562028858218319,-0.003465909261393089
-0.005561688858218319,-0.003663390607919593
-0.005561348858218319,-0.003465909261392251
-0.005561008858218319,-0.004124180416482196
-0.005560668858218319,-0.006790178594602518
-0.005560328858218319,-0.008106720904784802
-0.005559988858218319,-0.00659269724807793
-0.005559648858218319,-0.007415536191939104
-0.005559308858218319,-0.007876326000502903
-0.005558968858218319,-0.007580103980712427
-0.005558628858218319,-0.008205461578048474
-0.005558288858218319,-0.0115626444690133
-0.005557948858218319,-0.004387488878532901
-0.005557608858218319,-0.004354575320765292
-0.005557268858218319,-0.005769858304211248
-0.005556928858218319,-0.005934426092983734
-0.005556588858218319,-0.01014736148556734
-0.005556248858218319,-0.01139807668024051
-0.005555908858218319,-0.007283881960928358
-0.005555568858218319,-0.007053487056638975
-0.005555228858218319,-0.007316795518675433
-0.005554888858218319,-0.00567111763095057
-0.005554548858218319,-0.003498822819146808
-0.005554208858218319,-0.004025439743219721
-0.005553868858218319,-0.004354575320765292
-0.005553528858218319,-0.004288748205256179
-0.005553188858218319,-0.00517741426462922
-0.005552848858218319,-0.006757265036847961
-0.005552508858218319,-0.007415536191939104
-0.005552168858218319,-0.009094127637421515
-0.005551828858218319,-0.01083854619841304
-0.005551488858218319,-0.01176012581554298
-0.005551148858218319,-0.01304375456796837
-0.005550808858218319,-0.01449195110916888
-0.005550468858218319,-0.01222091562410528
-0.005550128858218319,-0.01268170543266824
-0.005549788858218319,-0.01218800206634988
-0.005549448858218319,-0.008797905617627987
-0.005549108858218319,-0.007415536191939104
-0.005548768858218319,-0.006592697248075176
-0.005548428858218319,-0.004782451571574775
-0.005548088858218319,-0.004914105802592763
-0.005547748858218319,-0.009522003888230759
-0.005547408858218319,-0.002840551664056444
-0.005547068858218319,-0.003268427914864908
-0.005546728858218319,-0.005144500706874663
-0.005546388858218319,-0.006526870132576778
-0.005546048858218319,-0.01241839697063178
-0.005545708858218319,-0.012253829181859
-0.005545368858218319,-0.01083854619841113
-0.005545028858218319,-0.009785312350267215
-0.005544688858218319,-0.01136516312248596
-0.005544348858218319,-0.009522003888227945
-0.005544008858218319,-0.007975066673766575
-0.005543668858218319,-0.008435856482330374
-0.005543328858218319,-0.008139634462540077
-0.005542988858218319,-0.008534597155594046
-0.005542648858218319,-0.008830819175385059
-0.005542308858218319,-0.01001570725454696
-0.005541968858218319,-0.009291608983948858
-0.005541628858218319,-0.01123350889146773
-0.005541288858218319,-0.01231965629736614
-0.005540948858218319,-0.01001570725454911
-0.005540608858218319,-0.012253829181859
-0.005540268858218319,-0.01208926139308651
-0.005539928858218319,-0.01199052071982254
-0.005539588858218319,-0.009851139465776329
-0.005539248858218319,-0.0114309902379922
-0.005538908858218319,-0.009752398792512659
-0.005538568858218319,-0.009423263214967087
-0.005538228858218319,-0.009785312350266556
-0.005537888858218319,-0.009785312350267215
-0.005537548858218319,-0.01561101207282382
-0.005537208858218319,-0.01291210033695505
-0.005536868858218319,-0.009324522541703417
-0.005536528858218319,-0.008139634462539359
-0.005536188858218319,-0.009291608983946762
-0.005535848858218319,-0.01330706303000483
-0.005535508858218319,-0.014557778224678
-0.005535168858218319,-0.01195760716207271
-0.005534828858218319,-0.01291210033695014
-0.005534488858218319,-0.009522003888230759
-0.005534148858218319,-0.009291608983949278
-0.005533808858218319,-0.0111018546604495
-0.005533468858218319,-0.009653658119248986
-0.005533128858218319,-0.01080563264065849
-0.005532788858218319,-0.01080563264065849
-0.005532448858218319,-0.0101802750433219
-0.005532108858218319,-0.01057523773637659
-0.005531768858218319,-0.01215508850859533
-0.005531428858218319,-0.01113476821820406
-0.005531088858218319,-0.0101802750433219
-0.005530748858218319,-0.01073980552514937
-0.005530408858218319,-0.0101802750433219
-0.005530068858218319,-0.01057523773637659
-0.005529728858218319,-0.01024610215883155
-0.005529388858218319,-0.01054232417862203
-0.005529048858218319,-0.008534597155594046
-0.005528708858218319,-0.008797905617629245
-0.005528368858218319,-0.008106720904784802
-0.005528028858218319,-0.006921832825620747
-0.005527688858218319,-0.008402942924576655
-0.005527348858218319,-0.008863732733139616
-0.005527008858218319,-0.01287918677919558
-0.005526668858218319,-0.01110185466044052
-0.005526328858218319,-0.006164820997265934
-0.005525988858218319,-0.01057523773637659
-0.005525648858218319,-0.01218800206634587
-0.005525308858218319,-0.009982793696794558
-0.005524968858218319,-0.009094127637421515
-0.005524628858218319,-0.008435856482331092
-0.005524288858218319,-0.008830819175385059
-0.005523948858218319,-0.008995386964157845
-0.005523608858218319,-0.01268170543268704
-0.005523268858218319,-0.02301656256759917
-0.005522928858218319,-0.03667568903574037
-0.005522588858218319,-0.05747705753666728
-0.005522248858218319,-0.08321545970068411
-0.005521908858218319,-0.1136605006236494
-0.005521568858218319,-0.1444346771242185
-0.005521228858218319,-0.1763937417038353
-0.005520888858218319,-0.2044690064684725
-0.005520548858218319,-0.2270477070880576
-0.005520208858218319,-0.2474870264536786
-0.005519868858218319,-0.2605537088822378
-0.005519528858218319,-0.2673009882219098
-0.005519188858218319,-0.2709214795749233
-0.005518848858218319,-0.2717772320765418
-0.005518508858218319,-0.2668401984133672
-0.005518168858218319,-0.2639438053309572
-0.005517828858218319,-0.258315586954928
-0.005517488858218319,-0.2465983603943269
-0.005517148858218319,-0.2409043149027672
-0.005516808858218319,-0.230964420460891
-0.005516468858218319,-0.2251058071805905
-0.005516128858218319,-0.2202016870751508
-0.005515788858218319,-0.2117429027322296
-0.005515448858218319,-0.2024283658877069
-0.005515108858218319,-0.1942987171223144
-0.005514768858218319,-0.1894275105746399
-0.005514428858218319,-0.1809028991162251
-0.005514088858218319,-0.1757683841064987
-0.005513748858218319,-0.1707326097700515
-0.005513408858218319,-0.1656968354336134
-0.005513068858218319,-0.159772395037784
-0.005512728858218319,-0.1549999291633732
-0.005512388858218319,-0.1501945497312079
-0.005512048858218319,-0.1439080602000874
-0.005511708858218319,-0.1373582622069306
-0.005511368858218319,-0.1336719437384202
-0.005511028858218319,-0.1277475033425999
-0.005510688858218319,-0.1230079510259437
-0.005510348858218319,-0.1184658800558148
-0.005510008858218319,-0.1137592412969131
-0.005509668858218319,-0.1102374906171755
-0.005509328858218319,-0.1083943313829203
-0.005508988858218319,-0.1051688027229671
-0.005508648858218319,-0.1015153978122179
-0.005508308858218319,-0.09944184367368078
-0.005507968858218319,-0.09694041328433714
-0.005507628858218319,-0.09842152338328949
-0.005507288858218319,-0.08996273904036833
-0.005506948858218319,-0.08443326133759717
-0.005506608858218319,-0.08137230046642893
-0.005506268858218319,-0.07913417853911903
-0.005505928858218319,-0.0802203259450095
-0.005505588858218319,-0.07475667535776295
-0.005505248858218319,-0.07176154160209824
-0.005504908858218319,-0.07074122131170285
-0.005504568858218319,-0.06847018582664255
-0.005504228858218319,-0.06761443332502406
-0.005503888858218319,-0.06692324861217465
-0.005503548858218319,-0.06488260803139581
-0.005503208858218319,-0.0635989792789681
-0.005502868858218319,-0.06182164716021883
-0.005502528858218319,-0.06007722859923047
-0.005502188858218319,-0.05849737782701173
-0.005501848858218319,-0.05741123042110572
-0.005501508858218319,-0.05431735599218298
-0.005501168858218319,-0.05306664079750981
-0.005500828858218319,-0.05224380185364037
-0.005500488858218319,-0.04921575454022663
-0.005500148858218319,-0.047701730883517
-0.005499808858218319,-0.04645101568884611
-0.005499468858218319,-0.04302800568236989
-0.005499128858218319,-0.04085571087056913
-0.005498788858218319,-0.04046074817751516
-0.005498448858218319,-0.0384201075967319
-0.005498108858218319,-0.03558954162983999
-0.005497768858218319,-0.03703773817103787
-0.005497428858218319,-0.03828845336571367
-0.005497088858218319,-0.03904546519406848
-0.005496748858218319,-0.03190322316134258
-0.005496408858218319,-0.02946761988749236
-0.005496068858218319,-0.0277561148842554
-0.005495728858218319,-0.02969801479177073
-0.005495388858218319,-0.03272606210519352
-0.005495048858218319,-0.02900683007892857
-0.005494708858218319,-0.02713075728692222
-0.005494368858218319,-0.0319690502768387
-0.005494028858218319,-0.03144243335276579
-0.005493688858218319,-0.03038919950462188
-0.005493348858218319,-0.03019171815809262
-0.005493008858218319,-0.02943470632973781
-0.005492668858218319,-0.02798650978853993
-0.005492328858218319,-0.0289080894056649
-0.005491988858218319,-0.02647248613182767
-0.005491648858218319,-0.02574838786122873
-0.005491308858218319,-0.0252217709371545
-0.005490968858218319,-0.02186458804618967
-0.005490628858218319,-0.02058095929376194
-0.005490288858218319,-0.0256825607457183
-0.005489948858218319,-0.02347735237616297
-0.005489608858218319,-0.02278616766331727
-0.005489268858218319,-0.0229178218943355
-0.005488928858218319,-0.02248994564352626
-0.005488588858218319,-0.02100883554457119
-0.005488248858218319,-0.02123923044885339
-0.005487908858218319,-0.02140379823762588
-0.005487568858218319,-0.01867197294399764
-0.005487228858218319,-0.01985686102316816
-0.005486888858218319,-0.02341152526065386
-0.005486548858218319,-0.01567683918833294
-0.005486208858218319,-0.01363619860755106
-0.005485868858218319,-0.01399824774285052
-0.005485528858218319,-0.01222091562410444
-0.005485188858218319,-0.01745417130708501
-0.005484848858218319,-0.02074552708253473
-0.005484508858218319,-0.01689464082525155
-0.005484168858218319,-0.0185732322707342
-0.005483828858218319,-0.01870488650175219
-0.005483488858218319,-0.01804661534666105
-0.005483148858218319,-0.01705920861402613
-0.005482808858218319,-0.01804661534666105
-0.005482468858218319,-0.01821118313543383
-0.005482128858218319,-0.01663133236321725
-0.005481788858218319,-0.01781622044237915
-0.005481448858218319,-0.01679590015198788
-0.005481108858218319,-0.01761873909585049
-0.005480768858218319,-0.01689464082525155
-0.005480428858218319,-0.01610471543914218
-0.005480088858218319,-0.01396533418509728
-0.005479748858218319,-0.01468943245569622
-0.005479408858218319,-0.01495274091773268
-0.005479068858218319,-0.01271461899042687
-0.005478728858218319,-0.01350454437653217
-0.005478388858218319,-0.0127146189904228
-0.005478048858218319,-0.01231965629736883
-0.005477708858218319,-0.01143099023799507
-0.005477368858218319,-0.01031192927434013
-0.005477028858218319,-0.007645931096225853
-0.005476688858218319,-0.01080563264065849
-0.005476348858218319,-0.01587432053486028
-0.005476008858218319,-0.008797905617643374
-0.005475668858218319,-0.008929559848648731
-0.005475328858218319,-0.01215508850859533
-0.005474988858218319,-0.01426155620488315
-0.005474648858218319,-0.01742125774932446
-0.005474308858218319,-0.01692755438300611
-0.005473968858218319,-0.01386659351183787
-0.005473628858218319,-0.01436029687815065
-0.005473288858218319,-0.01551227139956015
-0.005472948858218319,-0.01320832235674534
-0.005472608858218319,-0.01172721225778608
-0.005472268858218319,-0.01129933600697684
-0.005471928858218319,-0.01073980552515039
-0.005471588858218319,-0.01031192927434013
-0.005471248858218319,-0.01083854619841304
-0.005470908858218319,-0.01080563264065855
-0.005470568858218319,-0.0106410648518857
-0.005470228858218319,-0.01116768177595861
-0.005469888858218319,-0.0124842240861409
-0.005469548858218319,-0.01185886648880431
-0.005469208858218319,-0.01245131052838634
-0.005468868858218319,-0.01366911216530495
-0.005468528858218319,-0.01162847158452241
-0.005468188858218319,-0.01047649706311291
-0.005467848858218319,-0.01057523773637659
-0.005467508858218319,-0.00860042427110316
-0.005467168858218319,-0.008534597155594046
-0.005466828858218319,-0.01034484283209469
-0.005466488858218319,-0.00955491744599298
-0.005466148858218319,-0.01376785283856862
-0.005465808858218319,-0.01863905938624308
-0.005465468858218319,-0.01064106485188714
-0.005465128858218319,-0.01143099023799507
-0.005464788858218319,-0.0106410648518857
-0.005464448858218319,-0.01291210033695673
-0.005464108858218319,-0.01653259168995142
-0.005463768858218319,-0.01541353072629648
-0.005463428858218319,-0.01439321043590641
-0.005463088858218319,-0.01505148159099635
-0.005462748858218319,-0.01715794928728801
-0.005462408858218319,-0.01554518495731285
-0.005462068858218319,-0.01452486466692344
-0.005461728858218319,-0.0140969884161142
-0.005461388858218319,-0.01294501389469943
-0.005461048858218319,-0.01004862081230367
-0.005460708858218319,-0.008929559848648731
-0.005460368858218319,-0.008896646290891179
-0.005460028858218319,-0.007250968403166318
-0.005459688858218319,-0.007975066673766575
-0.005459348858218319,-0.009159954752930032
-0.005459008858218319,-0.008830819175385059
-0.005458668858218319,-0.009061214079666959
-0.005458328858218319,-0.00985113946577639
-0.005457988858218319,-0.009884053023530886
-0.005457648858218319,-0.009818225908021772
-0.005457308858218319,-0.01139807668023764
-0.005456968858218319,-0.01014736148556734
-0.005456628858218319,-0.009982793696794558
-0.005456288858218319,-0.01159555802676492
-0.005455948858218319,-0.01083854619841304
-0.005455608858218319,-0.01439321043590521
-0.005455268858218319,-0.01060815129413803
-0.005454928858218319,-0.006362302343793276
-0.005454588858218319,-0.00517741426462922
-0.005454248858218319,-0.006033166766246148
-0.005453908858218319,-0.01143099023799507
-0.005453568858218319,-0.0101802750433219
-0.005453228858218319,-0.008699164944369524
-0.005452888858218319,-0.0111018546604495
-0.005452548858218319,-0.01166138514227697
-0.005452208858218319,-0.01195760716206744
-0.005451868858218319,-0.01077271908290393
-0.005451528858218319,-0.01047649706311291
-0.005451188858218319,-0.01093728687167588
-0.005450848858218319,-0.0113322495647314
-0.005450508858218319,-0.01199052071982254
-0.005450168858218319,-0.01083854619841514
-0.005449828858218319,-0.01208926139308621
-0.005449488858218319,-0.01116768177595861
-0.005449148858218319,-0.01080563264065914
-0.005448808858218319,-0.01070689196739481
-0.005448468858218319,-0.0115626444690133
-0.005448128858218319,-0.01238548341287723
-0.005447788858218319,-0.01370202572305951
-0.005447448858218319,-0.0136361986075504
-0.005447108858218319,-0.008995386964157845
-0.005446768858218319,-0.01617054255465129
-0.005446428858218319,-0.01547935784180559
-0.005446088858218319,-0.012253829181859
-0.005445748858218319,-0.01231965629736709
-0.005445408858218319,-0.01176012581554064
-0.005445068858218319,-0.0140969884161142
-0.005444728858218319,-0.009884053023525198
-0.005444388858218319,-0.006757265036847961
-0.005444048858218319,-0.006066080324002262
-0.005443708858218319,-0.005769858304221426
-0.005443368858218319,-0.01136516312248596
-0.005443028858218319,-0.0108714597561676
-0.005442688858218319,-0.01037775638985098
-0.005442348858218319,-0.0113322495647314
-0.005442008858218319,-0.01255005120165001
-0.005441668858218319,-0.01120059533371778
-0.005441328858218319,-0.01373493928081407
-0.005440988858218319,-0.01284627322144103
-0.005440648858218319,-0.01301084101021603
-0.005440308858218319,-0.01422864264713243
-0.005439968858218319,-0.01380076639632318
-0.005439628858218319,-0.01281335966368713
-0.005439288858218319,-0.0131754087989866
-0.005438948858218319,-0.0140969884161142
-0.005438608858218319,-0.01218800206634863
-0.005438268858218319,-0.01149681735350419
-0.005437928858218319,-0.0104106699476038
-0.005437588858218319,-0.01073980552515057
-0.005437248858218319,-0.01139807668024051
-0.005436908858218319,-0.0108714597561676
-0.005436568858218319,-0.01014736148556866
-0.005436228858218319,-0.01093728687167671
-0.005435888858218319,-0.01251713764389546
-0.005435548858218319,-0.009127041195182241
-0.005435208858218319,-0.009554917445985316
-0.005434868858218319,-0.01199052071982254
-0.005434528858218319,-0.01189178004655905
-0.005434188858218319,-0.005967339650738591
-0.005433848858218319,-0.005802771861965805
-0.005433508858218319,-0.004617883782803905
-0.005433168858218319,-0.007547190422957332
-0.005432828858218319,-0.01255005120165001
-0.005432488858218319,-0.009192868310691294
-0.005432148858218319,-0.009159954752930631
-0.005431808858218319,-0.0117930393732952
-0.005431468858218319,-0.01162847158452271
-0.005431128858218319,-0.01021318860107646
-0.005430788858218319,-0.009489090330476201
-0.005430448858218319,-0.009949880139039163
-0.005430108858218319,-0.006724351479093405
-0.005429768858218319,-0.006329388786038719
-0.005429428858218319,-0.005473636284421791
-0.005429088858218319,-0.005111587149120106
-0.005428748858218319,-0.006461043017056948
-0.005428408858218319,-0.00774467176948234
-0.005428068858218319,-0.009324522541703417
-0.005427728858218319,-0.01008153437005823
-0.005427388858218319,-0.0113322495647314
-0.005427048858218319,-0.01100311398718583
-0.005426708858218319,-0.01231965629736811
-0.005426368858218319,-0.01152973091125874
-0.005426028858218319,-0.009851139465776329
-0.005425688858218319,-0.009291608983948858
-0.005425348858218319,-0.0111018546604495
-0.005425008858218319,-0.009554917445985316
-0.005424668858218319,-0.009357436099457973
-0.005424328858218319,-0.01511730870650547
-0.005423988858218319,-0.01228674273960733
-0.005423648858218319,-0.008863732733139616
-0.005423308858218319,-0.009456176772721644
-0.005422968858218319,-0.008699164944372159
-0.005422628858218319,-0.01162847158452241
-0.005422288858218319,-0.01646676457444231
-0.005421948858218319,-0.01320832235673912
-0.005421608858218319,-0.01208926139308621
-0.005421268858218319,-0.01426155620488698
-0.005420928858218319,-0.01393242062733764
-0.005420588858218319,-0.01185886648880431
-0.005420248858218319,-0.01113476821820406
-0.005419908858218319,-0.01245131052838233
-0.005419568858218319,-0.01024610215883101
-0.005419228858218319,-0.01169429870003153
-0.005418888858218319,-0.01225382918186019
-0.005418548858218319,-0.01291210033695014
-0.005418208858218319,-0.01366911216530495
-0.005417868858218319,-0.01429446976263944
-0.005417528858218319,-0.01314249524123204
-0.005417188858218319,-0.01251713764389546
-0.005416848858218319,-0.01353745793428487
-0.005416508858218319,-0.01251713764389546
