Analysis/files/cmb03_d2s01/wrd10_ch28.csv

#Digilent WaveForms Oscilloscope Acquisition
#Device Name: ADP3450
#Serial Number: SN:210018B9D9B0
#Date Time: 2024-08-09 17:21:13.427.285.110
#Sample rate: 2.94118e+06Hz
#Samples: 32768
#Trigger: Source: Channel 3 Type: Edge Condition: Rising Level: 60 mV Hyst.: Auto HoldOff: 0 s
#Channel 3: Range: 200 mV/div Offset: 0 V Attenuation: 1 X Coupling: DC Bandwidth: 0 Hz Sample Mode: Average

Time (s),Channel 3 (V)
-0.005570229096989967,0.00403838190664677
-0.005569889096989966,0.004301690368680293
-0.005569549096989966,0.002688926038709928
-0.005569209096989967,0.002919320942991828
-0.005568869096989966,0.001405297286275675
-0.005568529096989966,-0.002182280508964523
-0.005568189096989967,-0.0005695161789912252
-0.005567849096989966,0.002096481999124248
-0.005567509096989966,8.875497609991696e-05
-0.005567169096989967,0.00107616170873663
-0.005566829096989966,-0.00517741426463868
-0.005566489096989966,-0.01037775638984924
-0.005566149096989967,-0.006856005710111633
-0.005565809096989966,-0.00754719042295805
-0.005565469096989966,-0.007942153116012016
-0.005565129096989967,-0.007547190422957332
-0.005564789096989966,-0.005736944746458248
-0.005564449096989966,-0.006592697248075176
-0.005564109096989967,-0.004552056667292635
-0.005563769096989966,-0.003696304165677742
-0.005563429096989966,-0.005671117630947577
-0.005563089096989967,-0.005210327822383777
-0.005562749096989967,-0.005506549842174253
-0.005562409096989966,-0.004354575320765292
-0.005562069096989967,-0.004453315994028964
-0.005561729096989967,-0.004453315994028964
-0.005561389096989966,-0.004683710898310864
-0.005561049096989967,-0.00313677368384668
-0.005560709096989967,-0.003795044838936624
-0.005560369096989966,-0.006362302343793276
-0.005560029096989967,-0.006131907439511376
-0.005559689096989967,-0.006000253208493387
-0.005559349096989966,-0.006131907439511376
-0.005559009096989967,-0.00869916494436683
-0.005558669096989967,-0.008040893789276886
-0.005558329096989966,-0.009719485234758102
-0.005557989096989967,-0.01366911216530495
-0.005557649096989967,-0.007053487056651009
-0.005557309096989966,-0.006987659941129861
-0.005556969096989967,-0.007580103980711889
-0.005556629096989967,-0.0074484497496939
-0.005556289096989966,-0.01205634783533165
-0.005555949096989967,-0.01314249524123204
-0.005555609096989967,-0.01090437331392623
-0.005555269096989966,-0.01284627322144103
-0.005554929096989967,-0.01337289014551394
-0.005554589096989967,-0.01333997658775944
-0.005554249096989966,-0.01370202572305951
-0.005553909096989967,-0.01439321043590521
-0.005553569096989967,-0.01505148159099635
-0.005553229096989966,-0.01389950706958685
-0.005552889096989966,-0.01646676457444231
-0.005552549096989967,-0.01462360534018711
-0.005552209096989966,-0.01426155620488698
-0.005551869096989966,-0.01310958168347748
-0.005551529096989967,-0.01261587831715913
-0.005551189096989966,-0.01120059533371126
-0.005550849096989966,-0.01014736148556734
-0.005550509096989967,-0.01106894110269494
-0.005550169096989966,-0.009028300521914378
-0.005549829096989966,-0.01011444792781279
-0.005549489096989967,-0.008534597155594046
-0.005549149096989966,-0.008567510713350877
-0.005548809096989966,-0.009818225908021772
-0.005548469096989967,-0.01185886648880431
-0.005548129096989966,-0.01264879187492272
-0.005547789096989966,-0.01761873909585181
-0.005547449096989967,-0.01916567631031599
-0.005547109096989966,-0.01353745793428834
-0.005546769096989966,-0.01442612399365977
-0.005546429096989967,-0.01314249524123204
-0.005546089096989966,-0.0163021967856721
-0.005545749096989966,-0.01771747976911548
-0.005545409096989967,-0.01580849341935116
-0.005545069096989966,-0.01399824774285358
-0.005544729096989966,-0.01567683918833294
-0.005544389096989967,-0.01534770361078737
-0.005544049096989966,-0.01449195110916703
-0.005543709096989966,-0.01347163081877761
-0.005543369096989967,-0.01360328504979584
-0.005543029096989966,-0.01422864264712943
-0.005542689096989966,-0.01258296475940457
-0.005542349096989967,-0.01403116130060508
-0.005542009096989967,-0.01360328504979662
-0.005541669096989966,-0.0127146189904228
-0.005541329096989967,-0.009653658119248986
-0.005540989096989967,-0.01110185466044687
-0.005540649096989966,-0.0138665935118323
-0.005540309096989967,-0.01189178004655887
-0.005539969096989967,-0.01192469360431337
-0.005539629096989966,-0.01120059533371317
-0.005539289096989967,-0.01274753254817735
-0.005538949096989967,-0.01310958168347682
-0.005538609096989966,-0.01376785283856862
-0.005538269096989967,-0.01610471543914218
-0.005537929096989967,-0.01775039332686704
-0.005537589096989966,-0.01696046794076066
-0.005537249096989967,-0.01893528140603409
-0.005536909096989967,-0.01873780005950711
-0.005536569096989966,-0.01166138514227697
-0.005536229096989967,-0.01218800206634988
-0.005535889096989967,-0.01018027504332555
-0.005535549096989966,-0.01274753254817735
-0.005535209096989967,-0.01442612399365977
-0.005534869096989967,-0.01182595293105448
-0.005534529096989966,-0.01307666812572293
-0.005534189096989967,-0.01396533418509597
-0.005533849096989967,-0.01445903755141343
-0.005533509096989966,-0.01491982735997812
-0.005533169096989967,-0.01541353072629648
-0.005532829096989967,-0.01570975274608749
-0.005532489096989966,-0.01485400024446901
-0.005532149096989966,-0.01330706303000483
-0.005531809096989967,-0.01327414947225027
-0.005531469096989966,-0.01518313582201458
-0.005531129096989966,-0.01297792745245925
-0.005530789096989967,-0.01195760716206798
-0.005530449096989966,-0.01143099023799507
-0.005530109096989966,-0.01176012581554064
-0.005529769096989967,-0.01205634783533165
-0.005529429096989966,-0.0127804461059297
-0.005529089096989966,-0.0115626444690133
-0.005528749096989967,-0.01389950706958685
-0.005528409096989966,-0.01600597476587899
-0.005528069096989966,-0.01626928322791496
-0.005527729096989967,-0.01468943245569622
-0.005527389096989966,-0.01478817312896127
-0.005527049096989966,-0.01554518495731471
-0.005526709096989967,-0.01837575092420662
-0.005526369096989966,-0.01123350889146545
-0.005526029096989966,-0.009982793696794558
-0.005525689096989967,-0.008995386964157845
-0.005525349096989966,-0.01041066994761392
-0.005525009096989966,-0.01597306120812395
-0.005524669096989967,-0.01436029687815065
-0.005524329096989966,-0.01389950706959081
-0.005523989096989966,-0.01607180188138762
-0.005523649096989967,-0.01663133236321509
-0.005523309096989966,-0.02064678640928752
-0.005522969096989966,-0.02969801479177427
-0.005522629096989967,-0.04329131414440635
-0.005522289096989966,-0.06471804024267393
-0.005521949096989966,-0.09269456433399656
-0.005521609096989967,-0.1230737781414528
-0.005521269096989966,-0.1555265460875014
-0.005520929096989966,-0.1859386734526569
-0.005520589096989967,-0.2129936179269028
-0.005520249096989967,-0.2359343676817874
-0.005519909096989966,-0.2547938362751903
-0.005519569096989967,-0.2662806679315308
-0.005519229096989967,-0.2739166133305742
-0.005518889096989966,-0.2762534759311616
-0.005518549096989967,-0.2741799217926245
-0.005518209096989967,-0.2698353321690308
-0.005517869096989966,-0.2636475833111662
-0.005517529096989967,-0.2561103785853726
-0.005517189096989967,-0.2477174213579758
-0.005516849096989966,-0.240476438651958
-0.005516509096989967,-0.2350457016224561
-0.005516169096989967,-0.2275743240121852
-0.005515829096989966,-0.2138822839862758
-0.005515489096989967,-0.2070691775310825
-0.005515149096989967,-0.1983470847261408
-0.005514809096989966,-0.1932783968319231
-0.005514469096989967,-0.1924884714458137
-0.005514129096989967,-0.182976453254764
-0.005513789096989966,-0.1767228772813809
-0.005513449096989967,-0.1726415961198158
-0.005513109096989967,-0.1678033031299047
-0.005512769096989966,-0.1627346152356941
-0.005512429096989967,-0.1587849883051473
-0.005512089096989967,-0.1534859055066636
-0.005511749096989966,-0.1457183058765881
-0.005511409096989967,-0.1413737162529865
-0.005511069096989967,-0.134428955566775
-0.005510729096989966,-0.1294260947880823
-0.005510389096989966,-0.1247852831446898
-0.005510049096989967,-0.1202761257323154
-0.005509709096989966,-0.1164910665905414
-0.005509369096989966,-0.1131667972573311
-0.005509029096989967,-0.1102045770594209
-0.005508689096989966,-0.1054321111850068
-0.005508349096989966,-0.1035560383930004
-0.005508009096989967,-0.09980389280898092
-0.005507669096989966,-0.0964137963602554
-0.005507329096989966,-0.0930566134692967
-0.005506989096989967,-0.09101597288851415
-0.005506649096989966,-0.08653972903389062
-0.005506309096989966,-0.08446617489535729
-0.005505969096989967,-0.08677012393817629
-0.005505629096989966,-0.07791637690219588
-0.005505289096989966,-0.07541494651285408
-0.005504949096989967,-0.07278186189248953
-0.005504609096989966,-0.06972090102132168
-0.005504269096989966,-0.07301225679677142
-0.005503929096989967,-0.07258438054596217
-0.005503589096989966,-0.0671865570742093
-0.005503249096989966,-0.06415850976079557
-0.005502909096989967,-0.06290779456612239
-0.005502569096989966,-0.05915564898209527
-0.005502229096989966,-0.05497562714727412
-0.005501889096989967,-0.05168427137181841
-0.005501549096989966,-0.04921575454022178
-0.005501209096989966,-0.0465497563621075
-0.005500869096989967,-0.04625353434231649
-0.005500529096989966,-0.04552943607171756
-0.005500189096989966,-0.04625353434231649
-0.005499849096989967,-0.04582565809150724
-0.005499509096989967,-0.04477242424336333
-0.005499169096989966,-0.04523321405192522
-0.005498829096989967,-0.04246847520054242
-0.005498489096989967,-0.04174437692994348
-0.005498149096989966,-0.03851884826999557
-0.005497809096989967,-0.03809097201918633
-0.005497469096989967,-0.03746561442185088
-0.005497129096989966,-0.0363465534581948
-0.005496789096989967,-0.03545788739882176
-0.005496449096989967,-0.0361819856694207
-0.005496109096989966,-0.03614907211166746
-0.005495769096989967,-0.03052085373563819
-0.005495429096989967,-0.04302800568234714
-0.005495089096989966,-0.0328906298939663
-0.005494749096989967,-0.03246275364315706
-0.005494409096989967,-0.03782766355714012
-0.005494069096989966,-0.03509583826352163
-0.005493729096989967,-0.03308811124049365
-0.005493389096989967,-0.03371346883782909
-0.005493049096989966,-0.0328906298939663
-0.005492709096989967,-0.02792068267302818
-0.005492369096989967,-0.0277232013265012
-0.005492029096989966,-0.02703201661365514
-0.005491689096989967,-0.02594586920775475
-0.005491349096989967,-0.0265712268050902
-0.005491009096989966,-0.02630791834305488
-0.005490669096989967,-0.02736115219120071
-0.005490329096989967,-0.02676870815161868
-0.005489989096989966,-0.02617626411203666
-0.005489649096989966,-0.02466224045532703
-0.005489309096989967,-0.02462932689757247
-0.005488969096989966,-0.02400396930023588
-0.005488629096989966,-0.02242411852801714
-0.005488289096989967,-0.02123923044885309
-0.005487949096989966,-0.02166710669966036
-0.005487609096989966,-0.02058095929376194
-0.005487269096989967,-0.0206138728515165
-0.005486929096989966,-0.01965937967663219
-0.005486589096989966,-0.01847449159747029
-0.005486249096989967,-0.01959355256112523
-0.005485909096989966,-0.02334569814513553
-0.005485569096989966,-0.01827701025094295
-0.005485229096989967,-0.01863905938624308
-0.005484889096989966,-0.01725668996055311
-0.005484549096989966,-0.01804661534666105
-0.005484209096989967,-0.02327987102963563
-0.005483869096989966,-0.02153545246863859
-0.005483529096989966,-0.01850740515522485
-0.005483189096989967,-0.02008725592744359
-0.005482849096989966,-0.02041639150498904
-0.005482509096989966,-0.02035056438948005
-0.005482169096989967,-0.01896819496378865
-0.005481829096989966,-0.01906693563705376
-0.005481489096989966,-0.01985686102316169
-0.005481149096989967,-0.01919858986807055
-0.005480809096989966,-0.01778330688462268
-0.005480469096989966,-0.01673007303647877
-0.005480129096989967,-0.01584140697710572
-0.005479789096989966,-0.015183135822015
-0.005479449096989966,-0.01541353072629648
-0.005479109096989967,-0.01439321043590521
-0.005478769096989967,-0.01406407485836024
-0.005478429096989966,-0.01738834419156991
-0.005478089096989967,-0.01659841880546054
-0.005477749096989967,-0.01623636967016107
-0.005477409096989966,-0.01722377640279712
-0.005477069096989967,-0.01702629505626978
-0.005476729096989967,-0.01715794928728777
-0.005476389096989966,-0.01890236784827953
-0.005476049096989967,-0.01646676457444231
-0.005475709096989967,-0.02035056438947298
-0.005475369096989966,-0.01972520679214346
-0.005475029096989967,-0.01366911216530495
-0.005474689096989967,-0.01212217495084358
-0.005474349096989966,-0.01297792745245925
-0.005474009096989967,-0.01712503572953345
-0.005473669096989967,-0.01834283736644985
-0.005473329096989966,-0.01564392563057838
-0.005472989096989967,-0.01557809851506927
-0.005472649096989967,-0.01709212217177614
-0.005472309096989966,-0.01794787467339738
-0.005471969096989967,-0.01821118313543383
-0.005471629096989967,-0.01791496111564336
-0.005471289096989966,-0.01696046794076066
-0.005470949096989967,-0.01801370178890649
-0.005470609096989967,-0.01541353072630121
-0.005470269096989966,-0.01462360534018711
-0.005469929096989967,-0.01452486466692344
-0.005469589096989967,-0.01353745793428673
-0.005469249096989966,-0.014557778224678
-0.005468909096989967,-0.01449195110916888
-0.005468569096989967,-0.01370202572305951
-0.005468229096989966,-0.01465651889794167
-0.005467889096989966,-0.01587432053486028
-0.005467549096989967,-0.01600597476587851
-0.005467209096989966,-0.01485400024446901
-0.005466869096989966,-0.01610471543914218
-0.005466529096989967,-0.01491982735997812
-0.005466189096989966,-0.01472234601344982
-0.005465849096989966,-0.01419572908937787
-0.005465509096989967,-0.01465651889794167
-0.005465169096989966,-0.01768456621134937
-0.005464829096989966,-0.0113322495647314
-0.005464489096989967,-0.01001570725454911
-0.005464149096989966,-0.006263561670532658
-0.005463809096989966,-0.007942153116012016
-0.005463469096989967,-0.01268170543266824
-0.005463129096989966,-0.01383367995407487
-0.005462789096989966,-0.012253829181859
-0.005462449096989967,-0.01554518495731471
-0.005462109096989966,-0.0188036271750161
-0.005461769096989966,-0.01893528140603409
-0.005461429096989967,-0.01949481188786156
-0.005461089096989966,-0.01738834419156895
-0.005460749096989966,-0.01686172726749699
-0.005460409096989967,-0.01696046794076066
-0.005460069096989966,-0.0156768391883303
-0.005459729096989966,-0.01422864264713243
-0.005459389096989967,-0.01554518495731471
-0.005459049096989966,-0.01626928322791472
-0.005458709096989966,-0.01613762899689674
-0.005458369096989967,-0.01742125774932446
-0.005458029096989966,-0.01597306120812353
-0.005457689096989966,-0.01574266630384205
-0.005457349096989967,-0.01574266630384205
-0.005457009096989967,-0.01538061716854258
-0.005456669096989966,-0.0129450138947047
-0.005456329096989967,-0.0138665935118323
-0.005455989096989967,-0.01255005120165241
-0.005455649096989966,-0.0124842240861409
-0.005455309096989967,-0.01310958168347748
-0.005454969096989967,-0.01508439514874732
-0.005454629096989966,-0.01607180188138762
-0.005454289096989967,-0.01251713764389546
-0.005453949096989967,-0.01205634783533249
-0.005453609096989966,-0.0115626444690133
-0.005453269096989967,-0.01264879187491368
-0.005452929096989967,-0.01784913400012425
-0.005452589096989966,-0.01949481188786156
-0.005452249096989967,-0.01735543063381535
-0.005451909096989967,-0.01900110852154021
-0.005451569096989966,-0.01893528140603409
-0.005451229096989967,-0.01659841880546054
-0.005450889096989967,-0.01544644428405313
-0.005450549096989966,-0.01024610215883101
-0.005450209096989967,-0.01126642244922228
-0.005449869096989967,-0.01192469360431223
-0.005449529096989966,-0.01189178004655887
-0.005449189096989967,-0.01120059533371317
-0.005448849096989967,-0.01255005120164756
-0.005448509096989966,-0.0136361986075504
-0.005448169096989967,-0.01304375456796837
-0.005447829096989967,-0.01422864264713243
-0.005447489096989966,-0.01330706303000483
-0.005447149096989966,-0.01396533418509597
-0.005446809096989967,-0.01452486466692344
-0.005446469096989966,-0.01554518495731471
-0.005446129096989966,-0.01403116130060508
-0.005445789096989967,-0.01399824774285052
-0.005445449096989966,-0.01544644428404505
-0.005445109096989966,-0.01215508850859533
-0.005444769096989967,-0.01258296475940457
-0.005444429096989966,-0.0152489629375231
-0.005444089096989966,-0.01491982735997812
-0.005443749096989967,-0.009686571677003543
-0.005443409096989966,-0.01182595293104497
-0.005443069096989966,-0.009192868310685188
-0.005442729096989967,-0.01222091562410444
-0.005442389096989966,-0.01538061716853671
-0.005442049096989966,-0.01251713764389546
-0.005441709096989967,-0.01060815129413114
-0.005441369096989966,-0.01199052071982434
-0.005441029096989966,-0.01297792745245925
-0.005440689096989967,-0.01274753254817735
-0.005440349096989966,-0.0135703714920411
-0.005440009096989966,-0.01347163081877761
-0.005439669096989967,-0.01297792745245925
-0.005439329096989966,-0.0145248646669223
-0.005438989096989966,-0.01389950706958685
-0.005438649096989967,-0.01212217495084077
-0.005438309096989966,-0.01231965629737075
-0.005437969096989966,-0.01376785283856862
-0.005437629096989967,-0.01330706303000483
-0.005437289096989966,-0.01439321043590665
-0.005436949096989966,-0.01518313582201458
-0.005436609096989967,-0.01551227139956015
-0.005436269096989967,-0.01656550524770406
-0.005435929096989966,-0.01538061716854192
-0.005435589096989967,-0.01287918677919558
-0.005435249096989967,-0.01241839697063262
-0.005434909096989966,-0.01357037149204128
-0.005434569096989967,-0.01324123591449571
-0.005434229096989967,-0.01478817312895708
-0.005433889096989966,-0.02091009487130752
-0.005433549096989967,-0.01824409669318839
-0.005433209096989967,-0.01264879187492386
-0.005432869096989966,-0.01738834419156991
-0.005432529096989967,-0.0185403187129794
-0.005432189096989967,-0.01465651889794873
-0.005431849096989966,-0.01498565447548724
-0.005431509096989967,-0.01534770361078737
-0.005431169096989967,-0.01445903755141594
-0.005430829096989966,-0.01396533418509597
-0.005430489096989967,-0.01580849341935116
-0.005430149096989967,-0.01561101207282418
-0.005429809096989966,-0.01521604937976914
-0.005429469096989967,-0.01590723409261484
-0.005429129096989967,-0.0139653341850995
-0.005428789096989966,-0.01380076639632318
-0.005428449096989967,-0.01445903755141432
-0.005428109096989967,-0.0123525698551265
-0.005427769096989966,-0.01199052071982254
-0.005427429096989967,-0.01176012581554064
-0.005427089096989967,-0.0120234342775771
-0.005426749096989966,-0.01297792745245925
-0.005426409096989966,-0.01278044610593191
-0.005426069096989967,-0.01304375456796837
-0.005425729096989966,-0.01429446976264154
-0.005425389096989966,-0.01554518495731471
-0.005425049096989967,-0.01551227139956015
-0.005424709096989966,-0.01528187649527825
-0.005424369096989966,-0.01712503572953345
-0.005424029096989967,-0.01610471543914218
-0.005423689096989966,-0.01455777822467644
-0.005423349096989966,-0.01370202572305951
-0.005423009096989967,-0.0134058037032685
-0.005422669096989966,-0.01202343427757638
-0.005422329096989966,-0.01162847158452241
-0.005421989096989967,-0.01136516312248596
-0.005421649096989966,-0.01126642244922438
-0.005421309096989966,-0.01241839697063178
-0.005420969096989967,-0.01264879187491368
-0.005420629096989966,-0.0121550885085964
-0.005420289096989966,-0.01274753254817735
-0.005419949096989967,-0.01406407485835964
-0.005419609096989966,-0.01389950706958823
-0.005419269096989966,-0.01465651889794167
-0.005418929096989967,-0.01478817312895989
-0.005418589096989966,-0.01406407485835976
-0.005418249096989966,-0.01412990197386875
-0.005417909096989967,-0.014557778224678
-0.005417569096989966,-0.01297792745245824
-0.005417229096989966,-0.01241839697063178
-0.005416889096989967,-0.01238548341287723
-0.005416549096989966,-0.01162847158452379
-0.005416209096989966,-0.01238548341287723
-0.005415869096989967,-0.01347163081877761
-0.005415529096989966,-0.01363619860755088
