Analysis/files/cmb03_d2s01/wrd12_ch20.csv

#Digilent WaveForms Oscilloscope Acquisition
#Device Name: ADP3450
#Serial Number: SN:210018B9D9B0
#Date Time: 2024-08-12 11:27:27.677.192.350
#Sample rate: 2.94118e+06Hz
#Samples: 32768
#Trigger: Source: Channel 3 Type: Edge Condition: Rising Level: 60 mV Hyst.: Auto HoldOff: 0 s
#Channel 3: Range: 200 mV/div Offset: 0 V Attenuation: 1 X Coupling: DC Bandwidth: 0 Hz Sample Mode: Average

Time (s),Channel 3 (V)
-0.005570365406091371,0.003050975174010056
-0.005570025406091371,0.0009115939199632459
-0.005569685406091371,0.0005824583424182735
-0.005569345406091371,0.000714112573436502
-0.005569005406091371,5.584141834691646e-05
-0.005568665406091371,0.0009115939199638446
-0.005568325406091371,-0.000832824641027682
-0.005567985406091371,-0.000174553485932828
-0.005567645406091371,0.001866087094846001
-0.005567305406091371,0.001405297286282201
-0.005566965406091371,0.0002533227648727025
-0.005566625406091371,0.0002533227648727025
-0.005566285406091371,0.0001545820916090312
-0.005565945406091371,0.0006811990156791909
-0.005565605406091371,-0.000832824641027682
-0.005565265406091371,-0.002182280508964523
-0.005564925406091371,-0.003202600799356093
-0.005564585406091371,-0.00336716858812858
-0.005564245406091371,-0.004321661763010735
-0.005563905406091371,-0.009094127637427502
-0.005563565406091371,-0.01238548341287723
-0.005563225406091371,-0.003005119452828451
-0.005562885406091372,-0.004881192244834794
-0.005562545406091371,-0.01024610215883101
-0.005562205406091371,-0.008633337828857716
-0.005561865406091372,-0.005111587149126512
-0.005561525406091371,-0.006362302343793276
-0.005561185406091371,-0.006724351479093405
-0.005560845406091371,-0.006131907439512453
-0.005560505406091371,-0.006329388786038719
-0.005560165406091371,-0.005276154937892892
-0.005559825406091371,-0.006559783690318284
-0.005559485406091371,-0.009028300521912402
-0.005559145406091371,-0.008764992059875945
-0.005558805406091371,-0.007547190422959547
-0.005558465406091371,-0.009291608983948858
-0.005558125406091371,-0.01037775638984924
-0.005557785406091371,-0.01064106485188522
-0.005557445406091371,-0.01189178004655887
-0.005557105406091371,-0.01004862081230367
-0.005556765406091371,-0.01149681735350155
-0.005556425406091371,-0.01011444792781279
-0.005556085406091371,-0.01123350889146773
-0.005555745406091371,-0.00991696658128784
-0.005555405406091371,-0.01073980552514937
-0.005555065406091371,-0.01212217495084077
-0.005554725406091371,-0.01268170543266722
-0.005554385406091371,-0.01383367995407774
-0.005554045406091371,-0.01245131052838634
-0.005553705406091371,-0.0127146189904228
-0.005553365406091371,-0.01498565447548724
-0.005553025406091371,-0.01093728687167671
-0.005552685406091371,-0.009522003888230759
-0.005552345406091371,-0.008007980231521132
-0.005552005406091371,-0.008007980231521132
-0.005551665406091371,-0.01050941062086747
-0.005551325406091371,-0.0108714597561646
-0.005550985406091371,-0.009225781868439744
-0.005550645406091371,-0.0101802750433219
-0.005550305406091371,-0.01103602754494356
-0.005549965406091371,-0.01278044610593191
-0.005549625406091371,-0.01228674273961356
-0.005549285406091371,-0.01337289014551681
-0.005548945406091371,-0.01495274091773268
-0.005548605406091371,-0.01511730870650547
-0.005548265406091371,-0.01370202572305993
-0.005547925406091371,-0.01393242062734141
-0.005547585406091371,-0.01373493928081407
-0.005547245406091371,-0.01172721225778399
-0.005546905406091371,-0.01057523773637659
-0.005546565406091371,-0.009324522541703417
-0.005546225406091371,-0.009225781868442379
-0.005545885406091371,-0.01067397840964026
-0.005545545406091371,-0.01159555802676786
-0.005545205406091371,-0.01120059533371778
-0.005544865406091371,-0.01373493928081407
-0.005544525406091371,-0.01564392563057838
-0.005544185406091371,-0.0154135307262969
-0.005543845406091371,-0.01564392563057838
-0.005543505406091371,-0.01485400024446901
-0.005543165406091371,-0.01742125774932428
-0.005542825406091371,-0.01732251707606079
-0.005542485406091371,-0.01060815129413114
-0.005542145406091372,-0.009225781868442258
-0.005541805406091371,-0.007020573498884419
-0.005541465406091371,-0.01083854619841304
-0.005541125406091372,-0.01261587831715589
-0.005540785406091371,-0.01113476821820406
-0.005540445406091371,-0.01139807668024051
-0.005540105406091371,-0.01386659351182781
-0.005539765406091371,-0.01327414947225027
-0.005539425406091371,-0.01449195110916888
-0.005539085406091371,-0.01452486466692338
-0.005538745406091371,-0.01347163081877761
-0.005538405406091371,-0.01422864264713243
-0.005538065406091371,-0.01310958168347952
-0.005537725406091371,-0.01166138514227697
-0.005537385406091371,-0.01044358350535836
-0.005537045406091371,-0.01120059533371179
-0.005536705406091371,-0.01149681735350419
-0.005536365406091371,-0.01195760716206798
-0.005536025406091371,-0.01406407485835581
-0.005535685406091371,-0.01442612399365977
-0.005535345406091371,-0.01863905938624308
-0.005535005406091371,-0.01771747976911715
-0.005534665406091371,-0.01676298659423332
-0.005534325406091371,-0.01679590015198788
-0.005533985406091371,-0.01745417130707783
-0.005533645406091371,-0.01590723409261484
-0.005533305406091371,-0.01528187649527825
-0.005532965406091371,-0.01580849341935116
-0.005532625406091371,-0.02031765083172549
-0.005532285406091371,-0.01570975274608749
-0.005531945406091371,-0.008337115809066702
-0.005531605406091371,-0.009916966581285444
-0.005531265406091371,-0.01001570725454911
-0.005530925406091371,-0.01436029687815065
-0.005530585406091371,-0.01488691380222357
-0.005530245406091371,-0.01162847158452241
-0.005529905406091371,-0.01255005120165001
-0.005529565406091371,-0.01416281553162181
-0.005529225406091371,-0.01333997658775938
-0.005528885406091371,-0.01324123591449571
-0.005528545406091371,-0.01301084101020866
-0.005528205406091371,-0.0101802750433219
-0.005527865406091371,-0.009324522541703417
-0.005527525406091371,-0.00975239879251188
-0.005527185406091371,-0.009324522541703417
-0.005526845406091371,-0.009949880139040001
-0.005526505406091371,-0.01083854619841711
-0.005526165406091371,-0.01307666812572293
-0.005525825406091371,-0.01452486466692344
-0.005525485406091371,-0.0161047154391426
-0.005525145406091371,-0.01633511034342408
-0.005524805406091371,-0.01702629505626978
-0.005524465406091371,-0.0165984188054591
-0.005524125406091371,-0.01580849341935116
-0.005523785406091371,-0.01804661534666105
-0.005523445406091371,-0.02202915583497305
-0.005523105406091371,-0.02785485555751907
-0.005522765406091371,-0.04108610577485102
-0.005522425406091371,-0.06435599110737535
-0.005522085406091371,-0.09318826770031494
-0.005521745406091371,-0.113989636201195
-0.005521405406091371,-0.1457841329921512
-0.005521065406091371,-0.1754721620867077
-0.005520725406091371,-0.2056538945476366
-0.005520385406091372,-0.2327417525795878
-0.005520045406091371,-0.2486719145328427
-0.005519705406091371,-0.2583814140704371
-0.005519365406091372,-0.2676630373572053
-0.005519025406091371,-0.2714810100567508
-0.005518685406091371,-0.2670376797598856
-0.005518345406091371,-0.2627589172518009
-0.005518005406091371,-0.259204253014301
-0.005517665406091371,-0.2525228007901259
-0.005517325406091371,-0.2448868553910825
-0.005516985406091371,-0.2386991065332119
-0.005516645406091371,-0.2312277289229275
-0.005516305406091371,-0.2243487953522375
-0.005515965406091371,-0.2177989973590681
-0.005515625406091371,-0.206740041953537
-0.005515285406091371,-0.1987420474191941
-0.005514945406091371,-0.192916347696623
-0.005514605406091371,-0.1871564750895755
-0.005514265406091371,-0.1802775415188856
-0.005513925406091371,-0.1735302621791888
-0.005513585406091371,-0.1690540183245691
-0.005513245406091371,-0.163491627064059
-0.005512905406091371,-0.1592128645559565
-0.005512565406091371,-0.1535846461799272
-0.005512225406091371,-0.148252649823689
-0.005511885406091371,-0.1475943786685978
-0.005511545406091371,-0.1432497890449963
-0.005511205406091371,-0.1321579200817105
-0.005510865406091371,-0.1279778982468818
-0.005510525406091371,-0.1225800747751344
-0.005510185406091371,-0.1218230629467796
-0.005509845406091371,-0.1201773850590518
-0.005509505406091371,-0.1123439583134672
-0.005509165406091371,-0.1062220365711195
-0.005508825406091371,-0.1025686316603608
-0.005508485406091371,-0.1009887808881449
-0.005508145406091371,-0.09572261164741583
-0.005507805406091371,-0.09305661346929447
-0.005507465406091371,-0.09183881183237808
-0.005507125406091371,-0.09147676269707797
-0.005506785406091371,-0.08887659163446407
-0.005506445406091371,-0.08673721038042173
-0.005506105406091371,-0.08469656979963919
-0.005505765406091371,-0.08061528863807327
-0.005505425406091371,-0.08015449882951031
-0.005505085406091371,-0.07610613122569979
-0.005504745406091371,-0.0739667499716517
-0.005504405406091371,-0.0729464296812623
-0.005504065406091371,-0.07060956708068875
-0.005503725406091371,-0.0669890757276843
-0.005503385406091371,-0.06524465716669595
-0.005503045406091371,-0.06366480639447719
-0.005502705406091371,-0.06047219129228343
-0.005502365406091371,-0.059517698117403
-0.005502025406091371,-0.05833281003823895
-0.005501685406091371,-0.05635799657297151
-0.005501345406091371,-0.05964935234842123
-0.005501005406091371,-0.05550224407134704
-0.005500665406091371,-0.04947906300225938
-0.005500325406091371,-0.04743842242148055
-0.005499985406091371,-0.04605605299578915
-0.005499645406091372,-0.04684597838189708
-0.005499305406091371,-0.04575983097599813
-0.005498965406091371,-0.0425672158738061
-0.005498625406091372,-0.04233682096952461
-0.005498285406091371,-0.04200768539197863
-0.005497945406091371,-0.04227099385401508
-0.005497605406091371,-0.04108610577485318
-0.005497265406091371,-0.03990121769568697
-0.005496925406091371,-0.03993413125344152
-0.005496585406091371,-0.03937460077161507
-0.005496245406091371,-0.03845302115448646
-0.005495905406091371,-0.03779474999939531
-0.005495565406091371,-0.03855176182774876
-0.005495225406091371,-0.03598450432289467
-0.005494885406091371,-0.03552371451433087
-0.005494545406091371,-0.03374638239558803
-0.005494205406091371,-0.03117912489072934
-0.005493865406091371,-0.03163991469929314
-0.005493525406091371,-0.03048794017788573
-0.005493185406091371,-0.02910557075219224
-0.005492845406091371,-0.02801942334629185
-0.005492505406091371,-0.02913848430994476
-0.005492165406091371,-0.0284472995971011
-0.005491825406091371,-0.0270649301714097
-0.005491485406091371,-0.02782194199976313
-0.005491145406091371,-0.02897391652117401
-0.005490805406091371,-0.03203487739234782
-0.005490465406091371,-0.02541925228368184
-0.005490125406091371,-0.02377357439595399
-0.005489785406091371,-0.021765847372926
-0.005489445406091371,-0.02433310487778146
-0.005489105406091371,-0.02808525046180097
-0.005488765406091371,-0.02351026593391753
-0.005488425406091371,-0.02058095929376194
-0.005488085406091371,-0.0252217709371542
-0.005487745406091371,-0.02505720314838171
-0.005487405406091371,-0.02456349978206336
-0.005487065406091371,-0.02449767266655161
-0.005486725406091371,-0.02304947612535373
-0.005486385406091371,-0.02413562353125412
-0.005486045406091371,-0.02426727776226863
-0.005485705406091371,-0.0222266371814898
-0.005485365406091371,-0.02170002025741689
-0.005485025406091371,-0.02054804573600284
-0.005484685406091371,-0.01804661534666105
-0.005484345406091371,-0.01791496111564282
-0.005484005406091371,-0.0173225170760584
-0.005483665406091371,-0.01600597476587851
-0.005483325406091371,-0.01705920861402434
-0.005482985406091371,-0.01830992380869781
-0.005482645406091371,-0.01847449159747029
-0.005482305406091371,-0.01886945429052498
-0.005481965406091371,-0.02146962535313199
-0.005481625406091371,-0.01982394746540713
-0.005481285406091371,-0.01847449159747029
-0.005480945406091371,-0.01834283736645206
-0.005480605406091371,-0.01834283736645206
-0.005480265406091371,-0.02002142881193448
-0.005479925406091371,-0.0125500512016472
-0.005479585406091371,-0.01100311398718583
-0.005479245406091371,-0.009686571677003543
-0.005478905406091372,-0.01389950706957919
-0.005478565406091371,-0.01883654073277042
-0.005478225406091371,-0.01570975274608749
-0.005477885406091372,-0.01439321043590761
-0.005477545406091371,-0.01738834419156991
-0.005477205406091371,-0.01725668996055168
-0.005476865406091371,-0.01551227139956332
-0.005476525406091371,-0.01505148159099635
-0.005476185406091371,-0.01459069178243255
-0.005475845406091371,-0.01449195110916906
-0.005475505406091371,-0.01459069178243255
-0.005475165406091371,-0.01330706303000483
-0.005474825406091371,-0.0147552595712027
-0.005474485406091371,-0.0159401476503694
-0.005474145406091371,-0.01636802390117864
-0.005473805406091371,-0.01626928322791514
-0.005473465406091371,-0.01798078823115194
-0.005473125406091371,-0.01807952890441561
-0.005472785406091371,-0.01988977458091296
-0.005472445406091371,-0.02064678640927106
-0.005472105406091371,-0.01949481188786156
-0.005471765406091371,-0.01890236784828061
-0.005471425406091371,-0.01979103390765257
-0.005471085406091371,-0.01742125774932446
-0.005470745406091371,-0.01488691380222818
-0.005470405406091371,-0.01452486466692344
-0.005470065406091371,-0.01942898477235245
-0.005469725406091371,-0.01505148159099635
-0.005469385406091371,-0.01291210033695014
-0.005469045406091371,-0.01449195110916888
-0.005468705406091371,-0.01337289014551394
-0.005468365406091371,-0.0185403187129794
-0.005468025406091371,-0.01906693563705232
-0.005467685406091371,-0.01436029687815065
-0.005467345406091371,-0.01268170543266824
-0.005467005406091371,-0.01472234601345078
-0.005466665406091371,-0.01192469360431343
-0.005466325406091371,-0.01129933600697762
-0.005465985406091371,-0.01172721225778608
-0.005465645406091371,-0.01136516312248596
-0.005465305406091371,-0.01231965629736931
-0.005464965406091371,-0.01297792745245925
-0.005464625406091371,-0.01218800206634988
-0.005464285406091371,-0.01199052071982715
-0.005463945406091371,-0.01452486466692344
-0.005463605406091371,-0.0131754087989866
-0.005463265406091371,-0.0126158783171602
-0.005462925406091371,-0.01320832235674115
-0.005462585406091371,-0.01307666812572293
-0.005462245406091371,-0.01393242062734201
-0.005461905406091371,-0.01426155620488698
-0.005461565406091371,-0.01297792745245925
-0.005461225406091371,-0.01231965629736997
-0.005460885406091371,-0.01333997658775938
-0.005460545406091371,-0.01452486466692344
-0.005460205406091371,-0.01439321043590802
-0.005459865406091371,-0.0159401476503694
-0.005459525406091371,-0.0236090066071812
-0.005459185406091371,-0.01564392563057814
-0.005458845406091371,-0.01551227139956015
-0.005458505406091371,-0.01547935784180559
-0.005458165406091371,-0.01521604937977662
-0.005457825406091371,-0.01933024409908878
-0.005457485406091371,-0.01857323227073396
-0.005457145406091372,-0.01505148159100276
-0.005456805406091371,-0.01465651889794167
-0.005456465406091371,-0.01587432053486028
-0.005456125406091372,-0.0144590375514169
-0.005455785406091371,-0.01274753254817735
-0.005455445406091371,-0.01350454437653217
-0.005455105406091371,-0.01231965629737027
-0.005454765406091371,-0.01238548341287723
-0.005454425406091371,-0.01208926139308621
-0.005454085406091371,-0.0121880020663497
-0.005453745406091371,-0.01060815129413114
-0.005453405406091371,-0.01215508850859533
-0.005453065406091371,-0.01116768177596041
-0.005452725406091371,-0.01031192927434013
-0.005452385406091371,-0.0113322495647314
-0.005452045406091371,-0.01120059533371341
-0.005451705406091371,-0.01185886648880431
-0.005451365406091371,-0.01307666812572293
-0.005451025406091371,-0.01518313582201075
-0.005450685406091371,-0.01429446976264154
-0.005450345406091371,-0.01607180188138762
-0.005450005406091371,-0.01850740515522042
-0.005449665406091371,-0.01705920861402434
-0.005449325406091371,-0.02018599660070726
-0.005448985406091371,-0.02140379823762366
-0.005448645406091371,-0.01472234601345078
-0.005448305406091371,-0.01422864264713243
-0.005447965406091371,-0.01281335966368647
-0.005447625406091371,-0.01518313582201458
-0.005447285406091371,-0.01745417130707902
-0.005446945406091371,-0.01567683918833294
-0.005446605406091371,-0.01472234601345078
-0.005446265406091371,-0.01439321043590521
-0.005445925406091371,-0.01498565447548724
-0.005445585406091371,-0.009949880139043953
-0.005445245406091371,-0.01212217495084077
-0.005444905406091371,-0.01245131052838634
-0.005444565406091371,-0.01215508850859455
-0.005444225406091371,-0.01172721225778608
-0.005443885406091371,-0.01182595293104976
-0.005443545406091371,-0.01287918677919427
-0.005443205406091371,-0.01215508850859533
-0.005442865406091371,-0.01287918677919558
-0.005442525406091371,-0.01426155620488315
-0.005442185406091371,-0.01215508850859533
-0.005441845406091371,-0.01426155620488698
-0.005441505406091371,-0.01584140697710548
-0.005441165406091371,-0.01570975274608749
-0.005440825406091371,-0.01584140697710572
-0.005440485406091371,-0.01755291198034114
-0.005440145406091371,-0.01669715947872421
-0.005439805406091371,-0.01488691380222357
-0.005439465406091371,-0.01472234601344803
-0.005439125406091371,-0.01320832235674115
-0.005438785406091371,-0.01689464082525155
-0.005438445406091371,-0.01090437331391204
-0.005438105406091371,-0.005341982053402005
-0.005437765406091371,-0.00962074456149443
-0.005437425406091371,-0.01271461899041956
-0.005437085406091371,-0.01093728687167671
-0.005436745406091371,-0.01126642244922228
-0.005436405406091372,-0.01327414947224662
-0.005436065406091371,-0.01554518495731471
-0.005435725406091371,-0.0143273833203961
-0.005435385406091372,-0.01594014765036646
-0.005435045406091371,-0.01584140697710572
-0.005434705406091371,-0.01393242062734141
-0.005434365406091371,-0.01455777822467686
-0.005434025406091371,-0.01465651889794167
-0.005433685406091371,-0.01297792745245925
-0.005433345406091371,-0.01225382918186031
-0.005433005406091371,-0.01228674273961356
-0.005432665406091371,-0.01215508850859533
-0.005432325406091371,-0.01294501389470326
-0.005431985406091371,-0.01393242062734141
-0.005431645406091371,-0.01228674273961356
-0.005431305406091371,-0.01465651889793736
-0.005430965406091371,-0.01626928322791496
-0.005430625406091371,-0.01498565447548724
-0.005430285406091371,-0.0141957290893793
-0.005429945406091371,-0.01465651889794167
-0.005429605406091371,-0.01310958168347748
-0.005429265406091371,-0.01060815129413569
-0.005428925406091371,-0.01139807668024051
-0.005428585406091371,-0.009423263214967087
-0.005428245406091371,-0.0116284715845184
-0.005427905406091371,-0.007382622634184546
-0.005427565406091371,-0.009752398792512659
-0.005427225406091371,-0.007053487056638975
-0.005426885406091371,-0.009456176772721644
-0.005426545406091371,-0.01610471543914218
-0.005426205406091371,-0.01327414947225027
-0.005425865406091371,-0.01139807668024051
-0.005425525406091371,-0.01360328504979584
-0.005425185406091371,-0.01195760716206798
-0.005424845406091371,-0.01258296475940457
-0.005424505406091371,-0.01373493928081407
-0.005424165406091371,-0.01426155620488698
-0.005423825406091371,-0.01508439514875342
-0.005423485406091371,-0.01646676457444231
-0.005423145406091371,-0.01653259168995142
-0.005422805406091371,-0.01633511034342839
-0.005422465406091371,-0.01870488650175219
-0.005422125406091371,-0.01794787467339738
-0.005421785406091371,-0.01830992380869888
-0.005421445406091371,-0.01906693563705232
-0.005421105406091371,-0.01844157803971573
-0.005420765406091371,-0.01646676457444369
-0.005420425406091371,-0.01722377640279712
-0.005420085406091371,-0.01561101207282382
-0.005419745406091371,-0.01439321043590575
-0.005419405406091371,-0.01468943245569622
-0.005419065406091371,-0.01333997658775938
-0.005418725406091371,-0.0120234342775759
-0.005418385406091371,-0.01136516312248596
-0.005418045406091371,-0.01544644428405104
-0.005417705406091371,-0.01301084101020477
-0.005417365406091371,-0.008040893789275689
-0.005417025406091371,-0.008732078502121389
-0.005416685406091371,-0.00662561080584033
-0.005416345406091371,-0.01245131052838634
-0.005416005406091371,-0.01482108668671445
-0.005415665406091371,-0.01103602754494182
