Analysis/files/cmb03_d2s01/wrd12_ch06.csv

#Digilent WaveForms Oscilloscope Acquisition
#Device Name: ADP3450
#Serial Number: SN:210018B9D9B0
#Date Time: 2024-08-12 11:11:12.060.588.840
#Sample rate: 2.94118e+06Hz
#Samples: 32768
#Trigger: Source: Channel 3 Type: Edge Condition: Rising Level: 60 mV Hyst.: Auto HoldOff: 0 s
#Channel 3: Range: 200 mV/div Offset: 0 V Attenuation: 1 X Coupling: DC Bandwidth: 0 Hz Sample Mode: Average

Time (s),Channel 3 (V)
-0.005570227266591676,0.01809247106784265
-0.005569887266591676,0.01796081683682251
-0.005569547266591676,0.0169075829886786
-0.005569207266591676,0.0148340288501415
-0.005568867266591676,0.01295795605812923
-0.005568527266591676,0.01157558663244035
-0.005568187266591676,0.01285921538486808
-0.005567847266591676,0.01440615259932855
-0.005567507266591676,0.01236551201854972
-0.005567167266591676,0.01308961028914997
-0.005566827266591676,0.01312252384690591
-0.005566487266591676,0.01387953567525935
-0.005566147266591676,0.01210220355651326
-0.005565807266591676,0.01299086961588523
-0.005565467266591676,0.01239842557630427
-0.005565127266591676,0.01174015442121313
-0.005564787266591676,0.01299086961587624
-0.005564447266591676,0.007461391913120709
-0.005564107266591676,0.008481712203511979
-0.005563767266591676,0.01364914077097757
-0.005563427266591676,0.01371496788648656
-0.005563087266591676,0.01262882048058617
-0.005562747266591677,0.008514625761274021
-0.005562407266591676,0.00653981229599311
-0.005562067266591676,0.007823441048420837
-0.005561727266591677,0.008580452876774274
-0.005561387266591676,0.007296824124347924
-0.005561047266591676,0.007823441048420837
-0.005560707266591676,0.007889268163929831
-0.005560367266591676,0.009337464705130465
-0.005560027266591676,0.006013195371920196
-0.005559687266591676,0.006013195371920196
-0.005559347266591676,0.004959961523774369
-0.005559007266591676,0.003840900560119427
-0.005558667266591676,0.004071295464400908
-0.005558327266591676,0.004696653061737912
-0.005557987266591676,0.004367517484192341
-0.005557647266591676,0.004235863253174352
-0.005557307266591676,0.006144849602938425
-0.005556967266591676,0.004959961523774369
-0.005556627266591676,0.004894134408265374
-0.005556287266591676,0.005354924216829054
-0.005555947266591676,0.006441071622729439
-0.005555607266591676,0.005749886909884996
-0.005555267266591676,0.005322010659074497
-0.005554927266591676,0.005651146236620068
-0.005554587266591676,0.004532085272967162
-0.005554247266591676,0.003314283636046514
-0.005553907266591676,-0.0008657381987822392
-0.005553567266591676,0.005881541140901968
-0.005553227266591676,0.00677020720027501
-0.005552887266591676,0.009469118936148692
-0.005552547266591676,0.006671466527011338
-0.005552207266591676,0.002985148058500942
-0.005551867266591676,0.005980281814165639
-0.005551527266591676,0.00528909710131994
-0.005551187266591676,0.0042358632531704
-0.005550847266591676,0.002195222672391572
-0.005550507266591676,0.002228136230146129
-0.005550167266591676,0.001471124401788801
-0.005549827266591676,8.875497609991696e-05
-0.005549487266591676,0.0003520634381363738
-0.005549147266591676,0.0002862363226302531
-0.005548807266591676,0.001931914210355115
-0.005548467266591676,0.001043248150982073
-0.005548127266591676,0.001504037959548507
-0.005547787266591676,0.002952234500746385
-0.005547447266591676,0.003314283636046514
-0.005547107266591676,0.002293963345656441
-0.005546767266591676,0.002952234500746385
-0.005546427266591676,0.001701519306073215
-0.005546087266591676,0.001174902382001978
-0.005545747266591676,0.002096481999127901
-0.005545407266591676,0.002096481999127901
-0.005545067266591676,0.001602778632811759
-0.005544727266591676,0.002820580269728157
-0.005544387266591676,0.004433344599701455
-0.005544047266591676,0.003215542962776257
-0.005543707266591676,-0.0004049483902184396
-0.005543367266591676,0.003083888731764614
-0.005543027266591676,0.007757613932904897
-0.005542687266591676,0.004005468348892213
-0.005542347266591676,0.002458531134428029
-0.005542007266591677,0.003906727675625907
-0.005541667266591676,0.002985148058500942
-0.005541327266591676,0.001701519306073215
-0.005540987266591677,0.0001216685338573478
-0.005540647266591676,0.0003849769958909309
-0.005540307266591676,-0.002939292337319337
-0.005539967266591676,-0.004584970225044199
-0.005539627266591676,-0.004255834647501621
-0.005539287266591676,-0.002939292337319337
-0.005538947266591676,-0.003564649934654785
-0.005538607266591676,-0.003729217723428708
-0.005538267266591676,-0.001458182238364267
-0.005537927266591676,-0.0002074670436933721
-0.005537587266591676,-0.0001745534859365399
-0.005537247266591676,-0.0003062077169547683
-0.005536907266591676,0.005058702197028282
-0.005536567266591676,0.004202949695419555
-0.005536227266591676,0.007263910566593366
-0.005535887266591676,0.006079022487431466
-0.005535547266591676,0.00130655661301853
-0.005535207266591676,0.004202949695419555
-0.005534867266591676,0.004992875081527489
-0.005534527266591676,0.002162309114637015
-0.005534187266591676,0.001569865075054987
-0.005533847266591676,0.002754753154216887
-0.005533507266591676,0.00677020720027501
-0.005533167266591676,-0.00188605848917351
-0.005532827266591676,0.001372383728527644
-0.005532487266591676,0.0003191498803818167
-0.005532147266591676,0.0003191498803818167
-0.005531807266591676,0.0003849769958909309
-0.005531467266591676,-0.0005036890634821109
-0.005531127266591676,-0.0006353432945003394
-0.005530787266591676,-0.002050626277946295
-0.005530447266591676,-0.003762131281183265
-0.005530107266591676,-0.004617883782801749
-0.005529767266591676,-0.003301341472619465
-0.005529427266591676,-0.003268427914865507
-0.005529087266591676,-0.003597563492410479
-0.005528747266591676,-0.001227787334082367
-0.005528407266591676,-0.0004049483902167633
-0.005528067266591676,0.0005166312269091594
-0.005527727266591676,0.002030654883618786
-0.005527387266591676,-0.001161960218574031
-0.005527047266591676,-0.001589836469382495
-0.005526707266591676,0.00380798700236487
-0.005526367266591676,0.004630825946228857
-0.005526027266591676,0.004663739503983355
-0.005525687266591676,0.002129395556882458
-0.005525347266591676,-0.0008986517565332041
-0.005525007266591676,0.00107616170873663
-0.005524667266591676,0.002359790461164357
-0.005524327266591676,0.00124072949750726
-0.005523987266591676,5.584141834535986e-05
-0.005523647266591676,-0.001688577142646167
-0.005523307266591676,-0.003136773683862066
-0.005522967266591676,-0.01159555802676786
-0.005522627266591676,-0.02597878276550931
-0.005522287266591676,-0.04589148520706653
-0.005521947266591676,-0.07347304660533521
-0.005521607266591676,-0.1028977672379093
-0.005521267266591676,-0.1345606097978487
-0.005520927266591676,-0.1650714778362677
-0.005520587266591676,-0.1924884714458137
-0.005520247266591677,-0.2113808535968952
-0.005519907266591676,-0.2282984222827719
-0.005519567266591676,-0.2399827352856396
-0.005519227266591676,-0.2457096943349222
-0.005518887266591676,-0.2471578908761331
-0.005518547266591676,-0.2451172502953505
-0.005518207266591676,-0.2407397471140024
-0.005517867266591676,-0.235572318546529
-0.005517527266591676,-0.2299770137282543
-0.005517187266591676,-0.2223081547714564
-0.005516847266591676,-0.2187864040917049
-0.005516507266591676,-0.2105580146530656
-0.005516167266591676,-0.2004864659801894
-0.005515827266591676,-0.1928176070233593
-0.005515487266591676,-0.1870248208585572
-0.005515147266591676,-0.184095514218407
-0.005514807266591676,-0.1787635178621634
-0.005514467266591676,-0.1692185861133418
-0.005514127266591676,-0.1631954050442689
-0.005513787266591676,-0.1553619782986733
-0.005513447266591676,-0.1478906006883889
-0.005513107266591676,-0.1427231721209328
-0.005512767266591676,-0.1359100656657301
-0.005512427266591676,-0.1323224878704833
-0.005512087266591676,-0.1267930101677177
-0.005511747266591676,-0.1234358272767529
-0.005511407266591676,-0.1191241512109059
-0.005511067266591676,-0.1170176835146143
-0.005510727266591676,-0.1115211193696032
-0.005510387266591676,-0.1078348009010928
-0.005510047266591676,-0.1060574687823468
-0.005509707266591676,-0.09963932502020811
-0.005509367266591676,-0.09667710482229797
-0.005509027266591676,-0.09368197106663328
-0.005508687266591676,-0.08983108480934189
-0.005508347266591676,-0.08532192739697578
-0.005508007266591676,-0.08311671902742046
-0.005507667266591676,-0.0801215852717491
-0.005507327266591676,-0.07646818036099992
-0.005506987266591676,-0.0754807736283632
-0.005506647266591676,-0.07630361257221424
-0.005506307266591676,-0.06922719765499735
-0.005505967266591676,-0.06425725043405922
-0.005505627266591676,-0.06145959802491595
-0.005505287266591676,-0.05820115580722072
-0.005504947266591676,-0.05974809302168491
-0.005504607266591676,-0.05839863715373567
-0.005504267266591676,-0.05158553069855474
-0.005503927266591676,-0.05102600021672727
-0.005503587266591676,-0.05003859348408721
-0.005503247266591676,-0.04819543424983536
-0.005502907266591676,-0.04592439876477092
-0.005502567266591676,-0.04615479366904809
-0.005502227266591676,-0.04355462260644281
-0.005501887266591676,-0.04174437692994216
-0.005501547266591676,-0.03983539058017223
-0.005501207266591676,-0.03674151615124949
-0.005500867266591676,-0.03414134508863947
-0.005500527266591676,-0.0318373960458182
-0.005500187266591676,-0.03058668085114731
-0.005499847266591676,-0.0284472995971011
-0.005499507266591677,-0.02940179277198152
-0.005499167266591676,-0.0277561148842554
-0.005498827266591676,-0.02801942334629185
-0.005498487266591677,-0.02920431142545375
-0.005498147266591676,-0.02867769450138299
-0.005497807266591676,-0.0277561148842554
-0.005497467266591676,-0.02736115219120143
-0.005497127266591676,-0.02630791834305488
-0.005496787266591676,-0.02416853708900867
-0.005496447266591676,-0.02640665901631448
-0.005496107266591676,-0.02851312671261021
-0.005495767266591676,-0.02163419314190777
-0.005495427266591676,-0.0214037982376263
-0.005495087266591676,-0.02077844064028929
-0.005494747266591676,-0.01847449159747029
-0.005494407266591676,-0.0207784406402851
-0.005494067266591676,-0.01972520679214346
-0.005493727266591676,-0.01561101207282382
-0.005493387266591676,-0.0158743205348598
-0.005493047266591676,-0.01682881370974244
-0.005492707266591676,-0.01745417130707902
-0.005492367266591676,-0.01620345611240813
-0.005492027266591676,-0.01765165265360636
-0.005491687266591676,-0.01521604937976914
-0.005491347266591676,-0.01518313582201464
-0.005491007266591676,-0.01564392563057838
-0.005490667266591676,-0.01360328504979584
-0.005490327266591676,-0.01327414947225027
-0.005489987266591676,-0.01284627322144103
-0.005489647266591676,-0.01281335966368647
-0.005489307266591676,-0.009587831003739873
-0.005488967266591676,-0.01090437331392216
-0.005488627266591676,-0.008205461578048474
-0.005488287266591676,-0.008666251386612273
-0.005487947266591676,-0.01245131052838053
-0.005487607266591676,-0.009258695426194301
-0.005487267266591676,-0.01021318860107646
-0.005486927266591676,-0.008468770040083074
-0.005486587266591676,-0.007448449749693661
-0.005486247266591676,-0.008797905617630502
-0.005485907266591676,-0.01139807668022674
-0.005485567266591676,-0.003827958396692379
-0.005485227266591676,-0.002478502528755537
-0.005484887266591676,-0.002675983875284496
-0.005484547266591676,-0.003564649934655922
-0.005484207266591676,-0.007547190422957332
-0.005483867266591676,-0.006790178594600064
-0.005483527266591676,-0.005440722726665677
-0.005483187266591676,-0.00665852436358429
-0.005482847266591676,-0.006395215901547235
-0.005482507266591676,-0.006066080324002262
-0.005482167266591676,-0.004782451571574535
-0.005481827266591676,-0.004091266858728118
-0.005481487266591676,-0.00369630416567415
-0.005481147266591676,-0.002215194066719081
-0.005480807266591676,-0.001886058489175425
-0.005480467266591676,-0.002939292337319337
-0.005480127266591676,-0.002741810990791994
-0.005479787266591676,-0.002412675413250075
-0.005479447266591676,-0.004420402436274407
-0.005479107266591676,-0.005802771861965805
-0.005478767266591677,-0.006296475228283264
-0.005478427266591676,-0.007777585327239231
-0.005478087266591676,-0.007613017538466446
-0.005477747266591677,-0.005440722726669628
-0.005477407266591676,-0.005671117630947577
-0.005477067266591676,-0.005473636284420234
-0.005476727266591676,-0.003564649934659395
-0.005476387266591676,-0.003827958396692379
-0.005476047266591676,-0.004716624456065421
-0.005475707266591676,-0.005012846475855896
-0.005475367266591676,-0.002972205895073894
-0.005475027266591676,0.001240729497509416
-0.005474687266591676,0.002359790461162322
-0.005474347266591676,0.003445937867064742
-0.005474007266591676,-0.0009644788720459105
-0.005473667266591676,-0.003202600799351723
-0.005473327266591676,-0.0003062077169547683
-0.005472987266591676,-4.289925491831147e-05
-0.005472647266591676,-0.0008657381987807424
-0.005472307266591676,0.00107616170873663
-0.005471967266591676,0.0006811990156819448
-0.005471627266591676,0.001010334593226917
-0.005471287266591676,0.001141988824245744
-0.005470947266591676,-0.0003391212747093254
-0.005470607266591676,-0.001425268680607734
-0.005470267266591676,-0.00165566358489161
-0.005469927266591676,-0.002248107624473638
-0.005469587266591676,-0.004486229551783521
-0.005469247266591676,-0.003005119452828451
-0.005468907266591676,-0.002281021182228195
-0.005468567266591676,-0.002215194066719081
-0.005468227266591676,-0.0005366026212366681
-0.005467887266591676,-0.00188605848917351
-0.005467547266591676,-0.001984799162437181
-0.005467207266591676,-0.001984799162437181
-0.005466867266591676,-0.00188605848917351
-0.005466527266591676,-0.003202600799355794
-0.005466187266591676,-0.0007011704100081963
-0.005465847266591676,-9.985697163754359e-06
-0.005465507266591676,-0.002577243202019209
-0.005465167266591676,-0.004519143109525984
-0.005464827266591676,0.002129395556882458
-0.005464487266591676,0.002754753154219042
-0.005464147266591676,0.001668605748319137
-0.005463807266591676,0.001931914210355115
-0.005463467266591676,-0.001721490700400724
-0.005463127266591676,-0.0004707755057233031
-0.005462787266591676,0.001866087094846001
-0.005462447266591676,-0.0009315653142913533
-0.005462107266591676,0.0001545820916093904
-0.005461767266591676,0.0003520634381363738
-0.005461427266591676,0.0001874956493635883
-0.005461087266591676,-0.001194873776325356
-0.005460747266591676,0.0001545820916090312
-0.005460407266591676,-0.0006024297367457822
-0.005460067266591676,-0.0005036890634792971
-0.005459727266591676,0.001043248150982073
-0.005459387266591676,-0.0007999110832731249
-0.005459047266591676,-0.0005366026212339141
-0.005458707266591676,0.0009774210354729588
-0.005458367266591676,0.00130655661301853
-0.005458027266591676,-0.0002732941591973973
-0.005457687266591676,0.001273643055263973
-0.005457347266591676,0.001109075266491187
-0.005457007266591677,-0.0005036890634791773
-0.005456667266591676,0.002754753154219042
-0.005456327266591676,0.002754753154219042
-0.005455987266591677,0.001635692190566136
-0.005455647266591676,0.00153695151730043
-0.005455307266591676,0.0009445074777184018
-0.005454967266591676,-0.004848278687073112
-0.005454627266591676,0.0008786803622092876
-0.005454287266591676,0.001800259979336887
-0.005453947266591676,0.001010334593228953
-0.005453607266591676,0.001569865075054987
-0.005453267266591676,-0.00267598387528288
-0.005452927266591676,-0.002873465221809863
-0.005452587266591676,-0.0005036890634821109
-0.005452247266591676,0.0005166312269091594
-0.005451907266591676,0.0002204092071186843
-0.005451567266591676,0.0008457668044547304
-0.005451227266591676,0.00130655661301853
-0.005450887266591676,0.0006811990156830824
-0.005450547266591676,-0.0004378619479729968
-0.005450207266591676,-4.289925491831147e-05
-0.005449867266591676,-0.002017712720188146
-0.005449527266591676,-0.003169687241601236
-0.005449187266591676,-0.001161960218573253
-0.005448847266591676,-0.002248107624471662
-0.005448507266591676,-0.000832824641027682
-0.005448167266591676,-0.0001416399281819828
-0.005447827266591676,0.001701519306073215
-0.005447487266591676,0.0009115939199638446
-0.005447147266591676,0.004861220850510698
-0.005446807266591676,0.005354924216829054
-0.005446467266591676,0.004170036137664999
-0.005446127266591676,0.004466258157456012
-0.005445787266591676,0.004959961523774369
-0.005445447266591676,0.003149715847268998
-0.005445107266591676,0.0005495447846637165
-0.005444767266591676,-0.00188605848917351
-0.005444427266591676,-0.005835685419708867
-0.005444087266591676,0.0004837176691546022
-0.005443747266591676,0.003775073444610313
-0.005443407266591676,0.004268776810921665
-0.005443067266591676,0.000417890553645488
-0.005442727266591676,-0.003893785512201493
-0.005442387266591676,0.001372383728526207
-0.005442047266591676,0.0005824583424182735
-0.005441707266591676,0.0006153719001728307
-0.005441367266591676,-0.0004707755057301881
-0.005441027266591676,-0.001918972046928067
-0.005440687266591676,-0.0005695161789912252
-0.005440347266591676,-0.001984799162438019
-0.005440007266591676,-0.00244558897100098
-0.005439667266591676,-0.001096133103064139
-0.005439327266591676,-0.001063219545311078
-0.005438987266591676,-0.00188605848917351
-0.005438647266591676,0.0001216685338544741
-0.005438307266591676,0.0008786803622091679
-0.005437967266591676,0.0008128532467001733
-0.005437627266591676,0.002952234500746385
-0.005437287266591676,0.00298514805849741
-0.005436947266591676,0.001043248150982073
-0.005436607266591676,0.0009115939199638446
-0.005436267266591677,0.001701519306071778
-0.005435927266591676,-0.0007669975255185678
-0.005435587266591676,-0.0008986517565367963
-0.005435247266591677,0.0002204092071161099
-0.005434907266591676,0.001109075266491187
-0.005434567266591676,-0.002182280508964523
-0.005434227266591676,-0.0004378619479761699
-0.005433887266591676,0.004137122579910441
-0.005433547266591676,0.002590185365446257
-0.005433207266591676,0.004795393734997572
-0.005432867266591676,0.0005495447846637165
-0.005432527266591676,-0.002610156759773766
-0.005432187266591676,-0.001886058489174827
-0.005431847266591676,2.292786059080275e-05
-0.005431507266591676,-0.001951885604682624
-0.005431167266591676,-0.001194873776329187
-0.005430827266591676,-0.0002732941592002112
-0.005430487266591676,-0.0005695161789912252
-0.005430147266591676,0.0006811990156796698
-0.005429807266591676,0.0009445074777184018
-0.005429467266591676,0.0007799396889456162
-0.005429127266591676,0.000747026131191119
-0.005428787266591676,0.0001874956493635883
-0.005428447266591676,5.584141834535986e-05
-0.005428107266591676,0.001767346421579216
-0.005427767266591676,0.002623098923200814
-0.005427427266591676,0.001635692190564101
-0.005427087266591676,0.002228136230146129
-0.005426747266591676,0.002623098923200814
-0.005426407266591676,0.001372383728527644
-0.005426067266591676,-0.0004707755057275538
-0.005425727266591676,5.584141834535986e-05
-0.005425387266591676,-0.001622750027137053
-0.005425047266591676,0.0002204092071181454
-0.005424707266591676,0.0006153719001728307
-0.005424367266591676,-0.0007011704100094536
-0.005424027266591676,-0.005309068495647449
-0.005423687266591676,0.001964827768114462
-0.005423347266591676,0.004597912388474241
-0.005423007266591676,-0.001293614449591481
-0.005422667266591676,-0.001655663584889754
-0.005422327266591676,-0.0006353432945003394
-0.005421987266591676,-0.002478502528755537
-0.005421647266591676,-0.003400082145880023
-0.005421307266591676,-0.001688577142646167
-0.005420967266591676,-0.00142526868060971
-0.005420627266591676,-0.001491095796117387
-0.005420287266591676,-0.0007011704100094536
-0.005419947266591676,-4.289925491831147e-05
-0.005419607266591676,0.001339470170774704
-0.005419267266591676,0.002228136230146129
-0.005418927266591676,0.002063568441373343
-0.005418587266591676,0.00466373950398102
-0.005418247266591676,0.003380110751555628
-0.005417907266591676,0.002853493827482714
-0.005417567266591676,0.002359790461163579
-0.005417227266591676,0.001931914210355115
-0.005416887266591676,-4.289925491831147e-05
