Analysis/files/cmb03_d2s01/wrd12_ch24.csv

#Digilent WaveForms Oscilloscope Acquisition
#Device Name: ADP3450
#Serial Number: SN:210018B9D9B0
#Date Time: 2024-08-12 11:29:06.719.608.630
#Sample rate: 2.94118e+06Hz
#Samples: 32768
#Trigger: Source: Channel 3 Type: Edge Condition: Rising Level: 60 mV Hyst.: Auto HoldOff: 0 s
#Channel 3: Range: 200 mV/div Offset: 0 V Attenuation: 1 X Coupling: DC Bandwidth: 0 Hz Sample Mode: Average

Time (s),Channel 3 (V)
-0.005570439146919431,0.006506898738238553
-0.005570099146919431,0.00380798700236487
-0.005569759146919431,0.00380798700236487
-0.005569419146919431,0.002359790461164357
-0.005569079146919431,0.0014711244017891
-0.005568739146919431,0.0002533227648727025
-0.005568399146919431,-9.985697163754359e-06
-0.005568059146919431,-0.0008657381987832569
-0.005567719146919431,-0.00142526868060971
-0.005567379146919431,-9.985697163754359e-06
-0.005567039146919431,0.0003191498803759495
-0.005566699146919431,-0.00290637877956478
-0.005566359146919431,-0.0009973924298004675
-0.005566019146919431,-0.0002403806014478094
-0.005565679146919431,-0.00142526868060971
-0.005565339146919431,-0.0003062077169547683
-0.005564999146919431,-0.001359441565101793
-0.005564659146919431,-0.002017712720191738
-0.005564319146919431,-0.0005036890634821109
-0.005563979146919431,-0.002017712720194671
-0.005563639146919431,-0.003630477050165036
-0.005563299146919431,-0.003729217723428708
-0.005562959146919432,-0.004124180416482675
-0.005562619146919431,-0.00767884465397556
-0.005562279146919431,-0.006691437921338847
-0.005561939146919432,-0.005769858304212925
-0.005561599146919431,-0.006230648112775047
-0.005561259146919431,-0.004584970225047193
-0.005560919146919432,-0.005078673591364651
-0.005560579146919431,-0.002182280508964523
-0.005560239146919431,-0.0001416399281819828
-0.005559899146919432,0.001833173537087851
-0.005559559146919431,0.002754753154219042
-0.005559219146919431,-0.0008986517565367963
-0.005558879146919432,-0.001655663584890233
-0.005558539146919431,-4.289925491831147e-05
-0.005558199146919431,-0.0006682568522548965
-0.005557859146919432,-0.001589836469380819
-0.005557519146919431,-0.00165566358489161
-0.005557179146919431,-0.003465909261392251
-0.005556839146919432,-0.00478245157157214
-0.005556499146919431,-0.006230648112775047
-0.005556159146919431,-0.008435856482330374
-0.005555819146919432,-0.008732078502120849
-0.005555479146919431,-0.009127041195176074
-0.005555139146919431,-0.009489090330476201
-0.005554799146919432,-0.008370029366823295
-0.005554459146919431,-0.007547190422957332
-0.005554119146919431,-0.008764992059875945
-0.005553779146919431,-0.009028300521912402
-0.005553439146919431,-0.008797905617630502
-0.005553099146919431,-0.01215508850859533
-0.005552759146919431,-0.01159555802676786
-0.005552419146919431,-0.01176012581554064
-0.005552079146919431,-0.01228674273961356
-0.005551739146919431,-0.0120234342775771
-0.005551399146919431,-0.01044358350535728
-0.005551059146919431,-0.009851139465776329
-0.005550719146919431,-0.01159555802676786
-0.005550379146919431,-0.01330706302999435
-0.005550039146919431,-0.007547190422957332
-0.005549699146919431,-0.007415536191939104
-0.005549359146919431,-0.005835685419723774
-0.005549019146919431,-0.007711758211730118
-0.005548679146919431,-0.01255005120165001
-0.005548339146919431,-0.01027901571658036
-0.005547999146919431,-0.007415536191939104
-0.005547659146919431,-0.01014736148556734
-0.005547319146919431,-0.009357436099456537
-0.005546979146919431,-0.008567510713348603
-0.005546639146919431,-0.009028300521912402
-0.005546299146919431,-0.008238375135804468
-0.005545959146919431,-0.009028300521912402
-0.005545619146919431,-0.008337115809066702
-0.005545279146919431,-0.007777585327239172
-0.005544939146919431,-0.007744671769484675
-0.005544599146919431,-0.0101802750433219
-0.005544259146919431,-0.01064106485188528
-0.005543919146919431,-0.0104106699476038
-0.005543579146919431,-0.01116768177595861
-0.005543239146919431,-0.01143099023799297
-0.005542899146919431,-0.01027901571658557
-0.005542559146919431,-0.01004862081230367
-0.005542219146919432,-0.009522003888231717
-0.005541879146919431,-0.007415536191939104
-0.005541539146919431,-0.007810498884993789
-0.005541199146919432,-0.008106720904784263
-0.005540859146919431,-0.007975066673766575
-0.005540519146919431,-0.008337115809066702
-0.005540179146919432,-0.01027901571658204
-0.005539839146919431,-0.01373493928081407
-0.005539499146919431,-0.00790923955825746
-0.005539159146919432,-0.007185141287658521
-0.005538819146919431,-0.00665852436358429
-0.005538479146919431,-0.006164820997265934
-0.005538139146919432,-0.01120059533370401
-0.005537799146919431,-0.01159555802676786
-0.005537459146919431,-0.00860042427110316
-0.005537119146919432,-0.009949880139037547
-0.005536779146919431,-0.0113322495647314
-0.005536439146919431,-0.01143099023799507
-0.005536099146919432,-0.01136516312248608
-0.005535759146919431,-0.01093728687167671
-0.005535419146919431,-0.01050941062086747
-0.005535079146919432,-0.009522003888232555
-0.005534739146919431,-0.009752398792512659
-0.005534399146919431,-0.008106720904784802
-0.005534059146919432,-0.01073980552514458
-0.005533719146919431,-0.01004862081230367
-0.005533379146919431,-0.008468770040084931
-0.005533039146919431,-0.009094127637421515
-0.005532699146919431,-0.009423263214967087
-0.005532359146919431,-0.008929559848648731
-0.005532019146919431,-0.009094127637421515
-0.005531679146919431,-0.01004862081230367
-0.005531339146919431,-0.007613017538466446
-0.005530999146919431,-0.009028300521912402
-0.005530659146919431,-0.009061214079666959
-0.005530319146919431,-0.009752398792512659
-0.005529979146919431,-0.009554917445985316
-0.005529639146919431,-0.01452486466692398
-0.005529299146919431,-0.01482108668671445
-0.005528959146919431,-0.00962074456149443
-0.005528619146919431,-0.01106894110269123
-0.005528279146919431,-0.009028300521912402
-0.005527939146919431,-0.01258296475940457
-0.005527599146919431,-0.01709212217177111
-0.005527259146919431,-0.01281335966368647
-0.005526919146919431,-0.01268170543266824
-0.005526579146919431,-0.01133224956473314
-0.005526239146919431,-0.01228674273961356
-0.005525899146919431,-0.01100311398718583
-0.005525559146919431,-0.01199052071982296
-0.005525219146919431,-0.01222091562410444
-0.005524879146919431,-0.01097020042943127
-0.005524539146919431,-0.01228674273961266
-0.005524199146919431,-0.0117930393732952
-0.005523859146919431,-0.01143099023799507
-0.005523519146919431,-0.01590723409262813
-0.005523179146919431,-0.02321404391412651
-0.005522839146919431,-0.03466796201271239
-0.005522499146919431,-0.05234254252695452
-0.005522159146919431,-0.07706062440058195
-0.005521819146919431,-0.1057283332048012
-0.005521479146919431,-0.1359758927812973
-0.005521139146919431,-0.1679349573609141
-0.005520799146919431,-0.1948582476041418
-0.005520459146919432,-0.2197408972665418
-0.005520119146919431,-0.2396535997080941
-0.005519779146919431,-0.25370768886929
-0.005519439146919432,-0.2618044240768963
-0.005519099146919431,-0.2699340728422866
-0.005518759146919431,-0.2681567407235405
-0.005518419146919432,-0.2605866224400061
-0.005518079146919431,-0.2566699090672001
-0.005517739146919431,-0.249692234823234
-0.005517399146919432,-0.2465325332788022
-0.005517059146919431,-0.2392586370150394
-0.005516719146919431,-0.2293845696886722
-0.005516379146919432,-0.2205966497682215
-0.005516039146919431,-0.214836777161158
-0.005515699146919431,-0.2090110774386014
-0.005515359146919432,-0.2003877253069231
-0.005515019146919431,-0.1966684932806425
-0.005514679146919431,-0.1902832630762584
-0.005514339146919432,-0.1823181820996701
-0.005513999146919431,-0.1770520128589264
-0.005513659146919431,-0.171061745347597
-0.005513319146919432,-0.1624713067736733
-0.005512979146919431,-0.1559215087805008
-0.005512639146919431,-0.1507540802130353
-0.005512299146919432,-0.143644751738051
-0.005511959146919431,-0.1378519655732489
-0.005511619146919431,-0.1344618691245295
-0.005511279146919431,-0.1299527117121552
-0.005510939146919431,-0.1241928391051077
-0.005510599146919431,-0.1224813341018708
-0.005510259146919431,-0.1164581530327868
-0.005509919146919431,-0.1124756125444854
-0.005509579146919431,-0.1082955907096566
-0.005509239146919431,-0.1036218655085095
-0.005508899146919431,-0.1012850029079375
-0.005508559146919431,-0.1021078418517999
-0.005508219146919431,-0.0935832303933696
-0.005507879146919431,-0.08904115942323187
-0.005507539146919431,-0.08416995287556628
-0.005507199146919431,-0.08328128681619323
-0.005506859146919431,-0.08367624950924063
-0.005506519146919431,-0.07966079546319196
-0.005506179146919431,-0.0752503787240813
-0.005505839146919431,-0.07337430593207132
-0.005505499146919431,-0.07324265170105332
-0.005505159146919431,-0.07162988737108003
-0.005504819146919431,-0.06899680275070982
-0.005504479146919431,-0.0659029283217871
-0.005504139146919431,-0.0645863860116048
-0.005503799146919431,-0.06208495562225696
-0.005503459146919431,-0.06126211667839453
-0.005503119146919431,-0.06047219129228516
-0.005502779146919431,-0.05787202022967294
-0.005502439146919431,-0.05665421859275654
-0.005502099146919431,-0.05461357801197399
-0.005501759146919431,-0.05349451704831319
-0.005501419146919431,-0.05026898838837246
-0.005501079146919431,-0.04819543424983536
-0.005500739146919431,-0.04592439876476685
-0.005500399146919431,-0.04368627683746103
-0.005500059146919431,-0.04352170904868825
-0.005499719146919432,-0.04164563625668191
-0.005499379146919431,-0.04019743971547798
-0.005499039146919431,-0.03986830413793241
-0.005498699146919432,-0.04032909394649537
-0.005498359146919431,-0.04125067356362381
-0.005498019146919431,-0.03953916856038684
-0.005497679146919432,-0.03496418403251172
-0.005497339146919431,-0.03279188922070263
-0.005496999146919431,-0.03190322316132959
-0.005496659146919432,-0.0353920602833063
-0.005496319146919431,-0.03585285009187644
-0.005495979146919431,-0.03371346883783023
-0.005495639146919432,-0.03249566720091383
-0.005495299146919431,-0.03104747065971111
-0.005494959146919431,-0.02989549613830161
-0.005494619146919432,-0.02907265719443917
-0.005494279146919431,-0.02792068267302818
-0.005493939146919431,-0.02620917766979121
-0.005493599146919432,-0.02640665901631819
-0.005493259146919431,-0.02548507939919096
-0.005492919146919431,-0.02548507939919096
-0.005492579146919432,-0.02581421497673593
-0.005492239146919431,-0.02571547430347286
-0.005491899146919431,-0.02397105574248133
-0.005491559146919432,-0.02469515401308027
-0.005491219146919431,-0.02357609304942664
-0.005490879146919431,-0.02143671179538043
-0.005490539146919431,-0.02058095929376194
-0.005490199146919431,-0.01949481188786156
-0.005489859146919431,-0.01686172726749699
-0.005489519146919431,-0.01653259168995142
-0.005489179146919431,-0.01646676457444231
-0.005488839146919431,-0.01617054255465129
-0.005488499146919431,-0.01567683918833294
-0.005488159146919431,-0.01942898477236179
-0.005487819146919431,-0.02456349978206336
-0.005487479146919431,-0.01903402207929776
-0.005487139146919431,-0.01883654073276677
-0.005486799146919431,-0.01682881370974244
-0.005486459146919431,-0.01778330688462459
-0.005486119146919431,-0.02035056438947532
-0.005485779146919431,-0.01775039332687003
-0.005485439146919431,-0.01347163081877761
-0.005485099146919431,-0.01429446976264094
-0.005484759146919431,-0.01396533418509597
-0.005484419146919431,-0.01199052071982254
-0.005484079146919431,-0.01409698841611294
-0.005483739146919431,-0.0134058037032685
-0.005483399146919431,-0.01366911216530495
-0.005483059146919431,-0.013471630818783
-0.005482719146919431,-0.01643385101668775
-0.005482379146919431,-0.01347163081877761
-0.005482039146919431,-0.01399824774285154
-0.005481699146919431,-0.014557778224678
-0.005481359146919431,-0.01360328504979584
-0.005481019146919431,-0.01429446976264363
-0.005480679146919431,-0.01544644428405104
-0.005480339146919431,-0.01304375456796837
-0.005479999146919431,-0.01307666812572406
-0.005479659146919431,-0.01370202572305951
-0.005479319146919431,-0.0108714597561676
-0.005478979146919432,-0.009522003888233214
-0.005478639146919431,-0.00962074456149443
-0.005478299146919431,-0.008666251386612273
-0.005477959146919432,-0.008139634462540317
-0.005477619146919431,-0.01208926139308621
-0.005477279146919431,-0.0106410648518857
-0.005476939146919432,-0.007909239558262428
-0.005476599146919431,-0.01120059533371317
-0.005476259146919431,-0.008567510713348603
-0.005475919146919432,-0.01044358350535494
-0.005475579146919431,-0.01584140697710572
-0.005475239146919431,-0.01343871726102305
-0.005474899146919432,-0.0117272122577892
-0.005474559146919431,-0.01353745793428673
-0.005474219146919431,-0.01416281553162331
-0.005473879146919432,-0.01199052071982649
-0.005473539146919431,-0.01373493928081407
-0.005473199146919431,-0.01301084101021381
-0.005472859146919432,-0.01324123591449529
-0.005472519146919431,-0.01297792745245925
-0.005472179146919431,-0.01459069178243255
-0.005471839146919432,-0.01337289014551615
-0.005471499146919431,-0.01327414947225027
-0.005471159146919431,-0.01429446976264154
-0.005470819146919432,-0.01136516312249129
-0.005470479146919431,-0.01113476821820406
-0.005470139146919431,-0.01100311398718583
-0.005469799146919431,-0.009884053023530886
-0.005469459146919431,-0.006362302343793276
-0.005469119146919431,-0.008863732733139616
-0.005468779146919431,-0.009785312350267215
-0.005468439146919431,-0.009258695426194301
-0.005468099146919431,-0.01001570725454911
-0.005467759146919431,-0.01037775638984924
-0.005467419146919431,-0.01149681735350419
-0.005467079146919431,-0.0129450138947047
-0.005466739146919431,-0.01478817312895989
-0.005466399146919431,-0.006395215901548312
-0.005466059146919431,-0.00665852436358429
-0.005465719146919431,-0.007020573498884419
-0.005465379146919431,-0.008304202251319089
-0.005465039146919431,-0.01212217495084077
-0.005464699146919431,-0.01208926139308621
-0.005464359146919431,-0.00932452254170623
-0.005464019146919431,-0.0108714597561676
-0.005463679146919431,-0.01195760716206798
-0.005463339146919431,-0.009258695426194062
-0.005462999146919431,-0.009127041195176074
-0.005462659146919431,-0.01073980552514937
-0.005462319146919431,-0.009916966581286343
-0.005461979146919431,-0.0104106699476038
-0.005461639146919431,-0.01189178004655887
-0.005461299146919431,-0.01225382918185774
-0.005460959146919431,-0.0115626444690133
-0.005460619146919431,-0.01245131052838634
-0.005460279146919431,-0.01162847158452199
-0.005459939146919431,-0.01139807668024051
-0.005459599146919431,-0.01251713764389546
-0.005459259146919431,-0.01337289014551304
-0.005458919146919431,-0.01287918677919558
-0.005458579146919431,-0.01399824774285052
-0.005458239146919431,-0.01442612399365959
-0.005457899146919431,-0.0143273833203961
-0.005457559146919431,-0.01264879187491368
-0.005457219146919432,-0.01310958168347665
-0.005456879146919431,-0.01399824774285052
-0.005456539146919431,-0.01728960351830624
-0.005456199146919432,-0.01090437331393377
-0.005455859146919431,-0.008732078502121389
-0.005455519146919431,-0.00790923955825746
-0.005455179146919432,-0.01024610215882676
-0.005454839146919431,-0.01251713764389546
-0.005454499146919431,-0.01031192927434013
-0.005454159146919432,-0.009653658119250183
-0.005453819146919431,-0.01123350889146773
-0.005453479146919431,-0.01047649706311291
-0.005453139146919432,-0.01110185466044836
-0.005452799146919431,-0.01054232417862203
-0.005452459146919431,-0.01037775638984924
-0.005452119146919432,-0.01172721225778363
-0.005451779146919431,-0.01126642244922228
-0.005451439146919431,-0.01090437331392216
-0.005451099146919432,-0.01199052071982057
-0.005450759146919431,-0.01057523773637659
-0.005450419146919431,-0.008073807347030245
-0.005450079146919432,-0.008666251386611196
-0.005449739146919431,-0.008271288693557588
-0.005449399146919431,-0.005374895611156563
-0.005449059146919432,-0.007744671769480364
-0.005448719146919431,-0.008797905617630502
-0.005448379146919431,-0.009159954752930631
-0.005448039146919431,-0.01031192927434013
-0.005447699146919431,-0.01083854619841304
-0.005447359146919431,-0.009884053023530886
-0.005447019146919431,-0.01014736148556734
-0.005446679146919431,-0.01136516312248596
-0.005446339146919431,-0.01169429870003153
-0.005445999146919431,-0.0131754087989866
-0.005445659146919431,-0.006428129459301732
-0.005445319146919431,-0.006066080324002262
-0.005444979146919431,-0.01004862081230367
-0.005444639146919431,-0.008567510713345489
-0.005444299146919431,-0.006856005710111633
-0.005443959146919431,-0.007152227729902647
-0.005443619146919431,-0.008666251386610957
-0.005443279146919431,-0.007942153116012016
-0.005442939146919431,-0.007448449749693661
-0.005442599146919431,-0.009225781868439925
-0.005442259146919431,-0.009324522541703417
-0.005441919146919431,-0.009094127637421515
-0.005441579146919431,-0.01047649706311243
-0.005441239146919431,-0.01021318860107646
-0.005440899146919431,-0.01011444792781279
-0.005440559146919431,-0.01133224956473379
-0.005440219146919431,-0.01264879187491368
-0.005439879146919431,-0.01143099023799507
-0.005439539146919431,-0.01129933600697864
-0.005439199146919431,-0.01228674273961356
-0.005438859146919431,-0.01320832235674115
-0.005438519146919431,-0.01222091562410558
-0.005438179146919431,-0.01284627322144103
-0.005437839146919431,-0.01208926139308621
-0.005437499146919431,-0.01235256985512225
-0.005437159146919431,-0.01212217495084077
-0.005436819146919431,-0.01199052071982254
-0.005436479146919432,-0.01060815129413366
-0.005436139146919431,-0.0106410648518857
-0.005435799146919431,-0.01255005120165001
-0.005435459146919432,-0.00685600571012199
-0.005435119146919431,-0.01021318860107646
-0.005434779146919431,-0.007448449749693661
-0.005434439146919432,-0.007020573498885197
-0.005434099146919431,-0.01215508850859533
-0.005433759146919431,-0.01324123591449571
-0.005433419146919432,-0.009686571677010009
-0.005433079146919431,-0.0106410648518857
-0.005432739146919431,-0.0115626444690133
-0.005432399146919432,-0.008370029366827068
-0.005432059146919431,-0.008929559848648731
-0.005431719146919431,-0.008402942924575817
-0.005431379146919432,-0.006592697248078468
-0.005431039146919431,-0.00665852436358429
-0.005430699146919431,-0.008139634462539359
-0.005430359146919432,-0.003038033010592288
-0.005430019146919431,-0.008271288693557588
-0.005429679146919431,-0.0108714597561676
-0.005429339146919432,-0.01080563264065861
-0.005428999146919431,-0.01090437331392216
-0.005428659146919431,-0.01103602754494038
-0.005428319146919432,-0.009752398792514994
-0.005427979146919431,-0.009456176772721644
-0.005427639146919431,-0.01060815129413114
-0.005427299146919431,-0.009159954752930631
-0.005426959146919431,-0.009159954752930631
-0.005426619146919431,-0.009982793696794558
-0.005426279146919431,-0.009258695426194301
-0.005425939146919431,-0.008666251386612273
-0.005425599146919431,-0.01284627322144103
-0.005425259146919431,-0.01176012581554064
-0.005424919146919431,-0.005736944746456691
-0.005424579146919431,-0.005539463399929348
-0.005424239146919431,-0.004552056667292635
-0.005423899146919431,-0.008172548020300024
-0.005423559146919431,-0.01152973091125874
-0.005423219146919431,-0.009225781868439744
-0.005422879146919431,-0.008896646290896268
-0.005422539146919431,-0.01004862081230367
-0.005422199146919431,-0.01097020042943127
-0.005421859146919431,-0.01008153437005943
-0.005421519146919431,-0.01073980552514937
-0.005421179146919431,-0.01139807668024051
-0.005420839146919431,-0.009719485234760256
-0.005420499146919431,-0.01090437331392216
-0.005420159146919431,-0.0136361986075504
-0.005419819146919431,-0.01357037149204014
-0.005419479146919431,-0.0129450138947047
-0.005419139146919431,-0.01380076639632318
-0.005418799146919431,-0.01225382918185756
-0.005418459146919431,-0.01146390379574963
-0.005418119146919431,-0.01070689196739481
-0.005417779146919431,-0.01014736148556561
-0.005417439146919431,-0.009192868310685188
-0.005417099146919431,-0.01047649706311291
-0.005416759146919431,-0.01018027504332094
