Analysis/files/cmb03_d2s01/wrd12_ch23.csv

#Digilent WaveForms Oscilloscope Acquisition
#Device Name: ADP3450
#Serial Number: SN:210018B9D9B0
#Date Time: 2024-08-12 11:45:40.588.574.720
#Sample rate: 2.94118e+06Hz
#Samples: 32768
#Trigger: Source: Channel 3 Type: Edge Condition: Rising Level: 60 mV Hyst.: Auto HoldOff: 0 s
#Channel 3: Range: 200 mV/div Offset: 0 V Attenuation: 1 X Coupling: DC Bandwidth: 0 Hz Sample Mode: Average

Time (s),Channel 3 (V)
-0.005570494193548388,0.008876674896566664
-0.005570154193548387,0.01068692057306054
-0.005569814193548388,0.006967688546802352
-0.005569474193548388,0.002359790461164357
-0.005569134193548387,0.005289097101323532
-0.005568794193548388,0.007263910566593366
-0.005568454193548388,0.006144849602938425
-0.005568114193548387,0.006473985180486211
-0.005567774193548388,0.007691786817402609
-0.005567434193548388,0.006506898738238553
-0.005567094193548387,0.007329737682101583
-0.005566754193548388,0.006836034315784124
-0.005566414193548388,0.005420751332338168
-0.005566074193548387,0.00476248017724541
-0.005565734193548388,0.003873814117873984
-0.005565394193548388,0.000714112573436502
-0.005565054193548387,-0.0002403806014464324
-0.005564714193548388,-0.0006682568522548965
-0.005564374193548388,-0.003038033010583008
-0.005564034193548387,-0.00468371089830799
-0.005563694193548387,-0.003103860126092122
-0.005563354193548388,-0.002643070317528323
-0.005563014193548388,-0.002643070317528323
-0.005562674193548387,-0.0007340839677640107
-0.005562334193548388,-0.0007340839677640107
-0.005561994193548388,0.0009115939199608511
-0.005561654193548387,0.002129395556882458
-0.005561314193548388,0.001734432863827772
-0.005560974193548388,-0.002939292337310835
-0.005560634193548387,-0.00267598387528288
-0.005560294193548388,0.004005468348892213
-0.005559954193548388,0.002293963345658357
-0.005559614193548387,0.005190356428056269
-0.005559274193548388,5.584141834535986e-05
-0.005558934193548388,-0.001161960218571038
-0.005558594193548387,0.001569865075054987
-0.005558254193548388,0.002359790461164357
-0.005557914193548388,-0.0007340839677583829
-0.005557574193548387,-0.001326528007346039
-0.005557234193548388,-0.0001416399281819828
-0.005556894193548388,-0.00244558897099679
-0.005556554193548387,-0.0007669975255185678
-0.005556214193548388,-0.00188605848917351
-0.005555874193548388,-0.002939292337317421
-0.005555534193548387,-0.004354575320765292
-0.005555194193548388,-0.004584970225047193
-0.005554854193548388,-0.006428129459299037
-0.005554514193548387,-0.008402942924575817
-0.005554174193548388,-0.006461043017056948
-0.005553834193548388,-0.008337115809066702
-0.005553494193548387,-0.007580103980711889
-0.005553154193548388,-0.006691437921338847
-0.005552814193548388,-0.006526870132566062
-0.005552474193548387,-0.007316795518675433
-0.005552134193548388,-0.004552056667292635
-0.005551794193548388,-0.005506549842174791
-0.005551454193548387,-0.00646104301705569
-0.005551114193548388,-0.005769858304211248
-0.005550774193548388,-0.006625610805829733
-0.005550434193548387,-0.007942153116014471
-0.005550094193548388,-0.009291608983948858
-0.005549754193548388,-0.002313934739982752
-0.005549414193548387,-0.007086400614393712
-0.005549074193548388,-0.007185141287657204
-0.005548734193548388,-0.004486229551783521
-0.005548394193548387,-0.003005119452827254
-0.005548054193548388,-0.002346848297737309
-0.005547714193548388,-0.002577243202019209
-0.005547374193548387,-0.002379761855491806
-0.005547034193548388,-0.002346848297737309
-0.005546694193548388,-0.002182280508964523
-0.005546354193548387,-0.00455205666729497
-0.005546014193548388,-0.005835685419720362
-0.005545674193548388,-0.00688891926786619
-0.005545334193548387,-0.009258695426196995
-0.005544994193548388,-0.01073980552514937
-0.005544654193548388,-0.0104106699476038
-0.005544314193548387,-0.009884053023531365
-0.005543974193548388,-0.01014736148556734
-0.005543634193548388,-0.008468770040084931
-0.005543294193548387,-0.007777585327237914
-0.005542954193548387,-0.007053487056638975
-0.005542614193548388,-0.005572376957683906
-0.005542274193548388,-0.005572376957683906
-0.005541934193548387,-0.006526870132566062
-0.005541594193548388,-0.005901512535229476
-0.005541254193548388,-0.005243241380139532
-0.005540914193548387,-0.005835685419720362
-0.005540574193548388,-0.006757265036847961
-0.005540234193548388,-0.005177414264632094
-0.005539894193548387,-0.00619773455502049
-0.005539554193548388,-0.005309068495647449
-0.005539214193548388,-0.00481536512932999
-0.005538874193548387,-0.00688891926786619
-0.005538534193548388,-0.007185141287657204
-0.005538194193548388,-0.004650797340560916
-0.005537854193548387,-0.005045760033610991
-0.005537514193548388,-0.004091266858728836
-0.005537174193548388,-0.004222921089746825
-0.005536834193548387,-0.003597563492410479
-0.005536494193548388,-0.004617883782801749
-0.005536154193548388,-0.004420402436274766
-0.005535814193548387,-0.007349709076429989
-0.005535474193548388,-0.01011444792781279
-0.005535134193548388,-0.01106894110269321
-0.005534794193548387,-0.007547190422957332
-0.005534454193548388,-0.01054232417862203
-0.005534114193548388,-0.008073807347034737
-0.005533774193548387,-0.008732078502121389
-0.005533434193548388,-0.01373493928081407
-0.005533094193548388,-0.01120059533371317
-0.005532754193548387,-0.008764992059875945
-0.005532414193548388,-0.01037775638984924
-0.005532074193548388,-0.009324522541703417
-0.005531734193548387,-0.00767884465397556
-0.005531394193548388,-0.007514276865202775
-0.005531054193548388,-0.006954746383375304
-0.005530714193548387,-0.006263561670529605
-0.005530374193548388,-0.00688891926786619
-0.005530034193548388,-0.007777585327239231
-0.005529694193548387,-0.0074155361919409
-0.005529354193548388,-0.008402942924575817
-0.005529014193548388,-0.008633337828857716
-0.005528674193548387,-0.007678844653977297
-0.005528334193548388,-0.008633337828857716
-0.005527994193548388,-0.007481363307448217
-0.005527654193548387,-0.007481363307447619
-0.005527314193548388,-0.007152227729902647
-0.005526974193548388,-0.008304202251312145
-0.005526634193548387,-0.007382622634187899
-0.005526294193548388,-0.009225781868439744
-0.005525954193548388,-0.01024610215883101
-0.005525614193548387,-0.009192868310688241
-0.005525274193548388,-0.0108714597561676
-0.005524934193548388,-0.01478817312895989
-0.005524594193548387,-0.008172548020289308
-0.005524254193548388,-0.005638204073193019
-0.005523914193548388,-0.006625610805829733
-0.005523574193548387,-0.008205461578063383
-0.005523234193548388,-0.01640093745893319
-0.005522894193548388,-0.02759154709548261
-0.005522554193548387,-0.04194185827651165
-0.005522214193548388,-0.06511300293567771
-0.005521874193548388,-0.09437315577947897
-0.005521534193548387,-0.1247194560292346
-0.005521194193548387,-0.1544074851237912
-0.005520854193548388,-0.1857741056638841
-0.005520514193548388,-0.2123024332140088
-0.005520174193548387,-0.2318201729625095
-0.005519834193548388,-0.2488364823216155
-0.005519494193548388,-0.2608170173442524
-0.005519154193548387,-0.2650628662946121
-0.005518814193548388,-0.2657540510074579
-0.005518474193548388,-0.2634830155223975
-0.005518134193548387,-0.2578547971463641
-0.005517794193548388,-0.2524898872323713
-0.005517454193548388,-0.2462033977012624
-0.005517114193548387,-0.2370863422032386
-0.005516774193548388,-0.2303061493057998
-0.005516434193548388,-0.2240854868901999
-0.005516094193548387,-0.2153633940852309
-0.005515754193548388,-0.2068058690690461
-0.005515414193548388,-0.2000915032871286
-0.005515074193548387,-0.1922580765415318
-0.005514734193548388,-0.1863336361457116
-0.005514394193548388,-0.1846550447002322
-0.005514054193548387,-0.1722795469845157
-0.005513714193548388,-0.1624713067736576
-0.005513374193548388,-0.1575013595527286
-0.005513034193548387,-0.1515110920413901
-0.005512694193548388,-0.1495691921338713
-0.005512354193548388,-0.1444017635664058
-0.005512014193548387,-0.137029126629385
-0.005511674193548388,-0.1323883149859924
-0.005511334193548388,-0.1288665643062548
-0.005510994193548387,-0.1251473322799899
-0.005510654193548388,-0.1195849410194697
-0.005510314193548388,-0.1167543750525778
-0.005509974193548387,-0.1135946735081403
-0.005509634193548388,-0.1090196889802569
-0.005509294193548388,-0.1056295925315375
-0.005508954193548387,-0.101515397812213
-0.005508614193548388,-0.09884939963409875
-0.005508274193548388,-0.09424150154846075
-0.005507934193548387,-0.09167424404359775
-0.005507594193548388,-0.08752713576653109
-0.005507254193548388,-0.08505861893493932
-0.005506914193548387,-0.08314963258516705
-0.005506574193548388,-0.07877212940381892
-0.005506234193548388,-0.0752503787240813
-0.005505894193548387,-0.07235398564167787
-0.005505554193548388,-0.071037443331498
-0.005505214193548388,-0.06712072995870569
-0.005504874193548387,-0.06705490284319175
-0.005504534193548388,-0.06438890466507746
-0.005504194193548388,-0.06481678091588669
-0.005503854193548387,-0.05872777273129166
-0.005503514193548388,-0.05764162532539325
-0.005503174193548388,-0.05454775089646488
-0.005502834193548387,-0.05119056800550443
-0.005502494193548388,-0.05359325772158272
-0.005502154193548388,-0.05270459166220968
-0.005501814193548387,-0.04836000203860557
-0.005501474193548388,-0.04694471905516219
-0.005501134193548388,-0.04493699203213421
-0.005500794193548387,-0.04309383279787721
-0.005500454193548387,-0.04210642606524229
-0.005500114193548388,-0.04082279731281457
-0.005499774193548388,-0.03868341605877225
-0.005499434193548387,-0.0388808974052957
-0.005499094193548388,-0.0374985279796043
-0.005498754193548388,-0.03746561442184981
-0.005498414193548387,-0.03753144153735886
-0.005498074193548388,-0.03697191105553139
-0.005497734193548388,-0.03654403480472292
-0.005497394193548387,-0.03693899749777683
-0.005497054193548388,-0.03618198566942202
-0.005496714193548388,-0.03437173999292467
-0.005496374193548387,-0.03295645700947542
-0.005496034193548388,-0.03144243335276579
-0.005495694193548388,-0.03084998931318484
-0.005495354193548387,-0.03045502662012908
-0.005495014193548388,-0.02996132325381072
-0.005494674193548388,-0.02716367084467846
-0.005494334193548387,-0.02759154709548261
-0.005493994193548388,-0.02871060805913755
-0.005493654193548388,-0.02979675546503596
-0.005493314193548387,-0.02512303026389083
-0.005492974193548388,-0.02048221862049827
-0.005492634193548388,-0.01926441698358188
-0.005492294193548387,-0.01673007303647877
-0.005491954193548388,-0.02146962535313499
-0.005491614193548388,-0.01985686102316463
-0.005491274193548387,-0.01696046794076066
-0.005490934193548388,-0.01811244246217016
-0.005490594193548388,-0.01870488650175219
-0.005490254193548387,-0.01620345611240585
-0.005489914193548388,-0.01465651889794167
-0.005489574193548388,-0.01531479005303281
-0.005489234193548387,-0.01445903755141432
-0.005488894193548388,-0.01498565447548724
-0.005488554193548388,-0.0150185680332418
-0.005488214193548387,-0.01515022226426224
-0.005487874193548388,-0.01636802390117864
-0.005487534193548388,-0.01590723409261484
-0.005487194193548387,-0.01462360534018801
-0.005486854193548388,-0.01511730870650547
-0.005486514193548388,-0.01557809851506927
-0.005486174193548387,-0.01419572908937894
-0.005485834193548388,-0.01478817312895989
-0.005485494193548388,-0.01557809851506927
-0.005485154193548387,-0.01498565447548694
-0.005484814193548388,-0.01482108668671445
-0.005484474193548388,-0.01597306120812395
-0.005484134193548387,-0.01314249524123036
-0.005483794193548388,-0.01222091562410444
-0.005483454193548388,-0.01600597476587851
-0.005483114193548387,-0.01623636967014634
-0.005482774193548388,-0.008501683597839487
-0.005482434193548388,-0.008929559848648731
-0.005482094193548387,-0.008732078502125221
-0.005481754193548388,-0.01083854619841304
-0.005481414193548388,-0.01495274091773268
-0.005481074193548387,-0.01202343427757135
-0.005480734193548388,-0.008863732733139616
-0.005480394193548388,-0.0117930393732952
-0.005480054193548387,-0.01202343427757476
-0.005479714193548387,-0.01073980552514937
-0.005479374193548388,-0.01192469360431343
-0.005479034193548388,-0.01317540879898432
-0.005478694193548387,-0.01310958168347748
-0.005478354193548388,-0.01255005120165001
-0.005478014193548388,-0.0127146189904225
-0.005477674193548387,-0.01228674273961356
-0.005477334193548388,-0.01218800206634988
-0.005476994193548388,-0.01133224956473296
-0.005476654193548387,-0.01011444792781279
-0.005476314193548388,-0.01001570725454911
-0.005475974193548388,-0.01024610215883059
-0.005475634193548387,-0.008863732733139616
-0.005475294193548388,-0.008040893789275689
-0.005474954193548388,-0.007481363307449235
-0.005474614193548387,-0.006921832825620747
-0.005474274193548388,-0.005506549842174791
-0.005473934193548388,-0.007053487056636162
-0.005473594193548387,-0.006362302343793276
-0.005473254193548388,-0.007020573498884419
-0.005472914193548388,-0.01238548341286747
-0.005472574193548387,-0.01077271908290393
-0.005472234193548388,-0.004354575320765292
-0.005471894193548388,-0.005012846475855237
-0.005471554193548387,-0.003465909261392251
-0.005471214193548388,-0.005111587149120106
-0.005470874193548388,-0.00576985830421005
-0.005470534193548387,-0.003597563492410479
-0.005470194193548388,-0.004091266858728836
-0.005469854193548388,-0.006856005710111633
-0.005469514193548387,-0.009028300521912402
-0.005469174193548388,-0.009554917445985316
-0.005468834193548388,-0.01008153437005823
-0.005468494193548387,-0.01103602754494038
-0.005468154193548388,-0.009719485234758102
-0.005467814193548388,-0.008106720904784802
-0.005467474193548387,-0.007744671769484675
-0.005467134193548388,-0.007580103980711889
-0.005466794193548388,-0.008139634462539359
-0.005466454193548387,-0.009061214079665342
-0.005466114193548388,-0.008172548020293918
-0.005465774193548388,-0.008995386964157845
-0.005465434193548387,-0.01064106485188654
-0.005465094193548388,-0.0111018546604495
-0.005464754193548388,-0.01011444792781279
-0.005464414193548387,-0.01050941062086514
-0.005464074193548388,-0.009225781868439744
-0.005463734193548388,-0.006790178594602518
-0.005463394193548387,-0.006197734555016599
-0.005463054193548388,-0.004058353300974278
-0.005462714193548388,-0.00438748887851985
-0.005462374193548387,-0.008337115809054009
-0.005462034193548388,-0.001359441565100596
-0.005461694193548388,0.002096481999127901
-0.005461354193548387,0.0009115939199589952
-0.005461014193548388,-0.001754404258155281
-0.005460674193548388,-0.004683710898310864
-0.005460334193548387,-0.005835685419717429
-0.005459994193548388,-0.004222921089747064
-0.005459654193548388,-0.006526870132566062
-0.005459314193548387,-0.007678844653976458
-0.005458974193548388,-0.008172548020293918
-0.005458634193548388,-0.00767884465397556
-0.005458294193548387,-0.00731679551868124
-0.005457954193548387,-0.01050941062086747
-0.005457614193548388,-0.004519143109538078
-0.005457274193548388,-0.008995386964149702
-0.005456934193548387,-0.01008153437005823
-0.005456594193548388,-0.009094127637421515
-0.005456254193548388,-0.007448449749696654
-0.005455914193548387,-0.006987659941129861
-0.005455574193548388,-0.006164820997265934
-0.005455234193548388,-0.00692183282561937
-0.005454894193548387,-0.007185141287657204
-0.005454554193548388,-0.007777585327239231
-0.005454214193548388,-0.007942153116011716
-0.005453874193548387,-0.007711758211730118
-0.005453534193548388,-0.008633337828857716
-0.005453194193548388,-0.007678844653977297
-0.005452854193548387,-0.008271288693557588
-0.005452514193548388,-0.008205461578048474
-0.005452174193548388,-0.009192868310683392
-0.005451834193548387,-0.009489090330476201
-0.005451494193548388,-0.00517741426462922
-0.005451154193548388,-0.00399252618546732
-0.005450814193548387,-0.003663390607919593
-0.005450474193548388,-0.01024610215883101
-0.005450134193548388,-0.01067397840963948
-0.005449794193548387,-0.008962473406403288
-0.005449454193548388,-0.008962473406403288
-0.005449114193548388,-0.01073980552514614
-0.005448774193548387,-0.00860042427110316
-0.005448434193548388,-0.008205461578048474
-0.005448094193548388,-0.007283881960920875
-0.005447754193548387,-0.005769858304211248
-0.005447414193548388,-0.007613017538466446
-0.005447074193548388,-0.004617883782801749
-0.005446734193548387,-0.004815365129329092
-0.005446394193548388,-0.005243241380138334
-0.005446054193548388,-0.005638204073193019
-0.005445714193548387,-0.004683710898311762
-0.005445374193548388,-0.00517741426462922
-0.005445034193548388,-0.006823092152357076
-0.005444694193548387,-0.006526870132568876
-0.005444354193548388,-0.008073807347030245
-0.005444014193548388,-0.006428129459302391
-0.005443674193548387,-0.005835685419719943
-0.005443334193548388,-0.005605290515438462
-0.005442994193548388,-0.005572376957683906
-0.005442654193548387,-0.003893785512200834
-0.005442314193548388,-0.003531736376901365
-0.005441974193548388,-0.005572376957683906
-0.005441634193548387,-0.00830420225131478
-0.005441294193548388,-0.009752398792512659
-0.005440954193548388,-0.005078673591365549
-0.005440614193548387,-0.006164820997262761
-0.005440274193548388,-0.004420402436274407
-0.005439934193548388,-0.007942153116012016
-0.005439594193548387,-0.009489090330468597
-0.005439254193548388,-0.005309068495647449
-0.005438914193548388,-0.006362302343793276
-0.005438574193548387,-0.007020573498885137
-0.005438234193548388,-0.007415536191939104
-0.005437894193548388,-0.007283881960920875
-0.005437554193548387,-0.008370029366821619
-0.005437214193548387,-0.008567510713348603
-0.005436874193548388,-0.008863732733139616
-0.005436534193548388,-0.00869916494436713
-0.005436194193548387,-0.008567510713348603
-0.005435854193548388,-0.009094127637421515
-0.005435514193548388,-0.009785312350265958
-0.005435174193548387,-0.008995386964157845
-0.005434834193548388,-0.009291608983948858
-0.005434494193548388,-0.009620744561493831
-0.005434154193548387,-0.009686571677003543
-0.005433814193548388,-0.009522003888230759
-0.005433474193548388,-0.008732078502122825
-0.005433134193548387,-0.006164820997265934
-0.005432794193548388,-0.006033166766247705
-0.005432454193548388,-0.006856005710110136
-0.005432114193548387,-0.005638204073193019
-0.005431774193548388,-0.004914105802592763
-0.005431434193548388,-0.009916966581276344
-0.005431094193548387,-0.01320832235674115
-0.005430754193548388,-0.005473636284420234
-0.005430414193548388,-0.005210327822384256
-0.005430074193548387,-0.003400082145883136
-0.005429734193548388,-0.003762131281183265
-0.005429394193548388,-0.008995386964148326
-0.005429054193548387,-0.00688891926786619
-0.005428714193548388,-0.003992526185465165
-0.005428374193548388,-0.005539463399926534
-0.005428034193548387,-0.005967339650738591
-0.005427694193548388,-0.00415709397423795
-0.005427354193548388,-0.004782451571574535
-0.005427014193548387,-0.005341982053402005
-0.005426674193548388,-0.005309068495647449
-0.005426334193548388,-0.00688891926786619
-0.005425994193548387,-0.008139634462539359
-0.005425654193548388,-0.007777585327239231
-0.005425314193548388,-0.009159954752930631
-0.005424974193548387,-0.01054232417862203
-0.005424634193548388,-0.01021318860107646
-0.005424294193548388,-0.009884053023530886
-0.005423954193548387,-0.01097020042942744
-0.005423614193548388,-0.008863732733139616
-0.005423274193548388,-0.008402942924575817
-0.005422934193548387,-0.008468770040085949
-0.005422594193548388,-0.009028300521912402
-0.005422254193548388,-0.007448449749693661
-0.005421914193548387,-0.009291608983946403
-0.005421574193548388,-0.007942153116012016
-0.005421234193548388,-0.005934426092984033
-0.005420894193548387,-0.007678844653978434
-0.005420554193548388,-0.009258695426194301
-0.005420214193548388,0.0005166312269091594
-0.005419874193548387,-0.0008328246410391769
-0.005419534193548388,-0.007152227729902647
-0.005419194193548388,-0.004749538013819977
-0.005418854193548387,-0.005078673591370099
-0.005418514193548388,-0.007580103980711889
-0.005418174193548388,-0.008172548020293918
-0.005417834193548387,-0.008699164944368147
-0.005417494193548388,-0.009423263214967087
