Analysis/files/cmb03_d2s01/wrd12_ch34.csv

#Digilent WaveForms Oscilloscope Acquisition
#Device Name: ADP3450
#Serial Number: SN:210018B9D9B0
#Date Time: 2024-08-12 11:34:26.753.206.620
#Sample rate: 2.94118e+06Hz
#Samples: 32768
#Trigger: Source: Channel 3 Type: Edge Condition: Rising Level: 60 mV Hyst.: Auto HoldOff: 0 s
#Channel 3: Range: 200 mV/div Offset: 0 V Attenuation: 1 X Coupling: DC Bandwidth: 0 Hz Sample Mode: Average

Time (s),Channel 3 (V)
-0.005570322258414767,0.005190356428056269
-0.005569982258414766,0.002886407385234816
-0.005569642258414767,0.00153695151730043
-0.005569302258414767,0.001174902382000301
-0.005568962258414766,0.0007799396889435806
-0.005568622258414767,-0.0003391212747093254
-0.005568282258414767,-0.00119487377632781
-0.005567942258414766,-0.0004378619479758106
-0.005567602258414767,-0.001984799162437181
-0.005567262258414767,-0.001754404258155281
-0.005566922258414766,-0.002445588971001998
-0.005566582258414767,-0.003005119452828451
-0.005566242258414767,-0.001918972046928067
-0.005565902258414766,-0.000734083967766166
-0.005565562258414767,-0.001918972046928067
-0.005565222258414767,-0.004519143109538078
-0.005564882258414766,-0.0006353432944887248
-0.005564542258414767,0.00574988690988374
-0.005564202258414767,0.00153695151730043
-0.005563862258414766,-0.0005366026212330759
-0.005563522258414767,0.001438210844036758
-0.005563182258414767,0.0004508041114000451
-0.005562842258414767,-0.0005036890634803747
-0.005562502258414767,-0.002412675413246423
-0.005562162258414767,-0.002972205895073894
-0.005561822258414767,-0.003268427914864369
-0.005561482258414767,-0.004255834647501621
-0.005561142258414767,-0.005309068495647449
-0.005560802258414767,-0.006428129459300355
-0.005560462258414767,-0.00688891926786619
-0.005560122258414767,-0.008929559848648731
-0.005559782258414767,-0.00774467176948683
-0.005559442258414767,-0.007448449749693661
-0.005559102258414767,-0.01031192927434013
-0.005558762258414767,-0.009159954752932726
-0.005558422258414767,-0.009192868310685188
-0.005558082258414767,-0.01047649706311291
-0.005557742258414767,-0.01044358350535842
-0.005557402258414766,-0.00790923955825746
-0.005557062258414767,-0.009851139465776329
-0.005556722258414767,-0.007876326000506495
-0.005556382258414766,-0.00711931417214809
-0.005556042258414767,-0.00711931417214809
-0.005555702258414767,-0.007086400614393592
-0.005555362258414766,-0.006987659941129861
-0.005555022258414767,-0.007843412442748346
-0.005554682258414767,-0.01093728687167109
-0.005554342258414766,-0.005802771861965805
-0.005554002258414767,-0.007744671769484675
-0.005553662258414767,-0.008402942924575817
-0.005553322258414766,-0.00415709397423795
-0.005552982258414767,-0.00962074456149443
-0.005552642258414767,-0.009489090330476201
-0.005552302258414766,-0.007020573498884419
-0.005551962258414767,-0.007777585327239231
-0.005551622258414767,-0.01008153437005823
-0.005551282258414766,-0.008995386964158265
-0.005550942258414767,-0.009225781868439744
-0.005550602258414767,-0.01083854619841304
-0.005550262258414766,-0.00553946339993797
-0.005549922258414767,-0.01027901571658557
-0.005549582258414767,-0.01120059533371317
-0.005549242258414766,-0.01176012581553962
-0.005548902258414767,-0.01120059533371317
-0.005548562258414767,-0.01284627322144103
-0.005548222258414766,-0.01189178004655947
-0.005547882258414767,-0.01222091562410444
-0.005547542258414767,-0.01162847158452241
-0.005547202258414766,-0.01149681735350161
-0.005546862258414767,-0.01008153437005823
-0.005546522258414767,-0.01070689196739481
-0.005546182258414766,-0.01077271908290429
-0.005545842258414767,-0.01097020042943127
-0.005545502258414767,-0.01307666812572293
-0.005545162258414766,-0.01304375456796909
-0.005544822258414767,-0.01343871726102305
-0.005544482258414767,-0.01682881370974244
-0.005544142258414766,-0.02031765083171232
-0.005543802258414767,-0.01307666812572293
-0.005543462258414767,-0.01291210033695014
-0.005543122258414766,-0.0122538291818593
-0.005542782258414767,-0.01241839697063178
-0.005542442258414767,-0.01465651889794167
-0.005542102258414767,-0.0118259529310549
-0.005541762258414767,-0.008962473406403288
-0.005541422258414767,-0.007645931096221003
-0.005541082258414767,-0.00840294292457444
-0.005540742258414767,-0.006461043017056948
-0.005540402258414767,-0.004288748205256179
-0.005540062258414767,-0.007152227729897438
-0.005539722258414767,-0.005012846475856435
-0.005539382258414767,-0.005835685419720362
-0.005539042258414767,-0.007547190422954219
-0.005538702258414767,-0.01060815129413114
-0.005538362258414767,-0.009916966581285444
-0.005538022258414767,-0.01215508850859126
-0.005537682258414767,-0.012253829181859
-0.005537342258414767,-0.0115626444690133
-0.005537002258414767,-0.01192469360431277
-0.005536662258414767,-0.01307666812572293
-0.005536322258414767,-0.01281335966368647
-0.005535982258414767,-0.01409698841611186
-0.005535642258414766,-0.01587432053486028
-0.005535302258414767,-0.01498565447548724
-0.005534962258414767,-0.01557809851506819
-0.005534622258414766,-0.01564392563057838
-0.005534282258414767,-0.01538061716854192
-0.005533942258414767,-0.01850740515521916
-0.005533602258414766,-0.01511730870650547
-0.005533262258414767,-0.01060815129413114
-0.005532922258414767,-0.0108714597561676
-0.005532582258414766,-0.01024610215883101
-0.005532242258414767,-0.012253829181859
-0.005531902258414767,-0.01439321043590521
-0.005531562258414766,-0.01123350889146773
-0.005531222258414767,-0.01380076639632318
-0.005530882258414767,-0.01113476821820406
-0.005530542258414766,-0.01185886648880431
-0.005530202258414767,-0.01245131052838634
-0.005529862258414767,-0.01149681735350419
-0.005529522258414766,-0.0119905207198226
-0.005529182258414767,-0.0120234342775771
-0.005528842258414767,-0.012253829181859
-0.005528502258414766,-0.01097020042943337
-0.005528162258414767,-0.01212217495084077
-0.005527822258414767,-0.01106894110269494
-0.005527482258414766,-0.01070689196739691
-0.005527142258414767,-0.01185886648880431
-0.005526802258414767,-0.01169429870003153
-0.005526462258414766,-0.01284627322144312
-0.005526122258414767,-0.01399824774285052
-0.005525782258414767,-0.01412990197386875
-0.005525442258414766,-0.01524896293752597
-0.005525102258414767,-0.01649967813219686
-0.005524762258414767,-0.01613762899689674
-0.005524422258414766,-0.01478817312896331
-0.005524082258414767,-0.01666424592096965
-0.005523742258414767,-0.01751999842258814
-0.005523402258414766,-0.02456349978207461
-0.005523062258414767,-0.03075124863992009
-0.005522722258414767,-0.04036200750425076
-0.005522382258414766,-0.06231535052658574
-0.005522042258414767,-0.08726382730449464
-0.005521702258414767,-0.1191241512109059
-0.005521362258414766,-0.1516756598302147
-0.005521022258414767,-0.1801458872878548
-0.005520682258414767,-0.2083198927257557
-0.005520342258414767,-0.2321493085400117
-0.005520002258414767,-0.2506796415558707
-0.005519662258414767,-0.264404595139521
-0.005519322258414767,-0.2720734540963189
-0.005518982258414767,-0.2752331556407703
-0.005518642258414767,-0.2744103166969064
-0.005518302258414767,-0.2703290355353487
-0.005517962258414767,-0.2649970391791031
-0.005517622258414767,-0.2592371665720555
-0.005517282258414767,-0.2512391720377127
-0.005516942258414767,-0.2431424368300771
-0.005516602258414767,-0.2358356270085654
-0.005516262258414767,-0.2279363731474861
-0.005515922258414767,-0.2192801074580232
-0.005515582258414767,-0.2122036925407934
-0.005515242258414767,-0.2041069573331871
-0.005514902258414766,-0.1962735305875878
-0.005514562258414767,-0.18978955970994
-0.005514222258414767,-0.1824498363306871
-0.005513882258414766,-0.1760316925685352
-0.005513542258414767,-0.1697122894796602
-0.005513202258414767,-0.1665525879352285
-0.005512862258414766,-0.1625371338891668
-0.005512522258414767,-0.1497666734803986
-0.005512182258414767,-0.144533417797424
-0.005511842258414766,-0.1389051994213948
-0.005511502258414767,-0.1371278673026487
-0.005511162258414767,-0.1362062876855211
-0.005510822258414766,-0.1297223168078733
-0.005510482258414767,-0.1251473322799899
-0.005510142258414767,-0.1246536289136715
-0.005509802258414766,-0.1191570647686605
-0.005509462258414767,-0.1148783022605681
-0.005509122258414767,-0.1111590702343031
-0.005508782258414766,-0.1066499128219216
-0.005508442258414767,-0.1027002858913819
-0.005508102258414767,-0.0991127080961352
-0.005507762258414766,-0.09519599472333586
-0.005507422258414767,-0.09131219490830517
-0.005507082258414767,-0.08739548153551288
-0.005506742258414766,-0.08815249336386205
-0.005506402258414767,-0.08505861893493932
-0.005506062258414767,-0.08232679364131107
-0.005505722258414766,-0.08028615306052266
-0.005505382258414767,-0.07706062440058195
-0.005505042258414767,-0.07373635506737167
-0.005504702258414766,-0.07083996198496531
-0.005504362258414767,-0.06791065534481508
-0.005504022258414767,-0.06639663168810545
-0.005503682258414766,-0.06458638601160097
-0.005503342258414767,-0.06247991831531315
-0.005503002258414767,-0.06139377090941276
-0.005502662258414766,-0.06264448610408228
-0.005502322258414767,-0.06063675908105794
-0.005501982258414767,-0.0541527882034102
-0.005501642258414766,-0.05217797473813503
-0.005501302258414767,-0.05122348156325461
-0.005500962258414767,-0.05421861531891931
-0.005500622258414766,-0.05438318310768389
-0.005500282258414767,-0.04987402569531777
-0.005499942258414767,-0.04914992742471751
-0.005499602258414767,-0.05036772906163391
-0.005499262258414767,-0.04783338511453523
-0.005498922258414767,-0.0472409410749532
-0.005498582258414767,-0.03927586009836487
-0.005498242258414767,-0.04144815491015115
-0.005497902258414767,-0.04207351250748774
-0.005497562258414767,-0.03743270086410362
-0.005497222258414767,-0.03644529413145847
-0.005496882258414767,-0.03621489922717657
-0.005496542258414767,-0.03670860259349403
-0.005496202258414767,-0.03667568903574037
-0.005495862258414767,-0.03193613671908415
-0.005495522258414767,-0.02933596565647887
-0.005495182258414767,-0.03555662807208543
-0.005494842258414767,-0.03509583826352163
-0.005494502258414767,-0.0306525079666645
-0.005494162258414766,-0.03193613671908415
-0.005493822258414767,-0.02982966902279249
-0.005493482258414767,-0.0285789538281216
-0.005493142258414766,-0.02673579459386412
-0.005492802258414767,-0.02624209122754577
-0.005492462258414767,-0.02670288103610873
-0.005492122258414766,-0.02762446065323717
-0.005491782258414767,-0.02769028776874628
-0.005491442258414767,-0.02831564536608173
-0.005491102258414766,-0.03055376729339275
-0.005490762258414767,-0.02857895382811932
-0.005490422258414767,-0.02716367084467337
-0.005490082258414766,-0.0256825607457183
-0.005489742258414767,-0.02426727776227234
-0.005489402258414767,-0.02202915583496246
-0.005489062258414766,-0.02196332871945334
-0.005488722258414767,-0.0203834779472346
-0.005488382258414767,-0.01863905938624308
-0.005488042258414766,-0.01965937967663213
-0.005487702258414767,-0.01844157803971573
-0.005487362258414767,-0.0190011085215432
-0.005487022258414766,-0.02012016948520545
-0.005486682258414767,-0.02413562353125412
-0.005486342258414767,-0.02578130141898197
-0.005486002258414766,-0.02081135419804355
-0.005485662258414767,-0.02064678640927106
-0.005485322258414767,-0.01946189833010701
-0.005484982258414766,-0.02153545246865027
-0.005484642258414767,-0.02492554891736349
-0.005484302258414767,-0.02196332871945334
-0.005483962258414766,-0.01837575092420608
-0.005483622258414767,-0.01807952890441561
-0.005483282258414767,-0.01603888832363307
-0.005482942258414766,-0.01574266630384043
-0.005482602258414767,-0.01485400024446901
-0.005482262258414767,-0.01426155620488698
-0.005481922258414766,-0.01432738332040041
-0.005481582258414767,-0.01669715947872421
-0.005481242258414767,-0.01649967813219686
-0.005480902258414766,-0.01567683918833635
-0.005480562258414767,-0.01755291198034269
-0.005480222258414767,-0.01656550524770598
-0.005479882258414766,-0.01630219678566982
-0.005479542258414767,-0.01646676457444231
-0.005479202258414767,-0.01643385101668775
-0.005478862258414767,-0.01633511034342426
-0.005478522258414767,-0.01551227139956015
-0.005478182258414767,-0.01534770361078737
-0.005477842258414767,-0.01327414947225404
-0.005477502258414767,-0.01505148159099635
-0.005477162258414767,-0.01607180188138762
-0.005476822258414767,-0.01781622044237597
-0.005476482258414767,-0.01844157803971573
-0.005476142258414767,-0.02278616766331727
-0.005475802258414767,-0.0188365407327776
-0.005475462258414767,-0.01077271908290393
-0.005475122258414767,-0.0106410648518857
-0.005474782258414767,-0.007942153116016926
-0.005474442258414767,-0.01189178004655887
-0.005474102258414767,-0.01577557986159661
-0.005473762258414767,-0.01439321043590772
-0.005473422258414767,-0.01600597476587851
-0.005473082258414767,-0.01886945429052498
-0.005472742258414767,-0.01751999842259059
-0.005472402258414766,-0.01468943245569622
-0.005472062258414767,-0.01383367995407774
-0.005471722258414767,-0.01317540879898779
-0.005471382258414766,-0.01251713764389546
-0.005471042258414767,-0.01360328504979584
-0.005470702258414767,-0.0140969884161133
-0.005470362258414766,-0.01478817312895989
-0.005470022258414767,-0.01547935784180559
-0.005469682258414767,-0.01623636967016041
-0.005469342258414766,-0.01389950706958685
-0.005469002258414767,-0.01241839697063178
-0.005468662258414767,-0.01307666812572293
-0.005468322258414766,-0.01143099023799507
-0.005467982258414767,-0.01255005120165001
-0.005467642258414767,-0.0124842240861409
-0.005467302258414766,-0.01080563264065849
-0.005466962258414767,-0.01139807668024051
-0.005466622258414767,-0.01123350889146773
-0.005466282258414766,-0.010608151294133
-0.005465942258414767,-0.01162847158452241
-0.005465602258414767,-0.01748708486483358
-0.005465262258414766,-0.01136516312248739
-0.005464922258414767,-0.01215508850859533
-0.005464582258414767,-0.01146390379574963
-0.005464242258414766,-0.006428129459322566
-0.005463902258414767,-0.01751999842258814
-0.005463562258414767,-0.01656550524770598
-0.005463222258414766,-0.01310958168347826
-0.005462882258414767,-0.01353745793428673
-0.005462542258414767,-0.01557809851506927
-0.005462202258414766,-0.01436029687814892
-0.005461862258414767,-0.0134058037032685
-0.005461522258414767,-0.01324123591449571
-0.005461182258414766,-0.01426155620488411
-0.005460842258414767,-0.01268170543266824
-0.005460502258414767,-0.01284627322144103
-0.005460162258414766,-0.01294501389470278
-0.005459822258414767,-0.01189178004655887
-0.005459482258414767,-0.01195760716206798
-0.005459142258414766,-0.01208926139308466
-0.005458802258414767,-0.01123350889146773
-0.005458462258414767,-0.0111018546604495
-0.005458122258414766,-0.01284627322143857
-0.005457782258414767,-0.01149681735350419
-0.005457442258414767,-0.01146390379574963
-0.005457102258414767,-0.01172721225778561
-0.005456762258414767,-0.01162847158452241
-0.005456422258414767,-0.0120234342775771
-0.005456082258414767,-0.01304375456796651
-0.005455742258414767,-0.01324123591449571
-0.005455402258414767,-0.01281335966368647
-0.005455062258414767,-0.0160059747658727
-0.005454722258414767,-0.01014736148556734
-0.005454382258414767,-0.01027901571658557
-0.005454042258414767,-0.009390349657214147
-0.005453702258414767,-0.01182595293104976
-0.005453362258414767,-0.01468943245569622
-0.005453022258414767,-0.01449195110916924
-0.005452682258414767,-0.01146390379574963
-0.005452342258414767,-0.01291210033695014
-0.005452002258414767,-0.01432738332039352
-0.005451662258414766,-0.01393242062734141
-0.005451322258414767,-0.01324123591449571
-0.005450982258414767,-0.0134058037032682
-0.005450642258414766,-0.01495274091773268
-0.005450302258414767,-0.01465651889794167
-0.005449962258414767,-0.01488691380222315
-0.005449622258414766,-0.01538061716854192
-0.005449282258414767,-0.01452486466692344
-0.005448942258414767,-0.01462360534018693
-0.005448602258414766,-0.0136361986075504
-0.005448262258414767,-0.01304375456796837
-0.005447922258414767,-0.01136516312248596
-0.005447582258414766,-0.0117930393732952
-0.005447242258414767,-0.01024610215883101
-0.005446902258414767,-0.0104106699476038
-0.005446562258414766,-0.009818225908021772
-0.005446222258414767,-0.009028300521912402
-0.005445882258414767,-0.007777585327239231
-0.005445542258414766,-0.00790923955825752
-0.005445202258414767,-0.007942153116012016
-0.005444862258414767,-0.01054232417862203
-0.005444522258414766,-0.01018027504331077
-0.005444182258414767,-0.004058353300974278
-0.005443842258414767,-0.008534597155594046
-0.005443502258414766,-0.01268170543266657
-0.005443162258414767,-0.01176012581554064
-0.005442822258414767,-0.01169429870003153
-0.005442482258414766,-0.01327414947225201
-0.005442142258414767,-0.01422864264713243
-0.005441802258414767,-0.01258296475940457
-0.005441462258414766,-0.01350454437653349
-0.005441122258414767,-0.01422864264713243
-0.005440782258414767,-0.0129450138947047
-0.005440442258414766,-0.01169429870003261
-0.005440102258414767,-0.01228674273961356
-0.005439762258414767,-0.0111018546604495
-0.005439422258414766,-0.01060815129413138
-0.005439082258414767,-0.01073980552514937
-0.005438742258414767,-0.009028300521912402
-0.005438402258414766,-0.009258695426194301
-0.005438062258414767,-0.009258695426194301
-0.005437722258414767,-0.01004862081230367
-0.005437382258414766,-0.009390349657216362
-0.005437042258414767,-0.01149681735350419
-0.005436702258414767,-0.01208926139308621
-0.005436362258414767,-0.01064106485188833
-0.005436022258414767,-0.0117930393732952
-0.005435682258414767,-0.01238548341287723
-0.005435342258414767,-0.01403116130060209
-0.005435002258414767,-0.01412990197386875
-0.005434662258414767,-0.01567683918833294
-0.005434322258414767,-0.01544644428405146
-0.005433982258414767,-0.01580849341935116
-0.005433642258414767,-0.01452486466692344
-0.005433302258414767,-0.01274753254818059
-0.005432962258414767,-0.01139807668024051
-0.005432622258414767,-0.0108714597561676
-0.005432282258414767,-0.01064106485188612
-0.005431942258414767,-0.009291608983948858
-0.005431602258414767,-0.01120059533371317
-0.005431262258414767,-0.01116768177595867
-0.005430922258414767,-0.01073980552514937
-0.005430582258414767,-0.01218800206634988
-0.005430242258414767,-0.01172721225778692
-0.005429902258414766,-0.01324123591449571
-0.005429562258414767,-0.01570975274608749
-0.005429222258414767,-0.01169429870003883
-0.005428882258414766,-0.01245131052838634
-0.005428542258414767,-0.0108714597561676
-0.005428202258414767,-0.01129933600697606
-0.005427862258414766,-0.01561101207282382
-0.005427522258414767,-0.01429446976264154
-0.005427182258414767,-0.01139807668024051
-0.005426842258414766,-0.01037775638984924
-0.005426502258414767,-0.01093728687167671
-0.005426162258414767,-0.01037775638984924
-0.005425822258414766,-0.009291608983948858
-0.005425482258414767,-0.009785312350267215
-0.005425142258414767,-0.01054232417862203
-0.005424802258414766,-0.01205634783533165
-0.005424462258414767,-0.01208926139308621
-0.005424122258414767,-0.01320832235674115
-0.005423782258414766,-0.01166138514227458
-0.005423442258414767,-0.01034484283209469
-0.005423102258414767,-0.0129450138947047
-0.005422762258414766,-0.01067397840964008
-0.005422422258414767,-0.01057523773637659
-0.005422082258414767,-0.01208926139308621
-0.005421742258414766,-0.01222091562410061
-0.005421402258414767,-0.01011444792781279
-0.005421062258414767,-0.0140969884161142
-0.005420722258414766,-0.01538061716854276
-0.005420382258414767,-0.01584140697710572
-0.005420042258414767,-0.01580849341935116
-0.005419702258414766,-0.01570975274609623
-0.005419362258414767,-0.02051513217825283
-0.005419022258414767,-0.01656550524770598
-0.005418682258414766,-0.0130437545679655
-0.005418342258414767,-0.01146390379574963
-0.005418002258414767,-0.01126642244922228
-0.005417662258414766,-0.01544644428404565
-0.005417322258414767,-0.0124842240861409
-0.005416982258414767,-0.009719485234758102
-0.005416642258414766,-0.01037775638985014
-0.005416302258414767,-0.0108714597561676
-0.005415962258414767,-0.01060815129413114
