Analysis/files/cmb03_d2s01/wrd11_ch23.csv

#Digilent WaveForms Oscilloscope Acquisition
#Device Name: ADP3450
#Serial Number: SN:210018B9D9B0
#Date Time: 2024-08-12 13:23:45.768.925.730
#Sample rate: 2.94118e+06Hz
#Samples: 32768
#Trigger: Source: Channel 3 Type: Edge Condition: Rising Level: 60 mV Hyst.: Auto HoldOff: 0 s
#Channel 3: Range: 200 mV/div Offset: 0 V Attenuation: 1 X Coupling: DC Bandwidth: 0 Hz Sample Mode: Average

Time (s),Channel 3 (V)
-0.005570545950413223,0.005354924216829054
-0.005570205950413223,0.005848627583147411
-0.005569865950413223,0.005848627583147411
-0.005569525950413223,0.00482830729275614
-0.005569185950413223,0.004729566619494385
-0.005568845950413223,0.005782800467638296
-0.005568505950413223,0.004959961523774369
-0.005568165950413223,0.004894134408265853
-0.005567825950413223,0.005223269985810825
-0.005567485950413223,8.875497609991696e-05
-0.005567145950413223,0.005486578447854108
-0.005566805950413223,0.009238724031866792
-0.005566465950413223,0.009403291820639578
-0.005566125950413223,0.008777934223296946
-0.005565785950413223,0.005453664890092726
-0.005565445950413223,0.004927047966019811
-0.005565105950413223,0.005881541140900351
-0.005564765950413223,0.004992875081528926
-0.005564425950413223,0.002886407385237271
-0.005564085950413223,0.003742159886857073
-0.005563745950413223,0.004466258157456012
-0.005563405950413223,0.005025788639283483
-0.005563065950413224,0.003413024309313118
-0.005562725950413223,0.003643419213592085
-0.005562385950413223,0.003116802289519171
-0.005562045950413224,-7.5812812667061e-05
-0.005561705950413223,-0.001359441565100596
-0.005561365950413223,-0.002215194066719081
-0.005561025950413224,-0.00412418041647992
-0.005560685950413223,-0.003630477050165036
-0.005560345950413223,-0.003729217723428708
-0.005560005950413224,-0.004486229551782144
-0.005559665950413223,-0.003729217723428708
-0.005559325950413223,-0.002478502528755537
-0.005558985950413224,-0.00280763810630051
-0.005558645950413223,-0.002939292337319337
-0.005558305950413223,-0.002149366951209966
-0.005557965950413224,-0.0007669975255210823
-0.005557625950413223,-0.0005695161789912252
-0.005557285950413223,-0.002248107624473638
-0.005556945950413224,-0.001918972046928665
-0.005556605950413223,0.002721839596464486
-0.005556265950413223,0.0025572718076917
-0.005555925950413224,0.002590185365446197
-0.005555585950413223,-0.002741810990791994
-0.005555245950413223,-0.005934426092984033
-0.005554905950413224,-0.004157093974241182
-0.005554565950413223,-0.004979932918101878
-0.005554225950413223,-0.005045760033610991
-0.005553885950413224,-0.005309068495647449
-0.005553545950413223,-0.004025439743219721
-0.005553205950413223,-0.004288748205256179
-0.005552865950413224,-0.004190007531992507
-0.005552525950413223,-0.005210327822383777
-0.005552185950413223,-0.004782451571574535
-0.005551845950413224,-0.003400082145883136
-0.005551505950413223,-0.00488119224483665
-0.005551165950413223,-0.004025439743219721
-0.005550825950413223,-0.003531736376901365
-0.005550485950413223,-0.003301341472620543
-0.005550145950413223,-0.003893785512201493
-0.005549805950413223,-0.004321661763010735
-0.005549465950413223,-0.00514450070687616
-0.005549125950413223,-0.005967339650738591
-0.005548785950413223,-0.004354575320765292
-0.005548445950413223,-0.006526870132566301
-0.005548105950413223,-0.00665852436358429
-0.005547765950413223,-0.004091266858728836
-0.005547425950413223,-0.003432995703639909
-0.005547085950413223,-0.004650797340556306
-0.005546745950413223,-0.009291608983948858
-0.005546405950413223,-0.004683710898306014
-0.005546065950413223,-0.002017712720191738
-0.005545725950413223,-0.002807638106301108
-0.005545385950413223,-0.002083539835708994
-0.005545045950413223,-0.006559783690320619
-0.005544705950413223,-0.006461043017056948
-0.005544365950413223,-0.002807638106303264
-0.005544025950413223,-0.003992526185465165
-0.005543685950413223,-0.005243241380138334
-0.005543345950413223,-0.004058353300974338
-0.005543005950413223,-0.004091266858728836
-0.005542665950413223,-0.004453315994028964
-0.005542325950413224,-0.004815365129328434
-0.005541985950413223,-0.004782451571574535
-0.005541645950413223,-0.006461043017056948
-0.005541305950413224,-0.004453315994032616
-0.005540965950413223,-0.007152227729902647
-0.005540625950413223,-0.007349709076429989
-0.005540285950413224,-0.005572376957687138
-0.005539945950413223,-0.005769858304211248
-0.005539605950413223,-0.006461043017056948
-0.005539265950413224,-0.006625610805829434
-0.005538925950413223,-0.006329388786038719
-0.005538585950413223,-0.008732078502121389
-0.005538245950413224,-0.006230648112779597
-0.005537905950413223,-0.006098993881756819
-0.005537565950413223,-0.006362302343793276
-0.005537225950413224,-0.004947019360349894
-0.005536885950413223,-0.003992526185465165
-0.005536545950413223,-0.00688891926786619
-0.005536205950413224,-0.01225382918184924
-0.005535865950413223,-0.003564649934655922
-0.005535525950413223,-0.003301341472619465
-0.005535185950413224,-0.001392355122858625
-0.005534845950413223,-0.003531736376901365
-0.005534505950413223,-0.007547190422957332
-0.005534165950413224,-0.004584970225052581
-0.005533825950413223,-0.002346848297737309
-0.005533485950413223,-0.004519143109538078
-0.005533145950413224,-0.006823092152357076
-0.005532805950413223,-0.00119487377632781
-0.005532465950413223,-0.004486229551783521
-0.005532125950413224,-0.007415536191939104
-0.005531785950413223,-0.006691437921338847
-0.005531445950413223,-0.005276154937892892
-0.005531105950413224,-0.006263561670529605
-0.005530765950413223,-0.003465909261392251
-0.005530425950413223,-0.004749538013819977
-0.005530085950413224,-0.004749538013819977
-0.005529745950413223,-0.002906378779562984
-0.005529405950413223,-0.001918972046928067
-0.005529065950413223,-0.003005119452828451
-0.005528725950413223,-0.002643070317527904
-0.005528385950413223,-0.002412675413246423
-0.005528045950413223,-0.005210327822383777
-0.005527705950413223,-0.005704031188703091
-0.005527365950413223,-0.006230648112775047
-0.005527025950413223,-0.008567510713348603
-0.005526685950413223,-0.009554917445982861
-0.005526345950413223,-0.008205461578048474
-0.005526005950413223,-0.01218800206634988
-0.005525665950413223,-0.009949880139025332
-0.005525325950413223,-0.00188605848917351
-0.005524985950413223,-0.001326528007346039
-0.005524645950413223,-0.000372034832470528
-0.005524305950413223,-0.004025439743219721
-0.005523965950413223,-0.007250968403166318
-0.005523625950413223,-0.00840294292458851
-0.005523285950413223,-0.01538061716854192
-0.005522945950413223,-0.02999423681156528
-0.005522605950413223,-0.05017024771515118
-0.005522265950413223,-0.07347304660533521
-0.005521925950413223,-0.1026015452181183
-0.005521585950413223,-0.135185967395185
-0.005521245950413223,-0.1654993540870769
-0.005520905950413223,-0.1939037544292597
-0.005520565950413224,-0.2182268736098331
-0.005520225950413223,-0.2368559472989567
-0.005519885950413223,-0.2503505059783251
-0.005519545950413224,-0.2588422038789854
-0.005519205950413223,-0.2607841037865197
-0.005518865950413223,-0.2593029936875647
-0.005518525950413224,-0.2584801547437022
-0.005518185950413223,-0.2538722566580627
-0.005517845950413223,-0.2470591502028694
-0.005517505950413224,-0.2412663640380779
-0.005517165950413223,-0.2351444422957197
-0.005516825950413223,-0.2281667680517536
-0.005516485950413224,-0.2211232666922912
-0.005516145950413223,-0.2139151975440304
-0.005515805950413223,-0.2052260182968273
-0.005515465950413224,-0.203547426851348
-0.005515125950413223,-0.1962406170298332
-0.005514785950413223,-0.1821207007531282
-0.005514445950413224,-0.1762950010305822
-0.005514105950413223,-0.1701401657304694
-0.005513765950413223,-0.1687248827470235
-0.005513425950413224,-0.162932096582232
-0.005513085950413223,-0.1555594596452007
-0.005512745950413223,-0.1483184769391981
-0.005512405950413224,-0.1434472703915236
-0.005512065950413223,-0.1390697672101675
-0.005511725950413223,-0.1315325624843739
-0.005511385950413224,-0.1256410356463082
-0.005511045950413223,-0.1223496798708525
-0.005510705950413223,-0.1170505970723688
-0.005510365950413224,-0.1112578109075668
-0.005510025950413223,-0.1072094433037563
-0.005509685950413223,-0.102766113006891
-0.005509345950413224,-0.09894814030736243
-0.005509005950413223,-0.09684167261106627
-0.005508665950413223,-0.09437315577947897
-0.005508325950413223,-0.09058809663770492
-0.005507985950413223,-0.0899298254826109
-0.005507645950413223,-0.08834997471039502
-0.005507305950413223,-0.08275466989212032
-0.005506965950413223,-0.07916709209686922
-0.005506625950413223,-0.07676440238079094
-0.005506285950413223,-0.07241981275718939
-0.005505945950413223,-0.07064248063843942
-0.005505605950413223,-0.06850309938439708
-0.005505265950413223,-0.0697209010213157
-0.005504925950413223,-0.06912845698172283
-0.005504585950413223,-0.06317110302815884
-0.005504245950413223,-0.06063675908105794
-0.005503905950413223,-0.05741123042111584
-0.005503565950413223,-0.05987974725270313
-0.005503225950413223,-0.06053801840779428
-0.005502885950413223,-0.05467940512747922
-0.005502545950413223,-0.0525400238734369
-0.005502205950413223,-0.0504664697348998
-0.005501865950413223,-0.04803086646105815
-0.005501525950413223,-0.04559526318722535
-0.005501185950413223,-0.04339005481767002
-0.005500845950413223,-0.04151398202565595
-0.005500505950413223,-0.03914420586733215
-0.005500165950413223,-0.03917711942508671
-0.005499825950413224,-0.03631363990044546
-0.005499485950413223,-0.03684025682451315
-0.005499145950413223,-0.03690608394002227
-0.005498805950413224,-0.03532623316780641
-0.005498465950413223,-0.03575410941861278
-0.005498125950413223,-0.03486544335923973
-0.005497785950413224,-0.03338433326028736
-0.005497445950413223,-0.03256149431642073
-0.005497105950413223,-0.03117912489072934
-0.005496765950413224,-0.0279535962307886
-0.005496425950413223,-0.02650539968958223
-0.005496085950413223,-0.02686744882488236
-0.005495745950413224,-0.02660414036284638
-0.005495405950413223,-0.024069796415745
-0.005495065950413223,-0.0238394015114631
-0.005494725950413224,-0.02670288103610436
-0.005494385950413223,-0.02696618949814603
-0.005494045950413223,-0.02031765083172549
-0.005493705950413224,-0.02199624227720485
-0.005493365950413223,-0.02561673363020918
-0.005493025950413223,-0.02400396930023588
-0.005492685950413224,-0.02364192016493642
-0.005492345950413223,-0.02324695747188107
-0.005492005950413223,-0.02295073545209006
-0.005491665950413224,-0.02301656256759905
-0.005491325950413223,-0.02140379823762588
-0.005490985950413223,-0.02114048977558942
-0.005490645950413224,-0.01956063900337068
-0.005490305950413223,-0.01725668996055168
-0.005489965950413223,-0.01656550524770598
-0.005489625950413224,-0.01863905938624308
-0.005489285950413223,-0.01436029687815065
-0.005488945950413223,-0.01541353072629648
-0.005488605950413224,-0.01488691380222357
-0.005488265950413223,-0.01337289014551238
-0.005487925950413223,-0.01251713764389546
-0.005487585950413224,-0.01228674273961356
-0.005487245950413223,-0.01189178004655719
-0.005486905950413223,-0.01097020042943127
-0.005486565950413223,-0.01106894110269494
-0.005486225950413223,-0.00820546157804632
-0.005485885950413223,-0.007020573498884419
-0.005485545950413223,-0.01073980552514937
-0.005485205950413223,-0.01083854619841131
-0.005484865950413223,-0.009884053023530886
-0.005484525950413223,-0.01027901571658557
-0.005484185950413223,-0.01320832235673295
-0.005483845950413223,-0.00869916494436683
-0.005483505950413223,-0.009686571677003543
-0.005483165950413223,-0.008666251386607484
-0.005482825950413223,-0.006033166766247705
-0.005482485950413223,-0.01113476821820406
-0.005482145950413223,-0.01235256985511626
-0.005481805950413223,-0.008830819175385059
-0.005481465950413223,-0.006131907439511376
-0.005481125950413223,-0.009752398792511999
-0.005480785950413223,-0.00939034965721253
-0.005480445950413223,-0.008962473406403288
-0.005480105950413223,-0.009258695426194482
-0.005479765950413223,-0.009357436099457973
-0.005479425950413223,-0.01011444792781279
-0.005479085950413224,-0.01120059533371119
-0.005478745950413223,-0.009522003888230759
-0.005478405950413223,-0.007975066673766575
-0.005478065950413224,-0.009028300521910487
-0.005477725950413223,-0.009159954752930631
-0.005477385950413223,-0.007975066673766575
-0.005477045950413224,-0.008073807347030065
-0.005476705950413223,-0.008238375135803031
-0.005476365950413223,-0.007942153116012016
-0.005476025950413224,-0.008139634462539
-0.005475685950413223,-0.007349709076429989
-0.005475345950413223,-0.005736944746456691
-0.005475005950413224,-0.007086400614391078
-0.005474665950413223,-0.00688891926786619
-0.005474325950413223,-0.006724351479093405
-0.005473985950413224,-0.008830819175381227
-0.005473645950413223,-0.01169429870003153
-0.005473305950413223,-0.004815365129329092
-0.005472965950413224,-0.004617883782802108
-0.005472625950413223,-0.003103860126092122
-0.005472285950413223,-0.004749538013819977
-0.005471945950413224,-0.008205461578042188
-0.005471605950413223,-0.006230648112775047
-0.005471265950413223,-0.004486229551783521
-0.005470925950413224,-0.005769858304208913
-0.005470585950413223,-0.007942153116012016
-0.005470245950413223,-0.007514276865202775
-0.005469905950413224,-0.008567510713348603
-0.005469565950413223,-0.007547190422957332
-0.005469225950413223,-0.006724351479093405
-0.005468885950413224,-0.005835685419720362
-0.005468545950413223,-0.007053487056638975
-0.005468205950413223,-0.006526870132566062
-0.005467865950413224,-0.005276154937892892
-0.005467525950413223,-0.006296475228284162
-0.005467185950413223,-0.007613017538466446
-0.005466845950413224,-0.006263561670529605
-0.005466505950413223,-0.007777585327239591
-0.005466165950413223,-0.007975066673766575
-0.005465825950413223,-0.007613017538466446
-0.005465485950413223,-0.007645931096221542
-0.005465145950413223,-0.007942153116012016
-0.005464805950413223,-0.006757265036847961
-0.005464465950413223,-0.006757265036847423
-0.005464125950413223,-0.006461043017056948
-0.005463785950413223,-0.00586859897747492
-0.005463445950413223,-0.009061214079667139
-0.005463105950413223,-0.009159954752930631
-0.005462765950413223,-0.003301341472619465
-0.005462425950413223,-0.00208353983570145
-0.005462085950413223,-0.002412675413246423
-0.005461745950413223,-0.006757265036847961
-0.005461405950413223,-0.008995386964154792
-0.005461065950413223,-0.007316795518675433
-0.005460725950413223,-0.006263561670529605
-0.005460385950413223,-0.006888919267864214
-0.005460045950413223,-0.005802771861965805
-0.005459705950413223,-0.003959612627710607
-0.005459365950413223,-0.001491095796118225
-0.005459025950413223,-0.001161960218573253
-0.005458685950413223,-0.001359441565100596
-0.005458345950413223,0.0006153719001695977
-0.005458005950413223,-0.001161960218573253
-0.005457665950413223,-0.002149366951209966
-0.005457325950413224,-0.002445588971000442
-0.005456985950413223,-0.004617883782801749
-0.005456645950413223,-0.005967339650738591
-0.005456305950413224,-0.005835685419720601
-0.005455965950413223,-0.006263561670529605
-0.005455625950413223,-0.007876326000502903
-0.005455285950413224,-0.006592697248077511
-0.005454945950413223,-0.007020573498884419
-0.005454605950413223,-0.007053487056638975
-0.005454265950413224,-0.007382622634183948
-0.005453925950413223,-0.007283881960920875
-0.005453585950413223,-0.009456176772721644
-0.005453245950413224,-0.009818225908021113
-0.005452905950413223,-0.01360328504979584
-0.005452565950413223,-0.009028300521912402
-0.005452225950413224,-0.007547190422960026
-0.005451885950413223,-0.006164820997265934
-0.005451545950413223,-0.007613017538466446
-0.005451205950413224,-0.01083854619840718
-0.005450865950413223,-0.009324522541703417
-0.005450525950413223,-0.005835685419720362
-0.005450185950413224,-0.006197734555019832
-0.005449845950413223,-0.005802771861965805
-0.005449505950413223,-0.004288748205256179
-0.005449165950413224,-0.003959612627711205
-0.005448825950413223,-0.003860871954446936
-0.005448485950413223,-0.003795044838937822
-0.005448145950413224,-0.005276154937892892
-0.005447805950413223,-0.00369630416567415
-0.005447465950413223,-0.003762131281183265
-0.005447125950413224,-0.004124180416483393
-0.005446785950413223,-0.003301341472619465
-0.005446445950413223,-0.003334255030374022
-0.005446105950413224,-0.003893785512201493
-0.005445765950413223,-0.004091266858726321
-0.005445425950413223,-0.002708897433037437
-0.005445085950413223,-0.005638204073193019
-0.005444745950413223,-0.004650797340556546
-0.005444405950413223,-0.004782451571574535
-0.005444065950413223,-0.006395215901547833
-0.005443725950413223,-0.005539463399925636
-0.005443385950413223,-0.003498822819146808
-0.005443045950413223,-0.003860871954446936
-0.005442705950413223,-0.007942153116009921
-0.005442365950413223,-0.006790178594602518
-0.005442025950413223,-0.001787317815909838
-0.005441685950413223,-0.001622750027134718
-0.005441345950413223,-0.0003391212747093254
-0.005441005950413223,-0.003301341472619465
-0.005440665950413223,-0.006987659941125371
-0.005440325950413223,-0.004519143109538078
-0.005439985950413223,-0.002281021182228195
-0.005439645950413223,-0.005374895611147523
-0.005439305950413223,-0.0004049483902184396
-0.005438965950413223,-0.004683710898310864
-0.005438625950413223,-0.005572376957681391
-0.005438285950413223,-0.004190007531992507
-0.005437945950413223,-0.00336716858812858
-0.005437605950413223,-0.004815365129327834
-0.005437265950413223,-0.004124180416483393
-0.005436925950413223,-0.003597563492410479
-0.005436585950413224,-0.005309068495644336
-0.005436245950413223,-0.005276154937892892
-0.005435905950413223,-0.007020573498884419
-0.005435565950413224,-0.007086400614393413
-0.005435225950413223,-0.007218054845411761
-0.005434885950413223,-0.00767884465397556
-0.005434545950413224,-0.008995386964155451
-0.005434205950413223,-0.007514276865202775
-0.005433865950413223,-0.005638204073193019
-0.005433525950413224,-0.007086400614390898
-0.005433185950413223,-0.007250968403166318
-0.005432845950413223,-0.007152227729902647
-0.005432505950413224,-0.007185141287657144
-0.005432165950413223,-0.01327414947225027
-0.005431825950413223,-0.01192469360431343
-0.005431485950413224,-0.005045760033623504
-0.005431145950413223,-0.004288748205256179
-0.005430805950413223,-0.001820231373664395
-0.005430465950413224,-0.003992526185461214
-0.005430125950413223,-0.00688891926786619
-0.005429785950413223,-0.004617883782801749
-0.005429445950413224,-0.003729217723430324
-0.005429105950413223,-0.006230648112775047
-0.005428765950413223,-0.006461043017056948
-0.005428425950413224,-0.005605290515440019
-0.005428085950413223,-0.005934426092984033
-0.005427745950413223,-0.005111587149120106
-0.005427405950413224,-0.003663390607919593
-0.005427065950413223,-0.004683710898310864
-0.005426725950413223,-0.005341982053402005
-0.005426385950413224,-0.00392669906995605
-0.005426045950413223,-0.005506549842174791
-0.005425705950413223,-0.005802771861965805
-0.005425365950413224,-0.002610156759773766
-0.005425025950413223,-0.00369630416567415
-0.005424685950413223,-0.003301341472619465
-0.005424345950413224,-0.001359441565100596
-0.005424005950413223,-0.002149366951211702
-0.005423665950413223,-0.003103860126092122
-0.005423325950413223,-0.002708897433037437
-0.005422985950413223,-0.003992526185469416
-0.005422645950413223,-0.006329388786038719
-0.005422305950413223,-0.006329388786038719
-0.005421965950413223,-0.008402942924584019
-0.005421625950413223,-0.01291210033695014
-0.005421285950413223,-0.004782451571574535
-0.005420945950413223,-0.003301341472619405
-0.005420605950413223,-0.003268427914864908
-0.005420265950413223,-0.003597563492410479
-0.005419925950413223,-0.00741553619193653
-0.005419585950413223,-0.006000253208493148
-0.005419245950413223,-0.004650797340556306
-0.005418905950413223,-0.004584970225051384
-0.005418565950413223,-0.00688891926786619
-0.005418225950413223,-0.006559783690320619
-0.005417885950413223,-0.00606608032400364
