Analysis/files/cmb03_d2s01/wrd10_ch21.csv

#Digilent WaveForms Oscilloscope Acquisition
#Device Name: ADP3450
#Serial Number: SN:210018B9D9B0
#Date Time: 2024-08-09 17:18:03.562.677.570
#Sample rate: 2.94118e+06Hz
#Samples: 32768
#Trigger: Source: Channel 3 Type: Edge Condition: Rising Level: 60 mV Hyst.: Auto HoldOff: 0 s
#Channel 3: Range: 200 mV/div Offset: 0 V Attenuation: 1 X Coupling: DC Bandwidth: 0 Hz Sample Mode: Average

Time (s),Channel 3 (V)
-0.005570471506849316,0.009600773167166921
-0.005570131506849315,0.009139983358602702
-0.005569791506849315,0.008909588454321223
-0.005569451506849316,0.006836034315784124
-0.005569111506849315,0.007033515662312904
-0.005568771506849315,0.007823441048420837
-0.005568431506849316,0.005947368256411082
-0.005568091506849315,0.003182629405028165
-0.005567751506849315,0.003116802289519171
-0.005567411506849316,0.003182629405028285
-0.005567071506849315,0.002688926038710527
-0.005566731506849315,0.0030180616162555
-0.005566391506849316,0.0009774210354729588
-0.005566051506849315,0.002096481999131493
-0.005565711506849315,0.004071295464401327
-0.005565371506849316,0.003676332771346642
-0.005565031506849315,0.002524358249937502
-0.005564691506849315,0.002721839596464486
-0.005564351506849315,0.002359790461164357
-0.005564011506849315,0.002063568441371427
-0.005563671506849315,0.001010334593227516
-0.005563331506849315,-0.003400082145883136
-0.005562991506849316,-0.006164820997260905
-0.005562651506849315,0.001405297286282201
-0.005562311506849315,0.00176734642158233
-0.005561971506849316,0.0007470261311929151
-0.005561631506849315,-0.0001745534859365399
-0.005561291506849315,-0.003465909261392251
-0.005560951506849316,-0.002083539835703366
-0.005560611506849315,-0.0009644788720459105
-0.005560271506849315,-0.0009315653142913533
-0.005559931506849316,-0.001853144931417276
-0.005559591506849315,0.0003849769958909309
-0.005559251506849315,-9.985697163754359e-06
-0.005558911506849316,-0.001293614449589147
-0.005558571506849315,0.0002533227648727025
-0.005558231506849315,0.0002533227648727025
-0.005557891506849316,-0.0006024297367442258
-0.005557551506849315,-0.002610156759773766
-0.005557211506849315,-0.001392355122855153
-0.005556871506849316,-0.001886058489172612
-0.005556531506849315,-0.001392355122855153
-0.005556191506849315,-0.001820231373664395
-0.005555851506849316,0.0001216685338509417
-0.005555511506849315,-0.0002732941592002112
-0.005555171506849315,0.0005166312269091594
-0.005554831506849316,0.000187495649364187
-0.005554491506849315,-0.0009644788720459105
-0.005554151506849315,-0.002412675413246423
-0.005553811506849316,-0.002939292337319337
-0.005553471506849315,-0.003564649934655922
-0.005553131506849315,-0.003169687241601236
-0.005552791506849316,-0.007711758211730118
-0.005552451506849315,-0.007283881960920875
-0.005552111506849315,-0.0001745534859365399
-0.005551771506849316,-0.003762131281183265
-0.005551431506849315,-0.007942153116007346
-0.005551091506849315,-0.005374895611156563
-0.005550751506849316,-0.00494701936034732
-0.005550411506849315,-0.007086400614394071
-0.005550071506849315,-0.007382622634184546
-0.005549731506849316,-0.007185141287657204
-0.005549391506849315,-0.008830819175383024
-0.005549051506849315,-0.007711758211730118
-0.005548711506849316,-0.007250968403166318
-0.005548371506849315,-0.008106720904784204
-0.005548031506849315,-0.007777585327239231
-0.005547691506849316,-0.006131907439511376
-0.005547351506849315,-0.005341982053402125
-0.005547011506849315,-0.00540780916891112
-0.005546671506849316,-0.002873465221810222
-0.005546331506849315,-0.001096133103062163
-0.005545991506849315,-9.985697163754359e-06
-0.005545651506849316,-4.289925491831147e-05
-0.005545311506849315,-0.0008657381987845741
-0.005544971506849315,-0.002149366951209966
-0.005544631506849316,-0.003235514357110351
-0.005544291506849315,-0.005407809168915491
-0.005543951506849315,-0.007810498884993789
-0.005543611506849315,-0.006921832825620747
-0.005543271506849315,-0.006987659941131597
-0.005542931506849315,-0.007942153116012016
-0.005542591506849315,-0.007547190422957332
-0.005542251506849316,-0.007415536191939343
-0.005541911506849315,-0.007777585327239231
-0.005541571506849315,-0.007218054845411761
-0.005541231506849316,-0.006856005710112291
-0.005540891506849315,-0.007744671769484675
-0.005540551506849315,-0.007514276865202775
-0.005540211506849316,-0.007316795518675792
-0.005539871506849315,-0.007218054845411761
-0.005539531506849315,-0.007349709076429989
-0.005539191506849316,-0.007876326000501945
-0.005538851506849315,-0.007448449749693661
-0.005538511506849315,-0.007711758211730118
-0.005538171506849316,-0.006987659941131178
-0.005537831506849315,-0.007810498884993789
-0.005537491506849315,-0.01080563264065849
-0.005537151506849316,-0.004947019360357977
-0.005536811506849315,-0.005144500706874663
-0.005536471506849315,-0.003795044838937822
-0.005536131506849316,-0.002281021182230948
-0.005535791506849315,-0.006724351479093405
-0.005535451506849315,-0.006823092152357076
-0.005535111506849316,-0.003893785512206821
-0.005534771506849315,-0.00540780916891112
-0.005534431506849315,-0.005901512535229476
-0.005534091506849316,-0.001491095796126846
-0.005533751506849315,-0.003564649934655922
-0.005533411506849315,-0.006526870132566062
-0.005533071506849316,-0.006493956574811504
-0.005532731506849315,-0.006691437921338847
-0.005532391506849315,-0.007481363307448217
-0.005532051506849316,-0.007810498884993789
-0.005531711506849315,-0.008007980231521132
-0.005531371506849315,-0.007711758211730118
-0.005531031506849316,-0.007152227729902647
-0.005530691506849315,-0.005901512535229476
-0.005530351506849315,-0.00767884465397556
-0.005530011506849316,-0.00688891926786619
-0.005529671506849315,-0.006033166766249441
-0.005529331506849315,-0.006987659941129861
-0.005528991506849316,-0.006790178594602518
-0.005528651506849315,-0.006000253208492609
-0.005528311506849315,-0.005704031188702134
-0.005527971506849316,-0.006296475228284162
-0.005527631506849315,-0.005012846475861284
-0.005527291506849315,-0.00767884465397556
-0.005526951506849316,-0.00688891926786619
-0.005526611506849315,0.001339470170770453
-0.005526271506849315,-0.0001087263704274257
-0.005525931506849316,-0.0005695161789912252
-0.005525591506849315,-0.006329388786040455
-0.005525251506849315,-0.007283881960920875
-0.005524911506849316,-0.006625610805829733
-0.005524571506849315,-0.00576985830421532
-0.005524231506849315,-0.008007980231521132
-0.005523891506849316,-0.007810498884993789
-0.005523551506849315,-0.006921832825627932
-0.005523211506849315,-0.0108714597561676
-0.005522871506849315,-0.01896819496378865
-0.005522531506849315,-0.03127786556402689
-0.005522191506849315,-0.04990693925307233
-0.005521851506849315,-0.07686314305405459
-0.005521511506849315,-0.1077031466701323
-0.005521171506849315,-0.1394318163454677
-0.005520831506849315,-0.1708642640010697
-0.005520491506849316,-0.1994661456897278
-0.005520151506849315,-0.224052573332434
-0.005519811506849315,-0.2428791283680407
-0.005519471506849316,-0.2548925769484321
-0.005519131506849315,-0.2610144986908016
-0.005518791506849315,-0.2645691629282938
-0.005518451506849316,-0.2644375086972758
-0.005518111506849315,-0.2600600055159195
-0.005517771506849315,-0.2521278380970712
-0.005517431506849316,-0.2471908044338966
-0.005517091506849315,-0.2399498217278851
-0.005516751506849315,-0.2359014541240745
-0.005516411506849316,-0.2297137052662291
-0.005516071506849315,-0.2163178872601131
-0.005515731506849315,-0.2097022621514471
-0.005515391506849316,-0.2020334031946492
-0.005515051506849315,-0.1976888135710337
-0.005514711506849315,-0.192093508752759
-0.005514371506849316,-0.1845563040269792
-0.005514031506849315,-0.1772165806476992
-0.005513691506849315,-0.1712921402518789
-0.005513351506849316,-0.1675729082256208
-0.005513011506849315,-0.1592786916714656
-0.005512671506849315,-0.1538150410842091
-0.005512331506849316,-0.1488121803055164
-0.005511991506849315,-0.1420319874080777
-0.005511651506849315,-0.1347580911443206
-0.005511311506849316,-0.1296894032501188
-0.005510971506849315,-0.1247194560291806
-0.005510631506849315,-0.1191570647686605
-0.005510291506849316,-0.1152074378381136
-0.005509951506849315,-0.1115211193696032
-0.005509611506849315,-0.1071765297460017
-0.005509271506849316,-0.1039180875283005
-0.005508931506849315,-0.1002646826175345
-0.005508591506849315,-0.09463646424151545
-0.005508251506849316,-0.09147676269707797
-0.005507911506849315,-0.08858036961467042
-0.005507571506849315,-0.0849927918194302
-0.005507231506849316,-0.08120773267765613
-0.005506891506849315,-0.08018741238726422
-0.005506551506849315,-0.07982536325196474
-0.005506211506849316,-0.08133938690867437
-0.005505871506849315,-0.07146531958230136
-0.005505531506849315,-0.06823979092236063
-0.005505191506849316,-0.06471804024262304
-0.005504851506849315,-0.06317110302816094
-0.005504511506849315,-0.06432307754956834
-0.005504171506849316,-0.06011014215698503
-0.005503831506849315,-0.05780619311416424
-0.005503491506849315,-0.05681878638152932
-0.005503151506849316,-0.05609468811092907
-0.005502811506849315,-0.05428444243442519
-0.005502471506849315,-0.05250711031568234
-0.005502131506849316,-0.05194757983385487
-0.005501791506849315,-0.0510589137744786
-0.005501451506849315,-0.04928158165573574
-0.005501111506849315,-0.04730676819046232
-0.005500771506849315,-0.04664849703536896
-0.005500431506849315,-0.04543069539845256
-0.005500091506849315,-0.04250138875829698
-0.005499751506849316,-0.04065822952404513
-0.005499411506849315,-0.03986830413793241
-0.005499071506849315,-0.0354249738410672
-0.005498731506849316,-0.03394386374211483
-0.005498391506849315,-0.03381220951109391
-0.005498051506849315,-0.0328906298939663
-0.005497711506849316,-0.03154117402603192
-0.005497371506849315,-0.03160700114153858
-0.005497031506849315,-0.0317386553725568
-0.005496691506849316,-0.03025754527360443
-0.005496351506849315,-0.03052085373563819
-0.005496011506849315,-0.02989549613830161
-0.005495671506849316,-0.03160700114153546
-0.005495331506849315,-0.024069796415745
-0.005494991506849315,-0.02298364900984462
-0.005494651506849316,-0.0208442677558023
-0.005494311506849315,-0.0224570320857717
-0.005493971506849315,-0.02588004209224564
-0.005493631506849316,-0.02074552708254407
-0.005493291506849315,-0.02127214400660764
-0.005492951506849315,-0.02242411852801714
-0.005492611506849316,-0.02206206939271767
-0.005492271506849315,-0.02160127958415322
-0.005491931506849315,-0.02255577275903537
-0.005491591506849316,-0.02252285920128087
-0.005491251506849315,-0.02170002025741689
-0.005490911506849315,-0.0224570320857717
-0.005490571506849316,-0.0134058037032685
-0.005490231506849315,-0.02183167448843512
-0.005489891506849315,-0.0190011085215432
-0.005489551506849316,-0.01630219678566952
-0.005489211506849315,-0.01406407485835964
-0.005488871506849315,-0.01416281553162331
-0.005488531506849316,-0.01215508850859533
-0.005488191506849315,-0.01449195110916888
-0.005487851506849315,-0.01449195110916888
-0.005487511506849316,-0.01468943245569622
-0.005487171506849315,-0.01485400024446614
-0.005486831506849315,-0.01327414947225027
-0.005486491506849316,-0.01215508850859533
-0.005486151506849315,-0.01054232417862161
-0.005485811506849315,-0.01031192927434013
-0.005485471506849316,-0.01396533418509597
-0.005485131506849315,-0.006230648112772892
-0.005484791506849315,-0.005045760033610991
-0.005484451506849316,-0.00494701936034732
-0.005484111506849315,-0.007086400614401016
-0.005483771506849315,-0.01120059533371317
-0.005483431506849316,-0.01126642244922228
-0.005483091506849315,-0.007975066673771724
-0.005482751506849315,-0.01080563264065849
-0.005482411506849316,-0.01123350889146773
-0.005482071506849315,-0.008830819175383442
-0.005481731506849315,-0.007942153116012016
-0.005481391506849316,-0.008304202251312145
-0.005481051506849315,-0.007876326000500089
-0.005480711506849315,-0.006329388786038719
-0.005480371506849315,-0.007218054845411761
-0.005480031506849315,-0.005111587149119986
-0.005479691506849315,-0.005045760033610991
-0.005479351506849315,-0.006954746383375304
-0.005479011506849316,-0.00521032782238695
-0.005478671506849315,-0.004815365129329092
-0.005478331506849315,-0.006164820997265934
-0.005477991506849316,-0.009094127637416186
-0.005477651506849315,-0.008468770040084931
-0.005477311506849315,-0.008995386964157845
-0.005476971506849316,-0.008370029366822398
-0.005476631506849315,-0.008764992059875945
-0.005476291506849315,-0.008995386964157845
-0.005475951506849316,-0.008073807347031921
-0.005475611506849315,-0.007086400614393532
-0.005475271506849315,-0.00869916494436683
-0.005474931506849316,-0.01215508850858904
-0.005474591506849315,-0.00415709397423795
-0.005474251506849315,-0.003630477050165036
-0.005473911506849316,-0.003729217723428528
-0.005473571506849315,-0.004321661763010735
-0.005473231506849315,-0.008929559848648731
-0.005472891506849316,-0.007481363307450852
-0.005472551506849315,-0.005506549842174791
-0.005472211506849315,-0.006987659941129861
-0.005471871506849316,-0.009324522541699166
-0.005471531506849315,-0.007481363307448217
-0.005471191506849315,-0.009061214079666959
-0.005470851506849316,-0.008468770040086008
-0.005470511506849315,-0.006362302343793276
-0.005470171506849315,-0.006000253208493148
-0.005469831506849316,-0.006461043017056948
-0.005469491506849315,-0.00540780916891112
-0.005469151506849315,-0.006428129459302391
-0.005468811506849316,-0.005572376957683906
-0.005468471506849315,-0.005374895611156563
-0.005468131506849315,-0.004782451571574535
-0.005467791506849316,-0.005539463399929348
-0.005467451506849315,-0.005309068495647449
-0.005467111506849315,-0.004420402436274407
-0.005466771506849316,-0.005539463399929348
-0.005466431506849315,-0.006000253208494585
-0.005466091506849315,-0.006790178594602518
-0.005465751506849316,-0.007613017538466446
-0.005465411506849315,-0.007415536191938685
-0.005465071506849315,-0.007185141287657204
-0.005464731506849316,-0.01162847158452241
-0.005464391506849315,-0.01004862081229439
-0.005464051506849315,-0.00494701936034732
-0.005463711506849316,-0.005144500706874663
-0.005463371506849315,-0.004519143109545203
-0.005463031506849315,-0.008435856482330374
-0.005462691506849316,-0.009225781868439744
-0.005462351506849315,-0.007810498884992172
-0.005462011506849315,-0.006921832825620747
-0.005461671506849316,-0.006856005710111633
-0.005461331506849315,-0.008468770040078824
-0.005460991506849315,-0.005111587149120106
-0.005460651506849316,-0.004091266858728836
-0.005460311506849315,-0.004584970225044499
-0.005459971506849315,-0.003103860126092122
-0.005459631506849316,-0.003005119452828451
-0.005459291506849315,-0.003762131281187096
-0.005458951506849315,-0.00586859897747492
-0.005458611506849315,-0.004749538013819977
-0.005458271506849315,-0.005539463399928989
-0.005457931506849315,-0.005341982053402005
-0.005457591506849315,-0.005243241380138334
-0.005457251506849316,-0.005144500706874842
-0.005456911506849315,-0.004749538013819977
-0.005456571506849315,-0.004222921089747064
-0.005456231506849316,-0.004552056667292036
-0.005455891506849315,-0.00494701936034732
-0.005455551506849315,-0.004321661763010735
-0.005455211506849316,-0.003992526185465763
-0.005454871506849315,-0.004519143109538078
-0.005454531506849315,-0.006098993881756819
-0.005454191506849316,-0.00942326321496104
-0.005453851506849315,-0.003762131281183265
-0.005453511506849315,-0.00267598387528288
-0.005453171506849316,-0.002313934739983411
-0.005452831506849315,-0.004255834647501621
-0.005452491506849315,-0.00837002936682126
-0.005452151506849316,-0.00682309215235989
-0.005451811506849315,-0.005506549842174791
-0.005451471506849315,-0.003795044838937822
-0.005451131506849316,-0.005440722726662683
-0.005450791506849315,-0.007382622634184546
-0.005450451506849315,-0.006856005710111633
-0.005450111506849316,-0.007547190422956075
-0.005449771506849315,-0.009423263214967087
-0.005449431506849315,-0.01143099023799507
-0.005449091506849316,-0.01014736148556968
-0.005448751506849315,-0.01143099023799507
-0.005448411506849315,-0.01103602754494038
-0.005448071506849316,-0.009949880139040001
-0.005447731506849315,-0.00860042427110316
-0.005447391506849315,-0.003893785512201493
-0.005447051506849316,-0.005473636284420234
-0.005446711506849315,-0.007382622634184546
-0.005446371506849315,-0.005671117630947577
-0.005446031506849316,-0.003169687241601236
-0.005445691506849315,-0.004124180416482914
-0.005445351506849315,-0.003860871954446936
-0.005445011506849316,-0.00392669906995605
-0.005444671506849315,-0.003367168588134207
-0.005444331506849315,-0.006461043017056948
-0.005443991506849316,-0.00837002936682126
-0.005443651506849315,-0.01192469360430427
-0.005443311506849315,-0.00688891926786619
-0.005442971506849316,-0.005374895611156563
-0.005442631506849315,-0.005012846475851346
-0.005442291506849315,-0.002215194066719081
-0.005441951506849316,-0.00517741426462922
-0.005441611506849315,-0.002116453393452955
-0.005441271506849315,-0.0007669975255185678
-0.005440931506849316,-0.001951885604682624
-0.005440591506849315,-0.003531736376903999
-0.005440251506849315,-0.004979932918101878
-0.005439911506849316,-0.004881192244838206
-0.005439571506849315,-0.006296475228285539
-0.005439231506849315,-0.007053487056638975
-0.005438891506849316,-0.00837002936682126
-0.005438551506849315,-0.005539463399931204
-0.005438211506849315,-0.006559783690320619
-0.005437871506849315,-0.006790178594602518
-0.005437531506849315,-0.005243241380136657
-0.005437191506849315,-0.004321661763010735
-0.005436851506849315,-0.003597563492410479
-0.005436511506849316,-0.004025439743218943
-0.005436171506849315,-0.003992526185465165
-0.005435831506849315,-0.005078673591365549
-0.005435491506849316,-0.003827958396694654
-0.005435151506849315,-0.003992526185465165
-0.005434811506849315,-0.005374895611156563
-0.005434471506849316,-0.005605290515438044
-0.005434131506849315,-0.004815365129329092
-0.005433791506849315,-0.005111587149120106
-0.005433451506849316,-0.01011444792780369
-0.005433111506849315,-0.006691437921338847
-0.005432771506849315,-0.00142526868060971
-0.005432431506849316,0.0002204092071151518
-0.005432091506849315,0.0006153719001728307
-0.005431751506849315,-0.004190007531992507
-0.005431411506849316,-0.007711758211723712
-0.005431071506849315,-0.004519143109538078
-0.005430731506849315,-0.006296475228284162
-0.005430391506849316,-0.009587831003733886
-0.005430051506849315,-0.007613017538466446
-0.005429711506849315,-0.006823092152357076
-0.005429371506849316,-0.005473636284422689
-0.005429031506849315,-0.00517741426462922
-0.005428691506849315,-0.005341982053402005
-0.005428351506849316,-0.006888919267863376
-0.005428011506849315,-0.006493956574811504
-0.005427671506849315,-0.005243241380138334
-0.005427331506849316,-0.008205461578048474
-0.005426991506849315,-0.00688891926786619
-0.005426651506849315,-0.007448449749693661
-0.005426311506849316,-0.007843412442748346
-0.005425971506849315,-0.007711758211730118
-0.005425631506849315,-0.007547190422957332
-0.005425291506849316,-0.008205461578048474
-0.005424951506849315,-0.007382622634184546
-0.005424611506849315,-0.006362302343793276
-0.005424271506849316,-0.007744671769484675
-0.005423931506849315,-0.006823092152357196
-0.005423591506849315,-0.00688891926786619
-0.005423251506849316,-0.008501683597839487
-0.005422911506849315,-0.01261587831715236
-0.005422571506849315,-0.008896646290894173
-0.005422231506849316,-0.003169687241601236
-0.005421891506849315,-0.008040893789279521
-0.005421551506849315,-0.01014736148556734
-0.005421211506849316,-0.00790923955825746
-0.005420871506849315,-0.008633337828856879
-0.005420531506849315,-0.008172548020293918
-0.005420191506849316,-0.007645931096221003
-0.005419851506849315,-0.007678844653972687
-0.005419511506849315,-0.006098993881756819
-0.005419171506849316,-0.005341982053402005
-0.005418831506849315,-0.004387488878518653
-0.005418491506849315,-0.003729217723428708
-0.005418151506849316,-0.003860871954446936
-0.005417811506849315,-0.004979932918100081
