Analysis/files/cmb03_d2s01/wrd12_ch40.csv

#Digilent WaveForms Oscilloscope Acquisition
#Device Name: ADP3450
#Serial Number: SN:210018B9D9B0
#Date Time: 2024-08-12 11:39:02.024.626.810
#Sample rate: 2.94118e+06Hz
#Samples: 32768
#Trigger: Source: Channel 3 Type: Edge Condition: Rising Level: 60 mV Hyst.: Auto HoldOff: 0 s
#Channel 3: Range: 200 mV/div Offset: 0 V Attenuation: 1 X Coupling: DC Bandwidth: 0 Hz Sample Mode: Average

Time (s),Channel 3 (V)
-0.00557026576923077,0.006342330949465767
-0.005569925769230769,0.009008329127583337
-0.00556958576923077,0.008152576625966409
-0.00556924576923077,0.00630941739171121
-0.005568905769230769,0.007757613932910285
-0.00556856576923077,0.006967688546802352
-0.00556822576923077,0.004795393735001583
-0.005567885769230769,0.00561823267886557
-0.005567545769230769,0.005651146236620068
-0.00556720576923077,0.003939641233383098
-0.005566865769230769,0.003840900560123738
-0.005566525769230769,0.006210676718447538
-0.00556618576923077,0.004334603926437783
-0.005565845769230769,0.004104209022156423
-0.005565505769230769,0.004400431041946898
-0.00556516576923077,0.003281370078291956
-0.005564825769230769,0.002688926038710767
-0.005564485769230769,0.003149715847273728
-0.00556414576923077,0.002096481999127901
-0.005563805769230769,0.002162309114637973
-0.005563465769230769,0.002688926038709928
-0.00556312576923077,0.001602778632809544
-0.00556278576923077,5.584141834817386e-05
-0.005562445769230769,0.0005495447846637165
-0.00556210576923077,-0.004519143109538078
-0.00556176576923077,-0.00389378551220263
-0.005561425769230769,0.001141988824245744
-0.00556108576923077,0.00130655661301853
-0.00556074576923077,0.001569865075054508
-0.005560405769230769,-0.002412675413246423
-0.00556006576923077,-0.001491095796118824
-0.00555972576923077,0.00107616170873196
-0.005559385769230769,0.002063568441373343
-0.00555904576923077,0.001931914210355115
-0.00555870576923077,0.001536951517301148
-0.005558365769230769,0.001405297286282201
-0.00555802576923077,0.001964827768109672
-0.00555768576923077,0.001207815939756236
-0.005557345769230769,0.0009445074777184018
-0.00555700576923077,0.001141988824245744
-0.00555666576923077,-0.001030305987551073
-0.005556325769230769,-0.001491095796118824
-0.00555598576923077,-0.0006024297367457822
-0.00555564576923077,-0.001096133103063241
-0.005555305769230769,-0.002215194066719081
-0.00555496576923077,-0.001984799162437181
-0.00555462576923077,-0.001787317815910198
-0.005554285769230769,-0.0006024297367457822
-0.00555394576923077,-0.0007011704100094536
-0.00555360576923077,-0.002182280508964523
-0.005553265769230769,-0.003005119452828451
-0.00555292576923077,-0.0009973924298004675
-0.00555258576923077,-0.00165566358489161
-0.005552245769230769,-0.004486229551783521
-0.00555190576923077,-0.005243241380138334
-0.00555156576923077,-0.008337115809066702
-0.005551225769230769,-0.005111587149116094
-0.00555088576923077,-0.00290637877956478
-0.00555054576923077,-0.002840551664055666
-0.005550205769230769,-0.003630477050174795
-0.00554986576923077,-0.008995386964157845
-0.00554952576923077,-0.006296475228284162
-0.005549185769230769,-0.005243241380138035
-0.00554884576923077,-0.005078673591365549
-0.00554850576923077,-0.004288748205256179
-0.005548165769230769,-0.003992526185465643
-0.00554782576923077,-0.004255834647501621
-0.00554748576923077,-0.004354575320765292
-0.005547145769230769,-0.004617883782803127
-0.005546805769230769,-0.005374895611156563
-0.00554646576923077,-0.003795044838937822
-0.005546125769230769,-0.004584970225047312
-0.005545785769230769,-0.004650797340556306
-0.00554544576923077,-0.002511416086510094
-0.005545105769230769,-0.002939292337318739
-0.005544765769230769,-0.002610156759773766
-0.00554442576923077,-0.002939292337319337
-0.005544085769230769,-0.002972205895077187
-0.005543745769230769,-0.004782451571574535
-0.00554340576923077,-0.003663390607919593
-0.005543065769230769,-0.004979932918102716
-0.005542725769230769,-0.005440722726665677
-0.00554238576923077,-0.005374895611156563
-0.00554204576923077,-0.00458497022504863
-0.005541705769230769,-0.004420402436274407
-0.00554136576923077,-0.008567510713348603
-0.00554102576923077,-0.007613017538468183
-0.005540685769230769,-0.002610156759773766
-0.00554034576923077,-0.002807638106301108
-0.00554000576923077,-0.002215194066720158
-0.005539665769230769,-0.007185141287657204
-0.00553932576923077,-0.008995386964157845
-0.00553898576923077,-0.005736944746462618
-0.005538645769230769,-0.006066080324002262
-0.00553830576923077,-0.00860042427110316
-0.00553796576923077,-0.00655978369032433
-0.005537625769230769,-0.006954746383375304
-0.00553728576923077,-0.007547190422957332
-0.00553694576923077,-0.007185141287657862
-0.005536605769230769,-0.006856005710111633
-0.00553626576923077,-0.00860042427110316
-0.00553592576923077,-0.007448449749695756
-0.005535585769230769,-0.007250968403166318
-0.00553524576923077,-0.006329388786038719
-0.00553490576923077,-0.006098993881757238
-0.005534565769230769,-0.00688891926786619
-0.00553422576923077,-0.007316795518675433
-0.00553388576923077,-0.006263561670531521
-0.005533545769230769,-0.007481363307448217
-0.00553320576923077,-0.00869916494436683
-0.00553286576923077,-0.006592697248075176
-0.005532525769230769,-0.006263561670529605
-0.00553218576923077,-0.005802771861965805
-0.00553184576923077,-0.004124180416483393
-0.005531505769230769,-0.00517741426462922
-0.00553116576923077,-0.00494701936034732
-0.00553082576923077,-0.01054232417862203
-0.005530485769230769,-0.004321661763010735
-0.00553014576923077,-0.002215194066719081
-0.00552980576923077,-0.003432995703637694
-0.005529465769230769,-0.002511416086518416
-0.00552912576923077,-0.007086400614393532
-0.00552878576923077,-0.008172548020293918
-0.005528445769230769,-0.005309068495638528
-0.00552810576923077,-0.0004049483902184396
-0.00552776576923077,-0.009587831003739873
-0.005527425769230769,-0.007152227729903964
-0.00552708576923077,-0.007876326000502903
-0.00552674576923077,-0.008863732733139616
-0.005526405769230769,-0.008402942924575038
-0.00552606576923077,-0.007975066673766575
-0.00552572576923077,-0.00665852436358429
-0.005525385769230769,-0.006395215901546816
-0.005525045769230769,-0.005835685419720362
-0.00552470576923077,-0.00688891926786619
-0.005524365769230769,-0.005704031188703211
-0.005524025769230769,-0.006296475228284162
-0.00552368576923077,-0.008007980231521132
-0.005523345769230769,-0.01100311398719864
-0.005523005769230769,-0.01804661534666105
-0.00552266576923077,-0.03091581642869288
-0.005522325769230769,-0.05132222223656181
-0.005521985769230769,-0.0752503787240813
-0.00552164576923077,-0.10507006204971
-0.005521305769230769,-0.136897472398421
-0.005520965769230769,-0.1666842421662409
-0.00552062576923077,-0.1961418763565696
-0.00552028576923077,-0.2244804495831917
-0.005519945769230769,-0.236164762586111
-0.00551960576923077,-0.2499555432852704
-0.00551926576923077,-0.2575914886843138
-0.005518925769230769,-0.261211980037329
-0.00551858576923077,-0.2646349900438029
-0.00551824576923077,-0.2616727698458982
-0.005517905769230769,-0.2543659600243811
-0.00551756576923077,-0.2488364823216155
-0.00551722576923077,-0.243043696156824
-0.005516885769230769,-0.2348153067181742
-0.00551654576923077,-0.2265210901640258
-0.00551620576923077,-0.2193130210157909
-0.005515865769230769,-0.2123353467718117
-0.00551552576923077,-0.204732314930509
-0.00551518576923077,-0.1984458253994
-0.005514845769230769,-0.192093508752759
-0.00551450576923077,-0.1865640310499934
-0.00551416576923077,-0.1810674669049924
-0.005513825769230769,-0.1742543604497891
-0.00551348576923077,-0.1666842421662409
-0.00551314576923077,-0.1612535051367489
-0.005512805769230769,-0.1547366207013367
-0.00551246576923077,-0.1479893413616525
-0.00551212576923077,-0.1423940365433778
-0.005511785769230769,-0.1375228299957034
-0.00551144576923077,-0.130413501520719
-0.00551110576923077,-0.12550938141529
-0.005510765769230769,-0.1221521985243252
-0.00551042576923077,-0.1168531157258415
-0.00551008576923077,-0.1172480784188962
-0.005509745769230769,-0.1132984514883493
-0.00550940576923077,-0.1036547790662641
-0.00550906576923077,-0.1005938181950903
-0.005508725769230769,-0.09723663530412402
-0.00550838576923077,-0.09644670991801607
-0.00550804576923077,-0.0951301676078338
-0.005507705769230769,-0.09137802202380746
-0.00550736576923077,-0.08762587643979478
-0.00550702576923077,-0.08519027316595754
-0.005506685769230769,-0.08229388008355112
-0.00550634576923077,-0.07933165988564639
-0.00550600576923077,-0.0767973159385455
-0.005505665769230769,-0.075019983819793
-0.00550532576923077,-0.07149823314006179
-0.00550498576923077,-0.06886514851969722
-0.005504645769230769,-0.06768026044052819
-0.005504305769230769,-0.06494843514690493
-0.00550396576923077,-0.06218369629552213
-0.005503625769230769,-0.06034053706126346
-0.005503285769230769,-0.05843155071150262
-0.00550294576923077,-0.05563389830236527
-0.005502605769230769,-0.05402113397239137
-0.005502265769230769,-0.0536919983948464
-0.00550192576923077,-0.05056521040816347
-0.005501585769230769,-0.04826126136534543
-0.005501245769230769,-0.04878787828941739
-0.00550090576923077,-0.04714220040168953
-0.005500565769230769,-0.04536486828294315
-0.005500225769230769,-0.04520030049417066
-0.00549988576923077,-0.04358753616419737
-0.00549954576923077,-0.04536486828294022
-0.005499205769230769,-0.04358753616419737
-0.00549886576923077,-0.03815679913469544
-0.00549852576923077,-0.03572119586086264
-0.005498185769230769,-0.0345033942239396
-0.00549784576923077,-0.03424008576190315
-0.00549750576923077,-0.03427299931965764
-0.005497165769230769,-0.03048794017788364
-0.00549682576923077,-0.02950053344524692
-0.00549648576923077,-0.0285460402703665
-0.005496145769230769,-0.02818399113506464
-0.00549580576923077,-0.02726241151793704
-0.00549546576923077,-0.02851312671260793
-0.005495125769230769,-0.02745989286446438
-0.00549478576923077,-0.0272953250756916
-0.00549444576923077,-0.02433310487778684
-0.005494105769230769,-0.02492554891736349
-0.00549376576923077,-0.02485972180185437
-0.00549342576923077,-0.02318113035637501
-0.005493085769230769,-0.02229246429699892
-0.00549274576923077,-0.02193041516169879
-0.00549240576923077,-0.02252285920127974
-0.005492065769230769,-0.02196332871945334
-0.00549172576923077,-0.02170002025741689
-0.00549138576923077,-0.01995560169642854
-0.005491045769230769,-0.02002142881193448
-0.00549070576923077,-0.02035056438948005
-0.00549036576923077,-0.01863905938624308
-0.005490025769230769,-0.01788204755788826
-0.00548968576923077,-0.01765165265360636
-0.00548934576923077,-0.02005434236968903
-0.005489005769230769,-0.02048221862049827
-0.00548866576923077,-0.01482108668671445
-0.00548832576923077,-0.01370202572305951
-0.005487985769230769,-0.01093728687167707
-0.00548764576923077,-0.01113476821820406
-0.00548730576923077,-0.01564392563057838
-0.005486965769230769,-0.01287918677919223
-0.00548662576923077,-0.01103602754494038
-0.00548628576923077,-0.01373493928081407
-0.005485945769230769,-0.01297792745245967
-0.00548560576923077,-0.01320832235674115
-0.00548526576923077,-0.0129450138947047
-0.005484925769230769,-0.01333997658775866
-0.00548458576923077,-0.0129450138947047
-0.00548424576923077,-0.01360328504979584
-0.005483905769230769,-0.01251713764389558
-0.00548356576923077,-0.01258296475940457
-0.00548322576923077,-0.01541353072629648
-0.005482885769230769,-0.01340580370326963
-0.005482545769230769,-0.01403116130060508
-0.00548220576923077,-0.0143273833203961
-0.005481865769230769,-0.009423263214977384
-0.005481525769230769,-0.01508439514875091
-0.00548118576923077,-0.01426155620488698
-0.005480845769230769,-0.0143932104358991
-0.005480505769230769,-0.01103602754494038
-0.00548016576923077,-0.01189178004655887
-0.005479825769230769,-0.009982793696793181
-0.005479485769230769,-0.009225781868439744
-0.00547914576923077,-0.008732078502121389
-0.00547880576923077,-0.01192469360430762
-0.005478465769230769,-0.01274753254817735
-0.00547812576923077,-0.003992526185465165
-0.00547778576923077,-0.005243241380136059
-0.005477445769230769,-0.009489090330476201
-0.00547710576923077,-0.008666251386612273
-0.00547676576923077,-0.006757265036851434
-0.005476425769230769,-0.007514276865202775
-0.00547608576923077,-0.00869916494436683
-0.00547574576923077,-0.008896646290893814
-0.005475405769230769,-0.007514276865202775
-0.00547506576923077,-0.00790923955825746
-0.00547472576923077,-0.007580103980712487
-0.005474385769230769,-0.006164820997265934
-0.00547404576923077,-0.004914105802592763
-0.00547370576923077,-0.005473636284419217
-0.005473365769230769,-0.00517741426462922
-0.00547302576923077,-0.00494701936034732
-0.00547268576923077,-0.006559783690317685
-0.005472345769230769,-0.00665852436358429
-0.00547200576923077,-0.007086400614393532
-0.00547166576923077,-0.008600424271100405
-0.005471325769230769,-0.007349709076429989
-0.00547098576923077,-0.00939034965721253
-0.00547064576923077,-0.009159954752931051
-0.005470305769230769,-0.009884053023530886
-0.00546996576923077,-0.008896646290894173
-0.00546962576923077,-0.01067397840964026
-0.005469285769230769,-0.009719485234758102
-0.00546894576923077,-0.009982793696794558
-0.00546860576923077,-0.008468770040084931
-0.005468265769230769,-0.01245131052838634
-0.00546792576923077,-0.007349709076429989
-0.00546758576923077,-0.008040893789275689
-0.005467245769230769,-0.00790923955825746
-0.00546690576923077,-0.008139634462539359
-0.00546656576923077,-0.01278044610593191
-0.005466225769230769,-0.01218800206634396
-0.00546588576923077,-0.008929559848648731
-0.00546554576923077,-0.007975066673766575
-0.005465205769230769,-0.008830819175381767
-0.00546486576923077,-0.007020573498884419
-0.00546452576923077,-0.004848278687083649
-0.005464185769230769,-0.005704031188699859
-0.00546384576923077,-0.004453315994028964
-0.00546350576923077,-0.003729217723428708
-0.005463165769230769,-0.004387488878520029
-0.00546282576923077,-0.004486229551783521
-0.00546248576923077,-0.004716624456065421
-0.005462145769230769,-0.005934426092983375
-0.005461805769230769,-0.005572376957683906
-0.00546146576923077,-0.005638204073193019
-0.005461125769230769,-0.006197734555020012
-0.005460785769230769,-0.005934426092984033
-0.00546044576923077,-0.006296475228284162
-0.005460105769230769,-0.006461043017057067
-0.005459765769230769,-0.006526870132566062
-0.00545942576923077,-0.005572376957683906
-0.005459085769230769,-0.00573694474645693
-0.005458745769230769,-0.00586859897747492
-0.00545840576923077,-0.003827958396692379
-0.005458065769230769,-0.007382622634180235
-0.005457725769230769,-0.005012846475856435
-0.00545738576923077,-0.0008657381987822392
-0.00545704576923077,-0.000306207716955786
-0.005456705769230769,-0.0006024297367457822
-0.00545636576923077,-0.004552056667292635
-0.00545602576923077,-0.006329388786035486
-0.005455685769230769,-0.005506549842174791
-0.00545534576923077,-0.006000253208493148
-0.00545500576923077,-0.00764593109621801
-0.005454665769230769,-0.008435856482330374
-0.00545432576923077,-0.006592697248075176
-0.00545398576923077,-0.005704031188703751
-0.005453645769230769,-0.006329388786038719
-0.00545330576923077,-0.005901512535229476
-0.00545296576923077,-0.005407809168912018
-0.005452625769230769,-0.005967339650738591
-0.00545228576923077,-0.006263561670529605
-0.00545194576923077,-0.005341982053403682
-0.005451605769230769,-0.005572376957683906
-0.00545126576923077,-0.005835685419720362
-0.00545092576923077,-0.004091266858732009
-0.005450585769230769,-0.003729217723428708
-0.00545024576923077,-0.004091266858728836
-0.00544990576923077,-7.581281268017291e-05
-0.005449565769230769,0.0002862363226272596
-0.00544922576923077,-0.0003391212747093254
-0.00544888576923077,-0.0008657381987812813
-0.005448545769230769,-0.0006024297367457822
-0.00544820576923077,-0.002379761855491866
-0.00544786576923077,-0.006131907439511376
-0.005447525769230769,-0.009916966581285444
-0.00544718576923077,-0.006296475228284162
-0.00544684576923077,-0.003893785512201493
-0.005446505769230769,-0.002972205895073894
-0.00544616576923077,-0.002972205895073894
-0.00544582576923077,-0.00711931417214809
-0.005445485769230769,-0.005374895611152791
-0.00544514576923077,-0.003301341472619465
-0.00544480576923077,-0.005309068495647449
-0.005444465769230769,-0.002906378779568492
-0.00544412576923077,-0.00494701936034732
-0.00544378576923077,-0.004519143109538078
-0.005443445769230769,-0.004716624456067397
-0.00544310576923077,-0.005802771861965805
-0.00544276576923077,-0.00517741426462922
-0.005442425769230769,-0.005078673591366926
-0.00544208576923077,-0.005835685419720362
-0.00544174576923077,-0.007481363307448217
-0.005441405769230769,-0.005868598977477673
-0.005441065769230769,-0.007382622634184546
-0.00544072576923077,-0.006000253208493148
-0.005440385769230769,-0.004486229551783222
-0.005440045769230769,-0.004321661763010735
-0.00543970576923077,-0.005045760033610991
-0.005439365769230769,-0.003860871954446757
-0.005439025769230769,-0.003762131281183265
-0.00543868576923077,-0.005704031188702134
-0.005438345769230769,-0.005671117630945661
-0.005438005769230769,-0.004617883782801749
-0.00543766576923077,-0.00494701936034732
-0.005437325769230769,-0.008370029366819704
-0.005436985769230769,-0.007514276865202775
-0.00543664576923077,-0.003103860126092122
-0.00543630576923077,-0.004157093974236034
-0.005435965769230769,-0.003564649934655922
-0.00543562576923077,-0.001524009353873381
-0.00543528576923077,-0.01067397840962361
-0.005434945769230769,-0.006856005710111633
-0.00543460576923077,-0.005835685419720362
-0.00543426576923077,-0.008106720904780672
-0.005433925769230769,-0.005045760033610991
-0.00543358576923077,-0.005078673591365549
-0.00543324576923077,-0.005243241380138035
-0.005432905769230769,-0.004782451571574535
-0.00543256576923077,-0.004486229551783521
-0.00543222576923077,-0.005605290515436427
-0.005431885769230769,-0.004815365129329092
-0.00543154576923077,-0.004190007531992507
-0.00543120576923077,-0.005276154937890916
-0.005430865769230769,-0.003663390607919593
-0.00543052576923077,-0.002873465221810222
-0.00543018576923077,-0.00326842791486419
-0.005429845769230769,-0.003498822819146808
-0.00542950576923077,-0.00267598387528288
-0.00542916576923077,-0.00494701936034319
-0.005428825769230769,-0.006954746383375304
-0.00542848576923077,-0.005045760033610991
-0.00542814576923077,-0.006724351479090352
-0.005427805769230769,-0.00494701936034732
-0.00542746576923077,-0.007777585327239231
-0.00542712576923077,-0.006230648112775047
-0.005426785769230769,-0.01097020042943127
-0.00542644576923077,-0.005802771861965805
-0.00542610576923077,-0.003860871954446936
-0.005425765769230769,-0.004782451571574535
-0.00542542576923077,-0.003103860126092122
-0.00542508576923077,-0.007250968403166318
-0.005424745769230769,-0.008764992059875945
-0.00542440576923077,-0.006066080324002262
-0.00542406576923077,-0.005736944746456691
-0.005423725769230769,-0.006987659941127945
-0.00542338576923077,-0.005934426092984033
-0.00542304576923077,-0.006362302343793276
-0.005422705769230769,-0.007843412442746191
-0.00542236576923077,-0.00665852436358429
-0.00542202576923077,-0.006493956574811504
-0.005421685769230769,-0.006197734555018814
-0.00542134576923077,-0.005276154937892892
-0.00542100576923077,-0.003630477050165036
-0.005420665769230769,-0.004749538013818361
-0.00542032576923077,-0.003860871954446936
-0.00541998576923077,-0.00267598387528288
-0.005419645769230769,-0.003795044838940097
-0.005419305769230769,-0.005045760033610991
-0.00541896576923077,-0.005144500706874663
-0.005418625769230769,-0.00395961262771384
-0.005418285769230769,-0.005736944746456691
-0.00541794576923077,-0.004124180416483393
-0.005417605769230769,-0.005671117630949074
-0.005417265769230769,-0.006493956574811504
-0.00541692576923077,-0.006526870132566062
-0.005416585769230769,-0.007810498885005045
-0.005416245769230769,-0.01399824774285052
-0.00541590576923077,-0.008764992059875945
-0.005415565769230769,-0.006362302343794413
-0.005415225769230769,-0.006987659941129861
