Analysis/files/cmb03_d2s01/wrd10_ch05.csv

#Digilent WaveForms Oscilloscope Acquisition
#Device Name: ADP3450
#Serial Number: SN:210018B9D9B0
#Date Time: 2024-08-09 17:09:31.800.225.340
#Sample rate: 2.94118e+06Hz
#Samples: 32768
#Trigger: Source: Channel 3 Type: Edge Condition: Rising Level: 60 mV Hyst.: Auto HoldOff: 0 s
#Channel 3: Range: 200 mV/div Offset: 0 V Attenuation: 1 X Coupling: DC Bandwidth: 0 Hz Sample Mode: Average

Time (s),Channel 3 (V)
-0.005570512093023256,0.01164141374794946
-0.005570172093023256,0.01368205432871769
-0.005569832093023256,0.005815714025392853
-0.005569492093023256,0.001833173537091444
-0.005569152093023256,0.003742159886855158
-0.005568812093023256,0.003413024309310185
-0.005568472093023256,0.001931914210355115
-0.005568132093023256,0.001899000652602713
-0.005567792093023256,0.003083888731764614
-0.005567452093023256,0.004202949695419555
-0.005567112093023256,0.003281370078292016
-0.005566772093023256,0.003314283636046514
-0.005566432093023256,0.003775073444610313
-0.005566092093023256,0.003248456520534346
-0.005565752093023256,0.001569865075054987
-0.005565412093023256,0.002063568441373343
-0.005565072093023256,0.002096481999125566
-0.005564732093023256,0.0008128532467001733
-0.005564392093023256,0.000714112573436502
-0.005564052093023256,0.002030654883616811
-0.005563712093023256,0.0009445074777184018
-0.005563372093023256,0.001240729497509416
-0.005563032093023257,0.0009445074777189406
-0.005562692093023256,-0.000832824641027682
-0.005562352093023256,-0.0003720348324638825
-0.005562012093023256,0.000121668533853576
-0.005561672093023256,-0.002116453393455409
-0.005561332093023256,-0.004222921089747064
-0.005560992093023256,-0.008402942924568214
-0.005560652093023256,-0.005045760033610991
-0.005560312093023256,-0.005934426092984033
-0.005559972093023256,-0.007678844653972387
-0.005559632093023256,-0.004321661763010735
-0.005559292093023256,-0.005638204073193019
-0.005558952093023256,-0.005605290515438522
-0.005558612093023256,-0.002116453393455409
-0.005558272093023256,-0.003762131281183265
-0.005557932093023256,-0.003038033010584325
-0.005557592093023256,-0.00369630416567415
-0.005557252093023256,-0.004420402436274407
-0.005556912093023256,-0.003465909261393987
-0.005556572093023256,-0.005671117630947577
-0.005556232093023256,-0.006625610805829733
-0.005555892093023256,-0.007349709076428672
-0.005555552093023256,-0.007613017538466446
-0.005555212093023256,-0.009324522541703417
-0.005554872093023256,-0.009357436099457913
-0.005554532093023256,-0.00939034965721253
-0.005554192093023256,-0.01070689196739481
-0.005553852093023256,-0.009522003888230759
-0.005553512093023256,-0.008501683597839487
-0.005553172093023256,-0.008172548020293918
-0.005552832093023256,-0.006066080324002262
-0.005552492093023256,-0.003827958396692379
-0.005552152093023256,-0.006000253208493148
-0.005551812093023256,-0.004815365129329092
-0.005551472093023256,-0.003070946568341936
-0.005551132093023256,-0.005473636284420234
-0.005550792093023256,-0.009225781868439744
-0.005550452093023256,-0.01294501389469254
-0.005550112093023256,-0.006263561670529605
-0.005549772093023256,-0.006164820997265934
-0.005549432093023256,-0.007514276865196548
-0.005549092093023256,-0.004091266858728836
-0.005548752093023256,-0.006757265036847961
-0.005548412093023256,-0.009522003888227286
-0.005548072093023256,-0.007613017538466446
-0.005547732093023256,-0.007547190422957332
-0.005547392093023256,-0.007316795518674295
-0.005547052093023256,-0.006691437921338847
-0.005546712093023256,-0.005374895611156563
-0.005546372093023256,-0.004584970225050066
-0.005546032093023256,-0.006164820997265934
-0.005545692093023256,-0.006592697248075176
-0.005545352093023256,-0.006230648112777143
-0.005545012093023256,-0.007382622634184546
-0.005544672093023256,-0.01027901571658557
-0.005544332093023256,-0.01103602754493679
-0.005543992093023256,-0.009061214079666959
-0.005543652093023256,-0.00939034965721253
-0.005543312093023256,-0.007514276865202655
-0.005542972093023256,-0.007448449749693661
-0.005542632093023256,-0.006592697248075176
-0.005542292093023257,-0.005868598977476236
-0.005541952093023256,-0.005045760033610991
-0.005541612093023256,-0.007316795518675433
-0.005541272093023256,-0.009818225908017222
-0.005540932093023256,-0.008435856482330374
-0.005540592093023256,-0.01004862081230367
-0.005540252093023256,-0.01070689196739362
-0.005539912093023256,-0.01485400024446901
-0.005539572093023256,-0.01123350889146773
-0.005539232093023256,-0.007283881960928059
-0.005538892093023256,-0.01004862081230367
-0.005538552093023256,-0.006263561670529605
-0.005538212093023256,-0.007185141287655527
-0.005537872093023256,-0.01093728687167671
-0.005537532093023256,-0.009916966581285444
-0.005537192093023256,-0.007744671769488625
-0.005536852093023256,-0.008962473406403288
-0.005536512093023256,-0.007448449749693661
-0.005536172093023256,-0.008501683597837572
-0.005535832093023256,-0.007547190422957332
-0.005535492093023256,-0.008337115809066702
-0.005535152093023256,-0.008501683597839187
-0.005534812093023256,-0.007185141287657204
-0.005534472093023256,-0.008205461578048474
-0.005534132093023256,-0.01087145975616275
-0.005533792093023256,-0.009094127637421515
-0.005533452093023256,-0.006757265036847961
-0.005533112093023256,-0.008567510713348603
-0.005532772093023256,-0.008205461578048474
-0.005532432093023256,-0.006921832825620747
-0.005532092093023256,-0.006987659941129861
-0.005531752093023256,-0.006230648112775047
-0.005531412093023256,-0.005276154937892892
-0.005531072093023256,-0.005835685419720362
-0.005530732093023256,-0.006461043017056948
-0.005530392093023256,-0.004584970225047193
-0.005530052093023256,-0.00688891926786619
-0.005529712093023256,-0.006526870132570433
-0.005529372093023256,-0.008929559848648731
-0.005529032093023256,-0.0104106699476038
-0.005528692093023256,-0.003268427914871853
-0.005528352093023256,-0.007086400614393532
-0.005528012093023256,-0.006461043017056948
-0.005527672093023256,-0.00442040243628189
-0.005527332093023256,-0.008534597155594046
-0.005526992093023256,-0.01192469360431343
-0.005526652093023256,-0.01037775638984787
-0.005526312093023256,-0.00962074456149443
-0.005525972093023256,-0.01103602754494038
-0.005525632093023256,-0.01162847158452038
-0.005525292093023256,-0.01050941062086747
-0.005524952093023256,-0.009291608983948858
-0.005524612093023256,-0.009094127637417744
-0.005524272093023256,-0.007020573498884419
-0.005523932093023256,-0.006066080324002262
-0.005523592093023256,-0.009357436099463063
-0.005523252093023256,-0.01215508850859533
-0.005522912093023256,-0.01985686102316169
-0.005522572093023256,-0.03555662807212752
-0.005522232093023256,-0.05869485917353907
-0.005521892093023256,-0.08377499018251158
-0.005521552093023256,-0.1131338836996367
-0.005521212093023256,-0.1462120092429064
-0.005520872093023256,-0.174780977373862
-0.005520532093023257,-0.2032512048315021
-0.005520192093023256,-0.2261261274709711
-0.005519852093023256,-0.241891721635404
-0.005519512093023256,-0.2535431210804959
-0.005519172093023256,-0.2602574868624468
-0.005518832093023256,-0.2632855341758661
-0.005518492093023256,-0.2608170173442788
-0.005518152093023256,-0.2512720855954527
-0.005517812093023256,-0.2468945824140966
-0.005517472093023256,-0.2372509099920289
-0.005517132093023256,-0.228364249398281
-0.005516792093023256,-0.2261919545864802
-0.005516452093023256,-0.2192142803425268
-0.005516112093023256,-0.2091427316696196
-0.005515772093023256,-0.2024941930031991
-0.005515432093023256,-0.1958127407790362
-0.005515092093023256,-0.1890325478815852
-0.005514752093023256,-0.1732340401593978
-0.005514412093023256,-0.1742543604497872
-0.005514072093023256,-0.167276686205823
-0.005513732093023256,-0.1613193322522481
-0.005513392093023256,-0.1559544223382651
-0.005513052093023256,-0.1523010174274995
-0.005512712093023256,-0.1485159582857254
-0.005512372093023256,-0.1422623823123596
-0.005512032093023256,-0.1392014214411858
-0.005511692093023256,-0.1352517945106389
-0.005511352093023256,-0.1297223168078733
-0.005511012093023256,-0.1264638745901722
-0.005510672093023256,-0.122612988332889
-0.005510332093023256,-0.1184000529403057
-0.005509992093023256,-0.1150428700493409
-0.005509652093023256,-0.1115211193696032
-0.005509312093023256,-0.1056954196470466
-0.005508972093023256,-0.1023053231983221
-0.005508632093023256,-0.09947475723143534
-0.005508292093023256,-0.09624922857148874
-0.005507952093023256,-0.09588717943617153
-0.005507612093023256,-0.08650681547613984
-0.005507272093023256,-0.08035198017603765
-0.005506932093023256,-0.0811419055621347
-0.005506592093023256,-0.07436171266470826
-0.005506252093023256,-0.07222233141066206
-0.005505912093023256,-0.07446045333796343
-0.005505572093023256,-0.06978672813682482
-0.005505232093023256,-0.06557379274424152
-0.005504892093023256,-0.06438890466507531
-0.005504552093023256,-0.0632040165859134
-0.005504212093023256,-0.06103172177411263
-0.005503872093023256,-0.05899108119333177
-0.005503532093023256,-0.05991266081045769
-0.005503192093023256,-0.05823406936497528
-0.005502852093023256,-0.05589720676439992
-0.005502512093023256,-0.05490980003176501
-0.005502172093023256,-0.05520602205155602
-0.005501832093023256,-0.05181592560283425
-0.005501492093023256,-0.05049938329265435
-0.005501152093023256,-0.04944614944450853
-0.005500812093023256,-0.04704345972842532
-0.005500472093023256,-0.04674723770863485
-0.005500132093023256,-0.04487116491662509
-0.005499792093023257,-0.04352170904869071
-0.005499452093023256,-0.04223808029626052
-0.005499112093023256,-0.04273178366257888
-0.005498772093023256,-0.03835428048123074
-0.005498432093023256,-0.03667568903574037
-0.005498092093023256,-0.03572119586085822
-0.005497752093023256,-0.03377929595334288
-0.005497412093023256,-0.0363465534581948
-0.005497072093023256,-0.03042211306237452
-0.005496732093023256,-0.02650539968958935
-0.005496392093023256,-0.02848021315485565
-0.005496052093023256,-0.02581421497673653
-0.005495712093023256,-0.02278616766332278
-0.005495372093023256,-0.0277561148842554
-0.005495032093023256,-0.02676870815161868
-0.005494692093023256,-0.02406979641574991
-0.005494352093023256,-0.0254521658414364
-0.005494012093023256,-0.0277561148842554
-0.005493672093023256,-0.02726241151793794
-0.005493332093023256,-0.02620917766979121
-0.005492992093023256,-0.02732823863344615
-0.005492652093023256,-0.02614335055428425
-0.005492312093023256,-0.02571547430347286
-0.005491972093023256,-0.02541925228368184
-0.005491632093023256,-0.02495846247511888
-0.005491292093023256,-0.02206206939271702
-0.005490952093023256,-0.02133797112211676
-0.005490612093023256,-0.02087718131355296
-0.005490272093023256,-0.01804661534666105
-0.005489932093023256,-0.01811244246217016
-0.005489592093023256,-0.01715794928728801
-0.005489252093023256,-0.01709212217177889
-0.005488912093023256,-0.01659841880546054
-0.005488572093023256,-0.01857323227073396
-0.005488232093023256,-0.01863905938624457
-0.005487892093023256,-0.01946189833010701
-0.005487552093023256,-0.02189750160394423
-0.005487212093023256,-0.02038347794724328
-0.005486872093023256,-0.02515594382164538
-0.005486532093023256,-0.02331278458739018
-0.005486192093023256,-0.01399824774285615
-0.005485852093023256,-0.01709212217177889
-0.005485512093023256,-0.014557778224678
-0.005485172093023256,-0.01218800206635892
-0.005484832093023256,-0.01715794928728801
-0.005484492093023256,-0.01827701025094295
-0.005484152093023256,-0.01603888832363241
-0.005483812093023256,-0.01567683918833294
-0.005483472093023256,-0.01682881370974244
-0.005483132093023256,-0.01577557986159391
-0.005482792093023256,-0.01429446976264154
-0.005482452093023256,-0.01442612399365977
-0.005482112093023256,-0.01347163081877354
-0.005481772093023256,-0.01123350889146773
-0.005481432093023256,-0.0117930393732952
-0.005481092093023256,-0.01169429870003021
-0.005480752093023256,-0.01097020042943127
-0.005480412093023256,-0.01113476821820406
-0.005480072093023256,-0.011891780046556
-0.005479732093023256,-0.01031192927434013
-0.005479392093023256,-0.01001570725454911
-0.005479052093023257,-0.01057523773637557
-0.005478712093023256,-0.009949880139040001
-0.005478372093023256,-0.009949880139040001
-0.005478032093023256,-0.01064106485188444
-0.005477692093023256,-0.01077271908290393
-0.005477352093023256,-0.009818225908021772
-0.005477012093023256,-0.01162847158451912
-0.005476672093023256,-0.008304202251312145
-0.005476332093023256,-0.0136361986075504
-0.005475992093023256,-0.01386659351183188
-0.005475652093023256,-0.006954746383375304
-0.005475312093023256,-0.01073980552514937
-0.005474972093023256,-0.01498565447547951
-0.005474632093023256,-0.01343871726102305
-0.005474292093023256,-0.01297792745245925
-0.005473952093023256,-0.01264879187491428
-0.005473612093023256,-0.01218800206634988
-0.005473272093023256,-0.009094127637421515
-0.005472932093023256,-0.009291608983948499
-0.005472592093023256,-0.007975066673766575
-0.005472252093023256,-0.00619773455502049
-0.005471912093023256,-0.006823092152355938
-0.005471572093023256,-0.007316795518675433
-0.005471232093023256,-0.006329388786038719
-0.005470892093023256,-0.002281021182235559
-0.005470552093023256,-0.01090437331392216
-0.005470212093023256,-0.006954746383375304
-0.005469872093023256,-0.008633337828857716
-0.005469532093023256,-0.008040893789275689
-0.005469192093023256,-0.005341982053402005
-0.005468852093023256,-0.01031192927434013
-0.005468512093023256,-0.0124842240861409
-0.005468172093023256,-0.009324522541703417
-0.005467832093023256,-0.009291608983948858
-0.005467492093023256,-0.01241839697063178
-0.005467152093023256,-0.009061214079666959
-0.005466812093023256,-0.009423263214967087
-0.005466472093023256,-0.01060815129412965
-0.005466132093023256,-0.009785312350267215
-0.005465792093023256,-0.009686571677003543
-0.005465452093023256,-0.01126642244922438
-0.005465112093023256,-0.01241839697063178
-0.005464772093023256,-0.01129933600697684
-0.005464432093023256,-0.01159555802677043
-0.005464092093023256,-0.01301084101021381
-0.005463752093023256,-0.009456176772721644
-0.005463412093023256,-0.008501683597838769
-0.005463072093023256,-0.008106720904784802
-0.005462732093023256,-0.006856005710111633
-0.005462392093023256,-0.007218054845411522
-0.005462052093023256,-0.007086400614393532
-0.005461712093023256,-0.005736944746456691
-0.005461372093023256,-0.007744671769487668
-0.005461032093023256,-0.00939034965721253
-0.005460692093023256,-0.008205461578048474
-0.005460352093023256,-0.009785312350276435
-0.005460012093023256,-0.01485400024446901
-0.005459672093023256,-0.007053487056638975
-0.005459332093023256,-0.009357436099458572
-0.005458992093023256,-0.009686571677003543
-0.005458652093023256,-0.003762131281183265
-0.005458312093023256,-0.0093245225417106
-0.005457972093023256,-0.01327414947225027
-0.005457632093023256,-0.00619773455502049
-0.005457292093023257,-0.004749538013822612
-0.005456952093023256,-0.007975066673766575
-0.005456612093023256,-0.007975066673766575
-0.005456272093023256,-0.006757265036850177
-0.005455932093023256,-0.009357436099457973
-0.005455592093023256,-0.009851139465776329
-0.005455252093023256,-0.009357436099458872
-0.005454912093023256,-0.01021318860107646
-0.005454572093023256,-0.01014736148556734
-0.005454232093023256,-0.00744844974969857
-0.005453892093023256,-0.007876326000502903
-0.005453552093023256,-0.008337115809066702
-0.005453212093023256,-0.006658524363587343
-0.005452872093023256,-0.007415536191939104
-0.005452532093023256,-0.007316795518675433
-0.005452192093023256,-0.008106720904783366
-0.005451852093023256,-0.008995386964157845
-0.005451512093023256,-0.009785312350267215
-0.005451172093023256,-0.007777585327242884
-0.005450832093023256,-0.009884053023530886
-0.005450492093023256,-0.01060815129413114
-0.005450152093023256,-0.009061214079669772
-0.005449812093023256,-0.0104106699476038
-0.005449472093023256,-0.01518313582201458
-0.005449132093023256,-0.008435856482342647
-0.005448792093023256,-0.00711931417214809
-0.005448452093023256,-0.009127041195176074
-0.005448112093023256,-0.002281021182228195
-0.005447772093023256,-0.006329388786038719
-0.005447432093023256,-0.01116768177595861
-0.005447092093023256,-0.007711758211730118
-0.005446752093023256,-0.006823092152357076
-0.005446412093023256,-0.01024610215883101
-0.005446072093023256,-0.0117930393732952
-0.005445732093023256,-0.008797905617631819
-0.005445392093023256,-0.009522003888230759
-0.005445052093023256,-0.008501683597839487
-0.005444712093023256,-0.007843412442748766
-0.005444372093023256,-0.008073807347030245
-0.005444032093023256,-0.008271288693557588
-0.005443692093023256,-0.007218054845414395
-0.005443352093023256,-0.008666251386612273
-0.005443012093023256,-0.008995386964157845
-0.005442672093023256,-0.006888919267867087
-0.005442332093023256,-0.007382622634184546
-0.005441992093023256,-0.008205461578048474
-0.005441652093023256,-0.007086400614392694
-0.005441312093023256,-0.006625610805829733
-0.005440972093023256,-0.007020573498884419
-0.005440632093023256,-0.005901512535230614
-0.005440292093023256,-0.006526870132566062
-0.005439952093023256,-0.008073807347030245
-0.005439612093023256,-0.006197734555022107
-0.005439272093023256,-0.007086400614393532
-0.005438932093023256,-0.01218800206634988
-0.005438592093023256,-0.004914105802592105
-0.005438252093023256,-0.004552056667292635
-0.005437912093023256,-0.009324522541703417
-0.005437572093023256,-0.004157093974243637
-0.005437232093023256,-0.007283881960920875
-0.005436892093023256,-0.01620345611240585
-0.005436552093023257,-0.0132083223567466
-0.005436212093023256,-0.0113322495647314
-0.005435872093023256,-0.01389950706958685
-0.005435532093023256,-0.01419572908937733
-0.005435192093023256,-0.01093728687167671
-0.005434852093023256,-0.01067397840964026
-0.005434512093023256,-0.0112993360069757
-0.005434172093023256,-0.009456176772721644
-0.005433832093023256,-0.01024610215883101
-0.005433492093023256,-0.009916966581286043
-0.005433152093023256,-0.01001570725454911
-0.005432812093023256,-0.01097020042943127
-0.005432472093023256,-0.01212217495083867
-0.005432132093023256,-0.01014736148556734
-0.005431792093023256,-0.01057523773637659
-0.005431452093023256,-0.01123350889146653
-0.005431112093023256,-0.00962074456149443
-0.005430772093023256,-0.008995386964157845
-0.005430432093023256,-0.006526870132570552
-0.005430092093023256,-0.008238375135803031
-0.005429752093023256,-0.007250968403166318
-0.005429412093023256,-0.009653658119244617
-0.005429072093023256,-0.00586859897747492
-0.005428732093023256,-0.006724351479093405
-0.005428392093023256,-0.01100311398717805
-0.005428052093023256,-0.01287918677919558
-0.005427712093023256,-0.004914105802592763
-0.005427372093023256,-0.01044358350535836
-0.005427032093023256,-0.006757265036847961
-0.005426692093023256,-0.001096133103064139
-0.005426352093023256,-0.01185886648880431
-0.005426012093023256,-0.01070689196739481
-0.005425672093023256,-0.005144500706874663
-0.005425332093023256,-0.00540780916891112
-0.005424992093023256,-0.006592697248075176
-0.005424652093023256,-0.004190007531992507
-0.005424312093023256,-0.00540780916891112
-0.005423972093023256,-0.007185141287655886
-0.005423632093023256,-0.006461043017056948
-0.005423292093023256,-0.007876326000502903
-0.005422952093023256,-0.009390349657213309
-0.005422612093023256,-0.009818225908021772
-0.005422272093023256,-0.01031192927434013
-0.005421932093023256,-0.01097020042942816
-0.005421592093023256,-0.009258695426194301
-0.005421252093023256,-0.008863732733139616
-0.005420912093023256,-0.009159954752927458
-0.005420572093023256,-0.007415536191939104
-0.005420232093023256,-0.007810498884993789
-0.005419892093023256,-0.006757265036846165
-0.005419552093023256,-0.005769858304211248
-0.005419212093023256,-0.005769858304211248
-0.005418872093023256,-0.008172548020294396
-0.005418532093023256,-0.008435856482330374
-0.005418192093023256,-0.006921832825620747
-0.005417852093023256,-0.01241839697063148
-0.005417512093023256,-0.012253829181859
-0.005417172093023256,-0.004749538013819977
