Analysis/files/cmb03_d2s01/wrd12_ch10.csv

#Digilent WaveForms Oscilloscope Acquisition
#Device Name: ADP3450
#Serial Number: SN:210018B9D9B0
#Date Time: 2024-08-12 11:22:51.494.718.690
#Sample rate: 2.94118e+06Hz
#Samples: 32768
#Trigger: Source: Channel 3 Type: Edge Condition: Rising Level: 60 mV Hyst.: Auto HoldOff: 0 s
#Channel 3: Range: 200 mV/div Offset: 0 V Attenuation: 1 X Coupling: DC Bandwidth: 0 Hz Sample Mode: Average

Time (s),Channel 3 (V)
-0.005570252364380758,0.001405297286282201
-0.005569912364380757,0.001569865075054268
-0.005569572364380757,0.001174902382000301
-0.005569232364380758,-0.005539463399929348
-0.005568892364380757,-0.000306207716948003
-0.005568552364380757,0.003413024309310185
-0.005568212364380758,0.001899000652600558
-0.005567872364380757,0.00357759209807363
-0.005567532364380757,-0.001556922911627938
-0.005567192364380758,-0.002610156759773766
-0.005566852364380757,-0.0001087263704299402
-0.005566512364380757,-0.001491095796118824
-0.005566172364380758,-0.005045760033610991
-0.005565832364380757,-0.004683710898310206
-0.005565492364380757,-0.004321661763010735
-0.005565152364380758,-0.005736944746456691
-0.005564812364380757,-0.006296475228285
-0.005564472364380757,-0.006757265036847961
-0.005564132364380758,-0.00767884465397556
-0.005563792364380757,-0.01041066994759829
-0.005563452364380757,-0.007382622634184546
-0.005563112364380758,-0.008995386964157845
-0.005562772364380758,-0.008666251386612872
-0.005562432364380757,-0.007283881960920875
-0.005562092364380758,-0.006856005710111633
-0.005561752364380758,-0.009094127637417444
-0.005561412364380757,-0.008238375135803031
-0.005561072364380758,-0.00837002936682126
-0.005560732364380758,-0.008732078502120729
-0.005560392364380757,-0.007975066673766575
-0.005560052364380758,-0.009522003888230759
-0.005559712364380758,-0.01004862081230271
-0.005559372364380757,-0.009258695426194301
-0.005559032364380758,-0.008732078502121389
-0.005558692364380758,-0.01472234601343989
-0.005558352364380757,-0.007250968403166318
-0.005558012364380758,-0.004914105802592763
-0.005557672364380758,-0.004420402436275304
-0.005557332364380757,-0.004979932918101878
-0.005556992364380758,-0.009884053023530886
-0.005556652364380758,-0.008468770040087505
-0.005556312364380757,-0.007185141287657204
-0.005555972364380758,-0.00790923955825746
-0.005555632364380758,-0.01067397840963523
-0.005555292364380757,-0.01149681735350419
-0.005554952364380757,-0.009884053023530886
-0.005554612364380758,-0.01258296475939966
-0.005554272364380757,-0.01320832235674115
-0.005553932364380757,-0.01426155620488698
-0.005553592364380758,-0.01439321043590521
-0.005553252364380757,-0.01495274091773268
-0.005552912364380757,-0.01327414947225027
-0.005552572364380758,-0.0120234342775771
-0.005552232364380757,-0.01185886648880431
-0.005551892364380757,-0.00939034965721253
-0.005551552364380758,-0.008995386964157845
-0.005551212364380757,-0.009554917445984119
-0.005550872364380757,-0.008896646290894173
-0.005550532364380758,-0.008435856482330374
-0.005550192364380757,-0.009949880139039941
-0.005549852364380757,-0.009916966581285444
-0.005549512364380758,-0.008633337828857716
-0.005549172364380757,-0.009620744561495746
-0.005548832364380757,-0.01034484283209469
-0.005548492364380758,-0.0138665935118323
-0.005548152364380757,-0.01830992380868535
-0.005547812364380757,-0.01162847158452241
-0.005547472364380758,-0.01393242062734141
-0.005547132364380757,-0.01916567631031054
-0.005546792364380757,-0.01617054255465129
-0.005546452364380758,-0.01320832235674115
-0.005546112364380757,-0.01317540879898666
-0.005545772364380757,-0.01320832235674115
-0.005545432364380758,-0.01014736148556734
-0.005545092364380757,-0.01064106485187827
-0.005544752364380757,-0.006559783690320619
-0.005544412364380758,-0.0111018546604495
-0.005544072364380757,-0.01110185466045046
-0.005543732364380757,-0.01162847158452241
-0.005543392364380758,-0.01077271908290393
-0.005543052364380757,-0.0110031139871875
-0.005542712364380757,-0.01192469360431343
-0.005542372364380758,-0.01287918677919558
-0.005542032364380758,-0.01297792745245907
-0.005541692364380757,-0.01422864264713243
-0.005541352364380758,-0.01399824774285052
-0.005541012364380758,-0.01386659351183254
-0.005540672364380757,-0.01478817312895989
-0.005540332364380758,-0.01353745793428673
-0.005539992364380758,-0.01100311398719044
-0.005539652364380757,-0.0113322495647314
-0.005539312364380758,-0.01268170543266824
-0.005538972364380758,-0.01202343427757829
-0.005538632364380757,-0.01330706303000483
-0.005538292364380758,-0.01426155620488698
-0.005537952364380758,-0.01432738332039598
-0.005537612364380757,-0.01541353072629648
-0.005537272364380758,-0.01439321043590521
-0.005536932364380758,-0.01205634783533591
-0.005536592364380757,-0.01231965629736811
-0.005536252364380758,-0.01304375456796837
-0.005535912364380758,-0.01176012581554298
-0.005535572364380757,-0.01245131052838634
-0.005535232364380758,-0.01442612399365977
-0.005534892364380758,-0.01419572908937829
-0.005534552364380757,-0.01491982735997812
-0.005534212364380757,-0.01485400024446901
-0.005533872364380758,-0.0137349392808161
-0.005533532364380757,-0.01347163081877761
-0.005533192364380757,-0.01620345611240585
-0.005532852364380758,-0.01327414947225027
-0.005532512364380757,-0.01106894110269494
-0.005532172364380757,-0.01176012581554064
-0.005531832364380758,-0.00939034965721253
-0.005531492364380757,-0.01389950706958685
-0.005531152364380757,-0.01396533418509597
-0.005530812364380758,-0.01044358350535836
-0.005530472364380757,-0.009916966581285444
-0.005530132364380757,-0.0127146189904228
-0.005529792364380758,-0.0127146189904228
-0.005529452364380757,-0.01073980552515434
-0.005529112364380757,-0.01347163081877761
-0.005528772364380758,-0.01442612399365977
-0.005528432364380757,-0.01436029687814904
-0.005528092364380757,-0.01347163081877761
-0.005527752364380758,-0.01436029687815065
-0.005527412364380757,-0.01324123591449541
-0.005527072364380757,-0.01307666812572293
-0.005526732364380758,-0.01347163081877761
-0.005526392364380757,-0.01143099023799729
-0.005526052364380757,-0.01264879187491368
-0.005525712364380758,-0.01330706303000483
-0.005525372364380757,-0.01248422408613898
-0.005525032364380757,-0.01143099023799507
-0.005524692364380758,-0.01255005120165001
-0.005524352364380757,-0.01176012581554172
-0.005524012364380757,-0.01235256985512267
-0.005523672364380758,-0.01505148159099635
-0.005523332364380757,-0.02097592198684226
-0.005522992364380757,-0.03506292470576707
-0.005522652364380758,-0.0548439729162559
-0.005522312364380757,-0.07258438054601042
-0.005521972364380757,-0.0991127080961352
-0.005521632364380758,-0.130413501520719
-0.005521292364380757,-0.1645119473544919
-0.005520952364380757,-0.192916347696623
-0.005520612364380758,-0.2159558381248129
-0.005520272364380758,-0.2363293303748467
-0.005519932364380757,-0.2511733449221891
-0.005519592364380758,-0.2610144986908016
-0.005519252364380758,-0.2664123221625392
-0.005518912364380757,-0.2662148408160216
-0.005518572364380758,-0.2652932611988941
-0.005518232364380758,-0.2601587461891924
-0.005517892364380757,-0.2534114668494989
-0.005517552364380758,-0.2437677944274137
-0.005517212364380758,-0.2367242930679513
-0.005516872364380757,-0.2272781019923806
-0.005516532364380758,-0.2178319109168227
-0.005516192364380758,-0.2107225824418513
-0.005515852364380757,-0.2026587607919719
-0.005515512364380758,-0.1964380983763606
-0.005515172364380758,-0.191566891828695
-0.005514832364380757,-0.1863336361457116
-0.005514492364380758,-0.1799484059413275
-0.005514152364380758,-0.1762950010305783
-0.005513812364380757,-0.1719174978492155
-0.005513472364380758,-0.1645448609121948
-0.005513132364380758,-0.1599369628265651
-0.005512792364380757,-0.1536504732954364
-0.005512452364380757,-0.1509515615595627
-0.005512112364380758,-0.1475614651108433
-0.005511772364380757,-0.1364695961475575
-0.005511432364380757,-0.1290969592105367
-0.005511092364380758,-0.1248840238179534
-0.005510752364380757,-0.1247194560291806
-0.005510412364380757,-0.1226788154483981
-0.005510072364380758,-0.1174126462076689
-0.005509732364380757,-0.1141542039899678
-0.005509392364380757,-0.1118173413893943
-0.005509052364380758,-0.107077789072738
-0.005508712364380757,-0.1039839146437995
-0.005508372364380757,-0.09842152338328949
-0.005508032364380758,-0.09499851337681556
-0.005507692364380757,-0.09249708298746467
-0.005507352364380757,-0.08999565259812289
-0.005507012364380758,-0.08831706115264049
-0.005506672364380757,-0.08792209845958129
-0.005506332364380757,-0.08545358162799402
-0.005505992364380758,-0.08203057162152005
-0.005505652364380757,-0.08074694286908743
-0.005505312364380757,-0.07804803113321865
-0.005504972364380758,-0.07462502112674471
-0.005504632364380757,-0.07103744333149423
-0.005504292364380757,-0.0689638891929609
-0.005503952364380758,-0.0653433978399596
-0.005503612364380757,-0.06363189283672054
-0.005503272364380757,-0.06247991831531315
-0.005502932364380758,-0.05876068628904819
-0.005502592364380757,-0.05747705753662022
-0.005502252364380757,-0.05734540330560223
-0.005501912364380758,-0.05662130503500198
-0.005501572364380757,-0.05066395108142193
-0.005501232364380757,-0.04780047155678067
-0.005500892364380758,-0.04536486828294345
-0.005500552364380757,-0.04411415308827872
-0.005500212364380757,-0.04875496473166283
-0.005499872364380758,-0.0502360748306179
-0.005499532364380758,-0.04605605299579675
-0.005499192364380757,-0.0467801512663894
-0.005498852364380758,-0.04766881732576245
-0.005498512364380758,-0.0386505025010302
-0.005498172364380757,-0.04480533780111598
-0.005497832364380758,-0.04204059894973318
-0.005497492364380758,-0.03983539058018187
-0.005497152364380757,-0.03927586009835039
-0.005496812364380758,-0.0377289228838862
-0.005496472364380758,-0.03641238057370631
-0.005496132364380757,-0.0361161585539129
-0.005495792364380758,-0.03526040605229441
-0.005495452364380758,-0.03354890104906056
-0.005495112364380757,-0.03236401296989339
-0.005494772364380758,-0.03190322316132959
-0.005494432364380758,-0.03052085373564071
-0.005494092364380757,-0.02953344700300148
-0.005493752364380758,-0.02910557075219224
-0.005493412364380758,-0.02742697930671288
-0.005493072364380757,-0.02798650978853729
-0.005492732364380758,-0.02716367084467337
-0.005492392364380758,-0.02571547430347549
-0.005492052364380757,-0.0252217709371545
-0.005491712364380757,-0.0289080894056649
-0.005491372364380758,-0.0300600639270723
-0.005491032364380757,-0.02255577275903537
-0.005490692364380757,-0.02308238968310829
-0.005490352364380758,-0.02252285920128081
-0.005490012364380757,-0.02301656256759917
-0.005489672364380757,-0.02594586920775475
-0.005489332364380758,-0.02295073545209006
-0.005488992364380757,-0.02110757621783486
-0.005488652364380757,-0.02298364900984462
-0.005488312364380758,-0.02374066083819943
-0.005487972364380757,-0.02268742699005647
-0.005487632364380757,-0.02426727776227234
-0.005487292364380758,-0.02515594382164538
-0.005486952364380757,-0.02393814218472677
-0.005486612364380757,-0.02393814218472677
-0.005486272364380758,-0.02393814218472677
-0.005485932364380757,-0.02278616766331817
-0.005485592364380757,-0.02327987102963563
-0.005485252364380758,-0.02219372362373525
-0.005484912364380757,-0.01969229323438854
-0.005484572364380757,-0.01949481188786156
-0.005484232364380758,-0.02018599660070726
-0.005483892364380757,-0.01916567631031426
-0.005483552364380757,-0.01821118313543383
-0.005483212364380758,-0.01936315765684333
-0.005482872364380757,-0.01666424592097013
-0.005482532364380757,-0.01692755438300611
-0.005482192364380758,-0.01880362717501586
-0.005481852364380757,-0.01778330688462561
-0.005481512364380757,-0.01834283736645206
-0.005481172364380758,-0.02403688285799044
-0.005480832364380757,-0.02071261352477185
-0.005480492364380757,-0.01613762899689674
-0.005480152364380758,-0.01696046794076066
-0.005479812364380757,-0.01649967813220315
-0.005479472364380757,-0.01995560169642536
-0.005479132364380758,-0.02064678640927106
-0.005478792364380758,-0.01748708486483933
-0.005478452364380757,-0.01636802390117864
-0.005478112364380758,-0.01715794928728801
-0.005477772364380758,-0.01761873909585097
-0.005477432364380757,-0.01505148159099635
-0.005477092364380758,-0.01511730870650547
-0.005476752364380758,-0.01570975274608642
-0.005476412364380757,-0.01426155620488698
-0.005476072364380758,-0.01422864264713243
-0.005475732364380758,-0.01551227139955782
-0.005475392364380757,-0.01452486466692344
-0.005475052364380758,-0.01577557986159661
-0.005474712364380758,-0.01633511034342306
-0.005474372364380757,-0.01590723409261484
-0.005474032364380758,-0.01732251707606079
-0.005473692364380758,-0.01896819496378565
-0.005473352364380757,-0.01804661534666105
-0.005473012364380758,-0.01807952890441561
-0.005472672364380758,-0.02008725592743994
-0.005472332364380757,-0.01877071361726131
-0.005471992364380758,-0.01926441698357966
-0.005471652364380758,-0.02094300842905902
-0.005471312364380757,-0.02058095929376194
-0.005470972364380757,-0.02094300842906207
-0.005470632364380758,-0.02275325410555942
-0.005470292364380757,-0.01505148159099635
-0.005469952364380757,-0.01195760716206798
-0.005469612364380758,-0.0106410648518857
-0.005469272364380757,-0.01067397840964026
-0.005468932364380757,-0.01419572908937787
-0.005468592364380758,-0.01449195110916888
-0.005468252364380757,-0.01231965629736811
-0.005467912364380757,-0.01442612399365977
-0.005467572364380758,-0.01511730870650547
-0.005467232364380757,-0.01725668996055168
-0.005466892364380757,-0.01521604937976914
-0.005466552364380758,-0.01636802390117864
-0.005466212364380757,-0.01824409669318738
-0.005465872364380757,-0.01768456621136092
-0.005465532364380758,-0.0185403187129794
-0.005465192364380757,-0.01896819496378781
-0.005464852364380757,-0.01850740515522485
-0.005464512364380758,-0.01682881370974244
-0.005464172364380757,-0.01636802390117313
-0.005463832364380757,-0.01333997658775938
-0.005463492364380758,-0.01166138514227697
-0.005463152364380757,-0.01238548341287513
-0.005462812364380757,-0.01123350889146773
-0.005462472364380758,-0.01031192927434013
-0.005462132364380757,-0.01136516312248949
-0.005461792364380757,-0.01330706303000483
-0.005461452364380758,-0.01103602754494038
-0.005461112364380757,-0.01202343427757794
-0.005460772364380757,-0.0124842240861409
-0.005460432364380758,-0.01551227139956015
-0.005460092364380757,-0.01673007303647068
-0.005459752364380757,-0.01228674273961356
-0.005459412364380758,-0.01162847158452241
-0.005459072364380757,-0.009916966581294245
-0.005458732364380757,-0.01475525957120534
-0.005458392364380758,-0.01673007303647877
-0.005458052364380757,-0.0155780985150692
-0.005457712364380757,-0.01554518495731471
-0.005457372364380758,-0.01742125774932446
-0.005457032364380758,-0.01735543063381547
-0.005456692364380757,-0.01715794928728801
-0.005456352364380758,-0.01557809851506927
-0.005456012364380758,-0.01459069178243435
-0.005455672364380757,-0.01557809851506927
-0.005455332364380758,-0.01376785283856862
-0.005454992364380758,-0.01373493928081413
-0.005454652364380757,-0.0131754087989866
-0.005454312364380758,-0.01350454437653217
-0.005453972364380758,-0.01228674273961577
-0.005453632364380757,-0.01373493928081407
-0.005453292364380758,-0.01310958168347748
-0.005452952364380758,-0.01235256985512405
-0.005452612364380757,-0.009653658119248986
-0.005452272364380758,-0.01399824774285052
-0.005451932364380758,-0.01389950706958703
-0.005451592364380757,-0.01333997658775938
-0.005451252364380758,-0.01337289014551394
-0.005450912364380758,-0.01284627322144198
-0.005450572364380757,-0.01264879187491368
-0.005450232364380758,-0.01564392563057838
-0.005449892364380758,-0.01982394746539953
-0.005449552364380757,-0.01472234601345078
-0.005449212364380757,-0.01416281553162331
-0.005448872364380758,-0.01373493928081485
-0.005448532364380757,-0.01426155620488698
-0.005448192364380757,-0.0196922932343889
-0.005447852364380758,-0.01801370178890649
-0.005447512364380757,-0.01534770361078737
-0.005447172364380757,-0.01735543063381535
-0.005446832364380758,-0.01775039332687003
-0.005446492364380757,-0.01567683918833294
-0.005446152364380757,-0.01600597476587851
-0.005445812364380758,-0.01534770361078737
-0.005445472364380757,-0.01399824774284729
-0.005445132364380757,-0.01222091562410444
-0.005444792364380758,-0.01054232417862203
-0.005444452364380757,-0.01004862081230469
-0.005444112364380757,-0.01060815129413114
-0.005443772364380758,-0.01077271908290393
-0.005443432364380757,-0.009225781868445432
-0.005443092364380757,-0.01235256985512267
-0.005442752364380758,-0.01436029687815065
-0.005442412364380757,-0.01320832235674085
-0.005442072364380757,-0.01304375456796837
-0.005441732364380758,-0.01376785283856862
-0.005441392364380757,-0.01353745793428379
-0.005441052364380757,-0.01192469360431343
-0.005440712364380758,-0.01264879187491368
-0.005440372364380757,-0.01192469360431391
-0.005440032364380757,-0.01218800206634988
-0.005439692364380758,-0.01475525957120534
-0.005439352364380757,-0.02005434236967909
-0.005439012364380757,-0.01459069178243255
-0.005438672364380758,-0.01406407485835964
-0.005438332364380757,-0.01432738332039669
-0.005437992364380757,-0.01465651889794167
-0.005437652364380758,-0.02064678640927106
-0.005437312364380757,-0.01933024409908351
-0.005436972364380757,-0.01643385101668775
-0.005436632364380758,-0.01824409669318839
-0.005436292364380758,-0.01801370178890691
-0.005435952364380757,-0.01531479005303281
-0.005435612364380758,-0.01475525957120534
-0.005435272364380758,-0.01307666812572598
-0.005434932364380757,-0.01189178004655887
-0.005434592364380758,-0.01169429870003153
-0.005434252364380758,-0.01195760716206751
-0.005433912364380757,-0.01172721225778608
-0.005433572364380758,-0.01320832235674115
-0.005433232364380758,-0.01403116130060359
-0.005432892364380757,-0.01297792745245925
-0.005432552364380758,-0.01310958168347748
-0.005432212364380758,-0.01284627322144151
-0.005431872364380757,-0.01366911216530495
-0.005431532364380758,-0.01343871726102305
-0.005431192364380758,-0.01547935784180188
-0.005430852364380757,-0.0143273833203961
-0.005430512364380758,-0.01426155620488698
-0.005430172364380758,-0.01445903755141397
-0.005429832364380757,-0.01330706303000483
-0.005429492364380758,-0.01360328504979584
-0.005429152364380758,-0.01814535601991646
-0.005428812364380757,-0.01712503572953345
-0.005428472364380757,-0.009884053023530886
-0.005428132364380758,-0.01126642244921977
-0.005427792364380757,-0.01060815129413114
-0.005427452364380757,-0.01123350889146773
-0.005427112364380758,-0.01333997658775938
-0.005426772364380757,-0.01057523773637659
-0.005426432364380757,-0.009554917445985316
-0.005426092364380758,-0.009686571677003543
-0.005425752364380757,-0.0106410648518857
-0.005425412364380757,-0.009127041195176074
-0.005425072364380758,-0.01097020042943127
-0.005424732364380757,-0.01231965629736811
-0.005424392364380757,-0.01143099023799507
-0.005424052364380758,-0.01287918677919558
-0.005423712364380757,-0.0137678528385694
-0.005423372364380757,-0.01419572908937787
-0.005423032364380758,-0.01452486466692344
-0.005422692364380757,-0.01659841880545868
-0.005422352364380757,-0.01557809851506927
-0.005422012364380758,-0.01538061716854192
-0.005421672364380757,-0.01626928322791509
-0.005421332364380757,-0.01633511034342408
-0.005420992364380758,-0.01515022226426002
-0.005420652364380757,-0.01465651889794227
-0.005420312364380757,-0.01498565447548724
-0.005419972364380758,-0.01310958168347748
-0.005419632364380757,-0.01347163081877558
-0.005419292364380757,-0.01235256985512267
-0.005418952364380758,-0.01264879187491368
-0.005418612364380757,-0.01636802390117271
-0.005418272364380757,-0.01310958168347748
-0.005417932364380758,-0.006428129459302391
-0.005417592364380757,-0.01152973091126455
-0.005417252364380757,-0.01472234601345078
-0.005416912364380758,-0.01149681735350419
-0.005416572364380757,-0.01103602754494338
-0.005416232364380757,-0.01268170543266824
-0.005415892364380758,-0.0138665935118323
-0.005415552364380757,-0.013010841010218
