Analysis/plots/wrd01_d2s01/non compliant measurements/cmb07_ch11.csv

#Digilent WaveForms Oscilloscope Acquisition
#Device Name: ADP3450
#Serial Number: SN:210018B9D9B0
#Date Time: 2024-08-07 10:25:55.181.615.760
#Sample rate: 2.94118e+06Hz
#Samples: 32768
#Trigger: Source: Channel 3 Type: Edge Condition: Rising Level: 0 V Hyst.: Auto HoldOff: 0 s
#Channel 3: Range: 200 mV/div Offset: 0 V Attenuation: 1 X Coupling: DC Bandwidth: 0 Hz Sample Mode: Average

Time (s),Channel 3 (V)
-0.005570257777777778,0.006836034315784124
-0.005569917777777778,0.006901861431293298
-0.005569577777777778,0.006934774989047795
-0.005569237777777778,0.007033515662311467
-0.005568897777777778,0.007033515662311586
-0.005568557777777778,0.007099342777820581
-0.005568217777777778,0.007165169893329695
-0.005567877777777778,0.007658873259647453
-0.005567537777777778,0.007329737682102481
-0.005567197777777778,0.00677020720027501
-0.005566857777777778,0.006671466527011458
-0.005566517777777778,0.006737293642520453
-0.005566177777777778,0.006243590276202096
-0.005565837777777778,0.005190356428055131
-0.005565497777777778,0.004564998830719684
-0.005565157777777778,0.00426877681092867
-0.005564817777777778,0.005091615754800979
-0.005564477777777778,0.009699513840430593
-0.005564137777777778,0.0194419269357795
-0.005563797777777778,0.03770895148960671
-0.005563457777777778,0.06410562480871349
-0.005563117777777778,0.09629508429267034
-0.005562777777777778,0.1319075537830363
-0.005562437777777778,0.1670592334649681
-0.005562097777777778,0.199544914968716
-0.005561757777777778,0.2264023780963857
-0.005561417777777778,0.2469733516930328
-0.005561077777777778,0.2611920086430015
-0.005560737777777778,0.2690912625040808
-0.005560397777777778,0.2722509640485326
-0.005560057777777778,0.2719876555864962
-0.005559717777777778,0.2686962998110465
-0.005559377777777778,0.2634959576858205
-0.005559037777777778,0.2565841105573635
-0.005558697777777778,0.2482898940032301
-0.005558357777777778,0.2396994554292756
-0.005558017777777778,0.2311419304130908
-0.005557677777777778,0.222485664723658
-0.005557337777777778,0.2140597939384757
-0.005556997777777778,0.2063909349816639
-0.005556657777777778,0.1987549895826205
-0.005556317777777778,0.1914152662033404
-0.005555977777777778,0.183713493688774
-0.005555637777777778,0.1762750296362576
-0.005555297777777778,0.1694948367388053
-0.005554957777777778,0.1625829896103483
-0.005554617777777778,0.1553090933466045
-0.005554277777777778,0.1490884309309799
-0.005553937777777778,0.1435589532282144
-0.005553597777777778,0.1399055483174585
-0.005553257777777778,0.1364825383109846
-0.005552917777777778,0.1330924418622652
-0.005552577777777778,0.1297352589713004
-0.005552237777777778,0.1268717794466539
-0.005551897777777778,0.1235475101134436
-0.005551557777777778,0.120025759433706
-0.005551217777777778,0.1157799104833595
-0.005550877777777778,0.1110403581667119
-0.005550537777777778,0.1059387567147556
-0.005550197777777778,0.1006725874740175
-0.005549857777777778,0.09576846736859743
-0.005549517777777778,0.09112765572520487
-0.005549177777777778,0.08757299148770697
-0.005548837777777778,0.08441328994327524
-0.005548497777777778,0.08191185955392888
-0.005548157777777778,0.07970665118437081
-0.005547817777777778,0.07819262752766393
-0.005547477777777778,0.07605324627361773
-0.005547137777777778,0.07368347011528632
-0.005546797777777778,0.07187322443878896
-0.005546457777777778,0.06930596693393351
-0.005546117777777778,0.06631083317826374
-0.005545777777777778,0.06351318076913146
-0.005545437777777778,0.06163710797712171
-0.005545097777777778,0.05877362845247123
-0.005544757777777778,0.05656842008291992
-0.005544417777777778,0.05531770488824674
-0.005544077777777778,0.05419864392458977
-0.005543737777777778,0.05307958296093686
-0.005543397777777778,0.05169721353524546
-0.005543057777777778,0.05018318987853176
-0.005542717777777778,0.04794506795122595
-0.005542377777777778,0.0451474155420886
-0.005542037777777778,0.04294220717253728
-0.005541697777777778,0.04103322082276896
-0.005541357777777778,0.03932171581953199
-0.005541017777777778,0.03840013620240607
-0.005540677777777778,0.03813682774036793
-0.005540337777777778,0.03830139552914072
-0.005539997777777778,0.03777477860506876
-0.005539657777777778,0.0375443837007859
-0.005539317777777778,0.03751147014303135
-0.005538977777777778,0.03724816168099537
-0.005538637777777778,0.03622784139060362
-0.005538297777777778,0.03514169398470324
-0.005537957777777778,0.03349601609697837
-0.005537617777777778,0.03234404157556588
-0.005537277777777778,0.03106041282313815
-0.005536937777777778,0.02997426541723975
-0.005536597777777778,0.02961221628193764
-0.005536257777777778,0.02898685868460106
-0.005535917777777778,0.02862480954930159
-0.005535577777777778,0.02704495877708219
-0.005535237777777778,0.0257284164668999
-0.005534897777777778,0.02385234367489356
-0.005534557777777778,0.02210792511389862
-0.005534217777777778,0.02049516078392532
-0.005533877777777778,0.01904696424272745
-0.005533537777777778,0.01891531001170658
-0.005533197777777778,0.01815829818335177
-0.005532857777777778,0.01776333549029708
-0.005532517777777778,0.01809247106784265
-0.005532177777777778,0.01835577952987911
-0.005531837777777778,0.01871782866517924
-0.005531497777777778,0.01845452020314278
-0.005531157777777778,0.01799373039457898
-0.005530817777777778,0.01733545923948784
-0.005530477777777778,0.01680884231541493
-0.005530137777777778,0.01595308981379644
-0.005529797777777778,0.01565686779400543
-0.005529457777777778,0.01519607798544085
-0.005529117777777778,0.01476820173463239
-0.005528777777777778,0.01443906615708682
-0.005528437777777778,0.01453780683034935
-0.005528097777777778,0.0139124492330139
-0.005527757777777778,0.0129908696158863
-0.005527417777777778,0.0125300798073225
-0.005527077777777778,0.0125300798073225
-0.005526737777777778,0.0122996849030406
-0.005526397777777778,0.01180598153671973
-0.005526057777777778,0.01042361211103085
-0.005525717777777778,0.009896995186957936
-0.005525377777777778,0.01006156297573114
-0.005525037777777778,0.01029195788001262
-0.005524697777777778,0.01085148836184009
-0.005524357777777778,0.01085148836184081
-0.005524017777777778,0.01124645105489478
-0.005523677777777778,0.01075274768857642
-0.005523337777777778,0.0109502290351025
-0.005522997777777778,0.01025904432225806
-0.005522657777777778,0.009074156243094007
-0.005522317777777778,0.008481712203510662
-0.005521977777777778,0.007757613932911723
-0.005521637777777778,0.007625959701893495
-0.005521297777777778,0.006967688546802113
-0.005520957777777778,0.006836034315784124
-0.005520617777777778,0.006967688546802352
-0.005520277777777778,0.006770207200275369
-0.005519937777777778,0.007461391913120709
-0.005519597777777778,0.007889268163929951
-0.005519257777777778,0.00779052749066646
-0.005518917777777778,0.007823441048420837
-0.005518577777777778,0.007889268163929951
-0.005518237777777778,0.008317144414738414
-0.005517897777777778,0.009074156243094007
-0.005517557777777778,0.01009447653348528
-0.005517217777777778,0.01078566124632972
-0.005516877777777778,0.01131227817040389
-0.005516537777777778,0.01187180865223136
-0.005516197777777778,0.01226677134528533
-0.005515857777777778,0.01226677134528605
-0.005515517777777778,0.01134519172815845
-0.005515177777777778,0.009732427398188083
-0.005514837777777778,0.008415885088002865
-0.005514497777777778,0.006506898738238553
-0.005514157777777778,0.005124529312549669
-0.005513817777777778,0.003972554791137656
-0.005513477777777778,0.003676332771346642
-0.005513137777777778,0.003511764982574155
-0.005512797777777778,0.003347197193801071
-0.005512457777777778,0.003445937867064742
-0.005512117777777778,0.004301690368683227
-0.005511777777777778,0.005322010659074497
-0.005511437777777778,0.006210676718447538
-0.005511097777777778,0.007362651239857037
-0.005510757777777778,0.007922181721684508
-0.005510417777777778,0.008317144414739193
-0.005510077777777778,0.007823441048420837
-0.005509737777777778,0.006671466527011338
-0.005509397777777778,0.005684059794374625
-0.005509057777777778,0.004894134408265255
-0.005508717777777778,0.00397255479113556
-0.005508377777777778,0.002820580269728157
-0.005508037777777778,0.002590185365446257
-0.005507697777777778,0.002721839596466162
-0.005507357777777778,0.003643419213592085
-0.005507017777777778,0.004137122579910441
-0.005506677777777778,0.005486578447849079
-0.005506337777777778,0.006473985180483996
-0.005505997777777778,0.007593046144138938
-0.005505657777777778,0.007856354606177011
-0.005505317777777778,0.008745020665548437
-0.005504977777777778,0.009567859609412364
-0.005504637777777778,0.008777934223301437
-0.005504297777777778,0.007922181721684508
-0.005503957777777778,0.007593046144138938
-0.005503617777777778,0.007230997008839527
-0.005503277777777778,0.007625959701893495
-0.005502937777777778,0.008514625761266537
-0.005502597777777778,0.009304551147377644
-0.005502257777777778,0.01025904432225806
-0.005501917777777778,0.01029195788001262
-0.005501577777777778,0.01032487143776556
-0.005501237777777778,0.009436205378394135
-0.005500897777777778,0.00904124268533945
-0.005500557777777778,0.008382971530247529
-0.005500217777777778,0.007955095279439066
-0.005499877777777778,0.007362651239857037
-0.005499537777777778,0.006572725853749104
-0.005499197777777778,0.005091615754792597
-0.005498857777777778,0.003972554791137656
-0.005498517777777778,0.002820580269730253
-0.005498177777777778,0.001833173537091444
-0.005497837777777778,0.001866087094846001
-0.005497497777777778,0.001240729497510553
-0.005497157777777778,0.001931914210355115
-0.005496817777777778,0.002458531134428029
-0.005496477777777778,0.003413024309308448
-0.005496137777777778,0.003775073444610313
-0.005495797777777778,0.004005468348892213
-0.005495457777777778,0.005058702197036124
-0.005495117777777778,0.005420751332338168
-0.005494777777777778,0.006506898738238553
-0.005494437777777778,0.007757613932909448
-0.005494097777777778,0.008086749510457293
-0.005493757777777778,0.008580452876775651
-0.005493417777777778,0.009304551147374591
-0.005493077777777778,0.009304551147375908
-0.005492737777777778,0.008350057972493751
-0.005492397777777778,0.006737293642523386
-0.005492057777777778,0.005585319121110954
-0.005491717777777778,0.004235863253174112
-0.005491377777777778,0.003149715847275704
-0.005491037777777778,0.002754753154219042
-0.005490697777777778,0.002162309114637015
-0.005490357777777778,0.003149715847273728
-0.005490017777777778,0.0027876667119736
-0.005489677777777778,0.003840900560119427
-0.005489337777777778,0.00482830729275614
-0.005488997777777778,0.00630941739171121
-0.005488657777777778,0.007362651239857037
-0.005488317777777778,0.008942502012075779
-0.005487977777777778,0.009699513840430893
-0.005487637777777778,0.009864081629203377
-0.005487297777777778,0.009403291820639578
-0.005486957777777778,0.008481712203509705
-0.005486617777777778,0.007230997008838809
-0.005486277777777778,0.006144849602938425
-0.005485937777777778,0.005157442870299975
-0.005485597777777778,0.004202949695419555
-0.005485257777777778,0.004170036137664999
-0.005484917777777778,0.004301690368684304
-0.005484577777777778,0.004894134408265255
-0.005484237777777778,0.005190356428056269
-0.005483897777777778,0.005223269985810885
-0.005483557777777778,0.005256183543565383
-0.005483217777777778,0.00528909710131994
-0.005482877777777778,0.005289097101320838
-0.005482537777777778,0.005782800467638296
-0.005482197777777778,0.005486578447847282
-0.005481857777777778,0.005289097101318443
-0.005481517777777778,0.004466258157456012
-0.005481177777777778,0.003511764982573856
-0.005480837777777778,0.00282058026972696
-0.005480497777777778,0.002162309114637015
-0.005480157777777778,0.001635692190564101
-0.005479817777777778,0.001536951517300909
-0.005479477777777778,0.001800259979336887
-0.005479137777777778,0.001964827768109672
-0.005478797777777778,0.002853493827481097
-0.005478457777777778,0.002623098923200814
-0.005478117777777778,0.002491444692182586
-0.005477777777777778,0.002590185365446078
-0.005477437777777778,0.001964827768109672
-0.005477097777777778,0.001635692190564101
-0.005476757777777778,0.001372383728528123
-0.005476417777777778,0.001602778632809544
-0.005476077777777778,0.002392704018918914
-0.005475737777777778,0.00291932094299087
-0.005475397777777778,0.003544678540328413
-0.005475057777777778,0.004202949695419555
-0.005474717777777778,0.004038381906647069
-0.005474377777777778,0.004104209022155884
-0.005474037777777778,0.004630825946228797
-0.005473697777777778,0.004992875081528268
-0.005473357777777778,0.005223269985810825
-0.005473017777777778,0.005552405563356397
-0.005472677777777778,0.006079022487428353
-0.005472337777777778,0.006572725853747667
-0.005471997777777778,0.007066429220066024
-0.005471657777777778,0.007395564797610997
-0.005471317777777778,0.007165169893329695
-0.005470977777777778,0.007362651239857037
-0.005470637777777778,0.006901861431294076
-0.005470297777777778,0.006671466527011338
-0.005469957777777778,0.006342330949465767
-0.005469617777777778,0.005848627583147411
-0.005469277777777778,0.006177763160692982
-0.005468937777777778,0.00607902248742931
-0.005468597777777778,0.005453664890092726
-0.005468257777777778,0.005420751332338168
-0.005467917777777778,0.005124529312547154
-0.005467577777777778,0.004597912388474241
-0.005467237777777778,0.003544678540328413
-0.005466897777777778,0.003116802289519171
-0.005466557777777778,0.002853493827482714
-0.005466217777777778,0.00265601248095615
-0.005465877777777778,0.003083888731764614
-0.005465537777777778,0.003511764982573856
-0.005465197777777778,0.004170036137666795
-0.005464857777777778,0.005157442870301712
-0.005464517777777778,0.005980281814165639
-0.005464177777777778,0.006408158064974463
-0.005463837777777778,0.006177763160692982
-0.005463497777777778,0.00607902248742931
-0.005463157777777778,0.006013195371920016
-0.005462817777777778,0.005914454698656525
-0.005462477777777778,0.005947368256411082
-0.005462137777777778,0.005881541140901309
-0.005461797777777778,0.005519492005601839
-0.005461457777777778,0.005190356428056269
-0.005461117777777778,0.004532085272965784
-0.005460777777777778,0.004894134408265255
-0.005460437777777778,0.004992875081528926
-0.005460097777777778,0.005618232678865331
-0.005459757777777778,0.005519492005601839
-0.005459417777777778,0.007099342777820581
-0.005459077777777778,0.007362651239857217
-0.005458737777777778,0.007461391913120709
-0.005458397777777778,0.007461391913120709
-0.005458057777777778,0.007625959701894452
-0.005457717777777778,0.008152576625966409
-0.005457377777777778,0.008317144414739193
-0.005457037777777778,0.008646279992284166
-0.005456697777777778,0.009534946051657807
-0.005456357777777778,0.01012739009123984
-0.005456017777777778,0.01019321720674883
-0.005455677777777778,0.009567859609412364
-0.005455337777777778,0.008646279992284765
-0.005454997777777778,0.007790527490667837
-0.005454657777777778,0.007099342777820581
-0.005454317777777778,0.006704380084765896
-0.005453977777777778,0.006177763160693939
-0.005453637777777778,0.006111936045183867
-0.005453297777777778,0.006342330949465767
-0.005452957777777778,0.006539812295992751
-0.005452617777777778,0.007889268163929951
-0.005452277777777778,0.008942502012075779
-0.005451937777777778,0.009962822302465193
-0.005451597777777778,0.01088440191959465
-0.005451257777777778,0.01035778499552173
-0.005450917777777778,0.0095678596094138
-0.005450577777777778,0.008053835952702737
-0.005450237777777778,0.006473985180483996
-0.005449897777777778,0.005025788639286117
-0.005449557777777778,0.00403838190664677
-0.005449217777777778,0.003643419213592085
-0.005448877777777778,0.003149715847274626
-0.005448537777777778,0.002359790461164357
-0.005448197777777778,0.002063568441373343
-0.005447857777777778,0.001701519306073215
-0.005447517777777778,0.001635692190564101
-0.005447177777777778,0.001668605748318658
-0.005446837777777778,0.001569865075054987
-0.005446497777777778,0.001602778632809544
-0.005446157777777778,0.002063568441373343
-0.005445817777777778,0.002820580269728157
-0.005445477777777778,0.003577592098083809
-0.005445137777777778,0.00403838190664677
-0.005444797777777778,0.004564998830719684
-0.005444457777777778,0.005091615754792298
-0.005444117777777778,0.004927047966019811
-0.005443777777777778,0.00505870219703804
-0.005443437777777778,0.004663739503983355
-0.005443097777777778,0.004663739503983355
-0.005442757777777778,0.0027876667119736
-0.005442417777777778,-0.003038033010604861
-0.005442077777777778,-0.01505148159099635
-0.005441737777777778,-0.03522749249453986
-0.005441397777777778,-0.06228243696884489
-0.005441057777777778,-0.09476811847253366
-0.005440717777777778,-0.1282082931511637
-0.005440377777777778,-0.1599698763843632
-0.005440037777777778,-0.1885059309575123
-0.005439697777777778,-0.2114137671546841
-0.005439357777777778,-0.2290554341111479
-0.005439017777777778,-0.2407397471139945
-0.005438677777777778,-0.2468616688563421
-0.005438337777777778,-0.249099790783649
-0.005437997777777778,-0.2475199400114332
-0.005437657777777778,-0.2438336215429228
-0.005437317777777778,-0.2384357980711636
-0.005436977777777778,-0.2319189136357731
-0.005436637777777778,-0.2248095851607888
-0.005436297777777778,-0.2171078126462365
-0.005435957777777778,-0.2091756452273742
-0.005435617777777778,-0.2009143422309803
-0.005435277777777778,-0.193146742600919
-0.005434937777777778,-0.185708278548375
-0.005434597777777778,-0.1785989500733906
-0.005434257777777778,-0.1711275724631198
-0.005433917777777778,-0.1648739964897403
-0.005433577777777778,-0.1588179018629018
-0.005433237777777778,-0.1523668445430204
-0.005432897777777778,-0.1464094905894338
-0.005432557777777778,-0.1404521366358589
-0.005432217777777778,-0.1347251775865764
-0.005431877777777778,-0.1292944405570641
-0.005431537777777778,-0.1250156780489717
-0.005431197777777778,-0.120671088425378
-0.005430857777777778,-0.1185317071713239
-0.005430517777777778,-0.1157669683199411
-0.005430177777777778,-0.1132326243728448
-0.005429837777777778,-0.1102374906171755
-0.005429497777777778,-0.1065511721486651
-0.005429157777777778,-0.1025686316603709
-0.005428817777777778,-0.0985860911720623
-0.005428477777777778,-0.09499851337681556
-0.005428137777777778,-0.09039061529118594
-0.005427797777777778,-0.08604602566757602
-0.005427457777777778,-0.08206348517927461
-0.005427117777777778,-0.0783113395952551
-0.005426777777777778,-0.07446045333797194
-0.005426437777777778,-0.07093870265823432
-0.005426097777777778,-0.0678119146715514
-0.005425757777777778,-0.06527757072445051
-0.005425417777777778,-0.06274322677734961
-0.005425077777777778,-0.06001140148372136
-0.005424737777777778,-0.05731248974784768
-0.005424397777777778,-0.05454775089646488
-0.005424057777777778,-0.05217797473813677
-0.005423717777777778,-0.04951197656001345
-0.005423377777777778,-0.04720802751719864
-0.005423037777777778,-0.04543069539845256
-0.005422697777777778,-0.04381793106847669
-0.005422357777777778,-0.04240264808503331
-0.005422017777777778,-0.04128358712137837
-0.005421677777777778,-0.04095445154383022
-0.005421337777777778,-0.03953916856038684
-0.005420997777777778,-0.03878215673203202
-0.005420657777777778,-0.03786057711490179
-0.005420317777777778,-0.03641238057370391
-0.005419977777777778,-0.0347337891282215
-0.005419637777777778,-0.03318685191375199
-0.005419297777777778,-0.03025754527360174
-0.005418957777777778,-0.02772320132650084
-0.005418617777777778,-0.02581421497673425
-0.005418277777777778,-0.02456349978206336
-0.005417937777777778,-0.0233786117028993
-0.005417597777777778,-0.02281908122107105
-0.005417257777777778,-0.02239120497026259
-0.005416917777777778,-0.02186458804618967
-0.005416577777777778,-0.02166710669966197
-0.005416237777777778,-0.02146962535313499
-0.005415897777777778,-0.02104174910232575
-0.005415557777777778,-0.02110757621783504
-0.005415217777777778,-0.02120631689109853
-0.005414877777777778,-0.02094300842906207
-0.005414537777777778,-0.0207126135247806
-0.005414197777777778,-0.02005434236968903
-0.005413857777777778,-0.01890236784827953
