Analysis/plots/wrd01_d2s01/non compliant measurements/cmb07_ch07.csv

#Digilent WaveForms Oscilloscope Acquisition
#Device Name: ADP3450
#Serial Number: SN:210018B9D9B0
#Date Time: 2024-08-07 10:45:45.068.336.940
#Sample rate: 2.94118e+06Hz
#Samples: 32768
#Trigger: Source: Channel 3 Type: Edge Condition: Rising Level: 0 V Hyst.: Auto HoldOff: 0 s
#Channel 3: Range: 200 mV/div Offset: 0 V Attenuation: 1 X Coupling: DC Bandwidth: 0 Hz Sample Mode: Average

Time (s),Channel 3 (V)
-0.005570350769230769,0.01035778499552173
-0.005570010769230769,0.00976534095593809
-0.005569670769230769,0.008876674896566664
-0.005569330769230769,0.007395564797611595
-0.005568990769230769,0.005848627583144896
-0.005568650769230769,0.004466258157456012
-0.005568310769230769,0.00357759209808297
-0.005567970769230769,0.003544678540329431
-0.005567630769230769,0.004104209022155884
-0.005567290769230769,0.004597912388474241
-0.005566950769230769,0.005256183543566161
-0.005566610769230769,0.005684059794374625
-0.005566270769230769,0.006342330949465767
-0.005565930769230769,0.007000602104558766
-0.005565590769230769,0.00802092239494818
-0.005565250769230769,0.008679193550039321
-0.005564910769230769,0.009567859609418052
-0.005564570769230769,0.01269464759609529
-0.005564230769230769,0.01996854385985241
-0.005563890769230769,0.03405554657884267
-0.005563550769230769,0.05594306248558333
-0.005563210769230769,0.08461077128980257
-0.00556287076923077,0.1181167730838807
-0.005562530769230769,0.1527418358417358
-0.005562190769230769,0.1860503562893476
-0.005561850769230769,0.2153763362486046
-0.005561510769230769,0.2390082707164299
-0.005561170769230769,0.2563866292108361
-0.005560830769230769,0.2669189676922752
-0.005560490769230769,0.2713952115469142
-0.005560150769230769,0.2722509640485326
-0.005559810769230769,0.2700128421212268
-0.005559470769230769,0.2653062033623211
-0.005559130769230769,0.2587893189269188
-0.005558790769230769,0.2512521142011389
-0.005558450769230769,0.2429578976469768
-0.005558110769230769,0.2345649404195647
-0.005557770769230769,0.2254807984793235
-0.005557430769230769,0.2171207548096495
-0.005557090769230769,0.2094848094105922
-0.005556750769230769,0.2020463453580759
-0.005556410769230769,0.1947395355365506
-0.005556070769230769,0.1873668985995298
-0.005555730769230769,0.1805208785865944
-0.005555390769230769,0.1741027348244433
-0.005555050769230769,0.1684745164484141
-0.005554710769230769,0.163438742111976
-0.005554370769230769,0.1584029677755196
-0.005554030769230769,0.1537950696898816
-0.005553690769230769,0.1493517393930164
-0.005553350769230769,0.145072976884924
-0.005553010769230769,0.1410904363966226
-0.005552670769230769,0.1365154518687391
-0.005552330769230769,0.1319075537831011
-0.005551990769230769,0.1267072116578811
-0.005551650769230769,0.1224284491497887
-0.005551310769230769,0.1172281070245597
-0.005550970769230769,0.1122910733613851
-0.005550630769230769,0.1074856939292197
-0.005550290769230769,0.1030094500745916
-0.005549950769230769,0.09836863843120744
-0.005549610769230769,0.09432027082739691
-0.005549270769230769,0.09089726082091477
-0.005548930769230769,0.08638810340854866
-0.005548590769230769,0.08342588321063851
-0.005548250769230769,0.08049657657047826
-0.005547910769230769,0.07792931906562747
-0.005547570769230769,0.07506583954098101
-0.005547230769230769,0.07299228540244061
-0.005546890769230769,0.07118203972594328
-0.005546550769230769,0.06848312799006959
-0.005546210769230769,0.06578421625419026
-0.005545870769230769,0.06269034182526753
-0.005545530769230769,0.06002434364714841
-0.005545190769230769,0.05814827085513476
-0.005544850769230769,0.05600888960109244
-0.005544510769230769,0.05429738459785547
-0.005544170769230769,0.0532770643074621
-0.005543830769230769,0.05212508978605471
-0.005543490769230769,0.05021610343629039
-0.005543150769230769,0.04926161026140644
-0.005542810769230769,0.04827420352877152
-0.005542470769230769,0.04705640189185291
-0.00554213076923077,0.04629939006349947
-0.005541790769230769,0.04504867486882493
-0.005541450769230769,0.04429166304047012
-0.005541110769230769,0.0431726020768172
-0.005540770769230769,0.04188897332438744
-0.005540430769230769,0.04057243101420516
-0.005540090769230769,0.03928880226177976
-0.005539750769230769,0.03833430908689527
-0.005539410769230769,0.03757729725854046
-0.005539070769230769,0.03682028543018702
-0.005538730769230769,0.03688611254569477
-0.005538390769230769,0.03642532273713096
-0.005538050769230769,0.03533917533123256
-0.005537710769230769,0.03392389234778462
-0.005537370769230769,0.032409868691075
-0.005537030769230769,0.03102749926538611
-0.005536690769230769,0.02980969762846498
-0.005536350769230769,0.02875646378031916
-0.005536010769230769,0.02714369945034879
-0.005535670769230769,0.02628794694872737
-0.005535330769230769,0.02428021992569939
-0.005534990769230769,0.02260162848022003
-0.005534650769230769,0.02121925905452558
-0.005534310769230769,0.02033059299515254
-0.005533970769230769,0.02089012347697899
-0.005533630769230769,0.02118634549677102
-0.005533290769230769,0.02144965395880748
-0.005532950769230769,0.02164713530533482
-0.005532610769230769,0.02164713530533482
-0.005532270769230769,0.0210546912657528
-0.005531930769230769,0.02006728453311608
-0.005531590769230769,0.0194419269357795
-0.005531250769230769,0.01832286597212456
-0.005530910769230769,0.0169075829886786
-0.005530570769230769,0.01568978135175999
-0.005530230769230769,0.01532773221645986
-0.005529890769230769,0.01493276952340517
-0.005529550769230769,0.01463654750361506
-0.005529210769230769,0.01513025086993251
-0.005528870769230769,0.01559104067849632
-0.005528530769230769,0.01641387962236102
-0.005528190769230769,0.01684175587316948
-0.005527850769230769,0.0169075829886786
-0.005527510769230769,0.01605183048705904
-0.005527170769230769,0.01545938644747809
-0.005526830769230769,0.01447197971484137
-0.005526490769230769,0.01279338826935662
-0.005526150769230769,0.01150975951693123
-0.005525810769230769,0.01108188326612199
-0.005525470769230769,0.01022613076450344
-0.005525130769230769,0.01019321720674895
-0.005524790769230769,0.009929908744712493
-0.005524450769230769,0.009436205378395273
-0.005524110769230769,0.01006156297573072
-0.005523770769230769,0.01078566124633098
-0.005523430769230769,0.01147684595917823
-0.005523090769230769,0.01233259846079516
-0.005522750769230769,0.01262882048058617
-0.005522410769230769,0.01282630182711322
-0.005522070769230769,0.01266173403834073
-0.005521730769230769,0.01203637644100415
-0.005521390769230769,0.01137810528591073
-0.005521050769230769,0.01012739009123984
-0.005520710769230769,0.009107069800848565
-0.005520370769230769,0.007757613932914177
-0.005520030769230769,0.007395564797611595
-0.005519690769230769,0.007428478355366152
-0.005519350769230769,0.00732973768210266
-0.005519010769230769,0.007823441048420837
-0.005518670769230769,0.008580452876775651
-0.005518330769230769,0.009436205378392579
-0.005517990769230769,0.01032487143776718
-0.005517650769230769,0.01098314259285832
-0.005517310769230769,0.0112464510548943
-0.005516970769230769,0.01141101884366756
-0.005516630769230769,0.01065400701531275
-0.005516290769230769,0.00969951384043233
-0.005515950769230769,0.008745020665548437
-0.005515610769230769,0.008251317299230079
-0.005515270769230769,0.007658873259649129
-0.005514930769230769,0.007263910566593366
-0.005514590769230769,0.006671466527011338
-0.005514250769230769,0.006671466527011338
-0.005513910769230769,0.007428478355366152
-0.005513570769230769,0.008152576625966409
-0.005513230769230769,0.008547539319020376
-0.005512890769230769,0.008415885088002865
-0.005512550769230769,0.008218403741475522
-0.005512210769230769,0.007922181721684508
-0.005511870769230769,0.007165169893329695
-0.005511530769230769,0.006408158064974882
-0.005511190769230769,0.005947368256411082
-0.005510850769230769,0.005519492005601839
-0.005510510769230769,0.005256183543565383
-0.005510170769230769,0.005387837774583611
-0.005509830769230769,0.004959961523774369
-0.005509490769230769,0.004663739503983355
-0.005509150769230769,0.005651146236620068
-0.005508810769230769,0.005881541140903285
-0.005508470769230769,0.006605639411502225
-0.005508130769230769,0.00677020720027501
-0.005507790769230769,0.007230997008839168
-0.005507450769230769,0.007428478355366152
-0.005507110769230769,0.007757613932911723
-0.005506770769230769,0.007955095279438468
-0.005506430769230769,0.007625959701893495
-0.005506090769230769,0.006671466527011338
-0.005505750769230769,0.005980281814165459
-0.005505410769230769,0.005881541140901968
-0.005505070769230769,0.005486578447847282
-0.005504730769230769,0.003840900560119607
-0.005504390769230769,0.003939641233383098
-0.005504050769230769,0.003676332771346642
-0.005503710769230769,0.00370924632910084
-0.005503370769230769,0.003511764982573856
-0.005503030769230769,0.003610505655837527
-0.005502690769230769,0.004038381906648805
-0.005502350769230769,0.005157442870301712
-0.005502010769230769,0.00630941739171121
-0.005501670769230769,0.007593046144141452
-0.005501330769230769,0.008975415569830336
-0.005500990769230769,0.009469118936148692
-0.005500650769230769,0.009567859609412484
-0.005500310769230769,0.009633686724921478
-0.005499970769230769,0.009436205378394135
-0.00549963076923077,0.009304551147376147
-0.005499290769230769,0.008909588454321223
-0.005498950769230769,0.008086749510457293
-0.005498610769230769,0.007296824124349361
-0.005498270769230769,0.006638552969256781
-0.005497930769230769,0.005585319121110954
-0.005497590769230769,0.004927047966021008
-0.005497250769230769,0.004630825946228797
-0.005496910769230769,0.004663739503983355
-0.005496570769230769,0.005190356428055311
-0.005496230769230769,0.005881541140901968
-0.005495890769230769,0.006210676718447538
-0.005495550769230769,0.006013195371920555
-0.005495210769230769,0.006638552969256781
-0.005494870769230769,0.006473985180483996
-0.005494530769230769,0.006309417391711509
-0.005494190769230769,0.006243590276202096
-0.005493850769230769,0.006671466527011338
-0.005493510769230769,0.006737293642520333
-0.005493170769230769,0.006967688546802352
-0.005492830769230769,0.00677020720027501
-0.005492490769230769,0.006473985180484534
-0.005492150769230769,0.005716973352129182
-0.005491810769230769,0.005716973352129182
-0.005491470769230769,0.005716973352129182
-0.005491130769230769,0.005387837774583611
-0.005490790769230769,0.00528909710131994
-0.005490450769230769,0.00505870219703804
-0.005490110769230769,0.005091615754792597
-0.005489770769230769,0.005124529312547154
-0.005489430769230769,0.005420751332338168
-0.005489090769230769,0.006111936045183867
-0.005488750769230769,0.006177763160692982
-0.005488410769230769,0.00630941739171121
-0.005488070769230769,0.005914454698656285
-0.005487730769230769,0.005782800467638296
-0.005487390769230769,0.005322010659074497
-0.005487050769230769,0.005651146236621326
-0.005486710769230769,0.006342330949465767
-0.005486370769230769,0.006868947873538681
-0.005486030769230769,0.007625959701893854
-0.005485690769230769,0.007823441048420837
-0.005485350769230769,0.007955095279439066
-0.005485010769230769,0.007856354606175274
-0.005484670769230769,0.00779052749066628
-0.005484330769230769,0.007658873259648051
-0.005483990769230769,0.007362651239856619
-0.005483650769230769,0.007132256335575138
-0.005483310769230769,0.00653981229599311
-0.005482970769230769,0.005980281814166537
-0.005482630769230769,0.006473985180483996
-0.005482290769230769,0.006506898738238553
-0.005481950769230769,0.006934774989048633
-0.005481610769230769,0.007395564797611595
-0.005481270769230769,0.007428478355366152
-0.005480930769230769,0.007593046144138519
-0.005480590769230769,0.007362651239857037
-0.005480250769230769,0.007823441048420837
-0.005479910769230769,0.007724700375156627
-0.005479570769230769,0.007428478355366152
-0.005479230769230769,0.007724700375157166
-0.00547889076923077,0.008053835952702138
-0.005478550769230769,0.007955095279439066
-0.005478210769230769,0.007625959701893495
-0.005477870769230769,0.007724700375156986
-0.005477530769230769,0.007527219028629823
-0.005477190769230769,0.007724700375157166
-0.005476850769230769,0.007988008837193144
-0.005476510769230769,0.007428478355366152
-0.005476170769230769,0.006572725853747667
-0.005475830769230769,0.005486578447849258
-0.005475490769230769,0.004795393735001583
-0.005475150769230769,0.00505870219703804
-0.005474810769230769,0.004795393735002062
-0.005474470769230769,0.00482830729275614
-0.005474130769230769,0.005322010659074497
-0.005473790769230769,0.005716973352128464
-0.005473450769230769,0.006276503833956653
-0.005473110769230769,0.00677020720027501
-0.005472770769230769,0.006539812295993529
-0.005472430769230769,0.006276503833956653
-0.005472090769230769,0.005716973352129182
-0.005471750769230769,0.00538783777458421
-0.005471410769230769,0.004696653061737912
-0.005471070769230769,0.00426877681092867
-0.005470730769230769,0.00426877681092867
-0.005470390769230769,0.004071295464401327
-0.005470050769230769,0.004170036137664999
-0.005469710769230769,0.004334603926437783
-0.005469370769230769,0.004532085272965126
-0.005469030769230769,0.00426877681092867
-0.005468690769230769,0.004202949695419555
-0.005468350769230769,0.004202949695419555
-0.005468010769230769,0.004202949695419555
-0.005467670769230769,0.004235863253174112
-0.005467330769230769,0.003610505655837527
-0.005466990769230769,0.004729566619492469
-0.005466650769230769,0.005354924216829054
-0.005466310769230769,0.005223269985810586
-0.005465970769230769,0.005091615754792597
-0.005465630769230769,0.005519492005601839
-0.005465290769230769,0.006243590276201857
-0.005464950769230769,0.006111936045183867
-0.005464610769230769,0.006046108929674754
-0.005464270769230769,0.005947368256410963
-0.005463930769230769,0.005881541140901968
-0.005463590769230769,0.005848627583147411
-0.005463250769230769,0.006704380084766315
-0.005462910769230769,0.006934774989047795
-0.005462570769230769,0.007494305470875266
-0.005462230769230769,0.008350057972493991
-0.005461890769230769,0.008481712203511979
-0.005461550769230769,0.008415885088002865
-0.005461210769230769,0.007329737682100206
-0.005460870769230769,0.00607902248742931
-0.005460530769230769,0.004992875081528926
-0.005460190769230769,0.004005468348891135
-0.005459850769230769,0.003413024309310185
-0.005459510769230769,0.003281370078291956
-0.005459170769230769,0.003972554791138374
-0.005458830769230769,0.004367517484192341
-0.005458490769230769,0.004861220850510698
-0.005458150769230769,0.005058702197037322
-0.005457810769230769,0.004663739503983355
-0.005457470769230769,0.003314283636046514
-0.00545713076923077,0.002919320942992547
-0.005456790769230769,0.003215542962782842
-0.005456450769230769,0.002656012480955371
-0.005456110769230769,0.002129395556883416
-0.005455770769230769,0.001734432863827772
-0.005455430769230769,0.001207815939754859
-0.005455090769230769,0.001207815939754859
-0.005454750769230769,0.002524358249937143
-0.005454410769230769,0.003050975174010056
-0.005454070769230769,0.003775073444608996
-0.005453730769230769,0.004959961523774369
-0.005453390769230769,0.006210676718447538
-0.005453050769230769,0.007593046144136423
-0.005452710769230769,0.008613366434530208
-0.005452370769230769,0.00871210710779388
-0.005452030769230769,0.007955095279440444
-0.005451690769230769,0.007757613932911723
-0.005451350769230769,0.008152576625966409
-0.005451010769230769,0.008382971530247888
-0.005450670769230769,0.008646279992284765
-0.005450330769230769,0.008448798645757422
-0.005449990769230769,0.008580452876775412
-0.005449650769230769,0.008251317299230079
-0.005449310769230769,0.007296824124347924
-0.005448970769230769,0.006506898738239991
-0.005448630769230769,0.006013195371920196
-0.005448290769230769,0.006111936045183867
-0.005447950769230769,0.005025788639283483
-0.005447610769230769,0.004663739503983355
-0.005447270769230769,0.004466258157456012
-0.005446930769230769,0.004795393735001583
-0.005446590769230769,0.005387837774583611
-0.005446250769230769,0.004663739503983355
-0.005445910769230769,0.00482830729275614
-0.005445570769230769,0.004992875081530063
-0.005445230769230769,0.005618232678865511
-0.005444890769230769,0.006473985180483996
-0.005444550769230769,0.006704380084765178
-0.005444210769230769,0.00630941739171121
-0.005443870769230769,0.005486578447847282
-0.005443530769230769,0.004466258157453438
-0.005443190769230769,0.003050975174010056
-0.005442850769230769,0.0009115939199638446
-0.005442510769230769,-0.002544329644277344
-0.005442170769230769,-0.009522003888230759
-0.005441830769230769,-0.02311530324086284
-0.005441490769230769,-0.04477242424341333
-0.005441150769230769,-0.07330847881656244
-0.005440810769230769,-0.1059587281090831
-0.005440470769230769,-0.1404850501936713
-0.005440130769230769,-0.1722795469845157
-0.005439790769230769,-0.2002560710758892
-0.005439450769230769,-0.2218802785206585
-0.005439110769230769,-0.2358027134508109
-0.005438770769230769,-0.2440969300049593
-0.005438430769230769,-0.2467300146253226
-0.005438090769230769,-0.2460388299124781
-0.005437750769230769,-0.2433070046188499
-0.005437410769230769,-0.2392257234572757
-0.005437070769230769,-0.2341899491208376
-0.005436730769230769,-0.227837632474208
-0.00543639076923077,-0.2209257853457636
-0.005436050769230769,-0.2142114195638214
-0.005435710769230769,-0.2064109063759914
-0.005435370769230769,-0.1992686643432655
-0.005435030769230769,-0.191797286732968
-0.005434690769230769,-0.1849841802777747
-0.005434350769230769,-0.1786647771889112
-0.005434010769230769,-0.1726745096775703
-0.005433670769230769,-0.1667500692817501
-0.005433330769230769,-0.1609572831169586
-0.005432990769230769,-0.1549999291633732
-0.005432650769230769,-0.1491742294408166
-0.005432310769230769,-0.143776405969079
-0.005431970769230769,-0.1378519655732489
-0.005431630769230769,-0.1322566607549742
-0.005431290769230769,-0.1265297017056917
-0.005430950769230769,-0.1218559765045342
-0.005430610769230769,-0.1181696580360238
-0.005430270769230769,-0.1144833395675201
-0.005429930769230769,-0.1109945024455303
-0.005429590769230769,-0.1079006280166019
-0.005429250769230769,-0.1047080129144157
-0.005428910769230769,-0.1014166571389542
-0.005428570769230769,-0.09746703020840736
-0.005428230769230769,-0.09295787279604122
-0.005427890769230769,-0.08825123403713137
-0.005427550769230769,-0.08357750883598425
-0.005427210769230769,-0.07873921584606436
-0.005426870769230769,-0.07462502112674471
-0.005426530769230769,-0.07014877727212496
-0.005426190769230769,-0.06616623678382355
-0.005425850769230769,-0.06287488100836783
-0.005425510769230769,-0.06027470994575782
-0.005425170769230769,-0.0579049337874297
-0.005424830769230769,-0.05583137964889261
-0.005424490769230769,-0.05356034416382817
-0.005424150769230769,-0.0518488391605912
-0.005423810769230769,-0.05046646973489657
-0.005423470769230769,-0.04868913761615372
-0.005423130769230769,-0.04694471905516219
-0.005422790769230769,-0.04556234962946828
-0.005422450769230769,-0.04417998020377939
-0.005422110769230769,-0.04299509212461534
-0.005421770769230769,-0.04148106846790355
-0.005421430769230769,-0.04029618038874165
-0.005421090769230769,-0.03930877365610494
-0.005420750769230769,-0.03838719403897662
-0.005420410769230769,-0.03799223134592265
-0.005420070769230769,-0.03753144153735886
-0.005419730769230769,-0.0353920602833124
-0.005419390769230769,-0.03526040605229441
-0.005419050769230769,-0.03407551797313036
-0.005418710769230769,-0.03298937056722716
-0.005418370769230769,-0.03144243335276579
-0.005418030769230769,-0.02900683007892857
-0.005417690769230769,-0.02643957257407149
-0.005417350769230769,-0.02555090651470007
-0.005417010769230769,-0.02456349978206336
-0.005416670769230769,-0.02364192016493408
-0.005416330769230769,-0.02272034054780816
-0.005415990769230769,-0.02202915583496246
-0.005415650769230769,-0.02081135419804127
-0.005415310769230769,-0.01939607121459789
-0.005414970769230769,-0.01824409669318839
-0.005414630769230769,-0.01709212217178099
-0.005414290769230769,-0.01633511034342408
-0.005413950769230769,-0.01584140697710572
