Analysis/plots/wrd01_d2s01/non compliant measurements/cmb08_ch21.csv

#Digilent WaveForms Oscilloscope Acquisition
#Device Name: ADP3450
#Serial Number: SN:210018B9D9B0
#Date Time: 2024-08-06 16:51:52.481.100.710
#Sample rate: 2.94118e+06Hz
#Samples: 32768
#Trigger: Source: Channel 3 Type: Edge Condition: Rising Level: 60 mV Hyst.: Auto HoldOff: 0 s
#Channel 3: Range: 200 mV/div Offset: -20 mV Attenuation: 1 X Coupling: DC Bandwidth: 0 Hz Sample Mode: Average

Time (s),Channel 3 (V)
-0.005570237481636937,0.01529871571619498
-0.005569897481636936,0.01444296321457565
-0.005569557481636936,0.01398217340601269
-0.005569217481636937,0.01417965475254003
-0.005568877481636936,0.01447587677233183
-0.005568537481636936,0.01490375302314029
-0.005568197481636936,0.0147391852343675
-0.005567857481636936,0.01431130898355778
-0.005567517481636936,0.01404800052152181
-0.005567177481636936,0.01375177850173079
-0.005566837481636936,0.01358721071295729
-0.005566497481636936,0.01319224801990332
-0.005566157481636936,0.01319224801990332
-0.005565817481636936,0.01368595138622246
-0.005565477481636936,0.01411382763703092
-0.005565137481636936,0.01417965475254003
-0.005564797481636936,0.01437713609906666
-0.005564457481636936,0.01398217340601269
-0.005564117481636936,0.01355429715520345
-0.005563777481636936,0.01342264292418438
-0.005563437481636936,0.01296185311562142
-0.005563097481636936,0.01292893955786686
-0.005562757481636937,0.01227066840277692
-0.005562417481636936,0.01128326167013901
-0.005562077481636936,0.01029585493750229
-0.005561737481636937,0.008781831280795424
-0.005561397481636936,0.007366548297346712
-0.005561057481636936,0.006214573775937213
-0.005560717481636937,0.005292994158811292
-0.005560377481636936,0.004568895888209358
-0.005560037481636936,0.004404328099436573
-0.005559697481636937,0.004996772139017523
-0.005559357481636936,0.006050005987164429
-0.005559017481636936,0.007498202528364941
-0.005558677481636937,0.009407188878125781
-0.005558337481636936,0.01144782945891179
-0.005557997481636936,0.01292893955786686
-0.005557657481636937,0.01388343273274728
-0.005557317481636936,0.01385051917499446
-0.005556977481636936,0.01286311244235775
-0.005556637481636937,0.01148074301666887
-0.005556297481636936,0.0100654600332204
-0.005555957481636936,0.008913485511810896
-0.005555617481636937,0.007103239835313548
-0.005555277481636936,0.006115833102673543
-0.005554937481636936,0.005457561947582401
-0.005554597481636937,0.004733463676983461
-0.005554257481636936,0.004206846752909232
-0.005553917481636936,0.003647316271081759
-0.005553577481636937,0.003515662040063532
-0.005553237481636936,0.003976451848627331
-0.005552897481636936,0.002890304442726945
-0.005552557481636937,0.003252353578027074
-0.005552217481636936,0.00318652646251796
-0.005551877481636936,0.002989045115990616
-0.005551537481636937,0.003384007809045304
-0.005551197481636936,0.003449834924555436
-0.005550857481636936,0.004009365406381887
-0.005550517481636937,0.003943538290872774
-0.005550177481636936,0.003844797617609163
-0.005549837481636936,0.00387771117536366
-0.005549497481636937,0.004930945023509487
-0.005549157481636936,0.005457561947584317
-0.005548817481636936,0.006510795795728228
-0.005548477481636937,0.008189387241210641
-0.005548137481636936,0.009341361762620917
-0.005547797481636936,0.009769238013429382
-0.005547457481636936,0.008781831280792669
-0.005547117481636936,0.007827338105907997
-0.005546777481636936,0.006444968680219114
-0.005546437481636936,0.005161339927791386
-0.005546097481636936,0.003976451848625474
-0.005545757481636936,0.002956131558236059
-0.005545417481636936,0.003153612904763403
-0.005545077481636936,0.002890304442726586
-0.005544737481636936,0.002692823096199604
-0.005544397481636936,0.003153612904763403
-0.005544057481636936,0.003021958673746254
-0.005543717481636936,0.003614402713327202
-0.005543377481636936,0.004108106079645558
-0.005543037481636936,0.004601809445965293
-0.005542697481636936,0.005358821274318729
-0.005542357481636936,0.006379141564709999
-0.005542017481636937,0.007037412719799945
-0.005541677481636936,0.0068399313732738
-0.005541337481636936,0.006313314449200885
-0.005540997481636937,0.005424648389829459
-0.005540657481636936,0.004239760310663789
-0.005540317481636936,0.003515662040063532
-0.005539977481636937,0.003515662040063532
-0.005539637481636936,0.003416921366799861
-0.005539297481636936,0.003680229828836316
-0.005538957481636937,0.003713143386590813
-0.005538617481636936,0.003746056944345429
-0.005538277481636936,0.003515662040063532
-0.005537937481636937,0.003054872231500571
-0.005537597481636936,0.003252353578027074
-0.005537257481636936,0.003647316271081759
-0.005536917481636937,0.00410810607964472
-0.005536577481636936,0.004799290792491258
-0.005536237481636936,0.005523389063091515
-0.005535897481636937,0.006313314449199448
-0.005535557481636936,0.006609536468991898
-0.005535217481636936,0.006444968680219114
-0.005534877481636937,0.007103239835309059
-0.005534537481636936,0.007103239835310256
-0.005534197481636936,0.006247487333691772
-0.005533857481636937,0.005325907716565849
-0.005533517481636936,0.003713143386590873
-0.005533177481636936,0.001507935017035548
-0.005532837481636937,-0.0003352242172196505
-0.005532497481636936,-0.00158593941189282
-0.005532157481636936,-0.001618852969647377
-0.005531817481636937,-0.0009276682568016767
-0.005531477481636936,0.0002243062646078188
-0.005531137481636936,0.001244626554999091
-0.005530797481636937,0.001771243479072003
-0.005530457481636936,0.003219440020272517
-0.005530117481636936,0.004108106079645558
-0.005529777481636937,0.004272673868418345
-0.005529437481636936,0.004568895888209658
-0.005529097481636936,0.004733463676982144
-0.005528757481636937,0.004667636561473031
-0.005528417481636936,0.004963858581265061
-0.005528077481636936,0.005523389063091515
-0.005527737481636937,0.00601709242940987
-0.005527397481636936,0.00667536358450275
-0.005527057481636936,0.00762985675938317
-0.005526717481636936,0.008189387241210641
-0.005526377481636936,0.007695683874890727
-0.005526037481636936,0.0068399313732738
-0.005525697481636936,0.00601709242940987
-0.005525357481636936,0.005325907716562615
-0.005525017481636936,0.004470155214945688
-0.005524677481636936,0.003943538290872774
-0.005524337481636936,0.004108106079647175
-0.005523997481636936,0.0049967721390186
-0.005523657481636936,0.005358821274318729
-0.005523317481636936,0.005786697525126774
-0.005522977481636936,0.005128426370036829
-0.005522637481636936,0.005490475505336958
-0.005522297481636936,0.005490475505336778
-0.005521957481636936,0.005391734832073286
-0.005521617481636936,0.004634723003718472
-0.005521277481636936,0.004108106079645378
-0.005520937481636936,0.004009365406381887
-0.005520597481636936,0.003943538290872774
-0.005520257481636937,0.004042278964136265
-0.005519917481636936,0.004075192521891001
-0.005519577481636936,0.00387771117536366
-0.005519237481636937,0.003811884059854666
-0.005518897481636936,0.00318652646251796
-0.005518557481636936,0.002692823096199604
-0.005518217481636937,0.002067465498864155
-0.005517877481636936,0.001705416363562889
-0.005517537481636936,0.001639589248053776
-0.005517197481636937,0.002462428191916206
-0.005516857481636936,0.003449834924554418
-0.005516517481636936,0.004141019637400115
-0.005516177481636937,0.004733463676981067
-0.005515837481636936,0.004930945023509487
-0.005515497481636936,0.004601809445963915
-0.005515157481636937,0.003910624733119475
-0.005514817481636936,0.003844797617609103
-0.005514477481636936,0.003647316271081759
-0.005514137481636937,0.003548575597818268
-0.005513797481636936,0.003680229828836316
-0.005513457481636936,0.003614402713327202
-0.005513117481636937,0.003449834924554717
-0.005512777481636936,0.003482748482308975
-0.005512437481636936,0.003153612904763403
-0.005512097481636937,0.003021958673745176
-0.005511757481636936,0.002824477327217832
-0.005511417481636936,0.00249534174967226
-0.005511077481636937,0.002166206172126688
-0.005510737481636936,0.002561168865181374
-0.005510397481636936,0.002989045115990616
-0.005510057481636937,0.003449834924554418
-0.005509717481636936,0.003844797617609103
-0.005509377481636936,0.004634723003718472
-0.005509037481636937,0.004865117908000373
-0.005508697481636936,0.005556302620846371
-0.005508357481636936,0.005720870409618857
-0.005508017481636937,0.005819611082882528
-0.005507677481636936,0.005622129736353808
-0.005507337481636936,0.004865117908000373
-0.005506997481636937,0.004700550119227587
-0.005506657481636936,0.004865117908000373
-0.005506317481636936,0.004865117908000373
-0.005505977481636937,0.004404328099436573
-0.005505637481636936,0.004535982330453964
-0.005505297481636936,0.004075192521891001
-0.005504957481636936,0.003614402713327202
-0.005504617481636936,0.003153612904761667
-0.005504277481636936,0.002199119729881245
-0.005503937481636936,0.002824477327217832
-0.005503597481636936,0.003087785789255846
-0.005503257481636936,0.003943538290872774
-0.005502917481636936,0.004404328099436573
-0.005502577481636936,0.005457561947583719
-0.005502237481636936,0.006181660218182656
-0.005501897481636936,0.006905758488782913
-0.005501557481636936,0.007465288970610923
-0.005501217481636936,0.007761510990401397
-0.005500877481636936,0.007662770317137727
-0.005500537481636936,0.007300721181835982
-0.005500197481636936,0.006412055122464556
-0.005499857481636936,0.005260080601055058
-0.005499517481636937,0.00414101963740215
-0.005499177481636936,0.002791563769463275
-0.005498837481636936,0.001573762132544662
-0.005498497481636937,0.0008825774197002193
-0.005498157481636936,0.0005863553999079472
-0.005497817481636936,0.0005205282843988336
-0.005497477481636937,0.000257219822362858
-0.005497137481636936,0.0006521825154170643
-0.005496797481636936,0.001277540112753647
-0.005496457481636937,0.002199119729879568
-0.005496117481636936,0.002956131558236059
-0.005495777481636936,0.003384007809045304
-0.005495437481636937,0.00473346367697969
-0.005495097481636936,0.005424648389827843
-0.005494757481636936,0.006510795795728228
-0.005494417481636937,0.007037412719800185
-0.005494077481636936,0.007333634739592155
-0.005493737481636936,0.008222300798965198
-0.005493397481636937,0.009242621089354612
-0.005493057481636936,0.009802151571183939
-0.005492717481636936,0.01026294137974774
-0.005492377481636937,0.009933805802202765
-0.005492037481636936,0.009407188878129254
-0.005491697481636936,0.008551436376510768
-0.005491357481636937,0.007794424548157333
-0.005491017481636936,0.006905758488782913
-0.005490677481636936,0.005292994158809615
-0.005490337481636937,0.00387771117536366
-0.005489997481636936,0.002890304442726945
-0.005489657481636936,0.001705416363562889
-0.005489317481636937,0.0004876147266442768
-0.005488977481636936,0.000191392706853262
-0.005488637481636936,9.265203358959154e-05
-0.005488297481636937,0.0006192689576625041
-0.005487957481636936,0.001639589248054794
-0.005487617481636936,0.002199119729881245
-0.005487277481636937,0.00328526713578163
-0.005486937481636936,0.004108106079646755
-0.005486597481636936,0.004766377234736701
-0.005486257481636937,0.005490475505336958
-0.005485917481636936,0.006379141564712274
-0.005485577481636936,0.00762985675938317
-0.005485237481636937,0.008189387241210641
-0.005484897481636936,0.008551436376510768
-0.005484557481636936,0.008551436376510768
-0.005484217481636936,0.008255214356719755
-0.005483877481636936,0.007169066950817812
-0.005483537481636936,0.006313314449200885
-0.005483197481636936,0.004470155214945688
-0.005482857481636936,0.004042278964135786
-0.005482517481636936,0.003680229828836316
-0.005482177481636936,0.004108106079645558
-0.005481837481636936,0.004963858581264104
-0.005481497481636936,0.0049967721390186
-0.005481157481636936,0.005095512812282273
-0.005480817481636936,0.004075192521888905
-0.005480477481636936,0.002923218000481502
-0.005480137481636936,0.002001638383353904
-0.005479797481636936,0.001968724825599706
-0.005479457481636936,0.002166206172126688
-0.005479117481636936,0.001771243479072003
-0.005478777481636937,-0.001289717392096237
-0.005478437481636936,-0.00988015596604121
-0.005478097481636936,-0.02544826878394672
-0.005477757481636937,-0.04963973373350219
-0.005477417481636936,-0.08051265090732077
-0.005477077481636936,-0.114907318760833
-0.005476737481636937,-0.1496311221918275
-0.005476397481636936,-0.1812610511940201
-0.005476057481636936,-0.207427329608893
-0.005475717481636937,-0.2269121557995553
-0.005475377481636936,-0.2390572586110223
-0.005475037481636936,-0.2453437481421428
-0.005474697481636937,-0.2473514751651671
-0.005474357481636936,-0.2461995006437612
-0.005474017481636936,-0.2421840465977053
-0.005473677481636937,-0.2366545688949497
-0.005473337481636936,-0.2301047709017828
-0.005472997481636936,-0.2228308746380257
-0.005472657481636937,-0.2154582377010183
-0.005472317481636936,-0.2074602431666475
-0.005471977481636936,-0.1995939028633084
-0.005471637481636937,-0.1922541794840555
-0.005471297481636936,-0.1852435916823215
-0.005470957481636936,-0.1784304852271282
-0.005470617481636937,-0.1721439956960192
-0.005470277481636936,-0.1660879010691692
-0.005469937481636936,-0.1600318064423308
-0.005469597481636937,-0.1544694151818106
-0.005469257481636936,-0.1489070239212904
-0.005468917481636936,-0.1436737682383158
-0.005468577481636937,-0.1384405125553413
-0.005468237481636936,-0.1329439484103302
-0.005467897481636936,-0.1274144707075646
-0.005467557481636937,-0.1219508201203082
-0.005467217481636936,-0.1164542559752971
-0.005466877481636936,-0.1117476172163955
-0.005466537481636937,-0.1075675953815667
-0.005466197481636936,-0.1036508820087673
-0.005465857481636936,-0.09976708219373667
-0.005465517481636937,-0.09644281286052642
-0.005465177481636936,-0.09275649439200959
-0.005464837481636936,-0.08923474371227841
-0.005464497481636937,-0.08591047437906812
-0.005464157481636936,-0.08232289658381663
-0.005463817481636936,-0.07968981196345684
-0.005463477481636937,-0.07695798666982859
-0.005463137481636936,-0.07488443253128714
-0.005462797481636936,-0.07248174281520883
-0.005462457481636936,-0.06991448531035338
-0.005462117481636936,-0.0678080176140574
-0.005461777481636936,-0.0654382414557336
-0.005461437481636936,-0.06257476193108713
-0.005461097481636936,-0.06017207221500052
-0.005460757481636936,-0.0579997774032037
-0.005460417481636936,-0.05454385383897521
-0.005460077481636936,-0.05125249806351441
-0.005459737481636936,-0.04845484565438214
-0.005459397481636936,-0.04562427968749023
-0.005459057481636936,-0.04414316958853342
-0.005458717481636936,-0.043188676413653
-0.005458377481636936,-0.04236583746978908
-0.005458037481636936,-0.04137843073715015
-0.005457697481636936,-0.04016062910023375
-0.005457357481636936,-0.03795542073067842
-0.005457017481636937,-0.03519068187930065
-0.005456677481636936,-0.03226137523914004
-0.005456337481636936,-0.02979285840754826
-0.005455997481636937,-0.02775221782676943
-0.005455657481636936,-0.02663315686311078
-0.005455317481636936,-0.02650150263209255
-0.005454977481636937,-0.02643567551658356
-0.005454637481636936,-0.02610653993903787
-0.005454297481636936,-0.02502039253313748
-0.005453957481636937,-0.02337471464541262
-0.005453617481636936,-0.02189360454645455
-0.005453277481636936,-0.02090619781381784
-0.005452937481636937,-0.01962256906139245
-0.005452597481636936,-0.01916177925282632
-0.005452257481636936,-0.01866807588650796
-0.005451917481636937,-0.01804271828917251
-0.005451577481636936,-0.01784523694264403
-0.005451237481636936,-0.01754901492285302
-0.005450897481636937,-0.01685783021000858
-0.005450557481636936,-0.0158704234773706
-0.005450217481636936,-0.01501467097575212
-0.005449877481636937,-0.01435639982066217
-0.005449537481636936,-0.01359938799230617
-0.005449197481636936,-0.01234867279763299
-0.005448857481636937,-0.0110321304874531
-0.005448517481636936,-0.01053842712113235
-0.005448177481636936,-0.01043968644786868
-0.005447837481636937,-0.01020929154358678
-0.005447497481636936,-0.009978896639304884
-0.005447157481636936,-0.01040677289011413
-0.005446817481636937,-0.01106504404520527
-0.005446477481636936,-0.01076882202541425
-0.005446137481636936,-0.0107359084676597
-0.005445797481636937,-0.009945983081550328
-0.005445457481636936,-0.008563613655856533
-0.005445117481636936,-0.007247071345676644
-0.005444777481636937,-0.005568479900194229
-0.005444437481636936,-0.004087369801237127
-0.005444097481636936,-0.00296830883758422
-0.005443757481636937,-0.002211297009229406
-0.005443417481636936,-0.001717593642910272
-0.005443077481636936,-0.001289717392101805
-0.005442737481636937,-0.001553025854138263
-0.005442397481636936,-0.002803741048812391
-0.005442057481636936,-0.003330357972884349
-0.005441717481636936,-0.004186110474502833
-0.005441377481636936,-0.003824061339201567
-0.005441037481636936,-0.003198703741866118
-0.005440697481636936,-0.002540432586774978
-0.005440357481636936,-0.001520112296381791
-0.005440017481636936,-0.0004668784482378778
-0.005439677481636936,0.0009813180929626325
-0.005439337481636936,0.001738329921318105
-0.005438997481636936,0.002100379056617575
-0.005438657481636936,0.001738329921317446
-0.005438317481636936,0.001409194343769839
-0.005437977481636936,0.0002901333801169359
-0.005437637481636936,0.00045470116888972
-0.005437297481636936,0.0004217876111367797
-0.005436957481636936,0.001310453670508204
-0.005436617481636936,0.00183707059458112
-0.005436277481636937,0.001902897710090114
-0.005435937481636936,0.002363687518654033
-0.005435597481636936,0.001968724825599347
-0.005435257481636937,0.00147502145928189
-0.005434917481636936,0.001014231650717189
-0.005434577481636936,0.0004876147266442768
-0.005434237481636937,2.68249180813161e-05
-0.005433897481636936,2.682491808047791e-05
-0.005433557481636936,-0.0001706564284468665
-0.005433217481636937,-0.0002035699862013634
-0.005432877481636936,0.0004217876111351632
-0.005432537481636936,0.0009813180929626325
-0.005432197481636937,0.0008825774196991417
-0.005431857481636936,0.0007838367464352916
-0.005431517481636936,0.001014231650717189
-0.005431177481636937,0.001211712997244174
-0.005430837481636936,0.001902897710090234
-0.005430497481636936,0.003318180693536187
-0.005430157481636937,0.003778970502099151
-0.005429817481636936,0.004700550119227587
-0.005429477481636936,0.005424648389827843
-0.005429137481636937,0.005523389063091335
-0.005428797481636936,0.005523389063091515
-0.005428457481636936,0.004503068772700245
-0.005428117481636937,0.003482748482310831
-0.005427777481636936,0.003614402713327202
-0.005427437481636936,0.004141019637400115
-0.005427097481636937,0.00489803146575493
-0.005426757481636936,0.005095512812282273
-0.005426417481636936,0.005424648389827843
-0.005426077481636937,0.005556302620846072
-0.005425737481636936,0.005391734832073286
-0.005425397481636936,0.004700550119227587
-0.005425057481636937,0.003943538290872774
-0.005424717481636936,0.003746056944345429
-0.005424377481636936,0.003153612904763403
-0.005424037481636937,0.002692823096199604
-0.005423697481636936,0.00262699598069079
-0.005423357481636936,0.002791563769463275
-0.005423017481636937,0.002956131558236059
-0.005422677481636936,0.003120699347009864
-0.005422337481636936,0.003680229828836316
-0.005421997481636937,0.004338500983927459
-0.005421657481636936,0.004799290792492096
-0.005421317481636936,0.005260080601055058
-0.005420977481636936,0.005655043294109744
-0.005420637481636936,0.006082919544919046
-0.005420297481636936,0.006115833102673543
-0.005419957481636936,0.006313314449200885
-0.005419617481636936,0.006412055122463538
-0.005419277481636936,0.005852524640637086
-0.005418937481636936,0.00489803146575493
-0.005418597481636936,0.003449834924552083
-0.005418257481636936,0.002166206172126688
-0.005417917481636936,0.001211712997244534
-0.005417577481636936,0.0001584791490967894
-0.005417237481636936,-0.0008947546990471199
-0.005416897481636936,-0.001355544507610922
-0.005416557481636936,-0.0006972733525181625
-0.005416217481636936,0.000191392706853262
-0.005415877481636936,0.001606675690299219
-0.005415537481636936,0.003976451848630144
