Analysis/plots/wrd01_d2s01/non compliant measurements/cmb01_ch04.csv

#Digilent WaveForms Oscilloscope Acquisition
#Device Name: ADP3450
#Serial Number: SN:210018B9D9B0
#Date Time: 2024-08-06 14:59:55.294.716.520
#Sample rate: 2.94118e+06Hz
#Samples: 32768
#Trigger: Source: Channel 3 Type: Edge Condition: Rising Level: 80 mV Hyst.: Auto HoldOff: 0 s
#Channel 3: Range: 200 mV/div Offset: 0 V Attenuation: 1 X Coupling: DC Bandwidth: 0 Hz Sample Mode: Average

Time (s),Channel 3 (V)
-0.0055702767239636,0.006506898738238553
-0.005569936723963599,0.001569865075057681
-0.0055695967239636,0.003050975174010056
-0.0055692567239636,0.006967688546802352
-0.005568916723963599,0.002228136230154152
-0.0055685767239636,0.006638552969256781
-0.0055682367239636,0.005453664890092726
-0.005567896723963599,-0.001951885604678972
-0.0055675567239636,5.584141834535986e-05
-0.0055672167239636,0.001734432863827772
-0.005566876723963599,-0.0006682568522570518
-0.0055665367239636,-0.001853144931418952
-0.0055661967239636,-0.00165566358489161
-0.005565856723963599,-0.001392355122853057
-0.0055655167239636,-0.0002403806014456541
-0.0055651767239636,0.0002533227648727025
-0.005564836723963599,-0.001918972046924714
-0.0055644967239636,-7.581281267286857e-05
-0.0055641567239636,-0.0008986517565367963
-0.005563816723963599,-0.001918972046928126
-0.005563476723963599,-0.001951885604682624
-0.0055631367239636,-0.00267598387528288
-0.0055627967239636,-0.004420402436271234
-0.005562456723963599,-0.003202600799355794
-0.0055621167239636,-0.003202600799355794
-0.0055617767239636,-0.006296475228278534
-0.005561436723963599,-0.005572376957683906
-0.0055610967239636,-0.004749538013819977
-0.0055607567239636,-0.006888919267862299
-0.005560416723963599,-0.008468770040084931
-0.0055600767239636,-0.00665852436358429
-0.0055597367239636,-0.007711758211728202
-0.005559396723963599,-0.009028300521912402
-0.0055590567239636,-0.01106894110269494
-0.0055587167239636,-0.004584970225058987
-0.005558376723963599,-0.007514276865202775
-0.0055580367239636,-0.007382622634184546
-0.0055576967239636,-0.002873465221818424
-0.005557356723963599,-0.01100311398718583
-0.0055570167239636,-0.01106894110269494
-0.0055566767239636,-0.00906121407967061
-0.005556336723963599,-0.008106720904784802
-0.0055559967239636,-0.008106720904784802
-0.0055556567239636,-0.007645931096221841
-0.005555316723963599,-0.007645931096221003
-0.0055549767239636,-0.006987659941129861
-0.0055546367239636,-0.005934426092985949
-0.005554296723963599,-0.007975066673766575
-0.0055539567239636,-0.002248107624473638
-0.0055536167239636,-0.005901512535229476
-0.005553276723963599,-0.00962074456149443
-0.0055529367239636,-0.008304202251312145
-0.0055525967239636,-0.008304202251312145
-0.005552256723963599,-0.009489090330476201
-0.0055519167239636,-0.01057523773637659
-0.0055515767239636,-0.009159954752930631
-0.005551236723963599,-0.01264879187491572
-0.0055508967239636,-0.01376785283856862
-0.0055505567239636,-0.01189178004655887
-0.005550216723963599,-0.01268170543266782
-0.0055498767239636,-0.01245131052838634
-0.0055495367239636,-0.01159555802676786
-0.005549196723963599,-0.01057523773638269
-0.0055488567239636,-0.01393242062734141
-0.0055485167239636,-0.01416281553162331
-0.005548176723963599,-0.00646104301706473
-0.0055478367239636,-0.01073980552514937
-0.0055474967239636,-0.0101802750433219
-0.005547156723963599,-0.006691437921348665
-0.0055468167239636,-0.01208926139308621
-0.0055464767239636,-0.01182595293104976
-0.005546136723963599,-0.008435856482334206
-0.0055457967239636,-0.01054232417862203
-0.0055454567239636,-0.01067397840964026
-0.005545116723963599,-0.008468770040085111
-0.0055447767239636,-0.008567510713348603
-0.0055444367239636,-0.00837002936682126
-0.005544096723963599,-0.009192868310682433
-0.0055437567239636,-0.00767884465397556
-0.0055434167239636,-0.006395215901547833
-0.005543076723963599,-0.006230648112779538
-0.0055427367239636,-0.00869916494436683
-0.0055423967239636,-0.00962074456149443
-0.0055420567239636,-0.007481363307452108
-0.005541716723963599,-0.008962473406403288
-0.0055413767239636,-0.01103602754494038
-0.0055410367239636,-0.009192868310688541
-0.005540696723963599,-0.008764992059875945
-0.0055403567239636,-0.008567510713348603
-0.0055400167239636,-0.00823837513580363
-0.005539676723963599,-0.01073980552514937
-0.0055393367239636,-0.01162847158452241
-0.0055389967239636,-0.01100311398718697
-0.005538656723963599,-0.0115626444690133
-0.0055383167239636,-0.01439321043590521
-0.0055379767239636,-0.01804661534665441
-0.005537636723963599,-0.01353745793428673
-0.0055372967239636,-0.009061214079666959
-0.0055369567239636,-0.0121550885085897
-0.005536616723963599,-0.007975066673766575
-0.0055362767239636,-0.0115626444690133
-0.0055359367239636,-0.01192469360431277
-0.005535596723963599,-0.007580103980711889
-0.0055352567239636,-0.01001570725454911
-0.0055349167239636,-0.01126642244922001
-0.005534576723963599,-0.0101802750433219
-0.0055342367239636,-0.01149681735350419
-0.0055338967239636,-0.006823092152365578
-0.005533556723963599,-0.006329388786038719
-0.0055332167239636,-0.01376785283856862
-0.0055328767239636,-0.01376785283856862
-0.005532536723963599,-0.009554917445985316
-0.0055321967239636,-0.01370202572305951
-0.0055318567239636,-0.01515022226426002
-0.005531516723963599,-0.01113476821820406
-0.0055311767239636,-0.0113322495647314
-0.0055308367239636,-0.01192469360431343
-0.005530496723963599,-0.01146390379574963
-0.0055301567239636,-0.01103602754494038
-0.0055298167239636,-0.01297792745245925
-0.005529476723963599,-0.01294501389470566
-0.0055291367239636,-0.01347163081877761
-0.0055287967239636,-0.01613762899689674
-0.005528456723963599,-0.01491982735997627
-0.0055281167239636,-0.01389950706958685
-0.0055277767239636,-0.0140969884161142
-0.005527436723963599,-0.01399824774284621
-0.0055270967239636,-0.01162847158452241
-0.0055267567239636,-0.01120059533371317
-0.005526416723963599,-0.01097020042942756
-0.0055260767239636,-0.008929559848648731
-0.0055257367239636,-0.009785312350267215
-0.005525396723963599,-0.008402942924573543
-0.0055250567239636,-0.007152227729902647
-0.0055247167239636,-0.01024610215883101
-0.005524376723963599,-0.01199052071980793
-0.0055240367239636,-0.003959612627710607
-0.0055236967239636,-0.01073980552514937
-0.005523356723963599,-0.02443184555106368
-0.0055230167239636,-0.03463504845495783
-0.0055226767239636,-0.05477814580074678
-0.005522336723963599,-0.08354459527828381
-0.0055219967239636,-0.1132984514883493
-0.0055216567239636,-0.1446321584706877
-0.005521316723963599,-0.1772494942055059
-0.005520976723963599,-0.2058842894519185
-0.0055206367239636,-0.2301086679592725
-0.0055202967239636,-0.2514695669419412
-0.005519956723963599,-0.2646679036015575
-0.0055196167239636,-0.2731596015022332
-0.0055192767239636,-0.2776358453568448
-0.005518936723963599,-0.2790182147825443
-0.0055185967239636,-0.2717772320765418
-0.0055182567239636,-0.2664781492780677
-0.005517916723963599,-0.2591055123410373
-0.0055175767239636,-0.2475857671269423
-0.0055172367239636,-0.2441627571204746
-0.005516896723963599,-0.2382383167246481
-0.0055165567239636,-0.2253691156426163
-0.0055162167239636,-0.216943244857465
-0.005515876723963599,-0.2112821129236658
-0.0055155367239636,-0.2013422184817896
-0.0055151967239636,-0.1937391866405007
-0.005514856723963599,-0.1876830920136484
-0.0055145167239636,-0.1806066770964186
-0.0055141767239636,-0.1750113722781541
-0.005513836723963599,-0.1732669537171524
-0.0055134967239636,-0.1660588845689044
-0.0055131567239636,-0.1604306661928853
-0.005512816723963599,-0.1552961511831642
-0.0055124767239636,-0.1483513904969526
-0.0055121367239636,-0.1432497890449963
-0.005511796723963599,-0.1385431502860946
-0.0055114567239636,-0.1333428081608746
-0.0055111167239636,-0.1283399473821819
-0.005510776723963599,-0.1248181967024443
-0.0055104367239636,-0.1118173413893943
-0.0055100967239636,-0.1175113868809326
-0.005509756723963599,-0.1143516853364951
-0.0055094167239636,-0.1100070957128936
-0.0055090767239636,-0.1057283332048012
-0.005508736723963599,-0.1037535197395284
-0.0055083967239636,-0.1040826553170733
-0.0055080567239636,-0.0930566134692967
-0.005507716723963599,-0.09009439327138577
-0.0055073767239636,-0.08966651702057732
-0.0055070367239636,-0.07982536325196474
-0.005506696723963599,-0.08147104113969708
-0.0055063567239636,-0.08393955797128438
-0.0055060167239636,-0.0754807736283632
-0.005505676723963599,-0.07044499929191783
-0.0055053367239636,-0.07146531958230723
-0.0055049967239636,-0.06926011121275191
-0.005504656723963599,-0.06587001476403152
-0.0055043167239636,-0.06531048428220507
-0.0055039767239636,-0.06531048428220507
-0.005503636723963599,-0.06317110302815418
-0.0055032967239636,-0.06060384552330339
-0.0055029567239636,-0.05892525407782098
-0.005502616723963599,-0.05648965080398447
-0.0055022767239636,-0.05688461349703844
-0.0055019367239636,-0.0539223932991283
-0.005501596723963599,-0.04987402569531962
-0.0055012567239636,-0.05089434598570904
-0.0055009167239636,-0.04957780367552676
-0.005500576723963599,-0.04720802751719679
-0.005500236723963599,-0.04618770722680737
-0.0054998967239636,-0.04625353434231649
-0.0054995567239636,-0.04450911578132814
-0.005499216723963599,-0.04480533780111598
-0.0054988767239636,-0.04441037510806129
-0.0054985367239636,-0.04085571087057559
-0.005498196723963599,-0.04167854981443305
-0.0054978567239636,-0.04612188011129826
-0.0054975167239636,-0.03759726865288348
-0.005497176723963599,-0.03601741788064923
-0.0054968367239636,-0.0374985279796043
-0.0054964967239636,-0.03121203844849533
-0.005496156723963599,-0.0321994451811206
-0.0054958167239636,-0.03499709759025796
-0.0054954767239636,-0.02907265719444846
-0.005495136723963599,-0.02663705392060045
-0.0054947967239636,-0.02907265719443768
-0.0054944567239636,-0.02956636056075514
-0.005494116723963599,-0.02680162170937324
-0.0054937767239636,-0.02653831324733678
-0.0054934367239636,-0.02640665901631879
-0.005493096723963599,-0.02456349978206336
-0.0054927567239636,-0.0238394015114631
-0.0054924167239636,-0.02403688285799008
-0.005492076723963599,-0.02186458804618967
-0.0054917367239636,-0.02255577275903537
-0.0054913967239636,-0.0222924642969994
-0.005491056723963599,-0.02064678640927106
-0.0054907167239636,-0.02094300842906207
-0.0054903767239636,-0.02232537785475347
-0.005490036723963599,-0.02196332871945334
-0.0054896967239636,-0.02150253891088955
-0.0054893567239636,-0.02051513217825283
-0.005489016723963599,-0.02044930506274372
-0.0054886767239636,-0.01919858986807055
-0.0054883367239636,-0.01916567631031599
-0.005487996723963599,-0.01649967813219716
-0.0054876567239636,-0.01666424592096965
-0.0054873167239636,-0.02206206939271702
-0.005486976723963599,-0.01682881370973172
-0.0054866367239636,-0.01093728687167671
-0.0054862967239636,-0.01738834419156991
-0.005485956723963599,-0.01419572908937894
-0.0054856167239636,-0.01478817312895989
-0.0054852767239636,-0.02137088467987132
-0.005484936723963599,-0.02051513217824918
-0.0054845967239636,-0.01850740515522485
-0.0054842567239636,-0.02048221862049827
-0.005483916723963599,-0.02084426775579236
-0.0054835767239636,-0.01751999842258814
-0.0054832367239636,-0.01649967813219686
-0.005482896723963599,-0.01679590015198279
-0.0054825567239636,-0.01399824774285052
-0.0054822167239636,-0.01399824774285052
-0.005481876723963599,-0.01403116130060275
-0.0054815367239636,-0.01274753254817735
-0.0054811967239636,-0.01278044610593191
-0.005480856723963599,-0.01452486466691835
-0.0054805167239636,-0.01172721225778608
-0.0054801767239636,-0.01195760716206798
-0.005479836723963599,-0.01419572908937661
-0.0054794967239636,-0.01350454437653217
-0.0054791567239636,-0.01281335966368647
-0.0054788167239636,-0.01399824774284837
-0.005478476723963599,-0.012253829181859
-0.0054781367239636,-0.0117930393732952
-0.0054777967239636,-0.01192469360431319
-0.005477456723963599,-0.01070689196739481
-0.0054771167239636,-0.008863732733139616
-0.0054767767239636,-0.0126817054326613
-0.005476436723963599,-0.01353745793428673
-0.0054760967239636,-0.005341982053402005
-0.0054757567239636,-0.01199052071981045
-0.005475416723963599,-0.01143099023799507
-0.0054750767239636,-0.008172548020293918
-0.0054747367239636,-0.01459069178242088
-0.005474396723963599,-0.01646676457444231
-0.0054740567239636,-0.01212217495084077
-0.0054737167239636,-0.01333997658775717
-0.005473376723963599,-0.01551227139956015
-0.0054730367239636,-0.01373493928081407
-0.0054726967239636,-0.01166138514228074
-0.005472356723963599,-0.01347163081877761
-0.0054720167239636,-0.0127146189904228
-0.0054716767239636,-0.01251713764389581
-0.005471336723963599,-0.01343871726102305
-0.0054709967239636,-0.01278044610593191
-0.0054706567239636,-0.01357037149203985
-0.005470316723963599,-0.01521604937976914
-0.0054699767239636,-0.01488691380222357
-0.0054696367239636,-0.01333997658775938
-0.005469296723963599,-0.01518313582201458
-0.0054689567239636,-0.01478817312895989
-0.0054686167239636,-0.01366911216530495
-0.005468276723963599,-0.01442612399365977
-0.0054679367239636,-0.01162847158452241
-0.0054675967239636,-0.009258695426194301
-0.005467256723963599,-0.004617883782801749
-0.0054669167239636,-0.005473636284420234
-0.0054665767239636,-0.00711931417214809
-0.005466236723963599,-0.01215508850859718
-0.0054658967239636,-0.0131754087989866
-0.0054655567239636,-0.005045760033610991
-0.005465216723963599,-0.01110185466044471
-0.0054648767239636,-0.008468770040084931
-0.0054645367239636,-0.007086400614393532
-0.005464196723963599,-0.01337289014551753
-0.0054638567239636,-0.01534770361078737
-0.0054635167239636,-0.01205634783533165
-0.005463176723963599,-0.01350454437653558
-0.0054628367239636,-0.01538061716854192
-0.0054624967239636,-0.01129933600697684
-0.005462156723963599,-0.01021318860107748
-0.0054618167239636,-0.01077271908290393
-0.0054614767239636,-0.01080563264065849
-0.005461136723963599,-0.00869916494437138
-0.0054607967239636,-0.01120059533371317
-0.0054604567239636,-0.0129450138947047
-0.005460116723963599,-0.01172721225778501
-0.0054597767239636,-0.01113476821820406
-0.0054594367239636,-0.0108714597561676
-0.005459096723963599,-0.0109043733139221
-0.0054587567239636,-0.0108714597561676
-0.0054584167239636,-0.009192868310685188
-0.005458076723963599,-0.006164820997269166
-0.005457736723963599,-0.007942153116012016
-0.0054573967239636,-0.009489090330476201
-0.0054570567239636,-0.007777585327242344
-0.005456716723963599,-0.008962473406403288
-0.0054563767239636,-0.01139807668024051
-0.0054560367239636,-0.01189178004655797
-0.005455696723963599,-0.0131754087989866
-0.0054553567239636,-0.01880362717501586
-0.0054550167239636,-0.01018027504333759
-0.005454676723963599,-0.01034484283209469
-0.0054543367239636,-0.01366911216530495
-0.0054539967239636,-0.008205461578058413
-0.005453656723963599,-0.009456176772721644
-0.0054533167239636,-0.01439321043590521
-0.0054529767239636,-0.01199052071982691
-0.005452636723963599,-0.009522003888230759
-0.0054522967239636,-0.01149681735350419
-0.0054519567239636,-0.01031192927434229
-0.005451616723963599,-0.009291608983948858
-0.0054512767239636,-0.01123350889146773
-0.0054509367239636,-0.01208926139308466
-0.005450596723963599,-0.009489090330476201
-0.0054502567239636,-0.01083854619841304
-0.0054499167239636,-0.0124842240861379
-0.005449576723963599,-0.01116768177595861
-0.0054492367239636,-0.01080563264065849
-0.0054488967239636,-0.009028300521915635
-0.005448556723963599,-0.009653658119248986
-0.0054482167239636,-0.009949880139040001
-0.0054478767239636,-0.01060815129413114
-0.005447536723963599,-0.008337115809066702
-0.0054471967239636,-0.009258695426194301
-0.0054468567239636,-0.01103602754494038
-0.005446516723963599,-0.009159954752930631
-0.0054461767239636,-0.008238375135803031
-0.0054458367239636,-0.008534597155594046
-0.005445496723963599,-0.008830819175385718
-0.0054451567239636,-0.009192868310685188
-0.0054448167239636,-0.01399824774285052
-0.005444476723963599,-0.006888919267863735
-0.0054441367239636,-0.005539463399929348
-0.0054437967239636,-0.009225781868439744
-0.005443456723963599,-0.003893785512204307
-0.0054431167239636,-0.005440722726665677
-0.0054427767239636,-0.009719485234758102
-0.005442436723963599,-0.007942153116007586
-0.0054420967239636,-0.005506549842174791
-0.0054417567239636,-0.008567510713348603
-0.005441416723963599,-0.01018027504331981
-0.0054410767239636,-0.009028300521912402
-0.0054407367239636,-0.01129933600697684
-0.005440396723963599,-0.01287918677919325
-0.0054400567239636,-0.01159555802676786
-0.0054397167239636,-0.01189178004655887
-0.005439376723963599,-0.01189178004655725
-0.0054390367239636,-0.01100311398718583
-0.0054386967239636,-0.01031192927434013
-0.005438356723963599,-0.01106894110269213
-0.0054380167239636,-0.009522003888230759
-0.0054376767239636,-0.01001570725454911
-0.005437336723963599,-0.01268170543266525
-0.0054369967239636,-0.01103602754494038
-0.0054366567239636,-0.0101802750433219
-0.0054363167239636,-0.0125500512016457
-0.005435976723963599,-0.01241839697063178
-0.0054356367239636,-0.01172721225778608
-0.0054352967239636,-0.01176012581554058
-0.005434956723963599,-0.01304375456796837
-0.0054346167239636,-0.01189178004655887
-0.0054342767239636,-0.01610471543913452
-0.005433936723963599,-0.009258695426194301
-0.0054335967239636,-0.004848278687083649
-0.0054332567239636,-0.008501683597832842
-0.005432916723963599,-0.003762131281183265
-0.0054325767239636,-0.004025439743219721
-0.0054322367239636,-0.008995386964148804
-0.005431896723963599,-0.009522003888230759
-0.0054315567239636,-0.007547190422957332
-0.0054312167239636,-0.009851139465772138
-0.005430876723963599,-0.01228674273961356
-0.0054305367239636,-0.0104106699476038
-0.0054301967239636,-0.01024610215883131
-0.005429856723963599,-0.009949880139040001
-0.0054295167239636,-0.008797905617630502
-0.0054291767239636,-0.007250968403169132
-0.005428836723963599,-0.009291608983948858
-0.0054284967239636,-0.009061214079666959
-0.0054281567239636,-0.008666251386612991
-0.005427816723963599,-0.01093728687167671
-0.0054274767239636,-0.01057523773637659
-0.0054271367239636,-0.01357037149204128
-0.005426796723963599,-0.01258296475940457
-0.0054264567239636,-0.01320832235674115
-0.0054261167239636,-0.01185886648880431
-0.005425776723963599,-0.01297792745245925
-0.0054254367239636,-0.01255005120165001
-0.0054250967239636,-0.01031192927434013
-0.005424756723963599,-0.01083854619841304
-0.0054244167239636,-0.01166138514227697
-0.0054240767239636,-0.01034484283209469
-0.005423736723963599,-0.006263561670539842
-0.0054233967239636,-0.01189178004655887
-0.0054230567239636,-0.008435856482330374
-0.005422716723963599,-0.0109702004294257
-0.0054223767239636,-0.00790923955825746
-0.0054220367239636,-0.008304202251312145
-0.005421696723963599,-0.01271461899042136
-0.0054213567239636,-0.01192469360431343
-0.0054210167239636,-0.009949880139040001
-0.005420676723963599,-0.01034484283209523
-0.0054203367239636,-0.0106410648518857
-0.0054199967239636,-0.01004862081230367
-0.005419656723963599,-0.009291608983950773
-0.0054193167239636,-0.01034484283209469
-0.0054189767239636,-0.0108714597561676
-0.005418636723963599,-0.01054232417862544
-0.0054182967239636,-0.01241839697063178
-0.0054179567239636,-0.01310958168347748
-0.005417616723963599,-0.01110185466045279
-0.0054172767239636,-0.01291210033695014
-0.0054169367239636,-0.01396533418509597
-0.005416596723963599,-0.01011444792781333
-0.0054162567239636,-0.0104106699476038
-0.0054159167239636,-0.01120059533371317
-0.005415576723963599,-0.0117930393732925
-0.005415236723963599,-0.01031192927434013
-0.0054148967239636,-0.008468770040084931
-0.0054145567239636,-0.006395215901551605
-0.005414216723963599,-0.005835685419720362
-0.0054138767239636,-0.007349709076429989
-0.0054135367239636,-0.005045760033615182
-0.005413196723963599,-0.009357436099457973
-0.0054128567239636,-0.008764992059875945
-0.0054125167239636,-0.003564649934665381
-0.005412176723963599,-0.0101802750433219
-0.0054118367239636,-0.005506549842174791
-0.0054114967239636,-0.005276154937893311
