Analysis/plots/wrd01_d2s01/non compliant measurements/cmb08_ch38.csv

#Digilent WaveForms Oscilloscope Acquisition
#Device Name: ADP3450
#Serial Number: SN:210018B9D9B0
#Date Time: 2024-08-06 17:01:34.906.062.650
#Sample rate: 2.94118e+06Hz
#Samples: 32768
#Trigger: Source: Channel 3 Type: Edge Condition: Rising Level: 60 mV Hyst.: Auto HoldOff: 0 s
#Channel 3: Range: 200 mV/div Offset: -20 mV Attenuation: 1 X Coupling: DC Bandwidth: 0 Hz Sample Mode: Average

Time (s),Channel 3 (V)
-0.005570439296375267,0.01101995320810255
-0.005570099296375267,0.01078955830381927
-0.005569759296375267,0.01003254647546584
-0.005569419296375267,0.008847658396301783
-0.005569079296375267,0.007498202528362965
-0.005568739296375267,0.006412055122464556
-0.005568399296375267,0.005753783967373414
-0.005568059296375267,0.006214573775937632
-0.005567719296375267,0.006444968680219114
-0.005567379296375267,0.006642450026746457
-0.005567039296375267,0.007103239835311513
-0.005566699296375267,0.007794424548155956
-0.005566359296375267,0.008123560125701526
-0.005566019296375267,0.008123560125701465
-0.005565679296375267,0.008090646567946969
-0.005565339296375267,0.008024819452437855
-0.005564999296375267,0.007465288970609187
-0.005564659296375267,0.006807017815519241
-0.005564319296375267,0.006675363584501014
-0.005563979296375266,0.005325907716562017
-0.005563639296375267,0.004141019637400115
-0.005563299296375267,0.003252353578027074
-0.005562959296375267,0.002199119729883161
-0.005562619296375267,0.0009813180929626325
-0.005562279296375267,0.0001255655913441484
-0.005561939296375267,-0.0006972733525182822
-0.005561599296375267,-0.00158593941189282
-0.005561259296375267,-0.002408778355756747
-0.005560919296375267,-0.002145469893720772
-0.005560579296375267,-0.001849247873929278
-0.005560239296375267,-0.0007960140257834494
-0.005559899296375267,-0.0002364835439569978
-0.005559559296375267,0.0002901333801169359
-0.005559219296375267,0.00104714520847175
-0.005558879296375267,0.0009154909774537584
-0.005558539296375267,0.0003559604956260495
-0.005558199296375267,0.001080058766226306
-0.005557859296375267,0.000981318092962812
-0.005557519296375267,0.0008496638619444052
-0.005557179296375267,0.0007838367464352916
-0.005556839296375267,0.0006192689576628034
-0.005556499296375267,-0.0001706564284468665
-0.005556159296375267,-0.001223890276592692
-0.005555819296375267,-0.002079642778209619
-0.005555479296375267,-0.00296830883758422
-0.005555139296375267,-0.003198703741866118
-0.005554799296375267,-0.002935395279830142
-0.005554459296375267,-0.001882161431683835
-0.005554119296375267,-0.001289717392101805
-0.005553779296375267,-0.0008289275835380062
-0.005553439296375267,-0.0003681377749742074
-0.005553099296375267,-6.088639674078911e-06
-0.005552759296375267,-0.0002693971017105369
-0.005552419296375267,-0.0008618411412925631
-0.005552079296375267,-0.00158593941189282
-0.005551739296375267,-0.001947988547192948
-0.005551399296375267,-0.002375864798002131
-0.005551059296375267,-0.002342951240247634
-0.005550719296375267,-0.00227712412473852
-0.005550379296375267,-0.002441691913511184
-0.005550039296375267,-0.00237586479800219
-0.005549699296375267,-0.002474605471265861
-0.005549359296375267,-0.002244210566984502
-0.005549019296375267,-0.002540432586774978
-0.005548679296375267,-0.002507519029020421
-0.005548339296375267,-0.002408778355756149
-0.005547999296375267,-0.002079642778211176
-0.005547659296375267,-0.001849247873929278
-0.005547319296375267,-0.001684680085156311
-0.005546979296375267,-0.00158593941189282
-0.005546639296375267,-0.0008618411412925631
-0.005546299296375267,-0.0005327055637461532
-0.005545959296375267,-7.191575518319254e-05
-0.005545619296375267,-0.0004010513327287642
-0.005545279296375267,-0.001454285180876568
-0.005544939296375267,-0.002540432586774978
-0.005544599296375267,-0.003330357972884349
-0.005544259296375267,-0.003791147781448686
-0.005543919296375267,-0.004087369801239162
-0.005543579296375267,-0.004251937590011946
-0.005543239296375266,-0.004350678263274958
-0.005542899296375267,-0.003988629127975488
-0.005542559296375267,-0.003659493550429917
-0.005542219296375267,-0.00326453085737595
-0.005541879296375267,-0.003165790184111561
-0.005541539296375267,-0.003264530857375231
-0.005541199296375267,-0.003034135953093753
-0.005540859296375267,-0.003198703741866118
-0.005540519296375267,-0.003165790184111561
-0.005540179296375267,-0.003165790184111561
-0.005539839296375267,-0.003198703741866118
-0.005539499296375267,-0.003791147781448147
-0.005539159296375267,-0.004416505378783592
-0.005538819296375267,-0.005535566342439673
-0.005538479296375267,-0.006391318844058157
-0.005538139296375267,-0.006325491728549163
-0.005537799296375267,-0.005864701919985244
-0.005537459296375267,-0.005074776533875874
-0.005537119296375267,-0.004350678263276933
-0.005536779296375267,-0.00296830883758422
-0.005536439296375267,-0.001915074989438392
-0.005536099296375267,-0.0005327055637495059
-0.005535759296375267,0.0006521825154170643
-0.005535419296375267,0.001540848574790105
-0.005535079296375267,0.002034551941107563
-0.005534739296375267,0.002758650211708718
-0.005534399296375267,0.002890304442726945
-0.005534059296375267,0.002429514634163985
-0.005533719296375267,0.001343367228262761
-0.005533379296375267,0.0004876147266442768
-0.005533039296375267,-0.0002035699862014233
-0.005532699296375267,-0.0005656191215015517
-0.005532359296375267,-0.0009934953723107938
-0.005532019296375267,-0.001651766527401934
-0.005531679296375267,-0.001651766527401934
-0.005531339296375267,-0.001717593642911051
-0.005530999296375267,-0.001849247873929278
-0.005530659296375267,-0.00227712412473852
-0.005530319296375267,-0.002310037682493077
-0.005529979296375267,-0.003067049510847891
-0.005529639296375267,-0.004219024032260323
-0.005529299296375267,-0.005831788362230687
-0.005528959296375267,-0.007345812018940315
-0.005528619296375267,-0.008859835675650062
-0.005528279296375267,-0.008925662791159056
-0.005527939296375267,-0.008761095002386268
-0.005527599296375267,-0.007082503556903079
-0.005527259296375267,-0.006654627306094615
-0.005526919296375267,-0.006095096824267145
-0.005526579296375267,-0.005667220573456466
-0.005526239296375267,-0.004877295187348533
-0.005525899296375267,-0.004186110474502833
-0.005525559296375267,-0.003560752877165109
-0.005525219296375267,-0.002935395279829663
-0.005524879296375267,-0.002310037682493077
-0.005524539296375267,-0.002046729220456619
-0.005524199296375267,-0.002046729220456619
-0.005523859296375267,-0.001980902104947505
-0.005523519296375267,-0.001487198738629449
-0.005523179296375267,-0.001651766527401934
-0.005522839296375267,-0.001980902104947505
-0.005522499296375267,-0.002639173260039606
-0.005522159296375267,-0.003165790184111561
-0.005521819296375267,-0.003955715570220932
-0.005521479296375266,-0.004153196916748276
-0.005521139296375267,-0.004153196916748276
-0.005520799296375267,-0.00441650537878473
-0.005520459296375267,-0.004745640956329704
-0.005520119296375267,-0.005041862976121317
-0.005519779296375267,-0.005305171438157775
-0.005519439296375267,-0.006128010382020205
-0.005519099296375267,-0.0063584052863036
-0.005518759296375267,-0.005831788362230687
-0.005518419296375267,-0.00579887480447619
-0.005518079296375267,-0.004778554514084859
-0.005517739296375267,-0.003659493550429917
-0.005517399296375267,-0.003132876626357962
-0.005517059296375267,-0.003165790184111561
-0.005516719296375267,-0.003791147781448147
-0.005516379296375267,-0.004679813840819572
-0.005516039296375267,-0.005897615477739801
-0.005515699296375267,-0.006259664613039929
-0.005515359296375267,-0.005535566342440989
-0.005515019296375267,-0.005305171438157775
-0.005514679296375267,-0.00441650537878473
-0.005514339296375267,-0.004153196916748755
-0.005513999296375267,-0.003165790184111561
-0.005513659296375267,-0.002244210566983963
-0.005513319296375267,-0.001256803834349044
-0.005512979296375267,-0.0006643597947652222
-0.005512639296375267,0.0003559604956260495
-0.005512299296375267,0.0007509231886807348
-0.005511959296375267,0.0007509231886807348
-0.005511619296375267,0.00045470116888972
-0.005511279296375267,0.0004217876111351632
-0.005510939296375267,9.265203358959154e-05
-0.005510599296375267,-0.0003352242172196505
-0.005510259296375267,-0.001421371623120036
-0.005509919296375267,-0.002935395279829663
-0.005509579296375267,-0.004021542685730045
-0.005509239296375267,-0.00500894941836676
-0.005508899296375267,-0.005239344322647161
-0.005508559296375267,-0.00441650537878473
-0.005508219296375267,-0.003494925761657133
-0.005507879296375267,-0.00333035797288369
-0.005507539296375267,-0.00296830883758422
-0.005507199296375267,-0.002737913933302319
-0.005506859296375267,-0.00263917326003823
-0.005506519296375267,-0.002408778355756747
-0.005506179296375267,-0.001980902104947505
-0.005505839296375267,-0.001915074989438811
-0.005505499296375267,-0.002145469893720293
-0.005505159296375267,-0.002737913933302319
-0.005504819296375267,-0.003429098646149396
-0.005504479296375267,-0.004186110474502833
-0.005504139296375267,-0.004186110474502833
-0.005503799296375267,-0.004712727398577182
-0.005503459296375267,-0.005502652784685116
-0.005503119296375267,-0.005930529035494358
-0.005502779296375267,-0.006259664613040229
-0.005502439296375267,-0.006424232401812717
-0.005502099296375267,-0.005370998553666888
-0.005501759296375267,-0.00359366643491787
-0.005501419296375267,-0.001980902104947505
-0.005501079296375267,-0.0001706564284468665
-0.005500739296375266,0.0007838367464357107
-0.005500399296375267,0.001014231650717189
-0.005500059296375267,0.0007509231886807348
-0.005499719296375267,-0.0003023106594631779
-0.005499379296375267,-0.001882161431683835
-0.005499039296375267,-0.003560752877166246
-0.005498699296375267,-0.004745640956328147
-0.005498359296375267,-0.004877295187348533
-0.005498019296375267,-0.004449418936539287
-0.005497679296375267,-0.003264530857377387
-0.005497339296375267,-0.002079642778211176
-0.005496999296375267,-0.0007631004680288926
-0.005496659296375267,-0.000269397101711435
-0.005496319296375267,5.973847583503472e-05
-0.005495979296375267,0.0004217876111351632
-0.005495639296375267,0.0007838367464346331
-0.005495299296375267,-0.0001706564284468665
-0.005494959296375267,-0.001092236045574464
-0.005494619296375267,-0.002869568164317314
-0.005494279296375267,-0.004679813840821188
-0.005493939296375267,-0.006226751055285373
-0.005493599296375267,-0.006819195094866325
-0.005493259296375267,-0.007115417114658414
-0.005492919296375267,-0.006786281537112842
-0.005492579296375267,-0.006391318844058875
-0.005492239296375267,-0.005831788362230687
-0.005491899296375267,-0.005535566342439673
-0.005491559296375267,-0.005140603649385705
-0.005491219296375267,-0.004581073167557518
-0.005490879296375267,-0.004251937590011946
-0.005490539296375267,-0.003692407108184477
-0.005490199296375267,-0.00362657999267536
-0.005489859296375267,-0.003922802012466375
-0.005489519296375267,-0.003791147781448147
-0.005489179296375267,-0.004087369801239162
-0.005488839296375267,-0.003922802012466375
-0.005488499296375267,-0.004251937590011946
-0.005488159296375267,-0.00441650537878473
-0.005487819296375267,-0.00441650537878473
-0.005487479296375267,-0.004120283358993719
-0.005487139296375267,-0.003560752877165049
-0.005486799296375267,-0.002902481722075106
-0.005486459296375267,-0.002244210566983963
-0.005486119296375267,-0.00194798854719205
-0.005485779296375267,-0.001454285180874593
-0.005485439296375267,-0.001026408930065351
-0.005485099296375267,-0.0002693971017108363
-0.005484759296375267,-0.000433964890483321
-0.005484419296375267,-0.0005327055637469914
-0.005484079296375267,-0.0004668784482382969
-0.005483739296375267,-0.000697273352519779
-0.005483399296375267,-0.001223890276592692
-0.005483059296375267,-0.00122389027659341
-0.005482719296375267,-0.001618852969647377
-0.005482379296375267,-0.001915074989438392
-0.005482039296375267,-0.002474605471266939
-0.005481699296375267,-0.003067049510847891
-0.005481359296375267,-0.003494925761657133
-0.005481019296375267,-0.004054456243484662
-0.005480679296375267,-0.004087369801239162
-0.005480339296375267,-0.003922802012466375
-0.005479999296375266,-0.0034290986461476
-0.005479659296375267,-0.003198703741866118
-0.005479319296375267,-0.003132876626357004
-0.005478979296375267,-0.005897615477734772
-0.005478639296375267,-0.01369812866556984
-0.005478299296375267,-0.02870671100164788
-0.005477959296375267,-0.05270069460467636
-0.005477619296375267,-0.08298116773891254
-0.005477279296375267,-0.1165200830908062
-0.005476939296375267,-0.1507172695977289
-0.005476599296375267,-0.1822484579266568
-0.005476259296375267,-0.2085463905725479
-0.005475919296375267,-0.2289527963803362
-0.005475579296375267,-0.2429081448683055
-0.005475239296375267,-0.2507744851716447
-0.005474899296375267,-0.2540658409470944
-0.005474559296375267,-0.2532430020032365
-0.005474219296375267,-0.2498199919967625
-0.005473879296375267,-0.2439284651587075
-0.005473539296375267,-0.2370824451457489
-0.005473199296375267,-0.2282945252252822
-0.005472859296375267,-0.2202307035754303
-0.005472519296375267,-0.2123643632720766
-0.005472179296375267,-0.2045967636420011
-0.005471839296375267,-0.1968949911274487
-0.005471499296375267,-0.1893248728438866
-0.005471159296375267,-0.1823142850421659
-0.005470819296375267,-0.1765214988773744
-0.005470479296375267,-0.1705312313660345
-0.005470139296375267,-0.164771358758987
-0.005469799296375267,-0.1597355844225397
-0.005469459296375267,-0.1547656372016016
-0.005469119296375267,-0.1503552204624909
-0.005468779296375267,-0.1450890512217618
-0.005468439296375267,-0.1406457209248966
-0.005468099296375267,-0.1352149838953947
-0.005467759296375267,-0.1297513333081382
-0.005467419296375267,-0.1250776081069911
-0.005467079296375267,-0.1201405744438075
-0.005466739296375267,-0.1161580339555061
-0.005466399296375267,-0.1125375426024986
-0.005466059296375267,-0.1090816190382763
-0.005465719296375267,-0.1050332514344658
-0.005465379296375267,-0.1008203160418745
-0.005465039296375267,-0.09640989930277186
-0.005464699296375267,-0.09163743342836106
-0.005464359296375267,-0.08706244890047229
-0.005464019296375267,-0.08413314226032204
-0.005463679296375267,-0.08067721869609354
-0.005463339296375267,-0.07797830696021532
-0.005462999296375267,-0.07547687657087351
-0.005462659296375267,-0.07376537156763655
-0.005462319296375267,-0.07152724964032343
-0.005461979296375267,-0.06974991752158058
-0.005461639296375267,-0.0677421904985526
-0.005461299296375267,-0.06635982107285766
-0.005460959296375267,-0.06441792116534234
-0.005460619296375267,-0.06211397212252334
-0.005460279296375267,-0.05987585019520951
-0.005459939296375267,-0.05770355538341269
-0.005459599296375267,-0.05533377922508458
-0.005459259296375267,-0.05355644710633568
-0.005458919296375267,-0.05200950989187431
-0.005458579296375267,-0.05039674556190101
-0.005458239296375266,-0.0487510676741713
-0.005457899296375267,-0.04773074738378188
-0.005457559296375267,-0.04641420507359961
-0.005457219296375267,-0.04506474920566522
-0.005456879296375267,-0.04358363910670768
-0.005456539296375267,-0.04279371372059832
-0.005456199296375267,-0.04121386294838245
-0.005455859296375267,-0.04068724602430666
-0.005455519296375267,-0.03946944438738805
-0.005455179296375267,-0.03798833428843568
-0.005454839296375267,-0.03677053265151436
-0.005454499296375267,-0.0350590276482774
-0.005454159296375267,-0.03334752264504354
-0.005453819296375267,-0.03232720235464916
-0.005453479296375267,-0.03124105494874877
-0.005453139296375267,-0.02995742619632338
-0.005452799296375267,-0.02841048898185686
-0.005452459296375267,-0.02692937888290179
-0.005452119296375267,-0.0256128365727219
-0.005451779296375267,-0.02452668916681913
-0.005451439296375267,-0.02423046714702811
-0.005451099296375267,-0.02386841801172864
-0.005450759296375267,-0.02373676378070975
-0.005450419296375267,-0.02281518416358216
-0.005450079296375267,-0.0211695062758573
-0.005449739296375267,-0.0197871368501629
-0.005449399296375267,-0.01791106405815315
-0.005449059296375267,-0.01649578107470977
-0.005448719296375267,-0.01478427607147022
-0.005448379296375267,-0.01389561001209718
-0.005448039296375267,-0.01343482020353338
-0.005447699296375267,-0.01287528972170591
-0.005447359296375267,-0.01238158635538755
-0.005447019296375267,-0.01244741347089667
-0.005446679296375267,-0.01274363549068768
-0.005446339296375267,-0.01327025241476059
-0.005445999296375267,-0.01343482020353338
-0.005445659296375267,-0.01310568462598865
-0.005445319296375267,-0.01356647443455161
-0.005444979296375267,-0.01307277106823325
-0.005444639296375267,-0.01254615414415908
-0.005444299296375267,-0.01185496943131464
-0.005443959296375267,-0.01067008135215058
-0.005443619296375267,-0.009945983081549429
-0.005443279296375267,-0.009452279715231968
-0.005442939296375267,-0.009057317022177283
-0.005442599296375267,-0.009090230579932379
-0.005442259296375267,-0.009386452599722855
-0.005441919296375267,-0.009616847504004756
-0.005441579296375267,-0.01014346442807803
-0.005441239296375267,-0.01034094577460501
-0.005440899296375267,-0.01017637798583223
-0.005440559296375267,-0.009748501735022204
-0.005440219296375267,-0.009320625484213741
-0.005439879296375267,-0.009024403464422726
-0.005439539296375267,-0.008826922117895744
-0.005439199296375267,-0.009024403464422726
-0.005438859296375267,-0.008991489906668169
-0.005438519296375267,-0.008629440771366485
-0.005438179296375267,-0.007773688269749557
-0.005437839296375267,-0.00714833067241297
-0.005437499296375266,-0.006062183266511451
-0.005437159296375267,-0.005436825669176002
-0.005436819296375267,-0.00500894941836676
-0.005436479296375267,-0.005074776533875754
-0.005436139296375267,-0.00570013413121246
-0.005435799296375267,-0.006852108652621959
-0.005435459296375267,-0.00839904586708333
-0.005435119296375267,-0.009287711926459184
-0.005434779296375267,-0.009485193272986525
-0.005434439296375267,-0.009386452599723035
-0.005434099296375267,-0.008135737405049685
-0.005433759296375267,-0.006885022210376516
-0.005433419296375267,-0.005798874804478106
-0.005433079296375267,-0.00510769009163043
-0.005432739296375267,-0.005601393457948786
-0.005432399296375267,-0.005535566342439792
-0.005432059296375267,-0.006522973075076387
-0.005431719296375267,-0.006917935768131073
-0.005431379296375267,-0.0065888001905861
-0.005431039296375267,-0.005996356151003471
-0.005430699296375267,-0.00570013413121246
-0.005430359296375267,-0.004943122302859024
-0.005430019296375267,-0.004087369801239162
-0.005429679296375267,-0.003165790184111561
-0.005429339296375267,-0.002178383451476646
-0.005428999296375267,-0.001980902104947505
-0.005428659296375267,-0.001750507200665607
-0.005428319296375267,-0.001487198738629629
-0.005427979296375267,-0.001454285180874593
-0.005427639296375267,-0.00168468008515649
-0.005427299296375267,-0.001849247873929278
-0.005426959296375267,-0.001882161431683835
-0.005426619296375267,-0.002013815662702062
-0.005426279296375267,-0.00148719873862915
-0.005425939296375267,-0.001223890276592692
-0.005425599296375267,-0.001223890276592692
-0.005425259296375267,-0.001553025854138263
-0.005424919296375267,-0.002046729220456619
-0.005424579296375267,-0.002310037682493077
-0.005424239296375267,-0.003231617299620675
-0.005423899296375267,-0.003659493550429977
-0.005423559296375267,-0.003692407108184477
-0.005423219296375267,-0.003955715570220932
-0.005422879296375267,-0.003593666434920025
-0.005422539296375267,-0.003165790184111561
-0.005422199296375267,-0.002211297009229406
-0.005421859296375267,-0.001289717392100189
-0.005421519296375267,-0.0004010513327287642
-0.005421179296375267,5.973847583503472e-05
-0.005420839296375267,-0.0005985326792571862
-0.005420499296375267,-0.001190976718838135
-0.005420159296375267,-0.002342951240247634
-0.005419819296375267,-0.003067049510849208
-0.005419479296375267,-0.003791147781448147
-0.005419139296375267,-0.00362657999267536
-0.005418799296375267,-0.002902481722074148
-0.005418459296375267,-0.00237586479800219
-0.005418119296375267,-0.00237586479800219
