Analysis/plots/wrd01_d2s01/non compliant measurements/cmb07_ch31.csv

#Digilent WaveForms Oscilloscope Acquisition
#Device Name: ADP3450
#Serial Number: SN:210018B9D9B0
#Date Time: 2024-08-07 10:34:24.745.484.580
#Sample rate: 2.94118e+06Hz
#Samples: 32768
#Trigger: Source: Channel 3 Type: Edge Condition: Rising Level: 0 V Hyst.: Auto HoldOff: 0 s
#Channel 3: Range: 200 mV/div Offset: 0 V Attenuation: 1 X Coupling: DC Bandwidth: 0 Hz Sample Mode: Average

Time (s),Channel 3 (V)
-0.005570477931034483,0.005322010659074497
-0.005570137931034482,0.005651146236621326
-0.005569797931034483,0.006342330949465767
-0.005569457931034483,0.007461391913120709
-0.005569117931034482,0.00864627999228674
-0.005568777931034483,0.00973242739818515
-0.005568437931034483,0.01052235278429452
-0.005568097931034482,0.01065400701531173
-0.005567757931034483,0.01009447653348528
-0.005567417931034483,0.01022613076450351
-0.005567077931034482,0.01075274768857666
-0.005566737931034483,0.01088440191959465
-0.005566397931034483,0.01108188326612199
-0.005566057931034482,0.01078566124632978
-0.005565717931034483,0.01012739009123984
-0.005565377931034483,0.009304551147375908
-0.005565037931034482,0.00818549018371917
-0.005564697931034483,0.007198083451084253
-0.005564357931034483,0.006934774989047795
-0.005564017931034482,0.007165169893331192
-0.005563677931034483,0.007988008837193623
-0.005563337931034483,0.008547539319021094
-0.005562997931034483,0.009074156243093049
-0.005562657931034483,0.009008329127584893
-0.005562317931034483,0.008481712203511979
-0.005561977931034483,0.00858045287677547
-0.005561637931034483,0.008580452876775651
-0.005561297931034483,0.008481712203511979
-0.005560957931034483,0.008810847781056952
-0.005560617931034482,0.008876674896566664
-0.005560277931034483,0.008876674896566664
-0.005559937931034483,0.008876674896566664
-0.005559597931034482,0.009337464705130465
-0.005559257931034483,0.00950203249390325
-0.005558917931034483,0.009765340955939228
-0.005558577931034482,0.009337464705130465
-0.005558237931034483,0.008679193550039321
-0.005557897931034483,0.007922181721685885
-0.005557557931034482,0.006934774989047795
-0.005557217931034483,0.006177763160692982
-0.005556877931034483,0.005980281814165998
-0.005556537931034482,0.005190356428056269
-0.005556197931034483,0.005519492005601839
-0.005555857931034483,0.005881541140901309
-0.005555517931034482,0.007132256335575138
-0.005555177931034483,0.009995735860221606
-0.005554837931034483,0.01769750837477396
-0.005554497931034482,0.0326402635953569
-0.005554157931034483,0.0553506184460013
-0.005553817931034483,0.08487407975183903
-0.005553477931034482,0.1184129951037327
-0.005553137931034483,0.1527418358417358
-0.005552797931034483,0.1848983817679381
-0.005552457931034482,0.2128749058593116
-0.005552117931034483,0.2347295082083375
-0.005551777931034483,0.2502647074684885
-0.005551437931034482,0.2609616137387287
-0.005551097931034483,0.2659973880751668
-0.005550757931034483,0.2668860541345398
-0.005550417931034482,0.264615018649466
-0.005550077931034483,0.2594475900820099
-0.005549737931034483,0.2526344836268166
-0.005549397931034482,0.2448997975544815
-0.005549057931034483,0.2371321979244202
-0.005548717931034483,0.2298912152184176
-0.005548377931034482,0.2228806274166865
-0.005548037931034483,0.2171207548096495
-0.005547697931034483,0.2113937957603566
-0.005547357931034482,0.2052718740179979
-0.005547017931034483,0.1992157793911704
-0.005546677931034483,0.1930609440910682
-0.005546337931034482,0.1858528749428061
-0.005545997931034483,0.1780852753127447
-0.005545657931034483,0.1704822434714421
-0.005545317931034482,0.1629450387456357
-0.005544977931034483,0.1559344509439278
-0.005544637931034483,0.1495821342972983
-0.005544297931034482,0.1436576939014688
-0.005543957931034483,0.1386219195650308
-0.005543617931034483,0.1342773299414292
-0.005543277931034482,0.12993274031782
-0.005542937931034483,0.1257198049252444
-0.005542597931034483,0.121441042417152
-0.005542257931034483,0.1167673172160134
-0.005541917931034483,0.1115669750907848
-0.005541577931034483,0.1074198668137107
-0.005541237931034483,0.1029765365168535
-0.005540897931034483,0.09902690958629859
-0.005540557931034483,0.09537350467554273
-0.005540217931034483,0.092345457362129
-0.005539877931034482,0.08902118802891323
-0.005539537931034483,0.08684889321711245
-0.005539197931034483,0.08487407975184262
-0.005538857931034482,0.08319548830635662
-0.005538517931034483,0.08151689686087421
-0.005538177931034483,0.07904838002928691
-0.005537837931034482,0.07588867848484493
-0.005537497931034483,0.07272897694040745
-0.005537157931034483,0.06940470760720324
-0.005536817931034482,0.06716658567988731
-0.005536477931034483,0.06558673490766856
-0.005536137931034483,0.06417145192422519
-0.005535797931034482,0.06265742826751297
-0.005535457931034483,0.06045221989795765
-0.005535117931034483,0.05834575220166983
-0.005534777931034482,0.05610763027435611
-0.005534437931034483,0.05337580498072787
-0.005534097931034483,0.05090728814914058
-0.005533757931034482,0.04896538824161722
-0.005533417931034483,0.04685892054532557
-0.005533077931034483,0.04557529179289784
-0.005532737931034482,0.04471953929127936
-0.005532397931034483,0.04373213255864264
-0.005532057931034483,0.04402835457843365
-0.005531717931034482,0.04439040371373378
-0.005531377931034483,0.04432457659822467
-0.005531037931034483,0.04363339188537897
-0.005530697931034482,0.04254724447947859
-0.005530357931034483,0.04103322082276896
-0.005530017931034483,0.03856470399117717
-0.005529677931034482,0.03599744648631735
-0.005529337931034483,0.03359475677023905
-0.005528997931034483,0.03112623993864727
-0.005528657931034482,0.02934890781989885
-0.005528317931034483,0.02806527906747346
-0.005527977931034483,0.02691330454606396
-0.005527637931034482,0.02648542829525268
-0.005527297931034483,0.02536636733159978
-0.005526957931034483,0.0243460470412085
-0.005526617931034482,0.02358903521285255
-0.005526277931034483,0.02296367761551711
-0.005525937931034483,0.02243706069144419
-0.005525597931034482,0.0223712335759355
-0.005525257931034483,0.02260162848021698
-0.005524917931034483,0.02279910982674432
-0.005524577931034482,0.02388525723264555
-0.005524237931034483,0.0243460470412085
-0.005523897931034483,0.02408273857917205
-0.005523557931034482,0.02309533184653384
-0.005523217931034483,0.02227249290267141
-0.005522877931034483,0.02115343193901647
-0.005522537931034482,0.02019893876413258
-0.005522197931034483,0.01924444558925215
-0.005521857931034483,0.01865200154967013
-0.005521517931034482,0.01838869308763283
-0.005521177931034483,0.01792790327906987
-0.005520837931034483,0.01697341010418771
-0.005520497931034483,0.01657844741113374
-0.005520157931034483,0.01608474404481467
-0.005519817931034483,0.01578852202502366
-0.005519477931034483,0.01545938644747868
-0.005519137931034482,0.01503151019666884
-0.005518797931034483,0.01463654750361416
-0.005518457931034483,0.01476820173463215
-0.005518117931034482,0.01434032548382314
-0.005517777931034483,0.01338583230894099
-0.005517437931034483,0.01226677134528808
-0.005517097931034482,0.01157558663244035
-0.005516757931034483,0.01068692057306731
-0.005516417931034483,0.01025904432225884
-0.005516077931034482,0.00973242739818515
-0.005515737931034483,0.01002864941797616
-0.005515397931034483,0.01108188326612008
-0.005515057931034482,0.01233259846079516
-0.005514717931034483,0.01318835096241365
-0.005514377931034483,0.0136820543287311
-0.005514037931034482,0.0141428441372958
-0.005513697931034483,0.01394536279076846
-0.005513357931034483,0.0134187458666965
-0.005513017931034482,0.01381370855975023
-0.005512677931034483,0.013682054328732
-0.005512337931034483,0.01348457298220466
-0.005511997931034482,0.01305669673139542
-0.005511657931034483,0.0122996849030406
-0.005511317931034483,0.01197054932549503
-0.005510977931034482,0.01071983413082186
-0.005510637931034483,0.01134519172815845
-0.005510297931034483,0.01114771038163111
-0.005509957931034482,0.01098314259285832
-0.005509617931034483,0.01032487143776718
-0.005509277931034483,0.009469118936148692
-0.005508937931034482,0.009370378262884662
-0.005508597931034483,0.009172896916357679
-0.005508257931034483,0.009798254513694264
-0.005507917931034482,0.0104565256687866
-0.005507577931034483,0.01111479682387655
-0.005507237931034483,0.01177306797896769
-0.005506897931034482,0.01180598153672183
-0.005506557931034483,0.01157558663244035
-0.005506217931034483,0.01101605615061288
-0.005505877931034482,0.01085148836183883
-0.005505537931034483,0.01016030364899439
-0.005505197931034483,0.00881084778105755
-0.005504857931034482,0.007494305470871914
-0.005504517931034483,0.005651146236620068
-0.005504177931034483,0.004334603926437783
-0.005503837931034482,0.004564998830719624
-0.005503497931034483,0.004532085272965126
-0.005503157931034483,0.005618232678865511
-0.005502817931034482,0.006967688546803489
-0.005502477931034483,0.007593046144138938
-0.005502137931034483,0.007198083451084253
-0.005501797931034482,0.006177763160691245
-0.005501457931034483,0.005223269985810825
-0.005501117931034483,0.004466258157456012
-0.005500777931034482,0.004367517484192042
-0.005500437931034483,0.004202949695419555
-0.005500097931034483,0.004861220850510698
-0.005499757931034483,0.006046108929672598
-0.005499417931034483,0.007099342777820581
-0.005499077931034483,0.007922181721684508
-0.005498737931034483,0.007922181721684508
-0.005498397931034483,0.008382971530248308
-0.005498057931034483,0.008909588454321223
-0.005497717931034483,0.00989699518695614
-0.005497377931034482,0.01002864941797616
-0.005497037931034483,0.009864081629203377
-0.005496697931034483,0.01002864941797586
-0.005496357931034482,0.009995735860221606
-0.005496017931034483,0.009172896916357679
-0.005495677931034483,0.008284230856986253
-0.005495337931034482,0.007362651239857037
-0.005494997931034483,0.006868947873538681
-0.005494657931034483,0.006901861431293179
-0.005494317931034482,0.006934774989047795
-0.005493977931034483,0.006671466527011338
-0.005493637931034483,0.006934774989047317
-0.005493297931034482,0.00700060210455691
-0.005492957931034483,0.007889268163929951
-0.005492617931034483,0.009139983358600848
-0.005492277931034482,0.00983116807144882
-0.005491937931034483,0.01048943922653996
-0.005491597931034483,0.01048943922653996
-0.005491257931034482,0.01019321720674895
-0.005490917931034483,0.00973242739818515
-0.005490577931034483,0.009304551147375908
-0.005490237931034482,0.008942502012075779
-0.005489897931034483,0.008185490183720966
-0.005489557931034483,0.007889268163929951
-0.005489217931034482,0.00756013258638438
-0.005488877931034483,0.006934774989047795
-0.005488537931034483,0.006441071622729439
-0.005488197931034482,0.005881541140902566
-0.005487857931034483,0.006210676718447538
-0.005487517931034483,0.007230997008838809
-0.005487177931034482,0.008613366434532543
-0.005486837931034483,0.009896995186957936
-0.005486497931034483,0.01062109345755819
-0.005486157931034482,0.01108188326612247
-0.005485817931034483,0.01134519172815845
-0.005485477931034483,0.01071983413082186
-0.005485137931034482,0.009337464705126274
-0.005484797931034483,0.007033515662311467
-0.005484457931034483,0.006177763160692982
-0.005484117931034482,0.004597912388471966
-0.005483777931034483,0.003347197193801071
-0.005483437931034483,0.003478851424819299
-0.005483097931034482,0.003972554791138973
-0.005482757931034483,0.004696653061737912
-0.005482417931034483,0.005848627583147411
-0.005482077931034482,0.006572725853749284
-0.005481737931034483,0.007461391913120709
-0.005481397931034483,0.008284230856984636
-0.005481057931034482,0.008975415569831354
-0.005480717931034483,0.009534946051657807
-0.005480377931034483,0.009666600282676035
-0.005480037931034482,0.009337464705129627
-0.005479697931034483,0.008876674896566664
-0.005479357931034483,0.007955095279439066
-0.005479017931034483,0.007494305470876104
-0.005478677931034483,0.006803120758029567
-0.005478337931034483,0.006836034315784124
-0.005477997931034483,0.006868947873538621
-0.005477657931034483,0.007198083451084253
-0.005477317931034483,0.007461391913120709
-0.005476977931034483,0.007263910566593725
-0.005476637931034482,0.00700060210455691
-0.005476297931034483,0.006836034315784124
-0.005475957931034483,0.006572725853748146
-0.005475617931034482,0.005848627583147411
-0.005475277931034483,0.006243590276202096
-0.005474937931034483,0.005815714025393631
-0.005474597931034482,0.006506898738238553
-0.005474257931034483,0.00677020720027501
-0.005473917931034483,0.007889268163927916
-0.005473577931034482,0.008975415569830336
-0.005473237931034483,0.00950203249390325
-0.005472897931034483,0.0100944765334842
-0.005472557931034482,0.01032487143776718
-0.005472217931034483,0.009139983358603122
-0.005471877931034483,0.008086749510459209
-0.005471537931034482,0.00756013258638438
-0.005471197931034483,0.006671466527011338
-0.005470857931034483,0.006309417391711868
-0.005470517931034482,0.006506898738238553
-0.005470177931034483,0.006967688546802352
-0.005469837931034483,0.008646279992284765
-0.005469497931034482,0.009995735860221606
-0.005469157931034483,0.01045652566878541
-0.005468817931034483,0.01042361211103085
-0.005468477931034482,0.00983116807144882
-0.005468137931034483,0.008580452876775651
-0.005467797931034483,0.00700060210455691
-0.005467457931034482,0.005947368256411082
-0.005467117931034483,0.005354924216829054
-0.005466777931034483,0.005256183543565383
-0.005466437931034482,0.005848627583148968
-0.005466097931034483,0.006704380084765896
-0.005465757931034483,0.008185490183720966
-0.005465417931034482,0.0082184037414769
-0.005465077931034483,0.008975415569830336
-0.005464737931034483,0.009205810474112236
-0.005464397931034482,0.009567859609411705
-0.005464057931034483,0.009205810474112236
-0.005463717931034483,0.00983116807144882
-0.005463377931034482,0.01006156297573
-0.005463037931034483,0.009666600282676035
-0.005462697931034483,0.009633686724921478
-0.005462357931034482,0.008613366434528652
-0.005462017931034483,0.007757613932911723
-0.005461677931034483,0.006901861431293239
-0.005461337931034482,0.006836034315784064
-0.005460997931034483,0.006803120758029567
-0.005460657931034483,0.00653981229599311
-0.005460317931034482,0.006473985180483816
-0.005459977931034483,0.006375244507220324
-0.005459637931034483,0.00653981229599311
-0.005459297931034482,0.006144849602939083
-0.005458957931034483,0.006506898738238553
-0.005458617931034483,0.006803120758029567
-0.005458277931034482,0.007395564797612493
-0.005457937931034483,0.007889268163929951
-0.005457597931034483,0.008514625761266537
-0.005457257931034483,0.008712107107793521
-0.005456917931034483,0.008514625761266537
-0.005456577931034483,0.008284230856984636
-0.005456237931034483,0.007691786817403687
-0.005455897931034482,0.006638552969256781
-0.005455557931034483,0.006441071622729439
-0.005455217931034483,0.006276503833956952
-0.005454877931034482,0.006473985180483996
-0.005454537931034483,0.006473985180483996
-0.005454197931034483,0.006243590276202515
-0.005453857931034482,0.006704380084765896
-0.005453517931034483,0.007165169893329695
-0.005453177931034483,0.007494305470874668
-0.005452837931034482,0.007296824124347924
-0.005452497931034483,0.007165169893329695
-0.005452157931034483,0.007527219028629165
-0.005451817931034482,0.007362651239857037
-0.005451477931034483,0.007461391913120709
-0.005451137931034483,0.007428478355366212
-0.005450797931034482,0.007856354606175394
-0.005450457931034483,0.007988008837193623
-0.005450117931034483,0.007230997008840187
-0.005449777931034482,0.006144849602938425
-0.005449437931034483,0.004959961523774369
-0.005449097931034483,0.00446625815745691
-0.005448757931034482,0.003478851424819299
-0.005448417931034483,0.002688926038709928
-0.005448077931034483,0.002096481999127901
-0.005447737931034482,0.001569865075054987
-0.005447397931034483,0.002096481999127901
-0.005447057931034483,0.003445937867064742
-0.005446717931034482,0.005947368256411082
-0.005446377931034483,0.007198083451084253
-0.005446037931034483,0.008909588454321223
-0.005445697931034482,0.01029195788001262
-0.005445357931034483,0.01029195788001262
-0.005445017931034483,0.01052235278429452
-0.005444677931034482,0.0102919578800116
-0.005444337931034483,0.00973242739818515
-0.005443997931034483,0.00973242739818515
-0.005443657931034482,0.009172896916357379
-0.005443317931034483,0.009008329127584893
-0.005442977931034483,0.007889268163929951
-0.005442637931034482,0.005980281814163005
-0.005442297931034483,0.004532085272965126
-0.005441957931034483,0.004170036137664999
-0.005441617931034482,0.003643419213591965
-0.005441277931034483,0.00357759209808297
-0.005440937931034483,0.003939641233383098
-0.005440597931034482,0.003939641233383876
-0.005440257931034483,0.004367517484192341
-0.005439917931034483,0.004301690368683227
-0.005439577931034482,0.004663739503983415
-0.005439237931034483,0.004696653061737912
-0.005438897931034483,0.005025788639283483
-0.005438557931034482,0.005618232678867486
-0.005438217931034483,0.006704380084765896
-0.005437877931034483,0.007428478355366152
-0.005437537931034482,0.00798800883719482
-0.005437197931034483,0.008646279992284765
-0.005436857931034483,0.008975415569830336
-0.005436517931034483,0.008646279992285363
-0.005436177931034483,0.007955095279439066
-0.005435837931034483,0.007823441048420837
-0.005435497931034483,0.008053835952702317
-0.005435157931034483,0.00802092239494818
-0.005434817931034483,0.008218403741475522
-0.005434477931034483,0.008251317299230019
-0.005434137931034482,0.008613366434530208
-0.005433797931034483,0.008350057972493751
-0.005433457931034483,0.007461391913122326
-0.005433117931034482,0.00426877681092867
-0.005432777931034483,-0.002412675413246423
-0.005432437931034483,-0.01663133236318923
-0.005432097931034482,-0.03851884826999557
-0.005431757931034483,-0.06702198928544204
-0.005431417931034483,-0.09996846059769376
-0.005431077931034482,-0.1334086352763837
-0.005430737931034483,-0.1648739964897403
-0.005430397931034483,-0.191928940963937
-0.005430057931034482,-0.2133556670622029
-0.005429717931034483,-0.228364249398281
-0.005429377931034483,-0.2378433540315762
-0.005429037931034482,-0.2418258945198948
-0.005428697931034483,-0.2426816470215133
-0.005428357931034483,-0.240476438651962
-0.005428017931034482,-0.2366913795101839
-0.005427677931034483,-0.2303061493057998
-0.005427337931034483,-0.2235259564083611
-0.005426997931034482,-0.2164495414911313
-0.005426657931034483,-0.2091756452273742
-0.005426317931034483,-0.2017700947325988
-0.005425977931034482,-0.1940683222180325
-0.005425637931034483,-0.1863665497034661
-0.005425297931034483,-0.1784672958423724
-0.005424957931034482,-0.1710288317898425
-0.005424617931034483,-0.1640840711036309
-0.005424277931034483,-0.1576330137837378
-0.005423937931034482,-0.1512806971370957
-0.005423597931034483,-0.1444017635664058
-0.005423257931034483,-0.1385431502860946
-0.005422917931034482,-0.1333757217186204
-0.005422577931034483,-0.1285703422864638
-0.005422237931034483,-0.1239624442008258
-0.005421897931034482,-0.1199469901547626
-0.005421557931034483,-0.1159644496664684
-0.005421217931034483,-0.1120477362936761
-0.005420877931034482,-0.1074398382080303
-0.005420537931034483,-0.1030952485844366
-0.005420197931034483,-0.09822404203676216
-0.005419857931034482,-0.09384653885539791
-0.005419517931034483,-0.0893702950007863
-0.005419177931034483,-0.08528901383922122
-0.005418837931034482,-0.08186600383274285
-0.005418497931034483,-0.07943040055891004
-0.005418157931034483,-0.07613904478345435
-0.005417817931034482,-0.07340721948982089
-0.005417477931034483,-0.07054373996517962
-0.005417137931034483,-0.06837144515337887
-0.005416797931034482,-0.06577127409076568
-0.005416457931034483,-0.06402685552977733
-0.005416117931034483,-0.06142668446716731
-0.005415777931034482,-0.05951769811739797
-0.005415437931034483,-0.0567529592660202
-0.005415097931034483,-0.05402113397239196
-0.005414757931034483,-0.05142096290978669
-0.005414417931034483,-0.04878787828941739
-0.005414077931034483,-0.04628644790007105
-0.005413737931034483,-0.04496990558989115
