Analysis/plots/wrd01_d2s01/non compliant measurements/cmb07_ch27.csv

#Digilent WaveForms Oscilloscope Acquisition
#Device Name: ADP3450
#Serial Number: SN:210018B9D9B0
#Date Time: 2024-08-07 10:32:52.668.507.850
#Sample rate: 2.94118e+06Hz
#Samples: 32768
#Trigger: Source: Channel 3 Type: Edge Condition: Rising Level: 0 V Hyst.: Auto HoldOff: 0 s
#Channel 3: Range: 200 mV/div Offset: 0 V Attenuation: 1 X Coupling: DC Bandwidth: 0 Hz Sample Mode: Average

Time (s),Channel 3 (V)
-0.005570305,0.006737293642520453
-0.005569965,0.007560132586386057
-0.005569625,0.008481712203511979
-0.005569285,0.008415885088002865
-0.005568945,0.007988008837192365
-0.005568605,0.007296824124347924
-0.005568265,0.00630941739171121
-0.005567925,0.005322010659073719
-0.005567585,0.004894134408265255
-0.005567245,0.004466258157456012
-0.005566905,0.00370924632910078
-0.005566565,0.003478851424819299
-0.005566225,0.003149715847273728
-0.005565885,0.003775073444611151
-0.005565545,0.004235863253174112
-0.005565205,0.004630825946228797
-0.005564865,0.005387837774584929
-0.005564525,0.006111936045183867
-0.005564185,0.007066429220066024
-0.005563845,0.007955095279440024
-0.005563505,0.008481712203511979
-0.005563165,0.008777934223302994
-0.005562825,0.008646279992285004
-0.005562485,0.00811966306821185
-0.005562145,0.007889268163929951
-0.005561805,0.007691786817402968
-0.005561465,0.007329737682102481
-0.005561125,0.007230997008838809
-0.005560785,0.007066429220066323
-0.005560445,0.00700060210455691
-0.005560105,0.006408158064974882
-0.005559765,0.006111936045184406
-0.005559425,0.006046108929674754
-0.005559085,0.007593046144138938
-0.005558745,0.01361622721321193
-0.005558405,0.0264196011797456
-0.005558065,0.04850459843305342
-0.005557725,0.07819262752760993
-0.005557385,0.1124556411501579
-0.005557045,0.1483643326603797
-0.005556705,0.1828906547448473
-0.005556365,0.2126774245127843
-0.005556025,0.2364410132115745
-0.005555685,0.2536877174749311
-0.005555345,0.264121315283157
-0.005555005,0.2687621269265495
-0.005554665,0.2689925218308311
-0.005554325,0.2655695118243576
-0.005553985,0.2597108985440464
-0.005553645,0.2524370022802893
-0.005553305,0.2439453043796135
-0.005552965,0.235881482729747
-0.005552625,0.2272252170402985
-0.005552285,0.2199513207765414
-0.005551945,0.2118874991266749
-0.005551605,0.2049756519982179
-0.005551265,0.1985904217938217
-0.005550925,0.1919089695696587
-0.005550585,0.1849971224412017
-0.005550245,0.1783156702170159
-0.005549905,0.1723912298212064
-0.005549565,0.1661705674055951
-0.005549225,0.1601144727787455
-0.005548885,0.1540254645941635
-0.005548545,0.1490226038154708
-0.005548205,0.1436247803437143
-0.005547865,0.1386219195650308
-0.005547525,0.1328949605157378
-0.005547185,0.1277275319482637
-0.005546845,0.1229550660738616
-0.005546505,0.1185775628925055
-0.005546165,0.114891244423988
-0.005545825,0.1109745310512028
-0.005545485,0.1076502617179926
-0.005545145,0.1039310296917202
-0.005544805,0.09988266208791707
-0.005544465,0.09622925717716121
-0.005544125,0.09303664207496447
-0.005543785,0.09043647101235919
-0.005543445,0.08898827447115867
-0.005543105,0.08655267119731903
-0.005542765,0.08523612888713916
-0.005542425,0.08359045099941129
-0.005542085,0.08164855109189596
-0.005541745,0.07901546647152785
-0.005541405,0.0766127767554452
-0.005541065,0.07289354472918702
-0.005540725,0.07019463299330655
-0.005540385,0.06716658567988731
-0.005540045,0.0647309824060545
-0.005539705,0.06206498422793095
-0.005539365,0.05943189960756638
-0.005539025,0.05660133364067962
-0.005538685,0.05367202700051889
-0.005538345,0.05146681863096356
-0.005538005,0.0498540543009932
-0.005537665,0.04794506795122595
-0.005537325,0.04587151381268886
-0.005536985,0.04353465121211955
-0.005536645,0.04155983774684188
-0.005536305,0.04050660389869604
-0.005535965,0.04014455476339657
-0.005535625,0.03925588870402288
-0.005535285,0.0386963582221954
-0.005534945,0.03797225995159646
-0.005534605,0.03708359389222211
-0.005534265,0.03576705158203982
-0.005533925,0.03438468215635093
-0.005533585,0.03257443647984778
-0.005533245,0.03273900426862057
-0.005532905,0.03168577042047474
-0.005532565,0.03155411618945651
-0.005532225,0.03069836368783803
-0.005531885,0.02948056205091941
-0.005531545,0.02846024176052814
-0.005531205,0.02819693329849169
-0.005530865,0.02822984685624624
-0.005530525,0.02773614348992789
-0.005530185,0.02727535368136409
-0.005529845,0.02635377406423649
-0.005529505,0.02500431819629707
-0.005529165,0.02358903521285369
-0.005528825,0.02230540646042596
-0.005528485,0.02220666578716295
-0.005528145,0.02256871492246242
-0.005527805,0.02283202338449888
-0.005527465,0.02316115896204433
-0.005527125,0.02309533184653534
-0.005526785,0.02256871492246242
-0.005526445,0.02131799972778751
-0.005526105,0.0203635065529071
-0.005525765,0.01907987780047937
-0.005525425,0.01861908799191575
-0.005525085,0.01871782866517924
-0.005524745,0.01825703885661544
-0.005524405,0.01779624904805062
-0.005524065,0.01723671856622417
-0.005523725,0.01674301519990581
-0.005523385,0.01526190510094859
-0.005523045,0.01407701702178669
-0.005522705,0.01371496788648656
-0.005522365,0.01351748653996017
-0.005522025,0.01404410346403213
-0.005521685,0.01440615259933226
-0.005521345,0.01447197971484215
-0.005521005,0.01489985596565062
-0.005520665,0.01489985596565062
-0.005520325,0.01522899154319559
-0.005519985,0.01503151019666884
-0.005519645,0.01473528817687783
-0.005519305,0.01463654750361434
-0.005518965,0.01410993057954124
-0.005518625,0.01279338826935896
-0.005518285,0.01187180865223304
-0.005517945,0.01111479682387655
-0.005517605,0.01075274768857642
-0.005517265,0.01042361211103145
-0.005516925,0.00973242739818515
-0.005516585,0.009238724031866792
-0.005516245,0.007955095279441401
-0.005515905,0.007099342777820581
-0.005515565,0.006276503833956653
-0.005515225,0.006046108929675172
-0.005514885,0.006441071622729439
-0.005514545,0.006441071622729439
-0.005514205,0.007889268163927318
-0.005513865,0.00881084778105755
-0.005513525,0.01019321720674895
-0.005513185,0.01141101884366535
-0.005512845,0.01180598153672225
-0.005512505,0.0118388950944768
-0.005512165,0.01190472220998592
-0.005511825,0.01203637644100415
-0.005511485,0.01009447653348528
-0.005511145,0.009864081629203377
-0.005510805,0.009107069800848565
-0.005510465,0.007922181721684508
-0.005510125,0.007461391913120709
-0.005509785,0.007724700375157166
-0.005509445,0.007988008837193623
-0.005509105,0.008218403741475522
-0.005508765,0.008119663068211132
-0.005508425,0.007724700375157166
-0.005508085,0.006737293642520453
-0.005507745,0.006704380084764938
-0.005507405,0.006177763160692982
-0.005507065,0.00630941739171121
-0.005506725,0.006803120758031364
-0.005506385,0.00779052749066628
-0.005506045,0.007889268163929951
-0.005505705,0.00825131729922942
-0.005505365,0.007889268163929951
-0.005505025,0.006803120758029567
-0.005504685,0.006605639411501207
-0.005504345,0.006046108929674754
-0.005504005,0.005486578447847282
-0.005503665,0.005157442870301532
-0.005503325,0.00505870219703804
-0.005502985,0.005354924216829054
-0.005502645,0.006243590276202276
-0.005502305,0.006342330949465767
-0.005501965,0.006276503833956653
-0.005501625,0.006408158064974702
-0.005501285,0.00630941739171121
-0.005500945,0.006276503833956653
-0.005500605,0.006210676718447838
-0.005500265,0.006375244507220324
-0.005499925,0.006934774989047795
-0.005499585,0.007658873259646735
-0.005499245,0.008777934223302994
-0.005498905,0.009107069800848565
-0.005498565,0.009370378262884543
-0.005498225,0.009403291820639578
-0.005497885,0.00973242739818515
-0.005497545,0.009765340955939646
-0.005497205,0.009929908744712493
-0.005496865,0.009995735860221606
-0.005496525,0.009469118936149649
-0.005496185,0.008777934223302994
-0.005495845,0.008152576625966409
-0.005495505,0.007461391913121966
-0.005495165,0.006375244507220324
-0.005494825,0.004564998830719684
-0.005494485,0.003577592098084766
-0.005494145,0.002524358249937143
-0.005493805,0.001701519306073215
-0.005493465,0.002162309114636176
-0.005493125,0.003248456520537399
-0.005492785,0.004400431041946898
-0.005492445,0.005486578447845307
-0.005492105,0.006737293642520453
-0.005491765,0.00779052749066628
-0.005491425,0.008712107107792204
-0.005491085,0.00983116807144882
-0.005490745,0.01104896970836743
-0.005490405,0.011378105285913
-0.005490065,0.01065400701531275
-0.005489725,0.009699513840430593
-0.005489385,0.007593046144138938
-0.005489045,0.006638552969256781
-0.005488705,0.005387837774583611
-0.005488365,0.004202949695419555
-0.005488025,0.003577592098083389
-0.005487685,0.00380798700236487
-0.005487345,0.004005468348892213
-0.005487005,0.004367517484193119
-0.005486665,0.004795393735001583
-0.005486325,0.005684059794374625
-0.005485985,0.006803120758029328
-0.005485645,0.006671466527011338
-0.005485305,0.007033515662311467
-0.005484965,0.007395564797611954
-0.005484625,0.007593046144138938
-0.005484285,0.007395564797611595
-0.005483945,0.007296824124348103
-0.005483605,0.007395564797611595
-0.005483265,0.007099342777820581
-0.005482925,0.006770207200275129
-0.005482585,0.006836034315784124
-0.005482245,0.006572725853747667
-0.005481905,0.006441071622728721
-0.005481565,0.006046108929674754
-0.005481225,0.006111936045183867
-0.005480885,0.005881541140901848
-0.005480545,0.005815714025392853
-0.005480205,0.005190356428056269
-0.005479865,0.005651146236620487
-0.005479525,0.005881541140901968
-0.005479185,0.006473985180483996
-0.005478845,0.007033515662310449
-0.005478505,0.007428478355366152
-0.005478165,0.007165169893329695
-0.005477825,0.006671466527012236
-0.005477485,0.006177763160692982
-0.005477145,0.005519492005601839
-0.005476805,0.005453664890092845
-0.005476465,0.004894134408265255
-0.005476125,0.005815714025392853
-0.005475785,0.00621067671844682
-0.005475445,0.006737293642520453
-0.005475105,0.007099342777820581
-0.005474765,0.007625959701892537
-0.005474425,0.007823441048420837
-0.005474085,0.008350057972493751
-0.005473745,0.007691786817403807
-0.005473405,0.007329737682102481
-0.005473065,0.007165169893329695
-0.005472725,0.006210676718449275
-0.005472385,0.005223269985810825
-0.005472045,0.005453664890092726
-0.005471705,0.005815714025392195
-0.005471365,0.005947368256411082
-0.005471025,0.006868947873538681
-0.005470685,0.007560132586383123
-0.005470345,0.008086749510457293
-0.005470005,0.008251317299230079
-0.005469665,0.007757613932911723
-0.005469325,0.007428478355366152
-0.005468985,0.007329737682102481
-0.005468645,0.006836034315784124
-0.005468305,0.005782800467638296
-0.005467965,0.005256183543565383
-0.005467625,0.005322010659074497
-0.005467285,0.005782800467638296
-0.005466945,0.006572725853747667
-0.005466605,0.00653981229599311
-0.005466265,0.007955095279440742
-0.005465925,0.008876674896566664
-0.005465585,0.00950203249390325
-0.005465245,0.009205810474112536
-0.005464905,0.009370378262885021
-0.005464565,0.006704380084765896
-0.005464225,0.005585319121106404
-0.005463885,0.003083888731764614
-0.005463545,0.001668605748318658
-0.005463205,0.001536951517300729
-0.005462865,0.001701519306073215
-0.005462525,0.002096481999127901
-0.005462185,0.003116802289521027
-0.005461845,0.004137122579910441
-0.005461505,0.005157442870301712
-0.005461165,0.006111936045185723
-0.005460825,0.007132256335575138
-0.005460485,0.007625959701893495
-0.005460145,0.007790527490666221
-0.005459805,0.007757613932911723
-0.005459465,0.007593046144138938
-0.005459125,0.007263910566592588
-0.005458785,0.006836034315784124
-0.005458445,0.006177763160692982
-0.005458105,0.005881541140901309
-0.005457765,0.005519492005601839
-0.005457425,0.00505870219703804
-0.005457085,0.005881541140900471
-0.005456745,0.006572725853747667
-0.005456405,0.006737293642520453
-0.005456065,0.007790527490664364
-0.005455725,0.008777934223302994
-0.005455385,0.009469118936148692
-0.005455045,0.01009447653348414
-0.005454705,0.01025904432225806
-0.005454365,0.009699513840430593
-0.005454025,0.008317144414741708
-0.005453685,0.007165169893329695
-0.005453345,0.006473985180483996
-0.005453005,0.005848627583148549
-0.005452665,0.005782800467638296
-0.005452325,0.005519492005601839
-0.005451985,0.005651146236619829
-0.005451645,0.005387837774583611
-0.005451305,0.005815714025392853
-0.005450965,0.00621067671844682
-0.005450625,0.006704380084765896
-0.005450285,0.007362651239857037
-0.005449945,0.008053835952701479
-0.005449605,0.008547539319021094
-0.005449265,0.008448798645757422
-0.005448925,0.008152576625966948
-0.005448585,0.007922181721684508
-0.005448245,0.007691786817402609
-0.005447905,0.00677020720027501
-0.005447565,0.006704380084765896
-0.005447225,0.006737293642520453
-0.005446885,0.006803120758029567
-0.005446545,0.006441071622729439
-0.005446205,0.006111936045183867
-0.005445865,0.005782800467638296
-0.005445525,0.005486578447846385
-0.005445185,0.004992875081528926
-0.005444845,0.005256183543565383
-0.005444505,0.005782800467638895
-0.005444165,0.006111936045183867
-0.005443825,0.006177763160692982
-0.005443485,0.006441071622729738
-0.005443145,0.006605639411502225
-0.005442805,0.007033515662311467
-0.005442465,0.007757613932911902
-0.005442125,0.007856354606175394
-0.005441785,0.007988008837193623
-0.005441445,0.008284230856984875
-0.005441105,0.008415885088002865
-0.005440765,0.007691786817402609
-0.005440425,0.007889268163929172
-0.005440085,0.007461391913120709
-0.005439745,0.007099342777820581
-0.005439405,0.007165169893329575
-0.005439065,0.007099342777820581
-0.005438725,0.006901861431293239
-0.005438385,0.005190356428055909
-0.005438045,0.004992875081528926
-0.005437705,0.004729566619492469
-0.005437365,0.003873814117869254
-0.005437025,0.001273643055263973
-0.005436685,-0.006230648112775047
-0.005436345,-0.02077844064026283
-0.005436005,-0.04352170904868825
-0.005435665,-0.07304517035452598
-0.005435325,-0.1065511721486042
-0.005434985,-0.1401559146160679
-0.005434645,-0.1706338690967878
-0.005434305,-0.1972609373201761
-0.005433965,-0.2181939600521228
-0.005433625,-0.2327417525796371
-0.005433285,-0.2418917216353873
-0.005432945,-0.2457755214504417
-0.005432605,-0.2463679654900237
-0.005432265,-0.2425829063482565
-0.005431925,-0.237053428645484
-0.005431585,-0.2298782730549906
-0.005431245,-0.2222094140981928
-0.005430905,-0.2146722093723852
-0.005430565,-0.2072666588776099
-0.005430225,-0.2003218981914109
-0.005429885,-0.1929821748121321
-0.005429545,-0.1863994632612207
-0.005429205,-0.1793559619017583
-0.005428865,-0.1729707316973614
-0.005428525,-0.1656310083180951
-0.005428185,-0.1594761730180041
-0.005427845,-0.1538479546419637
-0.005427505,-0.1483184769391981
-0.005427165,-0.1432497890449963
-0.005426825,-0.1379836198042672
-0.005426485,-0.1326187098902744
-0.005426145,-0.1270563186297542
-0.005425805,-0.1220534578510615
-0.005425465,-0.11770886822746
-0.005425125,-0.1144175124520043
-0.005424785,-0.1112578109075668
-0.005424445,-0.1081639364786384
-0.005424105,-0.1043459637791098
-0.005423765,-0.1011204351191552
-0.005423425,-0.09671001838005253
-0.005423085,-0.09295787279603301
-0.005422745,-0.08940320855853488
-0.005422405,-0.08611185278308514
-0.005422065,-0.0830838054696659
-0.005421725,-0.08051654796480578
-0.005421385,-0.077949290459955
-0.005421045,-0.07406549064491724
-0.005420705,-0.06942467900151696
-0.005420365,-0.06517883005118683
-0.005420025,-0.0606696726388125
-0.005419685,-0.05645673724622494
-0.005419345,-0.05411987464565564
-0.005419005,-0.05165135781406385
-0.005418665,-0.05066395108142738
-0.005418325,-0.05079560531244537
-0.005417985,-0.05036772906163613
-0.005417645,-0.04987402569531586
-0.005417305,-0.04882079184717195
-0.005416965,-0.04697763261291674
-0.005416625,-0.04473951068560136
-0.005416285,-0.04171146337218761
-0.005415945,-0.0386505025010138
-0.005415605,-0.03641238057370062
-0.005415265,-0.03460213489720328
-0.005414925,-0.03308811124049365
-0.005414585,-0.0324956672009127
-0.005414245,-0.03203487739234782
-0.005413905,-0.03190322316132959
-0.005413565,-0.03163991469929361
-0.005413225,-0.02979675546503794
-0.005412885,-0.02801942334629185
-0.005412545,-0.02611043699653101
-0.005412205,-0.0243001913200269
-0.005411865,-0.02308238968310829
-0.005411525,-0.02140379823762893
-0.005411185,-0.02054804573600739
-0.005410845,-0.02028473727397093
-0.005410505,-0.01965937967663548
-0.005410165,-0.01942898477235245
-0.005409825,-0.01870488650175219
-0.005409485,-0.01834283736645272
-0.005409145,-0.01745417130707902
-0.005408805,-0.01620345611240585
-0.005408465,-0.01505148159099845
-0.005408125,-0.01357037149204128
-0.005407785,-0.01212217495084077
-0.005407445,-0.01087145975616987
-0.005407105,-0.009982793696794558
-0.005406765,-0.009489090330476201
-0.005406425,-0.009456176772721704
-0.005406085,-0.009522003888230759
-0.005405745,-0.01001570725454911
-0.005405405,-0.0104106699476038
-0.005405065,-0.01044358350535836
-0.005404725,-0.01008153437005823
-0.005404385,-0.008995386964157845
-0.005404045,-0.007942153116012016
-0.005403705,-0.006592697248075176
-0.005403365,-0.005704031188702134
-0.005403025,-0.004420402436272132
-0.005402685,-0.003169687241601236
-0.005402345,-0.001918972046928067
-0.005402005,-0.0007669975255170113
-0.005401665,8.875497609991696e-05
-0.005401325,-0.000207467043691097
-0.005400985,-0.000141639928182821
-0.005400645,-0.0006024297367457822
-0.005400305,-0.0007669975255185678
-0.005399965,-0.0005366026212364884
-0.005399625,-0.0004378619479729968
-0.005399285,-0.0003062077169547683
-0.005398945,-0.0005366026212368477
-0.005398605,-0.0006353432945003394
-0.005398265,-0.0006353432945003394
-0.005397925,-0.00142526868060971
-0.005397585,-0.00142526868060971
-0.005397245,-0.001984799162437181
-0.005396905,-0.002083539835700732
-0.005396565,-0.002017712720191738
-0.005396225,-0.001754404258155281
-0.005395885,-0.001063219545308504
-0.005395545,-0.0004707755057275538
-0.005395205,0.0007470261311910591
-0.005394865,0.001734432863829568
-0.005394525,0.002721839596464486
-0.005394185,0.003972554791137656
-0.005393845,0.004597912388473104
-0.005393505,0.00482830729275614
-0.005393165,0.004959961523774369
-0.005392825,0.004927047966019871
-0.005392485,0.004367517484192341
-0.005392145,0.003972554791137656
-0.005391805,0.00308388873176623
-0.005391465,0.002030654883618786
-0.005391125,0.001240729497509416
-0.005390785,0.0005166312269104764
-0.005390445,0.001174902382000301
-0.005390105,0.001997741325864229
-0.005389765,0.002590185365445179
-0.005389425,0.0025572718076917
-0.005389085,0.002886407385237271
-0.005388745,0.002557271807692298
-0.005388405,0.002392704018918914
-0.005388065,0.0025572718076917
-0.005387725,0.003083888731763656
-0.005387385,0.004104209022155884
-0.005387045,0.005157442870301712
-0.005386705,0.005486578447846684
-0.005386365,0.005124529312547154
-0.005386025,0.004630825946228797
-0.005385685,0.003445937867066897
-0.005385345,0.003083888731764614
-0.005385005,0.003445937867064742
-0.005384665,0.003939641233383098
-0.005384325,0.004235863253174112
-0.005383985,0.004861220850510698
-0.005383645,0.004894134408265255
-0.005383305,0.004894134408265255
-0.005382965,0.004729566619492469
-0.005382625,0.004696653061737912
-0.005382285,0.004235863253174112
-0.005381945,0.004301690368683227
-0.005381605,0.003775073444610313
-0.005381265,0.004597912388475438
-0.005380925,0.005256183543565383
-0.005380585,0.006144849602938425
-0.005380245,0.006309417391710731
-0.005379905,0.006046108929674754
-0.005379565,0.005651146236620068
-0.005379225,0.005322010659075035
-0.005378885,0.005618232678865511
-0.005378545,0.005782800467638296
-0.005378205,0.005980281814165759
-0.005377865,0.006046108929674754
-0.005377525,0.006572725853747667
-0.005377185,0.006868947873538801
-0.005376845,0.006934774989047795
-0.005376505,0.006967688546802352
-0.005376165,0.007230997008838211
-0.005375825,0.006901861431293239
-0.005375485,0.005387837774583611
-0.005375145,0.003873814117872368
-0.005374805,0.002985148058500942
-0.005374465,0.002359790461164357
-0.005374125,0.002326876903410758
-0.005373785,0.002853493827482714
-0.005373445,0.003413024309310185
-0.005373105,0.004828307292758295
-0.005372765,0.006013195371920196
