Analysis/plots/wrd01_d2s01/non compliant measurements/cmb07_ch06.csv

#Digilent WaveForms Oscilloscope Acquisition
#Device Name: ADP3450
#Serial Number: SN:210018B9D9B0
#Date Time: 2024-08-07 10:23:52.091.556.720
#Sample rate: 2.94118e+06Hz
#Samples: 32768
#Trigger: Source: Channel 3 Type: Edge Condition: Rising Level: 0 V Hyst.: Auto HoldOff: 0 s
#Channel 3: Range: 200 mV/div Offset: 0 V Attenuation: 1 X Coupling: DC Bandwidth: 0 Hz Sample Mode: Average

Time (s),Channel 3 (V)
-0.005570442307692308,0.06091300970652145
-0.005570102307692308,0.0575229132577962
-0.005569762307692308,0.05429738459785547
-0.005569422307692308,0.051433905073209
-0.005569082307692308,0.04860333910631398
-0.005568742307692308,0.04689183410308012
-0.005568402307692308,0.04531198333086138
-0.005568062307692308,0.04416000880944967
-0.005567722307692308,0.04294220717253327
-0.005567382307692308,0.04202062755540567
-0.005567042307692308,0.04086865303399432
-0.005566702307692308,0.0398483327436049
-0.005566362307692308,0.03882801245321364
-0.005566022307692308,0.0379393463938382
-0.005565682307692308,0.0366228040836583
-0.005565342307692308,0.03517460754245779
-0.005565002307692308,0.03323270763493659
-0.005564662307692308,0.03194907888251119
-0.005564322307692308,0.0305667094568198
-0.005563982307692308,0.02908559935786293
-0.005563642307692308,0.02809819262522802
-0.005563302307692308,0.02724244012360953
-0.005562962307692309,0.02599172492893864
-0.005562622307692308,0.02460935550324496
-0.005562282307692308,0.02316115896204445
-0.005561942307692309,0.02105469126575663
-0.005561602307692308,0.01947484049353405
-0.005561262307692308,0.01835577952987911
-0.005560922307692309,0.01684175587317224
-0.005560582307692308,0.0157556084672691
-0.005560242307692308,0.01509733731217796
-0.005559902307692309,0.01476820173463298
-0.005559562307692308,0.01470237461912327
-0.005559222307692308,0.01440615259933226
-0.005558882307692308,0.01407701702178729
-0.005558542307692308,0.01338583230894099
-0.005558202307692308,0.0125300798073225
-0.005557862307692308,0.01154267307468759
-0.005557522307692308,0.01065400701531275
-0.005557182307692308,0.01025904432225806
-0.005556842307692308,0.01048943922653954
-0.005556502307692308,0.01039069855327629
-0.005556162307692308,0.01104896970836743
-0.005555822307692308,0.01085148836184045
-0.005555482307692308,0.01111479682387655
-0.005555142307692308,0.01118062393938566
-0.005554802307692308,0.01174015442121211
-0.005554462307692308,0.01150975951693123
-0.005554122307692308,0.01052235278429452
-0.005553782307692308,0.01019321720674895
-0.005553442307692308,0.009699513840430593
-0.005553102307692308,0.009600773167166921
-0.005552762307692308,0.00904124268533945
-0.005552422307692308,0.008448798645757422
-0.005552082307692308,0.00756013258638438
-0.005551742307692308,0.007033515662311467
-0.005551402307692308,0.006572725853746709
-0.005551062307692308,0.006046108929674754
-0.005550722307692308,0.005387837774583611
-0.005550382307692308,0.004729566619491631
-0.005550042307692308,0.00426877681092867
-0.005549702307692308,0.003445937867064742
-0.005549362307692308,0.003511764982574036
-0.005549022307692308,0.003610505655837527
-0.005548682307692308,0.004104209022155884
-0.005548342307692308,0.00380798700236493
-0.005548002307692308,0.003840900560119427
-0.005547662307692308,0.00403838190664677
-0.005547322307692308,0.00380798700236511
-0.005546982307692308,0.003939641233383098
-0.005546642307692308,0.004137122579910441
-0.005546302307692308,0.004992875081528088
-0.005545962307692308,0.004532085272965126
-0.005545622307692308,0.004795393735001583
-0.005545282307692308,0.004894134408264177
-0.005544942307692308,0.004301690368683227
-0.005544602307692308,0.003972554791137656
-0.005544262307692308,0.003775073444608816
-0.005543922307692308,0.002952234500746385
-0.005543582307692308,0.001899000652600558
-0.005543242307692308,0.0005166312269071836
-0.005542902307692308,-0.0005695161789912252
-0.005542562307692308,-0.0007999110832731249
-0.005542222307692309,-0.0007999110832731249
-0.005541882307692308,-0.0005695161789912252
-0.005541542307692308,0.0001545820916090312
-0.005541202307692309,0.0007799396889444786
-0.005540862307692308,0.001471124401791315
-0.005540522307692308,0.001800259979336887
-0.005540182307692309,0.002096481999127361
-0.005539842307692308,0.0025572718076917
-0.005539502307692308,0.002853493827482714
-0.005539162307692309,0.003314283636045675
-0.005538822307692308,0.003676332771346642
-0.005538482307692308,0.004104209022155884
-0.005538142307692309,0.003215542962784459
-0.005537802307692308,0.002458531134428029
-0.005537462307692308,0.001734432863827772
-0.005537122307692308,0.0009445074777198387
-0.005536782307692308,0.0006482854579273878
-0.005536442307692308,0.0004508041114000451
-0.005536102307692308,8.87549761005755e-05
-0.005535762307692308,0.0009774210354729588
-0.005535422307692308,0.001043248150982073
-0.005535082307692308,0.001471124401790537
-0.005534742307692308,0.001504037959545873
-0.005534402307692308,0.001240729497509416
-0.005534062307692308,0.001569865075054388
-0.005533722307692308,0.001405297286282201
-0.005533382307692308,0.001273643055263973
-0.005533042307692308,0.001931914210355115
-0.005532702307692308,0.002030654883618786
-0.005532362307692308,0.0023268769034098
-0.005532022307692308,0.002458531134428029
-0.005531682307692308,0.002195222672391572
-0.005531342307692308,0.001701519306073215
-0.005531002307692308,0.0008457668044547304
-0.005530662307692308,-0.0004707755057275538
-0.005530322307692308,-0.00165566358489161
-0.005529982307692308,-0.002610156759773766
-0.005529642307692308,-0.002116453393454811
-0.005529302307692308,-0.001787317815909838
-0.005528962307692308,-0.001589836469382495
-0.005528622307692308,-0.001227787334082547
-0.005528282307692308,-0.001326528007346039
-0.005527942307692308,-0.001293614449591481
-0.005527602307692308,-0.001622750027137831
-0.005527262307692308,-0.002050626277946295
-0.005526922307692308,-0.002313934739982752
-0.005526582307692308,-0.002149366951209667
-0.005526242307692308,-0.001984799162437181
-0.005525902307692308,-0.001491095796118824
-0.005525562307692308,-0.001063219545310121
-0.005525222307692308,-0.001359441565100596
-0.005524882307692308,-0.001260700891836924
-0.005524542307692308,-0.001096133103064079
-0.005524202307692308,-0.001063219545309582
-0.005523862307692308,-0.0008657381987822392
-0.005523522307692308,-0.0005695161789905068
-0.005523182307692308,-0.0001745534859365399
-0.005522842307692308,-0.0004378619479729968
-0.005522502307692308,-0.0007669975255192264
-0.005522162307692308,-0.001129046660818696
-0.005521822307692308,-0.002215194066719081
-0.005521482307692308,-0.002840551664056624
-0.005521142307692308,-0.00336716858812858
-0.005520802307692308,-0.004025439743219721
-0.005520462307692309,-0.003893785512201732
-0.005520122307692308,-0.004321661763010735
-0.005519782307692308,-0.004288748205256179
-0.005519442307692309,-0.004321661763010676
-0.005519102307692308,-0.004222921089747064
-0.005518762307692308,-0.003169687241601236
-0.005518422307692309,-0.002281021182229811
-0.005518082307692308,-0.00142526868060971
-0.005517742307692308,-0.0003062077169547683
-0.005517402307692309,0.000417890553644171
-0.005517062307692308,0.0006153719001728307
-0.005516722307692308,0.000714112573436502
-0.005516382307692308,0.0001874956493645462
-0.005516042307692308,-0.0003720348324638825
-0.005515702307692308,-0.001227787334082367
-0.005515362307692308,-0.001491095796118345
-0.005515022307692308,-0.002313934739982752
-0.005514682307692308,-0.00267598387528288
-0.005514342307692308,-0.002313934739983411
-0.005514002307692308,-0.002215194066719081
-0.005513662307692308,-0.001754404258155281
-0.005513322307692308,-0.002083539835700253
-0.005512982307692308,-0.002577243202019209
-0.005512642307692308,-0.003038033010583008
-0.005512302307692308,-0.003334255030374022
-0.005511962307692308,-0.003268427914864908
-0.005511622307692308,-0.003202600799355794
-0.005511282307692308,-0.002807638106301108
-0.005510942307692308,-0.002412675413246423
-0.005510602307692308,-0.001458182238364267
-0.005510262307692308,-0.001260700891836924
-0.005509922307692308,0.0001216685338544741
-0.005509582307692308,0.001240729497509416
-0.005509242307692308,0.002162309114637015
-0.005508902307692308,0.002820580269728396
-0.005508562307692308,0.002952234500746385
-0.005508222307692308,0.002293963345655243
-0.005507882307692308,0.00232687690340992
-0.005507542307692308,0.002392704018918914
-0.005507202307692308,0.002129395556882458
-0.005506862307692308,0.002557271807690084
-0.005506522307692308,0.001668605748318658
-0.005506182307692308,0.002359790461164357
-0.005505842307692308,0.002030654883618008
-0.005505502307692308,0.001602778632809544
-0.005505162307692308,0.00153695151730043
-0.005504822307692308,0.001372383728526626
-0.005504482307692308,0.0008128532467001733
-0.005504142307692308,-0.0005366026212366681
-0.005503802307692308,-0.001754404258157556
-0.005503462307692308,-0.003005119452828451
-0.005503122307692308,-0.004255834647501621
-0.005502782307692308,-0.005243241380138873
-0.005502442307692308,-0.005539463399929348
-0.005502102307692308,-0.005078673591365549
-0.005501762307692308,-0.004519143109536641
-0.005501422307692308,-0.003729217723428708
-0.005501082307692308,-0.002939292337319337
-0.005500742307692308,-0.00152400935387404
-0.005500402307692308,-0.00188605848917351
-0.005500062307692308,-0.002281021182228195
-0.005499722307692309,-0.002511416086509676
-0.005499382307692308,-0.002346848297737309
-0.005499042307692308,-0.001984799162437181
-0.005498702307692309,-0.00152400935387422
-0.005498362307692308,-0.0004707755057275538
-0.005498022307692308,0.0003849769958909309
-0.005497682307692309,0.0007141125734359033
-0.005497342307692308,0.001109075266491187
-0.005497002307692308,0.001438210844036758
-0.005496662307692309,0.0007799396889468136
-0.005496322307692308,8.875497609991696e-05
-0.005495982307692308,-0.0009315653142913533
-0.005495642307692308,-0.001820231373662779
-0.005495302307692308,-0.002116453393455409
-0.005494962307692308,-0.002149366951209966
-0.005494622307692308,-0.002643070317527425
-0.005494282307692308,-0.003038033010583008
-0.005493942307692308,-0.002577243202019209
-0.005493602307692308,-0.002149366951210745
-0.005493262307692308,-0.001622750027137053
-0.005492922307692308,-0.002116453393455409
-0.005492582307692308,-0.001918972046928426
-0.005492242307692308,-0.002807638106301108
-0.005491902307692308,-0.00369630416567415
-0.005491562307692308,-0.00465079734055457
-0.005491222307692308,-0.004321661763010735
-0.005490882307692308,-0.004486229551783521
-0.005490542307692308,-0.004519143109538078
-0.005490202307692308,-0.004321661763010735
-0.005489862307692308,-0.003893785512201493
-0.005489522307692308,-0.003103860126092122
-0.005489182307692308,-0.002182280508964523
-0.005488842307692308,-0.001096133103064139
-0.005488502307692308,-0.0004049483902184396
-0.005488162307692308,0.0003520634381373317
-0.005487822307692308,0.0008786803622092876
-0.005487482307692308,0.0008128532467001733
-0.005487142307692308,0.0004508041113986083
-0.005486802307692308,-0.0003391212747093254
-0.005486462307692308,-0.001556922911627938
-0.005486122307692308,-0.002643070317530718
-0.005485782307692308,-0.003959612627710607
-0.005485442307692308,-0.00438748887851985
-0.005485102307692308,-0.004255834647499825
-0.005484762307692308,-0.003268427914864908
-0.005484422307692308,-0.002511416086510094
-0.005484082307692308,-0.001556922911627459
-0.005483742307692308,-0.001293614449591481
-0.005483402307692308,-0.0007669975255185678
-0.005483062307692308,-0.0006682568522551959
-0.005482722307692308,-0.000832824641027682
-0.005482382307692308,-0.0009973924298004675
-0.005482042307692308,-0.0006353432944987828
-0.005481702307692308,0.0002204092071181454
-0.005481362307692308,0.000714112573436502
-0.005481022307692308,0.001438210844037537
-0.005480682307692308,0.001866087094846001
-0.005480342307692308,0.001800259979336887
-0.005480002307692308,0.001076161708734834
-0.005479662307692308,8.875497609991696e-05
-0.005479322307692308,-0.0006682568522548965
-0.005478982307692309,-0.001194873776326852
-0.005478642307692308,-0.001359441565100596
-0.005478302307692308,-0.00188605848917351
-0.005477962307692309,-0.002313934739981973
-0.005477622307692308,-0.002478502528755537
-0.005477282307692308,-0.002577243202019209
-0.005476942307692309,-0.002379761855492225
-0.005476602307692308,-0.002478502528755537
-0.005476262307692308,-0.002511416086510094
-0.005475922307692309,-0.002577243202019089
-0.005475582307692308,-0.002248107624473638
-0.005475242307692308,-0.002149366951209966
-0.005474902307692309,-0.001918972046928486
-0.005474562307692308,-0.001227787334082367
-0.005474222307692308,-0.001063219545309582
-0.005473882307692308,-0.001425268680609051
-0.005473542307692308,-0.001293614449591481
-0.005473202307692308,-0.001721490700400724
-0.005472862307692308,-0.002281021182227177
-0.005472522307692308,-0.002149366951209966
-0.005472182307692308,-0.002873465221810222
-0.005471842307692308,-0.003038033010582709
-0.005471502307692308,-0.002544329644264652
-0.005471162307692308,-0.001984799162437181
-0.005470822307692308,-0.001326528007347236
-0.005470482307692308,-0.0006353432945003394
-0.005470142307692308,-4.289925491831147e-05
-0.005469802307692308,-0.0003391212747093254
-0.005469462307692308,-0.0009315653142913533
-0.005469122307692308,-0.001589836469382495
-0.005468782307692308,-0.00267598387528288
-0.005468442307692308,-0.003795044838937822
-0.005468102307692308,-0.004519143109538078
-0.005467762307692308,-0.004979932918101878
-0.005467422307692308,-0.005473636284420234
-0.005467082307692308,-0.006296475228284162
-0.005466742307692308,-0.0104106699476038
-0.005466402307692308,-0.01988977458094768
-0.005466062307692308,-0.03716939240205873
-0.005465722307692308,-0.06139377090941276
-0.005465382307692308,-0.09177298471692855
-0.005465042307692308,-0.1245219746826533
-0.005464702307692308,-0.157468445994965
-0.005464362307692308,-0.1873868699939024
-0.005464022307692308,-0.2121378654252843
-0.005463682307692308,-0.2311619018074183
-0.005463342307692308,-0.2444918926980279
-0.005463002307692308,-0.2521607516548258
-0.005462662307692308,-0.2549584040639631
-0.005462322307692308,-0.2546292684864124
-0.005461982307692308,-0.2518316160772802
-0.005461642307692308,-0.2469933230873603
-0.005461302307692308,-0.2411347098070369
-0.005460962307692308,-0.2344203440251195
-0.005460622307692308,-0.2270477070880987
-0.005460282307692308,-0.2194446752467812
-0.005459942307692308,-0.2113150264814204
-0.005459602307692308,-0.2037778217556268
-0.005459262307692308,-0.1965368390496118
-0.005458922307692308,-0.1896908190366764
-0.005458582307692308,-0.1828118854659739
-0.005458242307692308,-0.1765253959348424
-0.005457902307692308,-0.1704034741925059
-0.005457562307692308,-0.1647423422587221
-0.005457222307692309,-0.1589166425361761
-0.005456882307692308,-0.1529263750248361
-0.005456542307692308,-0.1476272922263524
-0.005456202307692309,-0.1419661602925789
-0.005455862307692308,-0.1367658181673485
-0.005455522307692308,-0.1319933522929378
-0.005455182307692309,-0.1273196270917991
-0.005454842307692308,-0.1228104696794163
-0.005454502307692308,-0.1187950156333604
-0.005454162307692309,-0.1143845988942577
-0.005453822307692308,-0.1096121330198389
-0.005453482307692308,-0.1055308518582738
-0.005453142307692308,-0.1008900402148897
-0.005452802307692308,-0.0974341166506528
-0.005452462307692308,-0.09374779818214241
-0.005452122307692308,-0.09078557798423764
-0.005451782307692308,-0.08802083913284947
-0.005451442307692308,-0.08525610028146666
-0.005451102307692308,-0.08229388008356189
-0.005450762307692308,-0.07910126498136449
-0.005450422307692308,-0.07538203295509954
-0.005450082307692308,-0.07166280092884134
-0.005449742307692308,-0.06784482822930596
-0.005449402307692308,-0.06531048428220507
-0.005449062307692308,-0.06330275725918073
-0.005448722307692308,-0.06234826408429492
-0.005448382307692308,-0.06168999292920378
-0.005448042307692308,-0.06106463533186719
-0.005447702307692308,-0.05994557436821225
-0.005447362307692308,-0.05879359984680275
-0.005447022307692308,-0.05678587282377476
-0.005446682307692308,-0.05448192378095577
-0.005446342307692308,-0.05204632050711854
-0.005446002307692308,-0.05036772906163613
-0.005445662307692308,-0.04872205117390552
-0.005445322307692308,-0.04720802751719864
-0.005444982307692308,-0.04536486828294345
-0.005444642307692308,-0.0427976107780844
-0.005444302307692308,-0.04082279731281457
-0.005443962307692308,-0.0386505025010138
-0.005443622307692308,-0.03670860259349229
-0.005443282307692308,-0.03526040605229441
-0.005442942307692308,-0.03440465355067593
-0.005442602307692308,-0.03335141970252723
-0.005442262307692308,-0.03177156893031136
-0.005441922307692308,-0.03035628594686541
-0.005441582307692308,-0.02913848430994452
-0.005441242307692308,-0.02788776911527362
-0.005440902307692308,-0.02690036238263691
-0.005440562307692308,-0.02617626411203594
-0.005440222307692308,-0.02578130141898197
-0.005439882307692308,-0.02611043699652754
-0.005439542307692308,-0.02591295565000002
-0.005439202307692308,-0.02581421497673653
-0.005438862307692308,-0.02541925228368184
-0.005438522307692308,-0.02430019132002486
-0.005438182307692308,-0.02318113035637196
-0.005437842307692308,-0.02166710669966233
-0.005437502307692308,-0.02031765083172262
-0.005437162307692308,-0.01873780005950675
-0.005436822307692308,-0.01791496111564282
-0.005436482307692309,-0.01742125774932536
-0.005436142307692308,-0.01725668996055168
-0.005435802307692308,-0.01702629505626978
-0.005435462307692309,-0.01636802390117983
-0.005435122307692308,-0.0159401476503694
-0.005434782307692308,-0.01534770361078737
-0.005434442307692309,-0.01416281553162546
-0.005434102307692308,-0.01380076639632318
-0.005433762307692308,-0.01274753254817735
-0.005433422307692309,-0.01136516312248847
-0.005433082307692308,-0.01021318860107646
-0.005432742307692308,-0.009159954752930631
-0.005432402307692309,-0.008402942924577194
-0.005432062307692308,-0.008172548020293918
-0.005431722307692308,-0.008139634462539359
-0.005431382307692308,-0.007975066673766875
-0.005431042307692308,-0.007975066673766575
-0.005430702307692308,-0.008402942924575817
-0.005430362307692308,-0.009258695426192745
-0.005430022307692308,-0.009324522541703417
-0.005429682307692308,-0.009028300521912402
-0.005429342307692308,-0.008764992059876424
-0.005429002307692308,-0.008633337828857716
-0.005428662307692308,-0.008271288693557588
-0.005428322307692308,-0.008271288693557588
-0.005427982307692308,-0.008238375135803031
-0.005427642307692308,-0.008929559848648731
-0.005427302307692308,-0.009785312350267215
-0.005426962307692308,-0.01024610215883101
-0.005426622307692308,-0.01034484283209469
-0.005426282307692308,-0.009884053023530886
-0.005425942307692308,-0.008732078502121389
-0.005425602307692308,-0.007777585327239231
-0.005425262307692308,-0.007020573498884419
-0.005424922307692308,-0.005539463399929348
-0.005424582307692308,-0.004321661763010735
-0.005424242307692308,-0.003597563492410479
-0.005423902307692308,-0.003136773683846021
-0.005423562307692308,-0.002774724548546551
-0.005423222307692308,-0.002281021182228195
-0.005422882307692308,-0.001951885604681606
-0.005422542307692308,-0.001392355122855153
-0.005422202307692308,-0.0007011704100094536
-0.005421862307692308,-0.0005036890634831886
-0.005421522307692308,-0.001096133103064139
-0.005421182307692308,-0.00188605848917351
-0.005420842307692308,-0.002643070317528562
-0.005420502307692308,-0.002774724548546551
-0.005420162307692308,-0.003729217723428708
-0.005419822307692308,-0.004650797340557503
-0.005419482307692308,-0.005309068495647449
-0.005419142307692308,-0.006066080324002262
-0.005418802307692308,-0.006526870132565344
-0.005418462307692308,-0.006131907439511376
-0.005418122307692308,-0.005440722726665677
-0.005417782307692308,-0.004387488878518233
-0.005417442307692308,-0.003498822819146808
-0.005417102307692308,-0.002215194066719081
