Analysis/plots/wrd01_d2s01/non compliant measurements/cmb01_ch44.csv

#Digilent WaveForms Oscilloscope Acquisition
#Device Name: ADP3450
#Serial Number: SN:210018B9D9B0
#Date Time: 2024-08-06 15:24:13.091.162.320
#Sample rate: 2.94118e+06Hz
#Samples: 32768
#Trigger: Source: Channel 3 Type: Edge Condition: Rising Level: 80 mV Hyst.: Auto HoldOff: 0 s
#Channel 3: Range: 200 mV/div Offset: 0 V Attenuation: 1 X Coupling: DC Bandwidth: 0 Hz Sample Mode: Average

Time (s),Channel 3 (V)
-0.005570398429752066,0.02869063666481004
-0.005570058429752066,0.02849315531828282
-0.005569718429752066,0.02855898243379182
-0.005569378429752066,0.02819693329849169
-0.005569038429752066,0.02760448925890762
-0.005568698429752066,0.02648542829525472
-0.005568358429752066,0.02470809617650863
-0.005568018429752066,0.02335864030856952
-0.005567678429752066,0.02210792511389862
-0.005567338429752066,0.02151548107431659
-0.005566998429752066,0.02036350655290691
-0.005566658429752066,0.02026476587964342
-0.005566318429752066,0.01996854385985241
-0.005565978429752066,0.01986980318658826
-0.005565638429752066,0.01960649472455228
-0.005565298429752066,0.0192115320314976
-0.005564958429752066,0.0183557795298781
-0.005564618429752066,0.01779624904805164
-0.005564278429752066,0.0171379778929605
-0.005563938429752066,0.0168417558731693
-0.005563598429752066,0.01674301519990581
-0.005563258429752066,0.01687466943092404
-0.005562918429752066,0.01710506433520552
-0.005562578429752066,0.01697341010418771
-0.005562238429752066,0.01677592875766037
-0.005561898429752066,0.01601891692930693
-0.005561558429752066,0.01526190510095074
-0.005561218429752066,0.01545938644747809
-0.005560878429752066,0.01542647288972359
-0.005560538429752066,0.01605183048706011
-0.005560198429752066,0.01657844741113303
-0.005559858429752066,0.01726963212397747
-0.005559518429752066,0.01773042193254253
-0.005559178429752066,0.01845452020314278
-0.005558838429752066,0.01881656933844225
-0.005558498429752066,0.0187507422229338
-0.005558158429752066,0.01809247106784265
-0.005557818429752066,0.01782916260580668
-0.005557478429752066,0.01743419991275151
-0.005557138429752066,0.0173683727972424
-0.005556798429752066,0.01710506433520642
-0.005556458429752066,0.01687466943092404
-0.005556118429752066,0.01647970673786936
-0.005555778429752066,0.01575560846727042
-0.005555438429752066,0.01503151019666884
-0.005555098429752066,0.01427449836831403
-0.005554758429752066,0.01358331365546959
-0.005554418429752066,0.0122996849030406
-0.005554078429752066,0.01190472220998592
-0.005553738429752066,0.01167432730570402
-0.005553398429752066,0.01210220355651326
-0.005553058429752066,0.01223385778753149
-0.005552718429752066,0.01272756115384985
-0.005552378429752066,0.01236551201854972
-0.005552038429752066,0.01203637644100415
-0.005551698429752066,0.01187180865223136
-0.005551358429752066,0.01180598153672141
-0.005551018429752066,0.01134519172815845
-0.005550678429752066,0.011378105285913
-0.005550338429752066,0.01174015442121487
-0.005549998429752066,0.01269464759609529
-0.005549658429752066,0.01292504250037719
-0.005549318429752066,0.01256299336507598
-0.005548978429752066,0.01197054932549503
-0.005548638429752066,0.01197054932549503
-0.005548298429752066,0.01118062393938458
-0.005547958429752066,0.01058817989980363
-0.005547618429752066,0.01042361211103085
-0.005547278429752066,0.01062109345755837
-0.005546938429752066,0.01071983413082186
-0.005546598429752066,0.01075274768857642
-0.005546258429752066,0.01078566124633128
-0.005545918429752066,0.01095022903510376
-0.005545578429752066,0.01127936461264933
-0.005545238429752066,0.01180598153672332
-0.005544898429752066,0.01239842557630427
-0.005544558429752066,0.0132212645201682
-0.005544218429752066,0.01453780683035103
-0.005543878429752066,0.0148340288501415
-0.005543538429752066,0.01559104067849632
-0.005543198429752066,0.01559104067849512
-0.005542858429752066,0.01493276952340517
-0.005542518429752066,0.01427449836831403
-0.005542178429752066,0.01322126452017012
-0.005541838429752066,0.0118388950944768
-0.005541498429752066,0.01108188326612199
-0.005541158429752066,0.01048943922654104
-0.005540818429752066,0.009271637589621349
-0.005540478429752066,0.008317144414739193
-0.005540138429752066,0.007724700375158244
-0.005539798429752066,0.007724700375157166
-0.005539458429752066,0.008317144414739193
-0.005539118429752066,0.009238724031865117
-0.005538778429752066,0.01078566124633098
-0.005538438429752066,0.01216803067202238
-0.005538098429752066,0.01282630182711232
-0.005537758429752066,0.01315543740465909
-0.005537418429752066,0.01223385778753149
-0.005537078429752066,0.012135117114268
-0.005536738429752066,0.01174015442121313
-0.005536398429752066,0.01108188326612199
-0.005536058429752066,0.01150975951693045
-0.005535718429752066,0.01236551201854972
-0.005535378429752066,0.01338583230894099
-0.005535038429752066,0.01434032548382141
-0.005534698429752066,0.01526190510095074
-0.005534358429752066,0.01555812712074176
-0.005534018429752066,0.0139124492330169
-0.005533678429752066,0.01279338826935896
-0.005533338429752066,0.01108188326612199
-0.005532998429752066,0.00973242739818515
-0.005532658429752066,0.008975415569830336
-0.005532318429752066,0.008382971530248308
-0.005531978429752066,0.007724700375157166
-0.005531638429752066,0.00756013258638438
-0.005531298429752066,0.007658873259648051
-0.005530958429752066,0.008317144414739193
-0.005530618429752066,0.008646279992284765
-0.005530278429752066,0.008415885088002865
-0.005529938429752066,0.008251317299230079
-0.005529598429752066,0.008481712203512936
-0.005529258429752066,0.009008329127584893
-0.005528918429752066,0.01016030364899439
-0.005528578429752066,0.01174015442121487
-0.005528238429752066,0.01269464759609529
-0.005527898429752066,0.01315543740465909
-0.005527558429752066,0.01328709163567714
-0.005527218429752066,0.01318835096241365
-0.005526878429752066,0.01282630182711352
-0.005526538429752066,0.01213511711426794
-0.005526198429752066,0.01220094422977693
-0.005525858429752066,0.01164141374794946
-0.005525518429752066,0.01121353749713998
-0.005525178429752066,0.01108188326612199
-0.005524838429752066,0.01141101884366756
-0.005524498429752066,0.01206928999876062
-0.005524158429752066,0.01312252384690453
-0.005523818429752066,0.01341874586669555
-0.005523478429752066,0.01325417807792252
-0.005523138429752066,0.01312252384690453
-0.005522798429752066,0.01282630182711352
-0.005522458429752066,0.01259590692283156
-0.005522118429752066,0.01256299336507706
-0.005521778429752066,0.01289212894262263
-0.005521438429752066,0.01305669673139584
-0.005521098429752066,0.01328709163567732
-0.005520758429752066,0.01318835096241365
-0.005520418429752066,0.01276047471160518
-0.005520078429752066,0.01292504250037719
-0.005519738429752066,0.01302378317364086
-0.005519398429752066,0.01341874586669483
-0.005519058429752066,0.01374788144424112
-0.005518718429752066,0.01394536279076846
-0.005518378429752066,0.01417575769504994
-0.005518038429752066,0.01453780683035049
-0.005517698429752066,0.01499859663891429
-0.005517358429752066,0.01437323904157884
-0.005517018429752066,0.01394536279076846
-0.005516678429752066,0.01315543740465909
-0.005516338429752066,0.01223385778753316
-0.005515998429752066,0.01190472220998592
-0.005515658429752066,0.01170724086345858
-0.005515318429752066,0.01187180865223106
-0.005514978429752066,0.0122996849030406
-0.005514638429752066,0.0122996849030406
-0.005514298429752066,0.01193763576774113
-0.005513958429752066,0.01124645105489478
-0.005513618429752066,0.01114771038163111
-0.005513278429752066,0.01154267307468507
-0.005512938429752066,0.01180598153672225
-0.005512598429752066,0.01210220355651326
-0.005512258429752066,0.01233259846079516
-0.005511918429752066,0.01239842557630427
-0.005511578429752066,0.0127604747116044
-0.005511238429752066,0.01282630182711352
-0.005510898429752066,0.01348457298220466
-0.005510558429752066,0.01325417807792276
-0.005510218429752066,0.01295795605813175
-0.005509878429752066,0.01233259846079516
-0.005509538429752066,0.0120692899987587
-0.005509198429752066,0.01167432730570402
-0.005508858429752066,0.01131227817040365
-0.005508518429752066,0.01118062393938566
-0.005508178429752066,0.01081857480408553
-0.005507838429752066,0.01022613076450219
-0.005507498429752066,0.00950203249390325
-0.005507158429752066,0.009271637589621349
-0.005506818429752066,0.008382971530246213
-0.005506478429752066,0.007230997008838809
-0.005506138429752066,0.007099342777820581
-0.005505798429752066,0.006868947873539459
-0.005505458429752066,0.007296824124347924
-0.005505118429752066,0.007329737682102481
-0.005504778429752066,0.00779052749066628
-0.005504438429752066,0.00779052749066628
-0.005504098429752066,0.008317144414739193
-0.005503758429752066,0.009041242685339809
-0.005503418429752066,0.009238724031866792
-0.005503078429752066,0.009534946051657807
-0.005502738429752066,0.009666600282674777
-0.005502398429752066,0.008975415569830336
-0.005502058429752066,0.008843761338812107
-0.005501718429752066,0.008415885088001847
-0.005501378429752066,0.007856354606175394
-0.005501038429752066,0.008514625761266537
-0.005500698429752066,0.009074156243095743
-0.005500358429752066,0.01002864941797616
-0.005500018429752066,0.01062109345755819
-0.005499678429752066,0.01104896970836665
-0.005499338429752066,0.01134519172815845
-0.005498998429752066,0.0127604747116044
-0.005498658429752066,0.0127933882693589
-0.005498318429752066,0.01341874586669555
-0.005497978429752066,0.01384662211750479
-0.005497638429752066,0.01420867125280426
-0.005497298429752066,0.01424158481055947
-0.005496958429752066,0.01404410346403213
-0.005496618429752066,0.01424158481055911
-0.005496278429752066,0.01473528817687783
-0.005495938429752066,0.01440615259933226
-0.005495598429752066,0.01332000519343385
-0.005495258429752066,0.01279338826935896
-0.005494918429752066,0.01134519172815845
-0.005494578429752066,0.009831168071451575
-0.005494238429752066,0.00881084778105755
-0.005493898429752066,0.008317144414739193
-0.005493558429752066,0.00775761393291274
-0.005493218429752066,0.007658873259648051
-0.005492878429752066,0.007955095279439066
-0.005492538429752066,0.008481712203511021
-0.005492198429752066,0.009008329127584893
-0.005491858429752066,0.009995735860221606
-0.005491518429752066,0.01091731547734753
-0.005491178429752066,0.01197054932549503
-0.005490838429752066,0.01256299336507706
-0.005490498429752066,0.01249716624956795
-0.005490158429752066,0.01279338826935896
-0.005489818429752066,0.01272756115384985
-0.005489478429752066,0.01200346288324959
-0.005489138429752066,0.01174015442121313
-0.005488798429752066,0.01157558663244035
-0.005488458429752066,0.01045652566878541
-0.005488118429752066,0.009699513840428737
-0.005487778429752066,0.008679193550039321
-0.005487438429752066,0.007823441048420837
-0.005487098429752066,0.007625959701892237
-0.005486758429752066,0.006934774989047795
-0.005486418429752066,0.007461391913120709
-0.005486078429752066,0.008679193550041656
-0.005485738429752066,0.009962822302467049
-0.005485398429752066,0.01164141374794946
-0.005485058429752066,0.01315543740466172
-0.005484718429752066,0.0146036339458596
-0.005484378429752066,0.01470237461912327
-0.005484038429752066,0.01447197971484131
-0.005483698429752066,0.01443906615708682
-0.005483358429752066,0.013682054328732
-0.005483018429752066,0.01292504250037599
-0.005482678429752066,0.01226677134528605
-0.005482338429752066,0.011378105285913
-0.005481998429752066,0.01068692057306569
-0.005481658429752066,0.009798254513694264
-0.005481318429752066,0.008448798645757422
-0.005480978429752066,0.007560132586382404
-0.005480638429752066,0.006473985180483996
-0.005480298429752066,0.005651146236620068
-0.005479958429752066,0.00561823267886581
-0.005479618429752066,0.005782800467638296
-0.005479278429752066,0.005519492005601839
-0.005478938429752066,0.001833173537098149
-0.005478598429752066,-0.006395215901547833
-0.005478258429752066,-0.02225955073924436
-0.005477918429752066,-0.04654975636206332
-0.005477578429752066,-0.07791637690220043
-0.005477238429752066,-0.1124097854289763
-0.005476898429752066,-0.1472981566487434
-0.005476558429752066,-0.1793559619017454
-0.005476218429752066,-0.2065425606070096
-0.005475878429752066,-0.2267843986260254
-0.005475538429752066,-0.2405422657674671
-0.005475198429752066,-0.2481452976087698
-0.005474858429752066,-0.2506796415558661
-0.005474518429752066,-0.2493630992456884
-0.005474178429752066,-0.2447552011600504
-0.005473838429752066,-0.2393573776883129
-0.005473498429752066,-0.2324126170020915
-0.005473158429752066,-0.2243817089099795
-0.005472818429752066,-0.2163178872601277
-0.005472478429752066,-0.2083857198412648
-0.005472138429752066,-0.2006181202111893
-0.005471798429752066,-0.1928176070233735
-0.005471458429752066,-0.1853462294130748
-0.005471118429752066,-0.1778748518027904
-0.005470778429752066,-0.1706667826545555
-0.005470438429752066,-0.1639524168726127
-0.005470098429752066,-0.1576659273414923
-0.005469758429752066,-0.1507869937707899
-0.005469418429752066,-0.1443688500086512
-0.005469078429752066,-0.1386089774016037
-0.005468738429752066,-0.133013672583329
-0.005468398429752066,-0.1271221457452633
-0.005468058429752066,-0.1218559765045342
-0.005467718429752066,-0.1163923259172777
-0.005467378429752066,-0.1127389210065219
-0.005467038429752066,-0.1093488245578025
-0.005466698429752066,-0.1060245552245922
-0.005466358429752066,-0.1023382367560753
-0.005466018429752066,-0.09875065896083507
-0.005465678429752066,-0.09453772356825177
-0.005465338429752066,-0.08940320855853218
-0.005464998429752066,-0.08463074268413007
-0.005464658429752066,-0.08018741238726487
-0.005464318429752066,-0.07620487189895772
-0.005463978429752066,-0.07304517035452598
-0.005463638429752066,-0.07044499929191597
-0.005463298429752066,-0.06804230957582874
-0.005462958429752066,-0.06554087918648696
-0.005462618429752066,-0.06346732504794986
-0.005462278429752066,-0.06093298110084369
-0.005461938429752066,-0.05803658801844794
-0.005461598429752066,-0.05490980003176501
-0.005461258429752066,-0.05184883916058593
-0.005460918429752066,-0.04895244607819017
-0.005460578429752066,-0.04671432415088029
-0.005460238429752066,-0.04417998020377645
-0.005459898429752066,-0.0425672158738061
-0.005459558429752066,-0.04108610577485102
-0.005459218429752066,-0.03960499567589302
-0.005458878429752066,-0.03799223134592265
-0.005458538429752066,-0.03687317038226771
-0.005458198429752066,-0.03483252980148301
-0.005457858429752066,-0.03364764172232112
-0.005457518429752066,-0.03223235873887517
-0.005457178429752066,-0.03065250796665929
-0.005456838429752066,-0.02920431142545591
-0.005456498429752066,-0.02792068267302818
-0.005456158429752066,-0.02634083190081231
-0.005455818429752066,-0.02564964718796374
-0.005455478429752066,-0.02479389468634526
-0.005455138429752066,-0.02416853708900981
-0.005454798429752066,-0.02347735237616297
-0.005454458429752066,-0.02258868631678993
-0.005454118429752066,-0.02120631689110105
-0.005453778429752066,-0.01896819496378865
-0.005453438429752066,-0.01715794928728801
-0.005453098429752066,-0.01511730870650918
-0.005452758429752066,-0.01301084101021381
-0.005452418429752066,-0.01189178004655887
-0.005452078429752066,-0.01133224956473242
-0.005451738429752066,-0.01024610215883101
-0.005451398429752066,-0.009982793696794558
-0.005451058429752066,-0.009192868310686624
-0.005450718429752066,-0.008567510713348603
-0.005450378429752066,-0.008567510713348603
-0.005450038429752066,-0.008468770040085111
-0.005449698429752066,-0.009094127637421515
-0.005449358429752066,-0.009456176772721644
-0.005449018429752066,-0.009456176772721644
-0.005448678429752066,-0.00939034965721253
-0.005448338429752066,-0.008764992059875945
-0.005447998429752066,-0.007645931096221003
-0.005447658429752066,-0.007020573498884419
-0.005447318429752066,-0.00494701936034732
-0.005446978429752066,-0.003005119452828451
-0.005446638429752066,-0.002215194066719081
-0.005446298429752066,-0.001030305987555025
-0.005445958429752066,-0.0004378619479729968
-0.005445618429752066,-0.0002403806014462528
-0.005445278429752066,-0.0005695161789912252
-0.005444938429752066,-0.0006682568522548965
-0.005444598429752066,-0.001227787334081709
-0.005444258429752066,-0.0008657381987822392
-0.005443918429752066,-0.0004378619479729968
-0.005443578429752066,0.0002533227648742591
-0.005443238429752066,0.001109075266491187
-0.005442898429752066,0.001997741325864229
-0.005442558429752066,0.002491444692184023
-0.005442218429752066,0.003281370078291956
-0.005441878429752066,0.003742159886855756
-0.005441538429752066,0.003807987002366068
-0.005441198429752066,0.004466258157456012
-0.005440858429752066,0.004663739503983355
-0.005440518429752066,0.004630825946228797
-0.005440178429752066,0.004630825946228797
-0.005439838429752066,0.004861220850510698
-0.005439498429752066,0.004433344599701934
-0.005439158429752066,0.004696653061737912
-0.005438818429752066,0.004630825946228797
-0.005438478429752066,0.004334603926436826
-0.005438138429752066,0.00380798700236487
-0.005437798429752066,0.003840900560119427
-0.005437458429752066,0.003972554791137596
-0.005437118429752066,0.003939641233383098
-0.005436778429752066,0.00403838190664677
-0.005436438429752066,0.004532085272964228
-0.005436098429752066,0.005453664890092726
-0.005435758429752066,0.006408158064974882
-0.005435418429752066,0.007165169893328317
-0.005435078429752066,0.008317144414739193
-0.005434738429752066,0.00904124268533945
-0.005434398429752066,0.00894250201207596
-0.005434058429752066,0.008646279992284765
-0.005433718429752066,0.008251317299230079
-0.005433378429752066,0.007494305470876644
-0.005433038429752066,0.006803120758029567
-0.005432698429752066,0.006177763160692982
-0.005432358429752066,0.005881541140902506
-0.005432018429752066,0.005848627583147411
-0.005431678429752066,0.006572725853747667
-0.005431338429752066,0.007132256335574121
-0.005430998429752066,0.007329737682102481
-0.005430658429752066,0.007988008837193623
-0.005430318429752066,0.008975415569828541
-0.005429978429752066,0.00904124268533945
-0.005429638429752066,0.01016030364899439
-0.005429298429752066,0.01062109345755735
-0.005428958429752066,0.01068692057306731
-0.005428618429752066,0.01071983413082186
-0.005428278429752066,0.01085148836183985
-0.005427938429752066,0.01025904432225806
-0.005427598429752066,0.00973242739818515
-0.005427258429752066,0.009633686724921478
-0.005426918429752066,0.008909588454321223
-0.005426578429752066,0.009633686724921478
-0.005426238429752066,0.01029195788001262
-0.005425898429752066,0.01062109345755819
-0.005425558429752066,0.01058817989980363
-0.005425218429752066,0.01012739009123984
-0.005424878429752066,0.009436205378394135
-0.005424538429752066,0.008185490183720966
-0.005424198429752066,0.006868947873538681
-0.005423858429752066,0.00677020720027501
-0.005423518429752066,0.00677020720027501
-0.005423178429752066,0.006506898738238553
-0.005422838429752066,0.006638552969256243
-0.005422498429752066,0.006342330949465767
-0.005422158429752066,0.00630941739171121
-0.005421818429752066,0.006671466527012236
-0.005421478429752066,0.007165169893329695
-0.005421138429752066,0.008251317299230079
-0.005420798429752066,0.009864081629204515
-0.005420458429752066,0.01048943922653996
-0.005420118429752066,0.01131227817040389
-0.005419778429752066,0.01210220355651452
-0.005419438429752066,0.01279338826935896
-0.005419098429752066,0.01282630182711352
-0.005418758429752066,0.01246425269181285
-0.005418418429752066,0.01216803067202238
-0.005418078429752066,0.01177306797896769
-0.005417738429752066,0.01150975951693099
-0.005417398429752066,0.011378105285913
-0.005417058429752066,0.01141101884366756
-0.005416718429752066,0.01157558663244047
-0.005416378429752066,0.01164141374794946
-0.005416038429752066,0.01164141374794946
-0.005415698429752066,0.01127936461264832
-0.005415358429752066,0.01071983413082186
-0.005415018429752066,0.01048943922653996
-0.005414678429752066,0.01029195788001298
-0.005414338429752066,0.01039069855327629
-0.005413998429752066,0.01118062393938566
-0.005413658429752066,0.01170724086345762
