Analysis/plots/wrd01_d2s01/non compliant measurements/cmb12_ch04.csv

#Digilent WaveForms Oscilloscope Acquisition
#Device Name: ADP3450
#Serial Number: SN:210018B9D9B0
#Date Time: 2024-08-07 10:55:54.473.704.920
#Sample rate: 2.94118e+06Hz
#Samples: 32768
#Trigger: Source: Channel 3 Type: Edge Condition: Rising Level: 0 V Hyst.: Auto HoldOff: 0 s
#Channel 3: Range: 200 mV/div Offset: 0 V Attenuation: 1 X Coupling: DC Bandwidth: 0 Hz Sample Mode: Average

Time (s),Channel 3 (V)
-0.005570420357142857,0.01213511711426782
-0.005570080357142857,0.01203637644100397
-0.005569740357142857,0.01193763576774048
-0.005569400357142857,0.01131227817040389
-0.005569060357142857,0.01062109345755741
-0.005568720357142857,0.01019321720674895
-0.005568380357142857,0.009403291820639578
-0.005568040357142857,0.007790527490664484
-0.005567700357142857,0.006803120758029567
-0.005567360357142857,0.005684059794374625
-0.005567020357142857,0.004433344599700737
-0.005566680357142857,0.00403838190664677
-0.005566340357142857,0.004104209022155884
-0.005566000357142857,0.004630825946229575
-0.005565660357142857,0.00505870219703804
-0.005565320357142857,0.005618232678865511
-0.005564980357142857,0.006111936045184166
-0.005564640357142857,0.006276503833956653
-0.005564300357142857,0.007066429220066024
-0.005563960357142857,0.006967688546801754
-0.005563620357142857,0.006638552969256781
-0.005563280357142857,0.00700060210455691
-0.005562940357142858,0.007724700375155848
-0.005562600357142857,0.008679193550039321
-0.005562260357142857,0.009864081629203377
-0.005561920357142858,0.01131227817040126
-0.005561580357142857,0.01220094422977693
-0.005561240357142857,0.01302378317364086
-0.005560900357142858,0.01312252384690435
-0.005560560357142857,0.01318835096241365
-0.005560220357142857,0.01318835096241365
-0.005559880357142858,0.01302378317364116
-0.005559540357142857,0.01259590692283162
-0.005559200357142857,0.01187180865223136
-0.005558860357142857,0.01118062393938692
-0.005558520357142857,0.01045652566878541
-0.005558180357142857,0.01006156297573072
-0.005557840357142857,0.009238724031868289
-0.005557500357142857,0.009337464705130465
-0.005557160357142857,0.008646279992284765
-0.005556820357142857,0.008218403741476301
-0.005556480357142857,0.008481712203511979
-0.005556140357142857,0.008350057972493751
-0.005555800357142857,0.009600773167164647
-0.005555460357142857,0.01295795605813175
-0.005555120357142857,0.02072555568820722
-0.005554780357142857,0.03589870581303045
-0.005554440357142857,0.05851031999043878
-0.005554100357142857,0.08803378129627651
-0.005553760357142857,0.1218689186679612
-0.005553420357142857,0.1570535119075828
-0.005553080357142857,0.1903949459129491
-0.005552740357142857,0.2190955682749229
-0.005552400357142857,0.242200885818622
-0.005552060357142857,0.2583614426761096
-0.005551720357142857,0.2687950404843041
-0.005551380357142857,0.2731067165501499
-0.005551040357142857,0.27244844539506
-0.005550700357142857,0.2690583489463406
-0.005550360357142857,0.2631009949927519
-0.005550020357142857,0.2554979631514631
-0.005549680357142857,0.2481253262144423
-0.005549340357142857,0.2402918994688432
-0.005549000357142857,0.2323268184922549
-0.005548660357142857,0.2244604781889157
-0.005548320357142857,0.2173182361561649
-0.005547980357142857,0.21076843816302
-0.005547640357142857,0.2046136028629178
-0.005547300357142857,0.1984916811205593
-0.005546960357142857,0.1925343271669953
-0.005546620357142857,0.1861820105203658
-0.005546280357142857,0.179566385411689
-0.005545940357142857,0.1736419450158795
-0.005545600357142857,0.167882072408832
-0.005545260357142857,0.1625829896103368
-0.005544920357142857,0.1562635865214734
-0.005544580357142857,0.1498454427593348
-0.005544240357142857,0.1431310769773955
-0.005543900357142857,0.1378319941789214
-0.005543560357142857,0.1327962198424742
-0.005543220357142857,0.1279579268525461
-0.005542880357142857,0.12344876944018
-0.005542540357142857,0.1191041798165784
-0.005542200357142858,0.1148583308662483
-0.005541860357142857,0.1107112225891664
-0.005541520357142857,0.1063995465233194
-0.005541180357142858,0.1019891297842167
-0.005540840357142857,0.09820407064243467
-0.005540500357142857,0.09491271486697894
-0.005540160357142858,0.09214797601560118
-0.005539820357142857,0.0895807185107407
-0.005539480357142857,0.0871122016791489
-0.005539140357142858,0.08451203061654362
-0.005538800357142857,0.08191185955392888
-0.005538460357142857,0.07931168849131887
-0.005538120357142857,0.07694191233299509
-0.005537780357142857,0.07486835819445367
-0.005537440357142857,0.07292645828693481
-0.005537100357142857,0.07124786684145543
-0.005536760357142857,0.06940470760719719
-0.005536420357142857,0.06831856020129681
-0.005536080357142857,0.06663996875581743
-0.005535740357142857,0.06482972307931376
-0.005535400357142857,0.06315113163383135
-0.005535060357142857,0.06064970124448955
-0.005534720357142857,0.05808244373962954
-0.005534380357142857,0.05551518623477408
-0.005534040357142857,0.05311249651869579
-0.005533700357142857,0.05087437459138153
-0.005533360357142857,0.04876790689508988
-0.005533020357142857,0.04781341372020773
-0.005532680357142857,0.04689183410308012
-0.005532340357142857,0.0462993900634981
-0.005532000357142857,0.04527906977310683
-0.005531660357142857,0.0439954410206791
-0.005531320357142857,0.04234976313295125
-0.005530980357142857,0.0403091225521687
-0.005530640357142857,0.0391571480307592
-0.005530300357142857,0.03836722264464983
-0.005529960357142857,0.03751147014303135
-0.005529620357142857,0.03645823629488217
-0.005529280357142857,0.03461507706063032
-0.005528940357142857,0.03273900426862057
-0.005528600357142857,0.0308300179188529
-0.005528260357142857,0.02898685868460106
-0.005527920357142857,0.02770322993217333
-0.005527580357142857,0.0276044892589099
-0.005527240357142857,0.02773614348992789
-0.005526900357142857,0.02796653839420979
-0.005526560357142857,0.0281969332984927
-0.005526220357142857,0.02875646378031916
-0.005525880357142857,0.02842732820277359
-0.005525540357142857,0.02773614348992621
-0.005525200357142857,0.02681456387280029
-0.005524860357142857,0.02562967579363623
-0.005524520357142857,0.0246751826187524
-0.005524180357142857,0.02375360300162648
-0.005523840357142857,0.02256871492246242
-0.005523500357142857,0.02135091328554184
-0.005523160357142857,0.02026476587964342
-0.005522820357142857,0.01937609982027038
-0.005522480357142857,0.01927735914700599
-0.005522140357142857,0.01888239645395202
-0.005521800357142857,0.01901405068497026
-0.005521460357142857,0.01907987780047901
-0.005521120357142857,0.01888239645395202
-0.005520780357142857,0.0192115320314976
-0.005520440357142858,0.01967232184006056
-0.005520100357142857,0.01970523539781595
-0.005519760357142857,0.02049516078392532
-0.005519420357142858,0.02121925905452426
-0.005519080357142857,0.02161422174758026
-0.005518740357142857,0.02102177770799824
-0.005518400357142858,0.0202318523218903
-0.005518060357142857,0.01931027270476127
-0.005517720357142857,0.01842160664538823
-0.005517380357142858,0.01694049654643585
-0.005517040357142857,0.01615057116032378
-0.005516700357142857,0.01605183048706011
-0.005516360357142857,0.01545938644747916
-0.005516020357142857,0.01476820173463239
-0.005515680357142857,0.01450489327259593
-0.005515340357142857,0.01387953567526048
-0.005515000357142857,0.01328709163567732
-0.005514660357142857,0.0125300798073225
-0.005514320357142857,0.01200346288325055
-0.005513980357142857,0.0120692899987587
-0.005513640357142857,0.01150975951693123
-0.005513300357142857,0.01111479682387727
-0.005512960357142857,0.01055526634204908
-0.005512620357142857,0.01052235278429452
-0.005512280357142857,0.00983116807144882
-0.005511940357142857,0.009962822302467049
-0.005511600357142857,0.01025904432225806
-0.005511260357142857,0.01088440191959465
-0.005510920357142857,0.01174015442121313
-0.005510580357142857,0.01315543740465909
-0.005510240357142857,0.01463654750361416
-0.005509900357142857,0.0164467931801148
-0.005509560357142857,0.01723671856622417
-0.005509220357142857,0.01825703885661544
-0.005508880357142857,0.0184545202031426
-0.005508540357142857,0.01835577952987911
-0.005508200357142857,0.01796081683682443
-0.005507860357142857,0.01720380500846764
-0.005507520357142857,0.01611765760256923
-0.005507180357142857,0.01486694240789606
-0.005506840357142857,0.01341874586669327
-0.005506500357142857,0.01216803067202238
-0.005506160357142857,0.01104896970836743
-0.005505820357142857,0.009502032493902232
-0.005505480357142857,0.008942502012075779
-0.005505140357142857,0.008284230856984636
-0.005504800357142857,0.008317144414740749
-0.005504460357142857,0.009172896916357679
-0.005504120357142857,0.01029195788001262
-0.005503780357142857,0.01131227817040563
-0.005503440357142857,0.01226677134528605
-0.005503100357142857,0.0129908696158863
-0.005502760357142857,0.01332000519343205
-0.005502420357142857,0.01341874586669555
-0.005502080357142857,0.01341874586669555
-0.005501740357142857,0.01361622721322355
-0.005501400357142857,0.01397827634852302
-0.005501060357142857,0.01407701702178669
-0.005500720357142857,0.01410993057954094
-0.005500380357142857,0.01394536279076846
-0.005500040357142857,0.013682054328732
-0.005499700357142858,0.01269464759609708
-0.005499360357142857,0.01180598153672225
-0.005499020357142857,0.01035778499552173
-0.005498680357142858,0.008580452876778884
-0.005498340357142857,0.007691786817402609
-0.005498000357142857,0.007296824124347924
-0.005497660357142858,0.006803120758030465
-0.005497320357142857,0.006737293642520453
-0.005496980357142857,0.007395564797611595
-0.005496640357142858,0.008415885088001009
-0.005496300357142857,0.009633686724921478
-0.005495960357142857,0.0118388950944768
-0.005495620357142857,0.0130896102891477
-0.005495280357142857,0.0139124492330139
-0.005494940357142857,0.01417575769505036
-0.005494600357142857,0.01315543740466094
-0.005494260357142857,0.01167432730570402
-0.005493920357142857,0.01058817989980363
-0.005493580357142857,0.009436205378396231
-0.005493240357142857,0.009469118936148692
-0.005492900357142857,0.01006156297573072
-0.005492560357142857,0.01095022903510215
-0.005492220357142857,0.0118388950944768
-0.005491880357142857,0.01233259846079516
-0.005491540357142857,0.01243133913405865
-0.005491200357142857,0.01239842557630427
-0.005490860357142857,0.01190472220998592
-0.005490520357142857,0.01121353749714022
-0.005490180357142857,0.01104896970836743
-0.005489840357142857,0.01134519172815845
-0.005489500357142857,0.01144393240142212
-0.005489160357142857,0.01164141374794946
-0.005488820357142857,0.01236551201854972
-0.005488480357142857,0.01295795605813175
-0.005488140357142857,0.01315543740465981
-0.005487800357142857,0.01355040009771377
-0.005487460357142857,0.01341874586669555
-0.005487120357142857,0.01282630182711334
-0.005486780357142857,0.01272756115384985
-0.005486440357142857,0.01200346288324959
-0.005486100357142857,0.0112793646126482
-0.005485760357142857,0.01065400701531275
-0.005485420357142857,0.01016030364899439
-0.005485080357142857,0.00927163758962081
-0.005484740357142857,0.008975415569830336
-0.005484400357142857,0.009172896916357679
-0.005484060357142857,0.009798254513695162
-0.005483720357142857,0.01029195788001262
-0.005483380357142857,0.01098314259285832
-0.005483040357142857,0.01147684595917739
-0.005482700357142857,0.01187180865223136
-0.005482360357142857,0.01226677134528605
-0.005482020357142857,0.01226677134528497
-0.005481680357142857,0.01167432730570402
-0.005481340357142857,0.01131227817040389
-0.005481000357142857,0.01048943922653853
-0.005480660357142857,0.009699513840430593
-0.005480320357142857,0.009469118936148692
-0.005479980357142857,0.009205810474113433
-0.005479640357142857,0.009864081629203377
-0.005479300357142857,0.01012739009123984
-0.005478960357142858,0.01065400701531179
-0.005478620357142857,0.01131227817040389
-0.005478280357142857,0.01200346288324959
-0.005477940357142858,0.01220094422977657
-0.005477600357142857,0.01246425269181339
-0.005477260357142857,0.01266173403834073
-0.005476920357142858,0.01249716624956825
-0.005476580357142857,0.01243133913405883
-0.005476240357142857,0.01213511711426782
-0.005475900357142858,0.01210220355651332
-0.005475560357142857,0.0116085001901949
-0.005475220357142857,0.01101605615061288
-0.005474880357142857,0.01029195788001394
-0.005474540357142857,0.009469118936148692
-0.005474200357142857,0.008448798645757422
-0.005473860357142857,0.007889268163930969
-0.005473520357142857,0.007296824124347924
-0.005473180357142857,0.007428478355366152
-0.005472840357142857,0.007625959701893135
-0.005472500357142857,0.008086749510457293
-0.005472160357142857,0.008777934223302994
-0.005471820357142857,0.009798254513692407
-0.005471480357142857,0.01062109345755819
-0.005471140357142857,0.01104896970836743
-0.005470800357142857,0.01124645105489442
-0.005470460357142857,0.01085148836184009
-0.005470120357142857,0.01035778499552173
-0.005469780357142857,0.009205810474112236
-0.005469440357142857,0.009074156243094007
-0.005469100357142857,0.008646279992284765
-0.005468760357142857,0.009534946051657807
-0.005468420357142857,0.009995735860221606
-0.005468080357142857,0.01048943922653996
-0.005467740357142857,0.01039069855327629
-0.005467400357142857,0.01058817989980363
-0.005467060357142857,0.01048943922653996
-0.005466720357142857,0.009864081629203377
-0.005466380357142857,0.0096336867249201
-0.005466040357142857,0.008876674896566664
-0.005465700357142857,0.007823441048420837
-0.005465360357142857,0.007263910566593007
-0.005465020357142857,0.007066429220066024
-0.005464680357142857,0.007395564797611595
-0.005464340357142857,0.007691786817404405
-0.005464000357142857,0.008679193550039321
-0.005463660357142857,0.009436205378394135
-0.005463320357142857,0.00992990874471357
-0.005462980357142857,0.01052235278429452
-0.005462640357142857,0.01095022903510376
-0.005462300357142857,0.01118062393938476
-0.005461960357142857,0.01068692057306731
-0.005461620357142857,0.01068692057306731
-0.005461280357142857,0.01078566124633181
-0.005460940357142857,0.01124645105489478
-0.005460600357142857,0.01170724086345858
-0.005460260357142857,0.01147684595917799
-0.005459920357142857,0.01220094422977693
-0.005459580357142857,0.01180598153672225
-0.005459240357142857,0.01180598153672225
-0.005458900357142857,0.01180598153672225
-0.005458560357142857,0.01187180865223136
-0.005458220357142857,0.01197054932549641
-0.005457880357142857,0.01272756115384985
-0.005457540357142857,0.01239842557630427
-0.005457200357142858,0.01193763576774131
-0.005456860357142857,0.01098314259285832
-0.005456520357142857,0.009995735860221606
-0.005456180357142858,0.01022613076450309
-0.005455840357142857,0.01062109345755819
-0.005455500357142857,0.01088440191959465
-0.005455160357142858,0.01075274768857666
-0.005454820357142857,0.01088440191959465
-0.005454480357142857,0.01114771038163111
-0.005454140357142858,0.01048943922654116
-0.005453800357142857,0.009699513840430593
-0.005453460357142857,0.009008329127584893
-0.005453120357142857,0.009337464705129866
-0.005452780357142857,0.009337464705130465
-0.005452440357142857,0.01002864941797616
-0.005452100357142857,0.01131227817040156
-0.005451760357142857,0.01256299336507706
-0.005451420357142857,0.01325417807792276
-0.005451080357142857,0.01358331365546773
-0.005450740357142857,0.01335291875118643
-0.005450400357142857,0.01259590692283162
-0.005450060357142857,0.01213511711426866
-0.005449720357142857,0.011378105285913
-0.005449380357142857,0.01147684595917668
-0.005449040357142857,0.01144393240142218
-0.005448700357142857,0.01098314259285832
-0.005448360357142857,0.01085148836184009
-0.005448020357142857,0.01006156297573072
-0.005447680357142857,0.009896995186957936
-0.005447340357142857,0.01002864941797616
-0.005447000357142857,0.01006156297573072
-0.005446660357142857,0.01121353749714022
-0.005446320357142857,0.01124645105489478
-0.005445980357142857,0.01190472220998592
-0.005445640357142857,0.01147684595917446
-0.005445300357142857,0.01025904432225806
-0.005444960357142857,0.009600773167166921
-0.005444620357142857,0.009139983358602164
-0.005444280357142857,0.008613366434530208
-0.005443940357142857,0.008745020665548437
-0.005443600357142857,0.009172896916358099
-0.005443260357142857,0.009403291820639578
-0.005442920357142857,0.009765340955939707
-0.005442580357142857,0.009732427398186227
-0.005442240357142857,0.01032487143776718
-0.005441900357142857,0.01095022903510376
-0.005441560357142857,0.0114439324014232
-0.005441220357142857,0.01203637644100415
-0.005440880357142857,0.01216803067202238
-0.005440540357142857,0.01147684595917518
-0.005440200357142857,0.01065400701531275
-0.005439860357142857,0.00950203249390325
-0.005439520357142857,0.008613366434529849
-0.005439180357142857,0.008415885088002865
-0.005438840357142857,0.008547539319021094
-0.005438500357142857,0.00923872403186793
-0.005438160357142857,0.009864081629203377
-0.005437820357142857,0.01085148836184009
-0.005437480357142857,0.01134519172815947
-0.005437140357142857,0.01190472220998592
-0.005436800357142857,0.01203637644100415
-0.005436460357142858,0.01213511711426764
-0.005436120357142857,0.0118388950944768
-0.005435780357142857,0.01118062393938566
-0.005435440357142858,0.01035778499552323
-0.005435100357142857,0.008942502012075779
-0.005434760357142857,0.007263910566593366
-0.005434420357142858,0.006375244507221941
-0.005434080357142857,0.005651146236620068
-0.005433740357142857,0.005322010659074497
-0.005433400357142858,0.00361050565584064
-0.005433060357142857,-0.001853144931418952
-0.005432720357142857,-0.01429446976264154
-0.005432380357142857,-0.03420717220411237
-0.005432040357142857,-0.06142668446716731
-0.005431700357142857,-0.09364905750887872
-0.005431360357142857,-0.1275171084382564
-0.005431020357142857,-0.1594103459024838
-0.005430680357142857,-0.1876830920136484
-0.005430340357142857,-0.2105909282107785
-0.005430000357142857,-0.2272122748768715
-0.005429660357142857,-0.2375142184540479
-0.005429320357142857,-0.2415954996156055
-0.005428980357142857,-0.241891721635404
-0.005428640357142857,-0.2389953285530029
-0.005428300357142857,-0.2338608135433013
-0.005427960357142857,-0.2272122748768715
-0.005427620357142857,-0.2202016870751508
-0.005427280357142857,-0.2127632230226209
-0.005426940357142857,-0.205620980989882
-0.005426600357142857,-0.1982483440528612
-0.005426260357142857,-0.1914681511554225
-0.005425920357142857,-0.1850500073932838
-0.005425580357142857,-0.1786318636311452
-0.005425240357142857,-0.1719174978492155
-0.005424900357142857,-0.1654335269715678
-0.005424560357142857,-0.1598382221532931
-0.005424220357142857,-0.1533542512756453
-0.005423880357142857,-0.1473639837643058
-0.005423540357142857,-0.1418015925037958
-0.005423200357142857,-0.1356796707614482
-0.005422860357142857,-0.1298210574811259
-0.005422520357142857,-0.1236991357387894
-0.005422180357142857,-0.1181038309205147
-0.005421840357142857,-0.1130351430263039
-0.005421500357142857,-0.1080981093631293
-0.005421160357142857,-0.1039510010860551
-0.005420820357142857,-0.09931018944265643
-0.005420480357142857,-0.09595300655169772
-0.005420140357142857,-0.09183881183237808
-0.005419800357142857,-0.08864619673018143
-0.005419460357142857,-0.08611185278308514
-0.005419120357142857,-0.08341294104721148
-0.005418780357142857,-0.0813723004664242
-0.005418440357142857,-0.07877212940381892
-0.005418100357142857,-0.07620487189896347
-0.005417760357142857,-0.07307808391227467
-0.005417420357142857,-0.06985255525233394
-0.005417080357142857,-0.06669285370789646
-0.005416740357142857,-0.06317110302815154
-0.005416400357142857,-0.05915564898210288
-0.005416060357142857,-0.05533767628257425
-0.005415720357142857,-0.05277041877771473
-0.005415380357142857,-0.05053229685040891
-0.005415040357142857,-0.04875496473166283
-0.005414700357142858,-0.0479321257878004
-0.005414360357142857,-0.04730676819046232
-0.005414020357142857,-0.04566109030273446
-0.005413680357142858,-0.04414706664602759
-0.005413340357142857,-0.04236973452727875
-0.005413000357142857,-0.04052657529302355
-0.005412660357142858,-0.03855176182775372
