Analysis/plots/wrd01_d2s01/non compliant measurements/cmb10_ch25.csv

#Digilent WaveForms Oscilloscope Acquisition
#Device Name: ADP3450
#Serial Number: SN:210018B9D9B0
#Date Time: 2024-08-07 11:50:31.952.601.510
#Sample rate: 2.94118e+06Hz
#Samples: 32768
#Trigger: Source: Channel 3 Type: Edge Condition: Rising Level: 0 V Hyst.: Auto HoldOff: 0 s
#Channel 3: Range: 200 mV/div Offset: 0 V Attenuation: 1 X Coupling: DC Bandwidth: 0 Hz Sample Mode: Average

Time (s),Channel 3 (V)
-0.005570487142857143,0.008382971530248308
-0.005570147142857143,0.009534946051658765
-0.005569807142857143,0.01006156297573072
-0.005569467142857143,0.01025904432225806
-0.005569127142857143,0.00989699518695596
-0.005568787142857143,0.00881084778105755
-0.005568447142857143,0.007823441048420837
-0.005568107142857143,0.007263910566591211
-0.005567767142857143,0.00607902248742931
-0.005567427142857143,0.005256183543565383
-0.005567087142857143,0.00495996152377407
-0.005566747142857143,0.004795393735001583
-0.005566407142857143,0.004696653061737912
-0.005566067142857143,0.004992875081529644
-0.005565727142857143,0.005387837774583611
-0.005565387142857143,0.005585319121110954
-0.005565047142857143,0.005782800467639074
-0.005564707142857143,0.006210676718447538
-0.005564367142857143,0.005782800467638296
-0.005564027142857143,0.005585319121110595
-0.005563687142857143,0.005387837774583611
-0.005563347142857143,0.004729566619492469
-0.005563007142857144,0.004104209022157022
-0.005562667142857143,0.003215542962782842
-0.005562327142857143,0.002590185365446257
-0.005561987142857144,0.001964827768110809
-0.005561647142857143,0.0025572718076917
-0.005561307142857143,0.002524358249937143
-0.005560967142857144,0.003413024309308569
-0.005560627142857143,0.004071295464401327
-0.005560287142857143,0.004499171715210569
-0.005559947142857144,0.005190356428055012
-0.005559607142857143,0.005190356428056269
-0.005559267142857143,0.006177763160692982
-0.005558927142857144,0.007823441048417843
-0.005558587142857143,0.01019321720674895
-0.005558247142857143,0.01536064577421441
-0.005557907142857144,0.02635377406421649
-0.005557567142857143,0.04356756476986986
-0.005557227142857143,0.0687793500098606
-0.005556887142857144,0.09902690958624358
-0.005556547142857143,0.1324670842649286
-0.005556207142857143,0.1667630114451771
-0.005555867142857144,0.1978334099654225
-0.005555527142857143,0.2246250459776885
-0.005555187142857143,0.2450643653432684
-0.005554847142857144,0.2590855409466843
-0.005554507142857143,0.2673139303853491
-0.005554167142857143,0.2702432370255046
-0.005553827142857144,0.269025435388586
-0.005553487142857143,0.2649112406692664
-0.005553147142857143,0.2587564053691642
-0.005552807142857144,0.2517787311251981
-0.005552467142857143,0.2439123908218589
-0.005552127142857143,0.2361447911917835
-0.005551787142857144,0.2281797102151807
-0.005551447142857143,0.2205766783738654
-0.005551107142857143,0.2136319176876664
-0.005550767142857144,0.2066213298859458
-0.005550427142857143,0.1995778285264583
-0.005550087142857143,0.1928305491867863
-0.005549747142857143,0.186313664751384
-0.005549407142857143,0.1796322125271975
-0.005549067142857143,0.1733457229960885
-0.005548727142857143,0.1668946656761953
-0.005548387142857143,0.1617601506664735
-0.005548047142857143,0.1557369695974005
-0.005547707142857143,0.1495821342972983
-0.005547367142857143,0.1437564345747322
-0.005547027142857143,0.1385231788917671
-0.005546687142857143,0.1336848859018472
-0.005546347142857143,0.1292415556049755
-0.005546007142857143,0.1256868913674898
-0.005545667142857143,0.1219018322257158
-0.005545327142857143,0.1183142544304619
-0.005544987142857143,0.1143646274999222
-0.005544647142857143,0.1100200378763206
-0.005544307142857143,0.1053463126751657
-0.005543967142857143,0.1010346366093266
-0.005543627142857143,0.0970850096787797
-0.005543287142857143,0.0931024691904726
-0.005542947142857143,0.08997568120379537
-0.005542607142857143,0.08661849831283056
-0.005542267142857144,0.08319548830636285
-0.005541927142857143,0.07957499695335532
-0.005541587142857143,0.07555954290729935
-0.005541247142857144,0.07230110068960414
-0.005540907142857143,0.06933888049168807
-0.005540567142857143,0.06673870942907806
-0.005540227142857144,0.06499429086808971
-0.005539887142857143,0.06311821807607679
-0.005539547142857143,0.06153836730385804
-0.005539207142857144,0.05976103518511518
-0.005538867142857143,0.05739125902678384
-0.005538527142857143,0.05591014892782877
-0.005538187142857144,0.05469234729091237
-0.005537847142857143,0.05370494055827345
-0.005537507142857143,0.05169721353524546
-0.005537167142857144,0.05028193055180208
-0.005536827142857143,0.04817546285550785
-0.005536487142857143,0.04613482227472531
-0.005536147142857144,0.04462079861801844
-0.005535807142857143,0.04350173765436074
-0.005535467142857143,0.0421522817864239
-0.005535127142857144,0.04165857842010644
-0.005534787142857143,0.0405395174564506
-0.005534447142857143,0.04040786322543238
-0.005534107142857144,0.03978250562809692
-0.005533767142857143,0.03932171581953199
-0.005533427142857143,0.03859761754893173
-0.005533087142857144,0.03718233456548577
-0.005532747142857143,0.03593161937081261
-0.005532407142857143,0.03372641100125728
-0.005532067142857144,0.03198199244026576
-0.005531727142857143,0.03020466032151967
-0.005531387142857143,0.02842732820277359
-0.005531047142857144,0.0275715757011551
-0.005530707142857143,0.0275715757011551
-0.005530367142857143,0.02727535368136409
-0.005530027142857144,0.02763740281666422
-0.005529687142857143,0.0278019706054367
-0.005529347142857143,0.02763740281666422
-0.005529007142857143,0.02701204521932763
-0.005528667142857143,0.02569550290914271
-0.005528327142857143,0.02424730636794483
-0.005527987142857143,0.02276619626898976
-0.005527647142857143,0.02128508617003176
-0.005527307142857143,0.0196723218400614
-0.005526967142857143,0.01842160664538823
-0.005526627142857143,0.01723671856622303
-0.005526287142857143,0.01661136096888758
-0.005525947142857143,0.01592017625604189
-0.005525607142857143,0.01545938644747749
-0.005525267142857143,0.01513025086993251
-0.005524927142857143,0.0157556084672691
-0.005524587142857143,0.01605183048706029
-0.005524247142857143,0.01615057116032378
-0.005523907142857143,0.0157556084672691
-0.005523567142857143,0.01565686779400471
-0.005523227142857143,0.01526190510095074
-0.005522887142857143,0.01410993057954124
-0.005522547142857143,0.01361622721322193
-0.005522207142857143,0.01308961028914997
-0.005521867142857143,0.01279338826935896
-0.005521527142857143,0.01246425269181489
-0.005521187142857143,0.01328709163567732
-0.005520847142857143,0.01325417807792276
-0.005520507142857144,0.01322126452016826
-0.005520167142857143,0.01282630182711352
-0.005519827142857143,0.01197054932549503
-0.005519487142857144,0.01203637644100403
-0.005519147142857143,0.01127936461264933
-0.005518807142857143,0.01068692057306731
-0.005518467142857144,0.009732427398186886
-0.005518127142857143,0.009107069800848565
-0.005517787142857143,0.00871210710779388
-0.005517447142857144,0.008613366434530388
-0.005517107142857143,0.009139983358603122
-0.005516767142857143,0.009896995186957936
-0.005516427142857144,0.01078566124632936
-0.005516087142857143,0.01131227817040389
-0.005515747142857143,0.01134519172815845
-0.005515407142857144,0.01095022903510448
-0.005515067142857143,0.01025904432225806
-0.005514727142857143,0.009370378262885021
-0.005514387142857144,0.008481712203513595
-0.005514047142857143,0.00881084778105755
-0.005513707142857143,0.009238724031866792
-0.005513367142857144,0.009864081629202239
-0.005513027142857143,0.01016030364899439
-0.005512687142857143,0.01052235278429452
-0.005512347142857144,0.01009447653348528
-0.005512007142857143,0.009337464705130465
-0.005511667142857143,0.009271637589621349
-0.005511327142857144,0.009008329127584893
-0.005510987142857143,0.008448798645757422
-0.005510647142857143,0.008350057972493751
-0.005510307142857144,0.007230997008838809
-0.005509967142857143,0.006375244507220324
-0.005509627142857143,0.006276503833956653
-0.005509287142857144,0.00630941739171121
-0.005508947142857143,0.006408158064975301
-0.005508607142857143,0.006638552969256781
-0.005508267142857144,0.006671466527011338
-0.005507927142857143,0.006671466527011578
-0.005507587142857143,0.006803120758029567
-0.005507247142857143,0.007395564797611595
-0.005506907142857143,0.00844879864575868
-0.005506567142857143,0.009139983358603122
-0.005506227142857143,0.009304551147375908
-0.005505887142857143,0.009633686724921658
-0.005505547142857143,0.00973242739818515
-0.005505207142857143,0.009864081629203377
-0.005504867142857143,0.009469118936148152
-0.005504527142857143,0.009172896916357679
-0.005504187142857143,0.008843761338812107
-0.005503847142857143,0.008646279992283387
-0.005503507142857143,0.007889268163929951
-0.005503167142857143,0.007527219028629823
-0.005502827142857143,0.006836034315783765
-0.005502487142857143,0.006638552969256781
-0.005502147142857143,0.006111936045183867
-0.005501807142857143,0.005256183543563108
-0.005501467142857143,0.004005468348892213
-0.005501127142857143,0.003380110751555628
-0.005500787142857143,0.00311680228951935
-0.005500447142857143,0.003215542962782842
-0.005500107142857143,0.003215542962782842
-0.005499767142857144,0.003709246329100301
-0.005499427142857143,0.003676332771346642
-0.005499087142857143,0.003972554791137656
-0.005498747142857144,0.005256183543563048
-0.005498407142857143,0.00630941739171121
-0.005498067142857143,0.006934774989047795
-0.005497727142857144,0.006770207200275309
-0.005497387142857143,0.006572725853747667
-0.005497047142857143,0.006473985180483996
-0.005496707142857144,0.00653981229599299
-0.005496367142857143,0.006276503833956653
-0.005496027142857143,0.005947368256411082
-0.005495687142857144,0.006473985180483038
-0.005495347142857143,0.006737293642520453
-0.005495007142857143,0.006901861431293239
-0.005494667142857144,0.007099342777820222
-0.005494327142857143,0.006934774989047795
-0.005493987142857143,0.006836034315784124
-0.005493647142857144,0.007757613932910046
-0.005493307142857143,0.007988008837193623
-0.005492967142857143,0.008613366434530208
-0.005492627142857144,0.008777934223302693
-0.005492287142857143,0.009074156243094007
-0.005491947142857143,0.008481712203511979
-0.005491607142857144,0.007362651239859073
-0.005491267142857143,0.00607902248742931
-0.005490927142857143,0.005157442870301712
-0.005490587142857144,0.005585319121110954
-0.005490247142857143,0.004795393735001583
-0.005489907142857143,0.005322010659074497
-0.005489567142857144,0.005354924216829054
-0.005489227142857143,0.005716973352129182
-0.005488887142857143,0.006704380084765896
-0.005488547142857144,0.00700060210455691
-0.005488207142857143,0.007625959701894452
-0.005487867142857143,0.008152576625966409
-0.005487527142857144,0.007593046144138938
-0.005487187142857143,0.006836034315782507
-0.005486847142857143,0.005947368256411082
-0.005486507142857143,0.004795393735001583
-0.005486167142857143,0.003544678540328294
-0.005485827142857143,0.003478851424819299
-0.005485487142857143,0.003314283636046514
-0.005485147142857143,0.003709246329101618
-0.005484807142857143,0.003939641233383098
-0.005484467142857143,0.004235863253174112
-0.005484127142857143,0.004992875081529345
-0.005483787142857143,0.005223269985810825
-0.005483447142857143,0.006013195371920196
-0.005483107142857143,0.006111936045184226
-0.005482767142857143,0.00630941739171121
-0.005482427142857143,0.006375244507220324
-0.005482087142857143,0.007165169893329934
-0.005481747142857143,0.007296824124347924
-0.005481407142857143,0.007922181721684508
-0.005481067142857143,0.008382971530247829
-0.005480727142857143,0.00811966306821185
-0.005480387142857143,0.007889268163929951
-0.005480047142857143,0.007494305470874488
-0.005479707142857143,0.007066429220066024
-0.005479367142857143,0.006901861431293239
-0.005479027142857144,0.007099342777820222
-0.005478687142857143,0.007165169893329695
-0.005478347142857143,0.007099342777820581
-0.005478007142857144,0.006934774989048095
-0.005477667142857143,0.006901861431293239
-0.005477327142857143,0.006803120758029567
-0.005476987142857144,0.005980281814167136
-0.005476647142857143,0.004795393735001583
-0.005476307142857143,0.003873814117873984
-0.005475967142857144,0.003182629405029542
-0.005475627142857143,0.002886407385237271
-0.005475287142857143,0.002524358249937143
-0.005474947142857144,0.002261049787901165
-0.005474607142857143,0.002293963345655243
-0.005474267142857143,0.002458531134428029
-0.005473927142857144,0.002491444692182526
-0.005473587142857143,0.002590185365446257
-0.005473247142857143,0.003281370078291956
-0.005472907142857144,0.004367517484190365
-0.005472567142857143,0.006342330949465767
-0.005472227142857143,0.007395564797611595
-0.005471887142857144,0.008152576625965031
-0.005471547142857143,0.008251317299230079
-0.005471207142857143,0.007823441048420837
-0.005470867142857144,0.006671466527013434
-0.005470527142857143,0.005782800467638296
-0.005470187142857143,0.005782800467638296
-0.005469847142857144,0.005618232678865511
-0.005469507142857143,0.006671466527011338
-0.005469167142857143,0.007263910566593366
-0.005468827142857144,0.007889268163929951
-0.005468487142857143,0.007362651239857037
-0.005468147142857143,0.006934774989047795
-0.005467807142857144,0.00653981229599311
-0.005467467142857143,0.005420751332338168
-0.005467127142857143,0.004696653061737912
-0.005466787142857144,0.004235863253174112
-0.005466447142857143,0.004466258157456372
-0.005466107142857143,0.004663739503983355
-0.005465767142857143,0.004367517484192341
-0.005465427142857143,0.004301690368684304
-0.005465087142857143,0.004894134408265255
-0.005464747142857143,0.005223269985810825
-0.005464407142857143,0.005190356428057406
-0.005464067142857143,0.005815714025392853
-0.005463727142857143,0.006605639411502225
-0.005463387142857143,0.007099342777820641
-0.005463047142857143,0.007132256335575138
-0.005462707142857143,0.006605639411502225
-0.005462367142857143,0.005815714025392315
-0.005462027142857143,0.005519492005601839
-0.005461687142857143,0.005157442870301712
-0.005461347142857143,0.004268776810926993
-0.005461007142857143,0.003347197193801071
-0.005460667142857143,0.001964827768109672
-0.005460327142857143,0.001438210844036998
-0.005459987142857143,0.001569865075054987
-0.005459647142857143,0.002228136230146129
-0.005459307142857143,0.003314283636049806
-0.005458967142857143,0.005124529312547154
-0.005458627142857143,0.007428478355366152
-0.005458287142857143,0.009370378262886338
-0.005457947142857143,0.01009447653348528
-0.005457607142857143,0.01022613076450351
-0.005457267142857144,0.009337464705132081
-0.005456927142857143,0.007724700375157166
-0.005456587142857143,0.00653981229599311
-0.005456247142857144,0.005519492005603695
-0.005455907142857143,0.004301690368683227
-0.005455567142857143,0.004433344599701455
-0.005455227142857144,0.004762480177246428
-0.005454887142857143,0.005552405563356397
-0.005454547142857143,0.006342330949465767
-0.005454207142857144,0.006638552969256243
-0.005453867142857143,0.006803120758029567
-0.005453527142857143,0.006803120758029567
-0.005453187142857144,0.006934774989047556
-0.005452847142857143,0.006868947873538681
-0.005452507142857143,0.00756013258638438
-0.005452167142857144,0.008053835952701838
-0.005451827142857143,0.008745020665548437
-0.005451487142857143,0.008547539319021094
-0.005451147142857144,0.008382971530248608
-0.005450807142857143,0.008251317299230079
-0.005450467142857143,0.007856354606175394
-0.005450127142857144,0.007560132586384919
-0.005449787142857143,0.006671466527011338
-0.005449447142857143,0.005651146236620068
-0.005449107142857144,0.004334603926440178
-0.005448767142857143,0.00357759209808297
-0.005448427142857143,0.003050975174010056
-0.005448087142857144,0.003215542962782842
-0.005447747142857143,0.004301690368683227
-0.005447407142857143,0.005420751332338168
-0.005447067142857144,0.005980281814165639
-0.005446727142857143,0.006671466527011338
-0.005446387142857143,0.007461391913120709
-0.005446047142857144,0.007922181721684508
-0.005445707142857143,0.00769178681740213
-0.005445367142857143,0.007428478355366152
-0.005445027142857144,0.00756013258638438
-0.005444687142857143,0.008053835952703335
-0.005444347142857143,0.008382971530248308
-0.005444007142857143,0.007988008837193623
-0.005443667142857143,0.008218403741475163
-0.005443327142857143,0.00802092239494818
-0.005442987142857143,0.007757613932911723
-0.005442647142857143,0.007000602104556371
-0.005442307142857143,0.006704380084765896
-0.005441967142857143,0.005947368256411082
-0.005441627142857143,0.005157442870301891
-0.005441287142857143,0.005256183543565383
-0.005440947142857143,0.004992875081528926
-0.005440607142857143,0.005223269985812263
-0.005440267142857143,0.006013195371920196
-0.005439927142857143,0.006671466527011338
-0.005439587142857143,0.006704380084766255
-0.005439247142857143,0.006901861431293239
-0.005438907142857143,0.007198083451084253
-0.005438567142857143,0.006836034315783226
-0.005438227142857143,0.006342330949465767
-0.005437887142857143,0.005157442870301712
-0.005437547142857143,0.004795393735001942
-0.005437207142857143,0.004992875081528926
-0.005436867142857143,0.005585319121110954
-0.005436527142857144,0.005651146236619949
-0.005436187142857143,0.0030180616162555
-0.005435847142857143,-0.005144500706874663
-0.005435507142857144,-0.02031765083169789
-0.005435167142857143,-0.04332422770216091
-0.005434827142857143,-0.07327556525880788
-0.005434487142857144,-0.107374011092467
-0.005434147142857143,-0.1410116671176864
-0.005433807142857143,-0.1731023859283796
-0.005433467142857144,-0.1998611083827858
-0.005433127142857143,-0.2199712921708689
-0.005432787142857143,-0.2337620728700283
-0.005432447142857144,-0.2417600674043712
-0.005432107142857143,-0.2448210282755595
-0.005431767142857143,-0.2440969300049593
-0.005431427142857144,-0.2404764386519646
-0.005431087142857143,-0.2343545169096104
-0.005430747142857143,-0.227541410454417
-0.005430407142857144,-0.2211561802500446
-0.005430067142857143,-0.2145734686991216
-0.005429727142857143,-0.2078591029171919
-0.005429387142857144,-0.2017042676171009
-0.005429047142857143,-0.1954177780859693
-0.005428707142857143,-0.1889996343238307
-0.005428367142857144,-0.1823840092151768
-0.005428027142857143,-0.175373421413444
-0.005427687142857143,-0.1685603149582507
-0.005427347142857144,-0.1626029610046759
-0.005427007142857143,-0.1564152121468191
-0.005426667142857143,-0.1506882530975262
-0.005426327142857144,-0.144533417797424
-0.005425987142857143,-0.1384444096128309
-0.005425647142857143,-0.1330465861410836
-0.005425307142857144,-0.1274841948805635
-0.005424967142857143,-0.1224155069863616
-0.005424627142857143,-0.1181367444782692
-0.005424287142857144,-0.1136605006236494
-0.005423947142857143,-0.1099412685973771
-0.005423607142857143,-0.1058599874358194
-0.005423267142857143,-0.1015153978122179
-0.005422927142857143,-0.09707206751534529
-0.005422587142857143,-0.09302369991154213
-0.005422247142857143,-0.08946903567404998
-0.005421907142857143,-0.086375161245115
-0.005421567142857143,-0.08275466989212032
-0.005421227142857143,-0.07916709209687359
-0.005420887142857143,-0.07571116853263904
-0.005420547142857143,-0.07238689919943483
-0.005420207142857143,-0.06889806207745178
-0.005419867142857143,-0.06610040966830964
-0.005419527142857143,-0.06346732504794986
-0.005419187142857143,-0.06086715398533984
-0.005418847142857143,-0.05849737782700838
-0.005418507142857143,-0.05665421859275654
-0.005418167142857143,-0.05474523224299222
-0.005417827142857143,-0.05184883916058719
-0.005417487142857143,-0.04964363079103587
-0.005417147142857143,-0.04799795290330802
-0.005416807142857143,-0.04631936145782262
-0.005416467142857143,-0.04467368357009775
-0.005416127142857143,-0.04302800568236989
-0.005415787142857143,-0.04134941423688365
-0.005415447142857143,-0.03924294654059583
-0.005415107142857143,-0.03739978730634063
-0.005414767142857144,-0.03552371451433429
-0.005414427142857143,-0.03410843153088492
-0.005414087142857143,-0.03315393835600276
