Analysis/plots/wrd01_d2s01/non compliant measurements/cmb10_ch46.csv

#Digilent WaveForms Oscilloscope Acquisition
#Device Name: ADP3450
#Serial Number: SN:210018B9D9B0
#Date Time: 2024-08-07 12:00:15.762.764.140
#Sample rate: 2.94118e+06Hz
#Samples: 32768
#Trigger: Source: Channel 3 Type: Edge Condition: Rising Level: 0 V Hyst.: Auto HoldOff: 0 s
#Channel 3: Range: 200 mV/div Offset: 0 V Attenuation: 1 X Coupling: DC Bandwidth: 0 Hz Sample Mode: Average

Time (s),Channel 3 (V)
-0.005570348648648649,0.003445937867064742
-0.005570008648648648,0.00400546834889335
-0.005569668648648649,0.004630825946228797
-0.005569328648648649,0.00574988690988374
-0.005568988648648648,0.006375244507221102
-0.005568648648648649,0.006803120758029567
-0.005568308648648649,0.006836034315784124
-0.005567968648648648,0.005947368256409047
-0.005567628648648648,0.00482830729275614
-0.005567288648648649,0.004499171715210569
-0.005566948648648648,0.004005468348891135
-0.005566608648648648,0.003413024309310185
-0.005566268648648649,0.002886407385237271
-0.005565928648648648,0.003083888731764135
-0.005565588648648648,0.002820580269728157
-0.005565248648648649,0.002524358249937143
-0.005564908648648648,0.002787666711973839
-0.005564568648648648,0.002919320942991828
-0.005564228648648649,0.003413024309310185
-0.005563888648648648,0.003643419213591965
-0.005563548648648648,0.00357759209808297
-0.005563208648648649,0.00482830729275614
-0.005562868648648649,0.009502032493894749
-0.005562528648648648,0.020593901457189
-0.005562188648648649,0.03988124630135946
-0.005561848648648649,0.06733115346861016
-0.005561508648648648,0.0993231316060896
-0.005561168648648649,0.1340140214793928
-0.005560828648648649,0.1679478995242794
-0.005560488648648648,0.1987879031403612
-0.005560148648648649,0.2241313426113701
-0.005559808648648649,0.243254119666733
-0.005559468648648648,0.2554321360359539
-0.005559128648648649,0.2623439831644109
-0.005558788648648649,0.2644175373029443
-0.005558448648648648,0.2631339085505203
-0.005558108648648649,0.2588880596001825
-0.005557768648648649,0.2531281869931454
-0.005557428648648648,0.2469075245775237
-0.005557088648648649,0.2398640232180484
-0.005556748648648649,0.2320635100302326
-0.005556408648648648,0.2245592188621794
-0.005556068648648649,0.2166928785588402
-0.005555728648648649,0.2080036993116529
-0.005555388648648648,0.1993474336221886
-0.005555048648648649,0.190921562837022
-0.005554708648648649,0.1827590005139067
-0.005554368648648648,0.1755838449233984
-0.005554028648648649,0.1691986147190143
-0.005553688648648649,0.1639982725937943
-0.005553348648648648,0.1585675355642924
-0.005553008648648649,0.1534988476700906
-0.005552668648648649,0.1487263817956798
-0.005552328648648648,0.1438551752480054
-0.005551988648648649,0.1383586111029943
-0.005551648648648649,0.1325658249381923
-0.005551308648648648,0.127398396370718
-0.005550968648648649,0.1225271898230524
-0.005550628648648649,0.118840871354542
-0.005550288648648648,0.1157799104833627
-0.005549948648648649,0.1127847767277035
-0.005549608648648649,0.1104808276848845
-0.005549268648648648,0.1072552990249324
-0.005548928648648649,0.1042601652692732
-0.005548588648648649,0.1006725874740264
-0.005548248648648648,0.09731540458305564
-0.005547908648648649,0.0940240488076059
-0.005547568648648649,0.09007442187705905
-0.005547228648648648,0.08592731359997773
-0.005546888648648649,0.08201060022719256
-0.005546548648648649,0.07894963935601876
-0.005546208648648648,0.07578993781157757
-0.005545868648648648,0.07374929723079873
-0.005545528648648649,0.07167574309226163
-0.005545188648648648,0.06884517712536362
-0.005544848648648648,0.06548799423440488
-0.005544508648648649,0.06255868759424932
-0.005544168648648648,0.05926733181878874
-0.005543828648648648,0.05660133364067447
-0.005543488648648649,0.05423155748234636
-0.005543148648648648,0.0526517067101257
-0.005542808648648648,0.05159847286198179
-0.005542468648648649,0.05001862208976305
-0.005542128648648649,0.04880082045284665
-0.005541788648648648,0.04695766121858923
-0.005541448648648649,0.04527906977310683
-0.005541108648648649,0.04360047832762746
-0.005540768648648648,0.04264598515274225
-0.005540428648648649,0.0414610970735782
-0.005540088648648649,0.04093448014950624
-0.005539748648648648,0.03935462937728654
-0.005539408648648649,0.03751147014303135
-0.005539068648648649,0.03593161937081548
-0.005538728648648648,0.03451633638736665
-0.005538388648648649,0.03323270763493892
-0.005538048648648649,0.03217947378679501
-0.005537708648648648,0.03145537551619284
-0.005537368648648649,0.0310274992653836
-0.005537028648648649,0.03076419080334762
-0.005536688648648648,0.03066545013008347
-0.005536348648648649,0.03027048743702878
-0.005536008648648649,0.03053379589906476
-0.005535668648648648,0.02994135185948321
-0.005535328648648649,0.02882229089582827
-0.005534988648648649,0.02799945195196584
-0.005534648648648648,0.02790071127870067
-0.005534308648648649,0.02674873675729117
-0.005533968648648649,0.02556384867812927
-0.005533628648648648,0.02378651655938104
-0.005533288648648649,0.02263454203797154
-0.005532948648648649,0.02135091328554381
-0.005532608648648648,0.01947484049353405
-0.005532268648648649,0.01858617443416101
-0.005531928648648649,0.01802664395233354
-0.005531588648648648,0.01796081683682443
-0.005531248648648649,0.01730254568173328
-0.005530908648648649,0.0169075829886786
-0.005530568648648648,0.01657844741113303
-0.005530228648648649,0.01559104067849632
-0.005529888648648649,0.01447197971484137
-0.005529548648648648,0.01401118990627763
-0.005529208648648649,0.01404410346403213
-0.005528868648648649,0.01424158481055947
-0.005528528648648648,0.01453780683035031
-0.005528188648648649,0.01443906615708682
-0.005527848648648649,0.01364914077097745
-0.005527508648648648,0.01272756115384781
-0.005527168648648649,0.0116085001901949
-0.005526828648648649,0.01039069855327629
-0.005526488648648648,0.009732427398184432
-0.005526148648648649,0.009337464705130465
-0.005525808648648649,0.009074156243094007
-0.005525468648648648,0.00943620537839605
-0.005525128648648648,0.01048943922653996
-0.005524788648648649,0.01170724086345858
-0.005524448648648648,0.01292504250037857
-0.005524108648648648,0.013682054328732
-0.005523768648648649,0.01361622721322289
-0.005523428648648648,0.0124313391340562
-0.005523088648648648,0.01098314259285832
-0.005522748648648649,0.009864081629203377
-0.005522408648648648,0.00841588508800011
-0.005522068648648648,0.006901861431293239
-0.005521728648648649,0.005519492005601839
-0.005521388648648648,0.00495996152377383
-0.005521048648648648,0.004663739503983355
-0.005520708648648649,0.005585319121110954
-0.005520368648648649,0.006868947873536346
-0.005520028648648648,0.008514625761266537
-0.005519688648648649,0.009864081629203377
-0.005519348648648649,0.01052235278429332
-0.005519008648648648,0.01108188326612199
-0.005518668648648649,0.01131227817040389
-0.005518328648648649,0.01141101884366738
-0.005517988648648648,0.01124645105489478
-0.005517648648648649,0.01121353749714022
-0.005517308648648649,0.01081857480408625
-0.005516968648648648,0.009765340955939707
-0.005516628648648649,0.008448798645757422
-0.005516288648648649,0.007230997008841025
-0.005515948648648648,0.005782800467638296
-0.005515608648648649,0.005091615754792597
-0.005515268648648649,0.005585319121110056
-0.005514928648648648,0.005453664890092726
-0.005514588648648649,0.005322010659074497
-0.005514248648648649,0.005618232678864972
-0.005513908648648648,0.005354924216829054
-0.005513568648648649,0.005190356428056269
-0.005513228648648649,0.004959961523774788
-0.005512888648648648,0.004992875081528926
-0.005512548648648649,0.00528909710131994
-0.005512208648648649,0.006177763160692982
-0.005511868648648648,0.007724700375157166
-0.005511528648648649,0.008613366434530208
-0.005511188648648649,0.009633686724921478
-0.005510848648648648,0.01022613076450351
-0.005510508648648649,0.01016030364899439
-0.005510168648648649,0.009469118936148692
-0.005509828648648648,0.008909588454321223
-0.005509488648648649,0.008053835952702737
-0.005509148648648649,0.007362651239857037
-0.005508808648648648,0.006967688546802472
-0.005508468648648649,0.007033515662311467
-0.005508128648648649,0.006342330949465767
-0.005507788648648648,0.005815714025392734
-0.005507448648648649,0.00574988690988374
-0.005507108648648649,0.005256183543565383
-0.005506768648648648,0.005124529312548831
-0.005506428648648649,0.006046108929674754
-0.005506088648648649,0.00677020720027501
-0.005505748648648648,0.006934774989048154
-0.005505408648648649,0.007132256335575138
-0.005505068648648649,0.007494305470875266
-0.005504728648648648,0.007593046144139117
-0.005504388648648648,0.007691786817402609
-0.005504048648648649,0.007329737682102481
-0.005503708648648648,0.007263910566593246
-0.005503368648648648,0.007198083451084253
-0.005503028648648649,0.00677020720027501
-0.005502688648648648,0.006013195371918938
-0.005502348648648648,0.005322010659074497
-0.005502008648648649,0.004235863253174112
-0.005501668648648648,0.003906727675628182
-0.005501328648648648,0.003709246329101199
-0.005500988648648649,0.003511764982573856
-0.005500648648648648,0.003906727675628122
-0.005500308648648648,0.003676332771346642
-0.005499968648648649,0.003215542962782842
-0.005499628648648649,0.002754753154219881
-0.005499288648648648,0.002392704018918914
-0.005498948648648649,0.003083888731764614
-0.005498608648648649,0.003544678540327575
-0.005498268648648648,0.003775073444610313
-0.005497928648648649,0.004564998830719684
-0.005497588648648649,0.005552405563354601
-0.005497248648648648,0.006408158064974882
-0.005496908648648649,0.006967688546802352
-0.005496568648648649,0.007198083451083834
-0.005496228648648648,0.007362651239857037
-0.005495888648648649,0.006967688546802352
-0.005495548648648649,0.006671466527011877
-0.005495208648648648,0.006803120758029567
-0.005494868648648649,0.006506898738238553
-0.005494528648648649,0.006506898738238553
-0.005494188648648648,0.005453664890092726
-0.005493848648648649,0.005256183543565383
-0.005493508648648649,0.004894134408265913
-0.005493168648648648,0.004466258157456012
-0.005492828648648649,0.005585319121110954
-0.005492488648648649,0.005618232678865451
-0.005492148648648648,0.005980281814165639
-0.005491808648648649,0.006210676718447538
-0.005491468648648649,0.006539812295992512
-0.005491128648648648,0.007691786817402609
-0.005490788648648649,0.007823441048420837
-0.005490448648648649,0.008086749510457293
-0.005490108648648648,0.008152576625966409
-0.005489768648648649,0.007658873259648051
-0.005489428648648649,0.007494305470875266
-0.005489088648648648,0.006704380084765896
-0.005488748648648649,0.006605639411502225
-0.005488408648648649,0.00630941739171121
-0.005488068648648648,0.006572725853748265
-0.005487728648648649,0.006901861431293239
-0.005487388648648649,0.007625959701893495
-0.005487048648648648,0.007856354606175694
-0.005486708648648649,0.00802092239494818
-0.005486368648648649,0.007658873259648051
-0.005486028648648648,0.007066429220065844
-0.005485688648648649,0.006967688546802352
-0.005485348648648649,0.006836034315784124
-0.005485008648648648,0.006836034315783526
-0.005484668648648649,0.006506898738238553
-0.005484328648648649,0.007066429220066024
-0.005483988648648648,0.007000602104557568
-0.005483648648648649,0.007362651239857037
-0.005483308648648649,0.007856354606175394
-0.005482968648648648,0.007560132586382943
-0.005482628648648648,0.00677020720027501
-0.005482288648648649,0.006473985180483996
-0.005481948648648648,0.005651146236618033
-0.005481608648648648,0.004532085272965126
-0.005481268648648649,0.0030180616162555
-0.005480928648648648,0.001931914210353918
-0.005480588648648648,0.001273643055263973
-0.005480248648648649,0.001372383728527644
-0.005479908648648648,0.001931914210356851
-0.005479568648648648,0.002886407385237271
-0.005479228648648649,0.004005468348892213
-0.005478888648648649,0.003775073444610732
-0.005478548648648648,0.003281370078291956
-0.005478208648648649,0.002096481999127901
-0.005477868648648649,0.001569865075055945
-0.005477528648648648,0.001438210844036758
-0.005477188648648649,0.001800259979336887
-0.005476848648648649,0.002721839596462809
-0.005476508648648648,0.003413024309310185
-0.005476168648648649,0.003939641233383098
-0.005475828648648649,0.004729566619491032
-0.005475488648648648,0.005519492005601839
-0.005475148648648649,0.005420751332338168
-0.005474808648648649,0.005420751332338168
-0.005474468648648648,0.00528909710131994
-0.005474128648648649,0.00528909710131994
-0.005473788648648649,0.005091615754792956
-0.005473448648648648,0.004894134408265255
-0.005473108648648649,0.004992875081528926
-0.005472768648648649,0.005091615754792418
-0.005472428648648648,0.00505870219703804
-0.005472088648648649,0.005157442870301712
-0.005471748648648649,0.006309417391709114
-0.005471408648648648,0.00756013258638438
-0.005471068648648649,0.008975415569830336
-0.005470728648648649,0.01002864941797425
-0.005470388648648648,0.01085148836184009
-0.005470048648648649,0.01108188326612199
-0.005469708648648649,0.01012739009123984
-0.005469368648648648,0.008876674896566664
-0.005469028648648649,0.00700060210455691
-0.005468688648648649,0.005420751332338168
-0.005468348648648648,0.003939641233383098
-0.005468008648648649,0.003182629405028285
-0.005467668648648649,0.002985148058500942
-0.005467328648648648,0.003248456520537399
-0.005466988648648649,0.003347197193801071
-0.005466648648648649,0.003709246329101199
-0.005466308648648648,0.003807987002364631
-0.005465968648648649,0.003676332771346642
-0.005465628648648649,0.004202949695419555
-0.005465288648648648,0.00515744287030237
-0.005464948648648649,0.005519492005601839
-0.005464608648648649,0.006046108929674754
-0.005464268648648648,0.006539812295992093
-0.005463928648648649,0.005980281814165639
-0.005463588648648649,0.005782800467638296
-0.005463248648648648,0.005387837774582833
-0.005462908648648649,0.004959961523774369
-0.005462568648648649,0.00426877681092867
-0.005462228648648648,0.003807987002363134
-0.005461888648648648,0.002853493827482714
-0.005461548648648649,0.002590185365446257
-0.005461208648648648,0.002096481999127362
-0.005460868648648648,0.001800259979336887
-0.005460528648648649,0.001339470170773087
-0.005460188648648648,0.001701519306074413
-0.005459848648648648,0.002359790461164357
-0.005459508648648649,0.002129395556882458
-0.005459168648648648,0.002820580269730911
-0.005458828648648648,0.004334603926437783
-0.005458488648648649,0.005387837774583611
-0.005458148648648648,0.005980281814165699
-0.005457808648648648,0.006013195371920196
-0.005457468648648649,0.005091615754792597
-0.005457128648648649,0.003939641233385194
-0.005456788648648648,0.003248456520537399
-0.005456448648648649,0.002985148058500942
-0.005456108648648649,0.002623098923201473
-0.005455768648648648,0.002820580269728157
-0.005455428648648649,0.003314283636046514
-0.005455088648648649,0.003873814117872966
-0.005454748648648648,0.005190356428056269
-0.005454408648648649,0.005552405563356397
-0.005454068648648649,0.005519492005601899
-0.005453728648648648,0.004696653061737912
-0.005453388648648649,0.003445937867064742
-0.005453048648648649,0.00216230911463935
-0.005452708648648648,0.001504037959545873
-0.005452368648648649,0.001043248150982073
-0.005452028648648649,0.001010334593227576
-0.005451688648648648,0.001635692190564101
-0.005451348648648649,0.0027876667119736
-0.005451008648648649,0.003610505655836031
-0.005450668648648648,0.004630825946228797
-0.005450328648648649,0.006111936045183867
-0.005449988648648649,0.006901861431291801
-0.005449648648648648,0.007329737682102481
-0.005449308648648649,0.007099342777820581
-0.005448968648648649,0.006737293642521111
-0.005448628648648648,0.006046108929674754
-0.005448288648648649,0.00505870219703804
-0.005447948648648649,0.003873814117873984
-0.005447608648648648,0.002886407385237271
-0.005447268648648649,0.002491444692182586
-0.005446928648648649,0.002359790461164357
-0.005446588648648648,0.003413024309310185
-0.005446248648648649,0.003775073444610313
-0.005445908648648649,0.004005468348892213
-0.005445568648648648,0.003478851424820616
-0.005445228648648649,0.004202949695419555
-0.005444888648648649,0.005190356428056269
-0.005444548648648648,0.005684059794374685
-0.005444208648648649,0.005716973352129182
-0.005443868648648649,0.005552405563356397
-0.005443528648648648,0.005453664890092007
-0.005443188648648649,0.00505870219703804
-0.005442848648648649,0.005387837774583611
-0.005442508648648648,0.005223269985810825
-0.005442168648648649,0.005223269985810825
-0.005441828648648649,0.004663739503983355
-0.005441488648648648,0.004038381906643357
-0.005441148648648649,0.002162309114637015
-0.005440808648648649,-0.002840551664055666
-0.005440468648648648,-0.01347163081880988
-0.005440128648648648,-0.03121203844848389
-0.005439788648648649,-0.05629216945745641
-0.005439448648648648,-0.08792209845964745
-0.005439108648648648,-0.1218230629467796
-0.005438768648648649,-0.1550657562788823
-0.005438428648648648,-0.1843259091227279
-0.005438088648648648,-0.2087148554188104
-0.005437748648648649,-0.2269160528570805
-0.005437408648648648,-0.2387978472064863
-0.005437068648648648,-0.2446893740445413
-0.005436728648648649,-0.2465325332787965
-0.005436388648648649,-0.2444260655825087
-0.005436048648648648,-0.2411017962492946
-0.005435708648648649,-0.2345849118138923
-0.005435368648648649,-0.2276072375699388
-0.005435028648648648,-0.2211890938077875
-0.005434688648648649,-0.214540555141367
-0.005434348648648649,-0.207727448686186
-0.005434008648648648,-0.2011118235775077
-0.005433668648648649,-0.1948253340463873
-0.005433328648648649,-0.1881109682644699
-0.005432988648648648,-0.1813636889247734
-0.005432648648648649,-0.1743860146808073
-0.005432308648648649,-0.1671450319748179
-0.005431968648648648,-0.1606281475394024
-0.005431628648648649,-0.1540125224307365
-0.005431288648648649,-0.147627292226364
-0.005430948648648648,-0.1422952958701141
-0.005430608648648649,-0.1370949537448941
-0.005430268648648649,-0.132256660754983
-0.005429928648648648,-0.1274512813228089
-0.005429588648648649,-0.1222509391975888
-0.005429248648648649,-0.1171822513033963
-0.005428908648648648,-0.111981909178167
-0.005428568648648649,-0.1071107026304926
-0.005428228648648649,-0.102568631660372
-0.005427888648648648,-0.09875065896083507
-0.005427548648648649,-0.09532764895436113
-0.005427208648648649,-0.09233251519869645
-0.005426868648648648,-0.08933738144303174
-0.005426528648648649,-0.08621059345634882
-0.005426188648648649,-0.08249136143008387
-0.005425848648648648,-0.07936457344340095
-0.005425508648648649,-0.07633652612998168
-0.005425168648648649,-0.07390092285614447
-0.005424828648648648,-0.07149823314006179
-0.005424488648648649,-0.06975381457907026
-0.005424148648648649,-0.06777900111379684
-0.005423808648648648,-0.06511300293567382
-0.005423468648648649,-0.06297362168163151
-0.005423128648648649,-0.06011014215698503
-0.005422788648648648,-0.05777327955640681
-0.005422448648648649,-0.05520602205155602
-0.005422108648648649,-0.0527704187777188
-0.005421768648648648,-0.0504006426193877
-0.005421428648648649,-0.04875496473166283
-0.005421088648648649,-0.04704345972842586
-0.005420748648648648,-0.04546360895620448
-0.005420408648648649,-0.04401541241500661
-0.005420068648648649,-0.04302800568236989
-0.005419728648648648,-0.04187603116095752
-0.005419388648648648,-0.04029618038874165
-0.005419048648648649,-0.03884798384754114
-0.005418708648648648,-0.03693899749777396
-0.005418368648648648,-0.03535914672555809
-0.005418028648648649,-0.03295645700947542
-0.005417688648648648,-0.03078416219767154
-0.005417348648648648,-0.02907265719443768
-0.005417008648648649,-0.02745989286446438
-0.005416668648648648,-0.02706493017140856
-0.005416328648648648,-0.02643957257407311
-0.005415988648648649,-0.02525468449490905
-0.005415648648648648,-0.02393814218472348
-0.005415308648648648,-0.02212789650822613
-0.005414968648648649,-0.0199226881386708
-0.005414628648648649,-0.01883654073277239
-0.005414288648648648,-0.01778330688462459
-0.005413948648648649,-0.01732251707606079
