Analysis/plots/wrd01_d2s01/non compliant measurements/cmb12_ch23.csv

#Digilent WaveForms Oscilloscope Acquisition
#Device Name: ADP3450
#Serial Number: SN:210018B9D9B0
#Date Time: 2024-08-07 11:18:23.942.590.300
#Sample rate: 2.94118e+06Hz
#Samples: 32768
#Trigger: Source: Channel 3 Type: Edge Condition: Rising Level: 0 V Hyst.: Auto HoldOff: 0 s
#Channel 3: Range: 200 mV/div Offset: 0 V Attenuation: 1 X Coupling: DC Bandwidth: 0 Hz Sample Mode: Average

Time (s),Channel 3 (V)
-0.005570492000000001,0.01048943922653996
-0.005570152,0.01078566124633104
-0.005569812,0.01081857480408553
-0.005569472000000001,0.01029195788001262
-0.005569132,0.009502032493901455
-0.005568792,0.008514625761266537
-0.005568452000000001,0.007362651239857037
-0.005568112,0.00611193604518273
-0.005567772,0.005486578447847282
-0.005567432000000001,0.005091615754792597
-0.005567092,0.00492704796602035
-0.005566752,0.005223269985810825
-0.005566412000000001,0.005025788639283483
-0.005566072,0.005124529312546496
-0.005565732,0.004762480177247026
-0.005565392000000001,0.005519492005601839
-0.005565052,0.004894134408265434
-0.005564712,0.004992875081528926
-0.005564372000000001,0.004630825946228797
-0.005564032,0.00469665306173863
-0.005563692,0.005091615754792597
-0.005563352000000001,0.005223269985810825
-0.005563012000000001,0.00505870219703834
-0.005562672,0.004367517484192341
-0.005562332000000001,0.004499171715210569
-0.005561992000000001,0.004038381906647607
-0.005561652,0.003906727675628541
-0.005561312000000001,0.004466258157456012
-0.005560972000000001,0.004532085272965006
-0.005560632,0.004861220850510698
-0.005560292000000001,0.005124529312547154
-0.005559952000000001,0.006309417391709054
-0.005559612,0.01114771038163111
-0.005559272000000001,0.02158130818982571
-0.005558932000000001,0.03932171581949973
-0.005558592,0.06506011798359565
-0.005558252000000001,0.0968546147744978
-0.005557912000000001,0.1322037758028278
-0.005557572,0.1675200232735319
-0.005557232,0.1997094827574888
-0.005556892000000001,0.226534032327404
-0.005556552,0.2469404381352782
-0.005556212,0.2608957866232104
-0.005555872000000001,0.2686633862532717
-0.005555532,0.2713952115469142
-0.005555192,0.2706711132763139
-0.005554852000000001,0.2670506219233192
-0.005554512,0.2611590950852469
-0.005554172,0.2539510259369989
-0.005553832000000001,0.2452289331320412
-0.005553492,0.2364410132115745
-0.005553152,0.2275543526178441
-0.005552812000000001,0.2188322598128865
-0.005552472,0.2104063890277198
-0.005552132,0.2028691843019262
-0.005551792000000001,0.1964839540975422
-0.005551452,0.1894075391803008
-0.005551112,0.1830223089759283
-0.005550772000000001,0.1769662143490898
-0.005550432,0.1702518485671489
-0.005550092,0.1640640997093034
-0.005549752000000001,0.1579750915247103
-0.005549412,0.1523468731486709
-0.005549072,0.1467515683304064
-0.005548732000000001,0.1417487075517137
-0.005548392,0.1368775010040311
-0.005548052,0.1324012571494195
-0.005547712000000001,0.1279908404103088
-0.005547372,0.1241399541530191
-0.005547032,0.1205194628000244
-0.005546692000000001,0.1171951934668141
-0.005546352,0.1141013190378784
-0.005546012,0.1100858649918298
-0.005545672000000001,0.1058400160414919
-0.005545332,0.1020220433419554
-0.005544992,0.09767745371836173
-0.005544652000000001,0.09300372851721464
-0.005544312,0.08856039822034241
-0.005543972,0.08470951196306625
-0.005543632000000001,0.08085862570578306
-0.005543292,0.07888381224050664
-0.005542952,0.07723813435278179
-0.005542612000000001,0.07523040732975378
-0.005542272000000001,0.07381512434631041
-0.005541932,0.07177448376552531
-0.005541592000000001,0.06943762116495175
-0.005541252000000001,0.06716658567989145
-0.005540912,0.06397397057769527
-0.005540572000000001,0.06120923172631246
-0.005540232000000001,0.05870780133697068
-0.005539892,0.05600888960109244
-0.005539552000000001,0.05347454565399155
-0.005539212000000001,0.05090728814914076
-0.005538872,0.04857042554856254
-0.005538532000000001,0.04738553746939848
-0.005538192000000001,0.04629939006350008
-0.005537852,0.04557529179289784
-0.005537512000000001,0.04462079861801568
-0.005537172000000001,0.04366630544313526
-0.005536832,0.04234976313295125
-0.005536492,0.04113196149603263
-0.005536152000000001,0.04007872764788872
-0.005535812,0.03902549379974098
-0.005535472,0.03780769216282236
-0.005535132000000001,0.03685319898794194
-0.005534792,0.03487838552266678
-0.005534452,0.03366058388574816
-0.005534112000000001,0.03277191782637674
-0.005533772,0.03181742465149297
-0.005533432,0.03142246195843829
-0.005533092000000001,0.0303363145525379
-0.005532752,0.0294147349354103
-0.005532412,0.02888811801133739
-0.005532072000000001,0.02783488416319156
-0.005531732,0.02691330454606396
-0.005531392,0.02589298425567269
-0.005531052000000001,0.02490557752303598
-0.005530712,0.02444478771447217
-0.005530372,0.02342446742408091
-0.005530032000000001,0.02217375222940774
-0.005529692,0.02092303703473337
-0.005529352,0.02026476587964342
-0.005529012000000001,0.0194419269357795
-0.005528672,0.01881656933844207
-0.005528332,0.01835577952987911
-0.005527992000000001,0.01786207616356076
-0.005527652,0.01710506433520534
-0.005527312,0.01677592875766037
-0.005526972000000001,0.01657844741113303
-0.005526632,0.01634805250685011
-0.005526292,0.01578852202502366
-0.005525952000000001,0.01601891692930556
-0.005525612,0.01654553385337877
-0.005525272,0.01671010164215126
-0.005524932000000001,0.01703923721969683
-0.005524592,0.01651262029562307
-0.005524252,0.01605183048706011
-0.005523912000000001,0.01513025086993251
-0.005523572,0.01378079500199484
-0.005523232,0.01332000519343187
-0.005522892000000001,0.01338583230894099
-0.005522552,0.01318835096241466
-0.005522212,0.01374788144424112
-0.005521872000000001,0.01348457298220466
-0.005521532,0.01351748653995964
-0.005521192,0.01374788144424112
-0.005520852000000001,0.01338583230894099
-0.005520512000000001,0.01276047471160554
-0.005520172,0.01262882048058617
-0.005519832000000001,0.01239842557630427
-0.005519492000000001,0.01177306797896883
-0.005519152,0.01177306797896769
-0.005518812000000001,0.01141101884366756
-0.005518472000000001,0.01157558663244005
-0.005518132,0.0116085001901949
-0.005517792000000001,0.01124645105489478
-0.005517452000000001,0.01124645105489478
-0.005517112,0.01131227817040389
-0.005516772000000001,0.01141101884366756
-0.005516432000000001,0.0109173154773501
-0.005516092,0.01101605615061288
-0.005515752000000001,0.01055526634204908
-0.005515412000000001,0.009864081629204635
-0.005515072,0.009271637589621349
-0.005514732,0.00871210710779388
-0.005514392000000001,0.00798800883719494
-0.005514052,0.007329737682102481
-0.005513712,0.006638552969256781
-0.005513372000000001,0.006441071622729798
-0.005513032,0.006638552969256781
-0.005512692,0.006704380084765896
-0.005512352000000001,0.006967688546802352
-0.005512012,0.007329737682102481
-0.005511672,0.007395564797611595
-0.005511332000000001,0.00779052749066628
-0.005510992,0.007395564797611595
-0.005510652,0.007198083451084253
-0.005510312000000001,0.00700060210455691
-0.005509972,0.006836034315784124
-0.005509632,0.006144849602938425
-0.005509292000000001,0.006375244507220324
-0.005508952,0.00630941739171121
-0.005508612,0.00630941739171121
-0.005508272000000001,0.005585319121110954
-0.005507932,0.005354924216829533
-0.005507592,0.005618232678865511
-0.005507252000000001,0.005519492005601839
-0.005506912,0.005782800467639614
-0.005506572,0.006506898738238553
-0.005506232000000001,0.007691786817402609
-0.005505892,0.008942502012077575
-0.005505552,0.009929908744712493
-0.005505212000000001,0.01104896970836743
-0.005504872,0.01193763576774119
-0.005504532,0.01233259846079516
-0.005504192000000001,0.0118388950944768
-0.005503852,0.01160850019019347
-0.005503512,0.01081857480408553
-0.005503172000000001,0.01068692057306731
-0.005502832,0.01065400701531251
-0.005502492,0.01052235278429452
-0.005502152000000001,0.01048943922653996
-0.005501812,0.0101273900912384
-0.005501472,0.009337464705130465
-0.005501132000000001,0.007823441048420837
-0.005500792,0.006144849602936688
-0.005500452,0.005190356428056269
-0.005500112000000001,0.004301690368683227
-0.005499772000000001,0.004071295464401746
-0.005499432,0.003643419213592085
-0.005499092000000001,0.003248456520537399
-0.005498752000000001,0.002590185365447454
-0.005498412,0.002820580269728157
-0.005498072000000001,0.002754753154219042
-0.005497732000000001,0.002458531134428567
-0.005497392,0.002063568441373343
-0.005497052000000001,0.001701519306073215
-0.005496712000000001,0.001701519306073215
-0.005496372,0.002063568441373343
-0.005496032000000001,0.002359790461164357
-0.005495692000000001,0.003149715847272291
-0.005495352,0.003873814117873984
-0.005495012000000001,0.004202949695419555
-0.005494672000000001,0.0060461089296714
-0.005494332,0.006046108929674754
-0.005493992,0.006506898738238553
-0.005493652000000001,0.007198083451082995
-0.005493312,0.007329737682102481
-0.005492972,0.007724700375157166
-0.005492632000000001,0.007922181721684149
-0.005492292,0.008152576625966409
-0.005491952,0.007757613932911723
-0.005491612000000001,0.008053835952702197
-0.005491272,0.007527219028629823
-0.005490932,0.007165169893329695
-0.005490592000000001,0.006375244507220324
-0.005490252,0.006473985180483996
-0.005489912,0.006572725853747667
-0.005489572000000001,0.007099342777820581
-0.005489232,0.007955095279439066
-0.005488892,0.008481712203511979
-0.005488552000000001,0.008514625761266537
-0.005488212,0.007955095279438168
-0.005487872,0.007461391913120709
-0.005487532000000001,0.007362651239857037
-0.005487192,0.006605639411501806
-0.005486852,0.006375244507220324
-0.005486512000000001,0.006210676718447538
-0.005486172,0.00630941739171097
-0.005485832,0.006177763160692982
-0.005485492000000001,0.00505870219703804
-0.005485152,0.004235863253171717
-0.005484812,0.002919320942991828
-0.005484472000000001,0.002162309114637015
-0.005484132,0.001504037959546232
-0.005483792,0.001701519306073215
-0.005483452000000001,0.002129395556882458
-0.005483112,0.002524358249937862
-0.005482772,0.002919320942991828
-0.005482432000000001,0.004466258157456012
-0.005482092,0.005782800467640212
-0.005481752,0.006836034315784124
-0.005481412000000001,0.00779052749066628
-0.005481072,0.008382971530248728
-0.005480732,0.008613366434530208
-0.005480392000000001,0.008415885088002865
-0.005480052,0.007955095279437869
-0.005479712,0.007296824124347924
-0.005479372000000001,0.006605639411502225
-0.005479032000000001,0.006309417391711748
-0.005478692,0.005848627583147411
-0.005478352000000001,0.005420751332338168
-0.005478012000000001,0.004499171715212246
-0.005477672,0.003676332771346642
-0.005477332000000001,0.003083888731764614
-0.005476992000000001,0.002820580269728636
-0.005476652,0.002754753154219042
-0.005476312000000001,0.003676332771346642
-0.005475972000000001,0.005256183543562509
-0.005475632,0.005651146236620068
-0.005475292000000001,0.007066429220066024
-0.005474952000000001,0.007329737682102002
-0.005474612,0.007263910566593366
-0.005474272000000001,0.006901861431293239
-0.005473932000000001,0.006671466527011757
-0.005473592,0.005914454698656525
-0.005473252,0.005091615754792597
-0.005472912000000001,0.004663739503984133
-0.005472572,0.004202949695419555
-0.005472232,0.004433344599701455
-0.005471892000000001,0.004828307292755422
-0.005471552,0.005354924216829054
-0.005471212,0.006803120758029567
-0.005470872000000001,0.008218403741472948
-0.005470532,0.009436205378394135
-0.005470192,0.00983116807144882
-0.005469852000000001,0.01029195788001262
-0.005469512,0.01045652566878541
-0.005469172,0.01022613076450351
-0.005468832000000001,0.009929908744712493
-0.005468492,0.009534946051657807
-0.005468152,0.008909588454321223
-0.005467812000000001,0.007889268163929951
-0.005467472,0.006243590276202096
-0.005467132,0.004992875081528926
-0.005466792000000001,0.004630825946228797
-0.005466452,0.004071295464401267
-0.005466112,0.00403838190664677
-0.005465772000000001,0.004301690368683227
-0.005465432,0.004630825946230295
-0.005465092,0.005453664890092726
-0.005464752000000001,0.006572725853747667
-0.005464412,0.006901861431294076
-0.005464072,0.007362651239857037
-0.005463732000000001,0.006967688546802352
-0.005463392,0.006144849602937348
-0.005463052,0.005552405563356397
-0.005462712000000001,0.005157442870301712
-0.005462372,0.004992875081527968
-0.005462032,0.004466258157456012
-0.005461692000000001,0.004597912388474241
-0.005461352,0.004433344599700856
-0.005461012,0.004104209022155884
-0.005460672000000001,0.004499171715210569
-0.005460332,0.004894134408266332
-0.005459992,0.005486578447847282
-0.005459652000000001,0.006210676718447538
-0.005459312,0.00627650383395833
-0.005458972,0.007198083451084253
-0.005458632000000001,0.007988008837193623
-0.005458292,0.007988008837192605
-0.005457952,0.007428478355366152
-0.005457612000000001,0.007329737682102481
-0.005457272000000001,0.007000602104557508
-0.005456932,0.006868947873538681
-0.005456592000000001,0.006836034315784124
-0.005456252000000001,0.007198083451083594
-0.005455912,0.007625959701893495
-0.005455572000000001,0.007955095279439066
-0.005455232000000001,0.007691786817403088
-0.005454892,0.00779052749066628
-0.005454552000000001,0.007362651239857037
-0.005454212000000001,0.00709934277782106
-0.005453872,0.006836034315784124
-0.005453532000000001,0.00630941739171121
-0.005453192000000001,0.006473985180483696
-0.005452852,0.006375244507220324
-0.005452512000000001,0.006013195371920196
-0.005452172000000001,0.005914454698656704
-0.005451832,0.005354924216829054
-0.005451492,0.005190356428056269
-0.005451152000000001,0.004828307292756798
-0.005450812,0.00426877681092867
-0.005450472,0.004071295464401327
-0.005450132000000001,0.004268776810928311
-0.005449792,0.004334603926437783
-0.005449452,0.00426877681092867
-0.005449112000000001,0.003873814117874703
-0.005448772,0.004235863253174112
-0.005448432,0.004301690368683227
-0.005448092000000001,0.004466258157456012
-0.005447752,0.004861220850510698
-0.005447412,0.004729566619492469
-0.005447072000000001,0.004532085272965126
-0.005446732,0.003709246329101199
-0.005446392,0.002820580269728157
-0.005446052000000001,0.002096481999127901
-0.005445712,0.002030654883619864
-0.005445372,0.002623098923200814
-0.005445032000000001,0.002919320942991828
-0.005444692,0.003643419213593881
-0.005444352,0.004630825946228797
-0.005444012000000001,0.005684059794374625
-0.005443672,0.006572725853748804
-0.005443332,0.007198083451084253
-0.005442992000000001,0.007823441048420837
-0.005442652,0.008613366434531883
-0.005442312,0.009534946051657807
-0.005441972000000001,0.01052235278429452
-0.005441632,0.01081857480408583
-0.005441292,0.01098314259285832
-0.005440952000000001,0.01078566124633098
-0.005440612,0.009370378262883585
-0.005440272,0.008580452876775651
-0.005439932000000001,0.007230997008838809
-0.005439592,0.006210676718446101
-0.005439252,0.005420751332338168
-0.005438912000000001,0.00505870219703804
-0.005438572,0.005058702197037442
-0.005438232,0.004729566619492469
-0.005437892000000001,0.003840900560119427
-0.005437552,0.0005166312268935334
-0.005437212,-0.008073807347030245
-0.005436872000000001,-0.02403688285799044
-0.005436532000000001,-0.04826126136530041
-0.005436192,-0.07910126498136449
-0.005435852000000001,-0.1129693159108038
-0.005435512000000001,-0.1472652430909899
-0.005435172,-0.1791913941129727
-0.005434832000000001,-0.205324758970091
-0.005434492000000001,-0.2258957325666518
-0.005434152,-0.239357377688303
-0.005433812000000001,-0.2467300146253238
-0.005433472000000001,-0.2493630992456836
-0.005433132,-0.2480465569355061
-0.005432792000000001,-0.2443273249092412
-0.005432452000000001,-0.2390611556685216
-0.005432112,-0.2331038017149372
-0.005431772000000001,-0.2261261274709711
-0.005431432000000001,-0.2183914413986642
-0.005431092,-0.2115454213857023
-0.005430752,-0.2046006606994907
-0.005430412000000001,-0.1967014068384114
-0.005430072,-0.1900857817297311
-0.005429732,-0.1835359837365742
-0.005429392000000001,-0.1773482348787287
-0.005429052,-0.1709630046743334
-0.005428712,-0.1652360456250404
-0.005428372000000001,-0.158850815420668
-0.005428032,-0.1525643258895359
-0.005427692,-0.1460145278963791
-0.005427352000000001,-0.139925519711786
-0.005427012,-0.1338035979694384
-0.005426672,-0.1286032558442184
-0.005426332000000001,-0.1243574068938805
-0.005425992,-0.12030903929007
-0.005425652,-0.1169189428413506
-0.005425312000000001,-0.1135617599503858
-0.005424972,-0.1098425279241208
-0.005424632,-0.1058599874358194
-0.005424292000000001,-0.1011204351191632
-0.005423952,-0.09690749972657163
-0.005423612,-0.09236542875645098
-0.005423272000000001,-0.08808666624835856
-0.005422932,-0.08387373085576826
-0.005422592,-0.08002284459849207
-0.005422252000000001,-0.07577699564815421
-0.005421912,-0.07195902294862169
-0.005421572,-0.06981964169457938
-0.005421232000000001,-0.0676473468827786
-0.005420892,-0.06610040966831174
-0.005420552,-0.06461929956935936
-0.005420212000000001,-0.06300653523938607
-0.005419872,-0.06182164716021871
-0.005419532,-0.06001140148372136
-0.005419192000000001,-0.05793784734518426
-0.005418852,-0.05520602205155231
-0.005418512,-0.05316538147077348
-0.005418172000000001,-0.05089434598570904
-0.005417832,-0.04862331050064096
-0.005417492,-0.04661558347761662
-0.005417152000000001,-0.04464077001234319
-0.005416812,-0.04250138875829315
-0.005416472,-0.04039492106200532
-0.005416132000000001,-0.03845302115448646
-0.005415792,-0.03647820768920902
-0.005415452,-0.0342729993196577
-0.005415112000000001,-0.03252858075866617
-0.005414772000000001,-0.02976384190728841
-0.005414432,-0.0275257199799735
-0.005414092000000001,-0.02594586920775475
-0.005413752000000001,-0.02446475910880238
-0.005413412,-0.0238394015114631
-0.005413072000000001,-0.02321404391412651
-0.005412732000000001,-0.02242411852801858
-0.005412392,-0.02216081006598069
-0.005412052000000001,-0.0219962422772079
-0.005411712000000001,-0.02222663718148938
-0.005411372,-0.02186458804618967
-0.005411032000000001,-0.02163419314190777
-0.005410692000000001,-0.02117340333334481
-0.005410352,-0.02133797112211676
-0.005410012000000001,-0.02127214400660764
-0.005409672000000001,-0.02110757621783516
-0.005409332,-0.02146962535313499
-0.005408992,-0.02071261352478018
-0.005408652000000001,-0.01979103390765425
-0.005408312,-0.01837575092420662
-0.005407972,-0.01679590015198788
-0.005407632000000001,-0.01505148159099953
-0.005407292,-0.01320832235674115
-0.005406952,-0.01185886648880431
-0.005406612000000001,-0.01027901571658845
-0.005406272,-0.009291608983948858
-0.005405932,-0.008337115809066702
-0.005405592000000001,-0.007942153116012016
-0.005405252,-0.007053487056638975
-0.005404912,-0.005967339650738591
-0.005404572000000001,-0.005572376957683906
-0.005404232,-0.004914105802592763
-0.005403892,-0.003860871954446936
-0.005403552000000001,-0.00267598387528288
-0.005403212,-0.001260700891834649
-0.005402872,-9.985697163754359e-06
-0.005402532000000001,0.0003191498803818167
-0.005402192,0.0005824583424186327
-0.005401852,0.0007799396889456162
-0.005401512000000001,8.875497609991696e-05
-0.005401172,-0.001096133103066294
-0.005400832,-0.002281021182228195
-0.005400492000000001,-0.002708897433037437
-0.005400152,-0.002873465221809684
-0.005399812,-0.002577243202019209
-0.005399472000000001,-0.002577243202019209
-0.005399132,-0.002643070317528203
-0.005398792,-0.002577243202019209
-0.005398452000000001,-0.002544329644264652
-0.005398112,-0.002478502528755298
-0.005397772,-0.002346848297737309
-0.005397432000000001,-0.002215194066719081
-0.005397092,-0.002215194066718901
-0.005396752,-0.002116453393455409
-0.005396412000000001,-0.0009973924298004675
-0.005396072,-0.0001416399281800071
-0.005395732,0.0009445074777184018
-0.005395392000000001,0.002063568441373343
-0.005395052,0.002919320942994044
-0.005394712,0.004137122579910441
-0.005394372000000001,0.004104209022155884
-0.005394032000000001,0.004038381906646889
-0.005393692,0.003906727675628541
-0.005393352000000001,0.003873814117873984
-0.005393012000000001,0.003050975174011553
-0.005392672,0.002293963345655243
