Analysis/plots/wrd01_d2s01/non compliant measurements/cmb12_ch18.csv

#Digilent WaveForms Oscilloscope Acquisition
#Device Name: ADP3450
#Serial Number: SN:210018B9D9B0
#Date Time: 2024-08-07 11:04:48.707.771.840
#Sample rate: 2.94118e+06Hz
#Samples: 32768
#Trigger: Source: Channel 3 Type: Edge Condition: Rising Level: 0 V Hyst.: Auto HoldOff: 0 s
#Channel 3: Range: 200 mV/div Offset: 0 V Attenuation: 1 X Coupling: DC Bandwidth: 0 Hz Sample Mode: Average

Time (s),Channel 3 (V)
-0.005570446666666667,0.01815829818335177
-0.005570106666666666,0.01759876770152286
-0.005569766666666667,0.01680884231541493
-0.005569426666666667,0.01671010164215126
-0.005569086666666666,0.01638096606460527
-0.005568746666666667,0.01615057116032378
-0.005568406666666667,0.01615057116032378
-0.005568066666666666,0.01657844741113387
-0.005567726666666667,0.01703923721969683
-0.005567386666666667,0.01776333549029708
-0.005567046666666666,0.01792790327907065
-0.005566706666666667,0.01835577952987911
-0.005566366666666667,0.01884948289619747
-0.005566026666666666,0.01921153203149921
-0.005565686666666667,0.02010019809087064
-0.005565346666666667,0.02062681501494355
-0.005565006666666666,0.02092303703473433
-0.005564666666666667,0.02079138280371634
-0.005564326666666667,0.01993563030209785
-0.005563986666666666,0.01838869308763014
-0.005563646666666667,0.0164467931801148
-0.005563306666666667,0.0152948186587053
-0.005562966666666667,0.01420867125280689
-0.005562626666666667,0.01315543740465909
-0.005562286666666667,0.0125300798073225
-0.005561946666666667,0.01220094422977753
-0.005561606666666667,0.01262882048058617
-0.005561266666666667,0.01289212894262263
-0.005560926666666667,0.01338583230894009
-0.005560586666666666,0.01358331365546833
-0.005560246666666667,0.01387953567525935
-0.005559906666666667,0.01427449836831331
-0.005559566666666666,0.0143732390415777
-0.005559226666666667,0.01522899154319619
-0.005558886666666667,0.0162163982758311
-0.005558546666666666,0.01697341010418771
-0.005558206666666667,0.01769750837478797
-0.005557866666666667,0.01815829818335093
-0.005557526666666666,0.01825703885661544
-0.005557186666666667,0.01911279135823393
-0.005556846666666667,0.01924444558925191
-0.005556506666666666,0.0194419269357795
-0.005556166666666667,0.01914570491598848
-0.005555826666666667,0.01861908799191653
-0.005555486666666666,0.01802664395233354
-0.005555146666666667,0.01753294058601518
-0.005554806666666667,0.01677592875766175
-0.005554466666666666,0.01611765760256923
-0.005554126666666667,0.01559104067849632
-0.005553786666666667,0.01562395423625087
-0.005553446666666666,0.0150644237544234
-0.005553106666666667,0.01585434914053277
-0.005552766666666667,0.01983688962883418
-0.005552426666666666,0.02921725358888296
-0.005552086666666667,0.04626647650574354
-0.005551746666666667,0.07131369395696149
-0.005551406666666666,0.1022853518040633
-0.005551066666666667,0.1372395501393394
-0.005550726666666667,0.172193748474679
-0.005550386666666666,0.20477817065174
-0.005550046666666667,0.2319647693569547
-0.005549706666666667,0.2537535445904716
-0.005549366666666666,0.2685317320222835
-0.005549026666666667,0.2772538248272253
-0.005548686666666667,0.2806110077181901
-0.005548346666666666,0.2800843907941106
-0.005548006666666667,0.2764309858833614
-0.005547666666666667,0.2702103234677501
-0.005547326666666666,0.2632984763392806
-0.005546986666666667,0.2564195427685906
-0.005546646666666667,0.2487835973695334
-0.005546306666666666,0.2410159977394422
-0.005545966666666667,0.2323268184922549
-0.005545626666666667,0.2242959104001429
-0.005545286666666666,0.2164295700967901
-0.005544946666666667,0.2088923653710102
-0.005544606666666667,0.2014209877607257
-0.005544266666666666,0.1952003253451028
-0.005543926666666667,0.1888150951407304
-0.005543586666666667,0.1830881360914374
-0.005543246666666666,0.1771307821378537
-0.005542906666666667,0.1722595755901881
-0.005542566666666667,0.167585850389041
-0.005542226666666667,0.1625829896103574
-0.005541886666666667,0.1568560305610554
-0.005541546666666667,0.1515569477625717
-0.005541206666666667,0.1461262107330797
-0.005540866666666667,0.1403663381260223
-0.005540526666666667,0.1349685146542749
-0.005540186666666667,0.1299985674333459
-0.005539846666666666,0.1249627930968896
-0.005539506666666667,0.120025759433706
-0.005539166666666667,0.1156482562523579
-0.005538826666666666,0.111632802206294
-0.005538486666666667,0.1082756193153291
-0.005538146666666667,0.1055767075794604
-0.005537806666666666,0.103305672094391
-0.005537466666666667,0.1011662908403448
-0.005537126666666667,0.0996851807413924
-0.005536786666666666,0.09757871304509808
-0.005536446666666667,0.09487980130922438
-0.005536106666666667,0.0923454573621281
-0.005535766666666666,0.08931741004870422
-0.005535426666666667,0.08572983225345751
-0.005535086666666667,0.08316257474860672
-0.005534746666666666,0.08010161387742826
-0.005534406666666667,0.07766601060359102
-0.005534066666666667,0.07529623444526722
-0.005533726666666666,0.07266314982489833
-0.005533386666666667,0.07003006520453378
-0.005533046666666667,0.06683745010234174
-0.005532706666666666,0.06400688413544983
-0.005532366666666667,0.06170293509263082
-0.005532026666666667,0.05979394874286651
-0.005531686666666666,0.05818118441289321
-0.005531346666666667,0.05620637094761979
-0.005531006666666667,0.05485691507968295
-0.005530666666666666,0.05337580498072787
-0.005530326666666667,0.05196052199728192
-0.005529986666666667,0.05034775766730862
-0.005529646666666666,0.04936035093466975
-0.005529306666666667,0.04817546285550785
-0.005528966666666667,0.04731971035388936
-0.005528626666666666,0.04597025448595037
-0.005528286666666667,0.04478536640678847
-0.005527946666666667,0.04379795967415175
-0.005527606666666666,0.04304094784579544
-0.005527266666666667,0.04221810890193301
-0.005526926666666667,0.04182314620887833
-0.005526586666666666,0.04093448014950397
-0.005526246666666667,0.04021038187890503
-0.005525906666666667,0.03932171581953199
-0.005525566666666666,0.03872927177994924
-0.005525226666666667,0.03833430908689527
-0.005524886666666667,0.03705068033446755
-0.005524546666666666,0.035964532928565
-0.005524206666666667,0.03477964484940311
-0.005523866666666667,0.03398971946329374
-0.005523526666666666,0.03303522628841092
-0.005523186666666667,0.03267317715311145
-0.005522846666666667,0.03221238734454766
-0.005522506666666666,0.03125789416966281
-0.005522166666666667,0.02977678407071043
-0.005521826666666667,0.02842732820277359
-0.005521486666666666,0.02724244012360786
-0.005521146666666667,0.02632086050648193
-0.005520806666666667,0.0257284164668999
-0.005520466666666667,0.02645251473749884
-0.005520126666666667,0.0264196011797456
-0.005519786666666667,0.02730826723911865
-0.005519446666666667,0.0277690570476816
-0.005519106666666667,0.02763740281666422
-0.005518766666666667,0.02727535368136409
-0.005518426666666667,0.0271107858925916
-0.005518086666666666,0.02638668762199104
-0.005517746666666667,0.02500431819629965
-0.005517406666666667,0.0243131334834552
-0.005517066666666666,0.02355612165509913
-0.005516726666666667,0.02273328271123521
-0.005516386666666667,0.02131799972779182
-0.005516046666666666,0.01973814895557051
-0.005515706666666667,0.01914570491598848
-0.005515366666666667,0.01875074222293452
-0.005515026666666666,0.01822412529886088
-0.005514686666666667,0.01832286597212456
-0.005514346666666667,0.01855326087640603
-0.005514006666666666,0.01848743376089734
-0.005513666666666667,0.01901405068497026
-0.005513326666666667,0.01855326087640729
-0.005512986666666666,0.01937609982027038
-0.005512646666666667,0.01986980318658874
-0.005512306666666667,0.02000145741760697
-0.005511966666666666,0.02052807434167988
-0.005511626666666667,0.01973814895557051
-0.005511286666666667,0.02010019809087064
-0.005510946666666666,0.01950775405128861
-0.005510606666666667,0.0194419269357795
-0.005510266666666667,0.01931027270476127
-0.005509926666666666,0.01904696424272481
-0.005509586666666667,0.01973814895557051
-0.005509246666666667,0.02072555568820722
-0.005508906666666666,0.02079138280371574
-0.005508566666666667,0.02046224722617077
-0.005508226666666667,0.02039642011066165
-0.005507886666666666,0.01996854385985229
-0.005507546666666667,0.0199027167443433
-0.005507206666666667,0.02019893876413431
-0.005506866666666666,0.02049516078392532
-0.005506526666666667,0.02049516078392532
-0.005506186666666667,0.02039642011066165
-0.005505846666666666,0.02000145741760559
-0.005505506666666667,0.01924444558925215
-0.005505166666666667,0.01858617443416101
-0.005504826666666666,0.01845452020314188
-0.005504486666666667,0.01796081683682443
-0.005504146666666667,0.01710506433520594
-0.005503806666666666,0.01677592875765941
-0.005503466666666667,0.01624931183358745
-0.005503126666666667,0.015986003371551
-0.005502786666666666,0.01605183048705934
-0.005502446666666667,0.01562395423625087
-0.005502106666666667,0.01605183048706011
-0.005501766666666666,0.01674301519990755
-0.005501426666666667,0.01769750837478797
-0.005501086666666667,0.01871782866517924
-0.005500746666666666,0.01980397607108142
-0.005500406666666667,0.02079138280371634
-0.005500066666666667,0.02089012347698001
-0.005499726666666667,0.02023185232189006
-0.005499386666666667,0.0192115320314976
-0.005499046666666667,0.01753294058601518
-0.005498706666666667,0.0160847440448173
-0.005498366666666667,0.01486694240789606
-0.005498026666666667,0.01397827634852302
-0.005497686666666667,0.01341874586669656
-0.005497346666666666,0.01348457298220466
-0.005497006666666667,0.01364914077097745
-0.005496666666666667,0.01447197971483988
-0.005496326666666666,0.01513025086993251
-0.005495986666666667,0.015986003371551
-0.005495646666666667,0.0160189169293055
-0.005495306666666666,0.01647970673786936
-0.005494966666666667,0.0169075829886786
-0.005494626666666667,0.01667718808439712
-0.005494286666666666,0.01651262029562391
-0.005493946666666667,0.01611765760256923
-0.005493606666666667,0.01532773221646129
-0.005493266666666666,0.01473528817687783
-0.005492926666666667,0.01381370855975023
-0.005492586666666667,0.01374788144424124
-0.005492246666666666,0.013682054328732
-0.005491906666666667,0.0139124492330139
-0.005491566666666667,0.01457072038810385
-0.005491226666666666,0.01503151019666884
-0.005490886666666667,0.01559104067849632
-0.005490546666666667,0.01595308981379644
-0.005490206666666666,0.01720380500846961
-0.005489866666666667,0.01674301519990581
-0.005489526666666667,0.01651262029562391
-0.005489186666666666,0.01608474404481467
-0.005488846666666667,0.01555812712074176
-0.005488506666666667,0.0152948186587053
-0.005488166666666666,0.01513025086993293
-0.005487826666666667,0.01536064577421441
-0.005487486666666667,0.01549230000523264
-0.005487146666666666,0.01582143558277875
-0.005486806666666667,0.01611765760256923
-0.005486466666666667,0.01664427452664214
-0.005486126666666666,0.01687466943092272
-0.005485786666666667,0.01615057116032378
-0.005485446666666667,0.01647970673786936
-0.005485106666666666,0.01611765760256899
-0.005484766666666667,0.015986003371551
-0.005484426666666667,0.01585434914053277
-0.005484086666666666,0.01539355933196783
-0.005483746666666667,0.01476820173463239
-0.005483406666666667,0.01401118990627757
-0.005483066666666666,0.01328709163567678
-0.005482726666666667,0.0129908696158863
-0.005482386666666667,0.01272756115384985
-0.005482046666666666,0.0125629933650764
-0.005481706666666667,0.01220094422977693
-0.005481366666666667,0.01144393240142212
-0.005481026666666666,0.0118718086522313
-0.005480686666666667,0.0118388950944768
-0.005480346666666667,0.0125300798073225
-0.005480006666666666,0.01266173403834079
-0.005479666666666667,0.01269464759609529
-0.005479326666666667,0.01325417807792276
-0.005478986666666667,0.01364914077097673
-0.005478646666666667,0.01457072038810504
-0.005478306666666667,0.01545938644747809
-0.005477966666666667,0.01677592875765798
-0.005477626666666667,0.01776333549029708
-0.005477286666666667,0.01907987780047937
-0.005476946666666667,0.02026476587964127
-0.005476606666666666,0.02098886415024368
-0.005476266666666667,0.02161422174758026
-0.005475926666666667,0.02168004886308926
-0.005475586666666666,0.02118634549677102
-0.005475246666666667,0.02026476587964342
-0.005474906666666667,0.01894822356946353
-0.005474566666666666,0.01707215077745139
-0.005474226666666667,0.01585434914053277
-0.005473886666666667,0.01466946106137087
-0.005473546666666666,0.01404410346403213
-0.005473206666666667,0.0141428441372958
-0.005472866666666667,0.01473528817687675
-0.005472526666666666,0.01503151019666884
-0.005472186666666667,0.01631513894909657
-0.005471846666666667,0.01736837279724048
-0.005471506666666666,0.0178291626058062
-0.005471166666666667,0.01835577952987911
-0.005470826666666667,0.01822412529886112
-0.005470486666666666,0.0175987677015243
-0.005470146666666667,0.01703923721969683
-0.005469806666666667,0.01628222539134202
-0.005469466666666666,0.01615057116032378
-0.005469126666666667,0.01631513894909657
-0.005468786666666667,0.015986003371551
-0.005468446666666666,0.01628222539134202
-0.005468106666666667,0.01608474404481467
-0.005467766666666667,0.01605183048706011
-0.005467426666666666,0.01634805250685113
-0.005467086666666667,0.01634805250685113
-0.005466746666666667,0.0164467931801148
-0.005466406666666666,0.01657844741113207
-0.005466066666666667,0.01605183048706011
-0.005465726666666667,0.01562395423625087
-0.005465386666666666,0.01555812712074158
-0.005465046666666667,0.01545938644747809
-0.005464706666666667,0.0150644237544234
-0.005464366666666666,0.0146036339458596
-0.005464026666666667,0.0146036339458596
-0.005463686666666667,0.0148340288501415
-0.005463346666666666,0.0153277322164607
-0.005463006666666667,0.01578852202502366
-0.005462666666666667,0.01687466943092404
-0.005462326666666666,0.01782916260580722
-0.005461986666666667,0.01838869308763367
-0.005461646666666667,0.01898113712721569
-0.005461306666666666,0.01838869308763295
-0.005460966666666667,0.01799373039457898
-0.005460626666666667,0.01723671856622417
-0.005460286666666666,0.01592017625603919
-0.005459946666666667,0.01443906615708682
-0.005459606666666667,0.01332000519343187
-0.005459266666666666,0.01302378317364032
-0.005458926666666667,0.01272756115384985
-0.005458586666666667,0.0134516594244501
-0.005458246666666666,0.01397827634852505
-0.005457906666666667,0.01509733731217796
-0.005457566666666667,0.015986003371551
-0.005457226666666667,0.01654553385337745
-0.005456886666666667,0.01647970673786936
-0.005456546666666667,0.01628222539134202
-0.005456206666666667,0.01631513894909651
-0.005455866666666667,0.01694049654643316
-0.005455526666666667,0.01763168125927886
-0.005455186666666667,0.01815829818335081
-0.005454846666666666,0.0185203473186519
-0.005454506666666667,0.01845452020314278
-0.005454166666666667,0.01786207616356184
-0.005453826666666666,0.01720380500846961
-0.005453486666666667,0.01661136096888758
-0.005453146666666667,0.01608474404481563
-0.005452806666666666,0.0157556084672691
-0.005452466666666667,0.01568978135175999
-0.005452126666666667,0.01634805250684993
-0.005451786666666666,0.01578852202502366
-0.005451446666666667,0.0157556084672691
-0.005451106666666667,0.01493276952340667
-0.005450766666666666,0.01473528817687783
-0.005450426666666667,0.0152948186587053
-0.005450086666666667,0.01631513894909472
-0.005449746666666666,0.01717089145071506
-0.005449406666666667,0.01792790327906987
-0.005449066666666667,0.01825703885661484
-0.005448726666666666,0.01819121174110632
-0.005448386666666667,0.0178291626058062
-0.005448046666666667,0.01700632366194227
-0.005447706666666666,0.01657844741113303
-0.005447366666666667,0.01608474404481467
-0.005447026666666667,0.01555812712074176
-0.005446686666666666,0.01549230000523264
-0.005446346666666667,0.0152948186587053
-0.005446006666666667,0.01486694240789606
-0.005445666666666666,0.01414284413729514
-0.005445326666666667,0.01378079500199567
-0.005444986666666667,0.01338583230894099
-0.005444646666666666,0.01289212894262287
-0.005444306666666667,0.01302378317364086
-0.005443966666666667,0.0134516594244501
-0.005443626666666666,0.01378079500199651
-0.005443286666666667,0.01424158481055947
-0.005442946666666667,0.01463654750361416
-0.005442606666666666,0.01470237461912309
-0.005442266666666667,0.0146036339458596
-0.005441926666666667,0.0141428441372958
-0.005441586666666666,0.01341874586669411
-0.005441246666666667,0.01262882048058617
-0.005440906666666667,0.01193763576774048
-0.005440566666666666,0.01150975951693123
-0.005440226666666667,0.01150975951693123
-0.005439886666666667,0.01174015442121313
-0.005439546666666666,0.0122996849030403
-0.005439206666666667,0.01213511711426782
-0.005438866666666667,0.01269464759609529
-0.005438526666666666,0.0134187458666974
-0.005438186666666667,0.01443906615708682
-0.005437846666666667,0.01562395423625087
-0.005437506666666666,0.01743419991275241
-0.005437166666666667,0.01792790327906987
-0.005436826666666667,0.01835577952987911
-0.005436486666666667,0.01855326087640609
-0.005436146666666667,0.01838869308763367
-0.005435806666666667,0.0192115320314976
-0.005435466666666667,0.01894822356946162
-0.005435126666666667,0.01894822356946114
-0.005434786666666667,0.01861908799191557
-0.005434446666666667,0.01809247106784361
-0.005434106666666666,0.01677592875766037
-0.005433766666666667,0.01588726269828733
-0.005433426666666667,0.01562395423625135
-0.005433086666666666,0.01539355933196897
-0.005432746666666667,0.01480111529238694
-0.005432406666666667,0.01443906615708748
-0.005432066666666666,0.01404410346403213
-0.005431726666666667,0.01424158481055947
-0.005431386666666667,0.01450489327259545
-0.005431046666666666,0.01420867125280492
-0.005430706666666667,0.011378105285913
-0.005430366666666667,0.003478851424833668
-0.005430026666666666,-0.01139807668024051
-0.005429686666666667,-0.03420717220414859
-0.005429346666666667,-0.0637306335099326
-0.005429006666666666,-0.09713789463086178
-0.005428666666666667,-0.1309072048870374
-0.005428326666666667,-0.1619117762917738
-0.005427986666666666,-0.1892300292281126
-0.005427646666666667,-0.2106896688840838
-0.005427306666666667,-0.2259286461244437
-0.005426966666666666,-0.2356381456620381
-0.005426626666666667,-0.2402131301899215
-0.005426286666666667,-0.2400156488433942
-0.005425946666666666,-0.2372179964342568
-0.005425606666666667,-0.2317543458470004
-0.005425266666666667,-0.2246779309297706
-0.005424926666666666,-0.2172723804349952
-0.005424586666666667,-0.2095706079204289
-0.005424246666666667,-0.2018688354058625
-0.005423906666666666,-0.1944303713533201
-0.005423566666666667,-0.1875843513403847
-0.005423226666666667,-0.1804421093076458
-0.005422886666666666,-0.1737277435257043
-0.005422546666666667,-0.1671779455325593
-0.005422206666666667,-0.160364839077366
-0.005421866666666666,-0.154341658008272
-0.005421526666666667,-0.1488121803055164
-0.005421186666666667,-0.1431510483717326
-0.005420846666666666,-0.137687397784466
-0.005420506666666667,-0.132125006523956
-0.005420166666666667,-0.126101825454872
-0.005419826666666666,-0.1210660511184153
-0.005419486666666667,-0.1158657089932048
-0.005419146666666667,-0.1112248973498122
-0.005418806666666666,-0.1069461348417124
-0.005418466666666667,-0.1028648536801547
-0.005418126666666667,-0.09875065896083507
-0.005417786666666666,-0.09424150154845375
-0.005417446666666667,-0.09039061529117756
-0.005417106666666667,-0.08621059345634882
-0.005416766666666666,-0.0816685224862124
-0.005416426666666667,-0.07752141420914574
-0.005416086666666667,-0.07376926862512623
-0.005415746666666666,-0.07057665352292844
-0.005415406666666667,-0.0674169519784967
-0.005415066666666667,-0.06468512668486848
-0.005414726666666667,-0.0619533013912452
-0.005414386666666667,-0.05853029138476629
-0.005414046666666667,-0.05527184916706514
-0.005413706666666667,-0.05224380185365139
-0.005413366666666667,-0.04918284098247207
-0.005413026666666667,-0.04622062078456193
-0.005412686666666667,-0.04404832597276511
-0.005412346666666666,-0.04260012943156065
-0.005412006666666667,-0.04125067356362381
-0.005411666666666667,-0.04049366173527037
