Analysis/plots/wrd01_d2s01/non compliant measurements/cmb12_ch30.csv

#Digilent WaveForms Oscilloscope Acquisition
#Device Name: ADP3450
#Serial Number: SN:210018B9D9B0
#Date Time: 2024-08-07 11:09:54.501.170.200
#Sample rate: 2.94118e+06Hz
#Samples: 32768
#Trigger: Source: Channel 3 Type: Edge Condition: Rising Level: 0 V Hyst.: Auto HoldOff: 0 s
#Channel 3: Range: 200 mV/div Offset: 0 V Attenuation: 1 X Coupling: DC Bandwidth: 0 Hz Sample Mode: Average

Time (s),Channel 3 (V)
-0.0055702625,0.003281370078291956
-0.005569922499999999,0.002656012480955132
-0.0055695825,0.002524358249937143
-0.0055692425,0.002985148058500942
-0.005568902499999999,0.004038381906648506
-0.0055685625,0.004992875081528926
-0.0055682225,0.006375244507220324
-0.005567882499999999,0.006638552969256482
-0.0055675425,0.006473985180483996
-0.0055672025,0.005486578447847282
-0.005566862499999999,0.00433460392643503
-0.0055665225,0.002820580269728157
-0.0055661825,0.001833173537091444
-0.005565842499999999,0.001405297286281423
-0.0055655025,0.0009774210354729588
-0.0055651625,0.001043248150982073
-0.005564822499999999,0.001866087094847677
-0.0055644825,0.0027876667119736
-0.0055641425,0.003544678540328413
-0.005563802499999999,0.004499171715211587
-0.0055634625,0.00505870219703804
-0.0055631225,0.005684059794374625
-0.0055627825,0.006013195371919597
-0.0055624425,0.00677020720027501
-0.0055621025,0.007428478355366152
-0.0055617625,0.008086749510456097
-0.0055614225,0.008218403741475522
-0.0055610825,0.008152576625966409
-0.0055607425,0.007428478355367469
-0.0055604025,0.006572725853747667
-0.0055600625,0.006704380084765896
-0.0055597225,0.008119663068209276
-0.0055593825,0.0132212645201682
-0.0055590425,0.02523471310058155
-0.0055587025,0.04448914438696243
-0.0055583625,0.07177448376552531
-0.0055580225,0.1048196957511006
-0.0055576825,0.1402675974526942
-0.0055573425,0.1749255737683073
-0.0055570025,0.2063580214239093
-0.0055566625,0.2315039795483452
-0.0055563225,0.2503634481417522
-0.0055559825,0.2625414645109383
-0.0055556425,0.2686962998110293
-0.0055553025,0.2703419776987683
-0.0055549625,0.2683013371179858
-0.0055546225,0.2639896610521466
-0.0055542825,0.2575386037322456
-0.0055539425,0.2504292752572613
-0.0055536025,0.2427275027426949
-0.0055532625,0.2353548658056741
-0.0055529225,0.2280151424264079
-0.0055525825,0.2211032952979509
-0.0055522425,0.2138623125919483
-0.0055519025,0.2069833790212459
-0.0055515625,0.1992816065066795
-0.005551222499999999,0.1921064509161726
-0.0055508825,0.1847009004214107
-0.0055505425,0.1775257448309173
-0.005550202499999999,0.1710088603955035
-0.0055498625,0.16468945730664
-0.0055495225,0.1585346220065378
-0.005549182499999999,0.1529722307460069
-0.0055488425,0.1470477903501974
-0.0055485025,0.1416828804362046
-0.005548162499999999,0.1371737230238217
-0.0055478225,0.1324670842649286
-0.0055474825,0.1287807657964182
-0.005547142499999999,0.1247323981925992
-0.0055468025,0.1200586729914606
-0.0055464625,0.1159115647143864
-0.005546122499999999,0.1115011479752682
-0.0055457825,0.1073869532559561
-0.0055454425,0.103305672094391
-0.005545102499999999,0.09961935362587379
-0.0055447625,0.09586720804186111
-0.0055444225,0.09158844553376869
-0.005544082499999999,0.08816543552728874
-0.0055437425,0.08487407975183903
-0.0055434025,0.08227390868922901
-0.005543062499999999,0.07973956474212543
-0.0055427225,0.07825845464317305
-0.0055423825,0.07651403608218152
-0.0055420425,0.07450630905915719
-0.0055417025,0.07233401424735278
-0.0055413625,0.07026046010881568
-0.0055410225,0.06779194327722837
-0.0055406825,0.06529051288787754
-0.0055403425,0.06255868759424932
-0.0055400025,0.05969520806960805
-0.0055396625,0.05706212344923827
-0.0055393225,0.05502148286845573
-0.0055389825,0.05393533546255732
-0.0055386425,0.05255296603686395
-0.0055383025,0.05140099151545445
-0.0055379625,0.04952491872344811
-0.0055376225,0.04843877131754431
-0.0055372825,0.0474513645849076
-0.0055369425,0.04633230362125468
-0.0055366025,0.04488410708005214
-0.0055362625,0.04356756476986986
-0.0055359225,0.04172440553561801
-0.0055355825,0.03965085139707756
-0.0055352425,0.03741272946976767
-0.0055349025,0.0346809041761444
-0.0055345625,0.03316688051942981
-0.0055342225,0.03234404157556588
-0.0055338825,0.03152120263170345
-0.0055335425,0.03132372128517461
-0.0055332025,0.0314882890739474
-0.0055328625,0.03194907888251119
-0.0055325225,0.03237695513332044
-0.0055321825,0.03290357205739335
-0.0055318425,0.03214656022903854
-0.0055315025,0.03073127724559258
-0.0055311625,0.0289539451268465
-0.0055308225,0.02609046560220003
-0.005530482499999999,0.02355612165509913
-0.0055301425,0.02141674040105292
-0.0055298025,0.01973814895557051
-0.005529462499999999,0.01842160664538709
-0.0055291225,0.01779624904805164
-0.0055287825,0.0178291626058062
-0.005528442499999999,0.01726963212397867
-0.0055281025,0.01723671856622417
-0.0055277625,0.01674301519990581
-0.005527422499999999,0.01687466943092338
-0.0055270825,0.01651262029562391
-0.0055267425,0.0166771880843967
-0.005526402499999999,0.01647970673786858
-0.0055260625,0.01605183048706011
-0.0055257225,0.01618348471807834
-0.005525382499999999,0.01585434914053361
-0.0055250425,0.01631513894909657
-0.0055247025,0.01671010164215126
-0.005524362499999999,0.01763168125928005
-0.0055240225,0.01828995241437
-0.0055236825,0.01835577952987911
-0.005523342499999999,0.01842160664538745
-0.0055230025,0.01799373039457898
-0.0055226625,0.01700632366194227
-0.005522322499999999,0.0160189169293043
-0.0055219825,0.01532773221645986
-0.0055216425,0.01427449836831403
-0.005521302499999999,0.01358331365546797
-0.0055209625,0.01338583230894099
-0.0055206225,0.01351748653995922
-0.0055202825,0.01348457298220472
-0.0055199425,0.01335291875118643
-0.0055196025,0.0125300798073225
-0.0055192625,0.0114110188436696
-0.0055189225,0.01029195788001262
-0.0055185825,0.009238724031866792
-0.0055182425,0.008119663068213885
-0.0055179025,0.008053835952702737
-0.0055175625,0.00881084778105755
-0.0055172225,0.009502032493901993
-0.0055168825,0.01085148836184009
-0.0055165425,0.01239842557630427
-0.0055162025,0.01355040009771168
-0.0055158625,0.01407701702178669
-0.0055155225,0.01384662211750479
-0.0055151825,0.01299086961588786
-0.0055148425,0.0116085001901949
-0.0055145025,0.009995735860221606
-0.0055141625,0.008679193550041715
-0.0055138225,0.007296824124347924
-0.0055134825,0.006868947873538681
-0.0055131425,0.006967688546802173
-0.0055128025,0.007263910566593366
-0.0055124625,0.007988008837193623
-0.0055121225,0.008679193550039321
-0.0055117825,0.009107069800848565
-0.0055114425,0.009403291820639578
-0.0055111025,0.009370378262885021
-0.0055107625,0.009205810474112236
-0.0055104225,0.009534946051657807
-0.0055100825,0.009205810474112236
-0.0055097425,0.008580452876775651
-0.0055094025,0.008613366434530208
-0.0055090625,0.008448798645757422
-0.005508722499999999,0.008218403741475642
-0.0055083825,0.008284230856984636
-0.0055080425,0.008251317299230079
-0.005507702499999999,0.007889268163929292
-0.0055073625,0.007527219028629823
-0.0055070225,0.007461391913120709
-0.005506682499999999,0.006770207200273512
-0.0055063425,0.005947368256411082
-0.0055060025,0.005124529312547154
-0.005505662499999999,0.004992875081527189
-0.0055053225,0.00403838190664677
-0.0055049825,0.003544678540328413
-0.005504642499999999,0.003050975174010056
-0.0055043025,0.003050975174010056
-0.0055039625,0.003347197193801071
-0.005503622499999999,0.003840900560119368
-0.0055032825,0.00380798700236487
-0.0055029425,0.003939641233383098
-0.005502602499999999,0.004334603926437783
-0.0055022625,0.004334603926437783
-0.0055019225,0.004499171715210569
-0.005501582499999999,0.005091615754793136
-0.0055012425,0.005387837774583611
-0.0055009025,0.005947368256411082
-0.005500562499999999,0.006803120758030645
-0.0055002225,0.007395564797611595
-0.0054998825,0.006572725853747667
-0.0054995425,0.006046108929675711
-0.0054992025,0.005519492005601839
-0.0054988625,0.006408158064974882
-0.0054985225,0.005848627583148428
-0.0054981825,0.007362651239857037
-0.0054978425,0.007823441048420837
-0.0054975025,0.007922181721684327
-0.0054971625,0.007691786817402609
-0.0054968225,0.006408158064974882
-0.0054964825,0.005914454698657422
-0.0054961425,0.005354924216829054
-0.0054958025,0.005716973352129182
-0.0054954625,0.006144849602937647
-0.0054951225,0.005947368256411082
-0.0054947825,0.004959961523774369
-0.0054944425,0.004104209022157441
-0.0054941025,0.003149715847273728
-0.0054937625,0.0025572718076917
-0.0054934225,0.002030654883619744
-0.0054930825,0.002228136230146129
-0.0054927425,0.002590185365446257
-0.0054924025,0.003643419213590169
-0.0054920625,0.004729566619492469
-0.0054917225,0.00630941739171121
-0.0054913825,0.007362651239855121
-0.0054910425,0.007757613932911723
-0.0054907025,0.007658873259648051
-0.0054903625,0.008152576625966409
-0.0054900225,0.007988008837193623
-0.0054896825,0.007922181721684508
-0.0054893425,0.007165169893329695
-0.0054890025,0.006572725853747667
-0.0054886625,0.00528909710131994
-0.0054883225,0.005420751332338168
-0.005487982499999999,0.005486578447847223
-0.0054876425,0.005453664890092726
-0.0054873025,0.005420751332338168
-0.005486962499999999,0.005223269985811304
-0.0054866225,0.005486578447847282
-0.0054862825,0.005585319121110954
-0.005485942499999999,0.005091615754791819
-0.0054856025,0.004663739503983355
-0.0054852625,0.004992875081528926
-0.005484922499999999,0.005157442870301353
-0.0054845825,0.004959961523774369
-0.0054842425,0.005256183543565383
-0.005483902499999999,0.006177763160695257
-0.0054835625,0.007428478355366152
-0.0054832225,0.008152576625966409
-0.005482882499999999,0.009008329127585491
-0.0054825425,0.009337464705130465
-0.0054822025,0.009469118936148692
-0.005481862499999999,0.009172896916356602
-0.0054815225,0.008580452876775651
-0.0054811825,0.008086749510457293
-0.005480842499999999,0.007132256335574899
-0.0054805025,0.00700060210455691
-0.0054801625,0.006836034315784124
-0.005479822499999999,0.007099342777821479
-0.0054794825,0.007593046144138938
-0.0054791425,0.007658873259648051
-0.0054788025,0.007988008837193025
-0.0054784625,0.008218403741475522
-0.0054781225,0.008185490183720966
-0.0054777825,0.007922181721684986
-0.0054774425,0.007329737682102481
-0.0054771025,0.006342330949465767
-0.0054767625,0.005684059794375822
-0.0054764225,0.004894134408265255
-0.0054760825,0.003676332771346642
-0.0054757425,0.003215542962783681
-0.0054754025,0.002754753154219042
-0.0054750625,0.002524358249937143
-0.0054747225,0.00255727180769164
-0.0054743825,0.003413024309310185
-0.0054740425,0.003775073444610313
-0.0054737025,0.004071295464400789
-0.0054733625,0.004202949695419555
-0.0054730225,0.004466258157456012
-0.0054726825,0.004202949695420034
-0.0054723425,0.004170036137664999
-0.0054720025,0.003840900560119427
-0.0054716625,0.003906727675628422
-0.0054713225,0.004367517484192341
-0.0054709825,0.004795393735001583
-0.0054706425,0.004729566619492588
-0.0054703025,0.005025788639283483
-0.0054699625,0.005618232678865511
-0.0054696225,0.00574988690988374
-0.0054692825,0.005782800467638296
-0.0054689425,0.005684059794374625
-0.0054686025,0.005947368256411082
-0.0054682625,0.006276503833956653
-0.0054679225,0.006177763160692982
-0.0054675825,0.006013195371920196
-0.005467242499999999,0.005025788639283483
-0.0054669025,0.003709246329101199
-0.0054665625,0.002392704018918914
-0.005466222499999999,0.002129395556882877
-0.0054658825,0.002359790461164357
-0.0054655425,0.0027876667119736
-0.005465202499999999,0.003116802289520189
-0.0054648625,0.003676332771346642
-0.0054645225,0.004630825946228797
-0.005464182499999999,0.005486578447849258
-0.0054638425,0.006572725853747667
-0.0054635025,0.007329737682102481
-0.005463162499999999,0.006967688546800795
-0.0054628225,0.006111936045183867
-0.0054624825,0.005025788639283483
-0.005462142499999999,0.004532085272964169
-0.0054618025,0.004005468348892213
-0.0054614625,0.004071295464401327
-0.005461122499999999,0.00446625815745745
-0.0054607825,0.005256183543565383
-0.0054604425,0.006375244507220324
-0.005460102499999999,0.007165169893329695
-0.0054597625,0.007165169893329695
-0.0054594225,0.006836034315784124
-0.005459082499999999,0.006144849602936389
-0.0054587425,0.005025788639283483
-0.0054584025,0.004071295464401327
-0.005458062499999999,0.003643419213591546
-0.0054577225,0.003347197193801071
-0.0054573825,0.003643419213592085
-0.0054570425,0.004005468348891554
-0.0054567025,0.004861220850510698
-0.0054563625,0.006177763160692982
-0.0054560225,0.007165169893327899
-0.0054556825,0.008284230856984636
-0.0054553425,0.009567859609412364
-0.0054550025,0.009896995186957337
-0.0054546625,0.008843761338812107
-0.0054543225,0.007494305470875266
-0.0054539825,0.006408158064976858
-0.0054536425,0.004630825946228797
-0.0054533025,0.00482830729275614
-0.0054529625,0.005091615754792118
-0.0054526225,0.005618232678865511
-0.0054522825,0.006013195371920196
-0.0054519425,0.006276503833956174
-0.0054516025,0.00653981229599311
-0.0054512625,0.006638552969256781
-0.0054509225,0.00653981229599329
-0.0054505825,0.005782800467638296
-0.0054502425,0.005618232678865511
-0.0054499025,0.005684059794374505
-0.0054495625,0.005025788639283483
-0.0054492225,0.003873814117873984
-0.0054488825,0.002590185365448592
-0.0054485425,0.00107616170873663
-0.0054482025,0.0002862363226272596
-0.0054478625,0.001109075266491187
-0.0054475225,0.002228136230146129
-0.0054471825,0.00357759209808297
-0.0054468425,0.005025788639283483
-0.0054465025,0.00653981229599311
-0.0054461625,0.006836034315784124
-0.0054458225,0.006868947873538681
-0.005445482499999999,0.007066429220064646
-0.0054451425,0.00630941739171121
-0.0054448025,0.005684059794374625
-0.005444462499999999,0.004992875081528806
-0.0054441225,0.004927047966019811
-0.0054437825,0.004663739503983355
-0.005443442499999999,0.005190356428056089
-0.0054431025,0.005091615754792597
-0.0054427625,0.005387837774583611
-0.005442422499999999,0.005486578447848001
-0.0054420825,0.005881541140901968
-0.0054417425,0.005354924216829054
-0.005441402499999999,0.005354924216828097
-0.0054410625,0.00482830729275614
-0.0054407225,0.004861220850510698
-0.005440382499999999,0.005091615754792059
-0.0054400425,0.004795393735001583
-0.0054397025,0.004992875081528926
-0.005439362499999999,0.004762480177247565
-0.0054390225,0.00505870219703804
-0.0054386825,0.004861220850510698
-0.005438342499999999,0.004268776810927593
-0.0054380025,0.003676332771346642
-0.0054376625,0.002293963345655243
-0.005437322499999999,-0.003070946568357262
-0.0054369825,-0.01389950706958685
-0.0054366425,-0.03256149431642073
-0.0054363025,-0.05721374907453916
-0.0054359625,-0.08825123403713137
-0.0054356225,-0.1220205442933069
-0.0054352825,-0.1543745715659778
-0.0054349425,-0.1833385023900468
-0.0054346025,-0.207332485993119
-0.0054342625,-0.2255665969891104
-0.0054339225,-0.2373825642230296
-0.0054335825,-0.2443931520247503
-0.0054332425,-0.2461046570279841
-0.0054329025,-0.2447552011600504
-0.0054325625,-0.2412005369225582
-0.0054322225,-0.2360331083551022
-0.0054318825,-0.2294833103619359
-0.0054315425,-0.2221765005404242
-0.0054312025,-0.2146063822568899
-0.0054308625,-0.2066413012802733
-0.0054305225,-0.1990382694389706
-0.0054301825,-0.1916656325019632
-0.0054298425,-0.1840626006606471
-0.0054295025,-0.1770190993011719
-0.0054291625,-0.1713908809251529
-0.0054288225,-0.1654993540870769
-0.0054284825,-0.1603977526351205
-0.0054281425,-0.155065756278892
-0.0054278025,-0.1499970683846805
-0.0054274625,-0.1445663313551786
-0.0054271225,-0.1397938654807678
-0.0054267825,-0.1345606097977932
-0.0054264425,-0.1293273541148186
-0.0054261025,-0.1238966170853167
-0.0054257625,-0.1189924969798877
-0.0054254225,-0.1140225497589496
-0.0054250825,-0.1095133923465753
-0.005424742499999999,-0.10507006204971
-0.0054244025,-0.1007912995416176
-0.0054240625,-0.09684167261107077
-0.005423722499999999,-0.09305661346929053
-0.0054233825,-0.08966651702057732
-0.0054230425,-0.08673721038042173
-0.005422702499999999,-0.08377499018250542
-0.0054223625,-0.08038489373379221
-0.0054220225,-0.07696188372731827
-0.005421682499999999,-0.07409840420266582
-0.0054213425,-0.07080704842721608
-0.0054210025,-0.06744986553625126
-0.005420662499999999,-0.0637964606254892
-0.0054203225,-0.06037345061902149
-0.0054199825,-0.05718083551682945
-0.005419642499999999,-0.05458066445421603
-0.0054193025,-0.05270459166220968
-0.0054189625,-0.05165135781406385
-0.005418622499999999,-0.05046646973489818
-0.0054182825,-0.04957780367552676
-0.0054179425,-0.04868913761615372
-0.005417602499999999,-0.04786629867228632
-0.0054172625,-0.04595731232252548
-0.0054169225,-0.04319257347114268
-0.005416582499999999,-0.04042783461975587
-0.0054162425,-0.03822262625020455
-0.0054159025,-0.03568828230310366
-0.005415562499999999,-0.03424008576190057
-0.0054152225,-0.03282480277845719
-0.0054148825,-0.03216653162336605
-0.0054145425,-0.03091581642869515
-0.0054142025,-0.03006006392707439
-0.0054138625,-0.02864478094362844
-0.0054135225,-0.02663705392060411
-0.0054131825,-0.02426727776227234
-0.0054128425,-0.02225955073924436
-0.0054125025,-0.02084426775580098
-0.0054121625,-0.01975812034989802
-0.0054118225,-0.01867197294399764
-0.0054114825,-0.01804661534666219
-0.0054111425,-0.01725668996055168
-0.0054108025,-0.01679590015198788
-0.0054104625,-0.01600597476587995
-0.0054101225,-0.01541353072629648
-0.0054097825,-0.01485400024446901
-0.0054094425,-0.01505148159099599
-0.0054091025,-0.01439321043590521
-0.0054087625,-0.01584140697710572
-0.0054084225,-0.01630219678566868
-0.0054080825,-0.01554518495731471
-0.0054077425,-0.01485400024446901
-0.0054074025,-0.01360328504979811
-0.0054070625,-0.01189178004655887
-0.0054067225,-0.01021318860107646
-0.0054063825,-0.009357436099459529
-0.0054060425,-0.00860042427110316
-0.0054057025,-0.00860042427110316
-0.0054053625,-0.008205461578048474
-0.0054050225,-0.008205461578048474
-0.0054046825,-0.008633337828857716
-0.0054043425,-0.008830819175385059
-0.0054040025,-0.008567510713348603
-0.0054036625,-0.008501683597839487
-0.0054033225,-0.008468770040084931
-0.005402982499999999,-0.008205461578050091
-0.0054026425,-0.009094127637421515
-0.0054023025,-0.008995386964157845
-0.005401962499999999,-0.008764992059874448
-0.0054016225,-0.007942153116012016
-0.0054012825,-0.00711931417214809
-0.005400942499999999,-0.006493956574809349
-0.0054006025,-0.005309068495647449
-0.0054002625,-0.004222921089747064
-0.005399922499999999,-0.00372921772342757
-0.0053995825,-0.003103860126092122
-0.0053992425,-0.002379761855491866
-0.005398902499999999,-0.00132652800734532
-0.0053985625,-0.0009315653142913533
-0.0053982225,-0.0003062077169547683
-0.005397882499999999,0.0006811990156839804
-0.0053975425,0.001800259979336887
-0.0053972025,0.002623098923200814
-0.005396862499999999,0.003413024309310723
-0.0053965225,0.003709246329101199
-0.0053961825,0.003182629405028285
-0.005395842499999999,0.002787666711973001
-0.0053955025,0.002458531134428029
-0.0053951625,0.001174902382000301
-0.005394822499999999,0.0006482854579281662
-0.0053944825,0.00107616170873663
-0.0053941425,0.001174902382000301
-0.0053938025,0.001306556613018291
-0.0053934625,0.0009774210354729588
-0.0053931225,0.0008128532467001733
-0.0053927825,0.0002204092071192231
-0.0053924425,5.584141834535986e-05
-0.0053921025,-0.0002403806014456541
-0.0053917625,2.292786059032381e-05
-0.0053914225,0.0003849769958909309
-0.0053910825,0.0009115939199638446
-0.0053907425,0.001273643055263314
-0.0053904025,0.001701519306073215
-0.0053900625,0.0027876667119736
-0.0053897225,0.003709246329099522
-0.0053893825,0.004071295464401327
-0.0053890425,0.004499171715210569
-0.0053887025,0.004532085272965066
-0.0053883625,0.004433344599701455
-0.0053880225,0.004071295464401327
-0.0053876825,0.00308388873176641
-0.0053873425,0.002524358249937143
-0.0053870025,0.001899000652600558
-0.0053866625,0.00163569219056458
-0.0053863225,0.002129395556882458
-0.0053859825,0.001734432863827772
-0.0053856425,0.001899000652600259
-0.0053853025,0.002985148058500942
-0.0053849625,0.004202949695419555
-0.0053846225,0.005387837774583611
