Analysis/plots/wrd01_d2s01/non compliant measurements/cmb10_ch44.csv

#Digilent WaveForms Oscilloscope Acquisition
#Device Name: ADP3450
#Serial Number: SN:210018B9D9B0
#Date Time: 2024-08-07 11:59:29.253.455.100
#Sample rate: 2.94118e+06Hz
#Samples: 32768
#Trigger: Source: Channel 3 Type: Edge Condition: Rising Level: 0 V Hyst.: Auto HoldOff: 0 s
#Channel 3: Range: 200 mV/div Offset: 0 V Attenuation: 1 X Coupling: DC Bandwidth: 0 Hz Sample Mode: Average

Time (s),Channel 3 (V)
-0.005570309473684211,0.01170724086345858
-0.00556996947368421,0.01170724086345804
-0.00556962947368421,0.01141101884366756
-0.005569289473684211,0.01111479682387655
-0.00556894947368421,0.01150975951693129
-0.00556860947368421,0.01154267307468579
-0.005568269473684211,0.01210220355651326
-0.00556792947368421,0.01216803067202154
-0.00556758947368421,0.01170724086345858
-0.005567249473684211,0.01091731547734921
-0.00556690947368421,0.00996282230246639
-0.00556656947368421,0.009600773167166921
-0.005566229473684211,0.009008329127584893
-0.00556588947368421,0.008547539319021993
-0.00556554947368421,0.00904124268533945
-0.005565209473684211,0.009469118936148692
-0.00556486947368421,0.009962822302468068
-0.00556452947368421,0.01052235278429452
-0.005564189473684211,0.01068692057306731
-0.00556384947368421,0.01154267307468729
-0.00556350947368421,0.01236551201854972
-0.005563169473684211,0.0125300798073225
-0.005562829473684211,0.01285921538486748
-0.00556248947368421,0.01332000519343187
-0.005562149473684211,0.01312252384690453
-0.005561809473684211,0.01282630182711406
-0.00556146947368421,0.01236551201854972
-0.005561129473684211,0.01095022903510376
-0.005560789473684211,0.009567859609414878
-0.00556044947368421,0.009205810474112236
-0.00556010947368421,0.008777934223302994
-0.005559769473684211,0.008284230856985535
-0.00555942947368421,0.008679193550039321
-0.00555908947368421,0.008745020665548437
-0.005558749473684211,0.009107069800847906
-0.00555840947368421,0.009403291820639578
-0.00555806947368421,0.009436205378394135
-0.005557729473684211,0.009008329127585672
-0.00555738947368421,0.008679193550039321
-0.00555704947368421,0.007296824124347924
-0.005556709473684211,0.007691786817401891
-0.00555636947368421,0.007691786817402609
-0.00555602947368421,0.009370378262885021
-0.005555689473684211,0.01312252384689771
-0.00555534947368421,0.02240414713368964
-0.00555500947368421,0.04001290053237769
-0.005554669473684211,0.06601461115843052
-0.00555432947368421,0.09780910794937997
-0.00555398947368421,0.1335203181130744
-0.005553649473684211,0.1694619231810508
-0.00555330947368421,0.202737530070908
-0.00555296947368421,0.2305165728157542
-0.005552629473684211,0.2517787311251981
-0.00555228947368421,0.2656024253821121
-0.00555194947368421,0.2725142725105691
-0.005551609473684211,0.2740282961672787
-0.00555126947368421,0.27136229798915
-0.00555092947368421,0.2660961287484305
-0.005550589473684211,0.2599412934483283
-0.00555024947368421,0.2525028293957852
-0.00554990947368421,0.2452618466897958
-0.005549569473684211,0.2378562961950204
-0.00554922947368421,0.2307469677200239
-0.00554888947368421,0.2240326019381065
-0.005548549473684211,0.2171865819251586
-0.00554820947368421,0.2107026110474983
-0.00554786947368421,0.2038236774768084
-0.005547529473684211,0.1971422252526333
-0.00554718947368421,0.1909873899525195
-0.00554684947368421,0.1846021597481471
-0.005546509473684211,0.1787764600255904
-0.00554616947368421,0.1726874518409867
-0.00554582947368421,0.1667959250029317
-0.005545489473684211,0.1612664473001661
-0.00554514947368421,0.1551445255578087
-0.00554480947368421,0.1497796156438256
-0.005544469473684211,0.1441513972677964
-0.00554412947368421,0.1382598704297214
-0.00554378947368421,0.1331911825355289
-0.005543449473684211,0.1286161980076454
-0.00554310947368421,0.1236462507866995
-0.00554276947368421,0.1193674882786149
-0.005542429473684211,0.115714083367859
-0.005542089473684211,0.1127518631699543
-0.00554174947368421,0.1098883836453024
-0.005541409473684211,0.1076502617179926
-0.005541069473684211,0.1049513499821238
-0.00554072947368421,0.1017258213221723
-0.005540389473684211,0.09836863843120744
-0.005540049473684211,0.09451775217393125
-0.00553970947368421,0.09076560658990473
-0.00553936947368421,0.08701346100588525
-0.005539029473684211,0.08359045099941752
-0.00553868947368421,0.08062823080150117
-0.00553834947368421,0.07835719531643673
-0.005538009473684211,0.07651403608218488
-0.00553766947368421,0.07467087684792631
-0.00553732947368421,0.07216944645857998
-0.005536989473684211,0.06996423808902867
-0.00553664947368421,0.06818690597027857
-0.00553630947368421,0.06598169760072325
-0.005535969473684211,0.06377648923117192
-0.00553562947368421,0.0608800961487669
-0.00553528947368421,0.05821409797064777
-0.005534949473684211,0.055383532003761
-0.00553460947368421,0.05409990325132813
-0.00553426947368421,0.05232257113258205
-0.005533929473684211,0.05100602882240216
-0.00553358947368421,0.04975531362772659
-0.00553324947368421,0.04820837641326241
-0.005532909473684211,0.04728679679613481
-0.00553256947368421,0.04603608160146164
-0.00553222947368421,0.04471953929127936
-0.005531889473684211,0.04432457659822467
-0.00553154947368421,0.04429166304047012
-0.00553120947368421,0.04425874948271556
-0.005530869473684211,0.04392961390516999
-0.00553052947368421,0.04281055294151504
-0.00553018947368421,0.04179023265112377
-0.005529849473684211,0.03991415985911401
-0.00552950947368421,0.03869635822219385
-0.00552916947368421,0.03784060572057692
-0.005528829473684211,0.03708359389222211
-0.00552848947368421,0.03612910071733851
-0.00552814947368421,0.03533917533123058
-0.005527809473684211,0.03474673129164855
-0.00552746947368421,0.03425302792532846
-0.00552712947368421,0.03329853475044803
-0.005526789473684211,0.03227821446005677
-0.00552644947368421,0.03112623993864505
-0.00552610947368421,0.02990843830172865
-0.005525769473684211,0.02819693329849169
-0.00552542947368421,0.02747283502788856
-0.00552508947368421,0.02589298425567269
-0.005524749473684211,0.02487266396528142
-0.00552440947368421,0.02428021992569855
-0.00552406947368421,0.02381943011713559
-0.005523729473684211,0.02339155386632635
-0.00552338947368421,0.02312824540428857
-0.00552304947368421,0.02240414713368964
-0.005522709473684211,0.02112051838126191
-0.00552236947368421,0.02006728453311524
-0.00552202947368421,0.01960649472455228
-0.005521689473684211,0.0185203473186519
-0.00552134947368421,0.0184216066453896
-0.00552100947368421,0.01917861847374304
-0.005520669473684211,0.02003437097536152
-0.005520329473684211,0.02052807434167898
-0.00551998947368421,0.01970523539781595
-0.005519649473684211,0.01868491510742468
-0.005519309473684211,0.01805955751008924
-0.00551896947368421,0.01753294058601518
-0.005518629473684211,0.01746711347050607
-0.005518289473684211,0.01789498972131454
-0.00551794947368421,0.01819121174110632
-0.00551760947368421,0.01832286597212456
-0.005517269473684211,0.01871782866517852
-0.00551692947368421,0.01865200154967013
-0.00551658947368421,0.01842160664538823
-0.005516249473684211,0.0187178286651787
-0.00551590947368421,0.01776333549029708
-0.00551556947368421,0.01726963212397873
-0.005515229473684211,0.01667718808439778
-0.00551488947368421,0.01578852202502366
-0.00551454947368421,0.01559104067849632
-0.005514209473684211,0.01447197971484341
-0.00551386947368421,0.01430741192606859
-0.00551352947368421,0.01410993057954124
-0.005513189473684211,0.01457072038810421
-0.00551284947368421,0.01489985596565062
-0.00551250947368421,0.0157556084672691
-0.005512169473684211,0.01595308981379644
-0.00551182947368421,0.01615057116032378
-0.00551148947368421,0.01671010164215126
-0.005511149473684211,0.01671010164215126
-0.00551080947368421,0.01746711347050607
-0.00551046947368421,0.01680884231541493
-0.005510129473684211,0.01578852202502366
-0.00550978947368421,0.0148340288501415
-0.00550944947368421,0.01424158481055947
-0.005509109473684211,0.0141428441372958
-0.00550876947368421,0.01361622721322181
-0.00550842947368421,0.01302378317364086
-0.005508089473684211,0.01279338826935896
-0.00550774947368421,0.0129908696158866
-0.00550740947368421,0.01315543740465909
-0.005507069473684211,0.0141428441372958
-0.00550672947368421,0.01522899154319625
-0.00550638947368421,0.01526190510095074
-0.005506049473684211,0.0155252135629872
-0.00550570947368421,0.01499859663891291
-0.00550536947368421,0.01424158481055947
-0.005505029473684211,0.01282630182711352
-0.00550468947368421,0.01177306797896757
-0.00550434947368421,0.01170724086345858
-0.005504009473684211,0.01210220355651326
-0.00550366947368421,0.01197054932549551
-0.00550332947368421,0.01223385778753149
-0.005502989473684211,0.01302378317364086
-0.00550264947368421,0.01387953567525851
-0.00550230947368421,0.01341874586669555
-0.005501969473684211,0.01243133913405883
-0.00550162947368421,0.01144393240142122
-0.00550128947368421,0.01095022903510376
-0.005500949473684211,0.01075274768857642
-0.00550060947368421,0.01009447653348534
-0.00550026947368421,0.01012739009123984
-0.005499929473684211,0.01042361211103085
-0.005499589473684211,0.0110160561506118
-0.00549924947368421,0.01127936461264933
-0.005498909473684211,0.01190472220998592
-0.005498569473684211,0.01256299336507586
-0.00549822947368421,0.01335291875118643
-0.005497889473684211,0.01410993057954124
-0.005497549473684211,0.01489985596564918
-0.00549720947368421,0.01493276952340517
-0.00549686947368421,0.01489985596565062
-0.005496529473684211,0.01466946106136914
-0.00549618947368421,0.01466946106136872
-0.00549584947368421,0.01384662211750479
-0.005495509473684211,0.01322126452016934
-0.00549516947368421,0.01223385778753149
-0.00549482947368421,0.01220094422977693
-0.005494489473684211,0.01164141374795048
-0.00549414947368421,0.01127936461264933
-0.00549380947368421,0.01081857480408553
-0.005493469473684211,0.01095022903510352
-0.00549312947368421,0.01095022903510376
-0.00549278947368421,0.01124645105489478
-0.005492449473684211,0.01167432730570324
-0.00549210947368421,0.01200346288324959
-0.00549176947368421,0.0122996849030406
-0.005491429473684211,0.01226677134528611
-0.00549108947368421,0.01226677134528605
-0.00549074947368421,0.01289212894262263
-0.005490409473684211,0.01308961028914997
-0.00549006947368421,0.01285921538486808
-0.00548972947368421,0.01249716624956795
-0.005489389473684211,0.01226677134528605
-0.00548904947368421,0.01197054932549503
-0.00548870947368421,0.01131227817040389
-0.005488369473684211,0.01075274768857642
-0.00548802947368421,0.01068692057306725
-0.00548768947368421,0.01065400701531275
-0.005487349473684211,0.01065400701531275
-0.00548700947368421,0.01025904432225716
-0.00548666947368421,0.009765340955939707
-0.005486329473684211,0.01012739009123984
-0.00548598947368421,0.01035778499552126
-0.00548564947368421,0.01009447653348528
-0.005485309473684211,0.01039069855327629
-0.00548496947368421,0.01039069855327581
-0.00548462947368421,0.01012739009123984
-0.005484289473684211,0.01025904432225806
-0.00548394947368421,0.01029195788001352
-0.00548360947368421,0.01078566124633098
-0.005483269473684211,0.01098314259285832
-0.00548292947368421,0.01174015442121391
-0.00548258947368421,0.01216803067202238
-0.005482249473684211,0.01223385778753149
-0.00548190947368421,0.01183889509447549
-0.00548156947368421,0.01111479682387655
-0.005481229473684211,0.009864081629203377
-0.00548088947368421,0.008679193550038423
-0.00548054947368421,0.008185490183720966
-0.005480209473684211,0.007889268163929951
-0.00547986947368421,0.008613366434531046
-0.00547952947368421,0.009074156243094007
-0.005479189473684211,0.009864081629203377
-0.005478849473684211,0.0107856612463293
-0.00547850947368421,0.01157558663244035
-0.005478169473684211,0.01147684595917668
-0.005477829473684211,0.01167432730570366
-0.00547748947368421,0.01210220355651326
-0.005477149473684211,0.01279338826935896
-0.005476809473684211,0.01417575769504784
-0.00547646947368421,0.0155252135629872
-0.00547612947368421,0.01601891692930556
-0.005475789473684211,0.01595308981379657
-0.00547544947368421,0.01549230000523264
-0.00547510947368421,0.01447197971484137
-0.005474769473684211,0.01351748653996095
-0.00547442947368421,0.0127604747116044
-0.00547408947368421,0.01216803067202238
-0.005473749473684211,0.01091731547735148
-0.00547340947368421,0.00983116807144882
-0.00547306947368421,0.008909588454321223
-0.005472729473684211,0.007757613932913818
-0.00547238947368421,0.006901861431293239
-0.00547204947368421,0.006473985180483996
-0.005471709473684211,0.006375244507220504
-0.00547136947368421,0.007099342777820581
-0.00547102947368421,0.00811966306821185
-0.005470689473684211,0.009139983358601266
-0.00547034947368421,0.01052235278429452
-0.00547000947368421,0.01134519172815845
-0.005469669473684211,0.01134519172815845
-0.00546932947368421,0.01114771038163111
-0.00546898947368421,0.01081857480408553
-0.005468649473684211,0.01118062393938566
-0.00546830947368421,0.01180598153672225
-0.00546796947368421,0.01285921538486808
-0.005467629473684211,0.01371496788648656
-0.00546728947368421,0.0139124492330139
-0.00546694947368421,0.0132212645201682
-0.005466609473684211,0.01249716624956795
-0.00546626947368421,0.01091731547734765
-0.00546592947368421,0.01006156297573072
-0.005465589473684211,0.007724700375157166
-0.00546524947368421,0.008086749510458131
-0.00546490947368421,0.008547539319021094
-0.005464569473684211,0.00871210710779388
-0.00546422947368421,0.009008329127584114
-0.00546388947368421,0.008580452876775651
-0.005463549473684211,0.008679193550039321
-0.00546320947368421,0.007889268163930131
-0.00546286947368421,0.007988008837193623
-0.005462529473684211,0.008679193550039321
-0.00546218947368421,0.009765340955941502
-0.00546184947368421,0.01075274768857642
-0.005461509473684211,0.01180598153672225
-0.00546116947368421,0.01220094422977759
-0.00546082947368421,0.01256299336507706
-0.005460489473684211,0.01226677134528605
-0.00546014947368421,0.01150975951692926
-0.00545980947368421,0.01042361211103085
-0.005459469473684211,0.009567859609412364
-0.00545912947368421,0.009271637589621708
-0.00545878947368421,0.009469118936148692
-0.005458449473684211,0.009765340955939707
-0.00545810947368421,0.01048943922654176
-0.00545776947368421,0.01147684595917668
-0.005457429473684211,0.01213511711426782
-0.005457089473684211,0.01256299336507628
-0.00545674947368421,0.01216803067202238
-0.005456409473684211,0.01170724086345858
-0.005456069473684211,0.01088440191959615
-0.00545572947368421,0.009600773167166921
-0.005455389473684211,0.009633686724921478
-0.005455049473684211,0.009896995186957457
-0.00545470947368421,0.01065400701531275
-0.00545436947368421,0.01164141374794946
-0.005454029473684211,0.01216803067202142
-0.00545368947368421,0.01249716624956795
-0.00545334947368421,0.0118388950944768
-0.005453009473684211,0.0106869205730694
-0.00545266947368421,0.009600773167166921
-0.00545232947368421,0.008514625761266537
-0.005451989473684211,0.008218403741476062
-0.00545164947368421,0.007988008837193623
-0.00545130947368421,0.007724700375157166
-0.005450969473684211,0.008350057972492613
-0.00545062947368421,0.008580452876775651
-0.00545028947368421,0.009074156243094007
-0.005449949473684211,0.01002864941797443
-0.00544960947368421,0.009896995186957936
-0.00544926947368421,0.01045652566878541
-0.005448929473684211,0.01111479682387535
-0.00544858947368421,0.01213511711426782
-0.00544824947368421,0.01236551201854972
-0.005447909473684211,0.01243133913405883
-0.00544756947368421,0.01262882048058617
-0.00544722947368421,0.01315543740465909
-0.005446889473684211,0.01318835096241365
-0.00544654947368421,0.01325417807792276
-0.00544620947368421,0.01361622721322289
-0.005445869473684211,0.0141428441372958
-0.00544552947368421,0.0141757576950503
-0.00544518947368421,0.0141428441372958
-0.005444849473684211,0.01427449836831403
-0.00544450947368421,0.0142086712528045
-0.00544416947368421,0.01397827634852302
-0.005443829473684211,0.01318835096241365
-0.00544348947368421,0.01246425269181273
-0.00544314947368421,0.01210220355651326
-0.005442809473684211,0.01180598153672225
-0.00544246947368421,0.01170724086345929
-0.00544212947368421,0.01210220355651326
-0.005441789473684211,0.01279338826935896
-0.00544144947368421,0.01358331365546737
-0.00544110947368421,0.01305669673139542
-0.005440769473684211,0.01266173403834073
-0.00544042947368421,0.01229968490303953
-0.00544008947368421,0.01170724086345858
-0.005439749473684211,0.01085148836184009
-0.00543940947368421,0.009666600282674957
-0.00543906947368421,0.009074156243094007
-0.005438729473684211,0.00871210710779388
-0.00543838947368421,0.007658873259647992
-0.00543804947368421,0.007625959701893495
-0.005437709473684211,0.008152576625966409
-0.00543736947368421,0.008810847781059287
-0.00543702947368421,0.009765340955939707
-0.005436689473684211,0.009765340955939707
-0.005436349473684211,0.01029195788001166
-0.00543600947368421,0.01025904432225806
-0.005435669473684211,0.00983116807144882
-0.005435329473684211,0.009074156243095384
-0.00543498947368421,0.009238724031866792
-0.005434649473684211,0.01022613076450351
-0.005434309473684211,0.01160850019019239
-0.00543396947368421,0.01236551201854972
-0.00543362947368421,0.01062109345755819
-0.005433289473684211,0.003149715847287318
-0.00543294947368421,-0.012253829181859
-0.00543260947368421,-0.035885763649631
-0.005432269473684211,-0.06675868082334943
-0.00543192947368421,-0.1016470520432361
-0.00543158947368421,-0.1358442385502209
-0.005431249473684211,-0.1678691302453467
-0.00543090947368421,-0.1946607662576145
-0.00543056947368421,-0.2148696907189126
-0.005430229473684211,-0.2287592120913104
-0.00542988947368421,-0.2365597252791657
-0.00542954947368421,-0.2393244641305485
-0.005429209473684211,-0.23889658787974
-0.00542886947368421,-0.2356381456620381
-0.00542852947368421,-0.230371976421309
-0.005428189473684211,-0.2239867462169365
-0.00542784947368421,-0.216844504184186
-0.00542750947368421,-0.2094389536894106
-0.005427169473684211,-0.2020334031946353
-0.00542682947368421,-0.1948582476041418
-0.00542648947368421,-0.1877818326869121
-0.005426149473684211,-0.181396602482528
-0.00542580947368421,-0.1754392485289532
-0.00542546947368421,-0.1696793759219057
-0.005425129473684211,-0.1644461202389311
-0.00542478947368421,-0.1595090865757475
-0.00542444947368421,-0.1537163004109454
-0.005424109473684211,-0.1479893413616525
-0.00542376947368421,-0.1426573450054035
-0.00542342947368421,-0.136732904609594
-0.005423089473684211,-0.1310388591180556
-0.00542274947368421,-0.125476467857527
-0.00542240947368421,-0.1208027426563884
-0.005422069473684211,-0.1154707463001501
-0.00542172947368421,-0.1105666261947121
-0.00542138947368421,-0.1056295925315375
-0.005421049473684211,-0.1011862622346723
-0.00542070947368421,-0.09730246241962659
-0.00542036947368421,-0.09292495923827848
-0.005420029473684211,-0.08884367807671339
-0.00541968947368421,-0.08423577999107067
-0.00541934947368421,-0.08163560892846539
-0.005419009473684211,-0.07916709209687359
-0.00541866947368421,-0.07735684642036986
-0.00541832947368421,-0.075645341417136
-0.005417989473684211,-0.07347304660533521
-0.00541764947368421,-0.07100452977373799
-0.00541730947368421,-0.06800939601807873
-0.005416969473684211,-0.06488260803139581
-0.00541662947368421,-0.06149251158266943
-0.00541628947368421,-0.05764162532539325
-0.005415949473684211,-0.05418570176116475
-0.00541560947368421,-0.05135513579426686
-0.00541526947368421,-0.04806378001881713
-0.005414929473684211,-0.04520030049417066
-0.005414589473684211,-0.04292926500911035
-0.00541424947368421,-0.04046074817751444
-0.005413909473684211,-0.03894672452080481
-0.005413569473684211,-0.03812388557694239
-0.00541322947368421,-0.03756435509511341
-0.005412889473684211,-0.03624781278493113
-0.005412549473684211,-0.03447048066618828
-0.00541220947368421,-0.03305519768273909
-0.00541186947368421,-0.03163991469929314
-0.005411529473684211,-0.02930305209872383
-0.00541118947368421,-0.02716367084467337
-0.00541084947368421,-0.02515594382164538
-0.005410509473684211,-0.023740660838202
-0.00541016947368421,-0.02308238968310829
