Analysis/plots/wrd01_d2s01/non compliant measurements/cmb10_ch42.csv

#Digilent WaveForms Oscilloscope Acquisition
#Device Name: ADP3450
#Serial Number: SN:210018B9D9B0
#Date Time: 2024-08-07 11:58:40.423.379.220
#Sample rate: 2.94118e+06Hz
#Samples: 32768
#Trigger: Source: Channel 3 Type: Edge Condition: Rising Level: 0 V Hyst.: Auto HoldOff: 0 s
#Channel 3: Range: 200 mV/div Offset: 0 V Attenuation: 1 X Coupling: DC Bandwidth: 0 Hz Sample Mode: Average

Time (s),Channel 3 (V)
-0.005570317142857144,0.01269464759609529
-0.005569977142857143,0.01341874586669585
-0.005569637142857143,0.01358331365546833
-0.005569297142857144,0.01269464759609529
-0.005568957142857143,0.01108188326611864
-0.005568617142857143,0.009238724031866792
-0.005568277142857144,0.007823441048420837
-0.005567937142857143,0.006967688546801993
-0.005567597142857143,0.00677020720027501
-0.005567257142857144,0.006572725853747667
-0.005566917142857143,0.007066429220066383
-0.005566577142857143,0.007263910566593366
-0.005566237142857144,0.007856354606175394
-0.005565897142857143,0.008679193550040877
-0.005565557142857143,0.009534946051657807
-0.005565217142857144,0.01009447653348528
-0.005564877142857143,0.01111479682387793
-0.005564537142857143,0.01187180865223136
-0.005564197142857144,0.01246425269181339
-0.005563857142857143,0.01243133913405721
-0.005563517142857143,0.01154267307468579
-0.005563177142857144,0.01167432730570402
-0.005562837142857144,0.01124645105489555
-0.005562497142857143,0.01134519172815845
-0.005562157142857144,0.01118062393938566
-0.005561817142857144,0.01104896970836767
-0.005561477142857143,0.01098314259285832
-0.005561137142857144,0.01108188326612199
-0.005560797142857144,0.01118062393938548
-0.005560457142857143,0.01144393240142212
-0.005560117142857143,0.01164141374794946
-0.005559777142857144,0.01223385778753041
-0.005559437142857143,0.0125300798073225
-0.005559097142857143,0.01289212894262263
-0.005558757142857144,0.01308961028914962
-0.005558417142857143,0.01233259846079516
-0.005558077142857143,0.01180598153672225
-0.005557737142857144,0.01150975951693177
-0.005557397142857143,0.01374788144424112
-0.005557057142857143,0.02230540646042596
-0.005556717142857144,0.0384988768756386
-0.005556377142857143,0.06311821807607679
-0.005556037142857143,0.09415570303862414
-0.005555697142857144,0.1286491115653372
-0.005555357142857143,0.1635703963429851
-0.005555017142857143,0.195825682942451
-0.005554677142857144,0.2236047256872467
-0.005554337142857143,0.2453605873630595
-0.005553997142857143,0.2610603544119832
-0.005553657142857144,0.2698153607746954
-0.005553317142857143,0.2733700250121875
-0.005552977142857143,0.2723167911640417
-0.005552637142857144,0.2682684235602312
-0.005552297142857143,0.2629035136462384
-0.005551957142857143,0.2558929258445177
-0.005551617142857144,0.2486190295807606
-0.005551277142857143,0.2409501706239367
-0.005550937142857143,0.2342687183997737
-0.005550597142857144,0.2275872661755986
-0.005550257142857143,0.220708332604883
-0.005549917142857143,0.2134673498988936
-0.005549577142857144,0.2058972316153455
-0.005549237142857143,0.1981296319852569
-0.005548897142857143,0.190921562837022
-0.005548557142857144,0.1837464072465286
-0.005548217142857143,0.178019448197225
-0.005547877142857143,0.1721608349169245
-0.005547537142857144,0.166400962309877
-0.005547197142857143,0.1609043981648555
-0.005546857142857143,0.1551445255578184
-0.005546517142857144,0.1495492207395437
-0.005546177142857143,0.1435589532282042
-0.005545837142857143,0.1379636484099396
-0.005545497142857144,0.1330924418622652
-0.005545157142857143,0.1286491115653931
-0.005544817142857143,0.1248640524236259
-0.005544477142857144,0.121144820397361
-0.005544137142857143,0.1173268476978269
-0.005543797142857143,0.1143317139421676
-0.005543457142857144,0.1111390988399756
-0.005543117142857143,0.1079135701800233
-0.005542777142857143,0.1047538686355915
-0.005542437142857144,0.1023840924772634
-0.005542097142857144,0.09988266208792163
-0.005541757142857143,0.09701918256327061
-0.005541417142857144,0.09353034544128755
-0.005541077142857144,0.09020607610808332
-0.005540737142857143,0.08675015254384877
-0.005540397142857144,0.08299800695982926
-0.005540057142857144,0.0801674409929425
-0.005539717142857143,0.07756726993032734
-0.005539377142857143,0.07500001242547188
-0.005539037142857144,0.07289354472918408
-0.005538697142857143,0.07035920078207933
-0.005538357142857143,0.06766028904620566
-0.005538017142857144,0.06519177221461836
-0.005537677142857143,0.06321695874934044
-0.005537337142857143,0.06130797239957614
-0.005536997142857144,0.05913567758777932
-0.005536657142857143,0.0569633827759746
-0.005536317142857143,0.05452777950213737
-0.005535977142857144,0.05298084228767601
-0.005535637142857143,0.05110476949566344
-0.005535297142857143,0.04932743737691735
-0.005534957142857144,0.04768175948919248
-0.005534617142857143,0.04666143919879823
-0.005534277142857143,0.04580568669717974
-0.005533937142857144,0.04455497150250885
-0.005533597142857143,0.04356756476986986
-0.005533257142857143,0.04267889871049681
-0.005532917142857144,0.04254724447947859
-0.005532577142857143,0.04251433092172403
-0.005532237142857143,0.04202062755540567
-0.005531897142857144,0.04106613438052351
-0.005531557142857143,0.04011164120564136
-0.005531217142857143,0.03833430908689527
-0.005530877142857144,0.0363924091793764
-0.005530537142857143,0.03451633638736665
-0.005530197142857143,0.03339727542371171
-0.005529857142857144,0.03221238734454766
-0.005529517142857143,0.0317515975359826
-0.005529177142857143,0.03106041282313815
-0.005528837142857144,0.03007300609050144
-0.005528497142857143,0.02941473493540982
-0.005528157142857143,0.02915142647337384
-0.005527817142857144,0.02829567397175536
-0.005527477142857143,0.02793362483645541
-0.005527137142857143,0.0280323655097189
-0.005526797142857144,0.02839441464501903
-0.005526457142857143,0.02813110618298149
-0.005526117142857143,0.02753866214340054
-0.005525777142857144,0.02668290964178206
-0.005525437142857143,0.02546510800486123
-0.005525097142857143,0.02424730636794483
-0.005524757142857144,0.0236548623283628
-0.005524417142857143,0.02299659117326957
-0.005524077142857143,0.02184461665186217
-0.005523737142857144,0.02125217261228014
-0.005523397142857143,0.02056098789943318
-0.005523057142857143,0.01986980318658874
-0.005522717142857144,0.01924444558925215
-0.005522377142857143,0.01901405068496978
-0.005522037142857143,0.0187507422229338
-0.005521697142857144,0.01819121174110632
-0.005521357142857143,0.01809247106784218
-0.005521017142857143,0.0178291626058062
-0.005520677142857144,0.01773042193254253
-0.005520337142857144,0.01769750837478803
-0.005519997142857143,0.01720380500846961
-0.005519657142857144,0.01680884231541493
-0.005519317142857144,0.01657844741113345
-0.005518977142857143,0.01651262029562391
-0.005518637142857143,0.0173683727972424
-0.005518297142857144,0.01766459481703287
-0.005517957142857143,0.01819121174110632
-0.005517617142857143,0.01858617443416101
-0.005517277142857144,0.0187507422229335
-0.005516937142857143,0.01835577952987911
-0.005516597142857143,0.01796081683682443
-0.005516257142857144,0.01717089145071649
-0.005515917142857143,0.01733545923948784
-0.005515577142857143,0.01769750837478797
-0.005515237142857144,0.01753294058601548
-0.005514897142857143,0.01677592875766037
-0.005514557142857143,0.01568978135175999
-0.005514217142857144,0.01522899154319702
-0.005513877142857143,0.01470237461912327
-0.005513537142857143,0.01443906615708682
-0.005513197142857144,0.01387953567526036
-0.005512857142857143,0.01374788144424112
-0.005512517142857143,0.01355040009771377
-0.005512177142857144,0.01335291875118643
-0.005511837142857143,0.0132212645201682
-0.005511497142857143,0.01364914077097745
-0.005511157142857144,0.01440615259933226
-0.005510817142857143,0.01453780683035049
-0.005510477142857143,0.01420867125280492
-0.005510137142857144,0.01384662211750479
-0.005509797142857143,0.01269464759609529
-0.005509457142857143,0.0118388950944768
-0.005509117142857144,0.01147684595917668
-0.005508777142857143,0.01177306797896847
-0.005508437142857143,0.01220094422977693
-0.005508097142857144,0.01279338826935896
-0.005507757142857143,0.01345165942444998
-0.005507417142857143,0.01338583230894099
-0.005507077142857144,0.01341874586669555
-0.005506737142857143,0.01348457298220466
-0.005506397142857143,0.01348457298220466
-0.005506057142857144,0.01381370855975023
-0.005505717142857143,0.01358331365546839
-0.005505377142857143,0.01361622721322289
-0.005505037142857144,0.01302378317364086
-0.005504697142857143,0.01276047471160434
-0.005504357142857143,0.01272756115384985
-0.005504017142857144,0.01315543740465909
-0.005503677142857143,0.01355040009771437
-0.005503337142857143,0.01387953567525935
-0.005502997142857144,0.01364914077097745
-0.005502657142857143,0.01315543740465825
-0.005502317142857143,0.01269464759609529
-0.005501977142857144,0.01226677134528605
-0.005501637142857143,0.01177306797896661
-0.005501297142857143,0.01118062393938566
-0.005500957142857144,0.01104896970836743
-0.005500617142857143,0.01104896970836773
-0.005500277142857143,0.01121353749714022
-0.005499937142857144,0.01058817989980363
-0.005499597142857144,0.01029195788001316
-0.005499257142857143,0.01032487143776718
-0.005498917142857144,0.01009447653348528
-0.005498577142857144,0.01002864941797628
-0.005498237142857143,0.01035778499552173
-0.005497897142857144,0.01075274768857642
-0.005497557142857144,0.01078566124633092
-0.005497217142857143,0.01025904432225806
-0.005496877142857143,0.01052235278429452
-0.005496537142857144,0.01055526634204902
-0.005496197142857143,0.01104896970836743
-0.005495857142857143,0.01104896970836743
-0.005495517142857144,0.01108188326612193
-0.005495177142857143,0.01131227817040389
-0.005494837142857143,0.0116085001901949
-0.005494497142857144,0.01154267307468591
-0.005494157142857143,0.01124645105489478
-0.005493817142857143,0.01108188326612199
-0.005493477142857144,0.01154267307468495
-0.005493137142857143,0.01180598153672225
-0.005492797142857143,0.01134519172815845
-0.005492457142857144,0.01121353749714046
-0.005492117142857143,0.01081857480408553
-0.005491777142857143,0.01052235278429452
-0.005491437142857144,0.01019321720674955
-0.005491097142857143,0.01052235278429452
-0.005490757142857143,0.01114771038163111
-0.005490417142857144,0.01170724086345858
-0.005490077142857143,0.01197054932549503
-0.005489737142857143,0.01223385778753149
-0.005489397142857144,0.01203637644100415
-0.005489057142857143,0.01167432730570402
-0.005488717142857143,0.01174015442121313
-0.005488377142857144,0.01220094422977693
-0.005488037142857143,0.01289212894262209
-0.005487697142857143,0.01259590692283162
-0.005487357142857144,0.01259590692283162
-0.005487017142857143,0.01203637644100223
-0.005486677142857143,0.01098314259285832
-0.005486337142857144,0.01058817989980363
-0.005485997142857143,0.01048943922654038
-0.005485657142857143,0.01071983413082186
-0.005485317142857144,0.01134519172815845
-0.005484977142857143,0.01200346288324959
-0.005484637142857143,0.01200346288324959
-0.005484297142857144,0.01190472220998592
-0.005483957142857143,0.0116414137479476
-0.005483617142857143,0.01062109345755819
-0.005483277142857144,0.009995735860221606
-0.005482937142857143,0.00983116807144882
-0.005482597142857143,0.00983116807144882
-0.005482257142857144,0.01006156297573072
-0.005481917142857143,0.01048943922654074
-0.005481577142857143,0.01091731547734921
-0.005481237142857144,0.01088440191959465
-0.005480897142857143,0.01058817989980238
-0.005480557142857143,0.009896995186957936
-0.005480217142857144,0.009699513840430593
-0.005479877142857143,0.009567859609412184
-0.005479537142857143,0.009469118936148692
-0.005479197142857144,0.009304551147375908
-0.005478857142857144,0.009337464705130404
-0.005478517142857143,0.00881084778105755
-0.005478177142857144,0.007757613932911723
-0.005477837142857144,0.007658873259648231
-0.005477497142857143,0.007494305470875266
-0.005477157142857144,0.007625959701893495
-0.005476817142857144,0.008185490183719947
-0.005476477142857143,0.008580452876775651
-0.005476137142857143,0.009699513840430593
-0.005475797142857144,0.01108188326611948
-0.005475457142857143,0.01213511711426782
-0.005475117142857143,0.01318835096241365
-0.005474777142857144,0.01397827634852158
-0.005474437142857143,0.01374788144424112
-0.005474097142857143,0.01351748653995922
-0.005473757142857144,0.01299086961588726
-0.005473417142857143,0.01259590692283162
-0.005473077142857143,0.01226677134528605
-0.005472737142857144,0.01206928999875906
-0.005472397142857143,0.01210220355651326
-0.005472057142857143,0.01256299336507706
-0.005471717142857144,0.01299086961588552
-0.005471377142857143,0.01292504250037719
-0.005471037142857143,0.01259590692283162
-0.005470697142857144,0.01308961028914908
-0.005470357142857143,0.01279338826935896
-0.005470017142857143,0.01187180865223136
-0.005469677142857144,0.01111479682387655
-0.005469337142857143,0.00983116807144882
-0.005468997142857143,0.008942502012075779
-0.005468657142857144,0.008909588454321223
-0.005468317142857143,0.008152576625966409
-0.005467977142857143,0.008415885088002865
-0.005467637142857144,0.008942502012075779
-0.005467297142857143,0.009403291820639578
-0.005466957142857143,0.00973242739818515
-0.005466617142857144,0.01016030364899439
-0.005466277142857143,0.0100615629757306
-0.005465937142857143,0.009995735860221606
-0.005465597142857144,0.009205810474112236
-0.005465257142857143,0.009041242685338253
-0.005464917142857143,0.008382971530248308
-0.005464577142857144,0.007527219028629823
-0.005464237142857143,0.007099342777821539
-0.005463897142857143,0.007625959701893495
-0.005463557142857144,0.00881084778105755
-0.005463217142857143,0.01025904432226046
-0.005462877142857143,0.01157558663244035
-0.005462537142857144,0.01279338826935896
-0.005462197142857143,0.01358331365546863
-0.005461857142857143,0.01374788144424112
-0.005461517142857144,0.0134516594244501
-0.005461177142857143,0.01243133913405716
-0.005460837142857143,0.01150975951693123
-0.005460497142857144,0.01035778499552173
-0.005460157142857143,0.009205810474110799
-0.005459817142857143,0.008415885088002865
-0.005459477142857144,0.009074156243094007
-0.005459137142857143,0.009370378262885979
-0.005458797142857143,0.009896995186957936
-0.005458457142857144,0.01045652566878541
-0.005458117142857143,0.01104896970836893
-0.005457777142857143,0.01187180865223136
-0.005457437142857144,0.01210220355651326
-0.005457097142857144,0.0116085001901958
-0.005456757142857143,0.01085148836184009
-0.005456417142857144,0.009962822302467049
-0.005456077142857144,0.009271637589622607
-0.005455737142857143,0.00871210710779388
-0.005455397142857143,0.009139983358603122
-0.005455057142857144,0.00999573586022005
-0.005454717142857143,0.01108188326612199
-0.005454377142857143,0.01200346288324959
-0.005454037142857144,0.01243133913405805
-0.005453697142857143,0.01256299336507706
-0.005453357142857143,0.01246425269181339
-0.005453017142857144,0.01203637644100492
-0.005452677142857143,0.01170724086345858
-0.005452337142857143,0.01167432730570402
-0.005451997142857144,0.01167432730570402
-0.005451657142857143,0.01190472220998592
-0.005451317142857143,0.01174015442121313
-0.005450977142857144,0.01180598153672213
-0.005450637142857143,0.01180598153672225
-0.005450297142857143,0.01124645105489478
-0.005449957142857144,0.0109502290351043
-0.005449617142857143,0.009699513840430593
-0.005449277142857143,0.00950203249390325
-0.005448937142857144,0.0101273900912387
-0.005448597142857143,0.01012739009123984
-0.005448257142857143,0.009929908744712493
-0.005447917142857144,0.009370378262885021
-0.005447577142857143,0.009238724031866792
-0.005447237142857143,0.009304551147375908
-0.005446897142857144,0.009008329127584893
-0.005446557142857143,0.009765340955939707
-0.005446217142857143,0.01150975951693123
-0.005445877142857144,0.01269464759609529
-0.005445537142857143,0.01328709163567804
-0.005445197142857143,0.013682054328732
-0.005444857142857144,0.01325417807792276
-0.005444517142857143,0.01266173403833971
-0.005444177142857143,0.01210220355651326
-0.005443837142857144,0.01131227817040389
-0.005443497142857143,0.01085148836183901
-0.005443157142857143,0.01025904432225806
-0.005442817142857144,0.00983116807144882
-0.005442477142857143,0.00983116807144924
-0.005442137142857143,0.01006156297573072
-0.005441797142857144,0.01029195788001262
-0.005441457142857143,0.01071983413082372
-0.005441117142857143,0.01174015442121313
-0.005440777142857144,0.0116085001901949
-0.005440437142857143,0.01226677134528605
-0.005440097142857143,0.01226677134528605
-0.005439757142857144,0.01170724086345858
-0.005439417142857143,0.01150975951693111
-0.005439077142857143,0.01144393240142212
-0.005438737142857144,0.01042361211103085
-0.005438397142857143,0.009271637589620092
-0.005438057142857143,0.008580452876775651
-0.005437717142857144,0.008777934223302994
-0.005437377142857143,0.009567859609413502
-0.005437037142857143,0.01019321720674895
-0.005436697142857144,0.01157558663244035
-0.005436357142857144,0.01299086961588373
-0.005436017142857143,0.01332000519343187
-0.005435677142857144,0.01285921538486808
-0.005435337142857144,0.01052235278429877
-0.005434997142857143,0.002754753154219042
-0.005434657142857144,-0.01129933600697684
-0.005434317142857144,-0.03266023498964556
-0.005433977142857143,-0.06165707937144922
-0.005433637142857143,-0.09522890828109745
-0.005433297142857144,-0.1300514523853556
-0.005432957142857143,-0.1627675287934487
-0.005432617142857143,-0.1906453122115585
-0.005432277142857144,-0.2126973959070717
-0.005431937142857143,-0.227771805358699
-0.005431597142857143,-0.236757206625693
-0.005431257142857144,-0.2404106115364422
-0.005430917142857143,-0.2409043149027672
-0.005430577142857143,-0.2386332794177028
-0.005430237142857144,-0.2340582948898277
-0.005429897142857143,-0.2274755833389079
-0.005429557142857143,-0.2203991684216781
-0.005429217142857144,-0.2122036925408083
-0.005428877142857143,-0.2042386115641906
-0.005428537142857143,-0.1965368390496242
-0.005428197142857144,-0.1894275105746528
-0.005427857142857143,-0.1828447990237285
-0.005427517142857143,-0.1765253959348535
-0.005427177142857144,-0.1698110301529239
-0.005426837142857143,-0.1637549355260854
-0.005426497142857143,-0.158060890034547
-0.005426157142857144,-0.1530251156980998
-0.005425817142857143,-0.1481539091504253
-0.005425477142857143,-0.1431510483717326
-0.005425137142857144,-0.1385102367283401
-0.005424797142857143,-0.1336061166229111
-0.005424457142857143,-0.1283070338244274
-0.005424117142857144,-0.1229421239104345
-0.005423777142857143,-0.1174784733231681
-0.005423437142857143,-0.111981909178167
-0.005423097142857144,-0.1060574687823468
-0.005422757142857143,-0.1008571266571163
-0.005422417142857143,-0.0951301676078338
-0.005422077142857144,-0.09147676269707797
-0.005421737142857143,-0.08686886461143171
-0.005421397142857143,-0.08232679364131107
-0.005421057142857144,-0.07989119036747386
-0.005420717142857143,-0.07699479728506727
-0.005420377142857143,-0.07393383641389903
-0.005420037142857144,-0.07143240602455267
-0.005419697142857143,-0.06912845698172917
-0.005419357142857143,-0.0666599401501419
-0.005419017142857144,-0.06461929956935936
-0.005418677142857143,-0.06297362168162851
-0.005418337142857143,-0.06132794379390365
-0.005417997142857144,-0.05925438965536655
-0.005417657142857143,-0.05695044061254306
-0.005417317142857143,-0.05448192378095577
-0.005416977142857144,-0.05204632050711854
-0.005416637142857143,-0.04895244607818544
-0.005416297142857143,-0.04635227501558016
-0.005415957142857144,-0.04371919039521559
-0.005415617142857143,-0.04207351250748343
-0.005415277142857143,-0.03970373634915963
-0.005414937142857144,-0.0377289228838862
-0.005414597142857144,-0.03680734326676028
-0.005414257142857143,-0.03558954162983999
-0.005413917142857144,-0.03456922133944872
-0.005413577142857144,-0.0324298400854064
-0.005413237142857143,-0.03114621133297478
-0.005412897142857143,-0.03002715036931984
-0.005412557142857144,-0.02838147248159497
-0.005412217142857143,-0.02676870815161868
