Analysis/plots/wrd01_d2s01/non compliant measurements/cmb12_ch12.csv

#Digilent WaveForms Oscilloscope Acquisition
#Device Name: ADP3450
#Serial Number: SN:210018B9D9B0
#Date Time: 2024-08-07 10:58:44.848.956.720
#Sample rate: 2.94118e+06Hz
#Samples: 32768
#Trigger: Source: Channel 3 Type: Edge Condition: Rising Level: 0 V Hyst.: Auto HoldOff: 0 s
#Channel 3: Range: 200 mV/div Offset: 0 V Attenuation: 1 X Coupling: DC Bandwidth: 0 Hz Sample Mode: Average

Time (s),Channel 3 (V)
-0.005570407586206897,0.01088440191959465
-0.005570067586206896,0.01150975951693225
-0.005569727586206896,0.0120692899987587
-0.005569387586206897,0.01295795605813175
-0.005569047586206896,0.01325417807792354
-0.005568707586206896,0.013682054328732
-0.005568367586206897,0.01315543740465909
-0.005568027586206896,0.0126288204805842
-0.005567687586206896,0.01154267307468579
-0.005567347586206897,0.01042361211103085
-0.005567007586206896,0.009666600282676095
-0.005566667586206896,0.009699513840430593
-0.005566327586206897,0.009962822302467049
-0.005565987586206896,0.01019321720674871
-0.005565647586206896,0.01006156297573072
-0.005565307586206897,0.01039069855327629
-0.005564967586206896,0.01085148836184081
-0.005564627586206896,0.01124645105489478
-0.005564287586206897,0.01098314259285832
-0.005563947586206896,0.01062109345755849
-0.005563607586206896,0.01078566124633098
-0.005563267586206897,0.01118062393938566
-0.005562927586206897,0.01167432730570312
-0.005562587586206896,0.01220094422977693
-0.005562247586206897,0.01262882048058617
-0.005561907586206897,0.01341874586669411
-0.005561567586206896,0.01289212894262263
-0.005561227586206897,0.01305669673139542
-0.005560887586206897,0.01289212894262293
-0.005560547586206896,0.0120692899987587
-0.005560207586206897,0.01197054932549503
-0.005559867586206897,0.01160850019019556
-0.005559527586206896,0.011378105285913
-0.005559187586206897,0.01180598153672225
-0.005558847586206897,0.01213511711426722
-0.005558507586206896,0.01213511711426782
-0.005558167586206897,0.01210220355651326
-0.005557827586206897,0.01098314259286035
-0.005557487586206896,0.01121353749714022
-0.005557147586206897,0.01091731547734921
-0.005556807586206897,0.01078566124633122
-0.005556467586206896,0.01200346288324959
-0.005556127586206897,0.01674301519990581
-0.005555787586206897,0.02730826723909943
-0.005555447586206896,0.04643104429451633
-0.005555107586206896,0.07305811251795302
-0.005554767586206897,0.1057741889259233
-0.005554427586206896,0.1417487075517137
-0.005554087586206896,0.1755180178078893
-0.005553747586206897,0.2064238485394184
-0.005553407586206896,0.2314381524328818
-0.005553067586206896,0.2498697447754338
-0.005552727586206897,0.2619490204713563
-0.005552387586206896,0.2684659049067586
-0.005552047586206896,0.2701774099099956
-0.005551707586206897,0.2682355100024766
-0.005551367586206896,0.2637263525900914
-0.005551027586206896,0.2576702579632638
-0.005550687586206897,0.250593843046034
-0.005550347586206896,0.2432541196667539
-0.005550007586206896,0.2356181742677106
-0.005549667586206897,0.2287063271392536
-0.005549327586206896,0.2217615664530288
-0.005548987586206896,0.2145205837470395
-0.005548647586206897,0.2074112552720551
-0.005548307586206896,0.2012235064141859
-0.005547967586206896,0.194344572843496
-0.005547627586206897,0.1876302070615663
-0.005547287586206896,0.1807183599330963
-0.005546947586206896,0.1735761179003704
-0.005546607586206897,0.1667959250029317
-0.005546267586206896,0.1601473863364995
-0.005545927586206896,0.153762156132127
-0.005545587586206897,0.1478377157363068
-0.005545247586206896,0.1426044600533236
-0.005544907586206896,0.137864907736676
-0.005544567586206897,0.1335861452285835
-0.005544227586206896,0.1298998267600664
-0.005543887586206896,0.1261805947338082
-0.005543547586206897,0.1230208931893707
-0.005543207586206896,0.1192358340475888
-0.005542867586206896,0.1149570715395042
-0.005542527586206897,0.1107441361469209
-0.005542187586206897,0.1068274227741357
-0.005541847586206896,0.1032069314211273
-0.005541507586206897,0.09965226718363518
-0.005541167586206897,0.09606468938839496
-0.005540827586206896,0.09320120986374197
-0.005540487586206897,0.08971237274175892
-0.005540147586206897,0.08678306610160866
-0.005539807586206896,0.08365627811492041
-0.005539467586206897,0.08105610705231039
-0.005539127586206897,0.07918003426030407
-0.005538787586206896,0.07667860387095429
-0.005538447586206897,0.07526332088750834
-0.005538107586206897,0.07391386501957396
-0.005537767586206896,0.07272897694040745
-0.005537427586206897,0.07095164482166136
-0.005537087586206897,0.06904265847190053
-0.005536747586206896,0.0664754009670416
-0.005536407586206897,0.06367774855790426
-0.005536067586206897,0.06094592326428098
-0.005535727586206896,0.05883945556798435
-0.005535387586206897,0.0565025929674108
-0.005535047586206897,0.0552847913304944
-0.005534707586206896,0.05324415074970965
-0.005534367586206896,0.0516642999774909
-0.005534027586206897,0.0505123254560835
-0.005533687586206896,0.04952491872344469
-0.005533347586206896,0.04866916622182621
-0.005533007586206897,0.04662852564104367
-0.005532667586206896,0.04518032909984315
-0.005532327586206896,0.04287638005702415
-0.005531987586206897,0.04067117168746883
-0.005531647586206896,0.03872927177994996
-0.005531307586206896,0.03672154475692198
-0.005530967586206897,0.03487838552266678
-0.005530627586206896,0.03438468215634842
-0.005530287586206896,0.03425302792533019
-0.005529947586206897,0.03428594148308475
-0.005529607586206896,0.03481255840715856
-0.005529267586206896,0.03530626177347602
-0.005528927586206897,0.0337922381167664
-0.005528587586206896,0.03323270763493694
-0.005528247586206896,0.03214656022903854
-0.005527907586206897,0.03135663484292917
-0.005527567586206896,0.03023757387927357
-0.005527227586206896,0.0298755247439741
-0.005526887586206897,0.0287235502225646
-0.005526547586206896,0.02799945195196357
-0.005526207586206896,0.0275715757011551
-0.005525867586206897,0.02753866214340054
-0.005525527586206896,0.0278019706054364
-0.005525187586206896,0.02747283502789143
-0.005524847586206897,0.02668290964178206
-0.005524507586206896,0.02559676223587994
-0.005524167586206896,0.02464226906099952
-0.005523827586206897,0.02362194877060825
-0.005523487586206896,0.02312824540428983
-0.005523147586206896,0.02309533184653534
-0.005522807586206897,0.02253580136470787
-0.005522467586206896,0.02207501155614311
-0.005522127586206896,0.02154839463207115
-0.005521787586206897,0.02092303703473456
-0.005521447586206896,0.01970523539781368
-0.005521107586206896,0.01845452020314278
-0.005520767586206897,0.0171379778929605
-0.005520427586206897,0.01611765760257108
-0.005520087586206896,0.01582143558277821
-0.005519747586206897,0.01585434914053277
-0.005519407586206897,0.01572269490951478
-0.005519067586206896,0.01674301519990581
-0.005518727586206897,0.01789498972131531
-0.005518387586206897,0.01871782866517775
-0.005518047586206896,0.01927735914700671
-0.005517707586206897,0.01950775405128861
-0.005517367586206897,0.01855326087640819
-0.005517027586206896,0.01789498972131531
-0.005516687586206897,0.01710506433520594
-0.005516347586206897,0.0164138796223615
-0.005516007586206896,0.0157556084672691
-0.005515667586206897,0.01568978135175999
-0.005515327586206897,0.01572269490951448
-0.005514987586206896,0.0162163982758329
-0.005514647586206897,0.01697341010418771
-0.005514307586206897,0.01815829818334961
-0.005513967586206896,0.01904696424272481
-0.005513627586206897,0.01957358116679772
-0.005513287586206897,0.01937609982027074
-0.005512947586206896,0.01822412529886088
-0.005512607586206896,0.01611765760256923
-0.005512267586206897,0.01381370855975023
-0.005511927586206896,0.01131227817040389
-0.005511587586206896,0.009337464705130465
-0.005511247586206897,0.007889268163929951
-0.005510907586206896,0.007066429220066024
-0.005510567586206896,0.007165169893329695
-0.005510227586206897,0.008448798645757422
-0.005509887586206896,0.00950203249390325
-0.005509547586206896,0.01131227817040389
-0.005509207586206897,0.01289212894262263
-0.005508867586206896,0.0143074119260702
-0.005508527586206896,0.01519607798544163
-0.005508187586206897,0.01562395423625087
-0.005507847586206896,0.01549230000523234
-0.005507507586206896,0.01532773221645986
-0.005507167586206897,0.01516316442768707
-0.005506827586206896,0.01457072038810331
-0.005506487586206896,0.01361622721322289
-0.005506147586206897,0.01325417807792276
-0.005505807586206896,0.01289212894262084
-0.005505467586206896,0.01190472220998592
-0.005505127586206897,0.01068692057306731
-0.005504787586206896,0.01012739009124007
-0.005504447586206896,0.01025904432225806
-0.005504107586206897,0.01085148836184009
-0.005503767586206896,0.0114439324014226
-0.005503427586206896,0.01170724086345858
-0.005503087586206897,0.0127604747116044
-0.005502747586206896,0.01285921538486879
-0.005502407586206896,0.01325417807792276
-0.005502067586206897,0.01361622721322289
-0.005501727586206896,0.01332000519343062
-0.005501387586206896,0.01262882048058617
-0.005501047586206897,0.01239842557630427
-0.005500707586206896,0.01127936461264874
-0.005500367586206896,0.01095022903510376
-0.005500027586206897,0.01104896970836743
-0.005499687586206897,0.01078566124633146
-0.005499347586206896,0.01068692057306731
-0.005499007586206897,0.01032487143776718
-0.005498667586206897,0.01091731547734813
-0.005498327586206896,0.01052235278429452
-0.005497987586206897,0.01065400701531275
-0.005497647586206897,0.0112464510548937
-0.005497307586206896,0.01216803067202238
-0.005496967586206897,0.01289212894262263
-0.005496627586206897,0.01381370855974856
-0.005496287586206896,0.01417575769505036
-0.005495947586206897,0.01417575769505036
-0.005495607586206897,0.01430741192606835
-0.005495267586206896,0.0139124492330139
-0.005494927586206897,0.01381370855975023
-0.005494587586206897,0.0142086712528042
-0.005494247586206896,0.01450489327259593
-0.005493907586206897,0.01381370855975023
-0.005493567586206897,0.01246425269181584
-0.005493227586206896,0.01157558663244035
-0.005492887586206897,0.01045652566878541
-0.005492547586206897,0.009304551147378003
-0.005492207586206896,0.00973242739818515
-0.005491867586206896,0.01048943922653996
-0.005491527586206897,0.01131227817040239
-0.005491187586206896,0.01246425269181339
-0.005490847586206896,0.01302378317364086
-0.005490507586206897,0.01305669673139542
-0.005490167586206896,0.01262882048058617
-0.005489827586206896,0.01190472220998592
-0.005489487586206897,0.01177306797896769
-0.005489147586206896,0.01262882048058617
-0.005488807586206896,0.01256299336507706
-0.005488467586206897,0.01266173403834073
-0.005488127586206896,0.01272756115384991
-0.005487787586206896,0.0127604747116044
-0.005487447586206897,0.01239842557630427
-0.005487107586206896,0.01160850019019377
-0.005486767586206896,0.01098314259285832
-0.005486427586206897,0.01039069855327629
-0.005486087586206896,0.01029195788001226
-0.005485747586206896,0.01009447653348528
-0.005485407586206897,0.01065400701531275
-0.005485067586206896,0.01088440191959525
-0.005484727586206896,0.01121353749714022
-0.005484387586206897,0.01101605615061288
-0.005484047586206896,0.01134519172815899
-0.005483707586206896,0.01164141374794946
-0.005483367586206897,0.0120692899987587
-0.005483027586206896,0.01305669673139829
-0.005482687586206896,0.01463654750361416
-0.005482347586206897,0.01549230000523264
-0.005482007586206896,0.01615057116032121
-0.005481667586206896,0.01473528817687783
-0.005481327586206897,0.01335291875118643
-0.005480987586206896,0.01210220355650991
-0.005480647586206896,0.01025904432225806
-0.005480307586206897,0.00950203249390325
-0.005479967586206896,0.008843761338812466
-0.005479627586206896,0.00904124268533945
-0.005479287586206897,0.009436205378394135
-0.005478947586206897,0.009929908744711594
-0.005478607586206896,0.01052235278429452
-0.005478267586206897,0.01071983413082186
-0.005477927586206897,0.01101605615061234
-0.005477587586206896,0.01111479682387655
-0.005477247586206897,0.01078566124633098
-0.005476907586206897,0.01032487143776802
-0.005476567586206896,0.01068692057306731
-0.005476227586206897,0.01078566124633098
-0.005475887586206897,0.01134519172815743
-0.005475547586206896,0.01180598153672225
-0.005475207586206897,0.0118388950944768
-0.005474867586206897,0.01236551201854876
-0.005474527586206896,0.01256299336507706
-0.005474187586206897,0.01220094422977693
-0.005473847586206897,0.01095022903510604
-0.005473507586206896,0.009600773167166921
-0.005473167586206897,0.007593046144138938
-0.005472827586206897,0.007889268163929411
-0.005472487586206896,0.008317144414739193
-0.005472147586206897,0.008745020665548437
-0.005471807586206897,0.01025904432225531
-0.005471467586206896,0.011378105285913
-0.005471127586206897,0.0120692899987587
-0.005470787586206897,0.01259590692283066
-0.005470447586206896,0.01272756115384985
-0.005470107586206896,0.01269464759609529
-0.005469767586206897,0.01269464759609529
-0.005469427586206896,0.01200346288324959
-0.005469087586206896,0.01121353749714022
-0.005468747586206897,0.01042361211103085
-0.005468407586206896,0.009271637589621349
-0.005468067586206896,0.008547539319021094
-0.005467727586206897,0.00802092239494818
-0.005467387586206896,0.007593046144138938
-0.005467047586206896,0.007889268163929951
-0.005466707586206897,0.008843761338812107
-0.005466367586206896,0.01039069855327845
-0.005466027586206896,0.01157558663244035
-0.005465687586206897,0.01226677134528605
-0.005465347586206896,0.01256299336507712
-0.005465007586206896,0.01259590692283162
-0.005464667586206897,0.0118388950944768
-0.005464327586206896,0.0110489697083666
-0.005463987586206896,0.01058817989980363
-0.005463647586206897,0.009962822302467049
-0.005463307586206896,0.009337464705128848
-0.005462967586206896,0.008448798645757422
-0.005462627586206897,0.008745020665548437
-0.005462287586206896,0.009600773167166262
-0.005461947586206896,0.009238724031866792
-0.005461607586206897,0.008317144414739193
-0.005461267586206896,0.007856354606174676
-0.005460927586206896,0.007461391913120709
-0.005460587586206897,0.007856354606175394
-0.005460247586206896,0.008942502012077335
-0.005459907586206896,0.009798254513694264
-0.005459567586206897,0.01071983413082186
-0.005459227586206896,0.01150975951693279
-0.005458887586206896,0.01236551201854972
-0.005458547586206897,0.01318835096241365
-0.005458207586206896,0.01378079500199549
-0.005457867586206896,0.013682054328732
-0.005457527586206897,0.01341874586669555
-0.005457187586206897,0.01315543740465957
-0.005456847586206896,0.01256299336507706
-0.005456507586206897,0.01144393240142212
-0.005456167586206897,0.01025904432226022
-0.005455827586206896,0.008942502012075779
-0.005455487586206897,0.008580452876775651
-0.005455147586206897,0.00894250201207512
-0.005454807586206896,0.008975415569830336
-0.005454467586206897,0.00871210710779388
-0.005454127586206897,0.009238724031865835
-0.005453787586206896,0.009304551147375908
-0.005453447586206897,0.008942502012075779
-0.005453107586206897,0.009271637589620751
-0.005452767586206896,0.009205810474112236
-0.005452427586206897,0.009469118936148692
-0.005452087586206897,0.009304551147376208
-0.005451747586206896,0.009370378262885021
-0.005451407586206897,0.009534946051657807
-0.005451067586206897,0.009469118936148812
-0.005450727586206896,0.009238724031866792
-0.005450387586206897,0.009205810474112236
-0.005450047586206897,0.008909588454321762
-0.005449707586206896,0.009469118936148692
-0.005449367586206896,0.01035778499552173
-0.005449027586206897,0.01091731547734819
-0.005448687586206896,0.01124645105489478
-0.005448347586206896,0.01167432730570402
-0.005448007586206897,0.01213511711426782
-0.005447667586206896,0.01213511711426782
-0.005447327586206896,0.01236551201854972
-0.005446987586206897,0.01302378317364086
-0.005446647586206896,0.01335291875118643
-0.005446307586206896,0.01348457298220466
-0.005445967586206897,0.013682054328732
-0.005445627586206896,0.0126946475960929
-0.005445287586206896,0.011378105285913
-0.005444947586206897,0.01012739009123984
-0.005444607586206896,0.009732427398186107
-0.005444267586206896,0.01025904432225806
-0.005443927586206897,0.01111479682387655
-0.005443587586206896,0.01104896970836743
-0.005443247586206896,0.01104896970836743
-0.005442907586206897,0.01022613076450351
-0.005442567586206896,0.009600773167166142
-0.005442227586206896,0.009172896916357679
-0.005441887586206897,0.009008329127584893
-0.005441547586206896,0.00946911893614941
-0.005441207586206896,0.009864081629203377
-0.005440867586206897,0.01048943922653996
-0.005440527586206896,0.01154267307468657
-0.005440187586206896,0.01197054932549503
-0.005439847586206897,0.01180598153672225
-0.005439507586206896,0.01210220355651296
-0.005439167586206896,0.01193763576774048
-0.005438827586206897,0.0116085001901949
-0.005438487586206896,0.01131227817040305
-0.005438147586206896,0.01085148836184009
-0.005437807586206897,0.01075274768857642
-0.005437467586206896,0.01118062393938512
-0.005437127586206896,0.01088440191959465
-0.005436787586206897,0.01081857480408553
-0.005436447586206897,0.011246451054894
-0.005436107586206896,0.01121353749714022
-0.005435767586206897,0.01081857480408553
-0.005435427586206897,0.01019321720675009
-0.005435087586206896,0.01009447653348528
-0.005434747586206897,0.01035778499552173
-0.005434407586206897,0.008712107107796874
-0.005434067586206896,0.00574988690988374
-0.005433727586206897,-0.004255834647501621
-0.005433387586206897,-0.02199624227717563
-0.005433047586206896,-0.04763590376800789
-0.005432707586206897,-0.07939748700115551
-0.005432367586206897,-0.1138579819701141
-0.005432027586206896,-0.1475943786685978
-0.005431687586206897,-0.1775786297829993
-0.005431347586206897,-0.2022308845411178
-0.005431007586206896,-0.2203004277484145
-0.005430667586206897,-0.2321163949823005
-0.005430327586206897,-0.2381395760513735
-0.005429987586206896,-0.2401473030744124
-0.005429647586206897,-0.2387978472064756
-0.005429307586206897,-0.2351444422957264
-0.005428967586206896,-0.228956693437863
-0.005428627586206896,-0.2224727225602152
-0.005428287586206897,-0.2148696907189264
-0.005427947586206896,-0.2074970537818918
-0.005427607586206896,-0.200124416844871
-0.005427267586206897,-0.1922251629837773
-0.005426927586206896,-0.1845233904692109
-0.005426587586206896,-0.1775128026674902
-0.005426247586206897,-0.1710946589053516
-0.005425907586206896,-0.1648739964897403
-0.005425567586206896,-0.1584229391698471
-0.005425227586206897,-0.1517744005034266
-0.005424887586206896,-0.1455537380878153
-0.005424547586206896,-0.1393989027877131
-0.005424207586206897,-0.1339023386427021
-0.005423867586206896,-0.1291627863260376
-0.005423527586206896,-0.124620715355917
-0.005423187586206897,-0.1201444715012972
-0.005422847586206896,-0.1151416107225957
-0.005422507586206896,-0.1102704041749301
-0.005422167586206897,-0.1054650247427647
-0.005421827586206896,-0.1002646826175372
-0.005421487586206896,-0.0961175743404705
-0.005421147586206897,-0.09243125587196011
-0.005420807586206896,-0.08904115942323509
-0.005420467586206896,-0.08594728499431237
-0.005420127586206897,-0.08222805296804742
-0.005419787586206896,-0.07883795651932067
-0.005419447586206896,-0.07478958891551751
-0.005419107586206897,-0.07110327044700709
-0.005418767586206896,-0.06754860620950878
-0.005418427586206896,-0.06415850976079557
-0.005418087586206897,-0.061821647160222
-0.005417747586206896,-0.05928730321311721
-0.005417407586206896,-0.05714792195907489
-0.005417067586206897,-0.05543641695583792
-0.005416727586206896,-0.05395530685688016
-0.005416387586206896,-0.05247419675792778
-0.005416047586206897,-0.05063103752367259
-0.005415707586206896,-0.04862331050064101
-0.005415367586206896,-0.04664849703537118
-0.005415027586206897,-0.04473951068560687
-0.005414687586206897,-0.04263304298931904
-0.005414347586206896,-0.03973664990691418
-0.005414007586206897,-0.03707065172879506
-0.005413667586206897,-0.03542497384107019
-0.005413327586206896,-0.0340426044153758
-0.005412987586206897,-0.03259440787417529
-0.005412647586206897,-0.03183739604582185
-0.005412307586206896,-0.03045502662012908
