Analysis/plots/wrd01_d2s01/non compliant measurements/cmb10_ch08.csv

#Digilent WaveForms Oscilloscope Acquisition
#Device Name: ADP3450
#Serial Number: SN:210018B9D9B0
#Date Time: 2024-08-07 11:43:07.135.945.600
#Sample rate: 2.94118e+06Hz
#Samples: 32768
#Trigger: Source: Channel 3 Type: Edge Condition: Rising Level: 0 V Hyst.: Auto HoldOff: 0 s
#Channel 3: Range: 200 mV/div Offset: 0 V Attenuation: 1 X Coupling: DC Bandwidth: 0 Hz Sample Mode: Average

Time (s),Channel 3 (V)
-0.005570477931034483,0.01631513894909657
-0.005570137931034482,0.01615057116032175
-0.005569797931034483,0.01503151019666884
-0.005569457931034483,0.01387953567525935
-0.005569117931034482,0.01180598153671782
-0.005568777931034483,0.009370378262885021
-0.005568437931034483,0.007527219028629823
-0.005568097931034482,0.006836034315784842
-0.005567757931034483,0.007230997008838809
-0.005567417931034483,0.007922181721684508
-0.005567077931034482,0.009041242685341724
-0.005566737931034483,0.01029195788001262
-0.005566397931034483,0.01124645105489478
-0.005566057931034482,0.01193763576774024
-0.005565717931034483,0.01180598153672225
-0.005565377931034483,0.01095022903510376
-0.005565037931034482,0.009732427398183054
-0.005564697931034483,0.008580452876775651
-0.005564357931034483,0.008415885088002865
-0.005564017931034482,0.008053835952702917
-0.005563677931034483,0.008152576625966409
-0.005563337931034483,0.008547539319021094
-0.005562997931034483,0.009469118936147016
-0.005562657931034483,0.01012739009123984
-0.005562317931034483,0.01055526634204908
-0.005561977931034483,0.01078566124633056
-0.005561637931034483,0.01075274768857642
-0.005561297931034483,0.01042361211103085
-0.005560957931034483,0.01039069855327635
-0.005560617931034482,0.01085148836184009
-0.005560277931034483,0.0116085001901949
-0.005559937931034483,0.01249716624956633
-0.005559597931034482,0.01315543740465909
-0.005559257931034483,0.01374788144424112
-0.005558917931034483,0.01364914077097763
-0.005558577931034482,0.01394536279076846
-0.005558237931034483,0.01387953567525935
-0.005557897931034483,0.01424158481055881
-0.005557557931034482,0.01489985596565062
-0.005557217931034483,0.01578852202502366
-0.005556877931034483,0.0164138796223591
-0.005556537931034482,0.01654553385337847
-0.005556197931034483,0.01707215077745139
-0.005555857931034483,0.01700632366194239
-0.005555517931034482,0.02010019809087064
-0.005555177931034483,0.0294147349354103
-0.005554837931034483,0.04649687140999437
-0.005554497931034482,0.07193905155429808
-0.005554157931034483,0.1036677212296911
-0.005553817931034483,0.1382598704297306
-0.005553477931034482,0.1727861925142611
-0.005553137931034483,0.204449035074145
-0.005552797931034483,0.230088696564945
-0.005552457931034482,0.2488494244850425
-0.005552117931034483,0.2608957866232104
-0.005551777931034483,0.2671822761543308
-0.005551437931034482,0.2688279540420553
-0.005551097931034483,0.2669518812500489
-0.005550757931034483,0.2627060322997111
-0.005550417931034482,0.2569132461348975
-0.005550077931034483,0.250593843046034
-0.005549737931034483,0.2428920705314677
-0.005549397931034482,0.2362435318650349
-0.005549057931034483,0.2295291660831175
-0.005548717931034483,0.2229793680899606
-0.005548377931034482,0.2165941378855643
-0.005548037931034483,0.2098468585458924
-0.005547697931034483,0.2034616283415083
-0.005547357931034482,0.1966485218863028
-0.005547017931034483,0.1899670696621399
-0.005546677931034483,0.1827919140716464
-0.005546337931034482,0.1760117211741958
-0.005545997931034483,0.1694619231810508
-0.005545657931034483,0.1626159031681029
-0.005545317931034482,0.1568889441187996
-0.005544977931034483,0.1511948986272716
-0.005544637931034483,0.1454679395779787
-0.005544297931034482,0.1401688567794859
-0.005543957931034483,0.1351989095585568
-0.005543617931034483,0.1301631352221096
-0.005543277931034482,0.1254235829054443
-0.005542937931034483,0.1204207221267607
-0.005542597931034483,0.1163723545229502
-0.005542257931034483,0.1124885547079195
-0.005541917931034483,0.1081768786420655
-0.005541577931034483,0.1041943381537641
-0.005541237931034483,0.1011992043981048
-0.005540897931034483,0.09869777400875301
-0.005540557931034483,0.09596594871512476
-0.005540217931034483,0.09339869121027397
-0.005539877931034482,0.09083143370541386
-0.005539537931034483,0.0882641762005584
-0.005539197931034483,0.0860589678310071
-0.005538857931034482,0.08296509340207472
-0.005538517931034483,0.08072697147476482
-0.005538177931034483,0.07858759022072251
-0.005537837931034482,0.0764482089666724
-0.005537497931034483,0.07434174127038076
-0.005537157931034483,0.07190613799654795
-0.005536817931034482,0.06956927539596997
-0.005536477931034483,0.06713367212213275
-0.005536137931034483,0.06450058750177297
-0.005535797931034482,0.06236120624772196
-0.005535457931034483,0.06018891143592119
-0.005535117931034483,0.05811535729738787
-0.005534777931034482,0.05706212344923827
-0.005534437931034483,0.05610763027435611
-0.005534097931034483,0.05577849469681114
-0.005533757931034482,0.05505439642621029
-0.005533417931034483,0.053737854116028
-0.005533077931034483,0.05301375584542774
-0.005532737931034482,0.05199343555503647
-0.005532397931034483,0.05107185593790887
-0.005532057931034483,0.05021610343629039
-0.005531717931034482,0.04926161026140823
-0.005531377931034483,0.04761593237368038
-0.005531037931034483,0.04531198333086138
-0.005530697931034482,0.04281055294151504
-0.005530357931034483,0.04119778861154175
-0.005530017931034483,0.03961793783932301
-0.005529677931034482,0.03846596331791237
-0.005529337931034483,0.03784060572057692
-0.005528997931034483,0.03751147014303135
-0.005528657931034482,0.03705068033446617
-0.005528317931034483,0.03629366850611274
-0.005527977931034483,0.03556957023551248
-0.005527637931034482,0.03418720080981778
-0.005527297931034483,0.03237695513332044
-0.005526957931034483,0.03036922811029246
-0.005526617931034482,0.02882229089582546
-0.005526277931034483,0.02727535368136409
-0.005525937931034483,0.02625503339097282
-0.005525597931034482,0.02569550290914493
-0.005525257931034483,0.02546510800486345
-0.005524917931034483,0.02507014531180876
-0.005524577931034482,0.02470809617650917
-0.005524237931034483,0.02500431819629965
-0.005523897931034483,0.02460935550324496
-0.005523557931034482,0.02421439281018956
-0.005523217931034483,0.02381943011713559
-0.005522877931034483,0.02332572675081724
-0.005522537931034482,0.02319407251979901
-0.005522197931034483,0.02319407251979901
-0.005521857931034483,0.02312824540428989
-0.005521517931034482,0.02345738098183552
-0.005521177931034483,0.02349029453959002
-0.005520837931034483,0.02319407251979901
-0.005520497931034483,0.02250288780695456
-0.005520157931034483,0.02223957934491685
-0.005519817931034483,0.02217375222940774
-0.005519477931034483,0.02240414713368922
-0.005519137931034482,0.02253580136470787
-0.005518797931034483,0.02243706069144419
-0.005518457931034483,0.02184461665186324
-0.005518117931034482,0.02095595059248912
-0.005517777931034483,0.01954066760904317
-0.005517437931034483,0.01815829818335428
-0.005517097931034482,0.01707215077745139
-0.005516757931034483,0.01562395423625087
-0.005516417931034483,0.01404410346403501
-0.005516077931034482,0.01332000519343187
-0.005515737931034483,0.0125300798073225
-0.005515397931034483,0.01246425269181351
-0.005515057931034482,0.01262882048058617
-0.005514717931034483,0.01348457298220466
-0.005514377931034483,0.01473528817687556
-0.005514037931034482,0.01568978135175999
-0.005513697931034483,0.01717089145071506
-0.005513357931034483,0.01822412529885897
-0.005513017931034482,0.01868491510742468
-0.005512677931034483,0.01868491510742468
-0.005512337931034483,0.01871782866517924
-0.005511997931034482,0.01815829818335177
-0.005511657931034483,0.01786207616356076
-0.005511317931034483,0.0180595575100881
-0.005510977931034482,0.01740128635499695
-0.005510637931034483,0.01703923721969683
-0.005510297931034483,0.01601891692930556
-0.005509957931034482,0.0152948186587053
-0.005509617931034483,0.01473528817687783
-0.005509277931034483,0.01453780683035049
-0.005508937931034482,0.01371496788648602
-0.005508597931034483,0.01341874586669555
-0.005508257931034483,0.01364914077097745
-0.005507917931034482,0.01305669673139578
-0.005507577931034483,0.01325417807792276
-0.005507237931034483,0.0148340288501415
-0.005506897931034482,0.01578852202502515
-0.005506557931034483,0.01661136096888758
-0.005506217931034483,0.01700632366194227
-0.005505877931034482,0.01684175587316906
-0.005505537931034483,0.01661136096888758
-0.005505197931034483,0.0157556084672691
-0.005504857931034482,0.01493276952340338
-0.005504517931034483,0.01394536279076846
-0.005504177931034483,0.0129908696158863
-0.005503837931034482,0.01243133913405901
-0.005503497931034483,0.0125300798073225
-0.005503157931034483,0.0129908696158863
-0.005502817931034482,0.01401118990627907
-0.005502477931034483,0.0148340288501415
-0.005502137931034483,0.01559104067849632
-0.005501797931034482,0.01578852202502318
-0.005501457931034483,0.0155252135629872
-0.005501117931034483,0.01588726269828733
-0.005500777931034482,0.0159860033715498
-0.005500437931034483,0.01532773221645986
-0.005500097931034483,0.01463654750361416
-0.005499757931034483,0.01378079500199723
-0.005499417931034483,0.01262882048058617
-0.005499077931034483,0.01187180865223136
-0.005498737931034483,0.01157558663244089
-0.005498397931034483,0.01167432730570402
-0.005498057931034483,0.0122996849030406
-0.005497717931034483,0.01341874586669351
-0.005497377931034482,0.01417575769505036
-0.005497037931034483,0.01410993057954124
-0.005496697931034483,0.01401118990627775
-0.005496357931034482,0.01381370855975023
-0.005496017931034483,0.01302378317364086
-0.005495677931034483,0.01223385778753293
-0.005495337931034482,0.01210220355651326
-0.005494997931034483,0.0120692899987587
-0.005494657931034483,0.01262882048058516
-0.005494317931034482,0.01338583230894099
-0.005493977931034483,0.0134516594244501
-0.005493637931034483,0.01384662211750407
-0.005493297931034482,0.01417575769505036
-0.005492957931034483,0.01374788144424112
-0.005492617931034483,0.01348457298220514
-0.005492277931034482,0.01341874586669555
-0.005491937931034483,0.01328709163567732
-0.005491597931034483,0.01338583230894081
-0.005491257931034482,0.01295795605813175
-0.005490917931034483,0.01269464759609529
-0.005490577931034483,0.01302378317364086
-0.005490237931034482,0.01262882048058617
-0.005489897931034483,0.01220094422977693
-0.005489557931034483,0.01233259846079516
-0.005489217931034482,0.01318835096241365
-0.005488877931034483,0.01443906615708682
-0.005488537931034483,0.0157556084672691
-0.005488197931034482,0.01657844741113446
-0.005487857931034483,0.0173683727972424
-0.005487517931034483,0.01746711347050607
-0.005487177931034482,0.01661136096888633
-0.005486837931034483,0.01592017625604189
-0.005486497931034483,0.01486694240789606
-0.005486157931034482,0.01374788144423914
-0.005485817931034483,0.01266173403834073
-0.005485477931034483,0.01164141374794946
-0.005485137931034482,0.01108188326612205
-0.005484797931034483,0.01111479682387655
-0.005484457931034483,0.01065400701531275
-0.005484117931034482,0.01081857480408547
-0.005483777931034483,0.01078566124633098
-0.005483437931034483,0.01111479682387655
-0.005483097931034482,0.01131227817040377
-0.005482757931034483,0.01124645105489478
-0.005482417931034483,0.01108188326612199
-0.005482077931034482,0.01075274768857534
-0.005481737931034483,0.01016030364899439
-0.005481397931034483,0.01022613076450351
-0.005481057931034482,0.01048943922653996
-0.005480717931034483,0.01048943922653996
-0.005480377931034483,0.011378105285913
-0.005480037931034482,0.01259590692283389
-0.005479697931034483,0.01384662211750479
-0.005479357931034483,0.01463654750361416
-0.005479017931034483,0.01621639827583003
-0.005478677931034483,0.01634805250685113
-0.005478337931034483,0.01572269490951454
-0.005477997931034483,0.01427449836831667
-0.005477657931034483,0.0134516594244501
-0.005477317931034483,0.01285921538486808
-0.005476977931034483,0.01174015442121517
-0.005476637931034482,0.01108188326612199
-0.005476297931034483,0.009798254513694264
-0.005475957931034483,0.008942502012077335
-0.005475617931034482,0.008284230856984636
-0.005475277931034483,0.00779052749066628
-0.005474937931034483,0.007955095279438766
-0.005474597931034482,0.008942502012075779
-0.005474257931034483,0.01042361211103085
-0.005473917931034483,0.01174015442121074
-0.005473577931034482,0.01223385778753149
-0.005473237931034483,0.01282630182711352
-0.005472897931034483,0.0130237831736405
-0.005472557931034482,0.01223385778753149
-0.005472217931034483,0.0118388950944768
-0.005471877931034483,0.01124645105489585
-0.005471537931034482,0.01035778499552173
-0.005471197931034483,0.01045652566878541
-0.005470857931034483,0.01104896970836636
-0.005470517931034482,0.01177306797896769
-0.005470177931034483,0.01315543740465909
-0.005469837931034483,0.01341874586669555
-0.005469497931034482,0.01447197971484137
-0.005469157931034483,0.01470237461912327
-0.005468817931034483,0.01453780683035049
-0.005468477931034482,0.01420867125280492
-0.005468137931034483,0.01420867125280492
-0.005467797931034483,0.01430741192606859
-0.005467457931034482,0.013682054328732
-0.005467117931034483,0.01325417807792276
-0.005466777931034483,0.01289212894262263
-0.005466437931034482,0.01256299336507748
-0.005466097931034483,0.01279338826935896
-0.005465757931034483,0.01262882048058617
-0.005465417931034482,0.01266173403834241
-0.005465077931034483,0.01358331365546833
-0.005464737931034483,0.01364914077097745
-0.005464397931034482,0.01401118990627698
-0.005464057931034483,0.013682054328732
-0.005463717931034483,0.01312252384690453
-0.005463377931034482,0.01243133913405787
-0.005463037931034483,0.01190472220998592
-0.005462697931034483,0.01101605615061288
-0.005462357931034482,0.0100615629757306
-0.005462017931034483,0.009995735860221606
-0.005461677931034483,0.01016030364899439
-0.005461337931034482,0.009962822302466749
-0.005460997931034483,0.009798254513694264
-0.005460657931034483,0.01071983413082186
-0.005460317931034482,0.01131227817040563
-0.005459977931034483,0.01226677134528605
-0.005459637931034483,0.0132212645201682
-0.005459297931034482,0.01381370855975047
-0.005458957931034483,0.01394536279076846
-0.005458617931034483,0.01420867125280492
-0.005458277931034482,0.01457072038810504
-0.005457937931034483,0.01457072038810504
-0.005457597931034483,0.01407701702178669
-0.005457257931034483,0.01348457298220574
-0.005456917931034483,0.01266173403834073
-0.005456577931034483,0.01226677134528605
-0.005456237931034483,0.01174015442121409
-0.005455897931034482,0.01045652566878541
-0.005455557931034483,0.009205810474112236
-0.005455217931034483,0.007922181721686843
-0.005454877931034482,0.007099342777820581
-0.005454537931034483,0.007132256335575138
-0.005454197931034483,0.007428478355365613
-0.005453857931034482,0.008679193550039321
-0.005453517931034483,0.01035778499552173
-0.005453177931034483,0.01226677134528257
-0.005452837931034482,0.01401118990627757
-0.005452497931034483,0.0157556084672691
-0.005452157931034483,0.01647970673786804
-0.005451817931034482,0.01651262029562391
-0.005451477931034483,0.01680884231541493
-0.005451137931034483,0.01638096606460646
-0.005450797931034482,0.01680884231541493
-0.005450457931034483,0.01654553385337847
-0.005450117931034483,0.0162163982758335
-0.005449777931034482,0.01568978135175999
-0.005449437931034483,0.01476820173463239
-0.005449097931034483,0.01384662211750646
-0.005448757931034482,0.01364914077097745
-0.005448417931034483,0.013682054328732
-0.005448077931034483,0.01440615259933226
-0.005447737931034482,0.01470237461912327
-0.005447397931034483,0.01473528817687783
-0.005447057931034483,0.01443906615708682
-0.005446717931034482,0.01384662211750479
-0.005446377931034483,0.01325417807792276
-0.005446037931034483,0.01282630182711352
-0.005445697931034482,0.01269464759609457
-0.005445357931034483,0.0122996849030406
-0.005445017931034483,0.01157558663244035
-0.005444677931034482,0.01154267307468627
-0.005444337931034483,0.01180598153672225
-0.005443997931034483,0.01246425269181339
-0.005443657931034482,0.01348457298220652
-0.005443317931034483,0.01450489327259593
-0.005442977931034483,0.01466946106136872
-0.005442637931034482,0.0143732390415771
-0.005442297931034483,0.01404410346403213
-0.005441957931034483,0.01292504250037719
-0.005441617931034482,0.01262882048058617
-0.005441277931034483,0.01262882048058617
-0.005440937931034483,0.01213511711426782
-0.005440597931034482,0.01167432730570414
-0.005440257931034483,0.01174015442121313
-0.005439917931034483,0.01104896970836743
-0.005439577931034482,0.0104894392265393
-0.005439237931034483,0.01012739009123984
-0.005438897931034483,0.009172896916357679
-0.005438557931034482,0.008350057972492973
-0.005438217931034483,0.007922181721684508
-0.005437877931034483,0.007823441048420837
-0.005437537931034482,0.008448798645758858
-0.005437197931034483,0.009238724031866792
-0.005436857931034483,0.01075274768857642
-0.005436517931034483,0.01164141374794784
-0.005436177931034483,0.01325417807792276
-0.005435837931034483,0.01387953567525935
-0.005435497931034483,0.01450489327259479
-0.005435157931034483,0.01443906615708682
-0.005434817931034483,0.01407701702178669
-0.005434477931034483,0.01381370855975071
-0.005434137931034482,0.01285921538486808
-0.005433797931034483,0.01111479682387655
-0.005433457931034483,0.005815714025402492
-0.005433117931034482,-0.004584970225047193
-0.005432777931034483,-0.02189750160394423
-0.005432437931034483,-0.04592439876472722
-0.005432097931034482,-0.07590864987917245
-0.005431757931034483,-0.1093488245578025
-0.005431417931034483,-0.1427231721208627
-0.005431077931034482,-0.1725099418887976
-0.005430737931034483,-0.1977217271287883
-0.005430397931034483,-0.2160545787980432
-0.005430057931034482,-0.2277059782431898
-0.005429717931034483,-0.233564591523501
-0.005429377931034483,-0.2354077507577528
-0.005429037931034482,-0.2340912084475739
-0.005428697931034483,-0.2304048899790635
-0.005428357931034483,-0.2255336834313979
-0.005428017931034482,-0.2196421565933233
-0.005427677931034483,-0.2125986552338481
-0.005427337931034483,-0.2056538945476366
-0.005426997931034482,-0.1976888135710337
-0.005426657931034483,-0.1904807444227857
-0.005426317931034483,-0.1835030701788196
-0.005425977931034482,-0.17678870439689
-0.005425637931034483,-0.1708971775588243
-0.005425297931034483,-0.1643473795656674
-0.005424957931034482,-0.1586204205163745
-0.005424617931034483,-0.1523997581007632
-0.005424277931034483,-0.1461790956851519
-0.005423937931034482,-0.1396292976919835
-0.005423597931034483,-0.1332769810453655
-0.005423257931034483,-0.1271221457452633
-0.005422917931034482,-0.1216584951579973
-0.005422577931034483,-0.1163923259172777
-0.005422237931034483,-0.1122123040824489
-0.005421897931034482,-0.1073081839770155
-0.005421557931034483,-0.1048725807031827
-0.005421217931034483,-0.1014166571389542
-0.005420877931034482,-0.09865191828756663
-0.005420537931034483,-0.09601883366720684
-0.005420197931034483,-0.092661650776242
-0.005419857931034482,-0.08907407298098835
-0.005419517931034483,-0.08525610028146666
-0.005419177931034483,-0.08094442421561968
-0.005418837931034482,-0.07610613122569146
-0.005418497931034483,-0.07153114669781635
-0.005418157931034483,-0.06754860620951494
-0.005417817931034482,-0.06419142331854472
-0.005417477931034483,-0.06122920312063997
-0.005417137931034483,-0.05810241513395705
-0.005416797931034482,-0.05596303387990671
-0.005416457931034483,-0.0536919983948464
-0.005416117931034483,-0.05194757983385487
-0.005415777931034482,-0.05033481550387876
-0.005415437931034483,-0.04878787828941739
-0.005415097931034483,-0.04740550886372599
-0.005414757931034483,-0.04572691741824663
-0.005414417931034483,-0.04408123953051572
-0.005414077931034483,-0.04260012943156065
-0.005413737931034483,-0.04065822952404531
-0.005413397931034482,-0.03881507028978658
-0.005413057931034483,-0.03687317038226771
-0.005412717931034483,-0.03522749249454285
-0.005412377931034482,-0.03308811124049365
