Analysis/New Tests/wrd01_d2s01/cmb03_take2/cmb03_ch39.csv

#Digilent WaveForms Oscilloscope Acquisition
#Device Name: ADP3450
#Serial Number: SN:210018B9D9B0
#Date Time: 2024-08-08 13:20:52.410.111.490
#Sample rate: 2.94118e+06Hz
#Samples: 32768
#Trigger: Source: Channel 3 Type: Edge Condition: Rising Level: 60 mV Hyst.: Auto HoldOff: 0 s
#Channel 3: Range: 200 mV/div Offset: 0 V Attenuation: 1 X Coupling: DC Bandwidth: 0 Hz Sample Mode: Average

Time (s),Channel 3 (V)
-0.005570278838071694,0.009370378262885021
-0.005569938838071694,0.006013195371927201
-0.005569598838071694,0.009864081629203377
-0.005569258838071694,0.01187180865223136
-0.005568918838071694,0.01193763576773892
-0.005568578838071694,0.01108188326612199
-0.005568238838071694,0.007066429220066024
-0.005567898838071694,0.006046108929677567
-0.005567558838071694,0.007593046144138938
-0.005567218838071694,0.006934774989047795
-0.005566878838071694,0.004038381906645992
-0.005566538838071694,0.003610505655837527
-0.005566198838071694,0.004334603926437783
-0.005565858838071694,0.003840900560120984
-0.005565518838071694,0.004696653061737912
-0.005565178838071694,0.005157442870301712
-0.005564838838071694,0.005322010659076712
-0.005564498838071694,0.00653981229599311
-0.005564158838071694,0.006506898738238553
-0.005563818838071694,0.005354924216829593
-0.005563478838071694,0.005651146236620068
-0.005563138838071694,0.007263910566593366
-0.005562798838071694,0.001800259979346824
-0.005562458838071694,-0.00165566358489161
-0.005562118838071694,-0.001326528007346039
-0.005561778838071694,-0.002346848297735453
-0.005561438838071694,-0.001754404258155281
-0.005561098838071694,-7.581281267286857e-05
-0.005560758838071694,0.0001545820916086121
-0.005560418838071694,-0.0004707755057275538
-0.005560078838071694,0.0001216685338544741
-0.005559738838071694,-0.002281021182223824
-0.005559398838071694,-0.002116453393455409
-0.005559058838071694,0.001141988824245744
-0.005558718838071694,0.002228136230144153
-0.005558378838071694,0.002195222672391572
-0.005558038838071694,-0.0009315653142913533
-0.005557698838071694,-0.002116453393453254
-0.005557358838071694,-0.001030305987555025
-0.005557018838071694,5.584141834535986e-05
-0.005556678838071694,-0.001359441565098021
-0.005556338838071694,-0.003860871954446936
-0.005555998838071694,-0.002182280508964523
-0.005555658838071694,-0.000602429736748656
-0.005555318838071694,-0.001820231373664395
-0.005554978838071694,-0.003334255030374022
-0.005554638838071694,-0.003038033010583547
-0.005554298838071694,-0.002412675413246423
-0.005553958838071694,-0.002972205895073894
-0.005553618838071694,-0.003597563492410479
-0.005553278838071694,-0.005045760033610991
-0.005552938838071694,-0.005605290515438462
-0.005552598838071694,-0.003630477050165036
-0.005552258838071694,-0.002972205895073894
-0.005551918838071694,-0.004124180416483393
-0.005551578838071694,-0.004025439743219721
-0.005551238838071694,-0.001853144931418354
-0.005550898838071694,-0.001524009353873381
-0.005550558838071694,-0.002379761855491866
-0.005550218838071694,-0.003169687241602613
-0.005549878838071694,-0.00392669906995605
-0.005549538838071694,-0.003597563492410479
-0.005549198838071694,-0.007415536191936948
-0.005548858838071694,-0.006230648112775047
-0.005548518838071694,-0.003729217723428708
-0.005548178838071694,-0.001589836469381238
-0.005547838838071694,-0.0008986517565367963
-0.005547498838071694,-0.003795044838937822
-0.005547158838071694,-0.00349882281914555
-0.005546818838071694,-0.002807638106301108
-0.005546478838071694,-0.00267598387528288
-0.005546138838071694,-0.003827958396693457
-0.005545798838071694,-0.004420402436274407
-0.005545458838071694,-0.004190007531992507
-0.005545118838071694,-0.003926699069958445
-0.005544778838071694,-0.005243241380138334
-0.005544438838071694,-0.006230648112775047
-0.005544098838071694,-0.0060660803240031
-0.005543758838071694,-0.006526870132566062
-0.005543418838071694,-0.006757265036847961
-0.005543078838071694,-0.006296475228284102
-0.005542738838071694,-0.006263561670529605
-0.005542398838071694,-0.005769858304211248
-0.005542058838071694,-0.004058353300977391
-0.005541718838071694,-0.003432995703637694
-0.005541378838071694,-0.004486229551783521
-0.005541038838071694,-0.003367168588130615
-0.005540698838071694,-0.001589836469382495
-0.005540358838071694,-0.001721490700400724
-0.005540018838071694,-0.002511416086508658
-0.005539678838071694,-0.002511416086510094
-0.005539338838071694,-0.003038033010583008
-0.005538998838071694,-0.004058353300972422
-0.005538658838071694,-0.00688891926786619
-0.005538318838071694,-0.004321661763010735
-0.005537978838071694,-0.003465909261393807
-0.005537638838071694,-0.00188605848917351
-0.005537298838071694,-0.002544329644264652
-0.005536958838071694,-0.005736944746450883
-0.005536618838071694,-0.004453315994028964
-0.005536278838071694,-0.002050626277946295
-0.005535938838071694,-0.00139235512285635
-0.005535598838071694,-0.001951885604682624
-0.005535258838071694,-0.002215194066719081
-0.005534918838071694,-0.003202600799353998
-0.005534578838071694,-0.003432995703637694
-0.005534238838071694,-0.004091266858728836
-0.005533898838071694,-0.005802771861962692
-0.005533558838071694,-0.005572376957683906
-0.005533218838071694,-0.006033166766247705
-0.005532878838071694,-0.006790178594602518
-0.005532538838071694,-0.007514276865202775
-0.005532198838071694,-0.006757265036847961
-0.005531858838071694,-0.007250968403166318
-0.005531518838071694,-0.00711931417214809
-0.005531178838071694,-0.006362302343793276
-0.005530838838071694,-0.006856005710111633
-0.005530498838071694,-0.005967339650738591
-0.005530158838071694,-0.005243241380138334
-0.005529818838071694,-0.005506549842174791
-0.005529478838071694,-0.005835685419720302
-0.005529138838071694,-0.005802771861965805
-0.005528798838071694,-0.006724351479093405
-0.005528458838071694,-0.009785312350260152
-0.005528118838071694,-0.005901512535229476
-0.005527778838071694,-0.003893785512201493
-0.005527438838071694,-0.002807638106298534
-0.005527098838071694,-0.001392355122855153
-0.005526758838071694,-0.003729217723428708
-0.005526418838071694,-0.004716624456061349
-0.005526078838071694,-0.002478502528755537
-0.005525738838071694,-0.00313677368384668
-0.005525398838071694,-0.004222921089748022
-0.005525058838071694,-0.004749538013819977
-0.005524718838071694,-0.005671117630947577
-0.005524378838071694,-0.007514276865202177
-0.005524038838071694,-0.007185141287657204
-0.005523698838071694,-0.007580103980711889
-0.005523358838071694,-0.01225382918187175
-0.005523018838071694,-0.01926441698357966
-0.005522678838071694,-0.03104747065971111
-0.005522338838071694,-0.0493803223290442
-0.005521998838071694,-0.07399966352940812
-0.005521658838071694,-0.1042472231058461
-0.005521318838071694,-0.1350213996064142
-0.005520978838071694,-0.1664867608197136
-0.005520638838071694,-0.1948582476041418
-0.005520298838071694,-0.2206295633259132
-0.005519958838071694,-0.2406410064407308
-0.005519618838071694,-0.2549584040639631
-0.005519278838071694,-0.2640425460042043
-0.005518938838071694,-0.2681567407235405
-0.005518598838071694,-0.2667743712978491
-0.005518258838071694,-0.2584472411859613
-0.005517918838071694,-0.2606853631132561
-0.005517578838071694,-0.2539380837735719
-0.005517238838071694,-0.2437348808696777
-0.005516898838071694,-0.2348153067181742
-0.005516558838071694,-0.2271135342036078
-0.005516218838071694,-0.2226372903489962
-0.005515878838071694,-0.2167786770686769
-0.005515538838071694,-0.2080565842637192
-0.005515198838071694,-0.2016055269438378
-0.005514858838071694,-0.1965697526073788
-0.005514518838071694,-0.1889996343238307
-0.005514178838071694,-0.1813307753670328
-0.005513838838071694,-0.17418853333428
-0.005513498838071694,-0.1672437726480684
-0.005513158838071694,-0.159871135711061
-0.005512818838071694,-0.1544403986815457
-0.005512478838071694,-0.1486476125167437
-0.005512138838071694,-0.1426244314476597
-0.005511798838071694,-0.1393989027877131
-0.005511458838071694,-0.1362392012432756
-0.005511118838071694,-0.130413501520719
-0.005510778838071694,-0.125213159395499
-0.005510438838071694,-0.1219876307355524
-0.005510098838071694,-0.1181696580360238
-0.005509758838071694,-0.1151745242803591
-0.005509418838071694,-0.1112907244653213
-0.005509078838071694,-0.1066169992641742
-0.005508738838071694,-0.1031939892576968
-0.005508398838071694,-0.101285002907936
-0.005508058838071694,-0.09661127770678887
-0.005507718838071694,-0.09328700837357386
-0.005507378838071694,-0.09068683731096858
-0.005507038838071694,-0.08347876816272057
-0.005506698838071694,-0.08008867171399323
-0.005506358838071694,-0.07571116853264509
-0.005506018838071694,-0.07357178727859889
-0.005505678838071694,-0.07571116853264287
-0.005505338838071694,-0.0744933668957265
-0.005504998838071694,-0.07120201112027078
-0.005504658838071694,-0.06804230957583311
-0.005504318838071694,-0.06794356890256961
-0.005503978838071694,-0.06731821130523305
-0.005503638838071694,-0.06521174360893714
-0.005503298838071694,-0.06287488100836783
-0.005502958838071694,-0.06096589465860352
-0.005502618838071694,-0.05997848792596459
-0.005502278838071694,-0.05876068628904819
-0.005501938838071694,-0.05750997109437502
-0.005501598838071694,-0.05448192378095169
-0.005501258838071694,-0.05224380185364588
-0.005500918838071694,-0.05102600021672727
-0.005500578838071694,-0.04849165626962098
-0.005500238838071694,-0.04552943607171624
-0.005499898838071694,-0.04246847520054242
-0.005499558838071694,-0.03973664990691915
-0.005499218838071694,-0.03733396019083152
-0.005498878838071694,-0.035885763649631
-0.005498538838071694,-0.03341724681804371
-0.005498198838071694,-0.03150826046827491
-0.005497858838071694,-0.03147534691052035
-0.005497518838071694,-0.03101455710195739
-0.005497178838071694,-0.03239692652764795
-0.005496838838071694,-0.03206779095010238
-0.005496498838071694,-0.0282169046928262
-0.005496158838071694,-0.02795359623078274
-0.005495818838071694,-0.02666996747835501
-0.005495478838071694,-0.0279865097885349
-0.005495138838071694,-0.0289080894056649
-0.005494798838071694,-0.02713075728691881
-0.005494458838071694,-0.02512303026389448
-0.005494118838071694,-0.02400396930023588
-0.005493778838071694,-0.0231482167986174
-0.005493438838071694,-0.0220291558349645
-0.005493098838071694,-0.02058095929376194
-0.005492758838071694,-0.01962646611887979
-0.005492418838071694,-0.01936315765684381
-0.005492078838071694,-0.01830992380869751
-0.005491738838071694,-0.01870488650175219
-0.005491398838071694,-0.01909984919480616
-0.005491058838071694,-0.01811244246217016
-0.005490718838071694,-0.01765165265360636
-0.005490378838071694,-0.01909984919480688
-0.005490038838071694,-0.01926441698357966
-0.005489698838071694,-0.0190011085215432
-0.005489358838071694,-0.01847449159747029
-0.005489018838071694,-0.01844157803971573
-0.005488678838071694,-0.01768456621136092
-0.005488338838071694,-0.01745417130707902
-0.005487998838071694,-0.01702629505626798
-0.005487658838071694,-0.01603888832363307
-0.005487318838071694,-0.01705920861402434
-0.005486978838071694,-0.01863905938624607
-0.005486638838071694,-0.02028473727397093
-0.005486298838071694,-0.01610471543914218
-0.005485958838071694,-0.01419572908937529
-0.005485618838071694,-0.01278044610593191
-0.005485278838071694,-0.0129450138947047
-0.005484938838071694,-0.01561101207282059
-0.005484598838071694,-0.01383367995407774
-0.005484258838071694,-0.01185886648880431
-0.005483918838071694,-0.01162847158452163
-0.005483578838071694,-0.01120059533371317
-0.005483238838071694,-0.01070689196739481
-0.005482898838071694,-0.01067397840963918
-0.005482558838071694,-0.01008153437005823
-0.005482218838071694,-0.008402942924575817
-0.005481878838071694,-0.009061214079666839
-0.005481538838071694,-0.008995386964157845
-0.005481198838071694,-0.008501683597839487
-0.005480858838071694,-0.008106720904783964
-0.005480518838071694,-0.007645931096221003
-0.005480178838071694,-0.00711931417214809
-0.005479838838071694,-0.007645931096221063
-0.005479498838071694,-0.00767884465397556
-0.005479158838071694,-0.005704031188702134
-0.005478818838071694,-0.006329388786037581
-0.005478478838071694,-0.006987659941129861
-0.005478138838071694,-0.007316795518675433
-0.005477798838071694,-0.0077117582117294
-0.005477458838071694,-0.009094127637421515
-0.005477118838071694,-0.009357436099457973
-0.005476778838071694,-0.01225382918185373
-0.005476438838071694,-0.01541353072629648
-0.005476098838071694,-0.01495274091773268
-0.005475758838071694,-0.00899538696416868
-0.005475418838071694,-0.009028300521912402
-0.005475078838071694,-0.01047649706311291
-0.005474738838071694,-0.009522003888232496
-0.005474398838071694,-0.008732078502121389
-0.005474058838071694,-0.007942153116012016
-0.005473718838071694,-0.007975066673766514
-0.005473378838071694,-0.005901512535229476
-0.005473038838071694,-0.004255834647501621
-0.005472698838071694,-0.007218054845406373
-0.005472358838071694,-0.007777585327239231
-0.005472018838071694,-0.008435856482330374
-0.005471678838071694,-0.008764992059875347
-0.005471338838071694,-0.009686571677003543
-0.005470998838071694,-0.009686571677003543
-0.005470658838071694,-0.009949880139039522
-0.005470318838071694,-0.01097020042943127
-0.005469978838071694,-0.01120059533371317
-0.005469638838071694,-0.009916966581285444
-0.005469298838071694,-0.009258695426194301
-0.005468958838071694,-0.00962074456149443
-0.005468618838071694,-0.008468770040084931
-0.005468278838071694,-0.009258695426194301
-0.005467938838071694,-0.0104106699476038
-0.005467598838071694,-0.01050941062086747
-0.005467258838071694,-0.01073980552514937
-0.005466918838071694,-0.01103602754494038
-0.005466578838071694,-0.0108714597561676
-0.005466238838071694,-0.01037775638984787
-0.005465898838071694,-0.00962074456149443
-0.005465558838071694,-0.007382622634184546
-0.005465218838071694,-0.004749538013821295
-0.005464878838071694,-0.005473636284420234
-0.005464538838071694,-0.003202600799355794
-0.005464198838071694,-0.003860871954452324
-0.005463858838071694,-0.006823092152357076
-0.005463518838071694,-0.006757265036847961
-0.005463178838071694,-0.00593442609298517
-0.005462838838071694,-0.006559783690320619
-0.005462498838071694,-0.005934426092984033
-0.005462158838071694,-0.005506549842177306
-0.005461818838071694,-0.00688891926786619
-0.005461478838071694,-0.00688891926786619
-0.005461138838071694,-0.005210327822383358
-0.005460798838071694,-0.004979932918101878
-0.005460458838071694,-0.006131907439511376
-0.005460118838071694,-0.004650797340553672
-0.005459778838071694,-0.003202600799355794
-0.005459438838071694,-0.002774724548546551
-0.005459098838071694,-0.002346848297737908
-0.005458758838071694,-0.00267598387528288
-0.005458418838071694,-0.003334255030374022
-0.005458078838071694,-0.003465909261393508
-0.005457738838071694,-0.00415709397423795
-0.005457398838071694,-0.00540780916891112
-0.005457058838071694,-0.005473636284420115
-0.005456718838071694,-0.005341982053402005
-0.005456378838071694,-0.006066080324002262
-0.005456038838071694,-0.006592697248074218
-0.005455698838071694,-0.008040893789275689
-0.005455358838071694,-0.01159555802676786
-0.005455018838071694,-0.008468770040090619
-0.005454678838071694,-0.004848278687083649
-0.005454338838071694,-0.004552056667292635
-0.005453998838071694,-0.004782451571574116
-0.005453658838071694,-0.006263561670529605
-0.005453318838071694,-0.006428129459302391
-0.005452978838071694,-0.005210327822385992
-0.005452638838071694,-0.00494701936034732
-0.005452298838071694,-0.004683710898310864
-0.005451958838071694,-0.003926699069957428
-0.005451618838071694,-0.003400082145883136
-0.005451278838071694,-0.004025439743219721
-0.005450938838071694,-0.00451914310953718
-0.005450598838071694,-0.00415709397423795
-0.005450258838071694,-0.004288748205256179
-0.005449918838071694,-0.006526870132561991
-0.005449578838071694,-0.007415536191939104
-0.005449238838071694,-0.007481363307448217
-0.005448898838071694,-0.008764992059873611
-0.005448558838071694,-0.009225781868439744
-0.005448218838071694,-0.009884053023530886
-0.005447878838071694,-0.01057523773637659
-0.005447538838071694,-0.009127041195176074
-0.005447198838071694,-0.008271288693557588
-0.005446858838071694,-0.008205461578048474
-0.005446518838071694,-0.006921832825620747
-0.005446178838071694,-0.004716624456065421
-0.005445838838071694,-0.00438748887851985
-0.005445498838071694,-0.003959612627714019
-0.005445158838071694,-0.005835685419720362
-0.005444818838071694,-0.006592697248075176
-0.005444478838071694,-0.00284055166405387
-0.005444138838071694,-0.001853144931418952
-0.005443798838071694,-0.002050626277946295
-0.005443458838071694,-0.005276154937896843
-0.005443118838071694,-0.007448449749693661
-0.005442778838071694,-0.007316795518675433
-0.005442438838071694,-0.007481363307448816
-0.005442098838071694,-0.007810498884993789
-0.005441758838071694,-0.008040893789275689
-0.005441418838071694,-0.008040893789273054
-0.005441078838071694,-0.006592697248075176
-0.005440738838071694,-0.005704031188702134
-0.005440398838071694,-0.006658524363582793
-0.005440058838071694,-0.005835685419720362
-0.005439718838071694,-0.00540780916891112
-0.005439378838071694,-0.006559783690321996
-0.005439038838071694,-0.007316795518675433
-0.005438698838071694,-0.00665852436358429
-0.005438358838071694,-0.0070205734988837
-0.005438018838071694,-0.006625610805829733
-0.005437678838071694,-0.006493956574811504
-0.005437338838071694,-0.007580103980712787
-0.005436998838071694,-0.008073807347030245
-0.005436658838071694,-0.008007980231521132
-0.005436318838071694,-0.008699164944365572
-0.005435978838071694,-0.009357436099457973
-0.005435638838071694,-0.00869916494436683
-0.005435298838071694,-0.008337115809067361
-0.005434958838071694,-0.008073807347030245
-0.005434618838071694,-0.008567510713348603
-0.005434278838071694,-0.01004862081230098
-0.005433938838071694,-0.005835685419720362
-0.005433598838071694,-0.00392669906995605
-0.005433258838071694,-0.002313934739985686
-0.005432918838071694,-0.004420402436274407
-0.005432578838071694,-0.006362302343793276
-0.005432238838071694,-0.005506549842176348
-0.005431898838071694,-0.003795044838937822
-0.005431558838071694,-0.005473636284420234
-0.005431218838071694,-0.004979932918102776
-0.005430878838071694,-0.004815365129329092
-0.005430538838071694,-0.004683710898310864
-0.005430198838071694,-0.003926699069957428
-0.005429858838071694,-0.005111587149120106
-0.005429518838071694,-0.005341982053402005
-0.005429178838071694,-0.004782451571575553
-0.005428838838071694,-0.005078673591365549
-0.005428498838071694,-0.004519143109538078
-0.005428158838071694,0.002326876903397348
-0.005427818838071694,-0.000832824641027682
-0.005427478838071694,-0.002741810990791994
-0.005427138838071694,-0.001458182238364267
-0.005426798838071694,-0.002511416086510094
-0.005426458838071694,-0.003400082145883136
-0.005426118838071694,-0.003202600799355794
-0.005425778838071694,-0.003729217723428708
-0.005425438838071694,-0.005045760033610991
-0.005425098838071694,-0.004979932918101878
-0.005424758838071694,-0.005736944746456691
-0.005424418838071694,-0.008435856482330374
-0.005424078838071694,-0.0113322495647314
-0.005423738838071694,-0.008402942924572703
-0.005423398838071694,-0.006691437921338847
-0.005423058838071694,-0.005605290515438462
-0.005422718838071694,-0.004947019360353906
-0.005422378838071694,-0.008567510713348603
-0.005422038838071694,-0.008007980231521132
-0.005421698838071694,-0.005835685419722278
-0.005421358838071694,-0.00688891926786619
-0.005421018838071694,-0.006757265036847961
-0.005420678838071694,-0.004947019360346781
-0.005420338838071694,-0.004650797340556306
-0.005419998838071694,-0.006823092152357076
-0.005419658838071694,-0.006987659941128664
-0.005419318838071694,-0.006329388786038719
-0.005418978838071694,-0.005440722726665677
-0.005418638838071694,-0.004190007531994304
-0.005418298838071694,-0.00517741426462922
-0.005417958838071694,-0.005144500706874663
-0.005417618838071694,-0.004157093974237231
-0.005417278838071694,-0.003762131281183265
