Analysis/New Tests/wrd01_d2s01/cmb03_take2/cmb03_ch16.csv

#Digilent WaveForms Oscilloscope Acquisition
#Device Name: ADP3450
#Serial Number: SN:210018B9D9B0
#Date Time: 2024-08-08 13:03:04.119.625.020
#Sample rate: 2.94118e+06Hz
#Samples: 32768
#Trigger: Source: Channel 3 Type: Edge Condition: Rising Level: 60 mV Hyst.: Auto HoldOff: 0 s
#Channel 3: Range: 200 mV/div Offset: 0 V Attenuation: 1 X Coupling: DC Bandwidth: 0 Hz Sample Mode: Average

Time (s),Channel 3 (V)
-0.005570434673008324,0.009765340955939707
-0.005570094673008323,0.01022613076449967
-0.005569754673008323,0.00811966306821185
-0.005569414673008324,0.004762480177247026
-0.005569074673008323,0.002886407385248526
-0.005568734673008323,0.009074156243094007
-0.005568394673008323,0.007099342777820581
-0.005568054673008323,0.009074156243096881
-0.005567714673008323,0.01065400701531275
-0.005567374673008323,0.008086749510457293
-0.005567034673008323,0.006144849602937767
-0.005566694673008323,0.005782800467638296
-0.005566354673008323,0.003413024309310185
-0.005566014673008323,0.002919320942990511
-0.005565674673008323,0.002195222672391572
-0.005565334673008323,0.0008786803622092876
-0.005564994673008323,0.00176734642158233
-0.005564654673008323,0.00176734642158233
-0.005564314673008323,0.0005166312269091594
-0.005563974673008323,0.00183317353709306
-0.005563634673008323,0.002721839596464486
-0.005563294673008323,0.001504037959545873
-0.005562954673008324,0.001273643055264392
-0.005562614673008323,0.002096481999127901
-0.005562274673008323,0.0006811990156819448
-0.005561934673008324,2.292786059200018e-05
-0.005561594673008323,0.0002533227648727025
-0.005561254673008323,8.875497609991696e-05
-0.005560914673008324,-0.002281021182223884
-0.005560574673008323,-0.001392355122855153
-0.005560234673008323,-9.985697163754359e-06
-0.005559894673008324,0.000319149880381218
-0.005559554673008323,0.0001545820916090312
-0.005559214673008323,-0.002774724548546551
-0.005558874673008324,-0.006526870132559237
-0.005558534673008323,-0.004321661763010735
-0.005558194673008323,0.003840900560119427
-0.005557854673008324,-9.985697156749546e-06
-0.005557514673008323,0.001701519306073215
-0.005557174673008323,0.0001874956493635883
-0.005556834673008324,-0.002873465221804654
-0.005556494673008323,-0.002215194066719081
-0.005556154673008323,-0.003597563492410479
-0.005555814673008324,-0.00537489561115333
-0.005555474673008323,-0.004058353300974278
-0.005555134673008323,-0.003498822819146808
-0.005554794673008324,-0.006559783690315051
-0.005554454673008323,-0.006790178594602518
-0.005554114673008323,-0.005111587149120106
-0.005553774673008324,-0.006164820997265934
-0.005553434673008323,-0.007218054845411761
-0.005553094673008323,-0.007942153116012016
-0.005552754673008324,-0.007152227729902647
-0.005552414673008323,-0.005506549842174791
-0.005552074673008323,-0.004222921089747064
-0.005551734673008324,-0.005539463399929348
-0.005551394673008323,-0.006164820997261742
-0.005551054673008323,-0.003860871954446936
-0.005550714673008324,-0.003630477050165036
-0.005550374673008323,-0.003992526185463907
-0.005550034673008323,-0.003301341472619465
-0.005549694673008324,-0.002544329644264652
-0.005549354673008323,-0.002511416086509496
-0.005549014673008323,-0.002182280508964523
-0.005548674673008324,-0.001721490700400724
-0.005548334673008323,-0.00711931417213869
-0.005547994673008323,-0.001951885604682624
-0.005547654673008324,0.0007799396889456162
-0.005547314673008323,-0.001491095796117567
-0.005546974673008323,-0.0007999110832731249
-0.005546634673008323,-0.006066080324002262
-0.005546294673008323,-0.006526870132563069
-0.005545954673008323,-0.004881192244838206
-0.005545614673008323,-0.003564649934655922
-0.005545274673008323,-0.00613190743950952
-0.005544934673008323,-0.005111587149120106
-0.005544594673008323,-0.003400082145883136
-0.005544254673008323,-0.00484827868708311
-0.005543914673008323,-0.004552056667292635
-0.005543574673008323,-0.002643070317528323
-0.005543234673008323,-0.004025439743219662
-0.005542894673008323,-0.003992526185465165
-0.005542554673008323,-0.002939292337319337
-0.005542214673008324,-0.003103860126091823
-0.005541874673008323,-0.002708897433037437
-0.005541534673008323,-0.002017712720191738
-0.005541194673008324,-0.001655663584892268
-0.005540854673008323,-0.003597563492410479
-0.005540514673008323,-0.002577243202019209
-0.005540174673008324,-0.002511416086510214
-0.005539834673008323,-0.004552056667292635
-0.005539494673008323,-0.004749538013819977
-0.005539154673008324,-0.003959612627712044
-0.005538814673008323,-0.005045760033610991
-0.005538474673008323,-0.006362302343793276
-0.005538134673008324,-0.008534597155590094
-0.005537794673008323,-0.01222091562410444
-0.005537454673008323,-0.006362302343793276
-0.005537114673008324,-0.005868598977475817
-0.005536774673008323,-0.006625610805829733
-0.005536434673008323,-0.007580103980711889
-0.005536094673008324,-0.01129933600697008
-0.005535754673008323,-0.009159954752930631
-0.005535414673008323,-0.008073807347030245
-0.005535074673008324,-0.007876326000503262
-0.005534734673008323,-0.007020573498884419
-0.005534394673008323,-0.006691437921338847
-0.005534054673008324,-0.003992526185470074
-0.005533714673008323,-0.005802771861965805
-0.005533374673008323,-0.006066080324002262
-0.005533034673008324,-0.005769858304211248
-0.005532694673008323,-0.005572376957683906
-0.005532354673008323,-0.007053487056638975
-0.005532014673008324,-0.006856005710111633
-0.005531674673008323,-0.006230648112775047
-0.005531334673008323,-0.007020573498884419
-0.005530994673008324,-0.006066080324002262
-0.005530654673008323,-0.00665852436358429
-0.005530314673008323,-0.006823092152357076
-0.005529974673008324,-0.004683710898310864
-0.005529634673008323,-0.003432995703640388
-0.005529294673008323,-0.004914105802592763
-0.005528954673008324,-0.004222921089747064
-0.005528614673008323,-0.003827958396692977
-0.005528274673008323,-0.00415709397423795
-0.005527934673008324,-0.006164820997265934
-0.005527594673008323,-0.007382622634192628
-0.005527254673008323,-0.01182595293104976
-0.005526914673008324,-0.005704031188702134
-0.005526574673008323,-0.007152227729898396
-0.005526234673008323,-0.004815365129329092
-0.005525894673008323,-0.006856005710111633
-0.005525554673008323,-0.01057523773637443
-0.005525214673008323,-0.00939034965721253
-0.005524874673008323,-0.008534597155594046
-0.005524534673008323,-0.008534597155593926
-0.005524194673008323,-0.008468770040084931
-0.005523854673008323,-0.009785312350267215
-0.005523514673008323,-0.009061214079662887
-0.005523174673008323,-0.006823092152357076
-0.005522834673008323,-0.02525468449490905
-0.005522494673008323,-0.03937460077165572
-0.005522154673008323,-0.0622824369687858
-0.005521814673008323,-0.09137802202381429
-0.005521474673008323,-0.1215926680425526
-0.005521134673008323,-0.1517744005034266
-0.005520794673008323,-0.1830422803702558
-0.005520454673008324,-0.2072666588775658
-0.005520114673008323,-0.2270477070880987
-0.005519774673008323,-0.2423525114439677
-0.005519434673008324,-0.2524240601168439
-0.005519094673008323,-0.2564066006051636
-0.005518754673008323,-0.2579206242618732
-0.005518414673008324,-0.2572294395490288
-0.005518074673008323,-0.2532798126184807
-0.005517734673008323,-0.2454134723151415
-0.005517394673008324,-0.240213130189931
-0.005517054673008323,-0.236164762586111
-0.005516714673008323,-0.2267185715105531
-0.005516374673008324,-0.2171736397617489
-0.005516034673008323,-0.2087477689765649
-0.005515694673008323,-0.1989395287657069
-0.005515354673008324,-0.1973925915512455
-0.005515014673008323,-0.1931138290431503
-0.005514674673008323,-0.1841284277761562
-0.005514334673008324,-0.1770520128589393
-0.005513994673008323,-0.1697122894796602
-0.005513654673008323,-0.1633270592752761
-0.005513314673008324,-0.1597065679222814
-0.005512974673008323,-0.1525972394472905
-0.005512634673008323,-0.1457512194343426
-0.005512294673008324,-0.1407812722134045
-0.005511954673008323,-0.1373911757646851
-0.005511614673008323,-0.1328820183523108
-0.005511274673008324,-0.1274841948805635
-0.005510934673008323,-0.1208027426563884
-0.005510594673008323,-0.1149441293760772
-0.005510254673008324,-0.1128705752375401
-0.005509914673008323,-0.1078348009010928
-0.005509574673008323,-0.1020091011785362
-0.005509234673008324,-0.0991127080961352
-0.005508894673008323,-0.09947475723143102
-0.005508554673008323,-0.09710498107310722
-0.005508214673008324,-0.0928262185650148
-0.005507874673008323,-0.09101597288850823
-0.005507534673008323,-0.08775753067081299
-0.005507194673008324,-0.08598019855206693
-0.005506854673008323,-0.0832154597006828
-0.005506514673008323,-0.08249136143008387
-0.005506174673008324,-0.07380218218288079
-0.005505834673008323,-0.07159697381331942
-0.005505494673008323,-0.06827270448011519
-0.005505154673008324,-0.06527757072445051
-0.005504814673008323,-0.06856892649990082
-0.005504474673008323,-0.06560670630199608
-0.005504134673008323,-0.06050510485003972
-0.005503794673008323,-0.05915564898209743
-0.005503454673008323,-0.05616051522643818
-0.005503114673008323,-0.05270459166220968
-0.005502774673008323,-0.05171718492956962
-0.005502434673008323,-0.04987402569531777
-0.005502094673008323,-0.04579274453375269
-0.005501754673008323,-0.04493699203213289
-0.005501414673008323,-0.04421289376153395
-0.005501074673008323,-0.04200768539197863
-0.005500734673008323,-0.04042783461975851
-0.005500394673008323,-0.03967082279140507
-0.005500054673008323,-0.03832136692346823
-0.005499714673008324,-0.03795931778816876
-0.005499374673008323,-0.03881507028978658
-0.005499034673008323,-0.03684025682451315
-0.005498694673008324,-0.03684025682451315
-0.005498354673008323,-0.03789349067265899
-0.005498014673008323,-0.03512875182127619
-0.005497674673008324,-0.03325267902926984
-0.005497334673008323,-0.03266023498968441
-0.005496994673008323,-0.03124495200623845
-0.005496654673008324,-0.03035628594686702
-0.005496314673008323,-0.03315393835600276
-0.005495974673008323,-0.03213361806561149
-0.005495634673008324,-0.02515594382165807
-0.005495294673008323,-0.02647248613182767
-0.005494954673008323,-0.02551799295694551
-0.005494614673008324,-0.02663705392059842
-0.005494274673008323,-0.02927013854096502
-0.005493934673008323,-0.02690036238263691
-0.005493594673008324,-0.02505720314838506
-0.005493254673008323,-0.02548507939919096
-0.005492914673008323,-0.02400396930023588
-0.005492574673008324,-0.02117340333334912
-0.005492234673008323,-0.02051513217825283
-0.005491894673008323,-0.01827701025094295
-0.005491554673008324,-0.01475525957121174
-0.005491214673008323,-0.01488691380222357
-0.005490874673008323,-0.01679590015198788
-0.005490534673008324,-0.01541353072629648
-0.005490194673008323,-0.01666424592096965
-0.005489854673008323,-0.01896819496378865
-0.005489514673008324,-0.01946189833010701
-0.005489174673008323,-0.01873780005950675
-0.005488834673008323,-0.0192315034258251
-0.005488494673008324,-0.01758582553809725
-0.005488154673008323,-0.01561101207282394
-0.005487814673008323,-0.01567683918833294
-0.005487474673008324,-0.01264879187491368
-0.005487134673008323,-0.01083854619841065
-0.005486794673008323,-0.009522003888230759
-0.005486454673008324,-0.008896646290894173
-0.005486114673008323,-0.007613017538474588
-0.005485774673008323,-0.01208926139308621
-0.005485434673008324,-0.009587831003739873
-0.005485094673008323,-0.001820231373678405
-0.005484754673008323,-0.009522003888230759
-0.005484414673008324,-0.01146390379574963
-0.005484074673008323,-0.008139634462541154
-0.005483734673008323,-0.009127041195176074
-0.005483394673008323,-0.01159555802676786
-0.005483054673008323,-0.01031192927433917
-0.005482714673008323,-0.009785312350267215
-0.005482374673008323,-0.009225781868439744
-0.005482034673008323,-0.01054232417862035
-0.005481694673008323,-0.00962074456149443
-0.005481354673008323,-0.01146390379574963
-0.005481014673008323,-0.01050941062086891
-0.005480674673008323,-0.01129933600697684
-0.005480334673008323,-0.01406407485835964
-0.005479994673008323,-0.01409698841611276
-0.005479654673008323,-0.01330706303000483
-0.005479314673008323,-0.01320832235674115
-0.005478974673008324,-0.01087145975617185
-0.005478634673008323,-0.0008986517565367963
-0.005478294673008323,-0.008073807347030245
-0.005477954673008324,-0.005835685419724432
-0.005477614673008323,-0.004124180416483393
-0.005477274673008323,-0.00438748887851985
-0.005476934673008324,-0.00438748887851985
-0.005476594673008323,-0.00392669906995605
-0.005476254673008323,-0.004124180416483393
-0.005475914673008324,-0.00534198205339979
-0.005475574673008323,-0.005967339650738591
-0.005475234673008323,-0.008106720904784802
-0.005474894673008324,-0.005539463399934018
-0.005474554673008323,-0.004584970225047193
-0.005474214673008323,-0.003959612627710607
-0.005473874673008324,-0.005374895611153989
-0.005473534673008323,-0.008830819175385059
-0.005473194673008323,-0.006625610805829733
-0.005472854673008324,-0.005506549842176827
-0.005472514673008323,-0.004716624456065421
-0.005472174673008323,-0.005243241380138334
-0.005471834673008324,-0.008073807347025097
-0.005471494673008323,-0.005341982053402005
-0.005471154673008323,-0.005309068495647449
-0.005470814673008324,-0.008468770040079183
-0.005470474673008323,-0.01093728687167671
-0.005470134673008323,-0.01166138514227697
-0.005469794673008324,-0.01162847158452241
-0.005469454673008323,-0.01050941062086747
-0.005469114673008323,-0.009982793696794558
-0.005468774673008324,-0.01208926139308621
-0.005468434673008323,-0.009489090330476201
-0.005468094673008323,-0.006823092152357076
-0.005467754673008324,-0.005901512535229476
-0.005467414673008323,-0.006526870132566062
-0.005467074673008323,-0.004881192244838206
-0.005466734673008324,-0.003762131281183265
-0.005466394673008323,-0.002675983875280665
-0.005466054673008323,-0.001458182238364267
-0.005465714673008324,-0.00369630416567415
-0.005465374673008323,-0.004650797340561096
-0.005465034673008323,-0.007283881960920875
-0.005464694673008324,-0.004255834647501621
-0.005464354673008323,-0.004815365129328075
-0.005464014673008323,-0.004255834647501621
-0.005463674673008324,-0.002346848297737309
-0.005463334673008323,-0.006658524363585427
-0.005462994673008323,-0.007283881960920875
-0.005462654673008323,-0.005210327822383777
-0.005462314673008323,-0.005769858304211368
-0.005461974673008323,-0.005835685419720362
-0.005461634673008323,-0.006164820997265934
-0.005461294673008323,-0.009489090330474823
-0.005460954673008323,-0.008732078502121389
-0.005460614673008323,-0.007810498884993789
-0.005460274673008323,-0.008139634462540018
-0.005459934673008323,-0.008501683597839487
-0.005459594673008323,-0.007020573498884419
-0.005459254673008323,-0.006987659941127765
-0.005458914673008323,-0.005835685419720362
-0.005458574673008323,-0.004782451571574535
-0.005458234673008323,-0.005210327822383658
-0.005457894673008323,-0.005144500706874663
-0.005457554673008323,-0.003992526185465165
-0.005457214673008324,-0.004222921089746645
-0.005456874673008323,-0.005736944746456691
-0.005456534673008323,-0.004881192244838206
-0.005456194673008324,-0.004255834647502758
-0.005455854673008323,-0.006000253208493148
-0.005455514673008323,-0.005572376957683906
-0.005455174673008324,-0.005901512535228878
-0.005454834673008323,-0.008896646290894173
-0.005454494673008323,-0.01083854619841304
-0.005454154673008324,-0.003564649934669152
-0.005453814673008323,-0.002774724548546551
-0.005453474673008323,-0.002083539835700852
-0.005453134673008324,-0.001918972046928366
-0.005452794673008323,-0.007152227729902647
-0.005452454673008323,-0.004453315994028964
-0.005452114673008324,-0.002281021182232146
-0.005451774673008323,-0.005144500706874663
-0.005451434673008323,-0.005934426092984033
-0.005451094673008324,-0.004979932918103614
-0.005450754673008323,-0.006954746383375304
-0.005450414673008323,-0.008205461578048474
-0.005450074673008324,-0.007613017538467524
-0.005449734673008323,-0.008007980231521132
-0.005449394673008323,-0.009587831003739873
-0.005449054673008324,-0.008863732733140933
-0.005448714673008323,-0.009522003888230759
-0.005448374673008323,-0.009752398792512659
-0.005448034673008324,-0.008106720904784802
-0.005447694673008323,-0.009291608983948858
-0.005447354673008323,-0.01004862081230367
-0.005447014673008324,-0.008205461578048474
-0.005446674673008323,-0.00767884465397556
-0.005446334673008323,-0.008468770040084931
-0.005445994673008324,-0.008468770040084931
-0.005445654673008323,-0.007613017538467824
-0.005445314673008323,-0.00837002936682126
-0.005444974673008324,-0.008666251386612273
-0.005444634673008323,-0.007448449749695038
-0.005444294673008323,-0.008205461578048474
-0.005443954673008324,-0.01034484283209469
-0.005443614673008323,-0.003136773683849374
-0.005443274673008323,-0.004617883782801749
-0.005442934673008324,-0.005341982053402005
-0.005442594673008323,-0.006526870132577557
-0.005442254673008323,-0.01284627322144103
-0.005441914673008324,-0.01241839697063178
-0.005441574673008323,-0.008106720904787196
-0.005441234673008323,-0.009423263214967087
-0.005440894673008323,-0.01031192927434013
-0.005440554673008323,-0.008040893789274731
-0.005440214673008323,-0.007514276865202775
-0.005439874673008323,-0.008205461578048474
-0.005439534673008323,-0.006823092152356059
-0.005439194673008323,-0.006263561670529605
-0.005438854673008323,-0.007810498884993789
-0.005438514673008323,-0.006724351479091668
-0.005438174673008323,-0.005769858304211248
-0.005437834673008323,-0.006362302343793276
-0.005437494673008323,-0.007481363307443787
-0.005437154673008323,-0.005045760033610991
-0.005436814673008323,-0.004815365129329092
-0.005436474673008324,-0.00316968724160423
-0.005436134673008323,-0.001688577142646167
-0.005435794673008323,-0.002972205895073894
-0.005435454673008324,-0.003235514357109872
-0.005435114673008323,-0.002412675413246423
-0.005434774673008323,-0.003202600799355794
-0.005434434673008324,-0.00372921772342775
-0.005434094673008323,0.001997741325864229
-0.005433754673008323,-0.01014736148556734
-0.005433414673008324,-0.007020573498890107
-0.005433074673008323,-0.00415709397423795
-0.005432734673008323,-0.006230648112775047
-0.005432394673008324,-0.005934426092984572
-0.005432054673008323,-0.008172548020293918
-0.005431714673008323,-0.008040893789275689
-0.005431374673008324,-0.005736944746460882
-0.005431034673008323,-0.004453315994028964
-0.005430694673008323,-0.005473636284420234
-0.005430354673008324,-0.005341982053402245
-0.005430014673008323,-0.004519143109538078
-0.005429674673008323,-0.005111587149120106
-0.005429334673008324,-0.00649395657480899
-0.005428994673008323,-0.005835685419720362
-0.005428654673008323,-0.00586859897747492
-0.005428314673008324,-0.007711758211726765
-0.005427974673008323,-0.00688891926786619
-0.005427634673008323,-0.006131907439511376
-0.005427294673008324,-0.008337115809066702
-0.005426954673008323,-0.005967339650738591
-0.005426614673008323,-0.003169687241601236
-0.005426274673008324,-0.003103860126092122
-0.005425934673008323,-0.005341982053402005
-0.005425594673008323,-0.004091266858728836
-0.005425254673008324,-0.002774724548546551
-0.005424914673008323,-0.002313934739982752
-0.005424574673008323,-0.002149366951209966
-0.005424234673008324,-0.00517741426462922
-0.005423894673008323,-0.004979932918101997
-0.005423554673008323,-0.005045760033610991
-0.005423214673008324,-0.01126642244922228
-0.005422874673008323,-0.009390349657205586
-0.005422534673008323,-0.005572376957683906
-0.005422194673008324,-0.004091266858728836
-0.005421854673008323,-0.007942153116012256
-0.005421514673008323,-0.008073807347030245
-0.005421174673008324,-0.006296475228284162
-0.005420834673008323,-0.006362302343794534
-0.005420494673008323,-0.007053487056638975
-0.005420154673008323,-0.005210327822383777
-0.005419814673008323,-0.01004862081229529
-0.005419474673008323,-0.005440722726665677
-0.005419134673008323,-0.001754404258155281
-0.005418794673008323,-0.007711758211728321
-0.005418454673008323,-0.006724351479093405
-0.005418114673008323,-0.003663390607919593
-0.005417774673008323,-0.00573694474645693
