Analysis/New Tests/wrd01_d2s01/cmb03_take2/cmb03_ch34.csv

#Digilent WaveForms Oscilloscope Acquisition
#Device Name: ADP3450
#Serial Number: SN:210018B9D9B0
#Date Time: 2024-08-08 13:10:39.427.810.160
#Sample rate: 2.94118e+06Hz
#Samples: 32768
#Trigger: Source: Channel 3 Type: Edge Condition: Rising Level: 60 mV Hyst.: Auto HoldOff: 0 s
#Channel 3: Range: 200 mV/div Offset: 0 V Attenuation: 1 X Coupling: DC Bandwidth: 0 Hz Sample Mode: Average

Time (s),Channel 3 (V)
-0.005570440604651164,0.0003520634381363738
-0.005570100604651163,0.001931914210358468
-0.005569760604651163,0.003775073444610313
-0.005569420604651164,0.001240729497509416
-0.005569080604651163,0.0006811990156844593
-0.005568740604651163,0.002063568441373343
-0.005568400604651164,0.002623098923200814
-0.005568060604651163,0.001372383728529081
-0.005567720604651163,0.002162309114637015
-0.005567380604651164,0.004630825946228797
-0.005567040604651163,0.002623098923199437
-0.005566700604651163,0.001866087094846001
-0.005566360604651164,0.0009115939199638446
-0.005566020604651163,-0.001524009353877991
-0.005565680604651163,-0.004058353300974278
-0.005565340604651164,-0.005440722726665677
-0.005565000604651163,-0.006164820997269465
-0.005564660604651163,-0.008106720904784802
-0.005564320604651164,-0.006790178594602518
-0.005563980604651163,-0.007415536191939702
-0.005563640604651163,-0.007744671769484675
-0.005563300604651164,-0.00767884465397556
-0.005562960604651164,-0.007020573498885616
-0.005562620604651163,-0.007218054845411761
-0.005562280604651164,-0.006395215901547833
-0.005561940604651164,-0.007580103980709733
-0.005561600604651163,-0.009028300521912402
-0.005561260604651164,-0.009785312350267215
-0.005560920604651164,-0.006362302343799503
-0.005560580604651163,-0.00837002936682126
-0.005560240604651163,-0.006790178594602518
-0.005559900604651164,-0.005967339650740088
-0.005559560604651163,-0.01241839697063178
-0.005559220604651163,-0.01373493928081407
-0.005558880604651164,-0.01143099023799926
-0.005558540604651163,-0.0129450138947047
-0.005558200604651163,-0.01301084101021381
-0.005557860604651164,-0.01001570725455456
-0.005557520604651163,-0.01067397840964026
-0.005557180604651163,-0.01120059533371317
-0.005556840604651164,-0.009028300521916353
-0.005556500604651163,-0.009291608983948858
-0.005556160604651163,-0.01031192927434013
-0.005555820604651164,-0.01106894110269356
-0.005555480604651163,-0.0108714597561676
-0.005555140604651163,-0.01054232417862203
-0.005554800604651164,-0.01050941062086753
-0.005554460604651163,-0.01001570725454911
-0.005554120604651163,-0.01014736148556734
-0.005553780604651164,-0.007942153116012016
-0.005553440604651163,-0.008435856482330374
-0.005553100604651163,-0.007810498884993789
-0.005552760604651164,-0.008863732733139616
-0.005552420604651163,-0.007514276865202775
-0.005552080604651163,-0.01077271908290393
-0.005551740604651164,-0.01116768177595861
-0.005551400604651163,-0.01347163081878581
-0.005551060604651163,-0.01798078823115194
-0.005550720604651164,-0.01936315765684333
-0.005550380604651163,-0.01426155620488728
-0.005550040604651163,-0.01442612399365977
-0.005549700604651164,-0.01610471543914218
-0.005549360604651163,-0.01518313582202164
-0.005549020604651163,-0.01906693563705232
-0.005548680604651164,-0.01544644428405104
-0.005548340604651163,-0.01192469360431469
-0.005548000604651163,-0.01261587831715913
-0.005547660604651164,-0.01241839697063178
-0.005547320604651163,-0.01100311398718697
-0.005546980604651163,-0.01162847158452241
-0.005546640604651164,-0.01370202572305951
-0.005546300604651163,-0.009390349657209656
-0.005545960604651163,-0.007810498884993789
-0.005545620604651164,-0.01310958168347748
-0.005545280604651163,-0.01271461899042076
-0.005544940604651163,-0.01159555802676786
-0.005544600604651164,-0.01228674273961356
-0.005544260604651163,-0.0113980766802386
-0.005543920604651163,-0.01034484283209469
-0.005543580604651164,-0.01149681735350419
-0.005543240604651163,-0.01080563264065884
-0.005542900604651163,-0.01100311398718583
-0.005542560604651164,-0.01278044610593191
-0.005542220604651164,-0.0140969884161118
-0.005541880604651163,-0.01422864264713243
-0.005541540604651164,-0.01646676457444231
-0.005541200604651164,-0.01633511034342432
-0.005540860604651163,-0.01679590015198788
-0.005540520604651164,-0.02239120497026259
-0.005540180604651164,-0.01854031871298641
-0.005539840604651163,-0.01366911216530495
-0.005539500604651163,-0.01314249524123204
-0.005539160604651164,-0.01442612399365743
-0.005538820604651163,-0.01284627322144103
-0.005538480604651163,-0.01245131052838634
-0.005538140604651164,-0.01120059533371544
-0.005537800604651163,-0.01324123591449571
-0.005537460604651163,-0.01554518495731471
-0.005537120604651164,-0.01620345611240465
-0.005536780604651163,-0.01505148159099635
-0.005536440604651163,-0.01577557986159661
-0.005536100604651164,-0.01765165265360295
-0.005535760604651163,-0.01452486466692344
-0.005535420604651163,-0.01268170543266824
-0.005535080604651164,-0.0131424952412312
-0.005534740604651163,-0.01399824774285052
-0.005534400604651163,-0.01261587831715913
-0.005534060604651164,-0.01152973091126072
-0.005533720604651163,-0.01047649706311291
-0.005533380604651163,-0.01120059533371317
-0.005533040604651164,-0.01281335966368647
-0.005532700604651163,-0.01123350889146773
-0.005532360604651163,-0.009818225908021772
-0.005532020604651164,-0.01129933600697684
-0.005531680604651163,-0.01370202572305951
-0.005531340604651163,-0.01274753254817735
-0.005531000604651164,-0.01278044610593191
-0.005530660604651163,-0.01419572908937787
-0.005530320604651163,-0.01607180188138762
-0.005529980604651164,-0.02117340333334397
-0.005529640604651163,-0.01320832235673852
-0.005529300604651163,-0.01176012581554064
-0.005528960604651164,-0.01093728687167671
-0.005528620604651163,-0.01508439514875408
-0.005528280604651163,-0.01682881370974244
-0.005527940604651164,-0.01531479005303281
-0.005527600604651163,-0.01580849341935272
-0.005527260604651163,-0.01666424592096965
-0.005526920604651164,-0.01712503572953345
-0.005526580604651163,-0.01626928322791335
-0.005526240604651163,-0.01538061716854192
-0.005525900604651164,-0.01445903755141432
-0.005525560604651163,-0.01570975274608642
-0.005525220604651163,-0.01511730870650547
-0.005524880604651164,-0.01320832235674115
-0.005524540604651163,-0.01488691380222351
-0.005524200604651163,-0.01485400024446901
-0.005523860604651164,-0.01521604937976914
-0.005523520604651163,-0.01877071361727561
-0.005523180604651163,-0.02663705392060045
-0.005522840604651164,-0.03881507028978658
-0.005522500604651163,-0.05800367446073852
-0.005522160604651163,-0.08282049700762945
-0.005521820604651164,-0.1103691448481937
-0.005521480604651163,-0.1436776652958661
-0.005521140604651163,-0.1769861857434173
-0.005520800604651164,-0.2048310556037726
-0.005520460604651164,-0.2300428408437175
-0.005520120604651163,-0.2500213704007795
-0.005519780604651164,-0.2683542220700679
-0.005519440604651164,-0.2742457489081229
-0.005519100604651163,-0.2750027607364884
-0.005518760604651163,-0.2749369336209793
-0.005518420604651164,-0.2720405405385835
-0.005518080604651163,-0.2728304659246876
-0.005517740604651163,-0.2689466661096499
-0.005517400604651164,-0.2569003039715039
-0.005517060604651163,-0.2492314450146702
-0.005516720604651163,-0.2420892029819313
-0.005516380604651164,-0.23300506104169
-0.005516040604651163,-0.2235917835238702
-0.005515700604651163,-0.2156596161050219
-0.005515360604651164,-0.2070691775310982
-0.005515020604651163,-0.2000915032871164
-0.005514680604651163,-0.1947924204886327
-0.005514340604651164,-0.1873868699938708
-0.005514000604651163,-0.1818903058488463
-0.005513660604651163,-0.1773482348787175
-0.005513320604651164,-0.1720820656379979
-0.005512980604651163,-0.1677703895721413
-0.005512640604651163,-0.1632941457175216
-0.005512300604651164,-0.1573038782061922
-0.005511960604651163,-0.1520706225232176
-0.005511620604651163,-0.1482197362659344
-0.005511280604651164,-0.1424598636588869
-0.005510940604651163,-0.1375557435534579
-0.005510600604651163,-0.131828784504165
-0.005510260604651164,-0.128405774497691
-0.005509920604651163,-0.1233370866034892
-0.005509580604651163,-0.1199799037125244
-0.005509240604651164,-0.1196836816927334
-0.005508900604651163,-0.1098425279241115
-0.005508560604651163,-0.1047409264721645
-0.005508220604651164,-0.1007254724261085
-0.005507880604651163,-0.09486685914579986
-0.005507540604651163,-0.09624922857148874
-0.005507200604651164,-0.09434024222172444
-0.005506860604651163,-0.08877785096119954
-0.005506520604651163,-0.08617767989859426
-0.005506180604651164,-0.08604602566757602
-0.005505840604651163,-0.08265592921885168
-0.005505500604651163,-0.07992410392522842
-0.005505160604651164,-0.07910126498136449
-0.005504820604651163,-0.07676440238078962
-0.005504480604651163,-0.07604030411019067
-0.005504140604651164,-0.07376926862512623
-0.005503800604651163,-0.07103744333149464
-0.005503460604651163,-0.06919428409724279
-0.005503120604651164,-0.06807522313358785
-0.005502780604651163,-0.06735112486297801
-0.005502440604651163,-0.06208495562225846
-0.005502100604651164,-0.06231535052654036
-0.005501760604651163,-0.05859611850026816
-0.005501420604651163,-0.05461357801197399
-0.005501080604651164,-0.05204632050711854
-0.005500740604651163,-0.04964363079103282
-0.005500400604651163,-0.04796503934555346
-0.005500060604651164,-0.04694471905516219
-0.005499720604651164,-0.04536486828294632
-0.005499380604651163,-0.04365336327970648
-0.005499040604651164,-0.04102027865934191
-0.005498700604651164,-0.05010442059958315
-0.005498360604651163,-0.04006578548445976
-0.005498020604651164,-0.03884798384754114
-0.005497680604651164,-0.03776183644164274
-0.005497340604651163,-0.03644529413145847
-0.005497000604651163,-0.03940751432936861
-0.005496660604651164,-0.03687317038227232
-0.005496320604651163,-0.03374638239558479
-0.005495980604651163,-0.03410843153088492
-0.005495640604651164,-0.03499709759025634
-0.005495300604651163,-0.03272606210519352
-0.005494960604651163,-0.03127786556399301
-0.005494620604651164,-0.03272606210519088
-0.005494280604651163,-0.03137660623725668
-0.005493940604651163,-0.03068542152441098
-0.005493600604651164,-0.03094872998644696
-0.005493260604651163,-0.03170574181480225
-0.005492920604651163,-0.03015880460033806
-0.005492580604651164,-0.03121203844848198
-0.005492240604651163,-0.03104747065971111
-0.005491900604651163,-0.02894100296341945
-0.005491560604651164,-0.02693327594039512
-0.005491220604651163,-0.02436601843553601
-0.005490880604651163,-0.02666996747835501
-0.005490540604651164,-0.02732823863344615
-0.005490200604651163,-0.02657122680509134
-0.005489860604651163,-0.02423436420451779
-0.005489520604651164,-0.02732823863344615
-0.005489180604651163,-0.02900683007892857
-0.005488840604651163,-0.02611043699652754
-0.005488500604651164,-0.02601169632326387
-0.005488160604651163,-0.02762446065322507
-0.005487820604651163,-0.02097592198681663
-0.005487480604651164,-0.01949481188786156
-0.005487140604651163,-0.01791496111564181
-0.005486800604651163,-0.01735543063381535
-0.005486460604651164,-0.02189750160394423
-0.005486120604651163,-0.02397105574247666
-0.005485780604651163,-0.02140379823762588
-0.005485440604651164,-0.02225955073924436
-0.005485100604651163,-0.02268742699005378
-0.005484760604651163,-0.02278616766331727
-0.005484420604651164,-0.02077844064028929
-0.005484080604651163,-0.02091009487130267
-0.005483740604651163,-0.01824409669318839
-0.005483400604651164,-0.01699338149851522
-0.005483060604651163,-0.01784913400013323
-0.005482720604651163,-0.01758582553809725
-0.005482380604651164,-0.01636802390117864
-0.005482040604651163,-0.01570975274608977
-0.005481700604651163,-0.01696046794076066
-0.005481360604651164,-0.01663133236321509
-0.005481020604651163,-0.01712503572953399
-0.005480680604651163,-0.01742125774932446
-0.005480340604651164,-0.01699338149851522
-0.005480000604651163,-0.01873780005950771
-0.005479660604651163,-0.01926441698357966
-0.005479320604651164,-0.01761873909585181
-0.005478980604651164,-0.01732251707606133
-0.005478640604651163,-0.01840866448196118
-0.005478300604651164,-0.01732251707606079
-0.005477960604651164,-0.02041639150498353
-0.005477620604651163,-0.01936315765684333
-0.005477280604651164,-0.01580849341935116
-0.005476940604651164,-0.01673007303647709
-0.005476600604651163,-0.01745417130707902
-0.005476260604651163,-0.01972520679214346
-0.005475920604651164,-0.01906693563705352
-0.005475580604651163,-0.01643385101668775
-0.005475240604651163,-0.0138665935118323
-0.005474900604651164,-0.01429446976264076
-0.005474560604651163,-0.01567683918833294
-0.005474220604651163,-0.01719086284504256
-0.005473880604651164,-0.01649967813219812
-0.005473540604651163,-0.01584140697710572
-0.005473200604651163,-0.01541353072629648
-0.005472860604651164,-0.01304375456797268
-0.005472520604651163,-0.01373493928081407
-0.005472180604651163,-0.01320832235674115
-0.005471840604651164,-0.01294501389470518
-0.005471500604651163,-0.01531479005303281
-0.005471160604651163,-0.01870488650175219
-0.005470820604651164,-0.01956063900336912
-0.005470480604651163,-0.0206138728515165
-0.005470140604651163,-0.01982394746540713
-0.005469800604651164,-0.01867197294399764
-0.005469460604651163,-0.01890236784827953
-0.005469120604651163,-0.01847449159747029
-0.005468780604651164,-0.01679590015198788
-0.005468440604651163,-0.01709212217177889
-0.005468100604651163,-0.01850740515522485
-0.005467760604651164,-0.01844157803971573
-0.005467420604651163,-0.02160127958415322
-0.005467080604651163,-0.01554518495731471
-0.005466740604651164,-0.01258296475940457
-0.005466400604651163,-0.01212217495083987
-0.005466060604651163,-0.01162847158452241
-0.005465720604651164,-0.01610471543914218
-0.005465380604651163,-0.01603888832362941
-0.005465040604651163,-0.01403116130060508
-0.005464700604651164,-0.01541353072629648
-0.005464360604651163,-0.0159072340926131
-0.005464020604651163,-0.01495274091773268
-0.005463680604651164,-0.01567683918833294
-0.005463340604651163,-0.01452486466692212
-0.005463000604651163,-0.01380076639632318
-0.005462660604651164,-0.01478817312895989
-0.005462320604651163,-0.01399824774285328
-0.005461980604651163,-0.01551227139956015
-0.005461640604651164,-0.01584140697710572
-0.005461300604651163,-0.01426155620488698
-0.005460960604651163,-0.01426155620488698
-0.005460620604651164,-0.01505148159099635
-0.005460280604651163,-0.01452486466692003
-0.005459940604651163,-0.01264879187491368
-0.005459600604651164,-0.01416281553162331
-0.005459260604651163,-0.01370202572305909
-0.005458920604651163,-0.01347163081877761
-0.005458580604651164,-0.01445903755141432
-0.005458240604651163,-0.01436029687814999
-0.005457900604651163,-0.01399824774285052
-0.005457560604651164,-0.01360328504979584
-0.005457220604651164,-0.01778330688461699
-0.005456880604651163,-0.01801370178890649
-0.005456540604651164,-0.01205634783533165
-0.005456200604651164,-0.01189178004655917
-0.005455860604651163,-0.01304375456796837
-0.005455520604651164,-0.01485400024446901
-0.005455180604651164,-0.0185403187129727
-0.005454840604651163,-0.01567683918833294
-0.005454500604651163,-0.0150185680332418
-0.005454160604651164,-0.01712503572952962
-0.005453820604651163,-0.01597306120812395
-0.005453480604651163,-0.01426155620488698
-0.005453140604651164,-0.01584140697710285
-0.005452800604651163,-0.01347163081877761
-0.005452460604651163,-0.01268170543266824
-0.005452120604651164,-0.004914105802606893
-0.005451780604651163,-0.014557778224678
-0.005451440604651163,-0.01383367995407774
-0.005451100604651164,-0.01534770361078461
-0.005450760604651163,-0.0159401476503694
-0.005450420604651163,-0.01580849341935116
-0.005450080604651164,-0.0177503933268665
-0.005449740604651163,-0.01778330688462459
-0.005449400604651163,-0.01768456621136092
-0.005449060604651164,-0.0179478746733969
-0.005448720604651163,-0.01758582553809725
-0.005448380604651163,-0.01567683918833294
-0.005448040604651164,-0.01584140697710572
-0.005447700604651163,-0.01485400024446901
-0.005447360604651163,-0.01287918677919558
-0.005447020604651164,-0.014557778224678
-0.005446680604651163,-0.0190011085215432
-0.005446340604651163,-0.01439321043590521
-0.005446000604651164,-0.008007980231521132
-0.005445660604651163,-0.01416281553162672
-0.005445320604651163,-0.01603888832363307
-0.005444980604651164,-0.01185886648880431
-0.005444640604651163,-0.0102131886010764
-0.005444300604651163,-0.0101802750433219
-0.005443960604651164,-0.01044358350535836
-0.005443620604651163,-0.01189178004655881
-0.005443280604651163,-0.01185886648880431
-0.005442940604651164,-0.0101802750433219
-0.005442600604651163,-0.01330706303000842
-0.005442260604651163,-0.01528187649527825
-0.005441920604651164,-0.01620345611240585
-0.005441580604651163,-0.01528187649527885
-0.005441240604651163,-0.01561101207282382
-0.005440900604651164,-0.01653259168995142
-0.005440560604651163,-0.01666424592096809
-0.005440220604651163,-0.01580849341935116
-0.005439880604651164,-0.01245131052838634
-0.005439540604651163,-0.01452486466692494
-0.005439200604651163,-0.01534770361078737
-0.005438860604651164,-0.01310958168347748
-0.005438520604651163,-0.01251713764389737
-0.005438180604651163,-0.01357037149204128
-0.005437840604651164,-0.01370202572305951
-0.005437500604651163,-0.01373493928081622
-0.005437160604651163,-0.01491982735997812
-0.005436820604651164,-0.01399824774285052
-0.005436480604651164,-0.01570975274608438
-0.005436140604651163,-0.01962646611887979
-0.005435800604651164,-0.01445903755141432
-0.005435460604651164,-0.01518313582201326
-0.005435120604651163,-0.01330706303000483
-0.005434780604651164,-0.01495274091773268
-0.005434440604651164,-0.01643385101668506
-0.005434100604651163,-0.01508439514875091
-0.005433760604651163,-0.01199052071982254
-0.005433420604651164,-0.01248422408614
-0.005433080604651163,-0.01373493928081407
-0.005432740604651163,-0.01357037149204128
-0.005432400604651164,-0.0121221749508434
-0.005432060604651163,-0.0129450138947047
-0.005431720604651163,-0.01396533418509597
-0.005431380604651164,-0.01347163081877851
-0.005431040604651163,-0.01320832235674115
-0.005430700604651163,-0.01468943245569622
-0.005430360604651164,-0.01436029687815125
-0.005430020604651163,-0.01475525957120534
-0.005429680604651163,-0.01416281553162331
-0.005429340604651164,-0.0130437545679704
-0.005429000604651163,-0.01491982735997812
-0.005428660604651163,-0.01659841880546054
-0.005428320604651164,-0.01663133236321503
-0.005427980604651163,-0.01574266630384205
-0.005427640604651163,-0.01725668996055168
-0.005427300604651164,-0.01814535601992472
-0.005426960604651163,-0.01735543063381535
-0.005426620604651163,-0.0185403187129794
-0.005426280604651164,-0.01709212217177889
-0.005425940604651163,-0.02225955073924436
-0.005425600604651163,-0.02054804573600739
-0.005425260604651164,-0.01485400024446901
-0.005424920604651163,-0.01208926139308621
-0.005424580604651163,-0.01162847158452241
-0.005424240604651164,-0.01722377640279712
-0.005423900604651163,-0.01705920861401961
-0.005423560604651163,-0.01445903755141432
-0.005423220604651164,-0.01459069178243255
-0.005422880604651163,-0.01715794928728693
-0.005422540604651163,-0.01656550524770598
-0.005422200604651164,-0.01633511034342408
-0.005421860604651163,-0.01485400024446715
-0.005421520604651163,-0.01383367995407774
-0.005421180604651164,-0.01643385101668775
-0.005420840604651163,-0.01380076639632055
-0.005420500604651163,-0.01235256985512267
-0.005420160604651164,-0.01251713764389546
-0.005419820604651163,-0.01169429870003093
-0.005419480604651163,-0.01136516312248596
-0.005419140604651164,-0.01215508850859533
-0.005418800604651163,-0.01047649706311339
-0.005418460604651163,-0.01073980552514937
-0.005418120604651164,-0.01231965629736811
-0.005417780604651163,-0.01123350889146647
-0.005417440604651163,-0.01054232417862203
-0.005417100604651164,-0.01139807668024051
-0.005416760604651163,-0.01156264446901091
-0.005416420604651163,-0.01024610215883101
-0.005416080604651164,-0.01044358350535836
-0.005415740604651163,-0.01176012581554405
