Analysis/New Tests_CMB/wrd01_d2s01/board_06_ch_07_NaN.csv

#Digilent WaveForms Oscilloscope Acquisition
#Device Name: ADP3450
#Serial Number: SN:210018B9D9B0
#Date Time: 2024-06-18 13:32:06.626.535.220
#Sample rate: 2.5e+07Hz
#Samples: 32768
#Trigger: Source: Channel 3 Type: Edge Condition: Rising Level: 60 mV Hyst.: Auto HoldOff: 0 s
#Channel 3: Range: 100 mV/div Offset: 0 V Attenuation: 1 X Coupling: DC Bandwidth: 0 Hz Sample Mode: Average

Time (s),Channel 3 (V)
-0.00065536,0.001635692190564101
-0.00065532,0.0009115939199638446
-0.0006552799999999999,0.0008128532467033463
-0.00065524,0.0025572718076917
-0.0006552,0.002030654883618786
-0.00065516,0.002162309114637015
-0.00065512,0.001800259979336887
-0.0006550800000000001,0.0009445074777199583
-0.00065504,0.001701519306073395
-0.000655,0.001800259979336887
-0.00065496,0.001701519306073215
-0.00065492,0.002162309114637015
-0.00065488,0.002261049787900506
-0.00065484,0.001602778632809364
-0.0006548,0.001504037959545873
-0.00065476,0.002425617576673472
-0.00065472,0.001899000652600558
-0.00065468,0.001602778632810083
-0.00065464,0.002096481999127661
-0.0006546,0.001964827768109672
-0.00065456,0.002096481999127901
-0.00065452,0.00130655661301853
-0.00065448,0.001833173537091444
-0.0006544399999999999,0.001734432863827832
-0.0006544,0.00176734642158233
-0.00065436,0.001997741325864229
-0.00065432,0.001734432863827772
-0.00065428,0.001569865075054987
-0.0006542400000000001,0.001701519306072976
-0.0006542,0.001701519306073215
-0.00065416,0.001405297286282201
-0.00065412,0.001866087094846001
-0.00065408,0.001471124401791315
-0.00065404,0.001866087094845282
-0.000654,0.001800259979336108
-0.00065396,0.001372383728527644
-0.00065392,0.001734432863827772
-0.00065388,0.001668605748318658
-0.00065384,0.00176734642158215
-0.0006538,0.001931914210353678
-0.00065376,0.001141988824245744
-0.00065372,0.002293963345655243
-0.00065368,0.001931914210355115
-0.00065364,0.002392704018918076
-0.0006535999999999999,0.001899000652600797
-0.00065356,0.002030654883618786
-0.00065352,0.002228136230146129
-0.00065348,0.002293963345655243
-0.00065344,0.002524358249937143
-0.0006534000000000001,0.002096481999128679
-0.00065336,0.002359790461164357
-0.00065332,0.001701519306073215
-0.00065328,0.002392704018918914
-0.00065324,0.002820580269728157
-0.0006532,0.002228136230147207
-0.00065316,0.002063568441374481
-0.00065312,0.002688926038709928
-0.00065308,0.002063568441373343
-0.00065304,0.002195222672391572
-0.000653,0.002623098923200036
-0.00065296,0.002688926038708312
-0.00065292,0.001800259979336887
-0.00065288,0.001701519306073215
-0.00065284,0.001833173537091444
-0.0006528,0.00140529728628298
-0.00065276,0.002129395556881919
-0.00065272,0.001833173537091444
-0.00065268,0.001833173537091444
-0.00065264,0.001668605748318658
-0.0006526,0.001569865075054987
-0.0006525600000000001,0.001207815939755517
-0.00065252,0.0008786803622092876
-0.00065248,0.00176734642158233
-0.00065244,0.001964827768109672
-0.0006524,0.001504037959545873
-0.00065236,0.001240729497509895
-0.00065232,0.001471124401791735
-0.00065228,0.001701519306073215
-0.00065224,0.001635692190564101
-0.0006522,0.001866087094846001
-0.00065216,0.00127364305526505
-0.00065212,0.001240729497509775
-0.00065208,0.001438210844036758
-0.00065204,0.001569865075054987
-0.000652,0.001997741325864229
-0.00065196,0.00222813623014571
-0.00065192,0.001734432863828491
-0.00065188,0.002129395556882458
-0.00065184,0.001405297286282201
-0.0006518,0.00176734642158233
-0.00065176,0.001964827768109672
-0.0006517199999999999,0.001866087094845522
-0.00065168,0.001602778632809544
-0.00065164,0.002524358249937143
-0.0006516,0.001931914210355115
-0.00065156,0.002096481999127901
-0.0006515200000000001,0.002096481999127901
-0.00065148,0.002491444692182167
-0.00065144,0.002261049787900686
-0.0006514,0.001635692190564101
-0.00065136,0.00130655661301853
-0.00065132,0.001668605748318
-0.00065128,0.001668605748318898
-0.00065124,0.001800259979336887
-0.0006512,0.001800259979336887
-0.00065116,0.001405297286282201
-0.00065112,0.001240729497509715
-0.00065108,0.001207815939755817
-0.00065104,0.001734432863827772
-0.000651,0.001273643055263973
-0.00065096,0.001339470170773087
-0.00065092,0.001141988824245744
-0.0006508799999999999,0.001141988824246702
-0.00065084,0.001668605748318658
-0.0006508,0.001701519306073215
-0.00065076,0.001997741325864229
-0.00065072,0.002261049787900686
-0.0006506800000000001,0.00137238372852926
-0.00065064,0.002195222672391572
-0.0006506,0.002228136230146129
-0.00065056,0.002524358249937143
-0.00065052,0.001438210844036758
-0.00065048,0.001833173537090725
-0.00065044,0.002293963345655183
-0.0006504,0.002261049787900686
-0.00065036,0.002030654883618786
-0.00065032,0.002228136230146129
-0.00065028,0.00209648199912814
-0.00065024,0.001997741325864289
-0.0006502,0.002030654883618786
-0.00065016,0.002458531134428029
-0.00065012,0.0001216685338544741
-0.00065008,0.0008128532466989161
-0.0006500399999999999,0.002195222672394505
-0.00065,0.00380798700236487
-0.00064996,0.0006482854579273878
-0.00064992,-0.000207467043691097
-0.00064988,0.002425617576673472
-0.0006498400000000001,0.00232687690340998
-0.0006498,0.001964827768109672
-0.00064976,0.001339470170773087
-0.00064972,0.0023268769034098
-0.00064968,0.001569865075054987
-0.00064964,0.002063568441372445
-0.0006496,0.001931914210355115
-0.00064956,0.001931914210355115
-0.00064952,0.002063568441373343
-0.00064948,0.002491444692182586
-0.00064944,0.00196482776811063
-0.0006494,0.001668605748320394
-0.00064936,0.002623098923200814
-0.00064932,0.002623098923200814
-0.00064928,0.002590185365446257
-0.00064924,0.002392704018919274
-0.0006492,0.00219522267239211
-0.00064916,0.002491444692182586
-0.00064912,0.002228136230146129
-0.00064908,0.002359790461164357
-0.00064904,0.001800259979336887
-0.0006489999999999999,0.001668605748319317
-0.00064896,0.002030654883618786
-0.00064892,0.001800259979336887
-0.00064888,0.001734432863827772
-0.00064884,0.002162309114637015
-0.0006488,0.001833173537092042
-0.00064876,0.002458531134426352
-0.00064872,0.00153695151730043
-0.00064868,0.001504037959545873
-0.00064864,0.002030654883618786
-0.0006486,0.001767346421582809
-0.00064856,0.002392704018919633
-0.00064852,0.0027876667119736
-0.00064848,0.002162309114637015
-0.00064844,0.0027876667119736
-0.0006484,0.002228136230147147
-0.00064836,0.001701519306073155
-0.00064832,0.001668605748318658
-0.00064828,0.003149715847273728
-0.00064824,0.002096481999127901
-0.0006482,0.001964827768109672
-0.0006481599999999999,0.002030654883617769
-0.00064812,0.001471124401791315
-0.00064808,0.002063568441373343
-0.00064804,0.002688926038709928
-0.000648,0.001668605748318658
-0.0006479600000000001,0.001569865075055166
-0.00064792,0.002326876903408902
-0.00064788,0.001833173537091444
-0.00064784,0.001899000652600558
-0.0006478,0.001734432863827772
-0.00064776,0.001438210844037297
-0.00064772,0.00235979046116304
-0.00064768,0.001635692190564101
-0.00064764,0.001866087094846001
-0.0006476,0.001931914210355115
-0.00064756,0.001767346421582629
-0.00064752,0.001701519306073096
-0.00064748,0.001635692190564101
-0.00064744,0.001833173537091444
-0.0006474,0.001701519306073215
-0.00064736,0.002458531134428029
-0.0006473199999999999,0.002030654883617888
-0.00064728,0.00153695151730043
-0.00064724,0.001800259979336887
-0.0006472,0.002359790461164357
-0.00064716,0.002162309114637015
-0.0006471200000000001,0.002129395556882518
-0.00064708,0.001734432863827772
-0.00064704,0.002129395556882458
-0.000647,0.00153695151730043
-0.00064696,0.002491444692182586
-0.00064692,0.002063568441374122
-0.00064688,0.001372383728528602
-0.00064684,0.001899000652600558
-0.0006468,0.00153695151730043
-0.00064676,0.001504037959545873
-0.00064672,0.001635692190563862
-0.00064668,0.001339470170773386
-0.00064664,0.001504037959545873
-0.0006466,0.002458531134428029
-0.00064656,0.001471124401791315
-0.00064652,0.002228136230144752
-0.0006464799999999999,0.00209648199912814
-0.00064644,0.002228136230146129
-0.0006464,0.001899000652600558
-0.00064636,0.001602778632809544
-0.00064632,0.002261049787900686
-0.0006462800000000001,0.002030654883619205
-0.00064624,0.001964827768109672
-0.0006462,0.002063568441373343
-0.00064616,0.00176734642158233
-0.00064612,0.002524358249937143
-0.00064608,0.002129395556883176
-0.00064604,0.001240729497510374
-0.000646,0.00176734642158233
-0.00064596,0.001931914210355115
-0.00064592,0.001866087094846001
-0.00064588,0.001931914210354995
-0.00064584,0.002162309114636835
-0.0006458,0.002063568441373343
-0.00064576,0.001866087094846001
-0.00064572,0.001701519306073215
-0.00064568,0.002195222672390674
-0.00064564,0.001899000652599899
-0.0006456,0.00153695151730043
-0.00064556,0.001504037959545873
-0.00064552,0.001866087094846001
-0.00064548,0.002030654883618786
-0.0006454399999999999,0.001866087094845702
-0.0006454,0.001701519306073215
-0.00064536,0.001964827768109672
-0.00064532,0.001833173537091444
-0.00064528,0.001734432863827772
-0.00064524,0.001734432863827772
-0.0006452,0.001997741325863691
-0.00064516,0.001701519306073215
-0.00064512,0.001899000652600558
-0.00064508,0.001339470170773087
-0.00064504,0.001701519306072557
-0.000645,0.001438210844037118
-0.00064496,0.001635692190564101
-0.00064492,0.001899000652600558
-0.00064488,0.001701519306073215
-0.00064484,0.001701519306073215
-0.0006448,0.001866087094845043
-0.00064476,0.001339470170773087
-0.00064472,0.002228136230146129
-0.00064468,0.00153695151730043
-0.00064464,0.001899000652600558
-0.0006445999999999999,0.002359790461163339
-0.00064456,0.001800259979336887
-0.00064452,0.001931914210355115
-0.00064448,0.002228136230146129
-0.00064444,0.0023268769034098
-0.0006444000000000001,0.0023268769034098
-0.00064436,0.003149715847271632
-0.00064432,0.001997741325864229
-0.00064428,0.0023268769034098
-0.00064424,0.002030654883618786
-0.0006442,0.002326876903409262
-0.00064416,0.001504037959546651
-0.00064412,0.001931914210355115
-0.00064408,0.001964827768109672
-0.00064404,0.001931914210355115
-0.000644,0.002096481999127601
-0.00064396,0.002129395556881739
-0.00064392,0.001734432863827772
-0.00064388,0.001438210844036758
-0.00064384,0.001405297286282201
-0.0006438,0.00130655661301853
-0.0006437599999999999,0.001602778632809544
-0.00064372,0.001602778632809544
-0.00064368,0.001504037959545873
-0.00064364,0.001931914210355115
-0.0006436,0.00176734642158233
-0.0006435600000000001,0.001438210844037357
-0.00064352,0.002195222672391572
-0.00064348,0.001899000652600558
-0.00064344,0.002096481999127901
-0.0006434,0.002359790461164357
-0.00064336,0.002162309114637374
-0.00064332,0.001899000652599899
-0.00064328,0.00153695151730043
-0.00064324,0.001734432863827772
-0.0006432,0.002129395556882458
-0.00064316,0.002030654883618966
-0.00064312,0.002919320942989134
-0.00064308,0.001438210844036758
-0.00064304,0.00176734642158233
-0.000643,0.001964827768109672
-0.00064296,0.002096481999127661
-0.0006429199999999999,0.001602778632810562
-0.00064288,0.002162309114637015
-0.00064284,0.002293963345655243
-0.0006428,0.002261049787900686
-0.00064276,0.001997741325864229
-0.0006427200000000001,0.002491444692181688
-0.00064268,0.0023268769034098
-0.00064264,0.002162309114637015
-0.0006426,0.0023268769034098
-0.00064256,0.001701519306073215
-0.00064252,0.001569865075055226
-0.00064248,0.002293963345654705
-0.00064244,0.001997741325864229
-0.0006424,0.001701519306073215
-0.00064236,0.001866087094846001
-0.00064232,0.001964827768109492
-0.00064228,0.001767346421582868
-0.00064224,0.002063568441373343
-0.0006422,0.001964827768109672
-0.00064216,0.001635692190564101
-0.00064212,0.00140529728628262
-0.00064208,0.002162309114636895
-0.00064204,0.002096481999127901
-0.000642,0.001899000652600558
-0.00064196,0.001964827768109672
-0.00064192,0.002063568441373343
-0.0006418799999999999,0.002524358249936365
-0.00064184,0.002096481999127901
-0.0006418,0.001668605748318658
-0.00064176,0.001964827768109672
-0.00064172,0.001899000652600558
-0.00064168,0.001833173537091563
-0.00064164,0.001471124401791675
-0.0006416,0.001668605748318658
-0.00064156,0.001833173537091444
-0.00064152,0.002590185365446257
-0.00064148,0.002326876903410279
-0.00064144,0.001899000652601516
-0.0006414,0.002425617576673472
-0.00064136,0.001734432863827772
-0.00064132,0.002162309114637015
-0.00064128,0.002195222672391512
-0.00064124,0.002261049787900387
-0.0006412,0.002096481999127901
-0.00064116,0.00153695151730043
-0.00064112,0.001635692190564101
-0.00064108,0.001964827768109672
-0.0006410399999999999,0.001931914210356013
-0.000641,0.002425617576673472
-0.00064096,0.001833173537091444
-0.00064092,0.002129395556882458
-0.00064088,0.00153695151730043
-0.0006408400000000001,0.002063568441372385
-0.0006408,0.001997741325866444
-0.00064076,0.003215542962782842
-0.00064072,0.0005824583424182735
-0.00064068,0.00380798700236487
-0.00064064,-0.0006682568522467548
-0.0006406,0.002886407385234517
-0.00064056,0.001372383728527644
-0.00064052,0.001668605748318658
-0.00064048,0.002096481999127901
-0.00064044,0.002425617576672873
-0.0006404,0.002656012480954413
-0.00064036,0.002129395556882458
-0.00064032,0.002392704018918914
-0.00064028,0.002129395556882458
-0.00064024,0.002721839596463408
-0.0006401999999999999,0.002392704018918256
-0.00064016,0.002030654883618786
-0.00064012,0.002195222672391572
-0.00064008,0.002359790461164357
-0.00064004,0.002688926038709928
-0.0006400000000000001,0.001964827768110989
-0.00063996,0.002261049787900686
-0.00063992,0.001964827768109672
-0.00063988,0.002096481999127901
-0.00063984,0.002293963345655243
-0.0006398,0.001668605748319796
-0.00063976,0.001734432863827353
-0.00063972,0.001504037959545873
-0.00063968,0.001207815939754859
-0.00063964,0.001471124401791315
-0.0006396,0.001997741325863271
-0.00063956,0.001504037959546711
-0.00063952,0.001964827768109672
-0.00063948,0.001372383728527644
-0.00063944,0.001438210844036758
-0.0006394,0.001207815939755278
-0.00063936,0.001734432863826934
-0.00063932,0.001273643055263973
-0.00063928,0.002030654883618786
-0.00063924,0.001405297286282201
-0.0006392,0.0009445074777184018
-0.0006391600000000001,0.001866087094844324
-0.00063912,0.001602778632809544
-0.00063908,0.00176734642158233
-0.00063904,0.002524358249937143
-0.000639,0.002425617576673472
-0.00063896,0.001899000652601516
-0.00063892,0.001767346421582749
-0.00063888,0.001997741325864229
-0.00063884,0.0006153719001728307
-0.0006388,0.001899000652600558
-0.00063876,0.001668605748319077
-0.00063872,0.001207815939755457
-0.00063868,0.00153695151730043
-0.00063864,0.001800259979336887
-0.0006386,0.001240729497509416
-0.00063856,0.001602778632808885
-0.00063852,0.001240729497510553
-0.00063848,0.001866087094846001
-0.00063844,0.002030654883618786
-0.0006384,0.001504037959545873
-0.00063836,0.001339470170773087
-0.0006383199999999999,0.001438210844038016
-0.00063828,0.002129395556882458
-0.00063824,0.001866087094846001
-0.0006382,0.0025572718076917
-0.00063816,0.002392704018918914
-0.0006381200000000001,0.002491444692182406
-0.00063808,0.001899000652600318
-0.00063804,0.00176734642158233
-0.000638,0.001931914210355115
-0.00063796,0.001734432863827772
-0.00063792,0.002129395556881739
-0.00063788,0.001273643055265529
-0.00063784,0.002129395556882458
-0.0006378,0.002359790461164357
-0.00063776,0.001833173537091444
-0.00063772,0.001438210844037477
-0.00063768,0.001339470170774883
-0.00063764,0.0023268769034098
-0.0006376,0.001471124401791315
-0.00063756,0.001602778632809544
-0.00063752,0.002030654883618786
-0.0006374799999999999,0.00176734642158209
-0.00063744,0.001635692190564101
-0.0006374,0.001635692190564101
-0.00063736,0.002096481999127901
-0.00063732,0.001734432863827772
-0.0006372800000000001,0.001866087094845761
-0.00063724,0.001306556613018829
-0.0006372,0.001471124401791315
-0.00063716,0.001734432863827772
-0.00063712,0.001701519306073215
-0.00063708,0.001833173537091204
-0.00063704,0.001997741325863451
-0.000637,0.001569865075054987
-0.00063696,0.001734432863827772
-0.00063692,0.001602778632809544
-0.00063688,0.001964827768109014
-0.00063684,0.001833173537090785
-0.0006368,0.001471124401791315
-0.00063676,0.001471124401791315
-0.00063672,0.001504037959545873
-0.00063668,0.001668605748318359
-0.0006366399999999999,0.001866087094845821
-0.0006366,0.00176734642158233
-0.00063656,0.00176734642158233
-0.00063652,0.001668605748318658
-0.00063648,0.0009445074777184018
-0.0006364400000000001,0.002063568441371308
-0.0006364,0.00153695151730043
-0.00063636,0.00176734642158233
-0.00063632,0.001602778632809544
-0.00063628,0.002030654883618786
-0.00063624,0.001471124401792333
-0.0006362,0.001306556613019608
-0.00063616,0.001899000652600558
-0.00063612,0.00176734642158233
-0.00063608,0.00153695151730043
-0.00063604,0.001339470170773446
-0.000636,0.002063568441372565
-0.00063596,0.001635692190564101
-0.00063592,0.002030654883618786
-0.00063588,0.00176734642158233
-0.00063584,0.00199774132586381
-0.0006358,0.002096481999126823
-0.00063576,0.001504037959545873
-0.00063572,0.001734432863827772
-0.00063568,0.002162309114637015
-0.00063564,0.002096481999127901
-0.0006356000000000001,0.001668605748319436
-0.00063556,0.001833173537091444
-0.00063552,0.001635692190564101
-0.00063548,0.001964827768109672
-0.00063544,0.001734432863827772
-0.0006354,0.00176734642158227
-0.00063536,0.002162309114636895
-0.00063532,0.002096481999127901
-0.00063528,0.002261049787900686
-0.00063524,0.002195222672391572
-0.0006352,0.00150403795954713
-0.00063516,0.001504037959546112
-0.00063512,0.001635692190564101
-0.00063508,0.001405297286282201
-0.00063504,0.00153695151730043
-0.000635,0.00117490238200096
-0.00063496,0.001306556613019668
-0.00063492,0.001931914210355115
-0.00063488,0.001833173537091444
-0.00063484,0.001964827768109672
-0.0006348,0.00153695151730043
-0.0006347599999999999,0.001668605748317461
-0.00063472,0.001010334593227516
-0.00063468,0.001207815939754859
-0.00063464,0.001043248150982073
-0.0006346,0.001931914210355115
-0.0006345600000000001,0.001899000652600618
-0.00063452,0.001734432863827952
-0.00063448,0.001833173537091444
-0.00063444,0.001240729497509416
-0.0006344,0.001668605748318658
-0.00063436,0.001471124401791675
-0.00063432,0.001076161708737528
-0.00063428,0.001569865075054987
-0.00063424,0.002129395556882458
-0.0006342,0.001635692190564101
-0.00063416,0.001964827768109073
-0.00063412,0.001833173537091384
-0.00063408,0.001800259979336887
-0.00063404,0.002195222672391572
-0.000634,0.002030654883618786
-0.00063396,0.001800259979336887
-0.0006339199999999999,0.001569865075055346
-0.00063388,0.00176734642158233
-0.00063384,0.001964827768109672
-0.0006338,0.002293963345655243
-0.00063376,0.001569865075054987
-0.0006337200000000001,0.001833173537090965
-0.00063368,0.00153695151730043
-0.00063364,0.001471124401791315
-0.0006336,0.002030654883618786
-0.00063356,0.001438210844036758
-0.00063352,0.001997741325863211
-0.00063348,0.002261049787899189
-0.00063344,0.001438210844036758
-0.0006334,0.00153695151730043
-0.00063336,0.002162309114637015
-0.00063332,0.001602778632810562
-0.00063328,0.002063568441372385
-0.00063324,0.00153695151730043
-0.0006332,0.00153695151730043
-0.00063316,0.001339470170773087
-0.00063312,0.001471124401791076
-0.0006330799999999999,0.002063568441372984
-0.00063304,0.001866087094846001
-0.000633,0.001833173537091444
-0.00063296,0.001701519306073215
-0.00063292,0.001899000652600558
-0.0006328800000000001,0.001701519306073575
-0.00063284,0.00130655661301853
-0.0006328,0.001471124401791315
-0.00063276,0.002129395556882458
-0.00063272,0.001997741325864229
-0.00063268,0.001833173537091743
-0.00063264,0.00222813623014577
-0.0006326,0.002030654883618786
-0.00063256,0.001964827768109672
-0.00063252,0.002063568441373343
-0.00063248,0.001306556613019907
-0.00063244,0.001964827768109013
-0.0006324,0.001602778632809544
-0.00063236,0.001405297286282201
-0.00063232,0.001964827768109672
-0.00063228,0.001569865075055705
-0.00063224,0.001438210844036279
-0.0006322,0.001174902382000301
-0.00063216,0.001207815939754859
-0.00063212,0.001405297286282201
-0.00063208,0.00107616170873663
