Analysis/New Tests_CMB/wrd01_d2s01/cmb01_ch03.csv

#Digilent WaveForms Oscilloscope Acquisition
#Device Name: ADP3450
#Serial Number: SN:210018B9D9B0
#Date Time: 2024-08-14 14:46:44.896.704.290
#Sample rate: 5.88235e+06Hz
#Samples: 32768
#Trigger: Source: Channel 3 Type: Edge Condition: Rising Level: 30 mV Hyst.: Auto HoldOff: 0 s
#Channel 3: Range: 100 mV/div Offset: 0 V Attenuation: 1 X Coupling: DC Bandwidth: 0 Hz Sample Mode: Average

Time (s),Channel 3 (V)
-0.00379849425933489,0.1584029677755196
-0.00379832425933489,0.1765712516560669
-0.00379815425933489,0.1940154372659504
-0.00379798425933489,0.2108342652785291
-0.00379781425933489,0.2243946510734326
-0.00379764425933489,0.2386791351388844
-0.00379747425933489,0.2502647074684885
-0.00379730425933489,0.2597767256595713
-0.00379713425933489,0.268432991349004
-0.00379696425933489,0.2743574317448243
-0.00379679425933489,0.2795577738700495
-0.00379662425933489,0.2823883398369362
-0.00379645425933489,0.2847910295530189
-0.00379628425933489,0.2847910295530189
-0.00379611425933489,0.2847910295530189
-0.00379594425933489,0.2840340177246641
-0.00379577425933489,0.282125031374896
-0.00379560425933489,0.2800843907941172
-0.00379543425933489,0.2771221705962071
-0.00379526425933489,0.2739624690517636
-0.00379509425933489,0.2706711132763139
-0.00379492425933489,0.2672481032698399
-0.00379475425933489,0.2635288712435818
-0.00379458425933489,0.2599083798905737
-0.00379441425933489,0.2558929258445177
-0.00379424425933489,0.2514825091054151
-0.00379407425933489,0.2472695737128238
-0.00379390425933489,0.2429578976469768
-0.00379373425933489,0.2389753571586826
-0.00379356425933489,0.2348282488816012
-0.00379339425933489,0.2307798812777907
-0.00379322425933489,0.2266656865584785
-0.00379305425933489,0.2224856647236423
-0.00379288425933489,0.2185031242353409
-0.00379271425933489,0.2145864108625557
-0.00379254425933489,0.21076843816302
-0.00379237425933489,0.2073783417143006
-0.00379220425933489,0.2034945418992699
-0.00379203425933489,0.2006639759323709
-0.00379186425933489,0.1973067930414061
-0.00379169425933489,0.1941800050547288
-0.00379152425933489,0.190921562837022
-0.00379135425933489,0.1876960341770754
-0.00379118425933489,0.1846679868636617
-0.00379101425933489,0.1812120632994277
-0.00379084425933489,0.1784144108902903
-0.00379067425933489,0.1746622653062776
-0.00379050425933489,0.1718316993393789
-0.00379033425933489,0.169001133372487
-0.00379016425933489,0.1648540250954128
-0.00378999425933489,0.1629121251878939
-0.00378982425933489,0.1605094354718113
-0.00378965425933489,0.157777610178183
-0.00378948425933489,0.1549799577690457
-0.00378931425933489,0.152577268052963
-0.00378914425933489,0.1504378867989168
-0.00378897425933489,0.1479693699673194
-0.00378880425933489,0.1448754955383966
-0.00378863425933489,0.1426373736110867
-0.00378846425933489,0.1405309059147887
-0.00378829425933489,0.137042068792812
-0.00378812425933489,0.1339152808061291
-0.00378795425933489,0.1314796775322872
-0.00378778425933489,0.1288795064696819
-0.00378761425933489,0.1259501998295263
-0.00378744425933489,0.1234158558824214
-0.00378727425933489,0.1212106475128701
-0.00378710425933489,0.1183800815459781
-0.00378693425933489,0.117129366351301
-0.00378676425933489,0.1149570715395042
-0.00378659425933489,0.1131468258630036
-0.00378642425933489,0.1119290242260824
-0.00378625425933489,0.110513741242639
-0.00378608425933489,0.1089009769126657
-0.00378591425933489,0.1075186074869717
-0.00378574425933489,0.1061033245035284
-0.00378557425933489,0.1044905601735551
-0.00378540425933489,0.1029765365168426
-0.00378523425933489,0.1013966857446267
-0.00378506425933489,0.09975100785689883
-0.00378489425933489,0.09787493506488699
-0.00378472425933489,0.09672296054347959
-0.00378455425933489,0.09524185044452452
-0.00378438425933489,0.09369491323006314
-0.00378421425933489,0.09231254380436893
-0.00378404425933489,0.09116056928295943
-0.00378387425933489,0.08990985408828853
-0.00378370425933489,0.0884945711048403
-0.00378353425933489,0.08688180677486701
-0.00378336425933489,0.08503864754061516
-0.00378319425933489,0.08299800695982926
-0.00378302425933489,0.08141815618761053
-0.00378285425933489,0.08000287320416716
-0.00378268425933489,0.07855467666296406
-0.00378251425933489,0.07700773944849987
-0.00378234425933489,0.07552662934954749
-0.00378217425933489,0.07421008703936252
-0.00378200425933489,0.07309102607570758
-0.00378183425933489,0.07223527357409065
-0.00378166425933489,0.07151117530348883
-0.00378149425933489,0.07075416347513402
-0.00378132425933489,0.06973384318474463
-0.00378115425933489,0.06924013981842439
-0.00378098425933489,0.0687793500098606
-0.00378081425933489,0.06624500606276432
-0.00378064425933489,0.06677162298683262
-0.00378047425933489,0.06627791962051427
-0.00378030425933489,0.06585004336970579
-0.00378013425933489,0.06542216711889579
-0.00377996425933489,0.06400688413544983
-0.00377979425933489,0.06338152653811324
-0.00377962425933489,0.06282199605628577
-0.00377945425933489,0.0620320706701764
-0.00377928425933489,0.06147254018834892
-0.00377911425933489,0.06104466393753968
-0.00377894425933489,0.06130797239957614
-0.00377877425933489,0.06081426903325778
-0.00377860425933489,0.06078135547550322
-0.00377843425933489,0.06068261480223955
-0.00377826425933489,0.06002434364714841
-0.00377809425933489,0.0608471825910097
-0.00377792425933489,0.05939898604981182
-0.00377775425933489,0.0588065420102298
-0.00377758425933489,0.05772039460432756
-0.00377741425933489,0.05670007431393814
-0.00377724425933489,0.0551202235417194
-0.00377707425933489,0.05354037276949809
-0.00377690425933489,0.05212508978605471
-0.00377673425933489,0.05084146103362697
-0.00377656425933489,0.04899830179936927
-0.00377639425933489,0.04761593237368038
-0.00377622425933489,0.04620064939023442
-0.00377605425933489,0.04504867486882289
-0.00377588425933489,0.04392961390516999
-0.00377571425933489,0.04320551563456973
-0.00377554425933489,0.04271181226824988
-0.00377537425933489,0.04188897332438744
-0.00377520425933489,0.04182314620887833
-0.00377503425933489,0.04198771399765136
-0.00377486425933489,0.04211936822866934
-0.00377469425933489,0.04159275130459643
-0.00377452425933489,0.04225102245968475
-0.00377435425933489,0.04070408524522338
-0.00377418425933489,0.04093448014950529
-0.00377401425933489,0.04090156659174971
-0.00377384425933489,0.04034203610992326
-0.00377367425933489,0.03958502428156845
-0.00377350425933489,0.03909132091525098
-0.00377333425933489,0.03856470399117717
-0.00377316425933489,0.03761021081629502
-0.00377299425933489,0.03705068033446857
-0.00377282425933489,0.03635949562162185
-0.00377265425933489,0.03606327360183084
-0.00377248425933489,0.03560248379326787
-0.00377231425933489,0.03540500244673969
-0.00377214425933489,0.03507586686919412
-0.00377197425933489,0.03451633638736767
-0.00377180425933489,0.03392389234778462
-0.00377163425933489,0.03448342282961209
-0.00377146425933489,0.03369349744350416
-0.00377129425933489,0.03431885504083931
-0.00377112425933489,0.03359475677023905
-0.00377095425933489,0.03375932455901154
-0.00377078425933489,0.03343018898146627
-0.00377061425933489,0.03319979407718437
-0.00377044425933489,0.03303522628841188
-0.00377027425933489,0.03287065849963879
-0.00377010425933489,0.03290357205739335
-0.00376993425933489,0.03227821446005791
-0.00376976425933489,0.03161994330496563
-0.00376959425933489,0.03178451109373841
-0.00376942425933489,0.03020466032151967
-0.00376925425933489,0.02977678407071043
-0.00376908425933489,0.02908559935786473
-0.00376891425933489,0.02842732820277359
-0.00376874425933489,0.02796653839420979
-0.00376857425933489,0.0275715757011551
-0.00376840425933489,0.02720952656585497
-0.00376823425933489,0.02740700791238232
-0.00376806425933489,0.02809819262522802
-0.00376789425933489,0.02753866214340054
-0.00376772425933489,0.02773614348992807
-0.00376755425933489,0.02783488416319156
-0.00376738425933489,0.02836150108726447
-0.00376721425933489,0.02839441464501951
-0.00376704425933489,0.02865772310705549
-0.00376687425933489,0.02888811801133739
-0.00376670425933489,0.02934890781990124
-0.00376653425933489,0.02938182137765574
-0.00376636425933489,0.0294147349354103
-0.00376619425933489,0.02980969762846456
-0.00376602425933489,0.02957930272418309
-0.00376585425933489,0.02944764849316486
-0.00376568425933489,0.02951347560867301
-0.00376551425933489,0.02898685868460106
-0.00376534425933489,0.02836150108726447
-0.00376517425933489,0.02793362483645475
-0.00376500425933489,0.02767031637441877
-0.00376483425933489,0.02720952656585497
-0.00376466425933489,0.02684747743055341
-0.00376449425933489,0.02605755204444548
-0.00376432425933489,0.02546510800486345
-0.00376415425933489,0.02510305886956212
-0.00376398425933489,0.02444478771447217
-0.00376381425933489,0.02424730636794483
-0.00376364425933489,0.02404982502141695
-0.00376347425933489,0.02375360300162648
-0.00376330425933489,0.02372068944387192
-0.00376313425933489,0.02421439281018938
-0.00376296425933489,0.02391817079039926
-0.00376279425933489,0.02447770127222673
-0.00376262425933489,0.02306241828878335
-0.00376245425933489,0.02395108434815382
-0.00376228425933489,0.02368777588611736
-0.00376211425933489,0.02302950473102742
-0.00376194425933489,0.02470809617650863
-0.00376177425933489,0.02342446742408091
-0.00376160425933489,0.02306241828878144
-0.00376143425933489,0.02263454203797154
-0.00376126425933489,0.02296367761551711
-0.00376109425933489,0.02230540646042716
-0.00376092425933489,0.02197627088288039
-0.00376075425933489,0.02210792511389862
-0.00376058425933489,0.02151548107431767
-0.00376041425933489,0.02112051838126191
-0.00376024425933489,0.02085720991922545
-0.00376007425933489,0.01983688962883604
-0.00375990425933489,0.02026476587964342
-0.00375973425933489,0.01940901337802494
-0.00375956425933489,0.01960649472455192
-0.00375939425933489,0.01960649472455228
-0.00375922425933489,0.01927735914700671
-0.00375905425933489,0.0194419269357792
-0.00375888425933489,0.01931027270476127
-0.00375871425933489,0.0194419269357795
-0.00375854425933489,0.01960649472455228
-0.00375837425933489,0.02003437097536152
-0.00375820425933489,0.02010019809087064
-0.00375803425933489,0.01986980318658874
-0.00375786425933489,0.02000145741760697
-0.00375769425933489,0.01954066760904317
-0.00375752425933489,0.01937609982027038
-0.00375735425933489,0.01868491510742415
-0.00375718425933489,0.01838869308763367
-0.00375701425933489,0.01743419991275151
-0.00375684425933489,0.0171379778929593
-0.00375667425933489,0.01647970673786936
-0.00375650425933489,0.01641387962236024
-0.00375633425933489,0.01565686779400561
-0.00375616425933489,0.0157556084672691
-0.00375599425933489,0.01555812712074176
-0.00375582425933489,0.01605183048706029
-0.00375565425933489,0.01615057116032378
-0.00375548425933489,0.01680884231541493
-0.00375531425933489,0.01796081683682568
-0.00375514425933489,0.01865200154967013
-0.00375497425933489,0.01950775405128861
-0.00375480425933489,0.02016602520638089
-0.00375463425933489,0.02079138280371634
-0.00375446425933489,0.02102177770799824
-0.00375429425933489,0.02082429636147065
-0.00375412425933489,0.02069264213045267
-0.00375395425933489,0.02069264213045267
-0.00375378425933489,0.02026476587964355
-0.00375361425933489,0.02033059299515254
-0.00375344425933489,0.01924444558925215
-0.00375327425933489,0.01904696424272451
-0.00375310425933489,0.01888239645395202
-0.00375293425933489,0.0185203473186519
-0.00375276425933489,0.0184874337608974
-0.00375259425933489,0.01838869308763367
-0.00375242425933489,0.0162163982758329
-0.00375225425933489,0.0174341999127493
-0.00375208425933489,0.01825703885661544
-0.00375191425933489,0.01792790327906987
-0.00375174425933489,0.01782916260580638
-0.00375157425933489,0.01822412529886088
-0.00375140425933489,0.0178291626058062
-0.00375123425933489,0.0178291626058062
-0.00375106425933489,0.01828995241437
-0.00375089425933489,0.01825703885661544
-0.00375072425933489,0.01825703885661544
-0.00375055425933489,0.01845452020314278
-0.00375038425933489,0.01763168125927886
-0.00375021425933489,0.01782916260580584
-0.00375004425933489,0.01753294058601518
-0.00374987425933489,0.0173683727972424
-0.00374970425933489,0.01713797789296092
-0.00374953425933489,0.01677592875766037
-0.00374936425933489,0.01661136096888758
-0.00374919425933489,0.01654553385337859
-0.00374902425933489,0.01641387962236024
-0.00374885425933489,0.0162163982758329
-0.00374868425933489,0.01615057116032391
-0.00374851425933489,0.01582143558277821
-0.00374834425933489,0.01562395423625087
-0.00374817425933489,0.01578852202502366
-0.00374800425933489,0.015986003371551
-0.00374783425933489,0.01585434914053277
-0.00374766425933489,0.0162163982758329
-0.00374749425933489,0.01641387962236024
-0.00374732425933489,0.01605183048706011
-0.00374715425933489,0.01595308981379644
-0.00374698425933489,0.01592017625604189
-0.00374681425933489,0.01578852202502366
-0.00374664425933489,0.01562395423625087
-0.00374647425933489,0.01522899154319565
-0.00374630425933489,0.01493276952340517
-0.00374613425933489,0.01443906615708682
-0.00374596425933489,0.01414284413729437
-0.00374579425933489,0.01335291875118643
-0.00374562425933489,0.01289212894262263
-0.00374545425933489,0.01249716624956651
-0.00374528425933489,0.01170724086345858
-0.00374511425933489,0.01187180865223136
-0.00374494425933489,0.01157558663244059
-0.00374477425933489,0.01170724086345858
-0.00374460425933489,0.01141101884366756
-0.00374443425933489,0.01180598153672338
-0.00374426425933489,0.01243133913405883
-0.00374409425933489,0.01269464759609529
-0.00374392425933489,0.01243133913406027
-0.00374375425933489,0.0132212645201682
-0.00374358425933489,0.01282630182711352
-0.00374341425933489,0.01308961028915135
-0.00374324425933489,0.01384662211750479
-0.00374307425933489,0.0139124492330139
-0.00374290425933489,0.01585434914053043
-0.00374273425933489,0.01457072038810504
-0.00374256425933489,0.01440615259933226
-0.00374239425933489,0.01434032548382272
-0.00374222425933489,0.01410993057954124
-0.00374205425933489,0.01457072038810504
-0.00374188425933489,0.01447197971484155
-0.00374171425933489,0.01434032548382314
-0.00374154425933489,0.0143732390415777
-0.00374137425933489,0.01466946106136818
-0.00374120425933489,0.01480111529238694
-0.00374103425933489,0.01592017625604189
-0.00374086425933489,0.01624931183358685
-0.00374069425933489,0.01717089145071506
-0.00374052425933489,0.01815829818335177
-0.00374035425933489,0.0189811371272142
-0.00374018425933489,0.01931027270476127
-0.00374001425933489,0.02019893876413431
-0.00373984425933489,0.02095595059248774
-0.00373967425933489,0.02164713530533482
-0.00373950425933489,0.02187753020961672
-0.00373933425933489,0.02144965395880826
-0.00373916425933489,0.02144965395880748
-0.00373899425933489,0.02125217261228014
-0.00373882425933489,0.02065972857269919
-0.00373865425933489,0.02033059299515254
-0.00373848425933489,0.01980397607107963
-0.00373831425933489,0.01947484049353465
-0.00373814425933489,0.01901405068497026
-0.00373797425933489,0.01835577952987911
-0.00373780425933489,0.01723671856622621
-0.00373763425933489,0.01717089145071506
-0.00373746425933489,0.01638096606460569
-0.00373729425933489,0.01601891692930556
-0.00373712425933489,0.01624931183358745
-0.00373695425933489,0.01568978135175999
-0.00373678425933489,0.01522899154319619
-0.00373661425933489,0.01496568308115973
-0.00373644425933489,0.01430741192606859
-0.00373627425933489,0.01417575769505036
-0.00373610425933489,0.01453780683034983
-0.00373593425933489,0.01417575769505036
-0.00373576425933489,0.0141428441372958
-0.00373559425933489,0.01483402885014084
-0.00373542425933489,0.01447197971484137
-0.00373525425933489,0.01496568308115973
-0.00373508425933489,0.01493276952340487
-0.00373491425933489,0.01476820173463239
-0.00373474425933489,0.01499859663891429
-0.00373457425933489,0.01585434914053379
-0.00373440425933489,0.01641387962236024
-0.00373423425933489,0.015986003371551
-0.00373406425933489,0.01601891692930562
-0.00373389425933489,0.01605183048706011
-0.00373372425933489,0.01582143558277821
-0.00373355425933489,0.01437323904157836
-0.00373338425933489,0.01473528817687783
-0.00373321425933489,0.01463654750361416
-0.00373304425933489,0.01506442375442232
-0.00373287425933489,0.01447197971484137
-0.00373270425933489,0.01473528817687783
-0.00373253425933489,0.01457072038810522
-0.00373236425933489,0.01466946106136872
-0.00373219425933489,0.01457072038810504
-0.00373202425933489,0.0143732390415786
-0.00373185425933489,0.01486694240789606
-0.00373168425933489,0.01473528817687783
-0.00373151425933489,0.01499859663891381
-0.00373134425933489,0.01545938644747809
-0.00373117425933489,0.01572269490951454
-0.00373100425933489,0.01578852202502353
-0.00373083425933489,0.01624931183358745
-0.00373066425933489,0.0164467931801148
-0.00373049425933489,0.01608474404481533
-0.00373032425933489,0.01631513894909657
-0.00373015425933489,0.01680884231541493
-0.00372998425933489,0.01611765760257048
-0.00372981425933489,0.01539355933196897
-0.00372964425933489,0.0169075829886786
-0.00372947425933489,0.01710506433520558
-0.00372930425933489,0.01726963212397873
-0.00372913425933489,0.0173683727972424
-0.00372896425933489,0.01779624904805086
-0.00372879425933489,0.01815829818335177
-0.00372862425933489,0.01825703885661544
-0.00372845425933489,0.01852034731865142
-0.00372828425933489,0.01789498972131531
-0.00372811425933489,0.01825703885661544
-0.00372794425933489,0.01858617443416041
-0.00372777425933489,0.01855326087640645
-0.00372760425933489,0.01825703885661544
-0.00372743425933489,0.01828995241436994
-0.00372726425933489,0.0173683727972424
-0.00372709425933489,0.0173683727972424
-0.00372692425933489,0.01634805250685113
-0.00372675425933489,0.01608474404481467
-0.00372658425933489,0.01595308981379644
-0.00372641425933489,0.01496568308115973
-0.00372624425933489,0.01493276952340517
-0.00372607425933489,0.01480111529238694
-0.00372590425933489,0.01496568308115973
-0.00372573425933489,0.01473528817687783
-0.00372556425933489,0.01476820173463239
-0.00372539425933489,0.01536064577421441
-0.00372522425933489,0.01545938644747821
-0.00372505425933489,0.0155252135629872
-0.00372488425933489,0.01582143558277821
-0.00372471425933489,0.01598600337155136
-0.00372454425933489,0.01618348471807834
-0.00372437425933489,0.01661136096888758
-0.00372420425933489,0.01641387962235563
-0.00372403425933489,0.01387953567525935
-0.00372386425933489,0.01522899154319619
-0.00372369425933489,0.01503151019666813
-0.00372352425933489,0.01463654750361416
-0.00372335425933489,0.01417575769505036
-0.00372318425933489,0.01338583230894075
-0.00372301425933489,0.01325417807792276
-0.00372284425933489,0.01289212894262263
-0.00372267425933489,0.01295795605813229
-0.00372250425933489,0.01325417807792276
-0.00372233425933489,0.013682054328732
-0.00372216425933489,0.01417575769505227
-0.00372199425933489,0.01522899154319619
-0.00372182425933489,0.01578852202502366
-0.00372165425933489,0.01657844741113351
-0.00372148425933489,0.01684175587316948
-0.00372131425933489,0.01750002702826063
-0.00372114425933489,0.01769750837478964
-0.00372097425933489,0.01861908799191557
-0.00372080425933489,0.01881656933844291
-0.00372063425933489,0.01878365578068841
-0.00372046425933489,0.0187507422229338
-0.00372029425933489,0.01832286597212456
-0.00372012425933489,0.01812538462559757
-0.00371995425933489,0.01802664395233354
-0.00371978425933489,0.0175987677015243
-0.00371961425933489,0.01703923721969785
-0.00371944425933489,0.0169075829886786
-0.00371927425933489,0.01618348471807834
-0.00371910425933489,0.01588726269828787
-0.00371893425933489,0.01578852202502366
-0.00371876425933489,0.01542647288972353
-0.00371859425933489,0.01598600337154998
-0.00371842425933489,0.0169075829886786
-0.00371825425933489,0.01700632366194227
-0.00371808425933489,0.01694049654643328
-0.00371791425933489,0.0173683727972424
-0.00371774425933489,0.01703923721969683
-0.00371757425933489,0.01710506433520582
-0.00371740425933489,0.0164467931801148
-0.00371723425933489,0.0164467931801148
-0.00371706425933489,0.01631513894909681
-0.00371689425933489,0.01654553385337847
