Analysis/New Tests_CMB/wrd01_d2s01/cmb08_ch01.csv

#Digilent WaveForms Oscilloscope Acquisition
#Device Name: ADP3450
#Serial Number: SN:210018B9D9B0
#Date Time: 2024-08-06 16:38:37.258.725.180
#Sample rate: 2.94118e+06Hz
#Samples: 32768
#Trigger: Source: Channel 3 Type: Edge Condition: Rising Level: 0 V Hyst.: Auto HoldOff: 0 s
#Channel 3: Range: 200 mV/div Offset: 0 V Attenuation: 1 X Coupling: DC Bandwidth: 0 Hz Sample Mode: Average

Time (s),Channel 3 (V)
-0.005570490000000001,0.01006156297573072
-0.00557015,0.009798254513692588
-0.005569810000000001,0.008876674896566664
-0.005569470000000001,0.007856354606175394
-0.00556913,0.007198083451083893
-0.005568790000000001,0.00700060210455691
-0.005568450000000001,0.007198083451084253
-0.00556811,0.007889268163931866
-0.005567770000000001,0.008942502012075779
-0.005567430000000001,0.00950203249390325
-0.00556709,0.01150975951693339
-0.005566750000000001,0.01269464759609529
-0.005566410000000001,0.01387953567525935
-0.00556607,0.01499859663891543
-0.005565730000000001,0.01562395423625087
-0.005565390000000001,0.01592017625604189
-0.00556505,0.01592017625604009
-0.00556471,0.01493276952340517
-0.005564370000000001,0.01434032548382314
-0.00556403,0.01374788144423974
-0.00556369,0.0129908696158863
-0.005563350000000001,0.01236551201854972
-0.005563010000000001,0.01150975951693279
-0.00556267,0.01141101884366756
-0.005562330000000001,0.01121353749714022
-0.005561990000000001,0.01174015442121218
-0.00556165,0.01220094422977693
-0.005561310000000001,0.0122996849030406
-0.005560970000000001,0.01253007980732208
-0.00556063,0.01315543740465909
-0.005560290000000001,0.01289212894262263
-0.005559950000000001,0.01285921538486814
-0.00555961,0.01269464759609529
-0.005559270000000001,0.01397827634852302
-0.005558930000000001,0.0188823964539431
-0.00555859,0.02994135185948321
-0.005558250000000001,0.04932743737691735
-0.005557910000000001,0.0772710479104855
-0.00555757,0.1106124819159027
-0.005557230000000001,0.1470148767924429
-0.005556890000000001,0.1819690751277189
-0.00555655,0.212545770281766
-0.005556210000000001,0.2368688894623837
-0.005555870000000001,0.2545763835343033
-0.00555553,0.2659973880751668
-0.005555190000000001,0.2714281251046687
-0.005554850000000001,0.2725471860683216
-0.00555451,0.2706381997185593
-0.005554170000000001,0.266425264325976
-0.005553830000000001,0.2607312188344376
-0.00555349,0.2544776428610718
-0.005553150000000001,0.247697449963633
-0.005552810000000001,0.2404564672576305
-0.00555247,0.2329192625318369
-0.005552130000000001,0.2251516629017614
-0.005551790000000001,0.2175815446182133
-0.00555145,0.2104063890277055
-0.005551110000000001,0.2025400487243807
-0.005550770000000001,0.1947724490943052
-0.00555043,0.1872681579262521
-0.005550090000000001,0.1795334718539452
-0.005549750000000001,0.1723912298212064
-0.00554941,0.1661047402900746
-0.005549070000000001,0.1598511643167201
-0.005548730000000001,0.1541900323829363
-0.00554839,0.1489896902577069
-0.005548050000000001,0.1438551752480054
-0.005547710000000001,0.1394118449511401
-0.00554737,0.1354293044628322
-0.005547030000000001,0.1318088131098374
-0.005546690000000001,0.1279579268525543
-0.00554635,0.1241070405952652
-0.005546010000000001,0.1208485983775699
-0.005545670000000001,0.1172939341400778
-0.00554533,0.1136076156715599
-0.005544990000000001,0.1094934209522477
-0.005544650000000001,0.1058729295992465
-0.00554431,0.1023511789195029
-0.00554397,0.09905982314405315
-0.005543630000000001,0.09613051650389756
-0.00554329,0.09303664207496315
-0.00554295,0.08971237274175892
-0.005542610000000001,0.08665141187058512
-0.005542270000000001,0.08336005609513537
-0.00554193,0.0808257121480285
-0.005541590000000001,0.0785217631052095
-0.005541250000000001,0.07611907338913119
-0.00554091,0.07391386501957151
-0.005540570000000001,0.07174157020777075
-0.005540230000000001,0.06887809068312949
-0.00553989,0.06634374673602336
-0.005539550000000001,0.06371066211565882
-0.005539210000000001,0.06120923172631702
-0.00553887,0.05920150470328448
-0.005538530000000001,0.05762165393106574
-0.005538190000000001,0.05673298787169431
-0.00553785,0.05551518623477408
-0.005537510000000001,0.05423155748234636
-0.005537170000000001,0.05298084228767547
-0.00553683,0.05232257113258205
-0.005536490000000001,0.05153264574647268
-0.005536150000000001,0.05090728814913723
-0.00553581,0.05024901699404495
-0.005535470000000001,0.04880082045284444
-0.005535130000000001,0.04738553746940105
-0.00553479,0.04544363756187961
-0.005534450000000001,0.04356756476986986
-0.005534110000000001,0.04225102245968997
-0.00553377,0.04132944284255997
-0.005533430000000001,0.03981541918585035
-0.005533090000000001,0.03816974129812249
-0.00553275,0.0363924091793764
-0.005532410000000001,0.03510878042694868
-0.005532070000000001,0.03366058388574816
-0.00553173,0.03254152292209322
-0.005531390000000001,0.03178451109373841
-0.005531050000000001,0.0310274992653836
-0.00553071,0.03020466032151967
-0.005530370000000001,0.02925016714663752
-0.005530030000000001,0.02898685868460106
-0.00552969,0.02826276041400074
-0.005529350000000001,0.02822984685624624
-0.005529010000000001,0.02855898243379182
-0.00552867,0.02888811801133757
-0.005528330000000001,0.02898685868460106
-0.005527990000000001,0.02875646378031916
-0.00552765,0.02836150108726285
-0.005527310000000001,0.02747283502789143
-0.005526970000000001,0.02727535368136409
-0.00552663,0.02684747743055317
-0.005526290000000001,0.02592589781342725
-0.005525950000000001,0.02510305886956332
-0.00552561,0.02424730636794322
-0.005525270000000001,0.02335864030857179
-0.005524930000000001,0.02283202338449888
-0.00552459,0.02250288780695247
-0.005524250000000001,0.02204209799838951
-0.005523910000000001,0.02256871492246242
-0.00552357,0.02368777588611754
-0.005523230000000001,0.02378651655938104
-0.005522890000000001,0.02464226906099952
-0.00552255,0.02388525723264321
-0.00552221,0.02306241828878078
-0.005521870000000001,0.02217375222940774
-0.00552153,0.02036350655290332
-0.00552119,0.01828995241437
-0.005520850000000001,0.01671010164215126
-0.005520510000000001,0.01644679318011528
-0.00552017,0.01647970673786936
-0.005519830000000001,0.01694049654643316
-0.005519490000000001,0.01782916260580458
-0.00551915,0.01828995241437
-0.005518810000000001,0.01884948289619747
-0.005518470000000001,0.01914570491598794
-0.00551813,0.01904696424272481
-0.005517790000000001,0.01914570491598848
-0.005517450000000001,0.01815829818335356
-0.00551711,0.01730254568173328
-0.005516770000000001,0.01611765760256923
-0.005516430000000001,0.01608474404481473
-0.00551609,0.01638096606460569
-0.005515750000000001,0.01657844741113303
-0.005515410000000001,0.01621639827583356
-0.00551507,0.01585434914053277
-0.005514730000000001,0.01542647288972353
-0.005514390000000001,0.01552521356298702
-0.00551405,0.0143732390415777
-0.005513710000000001,0.0146036339458596
-0.005513370000000001,0.01499859663891357
-0.00551303,0.0152948186587053
-0.005512690000000001,0.01624931183358745
-0.005512350000000001,0.0169075829886786
-0.00551201,0.01680884231541493
-0.005511670000000001,0.01697341010418771
-0.005511330000000001,0.01680884231541493
-0.00551099,0.01671010164215126
-0.005510650000000001,0.01661136096888758
-0.005510310000000001,0.01661136096888758
-0.00550997,0.01697341010418771
-0.005509630000000001,0.01733545923948784
-0.005509290000000001,0.01786207616356076
-0.00550895,0.01769750837478761
-0.005508610000000001,0.01750002702826063
-0.005508270000000001,0.01684175587316948
-0.00550793,0.01615057116032211
-0.005507590000000001,0.01522899154319619
-0.005507250000000001,0.01466946106136872
-0.00550691,0.01424158481055953
-0.005506570000000001,0.01427449836831403
-0.005506230000000001,0.01420867125280492
-0.00550589,0.01437323904157812
-0.005505550000000001,0.0146036339458596
-0.005505210000000001,0.01473528817687783
-0.00550487,0.01437323904157794
-0.005504530000000001,0.01450489327259593
-0.005504190000000001,0.01387953567525935
-0.00550385,0.01295795605813097
-0.005503510000000001,0.0125300798073225
-0.005503170000000001,0.01190472220998592
-0.00550283,0.01177306797896805
-0.005502490000000001,0.01197054932549503
-0.005502150000000001,0.01226677134528605
-0.00550181,0.01236551201855127
-0.00550147,0.0132212645201682
-0.005501130000000001,0.01371496788648656
-0.00550079,0.0139453627907696
-0.00550045,0.01457072038810504
-0.005500110000000001,0.01503151019666884
-0.005499770000000001,0.01513025086993233
-0.00549943,0.01549230000523264
-0.005499090000000001,0.01519607798544163
-0.005498750000000001,0.01410993057954322
-0.00549841,0.01338583230894099
-0.005498070000000001,0.01243133913405883
-0.005497730000000001,0.01223385778753185
-0.00549739,0.01216803067202238
-0.005497050000000001,0.01223385778753149
-0.005496710000000001,0.01190472220998652
-0.00549637,0.01197054932549503
-0.005496030000000001,0.01216803067202238
-0.005495690000000001,0.01266173403833983
-0.00549535,0.01220094422977693
-0.005495010000000001,0.01292504250037719
-0.005494670000000001,0.01328709163567666
-0.00549433,0.01355040009771377
-0.005493990000000001,0.01338583230894099
-0.005493650000000001,0.01348457298220448
-0.00549331,0.01325417807792276
-0.005492970000000001,0.0125300798073225
-0.005492630000000001,0.01154267307468759
-0.00549229,0.01035778499552173
-0.005491950000000001,0.01025904432225806
-0.005491610000000001,0.01025904432225806
-0.00549127,0.01088440191959465
-0.005490930000000001,0.0118388950944768
-0.005490590000000001,0.01305669673139542
-0.00549025,0.01371496788648656
-0.005489910000000001,0.01397827634852302
-0.005489570000000001,0.01410993057954124
-0.00548923,0.01397827634852302
-0.005488890000000001,0.0134516594244501
-0.005488550000000001,0.01282630182711352
-0.00548821,0.01229968490304096
-0.005487870000000001,0.01249716624956795
-0.005487530000000001,0.01216803067202238
-0.00548719,0.0119705493254933
-0.005486850000000001,0.01101605615061288
-0.005486510000000001,0.01032487143776718
-0.00548617,0.009271637589618895
-0.005485830000000001,0.007922181721684508
-0.005485490000000001,0.007165169893329695
-0.00548515,0.006836034315784244
-0.005484810000000001,0.006901861431293239
-0.005484470000000001,0.007625959701893495
-0.00548413,0.008745020665550952
-0.005483790000000001,0.01012739009123984
-0.005483450000000001,0.01154267307468579
-0.00548311,0.01289212894262509
-0.005482770000000001,0.01424158481055947
-0.005482430000000001,0.01526190510095074
-0.00548209,0.01588726269828823
-0.005481750000000001,0.01638096606460569
-0.005481410000000001,0.01664427452664214
-0.00548107,0.01661136096888746
-0.00548073,0.01654553385337847
-0.005480390000000001,0.0169075829886786
-0.00548005,0.01634805250685017
-0.00547971,0.01582143558277821
-0.005479370000000001,0.01503151019666884
-0.005479030000000001,0.01447197971484239
-0.00547869,0.0118388950944768
-0.005478350000000001,0.01108188326612199
-0.005478010000000001,0.01104896970836749
-0.00547767,0.01088440191959465
-0.005477330000000001,0.01190472220998592
-0.005476990000000001,0.01223385778753089
-0.00547665,0.01180598153672225
-0.005476310000000001,0.01085148836184009
-0.005475970000000001,0.01058817989980411
-0.00547563,0.01022613076450351
-0.005475290000000001,0.01078566124633098
-0.005474950000000001,0.01131227817040293
-0.00547461,0.01216803067202238
-0.005474270000000001,0.01226677134528605
-0.005473930000000001,0.01246425269181303
-0.00547359,0.01233259846079516
-0.005473250000000001,0.01210220355651326
-0.005472910000000001,0.01229968490304024
-0.00547257,0.01282630182711352
-0.005472230000000001,0.01338583230894099
-0.005471890000000001,0.0144719797148394
-0.00547155,0.01562395423625087
-0.005471210000000001,0.01647970673786936
-0.005470870000000001,0.01690758298867782
-0.00547053,0.01687466943092404
-0.005470190000000001,0.01677592875766037
-0.005469850000000001,0.0162163982758329
-0.00546951,0.01513025086993251
-0.005469170000000001,0.01417575769505036
-0.005468830000000001,0.01384662211750479
-0.00546849,0.01332000519343187
-0.005468150000000001,0.0125300798073225
-0.005467810000000001,0.01174015442121313
-0.00546747,0.01114771038163111
-0.005467130000000001,0.01104896970836743
-0.005466790000000001,0.01048943922653996
-0.00546645,0.010324871437767
-0.005466110000000001,0.01022613076450351
-0.005465770000000001,0.01019321720674895
-0.00546543,0.01002864941797526
-0.005465090000000001,0.009534946051657807
-0.005464750000000001,0.009600773167166921
-0.00546441,0.009633686724922496
-0.005464070000000001,0.01019321720674895
-0.005463730000000001,0.01085148836184009
-0.00546339,0.01206928999876086
-0.005463050000000001,0.01325417807792276
-0.005462710000000001,0.01427449836831403
-0.00546237,0.01424158481055846
-0.005462030000000001,0.013682054328732
-0.005461690000000001,0.01236551201854972
-0.00546135,0.01160850019019395
-0.005461010000000001,0.01108188326612199
-0.005460670000000001,0.01085148836184009
-0.00546033,0.01131227817040575
-0.005459990000000001,0.01233259846079516
-0.005459650000000001,0.013682054328732
-0.00545931,0.01513025086993461
-0.00545897,0.01628222539134202
-0.005458630000000001,0.01628222539134202
-0.00545829,0.01661136096888626
-0.00545795,0.01588726269828733
-0.005457610000000001,0.0150644237544234
-0.005457270000000001,0.01332000519343505
-0.00545693,0.01239842557630427
-0.005456590000000001,0.01256299336507706
-0.005456250000000001,0.01187180865223262
-0.00545591,0.01091731547734921
-0.005455570000000001,0.01012739009123984
-0.005455230000000001,0.009469118936149889
-0.00545489,0.008942502012075779
-0.005454550000000001,0.008481712203511979
-0.005454210000000001,0.007625959701895051
-0.00545387,0.006803120758029567
-0.005453530000000001,0.00677020720027501
-0.005453190000000001,0.006441071622730037
-0.00545285,0.007230997008838809
-0.005452510000000001,0.008448798645757422
-0.005452170000000001,0.009403291820637842
-0.00545183,0.01111479682387655
-0.005451490000000001,0.01289212894262263
-0.005451150000000001,0.01397827634852104
-0.00545081,0.01407701702178669
-0.005450470000000001,0.01450489327259593
-0.005450130000000001,0.01427449836831445
-0.00544979,0.01371496788648656
-0.005449450000000001,0.0139124492330139
-0.005449110000000001,0.01420867125280438
-0.00544877,0.01417575769505036
-0.005448430000000001,0.01410993057954124
-0.005448090000000001,0.01371496788648656
-0.00544775,0.01430741192606859
-0.005447410000000001,0.01404410346403213
-0.005447070000000001,0.01404410346403213
-0.00544673,0.0143732390415777
-0.005446390000000001,0.0146036339458596
-0.005446050000000001,0.01473528817687783
-0.00544571,0.01427449836831355
-0.005445370000000001,0.01401118990627757
-0.005445030000000001,0.0129908696158863
-0.00544469,0.01150975951692932
-0.005444350000000001,0.01045652566878541
-0.005444010000000001,0.009238724031866792
-0.00544367,0.008284230856984277
-0.005443330000000001,0.008086749510457293
-0.005442990000000001,0.008613366434530208
-0.00544265,0.009172896916359655
-0.005442310000000001,0.01025904432225806
-0.005441970000000001,0.01167432730570402
-0.00544163,0.01216803067202339
-0.005441290000000001,0.01272756115384985
-0.005440950000000001,0.01236551201854972
-0.00544061,0.01157558663243873
-0.005440270000000001,0.01068692057306731
-0.005439930000000001,0.01006156297573072
-0.00543959,0.009534946051657568
-0.005439250000000001,0.009403291820639578
-0.005438910000000001,0.01032487143776718
-0.00543857,0.01104896970836785
-0.00543823,0.01127936461264933
-0.005437890000000001,0.0120692899987587
-0.00543755,0.01292504250037599
-0.00543721,0.01226677134528605
-0.005436870000000001,0.008382971530248308
-0.005436530000000001,-0.001129046660801394
-0.00543619,-0.01909984919480688
-0.005435850000000001,-0.04444328866581585
-0.005435510000000001,-0.07607321766788769
-0.00543517,-0.1107311939834939
-0.005434830000000001,-0.1450929482792515
-0.005434490000000001,-0.1760975196839879
-0.00543415,-0.202724587907481
-0.005433810000000001,-0.222044846309406
-0.005433470000000001,-0.2349798745069234
-0.00543313,-0.2420233758664222
-0.005432790000000001,-0.2444260655825048
-0.005432450000000001,-0.242517079232744
-0.00543211,-0.2381395760513844
-0.005431770000000001,-0.231556864500473
-0.005431430000000001,-0.2242171411212201
-0.00543109,-0.2165811957221495
-0.005430750000000001,-0.2090769045541105
-0.005430410000000001,-0.2016384405015941
-0.00543007,-0.1945620255843508
-0.005429730000000001,-0.1873210428783482
-0.005429390000000001,-0.1801458872878678
-0.00542905,-0.1732998672749069
-0.005428710000000001,-0.1665196743774682
-0.005428370000000001,-0.1584229391698619
-0.00542803,-0.1514123513681264
-0.005427690000000001,-0.1451587753947606
-0.005427350000000001,-0.1391685078834312
-0.00542701,-0.1347580911443206
-0.005426670000000001,-0.1307755506560191
-0.005426330000000001,-0.1274183677650543
-0.00542599,-0.1234687408345075
-0.005425650000000001,-0.1198811630392607
-0.005425310000000001,-0.1151745242803591
-0.00542497,-0.1105666261947211
-0.005424630000000001,-0.1053991976272556
-0.005424290000000001,-0.100165941944281
-0.00542395,-0.09470229135701586
-0.005423610000000001,-0.08992982548261377
-0.005423270000000001,-0.0863093341296125
-0.00542293,-0.08341294104720597
-0.005422590000000001,-0.08038489373379221
-0.005422250000000001,-0.07729101930486384
-0.00542191,-0.07373635506736341
-0.005421570000000001,-0.06919428409724279
-0.005421230000000001,-0.0645863860116048
-0.00542089,-0.0608013268698254
-0.005420550000000001,-0.05787202022967515
-0.005420210000000001,-0.05560098474461071
-0.00541987,-0.053955306856881
-0.005419530000000001,-0.05293498656649159
-0.005419190000000001,-0.05158553069855474
-0.00541885,-0.05036772906163296
-0.005418510000000001,-0.04862331050064461
-0.005418170000000001,-0.04737259530597143
-0.00541783,-0.04651684280435008
-0.00541749,-0.04493699203213421
-0.005417150000000001,-0.04329131414440635
-0.00541681,-0.04141524135239325
-0.00541647,-0.03957208211814139
-0.005416130000000001,-0.03825553980795911
-0.00541579,-0.03588576364962603
-0.00541545,-0.03315393835600276
-0.005415110000000001,-0.03015880460033806
-0.005414770000000001,-0.0273940657489603
-0.00541443,-0.02459641333981791
-0.005414090000000001,-0.02344443881840842
-0.005413750000000001,-0.02304947612535445
-0.00541341,-0.02298364900984462
-0.005413070000000001,-0.02225955073924436
-0.005412730000000001,-0.02242411852801685
-0.00541239,-0.02104174910232575
-0.005412050000000001,-0.01949481188786156
-0.005411710000000001,-0.01755291198034623
-0.00541137,-0.01538061716854192
-0.005411030000000001,-0.01399824774285052
-0.005410690000000001,-0.01386659351183254
-0.00541035,-0.01337289014551394
-0.005410010000000001,-0.01261587831715913
-0.005409670000000001,-0.01264879187491362
-0.00540933,-0.01149681735350419
-0.005408990000000001,-0.01070689196739481
-0.005408650000000001,-0.01004862081230487
-0.00540831,-0.01011444792781279
-0.005407970000000001,-0.00939034965721253
-0.005407630000000001,-0.009291608983949038
-0.00540729,-0.009028300521912402
-0.005406950000000001,-0.008468770040084931
-0.005406610000000001,-0.007382622634186522
-0.00540627,-0.006098993881756819
-0.005405930000000001,-0.00540780916891112
-0.005405590000000001,-0.005309068495647449
-0.00540525,-0.004815365129329092
-0.005404910000000001,-0.004354575320765292
-0.005404570000000001,-0.003729217723428708
-0.00540423,-0.003103860126092122
-0.005403890000000001,-0.002248107624473638
-0.005403550000000001,-0.001030305987555025
-0.00540321,-0.0001087263704253901
-0.005402870000000001,0.001010334593227516
-0.005402530000000001,0.001504037959545873
-0.00540219,0.0016356921905647
-0.005401850000000001,0.001964827768109672
-0.005401510000000001,0.001964827768109672
-0.00540117,0.001964827768109552
-0.005400830000000001,0.001899000652600558
-0.005400490000000001,0.002096481999127901
-0.00540015,0.001866087094847079
-0.005399810000000001,0.002458531134428029
-0.005399470000000001,0.003314283636046514
-0.00539913,0.003149715847273309
-0.005398790000000001,0.002919320942991828
-0.005398450000000001,0.002688926038709928
-0.00539811,0.002162309114636715
-0.005397770000000001,0.001997741325864229
