Analysis/New Tests_CMB/wrd01_d2s01/cmb06_ch45.csv

#Digilent WaveForms Oscilloscope Acquisition
#Device Name: ADP3450
#Serial Number: SN:210018B9D9B0
#Date Time: 2024-06-21 16:09:23.909.578.680
#Sample rate: 2.5e+07Hz
#Samples: 32768
#Trigger: Source: Channel 3 Type: Edge Condition: Rising Level: 200 mV Hyst.: Auto HoldOff: 0 s
#Channel 1: Range: 100 mV/div Offset: -370 mV Attenuation: 1 X Coupling: DC Bandwidth: 0 Hz Sample Mode: Average
#Channel 3: Range: 100 mV/div Offset: 0 V Attenuation: 1 X Coupling: DC Bandwidth: 0 Hz Sample Mode: Average

Time (s),Channel 1 (V),Channel 3 (V)
-0.0006553478431372549,0.0001699382978019859,-0.01360328504979584
-0.0006553078431372549,-9.261022791812179e-05,-0.01370202572305951
-0.0006552678431372549,0.0004324868235219742,-0.01301084101021525
-0.0006552278431372549,0.0003668496920920528,-0.01380076639632318
-0.0006551878431372549,0.0002027568635170063,-0.0131754087989866
-0.0006551478431372549,0.0005637610863821751,-0.01343871726102305
-0.0006551078431372549,0.0008919467435322681,-0.01353745793428673
-0.000655067843137255,0.001121676703536993,-0.01337289014551424
-0.0006550278431372549,0.0006293982178115037,-0.0138336799540772
-0.0006549878431372549,0.0002683939949470471,-0.01353745793428673
-0.0006549478431372549,-9.261022791812179e-05,-0.01370202572305951
-0.0006549078431372549,7.148260065692469e-05,-0.01353745793428673
-0.0006548678431372549,-0.0003551587536374534,-0.01350454437653223
-0.0006548278431372549,0.000530942520666916,-0.01373493928081407
-0.0006547878431372549,0.0003996682578070732,-0.01373493928081407
-0.0006547478431372549,0.0004324868235220936,-0.01380076639632318
-0.0006547078431372549,-5.979166220310139e-05,-0.0140969884161142
-0.0006546678431372549,0.000169938297801568,-0.01393242062734171
-0.0006546278431372549,0.0002355754292326834,-0.01389950706958667
-0.0006545878431372549,0.00059657965209714,-0.01380076639632318
-0.0006545478431372549,0.0003996682578070732,-0.01412990197386875
-0.0006545078431372549,0.0007934910463872624,-0.0140969884161142
-0.0006544678431372549,0.0001699382978019859,-0.01422864264713243
-0.0006544278431372549,0.0002355754292316088,-0.01422864264713368
-0.0006543878431372549,5.845469226939404e-06,-0.01491982735997812
-0.0006543478431372549,0.0002683939949470471,-0.01412990197386875
-0.0006543078431372549,-0.0001254287936331422,-0.01436029687815065
-0.0006542678431372549,-5.979166220310139e-05,-0.01459069178243255
-0.000654227843137255,0.000727853914955789,-0.01412990197386959
-0.0006541878431372549,0.0002683939949470471,-0.01419572908937787
-0.0006541478431372549,0.0004981239549521344,-0.01465651889794167
-0.0006541078431372549,0.0006293982178121604,-0.014557778224678
-0.0006540678431372549,0.0004981239549521344,-0.01468943245569622
-0.000654027843137255,0.000695035349241843,-0.01455777822467823
-0.0006539878431372549,0.0007278539149569231,-0.01442612399365869
-0.0006539478431372549,0.0005637610863821751,-0.01383367995407774
-0.0006539078431372549,0.0008919467435322681,-0.01495274091773268
-0.0006538678431372549,0.0005309425206671547,-0.01498565447548724
-0.0006538278431372549,0.001023221006391454,-0.01439321043590629
-0.0006537878431372549,0.0004981239549539252,-0.01501856803324144
-0.0006537478431372549,0.001482680926402524,-0.01482108668671445
-0.0006537078431372549,0.0009904024406773293,-0.01462360534018711
-0.0006536678431372549,0.001121676703537411,-0.01541353072629648
-0.0006536278431372549,0.0008263096121028202,-0.01488691380222452
-0.0006535878431372549,0.0009247653092478855,-0.01521604937976968
-0.0006535478431372549,0.001252950966397437,-0.01551227139956015
-0.0006535078431372549,0.001121676703537411,-0.01564392563057838
-0.0006534678431372549,0.0006622167835271808,-0.01508439514875091
-0.0006534278431372549,0.0007934910463872624,-0.0150185680332418
-0.000653387843137255,0.0009575838749620104,-0.01524896293752328
-0.0006533478431372549,0.0009247653092472885,-0.01436029687815065
-0.0006533078431372549,0.0007934910463872624,-0.01459069178243255
-0.0006532678431372549,0.0005637610863821751,-0.01508439514875091
-0.0006532278431372549,-0.0005520701479283519,-0.01383367995407774
-0.000653187843137255,0.0006622167835249721,-0.01478817312895816
-0.0006531478431372549,0.0009575838749621895,-0.01472234601344737
-0.0006531078431372549,0.0008919467435322681,-0.01284627322144103
-0.0006530678431372549,0.0003996682578070732,-0.01534770361078737
-0.0006530278431372549,0.0001043011663719451,-0.01403116130060508
-0.0006529878431372549,0.000498123954951418,-0.01301084101021567
-0.0006529478431372549,0.0005965796520972594,-0.01380076639632097
-0.0006529078431372549,0.0006622167835271808,-0.01258296475940457
-0.0006528678431372549,0.0009904024406773293,-0.01330706303000483
-0.0006528278431372549,0.0008263096121022828,-0.01366911216530495
-0.0006527878431372549,0.0002355754292331012,-0.01222091562410707
-0.0006527478431372549,0.0004981239549522537,-0.01251713764389611
-0.0006527078431372549,0.0005637610863821751,-0.01287918677919558
-0.0006526678431372549,0.0005637610863821751,-0.01231965629736811
-0.0006526278431372549,0.00059657965209714,-0.0120234342775771
-0.0006525878431372549,0.0002355754292320267,-0.01218800206634988
-0.000652547843137255,0.001088858137820838,-0.01208926139308639
-0.0006525078431372549,0.0006622167835271808,-0.01166138514227697
-0.0006524678431372549,0.0006622167835271808,-0.01126642244922228
-0.0006524278431372549,0.0003012125606620675,-0.01146390379574963
-0.0006523878431372549,0.0008591281778173032,-0.01050941062086747
-0.000652347843137255,0.0005637610863827125,-0.01057523773637647
-0.0006523078431372549,0.0005965796520976773,-0.01004862081230379
-0.0006522678431372549,0.0008919467435322681,-0.01011444792781279
-0.0006522278431372549,0.0006293982178121604,-0.01008153437005823
-0.0006521878431372549,0.0009904024406773293,-0.009884053023530886
-0.0006521478431372549,0.001318588097826881,-0.008896646290895968
-0.0006521078431372549,0.0005965796520966624,-0.00929160898394784
-0.0006520678431372549,0.0003340311263770324,-0.008732078502121389
-0.0006520278431372549,0.00105603957210737,-0.008830819175385059
-0.0006519878431372549,0.001252950966397437,-0.008732078502121389
-0.0006519478431372549,0.0009247653092478855,-0.008534597155594405
-0.0006519078431372549,0.0004981239549526119,-0.00853459715559207
-0.0006518678431372549,0.000760672480672242,-0.007448449749693661
-0.0006518278431372549,0.0004324868235220936,-0.007843412442748346
-0.0006517878431372549,0.0006950353492422012,-0.007942153116012016
-0.0006517478431372549,0.0007934910463872624,-0.007316795518675433
-0.0006517078431372549,0.0008919467435322084,-0.007481363307448397
-0.0006516678431372549,0.0008591281778173032,-0.007580103980711889
-0.0006516278431372549,0.0009575838749623089,-0.006954746383375304
-0.0006515878431372549,0.000465305389237114,-0.006823092152357076
-0.0006515478431372549,0.0006950353492422012,-0.00665852436358429
-0.000651507843137255,0.0007934910463870833,-0.006526870132566301
-0.0006514678431372549,0.001482680926401569,-0.00655978369032032
-0.0006514278431372549,0.0009575838749623089,-0.006395215901547833
-0.0006513878431372549,0.0006950353492422012,-0.006559783690320619
-0.0006513478431372549,0.0008919467435322681,-0.006461043017056948
-0.0006513078431372549,0.0009247653092472288,-0.006131907439511974
-0.0006512678431372549,0.0006622167835267032,-0.00609899388175628
-0.0006512278431372549,0.0003996682578070732,-0.005802771861965805
-0.0006511878431372549,0.0007934910463872624,-0.006098993881756819
-0.0006511478431372549,0.0005309425206671547,-0.005967339650738591
-0.0006511078431372549,0.0005309425206671547,-0.005045760033612668
-0.0006510678431372549,0.0007606724806718242,-0.006131907439510179
-0.0006510278431372549,0.0005309425206671547,-0.005473636284420234
-0.0006509878431372549,0.0006622167835271808,-0.005704031188702134
-0.0006509478431372549,0.00108885813782239,-0.005967339650738591
-0.0006509078431372549,0.00108885813782239,-0.005374895611156563
-0.0006508678431372549,0.0006293982178123992,-0.005506549842174492
-0.0006508278431372549,0.000760672480672242,-0.005341982053402005
-0.0006507878431372549,0.000760672480672242,-0.005704031188702134
-0.0006507478431372549,0.001384225229257519,-0.00540780916891112
-0.0006507078431372549,0.0006293982178121604,-0.005078673591365549
-0.000650667843137255,0.0009247653092467512,-0.005078673591365549
-0.0006506278431372549,0.0006950353492422012,-0.005341982053402005
-0.0006505878431372549,0.0008919467435322681,-0.00494701936034732
-0.0006505478431372549,0.0008263096121022828,-0.005374895611156563
-0.0006505078431372549,0.00108885813782239,-0.005144500706874663
-0.000650467843137255,0.00105603957210743,-0.005111587149120166
-0.0006504278431372549,0.001056039572106893,-0.005802771861965207
-0.0006503878431372549,0.0007934910463872624,-0.005473636284420234
-0.0006503478431372549,3.866403494190429e-05,-0.004222921089747064
-0.0006503078431372549,0.0006622167835271808,-0.005506549842174791
-0.0006502678431372549,0.0008919467435318503,-0.005341982053402305
-0.0006502278431372549,0.0009575838749621895,-0.005144500706875441
-0.0006501878431372549,0.0008919467435322681,-0.005572376957683906
-0.0006501478431372549,0.00059657965209714,-0.004848278687083649
-0.0006501078431372549,0.0008591281778173032,-0.006230648112775047
-0.0006500678431372549,0.0007278539149574604,-0.006888919267864993
-0.0006500278431372549,-0.0004207958850662406,-0.003696304165679538
-0.0006499878431372549,0.0006950353492422012,-0.00665852436358429
-0.0006499478431372549,0.00108885813782239,-0.004486229551783521
-0.0006499078431372549,0.0008591281778173032,-0.005374895611156563
-0.0006498678431372549,-9.261022791812179e-05,-0.005802771861965805
-0.000649827843137255,0.0009904024406753593,-0.005407809168911838
-0.0006497878431372549,0.0006293982178121604,-0.004881192244838206
-0.0006497478431372549,0.0008263096121022828,-0.005243241380138334
-0.0006497078431372549,0.0003012125606620675,-0.005078673591365549
-0.0006496678431372549,0.0005309425206671547,-0.004354575320765292
-0.000649627843137255,0.001056039572106415,-0.005078673591364232
-0.0006495878431372549,0.0003668496920921721,-0.005177414264628562
-0.0006495478431372549,0.0004324868235220936,-0.004815365129329092
-0.0006495078431372549,0.0003340311263770324,-0.004782451571574535
-0.0006494678431372549,0.0002683939949470471,-0.005012846475856435
-0.0006494278431372549,0.001417043794970449,-0.004354575320766489
-0.0006493878431372549,0.0007606724806720033,-0.005045760033611171
-0.0006493478431372549,0.0006293982178121604,-0.005144500706874663
-0.0006493078431372549,0.0003668496920920528,-0.005144500706874663
-0.0006492678431372549,0.0009575838749623089,-0.004881192244838206
-0.0006492278431372549,0.0007934910463875609,-0.00435457532076625
-0.0006491878431372549,0.0008591281778170047,-0.00438748887851991
-0.0006491478431372549,0.0006950353492422012,-0.004420402436274407
-0.0006491078431372549,0.0006950353492422012,-0.004716624456065421
-0.0006490678431372549,0.0007278539149572216,-0.004321661763010735
-0.0006490278431372549,0.0003996682578070732,-0.003959612627710607
-0.0006489878431372548,0.0008919467435320294,-0.004222921089746645
-0.0006489478431372549,0.000760672480672242,-0.003992526185465165
-0.0006489078431372549,0.00105603957210737,-0.004190007531992507
-0.0006488678431372549,0.0002683939949470471,-0.004650797340556306
-0.0006488278431372549,0.0007934910463872624,-0.003992526185465165
-0.000648787843137255,0.0003340311263778681,-0.003630477050165695
-0.0006487478431372549,0.0009247653092463931,-0.003498822819149382
-0.0006487078431372549,0.0004324868235220936,-0.004914105802592763
-0.0006486678431372549,0.0001699382978019859,-0.004222921089747064
-0.0006486278431372549,0.00059657965209714,-0.002741810990791994
-0.0006485878431372549,0.0009904024406766129,-0.004848278687079818
-0.0006485478431372549,0.0008263096121013276,-0.004420402436273629
-0.0006485078431372549,0.0003012125606620675,-0.003992526185465165
-0.0006484678431372549,7.148260065692469e-05,-0.004848278687083649
-0.0006484278431372549,0.0008591281778173032,-0.003729217723428708
-0.0006483878431372549,0.001088858137821973,-0.003860871954446697
-0.0006483478431372549,0.0003012125606629629,-0.00425583464750204
-0.0006483078431372549,0.0007934910463872624,-0.004486229551783521
-0.0006482678431372549,0.00059657965209714,-0.003038033010583008
-0.0006482278431372549,0.0008919467435322681,-0.005045760033610991
-0.0006481878431372549,0.00102322100639235,-0.004914105802592763
-0.0006481478431372549,0.0006950353492413655,-0.003860871954446637
-0.0006481078431372549,0.0002355754292320267,-0.00369630416567415
-0.0006480678431372549,0.0007278539149572216,-0.003992526185465165
-0.0006480278431372549,0.0008263096121022828,-0.004288748205256179
-0.0006479878431372549,0.0002355754292320267,-0.00392669906995605
-0.000647947843137255,0.0009247653092460348,-0.004584970225045995
-0.0006479078431372549,3.866403494268035e-05,-0.004190007531992807
-0.0006478678431372549,0.000465305389237114,-0.004354575320765292
-0.0006478278431372549,0.0006293982178121604,-0.004584970225047193
-0.0006477878431372549,0.0002027568635170063,-0.003630477050165036
-0.0006477478431372549,0.0005637610863815186,-0.004354575320763976
-0.0006477078431372549,0.000596579652096364,-0.004255834647500903
-0.0006476678431372549,0.0001699382978019859,-0.003860871954446936
-0.0006476278431372549,0.000465305389237114,-0.004025439743219721
-0.0006475878431372549,0.0003668496920920528,-0.004091266858728836
-0.0006475478431372549,0.0005309425206668563,-0.003795044838938361
-0.0006475078431372549,0.0008263096121020441,-0.003597563492411856
-0.0006474678431372549,0.0006950353492422012,-0.004354575320765292
-0.0006474278431372549,0.0007278539149572216,-0.003630477050165036
-0.0006473878431372549,0.00105603957210737,-0.003992526185465165
-0.0006473478431372549,0.0003668496920920528,-0.003893785512201493
-0.0006473078431372549,0.0006950353492420819,-0.004091266858728597
-0.0006472678431372549,0.0006293982178121604,-0.003959612627710607
-0.0006472278431372549,0.00105603957210737,-0.004354575320765292
-0.0006471878431372549,0.0008263096121022828,-0.003860871954446936
-0.0006471478431372549,0.00059657965209714,-0.003597563492410479
-0.000647107843137255,0.001088858137821495,-0.003893785512200954
-0.0006470678431372549,0.0008591281778173032,-0.00438748887851985
-0.0006470278431372549,0.0005309425206671547,-0.003992526185465165
-0.0006469878431372549,0.002007777977842795,-0.00415709397423795
-0.0006469478431372549,0.001220132400682417,-0.003465909261392251
-0.000646907843137255,0.001220132400682417,-0.002708897433038814
-0.0006468678431372549,0.001023221006393126,-0.003597563492408563
-0.0006468278431372549,0.001449862360687559,-0.002544329644264652
-0.0006467878431372549,0.0001699382978019859,-0.003432995703637694
-0.0006467478431372549,0.00105603957210737,-0.003432995703637694
-0.0006467078431372549,0.0008591281778176614,-0.002906378779565738
-0.0006466678431372549,0.0003340311263789427,-0.002675983875283119
-0.0006466278431372549,0.001384225229257519,-0.002807638106301108
-0.0006465878431372549,0.0008263096121022828,-0.002873465221810222
-0.0006465478431372549,0.0008591281778173032,-0.00244558897100098
-0.0006465078431372549,0.0004981239549527909,-0.00244558897100098
-0.0006464678431372549,0.0004653053892366961,-0.002412675413245465
-0.0006464278431372549,0.0002355754292320267,-0.00188605848917351
-0.0006463878431372549,0.0004981239549521344,-0.00244558897100098
-0.0006463478431372549,0.0008263096121022828,-0.001951885604682624
-0.0006463078431372549,0.0003996682578070732,-0.000832824641027682
-0.000646267843137255,0.0006293982178117426,-0.001326528007345141
-0.0006462278431372549,0.0006950353492422012,-0.00142526868060971
-0.0006461878431372549,0.00108885813782239,-0.001260700891836924
-0.0006461478431372549,0.0009247653092472885,-0.0009644788720459105
-0.0006461078431372549,0.001121676703537411,-0.002050626277946295
-0.000646067843137255,0.00056376108638319,-0.0008657381987843946
-0.0006460278431372549,0.000727853914956744,-0.0007669975255206633
-0.0006459878431372549,0.000465305389237114,-0.001918972046928067
-0.0006459478431372549,0.0006950353492422012,-0.00119487377632781
-0.0006459078431372549,0.0002355754292320267,-0.0009644788720459105
-0.0006458678431372549,0.0003012125606619481,-0.001491095796117866
-0.0006458278431372549,0.0005309425206673935,-0.001425268680608034
-0.0006457878431372549,0.0006622167835271808,-0.0005036890634821109
-0.0006457478431372549,0.001187313834967396,-0.0009644788720459105
-0.0006457078431372549,0.0006950353492422012,-0.0007999110832731249
-0.0006456678431372549,0.000334031126377689,-0.001260700891836086
-0.0006456278431372549,0.0008591281778164078,-0.0007669975255177895
-0.0006455878431372549,0.0003668496920920528,-0.0003391212747093254
-0.0006455478431372549,0.0008263096121022828,-0.0007011704100094536
-0.0006455078431372549,0.0007278539149572216,-0.001161960218573253
-0.0006454678431372549,0.001154495269252431,-0.0007011704100094536
-0.0006454278431372549,0.0005637610863824736,-0.001096133103062403
-0.0006453878431372549,0.0007278539149572216,-0.0001416399281819828
-0.0006453478431372549,0.0008591281778173032,-0.0007999110832731249
-0.0006453078431372549,0.0007934910463872624,-0.0009315653142913533
-0.0006452678431372549,0.00108885813782239,-0.0003391212747093254
-0.000645227843137255,0.000760672480672839,-0.000832824641026784
-0.0006451878431372549,0.001088858137822629,0.0002533227648716847
-0.0006451478431372549,0.001220132400682417,-0.0003062077169547683
-0.0006451078431372549,0.00059657965209714,-0.0004049483902184396
-0.0006450678431372549,0.0003996682578070732,-0.0005695161789912252
-0.0006450278431372549,0.0005965796520967818,-0.0004707755057277334
-0.0006449878431372549,0.0005309425206676323,-0.0005695161789911654
-0.0006449478431372549,0.0007934910463872624,-0.0005366026212366681
-0.0006449078431372549,0.00102322100639235,-0.0003062077169547683
-0.0006448678431372549,0.0006293982178121604,-0.0006682568522548965
-0.0006448278431372549,0.0006622167835271211,-0.0006024297367459019
-0.0006447878431372549,0.0008263096121019843,8.875497610039592e-05
-0.0006447478431372549,0.0006622167835271808,0.0003520634381363738
-0.0006447078431372549,0.0006622167835271808,-0.0002403806014456541
-0.0006446678431372549,0.000760672480672242,2.292786059080275e-05
-0.0006446278431372549,0.0006622167835271808,0.0002862363226272596
-0.0006445878431372549,0.001023221006391633,0.000220409207117846
-0.0006445478431372549,0.0006293982178121604,5.584141834535986e-05
-0.0006445078431372549,0.0008263096121022828,-0.0001745534859365399
-0.0006444678431372549,0.0001699382978019859,0.0006811990156819448
-0.0006444278431372549,0.0005309425206671547,0.0004508041114000451
-0.000644387843137255,0.0004324868235222727,-9.985697162916162e-06
-0.0006443478431372549,0.0007278539149569829,0.000483717669153764
-0.0006443078431372549,0.00059657965209714,2.292786059080275e-05
-0.0006442678431372549,0.0003668496920920528,0.0009445074777184018
-0.0006442278431372549,0.0007278539149572216,-0.0002403806014456541
-0.000644187843137255,0.001384225229256325,0.0002204092071173072
-0.0006441478431372549,0.0006622167835264645,0.0004837176691555601
-0.0006441078431372549,0.0002683939949470471,0.001010334593227516
-0.0006440678431372549,0.0005637610863821751,0.001010334593227516
-0.0006440278431372549,0.0003668496920920528,0.0002862363226272596
-0.0006439878431372549,0.0005309425206668563,0.001076161708735193
-0.0006439478431372549,0.0005637610863820558,0.00107616170873657
-0.0006439078431372549,0.0004981239549521344,0.001043248150982073
-0.0006438678431372549,0.0005309425206671547,0.00153695151730043
-0.0006438278431372549,0.0003012125606620675,0.001273643055263973
-0.0006437878431372549,0.0008591281778173032,0.001602778632809544
-0.0006437478431372549,0.001154495269251715,0.001405297286282321
-0.0006437078431372549,0.000760672480672242,0.001471124401791315
-0.0006436678431372549,0.0006622167835271808,0.002162309114637015
