Analysis/New Tests_CMB/wrd01_d2s01/cmb06_ch35.csv

#Digilent WaveForms Oscilloscope Acquisition
#Device Name: ADP3450
#Serial Number: SN:210018B9D9B0
#Date Time: 2024-06-21 15:46:16.934.349.260
#Sample rate: 2.5e+07Hz
#Samples: 32768
#Trigger: Source: Channel 3 Type: Edge Condition: Rising Level: 200 mV Hyst.: Auto HoldOff: 0 s
#Channel 1: Range: 100 mV/div Offset: -370 mV Attenuation: 1 X Coupling: DC Bandwidth: 0 Hz Sample Mode: Average
#Channel 3: Range: 100 mV/div Offset: 0 V Attenuation: 1 X Coupling: DC Bandwidth: 0 Hz Sample Mode: Average

Time (s),Channel 1 (V),Channel 3 (V)
-0.0006553456140350877,0.0008591281778173032,-0.01113476821820406
-0.0006553056140350878,0.0003996682578070732,-0.0108714597561676
-0.0006552656140350877,0.0006293982178116232,-0.01057523773637557
-0.0006552256140350877,0.0003340311263770324,-0.01001570725454911
-0.0006551856140350877,0.0009247653092472885,-0.01057523773637659
-0.0006551456140350877,3.866403494190429e-05,-0.01054232417862203
-0.0006551056140350878,0.0004981239549521344,-0.0106410648518857
-0.0006550656140350878,0.001056039572106355,-0.01034484283209523
-0.0006550256140350877,0.0006622167835275987,-0.01073980552514889
-0.0006549856140350877,0.0008919467435322681,-0.01047649706311291
-0.0006549456140350877,0.0007934910463872624,-0.0106410648518857
-0.0006549056140350878,0.00059657965209714,-0.01060815129413114
-0.0006548656140350878,0.0005637610863822349,-0.01057523773637665
-0.0006548256140350877,0.0006950353492416043,-0.009818225908023389
-0.0006547856140350877,0.0003668496920920528,-0.01070689196739481
-0.0006547456140350877,0.0004981239549521344,-0.01057523773637659
-0.0006547056140350878,0.0006950353492422012,-0.01014736148556734
-0.0006546656140350878,7.148260065805887e-05,-0.009752398792513377
-0.0006546256140350877,0.0006293982178125783,-0.01037775638984799
-0.0006545856140350877,0.0008591281778173032,-0.009686571677003543
-0.0006545456140350877,0.0003340311263770324,-0.01037775638984924
-0.0006545056140350877,0.0006622167835271808,-0.01073980552514937
-0.0006544656140350878,0.0007278539149572216,-0.01001570725454911
-0.0006544256140350877,0.0006950353492429176,-0.01050941062086651
-0.0006543856140350877,0.00108885813782239,-0.009982793696794558
-0.0006543456140350877,0.00059657965209714,-0.01027901571658557
-0.0006543056140350877,0.0005309425206671547,-0.01001570725454911
-0.0006542656140350878,0.001974959412127775,-0.009982793696794558
-0.0006542256140350878,0.00122013240068379,-0.01008153437005805
-0.0006541856140350877,0.0008263096121022828,-0.009423263214967087
-0.0006541456140350877,0.000465305389237114,-0.009686571677003543
-0.0006541056140350877,0.0006950353492422012,-0.009357436099457973
-0.0006540656140350878,0.0006622167835271808,-0.009456176772721644
-0.0006540256140350878,0.0009575838749617716,-0.009423263214967148
-0.0006539856140350877,0.0006293982178123992,-0.009620744561494369
-0.0006539456140350877,0.000760672480672242,-0.009587831003739873
-0.0006539056140350877,0.0003996682578070732,-0.008995386964157845
-0.0006538656140350878,0.001778048017837652,-0.009456176772721644
-0.0006538256140350878,0.0006622167835292105,-0.009785312350266617
-0.0006537856140350877,0.0004324868235221532,-0.008699164944367729
-0.0006537456140350877,0.000465305389237114,-0.009192868310685188
-0.0006537056140350877,0.0005637610863821751,-0.009982793696794558
-0.0006536656140350877,0.001581136623547585,-0.008337115809066702
-0.0006536256140350878,0.0003340311263793007,-0.009587831003737599
-0.0006535856140350877,0.001187313834967277,-0.009785312350265181
-0.0006535456140350877,0.001121676703537411,-0.008666251386612273
-0.0006535056140350877,0.0005309425206671547,-0.00869916494436683
-0.0006534656140350877,0.0008919467435322681,-0.009653658119248986
-0.0006534256140350878,0.00059657965209714,-0.008139634462539359
-0.0006533856140350878,0.0005637610863822349,-0.008863732733138299
-0.0006533456140350877,0.0005637610863821751,-0.008534597155594046
-0.0006533056140350877,0.0008919467435322681,-0.007711758211730118
-0.0006532656140350877,0.0006950353492422012,-0.008764992059875945
-0.0006532256140350878,0.0007278539149572216,-0.008040893789275689
-0.0006531856140350878,0.0008263096121021037,-0.007909239558257699
-0.0006531456140350877,0.0009575838749617119,-0.00813963446253888
-0.0006531056140350877,0.0006293982178121604,-0.007876326000502903
-0.0006530656140350877,0.0005637610863821751,-0.007711758211730118
-0.0006530256140350878,0.0006293982178121604,-0.00688891926786619
-0.0006529856140350878,0.0003668496920925304,-0.007218054845411163
-0.0006529456140350877,0.000859128177816945,-0.007119314172148269
-0.0006529056140350877,0.0006622167835271808,-0.007218054845411761
-0.0006528656140350877,0.0007278539149572216,-0.007020573498884419
-0.0006528256140350877,0.0009904024406773293,-0.006559783690320619
-0.0006527856140350878,0.0002027568635184389,-0.005736944746458188
-0.0006527456140350877,0.001285769532112517,-0.006164820997265754
-0.0006527056140350877,0.001318588097827478,-0.006066080324002262
-0.0006526656140350877,0.0006293982178121604,-0.00540780916891112
-0.0006526256140350877,0.001187313834967396,-0.005934426092984033
-0.0006525856140350878,0.0003996682578070732,-0.005539463399929348
-0.0006525456140350878,0.0006950353492416639,-0.004321661763012951
-0.0006525056140350877,0.0007934910463872624,-0.004552056667292635
-0.0006524656140350877,0.0006950353492422012,-0.003762131281183265
-0.0006524256140350877,0.0008263096121022828,-0.003959612627710607
-0.0006523856140350878,0.001252950966397437,-0.003893785512201493
-0.0006523456140350878,0.001318588097827358,-0.003531736376902023
-0.0006523056140350877,0.0006950353492431564,-0.003038033010581691
-0.0006522656140350877,0.001220132400682417,-0.002313934739982752
-0.0006522256140350877,0.0006950353492422012,-0.001721490700400724
-0.0006521856140350878,0.0006622167835271808,-0.00267598387528288
-0.0006521456140350878,0.001187313834966441,-0.002215194066719919
-0.0006521056140350877,0.0008263096121019843,-0.002248107624473279
-0.0006520656140350877,0.0006622167835271808,-0.002050626277946295
-0.0006520256140350877,0.0004324868235220936,-0.001721490700400724
-0.0006519856140350877,0.00108885813782239,-0.001227787334082367
-0.0006519456140350878,0.0007934910463877998,-0.0008657381987828977
-0.0006519056140350877,0.0008263096121022828,-0.0008657381987812214
-0.0006518656140350877,0.0008263096121022828,-0.0003062077169547683
-0.0006518256140350877,0.0003340311263770324,0.000417890553645488
-0.0006517856140350877,0.0009247653092472885,0.0008457668044547304
-0.0006517456140350878,0.0003668496920920528,0.001043248150982073
-0.0006517056140350877,0.0009247653092474676,0.0008457668044555686
-0.0006516656140350877,0.00102322100639235,0.00130655661301853
-0.0006516256140350877,0.000760672480672242,0.00153695151730043
-0.0006515856140350877,0.0003996682578070732,0.001569865075054987
-0.0006515456140350878,0.0006622167835271808,0.002359790461164357
-0.0006515056140350878,0.0002683939949477634,0.002754753154218324
-0.0006514656140350877,0.0008919467435310144,0.003018061616255619
-0.0006514256140350877,0.0002027568635170063,0.003083888731764614
-0.0006513856140350877,0.00102322100639235,0.003511764982573856
-0.0006513456140350878,0.0001371197320869655,0.00357759209808297
-0.0006513056140350878,0.0007606724806711078,0.003873814117873445
-0.0006512656140350877,0.0003340311263768533,0.003742159886854678
-0.0006512256140350877,0.0002355754292320267,0.003149715847273728
-0.0006511856140350877,0.0005309425206671547,0.004630825946228797
-0.0006511456140350878,0.0009575838749623089,0.004466258157456012
-0.0006511056140350878,0.0005309425206679308,0.004532085272965006
-0.0006510656140350877,0.0007934910463879191,0.00413712257991092
-0.0006510256140350877,0.001154495269252431,0.004400431041946898
-0.0006509856140350877,0.001482680926402524,0.004499171715210569
-0.0006509456140350877,0.0007934910463872624,0.004202949695419555
-0.0006509056140350878,0.001252950966397437,0.004334603926437783
-0.0006508656140350877,0.001548318057830595,0.004532085272966504
-0.0006508256140350877,0.000465305389237114,0.00528909710131994
-0.0006507856140350877,0.001154495269252431,0.002458531134428029
-0.0006507456140350877,0.001679592320692647,0.005486578447847282
-0.0006507056140350878,0.0009247653092472885,0.00700060210455691
-0.0006506656140350878,0.001679592320691274,0.001800259979346346
-0.0006506256140350877,0.00059657965209714,0.004235863253174112
-0.0006505856140350877,0.0004981239549521344,0.004499171715210569
-0.0006505456140350877,0.001285769532112457,0.004762480177247026
-0.0006505056140350878,0.001154495269252431,0.004795393735001583
-0.0006504656140350878,0.0006950353492430369,0.00423586325317513
-0.0006504256140350877,0.0009904024406772697,0.004532085272965425
-0.0006503856140350877,0.0009575838749623089,0.004696653061737912
-0.0006503456140350877,0.0005637610863821751,0.004992875081528926
-0.0006503056140350878,0.000760672480672242,0.004630825946228797
-0.0006502656140350878,0.0006950353492423206,0.004499171715210809
-0.0006502256140350877,0.0008263096121027007,0.004532085272965366
-0.0006501856140350877,0.00105603957210737,0.004663739503983355
-0.0006501456140350877,0.001187313834967396,0.004499171715210569
-0.0006501056140350877,0.0003012125606620675,0.00426877681092867
-0.0006500656140350878,0.001056039572105997,0.004400431041946659
-0.0006500256140350877,0.0009904024406770906,0.004038381906647069
-0.0006499856140350877,0.0008591281778173032,0.004202949695419555
-0.0006499456140350877,0.000760672480672242,0.004301690368683227
-0.0006499056140350877,0.0009575838749623089,0.00403838190664677
-0.0006498656140350878,0.0006293982178121604,0.003676332771346642
-0.0006498256140350878,0.0007934910463869639,0.003840900560119128
-0.0006497856140350877,0.0005637610863821751,0.003709246329101199
-0.0006497456140350877,0.0006622167835271808,0.004005468348892213
-0.0006497056140350877,0.0007934910463872624,0.003478851424819299
-0.0006496656140350878,0.00105603957210737,0.003775073444610313
-0.0006496256140350878,0.0008591281778176614,0.003873814117873805
-0.0006495856140350877,0.0007934910463881579,0.003676332771346462
-0.0006495456140350877,0.001285769532112457,0.00357759209808297
-0.0006495056140350877,0.0008263096121022828,0.003643419213592085
-0.0006494656140350878,0.0003668496920920528,0.003610505655837527
-0.0006494256140350878,0.0008263096121014471,0.003215542962783561
-0.0006493856140350877,0.0004981239549524926,0.003610505655836929
-0.0006493456140350877,0.0006950353492422012,0.003281370078291956
-0.0006493056140350877,0.0007278539149572216,0.003478851424819299
-0.0006492656140350877,0.0003012125606620675,0.003380110751555628
-0.0006492256140350878,0.000793491046386367,0.003676332771346102
-0.0006491856140350877,0.0008591281778167063,0.003050975174010835
-0.0006491456140350877,0.0005309425206671547,0.003478851424819299
-0.0006491056140350877,5.845469226939404e-06,0.003380110751555628
-0.0006490656140350877,0.00108885813782239,0.003083888731764614
-0.0006490256140350878,0.0003668496920920528,0.002853493827482714
-0.0006489856140350877,0.0005637610863824736,0.003018061616256877
-0.0006489456140350877,0.0007278539149572216,0.003775073444610313
-0.0006489056140350877,0.0002355754292320267,0.002886407385237271
-0.0006488656140350877,7.148260065692469e-05,0.002754753154219042
-0.0006488256140350878,0.001351406663542498,0.00426877681092867
-0.0006487856140350878,0.0004324868235237651,0.00235979046116783
-0.0006487456140350877,0.000465305389237114,0.003182629405029183
-0.0006487056140350877,0.000465305389237114,0.003676332771346642
-0.0006486656140350877,0.0002683939949470471,0.003149715847273728
-0.0006486256140350878,0.0001371197320869655,0.003083888731764614
-0.0006485856140350878,0.000301212560661769,0.003314283636046095
-0.0006485456140350877,0.001088858137821853,0.003445937867065041
-0.0006485056140350877,0.0007934910463872624,0.003610505655837527
-0.0006484656140350877,0.000465305389237114,0.003116802289519171
-0.0006484256140350877,0.0004324868235220936,0.002919320942991828
-0.0006483856140350878,0.0008591281778165271,0.003380110751554789
-0.0006483456140350877,0.0007934910463870237,0.003248456520536382
-0.0006483056140350877,0.0006622167835271808,0.002688926038709928
-0.0006482656140350877,0.0004324868235220936,0.003478851424819299
-0.0006482256140350877,0.0008919467435322681,0.003445937867064742
-0.0006481856140350878,0.0006622167835271808,0.002656012480955371
-0.0006481456140350877,0.0007606724806725405,0.002919320942992906
-0.0006481056140350877,0.0009247653092472885,0.003511764982573856
-0.0006480656140350877,0.0006622167835271808,0.0030180616162555
-0.0006480256140350877,-5.979166220310139e-05,0.003116802289519171
-0.0006479856140350878,0.0006622167835271808,0.003050975174010056
-0.0006479456140350878,0.0005965796520972594,0.003149715847273548
-0.0006479056140350877,0.0008263096121032976,0.003314283636046514
-0.0006478656140350877,0.001384225229257519,0.003314283636046514
-0.0006478256140350877,0.0003668496920920528,0.002721839596464486
-0.0006477856140350878,0.0006950353492422012,0.003116802289519171
-0.0006477456140350878,0.0002027568635179017,0.002656012480956209
-0.0006477056140350877,0.0003012125606623063,0.002392704018919753
-0.0006476656140350877,0.0004324868235220936,0.002853493827482714
-0.0006476256140350877,0.001121676703537411,0.0027876667119736
-0.0006475856140350878,0.00102322100639235,0.002590185365446257
-0.0006475456140350878,0.0006293982178128768,0.002623098923200754
-0.0006475056140350877,0.0008919467435317309,0.002425617576674669
-0.0006474656140350877,0.00059657965209714,0.003083888731764614
-0.0006474256140350877,0.0004981239549521344,0.003445937867064742
-0.0006473856140350877,0.0003996682578070732,0.002129395556882458
-0.0006473456140350878,0.0008263096121022828,0.003643419213592085
-0.0006473056140350877,0.0008591281778166465,0.002326876903408364
-0.0006472656140350877,0.0004981239549521344,0.00153695151730043
-0.0006472256140350877,0.0008591281778173032,0.003511764982573856
-0.0006471856140350877,0.0002027568635170063,0.002261049787900686
-0.0006471456140350878,0.000760672480672242,0.003380110751555628
-0.0006471056140350878,0.0007278539149572814,0.003050975174010655
-0.0006470656140350877,0.0006950353492422012,0.002063568441373343
-0.0006470256140350877,0.00105603957210737,0.0023268769034098
-0.0006469856140350877,0.0004324868235220936,0.002853493827482714
-0.0006469456140350878,0.000465305389237114,0.002293963345655243
-0.0006469056140350878,0.0007606724806717047,0.002754753154218204
-0.0006468656140350877,0.0007934910463868446,0.003083888731764674
-0.0006468256140350877,0.0005637610863821751,0.003116802289519171
-0.0006467856140350877,0.001384225229257519,0.002623098923200814
-0.0006467456140350878,0.00059657965209714,0.0030180616162555
-0.0006467056140350878,0.0008591281778168256,0.002392704018920052
-0.0006466656140350877,0.001220132400681879,0.00275475315422024
-0.0006466256140350877,0.0009247653092472885,0.003413024309310185
-0.0006465856140350877,0.0008263096121022828,0.0030180616162555
-0.0006465456140350877,0.0009247653092472885,0.002853493827482714
-0.0006465056140350878,0.0008919467435323278,0.002853493827482714
-0.0006464656140350877,0.001088858137821376,0.002590185365447155
-0.0006464256140350877,0.0005309425206671547,0.003083888731764614
-0.0006463856140350877,0.0007278539149572216,0.003347197193801071
-0.0006463456140350877,0.0007934910463872624,0.002985148058500942
-0.0006463056140350878,0.0006950353492422012,0.00357759209808297
-0.0006462656140350878,0.0006622167835272406,0.003643419213591965
-0.0006462256140350877,0.000760672480672242,0.003840900560119427
-0.0006461856140350877,0.0003996682578070732,0.003775073444610313
-0.0006461456140350877,0.0006622167835271808,0.004564998830719684
-0.0006461056140350878,0.0002027568635170063,0.005322010659074497
-0.0006460656140350878,0.0007606724806712272,0.004170036137667094
-0.0006460256140350877,0.0002027568635180211,0.004400431041947317
-0.0006459856140350877,0.000760672480672242,0.004630825946228797
-0.0006459456140350877,0.0006622167835271808,0.004762480177247026
-0.0006459056140350878,0.0006293982178121604,0.004992875081528926
-0.0006458656140350878,0.0006622167835271211,0.004795393735001942
-0.0006458256140350877,0.0006622167835271808,0.005190356428055311
-0.0006457856140350877,0.0006622167835271808,0.004663739503983355
-0.0006457456140350877,0.001285769532112457,0.005552405563356397
-0.0006457056140350877,0.001121676703537411,0.004597912388474241
-0.0006456656140350878,0.0003668496920934258,0.005618232678863654
-0.0006456256140350877,0.0009904024406764936,0.005914454698656345
-0.0006455856140350877,0.0005309425206671547,0.005815714025392853
-0.0006455456140350877,0.001384225229257519,0.005223269985810825
-0.0006455056140350877,0.0005637610863821751,0.00607902248742931
-0.0006454656140350878,0.0005637610863821751,0.005025788639283483
-0.0006454256140350877,0.0007606724806718838,0.007593046144136483
-0.0006453856140350877,0.0005637610863821751,0.006243590276202096
-0.0006453456140350877,0.0005637610863821751,0.005387837774583611
-0.0006453056140350877,0.001154495269252431,0.007428478355366152
-0.0006452656140350878,0.0007278539149572216,0.004564998830719684
-0.0006452256140350878,0.000695035349242261,0.00591445469865407
-0.0006451856140350877,0.0005965796520982742,0.007494305470872812
-0.0006451456140350877,0.001220132400682417,0.006144849602938425
-0.0006451056140350877,0.0003996682578070732,0.006671466527011338
-0.0006450656140350878,0.0002027568635170063,0.007658873259648051
-0.0006450256140350878,0.001220132400680566,0.007000602104558107
-0.0006449856140350877,0.0006293982178125783,0.007066429220066622
-0.0006449456140350877,0.0008591281778173032,0.007395564797611595
-0.0006449056140350877,0.0003668496920920528,0.007757613932911723
-0.0006448656140350877,0.0009575838749623089,0.007593046144138938
-0.0006448256140350878,0.0006622167835277182,0.007757613932911423
-0.0006447856140350877,0.0007278539149578783,0.008317144414738414
-0.0006447456140350877,0.00108885813782239,0.007889268163929951
-0.0006447056140350877,0.0009904024406773293,0.008580452876775651
-0.0006446656140350877,0.0007934910463872624,0.008086749510457293
-0.0006446256140350878,0.0006293982178121604,0.008547539319021094
-0.0006445856140350877,0.0006293982178130559,0.008745020665548376
-0.0006445456140350877,0.001121676703537411,0.00871210710779388
-0.0006445056140350877,0.0004981239549521344,0.008547539319021094
-0.0006444656140350877,0.00059657965209714,0.008745020665548437
-0.0006444256140350878,0.0006293982178121604,0.009469118936148692
-0.0006443856140350878,0.0006293982178121604,0.009600773167166681
-0.0006443456140350877,0.0008591281778170047,0.009567859609411944
-0.0006443056140350877,0.0006950353492422012,0.009337464705130465
-0.0006442656140350877,0.0005637610863821751,0.009469118936148692
-0.0006442256140350878,0.0003668496920920528,0.009995735860221606
-0.0006441856140350878,0.0008919467435313129,0.009864081629203617
-0.0006441456140350877,0.0007934910463874415,0.009896995186957218
-0.0006441056140350877,0.0008919467435322681,0.00950203249390325
-0.0006440656140350877,0.0004981239549521344,0.009995735860221606
-0.0006440256140350878,0.0007278539149572216,0.00950203249390325
-0.0006439856140350878,0.0009904024406768518,0.009896995186957218
-0.0006439456140350877,0.0009904024406784037,0.01035778499552155
-0.0006439056140350877,0.001581136623547585,0.01025904432225806
-0.0006438656140350877,0.0006622167835271808,0.01052235278429452
-0.0006438256140350877,0.0008919467435322681,0.01022613076450351
-0.0006437856140350878,0.00108885813782239,0.01075274768857642
-0.0006437456140350877,0.0004981239549523135,0.01118062393938488
-0.0006437056140350877,0.00059657965209714,0.01075274768857642
-0.0006436656140350877,0.000465305389237114,0.01016030364899439
-0.0006436256140350877,0.0008263096121022828,0.01091731547734921
-0.0006435856140350878,0.0005637610863821751,0.01088440191959465
-0.0006435456140350878,0.0005309425206672145,0.01085148836184015
