Analysis/New Tests_CMB/wrd01_d2s01/cmb07_ch22.csv

#Digilent WaveForms Oscilloscope Acquisition
#Device Name: ADP3450
#Serial Number: SN:210018B9D9B0
#Date Time: 2024-08-07 10:31:02.618.106.450
#Sample rate: 2.94118e+06Hz
#Samples: 32768
#Trigger: Source: Channel 3 Type: Edge Condition: Rising Level: 0 V Hyst.: Auto HoldOff: 0 s
#Channel 3: Range: 200 mV/div Offset: 0 V Attenuation: 1 X Coupling: DC Bandwidth: 0 Hz Sample Mode: Average

Time (s),Channel 3 (V)
-0.005570438113207548,0.02957930272418309
-0.005570098113207547,0.0280652790674713
-0.005569758113207548,0.0268803909883094
-0.005569418113207548,0.0250372317540542
-0.005569078113207547,0.02349029453958727
-0.005568738113207548,0.02197627088288039
-0.005568398113207548,0.02023185232188887
-0.005568058113207547,0.01871782866517685
-0.005567718113207548,0.01740128635499695
-0.005567378113207548,0.01730254568173328
-0.005567038113207547,0.01717089145071488
-0.005566698113207548,0.01707215077745139
-0.005566358113207548,0.01697341010418771
-0.005566018113207547,0.01700632366194245
-0.005565678113207548,0.01710506433520594
-0.005565338113207548,0.01694049654643316
-0.005564998113207547,0.0157885220250206
-0.005564658113207548,0.01410993057954124
-0.005564318113207548,0.01200346288324959
-0.005563978113207547,0.01002864941797209
-0.005563638113207548,0.00779052749066628
-0.005563298113207548,0.006473985180483996
-0.005562958113207548,0.006243590276202515
-0.005562618113207548,0.006605639411502225
-0.005562278113207548,0.007395564797611595
-0.005561938113207548,0.008613366434527992
-0.005561598113207548,0.009567859609412364
-0.005561258113207548,0.01062109345755819
-0.005560918113207548,0.01042361211103121
-0.005560578113207548,0.00973242739818515
-0.005560238113207548,0.009172896916357679
-0.005559898113207548,0.008481712203513236
-0.005559558113207548,0.007988008837193623
-0.005559218113207548,0.007625959701893495
-0.005558878113207548,0.006342330949468102
-0.005558538113207548,0.005124529312547154
-0.005558198113207548,0.003775073444610313
-0.005557858113207548,0.002590185365448412
-0.005557518113207548,0.002096481999127901
-0.005557178113207548,0.001141988824245744
-0.005556838113207548,0.0005166312269102969
-0.005556498113207547,0.0001545820916090312
-0.005556158113207548,0.000714112573436502
-0.005555818113207548,0.001174902381999463
-0.005555478113207547,0.002162309114637015
-0.005555138113207548,0.002590185365446257
-0.005554798113207548,0.002952234500745727
-0.005554458113207547,0.002754753154219042
-0.005554118113207548,0.002063568441373343
-0.005553778113207548,0.001109075266491187
-0.005553438113207547,0.0006153719001728307
-0.005553098113207548,0.0001874956493635883
-0.005552758113207548,-0.0005695161789912252
-0.005552418113207547,-0.0006682568522548965
-0.005552078113207548,-0.0006024297367457822
-0.005551738113207548,-0.0004049483902184396
-0.005551398113207547,0.0002862363226287563
-0.005551058113207548,0.001109075266491187
-0.005550718113207548,0.001866087094846001
-0.005550378113207547,0.00242561757667443
-0.005550038113207548,0.002952234500746385
-0.005549698113207548,0.003314283636046514
-0.005549358113207547,0.003939641233384116
-0.005549018113207548,0.004499171715210569
-0.005548678113207548,0.004466258157456012
-0.005548338113207547,0.004071295464400609
-0.005547998113207548,0.003676332771346642
-0.005547658113207548,0.003248456520537399
-0.005547318113207547,0.002359790461162741
-0.005546978113207548,0.001471124401791315
-0.005546638113207548,0.000417890553645488
-0.005546298113207547,-0.0002403806014469114
-0.005545958113207548,-0.0009315653142913533
-0.005545618113207548,-0.001326528007346039
-0.005545278113207547,-0.001129046660818457
-0.005544938113207548,-0.0009973924298004675
-0.005544598113207548,-0.001030305987555025
-0.005544258113207547,-0.0001416399281816834
-0.005543918113207548,2.292786059080275e-05
-0.005543578113207548,0.0002533227648727025
-0.005543238113207547,0.0003191498803806193
-0.005542898113207548,-0.0003391212747093254
-0.005542558113207548,-0.000832824641027682
-0.005542218113207548,-0.002182280508962069
-0.005541878113207548,-0.003268427914864908
-0.005541538113207548,-0.00369630416567415
-0.005541198113207548,-0.003630477050165156
-0.005540858113207548,-0.002807638106301108
-0.005540518113207548,-0.001820231373664395
-0.005540178113207548,-0.0009315653142929698
-0.005539838113207548,0.0003191498803818167
-0.005539498113207548,0.001010334593227516
-0.005539158113207548,0.00143821084403598
-0.005538818113207548,0.001569865075054987
-0.005538478113207548,0.001997741325864229
-0.005538138113207548,0.001899000652600737
-0.005537798113207548,0.001438210844036758
-0.005537458113207548,0.0002533227648727025
-0.005537118113207548,-0.0008657381987802037
-0.005536778113207548,-0.001458182238364267
-0.005536438113207548,-0.001984799162437181
-0.005536098113207548,-0.002412675413245645
-0.005535758113207548,-0.00244558897100098
-0.005535418113207548,-0.001556922911627938
-0.005535078113207548,-0.001458182238364447
-0.005534738113207547,-0.001688577142646167
-0.005534398113207548,-0.00142526868060971
-0.005534058113207548,-0.0009973924298012457
-0.005533718113207547,-0.001063219545309582
-0.005533378113207548,-0.00119487377632781
-0.005533038113207548,-0.001260700891836924
-0.005532698113207547,-0.001524009353873381
-0.005532358113207548,-0.001589836469382495
-0.005532018113207548,-0.001359441565100596
-0.005531678113207547,-0.00119487377632781
-0.005531338113207548,-0.001096133103064139
-0.005530998113207548,-0.00165566358489161
-0.005530658113207547,-0.001754404258155281
-0.005530318113207548,-0.002050626277946295
-0.005529978113207548,-0.002577243202019209
-0.005529638113207547,-0.002774724548546731
-0.005529298113207548,-0.002873465221810222
-0.005528958113207548,-0.003268427914864908
-0.005528618113207547,-0.004486229551784598
-0.005528278113207548,-0.005078673591365549
-0.005527938113207548,-0.005835685419720362
-0.005527598113207547,-0.005967339650738411
-0.005527258113207548,-0.00586859897747492
-0.005526918113207548,-0.00517741426462922
-0.005526578113207547,-0.005539463399927492
-0.005526238113207548,-0.004519143109538078
-0.005525898113207548,-0.004321661763010735
-0.005525558113207547,-0.003893785512201672
-0.005525218113207548,-0.003992526185465165
-0.005524878113207548,-0.00369630416567415
-0.005524538113207547,-0.003531736376901724
-0.005524198113207548,-0.003729217723428708
-0.005523858113207548,-0.00392669906995605
-0.005523518113207547,-0.003827958396692379
-0.005523178113207548,-0.003827958396692379
-0.005522838113207548,-0.00392669906995605
-0.005522498113207547,-0.003926699069955093
-0.005522158113207548,-0.003400082145883136
-0.005521818113207548,-0.003103860126092122
-0.005521478113207547,-0.002445588970999064
-0.005521138113207548,-0.001392355122855153
-0.005520798113207548,-0.0005695161789912252
-0.005520458113207548,0.0001545820916077141
-0.005520118113207548,5.584141834535986e-05
-0.005519778113207548,-0.0007340839677640107
-0.005519438113207548,-0.001524009353871945
-0.005519098113207548,-0.00244558897100098
-0.005518758113207548,-0.003564649934655922
-0.005518418113207548,-0.00346590926139243
-0.005518078113207548,-0.003893785512201493
-0.005517738113207548,-0.003827958396692379
-0.005517398113207548,-0.003795044838937881
-0.005517058113207548,-0.003762131281183265
-0.005516718113207548,-0.003103860126092122
-0.005516378113207548,-0.002577243202020167
-0.005516038113207548,-0.002281021182228195
-0.005515698113207548,-0.00290637877956478
-0.005515358113207548,-0.003268427914864249
-0.005515018113207548,-0.004025439743219721
-0.005514678113207548,-0.004552056667292635
-0.005514338113207548,-0.004486229551783641
-0.005513998113207547,-0.004782451571574535
-0.005513658113207548,-0.00438748887851985
-0.005513318113207548,-0.004486229551783342
-0.005512978113207547,-0.004815365129329092
-0.005512638113207548,-0.004584970225047193
-0.005512298113207548,-0.004190007531992507
-0.005511958113207547,-0.003795044838937822
-0.005511618113207548,-0.002774724548546551
-0.005511278113207548,-0.001589836469382495
-0.005510938113207547,-0.0003720348324638825
-0.005510598113207548,0.0007470261311910591
-0.005510258113207548,0.001635692190564101
-0.005509918113207547,0.002656012480955371
-0.005509578113207548,0.002820580269728157
-0.005509238113207548,0.0025572718076917
-0.005508898113207547,0.002326876903409022
-0.005508558113207548,0.001899000652600558
-0.005508218113207548,0.001010334593227516
-0.005507878113207547,-0.000536602621239003
-0.005507538113207548,-0.001820231373664395
-0.005507198113207548,-0.002873465221810222
-0.005506858113207547,-0.003235514357110112
-0.005506518113207548,-0.003103860126092122
-0.005506178113207548,-0.002840551664055666
-0.005505838113207547,-0.002840551664055726
-0.005505498113207548,-0.002873465221810222
-0.005505158113207548,-0.003070946568337565
-0.005504818113207547,-0.003597563492411736
-0.005504478113207548,-0.004288748205256179
-0.005504138113207548,-0.004617883782801749
-0.005503798113207547,-0.005045760033611291
-0.005503458113207548,-0.005210327822383777
-0.005503118113207548,-0.005210327822383777
-0.005502778113207547,-0.005210327822384076
-0.005502438113207548,-0.005374895611156563
-0.005502098113207548,-0.005045760033610991
-0.005501758113207547,-0.004222921089744969
-0.005501418113207548,-0.003070946568337565
-0.005501078113207548,-0.00119487377632781
-0.005500738113207547,0.0001874956493659831
-0.005500398113207548,0.001504037959545873
-0.005500058113207548,0.002886407385237271
-0.005499718113207548,0.002787666711973779
-0.005499378113207548,0.002590185365446257
-0.005499038113207548,0.001899000652600558
-0.005498698113207548,0.0001874956493667014
-0.005498358113207548,-0.001853144931418952
-0.005498018113207548,-0.003103860126092122
-0.005497678113207548,-0.00395961262770905
-0.005497338113207548,-0.004979932918101878
-0.005496998113207548,-0.004683710898310864
-0.005496658113207548,-0.004387488878520389
-0.005496318113207548,-0.003235514357110351
-0.005495978113207548,-0.001918972046928067
-0.005495638113207548,-0.0007340839677661662
-0.005495298113207548,0.0005495447846637165
-0.005494958113207548,0.001701519306073215
-0.005494618113207548,0.002096481999127182
-0.005494278113207548,0.002293963345655243
-0.005493938113207548,0.001931914210355115
-0.005493598113207548,0.0008128532467022087
-0.005493258113207547,-0.0003391212747093254
-0.005492918113207548,-0.002149366951209966
-0.005492578113207548,-0.003432995703635359
-0.005492238113207547,-0.004716624456065421
-0.005491898113207548,-0.005638204073193019
-0.005491558113207548,-0.00527615493789355
-0.005491218113207547,-0.004848278687083649
-0.005490878113207548,-0.003959612627710607
-0.005490538113207548,-0.002939292337319337
-0.005490198113207547,-0.001853144931418952
-0.005489858113207548,-0.0007340839677640107
-0.005489518113207548,-0.000832824641027682
-0.005489178113207547,-0.001096133103064139
-0.005488838113207548,-0.001622750027137053
-0.005488498113207548,-0.001853144931418952
-0.005488158113207547,-0.002215194066719559
-0.005487818113207548,-0.002478502528755537
-0.005487478113207548,-0.003400082145883136
-0.005487138113207547,-0.004453315994030401
-0.005486798113207548,-0.005243241380138334
-0.005486458113207548,-0.005967339650738591
-0.005486118113207547,-0.006823092152358273
-0.005485778113207548,-0.007481363307448217
-0.005485438113207548,-0.007744671769484675
-0.005485098113207547,-0.00715222772990091
-0.005484758113207548,-0.00619773455502049
-0.005484418113207548,-0.00494701936034732
-0.005484078113207547,-0.003531736376897892
-0.005483738113207548,-0.001622750027137053
-0.005483398113207548,-0.001096133103064139
-0.005483058113207547,2.292786059092249e-05
-0.005482718113207548,8.875497609991696e-05
-0.005482378113207548,8.875497609991696e-05
-0.005482038113207547,-0.0006024297367469198
-0.005481698113207548,-0.001227787334082367
-0.005481358113207548,-0.001984799162437181
-0.005481018113207547,-0.002873465221810821
-0.005480678113207548,-0.003202600799355794
-0.005480338113207548,-0.003005119452828451
-0.005479998113207547,-0.002675983875282341
-0.005479658113207548,-0.002379761855491866
-0.005479318113207548,-0.00188605848917351
-0.005478978113207548,-0.0009644788720475869
-0.005478638113207548,-0.0004049483902184396
-0.005478298113207548,8.875497609991696e-05
-0.005477958113207548,-7.581281267256924e-05
-0.005477618113207548,-4.289925491831147e-05
-0.005477278113207548,-0.0004049483902184396
-0.005476938113207548,-0.0009644788720448927
-0.005476598113207548,-0.001984799162437181
-0.005476258113207548,-0.002050626277946295
-0.005475918113207548,-0.00234684829773677
-0.005475578113207548,-0.003070946568337565
-0.005475238113207548,-0.003630477050165036
-0.005474898113207548,-0.003432995703638053
-0.005474558113207548,-0.003169687241601236
-0.005474218113207548,-0.002939292337319337
-0.005473878113207548,-0.002478502528756376
-0.005473538113207548,-0.00267598387528288
-0.005473198113207548,-0.00313677368384668
-0.005472858113207548,-0.003926699069954613
-0.005472518113207548,-0.006526870132566062
-0.005472178113207548,-0.01320832235674115
-0.005471838113207548,-0.02538633872590513
-0.005471498113207547,-0.045397781840698
-0.005471158113207548,-0.07265020766147129
-0.005470818113207548,-0.1044447044523156
-0.005470478113207547,-0.1375228299957034
-0.005470138113207548,-0.1683628336117234
-0.005469798113207548,-0.1955823458747421
-0.005469458113207547,-0.2170748990884679
-0.005469118113207548,-0.2322809627710733
-0.005468778113207548,-0.2412663640380674
-0.005468438113207547,-0.2461046570279873
-0.005468098113207548,-0.2468616688563421
-0.005467758113207548,-0.2451172502953505
-0.005467418113207547,-0.2408384877872581
-0.005467078113207548,-0.2360001947973382
-0.005466738113207548,-0.2301086679592725
-0.005466398113207547,-0.2233943021773299
-0.005466058113207548,-0.2162849737023585
-0.005465718113207548,-0.2086490283033013
-0.005465378113207547,-0.201539699828305
-0.005465038113207548,-0.1949899018351601
-0.005464698113207548,-0.1882097089377213
-0.005464358113207547,-0.1817915651755694
-0.005464018113207548,-0.1745176689118255
-0.005463678113207548,-0.1681982658229506
-0.005463338113207547,-0.1625042203314017
-0.005462998113207548,-0.1567443477243647
-0.005462658113207548,-0.1516427462724083
-0.005462318113207547,-0.1469361075135006
-0.005461978113207548,-0.1436118381802964
-0.005461638113207548,-0.1393989027877131
-0.005461298113207547,-0.1358113249924584
-0.005460958113207548,-0.1314338218111103
-0.005460618113207548,-0.1270234050719996
-0.005460278113207547,-0.1223167663130895
-0.005459938113207548,-0.1176430411119509
-0.005459598113207548,-0.1133642786038584
-0.005459258113207547,-0.1095133923465681
-0.005458918113207548,-0.1055966789737829
-0.005458578113207548,-0.1009229537726359
-0.005458238113207547,-0.0967429319377999
-0.005457898113207548,-0.09279330500726024
-0.005457558113207548,-0.08887659163446796
-0.005457218113207548,-0.08561814941677272
-0.005456878113207548,-0.08232679364131107
-0.005456538113207548,-0.07972662257870106
-0.005456198113207548,-0.07669857526528732
-0.005455858113207548,-0.07429588554919914
-0.005455518113207548,-0.07169571448658912
-0.005455178113207548,-0.06909554342398384
-0.005454838113207548,-0.06698907572768747
-0.005454498113207548,-0.06481678091588669
-0.005454158113207548,-0.06294070812388036
-0.005453818113207548,-0.06034053706126693
-0.005453478113207548,-0.05774036599865692
-0.005453138113207548,-0.05530476272482412
-0.005452798113207548,-0.05227671541140044
-0.005452458113207548,-0.04967654434879043
-0.005452118113207548,-0.04727385463271213
-0.005451778113207548,-0.04536486828294345
-0.005451438113207548,-0.04355462260644281
-0.005451098113207548,-0.0425013887582989
-0.005450758113207547,-0.04167854981443305
-0.005450418113207548,-0.04092153798607824
-0.005450078113207548,-0.03967082279140734
-0.005449738113207547,-0.03904546519406848
-0.005449398113207548,-0.03779474999939531
-0.005449058113207548,-0.03710356528655087
-0.005448718113207547,-0.03614907211166746
-0.005448378113207548,-0.03489835691699429
-0.005448038113207548,-0.03397677729986669
-0.005447698113207547,-0.03348307393354833
-0.005447358113207548,-0.03328559258702099
-0.005447018113207548,-0.03377929595333935
-0.005446678113207547,-0.03377929595333935
-0.005446338113207548,-0.03269314854743896
-0.005445998113207548,-0.03154117402602946
-0.005445658113207547,-0.03061959440890078
-0.005445318113207548,-0.03002715036931984
-0.005444978113207548,-0.02897391652117401
-0.005444638113207547,-0.0275915470954789
-0.005444298113207548,-0.02555090651470007
-0.005443958113207548,-0.02351026593391753
-0.005443618113207547,-0.0216341931419037
-0.005443278113207548,-0.01939607121459789
-0.005442938113207548,-0.01705920861402434
-0.005442598113207547,-0.01587432053485866
-0.005442258113207548,-0.01498565447548724
-0.005441918113207548,-0.01505148159099635
-0.005441578113207547,-0.01534770361078772
-0.005441238113207548,-0.01554518495731471
-0.005440898113207548,-0.01538061716854192
-0.005440558113207547,-0.01455777822467728
-0.005440218113207548,-0.01416281553162331
-0.005439878113207548,-0.01343871726102305
-0.005439538113207547,-0.01284627322144115
-0.005439198113207548,-0.01291210033695014
-0.005438858113207548,-0.01304375456796837
-0.005438518113207547,-0.01340580370326868
-0.005438178113207548,-0.01350454437653217
-0.005437838113207548,-0.01268170543266824
-0.005437498113207547,-0.01215508850859509
-0.005437158113207548,-0.0120234342775771
-0.005436818113207548,-0.01103602754494038
-0.005436478113207548,-0.01110185466044938
-0.005436138113207548,-0.01166138514227697
-0.005435798113207548,-0.01261587831715913
-0.005435458113207548,-0.01333997658775807
-0.005435118113207548,-0.01376785283856862
-0.005434778113207548,-0.01320832235674115
-0.005434438113207548,-0.01169429870003428
-0.005434098113207548,-0.009851139465776329
-0.005433758113207548,-0.007645931096221003
-0.005433418113207548,-0.005802771861969157
-0.005433078113207548,-0.005374895611156563
-0.005432738113207548,-0.004749538013819977
-0.005432398113207548,-0.004420402436275005
-0.005432058113207548,-0.004519143109538078
-0.005431718113207548,-0.00494701936034732
-0.005431378113207548,-0.00507867359136531
-0.005431038113207548,-0.005045760033610991
-0.005430698113207548,-0.005572376957683906
-0.005430358113207548,-0.005078673591366447
-0.005430018113207548,-0.00494701936034732
-0.005429678113207548,-0.005539463399929348
-0.005429338113207548,-0.005671117630947338
-0.005428998113207547,-0.005769858304211248
-0.005428658113207548,-0.005835685419720362
-0.005428318113207548,-0.005835685419720362
-0.005427978113207547,-0.005704031188702134
-0.005427638113207548,-0.005901512535229476
-0.005427298113207548,-0.00619773455502049
-0.005426958113207547,-0.006263561670529605
-0.005426618113207548,-0.006263561670529605
-0.005426278113207548,-0.006033166766247705
-0.005425938113207547,-0.005704031188702134
-0.005425598113207548,-0.005309068495647449
-0.005425258113207548,-0.004552056667292635
-0.005424918113207547,-0.004321661763010735
-0.005424578113207548,-0.00415709397423795
-0.005424238113207548,-0.004124180416483393
-0.005423898113207547,-0.004255834647501501
-0.005423558113207548,-0.004190007531992507
-0.005423218113207548,-0.003531736376901365
-0.005422878113207547,-0.00326842791486407
-0.005422538113207548,-0.002807638106301108
-0.005422198113207548,-0.002643070317528323
-0.005421858113207547,-0.00264307031752958
-0.005421518113207548,-0.003334255030374022
-0.005421178113207548,-0.004584970225047193
-0.005420838113207547,-0.005177414264630777
-0.005420498113207548,-0.006033166766247705
-0.005420158113207548,-0.006033166766247705
-0.005419818113207547,-0.005407809168909503
-0.005419478113207548,-0.004519143109538078
-0.005419138113207548,-0.00369630416567415
-0.005418798113207547,-0.002478502528754519
-0.005418458113207548,-0.001918972046928067
-0.005418118113207548,-0.002478502528755537
-0.005417778113207547,-0.003005119452829888
-0.005417438113207548,-0.003795044838937822
