Analysis/New Tests_CMB/wrd01_d2s01/cmb07_ch32.csv

#Digilent WaveForms Oscilloscope Acquisition
#Device Name: ADP3450
#Serial Number: SN:210018B9D9B0
#Date Time: 2024-08-15 12:31:55.209.041.990
#Sample rate: 5.88235e+06Hz
#Samples: 32768
#Trigger: Source: Channel 3 Type: Edge Condition: Rising Level: 40 mV Hyst.: Auto HoldOff: 0 s
#Channel 3: Range: 100 mV/div Offset: 0 V Attenuation: 1 X Coupling: DC Bandwidth: 0 Hz Sample Mode: Average

Time (s),Channel 3 (V)
-0.003168882348294564,0.02187753020961672
-0.003168712348294563,0.02207501155614346
-0.003168542348294563,0.02191044376737212
-0.003168372348294563,0.02214083867165276
-0.003168202348294564,0.02191044376737092
-0.003168032348294564,0.02171296242084393
-0.003167862348294564,0.02158130818982571
-0.003167692348294563,0.02131799972778925
-0.003167522348294563,0.0213179997277859
-0.003167352348294563,0.02039642011066081
-0.003167182348294563,0.0199356303020969
-0.003167012348294564,0.01940901337802494
-0.003166842348294564,0.01904696424272481
-0.003166672348294563,0.01822412529885969
-0.003166502348294563,0.01789498972131328
-0.003166332348294563,0.01733545923948646
-0.003166162348294563,0.01657844741113111
-0.003165992348294564,0.0155252135629872
-0.003165822348294564,0.01509733731217796
-0.003165652348294563,0.01394536279076714
-0.003165482348294563,0.01358331365546653
-0.003165312348294563,0.01308961028914878
-0.003165142348294563,0.01243133913405955
-0.003164972348294564,0.01282630182711352
-0.003164802348294564,0.01289212894262263
-0.003164632348294564,0.01338583230894009
-0.003164462348294563,0.01401118990627937
-0.003164292348294563,0.01450489327259671
-0.003164122348294563,0.01493276952340523
-0.003163952348294564,0.01496568308115973
-0.003163782348294564,0.01526190510095074
-0.003163612348294564,0.01545938644747773
-0.003163442348294563,0.01595308981379608
-0.003163272348294563,0.01585434914053361
-0.003163102348294563,0.01631513894909657
-0.003162932348294564,0.01631513894909657
-0.003162762348294564,0.01631513894909657
-0.003162592348294564,0.01647970673786906
-0.003162422348294563,0.01585434914053181
-0.003162252348294563,0.01559104067849506
-0.003162082348294563,0.01489985596564966
-0.003161912348294564,0.0143732390415777
-0.003161742348294564,0.01341874586669555
-0.003161572348294564,0.01292504250037809
-0.003161402348294563,0.01256299336507479
-0.003161232348294563,0.01193763576773838
-0.003161062348294563,0.0107856612463305
-0.003160892348294564,0.01052235278429452
-0.003160722348294564,0.01009447653348528
-0.003160552348294564,0.009600773167166921
-0.003160382348294563,0.009074156243089816
-0.003160212348294563,0.007922181721684986
-0.003160042348294563,0.008185490183721864
-0.003159872348294564,0.008679193550039321
-0.003159702348294564,0.009403291820639578
-0.003159532348294564,0.009172896916357679
-0.003159362348294563,0.009732427398185748
-0.003159192348294563,0.009896995186959492
-0.003159022348294563,0.01075274768857654
-0.003158852348294564,0.01081857480408643
-0.003158682348294564,0.01131227817040389
-0.003158512348294564,0.01200346288324959
-0.003158342348294563,0.01262882048058474
-0.003158172348294563,0.01223385778753161
-0.003158002348294563,0.01229968490304024
-0.003157832348294564,0.0121022035565123
-0.003157662348294564,0.01157558663244035
-0.003157492348294564,0.01071983413082186
-0.003157322348294563,0.01039069855327222
-0.003157152348294563,0.009271637589622187
-0.003156982348294563,0.009502032493902591
-0.003156812348294563,0.009139983358602104
-0.003156642348294564,0.008580452876775651
-0.003156472348294564,0.008481712203511979
-0.003156302348294563,0.007790527490665682
-0.003156132348294563,0.007625959701894812
-0.003155962348294563,0.007988008837194581
-0.003155792348294563,0.008514625761266117
-0.003155622348294564,0.008284230856984636
-0.003155452348294564,0.008448798645757422
-0.003155282348294563,0.009008329127585611
-0.003155112348294563,0.009205810474112236
-0.003154942348294563,0.009205810474113134
-0.003154772348294563,0.009699513840430952
-0.003154602348294564,0.009896995186957936
-0.003154432348294564,0.01022613076450351
-0.003154262348294564,0.01045652566878499
-0.003154092348294563,0.0107527476885775
-0.003153922348294563,0.01104896970836755
-0.003153752348294563,0.01111479682387667
-0.003153582348294564,0.01118062393938566
-0.003153412348294564,0.01121353749714022
-0.003153242348294564,0.01157558663243969
-0.003153072348294563,0.01193763576774095
-0.003152902348294563,0.01206928999875877
-0.003152732348294563,0.01210220355651404
-0.003152562348294564,0.0125300798073225
-0.003152392348294564,0.01266173403834073
-0.003152222348294564,0.01236551201855026
-0.003152052348294563,0.01193763576774024
-0.003151882348294563,0.01187180865223076
-0.003151712348294563,0.01154267307468543
-0.003151542348294564,0.01134519172815845
-0.003151372348294564,0.01114771038163111
-0.003151202348294564,0.01029195788001418
-0.003151032348294563,0.009732427398181438
-0.003150862348294563,0.008712107107792563
-0.003150692348294563,0.007988008837192306
-0.003150522348294564,0.007263910566593366
-0.003150352348294564,0.007889268163929951
-0.003150182348294564,0.007099342777820581
-0.003150012348294563,0.006375244507221521
-0.003149842348294563,0.006704380084766494
-0.003149672348294563,0.007033515662312724
-0.003149502348294564,0.007724700375157166
-0.003149332348294564,0.008152576625966409
-0.003149162348294564,0.008382971530248308
-0.003148992348294563,0.008448798645761613
-0.003148822348294563,0.009600773167167101
-0.003148652348294563,0.009699513840431492
-0.003148482348294564,0.01019321720674865
-0.003148312348294564,0.01002864941797616
-0.003148142348294564,0.009633686724921478
-0.003147972348294563,0.009534946051654813
-0.003147802348294563,0.008712107107793101
-0.003147632348294563,0.008284230856983439
-0.003147462348294564,0.007625959701891638
-0.003147292348294564,0.006605639411502225
-0.003147122348294564,0.005815714025392853
-0.003146952348294563,0.005190356428053874
-0.003146782348294563,0.00453208527296321
-0.003146612348294563,0.004005468348891315
-0.003146442348294563,0.003511764982573258
-0.003146272348294564,0.003182629405028285
-0.003146102348294564,0.003215542962782842
-0.003145932348294563,0.003544678540327695
-0.003145762348294563,0.003347197193801909
-0.003145592348294563,0.003577592098084108
-0.003145422348294563,0.004202949695420214
-0.003145252348294564,0.004564998830719684
-0.003145082348294564,0.004992875081528926
-0.003144912348294563,0.005453664890096677
-0.003144742348294563,0.006539812295988799
-0.003144572348294563,0.005354924216835401
-0.003144402348294563,0.008843761338812288
-0.003144232348294564,0.008942502012075779
-0.003144062348294564,0.007757613932911723
-0.003143892348294564,0.008777934223301137
-0.003143722348294563,0.009370378262886697
-0.003143552348294563,0.009831168071448222
-0.003143382348294563,0.009502032493904208
-0.003143212348294564,0.01002864941797616
-0.003143042348294564,0.009798254513694264
-0.003142872348294564,0.009436205378394794
-0.003142702348294563,0.008876674896566784
-0.003142532348294563,0.008909588454320922
-0.003142362348294563,0.008745020665547479
-0.003142192348294564,0.008218403741475522
-0.003142022348294564,0.008646279992284765
-0.003141852348294564,0.007658873259649848
-0.003141682348294563,0.007757613932910405
-0.003141512348294563,0.007395564797609799
-0.003141342348294563,0.006408158064975181
-0.003141172348294564,0.006572725853747667
-0.003141002348294564,0.006177763160692982
-0.003140832348294564,0.006737293642519435
-0.003140662348294563,0.006342330949466964
-0.003140492348294563,0.006671466527011997
-0.003140322348294563,0.00703351566230973
-0.003140152348294564,0.00607902248742931
-0.003139982348294564,0.006803120758029567
-0.003139812348294564,0.006868947873538681
-0.003139642348294563,0.006737293642519495
-0.003139472348294563,0.006473985180483457
-0.003139302348294563,0.006177763160692144
-0.003139132348294564,0.005716973352129182
-0.003138962348294564,0.005585319121110954
-0.003138792348294564,0.005387837774583611
-0.003138622348294563,0.005124529312545477
-0.003138452348294563,0.004663739503983535
-0.003138282348294563,0.004762480177246667
-0.003138112348294564,0.004564998830719744
-0.003137942348294564,0.004597912388474241
-0.003137772348294564,0.004762480177247026
-0.003137602348294563,0.005157442870300874
-0.003137432348294563,0.004927047966019811
-0.003137262348294563,0.004927047966019991
-0.003137092348294564,0.005025788639283602
-0.003136922348294564,0.005091615754792597
-0.003136752348294564,0.005157442870301712
-0.003136582348294563,0.005519492005603995
-0.003136412348294563,0.006111936045185064
-0.003136242348294563,0.006441071622729259
-0.003136072348294563,0.006342330949467324
-0.003135902348294564,0.007198083451084253
-0.003135732348294564,0.007494305470875266
-0.003135562348294563,0.007691786817402489
-0.003135392348294563,0.007658873259650087
-0.003135222348294563,0.008218403741475882
-0.003135052348294563,0.008415885088003046
-0.003134882348294564,0.008514625761266537
-0.003134712348294564,0.008909588454321223
-0.003134542348294563,0.008876674896567502
-0.003134372348294563,0.009107069800849044
-0.003134202348294563,0.009238724031866433
-0.003134032348294563,0.009041242685339569
-0.003133862348294564,0.009107069800848565
-0.003133692348294564,0.008514625761266537
-0.003133522348294564,0.008448798645757542
-0.003133352348294563,0.008119663068210175
-0.003133182348294563,0.007658873259647573
-0.003133012348294563,0.007395564797611236
-0.003132842348294564,0.007198083451084253
-0.003132672348294564,0.007066429220066024
-0.003132502348294564,0.006408158064976079
-0.003132332348294563,0.006473985180484474
-0.003132162348294563,0.006605639411502883
-0.003131992348294563,0.006967688546799
-0.003131822348294564,0.005124529312547154
-0.003131652348294564,0.006013195371920196
-0.003131482348294564,0.006539812295992153
-0.003131312348294563,0.005980281814166477
-0.003131142348294563,0.006210676718447239
-0.003130972348294563,0.006046108929674394
-0.003130802348294564,0.005848627583147411
-0.003130632348294564,0.005519492005601839
-0.003130462348294564,0.005387837774583851
-0.003130292348294563,0.005881541140900171
-0.003130122348294563,0.005387837774584569
-0.003129952348294563,0.005914454698657902
-0.003129782348294564,0.006671466527011338
-0.003129612348294564,0.006671466527011338
-0.003129442348294564,0.00690186143129282
-0.003129272348294563,0.006934774989048633
-0.003129102348294563,0.007165169893329635
-0.003128932348294563,0.007132256335575557
-0.003128762348294564,0.007362651239857037
-0.003128592348294564,0.007198083451084253
-0.003128422348294564,0.006967688546802352
-0.003128252348294563,0.007099342777819264
-0.003128082348294563,0.006737293642519256
-0.003127912348294563,0.006079022487428293
-0.003127742348294564,0.005519492005600942
-0.003127572348294564,0.005025788639283483
-0.003127402348294564,0.004861220850510698
-0.003127232348294563,0.004433344599701814
-0.003127062348294563,0.004532085272964767
-0.003126892348294563,0.004334603926437783
-0.003126722348294564,0.004334603926437843
-0.003126552348294564,0.004367517484192341
-0.003126382348294564,0.004499171715210569
-0.003126212348294563,0.003873814117874224
-0.003126042348294563,0.003939641233382141
-0.003125872348294563,0.003676332771345743
-0.003125702348294563,0.003182629405028584
-0.003125532348294564,0.003347197193801071
-0.003125362348294564,0.003775073444610313
-0.003125192348294563,0.004400431041943186
-0.003125022348294563,0.003380110751560417
-0.003124852348294563,0.004696653061738032
-0.003124682348294563,0.004762480177246129
-0.003124512348294564,0.00426877681092867
-0.003124342348294564,0.00528909710131994
-0.003124172348294563,0.005749886909885416
-0.003124002348294563,0.006210676718449814
-0.003123832348294563,0.006836034315784603
-0.003123662348294563,0.007099342777821718
-0.003123492348294564,0.007724700375157166
-0.003123322348294564,0.007889268163929951
-0.003123152348294564,0.00838297153024741
-0.003122982348294563,0.007165169893331371
-0.003122812348294563,0.007625959701893794
-0.003122642348294563,0.007790527490667358
-0.003122472348294564,0.008382971530248308
-0.003122302348294564,0.009567859609412364
-0.003122132348294564,0.008053835952705491
-0.003121962348294563,0.007922181721683071
-0.003121792348294563,0.007527219028628866
-0.003121622348294563,0.00700060210455697
-0.003121452348294564,0.007033515662311467
-0.003121282348294564,0.007132256335575138
-0.003121112348294564,0.007099342777820641
-0.003120942348294563,0.007428478355366511
-0.003120772348294563,0.007527219028630242
-0.003120602348294563,0.00775761393291274
-0.003120432348294564,0.008317144414739193
-0.003120262348294564,0.008382971530248308
-0.003120092348294564,0.008514625761266298
-0.003119922348294563,0.008909588454321223
-0.003119752348294563,0.008909588454320026
-0.003119582348294563,0.0082513172992296
-0.003119412348294564,0.007988008837193623
-0.003119242348294564,0.00779052749066628
-0.003119072348294564,0.007165169893330832
-0.003118902348294563,0.006901861431291801
-0.003118732348294563,0.006506898738237536
-0.003118562348294563,0.005947368256410603
-0.003118392348294564,0.005684059794374625
-0.003118222348294564,0.005881541140901968
-0.003118052348294564,0.005420751332338168
-0.003117882348294563,0.005618232678865032
-0.003117712348294563,0.005486578447846385
-0.003117542348294563,0.004992875081529824
-0.003117372348294564,0.005486578447847282
-0.003117202348294564,0.005519492005601839
-0.003117032348294564,0.005486578447847282
-0.003116862348294563,0.005387837774582534
-0.003116692348294563,0.005091615754794274
-0.003116522348294563,0.0060131953719184
-0.003116352348294564,0.005025788639284141
-0.003116182348294564,0.005387837774583611
-0.003116012348294564,0.006046108929674754
-0.003115842348294563,0.006210676718447898
-0.003115672348294563,0.00630941739171121
-0.003115502348294563,0.006309417391711988
-0.003115332348294563,0.006737293642519974
-0.003115162348294564,0.006473985180483996
-0.003114992348294564,0.007033515662311467
-0.003114822348294563,0.00746139191312011
-0.003114652348294563,0.007296824124350079
-0.003114482348294563,0.007889268163929352
-0.003114312348294563,0.007560132586385158
-0.003114142348294564,0.007988008837193623
-0.003113972348294564,0.007889268163929951
-0.003113802348294563,0.008679193550038005
-0.003113632348294563,0.008317144414739432
-0.003113462348294563,0.008382971530246931
-0.003113292348294563,0.007625959701892477
-0.003113122348294564,0.007066429220066024
-0.003112952348294564,0.007856354606175394
-0.003112782348294563,0.006309417391706899
-0.003112612348294563,0.005124529312544879
-0.003112442348294563,0.00449917171521027
-0.003112272348294563,0.004334603926438083
-0.003112102348294564,0.004499171715210569
-0.003111932348294564,0.004762480177247026
-0.003111762348294564,0.005256183543564485
-0.003111592348294563,0.005716973352129541
-0.003111422348294563,0.005815714025393631
-0.003111252348294563,0.006243590276202695
-0.003111082348294564,0.006572725853747667
-0.003110912348294564,0.006836034315784124
-0.003110742348294564,0.006704380084766135
-0.003110572348294563,0.007099342777821539
-0.003110402348294563,0.00736265123985596
-0.003110232348294563,0.006770207200274531
-0.003110062348294564,0.006506898738238553
-0.003109892348294564,0.006243590276202096
-0.003109722348294564,0.005585319121112152
-0.003109552348294563,0.005420751332335893
-0.003109382348294563,0.004795393735001284
-0.003109212348294563,0.00463082594622766
-0.003109042348294564,0.004005468348892213
-0.003108872348294564,0.003281370078291956
-0.003108702348294564,0.00311680228951947
-0.003108532348294563,0.002919320942990272
-0.003108362348294563,0.002491444692183184
-0.003108192348294563,0.002820580269727019
-0.003108022348294564,0.002195222672391572
-0.003107852348294564,0.003314283636046514
-0.003107682348294564,0.003413024309310185
-0.003107512348294563,0.00410420902215768
-0.003107342348294563,0.004597912388475079
-0.003107172348294563,0.005058702197040196
-0.003107002348294564,0.006243590276202096
-0.003106832348294564,0.006836034315784124
-0.003106662348294564,0.007099342777820581
-0.003106492348294563,0.008284230856987989
-0.003106322348294563,0.009205810474111757
-0.003106152348294563,0.00894250201207596
-0.003105982348294564,0.009041242685339689
-0.003105812348294564,0.009172896916357679
-0.003105642348294564,0.008745020665548437
-0.003105472348294563,0.008284230856982721
-0.003105302348294563,0.007757613932911364
-0.003105132348294563,0.00756013258638426
-0.003104962348294564,0.007494305470874548
-0.003104792348294564,0.007099342777820581
-0.003104622348294564,0.00630941739171121
-0.003104452348294563,0.005782800467635662
-0.003104282348294563,0.005058702197036843
-0.003104112348294563,0.004729566619492529
-0.003103942348294563,0.004762480177247026
-0.003103772348294564,0.004762480177247026
-0.003103602348294564,0.004367517484192341
-0.003103432348294563,0.005190356428053275
-0.003103262348294563,0.004367517484191024
-0.003103092348294563,0.004005468348891794
-0.003102922348294563,0.003775073444610073
-0.003102752348294564,0.003643419213592085
-0.003102582348294564,0.003873814117873984
-0.003102412348294563,0.004202949695416801
-0.003102242348294563,0.003445937867071926
-0.003102072348294563,0.00542075133233739
-0.003101902348294563,0.004992875081529584
-0.003101732348294564,0.005354924216829054
-0.003101562348294564,0.005618232678865511
-0.003101392348294564,0.005848627583146992
-0.003101222348294563,0.006243590276203293
-0.003101052348294563,0.006572725853747846
-0.003100882348294563,0.006671466527011278
-0.003100712348294564,0.006638552969256781
-0.003100542348294564,0.006638552969256781
-0.003100372348294564,0.006737293642520273
-0.003100202348294563,0.006473985180484833
-0.003100032348294563,0.006704380084766315
-0.003099862348294563,0.006934774989048693
-0.003099692348294564,0.007428478355366152
-0.003099522348294564,0.00779052749066628
-0.003099352348294564,0.007527219028630302
-0.003099182348294563,0.007625959701893016
-0.003099012348294563,0.007494305470881493
-0.003098842348294563,0.01091731547733981
-0.003098672348294564,0.00574988690988374
-0.003098502348294564,0.007230997008838809
-0.003098332348294564,0.008580452876773196
-0.003098162348294563,0.008119663068213406
-0.003097992348294563,0.008547539319020256
-0.003097822348294563,0.008086749510457233
-0.003097652348294564,0.008053835952702737
-0.003097482348294564,0.007823441048420837
-0.003097312348294564,0.007823441048420837
-0.003097142348294563,0.0073297376821026
-0.003096972348294563,0.007362651239857037
-0.003096802348294563,0.007362651239857037
-0.003096632348294564,0.007362651239857037
-0.003096462348294564,0.007461391913120709
-0.003096292348294564,0.007329737682102481
-0.003096122348294563,0.006704380084765417
-0.003095952348294563,0.006572725853746769
-0.003095782348294563,0.006079022487429191
-0.003095612348294564,0.006013195371921333
-0.003095442348294564,0.006638552969256781
-0.003095272348294564,0.006836034315784124
-0.003095102348294563,0.006671466527011219
-0.003094932348294563,0.006638552969256662
-0.003094762348294563,0.006572725853747428
-0.003094592348294564,0.00644107162272908
-0.003094422348294564,0.006243590276202096
-0.003094252348294564,0.006342330949465767
-0.003094082348294563,0.006572725853743715
-0.003093912348294563,0.005486578447849318
-0.003093742348294563,0.006046108929675053
-0.003093572348294563,0.006210676718446701
-0.003093402348294564,0.00574988690988374
-0.003093232348294564,0.005124529312547154
-0.003093062348294563,0.005091615754792837
-0.003092892348294563,0.005157442870300274
-0.003092722348294563,0.004762480177246967
-0.003092552348294563,0.00472956661949181
-0.003092382348294564,0.004367517484192341
-0.003092212348294564,0.004334603926437783
-0.003092042348294563,0.004630825946229755
-0.003091872348294563,0.004894134408266811
-0.003091702348294563,0.005322010659074916
-0.003091532348294563,0.005552405563356876
-0.003091362348294564,0.005815714025392853
-0.003091192348294564,0.006177763160692982
