Analysis/New Tests_CMB/wrd01_d2s01/cmb07_ch34.csv

#Digilent WaveForms Oscilloscope Acquisition
#Device Name: ADP3450
#Serial Number: SN:210018B9D9B0
#Date Time: 2024-08-15 12:35:52.739.313.690
#Sample rate: 5.88235e+06Hz
#Samples: 32768
#Trigger: Source: Channel 3 Type: Edge Condition: Rising Level: 40 mV Hyst.: Auto HoldOff: 0 s
#Channel 3: Range: 100 mV/div Offset: 0 V Attenuation: 1 X Coupling: DC Bandwidth: 0 Hz Sample Mode: Average

Time (s),Channel 3 (V)
-0.003168857753964163,0.0284931553182827
-0.003168687753964163,0.02862480954929949
-0.003168517753964163,0.02783488416319156
-0.003168347753964163,0.02737409435462776
-0.003168177753964163,0.02763740281666242
-0.003168007753964163,0.0266499960840275
-0.003167837753964163,0.02599172492893636
-0.003167667753964163,0.02493849108079077
-0.003167497753964163,0.02507014531180876
-0.003167327753964163,0.02362194877060825
-0.003167157753964163,0.02316115896204361
-0.003166987753964163,0.02270036915348065
-0.003166817753964163,0.02266745559572609
-0.003166647753964163,0.02276619626898982
-0.003166477753964163,0.02279910982674432
-0.003166307753964163,0.02306241828878078
-0.003166137753964163,0.02342446742408186
-0.003165967753964163,0.02395108434815382
-0.003165797753964163,0.02421439281019028
-0.003165627753964163,0.02464226906099958
-0.003165457753964163,0.02467518261875408
-0.003165287753964163,0.02447770127222673
-0.003165117753964163,0.02464226906099922
-0.003164947753964163,0.02441187415671762
-0.003164777753964163,0.02411565213692661
-0.003164607753964163,0.0241485656946811
-0.003164437753964163,0.02404982502141749
-0.003164267753964163,0.02395108434815382
-0.003164097753964163,0.02345738098183636
-0.003163927753964163,0.02322698607755356
-0.003163757753964163,0.02263454203797154
-0.003163587753964163,0.02210792511389958
-0.003163417753964163,0.02135091328554381
-0.003163247753964163,0.02095595059248912
-0.003163077753964163,0.02042933366841717
-0.003162907753964163,0.0194419269357795
-0.003162737753964163,0.01911279135823393
-0.003162567753964163,0.0182241252988625
-0.003162397753964163,0.01740128635499695
-0.003162227753964163,0.01677592875766037
-0.003162057753964163,0.01631513894909741
-0.003161887753964163,0.01578852202502366
-0.003161717753964163,0.01532773221645986
-0.003161547753964163,0.01489985596565139
-0.003161377753964163,0.01536064577421441
-0.003161207753964163,0.01555812712074176
-0.003161037753964163,0.01542647288972377
-0.003160867753964163,0.01605183048706011
-0.003160697753964163,0.01628222539134202
-0.003160527753964163,0.0169075829886786
-0.003160357753964163,0.01733545923948784
-0.003160187753964163,0.01789498972131531
-0.003160017753964163,0.01845452020314278
-0.003159847753964163,0.01855326087640645
-0.003159677753964163,0.01894822356946114
-0.003159507753964163,0.01878365578068835
-0.003159337753964163,0.01911279135823405
-0.003159167753964163,0.01917861847374304
-0.003158997753964163,0.01891531001170658
-0.003158827753964163,0.01845452020314212
-0.003158657753964163,0.01809247106784265
-0.003158487753964163,0.01838869308763367
-0.003158317753964163,0.01769750837478797
-0.003158147753964163,0.01769750837478797
-0.003157977753964163,0.01828995241437
-0.003157807753964163,0.01657844741113351
-0.003157637753964163,0.01684175587316948
-0.003157467753964163,0.01680884231541493
-0.003157297753964163,0.01707215077745144
-0.003157127753964163,0.01710506433520594
-0.003156957753964163,0.01750002702826063
-0.003156787753964163,0.01703923721969629
-0.003156617753964163,0.01674301519990581
-0.003156447753964163,0.01641387962236024
-0.003156277753964163,0.01611765760256881
-0.003156107753964163,0.01588726269828733
-0.003155937753964163,0.01578852202502366
-0.003155767753964163,0.01532773221645986
-0.003155597753964163,0.01532773221645986
-0.003155427753964163,0.01549230000523264
-0.003155257753964163,0.01522899154319643
-0.003155087753964163,0.01536064577421441
-0.003154917753964163,0.01555812712074176
-0.003154747753964163,0.01575560846726874
-0.003154577753964163,0.01592017625604189
-0.003154407753964163,0.0162163982758329
-0.003154237753964163,0.01651262029562338
-0.003154067753964163,0.01671010164215126
-0.003153897753964163,0.0166771880843967
-0.003153727753964163,0.01694049654643268
-0.003153557753964163,0.01651262029562391
-0.003153387753964163,0.01595308981379644
-0.003153217753964163,0.01562395423625147
-0.003153047753964163,0.01532773221645986
-0.003152877753964163,0.01450489327259593
-0.003152707753964163,0.01404410346403297
-0.003152537753964163,0.01499859663891429
-0.003152367753964163,0.01328709163567732
-0.003152197753964163,0.01374788144424028
-0.003152027753964163,0.01355040009771377
-0.003151857753964163,0.01328709163567732
-0.003151687753964163,0.01355040009771329
-0.003151517753964163,0.01394536279076846
-0.003151347753964163,0.01404410346403213
-0.003151177753964163,0.01473528817687657
-0.003151007753964163,0.01568978135175999
-0.003150837753964163,0.01601891692930556
-0.003150667753964163,0.0167430151999045
-0.003150497753964163,0.0175987677015243
-0.003150327753964163,0.01766459481703341
-0.003150157753964163,0.01838869308763367
-0.003149987753964163,0.01954066760904317
-0.003149817753964163,0.01993563030209785
-0.003149647753964163,0.02019893876413431
-0.003149477753964163,0.02019893876413431
-0.003149307753964163,0.02184461665186217
-0.003149137753964163,0.01861908799191557
-0.003148967753964163,0.01891531001170658
-0.003148797753964163,0.02033059299515254
-0.003148627753964163,0.01980397607107963
-0.003148457753964163,0.0205280743416773
-0.003148287753964163,0.01911279135823393
-0.003148117753964163,0.01881656933844291
-0.003147947753964163,0.0186849151074236
-0.003147777753964163,0.01809247106784265
-0.003147607753964163,0.01710506433520594
-0.003147437753964163,0.01647970673786918
-0.003147267753964163,0.01638096606460569
-0.003147097753964163,0.01559104067849632
-0.003146927753964163,0.01499859663891411
-0.003146757753964163,0.01489985596565062
-0.003146587753964163,0.01457072038810504
-0.003146417753964163,0.0151302508699315
-0.003146247753964163,0.01457072038810504
-0.003146077753964163,0.01447197971484137
-0.003145907753964163,0.0145707203881048
-0.003145737753964163,0.01443906615708682
-0.003145567753964163,0.01450489327259593
-0.003145397753964163,0.0141428441372946
-0.003145227753964163,0.01348457298220466
-0.003145057753964163,0.01318835096241365
-0.003144887753964163,0.01223385778753071
-0.003144717753964163,0.01180598153672225
-0.003144547753964163,0.01131227817040389
-0.003144377753964163,0.01068692057306599
-0.003144207753964163,0.009962822302467049
-0.003144037753964163,0.00983116807144882
-0.003143867753964163,0.009995735860221306
-0.003143697753964163,0.01022613076450351
-0.003143527753964163,0.01022613076450351
-0.003143357753964163,0.01006156297573102
-0.003143187753964163,0.009929908744712493
-0.003143017753964163,0.009699513840430593
-0.003142847753964163,0.009995735860221067
-0.003142677753964163,0.009633686724921478
-0.003142507753964163,0.009896995186957936
-0.003142337753964163,0.01016030364899391
-0.003142167753964163,0.01055526634204908
-0.003141997753964163,0.01071983413082186
-0.003141827753964163,0.01157558663243879
-0.003141657753964163,0.01190472220998592
-0.003141487753964163,0.01187180865223136
-0.003141317753964163,0.01200346288324935
-0.003141147753964163,0.01256299336507706
-0.003140977753964163,0.01282630182711352
-0.003140807753964163,0.01315543740465849
-0.003140637753964163,0.01397827634852302
-0.003140467753964163,0.01489985596565062
-0.003140297753964163,0.01489985596565062
-0.003140127753964163,0.0155252135629872
-0.003139957753964163,0.01549230000523264
-0.003139787753964163,0.01565686779400543
-0.003139617753964163,0.01638096606460569
-0.003139447753964163,0.01631513894909657
-0.003139277753964163,0.01654553385337847
-0.003139107753964163,0.01664427452664214
-0.003138937753964163,0.01723671856622417
-0.003138767753964163,0.01608474404481467
-0.003138597753964163,0.0162163982758329
-0.003138427753964163,0.01615057116032378
-0.003138257753964163,0.01615057116032378
-0.003138087753964163,0.01568978135176059
-0.003137917753964163,0.01601891692930556
-0.003137747753964163,0.01526190510095074
-0.003137577753964163,0.01486694240789558
-0.003137407753964163,0.0146036339458596
-0.003137237753964163,0.01387953567525935
-0.003137067753964163,0.01387953567525635
-0.003136897753964163,0.01223385778753149
-0.003136727753964163,0.01141101884366756
-0.003136557753964163,0.01045652566878427
-0.003136387753964163,0.00983116807144882
-0.003136217753964163,0.009271637589621349
-0.003136047753964163,0.009238724031866133
-0.003135877753964163,0.008876674896566664
-0.003135707753964163,0.009139983358603122
-0.003135537753964163,0.009008329127585792
-0.003135367753964163,0.00950203249390325
-0.003135197753964163,0.01002864941797616
-0.003135027753964163,0.01048943922654098
-0.003134857753964163,0.01104896970836743
-0.003134687753964163,0.01177306797896769
-0.003134517753964163,0.01259590692283353
-0.003134347753964163,0.01364914077097745
-0.003134177753964163,0.01447197971484137
-0.003134007753964163,0.01536064577421555
-0.003133837753964163,0.015986003371551
-0.003133667753964163,0.0169075829886786
-0.003133497753964163,0.01713797789296008
-0.003133327753964163,0.01750002702826063
-0.003133157753964163,0.01802664395233354
-0.003132987753964163,0.01819121174110603
-0.003132817753964163,0.01822412529886088
-0.003132647753964163,0.01802664395233354
-0.003132477753964163,0.01769750837478857
-0.003132307753964163,0.01720380500846961
-0.003132137753964163,0.01657844741113303
-0.003131967753964163,0.01615057116032456
-0.003131797753964163,0.01522899154319619
-0.003131627753964163,0.0148340288501415
-0.003131457753964163,0.01450489327259653
-0.003131287753964163,0.01430741192606859
-0.003131117753964163,0.01381370855975023
-0.003130947753964163,0.01361622721322325
-0.003130777753964163,0.01394536279076846
-0.003130607753964163,0.01289212894262263
-0.003130437753964163,0.01394536279076654
-0.003130267753964163,0.01397827634852302
-0.003130097753964163,0.01348457298220466
-0.003129927753964163,0.01374788144424064
-0.003129757753964163,0.01351748653995922
-0.003129587753964163,0.01351748653995922
-0.003129417753964163,0.01157558663244388
-0.003129247753964163,0.0118388950944768
-0.003129077753964163,0.01170724086345858
-0.003128907753964163,0.01068692057306731
-0.003128737753964163,0.01141101884366756
-0.003128567753964163,0.01012739009123984
-0.003128397753964163,0.01002864941797616
-0.003128227753964163,0.00950203249390325
-0.003128057753964163,0.009107069800848565
-0.003127887753964163,0.00871210710779388
-0.003127717753964163,0.008119663068212629
-0.003127547753964163,0.008547539319021094
-0.003127377753964163,0.008185490183720966
-0.003127207753964163,0.008679193550039082
-0.003127037753964163,0.008547539319021094
-0.003126867753964163,0.009172896916357679
-0.003126697753964163,0.009403291820640597
-0.003126527753964163,0.009962822302467049
-0.003126357753964163,0.01029195788001262
-0.003126187753964163,0.01124645105489633
-0.003126017753964163,0.01210220355651326
-0.003125847753964163,0.0129908696158863
-0.003125677753964163,0.01378079500199735
-0.003125507753964163,0.01470237461912327
-0.003125337753964163,0.01608474404481467
-0.003125167753964163,0.0168417558731708
-0.003124997753964163,0.01756585414376974
-0.003124827753964163,0.01809247106784265
-0.003124657753964163,0.0192115320314976
-0.003124487753964163,0.0192115320314976
-0.003124317753964163,0.01954066760904317
-0.003124147753964163,0.01973814895557033
-0.003123977753964163,0.01963940828230684
-0.003123807753964163,0.01973814895557051
-0.003123637753964163,0.01927735914700545
-0.003123467753964163,0.01858617443416101
-0.003123297753964163,0.01809247106784265
-0.003123127753964163,0.01743419991275271
-0.003122957753964163,0.01641387962236024
-0.003122787753964163,0.0152948186587053
-0.003122617753964163,0.01453780683035186
-0.003122447753964163,0.01410993057954124
-0.003122277753964163,0.01371496788648656
-0.003122107753964163,0.01332000519343259
-0.003121937753964163,0.01289212894262263
-0.003121767753964163,0.01341874586669555
-0.003121597753964163,0.01305669673139608
-0.003121427753964163,0.01355040009771377
-0.003121257753964163,0.01374788144424112
-0.003121087753964163,0.01371496788648662
-0.003120917753964163,0.01341874586669555
-0.003120747753964163,0.0139124492330139
-0.003120577753964163,0.01292504250037898
-0.003120407753964163,0.01292504250037719
-0.003120237753964163,0.01236551201854972
-0.003120067753964163,0.01164141374795078
-0.003119897753964163,0.01190472220998592
-0.003119727753964163,0.01167432730570402
-0.003119557753964163,0.01174015442121301
-0.003119387753964163,0.01200346288324959
-0.003119217753964163,0.01210220355651326
-0.003119047753964163,0.01233259846079474
-0.003118877753964163,0.01285921538486808
-0.003118707753964163,0.01338583230894099
-0.003118537753964163,0.01410993057954124
-0.003118367753964163,0.01410993057954124
-0.003118197753964163,0.01486694240789606
-0.003118027753964163,0.0152948186587053
-0.003117857753964163,0.01568978135175999
-0.003117687753964163,0.01588726269828733
-0.003117517753964163,0.01634805250685113
-0.003117347753964163,0.01611765760256923
-0.003117177753964163,0.01638096606460569
-0.003117007753964163,0.01605183048706011
-0.003116837753964163,0.01605183048705951
-0.003116667753964163,0.01572269490951454
-0.003116497753964163,0.01555812712074176
-0.003116327753964163,0.01519607798544163
-0.003116157753964163,0.01519607798544163
-0.003115987753964163,0.01493276952340517
-0.003115817753964163,0.01466946106136896
-0.003115647753964163,0.01480111529238694
-0.003115477753964163,0.01480111529238694
-0.003115307753964163,0.01493276952340547
-0.003115137753964163,0.01509733731217796
-0.003114967753964163,0.0152948186587053
-0.003114797753964163,0.01480111529238593
-0.003114627753964163,0.01424158481055947
-0.003114457753964163,0.01387953567525935
-0.003114287753964163,0.01364914077097649
-0.003114117753964163,0.01312252384690453
-0.003113947753964163,0.01272756115384985
-0.003113777753964163,0.01249716624956735
-0.003113607753964163,0.01216803067202238
-0.003113437753964163,0.01193763576774048
-0.003113267753964163,0.01167432730570378
-0.003113097753964163,0.01154267307468579
-0.003112927753964163,0.01147684595917668
-0.003112757753964163,0.01111479682387805
-0.003112587753964163,0.01193763576774048
-0.003112417753964163,0.0116085001901949
-0.003112247753964163,0.01197054932549437
-0.003112077753964163,0.01144393240142212
-0.003111907753964163,0.01226677134528605
-0.003111737753964163,0.01259590692283102
-0.003111567753964163,0.01243133913405883
-0.003111397753964163,0.01332000519343187
-0.003111227753964163,0.01351748653995886
-0.003111057753964163,0.01355040009771377
-0.003110887753964163,0.01355040009771377
-0.003110717753964163,0.01351748653995928
-0.003110547753964163,0.01371496788648656
-0.003110377753964163,0.01341874586669555
-0.003110207753964163,0.0139453627907675
-0.003110037753964163,0.01394536279076846
-0.003109867753964163,0.0139124492330139
-0.003109697753964163,0.01450489327259485
-0.003109527753964163,0.01443906615708682
-0.003109357753964163,0.01401118990627757
-0.003109187753964163,0.01420867125280456
-0.003109017753964163,0.01430741192606859
-0.003108847753964163,0.01374788144424112
-0.003108677753964163,0.01308961028915117
-0.003108507753964163,0.01335291875118643
-0.003108337753964163,0.0129908696158863
-0.003108167753964163,0.01318835096241329
-0.003107997753964163,0.01269464759609529
-0.003107827753964163,0.01233259846079516
-0.003107657753964163,0.01193763576774048
-0.003107487753964163,0.01187180865223136
-0.003107317753964163,0.01147684595917668
-0.003107147753964163,0.01114771038163111
-0.003106977753964163,0.01144393240142212
-0.003106807753964163,0.01180598153672225
-0.003106637753964163,0.01180598153672225
-0.003106467753964163,0.01220094422977903
-0.003106297753964163,0.01335291875118643
-0.003106127753964163,0.01378079500199567
-0.003105957753964163,0.0150315101966701
-0.003105787753964163,0.01572269490951454
-0.003105617753964163,0.01578852202502366
-0.003105447753964163,0.01654553385337883
-0.003105277753964163,0.01674301519990581
-0.003105107753964163,0.01710506433520594
-0.003104937753964163,0.01684175587316948
-0.003104767753964163,0.01684175587316948
-0.003104597753964163,0.01628222539134202
-0.003104427753964163,0.01585434914053235
-0.003104257753964163,0.01562395423625087
-0.003104087753964163,0.01526190510095074
-0.003103917753964163,0.01489985596565026
-0.003103747753964163,0.01470237461912327
-0.003103577753964163,0.01387953567525935
-0.003103407753964163,0.01394536279076792
-0.003103237753964163,0.01364914077097745
-0.003103067753964163,0.01341874586669555
-0.003102897753964163,0.01289212894262604
-0.003102727753964163,0.01476820173463239
-0.003102557753964163,0.01187180865223136
-0.003102387753964163,0.01226677134528808
-0.003102217753964163,0.01338583230894099
-0.003102047753964163,0.01315543740465909
-0.003101877753964163,0.01282630182711412
-0.003101707753964163,0.01262882048058617
-0.003101537753964163,0.01262882048058617
-0.003101367753964163,0.01262882048058617
-0.003101197753964163,0.01259590692283162
-0.003101027753964163,0.01197054932549503
-0.003100857753964163,0.0123984255763035
-0.003100687753964163,0.01223385778753149
-0.003100517753964163,0.01210220355651326
-0.003100347753964163,0.01183889509447728
-0.003100177753964163,0.01193763576774048
-0.003100007753964163,0.01177306797896769
-0.003099837753964163,0.01197054932549467
-0.003099667753964163,0.01236551201854972
-0.003099497753964163,0.01246425269181339
-0.003099327753964163,0.01249716624956789
-0.003099157753964163,0.01289212894262263
-0.003098987753964163,0.01292504250037719
-0.003098817753964163,0.01358331365546713
-0.003098647753964163,0.0139124492330139
-0.003098477753964163,0.01364914077097745
-0.003098307753964163,0.01397827634852242
-0.003098137753964163,0.01394536279076846
-0.003097967753964163,0.01427449836831403
-0.003097797753964163,0.01447197971484101
-0.003097627753964163,0.01480111529238694
-0.003097457753964163,0.01522899154319619
-0.003097287753964163,0.01539355933196897
-0.003097117753964163,0.01480111529238694
-0.003096947753964163,0.01473528817687783
-0.003096777753964163,0.01394536279076846
-0.003096607753964163,0.01308961028914997
-0.003096437753964163,0.01262882048058617
-0.003096267753964163,0.01246425269181339
-0.003096097753964163,0.01200346288324959
-0.003095927753964163,0.01111479682387655
-0.003095757753964163,0.01121353749714022
-0.003095587753964163,0.01065400701531299
-0.003095417753964163,0.01078566124633098
-0.003095247753964163,0.01095022903510376
-0.003095077753964163,0.01068692057306773
-0.003094907753964163,0.01091731547734921
-0.003094737753964163,0.01131227817040389
-0.003094567753964163,0.01170724086346025
-0.003094397753964163,0.01262882048058617
-0.003094227753964163,0.01328709163567732
-0.003094057753964163,0.01387953567525958
-0.003093887753964163,0.01401118990627757
-0.003093717753964163,0.01470237461912327
-0.003093547753964163,0.01539355933196927
-0.003093377753964163,0.01555812712074176
-0.003093207753964163,0.0157556084672691
-0.003093037753964163,0.01559104067849578
-0.003092867753964163,0.0152948186587053
-0.003092697753964163,0.01549230000523264
-0.003092527753964163,0.01529481865870512
-0.003092357753964163,0.01519607798544163
-0.003092187753964163,0.01549230000523264
-0.003092017753964163,0.01539355933196843
-0.003091847753964163,0.01509733731217796
-0.003091677753964163,0.01509733731217796
-0.003091507753964163,0.0155252135629872
-0.003091337753964163,0.0155252135629872
-0.003091167753964163,0.01509733731217796
-0.003090997753964163,0.01526190510095044
-0.003090827753964163,0.01489985596565062
-0.003090657753964163,0.01489985596565062
-0.003090487753964163,0.01457072038810564
-0.003090317753964163,0.01434032548382314
-0.003090147753964163,0.0143732390415777
-0.003089977753964163,0.01374788144424225
-0.003089807753964163,0.01381370855975023
