Analysis/New Tests_CMB/wrd01_d2s01/cmb07_ch18.csv

#Digilent WaveForms Oscilloscope Acquisition
#Device Name: ADP3450
#Serial Number: SN:210018B9D9B0
#Date Time: 2024-08-07 10:29:25.654.097.310
#Sample rate: 2.94118e+06Hz
#Samples: 32768
#Trigger: Source: Channel 3 Type: Edge Condition: Rising Level: 0 V Hyst.: Auto HoldOff: 0 s
#Channel 3: Range: 200 mV/div Offset: 0 V Attenuation: 1 X Coupling: DC Bandwidth: 0 Hz Sample Mode: Average

Time (s),Channel 3 (V)
-0.005570261212121213,0.01684175587316948
-0.005569921212121212,0.01700632366194215
-0.005569581212121213,0.01694049654643316
-0.005569241212121213,0.0162163982758329
-0.005568901212121212,0.01522899154319457
-0.005568561212121213,0.01434032548382314
-0.005568221212121213,0.0143732390415777
-0.005567881212121212,0.01361622721322301
-0.005567541212121213,0.013682054328732
-0.005567201212121213,0.01394536279076846
-0.005566861212121212,0.01368205432873302
-0.005566521212121213,0.01424158481055947
-0.005566181212121213,0.013682054328732
-0.005565841212121212,0.0143732390415783
-0.005565501212121213,0.01470237461912327
-0.005565161212121213,0.01493276952340517
-0.005564821212121212,0.01503151019666902
-0.005564481212121213,0.01513025086993251
-0.005564141212121213,0.01466946106136872
-0.005563801212121212,0.0149656830811614
-0.005563461212121213,0.01588726269828733
-0.005563121212121213,0.01671010164215126
-0.005562781212121213,0.01782916260580416
-0.005562441212121213,0.01819121174110632
-0.005562101212121213,0.01822412529886088
-0.005561761212121213,0.01842160664538786
-0.005561421212121213,0.01838869308763367
-0.005561081212121213,0.0185203473186519
-0.005560741212121213,0.01809247106784343
-0.005560401212121212,0.01773042193254253
-0.005560061212121213,0.0175987677015243
-0.005559721212121213,0.01713797789296134
-0.005559381212121212,0.01680884231541493
-0.005559041212121213,0.01595308981379644
-0.005558701212121213,0.01513025086993401
-0.005558361212121212,0.01522899154319619
-0.005558021212121213,0.01562395423625087
-0.005557681212121213,0.01516316442768791
-0.005557341212121212,0.01522899154319619
-0.005557001212121213,0.01499859663891429
-0.005556661212121213,0.01532773221645926
-0.005556321212121212,0.01519607798544163
-0.005555981212121213,0.01519607798544163
-0.005555641212121213,0.01499859663891465
-0.005555301212121212,0.01463654750361416
-0.005554961212121213,0.01457072038810504
-0.005554621212121213,0.0139124492330151
-0.005554281212121212,0.0143732390415777
-0.005553941212121213,0.01694049654643316
-0.005553601212121213,0.02467518261875408
-0.005553261212121212,0.03899258024198642
-0.005552921212121213,0.06041930634020309
-0.005552581212121213,0.08872496600912222
-0.005552241212121212,0.1212435610706246
-0.005551901212121213,0.1555065746931186
-0.005551561212121213,0.1878935155236028
-0.005551221212121212,0.2166599650011276
-0.005550881212121213,0.2396994554292756
-0.005550541212121213,0.2571107274814364
-0.005550201212121212,0.2686962998110515
-0.005549861212121213,0.274752394437879
-0.005549521212121213,0.2758714554015339
-0.005549181212121212,0.2740612097250252
-0.005548841212121213,0.2696507929859226
-0.005548501212121213,0.2639567474943842
-0.005548161212121212,0.256123320748785
-0.005547821212121213,0.2480594990989332
-0.005547481212121213,0.2395678011982574
-0.005547141212121212,0.2312735846440953
-0.005546801212121213,0.2237034663605609
-0.005546461212121213,0.2168245327898585
-0.005546121212121212,0.2105709568164811
-0.005545781212121213,0.2042515537276176
-0.005545441212121213,0.1978004964077245
-0.005545101212121212,0.1905595137017098
-0.005544761212121213,0.1839438885930559
-0.005544421212121213,0.1772953499266354
-0.005544081212121212,0.1710746875110133
-0.005543741212121213,0.1651173335574493
-0.005543401212121213,0.1596865965279473
-0.005543061212121212,0.154420427287209
-0.005542721212121213,0.1493846529507709
-0.005542381212121213,0.1439868294790236
-0.005542041212121213,0.139378931393394
-0.005541701212121213,0.1349356010965204
-0.005541361212121213,0.1306239250306734
-0.005541021212121213,0.1269705201199242
-0.005540681212121213,0.1237779050177255
-0.005540341212121213,0.1195649696251422
-0.005540001212121213,0.115582429136848
-0.005539661212121212,0.1117315428795576
-0.005539321212121213,0.1077490023912562
-0.005538981212121213,0.1032069314211356
-0.005538641212121212,0.09899399602854403
-0.005538301212121213,0.09557098602207009
-0.005537961212121213,0.09234545736212936
-0.005537621212121212,0.08994276764604081
-0.005537281212121213,0.0873425965834308
-0.005536941212121213,0.08530195600265196
-0.005536601212121212,0.0828992662865656
-0.005536261212121213,0.08033200878171015
-0.005535921212121213,0.07842302243194929
-0.005535581212121212,0.07582285136933581
-0.005535241212121213,0.07348598876876228
-0.005534901212121213,0.07197196511205539
-0.005534561212121212,0.07012880587779743
-0.005534221212121213,0.06904265847189706
-0.005533881212121213,0.06782485683498066
-0.005533541212121212,0.06644248740928704
-0.005533201212121213,0.06423727903973173
-0.005532861212121213,0.06157128086161259
-0.005532521212121212,0.0594977267230755
-0.005532181212121213,0.05755582681555663
-0.005531841212121213,0.05574558113905598
-0.005531501212121212,0.05429738459785547
-0.005531161212121213,0.0530466694031823
-0.005530821212121213,0.05212508978605471
-0.005530481212121212,0.05084146103362697
-0.005530141212121213,0.04886664756835355
-0.005529801212121213,0.04728679679613481
-0.005529461212121212,0.04508158842657631
-0.005529121212121213,0.04333716986558796
-0.005528781212121213,0.04175731909336922
-0.005528441212121212,0.04021038187890191
-0.005528101212121213,0.03849887687566806
-0.005527761212121213,0.03711650744997666
-0.005527421212121212,0.03596453292856632
-0.005527081212121213,0.03550374312000337
-0.005526741212121213,0.03501003975368501
-0.005526401212121212,0.0356683109087749
-0.005526061212121213,0.03497712619593045
-0.005525721212121213,0.03560248379326703
-0.005525381212121212,0.03675445831467653
-0.005525041212121213,0.03675445831467653
-0.005524701212121213,0.0360961871595854
-0.005524361212121212,0.03497712619592871
-0.005524021212121213,0.03402263302104829
-0.005523681212121213,0.03359475677023905
-0.005523341212121212,0.03306813984616632
-0.005523001212121213,0.03316688051942981
-0.005522661212121213,0.03316688051942981
-0.005522321212121212,0.03264026359535582
-0.005521981212121213,0.03204781955577487
-0.005521641212121213,0.0314882890739474
-0.005521301212121212,0.03007300609049761
-0.005520961212121213,0.02796653839420979
-0.005520621212121213,0.0264196011797456
-0.005520281212121213,0.02493849108079323
-0.005519941212121213,0.02395108434815382
-0.005519601212121213,0.02375360300162648
-0.005519261212121213,0.02335864030857251
-0.005518921212121213,0.02332572675081724
-0.005518581212121213,0.02302950473102622
-0.005518241212121213,0.02289785050000823
-0.005517901212121212,0.02246997424919875
-0.005517561212121213,0.02141674040105292
-0.005517221212121213,0.0205280743416815
-0.005516881212121212,0.0203635065529071
-0.005516541212121213,0.01888239645395202
-0.005516201212121213,0.01835577952988007
-0.005515861212121212,0.01822412529886088
-0.005515521212121213,0.01848743376089734
-0.005515181212121213,0.01868491510742432
-0.005514841212121212,0.01894822356946114
-0.005514501212121213,0.01940901337802494
-0.005514161212121213,0.02039642011065985
-0.005513821212121212,0.02135091328554381
-0.005513481212121213,0.02204209799838951
-0.005513141212121213,0.02223957934491649
-0.005512801212121212,0.02177878953635305
-0.005512461212121213,0.02095595059248912
-0.005512121212121213,0.02000145741760697
-0.005511781212121212,0.01888239645395202
-0.005511441212121213,0.01769750837478797
-0.005511101212121213,0.01766459481703341
-0.005510761212121212,0.01776333549029708
-0.005510421212121213,0.01845452020314278
-0.005510081212121213,0.01934318626251582
-0.005509741212121212,0.02013311164862519
-0.005509401212121213,0.02039642011066165
-0.005509061212121213,0.01970523539781595
-0.005508721212121212,0.0183886930876308
-0.005508381212121213,0.01680884231541493
-0.005508041212121213,0.01532773221645986
-0.005507701212121212,0.01427449836831373
-0.005507361212121213,0.01410993057954124
-0.005507021212121213,0.01318835096241365
-0.005506681212121212,0.01276047471160494
-0.005506341212121213,0.01305669673139542
-0.005506001212121213,0.01332000519343187
-0.005505661212121212,0.01407701702178788
-0.005505321212121213,0.01473528817687783
-0.005504981212121213,0.01555812712074176
-0.005504641212121212,0.01601891692930664
-0.005504301212121213,0.01661136096888758
-0.005503961212121213,0.01743419991275151
-0.005503621212121212,0.01828995241437197
-0.005503281212121213,0.01937609982027038
-0.005502941212121213,0.02000145741760697
-0.005502601212121212,0.02029767943739798
-0.005502261212121213,0.02029767943739798
-0.005501921212121213,0.02003437097536152
-0.005501581212121212,0.01980397607107861
-0.005501241212121213,0.01924444558925215
-0.005500901212121213,0.01842160664538823
-0.005500561212121212,0.01815829818335129
-0.005500221212121213,0.01789498972131531
-0.005499881212121213,0.01766459481703341
-0.005499541212121213,0.0177962490480514
-0.005499201212121213,0.01802664395233354
-0.005498861212121213,0.01858617443416101
-0.005498521212121213,0.01838869308763403
-0.005498181212121213,0.01769750837478797
-0.005497841212121213,0.01532773221645986
-0.005497501212121213,0.01503151019666938
-0.005497161212121212,0.01381370855975023
-0.005496821212121213,0.01295795605813175
-0.005496481212121213,0.01315543740465873
-0.005496141212121212,0.01341874586669555
-0.005495801212121213,0.01361622721322289
-0.005495461212121213,0.01427449836831283
-0.005495121212121212,0.01450489327259593
-0.005494781212121213,0.01572269490951454
-0.005494441212121213,0.016282225391341
-0.005494101212121212,0.01661136096888758
-0.005493761212121213,0.01674301519990581
-0.005493421212121213,0.01697341010418729
-0.005493081212121212,0.01628222539134202
-0.005492741212121213,0.01545938644747809
-0.005492401212121213,0.01473528817687915
-0.005492061212121212,0.0143732390415777
-0.005491721212121213,0.01394536279076846
-0.005491381212121213,0.01378079500199597
-0.005491041212121212,0.01364914077097745
-0.005490701212121213,0.01381370855975023
-0.005490361212121213,0.01374788144424112
-0.005490021212121212,0.01378079500199567
-0.005489681212121213,0.01384662211750479
-0.005489341212121213,0.01348457298220466
-0.005489001212121212,0.01378079500199567
-0.005488661212121213,0.01476820173463239
-0.005488321212121213,0.0157556084672691
-0.005487981212121212,0.01503151019666842
-0.005487641212121213,0.01480111529238694
-0.005487301212121213,0.01513025086993251
-0.005486961212121212,0.01522899154319732
-0.005486621212121213,0.01585434914053277
-0.005486281212121213,0.01671010164215126
-0.005485941212121212,0.01750002702826224
-0.005485601212121213,0.01838869308763367
-0.005485261212121213,0.01924444558925215
-0.005484921212121212,0.01950775405128747
-0.005484581212121213,0.01888239645395202
-0.005484241212121213,0.01786207616356076
-0.005483901212121212,0.01661136096888543
-0.005483561212121213,0.01542647288972353
-0.005483221212121213,0.01453780683035049
-0.005482881212121212,0.01394536279076906
-0.005482541212121213,0.01427449836831403
-0.005482201212121213,0.01447197971484137
-0.005481861212121212,0.01427449836831277
-0.005481521212121213,0.01358331365546833
-0.005481181212121213,0.01282630182711352
-0.005480841212121212,0.01266173403834001
-0.005480501212121213,0.01226677134528605
-0.005480161212121213,0.01203637644100415
-0.005479821212121212,0.01276047471160488
-0.005479481212121213,0.01302378317364086
-0.005479141212121213,0.01355040009771377
-0.005478801212121213,0.01341874586669579
-0.005478461212121213,0.01420867125280492
-0.005478121212121213,0.01476820173463239
-0.005477781212121213,0.01522899154319535
-0.005477441212121213,0.01542647288972353
-0.005477101212121213,0.01545938644747809
-0.005476761212121213,0.01539355933196909
-0.005476421212121213,0.0155252135629872
-0.005476081212121213,0.01568978135175999
-0.005475741212121213,0.01565686779400549
-0.005475401212121212,0.01588726269828733
-0.005475061212121213,0.01578852202502366
-0.005474721212121213,0.01568978135176017
-0.005474381212121212,0.01549230000523264
-0.005474041212121213,0.01605183048706011
-0.005473701212121213,0.01654553385337757
-0.005473361212121212,0.01723671856622417
-0.005473021212121213,0.01756585414376974
-0.005472681212121213,0.01700632366194329
-0.005472341212121212,0.01657844741113303
-0.005472001212121213,0.01634805250685113
-0.005471661212121213,0.01651262029562361
-0.005471321212121212,0.01664427452664214
-0.005470981212121213,0.01647970673786936
-0.005470641212121213,0.01621639827583338
-0.005470301212121212,0.0162163982758329
-0.005469961212121213,0.01536064577421441
-0.005469621212121213,0.01519607798544163
-0.005469281212121212,0.01473528817687783
-0.005468941212121213,0.0139124492330139
-0.005468601212121213,0.01348457298220466
-0.005468261212121212,0.01341874586669555
-0.005467921212121213,0.01397827634852302
-0.005467581212121213,0.01420867125280492
-0.005467241212121212,0.01470237461912327
-0.005466901212121213,0.01522899154319619
-0.005466561212121213,0.01572269490951454
-0.005466221212121212,0.01578852202502348
-0.005465881212121213,0.01568978135175999
-0.005465541212121213,0.01542647288972353
-0.005465201212121212,0.01483402885013983
-0.005464861212121213,0.0139124492330139
-0.005464521212121213,0.01335291875118643
-0.005464181212121212,0.01253007980732226
-0.005463841212121213,0.01239842557630427
-0.005463501212121213,0.01266173403834073
-0.005463161212121212,0.01391244923301492
-0.005462821212121213,0.01447197971484137
-0.005462481212121213,0.01503151019666884
-0.005462141212121212,0.01598600337155148
-0.005461801212121213,0.01624931183358745
-0.005461461212121213,0.01684175587316948
-0.005461121212121212,0.01756585414377118
-0.005460781212121213,0.01835577952987911
-0.005460441212121213,0.01931027270476127
-0.005460101212121212,0.01990271674434228
-0.005459761212121213,0.01934318626251582
-0.005459421212121213,0.01888239645395202
-0.005459081212121212,0.01779624904804906
-0.005458741212121213,0.01638096606460569
-0.005458401212121213,0.01549230000523264
-0.005458061212121212,0.0157556084672703
-0.005457721212121213,0.01641387962236024
-0.005457381212121213,0.01697341010418771
-0.005457041212121213,0.01730254568173268
-0.005456701212121213,0.01796081683682443
-0.005456361212121213,0.01815829818335177
-0.005456021212121213,0.01842160664538775
-0.005455681212121213,0.01789498972131531
-0.005455341212121213,0.0166771880843967
-0.005455001212121213,0.01536064577421681
-0.005454661212121212,0.01394536279076846
-0.005454321212121213,0.01315543740465909
-0.005453981212121213,0.01348457298220406
-0.005453641212121212,0.01397827634852302
-0.005453301212121213,0.01457072038810504
-0.005452961212121213,0.01519607798544049
-0.005452621212121212,0.01618348471807834
-0.005452281212121213,0.01641387962236024
-0.005451941212121213,0.01634805250685125
-0.005451601212121212,0.01615057116032378
-0.005451261212121213,0.01595308981379644
-0.005450921212121213,0.01519607798544301
-0.005450581212121212,0.01457072038810504
-0.005450241212121213,0.01453780683035049
-0.005449901212121213,0.01394536279076954
-0.005449561212121212,0.01430741192606859
-0.005449221212121213,0.01496568308115973
-0.005448881212121213,0.01608474404481263
-0.005448541212121212,0.01684175587316948
-0.005448201212121213,0.01773042193254253
-0.005447861212121213,0.0173683727972424
-0.005447521212121212,0.01680884231541493
-0.005447181212121213,0.01624931183358745
-0.005446841212121213,0.01562395423625087
-0.005446501212121212,0.0150644237544234
-0.005446161212121213,0.01450489327259593
-0.005445821212121213,0.01450489327259593
-0.005445481212121212,0.0141757576950506
-0.005445141212121213,0.01430741192606859
-0.005444801212121213,0.01410993057954124
-0.005444461212121212,0.01447197971484125
-0.005444121212121213,0.01440615259933226
-0.005443781212121213,0.01387953567525935
-0.005443441212121212,0.01381370855975161
-0.005443101212121213,0.01457072038810504
-0.005442761212121213,0.01536064577421441
-0.005442421212121212,0.01588726269828805
-0.005442081212121213,0.01628222539134202
-0.005441741212121213,0.0162163982758329
-0.005441401212121212,0.01578852202502282
-0.005441061212121213,0.01532773221645986
-0.005440721212121213,0.01601891692930556
-0.005440381212121212,0.01598600337155244
-0.005440041212121213,0.01677592875766037
-0.005439701212121213,0.0175987677015243
-0.005439361212121212,0.01792790327906951
-0.005439021212121213,0.01773042193254253
-0.005438681212121213,0.01684175587316948
-0.005438341212121212,0.0158543491405308
-0.005438001212121213,0.01476820173463239
-0.005437661212121213,0.01394536279076846
-0.005437321212121212,0.01387953567525994
-0.005436981212121213,0.01420867125280492
-0.005436641212121213,0.0148340288501415
-0.005436301212121213,0.0160518304870579
-0.005435961212121213,0.0171379778929605
-0.005435621212121213,0.01815829818335177
-0.005435281212121213,0.01855326087640573
-0.005434941212121213,0.01832286597212456
-0.005434601212121213,0.01789498972131531
-0.005434261212121213,0.01710506433520738
-0.005433921212121212,0.01631513894909657
-0.005433581212121213,0.01545938644747809
-0.005433241212121213,0.01519607798544211
-0.005432901212121212,0.01480111529238694
-0.005432561212121213,0.01424158481055947
-0.005432221212121213,0.01417575769505048
-0.005431881212121212,0.01203637644100415
-0.005431541212121213,0.005354924216829054
-0.005431201212121213,-0.008370029366796292
-0.005430861212121212,-0.03012589104258351
-0.005430521212121213,-0.05902399475108465
-0.005430181212121213,-0.09220086096761787
-0.005429841212121212,-0.1264967881479267
-0.005429501212121213,-0.1584229391698471
-0.005429161212121213,-0.1853133158552714
-0.005428821212121212,-0.2065096470492551
-0.005428481212121213,-0.2214194887120694
-0.005428141212121213,-0.2307998526721011
-0.005427801212121212,-0.2352102694112289
-0.005427461212121213,-0.2357697998930563
-0.005427121212121213,-0.2340253813320648
-0.005426781212121212,-0.2299441001704997
-0.005426441212121213,-0.2242171411212068
-0.005426101212121213,-0.217733170243559
-0.005425761212121212,-0.2103934468642928
-0.005425421212121213,-0.2022637980989172
-0.005425081212121213,-0.194101235775787
-0.005424741212121212,-0.1861032412414297
-0.005424401212121213,-0.1783027280535996
-0.005424061212121213,-0.1709630046743334
-0.005423721212121212,-0.16329414571751
-0.005423381212121213,-0.156941829070892
-0.005423041212121213,-0.1507540802130353
-0.005422701212121212,-0.1449612940482249
-0.005422361212121213,-0.1403863095203498
-0.005422021212121213,-0.1359758927812392
-0.005421681212121212,-0.1320262658506825
-0.005421341212121213,-0.126628442378945
-0.005421001212121213,-0.1212964460227067
-0.005420661212121212,-0.1158657089931942
-0.005420321212121213,-0.1100729228284027
-0.005419981212121213,-0.1044447044523734
-0.005419641212121212,-0.09940893011591802
-0.005419301212121213,-0.0948997727035519
-0.005418961212121213,-0.09104888644626871
-0.005418621212121212,-0.08808666624835233
-0.005418281212121213,-0.08466365624188463
-0.005417941212121213,-0.08117481911990157
-0.005417601212121212,-0.07778472267117544
-0.005417261212121213,-0.07406549064491724
-0.005416921212121213,-0.07067539419619787
-0.005416581212121212,-0.06764734688277386
-0.005416241212121213,-0.06504717582016858
-0.005415901212121213,-0.06198621494899479
-0.005415561212121212,-0.0586619456157783
-0.005415221212121213,-0.05523893560931058
-0.005414881212121213,-0.05217797473813677
-0.005414541212121213,-0.05003859348409445
-0.005414201212121213,-0.04760299021025333
-0.005413861212121213,-0.04582565809150724
-0.005413521212121213,-0.04427872087704588
-0.005413181212121213,-0.043093832797879
-0.005412841212121213,-0.04115193289036014
-0.005412501212121213,-0.03957208211814427
-0.005412161212121212,-0.03693899749777683
-0.005411821212121213,-0.03460213489720328
