Analysis/New Tests_CMB/wrd01_d2s01/cmb01_ch12.csv

#Digilent WaveForms Oscilloscope Acquisition
#Device Name: ADP3450
#Serial Number: SN:210018B9D9B0
#Date Time: 2024-08-14 14:50:54.680.047.610
#Sample rate: 5.88235e+06Hz
#Samples: 32768
#Trigger: Source: Channel 3 Type: Edge Condition: Rising Level: 50 mV Hyst.: Auto HoldOff: 0 s
#Channel 3: Range: 100 mV/div Offset: 0 V Attenuation: 1 X Coupling: DC Bandwidth: 0 Hz Sample Mode: Average

Time (s),Channel 3 (V)
-0.003798489744596688,0.196648521886315
-0.003798319744596688,0.2116241906646638
-0.003798149744596688,0.2255795391525706
-0.003797979744596688,0.2377904690795113
-0.003797809744596688,0.2479607584256843
-0.003797639744596688,0.2560904071910451
-0.003797469744596688,0.2628706000884838
-0.003797299744596688,0.2693216574083827
-0.003797129744596688,0.2724155318373054
-0.003796959744596688,0.2748511351111426
-0.003796789744596688,0.2761018503058154
-0.003796619744596688,0.2758714554015339
-0.003796449744596688,0.2752460978041973
-0.003796279744596688,0.2739953826095204
-0.003796109744596688,0.2719547420287416
-0.003795939744596688,0.2698811878902045
-0.003795769744596688,0.2665240049992342
-0.003795599744596688,0.2634959576858205
-0.003795429744596688,0.2603033425836284
-0.003795259744596688,0.2572423817124486
-0.003795089744596688,0.2539181123792443
-0.003794919744596688,0.2501659667952248
-0.003794749744596688,0.2467758703465116
-0.003794579744596688,0.2435503416865588
-0.003794409744596688,0.2405552079308941
-0.003794239744596688,0.236506840327091
-0.003794069744596688,0.2324913862810276
-0.003793899744596688,0.2283442780039535
-0.003793729744596688,0.2240984290536233
-0.003793559744596688,0.2203462834695961
-0.003793389744596688,0.216265002308031
-0.003793219744596688,0.2127103380705453
-0.003793049744596688,0.2091227602752921
-0.003792879744596688,0.2049098248827088
-0.003792709744596688,0.2010589386254326
-0.003792539744596688,0.1979321506387427
-0.003792369744596688,0.1937192152461594
-0.003792199744596688,0.1905595137017276
-0.003792029744596688,0.1868073681177024
-0.003791859744596688,0.1835489259000012
-0.003791689744596688,0.180290483682306
-0.003791519744596688,0.1774599177154082
-0.003791349744596688,0.174793919537289
-0.003791179744596688,0.1718975264548933
-0.003791009744596688,0.1690669604879961
-0.003790839744596688,0.1664667894253861
-0.003790669744596688,0.1640311861515533
-0.003790499744596688,0.1612993608579206
-0.003790329744596688,0.1593245473926472
-0.003790159744596688,0.1566914627722826
-0.003789989744596688,0.1543875137294636
-0.003789819744596688,0.151984824013381
-0.003789649744596688,0.1497796156438256
-0.003789479744596688,0.1473440123699884
-0.003789309744596688,0.1449084090961512
-0.003789139744596688,0.1422424109180321
-0.003788969744596688,0.1398068076441904
-0.003788799744596688,0.1373712043703576
-0.003788629744596688,0.1349685146542749
-0.003788459744596688,0.1331582689777716
-0.003788289744596688,0.1316442453210647
-0.003788119744596688,0.1270692607931812
-0.003787949744596688,0.1264768167535948
-0.003787779744596688,0.124041213479762
-0.003787609744596688,0.1220005728989794
-0.003787439744596688,0.1201574136647204
-0.003787269744596688,0.118018032410678
-0.003787099744596688,0.1159444782721409
-0.003786929744596688,0.1134759614405461
-0.003786759744596688,0.1117973699950667
-0.003786589744596688,0.1094275938367386
-0.003786419744596688,0.1072552990249342
-0.003786249744596688,0.1052146584441553
-0.003786079744596688,0.1033714992099001
-0.003785909744596688,0.1011333772825865
-0.003785739744596688,0.09909273670180768
-0.003785569744596688,0.09721666390979794
-0.003785399744596688,0.09494562842473021
-0.003785229744596688,0.09313538274823285
-0.003785059744596688,0.09129222351397767
-0.003784889744596688,0.08977819985726433
-0.003784719744596688,0.08773755927648549
-0.003784549744596688,0.08582857292672119
-0.003784379744596688,0.08480825263633177
-0.003784209744596688,0.0831296611908475
-0.003784039744596688,0.08214225445821077
-0.003783869744596688,0.08056240368599492
-0.003783699744596688,0.07934460204907343
-0.003783529744596688,0.07842302243194582
-0.003783359744596688,0.07766601060359239
-0.003783189744596688,0.07694191233299078
-0.003783019744596688,0.07641529540891784
-0.003782849744596688,0.07578993781158241
-0.003782679744596688,0.07516458021424469
-0.003782509744596688,0.07483544463669911
-0.003782339744596688,0.07427591415487265
-0.003782169744596688,0.07361764299978049
-0.003781999744596688,0.0729922854024439
-0.003781829744596688,0.0720377922275635
-0.003781659744596688,0.07101747193717048
-0.003781489744596688,0.06966801606923365
-0.003781319744596688,0.06831856020129927
-0.003781149744596688,0.06700201789111451
-0.003780979744596688,0.06558673490766856
-0.003780809744596688,0.06430310615524318
-0.003780639744596688,0.06252577403649476
-0.003780469744596688,0.0608800961487669
-0.003780299744596688,0.05976103518511398
-0.003780129744596688,0.05870780133696613
-0.003779959744596688,0.0574241725845384
-0.003779789744596688,0.0562721980631289
-0.003779619744596688,0.05610763027435611
-0.003779449744596688,0.05531770488824674
-0.003779279744596688,0.0548898286374375
-0.003779109744596688,0.05426447104010092
-0.003778939744596688,0.05390242190480079
-0.003778769744596688,0.05469234729091016
-0.003778599744596688,0.0535074592117461
-0.003778429744596688,0.05136807795769989
-0.003778259744596688,0.0512035101689271
-0.003778089744596688,0.0510718559379075
-0.003777919744596688,0.05031484410955406
-0.003777749744596688,0.04899830179937178
-0.003777579744596688,0.04830711708652501
-0.003777409744596688,0.04771467304694405
-0.003777239744596688,0.04649687141002544
-0.003777069744596688,0.0458386002549337
-0.003776899744596688,0.04550946467738873
-0.003776729744596688,0.0446866257335248
-0.003776559744596688,0.04425874948271454
-0.003776389744596688,0.04369921900088809
-0.003776219744596688,0.04304094784579694
-0.003776049744596688,0.04284346649926805
-0.003775879744596688,0.04198771399765112
-0.003775709744596688,0.04149401063133275
-0.003775539744596688,0.04057243101420426
-0.003775369744596688,0.0400787276478868
-0.003775199744596688,0.03951919716605933
-0.003775029744596688,0.03882801245321316
-0.003774859744596688,0.03856470399117717
-0.003774689744596688,0.03816974129812249
-0.003774519744596688,0.03774186504731283
-0.003774349744596688,0.03751147014303135
-0.003774179744596688,0.03668863119916742
-0.003774009744596688,0.03616201427509331
-0.003773839744596688,0.03550374312000337
-0.003773669744596688,0.03435176859859387
-0.003773499744596688,0.03362767032799493
-0.003773329744596688,0.03277191782637513
-0.003773159744596688,0.03201490599802031
-0.003772989744596688,0.03132372128517587
-0.003772819744596688,0.0305667094568198
-0.003772649744596688,0.03017174676376511
-0.003772479744596688,0.0291514264733757
-0.003772309744596688,0.02842732820277359
-0.003772139744596688,0.02832858752950991
-0.003771969744596688,0.02809819262522844
-0.003771799744596688,0.02790071127870067
-0.003771629744596688,0.02740700791238232
-0.003771459744596688,0.02720952656585533
-0.003771289744596688,0.02750574858564599
-0.003771119744596688,0.02737409435462776
-0.003770949744596688,0.02711078589259178
-0.003770779744596688,0.02697913166157307
-0.003770609744596688,0.02632086050648193
-0.003770439744596688,0.02622211983321844
-0.003770269744596688,0.02569550290914535
-0.003770099744596688,0.02536636733159978
-0.003769929744596688,0.0251030588695638
-0.003769759744596688,0.02457644194549041
-0.003769589744596688,0.02431313348345395
-0.003769419744596688,0.02286493694225343
-0.003769249744596688,0.02477392329201775
-0.003769079744596688,0.02332572675081724
-0.003768909744596688,0.02362194877060825
-0.003768739744596688,0.02381943011713559
-0.003768569744596688,0.02352320809734458
-0.003768399744596688,0.02329281319306268
-0.003768229744596688,0.02286493694225343
-0.003768059744596688,0.02227249290267141
-0.003767889744596688,0.02227249290267141
-0.003767719744596688,0.02158130818982457
-0.003767549744596688,0.02095595059248912
-0.003767379744596688,0.02118634549677102
-0.003767209744596688,0.02158130818982637
-0.003767039744596688,0.02194335732512584
-0.003766869744596688,0.02233832001818052
-0.003766699744596688,0.02253580136470829
-0.003766529744596688,0.02276619626898976
-0.003766359744596688,0.02309533184653534
-0.003766189744596688,0.02332572675081748
-0.003766019744596688,0.02345738098183546
-0.003765849744596688,0.02395108434815382
-0.003765679744596688,0.02437896059896288
-0.003765509744596688,0.02428021992569939
-0.003765339744596688,0.02457644194549041
-0.003765169744596688,0.02507014531180834
-0.003764999744596688,0.02483975040752686
-0.003764829744596688,0.02447770127222673
-0.003764659744596688,0.02474100973426259
-0.003764489744596688,0.02441187415671762
-0.003764319744596688,0.02372068944387192
-0.003764149744596688,0.02286493694225248
-0.003763979744596688,0.02233832001818052
-0.003763809744596688,0.0217458759785985
-0.003763639744596688,0.02125217261227882
-0.003763469744596688,0.02052807434167988
-0.003763299744596688,0.01940901337802494
-0.003763129744596688,0.01815829818335404
-0.003762959744596688,0.01723671856622417
-0.003762789744596688,0.01671010164215126
-0.003762619744596688,0.01582143558277983
-0.003762449744596688,0.01536064577421441
-0.003762279744596688,0.01519607798544163
-0.003762109744596688,0.01473528817687867
-0.003761939744596688,0.01427449836831403
-0.003761769744596688,0.01424158481055947
-0.003761599744596688,0.01397827634852349
-0.003761429744596688,0.01371496788648656
-0.003761259744596688,0.01434032548382314
-0.003761089744596688,0.01391244923301468
-0.003760919744596688,0.01341874586669555
-0.003760749744596688,0.01351748653995922
-0.003760579744596688,0.01348457298220472
-0.003760409744596688,0.0129908696158863
-0.003760239744596688,0.0132212645201682
-0.003760069744596688,0.0132541780779227
-0.003759899744596688,0.01282630182711352
-0.003759729744596688,0.01397827634852302
-0.003759559744596688,0.0141428441372955
-0.003759389744596688,0.01476820173463239
-0.003759219744596688,0.01526190510095074
-0.003759049744596688,0.01559104067849572
-0.003758879744596688,0.01605183048706011
-0.003758709744596688,0.01651262029562391
-0.003758539744596688,0.01687466943092404
-0.003758369744596688,0.01680884231541493
-0.003758199744596688,0.01664427452664214
-0.003758029744596688,0.0166771880843967
-0.003757859744596688,0.01657844741113303
-0.003757689744596688,0.0169075829886786
-0.003757519744596688,0.01684175587316948
-0.003757349744596688,0.01677592875765977
-0.003757179744596688,0.0164467931801148
-0.003757009744596688,0.01601891692930556
-0.003756839744596688,0.01601891692930544
-0.003756669744596688,0.01595308981379644
-0.003756499744596688,0.01615057116032378
-0.003756329744596688,0.01582143558277839
-0.003756159744596688,0.01592017625604189
-0.003755989744596688,0.0155252135629872
-0.003755819744596688,0.0150973373121776
-0.003755649744596688,0.01489985596565062
-0.003755479744596688,0.01509733731217796
-0.003755309744596688,0.01476820173463179
-0.003755139744596688,0.01443906615708682
-0.003754969744596688,0.01453780683035049
-0.003754799744596688,0.01407701702178639
-0.003754629744596688,0.0139124492330139
-0.003754459744596688,0.01397827634852302
-0.003754289744596688,0.0135174865399588
-0.003754119744596688,0.01328709163567732
-0.003753949744596688,0.01295795605813175
-0.003753779744596688,0.01285921538486796
-0.003753609744596688,0.01279338826935896
-0.003753439744596688,0.01282630182711352
-0.003753269744596688,0.01249716624956771
-0.003753099744596688,0.01236551201854972
-0.003752929744596688,0.01223385778753149
-0.003752759744596688,0.01272756115384895
-0.003752589744596688,0.01295795605813175
-0.003752419744596688,0.01256299336507706
-0.003752249744596688,0.01302378317364002
-0.003752079744596688,0.01351748653995922
-0.003751909744596688,0.01381370855975023
-0.003751739744596688,0.01427449836831319
-0.003751569744596688,0.01486694240789606
-0.003751399744596688,0.0152948186587053
-0.003751229744596688,0.01585434914053175
-0.003751059744596688,0.01608474404481467
-0.003750889744596688,0.01634805250685113
-0.003750719744596688,0.01651262029562361
-0.003750549744596688,0.01657844741113303
-0.003750379744596688,0.01651262029562391
-0.003750209744596688,0.01598600337155196
-0.003750039744596688,0.0166771880843967
-0.003749869744596688,0.01605183048706011
-0.003749699744596688,0.01592017625604213
-0.003749529744596688,0.01582143558277821
-0.003749359744596688,0.01526190510095074
-0.003749189744596688,0.0146365475036153
-0.003749019744596688,0.01473528817687783
-0.003748849744596688,0.01397827634852302
-0.003748679744596688,0.01440615259933148
-0.003748509744596688,0.01378079500199567
-0.003748339744596688,0.0134516594244501
-0.003748169744596688,0.01302378317364086
-0.003747999744596688,0.0129908696158863
-0.003747829744596688,0.01256299336507706
-0.003747659744596688,0.0125300798073225
-0.003747489744596688,0.01249716624956795
-0.003747319744596688,0.01213511711426782
-0.003747149744596688,0.01213511711426782
-0.003746979744596688,0.01197054932549503
-0.003746809744596688,0.01170724086345858
-0.003746639744596688,0.01124645105489478
-0.003746469744596688,0.01131227817040347
-0.003746299744596688,0.01108188326612199
-0.003746129744596688,0.01131227817040389
-0.003745959744596688,0.01121353749713992
-0.003745789744596688,0.01104896970836743
-0.003745619744596688,0.01104896970836743
-0.003745449744596688,0.01111479682387727
-0.003745279744596688,0.01150975951693123
-0.003745109744596688,0.0118388950944768
-0.003744939744596688,0.0118718086522316
-0.003744769744596688,0.01200346288324959
-0.003744599744596688,0.01190472220998592
-0.003744429744596688,0.01154267307468651
-0.003744259744596688,0.01193763576774048
-0.003744089744596688,0.01256299336507706
-0.003743919744596688,0.0125629933650776
-0.003743749744596688,0.01285921538486808
-0.003743579744596688,0.01335291875118643
-0.003743409744596688,0.01358331365546971
-0.003743239744596688,0.01434032548382314
-0.003743069744596688,0.01470237461912327
-0.003742899744596688,0.01466946106136914
-0.003742729744596688,0.01489985596565062
-0.003742559744596688,0.01513025086993251
-0.003742389744596688,0.0154593864474788
-0.003742219744596688,0.01585434914053277
-0.003742049744596688,0.01568978135175999
-0.003741879744596688,0.0155252135629875
-0.003741709744596688,0.01526190510095074
-0.003741539744596688,0.01489985596565062
-0.003741369744596688,0.01447197971484215
-0.003741199744596688,0.01361622721322289
-0.003741029744596688,0.01154267307468579
-0.003740859744596688,0.01190472220998526
-0.003740689744596688,0.01197054932549503
-0.003740519744596688,0.01213511711426782
-0.003740349744596688,0.01170724086345936
-0.003740179744596688,0.01078566124633098
-0.003740009744596688,0.01052235278429452
-0.003739839744596688,0.01025904432225854
-0.003739669744596688,0.01016030364899439
-0.003739499744596688,0.01065400701531275
-0.003739329744596688,0.01065400701531275
-0.003739159744596688,0.01095022903510376
-0.003738989744596688,0.01052235278429452
-0.003738819744596688,0.01085148836183949
-0.003738649744596688,0.01098314259285832
-0.003738479744596688,0.01101605615061288
-0.003738309744596688,0.01091731547734939
-0.003738139744596688,0.01121353749714022
-0.003737969744596688,0.01065400701531275
-0.003737799744596688,0.01157558663243867
-0.003737629744596688,0.01104896970836743
-0.003737459744596688,0.01118062393938566
-0.003737289744596688,0.01141101884366756
-0.003737119744596688,0.011378105285913
-0.003736949744596688,0.01101605615061288
-0.003736779744596688,0.01144393240142212
-0.003736609744596688,0.01141101884366756
-0.003736439744596688,0.01121353749714022
-0.003736269744596688,0.01131227817040389
-0.003736099744596688,0.0112135374971407
-0.003735929744596688,0.01147684595917668
-0.003735759744596688,0.01118062393938566
-0.003735589744596688,0.0114110188436681
-0.003735419744596688,0.01170724086345858
-0.003735249744596688,0.01180598153672225
-0.003735079744596688,0.0121680306720219
-0.003734909744596688,0.01190472220998592
-0.003734739744596688,0.01223385778753149
-0.003734569744596688,0.01335291875118332
-0.003734399744596688,0.01164141374794946
-0.003734229744596688,0.01147684595917668
-0.003734059744596688,0.01226677134528545
-0.003733889744596688,0.01193763576774048
-0.003733719744596688,0.01200346288324959
-0.003733549744596688,0.01200346288324791
-0.003733379744596688,0.01108188326612199
-0.003733209744596688,0.01114771038163111
-0.003733039744596688,0.01071983413082162
-0.003732869744596688,0.01058817989980363
-0.003732699744596688,0.01075274768857642
-0.003732529744596688,0.01032487143776682
-0.003732359744596688,0.01012739009123984
-0.003732189744596688,0.01039069855327629
-0.003732019744596688,0.01035778499552173
-0.003731849744596688,0.01035778499552173
-0.003731679744596688,0.01029195788001262
-0.003731509744596688,0.008909588454323738
-0.003731339744596688,0.01012739009123984
-0.003731169744596688,0.01114771038163111
-0.003730999744596688,0.01134519172815809
-0.003730829744596688,0.01180598153672225
-0.003730659744596688,0.01177306797896769
-0.003730489744596688,0.0116085001901952
-0.003730319744596688,0.01170724086345858
-0.003730149744596688,0.01180598153672225
-0.003729979744596688,0.01210220355651272
-0.003729809744596688,0.01256299336507706
-0.003729639744596688,0.01131227817040389
-0.003729469744596688,0.01137810528591288
-0.003729299744596688,0.01104896970836743
-0.003729129744596688,0.01065400701531275
-0.003728959744596688,0.01052235278429476
-0.003728789744596688,0.01012739009123984
-0.003728619744596688,0.00973242739818515
-0.003728449744596688,0.009765340955939646
-0.003728279744596688,0.009995735860221606
-0.003728109744596688,0.009864081629203377
-0.003727939744596688,0.009436205378394914
-0.003727769744596688,0.009370378262885021
-0.003727599744596688,0.009633686724921478
-0.003727429744596688,0.009995735860220947
-0.003727259744596688,0.01029195788001262
-0.003727089744596688,0.01039069855327629
-0.003726919744596688,0.01058817989980363
-0.003726749744596688,0.01085148836184009
-0.003726579744596688,0.01127936461264933
-0.003726409744596688,0.01127936461264933
-0.003726239744596688,0.01131227817040389
-0.003726069744596688,0.01174015442121313
-0.003725899744596688,0.01180598153672225
-0.003725729744596688,0.01180598153672225
-0.003725559744596688,0.0116085001901949
-0.003725389744596688,0.01108188326612199
-0.003725219744596688,0.01065400701531239
-0.003725049744596688,0.01045652566878541
-0.003724879744596688,0.009765340955939707
-0.003724709744596688,0.009337464705130106
-0.003724539744596688,0.009139983358603122
-0.003724369744596688,0.008975415569830336
-0.003724199744596688,0.00894250201207542
-0.003724029744596688,0.008745020665548437
-0.003723859744596688,0.008745020665548437
-0.003723689744596688,0.008909588454321223
-0.003723519744596688,0.008909588454321223
-0.003723349744596688,0.009271637589621349
-0.003723179744596688,0.009074156243094126
-0.003723009744596688,0.009139983358603122
-0.003722839744596688,0.009798254513694264
-0.003722669744596688,0.01019321720675021
-0.003722499744596688,0.01088440191959465
-0.003722329744596688,0.01121353749714022
-0.003722159744596688,0.01289212894262281
-0.003721989744596688,0.0129908696158863
-0.003721819744596688,0.01262882048058617
-0.003721649744596688,0.01206928999875966
-0.003721479744596688,0.01259590692283162
-0.003721309744596688,0.0127604747116044
-0.003721139744596688,0.0127933882693586
-0.003720969744596688,0.01259590692283162
-0.003720799744596688,0.01236551201854972
-0.003720629744596688,0.01220094422977723
-0.003720459744596688,0.01249716624956795
-0.003720289744596688,0.01289212894262263
-0.003720119744596688,0.01164141374795174
-0.003719949744596688,0.01154267307468579
-0.003719779744596688,0.01114771038163111
-0.003719609744596688,0.01085148836184063
-0.003719439744596688,0.01062109345755819
-0.003719269744596688,0.01039069855327629
-0.003719099744596688,0.0103248714377673
-0.003718929744596688,0.01006156297573072
