Analysis/New Tests_CMB/wrd01_d2s01/cmb01_ch37.csv

#Digilent WaveForms Oscilloscope Acquisition
#Device Name: ADP3450
#Serial Number: SN:210018B9D9B0
#Date Time: 2024-08-14 15:02:57.903.558.300
#Sample rate: 5.88235e+06Hz
#Samples: 32768
#Trigger: Source: Channel 3 Type: Edge Condition: Rising Level: 90 mV Hyst.: Auto HoldOff: 0 s
#Channel 3: Range: 100 mV/div Offset: 0 V Attenuation: 1 X Coupling: DC Bandwidth: 0 Hz Sample Mode: Average

Time (s),Channel 3 (V)
-0.003798431058229796,0.2456568093828505
-0.003798261058229796,0.2529307056465944
-0.003798091058229796,0.2628706000884657
-0.003797921058229796,0.2668531405767708
-0.003797751058229795,0.2711977302003886
-0.003797581058229796,0.2721851369330235
-0.003797411058229796,0.2746865673223698
-0.003797241058229796,0.2734358521276989
-0.003797071058229796,0.2730738029923972
-0.003796901058229796,0.2689925218308463
-0.003796731058229795,0.2688937811575633
-0.003796561058229795,0.266425264325976
-0.003796391058229796,0.265240376246812
-0.003796221058229796,0.2585260104648945
-0.003796051058229796,0.2588551460424273
-0.003795881058229796,0.2529636192043836
-0.003795711058229795,0.2470062652507853
-0.003795541058229795,0.2458872042871324
-0.003795371058229796,0.2403248130266122
-0.003795201058229796,0.2391070113896958
-0.003795031058229796,0.2343345455152915
-0.003794861058229796,0.2321951642612444
-0.003794691058229796,0.22702773569379
-0.003794521058229795,0.2206425054893871
-0.003794351058229796,0.220280456354087
-0.003794181058229796,0.2151130277866309
-0.003794011058229796,0.2140927074962321
-0.003793841058229796,0.2091885873908191
-0.003793671058229796,0.2056010095955675
-0.003793501058229795,0.2011247657409347
-0.003793331058229796,0.1986891624670975
-0.003793161058229796,0.1950028439985938
-0.003792991058229796,0.1943116592857426
-0.003792821058229796,0.1873668985995551
-0.003792651058229796,0.1784144108903229
-0.003792481058229795,0.1777561397351992
-0.003792311058229796,0.1833514445534739
-0.003792141058229796,0.176406683867275
-0.003791971058229796,0.174069821266693
-0.003791801058229796,0.1718646128971375
-0.003791631058229796,0.1710417739532725
-0.003791461058229795,0.1718316993393789
-0.003791291058229796,0.1676516775045502
-0.003791121058229796,0.1615626693199682
-0.003790951058229796,0.1558686238284291
-0.003790781058229796,0.1534001069968314
-0.003790611058229796,0.152050651128895
-0.003790441058229795,0.1515569477625717
-0.003790271058229796,0.1477060615052885
-0.003790101058229796,0.1466857412148973
-0.003789931058229796,0.143361471881693
-0.003789761058229796,0.1411891770698902
-0.003789591058229796,0.1384902653340224
-0.003789421058229795,0.1380623890832033
-0.003789251058229796,0.1348368604232567
-0.003789081058229796,0.1344748112879566
-0.003788911058229796,0.1331253554200222
-0.003788741058229796,0.130426443684151
-0.003788571058229796,0.1275958777172644
-0.003788401058229795,0.1238766456909852
-0.003788231058229796,0.1217043508791884
-0.003788061058229796,0.1184129951037327
-0.003787891058229796,0.1182813408727147
-0.003787721058229796,0.1129822580742404
-0.003787551058229796,0.11156697509079
-0.003787381058229795,0.1078148295067629
-0.003787211058229796,0.1064982871965831
-0.003787041058229796,0.1012650315136085
-0.003786871058229796,0.1001459705499556
-0.003786701058229796,0.09965226718363608
-0.003786531058229796,0.09678878765899911
-0.003786361058229795,0.09981683497239072
-0.003786191058229796,0.09033773033909551
-0.003786021058229796,0.09168718620703234
-0.003785851058229796,0.09083143370541541
-0.003785681058229796,0.09076560658990486
-0.003785511058229796,0.08823126264281306
-0.003785341058229795,0.08829708975830763
-0.003785171058229795,0.08536778311815738
-0.003785001058229796,0.08586148648447575
-0.003784831058229796,0.08359045099941542
-0.003784661058229796,0.08569691869569912
-0.003784491058229796,0.0816814646496616
-0.003784321058229796,0.08576274581119722
-0.003784151058229795,0.06772611616171478
-0.003783981058229796,0.08293217984432016
-0.003783811058229796,0.07569119713833077
-0.003783641058229796,0.07243275492062236
-0.003783471058229796,0.07374929723079394
-0.003783301058229796,0.07118203972595262
-0.003783131058229795,0.0699313245312701
-0.003782961058229796,0.06795651106599668
-0.003782791058229796,0.06348026721138504
-0.003782621058229796,0.0563709387364055
-0.003782451058229796,0.05373785411603758
-0.003782281058229796,0.05956355383856342
-0.003782111058229795,0.06506011798359565
-0.003781941058229796,0.05722669123801106
-0.003781771058229796,0.05867488777920893
-0.003781601058229796,0.05788496239310363
-0.003781431058229796,0.06111049105304292
-0.003781261058229796,0.06384231634666709
-0.003781091058229795,0.06081426903325778
-0.003780921058229796,0.05597597604333789
-0.003780751058229796,0.08526904244484043
-0.003780581058229796,0.05874071489476893
-0.003780411058229796,0.05031484410956939
-0.003780241058229796,0.06986549741568986
-0.003780071058229795,0.06338152653811324
-0.003779901058229796,0.06400688413544983
-0.003779731058229796,0.06137379951508525
-0.003779561058229796,0.06051804701346832
-0.003779391058229796,0.05874071489472391
-0.003779221058229796,0.06045221989795143
-0.003779051058229795,0.05821409797064777
-0.003778881058229796,0.05716086412250194
-0.003778711058229796,0.0553506184460013
-0.003778541058229796,0.05268462026788703
-0.003778371058229796,0.05061106612934885
-0.003778201058229796,0.05011736276302851
-0.003778031058229795,0.04912995603038677
-0.003777861058229796,0.04735262391164392
-0.003777691058229796,0.04755010525817126
-0.003777521058229796,0.04445623082924852
-0.003777351058229796,0.04435749015597941
-0.003777181058229796,0.04379795967415379
-0.003777011058229795,0.04366630544313496
-0.003776841058229796,0.0444562308292429
-0.003776671058229796,0.04435749015597923
-0.003776501058229796,0.04093448014951151
-0.003776331058229796,0.0395521107238164
-0.003776161058229796,0.03974959207034051
-0.003775991058229795,0.04136235640031267
-0.003775821058229796,0.04034203610992326
-0.003775651058229796,0.03978250562809579
-0.003775481058229796,0.0385317904334249
-0.003775311058229796,0.03863053110668611
-0.003775141058229796,0.03984833274360047
-0.003774971058229795,0.03997998697462224
-0.003774801058229795,0.03948628360830477
-0.003774631058229796,0.03872927177994996
-0.003774461058229796,0.03919006158851292
-0.003774291058229796,0.03744564302752541
-0.003774121058229796,0.03612910071734474
-0.003773951058229795,0.03234404157556678
-0.003773781058229795,0.03283774494188424
-0.003773611058229796,0.03138954840068373
-0.003773441058229796,0.03185033820924669
-0.003773271058229796,0.02994135185948668
-0.003773101058229796,0.03161994330495952
-0.003772931058229796,0.03145537551619344
-0.003772761058229795,0.02796653839420979
-0.003772591058229796,0.02026476587964342
-0.003772421058229796,0.01305669673140853
-0.003772251058229796,0.01894822356945042
-0.003772081058229796,0.02316115896202912
-0.003771911058229796,0.02293076405776339
-0.003771741058229795,0.0259588113711818
-0.003771571058229796,0.02727535368136409
-0.003771401058229796,0.0294805620509154
-0.003771231058229796,0.03168577042047073
-0.003771061058229796,0.02711078589260794
-0.003770891058229796,0.02507014531181619
-0.003770721058229795,0.02543219444710889
-0.003770551058229796,0.02707787233483674
-0.003770381058229796,0.02961221628193303
-0.003770211058229796,0.03267317715310589
-0.003770041058229796,0.03303522628841092
-0.003769871058229796,0.03418720080981689
-0.003769701058229795,0.03287065849963879
-0.003769531058229796,0.03237695513332044
-0.003769361058229796,0.02605755204444548
-0.003769191058229796,0.0293159942621407
-0.003769021058229796,0.02684747743055934
-0.003768851058229796,0.0248726639652886
-0.003768681058229795,0.02658416896851839
-0.003768511058229796,0.02605755204444548
-0.003768341058229796,0.02464226906099952
-0.003768171058229796,0.02263454203797519
-0.003768001058229796,0.02233832001818106
-0.003767831058229796,0.01852034731866578
-0.003767661058229795,0.01644679318012151
-0.003767491058229796,0.02013311164862519
-0.003767321058229796,0.01802664395233354
-0.003767151058229796,0.02019893876413036
-0.003766981058229796,0.02052807434167928
-0.003766811058229796,0.01697341010420064
-0.003766641058229795,0.02006728453311608
-0.003766471058229796,0.02006728453311608
-0.003766301058229796,0.0173683727972424
-0.003766131058229796,0.01654553385337997
-0.003765961058229796,0.01651262029562397
-0.003765791058229796,0.01559104067849967
-0.003765621058229795,0.01634805250685562
-0.003765451058229796,0.01881656933844291
-0.003765281058229796,0.01723671856622417
-0.003765111058229796,0.01707215077745168
-0.003764941058229796,0.01605183048706197
-0.003764771058229796,0.01638096606460449
-0.003764601058229795,0.01384662211751024
-0.003764431058229795,0.01684175587316948
-0.003764261058229796,0.01750002702826063
-0.003764091058229796,0.02003437097535691
-0.003763921058229796,0.02000145741760703
-0.003763751058229796,0.01881656933844722
-0.003763581058229795,0.01697341010418753
-0.003763411058229795,0.01687466943092404
-0.003763241058229796,0.0169075829886786
-0.003763071058229796,0.01782916260580452
-0.003762901058229796,0.01812538462559667
-0.003762731058229796,0.01187180865225411
-0.003762561058229796,0.007856354606190002
-0.003762391058229795,0.005453664890092726
-0.003762221058229796,0.01740128635499695
-0.003762051058229796,0.0192773591470033
-0.003761881058229796,0.01720380500847338
-0.003761711058229796,0.0173683727972418
-0.003761541058229796,0.01703923721969803
-0.003761371058229795,0.01927735914700671
-0.003761201058229796,0.02658416896851839
-0.003761031058229796,0.02635377406423691
-0.003760861058229796,0.02013311164863651
-0.003760691058229796,0.02089012347697725
-0.003760521058229796,0.01743419991276409
-0.003760351058229795,0.0196723218400614
-0.003760181058229796,0.02072555568820722
-0.003760011058229796,0.02335864030856701
-0.003759841058229796,0.02056098789943953
-0.003759671058229796,0.01990271674434449
-0.003759501058229796,0.01680884231542618
-0.003759331058229795,0.015986003371551
-0.003759161058229796,0.01397827634852302
-0.003758991058229796,0.01921153203148808
-0.003758821058229796,0.01302378317365212
-0.003758651058229796,0.01328709163567684
-0.003758481058229796,0.0125629933650797
-0.003758311058229795,0.01081857480408553
-0.003758141058229796,0.01197054932549503
-0.003757971058229796,0.01285921538486808
-0.003757801058229796,0.01447197971483844
-0.003757631058229796,0.01141101884367313
-0.003757461058229796,0.01220094422977406
-0.003757291058229795,0.009534946051659483
-0.003757121058229796,0.01045652566878541
-0.003756951058229796,0.00904124268533945
-0.003756781058229796,0.01256299336507065
-0.003756611058229796,0.01108188326612469
-0.003756441058229796,0.01279338826935273
-0.003756271058229795,0.01131227817040287
-0.003756101058229796,0.01075274768857642
-0.003755931058229796,0.01019321720674895
-0.003755761058229796,0.009929908744712971
-0.003755591058229796,0.01071983413082043
-0.003755421058229796,0.009172896916363306
-0.003755251058229795,0.009995735860220289
-0.003755081058229796,0.009271637589621349
-0.003754911058229796,0.01190472220998592
-0.003754741058229796,0.01203637644100391
-0.003754571058229796,0.01295795605813007
-0.003754401058229796,0.01160850019019981
-0.003754231058229795,0.01338583230893847
-0.003754061058229795,0.01200346288324959
-0.003753891058229796,0.01378079500199567
-0.003753721058229796,0.01526190510094805
-0.003753551058229796,0.01756585414376555
-0.003753381058229796,0.01713797789296206
-0.003753211058229795,0.01703923721969551
-0.003753041058229795,0.01631513894909657
-0.003752871058229796,0.01657844741113303
-0.003752701058229796,0.01466946106137219
-0.003752531058229796,0.009798254513703124
-0.003752361058229796,0.00245853113445473
-0.003752191058229796,0.01131227817037168
-0.003752021058229795,0.0173683727972424
-0.003751851058229796,0.01417575769505036
-0.003751681058229796,0.01927735914699743
-0.003751511058229796,0.01917861847374322
-0.003751341058229796,0.02000145741760397
-0.003751171058229796,0.02144965395880221
-0.003751001058229795,0.01986980318658874
-0.003750831058229796,0.01394536279076846
-0.003750661058229796,0.01154267307469016
-0.003750491058229796,0.01779624904804026
-0.003750321058229796,0.01624931183359308
-0.003750151058229796,0.01819121174109926
-0.003749981058229795,0.01661136096888758
-0.003749811058229796,0.01348457298220466
-0.003749641058229796,0.01253007980732424
-0.003749471058229796,0.01338583230893943
-0.003749301058229796,0.01266173403834205
-0.003749131058229796,0.01318835096241173
-0.003748961058229795,0.01269464759609529
-0.003748791058229796,0.01364914077097745
-0.003748621058229796,0.0118388950944801
-0.003748451058229796,0.0118718086522313
-0.003748281058229796,0.01075274768857845
-0.003748111058229796,0.0119705493254906
-0.003747941058229795,0.01101605615061288
-0.003747771058229796,0.00904124268533945
-0.003747601058229796,0.008876674896566664
-0.003747431058229796,0.01055526634204602
-0.003747261058229796,0.01239842557630092
-0.003747091058229796,0.01052235278430134
-0.003746921058229795,0.01029195788001262
-0.003746751058229796,0.009172896916357679
-0.003746581058229796,0.009864081629203377
-0.003746411058229796,0.008679193550041476
-0.003746241058229796,0.009765340955937731
-0.003746071058229796,0.009699513840430832
-0.003745901058229795,0.01062109345755765
-0.003745731058229796,0.01032487143776718
-0.003745561058229796,0.01091731547734921
-0.003745391058229796,0.009896995186959792
-0.003745221058229796,0.01183889509447327
-0.003745051058229796,0.01131227817040581
-0.003744881058229795,0.01266173403833888
-0.003744711058229796,0.01164141374794946
-0.003744541058229796,0.00973242739818515
-0.003744371058229796,0.01075274768857456
-0.003744201058229796,0.01134519172815737
-0.003744031058229796,0.01700632366192167
-0.003743861058229795,0.009469118936152104
-0.003743691058229795,0.01134519172815845
-0.003743521058229796,0.009699513840430593
-0.003743351058229796,0.009929908744712073
-0.003743181058229796,0.01035778499552096
-0.003743011058229796,0.01078566124632942
-0.003742841058229795,0.01095022903510472
-0.003742671058229795,0.01147684595917668
-0.003742501058229796,0.01081857480408553
-0.003742331058229796,0.008020922394953268
-0.003742161058229796,-9.985697149146253e-06
-0.003741991058229796,0.004894134408247414
-0.003741821058229796,0.0133858323089101
-0.003741651058229795,0.01661136096888758
-0.003741481058229796,0.01210220355651326
-0.003741311058229796,0.01542647288971748
-0.003741141058229796,0.01684175587316691
-0.003740971058229796,0.02181170309408953
-0.003740801058229796,0.02102177770800111
-0.003740631058229795,0.01710506433520594
-0.003740461058229796,0.01095022903510376
-0.003740291058229796,0.008152576625971499
-0.003740121058229796,0.008942502012074343
-0.003739951058229796,0.01154267307467633
-0.003739781058229796,0.01404410346402303
-0.003739611058229795,0.01246425269181339
-0.003739441058229796,0.01197054932549503
-0.003739271058229796,0.009896995186961707
-0.003739101058229796,0.009337464705131483
-0.003738931058229796,0.008745020665549514
-0.003738761058229796,0.009403291820637184
-0.003738591058229795,0.008547539319021094
-0.003738421058229796,0.00881084778105755
-0.003738251058229796,0.008251317299231098
-0.003738081058229796,0.007263910566595162
-0.003737911058229796,0.008514625761264261
-0.003737741058229796,0.007362651239861229
-0.003737571058229795,-0.002083539835700852
-0.003737401058229796,0.006638552969256781
-0.003737231058229796,0.005585319121110954
-0.003737061058229796,2.292786060092023e-05
-0.003736891058229796,0.004071295464393963
-0.003736721058229796,0.003775073444611391
-0.003736551058229795,0.004170036137664999
-0.003736381058229796,0.004137122579910441
-0.003736211058229796,0.004235863253174112
-0.003736041058229796,0.002524358249940256
-0.003735871058229796,0.00160277863281122
-0.003735701058229796,0.002293963345652729
-0.003735531058229795,0.003544678540328952
-0.003735361058229796,0.003840900560119427
-0.003735191058229796,0.003972554791137656
-0.003735021058229796,0.002853493827484749
-0.003734851058229796,0.002886407385237211
-0.003734681058229796,0.004992875081521263
-0.003734511058229795,0.00278766671197797
-0.003734341058229796,0.005190356428056269
-0.003734171058229796,0.03155411618945651
-0.003734001058229796,0.01532773221648937
-0.003733831058229796,0.001569865075080012
-0.003733661058229796,0.014965683081111
-0.003733491058229795,0.01216803067201812
-0.003733321058229795,0.00983116807144882
-0.003733151058229796,0.0150644237544234
-0.003732981058229796,0.01582143558277684
-0.003732811058229796,0.01578852202502372
-0.003732641058229796,0.01417575769505623
-0.003732471058229795,0.01575560846726024
-0.003732301058229795,0.01088440191959465
-0.003732131058229796,0.007395564797611595
-0.003731961058229796,0.004400431041952346
-0.003731791058229796,0.0139124492329966
-0.003731621058229796,0.01503151019666477
-0.003731451058229796,0.0163151389490919
-0.003731281058229795,0.01710506433520594
-0.003731111058229796,0.01605183048706011
-0.003730941058229796,0.01516316442768869
-0.003730771058229796,0.01447197971484263
-0.003730601058229796,0.01039069855329114
-0.003730431058229796,0.00864627999229111
-0.003730261058229795,0.007593046144138938
-0.003730091058229796,0.006868947873538681
-0.003729921058229796,0.01078566124632385
-0.003729751058229796,0.009896995186959552
-0.003729581058229796,0.01022613076450231
-0.003729411058229796,0.007955095279447329
-0.003729241058229795,0.01052235278429452
-0.003729071058229796,0.007263910566593366
-0.003728901058229796,0.008975415569827222
-0.003728731058229796,0.007099342777823994
-0.003728561058229796,0.007198083451083893
-0.003728391058229796,0.007000602104557628
-0.003728221058229795,0.009469118936148692
-0.003728051058229796,0.008777934223302994
-0.003727881058229796,0.008679193550039502
-0.003727711058229796,0.009205810474111278
-0.003727541058229796,0.007230997008842402
-0.003727371058229796,0.005519492005608065
-0.003727201058229795,0.003610505655837527
-0.003727031058229796,0.008053835952702737
-0.003726861058229796,0.008251317299230079
-0.003726691058229796,0.01174015442120679
-0.003726521058229796,0.01223385778753059
-0.003726351058229796,0.01266173403833918
-0.003726181058229795,0.01308961028914997
-0.003726011058229796,0.01042361211103085
-0.003725841058229796,0.01081857480408553
-0.003725671058229796,0.009732427398187126
-0.003725501058229796,0.007889268163933304
-0.003725331058229796,0.008942502012071947
-0.003725161058229795,0.01065400701531897
-0.003724991058229796,0.01407701702178669
-0.003724821058229796,0.01532773221645986
-0.003724651058229796,0.01341874586669902
-0.003724481058229796,0.01045652566879079
-0.003724311058229796,0.00627650383397186
-0.003724141058229795,0.01164141374794335
-0.003723971058229796,0.008284230856984636
-0.003723801058229796,0.01075274768857642
-0.003723631058229796,0.009205810474115049
-0.003723461058229796,0.01483402885013126
-0.003723291058229796,0.01394536279077169
-0.003723121058229795,0.01555812712073936
-0.003722951058229796,0.01424158481055947
-0.003722781058229796,0.01371496788648656
-0.003722611058229796,0.01236551201855217
-0.003722441058229796,0.0126288204805857
-0.003722271058229796,0.006309417391734199
-0.003722101058229795,0.001833173537101023
-0.003721931058229795,0.007099342777820581
-0.003721761058229796,0.01562395423625087
-0.003721591058229796,0.01575560846726886
-0.003721421058229796,0.008547539319034205
-0.003721251058229796,0.01006156297572521
-0.003721081058229795,0.008350057972504767
-0.003720911058229795,0.01440615259933226
-0.003720741058229796,0.0148340288501415
-0.003720571058229796,0.01410993057954256
-0.003720401058229796,0.009469118936157133
-0.003720231058229796,0.009732427398184192
-0.003720061058229796,0.01058817989980052
-0.003719891058229795,0.01305669673139542
-0.003719721058229796,0.01325417807792276
-0.003719551058229796,0.01289212894262329
-0.003719381058229796,0.01358331365546707
