Analysis/New Tests_CMB/wrd01_d2s01/cmb07_ch33.csv

#Digilent WaveForms Oscilloscope Acquisition
#Device Name: ADP3450
#Serial Number: SN:210018B9D9B0
#Date Time: 2024-08-07 10:35:18.473.206.030
#Sample rate: 2.94118e+06Hz
#Samples: 32768
#Trigger: Source: Channel 3 Type: Edge Condition: Rising Level: 0 V Hyst.: Auto HoldOff: 0 s
#Channel 3: Range: 200 mV/div Offset: 0 V Attenuation: 1 X Coupling: DC Bandwidth: 0 Hz Sample Mode: Average

Time (s),Channel 3 (V)
-0.00557045925925926,0.01312252384690453
-0.005570119259259259,0.01401118990627877
-0.005569779259259259,0.01466946106136872
-0.00556943925925926,0.01486694240789606
-0.005569099259259259,0.01410993057953993
-0.005568759259259259,0.01338583230894099
-0.00556841925925926,0.01223385778753149
-0.005568079259259259,0.01118062393938267
-0.005567739259259259,0.009534946051657807
-0.00556739925925926,0.00904124268533945
-0.005567059259259259,0.008514625761266777
-0.005566719259259259,0.008646279992284765
-0.00556637925925926,0.009074156243094007
-0.005566039259259259,0.008942502012075181
-0.005565699259259259,0.008613366434530208
-0.00556535925925926,0.009205810474112236
-0.005565019259259259,0.008745020665547958
-0.005564679259259259,0.008481712203511979
-0.00556433925925926,0.00811966306821185
-0.005563999259259259,0.008053835952702437
-0.005563659259259259,0.007889268163929951
-0.00556331925925926,0.006704380084765896
-0.00556297925925926,0.006473985180484415
-0.005562639259259259,0.006408158064974882
-0.00556229925925926,0.006276503833956653
-0.00556195925925926,0.006046108929675172
-0.005561619259259259,0.007165169893329695
-0.00556127925925926,0.007823441048420837
-0.00556093925925926,0.008481712203510782
-0.005560599259259259,0.00973242739818515
-0.00556025925925926,0.01035778499552173
-0.00555991925925926,0.0107527476885757
-0.005559579259259259,0.01203637644100415
-0.00555923925925926,0.0157556084672691
-0.00555889925925926,0.02381943011712092
-0.005558559259259259,0.0380051735093497
-0.00555821925925926,0.06035347922469398
-0.00555787925925926,0.08905410158661556
-0.005557539259259259,0.1217043508791884
-0.00555719925925926,0.155769883155155
-0.00555685925925926,0.1882884782165983
-0.005556519259259259,0.216857446347613
-0.00555617925925926,0.2396336283137665
-0.00555583925925926,0.2566499376728416
-0.005555499259259259,0.2669189676922944
-0.00555515925925926,0.2724155318373054
-0.00555481925925926,0.2738637283785033
-0.005554479259259259,0.271625606451196
-0.005554139259259259,0.2676430659628946
-0.00555379925925926,0.2612907493162651
-0.005553459259259259,0.2541814208412808
-0.005553119259259259,0.2458542907293778
-0.00555277925925926,0.2380537775415478
-0.005552439259259259,0.2298912152184176
-0.005552099259259259,0.222057788472833
-0.00555175925925926,0.2134673498988936
-0.005551419259259259,0.2055022689222766
-0.005551079259259259,0.1976688421767062
-0.00555073925925926,0.1904936865862128
-0.005550399259259259,0.1835160123422355
-0.005550059259259259,0.1773611770421445
-0.00554971925925926,0.1715354773195879
-0.005549379259259259,0.1666642707719049
-0.005549039259259259,0.1619576320130118
-0.00554869925925926,0.1571193390230919
-0.005548359259259259,0.1524785273796908
-0.005548019259259259,0.1477718886207977
-0.00554767925925926,0.1432627312084233
-0.005547339259259259,0.138325697545231
-0.005546999259259259,0.1335203181130744
-0.00554665925925926,0.1289124200274364
-0.005546319259259259,0.1241070405952619
-0.005545979259259259,0.1190712662588239
-0.00554563925925926,0.1147266766352223
-0.005545299259259259,0.1104150005693679
-0.005544959259259259,0.1063337194078103
-0.00554461925925926,0.1031081907478637
-0.005544279259259259,0.0992902180483284
-0.005543939259259259,0.09563681313757921
-0.00554359925925926,0.09224671668885981
-0.005543259259259259,0.08931741004869943
-0.005542919259259259,0.08668432542833968
-0.00554257925925926,0.08342588321063851
-0.00554223925925926,0.08082571214803323
-0.005541899259259259,0.07842302243194582
-0.00554155925925926,0.07608615983137229
-0.00554121925925926,0.07430882771262944
-0.005540879259259259,0.0722352735740891
-0.00554053925925926,0.06999715164677922
-0.00554019925925926,0.06739698058417394
-0.005539859259259259,0.06506011798359565
-0.00553951925925926,0.06272325538302209
-0.00553917925925926,0.06130797239957871
-0.005538839259259259,0.0599585165316393
-0.00553849925925926,0.0588065420102298
-0.00553815925925926,0.0576545674888224
-0.005537819259259259,0.05630511162088345
-0.00553747925925926,0.05429738459785547
-0.00553713925925926,0.05294792872992109
-0.005536799259259259,0.0512035101689271
-0.00553645925925926,0.04952491872344469
-0.00553611925925926,0.04745136458491137
-0.005535779259259259,0.04560820535065239
-0.00553543925925926,0.04465371217577024
-0.00553509925925926,0.04356756476987184
-0.005534759259259259,0.04225102245968757
-0.00553441925925926,0.04109904793827807
-0.00553407925925926,0.03978250562809818
-0.005533739259259259,0.03922297514626832
-0.00553339925925926,0.03840013620240439
-0.00553305925925926,0.03724816168099489
-0.005532719259259259,0.03629366850611274
-0.005532379259259259,0.03606327360183084
-0.00553203925925926,0.03520752110021235
-0.005531699259259259,0.03441759571410298
-0.005531359259259259,0.03395680590553918
-0.00553101925925926,0.03428594148308475
-0.005530679259259259,0.034713817733894
-0.005530339259259259,0.03464799061838488
-0.00552999925925926,0.03405554657880285
-0.005529659259259259,0.03300231273065523
-0.005529319259259259,0.03201490599802031
-0.00552897925925926,0.02994135185948321
-0.005528639259259259,0.0287564637803158
-0.005528299259259259,0.02691330454606396
-0.00552795925925926,0.02562967579363623
-0.005527619259259259,0.02434604704120653
-0.005527279259259259,0.02325989963530812
-0.00552693925925926,0.02207501155614406
-0.005526599259259259,0.02112051838126101
-0.005526259259259259,0.02062681501494355
-0.00552591925925926,0.02042933366841621
-0.005525579259259259,0.02095595059248978
-0.005525239259259259,0.02131799972778925
-0.00552489925925926,0.02138382684329837
-0.005524559259259259,0.0214825675165618
-0.005524219259259259,0.02135091328554381
-0.00552387925925926,0.02168004886308938
-0.005523539259259259,0.02115343193901533
-0.005523199259259259,0.02052807434167988
-0.00552285925925926,0.01904696424272481
-0.005522519259259259,0.01852034731865064
-0.005522179259259259,0.0178291626058062
-0.00552183925925926,0.01789498972131531
-0.005521499259259259,0.0181912117411062
-0.005521159259259259,0.01812538462559721
-0.00552081925925926,0.01878365578068835
-0.00552047925925926,0.01934318626251481
-0.005520139259259259,0.01957358116679772
-0.00551979925925926,0.01957358116679772
-0.00551945925925926,0.01924444558925275
-0.005519119259259259,0.01878365578068835
-0.00551877925925926,0.01845452020314278
-0.00551843925925926,0.0181912117411068
-0.005518099259259259,0.01815829818335177
-0.00551775925925926,0.01815829818335177
-0.00551741925925926,0.01723671856622585
-0.005517079259259259,0.01674301519990581
-0.00551673925925926,0.01618348471807834
-0.00551639925925926,0.01568978135176088
-0.005516059259259259,0.01522899154319619
-0.00551571925925926,0.01513025086993251
-0.00551537925925926,0.01539355933196849
-0.005515039259259259,0.01516316442768707
-0.00551469925925926,0.01519607798544163
-0.00551435925925926,0.01516316442768713
-0.005514019259259259,0.01473528817687783
-0.00551367925925926,0.01463654750361416
-0.00551333925925926,0.01516316442768611
-0.005512999259259259,0.01526190510095074
-0.00551265925925926,0.01503151019666884
-0.00551231925925926,0.01447197971484137
-0.005511979259259259,0.01394536279076846
-0.005511639259259259,0.01328709163567732
-0.00551129925925926,0.01374788144424112
-0.005510959259259259,0.01387953567525935
-0.005510619259259259,0.01364914077097745
-0.00551027925925926,0.01394536279076846
-0.005509939259259259,0.01440615259933226
-0.005509599259259259,0.01443906615708682
-0.00550925925925926,0.01417575769505036
-0.005508919259259259,0.01325417807792066
-0.005508579259259259,0.01210220355651326
-0.00550823925925926,0.01078566124633098
-0.005507899259259259,0.009765340955938688
-0.005507559259259259,0.009205810474112236
-0.00550721925925926,0.009600773167166921
-0.005506879259259259,0.01025904432225974
-0.005506539259259259,0.01118062393938566
-0.00550619925925926,0.01210220355651326
-0.005505859259259259,0.0131554374046607
-0.005505519259259259,0.01404410346403213
-0.00550517925925926,0.01493276952340517
-0.005504839259259259,0.01499859663891279
-0.005504499259259259,0.01417575769505036
-0.00550415925925926,0.01315543740465909
-0.005503819259259259,0.01236551201854876
-0.005503479259259259,0.0118388950944768
-0.00550313925925926,0.01121353749714022
-0.005502799259259259,0.0112793646126482
-0.005502459259259259,0.01065400701531275
-0.00550211925925926,0.01075274768857642
-0.005501779259259259,0.0107198341308218
-0.005501439259259259,0.01068692057306731
-0.00550109925925926,0.01078566124633098
-0.005500759259259259,0.01071983413082216
-0.005500419259259259,0.01088440191959465
-0.00550007925925926,0.01167432730570402
-0.00549973925925926,0.01253007980732095
-0.005499399259259259,0.01285921538486808
-0.00549905925925926,0.01358331365546833
-0.00549871925925926,0.01378079500199531
-0.005498379259259259,0.01348457298220466
-0.00549803925925926,0.0129908696158863
-0.00549769925925926,0.01246425269181435
-0.005497359259259259,0.01226677134528605
-0.00549701925925926,0.01190472220998592
-0.00549667925925926,0.01101605615061449
-0.005496339259259259,0.01025904432225806
-0.00549599925925926,0.009238724031866792
-0.00549565925925926,0.008712107107794837
-0.005495319259259259,0.007494305470875266
-0.00549497925925926,0.008613366434530208
-0.00549463925925926,0.008975415569829677
-0.005494299259259259,0.01025904432225806
-0.00549395925925926,0.01104896970836743
-0.00549361925925926,0.01223385778752933
-0.005493279259259259,0.01272756115384985
-0.00549293925925926,0.01328709163567732
-0.00549259925925926,0.01325417807792282
-0.005492259259259259,0.01289212894262263
-0.00549191925925926,0.0118388950944768
-0.00549157925925926,0.01085148836184189
-0.005491239259259259,0.00950203249390325
-0.00549089925925926,0.008679193550039321
-0.00549055925925926,0.008448798645757422
-0.005490219259259259,0.008152576625966409
-0.005489879259259259,0.008350057972493751
-0.00548953925925926,0.009107069800848565
-0.005489199259259259,0.009995735860221606
-0.005488859259259259,0.01088440191959465
-0.00548851925925926,0.01197054932549503
-0.005488179259259259,0.01269464759609589
-0.005487839259259259,0.01302378317364086
-0.00548749925925926,0.01292504250037719
-0.005487159259259259,0.0125629933650773
-0.005486819259259259,0.01269464759609529
-0.00548647925925926,0.01233259846079516
-0.005486139259259259,0.0125300798073237
-0.005485799259259259,0.01318835096241365
-0.00548545925925926,0.01282630182711352
-0.005485119259259259,0.01289212894262167
-0.005484779259259259,0.01236551201854972
-0.00548443925925926,0.01197054932549503
-0.005484099259259259,0.0114439324014214
-0.005483759259259259,0.01104896970836743
-0.00548341925925926,0.01048943922653996
-0.005483079259259259,0.009896995186959013
-0.005482739259259259,0.01048943922653996
-0.00548239925925926,0.01114771038163111
-0.005482059259259259,0.011707240863459
-0.005481719259259259,0.01193763576774048
-0.00548137925925926,0.01285921538486808
-0.005481039259259259,0.01259590692283162
-0.005480699259259259,0.01259590692283162
-0.00548035925925926,0.01197054932549503
-0.005480019259259259,0.01134519172815725
-0.005479679259259259,0.01068692057306731
-0.00547933925925926,0.009798254513694264
-0.00547899925925926,0.00854753931902337
-0.005478659259259259,0.00756013258638438
-0.00547831925925926,0.006803120758029567
-0.00547797925925926,0.007856354606173479
-0.005477639259259259,0.008843761338812107
-0.00547729925925926,0.01009447653348528
-0.00547695925925926,0.01078566124632972
-0.005476619259259259,0.01174015442121313
-0.00547627925925926,0.01197054932549503
-0.00547593925925926,0.01229968490304001
-0.005475599259259259,0.01249716624956795
-0.00547525925925926,0.01239842557630427
-0.00547491925925926,0.01216803067202279
-0.005474579259259259,0.01203637644100415
-0.00547423925925926,0.01197054932549503
-0.00547389925925926,0.01183889509447704
-0.005473559259259259,0.01187180865223136
-0.00547321925925926,0.01187180865223136
-0.00547287925925926,0.01170724086345888
-0.005472539259259259,0.01124645105489478
-0.00547219925925926,0.01062109345755819
-0.00547185925925926,0.01012739009124073
-0.005471519259259259,0.009370378262885021
-0.00547117925925926,0.00881084778105755
-0.00547083925925926,0.007955095279440622
-0.005470499259259259,0.007230997008838809
-0.00547015925925926,0.006572725853747667
-0.00546981925925926,0.006342330949465767
-0.005469479259259259,0.006243590276202096
-0.005469139259259259,0.005881541140901968
-0.00546879925925926,0.006506898738238553
-0.005468459259259259,0.007066429220066024
-0.005468119259259259,0.008185490183720966
-0.00546777925925926,0.009436205378394135
-0.005467439259259259,0.01068692057306731
-0.005467099259259259,0.01216803067202238
-0.00546675925925926,0.01341874586669555
-0.005466419259259259,0.01397827634852344
-0.005466079259259259,0.01420867125280492
-0.00546573925925926,0.01355040009771377
-0.005465399259259259,0.01249716624956627
-0.005465059259259259,0.01157558663244035
-0.00546471925925926,0.01095022903510376
-0.005464379259259259,0.01088440191959417
-0.005464039259259259,0.01062109345755819
-0.00546369925925926,0.01065400701531275
-0.005463359259259259,0.01131227817040419
-0.005463019259259259,0.01147684595917668
-0.00546267925925926,0.01216803067202238
-0.005462339259259259,0.012760474711605
-0.005461999259259259,0.01308961028914997
-0.00546165925925926,0.0129908696158863
-0.005461319259259259,0.01259590692283078
-0.005460979259259259,0.01213511711426782
-0.00546063925925926,0.01157558663244035
-0.005460299259259259,0.01101605615061162
-0.005459959259259259,0.01032487143776718
-0.00545961925925926,0.009600773167166921
-0.005459279259259259,0.009205810474112655
-0.005458939259259259,0.009436205378394135
-0.00545859925925926,0.009436205378394135
-0.005458259259259259,0.01029195788001436
-0.005457919259259259,0.01124645105489478
-0.00545757925925926,0.01210220355651326
-0.00545723925925926,0.0127933882693577
-0.005456899259259259,0.01338583230894099
-0.00545655925925926,0.01338583230894099
-0.00545621925925926,0.01315543740465951
-0.005455879259259259,0.01269464759609529
-0.00545553925925926,0.01239842557630427
-0.00545519925925926,0.01127936461265137
-0.005454859259259259,0.01088440191959465
-0.00545451925925926,0.01045652566878541
-0.00545417925925926,0.01002864941797694
-0.005453839259259259,0.01016030364899439
-0.00545349925925926,0.01052235278429452
-0.00545315925925926,0.01095022903510298
-0.005452819259259259,0.01164141374794946
-0.00545247925925926,0.01180598153672225
-0.00545213925925926,0.01193763576774024
-0.005451799259259259,0.01190472220998592
-0.00545145925925926,0.01200346288324959
-0.00545111925925926,0.01246425269181255
-0.005450779259259259,0.01220094422977693
-0.00545043925925926,0.01114771038163111
-0.00545009925925926,0.01081857480408613
-0.005449759259259259,0.01071983413082186
-0.00544941925925926,0.009962822302467049
-0.00544907925925926,0.009633686724922076
-0.005448739259259259,0.009271637589621349
-0.005448399259259259,0.009699513840430593
-0.00544805925925926,0.009765340955939707
-0.005447719259259259,0.009929908744712493
-0.005447379259259259,0.01121353749714022
-0.00544703925925926,0.01104896970836743
-0.005446699259259259,0.01068692057306731
-0.005446359259259259,0.009995735860221606
-0.00544601925925926,0.008843761338812107
-0.005445679259259259,0.008481712203511859
-0.005445339259259259,0.008415885088002865
-0.00544499925925926,0.008350057972493751
-0.005444659259259259,0.008580452876776848
-0.005444319259259259,0.009238724031866792
-0.00544397925925926,0.01019321720674895
-0.005443639259259259,0.01062109345755849
-0.005443299259259259,0.01078566124633098
-0.00544295925925926,0.01078566124633098
-0.005442619259259259,0.0102919578800116
-0.005442279259259259,0.00973242739818515
-0.00544193925925926,0.009205810474112236
-0.005441599259259259,0.009238724031867332
-0.005441259259259259,0.009534946051657807
-0.00544091925925926,0.00983116807144882
-0.005440579259259259,0.01081857480408655
-0.005440239259259259,0.011378105285913
-0.00543989925925926,0.01210220355651326
-0.005439559259259259,0.01276047471160338
-0.005439219259259259,0.01220094422977693
-0.00543887925925926,0.01279338826935896
-0.005438539259259259,0.01285921538486598
-0.005438199259259259,0.01170724086345858
-0.00543785925925926,0.01114771038163111
-0.005437519259259259,0.009798254513687559
-0.005437179259259259,0.006111936045183867
-0.00543683925925926,-0.002149366951209966
-0.00543649925925926,-0.0171908628450152
-0.005436159259259259,-0.04006578548445976
-0.00543581925925926,-0.07008295015661584
-0.00543547925925926,-0.1039510010859935
-0.005435139259259259,-0.137621570668967
-0.00543479925925926,-0.1688236234202872
-0.00543445925925926,-0.194562025584304
-0.005434119259259259,-0.214540555141367
-0.00543377925925926,-0.228364249398281
-0.00543343925925926,-0.2367242930679233
-0.005433099259259259,-0.2410359691337855
-0.00543275925925926,-0.2418258945198948
-0.00543241925925926,-0.2395548590348345
-0.005432079259259259,-0.2354735778732653
-0.00543173925925926,-0.2302074086325362
-0.00543139925925926,-0.2234930428506187
-0.005431059259259259,-0.2163508008178676
-0.00543071925925926,-0.2087477689765649
-0.00543037925925926,-0.2012105642507851
-0.005430039259259259,-0.1941999764490507
-0.00542969925925926,-0.1867944259542753
-0.00542935925925926,-0.179421789017268
-0.005429019259259259,-0.1726415961198158
-0.00542867925925926,-0.1659272303378861
-0.00542833925925926,-0.1600686170575856
-0.005427999259259259,-0.1544733122393003
-0.00542765925925926,-0.1492729701140803
-0.00542731925925926,-0.1436776652958055
-0.005426979259259259,-0.1377861384577398
-0.005426639259259259,-0.1317300438309013
-0.00542629925925926,-0.1256410356463082
-0.005425959259259259,-0.1198153359237516
-0.005425619259259259,-0.1141542039899678
-0.00542527925925926,-0.1089538618647478
-0.005424939259259259,-0.104181395990337
-0.005424599259259259,-0.09986971992449001
-0.00542425925925926,-0.09667710482229797
-0.005423919259259259,-0.09470229135702005
-0.005423579259259259,-0.09223377452543277
-0.00542323925925926,-0.08963360346282276
-0.005422899259259259,-0.08732965441999789
-0.005422559259259259,-0.08410412576005716
-0.00542221925925926,-0.08068111575358322
-0.005421879259259259,-0.07679731593853856
-0.005421539259259259,-0.07297934323901686
-0.00542119925925926,-0.06929302477050647
-0.005420859259259259,-0.06557379274423583
-0.005420519259259259,-0.06244700475755859
-0.00542017925925926,-0.05932021677087566
-0.005419839259259259,-0.05639091013071541
-0.005419499259259259,-0.05382365262586462
-0.00541915925925926,-0.0513880493520274
-0.005418819259259259,-0.04872205117390408
-0.005418479259259259,-0.04641810213108927
-0.00541813925925926,-0.04470659712785231
-0.005417799259259259,-0.04260012943155789
-0.005417459259259259,-0.04108610577485102
-0.00541711925925926,-0.03901255163631392
-0.005416779259259259,-0.0369060839400191
-0.005416439259259259,-0.03516166537903075
-0.00541609925925926,-0.03262732143192985
-0.005415759259259259,-0.03045502662012609
-0.005415419259259259,-0.02880934873240122
-0.00541507925925926,-0.02713075728691881
-0.00541473925925926,-0.02597878276551141
-0.005414399259259259,-0.02485972180185437
-0.00541405925925926,-0.02439893199329057
-0.00541371925925926,-0.02426727776227258
-0.005413379259259259,-0.024069796415745
-0.00541303925925926,-0.02354317949167209
-0.00541269925925926,-0.02327987102963611
-0.005412359259259259,-0.0226874269900536
-0.00541201925925926,-0.02173293381517144
-0.00541167925925926,-0.02081135419804552
-0.005411339259259259,-0.01933024409908878
-0.00541099925925926,-0.01735543063381535
-0.00541065925925926,-0.01590723409261747
