Analysis/New Tests_CMB/wrd01_d2s01/cmb07_ch29.csv

#Digilent WaveForms Oscilloscope Acquisition
#Device Name: ADP3450
#Serial Number: SN:210018B9D9B0
#Date Time: 2024-08-15 12:30:47.468.165.470
#Sample rate: 5.88235e+06Hz
#Samples: 32768
#Trigger: Source: Channel 3 Type: Edge Condition: Rising Level: 40 mV Hyst.: Auto HoldOff: 0 s
#Channel 3: Range: 100 mV/div Offset: 0 V Attenuation: 1 X Coupling: DC Bandwidth: 0 Hz Sample Mode: Average

Time (s),Channel 3 (V)
-0.003168901772781367,0.02428021992569939
-0.003168731772781367,0.02404982502141701
-0.003168561772781367,0.02378651655938104
-0.003168391772781367,0.02345738098183546
-0.003168221772781367,0.02342446742408091
-0.003168051772781367,0.02342446742408091
-0.003167881772781367,0.02385234367489015
-0.003167711772781367,0.02352320809734458
-0.003167541772781367,0.02352320809734458
-0.003167371772781367,0.02368777588611736
-0.003167201772781367,0.02401691146366353
-0.003167031772781367,0.0243460470412085
-0.003166861772781367,0.02428021992569939
-0.003166691772781367,0.02437896059896198
-0.003166521772781367,0.02378651655938104
-0.003166351772781367,0.02441187415671762
-0.003166181772781367,0.02411565213692703
-0.003166011772781367,0.0243460470412085
-0.003165841772781367,0.02362194877060825
-0.003165671772781367,0.02391817079039938
-0.003165501772781367,0.02398399790590838
-0.003165331772781367,0.02358903521285369
-0.003165161772781367,0.02332572675081772
-0.003164991772781367,0.02316115896204445
-0.003164821772781367,0.02260162848021698
-0.003164651772781367,0.0223712335759355
-0.003164481772781367,0.02220666578716229
-0.003164311772781367,0.02191044376737128
-0.003164141772781367,0.02095595059249086
-0.003163971772781367,0.02171296242084393
-0.003163801772781367,0.02003437097536152
-0.003163631772781367,0.01960649472455306
-0.003163461772781367,0.01947484049353405
-0.003163291772781367,0.0178291626058062
-0.003163121772781367,0.01743419991275223
-0.003162951772781367,0.01723671856622417
-0.003162781772781367,0.0173683727972424
-0.003162611772781367,0.01726963212397891
-0.003162441772781367,0.01733545923948784
-0.003162271772781367,0.01733545923948784
-0.003162101772781367,0.01753294058601482
-0.003161931772781367,0.01776333549029708
-0.003161761772781367,0.01789498972131531
-0.003161591772781367,0.01835577952987827
-0.003161421772781367,0.01809247106784265
-0.003161251772781367,0.01835577952987911
-0.003161081772781367,0.01898113712721456
-0.003160911772781367,0.01894822356946114
-0.003160741772781367,0.01894822356946114
-0.003160571772781367,0.01891531001170658
-0.003160401772781367,0.01888239645395202
-0.003160231772781367,0.01917861847374304
-0.003160061772781367,0.01894822356946114
-0.003159891772781367,0.01868491510742468
-0.003159721772781367,0.01894822356946114
-0.003159551772781367,0.01815829818335177
-0.003159381772781367,0.01789498972131418
-0.003159211772781367,0.01726963212397873
-0.003159041772781367,0.01684175587316948
-0.003158871772781367,0.0164797067378687
-0.003158701772781367,0.01611765760256923
-0.003158531772781367,0.01549230000523264
-0.003158361772781367,0.01549230000523031
-0.003158191772781367,0.01420867125280492
-0.003158021772781367,0.01355040009771377
-0.003157851772781367,0.01328709163567612
-0.003157681772781367,0.01262882048058617
-0.003157511772781367,0.01203637644100415
-0.003157341772781367,0.01210220355651176
-0.003157171772781367,0.01127936461264933
-0.003157001772781367,0.01167432730570402
-0.003156831772781367,0.01183889509447746
-0.003156661772781367,0.01220094422977693
-0.003156491772781367,0.0122996849030406
-0.003156321772781367,0.01315543740466064
-0.003156151772781367,0.01401118990627757
-0.003155981772781367,0.0141428441372958
-0.003155811772781367,0.01506442375442418
-0.003155641772781367,0.01549230000523264
-0.003155471772781367,0.01513025086993251
-0.003155301772781367,0.01592017625604141
-0.003155131772781367,0.01565686779400543
-0.003154961772781367,0.01562395423625087
-0.003154791772781367,0.01562395423625087
-0.003154621772781367,0.01559104067849632
-0.003154451772781367,0.01592017625604189
-0.003154281772781367,0.01568978135176041
-0.003154111772781367,0.01568978135175999
-0.003153941772781367,0.015986003371551
-0.003153771772781367,0.01575560846726952
-0.003153601772781367,0.01595308981379644
-0.003153431772781367,0.0157556084672691
-0.003153261772781367,0.01568978135176011
-0.003153091772781367,0.01572269490951454
-0.003152921772781367,0.01578852202502366
-0.003152751772781367,0.01555812712074218
-0.003152581772781367,0.0157556084672691
-0.003152411772781367,0.01582143558277821
-0.003152241772781367,0.01568978135176022
-0.003152071772781367,0.01647970673786936
-0.003151901772781367,0.01624931183358745
-0.003151731772781367,0.0169404965464319
-0.003151561772781367,0.0169075829886786
-0.003151391772781367,0.01703923721969683
-0.003151221772781367,0.01671010164215186
-0.003151051772781367,0.01674301519990581
-0.003150881772781367,0.01684175587316948
-0.003150711772781367,0.01638096606460653
-0.003150541772781367,0.01568978135175999
-0.003150371772781367,0.01522899154319619
-0.003150201772781367,0.01519607798544163
-0.003150031772781367,0.01401118990627757
-0.003149861772781367,0.01315543740465909
-0.003149691772781367,0.0125300798073225
-0.003149521772781367,0.01157558663244035
-0.003149351772781367,0.01101605615061288
-0.003149181772781367,0.01062109345755819
-0.003149011772781367,0.01062109345755819
-0.003148841772781367,0.01032487143776718
-0.003148671772781367,0.01016030364899439
-0.003148501772781367,0.01025904432225812
-0.003148331772781367,0.01029195788001262
-0.003148161772781367,0.01108188326612199
-0.003147991772781367,0.01111479682387751
-0.003147821772781367,0.01164141374794946
-0.003147651772781367,0.01147684595917668
-0.003147481772781367,0.01183889509447746
-0.003147311772781367,0.01220094422977693
-0.003147141772781367,0.01233259846079516
-0.003146971772781367,0.01262882048058659
-0.003146801772781367,0.01285921538486808
-0.003146631772781367,0.01332000519343187
-0.003146461772781367,0.01335291875118757
-0.003146291772781367,0.01397827634852302
-0.003146121772781367,0.01447197971484137
-0.003145951772781367,0.01486694240789642
-0.003145781772781367,0.0150644237544234
-0.003145611772781367,0.0155252135629872
-0.003145441772781367,0.01552521356298762
-0.003145271772781367,0.0157556084672691
-0.003145101772781367,0.0152948186587053
-0.003144931772781367,0.01526190510095086
-0.003144761772781367,0.01532773221645986
-0.003144591772781367,0.01545938644747809
-0.003144421772781367,0.01552521356298768
-0.003144251772781367,0.01578852202502366
-0.003144081772781367,0.0155252135629872
-0.003143911772781367,0.01470237461912477
-0.003143741772781367,0.01470237461912327
-0.003143571772781367,0.01443906615708682
-0.003143401772781367,0.01374788144424237
-0.003143231772781367,0.0129908696158863
-0.003143061772781367,0.01295795605813175
-0.003142891772781367,0.01180598153672434
-0.003142721772781367,0.01144393240142212
-0.003142551772781367,0.01071983413082186
-0.003142381772781367,0.01114771038163033
-0.003142211772781367,0.01121353749714022
-0.003142041772781367,0.01114771038163111
-0.003141871772781367,0.01157558663243957
-0.003141701772781367,0.01187180865223136
-0.003141531772781367,0.0122996849030406
-0.003141361772781367,0.0123655120185496
-0.003141191772781367,0.01243133913405883
-0.003141021772781367,0.01282630182711352
-0.003140851772781367,0.01322126452016749
-0.003140681772781367,0.01315543740465909
-0.003140511772781367,0.01318835096241365
-0.003140341772781367,0.01315543740465915
-0.003140171772781367,0.01348457298220466
-0.003140001772781367,0.01266173403834073
-0.003139831772781367,0.01239842557630427
-0.003139661772781367,0.01272756115384985
-0.003139491772781367,0.01239842557630427
-0.003139321772781367,0.01256299336507706
-0.003139151772781367,0.01279338826935896
-0.003138981772781367,0.01220094422977693
-0.003138811772781367,0.01203637644100415
-0.003138641772781367,0.01210220355651326
-0.003138471772781367,0.01197054932549503
-0.003138301772781367,0.01233259846079516
-0.003138131772781367,0.01200346288324989
-0.003137961772781367,0.01216803067202238
-0.003137791772781367,0.01193763576774048
-0.003137621772781367,0.01203637644100349
-0.003137451772781367,0.01167432730570402
-0.003137281772781367,0.01150975951693123
-0.003137111772781367,0.01147684595917722
-0.003136941772781367,0.01177306797896769
-0.003136771772781367,0.01210220355651326
-0.003136601772781367,0.0124971662495689
-0.003136431772781367,0.01302378317364086
-0.003136261772781367,0.0134516594244501
-0.003136091772781367,0.01404410346403297
-0.003135921772781367,0.01450489327259593
-0.003135751772781367,0.01410993057954124
-0.003135581772781367,0.01447197971484024
-0.003135411772781367,0.01384662211750479
-0.003135241772781367,0.01480111529238694
-0.003135071772781367,0.01480111529238688
-0.003134901772781367,0.01476820173463239
-0.003134731772781367,0.01476820173463239
-0.003134561772781367,0.0146365475036138
-0.003134391772781367,0.01443906615708682
-0.003134221772781367,0.01450489327259593
-0.003134051772781367,0.01457072038810528
-0.003133881772781367,0.01470237461912327
-0.003133711772781367,0.0150644237544234
-0.003133541772781367,0.01522899154319589
-0.003133371772781367,0.01568978135175999
-0.003133201772781367,0.01601891692930556
-0.003133031772781367,0.01592017625604207
-0.003132861772781367,0.01555812712074176
-0.003132691772781367,0.01522899154319619
-0.003132521772781367,0.01519607798544169
-0.003132351772781367,0.01513025086993251
-0.003132181772781367,0.01503151019666884
-0.003132011772781367,0.01513025086993233
-0.003131841772781367,0.01480111529238694
-0.003131671772781367,0.01463654750361416
-0.003131501772781367,0.01499859663891363
-0.003131331772781367,0.01404410346403213
-0.003131161772781367,0.01404410346403213
-0.003130991772781367,0.01371496788648716
-0.003130821772781367,0.01394536279076846
-0.003130651772781367,0.01374788144424112
-0.003130481772781367,0.01315543740466017
-0.003130311772781367,0.01295795605813175
-0.003130141772781367,0.01285921538486808
-0.003129971772781367,0.01305669673139506
-0.003129801772781367,0.01378079500199567
-0.003129631772781367,0.0132212645201682
-0.003129461772781367,0.01318835096241371
-0.003129291772781367,0.01279338826935896
-0.003129121772781367,0.01213511711426782
-0.003128951772781367,0.01213511711426782
-0.003128781772781367,0.01193763576774048
-0.003128611772781367,0.01187180865223136
-0.003128441772781367,0.01150975951693123
-0.003128271772781367,0.01124645105489478
-0.003128101772781367,0.01029195788001262
-0.003127931772781367,0.01006156297573072
-0.003127761772781367,0.009567859609412544
-0.003127591772781367,0.009666600282676035
-0.003127421772781367,0.009600773167166921
-0.003127251772781367,0.00973242739818515
-0.003127081772781367,0.00973242739818515
-0.003126911772781367,0.009798254513694264
-0.003126741772781367,0.00973242739818527
-0.003126571772781367,0.009798254513694264
-0.003126401772781367,0.00973242739818515
-0.003126231772781367,0.009271637589621349
-0.003126061772781367,0.009271637589621349
-0.003125891772781367,0.009403291820639578
-0.003125721772781367,0.009798254513694444
-0.003125551772781367,0.009896995186957936
-0.003125381772781367,0.01006156297573072
-0.003125211772781367,0.01019321720674967
-0.003125041772781367,0.01058817989980363
-0.003124871772781367,0.01058817989980363
-0.003124701772781367,0.01078566124633176
-0.003124531772781367,0.01121353749714022
-0.003124361772781367,0.01114771038163111
-0.003124191772781367,0.01183889509447734
-0.003124021772781367,0.01213511711426782
-0.003123851772781367,0.01269464759609529
-0.003123681772781367,0.01361622721322175
-0.003123511772781367,0.0129908696158863
-0.003123341772781367,0.01328709163567732
-0.003123171772781367,0.01292504250037785
-0.003123001772781367,0.01295795605813175
-0.003122831772781367,0.01285921538486808
-0.003122661772781367,0.01226677134528712
-0.003122491772781367,0.01243133913405883
-0.003122321772781367,0.0122996849030406
-0.003122151772781367,0.01183889509447764
-0.003121981772781367,0.01170724086345858
-0.003121811772781367,0.01147684595917668
-0.003121641772781367,0.01190472220998514
-0.003121471772781367,0.01236551201854972
-0.003121301772781367,0.01325417807792276
-0.003121131772781367,0.01295795605813229
-0.003120961772781367,0.01371496788648656
-0.003120791772781367,0.01417575769505036
-0.003120621772781367,0.0148340288501403
-0.003120451772781367,0.01503151019666884
-0.003120281772781367,0.01545938644747809
-0.003120111772781367,0.01611765760256803
-0.003119941772781367,0.01615057116032378
-0.003119771772781367,0.01641387962236024
-0.003119601772781367,0.01628222539134225
-0.003119431772781367,0.01615057116032378
-0.003119261772781367,0.01611765760256923
-0.003119091772781367,0.01562395423625177
-0.003118921772781367,0.01513025086993251
-0.003118751772781367,0.01470237461912327
-0.003118581772781367,0.01407701702178669
-0.003118411772781367,0.01318835096241365
-0.003118241772781367,0.01289212894262263
-0.003118071772781367,0.01210220355651326
-0.003117901772781367,0.01157558663244035
-0.003117731772781367,0.01095022903510376
-0.003117561772781367,0.01052235278429452
-0.003117391772781367,0.009633686724921478
-0.003117221772781367,0.009633686724921478
-0.003117051772781367,0.009337464705130465
-0.003116881772781367,0.009304551147376865
-0.003116711772781367,0.00983116807144882
-0.003116541772781367,0.01062109345755819
-0.003116371772781367,0.01118062393938602
-0.003116201772781367,0.011378105285913
-0.003116031772781367,0.01193763576774048
-0.003115861772781367,0.01226677134528844
-0.003115691772781367,0.01358331365546833
-0.003115521772781367,0.01332000519343187
-0.003115351772781367,0.01355040009771395
-0.003115181772781367,0.01364914077097745
-0.003115011772781367,0.01358331365546833
-0.003114841772781367,0.01364914077097792
-0.003114671772781367,0.0139124492330139
-0.003114501772781367,0.013682054328732
-0.003114331772781367,0.01394536279076624
-0.003114161772781367,0.01272756115384985
-0.003113991772781367,0.01289212894262263
-0.003113821772781367,0.01384662211750371
-0.003113651772781367,0.01325417807792276
-0.003113481772781367,0.01325417807792276
-0.003113311772781367,0.01279338826935764
-0.003113141772781367,0.0120692899987587
-0.003112971772781367,0.01157558663244035
-0.003112801772781367,0.01075274768857582
-0.003112631772781367,0.01042361211103085
-0.003112461772781367,0.01025904432225806
-0.003112291772781367,0.009567859609413622
-0.003112121772781367,0.009205810474112236
-0.003111951772781367,0.008777934223302994
-0.003111781772781367,0.008284230856985535
-0.003111611772781367,0.008481712203511979
-0.003111441772781367,0.008547539319021094
-0.003111271772781367,0.008481712203512098
-0.003111101772781367,0.008843761338812107
-0.003110931772781367,0.009337464705130465
-0.003110761772781367,0.009403291820639459
-0.003110591772781367,0.009337464705130465
-0.003110421772781367,0.009929908744712493
-0.003110251772781367,0.009831168071449001
-0.003110081772781367,0.009666600282676035
-0.003109911772781367,0.01025904432225806
-0.003109741772781367,0.011048969708366
-0.003109571772781367,0.0118388950944768
-0.003109401772781367,0.01197054932549503
-0.003109231772781367,0.01190472220998604
-0.003109061772781367,0.01190472220998592
-0.003108891772781367,0.01167432730570402
-0.003108721772781367,0.01164141374794952
-0.003108551772781367,0.01174015442121313
-0.003108381772781367,0.01187180865223136
-0.003108211772781367,0.01213511711426734
-0.003108041772781367,0.01233259846079516
-0.003107871772781367,0.0125300798073225
-0.003107701772781367,0.01292504250037719
-0.003107531772781367,0.01371496788648656
-0.003107361772781367,0.01381370855975023
-0.003107191772781367,0.013682054328732
-0.003107021772781367,0.01443906615708682
-0.003106851772781367,0.01430741192606859
-0.003106681772781367,0.01420867125280492
-0.003106511772781367,0.01414284413729544
-0.003106341772781367,0.01394536279076846
-0.003106171772781367,0.01384662211750479
-0.003106001772781367,0.01351748653995814
-0.003105831772781367,0.01292504250037719
-0.003105661772781367,0.01292504250037719
-0.003105491772781367,0.01299086961588534
-0.003105321772781367,0.01246425269181339
-0.003105151772781367,0.01355040009771377
-0.003104981772781367,0.01295795605813318
-0.003104811772781367,0.01374788144424112
-0.003104641772781367,0.01355040009771377
-0.003104471772781367,0.01374788144424088
-0.003104301772781367,0.01361622721322289
-0.003104131772781367,0.01387953567525935
-0.003103961772781367,0.01447197971484113
-0.003103791772781367,0.01434032548382314
-0.003103621772781367,0.01430741192606859
-0.003103451772781367,0.01430741192606811
-0.003103281772781367,0.01404410346403213
-0.003103111772781367,0.01420867125280492
-0.003102941772781367,0.0142086712528042
-0.003102771772781367,0.01381370855975023
-0.003102601772781367,0.0134516594244501
-0.003102431772781367,0.01315543740465825
-0.003102261772781367,0.01269464759609529
-0.003102091772781367,0.01210220355651326
-0.003101921772781367,0.01137810528591432
-0.003101751772781367,0.01071983413082186
-0.003101581772781367,0.01042361211103085
-0.003101411772781367,0.01085148836183931
-0.003101241772781367,0.01101605615061288
-0.003101071772781367,0.01091731547734921
-0.003100901772781367,0.01134519172815767
-0.003100731772781367,0.01111479682387655
-0.003100561772781367,0.01210220355651326
-0.003100391772781367,0.01233259846079474
-0.003100221772781367,0.01332000519343187
-0.003100051772781367,0.01384662211750479
-0.003099881772781367,0.01499859663891219
-0.003099711772781367,0.0157556084672691
-0.003099541772781367,0.01624931183358745
-0.003099371772781367,0.01684175587316841
-0.003099201772781367,0.01664427452664214
-0.003099031772781367,0.01615057116032378
-0.003098861772781367,0.01568978135176083
-0.003098691772781367,0.01568978135175999
-0.003098521772781367,0.01466946106136872
-0.003098351772781367,0.01417575769505126
-0.003098181772781367,0.01384662211750479
-0.003098011772781367,0.01348457298220466
-0.003097841772781367,0.01292504250037821
-0.003097671772781367,0.01285921538486808
-0.003097501772781367,0.0129908696158863
-0.003097331772781367,0.01236551201854972
-0.003097161772781367,0.0127604747116044
-0.003096991772781367,0.0129908696158863
-0.003096821772781367,0.01266173403834073
-0.003096651772781367,0.0134516594244501
-0.003096481772781367,0.01338583230894099
-0.003096311772781367,0.013682054328732
-0.003096141772781367,0.01424158481055947
-0.003095971772781367,0.01430741192606859
-0.003095801772781367,0.0143732390415777
-0.003095631772781367,0.01414284413729502
-0.003095461772781367,0.01371496788648656
-0.003095291772781367,0.01374788144424112
-0.003095121772781367,0.01210220355651242
-0.003094951772781367,0.01164141374794946
-0.003094781772781367,0.01085148836184009
-0.003094611772781367,0.009534946051658466
-0.003094441772781367,0.009896995186957936
-0.003094271772781367,0.009469118936148692
-0.003094101772781367,0.009107069800848385
-0.003093931772781367,0.009008329127584893
-0.003093761772781367,0.008777934223302994
-0.003093591772781367,0.008876674896567563
-0.003093421772781367,0.009370378262885021
-0.003093251772781367,0.01002864941797616
-0.003093081772781367,0.01068692057306814
-0.003092911772781367,0.01114771038163111
-0.003092741772781367,0.0120692899987587
-0.003092571772781367,0.0129908696158872
-0.003092401772781367,0.01348457298220466
-0.003092231772781367,0.01404410346403213
-0.003092061772781367,0.01513025086993287
-0.003091891772781367,0.01532773221645986
-0.003091721772781367,0.0155252135629872
-0.003091551772781367,0.01555812712074164
-0.003091381772781367,0.01549230000523264
-0.003091211772781367,0.01677592875766037
-0.003091041772781367,0.01374788144424662
-0.003090871772781367,0.01338583230894099
-0.003090701772781367,0.0134516594244501
-0.003090531772781367,0.01256299336507868
-0.003090361772781367,0.01239842557630427
-0.003090191772781367,0.01045652566878541
-0.003090021772781367,0.01098314259285736
-0.003089851772781367,0.01058817989980363
