Analysis/New Tests_CMB/wrd01_d2s01/cmb07_ch00.csv

#Digilent WaveForms Oscilloscope Acquisition
#Device Name: ADP3450
#Serial Number: SN:210018B9D9B0
#Date Time: 2024-08-07 10:20:34.343.177.870
#Sample rate: 2.94118e+06Hz
#Samples: 32768
#Trigger: Source: Channel 3 Type: Edge Condition: Rising Level: 0 V Hyst.: Auto HoldOff: 0 s
#Channel 3: Range: 200 mV/div Offset: 0 V Attenuation: 1 X Coupling: DC Bandwidth: 0 Hz Sample Mode: Average

Time (s),Channel 3 (V)
-0.005570546923076924,0.005256183543565383
-0.005570206923076923,0.006210676718447658
-0.005569866923076924,0.006276503833956653
-0.005569526923076924,0.006408158064974882
-0.005569186923076923,0.006144849602938724
-0.005568846923076924,0.00630941739171121
-0.005568506923076924,0.006803120758029567
-0.005568166923076923,0.00706642922006782
-0.005567826923076924,0.008053835952702737
-0.005567486923076924,0.009107069800848565
-0.005567146923076923,0.009403291820640716
-0.005566806923076924,0.01002864941797616
-0.005566466923076924,0.01078566124633098
-0.005566126923076923,0.01104896970836677
-0.005565786923076924,0.01068692057306731
-0.005565446923076924,0.009765340955939707
-0.005565106923076923,0.009238724031864936
-0.005564766923076924,0.008218403741475522
-0.005564426923076924,0.007296824124347924
-0.005564086923076923,0.007033515662313083
-0.005563746923076924,0.007922181721684508
-0.005563406923076924,0.01131227817040389
-0.005563066923076924,0.02200918444061549
-0.005562726923076924,0.04047369034094149
-0.005562386923076924,0.06673870942907806
-0.005562046923076924,0.09971809429908429
-0.005561706923076924,0.1351330824430477
-0.005561366923076924,0.1702189350094056
-0.005561026923076924,0.2021450860312679
-0.005560686923076924,0.2287392406970081
-0.005560346923076924,0.2489810787160608
-0.005560006923076924,0.2625414645109136
-0.005559666923076923,0.26984827433245
-0.005559326923076924,0.2717901742399688
-0.005558986923076924,0.2699141014479625
-0.005558646923076923,0.2652074626890574
-0.005558306923076924,0.258920973157937
-0.005557966923076924,0.2515154226631751
-0.005557626923076923,0.2436490823598225
-0.005557286923076924,0.2362106183072926
-0.005556946923076924,0.2284759322349857
-0.005556606923076923,0.2208399868359144
-0.005556266923076924,0.2129407329748207
-0.005555926923076924,0.2055680960378133
-0.005555586923076923,0.1985904217938338
-0.005555246923076924,0.1919418831274133
-0.005554906923076924,0.1851287766722324
-0.005554566923076923,0.1782827566592721
-0.005554226923076924,0.1716342179928516
-0.005553886923076924,0.1659072589435586
-0.005553546923076923,0.1602461270097748
-0.005553206923076924,0.1546837357492546
-0.005552866923076924,0.1498454427593348
-0.005552526923076923,0.1449413226539057
-0.005552186923076924,0.1389839687003309
-0.005551846923076924,0.134145675710411
-0.005551506923076923,0.1293073827204827
-0.005551166923076924,0.1246665710770986
-0.005550826923076924,0.1201574136647242
-0.005550486923076923,0.115812824041115
-0.005550146923076924,0.1115998886485394
-0.005549806923076924,0.1081439650843109
-0.005549466923076923,0.1045563872890585
-0.005549126923076924,0.1014625128601358
-0.005548786923076924,0.0982369842001892
-0.005548446923076923,0.09461649284718177
-0.005548106923076924,0.09122639639846855
-0.005547766923076924,0.08846165754708574
-0.005547426923076923,0.08546652379141531
-0.005547086923076924,0.08230682224698357
-0.005546746923076924,0.07931168849131887
-0.005546406923076923,0.07595450560034818
-0.005546066923076924,0.07272897694040745
-0.005545726923076924,0.06960218895372453
-0.005545386923076923,0.06670579587131889
-0.005545046923076924,0.06417145192422261
-0.005544706923076924,0.06232829268996741
-0.005544366923076923,0.06035347922469009
-0.005544026923076924,0.05821409797064777
-0.005543686923076924,0.05643676585190169
-0.005543346923076923,0.05479108796417149
-0.005543006923076924,0.0535074592117461
-0.005542666923076924,0.05153264574647268
-0.005542326923076924,0.04959074583895734
-0.005541986923076924,0.04695766121858923
-0.005541646923076924,0.04485119352229758
-0.005541306923076924,0.04287638005702775
-0.005540966923076924,0.04116487505378719
-0.005540626923076924,0.04070408524522338
-0.005540286923076924,0.03978250562809747
-0.005539946923076924,0.03942045649279566
-0.005539606923076924,0.03840013620240439
-0.005539266923076924,0.03721524812324249
-0.005538926923076923,0.03596453292856716
-0.005538586923076924,0.03481255840715766
-0.005538246923076924,0.03349601609697778
-0.005537906923076923,0.03227821446005677
-0.005537566923076924,0.0314882890739474
-0.005537226923076924,0.03059962301457597
-0.005536886923076923,0.02967804339744676
-0.005536546923076924,0.02898685868460106
-0.005536206923076924,0.02859189599154709
-0.005535866923076923,0.02832858752950991
-0.005535526923076924,0.02852606887603726
-0.005535186923076924,0.02813110618298329
-0.005534846923076923,0.02776905704768244
-0.005534506923076924,0.02674873675729117
-0.005534166923076924,0.02546510800486578
-0.005533826923076923,0.02441187415671762
-0.005533486923076924,0.02293076405776255
-0.005533146923076924,0.02181170309410761
-0.005532806923076923,0.02089012347698001
-0.005532466923076924,0.0203635065529071
-0.005532126923076924,0.01950775405128861
-0.005531786923076923,0.01977106251332507
-0.005531446923076924,0.01977106251332507
-0.005531106923076924,0.01993563030209785
-0.005530766923076923,0.02023185232188887
-0.005530426923076924,0.0199027167443433
-0.005530086923076924,0.01954066760904317
-0.005529746923076923,0.01822412529885813
-0.005529406923076924,0.01671010164215126
-0.005529066923076924,0.01565686779400543
-0.005528726923076923,0.01394536279076636
-0.005528386923076924,0.01279338826935896
-0.005528046923076924,0.01150975951693123
-0.005527706923076923,0.01101605615061371
-0.005527366923076924,0.01147684595917668
-0.005527026923076924,0.01167432730570402
-0.005526686923076923,0.01229968490304264
-0.005526346923076924,0.01341874586669555
-0.005526006923076924,0.01463654750361416
-0.005525666923076923,0.01562395423625201
-0.005525326923076924,0.01624931183358745
-0.005524986923076924,0.01624931183358745
-0.005524646923076923,0.01509733731217586
-0.005524306923076924,0.01394536279076846
-0.005523966923076924,0.01302378317364086
-0.005523626923076923,0.01137810528591001
-0.005523286923076924,0.00973242739818515
-0.005522946923076924,0.008876674896566664
-0.005522606923076923,0.008448798645757901
-0.005522266923076924,0.00871210710779388
-0.005521926923076924,0.009304551147375908
-0.005521586923076923,0.009765340955939826
-0.005521246923076924,0.00983116807144882
-0.005520906923076924,0.009567859609412364
-0.005520566923076924,0.008975415569831413
-0.005520226923076924,0.007988008837193623
-0.005519886923076924,0.007099342777820581
-0.005519546923076924,0.006111936045185663
-0.005519206923076924,0.005354924216829054
-0.005518866923076924,0.005684059794374625
-0.005518526923076924,0.005947368256410603
-0.005518186923076924,0.006836034315784124
-0.005517846923076924,0.007691786817402609
-0.005517506923076924,0.008876674896564508
-0.005517166923076923,0.01039069855327629
-0.005516826923076924,0.01177306797896769
-0.005516486923076924,0.01183889509447668
-0.005516146923076923,0.01174015442121313
-0.005515806923076924,0.01124645105489478
-0.005515466923076924,0.01009447653348737
-0.005515126923076923,0.009765340955939707
-0.005514786923076924,0.009074156243094007
-0.005514446923076924,0.008810847781058029
-0.005514106923076923,0.009337464705130465
-0.005513766923076924,0.009074156243094007
-0.005513426923076924,0.008975415569830517
-0.005513086923076923,0.008843761338812107
-0.005512746923076924,0.007625959701893495
-0.005512406923076924,0.006704380084765896
-0.005512066923076923,0.006144849602938425
-0.005511726923076924,0.006046108929674754
-0.005511386923076924,0.006013195371920196
-0.005511046923076923,0.006243590276202096
-0.005510706923076924,0.006243590276202096
-0.005510366923076924,0.00574988690988374
-0.005510026923076923,0.005420751332338168
-0.005509686923076924,0.005552405563356397
-0.005509346923076924,0.005552405563356397
-0.005509006923076923,0.006144849602940221
-0.005508666923076924,0.007132256335575138
-0.005508326923076924,0.008086749510457293
-0.005507986923076923,0.00811966306821209
-0.005507646923076924,0.008251317299230079
-0.005507306923076924,0.008053835952702737
-0.005506966923076923,0.007691786817401052
-0.005506626923076924,0.006836034315784124
-0.005506286923076924,0.00607902248742931
-0.005505946923076923,0.005585319121109576
-0.005505606923076924,0.00482830729275614
-0.005505266923076924,0.005420751332338168
-0.005504926923076923,0.00499287508152689
-0.005504586923076924,0.003873814117873984
-0.005504246923076924,0.0025572718076917
-0.005503906923076923,0.001800259979336467
-0.005503566923076924,0.001569865075054987
-0.005503226923076924,0.002129395556882458
-0.005502886923076923,0.003577592098085545
-0.005502546923076924,0.004992875081528926
-0.005502206923076924,0.006111936045183867
-0.005501866923076923,0.006770207200273752
-0.005501526923076924,0.00607902248742931
-0.005501186923076924,0.005256183543565383
-0.005500846923076923,0.004696653061736715
-0.005500506923076924,0.00403838190664677
-0.005500166923076924,0.003906727675628541
-0.005499826923076924,0.003906727675628541
-0.005499486923076924,0.004202949695419555
-0.005499146923076924,0.00380798700236487
-0.005498806923076924,0.003906727675628362
-0.005498466923076924,0.003939641233383098
-0.005498126923076924,0.004466258157456012
-0.005497786923076924,0.004499171715210509
-0.005497446923076924,0.004762480177247026
-0.005497106923076924,0.005256183543565383
-0.005496766923076924,0.005552405563355858
-0.005496426923076923,0.006111936045183867
-0.005496086923076924,0.007362651239857037
-0.005495746923076924,0.008251317299228463
-0.005495406923076923,0.00904124268533945
-0.005495066923076924,0.009139983358603122
-0.005494726923076924,0.008975415569830636
-0.005494386923076923,0.009172896916357679
-0.005494046923076924,0.009172896916357679
-0.005493706923076924,0.008514625761267734
-0.005493366923076923,0.007955095279439066
-0.005493026923076924,0.007527219028629823
-0.005492686923076924,0.007230997008839348
-0.005492346923076923,0.006836034315784124
-0.005492006923076924,0.006375244507220324
-0.005491666923076924,0.005914454698657362
-0.005491326923076923,0.005387837774583611
-0.005490986923076924,0.005091615754792597
-0.005490646923076924,0.004795393735001583
-0.005490306923076923,0.005322010659074497
-0.005489966923076924,0.006506898738238553
-0.005489626923076924,0.007395564797611595
-0.005489286923076923,0.008580452876775651
-0.005488946923076924,0.008942502012075779
-0.005488606923076924,0.00983116807144882
-0.005488266923076923,0.009469118936147434
-0.005487926923076924,0.008777934223302994
-0.005487586923076924,0.008053835952702737
-0.005487246923076923,0.006901861431291502
-0.005486906923076924,0.005947368256411082
-0.005486566923076924,0.005124529312547154
-0.005486226923076923,0.004992875081529465
-0.005485886923076924,0.00528909710131994
-0.005485546923076924,0.005453664890092726
-0.005485206923076923,0.00558531912111269
-0.005484866923076924,0.00653981229599311
-0.005484526923076924,0.006868947873538681
-0.005484186923076923,0.006473985180483756
-0.005483846923076924,0.006342330949465767
-0.005483506923076924,0.006046108929674754
-0.005483166923076923,0.005684059794373308
-0.005482826923076924,0.004959961523774369
-0.005482486923076924,0.004202949695419555
-0.005482146923076923,0.003939641233383038
-0.005481806923076924,0.003906727675628541
-0.005481466923076924,0.003281370078291956
-0.005481126923076923,0.002919320942993145
-0.005480786923076924,0.003643419213592085
-0.005480446923076924,0.004367517484192341
-0.005480106923076923,0.004795393735002661
-0.005479766923076924,0.005387837774583611
-0.005479426923076924,0.004795393735001583
-0.005479086923076924,0.004268776810929627
-0.005478746923076924,0.003840900560119427
-0.005478406923076924,0.004202949695419555
-0.005478066923076924,0.004367517484192042
-0.005477726923076924,0.00505870219703804
-0.005477386923076924,0.005684059794374625
-0.005477046923076924,0.006441071622728061
-0.005476706923076924,0.007494305470875266
-0.005476366923076924,0.007658873259648051
-0.005476026923076924,0.007099342777821599
-0.005475686923076923,0.006901861431293239
-0.005475346923076924,0.006605639411502225
-0.005475006923076924,0.006046108929675771
-0.005474666923076923,0.006375244507220324
-0.005474326923076924,0.006408158064974882
-0.005473986923076924,0.007066429220064827
-0.005473646923076923,0.007461391913120709
-0.005473306923076924,0.007329737682102481
-0.005472966923076924,0.006473985180485553
-0.005472626923076923,0.006210676718447538
-0.005472286923076924,0.005486578447847282
-0.005471946923076924,0.005322010659074796
-0.005471606923076923,0.005190356428056269
-0.005471266923076924,0.005190356428056269
-0.005470926923076924,0.00492704796602029
-0.005470586923076923,0.004729566619492469
-0.005470246923076924,0.005157442870301712
-0.005469906923076924,0.005190356428056269
-0.005469566923076923,0.005486578447847282
-0.005469226923076924,0.00630941739171121
-0.005468886923076924,0.007461391913120709
-0.005468546923076923,0.008382971530248308
-0.005468206923076924,0.00881084778105755
-0.005467866923076924,0.009238724031866792
-0.005467526923076923,0.009370378262885021
-0.005467186923076924,0.008975415569830336
-0.005466846923076924,0.008415885088002865
-0.005466506923076923,0.007198083451082336
-0.005466166923076924,0.006144849602938425
-0.005465826923076924,0.005486578447847282
-0.005465486923076923,0.005223269985810406
-0.005465146923076924,0.004992875081528926
-0.005464806923076924,0.005223269985810825
-0.005464466923076923,0.005420751332337988
-0.005464126923076924,0.005322010659074497
-0.005463786923076924,0.005256183543565383
-0.005463446923076923,0.005651146236619889
-0.005463106923076924,0.005552405563356397
-0.005462766923076924,0.005716973352129182
-0.005462426923076923,0.005782800467639134
-0.005462086923076924,0.006243590276202096
-0.005461746923076924,0.006836034315784124
-0.005461406923076923,0.007263910566594563
-0.005461066923076924,0.007922181721684508
-0.005460726923076924,0.007691786817402609
-0.005460386923076923,0.00736265123985554
-0.005460046923076924,0.00653981229599311
-0.005459706923076924,0.006111936045183867
-0.005459366923076923,0.006539812295993589
-0.005459026923076924,0.006803120758029567
-0.005458686923076924,0.007230997008838809
-0.005458346923076923,0.0082513172992293
-0.005458006923076924,0.007823441048420837
-0.005457666923076924,0.007691786817402609
-0.005457326923076924,0.007560132586384619
-0.005456986923076924,0.006803120758029567
-0.005456646923076924,0.006868947873538681
-0.005456306923076924,0.006770207200275189
-0.005455966923076924,0.006803120758029567
-0.005455626923076924,0.006638552969256781
-0.005455286923076924,0.007066429220065245
-0.005454946923076924,0.00630941739171121
-0.005454606923076924,0.006243590276202096
-0.005454266923076924,0.005684059794375643
-0.005453926923076923,0.005782800467638296
-0.005453586923076924,0.006177763160692982
-0.005453246923076924,0.006967688546800915
-0.005452906923076923,0.007823441048420837
-0.005452566923076924,0.008613366434530208
-0.005452226923076924,0.008777934223302693
-0.005451886923076923,0.008876674896566664
-0.005451546923076924,0.008481712203511979
-0.005451206923076924,0.008152576625967007
-0.005450866923076923,0.008053835952702737
-0.005450526923076924,0.007362651239857037
-0.005450186923076924,0.006408158064976618
-0.005449846923076923,0.005848627583147411
-0.005449506923076924,0.004959961523774369
-0.005449166923076924,0.004927047966019871
-0.005448826923076923,0.005256183543565383
-0.005448486923076924,0.005223269985810825
-0.005448146923076924,0.005651146236620068
-0.005447806923076923,0.006013195371920196
-0.005447466923076924,0.006671466527011338
-0.005447126923076924,0.007593046144138938
-0.005446786923076923,0.008448798645757422
-0.005446446923076924,0.008646279992284765
-0.005446106923076924,0.008646279992284765
-0.005445766923076923,0.008185490183719708
-0.005445426923076924,0.007494305470875266
-0.005445086923076924,0.007132256335575138
-0.005444746923076923,0.00680312075802867
-0.005444406923076924,0.00630941739171121
-0.005444066923076924,0.006111936045183867
-0.005443726923076923,0.005486578447846325
-0.005443386923076924,0.004959961523774369
-0.005443046923076924,0.004663739503983355
-0.005442706923076923,0.004334603926437664
-0.005442366923076924,0.00426877681092867
-0.005442026923076924,0.003643419213592085
-0.005441686923076923,0.001536951517289114
-0.005441346923076924,-0.004683710898310864
-0.005441006923076924,-0.01768456621136092
-0.005440666923076923,-0.03848593471229131
-0.005440326923076924,-0.06613332322606899
-0.005439986923076924,-0.09855317761430774
-0.005439646923076923,-0.1324541421015598
-0.005439306923076924,-0.1644790337966856
-0.005438966923076924,-0.1924226443303046
-0.005438626923076923,-0.2144747280258885
-0.005438286923076924,-0.2312935560384365
-0.005437946923076924,-0.2422537707707041
-0.005437606923076923,-0.2483756925130547
-0.005437266923076924,-0.2500542839585341
-0.005436926923076924,-0.2483427789552971
-0.005436586923076924,-0.2441956706782305
-0.005436246923076924,-0.238172489609139
-0.005435906923076924,-0.2317214322892458
-0.005435566923076924,-0.2244475360255019
-0.005435226923076924,-0.217733170243559
-0.005434886923076924,-0.2104592739798019
-0.005434546923076924,-0.203317031947076
-0.005434206923076924,-0.1961418763565696
-0.005433866923076924,-0.1892629427858671
-0.005433526923076924,-0.1828118854659857
-0.005433186923076923,-0.1764595688193444
-0.005432846923076924,-0.1698439437106784
-0.005432506923076924,-0.163063750813252
-0.005432166923076923,-0.1562835579158009
-0.005431826923076924,-0.1491084023253074
-0.005431486923076924,-0.1424269501011445
-0.005431146923076923,-0.1359100656657301
-0.005430806923076924,-0.130413501520719
-0.005430466923076924,-0.1258056034350894
-0.005430126923076923,-0.1207369155408792
-0.005429786923076924,-0.1158327954354502
-0.005429446923076924,-0.1112578109075751
-0.005429106923076923,-0.1067486534951924
-0.005428766923076924,-0.1025028045448546
-0.005428426923076924,-0.0987506589608419
-0.005428086923076923,-0.09463646424151545
-0.005427746923076924,-0.09108180000402327
-0.005427406923076924,-0.08815249336386768
-0.005427066923076923,-0.08519027316595754
-0.005426726923076924,-0.08199765806376552
-0.005426386923076924,-0.07841008026851878
-0.005426046923076923,-0.07485541603102661
-0.005425706923076924,-0.07133366535128902
-0.005425366923076924,-0.06777900111379684
-0.005425026923076923,-0.06412559620304101
-0.005424686923076924,-0.06155833869818555
-0.005424346923076924,-0.05915564898210288
-0.005424006923076923,-0.05714792195907082
-0.005423666923076924,-0.05490980003176501
-0.005423326923076924,-0.0518488391605912
-0.005422986923076923,-0.04885370540492237
-0.005422646923076924,-0.04658266991986206
-0.005422306923076924,-0.04444328866581585
-0.005421966923076923,-0.04276469722033038
-0.005421626923076924,-0.04108610577485102
-0.005421286923076924,-0.03944042788712317
-0.005420946923076923,-0.03861758894325804
-0.005420606923076924,-0.0379593177881681
-0.005420266923076924,-0.0370377381710405
-0.005419926923076923,-0.03578702297636607
-0.005419586923076924,-0.03509583826352163
-0.005419246923076924,-0.03430591287741226
-0.005418906923076923,-0.03354890104905541
-0.005418566923076924,-0.03242984008540251
-0.005418226923076924,-0.03163991469929314
-0.005417886923076923,-0.03055376729339029
-0.005417546923076924,-0.02920431142545591
-0.005417206923076924,-0.02726241151793704
-0.005416866923076923,-0.02532051161041542
-0.005416526923076924,-0.02380648795370854
-0.005416186923076924,-0.02183167448843512
-0.005415846923076923,-0.02081135419804265
-0.005415506923076924,-0.0201530830429527
-0.005415166923076924,-0.01959355256112523
-0.005414826923076924,-0.01909984919480778
-0.005414486923076924,-0.01863905938624308
-0.005414146923076924,-0.01751999842258814
