Analysis/New Tests_CMB/wrd01_d2s01/cmb02_ch35.csv

#Digilent WaveForms Oscilloscope Acquisition
#Device Name: ADP3450
#Serial Number: SN:210018B9D9B0
#Date Time: 2024-08-06 12:51:04.187.574.490
#Sample rate: 2.94118e+06Hz
#Samples: 32768
#Trigger: Source: Channel 3 Type: Edge Condition: Rising Level: 20 mV Hyst.: Auto HoldOff: 0 s
#Channel 3: Range: 200 mV/div Offset: 0 V Attenuation: 1 X Coupling: DC Bandwidth: 0 Hz Sample Mode: Average

Time (s),Channel 3 (V)
-0.005570424,0.270440718372032
-0.005570083999999999,0.2638250932633517
-0.005569744,0.2559916665177814
-0.005569404,0.2476645364058785
-0.005569063999999999,0.2401602452378253
-0.005568724,0.2323597320500094
-0.005568384,0.2242629968423884
-0.005568043999999999,0.215968780288225
-0.005567704,0.2077403908496007
-0.005567364,0.2003677539125799
-0.005567023999999999,0.1935217338996202
-0.005566684,0.1870377630219843
-0.005566344,0.1810145819529003
-0.005566003999999999,0.1752547093458451
-0.005565664,0.171008860395515
-0.005565324,0.166697184329668
-0.005564983999999999,0.1631096065344134
-0.005564644,0.1587650169108197
-0.005564304,0.1538608968053907
-0.005563963999999999,0.1490555173732158
-0.005563624,0.1438222616902508
-0.005563284,0.1380953026409579
-0.005562944,0.1324999978226933
-0.005562604,0.1271350879086904
-0.005562264,0.1224942762652978
-0.005561924,0.1185117357770036
-0.005561584,0.1150558122127679
-0.005561244,0.1114682344175212
-0.005560904,0.1075844346024905
-0.005560564,0.1035031534409183
-0.005560224,0.09919147737507136
-0.005559884,0.09563681313758568
-0.005559544,0.09191758111131423
-0.005559204,0.08902118802891323
-0.005558864,0.08668432542834392
-0.005558524,0.08461077128980257
-0.005558184,0.08263595782452915
-0.005557844,0.08148398330312175
-0.005557504,0.07957499695335532
-0.005557164,0.07845593598970038
-0.005556824,0.07684317165973002
-0.005556484,0.07483544463669911
-0.005556144,0.07282771761367113
-0.005555804,0.0708858177061558
-0.005555464,0.06841730087456047
-0.005555124,0.06621209250500515
-0.005554784,0.06403979769320832
-0.005554444,0.06206498422793095
-0.005554104,0.06032056566693942
-0.005553764,0.05841157931717511
-0.005553424,0.0569633827759746
-0.005553084,0.05600888960109244
-0.005552744,0.05544935911926497
-0.005552403999999999,0.05452777950213737
-0.005552064,0.05413281680908269
-0.005551724,0.0532770643074642
-0.005551383999999999,0.05209217622829625
-0.005551044,0.04995279497425394
-0.005550704,0.04768175948918949
-0.005550363999999999,0.04593734092819462
-0.005550024,0.04409418169394277
-0.005549684,0.04323842919232428
-0.005549343999999999,0.04290929361477806
-0.005549004,0.04254724447947859
-0.005548664,0.04205354111316023
-0.005548323999999999,0.04142818351582166
-0.005547984,0.04034203610992326
-0.005547644,0.03948628360830477
-0.005547303999999999,0.03853179043342052
-0.005546964,0.03737981591201312
-0.005546624,0.03658989052590375
-0.005546283999999999,0.03573413802428401
-0.005545944,0.03504295331143956
-0.005545604,0.03448342282961209
-0.005545263999999999,0.03389097879002922
-0.005544924,0.03343018898146627
-0.005544584,0.0333314483082026
-0.005544243999999999,0.03283774494188472
-0.005543904,0.03310105340392069
-0.005543564,0.0337922381167664
-0.005543223999999999,0.03392389234778481
-0.005542884,0.03402263302104829
-0.005542544,0.03385806523227551
-0.005542204,0.03313396696167657
-0.005541864,0.03224530090230221
-0.005541524,0.03106041282313815
-0.005541184,0.03000717897499424
-0.005540844,0.02957930272418309
-0.005540504,0.02859189599154637
-0.005540164,0.02793362483645643
-0.005539824,0.02714369945034586
-0.005539484,0.02632086050648193
-0.005539144,0.02454352838773908
-0.005538804,0.02256871492246242
-0.005538464,0.02102177770799824
-0.005538124,0.02036350655290829
-0.005537784,0.02003437097536152
-0.005537444,0.02079138280371634
-0.005537104,0.02131799972778829
-0.005536764,0.02197627088288039
-0.005536424,0.02325989963530812
-0.005536084,0.02381943011713458
-0.005535744,0.02339155386632635
-0.005535404,0.02319407251979901
-0.005535064,0.0232928131930625
-0.005534724,0.02332572675081724
-0.005534384,0.02312824540428989
-0.005534044,0.02339155386632587
-0.005533704,0.02339155386632635
-0.005533364,0.02263454203797154
-0.005533024,0.02207501155614406
-0.005532684,0.02148256751656204
-0.005532344,0.02112051838126191
-0.005532004,0.02092303703473456
-0.005531664,0.02092303703473456
-0.005531324,0.02131799972778925
-0.005530984,0.02204209799838951
-0.005530643999999999,0.02263454203797154
-0.005530304,0.02329281319306268
-0.005529964,0.02460935550324496
-0.005529623999999999,0.0252347131005816
-0.005529284,0.0252676266583361
-0.005528944,0.02447770127222673
-0.005528603999999999,0.02322698607755111
-0.005528264,0.02187753020961672
-0.005527924,0.02056098789943444
-0.005527583999999999,0.01954066760904167
-0.005527244,0.01871782866517924
-0.005526904,0.0192115320314976
-0.005526563999999999,0.01996854385985325
-0.005526224,0.02042933366841621
-0.005525884,0.02065972857269811
-0.005525543999999999,0.0205280743416791
-0.005525204,0.02010019809087064
-0.005524864,0.0196723218400614
-0.005524523999999999,0.01937609982026847
-0.005524184,0.01832286597212456
-0.005523844,0.0178291626058062
-0.005523503999999999,0.01802664395233432
-0.005523164,0.01845452020314278
-0.005522824,0.01878365578068835
-0.005522483999999999,0.01884948289619753
-0.005522144,0.01888239645395202
-0.005521804,0.01960649472455228
-0.005521463999999999,0.02029767943739834
-0.005521124,0.02049516078392532
-0.005520784,0.02000145741760697
-0.005520444,0.0196394082823075
-0.005520104,0.01957358116679772
-0.005519764,0.01891531001170658
-0.005519424,0.01901405068497007
-0.005519084,0.01907987780047937
-0.005518744,0.01954066760904317
-0.005518404,0.01960649472455216
-0.005518064,0.01986980318658874
-0.005517724,0.01960649472455228
-0.005517384,0.0193431862625163
-0.005517044,0.01881656933844291
-0.005516704,0.01789498972131531
-0.005516364,0.01769750837478833
-0.005516024,0.0175987677015243
-0.005515684,0.01815829818335177
-0.005515344,0.01865200154966923
-0.005515004,0.01924444558925215
-0.005514664,0.01960649472455228
-0.005514324,0.01986980318658826
-0.005513984,0.01947484049353405
-0.005513644,0.0185203473186519
-0.005513304,0.01769750837478946
-0.005512964,0.01743419991275151
-0.005512624,0.01697341010418771
-0.005512284,0.01710506433520594
-0.005511944,0.01766459481703341
-0.005511604,0.01835577952987911
-0.005511264,0.01861908799191557
-0.005510924,0.01924444558925215
-0.005510584,0.01954066760904317
-0.005510244,0.01924444558925215
-0.005509903999999999,0.01861908799191557
-0.005509564,0.01786207616356076
-0.005509224,0.01697341010418771
-0.005508883999999999,0.0164467931801157
-0.005508544,0.01694049654643316
-0.005508204,0.0169075829886786
-0.005507863999999999,0.01710506433520738
-0.005507524,0.01789498972131531
-0.005507184,0.01861908799191557
-0.005506843999999999,0.01875074222293464
-0.005506504,0.0192115320314976
-0.005506164,0.01924444558925215
-0.005505823999999999,0.01884948289619681
-0.005505484,0.01848743376089734
-0.005505144,0.01809247106784265
-0.005504803999999999,0.01733545923948676
-0.005504464,0.01674301519990581
-0.005504124,0.01638096606460569
-0.005503783999999999,0.01644679318011629
-0.005503444,0.01726963212397873
-0.005503104,0.01842160664538823
-0.005502763999999999,0.01940901337802614
-0.005502424,0.02006728453311608
-0.005502084,0.02042933366841621
-0.005501743999999999,0.02003437097536081
-0.005501404,0.01963940828230684
-0.005501064,0.01954066760904317
-0.005500723999999999,0.01911279135823339
-0.005500384,0.01881656933844291
-0.005500044,0.01858617443416101
-0.005499704,0.01809247106784355
-0.005499364,0.01789498972131531
-0.005499024,0.01743419991275151
-0.005498684,0.01792790327906897
-0.005498344,0.01812538462559721
-0.005498004,0.0180595575100881
-0.005497664,0.01792790327907011
-0.005497324,0.01756585414376974
-0.005496984,0.01743419991275151
-0.005496644,0.01684175587317056
-0.005496304,0.01615057116032378
-0.005495964,0.01628222539134202
-0.005495624,0.01615057116032402
-0.005495284,0.0162163982758329
-0.005494944,0.01595308981379644
-0.005494604,0.01624931183358692
-0.005494264,0.01674301519990581
-0.005493924,0.01697341010418771
-0.005493584,0.01759876770152316
-0.005493244,0.01792790327906987
-0.005492904,0.0178291626058062
-0.005492564,0.01789498972131519
-0.005492224,0.01769750837478797
-0.005491884,0.01796081683682443
-0.005491544,0.0181912117411059
-0.005491204,0.01835577952987911
-0.005490864,0.0185203473186519
-0.005490524,0.01855326087640645
-0.005490184,0.01848743376089734
-0.005489844,0.01825703885661544
-0.005489504,0.01858617443416101
-0.005489164,0.01904696424272481
-0.005488824,0.01927735914700671
-0.005488484,0.01888239645395202
-0.005488143999999999,0.01832286597212354
-0.005487804,0.01776333549029708
-0.005487464,0.01647970673786936
-0.005487123999999999,0.01529481865870243
-0.005486784,0.01371496788648656
-0.005486444,0.01295795605813175
-0.005486103999999999,0.01226677134528677
-0.005485764,0.01266173403834073
-0.005485424,0.013682054328732
-0.005485083999999999,0.01555812712074541
-0.005484744,0.01756585414376974
-0.005484404,0.01888239645395202
-0.005484063999999999,0.01980397607108028
-0.005483724,0.02016602520637975
-0.005483384,0.02006728453311608
-0.005483043999999999,0.02000145741760619
-0.005482704,0.01957358116679772
-0.005482364,0.01950775405128861
-0.005482023999999999,0.01947484049353376
-0.005481684,0.01931027270476127
-0.005481344,0.01973814895557051
-0.005481003999999999,0.02049516078392574
-0.005480664,0.02072555568820722
-0.005480324,0.02065972857269811
-0.005479983999999999,0.02010019809086896
-0.005479644,0.01917861847374304
-0.005479304,0.01776333549029708
-0.005478964,0.01618348471808121
-0.005478624,0.01509733731217796
-0.005478284,0.01513025086993251
-0.005477944,0.0152619051009505
-0.005477604,0.01601891692930556
-0.005477264,0.01657844741113303
-0.005476924,0.01789498972131292
-0.005476584,0.01838869308763367
-0.005476244,0.01858617443416101
-0.005475904,0.01838869308763403
-0.005475564,0.01865200154967013
-0.005475224,0.01888239645395202
-0.005474884,0.01924444558925149
-0.005474544,0.01934318626251582
-0.005474204,0.0192115320314976
-0.005473864,0.01838869308763516
-0.005473524,0.01815829818335177
-0.005473184,0.01786207616356076
-0.005472844,0.01720380500847081
-0.005472504,0.01684175587316948
-0.005472164,0.01631513894909657
-0.005471824,0.01605183048706059
-0.005471484,0.01638096606460569
-0.005471144,0.01717089145071506
-0.005470804,0.01773042193254151
-0.005470464,0.0185203473186519
-0.005470124,0.01927735914700671
-0.005469784,0.0203635065529071
-0.005469444,0.02042933366841621
-0.005469104,0.02016602520637975
-0.005468764,0.01980397607107963
-0.005468424,0.01973814895557051
-0.005468084,0.01963940828230684
-0.005467744,0.02000145741760697
-0.005467403999999999,0.01983688962883418
-0.005467064,0.01891531001170658
-0.005466724,0.01796081683682443
-0.005466383999999999,0.01667718808439455
-0.005466044,0.01549230000523264
-0.005465704,0.01473528817687783
-0.005465363999999999,0.0146036339458605
-0.005465024,0.01509733731217796
-0.005464684,0.01578852202502366
-0.005464343999999999,0.01631513894909795
-0.005464004,0.01707215077745139
-0.005463664,0.01789498972131531
-0.005463323999999999,0.01868491510742534
-0.005462984,0.01904696424272481
-0.005462644,0.01963940828230684
-0.005462303999999999,0.01977106251332584
-0.005461964,0.02019893876413431
-0.005461624,0.02006728453311608
-0.005461283999999999,0.01986980318658898
-0.005460944,0.02000145741760697
-0.005460604,0.01924444558925215
-0.005460263999999999,0.0188165693384404
-0.005459924,0.01743419991275151
-0.005459584,0.01628222539134202
-0.005459243999999999,0.01522899154319385
-0.005458904,0.01394536279076846
-0.005458564,0.01302378317364086
-0.005458223999999999,0.01216803067202202
-0.005457884,0.01197054932549503
-0.005457544,0.01243133913405883
-0.005457204,0.01348457298220274
-0.005456864,0.01513025086993251
-0.005456524,0.0169075829886786
-0.005456184,0.01838869308763098
-0.005455844,0.01983688962883418
-0.005455504,0.02128508617003469
-0.005455164,0.02177878953635215
-0.005454824,0.02256871492246242
-0.005454484,0.02250288780695331
-0.005454144,0.02187753020961786
-0.005453804,0.01904696424272481
-0.005453464,0.01197054932549503
-0.005453124,-0.001853144931393807
-0.005452784,-0.02318113035637196
-0.005452444,-0.05148679002529107
-0.005452104,-0.08407121220224333
-0.005451764,-0.1183342258247966
-0.005451424,-0.1500958090579442
-0.005451084,-0.1771507535321409
-0.005450744,-0.1988078745346887
-0.005450404,-0.2138493704285213
-0.005450064,-0.2236576106393615
-0.005449724,-0.2284300765137901
-0.005449384,-0.2291212612266358
-0.005449044,-0.2274755833389109
-0.005448704,-0.2232955615040792
-0.005448364,-0.217436948223768
-0.005448024,-0.2109529773461203
-0.005447684,-0.2043044386796997
-0.005447344,-0.1971951102047154
-0.005447004,-0.1900528681719765
-0.005446663999999999,-0.1831081074857649
-0.005446324,-0.1760646061262897
-0.005445984,-0.1698110301529239
-0.005445643999999999,-0.1622409118693628
-0.005445304,-0.1550986698366368
-0.005444964,-0.1486146989589891
-0.005444623999999999,-0.1418674196192929
-0.005444284,-0.1352847080683935
-0.005443944,-0.129524835461346
-0.005443603999999999,-0.1236003950655166
-0.005443264,-0.118597534286833
-0.005442924,-0.1143187717787406
-0.005442583999999999,-0.1105337126369612
-0.005442244,-0.1076373195545655
-0.005441904,-0.1039839146438097
-0.005441563999999999,-0.1001330283865192
-0.005441224,-0.0961175743404705
-0.005440884,-0.09111471356177783
-0.005440543999999999,-0.08601311210981245
-0.005440204,-0.08104316488888336
-0.005439864,-0.07725810574710928
-0.005439523999999999,-0.07416423131817637
-0.005439184,-0.07166280092883456
-0.005438844,-0.06975381457907026
-0.005438503999999999,-0.06764734688277464
-0.005438164,-0.06547505207097784
-0.005437824,-0.06382937418324999
-0.005437483999999999,-0.06099880821635268
-0.005437144,-0.05803658801844794
-0.005436804,-0.05471231868523767
-0.005436464,-0.0519475798338599
-0.005436124,-0.0481625206920808
-0.005435784,-0.04496990558988876
-0.005435444,-0.042139339623002
-0.005435104,-0.03904546519406848
-0.005434764,-0.03637946701594936
-0.005434424,-0.03407551797313455
-0.005434084,-0.03233109941213883
-0.005433744,-0.03022463171584718
-0.005433404,-0.02782194199976888
-0.005433064,-0.02663705392060045
-0.005432724,-0.02509011670613627
-0.005432384,-0.02410270997350135
-0.005432044,-0.02278616766331727
-0.005431704,-0.02150253891088955
-0.005431364,-0.01979103390765569
-0.005431024,-0.01834283736645206
-0.005430684,-0.01617054255465129
-0.005430344,-0.01459069178243543
-0.005430004,-0.01347163081877761
-0.005429664,-0.01208926139308621
-0.005429324,-0.01133224956473278
-0.005428984,-0.0104106699476038
-0.005428644,-0.009324522541703417
-0.005428304,-0.008238375135805007
-0.005427964,-0.007382622634184546
-0.005427624,-0.006230648112775047
-0.005427284,-0.005605290515438462
-0.005426944,-0.005309068495647449
-0.005426604,-0.004914105802592763
-0.005426264,-0.004255834647501621
-0.005425924,-0.003663390607919593
-0.005425584,-0.003038033010583008
-0.005425244,-0.002281021182228195
-0.005424903999999999,-0.001853144931418952
-0.005424564,-0.00165566358489161
-0.005424224,-0.001721490700400724
-0.005423883999999999,-0.0009973924297987313
-0.005423544,-4.289925491831147e-05
-0.005423204,0.001010334593227516
-0.005422863999999999,0.003149715847276182
-0.005422524,0.004499171715210569
-0.005422184,0.005914454698656525
-0.005421843999999999,0.006013195371920555
-0.005421504,0.006210676718447538
-0.005421164,0.00630941739171121
-0.005420823999999999,0.006243590276202216
-0.005420484,0.00630941739171121
-0.005420144,0.006506898738238553
-0.005419803999999999,0.006144849602938365
-0.005419464,0.006111936045183867
-0.005419124,0.006473985180483996
-0.005418783999999999,0.007066429220067041
-0.005418444,0.007625959701893495
-0.005418104,0.008580452876775651
-0.005417763999999999,0.009205810474114031
-0.005417424,0.01019321720674895
-0.005417084,0.01157558663244035
-0.005416743999999999,0.0124971662495689
-0.005416404,0.01302378317364086
-0.005416064,0.01361622721322289
-0.005415723999999999,0.01387953567525965
-0.005415384,0.01404410346403213
-0.005415044,0.01417575769505036
-0.005414704,0.01305669673139745
-0.005414364,0.01262882048058617
-0.005414024,0.01174015442121313
-0.005413684,0.01104896970836869
-0.005413344,0.01025904432225806
-0.005413004,0.01035778499552173
-0.005412664,0.01088440191959369
-0.005412324,0.0116085001901949
-0.005411984,0.01279338826935896
-0.005411644,0.01437323904157483
-0.005411304,0.01539355933196897
-0.005410964,0.01539355933196897
-0.005410624,0.01470237461912453
-0.005410284,0.01417575769505036
-0.005409944,0.01378079500199567
-0.005409604,0.01394536279076816
-0.005409264,0.01427449836831403
-0.005408924,0.01473528817687783
-0.005408584,0.01522899154319529
-0.005408244,0.01572269490951454
-0.005407904,0.01578852202502366
-0.005407564,0.01611765760256863
-0.005407224,0.01631513894909657
-0.005406884,0.01684175587316948
-0.005406544,0.01753294058601393
-0.005406204,0.0180595575100881
-0.005405864,0.01828995241437
-0.005405524,0.01848743376089734
-0.005405184,0.01845452020314278
-0.005404844,0.01838869308763367
-0.005404504,0.01861908799191557
-0.005404163999999999,0.01861908799191557
-0.005403824,0.01855326087640645
-0.005403484,0.01815829818335177
-0.005403143999999999,0.01782916260580542
-0.005402804,0.01740128635499695
-0.005402464,0.01710506433520594
-0.005402123999999999,0.01710506433520696
-0.005401784,0.01766459481703341
-0.005401444,0.01779624904805164
-0.005401103999999999,0.01848743376089901
-0.005400764,0.01940901337802494
-0.005400424,0.02003437097536152
-0.005400083999999999,0.02056098789943569
-0.005399744,0.02125217261228014
-0.005399404,0.02177878953635305
-0.005399063999999999,0.02237123357593496
-0.005398724,0.02230540646042596
-0.005398384,0.02121925905452558
-0.005398043999999999,0.01980397607107663
-0.005397704,0.01815829818335177
-0.005397364,0.01700632366194227
-0.005397023999999999,0.01618348471807786
-0.005396684,0.01592017625604189
-0.005396344,0.01595308981379644
-0.005396003999999999,0.01674301519990719
-0.005395664,0.01750002702826063
-0.005395324,0.01871782866517924
-0.005394983999999999,0.02023185232188953
-0.005394644,0.020593901457189
-0.005394304,0.02115343193901647
-0.005393964,0.02115343193901647
-0.005393624,0.02138382684329837
-0.005393284,0.02062681501494355
-0.005392944,0.01983688962883562
-0.005392604,0.01927735914700671
-0.005392264,0.0185203473186519
-0.005391924,0.01756585414377148
-0.005391584,0.01723671856622417
-0.005391244,0.01684175587316948
-0.005390904,0.01700632366194197
-0.005390564,0.01710506433520594
-0.005390224,0.01746711347050607
-0.005389884,0.01773042193254205
-0.005389544,0.01766459481703341
-0.005389204,0.01750002702826063
-0.005388864,0.01730254568173364
-0.005388524,0.01753294058601518
-0.005388184,0.0180595575100881
-0.005387844,0.01825703885661508
-0.005387504,0.01878365578068835
-0.005387164,0.01934318626251582
-0.005386824,0.01940901337802482
-0.005386484,0.01911279135823393
-0.005386144,0.02016602520637975
-0.005385804,0.02033059299515224
-0.005385464,0.0210546912657528
-0.005385124,0.02194335732512584
-0.005384784,0.02210792511389862
-0.005384444,0.02161422174758026
-0.005384104,0.02118634549677102
-0.005383764,0.02108760482350735
-0.005383424,0.02023185232188887
-0.005383084,0.01937609982027038
-0.005382744,0.01858617443416101
-0.005382403999999999,0.0175987677015243
-0.005382064,0.01674301519990581
-0.005381724,0.01565686779400543
-0.005381383999999999,0.0142415848105584
-0.005381044,0.01364914077097745
-0.005380704,0.01371496788648656
-0.005380363999999999,0.01407701702178759
-0.005380024,0.01457072038810504
-0.005379684,0.01536064577421441
-0.005379343999999999,0.0171050643352087
-0.005379004,0.01861908799191557
-0.005378664,0.01980397607107963
-0.005378323999999999,0.02154839463207229
-0.005377984,0.02217375222940774
-0.005377644,0.02237123357593508
