Analysis/New Tests_CMB/wrd01_d2s01/cmb07_ch04.csv

#Digilent WaveForms Oscilloscope Acquisition
#Device Name: ADP3450
#Serial Number: SN:210018B9D9B0
#Date Time: 2024-08-15 12:20:13.933.523.390
#Sample rate: 5.88235e+06Hz
#Samples: 32768
#Trigger: Source: Channel 3 Type: Edge Condition: Rising Level: 40 mV Hyst.: Auto HoldOff: 0 s
#Channel 3: Range: 100 mV/div Offset: 0 V Attenuation: 1 X Coupling: DC Bandwidth: 0 Hz Sample Mode: Average

Time (s),Channel 3 (V)
-0.003168950522781367,0.02352320809734458
-0.003168780522781367,0.02322698607755326
-0.003168610522781367,0.02306241828878078
-0.003168440522781367,0.02319407251979901
-0.003168270522781367,0.02325989963530686
-0.003168100522781367,0.02256871492246242
-0.003167930522781367,0.02270036915348065
-0.003167760522781367,0.0221737522294069
-0.003167590522781367,0.02171296242084393
-0.003167420522781367,0.02098886415024368
-0.003167250522781367,0.0205939014571881
-0.003167080522781367,0.02010019809087064
-0.003166910522781367,0.02000145741760697
-0.003166740522781367,0.01937609982026948
-0.003166570522781367,0.01888239645395202
-0.003166400522781367,0.01832286597212456
-0.003166230522781367,0.01812538462559721
-0.003166060522781367,0.01812538462559721
-0.003165890522781367,0.01769750837478797
-0.003165720522781367,0.01782916260580632
-0.003165550522781367,0.01789498972131531
-0.003165380522781367,0.01842160664538823
-0.003165210522781367,0.01881656933844219
-0.003165040522781367,0.0192115320314976
-0.003164870522781367,0.01907987780047937
-0.003164700522781367,0.01878365578068889
-0.003164530522781367,0.01868491510742468
-0.003164360522781367,0.0173683727972424
-0.003164190522781367,0.01842160664538631
-0.003164020522781367,0.01773042193254253
-0.003163850522781367,0.01750002702826063
-0.003163680522781367,0.01736837279724264
-0.003163510522781367,0.01697341010418771
-0.003163340522781367,0.01671010164215126
-0.003163170522781367,0.01628222539134279
-0.003163000522781367,0.01661136096888758
-0.003162830522781367,0.0162163982758329
-0.003162660522781367,0.01644679318011438
-0.003162490522781367,0.01628222539134202
-0.003162320522781367,0.01657844741113303
-0.003162150522781367,0.016907582988678
-0.003161980522781367,0.01694049654643316
-0.003161810522781367,0.01680884231541493
-0.003161640522781367,0.01641387962236096
-0.003161470522781367,0.0162163982758329
-0.003161300522781367,0.01618348471807834
-0.003161130522781367,0.01608474404481485
-0.003160960522781367,0.01638096606460569
-0.003160790522781367,0.01588726269828733
-0.003160620522781367,0.01545938644747809
-0.003160450522781367,0.01542647288972353
-0.003160280522781367,0.01532773221645986
-0.003160110522781367,0.01476820173463239
-0.003159940522781367,0.01470237461912327
-0.003159770522781367,0.01466946106136872
-0.003159600522781367,0.01430741192606859
-0.003159430522781367,0.01466946106136752
-0.003159260522781367,0.01401118990627757
-0.003159090522781367,0.01387953567525935
-0.003158920522781367,0.01338583230894039
-0.003158750522781367,0.01305669673139542
-0.003158580522781367,0.01262882048058617
-0.003158410522781367,0.01259590692283138
-0.003158240522781367,0.01246425269181339
-0.003158070522781367,0.0120692899987587
-0.003157900522781367,0.01210220355651248
-0.003157730522781367,0.01167432730570402
-0.003157560522781367,0.01177306797896769
-0.003157390522781367,0.01170724086345852
-0.003157220522781367,0.01167432730570402
-0.003157050522781367,0.01233259846079516
-0.003156880522781367,0.01246425269181429
-0.003156710522781367,0.01295795605813175
-0.003156540522781367,0.01348457298220466
-0.003156370522781367,0.01371496788648752
-0.003156200522781367,0.01424158481055947
-0.003156030522781367,0.01453780683035049
-0.003155860522781367,0.01450489327259629
-0.003155690522781367,0.01470237461912327
-0.003155520522781367,0.0152948186587053
-0.003155350522781367,0.01519607798544133
-0.003155180522781367,0.01503151019666884
-0.003155010522781367,0.01473528817687783
-0.003154840522781367,0.01526190510094979
-0.003154670522781367,0.01371496788648656
-0.003154500522781367,0.01351748653995922
-0.003154330522781367,0.01394536279076768
-0.003154160522781367,0.01364914077097745
-0.003153990522781367,0.0134516594244501
-0.003153820522781367,0.01361622721322259
-0.003153650522781367,0.01338583230894099
-0.003153480522781367,0.01341874586669555
-0.003153310522781367,0.01315543740465957
-0.003153140522781367,0.01272756115384985
-0.003152970522781367,0.01262882048058617
-0.003152800522781367,0.0122996849030412
-0.003152630522781367,0.01226677134528605
-0.003152460522781367,0.0118388950944768
-0.003152290522781367,0.01177306797896781
-0.003152120522781367,0.01200346288324959
-0.003151950522781367,0.01157558663244035
-0.003151780522781367,0.01197054932549431
-0.003151610522781367,0.01200346288324959
-0.003151440522781367,0.01239842557630427
-0.003151270522781367,0.01197054932549581
-0.003151100522781367,0.01200346288324959
-0.003150930522781367,0.0116085001901949
-0.003150760522781367,0.01157558663244041
-0.003150590522781367,0.01127936461264933
-0.003150420522781367,0.01075274768857642
-0.003150250522781367,0.01022613076450351
-0.003150080522781367,0.009896995186957936
-0.003149910522781367,0.00950203249390325
-0.003149740522781367,0.009271637589621349
-0.003149570522781367,0.009403291820639578
-0.003149400522781367,0.009633686724921478
-0.003149230522781367,0.009765340955939707
-0.003149060522781367,0.009798254513694264
-0.003148890522781367,0.01022613076450351
-0.003148720522781367,0.01042361211103085
-0.003148550522781367,0.01045652566878582
-0.003148380522781367,0.01068692057306731
-0.003148210522781367,0.01098314259285832
-0.003148040522781367,0.01081857480408523
-0.003147870522781367,0.01065400701531275
-0.003147700522781367,0.01052235278429452
-0.003147530522781367,0.01029195788001172
-0.003147360522781367,0.009798254513694264
-0.003147190522781367,0.009172896916357679
-0.003147020522781367,0.008712107107793162
-0.003146850522781367,0.008317144414739193
-0.003146680522781367,0.008053835952702737
-0.003146510522781367,0.007889268163929531
-0.003146340522781367,0.007658873259648051
-0.003146170522781367,0.007494305470875266
-0.003146000522781367,0.008251317299230319
-0.003145830522781367,0.008382971530248308
-0.003145660522781367,0.008514625761266537
-0.003145490522781367,0.009238724031869606
-0.003145320522781367,0.01078566124633098
-0.003145150522781367,0.009962822302467049
-0.003144980522781367,0.01042361211103235
-0.003144810522781367,0.01124645105489478
-0.003144640522781367,0.01114771038163111
-0.003144470522781367,0.01180598153672303
-0.003144300522781367,0.01223385778753149
-0.003144130522781367,0.01236551201854972
-0.003143960522781367,0.01213511711426824
-0.003143790522781367,0.01197054932549503
-0.003143620522781367,0.01157558663244035
-0.003143450522781367,0.01150975951693135
-0.003143280522781367,0.01075274768857642
-0.003143110522781367,0.01065400701531275
-0.003142940522781367,0.01042361211103127
-0.003142770522781367,0.01032487143776718
-0.003142600522781367,0.009304551147375908
-0.003142430522781367,0.009469118936148392
-0.003142260522781367,0.009337464705130465
-0.003142090522781367,0.009633686724921478
-0.003141920522781367,0.01009447653348444
-0.003141750522781367,0.01032487143776718
-0.003141580522781367,0.01085148836184009
-0.003141410522781367,0.01121353749713956
-0.003141240522781367,0.01127936461264933
-0.003141070522781367,0.0116085001901949
-0.003140900522781367,0.01180598153672189
-0.003140730522781367,0.01193763576774048
-0.003140560522781367,0.01177306797896769
-0.003140390522781367,0.01183889509447668
-0.003140220522781367,0.01157558663244035
-0.003140050522781367,0.01144393240142212
-0.003139880522781367,0.01111479682387655
-0.003139710522781367,0.01065400701531275
-0.003139540522781367,0.01052235278429452
-0.003139370522781367,0.01045652566878541
-0.003139200522781367,0.01081857480408553
-0.003139030522781367,0.01045652566878541
-0.003138860522781367,0.01098314259285832
-0.003138690522781367,0.01085148836184009
-0.003138520522781367,0.01078566124633098
-0.003138350522781367,0.01081857480408553
-0.003138180522781367,0.01068692057306797
-0.003138010522781367,0.01104896970836743
-0.003137840522781367,0.01098314259285832
-0.003137670522781367,0.01134519172815839
-0.003137500522781367,0.01131227817040389
-0.003137330522781367,0.01141101884366756
-0.003137160522781367,0.01150975951693135
-0.003136990522781367,0.01157558663244035
-0.003136820522781367,0.0116085001901949
-0.003136650522781367,0.01183889509447698
-0.003136480522781367,0.01193763576774048
-0.003136310522781367,0.01200346288324959
-0.003136140522781367,0.01210220355651386
-0.003135970522781367,0.01243133913405883
-0.003135800522781367,0.0116085001901949
-0.003135630522781367,0.01095022903510759
-0.003135460522781367,0.01305669673139542
-0.003135290522781367,0.01233259846079516
-0.003135120522781367,0.01233259846079372
-0.003134950522781367,0.01154267307468579
-0.003134780522781367,0.01124645105489478
-0.003134610522781367,0.01068692057306653
-0.003134440522781367,0.01025904432225806
-0.003134270522781367,0.009798254513694264
-0.003134100522781367,0.009205810474110799
-0.003133930522781367,0.008415885088002865
-0.003133760522781367,0.007889268163929951
-0.003133590522781367,0.007066429220067521
-0.003133420522781367,0.006473985180483996
-0.003133250522781367,0.00607902248742931
-0.003133080522781367,0.005782800467638835
-0.003132910522781367,0.005190356428056269
-0.003132740522781367,0.005387837774583611
-0.003132570522781367,0.0055194920056016
-0.003132400522781367,0.005815714025392853
-0.003132230522781367,0.008251317299230079
-0.003132060522781367,0.00502578863928935
-0.003131890522781367,0.005980281814165639
-0.003131720522781367,0.007263910566593366
-0.003131550522781367,0.007494305470874848
-0.003131380522781367,0.007988008837193623
-0.003131210522781367,0.008086749510457293
-0.003131040522781367,0.008810847781056234
-0.003130870522781367,0.009534946051657807
-0.003130700522781367,0.01016030364899439
-0.003130530522781367,0.0100286494179764
-0.003130360522781367,0.01071983413082186
-0.003130190522781367,0.01081857480408553
-0.003130020522781367,0.01137810528591199
-0.003129850522781367,0.01131227817040389
-0.003129680522781367,0.01150975951693123
-0.003129510522781367,0.01124645105489525
-0.003129340522781367,0.01098314259285832
-0.003129170522781367,0.01058817989980363
-0.003129000522781367,0.01052235278429452
-0.003128830522781367,0.00973242739818515
-0.003128660522781367,0.009172896916357679
-0.003128490522781367,0.008415885088002865
-0.003128320522781367,0.007889268163929951
-0.003128150522781367,0.007889268163929951
-0.003127980522781367,0.00756013258638438
-0.003127810522781367,0.00742847835536675
-0.003127640522781367,0.007757613932911723
-0.003127470522781367,0.007593046144138938
-0.003127300522781367,0.007593046144139536
-0.003127130522781367,0.007922181721684508
-0.003126960522781367,0.008382971530248308
-0.003126790522781367,0.008317144414739432
-0.003126620522781367,0.008448798645757422
-0.003126450522781367,0.008777934223302994
-0.003126280522781367,0.008317144414739791
-0.003126110522781367,0.008646279992284765
-0.003125940522781367,0.008284230856984636
-0.003125770522781367,0.008218403741475342
-0.003125600522781367,0.00811966306821185
-0.003125430522781367,0.00802092239494818
-0.003125260522781367,0.008185490183721266
-0.003125090522781367,0.008350057972493751
-0.003124920522781367,0.008185490183720966
-0.003124750522781367,0.008086749510457233
-0.003124580522781367,0.008053835952702737
-0.003124410522781367,0.007988008837193623
-0.003124240522781367,0.007625959701893315
-0.003124070522781367,0.007527219028629823
-0.003123900522781367,0.00756013258638438
-0.003123730522781367,0.007527219028630063
-0.003123560522781367,0.007658873259648051
-0.003123390522781367,0.008086749510457293
-0.003123220522781367,0.008712107107792742
-0.003123050522781367,0.008843761338812107
-0.003122880522781367,0.009534946051657807
-0.003122710522781367,0.009765340955939287
-0.003122540522781367,0.01042361211103085
-0.003122370522781367,0.01075274768857642
-0.003122200522781367,0.01085148836183991
-0.003122030522781367,0.01071983413082186
-0.003121860522781367,0.01068692057306731
-0.003121690522781367,0.01124645105489376
-0.003121520522781367,0.01088440191959465
-0.003121350522781367,0.01071983413082186
-0.003121180522781367,0.01058817989980387
-0.003121010522781367,0.01075274768857642
-0.003120840522781367,0.01065400701531275
-0.003120670522781367,0.01052235278429476
-0.003120500522781367,0.01032487143776718
-0.003120330522781367,0.01019321720674895
-0.003120160522781367,0.01032487143776694
-0.003119990522781367,0.01045652566878541
-0.003119820522781367,0.009995735860221606
-0.003119650522781367,0.009929908744712612
-0.003119480522781367,0.01025904432225806
-0.003119310522781367,0.01006156297573072
-0.003119140522781367,0.01016030364899421
-0.003118970522781367,0.01029195788001262
-0.003118800522781367,0.01062109345755819
-0.003118630522781367,0.01058817989980363
-0.003118460522781367,0.01025904432225806
-0.003118290522781367,0.009896995186957936
-0.003118120522781367,0.009337464705130465
-0.003117950522781367,0.008745020665548437
-0.003117780522781367,0.008448798645757422
-0.003117610522781367,0.007856354606175394
-0.003117440522781367,0.007527219028629823
-0.003117270522781367,0.007066429220066024
-0.003117100522781367,0.006441071622729439
-0.003116930522781367,0.005848627583145734
-0.003116760522781367,0.004927047966019811
-0.003116590522781367,0.004170036137664999
-0.003116420522781367,0.00426877681092843
-0.003116250522781367,0.004137122579910441
-0.003116080522781367,0.004762480177247026
-0.003115910522781367,0.004959961523775327
-0.003115740522781367,0.005486578447847282
-0.003115570522781367,0.006210676718447538
-0.003115400522781367,0.006539812295995206
-0.003115230522781367,0.007691786817402609
-0.003115060522781367,0.008317144414739193
-0.003114890522781367,0.009304551147377224
-0.003114720522781367,0.01002864941797616
-0.003114550522781367,0.01101605615061288
-0.003114380522781367,0.01177306797896805
-0.003114210522781367,0.01197054932549503
-0.003114040522781367,0.01246425269181339
-0.003113870522781367,0.0126288204805854
-0.003113700522781367,0.01220094422977693
-0.003113530522781367,0.01213511711426782
-0.003113360522781367,0.01177306797896667
-0.003113190522781367,0.01121353749714022
-0.003113020522781367,0.01088440191959465
-0.003112850522781367,0.01062109345755765
-0.003112680522781367,0.01032487143776718
-0.003112510522781367,0.01002864941797616
-0.003112340522781367,0.009831168071449179
-0.003112170522781367,0.01006156297573072
-0.003112000522781367,0.01022613076450351
-0.003111830522781367,0.01009447653348552
-0.003111660522781367,0.01039069855327629
-0.003111490522781367,0.01029195788001262
-0.003111320522781367,0.01016030364899463
-0.003111150522781367,0.01039069855327629
-0.003110980522781367,0.01065400701531275
-0.003110810522781367,0.01052235278429476
-0.003110640522781367,0.01029195788001262
-0.003110470522781367,0.01016030364899439
-0.003110300522781367,0.009633686724922435
-0.003110130522781367,0.009271637589621349
-0.003109960522781367,0.008975415569830336
-0.003109790522781367,0.008909588454321342
-0.003109620522781367,0.00871210710779388
-0.003109450522781367,0.008514625761266537
-0.003109280522781367,0.008382971530248548
-0.003109110522781367,0.008152576625966409
-0.003108940522781367,0.007889268163929951
-0.003108770522781367,0.007625959701893973
-0.003108600522781367,0.007428478355366152
-0.003108430522781367,0.007955095279439066
-0.003108260522781367,0.008284230856984038
-0.003108090522781367,0.008185490183720966
-0.003107920522781367,0.008350057972493751
-0.003107750522781367,0.008218403741475522
-0.003107580522781367,0.008382971530248308
-0.003107410522781367,0.00802092239494818
-0.003107240522781367,0.008909588454321223
-0.003107070522781367,0.008909588454321223
-0.003106900522781367,0.008679193550039321
-0.003106730522781367,0.008679193550039321
-0.003106560522781367,0.008942502012074522
-0.003106390522781367,0.008251317299230079
-0.003106220522781367,0.008284230856984636
-0.003106050522781367,0.007658873259647034
-0.003105880522781367,0.007099342777820581
-0.003105710522781367,0.006901861431293239
-0.003105540522781367,0.006836034315783226
-0.003105370522781367,0.006342330949465767
-0.003105200522781367,0.00653981229599311
-0.003105030522781367,0.006506898738238493
-0.003104860522781367,0.006473985180483996
-0.003104690522781367,0.006572725853747667
-0.003104520522781367,0.006473985180484355
-0.003104350522781367,0.006671466527011338
-0.003104180522781367,0.006967688546802352
-0.003104010522781367,0.007560132586384859
-0.003103840522781367,0.007823441048420837
-0.003103670522781367,0.007988008837193623
-0.003103500522781367,0.00765887325964853
-0.003103330522781367,0.007922181721684508
-0.003103160522781367,0.00811966306821185
-0.003102990522781367,0.008119663068211132
-0.003102820522781367,0.007724700375157166
-0.003102650522781367,0.008218403741475522
-0.003102480522781367,0.008251317299230858
-0.003102310522781367,0.008679193550039321
-0.003102140522781367,0.008745020665548437
-0.003101970522781367,0.008613366434530447
-0.003101800522781367,0.008646279992284765
-0.003101630522781367,0.008777934223302994
-0.003101460522781367,0.009238724031865955
-0.003101290522781367,0.009534946051657807
-0.003101120522781367,0.009699513840430593
-0.003100950522781367,0.009732427398185089
-0.003100780522781367,0.01002864941797616
-0.003100610522781367,0.01022613076450351
-0.003100440522781367,0.009962822302467528
-0.003100270522781367,0.01068692057306731
-0.003100100522781367,0.01009447653348528
-0.003099930522781367,0.01039069855327575
-0.003099760522781367,0.01048943922653996
-0.003099590522781367,0.01062109345755819
-0.003099420522781367,0.01095022903510316
-0.003099250522781367,0.01088440191959465
-0.003099080522781367,0.01111479682387655
-0.003098910522781367,0.01114771038163104
-0.003098740522781367,0.01095022903510376
-0.003098570522781367,0.01104896970836743
-0.003098400522781367,0.01095022903510394
-0.003098230522781367,0.01088440191959465
-0.003098060522781367,0.009995735860221606
-0.003097890522781367,0.01114771038162901
-0.003097720522781367,0.01114771038163111
-0.003097550522781367,0.01098314259285832
-0.003097380522781367,0.01065400701531275
-0.003097210522781367,0.01068692057306731
-0.003097040522781367,0.01071983413082186
-0.003096870522781367,0.01075274768857642
-0.003096700522781367,0.01108188326612199
-0.003096530522781367,0.01078566124633098
-0.003096360522781367,0.01052235278429452
-0.003096190522781367,0.01065400701531275
-0.003096020522781367,0.01045652566878541
-0.003095850522781367,0.01048943922653996
-0.003095680522781367,0.009929908744711953
-0.003095510522781367,0.009633686724921478
-0.003095340522781367,0.009798254513694264
-0.003095170522781367,0.009732427398184969
-0.003095000522781367,0.009633686724921478
-0.003094830522781367,0.009699513840430593
-0.003094660522781367,0.009633686724921658
-0.003094490522781367,0.00973242739818515
-0.003094320522781367,0.009633686724921478
-0.003094150522781367,0.00946911893614971
-0.003093980522781367,0.01002864941797616
-0.003093810522781367,0.01025904432225806
-0.003093640522781367,0.01045652566878606
-0.003093470522781367,0.01081857480408553
-0.003093300522781367,0.01141101884366756
-0.003093130522781367,0.01200346288325073
-0.003092960522781367,0.01262882048058617
-0.003092790522781367,0.01279338826935896
-0.003092620522781367,0.0128592153848676
-0.003092450522781367,0.01259590692283162
-0.003092280522781367,0.01279338826935896
-0.003092110522781367,0.0130566967313956
-0.003091940522781367,0.01315543740465909
-0.003091770522781367,0.01315543740465909
-0.003091600522781367,0.01338583230894039
-0.003091430522781367,0.01305669673139542
-0.003091260522781367,0.01236551201854972
-0.003091090522781367,0.01160850019019628
-0.003090920522781367,0.01081857480408553
-0.003090750522781367,0.009995735860221606
-0.003090580522781367,0.009469118936149649
-0.003090410522781367,0.009074156243094007
