Analysis/New Tests_CMB/wrd01_d2s01/cmb07_ch44.csv

#Digilent WaveForms Oscilloscope Acquisition
#Device Name: ADP3450
#Serial Number: SN:210018B9D9B0
#Date Time: 2024-08-07 10:42:22.173.488.980
#Sample rate: 2.94118e+06Hz
#Samples: 32768
#Trigger: Source: Channel 3 Type: Edge Condition: Rising Level: 0 V Hyst.: Auto HoldOff: 0 s
#Channel 3: Range: 200 mV/div Offset: 0 V Attenuation: 1 X Coupling: DC Bandwidth: 0 Hz Sample Mode: Average

Time (s),Channel 3 (V)
-0.005570551500000001,0.008876674896566664
-0.0055702115,0.009600773167168777
-0.0055698715,0.01062109345755819
-0.005569531500000001,0.01131227817040389
-0.0055691915,0.01220094422977819
-0.0055688515,0.01289212894262263
-0.005568511500000001,0.01364914077097745
-0.0055681715,0.01434032548382296
-0.0055678315,0.01424158481055947
-0.005567491500000001,0.01361622721322289
-0.0055671515,0.01249716624956627
-0.0055668115,0.01157558663244035
-0.005566471500000001,0.01052235278429452
-0.0055661315,0.009732427398185929
-0.0055657915,0.01016030364899439
-0.005565451500000001,0.01025904432225806
-0.0055651115,0.01111479682387781
-0.0055647715,0.01180598153672225
-0.0055644315,0.01220094422977693
-0.0055640915,0.01226677134528467
-0.0055637515,0.01150975951693123
-0.0055634115,0.01091731547734921
-0.005563071500000001,0.01065400701531323
-0.0055627315,0.01045652566878541
-0.0055623915,0.01009447653348528
-0.005562051500000001,0.01016030364899427
-0.0055617115,0.01025904432225806
-0.0055613715,0.01052235278429452
-0.005561031500000001,0.01101605615061198
-0.0055606915,0.01088440191959465
-0.0055603515,0.01078566124633098
-0.005560011500000001,0.01078566124633098
-0.0055596715,0.01052235278429452
-0.0055593315,0.01029195788001262
-0.005558991500000001,0.01081857480408458
-0.0055586515,0.01101605615061288
-0.0055583115,0.01154267307468579
-0.005557971500000001,0.01282630182711118
-0.0055576315,0.01565686779400543
-0.0055572915,0.0236548623283628
-0.005556951500000001,0.03826848197135958
-0.0055566115,0.06120923172631246
-0.0055562715,0.09125930995622311
-0.005555931500000001,0.1253248422321278
-0.0055555915,0.1606410897028295
-0.0055552515,0.1930280305333137
-0.005554911500000001,0.2202475427962829
-0.0055545715,0.2412793062014944
-0.0055542315,0.2560904071910451
-0.005553891500000001,0.2650099813425301
-0.0055535515,0.2689925218308315
-0.0055532115,0.2691241760618497
-0.005552871500000001,0.2669518812500489
-0.0055525315,0.262936427203993
-0.0055521915,0.2576044308477547
-0.005551851500000001,0.2508900650658251
-0.0055515115,0.2436490823598089
-0.0055511715,0.236177704749538
-0.005550831500000001,0.2290354627167991
-0.0055504915,0.2223210969348565
-0.0055501515,0.2151788549021306
-0.005549811500000001,0.2082011806581645
-0.0055494715,0.2001702725660388
-0.0055491315,0.1925672407247499
-0.005548791500000001,0.1842401106128469
-0.0055484515,0.1769333007913239
-0.0055481115,0.170712638375724
-0.005547771500000001,0.1653148149039766
-0.0055474315,0.1607727439338391
-0.0055470915,0.1560331916171915
-0.005546751500000001,0.151984824013381
-0.0055464115,0.1479035428518089
-0.0055460715,0.1440526565945327
-0.005545731500000001,0.139642239855422
-0.0055453915,0.1353305637895663
-0.0055450515,0.1305251843574097
-0.005544711500000001,0.1261147676182991
-0.0055443715,0.1206840305887883
-0.0055440315,0.1158457375988773
-0.005543691500000001,0.1115669750907848
-0.0055433515,0.1069919905628958
-0.0055430115,0.103898116133973
-0.0055426715,0.1000472298766898
-0.005542331500000001,0.09698626900552161
-0.0055419915,0.09369491323006032
-0.0055416515,0.09000859476154993
-0.005541311500000001,0.0868818067748727
-0.0055409715,0.08372210523042953
-0.0055406315,0.08115484772557408
-0.005540291500000001,0.07825845464317832
-0.0055399515,0.07598741915810861
-0.0055396115,0.07404551925058975
-0.005539271500000001,0.07187322443879292
-0.0055389315,0.07029337366657024
-0.0055385915,0.0687793500098606
-0.005538251500000001,0.06690327721785425
-0.0055379115,0.06486263663706832
-0.0055375715,0.06301947740281311
-0.005537231500000001,0.06180167576589671
-0.0055368915,0.0608800961487669
-0.0055365515,0.05962938095409372
-0.005536211500000001,0.05804953018187786
-0.0055358715,0.05630511162088345
-0.0055355315,0.05426447104010092
-0.005535191500000001,0.0520592626705496
-0.0055348515,0.04962365939670836
-0.0055345115,0.04774758660469861
-0.005534171500000001,0.04557529179290179
-0.0055338315,0.04340299698109707
-0.0055334915,0.04179023265112377
-0.005533151500000001,0.03997998697462313
-0.0055328115,0.03932171581953199
-0.0055324715,0.03912423447300464
-0.005532131500000001,0.03863053110668629
-0.0055317915,0.03866344466444085
-0.0055314515,0.03816974129812249
-0.005531111500000001,0.03721524812324033
-0.0055307715,0.03665571764141286
-0.0055304315,0.03563539735102159
-0.005530091500000001,0.03441759571410298
-0.0055297515,0.03359475677023659
-0.0055294115,0.03224530090230221
-0.005529071500000001,0.03138954840068373
-0.0055287315,0.03079710436110122
-0.0055283915,0.03053379589906524
-0.005528051500000001,0.02967804339744676
-0.0055277115,0.02915142647337354
-0.0055273715,0.02898685868460106
-0.005527031500000001,0.02809819262522802
-0.0055266915,0.0273740943546265
-0.0055263515,0.02668290964178206
-0.005526011500000001,0.02553093512037256
-0.0055256715,0.02355612165509584
-0.0055253315,0.0217458759785985
-0.005524991500000001,0.01947484049353405
-0.0055246515,0.01815829818335123
-0.0055243115,0.01786207616356076
-0.005523971500000001,0.01796081683682443
-0.0055236315,0.01865200154967084
-0.0055232915,0.01904696424272481
-0.005522951500000001,0.01973814895557051
-0.0055226115,0.0201331116486249
-0.0055222715,0.01996854385985241
-0.0055219315,0.01947484049353405
-0.0055215915,0.01865200154966887
-0.0055212515,0.01796081683682443
-0.0055209115,0.0178291626058062
-0.005520571500000001,0.01802664395233318
-0.0055202315,0.01858617443416101
-0.0055198915,0.01937609982027038
-0.005519551500000001,0.01990271674434234
-0.0055192115,0.02013311164862519
-0.0055188715,0.02046224722617077
-0.005518531500000001,0.02069264213045225
-0.0055181915,0.02121925905452558
-0.0055178515,0.02128508617003469
-0.005517511500000001,0.02075846924596274
-0.0055171715,0.01957358116679772
-0.0055168315,0.0187507422229338
-0.005516491500000001,0.01828995241437084
-0.0055161515,0.01815829818335177
-0.0055158115,0.01868491510742468
-0.005515471500000001,0.01782916260580776
-0.0055151315,0.01651262029562391
-0.0055147915,0.01496568308115973
-0.005514451500000001,0.01404410346403381
-0.0055141115,0.01328709163567732
-0.0055137715,0.01332000519343187
-0.005513431500000001,0.01318835096241388
-0.0055130915,0.01289212894262263
-0.0055127515,0.01332000519343187
-0.005512411500000001,0.01381370855975023
-0.0055120715,0.01457072038810504
-0.0055117315,0.01513025086993251
-0.005511391500000001,0.01582143558277821
-0.0055110515,0.01582143558277821
-0.0055107115,0.0164467931801148
-0.005510371500000001,0.01634805250685113
-0.0055100315,0.01638096606460569
-0.0055096915,0.01545938644747809
-0.005509351500000001,0.01424158481055947
-0.0055090115,0.0133200051934308
-0.0055086715,0.01272756115384985
-0.005508331500000001,0.01193763576774048
-0.0055079915,0.01141101884366642
-0.0055076515,0.01078566124633098
-0.005507311500000001,0.01062109345755819
-0.0055069715,0.01104896970836791
-0.0055066315,0.01131227817040389
-0.005506291500000001,0.01174015442121313
-0.0055059515,0.01229968490304114
-0.0055056115,0.01259590692283162
-0.005505271500000001,0.01348457298220466
-0.0055049315,0.01427449836831361
-0.0055045915,0.01404410346403213
-0.005504251500000001,0.01292504250037719
-0.0055039115,0.01200346288324773
-0.0055035715,0.01098314259285832
-0.005503231500000001,0.01045652566878541
-0.0055028915,0.01035778499552287
-0.0055025515,0.01098314259285832
-0.005502211500000001,0.01111479682387655
-0.0055018715,0.01085148836183973
-0.0055015315,0.01065400701531275
-0.0055011915,0.01039069855327629
-0.0055008515,0.01016030364899361
-0.0055005115,0.00973242739818515
-0.0055001715,0.00950203249390325
-0.005499831500000001,0.009962822302466211
-0.0054994915,0.01108188326612199
-0.0054991515,0.0120692899987587
-0.005498811500000001,0.0121351171142677
-0.0054984715,0.01279338826935896
-0.0054981315,0.01305669673139542
-0.005497791500000001,0.01302378317364092
-0.0054974515,0.01243133913405883
-0.0054971115,0.01190472220998592
-0.005496771500000001,0.01164141374794994
-0.0054964315,0.01157558663244035
-0.0054960915,0.0120692899987587
-0.005495751500000001,0.0121022035565132
-0.0054954115,0.0122996849030406
-0.0054950715,0.01193763576774048
-0.005494731500000001,0.01210220355651296
-0.0054943915,0.01239842557630427
-0.0054940515,0.01266173403834073
-0.005493711500000001,0.0130237831736402
-0.0054933715,0.01295795605813175
-0.0054930315,0.01394536279076846
-0.005492691500000001,0.01476820173463089
-0.0054923515,0.01486694240789606
-0.0054920115,0.01473528817687783
-0.005491671500000001,0.01424158481056037
-0.0054913315,0.01305669673139542
-0.0054909915,0.01226677134528605
-0.005490651500000001,0.01075274768857642
-0.0054903115,0.009798254513694264
-0.0054899715,0.008975415569830336
-0.005489631500000001,0.008382971530248308
-0.0054892915,0.008514625761266537
-0.0054889515,0.008646279992284765
-0.005488611500000001,0.009403291820639578
-0.0054882715,0.01042361211103306
-0.0054879315,0.01164141374794946
-0.005487591500000001,0.0129908696158863
-0.0054872515,0.01387953567526144
-0.0054869115,0.01503151019666884
-0.005486571500000001,0.01513025086993251
-0.0054862315,0.01453780683034947
-0.0054858915,0.01397827634852302
-0.005485551500000001,0.01282630182711352
-0.0054852115,0.01118062393938464
-0.0054848715,0.01062109345755819
-0.005484531500000001,0.01009447653348528
-0.0054841915,0.009699513840429455
-0.0054838515,0.009074156243094007
-0.005483511500000001,0.009107069800848565
-0.0054831715,0.009633686724922376
-0.0054828315,0.01012739009123984
-0.005482491500000001,0.01058817989980363
-0.0054821515,0.01062109345755831
-0.0054818115,0.01068692057306731
-0.005481471500000001,0.01062109345755819
-0.0054811315,0.01022613076450309
-0.0054807915,0.009995735860221606
-0.005480451500000001,0.01009447653348528
-0.0054801115,0.01022613076450333
-0.0054797715,0.01012739009123984
-0.0054794315,0.01062109345755819
-0.005479091500000001,0.01068692057306719
-0.0054787515,0.01104896970836743
-0.0054784115,0.01121353749714022
-0.005478071500000001,0.01157558663243969
-0.0054777315,0.01203637644100415
-0.0054773915,0.0125300798073225
-0.005477051500000001,0.01249716624956801
-0.0054767115,0.01318835096241365
-0.0054763715,0.013682054328732
-0.005476031500000001,0.01358331365546851
-0.0054756915,0.01355040009771377
-0.0054753515,0.01332000519343187
-0.005475011500000001,0.01391244923301282
-0.0054746715,0.0143732390415777
-0.0054743315,0.01404410346403213
-0.005473991500000001,0.01368205432873266
-0.0054736515,0.01289212894262263
-0.0054733115,0.01256299336507706
-0.005472971500000001,0.01177306797896913
-0.0054726315,0.01131227817040389
-0.0054722915,0.01091731547734921
-0.005471951500000001,0.01039069855327725
-0.0054716115,0.00950203249390325
-0.0054712715,0.00871210710779388
-0.005470931500000001,0.00798800883719494
-0.0054705915,0.006638552969256781
-0.0054702515,0.006177763160692982
-0.005469911500000001,0.006276503833956653
-0.0054695715,0.007428478355366152
-0.0054692315,0.008514625761266537
-0.005468891500000001,0.009995735860221606
-0.0054685515,0.01170724086345858
-0.0054682115,0.01328709163567732
-0.005467871500000001,0.01447197971484137
-0.0054675315,0.01542647288972353
-0.0054671915,0.01559104067849632
-0.005466851500000001,0.01519607798544163
-0.0054665115,0.01526190510094841
-0.0054661715,0.01397827634852302
-0.005465831500000001,0.01394536279076846
-0.0054654915,0.0143732390415777
-0.0054651515,0.0143732390415777
-0.005464811500000001,0.01450489327259593
-0.0054644715,0.01496568308115943
-0.0054641315,0.01480111529238694
-0.005463791500000001,0.01463654750361416
-0.0054634515,0.01443906615708544
-0.0054631115,0.013682054328732
-0.005462771500000001,0.01289212894262263
-0.0054624315,0.01233259846079468
-0.0054620915,0.0120692899987587
-0.005461751500000001,0.01193763576774048
-0.0054614115,0.0116414137479488
-0.0054610715,0.01127936461264933
-0.005460731500000001,0.01104896970836743
-0.0054603915,0.01052235278429452
-0.0054600515,0.01052235278429452
-0.005459711500000001,0.01025904432225806
-0.0054593715,0.01088440191959441
-0.0054590315,0.01075274768857642
-0.0054586915,0.01058817989980363
-0.0054583515,0.01039069855327635
-0.0054580115,0.01042361211103085
-0.0054576715,0.01048943922653996
-0.005457331500000001,0.01108188326612091
-0.0054569915,0.01131227817040389
-0.0054566515,0.01118062393938566
-0.005456311500000001,0.01154267307468513
-0.0054559715,0.01157558663244035
-0.0054556315,0.01114771038163111
-0.005455291500000001,0.01098314259285862
-0.0054549515,0.01101605615061288
-0.0054546115,0.01131227817040389
-0.005454271500000001,0.01174015442121235
-0.0054539315,0.01226677134528605
-0.0054535915,0.01371496788648656
-0.005453251500000001,0.01516316442768444
-0.0054529115,0.015986003371551
-0.0054525715,0.01536064577421441
-0.005452231500000001,0.01447197971484299
-0.0054518915,0.0129908696158863
-0.0054515515,0.01088440191959465
-0.005451211500000001,0.00956785960941476
-0.0054508715,0.00871210710779388
-0.0054505315,0.008514625761266537
-0.005450191500000001,0.008745020665548017
-0.0054498515,0.009567859609412364
-0.0054495115,0.01065400701531275
-0.005449171500000001,0.01160850019019317
-0.0054488315,0.01239842557630427
-0.0054484915,0.01282630182711352
-0.005448151500000001,0.01279338826935896
-0.0054478115,0.0132212645201682
-0.0054474715,0.01348457298220466
-0.005447131500000001,0.01315543740465909
-0.0054467915,0.01226677134528605
-0.0054464515,0.01200346288324959
-0.005446111500000001,0.01088440191959465
-0.0054457715,0.009699513840429455
-0.0054454315,0.009074156243094007
-0.005445091500000001,0.008382971530248308
-0.0054447515,0.00802092239494818
-0.0054444115,0.00802092239494818
-0.005444071500000001,0.00779052749066628
-0.0054437315,0.008382971530250223
-0.0054433915,0.009436205378394135
-0.005443051500000001,0.009929908744712493
-0.0054427115,0.01006156297573108
-0.0054423715,0.01025904432225806
-0.005442031500000001,0.01078566124633098
-0.0054416915,0.0114439324014232
-0.0054413515,0.01203637644100415
-0.005441011500000001,0.01318835096241365
-0.0054406715,0.01322126452016838
-0.0054403315,0.01332000519343187
-0.005439991500000001,0.01269464759609529
-0.0054396515,0.01206928999875679
-0.0054393115,0.01101605615061288
-0.005438971500000001,0.01002864941797616
-0.0054386315,0.009436205378393656
-0.0054382915,0.009172896916357679
-0.005437951500000001,0.008876674896566664
-0.0054376115,0.008317144414740629
-0.0054372715,0.009107069800848565
-0.0054369315,0.009567859609412364
-0.005436591500000001,0.01022613076450231
-0.0054362515,0.01121353749714022
-0.0054359115,0.01111479682387655
-0.005435571500000001,0.008679193550043752
-0.0054352315,0.00130655661301853
-0.0054348915,-0.01366911216530495
-0.005434551500000001,-0.03670860259345302
-0.0054342115,-0.06659411303463278
-0.0054338715,-0.1008242130993722
-0.005433531500000001,-0.1363050283587202
-0.0054331915,-0.1691198454400782
-0.0054328515,-0.1971621966469608
-0.005432511500000001,-0.2184572685141205
-0.0054321715,-0.2339595542165557
-0.0054318315,-0.2429120419257952
-0.005431491500000001,-0.2464337926055264
-0.0054311515,-0.2464008790477783
-0.0054308115,-0.2444260655825048
-0.005430471500000001,-0.2397194268236117
-0.0054301315,-0.233860813543292
-0.0054297915,-0.2266856579527985
-0.005429451500000001,-0.2185560091874378
-0.0054291115,-0.2100313977289927
-0.0054287715,-0.200716860884453
-0.005428431500000001,-0.1922909900993017
-0.0054280915,-0.1841284277761562
-0.0054277515,-0.1765912230503627
-0.005427411500000001,-0.1691198454400782
-0.0054270715,-0.1621092576383575
-0.0054267315,-0.1551974105099005
-0.005426391500000001,-0.1490096616520438
-0.0054260515,-0.1437434924113146
-0.0054257115,-0.1389051994213948
-0.005425371500000001,-0.1343631284512659
-0.0054250315,-0.13070972354051
-0.0054246915,-0.1272537999762815
-0.005424351500000001,-0.12290921035268
-0.0054240115,-0.1184987936135601
-0.0054236715,-0.1134301057193675
-0.005423331500000001,-0.1078348009010928
-0.0054229915,-0.102568631660356
-0.0054226515,-0.09832278271002584
-0.005422311500000001,-0.09450481001049721
-0.0054219715,-0.09075266442647183
-0.0054216315,-0.08752713576653109
-0.005421291500000001,-0.08436743422209361
-0.0054209515,-0.08127355979315938
-0.0054206115,-0.07804803113321865
-0.005420271500000001,-0.07436171266470826
-0.0054199315,-0.07110327044699991
-0.0054195915,-0.06715364351646025
-0.005419251500000001,-0.06402685552977733
-0.0054189115,-0.06122920312063512
-0.0054185715,-0.05856320494252085
-0.005418231500000001,-0.05599594743766539
-0.0054178915,-0.05346160349055928
-0.0054175515,-0.05059812396591803
-0.005417211500000001,-0.04829417492309903
-0.0054168715,-0.04602313943803118
-0.0054165315,-0.04414706664602484
-0.0054161915,-0.04250138875829698
-0.0054158515,-0.04144815491014947
-0.0054155115,-0.04052657529302355
-0.0054151715,-0.03874924317427747
-0.005414831500000001,-0.0371364788443071
-0.0054144915,-0.03489835691699429
-0.0054141515,-0.03246275364315706
-0.005413811500000001,-0.03029045883136024
-0.0054134715,-0.02897391652117401
-0.0054131315,-0.0272953250756916
-0.005412791500000001,-0.02558382007245774
-0.0054124515,-0.02318113035637196
-0.0054121115,-0.02127214400660764
-0.005411771500000001,-0.01995560169642776
-0.0054114315,-0.01913276275256143
-0.0054110915,-0.01817826957767928
-0.005410751500000001,-0.01890236784827821
-0.0054104115,-0.01847449159747029
-0.0054100715,-0.01880362717501586
-0.005409731500000001,-0.01791496111564444
-0.0054093915,-0.01807952890441561
-0.0054090515,-0.01715794928728801
-0.005408711500000001,-0.01630219678567108
-0.0054083715,-0.01567683918833294
-0.0054080315,-0.01478817312895989
-0.005407691500000001,-0.01380076639632498
-0.0054073515,-0.01212217495084077
-0.0054070115,-0.01004862081230367
-0.005406671500000001,-0.007843412442752357
-0.0054063315,-0.006329388786038719
-0.0054059915,-0.004716624456065421
-0.005405651500000001,-0.004914105802592763
-0.0054053115,-0.004848278687083649
-0.0054049715,-0.005506549842174791
-0.005404631500000001,-0.00619773455502049
-0.0054042915,-0.00665852436358429
-0.0054039515,-0.006461043017056948
-0.005403611500000001,-0.005967339650738591
-0.0054032715,-0.005144500706872866
-0.0054029315,-0.00415709397423795
-0.005402591500000001,-0.00313677368384668
-0.0054022515,-0.00214936695120829
-0.0054019115,-0.001227787334082367
-0.005401571500000001,-0.0003720348324638825
-0.0054012315,0.000187495649364187
-0.0054008915,0.0005166312269091594
-0.005400551500000001,0.0008457668044547304
-0.0054002115,0.0008128532467008318
-0.0053998715,0.001174902382000301
-0.005399531500000001,0.001833173537091444
-0.0053991915,0.002623098923201772
-0.0053988515,0.003149715847273728
-0.005398511500000001,0.003906727675628541
-0.0053981715,0.00433460392643898
-0.0053978315,0.004992875081528926
-0.005397491500000001,0.00653981229599311
-0.0053971515,0.007362651239857696
-0.0053968115,0.007724700375157166
-0.005396471500000001,0.007922181721684508
-0.0053961315,0.007955095279437689
-0.0053957915,0.007198083451084253
-0.0053954515,0.006506898738238553
-0.0053951115,0.00578280046763668
-0.0053947715,0.004894134408265255
-0.0053944315,0.004466258157456012
-0.005394091500000001,0.004170036137665537
-0.0053937515,0.004137122579910441
-0.0053934115,0.004071295464401327
-0.005393071500000001,0.004235863253173813
-0.0053927315,0.004729566619492469
-0.0053923915,0.004729566619492469
-0.005392051500000001,0.004927047966019452
-0.0053917115,0.005025788639283483
-0.0053913715,0.004795393735001583
-0.005391031500000001,0.005453664890091529
-0.0053906915,0.006605639411502225
-0.0053903515,0.006836034315784124
-0.005390011500000001,0.007625959701892057
-0.0053896715,0.008350057972493751
-0.0053893315,0.008646279992284765
