Analysis/New Tests_CMB/wrd01_d2s01/cmb03_ch19.csv

#Digilent WaveForms Oscilloscope Acquisition
#Device Name: ADP3450
#Serial Number: SN:210018B9D9B0
#Date Time: 2024-08-06 10:29:25.317.006.630
#Sample rate: 2.94118e+06Hz
#Samples: 32768
#Trigger: Source: Channel 3 Type: Edge Condition: Rising Level: 60 mV Hyst.: Auto HoldOff: 0 s
#Channel 3: Range: 200 mV/div Offset: 0 V Attenuation: 1 X Coupling: DC Bandwidth: 0 Hz Sample Mode: Average

Time (s),Channel 3 (V)
-0.005570421915708812,0.02898685868460106
-0.005570081915708812,0.02892103156909123
-0.005569741915708812,0.02852606887603726
-0.005569401915708812,0.02763740281666422
-0.005569061915708812,0.02651834185300592
-0.005568721915708812,0.02467518261875408
-0.005568381915708812,0.02253580136470787
-0.005568041915708812,0.02098886415024183
-0.005567701915708812,0.01996854385985241
-0.005567361915708812,0.0192115320314976
-0.005567021915708812,0.01901405068497127
-0.005566681915708812,0.01957358116679772
-0.005566341915708812,0.02039642011066165
-0.005566001915708812,0.02089012347698055
-0.005565661915708812,0.02118634549677102
-0.005565321915708812,0.020593901457189
-0.005564981915708812,0.01914570491598639
-0.005564641915708812,0.01799373039457898
-0.005564301915708812,0.01664427452664214
-0.005563961915708812,0.01595308981379584
-0.005563621915708812,0.01562395423625087
-0.005563281915708812,0.01595308981379644
-0.005562941915708813,0.01611765760256893
-0.005562601915708812,0.01664427452664214
-0.005562261915708812,0.01730254568173328
-0.005561921915708813,0.01809247106784122
-0.005561581915708812,0.01865200154967013
-0.005561241915708812,0.01871782866517924
-0.005560901915708813,0.01786207616356231
-0.005560561915708812,0.01720380500846961
-0.005560221915708812,0.01638096606460569
-0.005559881915708813,0.01555812712074325
-0.005559541915708812,0.01489985596565062
-0.005559201915708812,0.01447197971484137
-0.005558861915708813,0.01430741192606889
-0.005558521915708812,0.01417575769505036
-0.005558181915708812,0.01457072038810504
-0.005557841915708813,0.01466946106136854
-0.005557501915708812,0.0141428441372958
-0.005557161915708812,0.01312252384690453
-0.005556821915708813,0.01210220355651512
-0.005556481915708812,0.01144393240142212
-0.005556141915708812,0.01095022903510376
-0.005555801915708813,0.01088440191959477
-0.005555461915708812,0.01108188326612199
-0.005555121915708812,0.01101605615061288
-0.005554781915708813,0.01131227817040335
-0.005554441915708812,0.01193763576774048
-0.005554101915708812,0.01266173403834073
-0.005553761915708813,0.01325417807792276
-0.005553421915708812,0.01387953567525935
-0.005553081915708812,0.01397827634852302
-0.005552741915708813,0.01430741192606859
-0.005552401915708812,0.01450489327259593
-0.005552061915708812,0.01470237461912327
-0.005551721915708813,0.01404410346403213
-0.005551381915708812,0.01332000519343032
-0.005551041915708812,0.01246425269181339
-0.005550701915708812,0.01203637644100415
-0.005550361915708812,0.01213511711426872
-0.005550021915708812,0.01262882048058617
-0.005549681915708812,0.01315543740465909
-0.005549341915708812,0.01391244923301384
-0.005549001915708812,0.01387953567525935
-0.005548661915708812,0.01358331365546833
-0.005548321915708812,0.01308961028914962
-0.005547981915708812,0.01289212894262263
-0.005547641915708812,0.0132212645201682
-0.005547301915708812,0.0139124492330154
-0.005546961915708812,0.01473528817687783
-0.005546621915708812,0.0146036339458596
-0.005546281915708812,0.01427449836831403
-0.005545941915708812,0.01427449836831403
-0.005545601915708812,0.01450489327259593
-0.005545261915708812,0.01424158481055852
-0.005544921915708812,0.01371496788648656
-0.005544581915708812,0.01315543740465909
-0.005544241915708812,0.0126617340383393
-0.005543901915708812,0.01187180865223136
-0.005543561915708812,0.01114771038163111
-0.005543221915708812,0.01085148836183985
-0.005542881915708812,0.01071983413082186
-0.005542541915708812,0.01045652566878541
-0.005542201915708813,0.01019321720674943
-0.005541861915708812,0.01012739009123984
-0.005541521915708812,0.00973242739818515
-0.005541181915708813,0.00983116807144864
-0.005540841915708812,0.00973242739818515
-0.005540501915708812,0.01006156297573072
-0.005540161915708813,0.01048943922653918
-0.005539821915708812,0.01121353749714022
-0.005539481915708812,0.01266173403834073
-0.005539141915708813,0.01338583230893967
-0.005538801915708812,0.0141428441372958
-0.005538461915708812,0.01466946106136872
-0.005538121915708813,0.01466946106136872
-0.005537781915708812,0.01407701702178669
-0.005537441915708812,0.01341874586669555
-0.005537101915708813,0.01308961028915057
-0.005536761915708812,0.01272756115384985
-0.005536421915708812,0.01180598153672225
-0.005536081915708813,0.01157558663244077
-0.005535741915708812,0.01150975951693123
-0.005535401915708812,0.01147684595917668
-0.005535061915708813,0.01154267307468567
-0.005534721915708812,0.01118062393938566
-0.005534381915708812,0.01101605615061288
-0.005534041915708813,0.0107198341308224
-0.005533701915708812,0.01058817989980363
-0.005533361915708812,0.009995735860221606
-0.005533021915708813,0.01006156297573072
-0.005532681915708812,0.00973242739818515
-0.005532341915708812,0.009469118936148692
-0.005532001915708813,0.009008329127584893
-0.005531661915708812,0.00881084778105755
-0.005531321915708812,0.008745020665548437
-0.005530981915708813,0.008613366434530208
-0.005530641915708812,0.008382971530248308
-0.005530301915708812,0.008218403741475522
-0.005529961915708813,0.008448798645757422
-0.005529621915708812,0.008843761338812586
-0.005529281915708812,0.009107069800848565
-0.005528941915708812,0.009798254513694264
-0.005528601915708812,0.0102590443222595
-0.005528261915708812,0.01104896970836743
-0.005527921915708812,0.01233259846079516
-0.005527581915708812,0.01269464759609685
-0.005527241915708812,0.01355040009771377
-0.005526901915708812,0.01371496788648656
-0.005526561915708812,0.01322126452016689
-0.005526221915708812,0.01249716624956795
-0.005525881915708812,0.01197054932549503
-0.005525541915708812,0.01137810528591157
-0.005525201915708812,0.01058817989980363
-0.005524861915708812,0.01019321720674895
-0.005524521915708812,0.01025904432225788
-0.005524181915708812,0.01016030364899439
-0.005523841915708812,0.00983116807144882
-0.005523501915708812,0.009765340955939946
-0.005523161915708812,0.009896995186957936
-0.005522821915708812,0.01065400701531275
-0.005522481915708812,0.01111479682387906
-0.005522141915708812,0.01249716624956795
-0.005521801915708812,0.01325417807792276
-0.005521461915708812,0.01361622721322289
-0.005521121915708812,0.01361622721322289
-0.005520781915708812,0.01332000519343187
-0.005520441915708813,0.01312252384690489
-0.005520101915708812,0.01292504250037719
-0.005519761915708812,0.01266173403834073
-0.005519421915708813,0.01282630182711322
-0.005519081915708812,0.0134516594244501
-0.005518741915708812,0.0141428441372958
-0.005518401915708813,0.01381370855975083
-0.005518061915708812,0.01341874586669555
-0.005517721915708812,0.0139124492330139
-0.005517381915708813,0.01407701702178639
-0.005517041915708812,0.0148340288501415
-0.005516701915708812,0.01532773221645986
-0.005516361915708813,0.01634805250684927
-0.005516021915708812,0.01740128635499695
-0.005515681915708812,0.01832286597212456
-0.005515341915708813,0.01828995241437006
-0.005515001915708812,0.01809247106784265
-0.005514661915708812,0.01687466943092404
-0.005514321915708813,0.01532773221646267
-0.005513981915708812,0.01351748653995922
-0.005513641915708812,0.01213511711426782
-0.005513301915708813,0.01081857480408793
-0.005512961915708812,0.01025904432225806
-0.005512621915708812,0.01022613076450351
-0.005512281915708813,0.01101605615061288
-0.005511941915708812,0.01210220355651326
-0.005511601915708812,0.01292504250037719
-0.005511261915708813,0.01305669673139542
-0.005510921915708812,0.01285921538486808
-0.005510581915708812,0.01292504250037719
-0.005510241915708813,0.01282630182711352
-0.005509901915708812,0.0118388950944768
-0.005509561915708812,0.01167432730570402
-0.005509221915708813,0.01118062393938566
-0.005508881915708812,0.01127936461264921
-0.005508541915708812,0.01121353749714022
-0.005508201915708812,0.01118062393938566
-0.005507861915708812,0.009929908744709977
-0.005507521915708812,0.008547539319021094
-0.005507181915708812,0.007296824124347924
-0.005506841915708812,0.006539812295992691
-0.005506501915708812,0.00630941739171121
-0.005506161915708812,0.007099342777820581
-0.005505821915708812,0.007955095279441221
-0.005505481915708812,0.009139983358603122
-0.005505141915708812,0.01029195788001262
-0.005504801915708812,0.01114771038163338
-0.005504461915708812,0.01239842557630427
-0.005504121915708812,0.01292504250037719
-0.005503781915708812,0.01381370855975125
-0.005503441915708812,0.0143732390415777
-0.005503101915708812,0.01447197971484137
-0.005502761915708812,0.01434032548382248
-0.005502421915708812,0.01397827634852302
-0.005502081915708812,0.01312252384690453
-0.005501741915708812,0.01137810528590989
-0.005501401915708812,0.009666600282676035
-0.005501061915708812,0.008876674896566664
-0.005500721915708812,0.008382971530249266
-0.005500381915708812,0.008909588454321223
-0.005500041915708812,0.008745020665548437
-0.005499701915708813,0.009403291820638381
-0.005499361915708812,0.00983116807144882
-0.005499021915708812,0.01048943922653996
-0.005498681915708813,0.01157558663243837
-0.005498341915708812,0.0120692899987587
-0.005498001915708812,0.01295795605813175
-0.005497661915708813,0.01318835096241323
-0.005497321915708812,0.01312252384690453
-0.005496981915708812,0.01262882048058617
-0.005496641915708813,0.01243133913405919
-0.005496301915708812,0.01236551201854972
-0.005495961915708812,0.01177306797896769
-0.005495621915708813,0.01203637644100367
-0.005495281915708812,0.01154267307468579
-0.005494941915708812,0.011378105285913
-0.005494601915708813,0.01193763576773946
-0.005494261915708812,0.01223385778753149
-0.005493921915708812,0.01259590692283162
-0.005493581915708813,0.01253007980732262
-0.005493241915708812,0.01223385778753149
-0.005492901915708812,0.01236551201854972
-0.005492561915708813,0.01197054932549575
-0.005492221915708812,0.01108188326612199
-0.005491881915708812,0.01078566124633098
-0.005491541915708813,0.01002864941797754
-0.005491201915708812,0.01032487143776718
-0.005490861915708812,0.01091731547734921
-0.005490521915708813,0.01131227817040389
-0.005490181915708812,0.01259590692283162
-0.005489841915708812,0.01371496788648656
-0.005489501915708813,0.01417575769505036
-0.005489161915708812,0.01453780683035049
-0.005488821915708812,0.01434032548382314
-0.005488481915708813,0.01355040009771377
-0.005488141915708812,0.01236551201854768
-0.005487801915708812,0.01124645105489478
-0.005487461915708812,0.01029195788001262
-0.005487121915708812,0.009732427398185211
-0.005486781915708812,0.009765340955939707
-0.005486441915708812,0.01048943922653996
-0.005486101915708812,0.01124645105489789
-0.005485761915708812,0.01295795605813175
-0.005485421915708812,0.01325417807792276
-0.005485081915708812,0.01371496788648674
-0.005484741915708812,0.01381370855975023
-0.005484401915708812,0.01332000519343187
-0.005484061915708812,0.012168030672021
-0.005483721915708812,0.01141101884366756
-0.005483381915708812,0.01032487143776718
-0.005483041915708812,0.009765340955939047
-0.005482701915708812,0.009403291820639578
-0.005482361915708812,0.009205810474112236
-0.005482021915708812,0.009436205378393596
-0.005481681915708812,0.009139983358603122
-0.005481341915708812,0.009107069800848565
-0.005481001915708812,0.009765340955940904
-0.005480661915708812,0.01042361211103085
-0.005480321915708812,0.01078566124633098
-0.005479981915708812,0.01118062393938692
-0.005479641915708812,0.01187180865223136
-0.005479301915708812,0.01147684595917668
-0.005478961915708813,0.009304551147379859
-0.005478621915708812,0.004137122579910441
-0.005478281915708812,-0.007645931096221003
-0.005477941915708813,-0.02722949796014686
-0.005477601915708812,-0.05402113397239196
-0.005477261915708812,-0.08581563076329413
-0.005476921915708813,-0.1196836816926718
-0.005476581915708812,-0.1520047954077085
-0.005476241915708812,-0.1805079364231549
-0.005475901915708813,-0.2047323149304649
-0.005475561915708812,-0.2220119327516515
-0.005475221915708812,-0.2338278999855375
-0.005474881915708813,-0.2402789573054189
-0.005474541915708812,-0.2424183385594769
-0.005474201915708812,-0.2410359691337855
-0.005473861915708813,-0.2375471320118088
-0.005473521915708812,-0.2328075796951462
-0.005473181915708812,-0.2264881766062712
-0.005472841915708813,-0.2185230956296829
-0.005472501915708812,-0.2103934468642928
-0.005472161915708812,-0.2026258472342173
-0.005471821915708813,-0.1938379273137666
-0.005471481915708812,-0.1865640310499934
-0.005471141915708812,-0.178796431419918
-0.005470801915708813,-0.1716212758294376
-0.005470461915708812,-0.164972737163004
-0.005470121915708812,-0.1584229391698471
-0.005469781915708813,-0.1532225970446271
-0.005469441915708812,-0.1486805260744982
-0.005469101915708812,-0.1440726279888602
-0.005468761915708813,-0.139629297691995
-0.005468421915708812,-0.1348568318175842
-0.005468081915708812,-0.1297223168078733
-0.005467741915708813,-0.124916937375708
-0.005467401915708812,-0.1194862003462061
-0.005467061915708812,-0.113989636201195
-0.005466721915708813,-0.1085918127294477
-0.005466381915708812,-0.1033914706042191
-0.005466041915708812,-0.09871774540308051
-0.005465701915708812,-0.09404402020193342
-0.005465361915708812,-0.08999565259811595
-0.005465021915708812,-0.08617767989859426
-0.005464681915708812,-0.08229388008355651
-0.005464341915708812,-0.07910126498135857
-0.005464001915708812,-0.07584282276366333
-0.005463661915708812,-0.07307808391228054
-0.005463321915708812,-0.07008295015660986
-0.005462981915708812,-0.06679159438116011
-0.005462641915708812,-0.06366480639447719
-0.005462301915708812,-0.06007722859922562
-0.005461961915708812,-0.05741123042111135
-0.005461621915708812,-0.05464649156972855
-0.005461281915708812,-0.05201340694935943
-0.005460941915708812,-0.04951197656001764
-0.005460601915708812,-0.0479321257877989
-0.005460261915708812,-0.04625353434231295
-0.005459921915708812,-0.04431163443479762
-0.005459581915708812,-0.0425672158738061
-0.005459241915708812,-0.04105319221709282
-0.005458901915708812,-0.03904546519406848
-0.005458561915708812,-0.03746561442184974
-0.005458221915708812,-0.03680734326675788
-0.005457881915708812,-0.03641238057370391
-0.005457541915708812,-0.03532623316780353
-0.005457201915708813,-0.03368055528007866
-0.005456861915708812,-0.03206779095010238
-0.005456521915708812,-0.03022463171584718
-0.005456181915708813,-0.02821690469282285
-0.005455841915708812,-0.02620917766979121
-0.005455501915708812,-0.02436601843553601
-0.005455161915708813,-0.02255577275903867
-0.005454821915708812,-0.0210746626600803
-0.005454481915708812,-0.01998851525417992
-0.005454141915708813,-0.01952772544561696
-0.005453801915708812,-0.01840866448196118
-0.005453461915708812,-0.01761873909585181
-0.005453121915708813,-0.01640093745893541
-0.005452781915708812,-0.01531479005303281
-0.005452441915708812,-0.01406407485835964
-0.005452101915708813,-0.01258296475940726
-0.005451761915708812,-0.01054232417862203
-0.005451421915708812,-0.008732078502121389
-0.005451081915708813,-0.007185141287660017
-0.005450741915708812,-0.005638204073193019
-0.005450401915708812,-0.004420402436274407
-0.005450061915708813,-0.003103860126094517
-0.005449721915708812,-0.001688577142646167
-0.005449381915708812,-0.001030305987555025
-0.005449041915708813,-0.0009644788720460302
-0.005448701915708812,-0.000832824641027682
-0.005448361915708812,-0.0005695161789912252
-0.005448021915708813,0.0005166312269091594
-0.005447681915708812,0.001405297286282201
-0.005447341915708812,0.002063568441373343
-0.005447001915708813,0.002853493827482714
-0.005446661915708812,0.003083888731764614
-0.005446321915708812,0.002853493827482714
-0.005445981915708813,0.002261049787900686
-0.005445641915708812,0.001471124401789699
-0.005445301915708812,0.0005824583424182735
-0.005444961915708812,0.0001545820916090312
-0.005444621915708812,-0.0002074670436905582
-0.005444281915708812,8.875497609991696e-05
-0.005443941915708812,0.0004837176691546022
-0.005443601915708812,0.001141988824247361
-0.005443261915708812,0.002030654883618786
-0.005442921915708812,0.002886407385237271
-0.005442581915708812,0.003314283636046873
-0.005442241915708812,0.003511764982573856
-0.005441901915708812,0.003742159886855756
-0.005441561915708812,0.004663739503984852
-0.005441221915708812,0.005486578447847282
-0.005440881915708812,0.005684059794374625
-0.005440541915708812,0.006243590276203114
-0.005440201915708812,0.006803120758029567
-0.005439861915708812,0.007362651239857037
-0.005439521915708812,0.007988008837193684
-0.005439181915708812,0.00802092239494818
-0.005438841915708812,0.008284230856984636
-0.005438501915708812,0.007593046144136423
-0.005438161915708812,0.006210676718447538
-0.005437821915708812,0.005354924216829054
-0.005437481915708812,0.004729566619492648
-0.005437141915708812,0.00482830729275614
-0.005436801915708812,0.004959961523774369
-0.005436461915708813,0.005453664890091828
-0.005436121915708812,0.006342330949465767
-0.005435781915708812,0.007724700375157166
-0.005435441915708813,0.008415885088001607
-0.005435101915708812,0.00904124268533945
-0.005434761915708812,0.008679193550039321
-0.005434421915708813,0.008119663068212869
-0.005434081915708812,0.007428478355366152
-0.005433741915708812,0.00653981229599311
-0.005433401915708813,0.005881541140903165
-0.005433061915708812,0.00630941739171121
-0.005432721915708812,0.006868947873538681
-0.005432381915708813,0.007823441048419101
-0.005432041915708812,0.009304551147375908
-0.005431701915708812,0.01068692057306731
-0.005431361915708813,0.01167432730570222
-0.005431021915708812,0.01239842557630427
-0.005430681915708812,0.0129908696158863
-0.005430341915708813,0.01295795605813181
-0.005430001915708812,0.01226677134528605
-0.005429661915708812,0.01210220355651326
-0.005429321915708813,0.01147684595917781
-0.005428981915708812,0.01039069855327629
-0.005428641915708812,0.009929908744712493
-0.005428301915708813,0.008975415569832073
-0.005427961915708812,0.00871210710779388
-0.005427621915708812,0.008942502012075779
-0.005427281915708813,0.009139983358603122
-0.005426941915708812,0.009666600282676035
-0.005426601915708812,0.01062109345755819
-0.005426261915708813,0.01118062393938566
-0.005425921915708812,0.01147684595917668
-0.005425581915708812,0.01157558663244035
-0.005425241915708813,0.01134519172815845
-0.005424901915708812,0.01157558663244035
-0.005424561915708812,0.01111479682387655
-0.005424221915708812,0.01019321720674895
-0.005423881915708812,0.009534946051657988
-0.005423541915708812,0.009633686724921478
-0.005423201915708812,0.00983116807144882
-0.005422861915708812,0.01012739009123954
-0.005422521915708812,0.009962822302467049
-0.005422181915708812,0.01009447653348528
-0.005421841915708812,0.00973242739818485
-0.005421501915708812,0.009567859609412364
-0.005421161915708812,0.009600773167166921
-0.005420821915708812,0.009732427398187304
-0.005420481915708812,0.01091731547734921
-0.005420141915708812,0.01256299336507706
-0.005419801915708812,0.01387953567526066
-0.005419461915708812,0.0146036339458596
-0.005419121915708812,0.01532773221645986
-0.005418781915708812,0.01562395423625021
-0.005418441915708812,0.01526190510095074
-0.005418101915708812,0.01555812712074176
-0.005417761915708812,0.01562395423624985
-0.005417421915708812,0.0150644237544234
-0.005417081915708812,0.01466946106136872
-0.005416741915708812,0.01384662211750323
-0.005416401915708812,0.0129908696158863
-0.005416061915708812,0.0120692899987587
-0.005415721915708812,0.01187180865223238
-0.005415381915708812,0.01243133913405883
-0.005415041915708812,0.01272756115384985
-0.005414701915708813,0.01315543740465831
-0.005414361915708812,0.01312252384690453
-0.005414021915708812,0.01332000519343187
-0.005413681915708813,0.01308961028915039
-0.005413341915708812,0.0132212645201682
