Analysis/New Tests_CMB/wrd01_d2s01/cmb08_ch15.csv

#Digilent WaveForms Oscilloscope Acquisition
#Device Name: ADP3450
#Serial Number: SN:210018B9D9B0
#Date Time: 2024-08-14 17:29:41.155.641.420
#Sample rate: 5.88235e+06Hz
#Samples: 32768
#Trigger: Source: Channel 3 Type: Edge Condition: Rising Level: 60 mV Hyst.: Auto HoldOff: 0 s
#Channel 3: Range: 100 mV/div Offset: 0 V Attenuation: 1 X Coupling: DC Bandwidth: 0 Hz Sample Mode: Average

Time (s),Channel 3 (V)
-0.003798533049844382,0.2071808603677732
-0.003798363049844382,0.2195234445257527
-0.003798193049844382,0.2308457083932998
-0.003798023049844382,0.2405881214886487
-0.003797853049844382,0.2487177702540353
-0.003797683049844382,0.2547738648808628
-0.003797513049844382,0.2597108985440464
-0.003797343049844382,0.2632984763392963
-0.003797173049844382,0.2650428949002846
-0.003797003049844382,0.2660303016329214
-0.003796833049844382,0.2653391169200746
-0.003796663049844382,0.2647795864382482
-0.003796493049844382,0.2628376865307293
-0.003796323049844382,0.2610274408542237
-0.003796153049844382,0.258328529118355
-0.003795983049844382,0.2554650495937085
-0.003795813049844382,0.2525028293957925
-0.003795643049844382,0.2492773007358518
-0.003795473049844382,0.2460188585181506
-0.003795303049844382,0.2432541196667612
-0.003795133049844382,0.2396336283137665
-0.003794963049844382,0.2362435318650472
-0.003794793049844382,0.2324913862810345
-0.003794623049844382,0.2289367220435355
-0.003794453049844382,0.2257111933835889
-0.003794283049844382,0.2223210969348757
-0.003794113049844382,0.21856895135085
-0.003793943049844382,0.2140597939384757
-0.003793773049844382,0.209912685661409
-0.003793603049844382,0.2063251078661547
-0.003793433049844382,0.2026387893976443
-0.003793263049844382,0.1988866438136317
-0.003793093049844382,0.1957269422691874
-0.003792923049844382,0.1924026729359771
-0.003792753049844382,0.1883872188899284
-0.003792583049844382,0.1855237393652747
-0.003792413049844382,0.1819690751277825
-0.003792243049844382,0.1793030769496682
-0.003792073049844382,0.1765383380982806
-0.003791903049844382,0.1736419450158795
-0.003791733049844382,0.1708442926067473
-0.003791563049844382,0.1679149859665866
-0.003791393049844382,0.1647552844221491
-0.003791223049844382,0.1618918048975079
-0.003791053049844382,0.1588308440263288
-0.003790883049844382,0.1563952407524916
-0.003790713049844382,0.1535975883433593
-0.003790543049844382,0.1507341088187078
-0.003790373049844382,0.1478377157363068
-0.003790203049844382,0.1458629022710334
-0.003790033049844382,0.1435260396704598
-0.003789863049844382,0.1409587821656043
-0.003789693049844382,0.1376015992746395
-0.003789523049844382,0.1364825383109846
-0.003789353049844382,0.1329278740734924
-0.003789183049844382,0.1303935301263915
-0.003789013049844382,0.1279908404103043
-0.003788843049844382,0.125522323578717
-0.003788673049844382,0.1230208931893707
-0.003788503049844382,0.1206511170310383
-0.003788333049844382,0.1182813408727145
-0.003788163049844382,0.1163394409651956
-0.003787993049844382,0.1146608495197097
-0.003787823049844382,0.1127189496121943
-0.003787653049844382,0.1114682344175212
-0.003787483049844382,0.1094275938367356
-0.003787313049844382,0.1077819159490108
-0.003787143049844382,0.1064653736388285
-0.003786973049844382,0.1049513499821156
-0.003786803049844382,0.1031411043056182
-0.003786633049844382,0.1007384145895356
-0.003786463049844382,0.09856611977773196
-0.003786293049844382,0.09701918256327061
-0.003786123049844382,0.09504436909799718
-0.003785953049844382,0.09333286409475747
-0.003785783049844382,0.09181884043805058
-0.003785613049844382,0.08961363206849524
-0.003785443049844382,0.08754007792995702
-0.003785273049844382,0.08691472033262157
-0.003785103049844382,0.08510447465612092
-0.003784933049844382,0.08424872215449974
-0.003784763049844382,0.08276761205554736
-0.003784593049844382,0.08191185955392888
-0.003784423049844382,0.0816814646496474
-0.003784253049844382,0.08066114435925573
-0.003784083049844382,0.07983830541539177
-0.003783913049844382,0.07868633089398437
-0.003783743049844382,0.07799514618113659
-0.003783573049844382,0.07671151742870885
-0.003783403049844382,0.07552662934954694
-0.003783233049844382,0.07374929723079873
-0.003783063049844382,0.07239984136286187
-0.003782893049844382,0.07095164482166399
-0.003782723049844382,0.06933888049168807
-0.003782553049844382,0.06779194327722388
-0.003782383049844382,0.06660705519806197
-0.003782213049844382,0.06522468577236842
-0.003782043049844382,0.06367774855790426
-0.003781873049844382,0.06288782317179631
-0.003781703049844382,0.06150545374610348
-0.003781533049844382,0.06035347922469398
-0.003781363049844382,0.05962938095409504
-0.003781193049844382,0.05860906066370245
-0.003781023049844382,0.0576545674888203
-0.003780853049844382,0.05686464210271237
-0.003780683049844382,0.05587723537007421
-0.003780513049844382,0.05469234729091016
-0.003780343049844382,0.05413281680908371
-0.003780173049844382,0.05324415074970965
-0.003780003049844382,0.05169721353524546
-0.003779833049844382,0.0512035101689271
-0.003779663049844382,0.0502819305517995
-0.003779493049844382,0.04945909160793558
-0.003779323049844382,0.04883373401059899
-0.003779153049844382,0.04807672218224418
-0.003778983049844382,0.04774758660469861
-0.003778813049844382,0.04682600698757101
-0.003778643049844382,0.04616773583247986
-0.003778473049844382,0.04610190871697075
-0.003778303049844382,0.04458788506026112
-0.003778133049844382,0.04412709525169625
-0.003777963049844382,0.0435346512121153
-0.003777793049844382,0.04271181226825137
-0.003777623049844382,0.04169149197785921
-0.003777453049844382,0.04119778861154175
-0.003777283049844382,0.03948628360830477
-0.003777113049844382,0.03895966668423061
-0.003776943049844382,0.03826848197138616
-0.003776773049844382,0.03767603793180414
-0.003776603049844382,0.03685319898793931
-0.003776433049844382,0.03635949562162185
-0.003776263049844382,0.03635949562162185
-0.003776093049844382,0.03583287869754959
-0.003775923049844382,0.03619492783284906
-0.003775753049844382,0.03583287869754893
-0.003775583049844382,0.03570122446653226
-0.003775413049844382,0.03655697696814919
-0.003775243049844382,0.03451633638736665
-0.003775073049844382,0.03556957023551068
-0.003774903049844382,0.03458216350287577
-0.003774733049844382,0.0335618432124845
-0.003774563049844382,0.03283774494188298
-0.003774393049844382,0.03214656022903854
-0.003774223049844382,0.03175159753598385
-0.003774053049844382,0.03112623993864715
-0.003773883049844382,0.03106041282313815
-0.003773713049844382,0.03027048743702878
-0.003773543049844382,0.0301059196482563
-0.003773373049844382,0.02948056205091941
-0.003773203049844382,0.0289539451268465
-0.003773033049844382,0.02842732820277455
-0.003772863049844382,0.02790071127870067
-0.003772693049844382,0.02724244012360953
-0.003772523049844382,0.02661708252627408
-0.003772353049844382,0.0266499960840275
-0.003772183049844382,0.02602463848669092
-0.003772013049844382,0.02688039098830785
-0.003771843049844382,0.02586007069791813
-0.003771673049844382,0.02454352838773585
-0.003771503049844382,0.02470809617650833
-0.003771333049844382,0.025498021562618
-0.003771163049844382,0.02553093512037256
-0.003770993049844382,0.02500431819630061
-0.003770823049844382,0.0259588113711818
-0.003770653049844382,0.02454352838773585
-0.003770483049844382,0.02418147925243638
-0.003770313049844382,0.02345738098183546
-0.003770143049844382,0.02358903521285369
-0.003769973049844382,0.02302950473102724
-0.003769803049844382,0.02286493694225343
-0.003769633049844382,0.02260162848021698
-0.003769463049844382,0.02204209799838951
-0.003769293049844382,0.02158130818982571
-0.003769123049844382,0.02128508617003469
-0.003768953049844382,0.02112051838126191
-0.003768783049844382,0.02151548107431659
-0.003768613049844382,0.0217458759785985
-0.003768443049844382,0.02217375222940774
-0.003768273049844382,0.02191044376737128
-0.003768103049844382,0.02217375222940774
-0.003767933049844382,0.02207501155614406
-0.003767763049844382,0.02168004886308926
-0.003767593049844382,0.02161422174758026
-0.003767423049844382,0.02102177770799824
-0.003767253049844382,0.0203964201106598
-0.003767083049844382,0.01937609982027038
-0.003766913049844382,0.01828995241437
-0.003766743049844382,0.01746711347050403
-0.003766573049844382,0.01634805250685113
-0.003766403049844382,0.01710506433520594
-0.003766233049844382,0.01542647288972383
-0.003766063049844382,0.01559104067849632
-0.003765893049844382,0.01519607798544163
-0.003765723049844382,0.01575560846726922
-0.003765553049844382,0.01582143558277821
-0.003765383049844382,0.0152948186587053
-0.003765213049844382,0.01536064577421423
-0.003765043049844382,0.01526190510095074
-0.003764873049844382,0.01549230000523264
-0.003764703049844382,0.01578852202502348
-0.003764533049844382,0.01568978135175999
-0.003764363049844382,0.01555812712074176
-0.003764193049844382,0.01532773221646016
-0.003764023049844382,0.01549230000523264
-0.003763853049844382,0.01470237461912327
-0.003763683049844382,0.01509733731217814
-0.003763513049844382,0.01519607798544163
-0.003763343049844382,0.01522899154319619
-0.003763173049844382,0.01519607798544169
-0.003763003049844382,0.01549230000523264
-0.003762833049844382,0.01568978135175999
-0.003762663049844382,0.01565686779400549
-0.003762493049844382,0.01513025086993251
-0.003762323049844382,0.01486694240789606
-0.003762153049844382,0.01420867125280611
-0.003761983049844382,0.01401118990627757
-0.003761813049844382,0.01387953567525935
-0.003761643049844382,0.01351748653995988
-0.003761473049844382,0.01374788144424112
-0.003761303049844382,0.01272756115384985
-0.003761133049844382,0.01315543740465831
-0.003760963049844382,0.01246425269181339
-0.003760793049844382,0.01262882048058617
-0.003760623049844382,0.01272756115384967
-0.003760453049844382,0.01282630182711352
-0.003760283049844382,0.01305669673139542
-0.003760113049844382,0.01318835096241341
-0.003759943049844382,0.01417575769505036
-0.003759773049844382,0.0134516594244501
-0.003759603049844382,0.01364914077097709
-0.003759433049844382,0.01387953567525935
-0.003759263049844382,0.01374788144424112
-0.003759093049844382,0.01378079500199561
-0.003758923049844382,0.01361622721322289
-0.003758753049844382,0.01332000519343187
-0.003758583049844382,0.01355040009771377
-0.003758413049844382,0.013682054328732
-0.003758243049844382,0.01325417807792276
-0.003758073049844382,0.01308961028914997
-0.003757903049844382,0.01401118990627757
-0.003757733049844382,0.0139124492330139
-0.003757563049844382,0.01384662211750479
-0.003757393049844382,0.01384662211750383
-0.003757223049844382,0.01332000519343187
-0.003757053049844382,0.01305669673139542
-0.003756883049844382,0.01249716624956681
-0.003756713049844382,0.01187180865223136
-0.003756543049844382,0.01157558663244035
-0.003756373049844382,0.01078566124633002
-0.003756203049844382,0.01025904432225806
-0.003756033049844382,0.01002864941797616
-0.003755863049844382,0.0100944765334851
-0.003755693049844382,0.009995735860221606
-0.003755523049844382,0.009798254513694264
-0.003755353049844382,0.009765340955939467
-0.003755183049844382,0.009633686724921478
-0.003755013049844382,0.009896995186957936
-0.003754843049844382,0.01002864941797622
-0.003754673049844382,0.01006156297573072
-0.003754503049844382,0.01045652566878541
-0.003754333049844382,0.01032487143776676
-0.003754163049844382,0.01009447653348528
-0.003753993049844382,0.01009447653348528
-0.003753823049844382,0.0100944765334851
-0.003753653049844382,0.009995735860221606
-0.003753483049844382,0.01006156297573072
-0.003753313049844382,0.009995735860220649
-0.003753143049844382,0.009469118936148692
-0.003752973049844382,0.00950203249390325
-0.003752803049844382,0.00950203249390325
-0.003752633049844382,0.009600773167166921
-0.003752463049844382,0.00973242739818515
-0.003752293049844382,0.00973242739818515
-0.003752123049844382,0.009896995186957936
-0.003751953049844382,0.009896995186957936
-0.003751783049844382,0.01019321720674841
-0.003751613049844382,0.01078566124633098
-0.003751443049844382,0.01058817989980363
-0.003751273049844382,0.01025904432225866
-0.003751103049844382,0.01045652566878541
-0.003750933049844382,0.009962822302467049
-0.003750763049844382,0.009337464705131603
-0.003750593049844382,0.008679193550039321
-0.003750423049844382,0.008185490183720966
-0.003750253049844382,0.007263910566595043
-0.003750083049844382,0.007033515662311467
-0.003749913049844382,0.007099342777820581
-0.003749743049844382,0.007165169893329575
-0.003749573049844382,0.00677020720027501
-0.003749403049844382,0.006901861431293239
-0.003749233049844382,0.00663855296925726
-0.003749063049844382,0.006671466527011338
-0.003748893049844382,0.00653981229599311
-0.003748723049844382,0.007066429220065066
-0.003748553049844382,0.007395564797611595
-0.003748383049844382,0.00811966306821185
-0.003748213049844382,0.008876674896566664
-0.003748043049844382,0.009370378262885021
-0.003747873049844382,0.009896995186957936
-0.003747703049844382,0.01062109345755819
-0.003747533049844382,0.01131227817040389
-0.003747363049844382,0.01187180865223136
-0.003747193049844382,0.01216803067202238
-0.003747023049844382,0.01279338826935896
-0.003746853049844382,0.01259590692283162
-0.003746683049844382,0.0127604747116044
-0.003746513049844382,0.01236551201854846
-0.003746343049844382,0.01167432730570402
-0.003746173049844382,0.01078566124633098
-0.003746003049844382,0.01009447653348384
-0.003745833049844382,0.009304551147375908
-0.003745663049844382,0.008547539319021094
-0.003745493049844382,0.008086749510455677
-0.003745323049844382,0.007198083451084253
-0.003745153049844382,0.006210676718447538
-0.003744983049844382,0.005848627583146513
-0.003744813049844382,0.005354924216829054
-0.003744643049844382,0.005157442870301712
-0.003744473049844382,0.005354924216829952
-0.003744303049844382,0.005848627583147411
-0.003744133049844382,0.006276503833956653
-0.003743963049844382,0.006671466527012356
-0.003743793049844382,0.007230997008838809
-0.003743623049844382,0.007691786817402609
-0.003743453049844382,0.008777934223304191
-0.003743283049844382,0.009436205378394135
-0.003743113049844382,0.00973242739818515
-0.003742943049844382,0.01012739009124025
-0.003742773049844382,0.01035778499552173
-0.003742603049844382,0.009995735860221606
-0.003742433049844382,0.008580452876778824
-0.003742263049844382,0.01032487143776718
-0.003742093049844382,0.009469118936148692
-0.003741923049844382,0.009205810474112714
-0.003741753049844382,0.009403291820639578
-0.003741583049844382,0.00871210710779388
-0.003741413049844382,0.00894250201207536
-0.003741243049844382,0.009370378262885021
-0.003741073049844382,0.008975415569830336
-0.003740903049844382,0.009699513840429276
-0.003740733049844382,0.009699513840430593
-0.003740563049844382,0.009798254513694264
-0.003740393049844382,0.00973242739818527
-0.003740223049844382,0.009962822302467049
-0.003740053049844382,0.01019321720674895
-0.003739883049844382,0.009699513840431492
-0.003739713049844382,0.009995735860221606
-0.003739543049844382,0.01019321720674895
-0.003739373049844382,0.009962822302467469
-0.003739203049844382,0.00950203249390325
-0.003739033049844382,0.009107069800848565
-0.003738863049844382,0.008942502012076079
-0.003738693049844382,0.009074156243094007
-0.003738523049844382,0.008613366434530208
-0.003738353049844382,0.009041242685338671
-0.003738183049844382,0.009074156243094007
-0.003738013049844382,0.008975415569830336
-0.003737843049844382,0.009238724031866314
-0.003737673049844382,0.009699513840430593
-0.003737503049844382,0.01035778499552173
-0.003737333049844382,0.01042361211103085
-0.003737163049844382,0.01025904432225806
-0.003736993049844382,0.01035778499552173
-0.003736823049844382,0.01068692057306731
-0.003736653049844382,0.01154267307468579
-0.003736483049844382,0.01197054932549503
-0.003736313049844382,0.01210220355651326
-0.003736143049844382,0.01216803067202238
-0.003735973049844382,0.01216803067202238
-0.003735803049844382,0.01187180865223136
-0.003735633049844382,0.01180598153672273
-0.003735463049844382,0.0120692899987587
-0.003735293049844382,0.01174015442121313
-0.003735123049844382,0.01154267307468549
-0.003734953049844382,0.011378105285913
-0.003734783049844382,0.01150975951693123
-0.003734613049844382,0.0113781052859133
-0.003734443049844382,0.01154267307468579
-0.003734273049844382,0.01154267307468579
-0.003734103049844382,0.0111477103816308
-0.003733933049844382,0.01098314259285832
-0.003733763049844382,0.01052235278429452
-0.003733593049844382,0.01029195788001112
-0.003733423049844382,0.009469118936148692
-0.003733253049844382,0.009798254513694264
-0.003733083049844382,0.008317144414736858
-0.003732913049844382,0.007033515662311467
-0.003732743049844382,0.007033515662311467
-0.003732573049844382,0.006144849602937767
-0.003732403049844382,0.005782800467638296
-0.003732233049844382,0.005354924216829054
-0.003732063049844382,0.004663739503983415
-0.003731893049844382,0.004696653061737912
-0.003731723049844382,0.004235863253174112
-0.003731553049844382,0.004334603926437604
-0.003731383049844382,0.004762480177247026
-0.003731213049844382,0.004795393735001583
-0.003731043049844382,0.00495996152377407
-0.003730873049844382,0.00607902248742931
-0.003730703049844382,0.00653981229599311
-0.003730533049844382,0.007198083451083056
-0.003730363049844382,0.007922181721684508
-0.003730193049844382,0.008745020665548437
-0.003730023049844382,0.009403291820638381
-0.003729853049844382,0.01009447653348528
-0.003729683049844382,0.01035778499552173
-0.003729513049844382,0.01052235278429422
-0.003729343049844382,0.01052235278429452
-0.003729173049844382,0.01081857480408553
-0.003729003049844382,0.01131227817040299
-0.003728833049844382,0.01095022903510376
-0.003728663049844382,0.01091731547734921
-0.003728493049844382,0.01068692057306773
-0.003728323049844382,0.01127936461264933
-0.003728153049844382,0.009666600282676035
-0.003727983049844382,0.01042361211102947
-0.003727813049844382,0.01062109345755819
-0.003727643049844382,0.009567859609412364
-0.003727473049844382,0.009469118936148872
-0.003727303049844382,0.008876674896566664
-0.003727133049844382,0.008448798645757422
-0.003726963049844382,0.007724700375157166
-0.003726793049844382,0.007461391913120709
-0.003726623049844382,0.006803120758029567
-0.003726453049844382,0.006473985180483996
-0.003726283049844382,0.006375244507220324
-0.003726113049844382,0.00630941739171121
-0.003725943049844382,0.006803120758029567
-0.003725773049844382,0.006605639411502225
-0.003725603049844382,0.007263910566593366
-0.003725433049844382,0.007362651239857037
-0.003725263049844382,0.007790527490666999
-0.003725093049844382,0.008185490183720966
-0.003724923049844382,0.008646279992284765
-0.003724753049844382,0.008777934223303951
-0.003724583049844382,0.009304551147375908
-0.003724413049844382,0.00983116807144882
-0.003724243049844382,0.009962822302468187
-0.003724073049844382,0.01058817989980363
-0.003723903049844382,0.01085148836184009
-0.003723733049844382,0.01078566124632906
-0.003723563049844382,0.00973242739818515
-0.003723393049844382,0.01101605615061288
-0.003723223049844382,0.01042361211103067
-0.003723053049844382,0.01032487143776718
-0.003722883049844382,0.009469118936148692
-0.003722713049844382,0.009271637589619972
-0.003722543049844382,0.008514625761266537
-0.003722373049844382,0.008350057972493751
-0.003722203049844382,0.008415885088002626
-0.003722033049844382,0.008284230856984636
-0.003721863049844382,0.007889268163929951
-0.003721693049844382,0.008382971530248967
-0.003721523049844382,0.008745020665548437
-0.003721353049844382,0.008942502012075779
-0.003721183049844382,0.009205810474113792
-0.003721013049844382,0.01006156297573072
-0.003720843049844382,0.00950203249390325
-0.003720673049844382,0.009534946051657747
-0.003720503049844382,0.009172896916357679
-0.003720333049844382,0.00871210710779388
-0.003720163049844382,0.008514625761266896
-0.003719993049844382,0.008185490183720966
-0.003719823049844382,0.008251317299230079
-0.003719653049844382,0.0080209223949486
-0.003719483049844382,0.007691786817402609
