Analysis/New Tests_CMB/wrd01_d2s01/cmb01_ch24.csv

#Digilent WaveForms Oscilloscope Acquisition
#Device Name: ADP3450
#Serial Number: SN:210018B9D9B0
#Date Time: 2024-08-14 14:56:04.472.151.650
#Sample rate: 5.88235e+06Hz
#Samples: 32768
#Trigger: Source: Channel 3 Type: Edge Condition: Rising Level: 50 mV Hyst.: Auto HoldOff: 0 s
#Channel 3: Range: 100 mV/div Offset: 0 V Attenuation: 1 X Coupling: DC Bandwidth: 0 Hz Sample Mode: Average

Time (s),Channel 3 (V)
-0.003798458174782599,0.2025729622821352
-0.003798288174782599,0.2167587056743721
-0.003798118174782599,0.229265857621081
-0.003797948174782599,0.240193158795594
-0.003797778174782599,0.2496393498711659
-0.003797608174782599,0.2573082088279637
-0.003797438174782599,0.2633643034548022
-0.003797268174782599,0.2681367693292184
-0.003797098174782599,0.2710989895271231
-0.003796928174782599,0.2730738029923965
-0.003796758174782599,0.2734687656854505
-0.003796588174782599,0.2730738029923965
-0.003796418174782599,0.2720863962597598
-0.003796248174782599,0.2701115827944809
-0.003796078174782599,0.2670506219233126
-0.003795908174782599,0.2643187966296844
-0.003795738174782599,0.2608957866232036
-0.003795568174782599,0.2571436410391909
-0.003795398174782599,0.2532598412241532
-0.003795228174782599,0.2487177702540165
-0.003795058174782599,0.2444390077459319
-0.003794888174782599,0.2396994554292756
-0.003794718174782599,0.2333800523404122
-0.003794548174782599,0.2328534354163278
-0.003794378174782599,0.2270277356937712
-0.003794208174782599,0.2226831460701775
-0.003794038174782599,0.219457617410223
-0.003793868174782599,0.2151459413443761
-0.003793698174782599,0.2117887584534173
-0.003793528174782599,0.2087936246977465
-0.003793358174782599,0.2046794299784269
-0.003793188174782599,0.2025400487243846
-0.003793018174782599,0.2000386183350343
-0.003792848174782599,0.1952661524606236
-0.003792678174782599,0.1918431424541558
-0.003792508174782599,0.1890125764872577
-0.003792338174782599,0.1861161834048567
-0.003792168174782599,0.1831210496491974
-0.003791998174782599,0.1797309532004726
-0.003791828174782599,0.1764725109827714
-0.003791658174782599,0.1734115501116032
-0.003791488174782599,0.1705151570291966
-0.003791318174782599,0.1673883690425137
-0.003791148174782599,0.1639324454782915
-0.003790978174782599,0.1607398303760932
-0.003790808174782599,0.1568560305610554
-0.003790638174782599,0.1534001069968332
-0.003790468174782599,0.1505037139144259
-0.003790298174782599,0.1474427530432521
-0.003790128174782599,0.1441843108255509
-0.003789958174782599,0.1414524855319227
-0.003789788174782599,0.1385890060072762
-0.003789618174782599,0.1361863162911935
-0.003789448174782599,0.1340798485949019
-0.003789278174782599,0.1321708622451376
-0.003789108174782599,0.129537777624773
-0.003788938174782599,0.1272996556974582
-0.003788768174782599,0.1246007439615895
-0.003788598174782599,0.1232183745358981
-0.003788428174782599,0.120881511935321
-0.003788258174782599,0.1189725255855602
-0.003788088174782599,0.117129366351305
-0.003787918174782599,0.1153520342325556
-0.003787748174782599,0.1135088749983037
-0.003787578174782599,0.1114024073020121
-0.003787408174782599,0.1098883836452992
-0.003787238174782599,0.1081110515265563
-0.003787068174782599,0.1065970278698467
-0.003786898174782599,0.1044247330580451
-0.003786728174782599,0.1039639432494822
-0.003786558174782599,0.1013308586291176
-0.003786388174782599,0.100080143434442
-0.003786218174782599,0.09873068756650757
-0.003786048174782599,0.09747997237183439
-0.003785878174782599,0.09609760294613995
-0.003785708174782599,0.09441901150066059
-0.003785538174782599,0.09320120986374197
-0.003785368174782599,0.09119348284071339
-0.003785198174782599,0.09086434726316842
-0.003785028174782599,0.08767173216097637
-0.003784858174782599,0.08592731359998006
-0.003784688174782599,0.08329422897962027
-0.003784518174782599,0.08141815618761053
-0.003784348174782599,0.07885089868275974
-0.003784178174782599,0.07700773944849987
-0.003784008174782599,0.07480253107894455
-0.003783838174782599,0.0729593718446927
-0.003783668174782599,0.07134660751471605
-0.003783498174782599,0.06986549741576098
-0.003783328174782599,0.06900974491414405
-0.003783158174782599,0.06733115346866009
-0.003782988174782599,0.06594878404296869
-0.003782818174782599,0.06509303154135176
-0.003782648174782599,0.06380940278892247
-0.003782478174782599,0.06331569942260412
-0.003782308174782599,0.06265742826751416
-0.003782138174782599,0.06176876220813993
-0.003781968174782599,0.06111049105304879
-0.003781798174782599,0.06032056566694086
-0.003781628174782599,0.06005725720490297
-0.003781458174782599,0.05979394874286651
-0.003781288174782599,0.05956355383858503
-0.003781118174782599,0.05939898604981182
-0.003780948174782599,0.05887236912573891
-0.003780778174782599,0.05834575220166695
-0.003780608174782599,0.05821409797064777
-0.003780438174782599,0.05722669123801106
-0.003780268174782599,0.0567000743139391
-0.003780098174782599,0.0558114082545651
-0.003779928174782599,0.05531770488824674
-0.003779758174782599,0.05472526084866471
-0.003779588174782599,0.053737854116028
-0.003779418174782599,0.05245422536360028
-0.003779248174782599,0.05140099151545445
-0.003779078174782599,0.04972240006997204
-0.003778908174782599,0.04824128997101697
-0.003778738174782599,0.04695766121858923
-0.003778568174782599,0.04577277313942518
-0.003778398174782599,0.04498284775331581
-0.003778228174782599,0.04432457659822467
-0.003778058174782599,0.04373213255864084
-0.003777888174782599,0.04274472582600593
-0.003777718174782599,0.04221810890193301
-0.003777548174782599,0.04073699880297705
-0.003777378174782599,0.04024329543665959
-0.003777208174782599,0.03974959207034123
-0.003777038174782599,0.03863053110668479
-0.003776868174782599,0.03780769216282236
-0.003776698174782599,0.0375443837007859
-0.003776528174782599,0.03698485321895754
-0.003776358174782599,0.03649114985264008
-0.003776188174782599,0.03616201427509451
-0.003776018174782599,0.03593161937081506
-0.003775848174782599,0.03728107523874945
-0.003775678174782599,0.03392389234778462
-0.003775508174782599,0.03537208888898394
-0.003775338174782599,0.034713817733894
-0.003775168174782599,0.03468090417613943
-0.003774998174782599,0.03379223811676514
-0.003774828174782599,0.03310105340392069
-0.003774658174782599,0.03185033820924753
-0.003774488174782599,0.03119206705415405
-0.003774318174782599,0.02990843830172865
-0.003774148174782599,0.02901977224235561
-0.003773978174782599,0.02799945195196392
-0.003773808174782599,0.02776905704768244
-0.003773638174782599,0.02717661300810041
-0.003773468174782599,0.02688039098830994
-0.003773298174782599,0.0266499960840275
-0.003773128174782599,0.0259588113711818
-0.003772958174782599,0.02562967579363683
-0.003772788174782599,0.02592589781342725
-0.003772618174782599,0.02586007069791813
-0.003772448174782599,0.02559676223588215
-0.003772278174782599,0.02530054021609066
-0.003772108174782599,0.0250372317540542
-0.003771938174782599,0.02513597242731769
-0.003771768174782599,0.0243460470412085
-0.003771598174782599,0.02342446742408091
-0.003771428174782599,0.02293076405776345
-0.003771258174782599,0.02276619626898976
-0.003771088174782599,0.02246997424919875
-0.003770918174782599,0.02223957934491727
-0.003770748174782599,0.02220666578716229
-0.003770578174782599,0.02181170309410761
-0.003770408174782599,0.02161422174758063
-0.003770238174782599,0.02138382684329837
-0.003770068174782599,0.02121925905452558
-0.003769898174782599,0.0209230370347351
-0.003769728174782599,0.0203635065529071
-0.003769558174782599,0.02046224722617077
-0.003769388174782599,0.01924444558925215
-0.003769218174782599,0.01950775405128861
-0.003769048174782599,0.01865200154967013
-0.003768878174782599,0.01815829818335177
-0.003768708174782599,0.01779624904805164
-0.003768538174782599,0.01687466943092404
-0.003768368174782599,0.01628222539134202
-0.003768198174782599,0.01615057116032378
-0.003768028174782599,0.01513025086993251
-0.003767858174782599,0.01489985596565062
-0.003767688174782599,0.01466946106136926
-0.003767518174782599,0.01496568308115973
-0.003767348174782599,0.01476820173463239
-0.003767178174782599,0.01437323904157752
-0.003767008174782599,0.01427449836831403
-0.003766838174782599,0.01404410346403213
-0.003766668174782599,0.01394536279076876
-0.003766498174782599,0.01410993057954124
-0.003766328174782599,0.01177306797896769
-0.003766158174782599,0.01605183048705688
-0.003765988174782599,0.01427449836831403
-0.003765818174782599,0.01516316442768707
-0.003765648174782599,0.01513025086993275
-0.003765478174782599,0.01526190510095074
-0.003765308174782599,0.01536064577421441
-0.003765138174782599,0.01516316442768677
-0.003764968174782599,0.01499859663891429
-0.003764798174782599,0.01516316442768707
-0.003764628174782599,0.01516316442768701
-0.003764458174782599,0.01513025086993251
-0.003764288174782599,0.0143732390415777
-0.003764118174782599,0.01361622721322271
-0.003763948174782599,0.01351748653995922
-0.003763778174782599,0.01289212894262263
-0.003763608174782599,0.01299086961588463
-0.003763438174782599,0.0120692899987587
-0.003763268174782599,0.01193763576774048
-0.003763098174782599,0.01114771038163254
-0.003762928174782599,0.01052235278429452
-0.003762758174782599,0.01029195788001262
-0.003762588174782599,0.009831168071449658
-0.003762418174782599,0.00950203249390325
-0.003762248174782599,0.009798254513694264
-0.003762078174782599,0.009172896916358817
-0.003761908174782599,0.009403291820639578
-0.003761738174782599,0.009995735860221606
-0.003761568174782599,0.009929908744712612
-0.003761398174782599,0.01012739009123984
-0.003761228174782599,0.009962822302467049
-0.003761058174782599,0.009962822302467049
-0.003760888174782599,0.009534946051657807
-0.003760718174782599,0.009370378262885021
-0.003760548174782599,0.009172896916358038
-0.003760378174782599,0.008415885088002865
-0.003760208174782599,0.008152576625966409
-0.003760038174782599,0.007757613932912441
-0.003759868174782599,0.00811966306821185
-0.003759698174782599,0.007593046144138938
-0.003759528174782599,0.008020922394947401
-0.003759358174782599,0.007395564797611595
-0.003759188174782599,0.00779052749066628
-0.003759018174782599,0.007922181721684268
-0.003758848174782599,0.008547539319021094
-0.003758678174782599,0.008415885088002865
-0.003758508174782599,0.009238724031866792
-0.003758338174782599,0.01012739009123984
-0.003758168174782599,0.00973242739818515
-0.003757998174782599,0.01088440191959465
-0.003757828174782599,0.01095022903510376
-0.003757658174782599,0.01121353749714022
-0.003757488174782599,0.01121353749714022
-0.003757318174782599,0.01039069855327695
-0.003757148174782599,0.01075274768857642
-0.003756978174782599,0.01088440191959465
-0.003756808174782599,0.01220094422977729
-0.003756638174782599,0.01239842557630427
-0.003756468174782599,0.01180598153672225
-0.003756298174782599,0.01200346288324947
-0.003756128174782599,0.01193763576774048
-0.003755958174782599,0.01233259846079516
-0.003755788174782599,0.01174015442121331
-0.003755618174782599,0.0118388950944768
-0.003755448174782599,0.01141101884366756
-0.003755278174782599,0.0109831425928579
-0.003755108174782599,0.01075274768857642
-0.003754938174782599,0.01078566124633098
-0.003754768174782599,0.01025904432225806
-0.003754598174782599,0.01025904432225806
-0.003754428174782599,0.01006156297573072
-0.003754258174782599,0.009699513840431013
-0.003754088174782599,0.009929908744712493
-0.003753918174782599,0.009271637589621349
-0.003753748174782599,0.008843761338812766
-0.003753578174782599,0.009205810474112236
-0.003753408174782599,0.008679193550039321
-0.003753238174782599,0.008679193550039502
-0.003753068174782599,0.008777934223302994
-0.003752898174782599,0.008646279992284765
-0.003752728174782599,0.008843761338811748
-0.003752558174782599,0.009238724031866792
-0.003752388174782599,0.009238724031866792
-0.003752218174782599,0.009041242685339809
-0.003752048174782599,0.009436205378394135
-0.003751878174782599,0.009205810474112236
-0.003751708174782599,0.00904124268533975
-0.003751538174782599,0.009896995186957936
-0.003751368174782599,0.00904124268533945
-0.003751198174782599,0.0096336867249204
-0.003751028174782599,0.009205810474112236
-0.003750858174782599,0.01002864941797616
-0.003750688174782599,0.0096007731671677
-0.003750518174782599,0.009337464705130465
-0.003750348174782599,0.00871210710779388
-0.003750178174782599,0.007955095279440444
-0.003750008174782599,0.007329737682102481
-0.003749838174782599,0.006638552969256781
-0.003749668174782599,0.006441071622729798
-0.003749498174782599,0.005782800467638296
-0.003749328174782599,0.006177763160692982
-0.003749158174782599,0.005519492005603036
-0.003748988174782599,0.005782800467638296
-0.003748818174782599,0.005716973352129182
-0.003748648174782599,0.005486578447847701
-0.003748478174782599,0.006177763160692982
-0.003748308174782599,0.005716973352129182
-0.003748138174782599,0.006934774989047795
-0.003747968174782599,0.005420751332338168
-0.003747798174782599,0.005782800467638296
-0.003747628174782599,0.006210676718447538
-0.003747458174782599,0.007922181721684508
-0.003747288174782599,0.004597912388474241
-0.003747118174782599,0.006638552969256781
-0.003746948174782599,0.007033515662311467
-0.003746778174782599,0.006868947873538681
-0.003746608174782599,0.007066429220066024
-0.003746438174782599,0.007230997008838989
-0.003746268174782599,0.007329737682102481
-0.003746098174782599,0.007099342777820581
-0.003745928174782599,0.007099342777820102
-0.003745758174782599,0.006836034315784124
-0.003745588174782599,0.006934774989047795
-0.003745418174782599,0.00746139191312005
-0.003745248174782599,0.007099342777820581
-0.003745078174782599,0.007198083451084253
-0.003744908174782599,0.007132256335576635
-0.003744738174782599,0.007955095279439066
-0.003744568174782599,0.007922181721684508
-0.003744398174782599,0.007889268163930012
-0.003744228174782599,0.007922181721684508
-0.003744058174782599,0.008415885088002865
-0.003743888174782599,0.008547539319022112
-0.003743718174782599,0.009107069800848565
-0.003743548174782599,0.009337464705130465
-0.003743378174782599,0.009469118936149649
-0.003743208174782599,0.009995735860221606
-0.003743038174782599,0.01025904432225806
-0.003742868174782599,0.01035778499552203
-0.003742698174782599,0.01052235278429452
-0.003742528174782599,0.01071983413082186
-0.003742358174782599,0.01068692057306844
-0.003742188174782599,0.01131227817040389
-0.003742018174782599,0.01052235278429452
-0.003741848174782599,0.01035778499552203
-0.003741678174782599,0.009172896916357679
-0.003741508174782599,0.008843761338812107
-0.003741338174782599,0.008185490183722163
-0.003741168174782599,0.007198083451084253
-0.003740998174782599,0.006638552969256781
-0.003740828174782599,0.006408158064975301
-0.003740658174782599,0.005881541140901968
-0.003740488174782599,0.004894134408265255
-0.003740318174782599,0.004696653061738271
-0.003740148174782599,0.004466258157456012
-0.003739978174782599,0.004202949695419555
-0.003739808174782599,0.004433344599701036
-0.003739638174782599,0.004367517484192341
-0.003739468174782599,0.004894134408265255
-0.003739298174782599,0.004992875081528746
-0.003739128174782599,0.005420751332338168
-0.003738958174782599,0.005453664890092726
-0.003738788174782599,0.005749886909883201
-0.003738618174782599,0.006375244507220324
-0.003738448174782599,0.00677020720027501
-0.003738278174782599,0.007099342777819983
-0.003738108174782599,0.007099342777820581
-0.003737938174782599,0.007823441048420837
-0.003737768174782599,0.007658873259648351
-0.003737598174782599,0.007691786817402609
-0.003737428174782599,0.007527219028629823
-0.003737258174782599,0.007461391913120709
-0.003737088174782599,0.007494305470875266
-0.003736918174782599,0.006836034315784124
-0.003736748174782599,0.006638552969256781
-0.003736578174782599,0.006441071622729439
-0.003736408174782599,0.006276503833956653
-0.003736238174782599,0.006342330949465767
-0.003736068174782599,0.006803120758027113
-0.003735898174782599,0.005453664890092726
-0.003735728174782599,0.005585319121110954
-0.003735558174782599,0.005914454698656943
-0.003735388174782599,0.006144849602938425
-0.003735218174782599,0.006111936045183867
-0.003735048174782599,0.006342330949466665
-0.003734878174782599,0.006836034315784124
-0.003734708174782599,0.006704380084765896
-0.003734538174782599,0.007066429220066083
-0.003734368174782599,0.007099342777820581
-0.003734198174782599,0.006704380084765896
-0.003734028174782599,0.006473985180484295
-0.003733858174782599,0.006638552969256781
-0.003733688174782599,0.006506898738238553
-0.003733518174782599,0.00700060210455697
-0.003733348174782599,0.007033515662311467
-0.003733178174782599,0.007362651239857037
-0.003733008174782599,0.006803120758030166
-0.003732838174782599,0.007132256335575138
-0.003732668174782599,0.007329737682102481
-0.003732498174782599,0.0075601325863845
-0.003732328174782599,0.007625959701893495
-0.003732158174782599,0.007889268163929951
-0.003731988174782599,0.008152576625966348
-0.003731818174782599,0.00811966306821185
-0.003731648174782599,0.007724700375157166
-0.003731478174782599,0.007856354606175155
-0.003731308174782599,0.007362651239857037
-0.003731138174782599,0.007658873259648051
-0.003730968174782599,0.007724700375157046
-0.003730798174782599,0.007593046144138938
-0.003730628174782599,0.00811966306821185
-0.003730458174782599,0.007691786817403387
-0.003730288174782599,0.007922181721684508
-0.003730118174782599,0.007494305470875266
-0.003729948174782599,0.007033515662312305
-0.003729778174782599,0.00700060210455691
-0.003729608174782599,0.006671466527011338
-0.003729438174782599,0.006046108929675892
-0.003729268174782599,0.005815714025392853
-0.003729098174782599,0.005420751332338168
-0.003728928174782599,0.004729566619493726
-0.003728758174782599,0.004202949695419555
-0.003728588174782599,0.001964827768109672
-0.003728418174782599,0.004762480177241938
-0.003728248174782599,0.002458531134428029
-0.003728078174782599,0.002853493827482714
-0.003727908174782599,0.003149715847273189
-0.003727738174782599,0.003347197193801071
-0.003727568174782599,0.003380110751555628
-0.003727398174782599,0.004202949695418058
-0.003727228174782599,0.004795393735001583
-0.003727058174782599,0.005190356428056269
-0.003726888174782599,0.00574988690988374
-0.003726718174782599,0.005420751332338168
-0.003726548174782599,0.005651146236620068
-0.003726378174782599,0.006177763160692982
-0.003726208174782599,0.006144849602938425
-0.003726038174782599,0.006111936045183867
-0.003725868174782599,0.006111936045183867
-0.003725698174782599,0.006375244507220324
-0.003725528174782599,0.00630941739171121
-0.003725358174782599,0.005980281814165639
-0.003725188174782599,0.005519492005602498
-0.003725018174782599,0.005881541140901968
-0.003724848174782599,0.006375244507220324
-0.003724678174782599,0.006375244507219726
-0.003724508174782599,0.006046108929674754
-0.003724338174782599,0.006375244507220324
-0.003724168174782599,0.006177763160692802
-0.003723998174782599,0.00607902248742931
-0.003723828174782599,0.005552405563356397
-0.003723658174782599,0.005354924216827917
-0.003723488174782599,0.004729566619492469
-0.003723318174782599,0.004170036137664999
-0.003723148174782599,0.003742159886856295
-0.003722978174782599,0.00403838190664677
-0.003722808174782599,0.003511764982573856
-0.003722638174782599,0.003413024309310783
-0.003722468174782599,0.003742159886855756
-0.003722298174782599,0.003676332771346642
-0.003722128174782599,0.003873814117874942
-0.003721958174782599,0.004400431041946898
-0.003721788174782599,0.004564998830719684
-0.003721618174782599,0.005091615754793674
-0.003721448174782599,0.005684059794374625
-0.003721278174782599,0.006210676718447538
-0.003721108174782599,0.00700060210455697
-0.003720938174782599,0.007033515662311467
-0.003720768174782599,0.007691786817402609
-0.003720598174782599,0.008613366434528532
-0.003720428174782599,0.008909588454321223
-0.003720258174782599,0.009304551147375908
-0.003720088174782599,0.009436205378393896
-0.003719918174782599,0.00950203249390325
-0.003719748174782599,0.00950203249390325
