Analysis/New Tests_CMB/wrd01_d2s01/cmb02_ch44.csv

#Digilent WaveForms Oscilloscope Acquisition
#Device Name: ADP3450
#Serial Number: SN:210018B9D9B0
#Date Time: 2024-08-06 13:16:34.329.964.630
#Sample rate: 2.94118e+06Hz
#Samples: 32768
#Trigger: Source: Channel 3 Type: Edge Condition: Rising Level: 20 mV Hyst.: Auto HoldOff: 0 s
#Channel 3: Range: 200 mV/div Offset: 0 V Attenuation: 1 X Coupling: DC Bandwidth: 0 Hz Sample Mode: Average

Time (s),Channel 3 (V)
-0.00557038024590164,0.01174015442121313
-0.005570040245901639,0.01127936461264856
-0.00556970024590164,0.01085148836184009
-0.00556936024590164,0.01111479682387655
-0.005569020245901639,0.01101605615061335
-0.00556868024590164,0.01127936461264933
-0.00556834024590164,0.01121353749714022
-0.005568000245901639,0.01081857480408559
-0.00556766024590164,0.01085148836184009
-0.00556732024590164,0.01075274768857642
-0.005566980245901639,0.01048943922653948
-0.00556664024590164,0.01022613076450351
-0.00556630024590164,0.009765340955939707
-0.005565960245901639,0.009765340955938151
-0.00556562024590164,0.008909588454321223
-0.00556528024590164,0.008843761338812107
-0.005564940245901639,0.008876674896567084
-0.00556460024590164,0.009107069800848565
-0.00556426024590164,0.009271637589621349
-0.005563920245901639,0.009271637589621049
-0.00556358024590164,0.009107069800848565
-0.00556324024590164,0.00871210710779388
-0.00556290024590164,0.009041242685338851
-0.00556256024590164,0.008185490183720966
-0.00556222024590164,0.00779052749066628
-0.00556188024590164,0.008218403741474744
-0.00556154024590164,0.008317144414739193
-0.00556120024590164,0.008745020665548437
-0.00556086024590164,0.009107069800847906
-0.00556052024590164,0.009633686724921478
-0.00556018024590164,0.00950203249390325
-0.00555984024590164,0.00960077316716674
-0.00555950024590164,0.009271637589621349
-0.00555916024590164,0.008646279992284765
-0.00555882024590164,0.008152576625967307
-0.00555848024590164,0.007296824124347924
-0.00555814024590164,0.006836034315784124
-0.00555780024590164,0.006671466527011637
-0.00555746024590164,0.006638552969256781
-0.00555712024590164,0.006572725853747667
-0.00555678024590164,0.006737293642520154
-0.005556440245901639,0.007066429220066024
-0.00555610024590164,0.00756013258638438
-0.00555576024590164,0.007922181721683848
-0.005555420245901639,0.00811966306821185
-0.00555508024590164,0.007922181721684508
-0.00555474024590164,0.007823441048421018
-0.005554400245901639,0.007625959701893495
-0.00555406024590164,0.007494305470875266
-0.00555372024590164,0.007428478355366152
-0.005553380245901639,0.007461391913120709
-0.00555304024590164,0.007099342777820581
-0.00555270024590164,0.007593046144138938
-0.005552360245901639,0.007889268163929951
-0.00555202024590164,0.007823441048420837
-0.00555168024590164,0.00756013258638438
-0.005551340245901639,0.007889268163930669
-0.00555100024590164,0.008284230856984636
-0.00555066024590164,0.008284230856984636
-0.005550320245901639,0.007329737682101822
-0.00554998024590164,0.006967688546802352
-0.00554964024590164,0.006441071622729439
-0.005549300245901639,0.006046108929674095
-0.00554896024590164,0.005684059794374625
-0.00554862024590164,0.005387837774583611
-0.005548280245901639,0.005453664890093085
-0.00554794024590164,0.005651146236620068
-0.00554760024590164,0.005618232678865511
-0.005547260245901639,0.005749886909884039
-0.00554692024590164,0.005914454698656525
-0.00554658024590164,0.005716973352129182
-0.005546240245901639,0.005980281814165519
-0.00554590024590164,0.005914454698656525
-0.00554556024590164,0.005782800467638296
-0.005545220245901639,0.005716973352129601
-0.00554488024590164,0.005947368256411082
-0.00554454024590164,0.00630941739171121
-0.005544200245901639,0.006243590276202216
-0.00554386024590164,0.00630941739171121
-0.00554352024590164,0.006013195371920196
-0.005543180245901639,0.005848627583148608
-0.00554284024590164,0.006506898738238553
-0.00554250024590164,0.00677020720027501
-0.00554216024590164,0.006901861431292999
-0.00554182024590164,0.007066429220066024
-0.00554148024590164,0.007198083451084253
-0.00554114024590164,0.007790527490665203
-0.00554080024590164,0.00811966306821185
-0.00554046024590164,0.007395564797611595
-0.00554012024590164,0.007395564797611595
-0.00553978024590164,0.00677020720027501
-0.00553944024590164,0.006704380084765896
-0.00553910024590164,0.006671466527011398
-0.00553876024590164,0.006375244507220324
-0.00553842024590164,0.00630941739171121
-0.00553808024590164,0.00630941739171121
-0.00553774024590164,0.006243590276202096
-0.00553740024590164,0.00607902248742931
-0.00553706024590164,0.00607902248742931
-0.00553672024590164,0.006111936045183867
-0.00553638024590164,0.005881541140901968
-0.00553604024590164,0.006111936045183448
-0.005535700245901639,0.00574988690988374
-0.00553536024590164,0.005223269985810825
-0.00553502024590164,0.004729566619493366
-0.005534680245901639,0.003906727675628541
-0.00553434024590164,0.004005468348892213
-0.00553400024590164,0.004301690368682688
-0.005533660245901639,0.004762480177247026
-0.00553332024590164,0.005322010659074497
-0.00553298024590164,0.005782800467638296
-0.005532640245901639,0.006506898738238553
-0.00553230024590164,0.00653981229599311
-0.00553196024590164,0.006408158064974882
-0.005531620245901639,0.006704380084765896
-0.00553128024590164,0.006375244507220324
-0.00553094024590164,0.005848627583147411
-0.005530600245901639,0.005881541140901968
-0.00553026024590164,0.005585319121110954
-0.00552992024590164,0.005420751332338168
-0.005529580245901639,0.006144849602939203
-0.00552924024590164,0.006572725853747667
-0.00552890024590164,0.006934774989047795
-0.005528560245901639,0.007165169893329874
-0.00552822024590164,0.007263910566593366
-0.00552788024590164,0.007691786817402609
-0.005527540245901639,0.007823441048420957
-0.00552720024590164,0.007889268163929951
-0.00552686024590164,0.007428478355366152
-0.005526520245901639,0.007329737682101882
-0.00552618024590164,0.00700060210455691
-0.00552584024590164,0.006342330949465767
-0.005525500245901639,0.006243590276201737
-0.00552516024590164,0.006046108929674754
-0.00552482024590164,0.005914454698656525
-0.005524480245901639,0.005749886909882782
-0.00552414024590164,0.005223269985810825
-0.00552380024590164,0.004992875081528926
-0.005523460245901639,0.005749886909883859
-0.00552312024590164,0.005815714025392853
-0.00552278024590164,0.006243590276202096
-0.005522440245901639,0.00653981229599311
-0.00552210024590164,0.00653981229599311
-0.00552176024590164,0.007066429220066024
-0.005521420245901639,0.007461391913121068
-0.00552108024590164,0.007658873259648051
-0.00552074024590164,0.007593046144138938
-0.00552040024590164,0.007461391913120948
-0.00552006024590164,0.007066429220066024
-0.00551972024590164,0.006901861431293239
-0.00551938024590164,0.00640815806497578
-0.00551904024590164,0.005914454698656525
-0.00551870024590164,0.005091615754792597
-0.00551836024590164,0.004992875081529105
-0.00551802024590164,0.004992875081528926
-0.00551768024590164,0.005322010659074497
-0.00551734024590164,0.00565114623661947
-0.00551700024590164,0.006243590276202096
-0.00551666024590164,0.00653981229599311
-0.00551632024590164,0.006572725853747607
-0.00551598024590164,0.006210676718447538
-0.00551564024590164,0.006046108929674754
-0.00551530024590164,0.0054865784478483
-0.00551496024590164,0.005322010659074497
-0.00551462024590164,0.004992875081528926
-0.00551428024590164,0.005190356428055909
-0.005513940245901639,0.005552405563356397
-0.00551360024590164,0.005453664890092726
-0.00551326024590164,0.005848627583146693
-0.005512920245901639,0.006013195371920196
-0.00551258024590164,0.00630941739171121
-0.00551224024590164,0.006605639411502225
-0.005511900245901639,0.006934774989047795
-0.00551156024590164,0.00700060210455691
-0.00551122024590164,0.006934774989047795
-0.005510880245901639,0.00653981229599311
-0.00551054024590164,0.006243590276202096
-0.00551020024590164,0.006144849602938425
-0.005509860245901639,0.005782800467638296
-0.00550952024590164,0.005124529312547154
-0.00550918024590164,0.004367517484192341
-0.005508840245901639,0.004466258157456611
-0.00550850024590164,0.004795393735001583
-0.00550816024590164,0.004696653061737912
-0.005507820245901639,0.00456499883072136
-0.00550748024590164,0.005486578447847282
-0.00550714024590164,0.005585319121110954
-0.005506800245901639,0.005815714025392973
-0.00550646024590164,0.005881541140901968
-0.00550612024590164,0.005980281814165639
-0.005505780245901639,0.006342330949466486
-0.00550544024590164,0.006737293642520453
-0.00550510024590164,0.006342330949465767
-0.005504760245901639,0.005651146236620368
-0.00550442024590164,0.005815714025392853
-0.00550408024590164,0.005716973352129182
-0.005503740245901639,0.005684059794374505
-0.00550340024590164,0.005618232678865511
-0.00550306024590164,0.006046108929674754
-0.005502720245901639,0.006144849602938245
-0.00550238024590164,0.006046108929674754
-0.00550204024590164,0.006506898738238553
-0.005501700245901639,0.006375244507220085
-0.00550136024590164,0.006243590276202096
-0.00550102024590164,0.006704380084765896
-0.005500680245901639,0.006506898738239212
-0.00550034024590164,0.006868947873538681
-0.00550000024590164,0.007296824124347924
-0.00549966024590164,0.007230997008838929
-0.00549932024590164,0.007198083451084253
-0.00549898024590164,0.006473985180483996
-0.00549864024590164,0.005782800467639553
-0.00549830024590164,0.005881541140901968
-0.00549796024590164,0.005848627583147411
-0.00549762024590164,0.006144849602937886
-0.00549728024590164,0.00653981229599311
-0.00549694024590164,0.006177763160692982
-0.00549660024590164,0.005848627583148009
-0.00549626024590164,0.005585319121110954
-0.00549592024590164,0.005684059794374625
-0.00549558024590164,0.005716973352129122
-0.00549524024590164,0.006342330949465767
-0.00549490024590164,0.006605639411502225
-0.00549456024590164,0.007066429220065186
-0.00549422024590164,0.007625959701893495
-0.00549388024590164,0.00802092239494818
-0.00549354024590164,0.00811966306821167
-0.005493200245901639,0.008415885088002865
-0.00549286024590164,0.008745020665548437
-0.00549252024590164,0.008185490183721984
-0.005492180245901639,0.007362651239857037
-0.00549184024590164,0.006638552969256781
-0.00549150024590164,0.006309417391711808
-0.005491160245901639,0.006408158064974882
-0.00549082024590164,0.00607902248742931
-0.00549048024590164,0.005782800467638296
-0.005490140245901639,0.005322010659074497
-0.00548980024590164,0.005486578447847282
-0.00548946024590164,0.005190356428056269
-0.005489120245901639,0.004861220850510698
-0.00548878024590164,0.00482830729275614
-0.00548844024590164,0.005223269985810825
-0.005488100245901639,0.00561823267886563
-0.00548776024590164,0.005684059794374625
-0.00548742024590164,0.00574988690988374
-0.005487080245901639,0.005815714025392674
-0.00548674024590164,0.005716973352129182
-0.00548640024590164,0.005256183543565383
-0.005486060245901639,0.004992875081529225
-0.00548572024590164,0.005157442870301712
-0.00548538024590164,0.004927047966019811
-0.005485040245901639,0.005025788639283722
-0.00548470024590164,0.005157442870301712
-0.00548436024590164,0.00574988690988374
-0.005484020245901639,0.006243590276202455
-0.00548368024590164,0.006441071622729439
-0.00548334024590164,0.006605639411502225
-0.005483000245901639,0.006836034315784184
-0.00548266024590164,0.006868947873538681
-0.00548232024590164,0.006934774989047795
-0.005481980245901639,0.007066429220065305
-0.00548164024590164,0.006671466527011338
-0.00548130024590164,0.006144849602938425
-0.005480960245901639,0.005881541140902087
-0.00548062024590164,0.005947368256411082
-0.00548028024590164,0.00607902248742931
-0.005479940245901639,0.006375244507220863
-0.00547960024590164,0.006671466527011338
-0.00547926024590164,0.006671466527011338
-0.00547892024590164,0.0059473682564124
-0.00547858024590164,0.002952234500746385
-0.00547824024590164,-0.003070946568337565
-0.00547790024590164,-0.01231965629735129
-0.00547756024590164,-0.02380648795370854
-0.00547722024590164,-0.03670860259349493
-0.00547688024590164,-0.05053229685038377
-0.00547654024590164,-0.06274322677734961
-0.00547620024590164,-0.07413131776042636
-0.00547586024590164,-0.08275466989210464
-0.00547552024590164,-0.08874493740344971
-0.00547518024590164,-0.09177298471686898
-0.00547484024590164,-0.09289204568052188
-0.00547450024590164,-0.09285913212276936
-0.00547416024590164,-0.09121345423504149
-0.00547382024590164,-0.08907407298099917
-0.00547348024590164,-0.08601311210982149
-0.00547314024590164,-0.0829192376808931
-0.00547280024590164,-0.08005575815625184
-0.00547246024590164,-0.07719227863160016
-0.00547212024590164,-0.07469084824225383
-0.00547178024590164,-0.0714324060245586
-0.005471440245901639,-0.06863475361541532
-0.00547110024590164,-0.06570544697525973
-0.00547076024590164,-0.0636648063944809
-0.005470420245901639,-0.06099880821635807
-0.00547008024590164,-0.05885942696231186
-0.00546974024590164,-0.05681878638152932
-0.005469400245901639,-0.05477814580074678
-0.00546906024590164,-0.05296790012424614
-0.00546872024590164,-0.05099308665897272
-0.005468380245901639,-0.04891953252043561
-0.00546804024590164,-0.0465497563621075
-0.00546770024590164,-0.04457494289683408
-0.005467360245901639,-0.0425672158738061
-0.00546702024590164,-0.04092153798607824
-0.00546668024590164,-0.03947334144487773
-0.005466340245901639,-0.03812388557693849
-0.00546600024590164,-0.0368073432667586
-0.00546566024590164,-0.03499709759025796
-0.005465320245901639,-0.0332855925870183
-0.00546498024590164,-0.03180448248806592
-0.00546464024590164,-0.03068542152441098
-0.005464300245901639,-0.02959927411850856
-0.00546396024590164,-0.02848021315485565
-0.00546362024590164,-0.02782194199976451
-0.005463280245901639,-0.0271307572869166
-0.00546294024590164,-0.0259129556500002
-0.00546260024590164,-0.02482680824409981
-0.005462260245901639,-0.02341152526065212
-0.00546192024590164,-0.0224570320857717
-0.00546158024590164,-0.02064678640927106
-0.005461240245901639,-0.01933024409908632
-0.00546090024590164,-0.01798078823115194
-0.00546056024590164,-0.01719086284504256
-0.005460220245901639,-0.01610471543913919
-0.00545988024590164,-0.01445903755141432
-0.00545954024590164,-0.01333997658775938
-0.005459200245901639,-0.01261587831715817
-0.00545886024590164,-0.01208926139308621
-0.00545852024590164,-0.01149681735350419
-0.005458180245901639,-0.0111347682182025
-0.00545784024590164,-0.01027901571658557
-0.00545750024590164,-0.009719485234758102
-0.00545716024590164,-0.009127041195177151
-0.00545682024590164,-0.008764992059875945
-0.00545648024590164,-0.007876326000502903
-0.00545614024590164,-0.007053487056640472
-0.00545580024590164,-0.006592697248075176
-0.00545546024590164,-0.005934426092984033
-0.00545512024590164,-0.005572376957684564
-0.00545478024590164,-0.005144500706874663
-0.00545444024590164,-0.004881192244838206
-0.00545410024590164,-0.004782451571574715
-0.00545376024590164,-0.004782451571574535
-0.00545342024590164,-0.004749538013819977
-0.00545308024590164,-0.004157093974239027
-0.00545274024590164,-0.003531736376901365
-0.00545240024590164,-0.00267598387528288
-0.00545206024590164,-0.002017712720192935
-0.00545172024590164,-0.001458182238364267
-0.00545138024590164,-0.001161960218573253
-0.00545104024590164,-0.001030305987555264
-0.005450700245901639,-0.0008986517565367963
-0.00545036024590164,-0.0007340839677640107
-0.00545002024590164,-0.0009315653142909941
-0.005449680245901639,-0.001260700891836924
-0.00544934024590164,-0.001227787334082367
-0.00544900024590164,-0.00119487377632787
-0.005448660245901639,-0.0005695161789912252
-0.00544832024590164,-0.0004378619479729968
-0.00544798024590164,5.584141834535986e-05
-0.005447640245901639,0.0007470261311910591
-0.00544730024590164,0.0009115939199638446
-0.00544696024590164,0.001438210844036758
-0.005446620245901639,0.001668605748318658
-0.00544628024590164,0.001734432863827772
-0.00544594024590164,0.001668605748318658
-0.005445600245901639,0.001339470170774165
-0.00544526024590164,0.001931914210355115
-0.00544492024590164,0.001899000652600558
-0.005444580245901639,0.00196482776811027
-0.00544424024590164,0.002293963345655243
-0.00544390024590164,0.002688926038709928
-0.005443560245901639,0.002721839596464486
-0.00544322024590164,0.002721839596464486
-0.00544288024590164,0.001899000652600558
-0.005442540245901639,0.002491444692183184
-0.00544220024590164,0.002820580269728157
-0.00544186024590164,0.002985148058500942
-0.005441520245901639,0.003050975174010895
-0.00544118024590164,0.003511764982573856
-0.00544084024590164,0.003413024309310185
-0.005440500245901639,0.00370924632910066
-0.00544016024590164,0.003413024309310185
-0.00543982024590164,0.003347197193801071
-0.005439480245901639,0.003347197193800831
-0.00543914024590164,0.003215542962782842
-0.00543880024590164,0.003149715847273728
-0.005438460245901639,0.003445937867064981
-0.00543812024590164,0.00357759209808297
-0.00543778024590164,0.003676332771346642
-0.005437440245901639,0.003939641233383038
-0.00543710024590164,0.003906727675628541
-0.00543676024590164,0.003972554791137656
-0.00543642024590164,0.00440043104194612
-0.00543608024590164,0.004630825946228797
-0.00543574024590164,0.004630825946228797
-0.00543540024590164,0.005025788639282765
-0.00543506024590164,0.005322010659074497
-0.00543472024590164,0.005420751332338168
-0.00543438024590164,0.005815714025392135
-0.00543404024590164,0.005256183543565383
-0.00543370024590164,0.005387837774583611
-0.00543336024590164,0.005058702197038639
-0.00543302024590164,0.00528909710131994
-0.00543268024590164,0.005091615754792597
-0.00543234024590164,0.004861220850511117
-0.00543200024590164,0.00528909710131994
-0.00543166024590164,0.005157442870301712
-0.00543132024590164,0.004959961523774728
-0.00543098024590164,0.005025788639283483
-0.00543064024590164,0.00505870219703804
-0.00543030024590164,0.00542075133233751
-0.005429960245901639,0.005848627583147411
-0.00542962024590164,0.006144849602938425
-0.00542928024590164,0.005881541140902447
-0.005428940245901639,0.006144849602938425
-0.00542860024590164,0.005651146236620068
-0.00542826024590164,0.005420751332338587
-0.005427920245901639,0.005387837774583611
-0.00542758024590164,0.005091615754792597
-0.00542724024590164,0.005387837774583611
-0.005426900245901639,0.005716973352129182
-0.00542656024590164,0.005420751332338168
-0.00542622024590164,0.005914454698656525
-0.005425880245901639,0.006177763160692982
-0.00542554024590164,0.006605639411502225
-0.00542520024590164,0.006704380084765896
-0.005424860245901639,0.007395564797611595
-0.00542452024590164,0.007625959701893495
-0.00542418024590164,0.007428478355366152
-0.005423840245901639,0.006671466527011278
-0.00542350024590164,0.006638552969256781
-0.00542316024590164,0.006737293642520453
-0.005422820245901639,0.006342330949465887
-0.00542248024590164,0.006408158064974882
-0.00542214024590164,0.006803120758029567
-0.005421800245901639,0.006967688546801873
-0.00542146024590164,0.006704380084765896
-0.00542112024590164,0.006572725853747667
-0.005420780245901639,0.006276503833956354
-0.00542044024590164,0.006111936045183867
-0.00542010024590164,0.005716973352129182
-0.005419760245901639,0.005223269985812083
-0.00541942024590164,0.005914454698656525
-0.00541908024590164,0.00630941739171121
-0.005418740245901639,0.007296824124348522
-0.00541840024590164,0.007625959701893495
-0.00541806024590164,0.007691786817402609
-0.005417720245901639,0.007329737682101882
-0.00541738024590164,0.00700060210455691
-0.00541704024590164,0.006901861431293239
-0.005416700245901639,0.006967688546801933
-0.00541636024590164,0.006737293642520453
-0.00541602024590164,0.007099342777820581
-0.005415680245901639,0.00742847835536699
-0.00541534024590164,0.007889268163929951
-0.00541500024590164,0.007922181721684508
-0.00541466024590164,0.008284230856983977
-0.00541432024590164,0.007988008837193623
-0.00541398024590164,0.008086749510457293
-0.00541364024590164,0.006967688546804388
-0.00541330024590164,0.005914454698656525
-0.00541296024590164,0.005256183543565383
