Analysis/New Tests_CMB/wrd01_d2s01/cmb02_ch20.csv

#Digilent WaveForms Oscilloscope Acquisition
#Device Name: ADP3450
#Serial Number: SN:210018B9D9B0
#Date Time: 2024-08-06 12:43:53.294.641.560
#Sample rate: 2.94118e+06Hz
#Samples: 32768
#Trigger: Source: Channel 3 Type: Edge Condition: Rising Level: 20 mV Hyst.: Auto HoldOff: 0 s
#Channel 3: Range: 200 mV/div Offset: 0 V Attenuation: 1 X Coupling: DC Bandwidth: 0 Hz Sample Mode: Average

Time (s),Channel 3 (V)
-0.005570408779069768,0.02790071127870067
-0.005570068779069767,0.02724244012360839
-0.005569728779069767,0.02661708252627295
-0.005569388779069768,0.02605755204444548
-0.005569048779069767,0.02553093512037136
-0.005568708779069767,0.02487266396528142
-0.005568368779069768,0.02431313348345395
-0.005568028779069767,0.02391817079039645
-0.005567688779069767,0.02237123357593508
-0.005567348779069768,0.02164713530533482
-0.005567008779069767,0.02089012347698019
-0.005566668779069767,0.02098886415024368
-0.005566328779069768,0.02085720991922545
-0.005565988779069767,0.02085720991922581
-0.005565648779069767,0.0210546912657528
-0.005565308779069768,0.02118634549677102
-0.005564968779069767,0.02082429636146981
-0.005564628779069767,0.02023185232188887
-0.005564288779069768,0.01947484049353405
-0.005563948779069767,0.0187507422229326
-0.005563608779069767,0.01809247106784265
-0.005563268779069768,0.01766459481703341
-0.005562928779069768,0.01723671856622495
-0.005562588779069767,0.01723671856622417
-0.005562248779069768,0.01717089145071506
-0.005561908779069768,0.01628222539134363
-0.005561568779069767,0.01578852202502366
-0.005561228779069768,0.01519607798544163
-0.005560888779069768,0.01522899154319613
-0.005560548779069767,0.01542647288972353
-0.005560208779069768,0.01578852202502366
-0.005559868779069768,0.01588726269828715
-0.005559528779069767,0.01605183048706011
-0.005559188779069768,0.015986003371551
-0.005558848779069768,0.01608474404481449
-0.005558508779069767,0.01605183048706011
-0.005558168779069768,0.01578852202502366
-0.005557828779069768,0.01506442375442472
-0.005557488779069767,0.0141428441372958
-0.005557148779069768,0.01387953567525935
-0.005556808779069768,0.01289212894262443
-0.005556468779069767,0.01193763576774048
-0.005556128779069767,0.01114771038163111
-0.005555788779069768,0.01019321720675069
-0.005555448779069767,0.01006156297573072
-0.005555108779069767,0.01068692057306731
-0.005554768779069768,0.01144393240142074
-0.005554428779069767,0.01236551201854972
-0.005554088779069767,0.01282630182711352
-0.005553748779069768,0.01279338826935896
-0.005553408779069767,0.01246425269181339
-0.005553068779069767,0.01167432730570402
-0.005552728779069768,0.01045652566878541
-0.005552388779069767,0.009699513840430593
-0.005552048779069767,0.009008329127584893
-0.005551708779069768,0.008547539319021094
-0.005551368779069767,0.009172896916359894
-0.005551028779069767,0.01039069855327629
-0.005550688779069768,0.01124645105489478
-0.005550348779069767,0.01239842557630763
-0.005550008779069767,0.01424158481055947
-0.005549668779069768,0.01489985596565062
-0.005549328779069767,0.01496568308115979
-0.005548988779069767,0.01499859663891429
-0.005548648779069768,0.01453780683035049
-0.005548308779069767,0.01368205432872907
-0.005547968779069767,0.0120692899987587
-0.005547628779069768,0.01071983413082186
-0.005547288779069767,0.0102590443222571
-0.005546948779069767,0.00973242739818515
-0.005546608779069768,0.009304551147375908
-0.005546268779069767,0.009469118936149889
-0.005545928779069767,0.01012739009123984
-0.005545588779069768,0.01029195788001262
-0.005545248779069767,0.01121353749714136
-0.005544908779069767,0.0118388950944768
-0.005544568779069768,0.01249716624956795
-0.005544228779069767,0.01289212894262377
-0.005543888779069767,0.01351748653995922
-0.005543548779069768,0.01246425269181339
-0.005543208779069767,0.01167432730570234
-0.005542868779069767,0.01075274768857642
-0.005542528779069768,0.009534946051657807
-0.005542188779069768,0.007955095279441941
-0.005541848779069767,0.006605639411502225
-0.005541508779069768,0.005552405563356397
-0.005541168779069768,0.005354924216829413
-0.005540828779069767,0.00630941739171121
-0.005540488779069768,0.007263910566593366
-0.005540148779069768,0.008152576625964792
-0.005539808779069767,0.009765340955939707
-0.005539468779069768,0.01055526634204908
-0.005539128779069768,0.01114771038163003
-0.005538788779069767,0.01187180865223136
-0.005538448779069768,0.01269464759609529
-0.005538108779069768,0.01361622721322121
-0.005537768779069767,0.01401118990627757
-0.005537428779069768,0.01394536279076846
-0.005537088779069768,0.0134187458666965
-0.005536748779069767,0.01308961028914997
-0.005536408779069768,0.01272756115384985
-0.005536068779069768,0.01272756115384985
-0.005535728779069767,0.01282630182711352
-0.005535388779069767,0.01338583230894099
-0.005535048779069768,0.01315543740465951
-0.005534708779069767,0.0125300798073225
-0.005534368779069767,0.01111479682387655
-0.005534028779069768,0.009337464705133698
-0.005533688779069767,0.007494305470875266
-0.005533348779069767,0.005782800467638296
-0.005533008779069768,0.005354924216829054
-0.005532668779069767,0.005453664890092726
-0.005532328779069767,0.006210676718447538
-0.005531988779069768,0.007099342777820581
-0.005531648779069767,0.008284230856984636
-0.005531308779069767,0.008876674896566664
-0.005530968779069768,0.008547539319021094
-0.005530628779069767,0.008152576625966409
-0.005530288779069767,0.008152576625966409
-0.005529948779069768,0.007691786817402609
-0.005529608779069767,0.008185490183721385
-0.005529268779069767,0.008415885088002865
-0.005528928779069768,0.00973242739818515
-0.005528588779069767,0.01091731547735154
-0.005528248779069767,0.01220094422977693
-0.005527908779069768,0.01308961028914997
-0.005527568779069767,0.01345165942445058
-0.005527228779069767,0.01371496788648656
-0.005526888779069768,0.01348457298220466
-0.005526548779069767,0.01276047471160321
-0.005526208779069767,0.01210220355651326
-0.005525868779069768,0.01091731547734921
-0.005525528779069767,0.009469118936146955
-0.005525188779069767,0.008514625761266537
-0.005524848779069768,0.008382971530248308
-0.005524508779069767,0.008350057972494052
-0.005524168779069767,0.008514625761266537
-0.005523828779069768,0.00950203249390325
-0.005523488779069767,0.009798254513695162
-0.005523148779069767,0.01029195788001262
-0.005522808779069768,0.01062109345755819
-0.005522468779069767,0.0106869205730682
-0.005522128779069767,0.01118062393938566
-0.005521788779069768,0.01144393240142212
-0.005521448779069767,0.0109831425928576
-0.005521108779069767,0.01058817989980363
-0.005520768779069768,0.01029195788001262
-0.005520428779069768,0.009370378262886697
-0.005520088779069767,0.008580452876775651
-0.005519748779069768,0.008382971530248308
-0.005519408779069768,0.008712107107793281
-0.005519068779069767,0.008613366434530208
-0.005518728779069768,0.00871210710779388
-0.005518388779069768,0.009304551147374831
-0.005518048779069767,0.01002864941797616
-0.005517708779069768,0.01085148836184009
-0.005517368779069768,0.01154267307468453
-0.005517028779069767,0.01236551201854972
-0.005516688779069768,0.01318835096241365
-0.005516348779069768,0.01295795605813217
-0.005516008779069767,0.01236551201854972
-0.005515668779069768,0.01164141374794946
-0.005515328779069768,0.01078566124633253
-0.005514988779069767,0.01016030364899439
-0.005514648779069767,0.01012739009123984
-0.005514308779069768,0.00983116807144936
-0.005513968779069767,0.009864081629203377
-0.005513628779069767,0.009995735860221606
-0.005513288779069768,0.009798254513694623
-0.005512948779069767,0.009600773167166921
-0.005512608779069767,0.01048943922653996
-0.005512268779069768,0.01019321720674895
-0.005511928779069767,0.01042361211103085
-0.005511588779069767,0.01022613076450351
-0.005511248779069768,0.01078566124633098
-0.005510908779069767,0.01025904432225806
-0.005510568779069767,0.009896995186957936
-0.005510228779069768,0.01012739009123984
-0.005509888779069767,0.01016030364899439
-0.005509548779069767,0.01012739009123984
-0.005509208779069768,0.00983116807144882
-0.005508868779069767,0.009666600282676335
-0.005508528779069767,0.00983116807144882
-0.005508188779069768,0.009238724031866792
-0.005507848779069767,0.008514625761265399
-0.005507508779069767,0.007889268163929951
-0.005507168779069768,0.007362651239857037
-0.005506828779069767,0.00723099700883869
-0.005506488779069767,0.007165169893329695
-0.005506148779069768,0.007461391913120709
-0.005505808779069767,0.007724700375156986
-0.005505468779069767,0.007625959701893495
-0.005505128779069768,0.007922181721684508
-0.005504788779069767,0.008317144414741169
-0.005504448779069767,0.009403291820639578
-0.005504108779069768,0.009436205378394135
-0.005503768779069767,0.01048943922653984
-0.005503428779069767,0.01042361211103085
-0.005503088779069768,0.01025904432225806
-0.005502748779069767,0.01022613076450363
-0.005502408779069767,0.01029195788001262
-0.005502068779069768,0.01118062393938566
-0.005501728779069767,0.01111479682387493
-0.005501388779069767,0.01022613076450351
-0.005501048779069768,0.009567859609412364
-0.005500708779069767,0.009139983358602942
-0.005500368779069767,0.00904124268533945
-0.005500028779069768,0.008909588454321223
-0.005499688779069768,0.008679193550039741
-0.005499348779069767,0.009271637589621349
-0.005499008779069768,0.009633686724921478
-0.005498668779069768,0.009699513840430473
-0.005498328779069767,0.01006156297573072
-0.005497988779069768,0.01032487143776718
-0.005497648779069768,0.01071983413082114
-0.005497308779069767,0.01091731547734921
-0.005496968779069768,0.01114771038163111
-0.005496628779069768,0.01042361211103216
-0.005496288779069767,0.01012739009123984
-0.005495948779069768,0.01052235278429452
-0.005495608779069768,0.01009447653348606
-0.005495268779069767,0.01052235278429452
-0.005494928779069768,0.01062109345755819
-0.005494588779069768,0.01022613076450422
-0.005494248779069767,0.009798254513694264
-0.005493908779069768,0.009436205378394135
-0.005493568779069768,0.009238724031867152
-0.005493228779069767,0.009172896916357679
-0.005492888779069767,0.00973242739818515
-0.005492548779069768,0.0102590443222571
-0.005492208779069767,0.01062109345755819
-0.005491868779069767,0.01088440191959465
-0.005491528779069768,0.01085148836184015
-0.005491188779069767,0.009896995186957936
-0.005490848779069767,0.009469118936148692
-0.005490508779069768,0.008942502012075779
-0.005490168779069767,0.008613366434530208
-0.005489828779069767,0.008350057972493751
-0.005489488779069768,0.007955095279439066
-0.005489148779069767,0.008415885088002865
-0.005488808779069767,0.009205810474112236
-0.005488468779069768,0.009929908744712493
-0.005488128779069767,0.009995735860222085
-0.005487788779069767,0.01025904432225806
-0.005487448779069768,0.01035778499552173
-0.005487108779069767,0.01029195788001184
-0.005486768779069767,0.009864081629203377
-0.005486428779069768,0.008942502012075779
-0.005486088779069767,0.007494305470874129
-0.005485748779069767,0.006868947873538681
-0.005485408779069768,0.005947368256411082
-0.005485068779069767,0.005782800467639793
-0.005484728779069767,0.006605639411502225
-0.005484388779069768,0.007955095279439066
-0.005484048779069767,0.009008329127587408
-0.005483708779069767,0.01039069855327629
-0.005483368779069768,0.01180598153672225
-0.005483028779069767,0.01243133913405979
-0.005482688779069767,0.01295795605813175
-0.005482348779069768,0.0129908696158863
-0.005482008779069767,0.0130896102891492
-0.005481668779069767,0.01266173403834073
-0.005481328779069768,0.01243133913405883
-0.005480988779069767,0.01150975951692938
-0.005480648779069767,0.01048943922653996
-0.005480308779069768,0.01006156297573072
-0.005479968779069767,0.009600773167166501
-0.005479628779069767,0.009370378262885021
-0.005479288779069768,0.009798254513694264
-0.005478948779069768,0.01016030364899373
-0.005478608779069767,0.008415885088002865
-0.005478268779069768,0.002162309114637015
-0.005477928779069768,-0.01123350889144336
-0.005477588779069767,-0.03302228412498454
-0.005477248779069768,-0.06149251158267643
-0.005476908779069768,-0.09414276087513768
-0.005476568779069767,-0.1280437253623909
-0.005476228779069768,-0.1594432594602384
-0.005475888779069768,-0.1862348954723991
-0.005475548779069767,-0.2075299673396463
-0.005475208779069768,-0.2224068954447061
-0.005474868779069768,-0.2309315069031209
-0.005474528779069767,-0.2343874304673649
-0.005474188779069768,-0.2348811338336833
-0.005473848779069768,-0.2323138763288325
-0.005473508779069767,-0.2274755833389079
-0.005473168779069768,-0.2212878344810512
-0.005472828779069768,-0.2144418144681158
-0.005472488779069767,-0.2073653995508735
-0.005472148779069767,-0.2006510337689439
-0.005471808779069768,-0.193837927313763
-0.005471468779069767,-0.1872552157628392
-0.005471128779069767,-0.1805079364231549
-0.005470788779069768,-0.173694829967974
-0.005470448779069767,-0.1672437726480684
-0.005470108779069767,-0.1612205915789845
-0.005469768779069768,-0.1550986698366368
-0.005469428779069767,-0.1496021056916258
-0.005469088779069767,-0.1438422330845783
-0.005468748779069768,-0.1386089774016037
-0.005468408779069767,-0.1340339928737203
-0.005468068779069767,-0.1296894032501188
-0.005467728779069768,-0.1254764678575355
-0.005467388779069767,-0.121493927369234
-0.005467048779069767,-0.1176101275541963
-0.005466708779069768,-0.1133642786038584
-0.005466368779069767,-0.1086576398449475
-0.005466028779069767,-0.1035560383930004
-0.005465688779069768,-0.09838860982553496
-0.005465348779069767,-0.09315535414255152
-0.005465008779069767,-0.08828414759488593
-0.005464668779069768,-0.0838408172980207
-0.005464328779069767,-0.08025323950276794
-0.005463988779069767,-0.07692897016956371
-0.005463648779069768,-0.07488832958878117
-0.005463308779069767,-0.07241981275718502
-0.005462968779069767,-0.07001712304110672
-0.005462628779069768,-0.06761443332502406
-0.005462288779069767,-0.06557379274423739
-0.005461948779069767,-0.06330275725917708
-0.005461608779069768,-0.06063675908105794
-0.005461268779069767,-0.05876068628904352
-0.005460928779069767,-0.05619342878419274
-0.005460588779069768,-0.05339577637505538
-0.005460248779069767,-0.05033481550387654
-0.005459908779069767,-0.04757007665249877
-0.005459568779069768,-0.04572691741824358
-0.005459228779069767,-0.04339005481766679
-0.005458888779069767,-0.04161272269892394
-0.005458548779069768,-0.04009869904221431
-0.005458208779069767,-0.03878215673203017
-0.005457868779069767,-0.03776183644164076
-0.005457528779069768,-0.03654403480472215
-0.005457188779069768,-0.0358857636496322
-0.005456848779069767,-0.03509583826352163
-0.005456508779069768,-0.03351598749130289
-0.005456168779069768,-0.0322323587388775
-0.005455828779069767,-0.03055376729339275
-0.005455488779069768,-0.02933596565647414
-0.005455148779069768,-0.02851312671261171
-0.005454808779069767,-0.02765737421099173
-0.005454468779069768,-0.02597878276550931
-0.005454128779069768,-0.02453058622431143
-0.005453788779069767,-0.02301656256759917
-0.005453448779069768,-0.02133797112211676
-0.005453108779069768,-0.01979103390765539
-0.005452768779069767,-0.01850740515522485
-0.005452428779069768,-0.01709212217177889
-0.005452088779069768,-0.01587432053486249
-0.005451748779069767,-0.01462360534018711
-0.005451408779069768,-0.01291210033695014
-0.005451068779069768,-0.01139807668024327
-0.005450728779069767,-0.009686571677003543
-0.005450388779069767,-0.008238375135803031
-0.005450048779069768,-0.007448449749695098
-0.005449708779069767,-0.006625610805829733
-0.005449368779069767,-0.006296475228284162
-0.005449028779069768,-0.006493956574811145
-0.005448688779069767,-0.006493956574811504
-0.005448348779069767,-0.006592697248075176
-0.005448008779069768,-0.006296475228284162
-0.005447668779069767,-0.005506549842174791
-0.005447328779069767,-0.004222921089747064
-0.005446988779069768,-0.003005119452828451
-0.005446648779069767,-0.002182280508964523
-0.005446308779069767,-0.001293614449591481
-0.005445968779069768,-0.0005036890634821109
-0.005445628779069767,-0.0001745534859358813
-0.005445288779069767,0.0001874956493635883
-0.005444948779069768,2.292786059080275e-05
-0.005444608779069767,-0.0003720348324666365
-0.005444268779069767,-0.00188605848917351
-0.005443928779069768,-0.00369630416567415
-0.005443588779069767,-0.005341982053402424
-0.005443248779069767,-0.005572376957683906
-0.005442908779069768,-0.005736944746456691
-0.005442568779069767,-0.005309068495646252
-0.005442228779069767,-0.004650797340556306
-0.005441888779069768,-0.003597563492410479
-0.005441548779069767,-0.003202600799355375
-0.005441208779069767,-0.002972205895073894
-0.005440868779069768,-0.002972205895073894
-0.005440528779069767,-0.002906378779563582
-0.005440188779069767,-0.002248107624473638
-0.005439848779069768,-0.001161960218573253
-0.005439508779069767,-9.985697162137885e-06
-0.005439168779069767,0.0008786803622092876
-0.005438828779069768,0.001833173537091444
-0.005438488779069767,0.002425617576674789
-0.005438148779069767,0.003149715847273728
-0.005437808779069768,0.004005468348892213
-0.005437468779069767,0.004499171715209851
-0.005437128779069767,0.004104209022155884
-0.005436788779069768,0.003972554791137656
-0.005436448779069768,0.003643419213592684
-0.005436108779069767,0.003347197193801071
-0.005435768779069768,0.004334603926437783
-0.005435428779069768,0.005025788639282226
-0.005435088779069767,0.006342330949465767
-0.005434748779069768,0.006572725853747667
-0.005434408779069768,0.006836034315783645
-0.005434068779069767,0.007296824124347924
-0.005433728779069768,0.007658873259648051
-0.005433388779069768,0.007593046144139057
-0.005433048779069767,0.008481712203511979
-0.005432708779069768,0.008514625761266537
-0.005432368779069768,0.008909588454320504
-0.005432028779069767,0.009436205378394135
-0.005431688779069768,0.009403291820639578
-0.005431348779069768,0.008975415569831115
-0.005431008779069767,0.008086749510457293
-0.005430668779069768,0.006737293642520453
-0.005430328779069768,0.005453664890095061
-0.005429988779069767,0.004301690368683227
-0.005429648779069767,0.003215542962782842
-0.005429308779069768,0.002919320942992367
-0.005428968779069767,0.003248456520537399
-0.005428628779069767,0.004104209022155884
-0.005428288779069768,0.005190356428054293
-0.005427948779069767,0.006046108929674754
-0.005427608779069767,0.006836034315784124
-0.005427268779069768,0.008350057972493751
-0.005426928779069767,0.009074156243094007
-0.005426588779069767,0.009469118936148692
-0.005426248779069768,0.009008329127584893
-0.005425908779069767,0.009205810474112236
-0.005425568779069767,0.008481712203511979
-0.005425228779069768,0.008382971530248308
-0.005424888779069767,0.00779052749066628
-0.005424548779069767,0.007593046144138938
-0.005424208779069768,0.007362651239857037
-0.005423868779069767,0.006967688546801933
-0.005423528779069767,0.006737293642520453
-0.005423188779069768,0.006967688546802352
-0.005422848779069767,0.007593046144139716
-0.005422508779069767,0.00802092239494818
-0.005422168779069768,0.008350057972493751
-0.005421828779069767,0.009205810474112775
-0.005421488779069767,0.00950203249390325
-0.005421148779069768,0.009666600282676035
-0.005420808779069767,0.009469118936148692
-0.005420468779069767,0.009469118936148692
-0.005420128779069768,0.009205810474112236
-0.005419788779069767,0.009633686724922076
-0.005419448779069767,0.009962822302467049
-0.005419108779069768,0.01045652566878541
-0.005418768779069767,0.01029195788001256
-0.005418428779069767,0.01025904432225806
-0.005418088779069768,0.009600773167166921
-0.005417748779069767,0.00927163758962087
-0.005417408779069767,0.009008329127584893
-0.005417068779069768,0.009403291820639578
-0.005416728779069767,0.009732427398186586
-0.005416388779069767,0.01052235278429452
-0.005416048779069768,0.01144393240142212
-0.005415708779069767,0.01045652566878678
-0.005415368779069767,0.01121353749714022
-0.005415028779069768,0.01068692057306731
-0.005414688779069768,0.0107198341308218
-0.005414348779069767,0.01022613076450351
