Analysis/New Tests_CMB/wrd01_d2s01/cmb01_ch14.csv

#Digilent WaveForms Oscilloscope Acquisition
#Device Name: ADP3450
#Serial Number: SN:210018B9D9B0
#Date Time: 2024-08-06 15:05:50.723.494.840
#Sample rate: 2.94118e+06Hz
#Samples: 32768
#Trigger: Source: Channel 3 Type: Edge Condition: Rising Level: 80 mV Hyst.: Auto HoldOff: 0 s
#Channel 3: Range: 200 mV/div Offset: 0 V Attenuation: 1 X Coupling: DC Bandwidth: 0 Hz Sample Mode: Average

Time (s),Channel 3 (V)
-0.005570461007838747,0.006836034315784124
-0.005570121007838746,0.007362651239858834
-0.005569781007838746,0.008350057972493751
-0.005569441007838747,0.01016030364899439
-0.005569101007838746,0.008613366434531883
-0.005568761007838746,0.009534946051657807
-0.005568421007838747,0.01012739009123984
-0.005568081007838746,0.01095022903510119
-0.005567741007838746,0.009534946051657807
-0.005567401007838747,0.007856354606175394
-0.005567061007838746,0.00759304614413804
-0.005566721007838746,0.007099342777820581
-0.005566381007838747,0.005124529312547154
-0.005566041007838746,-0.0004049483902076631
-0.005565701007838746,0.005519492005601839
-0.005565361007838747,0.007494305470875266
-0.005565021007838746,0.007560132586382105
-0.005564681007838746,0.00630941739171121
-0.005564341007838747,0.002096481999127901
-0.005564001007838746,0.003413024309310664
-0.005563661007838746,0.003676332771346642
-0.005563321007838747,0.003413024309310185
-0.005562981007838747,0.002557271807693256
-0.005562641007838746,0.001339470170773087
-0.005562301007838747,0.002359790461164357
-0.005561961007838747,0.00137238372852944
-0.005561621007838746,0.0004837176691546022
-0.005561281007838747,0.0005824583424182735
-0.005560941007838747,-0.001194873776324577
-0.005560601007838746,0.0003849769958909309
-0.005560261007838747,5.584141834535986e-05
-0.005559921007838747,0.0002533227648723432
-0.005559581007838746,-0.0004049483902184396
-0.005559241007838747,0.0007470261311910591
-0.005558901007838747,0.001273643055263015
-0.005558561007838746,-0.0003062077169547683
-0.005558221007838746,-0.0008657381987822392
-0.005557881007838747,-0.001260700891836206
-0.005557541007838746,-0.003795044838937822
-0.005557201007838746,-0.004190007531992507
-0.005556861007838747,-0.003729217723429546
-0.005556521007838746,-0.00415709397423795
-0.005556181007838746,-0.004058353300974278
-0.005555841007838747,-0.007283881960915008
-0.005555501007838746,-0.00415709397423795
-0.005555161007838746,-0.002050626277946295
-0.005554821007838747,-0.001787317815910317
-0.005554481007838746,-0.0001087263704274257
-0.005554141007838746,-0.00665852436358429
-0.005553801007838747,-0.008468770040084931
-0.005553461007838746,-0.006000253208493148
-0.005553121007838746,-0.005671117630947577
-0.005552781007838747,-0.005440722726665677
-0.005552441007838746,-0.004979932918101878
-0.005552101007838746,-0.003992526185465165
-0.005551761007838747,-0.001984799162437181
-0.005551421007838746,-0.001161960218573612
-0.005551081007838746,-0.001359441565100596
-0.005550741007838747,-0.001293614449591481
-0.005550401007838746,-0.001161960218573133
-0.005550061007838746,-0.001096133103064139
-0.005549721007838747,-0.001129046660818696
-0.005549381007838746,0.0001216685338537556
-0.005549041007838746,-0.0002732941592002112
-0.005548701007838747,0.000417890553645488
-0.005548361007838746,0.001043248150980457
-0.005548021007838746,0.0001545820916090312
-0.005547681007838747,-0.0002732941592002112
-0.005547341007838746,-0.0004707755057282124
-0.005547001007838746,-0.000832824641027682
-0.005546661007838747,-0.001820231373664395
-0.005546321007838746,-0.001688577142648562
-0.005545981007838746,-0.003005119452828451
-0.005545641007838747,-0.004519143109538078
-0.005545301007838746,-0.009818225908009978
-0.005544961007838746,-0.003334255030374022
-0.005544621007838747,-0.00438748887851985
-0.005544281007838746,-0.00435457532076194
-0.005543941007838746,-0.002511416086510094
-0.005543601007838747,-0.007020573498884419
-0.005543261007838746,-0.008040893789267966
-0.005542921007838746,-0.003795044838937822
-0.005542581007838747,-0.004782451571574535
-0.005542241007838747,-0.006000253208490933
-0.005541901007838746,-0.00517741426462922
-0.005541561007838747,-0.005506549842174791
-0.005541221007838747,-0.006790178594600183
-0.005540881007838746,-0.00767884465397556
-0.005540541007838747,-0.008337115809066702
-0.005540201007838747,-0.009258695426192625
-0.005539861007838746,-0.007448449749693661
-0.005539521007838747,-0.008007980231521132
-0.005539181007838747,-0.008962473406401552
-0.005538841007838746,-0.006428129459302391
-0.005538501007838747,-0.006131907439511376
-0.005538161007838747,-0.006131907439511376
-0.005537821007838746,-0.004453315994028964
-0.005537481007838746,-0.004519143109538078
-0.005537141007838747,-0.003498822819148663
-0.005536801007838746,-0.002610156759773766
-0.005536461007838746,-0.003564649934655922
-0.005536121007838747,-0.006033166766243214
-0.005535781007838746,-0.004782451571574535
-0.005535441007838746,-0.005835685419720362
-0.005535101007838747,-0.009653658119242042
-0.005534761007838746,-0.01327414947225027
-0.005534421007838746,-0.006724351479093405
-0.005534081007838747,-0.005473636284422509
-0.005533741007838746,-0.004881192244838206
-0.005533401007838746,-0.006230648112775047
-0.005533061007838747,-0.007086400614393532
-0.005532721007838746,-0.005802771861965805
-0.005532381007838746,-0.008402942924575817
-0.005532041007838747,-0.009785312350267215
-0.005531701007838746,-0.01073980552514937
-0.005531361007838746,-0.008468770040084931
-0.005531021007838747,-0.006856005710111633
-0.005530681007838746,-0.006098993881756819
-0.005530341007838746,-0.00517741426462922
-0.005530001007838747,-0.003169687241601236
-0.005529661007838746,-0.004321661763009238
-0.005529321007838746,-0.003498822819146808
-0.005528981007838747,-0.004848278687083649
-0.005528641007838746,-0.004683710898309906
-0.005528301007838746,-0.00415709397423795
-0.005527961007838747,-0.003860871954446936
-0.005527621007838746,-0.003959612627711325
-0.005527281007838746,-0.004354575320765292
-0.005526941007838747,-0.004716624456065421
-0.005526601007838746,-0.005671117630949373
-0.005526261007838746,-0.00665852436358429
-0.005525921007838747,-0.007580103980711889
-0.005525581007838746,-0.007744671769481981
-0.005525241007838746,-0.006263561670529605
-0.005524901007838747,-0.007283881960920875
-0.005524561007838746,-0.01268170543266417
-0.005524221007838746,-0.01044358350535836
-0.005523881007838747,-0.006395215901547833
-0.005523541007838746,-0.01054232417863676
-0.005523201007838746,-0.01863905938624308
-0.005522861007838747,-0.03999995836895064
-0.005522521007838746,-0.06093298110089524
-0.005522181007838746,-0.0863751612451216
-0.005521841007838747,-0.1166556343793141
-0.005521501007838746,-0.152301017427557
-0.005521161007838746,-0.1838980328718743
-0.005520821007838747,-0.2083198927257557
-0.005520481007838747,-0.2320834814245027
-0.005520141007838746,-0.2509758635756617
-0.005519801007838747,-0.2618702511924201
-0.005519461007838747,-0.2661161001427503
-0.005519121007838746,-0.2681896542812951
-0.005518781007838747,-0.26670854418234
-0.005518441007838747,-0.2618373376346744
-0.005518101007838746,-0.2543659600243811
-0.005517761007838747,-0.2475857671269423
-0.005517421007838747,-0.2405093522097254
-0.005517081007838746,-0.2339924677743102
-0.005516741007838746,-0.2271135342036078
-0.005516401007838747,-0.2188193176494745
-0.005516061007838746,-0.2123024332140571
-0.005515721007838746,-0.2048639691615272
-0.005515381007838747,-0.1975900728977833
-0.005515041007838746,-0.1905794850960494
-0.005514701007838746,-0.1827131447927103
-0.005514361007838747,-0.1756696434332479
-0.005514021007838746,-0.1736619164102071
-0.005513681007838746,-0.1676058217833686
-0.005513341007838747,-0.1553948918564501
-0.005513001007838746,-0.149437537902853
-0.005512661007838746,-0.1443688500086512
-0.005512321007838747,-0.1435130975070328
-0.005511981007838746,-0.1398926061540315
-0.005511641007838746,-0.1323554014282379
-0.005511301007838747,-0.1278462440158636
-0.005510961007838746,-0.1254435542997809
-0.005510621007838746,-0.1207698290986338
-0.005510281007838747,-0.1167214614948233
-0.005509941007838746,-0.1130351430263129
-0.005509601007838746,-0.1103362312904392
-0.005509261007838747,-0.1060903823401013
-0.005508921007838746,-0.1009887808881368
-0.005508581007838746,-0.09651253703352519
-0.005508241007838747,-0.09213503385216909
-0.005507901007838746,-0.08808666624835383
-0.005507561007838746,-0.08548649518574855
-0.005507221007838747,-0.08226096652580198
-0.005506881007838746,-0.07880504296156977
-0.005506541007838746,-0.07676440238079094
-0.005506201007838747,-0.07531620583959042
-0.005505861007838746,-0.07143240602454938
-0.005505521007838746,-0.06962216034805205
-0.005505181007838747,-0.06807522313358785
-0.005504841007838746,-0.06491552158914571
-0.005504501007838746,-0.06234826408429492
-0.005504161007838747,-0.06047219129228516
-0.005503821007838746,-0.05991266081046092
-0.005503481007838746,-0.06168999292920378
-0.005503141007838747,-0.05260585098894601
-0.005502801007838746,-0.04931449521348647
-0.005502461007838746,-0.04720802751719864
-0.005502121007838747,-0.04829417492309903
-0.005501781007838746,-0.04951197656001183
-0.005501441007838746,-0.04631936145782561
-0.005501101007838747,-0.04299509212461534
-0.005500761007838746,-0.04302800568236768
-0.005500421007838746,-0.04181020404545128
-0.005500081007838747,-0.03914420586733215
-0.005499741007838747,-0.03766309576837978
-0.005499401007838746,-0.0342729993196577
-0.005499061007838747,-0.0342729993196577
-0.005498721007838747,-0.03318685191375929
-0.005498381007838746,-0.03187030960357504
-0.005498041007838747,-0.03061959440890186
-0.005497701007838747,-0.03012589104258441
-0.005497361007838746,-0.03160700114153858
-0.005497021007838747,-0.02966510123401971
-0.005496681007838747,-0.03045502662012764
-0.005496341007838746,-0.02788776911527362
-0.005496001007838747,-0.02887517584791034
-0.005495661007838747,-0.02821690469282039
-0.005495321007838746,-0.02673579459386412
-0.005494981007838746,-0.02571547430347286
-0.005494641007838747,-0.0264066590163173
-0.005494301007838746,-0.02551799295694551
-0.005493961007838746,-0.024069796415745
-0.005493621007838747,-0.02390522862697251
-0.005493281007838746,-0.02650539968958223
-0.005492941007838746,-0.02663705392060045
-0.005492601007838747,-0.01979103390766503
-0.005492261007838746,-0.01870488650175219
-0.005491921007838746,-0.01745417130707902
-0.005491581007838747,-0.02058095929375626
-0.005491241007838746,-0.02166710669966233
-0.005490901007838746,-0.01742125774932446
-0.005490561007838747,-0.01913276275256143
-0.005490221007838746,-0.01801370178890649
-0.005489881007838746,-0.01547935784180559
-0.005489541007838747,-0.01465651889794167
-0.005489201007838746,-0.01452486466692344
-0.005488861007838746,-0.01301084101021381
-0.005488521007838747,-0.01360328504979584
-0.005488181007838746,-0.01373493928081562
-0.005487841007838746,-0.01459069178243255
-0.005487501007838747,-0.01465651889794167
-0.005487161007838746,-0.006395215901562082
-0.005486821007838746,-0.01422864264713243
-0.005486481007838747,-0.01518313582201458
-0.005486141007838746,-0.01353745793428469
-0.005485801007838746,-0.01241839697063178
-0.005485461007838747,-0.01278044610593191
-0.005485121007838746,-0.01241839697063017
-0.005484781007838746,-0.01152973091125874
-0.005484441007838747,-0.0106410648518857
-0.005484101007838746,-0.01106894110269069
-0.005483761007838746,-0.008732078502121389
-0.005483421007838747,-0.007152227729902647
-0.005483081007838746,-0.009258695426200707
-0.005482741007838746,-0.01278044610593191
-0.005482401007838747,-0.005309068495647449
-0.005482061007838746,-0.004749538013820995
-0.005481721007838746,-0.005309068495647449
-0.005481381007838747,-0.004683710898310864
-0.005481041007838746,-0.01004862081230601
-0.005480701007838746,-0.0113322495647314
-0.005480361007838747,-0.009225781868439744
-0.005480021007838746,-0.009818225908021653
-0.005479681007838746,-0.009752398792512659
-0.005479341007838747,-0.009719485234758102
-0.005479001007838747,-0.01083854619841101
-0.005478661007838746,-0.01113476821820406
-0.005478321007838747,-0.01083854619841304
-0.005477981007838747,-0.009851139465778124
-0.005477641007838746,-0.0111018546604495
-0.005477301007838747,-0.01047649706311291
-0.005476961007838747,-0.01057523773637641
-0.005476621007838746,-0.01116768177595861
-0.005476281007838747,-0.0101802750433219
-0.005475941007838747,-0.01077271908290285
-0.005475601007838746,-0.01034484283209469
-0.005475261007838747,-0.01034484283209469
-0.005474921007838747,-0.007942153116016388
-0.005474581007838746,-0.00790923955825746
-0.005474241007838746,-0.008567510713348603
-0.005473901007838747,-0.006987659941132734
-0.005473561007838746,-0.007020573498884419
-0.005473221007838746,-0.007843412442748346
-0.005472881007838747,-0.006954746383376921
-0.005472541007838746,-0.0101802750433219
-0.005472201007838746,-0.0129450138947047
-0.005471861007838747,-0.003103860126110023
-0.005471521007838746,-0.005144500706874663
-0.005471181007838746,-0.01097020042943127
-0.005470841007838747,-0.006658524363592133
-0.005470501007838746,-0.004288748205256179
-0.005470161007838746,-0.006954746383375304
-0.005469821007838747,-0.006987659941129861
-0.005469481007838746,-0.005769858304211248
-0.005469141007838746,-0.005440722726665677
-0.005468801007838747,-0.005736944746456691
-0.005468461007838746,-0.00540780916891112
-0.005468121007838746,-0.004782451571574535
-0.005467781007838747,-0.003597563492410479
-0.005467441007838746,-0.00313677368384668
-0.005467101007838746,-0.003070946568337565
-0.005466761007838747,-0.002840551664055666
-0.005466421007838746,-0.004255834647500544
-0.005466081007838746,-0.003663390607919593
-0.005465741007838747,-0.003235514357110351
-0.005465401007838746,-0.004486229551786514
-0.005465061007838746,-0.006131907439511376
-0.005464721007838747,-0.006362302343793276
-0.005464381007838746,-0.005012846475857572
-0.005464041007838746,-0.005638204073193019
-0.005463701007838747,-0.007218054845411761
-0.005463361007838746,-0.006329388786038599
-0.005463021007838746,-0.006263561670529605
-0.005462681007838747,-0.005539463399929348
-0.005462341007838746,-0.005572376957686719
-0.005462001007838746,-0.00711931417214809
-0.005461661007838747,-0.006098993881756819
-0.005461321007838746,-0.002149366951210924
-0.005460981007838746,-0.00267598387528288
-0.005460641007838747,-0.001260700891836924
-0.005460301007838746,-0.005012846475859368
-0.005459961007838746,-0.006625610805829733
-0.005459621007838747,-0.005736944746456691
-0.005459281007838746,-0.004815365129331606
-0.005458941007838746,-0.00619773455502049
-0.005458601007838747,-0.007086400614393532
-0.005458261007838746,-0.006164820997263838
-0.005457921007838746,-0.005012846475856435
-0.005457581007838747,-0.00665852436358429
-0.005457241007838747,-0.007843412442746191
-0.005456901007838746,-0.006296475228284162
-0.005456561007838747,-0.007876326000502903
-0.005456221007838747,-0.009028300521910306
-0.005455881007838746,-0.00790923955825746
-0.005455541007838747,-0.007547190422957332
-0.005455201007838747,-0.007645931096220824
-0.005454861007838746,-0.00711931417214809
-0.005454521007838747,-0.006230648112775047
-0.005454181007838747,-0.006066080324002561
-0.005453841007838746,-0.004222921089747064
-0.005453501007838747,-0.004486229551783521
-0.005453161007838747,-0.004387488878520029
-0.005452821007838746,-0.002972205895073894
-0.005452481007838746,-0.003103860126092122
-0.005452141007838747,-0.003005119452828631
-0.005451801007838746,-0.002017712720191738
-0.005451461007838746,-0.007185141287657204
-0.005451121007838747,-0.001787317815919657
-0.005450781007838746,-0.001227787334082367
-0.005450441007838746,-0.0002403806014456541
-0.005450101007838747,-0.003992526185458339
-0.005449761007838746,-0.009686571677003543
-0.005449421007838746,-0.007711758211730118
-0.005449081007838747,-0.005440722726669808
-0.005448741007838746,-0.005934426092984033
-0.005448401007838746,-0.006987659941129861
-0.005448061007838747,-0.004979932918101878
-0.005447721007838746,-0.004617883782801749
-0.005447381007838746,-0.00336716858812858
-0.005447041007838747,-0.004782451571574535
-0.005446701007838746,-0.005341982053402005
-0.005446361007838746,-0.004288748205256179
-0.005446021007838747,-0.006098993881756819
-0.005445681007838746,-0.007185141287654928
-0.005445341007838746,-0.005934426092984033
-0.005445001007838747,-0.007942153116012016
-0.005444661007838746,-0.006296475228282965
-0.005444321007838746,-0.005638204073193019
-0.005443981007838747,-0.004815365129329092
-0.005443641007838746,-0.004881192244837967
-0.005443301007838746,-0.004749538013819977
-0.005442961007838747,-0.005506549842174791
-0.005442621007838746,-0.00606608032400304
-0.005442281007838746,-0.006493956574811504
-0.005441941007838747,-0.006856005710111633
-0.005441601007838746,-0.0006353432945183002
-0.005441261007838746,-0.01050941062086747
-0.005440921007838747,-0.01097020042943127
-0.005440581007838746,-0.00662561080583087
-0.005440241007838746,-0.007250968403166318
-0.005439901007838747,-0.003729217723428708
-0.005439561007838746,-0.007349709076435976
-0.005439221007838746,-0.0106410648518857
-0.005438881007838747,-0.00494701936034732
-0.005438541007838746,-0.00399252618546738
-0.005438201007838746,-0.005210327822383777
-0.005437861007838747,-0.004486229551783521
-0.005437521007838746,-0.003729217723431042
-0.005437181007838746,-0.005012846475856435
-0.005436841007838747,-0.004683710898310864
-0.005436501007838747,-0.00616482099726324
-0.005436161007838746,-0.007185141287657204
-0.005435821007838747,-0.006790178594602518
-0.005435481007838747,-0.007349709076428972
-0.005435141007838746,-0.006823092152357076
-0.005434801007838747,-0.00790923955825746
-0.005434461007838747,-0.007283881960922013
-0.005434121007838746,-0.006296475228284162
-0.005433781007838747,-0.006329388786038719
-0.005433441007838747,-0.008040893789272575
-0.005433101007838746,-0.009159954752930631
-0.005432761007838747,-0.009061214079666959
-0.005432421007838747,-0.007283881960924108
-0.005432081007838746,-0.007975066673766575
-0.005431741007838746,-0.01011444792781279
-0.005431401007838747,-0.008304202251315437
-0.005431061007838746,-0.007645931096221003
-0.005430721007838746,-0.008896646290894173
-0.005430381007838747,-0.009258695426193642
-0.005430041007838746,-0.001524009353873381
-0.005429701007838746,0.000714112573436502
-0.005429361007838747,0.003347197193796281
-0.005429021007838746,0.0003849769958909309
-0.005428681007838746,-0.003564649934655922
-0.005428341007838747,-0.0003062077169606954
-0.005428001007838746,0.0007470261311910591
-0.005427661007838746,-0.003827958396692379
-0.005427321007838747,-0.004288748205256179
-0.005426981007838746,-0.005012846475856435
-0.005426641007838746,-0.005967339650738591
-0.005426301007838747,-0.006428129459302391
-0.005425961007838746,-0.007250968403166318
-0.005425621007838746,-0.007942153116012016
-0.005425281007838747,-0.008238375135803031
-0.005424941007838746,-0.008205461578048474
-0.005424601007838746,-0.008534597155594046
-0.005424261007838747,-0.009489090330476201
-0.005423921007838746,-0.009258695426189812
-0.005423581007838746,-0.006790178594602518
-0.005423241007838747,-0.00619773455502049
-0.005422901007838746,-0.006987659941131058
-0.005422561007838746,-0.007645931096221003
-0.005422221007838747,-0.006856005710111633
-0.005421881007838746,-0.005276154937897023
-0.005421541007838746,-0.007547190422957332
-0.005421201007838747,-0.009456176772721644
-0.005420861007838746,-0.008238375135804348
-0.005420521007838746,-0.008962473406403288
-0.005420181007838747,-0.01320832235674115
-0.005419841007838746,-0.00544072272666412
-0.005419501007838746,-0.004584970225047193
-0.005419161007838747,-0.003465909261392251
-0.005418821007838746,-0.002939292337327838
-0.005418481007838746,-0.007613017538466446
-0.005418141007838747,-0.007448449749693661
-0.005417801007838746,-0.005374895611159496
