Analysis/New Tests_CMB/wrd01_d2s01/cmb03_ch42.csv

#Digilent WaveForms Oscilloscope Acquisition
#Device Name: ADP3450
#Serial Number: SN:210018B9D9B0
#Date Time: 2024-08-06 11:21:05.612.692.960
#Sample rate: 5.88235e+06Hz
#Samples: 32768
#Trigger: Source: Channel 3 Type: Edge Condition: Rising Level: 20 mV Hyst.: Auto HoldOff: 0 s
#Channel 3: Range: 200 mV/div Offset: 0 V Attenuation: 1 X Coupling: DC Bandwidth: 0 Hz Sample Mode: Average

Time (s),Channel 3 (V)
-0.00278518125748503,0.1021536975729815
-0.00278501125748503,0.1007384145895321
-0.00278484125748503,0.09882942823977123
-0.00278467125748503,0.09754579948734352
-0.00278450125748503,0.09606468938838575
-0.00278433125748503,0.09458357928943337
-0.00278416125748503,0.09290498784395096
-0.00278399125748503,0.09158844553376563
-0.00278382125748503,0.08990985408828625
-0.00278365125748503,0.08859331177810398
-0.00278348125748503,0.08714511523690137
-0.00278331125748503,0.08599314071549397
-0.00278314125748503,0.08490699330959359
-0.00278297125748503,0.0834258832106366
-0.00278280125748503,0.08237264936249269
-0.00278263125748503,0.0812206748410832
-0.00278246125748503,0.080134527435181
-0.00278229125748503,0.07914712070254609
-0.00278212125748503,0.07809388685440027
-0.00278195125748503,0.07661277675544316
-0.00278178125748503,0.07549371579179026
-0.00278161125748503,0.07404551925058975
-0.00278144125748503,0.07292645828693685
-0.00278127125748503,0.07160991597675251
-0.00278110125748503,0.07058959568636125
-0.00278093125748503,0.06891100424088187
-0.00278076125748503,0.06766028904620566
-0.00278059125748503,0.06614626538949603
-0.00278042125748503,0.06496137731033412
-0.00278025125748503,0.06344735365362233
-0.00278008125748503,0.06216372490119462
-0.00277991125748503,0.06130797239957769
-0.00277974125748503,0.06012308432041208
-0.00277957125748503,0.05883945556798435
-0.00277940125748503,0.05745708614229546
-0.00277923125748503,0.05574558113905598
-0.00277906125748503,0.05429738459785547
-0.00277889125748503,0.0527175338256396
-0.00277872125748503,0.05149973218871812
-0.00277855125748503,0.05067689324485419
-0.00277838125748503,0.04978822718548277
-0.00277821125748503,0.04870207977958076
-0.00277804125748503,0.04827420352877152
-0.00277787125748503,0.0474513645849091
-0.00277770125748503,0.04715514256511658
-0.00277753125748503,0.04682600698757101
-0.00277736125748503,0.04633230362125355
-0.00277719125748503,0.04633230362125265
-0.00277702125748503,0.04564111890840696
-0.00277685125748503,0.04573985958167062
-0.00277668125748503,0.04570694602391607
-0.00277651125748503,0.0458386002549343
-0.00277634125748503,0.04537781044637049
-0.00277617125748503,0.04504867486882493
-0.00277600125748503,0.04537781044637049
-0.00277583125748503,0.04478536640678847
-0.00277566125748503,0.04425874948271562
-0.00277549125748503,0.04429166304047012
-0.00277532125748503,0.0437650461163972
-0.00277515125748503,0.04330425630783226
-0.00277498125748503,0.04267889871049681
-0.00277481125748503,0.0421522817864239
-0.00277464125748503,0.04142818351582184
-0.00277447125748503,0.04044077678318693
-0.00277430125748503,0.03994707341686857
-0.00277413125748503,0.03892675312647658
-0.00277396125748503,0.03853179043342262
-0.00277379125748503,0.03787351927833148
-0.00277362125748503,0.03695193966120298
-0.00277345125748503,0.03645823629488552
-0.00277328125748503,0.03589870581305805
-0.00277311125748503,0.03550374312000205
-0.00277294125748503,0.03477964484940311
-0.00277277125748503,0.03412137369431197
-0.00277260125748503,0.03372641100125669
-0.00277243125748503,0.03339727542371171
-0.00277226125748503,0.03300231273065703
-0.00277209125748503,0.03296939917290187
-0.00277192125748503,0.0326402635953569
-0.00277175125748503,0.03194907888251119
-0.00277158125748503,0.03129080772741945
-0.00277141125748503,0.03096167214987448
-0.00277124125748503,0.03069836368783803
-0.00277107125748503,0.03020466032152057
-0.00277090125748503,0.03013883320601056
-0.00277073125748503,0.02974387051295587
-0.00277056125748503,0.0293818213776564
-0.00277039125748503,0.02925016714663752
-0.00277022125748503,0.02928308070439207
-0.00277005125748503,0.02957930272418255
-0.00276988125748503,0.02948056205091941
-0.00276971125748503,0.02961221628193764
-0.00276954125748503,0.02944764849316515
-0.00276937125748503,0.02957930272418309
-0.00276920125748503,0.02994135185948321
-0.00276903125748503,0.02961221628193824
-0.00276886125748503,0.02934890781990119
-0.00276869125748503,0.02905268580011017
-0.00276852125748503,0.02905268580011017
-0.00276835125748503,0.02885520445358283
-0.00276818125748503,0.02816401974073713
-0.00276801125748503,0.02714369945034771
-0.00276784125748503,0.02628794694872737
-0.00276767125748503,0.02546510800486345
-0.00276750125748503,0.0248068368497735
-0.00276733125748503,0.02424730636794483
-0.00276716125748503,0.02362194877060825
-0.00276699125748503,0.0229965911732728
-0.00276682125748503,0.02214083867165318
-0.00276665125748503,0.02168004886308938
-0.00276648125748503,0.02118634549677102
-0.00276631125748503,0.02079138280371634
-0.00276614125748503,0.02065972857269811
-0.00276597125748503,0.02046224722617077
-0.00276580125748503,0.02023185232188887
-0.00276563125748503,0.01957358116679772
-0.00276546125748503,0.01940901337802494
-0.00276529125748503,0.01907987780047937
-0.00276512125748503,0.01924444558925215
-0.00276495125748503,0.01937609982027038
-0.00276478125748503,0.01931027270476121
-0.00276461125748503,0.01927735914700671
-0.00276444125748503,0.01963940828230684
-0.00276427125748503,0.01931027270476115
-0.00276410125748503,0.01924444558925215
-0.00276393125748503,0.01960649472455228
-0.00276376125748503,0.01967232184006193
-0.00276359125748503,0.01996854385985241
-0.00276342125748503,0.01980397607107963
-0.00276325125748503,0.01950775405128807
-0.00276308125748503,0.0192115320314976
-0.00276291125748503,0.01917861847374304
-0.00276274125748503,0.01888239645395244
-0.00276257125748503,0.01911279135823393
-0.00276240125748503,0.01845452020314278
-0.00276223125748503,0.01828995241436964
-0.00276206125748503,0.01809247106784265
-0.00276189125748503,0.01773042193254253
-0.00276172125748503,0.01756585414376902
-0.00276155125748503,0.01717089145071506
-0.00276138125748503,0.0178291626058062
-0.00276121125748503,0.01700632366194275
-0.00276104125748503,0.01726963212397873
-0.00276087125748503,0.01740128635499695
-0.00276070125748503,0.01763168125927927
-0.00276053125748503,0.01786207616356076
-0.00276036125748503,0.01786207616356076
-0.00276019125748503,0.01822412529886023
-0.00276002125748503,0.01822412529886088
-0.00275985125748503,0.01789498972131531
-0.00275968125748503,0.01763168125927933
-0.00275951125748503,0.01723671856622417
-0.00275934125748503,0.01700632366194227
-0.00275917125748503,0.01687466943092428
-0.00275900125748503,0.01647970673786936
-0.00275883125748503,0.01605183048706011
-0.00275866125748503,0.01605183048706011
-0.00275849125748503,0.01549230000523264
-0.00275832125748503,0.0152948186587053
-0.00275815125748503,0.01509733731217832
-0.00275798125748503,0.01516316442768707
-0.00275781125748503,0.01466946106136872
-0.00275764125748503,0.01450489327259623
-0.00275747125748503,0.01420867125280492
-0.00275730125748503,0.01420867125280492
-0.00275713125748503,0.01463654750361338
-0.00275696125748503,0.01466946106136872
-0.00275679125748503,0.01526190510095074
-0.00275662125748503,0.01549230000523222
-0.00275645125748503,0.01565686779400543
-0.00275628125748503,0.01605183048706011
-0.00275611125748503,0.01585434914053277
-0.00275594125748503,0.01628222539134202
-0.00275577125748503,0.01641387962236024
-0.00275560125748503,0.01657844741113303
-0.00275543125748503,0.01697341010418771
-0.00275526125748503,0.01703923721969683
-0.00275509125748503,0.01733545923948784
-0.00275492125748503,0.01740128635499695
-0.00275475125748503,0.01763168125927886
-0.00275458125748503,0.01809247106784265
-0.00275441125748503,0.01828995241436904
-0.00275424125748503,0.01776333549029708
-0.00275407125748503,0.0178291626058062
-0.00275390125748503,0.01730254568173215
-0.00275373125748503,0.0166771880843967
-0.00275356125748503,0.01654553385337847
-0.00275339125748503,0.01598600337155064
-0.00275322125748503,0.01578852202502366
-0.00275305125748503,0.01526190510095074
-0.00275288125748503,0.01450489327259431
-0.00275271125748503,0.01361622721322289
-0.00275254125748503,0.01325417807792276
-0.00275237125748503,0.01246425269181249
-0.00275220125748503,0.01197054932549503
-0.00275203125748503,0.01154267307468579
-0.00275186125748503,0.0112793646126485
-0.00275169125748503,0.01081857480408553
-0.00275152125748503,0.01081857480408553
-0.00275135125748503,0.01088440191959435
-0.00275118125748503,0.01071983413082186
-0.00275101125748503,0.01085148836184009
-0.00275084125748503,0.01108188326612193
-0.00275067125748503,0.01104896970836743
-0.00275050125748503,0.01111479682387655
-0.00275033125748503,0.0112464510548952
-0.00275016125748503,0.01147684595917668
-0.00274999125748503,0.01150975951693123
-0.00274982125748503,0.01144393240142224
-0.00274965125748503,0.01111479682387655
-0.00274948125748503,0.01131227817040389
-0.00274931125748503,0.0111806239393859
-0.00274914125748503,0.01085148836184009
-0.00274897125748503,0.01078566124633098
-0.00274880125748503,0.01081857480408547
-0.00274863125748503,0.01121353749714022
-0.00274846125748503,0.011378105285913
-0.00274829125748503,0.011443932401422
-0.00274812125748503,0.0118388950944768
-0.00274795125748503,0.01203637644100415
-0.00274778125748503,0.01236551201854912
-0.00274761125748503,0.0122996849030406
-0.00274744125748503,0.01233259846079516
-0.00274727125748503,0.01216803067202268
-0.00274710125748503,0.01226677134528605
-0.00274693125748503,0.01243133913405883
-0.00274676125748503,0.01210220355651386
-0.00274659125748503,0.01210220355651326
-0.00274642125748503,0.0118388950944768
-0.00274625125748503,0.01200346288324929
-0.00274608125748503,0.01154267307468579
-0.00274591125748503,0.01141101884366756
-0.00274574125748503,0.01104896970836809
-0.00274557125748503,0.01068692057306731
-0.00274540125748503,0.009962822302467049
-0.00274523125748503,0.01002864941797616
-0.00274506125748503,0.00973242739818515
-0.00274489125748503,0.009864081629203377
-0.00274472125748503,0.009896995186957936
-0.00274455125748503,0.009534946051657807
-0.00274438125748503,0.009534946051657807
-0.00274421125748503,0.009633686724921478
-0.00274404125748503,0.01016030364899517
-0.00274387125748503,0.01058817989980363
-0.00274370125748503,0.01085148836184009
-0.00274353125748503,0.0111477103816323
-0.00274336125748503,0.01180598153672225
-0.00274319125748503,0.0122996849030406
-0.00274302125748503,0.01305669673139596
-0.00274285125748503,0.01335291875118643
-0.00274268125748503,0.01374788144424112
-0.00274251125748503,0.01424158481056043
-0.00274234125748503,0.01476820173463239
-0.00274217125748503,0.01470237461912327
-0.00274200125748503,0.01536064577421471
-0.00274183125748503,0.0155252135629872
-0.00274166125748503,0.01562395423625087
-0.00274149125748503,0.01562395423625003
-0.00274132125748503,0.01516316442768707
-0.00274115125748503,0.01542647288972353
-0.00274098125748503,0.01549230000523282
-0.00274081125748503,0.01559104067849632
-0.00274064125748503,0.01568978135175999
-0.00274047125748503,0.01575560846726838
-0.00274030125748503,0.01536064577421441
-0.00274013125748503,0.01536064577421441
-0.00273996125748503,0.01509733731217748
-0.00273979125748503,0.0148340288501415
-0.00273962125748503,0.01473528817687783
-0.00273945125748503,0.01466946106136884
-0.00273928125748503,0.013682054328732
-0.00273911125748503,0.01358331365546833
-0.00273894125748503,0.01305669673139638
-0.00273877125748503,0.01318835096241365
-0.00273860125748503,0.01282630182711352
-0.00273843125748503,0.0130237831736405
-0.00273826125748503,0.01210220355651326
-0.00273809125748503,0.0118388950944768
-0.00273792125748503,0.01223385778753077
-0.00273775125748503,0.01187180865223136
-0.00273758125748503,0.01226677134528605
-0.00273741125748503,0.01170724086345959
-0.00273724125748503,0.01157558663244035
-0.00273707125748503,0.01124645105489478
-0.00273690125748503,0.01118062393938578
-0.00273673125748503,0.01101605615061288
-0.00273656125748503,0.01052235278429452
-0.00273639125748503,0.010752747688576
-0.00273622125748503,0.01098314259285832
-0.00273605125748503,0.01071983413082186
-0.00273588125748503,0.01078566124633086
-0.00273571125748503,0.01078566124633098
-0.00273554125748503,0.01088440191959465
-0.00273537125748503,0.01101605615061264
-0.00273520125748503,0.01075274768857642
-0.00273503125748503,0.01052235278429452
-0.00273486125748503,0.01006156297573072
-0.00273469125748503,0.01012739009123984
-0.00273452125748503,0.00983116807144882
-0.00273435125748503,0.009139983358603122
-0.00273418125748503,0.008152576625966409
-0.00273401125748503,0.008218403741475522
-0.00273384125748503,0.00802092239494818
-0.00273367125748503,0.008185490183720966
-0.00273350125748503,0.00811966306821185
-0.00273333125748503,0.008415885088002865
-0.00273316125748503,0.008646279992285065
-0.00273299125748503,0.00881084778105755
-0.00273282125748503,0.008876674896566664
-0.00273265125748503,0.009074156243094246
-0.00273248125748503,0.009205810474112236
-0.00273231125748503,0.009699513840430593
-0.00273214125748503,0.009929908744713152
-0.00273197125748503,0.01029195788001262
-0.00273180125748503,0.01025904432225806
-0.00273163125748503,0.01042361211103115
-0.00273146125748503,0.01058817989980363
-0.00273129125748503,0.01052235278429452
-0.00273112125748503,0.01081857480408595
-0.00273095125748503,0.01104896970836743
-0.00273078125748503,0.01134519172815845
-0.00273061125748503,0.01131227817040329
-0.00273044125748503,0.01098314259285832
-0.00273027125748503,0.01134519172815845
-0.00273010125748503,0.01147684595917686
-0.00272993125748503,0.01157558663244035
-0.00272976125748503,0.0118388950944768
-0.00272959125748503,0.01187180865223106
-0.00272942125748503,0.01170724086345858
-0.00272925125748503,0.01197054932549503
-0.00272908125748503,0.01220094422977675
-0.00272891125748503,0.01210220355651326
-0.00272874125748503,0.01272756115384985
-0.00272857125748503,0.01299086961588582
-0.00272840125748503,0.01315543740465909
-0.00272823125748503,0.0132212645201682
-0.00272806125748503,0.01351748653995868
-0.00272789125748503,0.0134516594244501
-0.00272772125748503,0.01361622721322289
-0.00272755125748503,0.01338583230894141
-0.00272738125748503,0.01338583230894099
-0.00272721125748503,0.01355040009771377
-0.00272704125748503,0.01282630182711483
-0.00272687125748503,0.01249716624956795
-0.00272670125748503,0.0125300798073225
-0.00272653125748503,0.01200346288325055
-0.00272636125748503,0.0116085001901949
-0.00272619125748503,0.01127936461264933
-0.00272602125748503,0.01104896970836785
-0.00272585125748503,0.01098314259285832
-0.00272568125748503,0.01104896970836743
-0.00272551125748503,0.01114771038163092
-0.00272534125748503,0.01108188326612199
-0.00272517125748503,0.01124645105489478
-0.00272500125748503,0.01124645105489478
-0.00272483125748503,0.01127936461264933
-0.00272466125748503,0.01131227817040389
-0.00272449125748503,0.01127936461264939
-0.00272432125748503,0.01104896970836743
-0.00272415125748503,0.01101605615061288
-0.00272398125748503,0.01078566124633098
-0.00272381125748503,0.01006156297573072
-0.00272364125748503,0.009567859609412364
-0.00272347125748503,0.009205810474112236
-0.00272330125748503,0.008547539319021094
-0.00272313125748503,0.008942502012075779
-0.00272296125748503,0.008547539319021094
-0.00272279125748503,0.008514625761266477
-0.00272262125748503,0.008481712203511979
-0.00272245125748503,0.008613366434530208
-0.00272228125748503,0.008843761338811807
-0.00272211125748503,0.008679193550039321
-0.00272194125748503,0.008942502012075779
-0.00272177125748503,0.009139983358603542
-0.00272160125748503,0.009370378262885021
-0.00272143125748503,0.009304551147375908
-0.00272126125748503,0.009304551147376088
-0.00272109125748503,0.009403291820639578
-0.00272092125748503,0.009534946051657807
-0.00272075125748503,0.009436205378394973
-0.00272058125748503,0.009896995186957936
-0.00272041125748503,0.009534946051657807
-0.00272024125748503,0.01002864941797688
-0.00272007125748503,0.01042361211103085
-0.00271990125748503,0.01006156297573072
-0.00271973125748503,0.0102590443222577
-0.00271956125748503,0.01006156297573072
-0.00271939125748503,0.01035778499552173
-0.00271922125748503,0.01095022903510412
-0.00271905125748503,0.01114771038163111
-0.00271888125748503,0.01144393240142212
-0.00271871125748503,0.01174015442121355
-0.00271854125748503,0.01197054932549503
-0.00271837125748503,0.01220094422977693
-0.00271820125748503,0.01197054932549545
-0.00271803125748503,0.0125300798073225
-0.00271786125748503,0.01154267307468579
-0.00271769125748503,0.01289212894262018
-0.00271752125748503,0.01259590692283162
-0.00271735125748503,0.01223385778753149
-0.00271718125748503,0.01233259846079498
-0.00271701125748503,0.0122996849030406
-0.00271684125748503,0.0127604747116044
-0.00271667125748503,0.01253007980732292
-0.00271650125748503,0.01226677134528605
-0.00271633125748503,0.01239842557630427
-0.00271616125748503,0.01223385778753179
-0.00271599125748503,0.0132212645201682
-0.00271582125748503,0.0125300798073225
-0.00271565125748503,0.01266173403834049
-0.00271548125748503,0.0127604747116044
-0.00271531125748503,0.01279338826935896
-0.00271514125748503,0.01315543740465843
-0.00271497125748503,0.01315543740465909
-0.00271480125748503,0.01318835096241365
-0.00271463125748503,0.01335291875118613
-0.00271446125748503,0.01262882048058617
-0.00271429125748503,0.01292504250037719
-0.00271412125748503,0.0128263018271137
-0.00271395125748503,0.01262882048058617
-0.00271378125748503,0.01200346288324959
-0.00271361125748503,0.011378105285913
-0.00271344125748503,0.01078566124633098
-0.00271327125748503,0.01035778499552173
-0.00271310125748503,0.009864081629203377
-0.00271293125748503,0.009304551147375908
-0.00271276125748503,0.009074156243094007
-0.00271259125748503,0.008415885088002865
-0.00271242125748503,0.008053835952702737
-0.00271225125748503,0.007955095279439066
-0.00271208125748503,0.008415885088002865
-0.00271191125748503,0.009139983358603242
-0.00271174125748503,0.009205810474112236
-0.00271157125748503,0.009633686724921478
-0.00271140125748503,0.01002864941797652
-0.00271123125748503,0.01022613076450351
-0.00271106125748503,0.01032487143776718
-0.00271089125748503,0.01045652566878517
-0.00271072125748503,0.01032487143776718
-0.00271055125748503,0.01048943922653996
-0.00271038125748503,0.0105552663420489
-0.00271021125748503,0.01045652566878541
-0.00271004125748503,0.009962822302467049
-0.00270987125748503,0.01012739009123912
-0.00270970125748503,0.00973242739818515
-0.00270953125748503,0.009929908744712493
-0.00270936125748503,0.007823441048423771
-0.00270919125748503,0.009436205378394135
-0.00270902125748503,0.008514625761266537
-0.00270885125748503,0.008975415569830695
-0.00270868125748503,0.009172896916357679
-0.00270851125748503,0.009139983358603122
-0.00270834125748503,0.009469118936148931
-0.00270817125748503,0.009600773167166921
-0.00270800125748503,0.01002864941797616
-0.00270783125748503,0.01045652566878666
-0.00270766125748503,0.01114771038163111
-0.00270749125748503,0.01088440191959465
-0.00270732125748503,0.01200346288324755
-0.00270715125748503,0.01223385778753149
-0.00270698125748503,0.0125300798073225
-0.00270681125748503,0.01266173403834049
-0.00270664125748503,0.01289212894262263
-0.00270647125748503,0.01292504250037719
-0.00270630125748503,0.01299086961588618
-0.00270613125748503,0.01302378317364086
-0.00270596125748503,0.01269464759609529
-0.00270579125748503,0.01200346288325085
-0.00270562125748503,0.0120692899987587
-0.00270545125748503,0.01174015442121313
-0.00270528125748503,0.01157558663244065
-0.00270511125748503,0.01098314259285832
-0.00270494125748503,0.01141101884366756
-0.00270477125748503,0.01193763576773952
-0.00270460125748503,0.01177306797896769
-0.00270443125748503,0.0116085001901949
-0.00270426125748503,0.01187180865223088
