Analysis/New Tests_CMB/wrd01_d2s01/cmb02_ch36.csv

#Digilent WaveForms Oscilloscope Acquisition
#Device Name: ADP3450
#Serial Number: SN:210018B9D9B0
#Date Time: 2024-08-06 12:51:28.138.741.490
#Sample rate: 2.94118e+06Hz
#Samples: 32768
#Trigger: Source: Channel 3 Type: Edge Condition: Rising Level: 20 mV Hyst.: Auto HoldOff: 0 s
#Channel 3: Range: 200 mV/div Offset: 0 V Attenuation: 1 X Coupling: DC Bandwidth: 0 Hz Sample Mode: Average

Time (s),Channel 3 (V)
-0.00557029816091954,0.03023757387927423
-0.00556995816091954,0.029019772242354
-0.00556961816091954,0.02813110618298257
-0.00556927816091954,0.02763740281666422
-0.00556893816091954,0.02813110618298293
-0.00556859816091954,0.02832858752950991
-0.00556825816091954,0.02832858752950991
-0.00556791816091954,0.0283285875295089
-0.00556757816091954,0.02776905704768244
-0.00556723816091954,0.02684747743055485
-0.00556689816091954,0.02599172492893397
-0.00556655816091954,0.02467518261875408
-0.00556621816091954,0.02345738098183546
-0.00556587816091954,0.02266745559572508
-0.00556553816091954,0.02210792511389862
-0.00556519816091954,0.02115343193901647
-0.00556485816091954,0.02092303703473456
-0.00556451816091954,0.02092303703473456
-0.00556417816091954,0.02121925905452558
-0.00556383816091954,0.02171296242084585
-0.00556349816091954,0.02276619626898976
-0.00556315816091954,0.02342446742408091
-0.00556281816091954,0.02332572675081742
-0.00556247816091954,0.02345738098183546
-0.00556213816091954,0.02362194877060825
-0.00556179816091954,0.0230295047310273
-0.00556145816091954,0.02250288780695331
-0.00556111816091954,0.02237123357593508
-0.00556077816091954,0.0221737522294081
-0.00556043816091954,0.02200918444063495
-0.00556009816091954,0.02154839463207115
-0.00555975816091954,0.02171296242084364
-0.00555941816091954,0.02184461665186217
-0.00555907816091954,0.02131799972778925
-0.00555873816091954,0.02059390145719031
-0.00555839816091954,0.01931027270476127
-0.00555805816091954,0.01753294058601518
-0.00555771816091954,0.01578852202502683
-0.00555737816091954,0.0143732390415777
-0.00555703816091954,0.01381370855975023
-0.00555669816091954,0.01387953567525923
-0.00555635816091954,0.013682054328732
-0.00555601816091954,0.01407701702178669
-0.00555567816091954,0.01460363394585864
-0.00555533816091954,0.0148340288501415
-0.00555499816091954,0.01489985596565062
-0.00555465816091954,0.01526190510095008
-0.00555431816091954,0.015986003371551
-0.00555397816091954,0.01657844741113303
-0.00555363816091954,0.01677592875766037
-0.00555329816091954,0.01717089145071506
-0.00555295816091954,0.01684175587316948
-0.00555261816091954,0.01624931183358745
-0.00555227816091954,0.01555812712074176
-0.00555193816091954,0.01417575769505036
-0.00555159816091954,0.01410993057954124
-0.00555125816091954,0.01394536279076942
-0.00555091816091954,0.01447197971484137
-0.00555057816091954,0.01476820173463239
-0.00555023816091954,0.01496568308115997
-0.00554989816091954,0.01509733731217796
-0.00554955816091954,0.0146036339458596
-0.00554921816091954,0.01407701702178645
-0.00554887816091954,0.01394536279076846
-0.00554853816091954,0.01387953567525935
-0.00554819816091954,0.01401118990627889
-0.00554785816091954,0.01473528817687783
-0.00554751816091954,0.01585434914053277
-0.00554717816091954,0.01680884231541774
-0.00554683816091954,0.01835577952987911
-0.00554649816091954,0.01917861847374304
-0.00554615816091954,0.01967232184006086
-0.00554581816091954,0.01937609982027038
-0.00554547816091954,0.01845452020314278
-0.00554513816091954,0.0163151389490937
-0.00554479816091954,0.01473528817687783
-0.00554445816091954,0.01361622721322289
-0.00554411816091954,0.01289212894262227
-0.00554377816091954,0.01269464759609529
-0.00554343816091954,0.01289212894262263
-0.00554309816091954,0.01285921538486861
-0.00554275816091954,0.01315543740465909
-0.00554241816091954,0.01404410346403213
-0.00554207816091954,0.01391244923301414
-0.00554173816091954,0.01427449836831403
-0.00554139816091954,0.01503151019666884
-0.00554105816091954,0.01532773221645932
-0.00554071816091954,0.01592017625604189
-0.00554037816091954,0.01680884231541493
-0.00554003816091954,0.01671010164215144
-0.00553969816091954,0.0164467931801148
-0.00553935816091954,0.01582143558277821
-0.00553901816091954,0.01499859663891578
-0.00553867816091954,0.01453780683035049
-0.00553833816091954,0.01394536279076846
-0.00553799816091954,0.01332000519343301
-0.00553765816091954,0.0132212645201682
-0.00553731816091954,0.01266173403834073
-0.00553697816091954,0.01174015442121481
-0.00553663816091954,0.01095022903510376
-0.00553629816091954,0.01048943922653996
-0.00553595816091954,0.01039069855327647
-0.00553561816091954,0.01058817989980363
-0.00553527816091954,0.01058817989980363
-0.00553493816091954,0.0109502290351031
-0.00553459816091954,0.01177306797896769
-0.00553425816091954,0.01335291875118643
-0.00553391816091954,0.01513025086992928
-0.00553357816091954,0.01671010164215126
-0.00553323816091954,0.01746711347050607
-0.00553289816091954,0.01756585414376974
-0.00553255816091954,0.0173683727972424
-0.00553221816091954,0.01684175587316948
-0.00553187816091954,0.0157556084672691
-0.00553153816091954,0.01476820173463239
-0.00553119816091954,0.01384662211750479
-0.00553085816091954,0.01338583230894099
-0.00553051816091954,0.01305669673139542
-0.00553017816091954,0.01282630182711352
-0.00552983816091954,0.0134516594244501
-0.00552949816091954,0.01401118990627805
-0.00552915816091954,0.01427449836831403
-0.00552881816091954,0.01417575769505036
-0.00552847816091954,0.01424158481055869
-0.00552813816091954,0.01381370855975023
-0.00552779816091954,0.01341874586669555
-0.00552745816091954,0.01361622721322217
-0.00552711816091954,0.0132212645201682
-0.00552677816091954,0.0132212645201682
-0.00552643816091954,0.01328709163567564
-0.00552609816091954,0.01236551201854972
-0.00552575816091954,0.01177306797896769
-0.00552541816091954,0.01154267307468561
-0.00552507816091954,0.01144393240142212
-0.00552473816091954,0.01174015442121313
-0.00552439816091954,0.01253007980732334
-0.00552405816091954,0.0129908696158863
-0.00552371816091954,0.01308961028914997
-0.00552337816091954,0.01351748653996101
-0.00552303816091954,0.01450489327259593
-0.00552269816091954,0.0146036339458596
-0.00552235816091954,0.0148340288501421
-0.00552201816091954,0.01516316442768707
-0.00552167816091954,0.01549230000523264
-0.00552133816091954,0.01598600337155148
-0.00552099816091954,0.01624931183358745
-0.00552065816091954,0.01601891692930556
-0.00552031816091954,0.01585434914053307
-0.00551997816091954,0.01536064577421441
-0.00551963816091954,0.01503151019666884
-0.00551929816091954,0.01522899154319583
-0.00551895816091954,0.01605183048706011
-0.00551861816091954,0.0166771880843967
-0.00551827816091954,0.0166442745266422
-0.00551793816091954,0.0164467931801148
-0.00551759816091954,0.01601891692930556
-0.00551725816091954,0.01503151019667064
-0.00551691816091954,0.01424158481055947
-0.00551657816091954,0.01361622721322289
-0.00551623816091954,0.01259590692283347
-0.00551589816091954,0.01213511711426782
-0.00551555816091954,0.01177306797896769
-0.00551521816091954,0.01141101884366822
-0.00551487816091954,0.01190472220998592
-0.00551453816091954,0.01246425269181339
-0.00551419816091954,0.01249716624956789
-0.00551385816091954,0.01266173403834073
-0.00551351816091954,0.0127604747116044
-0.00551317816091954,0.01289212894262239
-0.00551283816091954,0.01266173403834073
-0.00551249816091954,0.01295795605813175
-0.00551215816091954,0.01332000519343187
-0.00551181816091954,0.01335291875118643
-0.00551147816091954,0.01364914077097745
-0.00551113816091954,0.01420867125280492
-0.00551079816091954,0.01417575769505036
-0.00551045816091954,0.0139124492330139
-0.00551011816091954,0.01387953567525935
-0.00550977816091954,0.01335291875118643
-0.00550943816091954,0.01279338826935896
-0.00550909816091954,0.01210220355651326
-0.00550875816091954,0.01200346288325013
-0.00550841816091954,0.0122996849030406
-0.00550807816091954,0.01213511711426782
-0.00550773816091954,0.0127275611538517
-0.00550739816091954,0.01374788144424112
-0.00550705816091954,0.01404410346403213
-0.00550671816091954,0.01427449836831367
-0.00550637816091954,0.01407701702178669
-0.00550603816091954,0.01420867125280492
-0.00550569816091954,0.01381370855975131
-0.00550535816091954,0.01440615259933226
-0.00550501816091954,0.01447197971484137
-0.00550467816091954,0.014570720388106
-0.00550433816091954,0.01509733731217796
-0.00550399816091954,0.01565686779400543
-0.00550365816091954,0.01641387962236126
-0.00550331816091954,0.01697341010418771
-0.00550297816091954,0.01694049654643316
-0.00550263816091954,0.01667718808439598
-0.00550229816091954,0.01628222539134202
-0.00550195816091954,0.01536064577421441
-0.00550161816091954,0.01427449836831283
-0.00550127816091954,0.01361622721322289
-0.00550093816091954,0.01315543740465909
-0.00550059816091954,0.01269464759609481
-0.00550025816091954,0.01243133913405883
-0.00549991816091954,0.01246425269181339
-0.00549957816091954,0.01295795605813085
-0.00549923816091954,0.01361622721322289
-0.00549889816091954,0.0146036339458596
-0.00549855816091954,0.01476820173463209
-0.00549821816091954,0.01493276952340517
-0.00549787816091954,0.01457072038810504
-0.00549753816091954,0.01397827634852409
-0.00549719816091954,0.01371496788648656
-0.00549685816091954,0.01289212894262263
-0.00549651816091954,0.01256299336507766
-0.00549617816091954,0.01150975951693123
-0.00549583816091954,0.01111479682387655
-0.00549549816091954,0.01071983413082258
-0.00549515816091954,0.009699513840430593
-0.00549481816091954,0.009699513840430593
-0.00549447816091954,0.009567859609412603
-0.00549413816091954,0.009534946051657807
-0.00549379816091954,0.01025904432225806
-0.00549345816091954,0.01141101884366547
-0.00549311816091954,0.01266173403834073
-0.00549277816091954,0.0141428441372958
-0.00549243816091954,0.0152948186587032
-0.00549209816091954,0.0166771880843967
-0.00549175816091954,0.0173683727972424
-0.00549141816091954,0.01786207616355986
-0.00549107816091954,0.01878365578068835
-0.00549073816091954,0.01934318626251582
-0.00549039816091954,0.01957358116679772
-0.00549005816091954,0.01907987780047937
-0.00548971816091954,0.01792790327906987
-0.00548937816091954,0.01657844741113303
-0.00548903816091954,0.0152948186587053
-0.00548869816091954,0.01410993057954124
-0.00548835816091954,0.01358331365546833
-0.00548801816091954,0.01302378317364116
-0.00548767816091954,0.01318835096241365
-0.00548733816091954,0.01394536279076846
-0.00548699816091954,0.0139453627907702
-0.00548665816091954,0.01489985596565062
-0.00548631816091954,0.01522899154319619
-0.00548597816091954,0.01522899154319744
-0.00548563816091954,0.01592017625604189
-0.00548529816091954,0.01519607798544163
-0.00548495816091954,0.01493276952340362
-0.00548461816091954,0.01407701702178669
-0.00548427816091954,0.01341874586669555
-0.00548393816091954,0.01285921538486766
-0.00548359816091954,0.01262882048058617
-0.00548325816091954,0.01223385778753149
-0.00548291816091954,0.01285921538486921
-0.00548257816091954,0.01348457298220466
-0.00548223816091954,0.01397827634852302
-0.00548189816091954,0.0140111899062765
-0.00548155816091954,0.01341874586669555
-0.00548121816091954,0.01262882048058617
-0.00548087816091954,0.01177306797896661
-0.00548053816091954,0.01118062393938566
-0.00548019816091954,0.01071983413082186
-0.00547985816091954,0.01114771038163362
-0.00547951816091954,0.0125300798073225
-0.00547917816091954,0.01401118990627757
-0.00547883816091954,0.01473528817687651
-0.00547849816091954,0.01453780683035049
-0.00547815816091954,0.01114771038163111
-0.00547781816091954,0.001405297286299923
-0.00547747816091954,-0.01682881370974244
-0.00547713816091954,-0.04144815491015115
-0.00547679816091954,-0.07314391102773199
-0.00547645816091954,-0.1069461348417198
-0.00547611816091954,-0.1401230010583134
-0.00547577816091954,-0.1701401657304148
-0.00547543816091954,-0.1942328900068052
-0.00547509816091954,-0.2121378654252843
-0.00547475816091954,-0.2244475360254663
-0.00547441816091954,-0.2310960746919092
-0.00547407816091954,-0.2336962457545192
-0.00547373816091954,-0.2333012830614652
-0.00547339816091954,-0.230075754401518
-0.00547305816091954,-0.2253032885271072
-0.00547271816091954,-0.2190826261115072
-0.00547237816091954,-0.2120391247520206
-0.00547203816091954,-0.2046335742572453
-0.00547169816091954,-0.1967672339539205
-0.00547135816091954,-0.1890983749970943
-0.00547101816091954,-0.1820219600798646
-0.00547067816091954,-0.1756367298754921
-0.00547033816091954,-0.1699097708261876
-0.00546999816091954,-0.1635903677373126
-0.00546965816091954,-0.1571722239751739
-0.00546931816091954,-0.1509186480018081
-0.00546897816091954,-0.1447308991439514
-0.00546863816091954,-0.139036853652413
-0.00546829816091954,-0.1334415488341383
-0.00546795816091954,-0.1281095524779
-0.00546761816091954,-0.123501654392262
-0.00546727816091954,-0.1183671393825511
-0.00546693816091954,-0.1137921548546677
-0.00546659816091954,-0.1094475652310661
-0.00546625816091954,-0.1053333705117392
-0.00546591816091954,-0.1013508300234451
-0.00546557816091954,-0.0970391539575981
-0.00546523816091954,-0.09322118125806246
-0.00546489816091954,-0.0893702950007863
-0.00546455816091954,-0.08571689009003047
-0.00546421816091954,-0.08222805296804185
-0.00546387816091954,-0.07916709209687359
-0.00546353816091954,-0.0760073905524361
-0.00546319816091954,-0.07314391102778443
-0.00546285816091954,-0.07028043150314317
-0.00546251816091954,-0.06728529774747849
-0.00546217816091954,-0.06461929956935379
-0.00546183816091954,-0.06155833869818555
-0.00546149816091954,-0.05803658801844794
-0.00546115816091954,-0.05533767628256886
-0.00546081816091954,-0.05237545608466411
-0.00546047816091954,-0.04997276636858144
-0.00546013816091954,-0.04816252069207823
-0.00545979816091954,-0.04674723770863485
-0.00545945816091954,-0.0444762022235704
-0.00545911816091954,-0.04266595654706653
-0.00545877816091954,-0.04088862442832368
-0.00545843816091954,-0.03921003298284127
-0.00545809816091954,-0.03759726865286414
-0.00545775816091954,-0.03549080095657631
-0.00545741816091954,-0.03391095018435757
-0.00545707816091954,-0.03167282825705176
-0.00545673816091954,-0.03002715036931984
-0.00545639816091954,-0.02854604027036477
-0.00545605816091954,-0.0269991030559034
-0.00545571816091954,-0.0252217709371545
-0.00545537816091954,-0.02370774728044487
-0.00545503816091954,-0.02179876093068403
-0.00545469816091954,-0.02044930506274372
-0.00545435816091954,-0.0192315034258251
-0.00545401816091954,-0.01817826957768119
-0.00545367816091954,-0.01715794928728801
-0.00545333816091954,-0.01640093745893319
-0.00545299816091954,-0.01603888832363373
-0.00545265816091954,-0.01544644428405104
-0.00545231816091954,-0.01406407485835964
-0.00545197816091954,-0.01225382918186229
-0.00545163816091954,-0.009357436099457973
-0.00545129816091954,-0.007250968403166318
-0.00545095816091954,-0.005407809168914472
-0.00545061816091954,-0.004288748205256179
-0.00545027816091954,-0.003498822819146808
-0.00544993816091954,-0.002939292337320355
-0.00544959816091954,-0.002643070317528323
-0.00544925816091954,-0.002478502528755537
-0.00544891816091954,-0.002675983875282521
-0.00544857816091954,-0.003432995703637694
-0.00544823816091954,-0.004124180416483393
-0.00544789816091954,-0.004683710898310864
-0.00544755816091954,-0.004650797340556306
-0.00544721816091954,-0.004584970225047193
-0.00544687816091954,-0.003432995703637694
-0.00544653816091954,-0.002412675413246423
-0.00544619816091954,-0.001820231373664395
-0.00544585816091954,-0.0007340839677640107
-0.00544551816091954,0.0006482854579296629
-0.00544517816091954,0.001899000652600558
-0.00544483816091954,0.002129395556882458
-0.00544449816091954,0.002688926038711724
-0.00544415816091954,0.003676332771346642
-0.00544381816091954,0.004170036137664999
-0.00544347816091954,0.003577592098082132
-0.00544313816091954,0.003116802289519171
-0.00544279816091954,0.003149715847273728
-0.00544245816091954,0.003577592098083928
-0.00544211816091954,0.004104209022155884
-0.00544177816091954,0.004630825946228797
-0.00544143816091954,0.005124529312548412
-0.00544109816091954,0.005815714025392853
-0.00544075816091954,0.006046108929674754
-0.00544041816091954,0.005684059794374446
-0.00544007816091954,0.005585319121110954
-0.00543973816091954,0.005651146236620068
-0.00543939816091954,0.005618232678866768
-0.00543905816091954,0.00630941739171121
-0.00543871816091954,0.006177763160692982
-0.00543837816091954,0.007263910566594684
-0.00543803816091954,0.007988008837193623
-0.00543769816091954,0.008547539319021094
-0.00543735816091954,0.009172896916359176
-0.00543701816091954,0.009995735860221606
-0.00543667816091954,0.01025904432225806
-0.00543633816091954,0.01025904432225806
-0.00543599816091954,0.01016030364899439
-0.00543565816091954,0.01006156297573072
-0.00543531816091954,0.009798254513694742
-0.00543497816091954,0.009567859609412364
-0.00543463816091954,0.009370378262885021
-0.00543429816091954,0.009107069800849044
-0.00543395816091954,0.009238724031866792
-0.00543361816091954,0.009370378262885021
-0.00543327816091954,0.009567859609412005
-0.00543293816091954,0.01025904432225806
-0.00543259816091954,0.01124645105489478
-0.00543225816091954,0.01157558663243975
-0.00543191816091954,0.01305669673139542
-0.00543157816091954,0.01394536279076846
-0.00543123816091954,0.01397827634852295
-0.00543089816091954,0.01397827634852302
-0.00543055816091954,0.01381370855975023
-0.00543021816091954,0.01335291875118727
-0.00542987816091954,0.01332000519343187
-0.00542953816091954,0.01318835096241365
-0.00542919816091954,0.01266173403834169
-0.00542885816091954,0.01216803067202238
-0.00542851816091954,0.01104896970836743
-0.00542817816091954,0.0102590443222595
-0.00542783816091954,0.009567859609412364
-0.00542749816091954,0.008942502012075779
-0.00542715816091954,0.008415885088002865
-0.00542681816091954,0.008152576625966409
-0.00542647816091954,0.008679193550039321
-0.00542613816091954,0.009929908744712493
-0.00542579816091954,0.01098314259285832
-0.00542545816091954,0.01249716624956795
-0.00542511816091954,0.01355040009771377
-0.00542477816091954,0.01420867125280492
-0.00542443816091954,0.01424158481055947
-0.00542409816091954,0.01410993057954124
-0.00542375816091954,0.01361622721322085
-0.00542341816091954,0.01249716624956795
-0.00542307816091954,0.01157558663244035
-0.00542273816091954,0.0113781052859136
-0.00542239816091954,0.01170724086345858
-0.00542205816091954,0.0118388950944768
-0.00542171816091954,0.01229968490304162
-0.00542137816091954,0.01285921538486808
-0.00542103816091954,0.01308961028914997
-0.00542069816091954,0.01338583230894003
-0.00542035816091954,0.01285921538486808
-0.00542001816091954,0.01249716624956795
-0.00541967816091954,0.01233259846079516
-0.00541933816091954,0.01233259846079516
-0.00541899816091954,0.0125300798073225
-0.00541865816091954,0.01239842557630368
-0.00541831816091954,0.0120692899987587
-0.00541797816091954,0.0116085001901949
-0.00541763816091954,0.01131227817040431
-0.00541729816091954,0.01154267307468579
-0.00541695816091954,0.01193763576774048
-0.00541661816091954,0.01216803067202238
-0.00541627816091954,0.01216803067202238
-0.00541593816091954,0.01259590692283162
-0.00541559816091954,0.01292504250037779
-0.00541525816091954,0.01325417807792276
-0.00541491816091954,0.01332000519343187
-0.00541457816091954,0.01391244923301282
-0.00541423816091954,0.01394536279076846
-0.00541389816091954,0.013682054328732
-0.00541355816091954,0.01394536279076798
-0.00541321816091954,0.01315543740465909
-0.00541287816091954,0.01384662211750479
-0.00541253816091954,0.01453780683034923
-0.00541219816091954,0.0152948186587053
-0.00541185816091954,0.0155252135629872
-0.00541151816091954,0.01588726269828667
-0.00541117816091954,0.01572269490951454
-0.00541083816091954,0.0152948186587053
-0.00541049816091954,0.01463654750361536
-0.00541015816091954,0.01394536279076846
-0.00540981816091954,0.013682054328732
-0.00540947816091954,0.01348457298220502
-0.00540913816091954,0.01341874586669555
-0.00540879816091954,0.01378079500199567
