Analysis/New Tests_CMB/wrd01_d2s01/cmb02_ch24.csv

#Digilent WaveForms Oscilloscope Acquisition
#Device Name: ADP3450
#Serial Number: SN:210018B9D9B0
#Date Time: 2024-08-14 16:37:48.971.507.450
#Sample rate: 5.88235e+06Hz
#Samples: 32768
#Trigger: Source: Channel 3 Type: Edge Condition: Rising Level: 60 mV Hyst.: Auto HoldOff: 0 s
#Channel 3: Range: 100 mV/div Offset: 0 V Attenuation: 1 X Coupling: DC Bandwidth: 0 Hz Sample Mode: Average

Time (s),Channel 3 (V)
-0.003798518816755919,0.2002031861238071
-0.003798348816755918,0.2142901888428034
-0.003798178816755918,0.2268960814627928
-0.003798008816755918,0.2378562961950372
-0.003797838816755919,0.2470720923663104
-0.003797668816755919,0.2547738648808628
-0.003797498816755919,0.2608957866232104
-0.003797328816755918,0.2656024253821242
-0.003797158816755918,0.26892669471533
-0.003796988816755918,0.271033162411615
-0.003796818816755919,0.2715926928934397
-0.003796648816755919,0.2706052861608048
-0.003796478816755919,0.2716914335667052
-0.003796308816755918,0.2680051150981856
-0.003796138816755918,0.265503684708838
-0.003795968816755918,0.2626402051841954
-0.003795798816755919,0.2590526273889481
-0.003795628816755919,0.2551359140161629
-0.003795458816755919,0.2509888057390887
-0.003795288816755918,0.2473024872705643
-0.003795118816755918,0.2434516010132811
-0.003794948816755918,0.2396007147560048
-0.003794778816755918,0.2356510878254582
-0.003794608816755919,0.2318331151259365
-0.003794438816755919,0.2286405000237445
-0.003794268816755919,0.2247237866509593
-0.003794098816755918,0.2214324308754824
-0.003793928816755918,0.2175815446182075
-0.003793758816755918,0.2144218430737692
-0.003793588816755919,0.21076843816302
-0.003793418816755919,0.2081353535426554
-0.003793248816755919,0.2043832079586427
-0.003793078816755918,0.2009601979521515
-0.003792908816755918,0.1980967184275094
-0.003792738816755918,0.1947395355365437
-0.003792568816755919,0.1909544763947766
-0.003792398816755919,0.1872681579262662
-0.003792228816755919,0.1840426292663254
-0.003792058816755918,0.1807512734908513
-0.003791888816755918,0.1772953499266302
-0.003791718816755918,0.174431870401983
-0.003791548816755919,0.1712063417420423
-0.003791378816755919,0.1690340469302415
-0.003791208816755919,0.1661047402900913
-0.003791038816755918,0.1641299268248039
-0.003790868816755918,0.1617601506664794
-0.003790698816755918,0.1589954118150971
-0.003790528816755919,0.1564939814257553
-0.003790358816755919,0.1538608968053907
-0.003790188816755919,0.1511290715117625
-0.003790018816755918,0.1481339377560899
-0.003789848816755918,0.1459616429442907
-0.003789678816755918,0.1425057193800632
-0.003789508816755919,0.1395764127399129
-0.003789338816755919,0.1369104145617938
-0.003789168816755919,0.1338823672483745
-0.003788998816755918,0.1308872334927006
-0.003788828816755918,0.1283528895456037
-0.003788658816755918,0.1254894100209572
-0.003788488816755919,0.1225930169385579
-0.003788318816755919,0.1206182034732881
-0.003788148816755919,0.1184788222192418
-0.003787978816755918,0.1157469969256051
-0.003787808816755918,0.1134101343250357
-0.003787638816755918,0.1110403581667079
-0.003787468816755919,0.1088022362393977
-0.003787298816755919,0.1064324600810739
-0.003787128816755919,0.107024904120656
-0.003786958816755918,0.1029436229590881
-0.003786788816755918,0.1021866111307327
-0.003786618816755918,0.1012650315136064
-0.003786448816755919,0.1001459705499511
-0.003786278816755919,0.0987965146820167
-0.003786108816755919,0.09790784862264365
-0.003785938816755918,0.09761162660285023
-0.003785768816755918,0.09695335544775861
-0.003785598816755918,0.09616343006165039
-0.003785428816755919,0.095208936886769
-0.003785258816755919,0.09468231996269705
-0.003785088816755919,0.09408987592311502
-0.003784918816755918,0.09283916072843897
-0.003784748816755918,0.09204923534232624
-0.003784578816755918,0.09033773033909114
-0.003784408816755918,0.087935040623012
-0.003784238816755919,0.08747425081444904
-0.003784068816755919,0.08576274581121207
-0.003783898816755919,0.08342588321064276
-0.003783728816755918,0.08181311888065516
-0.003783558816755918,0.07904838002927762
-0.003783388816755918,0.07641529540891401
-0.003783218816755919,0.0743088277126262
-0.003783048816755919,0.07239984136286187
-0.003782878816755919,0.07058959568636454
-0.003782708816755918,0.06874643645210496
-0.003782538816755918,0.06845021443231143
-0.003782368816755918,0.06647540096703969
-0.003782198816755919,0.06542216711889579
-0.003782028816755919,0.06459932817503183
-0.003781858816755919,0.06400688413545091
-0.003781688816755918,0.06331569942260364
-0.003781518816755918,0.06318404519158612
-0.003781348816755918,0.0633156994226034
-0.003781178816755919,0.06292073672954943
-0.003781008816755919,0.06229537913221285
-0.003780838816755919,0.06203207067017687
-0.003780668816755918,0.06143962663059233
-0.003780498816755918,0.06088009614876636
-0.003780328816755918,0.06058387412897463
-0.003780158816755919,0.05989268941613018
-0.003779988816755919,0.05946481316532094
-0.003779818816755919,0.05890528268349347
-0.003779648816755918,0.05824701152840112
-0.003779478816755918,0.05791787595085634
-0.003779308816755918,0.05768748104657372
-0.003779138816755919,0.05706212344923827
-0.003778968816755919,0.05607471671660156
-0.003778798816755919,0.05541644556151042
-0.003778628816755918,0.05403407613581399
-0.003778458816755918,0.05265170671012576
-0.003778288816755918,0.05163138641973299
-0.003778118816755919,0.04978822718547882
-0.003777948816755919,0.04850459843305342
-0.003777778816755919,0.0483729442020352
-0.003777608816755918,0.04465371217577012
-0.003777438816755918,0.04462079861801365
-0.003777268816755918,0.04350173765435967
-0.003777098816755919,0.04290929361477716
-0.003776928816755919,0.04205354111316023
-0.003776758816755919,0.04126361572705086
-0.003776588816755918,0.04067117168746823
-0.003776418816755918,0.04050660389869436
-0.003776248816755918,0.04004581409013153
-0.003776078816755919,0.03965085139707828
-0.003775908816755919,0.04004581409013225
-0.003775738816755919,0.03872927177994996
-0.003775568816755918,0.03863053110668378
-0.003775398816755918,0.03793934639383963
-0.003775228816755918,0.03767603793180234
-0.003775058816755919,0.03668863119916646
-0.003774888816755919,0.03616201427509451
-0.003774718816755919,0.03603036004407627
-0.003774548816755918,0.03527334821572062
-0.003774378816755918,0.03504295331143765
-0.003774208816755918,0.03451633638736647
-0.003774038816755918,0.03441759571410148
-0.003773868816755919,0.03359475677023905
-0.003773698816755919,0.03336436186595716
-0.003773528816755919,0.0328377449418852
-0.003773358816755918,0.03323270763493832
-0.003773188816755918,0.03306813984616722
-0.003773018816755918,0.03366058388574828
-0.003772848816755919,0.03372641100125728
-0.003772678816755919,0.03319979407718437
-0.003772508816755919,0.03319979407718437
-0.003772338816755918,0.0328377449418816
-0.003772168816755918,0.03211364667128321
-0.003771998816755918,0.03168577042047432
-0.003771828816755919,0.03145537551619284
-0.003771658816755919,0.03069836368783803
-0.003771488816755919,0.02974387051295761
-0.003771318816755918,0.02941473493540778
-0.003771148816755918,0.02872355022256263
-0.003770978816755918,0.02763740281666368
-0.003770808816755919,0.0273411807968732
-0.003770638816755919,0.02724244012360953
-0.003770468816755919,0.02651834185301059
-0.003770298816755918,0.02618920627546155
-0.003770128816755918,0.02559676223588006
-0.003769958816755918,0.02470809617650803
-0.003769788816755919,0.02437896059896306
-0.003769618816755919,0.02381943011713559
-0.003769448816755919,0.02342446742408091
-0.003769278816755918,0.02302950473102574
-0.003769108816755918,0.02289785050000673
-0.003768938816755918,0.02220666578716176
-0.003768768816755919,0.02191044376737128
-0.003768598816755919,0.02171296242084393
-0.003768428816755919,0.02184461665186217
-0.003768258816755918,0.01950775405129855
-0.003768088816755918,0.02223957934491559
-0.003767918816755918,0.02154839463207169
-0.003767748816755919,0.02184461665186204
-0.003767578816755919,0.02177878953635305
-0.003767408816755919,0.02168004886308938
-0.003767238816755918,0.02200918444063519
-0.003767068816755918,0.0220750115561449
-0.003766898816755918,0.02253580136470721
-0.003766728816755919,0.02217375222940953
-0.003766558816755919,0.02316115896204445
-0.003766388816755919,0.02319407251979901
-0.003766218816755918,0.02237123357593604
-0.003766048816755918,0.02263454203797141
-0.003765878816755918,0.0226016284802162
-0.003765708816755919,0.02217375222940762
-0.003765538816755919,0.02210792511389862
-0.003765368816755919,0.02158130818982571
-0.003765198816755918,0.02151548107431336
-0.003765028816755918,0.02062681501494643
-0.003764858816755918,0.02141674040104975
-0.003764688816755919,0.01967232184006193
-0.003764518816755919,0.01996854385985241
-0.003764348816755919,0.01983688962883418
-0.003764178816755918,0.01947484049353334
-0.003764008816755918,0.01927735914700623
-0.003763838816755918,0.01914570491598782
-0.003763668816755919,0.01878365578068775
-0.003763498816755919,0.01845452020314278
-0.003763328816755919,0.0178291626058062
-0.003763158816755919,0.01710506433520726
-0.003762988816755918,0.01641387962236108
-0.003762818816755918,0.01664427452664178
-0.003762648816755918,0.01644679318011504
-0.003762478816755919,0.01657844741113303
-0.003762308816755919,0.01677592875766037
-0.003762138816755919,0.01677592875766037
-0.003761968816755918,0.01710506433520438
-0.003761798816755918,0.0166771880843979
-0.003761628816755918,0.01733545923948892
-0.003761458816755919,0.01792790327906987
-0.003761288816755919,0.01898113712721569
-0.003761118816755919,0.01977106251332363
-0.003760948816755918,0.02006728453311752
-0.003760778816755918,0.02046224722617137
-0.003760608816755918,0.02079138280371586
-0.003760438816755919,0.02052807434167988
-0.003760268816755919,0.02000145741760697
-0.003760098816755919,0.02013311164862495
-0.003759928816755918,0.01954066760904305
-0.003759758816755918,0.01950775405128819
-0.003759588816755918,0.01927735914700725
-0.003759418816755919,0.01957358116679772
-0.003759248816755919,0.01917861847374304
-0.003759078816755919,0.01868491510742558
-0.003758908816755918,0.0184216066453796
-0.003758738816755918,0.01605183048706353
-0.003758568816755918,0.01792790327906963
-0.003758398816755919,0.01779624904805164
-0.003758228816755919,0.01802664395233354
-0.003758058816755919,0.0166771880843967
-0.003757888816755918,0.01720380500846698
-0.003757718816755918,0.01647970673786894
-0.003757548816755918,0.01624931183358584
-0.003757378816755919,0.01536064577421549
-0.003757208816755919,0.01595308981379644
-0.003757038816755919,0.01555812712074176
-0.003756868816755918,0.01519607798544055
-0.003756698816755918,0.01489985596564966
-0.003756528816755918,0.0143732390415774
-0.003756358816755919,0.0142086712528051
-0.003756188816755919,0.01430741192606859
-0.003756018816755919,0.01351748653995922
-0.003755848816755918,0.01325417807792348
-0.003755678816755918,0.01345165942444998
-0.003755508816755918,0.01341874586669555
-0.003755338816755919,0.01341874586669435
-0.003755168816755919,0.0127604747116044
-0.003754998816755919,0.0125300798073225
-0.003754828816755918,0.01282630182711304
-0.003754658816755918,0.01269464759609517
-0.003754488816755918,0.01266173403834055
-0.003754318816755919,0.0125629933650776
-0.003754148816755919,0.01285921538486808
-0.003753978816755919,0.01279338826935896
-0.003753808816755918,0.01289212894262239
-0.003753638816755918,0.01282630182711591
-0.003753468816755918,0.0134845729822046
-0.003753298816755919,0.01345165942444956
-0.003753128816755919,0.01315543740465909
-0.003752958816755919,0.01295795605813175
-0.003752788816755919,0.01335291875118571
-0.003752618816755918,0.01361622721322193
-0.003752448816755918,0.01335291875118661
-0.003752278816755918,0.01345165942444962
-0.003752108816755919,0.01318835096241365
-0.003751938816755919,0.01318835096241365
-0.003751768816755919,0.01315543740465915
-0.003751598816755918,0.01332000519343283
-0.003751428816755918,0.01358331365546845
-0.003751258816755918,0.01364914077097846
-0.003751088816755919,0.01420867125280492
-0.003750918816755919,0.01424158481055947
-0.003750748816755919,0.01437323904157746
-0.003750578816755918,0.01401118990627733
-0.003750408816755918,0.01394536279076846
-0.003750238816755918,0.0139453627907684
-0.003750068816755919,0.0139124492330139
-0.003749898816755919,0.01371496788648656
-0.003749728816755919,0.01371496788648656
-0.003749558816755918,0.01381370855975658
-0.003749388816755918,0.01555812712074092
-0.003749218816755918,0.01509733731217658
-0.003749048816755919,0.01434032548382314
-0.003748878816755919,0.01410993057954124
-0.003748708816755919,0.01516316442768516
-0.003748538816755918,0.01447197971484018
-0.003748368816755918,0.01414284413729496
-0.003748198816755918,0.0136820543287317
-0.003748028816755919,0.01351748653995922
-0.003747858816755919,0.01325417807792276
-0.003747688816755919,0.01282630182711352
-0.003747518816755918,0.01312252384690477
-0.003747348816755918,0.01318835096241334
-0.003747178816755918,0.01302378317364074
-0.003747008816755919,0.01295795605813175
-0.003746838816755919,0.01272756115384985
-0.003746668816755919,0.01266173403834073
-0.003746498816755918,0.01249716624956843
-0.003746328816755918,0.01262882048058575
-0.003746158816755918,0.01239842557630475
-0.003745988816755919,0.01266173403834067
-0.003745818816755919,0.01262882048058617
-0.003745648816755919,0.01279338826935896
-0.003745478816755918,0.01289212894262167
-0.003745308816755918,0.01262882048058581
-0.003745138816755918,0.01253007980732232
-0.003744968816755919,0.01243133913405841
-0.003744798816755919,0.01220094422977693
-0.003744628816755919,0.01256299336507706
-0.003744458816755918,0.01299086961588618
-0.003744288816755918,0.01295795605813079
-0.003744118816755918,0.01269464759609834
-0.003743948816755919,0.01437323904157644
-0.003743778816755919,0.013682054328732
-0.003743608816755919,0.01378079500199567
-0.003743438816755918,0.01417575769504964
-0.003743268816755918,0.0139782763485229
-0.003743098816755918,0.01394536279076798
-0.003742928816755919,0.01368205432873242
-0.003742758816755919,0.0139124492330139
-0.003742588816755919,0.01384662211750479
-0.003742418816755918,0.01358331365546833
-0.003742248816755918,0.01358331365546845
-0.003742078816755918,0.01361622721322415
-0.003741908816755918,0.01430741192606966
-0.003741738816755919,0.01489985596565062
-0.003741568816755919,0.01453780683035049
-0.003741398816755919,0.01526190510094943
-0.003741228816755918,0.01536064577421549
-0.003741058816755918,0.01565686779400519
-0.003740888816755918,0.01552521356298415
-0.003740718816755919,0.01384662211750479
-0.003740548816755919,0.01611765760256923
-0.003740378816755919,0.0164797067378687
-0.003740208816755918,0.01401118990628093
-0.003740038816755918,0.01493276952340906
-0.003739868816755918,0.0170721507774469
-0.003739698816755919,0.0146036339458596
-0.003739528816755919,0.01427449836831403
-0.003739358816755919,0.01315543740466112
-0.003739188816755918,0.01368205432872913
-0.003739018816755918,0.01289212894262143
-0.003738848816755918,0.01223385778753065
-0.003738678816755919,0.01177306797896769
-0.003738508816755919,0.01147684595917668
-0.003738338816755919,0.01111479682387721
-0.003738168816755918,0.01157558663244071
-0.003737998816755918,0.01167432730570402
-0.003737828816755918,0.01167432730570426
-0.003737658816755919,0.01180598153672225
-0.003737488816755919,0.0120692899987587
-0.003737318816755919,0.01226677134528605
-0.003737148816755918,0.01295795605813258
-0.003736978816755918,0.0131883509624143
-0.003736808816755918,0.01355040009771401
-0.003736638816755919,0.013682054328732
-0.003736468816755919,0.01434032548382314
-0.003736298816755919,0.01463654750361416
-0.003736128816755918,0.0144719797148403
-0.003735958816755918,0.01417575769504994
-0.003735788816755918,0.01394536279076708
-0.003735618816755919,0.01318835096241299
-0.003735448816755919,0.01282630182711352
-0.003735278816755919,0.01210220355651326
-0.003735108816755918,0.01183889509447537
-0.003734938816755918,0.01144393240142134
-0.003734768816755918,0.01101605615061264
-0.003734598816755919,0.01088440191959399
-0.003734428816755919,0.01052235278429452
-0.003734258816755919,0.01025904432225806
-0.003734088816755918,0.009929908744713689
-0.003733918816755918,0.01025904432225902
-0.003733748816755918,0.01052235278429476
-0.003733578816755919,0.01065400701531394
-0.003733408816755919,0.01131227817040389
-0.003733238816755919,0.01131227817040389
-0.003733068816755918,0.0113781052859148
-0.003732898816755918,0.01187180865223196
-0.003732728816755918,0.01203637644100672
-0.003732558816755919,0.01345165942444998
-0.003732388816755919,0.01338583230894099
-0.003732218816755919,0.01397827634852302
-0.003732048816755918,0.01420867125280767
-0.003731878816755918,0.01496568308116093
-0.003731708816755918,0.01529481865870512
-0.003731538816755918,0.01519607798544181
-0.003731368816755919,0.0152948186587053
-0.003731198816755919,0.01526190510095074
-0.003731028816755919,0.01552521356298672
-0.003730858816755918,0.01486694240789498
-0.003730688816755918,0.0145707203881045
-0.003730518816755918,0.01427449836831271
-0.003730348816755919,0.01355040009771377
-0.003730178816755919,0.01447197971484137
-0.003730008816755919,0.01404410346403291
-0.003729838816755918,0.01338583230893895
-0.003729668816755918,0.0128263018271128
-0.003729498816755918,0.01243133913405829
-0.003729328816755919,0.01213511711426782
-0.003729158816755919,0.01193763576774048
-0.003728988816755919,0.01193763576774048
-0.003728818816755918,0.01236551201854876
-0.003728648816755918,0.01210220355651506
-0.003728478816755918,0.01308961028915087
-0.003728308816755919,0.01358331365546833
-0.003728138816755919,0.01404410346403213
-0.003727968816755919,0.01424158481055911
-0.003727798816755918,0.0144061525993325
-0.003727628816755918,0.01447197971484227
-0.003727458816755918,0.01496568308115973
-0.003727288816755919,0.01496568308115973
-0.003727118816755919,0.01480111529238694
-0.003726948816755919,0.01470237461912327
-0.003726778816755918,0.01450489327259366
-0.003726608816755918,0.01387953567525946
-0.003726438816755918,0.01394536279076786
-0.003726268816755919,0.01361622721322289
-0.003726098816755919,0.01318835096241365
-0.003725928816755919,0.01315543740465909
-0.003725758816755918,0.01282630182711292
-0.003725588816755918,0.01266173403834115
-0.003725418816755918,0.01289212894262251
-0.003725248816755919,0.01282630182711328
-0.003725078816755919,0.01269464759609529
-0.003724908816755919,0.01302378317364086
-0.003724738816755918,0.01305669673139602
-0.003724568816755918,0.01322126452016898
-0.003724398816755918,0.01364914077097799
-0.003724228816755919,0.01394536279076894
-0.003724058816755919,0.01420867125280492
-0.003723888816755919,0.01440615259933226
-0.003723718816755918,0.01440615259933154
-0.003723548816755918,0.01420867125280456
-0.003723378816755918,0.01410993057954023
-0.003723208816755919,0.01355040009771419
-0.003723038816755919,0.01378079500199567
-0.003722868816755919,0.01387953567525935
-0.003722698816755918,0.01371496788648488
-0.003722528816755918,0.0132541780779212
-0.003722358816755918,0.01282630182711364
-0.003722188816755919,0.01289212894262167
-0.003722018816755919,0.01236551201854972
-0.003721848816755919,0.01200346288324959
-0.003721678816755918,0.01170724086345786
-0.003721508816755918,0.01150975951693123
-0.003721338816755918,0.01150975951693057
-0.003721168816755918,0.01114771038163392
-0.003720998816755919,0.01269464759609529
-0.003720828816755919,0.009798254513694264
-0.003720658816755919,0.009765340955939767
-0.003720488816755918,0.00973242739818515
-0.003720318816755918,0.009732427398184671
-0.003720148816755918,0.009469118936149051
-0.003719978816755919,0.009666600282676035
-0.003719808816755919,0.009765340955939707
-0.003719638816755919,0.01019321720674817
-0.003719468816755918,0.01078566124633253
-0.003719298816755918,0.01121353749713926
-0.003719128816755918,0.01068692057306809
-0.003718958816755919,0.01111479682387655
