Analysis/New Tests_CMB/wrd01_d2s01/cmb03_ch16.csv

#Digilent WaveForms Oscilloscope Acquisition
#Device Name: ADP3450
#Serial Number: SN:210018B9D9B0
#Date Time: 2024-08-06 10:46:02.724.533.000
#Sample rate: 2.94118e+06Hz
#Samples: 32768
#Trigger: Source: Channel 3 Type: Edge Condition: Rising Level: 60 mV Hyst.: Auto HoldOff: 0 s
#Channel 3: Range: 200 mV/div Offset: 0 V Attenuation: 1 X Coupling: DC Bandwidth: 0 Hz Sample Mode: Average

Time (s),Channel 3 (V)
-0.005570469480519481,0.0257284164668999
-0.00557012948051948,0.02546510800486231
-0.00556978948051948,0.02483975040752686
-0.005569449480519481,0.02395108434815382
-0.00556910948051948,0.02322698607755218
-0.00556876948051948,0.02246997424919875
-0.005568429480519481,0.02161422174758026
-0.00556808948051948,0.02079138280371412
-0.00556774948051948,0.01957358116679772
-0.005567409480519481,0.01819121174110632
-0.00556706948051948,0.01644679318011222
-0.00556672948051948,0.01503151019666884
-0.005566389480519481,0.01348457298220466
-0.00556604948051948,0.01292504250037689
-0.00556570948051948,0.0127604747116044
-0.005565369480519481,0.0118388950944768
-0.00556502948051948,0.01223385778753257
-0.00556468948051948,0.01282630182711352
-0.005564349480519481,0.01358331365546833
-0.00556400948051948,0.01473528817687873
-0.00556366948051948,0.01522899154319619
-0.005563329480519481,0.01565686779400543
-0.005562989480519481,0.01572269490951442
-0.00556264948051948,0.01526190510095074
-0.005562309480519481,0.01371496788648656
-0.005561969480519481,0.01272756115385164
-0.00556162948051948,0.01114771038163111
-0.005561289480519481,0.009798254513694264
-0.005560949480519481,0.0093703782628858
-0.00556060948051948,0.008975415569830336
-0.005560269480519481,0.008876674896566664
-0.005559929480519481,0.009205810474111637
-0.00555958948051948,0.009403291820639578
-0.005559249480519481,0.009962822302467049
-0.005558909480519481,0.01012739009123954
-0.00555856948051948,0.01029195788001262
-0.005558229480519481,0.01022613076450351
-0.005557889480519481,0.01012739009124002
-0.00555754948051948,0.009798254513694264
-0.005557209480519481,0.00983116807144882
-0.005556869480519481,0.0101273900912393
-0.00555652948051948,0.01002864941797616
-0.005556189480519481,0.009403291820639578
-0.005555849480519481,0.008382971530250164
-0.00555550948051948,0.007428478355366152
-0.005555169480519481,0.006408158064974882
-0.005554829480519481,0.005157442870303987
-0.00555448948051948,0.004597912388474241
-0.005554149480519481,0.004104209022155884
-0.005553809480519481,0.00426877681092867
-0.00555346948051948,0.004696653061737912
-0.005553129480519481,0.005519492005601839
-0.005552789480519481,0.00677020720027501
-0.00555244948051948,0.008284230856984636
-0.00555210948051948,0.01052235278429452
-0.005551769480519481,0.01147684595917668
-0.00555142948051948,0.01216803067202238
-0.00555108948051948,0.01216803067202238
-0.005550749480519481,0.0120692899987587
-0.00555040948051948,0.01131227817040359
-0.00555006948051948,0.01114771038163111
-0.005549729480519481,0.01029195788001262
-0.00554938948051948,0.009831168071447802
-0.00554904948051948,0.009271637589621349
-0.005548709480519481,0.008547539319021094
-0.00554836948051948,0.007823441048420058
-0.00554802948051948,0.007395564797611595
-0.005547689480519481,0.006408158064974882
-0.00554734948051948,0.005848627583145375
-0.00554700948051948,0.004729566619492469
-0.005546669480519481,0.003643419213592085
-0.00554632948051948,0.003018061616255021
-0.00554598948051948,0.002754753154219042
-0.005545649480519481,0.003215542962782842
-0.00554530948051948,0.004202949695421771
-0.00554496948051948,0.005420751332338168
-0.005544629480519481,0.006342330949465767
-0.00554428948051948,0.007856354606177429
-0.00554394948051948,0.008975415569830336
-0.005543609480519481,0.009798254513694264
-0.00554326948051948,0.009008329127583276
-0.00554292948051948,0.00811966306821185
-0.005542589480519481,0.007329737682102481
-0.005542249480519481,0.006177763160695077
-0.00554190948051948,0.005190356428056269
-0.005541569480519481,0.004532085272965126
-0.005541229480519481,0.004104209022156662
-0.00554088948051948,0.00380798700236487
-0.005540549480519481,0.004137122579910441
-0.005540209480519481,0.004367517484191922
-0.00553986948051948,0.004532085272965126
-0.005539529480519481,0.005223269985810825
-0.005539189480519481,0.005091615754792837
-0.00553884948051948,0.005651146236620068
-0.005538509480519481,0.005848627583147411
-0.005538169480519481,0.005684059794374924
-0.00553782948051948,0.004992875081528926
-0.005537489480519481,0.004795393735001583
-0.005537149480519481,0.004663739503983595
-0.00553680948051948,0.004400431041946898
-0.005536469480519481,0.004729566619492469
-0.005536129480519481,0.005190356428055431
-0.00553578948051948,0.005947368256411082
-0.005535449480519481,0.006342330949465767
-0.005535109480519481,0.006770207200274232
-0.00553476948051948,0.006506898738238553
-0.005534429480519481,0.005914454698656525
-0.005534089480519481,0.004992875081530602
-0.00553374948051948,0.004400431041946898
-0.005533409480519481,0.003906727675628541
-0.005533069480519481,0.00357759209808297
-0.00553272948051948,0.003050975174010056
-0.005532389480519481,0.002886407385237271
-0.005532049480519481,0.002754753154219042
-0.00553170948051948,0.003215542962782842
-0.00553136948051948,0.003939641233383098
-0.005531029480519481,0.004663739503983355
-0.00553068948051948,0.005651146236620068
-0.00553034948051948,0.00630941739171121
-0.005530009480519481,0.007724700375157166
-0.00552966948051948,0.008415885088004301
-0.00552932948051948,0.009205810474112236
-0.005528989480519481,0.009337464705130465
-0.00552864948051948,0.009469118936149051
-0.00552830948051948,0.009666600282676035
-0.005527969480519481,0.009567859609412364
-0.00552762948051948,0.009370378262884184
-0.00552728948051948,0.008909588454321223
-0.005526949480519481,0.008679193550039321
-0.00552660948051948,0.008415885088001189
-0.00552626948051948,0.007494305470875266
-0.005525929480519481,0.00630941739171121
-0.00552558948051948,0.005453664890091468
-0.00552524948051948,0.004762480177247026
-0.005524909480519481,0.004301690368683227
-0.00552456948051948,0.003676332771345205
-0.00552422948051948,0.002886407385237271
-0.005523889480519481,0.003248456520537399
-0.00552354948051948,0.003248456520537579
-0.00552320948051948,0.003347197193801071
-0.005522869480519481,0.003478851424819299
-0.00552252948051948,0.003972554791138254
-0.00552218948051948,0.004301690368683227
-0.005521849480519481,0.004959961523774369
-0.00552150948051948,0.005519492005600882
-0.00552116948051948,0.004992875081528926
-0.005520829480519481,0.004729566619492469
-0.005520489480519481,0.005190356428055431
-0.00552014948051948,0.005486578447847282
-0.005519809480519481,0.005914454698656525
-0.005519469480519481,0.006539812295991973
-0.00551912948051948,0.006473985180483996
-0.005518789480519481,0.006473985180483996
-0.005518449480519481,0.00594736825641204
-0.00551810948051948,0.005486578447847282
-0.005517769480519481,0.004762480177247026
-0.005517429480519481,0.004367517484193059
-0.00551708948051948,0.004071295464401327
-0.005516749480519481,0.003939641233383098
-0.005516409480519481,0.003939641233383098
-0.00551606948051948,0.003742159886855756
-0.005515729480519481,0.003413024309310185
-0.005515389480519481,0.002787666711974737
-0.00551504948051948,0.002195222672391572
-0.005514709480519481,0.002129395556882458
-0.005514369480519481,0.002392704018918436
-0.00551402948051948,0.003380110751555628
-0.005513689480519481,0.003840900560119427
-0.005513349480519481,0.004268776810927892
-0.00551300948051948,0.004762480177247026
-0.005512669480519481,0.00505870219703804
-0.005512329480519481,0.004696653061737912
-0.00551198948051948,0.004927047966019811
-0.005511649480519481,0.00505870219703804
-0.005511309480519481,0.004894134408265255
-0.00551096948051948,0.005190356428056269
-0.005510629480519481,0.00574988690988374
-0.005510289480519481,0.007329737682102481
-0.00550994948051948,0.008646279992284765
-0.00550960948051948,0.009995735860221606
-0.005509269480519481,0.01035778499552173
-0.00550892948051948,0.0100286494179755
-0.00550858948051948,0.009666600282676035
-0.005508249480519481,0.008382971530248308
-0.00550790948051948,0.007428478355364834
-0.00550756948051948,0.006704380084765896
-0.005507229480519481,0.006210676718447538
-0.00550688948051948,0.005782800467637818
-0.00550654948051948,0.005519492005601839
-0.005506209480519481,0.005519492005601839
-0.00550586948051948,0.005322010659074676
-0.00550552948051948,0.005420751332338168
-0.005505189480519481,0.005651146236620068
-0.00550484948051948,0.005914454698657243
-0.00550450948051948,0.00630941739171121
-0.005504169480519481,0.006638552969256781
-0.00550382948051948,0.006441071622730157
-0.00550348948051948,0.006836034315784124
-0.005503149480519481,0.007593046144138938
-0.00550280948051948,0.008317144414739193
-0.00550246948051948,0.008317144414739193
-0.005502129480519481,0.007889268163929951
-0.00550178948051948,0.007099342777818246
-0.00550144948051948,0.005815714025392853
-0.005501109480519481,0.004959961523774369
-0.00550076948051948,0.00407129546440019
-0.00550042948051948,0.003445937867064742
-0.005500089480519481,0.002985148058500942
-0.005499749480519481,0.002359790461165495
-0.00549940948051948,0.002623098923200814
-0.005499069480519481,0.002656012480955371
-0.005498729480519481,0.003413024309308808
-0.00549838948051948,0.004170036137664999
-0.005498049480519481,0.004894134408265255
-0.005497709480519481,0.005157442870301233
-0.00549736948051948,0.005190356428056269
-0.005497029480519481,0.005618232678865511
-0.005496689480519481,0.005585319121111014
-0.00549634948051948,0.005848627583147411
-0.005496009480519481,0.006046108929674754
-0.005495669480519481,0.006210676718447239
-0.00549532948051948,0.00607902248742931
-0.005494989480519481,0.005782800467638296
-0.005494649480519481,0.005519492005602318
-0.00549430948051948,0.005486578447847282
-0.005493969480519481,0.004992875081528926
-0.005493629480519481,0.004433344599702472
-0.00549328948051948,0.00426877681092867
-0.005492949480519481,0.003676332771346642
-0.005492609480519481,0.004071295464400609
-0.00549226948051948,0.00426877681092867
-0.005491929480519481,0.004729566619492469
-0.005491589480519481,0.005058702197037442
-0.00549124948051948,0.005684059794374625
-0.005490909480519481,0.006144849602938425
-0.005490569480519481,0.006276503833956653
-0.00549022948051948,0.00653981229599311
-0.005489889480519481,0.00653981229599311
-0.005489549480519481,0.007033515662311467
-0.00548920948051948,0.007230997008838809
-0.00548886948051948,0.007461391913120709
-0.005488529480519481,0.007625959701893495
-0.00548818948051948,0.00759304614413816
-0.00548784948051948,0.007165169893329695
-0.005487509480519481,0.00653981229599311
-0.00548716948051948,0.006408158064974463
-0.00548682948051948,0.006177763160692982
-0.005486489480519481,0.00653981229599311
-0.00548614948051948,0.006638552969258039
-0.00548580948051948,0.007329737682102481
-0.005485469480519481,0.00756013258638438
-0.00548512948051948,0.006967688546800496
-0.00548478948051948,0.005947368256411082
-0.005484449480519481,0.00574988690988374
-0.00548410948051948,0.006046108929675591
-0.00548376948051948,0.006506898738238553
-0.005483429480519481,0.006704380084765896
-0.00548308948051948,0.007066429220067341
-0.00548274948051948,0.00779052749066628
-0.005482409480519481,0.008514625761266537
-0.00548206948051948,0.008745020665547418
-0.00548172948051948,0.008185490183720966
-0.005481389480519481,0.007132256335575138
-0.00548104948051948,0.006309417391707857
-0.00548070948051948,0.004466258157456012
-0.005480369480519481,0.002952234500746385
-0.00548002948051948,0.002425617576672933
-0.00547968948051948,0.002129395556882458
-0.005479349480519481,0.002030654883618786
-0.005479009480519481,0.001076161708738366
-0.00547866948051948,-0.003334255030374022
-0.005478329480519481,-0.01429446976264154
-0.005477989480519481,-0.03259440787414201
-0.00547764948051948,-0.05987974725270313
-0.005477309480519481,-0.0916742440436053
-0.005476969480519481,-0.1253119000687015
-0.00547662948051948,-0.15894955609392
-0.005476289480519481,-0.1884730173997577
-0.005475949480519481,-0.2118745569632053
-0.00547560948051948,-0.2297137052662178
-0.005475269480519481,-0.240772660671749
-0.005474929480519481,-0.2461046570279776
-0.00547458948051948,-0.2469274959718512
-0.005474249480519481,-0.2438994486584319
-0.005473909480519481,-0.2386332794177124
-0.00547356948051948,-0.2308985933453819
-0.005473229480519481,-0.2235259564083611
-0.005472889480519481,-0.2155279618740182
-0.00547254948051948,-0.2078261893594373
-0.005472209480519481,-0.2004864659801711
-0.005471869480519481,-0.1935087917362177
-0.00547152948051948,-0.1869589937430481
-0.005471189480519481,-0.1811662075782461
-0.005470849480519481,-0.175669643433245
-0.00547050948051948,-0.1702059928459786
-0.005470169480519481,-0.1644790337966856
-0.005469829480519481,-0.1589824696516746
-0.00546948948051948,-0.1531896834868725
-0.005469149480519481,-0.1471994159755431
-0.005468809480519481,-0.1412749755797229
-0.00546846948051948,-0.1355809300881845
-0.005468129480519481,-0.1296894032501188
-0.005467789480519481,-0.1244232340093896
-0.00546744948051948,-0.1195191139039606
-0.00546710948051948,-0.1148124751450589
-0.005466769480519481,-0.1106324533102302
-0.00546642948051948,-0.1063866043598847
-0.00546608948051948,-0.1022065825250636
-0.005465749480519481,-0.09884939963409875
-0.00546540948051948,-0.09562387097414521
-0.00546506948051948,-0.09180589827462352
-0.005464729480519481,-0.08825123403713137
-0.00546438948051948,-0.08479531047289622
-0.00546404948051948,-0.08114190556214704
-0.005463709480519481,-0.07824551247974601
-0.00546336948051948,-0.07544786007060361
-0.00546302948051948,-0.07268312121922585
-0.005462689480519481,-0.07031334506089773
-0.00546234948051948,-0.06820687736460262
-0.00546200948051948,-0.06629789101484176
-0.005461669480519481,-0.06445473178058658
-0.00546132948051948,-0.0619533013912352
-0.00546098948051948,-0.05918856253985744
-0.005460649480519481,-0.05635799657296552
-0.00546030948051948,-0.05428444243442298
-0.00545996948051948,-0.05128930867876372
-0.005459629480519481,-0.04862331050064461
-0.00545928948051948,-0.04612188011129365
-0.00545894948051948,-0.04358753616419737
-0.005458609480519481,-0.04013161259996887
-0.00545826948051948,-0.03684025682450903
-0.00545792948051948,-0.03456922133944872
-0.005457589480519481,-0.03308811124049365
-0.005457249480519481,-0.03223235873887672
-0.00545690948051948,-0.0317386553725568
-0.005456569480519481,-0.03183739604582048
-0.005456229480519481,-0.03236401296989243
-0.00545588948051948,-0.03302228412498454
-0.005455549480519481,-0.03266023498968441
-0.005455209480519481,-0.03200196383459446
-0.00545486948051948,-0.03032337238911085
-0.005454529480519481,-0.02742697930670982
-0.005454189480519481,-0.02426727776227809
-0.00545384948051948,-0.02091009487130752
-0.005453509480519481,-0.01804661534666105
-0.005453169480519481,-0.0162034561124092
-0.00545282948051948,-0.01511730870650547
-0.005452489480519481,-0.01393242062734141
-0.005452149480519481,-0.01337289014551496
-0.00545180948051948,-0.01393242062734141
-0.005451469480519481,-0.01462360534018711
-0.005451129480519481,-0.01564392563057652
-0.00545078948051948,-0.01663133236321509
-0.005450449480519481,-0.01719086284504256
-0.005450109480519481,-0.01781622044237801
-0.00544976948051948,-0.01745417130707902
-0.005449429480519481,-0.01587432053486028
-0.005449089480519481,-0.01406407485836293
-0.00544874948051948,-0.01261587831715913
-0.005448409480519481,-0.01136516312248596
-0.005448069480519481,-0.01004862081230367
-0.00544772948051948,-0.009192868310685188
-0.005447389480519481,-0.008304202251312145
-0.005447049480519481,-0.007777585327239231
-0.00544670948051948,-0.007448449749693661
-0.00544636948051948,-0.007152227729902647
-0.005446029480519481,-0.007349709076429989
-0.00544568948051948,-0.007053487056638916
-0.00544534948051948,-0.007020573498884419
-0.005445009480519481,-0.006559783690320619
-0.00544466948051948,-0.005835685419719225
-0.00544432948051948,-0.005210327822383777
-0.005443989480519481,-0.004486229551783521
-0.00544364948051948,-0.003268427914862334
-0.00544330948051948,-0.001853144931418952
-0.005442969480519481,-0.001030305987555025
-0.00544262948051948,-0.0004049483902177811
-0.00544228948051948,-4.289925491831147e-05
-0.005441949480519481,0.0003849769958909309
-0.00544160948051948,0.0005824583424189321
-0.00544126948051948,0.0009445074777184018
-0.005440929480519481,0.001504037959545873
-0.00544058948051948,0.002491444692183484
-0.00544024948051948,0.002985148058500942
-0.005439909480519481,0.003083888731764614
-0.00543956948051948,0.003709246329101079
-0.00543922948051948,0.003643419213592085
-0.005438889480519481,0.002985148058500942
-0.00543854948051948,0.001931914210353977
-0.00543820948051948,0.00130655661301853
-0.005437869480519481,0.0007799396889456162
-0.00543752948051948,0.0007470261311909394
-0.00543718948051948,0.0006811990156819448
-0.005436849480519481,0.001174902382000301
-0.005436509480519481,0.002557271807689185
-0.00543616948051948,0.004137122579910441
-0.005435829480519481,0.005947368256411082
-0.005435489480519481,0.006836034315782507
-0.00543514948051948,0.007593046144138938
-0.005434809480519481,0.007230997008838809
-0.005434469480519481,0.00673729364252135
-0.00543412948051948,0.006013195371920196
-0.005433789480519481,0.004466258157456012
-0.005433449480519481,0.00318262940503062
-0.00543310948051948,0.002228136230146129
-0.005432769480519481,0.00176734642158233
-0.005432429480519481,0.001471124401791854
-0.00543208948051948,0.0009115939199638446
-0.005431749480519481,0.0003191498803818167
-0.005431409480519481,0.0005495447846632973
-0.00543106948051948,0.0009445074777184018
-0.005430729480519481,0.001800259979336887
-0.005430389480519481,0.002359790461163339
-0.00543004948051948,0.003314283636046514
-0.005429709480519481,0.003939641233383098
-0.005429369480519481,0.004597912388473043
-0.00542902948051948,0.005190356428056269
-0.005428689480519481,0.005980281814165639
-0.005428349480519481,0.006309417391710611
-0.00542800948051948,0.00756013258638438
-0.005427669480519481,0.008580452876775651
-0.005427329480519481,0.00950203249390325
-0.00542698948051948,0.01002864941797616
-0.005426649480519481,0.01039069855327629
-0.005426309480519481,0.01048943922653996
-0.00542596948051948,0.01029195788001262
-0.00542562948051948,0.00983116807144882
-0.005425289480519481,0.009370378262885021
-0.00542494948051948,0.008745020665548437
-0.00542460948051948,0.008679193550039321
-0.005424269480519481,0.007955095279439066
-0.00542392948051948,0.007165169893328317
-0.00542358948051948,0.006408158064974882
-0.005423249480519481,0.005091615754792597
-0.00542290948051948,0.003906727675626925
-0.00542256948051948,0.0030180616162555
-0.005422229480519481,0.002293963345655243
-0.00542188948051948,0.001767346421582509
-0.00542154948051948,0.001866087094846001
-0.005421209480519481,0.002623098923200814
-0.00542086948051948,0.003413024309312879
-0.00542052948051948,0.004894134408265255
-0.005420189480519481,0.005716973352129182
-0.00541984948051948,0.005782800467639015
-0.00541950948051948,0.006177763160692982
-0.005419169480519481,0.006210676718447538
-0.00541882948051948,0.005453664890091408
-0.00541848948051948,0.004729566619492469
-0.005418149480519481,0.004466258157456012
-0.00541780948051948,0.00449917171521045
-0.00541746948051948,0.004433344599701455
-0.005417129480519481,0.004532085272965126
-0.00541678948051948,0.004564998830719444
-0.00541644948051948,0.004433344599701455
-0.005416109480519481,0.004202949695419555
-0.00541576948051948,0.004005468348892153
-0.00541542948051948,0.003972554791137656
-0.005415089480519481,0.004861220850510698
-0.005414749480519481,0.00578280046763662
-0.00541440948051948,0.006868947873538681
-0.005414069480519481,0.007494305470875266
-0.005413729480519481,0.006934774989048813
-0.00541338948051948,0.006243590276202096
