Analysis/New Tests_CMB/wrd01_d2s01/cmb08_ch17.csv

#Digilent WaveForms Oscilloscope Acquisition
#Device Name: ADP3450
#Serial Number: SN:210018B9D9B0
#Date Time: 2024-08-06 16:49:53.234.773.710
#Sample rate: 2.94118e+06Hz
#Samples: 32768
#Trigger: Source: Channel 3 Type: Edge Condition: Rising Level: 60 mV Hyst.: Auto HoldOff: 0 s
#Channel 3: Range: 200 mV/div Offset: 0 V Attenuation: 1 X Coupling: DC Bandwidth: 0 Hz Sample Mode: Average

Time (s),Channel 3 (V)
-0.005570340541813899,0.02497140463854509
-0.005570000541813899,0.02474100973426175
-0.005569660541813899,0.02395108434815382
-0.005569320541813899,0.02352320809734458
-0.005568980541813899,0.02388525723264429
-0.005568640541813899,0.0236548623283628
-0.005568300541813899,0.02316115896204445
-0.005567960541813899,0.02279910982674235
-0.005567620541813899,0.02171296242084393
-0.005567280541813899,0.02092303703473456
-0.005566940541813899,0.01977106251332393
-0.005566600541813899,0.01914570491598848
-0.005566260541813899,0.01842160664538823
-0.005565920541813899,0.01756585414376854
-0.005565580541813899,0.0169075829886786
-0.005565240541813899,0.01631513894909657
-0.005564900541813899,0.01565686779400501
-0.005564560541813899,0.01542647288972353
-0.005564220541813899,0.01526190510095074
-0.005563880541813899,0.01513025086993221
-0.005563540541813899,0.01496568308115973
-0.005563200541813899,0.01450489327259593
-0.0055628605418139,0.01443906615708694
-0.005562520541813899,0.01443906615708682
-0.005562180541813899,0.01305669673139542
-0.005561840541813899,0.01167432730570653
-0.005561500541813899,0.01157558663244035
-0.005561160541813899,0.01167432730570402
-0.005560820541813899,0.01233259846079396
-0.005560480541813899,0.01332000519343187
-0.005560140541813899,0.01378079500199567
-0.005559800541813899,0.01427449836831313
-0.005559460541813899,0.01447197971484137
-0.005559120541813899,0.01473528817687783
-0.005558780541813899,0.01536064577421328
-0.005558440541813899,0.01565686779400543
-0.005558100541813899,0.01605183048706011
-0.005557760541813899,0.01562395423625165
-0.005557420541813899,0.01545938644747809
-0.005557080541813899,0.01555812712074176
-0.005556740541813899,0.01539355933196927
-0.005556400541813899,0.01549230000523264
-0.005556060541813899,0.01539355933196897
-0.005555720541813899,0.01466946106137003
-0.005555380541813899,0.01387953567525935
-0.005555040541813899,0.01371496788648656
-0.005554700541813899,0.01302378317364212
-0.005554360541813899,0.01226677134528605
-0.005554020541813899,0.01164141374794946
-0.005553680541813899,0.01124645105489478
-0.005553340541813899,0.01052235278429452
-0.005553000541813899,0.00973242739818515
-0.005552660541813899,0.009962822302467049
-0.005552320541813899,0.01078566124633098
-0.005551980541813899,0.01134519172815845
-0.005551640541813899,0.01220094422977693
-0.005551300541813899,0.01299086961588684
-0.005550960541813899,0.01328709163567732
-0.005550620541813899,0.01328709163567732
-0.005550280541813899,0.01341874586669561
-0.005549940541813899,0.0134516594244501
-0.005549600541813899,0.01348457298220466
-0.005549260541813899,0.01289212894262215
-0.005548920541813899,0.01262882048058617
-0.005548580541813899,0.01154267307468579
-0.005548240541813899,0.01048943922653859
-0.005547900541813899,0.00973242739818515
-0.005547560541813899,0.008777934223302994
-0.005547220541813899,0.008284230856984397
-0.005546880541813899,0.008152576625966409
-0.005546540541813899,0.008580452876775651
-0.005546200541813899,0.009107069800849943
-0.005545860541813899,0.009864081629203377
-0.005545520541813899,0.01058817989980363
-0.005545180541813899,0.01118062393938614
-0.005544840541813899,0.01144393240142212
-0.005544500541813899,0.01177306797896769
-0.005544160541813899,0.01147684595917722
-0.005543820541813899,0.01177306797896769
-0.005543480541813899,0.0118388950944768
-0.005543140541813899,0.01164141374794719
-0.005542800541813899,0.01039069855327629
-0.005542460541813899,0.01006156297573072
-0.0055421205418139,0.009238724031868289
-0.005541780541813899,0.008679193550039321
-0.005541440541813899,0.008382971530248308
-0.005541100541813899,0.008547539319020794
-0.005540760541813899,0.009238724031866792
-0.005540420541813899,0.009534946051657807
-0.005540080541813899,0.009436205378394315
-0.005539740541813899,0.009469118936148692
-0.005539400541813899,0.009929908744712493
-0.005539060541813899,0.01075274768857492
-0.005538720541813899,0.01131227817040389
-0.005538380541813899,0.0118388950944768
-0.005538040541813899,0.01229968490303977
-0.005537700541813899,0.01262882048058617
-0.005537360541813899,0.0120692899987587
-0.005537020541813899,0.01229968490304018
-0.005536680541813899,0.01233259846079516
-0.005536340541813899,0.01210220355651326
-0.005536000541813899,0.01226677134528575
-0.005535660541813899,0.01233259846079516
-0.005535320541813899,0.01236551201854972
-0.005534980541813899,0.01114771038163332
-0.005534640541813899,0.01035778499552173
-0.005534300541813899,0.01016030364899439
-0.005533960541813899,0.009666600282676933
-0.005533620541813899,0.009403291820639578
-0.005533280541813899,0.009469118936148692
-0.005532940541813899,0.009008329127584893
-0.005532600541813899,0.00904124268533945
-0.005532260541813899,0.00983116807144882
-0.005531920541813899,0.01029195788001262
-0.005531580541813899,0.01029195788001262
-0.005531240541813899,0.01009447653348528
-0.005530900541813899,0.009600773167166921
-0.005530560541813899,0.009008329127584893
-0.005530220541813899,0.008777934223302994
-0.005529880541813899,0.008152576625966409
-0.005529540541813899,0.008909588454322898
-0.005529200541813899,0.00983116807144882
-0.005528860541813899,0.01035778499552173
-0.005528520541813899,0.01068692057306844
-0.005528180541813899,0.01131227817040389
-0.005527840541813899,0.01223385778753149
-0.005527500541813899,0.01262882048058587
-0.005527160541813899,0.01246425269181339
-0.005526820541813899,0.01187180865223136
-0.005526480541813899,0.01098314259285688
-0.005526140541813899,0.01019321720674895
-0.005525800541813899,0.009864081629203377
-0.005525460541813899,0.009765340955940066
-0.005525120541813899,0.009962822302467049
-0.005524780541813899,0.00983116807144882
-0.005524440541813899,0.009995735860221787
-0.005524100541813899,0.01009447653348528
-0.005523760541813899,0.01016030364899439
-0.005523420541813899,0.010028649417977
-0.005523080541813899,0.01048943922653996
-0.005522740541813899,0.01032487143776718
-0.005522400541813899,0.0100944765334848
-0.005522060541813899,0.00983116807144882
-0.005521720541813899,0.009205810474112236
-0.005521380541813899,0.00858045287677613
-0.005521040541813899,0.008843761338812107
-0.005520700541813899,0.009008329127584893
-0.005520360541813899,0.009864081629201821
-0.005520020541813899,0.01052235278429452
-0.005519680541813899,0.01058817989980363
-0.005519340541813899,0.01006156297573168
-0.005519000541813899,0.009864081629203377
-0.005518660541813899,0.009633686724921478
-0.005518320541813899,0.009436205378394494
-0.005517980541813899,0.009567859609412364
-0.005517640541813899,0.00983116807144882
-0.005517300541813899,0.009337464705131363
-0.005516960541813899,0.009238724031866792
-0.005516620541813899,0.00904124268533945
-0.005516280541813899,0.008646279992285483
-0.005515940541813899,0.008514625761266537
-0.005515600541813899,0.008613366434530208
-0.005515260541813899,0.008777934223302693
-0.005514920541813899,0.008251317299230079
-0.005514580541813899,0.007823441048420837
-0.005514240541813899,0.008020922394947821
-0.005513900541813899,0.007625959701893495
-0.005513560541813899,0.007263910566593366
-0.005513220541813899,0.007000602104557389
-0.005512880541813899,0.00756013258638438
-0.005512540541813899,0.008415885088002865
-0.005512200541813899,0.009896995186957936
-0.005511860541813899,0.01108188326612199
-0.005511520541813899,0.011378105285913
-0.005511180541813899,0.01190472220998592
-0.005510840541813899,0.01200346288324959
-0.005510500541813899,0.01210220355651326
-0.005510160541813899,0.01289212894262263
-0.005509820541813899,0.01332000519343187
-0.005509480541813899,0.01371496788648656
-0.005509140541813899,0.01397827634852302
-0.005508800541813899,0.01378079500199388
-0.005508460541813899,0.01279338826935896
-0.005508120541813899,0.01157558663244035
-0.005507780541813899,0.01009447653348288
-0.005507440541813899,0.008777934223302994
-0.005507100541813899,0.007362651239857037
-0.005506760541813899,0.006770207200275309
-0.005506420541813899,0.006934774989047795
-0.005506080541813899,0.007329737682102481
-0.005505740541813899,0.008646279992286262
-0.005505400541813899,0.009469118936148692
-0.005505060541813899,0.01029195788001262
-0.005504720541813899,0.01045652566878421
-0.005504380541813899,0.009798254513694264
-0.005504040541813899,0.009172896916357679
-0.005503700541813899,0.008777934223302515
-0.005503360541813899,0.008514625761266537
-0.005503020541813899,0.008284230856984636
-0.005502680541813899,0.008975415569832251
-0.005502340541813899,0.01002864941797616
-0.005502000541813899,0.01154267307468579
-0.005501660541813899,0.01328709163568049
-0.005501320541813899,0.01503151019666884
-0.005500980541813899,0.01592017625604189
-0.005500640541813899,0.01582143558277702
-0.005500300541813899,0.01516316442768707
-0.005499960541813899,0.01381370855975023
-0.0054996205418139,0.01233259846079785
-0.005499280541813899,0.01062109345755819
-0.005498940541813899,0.009633686724921478
-0.005498600541813899,0.009008329127586031
-0.005498260541813899,0.008284230856984636
-0.005497920541813899,0.008218403741475522
-0.005497580541813899,0.007823441048421555
-0.005497240541813899,0.007658873259648051
-0.005496900541813899,0.007296824124347924
-0.005496560541813899,0.007527219028629404
-0.005496220541813899,0.007988008837193623
-0.005495880541813899,0.008218403741475522
-0.005495540541813899,0.009238724031864936
-0.005495200541813899,0.01052235278429452
-0.005494860541813899,0.01187180865223136
-0.005494520541813899,0.01269464759609379
-0.005494180541813899,0.01272756115384985
-0.005493840541813899,0.0129908696158863
-0.005493500541813899,0.01338583230894027
-0.005493160541813899,0.0116085001901949
-0.005492820541813899,0.01088440191959465
-0.005492480541813899,0.01016030364899571
-0.005492140541813899,0.009600773167166921
-0.005491800541813899,0.009666600282676035
-0.005491460541813899,0.01022613076450249
-0.005491120541813899,0.01108188326612199
-0.005490780541813899,0.01200346288324959
-0.005490440541813899,0.01374788144424112
-0.005490100541813899,0.01427449836831403
-0.005489760541813899,0.01397827634852302
-0.005489420541813899,0.01256299336507706
-0.005489080541813899,0.011378105285913
-0.005488740541813899,0.009765340955939707
-0.005488400541813899,0.008382971530248308
-0.005488060541813899,0.007428478355366331
-0.005487720541813899,0.007527219028629823
-0.005487380541813899,0.007527219028629823
-0.005487040541813899,0.008053835952703396
-0.005486700541813899,0.008415885088002865
-0.005486360541813899,0.008777934223302994
-0.005486020541813899,0.009831168071448461
-0.005485680541813899,0.009633686724921478
-0.005485340541813899,0.01016030364899439
-0.005485000541813899,0.01104896970836803
-0.005484660541813899,0.011378105285913
-0.005484320541813899,0.011378105285913
-0.005483980541813899,0.01164141374794844
-0.005483640541813899,0.01108188326612199
-0.005483300541813899,0.01055526634204908
-0.005482960541813899,0.008942502012074343
-0.005482620541813899,0.008152576625966409
-0.005482280541813899,0.007494305470875266
-0.005481940541813899,0.007461391913121666
-0.005481600541813899,0.007988008837193623
-0.005481260541813899,0.00881084778105755
-0.005480920541813899,0.008942502012076678
-0.005480580541813899,0.009436205378394135
-0.005480240541813899,0.009798254513694264
-0.005479900541813899,0.01025904432225854
-0.005479560541813899,0.01052235278429452
-0.005479220541813899,0.01055526634204908
-0.0054788805418139,0.008580452876779244
-0.005478540541813899,0.001701519306073215
-0.005478200541813899,-0.01343871726102305
-0.005477860541813899,-0.03624781278488964
-0.005477520541813899,-0.06682450793891467
-0.005477180541813899,-0.1007912995416176
-0.005476840541813899,-0.1354163622993487
-0.005476500541813899,-0.1679349573609141
-0.005476160541813899,-0.195812740779024
-0.005475820541813899,-0.2176673431280102
-0.005475480541813899,-0.2325113576753552
-0.005475140541813899,-0.2409701420182764
-0.005474800541813899,-0.2439981893316901
-0.005474460541813899,-0.2435373995231318
-0.005474120541813899,-0.2394890319193213
-0.005473780541813899,-0.2334329372924938
-0.005473440541813899,-0.2261590410287256
-0.005473100541813899,-0.2181610464943683
-0.005472760541813899,-0.210064311286762
-0.005472420541813899,-0.2024612794454445
-0.005472080541813899,-0.1956152594324967
-0.005471740541813899,-0.1889667207660882
-0.005471400541813899,-0.1824498363306738
-0.005471060541813899,-0.1766241366081172
-0.005470720541813899,-0.1709300911165892
-0.005470380541813899,-0.1645777744699493
-0.005470040541813899,-0.1577975815725105
-0.005469700541813899,-0.1513465242526174
-0.005469360541813899,-0.1454879109723062
-0.005469020541813899,-0.1394647299032222
-0.005468680541813899,-0.1337048572961747
-0.005468340541813899,-0.1286690829597275
-0.005468000541813899,-0.1236991357387894
-0.005467660541813899,-0.1191241512109059
-0.005467320541813899,-0.1147466480295498
-0.005466980541813899,-0.1108957617722666
-0.005466640541813899,-0.1065840857064197
-0.005466300541813899,-0.102963594353411
-0.005465960541813899,-0.09891522674960787
-0.005465620541813899,-0.09493268626130646
-0.005465280541813899,-0.09124636779279084
-0.005464940541813899,-0.08838288826814958
-0.005464600541813899,-0.08469656979963919
-0.005464260541813899,-0.08199765806375989
-0.005463920541813899,-0.07890378363483713
-0.005463580541813899,-0.07620487189896347
-0.005463240541813899,-0.0722223314106553
-0.005462900541813899,-0.06850309938439708
-0.005462560541813899,-0.06484969447364125
-0.005462220541813899,-0.06122920312063428
-0.005461880541813899,-0.05810241513395705
-0.005461540541813899,-0.05533767628257425
-0.005461200541813899,-0.05306664079750634
-0.005460860541813899,-0.0511576544477455
-0.005460520541813899,-0.04911701386696296
-0.005460180541813899,-0.04727385463270543
-0.005459840541813899,-0.04599022588028003
-0.005459500541813899,-0.04490407847437965
-0.005459160541813899,-0.0440483259727605
-0.005458820541813899,-0.04368627683746103
-0.005458480541813899,-0.04210642606524229
-0.005458140541813899,-0.04039492106200131
-0.005457800541813899,-0.03818971269245
-0.005457460541813899,-0.03601741788064923
-0.0054571205418139,-0.03321976547151696
-0.005456780541813899,-0.03111329777522022
-0.005456440541813899,-0.02930305209871958
-0.005456100541813899,-0.02749280642222223
-0.005455760541813899,-0.02558382007245463
-0.005455420541813899,-0.02374066083819943
-0.005455080541813899,-0.02189750160394758
-0.005454740541813899,-0.01995560169642536
-0.005454400541813899,-0.01804661534666105
-0.005454060541813899,-0.01597306120812772
-0.005453720541813899,-0.014557778224678
-0.005453380541813899,-0.01360328504979584
-0.005453040541813899,-0.01231965629737045
-0.005452700541813899,-0.01228674273961356
-0.005452360541813899,-0.01241839697063178
-0.005452020541813899,-0.01304375456796723
-0.005451680541813899,-0.01337289014551394
-0.005451340541813899,-0.01376785283856862
-0.005451000541813899,-0.01383367995407762
-0.005450660541813899,-0.01333997658775938
-0.005450320541813899,-0.0129450138947047
-0.005449980541813899,-0.01248422408614174
-0.005449640541813899,-0.01162847158452241
-0.005449300541813899,-0.01008153437005823
-0.005448960541813899,-0.009522003888231777
-0.005448620541813899,-0.007843412442748346
-0.005448280541813899,-0.006296475228284162
-0.005447940541813899,-0.006263561670529605
-0.005447600541813899,-0.00586859897747492
-0.005447260541813899,-0.00586859897747492
-0.005446920541813899,-0.006066080324002262
-0.005446580541813899,-0.00688891926786619
-0.005446240541813899,-0.006493956574811504
-0.005445900541813899,-0.005473636284420234
-0.005445560541813899,-0.004782451571573098
-0.005445220541813899,-0.003992526185465165
-0.005444880541813899,-0.003070946568337565
-0.005444540541813899,-0.001951885604680408
-0.005444200541813899,-0.0007340839677640107
-0.005443860541813899,0.0002533227648727025
-0.005443520541813899,0.001174902382001798
-0.005443180541813899,0.001997741325864229
-0.005442840541813899,0.002129395556882458
-0.005442500541813899,0.002326876903409202
-0.005442160541813899,0.001997741325864229
-0.005441820541813899,0.001899000652600558
-0.005441480541813899,0.001997741325864588
-0.005441140541813899,0.002195222672391572
-0.005440800541813899,0.002524358249937143
-0.005440460541813899,0.002787666711973899
-0.005440120541813899,0.002952234500746385
-0.005439780541813899,0.0027876667119736
-0.005439440541813899,0.002688926038709928
-0.005439100541813899,0.002688926038709928
-0.005438760541813899,0.002096481999127901
-0.005438420541813899,0.002326876903408005
-0.005438080541813899,0.001339470170773087
-0.005437740541813899,0.001141988824245744
-0.005437400541813899,0.0008128532467019095
-0.005437060541813899,0.00176734642158233
-0.005436720541813899,0.002524358249937143
-0.0054363805418139,0.004367517484188989
-0.005436040541813899,0.006144849602938425
-0.005435700541813899,0.007856354606175394
-0.005435360541813899,0.009304551147373274
-0.005435020541813899,0.01006156297573072
-0.005434680541813899,0.009469118936148692
-0.005434340541813899,0.009666600282675675
-0.005434000541813899,0.008777934223302994
-0.005433660541813899,0.007461391913120709
-0.005433320541813899,0.006704380084767273
-0.005432980541813899,0.006638552969256781
-0.005432640541813899,0.00574988690988374
-0.005432300541813899,0.005058702197039298
-0.005431960541813899,0.005190356428056269
-0.005431620541813899,0.004959961523774369
-0.005431280541813899,0.004992875081528866
-0.005430940541813899,0.005190356428056269
-0.005430600541813899,0.005453664890092726
-0.005430260541813899,0.005716973352128703
-0.005429920541813899,0.006013195371920196
-0.005429580541813899,0.006572725853747667
-0.005429240541813899,0.007099342777819624
-0.005428900541813899,0.007625959701893495
-0.005428560541813899,0.007889268163929951
-0.005428220541813899,0.008613366434528891
-0.005427880541813899,0.00871210710779388
-0.005427540541813899,0.009107069800848565
-0.005427200541813899,0.008679193550039321
-0.005426860541813899,0.008547539319021094
-0.005426520541813899,0.007625959701893495
-0.005426180541813899,0.006506898738238553
-0.005425840541813899,0.005420751332338168
-0.005425500541813899,0.004499171715210569
-0.005425160541813899,0.004104209022155884
-0.005424820541813899,0.004400431041946898
-0.005424480541813899,0.004729566619492469
-0.005424140541813899,0.005453664890092726
-0.005423800541813899,0.006375244507222899
-0.005423460541813899,0.00779052749066628
-0.005423120541813899,0.008942502012075779
-0.005422780541813899,0.0100615629757318
-0.005422440541813899,0.01065400701531275
-0.005422100541813899,0.01108188326612199
-0.005421760541813899,0.01098314259285772
-0.005421420541813899,0.01065400701531275
-0.005421080541813899,0.01078566124633098
-0.005420740541813899,0.01085148836183919
-0.005420400541813899,0.01035778499552173
-0.005420060541813899,0.01042361211103085
-0.005419720541813899,0.009403291820639339
-0.005419380541813899,0.009271637589621349
-0.005419040541813899,0.008547539319021094
-0.005418700541813899,0.008317144414739313
-0.005418360541813899,0.008382971530248308
-0.005418020541813899,0.00802092239494818
-0.005417680541813899,0.008185490183722223
-0.005417340541813899,0.008876674896566664
-0.005417000541813899,0.009205810474112236
-0.005416660541813899,0.009008329127584175
-0.005416320541813899,0.008613366434530208
-0.005415980541813899,0.008053835952702737
-0.005415640541813899,0.006868947873537723
-0.005415300541813899,0.006342330949465767
-0.005414960541813899,0.005815714025392853
-0.005414620541813899,0.005848627583147351
-0.005414280541813899,0.006572725853747667
-0.005413940541813899,0.00802092239494818
