Analysis/New Tests_CMB/wrd01_d2s01/cmb08_ch25.csv

#Digilent WaveForms Oscilloscope Acquisition
#Device Name: ADP3450
#Serial Number: SN:210018B9D9B0
#Date Time: 2024-08-06 16:53:10.249.070.960
#Sample rate: 2.94118e+06Hz
#Samples: 32768
#Trigger: Source: Channel 3 Type: Edge Condition: Rising Level: 60 mV Hyst.: Auto HoldOff: 0 s
#Channel 3: Range: 200 mV/div Offset: -20 mV Attenuation: 1 X Coupling: DC Bandwidth: 0 Hz Sample Mode: Average

Time (s),Channel 3 (V)
-0.005570251527924132,0.02201308149812463
-0.005569911527924131,0.02128898322752329
-0.005569571527924131,0.02069653918794234
-0.005569231527924132,0.01928125620449639
-0.005568891527924131,0.01862298504940512
-0.005568551527924131,0.01855715793389613
-0.005568211527924131,0.01826093591410511
-0.005567871527924131,0.01780014610554095
-0.005567531527924131,0.01760266475901397
-0.005567191527924131,0.01714187495045017
-0.005566851527924131,0.01691148004616917
-0.005566511527924131,0.01740518341248663
-0.005566171527924131,0.01714187495045017
-0.005565831527924131,0.01697730716167655
-0.005565491527924131,0.01651651735311359
-0.005565151527924131,0.01618738177556802
-0.005564811527924131,0.01631903600658667
-0.005564471527924131,0.01654943091086815
-0.005564131527924131,0.01654943091086815
-0.005563791527924131,0.01648360379535855
-0.005563451527924131,0.01622029533332257
-0.005563111527924131,0.01582533264026789
-0.005562771527924132,0.01480501234987848
-0.005562431527924131,0.01414674119478548
-0.005562091527924131,0.01289602600011231
-0.005561751527924132,0.01184279215196839
-0.005561411527924131,0.01115160743912078
-0.005561071527924131,0.01036168205301141
-0.005560731527924132,0.009802151571184957
-0.005560391527924131,0.009900892244447609
-0.005560051527924131,0.01029585493750229
-0.005559711527924132,0.01046042272627478
-0.005559371527924131,0.01095412609259344
-0.005559031527924131,0.01171113792094825
-0.005558691527924132,0.01177696503645725
-0.005558351527924131,0.01131617522789356
-0.005558011527924131,0.01078955830382065
-0.005557671527924132,0.009571756666904255
-0.005557331527924131,0.008551436376510768
-0.005556991527924131,0.007366548297346712
-0.005556651527924132,0.006280400891448304
-0.005556311527924131,0.005490475505336958
-0.005555971527924131,0.005292994158809615
-0.005555631527924132,0.005753783967372576
-0.005555291527924131,0.0068399313732738
-0.005554951527924131,0.008156473683456083
-0.005554611527924132,0.009209707531599996
-0.005554271527924131,0.009538843109147481
-0.005553931527924131,0.009769238013429382
-0.005553591527924132,0.009242621089356468
-0.005553251527924131,0.00865017704977444
-0.005552911527924131,0.007827338105910513
-0.005552571527924132,0.00762985675938317
-0.005552231527924131,0.007432375412855827
-0.005551891527924131,0.007103239835310256
-0.005551551527924132,0.0068399313732738
-0.005551211527924131,0.006444968680218396
-0.005550871527924131,0.006050005987164429
-0.005550531527924132,0.006148746660428099
-0.005550191527924131,0.006971585604294362
-0.005549851527924131,0.008255214356719755
-0.005549511527924132,0.00967049734016571
-0.005549171527924131,0.01032876849525877
-0.005548831527924131,0.01138200234340268
-0.005548491527924132,0.01171113792094825
-0.005548151527924131,0.01157948368992996
-0.005547811527924131,0.01154657013217547
-0.005547471527924131,0.01105286676585711
-0.005547131527924131,0.01105286676585627
-0.005546791527924131,0.01059207695729331
-0.005546451527924131,0.01013128714872951
-0.005546111527924131,0.009966719359955767
-0.005545771527924131,0.009440102435883811
-0.005545431527924131,0.009538843109147481
-0.005545091527924131,0.008485609261001654
-0.005544751527924131,0.008485609261001654
-0.005544411527924131,0.007695683874892284
-0.005544071527924131,0.007103239835309119
-0.005543731527924131,0.006477882237973671
-0.005543391527924131,0.005687956851864301
-0.005543051527924131,0.005655043294109923
-0.005542711527924131,0.005753783967373414
-0.005542371527924131,0.005490475505336958
-0.005542031527924132,0.005622129736354946
-0.005541691527924131,0.005786697525127971
-0.005541351527924131,0.005984178871655314
-0.005541011527924132,0.005655043294110342
-0.005540671527924131,0.005885438198391643
-0.005540331527924131,0.006346228006955442
-0.005539991527924132,0.006839931373272902
-0.005539651527924131,0.007498202528364941
-0.005539311527924131,0.008222300798965198
-0.005538971527924132,0.009505929551390589
-0.005538631527924131,0.01019711426423862
-0.005538291527924131,0.01101995320810255
-0.005537951527924132,0.01062499051504858
-0.005537611527924131,0.00967049734016571
-0.005537271527924131,0.009045139742829125
-0.005536931527924132,0.008386868587739181
-0.005536591527924131,0.008222300798965198
-0.005536251527924131,0.008485609261001654
-0.005535911527924132,0.007991905894684197
-0.005535571527924131,0.007860251663665069
-0.005535231527924131,0.007531116086119498
-0.005534891527924132,0.007893165221418967
-0.005534551527924131,0.00762985675938317
-0.005534211527924131,0.00762985675938317
-0.005533871527924132,0.007333634739592694
-0.005533531527924131,0.007893165221419626
-0.005533191527924131,0.007926078779174183
-0.005532851527924132,0.007860251663665069
-0.005532511527924131,0.007366548297346712
-0.005532171527924131,0.0068399313732738
-0.005531831527924132,0.006082919544918986
-0.005531491527924131,0.005029685696773157
-0.005531151527924131,0.003713143386590873
-0.005530811527924132,0.003054872231499733
-0.005530471527924131,0.00318652646251796
-0.005530131527924131,0.003910624733118217
-0.005529791527924132,0.004141019637400115
-0.005529451527924131,0.004733463676983761
-0.005529111527924131,0.005622129736355185
-0.005528771527924132,0.005951265313900757
-0.005528431527924131,0.006181660218183195
-0.005528091527924131,0.006477882237973671
-0.005527751527924132,0.0068399313732738
-0.005527411527924131,0.006905758488782913
-0.005527071527924131,0.006905758488782913
-0.005526731527924131,0.007070326277555699
-0.005526391527924131,0.007169066950819669
-0.005526051527924131,0.007333634739592155
-0.005525711527924131,0.007432375412855827
-0.005525371527924131,0.007794424548156494
-0.005525031527924131,0.008090646567946969
-0.005524691527924131,0.008090646567946969
-0.005524351527924131,0.008156473683455245
-0.005524011527924131,0.007695683874892284
-0.005523671527924131,0.007234894066328485
-0.005523331527924131,0.006576622911236145
-0.005522991527924131,0.0059183517561462
-0.005522651527924131,0.005589216178600628
-0.005522311527924131,0.005556302620845832
-0.005521971527924131,0.005424648389827843
-0.005521631527924131,0.005687956851864301
-0.005521291527924131,0.005424648389829459
-0.005520951527924131,0.006313314449200885
-0.005520611527924131,0.006543709353482785
-0.005520271527924132,0.007201980508572729
-0.005519931527924131,0.008156473683456083
-0.005519591527924131,0.008913485511810896
-0.005519251527924132,0.008386868587738941
-0.005518911527924131,0.007267807624083042
-0.005518571527924131,0.006510795795728228
-0.005518231527924132,0.005260080601057334
-0.005517891527924131,0.003910624733118217
-0.005517551527924131,0.003252353578027074
-0.005517211527924132,0.00354857559781755
-0.005516871527924131,0.003943538290872774
-0.005516531527924131,0.004865117908000373
-0.005516191527924132,0.005095512812281854
-0.005515851527924131,0.005852524640637086
-0.005515511527924131,0.00601709242940987
-0.005515171527924132,0.005391734832074424
-0.005514831527924131,0.004832204350245815
-0.005514491527924131,0.004700550119227587
-0.005514151527924132,0.004799290792491078
-0.005513811527924131,0.004733463676982144
-0.005513471527924131,0.005260080601055058
-0.005513131527924132,0.005358821274318549
-0.005512791527924131,0.005885438198391643
-0.005512451527924131,0.007037412719801142
-0.005512111527924132,0.008156473683456083
-0.005511771527924131,0.009143880416092796
-0.005511431527924131,0.009703410897920267
-0.005511091527924132,0.0100654600332204
-0.005510751527924131,0.01052624984178419
-0.005510411527924131,0.01105286676585711
-0.005510071527924132,0.01148074301666635
-0.005509731527924131,0.01220484128726661
-0.005509391527924131,0.01227066840277572
-0.005509051527924132,0.01246814974930307
-0.005508711527924131,0.0118427921519648
-0.005508371527924131,0.01092121253483888
-0.005508031527924132,0.009966719359956725
-0.005507691527924131,0.009143880416090881
-0.005507351527924131,0.008090646567946969
-0.005507011527924132,0.00762985675938317
-0.005506671527924131,0.007366548297345035
-0.005506331527924131,0.006444968680219114
-0.005505991527924132,0.006313314449200885
-0.005505651527924131,0.006938672046535554
-0.005505311527924131,0.005885438198391643
-0.005504971527924131,0.005720870409618857
-0.005504631527924131,0.005918351756146798
-0.005504291527924131,0.006247487333691772
-0.005503951527924131,0.006774104257764684
-0.005503611527924131,0.007070326277556417
-0.005503271527924131,0.007465288970610384
-0.005502931527924131,0.007662770317137727
-0.005502591527924131,0.007366548297345814
-0.005502251527924131,0.006872844931028356
-0.005501911527924131,0.006181660218182656
-0.005501571527924131,0.005918351756147397
-0.005501231527924131,0.006576622911237342
-0.005500891527924131,0.00693867204653747
-0.005500551527924131,0.006708277142255511
-0.005500211527924131,0.006675363584501014
-0.005499871527924131,0.006642450026746457
-0.005499531527924132,0.006971585604291428
-0.005499191527924131,0.007103239835310256
-0.005498851527924131,0.007300721181837598
-0.005498511527924132,0.008386868587736008
-0.005498171527924131,0.009341361762620138
-0.005497831527924131,0.008880571954056339
-0.005497491527924132,0.008485609261002372
-0.005497151527924131,0.008024819452437855
-0.005496811527924131,0.007169066950819369
-0.005496471527924132,0.006839931373274398
-0.005496131527924131,0.006576622911237342
-0.005495791527924131,0.006872844931028356
-0.005495451527924132,0.00670827714225587
-0.005495111527924131,0.007004499162046584
-0.005494771527924131,0.007267807624083042
-0.005494431527924132,0.007267807624083042
-0.005494091527924131,0.007037412719801142
-0.005493751527924131,0.006379141564709999
-0.005493411527924132,0.006346228006955502
-0.005493071527924131,0.005523389063091515
-0.005492731527924131,0.004865117908000373
-0.005492391527924132,0.004371414541682913
-0.005492051527924131,0.003482748482308975
-0.005491711527924131,0.003416921366799861
-0.005491371527924132,0.003449834924554358
-0.005491031527924131,0.004075192521891001
-0.005490691527924131,0.004338500983927459
-0.005490351527924132,0.005490475505336958
-0.005490011527924131,0.006148746660428099
-0.005489671527924131,0.006708277142255571
-0.005489331527924132,0.006708277142255571
-0.005488991527924131,0.007531116086119498
-0.005488651527924131,0.006971585604292027
-0.005488311527924132,0.006115833102673543
-0.005487971527924131,0.005556302620845593
-0.005487631527924131,0.005292994158809615
-0.005487291527924132,0.005753783967373414
-0.005486951527924131,0.005622129736355604
-0.005486611527924131,0.005852524640637086
-0.005486271527924132,0.006609536468991898
-0.005485931527924131,0.007004499162047901
-0.005485591527924131,0.00772859743264684
-0.005485251527924132,0.007893165221419626
-0.005484911527924131,0.007366548297345934
-0.005484571527924131,0.00693867204653747
-0.005484231527924131,0.006642450026746457
-0.005483891527924131,0.006148746660427082
-0.005483551527924131,0.005589216178600628
-0.005483211527924131,0.005325907716564172
-0.005482871527924131,0.005457561947584616
-0.005482531527924131,0.006675363584501014
-0.005482191527924131,0.007498202528364941
-0.005481851527924131,0.008090646567947868
-0.005481511527924131,0.008584349934265326
-0.005481171527924131,0.008485609261001654
-0.005480831527924131,0.007893165221418488
-0.005480491527924131,0.007267807624083042
-0.005480151527924131,0.006741190700010127
-0.005479811527924131,0.006839931373275237
-0.005479471527924131,0.00762985675938317
-0.005479131527924131,0.007991905894683298
-0.005478791527924132,0.005951265313904469
-0.005478451527924131,-0.00158593941189282
-0.005478111527924131,-0.01764775559611669
-0.005477771527924132,-0.04190504766118115
-0.005477431527924131,-0.07350206310560009
-0.005477091527924131,-0.1083246072099215
-0.005476751527924132,-0.1433117191029521
-0.005476411527924131,-0.1758961412800273
-0.005476071527924131,-0.2027206908499913
-0.005475731527924132,-0.2226333932914621
-0.005475391527924131,-0.2359304706243394
-0.005475051527924131,-0.2429410584260601
-0.005474711527924132,-0.2451462667956114
-0.005474371527924131,-0.2434347617923784
-0.005474031527924131,-0.2385964688024586
-0.005473691527924132,-0.2326391148488945
-0.005473351527924131,-0.2261880575289905
-0.005473011527924131,-0.2194407781893063
-0.005472671527924132,-0.2126276717341254
-0.005472331527924131,-0.2065386635495199
-0.005471991527924131,-0.1999888655563631
-0.005471651527924132,-0.1932744997744456
-0.005471311527924131,-0.1862968255304673
-0.005470971527924131,-0.1793191512865012
-0.005470631527924132,-0.1723414770425478
-0.005470291527924131,-0.1654625434718327
-0.005469951527924131,-0.1586823505743939
-0.005469611527924132,-0.1520008983502188
-0.005469271527924131,-0.1464055935319441
-0.005468931527924131,-0.1412052514067241
-0.005468591527924132,-0.135412465241922
-0.005468251527924131,-0.1300475553279292
-0.005467911527924131,-0.1250446945492365
-0.005467571527924132,-0.1206342778101259
-0.005467231527924131,-0.1163226017442789
-0.005466891527924131,-0.1121754934672047
-0.005466551527924132,-0.1080612987478851
-0.005466211527924131,-0.1041116718173306
-0.005465871527924131,-0.09989873642475491
-0.005465531527924132,-0.09621241795624449
-0.005465191527924131,-0.09292106218078239
-0.005464851527924131,-0.08939931150105118
-0.005464511527924132,-0.08643709130314103
-0.005464171527924131,-0.08347487110522636
-0.005463831527924131,-0.08097344071588455
-0.005463491527924132,-0.07791247984471075
-0.005463151527924131,-0.07511482743556844
-0.005462811527924131,-0.07238300214194515
-0.005462471527924131,-0.06899290569322578
-0.005462131527924131,-0.06563572280225551
-0.005461791527924131,-0.06264058904659625
-0.005461451527924131,-0.05971128240644067
-0.005461111527924131,-0.05760481471014603
-0.005460771527924131,-0.05595913682242116
-0.005460431527924131,-0.05405015047265686
-0.005460091527924131,-0.05168037431432401
-0.005459751527924131,-0.04908020325171873
-0.005459411527924131,-0.0457230203607539
-0.005459071527924131,-0.04295828150936536
-0.005458731527924131,-0.03979857996493362
-0.005458391527924131,-0.03723132246007817
-0.005458051527924131,-0.03403870735788248
-0.005457711527924131,-0.03203098033485814
-0.005457371527924131,-0.0304511295626394
-0.005457031527924132,-0.02850922965512406
-0.005456691527924131,-0.02781804494227483
-0.005456351527924131,-0.02742308224922015
-0.005456011527924132,-0.02715977378718417
-0.005455671527924131,-0.02683063820963812
-0.005455331527924131,-0.02725851446044737
-0.005454991527924132,-0.02643567551658493
-0.005454651527924131,-0.02673189753637445
-0.005454311527924131,-0.02653441618984711
-0.005453971527924132,-0.02557992301496669
-0.005453631527924131,-0.02446086205131001
-0.005453291527924131,-0.02242022147052747
-0.005452951527924132,-0.0209061978138206
-0.005452611527924131,-0.01968839617689923
-0.005452271527924131,-0.01787815050039859
-0.005451931527924132,-0.01649578107470971
-0.005451591527924131,-0.01468553539820655
-0.005451251527924131,-0.01379686933883351
-0.005450911527924132,-0.01290820327946209
-0.005450571527924131,-0.01238158635538755
-0.005450231527924131,-0.01241449991314211
-0.005449891527924132,-0.0125132405864056
-0.005449551527924131,-0.01195371010457831
-0.005449211527924131,-0.01159166096927818
-0.005448871527924132,-0.01116378471846972
-0.005448531527924131,-0.01043968644786868
-0.005448191527924131,-0.01034094577460501
-0.005447851527924132,-0.01067008135215058
-0.005447511527924131,-0.01067008135215058
-0.005447171527924131,-0.0109663033719416
-0.005446831527924132,-0.01053842712113235
-0.005446491527924131,-0.009518106830741082
-0.005446151527924131,-0.0084319594248407
-0.005445811527924132,-0.007279984903431201
-0.005445471527924131,-0.005930529035492861
-0.005445131527924131,-0.00510769009163043
-0.005444791527924132,-0.00431776470552106
-0.005444451527924131,-0.003099963068600531
-0.005444111527924131,-0.002046729220456619
-0.005443771527924132,-0.001388458065365479
-0.005443431527924131,-0.001190976718838434
-0.005443091527924131,-0.001355544507610922
-0.005442751527924132,-0.001322630949856365
-0.005442411527924131,-0.001454285180874952
-0.005442071527924131,-0.001651766527401934
-0.005441731527924131,-0.00168468008515649
-0.005441391527924131,-0.001717593642910272
-0.005441051527924131,-0.001289717392101805
-0.005440711527924131,-0.0007960140257834494
-0.005440371527924131,0.00019139270685416
-0.005440031527924131,0.0006850960731716212
-0.005439691527924131,0.001507935017035548
-0.005439351527924131,0.002264946845390961
-0.005439011527924131,0.00259408242293593
-0.005438671527924131,0.003054872231499733
-0.005438331527924131,0.003384007809045125
-0.005437991527924131,0.00328526713578163
-0.005437651527924131,0.002989045115990616
-0.005437311527924131,0.003186526462518439
-0.005436971527924131,0.003449834924554418
-0.005436631527924131,0.003910624733118217
-0.005436291527924132,0.004338500983926681
-0.005435951527924131,0.004930945023509487
-0.005435611527924131,0.006082919544918986
-0.005435271527924132,0.007037412719799406
-0.005434931527924131,0.007860251663665069
-0.005434591527924131,0.008288127914474312
-0.005434251527924132,0.007958992336929338
-0.005433911527924131,0.007991905894683298
-0.005433571527924131,0.007300721181837598
-0.005433231527924132,0.005885438198394218
-0.005432891527924131,0.004470155214945688
-0.005432551527924131,0.003054872231499733
-0.005432211527924132,0.001771243479074338
-0.005431871527924131,0.001310453670508204
-0.005431531527924131,0.00114588588173542
-0.005431191527924132,0.0006850960731724594
-0.005430851527924131,0.0002243062646078188
-0.005430511527924131,0.00045470116888972
-0.005430171527924132,0.001145885881734163
-0.005429831527924131,0.001573762132544662
-0.005429491527924131,0.002232033287635805
-0.005429151527924132,0.002725736653953263
-0.005428811527924131,0.002857390884972388
-0.005428471527924131,0.003647316271081759
-0.005428131527924132,0.004470155214944191
-0.005427791527924131,0.005260080601055058
-0.005427451527924131,0.006346228006955442
-0.005427111527924132,0.007070326277555699
-0.005426771527924131,0.007465288970610384
-0.005426431527924131,0.00762985675938317
-0.005426091527924132,0.007267807624083042
-0.005425751527924131,0.006477882237973671
-0.005425411527924131,0.005523389063091515
-0.005425071527924132,0.004865117908000373
-0.005424731527924131,0.004206846752909232
-0.005424391527924131,0.004305587426172902
-0.005424051527924132,0.004832204350245815
-0.005423711527924131,0.005819611082884384
-0.005423371527924131,0.0068399313732738
-0.005423031527924132,0.007267807624083042
-0.005422691527924131,0.007037412719800604
-0.005422351527924131,0.006741190700010127
-0.005422011527924132,0.006609536468991898
-0.005421671527924131,0.006477882237972594
-0.005421331527924131,0.005885438198391643
-0.005420991527924131,0.0059183517561462
-0.005420651527924131,0.00621457377593871
-0.005420311527924131,0.007037412719801142
-0.005419971527924131,0.00795899233692874
-0.005419631527924131,0.008683090607529895
-0.005419291527924131,0.009176793973847354
-0.005418951527924131,0.009176793973847354
-0.005418611527924131,0.008946399069564554
-0.005418271527924131,0.008452695703247097
-0.005417931527924131,0.008419782145492541
-0.005417591527924131,0.00753111608611878
-0.005417251527924131,0.007136153393064813
-0.005416911527924131,0.0068399313732738
-0.005416571527924131,0.006872844931027997
-0.005416231527924131,0.006675363584501014
-0.005415891527924131,0.006346228006955442
-0.005415551527924131,0.00637914156470958
-0.005415211527924131,0.006148746660428099
-0.005414871527924131,0.005786697525127971
