Analysis/New Tests_CMB/wrd01_d2s01/cmb06_ch30.csv

#Digilent WaveForms Oscilloscope Acquisition
#Device Name: ADP3450
#Serial Number: SN:210018B9D9B0
#Date Time: 2024-06-21 15:29:16.997.788.110
#Sample rate: 2.5e+07Hz
#Samples: 32768
#Trigger: Source: Channel 3 Type: Edge Condition: Rising Level: 60 mV Hyst.: Auto HoldOff: 0 s
#Channel 3: Range: 100 mV/div Offset: 0 V Attenuation: 1 X Coupling: DC Bandwidth: 0 Hz Sample Mode: Average

Time (s),Channel 3 (V)
-0.0006553416326530613,-0.06850309938439708
-0.0006553016326530613,-0.06804230957583329
-0.0006552616326530612,-0.06738403842074304
-0.0006552216326530612,-0.06787774178706052
-0.0006551816326530612,-0.06735112486298758
-0.0006551416326530613,-0.06642954524586001
-0.0006551016326530613,-0.06735112486298758
-0.0006550616326530613,-0.06692324861217913
-0.0006550216326530612,-0.06649537236136838
-0.0006549816326530612,-0.06610040966831443
-0.0006549416326530613,-0.06587001476403254
-0.0006549016326530613,-0.06544213851322328
-0.0006548616326530613,-0.06563961985975025
-0.0006548216326530612,-0.06537631139771548
-0.0006547816326530612,-0.06610040966831443
-0.0006547416326530613,-0.06465221312711392
-0.0006547016326530613,-0.06465221312711392
-0.0006546616326530613,-0.06475095380037742
-0.0006546216326530612,-0.06438890466507656
-0.0006545816326530612,-0.06389520129875911
-0.0006545416326530613,-0.06425725043405922
-0.0006545016326530613,-0.06323693014366796
-0.0006544616326530613,-0.06369771995223175
-0.0006544216326530612,-0.06359897927896815
-0.0006543816326530612,-0.06363189283672263
-0.0006543416326530612,-0.06297362168163151
-0.0006543016326530613,-0.06307236235489516
-0.0006542616326530613,-0.06271031321959505
-0.0006542216326530613,-0.06264448610408606
-0.0006541816326530612,-0.06198621494899479
-0.0006541416326530612,-0.06145959802492187
-0.0006541016326530613,-0.06201912850674934
-0.0006540616326530613,-0.06168999292920378
-0.0006540216326530613,-0.06037345061902388
-0.0006539816326530612,-0.06093298110084776
-0.0006539416326530612,-0.06027470994575782
-0.0006539016326530613,-0.06086715398533984
-0.0006538616326530613,-0.05955061167515756
-0.0006538216326530613,-0.06024179638800201
-0.0006537816326530612,-0.05892525407782223
-0.0006537416326530612,-0.05961643879066668
-0.0006537016326530613,-0.05856320494252085
-0.0006536616326530613,-0.05971517946393035
-0.0006536216326530613,-0.05879359984680443
-0.0006535816326530612,-0.05744414397886842
-0.0006535416326530612,-0.05882651340455731
-0.0006535016326530612,-0.05760871176763869
-0.0006534616326530613,-0.05704918128581122
-0.0006534216326530613,-0.05688461349703844
-0.0006533816326530613,-0.05675295926602045
-0.0006533416326530612,-0.0564567372462292
-0.0006533016326530612,-0.05642382368847464
-0.0006532616326530613,-0.05593012032215628
-0.0006532216326530613,-0.05523893560931058
-0.0006531816326530613,-0.05546933051359206
-0.0006531416326530612,-0.05543641695583685
-0.0006531016326530612,-0.0548439729162559
-0.0006530616326530613,-0.05431735599218298
-0.0006530216326530613,-0.05402113397239196
-0.0006529816326530613,-0.05385656618361948
-0.0006529416326530612,-0.05375782551035521
-0.0006529016326530612,-0.05359325772158272
-0.0006528616326530613,-0.05316538147077348
-0.0006528216326530613,-0.05214506118038222
-0.0006527816326530613,-0.05254002387343618
-0.0006527416326530612,-0.0520463205071177
-0.0006527016326530612,-0.05158553069855474
-0.0006526616326530613,-0.05165135781406385
-0.0006526216326530613,-0.0511576544477455
-0.0006525816326530613,-0.05109182733223638
-0.0006525416326530613,-0.05043355617714644
-0.0006525016326530612,-0.05026898838837246
-0.0006524616326530612,-0.05013733415735423
-0.0006524216326530613,-0.0493144952134903
-0.0006523816326530613,-0.0495448901177722
-0.0006523416326530613,-0.04951197656001771
-0.0006523016326530612,-0.04944614944450661
-0.0006522616326530612,-0.0483929155963627
-0.0006522216326530613,-0.04888661896268106
-0.0006521816326530613,-0.04799795290330802
-0.0006521416326530613,-0.04780047155678104
-0.0006521016326530612,-0.04780047155677972
-0.0006520616326530612,-0.04727385463270776
-0.0006520216326530613,-0.04697763261291674
-0.0006519816326530613,-0.04697763261291674
-0.0006519416326530613,-0.04661558347761727
-0.0006519016326530612,-0.04599022588028021
-0.0006518616326530612,-0.04608896655354371
-0.0006518216326530613,-0.04638518857333472
-0.0006517816326530613,-0.04625353434231649
-0.0006517416326530613,-0.04529904116743434
-0.0006517016326530612,-0.04506864626315166
-0.0006516616326530612,-0.04464077001234319
-0.0006516216326530612,-0.04421289376153395
-0.0006515816326530613,-0.04473951068560687
-0.0006515416326530613,-0.0444762022235704
-0.0006515016326530613,-0.04404832597276194
-0.0006514616326530612,-0.04342296837542482
-0.0006514216326530612,-0.04355462260644281
-0.0006513816326530613,-0.04371919039521559
-0.0006513416326530613,-0.04312674635563356
-0.0006513016326530613,-0.04246847520054362
-0.0006512616326530612,-0.04246847520054122
-0.0006512216326530612,-0.04181020404545128
-0.0006511816326530613,-0.04200768539197863
-0.0006511416326530613,-0.04138232779464204
-0.0006511016326530613,-0.04105319221709706
-0.0006510616326530612,-0.04088862442832386
-0.0006510216326530612,-0.04098736510158735
-0.0006509816326530613,-0.04052657529302355
-0.0006509416326530613,-0.03970373634915963
-0.0006509016326530613,-0.04036200750425076
-0.0006508616326530612,-0.04003287192670436
-0.0006508216326530612,-0.03957208211814139
-0.0006507816326530612,-0.04016452615772342
-0.0006507416326530613,-0.03940751432936861
-0.0006507016326530613,-0.03914420586733215
-0.0006506616326530613,-0.03851884826999671
-0.0006506216326530612,-0.03828845336571367
-0.0006505816326530612,-0.03848593471224102
-0.0006505416326530613,-0.0377289228838862
-0.0006505016326530613,-0.03792640423041354
-0.0006504616326530613,-0.03677442970900614
-0.0006504216326530612,-0.03690608394002209
-0.0006503816326530612,-0.0368073432667586
-0.0006503416326530613,-0.03637946701594936
-0.0006503016326530613,-0.03601741788064923
-0.0006502616326530613,-0.03598450432289473
-0.0006502216326530612,-0.0354908009565762
-0.0006501816326530612,-0.0354249738410672
-0.0006501416326530613,-0.03526040605229441
-0.0006501016326530613,-0.03529331961004897
-0.0006500616326530613,-0.035030011148013
-0.0006500216326530612,-0.03417425864639415
-0.0006499816326530612,-0.03424008576190315
-0.0006499416326530612,-0.0345033942239396
-0.0006499016326530613,-0.03354890104905744
-0.0006498616326530613,-0.03397677729986669
-0.0006498216326530613,-0.03285771633621378
-0.0006497816326530612,-0.03275897566294807
-0.0006497416326530612,-0.0328906298939663
-0.0006497016326530613,-0.03249566720091162
-0.0006496616326530613,-0.03229818585438428
-0.0006496216326530613,-0.03236401296989327
-0.0006495816326530612,-0.03190322316132941
-0.0006495416326530612,-0.03180448248806592
-0.0006495016326530613,-0.03117912489072934
-0.0006494616326530613,-0.03147534691052035
-0.0006494216326530613,-0.03029045883135845
-0.0006493816326530612,-0.03012589104259027
-0.0006493416326530612,-0.03384512306884846
-0.0006493016326530613,-0.03022463171584718
-0.0006492616326530613,-0.02943470632973781
-0.0006492216326530613,-0.02933596565647432
-0.0006491816326530612,-0.03094872998644528
-0.0006491416326530612,-0.02976384190728338
-0.0006491016326530613,-0.03068542152441098
-0.0006490616326530613,-0.02999423681156528
-0.0006490216326530613,-0.03002715036931984
-0.0006489816326530612,-0.02996132325380892
-0.0006489416326530612,-0.02897391652117401
-0.0006489016326530612,-0.02936887921422869
-0.0006488616326530613,-0.02940179277198325
-0.0006488216326530613,-0.02861186738587388
-0.0006487816326530613,-0.02936887921422732
-0.0006487416326530612,-0.02894100296341945
-0.0006487016326530612,-0.02894100296341945
-0.0006486616326530613,-0.02838147248159198
-0.0006486216326530613,-0.02864478094362844
-0.0006485816326530613,-0.02838147248159246
-0.0006485416326530612,-0.02808525046180133
-0.0006485016326530612,-0.02828273180832831
-0.0006484616326530613,-0.0282169046928192
-0.0006484216326530613,-0.02726241151793704
-0.0006483816326530613,-0.02861186738587142
-0.0006483416326530612,-0.02782194199976385
-0.0006483016326530612,-0.02745989286446438
-0.0006482616326530613,-0.02765737421099173
-0.0006482216326530613,-0.02693327594039147
-0.0006481816326530613,-0.02673579459386412
-0.0006481416326530612,-0.02686744882488254
-0.0006481016326530612,-0.02696618949814603
-0.0006480616326530612,-0.0266041403628459
-0.0006480216326530613,-0.02663705392060045
-0.0006479816326530613,-0.02657122680509134
-0.0006479416326530613,-0.02574838786122891
-0.0006479016326530612,-0.02571547430347363
-0.0006478616326530612,-0.0261433505542821
-0.0006478216326530613,-0.02594586920775475
-0.0006477816326530613,-0.02588004209224564
-0.0006477416326530613,-0.02561673363020966
-0.0006477016326530612,-0.02561673363021056
-0.0006476616326530612,-0.026373745458564
-0.0006476216326530613,-0.02535342516817273
-0.0006475816326530613,-0.02597878276550931
-0.0006475416326530613,-0.02568256074571884
-0.0006475016326530612,-0.02518885737940048
-0.0006474616326530612,-0.02548507939919096
-0.0006474216326530613,-0.02588004209224564
-0.0006473816326530613,-0.02525468449490905
-0.0006473416326530613,-0.02502428959062716
-0.0006473016326530612,-0.0254521658414352
-0.0006472616326530612,-0.02479389468634526
-0.0006472216326530612,-0.02535342516817273
-0.0006471816326530613,-0.02525468449490905
-0.0006471416326530613,-0.02459641333981791
-0.0006471016326530613,-0.02522177093715336
-0.0006470616326530612,-0.02416853708900867
-0.0006470216326530612,-0.02588004209224564
-0.0006469816326530613,-0.02462932689757247
-0.0006469416326530613,-0.02374066083819943
-0.0006469016326530613,-0.02509011670613381
-0.0006468616326530612,-0.02265451343230048
-0.0006468216326530612,-0.02344443881840842
-0.0006467816326530613,-0.02495846247511804
-0.0006467416326530613,-0.02367483372269031
-0.0006467016326530613,-0.02321404391412735
-0.0006466616326530612,-0.02387231506921688
-0.0006466216326530612,-0.02344443881840842
-0.0006465816326530613,-0.02311530324086284
-0.0006465416326530613,-0.02318113035637196
-0.0006465016326530613,-0.02275325410556349
-0.0006464616326530612,-0.02295073545208922
-0.0006464216326530612,-0.02248994564352626
-0.0006463816326530612,-0.02252285920128081
-0.0006463416326530613,-0.02403688285799044
-0.0006463016326530613,-0.02163419314190777
-0.0006462616326530613,-0.02038347794723688
-0.0006462216326530612,-0.02311530324086284
-0.0006461816326530612,-0.02248994564352626
-0.0006461416326530613,-0.02196332871945334
-0.0006461016326530613,-0.02137088467987132
-0.0006460616326530613,-0.02212789650822475
-0.0006460216326530612,-0.02216081006598057
-0.0006459816326530612,-0.02209498295047157
-0.0006459416326530613,-0.021765847372926
-0.0006459016326530613,-0.02117340333334397
-0.0006458616326530613,-0.02153545246864344
-0.0006458216326530612,-0.02100883554457143
-0.0006457816326530612,-0.02114048977558942
-0.0006457416326530613,-0.02100883554457119
-0.0006457016326530613,-0.02071261352478018
-0.0006456616326530613,-0.02028473727397171
-0.0006456216326530612,-0.02038347794723436
-0.0006455816326530612,-0.02025182371621638
-0.0006455416326530613,-0.02081135419804385
-0.0006455016326530613,-0.02031765083172549
-0.0006454616326530613,-0.01985686102316169
-0.0006454216326530612,-0.01939607121459843
-0.0006453816326530612,-0.0196922932343889
-0.0006453416326530612,-0.01965937967663435
-0.0006453016326530613,-0.01956063900337068
-0.0006452616326530613,-0.01949481188786156
-0.0006452216326530613,-0.01873780005950813
-0.0006451816326530612,-0.01965937967663093
-0.0006451416326530612,-0.01778330688462459
-0.0006451016326530613,-0.01972520679214346
-0.0006450616326530613,-0.0199226881386708
-0.0006450216326530613,-0.01867197294399991
-0.0006449816326530612,-0.02002142881193322
-0.0006449416326530612,-0.01933024409908878
-0.0006449016326530613,-0.01880362717501586
-0.0006448616326530613,-0.01972520679214346
-0.0006448216326530613,-0.01877071361726304
-0.0006447816326530612,-0.01880362717501574
-0.0006447416326530612,-0.01873780005950675
-0.0006447016326530613,-0.01906693563705232
-0.0006446616326530613,-0.01870488650175219
-0.0006446216326530613,-0.01827701025094295
-0.0006445816326530612,-0.01900110852154212
-0.0006445416326530612,-0.01840866448196118
-0.0006445016326530612,-0.0192315034258251
-0.0006444616326530613,-0.01709212217177889
-0.0006444216326530613,-0.01916567631031599
-0.0006443816326530613,-0.01817826957768107
-0.0006443416326530612,-0.01821118313543425
-0.0006443016326530612,-0.01844157803971573
-0.0006442616326530613,-0.01844157803971573
-0.0006442216326530613,-0.01840866448196118
-0.0006441816326530613,-0.01883654073276964
-0.0006441416326530612,-0.01850740515522443
-0.0006441016326530612,-0.01827701025094295
-0.0006440616326530613,-0.01850740515522485
-0.0006440216326530613,-0.01880362717501586
-0.0006439816326530613,-0.01860614582848888
-0.0006439416326530612,-0.01821118313543365
-0.0006439016326530612,-0.01811244246217016
-0.0006438616326530613,-0.01837575092420662
-0.0006438216326530613,-0.01827701025094295
-0.0006437816326530613,-0.01794787467339738
-0.0006437416326530612,-0.01824409669318881
-0.0006437016326530612,-0.01847449159747029
-0.0006436616326530612,-0.01827701025094295
-0.0006436216326530613,-0.01817826957767928
-0.0006435816326530613,-0.01821118313543383
-0.0006435416326530613,-0.01834283736645182
-0.0006435016326530612,-0.01804661534666105
-0.0006434616326530612,-0.01824409669318839
-0.0006434216326530613,-0.01778330688462459
-0.0006433816326530613,-0.01758582553809725
-0.0006433416326530613,-0.01784913400013323
-0.0006433016326530612,-0.01755291198034305
-0.0006432616326530612,-0.01775039332687003
-0.0006432216326530613,-0.01728960351830624
-0.0006431816326530613,-0.01719086284504256
-0.0006431416326530613,-0.01745417130707854
-0.0006431016326530612,-0.01735543063381535
-0.0006430616326530612,-0.01735543063381535
-0.0006430216326530613,-0.01590723409261484
-0.0006429816326530613,-0.01666424592096965
-0.0006429416326530613,-0.01669715947872415
-0.0006429016326530612,-0.01603888832363301
-0.0006428616326530612,-0.01600597476587851
-0.0006428216326530612,-0.01626928322791496
-0.0006427816326530613,-0.01607180188138762
-0.0006427416326530613,-0.01613762899689674
-0.0006427016326530613,-0.01620345611240573
-0.0006426616326530612,-0.01584140697710572
-0.0006426216326530612,-0.01567683918833294
-0.0006425816326530613,-0.01577557986159661
-0.0006425416326530613,-0.01534770361078737
-0.0006425016326530613,-0.01505148159099689
-0.0006424616326530612,-0.01518313582201446
-0.0006424216326530612,-0.01511730870650547
-0.0006423816326530613,-0.01515022226426002
-0.0006423416326530613,-0.01531479005303281
-0.0006423016326530613,-0.0154464442840508
-0.0006422616326530612,-0.01449195110916852
-0.0006422216326530612,-0.01429446976264154
-0.0006421816326530613,-0.01403116130060508
-0.0006421416326530613,-0.01442612399365977
-0.0006421016326530613,-0.01393242062734231
-0.0006420616326530612,-0.01383367995407792
-0.0006420216326530612,-0.01393242062734141
-0.0006419816326530613,-0.01416281553162331
-0.0006419416326530613,-0.01422864264713243
-0.0006419016326530613,-0.01324123591449571
-0.0006418616326530612,-0.01343871726102287
-0.0006418216326530612,-0.01333997658775938
-0.0006417816326530612,-0.01333997658775938
-0.0006417416326530613,-0.0129450138947047
-0.0006417016326530613,-0.01291210033695014
-0.0006416616326530613,-0.01281335966368665
-0.0006416216326530612,-0.01222091562410444
-0.0006415816326530612,-0.01222091562410444
-0.0006415416326530613,-0.01215508850859533
-0.0006415016326530613,-0.01192469360431343
-0.0006414616326530613,-0.01156264446901396
-0.0006414216326530612,-0.0112993360069766
-0.0006413816326530612,-0.01116768177595861
-0.0006413416326530613,-0.0113322495647314
-0.0006413016326530613,-0.01060815129413114
-0.0006412616326530613,-0.01057523773637665
-0.0006412216326530612,-0.01070689196739428
-0.0006411816326530612,-0.0104106699476038
-0.0006411416326530613,-0.009653658119248986
-0.0006411016326530613,-0.009522003888230759
-0.0006410616326530613,-0.01001570725454911
-0.0006410216326530612,-0.01004862081230224
-0.0006409816326530612,-0.009258695426194301
-0.0006409416326530612,-0.00939034965721253
-0.0006409016326530613,-0.008764992059875945
-0.0006408616326530613,-0.009127041195176074
-0.0006408216326530613,-0.008534597155595123
-0.0006407816326530612,-0.008896646290893633
-0.0006407416326530612,-0.00860042427110316
-0.0006407016326530613,-0.007744671769484675
-0.0006406616326530613,-0.00837002936682126
-0.0006406216326530613,-0.008106720904785281
-0.0006405816326530612,-0.008139634462539779
-0.0006405416326530612,-0.00837002936682126
-0.0006405016326530613,-0.007448449749693661
-0.0006404616326530613,-0.007942153116012016
-0.0006404216326530613,-0.007580103980712547
-0.0006403816326530612,-0.007053487056638975
-0.0006403416326530612,-0.007053487056638975
-0.0006403016326530613,-0.007316795518675433
-0.0006402616326530613,-0.006954746383375304
-0.0006402216326530613,-0.007020573498884299
-0.0006401816326530612,-0.007349709076428373
-0.0006401416326530612,-0.006461043017056948
-0.0006401016326530612,-0.006954746383375304
-0.0006400616326530613,-0.007349709076429989
-0.0006400216326530613,-0.006757265036847961
-0.0006399816326530613,-0.006461043017057486
-0.0006399416326530612,-0.006329388786038719
-0.0006399016326530612,-0.006592697248075176
-0.0006398616326530613,-0.005605290515438462
-0.0006398216326530613,-0.006987659941129861
-0.0006397816326530613,-0.006197734555021928
-0.0006397416326530612,-0.006428129459302271
-0.0006397016326530612,-0.006362302343793276
-0.0006396616326530613,-0.006362302343793276
-0.0006396216326530613,-0.006362302343793276
-0.0006395816326530613,-0.00655978369032026
-0.0006395416326530612,-0.006691437921338248
-0.0006395016326530612,-0.006362302343793276
-0.0006394616326530613,-0.006724351479093405
-0.0006394216326530613,-0.006033166766247705
-0.0006393816326530613,-0.006263561670529186
-0.0006393416326530612,-0.006461043017057905
-0.0006393016326530612,-0.006987659941129861
-0.0006392616326530612,-0.006098993881756819
-0.0006392216326530613,-0.006625610805829733
-0.0006391816326530613,-0.005967339650738591
-0.0006391416326530613,-0.00632938878603806
-0.0006391016326530612,-0.007086400614393532
-0.0006390616326530612,-0.006329388786038719
-0.0006390216326530613,-0.005605290515438462
-0.0006389816326530613,-0.005967339650738591
-0.0006389416326530613,-0.005868598977475099
-0.0006389016326530612,-0.005704031188702972
-0.0006388616326530612,-0.006164820997265934
-0.0006388216326530613,-0.006131907439511376
-0.0006387816326530613,-0.005638204073193019
-0.0006387416326530613,-0.005111587149121063
-0.0006387016326530612,-0.005012846475857512
-0.0006386616326530612,-0.005605290515438462
-0.0006386216326530613,-0.004815365129329092
-0.0006385816326530613,-0.005111587149120106
-0.0006385416326530613,-0.005144500706874603
-0.0006385016326530612,-0.004321661763011154
-0.0006384616326530612,-0.004552056667292635
-0.0006384216326530613,-0.004288748205256179
-0.0006383816326530613,-0.005934426092984033
-0.0006383416326530613,-0.004288748205256179
-0.0006383016326530612,-0.003959612627712044
-0.0006382616326530612,-0.004749538013819977
-0.0006382216326530612,-0.003729217723428708
-0.0006381816326530613,-0.003663390607919593
-0.0006381416326530613,-0.004453315994028964
-0.0006381016326530613,-0.00343299570363955
-0.0006380616326530612,-0.003498822819146568
-0.0006380216326530612,-0.00336716858812858
-0.0006379816326530613,-0.003301341472619465
-0.0006379416326530613,-0.003432995703637694
-0.0006379016326530613,-0.003301341472619704
-0.0006378616326530612,-0.003367168588127622
-0.0006378216326530612,-0.002840551664055666
-0.0006377816326530613,-0.00313677368384668
-0.0006377416326530613,-0.002643070317528323
-0.0006377016326530613,-0.003005119452827792
-0.0006376616326530612,-0.002379761855491806
-0.0006376216326530612,-0.002346848297737309
