Analysis/New Tests_CMB/wrd01_d2s01/cmb02_ch15.csv

#Digilent WaveForms Oscilloscope Acquisition
#Device Name: ADP3450
#Serial Number: SN:210018B9D9B0
#Date Time: 2024-08-06 12:41:37.103.904.670
#Sample rate: 2.94118e+06Hz
#Samples: 32768
#Trigger: Source: Channel 3 Type: Edge Condition: Rising Level: 20 mV Hyst.: Auto HoldOff: 0 s
#Channel 3: Range: 200 mV/div Offset: 0 V Attenuation: 1 X Coupling: DC Bandwidth: 0 Hz Sample Mode: Average

Time (s),Channel 3 (V)
-0.005570424213836478,0.02233832001818052
-0.005570084213836477,0.02299659117327316
-0.005569744213836478,0.02381943011713559
-0.005569404213836478,0.02395108434815382
-0.005569064213836477,0.02454352838773531
-0.005568724213836478,0.02424730636794483
-0.005568384213836478,0.02418147925243572
-0.005568044213836477,0.02385234367488955
-0.005567704213836478,0.02352320809734458
-0.005567364213836478,0.02296367761551711
-0.005567024213836477,0.02181170309410575
-0.005566684213836478,0.02079138280371634
-0.005566344213836478,0.01973814895557051
-0.005566004213836477,0.01796081683682239
-0.005565664213836478,0.01684175587316948
-0.005565324213836478,0.0157556084672691
-0.005564984213836477,0.01453780683034941
-0.005564644213836478,0.01394536279076846
-0.005564304213836478,0.01404410346403213
-0.005563964213836477,0.01332000519343169
-0.005563624213836478,0.0132212645201682
-0.005563284213836478,0.0139124492330139
-0.005562944213836478,0.01493276952340332
-0.005562604213836478,0.0155252135629872
-0.005562264213836478,0.0155252135629872
-0.005561924213836478,0.01592017625604117
-0.005561584213836478,0.01608474404481467
-0.005561244213836478,0.01615057116032378
-0.005560904213836478,0.01605183048706029
-0.005560564213836478,0.01661136096888758
-0.005560224213836478,0.01654553385337847
-0.005559884213836478,0.01519607798544408
-0.005559544213836478,0.01374788144424112
-0.005559204213836478,0.01295795605813175
-0.005558864213836478,0.01213511711426932
-0.005558524213836478,0.01098314259285832
-0.005558184213836478,0.01029195788001262
-0.005557844213836478,0.01009447653348564
-0.005557504213836478,0.01039069855327629
-0.005557164213836478,0.01081857480408553
-0.005556824213836478,0.01111479682387601
-0.005556484213836478,0.011378105285913
-0.005556144213836478,0.01167432730570402
-0.005555804213836478,0.01213511711426698
-0.005555464213836478,0.01220094422977693
-0.005555124213836478,0.0122996849030406
-0.005554784213836478,0.01200346288325013
-0.005554444213836478,0.01131227817040389
-0.005554104213836478,0.01052235278429452
-0.005553764213836478,0.01025904432225806
-0.005553424213836478,0.009896995186957936
-0.005553084213836478,0.01029195788001262
-0.005552744213836478,0.01111479682387655
-0.005552404213836478,0.01118062393938566
-0.005552064213836478,0.011378105285913
-0.005551724213836478,0.01114771038163111
-0.005551384213836478,0.01091731547734813
-0.005551044213836478,0.01032487143776718
-0.005550704213836478,0.01002864941797616
-0.005550364213836478,0.008942502012075181
-0.005550024213836478,0.008613366434530208
-0.005549684213836478,0.007757613932911723
-0.005549344213836477,0.006836034315782388
-0.005549004213836478,0.005881541140901968
-0.005548664213836478,0.005420751332338168
-0.005548324213836477,0.006013195371921273
-0.005547984213836478,0.006605639411502225
-0.005547644213836478,0.007625959701893495
-0.005547304213836477,0.008382971530249386
-0.005546964213836478,0.008975415569830336
-0.005546624213836478,0.009534946051657807
-0.005546284213836477,0.009962822302467709
-0.005545944213836478,0.01032487143776718
-0.005545604213836478,0.01035778499552173
-0.005545264213836477,0.01052235278429398
-0.005544924213836478,0.01022613076450351
-0.005544584213836478,0.01075274768857642
-0.005544244213836477,0.01078566124633092
-0.005543904213836478,0.01075274768857642
-0.005543564213836478,0.01062109345755819
-0.005543224213836477,0.01062109345755897
-0.005542884213836478,0.01104896970836743
-0.005542544213836478,0.0116085001901949
-0.005542204213836478,0.01157558663244041
-0.005541864213836478,0.01127936461264933
-0.005541524213836478,0.01071983413082186
-0.005541184213836478,0.009765340955941443
-0.005540844213836478,0.009205810474112236
-0.005540504213836478,0.008415885088002865
-0.005540164213836478,0.007560132586385937
-0.005539824213836478,0.007132256335575138
-0.005539484213836478,0.00630941739171121
-0.005539144213836478,0.005881541140902746
-0.005538804213836478,0.005684059794374625
-0.005538464213836478,0.005914454698656525
-0.005538124213836478,0.006704380084764459
-0.005537784213836478,0.007988008837193623
-0.005537444213836478,0.008745020665548437
-0.005537104213836478,0.01025904432225531
-0.005536764213836478,0.01127936461264933
-0.005536424213836478,0.01180598153672225
-0.005536084213836478,0.01187180865223124
-0.005535744213836478,0.0116085001901949
-0.005535404213836478,0.00973242739818515
-0.005535064213836478,0.007889268163933304
-0.005534724213836478,0.006046108929674754
-0.005534384213836478,0.005124529312547154
-0.005534044213836478,0.004400431041948216
-0.005533704213836478,0.004564998830719684
-0.005533364213836478,0.005420751332338168
-0.005533024213836478,0.00653981229599311
-0.005532684213836478,0.008317144414739193
-0.005532344213836478,0.009600773167166921
-0.005532004213836478,0.01071983413082186
-0.005531664213836478,0.0116085001901949
-0.005531324213836478,0.01236551201854972
-0.005530984213836478,0.0125300798073225
-0.005530644213836478,0.01269464759609529
-0.005530304213836478,0.01295795605813175
-0.005529964213836478,0.01295795605813175
-0.005529624213836478,0.01302378317363954
-0.005529284213836478,0.0122996849030406
-0.005528944213836478,0.01091731547734921
-0.005528604213836478,0.00930455114737489
-0.005528264213836478,0.008745020665548437
-0.005527924213836478,0.008448798645757422
-0.005527584213836477,0.008843761338811748
-0.005527244213836478,0.008646279992284765
-0.005526904213836478,0.009172896916357679
-0.005526564213836477,0.01016030364899595
-0.005526224213836478,0.01101605615061288
-0.005525884213836478,0.01167432730570402
-0.005525544213836477,0.01203637644100474
-0.005525204213836478,0.01236551201854972
-0.005524864213836478,0.01233259846079516
-0.005524524213836477,0.01154267307468381
-0.005524184213836478,0.01045652566878541
-0.005523844213836478,0.009896995186957936
-0.005523504213836477,0.009271637589619793
-0.005523164213836478,0.008415885088002865
-0.005522824213836478,0.008152576625966409
-0.005522484213836477,0.008251317299230558
-0.005522144213836478,0.008514625761266537
-0.005521804213836478,0.008415885088002865
-0.005521464213836477,0.008843761338813245
-0.005521124213836478,0.009469118936148692
-0.005520784213836478,0.009172896916357679
-0.005520444213836478,0.008745020665549216
-0.005520104213836478,0.007988008837193623
-0.005519764213836478,0.007593046144138938
-0.005519424213836478,0.006934774989048993
-0.005519084213836478,0.007099342777820581
-0.005518744213836478,0.007099342777820581
-0.005518404213836478,0.007066429220066083
-0.005518064213836478,0.007099342777820581
-0.005517724213836478,0.00756013258638438
-0.005517384213836478,0.007000602104557927
-0.005517044213836478,0.007132256335575138
-0.005516704213836478,0.007198083451084253
-0.005516364213836478,0.00818549018371917
-0.005516024213836478,0.00881084778105755
-0.005515684213836478,0.009172896916357679
-0.005515344213836478,0.00881084778105821
-0.005515004213836478,0.008284230856984636
-0.005514664213836478,0.007658873259648051
-0.005514324213836478,0.007033515662312605
-0.005513984213836478,0.006803120758029567
-0.005513644213836478,0.006868947873538681
-0.005513304213836478,0.007033515662311167
-0.005512964213836478,0.007658873259648051
-0.005512624213836478,0.007988008837193623
-0.005512284213836478,0.007823441048420837
-0.005511944213836478,0.008317144414739193
-0.005511604213836478,0.008646279992284765
-0.005511264213836478,0.009172896916357679
-0.005510924213836478,0.009403291820639578
-0.005510584213836478,0.009929908744712493
-0.005510244213836478,0.01022613076450351
-0.005509904213836478,0.01025904432225806
-0.005509564213836478,0.01045652566878541
-0.005509224213836478,0.01009447653348528
-0.005508884213836478,0.01042361211103085
-0.005508544213836478,0.01042361211103085
-0.005508204213836478,0.01025904432225806
-0.005507864213836478,0.01022613076450315
-0.005507524213836478,0.01002864941797616
-0.005507184213836478,0.009238724031866792
-0.005506844213836477,0.009139983358601805
-0.005506504213836478,0.008415885088002865
-0.005506164213836478,0.008284230856984636
-0.005505824213836477,0.008415885088003583
-0.005505484213836478,0.00881084778105755
-0.005505144213836478,0.009403291820639578
-0.005504804213836477,0.009798254513693365
-0.005504464213836478,0.009304551147375908
-0.005504124213836478,0.008679193550039321
-0.005503784213836477,0.008020922394946504
-0.005503444213836478,0.007099342777820581
-0.005503104213836478,0.00630941739171121
-0.005502764213836477,0.006111936045183568
-0.005502424213836478,0.005947368256411082
-0.005502084213836478,0.005881541140901968
-0.005501744213836477,0.006539812295993768
-0.005501404213836478,0.006901861431293239
-0.005501064213836478,0.007066429220066024
-0.005500724213836477,0.007428478355366152
-0.005500384213836478,0.007428478355366152
-0.005500044213836478,0.007691786817402609
-0.005499704213836478,0.007658873259648111
-0.005499364213836478,0.007691786817402609
-0.005499024213836478,0.00756013258638438
-0.005498684213836478,0.007395564797611894
-0.005498344213836478,0.008218403741475522
-0.005498004213836478,0.008613366434530208
-0.005497664213836478,0.009271637589620152
-0.005497324213836478,0.009666600282676035
-0.005496984213836478,0.01016030364899439
-0.005496644213836478,0.01016030364899439
-0.005496304213836478,0.01085148836184009
-0.005495964213836478,0.01081857480408553
-0.005495624213836478,0.009962822302468605
-0.005495284213836478,0.009370378262885021
-0.005494944213836478,0.009271637589621349
-0.005494604213836478,0.009337464705130345
-0.005494264213836478,0.009469118936148692
-0.005493924213836478,0.009304551147375908
-0.005493584213836478,0.008481712203513476
-0.005493244213836478,0.007461391913120709
-0.005492904213836478,0.006210676718447538
-0.005492564213836478,0.005354924216830611
-0.005492224213836478,0.005322010659074497
-0.005491884213836478,0.005025788639283483
-0.005491544213836478,0.005519492005600942
-0.005491204213836478,0.006276503833956653
-0.005490864213836478,0.007230997008838809
-0.005490524213836478,0.007724700375157166
-0.005490184213836478,0.008777934223302994
-0.005489844213836478,0.009962822302467049
-0.005489504213836478,0.01045652566878541
-0.005489164213836478,0.01124645105489478
-0.005488824213836478,0.01124645105489478
-0.005488484213836478,0.01127936461264933
-0.005488144213836478,0.01052235278429332
-0.005487804213836478,0.009864081629203377
-0.005487464213836478,0.00871210710779388
-0.005487124213836478,0.007757613932911184
-0.005486784213836478,0.007461391913120709
-0.005486444213836478,0.006046108929674754
-0.005486104213836477,0.005914454698656405
-0.005485764213836478,0.005848627583147411
-0.005485424213836478,0.005815714025392853
-0.005485084213836477,0.006342330949466007
-0.005484744213836478,0.006473985180483996
-0.005484404213836478,0.005947368256411082
-0.005484064213836477,0.006243590276201737
-0.005483724213836478,0.006046108929674754
-0.005483384213836478,0.005684059794374625
-0.005483044213836477,0.005486578447847821
-0.005482704213836478,0.005782800467638296
-0.005482364213836478,0.005881541140901968
-0.005482024213836477,0.006309417391713066
-0.005481684213836478,0.007329737682102481
-0.005481344213836478,0.008580452876775651
-0.005481004213836477,0.009403291820641793
-0.005480664213836478,0.01062109345755819
-0.005480324213836478,0.01134519172815845
-0.005479984213836477,0.01206928999875924
-0.005479644213836478,0.01236551201854972
-0.005479304213836478,0.01246425269181339
-0.005478964213836478,0.01180598153672344
-0.005478624213836478,0.00973242739818515
-0.005478284213836478,0.003478851424819299
-0.005477944213836478,-0.008929559848626161
-0.005477604213836478,-0.02828273180832831
-0.005477264213836478,-0.05537058984032881
-0.005476924213836478,-0.08627642057180172
-0.005476584213836478,-0.1191570647686605
-0.005476244213836478,-0.1510503022328263
-0.005475904213836478,-0.1795863568059754
-0.005475564213836478,-0.2026587607919719
-0.005475224213836478,-0.2202675141906599
-0.005474884213836478,-0.2316226916159615
-0.005474544213836478,-0.2381395760513844
-0.005474204213836478,-0.2411347098070491
-0.005473864213836478,-0.2400814759589052
-0.005473524213836478,-0.23586854056632
-0.005473184213836478,-0.2300099272860088
-0.005472844213836478,-0.2227360310222649
-0.005472504213836478,-0.2150671720654399
-0.005472164213836478,-0.2070033504155734
-0.005471824213836478,-0.1992028372277576
-0.005471484213836478,-0.1916985460597044
-0.005471144213836478,-0.1847537853734928
-0.005470804213836478,-0.1779077653605574
-0.005470464213836478,-0.1718187571759519
-0.005470124213836478,-0.1655322676448314
-0.005469784213836478,-0.1599040492688022
-0.005469444213836478,-0.1544074851237912
-0.005469104213836478,-0.1487463531900073
-0.005468764213836478,-0.1429864805829598
-0.005468424213836478,-0.1378519655732489
-0.005468084213836478,-0.1322566607549742
-0.005467744213836478,-0.1265955288211904
-0.005467404213836478,-0.1229750374681891
-0.005467064213836478,-0.1183671393825511
-0.005466724213836478,-0.1142200311054769
-0.005466384213836478,-0.1096779601353414
-0.005466044213836478,-0.1060245552245922
-0.005465704213836478,-0.1010875215614086
-0.005465364213836478,-0.09703915395759086
-0.005465024213836478,-0.0930566134692967
-0.005464684213836478,-0.0892057272120135
-0.005464344213836477,-0.08571689009002449
-0.005464004213836478,-0.08242553431457475
-0.005463664213836478,-0.07906835142360993
-0.005463324213836477,-0.0758757363214134
-0.005462984213836478,-0.07340721948982609
-0.005462644213836478,-0.07136657890904358
-0.005462304213836477,-0.0694575925592756
-0.005461964213836478,-0.06744986553625126
-0.005461624213836478,-0.06547505207097784
-0.005461284213836477,-0.06310527591264481
-0.005460944213836478,-0.06040636417677605
-0.005460604213836478,-0.05721374907458401
-0.005460264213836477,-0.05342868993280443
-0.005459924213836478,-0.05040064261939069
-0.005459584213836478,-0.04714220040168953
-0.005459244213836477,-0.04454202933907515
-0.005458904213836478,-0.04213933962299685
-0.005458564213836478,-0.04023035327323254
-0.005458224213836477,-0.03881507028978413
-0.005457884213836478,-0.03746561442184974
-0.005457544213836478,-0.03664277547798581
-0.005457204213836478,-0.03506292470576994
-0.005456864213836478,-0.03394386374211213
-0.005456524213836478,-0.03298937056722998
-0.005456184213836478,-0.03305519768273897
-0.005455844213836478,-0.03302228412498454
-0.005455504213836478,-0.03183739604582048
-0.005455164213836478,-0.03048794017788609
-0.005454824213836478,-0.02913848430994679
-0.005454484213836478,-0.02732823863344615
-0.005454144213836478,-0.02535342516817632
-0.005453804213836478,-0.02347735237616297
-0.005453464213836478,-0.02225955073924436
-0.005453124213836478,-0.02071261352478299
-0.005452784213836478,-0.01883654073277042
-0.005452444213836478,-0.01768456621136092
-0.005452104213836478,-0.01715794928728897
-0.005451764213836478,-0.01646676457444231
-0.005451424213836478,-0.01643385101668775
-0.005451084213836478,-0.01653259168995124
-0.005450744213836478,-0.01590723409261484
-0.005450404213836478,-0.01445903755141432
-0.005450064213836478,-0.01287918677919846
-0.005449724213836478,-0.01169429870003153
-0.005449384213836478,-0.0101802750433219
-0.005449044213836478,-0.009851139465776928
-0.005448704213836478,-0.009324522541703417
-0.005448364213836478,-0.009851139465776329
-0.005448024213836478,-0.0101802750433219
-0.005447684213836478,-0.0101802750433219
-0.005447344213836478,-0.009785312350267215
-0.005447004213836478,-0.008797905617630502
-0.005446664213836478,-0.008073807347030245
-0.005446324213836478,-0.006790178594602518
-0.005445984213836478,-0.005341982053402005
-0.005445644213836478,-0.004288748205254083
-0.005445304213836478,-0.00313677368384668
-0.005444964213836478,-0.002050626277946295
-0.005444624213836478,-0.001326528007344961
-0.005444284213836478,-0.0007340839677640107
-0.005443944213836478,-0.0005366026212366681
-0.005443604213836477,-0.0004707755057280927
-0.005443264213836478,-0.0007669975255185678
-0.005442924213836478,-0.001359441565100596
-0.005442584213836477,-0.002412675413246603
-0.005442244213836478,-0.002511416086510094
-0.005441904213836478,-0.003334255030374022
-0.005441564213836477,-0.003630477050164018
-0.005441224213836478,-0.003070946568337565
-0.005440884213836478,-0.002379761855491866
-0.005440544213836477,-0.001622750027135616
-0.005440204213836478,-0.000832824641027682
-0.005439864213836478,0.0002204092071181454
-0.005439524213836477,0.001240729497509895
-0.005439184213836478,0.001504037959545873
-0.005438844213836478,0.001833173537091444
-0.005438504213836477,0.001866087094847138
-0.005438164213836478,0.002491444692182586
-0.005437824213836478,0.003413024309310185
-0.005437484213836477,0.004268776810929627
-0.005437144213836478,0.004795393735001583
-0.005436804213836478,0.00528909710131994
-0.005436464213836478,0.005124529312547453
-0.005436124213836478,0.00482830729275614
-0.005435784213836478,0.004499171715210569
-0.005435444213836478,0.004630825946228558
-0.005435104213836478,0.004663739503983355
-0.005434764213836478,0.004992875081528926
-0.005434424213836478,0.005157442870301412
-0.005434084213836478,0.005387837774583611
-0.005433744213836478,0.005815714025392853
-0.005433404213836478,0.006177763160692323
-0.005433064213836478,0.006046108929674754
-0.005432724213836478,0.006408158064974882
-0.005432384213836478,0.006309417391711389
-0.005432044213836478,0.006210676718447538
-0.005431704213836478,0.006177763160692982
-0.005431364213836478,0.005914454698657003
-0.005431024213836478,0.00607902248742931
-0.005430684213836478,0.006210676718447538
-0.005430344213836478,0.006572725853747009
-0.005430004213836478,0.006967688546802352
-0.005429664213836478,0.006605639411502225
-0.005429324213836478,0.00677020720027471
-0.005428984213836478,0.006967688546802352
-0.005428644213836478,0.007494305470875266
-0.005428304213836478,0.007625959701893255
-0.005427964213836478,0.007132256335575138
-0.005427624213836478,0.006572725853747667
-0.005427284213836478,0.006046108929674754
-0.005426944213836478,0.005782800467638296
-0.005426604213836478,0.005256183543565383
-0.005426264213836478,0.005124529312547154
-0.005425924213836478,0.004630825946228797
-0.005425584213836478,0.004202949695419555
-0.005425244213836478,0.003544678540328413
-0.005424904213836478,0.002688926038709928
-0.005424564213836478,0.003149715847273728
-0.005424224213836478,0.003083888731764614
-0.005423884213836478,0.00344593786706576
-0.005423544213836478,0.004005468348892213
-0.005423204213836478,0.004992875081528926
-0.005422864213836478,0.005453664890093983
-0.005422524213836478,0.006144849602938425
-0.005422184213836478,0.006836034315784124
-0.005421844213836477,0.00765887325964847
-0.005421504213836478,0.007889268163929951
-0.005421164213836478,0.007165169893329695
-0.005420824213836477,0.006408158064973865
-0.005420484213836478,0.005848627583147411
-0.005420144213836478,0.005585319121110954
-0.005419804213836477,0.004828307292755841
-0.005419464213836478,0.004663739503983355
-0.005419124213836478,0.004992875081528926
-0.005418784213836477,0.005782800467638775
-0.005418444213836478,0.006046108929674754
-0.005418104213836478,0.006572725853747667
-0.005417764213836477,0.007296824124348462
-0.005417424213836478,0.007593046144138938
-0.005417084213836478,0.007395564797611595
-0.005416744213836477,0.007658873259647393
-0.005416404213836478,0.007296824124347924
-0.005416064213836478,0.007955095279439066
-0.005415724213836477,0.007494305470875207
-0.005415384213836478,0.007461391913120709
-0.005415044213836478,0.007099342777820581
-0.005414704213836478,0.007198083451084073
