Analysis/New Tests_CMB/wrd01_d2s01/cmb08_ch03.csv

#Digilent WaveForms Oscilloscope Acquisition
#Device Name: ADP3450
#Serial Number: SN:210018B9D9B0
#Date Time: 2024-08-14 17:25:37.640.232.330
#Sample rate: 5.88235e+06Hz
#Samples: 32768
#Trigger: Source: Channel 3 Type: Edge Condition: Rising Level: 60 mV Hyst.: Auto HoldOff: 0 s
#Channel 3: Range: 100 mV/div Offset: 0 V Attenuation: 1 X Coupling: DC Bandwidth: 0 Hz Sample Mode: Average

Time (s),Channel 3 (V)
-0.003798384869721813,0.2167257921165948
-0.003798214869721813,0.2292987711788127
-0.003798044869721813,0.2401931587955742
-0.003797874869721813,0.2501001396796796
-0.003797704869721813,0.2571765545969568
-0.003797534869721813,0.2633643034548022
-0.003797364869721813,0.2677088930784037
-0.003797194869721813,0.271098989527117
-0.003797024869721813,0.272415531837303
-0.003796854869721813,0.2734687656854474
-0.003796684869721813,0.2734687656854493
-0.003796514869721813,0.2724155318373054
-0.003796344869721813,0.2710002488538595
-0.003796174869721813,0.2693216574083801
-0.003796004869721813,0.2667543999035262
-0.003795834869721813,0.2637921797056222
-0.003795664869721813,0.2612249222007506
-0.003795494869721813,0.2582627020028458
-0.003795324869721813,0.2551359140161629
-0.003795154869721813,0.2518445582407132
-0.003794984869721813,0.2491456465048384
-0.003794814869721813,0.246018858518162
-0.003794644869721813,0.2430237247624968
-0.003794474869721813,0.2392386656207119
-0.003794304869721813,0.235881482729747
-0.003794134869721813,0.2321622507034888
-0.003793964869721813,0.2280809695419244
-0.003793794869721813,0.2237692934760857
-0.003793624869721813,0.2197538394300286
-0.003793454869721813,0.215672558268449
-0.003793284869721813,0.2116241906646384
-0.003793114869721813,0.2073783417143083
-0.003792944869721813,0.2030666656484615
-0.003792774869721813,0.1996436556419921
-0.003792604869721813,0.1952990660183939
-0.003792434869721813,0.1915469204343586
-0.003792264869721813,0.1878935155236028
-0.003792094869721813,0.1849642088834525
-0.003791924869721813,0.181574112434734
-0.003791754869721813,0.1791714227186495
-0.003791584869721813,0.1761762889629913
-0.003791414869721813,0.1740698212666888
-0.003791244869721813,0.1712392552997969
-0.003791074869721813,0.1703835027981799
-0.003790904869721813,0.1666642707719202
-0.003790734869721813,0.1646565437488891
-0.003790564869721813,0.1618918048975127
-0.003790394869721813,0.1599828185477383
-0.003790224869721813,0.1575801288316557
-0.003790054869721813,0.1552103526733276
-0.003789884869721813,0.1534659341123392
-0.003789714869721813,0.1513923799738027
-0.003789544869721813,0.1490884309309883
-0.003789374869721813,0.14685030900367
-0.003789204869721813,0.1443817921720783
-0.003789034869721813,0.1419132753404865
-0.003788864869721813,0.1403334245682706
-0.003788694869721813,0.1378649077366804
-0.003788524869721813,0.1358242671559008
-0.003788354869721813,0.1334544909975615
-0.003788184869721813,0.1313809368590282
-0.003788014869721813,0.1291099013739638
-0.003787844869721813,0.126213508291568
-0.003787674869721813,0.1233500287669215
-0.003787504869721813,0.1206840305888068
-0.003787334869721813,0.1180180324106743
-0.003787164869721813,0.1159444782721409
-0.003786994869721813,0.1138380105758493
-0.003786824869721813,0.111435320859771
-0.003786654869721813,0.1094934209522513
-0.003786484869721813,0.1078148295067714
-0.003786314869721813,0.1060704109457709
-0.003786144869721813,0.1044576466158005
-0.003785974869721813,0.1038652025762185
-0.003785804869721813,0.1025486602660386
-0.003785634869721813,0.1019562162264553
-0.003785464869721813,0.1005738468007678
-0.003785294869721813,0.09935604516384303
-0.003785124869721813,0.09873068756650757
-0.003784954869721813,0.0980065892959073
-0.003784784869721813,0.09662421987021842
-0.003784614869721813,0.09547224534880851
-0.003784444869721813,0.09435318438515554
-0.003784274869721813,0.09293790140171067
-0.003784104869721813,0.09076560658990473
-0.003783934869721813,0.08925158293319513
-0.003783764869721813,0.08800086773852422
-0.003783594869721813,0.08559817802244364
-0.003783424869721813,0.08414998148124403
-0.003783254869721813,0.08237264936249916
-0.003783084869721813,0.08026618166620103
-0.003782914869721813,0.07809388685440027
-0.003782744869721813,0.07582285136933994
-0.003782574869721813,0.07411134636610195
-0.003782404869721813,0.07295937184469353
-0.003782234869721813,0.07154408886124854
-0.003782064869721813,0.06976675674249733
-0.003781894869721813,0.06864769577884236
-0.003781724869721813,0.06792359750824344
-0.003781554869721813,0.06512594509910986
-0.003781384869721813,0.06614626538949417
-0.003781214869721813,0.06542216711889842
-0.003781044869721813,0.06473098240605007
-0.003780874869721813,0.06446767394401362
-0.003780704869721813,0.06380940278892366
-0.003780534869721813,0.06390814346218597
-0.003780364869721813,0.0632827858648507
-0.003780194869721813,0.06338152653811288
-0.003780024869721813,0.06275616894077665
-0.003779854869721813,0.06196624355466728
-0.003779684869721813,0.06199915711242183
-0.003779514869721813,0.06117631816855941
-0.003779344869721813,0.06038639278244998
-0.003779174869721813,0.0595635538385876
-0.003779004869721813,0.05870780133696613
-0.003778834869721813,0.05798370306636587
-0.003778664869721813,0.05689755566046548
-0.003778494869721813,0.05591014892783057
-0.003778324869721813,0.05525187777273883
-0.003778154869721813,0.05390242190480569
-0.003777984869721813,0.05288210161440688
-0.003777814869721813,0.051433905073209
-0.003777644869721813,0.05044649834057229
-0.003777474869721813,0.04988696785874584
-0.003777304869721813,0.04837294420203795
-0.003777134869721813,0.04755010525817426
-0.003776964869721813,0.0470234883340965
-0.003776794869721813,0.04600316804370708
-0.003776624869721813,0.04537781044637049
-0.003776454869721813,0.04501576131107102
-0.003776284869721813,0.04442331727148942
-0.003776114869721813,0.04425874948271615
-0.003775944869721813,0.04448914438699548
-0.003775774869721813,0.04340299698109707
-0.003775604869721813,0.04356756476986986
-0.003775434869721813,0.04294220717253441
-0.003775264869721813,0.04241559024846132
-0.003775094869721813,0.04221810890193373
-0.003774924869721813,0.04179023265112263
-0.003774754869721813,0.04116487505378719
-0.003774584869721813,0.04057243101420516
-0.003774414869721813,0.04021038187890569
-0.003774244869721813,0.03971667851258757
-0.003774074869721813,0.03905840735749792
-0.003773904869721813,0.03879509889545889
-0.003773734869721813,0.0386963582221954
-0.003773564869721813,0.03859761754893173
-0.003773394869721813,0.03886092601096771
-0.003773224869721813,0.0388280124532137
-0.003773054869721813,0.03876218533770476
-0.003772884869721813,0.03813682774037021
-0.003772714869721813,0.03744564302752224
-0.003772544869721813,0.03682028543018565
-0.003772374869721813,0.0362607549483592
-0.003772204869721813,0.03517460754245977
-0.003772034869721813,0.0357999651397921
-0.003771864869721813,0.03520752110021451
-0.003771694869721813,0.03514169398470324
-0.003771524869721813,0.03501003975368501
-0.003771354869721813,0.03484547196491252
-0.003771184869721813,0.03497712619593021
-0.003771014869721813,0.03494421263817601
-0.003770844869721813,0.03461507706063152
-0.003770674869721813,0.03435176859859387
-0.003770504869721813,0.03435176859859387
-0.003770334869721813,0.0339238923477854
-0.003770164869721813,0.03310105340392219
-0.003769994869721813,0.03227821446005827
-0.003769824869721813,0.03132372128517808
-0.003769654869721813,0.03112623993864727
-0.003769484869721813,0.03007300609050144
-0.003769314869721813,0.02938182137765574
-0.003769144869721813,0.02878937733807479
-0.003768974869721813,0.02855898243379223
-0.003768804869721813,0.02839441464501963
-0.003768634869721813,0.02846024176052814
-0.003768464869721813,0.02832858752950991
-0.003768294869721813,0.02836150108726447
-0.003768124869721813,0.02842732820277347
-0.003767954869721813,0.02905268580010903
-0.003767784869721813,0.02908559935786461
-0.003767614869721813,0.02846024176052868
-0.003767444869721813,0.02875646378031916
-0.003767274869721813,0.0284931553182827
-0.003767104869721813,0.0284931553182827
-0.003766934869721813,0.02819693329849222
-0.003766764869721813,0.02740700791238519
-0.003766594869721813,0.02747283502789011
-0.003766424869721813,0.02674873675729117
-0.003766254869721813,0.02576133002465446
-0.003766084869721813,0.02546510800486398
-0.003765914869721813,0.02454352838773752
-0.003765744869721813,0.02418147925243704
-0.003765574869721813,0.0236877758861164
-0.003765404869721813,0.02316115896204445
-0.003765234869721813,0.02230540646042596
-0.003765064869721813,0.02207501155614448
-0.003764894869721813,0.02171296242084459
-0.003764724869721813,0.02135091328554513
-0.003764554869721813,0.0210546912657534
-0.003764384869721813,0.02138382684329837
-0.003764214869721813,0.02138382684329837
-0.003764044869721813,0.02141674040105286
-0.003763874869721813,0.02148256751656192
-0.003763704869721813,0.02138382684329873
-0.003763534869721813,0.02138382684329831
-0.003763364869721813,0.02135091328554381
-0.003763194869721813,0.02095595059248912
-0.003763024869721813,0.02033059299515368
-0.003762854869721813,0.02042933366841603
-0.003762684869721813,0.01835577952988665
-0.003762514869721813,0.01927735914700336
-0.003762344869721813,0.01868491510742468
-0.003762174869721813,0.01792790327906987
-0.003762004869721813,0.01703923721969845
-0.003761834869721813,0.01671010164215186
-0.003761664869721813,0.01644679318011576
-0.003761494869721813,0.01680884231541361
-0.003761324869721813,0.01703923721969683
-0.003761154869721813,0.01700632366194227
-0.003760984869721813,0.01743419991275074
-0.003760814869721813,0.01779624904805098
-0.003760644869721813,0.01838869308763151
-0.003760474869721813,0.01901405068496798
-0.003760304869721813,0.01973814895557051
-0.003760134869721813,0.02065972857269811
-0.003759964869721813,0.02089012347697959
-0.003759794869721813,0.02161422174757895
-0.003759624869721813,0.02105469126575381
-0.003759454869721813,0.02161422174757823
-0.003759284869721813,0.02164713530533482
-0.003759114869721813,0.02135091328554381
-0.003758944869721813,0.02161422174757979
-0.003758774869721813,0.02187753020961624
-0.003758604869721813,0.02144965395880826
-0.003758434869721813,0.02194335732512404
-0.003758264869721813,0.02187753020961672
-0.003758094869721813,0.02138382684329837
-0.003757924869721813,0.02184461665186217
-0.003757754869721813,0.02089012347698174
-0.003757584869721813,0.02194335732512392
-0.003757414869721813,0.02223957934491577
-0.003757244869721813,0.02191044376737116
-0.003757074869721813,0.02184461665186217
-0.003756904869721813,0.02210792511389862
-0.003756734869721813,0.02174587597859915
-0.003756564869721813,0.02158130818982601
-0.003756394869721813,0.02141674040105352
-0.003756224869721813,0.02085720991922503
-0.003756054869721813,0.02062681501494355
-0.003755884869721813,0.02065972857269811
-0.003755714869721813,0.02000145741760816
-0.003755544869721813,0.02006728453311596
-0.003755374869721813,0.01967232184006283
-0.003755204869721813,0.0193431862625163
-0.003755034869721813,0.01960649472455228
-0.003754864869721813,0.01750002702826063
-0.003754694869721813,0.01763168125927862
-0.003754524869721813,0.0171050643352069
-0.003754354869721813,0.01730254568173257
-0.003754184869721813,0.01766459481703317
-0.003754014869721813,0.01753294058601518
-0.003753844869721813,0.01776333549029708
-0.003753674869721813,0.01796081683682407
-0.003753504869721813,0.01809247106784241
-0.003753334869721813,0.0187507422229314
-0.003753164869721813,0.01924444558925185
-0.003752994869721813,0.01907987780047937
-0.003752824869721813,0.01891531001170658
-0.003752654869721813,0.01934318626251505
-0.003752484869721813,0.01921153203149784
-0.003752314869721813,0.01924444558925203
-0.003752144869721813,0.01950775405128765
-0.003751974869721813,0.01986980318658874
-0.003751804869721813,0.0203635065529071
-0.003751634869721813,0.02052807434167958
-0.003751464869721813,0.02000145741760792
-0.003751294869721813,0.01977106251332591
-0.003751124869721813,0.02000145741760613
-0.003750954869721813,0.01973814895557051
-0.003750784869721813,0.01950775405128861
-0.003750614869721813,0.01914570491598914
-0.003750444869721813,0.01924444558925197
-0.003750274869721813,0.01875074222293559
-0.003750104869721813,0.0184874337608983
-0.003749934869721813,0.01878365578068835
-0.003749764869721813,0.01861908799191557
-0.003749594869721813,0.01815829818335261
-0.003749424869721813,0.0190469642427232
-0.003749254869721813,0.01815829818335338
-0.003749084869721813,0.0181912117411062
-0.003748914869721813,0.01756585414376974
-0.003748744869721813,0.01697341010418771
-0.003748574869721813,0.0159860033715528
-0.003748404869721813,0.01532773221646105
-0.003748234869721813,0.01427449836831595
-0.003748064869721813,0.01384662211750634
-0.003747894869721813,0.01358331365546833
-0.003747724869721813,0.01341874586669555
-0.003747554869721813,0.01341874586669555
-0.003747384869721813,0.01387953567525851
-0.003747214869721813,0.01414284413729532
-0.003747044869721813,0.01424158481055911
-0.003746874869721813,0.01519607798544163
-0.003746704869721813,0.01549230000523264
-0.003746534869721813,0.01588726269828733
-0.003746364869721813,0.0162493118335868
-0.003746194869721813,0.01638096606460545
-0.003746024869721813,0.01592017625604356
-0.003745854869721813,0.01578852202502348
-0.003745684869721813,0.01568978135175999
-0.003745514869721813,0.0155252135629872
-0.003745344869721813,0.01572269490951418
-0.003745174869721813,0.016216398275832
-0.003745004869721813,0.01667718808439502
-0.003744834869721813,0.01690758298868045
-0.003744664869721813,0.01792790327906987
-0.003744494869721813,0.0180595575100881
-0.003744324869721813,0.01773042193254313
-0.003744154869721813,0.01819121174110548
-0.003743984869721813,0.01907987780047614
-0.003743814869721813,0.01921153203149628
-0.003743644869721813,0.01848743376089734
-0.003743474869721813,0.01868491510742468
-0.003743304869721813,0.01894822356946066
-0.003743134869721813,0.01848743376089818
-0.003742964869721813,0.01855326087640621
-0.003742794869721813,0.01792790327907065
-0.003742624869721813,0.01835577952987911
-0.003742454869721813,0.01769750837478797
-0.003742284869721813,0.017302545681734
-0.003742114869721813,0.01773042193254175
-0.003741944869721813,0.01690758298868159
-0.003741774869721813,0.0166442745266431
-0.003741604869721813,0.0169075829886786
-0.003741434869721813,0.0171379778929605
-0.003741264869721813,0.01690758298867902
-0.003741094869721813,0.01703923721969659
-0.003740924869721813,0.01667718808439802
-0.003740754869721813,0.0169404965464322
-0.003740584869721813,0.01624931183358745
-0.003740414869721813,0.01651262029562391
-0.003740244869721813,0.01608474404481545
-0.003740074869721813,0.01605183048706017
-0.003739904869721813,0.01575560846727018
-0.003739734869721813,0.01539355933197029
-0.003739564869721813,0.01542647288972353
-0.003739394869721813,0.01562395423625087
-0.003739224869721813,0.01562395423625087
-0.003739054869721813,0.01555812712074188
-0.003738884869721813,0.01549230000523276
-0.003738714869721813,0.01529481865870602
-0.003738544869721813,0.01549230000523264
-0.003738374869721813,0.01539355933196897
-0.003738204869721813,0.01545938644747797
-0.003738034869721813,0.01542647288972359
-0.003737864869721813,0.01493276952340607
-0.003737694869721813,0.01483402885014186
-0.003737524869721813,0.01463654750361416
-0.003737354869721813,0.01493276952340517
-0.003737184869721813,0.01536064577421441
-0.003737014869721813,0.01575560846726838
-0.003736844869721813,0.01608474404481407
-0.003736674869721813,0.01568978135176142
-0.003736504869721813,0.01657844741113303
-0.003736334869721813,0.01664427452664214
-0.003736164869721813,0.01700632366194227
-0.003735994869721813,0.01700632366194227
-0.003735824869721813,0.01740128635499624
-0.003735654869721813,0.01723671856622477
-0.003735484869721813,0.01717089145071476
-0.003735314869721813,0.01700632366194227
-0.003735144869721813,0.01674301519990581
-0.003734974869721813,0.01667718808439682
-0.003734804869721813,0.01624931183358823
-0.003734634869721813,0.01552521356298983
-0.003734464869721813,0.01552521356298636
-0.003734294869721813,0.0150644237544234
-0.003734124869721813,0.01443906615708682
-0.003733954869721813,0.01364914077097888
-0.003733784869721813,0.01335291875118697
-0.003733614869721813,0.01345165942444974
-0.003733444869721813,0.01332000519343116
-0.003733274869721813,0.01292504250037719
-0.003733104869721813,0.01328709163567732
-0.003732934869721813,0.01332000519343181
-0.003732764869721813,0.01364914077097685
-0.003732594869721813,0.01420867125280288
-0.003732424869721813,0.01443906615708718
-0.003732254869721813,0.01463654750361416
-0.003732084869721813,0.01489985596565062
-0.003731914869721813,0.01516316442768659
-0.003731744869721813,0.01545938644747755
-0.003731574869721813,0.01585434914053133
-0.003731404869721813,0.01644679318011264
-0.003731234869721813,0.01720380500846961
-0.003731064869721813,0.0175987677015243
-0.003730894869721813,0.01805955751008726
-0.003730724869721813,0.01845452020314206
-0.003730554869721813,0.01861908799191497
-0.003730384869721813,0.01921153203149544
-0.003730214869721813,0.01927735914700671
-0.003730044869721813,0.01960649472455228
-0.003729874869721813,0.01957358116679778
-0.003729704869721813,0.0197710625133247
-0.003729534869721813,0.01957358116679844
-0.003729364869721813,0.0199027167443421
-0.003729194869721813,0.01911279135823393
-0.003729024869721813,0.01963940828230684
-0.003728854869721813,0.01924444558925287
-0.003728684869721813,0.01888239645395268
-0.003728514869721813,0.01917861847374196
-0.003728344869721813,0.01868491510742648
-0.003728174869721813,0.01838869308763367
-0.003728004869721813,0.01740128635499695
-0.003727834869721813,0.01753294058601495
-0.003727664869721813,0.01667718808439826
-0.003727494869721813,0.01631513894909723
-0.003727324869721813,0.01628222539134214
-0.003727154869721813,0.01601891692930556
-0.003726984869721813,0.01516316442768707
-0.003726814869721813,0.0152948186587053
-0.003726644869721813,0.01513025086993281
-0.003726474869721813,0.01536064577421399
-0.003726304869721813,0.01555812712074104
-0.003726134869721813,0.01578852202502366
-0.003725964869721813,0.01578852202502366
-0.003725794869721813,0.01578852202502366
-0.003725624869721813,0.01628222539134112
-0.003725454869721813,0.01654553385337799
-0.003725284869721813,0.01700632366194059
-0.003725114869721813,0.0171379778929611
-0.003724944869721813,0.01746711347050607
-0.003724774869721813,0.01753294058601518
-0.003724604869721813,0.01815829818335063
-0.003724434869721813,0.01848743376089674
-0.003724264869721813,0.01835577952987959
-0.003724094869721813,0.01842160664538733
-0.003723924869721813,0.01792790327906987
-0.003723754869721813,0.0175987677015243
-0.003723584869721813,0.01776333549029678
-0.003723414869721813,0.01710506433520714
-0.003723244869721813,0.01664427452664382
-0.003723074869721813,0.0162493118335868
-0.003722904869721813,0.01588726269828733
-0.003722734869721813,0.01562395423625087
-0.003722564869721813,0.0152619051009514
-0.003722394869721813,0.01476820173463328
-0.003722224869721813,0.01427449836831583
-0.003722054869721813,0.01427449836831379
-0.003721884869721813,0.0141428441372958
-0.003721714869721813,0.0139124492330139
-0.003721544869721813,0.01424158481055888
-0.003721374869721813,0.01424158481055947
-0.003721204869721813,0.01397827634852397
-0.003721034869721813,0.01368205432873224
-0.003720864869721813,0.01381370855975023
-0.003720694869721813,0.01364914077097745
-0.003720524869721813,0.01335291875118697
-0.003720354869721813,0.01279338826935998
-0.003720184869721813,0.01216803067202465
-0.003720014869721813,0.01243133913405787
-0.003719844869721813,0.01223385778753149
-0.003719674869721813,0.01259590692283162
-0.003719504869721813,0.01262882048058611
-0.003719334869721813,0.0134845729822031
-0.003719164869721813,0.01384662211750347
-0.003718994869721813,0.01460363394585685
-0.003718824869721813,0.01522899154319619
