Analysis/New Tests_CMB/wrd01_d2s01/cmb08_ch46.csv

#Digilent WaveForms Oscilloscope Acquisition
#Device Name: ADP3450
#Serial Number: SN:210018B9D9B0
#Date Time: 2024-08-14 17:47:38.038.936.210
#Sample rate: 5.88235e+06Hz
#Samples: 32768
#Trigger: Source: Channel 3 Type: Edge Condition: Rising Level: 60 mV Hyst.: Auto HoldOff: 0 s
#Channel 3: Range: 100 mV/div Offset: 0 V Attenuation: 1 X Coupling: DC Bandwidth: 0 Hz Sample Mode: Average

Time (s),Channel 3 (V)
-0.003798462911926809,0.2010260250676711
-0.003798292911926808,0.2143560159583071
-0.003798122911926809,0.2254807984793434
-0.003797952911926809,0.235486520036707
-0.003797782911926809,0.2435503416865696
-0.003797612911926809,0.2494418685246245
-0.003797442911926809,0.2539839394947535
-0.003797272911926808,0.2570449003659351
-0.003797102911926808,0.2592171951777313
-0.003796932911926809,0.2601387747948556
-0.003796762911926809,0.2601387747948545
-0.003796592911926809,0.2595463307552736
-0.003796422911926809,0.2576702579632638
-0.003796252911926808,0.2558929258445102
-0.003796082911926808,0.2538193717059682
-0.003795912911926809,0.2503963616995018
-0.003795742911926809,0.2476974499636283
-0.003795572911926809,0.245097278901023
-0.003795402911926809,0.2416742688945491
-0.003795232911926808,0.2382512588880617
-0.003795062911926808,0.2345649404195517
-0.003794892911926809,0.2309773626243111
-0.003794722911926809,0.2271923034825362
-0.003794552911926809,0.2229464545322061
-0.003794382911926809,0.218865173370641
-0.003794212911926809,0.2147838922090833
-0.003794042911926808,0.2105051297009699
-0.003793872911926809,0.2067529841169556
-0.003793702911926809,0.2021121724735646
-0.003793532911926809,0.1983600268895519
-0.003793362911926809,0.1943116592857414
-0.003793192911926809,0.1904936865862197
-0.003793022911926808,0.1867415410021821
-0.003792852911926809,0.1836805801310135
-0.003792682911926809,0.1804221379133121
-0.003792512911926809,0.1769991279068444
-0.003792342911926809,0.1737406856891432
-0.003792172911926809,0.1706468112602205
-0.003792002911926808,0.16722380125373
-0.003791832911926809,0.1642286674980702
-0.003791662911926809,0.1609043981648609
-0.003791492911926809,0.1581067457557286
-0.003791322911926809,0.1551116120000639
-0.003791152911926809,0.1523468731486861
-0.003790982911926808,0.1493846529507627
-0.003790812911926809,0.1471136174657012
-0.003790642911926809,0.1441843108255462
-0.003790472911926809,0.1415841397629409
-0.003790302911926809,0.1392143636046128
-0.003790132911926809,0.1368775010040393
-0.003789962911926808,0.1338494536906133
-0.003789792911926809,0.1320062944563603
-0.003789622911926809,0.1295048640670145
-0.003789452911926809,0.1273325692552177
-0.003789282911926809,0.124633657519344
-0.003789112911926809,0.1217043508791884
-0.003788942911926808,0.1200257594336966
-0.003788772911926809,0.1174255883710913
-0.003788602911926809,0.1148583308662361
-0.003788432911926809,0.112422727592398
-0.003788262911926809,0.1095263345100023
-0.003788092911926809,0.1079464837377836
-0.003787922911926808,0.1048196957510947
-0.003787752911926809,0.1031740178633688
-0.003787582911926809,0.1009688094938139
-0.003787412911926809,0.0989939960285396
-0.003787242911926809,0.09655839275470679
-0.003787072911926809,0.09464940640494249
-0.003786902911926808,0.09326703697924522
-0.003786732911926808,0.09165427264927227
-0.003786562911926809,0.09014024899256266
-0.003786392911926809,0.08711220167915017
-0.003786222911926809,0.08780338639199461
-0.003786052911926809,0.08625644917753042
-0.003785882911926808,0.08490699330958772
-0.003785712911926808,0.08329422897961608
-0.003785542911926809,0.08214225445820796
-0.003785372911926809,0.08059531724374379
-0.003785202911926809,0.07904838002928241
-0.003785032911926809,0.07713939367951811
-0.003784862911926808,0.07542788867627695
-0.003784692911926808,0.07427591415486554
-0.003784522911926809,0.07259732270938714
-0.003784352911926809,0.07144534818797806
-0.003784182911926809,0.07052376857085213
-0.003784012911926809,0.06920722626066983
-0.003783842911926809,0.06818690597028043
-0.003783672911926808,0.067166585679883
-0.003783502911926809,0.06598169760072271
-0.003783332911926809,0.06568547558093105
-0.003783162911926809,0.06502720442584109
-0.003782992911926809,0.06397397057769527
-0.003782822911926809,0.0637106621156593
-0.003782652911926808,0.06311821807607415
-0.003782482911926809,0.06239411980547604
-0.003782312911926809,0.06213081134343958
-0.003782142911926809,0.06186750288140361
-0.003781972911926809,0.06074844191774867
-0.003781802911926809,0.06018891143592221
-0.003781632911926808,0.05956355383858114
-0.003781462911926809,0.05860906066370167
-0.003781292911926809,0.05818118441289088
-0.003781122911926809,0.05689755566046548
-0.003780952911926809,0.05538353200375586
-0.003780782911926809,0.05386950834704898
-0.003780612911926808,0.05275044738338722
-0.003780442911926809,0.05163138641973347
-0.003780272911926809,0.05005153564751527
-0.003780102911926809,0.04876790689508988
-0.003779932911926809,0.04738553746939848
-0.003779762911926809,0.04603608160146164
-0.003779592911926808,0.04508158842657386
-0.003779422911926809,0.04353465121211434
-0.003779252911926809,0.04300803428804053
-0.003779082911926809,0.04198771399765112
-0.003778912911926809,0.04109904793827807
-0.003778742911926809,0.04050660389869604
-0.003778572911926808,0.03948628360830322
-0.003778402911926809,0.03905840735749547
-0.003778232911926809,0.03902549379974043
-0.003778062911926809,0.03872927177994918
-0.003777892911926809,0.03830139552914072
-0.003777722911926809,0.03793934639384059
-0.003777552911926808,0.03793934639384059
-0.003777382911926809,0.03793934639383963
-0.003777212911926809,0.03741272946976857
-0.003777042911926809,0.03790643283608244
-0.003776872911926809,0.03593161937081261
-0.003776702911926809,0.03553665667775792
-0.003776532911926808,0.03520752110020924
-0.003776362911926808,0.03435176859859267
-0.003776192911926809,0.03402263302104649
-0.003776022911926809,0.03303522628841038
-0.003775852911926809,0.03237695513332044
-0.003775682911926809,0.03145537551619284
-0.003775512911926808,0.03076419080334451
-0.003775342911926808,0.03004009253274341
-0.003775172911926809,0.02908559935786353
-0.003775002911926809,0.02842732820277089
-0.003774832911926809,0.02694621810381852
-0.003774662911926809,0.02628794694872737
-0.003774492911926808,0.02503723175405169
-0.003774322911926808,0.02434604704120611
-0.003774152911926809,0.02368777588611598
-0.003773982911926809,0.02293076405776153
-0.003773812911926809,0.02237123357593508
-0.003773642911926809,0.02161422174758026
-0.003773472911926809,0.0211863454967718
-0.003773302911926808,0.02052807434167856
-0.003773132911926809,0.02016602520638023
-0.003772962911926809,0.02042933366841609
-0.003772792911926809,0.0203635065529071
-0.003772622911926809,0.02046224722617077
-0.003772452911926809,0.0212192590545242
-0.003772282911926808,0.01977106251332578
-0.003772112911926809,0.01996854385985241
-0.003771942911926809,0.01996854385985271
-0.003771772911926809,0.02013311164862519
-0.003771602911926809,0.020593901457189
-0.003771432911926809,0.02085720991922497
-0.003771262911926808,0.02112051838126071
-0.003771092911926809,0.02079138280371682
-0.003770922911926809,0.02105469126575232
-0.003770752911926809,0.02079138280371634
-0.003770582911926809,0.02052807434167988
-0.003770412911926809,0.01990271674434443
-0.003770242911926808,0.01960649472455013
-0.003770072911926809,0.01901405068496858
-0.003769902911926809,0.01809247106784218
-0.003769732911926809,0.0178291626058062
-0.003769562911926809,0.01763168125927886
-0.003769392911926809,0.01703923721969683
-0.003769222911926808,0.01743419991274828
-0.003769052911926809,0.01654553385337619
-0.003768882911926809,0.01529481865870572
-0.003768712911926809,0.0155252135629872
-0.003768542911926809,0.01519607798544163
-0.003768372911926809,0.01522899154319619
-0.003768202911926808,0.01499859663891297
-0.003768032911926809,0.01463654750361296
-0.003767862911926809,0.01397827634852302
-0.003767692911926809,0.01397827634852445
-0.003767522911926809,0.01476820173463239
-0.003767352911926809,0.01355040009771377
-0.003767182911926808,0.01368205432873128
-0.003767012911926809,0.0134845729822043
-0.003766842911926809,0.01328709163567816
-0.003766672911926809,0.01374788144424106
-0.003766502911926809,0.01371496788648656
-0.003766332911926809,0.01387953567525935
-0.003766162911926808,0.01387953567525803
-0.003765992911926808,0.01351748653995934
-0.003765822911926809,0.01355040009771413
-0.003765652911926809,0.01374788144423974
-0.003765482911926809,0.0129908696158863
-0.003765312911926809,0.01295795605813175
-0.003765142911926808,0.01292504250037803
-0.003764972911926808,0.01315543740465945
-0.003764802911926809,0.01325417807792019
-0.003764632911926809,0.01183889509447854
-0.003764462911926809,0.01279338826935896
-0.003764292911926809,0.01259590692283162
-0.003764122911926808,0.01220094422977657
-0.003763952911926808,0.01210220355651206
-0.003763782911926809,0.01177306797896805
-0.003763612911926809,0.01197054932549515
-0.003763442911926809,0.01203637644100415
-0.003763272911926809,0.01233259846079516
-0.003763102911926809,0.01206928999875918
-0.003762932911926808,0.01190472220998771
-0.003762762911926809,0.0123984255763029
-0.003762592911926809,0.01164141374795006
-0.003762422911926809,0.01197054932549503
-0.003762252911926809,0.01203637644100415
-0.003762082911926809,0.01210220355651314
-0.003761912911926808,0.01200346288324875
-0.003761742911926809,0.01177306797896739
-0.003761572911926809,0.01160850019019448
-0.003761402911926809,0.011378105285913
-0.003761232911926809,0.01127936461264933
-0.003761062911926809,0.01111479682387685
-0.003760892911926808,0.0107527476885757
-0.003760722911926809,0.01055526634204812
-0.003760552911926809,0.01002864941797502
-0.003760382911926809,0.009403291820639578
-0.003760212911926809,0.008679193550039321
-0.003760042911926809,0.008415885088003344
-0.003759872911926808,0.007658873259645776
-0.003759702911926809,0.007033515662310749
-0.003759532911926809,0.006638552969256422
-0.003759362911926809,0.006441071622729439
-0.003759192911926809,0.00677020720027501
-0.003759022911926809,0.007033515662310988
-0.003758852911926808,0.007329737682102361
-0.003758682911926809,0.007296824124347505
-0.003758512911926809,0.007066429220066981
-0.003758342911926809,0.007593046144138938
-0.003758172911926809,0.006704380084765896
-0.003758002911926809,0.007165169893329695
-0.003757832911926808,0.00838297153024771
-0.003757662911926809,0.008218403741475642
-0.003757492911926809,0.008284230856983857
-0.003757322911926809,0.007856354606175455
-0.003757152911926809,0.007889268163929951
-0.003756982911926809,0.00779052749066628
-0.003756812911926808,0.007625959701893614
-0.003756642911926809,0.00765887325964841
-0.003756472911926809,0.007856354606175333
-0.003756302911926809,0.007823441048420898
-0.003756132911926809,0.007856354606175394
-0.003755962911926809,0.007461391913120709
-0.003755792911926808,0.007165169893329815
-0.003755622911926808,0.007198083451082696
-0.003755452911926809,0.00677020720027471
-0.003755282911926809,0.006605639411501866
-0.003755112911926809,0.006408158064974882
-0.003754942911926809,0.006572725853747667
-0.003754772911926808,0.005947368256411082
-0.003754602911926808,0.005947368256409525
-0.003754432911926809,0.005519492005601839
-0.003754262911926809,0.005519492005601899
-0.003754092911926809,0.005552405563356397
-0.003753922911926809,0.00574988690988374
-0.003753752911926808,0.00594736825641192
-0.003753582911926808,0.006177763160694299
-0.003753412911926809,0.006539812295994307
-0.003753242911926809,0.00719808345108551
-0.003753072911926809,0.007889268163929951
-0.003752902911926809,0.008218403741475522
-0.003752732911926809,0.008712107107792981
-0.003752562911926808,0.008284230856984875
-0.003752392911926809,0.008350057972493751
-0.003752222911926809,0.008350057972493751
-0.003752052911926809,0.008350057972493751
-0.003751882911926809,0.008218403741475522
-0.003751712911926809,0.007757613932912561
-0.003751542911926808,0.007691786817403567
-0.003751372911926809,0.007955095279438707
-0.003751202911926809,0.007757613932911543
-0.003751032911926809,0.007658873259648051
-0.003750862911926809,0.007889268163929951
-0.003750692911926809,0.007823441048420957
-0.003750522911926808,0.007790527490665562
-0.003750352911926809,0.007593046144139237
-0.003750182911926809,0.007757613932912142
-0.003750012911926809,0.007988008837193623
-0.003749842911926809,0.007922181721684508
-0.003749672911926809,0.007889268163930012
-0.003749502911926808,0.007889268163929831
-0.003749332911926809,0.007856354606174974
-0.003749162911926809,0.007625959701892717
-0.003748992911926809,0.007198083451084253
-0.003748822911926809,0.006868947873538681
-0.003748652911926809,0.00472956661949636
-0.003748482911926808,0.00644107162272441
-0.003748312911926809,0.005058702197037562
-0.003748142911926809,0.004795393735000985
-0.003747972911926809,0.004466258157456012
-0.003747802911926809,0.004499171715210569
-0.003747632911926809,0.003840900560119427
-0.003747462911926808,0.003281370078293034
-0.003747292911926809,0.003577592098081653
-0.003747122911926809,0.002853493827482235
-0.003746952911926809,0.002590185365446257
-0.003746782911926809,0.002623098923200814
-0.003746612911926809,0.002129395556882458
-0.003746442911926808,0.001964827768110031
-0.003746272911926809,0.002063568441372565
-0.003746102911926809,0.001635692190563203
-0.003745932911926809,0.0011419888242479
-0.003745762911926809,0.0023268769034098
-0.003745592911926809,0.001504037959545873
-0.003745422911926808,0.001767346421583766
-0.003745252911926809,0.00216230911463929
-0.003745082911926809,0.002787666711974258
-0.003744912911926809,0.003149715847274446
-0.003744742911926809,0.003544678540328413
-0.003744572911926809,0.004433344599701455
-0.003744402911926808,0.004828307292756739
-0.003744232911926808,0.004992875081530243
-0.003744062911926809,0.005354924216829593
-0.003743892911926809,0.005651146236620248
-0.003743722911926809,0.00574988690988374
-0.003743552911926809,0.005387837774583611
-0.003743382911926808,0.005157442870298479
-0.003743212911926808,0.004268776810927233
-0.003743042911926809,0.003873814117873146
-0.003742872911926809,0.003413024309310065
-0.003742702911926809,0.003347197193801071
-0.003742532911926809,0.003149715847273728
-0.003742362911926808,0.002787666711973839
-0.003742192911926808,0.002853493827481756
-0.003742022911926809,0.002590185365445598
-0.003741852911926809,0.00222813623014565
-0.003741682911926809,0.001964827768109672
-0.003741512911926809,0.002162309114637015
-0.003741342911926809,0.001931914210355534
-0.003741172911926808,0.00235979046116292
-0.003741002911926809,0.001964827768110391
-0.003740832911926809,0.002359790461164178
-0.003740662911926809,0.002261049787900686
-0.003740492911926809,0.002162309114637015
-0.003740322911926809,0.002392704018918496
-0.003740152911926808,0.002228136230147207
-0.003739982911926809,0.002524358249937921
-0.003739812911926809,0.002952234500746984
-0.003739642911926809,0.003281370078291956
-0.003739472911926809,0.003149715847273728
-0.003739302911926809,0.003149715847273728
-0.003739132911926808,0.001964827768117215
-0.003738962911926809,0.004038381906646111
-0.003738792911926809,0.003676332771346642
-0.003738622911926809,0.003676332771346642
-0.003738452911926809,0.004334603926437783
-0.003738282911926809,0.004202949695419795
-0.003738112911926808,0.004663739503981319
-0.003737942911926809,0.004104209022155465
-0.003737772911926809,0.003873814117873924
-0.003737602911926809,0.003840900560119427
-0.003737432911926809,0.003149715847273728
-0.003737262911926809,0.003643419213592085
-0.003737092911926808,0.003083888731765572
-0.003736922911926809,0.003347197193801071
-0.003736752911926809,0.003347197193800772
-0.003736582911926809,0.003182629405028285
-0.003736412911926809,0.003610505655837527
-0.003736242911926809,0.00380798700236487
-0.003736072911926808,0.004630825946228199
-0.003735902911926809,0.00446625815745697
-0.003735732911926809,0.004992875081528926
-0.003735562911926809,0.004992875081529165
-0.003735392911926809,0.005124529312547154
-0.003735222911926809,0.004729566619492469
-0.003735052911926808,0.004795393735000266
-0.003734882911926809,0.004433344599701934
-0.003734712911926809,0.004696653061738331
-0.003734542911926809,0.00492704796602035
-0.003734372911926809,0.005223269985810825
-0.003734202911926809,0.005190356428056269
-0.003734032911926808,0.005256183543563946
-0.003733862911926808,0.004861220850512015
-0.003733692911926809,0.005223269985811184
-0.003733522911926809,0.005420751332338587
-0.003733352911926809,0.005651146236620068
-0.003733182911926809,0.005618232678865511
-0.003733012911926808,0.005256183543565383
-0.003732842911926808,0.005256183543564425
-0.003732672911926809,0.004992875081528088
-0.003732502911926809,0.004532085272964587
-0.003732332911926809,0.004235863253174112
-0.003732162911926809,0.003544678540328413
-0.003731992911926808,0.00314971584727265
-0.003731822911926808,0.002853493827480918
-0.003731652911926809,0.002359790461163698
-0.003731482911926809,0.00199774132586375
-0.003731312911926809,0.001734432863827772
-0.003731142911926809,0.001174902382000301
-0.003730972911926809,0.001010334593227815
-0.003730802911926808,0.0007799396889439398
-0.003730632911926809,0.0003191498803818167
-0.003730462911926809,0.0003191498803829543
-0.003730292911926809,0.0009445074777184018
-0.003730122911926809,0.0005166312269091594
-0.003729952911926809,0.0009445074777176235
-0.003729782911926808,-0.000306207716947584
-0.003729612911926809,0.001668605748317461
-0.003729442911926809,0.001010334593228534
-0.003729272911926809,0.001569865075054987
-0.003729102911926809,0.002030654883618786
-0.003728932911926809,0.002524358249936245
-0.003728762911926808,0.002524358249939059
-0.003728592911926809,0.003050975174011134
-0.003728422911926809,0.003643419213590708
-0.003728252911926809,0.002886407385237271
-0.003728082911926809,0.004433344599701455
-0.003727912911926809,0.003577592098084527
-0.003727742911926808,0.003873814117875301
-0.003727572911926809,0.004235863253174352
-0.003727402911926809,0.004367517484192521
-0.003727232911926809,0.004466258157456012
-0.003727062911926809,0.004301690368683227
-0.003726892911926809,0.004202949695419555
-0.003726722911926808,0.0039396412333825
-0.003726552911926809,0.003775073444610133
-0.003726382911926809,0.003676332771346402
-0.003726212911926809,0.003544678540328413
-0.003726042911926809,0.003347197193801071
-0.003725872911926809,0.00380798700236487
-0.003725702911926808,0.004170036137666675
-0.003725532911926809,0.004630825946229456
-0.003725362911926809,0.004992875081529046
-0.003725192911926809,0.005058702197040136
-0.003725022911926809,0.006210676718447538
-0.003724852911926809,0.00607902248742931
-0.003724682911926808,0.006671466527013972
-0.003724512911926809,0.007395564797611655
-0.003724342911926809,0.007428478355366152
-0.003724172911926809,0.007428478355366511
-0.003724002911926809,0.007625959701893495
-0.003723832911926809,0.006967688546802352
-0.003723662911926808,0.006506898738238075
-0.003723492911926808,0.006375244507220564
-0.003723322911926809,0.006441071622729678
-0.003723152911926809,0.006572725853747727
-0.003722982911926809,0.006605639411502225
-0.003722812911926809,0.005815714025392853
-0.003722642911926808,0.005947368256409765
-0.003722472911926808,0.005585319121109757
-0.003722302911926809,0.005256183543565922
-0.003722132911926809,0.005552405563356696
-0.003721962911926809,0.005716973352129182
-0.003721792911926809,0.005881541140901968
-0.003721622911926808,0.005519492005600522
-0.003721452911926808,0.005157442870299078
-0.003721282911926809,0.004433344599700916
-0.003721112911926809,0.004137122579910142
-0.003720942911926809,0.003972554791137656
-0.003720772911926809,0.003676332771346642
-0.003720602911926809,0.004038381906646111
-0.003720432911926808,0.003478851424817862
-0.003720262911926809,0.003083888731766649
-0.003720092911926809,0.004202949695419675
-0.003719922911926809,0.00426877681092867
