Analysis/New Tests_CMB/wrd01_d2s01/cmb02_ch26.csv

#Digilent WaveForms Oscilloscope Acquisition
#Device Name: ADP3450
#Serial Number: SN:210018B9D9B0
#Date Time: 2024-08-14 16:38:30.225.067.850
#Sample rate: 5.88235e+06Hz
#Samples: 32768
#Trigger: Source: Channel 3 Type: Edge Condition: Rising Level: 60 mV Hyst.: Auto HoldOff: 0 s
#Channel 3: Range: 100 mV/div Offset: 0 V Attenuation: 1 X Coupling: DC Bandwidth: 0 Hz Sample Mode: Average

Time (s),Channel 3 (V)
-0.003798412508610702,0.2103405619122107
-0.003798242508610702,0.2219261342418565
-0.003798072508610702,0.2333800523404347
-0.003797902508610702,0.2427275027427091
-0.003797732508610702,0.2505280159305362
-0.003797562508610702,0.2567157647883817
-0.003797392508610702,0.2618831933558471
-0.003797222508610702,0.2647795864382575
-0.003797052508610702,0.2673468439431071
-0.003796882508610702,0.2683013371179845
-0.003796712508610702,0.2676430659628939
-0.003796542508610702,0.2672810168275945
-0.003796372508610702,0.2654378575933393
-0.003796202508610702,0.2636276119168272
-0.003796032508610702,0.2604679103723905
-0.003795862508610702,0.2575386037322392
-0.003795692508610702,0.2539839394947458
-0.003795522508610702,0.2497710041021701
-0.003795352508610702,0.2457884636138687
-0.003795182508610702,0.2421021451453437
-0.003795012508610702,0.2380866910992883
-0.003794842508610702,0.2342358048420133
-0.003794672508610702,0.231010276182066
-0.003794502508610702,0.2273897848290713
-0.003794332508610702,0.2238351205915791
-0.003794162508610702,0.2201158885653209
-0.003793992508610702,0.2167916192320918
-0.003793822508610702,0.2134673498988888
-0.003793652508610702,0.2108342652785233
-0.003793482508610702,0.2076745637340916
-0.003793312508610702,0.2051073062292361
-0.003793142508610702,0.2021121724735769
-0.003792972508610702,0.1996107420842152
-0.003792802508610702,0.196878916790592
-0.003792632508610702,0.1942129186124736
-0.003792462508610702,0.1919747966851678
-0.003792292508610702,0.1877947748503391
-0.003792122508610702,0.1867086274444407
-0.003791952508610702,0.1835489258999894
-0.003791782508610702,0.1802904836822952
-0.003791612508610702,0.1776244855041741
-0.003791442508610702,0.1738723399201614
-0.003791272508610702,0.1704164163559329
-0.003791102508610702,0.1669604927917107
-0.003790932508610702,0.1632741743231709
-0.003790762508610702,0.156921857676566
-0.003790592508610702,0.1577117830626657
-0.003790422508610702,0.1532026256502996
-0.003790252508610702,0.1497467020860711
-0.003790082508610702,0.1458958158287879
-0.003789912508610702,0.1420449295714905
-0.003789742508610702,0.138128216198706
-0.003789572508610702,0.1346393790767239
-0.003789402508610702,0.1316442453210647
-0.003789232508610702,0.1289782471429455
-0.003789062508610702,0.1257856320407535
-0.003788892508610702,0.1224613627075352
-0.003788722508610702,0.1202561543379834
-0.003788552508610702,0.1177547239486379
-0.003788382508610702,0.1157469969256105
-0.003788212508610702,0.1140354919223766
-0.003788042508610702,0.1121923326881214
-0.003787872508610702,0.1108428768201788
-0.003787702508610702,0.1092630260479636
-0.003787532508610702,0.1080452244110442
-0.003787362508610702,0.1063666329655613
-0.003787192508610702,0.1044247330580459
-0.003787022508610702,0.1025157467082816
-0.003786852508610702,0.1008042417050405
-0.003786682508610702,0.0996522671836292
-0.003786512508610702,0.09800658929590539
-0.003786342508610702,0.09695335544775879
-0.003786172508610702,0.09547224534880641
-0.003786002508610702,0.09455066573167881
-0.003785832508610702,0.09300372851720973
-0.003785662508610702,0.09165427264927371
-0.003785492508610702,0.09053521168562176
-0.003785322508610702,0.08994276764603799
-0.003785152508610702,0.08839583043157664
-0.003784982508610702,0.08730968302567624
-0.003784812508610702,0.08592731359998185
-0.003784642508610702,0.08510447465611409
-0.003784472508610702,0.08322840186410813
-0.003784302508610702,0.08154981041862554
-0.003784132508610702,0.07977247829988268
-0.003783962508610702,0.07835719531643673
-0.003783792508610702,0.0762836411779034
-0.003783622508610702,0.07532914800301219
-0.003783452508610702,0.07388095146181436
-0.003783282508610702,0.07246566847836884
-0.003783112508610702,0.07128078039920693
-0.003782942508610702,0.06947053472270631
-0.003782772508610702,0.06868060933659836
-0.003782602508610702,0.0672324127953927
-0.003782432508610702,0.06621209250500407
-0.003782262508610702,0.06561964846542317
-0.003782092508610702,0.06565256202317768
-0.003781922508610702,0.06377648923116791
-0.003781752508610702,0.06301947740281448
-0.003781582508610702,0.06245994692098169
-0.003781412508610702,0.06137379951508872
-0.003781242508610702,0.06328278586484154
-0.003781072508610702,0.05887236912573891
-0.003780902508610702,0.05936607249205727
-0.003780732508610702,0.05808244373963188
-0.003780562508610702,0.05716086412249763
-0.003780392508610702,0.05597597604333591
-0.003780222508610702,0.05488982863743684
-0.003780052508610702,0.05452777950213737
-0.003779882508610702,0.05321123719195509
-0.003779712508610702,0.05252005247910939
-0.003779542508610702,0.05143390507320385
-0.003779372508610702,0.05001862208976084
-0.003779202508610702,0.04880082045284288
-0.003779032508610702,0.04794506795122595
-0.003778862508610702,0.04758301881592582
-0.003778692508610702,0.04692474766083468
-0.003778522508610702,0.04623356294798574
-0.003778352508610702,0.04534489688861444
-0.003778182508610702,0.04452205794475051
-0.003778012508610702,0.04369921900088815
-0.003777842508610702,0.04373213255864264
-0.003777672508610702,0.04317260207681517
-0.003777502508610702,0.0429092936147762
-0.003777332508610702,0.04221810890193307
-0.003777162508610702,0.04225102245968787
-0.003776992508610702,0.04241559024846168
-0.003776822508610702,0.04313968851906062
-0.003776652508610702,0.04113196149603263
-0.003776482508610702,0.04205354111316035
-0.003776312508610702,0.04208645467091131
-0.003776142508610702,0.04113196149603269
-0.003775972508610702,0.04116487505378646
-0.003775802508610702,0.0407699123607325
-0.003775632508610702,0.04024329543665959
-0.003775462508610702,0.04004581409013093
-0.003775292508610702,0.03968376495482889
-0.003775122508610702,0.03879509889545776
-0.003774952508610702,0.03807100062485768
-0.003774782508610702,0.03744564302752224
-0.003774612508610702,0.03718233456548577
-0.003774442508610702,0.03645823629488277
-0.003774272508610702,0.03570122446652772
-0.003774102508610702,0.03487838552266564
-0.003773932508610702,0.03425302792533001
-0.003773762508610702,0.03415428725206653
-0.003773592508610702,0.03375932455901184
-0.003773422508610702,0.03287065849964041
-0.003773252508610702,0.03273900426861901
-0.003773082508610702,0.03231112801781007
-0.003772912508610702,0.03161994330496581
-0.003772742508610702,0.03171868397822929
-0.003772572508610702,0.03122498061191094
-0.003772402508610702,0.03083001791885697
-0.003772232508610702,0.03030340099478154
-0.003772062508610702,0.02980969762846085
-0.003771892508610702,0.02753866214339917
-0.003771722508610702,0.02678165031504573
-0.003771552508610702,0.02763740281666422
-0.003771382508610702,0.02678165031504729
-0.003771212508610702,0.02599172492893456
-0.003771042508610702,0.02549802156261663
-0.003770872508610702,0.02474100973426241
-0.003770702508610702,0.02431313348345395
-0.003770532508610702,0.02395108434815382
-0.003770362508610702,0.02375360300162684
-0.003770192508610702,0.02424730636794531
-0.003770022508610702,0.02437896059896366
-0.003769852508610702,0.02470809617650857
-0.003769682508610702,0.02467518261875408
-0.003769512508610702,0.02507014531180876
-0.003769342508610702,0.02516888598507243
-0.003769172508610702,0.02474100973426163
-0.003769002508610702,0.02431313348345311
-0.003768832508610702,0.02385234367488937
-0.003768662508610702,0.02342446742408091
-0.003768492508610702,0.02289785050000799
-0.003768322508610702,0.02299659117327166
-0.003768152508610702,0.02243706069144443
-0.003767982508610702,0.02250288780695289
-0.003767812508610702,0.02227249290267177
-0.003767642508610702,0.02246997424919737
-0.003767472508610702,0.02171296242084393
-0.003767302508610702,0.02181170309410761
-0.003767132508610702,0.02191044376737032
-0.003766962508610702,0.02164713530533506
-0.003766792508610702,0.02177878953635245
-0.003766622508610702,0.02144965395880724
-0.003766452508610702,0.02131799972778925
-0.003766282508610702,0.02138382684329837
-0.003766112508610702,0.02184461665186217
-0.003765942508610702,0.02184461665186037
-0.003765772508610702,0.02135091328554357
-0.003765602508610702,0.02121925905452378
-0.003765432508610702,0.02023185232188887
-0.003765262508610702,0.01927735914700671
-0.003765092508610702,0.02085720991922186
-0.003764922508610702,0.0198698031865879
-0.003764752508610702,0.01963940828230708
-0.003764582508610702,0.01977106251332429
-0.003764412508610702,0.01934318626251582
-0.003764242508610702,0.01931027270476127
-0.003764072508610702,0.01884948289619699
-0.003763902508610702,0.01871782866518056
-0.003763732508610702,0.01907987780047937
-0.003763562508610702,0.01907987780047925
-0.003763392508610702,0.01901405068497026
-0.003763222508610702,0.01878365578068835
-0.003763052508610702,0.01907987780047883
-0.003762882508610702,0.01868491510742397
-0.003762712508610702,0.01848743376089776
-0.003762542508610702,0.0187178286651796
-0.003762372508610702,0.01891531001170658
-0.003762202508610702,0.01838869308763367
-0.003762032508610702,0.01779624904805272
-0.003761862508610702,0.01769750837478845
-0.003761692508610702,0.01782916260580524
-0.003761522508610702,0.01730254568173292
-0.003761352508610702,0.01710506433520594
-0.003761182508610702,0.0166771880843967
-0.003761012508610702,0.01605183048706125
-0.003760842508610702,0.01555812712074092
-0.003760672508610702,0.01532773221645872
-0.003760502508610702,0.01470237461912231
-0.003760332508610702,0.01417575769505036
-0.003760162508610702,0.01394536279076846
-0.003759992508610702,0.01318835096241502
-0.003759822508610702,0.01243133913405859
-0.003759652508610702,0.01236551201854888
-0.003759482508610702,0.01190472220998538
-0.003759312508610702,0.0116085001901949
-0.003759142508610702,0.01127936461264933
-0.003758972508610702,0.0116414137479488
-0.003758802508610702,0.01118062393938506
-0.003758632508610702,0.01101605615061359
-0.003758462508610702,0.01141101884366732
-0.003758292508610702,0.01127936461264933
-0.003758122508610702,0.01164141374794946
-0.003757952508610702,0.01154267307468579
-0.003757782508610702,0.01170724086346061
-0.003757612508610702,0.01226677134528712
-0.003757442508610702,0.01285921538486754
-0.003757272508610702,0.01256299336507916
-0.003757102508610702,0.01371496788648656
-0.003756932508610702,0.01374788144424112
-0.003756762508610702,0.01358331365547216
-0.003756592508610702,0.0146365475036135
-0.003756422508610702,0.01427449836831475
-0.003756252508610702,0.01466946106136973
-0.003756082508610702,0.01522899154319619
-0.003755912508610702,0.01499859663891429
-0.003755742508610702,0.01486694240789558
-0.003755572508610702,0.01473528817687627
-0.003755402508610702,0.01430741192606883
-0.003755232508610702,0.0144390661570864
-0.003755062508610702,0.01420867125280492
-0.003754892508610702,0.01417575769505036
-0.003754722508610702,0.01358331365546857
-0.003754552508610702,0.01364914077097673
-0.003754382508610702,0.01345165942444998
-0.003754212508610702,0.01338583230894093
-0.003754042508610702,0.01335291875118643
-0.003753872508610702,0.01332000519343187
-0.003753702508610702,0.01341874586669423
-0.003753532508610702,0.01305669673139554
-0.003753362508610702,0.01308961028915057
-0.003753192508610702,0.01341874586669345
-0.003753022508610702,0.01226677134528605
-0.003752852508610702,0.01453780683035049
-0.003752682508610702,0.01384662211750605
-0.003752512508610702,0.01434032548382338
-0.003752342508610702,0.01440615259933298
-0.003752172508610702,0.01480111529238772
-0.003752002508610702,0.01522899154319619
-0.003751832508610702,0.01582143558277821
-0.003751662508610702,0.01631513894909567
-0.003751492508610702,0.01687466943092524
-0.003751322508610702,0.01720380500846973
-0.003751152508610702,0.01726963212397944
-0.003750982508610702,0.01766459481703341
-0.003750812508610702,0.01769750837478797
-0.003750642508610702,0.017368372797243
-0.003750472508610702,0.01736837279723952
-0.003750302508610702,0.01657844741113327
-0.003750132508610702,0.0167101016421494
-0.003749962508610702,0.01568978135175999
-0.003749792508610702,0.01499859663891429
-0.003749622508610702,0.01466946106136931
-0.003749452508610702,0.01355040009771042
-0.003749282508610702,0.01262882048058444
-0.003749112508610702,0.01167432730570192
-0.003748942508610702,0.01052235278429452
-0.003748772508610702,0.009436205378394135
-0.003748602508610702,0.008712107107795197
-0.003748432508610702,0.007395564797607763
-0.003748262508610702,0.00634233094946493
-0.003748092508610702,0.00588154114090101
-0.003747922508610702,0.005354924216829054
-0.003747752508610702,0.00574988690988374
-0.003747582508610702,0.006375244507220324
-0.003747412508610702,0.007296824124350678
-0.003747242508610702,0.008053835952704353
-0.003747072508610702,0.008942502012077995
-0.003746902508610702,0.01016030364899439
-0.003746732508610702,0.01091731547734921
-0.003746562508610702,0.01216803067202238
-0.003746392508610702,0.01236551201855163
-0.003746222508610702,0.01289212894262437
-0.003746052508610702,0.01384662211750527
-0.003745882508610702,0.01410993057954226
-0.003745712508610702,0.01466946106136872
-0.003745542508610702,0.01440615259933226
-0.003745372508610702,0.01414284413729317
-0.003745202508610702,0.01341874586669291
-0.003745032508610702,0.01269464759609427
-0.003744862508610702,0.01213511711426602
-0.003744692508610702,0.01114771038163111
-0.003744522508610702,0.01052235278429452
-0.003744352508610702,0.01019321720674811
-0.003744182508610702,0.009962822302465493
-0.003744012508610702,0.009534946051658047
-0.003743842508610702,0.009666600282676215
-0.003743672508610702,0.009765340955939707
-0.003743502508610702,0.01193763576774048
-0.003743332508610702,0.008942502012079013
-0.003743162508610702,0.009831168071451575
-0.003742992508610702,0.01058817989980489
-0.003742822508610702,0.01127936461265065
-0.003742652508610702,0.01200346288324959
-0.003742482508610702,0.0125300798073225
-0.003742312508610702,0.01259590692283234
-0.003742142508610702,0.01279338826935968
-0.003741972508610702,0.01299086961588666
-0.003741802508610702,0.01318835096241514
-0.003741632508610702,0.01401118990627757
-0.003741462508610702,0.01401118990627757
-0.003741292508610702,0.01437323904157704
-0.003741122508610702,0.01420867125280516
-0.003740952508610702,0.01427449836831469
-0.003740782508610702,0.0146365475036141
-0.003740612508610702,0.0146036339458596
-0.003740442508610702,0.01450489327259593
-0.003740272508610702,0.01394536279076948
-0.003740102508610702,0.01355040009771174
-0.003739932508610702,0.01299086961588433
-0.003739762508610702,0.0119047222099867
-0.003739592508610702,0.01233259846079516
-0.003739422508610702,0.01164141374794946
-0.003739252508610702,0.01157558663244047
-0.003739082508610702,0.01131227817040377
-0.003738912508610702,0.01127936461264915
-0.003738742508610702,0.01118062393938578
-0.003738572508610702,0.01124645105489478
-0.003738402508610702,0.01078566124633098
-0.003738232508610702,0.01025904432225902
-0.003738062508610702,0.01025904432225639
-0.003737892508610702,0.009798254513693724
-0.003737722508610702,0.009502032493903431
-0.003737552508610702,0.009600773167166921
-0.003737382508610702,0.009304551147375908
-0.003737212508610702,0.008909588454321223
-0.003737042508610702,0.008317144414739911
-0.003736872508610702,0.008514625761267016
-0.003736702508610702,0.008777934223303533
-0.003736532508610702,0.009074156243094007
-0.003736362508610702,0.008777934223302994
-0.003736192508610702,0.009864081629203377
-0.003736022508610702,0.009962822302467049
-0.003735852508610702,0.009962822302467767
-0.003735682508610702,0.01035778499552167
-0.003735512508610702,0.010324871437767
-0.003735342508610702,0.01022613076450351
-0.003735172508610702,0.01012739009123984
-0.003735002508610702,0.01019321720674955
-0.003734832508610702,0.01035778499552221
-0.003734662508610702,0.01062109345755681
-0.003734492508610702,0.009864081629203797
-0.003734322508610702,0.01009447653348528
-0.003734152508610702,0.008152576625966409
-0.003733982508610702,0.008251317299235467
-0.003733812508610702,0.009732427398180839
-0.003733642508610702,0.008547539319020017
-0.003733472508610702,0.007955095279438348
-0.003733302508610702,0.00756013258638438
-0.003733132508610702,0.007724700375157166
-0.003732962508610702,0.007362651239854284
-0.003732792508610702,0.006605639411502464
-0.003732622508610702,0.006671466527011578
-0.003732452508610702,0.006803120758029448
-0.003732282508610702,0.006737293642520453
-0.003732112508610702,0.006210676718447538
-0.003731942508610702,0.006408158064977396
-0.003731772508610702,0.00709934277782106
-0.003731602508610702,0.007230997008840785
-0.003731432508610702,0.008317144414739672
-0.003731262508610702,0.008580452876775651
-0.003731092508610702,0.00983116807144882
-0.003730922508610702,0.01108188326611972
-0.003730752508610702,0.01226677134528796
-0.003730582508610702,0.0127933882693601
-0.003730412508610702,0.01341874586669614
-0.003730242508610702,0.01374788144424112
-0.003730072508610702,0.01417575769505036
-0.003729902508610702,0.01410993057954136
-0.003729732508610702,0.01401118990627614
-0.003729562508610702,0.01361622721322229
-0.003729392508610702,0.01328709163567618
-0.003729222508610702,0.01266173403834073
-0.003729052508610702,0.01279338826935896
-0.003728882508610702,0.01269464759609547
-0.003728712508610702,0.01197054932549443
-0.003728542508610702,0.01180598153672135
-0.003728372508610702,0.01131227817040293
-0.003728202508610702,0.01078566124633098
-0.003728032508610702,0.01039069855327629
-0.003727862508610702,0.01012739009124031
-0.003727692508610702,0.01022613076450351
-0.003727522508610702,0.01022613076450339
-0.003727352508610702,0.01016030364899451
-0.003727182508610702,0.01022613076450351
-0.003727012508610702,0.01035778499552173
-0.003726842508610702,0.01045652566878541
-0.003726672508610702,0.01042361211103193
-0.003726502508610702,0.01071983413082246
-0.003726332508610702,0.01104896970836641
-0.003726162508610702,0.01048943922653996
-0.003725992508610702,0.01078566124633098
-0.003725822508610702,0.01101605615061288
-0.003725652508610702,0.01091731547734933
-0.003725482508610702,0.0109502290351034
-0.003725312508610702,0.01075274768857696
-0.003725142508610702,0.01104896970836821
-0.003724972508610702,0.01147684595917668
-0.003724802508610702,0.01062109345755819
-0.003724632508610702,0.01147684595918195
-0.003724462508610702,0.01292504250037707
-0.003724292508610702,0.01285921538486909
-0.003724122508610702,0.01341874586669633
-0.003723952508610702,0.01384662211750479
-0.003723782508610702,0.01420867125280492
-0.003723612508610702,0.01473528817687867
-0.003723442508610702,0.01496568308116212
-0.003723272508610702,0.01562395423625135
-0.003723102508610702,0.01588726269828847
-0.003722932508610702,0.01651262029562391
-0.003722762508610702,0.0155252135629872
-0.003722592508610702,0.01638096606460413
-0.003722422508610702,0.01595308981379525
-0.003722252508610702,0.01562395423625027
-0.003722082508610702,0.01529481865870464
-0.003721912508610702,0.01493276952340517
-0.003721742508610702,0.01476820173463239
-0.003721572508610702,0.01410993057953849
-0.003721402508610702,0.0133529187511838
-0.003721232508610702,0.01262882048058581
-0.003721062508610702,0.01243133913405811
-0.003720892508610702,0.01203637644100415
-0.003720722508610702,0.01134519172815845
-0.003720552508610702,0.01111479682387697
-0.003720382508610702,0.01078566124632978
-0.003720212508610702,0.01045652566878337
-0.003720042508610702,0.009337464705129627
-0.003719872508610702,0.008876674896566664
-0.003719702508610702,0.00871210710779388
-0.003719532508610702,0.008119663068212928
-0.003719362508610702,0.007856354606174197
-0.003719192508610702,0.007527219028629045
