Analysis/New Tests_CMB/wrd01_d2s01/cmb02_ch15.csv

#Digilent WaveForms Oscilloscope Acquisition
#Device Name: ADP3450
#Serial Number: SN:210018B9D9B0
#Date Time: 2024-08-14 16:34:56.904.741.790
#Sample rate: 5.88235e+06Hz
#Samples: 32768
#Trigger: Source: Channel 3 Type: Edge Condition: Rising Level: 60 mV Hyst.: Auto HoldOff: 0 s
#Channel 3: Range: 100 mV/div Offset: 0 V Attenuation: 1 X Coupling: DC Bandwidth: 0 Hz Sample Mode: Average

Time (s),Channel 3 (V)
-0.003798450336932143,0.2114267093181111
-0.003798280336932143,0.2221565291461173
-0.003798110336932143,0.2334787930136644
-0.003797940336932143,0.242200885818622
-0.003797770336932143,0.2498039176599343
-0.003797600336932143,0.2551030004584084
-0.003797430336932143,0.2594475900820099
-0.003797260336932143,0.2631009949927676
-0.003797090336932143,0.264121315283157
-0.003796920336932143,0.2657999067286395
-0.003796750336932143,0.265240376246811
-0.003796580336932143,0.2646808457649845
-0.003796410336932143,0.2633313898970476
-0.003796240336932143,0.261323662874015
-0.003796070336932143,0.2587893189269188
-0.003795900336932143,0.2556296173824813
-0.003795730336932143,0.2529965327621109
-0.003795560336932143,0.2498368312176792
-0.003795390336932143,0.2465783889999781
-0.003795220336932143,0.243254119666762
-0.003795050336932143,0.2400615045645758
-0.003794880336932143,0.2362435318650472
-0.003794710336932143,0.2330509167628609
-0.003794540336932143,0.2298253881029085
-0.003794370336932143,0.226665686558471
-0.003794200336932143,0.2233085036675123
-0.003794030336932143,0.2192930496214502
-0.003793860336932143,0.2159029531727309
-0.003793690336932143,0.2119533262421912
-0.003793520336932143,0.2082999213314282
-0.003793350336932143,0.2043502944008813
-0.003793180336932143,0.2004664945858507
-0.003793010336932143,0.1964839540975422
-0.003792840336932143,0.1922051915894497
-0.003792670336932143,0.1881897375434011
-0.003792500336932143,0.1839438885930559
-0.003792330336932143,0.1799942616625091
-0.003792160336932143,0.1762750296362509
-0.003791990336932143,0.1728191060720156
-0.003791820336932143,0.1697252316430873
-0.003791650336932143,0.166532616540901
-0.003791480336932143,0.1635703963429851
-0.003791310336932143,0.1604436083563021
-0.003791140336932143,0.1577446966204334
-0.003790970336932143,0.1553749204621003
-0.003790800336932143,0.154881217095782
-0.003790630336932143,0.1511948986272783
-0.003790460336932143,0.1479035428518159
-0.003790290336932143,0.1453033717892059
-0.003790120336932143,0.1429335956308778
-0.003789950336932143,0.1406954737035679
-0.003789780336932143,0.1374370314858667
-0.003789610336932143,0.1353634773473296
-0.003789440336932143,0.1325658249381923
-0.003789270336932143,0.1307555792616916
-0.003789100336932143,0.1277933590637815
-0.003788930336932143,0.1252590151166768
-0.003788760336932143,0.1231525474203889
-0.003788590336932143,0.1212764746283792
-0.003788420336932143,0.1194662289518735
-0.003788250336932143,0.1167014901004957
-0.003788080336932143,0.1156811698101045
-0.003787910336932143,0.1142988003844091
-0.003787740336932143,0.1121265055726123
-0.003787570336932143,0.1112049259554847
-0.003787400336932143,0.109295939605717
-0.003787230336932143,0.1074527803714652
-0.003787060336932143,0.105905843157001
-0.003786890336932143,0.1043918195002882
-0.003786720336932143,0.1026144873815453
-0.003786550336932143,0.1018903891109451
-0.003786380336932143,0.1001130569921961
-0.003786210336932143,0.09853320621998021
-0.003786040336932143,0.09698626900551605
-0.003785870336932143,0.09537350467554033
-0.003785700336932143,0.09405696236536046
-0.003785530336932143,0.09237837091987805
-0.003785360336932143,0.09119348284071106
-0.003785190336932143,0.0895807185107407
-0.003785020336932143,0.08819834908504928
-0.003784850336932143,0.08721094235240959
-0.003784680336932143,0.08556526446468474
-0.003784510336932143,0.08414998148123876
-0.003784340336932143,0.08283343917105888
-0.003784170336932143,0.08141815618761053
-0.003784000336932143,0.08056240368599205
-0.003783830336932143,0.07950916983784814
-0.003783660336932143,0.07839010887419129
-0.003783490336932143,0.07727104791053632
-0.003783320336932143,0.07565828358056596
-0.003783150336932143,0.07417717348160796
-0.003782980336932143,0.0733872480954986
-0.003782810336932143,0.07193905155430072
-0.003782640336932143,0.06989841097351554
-0.003782470336932143,0.06825273308578769
-0.003782300336932143,0.06716658567988928
-0.003782130336932143,0.06525759933012298
-0.003781960336932143,0.06413853836646805
-0.003781790336932143,0.0623612062477252
-0.003781620336932143,0.06071552835999411
-0.003781450336932143,0.05953064028083005
-0.003781280336932143,0.05801661662412318
-0.003781110336932143,0.0571937776802565
-0.003780940336932143,0.05587723537007421
-0.003780770336932143,0.05521896421498427
-0.003780600336932143,0.05406698969357357
-0.003780430336932143,0.05301375584542774
-0.003780260336932143,0.05219091690156532
-0.003780090336932143,0.05182886776626369
-0.003779920336932143,0.05087437459138153
-0.003779750336932143,0.05110476949566344
-0.003779580336932143,0.04995279497425394
-0.003779410336932143,0.04968948651221747
-0.003779240336932143,0.04866916622182621
-0.003779070336932143,0.04794506795122595
-0.003778900336932143,0.04774758660469861
-0.003778730336932143,0.04679309342981645
-0.003778560336932143,0.04715514256511658
-0.003778390336932143,0.04603608160146164
-0.003778220336932143,0.04577277313942518
-0.003778050336932143,0.04488410708005106
-0.003777880336932143,0.04429166304047012
-0.003777710336932143,0.04337008342334251
-0.003777540336932143,0.04267889871049561
-0.003777370336932143,0.04202062755540567
-0.003777200336932143,0.04106613438052351
-0.003777030336932143,0.04057243101420462
-0.003776860336932143,0.04027620899441414
-0.003776690336932143,0.03935462937728654
-0.003776520336932143,0.03849887687566621
-0.003776350336932143,0.03747855658527679
-0.003776180336932143,0.03714942100773122
-0.003776010336932143,0.03635949562162113
-0.003775840336932143,0.03596453292856716
-0.003775670336932143,0.03550374312000337
-0.003775500336932143,0.03484547196491258
-0.003775330336932143,0.03504295331143956
-0.003775160336932143,0.03540500244673969
-0.003774990336932143,0.03550374312000384
-0.003774820336932143,0.03576705158203982
-0.003774650336932143,0.03599744648632172
-0.003774480336932143,0.03612910071733941
-0.003774310336932143,0.03583287869754893
-0.003774140336932143,0.03603036004407627
-0.003773970336932143,0.03540500244673832
-0.003773800336932143,0.03464799061838488
-0.003773630336932143,0.03435176859859387
-0.003773460336932143,0.0328048313841325
-0.003773290336932143,0.03152120263170195
-0.003773120336932143,0.03043505522580157
-0.003772950336932143,0.02921725358888518
-0.003772780336932143,0.02816401974073713
-0.003772610336932143,0.02720952656585497
-0.003772440336932143,0.02641960117974704
-0.003772270336932143,0.02586007069791813
-0.003772100336932143,0.02523471310058155
-0.003771930336932143,0.02270036915348526
-0.003771760336932143,0.02428021992569939
-0.003771590336932143,0.02447770127222673
-0.003771420336932143,0.02385234367489129
-0.003771250336932143,0.02414856569468116
-0.003771080336932143,0.02424730636794483
-0.003770910336932143,0.02398399790590885
-0.003770740336932143,0.02418147925243572
-0.003770570336932143,0.02500431819629965
-0.003770400336932143,0.02526762665833562
-0.003770230336932143,0.0252676266583361
-0.003770060336932143,0.02533345377384522
-0.003769890336932143,0.02526762665833622
-0.003769720336932143,0.0250372317540542
-0.003769550336932143,0.02487266396528142
-0.003769380336932143,0.02500431819629965
-0.003769210336932143,0.02520179954282699
-0.003769040336932143,0.02483975040752686
-0.003768870336932143,0.02460935550324496
-0.003768700336932143,0.0248068368497723
-0.003768530336932143,0.02421439281019028
-0.003768360336932143,0.02451061482998129
-0.003768190336932143,0.02345738098183546
-0.003768020336932143,0.02335864030857179
-0.003767850336932143,0.02302950473102622
-0.003767680336932143,0.02250288780695247
-0.003767510336932143,0.02204209799838951
-0.003767340336932143,0.02131799972778925
-0.003767170336932143,0.02092303703473396
-0.003767000336932143,0.020593901457189
-0.003766830336932143,0.02010019809087064
-0.003766660336932143,0.01963940828230558
-0.003766490336932143,0.01894822356946114
-0.003766320336932143,0.01832286597212456
-0.003766150336932143,0.0178620761635598
-0.003765980336932143,0.01733545923948784
-0.003765810336932143,0.01674301519990581
-0.003765640336932143,0.01634805250685107
-0.003765470336932143,0.01631513894909657
-0.003765300336932143,0.01542647288972353
-0.003765130336932143,0.0152948186587053
-0.003764960336932143,0.0152948186587053
-0.003764790336932143,0.01526190510095074
-0.003764620336932143,0.01526190510095116
-0.003764450336932143,0.01549230000523264
-0.003764280336932143,0.01562395423625087
-0.003764110336932143,0.01562395423625165
-0.003763940336932143,0.01605183048706011
-0.003763770336932143,0.01631513894909657
-0.003763600336932143,0.01667718808439688
-0.003763430336932143,0.01677592875766037
-0.003763260336932143,0.01717089145071506
-0.003763090336932143,0.01733545923948754
-0.003762920336932143,0.01703923721969683
-0.003762750336932143,0.0180595575100881
-0.003762580336932143,0.01812538462559709
-0.003762410336932143,0.01934318626251582
-0.003762240336932143,0.01868491510742468
-0.003762070336932143,0.01901405068496966
-0.003761900336932143,0.01871782866517924
-0.003761730336932143,0.01888239645395202
-0.003761560336932143,0.01848743376089806
-0.003761390336932143,0.01888239645395202
-0.003761220336932143,0.01812538462559721
-0.003761050336932143,0.01786207616356124
-0.003760880336932143,0.01756585414376974
-0.003760710336932143,0.01703923721969683
-0.003760540336932143,0.01582143558278043
-0.003760370336932143,0.01568978135175999
-0.003760200336932143,0.01516316442768707
-0.003760030336932143,0.01420867125280665
-0.003759860336932143,0.01374788144424112
-0.003759690336932143,0.01289212894262263
-0.003759520336932143,0.01256299336507766
-0.003759350336932143,0.01157558663244035
-0.003759180336932143,0.01081857480408553
-0.003759010336932143,0.01022613076450458
-0.003758840336932143,0.009666600282676035
-0.003758670336932143,0.008975415569830336
-0.003758500336932143,0.009765340955939707
-0.003758330336932143,0.009469118936148692
-0.003758160336932143,0.009172896916357679
-0.003757990336932143,0.008909588454321223
-0.003757820336932143,0.008942502012075779
-0.003757650336932143,0.009205810474112236
-0.003757480336932143,0.00973242739818515
-0.003757310336932143,0.01002864941797718
-0.003757140336932143,0.01058817989980363
-0.003756970336932143,0.01091731547734921
-0.003756800336932143,0.01131227817040581
-0.003756630336932143,0.01236551201854972
-0.003756460336932143,0.01249716624956795
-0.003756290336932143,0.01332000519343301
-0.003756120336932143,0.01394536279076846
-0.003755950336932143,0.01440615259933226
-0.003755780336932143,0.01473528817687675
-0.003755610336932143,0.0141428441372958
-0.003755440336932143,0.01397827634852302
-0.003755270336932143,0.01364914077097571
-0.003755100336932143,0.01269464759609529
-0.003754930336932143,0.01210220355651326
-0.003754760336932143,0.01098314259285622
-0.003754590336932143,0.00983116807144882
-0.003754420336932143,0.00904124268533945
-0.003754250336932143,0.008448798645755087
-0.003754080336932143,0.007165169893329695
-0.003753910336932143,0.006638552969256781
-0.003753740336932143,0.006506898738238015
-0.003753570336932143,0.006210676718447538
-0.003753400336932143,0.005848627583147411
-0.003753230336932143,0.006572725853752516
-0.003753060336932143,0.009238724031866792
-0.003752890336932143,0.006342330949465767
-0.003752720336932143,0.00667146652701074
-0.003752550336932143,0.00700060210455691
-0.003752380336932143,0.007691786817402609
-0.003752210336932143,0.008185490183720067
-0.003752040336932143,0.008251317299230079
-0.003751870336932143,0.008086749510457293
-0.003751700336932143,0.008679193550038244
-0.003751530336932143,0.008777934223302994
-0.003751360336932143,0.009139983358603122
-0.003751190336932143,0.008909588454321642
-0.003751020336932143,0.009798254513694264
-0.003750850336932143,0.01019321720674895
-0.003750680336932143,0.01048943922653942
-0.003750510336932143,0.01071983413082186
-0.003750340336932143,0.01052235278429452
-0.003750170336932143,0.01052235278429452
-0.003750000336932143,0.01101605615061288
-0.003749830336932143,0.01104896970836743
-0.003749660336932143,0.01085148836184045
-0.003749490336932143,0.01022613076450351
-0.003749320336932143,0.00983116807144882
-0.003749150336932143,0.009929908744712312
-0.003748980336932143,0.009995735860221606
-0.003748810336932143,0.009534946051657807
-0.003748640336932143,0.009337464705130824
-0.003748470336932143,0.009436205378394135
-0.003748300336932143,0.009469118936148692
-0.003748130336932143,0.009798254513694264
-0.003747960336932143,0.01055526634204908
-0.003747790336932143,0.01081857480408553
-0.003747620336932143,0.01127936461264933
-0.003747450336932143,0.01180598153672225
-0.003747280336932143,0.01190472220998592
-0.003747110336932143,0.01216803067202238
-0.003746940336932143,0.0118388950944768
-0.003746770336932143,0.01216803067202238
-0.003746600336932143,0.01177306797896769
-0.003746430336932143,0.01197054932549366
-0.003746260336932143,0.01121353749714022
-0.003746090336932143,0.01088440191959465
-0.003745920336932143,0.01088440191959393
-0.003745750336932143,0.01048943922653996
-0.003745580336932143,0.01016030364899439
-0.003745410336932143,0.009929908744711355
-0.003745240336932143,0.009304551147375908
-0.003745070336932143,0.009403291820639578
-0.003744900336932143,0.009403291820639158
-0.003744730336932143,0.009172896916357679
-0.003744560336932143,0.009469118936148692
-0.003744390336932143,0.009107069800848026
-0.003744220336932143,0.00881084778105755
-0.003744050336932143,0.008745020665548437
-0.003743880336932143,0.007988008837193743
-0.003743710336932143,0.008053835952702737
-0.003743540336932143,0.01039069855327629
-0.003743370336932143,0.00683603431578592
-0.003743200336932143,0.007823441048420837
-0.003743030336932143,0.00802092239494818
-0.003742860336932143,0.007395564797613092
-0.003742690336932143,0.008218403741475522
-0.003742520336932143,0.008448798645757422
-0.003742350336932143,0.007922181721685526
-0.003742180336932143,0.008481712203511979
-0.003742010336932143,0.008942502012075779
-0.003741840336932143,0.008317144414740331
-0.003741670336932143,0.009370378262885021
-0.003741500336932143,0.009008329127584893
-0.003741330336932143,0.008876674896566903
-0.003741160336932143,0.009008329127584893
-0.003740990336932143,0.00881084778105755
-0.003740820336932143,0.008053835952704114
-0.003740650336932143,0.008086749510457293
-0.003740480336932143,0.007823441048420837
-0.003740310336932143,0.008020922394947821
-0.003740140336932143,0.007922181721684508
-0.003739970336932143,0.00779052749066628
-0.003739800336932143,0.008053835952702258
-0.003739630336932143,0.008448798645757422
-0.003739460336932143,0.008415885088002865
-0.003739290336932143,0.008745020665547838
-0.003739120336932143,0.00871210710779388
-0.003738950336932143,0.009107069800848565
-0.003738780336932143,0.009041242685339569
-0.003738610336932143,0.00904124268533945
-0.003738440336932143,0.008843761338812107
-0.003738270336932143,0.008481712203512638
-0.003738100336932143,0.008185490183720966
-0.003737930336932143,0.008481712203511979
-0.003737760336932143,0.008679193550038962
-0.003737590336932143,0.008251317299230079
-0.003737420336932143,0.008086749510457293
-0.003737250336932143,0.008284230856984636
-0.003737080336932143,0.007988008837193623
-0.003736910336932143,0.007922181721684508
-0.003736740336932143,0.008053835952702737
-0.003736570336932143,0.007955095279439066
-0.003736400336932143,0.008284230856984636
-0.003736230336932143,0.008350057972493751
-0.003736060336932143,0.008481712203511261
-0.003735890336932143,0.008086749510457293
-0.003735720336932143,0.007856354606175394
-0.003735550336932143,0.008382971530249026
-0.003735380336932143,0.008777934223302994
-0.003735210336932143,0.008843761338812107
-0.003735040336932143,0.009600773167166083
-0.003734870336932143,0.009139983358603122
-0.003734700336932143,0.009699513840430593
-0.003734530336932143,0.009567859609411944
-0.003734360336932143,0.009337464705130465
-0.003734190336932143,0.01052235278429452
-0.003734020336932143,0.00746139191312466
-0.003733850336932143,0.009633686724921478
-0.003733680336932143,0.00973242739818515
-0.003733510336932143,0.009271637589620751
-0.003733340336932143,0.008942502012075779
-0.003733170336932143,0.008777934223302994
-0.003733000336932143,0.008251317299231337
-0.003732830336932143,0.008942502012075779
-0.003732660336932143,0.008317144414739193
-0.003732490336932143,0.008119663068211252
-0.003732320336932143,0.00779052749066628
-0.003732150336932143,0.007494305470875266
-0.003731980336932143,0.007263910566591989
-0.003731810336932143,0.006506898738238553
-0.003731640336932143,0.006210676718447538
-0.003731470336932143,0.005848627583148069
-0.003731300336932143,0.006013195371920196
-0.003731130336932143,0.005387837774583611
-0.003730960336932143,0.005453664890092606
-0.003730790336932143,0.005091615754792597
-0.003730620336932143,0.004927047966019811
-0.003730450336932143,0.005486578447846265
-0.003730280336932143,0.005354924216829054
-0.003730110336932143,0.005519492005601839
-0.003729940336932143,0.006144849602937288
-0.003729770336932143,0.006737293642520453
-0.003729600336932143,0.008152576625966409
-0.003729430336932143,0.008909588454319845
-0.003729260336932143,0.00904124268533945
-0.003729090336932143,0.009896995186957936
-0.003728920336932143,0.01022613076450291
-0.003728750336932143,0.01104896970836743
-0.003728580336932143,0.01121353749714022
-0.003728410336932143,0.01131227817040371
-0.003728240336932143,0.01144393240142212
-0.003728070336932143,0.01187180865223136
-0.003727900336932143,0.01170724086345888
-0.003727730336932143,0.01170724086345858
-0.003727560336932143,0.0116085001901949
-0.003727390336932143,0.01088440191959597
-0.003727220336932143,0.01039069855327629
-0.003727050336932143,0.009864081629203377
-0.003726880336932143,0.009008329127584893
-0.003726710336932143,0.008547539319021094
-0.003726540336932143,0.008942502012075779
-0.003726370336932143,0.008679193550039321
-0.003726200336932143,0.008350057972493751
-0.003726030336932143,0.008284230856984636
-0.003725860336932143,0.008613366434530208
-0.003725690336932143,0.008317144414739193
-0.003725520336932143,0.008679193550039321
-0.003725350336932143,0.008481712203511979
-0.003725180336932143,0.008745020665548437
-0.003725010336932143,0.008745020665548437
-0.003724840336932143,0.008152576625966409
-0.003724670336932143,0.01006156297572515
-0.003724500336932143,0.00700060210455691
-0.003724330336932143,0.008152576625966409
-0.003724160336932143,0.008382971530248248
-0.003723990336932143,0.008350057972493751
-0.003723820336932143,0.008679193550039321
-0.003723650336932143,0.008547539319021573
-0.003723480336932143,0.00881084778105755
-0.003723310336932143,0.008843761338812107
-0.003723140336932143,0.008712107107794359
-0.003722970336932143,0.008975415569830336
-0.003722800336932143,0.008514625761266537
-0.003722630336932143,0.008481712203512458
-0.003722460336932143,0.008745020665548437
-0.003722290336932143,0.008679193550039321
-0.003722120336932143,0.008613366434529309
-0.003721950336932143,0.00811966306821185
-0.003721780336932143,0.008382971530248308
-0.003721610336932143,0.007922181721685106
-0.003721440336932143,0.008251317299230079
-0.003721270336932143,0.008382971530248308
-0.003721100336932143,0.008119663068211911
-0.003720930336932143,0.008152576625966409
-0.003720760336932143,0.00779052749066628
-0.003720590336932143,0.007724700375157286
-0.003720420336932143,0.007362651239857037
-0.003720250336932143,0.007494305470875266
-0.003720080336932143,0.007625959701893255
-0.003719910336932143,0.007724700375157166
-0.003719740336932143,0.007625959701893495
