Analysis/New Tests_CMB/wrd01_d2s01/cmb08_ch37.csv

#Digilent WaveForms Oscilloscope Acquisition
#Device Name: ADP3450
#Serial Number: SN:210018B9D9B0
#Date Time: 2024-08-14 17:44:37.511.065.500
#Sample rate: 5.88235e+06Hz
#Samples: 32768
#Trigger: Source: Channel 3 Type: Edge Condition: Rising Level: 60 mV Hyst.: Auto HoldOff: 0 s
#Channel 3: Range: 100 mV/div Offset: 0 V Attenuation: 1 X Coupling: DC Bandwidth: 0 Hz Sample Mode: Average

Time (s),Channel 3 (V)
-0.003798444403895162,0.2150142871133578
-0.003798274403895161,0.2274226983868649
-0.003798104403895161,0.2381525182148433
-0.003797934403895161,0.2469075245775353
-0.003797764403895162,0.253325668339671
-0.003797594403895162,0.2581310477718276
-0.003797424403895162,0.2618831933558471
-0.003797254403895161,0.2647137593227437
-0.003797084403895161,0.2659973880751687
-0.003796914403895161,0.2665240049992378
-0.003796744403895162,0.2655036847088453
-0.003796574403895162,0.2637592661478569
-0.003796404403895162,0.260928700180965
-0.003796234403895161,0.2575056901744803
-0.003796064403895161,0.2545434699765633
-0.003795894403895161,0.2497051769866526
-0.003795724403895162,0.2450972789010185
-0.003795554403895162,0.2425958485116767
-0.003795384403895162,0.2399956774490667
-0.003795214403895161,0.23584856917198
-0.003795044403895161,0.2324255591654983
-0.003794874403895161,0.2268631679049937
-0.003794704403895162,0.2242959104001352
-0.003794534403895162,0.2200171478920505
-0.003794364403895162,0.215672558268449
-0.003794194403895162,0.2112621415293463
-0.003794024403895161,0.2066871570014428
-0.003793854403895161,0.2033628876682401
-0.003793684403895162,0.200894370836648
-0.003793514403895162,0.1982612862162882
-0.003793344403895162,0.1943774864012505
-0.003793174403895162,0.1906911679327468
-0.003793004403895161,0.1865769732134078
-0.003792834403895161,0.1830881360914307
-0.003792664403895162,0.1794018176229223
-0.003792494403895162,0.176801646560317
-0.003792324403895162,0.1734773772271067
-0.003792154403895162,0.171041773953274
-0.003791984403895161,0.1684416028906471
-0.003791814403895161,0.1650185928841793
-0.003791644403895162,0.1615626693199514
-0.003791474403895162,0.1584687948910287
-0.003791304403895162,0.1556711424818913
-0.003791134403895162,0.1525114409374596
-0.003790964403895161,0.150273319010136
-0.003790794403895161,0.1480681106405848
-0.003790624403895161,0.1459616429442933
-0.003790454403895162,0.143953915921269
-0.003790284403895162,0.1407283872613224
-0.003790114403895162,0.1380953026409579
-0.003789944403895161,0.1360217485024157
-0.003789774403895161,0.1346393790767263
-0.003789604403895161,0.1329607876312435
-0.003789434403895162,0.1310847148392372
-0.003789264403895162,0.1299656538755823
-0.003789094403895162,0.1279250132947997
-0.003788924403895161,0.1261147676182919
-0.003788754403895161,0.1241399541530213
-0.003788584403895161,0.1217372644369405
-0.003788414403895162,0.1203548950112478
-0.003788244403895162,0.1182813408727145
-0.003788074403895162,0.116536922311723
-0.003787904403895161,0.1135417885560522
-0.003787734403895161,0.1118631971105729
-0.003787564403895161,0.110250432780599
-0.003787394403895162,0.1083085328730784
-0.003787224403895162,0.1054121397906827
-0.003787054403895162,0.1031411043056182
-0.003786884403895161,0.1005409332430029
-0.003786714403895161,0.09909273670180277
-0.003786544403895161,0.09774328083386624
-0.003786374403895162,0.09520893688676817
-0.003786204403895162,0.09422153015413323
-0.003786034403895162,0.09254293870865082
-0.003785864403895161,0.09060103880112166
-0.003785694403895161,0.08777047283423131
-0.003785524403895161,0.08536778311815402
-0.003785354403895162,0.08352462388390465
-0.003785184403895162,0.08487407975183903
-0.003785014403895162,0.08517030177163004
-0.003784844403895161,0.08322840186409848
-0.003784674403895161,0.07973956474212261
-0.003784504403895161,0.07822554108541675
-0.003784334403895162,0.07727104791053596
-0.003784164403895162,0.07707356656400899
-0.003783994403895162,0.07565828358056303
-0.003783824403895162,0.07427591415487415
-0.003783654403895161,0.07147826174572831
-0.003783484403895161,0.06983258385800481
-0.003783314403895162,0.06894391779863236
-0.003783144403895162,0.06838438731680591
-0.003782974403895162,0.06848312799006959
-0.003782804403895162,0.06973384318474049
-0.003782634403895161,0.06663996875580636
-0.003782464403895161,0.06443476038625619
-0.003782294403895162,0.0628549096140371
-0.003782124403895162,0.06107757749529424
-0.003781954403895162,0.0597281216273574
-0.003781784403895162,0.05834575220166851
-0.003781614403895161,0.0567000743139324
-0.003781444403895161,0.05512022354171719
-0.003781274403895162,0.05390242190479953
-0.003781104403895162,0.05321123719195509
-0.003780934403895162,0.05182886776626369
-0.003780764403895162,0.0505123254560838
-0.003780594403895161,0.04991988141649674
-0.003780424403895161,0.049195783145899
-0.003780254403895161,0.04912995603038911
-0.003780084403895162,0.04863625266407165
-0.003779914403895162,0.0483729442020352
-0.003779744403895162,0.04712222900736202
-0.003779574403895161,0.04662852564104127
-0.003779404403895161,0.04597025448595175
-0.003779234403895161,0.04554237823514424
-0.003779064403895162,0.0460689951592162
-0.003778894403895162,0.04577277313942518
-0.003778724403895162,0.04537781044637049
-0.003778554403895161,0.04452205794474842
-0.003778384403895161,0.04353465121211302
-0.003778214403895161,0.04228393601744254
-0.003778044403895162,0.04251433092172169
-0.003777874403895162,0.0412307021692963
-0.003777704403895162,0.04136235640031453
-0.003777534403895161,0.04004581409013093
-0.003777364403895161,0.03968376495483086
-0.003777194403895161,0.03899258024198534
-0.003777024403895162,0.03840013620240355
-0.003776854403895162,0.03793934639384059
-0.003776684403895162,0.03714942100773122
-0.003776514403895161,0.03685319898793817
-0.003776344403895161,0.03629366850611106
-0.003776174403895161,0.03583287869754756
-0.003776004403895162,0.03507586686919419
-0.003775834403895162,0.03510878042694868
-0.003775664403895162,0.03458216350287577
-0.003775494403895161,0.03356184321248019
-0.003775324403895161,0.03237695513332044
-0.003775154403895161,0.03237695513332379
-0.003774984403895162,0.03422011436757839
-0.003774814403895162,0.03573413802428527
-0.003774644403895162,0.03122498061191094
-0.003774474403895161,0.03264026359535115
-0.003774304403895161,0.03106041282313468
-0.003774134403895161,0.03010591964825714
-0.003773964403895162,0.03073127724559204
-0.003773794403895162,0.03043505522580157
-0.003773624403895162,0.02928308070439207
-0.003773454403895162,0.0277032299321762
-0.003773284403895161,0.02510305886956092
-0.003773114403895161,0.02444478771447265
-0.003772944403895162,0.0247080961765081
-0.003772774403895162,0.02441187415671762
-0.003772604403895162,0.02385234367489015
-0.003772434403895162,0.02253580136471026
-0.003772264403895161,0.02171296242084094
-0.003772094403895161,0.02089012347697875
-0.003771924403895162,0.02019893876413515
-0.003771754403895162,0.02065972857269811
-0.003771584403895162,0.02092303703473456
-0.003771414403895162,0.02773614348991549
-0.003771244403895161,0.02339155386631162
-0.003771074403895161,0.01934318626251876
-0.003770904403895162,0.0209559505924887
-0.003770734403895162,0.02072555568820722
-0.003770564403895162,0.02033059299515254
-0.003770394403895162,0.02187753020961391
-0.003770224403895161,0.02227249290267332
-0.003770054403895161,0.02279910982674348
-0.003769884403895161,0.0223383200181801
-0.003769714403895162,0.02210792511389862
-0.003769544403895162,0.02260162848021698
-0.003769374403895162,0.02158130818982571
-0.003769204403895161,0.02207501155614263
-0.003769034403895161,0.02168004886308848
-0.003768864403895161,0.02118634549677025
-0.003768694403895162,0.02075846924596178
-0.003768524403895162,0.02079138280371634
-0.003768354403895162,0.02000145741760697
-0.003768184403895161,0.01986980318658551
-0.003768014403895161,0.01898113712721599
-0.003767844403895161,0.01914570491598836
-0.003767674403895162,0.01907987780047973
-0.003767504403895162,0.01927735914700671
-0.003767334403895162,0.01940901337802494
-0.003767164403895161,0.01977106251332411
-0.003766994403895161,0.01950775405128879
-0.003766824403895161,0.01960649472455264
-0.003766654403895162,0.01980397607107963
-0.003766484403895162,0.01980397607107963
-0.003766314403895162,0.01977106251332507
-0.003766144403895161,0.0195077540512861
-0.003765974403895161,0.01881656933843956
-0.003765804403895161,0.01789498972131412
-0.003765634403895162,0.01723671856622357
-0.003765464403895162,0.0169075829886786
-0.003765294403895162,0.01611765760256923
-0.003765124403895161,0.01460363394585601
-0.003764954403895161,0.01361622721322672
-0.003764784403895161,0.01466946106137153
-0.003764614403895162,0.01621639827583206
-0.003764444403895162,0.0157556084672691
-0.003764274403895162,0.01457072038810504
-0.003764104403895161,0.01503151019666884
-0.003763934403895161,0.01503151019667447
-0.003763764403895161,0.01657844741113219
-0.003763594403895162,0.01611765760256528
-0.003763424403895162,0.01394536279076846
-0.003763254403895162,0.011378105285913
-0.003763084403895162,0.01101605615061354
-0.003762914403895161,0.01085148836184919
-0.003762744403895161,0.01335291875118853
-0.003762574403895162,0.01450489327259773
-0.003762404403895162,0.01549230000523264
-0.003762234403895162,0.0146036339458596
-0.003762064403895162,0.01328709163567971
-0.003761894403895161,0.01246425269180884
-0.003761724403895161,0.01121353749713962
-0.003761554403895162,0.01088440191959537
-0.003761384403895162,0.01127936461264933
-0.003761214403895162,0.01193763576774048
-0.003761044403895162,0.01210220355651296
-0.003760874403895161,0.01160850019019239
-0.003760704403895161,0.01091731547734717
-0.003760534403895162,0.009798254513692707
-0.003760364403895162,0.008942502012075779
-0.003760194403895162,0.008415885088002865
-0.003760024403895162,0.008284230856984875
-0.003759854403895161,0.00923872403186775
-0.003759684403895161,0.009502032493904328
-0.003759514403895161,0.01009447653348522
-0.003759344403895162,0.01006156297573072
-0.003759174403895162,0.01052235278429452
-0.003759004403895162,0.01055526634204902
-0.003758834403895161,0.01025904432225699
-0.003758664403895161,0.009962822302467528
-0.003758494403895161,0.01022613076450488
-0.003758324403895162,0.01098314259285832
-0.003758154403895162,0.01144393240142212
-0.003757984403895162,0.01236551201854972
-0.003757814403895161,0.01312252384690441
-0.003757644403895161,0.0130896102891489
-0.003757474403895161,0.01249716624956789
-0.003757304403895162,0.01246425269181153
-0.003757134403895162,0.01144393240142212
-0.003756964403895162,0.01190472220998592
-0.003756794403895161,0.01157558663244226
-0.003756624403895161,0.01210220355651326
-0.003756454403895161,0.01210220355651326
-0.003756284403895162,0.01210220355651057
-0.003756114403895162,0.01062109345755819
-0.003755944403895162,0.01032487143776718
-0.003755774403895161,0.009666600282673641
-0.003755604403895161,0.009008329127585252
-0.003755434403895161,0.009107069800848206
-0.003755264403895162,0.008909588454320145
-0.003755094403895162,0.008317144414739193
-0.003754924403895162,0.007988008837193623
-0.003754754403895161,0.008745020665556819
-0.003754584403895161,0.01104896970838108
-0.003754414403895161,0.01480111529238569
-0.003754244403895162,0.01410993057953807
-0.003754074403895162,0.01236551201854972
-0.003753904403895162,0.01170724086345858
-0.003753734403895161,0.01243133913406554
-0.003753564403895161,0.01427449836831487
-0.003753394403895161,0.01450489327259341
-0.003753224403895162,0.01312252384690118
-0.003753054403895162,0.01127936461264933
-0.003752884403895162,0.009666600282676035
-0.003752714403895162,0.009107069800849583
-0.003752544403895161,0.009370378262888016
-0.003752374403895161,0.01019321720675003
-0.003752204403895162,0.01078566124633056
-0.003752034403895162,0.01055526634204908
-0.003751864403895162,0.01032487143776718
-0.003751694403895162,0.01025904432225818
-0.003751524403895161,0.01088440191959489
-0.003751354403895161,0.01095022903510388
-0.003751184403895162,0.01101605615061258
-0.003751014403895162,0.01085148836184009
-0.003750844403895162,0.01111479682387655
-0.003750674403895162,0.01062109345755909
-0.003750504403895161,0.01058817989980387
-0.003750334403895161,0.01065400701531299
-0.003750164403895162,0.01078566124632966
-0.003749994403895162,0.01006156297573072
-0.003749824403895162,0.009337464705130465
-0.003749654403895162,0.008382971530250045
-0.003749484403895161,0.007889268163930071
-0.003749314403895161,0.007922181721684388
-0.003749144403895162,0.007856354606175574
-0.003748974403895162,0.007955095279439066
-0.003748804403895162,0.007230997008838809
-0.003748634403895162,0.007230997008838809
-0.003748464403895161,0.006737293642520932
-0.003748294403895161,0.006868947873538382
-0.003748124403895161,0.006704380084766494
-0.003747954403895162,0.007033515662311467
-0.003747784403895162,0.007132256335575138
-0.003747614403895162,0.00756013258638438
-0.003747444403895161,0.007428478355368666
-0.003747274403895161,0.008119663068212031
-0.003747104403895161,0.008218403741475403
-0.003746934403895162,0.008152576625966409
-0.003746764403895162,0.008218403741475522
-0.003746594403895162,0.007823441048420837
-0.003746424403895161,0.008382971530248787
-0.003746254403895161,0.008514625761269351
-0.003746084403895161,0.01006156297573168
-0.003745914403895162,0.01058817989980465
-0.003745744403895162,0.01114771038163111
-0.003745574403895162,0.01118062393938566
-0.003745404403895161,0.0112793646126479
-0.003745234403895161,0.01088440191960686
-0.003745064403895161,0.01424158481055391
-0.003744894403895162,0.01118062393938512
-0.003744724403895162,0.01088440191959465
-0.003744554403895162,0.01048943922653996
-0.003744384403895161,0.01220094422978005
-0.003744214403895161,0.01305669673139949
-0.003744044403895161,0.01417575769504503
-0.003743874403895162,0.01124645105489118
-0.003743704403895162,0.009271637589621349
-0.003743534403895162,0.009469118936148692
-0.003743364403895161,0.009666600282678909
-0.003743194403895161,0.01045652566878074
-0.003743024403895161,0.009172896916354985
-0.003742854403895162,0.007691786817399855
-0.003742684403895162,0.006177763160692982
-0.003742514403895162,0.006046108929674754
-0.003742344403895161,0.00611193604518698
-0.003742174403895161,0.006967688546802951
-0.003742004403895161,0.007132256335575497
-0.003741834403895162,0.007329737682101583
-0.003741664403895162,0.006836034315784124
-0.003741494403895162,0.006408158064974882
-0.003741324403895162,0.005881541140902925
-0.003741154403895161,0.005124529312550267
-0.003740984403895161,0.0059802818141654
-0.003740814403895162,0.00584862758314783
-0.003740644403895162,0.00607902248742931
-0.003740474403895162,0.005519492005601839
-0.003740304403895162,0.005848627583146812
-0.003740134403895161,0.005782800467638536
-0.003739964403895161,0.005848627583147231
-0.003739794403895162,0.005749886909883979
-0.003739624403895162,0.005881541140901968
-0.003739454403895162,0.006375244507220324
-0.003739284403895162,0.006770207200274291
-0.003739114403895161,0.006836034315784723
-0.003738944403895161,0.007000602104557628
-0.003738774403895162,0.007395564797613332
-0.003738604403895162,0.008350057972493751
-0.003738434403895162,0.008415885088002865
-0.003738264403895162,0.008613366434529849
-0.003738094403895161,0.008284230856985235
-0.003737924403895161,0.008448798645759039
-0.003737754403895161,0.009337464705130704
-0.003737584403895162,0.009469118936148692
-0.003737414403895162,0.009337464705130465
-0.003737244403895162,0.009896995186957936
-0.003737074403895161,0.009995735860222205
-0.003736904403895161,0.01016030364899565
-0.003736734403895161,0.01085148836184057
-0.003736564403895162,0.01111479682387655
-0.003736394403895162,0.01108188326612199
-0.003736224403895162,0.01078566124633098
-0.003736054403895161,0.01016030364899128
-0.003735884403895161,0.009304551147373153
-0.003735714403895161,0.00779052749066646
-0.003735544403895162,0.007889268163931807
-0.003735374403895162,0.008909588454321223
-0.003735204403895162,0.009008329127584893
-0.003735034403895161,0.007691786817400932
-0.003734864403895161,0.00723099700883845
-0.003734694403895161,0.007033515662311886
-0.003734524403895162,0.007263910566591151
-0.003734354403895162,0.006046108929674754
-0.003734184403895162,0.005782800467638296
-0.003734014403895161,0.006441071622737581
-0.003733844403895161,0.008679193550046146
-0.003733674403895161,0.0105552663420465
-0.003733504403895162,0.009139983358600848
-0.003733334403895162,0.007889268163929951
-0.003733164403895162,0.007724700375157166
-0.003732994403895161,0.008745020665552029
-0.003732824403895161,0.009732427398185509
-0.003732654403895161,0.009831168071445887
-0.003732484403895162,0.008218403741473786
-0.003732314403895162,0.007263910566593366
-0.003732144403895162,0.006473985180483996
-0.003731974403895161,0.006868947873539279
-0.003731804403895161,0.007033515662316615
-0.003731634403895161,0.008448798645758201
-0.003731464403895162,0.008876674896561935
-0.003731294403895162,0.006276503833956653
-0.003731124403895162,0.008284230856984636
-0.003730954403895162,0.008745020665547599
-0.003730784403895161,0.008679193550042435
-0.003730614403895161,0.009534946051658706
-0.003730444403895162,0.01002864941797658
-0.003730274403895162,0.01025904432225806
-0.003730104403895162,0.01058817989980363
-0.003729934403895162,0.01062109345755813
-0.003729764403895161,0.01095022903510101
-0.003729594403895161,0.01019321720674859
-0.003729424403895162,0.009995735860221127
-0.003729254403895162,0.00973242739818515
-0.003729084403895162,0.01085148836184009
-0.003728914403895162,0.01012739009124115
-0.003728744403895161,0.01022613076450051
-0.003728574403895161,0.009403291820639518
-0.003728404403895162,0.009370378262883346
-0.003728234403895162,0.008448798645757422
-0.003728064403895162,0.01470237461912327
-0.003727894403895162,0.01183889509448201
-0.003727724403895161,0.008218403741476959
-0.003727554403895161,0.00861336643452907
-0.003727384403895161,0.007988008837193144
-0.003727214403895162,0.007724700375157166
-0.003727044403895162,0.008251317299230079
-0.003726874403895162,0.008481712203511979
-0.003726704403895161,0.007955095279439784
-0.003726534403895161,0.008152576625965989
-0.003726364403895161,0.007922181721684029
-0.003726194403895162,0.007658873259648051
-0.003726024403895162,0.008448798645757422
-0.003725854403895162,0.008218403741475522
-0.003725684403895161,0.007889268163930669
-0.003725514403895161,0.008086749510456395
-0.003725344403895161,0.007593046144139237
-0.003725174403895162,0.007757613932912022
-0.003725004403895162,0.007922181721684508
-0.003724834403895162,0.008613366434530208
-0.003724664403895161,0.008745020665548197
-0.003724494403895161,0.008679193550039321
-0.003724324403895161,0.008679193550037346
-0.003724154403895162,0.007593046144138459
-0.003723984403895162,0.007329737682102481
-0.003723814403895162,0.007691786817402609
-0.003723644403895161,0.01052235278429931
-0.003723474403895161,0.01183889509447644
-0.003723304403895161,0.0117401544212099
-0.003723134403895162,0.009962822302467169
-0.003722964403895162,0.01002864941797616
-0.003722794403895162,0.01025904432225806
-0.003722624403895161,0.0113781052859136
-0.003722454403895161,0.0115426730746816
-0.003722284403895161,0.01039069855327222
-0.003722114403895162,0.008152576625964433
-0.003721944403895162,0.007066429220066024
-0.003721774403895162,0.007362651239857037
-0.003721604403895161,0.007790527490665323
-0.003721434403895161,0.007527219028626471
-0.003721264403895161,0.006605639411501866
-0.003721094403895162,0.006408158064974343
-0.003720924403895162,0.006111936045183867
-0.003720754403895162,0.006013195371920196
-0.003720584403895162,0.005585319121111732
-0.003720414403895161,0.004894134408262261
-0.003720244403895161,0.00407129546439989
-0.003720074403895162,0.003281370078289083
-0.003719904403895162,0.001701519306073215
-0.003719734403895162,0.0009115939199638446
-0.003719564403895162,0.0007470261311913585
