Analysis/New Tests_CMB/wrd01_d2s01/cmb02_ch10.csv

#Digilent WaveForms Oscilloscope Acquisition
#Device Name: ADP3450
#Serial Number: SN:210018B9D9B0
#Date Time: 2024-08-06 12:38:11.020.715.760
#Sample rate: 2.94118e+06Hz
#Samples: 32768
#Trigger: Source: Channel 3 Type: Edge Condition: Rising Level: 20 mV Hyst.: Auto HoldOff: 0 s
#Channel 3: Range: 200 mV/div Offset: 0 V Attenuation: 1 X Coupling: DC Bandwidth: 0 Hz Sample Mode: Average

Time (s),Channel 3 (V)
-0.005570384631578947,0.02865772310705549
-0.005570044631578947,0.028723550222564
-0.005569704631578947,0.02839441464501903
-0.005569364631578947,0.02790071127870067
-0.005569024631578947,0.02681456387279897
-0.005568684631578947,0.02609046560220003
-0.005568344631578947,0.0248068368497723
-0.005568004631578947,0.02375360300162462
-0.005567664631578947,0.02273328271123521
-0.005567324631578947,0.02240414713368964
-0.005566984631578947,0.02154839463207001
-0.005566644631578947,0.02092303703473456
-0.005566304631578947,0.02098886415024368
-0.005565964631578947,0.02115343193901652
-0.005565624631578947,0.02118634549677102
-0.005565284631578947,0.02128508617003469
-0.005564944631578947,0.02131799972778811
-0.005564604631578947,0.02069264213045267
-0.005564264631578947,0.02010019809087064
-0.005563924631578947,0.01927735914700461
-0.005563584631578947,0.01812538462559721
-0.005563244631578947,0.01680884231541493
-0.005562904631578948,0.01575560846727101
-0.005562564631578947,0.01473528817687783
-0.005562224631578947,0.01332000519343187
-0.005561884631578948,0.01272756115385092
-0.005561544631578947,0.01190472220998592
-0.005561204631578947,0.01114771038163111
-0.005560864631578948,0.01052235278429566
-0.005560524631578947,0.01111479682387655
-0.005560184631578947,0.01157558663244035
-0.005559844631578948,0.01239842557630278
-0.005559504631578947,0.01358331365546833
-0.005559164631578947,0.01447197971484137
-0.005558824631578948,0.0152948186587038
-0.005558484631578947,0.0152948186587053
-0.005558144631578947,0.01473528817687783
-0.005557804631578948,0.01437323904157836
-0.005557464631578947,0.0139124492330139
-0.005557124631578947,0.01374788144424112
-0.005556784631578948,0.01410993057954059
-0.005556444631578947,0.01427449836831403
-0.005556104631578947,0.01509733731217796
-0.005555764631578947,0.01480111529238748
-0.005555424631578947,0.01486694240789606
-0.005555084631578947,0.01499859663891429
-0.005554744631578947,0.01417575769505186
-0.005554404631578947,0.01308961028914997
-0.005554064631578947,0.01210220355651326
-0.005553724631578947,0.01150975951693123
-0.005553384631578947,0.01180598153672225
-0.005553044631578947,0.01170724086345858
-0.005552704631578947,0.01220094422977693
-0.005552364631578947,0.01220094422977693
-0.005552024631578947,0.01141101884366756
-0.005551684631578947,0.01052235278429452
-0.005551344631578947,0.009765340955938449
-0.005551004631578947,0.009074156243094007
-0.005550664631578947,0.008350057972493751
-0.005550324631578947,0.00802092239494848
-0.005549984631578947,0.008185490183720966
-0.005549644631578947,0.009337464705130465
-0.005549304631578947,0.01058817989980573
-0.005548964631578947,0.01174015442121313
-0.005548624631578947,0.0129908696158863
-0.005548284631578947,0.01364914077097763
-0.005547944631578947,0.01374788144424112
-0.005547604631578947,0.01387953567525935
-0.005547264631578947,0.01368205432873158
-0.005546924631578947,0.0134516594244501
-0.005546584631578947,0.01279338826935896
-0.005546244631578947,0.011674327305703
-0.005545904631578947,0.01111479682387655
-0.005545564631578947,0.01048943922653996
-0.005545224631578947,0.01039069855327593
-0.005544884631578947,0.01019321720674895
-0.005544544631578947,0.01071983413082186
-0.005544204631578947,0.01164141374795084
-0.005543864631578947,0.01239842557630427
-0.005543524631578947,0.01302378317364086
-0.005543184631578947,0.01420867125280587
-0.005542844631578947,0.01473528817687783
-0.005542504631578947,0.01443906615708682
-0.005542164631578948,0.01351748653996089
-0.005541824631578947,0.01256299336507706
-0.005541484631578947,0.01174015442121313
-0.005541144631578948,0.01052235278429674
-0.005540804631578947,0.009929908744712493
-0.005540464631578947,0.009271637589621349
-0.005540124631578948,0.008909588454321882
-0.005539784631578947,0.008613366434530208
-0.005539444631578947,0.008547539319021094
-0.005539104631578948,0.008843761338811568
-0.005538764631578947,0.00973242739818515
-0.005538424631578947,0.01085148836184009
-0.005538084631578948,0.01183889509447501
-0.005537744631578947,0.01272756115384985
-0.005537404631578947,0.01282630182711352
-0.005537064631578948,0.013056696731395
-0.005536724631578947,0.01315543740465909
-0.005536384631578947,0.01282630182711352
-0.005536044631578948,0.01246425269181405
-0.005535704631578947,0.01213511711426782
-0.005535364631578947,0.01157558663244035
-0.005535024631578947,0.01144393240142236
-0.005534684631578947,0.01078566124633098
-0.005534344631578947,0.01048943922653996
-0.005534004631578947,0.010028649417977
-0.005533664631578947,0.009929908744712493
-0.005533324631578947,0.00950203249390325
-0.005532984631578947,0.008251317299230079
-0.005532644631578947,0.00700060210455691
-0.005532304631578947,0.006111936045183867
-0.005531964631578947,0.005354924216829054
-0.005531624631578947,0.005420751332338168
-0.005531284631578947,0.005782800467638296
-0.005530944631578947,0.005815714025392853
-0.005530604631578947,0.006605639411502225
-0.005530264631578947,0.006967688546802352
-0.005529924631578947,0.007362651239857037
-0.005529584631578947,0.008119663068213467
-0.005529244631578947,0.009008329127584893
-0.005528904631578947,0.009666600282676035
-0.005528564631578947,0.01009447653348558
-0.005528224631578947,0.01025904432225806
-0.005527884631578947,0.01065400701531275
-0.005527544631578947,0.01042361211103151
-0.005527204631578947,0.01078566124633098
-0.005526864631578947,0.01095022903510376
-0.005526524631578947,0.01150975951693201
-0.005526184631578947,0.01193763576774048
-0.005525844631578947,0.01249716624956795
-0.005525504631578947,0.01292504250037886
-0.005525164631578947,0.01384662211750479
-0.005524824631578947,0.01401118990627757
-0.005524484631578947,0.01407701702178501
-0.005524144631578947,0.01315543740465909
-0.005523804631578947,0.01233259846079516
-0.005523464631578947,0.01150975951692944
-0.005523124631578947,0.01052235278429452
-0.005522784631578947,0.00950203249390325
-0.005522444631578947,0.008679193550038183
-0.005522104631578947,0.008053835952702737
-0.005521764631578947,0.00779052749066628
-0.005521424631578947,0.007296824124346966
-0.005521084631578947,0.00677020720027501
-0.005520744631578947,0.006276503833956653
-0.005520404631578948,0.005684059794375702
-0.005520064631578947,0.005322010659074497
-0.005519724631578947,0.005519492005601839
-0.005519384631578948,0.006408158064973265
-0.005519044631578947,0.00700060210455691
-0.005518704631578947,0.007856354606175394
-0.005518364631578948,0.008777934223301318
-0.005518024631578947,0.009864081629203377
-0.005517684631578947,0.01078566124633098
-0.005517344631578948,0.0117401544212114
-0.005517004631578947,0.01243133913405883
-0.005516664631578947,0.01259590692283162
-0.005516324631578948,0.01256299336507712
-0.005515984631578947,0.0120692899987587
-0.005515644631578947,0.011378105285913
-0.005515304631578948,0.01085148836184105
-0.005514964631578947,0.01019321720674895
-0.005514624631578947,0.00973242739818515
-0.005514284631578948,0.00950203249390367
-0.005513944631578947,0.008975415569830336
-0.005513604631578947,0.008843761338812107
-0.005513264631578947,0.009041242685339091
-0.005512924631578947,0.008448798645757422
-0.005512584631578947,0.008152576625966409
-0.005512244631578947,0.008415885088002865
-0.005511904631578947,0.008942502012075779
-0.005511564631578947,0.00983116807144882
-0.005511224631578947,0.01032487143776718
-0.005510884631578947,0.01052235278429452
-0.005510544631578947,0.01025904432225806
-0.005510204631578947,0.01095022903510376
-0.005509864631578947,0.01124645105489478
-0.005509524631578947,0.01170724086345858
-0.005509184631578947,0.01239842557630427
-0.005508844631578947,0.01292504250037569
-0.005508504631578947,0.01210220355651326
-0.005508164631578947,0.01210220355651326
-0.005507824631578947,0.01150975951692956
-0.005507484631578947,0.01058817989980363
-0.005507144631578947,0.009633686724921478
-0.005506804631578947,0.008712107107793221
-0.005506464631578947,0.008350057972493751
-0.005506124631578947,0.008317144414739193
-0.005505784631578947,0.008053835952702976
-0.005505444631578947,0.008185490183720966
-0.005505104631578947,0.009469118936148692
-0.005504764631578947,0.0103577849955218
-0.005504424631578947,0.01039069855327629
-0.005504084631578947,0.01068692057306731
-0.005503744631578947,0.01095022903510412
-0.005503404631578947,0.01114771038163111
-0.005503064631578947,0.01101605615061288
-0.005502724631578947,0.01078566124633086
-0.005502384631578947,0.01071983413082186
-0.005502044631578947,0.01039069855327629
-0.005501704631578947,0.01016030364899379
-0.005501364631578947,0.00983116807144882
-0.005501024631578947,0.01019321720674895
-0.005500684631578947,0.01042361211103181
-0.005500344631578947,0.01095022903510376
-0.005500004631578947,0.01078566124633098
-0.005499664631578948,0.01068692057306749
-0.005499324631578947,0.00983116807144882
-0.005498984631578947,0.009205810474112236
-0.005498644631578948,0.008777934223303772
-0.005498304631578947,0.009370378262885021
-0.005497964631578947,0.009567859609412364
-0.005497624631578948,0.009798254513693844
-0.005497284631578947,0.01025904432225806
-0.005496944631578947,0.01055526634204908
-0.005496604631578948,0.01104896970836653
-0.005496264631578947,0.01098314259285832
-0.005495924631578947,0.01065400701531275
-0.005495584631578948,0.01025904432225878
-0.005495244631578947,0.01029195788001262
-0.005494904631578947,0.009304551147375908
-0.005494564631578948,0.008876674896567443
-0.005494224631578947,0.008843761338812107
-0.005493884631578947,0.008448798645757422
-0.005493544631578948,0.007889268163930969
-0.005493204631578947,0.008185490183720966
-0.005492864631578947,0.008053835952702737
-0.005492524631578947,0.008152576625966228
-0.005492184631578947,0.008218403741475522
-0.005491844631578947,0.008284230856984636
-0.005491504631578947,0.008942502012074582
-0.005491164631578947,0.009765340955939707
-0.005490824631578947,0.01062109345755819
-0.005490484631578947,0.01124645105489478
-0.005490144631578947,0.01144393240142212
-0.005489804631578947,0.01134519172815845
-0.005489464631578947,0.01108188326612199
-0.005489124631578947,0.01055526634204908
-0.005488784631578947,0.009962822302467049
-0.005488444631578947,0.009896995186957936
-0.005488104631578947,0.01025904432225938
-0.005487764631578947,0.01098314259285832
-0.005487424631578947,0.01154267307468579
-0.005487084631578947,0.0113781052859127
-0.005486744631578947,0.01121353749714022
-0.005486404631578947,0.01062109345755819
-0.005486064631578947,0.009600773167165844
-0.005485724631578947,0.009008329127584893
-0.005485384631578947,0.008284230856984636
-0.005485044631578947,0.008185490183721864
-0.005484704631578947,0.008679193550039321
-0.005484364631578947,0.008514625761266537
-0.005484024631578947,0.009370378262886279
-0.005483684631578947,0.01006156297573072
-0.005483344631578947,0.01075274768857642
-0.005483004631578947,0.0111806239393859
-0.005482664631578947,0.01131227817040389
-0.005482324631578947,0.01114771038163111
-0.005481984631578947,0.01085148836183985
-0.005481644631578947,0.01071983413082186
-0.005481304631578947,0.01095022903510376
-0.005480964631578947,0.01091731547734903
-0.005480624631578947,0.01081857480408553
-0.005480284631578947,0.01062109345755819
-0.005479944631578947,0.01019321720674805
-0.005479604631578947,0.009699513840430593
-0.005479264631578947,0.009666600282676035
-0.005478924631578948,0.009469118936149051
-0.005478584631578947,0.007625959701893495
-0.005478244631578947,0.001800259979336887
-0.005477904631578948,-0.01011444792779112
-0.005477564631578947,-0.03002715036931984
-0.005477224631578947,-0.05741123042111135
-0.005476884631578948,-0.08996273904030913
-0.005476544631578947,-0.1244561475671442
-0.005476204631578947,-0.1569089155131375
-0.005475864631578948,-0.1850170938354781
-0.005475524631578947,-0.2076616215706646
-0.005475184631578947,-0.2242500546789613
-0.005474844631578948,-0.234617825371628
-0.005474504631578947,-0.2394561183615667
-0.005474164631578947,-0.2397523403813577
-0.005473824631578948,-0.2367572066256985
-0.005473484631578947,-0.2324784441176006
-0.005473144631578947,-0.2269818799725896
-0.005472804631578948,-0.2208928717880076
-0.005472464631578947,-0.2144089009103488
-0.005472124631578947,-0.2075957944551554
-0.005471784631578947,-0.2003218981914116
-0.005471444631578947,-0.1927846934656047
-0.005471104631578947,-0.1853133158553203
-0.005470764631578947,-0.1778748518028039
-0.005470424631578947,-0.1711604860208607
-0.005470084631578947,-0.1654006134138132
-0.005469744631578947,-0.159245778113711
-0.005469404631578947,-0.1538479546419637
-0.005469064631578947,-0.1488780074210256
-0.005468724631578947,-0.1443359364508967
-0.005468384631578947,-0.1391026807679221
-0.005468044631578947,-0.1338035979694384
-0.005467704631578947,-0.1288665643062548
-0.005467364631578947,-0.123797876412053
-0.005467024631578947,-0.1179721766894964
-0.005466684631578947,-0.1125743532177491
-0.005466344631578947,-0.1075385788812943
-0.005466004631578947,-0.1033914706042276
-0.005465664631578947,-0.09957349790469899
-0.005465324631578947,-0.09615048789821883
-0.005464984631578947,-0.09272747789175112
-0.005464644631578947,-0.08910698653874985
-0.005464304631578947,-0.08515735960819606
-0.005463964631578947,-0.08133938690867437
-0.005463624631578947,-0.07742267353588206
-0.005463284631578947,-0.07370344150961076
-0.005462944631578947,-0.07021460438763408
-0.005462604631578947,-0.06682450793891467
-0.005462264631578947,-0.06379646062549214
-0.005461924631578947,-0.06198621494899479
-0.005461584631578947,-0.06027470994575782
-0.005461244631578947,-0.05935313032862705
-0.005460904631578947,-0.05760871176763869
-0.005460564631578947,-0.05632508301521096
-0.005460224631578947,-0.05579846609113584
-0.005459884631578947,-0.05458066445421944
-0.005459544631578947,-0.05316538147077348
-0.005459204631578947,-0.05132222223651427
-0.005458864631578947,-0.04911701386696296
-0.005458524631578947,-0.04635227501558016
-0.005458184631578947,-0.04339005481766314
-0.005457844631578947,-0.03960499567589595
-0.005457504631578947,-0.03746561442184974
-0.005457164631578948,-0.03519457893678943
-0.005456824631578947,-0.03269314854743896
-0.005456484631578947,-0.03084998931318376
-0.005456144631578948,-0.02880934873240493
-0.005455804631578947,-0.02703201661365514
-0.005455464631578947,-0.02532051161041817
-0.005455124631578948,-0.02416853708901077
-0.005454784631578947,-0.02295073545209006
-0.005454444631578947,-0.02225955073924436
-0.005454104631578948,-0.02183167448843589
-0.005453764631578947,-0.0213050575643622
-0.005453424631578947,-0.02067969996702562
-0.005453084631578948,-0.01975812034989969
-0.005452744631578947,-0.01850740515522485
-0.005452404631578947,-0.01738834419156991
-0.005452064631578948,-0.016335110343426
-0.005451724631578947,-0.01547935784180559
-0.005451384631578947,-0.01445903755141432
-0.005451044631578948,-0.0135374579342884
-0.005450704631578947,-0.01185886648880431
-0.005450364631578947,-0.01034484283209469
-0.005450024631578947,-0.008666251386615326
-0.005449684631578947,-0.007316795518675433
-0.005449344631578947,-0.006329388786038719
-0.005449004631578947,-0.005638204073194276
-0.005448664631578947,-0.005671117630947577
-0.005448324631578947,-0.005309068495647449
-0.005447984631578947,-0.00586859897747492
-0.005447644631578947,-0.00665852436358429
-0.005447304631578947,-0.007349709076429989
-0.005446964631578947,-0.008106720904784802
-0.005446624631578947,-0.008732078502121389
-0.005446284631578947,-0.008732078502121389
-0.005445944631578947,-0.008633337828857716
-0.005445604631578947,-0.00807380734702857
-0.005445264631578947,-0.007152227729902647
-0.005444924631578947,-0.006395215901547833
-0.005444584631578947,-0.005901512535228219
-0.005444244631578947,-0.005210327822383777
-0.005443904631578947,-0.003795044838937822
-0.005443564631578947,-0.002906378779562624
-0.005443224631578947,-0.001721490700400724
-0.005442884631578947,-0.0009315653142913533
-0.005442544631578947,-0.0002403806014423014
-0.005442204631578947,0.001602778632809544
-0.005441864631578947,0.002721839596464486
-0.005441524631578947,0.0032155429627838
-0.005441184631578947,0.003742159886855756
-0.005440844631578947,0.004202949695419555
-0.005440504631578947,0.003709246329099702
-0.005440164631578947,0.002886407385237271
-0.005439824631578947,0.002425617576673472
-0.005439484631578947,0.001931914210355594
-0.005439144631578947,0.002195222672391572
-0.005438804631578947,0.003314283636046514
-0.005438464631578947,0.003478851424820197
-0.005438124631578947,0.003972554791137656
-0.005437784631578947,0.003939641233383098
-0.005437444631578947,0.003215542962781286
-0.005437104631578947,0.002359790461164357
-0.005436764631578947,0.001833173537091444
-0.005436424631578948,0.001931914210354935
-0.005436084631578947,0.002129395556882458
-0.005435744631578947,0.003281370078291956
-0.005435404631578948,0.004992875081525813
-0.005435064631578947,0.006342330949465767
-0.005434724631578947,0.007329737682102481
-0.005434384631578948,0.007823441048419939
-0.005434044631578947,0.007263910566593366
-0.005433704631578947,0.00677020720027501
-0.005433364631578948,0.005486578447849617
-0.005433024631578947,0.004663739503983355
-0.005432684631578947,0.004005468348892213
-0.005432344631578948,0.003314283636047771
-0.005432004631578947,0.002524358249937143
-0.005431664631578947,0.002162309114637015
-0.005431324631578948,0.002162309114637015
-0.005430984631578947,0.0027876667119736
-0.005430644631578947,0.003413024309310185
-0.005430304631578948,0.005124529312544041
-0.005429964631578947,0.006737293642520453
-0.005429624631578947,0.008152576625966409
-0.005429284631578947,0.008876674896565347
-0.005428944631578947,0.01029195788001262
-0.005428604631578947,0.01068692057306731
-0.005428264631578947,0.01180598153672021
-0.005427924631578947,0.01121353749714022
-0.005427584631578947,0.01081857480408553
-0.005427244631578947,0.01019321720674895
-0.005426904631578947,0.01016030364899439
-0.005426564631578947,0.009469118936148692
-0.005426224631578947,0.009337464705130465
-0.005425884631578947,0.009008329127584893
-0.005425544631578947,0.008679193550039321
-0.005425204631578947,0.00779052749066628
-0.005424864631578947,0.007362651239857037
-0.005424524631578947,0.007099342777820581
-0.005424184631578947,0.006572725853747667
-0.005423844631578947,0.006375244507221162
-0.005423504631578947,0.006836034315784124
-0.005423164631578947,0.006836034315784124
-0.005422824631578947,0.007263910566594563
-0.005422484631578947,0.007922181721684508
-0.005422144631578947,0.008481712203511979
-0.005421804631578947,0.008350057972493332
-0.005421464631578947,0.00811966306821185
-0.005421124631578947,0.008284230856984636
-0.005420784631578947,0.008613366434531106
-0.005420444631578947,0.009107069800848565
-0.005420104631578947,0.009172896916357679
-0.005419764631578947,0.008810847781057731
-0.005419424631578947,0.008909588454321223
-0.005419084631578947,0.008284230856984636
-0.005418744631578947,0.007658873259647393
-0.005418404631578947,0.007296824124347924
-0.005418064631578947,0.007329737682102481
-0.005417724631578947,0.007790527490667777
-0.005417384631578947,0.008613366434530208
-0.005417044631578947,0.009139983358603122
-0.005416704631578947,0.01035778499552443
-0.005416364631578947,0.0118388950944768
-0.005416024631578947,0.0127604747116044
-0.005415684631578947,0.01348457298220634
-0.005415344631578947,0.01440615259933226
-0.005415004631578947,0.01476820173463239
-0.005414664631578948,0.0146365475036144
-0.005414324631578947,0.01420867125280492
-0.005413984631578947,0.01302378317364086
