Analysis/New Tests_CMB/wrd01_d2s01/cmb03_ch24.csv

#Digilent WaveForms Oscilloscope Acquisition
#Device Name: ADP3450
#Serial Number: SN:210018B9D9B0
#Date Time: 2024-08-06 10:36:57.278.371.810
#Sample rate: 2.94118e+06Hz
#Samples: 32768
#Trigger: Source: Channel 3 Type: Edge Condition: Rising Level: 20 mV Hyst.: Auto HoldOff: 0 s
#Channel 3: Range: 200 mV/div Offset: 0 V Attenuation: 1 X Coupling: DC Bandwidth: 0 Hz Sample Mode: Average

Time (s),Channel 3 (V)
-0.005570425581395349,0.03013883320601056
-0.005570085581395348,0.0292172535888808
-0.005569745581395349,0.0280323655097189
-0.005569405581395349,0.02790071127870067
-0.005569065581395348,0.02842732820277365
-0.005568725581395349,0.02846024176052814
-0.005568385581395349,0.0282627604140008
-0.005568045581395348,0.02776905704768202
-0.005567705581395349,0.02753866214340054
-0.005567365581395349,0.02770322993217333
-0.005567025581395348,0.02763740281666326
-0.005566685581395349,0.0271107858925913
-0.005566345581395349,0.02684747743055485
-0.005566005581395348,0.0269133045460633
-0.005565665581395349,0.02655125541076383
-0.005565325581395349,0.02638668762199104
-0.005564985581395348,0.02618920627546275
-0.005564645581395349,0.02566258935139079
-0.005564305581395349,0.02457644194549041
-0.005563965581395348,0.0240169114636612
-0.005563625581395349,0.02306241828878078
-0.005563285581395349,0.02191044376737128
-0.005562945581395349,0.02082429636147287
-0.005562605581395349,0.02000145741760697
-0.005562265581395349,0.01957358116679772
-0.005561925581395349,0.02016602520637867
-0.005561585581395348,0.02115343193901647
-0.005561245581395349,0.02210792511389862
-0.005560905581395349,0.02309533184653354
-0.005560565581395348,0.02223957934491685
-0.005560225581395349,0.02184461665186217
-0.005559885581395349,0.02105469126575423
-0.005559545581395348,0.02033059299515254
-0.005559205581395349,0.01950775405128861
-0.005558865581395349,0.01947484049353411
-0.005558525581395348,0.01931027270476127
-0.005558185581395349,0.01954066760904317
-0.005557845581395349,0.01996854385985163
-0.005557505581395348,0.02000145741760697
-0.005557165581395349,0.01980397607107963
-0.005556825581395349,0.01944192693578016
-0.005556485581395348,0.01907987780047937
-0.005556145581395349,0.01907987780047937
-0.005555805581395349,0.01884948289619789
-0.005555465581395348,0.01871782866517924
-0.005555125581395349,0.01884948289619747
-0.005554785581395349,0.01868491510742498
-0.005554445581395348,0.01894822356946114
-0.005554105581395349,0.01861908799191557
-0.005553765581395349,0.01763168125927886
-0.005553425581395348,0.01657844741113303
-0.005553085581395349,0.01532773221645986
-0.005552745581395349,0.01443906615708682
-0.005552405581395348,0.01427449836831403
-0.005552065581395349,0.01450489327259593
-0.005551725581395349,0.01536064577421441
-0.005551385581395348,0.0168088423154175
-0.005551045581395349,0.01822412529886088
-0.005550705581395349,0.01894822356946114
-0.005550365581395348,0.01917861847374274
-0.005550025581395349,0.01901405068497026
-0.005549685581395349,0.01776333549029708
-0.005549345581395348,0.01628222539134004
-0.005549005581395349,0.01519607798544163
-0.005548665581395349,0.0146036339458596
-0.005548325581395348,0.01447197971484179
-0.005547985581395349,0.01470237461912327
-0.005547645581395349,0.01440615259933226
-0.005547305581395348,0.01397827634852361
-0.005546965581395349,0.01430741192606859
-0.005546625581395349,0.01420867125280492
-0.005546285581395348,0.01476820173463334
-0.005545945581395349,0.0152948186587053
-0.005545605581395349,0.01592017625604189
-0.005545265581395348,0.01598600337155064
-0.005544925581395349,0.01578852202502366
-0.005544585581395349,0.01559104067849632
-0.005544245581395348,0.01582143558277678
-0.005543905581395349,0.01503151019666884
-0.005543565581395349,0.01417575769505036
-0.005543225581395348,0.01384662211750443
-0.005542885581395349,0.01364914077097745
-0.005542545581395349,0.01351748653995922
-0.005542205581395349,0.01394536279076768
-0.005541865581395349,0.01470237461912327
-0.005541525581395349,0.01542647288972353
-0.005541185581395349,0.01598600337154998
-0.005540845581395349,0.01661136096888758
-0.005540505581395349,0.0166771880843967
-0.005540165581395349,0.01615057116032474
-0.005539825581395348,0.01608474404481467
-0.005539485581395349,0.01608474404481467
-0.005539145581395349,0.01585434914053319
-0.005538805581395348,0.01536064577421441
-0.005538465581395349,0.0150644237544234
-0.005538125581395349,0.01483402885014192
-0.005537785581395348,0.01457072038810504
-0.005537445581395349,0.01457072038810504
-0.005537105581395349,0.01473528817687753
-0.005536765581395348,0.01568978135175999
-0.005536425581395349,0.01624931183358745
-0.005536085581395349,0.01631513894909645
-0.005535745581395348,0.0166771880843967
-0.005535405581395349,0.01624931183358745
-0.005535065581395349,0.01559104067849751
-0.005534725581395348,0.0146036339458596
-0.005534385581395349,0.01332000519343187
-0.005534045581395349,0.01157558663244352
-0.005533705581395348,0.01078566124633098
-0.005533365581395349,0.01081857480408553
-0.005533025581395349,0.0118388950944768
-0.005532685581395348,0.01355040009771377
-0.005532345581395349,0.01532773221645986
-0.005532005581395349,0.01628222539134202
-0.005531665581395348,0.01733545923948784
-0.005531325581395349,0.0180595575100881
-0.005530985581395349,0.01825703885661544
-0.005530645581395348,0.01789498972131531
-0.005530305581395349,0.01740128635499695
-0.005529965581395349,0.0173683727972424
-0.005529625581395348,0.01733545923948748
-0.005529285581395349,0.0171379778929605
-0.005528945581395349,0.01710506433520594
-0.005528605581395348,0.01628222539133992
-0.005528265581395349,0.01513025086993251
-0.005527925581395349,0.01384662211750479
-0.005527585581395348,0.01305669673139524
-0.005527245581395349,0.01295795605813175
-0.005526905581395349,0.01332000519343187
-0.005526565581395348,0.0138466221175061
-0.005526225581395349,0.01457072038810504
-0.005525885581395349,0.0150644237544234
-0.005525545581395348,0.01542647288972245
-0.005525205581395349,0.0148340288501415
-0.005524865581395349,0.01378079500199567
-0.005524525581395348,0.01249716624956777
-0.005524185581395349,0.01239842557630427
-0.005523845581395349,0.01256299336507706
-0.005523505581395348,0.01322126452017102
-0.005523165581395349,0.01476820173463239
-0.005522825581395349,0.01631513894909657
-0.005522485581395348,0.01707215077745246
-0.005522145581395349,0.01766459481703341
-0.005521805581395349,0.01763168125927886
-0.005521465581395348,0.01700632366194131
-0.005521125581395349,0.01647970673786936
-0.005520785581395349,0.01608474404481467
-0.005520445581395349,0.01592017625604219
-0.005520105581395349,0.01654553385337847
-0.005519765581395349,0.01664427452664214
-0.005519425581395349,0.01680884231541463
-0.005519085581395348,0.01726963212397873
-0.005518745581395349,0.01717089145071506
-0.005518405581395349,0.01743419991275104
-0.005518065581395348,0.01723671856622417
-0.005517725581395349,0.01684175587316948
-0.005517385581395349,0.01628222539134303
-0.005517045581395348,0.01572269490951454
-0.005516705581395349,0.01486694240789606
-0.005516365581395349,0.0144390661570876
-0.005516025581395348,0.0143732390415777
-0.005515685581395349,0.01434032548382314
-0.005515345581395349,0.01394536279076918
-0.005515005581395348,0.01358331365546833
-0.005514665581395349,0.01305669673139542
-0.005514325581395349,0.01308961028914991
-0.005513985581395348,0.01338583230894099
-0.005513645581395349,0.01355040009771377
-0.005513305581395349,0.01394536279076774
-0.005512965581395348,0.01457072038810504
-0.005512625581395349,0.01443906615708682
-0.005512285581395349,0.01401118990627757
-0.005511945581395348,0.01358331365546833
-0.005511605581395349,0.01338583230894099
-0.005511265581395349,0.01289212894262263
-0.005510925581395348,0.01289212894262263
-0.005510585581395349,0.0127604747116044
-0.005510245581395349,0.01289212894262263
-0.005509905581395348,0.01332000519343187
-0.005509565581395349,0.01427449836831403
-0.005509225581395349,0.0155252135629872
-0.005508885581395348,0.0161834847180793
-0.005508545581395349,0.01671010164215126
-0.005508205581395349,0.0169075829886786
-0.005507865581395348,0.01726963212397831
-0.005507525581395349,0.01703923721969683
-0.005507185581395349,0.01661136096888758
-0.005506845581395348,0.01644679318011396
-0.005506505581395349,0.015986003371551
-0.005506165581395349,0.01545938644747809
-0.005505825581395348,0.01516316442768575
-0.005505485581395349,0.01443906615708682
-0.005505145581395349,0.01341874586669555
-0.005504805581395348,0.01338583230894051
-0.005504465581395349,0.01312252384690453
-0.005504125581395349,0.01361622721322289
-0.005503785581395348,0.01410993057954382
-0.005503445581395349,0.0155252135629872
-0.005503105581395349,0.01657844741113303
-0.005502765581395348,0.01736837279724335
-0.005502425581395349,0.01789498972131531
-0.005502085581395349,0.0180595575100881
-0.005501745581395348,0.0178620761635604
-0.005501405581395349,0.01766459481703341
-0.005501065581395349,0.01700632366194227
-0.005500725581395348,0.01631513894909567
-0.005500385581395349,0.01582143558277821
-0.005500045581395349,0.01559104067849632
-0.005499705581395349,0.01539355933196933
-0.005499365581395349,0.0157556084672691
-0.005499025581395349,0.01572269490951454
-0.005498685581395349,0.01539355933196957
-0.005498345581395348,0.0148340288501415
-0.005498005581395349,0.01457072038810504
-0.005497665581395349,0.01397827634852409
-0.005497325581395348,0.01355040009771377
-0.005496985581395349,0.01384662211750479
-0.005496645581395349,0.01397827634852278
-0.005496305581395348,0.01450489327259593
-0.005495965581395349,0.01519607798544163
-0.005495625581395349,0.01522899154319613
-0.005495285581395348,0.01503151019666884
-0.005494945581395349,0.01509733731217796
-0.005494605581395349,0.01582143558277689
-0.005494265581395348,0.01631513894909657
-0.005493925581395349,0.01710506433520594
-0.005493585581395349,0.01703923721969695
-0.005493245581395348,0.0164467931801148
-0.005492905581395349,0.0157556084672691
-0.005492565581395349,0.01503151019667016
-0.005492225581395348,0.01430741192606859
-0.005491885581395349,0.0139124492330139
-0.005491545581395349,0.01384662211750491
-0.005491205581395348,0.01358331365546833
-0.005490865581395349,0.013682054328732
-0.005490525581395349,0.01404410346403213
-0.005490185581395348,0.01447197971484137
-0.005489845581395349,0.01457072038810504
-0.005489505581395349,0.01397827634852302
-0.005489165581395348,0.01355040009771377
-0.005488825581395349,0.01305669673139542
-0.005488485581395349,0.01282630182711352
-0.005488145581395348,0.01259590692283096
-0.005487805581395349,0.01223385778753149
-0.005487465581395349,0.01164141374794946
-0.005487125581395348,0.01121353749714231
-0.005486785581395349,0.01236551201854972
-0.005486445581395349,0.01348457298220466
-0.005486105581395348,0.01450489327259808
-0.005485765581395349,0.01568978135175999
-0.005485425581395349,0.01674301519990581
-0.005485085581395348,0.01730254568173304
-0.005484745581395349,0.01717089145071506
-0.005484405581395349,0.01657844741113303
-0.005484065581395348,0.01595308981379554
-0.005483725581395349,0.01545938644747809
-0.005483385581395349,0.01509733731217796
-0.005483045581395348,0.01489985596565109
-0.005482705581395349,0.01516316442768707
-0.005482365581395349,0.01592017625604189
-0.005482025581395348,0.016380966064607
-0.005481685581395349,0.01710506433520594
-0.005481345581395349,0.0185203473186519
-0.005481005581395348,0.01927735914700731
-0.005480665581395349,0.01960649472455228
-0.005480325581395349,0.0194419269357795
-0.005479985581395348,0.01911279135823171
-0.005479645581395349,0.01789498972131531
-0.005479305581395349,0.01631513894909657
-0.005478965581395349,0.01529481865870716
-0.005478625581395349,0.01384662211750479
-0.005478285581395349,0.01305669673139542
-0.005477945581395349,0.01150975951693405
-0.005477605581395349,0.00677020720027501
-0.005477265581395349,-0.00438748887851985
-0.005476925581395349,-0.02324695747184677
-0.005476585581395348,-0.04921575454022663
-0.005476245581395349,-0.08097733777337424
-0.005475905581395349,-0.1161619310129318
-0.005475565581395348,-0.1496350192493804
-0.005475225581395349,-0.1795534432482728
-0.005474885581395349,-0.2042056980063912
-0.005474545581395348,-0.2219790191938969
-0.005474205581395349,-0.2331696288304463
-0.005473865581395349,-0.2383370573979024
-0.005473525581395348,-0.2389953285530029
-0.005473185581395349,-0.2368230337412021
-0.005472845581395349,-0.2324784441176085
-0.005472505581395348,-0.2265210901640258
-0.005472165581395349,-0.2200042057286235
-0.005471825581395349,-0.2127961365803886
-0.005471485581395348,-0.2051601911813182
-0.005471145581395349,-0.1975900728977701
-0.005470805581395349,-0.1909744477891162
-0.005470465581395348,-0.1840626006606471
-0.005470125581395349,-0.1774798891097357
-0.005469785581395349,-0.1713579673673881
-0.005469445581395348,-0.1659930574533953
-0.005469105581395349,-0.1600027899420658
-0.005468765581395349,-0.1540125224307365
-0.005468425581395348,-0.1478247735728797
-0.005468085581395349,-0.141044580675441
-0.005467745581395349,-0.1340010793159657
-0.005467405581395348,-0.1267271830522086
-0.005467065581395349,-0.1202102986168063
-0.005466725581395349,-0.1144833395675134
-0.005466385581395348,-0.1094146516733034
-0.005466045581395349,-0.1049384078186918
-0.005465705581395349,-0.1005279910795812
-0.005465365581395348,-0.0966771048222918
-0.005465025581395349,-0.09328700837357859
-0.005464685581395349,-0.08966651702057732
-0.005464345581395348,-0.08673721038041723
-0.005464005581395349,-0.08426869354882996
-0.005463665581395349,-0.08150395469744715
-0.005463325581395348,-0.07880504296156707
-0.005462985581395349,-0.07528329228183586
-0.005462645581395349,-0.0717944551598528
-0.005462305581395348,-0.06863475361540862
-0.005461965581395349,-0.06494843514690493
-0.005461625581395349,-0.06129503023614909
-0.005461285581395348,-0.0572466626323315
-0.005460945581395349,-0.05336286281730083
-0.005460605581395349,-0.04941323588675398
-0.005460265581395348,-0.04608896655353933
-0.005459925581395349,-0.04368627683746103
-0.005459585581395349,-0.04190894471871495
-0.005459245581395348,-0.04039492106200383
-0.005458905581395349,-0.03957208211814139
-0.005458565581395349,-0.03891381096305026
-0.005458225581395348,-0.03802514490367571
-0.005457885581395349,-0.03720230595981328
-0.005457545581395349,-0.03618198566942202
-0.005457205581395349,-0.03473378912822414
-0.005456865581395349,-0.03348307393354833
-0.005456525581395349,-0.03144243335276579
-0.005456185581395349,-0.02917139786770548
-0.005455845581395348,-0.02686744882488236
-0.005455505581395349,-0.02393814218472677
-0.005455165581395349,-0.02153545246864847
-0.005454825581395348,-0.01982394746540713
-0.005454485581395349,-0.01798078823115194
-0.005454145581395349,-0.0172237764027985
-0.005453805581395348,-0.01597306120812395
-0.005453465581395349,-0.01491982735997812
-0.005453125581395349,-0.01376785283857072
-0.005452785581395348,-0.01212217495084077
-0.005452445581395349,-0.01100311398718583
-0.005452105581395349,-0.01143099023799429
-0.005451765581395348,-0.01152973091125874
-0.005451425581395349,-0.01146390379574963
-0.005451085581395349,-0.01090437331392318
-0.005450745581395348,-0.01047649706311291
-0.005450405581395349,-0.009916966581285444
-0.005450065581395349,-0.008666251386614549
-0.005449725581395348,-0.007152227729902647
-0.005449385581395349,-0.005736944746456691
-0.005449045581395349,-0.003860871954450349
-0.005448705581395348,-0.002313934739982752
-0.005448365581395349,-0.001063219545309582
-0.005448025581395349,-9.985697163754359e-06
-0.005447685581395348,0.0009774210354729588
-0.005447345581395349,0.001339470170773087
-0.005447005581395349,0.001405297286282201
-0.005446665581395348,0.00130655661301853
-0.005446325581395349,0.001207815939754859
-0.005445985581395349,0.001997741325864229
-0.005445645581395348,0.002326876903412195
-0.005445305581395349,0.003643419213592085
-0.005444965581395349,0.004927047966019811
-0.005444625581395348,0.005980281814167316
-0.005444285581395349,0.006901861431293239
-0.005443945581395349,0.007494305470875266
-0.005443605581395348,0.00802092239494794
-0.005443265581395349,0.007889268163929951
-0.005442925581395349,0.008086749510457293
-0.005442585581395348,0.008843761338811628
-0.005442245581395349,0.008580452876775651
-0.005441905581395349,0.008843761338812107
-0.005441565581395348,0.00851462576126504
-0.005441225581395349,0.007691786817402609
-0.005440885581395349,0.006572725853747667
-0.005440545581395348,0.006144849602936928
-0.005440205581395349,0.005322010659074497
-0.005439865581395349,0.005124529312547154
-0.005439525581395348,0.005552405563357954
-0.005439185581395349,0.006408158064974882
-0.005438845581395349,0.006737293642520453
-0.005438505581395348,0.007099342777821359
-0.005438165581395349,0.007527219028629823
-0.005437825581395349,0.008547539319021094
-0.005437485581395348,0.009666600282677651
-0.005437145581395349,0.01055526634204908
-0.005436805581395349,0.01081857480408553
-0.005436465581395349,0.0112135374971395
-0.005436125581395349,0.01157558663244035
-0.005435785581395349,0.01157558663244035
-0.005435445581395349,0.01223385778753029
-0.005435105581395349,0.01269464759609529
-0.005434765581395349,0.0125300798073225
-0.005434425581395349,0.01272756115384949
-0.005434085581395348,0.01262882048058617
-0.005433745581395349,0.01285921538486808
-0.005433405581395349,0.01312252384690405
-0.005433065581395348,0.01305669673139542
-0.005432725581395349,0.01233259846079516
-0.005432385581395349,0.0119047222099867
-0.005432045581395348,0.01104896970836743
-0.005431705581395349,0.01071983413082186
-0.005431365581395349,0.01058817989980387
-0.005431025581395348,0.01048943922653996
-0.005430685581395349,0.01052235278429452
-0.005430345581395349,0.01127936461264796
-0.005430005581395348,0.01243133913405883
-0.005429665581395349,0.01289212894262263
-0.005429325581395349,0.01371496788648506
-0.005428985581395348,0.01407701702178669
-0.005428645581395349,0.01443906615708682
-0.005428305581395349,0.01483402885014078
-0.005427965581395348,0.0152948186587053
-0.005427625581395349,0.01519607798544163
-0.005427285581395349,0.0155252135629872
-0.005426945581395348,0.01559104067849632
-0.005426605581395349,0.015986003371551
-0.005426265581395349,0.01615057116032378
-0.005425925581395348,0.01634805250685113
-0.005425585581395349,0.01611765760256923
-0.005425245581395349,0.01595308981379644
-0.005424905581395348,0.01565686779400543
-0.005424565581395349,0.01549230000523264
-0.005424225581395349,0.01519607798544163
-0.005423885581395348,0.01466946106136704
-0.005423545581395349,0.01374788144424112
-0.005423205581395349,0.01305669673139542
-0.005422865581395348,0.01256299336507796
-0.005422525581395349,0.01305669673139542
-0.005422185581395349,0.01364914077097745
-0.005421845581395348,0.01447197971484305
-0.005421505581395349,0.01539355933196897
-0.005421165581395349,0.01631513894909657
-0.005420825581395348,0.01700632366194281
-0.005420485581395349,0.01730254568173328
-0.005420145581395349,0.01700632366194227
-0.005419805581395348,0.01700632366194065
-0.005419465581395349,0.01611765760256923
-0.005419125581395349,0.01532773221645986
-0.005418785581395348,0.01473528817687861
-0.005418445581395349,0.01516316442768707
-0.005418105581395349,0.01499859663891429
-0.005417765581395348,0.01513025086993258
-0.005417425581395349,0.01516316442768707
-0.005417085581395349,0.01578852202502366
-0.005416745581395348,0.01601891692930609
-0.005416405581395349,0.01631513894909657
-0.005416065581395349,0.01680884231541493
-0.005415725581395348,0.01769750837478791
-0.005415385581395349,0.01766459481703341
-0.005415045581395349,0.01842160664538823
-0.005414705581395349,0.01852034731865172
-0.005414365581395349,0.01845452020314278
-0.005414025581395349,0.0180595575100881
-0.005413685581395349,0.01720380500847117
-0.005413345581395348,0.01661136096888758
-0.005413005581395349,0.01664427452664214
-0.005412665581395349,0.01641387962236066
