Analysis/New Tests_CMB/wrd01_d2s01/cmb07_ch40.csv

#Digilent WaveForms Oscilloscope Acquisition
#Device Name: ADP3450
#Serial Number: SN:210018B9D9B0
#Date Time: 2024-08-07 10:38:53.080.042.580
#Sample rate: 2.94118e+06Hz
#Samples: 32768
#Trigger: Source: Channel 3 Type: Edge Condition: Rising Level: 0 V Hyst.: Auto HoldOff: 0 s
#Channel 3: Range: 200 mV/div Offset: 0 V Attenuation: 1 X Coupling: DC Bandwidth: 0 Hz Sample Mode: Average

Time (s),Channel 3 (V)
-0.005570324615384615,0.01071983413082186
-0.005569984615384615,0.01078566124633086
-0.005569644615384615,0.01071983413082186
-0.005569304615384615,0.01039069855327629
-0.005568964615384615,0.009995735860221787
-0.005568624615384615,0.01009447653348528
-0.005568284615384615,0.009469118936148692
-0.005567944615384615,0.00904124268533975
-0.005567604615384615,0.009205810474112236
-0.005567264615384615,0.009534946051657807
-0.005566924615384615,0.009633686724923632
-0.005566584615384615,0.01081857480408553
-0.005566244615384615,0.01170724086345858
-0.005565904615384615,0.01262882048058779
-0.005565564615384615,0.01351748653995922
-0.005565224615384615,0.01387953567525935
-0.005564884615384615,0.01443906615708688
-0.005564544615384615,0.01447197971484137
-0.005564204615384615,0.01341874586669555
-0.005563864615384615,0.01236551201854918
-0.005563524615384615,0.0120692899987587
-0.005563184615384615,0.0118388950944768
-0.005562844615384616,0.01167432730570432
-0.005562504615384615,0.01167432730570402
-0.005562164615384615,0.011378105285913
-0.005561824615384616,0.01183889509447597
-0.005561484615384615,0.01144393240142212
-0.005561144615384615,0.01121353749714022
-0.005560804615384616,0.01048943922654128
-0.005560464615384615,0.009139983358603122
-0.005560124615384615,0.008613366434530208
-0.005559784615384616,0.008218403741476241
-0.005559444615384615,0.008909588454321223
-0.005559104615384615,0.009436205378394135
-0.005558764615384616,0.009995735860220588
-0.005558424615384615,0.01032487143776718
-0.005558084615384615,0.01042361211103085
-0.005557744615384616,0.01052235278429434
-0.005557404615384615,0.01025904432225806
-0.005557064615384615,0.01032487143776718
-0.005556724615384616,0.01025904432225818
-0.005556384615384615,0.01052235278429452
-0.005556044615384615,0.011378105285913
-0.005555704615384616,0.01361622721321882
-0.005555364615384615,0.01937609982027038
-0.005555024615384615,0.03132372128517461
-0.005554684615384615,0.05080854747583698
-0.005554344615384615,0.0773697885838
-0.005554004615384615,0.1080781379688018
-0.005553664615384615,0.1423082380335412
-0.005553324615384615,0.1762750296362441
-0.005552984615384615,0.2071479468100187
-0.005552644615384615,0.2325242998387822
-0.005552304615384615,0.2523382616070256
-0.005551964615384615,0.2649441542270209
-0.005551624615384615,0.2725800996260782
-0.005551284615384615,0.2746207402068579
-0.005550944615384615,0.2731067165501511
-0.005550604615384615,0.2685975591377768
-0.005550264615384615,0.2621465018178702
-0.005549924615384615,0.2548067784386174
-0.005549584615384615,0.2468416974620145
-0.005549244615384615,0.2390740978319241
-0.005548904615384615,0.2308457083932998
-0.005548564615384615,0.2226831460701696
-0.005548224615384615,0.2153105091331357
-0.005547884615384615,0.2081024399849008
-0.005547544615384615,0.2010260250676711
-0.005547204615384615,0.1936533881306368
-0.005546864615384615,0.1862807511936295
-0.005546524615384615,0.178809373583345
-0.005546184615384615,0.1719304400126312
-0.005545844615384615,0.1657097775970313
-0.005545504615384615,0.160674003260584
-0.005545164615384615,0.1564939814257481
-0.005544824615384615,0.1525114409374539
-0.005544484615384615,0.1477718886207977
-0.005544144615384615,0.1440526565945244
-0.005543804615384615,0.1395105856244038
-0.005543464615384615,0.1347052061922385
-0.005543124615384615,0.1298339996445555
-0.005542784615384615,0.1251273608856624
-0.005542444615384615,0.1198282780871787
-0.005542104615384616,0.1143646274999321
-0.005541764615384615,0.1098554700875479
-0.005541424615384615,0.1055437940217009
-0.005541084615384616,0.1014295993023887
-0.005540744615384615,0.09751288592958895
-0.005540404615384615,0.09366199967230576
-0.005540064615384616,0.08994276764604758
-0.005539724615384615,0.08721094235241258
-0.005539384615384615,0.08332714253737483
-0.005539044615384616,0.07983830541539812
-0.005538704615384615,0.07717230723727267
-0.005538364615384615,0.07503292598322645
-0.005538024615384616,0.07312393963346561
-0.005537684615384615,0.07180739732327984
-0.005537344615384615,0.07029337366657024
-0.005537004615384616,0.06904265847189933
-0.005536664615384615,0.06733115346866009
-0.005536324615384615,0.06522468577236842
-0.005535984615384616,0.06377648923117055
-0.005535644615384615,0.06265742826751297
-0.005535304615384615,0.06025473855143031
-0.005534964615384616,0.05860906066370544
-0.005534624615384615,0.05597597604333789
-0.005534284615384615,0.0541986439245918
-0.005533944615384616,0.05248713892135794
-0.005533604615384615,0.05051232545608141
-0.005533264615384615,0.04922869670365368
-0.005532924615384615,0.04794506795122595
-0.005532584615384615,0.04708931544960747
-0.005532244615384615,0.04577277313942518
-0.005531904615384615,0.0439954410206791
-0.005531564615384615,0.04221810890193301
-0.005531224615384615,0.0407699123607325
-0.005530884615384615,0.0386963582221954
-0.005530544615384615,0.03695193966120388
-0.005530204615384615,0.03520752110021235
-0.005529864615384615,0.03431885504083931
-0.005529524615384615,0.03428594148308416
-0.005529184615384615,0.03395680590553918
-0.005528844615384615,0.03326562119269348
-0.005528504615384615,0.03326562119269264
-0.005528164615384615,0.03280483138412968
-0.005527824615384615,0.03244278224882955
-0.005527484615384615,0.0319819924402651
-0.005527144615384615,0.03161994330496563
-0.005526804615384615,0.03175159753598385
-0.005526464615384615,0.03092875859211897
-0.005526124615384615,0.03040214166804701
-0.005525784615384615,0.03046796878355613
-0.005525444615384615,0.02915142647337246
-0.005525104615384615,0.02839441464501903
-0.005524764615384615,0.02750574858564599
-0.005524424615384615,0.02595881137117851
-0.005524084615384615,0.02414856569468116
-0.005523744615384615,0.02263454203797154
-0.005523404615384615,0.02220666578716116
-0.005523064615384615,0.02158130818982571
-0.005522724615384615,0.02098886415024368
-0.005522384615384615,0.02115343193901593
-0.005522044615384615,0.02085720991922545
-0.005521704615384615,0.01993563030209785
-0.005521364615384615,0.01986980318658778
-0.005521024615384615,0.01934318626251582
-0.005520684615384615,0.01858617443416101
-0.005520344615384616,0.01838869308763403
-0.005520004615384615,0.01720380500846961
-0.005519664615384615,0.0162163982758329
-0.005519324615384616,0.01582143558277893
-0.005518984615384615,0.01549230000523264
-0.005518644615384615,0.01496568308115973
-0.005518304615384616,0.0152948186587047
-0.005517964615384615,0.01605183048706011
-0.005517624615384615,0.0164467931801148
-0.005517284615384616,0.01690758298867776
-0.005516944615384615,0.01677592875766037
-0.005516604615384615,0.01684175587316948
-0.005516264615384616,0.01641387962236102
-0.005515924615384615,0.01628222539134202
-0.005515584615384615,0.01628222539134202
-0.005515244615384616,0.01661136096888698
-0.005514904615384615,0.01684175587316948
-0.005514564615384615,0.01608474404481467
-0.005514224615384616,0.01532773221646123
-0.005513884615384615,0.01466946106136872
-0.005513544615384615,0.01364914077097745
-0.005513204615384616,0.01322126452016898
-0.005512864615384615,0.01332000519343187
-0.005512524615384615,0.01305669673139542
-0.005512184615384615,0.01328709163567732
-0.005511844615384615,0.01289212894262263
-0.005511504615384615,0.0129908696158863
-0.005511164615384615,0.01279338826935896
-0.005510824615384615,0.01190472220998592
-0.005510484615384615,0.01121353749714022
-0.005510144615384615,0.01098314259285832
-0.005509804615384615,0.01068692057306731
-0.005509464615384615,0.01052235278429452
-0.005509124615384615,0.01025904432225806
-0.005508784615384615,0.01058817989980549
-0.005508444615384615,0.0116085001901949
-0.005508104615384615,0.01200346288324959
-0.005507764615384615,0.01239842557630409
-0.005507424615384615,0.0122996849030406
-0.005507084615384615,0.0120692899987587
-0.005506744615384615,0.01220094422977669
-0.005506404615384615,0.0120692899987587
-0.005506064615384615,0.01236551201854972
-0.005505724615384615,0.01243133913405781
-0.005505384615384615,0.01187180865223136
-0.005505044615384615,0.011378105285913
-0.005504704615384615,0.01141101884366756
-0.005504364615384615,0.01141101884366756
-0.005504024615384615,0.01164141374794946
-0.005503684615384615,0.01141101884366786
-0.005503344615384615,0.01157558663244035
-0.005503004615384615,0.01157558663244035
-0.005502664615384615,0.01137810528591145
-0.005502324615384615,0.01052235278429452
-0.005501984615384615,0.01012739009123984
-0.005501644615384615,0.009798254513693724
-0.005501304615384615,0.00950203249390325
-0.005500964615384615,0.009534946051657807
-0.005500624615384615,0.009271637589622008
-0.005500284615384615,0.009633686724921478
-0.005499944615384615,0.01019321720674895
-0.005499604615384616,0.01065400701531191
-0.005499264615384615,0.01108188326612199
-0.005498924615384615,0.01150975951693123
-0.005498584615384616,0.01167432730570372
-0.005498244615384615,0.0116085001901949
-0.005497904615384615,0.01180598153672225
-0.005497564615384616,0.01108188326612331
-0.005497224615384615,0.01157558663244035
-0.005496884615384615,0.01062109345755819
-0.005496544615384616,0.01075274768857618
-0.005496204615384615,0.01078566124633098
-0.005495864615384615,0.01085148836184009
-0.005495524615384616,0.01114771038163057
-0.005495184615384615,0.01170724086345858
-0.005494844615384615,0.01243133913405883
-0.005494504615384616,0.01262882048058581
-0.005494164615384615,0.01266173403834073
-0.005493824615384615,0.01210220355651326
-0.005493484615384616,0.0116743273057048
-0.005493144615384615,0.01009447653348528
-0.005492804615384615,0.009798254513694264
-0.005492464615384616,0.008975415569831833
-0.005492124615384615,0.009107069800848565
-0.005491784615384615,0.008646279992284765
-0.005491444615384616,0.008481712203512279
-0.005491104615384615,0.008514625761266537
-0.005490764615384615,0.008580452876775651
-0.005490424615384615,0.008843761338812107
-0.005490084615384615,0.009008329127584893
-0.005489744615384615,0.009337464705130465
-0.005489404615384615,0.009534946051657807
-0.005489064615384615,0.009962822302467049
-0.005488724615384615,0.009436205378394135
-0.005488384615384615,0.008580452876775651
-0.005488044615384615,0.008086749510457892
-0.005487704615384615,0.008415885088002865
-0.005487364615384615,0.007494305470875266
-0.005487024615384615,0.007428478355367469
-0.005486684615384615,0.008152576625966409
-0.005486344615384615,0.008777934223302994
-0.005486004615384615,0.009205810474112834
-0.005485664615384615,0.009534946051657807
-0.005485324615384615,0.01006156297573072
-0.005484984615384615,0.01039069855327653
-0.005484644615384615,0.01052235278429452
-0.005484304615384615,0.01029195788001262
-0.005483964615384615,0.01025904432225728
-0.005483624615384615,0.00983116807144882
-0.005483284615384615,0.009304551147375908
-0.005482944615384615,0.009074156243092331
-0.005482604615384615,0.008152576625966409
-0.005482264615384615,0.00756013258638438
-0.005481924615384615,0.007494305470875925
-0.005481584615384615,0.007856354606175394
-0.005481244615384615,0.008580452876775651
-0.005480904615384615,0.008942502012076917
-0.005480564615384615,0.009567859609412364
-0.005480224615384615,0.009995735860221606
-0.005479884615384615,0.009304551147375549
-0.005479544615384615,0.009107069800848565
-0.005479204615384615,0.009469118936148692
-0.005478864615384616,0.009962822302466151
-0.005478524615384615,0.009864081629203377
-0.005478184615384615,0.009238724031866792
-0.005477844615384616,0.009238724031866792
-0.005477504615384615,0.009074156243094007
-0.005477164615384615,0.00950203249390325
-0.005476824615384616,0.009929908744711714
-0.005476484615384615,0.01029195788001262
-0.005476144615384615,0.01039069855327629
-0.005475804615384616,0.01075274768857576
-0.005475464615384615,0.01071983413082186
-0.005475124615384615,0.01012739009123984
-0.005474784615384616,0.009534946051658885
-0.005474444615384615,0.008909588454321223
-0.005474104615384615,0.00756013258638438
-0.005473764615384616,0.006441071622731474
-0.005473424615384615,0.005322010659074497
-0.005473084615384615,0.004959961523774369
-0.005472744615384616,0.004564998830720402
-0.005472404615384615,0.004729566619492469
-0.005472064615384615,0.005420751332338168
-0.005471724615384616,0.006013195371919118
-0.005471384615384615,0.005980281814165639
-0.005471044615384615,0.006408158064974882
-0.005470704615384616,0.006473985180483876
-0.005470364615384615,0.006671466527011338
-0.005470024615384615,0.006572725853747667
-0.005469684615384615,0.007230997008838809
-0.005469344615384615,0.008185490183720966
-0.005469004615384615,0.008876674896566664
-0.005468664615384615,0.009995735860221606
-0.005468324615384615,0.01016030364899439
-0.005467984615384615,0.01114771038163111
-0.005467644615384615,0.01104896970836743
-0.005467304615384615,0.011378105285913
-0.005466964615384615,0.01127936461264933
-0.005466624615384615,0.01052235278429452
-0.005466284615384615,0.0105552663420483
-0.005465944615384615,0.01012739009123984
-0.005465604615384615,0.009699513840430593
-0.005465264615384615,0.008843761338811328
-0.005464924615384615,0.008415885088002865
-0.005464584615384615,0.00871210710779388
-0.005464244615384615,0.008415885088003764
-0.005463904615384615,0.008909588454321223
-0.005463564615384615,0.00973242739818515
-0.005463224615384615,0.01006156297573156
-0.005462884615384615,0.01052235278429452
-0.005462544615384615,0.01016030364899439
-0.005462204615384615,0.01006156297572946
-0.005461864615384615,0.009370378262885021
-0.005461524615384615,0.008876674896566664
-0.005461184615384615,0.008514625761266657
-0.005460844615384615,0.008580452876775651
-0.005460504615384615,0.009107069800848565
-0.005460164615384615,0.009403291820640656
-0.005459824615384615,0.009995735860221606
-0.005459484615384615,0.01032487143776718
-0.005459144615384615,0.01006156297573144
-0.005458804615384615,0.01045652566878541
-0.005458464615384615,0.01114771038163111
-0.005458124615384615,0.01134519172815767
-0.005457784615384615,0.01091731547734921
-0.005457444615384615,0.01012739009123984
-0.005457104615384616,0.009699513840431372
-0.005456764615384615,0.009567859609412364
-0.005456424615384615,0.009370378262885021
-0.005456084615384616,0.00927163758962153
-0.005455744615384615,0.009864081629203377
-0.005455404615384615,0.01055526634204908
-0.005455064615384616,0.01068692057306707
-0.005454724615384615,0.01062109345755819
-0.005454384615384615,0.01048943922653996
-0.005454044615384616,0.01016030364899499
-0.005453704615384615,0.01029195788001262
-0.005453364615384615,0.01025904432225806
-0.005453024615384616,0.01065400701531203
-0.005452684615384615,0.01127936461264933
-0.005452344615384615,0.01193763576774048
-0.005452004615384616,0.01243133913405793
-0.005451664615384615,0.01180598153672225
-0.005451324615384615,0.01157558663244035
-0.005450984615384616,0.0109173154773504
-0.005450644615384615,0.01055526634204908
-0.005450304615384615,0.009238724031866792
-0.005449964615384616,0.009271637589621289
-0.005449624615384615,0.01055526634204908
-0.005449284615384615,0.01071983413082186
-0.005448944615384615,0.01075274768857636
-0.005448604615384615,0.01058817989980363
-0.005448264615384615,0.01009447653348528
-0.005447924615384615,0.009896995186957936
-0.005447584615384615,0.00904124268533945
-0.005447244615384615,0.008481712203511979
-0.005446904615384615,0.007823441048420837
-0.005446564615384615,0.007132256335575138
-0.005446224615384615,0.00677020720027501
-0.005445884615384615,0.006737293642520453
-0.005445544615384615,0.007165169893331252
-0.005445204615384615,0.00802092239494818
-0.005444864615384615,0.00871210710779388
-0.005444524615384615,0.008909588454321523
-0.005444184615384615,0.009074156243094007
-0.005443844615384615,0.009172896916357679
-0.005443504615384615,0.009502032493904149
-0.005443164615384615,0.009995735860221606
-0.005442824615384615,0.01016030364899439
-0.005442484615384615,0.01101605615061485
-0.005442144615384615,0.01210220355651326
-0.005441804615384615,0.01272756115384985
-0.005441464615384615,0.01262882048058528
-0.005441124615384615,0.01213511711426782
-0.005440784615384615,0.01236551201854972
-0.005440444615384615,0.01226677134528467
-0.005440104615384615,0.01150975951693123
-0.005439764615384615,0.01150975951693123
-0.005439424615384615,0.01203637644100349
-0.005439084615384615,0.01167432730570402
-0.005438744615384615,0.01098314259285832
-0.005438404615384615,0.01025904432225776
-0.005438064615384615,0.01009447653348528
-0.005437724615384615,0.009436205378394135
-0.005437384615384615,0.008942502012076138
-0.005437044615384615,0.009139983358603122
-0.005436704615384615,0.009337464705130465
-0.005436364615384616,0.009238724031866973
-0.005436024615384615,0.009139983358603122
-0.005435684615384615,0.008777934223302994
-0.005435344615384616,0.008909588454320983
-0.005435004615384615,0.00904124268533945
-0.005434664615384615,0.009238724031866792
-0.005434324615384616,0.008975415569830815
-0.005433984615384615,0.009074156243094007
-0.005433644615384615,0.00811966306821185
-0.005433304615384616,0.003939641233390702
-0.005432964615384615,-0.00586859897747492
-0.005432624615384615,-0.02304947612535373
-0.005432284615384616,-0.04747133597919068
-0.005431944615384615,-0.07854173449953702
-0.005431604615384615,-0.1124426989867308
-0.005431264615384616,-0.1459157872230545
-0.005430924615384615,-0.1761304332417988
-0.005430584615384615,-0.2004535524224166
-0.005430244615384616,-0.218885144764935
-0.005429904615384615,-0.2314252102694548
-0.005429564615384615,-0.2386003658599482
-0.005429224615384616,-0.240838487787254
-0.005428884615384615,-0.2396535997080941
-0.005428544615384615,-0.2359343676818291
-0.005428204615384616,-0.230832766229882
-0.005427864615384615,-0.2251387207383344
-0.005427524615384615,-0.2184572685141593
-0.005427184615384615,-0.2121378654252843
-0.005426844615384615,-0.2054893267588638
-0.005426504615384615,-0.198412911841634
-0.005426164615384615,-0.1908757071158404
-0.005425824615384615,-0.1835030701788196
-0.005425484615384615,-0.1762291739150625
-0.005425144615384615,-0.1695477216908874
-0.005424804615384615,-0.1634587135062943
-0.005424464615384615,-0.1576001002259832
-0.005424124615384615,-0.1519718818499539
-0.005423784615384615,-0.1465411448204416
-0.005423444615384615,-0.1408141857711591
-0.005423104615384615,-0.1351530538373752
-0.005422764615384615,-0.1294590083458269
-0.005422424615384615,-0.1239624442008258
-0.005422084615384615,-0.1190254105376423
-0.005421744615384615,-0.1144504260097512
-0.005421404615384615,-0.1102374906171755
-0.005421064615384615,-0.1053004569539919
-0.005420724615384615,-0.1006267317528356
-0.005420384615384615,-0.09555804385864303
-0.005420044615384615,-0.09068683731096858
-0.005419704615384615,-0.08663846970715171
-0.005419364615384615,-0.08314963258517502
-0.005419024615384615,-0.08028615306052853
-0.005418684615384615,-0.07778472267117831
-0.005418344615384615,-0.075645341417136
-0.005418004615384615,-0.0731768245855442
-0.005417664615384615,-0.07126783823577505
-0.005417324615384615,-0.06860184005766076
-0.005416984615384615,-0.06610040966831443
-0.005416644615384615,-0.06366480639447318
-0.005416304615384615,-0.06145959802492187
-0.005415964615384615,-0.05899108119333009
-0.005415624615384615,-0.05645673724622387
-0.005415284615384615,-0.05352743060607361
-0.005414944615384615,-0.05079560531244537
-0.005414604615384616,-0.04796503934555861
-0.005414264615384615,-0.04490407847437965
-0.005413924615384615,-0.04289635145135166
-0.005413584615384616,-0.04078988375506384
-0.005413244615384615,-0.0393416872138595
-0.005412904615384615,-0.03782766355714987
