Analysis/New Tests_CMB/wrd01_d2s01/cmb01_ch26.csv

#Digilent WaveForms Oscilloscope Acquisition
#Device Name: ADP3450
#Serial Number: SN:210018B9D9B0
#Date Time: 2024-08-14 14:56:51.481.651.390
#Sample rate: 5.88235e+06Hz
#Samples: 32768
#Trigger: Source: Channel 3 Type: Edge Condition: Rising Level: 50 mV Hyst.: Auto HoldOff: 0 s
#Channel 3: Range: 100 mV/div Offset: 0 V Attenuation: 1 X Coupling: DC Bandwidth: 0 Hz Sample Mode: Average

Time (s),Channel 3 (V)
-0.003798473993479717,0.1971093116948787
-0.003798303993479717,0.210933005951817
-0.003798133993479717,0.2242629968423884
-0.003797963993479717,0.2354536064789378
-0.003797793993479717,0.2454593280363379
-0.003797623993479717,0.2535560632439442
-0.003797453993479717,0.259513417197519
-0.003797283993479717,0.2640554881676553
-0.003797113993479717,0.2681038557714585
-0.003796943993479717,0.2710989895271231
-0.003796773993479717,0.2719547420287399
-0.003796603993479717,0.271033162411614
-0.003796433993479717,0.2710660759693685
-0.003796263993479717,0.2683013371179814
-0.003796093993479717,0.2658986474019031
-0.003795923993479717,0.2631997356660294
-0.003795753993479717,0.259612157870776
-0.003795583993479717,0.2559258394022723
-0.003795413993479717,0.2524040887225347
-0.003795243993479717,0.2483886346764723
-0.003795073993479717,0.2448668839967411
-0.003794903993479717,0.240785602835176
-0.003794733993479718,0.2369018030201454
-0.003794563993479717,0.2330838303206097
-0.003794393993479717,0.2293645982943447
-0.003794223993479718,0.225678279825841
-0.003794053993479717,0.2222223562616058
-0.003793883993479717,0.2184043835620772
-0.003793713993479718,0.214948459997855
-0.003793543993479717,0.211064660182811
-0.003793373993479717,0.2077403908496007
-0.003793203993479718,0.2045477757474145
-0.003793033993479717,0.2014209877607257
-0.003792863993479717,0.1986562489093429
-0.003792693993479718,0.1957927693847017
-0.003792523993479717,0.1927318085135226
-0.003792353993479717,0.1895062798535761
-0.003792183993479718,0.1862149240781263
-0.003792013993479717,0.182824827629401
-0.003791843993479717,0.1799613481047545
-0.003791673993479718,0.1759788076164603
-0.003791503993479717,0.1726216247254883
-0.003791333993479717,0.1686390842371868
-0.003791163993479718,0.1650844199997012
-0.003790993993479717,0.1617601506664844
-0.003790823993479717,0.1585017084487833
-0.003790653993479717,0.1555394882508785
-0.003790483993479717,0.1525443544952084
-0.003790313993479717,0.1496479614128074
-0.003790143993479717,0.1471465310234611
-0.003789973993479717,0.1446121870763602
-0.003789803993479717,0.1422424109180321
-0.003789633993479717,0.1408929550500952
-0.003789463993479717,0.1378319941789214
-0.003789293993479717,0.1336190587863381
-0.003789123993479717,0.1351001688852932
-0.003788953993479717,0.131512591090043
-0.003788783993479717,0.1296365182980367
-0.003788613993479717,0.1271350879086904
-0.003788443993479717,0.1251931880011666
-0.003788273993479717,0.1225271898230524
-0.003788103993479717,0.1206182034732881
-0.003787933993479717,0.1183800815459755
-0.003787763993479717,0.1169318850047776
-0.003787593993479717,0.1142658868266585
-0.003787423993479717,0.1126531224966819
-0.003787253993479717,0.1108428768201846
-0.003787083993479717,0.1088351497971566
-0.003786913993479717,0.1072882125826891
-0.003786743993479717,0.1054779669061918
-0.003786573993479717,0.1042930788270277
-0.003786403993479717,0.1019891297842063
-0.003786233993479717,0.1006725874740264
-0.003786063993479717,0.09873068756650757
-0.003785893993479717,0.09695335544775897
-0.003785723993479717,0.09557098602207009
-0.003785553993479717,0.09389239457658768
-0.003785383993479717,0.09155553197601053
-0.003785213993479717,0.0895807185107407
-0.003785043993479717,0.08721094235241258
-0.003784873993479717,0.08536778311815445
-0.003784703993479717,0.08375501878818409
-0.003784533993479717,0.08194477311168344
-0.003784363993479718,0.08036492233946758
-0.003784193993479717,0.07832428175868217
-0.003784023993479717,0.07713939367951811
-0.003783853993479718,0.07621781406239218
-0.003783683993479717,0.07526332088750834
-0.003783513993479717,0.07388095146181695
-0.003783343993479718,0.07309102607570903
-0.003783173993479717,0.07164282953450707
-0.003783003993479717,0.07042502789758845
-0.003782833993479718,0.06960218895372602
-0.003782663993479717,0.06871352289435148
-0.003782493993479717,0.06703493144886907
-0.003782323993479718,0.06631083317827015
-0.003782153993479717,0.06489555019482285
-0.003781983993479717,0.06334861298035868
-0.003781813993479718,0.06216372490119678
-0.003781643993479717,0.0608800961487669
-0.003781473993479717,0.05989268941613018
-0.003781303993479718,0.0584774064326868
-0.003781133993479717,0.05762165393106574
-0.003780963993479717,0.05610763027435611
-0.003780793993479718,0.05508730998396669
-0.003780623993479717,0.0539682490203099
-0.003780453993479717,0.05321123719195509
-0.003780283993479717,0.05173012709300271
-0.003780113993479717,0.05123642372668166
-0.003779943993479717,0.05008444920527216
-0.003779773993479717,0.04883373401059899
-0.003779603993479717,0.04922869670365368
-0.003779433993479717,0.04715514256511658
-0.003779263993479717,0.04600316804370708
-0.003779093993479717,0.0458386002549343
-0.003778923993479717,0.04527906977310683
-0.003778753993479717,0.04478536640678847
-0.003778583993479717,0.04488410708005214
-0.003778413993479717,0.04455497150250657
-0.003778243993479717,0.04488410708005214
-0.003778073993479717,0.0448182799645432
-0.003777903993479717,0.0449170206378067
-0.003777733993479717,0.0439954410206791
-0.003777563993479717,0.04346882409660427
-0.003777393993479717,0.04241559024846036
-0.003777223993479717,0.04162566486235099
-0.003777053993479717,0.04113196149603107
-0.003776883993479717,0.04027620899441414
-0.003776713993479717,0.0393875429350411
-0.003776543993479717,0.03889383956872167
-0.003776373993479717,0.03830139552914072
-0.003776203993479717,0.03770895148955869
-0.003776033993479717,0.03754438370078429
-0.003775863993479717,0.03665571764141286
-0.003775693993479717,0.03655697696814919
-0.003775523993479717,0.03599744648632058
-0.003775353993479717,0.03537208888898514
-0.003775183993479717,0.03481255840715766
-0.003775013993479717,0.03431885504083745
-0.003774843993479717,0.03329853475044803
-0.003774673993479717,0.03283774494188424
-0.003774503993479717,0.03217947378679172
-0.003774333993479717,0.03142246195843829
-0.003774163993479717,0.03092875859211993
-0.003773993993479717,0.02974387051295497
-0.003773823993479717,0.02925016714663752
-0.003773653993479717,0.02862480954930093
-0.003773483993479718,0.02786779772094749
-0.003773313993479717,0.0266499960840275
-0.003773143993479717,0.02622211983321826
-0.003772973993479718,0.02503723175405636
-0.003772803993479717,0.02418147925243572
-0.003772633993479717,0.02339155386632635
-0.003772463993479718,0.02293076405776339
-0.003772293993479717,0.02191044376737128
-0.003772123993479717,0.02131799972778925
-0.003771953993479718,0.0207255556882083
-0.003771783993479717,0.02023185232188887
-0.003771613993479717,0.02013311164862519
-0.003771443993479718,0.02049516078392466
-0.003771273993479717,0.02049516078392532
-0.003771103993479717,0.02135091328554381
-0.003770933993479718,0.02187753020961576
-0.003770763993479717,0.02220666578716229
-0.003770593993479717,0.02296367761551711
-0.003770423993479718,0.02398399790590652
-0.003770253993479717,0.02339155386632635
-0.003770083993479717,0.02358903521285369
-0.003769913993479717,0.02319407251979972
-0.003769743993479717,0.02325989963530812
-0.003769573993479717,0.02329281319306268
-0.003769403993479717,0.02240414713368964
-0.003769233993479717,0.02266745559572609
-0.003769063993479717,0.02204209799838951
-0.003768893993479717,0.02197627088288039
-0.003768723993479717,0.02181170309410761
-0.003768553993479717,0.02098886415024368
-0.003768383993479717,0.02210792511389862
-0.003768213993479717,0.02052807434167988
-0.003768043993479717,0.0210546912657528
-0.003767873993479717,0.02056098789943444
-0.003767703993479717,0.01996854385985229
-0.003767533993479717,0.0199027167443433
-0.003767363993479717,0.01894822356946114
-0.003767193993479717,0.01868491510742402
-0.003767023993479717,0.01832286597212456
-0.003766853993479717,0.01750002702826063
-0.003766683993479717,0.01700632366194149
-0.003766513993479717,0.01657844741113303
-0.003766343993479717,0.01572269490951454
-0.003766173993479717,0.01506442375442208
-0.003766003993479717,0.01434032548382314
-0.003765833993479717,0.01371496788648656
-0.003765663993479717,0.01322126452016713
-0.003765493993479717,0.01262882048058617
-0.003765323993479717,0.01243133913405883
-0.003765153993479717,0.01187180865223106
-0.003764983993479717,0.01170724086345858
-0.003764813993479717,0.01134519172815845
-0.003764643993479717,0.01164141374794874
-0.003764473993479717,0.01124645105489478
-0.003764303993479717,0.01111479682387655
-0.003764133993479717,0.01104896970836815
-0.003763963993479717,0.01144393240142212
-0.003763793993479717,0.01134519172815845
-0.003763623993479717,0.01137810528591223
-0.003763453993479717,0.01095022903510376
-0.003763283993479717,0.0116085001901949
-0.003763113993479718,0.01229968490303935
-0.003762943993479717,0.01216803067202238
-0.003762773993479717,0.01269464759609529
-0.003762603993479718,0.01305669673139476
-0.003762433993479717,0.01285921538486808
-0.003762263993479717,0.01243133913405883
-0.003762093993479718,0.01229968490304084
-0.003761923993479717,0.01213511711426782
-0.003761753993479717,0.01095022903510376
-0.003761583993479718,0.01121353749713974
-0.003761413993479717,0.01032487143776718
-0.003761243993479717,0.01002864941797616
-0.003761073993479718,0.008942502012077755
-0.003760903993479717,0.009436205378394135
-0.003760733993479717,0.00779052749066628
-0.003760563993479718,0.008547539319019717
-0.003760393993479717,0.007922181721684508
-0.003760223993479717,0.007757613932911723
-0.003760053993479718,0.008218403741474685
-0.003759883993479717,0.008086749510457293
-0.003759713993479717,0.007955095279439066
-0.003759543993479718,0.00884376133881049
-0.003759373993479717,0.009074156243094007
-0.003759203993479717,0.009271637589621349
-0.003759033993479717,0.009798254513693306
-0.003758863993479717,0.00973242739818515
-0.003758693993479717,0.01012739009123984
-0.003758523993479717,0.01019321720674895
-0.003758353993479717,0.01032487143776718
-0.003758183993479717,0.009995735860221606
-0.003758013993479717,0.01025904432225806
-0.003757843993479717,0.009995735860221606
-0.003757673993479717,0.009896995186957936
-0.003757503993479717,0.01012739009123984
-0.003757333993479717,0.01045652566878522
-0.003757163993479717,0.01035778499552173
-0.003756993993479717,0.01048943922653996
-0.003756823993479717,0.01154267307468453
-0.003756653993479717,0.01085148836184009
-0.003756483993479717,0.01085148836184009
-0.003756313993479717,0.01075274768857696
-0.003756143993479717,0.01104896970836743
-0.003755973993479717,0.01147684595917668
-0.003755803993479717,0.01124645105489478
-0.003755633993479717,0.01124645105489478
-0.003755463993479717,0.01078566124633098
-0.003755293993479717,0.01048943922653895
-0.003755123993479717,0.009929908744712493
-0.003754953993479717,0.009337464705130465
-0.003754783993479717,0.009436205378394315
-0.003754613993479717,0.009534946051657807
-0.003754443993479717,0.009107069800848565
-0.003754273993479717,0.009238724031866253
-0.003754103993479717,0.008942502012075779
-0.003753933993479717,0.00904124268533945
-0.003753763993479717,0.008514625761266117
-0.003753593993479717,0.008284230856984636
-0.003753423993479717,0.008350057972493751
-0.003753253993479717,0.008053835952703335
-0.003753083993479717,0.008382971530248308
-0.003752913993479717,0.007955095279439066
-0.003752743993479718,0.007494305470876104
-0.003752573993479717,0.00779052749066628
-0.003752403993479717,0.007593046144138938
-0.003752233993479718,0.007461391913120948
-0.003752063993479717,0.007395564797611595
-0.003751893993479717,0.007494305470875266
-0.003751723993479718,0.007625959701893255
-0.003751553993479717,0.00677020720027501
-0.003751383993479717,0.006967688546802352
-0.003751213993479718,0.007658873259646794
-0.003751043993479717,0.00756013258638438
-0.003750873993479717,0.007329737682102481
-0.003750703993479718,0.007099342777821
-0.003750533993479717,0.006704380084765896
-0.003750363993479717,0.00700060210455691
-0.003750193993479718,0.00686894787353892
-0.003750023993479717,0.006967688546802352
-0.003749853993479717,0.006901861431293239
-0.003749683993479718,0.006309417391712287
-0.003749513993479717,0.006967688546802352
-0.003749343993479717,0.007033515662311467
-0.003749173993479718,0.007329737682101942
-0.003749003993479717,0.007296824124347924
-0.003748833993479717,0.00756013258638438
-0.003748663993479717,0.007757613932911364
-0.003748493993479717,0.007922181721684508
-0.003748323993479717,0.008251317299230079
-0.003748153993479717,0.008284230856984636
-0.003747983993479717,0.008317144414739193
-0.003747813993479717,0.008218403741475522
-0.003747643993479717,0.007823441048420837
-0.003747473993479717,0.007658873259648051
-0.003747303993479717,0.007033515662311467
-0.003747133993479717,0.007099342777820581
-0.003746963993479717,0.007362651239857037
-0.003746793993479717,0.006638552969256781
-0.003746623993479717,0.006408158064974882
-0.003746453993479717,0.006473985180483876
-0.003746283993479717,0.006408158064974882
-0.003746113993479717,0.006013195371920196
-0.003745943993479717,0.006079022487428832
-0.003745773993479717,0.005815714025392853
-0.003745603993479717,0.005947368256411082
-0.003745433993479717,0.006441071622729918
-0.003745263993479717,0.006704380084765896
-0.003745093993479717,0.006901861431293239
-0.003744923993479717,0.007099342777821299
-0.003744753993479717,0.007494305470875266
-0.003744583993479717,0.007428478355366152
-0.003744413993479717,0.006868947873539399
-0.003744243993479717,0.007263910566593366
-0.003744073993479717,0.006803120758029567
-0.003743903993479717,0.007165169893328258
-0.003743733993479717,0.006375244507220324
-0.003743563993479717,0.006243590276202096
-0.003743393993479717,0.005881541140901549
-0.003743223993479717,0.005651146236620068
-0.003743053993479717,0.00528909710131994
-0.003742883993479717,0.004992875081527908
-0.003742713993479717,0.004433344599701455
-0.003742543993479717,0.005354924216829054
-0.003742373993479717,0.004729566619492588
-0.003742203993479717,0.004795393735001583
-0.003742033993479717,0.00403838190664677
-0.003741863993479718,0.004597912388473223
-0.003741693993479717,0.004170036137664999
-0.003741523993479717,0.003939641233383098
-0.003741353993479718,0.003840900560119607
-0.003741183993479717,0.00403838190664677
-0.003741013993479717,0.004334603926437783
-0.003740843993479718,0.004301690368683287
-0.003740673993479717,0.004630825946228797
-0.003740503993479717,0.00482830729275614
-0.003740333993479718,0.005289097101319102
-0.003740163993479717,0.004729566619492469
-0.003739993993479717,0.005585319121110954
-0.003739823993479718,0.005980281814164921
-0.003739653993479717,0.006441071622729439
-0.003739483993479717,0.00677020720027501
-0.003739313993479718,0.006473985180484534
-0.003739143993479717,0.006901861431293239
-0.003738973993479717,0.007066429220066024
-0.003738803993479718,0.007198083451084013
-0.003738633993479717,0.006836034315784124
-0.003738463993479717,0.007230997008838809
-0.003738293993479718,0.006868947873539339
-0.003738123993479717,0.006342330949465767
-0.003737953993479717,0.006276503833956653
-0.003737783993479717,0.006144849602938664
-0.003737613993479717,0.006046108929674754
-0.003737443993479717,0.006013195371920196
-0.003737273993479717,0.006210676718447538
-0.003737103993479717,0.006013195371920196
-0.003736933993479717,0.006605639411502225
-0.003736763993479717,0.007033515662311467
-0.003736593993479717,0.007625959701893495
-0.003736423993479717,0.007593046144138938
-0.003736253993479717,0.00779052749066628
-0.003736083993479717,0.007823441048422513
-0.003735913993479717,0.008745020665548437
-0.003735743993479717,0.007428478355366152
-0.003735573993479717,0.007856354606174317
-0.003735403993479717,0.007263910566593366
-0.003735233993479717,0.007296824124347924
-0.003735063993479717,0.007395564797610997
-0.003734893993479717,0.007066429220066024
-0.003734723993479717,0.00700060210455691
-0.003734553993479717,0.007033515662311287
-0.003734383993479717,0.006934774989047795
-0.003734213993479717,0.007395564797611595
-0.003734043993479717,0.007362651239858234
-0.003733873993479717,0.00802092239494818
-0.003733703993479717,0.007198083451084253
-0.003733533993479717,0.007230997008839049
-0.003733363993479717,0.007362651239857037
-0.003733193993479717,0.007033515662311467
-0.003733023993479717,0.007033515662311167
-0.003732853993479717,0.006868947873538681
-0.003732683993479717,0.00630941739171121
-0.003732513993479717,0.006111936045183269
-0.003732343993479717,0.005782800467638296
-0.003732173993479717,0.006342330949465767
-0.003732003993479717,0.005914454698656405
-0.003731833993479717,0.005848627583147411
-0.003731663993479717,0.005848627583147411
-0.003731493993479718,0.006243590276201378
-0.003731323993479717,0.006803120758029567
-0.003731153993479717,0.007395564797611595
-0.003730983993479718,0.00805383595270154
-0.003730813993479717,0.008679193550039321
-0.003730643993479717,0.008382971530248308
-0.003730473993479718,0.009502032493901216
-0.003730303993479717,0.01002864941797616
-0.003730133993479717,0.01032487143776718
-0.003729963993479718,0.01052235278429416
-0.003729793993479717,0.01035778499552173
-0.003729623993479717,0.01071983413082186
-0.003729453993479718,0.009469118936150968
-0.003729283993479717,0.008777934223302994
-0.003729113993479717,0.008152576625966409
-0.003728943993479718,0.007724700375157944
-0.003728773993479717,0.007230997008838809
-0.003728603993479717,0.006605639411502225
-0.003728433993479718,0.005980281814166776
-0.003728263993479717,0.005618232678865511
-0.003728093993479717,0.005519492005601839
-0.003727923993479718,0.004959961523775386
-0.003727753993479717,0.004367517484192341
-0.003727583993479717,0.004466258157456012
-0.003727413993479717,0.004202949695420034
-0.003727243993479717,0.00403838190664677
-0.003727073993479717,0.004071295464401327
-0.003726903993479717,0.004235863253174112
-0.003726733993479717,0.004301690368683227
-0.003726563993479717,0.004729566619492469
-0.003726393993479717,0.005453664890092726
-0.003726223993479717,0.00574988690988374
-0.003726053993479717,0.006342330949465767
-0.003725883993479717,0.006506898738238553
-0.003725713993479717,0.006967688546802352
-0.003725543993479717,0.00802092239494818
-0.003725373993479717,0.00756013258638438
-0.003725203993479717,0.007790527490667058
-0.003725033993479717,0.008218403741475522
-0.003724863993479717,0.008218403741475522
-0.003724693993479717,0.008547539319020196
-0.003724523993479717,0.008053835952702737
-0.003724353993479717,0.007724700375157166
-0.003724183993479717,0.00713225633557448
-0.003724013993479717,0.00677020720027501
-0.003723843993479717,0.006408158064974882
-0.003723673993479717,0.006144849602937707
-0.003723503993479717,0.00574988690988374
-0.003723333993479717,0.005354924216829054
-0.003723163993479717,0.005519492005595732
-0.003722993993479717,0.002162309114637015
-0.003722823993479717,0.004400431041946898
-0.003722653993479717,0.004005468348892751
-0.003722483993479717,0.004301690368683227
-0.003722313993479717,0.004959961523774369
-0.003722143993479717,0.005651146236621086
-0.003721973993479717,0.006210676718447538
-0.003721803993479717,0.006638552969256781
-0.003721633993479717,0.007099342777821718
-0.003721463993479717,0.007724700375157166
-0.003721293993479717,0.009205810474112236
-0.003721123993479717,0.008514625761267316
-0.003720953993479717,0.008942502012075779
-0.003720783993479717,0.009699513840430593
-0.003720613993479718,0.009896995186957577
-0.003720443993479717,0.009798254513694264
-0.003720273993479717,0.009798254513694264
-0.003720103993479718,0.009436205378394794
-0.003719933993479717,0.00950203249390325
-0.003719763993479717,0.008218403741475522
