Analysis/New Tests_CMB/wrd01_d2s01/cmb03_ch40.csv

#Digilent WaveForms Oscilloscope Acquisition
#Device Name: ADP3450
#Serial Number: SN:210018B9D9B0
#Date Time: 2024-08-06 11:19:25.414.973.030
#Sample rate: 5.88235e+06Hz
#Samples: 32768
#Trigger: Source: Channel 3 Type: Edge Condition: Rising Level: 20 mV Hyst.: Auto HoldOff: 0 s
#Channel 3: Range: 200 mV/div Offset: 0 V Attenuation: 1 X Coupling: DC Bandwidth: 0 Hz Sample Mode: Average

Time (s),Channel 3 (V)
-0.002785114336734694,0.0982369842001892
-0.002784944336734694,0.09682170121674055
-0.002784774336734694,0.0953405911177882
-0.002784604336734694,0.09376074034556944
-0.002784434336734694,0.09191758111131088
-0.002784264336734694,0.09007442187705905
-0.002784094336734694,0.0884287439893312
-0.002783924336734694,0.08668432542833501
-0.002783754336734694,0.08411706792348422
-0.002783584336734694,0.08280052561330192
-0.002783414336734694,0.0810561070523086
-0.002783244336734694,0.0800687003196737
-0.002783074336734694,0.0787521580094914
-0.002782904336734694,0.07766601060358856
-0.002782734336734694,0.07631655473565419
-0.002782564336734694,0.07549371579179026
-0.002782394336734694,0.07417717348160599
-0.002782224336734694,0.07309102607570758
-0.002782054336734694,0.07190613799654352
-0.002781884336734694,0.07134660751471444
-0.002781714336734694,0.07045794145534301
-0.002781544336734694,0.06996423808902466
-0.002781374336734694,0.06897683135638973
-0.002781204336734694,0.06782485683497844
-0.002781034336734694,0.06667288231356894
-0.002780864336734694,0.06585004336970651
-0.002780694336734694,0.06459932817503183
-0.002780524336734694,0.06328278586484956
-0.002780354336734694,0.06249286047874163
-0.002780184336734694,0.06094592326427601
-0.002780014336734694,0.05979394874286651
-0.002779844336734694,0.05857614710595011
-0.002779674336734694,0.05716086412250194
-0.002779504336734694,0.05620637094761979
-0.002779334336734694,0.05518605065723037
-0.002779164336734694,0.05400116257806446
-0.002778994336734694,0.05337580498072787
-0.002778824336734694,0.05252005247911094
-0.002778654336734694,0.05133516439994534
-0.002778484336734694,0.05100602882239976
-0.002778314336734694,0.05011736276302833
-0.002778144336734694,0.04972240006997204
-0.002777974336734694,0.04926161026140823
-0.002777804336734694,0.04853751199080929
-0.002777634336734694,0.04810963573999873
-0.002777464336734694,0.04794506795122595
-0.002777294336734694,0.04748427814266299
-0.002777124336734694,0.0472209696806257
-0.002776954336734694,0.04689183410308012
-0.002776784336734694,0.04636521717900721
-0.002776614336734694,0.0458386002549343
-0.002776444336734694,0.04432457659822467
-0.002776274336734694,0.04508158842657949
-0.002776104336734694,0.04373213255864264
-0.002775934336734694,0.04396252746292454
-0.002775764336734694,0.04386378678966087
-0.002775594336734694,0.04340299698109527
-0.002775424336734694,0.04241559024846036
-0.002775254336734694,0.04179023265112377
-0.002775084336734694,0.04076991236073101
-0.002774914336734694,0.03994707341686857
-0.002774744336734694,0.03955211072381389
-0.002774574336734694,0.03919006158851053
-0.002774404336734694,0.03741272946976767
-0.002774234336734694,0.0375443837007859
-0.002774064336734694,0.03635949562162065
-0.002773894336734694,0.03570122446653071
-0.002773724336734694,0.03458216350287577
-0.002773554336734694,0.03398971946329182
-0.002773384336734694,0.03293648561514791
-0.002773214336734694,0.03194907888251119
-0.002773044336734694,0.03106041282313731
-0.002772874336734694,0.03059962301457436
-0.002772704336734694,0.02997426541723777
-0.002772534336734694,0.02944764849316312
-0.002772364336734694,0.0284931553182827
-0.002772194336734694,0.02773614348992789
-0.002772024336734694,0.02747283502789059
-0.002771854336734694,0.02701204521932763
-0.002771684336734694,0.0266499960840275
-0.002771514336734694,0.02625503339097264
-0.002771344336734694,0.02615629271770915
-0.002771174336734694,0.02615629271770915
-0.002771004336734694,0.02586007069791867
-0.002770834336734694,0.02543219444710889
-0.002770664336734694,0.02539928088935433
-0.002770494336734694,0.02549802156261782
-0.002770324336734694,0.025498021562618
-0.002770154336734694,0.02546510800486345
-0.002769984336734694,0.02510305886956398
-0.002769814336734694,0.0250372317540542
-0.002769644336734694,0.02441187415671762
-0.002769474336734694,0.02414856569468164
-0.002769304336734694,0.02395108434815382
-0.002769134336734694,0.02444478771447217
-0.002768964336734694,0.02470809617650815
-0.002768794336734694,0.0248068368497723
-0.002768624336734694,0.02497140463854509
-0.002768454336734694,0.02539928088935356
-0.002768284336734694,0.02553093512037256
-0.002768114336734694,0.02602463848669092
-0.002767944336734694,0.02609046560219991
-0.002767774336734694,0.02559676223588167
-0.002767604336734694,0.02553093512037256
-0.002767434336734694,0.02589298425567203
-0.002767264336734694,0.02447770127222673
-0.002767094336734694,0.02404982502141749
-0.002766924336734694,0.02289785050001009
-0.002766754336734694,0.02246997424919875
-0.002766584336734694,0.02158130818982571
-0.002766414336734694,0.02069264213045267
-0.002766244336734694,0.02026476587964342
-0.002766074336734694,0.01960649472455228
-0.002765904336734694,0.01937609982027038
-0.002765734336734694,0.0192115320314976
-0.002765564336734694,0.01855326087640645
-0.002765394336734694,0.01842160664538823
-0.002765224336734694,0.01865200154967013
-0.002765054336734694,0.01878365578068835
-0.002764884336734694,0.01871782866517924
-0.002764714336734694,0.01865200154967055
-0.002764544336734694,0.01888239645395202
-0.002764374336734694,0.01901405068497026
-0.002764204336734694,0.01937609982027002
-0.002764034336734694,0.01917861847374304
-0.002763864336734694,0.01937609982027038
-0.002763694336734694,0.0194090133780253
-0.002763524336734694,0.01960649472455228
-0.002763354336734694,0.0192115320314976
-0.002763184336734694,0.01914570491598812
-0.002763014336734694,0.01894822356946114
-0.002762844336734694,0.01819121174110632
-0.002762674336734694,0.01753294058601441
-0.002762504336734694,0.01710506433520594
-0.002762334336734694,0.01697341010418771
-0.002762164336734694,0.01631513894909561
-0.002761994336734694,0.01578852202502366
-0.002761824336734694,0.01549230000523264
-0.002761654336734694,0.01529481865870518
-0.002761484336734694,0.01522899154319619
-0.002761314336734694,0.01513025086993251
-0.002761144336734694,0.01516316442768737
-0.002760974336734694,0.01532773221645986
-0.002760804336734694,0.01539355933196897
-0.002760634336734694,0.01526190510095003
-0.002760464336734694,0.01486694240789606
-0.002760294336734694,0.01496568308115973
-0.002760124336734694,0.01499859663891423
-0.002759954336734694,0.0150644237544234
-0.002759784336734694,0.01555812712074176
-0.002759614336734694,0.01555812712074176
-0.002759444336734694,0.01539355933196897
-0.002759274336734694,0.0155252135629872
-0.002759104336734694,0.01519607798544223
-0.002758934336734694,0.01549230000523264
-0.002758764336734694,0.01549230000523264
-0.002758594336734694,0.01526190510095116
-0.002758424336734694,0.0150644237544234
-0.002758254336734694,0.01522899154319619
-0.002758084336734694,0.01513025086993269
-0.002757914336734694,0.01374788144424112
-0.002757744336734694,0.01450489327259593
-0.002757574336734694,0.01397827634852397
-0.002757404336734694,0.01381370855975023
-0.002757234336734694,0.01410993057954124
-0.002757064336734694,0.0133858323089423
-0.002756894336734694,0.01404410346403213
-0.002756724336734694,0.01394536279076846
-0.002756554336734694,0.01427449836831343
-0.002756384336734694,0.01407701702178669
-0.002756214336734694,0.01381370855975023
-0.002756044336734694,0.01387953567525935
-0.002755874336734694,0.01407701702178669
-0.002755704336734694,0.01381370855975023
-0.002755534336734694,0.01351748653995922
-0.002755364336734694,0.01341874586669555
-0.002755194336734694,0.01292504250037719
-0.002755024336734694,0.01289212894262263
-0.002754854336734694,0.01262882048058617
-0.002754684336734694,0.01249716624956795
-0.002754514336734694,0.0122996849030406
-0.002754344336734694,0.01193763576773994
-0.002754174336734694,0.01164141374794946
-0.002754004336734694,0.01098314259285832
-0.002753834336734694,0.0107856612463302
-0.002753664336734694,0.01035778499552173
-0.002753494336734694,0.01019321720674895
-0.002753324336734694,0.009633686724920579
-0.002753154336734694,0.009139983358603122
-0.002752984336734694,0.008613366434530208
-0.002752814336734694,0.00858045287677559
-0.002752644336734694,0.008547539319021094
-0.002752474336734694,0.008843761338812107
-0.002752304336734694,0.009271637589622008
-0.002752134336734694,0.009633686724921478
-0.002751964336734694,0.01016030364899439
-0.002751794336734694,0.01048943922654056
-0.002751624336734694,0.01081857480408553
-0.002751454336734694,0.01131227817040389
-0.002751284336734694,0.01190472220998634
-0.002751114336734694,0.01213511711426782
-0.002750944336734694,0.01213511711426782
-0.002750774336734694,0.01193763576773982
-0.002750604336734694,0.01157558663244035
-0.002750434336734694,0.01246425269181339
-0.002750264336734694,0.01095022903510418
-0.002750094336734694,0.01118062393938566
-0.002749924336734694,0.009205810474112236
-0.002749754336734694,0.01157558663243604
-0.002749584336734694,0.01042361211103085
-0.002749414336734694,0.01062109345755819
-0.002749244336734694,0.01062109345755819
-0.002749074336734694,0.01052235278429452
-0.002748904336734694,0.01065400701531275
-0.002748734336734694,0.01052235278429476
-0.002748564336734694,0.01055526634204908
-0.002748394336734694,0.01039069855327629
-0.002748224336734694,0.01154267307468369
-0.002748054336734694,0.01127936461264933
-0.002747884336734694,0.01127936461264933
-0.002747714336734694,0.01075274768857738
-0.002747544336734694,0.01065400701531275
-0.002747374336734694,0.01052235278429452
-0.002747204336734694,0.01062109345755801
-0.002747034336734694,0.01052235278429452
-0.002746864336734694,0.01012739009123984
-0.002746694336734694,0.009798254513694862
-0.002746524336734694,0.009633686724921478
-0.002746354336734694,0.009666600282676035
-0.002746184336734694,0.009534946051658047
-0.002746014336734694,0.009798254513694264
-0.002745844336734694,0.009798254513694264
-0.002745674336734694,0.009864081629203257
-0.002745504336734694,0.01025904432225806
-0.002745334336734694,0.01055526634204908
-0.002745164336734694,0.01075274768857642
-0.002744994336734694,0.011378105285913
-0.002744824336734694,0.01187180865223136
-0.002744654336734694,0.01233259846079516
-0.002744484336734694,0.01249716624956795
-0.002744314336734694,0.01312252384690453
-0.002744144336734694,0.01348457298220466
-0.002743974336734694,0.01358331365546869
-0.002743804336734694,0.01378079500199567
-0.002743634336734694,0.01417575769505036
-0.002743464336734694,0.01404410346403213
-0.002743294336734694,0.01404410346403213
-0.002743124336734694,0.01348457298220466
-0.002742954336734694,0.01322126452016749
-0.002742784336734694,0.01282630182711352
-0.002742614336734694,0.0125300798073225
-0.002742444336734694,0.01177306797896739
-0.002742274336734694,0.0116085001901949
-0.002742104336734694,0.01111479682387655
-0.002741934336734694,0.01088440191959489
-0.002741764336734694,0.01101605615061288
-0.002741594336734694,0.01078566124633098
-0.002741424336734694,0.01058817989980256
-0.002741254336734694,0.009995735860221606
-0.002741084336734694,0.01088440191959465
-0.002740914336734694,0.009074156243096102
-0.002740744336734694,0.01022613076450351
-0.002740574336734694,0.01022613076450351
-0.002740404336734694,0.01016030364899427
-0.002740234336734694,0.01009447653348528
-0.002740064336734694,0.01006156297573072
-0.002739894336734694,0.009962822302467648
-0.002739724336734694,0.01029195788001262
-0.002739554336734694,0.01042361211103085
-0.002739384336734694,0.01022613076450386
-0.002739214336734694,0.01085148836184009
-0.002739044336734694,0.01065400701531275
-0.002738874336734694,0.01052235278429476
-0.002738704336734694,0.01078566124633098
-0.002738534336734694,0.01101605615061288
-0.002738364336734694,0.01111479682387637
-0.002738194336734694,0.01177306797896769
-0.002738024336734694,0.01200346288324959
-0.002737854336734694,0.01203637644100409
-0.002737684336734694,0.01223385778753149
-0.002737514336734694,0.01236551201854972
-0.002737344336734694,0.0126288204805857
-0.002737174336734694,0.01259590692283162
-0.002737004336734694,0.01236551201854972
-0.002736834336734694,0.01276047471160368
-0.002736664336734694,0.01266173403834073
-0.002736494336734694,0.01269464759609529
-0.002736324336734694,0.01276047471160428
-0.002736154336734694,0.01292504250037719
-0.002735984336734694,0.01292504250037719
-0.002735814336734694,0.01318835096241317
-0.002735644336734694,0.01272756115384985
-0.002735474336734694,0.01338583230894099
-0.002735304336734694,0.01341874586669549
-0.002735134336734694,0.01371496788648656
-0.002734964336734694,0.013682054328732
-0.002734794336734694,0.01387953567525935
-0.002734624336734694,0.01394536279076846
-0.002734454336734694,0.01394536279076846
-0.002734284336734694,0.01394536279076846
-0.002734114336734694,0.01401118990627757
-0.002733944336734694,0.01394536279076846
-0.002733774336734694,0.01384662211750479
-0.002733604336734694,0.0132212645201682
-0.002733434336734694,0.01315543740465909
-0.002733264336734694,0.0127604747116044
-0.002733094336734694,0.01226677134528473
-0.002732924336734694,0.01154267307468579
-0.002732754336734694,0.01114771038163111
-0.002732584336734694,0.01065400701531125
-0.002732414336734694,0.00983116807144882
-0.002732244336734694,0.01016030364899439
-0.002732074336734694,0.009370378262884543
-0.002731904336734694,0.009107069800848565
-0.002731734336734694,0.009008329127584893
-0.002731564336734694,0.009041242685338851
-0.002731394336734694,0.00871210710779388
-0.002731224336734694,0.009238724031866792
-0.002731054336734694,0.009370378262884961
-0.002730884336734694,0.009337464705130465
-0.002730714336734694,0.009534946051657807
-0.002730544336734694,0.008843761338813304
-0.002730374336734694,0.00950203249390325
-0.002730204336734694,0.009008329127584893
-0.002730034336734694,0.009370378262885021
-0.002729864336734694,0.009370378262885021
-0.002729694336734694,0.009271637589621349
-0.002729524336734694,0.009238724031867152
-0.002729354336734694,0.009436205378394135
-0.002729184336734694,0.008909588454321223
-0.002729014336734694,0.009469118936148511
-0.002728844336734694,0.009370378262885021
-0.002728674336734694,0.009205810474112236
-0.002728504336734694,0.009238724031866732
-0.002728334336734694,0.008876674896566664
-0.002728164336734694,0.009567859609412364
-0.002727994336734694,0.00973242739818485
-0.002727824336734694,0.01009447653348528
-0.002727654336734694,0.01071983413082186
-0.002727484336734694,0.0102919578800134
-0.002727314336734694,0.01071983413082186
-0.002727144336734694,0.01124645105489478
-0.002726974336734694,0.01134519172815827
-0.002726804336734694,0.01114771038163111
-0.002726634336734694,0.01111479682387655
-0.002726464336734694,0.01078566124633158
-0.002726294336734694,0.01068692057306731
-0.002726124336734694,0.01095022903510376
-0.002725954336734694,0.0104894392265408
-0.002725784336734694,0.01052235278429452
-0.002725614336734694,0.01016030364899439
-0.002725444336734694,0.009699513840431431
-0.002725274336734694,0.009600773167166921
-0.002725104336734694,0.009337464705130465
-0.002724934336734694,0.009337464705130465
-0.002724764336734694,0.009304551147375908
-0.002724594336734694,0.009403291820639578
-0.002724424336734694,0.009436205378394074
-0.002724254336734694,0.009469118936148692
-0.002724084336734694,0.009271637589621349
-0.002723914336734694,0.009600773167166921
-0.002723744336734694,0.009370378262885021
-0.002723574336734694,0.008975415569830336
-0.002723404336734694,0.01002864941797616
-0.002723234336734694,0.008679193550039321
-0.002723064336734694,0.009107069800848565
-0.002722894336734694,0.009238724031866792
-0.002722724336734694,0.008580452876775351
-0.002722554336734694,0.008415885088002865
-0.002722384336734694,0.008350057972493751
-0.002722214336734694,0.008613366434529908
-0.002722044336734694,0.008448798645757422
-0.002721874336734694,0.008942502012075779
-0.002721704336734694,0.008975415569830456
-0.002721534336734694,0.00904124268533945
-0.002721364336734694,0.009139983358603122
-0.002721194336734694,0.009205810474111816
-0.002721024336734694,0.008975415569830336
-0.002720854336734694,0.008942502012075779
-0.002720684336734694,0.008975415569830636
-0.002720514336734694,0.009139983358603122
-0.002720344336734694,0.009139983358603122
-0.002720174336734694,0.009074156243094067
-0.002720004336734694,0.009107069800848565
-0.002719834336734694,0.009337464705130465
-0.002719664336734694,0.00960077316716758
-0.002719494336734694,0.009962822302467049
-0.002719324336734694,0.00983116807144882
-0.002719154336734694,0.009995735860221667
-0.002718984336734694,0.01002864941797616
-0.002718814336734694,0.00973242739818515
-0.002718644336734694,0.009370378262884721
-0.002718474336734694,0.009205810474112236
-0.002718304336734694,0.009074156243094007
-0.002718134336734694,0.009238724031866492
-0.002717964336734694,0.008646279992284765
-0.002717794336734694,0.009238724031866792
-0.002717624336734694,0.009304551147375788
-0.002717454336734694,0.009403291820639578
-0.002717284336734694,0.009074156243094007
-0.002717114336734694,0.009205810474111996
-0.002716944336734694,0.009370378262885021
-0.002716774336734694,0.009403291820639578
-0.002716604336734694,0.009403291820639578
-0.002716434336734694,0.00973242739818515
-0.002716264336734694,0.01009447653348528
-0.002716094336734694,0.01029195788001226
-0.002715924336734694,0.01068692057306731
-0.002715754336734694,0.01104896970836743
-0.002715584336734694,0.01108188326612193
-0.002715414336734694,0.01124645105489478
-0.002715244336734694,0.01127936461264933
-0.002715074336734694,0.01134519172815833
-0.002714904336734694,0.01101605615061288
-0.002714734336734694,0.01147684595917668
-0.002714564336734694,0.01220094422977562
-0.002714394336734694,0.01006156297573072
-0.002714224336734694,0.01249716624956795
-0.002714054336734694,0.01193763576774149
-0.002713884336734694,0.01236551201854972
-0.002713714336734694,0.01282630182711352
-0.002713544336734694,0.01272756115384985
-0.002713374336734694,0.01315543740465909
-0.002713204336734694,0.01269464759609529
-0.002713034336734694,0.01318835096241365
-0.002712864336734694,0.01341874586669555
-0.002712694336734694,0.01387953567525935
-0.002712524336734694,0.01420867125280492
-0.002712354336734694,0.01394536279076846
-0.002712184336734694,0.01447197971484137
-0.002712014336734694,0.01434032548382314
-0.002711844336734694,0.01450489327259569
-0.002711674336734694,0.0143732390415777
-0.002711504336734694,0.0139124492330139
-0.002711334336734694,0.01407701702178669
-0.002711164336734694,0.01407701702178669
-0.002710994336734694,0.01430741192606859
-0.002710824336734694,0.01447197971484155
-0.002710654336734694,0.01457072038810504
-0.002710484336734694,0.0141428441372958
-0.002710314336734694,0.01463654750361362
-0.002710144336734694,0.01434032548382314
-0.002709974336734694,0.01427449836831403
-0.002709804336734694,0.01394536279076798
-0.002709634336734694,0.013682054328732
-0.002709464336734694,0.01312252384690453
-0.002709294336734694,0.01276047471160333
-0.002709124336734694,0.01216803067202238
-0.002708954336734694,0.01190472220998592
-0.002708784336734694,0.01157558663244053
-0.002708614336734694,0.01167432730570402
-0.002708444336734694,0.01167432730570402
-0.002708274336734694,0.01154267307468621
-0.002708104336734694,0.01177306797896769
-0.002707934336734694,0.01150975951693123
-0.002707764336734694,0.01124645105489513
-0.002707594336734694,0.01144393240142212
-0.002707424336734694,0.01081857480408553
-0.002707254336734694,0.01085148836184003
-0.002707084336734694,0.01052235278429452
-0.002706914336734694,0.01016030364899439
-0.002706744336734694,0.009666600282676933
-0.002706574336734694,0.009995735860221606
-0.002706404336734694,0.009337464705130465
-0.002706234336734694,0.009107069800848985
