Analysis/New Tests_CMB/wrd01_d2s01/cmb07_ch17.csv

#Digilent WaveForms Oscilloscope Acquisition
#Device Name: ADP3450
#Serial Number: SN:210018B9D9B0
#Date Time: 2024-08-15 12:26:16.186.662.900
#Sample rate: 5.88235e+06Hz
#Samples: 32768
#Trigger: Source: Channel 3 Type: Edge Condition: Rising Level: 40 mV Hyst.: Auto HoldOff: 0 s
#Channel 3: Range: 100 mV/div Offset: 0 V Attenuation: 1 X Coupling: DC Bandwidth: 0 Hz Sample Mode: Average

Time (s),Channel 3 (V)
-0.003168823022781367,0.02605755204444548
-0.003168653022781367,0.0260575520444444
-0.003168483022781367,0.02546510800486345
-0.003168313022781367,0.02493849108079053
-0.003168143022781367,0.02523471310058041
-0.003167973022781367,0.02460935550324496
-0.003167803022781367,0.02401691146366293
-0.003167633022781367,0.02352320809734374
-0.003167463022781367,0.02306241828878078
-0.003167293022781367,0.02263454203797154
-0.003167123022781367,0.02263454203797094
-0.003166953022781367,0.02230540646042596
-0.003166783022781367,0.02177878953635305
-0.003166613022781367,0.02141674040105179
-0.003166443022781367,0.02079138280371634
-0.003166273022781367,0.02049516078392532
-0.003166103022781367,0.02010019809086992
-0.003165933022781367,0.01970523539781595
-0.003165763022781367,0.01950775405128861
-0.003165593022781367,0.0192444455892512
-0.003165423022781367,0.01871782866517924
-0.003165253022781367,0.01855326087640645
-0.003165083022781367,0.01750002702826254
-0.003164913022781367,0.01684175587316948
-0.003164743022781367,0.01661136096888758
-0.003164573022781367,0.01605183048706113
-0.003164403022781367,0.01526190510095074
-0.003164233022781367,0.01473528817687783
-0.003164063022781367,0.01417575769505138
-0.003163893022781367,0.01401118990627757
-0.003163723022781367,0.01364914077097745
-0.003163553022781367,0.01460363394585787
-0.003163383022781367,0.01466946106136872
-0.003163213022781367,0.01496568308115973
-0.003163043022781367,0.01519607798544121
-0.003162873022781367,0.01605183048706011
-0.003162703022781367,0.01592017625604189
-0.003162533022781367,0.01631513894909585
-0.003162363022781367,0.01641387962236024
-0.003162193022781367,0.01631513894909657
-0.003162023022781367,0.01707215077745001
-0.003161853022781367,0.01720380500846961
-0.003161683022781367,0.01694049654643316
-0.003161513022781367,0.01651262029562469
-0.003161343022781367,0.01664427452664214
-0.003161173022781367,0.01684175587316948
-0.003161003022781367,0.01697341010418747
-0.003160833022781367,0.01703923721969683
-0.003160663022781367,0.0173683727972424
-0.003160493022781367,0.0178291626058062
-0.003160323022781367,0.0162163982758329
-0.003160153022781367,0.01717089145071506
-0.003159983022781367,0.0166771880843967
-0.003159813022781367,0.0169075829886786
-0.003159643022781367,0.01664427452664214
-0.003159473022781367,0.01677592875766037
-0.003159303022781367,0.01677592875765875
-0.003159133022781367,0.01588726269828733
-0.003158963022781367,0.01568978135175999
-0.003158793022781367,0.01526190510094955
-0.003158623022781367,0.0146036339458596
-0.003158453022781367,0.01453780683035049
-0.003158283022781367,0.0143403254838229
-0.003158113022781367,0.01420867125280492
-0.003157943022781367,0.01394536279076846
-0.003157773022781367,0.01335291875118613
-0.003157603022781367,0.01318835096241365
-0.003157433022781367,0.01220094422977693
-0.003157263022781367,0.01154267307468489
-0.003157093022781367,0.01104896970836743
-0.003156923022781367,0.01045652566878541
-0.003156753022781367,0.009732427398184491
-0.003156583022781367,0.009370378262885021
-0.003156413022781367,0.008580452876775651
-0.003156243022781367,0.008679193550039202
-0.003156073022781367,0.008613366434530208
-0.003155903022781367,0.008843761338812107
-0.003155733022781367,0.008942502012076498
-0.003155563022781367,0.009337464705130465
-0.003155393022781367,0.009403291820639578
-0.003155223022781367,0.009929908744713271
-0.003155053022781367,0.01035778499552173
-0.003154883022781367,0.01104896970836743
-0.003154713022781367,0.01183889509447537
-0.003154543022781367,0.01236551201854972
-0.003154373022781367,0.01289212894262263
-0.003154203022781367,0.0133200051934311
-0.003154033022781367,0.01394536279076846
-0.003153863022781367,0.01466946106136872
-0.003153693022781367,0.01513025086993168
-0.003153523022781367,0.01588726269828733
-0.003153353022781367,0.01595308981379644
-0.003153183022781367,0.01608474404481443
-0.003153013022781367,0.01628222539134202
-0.003152843022781367,0.01634805250685113
-0.003152673022781367,0.01624931183358764
-0.003152503022781367,0.01611765760256923
-0.003152333022781367,0.01588726269828733
-0.003152163022781367,0.01552521356298786
-0.003151993022781367,0.01509733731217796
-0.003151823022781367,0.01565686779400543
-0.003151653022781367,0.01516316442768797
-0.003151483022781367,0.01542647288972353
-0.003151313022781367,0.01555812712074176
-0.003151143022781367,0.01532773221646028
-0.003150973022781367,0.01519607798544163
-0.003150803022781367,0.01473528817687783
-0.003150633022781367,0.01460363394585984
-0.003150463022781367,0.0141428441372958
-0.003150293022781367,0.01358331365546833
-0.003150123022781367,0.01285921538486808
-0.003149953022781367,0.01239842557630427
-0.003149783022781367,0.01147684595917668
-0.003149613022781367,0.01108188326612199
-0.003149443022781367,0.01025904432225806
-0.003149273022781367,0.009798254513694264
-0.003149103022781367,0.009436205378394135
-0.003148933022781367,0.008777934223302994
-0.003148763022781367,0.008876674896566664
-0.003148593022781367,0.008580452876775651
-0.003148423022781367,0.008745020665548197
-0.003148253022781367,0.008613366434530208
-0.003148083022781367,0.008613366434530208
-0.003147913022781367,0.009172896916359176
-0.003147743022781367,0.009995735860221606
-0.003147573022781367,0.01016030364899439
-0.003147403022781367,0.01062109345755789
-0.003147233022781367,0.01045652566878541
-0.003147063022781367,0.01081857480408553
-0.003146893022781367,0.01091731547734921
-0.003146723022781367,0.01091731547734921
-0.003146553022781367,0.01104896970836743
-0.003146383022781367,0.0113781052859127
-0.003146213022781367,0.01121353749714022
-0.003146043022781367,0.01170724086345858
-0.003145873022781367,0.01141101884366822
-0.003145703022781367,0.01177306797896769
-0.003145533022781367,0.01164141374794946
-0.003145363022781367,0.01085148836184105
-0.003145193022781367,0.011378105285913
-0.003145023022781367,0.01042361211103085
-0.003144853022781367,0.01029195788001268
-0.003144683022781367,0.01032487143776718
-0.003144513022781367,0.009864081629203377
-0.003144343022781367,0.009765340955939526
-0.003144173022781367,0.009666600282676035
-0.003144003022781367,0.00950203249390325
-0.003143833022781367,0.00950203249390325
-0.003143663022781367,0.009896995186957936
-0.003143493022781367,0.01029195788001262
-0.003143323022781367,0.009896995186958654
-0.003143153022781367,0.01108188326612199
-0.003142983022781367,0.01068692057306731
-0.003142813022781367,0.01068692057306731
-0.003142643022781367,0.01101605615061288
-0.003142473022781367,0.01134519172815845
-0.003142303022781367,0.01154267307468543
-0.003142133022781367,0.01190472220998592
-0.003141963022781367,0.01216803067202238
-0.003141793022781367,0.01236551201854936
-0.003141623022781367,0.01289212894262263
-0.003141453022781367,0.01285921538486808
-0.003141283022781367,0.01249716624956861
-0.003141113022781367,0.01269464759609529
-0.003140943022781367,0.01223385778753149
-0.003140773022781367,0.01226677134528599
-0.003140603022781367,0.01239842557630427
-0.003140433022781367,0.01249716624956795
-0.003140263022781367,0.01226677134528647
-0.003140093022781367,0.01210220355651326
-0.003139923022781367,0.01213511711426782
-0.003139753022781367,0.0116085001901949
-0.003139583022781367,0.01114771038163111
-0.003139413022781367,0.01147684595917668
-0.003139243022781367,0.01078566124633098
-0.003139073022781367,0.01098314259285832
-0.003138903022781367,0.01124645105489478
-0.003138733022781367,0.01114771038163111
-0.003138563022781367,0.0116085001901949
-0.003138393022781367,0.01193763576774048
-0.003138223022781367,0.01210220355651326
-0.003138053022781367,0.01243133913405925
-0.003137883022781367,0.01266173403834073
-0.003137713022781367,0.01266173403834073
-0.003137543022781367,0.01299086961588618
-0.003137373022781367,0.01292504250037719
-0.003137203022781367,0.01328709163567732
-0.003137033022781367,0.01282630182711442
-0.003136863022781367,0.01332000519343187
-0.003136693022781367,0.01170724086345858
-0.003136523022781367,0.01259590692283132
-0.003136353022781367,0.01243133913405883
-0.003136183022781367,0.01243133913405883
-0.003136013022781367,0.01338583230893817
-0.003135843022781367,0.0118388950944768
-0.003135673022781367,0.01210220355651326
-0.003135503022781367,0.01154267307468603
-0.003135333022781367,0.01167432730570402
-0.003135163022781367,0.0118388950944768
-0.003134993022781367,0.01200346288325019
-0.003134823022781367,0.01233259846079516
-0.003134653022781367,0.01141101884366756
-0.003134483022781367,0.01167432730570468
-0.003134313022781367,0.01203637644100415
-0.003134143022781367,0.01190472220998592
-0.003133973022781367,0.01164141374794916
-0.003133803022781367,0.01147684595917668
-0.003133633022781367,0.01114771038163111
-0.003133463022781367,0.01058817989980465
-0.003133293022781367,0.009600773167166921
-0.003133123022781367,0.008909588454321223
-0.003132953022781367,0.008613366434530747
-0.003132783022781367,0.007856354606175394
-0.003132613022781367,0.007625959701893495
-0.003132443022781367,0.007527219028630003
-0.003132273022781367,0.007329737682102481
-0.003132103022781367,0.007527219028629823
-0.003131933022781367,0.00769178681740231
-0.003131763022781367,0.007889268163929951
-0.003131593022781367,0.008415885088002865
-0.003131423022781367,0.008152576625966888
-0.003131253022781367,0.008415885088002865
-0.003131083022781367,0.008185490183720966
-0.003130913022781367,0.008185490183720966
-0.003130743022781367,0.00802092239494818
-0.003130573022781367,0.007955095279439066
-0.003130403022781367,0.007461391913121606
-0.003130233022781367,0.007757613932911723
-0.003130063022781367,0.007494305470875266
-0.003129893022781367,0.006836034315785321
-0.003129723022781367,0.007362651239857037
-0.003129553022781367,0.007593046144138938
-0.003129383022781367,0.007395564797611954
-0.003129213022781367,0.007724700375157166
-0.003129043022781367,0.007527219028629823
-0.003128873022781367,0.008481712203511979
-0.003128703022781367,0.008745020665548437
-0.003128533022781367,0.009370378262885021
-0.003128363022781367,0.009370378262885021
-0.003128193022781367,0.009765340955939707
-0.003128023022781367,0.01035778499552173
-0.003127853022781367,0.01058817989980363
-0.003127683022781367,0.01095022903510412
-0.003127513022781367,0.01114771038163111
-0.003127343022781367,0.01164141374794946
-0.003127173022781367,0.01206928999875984
-0.003127003022781367,0.01269464759609529
-0.003126833022781367,0.01285921538486808
-0.003126663022781367,0.01262882048058546
-0.003126493022781367,0.01223385778753149
-0.003126323022781367,0.0122996849030406
-0.003126153022781367,0.0123325984607948
-0.003125983022781367,0.01213511711426782
-0.003125813022781367,0.01233259846079516
-0.003125643022781367,0.01279338826935932
-0.003125473022781367,0.0129908696158863
-0.003125303022781367,0.01302378317364086
-0.003125133022781367,0.01272756115384931
-0.003124963022781367,0.01243133913405883
-0.003124793022781367,0.0127604747116044
-0.003124623022781367,0.01269464759609589
-0.003124453022781367,0.01302378317364086
-0.003124283022781367,0.01262882048058617
-0.003124113022781367,0.01272756115384883
-0.003123943022781367,0.01216803067202238
-0.003123773022781367,0.01174015442121313
-0.003123603022781367,0.01127936461264838
-0.003123433022781367,0.01075274768857642
-0.003123263022781367,0.009929908744712493
-0.003123093022781367,0.009304551147377046
-0.003122923022781367,0.00881084778105755
-0.003122753022781367,0.00881084778105755
-0.003122583022781367,0.008382971530249087
-0.003122413022781367,0.008382971530248308
-0.003122243022781367,0.007856354606175394
-0.003122073022781367,0.007724700375157405
-0.003121903022781367,0.007329737682102481
-0.003121733022781367,0.007165169893329695
-0.003121563022781367,0.007099342777820701
-0.003121393022781367,0.007494305470875266
-0.003121223022781367,0.007099342777820581
-0.003121053022781367,0.007033515662311586
-0.003120883022781367,0.007296824124347924
-0.003120713022781367,0.007362651239857037
-0.003120543022781367,0.007362651239857037
-0.003120373022781367,0.007428478355366152
-0.003120203022781367,0.008185490183720966
-0.003120033022781367,0.008284230856984456
-0.003119863022781367,0.009600773167166921
-0.003119693022781367,0.009304551147375908
-0.003119523022781367,0.009732427398184371
-0.003119353022781367,0.009205810474112236
-0.003119183022781367,0.009107069800848565
-0.003119013022781367,0.009172896916357559
-0.003118843022781367,0.009205810474112236
-0.003118673022781367,0.009238724031866792
-0.003118503022781367,0.009896995186957936
-0.003118333022781367,0.009864081629203377
-0.003118163022781367,0.009600773167166921
-0.003117993022781367,0.01035778499552173
-0.003117823022781367,0.009929908744712493
-0.003117653022781367,0.01035778499552173
-0.003117483022781367,0.01042361211103085
-0.003117313022781367,0.01039069855327629
-0.003117143022781367,0.01048943922653996
-0.003116973022781367,0.01055526634204908
-0.003116803022781367,0.01042361211103043
-0.003116633022781367,0.01019321720674895
-0.003116463022781367,0.01022613076450351
-0.003116293022781367,0.009699513840429216
-0.003116123022781367,0.008942502012075779
-0.003115953022781367,0.008448798645757422
-0.003115783022781367,0.007889268163929651
-0.003115613022781367,0.007724700375157166
-0.003115443022781367,0.007889268163929951
-0.003115273022781367,0.008086749510457054
-0.003115103022781367,0.007955095279439066
-0.003114933022781367,0.007922181721684508
-0.003114763022781367,0.0080209223949486
-0.003114593022781367,0.008251317299230079
-0.003114423022781367,0.009074156243094007
-0.003114253022781367,0.009337464705130704
-0.003114083022781367,0.009469118936148692
-0.003113913022781367,0.009403291820639578
-0.003113743022781367,0.009238724031866253
-0.003113573022781367,0.008942502012075779
-0.003113403022781367,0.009008329127584893
-0.003113233022781367,0.008777934223303054
-0.003113063022781367,0.00881084778105755
-0.003112893022781367,0.008415885088002865
-0.003112723022781367,0.00765887325964853
-0.003112553022781367,0.007922181721684508
-0.003112383022781367,0.008053835952702737
-0.003112213022781367,0.008350057972493212
-0.003112043022781367,0.008580452876775651
-0.003111873022781367,0.008745020665548437
-0.003111703022781367,0.009238724031865894
-0.003111533022781367,0.009699513840430593
-0.003111363022781367,0.009567859609412364
-0.003111193022781367,0.0103248714377658
-0.003111023022781367,0.009666600282676035
-0.003110853022781367,0.01032487143776718
-0.003110683022781367,0.01042361211103067
-0.003110513022781367,0.009633686724921478
-0.003110343022781367,0.009469118936148692
-0.003110173022781367,0.00841588508800478
-0.003110003022781367,0.009074156243094007
-0.003109833022781367,0.008251317299230079
-0.003109663022781367,0.008876674896565526
-0.003109493022781367,0.007395564797611595
-0.003109323022781367,0.008251317299230079
-0.003109153022781367,0.00788926816393061
-0.003108983022781367,0.007724700375157166
-0.003108813022781367,0.007428478355366152
-0.003108643022781367,0.007658873259647632
-0.003108473022781367,0.007362651239857037
-0.003108303022781367,0.007230997008838809
-0.003108133022781367,0.007593046144138279
-0.003107963022781367,0.007856354606175394
-0.003107793022781367,0.00811966306821185
-0.003107623022781367,0.008086749510457293
-0.003107453022781367,0.008679193550039321
-0.003107283022781367,0.008679193550039321
-0.003107113022781367,0.009008329127584893
-0.003106943022781367,0.009205810474112236
-0.003106773022781367,0.009370378262885021
-0.003106603022781367,0.009666600282676035
-0.003106433022781367,0.009929908744713391
-0.003106263022781367,0.01042361211103085
-0.003106093022781367,0.01075274768857642
-0.003105923022781367,0.01108188326612139
-0.003105753022781367,0.01075274768857642
-0.003105583022781367,0.01025904432225806
-0.003105413022781367,0.01006156297573048
-0.003105243022781367,0.009929908744712493
-0.003105073022781367,0.009469118936148692
-0.003104903022781367,0.009205810474110799
-0.003104733022781367,0.008415885088002865
-0.003104563022781367,0.00802092239494818
-0.003104393022781367,0.007428478355365553
-0.003104223022781367,0.007099342777820581
-0.003104053022781367,0.006901861431293239
-0.003103883022781367,0.006868947873538023
-0.003103713022781367,0.006506898738238553
-0.003103543022781367,0.006704380084765896
-0.003103373022781367,0.007329737682103319
-0.003103203022781367,0.00779052749066628
-0.003103033022781367,0.008218403741475522
-0.003102863022781367,0.008777934223303653
-0.003102693022781367,0.009139983358603122
-0.003102523022781367,0.009995735860221606
-0.003102353022781367,0.01062109345755831
-0.003102183022781367,0.01068692057306731
-0.003102013022781367,0.01131227817040389
-0.003101843022781367,0.01210220355651183
-0.003101673022781367,0.0118388950944768
-0.003101503022781367,0.0120692899987587
-0.003101333022781367,0.01233259846079468
-0.003101163022781367,0.01203637644100415
-0.003100993022781367,0.0125300798073225
-0.003100823022781367,0.01348457298220292
-0.003100653022781367,0.01134519172815845
-0.003100483022781367,0.01114771038163111
-0.003100313022781367,0.01048943922654116
-0.003100143022781367,0.01009447653348528
-0.003099973022781367,0.009765340955939707
-0.003099803022781367,0.009534946051658227
-0.003099633022781367,0.009370378262885021
-0.003099463022781367,0.009074156243094007
-0.003099293022781367,0.008876674896567023
-0.003099123022781367,0.008679193550039321
-0.003098953022781367,0.008382971530248308
-0.003098783022781367,0.008712107107793281
-0.003098613022781367,0.009008329127584893
-0.003098443022781367,0.009238724031866792
-0.003098273022781367,0.009238724031866792
-0.003098103022781367,0.009600773167166921
-0.003097933022781367,0.009370378262885021
-0.003097763022781367,0.008876674896567563
-0.003097593022781367,0.009074156243094007
-0.003097423022781367,0.008942502012075779
-0.003097253022781367,0.009139983358603122
-0.003097083022781367,0.009139983358603122
-0.003096913022781367,0.009370378262885021
-0.003096743022781367,0.009534946051657807
-0.003096573022781367,0.009337464705130465
-0.003096403022781367,0.009008329127584893
-0.003096233022781367,0.008777934223302994
-0.003096063022781367,0.008152576625966409
-0.003095893022781367,0.00802092239494818
-0.003095723022781367,0.007691786817402609
-0.003095553022781367,0.007724700375156687
-0.003095383022781367,0.007461391913120709
-0.003095213022781367,0.006901861431293239
-0.003095043022781367,0.007132256335574599
-0.003094873022781367,0.006836034315784124
-0.003094703022781367,0.006572725853747667
-0.003094533022781367,0.006013195371921932
-0.003094363022781367,0.006967688546802352
-0.003094193022781367,0.007132256335575138
-0.003094023022781367,0.007889268163931568
-0.003093853022781367,0.008777934223302994
-0.003093683022781367,0.009205810474112236
-0.003093513022781367,0.009403291820640536
-0.003093343022781367,0.009929908744712493
-0.003093173022781367,0.01012739009123984
-0.003093003022781367,0.01081857480408559
-0.003092833022781367,0.01085148836184009
-0.003092663022781367,0.01150975951693123
-0.003092493022781367,0.01032487143776598
-0.003092323022781367,0.009666600282676035
-0.003092153022781367,0.01091731547734921
-0.003091983022781367,0.009831168071448041
-0.003091813022781367,0.009403291820639578
-0.003091643022781367,0.008745020665548437
-0.003091473022781367,0.008580452876775531
-0.003091303022781367,0.008514625761266537
-0.003091133022781367,0.00756013258638438
-0.003090963022781367,0.007198083451084911
-0.003090793022781367,0.007099342777820581
-0.003090623022781367,0.006901861431293239
-0.003090453022781367,0.006868947873538741
