Analysis/New Tests_CMB/wrd01_d2s01/cmb01_ch41.csv

#Digilent WaveForms Oscilloscope Acquisition
#Device Name: ADP3450
#Serial Number: SN:210018B9D9B0
#Date Time: 2024-08-14 15:04:57.174.890.380
#Sample rate: 5.88235e+06Hz
#Samples: 32768
#Trigger: Source: Channel 3 Type: Edge Condition: Rising Level: 90 mV Hyst.: Auto HoldOff: 0 s
#Channel 3: Range: 100 mV/div Offset: 0 V Attenuation: 1 X Coupling: DC Bandwidth: 0 Hz Sample Mode: Average

Time (s),Channel 3 (V)
-0.003798479979748157,0.2296608203141357
-0.003798309979748157,0.2400285910068024
-0.003798139979748157,0.2487835973695175
-0.003797969979748158,0.2559587529600008
-0.003797799979748157,0.2610274408542395
-0.003797629979748157,0.267017708365558
-0.003797459979748157,0.2680709422137039
-0.003797289979748157,0.2699470150057102
-0.003797119979748157,0.2700457556789772
-0.003796949979748158,0.2700457556789773
-0.003796779979748157,0.2688279540420562
-0.003796609979748157,0.2674455846163673
-0.003796439979748157,0.2650428949002846
-0.003796269979748157,0.2622452424911524
-0.003796099979748157,0.2590855409467155
-0.003795929979748158,0.2553663089204584
-0.003795759979748157,0.2523711751647738
-0.003795589979748157,0.2488494244850425
-0.003795419979748157,0.2455909822673414
-0.003795249979748157,0.2415097011057837
-0.003795079979748157,0.2377246419640091
-0.003794909979748158,0.2341041506110141
-0.003794739979748158,0.2304836592580128
-0.003794569979748157,0.2268631679049984
-0.003794399979748157,0.2234072443407699
-0.003794229979748157,0.2207083326049011
-0.003794059979748157,0.2168903599053745
-0.003793889979748158,0.213533177014415
-0.003793719979748158,0.2101430805656957
-0.003793549979748157,0.207049206136755
-0.003793379979748157,0.2040211588233357
-0.003793209979748157,0.2008943708366585
-0.003793039979748157,0.1975371879456941
-0.003792869979748158,0.1948382762098241
-0.003792699979748158,0.1907240814905096
-0.003792529979748157,0.1876302070615663
-0.003792359979748157,0.184305937728356
-0.003792189979748157,0.1811133226261698
-0.003792019979748157,0.1777232261774508
-0.003791849979748158,0.1750243144415758
-0.003791679979748158,0.1719962671281627
-0.003791509979748157,0.1682112079863776
-0.003791339979748157,0.1645578030756218
-0.003791169979748157,0.1609702252803816
-0.003790999979748157,0.1573826474851348
-0.003790829979748158,0.1537950696898881
-0.003790659979748158,0.1507341088187189
-0.003790489979748157,0.1472781852544793
-0.003790319979748157,0.143953915921269
-0.003790149979748157,0.1408271279345861
-0.003789979979748157,0.1374370314858729
-0.003789809979748157,0.1348697739810159
-0.003789639979748158,0.1321708622451474
-0.003789469979748157,0.1295706911825276
-0.003789299979748157,0.1275629641594996
-0.003789129979748157,0.1256210642519807
-0.003788959979748157,0.1234816829979384
-0.003788789979748157,0.1213752153016467
-0.003788619979748158,0.119729537413921
-0.003788449979748157,0.1178534646219081
-0.003788279979748157,0.1194004018363694
-0.003788109979748157,0.1150558122127679
-0.003787939979748157,0.1139038376913605
-0.003787769979748157,0.112356900476897
-0.003787599979748158,0.1105795683581546
-0.003787429979748157,0.1092630260479622
-0.003787259979748157,0.1072552990249379
-0.003787089979748157,0.1052475720019099
-0.003786919979748157,0.1030752771901131
-0.003786749979748157,0.1010675501670848
-0.003786579979748158,0.09912565025956931
-0.003786409979748157,0.09780910794937601
-0.003786239979748157,0.09563681313757921
-0.003786069979748157,0.09366199967230576
-0.003785899979748157,0.0920492353423354
-0.003785729979748157,0.0906339523588891
-0.003785559979748158,0.08892244735565578
-0.003785389979748157,0.08760590504546575
-0.003785219979748157,0.08678306610160333
-0.003785049979748157,0.08566400513794839
-0.003784879979748157,0.08405124080797803
-0.003784709979748157,0.08312966119084918
-0.003784539979748158,0.08191185955393331
-0.003784369979748158,0.08062823080150583
-0.003784199979748157,0.07957499695335532
-0.003784029979748157,0.07832428175868217
-0.003783859979748157,0.07783057839236469
-0.003783689979748157,0.07690899877523789
-0.003783519979748158,0.07549371579179541
-0.003783349979748158,0.07427591415487607
-0.003783179979748157,0.07312393963346214
-0.003783009979748157,0.0720048786698072
-0.003782839979748157,0.07035920078208233
-0.003782669979748157,0.06920722626067193
-0.003782499979748158,0.0676602890462113
-0.003782329979748158,0.06624500606276486
-0.003782159979748157,0.06450058750176818
-0.003781989979748157,0.06292073672954943
-0.003781819979748157,0.06150545374610605
-0.003781649979748157,0.06012308432041459
-0.003781479979748158,0.05857614710595072
-0.003781309979748158,0.05719377768026153
-0.003781139979748157,0.05623928450537434
-0.003780969979748157,0.05548227267701953
-0.003780799979748157,0.05446195238663011
-0.003780629979748157,0.05377076767378382
-0.003780459979748158,0.05357328632725557
-0.003780289979748158,0.05340871853848303
-0.003780119979748157,0.05317832363420053
-0.003779949979748157,0.05265170671012762
-0.003779779979748157,0.05294792872991863
-0.003779609979748157,0.05261879315237366
-0.003779439979748157,0.05278336094114554
-0.003779269979748158,0.05232257113258373
-0.003779099979748157,0.05238839824809116
-0.003778929979748157,0.05245422536360028
-0.003778759979748157,0.04850459843305342
-0.003778589979748157,0.05090728814913172
-0.003778419979748157,0.05008444920527366
-0.003778249979748158,0.04903121535713017
-0.003778079979748157,0.04820837641326049
-0.003777909979748157,0.04715514256511658
-0.003777739979748157,0.04633230362125265
-0.003777569979748157,0.04554237823514472
-0.003777399979748157,0.04471953929128086
-0.003777229979748158,0.04396252746292729
-0.003777059979748157,0.04290929361477776
-0.003776889979748157,0.0423826766907058
-0.003776719979748157,0.04188897332438744
-0.003776549979748157,0.04109904793827951
-0.003776379979748157,0.04034203610992463
-0.003776209979748158,0.03968376495483451
-0.003776039979748157,0.03935462937728534
-0.003775869979748157,0.0386963582221954
-0.003775699979748157,0.03770895148955869
-0.003775529979748157,0.03724816168099573
-0.003775359979748157,0.03688611254569543
-0.003775189979748158,0.03619492783285157
-0.003775019979748157,0.03583287869754857
-0.003774849979748157,0.03563539735102159
-0.003774679979748157,0.03566831090877615
-0.003774509979748157,0.03527334821572219
-0.003774339979748157,0.03461507706063152
-0.003774169979748158,0.03425302792533151
-0.003773999979748157,0.03352892965472808
-0.003773829979748157,0.03250860936433866
-0.003773659979748157,0.03142246195843829
-0.003773489979748157,0.03069836368783934
-0.003773319979748157,0.02987552474397559
-0.003773149979748158,0.02895394512684985
-0.003772979979748158,0.02780197060544119
-0.003772809979748157,0.02747283502789143
-0.003772639979748157,0.02674873675729117
-0.003772469979748157,0.02572841646690176
-0.003772299979748157,0.02513597242731895
-0.003772129979748158,0.02434604704121138
-0.003771959979748158,0.02395108434815526
-0.003771789979748157,0.02381943011713559
-0.003771619979748157,0.02358903521285369
-0.003771449979748157,0.02355612165509919
-0.003771279979748157,0.02355612165509913
-0.003771109979748158,0.02408273857917013
-0.003770939979748158,0.02385234367489099
-0.003770769979748157,0.02381943011713559
-0.003770599979748157,0.02381943011713559
-0.003770429979748157,0.02362194877060861
-0.003770259979748157,0.02355612165509926
-0.003770089979748158,0.02362194877060813
-0.003769919979748158,0.02316115896204612
-0.003769749979748157,0.02355612165509913
-0.003769579979748157,0.02322698607755356
-0.003769409979748157,0.02510305886956332
-0.003769239979748157,0.0241156521369284
-0.003769069979748157,0.02329281319306417
-0.003768899979748158,0.02312824540429049
-0.003768729979748157,0.02339155386632635
-0.003768559979748157,0.02335864030857179
-0.003768389979748157,0.02329281319306268
-0.003768219979748157,0.0230953318465357
-0.003768049979748157,0.02220666578716391
-0.003767879979748158,0.02223957934491673
-0.003767709979748157,0.02095595059248547
-0.003767539979748157,0.01894822356946114
-0.003767369979748157,0.01954066760904317
-0.003767199979748157,0.01835577952988127
-0.003767029979748157,0.01763168125928017
-0.003766859979748158,0.01717089145071673
-0.003766689979748157,0.01654553385337793
-0.003766519979748157,0.01624931183358745
-0.003766349979748157,0.01585434914053277
-0.003766179979748157,0.01598600337155076
-0.003766009979748157,0.01542647288972455
-0.003765839979748158,0.0154923000052324
-0.003765669979748157,0.01615057116032366
-0.003765499979748157,0.01608474404481467
-0.003765329979748157,0.01654553385337847
-0.003765159979748157,0.01674301519990545
-0.003764989979748157,0.01703923721969629
-0.003764819979748158,0.0168417558731702
-0.003764649979748157,0.017170891450715
-0.003764479979748157,0.0171379778929605
-0.003764309979748157,0.01710506433520594
-0.003764139979748157,0.01782916260580488
-0.003763969979748157,0.01694049654643477
-0.003763799979748158,0.01690758298867872
-0.003763629979748157,0.01598600337155328
-0.003763459979748157,0.01723671856622417
-0.003763289979748157,0.0164467931801148
-0.003763119979748157,0.01628222539134231
-0.003762949979748157,0.01624931183358751
-0.003762779979748158,0.01647970673786852
-0.003762609979748158,0.01674301519990486
-0.003762439979748157,0.0166771880843967
-0.003762269979748157,0.0164467931801148
-0.003762099979748157,0.01690758298867776
-0.003761929979748157,0.01697341010418759
-0.003761759979748158,0.01710506433520546
-0.003761589979748158,0.01720380500846925
-0.003761419979748157,0.01740128635499695
-0.003761249979748157,0.01743419991275151
-0.003761079979748157,0.01726963212397903
-0.003760909979748157,0.01661136096888878
-0.003760739979748158,0.01651262029562427
-0.003760569979748158,0.0164138796223606
-0.003760399979748157,0.01595308981379644
-0.003760229979748157,0.01549230000523264
-0.003760059979748157,0.01499859663891519
-0.003759889979748157,0.01792790327906454
-0.003759719979748158,0.01506442375442861
-0.003759549979748158,0.01328709163568378
-0.003759379979748157,0.01289212894262263
-0.003759209979748157,0.01259590692283162
-0.003759039979748157,0.01200346288325067
-0.003758869979748157,0.01180598153672261
-0.003758699979748157,0.01068692057306934
-0.003758529979748158,0.01025904432225962
-0.003758359979748157,0.01016030364899439
-0.003758189979748157,0.008975415569830336
-0.003758019979748157,0.00983116807144882
-0.003757849979748157,0.008975415569831892
-0.003757679979748157,0.009600773167165783
-0.003757509979748158,0.00950203249390361
-0.003757339979748157,0.009271637589622248
-0.003757169979748157,0.009765340955939707
-0.003756999979748157,0.01078566124633098
-0.003756829979748157,0.0104894392265405
-0.003756659979748157,0.01088440191959393
-0.003756489979748158,0.01081857480408577
-0.003756319979748157,0.0109502290351031
-0.003756149979748157,0.01058817989980363
-0.003755979979748157,0.01009447653348528
-0.003755809979748157,0.009534946051658826
-0.003755639979748157,0.008942502012076857
-0.003755469979748158,0.008613366434531405
-0.003755299979748157,0.008086749510456515
-0.003755129979748157,0.007658873259648051
-0.003754959979748157,0.007395564797611595
-0.003754789979748157,0.006934774989048633
-0.003754619979748157,0.00627650383395785
-0.003754449979748158,0.006210676718447778
-0.003754279979748157,0.005947368256410963
-0.003754109979748157,0.005881541140901968
-0.003753939979748157,0.005881541140901968
-0.003753769979748157,0.006144849602937946
-0.003753599979748157,0.006539812295992392
-0.003753429979748158,0.00703351566230967
-0.003753259979748157,0.007461391913120709
-0.003753089979748157,0.007461391913120709
-0.003752919979748157,0.007922181721684508
-0.003752749979748157,0.008152576625965989
-0.003752579979748157,0.008679193550038364
-0.003752409979748158,0.009139983358601446
-0.003752239979748158,0.009600773167165245
-0.003752069979748157,0.009666600282676035
-0.003751899979748157,0.009896995186957936
-0.003751729979748157,0.009765340955939946
-0.003751559979748157,0.009929908744712192
-0.003751389979748158,0.009995735860221367
-0.003751219979748158,0.01016030364899379
-0.003751049979748157,0.01091731547734921
-0.003750879979748157,0.01058817989980363
-0.003750709979748157,0.01068692057306713
-0.003750539979748157,0.009633686724923393
-0.003750369979748158,0.008843761338814982
-0.003750199979748158,0.01025904432225291
-0.003750029979748157,0.01006156297573072
-0.003749859979748157,0.009666600282676035
-0.003749689979748157,0.010127390091239
-0.003749519979748157,0.009666600282676872
-0.003749349979748158,0.009995735860221008
-0.003749179979748158,0.01019321720674823
-0.003749009979748157,0.01052235278429452
-0.003748839979748157,0.01048943922653996
-0.003748669979748157,0.01075274768857594
-0.003748499979748157,0.01055526634204944
-0.003748329979748158,0.01081857480408505
-0.003748159979748158,0.01108188326612103
-0.003747989979748157,0.01078566124633098
-0.003747819979748157,0.01088440191959465
-0.003747649979748157,0.01098314259285832
-0.003747479979748157,0.01078566124633134
-0.003747309979748157,0.01091731547734897
-0.003747139979748158,0.01091731547734921
-0.003746969979748157,0.01095022903510376
-0.003746799979748157,0.01091731547734921
-0.003746629979748157,0.01071983413082186
-0.003746459979748157,0.01035778499552239
-0.003746289979748157,0.009831168071449778
-0.003746119979748158,0.009370378262886697
-0.003745949979748157,0.008909588454320983
-0.003745779979748157,0.008777934223302994
-0.003745609979748157,0.008152576625966409
-0.003745439979748157,0.007757613932912441
-0.003745269979748157,0.006967688546803789
-0.003745099979748158,0.006408158064976918
-0.003744929979748157,0.005618232678865152
-0.003744759979748157,0.005420751332338168
-0.003744589979748157,0.005190356428056269
-0.003744419979748157,0.004959961523774788
-0.003744249979748157,0.005387837774582833
-0.003744079979748158,0.00515744287030255
-0.003743909979748157,0.005618232678866229
-0.003743739979748157,0.006013195371920196
-0.003743569979748157,0.00677020720027501
-0.003743399979748157,0.007362651239855959
-0.003743229979748157,0.008152576625964972
-0.003743059979748158,0.008580452876774095
-0.003742889979748157,0.008712107107794957
-0.003742719979748157,0.009304551147375908
-0.003742549979748157,0.009567859609412364
-0.003742379979748157,0.009633686724921358
-0.003742209979748157,0.009732427398184969
-0.003742039979748158,0.009995735860220649
-0.003741869979748158,0.00969951384043167
-0.003741699979748157,0.009864081629203377
-0.003741529979748157,0.009403291820639578
-0.003741359979748157,0.009074156243094605
-0.003741189979748157,0.008712107107794539
-0.003741019979748158,0.00871210710779388
-0.003740849979748158,0.01002864941797137
-0.003740679979748157,0.007428478355366152
-0.003740509979748157,0.007099342777820581
-0.003740339979748157,0.006901861431293598
-0.003740169979748157,0.006375244507221282
-0.003739999979748158,0.005980281814167076
-0.003739829979748158,0.005782800467639015
-0.003739659979748157,0.005256183543565383
-0.003739489979748157,0.005223269985810825
-0.003739319979748157,0.005618232678864792
-0.003739149979748157,0.005848627583146992
-0.003738979979748158,0.006144849602937886
-0.003738809979748158,0.006375244507219486
-0.003738639979748157,0.007066429220066024
-0.003738469979748157,0.007230997008838809
-0.003738299979748157,0.007428478355365793
-0.003738129979748157,0.008580452876773555
-0.003737959979748158,0.00894250201207512
-0.003737789979748158,0.009502032493901216
-0.003737619979748157,0.01016030364899439
-0.003737449979748157,0.01019321720674895
-0.003737279979748157,0.01075274768857642
-0.003737109979748157,0.01091731547734891
-0.003736939979748157,0.01147684595917566
-0.003736769979748158,0.01174015442121218
-0.003736599979748157,0.01200346288324959
-0.003736429979748157,0.01239842557630427
-0.003736259979748157,0.01289212894262263
-0.003736089979748157,0.01266173403834115
-0.003735919979748157,0.01259590692283174
-0.003735749979748158,0.0127604747116038
-0.003735579979748157,0.0125300798073216
-0.003735409979748157,0.01203637644100415
-0.003735239979748157,0.01174015442121313
-0.003735069979748157,0.01101605615061419
-0.003734899979748157,0.01042361211103193
-0.003734729979748158,0.01006156297573204
-0.003734559979748157,0.009600773167165724
-0.003734389979748157,0.008942502012075779
-0.003734219979748157,0.008382971530248308
-0.003734049979748157,0.008053835952703335
-0.003733879979748157,0.007922181721684747
-0.003733709979748158,0.007263910566595761
-0.003733539979748157,0.007263910566593246
-0.003733369979748157,0.007198083451084253
-0.003733199979748157,0.006868947873538681
-0.003733029979748157,0.006704380084766195
-0.003732859979748157,0.006572725853747906
-0.003732689979748158,0.006836034315783166
-0.003732519979748157,0.005684059794374745
-0.003732349979748157,0.00574988690988374
-0.003732179979748157,0.005486578447847282
-0.003732009979748157,0.005322010659074796
-0.003731839979748157,0.005091615754793016
-0.003731669979748158,0.005585319121109157
-0.003731499979748158,0.002623098923211591
-0.003731329979748157,0.005684059794374625
-0.003731159979748157,0.00607902248742931
-0.003730989979748157,0.006638552969255764
-0.003730819979748157,0.00736265123985572
-0.003730649979748158,0.008284230856981283
-0.003730479979748158,0.008876674896564509
-0.003730309979748157,0.009403291820639578
-0.003730139979748157,0.00983116807144882
-0.003729969979748157,0.01016030364899379
-0.003729799979748157,0.01098314259285682
-0.003729629979748158,0.009995735860225199
-0.003729459979748158,0.009469118936150607
-0.003729289979748157,0.008679193550039321
-0.003729119979748157,0.008514625761266537
-0.003728949979748157,0.008119663068212568
-0.003728779979748157,0.007329737682103918
-0.003728609979748158,0.006901861431294795
-0.003728439979748158,0.006441071622731115
-0.003728269979748157,0.006013195371920196
-0.003728099979748157,0.006243590276202096
-0.003727929979748157,0.00667146652701056
-0.003727759979748157,0.006803120758029328
-0.003727589979748158,0.007066429220065545
-0.003727419979748158,0.006967688546802711
-0.003727249979748157,0.006836034315784124
-0.003727079979748157,0.007099342777820581
-0.003726909979748157,0.007132256335575138
-0.003726739979748157,0.007625959701892597
-0.003726569979748157,0.007988008837192964
-0.003726399979748158,0.008712107107791245
-0.003726229979748157,0.008942502012075779
-0.003726059979748157,0.009074156243094007
-0.003725889979748157,0.009666600282676035
-0.003725719979748157,0.01006156297573
-0.003725549979748157,0.01048943922653918
-0.003725379979748158,0.01075274768857546
-0.003725209979748157,0.01098314259285748
-0.003725039979748157,0.01052235278429452
-0.003724869979748157,0.01104896970836743
-0.003724699979748157,0.01032487143776849
-0.003724529979748157,0.01055526634204866
-0.003724359979748158,0.01039069855327689
-0.003724189979748157,0.009962822302467648
-0.003724019979748157,0.01029195788001262
-0.003723849979748157,0.01019321720674895
-0.003723679979748157,0.01035778499552143
-0.003723509979748157,0.01025904432225824
-0.003723339979748158,0.01022613076450363
-0.003723169979748157,0.009172896916357798
-0.003722999979748157,0.009238724031866792
-0.003722829979748157,0.008514625761266537
-0.003722659979748157,0.008580452876775531
-0.003722489979748157,0.008284230856985176
-0.003722319979748158,0.008053835952703575
-0.003722149979748157,0.005190356428062615
-0.003721979979748157,0.008679193550039321
-0.003721809979748157,0.006836034315784124
-0.003721639979748157,0.007066429220065605
-0.003721469979748157,0.00627650383395809
-0.003721299979748158,0.006243590276202216
-0.003721129979748157,0.00630941739171103
-0.003720959979748157,0.006210676718447538
-0.003720789979748157,0.005782800467638296
-0.003720619979748157,0.005914454698656285
-0.003720449979748157,0.005782800467638536
-0.003720279979748158,0.005223269985812861
-0.003720109979748158,0.005684059794372948
-0.003719939979748157,0.005519492005601839
-0.003719769979748157,0.007724700375157166
-0.003719599979748157,0.004433344599707442
