Analysis/New Tests_CMB/wrd01_d2s01/cmb06_ch03.csv

#Digilent WaveForms Oscilloscope Acquisition
#Device Name: ADP3450
#Serial Number: SN:210018B9D9B0
#Date Time: 2024-08-14 15:35:21.345.148.130
#Sample rate: 5.88235e+06Hz
#Samples: 32768
#Trigger: Source: Channel 3 Type: Edge Condition: Rising Level: 30 mV Hyst.: Auto HoldOff: 0 s
#Channel 3: Range: 100 mV/div Offset: 0 V Attenuation: 1 X Coupling: DC Bandwidth: 0 Hz Sample Mode: Average

Time (s),Channel 3 (V)
-0.003798511230430348,0.1570535119075828
-0.003798341230430348,0.1749584873260293
-0.003798171230430348,0.1917444017808554
-0.003798001230430348,0.2072466874832259
-0.003797831230430347,0.2216299122220476
-0.003797661230430347,0.2347295082083375
-0.003797491230430348,0.2458213771716233
-0.003797321230430348,0.2556296173824635
-0.003797151230430348,0.2633643034547882
-0.003796981230430348,0.272152223375237
-0.003796811230430347,0.2739295554940203
-0.003796641230430347,0.2768259485764161
-0.003796471230430348,0.2788336755994441
-0.003796301230430348,0.2789653298304621
-0.003796131230430348,0.2788336755994443
-0.003795961230430348,0.2776158739625299
-0.003795791230430347,0.2757398011705113
-0.003795621230430347,0.2733700250121875
-0.003795451230430348,0.2702103234677501
-0.003795281230430348,0.2668202270190368
-0.003795111230430348,0.262738945857473
-0.003794941230430348,0.2594146765242675
-0.003794771230430348,0.2553663089204595
-0.003794601230430347,0.2515812497786707
-0.003794431230430348,0.2472037465973147
-0.003794261230430348,0.243517428128811
-0.003794091230430348,0.2391399249474561
-0.003793921230430348,0.2351902980169157
-0.003793751230430348,0.2312406710863689
-0.003793581230430347,0.227192303482544
-0.003793411230430348,0.2232097629942425
-0.003793241230430348,0.2195563580834933
-0.003793071230430348,0.2155738175951925
-0.003792901230430348,0.2116241906646528
-0.003792731230430348,0.2078062179651237
-0.003792561230430347,0.2044161215163904
-0.003792391230430348,0.2020792589158169
-0.003792221230430348,0.1980967184275227
-0.003792051230430348,0.1949370168830837
-0.003791881230430348,0.1921064509161912
-0.003791711230430348,0.1891442307182867
-0.003791541230430347,0.1865769732134205
-0.003791371230430348,0.183417271668983
-0.003791201230430348,0.1806196192598507
-0.003791031230430348,0.1779207075239769
-0.003790861230430348,0.1752876229036122
-0.003790691230430348,0.1722924891479536
-0.003790521230430347,0.1688694791414687
-0.003790351230430348,0.1665984436564043
-0.003790181230430348,0.1637349641317578
-0.003790011230430348,0.1609702252803801
-0.003789841230430348,0.1581396593134883
-0.003789671230430348,0.1559015373861814
-0.003789501230430347,0.1529393171882631
-0.003789331230430347,0.1507670223764623
-0.003789161230430348,0.1481010241983432
-0.003788991230430348,0.1453033717892109
-0.003788821230430348,0.1423082380335466
-0.003788651230430348,0.1398726347597128
-0.003788481230430347,0.1367458467730165
-0.003788311230430347,0.1342444163836747
-0.003788141230430348,0.132137948687383
-0.003787971230430348,0.1300643945488497
-0.003787801230430348,0.1282870624301031
-0.003787631230430348,0.1253248422322005
-0.003787461230430347,0.1221980542455062
-0.003787291230430347,0.1218689186679612
-0.003787121230430348,0.1206840305887971
-0.003786951230430348,0.1183471679882279
-0.003786781230430348,0.1160432189454088
-0.003786611230430348,0.1142329732689106
-0.003786441230430347,0.1125214682656637
-0.003786271230430347,0.1107112225891664
-0.003786101230430348,0.1090984582591931
-0.003785931230430348,0.1069919905629052
-0.003785761230430348,0.1048196957511046
-0.003785591230430348,0.1038322890184675
-0.003785421230430347,0.1021207840152255
-0.003785251230430347,0.1013308586291176
-0.003785081230430348,0.1006067603585173
-0.003784911230430348,0.09932313160609194
-0.003784741230430348,0.09757871304510125
-0.003784571230430348,0.09586720804186734
-0.003784401230430348,0.09438609794291142
-0.003784231230430347,0.09290498784395096
-0.003784061230430348,0.09155553197601413
-0.003783891230430348,0.08961363206849877
-0.003783721230430348,0.08869205245136934
-0.003783551230430348,0.0866184983128381
-0.003783381230430348,0.08477533907858205
-0.003783211230430347,0.08286635272881104
-0.003783041230430348,0.08148398330311965
-0.003782871230430348,0.08003578676192177
-0.003782701230430348,0.07875215800949373
-0.003782531230430348,0.07697482589075177
-0.003782361230430348,0.07575702425383114
-0.003782191230430347,0.07552662934954479
-0.003782021230430348,0.07358472944202593
-0.003781851230430348,0.07279480405591801
-0.003781681230430348,0.07207070578531762
-0.003781511230430348,0.07068833635962742
-0.003781341230430348,0.07006297876229059
-0.003781171230430347,0.06914139914516074
-0.003781001230430348,0.06831856020129681
-0.003780831230430348,0.06719949923764389
-0.003780661230430348,0.06644248740928842
-0.003780491230430348,0.0658500433697061
-0.003780321230430348,0.06482972307931746
-0.003780151230430347,0.06374357567341335
-0.003779981230430348,0.06308530451832223
-0.003779811230430348,0.06157128086161259
-0.003779641230430348,0.06094592326427715
-0.003779471230430348,0.06018891143592257
-0.003779301230430348,0.05903693691451588
-0.003779131230430347,0.05821409797064777
-0.003778961230430347,0.05739125902678384
-0.003778791230430348,0.05666716075618358
-0.003778621230430348,0.05571266758130317
-0.003778451230430348,0.05564684046579244
-0.003778281230430348,0.0549227421951947
-0.003778111230430347,0.05808244373962038
-0.003777941230430347,0.0530466694031823
-0.003777771230430348,0.05291501517216408
-0.003777601230430348,0.05219091690156514
-0.003777431230430348,0.05153264574647388
-0.003777261230430348,0.05110476949566499
-0.003777091230430347,0.0506110661293443
-0.003776921230430347,0.05018318987853584
-0.003776751230430348,0.04945909160793558
-0.003776581230430348,0.04916286958814511
-0.003776411230430348,0.04883373401059959
-0.003776241230430348,0.047780500162457
-0.003776071230430347,0.04774758660469801
-0.003775901230430347,0.04741845102715304
-0.003775731230430348,0.04682600698757101
-0.003775561230430348,0.04672726631430752
-0.003775391230430348,0.04554237823514544
-0.003775221230430348,0.04494993419556341
-0.003775051230430347,0.04383087323190463
-0.003774881230430347,0.04290929361477872
-0.003774711230430348,0.04179023265112377
-0.003774541230430348,0.04050660389869838
-0.003774371230430348,0.03915714803076166
-0.003774201230430348,0.0385317904334249
-0.003774031230430347,0.03741272946976713
-0.003773861230430347,0.03711650744997666
-0.003773691230430348,0.03652406341039464
-0.003773521230430348,0.03566831090877771
-0.003773351230430348,0.03556957023551266
-0.003773181230430348,0.03520752110021367
-0.003773011230430348,0.03517460754245791
-0.003772841230430347,0.034713817733894
-0.003772671230430348,0.03507586686919412
-0.003772501230430348,0.03497712619593063
-0.003772331230430348,0.03543791600449341
-0.003772161230430348,0.03589870581305637
-0.003771991230430348,0.03619492783284799
-0.003771821230430347,0.03635949562162185
-0.003771651230430348,0.03672154475692198
-0.003771481230430348,0.03688611254569447
-0.003771311230430348,0.03616201427509583
-0.003771141230430348,0.0360632736018312
-0.003770971230430348,0.03540500244674209
-0.003770801230430347,0.03593161937081261
-0.003770631230430348,0.03477964484940311
-0.003770461230430348,0.03441759571410364
-0.003770291230430348,0.03366058388574954
-0.003770121230430348,0.03300231273065823
-0.003769951230430348,0.03194907888251503
-0.003769781230430347,0.0310274992653836
-0.003769611230430348,0.02990843830172865
-0.003769441230430348,0.0291843400311284
-0.003769271230430348,0.02839441464502046
-0.003769101230430348,0.02796653839421056
-0.003768931230430348,0.02724244012361217
-0.003768761230430347,0.02760448925890966
-0.003768591230430348,0.02355612165509913
-0.003768421230430348,0.0266499960840275
-0.003768251230430348,0.02635377406423703
-0.003768081230430348,0.02586007069791903
-0.003767911230430348,0.02553093512037376
-0.003767741230430347,0.02513597242731841
-0.003767571230430347,0.02543219444710889
-0.003767401230430348,0.02513597242731788
-0.003767231230430348,0.02562967579363533
-0.003767061230430348,0.02559676223588173
-0.003766891230430348,0.0255309351203728
-0.003766721230430347,0.02615629271770843
-0.003766551230430347,0.02576133002465446
-0.003766381230430348,0.02612337915995459
-0.003766211230430348,0.02645251473749956
-0.003766041230430348,0.02694621810381762
-0.003765871230430348,0.02767031637441614
-0.003765701230430347,0.02803236550971974
-0.003765531230430347,0.0284931553182827
-0.003765361230430348,0.02832858752950991
-0.003765191230430348,0.02822984685624642
-0.003765021230430348,0.02701204521932984
-0.003764851230430348,0.02888811801133056
-0.003764681230430347,0.02661708252627414
-0.003764511230430347,0.02727535368136409
-0.003764341230430348,0.0271107858925913
-0.003764171230430348,0.02651834185301035
-0.003764001230430348,0.02602463848669181
-0.003763831230430348,0.02516888598507554
-0.003763661230430347,0.02490557752303448
-0.003763491230430347,0.02408273857917205
-0.003763321230430348,0.02349029453959002
-0.003763151230430348,0.02276619626899108
-0.003762981230430348,0.02293076405776225
-0.003762811230430348,0.02217375222941049
-0.003762641230430348,0.02174587597860005
-0.003762471230430347,0.02158130818982571
-0.003762301230430348,0.02121925905452558
-0.003762131230430348,0.02108760482350759
-0.003761961230430348,0.02042933366841741
-0.003761791230430348,0.02072555568820614
-0.003761621230430348,0.02072555568820722
-0.003761451230430347,0.02056098789943444
-0.003761281230430348,0.02082429636147089
-0.003761111230430348,0.02085720991922539
-0.003760941230430348,0.02121925905452492
-0.003760771230430348,0.02108760482350783
-0.003760601230430348,0.02154839463206948
-0.003760431230430347,0.02184461665186217
-0.003760261230430348,0.02181170309410761
-0.003760091230430348,0.02197627088288009
-0.003759921230430348,0.0218775302096169
-0.003759751230430348,0.02135091328554477
-0.003759581230430348,0.02148256751656156
-0.003759411230430347,0.02125217261228014
-0.003759241230430348,0.02372068944387192
-0.003759071230430348,0.02029767943740421
-0.003758901230430348,0.02065972857269745
-0.003758731230430348,0.02010019809087165
-0.003758561230430348,0.01960649472455408
-0.003758391230430347,0.01973814895557051
-0.003758221230430348,0.01957358116679772
-0.003758051230430348,0.01888239645395202
-0.003757881230430348,0.01868491510742504
-0.003757711230430348,0.01825703885661622
-0.003757541230430348,0.01835577952987875
-0.003757371230430347,0.01789498972131549
-0.003757201230430347,0.01799373039457898
-0.003757031230430348,0.01766459481703341
-0.003756861230430348,0.01759876770152442
-0.003756691230430348,0.01733545923948832
-0.003756521230430348,0.01736837279724228
-0.003756351230430347,0.01726963212397891
-0.003756181230430347,0.0173683727972424
-0.003756011230430348,0.01766459481703341
-0.003755841230430348,0.01759876770152442
-0.003755671230430348,0.01753294058601531
-0.003755501230430348,0.01726963212397968
-0.003755331230430347,0.01753294058601578
-0.003755161230430347,0.01786207616356076
-0.003754991230430348,0.01845452020314278
-0.003754821230430348,0.01898113712721474
-0.003754651230430348,0.01838869308763475
-0.003754481230430348,0.0200014574176011
-0.003754311230430347,0.01993563030209851
-0.003754141230430347,0.02029767943739798
-0.003753971230430348,0.02075846924596178
-0.003753801230430348,0.0205609878994348
-0.003753631230430348,0.02056098789943444
-0.003753461230430348,0.02029767943739894
-0.003753291230430347,0.02000145741760661
-0.003753121230430347,0.01980397607107963
-0.003752951230430348,0.02026476587964342
-0.003752781230430348,0.02013311164862543
-0.003752611230430348,0.01954066760904425
-0.003752441230430348,0.0198368896288331
-0.003752271230430348,0.01924444558925431
-0.003752101230430347,0.01950775405128861
-0.003751931230430348,0.01947484049353405
-0.003751761230430348,0.01907987780048009
-0.003751591230430348,0.01927735914700635
-0.003751421230430348,0.01937609982027002
-0.003751251230430348,0.01914570491598932
-0.003751081230430347,0.01891531001170658
-0.003750911230430348,0.01838869308763367
-0.003750741230430348,0.01782916260580722
-0.003750571230430348,0.0178620761635607
-0.003750401230430348,0.01756585414377082
-0.003750231230430348,0.01753294058601531
-0.003750061230430347,0.01703923721969683
-0.003749891230430348,0.01671010164215126
-0.003749721230430348,0.02033059299514595
-0.003749551230430348,0.01572269490952292
-0.003749381230430348,0.01634805250684999
-0.003749211230430348,0.01572269490951682
-0.003749041230430347,0.01605183048706011
-0.003748871230430348,0.01592017625604189
-0.003748701230430348,0.01611765760256887
-0.003748531230430348,0.01611765760256923
-0.003748361230430348,0.01605183048706024
-0.003748191230430348,0.01582143558277905
-0.003748021230430347,0.01664427452664214
-0.003747851230430348,0.01578852202502366
-0.003747681230430348,0.01578852202502366
-0.003747511230430348,0.01572269490951466
-0.003747341230430348,0.01595308981379602
-0.003747171230430348,0.01641387962235857
-0.003747001230430347,0.01654553385337847
-0.003746831230430347,0.01671010164215126
-0.003746661230430348,0.01680884231541493
-0.003746491230430348,0.01661136096888794
-0.003746321230430348,0.01674301519990557
-0.003746151230430348,0.01641387962236144
-0.003745981230430347,0.01657844741113225
-0.003745811230430347,0.01615057116032378
-0.003745641230430348,0.01674301519990581
-0.003745471230430348,0.01667718808439682
-0.003745301230430348,0.01684175587316919
-0.003745131230430348,0.01631513894909849
-0.003744961230430347,0.01624931183358727
-0.003744791230430347,0.01615057116032378
-0.003744621230430348,0.01615057116032378
-0.003744451230430348,0.01549230000523384
-0.003744281230430348,0.01552521356298714
-0.003744111230430348,0.01562395423625051
-0.003743941230430347,0.01578852202502395
-0.003743771230430347,0.01595308981379644
-0.003743601230430348,0.01562395423625087
-0.003743431230430348,0.0152948186587059
-0.003743261230430348,0.01539355933196879
-0.003743091230430348,0.01536064577421453
-0.003742921230430347,0.01526190510095104
-0.003742751230430347,0.01542647288972353
-0.003742581230430348,0.0157556084672691
-0.003742411230430348,0.01605183048705958
-0.003742241230430348,0.01598600337155112
-0.003742071230430348,0.01661136096888531
-0.003741901230430348,0.01710506433520415
-0.003741731230430347,0.01746711347050607
-0.003741561230430348,0.01792790327906987
-0.003741391230430348,0.01832286597212384
-0.003741221230430348,0.01815829818335207
-0.003741051230430348,0.01858617443415945
-0.003740881230430348,0.01868491510742432
-0.003740711230430347,0.01848743376089734
-0.003740541230430348,0.01819121174110632
-0.003740371230430348,0.01674301519990845
-0.003740201230430348,0.01723671856622327
-0.003740031230430348,0.01776333549029517
-0.003739861230430348,0.01815829818335033
-0.003739691230430347,0.01743419991275151
-0.003739521230430348,0.01651262029562391
-0.003739351230430348,0.01641387962236042
-0.003739181230430348,0.01624931183358775
-0.003739011230430348,0.01628222539134196
-0.003738841230430348,0.01611765760256983
-0.003738671230430347,0.0162163982758329
-0.003738501230430348,0.01595308981379644
-0.003738331230430348,0.01496568308116152
-0.003738161230430348,0.01493276952340523
-0.003737991230430348,0.01470237461912369
-0.003737821230430348,0.01443906615708777
-0.003737651230430347,0.01480111529238694
-0.003737481230430348,0.01493276952340517
-0.003737311230430348,0.01592017625604189
-0.003737141230430348,0.01552521356298792
-0.003736971230430348,0.0155910406784962
-0.003736801230430348,0.01605183048705844
-0.003736631230430347,0.01578852202502366
-0.003736461230430347,0.01588726269828733
-0.003736291230430348,0.01605183048706011
-0.003736121230430348,0.01595308981379662
-0.003735951230430348,0.01638096606460491
-0.003735781230430348,0.01644679318011456
-0.003735611230430347,0.01621639827583236
-0.003735441230430347,0.01592017625604189
-0.003735271230430348,0.01532773221645986
-0.003735101230430348,0.01529481865870536
-0.003734931230430348,0.0152619051009508
-0.003734761230430348,0.01493276952340637
-0.003734591230430347,0.01453780683035025
-0.003734421230430347,0.01440615259933226
-0.003734251230430348,0.0146036339458596
-0.003734081230430348,0.01453780683035061
-0.003733911230430348,0.01473528817687747
-0.003733741230430348,0.01499859663891333
-0.003733571230430347,0.01565686779400603
-0.003733401230430347,0.015986003371551
-0.003733231230430348,0.0162163982758329
-0.003733061230430348,0.01657844741113237
-0.003732891230430348,0.01700632366194149
-0.003732721230430348,0.01690758298867896
-0.003732551230430347,0.01726963212397981
-0.003732381230430347,0.01786207616356076
-0.003732211230430348,0.01750002702826063
-0.003732041230430348,0.01802664395233258
-0.003731871230430348,0.01838869308763301
-0.003731701230430348,0.01835577952987923
-0.003731531230430348,0.0179937303945803
-0.003731361230430347,0.01786207616356076
-0.003731191230430348,0.01743419991275151
-0.003731021230430348,0.01766459481703299
-0.003730851230430348,0.01397827634852972
-0.003730681230430348,0.01680884231540463
-0.003730511230430348,0.01684175587316936
-0.003730341230430347,0.01684175587316948
-0.003730171230430348,0.0164467931801148
-0.003730001230430348,0.01638096606460581
-0.003729831230430348,0.01657844741113267
-0.003729661230430348,0.01661136096888746
-0.003729491230430348,0.01634805250685209
-0.003729321230430347,0.01674301519990581
-0.003729151230430348,0.01680884231541493
-0.003728981230430348,0.01677592875766043
-0.003728811230430348,0.01707215077745085
-0.003728641230430348,0.01677592875766145
-0.003728471230430348,0.01750002702825799
-0.003728301230430347,0.01799373039457898
-0.003728131230430348,0.01789498972131531
-0.003727961230430348,0.01852034731865076
-0.003727791230430348,0.01868491510742439
-0.003727621230430348,0.01924444558925114
-0.003727451230430348,0.01954066760904209
-0.003727281230430347,0.01973814895557051
-0.003727111230430348,0.01963940828230684
-0.003726941230430348,0.02033059299515254
-0.003726771230430348,0.02010019809087106
-0.003726601230430348,0.02065972857269709
-0.003726431230430348,0.01996854385985493
-0.003726261230430347,0.01977106251332507
-0.003726091230430347,0.01947484049353405
-0.003725921230430348,0.01884948289619747
-0.003725751230430348,0.0184545202031435
-0.003725581230430348,0.01786207616356184
-0.003725411230430348,0.01743419991275307
-0.003725241230430347,0.017137977892959
-0.003725071230430347,0.01631513894909657
-0.003724901230430348,0.01539355933196897
-0.003724731230430348,0.01460363394586104
-0.003724561230430348,0.0134516594244522
-0.003724391230430348,0.01335291875118679
-0.003724221230430347,0.01276047471160386
-0.003724051230430347,0.01246425269181339
-0.003723881230430348,0.01233259846079516
-0.003723711230430348,0.01213511711426818
-0.003723541230430348,0.0122996849030403
-0.003723371230430348,0.01305669673139266
-0.003723201230430347,0.0132870916356781
-0.003723031230430347,0.01371496788648656
-0.003722861230430348,0.01424158481055947
-0.003722691230430348,0.0151302508699309
-0.003722521230430348,0.01499859663891453
-0.003722351230430348,0.01575560846726634
-0.003722181230430347,0.01598600337155064
-0.003722011230430347,0.01578852202502366
-0.003721841230430348,0.0157556084672691
-0.003721671230430348,0.01595308981379608
-0.003721501230430348,0.01496568308116152
-0.003721331230430348,0.01355040009771892
-0.003721161230430347,0.01509733731217927
-0.003720991230430347,0.01582143558277821
-0.003720821230430348,0.0155252135629872
-0.003720651230430348,0.01588726269828667
-0.003720481230430348,0.01559104067849685
-0.003720311230430348,0.01489985596565313
-0.003720141230430348,0.01522899154319499
-0.003719971230430347,0.01466946106136872
-0.003719801230430348,0.01496568308115973
-0.003719631230430348,0.01348457298220735
-0.003719461230430348,0.01355040009771365
-0.003719291230430348,0.01394536279076702
-0.003719121230430348,0.0131883509624164
-0.003718951230430347,0.01351748653995922
