Analysis/New Tests_CMB/wrd01_d2s01/cmb07_ch06.csv

#Digilent WaveForms Oscilloscope Acquisition
#Device Name: ADP3450
#Serial Number: SN:210018B9D9B0
#Date Time: 2024-08-15 12:21:51.469.683.300
#Sample rate: 5.88235e+06Hz
#Samples: 32768
#Trigger: Source: Channel 3 Type: Edge Condition: Rising Level: 40 mV Hyst.: Auto HoldOff: 0 s
#Channel 3: Range: 100 mV/div Offset: 0 V Attenuation: 1 X Coupling: DC Bandwidth: 0 Hz Sample Mode: Average

Time (s),Channel 3 (V)
-0.003168981473868323,0.009534946051657807
-0.003168811473868323,0.009139983358602404
-0.003168641473868323,0.008745020665548437
-0.003168471473868323,0.00811966306821185
-0.003168301473868323,0.007593046144138698
-0.003168131473868323,0.007461391913120709
-0.003167961473868323,0.00756013258638438
-0.003167791473868323,0.00723099700883857
-0.003167621473868323,0.007099342777820581
-0.003167451473868323,0.007362651239857037
-0.003167281473868323,0.007461391913120828
-0.003167111473868323,0.007527219028629823
-0.003166941473868323,0.008317144414739193
-0.003166771473868323,0.008415885088003583
-0.003166601473868323,0.00881084778105755
-0.003166431473868323,0.007856354606175394
-0.003166261473868323,0.009995735860221726
-0.003166091473868323,0.01006156297573072
-0.003165921473868323,0.008942502012075779
-0.003165751473868323,0.008975415569830815
-0.003165581473868323,0.009238724031866792
-0.003165411473868323,0.009172896916357679
-0.003165241473868324,0.00881084778105821
-0.003165071473868323,0.008415885088002865
-0.003164901473868323,0.007955095279439066
-0.003164731473868324,0.00765887325964859
-0.003164561473868323,0.007230997008838809
-0.003164391473868323,0.00677020720027501
-0.003164221473868324,0.00617776316069406
-0.003164051473868323,0.005684059794374625
-0.003163881473868323,0.006046108929674754
-0.003163711473868324,0.005947368256411262
-0.003163541473868323,0.005256183543565383
-0.003163371473868323,0.005453664890092726
-0.003163201473868324,0.004927047966020769
-0.003163031473868323,0.005091615754792597
-0.003162861473868323,0.005618232678865511
-0.003162691473868324,0.006046108929673976
-0.003162521473868323,0.006144849602938425
-0.003162351473868323,0.006441071622729439
-0.003162181473868324,0.006441071622729439
-0.003162011473868323,0.006210676718447538
-0.003161841473868323,0.00630941739171121
-0.003161671473868323,0.006638552969256183
-0.003161501473868323,0.006408158064974882
-0.003161331473868323,0.00607902248742931
-0.003161161473868323,0.00584862758314783
-0.003160991473868323,0.005848627583147411
-0.003160821473868323,0.005782800467638296
-0.003160651473868323,0.005914454698656525
-0.003160481473868323,0.005618232678865511
-0.003160311473868323,0.005716973352129182
-0.003160141473868323,0.005223269985810825
-0.003159971473868323,0.004663739503983355
-0.003159801473868323,0.00380798700236487
-0.003159631473868323,0.003380110751555628
-0.003159461473868323,0.00282058026972696
-0.003159291473868323,0.002162309114637015
-0.003159121473868323,0.00176734642158233
-0.003158951473868323,0.001471124401790178
-0.003158781473868323,0.0008457668044547304
-0.003158611473868323,0.0004508041114000451
-0.003158441473868323,0.0007470261311906999
-0.003158271473868323,0.0005495447846637165
-0.003158101473868323,0.0009445074777184018
-0.003157931473868323,0.001833173537092042
-0.003157761473868323,0.002162309114637015
-0.003157591473868323,0.002491444692182586
-0.003157421473868323,0.002590185365447514
-0.003157251473868323,0.003281370078291956
-0.003157081473868323,0.003149715847273728
-0.003156911473868323,0.004104209022156662
-0.003156741473868323,0.004532085272965126
-0.003156571473868323,0.004630825946228797
-0.003156401473868323,0.004992875081529165
-0.003156231473868323,0.005124529312547154
-0.003156061473868323,0.004532085272965126
-0.003155891473868323,0.003445937867063126
-0.003155721473868323,0.0025572718076917
-0.003155551473868323,0.001899000652600558
-0.003155381473868323,0.001010334593226558
-0.003155211473868323,0.0004837176691546022
-0.003155041473868323,-0.0001087263704274257
-0.003154871473868324,-0.0002732941591999119
-0.003154701473868323,-0.0004378619479729968
-0.003154531473868323,-0.0004707755057275538
-0.003154361473868324,-0.0004049483902185594
-0.003154191473868323,-0.0007999110832731249
-0.003154021473868323,-0.000832824641027682
-0.003153851473868324,-0.0005695161789917042
-0.003153681473868323,-0.001161960218573253
-0.003153511473868323,-0.0008986517565367963
-0.003153341473868324,-0.0009644788720457908
-0.003153171473868323,-0.001063219545309582
-0.003153001473868323,-0.0006353432945003394
-0.003152831473868324,-0.0001416399281828809
-0.003152661473868323,-0.0006353432945003394
-0.003152491473868323,-7.581281267286857e-05
-0.003152321473868324,-0.0004378619479723382
-0.003152151473868323,-0.0002732941592002112
-0.003151981473868323,-9.985697163754359e-06
-0.003151811473868324,-9.985697163754359e-06
-0.003151641473868323,-0.0001745534859365399
-0.003151471473868323,-7.581281267286857e-05
-0.003151301473868324,-0.0002074670436908575
-0.003151131473868323,-0.0002732941592002112
-0.003150961473868323,-0.0001087263704274257
-0.003150791473868323,-0.0003391212747089063
-0.003150621473868323,0.0006482854579273878
-0.003150451473868323,0.001240729497509416
-0.003150281473868323,0.001043248150982073
-0.003150111473868323,0.001569865075054987
-0.003149941473868323,0.001240729497509416
-0.003149771473868323,0.002195222672391572
-0.003149601473868323,0.002359790461164357
-0.003149431473868323,0.002656012480955371
-0.003149261473868323,0.002293963345655243
-0.003149091473868323,0.002524358249937143
-0.003148921473868323,0.001931914210355115
-0.003148751473868323,0.002228136230146129
-0.003148581473868323,0.00249144469218055
-0.003148411473868323,0.001372383728527644
-0.003148241473868323,0.0006482854579273878
-0.003148071473868323,0.0001874956493626304
-0.003147901473868323,-0.0003391212747093254
-0.003147731473868323,-0.0009315653142913533
-0.003147561473868323,-0.001425268680610249
-0.003147391473868323,-0.001721490700400724
-0.003147221473868323,-0.002313934739982752
-0.003147051473868323,-0.00244558897100116
-0.003146881473868323,-0.002544329644264652
-0.003146711473868323,-0.002544329644264652
-0.003146541473868323,-0.002807638106301707
-0.003146371473868323,-0.00313677368384668
-0.003146201473868323,-0.00313677368384668
-0.003146031473868323,-0.002741810990790797
-0.003145861473868323,-0.002083539835700852
-0.003145691473868323,-0.002281021182228195
-0.003145521473868323,-0.001589836469381178
-0.003145351473868323,-0.0008657381987822392
-0.003145181473868323,-0.001030305987555025
-0.003145011473868323,-0.0008328246410264248
-0.003144841473868323,-0.0001416399281819828
-0.003144671473868323,-0.000207467043691097
-0.003144501473868323,0.0002204092071190434
-0.003144331473868323,0.000714112573436502
-0.003144161473868323,0.001207815939754859
-0.003143991473868324,0.0009445074777188808
-0.003143821473868323,0.0005166312269091594
-0.003143651473868323,0.0004508041114000451
-0.003143481473868324,5.584141834607832e-05
-0.003143311473868323,-0.0002403806014456541
-0.003143141473868323,-0.0009315653142913533
-0.003142971473868324,-0.001622750027135795
-0.003142801473868323,-0.001754404258155281
-0.003142631473868323,-0.002313934739982752
-0.003142461473868324,-0.002050626277946774
-0.003142291473868323,-0.00244558897100098
-0.003142121473868323,-0.003038033010583008
-0.003141951473868324,-0.003202600799355494
-0.003141781473868323,-0.00313677368384668
-0.003141611473868323,-0.002774724548546551
-0.003141441473868324,-0.002610156759774065
-0.003141271473868323,-0.002379761855491866
-0.003141101473868323,-0.002544329644264652
-0.003140931473868324,-0.001984799162438199
-0.003140761473868323,-0.002116453393455409
-0.003140591473868323,-0.001688577142646167
-0.003140421473868323,-0.001524009353873681
-0.003140251473868323,-0.001491095796118824
-0.003140081473868323,-0.001392355122855153
-0.003139911473868323,-0.001524009353873381
-0.003139741473868323,-0.00165566358489161
-0.003139571473868323,-0.002215194066719081
-0.003139401473868323,-0.002741810990791994
-0.003139231473868323,-0.00267598387528288
-0.003139061473868323,-0.00313677368384668
-0.003138891473868323,-0.003531736376901365
-0.003138721473868323,-0.003992526185465165
-0.003138551473868323,-0.003827958396692379
-0.003138381473868323,-0.004058353300974278
-0.003138211473868323,-0.004255834647500663
-0.003138041473868323,-0.003729217723428708
-0.003137871473868323,-0.003465909261392251
-0.003137701473868323,-0.003432995703637035
-0.003137531473868323,-0.003070946568337565
-0.003137361473868323,-0.003202600799355794
-0.003137191473868323,-0.002511416086509376
-0.003137021473868323,-0.002116453393455409
-0.003136851473868323,-0.0008986517565367963
-0.003136681473868323,-0.0005036890634812129
-0.003136511473868323,-9.985697163754359e-06
-0.003136341473868323,0.0009774210354729588
-0.003136171473868323,0.001438210844037477
-0.003136001473868323,0.001833173537091444
-0.003135831473868323,0.001997741325864229
-0.003135661473868323,0.001767346421583946
-0.003135491473868323,0.002656012480955371
-0.003135321473868323,0.0025572718076917
-0.003135151473868323,0.003248456520537818
-0.003134981473868323,0.003478851424819299
-0.003134811473868323,0.003939641233383098
-0.003134641473868323,0.004005468348891554
-0.003134471473868323,0.003643419213592085
-0.003134301473868323,0.003511764982573856
-0.003134131473868323,0.003445937867064682
-0.003133961473868323,0.003413024309310185
-0.003133791473868323,0.0030180616162555
-0.003133621473868324,0.002853493827483013
-0.003133451473868323,0.002096481999127901
-0.003133281473868323,0.002063568441373343
-0.003133111473868324,0.001306556613019907
-0.003132941473868323,0.0006482854579273878
-0.003132771473868323,-0.0001745534859365399
-0.003132601473868324,-0.000602429736745004
-0.003132431473868323,-0.001392355122855153
-0.003132261473868323,-0.001918972046928067
-0.003132091473868324,-0.002313934739982033
-0.003131921473868323,-0.00267598387528288
-0.003131751473868323,-0.001853144931418952
-0.003131581473868324,-0.002610156759772389
-0.003131411473868323,-0.002577243202019209
-0.003131241473868323,-0.002313934739982752
-0.003131071473868324,-0.002017712720192277
-0.003130901473868323,-0.002215194066719081
-0.003130731473868323,-0.002083539835700852
-0.003130561473868324,-0.002643070317527305
-0.003130391473868323,-0.002610156759773766
-0.003130221473868323,-0.003038033010583008
-0.003130051473868324,-0.003103860126092003
-0.003129881473868323,-0.003432995703637694
-0.003129711473868323,-0.003597563492410479
-0.003129541473868323,-0.00346590926139249
-0.003129371473868323,-0.003202600799355794
-0.003129201473868323,-0.003070946568337565
-0.003129031473868323,-0.002873465221810222
-0.003128861473868323,-0.002708897433037437
-0.003128691473868323,-0.00267598387528288
-0.003128521473868323,-0.002116453393455409
-0.003128351473868323,-0.002149366951209966
-0.003128181473868323,-0.00244558897100098
-0.003128011473868323,-0.002017712720191738
-0.003127841473868323,-0.002116453393455828
-0.003127671473868323,-0.002346848297737309
-0.003127501473868323,-0.002050626277946295
-0.003127331473868323,-0.002083539835702528
-0.003127161473868323,-0.003005119452828451
-0.003126991473868323,-0.002182280508964523
-0.003126821473868323,-0.002379761855491028
-0.003126651473868323,-0.001918972046928067
-0.003126481473868323,-0.002050626277946295
-0.003126311473868323,-0.001622750027136693
-0.003126141473868323,-0.00142526868060971
-0.003125971473868323,-0.0008986517565367963
-0.003125801473868323,-0.0007011704100094536
-0.003125631473868323,-0.0007011704100094536
-0.003125461473868323,-0.0008986517565367963
-0.003125291473868323,-0.001260700891839319
-0.003125121473868323,-0.002577243202019209
-0.003124951473868323,-0.001293614449591481
-0.003124781473868323,-0.0007999110832740229
-0.003124611473868323,-0.001293614449591481
-0.003124441473868323,-0.001293614449591481
-0.003124271473868323,-0.0009973924297996893
-0.003124101473868323,-0.0005695161789912252
-0.003123931473868323,-0.0005695161789912252
-0.003123761473868323,-0.0004378619479728172
-0.003123591473868323,-0.0003391212747093254
-0.003123421473868323,0.0002862363226272596
-0.003123251473868324,-9.985697163215511e-06
-0.003123081473868323,0.0003520634381363738
-0.003122911473868323,0.0001874956493635883
-0.003122741473868324,0.0001874956493635883
-0.003122571473868323,-0.000207467043691097
-0.003122401473868323,-0.001491095796118824
-0.003122231473868324,-0.000635343294501896
-0.003122061473868323,-0.001326528007346039
-0.003121891473868323,-0.001458182238364267
-0.003121721473868324,-0.0003062077169568636
-0.003121551473868323,-0.002017712720191738
-0.003121381473868323,-0.002149366951209966
-0.003121211473868324,-0.0007340839677665851
-0.003121041473868323,-0.0002732941592002112
-0.003120871473868323,-0.0005036890634821109
-0.003120701473868324,-0.0004707755057276137
-0.003120531473868323,0.0003191498803818167
-0.003120361473868323,0.0002533227648727025
-0.003120191473868324,0.0005824583424176748
-0.003120021473868323,0.000714112573436502
-0.003119851473868323,0.00107616170873663
-0.003119681473868324,0.0008786803622096468
-0.003119511473868323,0.0006153719001728307
-0.003119341473868323,0.0009774210354729588
-0.003119171473868323,0.001174902381999942
-0.003119001473868323,0.0008786803622092876
-0.003118831473868323,0.001240729497509416
-0.003118661473868323,0.001174902382000301
-0.003118491473868323,0.001141988824245744
-0.003118321473868323,0.001405297286282201
-0.003118151473868323,0.001174902382000301
-0.003117981473868323,0.0006153719001728307
-0.003117811473868323,0.001010334593227516
-0.003117641473868323,0.0002533227648727025
-0.003117471473868323,0.0009774210354729588
-0.003117301473868323,0.0007470261311910591
-0.003117131473868323,0.0008457668044547304
-0.003116961473868323,0.000779939688944778
-0.003116791473868323,0.0003191498803818167
-0.003116621473868323,0.0006153719001728307
-0.003116451473868323,0.0002862363226271997
-0.003116281473868323,0.0002533227648727025
-0.003116111473868323,2.292786059080275e-05
-0.003115941473868323,0.0003520634381365534
-0.003115771473868323,0.0004508041114000451
-0.003115601473868323,0.0001545820916090312
-0.003115431473868323,2.292786059068301e-05
-0.003115261473868323,-4.289925491831147e-05
-0.003115091473868323,-0.0006353432945003394
-0.003114921473868323,-0.0009644788720456111
-0.003114751473868323,-0.0007999110832731249
-0.003114581473868323,-0.00119487377632781
-0.003114411473868323,-0.0007011704100085555
-0.003114241473868323,-0.000207467043691097
-0.003114071473868323,-0.0006682568522548965
-0.003113901473868323,8.875497609991696e-05
-0.003113731473868323,8.875497609991696e-05
-0.003113561473868323,0.0003520634381363738
-0.003113391473868323,0.0007141125734366217
-0.003113221473868323,0.0007799396889456162
-0.003113051473868323,0.001109075266491187
-0.003112881473868323,0.0005824583424187525
-0.003112711473868323,0.0008457668044547304
-0.003112541473868323,0.0001874956493635883
-0.003112371473868324,-4.289925491789237e-05
-0.003112201473868323,-0.0002403806014456541
-0.003112031473868323,-0.0004049483902184396
-0.003111861473868324,-0.001491095796116848
-0.003111691473868323,-0.001622750027137053
-0.003111521473868323,-0.002281021182228195
-0.003111351473868324,-0.002708897433036659
-0.003111181473868323,-0.003498822819146808
-0.003111011473868323,-0.003827958396692379
-0.003110841473868324,-0.004584970225045815
-0.003110671473868323,-0.00517741426462922
-0.003110501473868323,-0.005473636284420234
-0.003110331473868324,-0.005177414264629759
-0.003110161473868323,-0.005243241380138334
-0.003109991473868323,-0.004255834647501621
-0.003109821473868324,-0.003630477050166174
-0.003109651473868323,-0.003169687241601236
-0.003109481473868323,-0.002577243202019209
-0.003109311473868324,-0.002050626277947253
-0.003109141473868323,-0.001721490700400724
-0.003108971473868323,-0.001260700891836924
-0.003108801473868323,-0.0008986517565374548
-0.003108631473868323,-0.0001416399281819828
-0.003108461473868323,0.0002533227648727025
-0.003108291473868323,0.0002862363226271997
-0.003108121473868323,0.0004508041114000451
-0.003107951473868323,0.0006482854579273878
-0.003107781473868323,0.0006153719001728307
-0.003107611473868323,0.0006811990156819448
-0.003107441473868323,0.0005824583424182735
-0.003107271473868323,0.0009115939199638446
-0.003107101473868323,0.001043248150982073
-0.003106931473868323,0.00107616170873663
-0.003106761473868323,0.001273643055263973
-0.003106591473868323,0.000944507477717384
-0.003106421473868323,0.0003849769958909309
-0.003106251473868323,0.0001545820916090312
-0.003106081473868323,-0.0004049483902189186
-0.003105911473868323,-0.0006682568522548965
-0.003105741473868323,-0.000832824641027682
-0.003105571473868323,-0.001129046660818696
-0.003105401473868323,-0.001129046660818696
-0.003105231473868323,-0.001491095796118824
-0.003105061473868323,-0.001359441565101254
-0.003104891473868323,-0.001721490700400724
-0.003104721473868323,-0.002412675413246423
-0.003104551473868323,-0.002675983875283359
-0.003104381473868323,-0.002939292337319337
-0.003104211473868323,-0.002741810990791994
-0.003104041473868323,-0.002675983875283119
-0.003103871473868323,-0.002807638106301108
-0.003103701473868323,-0.002840551664055666
-0.003103531473868323,-0.002675983875284616
-0.003103361473868323,-0.003630477050165036
-0.003103191473868323,-0.004453315994028964
-0.003103021473868323,-0.004222921089748322
-0.003102851473868323,-0.004914105802592763
-0.003102681473868323,-0.005473636284420234
-0.003102511473868323,-0.005012846475856614
-0.003102341473868323,-0.005111587149120106
-0.003102171473868323,-0.005243241380138334
-0.003102001473868324,-0.004947019360347859
-0.003101831473868323,-0.004815365129329092
-0.003101661473868323,-0.004848278687083649
-0.003101491473868324,-0.00471662445606566
-0.003101321473868323,-0.004617883782801749
-0.003101151473868323,-0.00392669906995605
-0.003100981473868324,-0.002840551664057642
-0.003100811473868323,-0.002544329644264652
-0.003100641473868323,-0.001918972046928067
-0.003100471473868324,-0.001886058489173569
-0.003100301473868323,-0.00142526868060971
-0.003100131473868323,-0.00119487377632781
-0.003099961473868324,-0.001063219545309821
-0.003099791473868323,-0.000832824641027682
-0.003099621473868323,-0.0005366026212366681
-0.003099451473868324,-0.0001416399281827013
-0.003099281473868323,-9.985697163754359e-06
-0.003099111473868323,-9.985697163754359e-06
-0.003098941473868324,0.0004178905536447097
-0.003098771473868323,0.0001545820916090312
-0.003098601473868323,0.0005495447846637165
-0.003098431473868324,0.0005495447846637165
-0.003098261473868323,0.0009115939199638446
-0.003098091473868323,0.001174902382000301
-0.003097921473868323,0.001207815939754799
-0.003097751473868323,0.00176734642158233
-0.003097581473868323,0.001438210844036758
-0.003097411473868323,0.001734432863827772
-0.003097241473868323,0.001504037959545873
-0.003097071473868323,0.001569865075054987
-0.003096901473868323,0.00107616170873663
-0.003096731473868323,0.0005495447846637165
-0.003096561473868323,5.584141834535986e-05
-0.003096391473868323,-0.000207467043691097
-0.003096221473868323,-0.0007340839677640107
-0.003096051473868323,-0.001096133103064139
-0.003095881473868323,-0.002017712720191738
-0.003095711473868323,-0.002412675413247261
-0.003095541473868323,-0.002873465221810222
-0.003095371473868323,-0.00369630416567415
-0.003095201473868323,-0.004255834647502399
-0.003095031473868323,-0.004683710898310864
-0.003094861473868323,-0.004091266858728836
-0.003094691473868323,-0.004157093974237112
-0.003094521473868323,-0.00369630416567415
-0.003094351473868323,-0.00369630416567415
-0.003094181473868323,-0.003268427914863172
-0.003094011473868323,-0.002313934739982752
-0.003093841473868323,-0.003202600799355794
-0.003093671473868323,-0.002906378779564481
-0.003093501473868323,-0.002741810990791994
-0.003093331473868323,-0.002610156759773766
-0.003093161473868323,-0.002675983875283239
