Analysis/New Tests_CMB/wrd01_d2s01/cmb08_ch18.csv

#Digilent WaveForms Oscilloscope Acquisition
#Device Name: ADP3450
#Serial Number: SN:210018B9D9B0
#Date Time: 2024-08-06 16:50:24.092.443.730
#Sample rate: 2.94118e+06Hz
#Samples: 32768
#Trigger: Source: Channel 3 Type: Edge Condition: Rising Level: 60 mV Hyst.: Auto HoldOff: 0 s
#Channel 3: Range: 200 mV/div Offset: 0 V Attenuation: 1 X Coupling: DC Bandwidth: 0 Hz Sample Mode: Average

Time (s),Channel 3 (V)
-0.005570549165402124,0.0326402635953569
-0.005570209165402124,0.03198199244026462
-0.005569869165402124,0.03135663484292917
-0.005569529165402124,0.03027048743702878
-0.005569189165402124,0.02888811801133529
-0.005568849165402124,0.02773614348992789
-0.005568509165402124,0.02668290964178206
-0.005568169165402124,0.02615629271770801
-0.005567829165402124,0.02553093512037256
-0.005567489165402124,0.02497140463854509
-0.005567149165402124,0.02457644194548999
-0.005566809165402124,0.0243460470412085
-0.005566469165402124,0.02414856569468116
-0.005566129165402124,0.02467518261875402
-0.005565789165402124,0.02464226906099952
-0.005565449165402124,0.02487266396528142
-0.005565109165402124,0.0246751826187536
-0.005564769165402124,0.02441187415671762
-0.005564429165402124,0.02358903521285369
-0.005564089165402124,0.02302950473102497
-0.005563749165402124,0.02233832001818052
-0.005563409165402124,0.02181170309410761
-0.005563069165402125,0.02049516078392772
-0.005562729165402124,0.0196723218400614
-0.005562389165402124,0.01917861847374304
-0.005562049165402125,0.01878365578068907
-0.005561709165402124,0.01891531001170658
-0.005561369165402124,0.01954066760904317
-0.005561029165402125,0.02079138280371406
-0.005560689165402124,0.02158130818982571
-0.005560349165402124,0.02184461665186217
-0.005560009165402125,0.02158130818982619
-0.005559669165402124,0.02154839463207115
-0.005559329165402124,0.02158130818982571
-0.005558989165402125,0.02108760482350825
-0.005558649165402124,0.02125217261228014
-0.005558309165402124,0.02056098789943444
-0.005557969165402125,0.01960649472455402
-0.005557629165402124,0.01947484049353405
-0.005557289165402124,0.01954066760904317
-0.005556949165402125,0.02052807434167808
-0.005556609165402124,0.02128508617003469
-0.005556269165402124,0.02138382684329837
-0.005555929165402125,0.02174587597859784
-0.005555589165402124,0.02191044376737128
-0.005555249165402124,0.02177878953635305
-0.005554909165402125,0.02164713530533506
-0.005554569165402124,0.02187753020961672
-0.005554229165402124,0.02200918444063495
-0.005553889165402125,0.02250288780695331
-0.005553549165402124,0.02191044376737128
-0.005553209165402124,0.02019893876413431
-0.005552869165402124,0.01957358116679772
-0.005552529165402124,0.01842160664538823
-0.005552189165402124,0.01796081683682443
-0.005551849165402124,0.01796081683682443
-0.005551509165402124,0.01822412529886226
-0.005551169165402124,0.01898113712721569
-0.005550829165402124,0.01861908799191557
-0.005550489165402124,0.01977106251332638
-0.005550149165402124,0.02049516078392532
-0.005549809165402124,0.02112051838126191
-0.005549469165402124,0.02171296242084328
-0.005549129165402124,0.02135091328554381
-0.005548789165402124,0.02085720991922545
-0.005548449165402124,0.01934318626251307
-0.005548109165402124,0.0178291626058062
-0.005547769165402124,0.01611765760256923
-0.005547429165402124,0.01480111529238515
-0.005547089165402124,0.01381370855975023
-0.005546749165402124,0.01358331365546833
-0.005546409165402124,0.01378079500199537
-0.005546069165402124,0.01361622721322289
-0.005545729165402124,0.01420867125280492
-0.005545389165402124,0.01460363394586086
-0.005545049165402124,0.0152948186587053
-0.005544709165402124,0.0164467931801148
-0.005544369165402124,0.01805955751008756
-0.005544029165402124,0.01776333549029708
-0.005543689165402124,0.01815829818335177
-0.005543349165402124,0.01759876770152322
-0.005543009165402124,0.01700632366194227
-0.005542669165402124,0.01624931183358745
-0.005542329165402125,0.01592017625604249
-0.005541989165402124,0.0157556084672691
-0.005541649165402124,0.01582143558277821
-0.005541309165402125,0.01638096606460467
-0.005540969165402124,0.01677592875766037
-0.005540629165402124,0.01750002702826063
-0.005540289165402125,0.01789498972131459
-0.005539949165402124,0.01815829818335177
-0.005539609165402124,0.01799373039457898
-0.005539269165402125,0.01736837279724354
-0.005538929165402124,0.0173683727972424
-0.005538589165402124,0.0166771880843967
-0.005538249165402125,0.01641387962236072
-0.005537909165402124,0.01532773221645986
-0.005537569165402124,0.01434032548382314
-0.005537229165402125,0.01312252384690675
-0.005536889165402124,0.01220094422977693
-0.005536549165402124,0.01233259846079516
-0.005536209165402125,0.01269464759609463
-0.005535869165402124,0.01295795605813175
-0.005535529165402124,0.01328709163567732
-0.005535189165402125,0.01394536279076726
-0.005534849165402124,0.01545938644747809
-0.005534509165402124,0.01526190510095074
-0.005534169165402125,0.01615057116032217
-0.005533829165402124,0.01740128635499695
-0.005533489165402124,0.01861908799191557
-0.005533149165402125,0.01980397607107963
-0.005532809165402124,0.020593901457189
-0.005532469165402124,0.02049516078392532
-0.005532129165402125,0.01947484049353405
-0.005531789165402124,0.01871782866517924
-0.005531449165402124,0.0166771880843967
-0.005531109165402124,0.01489985596565062
-0.005530769165402124,0.01364914077097745
-0.005530429165402124,0.01302378317364086
-0.005530089165402124,0.01289212894262263
-0.005529749165402124,0.01371496788648865
-0.005529409165402124,0.01486694240789606
-0.005529069165402124,0.01595308981379644
-0.005528729165402124,0.01740128635499899
-0.005528389165402124,0.0185203473186519
-0.005528049165402124,0.01888239645395202
-0.005527709165402124,0.01865200154967013
-0.005527369165402124,0.01865200154967013
-0.005527029165402124,0.0178291626058062
-0.005526689165402124,0.01657844741113087
-0.005526349165402124,0.01539355933196897
-0.005526009165402124,0.01486694240789606
-0.005525669165402124,0.0144061525993313
-0.005525329165402124,0.01387953567525935
-0.005524989165402124,0.01394536279076846
-0.005524649165402124,0.01443906615708807
-0.005524309165402124,0.01513025086993251
-0.005523969165402124,0.01585434914053277
-0.005523629165402124,0.01628222539134172
-0.005523289165402124,0.01611765760256923
-0.005522949165402124,0.01549230000523264
-0.005522609165402124,0.0154923000052321
-0.005522269165402124,0.01519607798544163
-0.005521929165402124,0.01509733731217796
-0.005521589165402124,0.0159201762560435
-0.005521249165402124,0.01680884231541493
-0.005520909165402124,0.01763168125927886
-0.005520569165402125,0.01848743376089578
-0.005520229165402124,0.01901405068497026
-0.005519889165402124,0.01934318626251582
-0.005519549165402125,0.0195735811667973
-0.005519209165402124,0.01940901337802494
-0.005518869165402124,0.01947484049353405
-0.005518529165402125,0.01980397607107903
-0.005518189165402124,0.02013311164862519
-0.005517849165402124,0.01993563030209785
-0.005517509165402125,0.01911279135823542
-0.005517169165402124,0.01858617443416101
-0.005516829165402124,0.01730254568173328
-0.005516489165402125,0.01638096606460736
-0.005516149165402124,0.01588726269828733
-0.005515809165402124,0.01582143558277821
-0.005515469165402125,0.01618348471807768
-0.005515129165402124,0.01717089145071506
-0.005514789165402124,0.01832286597212456
-0.005514449165402125,0.01845452020314254
-0.005514109165402124,0.01861908799191557
-0.005513769165402124,0.0187507422229338
-0.005513429165402125,0.01828995241437084
-0.005513089165402124,0.01717089145071506
-0.005512749165402124,0.01572269490951454
-0.005512409165402125,0.01470237461912327
-0.005512069165402124,0.01341874586669555
-0.005511729165402124,0.01318835096241365
-0.005511389165402125,0.01348457298220466
-0.005511049165402124,0.01407701702178669
-0.005510709165402124,0.01463654750361416
-0.005510369165402124,0.01453780683035049
-0.005510029165402124,0.01381370855975023
-0.005509689165402124,0.01361622721322289
-0.005509349165402124,0.01332000519343187
-0.005509009165402124,0.01308961028915075
-0.005508669165402124,0.01351748653995922
-0.005508329165402124,0.01404410346403213
-0.005507989165402124,0.01427449836831487
-0.005507649165402124,0.01473528817687783
-0.005507309165402124,0.01536064577421441
-0.005506969165402124,0.01562395423625111
-0.005506629165402124,0.0157556084672691
-0.005506289165402124,0.0162163982758329
-0.005505949165402124,0.01647970673786846
-0.005505609165402124,0.015986003371551
-0.005505269165402124,0.0166771880843967
-0.005504929165402124,0.01700632366194281
-0.005504589165402124,0.01730254568173328
-0.005504249165402124,0.01723671856622417
-0.005503909165402124,0.01664427452664041
-0.005503569165402124,0.01568978135175999
-0.005503229165402124,0.01476820173463239
-0.005502889165402124,0.01407701702178507
-0.005502549165402124,0.01318835096241365
-0.005502209165402124,0.01289212894262263
-0.005501869165402124,0.01206928999875817
-0.005501529165402124,0.01177306797896769
-0.005501189165402124,0.01180598153672225
-0.005500849165402124,0.01183889509447752
-0.005500509165402124,0.01223385778753149
-0.005500169165402124,0.0129908696158863
-0.005499829165402125,0.0142415848105572
-0.005499489165402124,0.01516316442768707
-0.005499149165402124,0.01582143558277821
-0.005498809165402125,0.01638096606460467
-0.005498469165402124,0.01634805250685113
-0.005498129165402124,0.01588726269828733
-0.005497789165402125,0.01562395423625135
-0.005497449165402124,0.01440615259933226
-0.005497109165402124,0.01358331365546833
-0.005496769165402125,0.01233259846079744
-0.005496429165402124,0.0129908696158863
-0.005496089165402124,0.0132212645201682
-0.005495749165402125,0.01414284413729413
-0.005495409165402124,0.01470237461912327
-0.005495069165402124,0.0148340288501415
-0.005494729165402125,0.01473528817687801
-0.005494389165402124,0.01513025086993251
-0.005494049165402124,0.01641387962236024
-0.005493709165402125,0.01763168125927664
-0.005493369165402124,0.01868491510742468
-0.005493029165402124,0.01898113712721569
-0.005492689165402125,0.01878365578068871
-0.005492349165402124,0.01815829818335177
-0.005492009165402124,0.01694049654643316
-0.005491669165402125,0.01568978135176226
-0.005491329165402124,0.01486694240789606
-0.005490989165402124,0.01447197971484137
-0.005490649165402125,0.01489985596565062
-0.005490309165402124,0.01555812712074176
-0.005489969165402124,0.01671010164215126
-0.005489629165402124,0.01766459481703341
-0.005489289165402124,0.01832286597212456
-0.005488949165402124,0.01828995241437
-0.005488609165402124,0.01789498972131531
-0.005488269165402124,0.01736837279724174
-0.005487929165402124,0.01700632366194227
-0.005487589165402124,0.01615057116032378
-0.005487249165402124,0.01489985596564924
-0.005486909165402124,0.0141428441372958
-0.005486569165402124,0.01335291875118643
-0.005486229165402124,0.01302378317364032
-0.005485889165402124,0.01272756115384985
-0.005485549165402124,0.01210220355651326
-0.005485209165402124,0.01272756115385051
-0.005484869165402124,0.01308961028914997
-0.005484529165402124,0.01355040009771377
-0.005484189165402124,0.01355040009771401
-0.005483849165402124,0.013682054328732
-0.005483509165402124,0.01404410346403213
-0.005483169165402124,0.01430741192606895
-0.005482829165402124,0.01450489327259593
-0.005482489165402124,0.01466946106136872
-0.005482149165402124,0.01463654750361326
-0.005481809165402124,0.0141428441372958
-0.005481469165402124,0.01450489327259593
-0.005481129165402124,0.01473528817687885
-0.005480789165402124,0.0152948186587053
-0.005480449165402124,0.01588726269828733
-0.005480109165402124,0.0159860033715522
-0.005479769165402124,0.01664427452664214
-0.005479429165402124,0.01647970673786936
-0.005479089165402125,0.01568978135176142
-0.005478749165402124,0.01223385778753149
-0.005478409165402124,0.004729566619492469
-0.005478069165402125,-0.01014736148554028
-0.005477729165402124,-0.03190322316132959
-0.005477389165402124,-0.06132794379390365
-0.005477049165402125,-0.09473520491471833
-0.005476709165402124,-0.1285703422864638
-0.005476369165402124,-0.1602990119618569
-0.005476029165402125,-0.1869919073007542
-0.005475689165402124,-0.2069704368578189
-0.005475349165402124,-0.2218473649628787
-0.005475009165402125,-0.2310631611341379
-0.005474669165402124,-0.2350127880647015
-0.005474329165402124,-0.2349140473914378
-0.005473989165402125,-0.2327746661373955
-0.005473649165402124,-0.2291212612266358
-0.005473309165402124,-0.2235259564083611
-0.005472969165402125,-0.2172065533194976
-0.005472629165402124,-0.2106567553263292
-0.005472289165402124,-0.2027575014652356
-0.005471949165402125,-0.1947595069308927
-0.005471609165402124,-0.1870906479740664
-0.005471269165402124,-0.179685097479291
-0.005470929165402125,-0.1723782876577926
-0.005470589165402124,-0.1656310083180951
-0.005470249165402124,-0.1591141238826928
-0.005469909165402125,-0.1532884241601362
-0.005469569165402124,-0.1474956379953342
-0.005469229165402124,-0.1425586043321506
-0.005468889165402125,-0.1366999910518394
-0.005468549165402124,-0.1307426370982646
-0.005468209165402124,-0.1242586662206168
-0.005467869165402124,-0.1184000529403057
-0.005467529165402124,-0.1127389210065219
-0.005467189165402124,-0.1080651958053747
-0.005466849165402124,-0.103885173970546
-0.005466509165402124,-0.1001330283865197
-0.005466169165402124,-0.09641379636026151
-0.005465829165402124,-0.09289204568052392
-0.005465489165402124,-0.08976525769383507
-0.005465149165402124,-0.08650681547613984
-0.005464809165402124,-0.08252427498783843
-0.005464469165402124,-0.07903543786584927
-0.005464129165402124,-0.07567825497489056
-0.005463789165402124,-0.07274894833473497
-0.005463449165402124,-0.06909554342397384
-0.005463109165402124,-0.06619915034157808
-0.005462769165402124,-0.06323693014366796
-0.005462429165402124,-0.06037345061901652
-0.005462089165402124,-0.05764162532539325
-0.005461749165402124,-0.05510728137829235
-0.005461409165402124,-0.05247419675792395
-0.005461069165402124,-0.05036772906163613
-0.005460729165402124,-0.04691180549740763
-0.005460389165402124,-0.04490407847437456
-0.005460049165402124,-0.04210642606524229
-0.005459709165402124,-0.03917711942508671
-0.005459369165402124,-0.03657694836247149
-0.005459029165402124,-0.03371346883783023
-0.005458689165402124,-0.03187030960357504
-0.005458349165402124,-0.03048794017788082
-0.005458009165402124,-0.02894100296341945
-0.005457669165402124,-0.02732823863344615
-0.005457329165402125,-0.0255179929569488
-0.005456989165402124,-0.02439893199329057
-0.005456649165402124,-0.02295073545209006
-0.005456309165402125,-0.02156836602640117
-0.005455969165402124,-0.02041639150498916
-0.005455629165402124,-0.01952772544561612
-0.005455289165402125,-0.01923150342582564
-0.005454949165402124,-0.01870488650175219
-0.005454609165402124,-0.01784913400013371
-0.005454269165402125,-0.01679590015198979
-0.005453929165402124,-0.01528187649527825
-0.005453589165402124,-0.01380076639632318
-0.005453249165402125,-0.01248422408614329
-0.005452909165402124,-0.0113322495647314
-0.005452569165402124,-0.01004862081230367
-0.005452229165402125,-0.00899538696415976
-0.005451889165402124,-0.007744671769484675
-0.005451549165402124,-0.006362302343793276
-0.005451209165402125,-0.005769858304212326
-0.005450869165402124,-0.00494701936034732
-0.005450529165402124,-0.003992526185465165
-0.005450189165402125,-0.003432995703638711
-0.005449849165402124,-0.003070946568337565
-0.005449509165402124,-0.00267598387528288
-0.005449169165402125,-0.0009973924298035208
-0.005448829165402124,-0.0004049483902184396
-0.005448489165402124,0.0007799396889456162
-0.005448149165402125,0.002261049787900686
-0.005447809165402124,0.003742159886855756
-0.005447469165402124,0.004630825946228797
-0.005447129165402124,0.005025788639283483
-0.005446789165402124,0.00426877681092867
-0.005446449165402124,0.0030180616162555
-0.005446109165402124,0.00153695151730043
-0.005445769165402124,0.0007799396889447181
-0.005445429165402124,0.0002862363226272596
-0.005445089165402124,0.0001874956493635883
-0.005444749165402124,0.0008128532467008917
-0.005444409165402124,0.001207815939754859
-0.005444069165402124,0.00153695151730043
-0.005443729165402124,0.001997741325865307
-0.005443389165402124,0.002590185365446257
-0.005443049165402124,0.003445937867064742
-0.005442709165402124,0.003939641233385194
-0.005442369165402124,0.005091615754792597
-0.005442029165402124,0.005848627583147411
-0.005441689165402124,0.006868947873541076
-0.005441349165402124,0.008185490183720966
-0.005441009165402124,0.008876674896566664
-0.005440669165402124,0.009469118936150009
-0.005440329165402124,0.01019321720674895
-0.005439989165402124,0.01180598153672225
-0.005439649165402124,0.01216803067202268
-0.005439309165402124,0.01233259846079516
-0.005438969165402124,0.01259590692283162
-0.005438629165402124,0.01236551201854966
-0.005438289165402124,0.01233259846079516
-0.005437949165402124,0.01197054932549503
-0.005437609165402124,0.01183889509447686
-0.005437269165402124,0.01187180865223136
-0.005436929165402124,0.01174015442121313
-0.005436589165402125,0.01197054932549461
-0.005436249165402124,0.01210220355651326
-0.005435909165402124,0.0129908696158863
-0.005435569165402125,0.01292504250037731
-0.005435229165402124,0.01282630182711352
-0.005434889165402124,0.01220094422977693
-0.005434549165402125,0.01183889509447746
-0.005434209165402124,0.01095022903510376
-0.005433869165402124,0.01085148836184009
-0.005433529165402125,0.01095022903510358
-0.005433189165402124,0.01101605615061288
-0.005432849165402124,0.01111479682387655
-0.005432509165402125,0.01088440191959507
-0.005432169165402124,0.01131227817040389
-0.005431829165402124,0.01141101884366756
-0.005431489165402125,0.01062109345755963
-0.005431149165402124,0.00973242739818515
-0.005430809165402124,0.009205810474112236
-0.005430469165402125,0.009403291820639219
-0.005430129165402124,0.008942502012075779
-0.005429789165402124,0.00950203249390325
-0.005429449165402125,0.01065400701531065
-0.005429109165402124,0.01213511711426782
-0.005428769165402124,0.01302378317364086
-0.005428429165402125,0.01407701702178477
-0.005428089165402124,0.01545938644747809
-0.005427749165402124,0.01700632366194227
-0.005427409165402125,0.0173683727972424
-0.005427069165402124,0.01707215077745139
-0.005426729165402124,0.01657844741113303
-0.005426389165402125,0.01559104067849632
-0.005426049165402124,0.01496568308115973
-0.005425709165402124,0.01420867125280492
-0.005425369165402124,0.01371496788648656
-0.005425029165402124,0.01358331365546833
-0.005424689165402124,0.01318835096241365
-0.005424349165402124,0.01355040009771377
-0.005424009165402124,0.01308961028914997
-0.005423669165402124,0.01308961028914997
-0.005423329165402124,0.01328709163567732
-0.005422989165402124,0.01249716624956687
-0.005422649165402124,0.01190472220998592
-0.005422309165402124,0.01131227817040389
-0.005421969165402124,0.01062109345755771
-0.005421629165402124,0.01035778499552173
-0.005421289165402124,0.01052235278429452
-0.005420949165402124,0.01048943922654188
-0.005420609165402124,0.01154267307468579
-0.005420269165402124,0.01269464759609529
-0.005419929165402124,0.01417575769505186
-0.005419589165402124,0.01499859663891429
-0.005419249165402124,0.015986003371551
-0.005418909165402124,0.01736837279724365
-0.005418569165402124,0.0180595575100881
-0.005418229165402124,0.01861908799191557
-0.005417889165402124,0.01871782866517798
-0.005417549165402124,0.01802664395233354
-0.005417209165402124,0.01664427452664214
-0.005416869165402124,0.01562395423624872
-0.005416529165402124,0.01443906615708682
-0.005416189165402124,0.01355040009771377
-0.005415849165402124,0.01322126452016796
-0.005415509165402124,0.01308961028914997
-0.005415169165402124,0.01387953567525935
-0.005414829165402125,0.01312252384690591
-0.005414489165402124,0.0146036339458596
-0.005414149165402124,0.01539355933196897
-0.005413809165402125,0.01615057116032241
-0.005413469165402124,0.01618348471807834
-0.005413129165402124,0.01687466943092404
-0.005412789165402125,0.01700632366194203
