Analysis/New Tests_CMB/wrd01_d2s01/cmb02_ch08.csv

#Digilent WaveForms Oscilloscope Acquisition
#Device Name: ADP3450
#Serial Number: SN:210018B9D9B0
#Date Time: 2024-08-14 16:31:46.460.969.650
#Sample rate: 5.88235e+06Hz
#Samples: 32768
#Trigger: Source: Channel 3 Type: Edge Condition: Rising Level: 60 mV Hyst.: Auto HoldOff: 0 s
#Channel 3: Range: 100 mV/div Offset: 0 V Attenuation: 1 X Coupling: DC Bandwidth: 0 Hz Sample Mode: Average

Time (s),Channel 3 (V)
-0.003798463006444654,0.2108342652785291
-0.003798293006444654,0.2243617375156274
-0.003798123006444654,0.236737235231343
-0.003797953006444654,0.2472037465972766
-0.003797783006444654,0.2560904071910591
-0.003797613006444654,0.2637921797056115
-0.003797443006444654,0.2692887438506225
-0.003797273006444654,0.2728763216458627
-0.003797103006444654,0.2761676774213189
-0.003796933006444654,0.2770563434806947
-0.003796763006444654,0.2776817010780334
-0.003796593006444654,0.277056343480698
-0.003796423006444654,0.2756081469394975
-0.003796253006444654,0.2734358521277006
-0.003796083006444654,0.269881187890211
-0.003795913006444654,0.2672481032698495
-0.003795743006444654,0.2633972170125499
-0.003795573006444654,0.2596450714285373
-0.003795403006444654,0.2554650495937085
-0.003795233006444654,0.2513837684321509
-0.003795063006444654,0.2479607584256757
-0.003794893006444654,0.2424641942806784
-0.003794723006444655,0.2394032334094958
-0.003794553006444654,0.2350915573436377
-0.003794383006444654,0.2308457083932998
-0.003794213006444654,0.2263365509809337
-0.003794043006444654,0.2216299122220323
-0.003793873006444654,0.2171865819251747
-0.003793703006444655,0.2129407329748362
-0.003793533006444654,0.209056933159783
-0.003793363006444654,0.2054035282490271
-0.003793193006444654,0.2024742216088769
-0.003793023006444654,0.1992486929489308
-0.003792853006444654,0.1962864727510256
-0.003792683006444655,0.1935546474573965
-0.003792513006444654,0.1908557357215129
-0.003792343006444654,0.1877947748503391
-0.003792173006444654,0.1852933444609973
-0.003792003006444654,0.1823640378208425
-0.003791833006444654,0.1792043362764054
-0.003791663006444655,0.1758800669432015
-0.003791493006444654,0.1732798958805794
-0.003791323006444654,0.1705151570291966
-0.003791153006444654,0.1676845910623099
-0.003790983006444654,0.1649527657686814
-0.003790813006444654,0.1620892862440352
-0.003790643006444654,0.1596207694124472
-0.003790473006444654,0.1569876847920736
-0.003790303006444654,0.1541571188251817
-0.003790133006444654,0.1515240342048172
-0.003789963006444654,0.1484959868914034
-0.003789793006444654,0.1460274700598106
-0.003789623006444654,0.1435260396704689
-0.003789453006444654,0.1408271279345861
-0.003789283006444654,0.1379636484099396
-0.003789113006444654,0.1352318231163114
-0.003788943006444654,0.1329937011890056
-0.003788773006444654,0.1305580979151687
-0.003788603006444654,0.1293402962782501
-0.003788433006444654,0.1267730387733875
-0.003788263006444654,0.1252919286744351
-0.003788093006444654,0.12344876944018
-0.003787923006444654,0.1215397830904191
-0.003787753006444654,0.1193016611631098
-0.003787583006444654,0.1185446493347537
-0.003787413006444654,0.1159773918298926
-0.003787243006444654,0.1143646274999222
-0.003787073006444654,0.1118631971105759
-0.003786903006444654,0.1093617667212341
-0.003786733006444654,0.1082427057575766
-0.003786563006444654,0.1050171770976397
-0.003786393006444654,0.1032398449788787
-0.003786223006444654,0.1014954264178904
-0.003786053006444654,0.09945478583710782
-0.003785883006444654,0.09659130631246655
-0.003785713006444654,0.09682170121674283
-0.003785543006444654,0.09497854198249477
-0.003785373006444654,0.09501145554023616
-0.003785203006444654,0.09145679130275045
-0.003785033006444654,0.09076560658990473
-0.003784863006444654,0.08954780495298836
-0.003784693006444654,0.08826417620056073
-0.003784523006444654,0.08694763389038092
-0.003784353006444655,0.08615770850426961
-0.003784183006444654,0.08540069667591194
-0.003784013006444654,0.08401832725022054
-0.003783843006444654,0.08273469849779513
-0.003783673006444654,0.08141815618761293
-0.003783503006444654,0.08003578676192416
-0.003783333006444655,0.07914712070254933
-0.003783163006444654,0.07783057839236379
-0.003782993006444654,0.0766127767554452
-0.003782823006444654,0.0753620615607743
-0.003782653006444654,0.07351890232652017
-0.003782483006444654,0.07157700241900501
-0.003782313006444655,0.07151117530348906
-0.003782143006444654,0.06989841097351554
-0.003781973006444654,0.06710075856437819
-0.003781803006444654,0.06621209250500676
-0.003781633006444654,0.06525759933012472
-0.003781463006444654,0.06433601971299706
-0.003781293006444655,0.06318404519159007
-0.003781123006444654,0.06232829268996741
-0.003780953006444654,0.06134088595733069
-0.003780783006444654,0.06051804701346827
-0.003780613006444654,0.05972812162735883
-0.003780443006444654,0.05874071489472248
-0.003780273006444654,0.05851031999043962
-0.003780103006444654,0.05814827085513866
-0.003779933006444654,0.0574241725845384
-0.003779763006444654,0.0569633827759746
-0.003779593006444654,0.05630511162088465
-0.003779423006444654,0.05627219806312896
-0.003779253006444654,0.05558101335028571
-0.003779083006444654,0.05554809979252864
-0.003778913006444654,0.0551202235417194
-0.003778743006444654,0.05475817440641927
-0.003778573006444654,0.0543961252711198
-0.003778403006444654,0.0537049405582747
-0.003778233006444654,0.05321123719195688
-0.003778063006444654,0.05268462026788128
-0.003777893006444654,0.05219091690156382
-0.003777723006444654,0.05100602882239976
-0.003777553006444654,0.05024901699404632
-0.003777383006444654,0.04880082045284707
-0.003777213006444654,0.04801089506673794
-0.003777043006444654,0.04735262391164224
-0.003776873006444654,0.04643104429451633
-0.003776703006444654,0.04567403246616151
-0.003776533006444654,0.04488410708005357
-0.003776363006444654,0.04369921900089024
-0.003776193006444654,0.04304094784579934
-0.003776023006444654,0.0439954410206724
-0.003775853006444654,0.0403091225521687
-0.003775683006444654,0.04034203610992326
-0.003775513006444654,0.03942045649279734
-0.003775343006444654,0.03915714803075968
-0.003775173006444654,0.03849887687567045
-0.003775003006444654,0.03790643283608567
-0.003774833006444654,0.03770895148955869
-0.003774663006444654,0.03711650744997666
-0.003774493006444654,0.03698485321895868
-0.003774323006444654,0.0374127294697669
-0.003774153006444654,0.03695193966120556
-0.003773983006444654,0.03728107523874939
-0.003773813006444654,0.03724816168099489
-0.003773643006444654,0.03761021081629502
-0.003773473006444654,0.0367215447569236
-0.003773303006444654,0.03649114985264049
-0.003773133006444654,0.03629366850611346
-0.003772963006444655,0.03556957023551512
-0.003772793006444654,0.03553665667775792
-0.003772623006444654,0.0352404346579669
-0.003772453006444654,0.0352404346579669
-0.003772283006444654,0.03501003975368543
-0.003772113006444654,0.03487838552266726
-0.003771943006444655,0.03412137369431472
-0.003771773006444654,0.03395680590553918
-0.003771603006444654,0.03310105340392069
-0.003771433006444654,0.03293648561514821
-0.003771263006444654,0.03273900426862093
-0.003771093006444654,0.0325086093643395
-0.003770923006444655,0.03208073311353098
-0.003770753006444654,0.03168577042047474
-0.003770583006444654,0.03092875859211993
-0.003770413006444654,0.03053379589906596
-0.003770243006444654,0.03030340099478376
-0.003770073006444654,0.02974387051295689
-0.003769903006444655,0.02951347560867481
-0.003769733006444654,0.0289539451268465
-0.003769563006444654,0.02809819262522802
-0.003769393006444654,0.02740700791238232
-0.003769223006444654,0.02651834185301089
-0.003769053006444654,0.02543219444711086
-0.003768883006444654,0.02474100973426571
-0.003768713006444654,0.02411565213692661
-0.003768543006444654,0.02368777588611736
-0.003768373006444654,0.02368777588611736
-0.003768203006444654,0.02342446742408139
-0.003768033006444654,0.02385234367488937
-0.003767863006444654,0.02411565213692565
-0.003767693006444654,0.02418147925243656
-0.003767523006444654,0.02464226906099952
-0.003767353006444654,0.02490557752303598
-0.003767183006444654,0.02559676223588042
-0.003767013006444654,0.02615629271770813
-0.003766843006444654,0.02635377406423577
-0.003766673006444654,0.02668290964177967
-0.003766503006444654,0.02536636733159978
-0.003766333006444654,0.02714369945034586
-0.003766163006444654,0.02602463848669295
-0.003765993006444654,0.02559676223588245
-0.003765823006444654,0.02507014531181068
-0.003765653006444654,0.02441187415671774
-0.003765483006444654,0.02447770127222673
-0.003765313006444654,0.02375360300162648
-0.003765143006444654,0.02325989963530902
-0.003764973006444654,0.02286493694225415
-0.003764803006444654,0.022832023384499
-0.003764633006444654,0.0226674555957246
-0.003764463006444654,0.02184461665186217
-0.003764293006444654,0.02171296242084393
-0.003764123006444654,0.02144965395880796
-0.003763953006444654,0.02056098789943605
-0.003763783006444654,0.02029767943739894
-0.003763613006444654,0.01970523539781511
-0.003763443006444654,0.01924444558925215
-0.003763273006444654,0.01865200154967013
-0.003763103006444654,0.01796081683682568
-0.003762933006444654,0.01796081683682443
-0.003762763006444654,0.01789498972131555
-0.003762593006444655,0.01766459481703425
-0.003762423006444654,0.01753294058601518
-0.003762253006444654,0.01799373039457898
-0.003762083006444654,0.01792790327906999
-0.003761913006444654,0.01825703885661484
-0.003761743006444654,0.01881656933844087
-0.003761573006444655,0.01921153203149616
-0.003761403006444654,0.01937609982027038
-0.003761233006444654,0.01970523539781595
-0.003761063006444654,0.02000145741760643
-0.003760893006444654,0.02052807434167892
-0.003760723006444654,0.02075846924596094
-0.003760553006444655,0.02075846924596178
-0.003760383006444654,0.020593901457189
-0.003760213006444654,0.02095595059248912
-0.003760043006444654,0.02079138280371664
-0.003759873006444654,0.02059390145718936
-0.003759703006444654,0.020593901457189
-0.003759533006444655,0.0203305929951535
-0.003759363006444654,0.02006728453311608
-0.003759193006444654,0.01954066760904317
-0.003759023006444654,0.0191457049159892
-0.003758853006444654,0.0188823964539525
-0.003758683006444654,0.01845452020314356
-0.003758513006444654,0.01786207616356291
-0.003758343006444654,0.01707215077745139
-0.003758173006444654,0.01654553385337847
-0.003758003006444654,0.01618348471807834
-0.003757833006444654,0.01559104067849739
-0.003757663006444654,0.01549230000523282
-0.003757493006444654,0.01552521356298708
-0.003757323006444654,0.01545938644747856
-0.003757153006444654,0.01572269490951454
-0.003756983006444654,0.01684175587316948
-0.003756813006444654,0.01559104067849859
-0.003756643006444654,0.01568978135175981
-0.003756473006444654,0.01592017625604105
-0.003756303006444654,0.01562395423625165
-0.003756133006444654,0.01605183048706011
-0.003755963006444654,0.0155252135629872
-0.003755793006444654,0.01526190510095122
-0.003755623006444654,0.01503151019666926
-0.003755453006444654,0.01493276952340553
-0.003755283006444654,0.01463654750361326
-0.003755113006444654,0.0141428441372958
-0.003754943006444654,0.01466946106136872
-0.003754773006444654,0.0148340288501412
-0.003754603006444654,0.01545938644747695
-0.003754433006444654,0.01509733731217927
-0.003754263006444654,0.01509733731217778
-0.003754093006444654,0.01499859663891429
-0.003753923006444654,0.0146036339458596
-0.003753753006444654,0.01453780683035061
-0.003753583006444654,0.01381370855975155
-0.003753413006444654,0.01361622721322361
-0.003753243006444654,0.01332000519343121
-0.003753073006444654,0.01295795605813175
-0.003752903006444654,0.0129908696158863
-0.003752733006444654,0.01262882048058683
-0.003752563006444654,0.01292504250037665
-0.003752393006444654,0.01374788144423812
-0.003752223006444655,0.01381370855974999
-0.003752053006444654,0.01440615259933226
-0.003751883006444654,0.01513025086993251
-0.003751713006444654,0.01595308981379495
-0.003751543006444654,0.0165126202956229
-0.003751373006444654,0.01710506433520379
-0.003751203006444655,0.01674301519990713
-0.003751033006444654,0.01684175587316948
-0.003750863006444654,0.01697341010418771
-0.003750693006444654,0.01680884231541523
-0.003750523006444654,0.01651262029562445
-0.003750353006444654,0.0161505711603251
-0.003750183006444655,0.01552521356298947
-0.003750013006444654,0.01539355933196897
-0.003749843006444654,0.01473528817687783
-0.003749673006444654,0.01480111529238682
-0.003749503006444654,0.01443906615708748
-0.003749333006444654,0.01407701702178735
-0.003749163006444655,0.01434032548382219
-0.003748993006444654,0.01381370855975023
-0.003748823006444654,0.01371496788648656
-0.003748653006444654,0.01374788144424106
-0.003748483006444654,0.01361622721322313
-0.003748313006444654,0.01325417807792342
-0.003748143006444654,0.0132870916356772
-0.003747973006444654,0.01315543740465909
-0.003747803006444654,0.01272756115384985
-0.003747633006444654,0.01378079500199567
-0.003747463006444654,0.01157558663244436
-0.003747293006444654,0.01141101884366786
-0.003747123006444654,0.011443932401422
-0.003746953006444654,0.0116085001901949
-0.003746783006444654,0.01150975951693123
-0.003746613006444654,0.01101605615061288
-0.003746443006444654,0.01118062393938536
-0.003746273006444654,0.01124645105489466
-0.003746103006444654,0.0111806239393859
-0.003745933006444654,0.01160850019019562
-0.003745763006444654,0.01200346288324959
-0.003745593006444654,0.01203637644100415
-0.003745423006444654,0.01203637644100415
-0.003745253006444654,0.0126288204805851
-0.003745083006444654,0.01299086961588499
-0.003744913006444654,0.01341874586669626
-0.003744743006444654,0.01381370855975023
-0.003744573006444654,0.01381370855975023
-0.003744403006444654,0.01401118990627722
-0.003744233006444654,0.01466946106136752
-0.003744063006444654,0.01473528817687759
-0.003743893006444654,0.01522899154319667
-0.003743723006444654,0.01549230000523264
-0.003743553006444654,0.01582143558277821
-0.003743383006444654,0.01631513894909567
-0.003743213006444654,0.01674301519990504
-0.003743043006444654,0.01661136096888806
-0.003742873006444654,0.01661136096888836
-0.003742703006444654,0.01703923721969683
-0.003742533006444654,0.01611765760256923
-0.003742363006444654,0.01782916260580309
-0.003742193006444654,0.01717089145071625
-0.003742023006444654,0.01710506433520618
-0.003741853006444655,0.01657844741113494
-0.003741683006444654,0.01595308981379644
-0.003741513006444654,0.01615057116032378
-0.003741343006444654,0.01532773221646135
-0.003741173006444654,0.01519607798544187
-0.003741003006444654,0.01470237461912507
-0.003740833006444655,0.01434032548382446
-0.003740663006444654,0.01410993057954124
-0.003740493006444654,0.01378079500199567
-0.003740323006444654,0.01368205432873218
-0.003740153006444654,0.01269464759609708
-0.003739983006444654,0.01289212894262191
-0.003739813006444655,0.0123325984607972
-0.003739643006444654,0.01239842557630427
-0.003739473006444654,0.01256299336507706
-0.003739303006444654,0.01239842557630457
-0.003739133006444654,0.01404410346402914
-0.003738963006444654,0.01233259846079827
-0.003738793006444655,0.01269464759609397
-0.003738623006444654,0.01243133913405883
-0.003738453006444654,0.01269464759609529
-0.003738283006444654,0.01190472220998736
-0.003738113006444654,0.01401118990627374
-0.003737943006444654,0.01229968490304372
-0.003737773006444654,0.01233259846079504
-0.003737603006444654,0.01180598153672225
-0.003737433006444654,0.01174015442121313
-0.003737263006444654,0.01154267307468579
-0.003737093006444654,0.01095022903510484
-0.003736923006444654,0.01042361211103181
-0.003736753006444654,0.01045652566878529
-0.003736583006444654,0.01062109345755819
-0.003736413006444654,0.01025904432225806
-0.003736243006444654,0.01088440191959465
-0.003736073006444654,0.01081857480408565
-0.003735903006444654,0.01085148836184003
-0.003735733006444654,0.01124645105489334
-0.003735563006444654,0.01154267307468645
-0.003735393006444654,0.01190472220998592
-0.003735223006444654,0.01279338826935896
-0.003735053006444654,0.01312252384690393
-0.003734883006444654,0.01338583230894051
-0.003734713006444654,0.01338583230894099
-0.003734543006444654,0.0139782763485223
-0.003734373006444654,0.01358331365546833
-0.003734203006444654,0.01417575769505036
-0.003734033006444654,0.01394536279076888
-0.003733863006444654,0.01378079500199597
-0.003733693006444654,0.01374788144424124
-0.003733523006444654,0.01368205432873248
-0.003733353006444654,0.01394536279076846
-0.003733183006444654,0.01457072038810504
-0.003733013006444654,0.01503151019666801
-0.003732843006444654,0.01542647288972281
-0.003732673006444654,0.0152289915431969
-0.003732503006444654,0.01532773221645992
-0.003732333006444654,0.01536064577421441
-0.003732163006444654,0.01532773221645986
-0.003731993006444654,0.01513025086993287
-0.003731823006444654,0.01493276952340553
-0.003731653006444654,0.01443906615708861
-0.003731483006444655,0.01384662211750694
-0.003731313006444654,0.01358331365546833
-0.003731143006444654,0.01361622721322289
-0.003730973006444654,0.0135174865399594
-0.003730803006444654,0.01308961028915075
-0.003730633006444654,0.01318835096241329
-0.003730463006444655,0.01295795605813258
-0.003730293006444654,0.01272756115384985
-0.003730123006444654,0.01292504250037719
-0.003729953006444654,0.01259590692283222
-0.003729783006444654,0.01272756115384961
-0.003729613006444654,0.01266173403834097
-0.003729443006444655,0.01295795605813067
-0.003729273006444654,0.01256299336507706
-0.003729103006444654,0.01308961028914997
-0.003728933006444654,0.01312252384690447
-0.003728763006444654,0.01170724086346115
-0.003728593006444654,0.01387953567525144
-0.003728423006444655,0.01318835096241616
-0.003728253006444654,0.01374788144424112
-0.003728083006444654,0.0134516594244501
-0.003727913006444654,0.01355040009771359
-0.003727743006444654,0.01348457298220478
-0.003727573006444654,0.01345165942445016
-0.003727403006444654,0.0137149678864856
-0.003727233006444654,0.01407701702178669
-0.003727063006444654,0.0141428441372958
-0.003726893006444654,0.01341874586669555
-0.003726723006444654,0.01358331365546803
-0.003726553006444654,0.0128263018271149
-0.003726383006444654,0.01295795605813127
-0.003726213006444654,0.01262882048058617
-0.003726043006444654,0.01236551201854972
-0.003725873006444654,0.01262882048058617
-0.003725703006444654,0.0123655120185502
-0.003725533006444654,0.01193763576774125
-0.003725363006444654,0.01216803067202154
-0.003725193006444654,0.0123655120185502
-0.003725023006444654,0.01262882048058617
-0.003724853006444654,0.01308961028914997
-0.003724683006444654,0.01328709163567696
-0.003724513006444654,0.01355040009771329
-0.003724343006444654,0.01368205432873152
-0.003724173006444654,0.01430741192606931
-0.003724003006444654,0.01470237461912327
-0.003723833006444654,0.01470237461912327
-0.003723663006444654,0.0144061525993328
-0.003723493006444654,0.01470237461912273
-0.003723323006444654,0.01407701702178896
-0.003723153006444654,0.01384662211750383
-0.003722983006444654,0.01332000519343187
-0.003722813006444654,0.01262882048058617
-0.003722643006444654,0.01239842557630469
-0.003722473006444654,0.01229968490304078
-0.003722303006444654,0.01183889509447848
-0.003722133006444654,0.01167432730570462
-0.003721963006444654,0.01200346288324959
-0.003721793006444654,0.01164141374794946
-0.003721623006444654,0.01183889509447644
-0.003721453006444654,0.01200346288324929
-0.003721283006444654,0.01154267307468747
-0.003721113006444654,0.0117072408634587
-0.003720943006444654,0.01177306797896769
-0.003720773006444654,0.01210220355651326
-0.003720603006444654,0.01223385778753125
-0.003720433006444654,0.01193763576774102
-0.003720263006444654,0.01253007980732035
-0.003720093006444655,0.01229968490304144
-0.003719923006444654,0.01259590692283162
-0.003719753006444654,0.01243133913405883
-0.003719583006444654,0.01206928999875936
-0.003719413006444654,0.01197054932549521
-0.003719243006444654,0.0119376357677406
-0.003719073006444655,0.0113451917281606
-0.003718903006444654,0.011378105285913
