Analysis/New Tests_CMB/wrd01_d2s01/cmb07_ch14.csv

#Digilent WaveForms Oscilloscope Acquisition
#Device Name: ADP3450
#Serial Number: SN:210018B9D9B0
#Date Time: 2024-08-07 10:26:59.825.108.070
#Sample rate: 2.94118e+06Hz
#Samples: 32768
#Trigger: Source: Channel 3 Type: Edge Condition: Rising Level: 0 V Hyst.: Auto HoldOff: 0 s
#Channel 3: Range: 200 mV/div Offset: 0 V Attenuation: 1 X Coupling: DC Bandwidth: 0 Hz Sample Mode: Average

Time (s),Channel 3 (V)
-0.005570266363636364,0.01006156297573072
-0.005569926363636363,0.01035778499552155
-0.005569586363636364,0.01025904432225806
-0.005569246363636364,0.008909588454321223
-0.005568906363636363,0.007428478355364056
-0.005568566363636364,0.006276503833956653
-0.005568226363636364,0.005387837774583611
-0.005567886363636363,0.005716973352130319
-0.005567546363636364,0.006342330949465767
-0.005567206363636364,0.007230997008838809
-0.005566866363636363,0.008251317299230199
-0.005566526363636364,0.008317144414739193
-0.005566186363636364,0.007922181721684508
-0.005565846363636363,0.007560132586383841
-0.005565506363636364,0.007263910566593366
-0.005565166363636364,0.006704380084765896
-0.005564826363636363,0.006836034315782328
-0.005564486363636364,0.005848627583147411
-0.005564146363636364,0.005848627583147411
-0.005563806363636363,0.007395564797619917
-0.005563466363636364,0.01197054932549503
-0.005563126363636364,0.02250288780695331
-0.005562786363636364,0.04142818351578922
-0.005562446363636364,0.06848312799006959
-0.005562106363636364,0.101297945071363
-0.005561766363636364,0.1366141925419386
-0.005561426363636364,0.1708772061644968
-0.005561086363636364,0.2021121724735714
-0.005560746363636364,0.2277189204065703
-0.005560406363636364,0.2475987092903694
-0.005560066363636364,0.2612578357585106
-0.005559726363636364,0.2694862251971348
-0.005559386363636364,0.273040889434642
-0.005559046363636364,0.2726459267415873
-0.005558706363636364,0.2685646455800297
-0.005558366363636364,0.2626402051842019
-0.005558026363636364,0.2552346546894266
-0.005557686363636364,0.2472037465973293
-0.005557346363636364,0.2389753571586754
-0.005557006363636364,0.2302861779114723
-0.005556666363636364,0.2227160596279379
-0.005556326363636364,0.2148826328823396
-0.005555986363636364,0.207345428156546
-0.005555646363636364,0.1995778285264847
-0.005555306363636364,0.1918431424541496
-0.005554966363636364,0.1849971224412017
-0.005554626363636364,0.1785131515635658
-0.005554286363636364,0.1719962671281517
-0.005553946363636364,0.1660389131745768
-0.005553606363636364,0.1599169914322292
-0.005553266363636363,0.1549470442112911
-0.005552926363636364,0.1500429241058621
-0.005552586363636364,0.1448096684228875
-0.005552246363636363,0.1395764127399129
-0.005551906363636364,0.1345406384034657
-0.005551566363636364,0.1297352589713004
-0.005551226363636363,0.1251602744434093
-0.005550886363636364,0.1209802526085882
-0.005550546363636364,0.1173268476978323
-0.005550206363636363,0.1140025783646162
-0.005549866363636364,0.1107441361469209
-0.005549526363636364,0.1071236447939196
-0.005549186363636363,0.10277905517031
-0.005548846363636364,0.09833572487345288
-0.005548506363636364,0.09428735726964235
-0.005548166363636363,0.09053521168561578
-0.005547826363636364,0.08665141187058512
-0.005547486363636364,0.08345879676839307
-0.005547146363636363,0.08085862570577917
-0.005546806363636364,0.07871924445173684
-0.005546466363636364,0.07634946829340875
-0.005546126363636363,0.07401260569283244
-0.005545786363636364,0.07249858203612555
-0.005545446363636364,0.06989841097351554
-0.005545106363636363,0.06733115346865566
-0.005544766363636364,0.06489555019482285
-0.005544426363636364,0.06321695874934044
-0.005544086363636363,0.06111049105304567
-0.005543746363636364,0.05939898604981182
-0.005543406363636364,0.05752291325780207
-0.005543066363636363,0.05535061844599615
-0.005542726363636364,0.05252005247910939
-0.005542386363636364,0.05074272036036331
-0.005542046363636364,0.04936035093467442
-0.005541706363636364,0.04847168487529886
-0.005541366363636364,0.04712222900736202
-0.005541026363636364,0.04521324265760118
-0.005540686363636364,0.04360047832762441
-0.005540346363636364,0.04172440553561466
-0.005540006363636364,0.03925588870402737
-0.005539666363636364,0.03678737187243109
-0.005539326363636364,0.03507586686919412
-0.005538986363636364,0.03326562119269678
-0.005538646363636364,0.03175159753598385
-0.005538306363636364,0.03175159753598385
-0.005537966363636364,0.03221238734454682
-0.005537626363636364,0.03231112801781132
-0.005537286363636364,0.03188325176700208
-0.005536946363636364,0.03142246195843913
-0.005536606363636364,0.03069836368783803
-0.005536266363636364,0.0296451298396922
-0.005535926363636364,0.02783488416319485
-0.005535586363636364,0.02645251473750016
-0.005535246363636364,0.02493849108079053
-0.005534906363636364,0.02358903521285614
-0.005534566363636364,0.02200918444063495
-0.005534226363636364,0.02118634549677102
-0.005533886363636364,0.02105469126575303
-0.005533546363636364,0.02121925905452558
-0.005533206363636364,0.02151548107431659
-0.005532866363636364,0.02237123357593508
-0.005532526363636363,0.02263454203797154
-0.005532186363636364,0.02319407251979901
-0.005531846363636364,0.02372068944387192
-0.005531506363636363,0.02391817079039926
-0.005531166363636364,0.02391817079039926
-0.005530826363636364,0.02339155386632635
-0.005530486363636363,0.02223957934491685
-0.005530146363636364,0.02056098789943444
-0.005529806363636364,0.01934318626251582
-0.005529466363636363,0.01871782866517775
-0.005529126363636364,0.01789498972131531
-0.005528786363636364,0.01720380500846961
-0.005528446363636363,0.01628222539133926
-0.005528106363636364,0.01476820173463239
-0.005527766363636364,0.01407701702178669
-0.005527426363636363,0.01312252384690274
-0.005527086363636364,0.01213511711426782
-0.005526746363636364,0.01174015442121313
-0.005526406363636363,0.01200346288324983
-0.005526066363636364,0.01213511711426782
-0.005525726363636364,0.01285921538486808
-0.005525386363636363,0.01299086961588618
-0.005525046363636364,0.01292504250037719
-0.005524706363636364,0.013682054328732
-0.005524366363636363,0.01364914077097738
-0.005524026363636364,0.01361622721322289
-0.005523686363636364,0.01364914077097745
-0.005523346363636363,0.0135174865399591
-0.005523006363636364,0.0134516594244501
-0.005522666363636364,0.0139124492330139
-0.005522326363636363,0.01410993057954065
-0.005521986363636364,0.01378079500199567
-0.005521646363636364,0.01292504250037719
-0.005521306363636363,0.01190472220998346
-0.005520966363636364,0.01055526634204908
-0.005520626363636364,0.01048943922653996
-0.005520286363636364,0.009469118936150548
-0.005519946363636364,0.009699513840430593
-0.005519606363636364,0.009765340955939707
-0.005519266363636364,0.009534946051658227
-0.005518926363636364,0.009962822302467049
-0.005518586363636364,0.009699513840430593
-0.005518246363636364,0.008679193550041178
-0.005517906363636364,0.007625959701893495
-0.005517566363636364,0.006408158064974882
-0.005517226363636364,0.005157442870303987
-0.005516886363636364,0.004170036137664999
-0.005516546363636364,0.003445937867064742
-0.005516206363636364,0.003873814117873206
-0.005515866363636364,0.005322010659074497
-0.005515526363636364,0.007296824124347924
-0.005515186363636364,0.007856354606174376
-0.005514846363636364,0.008745020665548437
-0.005514506363636364,0.009238724031866792
-0.005514166363636364,0.009831168071447743
-0.005513826363636364,0.00973242739818515
-0.005513486363636364,0.01022613076450351
-0.005513146363636364,0.01052235278429398
-0.005512806363636364,0.01032487143776718
-0.005512466363636364,0.01002864941797616
-0.005512126363636364,0.01029195788001262
-0.005511786363636363,0.01052235278429452
-0.005511446363636364,0.01052235278429452
-0.005511106363636364,0.01078566124633098
-0.005510766363636363,0.01045652566878541
-0.005510426363636364,0.01062109345755819
-0.005510086363636364,0.01045652566878541
-0.005509746363636363,0.01022613076450351
-0.005509406363636364,0.01009447653348528
-0.005509066363636364,0.00983116807144882
-0.005508726363636363,0.009337464705129207
-0.005508386363636364,0.008646279992284765
-0.005508046363636364,0.00811966306821185
-0.005507706363636363,0.007329737682101822
-0.005507366363636364,0.006967688546802352
-0.005507026363636364,0.007165169893329695
-0.005506686363636363,0.007362651239858475
-0.005506346363636364,0.008152576625966409
-0.005506006363636364,0.007823441048420837
-0.005505666363636363,0.008745020665548497
-0.005505326363636364,0.008777934223302994
-0.005504986363636364,0.00881084778105755
-0.005504646363636363,0.008415885088001727
-0.005504306363636364,0.00779052749066628
-0.005503966363636364,0.007099342777820581
-0.005503626363636363,0.006868947873538142
-0.005503286363636364,0.006572725853747667
-0.005502946363636364,0.006836034315784124
-0.005502606363636363,0.006967688546802891
-0.005502266363636364,0.007263910566593366
-0.005501926363636364,0.007099342777820581
-0.005501586363636363,0.007395564797611894
-0.005501246363636364,0.00756013258638438
-0.005500906363636364,0.007461391913120709
-0.005500566363636363,0.006111936045181652
-0.005500226363636364,0.004894134408265255
-0.005499886363636364,0.003676332771346642
-0.005499546363636364,0.002524358249939239
-0.005499206363636364,0.00176734642158233
-0.005498866363636364,0.002162309114637015
-0.005498526363636364,0.003116802289517434
-0.005498186363636364,0.004202949695419555
-0.005497846363636364,0.004630825946228797
-0.005497506363636364,0.005190356428055251
-0.005497166363636364,0.005124529312547154
-0.005496826363636364,0.004992875081528926
-0.005496486363636364,0.005025788639283423
-0.005496146363636364,0.00574988690988374
-0.005495806363636364,0.005420751332338168
-0.005495466363636364,0.005387837774583671
-0.005495126363636364,0.004532085272965126
-0.005494786363636364,0.00403838190664677
-0.005494446363636364,0.004170036137664759
-0.005494106363636364,0.004104209022155884
-0.005493766363636364,0.004663739503983355
-0.005493426363636364,0.00495996152377383
-0.005493086363636364,0.006144849602938425
-0.005492746363636364,0.00677020720027501
-0.005492406363636364,0.00713225633557448
-0.005492066363636364,0.006704380084765896
-0.005491726363636364,0.006144849602938425
-0.005491386363636364,0.00571697335212996
-0.005491046363636364,0.005190356428056269
-0.005490706363636364,0.004400431041946898
-0.005490366363636364,0.003676332771346642
-0.005490026363636363,0.003116802289519171
-0.005489686363636364,0.003116802289519171
-0.005489346363636364,0.00357759209808297
-0.005489006363636363,0.004762480177247026
-0.005488666363636364,0.005914454698656525
-0.005488326363636364,0.006836034315784124
-0.005487986363636363,0.007494305470876344
-0.005487646363636364,0.008086749510457293
-0.005487306363636364,0.008152576625966409
-0.005486966363636363,0.007593046144135585
-0.005486626363636364,0.00574988690988374
-0.005486286363636364,0.005980281814165639
-0.005485946363636363,0.00561823267886581
-0.005485606363636364,0.005782800467638296
-0.005485266363636364,0.006836034315784124
-0.005484926363636363,0.007889268163931209
-0.005484586363636364,0.008580452876775651
-0.005484246363636364,0.008876674896566664
-0.005483906363636363,0.009271637589621769
-0.005483566363636364,0.00950203249390325
-0.005483226363636364,0.009436205378394135
-0.005482886363636363,0.009403291820638201
-0.005482546363636364,0.008646279992284765
-0.005482206363636364,0.00802092239494818
-0.005481866363636363,0.007461391913119572
-0.005481526363636364,0.006836034315784124
-0.005481186363636364,0.00607902248742931
-0.005480846363636363,0.006375244507219846
-0.005480506363636364,0.006111936045183867
-0.005480166363636364,0.006210676718447538
-0.005479826363636363,0.006243590276201258
-0.005479486363636364,0.005782800467638296
-0.005479146363636364,0.005420751332338168
-0.005478806363636364,0.005716973352128643
-0.005478466363636364,0.005618232678865511
-0.005478126363636364,0.004729566619492469
-0.005477786363636364,0.003939641233384535
-0.005477446363636364,0.003050975174010056
-0.005477106363636364,0.002820580269728157
-0.005476766363636364,0.002952234500746146
-0.005476426363636364,0.003840900560119427
-0.005476086363636364,0.004466258157456012
-0.005475746363636364,0.005124529312545957
-0.005475406363636364,0.006375244507220324
-0.005475066363636364,0.007165169893329695
-0.005474726363636364,0.007329737682102181
-0.005474386363636364,0.006934774989047795
-0.005474046363636364,0.006803120758029567
-0.005473706363636364,0.005947368256412639
-0.005473366363636364,0.005684059794374625
-0.005473026363636364,0.005256183543565383
-0.005472686363636364,0.005025788639283902
-0.005472346363636364,0.005124529312547154
-0.005472006363636364,0.005716973352129182
-0.005471666363636364,0.00538783777458421
-0.005471326363636364,0.004927047966019811
-0.005470986363636364,0.004499171715210569
-0.005470646363636364,0.004466258157456072
-0.005470306363636364,0.004301690368683227
-0.005469966363636364,0.003643419213592085
-0.005469626363636364,0.003906727675628541
-0.005469286363636363,0.004630825946228797
-0.005468946363636364,0.004663739503983355
-0.005468606363636364,0.005684059794374625
-0.005468266363636363,0.005881541140901968
-0.005467926363636364,0.00653981229599311
-0.005467586363636364,0.00630941739171121
-0.005467246363636363,0.006342330949465767
-0.005466906363636364,0.006243590276202096
-0.005466566363636364,0.005651146236620068
-0.005466226363636363,0.004992875081529285
-0.005465886363636364,0.005190356428056269
-0.005465546363636364,0.004334603926437783
-0.005465206363636363,0.003709246329100959
-0.005464866363636364,0.00357759209808297
-0.005464526363636364,0.003314283636046514
-0.005464186363636363,0.003775073444610133
-0.005463846363636364,0.003676332771346642
-0.005463506363636364,0.003215542962782842
-0.005463166363636363,0.00291932094299129
-0.005462826363636364,0.002623098923200814
-0.005462486363636364,0.002096481999127901
-0.005462146363636363,0.002359790461167051
-0.005461806363636364,0.003840900560119427
-0.005461466363636364,0.005322010659074497
-0.005461126363636363,0.006572725853750241
-0.005460786363636364,0.007988008837193623
-0.005460446363636364,0.009370378262885021
-0.005460106363636363,0.009929908744711176
-0.005459766363636364,0.009205810474112236
-0.005459426363636364,0.008053835952702737
-0.005459086363636363,0.007099342777816869
-0.005458746363636364,0.00505870219703804
-0.005458406363636364,0.004729566619492469
-0.005458066363636363,0.003906727675628901
-0.005457726363636364,0.004104209022155884
-0.005457386363636364,0.004499171715210569
-0.005457046363636364,0.004499171715210569
-0.005456706363636364,0.004400431041946898
-0.005456366363636364,0.003676332771346642
-0.005456026363636364,0.00334719719380167
-0.005455686363636364,0.002721839596464486
-0.005455346363636364,0.002359790461164357
-0.005455006363636364,0.002359790461164357
-0.005454666363636364,0.002886407385237271
-0.005454326363636364,0.003676332771346642
-0.005453986363636364,0.004235863253173095
-0.005453646363636364,0.004894134408265255
-0.005453306363636364,0.005190356428056269
-0.005452966363636364,0.005716973352128224
-0.005452626363636364,0.005782800467638296
-0.005452286363636364,0.006375244507220324
-0.005451946363636364,0.007461391913118733
-0.005451606363636364,0.008382971530248308
-0.005451266363636364,0.009205810474112236
-0.005450926363636364,0.009699513840429694
-0.005450586363636364,0.01012739009123984
-0.005450246363636364,0.01045652566878541
-0.005449906363636364,0.00969951384043197
-0.005449566363636364,0.008317144414739193
-0.005449226363636364,0.007296824124347924
-0.005448886363636364,0.006243590276204012
-0.005448546363636364,0.004927047966019811
-0.005448206363636364,0.004696653061737912
-0.005447866363636364,0.003873814117873984
-0.005447526363636363,0.003939641233383098
-0.005447186363636364,0.003478851424819299
-0.005446846363636364,0.003544678540328413
-0.005446506363636363,0.003050975174010056
-0.005446166363636364,0.002721839596464486
-0.005445826363636364,0.002129395556882458
-0.005445486363636363,0.001668605748319436
-0.005445146363636364,0.002096481999127901
-0.005444806363636364,0.002721839596464486
-0.005444466363636363,0.003248456520538956
-0.005444126363636364,0.004104209022155884
-0.005443786363636364,0.005190356428056269
-0.005443446363636363,0.005519492005603097
-0.005443106363636364,0.006210676718447538
-0.005442766363636364,0.006934774989047795
-0.005442426363636363,0.007165169893328018
-0.005442086363636364,0.006243590276202096
-0.005441746363636364,0.003939641233383098
-0.005441406363636363,-0.003334255030400066
-0.005441066363636364,-0.01765165265360636
-0.005440726363636364,-0.03930877365610494
-0.005440386363636363,-0.06797648246038362
-0.005440046363636364,-0.1006596453105994
-0.005439706363636364,-0.135021399606357
-0.005439366363636363,-0.1669804641860827
-0.005439026363636364,-0.1948911611618964
-0.005438686363636364,-0.2169432448574496
-0.005438346363636363,-0.2337291593122927
-0.005438006363636364,-0.2441298435627138
-0.005437666363636364,-0.2498897161697613
-0.005437326363636363,-0.2516670482885032
-0.005436986363636364,-0.2493630992456884
-0.005436646363636364,-0.2447552011600504
-0.005436306363636364,-0.2385345387444504
-0.005435966363636364,-0.2304707170945726
-0.005435626363636364,-0.2223081547714425
-0.005435286363636364,-0.2134873212932372
-0.005434946363636364,-0.2048968827192817
-0.005434606363636364,-0.1963722712608515
-0.005434266363636364,-0.1886375851885446
-0.005433926363636364,-0.1811662075782461
-0.005433586363636364,-0.1748138909316166
-0.005433246363636364,-0.1689881912090705
-0.005432906363636364,-0.163261232159767
-0.005432566363636364,-0.1575013595527195
-0.005432226363636364,-0.1522022767542455
-0.005431886363636364,-0.1467715397247339
-0.005431546363636364,-0.1420978145235868
-0.005431206363636364,-0.1374240893224482
-0.005430866363636364,-0.1328491047945562
-0.005430526363636364,-0.128701996517482
-0.005430186363636364,-0.123468740834517
-0.005429846363636364,-0.1183671393825511
-0.005429506363636364,-0.1137263277391586
-0.005429166363636364,-0.1099412685973914
-0.005428826363636364,-0.1057283332048012
-0.005428486363636364,-0.102173668967309
-0.005428146363636364,-0.09842152338329632
-0.005427806363636364,-0.09463646424151545
-0.005427466363636364,-0.09088431865749594
-0.005427126363636364,-0.08683595105368541
-0.005426786363636363,-0.08341294104721148
-0.005426446363636364,-0.07956205478992828
-0.005426106363636364,-0.0760073905524361
-0.005425766363636363,-0.07268312121922585
-0.005425426363636364,-0.07005003659886128
-0.005425086363636364,-0.06787774178706052
-0.005424746363636363,-0.06596875543729619
-0.005424406363636364,-0.06425725043405922
-0.005424066363636364,-0.06218369629552213
-0.005423726363636363,-0.06020888283024481
-0.005423386363636364,-0.05806950157620249
-0.005423046363636364,-0.05599594743766539
-0.005422706363636363,-0.05342868993280347
-0.005422366363636364,-0.04987402569531777
-0.005422026363636364,-0.04743842242148055
-0.005421686363636363,-0.04496990558988726
-0.005421346363636364,-0.04414706664602484
-0.005421006363636364,-0.04362044972195192
-0.005420666363636363,-0.04309383279787625
-0.005420326363636364,-0.04157980914116938
-0.005419986363636364,-0.04062531596628723
-0.005419646363636363,-0.03825553980795481
-0.005419306363636364,-0.035885763649631
-0.005418966363636364,-0.03345016037579378
-0.005418626363636363,-0.03111329777521746
-0.005418286363636364,-0.0295992741185106
-0.005417946363636364,-0.02808525046180097
-0.005417606363636363,-0.02709784372916174
-0.005417266363636364,-0.02571547430347286
-0.005416926363636364,-0.02512303026389083
-0.005416586363636363,-0.02420145064676191
-0.005416246363636364,-0.02347735237616297
-0.005415906363636364,-0.02321404391412651
-0.005415566363636363,-0.02314821679861752
-0.005415226363636364,-0.02321404391412651
-0.005414886363636364,-0.02265451343229904
-0.005414546363636364,-0.02156836602640063
-0.005414206363636364,-0.02031765083172549
-0.005413866363636364,-0.01890236784827953
