Analysis/New Tests_CMB/wrd01_d2s01/cmb08_ch40.csv

#Digilent WaveForms Oscilloscope Acquisition
#Device Name: ADP3450
#Serial Number: SN:210018B9D9B0
#Date Time: 2024-08-06 17:02:20.024.577.450
#Sample rate: 2.94118e+06Hz
#Samples: 32768
#Trigger: Source: Channel 3 Type: Edge Condition: Rising Level: 60 mV Hyst.: Auto HoldOff: 0 s
#Channel 3: Range: 200 mV/div Offset: -20 mV Attenuation: 1 X Coupling: DC Bandwidth: 0 Hz Sample Mode: Average

Time (s),Channel 3 (V)
-0.005570444722955145,0.02612727621744426
-0.005570104722955145,0.02573231352438862
-0.005569764722955145,0.02520569660031666
-0.005569424722955145,0.02451451188747097
-0.005569084722955145,0.02342836448156825
-0.005568744722955145,0.02214473572914285
-0.005568404722955145,0.02122315611201525
-0.005568064722955145,0.0200711815906042
-0.005567724722955145,0.01921542908898727
-0.005567384722955145,0.0186558986071598
-0.005567044722955145,0.01803054100982304
-0.005566704722955145,0.01793180033655955
-0.005566364722955145,0.0179647138943141
-0.005566024722955145,0.01839259014512388
-0.005565684722955145,0.01868881216491436
-0.005565344722955145,0.01941291043551461
-0.005565004722955145,0.01993952735958615
-0.005564664722955145,0.01918251553123271
-0.005564324722955145,0.01799762745206866
-0.005563984722955145,0.01631903600658325
-0.005563644722955145,0.01467335811885839
-0.005563304722955145,0.01398217340601269
-0.005562964722955146,0.01289602600011428
-0.005562624722955145,0.01302768023113053
-0.005562284722955145,0.01306059378888509
-0.005561944722955145,0.01375177850172953
-0.005561604722955145,0.01506832081191307
-0.005561264722955145,0.01523288860068586
-0.005560924722955145,0.01582533264026681
-0.005560584722955145,0.01585824619802245
-0.005560244722955145,0.01628612244883169
-0.005559904722955145,0.01585824619802322
-0.005559564722955145,0.01552911062047688
-0.005559224722955145,0.01529871571619498
-0.005558884722955145,0.01552911062047646
-0.005558544722955145,0.01500249369640396
-0.005558204722955145,0.01457461744559472
-0.005557864722955145,0.01411382763703176
-0.005557524722955145,0.01375177850173079
-0.005557184722955145,0.01417965475254003
-0.005556844722955145,0.0145417038878395
-0.005556504722955145,0.01470627167661295
-0.005556164722955145,0.01464044456110383
-0.005555824722955145,0.01493666658089431
-0.005555484722955145,0.01454170388784016
-0.005555144722955145,0.01391634629050358
-0.005554804722955145,0.01342264292418612
-0.005554464722955145,0.01342264292418522
-0.005554124722955145,0.01227066840277572
-0.005553784722955145,0.01230358196053028
-0.005553444722955145,0.01223775484502116
-0.005553104722955145,0.01217192772951205
-0.005552764722955145,0.01230358196053028
-0.005552424722955145,0.01250106330705762
-0.005552084722955145,0.01312642090439421
-0.005551744722955145,0.01315933446214876
-0.005551404722955145,0.01292893955786615
-0.005551064722955145,0.01253397686481218
-0.005550724722955145,0.01190861926747559
-0.005550384722955145,0.01177696503645611
-0.005550044722955145,0.01108578032361167
-0.005549704722955145,0.01085538541932977
-0.005549364722955145,0.01078955830381975
-0.005549024722955145,0.01029585493750229
-0.005548684722955145,0.009637583782411153
-0.005548344722955145,0.009176793973847415
-0.005548004722955145,0.009209707531601911
-0.005547664722955145,0.009505929551392924
-0.005547324722955145,0.009999632917711401
-0.005546984722955145,0.0100654600332204
-0.005546644722955145,0.009933805802202166
-0.005546304722955145,0.009999632917709845
-0.005545964722955145,0.009209707531601911
-0.005545624722955145,0.009835065128938496
-0.005545284722955145,0.01062499051504984
-0.005544944722955145,0.01171113792094825
-0.005544604722955145,0.01246814974930307
-0.005544264722955145,0.01279728532685019
-0.005543924722955145,0.01365303782846712
-0.005543584722955145,0.01371886494397623
-0.005543244722955145,0.01319224801990153
-0.005542904722955145,0.01220484128726661
-0.005542564722955145,0.01105286676585711
-0.005542224722955146,0.009802151571186215
-0.005541884722955145,0.008551436376510768
-0.005541544722955145,0.007432375412855827
-0.005541204722955145,0.006741190700011385
-0.005540864722955145,0.006477882237973671
-0.005540524722955145,0.006609536468991898
-0.005540184722955145,0.007860251663662794
-0.005539844722955145,0.00967049734016571
-0.005539504722955145,0.01105286676585711
-0.005539164722955145,0.01157948368992907
-0.005538824722955145,0.01240232263379395
-0.005538484722955145,0.01223775484502116
-0.005538144722955145,0.01210610061400318
-0.005537804722955145,0.01138200234340268
-0.005537464722955145,0.0100654600332204
-0.005537124722955145,0.008979312627321987
-0.005536784722955145,0.00865017704977444
-0.005536444722955145,0.008551436376510768
-0.005536104722955145,0.008847658396301243
-0.005535764722955145,0.008781831280792669
-0.005535424722955145,0.008716004165283554
-0.005535084722955145,0.008551436376511068
-0.005534744722955145,0.008683090607528997
-0.005534404722955145,0.008452695703247097
-0.005534064722955145,0.008353955029983606
-0.005533724722955145,0.008683090607528997
-0.005533384722955145,0.009604670224656596
-0.005533044722955145,0.01032876849525685
-0.005532704722955145,0.01164531080543914
-0.005532364722955145,0.01210610061400294
-0.005532024722955145,0.01154657013217547
-0.005531684722955145,0.01069081763055698
-0.005531344722955145,0.009341361762620138
-0.005531004722955145,0.008090646567946969
-0.005530664722955145,0.007432375412855827
-0.005530324722955145,0.007531116086119498
-0.005529984722955145,0.007827338105910513
-0.005529644722955145,0.007926078779173824
-0.005529304722955145,0.00772859743264684
-0.005528964722955145,0.008419782145492541
-0.005528624722955145,0.008748917723038171
-0.005528284722955145,0.008781831280792669
-0.005527944722955145,0.008716004165283554
-0.005527604722955145,0.00855143637650975
-0.005527264722955145,0.007991905894683298
-0.005526924722955145,0.008551436376510768
-0.005526584722955145,0.008288127914474492
-0.005526244722955145,0.008386868587737984
-0.005525904722955145,0.008156473683456083
-0.005525564722955145,0.007564029643873277
-0.005525224722955145,0.007136153393064813
-0.005524884722955145,0.006807017815519241
-0.005524544722955145,0.006741190700012223
-0.005524204722955145,0.007893165221419626
-0.005523864722955145,0.009341361762620138
-0.005523524722955145,0.0106579040728032
-0.005523184722955145,0.01108578032361167
-0.005522844722955145,0.01118452099687534
-0.005522504722955145,0.01069081763055824
-0.005522164722955145,0.01138200234340268
-0.005521824722955145,0.01148074301666635
-0.005521484722955145,0.01144782945891215
-0.005521144722955145,0.01164531080543914
-0.005520804722955145,0.01131617522789356
-0.005520464722955146,0.01055916339954013
-0.005520124722955145,0.01019711426423862
-0.005519784722955145,0.009966719359956725
-0.005519444722955145,0.01036168205301069
-0.005519104722955145,0.01085538541932977
-0.005518764722955145,0.01157948368993002
-0.005518424722955145,0.01204027349849298
-0.005518084722955145,0.01250106330705762
-0.005517744722955145,0.01180987859421192
-0.005517404722955145,0.01128326167013997
-0.005517064722955145,0.01069081763055698
-0.005516724722955145,0.01036168205301141
-0.005516384722955145,0.0104275091685204
-0.005516044722955145,0.0100654600332204
-0.005515704722955145,0.01055916339953875
-0.005515364722955145,0.0111516074391197
-0.005515024722955145,0.01078955830382065
-0.005514684722955145,0.01013128714872951
-0.005514344722955145,0.009769238013430041
-0.005514004722955145,0.009242621089356468
-0.005513664722955145,0.008321041472228868
-0.005513324722955145,0.008024819452438395
-0.005512984722955145,0.00762985675938317
-0.005512644722955145,0.007366548297346712
-0.005512304722955145,0.008123560125701526
-0.005511964722955145,0.008814744838547226
-0.005511624722955145,0.009143880416092796
-0.005511284722955145,0.009440102435883811
-0.005510944722955145,0.009604670224656596
-0.005510604722955145,0.00957175666690204
-0.005510264722955145,0.009933805802202166
-0.005509924722955145,0.009933805802202166
-0.005509584722955145,0.009473015993638367
-0.005509244722955145,0.009012226185074568
-0.005508904722955145,0.008518522818754714
-0.005508564722955145,0.007695683874892284
-0.005508224722955145,0.007761510990401397
-0.005507884722955145,0.008288127914475987
-0.005507544722955145,0.009209707531601911
-0.005507204722955145,0.01105286676585711
-0.005506864722955145,0.0128960260001147
-0.005506524722955145,0.01421256831029459
-0.005506184722955145,0.01477209879212206
-0.005505844722955145,0.01543036994721284
-0.005505504722955145,0.01523288860068586
-0.005505164722955145,0.01450879033008561
-0.005504824722955145,0.013225161577655
-0.005504484722955145,0.01164531080543914
-0.005504144722955145,0.0100654600332204
-0.005503804722955145,0.008716004165280501
-0.005503464722955145,0.007037412719801142
-0.005503124722955145,0.006741190700010127
-0.005502784722955145,0.007004499162048679
-0.005502444722955145,0.008156473683456083
-0.005502104722955145,0.009473015993638367
-0.005501764722955145,0.01062499051504829
-0.005501424722955145,0.01085538541932977
-0.005501084722955145,0.01088829897708432
-0.005500744722955145,0.01019711426423743
-0.005500404722955145,0.009538843109147481
-0.005500064722955145,0.009078053300583682
-0.005499724722955146,0.008617263492020721
-0.005499384722955145,0.009275534647111025
-0.005499044722955145,0.009538843109147481
-0.005498704722955145,0.01019711426423743
-0.005498364722955145,0.01105286676585711
-0.005498024722955145,0.01108578032361167
-0.005497684722955145,0.01108578032361167
-0.005497344722955145,0.01095412609259344
-0.005497004722955145,0.009999632917711282
-0.005496664722955145,0.009242621089357845
-0.005496324722955145,0.009143880416092796
-0.005495984722955145,0.009769238013429382
-0.005495644722955145,0.01052624984178282
-0.005495304722955145,0.01144782945891179
-0.005494964722955145,0.01233649551828483
-0.005494624722955145,0.01256689042256632
-0.005494284722955145,0.01180987859421192
-0.005493944722955145,0.01101995320810255
-0.005493604722955145,0.01003254647546763
-0.005493264722955145,0.00874891772303811
-0.005492924722955145,0.007761510990401397
-0.005492584722955145,0.00690575848878447
-0.005492244722955145,0.006675363584501014
-0.005491904722955145,0.007300721181837598
-0.005491564722955145,0.007893165221418549
-0.005491224722955145,0.008880571954056339
-0.005490884722955145,0.009835065128938496
-0.005490544722955145,0.01016420070648407
-0.005490204722955145,0.01019711426423862
-0.005489864722955145,0.009999632917711282
-0.005489524722955145,0.00957175666690204
-0.005489184722955145,0.009308448204865582
-0.005488844722955145,0.009473015993638367
-0.005488504722955145,0.009637583782411153
-0.005488164722955145,0.010427509168521
-0.005487824722955145,0.01069081763055698
-0.005487484722955145,0.01098703965034799
-0.005487144722955145,0.01095412609259296
-0.005486804722955145,0.01069081763055698
-0.005486464722955145,0.01026294137974774
-0.005486124722955145,0.009736324455675183
-0.005485784722955145,0.009933805802202166
-0.005485444722955145,0.009900892244447609
-0.005485104722955145,0.009769238013428784
-0.005484764722955145,0.009440102435883811
-0.005484424722955145,0.008452695703247097
-0.005484084722955145,0.007728597432645583
-0.005483744722955145,0.007037412719801142
-0.005483404722955145,0.006741190700010127
-0.005483064722955145,0.006510795795728886
-0.005482724722955145,0.006872844931028356
-0.005482384722955145,0.007267807624083042
-0.005482044722955145,0.008255214356720534
-0.005481704722955145,0.008683090607528997
-0.005481364722955145,0.009209707531601911
-0.005481024722955145,0.009473015993638487
-0.005480684722955145,0.009538843109147481
-0.005480344722955145,0.009933805802202166
-0.005480004722955145,0.009176793973847174
-0.005479664722955145,0.009078053300583682
-0.005479324722955145,0.008485609261001654
-0.005478984722955146,0.006938672046540284
-0.005478644722955145,0.002824477327217832
-0.005478304722955145,-0.006917935768131073
-0.005477964722955145,-0.02488873830208656
-0.005477624722955145,-0.05062714046618291
-0.005477284722955145,-0.0820266745640304
-0.005476944722955145,-0.1163226017442165
-0.005476604722955145,-0.1495652950763816
-0.005476264722955145,-0.1789900157089556
-0.005475924722955145,-0.2024244688301577
-0.005475584722955145,-0.2195724324203245
-0.005475244722955145,-0.2306643013836103
-0.005474904722955145,-0.2369178773569648
-0.005474564722955145,-0.238859777264495
-0.005474224722955145,-0.2374115807232945
-0.005473884722955145,-0.2330669910997009
-0.005473544722955145,-0.226747588010818
-0.005473204722955145,-0.2190458154962516
-0.005472864722955145,-0.2116402650014897
-0.005472524722955145,-0.2035106162361007
-0.005472184722955145,-0.1951176590086886
-0.005471844722955145,-0.1871196644743458
-0.005471504722955145,-0.1798786817683287
-0.005471164722955145,-0.1730984888708899
-0.005470824722955145,-0.1668449128975354
-0.005470484722955145,-0.1605255098086491
-0.005470144722955145,-0.1546339829705834
-0.005469804722955145,-0.1482816663239538
-0.005469464722955145,-0.142324312370379
-0.005469124722955145,-0.1362353041857859
-0.005468784722955145,-0.130212123116702
-0.005468444722955145,-0.1249130403182183
-0.005468104722955145,-0.1200089202127893
-0.005467764722955145,-0.1156314170314332
-0.005467424722955145,-0.111484308754359
-0.005467084722955145,-0.107765076728094
-0.005466744722955145,-0.1039471040285654
-0.005466404722955145,-0.1002278720022951
-0.005466064722955145,-0.09726565180439034
-0.005465724722955145,-0.09473130785728942
-0.005465384722955145,-0.0923615316989557
-0.005465044722955145,-0.08926765727003294
-0.005464704722955145,-0.08577882014804991
-0.005464364722955145,-0.08186210677525071
-0.005464024722955145,-0.07807704763348353
-0.005463684722955145,-0.07435781560721857
-0.005463344722955145,-0.07034236156115531
-0.005463004722955145,-0.06632690751510664
-0.005462664722955145,-0.06336468731719652
-0.005462324722955145,-0.06046829423479166
-0.005461984722955145,-0.05836182653850384
-0.005461644722955145,-0.05661740797751231
-0.005461304722955145,-0.05500464364753464
-0.005460964722955145,-0.05260195393145634
-0.005460624722955145,-0.04977138796456442
-0.005460284722955145,-0.04707247622868529
-0.005459944722955145,-0.04407734247302605
-0.005459604722955145,-0.04101638160185223
-0.005459264722955145,-0.03881117323229302
-0.005458924722955145,-0.0366717919782507
-0.005458584722955145,-0.03532233611031386
-0.005458244722955145,-0.03410453447339303
-0.005457904722955145,-0.03288673283647663
-0.005457564722955145,-0.03176767187282169
-0.005457224722955146,-0.03078026514018677
-0.005456884722955145,-0.02883836523266611
-0.005456544722955145,-0.02752182292248382
-0.005456204722955145,-0.02597488570802245
-0.005455864722955145,-0.02429629426253722
-0.005455524722955145,-0.02225565368175468
-0.005455184722955145,-0.02103785204483828
-0.005454844722955145,-0.02028084021648126
-0.005454504722955145,-0.01916177925282632
-0.005454164722955145,-0.0182072860779459
-0.005453824722955145,-0.01784523694264403
-0.005453484722955145,-0.01682491665225276
-0.005453144722955145,-0.01557420145758186
-0.005452804722955145,-0.01425765914739731
-0.005452464722955145,-0.01320442529925148
-0.005452124722955145,-0.01205245077784407
-0.005451784722955145,-0.01103213048745071
-0.005451444722955145,-0.010044723754814
-0.005451104722955145,-0.009090230579933576
-0.005450764722955145,-0.008168650962804242
-0.005450424722955145,-0.007115417114658414
-0.005450084722955145,-0.006358405286304977
-0.005449744722955145,-0.005798874804476131
-0.005449404722955145,-0.005765961246721574
-0.005449064722955145,-0.005074776533877131
-0.005448724722955145,-0.004449418936539287
-0.005448384722955145,-0.004482332494293848
-0.005448044722955145,-0.004646900283066632
-0.005447704722955145,-0.005173517207139544
-0.005447364722955145,-0.005370998553666888
-0.005447024722955145,-0.005370998553666888
-0.005446684722955145,-0.005140603649384987
-0.005446344722955145,-0.003955715570220932
-0.005446004722955145,-0.003034135953093334
-0.005445664722955145,-0.001816334316173943
-0.005445324722955145,-0.001388458065365479
-0.005444984722955145,-0.001618852969647377
-0.005444644722955145,-0.001454285180872737
-0.005444304722955145,-0.000433964890483321
-0.005443964722955145,0.0006850960731716212
-0.005443624722955145,0.001935811267847784
-0.005443284722955145,0.003581489155572645
-0.005442944722955145,0.004700550119227587
-0.005442604722955145,0.005391734832073824
-0.005442264722955145,0.005687956851864301
-0.005441924722955145,0.005029685696773157
-0.005441584722955145,0.004075192521888187
-0.005441244722955145,0.002528255307426817
-0.005440904722955145,0.001442107901526435
-0.005440564722955145,0.001178799439491055
-0.005440224722955145,0.001771243479072003
-0.005439884722955145,0.00249534174967226
-0.005439544722955145,0.003548575597820124
-0.005439204722955145,0.004667636561473031
-0.005438864722955145,0.005852524640637086
-0.005438524722955145,0.007004499162047601
-0.005438184722955145,0.007564029643874055
-0.005437844722955145,0.007761510990401397
-0.005437504722955145,0.008123560125700627
-0.005437164722955145,0.00762985675938317
-0.005436824722955145,0.007564029643874055
-0.005436484722955146,0.007498202528365061
-0.005436144722955145,0.007564029643874055
-0.005435804722955145,0.007991905894683298
-0.005435464722955145,0.00832104147222827
-0.005435124722955145,0.009209707531601911
-0.005434784722955145,0.009637583782411153
-0.005434444722955145,0.01009837359097411
-0.005434104722955145,0.01009837359097495
-0.005433764722955145,0.009505929551392924
-0.005433424722955145,0.009078053300584461
-0.005433084722955145,0.009012226185074568
-0.005432744722955145,0.009341361762620138
-0.005432404722955145,0.009867978686692095
-0.005432064722955145,0.01019711426423862
-0.005431724722955145,0.01072373118831154
-0.005431384722955145,0.01115160743912
-0.005431044722955145,0.01108578032361167
-0.005430704722955145,0.01059207695729331
-0.005430364722955145,0.01095412609259278
-0.005430024722955145,0.01138200234340268
-0.005429684722955145,0.01227066840277572
-0.005429344722955145,0.01299476667337466
-0.005429004722955145,0.01299476667337598
-0.005428664722955145,0.01250106330705762
-0.005428324722955145,0.01236940907603963
-0.005427984722955145,0.01115160743912078
-0.005427644722955145,0.01085538541932977
-0.005427304722955145,0.01016420070648407
-0.005426964722955145,0.009308448204865582
-0.005426624722955145,0.009308448204865582
-0.005426284722955145,0.009308448204865582
-0.005425944722955145,0.009275534647111025
-0.005425604722955145,0.009900892244447609
-0.005425264722955145,0.01078955830382065
-0.005424924722955145,0.01125034811238445
-0.005424584722955145,0.01105286676585711
-0.005424244722955145,0.01148074301666635
-0.005423904722955145,0.01204027349849508
-0.005423564722955145,0.01273145821133952
-0.005423224722955145,0.01309350734663965
-0.005422884722955145,0.01299476667337436
-0.005422544722955145,0.01210610061400294
-0.005422204722955145,0.01078955830382065
-0.005421864722955145,0.00993380580220073
-0.005421524722955145,0.009143880416092796
-0.005421184722955145,0.008913485511810896
-0.005420844722955145,0.008419782145493498
-0.005420504722955145,0.008946399069565453
-0.005420164722955145,0.009045139742829125
-0.005419824722955145,0.009473015993638487
-0.005419484722955145,0.009538843109147481
-0.005419144722955145,0.009933805802202166
-0.005418804722955145,0.01009837359097537
-0.005418464722955145,0.01032876849525685
-0.005418124722955145,0.01078955830382065
-0.005417784722955145,0.01125034811238499
-0.005417444722955145,0.01154657013217547
-0.005417104722955145,0.01138200234340268
-0.005416764722955145,0.01154657013217618
-0.005416424722955145,0.01194153282523015
-0.005416084722955145,0.01240232263379395
-0.005415744722955145,0.01329098869316801
-0.005415404722955145,0.01385051917499446
-0.005415064722955145,0.01358721071295801
-0.005414724722955146,0.01240232263379611
-0.005414384722955145,0.01101995320810255
