Analysis/New Tests_CMB/wrd01_d2s01/cmb06_ch06.csv

#Digilent WaveForms Oscilloscope Acquisition
#Device Name: ADP3450
#Serial Number: SN:210018B9D9B0
#Date Time: 2024-08-14 15:37:00.595.492.660
#Sample rate: 5.88235e+06Hz
#Samples: 32768
#Trigger: Source: Channel 3 Type: Edge Condition: Rising Level: 60 mV Hyst.: Auto HoldOff: 0 s
#Channel 3: Range: 100 mV/div Offset: 0 V Attenuation: 1 X Coupling: DC Bandwidth: 0 Hz Sample Mode: Average

Time (s),Channel 3 (V)
-0.003798516399292386,0.2065884163281912
-0.003798346399292386,0.2184043835620968
-0.003798176399292386,0.2291671169478174
-0.003798006399292386,0.2382183453303206
-0.003797836399292386,0.2455580687095962
-0.003797666399292386,0.2507254972770523
-0.003797496399292386,0.254905519111881
-0.003797326399292386,0.2574069495012299
-0.003797156399292386,0.2587893189269188
-0.003796986399292386,0.2590526273889552
-0.003796816399292386,0.258920973157934
-0.003796646399292386,0.2572752952702091
-0.003796476399292386,0.2544776428610718
-0.003796306399292386,0.2555967038247189
-0.003796136399292386,0.2513179413166343
-0.003795966399292386,0.2472695737128238
-0.003795796399292386,0.2445377484191884
-0.003795626399292386,0.2406210350464033
-0.003795456399292386,0.2370334572511565
-0.003795286399292386,0.2336433608024304
-0.003795116399292386,0.2299241287761722
-0.003794946399292386,0.2263365509809255
-0.003794776399292386,0.2231439358787392
-0.003794606399292386,0.2198525801032777
-0.003794436399292386,0.2149155464400941
-0.003794266399292386,0.211327968644854
-0.003794096399292386,0.2075758230608279
-0.003793926399292386,0.2034616283415083
-0.003793756399292386,0.1998082234307591
-0.003793586399292386,0.1960231642889784
-0.003793416399292386,0.1927647220712772
-0.003793246399292386,0.1892758849493005
-0.003793076399292386,0.1859187020583293
-0.003792906399292386,0.1821007293588007
-0.003792736399292386,0.179204336276405
-0.003792566399292386,0.1757484127121712
-0.003792396399292386,0.1720950078014153
-0.003792226399292386,0.1692644418345286
-0.003792056399292386,0.1663351351943679
-0.003791886399292386,0.1635045692274759
-0.003791716399292386,0.1603119541252897
-0.003791546399292386,0.1580409186402195
-0.003791376399292386,0.1538608968053907
-0.003791206399292386,0.151030330838504
-0.003791036399292386,0.1475414937165158
-0.003790866399292386,0.1441843108255509
-0.003790696399292386,0.1411562635121372
-0.003790526399292386,0.1379307348521851
-0.003790356399292386,0.1352976502318205
-0.003790186399292386,0.132137948687383
-0.003790016399292386,0.1296365182980367
-0.003789846399292386,0.1271680014664449
-0.003789676399292386,0.125226101558926
-0.003789506399292386,0.1227575847273343
-0.003789336399292386,0.1211777339551155
-0.003789166399292386,0.1193345747208603
-0.003788996399292386,0.1177218103908838
-0.003788826399292386,0.1159773918298955
-0.003788656399292386,0.1140684054801312
-0.003788486399292386,0.1118961106683274
-0.003788316399292386,0.1102504327806026
-0.003788146399292386,0.1081768786420655
-0.003787976399292386,0.106366632965561
-0.003787806399292386,0.1042930788270277
-0.003787636399292386,0.1025815738237907
-0.003787466399292386,0.1006725874740221
-0.003787296399292386,0.09826989775794376
-0.003787126399292386,0.09563681313757921
-0.003786956399292386,0.09642673852367541
-0.003786786399292386,0.08918575581768601
-0.003786616399292386,0.08819834908504928
-0.003786446399292386,0.08632227629303517
-0.003786276399292386,0.08391958657695686
-0.003786106399292386,0.08191185955392888
-0.003785936399292386,0.08033200878170782
-0.003785766399292386,0.07904838002928241
-0.003785596399292386,0.07753435637257278
-0.003785426399292386,0.0757570242538245
-0.003785256399292386,0.0745392226169081
-0.003785086399292386,0.07378221078855329
-0.003784916399292386,0.07177448376552376
-0.003784746399292386,0.0709187312639068
-0.003784576399292386,0.07022754655106112
-0.003784406399292386,0.06943762116495319
-0.003784236399292386,0.06831856020129681
-0.003784066399292386,0.06742989414192377
-0.003783896399292386,0.0660146111584804
-0.003783726399292386,0.06522468577236842
-0.003783556399292386,0.06450058750176818
-0.003783386399292386,0.0629207367295523
-0.003783216399292386,0.06193332999691272
-0.003783046399292386,0.06005725720490297
-0.003782876399292386,0.05897110979900456
-0.003782706399292386,0.05666716075618358
-0.003782536399292386,0.05571266758130143
-0.003782366399292386,0.05386950834704958
-0.003782196399292386,0.05255296603686395
-0.003782026399292386,0.05123642372668166
-0.003781856399292386,0.05001862208976526
-0.003781686399292386,0.0486033391063171
-0.003781516399292386,0.04771467304694405
-0.003781346399292386,0.04738553746939907
-0.003781176399292386,0.04695766121858923
-0.003781006399292386,0.04560820535065239
-0.003780836399292386,0.04570694602391589
-0.003780666399292386,0.04501576131107037
-0.003780496399292386,0.04504867486882493
-0.003780326399292386,0.04471953929127995
-0.003780156399292386,0.04425874948271556
-0.003779986399292386,0.04422583592496099
-0.003779816399292386,0.0439954410206791
-0.003779646399292386,0.04356756476986986
-0.003779476399292386,0.0430738614035515
-0.003779306399292386,0.04182314620887833
-0.003779136399292386,0.04096739370725985
-0.003778966399292386,0.0393875429350411
-0.003778796399292386,0.03820265485587705
-0.003778626399292386,0.03655697696814919
-0.003778456399292386,0.0352404346579669
-0.003778286399292386,0.03385806523227551
-0.003778116399292386,0.03188325176699987
-0.003777946399292386,0.03066545013008347
-0.003777776399292386,0.02931599426214663
-0.003777606399292386,0.02819693329848726
-0.003777436399292386,0.02576133002465446
-0.003777266399292386,0.02625503339097282
-0.003777096399292386,0.02579424358240794
-0.003776926399292386,0.02520179954282699
-0.003776756399292386,0.02497140463854509
-0.003776586399292386,0.02454352838773573
-0.003776416399292386,0.02447770127222673
-0.003776246399292386,0.0248068368497723
-0.003776076399292386,0.02530054021608965
-0.003775906399292386,0.02474100973426319
-0.003775736399292386,0.02510305886956332
-0.003775566399292386,0.0251030588695617
-0.003775396399292386,0.02421439281019028
-0.003775226399292386,0.02451061482998129
-0.003775056399292386,0.02418147925243381
-0.003774886399292386,0.02312824540428989
-0.003774716399292386,0.02230540646042596
-0.003774546399292386,0.02210792511389658
-0.003774376399292386,0.02098886415024368
-0.003774206399292386,0.02092303703473456
-0.003774036399292386,0.0203635065529068
-0.003773866399292386,0.02019893876413431
-0.003773696399292386,0.01954066760904317
-0.003773526399292386,0.01960649472455216
-0.003773356399292386,0.01927735914700671
-0.003773186399292386,0.01894822356946114
-0.003773016399292386,0.01907987780047913
-0.003772846399292386,0.0187507422229338
-0.003772676399292386,0.01832286597212456
-0.003772506399292386,0.01769750837478911
-0.003772336399292386,0.01779624904805164
-0.003772166399292386,0.01743419991275151
-0.003771996399292386,0.017532940586015
-0.003771826399292386,0.01733545923948784
-0.003771656399292386,0.01733545923948784
-0.003771486399292386,0.01684175587317038
-0.003771316399292386,0.01677592875766037
-0.003771146399292386,0.01634805250685113
-0.003770976399292386,0.01641387962236012
-0.003770806399292386,0.01654553385337847
-0.003770636399292386,0.01618348471807834
-0.003770466399292386,0.01618348471807834
-0.003770296399292386,0.01601891692930556
-0.003770126399292386,0.01559104067849632
-0.003769956399292386,0.0145378068303524
-0.003769786399292386,0.01440615259933226
-0.003769616399292386,0.01312252384690453
-0.003769446399292386,0.01285921538486808
-0.003769276399292386,0.01187180865223136
-0.003769106399292386,0.01098314259285832
-0.003768936399292386,0.01078566124633098
-0.003768766399292386,0.009896995186957936
-0.003768596399292386,0.008942502012075779
-0.003768426399292386,0.008218403741475522
-0.003768256399292386,0.007593046144138938
-0.003768086399292386,0.00779052749066628
-0.003767916399292386,0.007856354606175394
-0.003767746399292386,0.006737293642519016
-0.003767576399292386,0.005947368256411082
-0.003767406399292386,0.005815714025392853
-0.003767236399292386,0.005716973352130799
-0.003767066399292386,0.006605639411502225
-0.003766896399292386,0.005223269985810825
-0.003766726399292386,0.00505870219703822
-0.003766556399292386,0.005157442870301712
-0.003766386399292386,0.004663739503983355
-0.003766216399292386,0.006046108929668407
-0.003766046399292386,0.0025572718076917
-0.003765876399292386,0.00380798700236487
-0.003765706399292386,0.004301690368683227
-0.003765536399292386,0.004301690368683227
-0.003765366399292386,0.004466258157456012
-0.003765196399292386,0.004071295464401567
-0.003765026399292386,0.004202949695419555
-0.003764856399292386,0.004071295464401327
-0.003764686399292386,0.003972554791137536
-0.003764516399292386,0.003906727675628541
-0.003764346399292386,0.003643419213592085
-0.003764176399292386,0.003610505655836629
-0.003764006399292386,0.003116802289519171
-0.003763836399292386,0.002754753154219042
-0.003763666399292386,0.002030654883618906
-0.003763496399292386,0.002096481999127901
-0.003763326399292386,0.001833173537091444
-0.003763156399292386,0.001866087094845941
-0.003762986399292386,0.001668605748318658
-0.003762816399292386,0.001734432863827772
-0.003762646399292386,0.001866087094845761
-0.003762476399292386,0.001964827768109672
-0.003762306399292386,0.001964827768109672
-0.003762136399292386,0.002359790461163639
-0.003761966399292386,0.0030180616162555
-0.003761796399292386,0.003413024309310185
-0.003761626399292386,0.00370924632910066
-0.003761456399292386,0.004137122579910441
-0.003761286399292386,0.004433344599701455
-0.003761116399292386,0.004466258157455953
-0.003760946399292386,0.004104209022155884
-0.003760776399292386,0.004334603926437783
-0.003760606399292386,0.004564998830719265
-0.003760436399292386,0.00426877681092867
-0.003760266399292386,0.004235863253174112
-0.003760096399292386,0.004170036137665118
-0.003759926399292386,0.003742159886855756
-0.003759756399292386,0.003840900560119427
-0.003759586399292386,0.003413024309310963
-0.003759416399292386,0.003544678540328413
-0.003759246399292386,0.003182629405028285
-0.003759076399292386,0.002985148058501301
-0.003758906399292386,0.003050975174010056
-0.003758736399292386,0.003149715847273728
-0.003758566399292386,0.00380798700236487
-0.003758396399292386,0.001964827768109672
-0.003758226399292386,0.002293963345655243
-0.003758056399292386,0.001438210844036758
-0.003757886399292386,0.001899000652600558
-0.003757716399292386,0.001010334593227516
-0.003757546399292386,0.0005824583424182735
-0.003757376399292386,-0.0002074670436919352
-0.003757206399292386,-0.0006682568522548965
-0.003757036399292386,-0.001787317815909838
-0.003756866399292386,-0.002346848297739464
-0.003756696399292386,-0.003531736376901365
-0.003756526399292386,-0.003531736376901365
-0.003756356399292386,-0.003827958396692917
-0.003756186399292386,-0.004124180416483393
-0.003756016399292386,-0.00438748887851985
-0.003755846399292386,-0.003959612627711205
-0.003755676399292386,-0.004288748205256179
-0.003755506399292386,-0.004420402436274407
-0.003755336399292386,-0.004782451571574415
-0.003755166399292386,-0.004716624456065421
-0.003754996399292386,-0.004321661763010735
-0.003754826399292386,-0.003663390607918875
-0.003754656399292386,-0.003268427914864908
-0.003754486399292386,-0.002412675413246423
-0.003754316399292386,-0.002215194066718063
-0.003754146399292386,-0.00165566358489161
-0.003753976399292386,-0.0008657381987822392
-0.003753806399292386,-0.0002732941592008099
-0.003753636399292386,-0.0006024297367457822
-0.003753466399292386,-0.0002403806014456541
-0.003753296399292386,-0.0001416399281813242
-0.003753126399292386,0.0002204092071181454
-0.003752956399292386,0.000417890553645488
-0.003752786399292386,0.0006153719001724715
-0.003752616399292386,0.0008786803622092876
-0.003752446399292386,0.001240729497509416
-0.003752276399292386,0.0008786803622099461
-0.003752106399292386,0.001438210844036758
-0.003751936399292386,0.001569865075054987
-0.003751766399292386,0.002096481999126943
-0.003751596399292386,0.001997741325864229
-0.003751426399292386,0.002096481999127901
-0.003751256399292386,0.00222813623014589
-0.003751086399292386,0.001899000652600558
-0.003750916399292386,0.001471124401791315
-0.003750746399292386,0.001931914210354277
-0.003750576399292386,0.001800259979336887
-0.003750406399292386,0.001833173537091444
-0.003750236399292386,0.001833173537091444
-0.003750066399292386,0.001997741325864229
-0.003749896399292386,0.001504037959545873
-0.003749726399292386,0.001438210844036878
-0.003749556399292386,0.002129395556882458
-0.003749386399292386,0.001010334593227516
-0.003749216399292386,0.002721839596461373
-0.003749046399292386,-0.0004378619479729968
-0.003748876399292386,0.001240729497509416
-0.003748706399292386,0.001207815939754919
-0.003748536399292386,0.00107616170873663
-0.003748366399292386,0.001372383728527644
-0.003748196399292386,0.001141988824245744
-0.003748026399292386,0.0006153719001728307
-0.003747856399292386,-0.0001416399281819828
-0.003747686399292386,-0.0003391212747093254
-0.003747516399292386,-0.0003720348324638825
-0.003747346399292386,-0.001820231373664395
-0.003747176399292386,-0.001918972046928067
-0.003747006399292386,-0.002379761855491866
-0.003746836399292386,-0.002939292337319337
-0.003746666399292386,-0.003498822819146808
-0.003746496399292386,-0.003992526185465045
-0.003746326399292386,-0.00392669906995605
-0.003746156399292386,-0.004288748205256179
-0.003745986399292386,-0.004584970225047073
-0.003745816399292386,-0.004519143109538078
-0.003745646399292386,-0.004222921089747064
-0.003745476399292386,-0.004321661763009478
-0.003745306399292386,-0.003630477050165036
-0.003745136399292386,-0.003070946568337565
-0.003744966399292386,-0.002610156759773047
-0.003744796399292386,-0.002215194066719081
-0.003744626399292386,-0.001293614449591481
-0.003744456399292386,-0.0002403806014447561
-0.003744286399292386,0.0002533227648727025
-0.003744116399292386,0.0004837176691546022
-0.003743946399292386,0.0008786803622094672
-0.003743776399292386,0.0009774210354729588
-0.003743606399292386,0.001043248150982073
-0.003743436399292386,0.001273643055264033
-0.003743266399292386,0.00130655661301853
-0.003743096399292386,0.001010334593227516
-0.003742926399292386,0.0006482854579258911
-0.003742756399292386,-0.0001745534859365399
-0.003742586399292386,-0.0008657381987822392
-0.003742416399292386,-0.00106321954531048
-0.003742246399292386,-0.001556922911627938
-0.003742076399292386,-0.002346848297737309
-0.003741906399292386,-0.002116453393455828
-0.003741736399292386,-0.002412675413246423
-0.003741566399292386,-0.00290637877956478
-0.003741396399292386,-0.003136773683846261
-0.003741226399292386,-0.003301341472619465
-0.003741056399292386,-0.002708897433037437
-0.003740886399292386,-0.002741810990791935
-0.003740716399292386,-0.00267598387528288
-0.003740546399292386,-0.002083539835700852
-0.003740376399292386,-0.001458182238365405
-0.003740206399292386,-0.0007011704100094536
-0.003740036399292386,-7.581281267286857e-05
-0.003739866399292386,0.0002533227648721038
-0.003739696399292386,0.001668605748318658
-0.003739526399292386,0.0007799396889456162
-0.003739356399292386,0.000747026131191119
-0.003739186399292386,0.0008128532467001733
-0.003739016399292386,0.0008457668044547304
-0.003738846399292386,0.001076161708736211
-0.003738676399292386,0.0008786803622092876
-0.003738506399292386,0.0007470261311910591
-0.003738336399292386,0.0009115939199635453
-0.003738166399292386,-0.0003062077169547683
-0.003737996399292386,0.0001216685338544741
-0.003737826399292386,-0.000997392429798432
-0.003737656399292386,-0.0006024297367457822
-0.003737486399292386,-0.001096133103064139
-0.003737316399292386,-0.001754404258155281
-0.003737146399292386,-0.002116453393455409
-0.003736976399292386,-0.002544329644264652
-0.003736806399292386,-0.002939292337319337
-0.003736636399292386,-0.003334255030374022
-0.003736466399292386,-0.003202600799355794
-0.003736296399292386,-0.002741810990791994
-0.003736126399292386,-0.002906378779563403
-0.003735956399292386,-0.002149366951209966
-0.003735786399292386,-0.001458182238364267
-0.003735616399292386,-0.00132652800734544
-0.003735446399292386,-0.0009973924298004675
-0.003735276399292386,-0.001063219545309582
-0.003735106399292386,-0.001030305987555324
-0.003734936399292386,-0.00119487377632781
-0.003734766399292386,-0.0003720348324638825
-0.003734596399292386,-7.581281267215014e-05
-0.003734426399292386,0.0003191498803818167
-0.003734256399292386,0.0003849769958909309
-0.003734086399292386,0.0004837176691540634
-0.003733916399292386,0.0001874956493635883
-0.003733746399292386,0.0002862363226272596
-0.003733576399292386,0.00051663122690886
-0.003733406399292386,0.0003520634381363738
-0.003733236399292386,-4.289925491831147e-05
-0.003733066399292386,8.875497609895905e-05
-0.003732896399292386,-0.0004378619479729968
-0.003732726399292386,-0.0006353432945003394
-0.003732556399292386,-0.0006024297367462612
-0.003732386399292386,-0.0008657381987822392
-0.003732216399292386,-0.0009973924298004675
-0.003732046399292386,-0.001293614449591541
-0.003731876399292386,-0.001326528007346039
-0.003731706399292386,-0.001984799162437181
-0.003731536399292386,-0.002412675413245645
-0.003731366399292386,-0.002610156759773766
-0.003731196399292386,-0.002840551664055666
-0.003731026399292386,-0.002807638106301168
-0.003730856399292386,-0.003400082145883136
-0.003730686399292386,-0.002577243202019209
-0.003730516399292386,-0.002840551664055187
-0.003730346399292386,-0.002149366951209966
-0.003730176399292386,-0.002939292337319337
-0.003730006399292386,-0.001820231373666431
-0.003729836399292386,-0.00290637877956478
-0.003729666399292386,-0.002708897433037437
-0.003729496399292386,-0.00267598387528294
-0.003729326399292386,-0.003202600799355794
-0.003729156399292386,-0.003663390607919593
-0.003728986399292386,-0.002182280508967217
-0.003728816399292386,-0.003564649934655922
-0.003728646399292386,-0.00336716858812858
-0.003728476399292386,-0.003038033010583607
-0.003728306399292386,-0.003630477050165036
-0.003728136399292386,-0.003235514357110351
-0.003727966399292386,-0.003235514357110351
-0.003727796399292386,-0.002972205895073894
-0.003727626399292386,-0.003531736376901365
-0.003727456399292386,-0.003597563492410359
-0.003727286399292386,-0.003729217723428708
-0.003727116399292386,-0.003795044838937822
-0.003726946399292386,-0.003202600799355794
-0.003726776399292386,-0.003597563492410479
-0.003726606399292386,-0.003992526185465165
-0.003726436399292386,-0.003663390607919593
-0.003726266399292386,-0.003729217723428708
-0.003726096399292386,-0.003992526185465165
-0.003725926399292386,-0.003498822819146808
-0.003725756399292386,-0.002939292337319337
-0.003725586399292386,-0.002412675413246423
-0.003725416399292386,-0.00267598387528288
-0.003725246399292386,-0.002939292337318978
-0.003725076399292386,-0.002741810990791994
-0.003724906399292386,-0.00313677368384668
-0.003724736399292386,-0.002939292337319397
-0.003724566399292386,-0.002972205895073894
-0.003724396399292386,-0.003334255030374022
-0.003724226399292386,-0.002675983875282461
-0.003724056399292386,-0.00244558897100098
-0.003723886399292386,-0.001556922911627938
-0.003723716399292386,-0.001688577142645269
-0.003723546399292386,-0.00119487377632781
-0.003723376399292386,-0.001096133103064139
-0.003723206399292386,-0.00109613310306372
-0.003723036399292386,-0.0008657381987822392
-0.003722866399292386,0.001668605748318658
-0.003722696399292386,-0.002017712720189882
-0.003722526399292386,-0.0009973924298004675
-0.003722356399292386,-0.0001416399281819828
-0.003722186399292386,-0.001227787334081829
-0.003722016399292386,-0.0009315653142913533
-0.003721846399292386,-0.0005036890634821109
-0.003721676399292386,-0.0006024297367457822
-0.003721506399292386,-0.0006024297367457822
-0.003721336399292386,-0.0001416399281819828
-0.003721166399292386,-0.0007999110832728854
-0.003720996399292386,-0.0006682568522548965
