Analysis/New Tests_CMB/wrd01_d2s01/cmb02_ch44.csv

#Digilent WaveForms Oscilloscope Acquisition
#Device Name: ADP3450
#Serial Number: SN:210018B9D9B0
#Date Time: 2024-08-14 16:45:26.591.032.530
#Sample rate: 5.88235e+06Hz
#Samples: 32768
#Trigger: Source: Channel 3 Type: Edge Condition: Rising Level: 60 mV Hyst.: Auto HoldOff: 0 s
#Channel 3: Range: 100 mV/div Offset: 0 V Attenuation: 1 X Coupling: DC Bandwidth: 0 Hz Sample Mode: Average

Time (s),Channel 3 (V)
-0.00379843975791189,0.1095921616255114
-0.003798269757911889,0.1118302835528294
-0.00379809975791189,0.1140684054801343
-0.00379792975791189,0.1149241579817512
-0.00379775975791189,0.1157799104833689
-0.00379758975791189,0.1162077867341774
-0.00379741975791189,0.1160432189454046
-0.003797249757911889,0.1152203800015352
-0.00379707975791189,0.1137063563448311
-0.00379690975791189,0.1137063563448294
-0.00379673975791189,0.1127847767277011
-0.00379656975791189,0.1114682344175212
-0.00379639975791189,0.1096579887410205
-0.003796229757911889,0.1079793972955318
-0.00379605975791189,0.1062349787345413
-0.00379588975791189,0.1047867821933438
-0.00379571975791189,0.1035031534409151
-0.00379554975791189,0.1017258213221723
-0.00379537975791189,0.1002117976654626
-0.003795209757911889,0.09826989775793969
-0.00379503975791189,0.09715083679428367
-0.00379486975791189,0.09573555381083951
-0.00379469975791189,0.0938923945765851
-0.00379452975791189,0.0924771115931417
-0.00379435975791189,0.09162135909152322
-0.00379418975791189,0.08971237274176239
-0.00379401975791189,0.0887249660091172
-0.00379384975791189,0.08734259658342888
-0.00379367975791189,0.08628936273528193
-0.00379350975791189,0.08461077128980257
-0.00379333975791189,0.08263595782452915
-0.00379316975791189,0.08168146464964872
-0.00379299975791189,0.0806611443592483
-0.00379282975791189,0.07862050377847246
-0.00379265975791189,0.07822554108541574
-0.00379248975791189,0.07671151742870885
-0.00379231975791189,0.07578993781158128
-0.00379214975791189,0.07453922261691037
-0.00379197975791189,0.0730251989601951
-0.00379180975791189,0.07210361934306912
-0.00379163975791189,0.07114912616818722
-0.00379146975791189,0.0703262872243248
-0.00379129975791189,0.06924013981842439
-0.00379112975791189,0.06798942462375351
-0.003790959757911889,0.06746280769967569
-0.00379078975791189,0.06673870942907566
-0.00379061975791189,0.06542216711889519
-0.00379044975791189,0.06509303154135021
-0.00379027975791189,0.06390814346218615
-0.00379010975791189,0.06334861298035868
-0.003789939757911889,0.06239411980547341
-0.00378976975791189,0.06153836730385642
-0.00378959975791189,0.0606497012444829
-0.00378942975791189,0.0594977267230755
-0.00378925975791189,0.05847740643268422
-0.00378908975791189,0.05758874037331118
-0.003788919757911889,0.05656842008291477
-0.00378874975791189,0.05515313709947204
-0.00378857975791189,0.05409990325132676
-0.00378840975791189,0.05334289142297116
-0.00378823975791189,0.05215800334380926
-0.00378806975791189,0.051433905073209
-0.003787899757911889,0.0508414610336259
-0.00378772975791189,0.05054523901383171
-0.00378755975791189,0.0482083764132648
-0.00378738975791189,0.04952491872344349
-0.00378721975791189,0.04886664756835355
-0.00378704975791189,0.04824128997101697
-0.003786879757911889,0.04702348833409799
-0.00378670975791189,0.04692474766083109
-0.00378653975791189,0.04593734092819683
-0.00378636975791189,0.04531198333086018
-0.00378619975791189,0.04465371217577024
-0.00378602975791189,0.04406126813618821
-0.003785859757911889,0.0431396885190593
-0.00378568975791189,0.04277763938375725
-0.00378551975791189,0.04188897332438613
-0.00378534975791189,0.04116487505378575
-0.00378517975791189,0.04037494966767782
-0.00378500975791189,0.03961793783932301
-0.003784839757911889,0.03988124630135395
-0.00378466975791189,0.03836722264464828
-0.00378449975791189,0.03793934639383957
-0.00378432975791189,0.03737981591201121
-0.00378415975791189,0.03632658206386729
-0.00378398975791189,0.03616201427509451
-0.00378381975791189,0.03563539735102255
-0.00378364975791189,0.0350429533114392
-0.00378347975791189,0.03494421263817548
-0.00378330975791189,0.03471381773389268
-0.00378313975791189,0.03398971946329374
-0.00378296975791189,0.0337922381167664
-0.00378279975791189,0.0337264110012574
-0.00378262975791189,0.03313396696167418
-0.00378245975791189,0.03283774494188352
-0.00378228975791189,0.03244278224882913
-0.00378211975791189,0.03221238734454766
-0.00378194975791189,0.03158702974721107
-0.00378177975791189,0.03171868397822905
-0.00378160975791189,0.03086293147660854
-0.00378143975791189,0.03023757387927387
-0.00378126975791189,0.03004009253274635
-0.00378109975791189,0.02974387051295587
-0.00378092975791189,0.02921725358888296
-0.00378075975791189,0.02911851291561946
-0.003780589757911889,0.02826276041400032
-0.00378041975791189,0.02813110618298209
-0.00378024975791189,0.02786779772094558
-0.00378007975791189,0.0275715757011551
-0.00377990975791189,0.02674873675729117
-0.00377973975791189,0.02661708252627295
-0.003779569757911889,0.02632086050648061
-0.00377939975791189,0.02595881137118198
-0.00377922975791189,0.02605755204444554
-0.00377905975791189,0.02609046560220003
-0.00377888975791189,0.02556384867812712
-0.00377871975791189,0.02477392329201775
-0.003778549757911889,0.02457644194548717
-0.00377837975791189,0.02368777588611844
-0.00377820975791189,0.02428021992569724
-0.00377803975791189,0.02309533184653623
-0.00377786975791189,0.02358903521285369
-0.00377769975791189,0.02263454203797154
-0.003777529757911889,0.02246997424919863
-0.00377735975791189,0.02243706069144395
-0.00377718975791189,0.02230540646042519
-0.00377701975791189,0.02187753020961571
-0.00377684975791189,0.02131799972778925
-0.00377667975791189,0.02154839463207115
-0.003776509757911889,0.0209230370347366
-0.00377633975791189,0.02148256751655893
-0.00377616975791189,0.02062681501494433
-0.00377599975791189,0.02105469126575267
-0.00377582975791189,0.02098886415024368
-0.00377565975791189,0.02082429636147089
-0.003775489757911889,0.02052807434168275
-0.00377531975791189,0.02131799972778662
-0.00377514975791189,0.02059390145718876
-0.00377497975791189,0.02046224722617064
-0.00377480975791189,0.02039642011066165
-0.00377463975791189,0.01950775405128861
-0.003774469757911889,0.01937609982027122
-0.00377429975791189,0.0196064947245518
-0.00377412975791189,0.01947484049353298
-0.00377395975791189,0.01888239645395328
-0.00377378975791189,0.01957358116679772
-0.00377361975791189,0.01947484049353405
-0.00377344975791189,0.01924444558925257
-0.00377327975791189,0.01924444558925263
-0.00377310975791189,0.0193760998202699
-0.00377293975791189,0.0191127913582338
-0.00377276975791189,0.01904696424272481
-0.00377259975791189,0.01888239645395202
-0.00377242975791189,0.01907987780047901
-0.00377225975791189,0.01894822356946222
-0.00377208975791189,0.01924444558925173
-0.00377191975791189,0.01901405068497062
-0.00377174975791189,0.0192115320314976
-0.00377157975791189,0.01901405068497026
-0.00377140975791189,0.01875074222293428
-0.00377123975791189,0.01822412529886041
-0.00377106975791189,0.01809247106784271
-0.00377089975791189,0.01812538462559655
-0.00377072975791189,0.01776333549029708
-0.00377055975791189,0.01753294058601518
-0.00377038975791189,0.01657844741113476
-0.003770219757911889,0.0164797067378684
-0.00377004975791189,0.0162163982758326
-0.00376987975791189,0.01605183048706029
-0.00376970975791189,0.01615057116032378
-0.00376953975791189,0.0162163982758329
-0.00376936975791189,0.0164467931801148
-0.003769199757911889,0.01615057116032486
-0.00376902975791189,0.01644679318011444
-0.00376885975791189,0.01624931183358374
-0.00376868975791189,0.01420867125280492
-0.00376851975791189,0.01776333549029708
-0.00376834975791189,0.01710506433520594
-0.003768179757911889,0.01726963212397873
-0.00376800975791189,0.01726963212397855
-0.00376783975791189,0.01717089145071452
-0.00376766975791189,0.01687466943092428
-0.00376749975791189,0.01700632366194227
-0.00376732975791189,0.01671010164215126
-0.003767159757911889,0.01684175587316805
-0.00376698975791189,0.01644679318011582
-0.00376681975791189,0.01700632366193916
-0.00376664975791189,0.01529481865870644
-0.00376647975791189,0.01592017625604189
-0.00376630975791189,0.01588726269828733
-0.003766139757911889,0.01532773221645818
-0.00376596975791189,0.01486694240789726
-0.00376579975791189,0.01519607798543894
-0.00376562975791189,0.01371496788648686
-0.00376545975791189,0.01387953567525935
-0.00376528975791189,0.01404410346403213
-0.003765119757911889,0.0139124492330139
-0.00376494975791189,0.01391244923301354
-0.00376477975791189,0.01381370855975107
-0.00376460975791189,0.01427449836831271
-0.00376443975791189,0.01355040009771377
-0.00376426975791189,0.01351748653995922
-0.003764099757911889,0.01312252384690417
-0.00376392975791189,0.01302378317364014
-0.00376375975791189,0.01282630182711412
-0.00376358975791189,0.01315543740465813
-0.00376341975791189,0.01262882048058617
-0.00376324975791189,0.0127604747116044
-0.00376307975791189,0.0127933882693589
-0.00376290975791189,0.01272756115385104
-0.00376273975791189,0.01305669673139518
-0.00376256975791189,0.01292504250037713
-0.00376239975791189,0.01289212894262263
-0.00376222975791189,0.01292504250037719
-0.00376205975791189,0.01299086961588618
-0.00376188975791189,0.01341874586669483
-0.00376171975791189,0.01322126452016904
-0.00376154975791189,0.01368205432873069
-0.00376137975791189,0.01295795605813175
-0.00376120975791189,0.01328709163567732
-0.00376103975791189,0.01276047471160536
-0.00376086975791189,0.01289212894262359
-0.00376069975791189,0.01315543740465951
-0.00376052975791189,0.01338583230894015
-0.00376035975791189,0.01292504250037719
-0.00376018975791189,0.01292504250037719
-0.00376001975791189,0.01605183048705443
-0.00375984975791189,0.01127936461265209
-0.00375967975791189,0.01203637644100588
-0.00375950975791189,0.01299086961588708
-0.00375933975791189,0.01341874586669555
-0.00375916975791189,0.01071983413082186
-0.00375899975791189,0.01332000519342715
-0.003758829757911889,0.01276047471160464
-0.00375865975791189,0.01282630182711274
-0.00375848975791189,0.01239842557630481
-0.00375831975791189,0.01269464759609529
-0.00375814975791189,0.01193763576774048
-0.00375797975791189,0.01233259846079516
-0.003757809757911889,0.01180598153672177
-0.00375763975791189,0.01167432730570504
-0.00375746975791189,0.01223385778752999
-0.00375729975791189,0.01141101884366738
-0.00375712975791189,0.01131227817040389
-0.00375695975791189,0.01131227817040389
-0.003756789757911889,0.01127936461264981
-0.00375661975791189,0.01141101884366666
-0.00375644975791189,0.01091731547734873
-0.00375627975791189,0.01065400701531359
-0.00375610975791189,0.01111479682387655
-0.00375593975791189,0.01042361211103085
-0.003755769757911889,0.01062109345755687
-0.00375559975791189,0.01025904432225758
-0.00375542975791189,0.01012739009124097
-0.00375525975791189,0.01075274768857618
-0.00375508975791189,0.01062109345755819
-0.00375491975791189,0.01134519172815845
-0.003754749757911889,0.01124645105489657
-0.00375457975791189,0.01174015442121265
-0.00375440975791189,0.01160850019019496
-0.00375423975791189,0.01164141374794946
-0.00375406975791189,0.01164141374794946
-0.00375389975791189,0.01157558663244035
-0.003753729757911889,0.0113781052859142
-0.00375355975791189,0.0117072408634575
-0.00375338975791189,0.01141101884366828
-0.00375321975791189,0.01180598153672249
-0.00375304975791189,0.01193763576774048
-0.00375287975791189,0.01233259846079516
-0.00375270975791189,0.01253007980732214
-0.00375253975791189,0.01302378317364038
-0.00375236975791189,0.01289212894262257
-0.00375219975791189,0.01285921538486814
-0.00375202975791189,0.01289212894262263
-0.00375185975791189,0.01305669673139542
-0.00375168975791189,0.01299086961588642
-0.00375151975791189,0.01279338826936028
-0.00375134975791189,0.01315543740465855
-0.00375117975791189,0.01285921538486801
-0.00375100975791189,0.01282630182711352
-0.00375083975791189,0.0125300798073225
-0.00375066975791189,0.01266173403834049
-0.00375049975791189,0.01256299336507622
-0.00375032975791189,0.01233259846079468
-0.00375015975791189,0.01206928999875877
-0.00374998975791189,0.01210220355651326
-0.00374981975791189,0.009864081629203377
-0.00374964975791189,0.01305669673138961
-0.00374947975791189,0.01111479682387559
-0.00374930975791189,0.01085148836183997
-0.00374913975791189,0.01078566124633062
-0.00374896975791189,0.01058817989980363
-0.00374879975791189,0.01032487143776718
-0.00374862975791189,0.009798254513695221
-0.003748459757911889,0.009995735860219811
-0.00374828975791189,0.009502032493902652
-0.00374811975791189,0.009172896916359176
-0.00374794975791189,0.009995735860221606
-0.00374777975791189,0.00973242739818515
-0.00374760975791189,0.009666600282676035
-0.003747439757911889,0.01019321720674787
-0.00374726975791189,0.009896995186958236
-0.00374709975791189,0.01006156297573162
-0.00374692975791189,0.01055526634204908
-0.00374675975791189,0.01085148836184009
-0.00374658975791189,0.01101605615061288
-0.003746419757911889,0.01150975951693123
-0.00374624975791189,0.01150975951693177
-0.00374607975791189,0.01180598153672147
-0.00374590975791189,0.01137810528591396
-0.00374573975791189,0.01190472220998592
-0.00374556975791189,0.01203637644100415
-0.003745399757911889,0.01157558663244322
-0.00374522975791189,0.01236551201854972
-0.00374505975791189,0.01236551201854942
-0.00374488975791189,0.01220094422977693
-0.00374471975791189,0.01220094422977693
-0.00374454975791189,0.0120692899987587
-0.003744379757911889,0.01190472220998664
-0.00374420975791189,0.01210220355651458
-0.00374403975791189,0.01246425269181285
-0.00374386975791189,0.01216803067202256
-0.00374369975791189,0.01226677134528605
-0.00374352975791189,0.0120692899987587
-0.003743359757911889,0.01243133913405847
-0.00374318975791189,0.01233259846079456
-0.00374301975791189,0.01216803067202238
-0.00374284975791189,0.01216803067202256
-0.00374267975791189,0.01226677134528605
-0.00374250975791189,0.01243133913405883
-0.003742339757911889,0.01226677134528545
-0.00374216975791189,0.01210220355651434
-0.00374199975791189,0.01239842557630421
-0.00374182975791189,0.01236551201854984
-0.00374165975791189,0.01243133913405883
-0.00374148975791189,0.01256299336507706
-0.00374131975791189,0.01226677134528659
-0.00374114975791189,0.0118718086522316
-0.00374097975791189,0.01193763576773934
-0.00374080975791189,0.01131227817040473
-0.00374063975791189,0.01177306797896769
-0.00374046975791189,0.011378105285913
-0.00374029975791189,0.009436205378397667
-0.00374012975791189,0.01081857480408565
-0.00373995975791189,0.01085148836184027
-0.00373978975791189,0.01095022903510406
-0.00373961975791189,0.01111479682387655
-0.00373944975791189,0.01068692057306731
-0.00373927975791189,0.01134519172815725
-0.00373910975791189,0.01095022903510592
-0.00373893975791189,0.01154267307468603
-0.00373876975791189,0.01167432730570276
-0.00373859975791189,0.01098314259285832
-0.00373842975791189,0.01154267307468579
-0.00373825975791189,0.0114439324014223
-0.003738089757911889,0.0116085001901955
-0.00373791975791189,0.01177306797896757
-0.00373774975791189,0.01170724086345876
-0.00373757975791189,0.01180598153672225
-0.00373740975791189,0.01197054932549503
-0.00373723975791189,0.01203637644100415
-0.003737069757911889,0.01193763576773964
-0.00373689975791189,0.01170724086345756
-0.00373672975791189,0.01114771038163176
-0.00373655975791189,0.01150975951693123
-0.00373638975791189,0.01141101884366756
-0.00373621975791189,0.01131227817040389
-0.003736049757911889,0.01150975951693159
-0.00373587975791189,0.01160850019019508
-0.00373570975791189,0.0117072408634581
-0.00373553975791189,0.011443932401422
-0.00373536975791189,0.011378105285913
-0.00373519975791189,0.01131227817040389
-0.003735029757911889,0.0113122781704015
-0.00373485975791189,0.01065400701531245
-0.00373468975791189,0.01048943922654122
-0.00373451975791189,0.0111806239393853
-0.00373434975791189,0.01098314259285832
-0.00373417975791189,0.01101605615061288
-0.003734009757911889,0.01111479682387607
-0.00373383975791189,0.0109831425928588
-0.00373366975791189,0.01111479682387673
-0.00373349975791189,0.01121353749714052
-0.00373332975791189,0.011378105285913
-0.00373315975791189,0.01177306797896769
-0.003732989757911889,0.0117401544212123
-0.00373281975791189,0.01150975951693099
-0.00373264975791189,0.011443932401422
-0.00373247975791189,0.01137810528591258
-0.00373230975791189,0.01114771038163111
-0.00373213975791189,0.01052235278429452
-0.003731969757911889,0.01190472220998376
-0.00373179975791189,0.01131227817040545
-0.00373162975791189,0.01174015442121361
-0.00373145975791189,0.01200346288324851
-0.00373128975791189,0.01141101884366756
-0.00373111975791189,0.01174015442121313
-0.00373094975791189,0.01147684595917716
-0.00373077975791189,0.01052235278429943
-0.00373060975791189,0.0118718086522325
-0.00373043975791189,0.01249716624956711
-0.00373026975791189,0.01203637644100415
-0.00373009975791189,0.0129908696158863
-0.00372992975791189,0.01276047471160482
-0.00372975975791189,0.01236551201855163
-0.00372958975791189,0.01289212894262263
-0.00372941975791189,0.01289212894262263
-0.00372924975791189,0.01289212894262263
-0.00372907975791189,0.01302378317364086
-0.00372890975791189,0.01289212894262287
-0.00372873975791189,0.0127933882693574
-0.00372856975791189,0.01236551201854942
-0.00372839975791189,0.01220094422977723
-0.00372822975791189,0.01236551201854972
-0.00372805975791189,0.01157558663244035
-0.00372788975791189,0.01150975951693135
-0.003727719757911889,0.01085148836183949
-0.00372754975791189,0.01068692057306773
-0.00372737975791189,0.01091731547734927
-0.00372720975791189,0.01095022903510376
-0.00372703975791189,0.01108188326612199
-0.00372686975791189,0.01131227817040389
-0.003726699757911889,0.01114771038163134
-0.00372652975791189,0.0112135374971404
-0.00372635975791189,0.01131227817040389
-0.00372618975791189,0.01131227817040389
-0.00372601975791189,0.01134519172815845
-0.00372584975791189,0.011378105285913
-0.003725679757911889,0.01154267307468579
-0.00372550975791189,0.01154267307468567
-0.00372533975791189,0.01147684595917632
-0.00372516975791189,0.01127936461265011
-0.00372499975791189,0.01170724086345858
-0.00372482975791189,0.01193763576774048
-0.003724659757911889,0.01157558663243987
-0.00372448975791189,0.01144393240142206
-0.00372431975791189,0.01141101884366666
-0.00372414975791189,0.01091731547735022
-0.00372397975791189,0.01147684595917668
-0.00372380975791189,0.01124645105489478
-0.003723639757911889,0.01118062393938626
-0.00372346975791189,0.01134519172815725
-0.00372329975791189,0.01101605615061324
-0.00372312975791189,0.01121353749714106
-0.00372295975791189,0.01167432730570402
-0.00372278975791189,0.0116085001901949
-0.003722619757911889,0.01183889509447656
-0.00372244975791189,0.01177306797896805
-0.00372227975791189,0.01187180865223106
-0.00372210975791189,0.01170724086345888
-0.00372193975791189,0.01187180865223136
-0.00372176975791189,0.01180598153672225
-0.003721599757911889,0.01164141374795605
-0.00372142975791189,0.01345165942444376
-0.00372125975791189,0.011707240863459
-0.00372108975791189,0.01193763576774024
-0.00372091975791189,0.01180598153672225
-0.00372074975791189,0.01167432730570402
-0.00372057975791189,0.01127936461265005
-0.00372040975791189,0.01134519172815917
-0.00372023975791189,0.01154267307468525
-0.00372006975791189,0.01124645105489448
-0.00371989975791189,0.01108188326612199
-0.00371972975791189,0.01118062393938566
-0.00371955975791189,0.01147684595917614
-0.00371938975791189,0.01121353749714082
-0.00371921975791189,0.01137810528591282
-0.00371904975791189,0.01127936461264993
-0.00371887975791189,0.0116085001901949
-0.00371870975791189,0.01124645105489478
-0.00371853975791189,0.01127936461264927
-0.00371836975791189,0.01131227817040473
-0.00371819975791189,0.01154267307468597
-0.00371802975791189,0.01164141374794916
-0.00371785975791189,0.01147684595917668
-0.00371768975791189,0.01141101884366756
-0.00371751975791189,0.01114771038163158
-0.003717349757911889,0.01134519172815941
