Analysis/New Tests_CMB/wrd01_d2s01/cmb08_ch23.csv

#Digilent WaveForms Oscilloscope Acquisition
#Device Name: ADP3450
#Serial Number: SN:210018B9D9B0
#Date Time: 2024-08-14 17:48:54.285.320.560
#Sample rate: 5.88235e+06Hz
#Samples: 32768
#Trigger: Source: Channel 3 Type: Edge Condition: Rising Level: 60 mV Hyst.: Auto HoldOff: 0 s
#Channel 3: Range: 100 mV/div Offset: 0 V Attenuation: 1 X Coupling: DC Bandwidth: 0 Hz Sample Mode: Average

Time (s),Channel 3 (V)
-0.003798411595647739,0.2169891005786312
-0.003798241595647739,0.2289038084858179
-0.003798071595647739,0.2390740978319725
-0.003797901595647739,0.2482569804454728
-0.003797731595647739,0.2550042597851556
-0.003797561595647739,0.2609945272964741
-0.003797391595647739,0.2648783271115118
-0.003797221595647739,0.2676430659628923
-0.003797051595647739,0.2670177083655521
-0.003796881595647739,0.2653720304778274
-0.003796711595647739,0.2638250932633665
-0.003796541595647739,0.2640554881676479
-0.003796371595647739,0.2660632151906759
-0.003796201595647739,0.2635288712435634
-0.003796031595647739,0.2603362561413638
-0.003795861595647739,0.2550700869006471
-0.003795691595647739,0.2513837684321382
-0.003795521595647739,0.2484873753497424
-0.003795351595647739,0.2456238958250959
-0.003795181595647738,0.2417730095677992
-0.003795011595647739,0.2380537775415352
-0.003794841595647739,0.2345978539773121
-0.003794671595647739,0.2306153134890127
-0.003794501595647739,0.227784747522126
-0.003794331595647739,0.2228477138589424
-0.003794161595647739,0.2171536683674144
-0.003793991595647739,0.2128749058593
-0.003793821595647739,0.209682290757114
-0.003793651595647739,0.2066213298859431
-0.003793481595647739,0.2051402197869907
-0.003793311595647739,0.2010260250676711
-0.003793141595647739,0.1974384472724308
-0.003792971595647739,0.1914152662033151
-0.003792801595647739,0.1844705055171213
-0.003792631595647739,0.18032339724005
-0.003792461595647739,0.1777561397351992
-0.003792291595647739,0.1745635246330071
-0.003792121595647739,0.1722924891479468
-0.003791951595647739,0.1701860214516369
-0.003791781595647739,0.166302221636606
-0.003791611595647739,0.1623196811483052
-0.003791441595647739,0.1586333626798015
-0.003791271595647739,0.1551116120000639
-0.003791101595647739,0.1512936393005422
-0.003790931595647739,0.148430159775881
-0.003790761595647739,0.146290778521841
-0.003790591595647739,0.145435026020221
-0.003790421595647739,0.1437564345747417
-0.003790251595647739,0.1421765838025229
-0.003790081595647739,0.1393789313933856
-0.003789911595647739,0.1365812789842335
-0.003789741595647739,0.1325329113804324
-0.003789571595647739,0.129603604740279
-0.003789401595647739,0.1278591861792906
-0.003789231595647739,0.1273654828129722
-0.003789061595647739,0.1257527184829989
-0.003788891595647739,0.1246336575193347
-0.003788721595647739,0.1220664000144834
-0.003788551595647739,0.1192358340475921
-0.003788381595647739,0.1167673172159987
-0.003788211595647739,0.1133772207672855
-0.003788041595647739,0.1110732717244665
-0.003787871595647739,0.1083085328730818
-0.003787701595647739,0.1077819159490071
-0.003787531595647739,0.1057741889259804
-0.003787361595647739,0.104457646615797
-0.003787191595647739,0.1025157467082816
-0.003787021595647739,0.1011662908403448
-0.003786851595647739,0.09695335544774664
-0.003786681595647739,0.09287207428618395
-0.003786511595647739,0.08944906427972696
-0.003786341595647739,0.09191758111131902
-0.003786171595647739,0.09455066573167881
-0.003786001595647739,0.09415570303862414
-0.003785831595647739,0.09356325899903828
-0.003785661595647739,0.09251002515088524
-0.003785491595647739,0.08948197783747523
-0.003785321595647739,0.08849457110483396
-0.003785151595647739,0.08500573398285724
-0.003784981595647739,0.08075988503251938
-0.003784811595647739,0.07848884954745063
-0.003784641595647739,0.0773039614682952
-0.003784471595647739,0.07848884954745147
-0.003784301595647739,0.07657986319768945
-0.003784131595647739,0.07592159204259949
-0.003783961595647739,0.0729922854024439
-0.003783791595647739,0.07058959568636562
-0.003783621595647739,0.06798942462374298
-0.003783451595647739,0.06571838913868525
-0.003783281595647739,0.06486263663706891
-0.003783111595647739,0.06519177221461386
-0.003782941595647739,0.06552090779215944
-0.003782771595647739,0.06522468577236896
-0.003782601595647739,0.06436893327074036
-0.003782431595647739,0.0617358486503849
-0.003782261595647739,0.06147254018834353
-0.003782091595647739,0.05851031999043878
-0.003781921595647739,0.05735834546902929
-0.003781751595647739,0.05666716075618484
-0.003781581595647739,0.05683172854495266
-0.003781411595647739,0.0558114082545645
-0.003781241595647739,0.05548227267701558
-0.003781071595647739,0.05330997786521876
-0.003780901595647739,0.05261879315237306
-0.003780731595647739,0.05228965757482808
-0.003780561595647739,0.05179595420850219
-0.003780391595647739,0.04988696785874423
-0.003780221595647739,0.04955783228119883
-0.003780051595647739,0.04932743737691735
-0.003779881595647739,0.04929452381916279
-0.003779711595647739,0.04916286958814457
-0.003779541595647739,0.04840585775978568
-0.003779371595647739,0.04728679679613164
-0.003779201595647739,0.04554237823514191
-0.003779031595647739,0.04478536640678847
-0.003778861595647739,0.04419292236720644
-0.003778691595647739,0.04402835457843365
-0.003778521595647739,0.04432457659822527
-0.003778351595647739,0.04448914438699554
-0.003778181595647739,0.04343591053884977
-0.003778011595647739,0.04241559024845671
-0.003777841595647739,0.04040786322543238
-0.003777671595647739,0.0403091225521687
-0.003777501595647739,0.03978250562809243
-0.003777331595647739,0.03886092601096825
-0.003777161595647739,0.03889383956872233
-0.003776991595647739,0.03866344466443816
-0.003776821595647739,0.03718233456548577
-0.003776651595647739,0.034713817733894
-0.003776481595647739,0.03379223811677358
-0.003776311595647739,0.03576705158204832
-0.003776141595647739,0.0381039141826129
-0.003775971595647739,0.03784060572057524
-0.003775801595647739,0.03691902610344932
-0.003775631595647739,0.03556957023551248
-0.003775461595647739,0.03658989052590076
-0.003775291595647739,0.03576705158203276
-0.003775121595647739,0.03382515167451532
-0.003774951595647739,0.03073127724558779
-0.003774781595647739,0.02809819262522802
-0.003774611595647739,0.02737409435462776
-0.003774441595647739,0.02799945195196817
-0.003774271595647739,0.02905268580010526
-0.003774101595647739,0.02770322993217267
-0.003773931595647739,0.02734118079687105
-0.003773761595647739,0.02615629271770915
-0.003773591595647739,0.0252676266583361
-0.003773421595647739,0.02372068944387474
-0.003773251595647739,0.02385234367488596
-0.003773081595647739,0.02270036915348029
-0.003772911595647739,0.02250288780695127
-0.003772741595647739,0.02138382684329837
-0.003772571595647739,0.02191044376737128
-0.003772401595647739,0.02151548107431731
-0.003772231595647739,0.02240414713368868
-0.003772061595647739,0.02214083867165079
-0.003771891595647739,0.02082429636146874
-0.003771721595647739,0.01963940828230684
-0.003771551595647739,0.01861908799191557
-0.003771381595647739,0.01894822356946054
-0.003771211595647739,0.01970523539782134
-0.003771041595647739,0.02118634549677192
-0.003770871595647739,0.02168004886309081
-0.003770701595647739,0.02246997424919875
-0.003770531595647739,0.02184461665186217
-0.003770361595647739,0.02158130818982619
-0.003770191595647739,0.02089012347698264
-0.003770021595647739,0.02161422174757877
-0.003769851595647739,0.0207913828037152
-0.003769681595647739,0.02016602520637975
-0.003769511595647739,0.02010019809087064
-0.003769341595647739,0.02000145741760697
-0.003769171595647739,0.02010019809086812
-0.003769001595647739,0.01940901337802326
-0.003768831595647739,0.01848743376089488
-0.003768661595647739,0.0171379778929605
-0.003768491595647739,0.0157556084672691
-0.003768321595647739,0.01447197971484137
-0.003768151595647739,0.01493276952340541
-0.003767981595647739,0.01499859663891638
-0.003767811595647739,0.01615057116032366
-0.003767641595647739,0.01608474404481503
-0.003767471595647739,0.01628222539134202
-0.003767301595647739,0.01555812712074176
-0.003767131595647739,0.01611765760257079
-0.003766961595647739,0.01654553385337542
-0.003766791595647739,0.01486694240789654
-0.003766621595647739,0.01513025086993228
-0.003766451595647739,0.01499859663891429
-0.003766281595647739,0.01950775405128861
-0.003766111595647739,0.02105469126575219
-0.003765941595647739,0.02089012347697713
-0.003765771595647739,0.0201001980908698
-0.003765601595647739,0.01963940828230672
-0.003765431595647739,0.01957358116679772
-0.003765261595647739,0.01904696424272481
-0.003765091595647739,0.01690758298867177
-0.003764921595647739,0.01503151019666669
-0.003764751595647739,0.01443906615708729
-0.003764581595647739,0.01470237461912441
-0.003764411595647739,0.01532773221645986
-0.003764241595647739,0.0155252135629872
-0.003764071595647739,0.01460363394585709
-0.003763901595647739,0.01391244923301414
-0.003763731595647739,0.01397827634852128
-0.003763561595647739,0.01302378317364002
-0.003763391595647739,0.01256299336507706
-0.003763221595647739,0.01233259846079516
-0.003763051595647739,0.0118388950944777
-0.003762881595647739,0.01085148836183925
-0.003762711595647739,0.01062109345755759
-0.003762541595647739,0.0102919578800125
-0.003762371595647739,0.01022613076450351
-0.003762201595647739,0.009929908744712493
-0.003762031595647739,0.009403291820640536
-0.003761861595647739,0.003478851424839296
-0.003761691595647739,0.008975415569829977
-0.003761521595647739,0.008777934223302933
-0.003761351595647739,0.008745020665548437
-0.003761181595647739,0.008218403741475522
-0.003761011595647739,0.007560132586385578
-0.003760841595647739,0.007395564797612792
-0.003760671595647739,0.007724700375158243
-0.003760501595647739,0.008317144414737935
-0.003760331595647739,0.007625959701893495
-0.003760161595647739,0.007823441048420837
-0.003759991595647739,0.007593046144139357
-0.003759821595647739,0.007823441048418683
-0.003759651595647739,0.007230997008840606
-0.003759481595647739,0.008218403741476959
-0.003759311595647739,0.009008329127584893
-0.003759141595647739,0.009765340955939707
-0.003758971595647739,0.01009447653348468
-0.003758801595647739,0.00996282230250393
-0.003758631595647739,0.02010019809086734
-0.003758461595647739,0.01828995241435323
-0.003758291595647739,0.009074156243094007
-0.003758121595647739,0.01197054932549503
-0.003757951595647739,0.01032487143776718
-0.003757781595647739,0.008843761338810192
-0.003757611595647739,0.008317144414739732
-0.003757441595647739,0.008613366434532003
-0.003757271595647739,0.0096007731671674
-0.003757101595647739,0.009864081629203377
-0.003756931595647739,0.008415885088002865
-0.003756761595647739,0.005519492005593817
-0.003756591595647739,0.003314283636045735
-0.003756421595647739,0.002886407385245593
-0.003756251595647739,0.007461391913123882
-0.003756081595647739,0.009205810474112236
-0.003755911595647739,0.008909588454321223
-0.003755741595647739,0.009008329127583098
-0.003755571595647739,0.008514625761266178
-0.003755401595647739,0.008415885088000291
-0.003755231595647739,0.007000602104553617
-0.003755061595647739,0.005190356428056269
-0.003754891595647739,0.003709246329101199
-0.003754721595647739,0.003577592098085604
-0.003754551595647739,0.004301690368690531
-0.003754381595647739,0.006309417391714442
-0.003754211595647739,0.00808674951045849
-0.003754041595647739,0.008745020665548437
-0.003753871595647739,0.006934774989047795
-0.003753701595647739,0.006868947873535927
-0.003753531595647739,0.006111936045187459
-0.003753361595647739,0.007099342777819144
-0.003753191595647739,0.006309417391713006
-0.003753021595647739,0.007296824124347924
-0.003752851595647739,0.006901861431293239
-0.003752681595647739,0.006572725853748265
-0.003752511595647739,0.006572725853743596
-0.003752341595647739,0.005453664890091529
-0.003752171595647739,0.004795393734999069
-0.003752001595647739,0.003413024309310185
-0.003751831595647739,0.002590185365446257
-0.003751661595647739,0.002886407385236732
-0.003751491595647739,0.004433344599703969
-0.003751321595647739,0.005124529312548831
-0.003751151595647739,0.006046108929675711
-0.003750981595647739,0.006572725853747667
-0.003750811595647739,0.006638552969256781
-0.003750641595647739,0.005716973352130859
-0.003750471595647739,0.004038381906640903
-0.003750301595647739,0.002425617576676345
-0.003750131595647739,0.004005468348895146
-0.003749961595647739,0.005618232678865511
-0.003749791595647739,0.007099342777820581
-0.003749621595647739,0.00818549018371899
-0.003749451595647739,0.009436205378391021
-0.003749281595647739,0.008580452876774034
-0.003749111595647739,0.00769178681740207
-0.003748941595647739,0.007395564797611595
-0.003748771595647739,0.007461391913120709
-0.003748601595647739,0.008580452876773616
-0.003748431595647739,0.009633686724924113
-0.003748261595647739,0.01035778499552311
-0.003748091595647739,0.0111147968238787
-0.003747921595647739,0.0122996849030406
-0.003747751595647739,0.0125300798073225
-0.003747581595647739,0.01164141374794946
-0.003747411595647739,0.009831168071445467
-0.003747241595647739,0.008909588454321223
-0.003747071595647739,0.008909588454323079
-0.003746901595647739,0.009929908744712493
-0.003746731595647739,0.01052235278429452
-0.003746561595647739,0.01055526634204908
-0.003746391595647739,0.009370378262874604
-0.003746221595647739,0.006506898738239331
-0.003746051595647739,0.006934774989048873
-0.003745881595647739,0.007527219028630123
-0.003745711595647739,0.007691786817402609
-0.003745541595647739,0.007922181721684508
-0.003745371595647739,0.008942502012079611
-0.003745201595647739,0.00999573586022472
-0.003745031595647739,0.01085148836183692
-0.003744861595647739,0.009107069800844494
-0.003744691595647739,0.006868947873538681
-0.003744521595647739,0.005223269985810825
-0.003744351595647739,0.003807987002365469
-0.003744181595647739,0.003972554791145199
-0.003744011595647739,0.006046108929677747
-0.003743841595647739,0.007691786817405004
-0.003743671595647739,0.009008329127584893
-0.003743501595647739,0.009403291820639578
-0.003743331595647739,0.008810847781057311
-0.003743161595647739,0.008745020665546043
-0.003742991595647739,0.008086749510456216
-0.003742821595647739,0.007494305470873949
-0.003742651595647739,0.00677020720027501
-0.003742481595647739,0.008152576625966409
-0.003742311595647738,0.008942502012079133
-0.003742141595647739,0.009864081629202539
-0.003741971595647739,0.009633686724921297
-0.003741801595647739,0.009534946051655592
-0.003741631595647739,0.008317144414739193
-0.003741461595647739,0.007724700375157166
-0.003741291595647739,0.006934774989049233
-0.003741121595647739,0.006177763160694778
-0.003740951595647739,0.006671466527011877
-0.003740781595647739,0.006967688546803549
-0.003740611595647739,0.007625959701893495
-0.003740441595647739,0.007625959701893495
-0.003740271595647739,0.008020922394947462
-0.003740101595647739,0.00729682412434529
-0.003739931595647739,0.006572725853745332
-0.003739761595647739,0.005289097101319282
-0.003739591595647739,0.004927047966019811
-0.003739421595647739,0.005453664890092726
-0.003739251595647739,0.006934774989045101
-0.003739081595647739,0.006868947873538202
-0.003738911595647739,0.006737293642519615
-0.003738741595647739,0.006276503833955516
-0.003738571595647739,0.005651146236620068
-0.003738401595647739,0.00574988690988374
-0.003738231595647739,0.006309417391710192
-0.003738061595647739,0.00769178681740237
-0.003737891595647739,0.00762595970189559
-0.003737721595647739,0.008777934223302156
-0.003737551595647739,0.008317144414739193
-0.003737381595647739,0.008152576625966409
-0.003737211595647739,0.008086749510457293
-0.003737041595647739,0.009238724031864518
-0.003736871595647739,0.008613366434529668
-0.003736701595647739,0.008317144414737337
-0.003736531595647739,0.007296824124347924
-0.003736361595647739,0.005420751332338168
-0.003736191595647739,0.00380798700236487
-0.003736021595647739,0.005453664890106256
-0.003735851595647739,0.009172896916358218
-0.003735681595647739,0.009469118936148213
-0.003735511595647739,0.009205810474109901
-0.003735341595647739,0.007922181721684508
-0.003735171595647739,0.007033515662311467
-0.003735001595647739,0.007955095279440503
-0.003734831595647739,0.00835005797249022
-0.003734661595647739,0.006408158064972427
-0.003734491595647739,0.005058702197034328
-0.003734321595647739,0.0030180616162555
-0.003734151595647739,0.003215542962782842
-0.003733981595647739,0.004104209022159596
-0.003733811595647739,0.005124529312543802
-0.003733641595647739,0.004202949695418358
-0.003733471595647739,0.003544678540327276
-0.003733301595647739,0.002919320942991828
-0.003733131595647739,0.002754753154219042
-0.003732961595647739,0.003511764982574455
-0.003732791595647739,0.003676332771349515
-0.003732621595647739,0.004466258157455534
-0.003732451595647739,0.004202949695419376
-0.003732281595647739,0.004104209022155884
-0.003732111595647739,0.003544678540328413
-0.003731941595647739,0.003577592098084048
-0.003731771595647739,0.003873814117876738
-0.003731601595647739,0.00463082594622754
-0.003731431595647739,0.003939641233382201
-0.003731261595647739,0.003445937867064742
-0.003731091595647739,0.002162309114637015
-0.003730921595647739,0.001569865075056064
-0.003730751595647739,0.001997741325865307
-0.003730581595647739,0.002293963345655722
-0.003730411595647739,0.002557271807692957
-0.003730241595647739,0.003248456520537399
-0.003730071595647739,0.004071295464401327
-0.003729901595647739,0.005124529312545238
-0.003729731595647739,0.005585319121113827
-0.003729561595647739,0.00637524450722248
-0.003729391595647739,0.007560132586384739
-0.003729221595647739,0.007757613932911723
-0.003729051595647739,0.008679193550039321
-0.003728881595647739,0.008448798645757842
-0.003728711595647739,0.009600773167167639
-0.003728541595647739,0.009798254513693426
-0.003728371595647739,0.009337464705128848
-0.003728201595647739,0.008448798645757422
-0.003728031595647739,0.007099342777820581
-0.003727861595647739,0.005684059794377199
-0.003727691595647739,0.004959961523773412
-0.003727521595647739,0.004696653061737194
-0.003727351595647739,0.004301690368683227
-0.003727181595647739,0.004301690368683227
-0.003727011595647739,0.002656012480955371
-0.003726841595647739,0.001504037959545873
-0.003726671595647739,0.0006153719001751058
-0.003726501595647739,0.001240729497504866
-0.003726331595647739,-0.001260700891840696
-0.003726161595647739,-0.003334255030374022
-0.003725991595647739,-0.002840551664055666
-0.003725821595647739,0.001240729497509416
-0.003725651595647739,0.004202949695419795
-0.003725481595647739,0.004268776810925198
-0.003725311595647739,0.002359790461159388
-0.003725141595647739,-0.0003720348324658582
-0.003724971595647739,-0.001458182238364267
-0.003724801595647739,-0.0003720348324638825
-0.003724631595647739,0.001405297286288907
-0.003724461595647739,0.003248456520540872
-0.003724291595647739,0.005157442870301891
-0.003724121595647739,0.005256183543565742
-0.003723951595647739,0.005453664890092726
-0.003723781595647739,0.005651146236620068
-0.003723611595647739,0.006243590276204611
-0.003723441595647739,0.006934774989051508
-0.003723271595647739,0.007955095279438707
-0.003723101595647739,0.007757613932910825
-0.003722931595647739,0.007263910566593366
-0.003722761595647739,0.007823441048420837
-0.003722591595647739,0.007790527490667118
-0.003722421595647739,0.008020922394949616
-0.003722251595647739,0.008415885088002027
-0.003722081595647739,0.007955095279438886
-0.003721911595647739,0.007856354606175394
-0.003721741595647739,0.007889268163929951
-0.003721571595647739,0.007625959701893495
-0.003721401595647739,0.007625959701893854
-0.003721231595647739,0.007724700375158483
-0.003721061595647739,0.008448798645757242
-0.003720891595647739,0.008350057972493751
-0.003720721595647739,0.00811966306821185
-0.003720551595647739,0.007033515662313443
-0.003720381595647739,0.006836034315787476
-0.003720211595647739,0.00775761393291328
-0.003720041595647739,0.008613366434529309
-0.003719871595647739,0.00811966306821185
