Analysis/New Tests_CMB/wrd01_d2s01/cmb07_ch23.csv

#Digilent WaveForms Oscilloscope Acquisition
#Device Name: ADP3450
#Serial Number: SN:210018B9D9B0
#Date Time: 2024-08-07 10:45:19.030.394.240
#Sample rate: 2.94118e+06Hz
#Samples: 32768
#Trigger: Source: Channel 3 Type: Edge Condition: Rising Level: 0 V Hyst.: Auto HoldOff: 0 s
#Channel 3: Range: 200 mV/div Offset: 0 V Attenuation: 1 X Coupling: DC Bandwidth: 0 Hz Sample Mode: Average

Time (s),Channel 3 (V)
-0.005570390000000001,0.006638552969256781
-0.00557005,0.005716973352128284
-0.00556971,0.005223269985810825
-0.005569370000000001,0.004762480177247026
-0.00556903,0.004170036137663681
-0.00556869,0.003445937867064742
-0.005568350000000001,0.002919320942991828
-0.00556801,0.001899000652600079
-0.00556767,0.001635692190564101
-0.005567330000000001,0.001866087094846001
-0.00556699,0.003445937867073303
-0.00556665,0.008152576625966409
-0.005566310000000001,0.01838869308763367
-0.00556597,0.03639240917942185
-0.00556563,0.06137379951508525
-0.005565290000000001,0.09283916072844184
-0.00556495,0.1273325692552794
-0.00556461,0.1612664473001661
-0.005564270000000001,0.1923039322627134
-0.00556393,0.218470210677622
-0.00556359,0.2380866910993024
-0.00556325,0.2515812497786707
-0.005562910000000001,0.2593159358509776
-0.00556257,0.2608628730654559
-0.00556223,0.2601058612371011
-0.005561890000000001,0.2561233207488068
-0.00556155,0.2506596701615432
-0.00556121,0.2440440450528772
-0.005560870000000001,0.2378562961950317
-0.00556053,0.2313723253173727
-0.00556019,0.2245921324199339
-0.005559850000000001,0.2178119395225075
-0.00555951,0.2108671788362836
-0.00555917,0.2046465164206723
-0.005558830000000001,0.1975701015034554
-0.00555849,0.1910203035102857
-0.00555815,0.1843388512861106
-0.005557810000000001,0.1782827566592831
-0.00555747,0.1715683908773424
-0.00555713,0.1647223708643946
-0.005556790000000001,0.1587321033530761
-0.00555645,0.1524456138219448
-0.00555611,0.1466857412148973
-0.005555770000000001,0.1410575228388782
-0.00555543,0.1360217485024208
-0.00555509,0.1307226657039371
-0.005554750000000001,0.125950199829535
-0.00555441,0.1212106475128701
-0.00555407,0.1166685765427412
-0.005553730000000001,0.1126860360544398
-0.00555339,0.1092301124902113
-0.00555305,0.1054779669061918
-0.005552710000000001,0.1021866111307361
-0.00555237,0.09991557564567163
-0.00555203,0.0976445401606072
-0.005551690000000001,0.09501145554024262
-0.00555135,0.0924771115931356
-0.00555101,0.08911992870217689
-0.005550670000000001,0.08609188138875765
-0.00555033,0.08326131542185904
-0.00554999,0.07957499695335532
-0.005549650000000001,0.07562537002280847
-0.00554931,0.07243275492061015
-0.00554897,0.06897683135638794
-0.005548630000000001,0.06693619077560539
-0.00554829,0.06601461115847621
-0.00554795,0.06512594509910477
-0.005547610000000001,0.06403979769320436
-0.00554727,0.06321695874933674
-0.00554693,0.06117631816855791
-0.005546590000000001,0.05831283864391144
-0.00554625,0.05528479133048656
-0.00554591,0.05219091690156382
-0.005545570000000001,0.04909704247263545
-0.00554523,0.04626647650573941
-0.00554489,0.0439954410206791
-0.005544550000000001,0.04248141736396947
-0.00554421,0.04073699880297603
-0.00554387,0.03968376495483212
-0.005543530000000001,0.03925588870402288
-0.00554319,0.03737981591201048
-0.00554285,0.03593161937081261
-0.00554251,0.03392389234778462
-0.005542170000000001,0.03247569580658675
-0.00554183,0.03204781955577487
-0.00554149,0.03106041282313815
-0.005541150000000001,0.03083001791885668
-0.00554081,0.03142246195843829
-0.00554047,0.03231112801781132
-0.005540130000000001,0.03234404157556582
-0.00553979,0.03224530090230221
-0.00553945,0.03214656022903854
-0.005539110000000001,0.03171868397823007
-0.00553877,0.03109332638089271
-0.00553843,0.02944764849316486
-0.005538090000000001,0.02704495877708656
-0.00553775,0.02493849108079053
-0.00553741,0.02332572675081724
-0.005537070000000001,0.02240414713369131
-0.00553673,0.02121925905452558
-0.00553639,0.02121925905452558
-0.005536050000000001,0.02052807434168114
-0.00553571,0.0192115320314976
-0.00553537,0.01802664395233354
-0.005535030000000001,0.01743419991275259
-0.00553469,0.01674301519990581
-0.00553435,0.01710506433520594
-0.005534010000000001,0.01730254568173292
-0.00553367,0.01717089145071506
-0.00553333,0.01723671856622417
-0.005532990000000001,0.01786207616356076
-0.00553265,0.01710506433520594
-0.00553231,0.0173683727972424
-0.005531970000000001,0.01750002702826063
-0.00553163,0.01776333549029708
-0.00553129,0.01730254568173328
-0.005530950000000001,0.01677592875766037
-0.00553061,0.0155252135629872
-0.00553027,0.01473528817687783
-0.005529930000000001,0.0139124492330139
-0.00552959,0.01355040009771323
-0.00552925,0.01325417807792276
-0.005528910000000001,0.01318835096241365
-0.00552857,0.01299086961588552
-0.00552823,0.01256299336507706
-0.005527890000000001,0.01157558663244035
-0.00552755,0.01121353749714016
-0.00552721,0.01118062393938566
-0.005526870000000001,0.01081857480408553
-0.00552653,0.01085148836184033
-0.00552619,0.01098314259285832
-0.005525850000000001,0.01095022903510376
-0.00552551,0.01114771038163021
-0.00552517,0.01065400701531275
-0.005524830000000001,0.01157558663244035
-0.00552449,0.01206928999875805
-0.00552415,0.01170724086345858
-0.005523810000000001,0.0122996849030406
-0.00552347,0.01193763576773928
-0.00552313,0.01127936461264933
-0.005522790000000001,0.01095022903510376
-0.00552245,0.0102919578800116
-0.00552211,0.00973242739818515
-0.00552177,0.009699513840430593
-0.00552143,0.009534946051657627
-0.00552109,0.009436205378394135
-0.00552075,0.009436205378394135
-0.005520410000000001,0.00973242739818461
-0.00552007,0.009995735860221606
-0.00551973,0.01025904432225806
-0.005519390000000001,0.01035778499552155
-0.00551905,0.009864081629203377
-0.00551871,0.009864081629203377
-0.005518370000000001,0.009205810474113433
-0.00551803,0.008350057972493751
-0.00551769,0.007922181721684508
-0.005517350000000001,0.007922181721684508
-0.00551701,0.008317144414739193
-0.00551667,0.009238724031866792
-0.005516330000000001,0.0103577849955197
-0.00551599,0.01081857480408553
-0.00551565,0.0118388950944768
-0.005515310000000001,0.01157558663244083
-0.00551497,0.01157558663244035
-0.00551463,0.01167432730570402
-0.005514290000000001,0.01091731547735058
-0.00551395,0.01022613076450351
-0.00551361,0.009172896916357679
-0.005513270000000001,0.008053835952704771
-0.00551293,0.006704380084765896
-0.00551259,0.005585319121110954
-0.005512250000000001,0.005091615754792597
-0.00551191,0.005453664890092726
-0.00551157,0.005322010659074497
-0.005511230000000001,0.005453664890092726
-0.00551089,0.005947368256411082
-0.00551055,0.006506898738238553
-0.005510210000000001,0.007296824124347924
-0.00550987,0.007395564797611595
-0.00550953,0.007362651239857037
-0.005509190000000001,0.007329737682102481
-0.00550885,0.007165169893329755
-0.00550851,0.007198083451084253
-0.005508170000000001,0.006737293642520453
-0.00550783,0.006210676718446101
-0.00550749,0.005420751332338168
-0.005507150000000001,0.004729566619492469
-0.00550681,0.004597912388474899
-0.00550647,0.004959961523774369
-0.005506130000000001,0.00574988690988374
-0.00550579,0.007198083451084432
-0.00550545,0.007296824124347924
-0.005505110000000001,0.007362651239857037
-0.00550477,0.007329737682101942
-0.00550443,0.007033515662311467
-0.005504090000000001,0.005848627583147411
-0.00550375,0.006243590276203054
-0.00550341,0.00677020720027501
-0.005503070000000001,0.006243590276202096
-0.00550273,0.006111936045183029
-0.00550239,0.005651146236620068
-0.005502050000000001,0.005091615754792597
-0.00550171,0.005157442870302071
-0.00550137,0.005354924216829054
-0.005501030000000001,0.005585319121110954
-0.00550069,0.006013195371920136
-0.00550035,0.005980281814165639
-0.00550001,0.005420751332338168
-0.005499670000000001,0.005322010659074676
-0.00549933,0.005124529312547154
-0.00549899,0.005190356428056269
-0.005498650000000001,0.004367517484193838
-0.00549831,0.004367517484192341
-0.00549797,0.004466258157456012
-0.005497630000000001,0.004400431041947018
-0.00549729,0.004433344599701455
-0.00549695,0.004301690368683227
-0.005496610000000001,0.002886407385239845
-0.00549627,0.003116802289519171
-0.00549593,0.003149715847273728
-0.005495590000000001,0.003018061616255739
-0.00549525,0.00380798700236487
-0.00549491,0.004499171715210569
-0.005494570000000001,0.00509161575479152
-0.00549423,0.005716973352129182
-0.00549389,0.006506898738238553
-0.005493550000000001,0.007329737682100984
-0.00549321,0.006671466527011338
-0.00549287,0.005387837774583611
-0.005492530000000001,0.004433344599703191
-0.00549219,0.003775073444610313
-0.00549185,0.004202949695419555
-0.005491510000000001,0.004367517484192042
-0.00549117,0.004005468348892213
-0.00549083,0.00426877681092867
-0.005490490000000001,0.004795393735001583
-0.00549015,0.00574988690988374
-0.00548981,0.007033515662311467
-0.005489470000000001,0.007198083451084253
-0.00548913,0.00802092239494818
-0.00548879,0.00881084778105755
-0.005488450000000001,0.008876674896566664
-0.00548811,0.007955095279436792
-0.00548777,0.006704380084765896
-0.005487430000000001,0.005585319121110954
-0.00548709,0.004663739503983535
-0.00548675,0.004762480177247026
-0.005486410000000001,0.00505870219703804
-0.00548607,0.0054865784478483
-0.00548573,0.006046108929674754
-0.005485390000000001,0.006276503833956653
-0.00548505,0.005618232678866109
-0.00548471,0.005947368256411082
-0.005484370000000001,0.006210676718447538
-0.00548403,0.006111936045182969
-0.00548369,0.005618232678865511
-0.005483350000000001,0.006111936045183867
-0.00548301,0.006013195371919418
-0.00548267,0.005585319121110954
-0.005482330000000001,0.005124529312547154
-0.00548199,0.004597912388473044
-0.00548165,0.003939641233383098
-0.005481310000000001,0.003742159886855756
-0.00548097,0.0028205802697266
-0.00548063,0.001964827768109672
-0.005480290000000001,0.001931914210355115
-0.00547995,0.002228136230146428
-0.00547961,0.002392704018918914
-0.00547927,0.003314283636046514
-0.005478930000000001,0.003511764982573497
-0.00547859,0.00380798700236487
-0.00547825,0.003906727675628541
-0.005477910000000001,0.004400431041946
-0.00547757,0.003314283636046514
-0.00547723,0.003445937867064742
-0.005476890000000001,0.005058702197035107
-0.00547655,0.005585319121110954
-0.00547621,0.006243590276202096
-0.005475870000000001,0.007165169893328018
-0.00547553,0.007461391913120709
-0.00547519,0.007691786817402609
-0.005474850000000001,0.008185490183720067
-0.00547451,0.007856354606175394
-0.00547417,0.007527219028629823
-0.005473830000000001,0.007724700375156807
-0.00547349,0.007428478355366152
-0.00547315,0.006408158064974882
-0.005472810000000001,0.005157442870303987
-0.00547247,0.00380798700236487
-0.00547213,0.002820580269728157
-0.005471790000000001,0.002754753154219162
-0.00547145,0.003709246329101199
-0.00547111,0.004564998830719684
-0.005470770000000001,0.005486578447845606
-0.00547043,0.006441071622729439
-0.00547009,0.006737293642520453
-0.005469750000000001,0.006276503833956653
-0.00546941,0.005716973352129182
-0.00546907,0.005486578447847282
-0.005468730000000001,0.005256183543565383
-0.00546839,0.004959961523774369
-0.00546805,0.005519492005601839
-0.005467710000000001,0.004861220850510698
-0.00546737,0.00505870219703804
-0.00546703,0.005190356428056269
-0.005466690000000001,0.005453664890092726
-0.00546635,0.005848627583148009
-0.00546601,0.006177763160692982
-0.005465670000000001,0.006408158064974882
-0.00546533,0.006770207200276087
-0.00546499,0.007362651239857037
-0.005464650000000001,0.007099342777820581
-0.00546431,0.007461391913121786
-0.00546397,0.008053835952702737
-0.005463630000000001,0.007593046144138938
-0.00546329,0.008547539319021514
-0.00546295,0.008777934223302994
-0.005462610000000001,0.008646279992284765
-0.00546227,0.008218403741474326
-0.00546193,0.00756013258638438
-0.005461590000000001,0.006868947873538681
-0.00546125,0.006177763160692682
-0.00546091,0.006013195371920196
-0.005460570000000001,0.005322010659074497
-0.00546023,0.005190356428055431
-0.00545989,0.004729566619492469
-0.005459550000000001,0.004235863253174112
-0.00545921,0.003873814117874104
-0.00545887,0.003939641233383098
-0.00545853,0.002754753154219042
-0.00545819,0.004005468348891614
-0.00545785,0.003676332771346642
-0.00545751,0.004071295464401327
-0.005457170000000001,0.00463082594622778
-0.00545683,0.004597912388474241
-0.00545649,0.005124529312547154
-0.005456150000000001,0.004729566619493187
-0.00545581,0.004795393735001583
-0.00545547,0.004927047966019811
-0.005455130000000001,0.005058702197037801
-0.00545479,0.005190356428056269
-0.00545445,0.006572725853747667
-0.005454110000000001,0.006967688546801634
-0.00545377,0.007230997008838809
-0.00545343,0.007132256335575138
-0.005453090000000001,0.006836034315784663
-0.00545275,0.005947368256411082
-0.00545241,0.005519492005601839
-0.005452070000000001,0.004729566619493906
-0.00545173,0.004202949695419555
-0.00545139,0.003840900560119427
-0.005451050000000001,0.003478851424819958
-0.00545071,0.003116802289519171
-0.00545037,0.002688926038709928
-0.005450030000000001,0.002656012480955431
-0.00544969,0.003182629405028285
-0.00544935,0.004301690368683227
-0.005449010000000001,0.004038381906647248
-0.00544867,0.006342330949465767
-0.00544833,0.007296824124347924
-0.005447990000000001,0.008646279992284765
-0.00544765,0.008382971530248308
-0.00544731,0.007461391913120709
-0.005446970000000001,0.00607902248742931
-0.00544663,0.004762480177247026
-0.00544629,0.003939641233383098
-0.005445950000000001,0.003676332771346642
-0.00544561,0.003248456520537938
-0.00544527,0.003544678540328413
-0.005444930000000001,0.003676332771346642
-0.00544459,0.0008128532466843678
-0.00544425,-0.007876326000502903
-0.005443910000000001,-0.02416853708900867
-0.00544357,-0.04931449521354586
-0.00544323,-0.0798582768097193
-0.005442890000000001,-0.1133642786038584
-0.00544255,-0.147298156648863
-0.00544221,-0.1781710738225814
-0.005441870000000001,-0.2034486861780812
-0.00544153,-0.2227689445800299
-0.00544119,-0.2357697998930563
-0.005440850000000001,-0.2429120419257952
-0.00544051,-0.2457096943349305
-0.00544017,-0.2445906333712776
-0.005439830000000001,-0.2405751793252217
-0.00543949,-0.2354735778732564
-0.00543915,-0.2305694577678363
-0.005438810000000001,-0.2240196597746794
-0.00543847,-0.217140726203963
-0.00543813,-0.2094389536894106
-0.005437790000000001,-0.2014080455972987
-0.00543745,-0.1939037544292466
-0.00543711,-0.1866956852810117
-0.00543677,-0.1797509245948001
-0.005436430000000001,-0.1732011266016552
-0.00543609,-0.1669146370705228
-0.00543575,-0.1613193322522481
-0.005435410000000001,-0.1558556816650016
-0.00543507,-0.1510503022328263
-0.00543473,-0.1457512194343426
-0.005434390000000001,-0.140945840002186
-0.00543405,-0.1360746334545029
-0.00543371,-0.1317958709464104
-0.005433370000000001,-0.1270563186297628
-0.00543303,-0.121493927369234
-0.00543269,-0.1161948445707504
-0.005432350000000001,-0.1113565515808392
-0.00543201,-0.1071107026304926
-0.00543167,-0.1032269028154549
-0.005431330000000001,-0.09980389280898715
-0.00543099,-0.09582135232067948
-0.00543065,-0.09206920673665997
-0.005430310000000001,-0.08828414759489281
-0.00542997,-0.08519027316595754
-0.00542963,-0.08166852248621995
-0.005429290000000001,-0.07841008026852471
-0.00542895,-0.07544786007060864
-0.00542861,-0.07268312121922585
-0.005428270000000001,-0.07008295015662057
-0.00542793,-0.06656119947687822
-0.00542759,-0.06379646062549543
-0.005427250000000001,-0.0609000675430944
-0.00542691,-0.05823406936497528
-0.00542657,-0.05602886099541995
-0.005426230000000001,-0.05418570176116475
-0.00542589,-0.05198049339160943
-0.00542555,-0.05013733415735423
-0.005425210000000001,-0.04842582915411726
-0.00542487,-0.04681306482414396
-0.00542453,-0.04602313943803459
-0.005424190000000001,-0.04506864626315243
-0.00542385,-0.04342296837542063
-0.00542351,-0.04125067356362381
-0.005423170000000001,-0.03907837875182304
-0.00542283,-0.03575410941860883
-0.00542249,-0.033581814606812
-0.005422150000000001,-0.03275897566294807
-0.00542181,-0.03150826046827353
-0.00542147,-0.03075124863992009
-0.005421130000000001,-0.03071833508216553
-0.00542079,-0.0291384843099432
-0.00542045,-0.02716367084467337
-0.005420110000000001,-0.02561673363020918
-0.00541977,-0.02354317949166861
-0.00541943,-0.02163419314190777
-0.005419090000000001,-0.0201530830429527
-0.00541875,-0.01929733054133146
-0.00541841,-0.01778330688462459
-0.005418070000000001,-0.01732251707606079
-0.00541773,-0.01715794928728819
-0.00541739,-0.01725668996055168
-0.005417050000000001,-0.01732251707606079
-0.00541671,-0.01686172726749628
-0.00541637,-0.01646676457444231
-0.00541603,-0.01617054255465129
-0.00541569,-0.01580849341935009
-0.00541535,-0.01521604937976914
-0.00541501,-0.01419572908937787
-0.005414670000000001,-0.01452486466692284
-0.00541433,-0.01429446976264154
-0.00541399,-0.01304375456796837
-0.005413650000000001,-0.01222091562410594
-0.00541331,-0.0108714597561676
-0.00541297,-0.00962074456149443
-0.005412630000000001,-0.008633337828859512
-0.00541229,-0.007580103980711889
-0.00541195,-0.007481363307448217
-0.005411610000000001,-0.007382622634184726
-0.00541127,-0.006559783690320619
-0.00541093,-0.006625610805829733
-0.005410590000000001,-0.006823092152356717
-0.00541025,-0.006987659941129861
-0.00540991,-0.00688891926786619
-0.005409570000000001,-0.006757265036848201
-0.00540923,-0.006691437921338847
-0.00540889,-0.005078673591365549
-0.005408550000000001,-0.003860871954449151
-0.00540821,-0.002577243202019209
-0.00540787,-0.000832824641027682
-0.005407530000000001,0.001471124401787125
-0.00540719,0.003050975174010056
-0.00540685,0.003314283636046514
-0.005406510000000001,0.003083888731765033
-0.00540617,0.002359790461164357
-0.00540583,0.0009774210354729588
-0.005405490000000001,-0.0005695161789912252
-0.00540515,-0.002182280508964523
-0.00540481,-0.00290637877956478
-0.005404470000000001,-0.00336716858812858
-0.00540413,-0.003432995703637694
-0.00540379,-0.003169687241601236
-0.005403450000000001,-0.002182280508964523
-0.00540311,-0.0008657381987807424
-0.00540277,-4.289925491831147e-05
-0.005402430000000001,0.000417890553645488
-0.00540209,8.875497609824062e-05
-0.00540175,-0.000832824641027682
-0.005401410000000001,-0.0006024297367457822
-0.00540107,-0.001524009353873621
-0.00540073,-0.00165566358489161
-0.005400390000000001,-0.001260700891836924
-0.00540005,-0.0009315653142906948
-0.00539971,-0.0005695161789912252
-0.005399370000000001,-0.0001087263704274257
-0.00539903,0.000220409207118325
-0.00539869,0.0003191498803818167
-0.005398350000000001,0.001010334593227516
-0.00539801,0.0008128532466995148
-0.00539767,0.0004508041114000451
-0.005397330000000001,0.0005495447846637165
-0.00539699,0.0008786803622094073
-0.00539665,0.0009445074777184018
-0.005396310000000001,0.001438210844036758
-0.00539597,0.001833173537091683
-0.00539563,0.001964827768109672
-0.005395290000000001,0.001899000652600558
-0.00539495,0.001668605748318778
-0.00539461,0.001734432863827772
-0.00539427,0.001833173537091444
-0.005393930000000001,0.00222813623014541
-0.00539359,0.0025572718076917
-0.00539325,0.002590185365446257
-0.005392910000000001,0.002458531134428268
-0.00539257,0.002293963345655243
-0.00539223,0.003083888731764614
-0.005391890000000001,0.002359790461165674
-0.00539155,0.001438210844036758
-0.00539121,0.0008786803622092876
-0.005390870000000001,0.001174902381999763
-0.00539053,0.001833173537091444
-0.00539019,0.002425617576673472
-0.005389850000000001,0.003248456520535903
-0.00538951,0.004433344599701455
-0.00538917,0.005025788639283483
-0.005388830000000001,0.0060131953719184
-0.00538849,0.006441071622729439
-0.00538815,0.00630941739171121
-0.005387810000000001,0.006408158064974702
-0.00538747,0.005552405563356397
-0.00538713,0.005256183543565383
-0.005386790000000001,0.00492704796602041
-0.00538645,0.004663739503983355
-0.00538611,0.004301690368683227
-0.005385770000000001,0.004828307292755183
-0.00538543,0.005190356428056269
-0.00538509,0.005486578447847282
