Analysis/New Tests_CMB/wrd01_d2s01/cmb08_ch20.csv

#Digilent WaveForms Oscilloscope Acquisition
#Device Name: ADP3450
#Serial Number: SN:210018B9D9B0
#Date Time: 2024-08-06 16:51:21.454.831.400
#Sample rate: 2.94118e+06Hz
#Samples: 32768
#Trigger: Source: Channel 3 Type: Edge Condition: Rising Level: 60 mV Hyst.: Auto HoldOff: 0 s
#Channel 3: Range: 200 mV/div Offset: -20 mV Attenuation: 1 X Coupling: DC Bandwidth: 0 Hz Sample Mode: Average

Time (s),Channel 3 (V)
-0.005570323743589744,0.02652223891049895
-0.005569983743589743,0.02510695592704862
-0.005569643743589744,0.02270426621097033
-0.005569303743589744,0.02122315611201525
-0.005568963743589743,0.02049905784141398
-0.005568623743589744,0.01993952735958753
-0.005568283743589744,0.01977495957081474
-0.005567943743589743,0.02105858832324301
-0.005567603743589744,0.02135481034303348
-0.005567263743589744,0.02201308149812463
-0.005566923743589743,0.02221056284465119
-0.005566583743589744,0.02178268659384272
-0.005566243743589744,0.02013700870611487
-0.005565903743589743,0.01859007149164943
-0.005565563743589744,0.01789888677880499
-0.005565223743589744,0.01720770206595929
-0.005564883743589743,0.01733935629697788
-0.005564543743589744,0.01753683764350486
-0.005564203743589744,0.01756975120125942
-0.005563863743589743,0.01780014610554215
-0.005563523743589744,0.01826093591410511
-0.005563183743589744,0.01816219524084144
-0.005562843743589744,0.0175039240857515
-0.005562503743589743,0.0165823444686227
-0.005562163743589744,0.01529871571619498
-0.005561823743589744,0.01342264292418863
-0.005561483743589743,0.01319224801990332
-0.005561143743589744,0.01289602600011231
-0.005560803743589744,0.01309350734663929
-0.005560463743589743,0.01368595138622168
-0.005560123743589744,0.01424548186804915
-0.005559783743589744,0.01414674119478566
-0.005559443743589743,0.01398217340601269
-0.005559103743589744,0.01309350734663965
-0.005558763743589744,0.01197444638298674
-0.005558423743589743,0.01092121253483888
-0.005558083743589744,0.009440102435883811
-0.005557743743589744,0.007991905894685934
-0.005557403743589743,0.007366548297346712
-0.005557063743589744,0.0068399313732738
-0.005556723743589744,0.006741190700010307
-0.005556383743589743,0.006971585604292027
-0.005556043743589744,0.007662770317137727
-0.005555703743589744,0.008353955029982168
-0.005555363743589743,0.009473015993638367
-0.005555023743589744,0.01065790407280242
-0.005554683743589744,0.01223775484501829
-0.005554343743589743,0.01408091407927636
-0.005554003743589744,0.0147391852343675
-0.005553663743589744,0.0154303699472132
-0.005553323743589743,0.01490375302314029
-0.005552983743589744,0.01487083946538573
-0.005552643743589744,0.01447587677233105
-0.005552303743589743,0.01460753100334928
-0.005551963743589744,0.01362012427071256
-0.005551623743589744,0.01338972936643066
-0.005551283743589743,0.01315933446214805
-0.005550943743589744,0.01276437176909408
-0.005550603743589744,0.01213901417175749
-0.005550263743589743,0.01227066840277494
-0.005549923743589744,0.01184279215196648
-0.005549583743589744,0.01184279215196648
-0.005549243743589743,0.01180987859421198
-0.005548903743589744,0.01184279215196648
-0.005548563743589744,0.01190861926747559
-0.005548223743589743,0.01171113792094783
-0.005547883743589744,0.01148074301666635
-0.005547543743589744,0.01157948368993002
-0.005547203743589743,0.01105286676585633
-0.005546863743589744,0.01062499051504787
-0.005546523743589744,0.01029585493750229
-0.005546183743589743,0.01016420070648449
-0.005545843743589744,0.01039459561076597
-0.005545503743589744,0.01052624984178419
-0.005545163743589743,0.0102629413797478
-0.005544823743589744,0.01029585493750229
-0.005544483743589744,0.009999632917711282
-0.005544143743589743,0.009900892244447011
-0.005543803743589744,0.00957175666690204
-0.005543463743589744,0.009505929551392924
-0.005543123743589743,0.0097692380134301
-0.005542783743589744,0.01016420070648407
-0.005542443743589744,0.01059207695729331
-0.005542103743589744,0.01157948368992823
-0.005541763743589743,0.01197444638298471
-0.005541423743589744,0.01273145821133952
-0.005541083743589744,0.01269854465358502
-0.005540743743589743,0.01250106330705762
-0.005540403743589744,0.01236940907603939
-0.005540063743589744,0.01161239724768596
-0.005539723743589743,0.01055916339953875
-0.005539383743589744,0.009473015993638367
-0.005539043743589744,0.008814744838548423
-0.005538703743589743,0.008979312627320012
-0.005538363743589744,0.00957175666690204
-0.005538023743589744,0.010032546475465
-0.005537683743589743,0.01042750916852052
-0.005537343743589744,0.01016420070648407
-0.005537003743589744,0.009473015993639625
-0.005536663743589743,0.008979312627320012
-0.005536323743589744,0.008386868587737984
-0.005535983743589744,0.008288127914474492
-0.005535643743589743,0.008518522818756211
-0.005535303743589744,0.009078053300583682
-0.005534963743589744,0.009604670224655639
-0.005534623743589743,0.009703410897920267
-0.005534283743589744,0.009209707531601911
-0.005533943743589744,0.009078053300583921
-0.005533603743589743,0.008551436376510768
-0.005533263743589744,0.008683090607528997
-0.005532923743589744,0.007695683874892284
-0.005532583743589743,0.006807017815519241
-0.005532243743589744,0.0059183517561462
-0.005531903743589744,0.005556302620846072
-0.005531563743589743,0.005819611082882528
-0.005531223743589744,0.006905758488782913
-0.005530883743589744,0.008057733010192412
-0.005530543743589743,0.009242621089356468
-0.005530203743589744,0.01085538541932977
-0.005529863743589744,0.01246814974930307
-0.005529523743589743,0.01332390225092257
-0.005529183743589744,0.01388343273274902
-0.005528843743589744,0.01394925984825813
-0.005528503743589743,0.01335681580867497
-0.005528163743589744,0.01273145821133952
-0.005527823743589744,0.01187570570972104
-0.005527483743589743,0.01049333628402838
-0.005527143743589744,0.009802151571183939
-0.005526803743589744,0.009143880416092796
-0.005526463743589743,0.008683090607529297
-0.005526123743589744,0.008847658396301783
-0.005525783743589744,0.009275534647111025
-0.005525443743589743,0.01009837359097585
-0.005525103743589744,0.01059207695729331
-0.005524763743589744,0.0107566447460661
-0.005524423743589743,0.01115160743912036
-0.005524083743589744,0.01092121253483888
-0.005523743743589744,0.01144782945891179
-0.005523403743589743,0.01131617522789434
-0.005523063743589744,0.01174405147870281
-0.005522723743589744,0.01243523619154851
-0.005522383743589743,0.01302768023113035
-0.005522043743589744,0.01292893955786686
-0.005521703743589744,0.01309350734663965
-0.005521363743589743,0.01276437176909288
-0.005521023743589744,0.01210610061400294
-0.005520683743589744,0.01131617522789356
-0.005520343743589744,0.01098703965034859
-0.005520003743589743,0.01039459561076597
-0.005519663743589744,0.009538843109147481
-0.005519323743589744,0.008814744838548542
-0.005518983743589743,0.007596943201628613
-0.005518643743589744,0.007432375412855827
-0.005518303743589744,0.007004499162047362
-0.005517963743589743,0.006971585604292027
-0.005517623743589744,0.0068399313732738
-0.005517283743589744,0.00657662291123782
-0.005516943743589743,0.007136153393064813
-0.005516603743589744,0.007596943201628613
-0.005516263743589744,0.008024819452437076
-0.005515923743589743,0.008551436376510768
-0.005515583743589744,0.009110966858338239
-0.005515243743589744,0.009440102435883212
-0.005514903743589743,0.01036168205301141
-0.005514563743589744,0.01115160743912078
-0.005514223743589744,0.01180987859421073
-0.005513883743589743,0.01283019888460319
-0.005513543743589744,0.01381760561723991
-0.005513203743589744,0.01483792590762932
-0.005512863743589743,0.01523288860068586
-0.005512523743589744,0.01605572754454979
-0.005512183743589744,0.0165823444686227
-0.005511843743589743,0.0170431342771865
-0.005511503743589744,0.01595698687128612
-0.005511163743589744,0.01493666658089485
-0.005510823743589743,0.01368595138622168
-0.005510483743589744,0.01220484128726661
-0.005510143743589744,0.01088829897708432
-0.005509803743589743,0.00957175666690204
-0.005509463743589744,0.009275534647111025
-0.005509123743589744,0.009505929551392924
-0.005508783743589743,0.009407188878129613
-0.005508443743589744,0.009604670224656596
-0.005508103743589744,0.009736324455674824
-0.005507763743589743,0.009374275320373859
-0.005507423743589744,0.008913485511810896
-0.005507083743589744,0.008321041472228868
-0.005506743743589743,0.007629856759382392
-0.005506403743589744,0.007201980508573926
-0.005506063743589744,0.007333634739592155
-0.005505723743589743,0.007629856759384367
-0.005505383743589744,0.008288127914474312
-0.005505043743589744,0.008847658396301783
-0.005504703743589743,0.009703410897919727
-0.005504363743589744,0.009407188878129254
-0.005504023743589744,0.00967049734016571
-0.005503683743589743,0.01026294137974804
-0.005503343743589744,0.01042750916852052
-0.005503003743589744,0.01042750916852052
-0.005502663743589743,0.0102629413797466
-0.005502323743589744,0.009637583782411153
-0.005501983743589744,0.009045139742829125
-0.005501643743589743,0.009176793973848373
-0.005501303743589744,0.009736324455674824
-0.005500963743589744,0.01078955830382065
-0.005500623743589743,0.01171113792094915
-0.005500283743589744,0.01220484128726661
-0.005499943743589744,0.01236940907603939
-0.005499603743589744,0.01200735994073992
-0.005499263743589743,0.01141491590115724
-0.005498923743589744,0.01128326167013901
-0.005498583743589744,0.01098703965034853
-0.005498243743589743,0.01003254647546584
-0.005497903743589744,0.009736324455674824
-0.005497563743589744,0.008847658396303399
-0.005497223743589743,0.008485609261001654
-0.005496883743589744,0.008419782145492541
-0.005496543743589744,0.009045139742827987
-0.005496203743589743,0.008781831280792669
-0.005495863743589744,0.008913485511810896
-0.005495523743589744,0.009078053300583382
-0.005495183743589743,0.009209707531601911
-0.005494843743589744,0.009538843109147481
-0.005494503743589744,0.009374275320374997
-0.005494163743589743,0.009440102435883811
-0.005493823743589744,0.009736324455674824
-0.005493483743589744,0.00953884310914784
-0.005493143743589743,0.008716004165283554
-0.005492803743589744,0.008222300798965198
-0.005492463743589744,0.007531116086120756
-0.005492123743589743,0.007432375412855827
-0.005491783743589744,0.007695683874892284
-0.005491443743589744,0.008090646567946251
-0.005491103743589743,0.008353955029983425
-0.005490763743589744,0.008485609261001654
-0.005490423743589744,0.00865017704977444
-0.005490083743589743,0.008288127914474312
-0.005489743743589744,0.007860251663665069
-0.005489403743589744,0.007498202528364941
-0.005489063743589743,0.007333634739592155
-0.005488723743589744,0.007366548297346712
-0.005488383743589744,0.007399461855101271
-0.005488043743589743,0.007564029643873815
-0.005487703743589744,0.007432375412855827
-0.005487363743589744,0.007201980508573926
-0.005487023743589743,0.007629856759382691
-0.005486683743589744,0.007366548297346712
-0.005486343743589744,0.007531116086119498
-0.005486003743589743,0.007991905894684735
-0.005485663743589744,0.008781831280792669
-0.005485323743589744,0.009900892244447609
-0.005484983743589743,0.01125034811238637
-0.005484643743589744,0.01230358196053028
-0.005484303743589744,0.01309350734663965
-0.005483963743589743,0.01362012427071412
-0.005483623743589744,0.01447587677233105
-0.005483283743589744,0.01444296321457649
-0.005482943743589743,0.01434422254131156
-0.005482603743589744,0.01365303782846712
-0.005482263743589744,0.01200735994073926
-0.005481923743589743,0.01092121253483744
-0.005481583743589744,0.01013128714872951
-0.005481243743589744,0.009637583782411153
-0.005480903743589743,0.009176793973846995
-0.005480563743589744,0.008979312627320012
-0.005480223743589744,0.008617263492019883
-0.005479883743589743,0.008419782145491942
-0.005479543743589744,0.008090646567946969
-0.005479203743589744,0.007465288970610384
-0.005478863743589744,0.005490475505340551
-0.005478523743589743,-0.0003681377749742074
-0.005478183743589744,-0.01195371010457831
-0.005477843743589744,-0.03101066004443221
-0.005477503743589743,-0.05793395028769458
-0.005477163743589744,-0.08999175554063321
-0.005476823743589744,-0.1235635844502204
-0.005476483743589743,-0.1567075371091205
-0.005476143743589744,-0.1846182340849849
-0.005475803743589744,-0.2072298482623245
-0.005475463743589743,-0.223554972908626
-0.005475123743589744,-0.2343177062943662
-0.005474783743589744,-0.2401434060169121
-0.005474443743589743,-0.2424802686174963
-0.005474103743589744,-0.2415586890003687
-0.005473763743589744,-0.2381685925516555
-0.005473423743589743,-0.2325732877333746
-0.005473083743589744,-0.2262538846444996
-0.005472743743589744,-0.2187825070342288
-0.005472403743589743,-0.2098300193249756
-0.005472063743589744,-0.2007129638269633
-0.005471723743589744,-0.1919250439065126
-0.005471383743589743,-0.1832687782170481
-0.005471043743589744,-0.1755670057024817
-0.005470703743589744,-0.1693134297291272
-0.005470363743589743,-0.1636852113530866
-0.005470023743589744,-0.1578924251882845
-0.005469683743589744,-0.1519679847924643
-0.005469343743589743,-0.1468334697827533
-0.005469003743589744,-0.1415014734265151
-0.005468663743589744,-0.1356428601462039
-0.005468323743589743,-0.1292905434995744
-0.005467983743589744,-0.1239585471433362
-0.005467643743589744,-0.1192189948266799
-0.005467303743589743,-0.114676923856551
-0.005466963743589744,-0.1106943833682496
-0.005466623743589744,-0.1072713733617757
-0.005466283743589743,-0.1041116718173321
-0.005465943743589744,-0.1007544889263734
-0.005465603743589744,-0.09739730603540855
-0.005465263743589743,-0.09436925872198447
-0.005464923743589744,-0.09170326054387018
-0.005464583743589744,-0.08857647255718726
-0.005464243743589743,-0.08535094389723437
-0.005463903743589744,-0.08189502033301216
-0.005463563743589744,-0.07860366455755646
-0.005463223743589743,-0.07514774099332217
-0.005462883743589744,-0.07195512589113592
-0.005462543743589744,-0.06826880742262553
-0.005462203743589743,-0.06405587203003711
-0.005461863743589744,-0.06125821962090485
-0.005461523743589744,-0.05671614865077598
-0.005461183743589743,-0.05296400306675084
-0.005460843743589744,-0.0498701286378281
-0.005460503743589744,-0.04723704401746353
-0.005460163743589743,-0.04499892209014945
-0.005459823743589744,-0.04269497304733465
-0.005459483743589744,-0.04022645621574286
-0.005459143743589743,-0.03835038342373059
-0.005458803743589744,-0.03696801399804171
-0.005458463743589744,-0.0355198174568412
-0.005458123743589743,-0.03449949716644735
-0.005457783743589744,-0.03308421418300397
-0.005457443743589744,-0.03236011591240372
-0.005457103743589744,-0.0313397956220143
-0.005456763743589743,-0.03061569735141219
-0.005456423743589744,-0.02926624148347535
-0.005456083743589744,-0.02785095850003197
-0.005455743743589743,-0.02613945349679242
-0.005455403743589744,-0.02386841801172798
-0.005455063743589744,-0.02212399945073963
-0.005454723743589743,-0.02060997579402683
-0.005454383743589744,-0.01985296396567202
-0.005454043743589744,-0.01899721146405509
-0.005453703743589743,-0.01830602675120783
-0.005453363743589744,-0.01843768098222606
-0.005453023743589744,-0.01820728607794458
-0.005452683743589743,-0.01833894030896239
-0.005452343743589744,-0.01787815050039859
-0.005452003743589744,-0.01754901492285362
-0.005451663743589743,-0.0170223979987801
-0.005451323743589744,-0.01590333703512516
-0.005450983743589744,-0.01442222693617278
-0.005450643743589743,-0.0121182778933511
-0.005450303743589744,-0.009551020388495642
-0.005449963743589744,-0.007674947596489299
-0.005449623743589743,-0.006160923939776259
-0.005449283743589744,-0.004778554514084859
-0.005448943743589744,-0.003856974896958938
-0.005448603743589743,-0.003132876626357004
-0.005448263743589744,-0.003034135953093334
-0.005447923743589744,-0.002507519029020421
-0.005447583743589743,-0.003297444415129792
-0.005447243743589744,-0.003396185088393462
-0.005446903743589744,-0.002836654606565989
-0.005446563743589743,-0.003132876626357004
-0.005446223743589744,-0.003231617299620675
-0.005445883743589744,-0.00362657999267536
-0.005445543743589743,-0.002770827491055798
-0.005445203743589744,-0.00217838345147485
-0.005444863743589744,-0.00158593941189282
-0.005444523743589743,-0.0001706564284457888
-0.005444183743589744,0.0004217876111351632
-0.005443843743589744,0.001178799439489977
-0.005443503743589743,0.001573762132545261
-0.005443163743589744,0.001902897710090234
-0.005442823743589744,0.00180415703682656
-0.005442483743589743,0.001573762132543764
-0.005442143743589744,0.001080058766226306
-0.005441803743589744,0.001211712997244534
-0.005441463743589743,0.001672502805810129
-0.005441123743589744,0.002659909538445047
-0.005440783743589744,0.003647316271081759
-0.005440443743589743,0.00440432809943807
-0.005440103743589744,0.0052271670433005
-0.005439763743589744,0.005095512812282273
-0.005439423743589743,0.0043714145416801
-0.005439083743589744,0.003318180693536187
-0.005438743743589744,0.002429514634163146
-0.005438403743589743,0.001573762132544842
-0.005438063743589744,0.001672502805808333
-0.005437723743589744,0.001475021459280992
-0.005437383743589743,0.001277540112754306
-0.005437043743589744,0.001639589248053776
-0.005436703743589744,0.001310453670508204
-0.005436363743589744,0.001310453670508204
-0.005436023743589743,0.002232033287635805
-0.005435683743589744,0.003351094251290744
-0.005435343743589744,0.004437241657189154
-0.005435003743589743,0.005424648389827843
-0.005434663743589744,0.006609536468991898
-0.005434323743589744,0.007399461855099833
-0.005433983743589743,0.008156473683456083
-0.005433643743589744,0.008090646567946969
-0.005433303743589744,0.008255214356719455
-0.005432963743589743,0.008419782145492541
-0.005432623743589744,0.008452695703247097
-0.005432283743589744,0.008288127914474612
-0.005431943743589743,0.008584349934265326
-0.005431603743589744,0.008683090607528997
-0.005431263743589744,0.008650177049774501
-0.005430923743589743,0.00865017704977444
-0.005430583743589744,0.008716004165283554
-0.005430243743589744,0.008386868587738582
-0.005429903743589743,0.008419782145492541
-0.005429563743589744,0.007827338105910513
-0.005429223743589744,0.007695683874892523
-0.005428883743589743,0.007201980508573926
-0.005428543743589744,0.00795899233692874
-0.005428203743589744,0.007827338105910752
-0.005427863743589743,0.007827338105910513
-0.005427523743589744,0.007432375412855827
-0.005427183743589744,0.007366548297346712
-0.005426843743589743,0.006905758488782913
-0.005426503743589744,0.006774104257764684
-0.005426163743589744,0.006708277142255571
-0.005425823743589743,0.006115833102673543
-0.005425483743589744,0.005556302620846072
-0.005425143743589744,0.005260080601055058
-0.005424803743589743,0.00489803146575493
-0.005424463743589744,0.005161339927791386
-0.005424123743589744,0.005128426370036829
-0.005423783743589743,0.005325907716565669
-0.005423443743589744,0.006148746660428099
-0.005423103743589744,0.006708277142255571
-0.005422763743589743,0.007333634739593232
-0.005422423743589744,0.007926078779174183
-0.005422083743589744,0.00874891772303811
-0.005421743743589743,0.008979312627320251
-0.005421403743589744,0.009110966858338239
-0.005421063743589744,0.009012226185074568
-0.005420723743589743,0.008946399069565692
-0.005420383743589744,0.009078053300583682
-0.005420043743589744,0.009242621089356468
-0.005419703743589743,0.01006546003322189
-0.005419363743589744,0.01088829897708432
-0.005419023743589744,0.0100654600332204
-0.005418683743589743,0.009999632917710683
-0.005418343743589744,0.00967049734016571
-0.005418003743589744,0.009867978686693053
-0.005417663743589743,0.01055916339953893
-0.005417323743589744,0.01065790407280242
-0.005416983743589744,0.01180987859421192
-0.005416643743589743,0.01263271753807723
-0.005416303743589744,0.01338972936643066
-0.005415963743589744,0.01414674119478548
-0.005415623743589743,0.01348847003969565
-0.005415283743589744,0.01421256831029459
-0.005414943743589744,0.01371886494397623
-0.005414603743589744,0.01306059378888629
-0.005414263743589743,0.01197444638298471
