Analysis/New Tests_CMB/wrd01_d2s01/cmb06_ch05.csv

#Digilent WaveForms Oscilloscope Acquisition
#Device Name: ADP3450
#Serial Number: SN:210018B9D9B0
#Date Time: 2024-06-18 13:30:26.429.646.210
#Sample rate: 2.5e+07Hz
#Samples: 32768
#Trigger: Source: Channel 3 Type: Edge Condition: Rising Level: 60 mV Hyst.: Auto HoldOff: 0 s
#Channel 3: Range: 100 mV/div Offset: 0 V Attenuation: 1 X Coupling: DC Bandwidth: 0 Hz Sample Mode: Average

Time (s),Channel 3 (V)
-0.0006553525806451613,-0.02627500478530033
-0.0006553125806451613,-0.02676870815161868
-0.0006552725806451612,-0.02722949796018134
-0.0006552325806451612,-0.0266041403628459
-0.0006551925806451613,-0.02670288103610957
-0.0006551525806451613,-0.02657122680509134
-0.0006551125806451613,-0.02564964718796374
-0.0006550725806451613,-0.02538633872592776
-0.0006550325806451612,-0.02561673363020912
-0.0006549925806451613,-0.02558382007245463
-0.0006549525806451613,-0.02509011670613627
-0.0006549125806451613,-0.02594586920775475
-0.0006548725806451613,-0.02489263535961084
-0.0006548325806451612,-0.02492554891736157
-0.0006547925806451613,-0.02387231506921766
-0.0006547525806451613,-0.02390522862697221
-0.0006547125806451613,-0.02393814218472677
-0.0006546725806451613,-0.02393814218472677
-0.0006546325806451612,-0.02410270997349812
-0.0006545925806451612,-0.02331278458739018
-0.0006545525806451613,-0.02390522862697221
-0.0006545125806451613,-0.02275325410556272
-0.0006544725806451613,-0.02331278458739018
-0.0006544325806451612,-0.02301656256759989
-0.0006543925806451612,-0.02341152526065386
-0.0006543525806451613,-0.02324695747188107
-0.0006543125806451613,-0.0224570320857717
-0.0006542725806451613,-0.02272034054780816
-0.0006542325806451613,-0.02199624227720922
-0.0006541925806451612,-0.0222266371814898
-0.0006541525806451613,-0.02156836602639866
-0.0006541125806451613,-0.02202915583496246
-0.0006540725806451613,-0.02127214400660764
-0.0006540325806451613,-0.02275325410556002
-0.0006539925806451612,-0.02160127958415136
-0.0006539525806451613,-0.02058095929376194
-0.0006539125806451613,-0.02143671179538043
-0.0006538725806451613,-0.01985686102316169
-0.0006538325806451613,-0.02123923044885057
-0.0006537925806451612,-0.02097592198681495
-0.0006537525806451612,-0.02005434236968903
-0.0006537125806451613,-0.02041639150498916
-0.0006536725806451613,-0.02077844064028929
-0.0006536325806451613,-0.0193960712146004
-0.0006535925806451612,-0.01936315765684471
-0.0006535525806451612,-0.02012016948519815
-0.0006535125806451613,-0.01916567631031599
-0.0006534725806451613,-0.01919858986807055
-0.0006534325806451613,-0.01975812034989802
-0.0006533925806451613,-0.01946189833010754
-0.0006533525806451612,-0.0192315034258251
-0.0006533125806451613,-0.01890236784827953
-0.0006532725806451613,-0.01863905938624308
-0.0006532325806451613,-0.01873780005950675
-0.0006531925806451613,-0.01791496111564432
-0.0006531525806451612,-0.0186390593862426
-0.0006531125806451613,-0.01837575092420662
-0.0006530725806451613,-0.01791496111564282
-0.0006530325806451613,-0.01751999842258814
-0.0006529925806451613,-0.01827701025094157
-0.0006529525806451612,-0.0177174797691159
-0.0006529125806451613,-0.01794787467339738
-0.0006528725806451613,-0.01814535601992472
-0.0006528325806451613,-0.01679590015198788
-0.0006527925806451613,-0.01788204755788629
-0.0006527525806451612,-0.01748708486483214
-0.0006527125806451612,-0.01669715947872421
-0.0006526725806451613,-0.01603888832363307
-0.0006526325806451613,-0.01705920861402434
-0.0006525925806451613,-0.01521604937976914
-0.0006525525806451613,-0.01946189833009928
-0.0006525125806451612,-0.01478817312895989
-0.0006524725806451613,-0.01541353072629648
-0.0006524325806451613,-0.01623636967016041
-0.0006523925806451613,-0.01554518495731471
-0.0006523525806451613,-0.01498565447548826
-0.0006523125806451612,-0.01561101207282316
-0.0006522725806451613,-0.0152489629375237
-0.0006522325806451613,-0.014557778224678
-0.0006521925806451613,-0.01429446976264154
-0.0006521525806451613,-0.014788173128959
-0.0006521125806451612,-0.01376785283856892
-0.0006520725806451613,-0.01393242062734141
-0.0006520325806451613,-0.01370202572305951
-0.0006519925806451613,-0.01353745793428673
-0.0006519525806451613,-0.01343871726102324
-0.0006519125806451612,-0.01360328504979608
-0.0006518725806451612,-0.01373493928081407
-0.0006518325806451613,-0.01353745793428673
-0.0006517925806451613,-0.0131754087989866
-0.0006517525806451613,-0.01274753254817735
-0.0006517125806451612,-0.01333997658775956
-0.0006516725806451612,-0.01343871726102305
-0.0006516325806451613,-0.01307666812572293
-0.0006515925806451613,-0.01330706303000483
-0.0006515525806451613,-0.01304375456796837
-0.0006515125806451613,-0.01301084101021387
-0.0006514725806451612,-0.01340580370326718
-0.0006514325806451613,-0.01268170543266824
-0.0006513925806451613,-0.01314249524123204
-0.0006513525806451613,-0.01274753254817735
-0.0006513125806451613,-0.01278044610593185
-0.0006512725806451612,-0.01307666812572293
-0.0006512325806451613,-0.01307666812572293
-0.0006511925806451613,-0.01297792745245925
-0.0006511525806451613,-0.01327414947225027
-0.0006511125806451613,-0.01307666812572329
-0.0006510725806451612,-0.01324123591449464
-0.0006510325806451612,-0.01264879187491368
-0.0006509925806451613,-0.01314249524123204
-0.0006509525806451613,-0.01278044610593191
-0.0006509125806451613,-0.0129450138947047
-0.0006508725806451612,-0.0128133596636879
-0.0006508325806451612,-0.01360328504979584
-0.0006507925806451613,-0.01251713764389546
-0.0006507525806451613,-0.0136361986075504
-0.0006507125806451613,-0.01320832235674115
-0.0006506725806451613,-0.01333997658775914
-0.0006506325806451612,-0.01333997658775938
-0.0006505925806451613,-0.01314249524123204
-0.0006505525806451613,-0.01281335966368647
-0.0006505125806451613,-0.01264879187491368
-0.0006504725806451613,-0.01320832235674014
-0.0006504325806451612,-0.01245131052838616
-0.0006503925806451613,-0.01235256985512267
-0.0006503525806451613,-0.01304375456796837
-0.0006503125806451613,-0.01255005120165001
-0.0006502725806451613,-0.01281335966368599
-0.0006502325806451612,-0.01228674273961302
-0.0006501925806451612,-0.01199052071982254
-0.0006501525806451613,-0.0124842240861409
-0.0006501125806451613,-0.01238548341287723
-0.0006500725806451613,-0.01225382918185924
-0.0006500325806451612,-0.0120234342775765
-0.0006499925806451612,-0.01169429870003153
-0.0006499525806451613,-0.012253829181859
-0.0006499125806451613,-0.01192469360431343
-0.0006498725806451613,-0.01215508850859533
-0.0006498325806451613,-0.01228674273961332
-0.0006497925806451612,-0.01238548341287723
-0.0006497525806451613,-0.0120234342775771
-0.0006497125806451613,-0.01182595293104976
-0.0006496725806451613,-0.01208926139308621
-0.0006496325806451613,-0.01176012581554124
-0.0006495925806451612,-0.01208926139308514
-0.0006495525806451613,-0.01149681735350419
-0.0006495125806451613,-0.0117930393732952
-0.0006494725806451613,-0.01143099023799507
-0.0006494325806451613,-0.01169429870003105
-0.0006493925806451612,-0.01192469360431379
-0.0006493525806451613,-0.01212217495084077
-0.0006493125806451613,-0.01189178004655887
-0.0006492725806451613,-0.01159555802676786
-0.0006492325806451613,-0.01192469360431283
-0.0006491925806451612,-0.0122538291818587
-0.0006491525806451612,-0.01208926139308621
-0.0006491125806451613,-0.01228674273961356
-0.0006490725806451613,-0.01129933600697684
-0.0006490325806451613,-0.01152973091125874
-0.0006489925806451612,-0.01189178004655881
-0.0006489525806451612,-0.01185886648880431
-0.0006489125806451613,-0.01146390379574963
-0.0006488725806451613,-0.01139807668024051
-0.0006488325806451613,-0.01169429870003153
-0.0006487925806451613,-0.01156264446901354
-0.0006487525806451612,-0.01116768177595831
-0.0006487125806451613,-0.01100311398718583
-0.0006486725806451613,-0.01192469360431343
-0.0006486325806451613,-0.0113322495647314
-0.0006485925806451613,-0.0113322495647314
-0.0006485525806451612,-0.01195760716206619
-0.0006485125806451613,-0.01097020042943127
-0.0006484725806451613,-0.01129933600697684
-0.0006484325806451613,-0.0120234342775771
-0.0006483925806451613,-0.01136516312248715
-0.0006483525806451612,-0.01185886648880222
-0.0006483125806451612,-0.01070689196739481
-0.0006482725806451613,-0.0108714597561676
-0.0006482325806451613,-0.01070689196739481
-0.0006481925806451613,-0.01136516312248596
-0.0006481525806451612,-0.01103602754493931
-0.0006481125806451612,-0.01044358350535836
-0.0006480725806451613,-0.01077271908290393
-0.0006480325806451613,-0.0101802750433219
-0.0006479925806451613,-0.01008153437005823
-0.0006479525806451613,-0.01064106485188468
-0.0006479125806451612,-0.009785312350267694
-0.0006478725806451613,-0.01004862081230367
-0.0006478325806451613,-0.009884053023530886
-0.0006477925806451613,-0.01011444792781279
-0.0006477525806451613,-0.009620744561495328
-0.0006477125806451612,-0.009357436099458633
-0.0006476725806451613,-0.009719485234758102
-0.0006476325806451613,-0.009554917445985316
-0.0006475925806451613,-0.009061214079666959
-0.0006475525806451613,-0.009028300521912462
-0.0006475125806451612,-0.009357436099456298
-0.0006474725806451612,-0.008435856482330374
-0.0006474325806451613,-0.009752398792512659
-0.0006473925806451613,-0.008238375135803031
-0.0006473525806451613,-0.007876326000502903
-0.0006473125806451612,-0.009192868310682193
-0.0006472725806451612,-0.007547190422957332
-0.0006472325806451613,-0.008271288693557588
-0.0006471925806451613,-0.00860042427110316
-0.0006471525806451613,-0.007613017538466446
-0.0006471125806451613,-0.008666251386610358
-0.0006470725806451612,-0.007942153116012016
-0.0006470325806451613,-0.008337115809066702
-0.0006469925806451613,-0.007613017538466446
-0.0006469525806451613,-0.008073807347030245
-0.0006469125806451613,-0.008205461578048235
-0.0006468725806451612,-0.007514276865202895
-0.0006468325806451613,-0.007580103980711889
-0.0006467925806451613,-0.007415536191939104
-0.0006467525806451613,-0.007283881960920875
-0.0006467125806451613,-0.007283881960920875
-0.0006466725806451612,-0.007514276865201578
-0.0006466325806451613,-0.006856005710111633
-0.0006465925806451613,-0.007382622634184546
-0.0006465525806451613,-0.007514276865202775
-0.0006465125806451613,-0.006921832825621825
-0.0006464725806451612,-0.007415536191939343
-0.0006464325806451612,-0.007547190422957332
-0.0006463925806451613,-0.005802771861965805
-0.0006463525806451613,-0.006790178594602518
-0.0006463125806451613,-0.006230648112775047
-0.0006462725806451613,-0.006395215901547534
-0.0006462325806451612,-0.006263561670529605
-0.0006461925806451613,-0.00619773455502049
-0.0006461525806451613,-0.00586859897747492
-0.0006461125806451613,-0.005374895611156563
-0.0006460725806451613,-0.006131907439509999
-0.0006460325806451612,-0.005210327822384914
-0.0006459925806451613,-0.005835685419720362
-0.0006459525806451613,-0.004914105802592763
-0.0006459125806451613,-0.005276154937892892
-0.0006458725806451613,-0.00422292108974898
-0.0006458325806451612,-0.00438748887851997
-0.0006457925806451613,-0.004453315994028964
-0.0006457525806451613,-0.003959612627710607
-0.0006457125806451613,-0.003992526185465165
-0.0006456725806451613,-0.003597563492411198
-0.0006456325806451612,-0.002972205895073535
-0.0006455925806451612,-0.002774724548546551
-0.0006455525806451613,-0.004288748205256179
-0.0006455125806451613,-0.002544329644264652
-0.0006454725806451613,-0.002116453393455409
-0.0006454325806451612,-0.002412675413243969
-0.0006453925806451612,-0.001063219545309582
-0.0006453525806451613,-0.002643070317528323
-0.0006453125806451613,-0.001754404258155281
-0.0006452725806451613,-0.001227787334082367
-0.0006452325806451613,-0.001392355122854854
-0.0006451925806451612,-0.001293614449590224
-0.0006451525806451613,-0.0006024297367457822
-0.0006451125806451613,-0.0009315653142913533
-0.0006450725806451613,-0.001161960218573253
-0.0006450325806451613,-0.0002732941592018277
-0.0006449925806451612,-0.0003391212747085472
-0.0006449525806451613,8.875497609991696e-05
-0.0006449125806451613,0.0005166312269091594
-0.0006448725806451613,0.0002533227648727025
-0.0006448325806451613,0.0008128532466991556
-0.0006447925806451612,0.0007141125734374599
-0.0006447525806451612,0.001240729497509416
-0.0006447125806451613,0.0009115939199638446
-0.0006446725806451613,0.001866087094846001
-0.0006446325806451613,0.00153695151730043
-0.0006445925806451612,0.001701519306073814
-0.0006445525806451612,0.002030654883618786
-0.0006445125806451613,0.002425617576673472
-0.0006444725806451613,0.001931914210355115
-0.0006444325806451613,0.002030654883618786
-0.0006443925806451613,0.002688926038708731
-0.0006443525806451612,0.0023268769034101
-0.0006443125806451613,0.002491444692182586
-0.0006442725806451613,0.002524358249937143
-0.0006442325806451613,0.002096481999127901
-0.0006441925806451613,0.002261049787900387
-0.0006441525806451612,0.002820580269728396
-0.0006441125806451613,0.002952234500746385
-0.0006440725806451613,0.003050975174010056
-0.0006440325806451613,0.002425617576673472
-0.0006439925806451613,0.003050975174008919
-0.0006439525806451612,0.002228136230147027
-0.0006439125806451612,0.002721839596464486
-0.0006438725806451613,0.002754753154219042
-0.0006438325806451613,0.002458531134428029
-0.0006437925806451613,0.002820580269728157
-0.0006437525806451612,0.002688926038709928
-0.0006437125806451612,0.002688926038709928
-0.0006436725806451613,0.002656012480955371
-0.0006436325806451613,0.002458531134428029
-0.0006435925806451613,0.0025572718076917
-0.0006435525806451613,0.002952234500745666
-0.0006435125806451612,0.002590185365446257
-0.0006434725806451613,0.002919320942991828
-0.0006434325806451613,0.002688926038709928
-0.0006433925806451613,0.002886407385237271
-0.0006433525806451613,0.002359790461165315
-0.0006433125806451612,0.002623098923201173
-0.0006432725806451613,0.002820580269728157
-0.0006432325806451613,0.002162309114637015
-0.0006431925806451613,0.00107616170873663
-0.0006431525806451613,0.006243590276192697
-0.0006431125806451612,-0.00040494839021365
-0.0006430725806451613,0.002228136230146129
-0.0006430325806451613,0.002228136230146129
-0.0006429925806451613,0.002853493827482714
-0.0006429525806451613,0.001141988824248858
-0.0006429125806451612,0.001668605748318658
-0.0006428725806451612,0.001668605748318658
-0.0006428325806451613,0.001504037959545873
-0.0006427925806451613,0.0009115939199638446
-0.0006427525806451613,0.001109075266491187
-0.0006427125806451613,0.0005166312269102371
-0.0006426725806451612,0.001471124401791315
-0.0006426325806451613,0.001141988824245744
-0.0006425925806451613,0.0005824583424182735
-0.0006425525806451613,0.0008128532467001733
-0.0006425125806451613,0.0002862363226282175
-0.0006424725806451612,0.0009445074777167853
-0.0006424325806451613,5.584141834535986e-05
-0.0006423925806451613,-0.0007340839677640107
-0.0006423525806451613,-0.0003062077169547683
-0.0006423125806451613,-0.0003062077169547683
-0.0006422725806451612,-0.0007011704100094536
-0.0006422325806451613,-0.0007011704100094536
-0.0006421925806451613,-0.0005695161789912252
-0.0006421525806451613,-0.0006024297367457822
-0.0006421125806451613,-0.001096133103063241
-0.0006420725806451612,-0.0009644788720453716
-0.0006420325806451612,-0.0006682568522548965
-0.0006419925806451613,-0.001853144931418952
-0.0006419525806451613,-0.001491095796118824
-0.0006419125806451613,-0.001524009353873381
-0.0006418725806451612,-0.00129361444959202
-0.0006418325806451612,-0.001589836469382495
-0.0006417925806451613,-0.002215194066719081
-0.0006417525806451613,-0.001688577142646167
-0.0006417125806451613,-0.002313934739982752
-0.0006416725806451613,-0.002511416086509735
-0.0006416325806451612,-0.001984799162437959
-0.0006415925806451613,-0.002412675413246423
-0.0006415525806451613,-0.001918972046928067
-0.0006415125806451613,-0.00290637877956478
-0.0006414725806451613,-0.002708897433037796
-0.0006414325806451612,-0.003169687241598483
-0.0006413925806451613,-0.00165566358489161
-0.0006413525806451613,-0.003432995703637694
-0.0006413125806451613,-0.00244558897100098
-0.0006412725806451613,-0.002708897433036958
-0.0006412325806451612,-0.002708897433037557
-0.0006411925806451612,-0.002774724548546551
-0.0006411525806451613,-0.002313934739982752
-0.0006411125806451613,-0.003202600799355794
-0.0006410725806451613,-0.002511416086510094
-0.0006410325806451612,-0.002807638106301108
-0.0006409925806451612,-0.002807638106301108
-0.0006409525806451613,-0.003301341472619465
-0.0006409125806451613,-0.003038033010583008
-0.0006408725806451613,-0.002643070317528323
-0.0006408325806451613,-0.002840551664055307
-0.0006407925806451612,-0.003136773683845961
-0.0006407525806451613,-0.002741810990791994
-0.0006407125806451613,-0.002774724548546551
-0.0006406725806451613,-0.002017712720191738
-0.0006406325806451613,-0.002807638106299672
-0.0006405925806451612,-0.002906378779563582
-0.0006405525806451613,-0.002248107624473638
-0.0006405125806451613,-0.001820231373664395
-0.0006404725806451613,-0.001918972046928067
-0.0006404325806451613,-0.001820231373664575
-0.0006403925806451612,-0.001721490700401203
-0.0006403525806451612,-0.001984799162437181
-0.0006403125806451613,-0.001688577142646167
-0.0006402725806451613,-0.002116453393455409
-0.0006402325806451613,-0.001359441565101973
-0.0006401925806451612,-0.00145818223836313
-0.0006401525806451612,-0.000832824641027682
-0.0006401125806451613,-0.00188605848917351
-0.0006400725806451613,-0.001392355122855153
-0.0006400325806451613,-0.0007011704100094536
-0.0006399925806451613,-0.001129046660817918
-0.0006399525806451612,-0.001129046660818696
-0.0006399125806451613,-0.0007340839677640107
-0.0006398725806451613,-0.001260700891836924
-0.0006398325806451613,-0.0004049483902184396
-0.0006397925806451613,-0.0007011704100089147
-0.0006397525806451612,-0.0008986517565345212
-0.0006397125806451613,0.0003520634381363738
-0.0006396725806451613,-0.0001745534859365399
-0.0006396325806451613,-0.0002732941592002112
-0.0006395925806451613,-9.985697164233305e-06
-0.0006395525806451612,5.584141834697633e-05
-0.0006395125806451613,0.0009445074777184018
-0.0006394725806451613,0.0004508041114000451
-0.0006394325806451613,0.0003520634381363738
-0.0006393925806451613,0.0007470261311903407
-0.0006393525806451612,0.00147112440178934
-0.0006393125806451612,0.0003849769958909309
-0.0006392725806451613,0.0003191498803818167
-0.0006392325806451613,0.002293963345655243
-0.0006391925806451613,0.001866087094846001
-0.0006391525806451613,0.001767346421582509
-0.0006391125806451612,0.001174902382000301
-0.0006390725806451613,0.001240729497509416
-0.0006390325806451613,0.001405297286282201
-0.0006389925806451613,0.001043248150982073
-0.0006389525806451613,0.003281370078287885
-0.0006389125806451612,0.001866087094844863
-0.0006388725806451613,0.001240729497509416
-0.0006388325806451613,0.002985148058500942
-0.0006387925806451613,0.001141988824245744
-0.0006387525806451613,0.003182629405024573
-0.0006387125806451612,0.003347197193798496
-0.0006386725806451613,0.001931914210355115
-0.0006386325806451613,0.002261049787900686
-0.0006385925806451613,0.003347197193801071
-0.0006385525806451613,0.002326876903411657
-0.0006385125806451612,0.003413024309310065
-0.0006384725806451612,0.003347197193801071
-0.0006384325806451613,0.002820580269728157
-0.0006383925806451613,0.003083888731764614
-0.0006383525806451613,0.003083888731764614
-0.0006383125806451612,0.002886407385239307
-0.0006382725806451612,0.004005468348892213
-0.0006382325806451613,0.002656012480955371
-0.0006381925806451613,0.003281370078291956
-0.0006381525806451613,0.003149715847273728
-0.0006381125806451613,0.002919320942992247
-0.0006380725806451612,0.003248456520538357
-0.0006380325806451613,0.003775073444610313
-0.0006379925806451613,0.002524358249937143
-0.0006379525806451613,0.004137122579910441
-0.0006379125806451613,0.003083888731766529
-0.0006378725806451612,0.003018061616256517
-0.0006378325806451613,0.00357759209808297
-0.0006377925806451613,0.003116802289519171
-0.0006377525806451613,0.003314283636046514
-0.0006377125806451613,0.003347197193801011
