Analysis/New Tests_CMB/wrd01_d2s01/cmb03_ch03.csv

#Digilent WaveForms Oscilloscope Acquisition
#Device Name: ADP3450
#Serial Number: SN:210018B9D9B0
#Date Time: 2024-08-05 17:16:50.563.410.520
#Sample rate: 2.5e+07Hz
#Samples: 32768
#Trigger: Source: Channel 3 Type: Edge Condition: Rising Level: 10 mV Hyst.: Auto HoldOff: 0 s
#Channel 3: Range: 200 mV/div Offset: 0 V Attenuation: 1 X Coupling: DC Bandwidth: 0 Hz Sample Mode: Average

Time (s),Channel 3 (V)
-0.0006553554545454546,-0.01758582553809725
-0.0006553154545454546,-0.01610471543914218
-0.0006552754545454545,-0.01603888832363606
-0.0006552354545454545,-0.01768456621136092
-0.0006551954545454546,-0.01834283736645206
-0.0006551554545454546,-0.01745417130707902
-0.0006551154545454546,-0.01728960351830624
-0.0006550754545454546,-0.01844157803971364
-0.0006550354545454545,-0.01949481188786324
-0.0006549954545454546,-0.02041639150498916
-0.0006549554545454546,-0.01995560169642536
-0.0006549154545454546,-0.02216081006598069
-0.0006548754545454546,-0.02278616766331613
-0.0006548354545454545,-0.02222663718148837
-0.0006547954545454546,-0.02143671179538043
-0.0006547554545454546,-0.02179876093068056
-0.0006547154545454546,-0.02482680824409981
-0.0006546754545454546,-0.02311530324086596
-0.0006546354545454545,-0.02324695747187903
-0.0006545954545454546,-0.02212789650822613
-0.0006545554545454546,-0.01788204755788826
-0.0006545154545454546,-0.01949481188786156
-0.0006544754545454546,-0.01877071361726131
-0.0006544354545454545,-0.01594014765036634
-0.0006543954545454546,-0.01426155620488698
-0.0006543554545454546,-0.01445903755141432
-0.0006543154545454546,-0.01330706303000483
-0.0006542754545454546,-0.01376785283856862
-0.0006542354545454546,-0.01149681735350832
-0.0006541954545454545,-0.01116768177595861
-0.0006541554545454546,-0.01166138514227697
-0.0006541154545454546,-0.01103602754494038
-0.0006540754545454546,-0.0120234342775771
-0.0006540354545454546,-0.01245131052838556
-0.0006539954545454545,-0.01271461899042352
-0.0006539554545454546,-0.01310958168347748
-0.0006539154545454546,-0.01396533418509597
-0.0006538754545454546,-0.01511730870650547
-0.0006538354545454546,-0.01574266630384091
-0.0006537954545454545,-0.0161047154391438
-0.0006537554545454546,-0.01699338149851522
-0.0006537154545454546,-0.01659841880546054
-0.0006536754545454546,-0.01844157803971573
-0.0006536354545454546,-0.01873780005950621
-0.0006535954545454545,-0.01817826957767904
-0.0006535554545454546,-0.01804661534666105
-0.0006535154545454546,-0.01781622044237915
-0.0006534754545454546,-0.01817826957767928
-0.0006534354545454546,-0.01745417130707902
-0.0006533954545454546,-0.01761873909585151
-0.0006533554545454545,-0.01771747976911548
-0.0006533154545454546,-0.01521604937976914
-0.0006532754545454546,-0.01640093745893319
-0.0006532354545454546,-0.01758582553809725
-0.0006531954545454546,-0.01676298659423482
-0.0006531554545454545,-0.01886945429051007
-0.0006531154545454546,-0.01067397840964026
-0.0006530754545454546,-0.01781622044237915
-0.0006530354545454546,-0.01320832235674115
-0.0006529954545454546,-0.0162363696701549
-0.0006529554545454545,-0.01673007303647494
-0.0006529154545454546,-0.01462360534018711
-0.0006528754545454546,-0.01673007303647877
-0.0006528354545454546,-0.01705920861402434
-0.0006527954545454546,-0.01643385101668889
-0.0006527554545454545,-0.01715794928728933
-0.0006527154545454546,-0.01788204755788826
-0.0006526754545454546,-0.01696046794076066
-0.0006526354545454546,-0.01863905938624308
-0.0006525954545454546,-0.01620345611240585
-0.0006525554545454546,-0.01696046794075929
-0.0006525154545454545,-0.01817826957767928
-0.0006524754545454546,-0.01633511034342408
-0.0006524354545454546,-0.01610471543914218
-0.0006523954545454546,-0.01633511034342408
-0.0006523554545454546,-0.01594014765037011
-0.0006523154545454545,-0.01666424592096953
-0.0006522754545454546,-0.01659841880546054
-0.0006522354545454546,-0.01495274091773268
-0.0006521954545454546,-0.01511730870650547
-0.0006521554545454546,-0.01765165265360175
-0.0006521154545454545,-0.01610471543914367
-0.0006520754545454546,-0.01692755438300611
-0.0006520354545454546,-0.01626928322791496
-0.0006519954545454546,-0.01771747976911548
-0.0006519554545454546,-0.01640093745893559
-0.0006519154545454545,-0.01692755438300677
-0.0006518754545454546,-0.01728960351830624
-0.0006518354545454546,-0.01732251707606079
-0.0006517954545454546,-0.01699338149851522
-0.0006517554545454546,-0.01682881370974244
-0.0006517154545454545,-0.01630219678566952
-0.0006516754545454545,-0.01630219678566952
-0.0006516354545454546,-0.01518313582201458
-0.0006515954545454546,-0.01603888832363307
-0.0006515554545454546,-0.01491982735997812
-0.0006515154545454546,-0.01498565447548712
-0.0006514754545454545,-0.01485400024446877
-0.0006514354545454546,-0.01472234601345078
-0.0006513954545454546,-0.01488691380222357
-0.0006513554545454546,-0.01478817312895989
-0.0006513154545454546,-0.01570975274608582
-0.0006512754545454545,-0.01534770361078886
-0.0006512354545454546,-0.01617054255465129
-0.0006511954545454546,-0.01488691380222357
-0.0006511554545454546,-0.01633511034342408
-0.0006511154545454546,-0.01646676457444207
-0.0006510754545454545,-0.01551227139956177
-0.0006510354545454546,-0.01640093745893319
-0.0006509954545454546,-0.01640093745893319
-0.0006509554545454546,-0.01518313582201458
-0.0006509154545454546,-0.01554518495731471
-0.0006508754545454545,-0.01551227139956171
-0.0006508354545454546,-0.01636802390117864
-0.0006507954545454546,-0.01722377640279712
-0.0006507554545454546,-0.01567683918833294
-0.0006507154545454546,-0.01620345611240585
-0.0006506754545454546,-0.01719086284504077
-0.0006506354545454545,-0.01722377640279712
-0.0006505954545454546,-0.01649967813219686
-0.0006505554545454546,-0.01646676457444231
-0.0006505154545454546,-0.01712503572953345
-0.0006504754545454546,-0.01709212217177895
-0.0006504354545454545,-0.01745417130707854
-0.0006503954545454546,-0.01719086284504256
-0.0006503554545454546,-0.01784913400013371
-0.0006503154545454546,-0.01666424592096965
-0.0006502754545454546,-0.01765165265360457
-0.0006502354545454545,-0.01745417130707854
-0.0006501954545454546,-0.01719086284504256
-0.0006501554545454546,-0.01630219678566952
-0.0006501154545454546,-0.01689464082525155
-0.0006500754545454546,-0.017519998422587
-0.0006500354545454545,-0.01725668996054982
-0.0006499954545454546,-0.01623636967016041
-0.0006499554545454546,-0.01574266630384205
-0.0006499154545454546,-0.01801370178890649
-0.0006498754545454546,-0.01449195110916888
-0.0006498354545454546,-0.01034484283210223
-0.0006497954545454545,-0.01192469360431343
-0.0006497554545454546,-0.01491982735997812
-0.0006497154545454546,-0.01626928322791496
-0.0006496754545454546,-0.01505148159099635
-0.0006496354545454546,-0.01238548341288207
-0.0006495954545454545,-0.01310958168348305
-0.0006495554545454546,-0.01617054255465129
-0.0006495154545454546,-0.02189750160394423
-0.0006494754545454546,-0.02364192016493576
-0.0006494354545454546,-0.02509011670613364
-0.0006493954545454545,-0.01969229323438824
-0.0006493554545454546,-0.01933024409908878
-0.0006493154545454546,-0.01626928322791496
-0.0006492754545454546,-0.01686172726749699
-0.0006492354545454546,-0.02074552708252767
-0.0006491954545454545,-0.01936315765684201
-0.0006491554545454546,-0.01863905938624308
-0.0006491154545454546,-0.01837575092420662
-0.0006490754545454546,-0.01834283736645206
-0.0006490354545454546,-0.01883654073277042
-0.0006489954545454545,-0.01817826957768107
-0.0006489554545454545,-0.01916567631031599
-0.0006489154545454546,-0.0185403187129794
-0.0006488754545454546,-0.0196922932343889
-0.0006488354545454546,-0.01956063900337068
-0.0006487954545454546,-0.02071261352477808
-0.0006487554545454545,-0.02031765083172795
-0.0006487154545454546,-0.02166710669966233
-0.0006486754545454546,-0.0206138728515165
-0.0006486354545454546,-0.01952772544561612
-0.0006485954545454546,-0.02114048977558648
-0.0006485554545454545,-0.0220620693927139
-0.0006485154545454546,-0.02035056438948005
-0.0006484754545454546,-0.02025182371621638
-0.0006484354545454546,-0.02127214400660764
-0.0006483954545454546,-0.01992268813867326
-0.0006483554545454545,-0.01962646611887961
-0.0006483154545454546,-0.01952772544561612
-0.0006482754545454546,-0.01916567631031599
-0.0006482354545454546,-0.01975812034989802
-0.0006481954545454546,-0.01916567631031599
-0.0006481554545454545,-0.01906693563705166
-0.0006481154545454546,-0.01870488650175219
-0.0006480754545454546,-0.01965937967663435
-0.0006480354545454546,-0.0190011085215432
-0.0006479954545454546,-0.01840866448196118
-0.0006479554545454546,-0.01913276275256012
-0.0006479154545454545,-0.01998851525417836
-0.0006478754545454546,-0.01913276275256143
-0.0006478354545454546,-0.01751999842258814
-0.0006477954545454546,-0.01886945429052498
-0.0006477554545454546,-0.01880362717501598
-0.0006477154545454545,-0.0178820475578897
-0.0006476754545454546,-0.01867197294399764
-0.0006476354545454546,-0.0185403187129794
-0.0006475954545454546,-0.01975812034989802
-0.0006475554545454546,-0.01913276275256257
-0.0006475154545454545,-0.01850740515522712
-0.0006474754545454546,-0.01975812034989802
-0.0006474354545454546,-0.02002142881193448
-0.0006473954545454546,-0.01933024409908878
-0.0006473554545454546,-0.01863905938624308
-0.0006473154545454545,-0.01985686102316259
-0.0006472754545454546,-0.02035056438948005
-0.0006472354545454546,-0.01906693563705232
-0.0006471954545454546,-0.01837575092420662
-0.0006471554545454546,-0.01798078823115194
-0.0006471154545454546,-0.01699338149851702
-0.0006470754545454545,-0.01791496111564282
-0.0006470354545454546,-0.01692755438300611
-0.0006469954545454546,-0.01673007303647877
-0.0006469554545454546,-0.01640093745893319
-0.0006469154545454546,-0.01765165265360409
-0.0006468754545454545,-0.01824409669318378
-0.0006468354545454546,-0.01570975274608749
-0.0006467954545454546,-0.01636802390117864
-0.0006467554545454546,-0.01666424592096965
-0.0006467154545454546,-0.01709212217177812
-0.0006466754545454545,-0.01617054255465399
-0.0006466354545454546,-0.01765165265360636
-0.0006465954545454546,-0.01755291198034269
-0.0006465554545454546,-0.01745417130707902
-0.0006465154545454546,-0.01699338149851606
-0.0006464754545454545,-0.01867197294399392
-0.0006464354545454546,-0.01663133236321509
-0.0006463954545454546,-0.01712503572953345
-0.0006463554545454546,-0.01673007303647877
-0.0006463154545454546,-0.01696046794076066
-0.0006462754545454546,-0.01751999842258712
-0.0006462354545454545,-0.01547935784180559
-0.0006461954545454546,-0.01603888832363307
-0.0006461554545454546,-0.01577557986159661
-0.0006461154545454546,-0.01620345611240585
-0.0006460754545454546,-0.01649967813219633
-0.0006460354545454545,-0.01508439514875211
-0.0006459954545454546,-0.01574266630384205
-0.0006459554545454546,-0.01659841880546054
-0.0006459154545454546,-0.01574266630384205
-0.0006458754545454546,-0.01653259168994999
-0.0006458354545454545,-0.01587432053486094
-0.0006457954545454546,-0.01623636967016041
-0.0006457554545454546,-0.01669715947872421
-0.0006457154545454546,-0.01751999842258814
-0.0006456754545454546,-0.01728960351830666
-0.0006456354545454545,-0.01544644428405505
-0.0006455954545454546,-0.01765165265360636
-0.0006455554545454546,-0.01834283736645206
-0.0006455154545454546,-0.01725668996055168
-0.0006454754545454546,-0.01699338149851522
-0.0006454354545454545,-0.01758582553809946
-0.0006453954545454545,-0.01880362717501586
-0.0006453554545454546,-0.01830992380869751
-0.0006453154545454546,-0.01863905938624308
-0.0006452754545454546,-0.01649967813219686
-0.0006452354545454546,-0.01643385101668787
-0.0006451954545454545,-0.01880362717500952
-0.0006451554545454546,-0.01531479005303281
-0.0006451154545454546,-0.01320832235674115
-0.0006450754545454546,-0.0159401476503694
-0.0006450354545454546,-0.01274753254818316
-0.0006449954545454545,-0.0153806171685427
-0.0006449554545454546,-0.01580849341935116
-0.0006449154545454546,-0.01343871726102305
-0.0006448754545454546,-0.01403116130060508
-0.0006448354545454546,-0.01297792745246117
-0.0006447954545454545,-0.01482108668671469
-0.0006447554545454546,-0.01495274091773268
-0.0006447154545454546,-0.01557809851506927
-0.0006446754545454546,-0.01426155620488698
-0.0006446354545454546,-0.01478817312895989
-0.0006445954545454545,-0.01607180188138577
-0.0006445554545454546,-0.01505148159099635
-0.0006445154545454546,-0.01564392563057838
-0.0006444754545454546,-0.01590723409261484
-0.0006444354545454546,-0.01600597476587851
-0.0006443954545454546,-0.01570975274608803
-0.0006443554545454545,-0.01613762899689428
-0.0006443154545454546,-0.01478817312895989
-0.0006442754545454546,-0.01547935784180559
-0.0006442354545454546,-0.01511730870650547
-0.0006441954545454546,-0.01429446976264304
-0.0006441554545454545,-0.01495274091773166
-0.0006441154545454546,-0.01439321043590521
-0.0006440754545454546,-0.01366911216530495
-0.0006440354545454546,-0.01350454437653217
-0.0006439954545454546,-0.0131424952412327
-0.0006439554545454545,-0.01393242062733932
-0.0006439154545454546,-0.01278044610593191
-0.0006438754545454546,-0.01185886648880431
-0.0006438354545454546,-0.01182595293104976
-0.0006437954545454546,-0.01376785283856862
-0.0006437554545454545,-0.01380076639631983
-0.0006437154545454546,-0.01195760716206798
-0.0006436754545454546,-0.01159555802676786
-0.0006436354545454546,-0.01337289014551394
-0.0006435954545454546,-0.01245131052838634
-0.0006435554545454546,-0.01139807668024243
-0.0006435154545454545,-0.01245131052838634
-0.0006434754545454546,-0.0143273833203961
-0.0006434354545454546,-0.01284627322144103
-0.0006433954545454546,-0.01416281553162331
-0.0006433554545454546,-0.01363619860755136
-0.0006433154545454545,-0.01422864264713656
-0.0006432754545454546,-0.01649967813219686
-0.0006432354545454546,-0.01518313582201458
-0.0006431954545454546,-0.01597306120812395
-0.0006431554545454546,-0.01722377640279485
-0.0006431154545454545,-0.01715794928728693
-0.0006430754545454546,-0.01656550524770598
-0.0006430354545454546,-0.01626928322791496
-0.0006429954545454546,-0.01528187649527825
-0.0006429554545454546,-0.0170921221717756
-0.0006429154545454545,-0.01623636967015933
-0.0006428754545454546,-0.01564392563057838
-0.0006428354545454546,-0.01515022226426002
-0.0006427954545454546,-0.01633511034342408
-0.0006427554545454546,-0.01561101207282382
-0.0006427154545454546,-0.01412990197387145
-0.0006426754545454545,-0.01531479005303281
-0.0006426354545454546,-0.01472234601345078
-0.0006425954545454546,-0.01482108668671445
-0.0006425554545454546,-0.01541353072629648
-0.0006425154545454546,-0.01541353072629648
-0.0006424754545454545,-0.01626928322791478
-0.0006424354545454546,-0.01617054255465129
-0.0006423954545454546,-0.01511730870650547
-0.0006423554545454546,-0.01590723409261484
-0.0006423154545454546,-0.01653259168995028
-0.0006422754545454545,-0.01679590015198662
-0.0006422354545454546,-0.01610471543914218
-0.0006421954545454546,-0.01699338149851522
-0.0006421554545454546,-0.01775039332687003
-0.0006421154545454546,-0.01633511034342666
-0.0006420754545454545,-0.01699338149851576
-0.0006420354545454546,-0.01728960351830624
-0.0006419954545454546,-0.01913276275256143
-0.0006419554545454546,-0.01998851525417992
-0.0006419154545454546,-0.02150253891088955
-0.0006418754545454545,-0.0211404897755905
-0.0006418354545454545,-0.02173293381517144
-0.0006417954545454546,-0.01913276275256143
-0.0006417554545454546,-0.01975812034989802
-0.0006417154545454546,-0.01877071361726131
-0.0006416754545454546,-0.01603888832363803
-0.0006416354545454545,-0.01676298659423117
-0.0006415954545454546,-0.01557809851506927
-0.0006415554545454546,-0.01462360534018711
-0.0006415154545454546,-0.01564392563057838
-0.0006414754545454546,-0.01343871726102707
-0.0006414354545454545,-0.01281335966369299
-0.0006413954545454546,-0.01640093745893319
-0.0006413554545454546,-0.01663133236321509
-0.0006413154545454546,-0.01916567631031599
-0.0006412754545454546,-0.01696046794076467
-0.0006412354545454545,-0.01686172726749969
-0.0006411954545454546,-0.01834283736645206
-0.0006411554545454546,-0.01817826957767928
-0.0006411154545454546,-0.01544644428405104
-0.0006410754545454546,-0.01600597476587851
-0.0006410354545454545,-0.01728960351830342
-0.0006409954545454546,-0.01574266630384205
-0.0006409554545454546,-0.01656550524770598
-0.0006409154545454546,-0.01636802390117864
-0.0006408754545454546,-0.01544644428405104
-0.0006408354545454546,-0.01633511034342246
-0.0006407954545454545,-0.01271461899042238
-0.0006407554545454546,-0.0124842240861409
-0.0006407154545454546,-0.0117930393732952
-0.0006406754545454546,-0.01278044610593191
-0.0006406354545454546,-0.01327414947224937
-0.0006405954545454545,-0.01251713764389821
-0.0006405554545454546,-0.01403116130060508
-0.0006405154545454546,-0.01314249524123204
-0.0006404754545454546,-0.0143273833203961
-0.0006404354545454546,-0.01488691380222255
-0.0006403954545454545,-0.01455777822468015
-0.0006403554545454546,-0.01574266630384205
-0.0006403154545454546,-0.01748708486483358
-0.0006402754545454546,-0.01663133236321509
-0.0006402354545454546,-0.01906693563704789
-0.0006401954545454545,-0.01886945429052647
-0.0006401554545454546,-0.0196922932343889
-0.0006401154545454546,-0.02021891015846182
-0.0006400754545454546,-0.01719086284504256
-0.0006400354545454546,-0.01988977458091625
-0.0006399954545454546,-0.02229246429699454
-0.0006399554545454545,-0.02064678640927106
-0.0006399154545454546,-0.01965937967663435
-0.0006398754545454546,-0.01909984919480688
-0.0006398354545454546,-0.01811244246217016
-0.0006397954545454546,-0.01863905938624212
-0.0006397554545454545,-0.0179807882311487
-0.0006397154545454546,-0.01620345611240585
-0.0006396754545454546,-0.01547935784180559
-0.0006396354545454546,-0.01590723409261484
-0.0006395954545454546,-0.01531479005303389
-0.0006395554545454545,-0.0151173087065017
-0.0006395154545454546,-0.01304375456796837
-0.0006394754545454546,-0.0131754087989866
-0.0006394354545454546,-0.01357037149204128
-0.0006393954545454546,-0.01409698841611324
-0.0006393554545454545,-0.01498565447548544
-0.0006393154545454546,-0.01399824774285052
-0.0006392754545454546,-0.01587432053486028
-0.0006392354545454546,-0.01511730870650547
-0.0006391954545454546,-0.01485400024446901
-0.0006391554545454546,-0.0185074051552182
-0.0006391154545454545,-0.01567683918833294
-0.0006390754545454546,-0.01570975274608749
-0.0006390354545454546,-0.01844157803971573
-0.0006389954545454546,-0.01728960351830624
-0.0006389554545454546,-0.02170002025740887
-0.0006389154545454545,-0.008304202251337709
-0.0006388754545454546,-0.02235829141250803
-0.0006388354545454546,-0.01396533418509597
-0.0006387954545454546,-0.004815365129329092
-0.0006387554545454546,-0.03542497384101152
-0.0006387154545454545,-0.008435856482346299
-0.0006386754545454546,-0.01719086284504256
-0.0006386354545454546,-0.01468943245569622
-0.0006385954545454546,-0.0115626444690133
-0.0006385554545454546,-0.01824409669317624
-0.0006385154545454545,-0.01702629505626882
-0.0006384754545454546,-0.01649967813219686
-0.0006384354545454546,-0.01653259168995142
-0.0006383954545454546,-0.0136361986075504
-0.0006383554545454546,-0.01830992380869751
-0.0006383154545454545,-0.01771747976911237
-0.0006382754545454545,-0.01600597476587851
-0.0006382354545454546,-0.01715794928728801
-0.0006381954545454546,-0.01528187649527825
-0.0006381554545454546,-0.01587432053486028
-0.0006381154545454546,-0.0168288137097407
-0.0006380754545454545,-0.01794787467339492
-0.0006380354545454546,-0.01659841880546054
-0.0006379954545454546,-0.01801370178890649
-0.0006379554545454546,-0.01696046794076066
-0.0006379154545454546,-0.01745417130707812
-0.0006378754545454545,-0.01712503572953303
-0.0006378354545454546,-0.01689464082525155
-0.0006377954545454546,-0.01801370178890649
-0.0006377554545454546,-0.01860614582848852
-0.0006377154545454546,-0.01755291198034461
-0.0006376754545454545,-0.01821118313543258
-0.0006376354545454546,-0.01751999842258814
-0.0006375954545454546,-0.01669715947872421
