Analysis/New Tests_CMB/wrd01_d2s01/cmb02_ch27.csv

#Digilent WaveForms Oscilloscope Acquisition
#Device Name: ADP3450
#Serial Number: SN:210018B9D9B0
#Date Time: 2024-08-06 12:47:23.586.773.860
#Sample rate: 2.94118e+06Hz
#Samples: 32768
#Trigger: Source: Channel 3 Type: Edge Condition: Rising Level: 20 mV Hyst.: Auto HoldOff: 0 s
#Channel 3: Range: 200 mV/div Offset: 0 V Attenuation: 1 X Coupling: DC Bandwidth: 0 Hz Sample Mode: Average

Time (s),Channel 3 (V)
-0.005570344666666667,0.02293076405776255
-0.005570004666666666,0.02141674040105256
-0.005569664666666667,0.02121925905452558
-0.005569324666666667,0.02108760482350735
-0.005568984666666666,0.02158130818982631
-0.005568644666666667,0.02191044376737128
-0.005568304666666667,0.02184461665186217
-0.005567964666666666,0.02033059299514888
-0.005567624666666666,0.01832286597212456
-0.005567284666666667,0.01638096606460569
-0.005566944666666666,0.01476820173463083
-0.005566604666666666,0.0139124492330139
-0.005566264666666667,0.01348457298220466
-0.005565924666666666,0.01374788144424195
-0.005565584666666666,0.01420867125280492
-0.005565244666666667,0.0146036339458596
-0.005564904666666666,0.01394536279076684
-0.005564564666666666,0.01305669673139542
-0.005564224666666667,0.01226677134528605
-0.005563884666666666,0.01098314259285706
-0.005563544666666666,0.01029195788001262
-0.005563204666666667,0.009172896916357679
-0.005562864666666667,0.009929908744711115
-0.005562524666666666,0.01029195788001262
-0.005562184666666667,0.01147684595917668
-0.005561844666666667,0.01147684595917668
-0.005561504666666666,0.0120692899987587
-0.005561164666666667,0.0118388950944768
-0.005560824666666667,0.01160850019019532
-0.005560484666666666,0.01052235278429452
-0.005560144666666667,0.009765340955939707
-0.005559804666666667,0.008745020665550293
-0.005559464666666666,0.007955095279439066
-0.005559124666666667,0.00811966306821185
-0.005558784666666667,0.008712107107792803
-0.005558444666666666,0.009436205378394135
-0.005558104666666667,0.009995735860221606
-0.005557764666666667,0.01042361211103007
-0.005557424666666666,0.01052235278429452
-0.005557084666666667,0.01071983413082186
-0.005556744666666667,0.01068692057306737
-0.005556404666666666,0.01009447653348528
-0.005556064666666667,0.009403291820639578
-0.005555724666666667,0.008613366434531644
-0.005555384666666666,0.008481712203511979
-0.005555044666666667,0.00871210710779388
-0.005554704666666667,0.009666600282674298
-0.005554364666666666,0.009896995186957936
-0.005554024666666667,0.009469118936148692
-0.005553684666666667,0.008876674896566664
-0.005553344666666666,0.00811966306821185
-0.005553004666666667,0.005914454698656525
-0.005552664666666667,0.005256183543565383
-0.005552324666666666,0.004301690368683227
-0.005551984666666667,0.003906727675628541
-0.005551644666666667,0.003281370078291956
-0.005551304666666666,0.003544678540330149
-0.005550964666666667,0.004499171715210569
-0.005550624666666667,0.005651146236620068
-0.005550284666666666,0.006770207200277045
-0.005549944666666667,0.007889268163929951
-0.005549604666666667,0.008514625761266537
-0.005549264666666666,0.009436205378394973
-0.005548924666666667,0.009896995186957936
-0.005548584666666667,0.01012739009123984
-0.005548244666666666,0.009666600282676574
-0.005547904666666667,0.009962822302467049
-0.005547564666666667,0.01006156297573072
-0.005547224666666666,0.00973242739818491
-0.005546884666666667,0.009600773167166921
-0.005546544666666667,0.009436205378394135
-0.005546204666666666,0.008646279992283627
-0.005545864666666666,0.00802092239494818
-0.005545524666666667,0.007461391913120709
-0.005545184666666666,0.00653981229599299
-0.005544844666666666,0.006473985180483996
-0.005544504666666667,0.005716973352129182
-0.005544164666666666,0.005716973352128703
-0.005543824666666666,0.005453664890092726
-0.005543484666666667,0.004729566619492469
-0.005543144666666666,0.004005468348890895
-0.005542804666666666,0.003281370078291956
-0.005542464666666667,0.002359790461164357
-0.005542124666666667,0.002228136230146368
-0.005541784666666666,0.002293963345655243
-0.005541444666666667,0.002754753154219042
-0.005541104666666667,0.003314283636045496
-0.005540764666666666,0.003939641233383098
-0.005540424666666667,0.00403838190664677
-0.005540084666666667,0.004235863253173753
-0.005539744666666666,0.00482830729275614
-0.005539404666666667,0.005947368256411082
-0.005539064666666667,0.006177763160692563
-0.005538724666666666,0.006210676718447538
-0.005538384666666667,0.006836034315784124
-0.005538044666666667,0.006638552969257141
-0.005537704666666666,0.006441071622729439
-0.005537364666666667,0.00630941739171121
-0.005537024666666667,0.005848627583148249
-0.005536684666666666,0.005980281814165639
-0.005536344666666667,0.006177763160692982
-0.005536004666666667,0.006836034315782927
-0.005535664666666666,0.006803120758029567
-0.005535324666666667,0.006177763160692982
-0.005534984666666667,0.005223269985812562
-0.005534644666666666,0.004202949695419555
-0.005534304666666667,0.003840900560119427
-0.005533964666666667,0.003742159886855936
-0.005533624666666666,0.003347197193801071
-0.005533284666666667,0.003413024309310185
-0.005532944666666667,0.003314283636046514
-0.005532604666666666,0.002886407385237271
-0.005532264666666667,0.0025572718076917
-0.005531924666666667,0.002853493827482714
-0.005531584666666666,0.003083888731764614
-0.005531244666666667,0.004202949695419555
-0.005530904666666667,0.004235863253174112
-0.005530564666666666,0.00403838190664677
-0.005530224666666667,0.00357759209808297
-0.005529884666666667,0.003083888731764614
-0.005529544666666666,0.002524358249936245
-0.005529204666666667,0.002030654883618786
-0.005528864666666667,0.001734432863827772
-0.005528524666666666,0.00163569219056446
-0.005528184666666667,0.001833173537091444
-0.005527844666666667,0.002623098923200814
-0.005527504666666666,0.003314283636050405
-0.005527164666666667,0.005453664890092726
-0.005526824666666667,0.006111936045183867
-0.005526484666666666,0.006836034315784543
-0.005526144666666667,0.007066429220066024
-0.005525804666666667,0.006901861431293239
-0.005525464666666666,0.006572725853747727
-0.005525124666666666,0.006605639411502225
-0.005524784666666667,0.006506898738238553
-0.005524444666666666,0.006737293642520991
-0.005524104666666666,0.007033515662311467
-0.005523764666666667,0.007922181721684508
-0.005523424666666666,0.008613366434529429
-0.005523084666666666,0.008185490183720966
-0.005522744666666667,0.007823441048420837
-0.005522404666666666,0.007000602104555652
-0.005522064666666666,0.00630941739171121
-0.005521724666666667,0.005716973352129182
-0.005521384666666666,0.005289097101319401
-0.005521044666666666,0.004992875081528926
-0.005520704666666667,0.004466258157456012
-0.005520364666666667,0.004466258157456012
-0.005520024666666666,0.004663739503983355
-0.005519684666666667,0.00482830729275614
-0.005519344666666667,0.004894134408265135
-0.005519004666666666,0.005091615754792597
-0.005518664666666667,0.005354924216829054
-0.005518324666666667,0.006177763160691485
-0.005517984666666666,0.00700060210455691
-0.005517644666666667,0.006704380084765896
-0.005517304666666667,0.006704380084765896
-0.005516964666666666,0.007362651239857037
-0.005516624666666667,0.007395564797611595
-0.005516284666666667,0.006901861431294136
-0.005515944666666666,0.00630941739171121
-0.005515604666666667,0.005848627583147411
-0.005515264666666667,0.005848627583147411
-0.005514924666666666,0.004334603926437783
-0.005514584666666667,0.004334603926437783
-0.005514244666666667,0.004597912388473762
-0.005513904666666666,0.005091615754792597
-0.005513564666666667,0.006013195371920196
-0.005513224666666667,0.007000602104555114
-0.005512884666666666,0.007823441048420837
-0.005512544666666667,0.008448798645757422
-0.005512204666666667,0.008679193550039321
-0.005511864666666666,0.008679193550039321
-0.005511524666666667,0.008053835952702737
-0.005511184666666667,0.007724700375157166
-0.005510844666666666,0.007165169893329695
-0.005510504666666667,0.007099342777820581
-0.005510164666666667,0.006934774989047795
-0.005509824666666666,0.007461391913120709
-0.005509484666666667,0.007494305470875266
-0.005509144666666667,0.007165169893329695
-0.005508804666666666,0.007198083451084133
-0.005508464666666667,0.007132256335575138
-0.005508124666666667,0.006506898738238553
-0.005507784666666666,0.00657272585374623
-0.005507444666666667,0.005782800467638296
-0.005507104666666667,0.004466258157456012
-0.005506764666666666,0.003478851424818281
-0.005506424666666667,0.002919320942991828
-0.005506084666666667,0.002524358249937143
-0.005505744666666666,0.002919320942991409
-0.005505404666666667,0.002688926038709928
-0.005505064666666667,0.0030180616162555
-0.005504724666666666,0.00377507344461169
-0.005504384666666667,0.004532085272965126
-0.005504044666666667,0.005322010659074497
-0.005503704666666666,0.005782800467638596
-0.005503364666666666,0.005947368256411082
-0.005503024666666667,0.005980281814165639
-0.005502684666666666,0.005256183543563287
-0.005502344666666666,0.004104209022155884
-0.005502004666666667,0.004005468348892213
-0.005501664666666666,0.003906727675629319
-0.005501324666666666,0.004334603926437783
-0.005500984666666667,0.004663739503983355
-0.005500644666666666,0.004466258157456491
-0.005500304666666666,0.004729566619492469
-0.005499964666666667,0.00426877681092867
-0.005499624666666667,0.004828307292755123
-0.005499284666666666,0.004894134408265255
-0.005498944666666667,0.006210676718447538
-0.005498604666666667,0.006836034315782986
-0.005498264666666666,0.007889268163929951
-0.005497924666666667,0.00811966306821185
-0.005497584666666667,0.008053835952702856
-0.005497244666666666,0.00756013258638438
-0.005496904666666667,0.006572725853747667
-0.005496564666666667,0.006046108929675711
-0.005496224666666666,0.004992875081528926
-0.005495884666666667,0.004696653061737912
-0.005495544666666667,0.004762480177246907
-0.005495204666666666,0.005223269985810825
-0.005494864666666667,0.005684059794374625
-0.005494524666666667,0.005881541140901609
-0.005494184666666666,0.005947368256411082
-0.005493844666666667,0.005519492005601839
-0.005493504666666667,0.004861220850511895
-0.005493164666666666,0.003775073444610313
-0.005492824666666667,0.003347197193801071
-0.005492484666666667,0.003149715847274087
-0.005492144666666666,0.003643419213592085
-0.005491804666666667,0.004367517484192341
-0.005491464666666667,0.005124529312545777
-0.005491124666666666,0.005322010659074497
-0.005490784666666667,0.005354924216829054
-0.005490444666666667,0.005420751332338168
-0.005490104666666666,0.005223269985810825
-0.005489764666666667,0.004729566619492469
-0.005489424666666667,0.005420751332338168
-0.005489084666666666,0.005354924216829054
-0.005488744666666667,0.005223269985810825
-0.005488404666666667,0.005354924216829054
-0.005488064666666666,0.005519492005601959
-0.005487724666666667,0.005585319121110954
-0.005487384666666667,0.005716973352129182
-0.005487044666666666,0.006046108929674394
-0.005486704666666667,0.005848627583147411
-0.005486364666666667,0.006144849602938425
-0.005486024666666666,0.006177763160692862
-0.005485684666666667,0.006111936045183867
-0.005485344666666667,0.006605639411502225
-0.005485004666666666,0.0073626512398559
-0.005484664666666667,0.006737293642520453
-0.005484324666666667,0.00653981229599311
-0.005483984666666666,0.006144849602937107
-0.005483644666666667,0.005420751332338168
-0.005483304666666667,0.00528909710131994
-0.005482964666666666,0.004663739503982577
-0.005482624666666666,0.004235863253174112
-0.005482284666666667,0.003742159886855756
-0.005481944666666666,0.003413024309310544
-0.005481604666666666,0.003610505655837527
-0.005481264666666667,0.004532085272965126
-0.005480924666666666,0.005914454698657721
-0.005480584666666666,0.006572725853747667
-0.005480244666666667,0.006671466527011338
-0.005479904666666666,0.006473985180482199
-0.005479564666666666,0.005486578447847282
-0.005479224666666667,0.004795393735001583
-0.005478884666666667,0.003281370078294711
-0.005478544666666666,-0.0005036890634821109
-0.005478204666666667,-0.01004862081230367
-0.005477864666666667,-0.0251888573793724
-0.005477524666666666,-0.04773464444127156
-0.005477184666666667,-0.07646818036099992
-0.005476844666666667,-0.1081968500363353
-0.005476504666666666,-0.1412749755797229
-0.005476164666666667,-0.1711604860208607
-0.005475824666666667,-0.1957798272212247
-0.005475484666666666,-0.2146722093723852
-0.005475144666666667,-0.2272122748768715
-0.005474804666666667,-0.2340582948898069
-0.005474464666666666,-0.2368230337412021
-0.005474124666666667,-0.2354077507577562
-0.005473784666666667,-0.232346789886588
-0.005473444666666666,-0.2274097562233988
-0.005473104666666667,-0.2213207480388057
-0.005472764666666667,-0.2146392958146428
-0.005472424666666666,-0.2075299673396463
-0.005472084666666667,-0.2001573304026255
-0.005471744666666667,-0.1927517799078636
-0.005471404666666666,-0.1855437107596022
-0.005471064666666667,-0.1785660365156361
-0.005470724666666667,-0.173201126601653
-0.005470384666666666,-0.1668817235127683
-0.005470044666666667,-0.1614839000410209
-0.005469704666666667,-0.156053163011519
-0.005469364666666666,-0.1504578581932443
-0.005469024666666667,-0.1450271211637424
-0.005468684666666667,-0.1400571739428043
-0.005468344666666666,-0.1348239182598297
-0.005468004666666667,-0.1300843659431734
-0.005467664666666667,-0.124094098431844
-0.005467324666666666,-0.1195191139039606
-0.005466984666666667,-0.1151416107226045
-0.005466644666666667,-0.1101716635016664
-0.005466304666666666,-0.1058599874358135
-0.005465964666666667,-0.1026015452181183
-0.005465624666666667,-0.09842152338328949
-0.005465284666666666,-0.09410984731743628
-0.005464944666666667,-0.09068683731096858
-0.005464604666666667,-0.08756004932428565
-0.005464264666666666,-0.08390664441352341
-0.005463924666666667,-0.08038489373379221
-0.005463584666666667,-0.07785054978669131
-0.005463244666666666,-0.07571116853264084
-0.005462904666666667,-0.07337430593207156
-0.005462564666666667,-0.07133366535128902
-0.005462224666666666,-0.06916137053948332
-0.005461884666666666,-0.06646245880361457
-0.005461544666666667,-0.06369771995223175
-0.005461204666666666,-0.06043927773452563
-0.005460864666666666,-0.05770745244090236
-0.005460524666666667,-0.05471231868523767
-0.005460184666666666,-0.05151970358304066
-0.005459844666666666,-0.04878787828941739
-0.005459504666666667,-0.04648392924659839
-0.005459164666666666,-0.04385084462622945
-0.005458824666666666,-0.04144815491015115
-0.005458484666666667,-0.03897963807855937
-0.005458144666666666,-0.03690608394001994
-0.005457804666666666,-0.03562245518759454
-0.005457464666666667,-0.03463504845495783
-0.005457124666666667,-0.03387803662660439
-0.005456784666666666,-0.03279188922070263
-0.005456444666666667,-0.03154117402602946
-0.005456104666666667,-0.03042211306237656
-0.005455764666666666,-0.02930305209871958
-0.005455424666666667,-0.02801942334629185
-0.005455084666666667,-0.02686744882488445
-0.005454744666666666,-0.02541925228368184
-0.005454404666666667,-0.02413562353125412
-0.005454064666666667,-0.02321404391412819
-0.005453724666666666,-0.02232537785475347
-0.005453384666666667,-0.02133797112211676
-0.005453044666666667,-0.02031765083172735
-0.005452704666666666,-0.01933024409908878
-0.005452364666666667,-0.01751999842258814
-0.005452024666666667,-0.01610471543914475
-0.005451684666666666,-0.01534770361078737
-0.005451344666666667,-0.01485400024446901
-0.005451004666666667,-0.01422864264713356
-0.005450664666666666,-0.01393242062734141
-0.005450324666666667,-0.01370202572305951
-0.005449984666666667,-0.01324123591449655
-0.005449644666666666,-0.01297792745245925
-0.005449304666666667,-0.01281335966368647
-0.005448964666666667,-0.01255005120165049
-0.005448624666666666,-0.01199052071982254
-0.005448284666666667,-0.01044358350535836
-0.005447944666666667,-0.008830819175385059
-0.005447604666666666,-0.007514276865202775
-0.005447264666666667,-0.006131907439511376
-0.005446924666666667,-0.005769858304211248
-0.005446584666666666,-0.005473636284420234
-0.005446244666666667,-0.005012846475856435
-0.005445904666666667,-0.00438748887851985
-0.005445564666666666,-0.004321661763011334
-0.005445224666666667,-0.004650797340556306
-0.005444884666666667,-0.004552056667292635
-0.005444544666666666,-0.004552056667292874
-0.005444204666666667,-0.004683710898310864
-0.005443864666666667,-0.004124180416483393
-0.005443524666666666,-0.003465909261390455
-0.005443184666666667,-0.002478502528755537
-0.005442844666666667,-0.002017712720191738
-0.005442504666666666,-0.001458182238362531
-0.005442164666666667,-0.0005036890634821109
-0.005441824666666667,-0.0001087263704274257
-0.005441484666666666,0.0001874956493636481
-0.005441144666666667,0.0002204092071181454
-0.005440804666666667,-0.0003062077169547683
-0.005440464666666666,-0.001063219545311138
-0.005440124666666666,-0.001918972046928067
-0.005439784666666667,-0.002281021182228195
-0.005439444666666666,-0.001655663584890113
-0.005439104666666666,-0.000832824641027682
-0.005438764666666667,-0.000207467043691097
-0.005438424666666666,-0.0004378619479734159
-0.005438084666666666,-0.0006682568522548965
-0.005437744666666667,-0.001063219545309582
-0.005437404666666666,-0.001326528007346458
-0.005437064666666666,-0.001556922911627938
-0.005436724666666667,-0.0007011704100094536
-0.005436384666666667,-4.289925491950889e-05
-0.005436044666666666,0.0004508041114000451
-0.005435704666666667,0.0008786803622092876
-0.005435364666666667,0.001372383728526746
-0.005435024666666666,0.00176734642158233
-0.005434684666666667,0.00176734642158233
-0.005434344666666667,0.002293963345654285
-0.005434004666666666,0.002491444692182586
-0.005433664666666667,0.003380110751555628
-0.005433324666666667,0.003676332771346102
-0.005432984666666666,0.004499171715210569
-0.005432644666666667,0.005519492005601839
-0.005432304666666667,0.005716973352128823
-0.005431964666666666,0.005881541140901968
-0.005431624666666667,0.006046108929674754
-0.005431284666666667,0.005980281814165759
-0.005430944666666666,0.006013195371920196
-0.005430604666666667,0.005552405563356397
-0.005430264666666667,0.00538783777458391
-0.005429924666666666,0.004861220850510698
-0.005429584666666667,0.004137122579910441
-0.005429244666666667,0.003182629405030021
-0.005428904666666666,0.002688926038709928
-0.005428564666666667,0.002162309114637015
-0.005428224666666667,0.001734432863828551
-0.005427884666666666,0.001471124401791315
-0.005427544666666667,0.0009445074777184018
-0.005427204666666667,0.001504037959545873
-0.005426864666666666,0.001931914210355115
-0.005426524666666667,0.003149715847273728
-0.005426184666666667,0.003906727675628541
-0.005425844666666666,0.00505870219703804
-0.005425504666666667,0.005947368256411082
-0.005425164666666667,0.006934774989047795
-0.005424824666666666,0.00756013258638438
-0.005424484666666667,0.007823441048420837
-0.005424144666666667,0.007724700375157166
-0.005423804666666666,0.007757613932909807
-0.005423464666666667,0.006704380084765896
-0.005423124666666667,0.006276503833956653
-0.005422784666666666,0.005914454698657063
-0.005422444666666667,0.006210676718447538
-0.005422104666666667,0.006638552969256781
-0.005421764666666666,0.007000602104556491
-0.005421424666666667,0.00677020720027501
-0.005421084666666667,0.006868947873538681
-0.005420744666666666,0.006868947873539339
-0.005420404666666667,0.007230997008838809
-0.005420064666666667,0.007757613932911723
-0.005419724666666666,0.008185490183720846
-0.005419384666666666,0.00811966306821185
-0.005419044666666667,0.007922181721684508
-0.005418704666666666,0.007296824124345649
-0.005418364666666666,0.006046108929674754
-0.005418024666666667,0.00482830729275614
-0.005417684666666666,0.004301690368682748
-0.005417344666666666,0.00403838190664677
-0.005417004666666667,0.00380798700236487
-0.005416664666666666,0.003149715847274506
-0.005416324666666666,0.00357759209808297
-0.005415984666666667,0.004104209022155884
-0.005415644666666666,0.004696653061739529
-0.005415304666666666,0.005585319121110954
