Analysis/New Tests_CMB/wrd01_d2s01/cmb03_ch29.csv

#Digilent WaveForms Oscilloscope Acquisition
#Device Name: ADP3450
#Serial Number: SN:210018B9D9B0
#Date Time: 2024-08-06 10:39:36.176.076.350
#Sample rate: 2.94118e+06Hz
#Samples: 32768
#Trigger: Source: Channel 3 Type: Edge Condition: Rising Level: 20 mV Hyst.: Auto HoldOff: 0 s
#Channel 3: Range: 200 mV/div Offset: 0 V Attenuation: 1 X Coupling: DC Bandwidth: 0 Hz Sample Mode: Average

Time (s),Channel 3 (V)
-0.005570252827586207,0.02375360300162648
-0.005569912827586207,0.02441187415671732
-0.005569572827586207,0.02424730636794483
-0.005569232827586207,0.02431313348345395
-0.005568892827586207,0.02385234367489033
-0.005568552827586207,0.02395108434815382
-0.005568212827586207,0.02368777588611736
-0.005567872827586207,0.02316115896204277
-0.005567532827586207,0.02223957934491685
-0.005567192827586207,0.02098886415024368
-0.005566852827586207,0.02000145741760553
-0.005566512827586207,0.0192115320314976
-0.005566172827586207,0.01848743376089734
-0.005565832827586207,0.01792790327906957
-0.005565492827586207,0.01776333549029708
-0.005565152827586207,0.01766459481703341
-0.005564812827586207,0.01733545923948736
-0.005564472827586207,0.01707215077745139
-0.005564132827586207,0.0169075829886786
-0.005563792827586207,0.01710506433520702
-0.005563452827586207,0.01769750837478797
-0.005563112827586207,0.01819121174110632
-0.005562772827586208,0.01881656933844177
-0.005562432827586207,0.01934318626251582
-0.005562092827586207,0.01845452020314278
-0.005561752827586208,0.01858617443416077
-0.005561412827586207,0.01835577952987911
-0.005561072827586207,0.01815829818335177
-0.005560732827586208,0.01763168125927981
-0.005560392827586207,0.01707215077745139
-0.005560052827586207,0.01661136096888758
-0.005559712827586208,0.01582143558277965
-0.005559372827586207,0.01509733731217796
-0.005559032827586207,0.01443906615708682
-0.005558692827586208,0.01387953567526036
-0.005558352827586207,0.01341874586669555
-0.005558012827586207,0.01312252384690453
-0.005557672827586208,0.01295795605813205
-0.005557332827586207,0.01279338826935896
-0.005556992827586207,0.01269464759609529
-0.005556652827586207,0.0125629933650773
-0.005556312827586207,0.01266173403834073
-0.005555972827586207,0.01305669673139542
-0.005555632827586207,0.01341874586669489
-0.005555292827586207,0.01328709163567732
-0.005554952827586207,0.0134516594244501
-0.005554612827586207,0.01325417807792312
-0.005554272827586207,0.01328709163567732
-0.005553932827586207,0.01295795605813175
-0.005553592827586207,0.0118388950944768
-0.005553252827586207,0.01134519172815845
-0.005552912827586207,0.01111479682387655
-0.005552572827586207,0.01085148836184009
-0.005552232827586207,0.01045652566878541
-0.005551892827586207,0.01058817989980363
-0.005551552827586207,0.01088440191959465
-0.005551212827586207,0.01164141374795126
-0.005550872827586207,0.01262882048058617
-0.005550532827586207,0.01318835096241365
-0.005550192827586207,0.01401118990627883
-0.005549852827586207,0.01470237461912327
-0.005549512827586207,0.01440615259933226
-0.005549172827586207,0.01417575769504922
-0.005548832827586207,0.01355040009771377
-0.005548492827586207,0.01262882048058617
-0.005548152827586207,0.01157558663243807
-0.005547812827586207,0.01032487143776718
-0.005547472827586207,0.008580452876775651
-0.005547132827586207,0.007230997008837612
-0.005546792827586207,0.006572725853747667
-0.005546452827586207,0.006046108929674754
-0.005546112827586207,0.005782800467638715
-0.005545772827586207,0.006013195371920196
-0.005545432827586207,0.006243590276202096
-0.005545092827586207,0.007033515662313383
-0.005544752827586207,0.008086749510457293
-0.005544412827586207,0.008942502012075779
-0.005544072827586207,0.009732427398187126
-0.005543732827586207,0.01081857480408553
-0.005543392827586207,0.01121353749714022
-0.005543052827586207,0.01127936461264886
-0.005542712827586207,0.01101605615061288
-0.005542372827586207,0.01068692057306731
-0.005542032827586208,0.01019321720674985
-0.005541692827586207,0.009600773167166921
-0.005541352827586207,0.008909588454321223
-0.005541012827586208,0.00831714441474027
-0.005540672827586207,0.008152576625966409
-0.005540332827586207,0.007922181721684508
-0.005539992827586208,0.007625959701894033
-0.005539652827586207,0.007625959701893495
-0.005539312827586207,0.008086749510457293
-0.005538972827586208,0.008777934223301736
-0.005538632827586207,0.009205810474112236
-0.005538292827586207,0.008942502012075779
-0.005537952827586208,0.009041242685339269
-0.005537612827586207,0.008975415569830336
-0.005537272827586207,0.008777934223302994
-0.005536932827586208,0.008679193550039502
-0.005536592827586207,0.009337464705130465
-0.005536252827586207,0.009337464705130465
-0.005535912827586208,0.009436205378393955
-0.005535572827586207,0.009633686724921478
-0.005535232827586207,0.00983116807144882
-0.005534892827586207,0.00983116807144882
-0.005534552827586207,0.009995735860221606
-0.005534212827586207,0.01035778499552173
-0.005533872827586207,0.0107198341308212
-0.005533532827586207,0.01062109345755819
-0.005533192827586207,0.009929908744712493
-0.005532852827586207,0.00983116807144882
-0.005532512827586207,0.009534946051657807
-0.005532172827586207,0.00904124268533945
-0.005531832827586207,0.008481712203511979
-0.005531492827586207,0.007922181721684508
-0.005531152827586207,0.007494305470875266
-0.005530812827586207,0.00700060210455691
-0.005530472827586207,0.006473985180483996
-0.005530132827586207,0.007132256335575138
-0.005529792827586207,0.007889268163929951
-0.005529452827586207,0.008942502012078473
-0.005529112827586207,0.01042361211103085
-0.005528772827586207,0.01085148836184009
-0.005528432827586207,0.01197054932549521
-0.005528092827586207,0.0120692899987587
-0.005527752827586207,0.01131227817040389
-0.005527412827586207,0.01101605615061066
-0.005527072827586207,0.009798254513694264
-0.005526732827586207,0.009469118936148692
-0.005526392827586207,0.008942502012075181
-0.005526052827586207,0.008613366434530208
-0.005525712827586207,0.008646279992284765
-0.005525372827586207,0.008679193550039441
-0.005525032827586207,0.008745020665548437
-0.005524692827586207,0.009008329127584893
-0.005524352827586207,0.009502032493903311
-0.005524012827586207,0.009534946051657807
-0.005523672827586207,0.009436205378394135
-0.005523332827586207,0.009929908744714468
-0.005522992827586207,0.01101605615061288
-0.005522652827586207,0.0122996849030406
-0.005522312827586207,0.01355040009771515
-0.005521972827586207,0.01430741192606859
-0.005521632827586207,0.0139124492330139
-0.005521292827586207,0.01315543740465592
-0.005520952827586207,0.01141101884366756
-0.005520612827586207,0.009798254513694264
-0.005520272827586208,0.00782344104842443
-0.005519932827586207,0.005815714025392853
-0.005519592827586207,0.004170036137664999
-0.005519252827586208,0.004663739503982457
-0.005518912827586207,0.005618232678865511
-0.005518572827586207,0.006934774989047795
-0.005518232827586208,0.007691786817401232
-0.005517892827586207,0.008350057972493751
-0.005517552827586207,0.008975415569830336
-0.005517212827586208,0.009074156243093826
-0.005516872827586207,0.008086749510457293
-0.005516532827586207,0.007296824124347924
-0.005516192827586208,0.007165169893329934
-0.005515852827586207,0.006671466527011338
-0.005515512827586207,0.006704380084765896
-0.005515172827586208,0.007230997008837852
-0.005514832827586207,0.007165169893329695
-0.005514492827586207,0.007296824124347924
-0.005514152827586207,0.008020922394946863
-0.005513812827586207,0.008942502012075779
-0.005513472827586207,0.01009447653348528
-0.005513132827586207,0.0110818832661202
-0.005512792827586207,0.01180598153672225
-0.005512452827586207,0.01197054932549503
-0.005512112827586207,0.01078566124633098
-0.005511772827586207,0.009864081629203377
-0.005511432827586207,0.007988008837193623
-0.005511092827586207,0.006144849602938425
-0.005510752827586207,0.004630825946228797
-0.005510412827586207,0.004170036137664999
-0.005510072827586207,0.00426877681092867
-0.005509732827586207,0.004894134408265255
-0.005509392827586207,0.00653981229599311
-0.005509052827586207,0.008152576625966409
-0.005508712827586207,0.009502032493905885
-0.005508372827586207,0.01095022903510376
-0.005508032827586207,0.011378105285913
-0.005507692827586207,0.01157558663243987
-0.005507352827586207,0.01131227817040389
-0.005507012827586207,0.01147684595917668
-0.005506672827586207,0.01154267307468459
-0.005506332827586207,0.01088440191959465
-0.005505992827586207,0.01098314259285832
-0.005505652827586207,0.01078566124633128
-0.005505312827586207,0.01095022903510376
-0.005504972827586207,0.01065400701531275
-0.005504632827586207,0.009732427398184969
-0.005504292827586207,0.009633686724921478
-0.005503952827586207,0.009304551147375908
-0.005503612827586207,0.008975415569830456
-0.005503272827586207,0.00904124268533945
-0.005502932827586207,0.008679193550039321
-0.005502592827586207,0.00858045287677559
-0.005502252827586207,0.008547539319021094
-0.005501912827586207,0.00802092239494818
-0.005501572827586207,0.006934774989047676
-0.005501232827586207,0.006868947873538681
-0.005500892827586207,0.007033515662311467
-0.005500552827586207,0.006441071622730456
-0.005500212827586207,0.00700060210455691
-0.005499872827586207,0.00802092239494818
-0.005499532827586208,0.009271637589619075
-0.005499192827586207,0.009699513840430593
-0.005498852827586207,0.009896995186957936
-0.005498512827586208,0.009896995186957936
-0.005498172827586207,0.009337464705130465
-0.005497832827586207,0.008086749510457293
-0.005497492827586208,0.007362651239858355
-0.005497152827586207,0.007395564797611595
-0.005496812827586207,0.007066429220066024
-0.005496472827586208,0.007625959701892477
-0.005496132827586207,0.009008329127584893
-0.005495792827586207,0.009962822302467049
-0.005495452827586208,0.01141101884366493
-0.005495112827586207,0.01223385778753149
-0.005494772827586207,0.01249716624956795
-0.005494432827586208,0.01216803067202297
-0.005494092827586207,0.01144393240142212
-0.005493752827586207,0.01124645105489478
-0.005493412827586207,0.01081857480408631
-0.005493072827586207,0.01065400701531275
-0.005492732827586207,0.01048943922653996
-0.005492392827586207,0.01068692057306695
-0.005492052827586207,0.011378105285913
-0.005491712827586207,0.01174015442121313
-0.005491372827586207,0.01253007980732107
-0.005491032827586207,0.01308961028914997
-0.005490692827586207,0.01315543740465909
-0.005490352827586207,0.01279338826935896
-0.005490012827586207,0.01285921538486808
-0.005489672827586207,0.01150975951693123
-0.005489332827586207,0.01016030364899439
-0.005488992827586207,0.009172896916357679
-0.005488652827586207,0.008415885088002865
-0.005488312827586207,0.008284230856984636
-0.005487972827586207,0.008975415569831773
-0.005487632827586207,0.009765340955939707
-0.005487292827586207,0.01157558663244035
-0.005486952827586207,0.01318835096241418
-0.005486612827586207,0.01348457298220466
-0.005486272827586207,0.01292504250037719
-0.005485932827586207,0.01157558663243717
-0.005485592827586207,0.00983116807144882
-0.005485252827586207,0.008415885088002865
-0.005484912827586207,0.007724700375156208
-0.005484572827586207,0.007198083451084253
-0.005484232827586207,0.00677020720027501
-0.005483892827586207,0.006177763160692263
-0.005483552827586207,0.005782800467638296
-0.005483212827586207,0.005881541140901968
-0.005482872827586207,0.006342330949467324
-0.005482532827586207,0.007198083451084253
-0.005482192827586207,0.007922181721684508
-0.005481852827586207,0.00920581047411463
-0.005481512827586207,0.01052235278429452
-0.005481172827586207,0.01167432730570402
-0.005480832827586207,0.01223385778753137
-0.005480492827586207,0.01216803067202238
-0.005480152827586207,0.01164141374794946
-0.005479812827586207,0.01134519172815749
-0.005479472827586207,0.01081857480408553
-0.005479132827586207,0.01111479682387655
-0.005478792827586208,0.01078566124633158
-0.005478452827586207,0.009995735860221606
-0.005478112827586207,0.006046108929674754
-0.005477772827586208,-0.002906378779548496
-0.005477432827586207,-0.02058095929376194
-0.005477092827586207,-0.04559526318722535
-0.005476752827586208,-0.07669857526522524
-0.005476412827586207,-0.1110603295610394
-0.005476072827586207,-0.1448954669327241
-0.005475732827586208,-0.1754721620866521
-0.005475392827586207,-0.2003218981913983
-0.005475052827586207,-0.2191813667847596
-0.005474712827586208,-0.2325442712330854
-0.005474372827586207,-0.2402789573054306
-0.005474032827586207,-0.243372831734359
-0.005473692827586208,-0.243109523272323
-0.005473352827586207,-0.2396206861503395
-0.005473012827586207,-0.2348482202759287
-0.005472672827586208,-0.2290225205533827
-0.005472332827586207,-0.222341068329197
-0.005471992827586207,-0.2146722093723852
-0.005471652827586207,-0.2069375233000784
-0.005471312827586207,-0.1996636270363072
-0.005470972827586207,-0.1929492612543775
-0.005470632827586207,-0.1866627717232686
-0.005470292827586207,-0.1801129737301002
-0.005469952827586207,-0.1732669537171524
-0.005469612827586207,-0.1662563659154317
-0.005469272827586207,-0.1594103459024838
-0.005468932827586207,-0.1523668445430086
-0.005468592827586207,-0.1460474414541336
-0.005468252827586207,-0.1393001621144494
-0.005467912827586207,-0.1330794996988381
-0.005467572827586207,-0.1276816762270908
-0.005467232827586207,-0.1228104696794163
-0.005466892827586207,-0.1181038309205147
-0.005466552827586207,-0.1141212904322133
-0.005466212827586207,-0.1102045770594136
-0.005465872827586207,-0.106189123013365
-0.005465532827586207,-0.1025686316603637
-0.005465192827586207,-0.09878357251858221
-0.005464852827586207,-0.09470229135702454
-0.005464512827586207,-0.09078557798423226
-0.005464172827586207,-0.08667138326490495
-0.005463832827586207,-0.08245844787232931
-0.005463492827586207,-0.07860756161504612
-0.005463152827586207,-0.07492124314652975
-0.005462812827586207,-0.07162988737108003
-0.005462472827586207,-0.06817396380685153
-0.005462132827586207,-0.06524465716669139
-0.005461792827586207,-0.06274322677734961
-0.005461452827586207,-0.06014305571473959
-0.005461112827586207,-0.05793784734518032
-0.005460772827586207,-0.05576555253338349
-0.005460432827586207,-0.05425152887667387
-0.005460092827586207,-0.05247419675792509
-0.005459752827586207,-0.05099308665897272
-0.005459412827586207,-0.04934740877124486
-0.005459072827586207,-0.04720802751719523
-0.005458732827586207,-0.04533195472518889
-0.005458392827586207,-0.04345588193317913
-0.005458052827586207,-0.04174437692993875
-0.005457712827586207,-0.03986830413793241
-0.005457372827586207,-0.03825553980795911
-0.005457032827586208,-0.03660986192023425
-0.005456692827586207,-0.03539206028331265
-0.005456352827586207,-0.03397677729986669
-0.005456012827586208,-0.03226527229663283
-0.005455672827586207,-0.03038919950461997
-0.005455332827586207,-0.0284472995971011
-0.005454992827586208,-0.0260775234387773
-0.005454652827586207,-0.0245305862243088
-0.005454312827586207,-0.02374066083819943
-0.005453972827586208,-0.02219372362373806
-0.005453632827586207,-0.02189750160394423
-0.005453292827586207,-0.02196332871945334
-0.005452952827586208,-0.02193041516169885
-0.005452612827586207,-0.02189750160394423
-0.005452272827586207,-0.0219962422772079
-0.005451932827586208,-0.02173293381517192
-0.005451592827586207,-0.02160127958415322
-0.005451252827586207,-0.02064678640927106
-0.005450912827586207,-0.01886945429052821
-0.005450572827586207,-0.01682881370974244
-0.005450232827586207,-0.01515022226426002
-0.005449892827586207,-0.01274753254818172
-0.005449552827586207,-0.01103602754494038
-0.005449212827586207,-0.009587831003739873
-0.005448872827586207,-0.00820546157805099
-0.005448532827586207,-0.007514276865202775
-0.005448192827586207,-0.006954746383375304
-0.005447852827586207,-0.006559783690320619
-0.005447512827586207,-0.006000253208493148
-0.005447172827586207,-0.005243241380138334
-0.005446832827586207,-0.00415709397423795
-0.005446492827586207,-0.002939292337319337
-0.005446152827586207,-0.001754404258155281
-0.005445812827586207,-0.0002732941592002112
-0.005445472827586207,0.0006482854579295431
-0.005445132827586207,0.001833173537091444
-0.005444792827586207,0.002623098923200814
-0.005444452827586207,0.002754753154218084
-0.005444112827586207,0.002228136230146129
-0.005443772827586207,0.001273643055263973
-0.005443432827586207,-0.0001416399281843177
-0.005443092827586207,-0.00142526868060971
-0.005442752827586207,-0.001918972046928067
-0.005442412827586207,-0.001984799162437001
-0.005442072827586207,-0.00188605848917351
-0.005441732827586207,-0.001359441565100596
-0.005441392827586207,-0.0006682568522541781
-0.005441052827586207,-0.0002732941592002112
-0.005440712827586207,0.0003520634381363738
-0.005440372827586207,0.0008128532467027477
-0.005440032827586207,0.002228136230146129
-0.005439692827586207,0.002853493827482714
-0.005439352827586207,0.00357759209808315
-0.005439012827586207,0.003676332771346642
-0.005438672827586207,0.003347197193801071
-0.005438332827586207,0.003248456520536801
-0.005437992827586207,0.002919320942991828
-0.005437652827586207,0.002162309114637015
-0.005437312827586207,0.002096481999127841
-0.005436972827586207,0.002063568441373343
-0.005436632827586207,0.002688926038709928
-0.005436292827586208,0.002656012480955431
-0.005435952827586207,0.002820580269728157
-0.005435612827586207,0.002820580269728157
-0.005435272827586208,0.003281370078291118
-0.005434932827586207,0.00403838190664677
-0.005434592827586207,0.004400431041946898
-0.005434252827586208,0.00449917171521039
-0.005433912827586207,0.004235863253174112
-0.005433572827586207,0.004466258157456012
-0.005433232827586208,0.005025788639282465
-0.005432892827586207,0.00574988690988374
-0.005432552827586207,0.006836034315784124
-0.005432212827586208,0.007395564797610578
-0.005431872827586207,0.007362651239857037
-0.005431532827586207,0.007033515662311467
-0.005431192827586208,0.006243590276203533
-0.005430852827586207,0.005519492005601839
-0.005430512827586207,0.005618232678865511
-0.005430172827586207,0.005223269985811544
-0.005429832827586207,0.005585319121110954
-0.005429492827586207,0.006934774989047795
-0.005429152827586207,0.008152576625964194
-0.005428812827586207,0.009074156243094007
-0.005428472827586207,0.009896995186957936
-0.005428132827586207,0.01055526634204788
-0.005427792827586207,0.01081857480408553
-0.005427452827586207,0.01081857480408553
-0.005427112827586207,0.01065400701531275
-0.005426772827586207,0.01025904432225806
-0.005426432827586207,0.009436205378394135
-0.005426092827586207,0.007889268163929951
-0.005425752827586207,0.006737293642520453
-0.005425412827586207,0.00607902248742931
-0.005425072827586207,0.005486578447847282
-0.005424732827586207,0.005618232678865511
-0.005424392827586207,0.005716973352129182
-0.005424052827586207,0.006111936045183867
-0.005423712827586207,0.006408158064976019
-0.005423372827586207,0.007033515662311467
-0.005423032827586207,0.007494305470875266
-0.005422692827586207,0.007625959701893794
-0.005422352827586207,0.00779052749066628
-0.005422012827586207,0.007823441048420837
-0.005421672827586207,0.007625959701892237
-0.005421332827586207,0.006934774989047795
-0.005420992827586207,0.007099342777820581
-0.005420652827586207,0.007165169893329336
-0.005420312827586207,0.006967688546802352
-0.005419972827586207,0.008350057972493751
-0.005419632827586207,0.009107069800850002
-0.005419292827586207,0.009896995186957936
-0.005418952827586207,0.01091731547734921
-0.005418612827586207,0.01226677134528742
-0.005418272827586207,0.01302378317364086
-0.005417932827586207,0.01348457298220466
-0.005417592827586207,0.0132541780779224
-0.005417252827586207,0.01305669673139542
-0.005416912827586207,0.01262882048058617
-0.005416572827586207,0.01223385778753059
-0.005416232827586207,0.01174015442121313
-0.005415892827586207,0.01075274768857642
-0.005415552827586207,0.01042361211103085
-0.005415212827586207,0.01042361211103085
-0.005414872827586207,0.01042361211103085
-0.005414532827586208,0.01019321720674937
-0.005414192827586207,0.01009447653348528
