Analysis/New Tests_CMB/wrd01_d2s01/cmb03_ch28.csv

#Digilent WaveForms Oscilloscope Acquisition
#Device Name: ADP3450
#Serial Number: SN:210018B9D9B0
#Date Time: 2024-08-06 10:39:06.074.197.780
#Sample rate: 2.94118e+06Hz
#Samples: 32768
#Trigger: Source: Channel 3 Type: Edge Condition: Rising Level: 20 mV Hyst.: Auto HoldOff: 0 s
#Channel 3: Range: 200 mV/div Offset: 0 V Attenuation: 1 X Coupling: DC Bandwidth: 0 Hz Sample Mode: Average

Time (s),Channel 3 (V)
-0.005570406624605679,0.02694621810381852
-0.005570066624605678,0.02691330454606354
-0.005569726624605678,0.02668290964178206
-0.005569386624605679,0.0257284164668999
-0.005569046624605678,0.02421439281018812
-0.005568706624605678,0.02302950473102622
-0.005568366624605679,0.02197627088288039
-0.005568026624605678,0.02079138280371502
-0.005567686624605678,0.02006728453311608
-0.005567346624605679,0.01940901337802494
-0.005567006624605678,0.01937609982027038
-0.005566666624605678,0.01937609982027038
-0.005566326624605679,0.01934318626251582
-0.005565986624605678,0.019606494724553
-0.005565646624605678,0.02000145741760697
-0.005565306624605679,0.01973814895557051
-0.005564966624605678,0.01927735914700539
-0.005564626624605678,0.01855326087640645
-0.005564286624605679,0.01786207616356076
-0.005563946624605678,0.01756585414376956
-0.005563606624605678,0.01746711347050607
-0.005563266624605679,0.01812538462559721
-0.005562926624605679,0.01835577952987869
-0.005562586624605678,0.01891531001170658
-0.005562246624605679,0.01871782866517924
-0.005561906624605679,0.01815829818335278
-0.005561566624605678,0.01720380500846961
-0.005561226624605679,0.01647970673786936
-0.005560886624605679,0.01565686779400692
-0.005560546624605678,0.01513025086993251
-0.005560206624605679,0.01473528817687783
-0.005559866624605679,0.01427449836831487
-0.005559526624605678,0.01351748653995922
-0.005559186624605679,0.01243133913405883
-0.005558846624605679,0.01177306797896889
-0.005558506624605678,0.01035778499552173
-0.005558166624605679,0.009666600282676035
-0.005557826624605679,0.009502032493903551
-0.005557486624605678,0.009600773167166921
-0.005557146624605679,0.01025904432225806
-0.005556806624605679,0.01111479682387499
-0.005556466624605678,0.01190472220998592
-0.005556126624605679,0.01289212894262263
-0.005555786624605679,0.0133200051934311
-0.005555446624605678,0.01381370855975023
-0.005555106624605679,0.01443906615708682
-0.005554766624605679,0.0146365475036138
-0.005554426624605678,0.01424158481055947
-0.005554086624605679,0.01427449836831403
-0.005553746624605679,0.01434032548382314
-0.005553406624605678,0.01420867125280492
-0.005553066624605679,0.01335291875118643
-0.005552726624605679,0.0125300798073225
-0.005552386624605678,0.01114771038163111
-0.005552046624605679,0.01016030364899439
-0.005551706624605679,0.009304551147375908
-0.005551366624605678,0.008481712203511439
-0.005551026624605679,0.008185490183720966
-0.005550686624605679,0.008613366434530208
-0.005550346624605678,0.009304551147377823
-0.005550006624605678,0.01035778499552173
-0.005549666624605679,0.01085148836184009
-0.005549326624605678,0.01101605615061365
-0.005548986624605678,0.01144393240142212
-0.005548646624605679,0.01131227817040389
-0.005548306624605678,0.01131227817040329
-0.005547966624605678,0.01098314259285832
-0.005547626624605679,0.01091731547734921
-0.005547286624605678,0.0106869205730682
-0.005546946624605678,0.01118062393938566
-0.005546606624605679,0.01157558663244035
-0.005546266624605678,0.01200346288324983
-0.005545926624605678,0.01213511711426782
-0.005545586624605679,0.01170724086345858
-0.005545246624605678,0.01108188326612127
-0.005544906624605678,0.01068692057306731
-0.005544566624605679,0.01002864941797616
-0.005544226624605678,0.009107069800847667
-0.005543886624605678,0.008613366434530208
-0.005543546624605679,0.008284230856984636
-0.005543206624605678,0.008185490183721564
-0.005542866624605678,0.008514625761266537
-0.005542526624605679,0.009008329127584893
-0.005542186624605679,0.009337464705129866
-0.005541846624605678,0.01016030364899439
-0.005541506624605679,0.01085148836184009
-0.005541166624605679,0.01131227817040305
-0.005540826624605678,0.01150975951693123
-0.005540486624605679,0.011378105285913
-0.005540146624605679,0.01111479682387703
-0.005539806624605678,0.01025904432225806
-0.005539466624605679,0.009403291820639578
-0.005539126624605679,0.008942502012076617
-0.005538786624605678,0.008745020665548437
-0.005538446624605679,0.008514625761266537
-0.005538106624605679,0.008514625761266537
-0.005537766624605678,0.008350057972493751
-0.005537426624605679,0.008613366434530208
-0.005537086624605679,0.009107069800847667
-0.005536746624605678,0.009469118936148692
-0.005536406624605679,0.00983116807144882
-0.005536066624605679,0.01022613076450279
-0.005535726624605678,0.01045652566878541
-0.005535386624605679,0.01078566124633098
-0.005535046624605679,0.01035778499552251
-0.005534706624605678,0.00973242739818515
-0.005534366624605679,0.009370378262885021
-0.005534026624605679,0.007889268163932645
-0.005533686624605678,0.007198083451084253
-0.005533346624605679,0.006572725853747667
-0.005533006624605679,0.006473985180483996
-0.005532666624605678,0.007296824124347924
-0.005532326624605679,0.007724700375157166
-0.005531986624605679,0.008152576625966409
-0.005531646624605678,0.008777934223302994
-0.005531306624605679,0.009107069800848565
-0.005530966624605679,0.009600773167166921
-0.005530626624605678,0.009864081629203377
-0.005530286624605679,0.01052235278429452
-0.005529946624605679,0.01104896970836743
-0.005529606624605678,0.01062109345755729
-0.005529266624605679,0.01012739009123984
-0.005528926624605679,0.009567859609412364
-0.005528586624605678,0.009172896916357559
-0.005528246624605678,0.009107069800848565
-0.005527906624605679,0.008481712203511979
-0.005527566624605678,0.00762595970189116
-0.005527226624605678,0.006342330949465767
-0.005526886624605679,0.005519492005601839
-0.005526546624605678,0.004828307292755362
-0.005526206624605678,0.004400431041946898
-0.005525866624605679,0.004663739503983355
-0.005525526624605678,0.00512452931254925
-0.005525186624605678,0.006276503833956653
-0.005524846624605679,0.007296824124347924
-0.005524506624605678,0.008843761338812046
-0.005524166624605678,0.00881084778105755
-0.005523826624605679,0.01065400701531275
-0.005523486624605678,0.01170724086346031
-0.005523146624605678,0.01266173403834073
-0.005522806624605679,0.01315543740465909
-0.005522466624605678,0.01387953567526042
-0.005522126624605678,0.01447197971484137
-0.005521786624605679,0.01410993057954124
-0.005521446624605678,0.01325417807792073
-0.005521106624605678,0.01213511711426782
-0.005520766624605679,0.01085148836184009
-0.005520426624605679,0.009732427398187185
-0.005520086624605678,0.00871210710779388
-0.005519746624605679,0.007691786817402609
-0.005519406624605679,0.007494305470875626
-0.005519066624605678,0.007461391913120709
-0.005518726624605679,0.007230997008838809
-0.005518386624605679,0.007000602104557329
-0.005518046624605678,0.007395564797611595
-0.005517706624605679,0.007988008837193623
-0.005517366624605679,0.00861336643452907
-0.005517026624605678,0.009436205378394135
-0.005516686624605679,0.01002864941797616
-0.005516346624605679,0.01042361211103013
-0.005516006624605678,0.01058817989980363
-0.005515666624605679,0.01039069855327629
-0.005515326624605679,0.01016030364899481
-0.005514986624605678,0.009798254513694264
-0.005514646624605679,0.009337464705130465
-0.005514306624605679,0.009041242685339989
-0.005513966624605678,0.009008329127584893
-0.005513626624605679,0.008251317299230079
-0.005513286624605679,0.008481712203511559
-0.005512946624605678,0.00802092239494818
-0.005512606624605679,0.007724700375157166
-0.005512266624605679,0.007658873259648051
-0.005511926624605678,0.007494305470875266
-0.005511586624605679,0.007395564797611595
-0.005511246624605679,0.007296824124347924
-0.005510906624605678,0.007625959701893495
-0.005510566624605679,0.007955095279439066
-0.005510226624605679,0.008547539319021094
-0.005509886624605678,0.008580452876775651
-0.005509546624605679,0.007889268163929951
-0.005509206624605679,0.007198083451084253
-0.005508866624605678,0.006770207200274232
-0.005508526624605679,0.006342330949465767
-0.005508186624605679,0.005585319121110954
-0.005507846624605678,0.005420751332339305
-0.005507506624605678,0.006046108929674754
-0.005507166624605679,0.006638552969256781
-0.005506826624605678,0.007263910566594983
-0.005506486624605678,0.008152576625966409
-0.005506146624605679,0.009008329127584893
-0.005505806624605678,0.00960077316716728
-0.005505466624605678,0.009798254513694264
-0.005505126624605679,0.009765340955939707
-0.005504786624605678,0.01006156297573156
-0.005504446624605678,0.01052235278429452
-0.005504106624605679,0.01032487143776718
-0.005503766624605678,0.01065400701531137
-0.005503426624605678,0.009896995186957936
-0.005503086624605679,0.009403291820639578
-0.005502746624605678,0.009139983358602582
-0.005502406624605678,0.008843761338812107
-0.005502066624605679,0.008843761338812107
-0.005501726624605678,0.009074156243092331
-0.005501386624605678,0.008152576625966409
-0.005501046624605679,0.007691786817402609
-0.005500706624605678,0.007132256335575437
-0.005500366624605678,0.007296824124347924
-0.005500026624605679,0.007757613932911723
-0.005499686624605679,0.008152576625965691
-0.005499346624605678,0.00881084778105755
-0.005499006624605679,0.00973242739818515
-0.005498666624605679,0.0102590443222571
-0.005498326624605678,0.01016030364899439
-0.005497986624605679,0.01029195788001262
-0.005497646624605679,0.01085148836183907
-0.005497306624605678,0.01088440191959465
-0.005496966624605679,0.01147684595917668
-0.005496626624605679,0.01183889509447614
-0.005496286624605678,0.01144393240142212
-0.005495946624605679,0.01095022903510376
-0.005495606624605679,0.009765340955941861
-0.005495266624605678,0.008218403741475522
-0.005494926624605679,0.006506898738238553
-0.005494586624605679,0.005453664890094642
-0.005494246624605678,0.004367517484192341
-0.005493906624605679,0.00380798700236487
-0.005493566624605679,0.003939641233382859
-0.005493226624605678,0.004367517484192341
-0.005492886624605679,0.004466258157456012
-0.005492546624605679,0.00486122085050998
-0.005492206624605678,0.005519492005601839
-0.005491866624605679,0.006144849602938425
-0.005491526624605679,0.00703351566230985
-0.005491186624605678,0.007922181721684508
-0.005490846624605679,0.008876674896566664
-0.005490506624605679,0.01029195788001262
-0.005490166624605678,0.01154267307468579
-0.005489826624605679,0.01180598153672225
-0.005489486624605679,0.01141101884366756
-0.005489146624605678,0.01118062393938566
-0.005488806624605679,0.009995735860221606
-0.005488466624605679,0.008514625761266537
-0.005488126624605678,0.007625959701892717
-0.005487786624605679,0.007198083451084253
-0.005487446624605679,0.006375244507220324
-0.005487106624605678,0.00706642922006788
-0.005486766624605679,0.008086749510457293
-0.005486426624605679,0.008613366434530208
-0.005486086624605678,0.009765340955940246
-0.005485746624605678,0.01006156297573072
-0.005485406624605679,0.01058817989980363
-0.005485066624605678,0.01085148836184039
-0.005484726624605678,0.01101605615061288
-0.005484386624605679,0.01095022903510376
-0.005484046624605678,0.01088440191959435
-0.005483706624605678,0.01071983413082186
-0.005483366624605679,0.01045652566878541
-0.005483026624605678,0.009666600282674598
-0.005482686624605678,0.008876674896566664
-0.005482346624605679,0.00779052749066628
-0.005482006624605678,0.006934774989047436
-0.005481666624605678,0.006737293642520453
-0.005481326624605679,0.006868947873538681
-0.005480986624605678,0.006770207200274591
-0.005480646624605678,0.00653981229599311
-0.005480306624605679,0.00677020720027501
-0.005479966624605678,0.007033515662311706
-0.005479626624605678,0.007165169893329695
-0.005479286624605679,0.00700060210455691
-0.005478946624605679,0.007395564797610877
-0.005478606624605678,0.006868947873538681
-0.005478266624605679,0.004729566619492469
-0.005477926624605679,-0.001096133103053542
-0.005477586624605678,-0.01287918677919558
-0.005477246624605679,-0.03160700114153858
-0.005476906624605679,-0.05797076090289086
-0.005476566624605678,-0.09045644240668668
-0.005476226624605679,-0.1244561475671442
-0.005475886624605679,-0.1579621493612224
-0.005475546624605678,-0.18718938864733
-0.005475206624605679,-0.2108871502306111
-0.005474866624605679,-0.2284300765137582
-0.005474526624605678,-0.2392257234572848
-0.005474186624605679,-0.2442944113514866
-0.005473846624605679,-0.245578040103912
-0.005473506624605678,-0.2439981893316956
-0.005473166624605679,-0.2393902912460576
-0.005472826624605679,-0.2334658508502481
-0.005472486624605678,-0.2266856579527985
-0.005472146624605679,-0.2188193176494594
-0.005471806624605679,-0.2111175451349071
-0.005471466624605678,-0.2038436488711359
-0.005471126624605679,-0.1960431356833059
-0.005470786624605679,-0.1884071902842625
-0.005470446624605678,-0.1809028991162096
-0.005470106624605679,-0.1737277435257162
-0.005469766624605679,-0.167276686205823
-0.005469426624605678,-0.1604964933083842
-0.005469086624605679,-0.1542100037772638
-0.005468746624605679,-0.148252649823689
-0.005468406624605678,-0.1428877399096962
-0.005468066624605679,-0.1370620401871395
-0.005467726624605679,-0.1314009082533557
-0.005467386624605678,-0.126398047474663
-0.005467046624605679,-0.1220534578510615
-0.005466706624605679,-0.1171493377456325
-0.005466366624605678,-0.1124756125444772
-0.005466026624605679,-0.1079664551321111
-0.005465686624605679,-0.1038522604127914
-0.005465346624605678,-0.09940893011591879
-0.005465006624605678,-0.09532764895436113
-0.005464666624605679,-0.09157550337034162
-0.005464326624605678,-0.08848162894140842
-0.005463986624605678,-0.08581563076329413
-0.005463646624605679,-0.08278758344987489
-0.005463306624605678,-0.08025323950276921
-0.005462966624605678,-0.07762015488240942
-0.005462626624605679,-0.07455919401123559
-0.005462286624605678,-0.07215650429514696
-0.005461946624605678,-0.06886514851969722
-0.005461606624605679,-0.06544213851322328
-0.005461266624605678,-0.06221660985327106
-0.005460926624605678,-0.05912273542434832
-0.005460586624605679,-0.0562263423419473
-0.005460246624605678,-0.05448192378095212
-0.005459906624605678,-0.05247419675792778
-0.005459566624605679,-0.05082851887019993
-0.005459226624605678,-0.04901827319369575
-0.005458886624605678,-0.04707637328618042
-0.005458546624605679,-0.04503573270539787
-0.005458206624605678,-0.04279761077808405
-0.005457866624605678,-0.04062531596628723
-0.005457526624605679,-0.03861758894325924
-0.005457186624605679,-0.03651112124697142
-0.005456846624605678,-0.03466796201271239
-0.005456506624605679,-0.03321976547151188
-0.005456166624605679,-0.03203487739234998
-0.005455826624605678,-0.03108038421746566
-0.005455486624605679,-0.02986258258054705
-0.005455146624605679,-0.02897391652117563
-0.005454806624605678,-0.02765737421099173
-0.005454466624605679,-0.02627500478530033
-0.005454126624605679,-0.02449767266655747
-0.005453786624605678,-0.02281908122107183
-0.005453446624605679,-0.02183167448843512
-0.005453106624605679,-0.02071261352478221
-0.005452766624605678,-0.01946189833010701
-0.005452426624605679,-0.01738834419156991
-0.005452086624605679,-0.0162363696701625
-0.005451746624605678,-0.01511730870650547
-0.005451406624605679,-0.01426155620488698
-0.005451066624605679,-0.01432738332039598
-0.005450726624605678,-0.01439321043590521
-0.005450386624605679,-0.014557778224678
-0.005450046624605679,-0.01459069178243249
-0.005449706624605678,-0.01488691380222357
-0.005449366624605679,-0.01482108668671445
-0.005449026624605679,-0.01452486466692398
-0.005448686624605678,-0.01389950706958685
-0.005448346624605679,-0.01301084101021381
-0.005448006624605679,-0.01172721225778608
-0.005447666624605678,-0.01057523773637659
-0.005447326624605679,-0.009258695426194301
-0.005446986624605679,-0.007547190422957332
-0.005446646624605678,-0.006362302343793276
-0.005446306624605679,-0.005671117630947577
-0.005445966624605679,-0.005341982053402005
-0.005445626624605678,-0.005045760033609674
-0.005445286624605679,-0.004321661763010735
-0.005444946624605679,-0.003432995703637694
-0.005444606624605678,-0.002083539835699056
-0.005444266624605678,-0.001096133103064139
-0.005443926624605679,-0.0005366026212366681
-0.005443586624605678,2.292786059206001e-05
-0.005443246624605678,0.000714112573436502
-0.005442906624605679,0.001010334593227516
-0.005442566624605678,0.00150403795954719
-0.005442226624605678,0.002228136230146129
-0.005441886624605679,0.002590185365446257
-0.005441546624605678,0.002886407385237211
-0.005441206624605678,0.002853493827482714
-0.005440866624605679,0.002228136230146129
-0.005440526624605678,0.002261049787899967
-0.005440186624605678,0.001866087094846001
-0.005439846624605679,0.0008457668044547304
-0.005439506624605678,-0.0007340839677651482
-0.005439166624605678,-0.001359441565100596
-0.005438826624605679,-0.001721490700400724
-0.005438486624605678,-0.001227787334081469
-0.005438146624605678,-0.0007340839677640107
-0.005437806624605679,-0.0002403806014456541
-0.005437466624605678,-9.985697164053706e-06
-0.005437126624605678,-0.0001745534859365399
-0.005436786624605679,0.0005166312269091594
-0.005436446624605679,0.001405297286280585
-0.005436106624605678,0.002853493827482714
-0.005435766624605679,0.004499171715210569
-0.005435426624605679,0.005947368256408448
-0.005435086624605678,0.007132256335575138
-0.005434746624605679,0.007658873259648051
-0.005434406624605679,0.007527219028630063
-0.005434066624605678,0.007033515662311467
-0.005433726624605679,0.006177763160692982
-0.005433386624605679,0.005585319121112032
-0.005433046624605678,0.004762480177247026
-0.005432706624605679,0.00528909710131994
-0.005432366624605679,0.004992875081529465
-0.005432026624605678,0.005322010659074497
-0.005431686624605679,0.005387837774583611
-0.005431346624605679,0.005914454698655567
-0.005431006624605678,0.006572725853747667
-0.005430666624605679,0.006836034315784124
-0.005430326624605679,0.007296824124347086
-0.005429986624605678,0.007823441048420837
-0.005429646624605679,0.008415885088002865
-0.005429306624605679,0.008909588454320324
-0.005428966624605678,0.009107069800848565
-0.005428626624605679,0.008547539319021094
-0.005428286624605679,0.007856354606176652
-0.005427946624605678,0.007296824124347924
-0.005427606624605679,0.006506898738238553
-0.005427266624605679,0.006243590276202096
-0.005426926624605678,0.006111936045183867
-0.005426586624605679,0.005815714025392853
-0.005426246624605679,0.006013195371920196
-0.005425906624605678,0.006605639411502225
-0.005425566624605679,0.007461391913120709
-0.005425226624605679,0.00756013258638438
-0.005424886624605678,0.007033515662311467
-0.005424546624605679,0.007099342777820581
-0.005424206624605679,0.007724700375157166
-0.005423866624605678,0.008020922394947701
-0.005423526624605679,0.007757613932911723
-0.005423186624605679,0.00756013258638438
-0.005422846624605678,0.00736265123985614
-0.005422506624605678,0.006868947873538681
-0.005422166624605679,0.007066429220066024
-0.005421826624605678,0.007296824124348283
-0.005421486624605678,0.007494305470875266
-0.005421146624605679,0.007461391913120709
-0.005420806624605678,0.007593046144138878
-0.005420466624605678,0.00756013258638438
-0.005420126624605679,0.007099342777820581
-0.005419786624605678,0.007033515662310629
-0.005419446624605678,0.006572725853747667
-0.005419106624605679,0.006934774989047795
-0.005418766624605678,0.006967688546802412
-0.005418426624605678,0.00700060210455691
-0.005418086624605679,0.006967688546802352
-0.005417746624605678,0.00775761393291298
-0.005417406624605678,0.008448798645757422
-0.005417066624605679,0.009205810474112236
-0.005416726624605678,0.009929908744713391
-0.005416386624605678,0.01042361211103085
-0.005416046624605679,0.01052235278429452
-0.005415706624605678,0.009699513840428258
-0.005415366624605678,0.008415885088002865
-0.005415026624605679,0.006605639411502225
-0.005414686624605679,0.005387837774585826
