Analysis/New Tests_CMB/wrd01_d2s01/cmb08_ch43.csv

#Digilent WaveForms Oscilloscope Acquisition
#Device Name: ADP3450
#Serial Number: SN:210018B9D9B0
#Date Time: 2024-08-14 17:46:33.609.024.980
#Sample rate: 5.88235e+06Hz
#Samples: 32768
#Trigger: Source: Channel 3 Type: Edge Condition: Rising Level: 60 mV Hyst.: Auto HoldOff: 0 s
#Channel 3: Range: 100 mV/div Offset: 0 V Attenuation: 1 X Coupling: DC Bandwidth: 0 Hz Sample Mode: Average

Time (s),Channel 3 (V)
-0.003798411328055146,0.2081024399849008
-0.003798241328055146,0.2199184072187653
-0.003798071328055147,0.2305494863734894
-0.003797901328055147,0.2404893808153488
-0.003797731328055146,0.2478949313101713
-0.003797561328055146,0.2538851988214897
-0.003797391328055146,0.2583943562338641
-0.003797221328055146,0.2621135882601223
-0.003797051328055146,0.2643517101874349
-0.003796881328055147,0.2656024253821075
-0.003796711328055146,0.2654707711510932
-0.003796541328055146,0.2651416355735483
-0.003796371328055146,0.2641871423986661
-0.003796201328055146,0.2624098102799233
-0.003796031328055146,0.2606324781611772
-0.003795861328055147,0.2580981342140823
-0.003795691328055146,0.2549055191118758
-0.003795521328055146,0.2520420395872346
-0.003795351328055146,0.2470391788085419
-0.003795181328055146,0.2441098721683916
-0.003795011328055146,0.2401273316800921
-0.003794841328055147,0.2358814827297624
-0.003794671328055147,0.2316356337794246
-0.003794501328055146,0.2276530932911077
-0.003794331328055146,0.223473071456279
-0.003794161328055146,0.2189968276016674
-0.003793991328055146,0.2151130277866286
-0.003793821328055147,0.2111304872983346
-0.003793651328055147,0.2076416501763497
-0.003793481328055146,0.2045148621896541
-0.003793311328055146,0.2005981488168618
-0.003793141328055146,0.1969118303483581
-0.003792971328055146,0.1933242525531112
-0.003792801328055147,0.1896708476423621
-0.003792631328055147,0.1858857885005885
-0.003792461328055146,0.1822652971475735
-0.003792291328055146,0.1787106329100813
-0.003792121328055146,0.1755838449234041
-0.003791951328055146,0.1718646128971402
-0.003791781328055147,0.1685732571216838
-0.003791611328055147,0.1653148149039884
-0.003791441328055146,0.1628792116301394
-0.003791271328055146,0.1597195100857019
-0.003791101328055146,0.1568560305610606
-0.003790931328055146,0.1546179086337496
-0.003790761328055147,0.1516227748780863
-0.003790591328055147,0.1492859122775158
-0.003790421328055146,0.1472452716967247
-0.003790251328055146,0.1447767548651329
-0.003790081328055146,0.1424728058223139
-0.003789911328055146,0.1405967330303076
-0.003789741328055147,0.1389181415848249
-0.003789571328055147,0.1363179705222212
-0.003789401328055146,0.1345406384034657
-0.003789231328055146,0.1323025164761558
-0.003789061328055146,0.1304922707996552
-0.003788891328055146,0.1281224946413314
-0.003788721328055147,0.1258843727140213
-0.003788551328055147,0.1237779050177332
-0.003788381328055146,0.1210789932818485
-0.003788211328055146,0.1192358340475966
-0.003788041328055146,0.1161748731764228
-0.003787871328055146,0.1144962817309435
-0.003787701328055147,0.1115011479752812
-0.003787531328055147,0.1091313718169562
-0.003787361328055146,0.1069261634473874
-0.003787191328055146,0.1042272517115186
-0.003787021328055146,0.1023511789195088
-0.003786851328055146,0.1000801434344485
-0.003786681328055146,0.09803950285366557
-0.003786511328055147,0.09652547919695774
-0.003786341328055146,0.09468231996269376
-0.003786171328055146,0.0928720742861964
-0.003786001328055146,0.09093017437867754
-0.003785831328055146,0.08977819985727013
-0.003785661328055146,0.08869205245136963
-0.003785491328055147,0.08721094235241797
-0.003785321328055146,0.08596022715773648
-0.003785151328055146,0.08434746282776612
-0.003784981328055146,0.0827346984977928
-0.003784811328055146,0.08118776128333145
-0.003784641328055146,0.07996995964641224
-0.003784471328055147,0.07858759022072365
-0.003784301328055147,0.07753435637257661
-0.003784131328055146,0.07585576492709037
-0.003783961328055146,0.07555954290729935
-0.003783791328055146,0.07450630905915545
-0.003783621328055146,0.0735189023265186
-0.003783451328055147,0.07289354472918252
-0.003783281328055147,0.07243275492061811
-0.003783111328055146,0.07072124991737946
-0.003782941328055146,0.07042502789758845
-0.003782771328055146,0.06960218895372602
-0.003782601328055146,0.06789068395049067
-0.003782431328055147,0.06752863481518874
-0.003782261328055147,0.06663996875581761
-0.003782091328055146,0.06512594509910477
-0.003781921328055146,0.06380940278892247
-0.003781751328055146,0.06275616894077857
-0.003781581328055146,0.06147254018835126
-0.003781411328055147,0.06015599787816903
-0.003781241328055147,0.05903693691451577
-0.003781071328055146,0.05788496239310219
-0.003780901328055146,0.05656842008291992
-0.003780731328055146,0.0555480997925305
-0.003780561328055146,0.0537049405582768
-0.003780391328055147,0.05347454565399196
-0.003780221328055147,0.05245422536360399
-0.003780051328055146,0.05126933728443622
-0.003779881328055146,0.05070980680260875
-0.003779711328055146,0.05061106612934508
-0.003779541328055146,0.05005153564751862
-0.003779371328055147,0.04942617805018216
-0.003779201328055147,0.04912995603039108
-0.003779031328055146,0.04834003064428063
-0.003778861328055146,0.04755010525817126
-0.003778691328055146,0.04718805612287114
-0.003778521328055146,0.0464968714100267
-0.003778351328055147,0.04570694602391751
-0.003778181328055147,0.04534489688861726
-0.003778011328055146,0.04462079861801509
-0.003777841328055146,0.04429166304047012
-0.003777671328055146,0.04356756476986986
-0.003777501328055146,0.04337008342334287
-0.003777331328055147,0.04271181226825257
-0.003777161328055147,0.04221810890193481
-0.003776991328055146,0.04146109707357748
-0.003776821328055146,0.04106613438052351
-0.003776651328055146,0.03997998697462313
-0.003776481328055146,0.04024329543665911
-0.003776311328055146,0.03810391418261727
-0.003776141328055147,0.03754438370078794
-0.003775971328055146,0.03672154475692102
-0.003775801328055146,0.03619492783284906
-0.003775631328055146,0.03540500244673969
-0.003775461328055146,0.03359475677024235
-0.003775291328055146,0.0330023127306581
-0.003775121328055147,0.03237695513332271
-0.003774951328055146,0.03171868397822857
-0.003774781328055146,0.03132372128517461
-0.003774611328055146,0.03092875859211993
-0.003774441328055146,0.03089584503436543
-0.003774271328055146,0.03069836368783839
-0.003774101328055147,0.03040214166804809
-0.003773931328055146,0.03040214166804665
-0.003773761328055146,0.03020466032151967
-0.003773591328055146,0.0298755247439741
-0.003773421328055146,0.03000717897499209
-0.003773251328055146,0.02948056205092037
-0.003773081328055147,0.02951347560867385
-0.003772911328055147,0.02974387051295503
-0.003772741328055146,0.02951347560867397
-0.003772571328055146,0.02915142647337384
-0.003772401328055146,0.02875646378031987
-0.003772231328055146,0.02836150108726519
-0.003772061328055147,0.02773614348993016
-0.003771891328055147,0.02671582319954033
-0.003771721328055146,0.02569550290914535
-0.003771551328055146,0.02533345377384522
-0.003771381328055146,0.02477392329201876
-0.003771211328055146,0.02395108434815531
-0.003771041328055147,0.02365486232836388
-0.003770871328055147,0.02319407251980068
-0.003770701328055146,0.02273328271123521
-0.003770531328055146,0.02250288780695331
-0.003770361328055146,0.02210792511389934
-0.003770191328055146,0.0223712335759346
-0.003770021328055147,0.02191044376737212
-0.003769851328055147,0.02194335732512571
-0.003769681328055146,0.02200918444063495
-0.003769511328055146,0.02223957934491685
-0.003769341328055146,0.02210792511389862
-0.003769171328055146,0.02260162848021608
-0.003769001328055147,0.0223712335759355
-0.003768831328055147,0.02237123357593508
-0.003768661328055146,0.02256871492246242
-0.003768491328055146,0.02227249290267141
-0.003768321328055146,0.02243706069144419
-0.003768151328055146,0.0223383200181807
-0.003767981328055147,0.02214083867165354
-0.003767811328055147,0.02164713530533662
-0.003767641328055146,0.02092303703473367
-0.003767471328055146,0.02042933366841621
-0.003767301328055146,0.02042933366841621
-0.003767131328055146,0.02023185232188923
-0.003766961328055147,0.01881656933844549
-0.003766791328055147,0.0192444455892506
-0.003766621328055146,0.01799373039457845
-0.003766451328055146,0.01769750837478797
-0.003766281328055146,0.01680884231541493
-0.003766111328055146,0.01618348471807948
-0.003765941328055146,0.01562395423625189
-0.003765771328055147,0.0152948186587065
-0.003765601328055146,0.01453780683034989
-0.003765431328055146,0.01420867125280492
-0.003765261328055146,0.01447197971484137
-0.003765091328055146,0.01374788144424243
-0.003764921328055146,0.01404410346403159
-0.003764751328055147,0.01410993057954101
-0.003764581328055146,0.01470237461912411
-0.003764411328055146,0.01516316442768707
-0.003764241328055146,0.01513025086993251
-0.003764071328055146,0.01542647288972299
-0.003763901328055146,0.01667718808439442
-0.003763731328055147,0.01703923721969551
-0.003763561328055146,0.01713797789296265
-0.003763391328055146,0.01832286597212456
-0.003763221328055146,0.01792790327906987
-0.003763051328055146,0.01888239645395029
-0.003762881328055146,0.01898113712721551
-0.003762711328055147,0.01944192693577782
-0.003762541328055147,0.01970523539781499
-0.003762371328055146,0.01983688962883418
-0.003762201328055146,0.01993563030209785
-0.003762031328055146,0.01950775405128939
-0.003761861328055146,0.01914570491598914
-0.003761691328055147,0.01855326087640861
-0.003761521328055147,0.01786207616356327
-0.003761351328055146,0.01799373039457898
-0.003761181328055146,0.01789498972131531
-0.003761011328055146,0.01792790327906981
-0.003760841328055146,0.01825703885661484
-0.003760671328055147,0.01792790327907107
-0.003760501328055147,0.01842160664538643
-0.003760331328055146,0.01819121174110632
-0.003760161328055146,0.0180595575100881
-0.003759991328055146,0.01865200154966905
-0.003759821328055146,0.01828995241437066
-0.003759651328055147,0.01789498972131603
-0.003759481328055147,0.01815829818335081
-0.003759311328055146,0.01789498972131531
-0.003759141328055146,0.01769750837478797
-0.003758971328055146,0.0172696321239795
-0.003758801328055146,0.01720380500846973
-0.003758631328055147,0.01687466943092464
-0.003758461328055147,0.01671010164215186
-0.003758291328055146,0.01605183048706011
-0.003758121328055146,0.0155252135629872
-0.003757951328055146,0.01489985596565062
-0.003757781328055146,0.01480111529238713
-0.003757611328055147,0.014077017021788
-0.003757441328055147,0.01401118990627781
-0.003757271328055146,0.01420867125280426
-0.003757101328055146,0.01384662211750479
-0.003756931328055146,0.0134516594244501
-0.003756761328055146,0.01338583230894111
-0.003756591328055147,0.01308961028915051
-0.003756421328055147,0.01332000519343104
-0.003756251328055146,0.01302378317364164
-0.003756081328055146,0.0134516594244501
-0.003755911328055146,0.01282630182711352
-0.003755741328055146,0.01292504250037701
-0.003755571328055146,0.0127933882693592
-0.003755401328055147,0.01249716624956902
-0.003755231328055146,0.0121022035565141
-0.003755061328055146,0.01256299336507706
-0.003754891328055146,0.0129908696158863
-0.003754721328055146,0.01308961028914979
-0.003754551328055146,0.012760474711605
-0.003754381328055147,0.01269464759609553
-0.003754211328055146,0.01279338826935842
-0.003754041328055146,0.01249716624956795
-0.003753871328055146,0.01236551201854972
-0.003753701328055146,0.01213511711426824
-0.003753531328055146,0.01187180865223184
-0.003753361328055147,0.01206928999875799
-0.003753191328055146,0.01197054932549533
-0.003753021328055146,0.01213511711426782
-0.003752851328055146,0.01233259846079516
-0.003752681328055146,0.01236551201854966
-0.003752511328055146,0.0126288204805857
-0.003752341328055147,0.01266173403834061
-0.003752171328055147,0.01249716624956855
-0.003752001328055146,0.01246425269181339
-0.003751831328055146,0.01269464759609529
-0.003751661328055146,0.01305669673139476
-0.003751491328055146,0.01253007980732346
-0.003751321328055147,0.01256299336507694
-0.003751151328055147,0.01246425269181375
-0.003750981328055146,0.01243133913405883
-0.003750811328055146,0.01236551201854972
-0.003750641328055146,0.01187180865223226
-0.003750471328055146,0.01154267307468639
-0.003750301328055147,0.01108188326612367
-0.003750131328055147,0.0106540070153143
-0.003749961328055146,0.01019321720674895
-0.003749791328055146,0.009699513840430593
-0.003749621328055146,0.009962822302466571
-0.003749451328055146,0.009567859609413082
-0.003749281328055147,0.009436205378394374
-0.003749111328055147,0.009666600282675197
-0.003748941328055146,0.009995735860221606
-0.003748771328055146,0.01009447653348528
-0.003748601328055146,0.009995735860221787
-0.003748431328055146,0.01058817989980256
-0.003748261328055147,0.009962822302468187
-0.003748091328055147,0.01042361211102917
-0.003747921328055146,0.01121353749714022
-0.003747751328055146,0.01134519172815845
-0.003747581328055146,0.01121353749714022
-0.003747411328055146,0.01124645105489471
-0.003747241328055147,0.01052235278429584
-0.003747071328055147,0.01065400701531227
-0.003746901328055146,0.009798254513694264
-0.003746731328055146,0.009995735860221606
-0.003746561328055146,0.00950203249390325
-0.003746391328055146,0.009271637589621769
-0.003746221328055147,0.008810847781058388
-0.003746051328055147,0.0086791935500398
-0.003745881328055146,0.00871210710779358
-0.003745711328055146,0.008547539319021094
-0.003745541328055146,0.00871210710779388
-0.003745371328055146,0.008745020665548376
-0.003745201328055147,0.008646279992284945
-0.003745031328055147,0.009107069800846889
-0.003744861328055146,0.00950203249390337
-0.003744691328055146,0.009567859609412364
-0.003744521328055146,0.01016030364899439
-0.003744351328055146,0.009962822302467408
-0.003744181328055146,0.00973242739818557
-0.003744011328055147,0.009469118936149649
-0.003743841328055146,0.01002864941797574
-0.003743671328055146,0.009798254513694264
-0.003743501328055146,0.01025904432225806
-0.003743331328055146,0.01032487143776706
-0.003743161328055146,0.009929908744713211
-0.003742991328055147,0.009666600282676992
-0.003742821328055146,0.009008329127584473
-0.003742651328055146,0.008777934223302994
-0.003742481328055146,0.008185490183720966
-0.003742311328055146,0.00788926816393049
-0.003742141328055146,0.007625959701893973
-0.003741971328055147,0.007395564797612433
-0.003741801328055147,0.007000602104558347
-0.003741631328055146,0.006737293642520453
-0.003741461328055146,0.006704380084765896
-0.003741291328055146,0.006375244507220923
-0.003741121328055146,0.006506898738238314
-0.003740951328055147,0.006408158064975241
-0.003740781328055147,0.006342330949466007
-0.003740611328055146,0.006177763160692982
-0.003740441328055146,0.006111936045183867
-0.003740271328055146,0.00584862758314789
-0.003740101328055146,0.006046108929674394
-0.003739931328055147,0.006408158064973564
-0.003739761328055147,0.006111936045184944
-0.003739591328055146,0.006375244507220324
-0.003739421328055146,0.007461391913120709
-0.003739251328055146,0.00709934277782124
-0.003739081328055146,0.008053835952701
-0.003738911328055147,0.008317144414738714
-0.003738741328055147,0.01009447653347881
-0.003738571328055146,0.009205810474112236
-0.003738401328055146,0.00973242739818515
-0.003738231328055146,0.01006156297573012
-0.003738061328055146,0.01045652566878469
-0.003737891328055147,0.01095022903510286
-0.003737721328055147,0.01081857480408601
-0.003737551328055146,0.01088440191959465
-0.003737381328055146,0.011378105285913
-0.003737211328055146,0.01114771038163111
-0.003737041328055146,0.01108188326612211
-0.003736871328055147,0.01114771038163099
-0.003736701328055147,0.01276047471159854
-0.003736531328055146,0.0118388950944768
-0.003736361328055146,0.01114771038163111
-0.003736191328055146,0.01157558663244035
-0.003736021328055146,0.01147684595917686
-0.003735851328055147,0.0111806239393862
-0.003735681328055147,0.01118062393938566
-0.003735511328055146,0.01071983413082234
-0.003735341328055146,0.01098314259285832
-0.003735171328055146,0.01068692057306731
-0.003735001328055146,0.01029195788001334
-0.003734831328055147,0.009831168071449658
-0.003734661328055147,0.009666600282676633
-0.003734491328055146,0.009469118936149649
-0.003734321328055146,0.009995735860221606
-0.003734151328055146,0.009995735860221606
-0.003733981328055146,0.01019321720674859
-0.003733811328055146,0.01055526634204842
-0.003733641328055147,0.01025904432225914
-0.003733471328055146,0.01062109345755807
-0.003733301328055146,0.01055526634204908
-0.003733131328055146,0.01006156297573072
-0.003732961328055146,0.009403291820640775
-0.003732791328055146,0.008448798645759158
-0.003732621328055147,0.007955095279440862
-0.003732451328055146,0.007527219028627907
-0.003732281328055146,0.006473985180483996
-0.003732111328055146,0.006342330949465767
-0.003731941328055146,0.005519492005603336
-0.003731771328055146,0.004828307292757397
-0.003731601328055147,0.00482830729275614
-0.003731431328055147,0.004630825946229516
-0.003731261328055146,0.004466258157456012
-0.003731091328055146,0.005025788639283483
-0.003730921328055146,0.005585319121109936
-0.003730751328055146,0.005519492005601959
-0.003730581328055147,0.005947368256409525
-0.003730411328055147,0.006770207200272016
-0.003730241328055146,0.006901861431293239
-0.003730071328055146,0.006934774989047795
-0.003729901328055146,0.007461391913119751
-0.003729731328055146,0.007527219028629704
-0.003729561328055147,0.008284230856981881
-0.003729391328055147,0.007922181721685824
-0.003729221328055146,0.008481712203511979
-0.003729051328055146,0.008284230856984636
-0.003728881328055146,0.008843761338811089
-0.003728711328055146,0.007658873259650207
-0.003728541328055147,0.00792218172168355
-0.003728371328055147,0.007428478355367948
-0.003728201328055146,0.007263910566593366
-0.003728031328055146,0.006803120758029567
-0.003727861328055146,0.006737293642520572
-0.003727691328055146,0.006506898738238972
-0.003727521328055147,0.006671466527011039
-0.003727351328055147,0.006572725853748026
-0.003727181328055146,0.00677020720027501
-0.003727011328055146,0.006868947873538681
-0.003726841328055146,0.007263910566593366
-0.003726671328055146,0.007625959701892836
-0.003726501328055147,0.007790527490665981
-0.003726331328055147,0.008284230856982841
-0.003726161328055146,0.009139983358603122
-0.003725991328055146,0.009205810474112236
-0.003725821328055146,0.009995735860221606
-0.003725651328055146,0.01078566124632954
-0.003725481328055147,0.01104896970836695
-0.003725311328055147,0.01121353749713962
-0.003725141328055146,0.01144393240142146
-0.003724971328055146,0.01108188326612199
-0.003724801328055146,0.01095022903510376
-0.003724631328055146,0.01071983413082228
-0.003724461328055147,0.01055526634204938
-0.003724291328055147,0.01002864941797808
-0.003724121328055146,0.009304551147375608
-0.003723951328055146,0.009139983358603122
-0.003723781328055146,0.008679193550039321
-0.003723611328055146,0.007823441048422393
-0.003723441328055146,0.007757613932911842
-0.003723271328055147,0.007230997008840725
-0.003723101328055146,0.007198083451084193
-0.003722931328055146,0.007165169893329695
-0.003722761328055146,0.007296824124347924
-0.003722591328055146,0.00709934277782094
-0.003722421328055146,0.00723099700883857
-0.003722251328055147,0.00821840374147193
-0.003722081328055146,0.009205810474113433
-0.003721911328055146,0.009864081629203377
-0.003721741328055146,0.01025904432225806
-0.003721571328055146,0.01068692057306653
-0.003721401328055146,0.01091731547734879
-0.003721231328055147,0.01058817989980483
-0.003721061328055146,0.01042361211103097
-0.003720891328055146,0.01048943922653996
-0.003720721328055146,0.01012739009123984
-0.003720551328055146,0.009074156243095922
-0.003720381328055146,0.009732427398183953
-0.003720211328055147,0.009074156243096401
-0.003720041328055147,0.008547539319023009
-0.003719871328055146,0.009436205378394135
-0.003719701328055146,0.008415885088002865
-0.003719531328055146,0.008185490183721385
-0.003719361328055146,0.007362651239858535
