Analysis/New Tests_CMB/wrd01_d2s01/cmb06_ch13.csv

#Digilent WaveForms Oscilloscope Acquisition
#Device Name: ADP3450
#Serial Number: SN:210018B9D9B0
#Date Time: 2024-08-14 15:39:44.577.745.800
#Sample rate: 5.88235e+06Hz
#Samples: 32768
#Trigger: Source: Channel 3 Type: Edge Condition: Rising Level: 60 mV Hyst.: Auto HoldOff: 0 s
#Channel 3: Range: 100 mV/div Offset: 0 V Attenuation: 1 X Coupling: DC Bandwidth: 0 Hz Sample Mode: Average

Time (s),Channel 3 (V)
-0.003798392530807556,0.2162979158657855
-0.003798222530807556,0.2275543526178236
-0.003798052530807556,0.2386462215811097
-0.003797882530807557,0.2482569804454255
-0.003797712530807556,0.2556625309402474
-0.003797542530807556,0.2620148475868654
-0.003797372530807556,0.2669189676922944
-0.003797202530807556,0.2699799285634626
-0.003797032530807556,0.2722509640485285
-0.003796862530807557,0.2738308148207456
-0.003796692530807556,0.2730079758768874
-0.003796522530807556,0.2729750623191329
-0.003796352530807556,0.2713622979891596
-0.003796182530807556,0.2701444963522432
-0.003796012530807556,0.2671164490388272
-0.003795842530807557,0.2647137593227478
-0.003795672530807556,0.2617515391248229
-0.003795502530807556,0.2584601833493732
-0.003795332530807556,0.2546751242075991
-0.003795162530807556,0.2512192006433769
-0.003794992530807556,0.247467055059358
-0.003794822530807557,0.2438794772641175
-0.003794652530807557,0.2398969367758175
-0.003794482530807556,0.2358485691719925
-0.003794312530807556,0.2318331151259365
-0.003794142530807556,0.2280809695419238
-0.003793972530807556,0.2239996883803593
-0.003793802530807557,0.2203133699118549
-0.003793632530807557,0.215606731152957
-0.003793462530807556,0.211360882202602
-0.003793292530807556,0.2073125145987915
-0.003793122530807556,0.2035274554570243
-0.003792952530807556,0.1995120014109687
-0.003792782530807557,0.1957269422692011
-0.003792612530807557,0.192238105147217
-0.003792442530807556,0.1891771442760305
-0.003792272530807556,0.1862478376358749
-0.003792102530807556,0.1832197903224612
-0.003791932530807556,0.1811462361839223
-0.003791762530807556,0.1784144108902953
-0.003791592530807557,0.1756167584811631
-0.003791422530807556,0.173312809438334
-0.003791252530807556,0.1706138977024603
-0.003791082530807556,0.1674541961580285
-0.003790912530807556,0.1638337048050281
-0.003790742530807556,0.1609373117226258
-0.003790572530807557,0.1575472152739134
-0.003790402530807556,0.1542887730562
-0.003790232530807556,0.1513265528582898
-0.003790062530807556,0.1478377157363068
-0.003789892530807556,0.14500714976942
-0.003789722530807556,0.142439892264564
-0.003789552530807557,0.1398726347597133
-0.003789382530807556,0.137864907736676
-0.003789212530807556,0.1360217485024208
-0.003789042530807556,0.1357913535981389
-0.003788872530807556,0.1322696029184077
-0.003788702530807556,0.1308214063772034
-0.003788532530807557,0.1288465929119345
-0.003788362530807556,0.1284187166611132
-0.003788192530807556,0.1257198049252444
-0.003788022530807556,0.1242716083840439
-0.003787852530807556,0.122230967803265
-0.003787682530807556,0.1205194628000275
-0.003787512530807557,0.1189396120278114
-0.003787342530807556,0.1169647985625279
-0.003787172530807556,0.1146279359619586
-0.003787002530807556,0.1116986293218031
-0.003786832530807556,0.1092959396057248
-0.003786662530807556,0.1067286821008696
-0.003786492530807557,0.1039968568072466
-0.003786322530807556,0.1026803144970499
-0.003786152530807556,0.1002117976654626
-0.003785982530807556,0.09790784862264365
-0.003785812530807556,0.09655839275470925
-0.003785642530807556,0.09563681313758089
-0.003785472530807557,0.0936290861145585
-0.003785302530807556,0.0919504946690676
-0.003785132530807556,0.09129222351397767
-0.003784962530807556,0.09010733543481361
-0.003784792530807556,0.08872496600912473
-0.003784622530807556,0.08727676946792434
-0.003784452530807557,0.08609188138876196
-0.003784282530807557,0.08510447465612452
-0.003784112530807556,0.08421580859674788
-0.003783942530807556,0.08326131542186574
-0.003783772530807556,0.08210934090045834
-0.003783602530807556,0.08141815618761179
-0.003783432530807557,0.08026618166620522
-0.003783262530807557,0.07868633089398802
-0.003783092530807556,0.07727104791053632
-0.003782922530807556,0.07641529540891784
-0.003782752530807556,0.07483544463670198
-0.003782582530807556,0.07348598876876473
-0.003782412530807557,0.07226818713184809
-0.003782242530807557,0.07075416347513953
-0.003782072530807556,0.06907557202965162
-0.003781902530807556,0.06700201789111451
-0.003781732530807556,0.06565256202318014
-0.003781562530807556,0.06348026721138085
-0.003781392530807557,0.06242703336323299
-0.003781222530807557,0.06091300970652696
-0.003781052530807556,0.05999143008939385
-0.003780882530807556,0.0588065420102298
-0.003780712530807556,0.05772039460433139
-0.003780542530807556,0.05716086412250296
-0.003780372530807556,0.05633802517863951
-0.003780202530807557,0.05564684046579483
-0.003780032530807556,0.05614054383211067
-0.003779862530807556,0.05538353200375586
-0.003779692530807556,0.05301375584542774
-0.003779522530807556,0.05663424719842244
-0.003779352530807556,0.05512022354172216
-0.003779182530807557,0.05475817440642059
-0.003779012530807556,0.05479108796417383
-0.003778842530807556,0.05380368123153711
-0.003778672530807556,0.05317832363420053
-0.003778502530807556,0.05248713892135608
-0.003778332530807556,0.05205926267054636
-0.003778162530807557,0.05103894238015803
-0.003777992530807556,0.05153264574646885
-0.003777822530807556,0.04942617805018102
-0.003777652530807556,0.04853751199080798
-0.003777482530807556,0.04741845102715507
-0.003777312530807556,0.04712222900736256
-0.003777142530807557,0.04636521717900997
-0.003776972530807556,0.04527906977310521
-0.003776802530807556,0.04439040371373378
-0.003776632530807556,0.04350173765436074
-0.003776462530807556,0.04267889871049831
-0.003776292530807556,0.04231684957519734
-0.003776122530807557,0.04116487505379138
-0.003775952530807556,0.04030912255216768
-0.003775782530807556,0.03974959207034123
-0.003775612530807556,0.0393875429350411
-0.003775442530807556,0.03813682774037021
-0.003775272530807556,0.03731398879650551
-0.003775102530807557,0.03626075494836201
-0.003774932530807556,0.03530626177347482
-0.003774762530807556,0.03464799061838488
-0.003774592530807556,0.03408846013655741
-0.003774422530807556,0.03352892965473096
-0.003774252530807556,0.03326562119269396
-0.003774082530807557,0.03319979407718461
-0.003773912530807556,0.03303522628841164
-0.003773742530807556,0.03306813984616614
-0.003773572530807556,0.03270609071086601
-0.003773402530807556,0.03250860936433903
-0.003773232530807556,0.0321136466712847
-0.003773062530807557,0.03211364667128398
-0.003772892530807557,0.03155411618945855
-0.003772722530807556,0.0314882890739474
-0.003772552530807556,0.03161994330496563
-0.003772382530807556,0.03132372128517515
-0.003772212530807556,0.03092875859212064
-0.003772042530807557,0.03069836368783887
-0.003771872530807557,0.03040214166804809
-0.003771702530807556,0.03023757387927423
-0.003771532530807556,0.03007300609050144
-0.003771362530807556,0.02997426541723795
-0.003771192530807556,0.02990843830172878
-0.003771022530807557,0.02842732820277898
-0.003770852530807557,0.02915142647337121
-0.003770682530807556,0.02839441464501903
-0.003770512530807556,0.0280323655097189
-0.003770342530807556,0.03027048743702471
-0.003770172530807556,0.02944764849316635
-0.003770002530807556,0.02790071127870349
-0.003769832530807557,0.02753866214340186
-0.003769662530807556,0.02684747743055485
-0.003769492530807556,0.0264196011797456
-0.003769322530807556,0.02602463848669092
-0.003769152530807556,0.02664999608402636
-0.003768982530807556,0.0255309351203746
-0.003768812530807557,0.02592589781342581
-0.003768642530807556,0.02539928088935433
-0.003768472530807556,0.02582715714016358
-0.003768302530807556,0.02414856569468116
-0.003768132530807556,0.02414856569468116
-0.003767962530807556,0.02352320809734572
-0.003767792530807557,0.02299659117327358
-0.003767622530807556,0.02260162848021668
-0.003767452530807556,0.02243706069144419
-0.003767282530807556,0.0217458759785985
-0.003767112530807556,0.02138382684329903
-0.003766942530807556,0.02046224722617244
-0.003766772530807557,0.02039642011066189
-0.003766602530807556,0.0203635065529071
-0.003766432530807556,0.0203635065529071
-0.003766262530807556,0.02033059299515254
-0.003766092530807556,0.02062681501494302
-0.003765922530807556,0.02075846924596154
-0.003765752530807557,0.02102177770799728
-0.003765582530807556,0.02148256751656264
-0.003765412530807556,0.02181170309410761
-0.003765242530807556,0.02194335732512584
-0.003765072530807556,0.02246997424919779
-0.003764902530807556,0.02332572675081568
-0.003764732530807557,0.02349029453958942
-0.003764562530807556,0.02401691146366383
-0.003764392530807556,0.02451061482998129
-0.003764222530807556,0.02490557752303598
-0.003764052530807556,0.02474100973426349
-0.003763882530807556,0.02503723175405367
-0.003763712530807557,0.02526762665833526
-0.003763542530807556,0.02477392329201715
-0.003763372530807556,0.02444478771447217
-0.003763202530807556,0.02431313348345395
-0.003763032530807556,0.023654862328364
-0.003762862530807556,0.02349029453959032
-0.003762692530807557,0.0227661962689924
-0.003762522530807557,0.02220666578716433
-0.003762352530807556,0.02164713530533482
-0.003762182530807556,0.02079138280371634
-0.003762012530807556,0.0211863454967703
-0.003761842530807556,0.02049516078392658
-0.003761672530807557,0.02033059299515314
-0.003761502530807557,0.02000145741760816
-0.003761332530807556,0.01970523539781595
-0.003761162530807556,0.01884948289619747
-0.003760992530807556,0.01865200154967049
-0.003760822530807556,0.01601891692931035
-0.003760652530807557,0.01763168125927299
-0.003760482530807557,0.01647970673787355
-0.003760312530807556,0.0162163982758329
-0.003760142530807556,0.01582143558277821
-0.003759972530807556,0.01628222539134118
-0.003759802530807556,0.01588726269828805
-0.003759632530807556,0.01568978135176035
-0.003759462530807557,0.01592017625604105
-0.003759292530807556,0.01565686779400543
-0.003759122530807556,0.01559104067849632
-0.003758952530807556,0.01532773221646034
-0.003758782530807556,0.01555812712074134
-0.003758612530807556,0.01605183048705922
-0.003758442530807557,0.01615057116032342
-0.003758272530807556,0.01601891692930556
-0.003758102530807556,0.01638096606460569
-0.003757932530807556,0.0166771880843967
-0.003757762530807556,0.01674301519990569
-0.003757592530807556,0.01664427452664232
-0.003757422530807557,0.01638096606460664
-0.003757252530807556,0.01677592875766079
-0.003757082530807556,0.01700632366194227
-0.003756912530807556,0.01707215077745139
-0.003756742530807556,0.0168417558731699
-0.003756572530807556,0.01680884231541499
-0.003756402530807557,0.01657844741113387
-0.003756232530807556,0.01631513894909633
-0.003756062530807556,0.01618348471807834
-0.003755892530807556,0.01549230000523264
-0.003755722530807556,0.01526190510095116
-0.003755552530807556,0.01499859663891477
-0.003755382530807557,0.01499859663891429
-0.003755212530807556,0.01437323904157776
-0.003755042530807556,0.01440615259933226
-0.003754872530807556,0.01417575769505036
-0.003754702530807556,0.01417575769505036
-0.003754532530807556,0.01414284413729586
-0.003754362530807557,0.01417575769505024
-0.003754192530807556,0.01420867125280522
-0.003754022530807556,0.0143732390415777
-0.003753852530807556,0.01453780683035049
-0.003753682530807556,0.01384662211750605
-0.003753512530807556,0.01358331365546881
-0.003753342530807557,0.01328709163567839
-0.003753172530807556,0.0132870916356775
-0.003753002530807556,0.01338583230894099
-0.003752832530807556,0.01305669673139542
-0.003752662530807556,0.01262882048058695
-0.003752492530807556,0.01285921538486766
-0.003752322530807557,0.01269464759609589
-0.003752152530807557,0.0127933882693586
-0.003751982530807556,0.01266173403834073
-0.003751812530807556,0.01279338826935896
-0.003751642530807556,0.01262882048058647
-0.003751472530807556,0.01164141374795126
-0.003751302530807557,0.0144061525993222
-0.003751132530807557,0.01269464759610152
-0.003750962530807556,0.0141428441372958
-0.003750792530807556,0.01450489327259593
-0.003750622530807556,0.01476820173463191
-0.003750452530807556,0.01489985596565038
-0.003750282530807557,0.01447197971484293
-0.003750112530807557,0.01509733731217568
-0.003749942530807556,0.0148340288501415
-0.003749772530807556,0.01476820173463239
-0.003749602530807556,0.01420867125280594
-0.003749432530807556,0.0143403254838229
-0.003749262530807556,0.01378079500199669
-0.003749092530807557,0.0129250425003803
-0.003748922530807556,0.01259590692283162
-0.003748752530807556,0.01150975951693123
-0.003748582530807556,0.01081857480408679
-0.003748412530807556,0.01045652566878606
-0.003748242530807556,0.01009447653348594
-0.003748072530807557,0.0100286494179764
-0.003747902530807556,0.009436205378394135
-0.003747732530807556,0.009238724031866792
-0.003747562530807556,0.009304551147375908
-0.003747392530807556,0.009238724031866912
-0.003747222530807556,0.009337464705130284
-0.003747052530807557,0.009798254513692588
-0.003746882530807556,0.01058817989980363
-0.003746712530807556,0.01048943922653996
-0.003746542530807556,0.01124645105489478
-0.003746372530807556,0.01170724086345774
-0.003746202530807556,0.01193763576774006
-0.003746032530807557,0.01253007980732035
-0.003745862530807556,0.01328709163567744
-0.003745692530807556,0.01335291875118643
-0.003745522530807556,0.01447197971484137
-0.003745352530807556,0.01513025086993132
-0.003745182530807556,0.01595308981379495
-0.003745012530807557,0.01615057116032307
-0.003744842530807556,0.01647970673787049
-0.003744672530807556,0.01710506433520594
-0.003744502530807556,0.01707215077745139
-0.003744332530807556,0.01740128635499635
-0.003744162530807556,0.01753294058601495
-0.003743992530807557,0.01750002702826075
-0.003743822530807556,0.01802664395233276
-0.003743652530807556,0.0175987677015243
-0.003743482530807556,0.01717089145071506
-0.003743312530807556,0.01707215077745157
-0.003743142530807556,0.01710506433520588
-0.003742972530807557,0.01644679318011719
-0.003742802530807556,0.01582143558277689
-0.003742632530807556,0.01509733731217796
-0.003742462530807556,0.01453780683035049
-0.003742292530807556,0.01453780683035049
-0.003742122530807556,0.01378079500199705
-0.003741952530807557,0.0164467931801051
-0.003741782530807557,0.01193763576775688
-0.003741612530807556,0.01292504250037719
-0.003741442530807556,0.01233259846079516
-0.003741272530807556,0.0118718086522322
-0.003741102530807556,0.01203637644100385
-0.003740932530807557,0.01236551201854852
-0.003740762530807557,0.01220094422977753
-0.003740592530807556,0.01236551201854972
-0.003740422530807556,0.01289212894262263
-0.003740252530807556,0.01305669673139512
-0.003740082530807556,0.01318835096241341
-0.003739912530807557,0.01345165942444915
-0.003739742530807557,0.01364914077097673
-0.003739572530807556,0.01338583230894099
-0.003739402530807556,0.01341874586669555
-0.003739232530807556,0.01315543740465957
-0.003739062530807556,0.01345165942444956
-0.003738892530807556,0.01299086961588714
-0.003738722530807557,0.0127275611538508
-0.003738552530807556,0.01285921538486808
-0.003738382530807556,0.01210220355651326
-0.003738212530807556,0.01236551201854924
-0.003738042530807556,0.01197054932549575
-0.003737872530807556,0.01200346288324953
-0.003737702530807557,0.01167432730570522
-0.003737532530807556,0.01150975951693123
-0.003737362530807556,0.011378105285913
-0.003737192530807556,0.01081857480408553
-0.003737022530807556,0.01078566124633104
-0.003736852530807556,0.01108188326612145
-0.003736682530807557,0.01095022903510424
-0.003736512530807556,0.01042361211103085
-0.003736342530807556,0.01039069855327629
-0.003736172530807556,0.009205810474112236
-0.003736002530807556,0.01111479682387308
-0.003735832530807556,0.01101605615061306
-0.003735662530807557,0.01065400701531406
-0.003735492530807556,0.01058817989980369
-0.003735322530807556,0.01062109345755819
-0.003735152530807556,0.01127936461264933
-0.003734982530807556,0.01131227817040383
-0.003734812530807556,0.01147684595917638
-0.003734642530807557,0.01170724086345774
-0.003734472530807556,0.01141101884366792
-0.003734302530807556,0.0116085001901949
-0.003734132530807556,0.0118388950944768
-0.003733962530807556,0.01180598153672231
-0.003733792530807556,0.01246425269181219
-0.003733622530807557,0.01239842557630451
-0.003733452530807556,0.01213511711426722
-0.003733282530807556,0.01180598153672225
-0.003733112530807556,0.01272756115384985
-0.003732942530807556,0.0121351171142689
-0.003732772530807556,0.01318835096241173
-0.003732602530807557,0.01124645105490184
-0.003732432530807556,0.01351748653995952
-0.003732262530807556,0.013682054328732
-0.003732092530807556,0.01167432730570402
-0.003731922530807556,0.01197054932549449
-0.003731752530807556,0.01220094422977651
-0.003731582530807557,0.01210220355651362
-0.003731412530807557,0.01197054932549551
-0.003731242530807556,0.0122996849030406
-0.003731072530807556,0.01256299336507706
-0.003730902530807556,0.01348457298220298
-0.003730732530807556,0.0142086712528036
-0.003730562530807557,0.01424158481055935
-0.003730392530807557,0.01493276952340266
-0.003730222530807556,0.01499859663891429
-0.003730052530807556,0.01519607798544163
-0.003729882530807556,0.01513025086993263
-0.003729712530807556,0.01522899154319601
-0.003729542530807557,0.01529481865870506
-0.003729372530807557,0.01483402885014318
-0.003729202530807556,0.0150644237544234
-0.003729032530807556,0.01486694240789606
-0.003728862530807556,0.01483402885014156
-0.003728692530807556,0.01443906615708753
-0.003728522530807557,0.01440615259933238
-0.003728352530807557,0.01401118990627901
-0.003728182530807556,0.013682054328732
-0.003728012530807556,0.01381370855975023
-0.003727842530807556,0.01332000519343277
-0.003727672530807556,0.01338583230894087
-0.003727502530807556,0.01272756115385104
-0.003727332530807557,0.0125959069228321
-0.003727162530807556,0.01249716624956795
-0.003726992530807556,0.01246425269181339
-0.003726822530807556,0.01305669673139542
-0.003726652530807556,0.01335291875118589
-0.003726482530807556,0.01276047471160548
-0.003726312530807557,0.01305669673139434
-0.003726142530807556,0.01262882048058617
-0.003725972530807556,0.01285921538486808
-0.003725802530807556,0.01269464759609529
-0.003725632530807556,0.01187180865223286
-0.003725462530807556,0.0114110188436684
-0.003725292530807557,0.01055526634205219
-0.003725122530807556,0.00963368672492064
-0.003724952530807556,0.009172896916357679
-0.003724782530807556,0.007691786817402609
-0.003724612530807556,0.007889268163929592
-0.003724442530807556,0.008086749510456934
-0.003724272530807557,0.008284230856983918
-0.003724102530807556,0.00877793422330485
-0.003723932530807556,0.009798254513694264
-0.003723762530807556,0.01025904432225806
-0.003723592530807556,0.01071983413082103
-0.003723422530807556,0.0114768459591753
-0.003723252530807557,0.0122009442297743
-0.003723082530807556,0.01437323904157962
-0.003722912530807556,0.01542647288972353
-0.003722742530807556,0.01417575769505036
-0.003722572530807556,0.01397827634852337
-0.003722402530807556,0.01447197971484047
-0.003722232530807557,0.01374788144424375
-0.003722062530807556,0.0132541780779221
-0.003721892530807556,0.01289212894262263
-0.003721722530807556,0.0127604747116044
-0.003721552530807556,0.01216803067202345
-0.003721382530807556,0.01203637644100439
-0.003721212530807557,0.01177306797896865
-0.003721042530807556,0.01157558663243921
-0.003720872530807556,0.01095022903510376
-0.003720702530807556,0.01098314259285832
-0.003720532530807556,0.01091731547734933
-0.003720362530807556,0.01111479682387619
-0.003720192530807557,0.01104896970836767
-0.003720022530807557,0.01121353749713962
-0.003719852530807556,0.01187180865223136
-0.003719682530807556,0.0118388950944768
-0.003719512530807556,0.01246425269181225
-0.003719342530807556,0.01289212894262185
-0.003719172530807557,0.01315543740465813
-0.003719002530807557,0.01315543740465909
-0.003718832530807556,0.01325417807792276
