Analysis/New Tests_CMB/wrd01_d2s01/cmb08_ch13.csv

#Digilent WaveForms Oscilloscope Acquisition
#Device Name: ADP3450
#Serial Number: SN:210018B9D9B0
#Date Time: 2024-08-14 17:28:57.287.108.850
#Sample rate: 5.88235e+06Hz
#Samples: 32768
#Trigger: Source: Channel 3 Type: Edge Condition: Rising Level: 60 mV Hyst.: Auto HoldOff: 0 s
#Channel 3: Range: 100 mV/div Offset: 0 V Attenuation: 1 X Coupling: DC Bandwidth: 0 Hz Sample Mode: Average

Time (s),Channel 3 (V)
-0.003798438970454937,0.2079378721961281
-0.003798268970454937,0.220872900393711
-0.003798098970454937,0.2324255591655544
-0.003797928970454937,0.2422996264919012
-0.003797758970454937,0.2508242379503282
-0.003797588970454937,0.2575715172900002
-0.003797418970454937,0.2625414645109383
-0.003797248970454936,0.2657340796131401
-0.003797078970454937,0.268400077791251
-0.003796908970454937,0.2688279540420582
-0.003796738970454937,0.2685646455800217
-0.003796568970454937,0.2682684235602312
-0.003796398970454937,0.2661619558639396
-0.003796228970454936,0.2641213152831472
-0.003796058970454937,0.2614224035472728
-0.003795888970454937,0.2585260104648759
-0.003795718970454937,0.2550042597851387
-0.003795548970454937,0.2517458175674436
-0.003795378970454937,0.2482569804454605
-0.003795208970454936,0.2450314517855001
-0.003795038970454937,0.2412463926437262
-0.003794868970454937,0.2374942470597136
-0.003794698970454937,0.2338079285912029
-0.003794528970454937,0.2299570423339267
-0.003794358970454937,0.2265011187696983
-0.003794188970454937,0.2231439358787395
-0.003794018970454937,0.2191943089481759
-0.003793848970454937,0.2162650023080254
-0.003793678970454937,0.2131711278790973
-0.003793508970454937,0.2102418212389471
-0.003793338970454937,0.2074112552720551
-0.003793168970454937,0.2045148621896594
-0.003792998970454937,0.2018817775692785
-0.003792828970454937,0.1988537302558654
-0.003792658970454937,0.1961548185199911
-0.003792488970454937,0.1931267712065773
-0.003792318970454937,0.1901316374509127
-0.003792148970454937,0.1866098867711815
-0.003791978970454937,0.1830881360914256
-0.003791808970454937,0.1798296938737298
-0.003791638970454937,0.1762750296362375
-0.003791468970454937,0.1726216247254883
-0.003791298970454937,0.1695606638543145
-0.003791128970454937,0.1659401725013198
-0.003790958970454937,0.1633729149964466
-0.003790788970454937,0.1603119541252782
-0.003790618970454937,0.1571851661385948
-0.003790448970454937,0.153762156132127
-0.003790278970454937,0.1505366274721804
-0.003790108970454937,0.147376925927743
-0.003789938970454937,0.1446451006341053
-0.003789768970454937,0.1420449295714997
-0.003789598970454937,0.1392801907201193
-0.003789428970454937,0.1378319941789214
-0.003789258970454937,0.1348368604232567
-0.003789088970454937,0.1312821961857645
-0.003788918970454937,0.1286161980076368
-0.003788748970454937,0.1262464218493129
-0.003788578970454937,0.123810818575476
-0.003788408970454937,0.1215726966481668
-0.003788238970454937,0.1196966238561605
-0.003788068970454937,0.1178863781796598
-0.003787898970454937,0.1163723545229447
-0.003787728970454937,0.1148583308662383
-0.003787558970454937,0.1136405292293188
-0.003787388970454937,0.1119290242260827
-0.003787218970454937,0.1106783090314118
-0.003787048970454937,0.1090984582591931
-0.003786878970454936,0.1071565583516688
-0.003786708970454937,0.1056754482527129
-0.003786538970454937,0.1039639432494796
-0.003786368970454937,0.1025815738237871
-0.003786198970454937,0.1005738468007628
-0.003786028970454937,0.0987965146820167
-0.003785858970454936,0.09695335544775562
-0.003785688970454937,0.09534059111778354
-0.003785518970454937,0.09405696236535759
-0.003785348970454937,0.09247711159313991
-0.003785178970454937,0.09148970486050501
-0.003785008970454937,0.09007442187705905
-0.003784838970454936,0.08895536091339896
-0.003784668970454937,0.08754007792995433
-0.003784498970454937,0.08648684408180968
-0.003784328970454937,0.08503864754061001
-0.003784158970454937,0.0840512408079751
-0.003783988970454937,0.08253721715126547
-0.003783818970454937,0.08125358839884009
-0.003783648970454937,0.07993704608864995
-0.003783478970454937,0.07842302243194367
-0.003783308970454937,0.07723813435277957
-0.003783138970454937,0.07602033271586317
-0.003782968970454937,0.07476961752118999
-0.003782798970454937,0.07351890232651909
-0.003782628970454937,0.07272897694040362
-0.003782458970454937,0.0716757430922593
-0.003782288970454937,0.07039211433983311
-0.003782118970454937,0.06996423808902466
-0.003781948970454937,0.06845021443231503
-0.003781778970454937,0.06756154837294359
-0.003781608970454937,0.06621209250500168
-0.003781438970454937,0.06525759933012076
-0.003781268970454937,0.06403979769320191
-0.003781098970454937,0.06269034182526753
-0.003780928970454937,0.06193332999691272
-0.003780758970454937,0.06028765210918786
-0.003780588970454937,0.05969520806959829
-0.003780418970454937,0.05844449287492734
-0.003780248970454937,0.05716086412250074
-0.003780078970454937,0.0565025929674108
-0.003779908970454937,0.05347454565399155
-0.003779738970454937,0.05386950834704623
-0.003779568970454937,0.05258587959461467
-0.003779398970454937,0.05153264574646986
-0.003779228970454937,0.04998570853200592
-0.003779058970454937,0.04857042554856254
-0.003778888970454937,0.04738553746939848
-0.003778718970454937,0.0460689951592162
-0.003778548970454937,0.04554237823514053
-0.003778378970454937,0.04478536640678685
-0.003778208970454937,0.04389670034741507
-0.003778038970454937,0.04369921900088772
-0.003777868970454937,0.04350173765436074
-0.003777698970454937,0.04320551563456973
-0.003777528970454937,0.04284346649926936
-0.003777358970454937,0.04277763938375857
-0.003777188970454937,0.04172440553561538
-0.003777018970454937,0.0421193682286691
-0.003776848970454937,0.04198771399765112
-0.003776678970454937,0.04139526995806909
-0.003776508970454936,0.04047369034094005
-0.003776338970454937,0.04007872764788573
-0.003776168970454937,0.03978250562809495
-0.003775998970454937,0.03932171581953139
-0.003775828970454937,0.03899258024198642
-0.003775658970454937,0.03899258024198642
-0.003775488970454936,0.03849887687566698
-0.003775318970454937,0.03820265485587825
-0.003775148970454937,0.0385317904334222
-0.003774978970454937,0.03830139552914102
-0.003774808970454937,0.03846596331791351
-0.003774638970454937,0.03866344466444085
-0.003774468970454936,0.03876218533769984
-0.003774298970454937,0.03747855658527943
-0.003774128970454937,0.03820265485587584
-0.003773958970454937,0.03754438370078435
-0.003773788970454937,0.03668863119916742
-0.003773618970454937,0.03787351927833148
-0.003773448970454937,0.03507586686919921
-0.003773278970454937,0.03596453292856692
-0.003773108970454937,0.03589870581305661
-0.003772938970454937,0.03510878042694712
-0.003772768970454937,0.03425302792533019
-0.003772598970454937,0.03392389234778462
-0.003772428970454937,0.03208073311353277
-0.003772258970454937,0.03145537551618937
-0.003772088970454937,0.03050088234130973
-0.003771918970454937,0.02997426541723634
-0.003771748970454937,0.0291843400311284
-0.003771578970454937,0.02829567397175536
-0.003771408970454937,0.02767031637441991
-0.003771238970454937,0.02727535368136313
-0.003771068970454937,0.02701204521932751
-0.003770898970454937,0.02694621810381744
-0.003770728970454937,0.02635377406423649
-0.003770558970454937,0.0252676266583361
-0.003770388970454937,0.02671582319953398
-0.003770218970454937,0.02691330454606456
-0.003770048970454937,0.02707787233483722
-0.003769878970454937,0.02734118079687338
-0.003769708970454937,0.02743992147013687
-0.003769538970454937,0.02753866214340054
-0.003769368970454937,0.02783488416319156
-0.003769198970454937,0.02757157570115546
-0.003769028970454937,0.02767031637441824
-0.003768858970454937,0.02737409435462644
-0.003768688970454937,0.0266499960840275
-0.003768518970454937,0.0257284164668999
-0.003768348970454937,0.02483975040752686
-0.003768178970454937,0.02372068944386893
-0.003768008970454937,0.02289785050000667
-0.003767838970454937,0.02217375222940588
-0.003767668970454937,0.02115343193901533
-0.003767498970454937,0.02052807434167988
-0.003767328970454937,0.01993563030209785
-0.003767158970454937,0.01931027270475995
-0.003766988970454937,0.01894822356946162
-0.003766818970454937,0.01921153203149754
-0.003766648970454937,0.01917861847374292
-0.003766478970454937,0.01911279135823393
-0.003766308970454937,0.01940901337802494
-0.003766138970454937,0.02036350655290733
-0.003765968970454937,0.02042933366841777
-0.003765798970454937,0.02085720991922641
-0.003765628970454937,0.02138382684329855
-0.003765458970454937,0.02148256751656204
-0.003765288970454937,0.02197627088288039
-0.003765118970454936,0.02194335732512584
-0.003764948970454937,0.02194335732512548
-0.003764778970454937,0.02184461665186121
-0.003764608970454937,0.02131799972778769
-0.003764438970454937,0.02046224722617077
-0.003764268970454937,0.02003437097536152
-0.003764098970454936,0.01944192693577387
-0.003763928970454937,0.01789498972131376
-0.003763758970454937,0.01746711347050469
-0.003763588970454937,0.01671010164215012
-0.003763418970454937,0.01608474404481467
-0.003763248970454937,0.0155252135629872
-0.003763078970454937,0.01542647288972371
-0.003762908970454937,0.01509733731217604
-0.003762738970454937,0.01457072038810576
-0.003762568970454937,0.01496568308115943
-0.003762398970454937,0.01480111529238694
-0.003762228970454937,0.01522899154319619
-0.003762058970454937,0.01578852202502264
-0.003761888970454937,0.01565686779400603
-0.003761718970454937,0.01582143558277857
-0.003761548970454937,0.01601891692930622
-0.003761378970454937,0.01638096606460569
-0.003761208970454937,0.01700632366194227
-0.003761038970454937,0.01605183048706185
-0.003760868970454937,0.01634805250685137
-0.003760698970454937,0.01641387962236078
-0.003760528970454937,0.01671010164215216
-0.003760358970454937,0.01720380500846961
-0.003760188970454937,0.01720380500846961
-0.003760018970454937,0.01746711347050559
-0.003759848970454937,0.01717089145071493
-0.003759678970454937,0.01713797789295972
-0.003759508970454937,0.0167101016421518
-0.003759338970454937,0.01700632366194227
-0.003759168970454937,0.01634805250685113
-0.003758998970454937,0.01595308981379716
-0.003758828970454937,0.01631513894909693
-0.003758658970454937,0.01641387962236084
-0.003758488970454937,0.01674301519990671
-0.003758318970454937,0.01723671856622417
-0.003758148970454937,0.01756585414376974
-0.003757978970454937,0.01789498972131531
-0.003757808970454937,0.01845452020314446
-0.003757638970454937,0.01891531001170742
-0.003757468970454937,0.01937609982027014
-0.003757298970454937,0.01924444558925281
-0.003757128970454937,0.01960649472455228
-0.003756958970454937,0.02003437097536152
-0.003756788970454937,0.02036350655290602
-0.003756618970454937,0.02006728453311578
-0.003756448970454937,0.01990271674434324
-0.003756278970454937,0.01986980318658736
-0.003756108970454937,0.01911279135823393
-0.003755938970454937,0.01812538462559721
-0.003755768970454937,0.01717089145071051
-0.003755598970454937,0.01592017625603841
-0.003755428970454937,0.01496568308115799
-0.003755258970454937,0.01401118990627572
-0.003755088970454937,0.0129908696158863
-0.003754918970454937,0.01233259846079516
-0.003754748970454936,0.01190472220998209
-0.003754578970454937,0.01085148836183973
-0.003754408970454937,0.01075274768857582
-0.003754238970454937,0.01042361211103073
-0.003754068970454937,0.01035778499552173
-0.003753898970454937,0.01048943922653996
-0.003753728970454936,0.01124645105489478
-0.003753558970454937,0.01124645105489561
-0.003753388970454937,0.01147684595917781
-0.003753218970454937,0.0121022035565135
-0.003753048970454937,0.01223385778753149
-0.003752878970454937,0.01315543740465909
-0.003752708970454937,0.01325417807792258
-0.003752538970454937,0.01328709163568079
-0.003752368970454937,0.01424158481056025
-0.003752198970454937,0.01466946106136865
-0.003752028970454937,0.01463654750361416
-0.003751858970454937,0.0143732390415777
-0.003751688970454937,0.01578852202502108
-0.003751518970454937,0.01364914077097625
-0.003751348970454937,0.01332000519343157
-0.003751178970454937,0.01315543740465669
-0.003751008970454937,0.0118388950944768
-0.003750838970454937,0.01200346288324959
-0.003750668970454937,0.01127936461265065
-0.003750498970454937,0.01104896970836636
-0.003750328970454937,0.01075274768857588
-0.003750158970454937,0.0104565256687851
-0.003749988970454937,0.01029195788001262
-0.003749818970454937,0.01039069855327629
-0.003749648970454937,0.01085148836183925
-0.003749478970454937,0.01147684595917859
-0.003749308970454937,0.01200346288325043
-0.003749138970454937,0.01246425269181369
-0.003748968970454937,0.01262882048058617
-0.003748798970454937,0.01328709163567732
-0.003748628970454937,0.01358331365546779
-0.003748458970454937,0.01401118990627733
-0.003748288970454937,0.01394536279076822
-0.003748118970454937,0.01381370855974999
-0.003747948970454937,0.013682054328732
-0.003747778970454937,0.01351748653995922
-0.003747608970454937,0.01335291875118643
-0.003747438970454937,0.01289212894262179
-0.003747268970454937,0.01266173403833995
-0.003747098970454937,0.01223385778753131
-0.003746928970454937,0.01213511711426782
-0.003746758970454937,0.01157558663244035
-0.003746588970454937,0.011378105285913
-0.003746418970454937,0.01124645105489657
-0.003746248970454937,0.01174015442121331
-0.003746078970454937,0.01183889509447722
-0.003745908970454937,0.01206928999875882
-0.003745738970454937,0.01213511711426782
-0.003745568970454937,0.0127604747116044
-0.003745398970454937,0.01282630182711424
-0.003745228970454937,0.01302378317364134
-0.003745058970454937,0.01315543740465933
-0.003744888970454937,0.01328709163567744
-0.003744718970454937,0.01335291875118643
-0.003744548970454937,0.01348457298220466
-0.003744378970454936,0.01341874586669387
-0.003744208970454937,0.01295795605813055
-0.003744038970454937,0.01262882048058599
-0.003743868970454937,0.01253007980732172
-0.003743698970454937,0.01210220355651326
-0.003743528970454937,0.01236551201854972
-0.003743358970454936,0.01233259846079684
-0.003743188970454937,0.01279338826936135
-0.003743018970454937,0.0134516594244501
-0.003742848970454937,0.01345165942445106
-0.003742678970454937,0.01397827634852302
-0.003742508970454937,0.01440615259933226
-0.003742338970454936,0.01513025086993706
-0.003742168970454937,0.01638096606460006
-0.003741998970454937,0.01483402885014204
-0.003741828970454937,0.01513025086993144
-0.003741658970454937,0.01453780683035049
-0.003741488970454937,0.01407701702178669
-0.003741318970454937,0.01358331365546923
-0.003741148970454937,0.01292504250037396
-0.003740978970454937,0.01203637644100289
-0.003740808970454937,0.01134519172815761
-0.003740638970454937,0.01088440191959465
-0.003740468970454937,0.01039069855327629
-0.003740298970454937,0.01012739009124031
-0.003740128970454937,0.009765340955940305
-0.003739958970454937,0.009929908744712612
-0.003739788970454937,0.009995735860222265
-0.003739618970454937,0.01035778499552173
-0.003739448970454937,0.01088440191959465
-0.003739278970454937,0.01101605615061264
-0.003739108970454937,0.01174015442121469
-0.003738938970454937,0.01216803067202309
-0.003738768970454937,0.01256299336507766
-0.003738598970454937,0.01289212894262263
-0.003738428970454937,0.01351748653995922
-0.003738258970454937,0.01391244923301318
-0.003738088970454937,0.0143403254838253
-0.003737918970454937,0.01493276952340487
-0.003737748970454937,0.01476820173463352
-0.003737578970454937,0.01539355933196897
-0.003737408970454937,0.01542647288972353
-0.003737238970454937,0.01516316442768707
-0.003737068970454937,0.01486694240789522
-0.003736898970454937,0.01463654750361356
-0.003736728970454937,0.01430741192606877
-0.003736558970454937,0.01440615259933226
-0.003736388970454937,0.01447197971484137
-0.003736218970454937,0.01407701702178669
-0.003736048970454937,0.01312252384690705
-0.003735878970454937,0.01381370855974903
-0.003735708970454937,0.01315543740465951
-0.003735538970454937,0.01338583230894033
-0.003735368970454937,0.01302378317364086
-0.003735198970454937,0.01239842557630427
-0.003735028970454937,0.01269464759609206
-0.003734858970454937,0.01180598153672201
-0.003734688970454937,0.01167432730570378
-0.003734518970454937,0.01154267307468549
-0.003734348970454937,0.011378105285913
-0.003734178970454937,0.01006156297573072
-0.003734008970454936,0.00973242739818515
-0.003733838970454937,0.009732427398185988
-0.003733668970454937,0.009962822302467709
-0.003733498970454937,0.0103248714377676
-0.003733328970454937,0.01055526634204908
-0.003733158970454937,0.01058817989980363
-0.003732988970454936,0.0113122781704088
-0.003732818970454937,0.01266173403833582
-0.003732648970454937,0.01131227817040437
-0.003732478970454937,0.01157558663244053
-0.003732308970454937,0.01167432730570402
-0.003732138970454937,0.01213511711426782
-0.003731968970454936,0.01226677134528641
-0.003731798970454937,0.0123655120185496
-0.003731628970454937,0.01233259846079462
-0.003731458970454937,0.01203637644100433
-0.003731288970454937,0.01213511711426782
-0.003731118970454937,0.0120692899987587
-0.003730948970454937,0.01246425269181267
-0.003730778970454937,0.01266173403834253
-0.003730608970454937,0.01315543740465759
-0.003730438970454937,0.01233259846079774
-0.003730268970454937,0.01374788144424112
-0.003730098970454937,0.01364914077097745
-0.003729928970454937,0.01401118990627691
-0.003729758970454937,0.01397827634852577
-0.003729588970454937,0.01473528817687705
-0.003729418970454937,0.01430741192606889
-0.003729248970454937,0.01447197971484137
-0.003729078970454937,0.01397827634852302
-0.003728908970454937,0.01364914077097804
-0.003728738970454937,0.0133200051934296
-0.003728568970454937,0.01269464759609517
-0.003728398970454937,0.01262882048058528
-0.003728228970454937,0.01213511711426782
-0.003728058970454937,0.01187180865223136
-0.003727888970454937,0.01177306797896787
-0.003727718970454937,0.01150975951692944
-0.003727548970454937,0.01101605615061288
-0.003727378970454937,0.01101605615061222
-0.003727208970454937,0.01065400701531275
-0.003727038970454937,0.009469118936148692
-0.003726868970454937,0.01101605615061288
-0.003726698970454937,0.008481712203514614
-0.003726528970454937,0.009205810474112416
-0.003726358970454937,0.009304551147374591
-0.003726188970454937,0.008580452876775651
-0.003726018970454937,0.008185490183720966
-0.003725848970454937,0.00811966306821185
-0.003725678970454937,0.00752721902863102
-0.003725508970454937,0.007856354606175814
-0.003725338970454937,0.008086749510456456
-0.003725168970454937,0.007625959701893554
-0.003724998970454937,0.007658873259648051
-0.003724828970454937,0.007461391913120709
-0.003724658970454937,0.008020922394950695
-0.003724488970454937,0.00871210710779418
-0.003724318970454937,0.008876674896568281
-0.003724148970454937,0.009765340955940425
-0.003723978970454937,0.01016030364899439
-0.003723808970454937,0.01025904432225806
-0.003723638970454936,0.01078566124633062
-0.003723468970454937,0.01068692057306347
-0.003723298970454937,0.009633686724924232
-0.003723128970454937,0.01114771038163158
-0.003722958970454937,0.01141101884366756
-0.003722788970454937,0.01098314259285832
-0.003722618970454936,0.01101605615061324
-0.003722448970454937,0.01111479682387619
-0.003722278970454937,0.011016056150613
-0.003722108970454937,0.01108188326612175
-0.003721938970454937,0.01095022903510376
-0.003721768970454937,0.01150975951693123
-0.003721598970454936,0.01078566124633146
-0.003721428970454937,0.01091731547735196
-0.003721258970454937,0.0116743273057042
-0.003721088970454937,0.01177306797896853
-0.003720918970454937,0.01223385778753149
-0.003720748970454937,0.01249716624956795
-0.003720578970454937,0.01332000519343038
-0.003720408970454937,0.01328709163567672
-0.003720238970454937,0.01312252384690555
-0.003720068970454937,0.01368205432873266
-0.003719898970454937,0.01404410346403213
-0.003719728970454937,0.01420867125280492
-0.003719558970454937,0.01397827634852344
-0.003719388970454937,0.01318835096241388
-0.003719218970454937,0.0132541780779221
-0.003719048970454937,0.01289212894262132
