Analysis/New Tests_CMB/wrd01_d2s01/cmb01_ch15.csv

#Digilent WaveForms Oscilloscope Acquisition
#Device Name: ADP3450
#Serial Number: SN:210018B9D9B0
#Date Time: 2024-08-14 14:52:10.178.643.690
#Sample rate: 5.88235e+06Hz
#Samples: 32768
#Trigger: Source: Channel 3 Type: Edge Condition: Rising Level: 50 mV Hyst.: Auto HoldOff: 0 s
#Channel 3: Range: 100 mV/div Offset: 0 V Attenuation: 1 X Coupling: DC Bandwidth: 0 Hz Sample Mode: Average

Time (s),Channel 3 (V)
-0.003798391636993893,0.2120191533576931
-0.003798221636993893,0.2250200086707649
-0.003798051636993893,0.2369347165778929
-0.003797881636993893,0.2466771296732418
-0.003797711636993893,0.2554650495937202
-0.003797541636993893,0.2619161069136017
-0.003797371636993893,0.2672151897120854
-0.003797201636993893,0.2710989895271277
-0.003797031636993893,0.2736004199164695
-0.003796861636993893,0.2747853079956336
-0.003796691636993893,0.274653653764614
-0.003796521636993893,0.273929555494015
-0.003796351636993893,0.2722509640485326
-0.003796181636993893,0.2694862251971452
-0.003796011636993893,0.2669189676922944
-0.003795841636993893,0.2647137593227391
-0.003795671636993893,0.2594475900820057
-0.003795501636993893,0.2571436410391909
-0.003795331636993893,0.2529307056466076
-0.003795161636993893,0.2511204599700964
-0.003794991636993893,0.2452947602475504
-0.003794821636993893,0.2415426146635309
-0.003794651636993893,0.2367043216736198
-0.003794481636993893,0.2327876083008187
-0.003794311636993893,0.2287063271392536
-0.003794141636993893,0.2242300832846419
-0.003793971636993893,0.219984234334296
-0.003793801636993893,0.2160675209615036
-0.003793631636993893,0.2135660905721619
-0.003793461636993893,0.2098797721036469
-0.003793291636993893,0.206456762097173
-0.003793121636993893,0.2026717029554058
-0.003792951636993893,0.199248692948925
-0.003792781636993893,0.1957598558269419
-0.003792611636993893,0.1927318085135281
-0.003792441636993893,0.1890454900450123
-0.003792271636993893,0.1856553935962929
-0.003792101636993893,0.1819361615700347
-0.003791931636993893,0.1786448057945722
-0.003791761636993893,0.1753863635768711
-0.003791591636993893,0.1724899704944753
-0.003791421636993893,0.1695277502965599
-0.003791251636993893,0.1666313572141589
-0.003791081636993893,0.1641628403825716
-0.003790911636993893,0.1613981015311843
-0.003790741636993893,0.1589624982573471
-0.003790571636993893,0.1561319322904603
-0.003790401636993893,0.1535317612278451
-0.003790231636993893,0.1507999359342169
-0.003790061636993893,0.1481997648716069
-0.003789891636993893,0.1457970751555242
-0.003789721636993893,0.1432627312084233
-0.003789551636993893,0.1398726347597039
-0.003789381636993893,0.1370091552350575
-0.003789211636993893,0.13384945369062
-0.003789041636993893,0.1314138504167828
-0.003788871636993893,0.1282870624300953
-0.003788701636993893,0.1257856320407535
-0.003788531636993893,0.1233829423246708
-0.003788361636993893,0.1213093881861297
-0.003788191636993893,0.1191041798165784
-0.003788021636993893,0.1175243290443597
-0.003787851636993893,0.1152862071170458
-0.003787681636993893,0.113113912305249
-0.003787511636993893,0.1113694937442575
-0.003787341636993893,0.109394680278982
-0.003787171636993893,0.1082427057575746
-0.003787001636993893,0.1057741889259828
-0.003786831636993893,0.1040626839227422
-0.003786661636993893,0.1020878704574724
-0.003786491636993893,0.1004751061274991
-0.003786321636993893,0.09879651468201418
-0.003786151636993893,0.09741414525632527
-0.003785981636993893,0.09543933179105185
-0.003785811636993893,0.0940898759231137
-0.003785641636993893,0.09336577765251475
-0.003785471636993893,0.08888953379789499
-0.003785301636993893,0.08898827447115712
-0.003785131636993893,0.08813252196954019
-0.003784961636993893,0.08638810340854866
-0.003784791636993893,0.08474242552081893
-0.003784621636993893,0.08372210523042953
-0.003784451636993893,0.0828992662865656
-0.003784281636993893,0.0816156375341402
-0.003784111636993893,0.08066114435925573
-0.003783941636993893,0.07964082406886444
-0.003783771636993893,0.07786349195012159
-0.003783601636993893,0.07704065300625443
-0.003783431636993893,0.07575702425382672
-0.003783261636993893,0.07463796329017382
-0.003783091636993893,0.07305811251795302
-0.003782921636993893,0.07131369395696149
-0.003782751636993893,0.07016171943555409
-0.003782581636993893,0.06861478222108783
-0.003782411636993893,0.06805525173926033
-0.003782241636993893,0.06650831452479898
-0.003782071636993893,0.065553821349914
-0.003781901636993893,0.06450058750176818
-0.003781731636993893,0.06371066211566026
-0.003781561636993893,0.06292073672954943
-0.003781391636993893,0.06272325538302209
-0.003781221636993893,0.06190041643915966
-0.003781051636993893,0.06101175037978512
-0.003780881636993893,0.06058387412897588
-0.003780711636993893,0.05995851653164044
-0.003780541636993893,0.05930024537654816
-0.003780371636993893,0.0588065420102298
-0.003780201636993893,0.05798370306636737
-0.003780031636993893,0.05725960479576561
-0.003779861636993893,0.05663424719842903
-0.003779691636993893,0.05646967940965624
-0.003779521636993893,0.0553506184460013
-0.003779351636993893,0.0546594337331556
-0.003779181636993893,0.05406698969357357
-0.003779011636993893,0.05291501517216408
-0.003778841636993893,0.05324415074970965
-0.003778671636993893,0.0512035101689271
-0.003778501636993893,0.05077563391811786
-0.003778331636993893,0.04955783228119925
-0.003778161636993893,0.04794506795122595
-0.003777991636993893,0.04771467304694285
-0.003777821636993893,0.04705640189185291
-0.003777651636993893,0.04626647650574354
-0.003777481636993893,0.04567403246616007
-0.003777311636993893,0.04488410708005214
-0.003777141636993893,0.04478536640678847
-0.003776971636993893,0.04363339188537885
-0.003776801636993893,0.04356756476986986
-0.003776631636993893,0.04304094784579694
-0.003776461636993893,0.04261307159498668
-0.003776291636993893,0.04205354111316023
-0.003776121636993893,0.04429166304047012
-0.003775951636993893,0.04119778861154061
-0.003775781636993893,0.04057243101420516
-0.003775611636993893,0.04004581409013225
-0.003775441636993893,0.03938754293503907
-0.003775271636993893,0.03826848197138616
-0.003775101636993893,0.03790643283608603
-0.003774931636993893,0.03665571764141161
-0.003774761636993893,0.03596453292856716
-0.003774591636993893,0.03451633638736665
-0.003774421636993893,0.03234404157556475
-0.003774251636993893,0.03171868397822929
-0.003774081636993893,0.03069836368783803
-0.003773911636993893,0.02944764849316372
-0.003773741636993893,0.02882229089582827
-0.003773571636993893,0.02799945195196434
-0.003773401636993893,0.02743992147013789
-0.003773231636993893,0.02717661300810041
-0.003773061636993893,0.02661708252627295
-0.003772891636993893,0.02645251473750046
-0.003772721636993893,0.02655125541076383
-0.003772551636993893,0.02586007069791813
-0.003772381636993893,0.027374094354625
-0.003772211636993893,0.02747283502789143
-0.003772041636993893,0.02674873675729117
-0.003771871636993893,0.02704495877708165
-0.003771701636993893,0.02638668762199104
-0.003771531636993893,0.02612337915995459
-0.003771361636993893,0.0260246384866911
-0.003771191636993893,0.02586007069791813
-0.003771021636993893,0.02500431819629965
-0.003770851636993893,0.02470809617650917
-0.003770681636993893,0.02372068944387192
-0.003770511636993893,0.02325989963530812
-0.003770341636993893,0.02372068944387108
-0.003770171636993893,0.02250288780695331
-0.003770001636993893,0.02293076405776255
-0.003769831636993893,0.02250288780695408
-0.003769661636993893,0.02210792511389862
-0.003769491636993893,0.02154839463207115
-0.003769321636993893,0.02042933366841621
-0.003769151636993893,0.02082429636147089
-0.003768981636993893,0.02013311164862519
-0.003768811636993893,0.01980397607107963
-0.003768641636993893,0.01898113712721569
-0.003768471636993893,0.01878365578068835
-0.003768301636993893,0.01848743376089734
-0.003768131636993893,0.01825703885661544
-0.003767961636993893,0.01842160664538823
-0.003767791636993893,0.01763168125927886
-0.003767621636993893,0.01792790327906885
-0.003767451636993893,0.0173683727972424
-0.003767281636993893,0.01697341010418771
-0.003767111636993893,0.01687466943092392
-0.003766941636993893,0.01680884231541493
-0.003766771636993893,0.01513025086993251
-0.003766601636993893,0.01486694240789941
-0.003766431636993893,0.01671010164215126
-0.003766261636993893,0.0171379778929605
-0.003766091636993893,0.01720380500846985
-0.003765921636993893,0.01733545923948784
-0.003765751636993893,0.01720380500846961
-0.003765581636993893,0.01766459481703371
-0.003765411636993893,0.0178291626058062
-0.003765241636993893,0.0178291626058062
-0.003765071636993893,0.01773042193254271
-0.003764901636993893,0.0178291626058062
-0.003764731636993893,0.01763168125927886
-0.003764561636993893,0.01756585414376908
-0.003764391636993893,0.01720380500846961
-0.003764221636993893,0.01740128635499695
-0.003764051636993893,0.01710506433520564
-0.003763881636993893,0.01694049654643316
-0.003763711636993893,0.01657844741113303
-0.003763541636993893,0.01628222539134148
-0.003763371636993893,0.015986003371551
-0.003763201636993893,0.01572269490951454
-0.003763031636993893,0.0150973373121791
-0.003762861636993893,0.01476820173463239
-0.003762691636993893,0.0150644237544234
-0.003762521636993893,0.01493276952340541
-0.003762351636993893,0.01466946106136872
-0.003762181636993893,0.0143732390415777
-0.003762011636993893,0.01453780683035019
-0.003761841636993893,0.01536064577421441
-0.003761671636993893,0.01486694240789606
-0.003761501636993893,0.01480111529238706
-0.003761331636993893,0.01493276952340517
-0.003761161636993893,0.01463654750361416
-0.003760991636993893,0.01394536279076972
-0.003760821636993893,0.01470237461912327
-0.003760651636993893,0.01480111529238694
-0.003760481636993893,0.01368205432873404
-0.003760311636993893,0.01332000519343187
-0.003760141636993893,0.01325417807792276
-0.003759971636993893,0.01299086961588678
-0.003759801636993893,0.01223385778753149
-0.003759631636993893,0.01233259846079516
-0.003759461636993893,0.01206928999875918
-0.003759291636993893,0.01203637644100415
-0.003759121636993893,0.01210220355651326
-0.003758951636993893,0.01236551201854924
-0.003758781636993893,0.01187180865223136
-0.003758611636993893,0.01213511711426782
-0.003758441636993893,0.01216803067202238
-0.003758271636993893,0.0120692899987587
-0.003758101636993893,0.0118388950944768
-0.003757931636993893,0.01223385778753149
-0.003757761636993893,0.01216803067202238
-0.003757591636993893,0.01200346288324959
-0.003757421636993893,0.01170724086345858
-0.003757251636993893,0.01266173403833768
-0.003757081636993893,0.01098314259285832
-0.003756911636993893,0.01134519172815845
-0.003756741636993893,0.01039069855327557
-0.003756571636993893,0.009995735860221606
-0.003756401636993893,0.009436205378394135
-0.003756231636993893,0.009074156243094126
-0.003756061636993893,0.009139983358603122
-0.003755891636993893,0.009370378262885021
-0.003755721636993893,0.008712107107794478
-0.003755551636993893,0.00904124268533945
-0.003755381636993893,0.009370378262885021
-0.003755211636993893,0.009995735860222324
-0.003755041636993893,0.01039069855327629
-0.003754871636993893,0.01042361211103085
-0.003754701636993893,0.01045652566878618
-0.003754531636993893,0.01088440191959465
-0.003754361636993893,0.01068692057306731
-0.003754191636993893,0.01091731547734939
-0.003754021636993893,0.01101605615061288
-0.003753851636993893,0.01104896970836743
-0.003753681636993893,0.0105223527842938
-0.003753511636993893,0.01012739009123984
-0.003753341636993893,0.009798254513694264
-0.003753171636993893,0.009567859609411167
-0.003753001636993893,0.008909588454321223
-0.003752831636993893,0.008415885088002865
-0.003752661636993893,0.007922181721685406
-0.003752491636993893,0.007329737682102481
-0.003752321636993893,0.007230997008838809
-0.003752151636993893,0.006770207200275847
-0.003751981636993893,0.00677020720027501
-0.003751811636993893,0.007362651239857037
-0.003751641636993893,0.006276503833958629
-0.003751471636993893,0.007362651239857037
-0.003751301636993893,0.007362651239857037
-0.003751131636993893,0.007230997008839049
-0.003750961636993893,0.007494305470875266
-0.003750791636993893,0.00756013258638438
-0.003750621636993893,0.007658873259647872
-0.003750451636993893,0.00779052749066628
-0.003750281636993893,0.008251317299230079
-0.003750111636993893,0.008251317299230079
-0.003749941636993893,0.007988008837193623
-0.003749771636993893,0.008086749510457293
-0.003749601636993893,0.008284230856984277
-0.003749431636993893,0.008448798645757422
-0.003749261636993893,0.008646279992284765
-0.003749091636993893,0.00894250201207524
-0.003748921636993893,0.009600773167166921
-0.003748751636993893,0.01006156297573072
-0.003748581636993893,0.01098314259285664
-0.003748411636993893,0.01118062393938566
-0.003748241636993893,0.01203637644100415
-0.003748071636993893,0.01249716624956795
-0.003747901636993893,0.01381370855975023
-0.003747731636993893,0.0125300798073225
-0.003747561636993893,0.01325417807792276
-0.003747391636993893,0.01295795605813175
-0.003747221636993893,0.01272756115384985
-0.003747051636993893,0.01249716624956795
-0.003746881636993893,0.01203637644100415
-0.003746711636993893,0.01150975951693123
-0.003746541636993893,0.01095022903510376
-0.003746371636993893,0.01052235278429446
-0.003746201636993893,0.01048943922653996
-0.003746031636993893,0.01055526634204908
-0.003745861636993893,0.01006156297573132
-0.003745691636993893,0.01039069855327629
-0.003745521636993893,0.009337464705130465
-0.003745351636993893,0.00881084778105779
-0.003745181636993893,0.008942502012075779
-0.003745011636993893,0.00871210710779388
-0.003744841636993893,0.009008329127583635
-0.003744671636993893,0.008317144414739193
-0.003744501636993893,0.009403291820639578
-0.003744331636993893,0.009567859609412843
-0.003744161636993893,0.00983116807144882
-0.003743991636993893,0.01019321720674895
-0.003743821636993893,0.0100944765334848
-0.003743651636993893,0.00983116807144882
-0.003743481636993893,0.009600773167166921
-0.003743311636993893,0.00996282230246651
-0.003743141636993893,0.009666600282676035
-0.003742971636993893,0.009469118936148692
-0.003742801636993893,0.009107069800848504
-0.003742631636993893,0.009074156243094007
-0.003742461636993893,0.00904124268533945
-0.003742291636993893,0.009008329127584593
-0.003742121636993893,0.008843761338812107
-0.003741951636993893,0.009238724031866792
-0.003741781636993893,0.008020922394950395
-0.003741611636993893,0.007691786817402609
-0.003741441636993893,0.007527219028629823
-0.003741271636993893,0.007033515662312364
-0.003741101636993893,0.006572725853747667
-0.003740931636993893,0.006704380084765896
-0.003740761636993893,0.006506898738238912
-0.003740591636993893,0.00630941739171121
-0.003740421636993893,0.006737293642520453
-0.003740251636993893,0.006803120758029448
-0.003740081636993893,0.008086749510457293
-0.003739911636993893,0.007889268163929951
-0.003739741636993893,0.008448798645756404
-0.003739571636993893,0.008942502012075779
-0.003739401636993893,0.009172896916357679
-0.003739231636993893,0.009008329127585193
-0.003739061636993893,0.009699513840430593
-0.003738891636993893,0.009929908744712493
-0.003738721636993893,0.009864081629203497
-0.003738551636993893,0.01035778499552173
-0.003738381636993893,0.008942502012075779
-0.003738211636993893,0.01167432730569905
-0.003738041636993893,0.01144393240142212
-0.003737871636993893,0.01091731547734921
-0.003737701636993893,0.01088440191959471
-0.003737531636993893,0.01095022903510376
-0.003737361636993893,0.01177306797896769
-0.003737191636993893,0.01157558663244035
-0.003737021636993893,0.0118388950944768
-0.003736851636993893,0.01167432730570402
-0.003736681636993893,0.01157558663244035
-0.003736511636993893,0.01058817989980363
-0.003736341636993893,0.01111479682387655
-0.003736171636993893,0.01088440191959465
-0.003736001636993893,0.01088440191959495
-0.003735831636993893,0.01104896970836743
-0.003735661636993893,0.01108188326612199
-0.003735491636993893,0.01104896970836665
-0.003735321636993893,0.01062109345755819
-0.003735151636993893,0.01039069855327629
-0.003734981636993893,0.01029195788001208
-0.003734811636993893,0.009995735860221606
-0.003734641636993893,0.009699513840430593
-0.003734471636993893,0.009271637589620631
-0.003734301636993893,0.008876674896566664
-0.003734131636993893,0.008745020665548437
-0.003733961636993893,0.008218403741475403
-0.003733791636993893,0.008152576625966409
-0.003733621636993893,0.00802092239494818
-0.003733451636993893,0.007724700375158123
-0.003733281636993893,0.008251317299230079
-0.003733111636993893,0.008415885088002865
-0.003732941636993893,0.008580452876775771
-0.003732771636993893,0.008646279992284765
-0.003732601636993893,0.009139983358603122
-0.003732431636993893,0.008942502012076737
-0.003732261636993893,0.009469118936148692
-0.003732091636993893,0.009567859609412364
-0.003731921636993893,0.009633686724920699
-0.003731751636993893,0.009205810474112236
-0.003731581636993893,0.008909588454321223
-0.003731411636993893,0.008876674896566725
-0.003731241636993893,0.008613366434530208
-0.003731071636993893,0.008152576625966409
-0.003730901636993893,0.00848171220351138
-0.003730731636993893,0.007988008837193623
-0.003730561636993893,0.007889268163929951
-0.003730391636993893,0.00683603431578604
-0.003730221636993893,0.007099342777820581
-0.003730051636993893,0.007329737682102481
-0.003729881636993893,0.006342330949467564
-0.003729711636993893,0.006836034315784124
-0.003729541636993893,0.005618232678865511
-0.003729371636993893,0.005453664890093025
-0.003729201636993893,0.005025788639283483
-0.003729031636993893,0.004894134408265255
-0.003728861636993893,0.005453664890091708
-0.003728691636993893,0.00482830729275614
-0.003728521636993893,0.004992875081528926
-0.003728351636993893,0.004927047966019931
-0.003728181636993893,0.004795393735001583
-0.003728011636993893,0.00528909710131994
-0.003727841636993893,0.005025788639283961
-0.003727671636993893,0.005684059794374625
-0.003727501636993893,0.005815714025392853
-0.003727331636993893,0.006605639411500787
-0.003727161636993893,0.007263910566593366
-0.003726991636993893,0.007889268163929951
-0.003726821636993893,0.006704380084765896
-0.003726651636993893,0.007593046144138938
-0.003726481636993893,0.007691786817402609
-0.003726311636993893,0.007165169893329695
-0.003726141636993893,0.007395564797611595
-0.003725971636993893,0.00811966306821185
-0.003725801636993893,0.00802092239494818
-0.003725631636993893,0.008317144414739193
-0.003725461636993893,0.008843761338812107
-0.003725291636993893,0.008745020665548437
-0.003725121636993893,0.008975415569829797
-0.003724951636993893,0.008679193550039321
-0.003724781636993893,0.009139983358603122
-0.003724611636993893,0.009370378262885681
-0.003724441636993893,0.00973242739818515
-0.003724271636993893,0.01006156297573072
-0.003724101636993893,0.01032487143776628
-0.003723931636993893,0.00983116807144882
-0.003723761636993893,0.009436205378394135
-0.003723591636993893,0.009008329127584414
-0.003723421636993893,0.008745020665548437
-0.003723251636993893,0.008876674896566664
-0.003723081636993893,0.008679193550039082
-0.003722911636993893,0.008547539319021094
-0.003722741636993893,0.008448798645757422
-0.003722571636993893,0.007955095279439545
-0.003722401636993893,0.008218403741475522
-0.003722231636993893,0.007823441048420837
-0.003722061636993893,0.008053835952704473
-0.003721891636993893,0.009008329127584893
-0.003721721636993893,0.00881084778105755
-0.003721551636993893,0.008942502012074641
-0.003721381636993893,0.008317144414739193
-0.003721211636993893,0.009436205378394135
-0.003721041636993893,0.009436205378395752
-0.003720871636993893,0.01032487143776718
-0.003720701636993893,0.01048943922653996
-0.003720531636993893,0.01039069855327647
-0.003720361636993893,0.01052235278429452
-0.003720191636993893,0.01048943922653996
-0.003720021636993893,0.01039069855327647
-0.003719851636993893,0.01042361211103085
-0.003719681636993893,0.01009447653348528
-0.003719511636993893,0.0122009442297731
