Analysis/New Tests_CMB/wrd01_d2s01/cmb08_ch42.csv

#Digilent WaveForms Oscilloscope Acquisition
#Device Name: ADP3450
#Serial Number: SN:210018B9D9B0
#Date Time: 2024-08-14 17:46:12.636.848.960
#Sample rate: 5.88235e+06Hz
#Samples: 32768
#Trigger: Source: Channel 3 Type: Edge Condition: Rising Level: 60 mV Hyst.: Auto HoldOff: 0 s
#Channel 3: Range: 100 mV/div Offset: 0 V Attenuation: 1 X Coupling: DC Bandwidth: 0 Hz Sample Mode: Average

Time (s),Channel 3 (V)
-0.003798487090184556,0.2126774245127843
-0.003798317090184556,0.225316230690555
-0.003798147090184556,0.2367372352313655
-0.003797977090184556,0.2461505127491689
-0.003797807090184556,0.2540168530525184
-0.003797637090184556,0.2597438121018009
-0.003797467090184556,0.2639896610521388
-0.003797297090184556,0.2670835354810704
-0.003797127090184556,0.2688937811575678
-0.003796957090184556,0.2696178794281681
-0.003796787090184556,0.2706381997185562
-0.003796617090184556,0.2688937811575678
-0.003796447090184556,0.2665569185569943
-0.003796277090184556,0.2641542288409062
-0.003796107090184556,0.2611920086430015
-0.003795937090184556,0.2580981342140731
-0.003795767090184556,0.2543130750722914
-0.003795597090184556,0.2501330532374703
-0.003795427090184556,0.2463479940956962
-0.003795257090184556,0.2419375773565768
-0.003795087090184556,0.2371321979244202
-0.003794917090184556,0.2331825709938734
-0.003794747090184556,0.2293645982943517
-0.003794577090184556,0.2251516629017614
-0.003794407090184556,0.2209387275091781
-0.003794237090184556,0.2171536683674109
-0.003794067090184556,0.2136977448031755
-0.003793897090184556,0.2101101670079288
-0.003793727090184556,0.2058314044998442
-0.003793557090184556,0.2026058758398898
-0.003793387090184556,0.1994132607376977
-0.003793217090184556,0.1960231642889845
-0.003793047090184556,0.1928963763022954
-0.003792877090184556,0.1898354154311216
-0.003792707090184556,0.1873339850417798
-0.003792537090184556,0.184305937728356
-0.003792367090184556,0.181409544645955
-0.003792197090184556,0.1790068549298767
-0.003792027090184556,0.1761104618474713
-0.003791857090184556,0.173312809438334
-0.003791687090184556,0.1706797248179742
-0.003791517090184556,0.1685403435639232
-0.003791347090184556,0.164985679326431
-0.003791177090184556,0.1633070878809517
-0.003791007090184556,0.1612664473001661
-0.003790837090184556,0.1570535119075828
-0.003790667090184556,0.1554736611353669
-0.003790497090184556,0.1539267239208998
-0.003790327090184556,0.1514252935315535
-0.003790157090184556,0.1485947275646616
-0.003789987090184556,0.1465211734261245
-0.003789817090184556,0.1440855701522873
-0.003789647090184556,0.1415183126474318
-0.003789477090184556,0.1389839687003309
-0.003789307090184556,0.1361863162911935
-0.003789137090184556,0.1339481943638837
-0.003788967090184556,0.1311505419547402
-0.003788797090184556,0.1277933590637815
-0.003788627090184556,0.1249957066546441
-0.003788457090184556,0.1220664000144831
-0.003788287090184556,0.1190712662588239
-0.003788117090184556,0.1159444782721409
-0.003787947090184556,0.1135747021138086
-0.003787777090184556,0.1112707530709938
-0.003787607090184556,0.1091971989324567
-0.003787437090184556,0.107288212582691
-0.003787267090184556,0.1065312007543376
-0.003787097090184556,0.1037006347874457
-0.003786927090184556,0.102054956899717
-0.003786757090184556,0.101594167091154
-0.003786587090184556,0.09958644006812606
-0.003786417090184556,0.09840155198895864
-0.003786247090184556,0.09655839275470679
-0.003786077090184556,0.09514310977126084
-0.003785907090184556,0.09389239457658487
-0.003785737090184556,0.09234545736212349
-0.003785567090184556,0.0909630879364321
-0.003785397090184556,0.0896465456262477
-0.003785227090184556,0.0884945711048403
-0.003785057090184556,0.08754007792995816
-0.003784887090184556,0.08546652379141986
-0.003784717090184556,0.08480825263632991
-0.003784547090184556,0.08257013070902003
-0.003784377090184556,0.08089153926354067
-0.003784207090184556,0.07934460204907343
-0.003784037090184556,0.07806097329664571
-0.003783867090184556,0.07664569031320234
-0.003783697090184556,0.07536206156077202
-0.003783527090184556,0.07381512434630783
-0.003783357090184556,0.07292645828693642
-0.003783187090184556,0.07170865665001619
-0.003783017090184556,0.07121495328369781
-0.003782847090184556,0.07022754655106291
-0.003782677090184556,0.06947053472270631
-0.003782507090184556,0.06858186866333327
-0.003782337090184556,0.06775902971947081
-0.003782167090184556,0.06713367212213275
-0.003781997090184556,0.06624500606275971
-0.003781827090184556,0.06525759933012477
-0.003781657090184556,0.0644018468285045
-0.003781487090184556,0.06351318076913146
-0.003781317090184556,0.06252577403649655
-0.003781147090184556,0.06167002153487627
-0.003780977090184556,0.06058387412897588
-0.003780807090184556,0.05979394874286795
-0.003780637090184556,0.05847740643268422
-0.003780467090184556,0.05725960479576561
-0.003780297090184556,0.0562721980631307
-0.003780127090184556,0.05544935911926497
-0.003779957090184556,0.05403407613581902
-0.003779787090184556,0.05344163209623699
-0.003779617090184556,0.05242131180584571
-0.003779447090184556,0.05182886776626369
-0.003779277090184556,0.05094020170689065
-0.003779107090184556,0.05044649834057229
-0.003778937090184556,0.04991988141649938
-0.003778767090184556,0.04939326449242647
-0.003778597090184556,0.04883373401059899
-0.003778427090184556,0.04827420352877152
-0.003778257090184556,0.04735262391164392
-0.003778087090184556,0.04669435275654985
-0.003777917090184556,0.04508158842657949
-0.003777747090184556,0.04494993419556125
-0.003777577090184556,0.04475245284903247
-0.003777407090184556,0.04396252746292454
-0.003777237090184556,0.04277763938376049
-0.003777067090184556,0.04215228178642372
-0.003776897090184556,0.04205354111316023
-0.003776727090184556,0.04113196149603263
-0.003776557090184556,0.03981541918585196
-0.003776387090184556,0.04070408524522338
-0.003776217090184556,0.0386963582221954
-0.003776047090184556,0.03876218533770374
-0.003775877090184556,0.03833430908689527
-0.003775707090184556,0.03872927177994996
-0.003775537090184556,0.03807100062485852
-0.003775367090184556,0.03790643283608603
-0.003775197090184556,0.03741272946976767
-0.003775027090184556,0.03691902610344932
-0.003774857090184556,0.03691902610344932
-0.003774687090184556,0.03629366850611274
-0.003774517090184556,0.03583287869754864
-0.003774347090184556,0.03566831090877615
-0.003774177090184556,0.03563539735102159
-0.003774007090184556,0.03537208888898466
-0.003773837090184556,0.03510878042694868
-0.003773667090184556,0.03431885504083931
-0.003773497090184556,0.03313396696167741
-0.003773327090184556,0.03155411618945651
-0.003773157090184556,0.0305667094568198
-0.003772987090184556,0.02944764849316689
-0.003772817090184556,0.0289539451268465
-0.003772647090184556,0.02767031637441877
-0.003772477090184556,0.02707787233483782
-0.003772307090184556,0.02632086050648193
-0.003772137090184556,0.02569550290914535
-0.003771967090184556,0.02516888598507339
-0.003771797090184556,0.02500431819629965
-0.003771627090184556,0.02451061482998129
-0.003771457090184556,0.02457644194549028
-0.003771287090184556,0.02431313348345395
-0.003771117090184556,0.02404982502141749
-0.003770947090184556,0.02428021992569897
-0.003770777090184556,0.02414856569468116
-0.003770607090184556,0.02391817079039926
-0.003770437090184556,0.02385234367489027
-0.003770267090184556,0.02375360300162648
-0.003770097090184556,0.02372068944387192
-0.003769927090184556,0.02332572675081795
-0.003769757090184556,0.02270036915348065
-0.003769587090184556,0.02273328271123521
-0.003769417090184556,0.02210792511389862
-0.003769247090184556,0.02260162848021698
-0.003769077090184556,0.02227249290267141
-0.003768907090184556,0.02207501155614406
-0.003768737090184556,0.02233832001818052
-0.003768567090184556,0.02302950473102622
-0.003768397090184556,0.02256871492246242
-0.003768227090184556,0.02266745559572609
-0.003768057090184556,0.02263454203797154
-0.003767887090184556,0.02168004886308938
-0.003767717090184556,0.02210792511389748
-0.003767547090184556,0.02148256751656204
-0.003767377090184556,0.02177878953635305
-0.003767207090184556,0.02177878953635281
-0.003767037090184556,0.02164713530533482
-0.003766867090184556,0.0217458759785985
-0.003766697090184556,0.02151548107431647
-0.003766527090184556,0.02144965395880748
-0.003766357090184556,0.02171296242084393
-0.003766187090184556,0.0219433573251253
-0.003766017090184556,0.02164713530533482
-0.003765847090184556,0.02243706069144419
-0.003765677090184556,0.02237123357593448
-0.003765507090184556,0.02204209799838951
-0.003765337090184556,0.02197627088288039
-0.003765167090184556,0.02210792511389868
-0.003764997090184556,0.02214083867165318
-0.003764827090184556,0.02240414713368964
-0.003764657090184556,0.02237123357593466
-0.003764487090184556,0.02214083867165318
-0.003764317090184556,0.02191044376737128
-0.003764147090184556,0.02177878953635281
-0.003763977090184556,0.02164713530533482
-0.003763807090184556,0.02168004886308938
-0.003763637090184556,0.02194335732512637
-0.003763467090184556,0.02223957934491685
-0.003763297090184556,0.02260162848021698
-0.003763127090184556,0.02279910982674396
-0.003762957090184556,0.02256871492246242
-0.003762787090184556,0.02260162848021698
-0.003762617090184556,0.02227249290267201
-0.003762447090184556,0.02187753020961672
-0.003762277090184556,0.02135091328554381
-0.003762107090184556,0.02062681501494487
-0.003761937090184556,0.02019893876413431
-0.003761767090184556,0.01940901337802494
-0.003761597090184556,0.01894822356946198
-0.003761427090184556,0.01825703885661544
-0.003761257090184556,0.01753294058601518
-0.003761087090184556,0.01684175587317074
-0.003760917090184556,0.01661136096888758
-0.003760747090184556,0.0162163982758329
-0.003760577090184556,0.01568978135176094
-0.003760407090184556,0.01562395423625087
-0.003760237090184556,0.01522899154319619
-0.003760067090184556,0.0150973373121782
-0.003759897090184556,0.01526190510095074
-0.003759727090184556,0.0148340288501415
-0.003759557090184556,0.01473528817687801
-0.003759387090184556,0.0148340288501415
-0.003759217090184556,0.01473528817687783
-0.003759047090184556,0.01460363394585984
-0.003758877090184556,0.01559104067849632
-0.003758707090184556,0.01516316442768707
-0.003758537090184556,0.01526190510095074
-0.003758367090184556,0.01513025086993251
-0.003758197090184556,0.01509733731217796
-0.003758027090184556,0.01526190510095074
-0.003757857090184556,0.01545938644747809
-0.003757687090184556,0.01578852202502366
-0.003757517090184556,0.01542647288972353
-0.003757347090184556,0.0155252135629872
-0.003757177090184556,0.0155252135629872
-0.003757007090184556,0.01516316442768707
-0.003756837090184556,0.01522899154319655
-0.003756667090184556,0.01542647288972353
-0.003756497090184556,0.0152948186587053
-0.003756327090184556,0.01513025086993156
-0.003756157090184556,0.0146036339458596
-0.003755987090184556,0.0141428441372958
-0.003755817090184556,0.01358331365546749
-0.003755647090184556,0.01312252384690453
-0.003755477090184556,0.01315543740465909
-0.003755307090184556,0.01285921538486694
-0.003755137090184556,0.01223385778753149
-0.003754967090184556,0.01210220355651326
-0.003754797090184556,0.01193763576774048
-0.003754627090184556,0.01193763576774048
-0.003754457090184556,0.01210220355651326
-0.003754287090184556,0.01160850019019436
-0.003754117090184556,0.01131227817040389
-0.003753947090184556,0.01088440191959465
-0.003753777090184556,0.01111479682387583
-0.003753607090184556,0.01071983413082186
-0.003753437090184556,0.01025904432225806
-0.003753267090184556,0.01025904432225848
-0.003753097090184556,0.01048943922653996
-0.003752927090184556,0.01078566124633098
-0.003752757090184556,0.01095022903510346
-0.003752587090184556,0.01157558663244035
-0.003752417090184556,0.01193763576774048
-0.003752247090184556,0.01243133913405793
-0.003752077090184556,0.01302378317364086
-0.003751907090184556,0.01341874586669555
-0.003751737090184556,0.01341874586669555
-0.003751567090184556,0.01371496788648656
-0.003751397090184556,0.0141428441372958
-0.003751227090184556,0.01450489327259527
-0.003751057090184556,0.01447197971484137
-0.003750887090184556,0.01424158481055947
-0.003750717090184556,0.01447197971484095
-0.003750547090184556,0.01503151019666884
-0.003750377090184556,0.01499859663891429
-0.003750207090184556,0.01526190510095026
-0.003750037090184556,0.01559104067849632
-0.003749867090184556,0.0155252135629872
-0.003749697090184556,0.01542647288972371
-0.003749527090184556,0.01618348471807834
-0.003749357090184556,0.01545938644747809
-0.003749187090184556,0.01516316442768761
-0.003749017090184556,0.01559104067849632
-0.003748847090184556,0.01513025086993251
-0.003748677090184556,0.01509733731217802
-0.003748507090184556,0.01562395423625087
-0.003748337090184556,0.01443906615708682
-0.003748167090184556,0.01476820173463239
-0.003747997090184556,0.01470237461912327
-0.003747827090184556,0.0148340288501415
-0.003747657090184556,0.01410993057954124
-0.003747487090184556,0.013682054328732
-0.003747317090184556,0.0134516594244501
-0.003747147090184556,0.01325417807792276
-0.003746977090184556,0.0125300798073225
-0.003746807090184556,0.01150975951693123
-0.003746637090184556,0.01104896970836743
-0.003746467090184556,0.01075274768857564
-0.003746297090184556,0.01032487143776718
-0.003746127090184556,0.01025904432225806
-0.003745957090184556,0.009567859609412005
-0.003745787090184556,0.009370378262885021
-0.003745617090184556,0.009139983358603122
-0.003745447090184556,0.009271637589621049
-0.003745277090184556,0.009107069800848565
-0.003745107090184556,0.008251317299230079
-0.003744937090184556,0.00950203249390379
-0.003744767090184556,0.009798254513694264
-0.003744597090184556,0.009304551147375908
-0.003744427090184556,0.009271637589622307
-0.003744257090184556,0.009798254513694264
-0.003744087090184556,0.01022613076450351
-0.003743917090184556,0.01009447653348504
-0.003743747090184556,0.009962822302467049
-0.003743577090184556,0.01048943922653996
-0.003743407090184556,0.01121353749713968
-0.003743237090184556,0.01091731547734921
-0.003743067090184556,0.01104896970836743
-0.003742897090184556,0.01131227817040449
-0.003742727090184556,0.01164141374794946
-0.003742557090184556,0.011378105285913
-0.003742387090184556,0.01187180865223058
-0.003742217090184556,0.01144393240142212
-0.003742047090184556,0.01150975951693123
-0.003741877090184556,0.01170724086345822
-0.003741707090184556,0.01170724086345858
-0.003741537090184556,0.0118388950944768
-0.003741367090184556,0.01206928999875828
-0.003741197090184556,0.01210220355651326
-0.003741027090184556,0.01246425269181339
-0.003740857090184556,0.01253007980732238
-0.003740687090184556,0.01243133913405883
-0.003740517090184556,0.01249716624956795
-0.003740347090184556,0.01292504250037641
-0.003740177090184556,0.0132212645201682
-0.003740007090184556,0.01187180865223136
-0.003739837090184556,0.01276047471160279
-0.003739667090184556,0.0122996849030406
-0.003739497090184556,0.01200346288324959
-0.003739327090184556,0.01127936461265065
-0.003739157090184556,0.01121353749714022
-0.003738987090184556,0.01042361211103085
-0.003738817090184556,0.01009447653348588
-0.003738647090184556,0.009896995186957936
-0.003738477090184556,0.009172896916357679
-0.003738307090184556,0.00867919355004022
-0.003738137090184556,0.00904124268533945
-0.003737967090184556,0.009370378262885021
-0.003737797090184556,0.009600773167166501
-0.003737627090184556,0.01009447653348528
-0.003737457090184556,0.01075274768857642
-0.003737287090184556,0.01170724086345858
-0.003737117090184556,0.0122996849030406
-0.003736947090184556,0.01262882048058617
-0.003736777090184556,0.01355040009771377
-0.003736607090184556,0.01397827634852302
-0.003736437090184556,0.01447197971484137
-0.003736267090184556,0.01463654750361416
-0.003736097090184556,0.01470237461912285
-0.003735927090184556,0.01447197971484137
-0.003735757090184556,0.01427449836831403
-0.003735587090184556,0.01358331365546857
-0.003735417090184556,0.01371496788648656
-0.003735247090184556,0.01302378317364086
-0.003735077090184556,0.01262882048058629
-0.003734907090184556,0.01269464759609529
-0.003734737090184556,0.01203637644100415
-0.003734567090184556,0.01190472220998562
-0.003734397090184556,0.01174015442121313
-0.003734227090184556,0.0118388950944768
-0.003734057090184556,0.01167432730570444
-0.003733887090184556,0.01190472220998592
-0.003733717090184556,0.0122996849030406
-0.003733547090184556,0.01302378317364146
-0.003733377090184556,0.01335291875118643
-0.003733207090184556,0.01387953567525935
-0.003733037090184556,0.01384662211750527
-0.003732867090184556,0.01410993057954124
-0.003732697090184556,0.01430741192606859
-0.003732527090184556,0.01414284413729556
-0.003732357090184556,0.01401118990627757
-0.003732187090184556,0.01364914077097745
-0.003732017090184556,0.01338583230894033
-0.003731847090184556,0.01302378317364086
-0.003731677090184556,0.01223385778753149
-0.003731507090184556,0.01157558663244154
-0.003731337090184556,0.01104896970836743
-0.003731167090184556,0.01052235278429452
-0.003730997090184556,0.009995735860222564
-0.003730827090184556,0.009534946051657807
-0.003730657090184556,0.008481712203511979
-0.003730487090184556,0.008975415569829438
-0.003730317090184556,0.007724700375157166
-0.003730147090184556,0.007362651239857037
-0.003729977090184556,0.007000602104557568
-0.003729807090184556,0.00630941739171121
-0.003729637090184556,0.006605639411502225
-0.003729467090184556,0.006375244507220743
-0.003729297090184556,0.006408158064974882
-0.003729127090184556,0.006868947873538681
-0.003728957090184556,0.007296824124347146
-0.003728787090184556,0.00811966306821185
-0.003728617090184556,0.008646279992284765
-0.003728447090184556,0.009798254513692168
-0.003728277090184556,0.01035778499552173
-0.003728107090184556,0.01104896970836743
-0.003727937090184556,0.01167432730570288
-0.003727767090184556,0.01233259846079516
-0.003727597090184556,0.01318835096241365
-0.003727427090184556,0.01348457298220412
-0.003727257090184556,0.0141428441372958
-0.003727087090184556,0.0148340288501415
-0.003726917090184556,0.01463654750361416
-0.003726747090184556,0.01496568308115973
-0.003726577090184556,0.0148340288501415
-0.003726407090184556,0.01453780683035049
-0.003726237090184556,0.01424158481055947
-0.003726067090184556,0.01378079500199567
-0.003725897090184556,0.01325417807792276
-0.003725727090184556,0.01318835096241365
-0.003725557090184556,0.01289212894262263
-0.003725387090184556,0.01282630182711352
-0.003725217090184556,0.0126288204805854
-0.003725047090184556,0.01220094422977693
-0.003724877090184556,0.01210220355651326
-0.003724707090184556,0.01174015442121218
-0.003724537090184556,0.01121353749714022
-0.003724367090184556,0.01124645105489478
-0.003724197090184556,0.01147684595917698
-0.003724027090184556,0.01164141374794946
-0.003723857090184556,0.011378105285913
-0.003723687090184556,0.01157558663243915
-0.003723517090184556,0.01091731547734921
-0.003723347090184556,0.01068692057306731
-0.003723177090184556,0.01012739009124025
-0.003723007090184556,0.01035778499552173
-0.003722837090184556,0.01048943922653996
-0.003722667090184556,0.01085148836184123
-0.003722497090184556,0.01147684595917668
-0.003722327090184556,0.01141101884366756
-0.003722157090184556,0.01150975951693183
-0.003721987090184556,0.0118388950944768
-0.003721817090184556,0.0120692899987587
-0.003721647090184556,0.0116743273057039
-0.003721477090184556,0.0116085001901949
-0.003721307090184556,0.01104896970836743
-0.003721137090184556,0.009896995186959912
-0.003720967090184556,0.01098314259285832
-0.003720797090184556,0.01062109345755819
-0.003720627090184556,0.009699513840432269
-0.003720457090184556,0.009534946051657807
-0.003720287090184556,0.008679193550039321
-0.003720117090184556,0.008777934223302813
-0.003719947090184556,0.008382971530248308
-0.003719777090184556,0.008580452876775651
-0.003719607090184556,0.008481712203512159
-0.003719437090184556,0.008481712203511979
-0.003719267090184556,0.008843761338812107
-0.003719097090184556,0.009008329127584593
