Analysis/New Tests_CMB/wrd01_d2s01/cmb08_ch39.csv

#Digilent WaveForms Oscilloscope Acquisition
#Device Name: ADP3450
#Serial Number: SN:210018B9D9B0
#Date Time: 2024-08-14 17:48:26.136.221.260
#Sample rate: 5.88235e+06Hz
#Samples: 32768
#Trigger: Source: Channel 3 Type: Edge Condition: Rising Level: 60 mV Hyst.: Auto HoldOff: 0 s
#Channel 3: Range: 100 mV/div Offset: 0 V Attenuation: 1 X Coupling: DC Bandwidth: 0 Hz Sample Mode: Average

Time (s),Channel 3 (V)
-0.003798535771017197,0.2069833790212459
-0.003798365771017197,0.2158371260572398
-0.003798195771017197,0.225777020499098
-0.003798025771017197,0.2346307675350739
-0.003797855771017197,0.2431882925512746
-0.003797685771017197,0.2519432989139709
-0.003797515771017197,0.255728358055745
-0.003797345771017197,0.2593159358509954
-0.003797175771017197,0.2613894899895288
-0.003797005771017197,0.2616857120093198
-0.003796835771017197,0.2611920086429991
-0.003796665771017197,0.2599083798905737
-0.003796495771017197,0.2577689986365275
-0.003796325771017197,0.2555637902669658
-0.003796155771017197,0.2520420395872346
-0.003795985771017197,0.2490469058315699
-0.003795815771017197,0.245689722940599
-0.003795645771017197,0.2423654536073948
-0.003795475771017197,0.2401602452378394
-0.003795305771017197,0.2387449622543889
-0.003795135771017197,0.2362435318650472
-0.003794965771017197,0.2334129658981552
-0.003794795771017197,0.2305823999312685
-0.003794625771017197,0.2273568712713167
-0.003794455771017197,0.2249870951129886
-0.003794285771017197,0.2216299122220299
-0.003794115771017197,0.216857446347613
-0.003793945771017197,0.2118216720111658
-0.003793775771017197,0.2071479468100272
-0.003793605771017197,0.203033752090699
-0.003793435771017197,0.2006310623746164
-0.003793265771017197,0.1969776574638672
-0.003793095771017197,0.1930609440910682
-0.003792925771017197,0.1887163544674667
-0.003792755771017197,0.1843388512861186
-0.003792585771017197,0.1799613481047545
-0.003792415771017197,0.1761104618474713
-0.003792245771017197,0.1723254027057041
-0.003792075771017197,0.1694290096232962
-0.003791905771017197,0.1654135555772403
-0.003791735771017197,0.161760150666491
-0.003791565771017197,0.1588308440263288
-0.003791395771017197,0.1561977594059643
-0.003791225771017197,0.1542558594984489
-0.003791055771017197,0.1520506511288901
-0.003790885771017197,0.1496479614128074
-0.003790715771017197,0.1463566056373577
-0.003790545771017197,0.1430323363041414
-0.003790375771017197,0.1401030296639859
-0.003790205771017197,0.1373712043703576
-0.003790035771017197,0.1346722926344839
-0.003789865771017197,0.1328620469579833
-0.003789695771017197,0.1316113317633101
-0.003789525771017197,0.1300973081066005
-0.003789355771017197,0.1294061233937548
-0.003789185771017197,0.126641384542372
-0.003789015771017197,0.1245678304038303
-0.003788845771017197,0.122033486456734
-0.003788675771017197,0.1204865492422698
-0.003788505771017197,0.1172281070245657
-0.003788335771017197,0.1155824291368408
-0.003788165771017197,0.1139696648068675
-0.003787995771017197,0.1129164309587189
-0.003787825771017197,0.1114024073020121
-0.003787655771017197,0.109328853163475
-0.003787485771017197,0.1060704109457719
-0.003787315771017197,0.105017177097628
-0.003787145771017197,0.1027461416125635
-0.003786975771017197,0.1014625128601336
-0.003786805771017197,0.1002776247809717
-0.003786635771017197,0.09925730449058048
-0.003786465771017197,0.09833572487345091
-0.003786295771017197,0.0972495774675525
-0.003786125771017197,0.09511019621350628
-0.003785955771017197,0.09280624717068081
-0.003785785771017197,0.08925158293319513
-0.003785615771017197,0.08651975763956687
-0.003785445771017197,0.08441328994327493
-0.003785275771017197,0.08424872215450244
-0.003785105771017197,0.08332714253737483
-0.003784935771017197,0.08197768666943435
-0.003784765771017197,0.07996995964641002
-0.003784595771017197,0.07727104791053632
-0.003784425771017197,0.07559245646505697
-0.003784255771017197,0.0722352735740891
-0.003784085771017197,0.06940470760719719
-0.003783915771017197,0.06719949923764586
-0.003783745771017197,0.06693619077560539
-0.003783575771017197,0.0668703636600963
-0.003783405771017197,0.0667057958713238
-0.003783235771017197,0.06585004336970501
-0.003783065771017197,0.06453350105952274
-0.003782895771017197,0.06298656384506136
-0.003782725771017197,0.06163710797712171
-0.003782555771017197,0.06074844191774867
-0.003782385771017197,0.05989268941613173
-0.003782215771017197,0.05979394874286651
-0.003782045771017197,0.05877362845247524
-0.003781875771017197,0.05841157931717577
-0.003781705771017197,0.05735834546902929
-0.003781535771017197,0.05610763027435611
-0.003781365771017197,0.05423155748234977
-0.003781195771017197,0.05245422536360028
-0.003781025771017197,0.05031484410955406
-0.003780855771017197,0.04955783228120062
-0.003780685771017197,0.04873499333733532
-0.003780515771017197,0.04807672218224418
-0.003780345771017197,0.04699057477634577
-0.003780175771017197,0.04639813073676177
-0.003780005771017197,0.04485119352229758
-0.003779835771017197,0.04396252746292454
-0.003779665771017197,0.0437650461163972
-0.003779495771017197,0.04416000880945188
-0.003779325771017197,0.04518032909984315
-0.003779155771017197,0.04471953929127936
-0.003778985771017197,0.04518032909984315
-0.003778815771017197,0.04550946467738873
-0.003778645771017197,0.04511450198433404
-0.003778475771017197,0.04485119352229758
-0.003778305771017197,0.04448914438699746
-0.003778135771017197,0.04366630544313245
-0.003777965771017197,0.0430738614035515
-0.003777795771017197,0.0426130715949877
-0.003777625771017197,0.0425801580372323
-0.003777455771017197,0.04211936822866934
-0.003777285771017197,0.04119778861154175
-0.003777115771017197,0.03978250562809375
-0.003776945771017197,0.03866344466444085
-0.003776775771017197,0.03741272946976767
-0.003776605771017197,0.03616201427509271
-0.003776435771017197,0.03517460754245779
-0.003776265771017197,0.03451633638736665
-0.003776095771017197,0.03375932455901028
-0.003775925771017197,0.03290357205739335
-0.003775755771017197,0.03158702974721107
-0.003775585771017197,0.02990843830172955
-0.003775415771017197,0.03040214166804701
-0.003775245771017197,0.0314882890739474
-0.003775075771017197,0.03132372128517336
-0.003774905771017197,0.03063253657232891
-0.003774735771017197,0.03036922811029246
-0.003774565771017197,0.02931599426214615
-0.003774395771017197,0.02905268580011017
-0.003774225771017197,0.02846024176052814
-0.003774055771017197,0.02704495877707949
-0.003773885771017197,0.02556384867812712
-0.003773715771017197,0.02490557752303598
-0.003773545771017197,0.0246093555032455
-0.003773375771017197,0.02507014531180876
-0.003773205771017197,0.02566258935139079
-0.003773035771017197,0.02507014531180984
-0.003772865771017197,0.02467518261875408
-0.003772695771017197,0.02316115896204445
-0.003772525771017197,0.0225028878069545
-0.003772355771017197,0.02200918444063495
-0.003772185771017197,0.02230540646042596
-0.003772015771017197,0.02177878953635401
-0.003771845771017197,0.02181170309410761
-0.003771675771017197,0.02197627088288039
-0.003771505771017197,0.02184461665186241
-0.003771335771017197,0.02204209799838951
-0.003771165771017197,0.02250288780695331
-0.003770995771017197,0.02214083867165384
-0.003770825771017197,0.02168004886308938
-0.003770655771017197,0.02177878953635305
-0.003770485771017197,0.02085720991922713
-0.003770315771017197,0.02118634549677102
-0.003770145771017197,0.020593901457189
-0.003769975771017197,0.02105469126575196
-0.003769805771017197,0.02161422174758026
-0.003769635771017197,0.02125217261228014
-0.003769465771017197,0.02013311164862519
-0.003769295771017197,0.02000145741760697
-0.003769125771017197,0.01993563030209785
-0.003768955771017197,0.02016602520637975
-0.003768785771017197,0.02046224722617077
-0.003768615771017197,0.02033059299515254
-0.003768445771017197,0.02029767943739798
-0.003768275771017197,0.01993563030209785
-0.003768105771017197,0.01937609982027038
-0.003767935771017197,0.01881656933844291
-0.003767765771017197,0.01812538462559554
-0.003767595771017197,0.01720380500846961
-0.003767425771017197,0.01720380500846961
-0.003767255771017197,0.0164467931801148
-0.003767085771017197,0.0164467931801148
-0.003766915771017197,0.01624931183358745
-0.003766745771017197,0.01700632366194077
-0.003766575771017197,0.01618348471807834
-0.003766405771017197,0.01647970673786936
-0.003766235771017197,0.01654553385337817
-0.003766065771017197,0.01638096606460569
-0.003765895771017197,0.01624931183358745
-0.003765725771017197,0.01654553385337685
-0.003765555771017197,0.01565686779400543
-0.003765385771017197,0.01654553385337847
-0.003765215771017197,0.01809247106784116
-0.003765045771017197,0.01726963212397873
-0.003764875771017197,0.01684175587316948
-0.003764705771017197,0.01621639827583296
-0.003764535771017197,0.01624931183358745
-0.003764365771017197,0.0157556084672691
-0.003764195771017197,0.01526190510094709
-0.003764025771017197,0.01325417807792276
-0.003763855771017197,0.01338583230894099
-0.003763685771017197,0.01200346288325103
-0.003763515771017197,0.01279338826935896
-0.003763345771017197,0.01285921538486808
-0.003763175771017197,0.01289212894262257
-0.003763005771017197,0.01193763576774048
-0.003762835771017197,0.01071983413082186
-0.003762665771017197,0.009469118936150968
-0.003762495771017197,0.009008329127584893
-0.003762325771017197,0.008613366434530208
-0.003762155771017197,0.008152576625967247
-0.003761985771017197,0.006901861431293239
-0.003761815771017197,0.00630941739171121
-0.003761645771017197,0.005716973352130259
-0.003761475771017197,0.005025788639283483
-0.003761305771017197,0.004992875081528926
-0.003761135771017197,0.004861220850510937
-0.003760965771017197,0.005223269985810825
-0.003760795771017197,0.004861220850510698
-0.003760625771017197,0.00519035642805567
-0.003760455771017197,0.006144849602938425
-0.003760285771017197,0.006276503833956653
-0.003760115771017197,0.007823441048418023
-0.003759945771017197,0.008218403741475522
-0.003759775771017197,0.009436205378394135
-0.003759605771017197,0.00973242739818461
-0.003759435771017197,0.01062109345755819
-0.003759265771017197,0.01127936461264933
-0.003759095771017197,0.0116414137479488
-0.003758925771017197,0.01210220355651326
-0.003758755771017197,0.0127604747116044
-0.003758585771017197,0.01213511711426782
-0.003758415771017197,0.01259590692283162
-0.003758245771017197,0.01266173403834073
-0.003758075771017197,0.0127604747116044
-0.003757905771017197,0.01318835096241365
-0.003757735771017197,0.01289212894262263
-0.003757565771017197,0.01256299336507706
-0.003757395771017197,0.01157558663244047
-0.003757225771017197,0.01164141374794946
-0.003757055771017197,0.01052235278429452
-0.003756885771017197,0.01012739009123798
-0.003756715771017197,0.009107069800848565
-0.003756545771017197,0.008679193550039321
-0.003756375771017197,0.007823441048420478
-0.003756205771017197,0.007625959701893495
-0.003756035771017197,0.006836034315784124
-0.003755865771017197,0.006342330949464091
-0.003755695771017197,0.005420751332338168
-0.003755525771017197,0.003314283636046514
-0.003755355771017197,0.001833173537098748
-0.003755185771017197,0.005848627583147411
-0.003755015771017197,0.006671466527011338
-0.003754845771017197,0.007198083451083714
-0.003754675771017197,0.006901861431293239
-0.003754505771017197,0.006572725853747667
-0.003754335771017197,0.00686894787353898
-0.003754165771017197,0.007033515662311467
-0.003753995771017197,0.00630941739171121
-0.003753825771017197,0.005190356428057226
-0.003753655771017197,0.005716973352129182
-0.003753485771017197,0.005585319121110954
-0.003753315771017197,0.00709934277782106
-0.003753145771017197,0.007362651239857037
-0.003752975771017197,0.00811966306821185
-0.003752805771017197,0.007691786817403387
-0.003752635771017197,0.00779052749066628
-0.003752465771017197,0.007066429220066024
-0.003752295771017197,0.006572725853748565
-0.003752125771017197,0.007066429220066024
-0.003751955771017197,0.01289212894262263
-0.003751785771017197,0.01048943922654434
-0.003751615771017197,0.007066429220066024
-0.003751445771017197,0.005716973352129182
-0.003751275771017197,0.005223269985811723
-0.003751105771017197,0.005322010659074497
-0.003750935771017197,0.006144849602938425
-0.003750765771017197,0.005552405563357475
-0.003750595771017197,0.00528909710131994
-0.003750425771017197,0.004861220850510698
-0.003750255771017197,0.003906727675630278
-0.003750085771017197,0.003478851424819299
-0.003749915771017197,0.003544678540328413
-0.003749745771017197,0.003742159886855397
-0.003749575771017197,0.004433344599701455
-0.003749405771017197,0.004959961523774369
-0.003749235771017197,0.005223269985810347
-0.003749065771017197,0.005486578447847282
-0.003748895771017197,0.006868947873538681
-0.003748725771017197,0.007560132586383123
-0.003748555771017197,0.00871210710779388
-0.003748385771017197,0.008975415569830336
-0.003748215771017197,0.009699513840430593
-0.003748045771017197,0.009238724031866792
-0.003747875771017197,0.009534946051657807
-0.003747705771017197,0.00950203249390325
-0.003747535771017197,0.009765340955939707
-0.003747365771017197,0.008942502012075779
-0.003747195771017197,0.009304551147375908
-0.003747025771017197,0.009107069800848565
-0.003746855771017197,0.008580452876775651
-0.003746685771017197,0.008481712203511979
-0.003746515771017197,0.008514625761266298
-0.003746345771017197,0.008382971530248308
-0.003746175771017197,0.008053835952702737
-0.003746005771017197,0.007593046144138758
-0.003745835771017197,0.007494305470875266
-0.003745665771017197,0.007856354606175394
-0.003745495771017197,0.006046108929672718
-0.003745325771017197,0.004927047966019811
-0.003745155771017197,0.004301690368683227
-0.003744985771017197,0.007000602104558168
-0.003744815771017197,0.007691786817402609
-0.003744645771017197,0.008152576625966409
-0.003744475771017197,0.008679193550038962
-0.003744305771017197,0.008481712203511979
-0.003744135771017197,0.00811966306821185
-0.003743965771017197,0.006770207200271717
-0.003743795771017197,0.004959961523774369
-0.003743625771017197,0.003182629405028285
-0.003743455771017197,0.00354467854032991
-0.003743285771017197,0.004367517484192341
-0.003743115771017197,0.005453664890092726
-0.003742945771017197,0.006770207200275249
-0.003742775771017197,0.006901861431293239
-0.003742605771017197,0.006177763160692982
-0.003742435771017197,0.005749886909882362
-0.003742265771017197,0.004992875081528926
-0.003742095771017197,0.004301690368683227
-0.003741925771017197,0.004795393735000686
-0.003741755771017197,0.005519492005601839
-0.003741585771017197,0.006046108929674754
-0.003741415771017197,0.00739556479760914
-0.003741245771017197,0.007593046144138938
-0.003741075771017197,0.006704380084765896
-0.003740905771017197,0.006210676718448436
-0.003740735771017197,0.005486578447847282
-0.003740565771017197,0.004927047966019811
-0.003740395771017197,0.004959961523774309
-0.003740225771017197,0.004795393735001583
-0.003740055771017197,0.004499171715210569
-0.003739885771017197,0.005552405563354481
-0.003739715771017197,0.005157442870301712
-0.003739545771017197,0.00426877681092867
-0.003739375771017197,0.0039067276756292
-0.003739205771017197,0.003972554791137656
-0.003739035771017197,0.00403838190664677
-0.003738865771017197,0.004005468348892273
-0.003738695771017197,0.005025788639283483
-0.003738525771017197,0.005124529312547154
-0.003738355771017197,0.005091615754792657
-0.003738185771017197,0.006375244507220324
-0.003738015771017197,0.005815714025392853
-0.003737845771017197,0.0052561835435664
-0.003737675771017197,0.005552405563356397
-0.003737505771017197,0.004894134408265255
-0.003737335771017197,0.005322010659074497
-0.003737165771017197,0.005815714025392853
-0.003736995771017197,0.00677020720027501
-0.003736825771017197,0.007099342777820581
-0.003736655771017197,0.007691786817402609
-0.003736485771017197,0.007329737682102481
-0.003736315771017197,0.006375244507220324
-0.003736145771017197,0.006408158064975241
-0.003735975771017197,0.006605639411502225
-0.003735805771017197,0.006836034315784124
-0.003735635771017197,0.00726391056659169
-0.003735465771017197,0.006342330949465767
-0.003735295771017197,0.005519492005601839
-0.003735125771017197,0.006276503833960065
-0.003734955771017197,0.008152576625966409
-0.003734785771017197,0.008218403741475522
-0.003734615771017197,0.007066429220065245
-0.003734445771017197,0.006638552969256781
-0.003734275771017197,0.006375244507220324
-0.003734105771017197,0.006243590276201378
-0.003733935771017197,0.005848627583147411
-0.003733765771017197,0.005716973352129182
-0.003733595771017197,0.00413712257991062
-0.003733425771017197,0.004235863253174112
-0.003733255771017197,0.004071295464401327
-0.003733085771017197,0.00469665306173917
-0.003732915771017197,0.005387837774583611
-0.003732745771017197,0.006177763160692982
-0.003732575771017197,0.006177763160693042
-0.003732405771017197,0.006210676718447538
-0.003732235771017197,0.006177763160692982
-0.003732065771017197,0.006473985180484594
-0.003731895771017197,0.006803120758029567
-0.003731725771017197,0.006605639411502225
-0.003731555771017197,0.006473985180484235
-0.003731385771017197,0.005420751332338168
-0.003731215771017197,0.005124529312547154
-0.003731045771017197,0.004367517484193719
-0.003730875771017197,0.004663739503983355
-0.003730705771017197,0.00505870219703804
-0.003730535771017197,0.005387837774583013
-0.003730365771017197,0.005486578447847282
-0.003730195771017197,0.005486578447847282
-0.003730025771017197,0.005025788639284321
-0.003729855771017197,0.004762480177247026
-0.003729685771017197,0.00653981229599311
-0.003729515771017197,0.007099342777819564
-0.003729345771017197,0.007988008837193623
-0.003729175771017197,0.008284230856984636
-0.003729005771017197,0.008350057972493632
-0.003728835771017197,0.008317144414739193
-0.003728665771017197,0.007856354606175394
-0.003728495771017197,0.00742847835536693
-0.003728325771017197,0.007132256335575138
-0.003728155771017197,0.007823441048420837
-0.003727985771017197,0.006309417391713964
-0.003727815771017197,0.007263910566593366
-0.003727645771017197,0.006836034315784124
-0.003727475771017197,0.006638552969257141
-0.003727305771017197,0.006243590276202096
-0.003727135771017197,0.006276503833956653
-0.003726965771017197,0.006276503833956653
-0.003726795771017197,0.006638552969256781
-0.003726625771017197,0.007033515662311467
-0.003726455771017197,0.007329737682102481
-0.003726285771017197,0.00756013258638438
-0.003726115771017197,0.008086749510457293
-0.003725945771017197,0.00802092239494818
-0.003725775771017197,0.007658873259648051
-0.003725605771017197,0.007263910566593366
-0.003725435771017197,0.006868947873538681
-0.003725265771017197,0.006079022487431585
-0.003725095771017197,0.007329737682102481
-0.003724925771017197,0.009337464705130465
-0.003724755771017197,0.009205810474112355
-0.003724585771017197,0.009271637589621349
-0.003724415771017197,0.008547539319021094
-0.003724245771017197,0.008251317299228044
-0.003724075771017197,0.007132256335575138
-0.003723905771017197,0.006210676718447538
-0.003723735771017197,0.005585319121110894
-0.003723565771017197,0.005552405563356397
-0.003723395771017197,0.006144849602938425
-0.003723225771017197,0.00677020720027495
-0.003723055771017197,0.006737293642520453
-0.003722885771017197,0.006046108929674754
-0.003722715771017197,0.004828307292757996
-0.003722545771017197,0.005848627583147411
-0.003722375771017197,0.005354924216829054
-0.003722205771017197,0.005749886909884757
-0.003722035771017197,0.00630941739171121
-0.003721865771017197,0.005848627583147411
-0.003721695771017197,0.006638552969259176
-0.003721525771017197,0.007955095279439066
-0.003721355771017197,0.008613366434530208
-0.003721185771017197,0.00752721902862701
-0.003721015771017197,0.005980281814165639
-0.003720845771017197,0.004696653061737912
-0.003720675771017197,0.004927047966019392
-0.003720505771017197,0.005387837774583611
-0.003720335771017197,0.005618232678865511
-0.003720165771017197,0.004762480177248583
-0.003719995771017197,0.004696653061737912
