Analysis/New Tests_CMB/wrd01_d2s01/cmb08_ch45.csv

#Digilent WaveForms Oscilloscope Acquisition
#Device Name: ADP3450
#Serial Number: SN:210018B9D9B0
#Date Time: 2024-08-14 17:47:16.905.762.400
#Sample rate: 5.88235e+06Hz
#Samples: 32768
#Trigger: Source: Channel 3 Type: Edge Condition: Rising Level: 60 mV Hyst.: Auto HoldOff: 0 s
#Channel 3: Range: 100 mV/div Offset: 0 V Attenuation: 1 X Coupling: DC Bandwidth: 0 Hz Sample Mode: Average

Time (s),Channel 3 (V)
-0.003798426669773613,0.2120520669154477
-0.003798256669773613,0.2230122816476953
-0.003798086669773613,0.2335775336869088
-0.003797916669773613,0.2419704909143096
-0.003797746669773613,0.249310214293617
-0.003797576669773613,0.255201741131672
-0.003797406669773613,0.2602046019103647
-0.003797236669773613,0.262673118741952
-0.003797066669773613,0.2646479322072263
-0.003796896669773613,0.2653391169200731
-0.003796726669773613,0.2655695118243563
-0.003796556669773613,0.2648783271115118
-0.003796386669773613,0.2629035136462384
-0.003796216669773613,0.2607970459499506
-0.003796046669773613,0.258098134214078
-0.003795876669773613,0.2554321360359637
-0.003795706669773613,0.2522395209337544
-0.003795536669773613,0.2481253262144423
-0.003795366669773613,0.2446694026502138
-0.003795196669773613,0.2406210350464106
-0.003795026669773613,0.2364080996538276
-0.003794856669773613,0.2331496574361306
-0.003794686669773614,0.2285417593504976
-0.003794516669773613,0.2243288239578975
-0.003794346669773613,0.2202146292385778
-0.003794176669773613,0.2163637429813016
-0.003794006669773613,0.211755844895665
-0.003793836669773613,0.2084644891202129
-0.003793666669773614,0.2041528130543697
-0.003793496669773613,0.2004994081435981
-0.003793326669773613,0.1968460032328423
-0.003793156669773613,0.1940154372659555
-0.003792986669773613,0.1905266001439737
-0.003792816669773613,0.1875972935038224
-0.003792646669773614,0.184602159748158
-0.003792476669773613,0.1819032480122734
-0.003792306669773613,0.1788422871410996
-0.003792136669773613,0.1763079431940033
-0.003791966669773613,0.1734773772271119
-0.003791796669773613,0.170383502798184
-0.003791626669773614,0.1670592334649802
-0.003791456669773613,0.1645578030756218
-0.003791286669773613,0.1612993608579206
-0.003791116669773613,0.1582713135445069
-0.003790946669773613,0.1547824764225247
-0.003790776669773613,0.1515240342048231
-0.003790606669773613,0.1483972462181456
-0.003790436669773613,0.1457641615977697
-0.003790266669773613,0.1431639905351597
-0.003790096669773613,0.1399055483174585
-0.003789926669773613,0.1386548331227876
-0.003789756669773613,0.1357913535981441
-0.003789586669773613,0.1332899232088016
-0.003789416669773613,0.1306239250306734
-0.003789246669773613,0.1280566675258179
-0.003789076669773613,0.1253577557899443
-0.003788906669773613,0.1224613627075485
-0.003788736669773613,0.1215726966481718
-0.003788566669773613,0.1185775628925164
-0.003788396669773613,0.1160761325031551
-0.003788226669773613,0.1138380105758493
-0.003788056669773613,0.1118961106683304
-0.003787886669773613,0.1097567294142881
-0.003787716669773613,0.1072223854671879
-0.003787546669773613,0.1056754482527248
-0.003787376669773613,0.1047538686355887
-0.003787206669773613,0.1032069314211273
-0.003787036669773613,0.1017916484376814
-0.003786866669773613,0.1013637721868729
-0.003786696669773613,0.1007055010317822
-0.003786526669773613,0.1003763654542366
-0.003786356669773613,0.09840155198896099
-0.003786186669773613,0.09784202150713453
-0.003786016669773613,0.09744705881407983
-0.003785846669773613,0.09527476400228303
-0.003785676669773613,0.09326703697925474
-0.003785506669773613,0.0913580506294937
-0.003785336669773613,0.08951489139522804
-0.003785166669773613,0.08757299148771272
-0.003784996669773613,0.08566400513794839
-0.003784826669773613,0.08336005609513358
-0.003784656669773613,0.08135232907210506
-0.003784486669773613,0.07996995964641504
-0.003784316669773614,0.07783057839237158
-0.003784146669773613,0.07651403608218152
-0.003783976669773613,0.07562537002280847
-0.003783806669773613,0.0742100870393651
-0.003783636669773613,0.07315685319121862
-0.003783466669773613,0.07180739732328476
-0.003783296669773614,0.07098455837941892
-0.003783126669773613,0.06983258385800642
-0.003782956669773613,0.06864769577884236
-0.003782786669773613,0.06805525173926141
-0.003782616669773613,0.06733115346866141
-0.003782446669773613,0.06640957385153584
-0.003782276669773614,0.06614626538949699
-0.003782106669773613,0.06552090779215944
-0.003781936669773613,0.06489555019482285
-0.003781766669773613,0.06397397057769695
-0.003781596669773613,0.06292073672955134
-0.003781426669773613,0.06222955201670499
-0.003781256669773614,0.06137379951508837
-0.003781086669773613,0.06061678768673043
-0.003780916669773613,0.05946481316532094
-0.003780746669773613,0.05926733181879396
-0.003780576669773613,0.05824701152840418
-0.003780406669773613,0.05775330816208486
-0.003780236669773613,0.0574241725845396
-0.003780066669773613,0.05706212344923827
-0.003779896669773613,0.05614054383211067
-0.003779726669773613,0.05620637094761979
-0.003779556669773613,0.05554809979252984
-0.003779386669773613,0.05423155748234875
-0.003779216669773613,0.05357328632725761
-0.003779046669773613,0.05261879315237306
-0.003778876669773613,0.0512035101689271
-0.003778706669773613,0.05021610343629039
-0.003778536669773613,0.0488995611261105
-0.003778366669773613,0.04791215439347319
-0.003778196669773613,0.04715514256511934
-0.003778026669773613,0.04606899515921476
-0.003777856669773613,0.04527906977310683
-0.003777686669773613,0.0426130715949877
-0.003777516669773613,0.04307386140355066
-0.003777346669773613,0.04198771399765309
-0.003777176669773613,0.04109904793828131
-0.003777006669773613,0.04021038187890389
-0.003776836669773613,0.03958502428156845
-0.003776666669773613,0.03882801245321364
-0.003776496669773613,0.03793934639384221
-0.003776326669773613,0.03767603793180462
-0.003776156669773613,0.03728107523875088
-0.003775986669773613,0.03649114985263972
-0.003775816669773613,0.03629366850611274
-0.003775646669773613,0.03566831090877615
-0.003775476669773613,0.03543791600449467
-0.003775306669773613,0.0347467312916498
-0.003775136669773613,0.03448342282961305
-0.003774966669773613,0.03428594148308416
-0.003774796669773613,0.03395680590553918
-0.003774626669773613,0.03362767032799361
-0.003774456669773613,0.03310105340392165
-0.003774286669773613,0.03316688051942969
-0.003774116669773613,0.0320149059980245
-0.003773946669773613,0.03158702974720963
-0.003773776669773613,0.0307971043611017
-0.003773606669773613,0.03059962301457436
-0.003773436669773613,0.02987552474397542
-0.003773266669773613,0.02954638916642913
-0.003773096669773613,0.02918434003112972
-0.003772926669773614,0.02934890781990059
-0.003772756669773613,0.02921725358888296
-0.003772586669773613,0.02888811801133739
-0.003772416669773613,0.02878937733807389
-0.003772246669773613,0.02869063666481022
-0.003772076669773613,0.02875646378031892
-0.003771906669773614,0.02875646378031916
-0.003771736669773613,0.02882229089582827
-0.003771566669773613,0.0289539451268465
-0.003771396669773613,0.02842732820277455
-0.003771226669773613,0.02770322993217465
-0.003771056669773613,0.0276703163744189
-0.003770886669773614,0.02711078589259334
-0.003770716669773613,0.02651834185300928
-0.003770546669773613,0.02579424358240902
-0.003770376669773613,0.02536636733160055
-0.003770206669773613,0.02500431819630031
-0.003770036669773613,0.02299659117327532
-0.003769866669773613,0.02358903521285154
-0.003769696669773613,0.02299659117327166
-0.003769526669773613,0.02237123357593508
-0.003769356669773613,0.02144965395880748
-0.003769186669773613,0.021153431939017
-0.003769016669773613,0.02052807434168102
-0.003768846669773613,0.02052807434167988
-0.003768676669773613,0.02026476587964342
-0.003768506669773613,0.01996854385985241
-0.003768336669773613,0.02089012347698001
-0.003768166669773613,0.02121925905452498
-0.003767996669773613,0.02065972857269913
-0.003767826669773613,0.02121925905452354
-0.003767656669773613,0.02125217261228043
-0.003767486669773613,0.02141674040105292
-0.003767316669773613,0.02204209799838951
-0.003767146669773613,0.02194335732512602
-0.003766976669773613,0.02131799972779039
-0.003766806669773613,0.02135091328554369
-0.003766636669773613,0.02108760482350687
-0.003766466669773613,0.02082429636147089
-0.003766296669773613,0.02079138280371634
-0.003766126669773613,0.02013311164862639
-0.003765956669773613,0.01977106251332572
-0.003765786669773613,0.01970523539781619
-0.003765616669773613,0.01990271674434282
-0.003765446669773613,0.01963940828230684
-0.003765276669773613,0.02000145741760697
-0.003765106669773613,0.01970523539781649
-0.003764936669773613,0.01940901337802548
-0.003764766669773613,0.019639408282306
-0.003764596669773613,0.01980397607107981
-0.003764426669773613,0.0199027167443433
-0.003764256669773613,0.0196723218400614
-0.003764086669773613,0.01947484049353441
-0.003763916669773613,0.01937609982027056
-0.003763746669773613,0.01878365578069051
-0.003763576669773613,0.01825703885661466
-0.003763406669773613,0.0178291626058062
-0.003763236669773613,0.01717089145071506
-0.003763066669773613,0.01680884231541559
-0.003762896669773613,0.01575560846727101
-0.003762726669773613,0.01519607798544366
-0.003762556669773614,0.01509733731217832
-0.003762386669773613,0.01486694240789606
-0.003762216669773613,0.01480111529238694
-0.003762046669773613,0.01463654750361446
-0.003761876669773613,0.0142086712528057
-0.003761706669773613,0.0135833136554706
-0.003761536669773614,0.01332000519343283
-0.003761366669773613,0.013682054328732
-0.003761196669773613,0.01285921538486808
-0.003761026669773613,0.01318835096241305
-0.003760856669773613,0.01341874586669513
-0.003760686669773613,0.01315543740466005
-0.003760516669773614,0.01295795605813246
-0.003760346669773613,0.01371496788648656
-0.003760176669773613,0.01371496788648656
-0.003760006669773613,0.01394536279076804
-0.003759836669773613,0.01434032548382243
-0.003759666669773613,0.01450489327259563
-0.003759496669773613,0.01384662211750718
-0.003759326669773613,0.01440615259933226
-0.003759156669773613,0.0139124492330139
-0.003758986669773613,0.01378079500199591
-0.003758816669773613,0.01410993057954065
-0.003758646669773613,0.01315543740466082
-0.003758476669773613,0.01269464759609697
-0.003758306669773613,0.0125300798073225
-0.003758136669773613,0.0125300798073225
-0.003757966669773613,0.0122996849030406
-0.003757796669773613,0.01210220355651362
-0.003757626669773613,0.01226677134528575
-0.003757456669773613,0.0123984255763038
-0.003757286669773613,0.01253007980732328
-0.003757116669773613,0.01295795605813175
-0.003756946669773613,0.01262882048058617
-0.003756776669773613,0.01243133913405919
-0.003756606669773613,0.01262882048058581
-0.003756436669773613,0.01289212894262167
-0.003756266669773613,0.01292504250037743
-0.003756096669773613,0.01305669673139542
-0.003755926669773613,0.01233259846079516
-0.003755756669773613,0.01266173403834013
-0.003755586669773613,0.01239842557630475
-0.003755416669773613,0.01167432730570665
-0.003755246669773613,0.01157558663243993
-0.003755076669773613,0.01134519172815845
-0.003754906669773613,0.01091731547734921
-0.003754736669773613,0.01091731547734921
-0.003754566669773613,0.0109831425928582
-0.003754396669773613,0.01065400701531394
-0.003754226669773613,0.01078566124633116
-0.003754056669773613,0.01088440191959465
-0.003753886669773613,0.01164141374794946
-0.003753716669773613,0.01193763576773994
-0.003753546669773613,0.01220094422977645
-0.003753376669773613,0.01256299336507574
-0.003753206669773613,0.01292504250037791
-0.003753036669773613,0.01332000519343187
-0.003752866669773613,0.01401118990627757
-0.003752696669773613,0.01341874586669662
-0.003752526669773613,0.01407701702178549
-0.003752356669773613,0.01407701702178669
-0.003752186669773614,0.01361622721322456
-0.003752016669773613,0.01335291875118643
-0.003751846669773613,0.01341874586669555
-0.003751676669773613,0.01315543740465957
-0.003751506669773613,0.01285921538486861
-0.003751336669773613,0.01285921538486808
-0.003751166669773614,0.01183889509448052
-0.003750996669773613,0.01262882048058617
-0.003750826669773613,0.01318835096241365
-0.003750656669773613,0.01305669673139566
-0.003750486669773613,0.01302378317364092
-0.003750316669773613,0.01351748653995742
-0.003750146669773614,0.01338583230894147
-0.003749976669773613,0.01318835096241365
-0.003749806669773613,0.01266173403834073
-0.003749636669773613,0.01246425269181375
-0.003749466669773613,0.01190472220998694
-0.003749296669773613,0.01137810528591396
-0.003749126669773614,0.01157558663243963
-0.003748956669773613,0.01124645105489478
-0.003748786669773613,0.01127936461264933
-0.003748616669773613,0.01104896970836785
-0.003748446669773613,0.01154267307468489
-0.003748276669773613,0.01203637644100325
-0.003748106669773613,0.01259590692282958
-0.003747936669773613,0.01318835096241365
-0.003747766669773613,0.01282630182711352
-0.003747596669773613,0.01338583230894099
-0.003747426669773613,0.01397827634852194
-0.003747256669773613,0.01447197971484047
-0.003747086669773613,0.01450489327259581
-0.003746916669773613,0.01522899154319619
-0.003746746669773613,0.01542647288972353
-0.003746576669773613,0.0152948186587053
-0.003746406669773613,0.01552521356298678
-0.003746236669773613,0.01483402885014276
-0.003746066669773613,0.01470237461912375
-0.003745896669773613,0.01361622721322181
-0.003745726669773613,0.01302378317364086
-0.003745556669773613,0.01236551201854972
-0.003745386669773613,0.01160850019019628
-0.003745216669773613,0.01174015442121289
-0.003745046669773613,0.01029195788001789
-0.003744876669773613,0.01025904432225758
-0.003744706669773613,0.009995735860221606
-0.003744536669773613,0.01016030364899439
-0.003744366669773613,0.0101273900912399
-0.003744196669773613,0.009995735860221846
-0.003744026669773613,0.01012739009123936
-0.003743856669773613,0.01055526634204986
-0.003743686669773613,0.01098314259285832
-0.003743516669773613,0.01131227817040389
-0.003743346669773613,0.01141101884366738
-0.003743176669773613,0.01190472220998502
-0.003743006669773613,0.01210220355651254
-0.003742836669773613,0.01269464759609595
-0.003742666669773613,0.01305669673139542
-0.003742496669773613,0.01285921538486808
-0.003742326669773613,0.01338583230894003
-0.003742156669773613,0.01374788144424046
-0.003741986669773613,0.01651262029561385
-0.003741816669773614,0.011476845959195
-0.003741646669773613,0.01289212894262263
-0.003741476669773613,0.01335291875118643
-0.003741306669773613,0.01341874586669543
-0.003741136669773613,0.01299086961588708
-0.003740966669773613,0.01315543740465849
-0.003740796669773614,0.01229968490304372
-0.003740626669773613,0.01220094422977693
-0.003740456669773613,0.0118388950944768
-0.003740286669773613,0.01098314259285988
-0.003740116669773613,0.01042361211103187
-0.003739946669773613,0.009732427398187665
-0.003739776669773614,0.009074156243096401
-0.003739606669773613,0.008745020665548437
-0.003739436669773613,0.00802092239494818
-0.003739266669773613,0.007428478355367229
-0.003739096669773613,0.007527219028629644
-0.003738926669773613,0.007362651239857337
-0.003738756669773614,0.007823441048419161
-0.003738586669773613,0.007955095279439066
-0.003738416669773613,0.007988008837193623
-0.003738246669773613,0.007988008837193623
-0.003738076669773613,0.007823441048421137
-0.003737906669773613,0.008317144414738294
-0.003737736669773613,0.009041242685336815
-0.003737566669773613,0.009205810474112236
-0.003737396669773613,0.009534946051657807
-0.003737226669773613,0.009600773167166921
-0.003737056669773613,0.01039069855327486
-0.003736886669773613,0.01071983413082126
-0.003736716669773613,0.01052235278429524
-0.003736546669773613,0.01085148836184009
-0.003736376669773613,0.01088440191959465
-0.003736206669773613,0.01098314259285832
-0.003736036669773613,0.01144393240142128
-0.003735866669773613,0.01137810528591312
-0.003735696669773613,0.01167432730570294
-0.003735526669773613,0.01134519172815893
-0.003735356669773613,0.0116085001901949
-0.003735186669773613,0.01167432730570402
-0.003735016669773613,0.0119047222099855
-0.003734846669773613,0.01223385778753089
-0.003734676669773613,0.01223385778753149
-0.003734506669773613,0.01200346288324977
-0.003734336669773613,0.01210220355651326
-0.003734166669773613,0.01131227817040389
-0.003733996669773613,0.0112464510548949
-0.003733826669773613,0.01075274768857732
-0.003733656669773613,0.01095022903510304
-0.003733486669773613,0.01029195788001292
-0.003733316669773613,0.01045652566878541
-0.003733146669773613,0.01085148836184009
-0.003732976669773613,0.0107856612463311
-0.003732806669773613,0.01068692057306749
-0.003732636669773613,0.01111479682387499
-0.003732466669773613,0.01104896970836641
-0.003732296669773613,0.01048943922653996
-0.003732126669773613,0.01025904432225806
-0.003731956669773613,0.01085148836183901
-0.003731786669773613,0.01121353749713956
-0.003731616669773613,0.01121353749714022
-0.003731446669773614,0.01177306797896565
-0.003731276669773613,0.01256299336507706
-0.003731106669773613,0.01233259846079516
-0.003730936669773613,0.01269464759609463
-0.003730766669773613,0.01276047471160428
-0.003730596669773613,0.01262882048058665
-0.003730426669773614,0.0130896102891483
-0.003730256669773613,0.01243133913405883
-0.003730086669773613,0.01220094422977693
-0.003729916669773613,0.01200346288324995
-0.003729746669773613,0.01127936461265065
-0.003729576669773613,0.01104896970836827
-0.003729406669773614,0.01062109345755975
-0.003729236669773613,0.01002864941797616
-0.003729066669773613,0.009567859609412364
-0.003728896669773613,0.009271637589621889
-0.003728726669773613,0.009107069800848865
-0.003728556669773613,0.009139983358603002
-0.003728386669773614,0.008712107107795436
-0.003728216669773613,0.00881084778105755
-0.003728046669773613,0.008284230856984636
-0.003727876669773613,0.008218403741475642
-0.003727706669773613,0.008317144414739013
-0.003727536669773613,0.007922181721685226
-0.003727366669773613,0.007658873259649009
-0.003727196669773613,0.007724700375157166
-0.003727026669773613,0.007362651239857037
-0.003726856669773613,0.007593046144138938
-0.003726686669773613,0.007757613932911423
-0.003726516669773613,0.007691786817402729
-0.003726346669773613,0.007593046144139297
-0.003726176669773613,0.007527219028629823
-0.003726006669773613,0.007494305470875266
-0.003725836669773613,0.007296824124347924
-0.003725666669773613,0.007593046144138399
-0.003725496669773613,0.007296824124348462
-0.003725326669773613,0.007000602104557987
-0.003725156669773613,0.007428478355366092
-0.003724986669773613,0.007395564797611595
-0.003724816669773613,0.007198083451084253
-0.003724646669773613,0.007823441048419699
-0.003724476669773613,0.008053835952702317
-0.003724306669773613,0.00815257662596605
-0.003724136669773613,0.008679193550040938
-0.003723966669773613,0.009567859609412364
-0.003723796669773613,0.01025904432225806
-0.003723626669773613,0.009534946051659124
-0.003723456669773613,0.0108185748040832
-0.003723286669773613,0.0107856612463311
-0.003723116669773613,0.0111806239393862
-0.003722946669773613,0.01147684595917668
-0.003722776669773613,0.01272756115384985
-0.003722606669773613,0.01285921538486784
-0.003722436669773613,0.01266173403834109
-0.003722266669773613,0.01216803067202417
-0.003722096669773613,0.01249716624956813
-0.003721926669773613,0.01259590692283162
-0.003721756669773613,0.01256299336507706
-0.003721586669773613,0.01256299336507706
-0.003721416669773613,0.01220094422977759
-0.003721246669773613,0.01216803067202249
-0.003721076669773613,0.01177306797896745
-0.003720906669773613,0.01164141374794946
-0.003720736669773613,0.01104896970836743
-0.003720566669773613,0.01075274768857696
-0.003720396669773613,0.01012739009124097
-0.003720226669773613,0.01025904432225758
-0.003720056669773614,0.009995735860222564
-0.003719886669773613,0.01012739009123984
-0.003719716669773613,0.01002864941797616
-0.003719546669773613,0.009534946051658706
-0.003719376669773613,0.009567859609412303
-0.003719206669773613,0.009765340955938989
