Analysis/New Tests_CMB/wrd01_d2s01/cmb01_ch05.csv

#Digilent WaveForms Oscilloscope Acquisition
#Device Name: ADP3450
#Serial Number: SN:210018B9D9B0
#Date Time: 2024-08-14 14:47:45.456.461.230
#Sample rate: 5.88235e+06Hz
#Samples: 32768
#Trigger: Source: Channel 3 Type: Edge Condition: Rising Level: 50 mV Hyst.: Auto HoldOff: 0 s
#Channel 3: Range: 100 mV/div Offset: 0 V Attenuation: 1 X Coupling: DC Bandwidth: 0 Hz Sample Mode: Average

Time (s),Channel 3 (V)
-0.003798408662946317,0.2120520669154477
-0.003798238662946317,0.2188322598129244
-0.003798068662946317,0.2396994554292756
-0.003797898662946317,0.2480265855411786
-0.003797728662946317,0.2564853698841091
-0.003797558662946317,0.2616198848938107
-0.003797388662946317,0.2682355100024766
-0.003797218662946317,0.2724155318373155
-0.003797048662946317,0.2779779230978255
-0.003796878662946317,0.2781095773288438
-0.003796708662946317,0.279064070503727
-0.003796538662946317,0.279656514543308
-0.003796368662946317,0.2783399722331257
-0.003796198662946317,0.2777475281935325
-0.003796028662946317,0.2716585200089506
-0.003795858662946317,0.2692229167351134
-0.003795688662946317,0.2651087220157876
-0.003795518662946317,0.2617515391248289
-0.003795348662946317,0.2546422106498446
-0.003795178662946317,0.2526673971845629
-0.003795008662946317,0.2481253262144423
-0.003794838662946317,0.2459530314026415
-0.003794668662946317,0.2383170860035981
-0.003794498662946317,0.2339395828222282
-0.003794328662946317,0.2275214390600895
-0.003794158662946317,0.2246579595354483
-0.003793988662946317,0.2213995173177419
-0.003793818662946317,0.2175486310604587
-0.003793648662946317,0.213467349898901
-0.003793478662946317,0.2084315755624464
-0.003793308662946317,0.2055680960377999
-0.003793138662946317,0.2008943708366613
-0.003792968662946317,0.1985575082360793
-0.003792798662946317,0.1945091406322687
-0.003792628662946317,0.1922710187049629
-0.003792458662946317,0.1857870478273111
-0.003792288662946317,0.1835160123422467
-0.003792118662946317,0.1810474955106594
-0.003791948662946317,0.1776903126196901
-0.003791778662946317,0.1714367366463242
-0.003791608662946317,0.1691327876035094
-0.003791438662946317,0.1665655300986498
-0.003791268662946317,0.1645248895178672
-0.003791098662946317,0.1627804709568789
-0.003790928662946317,0.1611677066269024
-0.003790758662946317,0.1616614099932208
-0.003790588662946317,0.1548483035380398
-0.003790418662946317,0.1523139595909265
-0.003790248662946317,0.1434602125549507
-0.003790078662946317,0.1402675974527586
-0.003789908662946317,0.1424728058223139
-0.003789738662946317,0.1443159650565692
-0.003789568662946317,0.1389839687003309
-0.003789398662946317,0.1417487075517137
-0.003789228662946317,0.1402346838950041
-0.003789058662946317,0.1423082380335412
-0.003788888662946317,0.1391485364890951
-0.003788718662946317,0.1344089841724475
-0.003788548662946317,0.1297681725290549
-0.003788378662946317,0.1264109896380907
-0.003788208662946317,0.1267401252156357
-0.003788038662946317,0.1263122489648264
-0.003787868662946317,0.1285832844498875
-0.003787698662946317,0.1267401252156357
-0.003787528662946317,0.1254235829054534
-0.003787358662946317,0.1194004018363619
-0.003787188662946317,0.1152532935592952
-0.003787018662946317,0.1106453954736572
-0.003786848662946317,0.1091313718169422
-0.003786678662946317,0.1061362380612829
-0.003786508662946317,0.1065970278698467
-0.003786338662946317,0.1035689805564255
-0.003786168662946317,0.1024828331505271
-0.003785998662946317,0.098401551988962
-0.003785828662946317,0.09494562842472566
-0.003785658662946317,0.09063395235888652
-0.003785488662946317,0.08872496600912222
-0.003785318662946317,0.08819834908504688
-0.003785148662946317,0.08688180677486701
-0.003784978662946317,0.08701346100588525
-0.003784808662946317,0.0838866730192047
-0.003784638662946317,0.0852032153293846
-0.003784468662946317,0.08283343917105648
-0.003784298662946317,0.08266887138228401
-0.003784128662946317,0.07894963935601876
-0.003783958662946317,0.07779766483460926
-0.003783788662946317,0.07407843280835108
-0.003783618662946317,0.07588867848484493
-0.003783448662946317,0.07641529540891784
-0.003783278662946317,0.07825845464316969
-0.003783108662946317,0.07671151742870885
-0.003782938662946317,0.07358472944202593
-0.003782768662946317,0.07526332088750529
-0.003782598662946317,0.07180739732327984
-0.003782428662946317,0.06914139914516074
-0.003782258662946317,0.06772611616171736
-0.003782088662946317,0.06884517712536972
-0.003781918662946317,0.06868060933659692
-0.003781748662946317,0.06831856020129747
-0.003781578662946317,0.065553821349914
-0.003781408662946317,0.06486263663706832
-0.003781238662946317,0.06361192144239741
-0.003781068662946317,0.06232829268996741
-0.003780898662946317,0.05887236912573891
-0.003780728662946317,0.05696338277597807
-0.003780558662946317,0.05469234729091016
-0.003780388662946317,0.0502819305517995
-0.003780218662946317,0.04639813073676883
-0.003780048662946317,0.04600316804370708
-0.003779878662946317,0.05370494055827345
-0.003779708662946317,0.0535074592117461
-0.003779538662946317,0.05031484410955406
-0.003779368662946317,0.04939326449242647
-0.003779198662946317,0.04988696785874482
-0.003779028662946317,0.05768748104657485
-0.003778858662946317,0.05897110979900258
-0.003778688662946317,0.05508730998396484
-0.003778518662946317,0.05153264574647268
-0.003778348662946317,0.04847168487529886
-0.003778178662946317,0.05057815257159052
-0.003778008662946317,0.05199343555504222
-0.003777838662946317,0.05515313709947395
-0.003777668662946317,0.05390242190480079
-0.003777498662946317,0.05245422536359866
-0.003777328662946317,0.05156555930422723
-0.003777158662946317,0.04741845102715304
-0.003776988662946317,0.04791215439346798
-0.003776818662946317,0.04603608160146164
-0.003776648662946317,0.04689183410308012
-0.003776478662946317,0.04353465121211272
-0.003776308662946317,0.04211936822866934
-0.003776138662946317,0.0400787276478868
-0.003775968662946317,0.04241559024846383
-0.003775798662946317,0.04432457659822467
-0.003775628662946317,0.04360047832762441
-0.003775458662946317,0.03968376495482847
-0.003775288662946317,0.03767603793180414
-0.003775118662946317,0.0380051735093497
-0.003774948662946317,0.03497712619593075
-0.003774778662946317,0.03514169398470324
-0.003774608662946317,0.03474673129164855
-0.003774438662946317,0.03497712619592991
-0.003774268662946317,0.03468090417613943
-0.003774098662946317,0.03422011436757564
-0.003773928662946317,0.03204781955577385
-0.003773758662946317,0.0314882890739474
-0.003773588662946317,0.0298755247439741
-0.003773418662946317,0.02994135185948309
-0.003773248662946317,0.02615629271770915
-0.003773078662946317,0.02760448925890966
-0.003772908662946317,0.02753866214340066
-0.003772738662946317,0.03007300609050144
-0.003772568662946317,0.02875646378031916
-0.003772398662946317,0.02908559935786413
-0.003772228662946317,0.02753866214340054
-0.003772058662946317,0.02592589781342725
-0.003771888662946317,0.02246997424920504
-0.003771718662946317,0.02293076405776255
-0.003771548662946317,0.02444478771447217
-0.003771378662946317,0.02457644194549017
-0.003771208662946317,0.02474100973426319
-0.003771038662946317,0.02293076405776255
-0.003770868662946317,0.02240414713369059
-0.003770698662946317,0.0210546912657528
-0.003770528662946317,0.02214083867165318
-0.003770358662946317,0.01927735914701192
-0.003770188662946317,0.01473528817687783
-0.003770018662946317,0.009534946051657807
-0.003769848662946317,0.0144390661570779
-0.003769678662946317,0.02483975040752686
-0.003769508662946317,0.02743992147013687
-0.003769338662946317,0.02553093512037256
-0.003769168662946317,0.0273411807968732
-0.003768998662946317,0.0280323655097189
-0.003768828662946317,0.02925016714663752
-0.003768658662946317,0.02740700791238232
-0.003768488662946317,0.02605755204444548
-0.003768318662946317,0.02694621810381852
-0.003768148662946317,0.02497140463854509
-0.003767978662946317,0.02684747743055485
-0.003767808662946317,0.02441187415671762
-0.003767638662946317,0.02428021992569574
-0.003767468662946317,0.02227249290267141
-0.003767298662946317,0.02355612165509913
-0.003767128662946317,0.01973814895557224
-0.003766958662946317,0.02069264213045267
-0.003766788662946317,0.02033059299515254
-0.003766618662946317,0.02168004886308555
-0.003766448662946317,0.01957358116679772
-0.003766278662946317,0.02204209799838951
-0.003766108662946317,0.02164713530533338
-0.003765938662946317,0.02085720991922545
-0.003765768662946317,0.01881656933844291
-0.003765598662946317,0.01684175587317452
-0.003765428662946317,0.01960649472455228
-0.003765258662946317,0.02026476587964342
-0.003765088662946317,0.02237123357592825
-0.003764918662946317,0.01861908799191557
-0.003764748662946317,0.02023185232188887
-0.003764578662946317,0.0178291626058056
-0.003764408662946317,0.01750002702826063
-0.003764238662946317,0.01710506433520594
-0.003764068662946317,0.01838869308763247
-0.003763898662946317,0.01773042193254253
-0.003763728662946317,0.01828995241437
-0.003763558662946317,0.01828995241436473
-0.003763388662946317,0.01539355933196897
-0.003763218662946317,0.01578852202502366
-0.003763048662946317,0.01542647288972419
-0.003762878662946317,0.01740128635499695
-0.003762708662946317,0.01585434914053277
-0.003762538662946317,0.01624931183358674
-0.003762368662946317,0.01381370855975023
-0.003762198662946317,0.01746711347050607
-0.003762028662946317,0.01845452020314099
-0.003761858662946317,0.01838869308763367
-0.003761688662946317,0.01595308981379644
-0.003761518662946317,0.01664427452664088
-0.003761348662946317,0.01417575769505036
-0.003761178662946317,0.01427449836831403
-0.003761008662946317,0.01299086961588864
-0.003760838662946317,0.01394536279076846
-0.003760668662946317,0.01424158481055947
-0.003760498662946317,0.01325417807792456
-0.003760328662946317,0.01401118990627757
-0.003760158662946317,0.009666600282676035
-0.003759988662946317,0.006803120758034776
-0.003759818662946317,0.003149715847273728
-0.003759648662946317,0.00779052749066628
-0.003759478662946317,0.01391244923300277
-0.003759308662946317,0.0157556084672691
-0.003759138662946317,0.01384662211750479
-0.003758968662946317,0.01634805250684658
-0.003758798662946317,0.0203635065529071
-0.003758628662946317,0.02342446742408091
-0.003758458662946317,0.01809247106784265
-0.003758288662946317,0.01378079500199567
-0.003758118662946317,0.01085148836184009
-0.003757948662946317,0.009633686724921478
-0.003757778662946317,0.01381370855975023
-0.003757608662946317,0.01407701702178669
-0.003757438662946317,0.01624931183358745
-0.003757268662946317,0.01328709163567804
-0.003757098662946317,0.013682054328732
-0.003756928662946317,0.008415885088002865
-0.003756758662946317,0.01170724086343044
-0.003756588662946317,-0.003762131281183265
-0.003756418662946317,0.01466946106136872
-0.003756248662946317,0.008218403741470374
-0.003756078662946317,0.005387837774583611
-0.003755908662946317,0.006177763160692982
-0.003755738662946317,0.00663855296925732
-0.003755568662946317,0.006934774989047795
-0.003755398662946317,0.006638552969256781
-0.003755228662946317,0.006111936045183089
-0.003755058662946317,0.005684059794374625
-0.003754888662946317,0.005618232678865511
-0.003754718662946317,0.004992875081534613
-0.003754548662946317,0.00811966306821185
-0.003754378662946317,0.004762480177247026
-0.003754208662946317,0.006737293642517938
-0.003754038662946317,0.005354924216829054
-0.003753868662946317,0.005486578447847282
-0.003753698662946317,0.00522326998581328
-0.003753528662946317,0.006572725853747667
-0.003753358662946317,0.006901861431293239
-0.003753188662946317,0.04030912255212134
-0.003753018662946317,0.01427449836831403
-0.003752848662946317,0.004202949695419555
-0.003752678662946317,0.01786207616353591
-0.003752508662946317,0.01269464759609529
-0.003752338662946317,0.01397827634852302
-0.003752168662946317,0.01368205432873254
-0.003751998662946317,0.01588726269828733
-0.003751828662946317,0.01197054932549503
-0.003751658662946317,0.01407701702178286
-0.003751488662946317,0.01187180865223136
-0.003751318662946317,0.01374788144424112
-0.003751148662946317,0.01009447653349192
-0.003750978662946317,0.01236551201854972
-0.003750808662946317,0.01144393240142212
-0.003750638662946317,0.01315543740465597
-0.003750468662946317,0.01239842557630427
-0.003750298662946317,0.01457072038810504
-0.003750128662946317,0.01532773221645848
-0.003749958662946317,0.008514625761266537
-0.003749788662946317,0.005124529312547154
-0.003749618662946317,0.005289097101319641
-0.003749448662946317,0.0155252135629872
-0.003749278662946317,0.01628222539134202
-0.003749108662946317,0.01924444558924676
-0.003748938662946317,0.01799373039457898
-0.003748768662946317,0.01750002702826063
-0.003748598662946317,0.01618348471808074
-0.003748428662946317,0.01740128635499695
-0.003748258662946317,0.01341874586669555
-0.003748088662946317,0.009008329127584893
-0.003747918662946317,0.007132256335575138
-0.003747748662946317,0.007593046144138938
-0.003747578662946317,0.007889268163929951
-0.003747408662946317,0.007329737682102481
-0.003747238662946317,0.009337464705130465
-0.003747068662946317,0.009304551147375908
-0.003746898662946317,0.007395564797611595
-0.003746728662946317,0.007691786817402609
-0.003746558662946317,0.001734432863827772
-0.003746388662946317,-0.001161960218569422
-0.003746218662946317,0.0009445074777184018
-0.003746048662946317,0.002491444692182586
-0.003745878662946317,0.004992875081531321
-0.003745708662946317,0.00630941739171121
-0.003745538662946317,0.00756013258638438
-0.003745368662946317,0.005651146236619829
-0.003745198662946317,0.005519492005601839
-0.003745028662946317,0.004235863253174112
-0.003744858662946317,0.002458531134426891
-0.003744688662946317,0.001833173537091444
-0.003744518662946317,0.002886407385237271
-0.003744348662946317,0.004301690368687897
-0.003744178662946317,0.006868947873538681
-0.003744008662946317,0.01058817989980363
-0.003743838662946317,0.009765340955936832
-0.003743668662946317,0.008185490183720966
-0.003743498662946317,0.008251317299230079
-0.003743328662946317,0.006046108929672897
-0.003743158662946317,0.005025788639283483
-0.003742988662946317,0.007658873259648051
-0.003742818662946317,0.01124645105489945
-0.003742648662946317,0.01381370855975023
-0.003742478662946317,0.01401118990627757
-0.003742308662946317,0.01312252384690052
-0.003742138662946317,0.01091731547734921
-0.003741968662946317,0.009633686724921478
-0.003741798662946317,0.008317144414741587
-0.003741628662946317,0.008613366434530208
-0.003741458662946317,0.009107069800848565
-0.003741288662946317,0.01088440191959142
-0.003741118662946317,0.01308961028914997
-0.003740948662946317,0.01318835096241365
-0.003740778662946317,0.01302378317364116
-0.003740608662946317,0.01098314259285832
-0.003740438662946317,0.01048943922653996
-0.003740268662946317,0.008350057972497642
-0.003740098662946317,0.008053835952702737
-0.003739928662946317,0.000417890553645488
-0.003739758662946317,0.002886407385232781
-0.003739588662946317,0.0006811990156819448
-0.003739418662946317,0.0118388950944768
-0.003739248662946317,0.008481712203518085
-0.003739078662946317,0.005387837774583611
-0.003738908662946317,0.005684059794374625
-0.003738738662946317,0.00538783777458415
-0.003738568662946317,0.00802092239494818
-0.003738398662946317,0.002030654883618786
-0.003738228662946317,0.002261049787900267
-0.003738058662946317,0.003742159886855756
-0.003737888662946317,0.007198083451084253
-0.003737718662946317,0.009172896916354086
-0.003737548662946317,0.01016030364899439
-0.003737378662946317,0.00756013258638438
-0.003737208662946317,0.006967688546802352
-0.003737038662946317,0.005618232678865511
-0.003736868662946317,0.00677020720027501
-0.003736698662946317,0.008086749510457293
-0.003736528662946317,0.01177306797896769
-0.003736358662946317,0.006177763160692982
-0.003736188662946317,0.008975415569830336
-0.003736018662946317,0.0123325984607978
-0.003735848662946317,0.01378079500199567
-0.003735678662946317,0.01081857480408553
-0.003735508662946317,0.005025788639281806
-0.003735338662946317,0.004104209022155884
-0.003735168662946317,0.005025788639283483
-0.003734998662946317,0.008086749510454959
-0.003734828662946317,0.006803120758029567
-0.003734658662946317,0.008514625761266537
-0.003734488662946317,0.005815714025387645
-0.003734318662946317,0.002952234500746385
-0.003734148662946317,0.001668605748318658
-0.003733978662946317,0.00446625815745709
-0.003733808662946317,0.00505870219703804
-0.003733638662946317,0.003445937867064742
-0.003733468662946317,0.0001545820916237591
-0.003733298662946317,0.008251317299230079
-0.003733128662946317,0.01193763576774048
-0.003732958662946317,0.0160518304870591
-0.003732788662946317,0.01549230000523264
-0.003732618662946317,0.008547539319021094
-0.003732448662946317,0.006276503833953241
-0.003732278662946317,0.004400431041946898
-0.003732108662946317,0.00950203249390325
-0.003731938662946317,0.00933746470514172
-0.003731768662946317,0.0155252135629872
-0.003731598662946317,0.01335291875118643
-0.003731428662946317,0.01239842557630601
-0.003731258662946317,0.00973242739818515
-0.003731088662946317,0.01220094422977693
-0.003730918662946317,0.01012739009124361
-0.003730748662946317,0.01328709163567732
-0.003730578662946317,0.01302378317364086
-0.003730408662946317,0.01233259846079642
-0.003730238662946317,0.01335291875118643
-0.003730068662946317,0.01088440191959465
-0.003729898662946317,0.01019321720675021
-0.003729728662946317,0.006375244507220324
-0.003729558662946317,0.00802092239494818
-0.003729388662946317,0.005223269985815914
-0.003729218662946317,0.005420751332338168
-0.003729048662946317,0.01157558663244035
-0.003728878662946317,0.008053835952709143
-0.003728708662946317,0.006704380084765896
-0.003728538662946317,0.006210676718447538
-0.003728368662946317,0.005256183543567119
-0.003728198662946317,0.004104209022155884
-0.003728028662946317,0.004630825946228797
-0.003727858662946317,0.005190356428055251
-0.003727688662946317,0.006803120758029567
-0.003727518662946317,0.007691786817402609
-0.003727348662946317,0.006210676718450233
-0.003727178662946317,0.004992875081528926
-0.003727008662946317,0.006243590276202096
-0.003726838662946317,0.00607902248742931
-0.003726668662946317,0.00802092239494818
-0.003726498662946317,0.005782800467638296
-0.003726328662946317,0.006177763160692982
-0.003726158662946317,0.005552405563356397
-0.003725988662946317,0.008448798645757422
-0.003725818662946317,0.008382971530248308
-0.003725648662946317,0.007395564797611595
-0.003725478662946317,0.006276503833956653
-0.003725308662946317,0.006934774989047795
-0.003725138662946317,0.006408158064973624
-0.003724968662946317,0.005716973352129182
-0.003724798662946317,0.007757613932911723
-0.003724628662946317,0.008547539319023129
-0.003724458662946317,0.009666600282676035
-0.003724288662946317,0.002623098923200814
-0.003724118662946317,-0.0002403806014495456
-0.003723948662946317,-0.002379761855491866
-0.003723778662946317,0.008218403741475522
-0.003723608662946317,0.01141101884366547
-0.003723438662946317,0.01025904432225806
-0.003723268662946317,0.01098314259285832
-0.003723098662946317,0.01157558663244657
-0.003722928662946317,0.01499859663891429
-0.003722758662946317,0.01664427452664214
-0.003722588662946317,0.0131225238468992
-0.003722418662946317,0.01019321720674895
-0.003722248662946317,0.01081857480408553
-0.003722078662946317,0.01022613076450865
-0.003721908662946317,0.01305669673139542
-0.003721738662946317,0.01364914077097745
-0.003721568662946317,0.01802664395232989
-0.003721398662946317,0.01601891692930556
-0.003721228662946317,0.01499859663891429
-0.003721058662946317,0.01322126452016838
-0.003720888662946317,0.01332000519343187
-0.003720718662946317,0.01226677134528605
-0.003720548662946317,0.01414284413729239
-0.003720378662946317,0.01016030364899439
-0.003720208662946317,0.009534946051657807
-0.003720038662946317,0.01124645105489166
-0.003719868662946317,0.009074156243094007
-0.003719698662946317,0.006605639411502225
-0.003719528662946317,0.005322010659076832
