Analysis/New Tests_CMB/wrd01_d2s01/cmb07_ch03.csv

#Digilent WaveForms Oscilloscope Acquisition
#Device Name: ADP3450
#Serial Number: SN:210018B9D9B0
#Date Time: 2024-08-07 10:22:37.700.830.130
#Sample rate: 2.94118e+06Hz
#Samples: 32768
#Trigger: Source: Channel 3 Type: Edge Condition: Rising Level: 0 V Hyst.: Auto HoldOff: 0 s
#Channel 3: Range: 200 mV/div Offset: 0 V Attenuation: 1 X Coupling: DC Bandwidth: 0 Hz Sample Mode: Average

Time (s),Channel 3 (V)
-0.005570286341463415,0.01624931183358745
-0.005569946341463414,0.01572269490951329
-0.005569606341463414,0.01503151019666884
-0.005569266341463415,0.01559104067849632
-0.005568926341463414,0.01684175587317104
-0.005568586341463414,0.01769750837478797
-0.005568246341463415,0.01769750837478797
-0.005567906341463414,0.01730254568173191
-0.005567566341463414,0.01654553385337847
-0.005567226341463415,0.01555812712074176
-0.005566886341463414,0.0148340288501406
-0.005566546341463414,0.01434032548382314
-0.005566206341463415,0.01427449836831403
-0.005565866341463414,0.01384662211750629
-0.005565526341463414,0.01466946106136872
-0.005565186341463415,0.01526190510095074
-0.005564846341463414,0.01592017625604273
-0.005564506341463414,0.01638096606460569
-0.005564166341463415,0.01608474404481467
-0.005563826341463414,0.01595308981379543
-0.005563486341463414,0.01539355933196897
-0.005563146341463415,0.0148340288501415
-0.005562806341463415,0.01434032548382404
-0.005562466341463414,0.01410993057954124
-0.005562126341463415,0.01378079500199567
-0.005561786341463415,0.0134516594244507
-0.005561446341463414,0.01394536279076846
-0.005561106341463415,0.0141428441372958
-0.005560766341463415,0.01457072038810426
-0.005560426341463414,0.01526190510095074
-0.005560086341463415,0.01608474404481467
-0.005559746341463415,0.01621639827583266
-0.005559406341463414,0.01542647288972353
-0.005559066341463414,0.01539355933196897
-0.005558726341463415,0.01575560846726844
-0.005558386341463414,0.01592017625604189
-0.005558046341463414,0.01601891692930556
-0.005557706341463415,0.01631513894909603
-0.005557366341463414,0.01628222539134202
-0.005557026341463414,0.01624931183358745
-0.005556686341463415,0.01677592875765941
-0.005556346341463414,0.01677592875766037
-0.005556006341463414,0.01796081683682443
-0.005555666341463415,0.01914570491598633
-0.005555326341463414,0.01996854385985241
-0.005554986341463414,0.02016602520637975
-0.005554646341463415,0.01940901337802632
-0.005554306341463414,0.01957358116679772
-0.005553966341463414,0.01960649472455228
-0.005553626341463415,0.01954066760904317
-0.005553286341463414,0.01842160664538823
-0.005552946341463414,0.01796081683682443
-0.005552606341463415,0.01677592875766037
-0.005552266341463414,0.015986003371551
-0.005551926341463414,0.0171379778929605
-0.005551586341463415,0.02329281319306268
-0.005551246341463414,0.03662280408369758
-0.005550906341463414,0.05821409797064777
-0.005550566341463415,0.08658558475507599
-0.005550226341463414,0.1206840305888619
-0.005549886341463414,0.1562965000792279
-0.005549546341463415,0.1908886492792675
-0.005549206341463414,0.2212020359712598
-0.005548866341463414,0.2460517720759052
-0.005548526341463415,0.2637592661478569
-0.005548186341463414,0.2746207402068703
-0.005547846341463414,0.2798869094475899
-0.005547506341463415,0.2809401432957357
-0.005547166341463414,0.2784716264641354
-0.005546826341463414,0.2737649877052423
-0.005546486341463415,0.2680051150981947
-0.005546146341463414,0.2610274408542159
-0.005545806341463414,0.2540497666102626
-0.005545466341463415,0.2469075245775237
-0.005545126341463414,0.2395678011982441
-0.005544786341463414,0.2322609913767457
-0.005544446341463415,0.2243946510734066
-0.005544106341463414,0.2166599650010703
-0.005543766341463414,0.2082011806581645
-0.005543426341463415,0.2007627166056346
-0.005543086341463414,0.1944433135167473
-0.005542746341463414,0.1876631206193209
-0.005542406341463415,0.1813108039726913
-0.005542066341463415,0.1755180178078998
-0.005541726341463414,0.1691986147190143
-0.005541386341463415,0.1623196811483119
-0.005541046341463415,0.1555394882508855
-0.005540706341463414,0.1489238631422072
-0.005540366341463415,0.1430981634196505
-0.005540026341463415,0.1379307348521945
-0.005539686341463414,0.1339811079216382
-0.005539346341463415,0.1301960487798642
-0.005539006341463415,0.126608470984624
-0.005538666341463414,0.1230538067471253
-0.005538326341463415,0.1198282780871787
-0.005537986341463415,0.1159773918299025
-0.005537646341463414,0.1125543818234216
-0.005537306341463414,0.1092630260479658
-0.005536966341463415,0.1063666329655701
-0.005536626341463414,0.1031740178633728
-0.005536286341463414,0.1002117976654626
-0.005535946341463415,0.09708500967878539
-0.005535606341463414,0.09415570303862414
-0.005535266341463414,0.09132513707173223
-0.005534926341463415,0.08869205245137245
-0.005534586341463414,0.08615770850426674
-0.005534246341463414,0.08355753744165675
-0.005533906341463415,0.08108902061006945
-0.005533566341463414,0.07894963935601876
-0.005533226341463414,0.07674443098646341
-0.005532886341463415,0.0743088277126262
-0.005532546341463414,0.07226818713184366
-0.005532206341463414,0.07012880587779743
-0.005531866341463415,0.06848312799006959
-0.005531526341463414,0.06706784500662363
-0.005531186341463414,0.06506011798359565
-0.005530846341463415,0.06292073672954943
-0.005530506341463414,0.06134088595733069
-0.005530166341463414,0.05887236912573891
-0.005529826341463415,0.05686464210271093
-0.005529486341463414,0.054725260848661
-0.005529146341463414,0.05268462026788218
-0.005528806341463415,0.05044649834057229
-0.005528466341463414,0.04830711708652369
-0.005528126341463414,0.0469905747763438
-0.005527786341463415,0.04573985958167062
-0.005527446341463414,0.04462079861801395
-0.005527106341463414,0.04366630544313353
-0.005526766341463415,0.04317260207681517
-0.005526426341463414,0.04294220717253375
-0.005526086341463414,0.04320551563456973
-0.005525746341463415,0.04317260207681517
-0.005525406341463414,0.04182314620887576
-0.005525066341463414,0.04040786322543238
-0.005524726341463415,0.03872927177994996
-0.005524386341463414,0.03688611254569303
-0.005524046341463414,0.03593161937081261
-0.005523706341463415,0.03533917533123058
-0.005523366341463414,0.03477964484940299
-0.005523026341463414,0.034713817733894
-0.005522686341463415,0.03504295331143956
-0.005522346341463414,0.03491129908042163
-0.005522006341463414,0.03507586686919412
-0.005521666341463415,0.03425302792533019
-0.005521326341463414,0.03343018898146411
-0.005520986341463414,0.03224530090230221
-0.005520646341463415,0.03145537551619284
-0.005520306341463415,0.03007300609050396
-0.005519966341463414,0.0287235502225646
-0.005519626341463415,0.02727535368136409
-0.005519286341463415,0.02618920627546568
-0.005518946341463414,0.02533345377384522
-0.005518606341463415,0.02483975040752686
-0.005518266341463415,0.02398399790590993
-0.005517926341463414,0.02385234367489015
-0.005517586341463415,0.0243460470412085
-0.005517246341463415,0.02467518261875348
-0.005516906341463414,0.02474100973426319
-0.005516566341463414,0.02516888598507243
-0.005516226341463415,0.02477392329201846
-0.005515886341463414,0.02447770127222673
-0.005515546341463414,0.02388525723264471
-0.005515206341463415,0.02358903521285423
-0.005514866341463414,0.02312824540428989
-0.005514526341463414,0.02250288780695331
-0.005514186341463415,0.02184461665186336
-0.005513846341463414,0.02177878953635305
-0.005513506341463414,0.02227249290267141
-0.005513166341463415,0.02256871492246188
-0.005512826341463414,0.02253580136470787
-0.005512486341463414,0.02217375222940774
-0.005512146341463415,0.02075846924596178
-0.005511806341463414,0.02026476587964342
-0.005511466341463414,0.01954066760904317
-0.005511126341463415,0.01924444558925215
-0.005510786341463414,0.01954066760904317
-0.005510446341463414,0.02010019809087064
-0.005510106341463415,0.02010019809087064
-0.005509766341463414,0.02033059299515254
-0.005509426341463414,0.01986980318658874
-0.005509086341463415,0.01973814895557051
-0.005508746341463414,0.01894822356945916
-0.005508406341463414,0.01786207616356076
-0.005508066341463415,0.01671010164215126
-0.005507726341463414,0.01608474404481281
-0.005507386341463414,0.0150644237544234
-0.005507046341463415,0.0146036339458596
-0.005506706341463414,0.01447197971484233
-0.005506366341463414,0.01499859663891429
-0.005506026341463415,0.0162163982758329
-0.005505686341463414,0.0170721507774521
-0.005505346341463414,0.01746711347050607
-0.005505006341463415,0.01786207616356076
-0.005504666341463414,0.01838869308763439
-0.005504326341463414,0.01878365578068835
-0.005503986341463415,0.01911279135823393
-0.005503646341463414,0.01934318626251576
-0.005503306341463414,0.01931027270476127
-0.005502966341463415,0.01898113712721569
-0.005502626341463414,0.01898113712721546
-0.005502286341463414,0.01884948289619747
-0.005501946341463415,0.01743419991275151
-0.005501606341463414,0.01654553385337548
-0.005501266341463414,0.01489985596565062
-0.005500926341463415,0.01407701702178669
-0.005500586341463414,0.01437323904157746
-0.005500246341463414,0.01424158481055947
-0.005499906341463415,0.01526190510095074
-0.005499566341463415,0.0157226949095137
-0.005499226341463414,0.01611765760256923
-0.005498886341463415,0.01585434914053277
-0.005498546341463415,0.01539355933196981
-0.005498206341463414,0.01476820173463239
-0.005497866341463415,0.01470237461912327
-0.005497526341463415,0.01457072038810528
-0.005497186341463414,0.01447197971484137
-0.005496846341463415,0.01453780683035049
-0.005496506341463415,0.01453780683035049
-0.005496166341463414,0.01453780683035049
-0.005495826341463414,0.0143732390415777
-0.005495486341463415,0.01460363394585918
-0.005495146341463414,0.01578852202502366
-0.005494806341463414,0.01671010164215126
-0.005494466341463415,0.01786207616355866
-0.005494126341463414,0.01799373039457898
-0.005493786341463414,0.01756585414376974
-0.005493446341463415,0.01707215077745228
-0.005493106341463414,0.015986003371551
-0.005492766341463414,0.01434032548382314
-0.005492426341463415,0.01355040009771521
-0.005492086341463414,0.01210220355651326
-0.005491746341463414,0.01124645105489478
-0.005491406341463415,0.01085148836184081
-0.005491066341463414,0.01124645105489478
-0.005490726341463414,0.01167432730570402
-0.005490386341463415,0.01239842557630427
-0.005490046341463414,0.01318835096241365
-0.005489706341463414,0.01381370855975023
-0.005489366341463415,0.01496568308115973
-0.005489026341463414,0.01585434914053277
-0.005488686341463414,0.01661136096888758
-0.005488346341463415,0.0175987677015243
-0.005488006341463414,0.01786207616356094
-0.005487666341463414,0.01796081683682443
-0.005487326341463415,0.01746711347050607
-0.005486986341463414,0.01730254568173268
-0.005486646341463414,0.01697341010418771
-0.005486306341463415,0.01671010164215126
-0.005485966341463414,0.01730254568173322
-0.005485626341463414,0.01726963212397873
-0.005485286341463415,0.0178291626058062
-0.005484946341463414,0.01835577952988001
-0.005484606341463414,0.01884948289619747
-0.005484266341463415,0.01868491510742468
-0.005483926341463414,0.01884948289619639
-0.005483586341463414,0.01825703885661544
-0.005483246341463415,0.01779624904805164
-0.005482906341463414,0.01677592875765864
-0.005482566341463414,0.01582143558277821
-0.005482226341463415,0.01509733731217796
-0.005481886341463414,0.014866942407896
-0.005481546341463414,0.0148340288501415
-0.005481206341463415,0.01595308981379644
-0.005480866341463414,0.01654553385337943
-0.005480526341463414,0.01707215077745139
-0.005480186341463415,0.0169075829886786
-0.005479846341463414,0.01654553385337877
-0.005479506341463414,0.01671010164215126
-0.005479166341463415,0.01664427452664214
-0.005478826341463415,0.01631513894909717
-0.005478486341463414,0.01605183048706011
-0.005478146341463415,0.0152948186587053
-0.005477806341463415,0.01522899154319631
-0.005477466341463414,0.01476820173463239
-0.005477126341463415,0.01476820173463239
-0.005476786341463415,0.01427449836831493
-0.005476446341463414,0.01463654750361416
-0.005476106341463415,0.01453780683035049
-0.005475766341463415,0.01499859663891345
-0.005475426341463414,0.01549230000523264
-0.005475086341463415,0.0155252135629872
-0.005474746341463415,0.01592017625604117
-0.005474406341463414,0.015986003371551
-0.005474066341463414,0.01618348471807834
-0.005473726341463415,0.01651262029562331
-0.005473386341463414,0.0164467931801148
-0.005473046341463414,0.01684175587316948
-0.005472706341463415,0.01697341010418747
-0.005472366341463414,0.01766459481703341
-0.005472026341463414,0.01743419991275151
-0.005471686341463415,0.01763168125927849
-0.005471346341463414,0.01769750837478797
-0.005471006341463414,0.01773042193254253
-0.005470666341463415,0.01845452020314146
-0.005470326341463414,0.01884948289619747
-0.005469986341463414,0.01954066760904317
-0.005469646341463415,0.01983688962883418
-0.005469306341463414,0.01983688962883418
-0.005468966341463414,0.02013311164862519
-0.005468626341463415,0.01973814895557051
-0.005468286341463414,0.01977106251332507
-0.005467946341463414,0.01947484049353405
-0.005467606341463415,0.01828995241437
-0.005467266341463414,0.01700632366194227
-0.005466926341463414,0.01568978135175999
-0.005466586341463415,0.01450489327259593
-0.005466246341463414,0.01381370855974856
-0.005465906341463414,0.01289212894262263
-0.005465566341463415,0.0125300798073225
-0.005465226341463414,0.01259590692283264
-0.005464886341463414,0.01315543740465909
-0.005464546341463415,0.01358331365546833
-0.005464206341463414,0.0135833136554706
-0.005463866341463414,0.0148340288501415
-0.005463526341463415,0.01522899154319619
-0.005463186341463414,0.01559104067849578
-0.005462846341463414,0.0152948186587053
-0.005462506341463415,0.01549230000523264
-0.005462166341463414,0.01545938644747695
-0.005461826341463414,0.0148340288501415
-0.005461486341463415,0.01453780683035049
-0.005461146341463414,0.01430741192606966
-0.005460806341463414,0.01489985596565062
-0.005460466341463415,0.01470237461912327
-0.005460126341463414,0.01453780683034941
-0.005459786341463414,0.01394536279076846
-0.005459446341463415,0.01358331365546833
-0.005459106341463414,0.01332000519343205
-0.005458766341463414,0.01341874586669555
-0.005458426341463415,0.01312252384690453
-0.005458086341463414,0.01394536279076804
-0.005457746341463414,0.01371496788648656
-0.005457406341463415,0.01381370855975023
-0.005457066341463415,0.01355040009771425
-0.005456726341463414,0.01378079500199567
-0.005456386341463415,0.01407701702178669
-0.005456046341463415,0.01434032548382267
-0.005455706341463414,0.0143732390415777
-0.005455366341463415,0.01486694240789606
-0.005455026341463415,0.01486694240789606
-0.005454686341463414,0.01539355933196897
-0.005454346341463415,0.01582143558277821
-0.005454006341463415,0.01618348471807768
-0.005453666341463414,0.01588726269828733
-0.005453326341463414,0.01542647288972353
-0.005452986341463415,0.01489985596565157
-0.005452646341463414,0.01440615259933226
-0.005452306341463414,0.01440615259933226
-0.005451966341463415,0.01424158481055977
-0.005451626341463414,0.01355040009771377
-0.005451286341463414,0.01338583230894099
-0.005450946341463415,0.01420867125280342
-0.005450606341463414,0.01417575769505036
-0.005450266341463414,0.0143732390415777
-0.005449926341463415,0.01483402885014066
-0.005449586341463414,0.0152948186587053
-0.005449246341463414,0.01559104067849632
-0.005448906341463415,0.01595308981379578
-0.005448566341463414,0.01605183048706011
-0.005448226341463414,0.01657844741113303
-0.005447886341463415,0.01624931183358745
-0.005447546341463414,0.01592017625604189
-0.005447206341463414,0.01509733731217796
-0.005446866341463415,0.01447197971484137
-0.005446526341463414,0.01387953567525935
-0.005446186341463414,0.013682054328732
-0.005445846341463415,0.01358331365546833
-0.005445506341463414,0.0137149678864871
-0.005445166341463414,0.01401118990627757
-0.005444826341463415,0.01440615259933226
-0.005444486341463414,0.01516316442768779
-0.005444146341463414,0.01555812712074176
-0.005443806341463415,0.01585434914053277
-0.005443466341463414,0.01628222539134327
-0.005443126341463414,0.01697341010418771
-0.005442786341463415,0.01753294058601518
-0.005442446341463414,0.01802664395233522
-0.005442106341463414,0.01894822356946114
-0.005441766341463415,0.01927735914700671
-0.005441426341463414,0.01944192693577878
-0.005441086341463414,0.01904696424272481
-0.005440746341463415,0.01865200154967013
-0.005440406341463414,0.01812538462559679
-0.005440066341463414,0.01789498972131531
-0.005439726341463415,0.01730254568173328
-0.005439386341463414,0.01717089145071464
-0.005439046341463414,0.01694049654643316
-0.005438706341463415,0.01661136096888758
-0.005438366341463414,0.015591040678495
-0.005438026341463414,0.01486694240789606
-0.005437686341463415,0.01364914077097745
-0.005437346341463414,0.01318835096241436
-0.005437006341463414,0.01358331365546833
-0.005436666341463415,0.01447197971484137
-0.005436326341463415,0.01559104067849428
-0.005435986341463414,0.01634805250685113
-0.005435646341463415,0.0157556084672691
-0.005435306341463415,0.01549230000523312
-0.005434966341463414,0.01447197971484137
-0.005434626341463415,0.0141428441372958
-0.005434286341463415,0.01381370855975083
-0.005433946341463414,0.01473528817687783
-0.005433606341463415,0.01555812712074176
-0.005433266341463415,0.01615057116032271
-0.005432926341463414,0.0173683727972424
-0.005432586341463415,0.01796081683682443
-0.005432246341463415,0.0181912117411059
-0.005431906341463414,0.01855326087640645
-0.005431566341463414,0.01832286597212456
-0.005431226341463415,0.01842160664538805
-0.005430886341463414,0.01812538462559721
-0.005430546341463414,0.01743419991275151
-0.005430206341463415,0.01568978135176316
-0.005429866341463414,0.01226677134528605
-0.005429526341463414,0.003445937867064742
-0.005429186341463415,-0.01162847158449499
-0.005428846341463414,-0.03424008576190315
-0.005428506341463414,-0.06350023860570442
-0.005428166341463415,-0.09700624039978259
-0.005427826341463414,-0.1314009082533557
-0.005427486341463414,-0.1643144660079128
-0.005427146341463415,-0.1925872121190774
-0.005426806341463414,-0.2141785060060669
-0.005426466341463414,-0.2300428408437634
-0.005426126341463415,-0.2391928098995303
-0.005425786341463414,-0.2424183385594769
-0.005425446341463414,-0.2409701420182764
-0.005425106341463415,-0.2371850828765023
-0.005424766341463414,-0.2308985933453819
-0.005424426341463414,-0.2238550919859066
-0.005424086341463415,-0.2158900110093038
-0.005423746341463414,-0.2080894978214607
-0.005423406341463414,-0.2009143422309803
-0.005423066341463415,-0.1933442239474322
-0.005422726341463414,-0.1865311174922271
-0.005422386341463414,-0.1800800601723457
-0.005422046341463415,-0.1740897926610163
-0.005421706341463414,-0.1678691302453945
-0.005421366341463414,-0.162076344080603
-0.005421026341463415,-0.1560202494537644
-0.005420686341463414,-0.1498325005958965
-0.005420346341463414,-0.1436776652958055
-0.005420006341463415,-0.1376544842267216
-0.005419666341463414,-0.1320262658506828
-0.005419326341463414,-0.1267600966099632
-0.005418986341463415,-0.1212306189071976
-0.005418646341463414,-0.1161948445707419
-0.005418306341463414,-0.1115540329273578
-0.005417966341463415,-0.1073081839770199
-0.005417626341463414,-0.1036876926240132
-0.005417286341463414,-0.1006925588683539
-0.005416946341463415,-0.09736828953514368
-0.005416606341463414,-0.09384653885539876
-0.005416266341463414,-0.08983108480935009
-0.005415926341463415,-0.0863751612451216
-0.005415586341463414,-0.08239262075681421
-0.005415246341463414,-0.07910126498136449
-0.005414906341463415,-0.07538203295509954
-0.005414566341463415,-0.07182736871761383
-0.005414226341463414,-0.06833853159562431
-0.005413886341463415,-0.06521174360894139
-0.005413546341463415,-0.06221660985328213
-0.005413206341463414,-0.05958352523291212
-0.005412866341463415,-0.05691752705479299
-0.005412526341463415,-0.05369199839485227
-0.005412186341463414,-0.05099308665897272
-0.005411846341463415,-0.04852456982738093
-0.005411506341463415,-0.04572691741824866
