Analysis/New Tests_CMB/wrd01_d2s01/cmb02_ch39.csv

#Digilent WaveForms Oscilloscope Acquisition
#Device Name: ADP3450
#Serial Number: SN:210018B9D9B0
#Date Time: 2024-08-06 13:14:56.354.013.940
#Sample rate: 2.94118e+06Hz
#Samples: 32768
#Trigger: Source: Channel 3 Type: Edge Condition: Rising Level: 20 mV Hyst.: Auto HoldOff: 0 s
#Channel 3: Range: 200 mV/div Offset: 0 V Attenuation: 1 X Coupling: DC Bandwidth: 0 Hz Sample Mode: Average

Time (s),Channel 3 (V)
-0.005570388373205742,0.02243706069144419
-0.005570048373205742,0.02316115896204397
-0.005569708373205742,0.02289785050000799
-0.005569368373205742,0.02158130818982571
-0.005569028373205742,0.02128508617003607
-0.005568688373205742,0.02204209799838951
-0.005568348373205742,0.0210546912657528
-0.005568008373205742,0.02003437097535901
-0.005567668373205742,0.01865200154967013
-0.005567328373205742,0.01687466943092404
-0.005566988373205742,0.01509733731217622
-0.005566648373205742,0.0141428441372958
-0.005566308373205742,0.01312252384690453
-0.005565968373205742,0.01246425269181447
-0.005565628373205742,0.01305669673139542
-0.005565288373205742,0.01289212894262263
-0.005564948373205742,0.01361622721322343
-0.005564608373205742,0.0139124492330139
-0.005564268373205742,0.01443906615708682
-0.005563928373205742,0.01460363394585972
-0.005563588373205742,0.01466946106136872
-0.005563248373205742,0.01417575769505036
-0.005562908373205742,0.01414284413729586
-0.005562568373205742,0.01473528817687783
-0.005562228373205742,0.01144393240142212
-0.005561888373205742,0.01055526634205069
-0.005561548373205742,0.01088440191959465
-0.005561208373205742,0.01062109345755819
-0.005560868373205742,0.009008329127587826
-0.005560528373205742,0.01019321720674895
-0.005560188373205742,0.01127936461264933
-0.005559848373205742,0.01088440191959537
-0.005559508373205742,0.01180598153672225
-0.005559168373205742,0.01144393240142212
-0.005558828373205742,0.0116085001901946
-0.005558488373205742,0.0127604747116044
-0.005558148373205742,0.01272756115384985
-0.005557808373205742,0.01118062393938848
-0.005557468373205742,0.01035778499552173
-0.005557128373205742,0.00973242739818515
-0.005556788373205742,0.00890958845432272
-0.005556448373205742,0.008613366434530208
-0.005556108373205742,0.008448798645757422
-0.005555768373205742,0.007988008837194461
-0.005555428373205742,0.007724700375157166
-0.005555088373205742,0.006934774989047795
-0.005554748373205742,0.00604610892967637
-0.005554408373205742,0.005585319121110954
-0.005554068373205742,0.00607902248742931
-0.005553728373205742,0.006704380084765896
-0.005553388373205742,0.006901861431293239
-0.005553048373205742,0.00802092239494818
-0.005552708373205742,0.008415885088002865
-0.005552368373205742,0.008152576625966409
-0.005552028373205742,0.008284230856984636
-0.005551688373205742,0.008218403741475522
-0.005551348373205742,0.007494305470874249
-0.005551008373205742,0.006934774989047795
-0.005550668373205742,0.00630941739171121
-0.005550328373205742,0.007790527490667238
-0.005549988373205742,0.008317144414739193
-0.005549648373205742,0.007198083451084253
-0.005549308373205742,0.008580452876778465
-0.005548968373205742,0.01012739009123984
-0.005548628373205742,0.01025904432225806
-0.005548288373205742,0.009469118936147615
-0.005547948373205742,0.008876674896566664
-0.005547608373205742,0.008679193550039321
-0.005547268373205742,0.006441071622726625
-0.005546928373205742,0.004894134408265255
-0.005546588373205742,0.003413024309310185
-0.005546248373205742,0.002129395556879883
-0.005545908373205742,0.000714112573436502
-0.005545568373205742,0.0003191498803818167
-0.005545228373205742,0.001043248150984049
-0.005544888373205742,0.002129395556882458
-0.005544548373205742,0.004466258157456012
-0.005544208373205742,0.005815714025396146
-0.005543868373205742,0.007625959701893495
-0.005543528373205742,0.008876674896566664
-0.005543188373205742,0.00960077316716716
-0.005542848373205742,0.00973242739818515
-0.005542508373205742,0.009403291820639578
-0.005542168373205742,0.008020922394950693
-0.005541828373205742,0.007593046144138938
-0.005541488373205742,0.006013195371920196
-0.005541148373205742,0.005387837774584748
-0.005540808373205742,0.003939641233383098
-0.005540468373205742,0.001668605748318658
-0.005540128373205742,0.001701519306073155
-0.005539788373205742,0.002524358249937143
-0.005539448373205742,0.002458531134428029
-0.005539108373205742,0.002195222672392051
-0.005538768373205742,0.002721839596464486
-0.005538428373205742,0.003643419213592085
-0.005538088373205742,0.004170036137664041
-0.005537748373205742,0.00380798700236487
-0.005537408373205742,0.002886407385237271
-0.005537068373205742,0.002359790461165315
-0.005536728373205742,0.002952234500746385
-0.005536388373205742,0.002228136230146129
-0.005536048373205742,0.002721839596463587
-0.005535708373205742,0.003215542962782842
-0.005535368373205742,0.003906727675628541
-0.005535028373205742,0.00499287508152695
-0.005534688373205742,0.006210676718447538
-0.005534348373205742,0.006408158064974882
-0.005534008373205742,0.00713225633557382
-0.005533668373205742,0.007757613932911723
-0.005533328373205742,0.007856354606175394
-0.005532988373205742,0.007856354606175394
-0.005532648373205742,0.00811966306821185
-0.005532308373205742,0.007625959701893495
-0.005531968373205742,0.00700060210455691
-0.005531628373205742,0.009238724031866792
-0.005531288373205742,0.009798254513694264
-0.005530948373205742,0.01045652566878541
-0.005530608373205742,0.00950203249390325
-0.005530268373205742,0.007922181721684508
-0.005529928373205742,0.006836034315784124
-0.005529588373205742,0.006671466527008046
-0.005529248373205742,0.004861220850510698
-0.005528908373205742,0.002491444692182586
-0.005528568373205742,0.001767346421581072
-0.005528228373205742,0.00107616170873663
-0.005527888373205742,0.0005495447846637165
-0.005527548373205742,0.001010334593229192
-0.005527208373205742,0.001931914210355115
-0.005526868373205742,0.002952234500746385
-0.005526528373205742,0.004367517484194676
-0.005526188373205742,0.005651146236620068
-0.005525848373205742,0.00607902248742931
-0.005525508373205742,0.007033515662312724
-0.005525168373205742,0.007724700375157166
-0.005524828373205742,0.008382971530248308
-0.005524488373205742,0.009436205378396111
-0.005524148373205742,0.01052235278429452
-0.005523808373205742,0.01104896970836743
-0.005523468373205742,0.01091731547734837
-0.005523128373205742,0.01045652566878541
-0.005522788373205742,0.009271637589621349
-0.005522448373205742,0.007560132586380189
-0.005522108373205742,0.005256183543565383
-0.005521768373205742,0.004433344599701455
-0.005521428373205742,0.003972554791135919
-0.005521088373205742,0.0030180616162555
-0.005520748373205742,0.001734432863827772
-0.005520408373205742,0.001010334593228833
-0.005520068373205742,0.00176734642158233
-0.005519728373205742,0.003182629405028285
-0.005519388373205742,0.00288640738523781
-0.005519048373205742,0.0027876667119736
-0.005518708373205742,0.003281370078291956
-0.005518368373205742,0.002787666711974498
-0.005518028373205742,0.0027876667119736
-0.005517688373205742,0.004564998830719684
-0.005517348373205742,0.005420751332336611
-0.005517008373205742,0.003445937867064742
-0.005516668373205742,0.004367517484192341
-0.005516328373205742,0.004992875081527789
-0.005515988373205742,0.004301690368683227
-0.005515648373205742,0.004170036137664999
-0.005515308373205742,0.004005468348892512
-0.005514968373205742,0.003676332771346642
-0.005514628373205742,0.004202949695419555
-0.005514288373205742,0.004663739503982517
-0.005513948373205742,0.005124529312547154
-0.005513608373205742,0.005914454698656525
-0.005513268373205742,0.006473985180482978
-0.005512928373205742,0.007395564797611595
-0.005512588373205742,0.008646279992284765
-0.005512248373205742,0.008514625761266537
-0.005511908373205742,0.00802092239494818
-0.005511568373205742,0.00881084778105755
-0.005511228373205742,0.008975415569830336
-0.005510888373205742,0.007395564797611595
-0.005510548373205742,0.00630941739171121
-0.005510208373205742,0.003873814117873984
-0.005509868373205742,0.002524358249937143
-0.005509528373205742,0.002392704018918914
-0.005509188373205742,0.002129395556882458
-0.005508848373205742,0.001240729497510972
-0.005508508373205742,0.002096481999127901
-0.005508168373205742,0.003742159886855756
-0.005507828373205742,0.003577592098082731
-0.005507488373205742,0.003445937867064742
-0.005507148373205742,0.003347197193801071
-0.005506808373205742,0.003413024309309886
-0.005506468373205742,0.003248456520537399
-0.005506128373205742,0.004301690368683227
-0.005505788373205742,0.004729566619493606
-0.005505448373205742,0.005354924216829054
-0.005505108373205742,0.005881541140901968
-0.005504768373205742,0.005716973352128344
-0.005504428373205742,0.005256183543565383
-0.005504088373205742,0.00528909710131994
-0.005503748373205742,0.006572725853747727
-0.005503408373205742,0.006605639411502225
-0.005503068373205742,0.007527219028629823
-0.005502728373205742,0.008152576625967068
-0.005502388373205742,0.008514625761266537
-0.005502048373205742,0.007922181721684508
-0.005501708373205742,0.006375244507221642
-0.005501368373205742,0.007099342777820581
-0.005501028373205742,0.006704380084765896
-0.005500688373205742,0.006572725853744793
-0.005500348373205742,0.004992875081528926
-0.005500008373205742,0.004235863253174112
-0.005499668373205742,0.004992875081527549
-0.005499328373205742,0.005256183543565383
-0.005498988373205742,0.004301690368683227
-0.005498648373205742,0.004334603926437724
-0.005498308373205742,0.003939641233383098
-0.005497968373205742,0.00426877681092867
-0.005497628373205742,0.004433344599701156
-0.005497288373205742,0.0027876667119736
-0.005496948373205742,0.001240729497509416
-0.005496608373205742,0.0009115939199644433
-0.005496268373205742,0.0006482854579273878
-0.005495928373205742,-7.581281267286857e-05
-0.005495588373205742,0.0008128532466985569
-0.005495248373205742,0.00176734642158233
-0.005494908373205742,0.002688926038709928
-0.005494568373205742,0.00410420902215331
-0.005494228373205742,0.004861220850510698
-0.005493888373205742,0.00574988690988374
-0.005493548373205742,0.006803120758027651
-0.005493208373205742,0.007889268163929951
-0.005492868373205742,0.007757613932911723
-0.005492528373205742,0.008185490183720187
-0.005492188373205742,0.00811966306821185
-0.005491848373205742,0.007132256335575138
-0.005491508373205742,0.006572725853748684
-0.005491168373205742,0.008284230856984636
-0.005490828373205742,0.007296824124347924
-0.005490488373205742,0.006967688546802352
-0.005490148373205742,0.006836034315784124
-0.005489808373205742,0.005947368256411082
-0.005489468373205742,0.006836034315784124
-0.005489128373205742,0.00811966306821185
-0.005488788373205742,0.007823441048420837
-0.005488448373205742,0.007132256335575138
-0.005488108373205742,0.007296824124346427
-0.005487768373205742,0.006473985180483996
-0.005487428373205742,0.005256183543565383
-0.005487088373205742,0.005420751332337031
-0.005486748373205742,0.004795393735001583
-0.005486408373205742,0.004663739503983355
-0.005486068373205742,0.00525618354356652
-0.005485728373205742,0.005881541140901968
-0.005485388373205742,0.005782800467638296
-0.005485048373205742,0.006111936045183568
-0.005484708373205742,0.005947368256411082
-0.005484368373205742,0.005387837774583611
-0.005484028373205742,0.005716973352128105
-0.005483688373205742,0.005124529312547154
-0.005483348373205742,0.004663739503983355
-0.005483008373205742,0.004334603926438322
-0.005482668373205742,0.004630825946228797
-0.005482328373205742,0.004762480177247026
-0.005481988373205742,0.004630825946228438
-0.005481648373205742,0.004433344599701455
-0.005481308373205742,0.00574988690988374
-0.005480968373205742,0.006704380084765956
-0.005480628373205742,0.006737293642520453
-0.005480288373205742,0.006276503833956653
-0.005479948373205742,0.004795393735000805
-0.005479608373205742,0.004367517484192341
-0.005479268373205742,0.004466258157456012
-0.005478928373205742,0.001931914210359725
-0.005478588373205742,-0.003301341472619465
-0.005478248373205742,-0.01324123591449571
-0.005477908373205742,-0.03048794017785227
-0.005477568373205742,-0.05435026954993754
-0.005477228373205742,-0.08413703931781172
-0.005476888373205742,-0.1171493377455724
-0.005476548373205742,-0.1492400565563257
-0.005476208373205742,-0.1785331229578815
-0.005475868373205742,-0.202461279445401
-0.005475528373205742,-0.2203662548639236
-0.005475188373205742,-0.2318201729625095
-0.005474848373205742,-0.2390282421107444
-0.005474508373205742,-0.2412005369225582
-0.005474168373205742,-0.2392586370150394
-0.005473828373205742,-0.2355394049887812
-0.005473488373205742,-0.2304707170945726
-0.005473148373205742,-0.2239867462169249
-0.005472808373205742,-0.2174369482237799
-0.005472468373205742,-0.2108871502306111
-0.005472128373205742,-0.2026587607919719
-0.005471788373205742,-0.1991040965544862
-0.005471448373205742,-0.1946936798153691
-0.005471108373205742,-0.1857741056638841
-0.005470768373205742,-0.1793559619017571
-0.005470428373205742,-0.1733327808326615
-0.005470088373205742,-0.1683957471694779
-0.005469748373205742,-0.1631954050442579
-0.005469408373205742,-0.1571063968596648
-0.005469068373205742,-0.1509186480018081
-0.005468728373205742,-0.1457183058765881
-0.005468388373205742,-0.141340802695232
-0.005468048373205742,-0.1345276962400387
-0.005467708373205742,-0.1282082931511637
-0.005467368373205742,-0.1231396052569619
-0.005467028373205742,-0.1179063495739873
-0.005466688373205742,-0.1126401803332582
-0.005466348373205742,-0.107867714458838
-0.005466008373205742,-0.1027002858913819
-0.005465668373205742,-0.09687458616882533
-0.005465328373205742,-0.09256291010297116
-0.005464988373205742,-0.0886132831724315
-0.005464648373205742,-0.0842357799910754
-0.005464308373205742,-0.08094442421561471
-0.005463968373205742,-0.07821259892199145
-0.005463628373205742,-0.07534911939734498
-0.005463288373205742,-0.07255146698820365
-0.005462948373205742,-0.07037917217640685
-0.005462608373205742,-0.06774608755604228
-0.005462268373205742,-0.06531048428219997
-0.005461928373205742,-0.06251283187306769
-0.005461588373205742,-0.06001140148372136
-0.005461248373205742,-0.05810241513395142
-0.005460908373205742,-0.05500854070502868
-0.005460568373205742,-0.05356034416382817
-0.005460228373205742,-0.051881752718346
-0.005459888373205742,-0.05201340694936398
-0.005459548373205742,-0.05056521040816347
-0.005459208373205742,-0.04733968174821298
-0.005458868373205742,-0.04520030049417066
-0.005458528373205742,-0.04339005481767002
-0.005458188373205742,-0.04154689558341171
-0.005457848373205742,-0.03983539058017786
-0.005457508373205742,-0.0379593177881681
-0.005457168373205742,-0.03588576364963478
-0.005456828373205742,-0.03479961624373062
-0.005456488373205742,-0.03374638239558479
-0.005456148373205742,-0.03183739604582395
-0.005455808373205742,-0.03137660623725668
-0.005455468373205742,-0.03032337238911085
-0.005455128373205742,-0.02903974363668546
-0.005454788373205742,-0.02795359623078274
-0.005454448373205742,-0.02726241151793704
-0.005454108373205742,-0.02591295565000265
-0.005453768373205742,-0.02479389468634526
-0.005453428373205742,-0.02459641333981791
-0.005453088373205742,-0.02285199477882956
-0.005452748373205742,-0.02137088467987132
-0.005452408373205742,-0.0206138728515165
-0.005452068373205742,-0.01929733054133661
-0.005451728373205742,-0.01784913400013371
-0.005451388373205742,-0.01699338149851522
-0.005451048373205742,-0.01429446976264645
-0.005450708373205742,-0.0131754087989866
-0.005450368373205742,-0.01310958168347748
-0.005450028373205742,-0.01320832235674097
-0.005449688373205742,-0.01333997658775938
-0.005449348373205742,-0.01343871726102305
-0.005449008373205742,-0.01264879187491512
-0.005448668373205742,-0.0124842240861409
-0.005448328373205742,-0.01307666812572293
-0.005447988373205742,-0.01281335966368647
-0.005447648373205742,-0.01182595293104976
-0.005447308373205742,-0.01162847158452241
-0.005446968373205742,-0.0113322495647314
-0.005446628373205742,-0.009785312350267215
-0.005446288373205742,-0.008962473406403288
-0.005445948373205742,-0.008139634462539359
-0.005445608373205742,-0.00672435147909089
-0.005445268373205742,-0.005341982053402005
-0.005444928373205742,-0.004354575320765292
-0.005444588373205742,-0.003827958396692259
-0.005444248373205742,-0.003762131281183265
-0.005443908373205742,-0.003202600799355794
-0.005443568373205742,-0.003070946568337326
-0.005443228373205742,-0.002939292337319337
-0.005442888373205742,-0.003893785512201493
-0.005442548373205742,-0.003432995703636436
-0.005442208373205742,-0.002741810990791994
-0.005441868373205742,-0.00290637877956478
-0.005441528373205742,-0.003202600799356093
-0.005441188373205742,-0.00336716858812858
-0.005440848373205742,-0.001293614449591481
-0.005440508373205742,-0.000865738198781401
-0.005440168373205742,-0.0004049483902184396
-0.005439828373205742,-0.0005366026212366681
-0.005439488373205742,-0.0006682568522517235
-0.005439148373205742,0.00107616170873663
-0.005438808373205742,0.001931914210355115
-0.005438468373205742,0.001339470170773087
-0.005438128373205742,0.001339470170773087
-0.005437788373205742,0.001668605748318658
-0.005437448373205742,0.001207815939754499
-0.005437108373205742,0.001010334593227516
-0.005436768373205742,0.001174902382000301
-0.005436428373205742,0.0003520634381378706
-0.005436088373205742,0.0001545820916090312
-0.005435748373205742,0.0002533227648727025
-0.005435408373205742,-0.0007669975255167119
-0.005435068373205742,-0.0003062077169547683
-0.005434728373205742,0.0001874956493635883
-0.005434388373205742,-7.581281267238964e-05
-0.005434048373205742,0.0005824583424182735
-0.005433708373205742,0.0009115939199638446
-0.005433368373205742,0.002030654883616751
-0.005433028373205742,0.002590185365446257
-0.005432688373205742,0.004400431041946898
-0.005432348373205742,0.004334603926437903
-0.005432008373205742,0.004597912388474241
-0.005431668373205742,0.004334603926437783
-0.005431328373205742,0.002261049787904458
-0.005430988373205742,0.001504037959545873
-0.005430648373205742,0.0023268769034098
-0.005430308373205742,0.0002533227648764741
-0.005429968373205742,-0.0003391212747093254
-0.005429628373205742,0.001866087094846001
-0.005429288373205742,0.002721839596462929
-0.005428948373205742,0.0030180616162555
-0.005428608373205742,0.004466258157456012
-0.005428268373205742,0.005552405563354421
-0.005427928373205742,0.005618232678865511
-0.005427588373205742,0.006046108929674754
-0.005427248373205742,0.006704380084765896
-0.005426908373205742,0.007296824124347924
-0.005426568373205742,0.006836034315784124
-0.005426228373205742,0.004795393735001583
-0.005425888373205742,0.004729566619492469
-0.005425548373205742,0.004433344599701455
-0.005425208373205742,0.003709246329101199
-0.005424868373205742,0.002919320942991828
-0.005424528373205742,0.002721839596464486
-0.005424188373205742,0.0025572718076917
-0.005423848373205742,0.002030654883619445
-0.005423508373205742,0.002392704018918914
-0.005423168373205742,0.003775073444610313
-0.005422828373205742,0.003544678540327695
-0.005422488373205742,0.003149715847273728
-0.005422148373205742,0.003742159886855756
-0.005421808373205742,0.003939641233383278
-0.005421468373205742,0.00403838190664677
-0.005421128373205742,0.004071295464401327
-0.005420788373205742,0.004729566619494385
-0.005420448373205742,0.005782800467638296
-0.005420108373205742,0.006506898738238553
-0.005419768373205742,0.007395564797612074
-0.005419428373205742,0.007658873259648051
-0.005419088373205742,0.008317144414739193
-0.005418748373205742,0.008152576625965451
-0.005418408373205742,0.007625959701893495
-0.005418068373205742,0.008053835952702737
-0.005417728373205742,0.00861336643452949
-0.005417388373205742,0.008218403741475522
-0.005417048373205742,0.007955095279439066
-0.005416708373205742,0.008975415569828421
-0.005416368373205742,0.007922181721684508
-0.005416028373205742,0.007428478355366152
-0.005415688373205742,0.006803120758026634
-0.005415348373205742,0.005190356428056269
