Analysis/New Tests_CMB/wrd01_d2s01/cmb01_ch36.csv

#Digilent WaveForms Oscilloscope Acquisition
#Device Name: ADP3450
#Serial Number: SN:210018B9D9B0
#Date Time: 2024-08-06 15:20:07.577.989.940
#Sample rate: 2.94118e+06Hz
#Samples: 32768
#Trigger: Source: Channel 3 Type: Edge Condition: Rising Level: 80 mV Hyst.: Auto HoldOff: 0 s
#Channel 3: Range: 200 mV/div Offset: 0 V Attenuation: 1 X Coupling: DC Bandwidth: 0 Hz Sample Mode: Average

Time (s),Channel 3 (V)
-0.005570439416386084,0.03046796878355613
-0.005570099416386083,0.02934890781989903
-0.005569759416386083,0.02816401974073713
-0.005569419416386084,0.02691330454606396
-0.005569079416386083,0.02638668762198793
-0.005568739416386083,0.02467518261875408
-0.005568399416386084,0.02467518261875408
-0.005568059416386083,0.02339155386632545
-0.005567719416386083,0.02289785050000799
-0.005567379416386084,0.02194335732512584
-0.005567039416386083,0.02184461665186145
-0.005566699416386083,0.02144965395880748
-0.005566359416386083,0.02121925905452558
-0.005566019416386083,0.02082429636147089
-0.005565679416386083,0.02082429636147089
-0.005565339416386083,0.02161422174758026
-0.005564999416386083,0.0221408386716551
-0.005564659416386083,0.02319407251979901
-0.005564319416386083,0.02381943011713559
-0.005563979416386083,0.02447770127222667
-0.005563639416386083,0.02444478771447217
-0.005563299416386083,0.02388525723264471
-0.005562959416386084,0.0227661962689918
-0.005562619416386083,0.02108760482350735
-0.005562279416386083,0.01954066760904317
-0.005561939416386084,0.01861908799191725
-0.005561599416386083,0.0187507422229338
-0.005561259416386083,0.0194419269357795
-0.005560919416386084,0.01993563030209695
-0.005560579416386083,0.02016602520637975
-0.005560239416386083,0.02039642011066165
-0.005559899416386084,0.02013311164862567
-0.005559559416386083,0.0192115320314976
-0.005559219416386083,0.01815829818335177
-0.005558879416386084,0.01700632366194436
-0.005558539416386083,0.01654553385337847
-0.005558199416386083,0.0164467931801148
-0.005557859416386084,0.01631513894909681
-0.005557519416386083,0.01562395423625087
-0.005557179416386083,0.01496568308115973
-0.005556839416386084,0.01516316442768671
-0.005556499416386083,0.01503151019666884
-0.005556159416386083,0.0148340288501415
-0.005555819416386084,0.01545938644747695
-0.005555479416386083,0.01651262029562391
-0.005555139416386083,0.01815829818335177
-0.005554799416386084,0.01871782866517822
-0.005554459416386083,0.01934318626251582
-0.005554119416386083,0.01970523539781595
-0.005553779416386084,0.02046224722617077
-0.005553439416386083,0.02016602520637975
-0.005553099416386083,0.01917861847374304
-0.005552759416386084,0.0180595575100881
-0.005552419416386083,0.01674301519990581
-0.005552079416386083,0.01493276952340517
-0.005551739416386084,0.013682054328732
-0.005551399416386083,0.01272756115384895
-0.005551059416386083,0.01223385778753149
-0.005550719416386084,0.01213511711426782
-0.005550379416386083,0.01200346288325025
-0.005550039416386083,0.01236551201854972
-0.005549699416386084,0.01285921538486808
-0.005549359416386083,0.01404410346403285
-0.005549019416386083,0.01443906615708682
-0.005548679416386084,0.01536064577421441
-0.005548339416386083,0.01628222539134315
-0.005547999416386083,0.0169075829886786
-0.005547659416386084,0.01832286597212456
-0.005547319416386083,0.01723671856622279
-0.005546979416386083,0.01647970673786936
-0.005546639416386084,0.01595308981379644
-0.005546299416386083,0.01463654750361146
-0.005545959416386083,0.01315543740465909
-0.005545619416386083,0.01246425269181339
-0.005545279416386083,0.01141101884366624
-0.005544939416386083,0.01068692057306731
-0.005544599416386083,0.01078566124633098
-0.005544259416386083,0.0118388950944792
-0.005543919416386083,0.01315543740465909
-0.005543579416386083,0.01450489327259593
-0.005543239416386083,0.01568978135176088
-0.005542899416386083,0.01618348471807834
-0.005542559416386083,0.01615057116032378
-0.005542219416386084,0.01552521356298834
-0.005541879416386083,0.01473528817687783
-0.005541539416386083,0.01401118990627757
-0.005541199416386084,0.0137149678864871
-0.005540859416386083,0.01358331365546833
-0.005540519416386083,0.01387953567525935
-0.005540179416386084,0.01414284413729532
-0.005539839416386083,0.01394536279076846
-0.005539499416386083,0.01424158481055947
-0.005539159416386084,0.01414284413729598
-0.005538819416386083,0.01447197971484137
-0.005538479416386083,0.01466946106136872
-0.005538139416386084,0.01595308981379411
-0.005537799416386083,0.01549230000523264
-0.005537459416386083,0.0164467931801148
-0.005537119416386084,0.0164138796223603
-0.005536779416386083,0.01687466943092404
-0.005536439416386083,0.01595308981379644
-0.005536099416386084,0.01549230000523348
-0.005535759416386083,0.01480111529238694
-0.005535419416386083,0.01443906615708682
-0.005535079416386084,0.01420867125280534
-0.005534739416386083,0.01470237461912327
-0.005534399416386083,0.01513025086993251
-0.005534059416386084,0.01542647288972299
-0.005533719416386083,0.01611765760256923
-0.005533379416386083,0.01661136096888758
-0.005533039416386084,0.0162163982758329
-0.005532699416386083,0.01559104067849632
-0.005532359416386083,0.01417575769505036
-0.005532019416386084,0.01272756115384985
-0.005531679416386083,0.01157558663244035
-0.005531339416386083,0.01055526634204908
-0.005530999416386084,0.01055526634204908
-0.005530659416386083,0.01068692057306731
-0.005530319416386083,0.01150975951693123
-0.005529979416386084,0.01220094422977693
-0.005529639416386083,0.01358331365547048
-0.005529299416386083,0.01476820173463239
-0.005528959416386084,0.01489985596565062
-0.005528619416386083,0.01470237461912172
-0.005528279416386083,0.01384662211750479
-0.005527939416386084,0.01351748653995922
-0.005527599416386083,0.01315543740465969
-0.005527259416386083,0.01348457298220466
-0.005526919416386084,0.01424158481055947
-0.005526579416386083,0.01443906615708718
-0.005526239416386083,0.01463654750361416
-0.005525899416386084,0.01466946106136872
-0.005525559416386083,0.01434032548382326
-0.005525219416386083,0.01440615259933226
-0.005524879416386083,0.01440615259933226
-0.005524539416386083,0.0141757576950509
-0.005524199416386083,0.01447197971484137
-0.005523859416386083,0.01493276952340517
-0.005523519416386083,0.01536064577421429
-0.005523179416386083,0.0152948186587053
-0.005522839416386083,0.01532773221645986
-0.005522499416386083,0.01480111529238539
-0.005522159416386083,0.01394536279076846
-0.005521819416386083,0.01351748653995922
-0.005521479416386083,0.01279338826935824
-0.005521139416386083,0.01239842557630427
-0.005520799416386083,0.01256299336507706
-0.005520459416386084,0.01299086961588552
-0.005520119416386083,0.01328709163567732
-0.005519779416386083,0.01397827634852302
-0.005519439416386084,0.0142086712528045
-0.005519099416386083,0.01308961028914997
-0.005518759416386083,0.01443906615708682
-0.005518419416386084,0.01476820173463179
-0.005518079416386083,0.01516316442768707
-0.005517739416386083,0.01536064577421441
-0.005517399416386084,0.01486694240789696
-0.005517059416386083,0.01509733731217796
-0.005516719416386083,0.01499859663891429
-0.005516379416386084,0.01443906615708783
-0.005516039416386083,0.01466946106136872
-0.005515699416386083,0.01493276952340517
-0.005515359416386084,0.01476820173463269
-0.005515019416386083,0.01447197971484137
-0.005514679416386083,0.01447197971484137
-0.005514339416386084,0.0141428441372964
-0.005513999416386083,0.01318835096241365
-0.005513659416386083,0.01243133913405883
-0.005513319416386084,0.01223385778753185
-0.005512979416386083,0.011378105285913
-0.005512639416386083,0.01141101884366756
-0.005512299416386084,0.01164141374794946
-0.005511959416386083,0.01226677134528605
-0.005511619416386083,0.01249716624956795
-0.005511279416386084,0.01292504250037719
-0.005510939416386083,0.01269464759609529
-0.005510599416386083,0.01292504250037719
-0.005510259416386084,0.01351748653995922
-0.005509919416386083,0.0139124492330139
-0.005509579416386083,0.01256299336507706
-0.005509239416386084,0.01243133913405883
-0.005508899416386083,0.01279338826935974
-0.005508559416386083,0.0132212645201682
-0.005508219416386084,0.01312252384690453
-0.005507879416386083,0.01308961028915057
-0.005507539416386083,0.01341874586669555
-0.005507199416386084,0.01328709163567732
-0.005506859416386083,0.01289212894262311
-0.005506519416386083,0.01315543740465909
-0.005506179416386084,0.0134516594244501
-0.005505839416386083,0.01420867125280653
-0.005505499416386083,0.01509733731217796
-0.005505159416386084,0.01582143558277821
-0.005504819416386083,0.01615057116032373
-0.005504479416386083,0.01611765760256923
-0.005504139416386084,0.01536064577421441
-0.005503799416386083,0.01453780683034887
-0.005503459416386083,0.01364914077097745
-0.005503119416386083,0.01226677134528605
-0.005502779416386083,0.01121353749713848
-0.005502439416386083,0.01025904432225806
-0.005502099416386083,0.009995735860221606
-0.005501759416386083,0.01006156297573132
-0.005501419416386083,0.01039069855327629
-0.005501079416386083,0.01085148836184009
-0.005500739416386083,0.01183889509448046
-0.005500399416386083,0.01384662211750479
-0.005500059416386083,0.01394536279076846
-0.005499719416386084,0.01513025086993036
-0.005499379416386083,0.01539355933196897
-0.005499039416386083,0.01532773221645986
-0.005498699416386084,0.01506442375442388
-0.005498359416386083,0.01486694240789606
-0.005498019416386083,0.01457072038810504
-0.005497679416386084,0.01427449836831457
-0.005497339416386083,0.01480111529238694
-0.005496999416386083,0.01447197971484137
-0.005496659416386084,0.01457072038810486
-0.005496319416386083,0.01509733731217796
-0.005495979416386083,0.01578852202502366
-0.005495639416386084,0.01601891692930514
-0.005495299416386083,0.0169075829886786
-0.005494959416386083,0.01697341010418771
-0.005494619416386084,0.01634805250685227
-0.005494279416386083,0.01539355933196897
-0.005493939416386083,0.01424158481055947
-0.005493599416386084,0.01308961028915207
-0.005493259416386083,0.01272756115384985
-0.005492919416386083,0.01197054932549503
-0.005492579416386084,0.01200346288324953
-0.005492239416386083,0.01246425269181339
-0.005491899416386083,0.01292504250037719
-0.005491559416386084,0.01312252384690417
-0.005491219416386083,0.01305669673139542
-0.005490879416386083,0.01243133913405883
-0.005490539416386084,0.0129908696158863
-0.005490199416386083,0.01292504250037719
-0.005489859416386083,0.01371496788648656
-0.005489519416386084,0.01447197971484137
-0.005489179416386083,0.01526190510095074
-0.005488839416386083,0.01592017625604189
-0.005488499416386084,0.01674301519990581
-0.005488159416386083,0.01680884231541475
-0.005487819416386083,0.01671010164215126
-0.005487479416386084,0.01578852202502366
-0.005487139416386083,0.01499859663891201
-0.005486799416386083,0.01374788144424112
-0.005486459416386084,0.01272756115384985
-0.005486119416386083,0.01262882048058707
-0.005485779416386083,0.01312252384690453
-0.005485439416386084,0.01305669673139542
-0.005485099416386083,0.01384662211750676
-0.005484759416386083,0.01493276952340517
-0.005484419416386084,0.01499859663891429
-0.005484079416386083,0.01644679318011582
-0.005483739416386083,0.01700632366194227
-0.005483399416386084,0.01703923721969683
-0.005483059416386083,0.01601891692930466
-0.005482719416386083,0.0155252135629872
-0.005482379416386083,0.01493276952340517
-0.005482039416386083,0.014603633945859
-0.005481699416386083,0.01427449836831403
-0.005481359416386083,0.01443906615708682
-0.005481019416386083,0.0139453627907681
-0.005480679416386083,0.01374788144424112
-0.005480339416386083,0.01328709163567732
-0.005479999416386083,0.01315543740465801
-0.005479659416386083,0.01256299336507706
-0.005479319416386083,0.01147684595917668
-0.005478979416386084,0.007362651239864521
-0.005478639416386083,-0.001721490700400724
-0.005478299416386083,-0.01850740515522485
-0.005477959416386084,-0.04283052433579831
-0.005477619416386083,-0.07304517035452598
-0.005477279416386083,-0.1061232958978559
-0.005476939416386084,-0.1393989027876526
-0.005476599416386083,-0.1694818945753783
-0.005476259416386083,-0.194397457795578
-0.005475919416386084,-0.2131581857156414
-0.005475579416386083,-0.2261590410287256
-0.005475239416386083,-0.234157035563083
-0.005474899416386084,-0.2372509099920058
-0.005474559416386083,-0.2369876015299749
-0.005474219416386083,-0.2335316779657464
-0.005473879416386084,-0.2286933849758353
-0.005473539416386083,-0.222933512368779
-0.005473199416386083,-0.2168115906264314
-0.005472859416386084,-0.2103276197487955
-0.005472519416386083,-0.2034486861780812
-0.005472179416386083,-0.1965697526073788
-0.005471839416386084,-0.1901845224030063
-0.005471499416386083,-0.1821207007531282
-0.005471159416386083,-0.1752417671824258
-0.005470819416386084,-0.1688894505358078
-0.005470479416386083,-0.1630308372554851
-0.005470139416386083,-0.1570405697441557
-0.005469799416386084,-0.1512477835793537
-0.005469459416386083,-0.1459157872231154
-0.005469119416386083,-0.1399584332695406
-0.005468779416386084,-0.1345935233555478
-0.005468439416386083,-0.1288994778640094
-0.005468099416386083,-0.1240611848740895
-0.005467759416386084,-0.1191241512109059
-0.005467419416386083,-0.1144504260097588
-0.005467079416386083,-0.1095792194620844
-0.005466739416386084,-0.1045434451256371
-0.005466399416386083,-0.0992443623271453
-0.005466059416386083,-0.09476811847253366
-0.005465719416386084,-0.09029187461791391
-0.005465379416386083,-0.08621059345634308
-0.005465039416386083,-0.08305089191191134
-0.005464699416386084,-0.07939748700115551
-0.005464359416386083,-0.0760732176679402
-0.005464019416386083,-0.07330847881656244
-0.005463679416386084,-0.07044499929191597
-0.005463339416386083,-0.06804230957582778
-0.005462999416386083,-0.06501426226241405
-0.005462659416386084,-0.06201912850674934
-0.005462319416386083,-0.05849737782700748
-0.005461979416386083,-0.05616051522643818
-0.005461639416386084,-0.05339577637505538
-0.005461299416386083,-0.05017024771510376
-0.005460959416386083,-0.04740550886372599
-0.005460619416386083,-0.04529904116743434
-0.005460279416386083,-0.04362044972194959
-0.005459939416386083,-0.04233682096952419
-0.005459599416386083,-0.04065822952404178
-0.005459259416386083,-0.03884798384753827
-0.005458919416386083,-0.0372681330753224
-0.005458579416386083,-0.03535914672555809
-0.005458239416386083,-0.03321976547150732
-0.005457899416386083,-0.03071833508216553
-0.005457559416386083,-0.02818399113506464
-0.005457219416386084,-0.02571547430347735
-0.005456879416386083,-0.02377357439595399
-0.005456539416386083,-0.02301656256759917
-0.005456199416386084,-0.02235829141250923
-0.005455859416386083,-0.02232537785475347
-0.005455519416386083,-0.02216081006598069
-0.005455179416386084,-0.02232537785475317
-0.005454839416386083,-0.02170002025741689
-0.005454499416386083,-0.0203834779472346
-0.005454159416386084,-0.01909984919480921
-0.005453819416386083,-0.01778330688462459
-0.005453479416386083,-0.01574266630384205
-0.005453139416386084,-0.01333997658776375
-0.005452799416386083,-0.01162847158452241
-0.005452459416386083,-0.01123350889146773
-0.005452119416386084,-0.009949880139042336
-0.005451779416386083,-0.008896646290894173
-0.005451439416386083,-0.008271288693557588
-0.005451099416386084,-0.007975066673767114
-0.005450759416386083,-0.006987659941129861
-0.005450419416386083,-0.006362302343793276
-0.005450079416386084,-0.005868598977475817
-0.005449739416386083,-0.005012846475856435
-0.005449399416386083,-0.003630477050165036
-0.005449059416386084,-0.003268427914865567
-0.005448719416386083,-0.002281021182228195
-0.005448379416386083,-0.002577243202019209
-0.005448039416386084,-0.002412675413246423
-0.005447699416386083,-0.001918972046928067
-0.005447359416386083,-0.00165566358489161
-0.005447019416386084,-0.001129046660818696
-0.005446679416386083,-0.0001745534859365399
-0.005446339416386083,0.0005824583424182735
-0.005445999416386084,0.001339470170773087
-0.005445659416386083,0.001899000652601636
-0.005445319416386083,0.002491444692182586
-0.005444979416386084,0.003182629405028285
-0.005444639416386083,0.003643419213592324
-0.005444299416386083,0.003775073444610313
-0.005443959416386084,0.003775073444610313
-0.005443619416386083,0.003906727675628901
-0.005443279416386083,0.004104209022155884
-0.005442939416386084,0.004499171715210569
-0.005442599416386083,0.005486578447849079
-0.005442259416386083,0.006473985180483996
-0.005441919416386084,0.007461391913120709
-0.005441579416386083,0.008350057972495129
-0.005441239416386083,0.009107069800848565
-0.005440899416386084,0.009995735860221606
-0.005440559416386083,0.009831168071448161
-0.005440219416386083,0.009469118936148692
-0.005439879416386083,0.008942502012075779
-0.005439539416386083,0.008547539319020315
-0.005439199416386083,0.00811966306821185
-0.005438859416386083,0.007099342777820581
-0.005438519416386083,0.006605639411501806
-0.005438179416386083,0.006375244507220324
-0.005437839416386083,0.006441071622729439
-0.005437499416386083,0.006901861431294676
-0.005437159416386083,0.007691786817402609
-0.005436819416386083,0.009107069800848565
-0.005436479416386084,0.01006156297572898
-0.005436139416386083,0.01088440191959465
-0.005435799416386083,0.01157558663244035
-0.005435459416386084,0.01203637644100331
-0.005435119416386083,0.01127936461264933
-0.005434779416386083,0.01111479682387655
-0.005434439416386084,0.01065400701531359
-0.005434099416386083,0.01095022903510376
-0.005433759416386083,0.01002864941797616
-0.005433419416386084,0.01025904432225764
-0.005433079416386083,0.01141101884366756
-0.005432739416386083,0.01233259846079516
-0.005432399416386084,0.01325417807792108
-0.005432059416386083,0.01387953567525935
-0.005431719416386083,0.01440615259933226
-0.005431379416386084,0.01437323904157776
-0.005431039416386083,0.01381370855975023
-0.005430699416386083,0.01351748653995922
-0.005430359416386084,0.01355040009771371
-0.005430019416386083,0.0132212645201682
-0.005429679416386083,0.01292504250037719
-0.005429339416386084,0.01381370855974861
-0.005428999416386083,0.01394536279076846
-0.005428659416386083,0.01420867125280492
-0.005428319416386084,0.0143403254838229
-0.005427979416386083,0.01493276952340517
-0.005427639416386083,0.01513025086993251
-0.005427299416386084,0.01476820173463239
-0.005426959416386083,0.01387953567525935
-0.005426619416386083,0.01328709163567732
-0.005426279416386084,0.01226677134528605
-0.005425939416386083,0.01193763576774048
-0.005425599416386083,0.01167432730570402
-0.005425259416386084,0.01223385778753149
-0.005424919416386083,0.01259590692283162
-0.005424579416386083,0.01341874586669555
-0.005424239416386084,0.01355040009771377
-0.005423899416386083,0.01335291875118655
-0.005423559416386083,0.01341874586669555
-0.005423219416386084,0.01243133913405883
-0.005422879416386083,0.01183889509447656
-0.005422539416386083,0.01170724086345858
-0.005422199416386084,0.01154267307468579
-0.005421859416386083,0.01183889509447704
-0.005421519416386083,0.01197054932549503
-0.005421179416386084,0.01256299336507706
-0.005420839416386083,0.01384662211750569
-0.005420499416386083,0.01434032548382314
-0.005420159416386084,0.0143732390415777
-0.005419819416386083,0.01391244923301432
-0.005419479416386083,0.0141428441372958
-0.005419139416386083,0.01424158481055947
-0.005418799416386083,0.01371496788648602
-0.005418459416386083,0.01341874586669555
-0.005418119416386083,0.01341874586669555
-0.005417779416386083,0.01397827634852385
-0.005417439416386083,0.01443906615708682
-0.005417099416386083,0.0148340288501415
-0.005416759416386083,0.01519607798544247
-0.005416419416386083,0.01565686779400543
-0.005416079416386083,0.015986003371551
-0.005415739416386083,0.01568978135175999
-0.005415399416386083,0.01568978135175999
-0.005415059416386083,0.01381370855975023
-0.005414719416386084,0.01447197971484018
-0.005414379416386083,0.0139124492330139
-0.005414039416386083,0.0132212645201682
-0.005413699416386084,0.01282630182711424
-0.005413359416386083,0.01351748653995922
-0.005413019416386083,0.0139124492330139
