Analysis/New Tests_CMB/wrd01_d2s01/cmb07_ch04.csv

#Digilent WaveForms Oscilloscope Acquisition
#Device Name: ADP3450
#Serial Number: SN:210018B9D9B0
#Date Time: 2024-08-07 10:23:03.213.462.370
#Sample rate: 2.94118e+06Hz
#Samples: 32768
#Trigger: Source: Channel 3 Type: Edge Condition: Rising Level: 0 V Hyst.: Auto HoldOff: 0 s
#Channel 3: Range: 200 mV/div Offset: 0 V Attenuation: 1 X Coupling: DC Bandwidth: 0 Hz Sample Mode: Average

Time (s),Channel 3 (V)
-0.005570526,0.01190472220998592
-0.005570186,0.01223385778753155
-0.005569846,0.01226677134528605
-0.005569506,0.01236551201854972
-0.005569166,0.01243133913405805
-0.005568826,0.01200346288324959
-0.005568486,0.01157558663244035
-0.005568146,0.01131227817040251
-0.005567806,0.01055526634204908
-0.005567466,0.01058817989980363
-0.005567125999999999,0.009929908744712373
-0.005566786,0.009864081629203377
-0.005566446,0.00950203249390325
-0.005566105999999999,0.01016030364899541
-0.005565766,0.01071983413082186
-0.005565426,0.01098314259285832
-0.005565085999999999,0.01114771038163015
-0.005564746,0.01062109345755819
-0.005564406,0.009896995186957936
-0.005564065999999999,0.009370378262885202
-0.005563726,0.009469118936148692
-0.005563386,0.008942502012075779
-0.005563046,0.008975415569830275
-0.005562706,0.009370378262885021
-0.005562366,0.00973242739818515
-0.005562026,0.01042361211102959
-0.005561686,0.01062109345755819
-0.005561346,0.01101605615061288
-0.005561006,0.01091731547734939
-0.005560666,0.01045652566878541
-0.005560326,0.00983116807144882
-0.005559986,0.009205810474113374
-0.005559646,0.008152576625966409
-0.005559306,0.007329737682102481
-0.005558966,0.00650689873824005
-0.005558626,0.005914454698656525
-0.005558286,0.005914454698656525
-0.005557946,0.005980281814165519
-0.005557606,0.006901861431293239
-0.005557266,0.00779052749066628
-0.005556926,0.008350057972492733
-0.005556586,0.008679193550039321
-0.005556246,0.008975415569830336
-0.005555906,0.009567859609411287
-0.005555566,0.01058817989980363
-0.005555226,0.01302378317364086
-0.005554886,0.01871782866516888
-0.005554546,0.03046796878355613
-0.005554206,0.04929452381916279
-0.005553866,0.07578993781158128
-0.005553526,0.1075844346024834
-0.005553186,0.1422753244757866
-0.005552846,0.1767029058870533
-0.005552506,0.2074770823875642
-0.005552166,0.2332154845516279
-0.005551826,0.2531611005508895
-0.005551486,0.2667543999035357
-0.005551146,0.2745219995335971
-0.005550806,0.2775171332892618
-0.005550466,0.2755094062662259
-0.005550126,0.2711977302003868
-0.005549786,0.2644833644184572
-0.005549446,0.2567486783461218
-0.005549106,0.248816510927288
-0.005548766,0.2407526892774215
-0.005548426,0.2329192625318237
-0.005548086,0.2256453662680798
-0.005547746,0.2185360377930954
-0.005547406,0.2118874991266617
-0.005547066,0.2046136028629178
-0.005546726,0.1977346692922153
-0.005546386,0.1909873899525186
-0.005546046,0.1841084563818287
-0.005545706,0.1775915719464264
-0.005545365999999999,0.1710417739532585
-0.005545026,0.1649527657686765
-0.005544686,0.1594232880659109
-0.005544345999999999,0.1541242052674184
-0.005544006,0.1493188258352618
-0.005543666,0.1448096684228875
-0.005543325999999999,0.1401688567794871
-0.005542986,0.135857180713648
-0.005542646,0.1319733808986102
-0.005542306,0.1274971370439986
-0.005541966,0.1234158558824254
-0.005541626,0.1191041798165784
-0.005541286,0.1142000597111583
-0.005540946,0.1095263345100023
-0.005540606,0.1048196957511006
-0.005540266,0.100014316318944
-0.005539926,0.09590012159961567
-0.005539586,0.09251002515089626
-0.005539246,0.08938323716421903
-0.005538906,0.08625644917753042
-0.005538566,0.08322840186411118
-0.005538226,0.08033200878171542
-0.005537886,0.07717230723727267
-0.005537546,0.0733872480954986
-0.005537206,0.06996423808903089
-0.005536866,0.06766028904620566
-0.005536526,0.06565256202317768
-0.005536186,0.0641714519242253
-0.005535846,0.06292073672954943
-0.005535506,0.06239411980547652
-0.005535166,0.06259160115200349
-0.005534826,0.06150545374610348
-0.005534486,0.06015599787816664
-0.005534146,0.05762165393107035
-0.005533806,0.05564684046579232
-0.005533466,0.05294792872991863
-0.005533126,0.05123642372668166
-0.005532786,0.04991988141649938
-0.005532446,0.04843877131754431
-0.005532106,0.04682600698757101
-0.005531766,0.04501576131107037
-0.005531426,0.04363339188537897
-0.005531086,0.04251433092172403
-0.005530746,0.04109904793827807
-0.005530406,0.03902549379974098
-0.005530066,0.03721524812324033
-0.005529726,0.03556957023550997
-0.005529386,0.03418720080982108
-0.005529046,0.03270609071086601
-0.005528706,0.03175159753598236
-0.005528366,0.03092875859211993
-0.005528026,0.03017174676376511
-0.005527686,0.0294147349354085
-0.005527346,0.02842732820277359
-0.005527006,0.02855898243379182
-0.005526666,0.02849315531828276
-0.005526326,0.02852606887603726
-0.005525986,0.02882229089582827
-0.005525646,0.02911851291561857
-0.005525306,0.0287235502225646
-0.005524966,0.0282627604140008
-0.005524625999999999,0.02743992147013532
-0.005524286,0.02658416896851839
-0.005523946,0.02516888598507243
-0.005523605999999999,0.02408273857916881
-0.005523266,0.02230540646042596
-0.005522926,0.0210546912657528
-0.005522585999999999,0.02033059299515116
-0.005522246,0.01957358116679772
-0.005521906,0.01924444558925215
-0.005521565999999999,0.01980397607107903
-0.005521226,0.01947484049353405
-0.005520886,0.0194419269357795
-0.005520546,0.019474840493534
-0.005520206,0.01954066760904317
-0.005519866,0.01963940828230684
-0.005519526,0.01950775405128885
-0.005519186,0.01977106251332507
-0.005518846,0.02000145741760697
-0.005518506,0.01996854385985247
-0.005518166,0.01986980318658874
-0.005517826,0.01934318626251582
-0.005517486,0.01796081683682694
-0.005517146,0.0171379778929605
-0.005516806,0.01647970673786936
-0.005516466,0.01575560846727042
-0.005516126,0.01457072038810504
-0.005515786,0.01355040009771377
-0.005515446,0.01246425269181537
-0.005515106,0.01200346288324959
-0.005514766,0.0118388950944768
-0.005514426,0.01174015442121331
-0.005514086,0.01134519172815845
-0.005513746,0.01147684595917668
-0.005513406,0.01091731547735022
-0.005513066,0.01098314259285832
-0.005512726,0.01118062393938566
-0.005512386,0.0116085001901949
-0.005512046,0.01216803067202238
-0.005511706,0.0127604747116044
-0.005511366,0.01341874586669555
-0.005511026,0.01371496788648656
-0.005510686,0.01453780683035049
-0.005510346,0.01513025086993251
-0.005510006,0.01568978135175999
-0.005509666,0.015986003371551
-0.005509326,0.01562395423625087
-0.005508986,0.01420867125280162
-0.005508646,0.01239842557630427
-0.005508306,0.01075274768857642
-0.005507966,0.00864627999228219
-0.005507626,0.007230997008838809
-0.005507286,0.00653981229599311
-0.005506946,0.006836034315785501
-0.005506606,0.007593046144138938
-0.005506266,0.008777934223302994
-0.005505926,0.01019321720675062
-0.005505586,0.01111479682387655
-0.005505246,0.01187180865223136
-0.005504906,0.01279338826935962
-0.005504566,0.01315543740465909
-0.005504226,0.01279338826935896
-0.005503886,0.01256299336507646
-0.005503546,0.01223385778753149
-0.005503206,0.01167432730570402
-0.005502865999999999,0.01131227817040263
-0.005502526,0.01062109345755819
-0.005502186,0.009271637589621349
-0.005501845999999999,0.008843761338811269
-0.005501506,0.008382971530248308
-0.005501166,0.008942502012075779
-0.005500825999999999,0.009172896916358458
-0.005500486,0.009600773167166921
-0.005500146,0.009469118936148692
-0.005499806,0.008843761338813245
-0.005499466,0.008086749510457293
-0.005499126,0.00802092239494818
-0.005498786,0.008152576625966169
-0.005498446,0.009271637589621349
-0.005498106,0.01032487143776718
-0.005497766,0.0112464510548931
-0.005497426,0.01193763576774048
-0.005497086,0.01266173403834073
-0.005496746,0.01368205432873015
-0.005496406,0.01424158481055947
-0.005496066,0.0146036339458596
-0.005495726,0.01394536279076966
-0.005495386,0.013682054328732
-0.005495046,0.013682054328732
-0.005494706,0.01328709163567804
-0.005494366,0.01305669673139542
-0.005494026,0.01279338826935896
-0.005493686,0.01223385778753251
-0.005493346,0.01141101884366756
-0.005493006,0.009633686724921478
-0.005492666,0.007955095279442119
-0.005492326,0.007099342777820581
-0.005491986,0.006572725853747667
-0.005491646,0.006276503833957192
-0.005491306,0.006243590276202096
-0.005490966,0.007099342777820581
-0.005490626,0.008679193550039321
-0.005490286,0.009765340955939707
-0.005489946,0.01101605615061288
-0.005489606,0.01174015442121313
-0.005489266,0.0122996849030406
-0.005488926,0.01193763576774048
-0.005488586,0.01095022903510376
-0.005488246,0.01062109345755693
-0.005487906,0.009929908744712493
-0.005487566,0.009864081629203377
-0.005487226,0.00973242739818503
-0.005486886,0.009666600282676035
-0.005486546,0.00950203249390325
-0.005486206,0.009304551147375608
-0.005485866,0.009139983358603122
-0.005485526,0.008942502012075779
-0.005485186,0.008909588454321941
-0.005484846,0.009304551147375908
-0.005484506,0.009765340955939707
-0.005484166,0.01045652566878648
-0.005483826,0.01104896970836743
-0.005483486,0.01078566124633098
-0.005483146,0.01131227817040257
-0.005482806,0.01058817989980363
-0.005482466,0.009534946051657807
-0.005482125999999999,0.007625959701890382
-0.005481786,0.005914454698656525
-0.005481446,0.004992875081528926
-0.005481105999999999,0.004861220850510937
-0.005480766,0.004992875081528926
-0.005480426,0.005947368256411082
-0.005480085999999999,0.007362651239859492
-0.005479746,0.00871210710779388
-0.005479406,0.009271637589621349
-0.005479066,0.008679193550040399
-0.005478726,0.008350057972493751
-0.005478386,0.007593046144138938
-0.005478046,0.007593046144138938
-0.005477706,0.007527219028629823
-0.005477366,0.007856354606175394
-0.005477026,0.008481712203510841
-0.005476686,0.008745020665548437
-0.005476346,0.009107069800848565
-0.005476006,0.009962822302465493
-0.005475666,0.01071983413082186
-0.005475326,0.01058817989980363
-0.005474986,0.01039069855327665
-0.005474646,0.009929908744712493
-0.005474306,0.009271637589621349
-0.005473966,0.008745020665549394
-0.005473626,0.007757613932911723
-0.005473286,0.007658873259648051
-0.005472946,0.008218403741474504
-0.005472606,0.008975415569830336
-0.005472266,0.009896995186957936
-0.005471926,0.01002864941797592
-0.005471586,0.009896995186957936
-0.005471246,0.009238724031866792
-0.005470906,0.009139983358603302
-0.005470566,0.00881084778105755
-0.005470226,0.009139983358603122
-0.005469886,0.009107069800848565
-0.005469546,0.009600773167166921
-0.005469206,0.01025904432225806
-0.005468866,0.01127936461264933
-0.005468526,0.01157558663244035
-0.005468186,0.01180598153672225
-0.005467846,0.01164141374794946
-0.005467506,0.01118062393938566
-0.005467166,0.01065400701531275
-0.005466826,0.01032487143776718
-0.005466486,0.009798254513693306
-0.005466146,0.009271637589621349
-0.005465806,0.008679193550039321
-0.005465466,0.008317144414738714
-0.005465126,0.008053835952702737
-0.005464786,0.008777934223302994
-0.005464446,0.009962822302466749
-0.005464106,0.009798254513694264
-0.005463766,0.01009447653348528
-0.005463426,0.010094476533486
-0.005463086,0.01048943922653996
-0.005462746,0.01009447653348528
-0.005462406,0.009633686724920818
-0.005462066,0.009271637589621349
-0.005461726,0.009699513840430593
-0.005461385999999999,0.009567859609413382
-0.005461046,0.01012739009123984
-0.005460706,0.01042361211103085
-0.005460365999999999,0.01091731547734975
-0.005460026,0.01121353749714022
-0.005459686,0.01095022903510376
-0.005459345999999999,0.01121353749714088
-0.005459006,0.01157558663244035
-0.005458666,0.0116085001901949
-0.005458325999999999,0.01206928999875954
-0.005457986,0.0125300798073225
-0.005457646,0.01272756115384985
-0.005457306,0.01282630182711334
-0.005456966,0.0129908696158863
-0.005456626,0.01256299336507706
-0.005456286,0.01233259846079558
-0.005455946,0.01141101884366756
-0.005455606,0.01065400701531275
-0.005455266,0.00969951384043233
-0.005454926,0.009205810474112236
-0.005454586,0.008580452876775651
-0.005454246,0.008415885088003165
-0.005453906,0.008251317299230079
-0.005453566,0.008350057972493751
-0.005453226,0.008086749510457772
-0.005452886,0.00811966306821185
-0.005452546,0.008317144414739193
-0.005452206,0.008317144414739193
-0.005451866,0.00904124268533945
-0.005451526,0.009929908744712493
-0.005451186,0.01068692057306593
-0.005450846,0.01091731547734921
-0.005450506,0.01088440191959465
-0.005450166,0.01098314259285814
-0.005449826,0.01022613076450351
-0.005449486,0.009337464705130465
-0.005449146,0.008053835952705072
-0.005448806,0.007428478355366152
-0.005448466,0.006901861431293239
-0.005448126,0.006836034315784124
-0.005447786,0.007230997008838809
-0.005447446,0.007856354606175394
-0.005447106,0.008448798645757422
-0.005446766,0.008679193550039321
-0.005446426,0.009370378262885021
-0.005446086,0.01035778499552173
-0.005445746,0.01039069855327569
-0.005445406,0.01006156297573072
-0.005445066,0.009929908744712493
-0.005444726,0.00996282230246681
-0.005444386,0.00983116807144882
-0.005444046,0.00983116807144882
-0.005443706,0.009304551147376387
-0.005443366,0.009567859609412364
-0.005443026,0.009534946051657807
-0.005442686,0.009534946051657988
-0.005442346,0.009633686724921478
-0.005442006,0.01019321720674895
-0.005441666,0.0109173154773498
-0.005441326,0.01124645105489478
-0.005440986,0.01167432730570402
-0.005440646,0.0119376357677403
-0.005440306,0.0118388950944768
-0.005439966,0.01167432730570402
-0.005439625999999999,0.01144393240142122
-0.005439286,0.01095022903510376
-0.005438946,0.01029195788001262
-0.005438605999999999,0.009600773167165184
-0.005438266,0.008646279992284765
-0.005437926,0.008481712203511979
-0.005437585999999999,0.008317144414738954
-0.005437246,0.008185490183720966
-0.005436906,0.008185490183720966
-0.005436566,0.007856354606175993
-0.005436226,0.006868947873538681
-0.005435886,0.006967688546802352
-0.005435546,0.006572725853748385
-0.005435206,0.006704380084765896
-0.005434866,0.007889268163929951
-0.005434526,0.008284230856983918
-0.005434186,0.009205810474112236
-0.005433846,0.009633686724921478
-0.005433506,0.00950203249390349
-0.005433166,0.007889268163929951
-0.005432826,0.001899000652600558
-0.005432486,-0.01021318860105442
-0.005432146,-0.03058668085114731
-0.005431806,-0.05810241513395705
-0.005431466,-0.09016022038683735
-0.005431126,-0.1238637035275622
-0.005430786,-0.1564481257045737
-0.005430446,-0.1849841802777228
-0.005430106,-0.2073983131086281
-0.005429766,-0.2237892648703975
-0.005429426,-0.2343216033518367
-0.005429086,-0.2395219454770758
-0.005428746,-0.2408055742295035
-0.005428406,-0.2393244641305512
-0.005428066,-0.23586854056632
-0.005427726,-0.2312277289229275
-0.005427386,-0.2258957325666892
-0.005427046,-0.2193459345735323
-0.005426706,-0.2125657416760936
-0.005426366,-0.2054893267588638
-0.005426026,-0.1983470847261249
-0.005425686,-0.1908427935580859
-0.005425346,-0.1841613413339108
-0.005425006,-0.1767557908391354
-0.005424666,-0.1700414250572058
-0.005424326,-0.1631624914865033
-0.005423986,-0.15621773080028
-0.005423646,-0.1497008463648895
-0.005423306,-0.1434472703915236
-0.005422966,-0.1376873977844661
-0.005422626,-0.1321908336394651
-0.005422286,-0.127517108438318
-0.005421946,-0.1226788154483899
-0.005421606,-0.1181696580360238
-0.005421266,-0.1133313650461039
-0.005420926,-0.1087892940759671
-0.005420586,-0.104477618010128
-0.005420246,-0.09990263348224457
-0.005419906,-0.09634796924474673
-0.005419566,-0.09322118125806947
-0.005419226,-0.08986399836710465
-0.005418885999999999,-0.08690177816918852
-0.005418546,-0.08361042239373881
-0.005418206,-0.08068111575358322
-0.005417865999999999,-0.07719227863159502
-0.005417526,-0.07436171266470826
-0.005417186,-0.07156406025557091
-0.005416845999999999,-0.06902971630846415
-0.005416506,-0.06580418764852342
-0.005416166,-0.06333567081693162
-0.005415825999999999,-0.06060384552329848
-0.005415486,-0.0579049337874297
-0.005415146,-0.05566681186011983
-0.005414806,-0.05286915945098755
-0.005414466,-0.05056521040816347
-0.005414126,-0.04809669357657169
-0.005413786,-0.04562817674498439
-0.005413446,-0.04260012943156065
-0.005413106,-0.04013161259996887
-0.005412766,-0.03756435509511808
-0.005412426,-0.03585285009187644
-0.005412086,-0.03470087557046694
-0.005411746,-0.03440465355067647
-0.005411406,-0.03400969085762125
-0.005411066,-0.03364764172232112
-0.005410726,-0.03292354345172218
-0.005410386,-0.03187030960357504
-0.005410046,-0.03084998931318376
-0.005409706,-0.02930305209872239
-0.005409366,-0.02788776911527362
-0.005409026,-0.02588004209224564
-0.005408686,-0.0239710557424848
-0.005408346,-0.02133797112211676
-0.005408006,-0.01919858986807055
-0.005407666,-0.01719086284504622
-0.005407326,-0.01603888832363307
-0.005406986,-0.01462360534018711
-0.005406646,-0.01373493928081568
-0.005406306,-0.01284627322144103
-0.005405966,-0.01238548341287723
-0.005405626,-0.01215508850859533
-0.005405286,-0.01162847158452241
-0.005404946,-0.0111018546604495
-0.005404606,-0.01070689196739481
-0.005404266,-0.01044358350535836
-0.005403926,-0.009686571677003543
-0.005403586,-0.009554917445985316
-0.005403246,-0.009028300521911144
-0.005402906,-0.008337115809066702
-0.005402566,-0.007152227729902647
-0.005402226,-0.006757265036846584
-0.005401886,-0.006000253208493148
-0.005401546,-0.004914105802592763
-0.005401206,-0.003729217723426851
-0.005400866,-0.002708897433037437
-0.005400526,-0.002116453393455409
-0.005400186,-0.001491095796117627
-0.005399846,-0.000832824641027682
-0.005399506,-0.000832824641027682
-0.005399166,-0.001260700891836805
-0.005398826,-0.00119487377632781
-0.005398486,-0.001589836469382495
-0.005398146,-0.001425268680610009
-0.005397806,-0.001589836469382495
-0.005397466,-0.0007669975255185678
-0.005397125999999999,-0.0008328246410271432
-0.005396786,-0.0005366026212366681
-0.005396446,2.292786059080275e-05
-0.005396105999999999,0.0002862363226280978
-0.005395766,0.0007470261311910591
-0.005395426,0.0007470261311910591
-0.005395085999999999,0.001043248150982312
-0.005394746,0.001174902382000301
-0.005394406,0.001701519306073215
-0.005394066,0.001372383728528243
-0.005393726,0.002524358249937143
-0.005393386,0.003939641233383098
-0.005393046,0.004861220850509021
-0.005392706,0.006111936045183867
-0.005392366,0.00700060210455691
-0.005392026,0.007263910566592887
-0.005391686,0.007362651239857037
-0.005391346,0.00653981229599311
-0.005391006,0.005420751332340204
-0.005390666,0.00403838190664677
-0.005390326,0.003083888731764614
-0.005389986,0.00229396334565668
-0.005389646,0.001833173537091444
-0.005389306,0.001471124401791315
-0.005388966,0.001800259979336288
-0.005388626,0.002524358249937143
-0.005388286,0.004104209022155884
-0.005387946,0.004532085272964348
-0.005387606,0.005618232678865511
-0.005387266,0.00607902248742931
-0.005386926,0.00644107162272878
-0.005386586,0.006375244507220324
-0.005386246,0.006408158064974882
-0.005385906,0.006704380084765357
-0.005385566,0.006737293642520453
-0.005385226,0.007165169893329695
-0.005384886,0.007033515662311467
-0.005384546,0.007461391913120709
-0.005384206,0.007757613932911723
-0.005383866,0.008382971530248308
-0.005383526,0.009403291820639578
-0.005383186,0.01016030364899439
-0.005382846,0.01052235278429452
-0.005382506,0.01062109345755819
-0.005382166,0.01022613076450351
-0.005381826,0.009995735860221606
-0.005381486,0.009765340955939167
-0.005381146,0.009469118936148692
-0.005380806,0.009107069800848565
-0.005380466,0.008613366434529849
-0.005380126,0.008415885088002865
-0.005379786,0.008942502012075779
-0.005379446,0.009074156243094067
-0.005379106,0.009107069800848565
-0.005378766,0.009633686724921478
-0.005378426,0.01055526634205111
-0.005378086,0.01167432730570402
-0.005377746,0.01269464759609529
-0.005377406,0.01289212894262269
-0.005377066,0.01292504250037719
-0.005376726,0.01177306797896769
-0.005376385999999999,0.01042361211102738
-0.005376046,0.008514625761266537
-0.005375706,0.007066429220066024
-0.005375365999999999,0.005420751332336013
-0.005375026,0.004235863253174112
-0.005374686,0.002919320942991828
