Analysis/New Tests_CMB/wrd01_d2s01/cmb08_ch21.csv

#Digilent WaveForms Oscilloscope Acquisition
#Device Name: ADP3450
#Serial Number: SN:210018B9D9B0
#Date Time: 2024-08-14 17:31:55.686.806.100
#Sample rate: 5.88235e+06Hz
#Samples: 32768
#Trigger: Source: Channel 3 Type: Edge Condition: Rising Level: 60 mV Hyst.: Auto HoldOff: 0 s
#Channel 3: Range: 100 mV/div Offset: 0 V Attenuation: 1 X Coupling: DC Bandwidth: 0 Hz Sample Mode: Average

Time (s),Channel 3 (V)
-0.003798515668626954,0.2043502944008813
-0.003798345668626954,0.2176802852914978
-0.003798175668626954,0.2291342033900628
-0.003798005668626954,0.2390411842741845
-0.003797835668626954,0.2475328821748731
-0.003797665668626954,0.25460929709209
-0.003797495668626954,0.2597767256595555
-0.003797325668626954,0.2640554881676515
-0.003797155668626954,0.2659973880751668
-0.003796985668626954,0.2675114117318764
-0.003796815668626954,0.2660961287484289
-0.003796645668626954,0.2652074626890574
-0.003796475668626954,0.264417537302948
-0.003796305668626954,0.263166822108271
-0.003796135668626954,0.2610274408542286
-0.003795965668626954,0.2574727766167365
-0.003795795668626954,0.2537535445904637
-0.003795625668626954,0.24940895496687
-0.003795455668626954,0.2448339704389866
-0.003795285668626954,0.239567801198249
-0.003795115668626954,0.2349269895548649
-0.003794945668626954,0.2307798812777907
-0.003794775668626954,0.2275214390600954
-0.003794605668626954,0.224065515495861
-0.003794435668626954,0.2206425054893871
-0.003794265668626954,0.2163637429813024
-0.003794095668626954,0.2117229313379021
-0.003793925668626954,0.2074112552720551
-0.003793755668626954,0.2024742216088806
-0.003793585668626954,0.1983600268895519
-0.003793415668626954,0.1948711897675689
-0.003793245668626954,0.1915140068766102
-0.003793075668626954,0.190921562837022
-0.003792905668626954,0.1897695883156125
-0.003792735668626954,0.1860832698471089
-0.003792565668626954,0.1817715937812552
-0.003792395668626954,0.1780852753127447
-0.003792225668626954,0.17446478395975
-0.003792055668626954,0.1713379959730605
-0.003791885668626954,0.1692315282767689
-0.003791715668626954,0.1646565437488938
-0.003791545668626954,0.1619576320130118
-0.003791375668626954,0.1596207694124382
-0.003791205668626954,0.1576788695049229
-0.003791035668626954,0.1545520815182364
-0.003790865668626954,0.1518531697823627
-0.003790695668626954,0.1479364564095776
-0.003790525668626954,0.1446451006341147
-0.003790355668626954,0.1428019413998595
-0.003790185668626954,0.141057522838868
-0.003790015668626954,0.1389839687003309
-0.003789845668626954,0.1372395501393394
-0.003789675668626954,0.1339152808061291
-0.003789505668626954,0.1306897521461825
-0.003789335668626954,0.1281224946413271
-0.003789165668626954,0.1252919286744351
-0.003788995668626954,0.1222638813610114
-0.003788825668626954,0.1197953645294241
-0.003788655668626954,0.1183142544304691
-0.003788485668626954,0.1159444782721366
-0.003788315668626954,0.1135747021138128
-0.003788145668626954,0.1113365801865029
-0.003787975668626954,0.1088351497971527
-0.003787805668626954,0.1066957685431104
-0.003787635668626954,0.1051488313286462
-0.003787465668626954,0.103404412767652
-0.003787295668626954,0.1019562162264542
-0.003787125668626954,0.1013637721868721
-0.003786955668626954,0.1006067603585137
-0.003786785668626954,0.09863194689324389
-0.003786615668626954,0.0972495774675525
-0.003786445668626954,0.09550515890655588
-0.003786275668626954,0.09270750649742363
-0.003786105668626954,0.09053521168562284
-0.003785935668626954,0.08865913889361035
-0.003785765668626954,0.08714511523690346
-0.003785595668626954,0.08497282042510271
-0.003785425668626954,0.08336005609512592
-0.003785255668626954,0.08145106974536509
-0.003785085668626954,0.07983830541539177
-0.003784915668626954,0.0783901088741874
-0.003784745668626954,0.07625072762014506
-0.003784575668626954,0.07480253107894455
-0.003784405668626954,0.07348598876876468
-0.003784235668626954,0.07174157020777075
-0.003784065668626954,0.07065542280187034
-0.003783895668626954,0.06970092962698994
-0.003783725668626954,0.0687793500098606
-0.003783555668626954,0.06775902971946932
-0.003783385668626954,0.06509303154135505
-0.003783215668626954,0.06245994692098564
-0.003783045668626954,0.06298656384505855
-0.003782875668626954,0.0646651552905379
-0.003782705668626954,0.06446767394401362
-0.003782535668626954,0.06380940278892247
-0.003782365668626954,0.06206498422793412
-0.003782195668626954,0.06282199605628577
-0.003782025668626954,0.06216372490119462
-0.003781855668626954,0.05995851653164331
-0.003781685668626954,0.05827992508615688
-0.003781515668626954,0.05666716075618358
-0.003781345668626954,0.05587723537007565
-0.003781175668626954,0.05660133364067447
-0.003781005668626954,0.05735834546902929
-0.003780835668626954,0.0571279505647478
-0.003780665668626954,0.05610763027435611
-0.003780495668626954,0.05446195238662826
-0.003780325668626954,0.05265170671013091
-0.003780155668626954,0.05080854747587242
-0.003779985668626954,0.04945909160793558
-0.003779815668626954,0.04903121535712634
-0.003779645668626954,0.04853751199080798
-0.003779475668626954,0.04804380862448962
-0.003779305668626954,0.04672726631430734
-0.003779135668626954,0.04508158842657949
-0.003778965668626954,0.04373213255864264
-0.003778795668626954,0.04234976313295125
-0.003778625668626954,0.04106613438052351
-0.003778455668626954,0.04047369034094149
-0.003778285668626954,0.03863053110668629
-0.003778115668626954,0.03810391418261164
-0.003777945668626954,0.03714942100773122
-0.003777775668626954,0.03668863119916742
-0.003777605668626954,0.03550374312000169
-0.003777435668626954,0.03458216350287577
-0.003777265668626954,0.03310105340392069
-0.003777095668626954,0.03290357205739221
-0.003776925668626954,0.03227821446005677
-0.003776755668626954,0.03185033820924753
-0.003776585668626954,0.03122498061191118
-0.003776415668626954,0.03135663484292917
-0.003776245668626954,0.03112623993864727
-0.003776075668626954,0.03050088234130937
-0.003775905668626954,0.02977678407071043
-0.003775735668626954,0.02951347560867397
-0.003775565668626954,0.0294476484931651
-0.003775395668626954,0.02957930272418309
-0.003775225668626954,0.02921725358888296
-0.003775055668626954,0.0294147349354106
-0.003774885668626954,0.02957930272418309
-0.003774715668626954,0.02905268580011017
-0.003774545668626954,0.02862480954930039
-0.003774375668626954,0.02832858752950991
-0.003774205668626954,0.02865772310705549
-0.003774035668626954,0.02816401974073683
-0.003773865668626954,0.02799945195196434
-0.003773695668626954,0.02714369945034586
-0.003773525668626954,0.02638668762199242
-0.003773355668626954,0.02516888598507243
-0.003773185668626954,0.02474100973426319
-0.003773015668626954,0.02536636733159864
-0.003772845668626954,0.02658416896851839
-0.003772675668626954,0.02813110618298257
-0.003772505668626954,0.02589298425567676
-0.003772335668626954,0.0243460470412085
-0.003772165668626954,0.02299659117327166
-0.003771995668626954,0.02306241828878066
-0.003771825668626954,0.02260162848021698
-0.003771655668626954,0.02388525723264471
-0.003771485668626954,0.02339155386632725
-0.003771315668626954,0.02279910982674432
-0.003771145668626954,0.02168004886308938
-0.003770975668626954,0.02128508617003541
-0.003770805668626954,0.02029767943739798
-0.003770635668626954,0.02003437097536152
-0.003770465668626954,0.01967232184006205
-0.003770295668626954,0.01960649472455228
-0.003770125668626954,0.01934318626251582
-0.003769955668626954,0.01891531001170736
-0.003769785668626954,0.01898113712721569
-0.003769615668626954,0.01822412529886088
-0.003769445668626954,0.01766459481703341
-0.003769275668626954,0.01700632366194227
-0.003769105668626954,0.01700632366194227
-0.003768935668626954,0.01687466943092404
-0.003768765668626954,0.01680884231541493
-0.003768595668626954,0.01634805250685113
-0.003768425668626954,0.01638096606460569
-0.003768255668626954,0.01542647288972353
-0.003768085668626954,0.01532773221645986
-0.003767915668626954,0.01509733731217796
-0.003767745668626954,0.01516316442768695
-0.003767575668626954,0.01509733731217796
-0.003767405668626954,0.01453780683035049
-0.003767235668626954,0.01374788144424004
-0.003767065668626954,0.01315543740465909
-0.003766895668626954,0.01259590692283162
-0.003766725668626954,0.01134519172815737
-0.003766555668626954,0.01075274768857642
-0.003766385668626954,0.01032487143776718
-0.003766215668626954,0.0103577849955209
-0.003766045668626954,0.009896995186957936
-0.003765875668626954,0.01042361211103085
-0.003765705668626954,0.01009447653348582
-0.003765535668626954,0.01039069855327629
-0.003765365668626954,0.01035778499552173
-0.003765195668626954,0.01016030364899511
-0.003765025668626954,0.01055526634204908
-0.003764855668626954,0.01104896970836743
-0.003764685668626954,0.01114771038163338
-0.003764515668626954,0.01239842557630427
-0.003764345668626954,0.01289212894262263
-0.003764175668626954,0.0134187458666965
-0.003764005668626954,0.01394536279076846
-0.003763835668626954,0.01381370855975023
-0.003763665668626954,0.01434032548382674
-0.003763495668626954,0.01631513894909657
-0.003763325668626954,0.01592017625604189
-0.003763155668626954,0.01555812712074242
-0.003762985668626954,0.0155252135629872
-0.003762815668626954,0.01071983413082186
-0.003762645668626954,0.01489985596564301
-0.003762475668626954,0.01407701702178669
-0.003762305668626954,0.01289212894262263
-0.003762135668626954,0.01282630182711364
-0.003761965668626954,0.01249716624956795
-0.003761795668626954,0.01180598153672225
-0.003761625668626954,0.01124645105489579
-0.003761455668626954,0.01009447653348528
-0.003761285668626954,0.009929908744712493
-0.003761115668626954,0.009798254513694503
-0.003760945668626954,0.009304551147375908
-0.003760775668626954,0.009337464705130465
-0.003760605668626954,0.009205810474112475
-0.003760435668626954,0.00973242739818515
-0.003760265668626954,0.009271637589621349
-0.003760095668626954,0.008745020665549394
-0.003759925668626954,0.007757613932911723
-0.003759755668626954,0.007889268163929951
-0.003759585668626954,0.009600773167163807
-0.003759415668626954,0.01434032548382314
-0.003759245668626954,0.008284230856984636
-0.003759075668626954,0.005223269985816393
-0.003758905668626954,0.006342330949465767
-0.003758735668626954,0.007165169893329695
-0.003758565668626954,0.006901861431293239
-0.003758395668626954,0.006046108929674754
-0.003758225668626954,0.006046108929674754
-0.003758055668626954,0.006408158064974882
-0.003757885668626954,0.006572725853747667
-0.003757715668626954,0.005190356428056269
-0.003757545668626954,0.003511764982573856
-0.003757375668626954,0.001833173537091982
-0.003757205668626954,0.002129395556882458
-0.003757035668626954,0.002392704018918914
-0.003756865668626954,0.00331428363604807
-0.003756695668626954,0.004170036137664999
-0.003756525668626954,0.004235863253174112
-0.003756355668626954,0.004235863253174232
-0.003756185668626954,0.004301690368683227
-0.003756015668626954,0.004597912388474241
-0.003755845668626954,0.004762480177249481
-0.003755675668626954,0.006111936045183867
-0.003755505668626954,0.006638552969256781
-0.003755335668626954,0.006901861431294017
-0.003755165668626954,0.007329737682102481
-0.003754995668626954,0.007132256335575138
-0.003754825668626954,0.007691786817402729
-0.003754655668626954,0.007757613932911723
-0.003754485668626954,0.006836034315784124
-0.003754315668626954,0.006375244507220683
-0.003754145668626954,0.006572725853747667
-0.003753975668626954,0.006441071622729439
-0.003753805668626954,0.006210676718446281
-0.003753635668626954,0.005519492005601839
-0.003753465668626954,0.004795393735001583
-0.003753295668626954,0.00426877681092873
-0.003753125668626954,0.004301690368683227
-0.003752955668626954,0.003643419213592085
-0.003752785668626954,0.003281370078292615
-0.003752615668626954,0.003610505655837527
-0.003752445668626954,0.004137122579910441
-0.003752275668626954,0.004959961523772872
-0.003752105668626954,0.006111936045183867
-0.003751935668626954,0.005980281814165639
-0.003751765668626954,0.005387837774584689
-0.003751595668626954,0.004597912388474241
-0.003751425668626954,0.004334603926437783
-0.003751255668626954,0.0041371225799108
-0.003751085668626954,0.004532085272965126
-0.003750915668626954,0.00528909710131994
-0.003750745668626954,0.006539812295990835
-0.003750575668626954,0.008053835952702737
-0.003750405668626954,0.008547539319021094
-0.003750235668626954,0.007889268163931148
-0.003750065668626954,0.007889268163929951
-0.003749895668626954,0.007593046144138938
-0.003749725668626954,0.007593046144138938
-0.003749555668626954,0.007922181721684508
-0.003749385668626954,0.00779052749066628
-0.003749215668626954,0.007132256335576336
-0.003749045668626954,0.006605639411502225
-0.003748875668626954,0.008284230856984636
-0.003748705668626954,0.009732427398182517
-0.003748535668626954,0.008646279992284765
-0.003748365668626954,0.007494305470875266
-0.003748195668626954,0.005980281814165639
-0.003748025668626954,0.005519492005601839
-0.003747855668626954,0.005716973352129182
-0.003747685668626954,0.00528909710131994
-0.003747515668626954,0.004532085272965126
-0.003747345668626954,0.003643419213592085
-0.003747175668626954,0.003413024309310185
-0.003747005668626954,0.003775073444610313
-0.003746835668626954,0.003215542962782842
-0.003746665668626954,0.003511764982573856
-0.003746495668626954,0.003478851424819119
-0.003746325668626954,0.003380110751555628
-0.003746155668626954,0.003314283636046514
-0.003745985668626954,0.00446625815745739
-0.003745815668626954,0.005223269985810825
-0.003745645668626954,0.005387837774583611
-0.003745475668626954,0.005124529312545717
-0.003745305668626954,0.004334603926437783
-0.003745135668626954,0.004433344599701455
-0.003744965668626954,0.003807987002365948
-0.003744795668626954,0.004400431041946898
-0.003744625668626954,0.003413024309310185
-0.003744455668626954,0.005585319121110475
-0.003744285668626954,0.005322010659074497
-0.003744115668626954,0.004466258157456012
-0.003743945668626954,0.003248456520535424
-0.003743775668626954,0.002162309114637015
-0.003743605668626954,0.001866087094846001
-0.003743435668626954,0.002688926038710767
-0.003743265668626954,0.003149715847273728
-0.003743095668626954,0.003149715847273728
-0.003742925668626954,0.003380110751554729
-0.003742755668626954,0.002886407385237271
-0.003742585668626954,0.003050975174010056
-0.003742415668626954,0.002228136230146009
-0.003742245668626954,0.002162309114637015
-0.003742075668626954,0.002063568441373343
-0.003741905668626954,0.002919320942990272
-0.003741735668626954,0.003478851424819299
-0.003741565668626954,0.003643419213592085
-0.003741395668626954,0.004597912388472504
-0.003741225668626954,0.005354924216829054
-0.003741055668626954,0.004894134408265255
-0.003740885668626954,0.004630825946229276
-0.003740715668626954,0.004170036137664999
-0.003740545668626954,0.004466258157456012
-0.003740375668626954,0.004499171715210509
-0.003740205668626954,0.004894134408265255
-0.003740035668626954,0.004861220850510698
-0.003739865668626954,0.005289097101319162
-0.003739695668626954,0.005124529312547154
-0.003739525668626954,0.005124529312547154
-0.003739355668626954,0.004532085272966203
-0.003739185668626954,0.002721839596464486
-0.003739015668626954,0.002030654883618786
-0.003738845668626954,0.001800259979337306
-0.003738675668626954,0.004795393735001583
-0.003738505668626954,0.005684059794374625
-0.003738335668626954,0.005256183543566161
-0.003738165668626954,0.004992875081528926
-0.003737995668626954,0.004301690368683227
-0.003737825668626954,0.004170036137665238
-0.003737655668626954,0.003511764982573856
-0.003737485668626954,0.002129395556882458
-0.003737315668626954,0.000714112573436502
-0.003737145668626954,0.001405297286282201
-0.003736975668626954,0.002195222672391572
-0.003736805668626954,0.003314283636046514
-0.003736635668626954,0.003347197193801071
-0.003736465668626954,0.003676332771346642
-0.003736295668626954,0.002359790461164357
-0.003736125668626954,0.002030654883618427
-0.003735955668626954,0.001833173537091444
-0.003735785668626954,0.002030654883618786
-0.003735615668626954,0.002491444692184382
-0.003735445668626954,0.003478851424819299
-0.003735275668626954,0.003972554791137656
-0.003735105668626954,0.002952234500749798
-0.003734935668626954,0.00482830729275614
-0.003734765668626954,0.004696653061737912
-0.003734595668626954,0.004927047966019452
-0.003734425668626954,0.004729566619492469
-0.003734255668626954,0.004795393735001583
-0.003734085668626954,0.005322010659075155
-0.003733915668626954,0.005684059794374625
-0.003733745668626954,0.006013195371920196
-0.003733575668626954,0.007099342777818905
-0.003733405668626954,0.006177763160692982
-0.003733235668626954,0.005815714025392853
-0.003733065668626954,0.005552405563355918
-0.003732895668626954,0.00528909710131994
-0.003732725668626954,0.005914454698656525
-0.003732555668626954,0.006210676718446701
-0.003732385668626954,0.00574988690988374
-0.003732215668626954,0.00607902248742931
-0.003732045668626954,0.005223269985809928
-0.003731875668626954,0.004729566619492469
-0.003731705668626954,0.004663739503983355
-0.003731535668626954,0.004301690368683885
-0.003731365668626954,0.004334603926437783
-0.003731195668626954,0.003873814117873984
-0.003731025668626954,0.003873814117873984
-0.003730855668626954,0.004071295464401327
-0.003730685668626954,0.005256183543565383
-0.003730515668626954,0.004992875081529405
-0.003730345668626954,0.004894134408265255
-0.003730175668626954,0.004137122579910441
-0.003730005668626954,0.004038381906646949
-0.003729835668626954,0.003873814117873984
-0.003729665668626954,0.004170036137664999
-0.003729495668626954,0.004005468348892512
-0.003729325668626954,0.003314283636046514
-0.003729155668626954,0.002754753154219042
-0.003728985668626954,0.001504037959548148
-0.003728815668626954,-0.000207467043691097
-0.003728645668626954,-0.001129046660818696
-0.003728475668626954,0.0009115939199601329
-0.003728305668626954,0.002458531134428029
-0.003728135668626954,0.003050975174010056
-0.003727965668626954,0.002261049787902123
-0.003727795668626954,0.001997741325864229
-0.003727625668626954,0.002096481999127901
-0.003727455668626954,0.002853493827481337
-0.003727285668626954,0.002063568441373343
-0.003727115668626954,0.001010334593227516
-0.003726945668626954,0.0005495447846637165
-0.003726775668626954,0.001109075266491187
-0.003726605668626954,0.002688926038709928
-0.003726435668626954,0.004499171715210569
-0.003726265668626954,0.005387837774583611
-0.003726095668626954,0.004170036137664999
-0.003725925668626954,0.004597912388474241
-0.003725755668626954,0.004762480177247026
-0.003725585668626954,0.005651146236620068
-0.003725415668626954,0.005190356428056269
-0.003725245668626954,0.005914454698656285
-0.003725075668626954,0.005782800467638296
-0.003724905668626954,0.006046108929674754
-0.003724735668626954,0.005256183543564186
-0.003724565668626954,0.004597912388474241
-0.003724395668626954,0.00403838190664677
-0.003724225668626954,0.004202949695419017
-0.003724055668626954,0.003906727675628541
-0.003723885668626954,0.004071295464401327
-0.003723715668626954,0.002721839596464127
-0.003723545668626954,0.002524358249937143
-0.003723375668626954,0.003083888731764614
-0.003723205668626954,0.003478851424819
-0.003723035668626954,0.003314283636046514
-0.003722865668626954,0.003643419213592085
-0.003722695668626954,0.00472956661949193
-0.003722525668626954,0.004433344599701455
-0.003722355668626954,0.005091615754792597
-0.003722185668626954,0.005322010659075275
-0.003722015668626954,0.00574988690988374
-0.003721845668626954,0.005684059794374625
-0.003721675668626954,0.00611193604518225
-0.003721505668626954,0.005223269985810825
-0.003721335668626954,0.004597912388474241
-0.003721165668626954,0.004499171715210809
-0.003720995668626954,0.004630825946228797
-0.003720825668626954,0.004663739503983355
-0.003720655668626954,0.004729566619492349
-0.003720485668626954,0.004564998830719684
-0.003720315668626954,0.004235863253174112
-0.003720145668626954,0.00426877681092861
-0.003719975668626954,0.004235863253174112
