Analysis/New Tests_CMB/wrd01_d2s01/cmb08_ch04.csv

#Digilent WaveForms Oscilloscope Acquisition
#Device Name: ADP3450
#Serial Number: SN:210018B9D9B0
#Date Time: 2024-08-06 16:40:52.849.131.770
#Sample rate: 2.94118e+06Hz
#Samples: 32768
#Trigger: Source: Channel 3 Type: Edge Condition: Rising Level: 60 mV Hyst.: Auto HoldOff: 0 s
#Channel 3: Range: 200 mV/div Offset: 0 V Attenuation: 1 X Coupling: DC Bandwidth: 0 Hz Sample Mode: Average

Time (s),Channel 3 (V)
-0.005570485786802031,0.02516888598507243
-0.00557014578680203,0.02507014531180882
-0.00556980578680203,0.02510305886956332
-0.005569465786802031,0.02516888598507243
-0.00556912578680203,0.02530054021608982
-0.00556878578680203,0.02483975040752686
-0.005568445786802031,0.02418147925243572
-0.00556810578680203,0.02329281319306052
-0.00556776578680203,0.02210792511389862
-0.005567425786802031,0.0203635065529071
-0.00556708578680203,0.01891531001170491
-0.00556674578680203,0.01799373039457898
-0.005566405786802031,0.01802664395233354
-0.00556606578680203,0.0179937303945785
-0.00556572578680203,0.01773042193254253
-0.005565385786802031,0.01694049654643316
-0.00556504578680203,0.01595308981379657
-0.00556470578680203,0.01601891692930556
-0.005564365786802031,0.01611765760256923
-0.00556402578680203,0.01667718808439724
-0.00556368578680203,0.01697341010418771
-0.005563345786802031,0.01664427452664214
-0.005563005786802031,0.01674301519990563
-0.00556266578680203,0.01588726269828733
-0.005562325786802031,0.01555812712074176
-0.005561985786802031,0.01453780683035234
-0.00556164578680203,0.01328709163567732
-0.005561305786802031,0.01259590692283162
-0.005560965786802031,0.01193763576774167
-0.00556062578680203,0.0118388950944768
-0.005560285786802031,0.01226677134528605
-0.005559945786802031,0.01312252384690298
-0.00555960578680203,0.0146036339458596
-0.005559265786802031,0.01447197971484137
-0.005558925786802031,0.01588726269828476
-0.00555858578680203,0.01559104067849632
-0.00555824578680203,0.01443906615708682
-0.005557905786802031,0.01292504250037994
-0.00555756578680203,0.01187180865223136
-0.00555722578680203,0.01131227817040389
-0.005556885786802031,0.01193763576773934
-0.00555654578680203,0.01220094422977693
-0.00555620578680203,0.01292504250037719
-0.005555865786802031,0.01381370855974861
-0.00555552578680203,0.0134516594244501
-0.00555518578680203,0.01266173403834073
-0.005554845786802031,0.01150975951693333
-0.00555450578680203,0.009600773167166921
-0.00555416578680203,0.007922181721684508
-0.005553825786802031,0.006836034315784124
-0.00555348578680203,0.007099342777820581
-0.00555314578680203,0.007889268163929951
-0.005552805786802031,0.009896995186957936
-0.00555246578680203,0.01180598153672225
-0.00555212578680203,0.01335291875118643
-0.005551785786802031,0.0141428441372958
-0.00555144578680203,0.01387953567525713
-0.00555110578680203,0.01266173403834073
-0.005550765786802031,0.01144393240142212
-0.00555042578680203,0.009929908744710817
-0.00555008578680203,0.009008329127584893
-0.005549745786802031,0.00871210710779388
-0.00554940578680203,0.00976534095594252
-0.00554906578680203,0.01131227817040389
-0.005548725786802031,0.01249716624956795
-0.00554838578680203,0.0125629933650761
-0.00554804578680203,0.01203637644100415
-0.005547705786802031,0.01141101884366756
-0.00554736578680203,0.0105552663420477
-0.00554702578680203,0.009798254513694264
-0.005546685786802031,0.009074156243094007
-0.00554634578680203,0.008547539319021275
-0.00554600578680203,0.008646279992284765
-0.005545665786802031,0.008218403741475522
-0.00554532578680203,0.007395564797610458
-0.00554498578680203,0.00677020720027501
-0.005544645786802031,0.006375244507220324
-0.00554430578680203,0.006243590276203114
-0.00554396578680203,0.006803120758029567
-0.005543625786802031,0.007362651239857037
-0.00554328578680203,0.007790527490667118
-0.00554294578680203,0.008251317299230079
-0.005542605786802031,0.008679193550039321
-0.005542265786802031,0.009205810474111278
-0.00554192578680203,0.009238724031866792
-0.005541585786802031,0.009205810474112236
-0.005541245786802031,0.009107069800848746
-0.00554090578680203,0.009172896916357679
-0.005540565786802031,0.009633686724921478
-0.005540225786802031,0.01068692057306539
-0.00553988578680203,0.01131227817040389
-0.005539545786802031,0.01187180865223136
-0.005539205786802031,0.01203637644100385
-0.00553886578680203,0.01170724086345858
-0.005538525786802031,0.01101605615061288
-0.005538185786802031,0.01081857480408589
-0.00553784578680203,0.01025904432225806
-0.005537505786802031,0.01016030364899439
-0.005537165786802031,0.01022613076450339
-0.00553682578680203,0.009896995186957936
-0.00553648578680203,0.009995735860221606
-0.005536145786802031,0.009271637589622666
-0.00553580578680203,0.00904124268533945
-0.00553546578680203,0.009107069800848565
-0.005535125786802031,0.008975415569830576
-0.00553478578680203,0.009172896916357679
-0.00553444578680203,0.008185490183720966
-0.005534105786802031,0.007757613932912501
-0.00553376578680203,0.006803120758029567
-0.00553342578680203,0.006177763160692982
-0.005533085786802031,0.005519492005601839
-0.00553274578680203,0.005651146236620068
-0.00553240578680203,0.006046108929674754
-0.005532065786802031,0.006638552969256781
-0.00553172578680203,0.007296824124347924
-0.00553138578680203,0.008185490183720966
-0.005531045786802031,0.009403291820639578
-0.00553070578680203,0.01032487143776718
-0.00553036578680203,0.01118062393938566
-0.005530025786802031,0.01174015442121313
-0.00552968578680203,0.01216803067202076
-0.00552934578680203,0.01127936461264933
-0.005529005786802031,0.01032487143776718
-0.00552866578680203,0.008876674896565406
-0.00552832578680203,0.008185490183720966
-0.005527985786802031,0.007988008837193623
-0.00552764578680203,0.008251317299232414
-0.00552730578680203,0.009534946051657807
-0.005526965786802031,0.01045652566878541
-0.00552662578680203,0.01091731547734891
-0.00552628578680203,0.01075274768857642
-0.005525945786802031,0.01068692057306731
-0.00552560578680203,0.0103577849955212
-0.00552526578680203,0.01006156297573072
-0.005524925786802031,0.01002864941797616
-0.00552458578680203,0.0100615629757312
-0.00552424578680203,0.01032487143776718
-0.005523905786802031,0.00973242739818515
-0.00552356578680203,0.009534946051657448
-0.00552322578680203,0.009337464705130465
-0.005522885786802031,0.008086749510457293
-0.00552254578680203,0.007658873259646734
-0.00552220578680203,0.006934774989047795
-0.005521865786802031,0.006342330949465767
-0.00552152578680203,0.006079022487430388
-0.00552118578680203,0.006671466527011338
-0.005520845786802031,0.007296824124347924
-0.005520505786802031,0.007955095279437869
-0.00552016578680203,0.008382971530248308
-0.005519825786802031,0.00871210710779388
-0.005519485786802031,0.009074156243093347
-0.00551914578680203,0.00973242739818515
-0.005518805786802031,0.01002864941797616
-0.005518465786802031,0.01009447653348516
-0.00551812578680203,0.01098314259285832
-0.005517785786802031,0.0118388950944768
-0.005517445786802031,0.01266173403833924
-0.00551710578680203,0.01394536279076846
-0.005516765786802031,0.01499859663891429
-0.005516425786802031,0.01539355933196825
-0.00551608578680203,0.01559104067849632
-0.00551574578680203,0.01519607798544163
-0.005515405786802031,0.01503151019666914
-0.00551506578680203,0.01401118990627757
-0.00551472578680203,0.01295795605813175
-0.005514385786802031,0.01216803067202381
-0.00551404578680203,0.01127936461264933
-0.00551370578680203,0.01022613076450351
-0.005513365786802031,0.009172896916359594
-0.00551302578680203,0.008053835952702737
-0.00551268578680203,0.007724700375157166
-0.005512345786802031,0.006803120758029567
-0.00551200578680203,0.00653981229599311
-0.00551166578680203,0.006046108929674754
-0.005511325786802031,0.00677020720027501
-0.00551098578680203,0.007922181721684508
-0.00551064578680203,0.009172896916357679
-0.005510305786802031,0.01055526634204908
-0.00550996578680203,0.01147684595917668
-0.00550962578680203,0.01210220355651326
-0.005509285786802031,0.01246425269181339
-0.00550894578680203,0.01253007980732077
-0.00550860578680203,0.01157558663244035
-0.005508265786802031,0.01104896970836743
-0.00550792578680203,0.01032487143776574
-0.00550758578680203,0.009534946051657807
-0.005507245786802031,0.009271637589621349
-0.00550690578680203,0.008975415569829438
-0.00550656578680203,0.008481712203511979
-0.005506225786802031,0.008053835952702737
-0.00550588578680203,0.007724700375157764
-0.00550554578680203,0.008053835952702737
-0.005505205786802031,0.008909588454321223
-0.00550486578680203,0.009633686724921297
-0.00550452578680203,0.009534946051657807
-0.005504185786802031,0.009798254513694264
-0.00550384578680203,0.0108844019195962
-0.00550350578680203,0.01174015442121313
-0.005503165786802031,0.01249716624956795
-0.00550282578680203,0.01292504250037737
-0.00550248578680203,0.01302378317364086
-0.005502145786802031,0.0122996849030406
-0.00550180578680203,0.01174015442121277
-0.00550146578680203,0.01154267307468579
-0.005501125786802031,0.01190472220998592
-0.00550078578680203,0.01305669673139656
-0.00550044578680203,0.013682054328732
-0.005500105786802031,0.01427449836831403
-0.005499765786802031,0.01450489327259551
-0.00549942578680203,0.01430741192606859
-0.005499085786802031,0.01404410346403213
-0.005498745786802031,0.01335291875118769
-0.00549840578680203,0.0122996849030406
-0.005498065786802031,0.01098314259285832
-0.005497725786802031,0.009798254513696418
-0.00549738578680203,0.009666600282676035
-0.005497045786802031,0.00973242739818515
-0.005496705786802031,0.009337464705131183
-0.00549636578680203,0.00950203249390325
-0.005496025786802031,0.009370378262885021
-0.005495685786802031,0.009238724031867032
-0.00549534578680203,0.009403291820639578
-0.005495005786802031,0.008975415569830336
-0.005494665786802031,0.008350057972494889
-0.00549432578680203,0.00756013258638438
-0.00549398578680203,0.006934774989047795
-0.005493645786802031,0.006342330949466846
-0.00549330578680203,0.00653981229599311
-0.00549296578680203,0.006967688546802352
-0.005492625786802031,0.007658873259646794
-0.00549228578680203,0.008580452876775651
-0.00549194578680203,0.00904124268533945
-0.005491605786802031,0.009337464705129925
-0.00549126578680203,0.00904124268533945
-0.00549092578680203,0.009172896916357679
-0.005490585786802031,0.009074156243094007
-0.00549024578680203,0.00871210710779388
-0.00548990578680203,0.007889268163929951
-0.005489565786802031,0.007691786817402609
-0.00548922578680203,0.007428478355366152
-0.00548888578680203,0.007955095279439066
-0.005488545786802031,0.008745020665548437
-0.00548820578680203,0.009041242685341306
-0.00548786578680203,0.01006156297573072
-0.005487525786802031,0.01039069855327629
-0.00548718578680203,0.01111479682387619
-0.00548684578680203,0.01091731547734921
-0.005486505786802031,0.01091731547734921
-0.00548616578680203,0.01101605615061383
-0.00548582578680203,0.01154267307468579
-0.005485485786802031,0.01134519172815845
-0.00548514578680203,0.01108188326612163
-0.00548480578680203,0.01088440191959465
-0.005484465786802031,0.01042361211103085
-0.00548412578680203,0.01022613076450231
-0.00548378578680203,0.009567859609412364
-0.005483445786802031,0.009436205378394135
-0.00548310578680203,0.009633686724922435
-0.00548276578680203,0.01016030364899439
-0.005482425786802031,0.01048943922653996
-0.00548208578680203,0.01085148836183883
-0.00548174578680203,0.01016030364899439
-0.005481405786802031,0.009469118936148692
-0.00548106578680203,0.008777934223301257
-0.00548072578680203,0.007823441048420837
-0.005480385786802031,0.007461391913120709
-0.00548004578680203,0.007132256335574899
-0.00547970578680203,0.00700060210455691
-0.005479365786802031,0.006605639411502225
-0.005479025786802031,0.005749886909885297
-0.00547868578680203,0.001899000652600558
-0.005478345786802031,-0.00869916494436683
-0.005478005786802031,-0.02713075728688528
-0.00547766578680203,-0.05270459166220968
-0.005477325786802031,-0.0852231867237121
-0.005476985786802031,-0.1202432121744972
-0.00547664578680203,-0.154637880028073
-0.005476305786802031,-0.1847208718157382
-0.005475965786802031,-0.2087477689765212
-0.00547562578680203,-0.2263236088174984
-0.005475285786802031,-0.2376129591273115
-0.005474945786802031,-0.2433728317343485
-0.00547460578680203,-0.245380558757387
-0.005474265786802031,-0.2435373995231318
-0.005473925786802031,-0.2388965878797477
-0.00547358578680203,-0.2323138763288278
-0.00547324578680203,-0.2240854868901885
-0.005472905786802031,-0.2153633940852468
-0.00547256578680203,-0.2066413012802733
-0.00547222578680203,-0.1983799982838794
-0.005471885786802031,-0.1914352375976805
-0.00547154578680203,-0.1846879582579837
-0.00547120578680203,-0.1782698144958451
-0.005470865786802031,-0.1712263131363826
-0.00547052578680203,-0.1646436015854584
-0.00547018578680203,-0.1576988408992469
-0.005469845786802031,-0.1513136106948628
-0.00546950578680203,-0.1459157872231154
-0.00546916578680203,-0.141044580675441
-0.005468825786802031,-0.1360417198967483
-0.00546848578680203,-0.1315325624843739
-0.00546814578680203,-0.1271550593030179
-0.005467805786802031,-0.12290921035268
-0.00546746578680203,-0.1188279291911149
-0.00546712578680203,-0.1141871175477224
-0.005466785786802031,-0.1093159110000479
-0.00546644578680203,-0.1053333705117381
-0.00546610578680203,-0.1007254724261085
-0.005465765786802031,-0.09667710482229797
-0.00546542578680203,-0.09177298471686073
-0.00546508578680203,-0.08723091374674008
-0.005464745786802031,-0.08331420037394779
-0.00546440578680203,-0.07975953613645005
-0.00546406578680203,-0.07669857526528182
-0.005463725786802031,-0.07367052795186255
-0.00546338578680203,-0.07067539419619254
-0.00546304578680203,-0.06774608755604228
-0.005462705786802031,-0.06386228774100455
-0.00546236578680203,-0.0599455743682059
-0.00546202578680203,-0.0564567372462292
-0.005461685786802031,-0.05319829502852804
-0.00546134578680203,-0.05076269175468764
-0.00546100578680203,-0.04901827319369929
-0.005460665786802031,-0.04717511395944409
-0.00546032578680203,-0.04569400386048596
-0.00545998578680203,-0.04401541241500661
-0.005459645786802031,-0.0425672158738061
-0.00545930578680203,-0.04092153798607453
-0.00545896578680203,-0.0388808974052957
-0.005458625786802031,-0.03654403480472215
-0.00545828578680203,-0.03430591287740753
-0.00545794578680203,-0.03170574181480225
-0.005457605786802031,-0.02953344700300148
-0.005457265786802031,-0.02851312671261207
-0.00545692578680203,-0.02788776911527362
-0.005456585786802031,-0.02765737421099173
-0.005456245786802031,-0.02736115219120125
-0.00545590578680203,-0.0272953250756916
-0.005455565786802031,-0.02703201661365514
-0.005455225786802031,-0.02657122680509218
-0.00545488578680203,-0.02541925228368184
-0.005454545786802031,-0.02423436420451779
-0.005454205786802031,-0.02314821679861937
-0.00545386578680203,-0.02140379823762588
-0.005453525786802031,-0.01952772544561612
-0.005453185786802031,-0.01715794928729232
-0.00545284578680203,-0.01462360534018711
-0.00545250578680203,-0.01307666812572293
-0.005452165786802031,-0.01133224956473457
-0.00545182578680203,-0.01050941062086747
-0.00545148578680203,-0.01031192927434013
-0.005451145786802031,-0.01008153437005865
-0.00545080578680203,-0.01011444792781279
-0.00545046578680203,-0.009916966581285444
-0.005450125786802031,-0.009357436099458992
-0.00544978578680203,-0.008896646290894173
-0.00544944578680203,-0.008238375135803031
-0.005449105786802031,-0.007448449749695098
-0.00544876578680203,-0.00688891926786619
-0.00544842578680203,-0.005440722726665677
-0.005448085786802031,-0.004782451571574535
-0.00544774578680203,-0.003531736376901365
-0.00544740578680203,-0.002610156759773766
-0.005447065786802031,-0.001458182238364267
-0.00544672578680203,-0.0006024297367457822
-0.00544638578680203,-0.0004707755057275538
-0.005446045786802031,-0.0008986517565367963
-0.00544570578680203,-0.001491095796119303
-0.00544536578680203,-0.001754404258155281
-0.005445025786802031,-0.002182280508964523
-0.00544468578680203,-0.002050626277945636
-0.00544434578680203,-0.001688577142646167
-0.005444005786802031,-0.001260700891836924
-0.00544366578680203,-7.581281267226988e-05
-0.00544332578680203,0.0002533227648727025
-0.005442985786802031,0.0001545820916090312
-0.00544264578680203,0.0004508041114004043
-0.00544230578680203,0.0006482854579273878
-0.005441965786802031,0.00107616170873663
-0.00544162578680203,0.001964827768110989
-0.00544128578680203,0.002688926038709928
-0.005440945786802031,0.003676332771346642
-0.00544060578680203,0.004532085272966863
-0.00544026578680203,0.005486578447847282
-0.005439925786802031,0.006408158064974882
-0.00543958578680203,0.006868947873538082
-0.00543924578680203,0.00653981229599311
-0.005438905786802031,0.005947368256411082
-0.00543856578680203,0.005585319121110714
-0.00543822578680203,0.005453664890092726
-0.005437885786802031,0.005420751332338168
-0.00543754578680203,0.005684059794374505
-0.00543720578680203,0.005618232678865511
-0.005436865786802031,0.005322010659074497
-0.005436525786802031,0.004630825946230054
-0.00543618578680203,0.003511764982573856
-0.005435845786802031,0.0023268769034098
-0.005435505786802031,0.001997741325864828
-0.00543516578680203,0.001800259979336887
-0.005434825786802031,0.002656012480955371
-0.005434485786802031,0.003182629405027327
-0.00543414578680203,0.004104209022155884
-0.005433805786802031,0.005124529312547154
-0.005433465786802031,0.005749886909882602
-0.00543312578680203,0.006441071622729439
-0.005432785786802031,0.006605639411502225
-0.005432445786802031,0.006243590276202754
-0.00543210578680203,0.005947368256411082
-0.005431765786802031,0.005782800467638296
-0.005431425786802031,0.006144849602937767
-0.00543108578680203,0.006836034315784124
-0.00543074578680203,0.007988008837193623
-0.005430405786802031,0.009666600282672981
-0.00543006578680203,0.01098314259285832
-0.00542972578680203,0.01233259846079516
-0.005429385786802031,0.01206928999875918
-0.00542904578680203,0.01147684595917668
-0.00542870578680203,0.01048943922653996
-0.005428365786802031,0.009962822302468007
-0.00542802578680203,0.009436205378394135
-0.00542768578680203,0.009205810474112236
-0.005427345786802031,0.009567859609412364
-0.00542700578680203,0.009633686724921478
-0.00542666578680203,0.01071983413082186
-0.005426325786802031,0.01104896970836743
-0.00542598578680203,0.01131227817040389
-0.00542564578680203,0.01190472220998592
-0.005425305786802031,0.01216803067202238
-0.00542496578680203,0.01249716624956795
-0.00542462578680203,0.01167432730570402
-0.005424285786802031,0.01095022903510376
-0.00542394578680203,0.009567859609409431
-0.00542360578680203,0.007955095279439066
-0.005423265786802031,0.006836034315784124
-0.00542292578680203,0.00653981229599305
-0.00542258578680203,0.006506898738238553
-0.005422245786802031,0.00756013258638438
-0.00542190578680203,0.008876674896569419
-0.00542156578680203,0.01039069855327629
-0.005421225786802031,0.01203637644100415
-0.00542088578680203,0.01302378317364194
-0.00542054578680203,0.01361622721322289
-0.005420205786802031,0.01420867125280492
-0.00541986578680203,0.01368205432873182
-0.00541952578680203,0.01358331365546833
-0.005419185786802031,0.01381370855975023
-0.00541884578680203,0.01355040009771353
-0.00541850578680203,0.01341874586669555
-0.005418165786802031,0.01315543740465909
-0.00541782578680203,0.01239842557630152
-0.00541748578680203,0.01088440191959465
-0.005417145786802031,0.009600773167166921
-0.00541680578680203,0.0091728969163572
-0.00541646578680203,0.008909588454321223
-0.005416125786802031,0.009436205378394135
-0.00541578578680203,0.01009447653348618
-0.00541544578680203,0.01058817989980363
-0.005415105786802031,0.01121353749714022
-0.005414765786802031,0.01114771038163122
-0.00541442578680203,0.01121353749714022
-0.005414085786802031,0.01002864941797616
-0.005413745786802031,0.009205810474113733
-0.00541340578680203,0.008152576625966409
-0.005413065786802031,0.007329737682102481
-0.005412725786802031,0.006638552969258039
-0.00541238578680203,0.006342330949465767
-0.005412045786802031,0.00574988690988374
