Analysis/New Tests_CMB/wrd01_d2s01/cmb01_ch31.csv

#Digilent WaveForms Oscilloscope Acquisition
#Device Name: ADP3450
#Serial Number: SN:210018B9D9B0
#Date Time: 2024-08-06 15:17:06.733.927.080
#Sample rate: 2.94118e+06Hz
#Samples: 32768
#Trigger: Source: Channel 3 Type: Edge Condition: Rising Level: 80 mV Hyst.: Auto HoldOff: 0 s
#Channel 3: Range: 200 mV/div Offset: 0 V Attenuation: 1 X Coupling: DC Bandwidth: 0 Hz Sample Mode: Average

Time (s),Channel 3 (V)
-0.005570412110874201,0.02375360300162648
-0.0055700721108742,0.02352320809734338
-0.0055697321108742,0.02286493694225343
-0.005569392110874201,0.02223957934491685
-0.0055690521108742,0.02194335732512524
-0.0055687121108742,0.02161422174758026
-0.005568372110874201,0.02138382684329837
-0.0055680321108742,0.02102177770799794
-0.0055676921108742,0.02085720991922545
-0.005567352110874201,0.02039642011066165
-0.0055670121108742,0.01993563030209749
-0.0055666721108742,0.01973814895557051
-0.005566332110874201,0.01934318626251582
-0.0055659921108742,0.01845452020314122
-0.0055656521108742,0.0175987677015243
-0.005565312110874201,0.01703923721969683
-0.0055649721108742,0.01631513894909466
-0.0055646321108742,0.01526190510095074
-0.005564292110874201,0.01447197971484137
-0.0055639521108742,0.01414284413729544
-0.0055636121108742,0.01394536279076846
-0.005563272110874201,0.0132212645201682
-0.005562932110874201,0.01193763576774281
-0.0055625921108742,0.01210220355651326
-0.005562252110874201,0.01190472220998592
-0.005561912110874201,0.01183889509447692
-0.0055615721108742,0.01216803067202238
-0.005561232110874201,0.01295795605813175
-0.005560892110874201,0.01391244923301217
-0.0055605521108742,0.01503151019666884
-0.005560212110874201,0.0157556084672691
-0.005559872110874201,0.01598600337155058
-0.0055595321108742,0.01638096606460569
-0.005559192110874201,0.0157556084672691
-0.005558852110874201,0.01473528817687969
-0.0055585121108742,0.01328709163567732
-0.005558172110874201,0.01154267307468579
-0.005557832110874201,0.00989699518696093
-0.0055574921108742,0.009567859609412364
-0.005557152110874201,0.009271637589621349
-0.005556812110874201,0.009929908744711296
-0.0055564721108742,0.01075274768857642
-0.005556132110874201,0.01144393240142212
-0.005555792110874201,0.01190472220998508
-0.0055554521108742,0.01233259846079516
-0.005555112110874201,0.01220094422977693
-0.005554772110874201,0.01193763576774095
-0.0055544321108742,0.01236551201854972
-0.005554092110874201,0.01164141374794946
-0.005553752110874201,0.01108188326612199
-0.0055534121108742,0.01095022903510376
-0.0055530721108742,0.01045652566878541
-0.005552732110874201,0.009765340955939707
-0.0055523921108742,0.009337464705130465
-0.0055520521108742,0.00904124268533945
-0.005551712110874201,0.008218403741475522
-0.0055513721108742,0.008547539319021275
-0.0055510321108742,0.008646279992284765
-0.005550692110874201,0.009107069800848565
-0.0055503521108742,0.0102261307645053
-0.0055500121108742,0.01121353749714022
-0.005549672110874201,0.01157558663244035
-0.0055493321108742,0.01114771038163021
-0.0055489921108742,0.01065400701531275
-0.005548652110874201,0.01048943922653996
-0.0055483121108742,0.01062109345755861
-0.0055479721108742,0.01085148836184009
-0.005547632110874201,0.01141101884366756
-0.0055472921108742,0.01197054932549497
-0.0055469521108742,0.01193763576774048
-0.005546612110874201,0.0118388950944768
-0.0055462721108742,0.01124645105489226
-0.0055459321108742,0.009864081629203377
-0.005545592110874201,0.008646279992284765
-0.0055452521108742,0.007494305470872752
-0.0055449121108742,0.006111936045183867
-0.005544572110874201,0.005519492005601839
-0.0055442321108742,0.005684059794372589
-0.0055438921108742,0.004564998830719684
-0.005543552110874201,0.005091615754792597
-0.0055432121108742,0.005387837774585108
-0.0055428721108742,0.006210676718447538
-0.005542532110874201,0.007132256335575138
-0.005542192110874201,0.007691786817401592
-0.0055418521108742,0.008415885088002865
-0.005541512110874201,0.00802092239494818
-0.005541172110874201,0.007395564797612733
-0.0055408321108742,0.007625959701893495
-0.005540492110874201,0.007658873259648051
-0.005540152110874201,0.008119663068211012
-0.0055398121108742,0.008646279992284765
-0.005539472110874201,0.008514625761266537
-0.005539132110874201,0.009304551147374471
-0.0055387921108742,0.01016030364899439
-0.005538452110874201,0.01078566124633098
-0.005538112110874201,0.01190472220998388
-0.0055377721108742,0.01269464759609529
-0.005537432110874201,0.01335291875118643
-0.005537092110874201,0.01322126452016844
-0.0055367521108742,0.01289212894262263
-0.005536412110874201,0.01197054932549503
-0.005536072110874201,0.01104896970836911
-0.0055357321108742,0.009798254513694264
-0.005535392110874201,0.008646279992284765
-0.005535052110874201,0.008415885088003285
-0.0055347121108742,0.008350057972493751
-0.005534372110874201,0.009205810474112236
-0.005534032110874201,0.01022613076450165
-0.0055336921108742,0.01085148836184009
-0.005533352110874201,0.01108188326612199
-0.005533012110874201,0.01091731547734921
-0.0055326721108742,0.01042361211103085
-0.0055323321108742,0.009864081629203377
-0.005531992110874201,0.008942502012075779
-0.0055316521108742,0.007033515662311467
-0.0055313121108742,0.005585319121110954
-0.005530972110874201,0.004400431041946898
-0.0055306321108742,0.004071295464401327
-0.0055302921108742,0.004630825946228797
-0.005529952110874201,0.005684059794374625
-0.0055296121108742,0.006704380084766794
-0.0055292721108742,0.007198083451084253
-0.005528932110874201,0.00802092239494818
-0.0055285921108742,0.008646279992285065
-0.0055282521108742,0.00881084778105755
-0.005527912110874201,0.009107069800848565
-0.0055275721108742,0.009469118936148992
-0.0055272321108742,0.009633686724921478
-0.005526892110874201,0.009107069800848565
-0.0055265521108742,0.008777934223301975
-0.0055262121108742,0.008218403741475522
-0.005525872110874201,0.008547539319021094
-0.0055255321108742,0.008712107107793521
-0.0055251921108742,0.008514625761266537
-0.005524852110874201,0.008646279992284765
-0.0055245121108742,0.008843761338811389
-0.0055241721108742,0.008448798645757422
-0.005523832110874201,0.008152576625966409
-0.0055234921108742,0.007955095279438947
-0.0055231521108742,0.007889268163929951
-0.005522812110874201,0.008415885088002865
-0.0055224721108742,0.008679193550040159
-0.0055221321108742,0.009139983358603122
-0.005521792110874201,0.009995735860221606
-0.0055214521108742,0.01025904432225764
-0.0055211121108742,0.01002864941797616
-0.005520772110874201,0.01006156297573072
-0.005520432110874201,0.01006156297573072
-0.0055200921108742,0.01035778499552173
-0.005519752110874201,0.01095022903510376
-0.005519412110874201,0.01124645105489424
-0.0055190721108742,0.01243133913405883
-0.005518732110874201,0.01305669673139542
-0.005518392110874201,0.0132541780779224
-0.0055180521108742,0.01305669673139542
-0.005517712110874201,0.0127604747116044
-0.005517372110874201,0.01223385778753245
-0.0055170321108742,0.01167432730570402
-0.005516692110874201,0.01154267307468579
-0.005516352110874201,0.01157558663244029
-0.0055160121108742,0.0120692899987587
-0.005515672110874201,0.01305669673139542
-0.005515332110874201,0.01305669673139542
-0.0055149921108742,0.01289212894262263
-0.005514652110874201,0.01226677134528605
-0.005514312110874201,0.01174015442121409
-0.0055139721108742,0.01052235278429452
-0.005513632110874201,0.009271637589621349
-0.005513292110874201,0.008415885088004421
-0.0055129521108742,0.007593046144138938
-0.005512612110874201,0.007263910566593366
-0.005512272110874201,0.006901861431293239
-0.0055119321108742,0.006934774989047795
-0.0055115921108742,0.007494305470875266
-0.005511252110874201,0.007527219028629823
-0.0055109121108742,0.008053835952702737
-0.0055105721108742,0.007625959701893495
-0.005510232110874201,0.008317144414739193
-0.0055098921108742,0.00871210710779388
-0.0055095521108742,0.009107069800848565
-0.005509212110874201,0.008679193550039321
-0.0055088721108742,0.008415885088002086
-0.0055085321108742,0.007988008837193623
-0.005508192110874201,0.008481712203511979
-0.0055078521108742,0.009600773167169556
-0.0055075121108742,0.01104896970836743
-0.005507172110874201,0.01197054932549503
-0.0055068321108742,0.01299086961588672
-0.0055064921108742,0.0132212645201682
-0.005506152110874201,0.01335291875118643
-0.0055058121108742,0.01144393240142038
-0.0055054721108742,0.01048943922653996
-0.005505132110874201,0.008777934223302994
-0.0055047921108742,0.007230997008836415
-0.0055044521108742,0.005914454698656525
-0.005504112110874201,0.004959961523774369
-0.0055037721108742,0.004334603926436706
-0.0055034321108742,0.003742159886855756
-0.005503092110874201,0.003775073444610313
-0.0055027521108742,0.004334603926439999
-0.0055024121108742,0.005552405563356397
-0.005502072110874201,0.005980281814165639
-0.0055017321108742,0.006342330949465827
-0.0055013921108742,0.006375244507220324
-0.005501052110874201,0.005815714025392853
-0.0055007121108742,0.005749886909882362
-0.0055003721108742,0.004992875081528926
-0.005500032110874201,0.005256183543565383
-0.005499692110874201,0.005585319121110355
-0.0054993521108742,0.006803120758029567
-0.005499012110874201,0.00802092239494818
-0.005498672110874201,0.009337464705128071
-0.0054983321108742,0.01078566124633098
-0.005497992110874201,0.01190472220998592
-0.005497652110874201,0.01262882048058486
-0.0054973121108742,0.01332000519343187
-0.005496972110874201,0.01312252384690453
-0.005496632110874201,0.01335291875118601
-0.0054962921108742,0.01312252384690453
-0.005495952110874201,0.01285921538486808
-0.005495612110874201,0.01154267307468819
-0.0054952721108742,0.01035778499552173
-0.005494932110874201,0.00871210710779388
-0.005494592110874201,0.008350057972494411
-0.0054942521108742,0.007724700375157166
-0.005493912110874201,0.008152576625966409
-0.005493572110874201,0.008284230856984397
-0.0054932321108742,0.008481712203511979
-0.005492892110874201,0.008448798645757422
-0.005492552110874201,0.008415885088002926
-0.0054922121108742,0.00756013258638438
-0.005491872110874201,0.006671466527011338
-0.005491532110874201,0.006572725853747846
-0.0054911921108742,0.006243590276202096
-0.005490852110874201,0.006111936045183867
-0.005490512110874201,0.006111936045183867
-0.0054901721108742,0.005782800467638296
-0.0054898321108742,0.006473985180483996
-0.005489492110874201,0.007395564797611595
-0.0054891521108742,0.008350057972493751
-0.0054888121108742,0.009469118936148692
-0.005488472110874201,0.00983116807144882
-0.0054881321108742,0.009633686724920999
-0.0054877921108742,0.009370378262885021
-0.005487452110874201,0.009370378262885021
-0.0054871121108742,0.008810847781056832
-0.0054867721108742,0.008415885088002865
-0.005486432110874201,0.008843761338812107
-0.0054860921108742,0.009765340955941084
-0.0054857521108742,0.01052235278429452
-0.005485412110874201,0.01062109345755819
-0.0054850721108742,0.01025904432225627
-0.0054847321108742,0.009271637589621349
-0.005484392110874201,0.008679193550039321
-0.0054840521108742,0.007856354606173777
-0.0054837121108742,0.006967688546802352
-0.005483372110874201,0.006473985180483996
-0.0054830321108742,0.007000602104557748
-0.0054826921108742,0.007461391913120709
-0.005482352110874201,0.008053835952702737
-0.0054820121108742,0.008350057972493212
-0.0054816721108742,0.008053835952702737
-0.005481332110874201,0.007757613932911723
-0.0054809921108742,0.008185490183720306
-0.0054806521108742,0.007823441048420837
-0.005480312110874201,0.007625959701893495
-0.0054799721108742,0.00788926816393043
-0.0054796321108742,0.008152576625966409
-0.005479292110874201,0.007132256335575138
-0.005478952110874201,0.002787666711981503
-0.0054786121108742,-0.008073807347030245
-0.005478272110874201,-0.02640665901631855
-0.005477932110874201,-0.05257293743114386
-0.0054775921108742,-0.08370916306700249
-0.005477252110874201,-0.1175772139964417
-0.005476912110874201,-0.1509844751172564
-0.0054765721108742,-0.1817586516178281
-0.005476232110874201,-0.2072995724353644
-0.005475892110874201,-0.2267185715105178
-0.0054755521108742,-0.2396865132658486
-0.005475212110874201,-0.246565446836551
-0.005474872110874201,-0.2488364823216113
-0.0054745321108742,-0.2462363112590055
-0.005474192110874201,-0.241891721635404
-0.005473852110874201,-0.2360989354706124
-0.0054735121108742,-0.2297466188239724
-0.005473172110874201,-0.2228347716955154
-0.005472832110874201,-0.215001344949945
-0.0054724921108742,-0.2071679182043462
-0.005472152110874201,-0.2001902439603801
-0.005471812110874201,-0.1928176070233727
-0.0054714721108742,-0.1853133158553203
-0.005471132110874201,-0.1777431975717721
-0.005470792110874201,-0.1697452030374293
-0.0054704521108742,-0.162372566100394
-0.005470112110874201,-0.1557898545494825
-0.005469772110874201,-0.1501945497312079
-0.0054694321108742,-0.1447638127017059
-0.0054690921108742,-0.1402546552893316
-0.005468752110874201,-0.1361733741277665
-0.0054684121108742,-0.1318946116196741
-0.0054680721108742,-0.1285045151709547
-0.005467732110874201,-0.1241599255473532
-0.0054673921108742,-0.1190583240953968
-0.0054670521108742,-0.1142529446632315
-0.005466712110874201,-0.1094146516733116
-0.0054663721108742,-0.1048067535876663
-0.0054660321108742,-0.1007912995416176
-0.005465692110874201,-0.09684167261107077
-0.0054653521108742,-0.09397819308641796
-0.0054650121108742,-0.09048935596444124
-0.005464672110874201,-0.08716508663123099
-0.0054643321108742,-0.08338002748945063
-0.0054639921108742,-0.07992410392522842
-0.005463652110874201,-0.0764023532454908
-0.0054633121108742,-0.07251855343044637
-0.0054629721108742,-0.06883223496194266
-0.005462632110874201,-0.06494843514690493
-0.0054622921108742,-0.06195330139123442
-0.0054619521108742,-0.05876068628904819
-0.005461612110874201,-0.0567529592660202
-0.0054612721108742,-0.0542844424344234
-0.0054609321108742,-0.05151970358304563
-0.005460592110874201,-0.04921575454022663
-0.0054602521108742,-0.04773464444126953
-0.0054599121108742,-0.04661558347761662
-0.005459572110874201,-0.04549652251396168
-0.0054592321108742,-0.04421289376153036
-0.0054588921108742,-0.04223808029626052
-0.005458552110874201,-0.04088862442832368
-0.0054582121108742,-0.03874924317427412
-0.0054578721108742,-0.03690608394002227
-0.005457532110874201,-0.03522749249453986
-0.005457192110874201,-0.03387803662660548
-0.0054568521108742,-0.03163991469929314
-0.005456512110874201,-0.02923722498321047
-0.005456172110874201,-0.02683453526713217
-0.0054558321108742,-0.024069796415745
-0.005455492110874201,-0.0224570320857717
-0.005455152110874201,-0.02163419314190927
-0.0054548121108742,-0.0213050575643622
-0.005454472110874201,-0.02137088467987132
-0.005454132110874201,-0.02133797112211682
-0.0054537921108742,-0.02067969996702562
-0.005453452110874201,-0.02008725592744359
-0.005453112110874201,-0.01942898477235365
-0.0054527721108742,-0.01811244246217016
-0.005452432110874201,-0.01722377640279712
-0.005452092110874201,-0.01656550524770718
-0.0054517521108742,-0.01623636967016041
-0.005451412110874201,-0.01584140697710572
-0.005451072110874201,-0.01452486466692583
-0.0054507321108742,-0.01412990197386875
-0.005450392110874201,-0.01310958168347748
-0.005450052110874201,-0.01278044610593251
-0.0054497121108742,-0.01215508850859533
-0.005449372110874201,-0.01251713764389546
-0.005449032110874201,-0.01123350889147006
-0.0054486921108742,-0.009818225908021772
-0.005448352110874201,-0.00869916494436683
-0.005448012110874201,-0.007316795518675433
-0.0054476721108742,-0.005901512535229476
-0.0054473321108742,-0.004420402436274407
-0.005446992110874201,-0.003400082145883136
-0.0054466521108742,-0.002379761855491866
-0.0054463121108742,-0.002281021182228195
-0.005445972110874201,-0.002149366951209966
-0.0054456321108742,-0.001622750027137532
-0.0054452921108742,-0.00188605848917351
-0.005444952110874201,-0.001589836469382495
-0.0054446121108742,-0.000997392429799809
-0.0054442721108742,-0.0006353432945003394
-0.005443932110874201,-0.0002732941592002112
-0.0054435921108742,-0.0002074670436916358
-0.0054432521108742,-0.0005036890634821109
-0.005442912110874201,-0.0007011704100094536
-0.0054425721108742,2.292786059229948e-05
-0.0054422321108742,0.0008457668044547304
-0.005441892110874201,0.001339470170773087
-0.0054415521108742,0.002030654883619086
-0.0054412121108742,0.002195222672391572
-0.005440872110874201,0.002590185365446257
-0.0054405321108742,0.002096481999125805
-0.0054401921108742,0.0009445074777184018
-0.005439852110874201,-0.0001416399281819828
-0.0054395121108742,-0.0007011704100083759
-0.0054391721108742,-0.0001087263704274257
-0.005438832110874201,0.0006153719001728307
-0.0054384921108742,0.001372383728528961
-0.0054381521108742,0.002096481999127901
-0.005437812110874201,0.003116802289519171
-0.0054374721108742,0.004663739503984613
-0.0054371321108742,0.005354924216829054
-0.005436792110874201,0.006046108929674754
-0.005436452110874201,0.006836034315782687
-0.0054361121108742,0.006868947873538681
-0.005435772110874201,0.006342330949465767
-0.005435432110874201,0.0059473682564118
-0.0054350921108742,0.004729566619492469
-0.005434752110874201,0.004071295464401327
-0.005434412110874201,0.002820580269730432
-0.0054340721108742,0.001899000652600558
-0.005433732110874201,0.001109075266491187
-0.005433392110874201,0.001536951517299651
-0.0054330521108742,0.001569865075054987
-0.005432712110874201,0.002590185365446257
-0.005432372110874201,0.003248456520536202
-0.0054320321108742,0.004762480177247026
-0.005431692110874201,0.005815714025392853
-0.005431352110874201,0.006539812295991793
-0.0054310121108742,0.007428478355366152
-0.005430672110874201,0.008086749510457293
-0.005430332110874201,0.008152576625966289
-0.0054299921108742,0.00904124268533945
-0.005429652110874201,0.00950203249390325
-0.005429312110874201,0.01025904432225669
-0.0054289721108742,0.01108188326612199
-0.005428632110874201,0.01114771038163111
-0.005428292110874201,0.01048943922654116
-0.0054279521108742,0.009699513840430593
-0.005427612110874201,0.009008329127584893
-0.005427272110874201,0.008942502012075779
-0.0054269321108742,0.009074156243094007
-0.0054265921108742,0.008942502012075779
-0.005426252110874201,0.008876674896566664
-0.0054259121108742,0.008975415569830336
-0.0054255721108742,0.009271637589621349
-0.005425232110874201,0.009929908744712493
-0.0054248921108742,0.009666600282676035
-0.0054245521108742,0.009666600282676035
-0.005424212110874201,0.009403291820639578
-0.0054238721108742,0.008646279992283148
-0.0054235321108742,0.007757613932911723
-0.005423192110874201,0.007099342777820581
-0.0054228521108742,0.007494305470875446
-0.0054225121108742,0.007593046144138938
-0.005422172110874201,0.007955095279439066
-0.0054218321108742,0.008152576625968563
-0.0054214921108742,0.009337464705130465
-0.005421152110874201,0.008679193550039321
-0.0054208121108742,0.009041242685340647
-0.0054204721108742,0.009699513840430593
-0.005420132110874201,0.009798254513694264
-0.0054197921108742,0.01019321720674805
-0.0054194521108742,0.009699513840430593
-0.005419112110874201,0.008679193550039321
-0.0054187721108742,0.007823441048420657
-0.0054184321108742,0.007724700375157166
-0.005418092110874201,0.006704380084765896
-0.0054177521108742,0.005980281814165519
-0.0054174121108742,0.005914454698656525
-0.005417072110874201,0.006144849602938425
-0.0054167321108742,0.00653981229599299
-0.0054163921108742,0.006473985180483996
-0.005416052110874201,0.007362651239857037
-0.0054157121108742,0.008020922394947701
-0.0054153721108742,0.007757613932911723
-0.005415032110874201,0.007527219028629823
-0.005414692110874201,0.006836034315785382
-0.0054143521108742,0.005980281814165639
-0.005414012110874201,0.00482830729275614
-0.005413672110874201,0.004433344599702173
-0.0054133321108742,0.00482830729275614
-0.005412992110874201,0.005387837774583611
-0.005412652110874201,0.006013195371919059
-0.0054123121108742,0.00653981229599311
-0.005411972110874201,0.006967688546802352
-0.005411632110874201,0.007033515662311347
-0.0054112921108742,0.008415885088002865
-0.005410952110874201,0.008909588454321223
