Analysis/New Tests_CMB/wrd01_d2s01/cmb02_ch45.csv

#Digilent WaveForms Oscilloscope Acquisition
#Device Name: ADP3450
#Serial Number: SN:210018B9D9B0
#Date Time: 2024-08-14 16:45:50.721.576.180
#Sample rate: 5.88235e+06Hz
#Samples: 32768
#Trigger: Source: Channel 3 Type: Edge Condition: Rising Level: 60 mV Hyst.: Auto HoldOff: 0 s
#Channel 3: Range: 100 mV/div Offset: 0 V Attenuation: 1 X Coupling: DC Bandwidth: 0 Hz Sample Mode: Average

Time (s),Channel 3 (V)
-0.003798410397920466,0.09346451832577843
-0.003798240397920466,0.09435318438515357
-0.003798070397920466,0.09550515890656097
-0.003797900397920466,0.09527476400227908
-0.003797730397920466,0.0950772826557504
-0.003797560397920466,0.09435318438515147
-0.003797390397920466,0.09382656746107856
-0.003797220397920466,0.0928062471706859
-0.003797050397920466,0.09204923534233247
-0.003796880397920466,0.09089726082092298
-0.003796710397920466,0.08958071851073915
-0.003796540397920466,0.08872496600912222
-0.003796370397920466,0.08661849831283056
-0.003796200397920466,0.08592731359998239
-0.003796030397920466,0.08457785773204801
-0.003795860397920466,0.08355753744165675
-0.003795690397920466,0.08187894599617222
-0.003795520397920466,0.08072697147476482
-0.003795350397920466,0.07941042916458255
-0.003795180397920466,0.07862050377847096
-0.003795010397920466,0.07740270214155456
-0.003794840397920466,0.0762178140623905
-0.003794670397920467,0.07500001242547411
-0.003794500397920466,0.07368347011528961
-0.003794330397920466,0.07272897694040745
-0.003794160397920467,0.07141243463022758
-0.003793990397920466,0.07009589232004287
-0.003793820397920466,0.06864769577884236
-0.003793650397920467,0.06766028904620745
-0.003793480397920466,0.06729823991090553
-0.003793310397920466,0.06591587048521413
-0.003793140397920467,0.06509303154135171
-0.003792970397920466,0.06420436548197717
-0.003792800397920466,0.06315113163383135
-0.003792630397920467,0.06226246557445991
-0.003792460397920466,0.06143962663059437
-0.003792290397920466,0.06041930634020309
-0.003792120397920466,0.05995851653164014
-0.003791950397920466,0.05910276403002081
-0.003791780397920466,0.05801661662412043
-0.003791610397920466,0.05768748104657545
-0.003791440397920466,0.05584432181231966
-0.003791270397920466,0.05449486594438282
-0.003791100397920466,0.0535403727695024
-0.003790930397920466,0.05294792872991863
-0.003790760397920466,0.05179595420850913
-0.003790590397920466,0.05084146103362871
-0.003790420397920466,0.05054523901383596
-0.003790250397920466,0.04962365939670836
-0.003790080397920466,0.04857042554856254
-0.003789910397920466,0.04751719170041671
-0.003789740397920466,0.04676017987206189
-0.003789570397920466,0.0462993900634981
-0.003789400397920466,0.0458386002549343
-0.003789230397920466,0.04524615621535227
-0.003789060397920466,0.04455497150250657
-0.003788890397920466,0.0442916630404691
-0.003788720397920466,0.04373213255864264
-0.003788550397920466,0.04294220717253327
-0.003788380397920466,0.04228393601744123
-0.003788210397920466,0.04179023265112377
-0.003788040397920466,0.04060534457195972
-0.003787870397920466,0.04047369034094053
-0.003787700397920466,0.03994707341686857
-0.003787530397920466,0.0393875429350411
-0.003787360397920466,0.03899258024198522
-0.003787190397920466,0.03833430908689527
-0.003787020397920466,0.03863053110668629
-0.003786850397920466,0.03751147014302979
-0.003786680397920466,0.03665571764141286
-0.003786510397920466,0.03652406341039464
-0.003786340397920466,0.03593161937081183
-0.003786170397920466,0.03550374312000337
-0.003786000397920466,0.0352404346579669
-0.003785830397920466,0.0347138177338931
-0.003785660397920466,0.03422011436757564
-0.003785490397920466,0.03448342282961209
-0.003785320397920466,0.03359475677023845
-0.003785150397920466,0.03326562119269348
-0.003784980397920466,0.03287065849963879
-0.003784810397920466,0.03224530090230119
-0.003784640397920466,0.03168577042047474
-0.003784470397920466,0.03132372128517461
-0.003784300397920467,0.03129080772742011
-0.003784130397920466,0.02974387051295587
-0.003783960397920466,0.03106041282313815
-0.003783790397920467,0.02974387051295826
-0.003783620397920466,0.02977678407071043
-0.003783450397920466,0.02905268580011017
-0.003783280397920467,0.02895394512684668
-0.003783110397920466,0.02869063666481004
-0.003782940397920466,0.02832858752950991
-0.003782770397920467,0.02839441464501891
-0.003782600397920466,0.02822984685624624
-0.003782430397920466,0.02786779772094612
-0.003782260397920467,0.0280981926252276
-0.003782090397920466,0.02737409435462776
-0.003781920397920466,0.0273411807968732
-0.003781750397920466,0.02701204521932823
-0.003781580397920466,0.02661708252627295
-0.003781410397920466,0.02609046560220003
-0.003781240397920466,0.02553093512037358
-0.003781070397920466,0.02520179954282699
-0.003780900397920466,0.02470809617650863
-0.003780730397920466,0.02431313348345467
-0.003780560397920466,0.02388525723264471
-0.003780390397920466,0.02352320809734458
-0.003780220397920466,0.02316115896204511
-0.003780050397920466,0.02270036915348065
-0.003779880397920466,0.02279910982674432
-0.003779710397920466,0.02286493694225343
-0.003779540397920466,0.02220666578716229
-0.003779370397920466,0.02237123357593508
-0.003779200397920466,0.02210792511389862
-0.003779030397920466,0.02144965395880748
-0.003778860397920466,0.02181170309410761
-0.003778690397920466,0.02138382684329837
-0.003778520397920466,0.02128508617003469
-0.003778350397920466,0.02135091328554381
-0.003778180397920466,0.02148256751656204
-0.003778010397920466,0.02092303703473385
-0.003777840397920466,0.02052807434167988
-0.003777670397920466,0.02016602520637975
-0.003777500397920466,0.02013311164862483
-0.003777330397920466,0.01993563030209785
-0.003777160397920466,0.0192115320314976
-0.003776990397920466,0.01954066760904233
-0.003776820397920466,0.01907987780047937
-0.003776650397920466,0.01884948289619747
-0.003776480397920466,0.01855326087640573
-0.003776310397920466,0.01815829818335177
-0.003776140397920466,0.01792790327906987
-0.003775970397920466,0.01769750837478779
-0.003775800397920466,0.0175987677015243
-0.003775630397920466,0.0173683727972424
-0.003775460397920466,0.01796081683682395
-0.003775290397920466,0.01769750837478797
-0.003775120397920466,0.01776333549029708
-0.003774950397920466,0.01750002702826003
-0.003774780397920466,0.01717089145071506
-0.003774610397920466,0.01763168125927886
-0.003774440397920466,0.0169075829886789
-0.003774270397920466,0.01707215077745139
-0.003774100397920466,0.0169075829886786
-0.003773930397920466,0.01680884231541475
-0.003773760397920466,0.01671010164215126
-0.003773590397920466,0.01634805250685113
-0.003773420397920467,0.01628222539134214
-0.003773250397920466,0.01585434914053277
-0.003773080397920466,0.0155252135629872
-0.003772910397920467,0.01542647288972371
-0.003772740397920466,0.01476820173463239
-0.003772570397920466,0.01536064577421441
-0.003772400397920467,0.01480111529238796
-0.003772230397920466,0.01434032548382314
-0.003772060397920466,0.0148340288501415
-0.003771890397920467,0.01526190510094996
-0.003771720397920466,0.01499859663891429
-0.003771550397920466,0.01470237461912327
-0.003771380397920467,0.01526190510094973
-0.003771210397920466,0.01545938644747809
-0.003771040397920466,0.01519607798544163
-0.003770870397920466,0.01539355933196861
-0.003770700397920466,0.0148340288501415
-0.003770530397920466,0.01476820173463239
-0.003770360397920466,0.01440615259933292
-0.003770190397920466,0.01394536279076846
-0.003770020397920466,0.01427449836831403
-0.003769850397920466,0.01417575769505054
-0.003769680397920466,0.01453780683035049
-0.003769510397920466,0.01473528817687783
-0.003769340397920466,0.01457072038810504
-0.003769170397920466,0.0148340288501415
-0.003769000397920466,0.01424158481055947
-0.003768830397920466,0.01450489327259593
-0.003768660397920466,0.01450489327259593
-0.003768490397920466,0.01420867125280492
-0.003768320397920466,0.01381370855975023
-0.003768150397920466,0.01315543740465909
-0.003767980397920466,0.01374788144424112
-0.003767810397920466,0.01305669673139542
-0.003767640397920466,0.0134845729822043
-0.003767470397920466,0.01328709163567732
-0.003767300397920466,0.01295795605813175
-0.003767130397920466,0.01295795605813115
-0.003766960397920466,0.01262882048058617
-0.003766790397920466,0.01216803067202238
-0.003766620397920466,0.01210220355651284
-0.003766450397920466,0.01187180865223136
-0.003766280397920466,0.01216803067202238
-0.003766110397920466,0.01233259846079462
-0.003765940397920466,0.01203637644100415
-0.003765770397920466,0.01236551201854972
-0.003765600397920466,0.01223385778753083
-0.003765430397920466,0.01187180865223136
-0.003765260397920466,0.01190472220998592
-0.003765090397920466,0.01006156297573479
-0.003764920397920466,0.0122996849030406
-0.003764750397920466,0.01210220355651326
-0.003764580397920466,0.01187180865223214
-0.003764410397920466,0.0122996849030406
-0.003764240397920466,0.01226677134528605
-0.003764070397920466,0.01243133913405943
-0.003763900397920466,0.0127604747116044
-0.003763730397920466,0.01302378317364086
-0.003763560397920466,0.01289212894262149
-0.003763390397920466,0.01226677134528605
-0.003763220397920466,0.0129908696158863
-0.003763050397920467,0.01282630182711382
-0.003762880397920466,0.01292504250037719
-0.003762710397920466,0.01282630182711352
-0.003762540397920467,0.01226677134528707
-0.003762370397920466,0.01246425269181339
-0.003762200397920466,0.0122996849030406
-0.003762030397920467,0.01180598153672315
-0.003761860397920466,0.011378105285913
-0.003761690397920466,0.01121353749714022
-0.003761520397920467,0.01150975951693069
-0.003761350397920466,0.01131227817040389
-0.003761180397920466,0.0118388950944768
-0.003761010397920467,0.01177306797896781
-0.003760840397920466,0.01200346288324959
-0.003760670397920466,0.01180598153672225
-0.003760500397920466,0.01183889509447674
-0.003760330397920466,0.01141101884366756
-0.003760160397920466,0.01193763576774048
-0.003759990397920466,0.01348457298220185
-0.003759820397920466,0.01052235278429452
-0.003759650397920466,0.01121353749714022
-0.003759480397920466,0.01180598153672117
-0.003759310397920466,0.01144393240142212
-0.003759140397920466,0.01065400701531275
-0.003758970397920466,0.0112135374971392
-0.003758800397920466,0.01068692057306731
-0.003758630397920466,0.01068692057306731
-0.003758460397920466,0.01048943922653996
-0.003758290397920466,0.01019321720674895
-0.003758120397920466,0.01009447653348528
-0.003757950397920466,0.01048943922653996
-0.003757780397920466,0.01048943922653996
-0.003757610397920466,0.01029195788001262
-0.003757440397920466,0.01019321720674895
-0.003757270397920466,0.0100944765334851
-0.003757100397920466,0.009995735860221606
-0.003756930397920466,0.01002864941797616
-0.003756760397920466,0.01025904432225812
-0.003756590397920466,0.01029195788001262
-0.003756420397920466,0.01095022903510376
-0.003756250397920466,0.01078566124633116
-0.003756080397920466,0.01088440191959465
-0.003755910397920466,0.01131227817040389
-0.003755740397920466,0.01025904432225866
-0.003755570397920466,0.01058817989980363
-0.003755400397920466,0.01164141374794946
-0.003755230397920466,0.01174015442121301
-0.003755060397920466,0.01167432730570402
-0.003754890397920466,0.01190472220998592
-0.003754720397920466,0.01157558663244023
-0.003754550397920466,0.01150975951693123
-0.003754380397920466,0.01170724086345858
-0.003754210397920466,0.01170724086345726
-0.003754040397920466,0.01098314259285832
-0.003753870397920466,0.01111479682387655
-0.003753700397920466,0.01127936461264963
-0.003753530397920466,0.01144393240142212
-0.003753360397920466,0.01124645105489478
-0.003753190397920466,0.01095022903510382
-0.003753020397920466,0.01098314259285832
-0.003752850397920466,0.01088440191959465
-0.003752680397920467,0.01071983413082216
-0.003752510397920466,0.01085148836184009
-0.003752340397920466,0.01058817989980363
-0.003752170397920467,0.01058817989980363
-0.003752000397920466,0.01081857480408553
-0.003751830397920466,0.01058817989980363
-0.003751660397920467,0.01042361211103115
-0.003751490397920466,0.01058817989980363
-0.003751320397920466,0.01055526634204908
-0.003751150397920467,0.01055526634204908
-0.003750980397920466,0.01150975951693123
-0.003750810397920466,0.01101605615061288
-0.003750640397920467,0.01085148836184039
-0.003750470397920466,0.01141101884366756
-0.003750300397920466,0.01101605615061288
-0.003750130397920466,0.01141101884366684
-0.003749960397920466,0.0116085001901949
-0.003749790397920466,0.01157558663244035
-0.003749620397920466,0.01144393240142236
-0.003749450397920466,0.0116085001901949
-0.003749280397920466,0.0120692899987587
-0.003749110397920466,0.01203637644100421
-0.003748940397920466,0.01177306797896769
-0.003748770397920466,0.0116085001901949
-0.003748600397920466,0.0116085001901949
-0.003748430397920466,0.01154267307468579
-0.003748260397920466,0.01180598153672225
-0.003748090397920466,0.01177306797896769
-0.003747920397920466,0.01167432730570402
-0.003747750397920466,0.01167432730570402
-0.003747580397920466,0.01078566124633098
-0.003747410397920466,0.01071983413082186
-0.003747240397920466,0.01012739009123984
-0.003747070397920466,0.00983116807144882
-0.003746900397920466,0.009962822302467049
-0.003746730397920466,0.009765340955939707
-0.003746560397920466,0.00983116807144882
-0.003746390397920466,0.009798254513697197
-0.003746220397920466,0.01141101884366756
-0.003746050397920466,0.009172896916357679
-0.003745880397920466,0.009534946051658286
-0.003745710397920466,0.009798254513694264
-0.003745540397920466,0.009699513840430593
-0.003745370397920466,0.009962822302467289
-0.003745200397920466,0.01009447653348528
-0.003745030397920466,0.01042361211103085
-0.003744860397920466,0.01068692057306797
-0.003744690397920466,0.01104896970836743
-0.003744520397920466,0.01085148836184009
-0.003744350397920466,0.01114771038163194
-0.003744180397920466,0.0116085001901949
-0.003744010397920466,0.01154267307468579
-0.003743840397920466,0.01193763576774048
-0.003743670397920466,0.01193763576774048
-0.003743500397920466,0.01236551201854972
-0.003743330397920466,0.01193763576774048
-0.003743160397920466,0.01193763576774048
-0.003742990397920466,0.01213511711426782
-0.003742820397920466,0.01177306797896775
-0.003742650397920466,0.01180598153672225
-0.003742480397920466,0.01108188326612199
-0.003742310397920466,0.01065400701531233
-0.003742140397920466,0.01042361211103085
-0.003741970397920466,0.01045652566878541
-0.003741800397920467,0.01019321720674943
-0.003741630397920466,0.009567859609412364
-0.003741460397920466,0.009666600282676035
-0.003741290397920467,0.009205810474113073
-0.003741120397920466,0.009600773167166921
-0.003740950397920466,0.00983116807144882
-0.003740780397920467,0.009666600282676335
-0.003740610397920466,0.009600773167166921
-0.003740440397920466,0.00950203249390325
-0.003740270397920467,0.00960077316716674
-0.003740100397920466,0.009567859609412364
-0.003739930397920466,0.009600773167166921
-0.003739760397920467,0.009271637589621948
-0.003739590397920466,0.009469118936148692
-0.003739420397920466,0.00950203249390325
-0.003739250397920466,0.009864081629202718
-0.003739080397920466,0.01019321720674895
-0.003738910397920466,0.01019321720674895
-0.003738740397920466,0.009995735860221965
-0.003738570397920466,0.009896995186957936
-0.003738400397920466,0.01032487143776718
-0.003738230397920466,0.009929908744713211
-0.003738060397920466,0.009666600282676035
-0.003737890397920466,0.009995735860221606
-0.003737720397920466,0.0100615629757306
-0.003737550397920466,0.009929908744712493
-0.003737380397920466,0.01065400701531275
-0.003737210397920466,0.01048943922653996
-0.003737040397920466,0.01048943922653996
-0.003736870397920466,0.0116085001901949
-0.003736700397920466,0.01035778499552173
-0.003736530397920466,0.01065400701531275
-0.003736360397920466,0.01029195788001262
-0.003736190397920466,0.01055526634204908
-0.003736020397920466,0.01025904432225824
-0.003735850397920466,0.01035778499552173
-0.003735680397920466,0.01091731547734921
-0.003735510397920466,0.01012739009123965
-0.003735340397920466,0.01002864941797616
-0.003735170397920466,0.009798254513694264
-0.003735000397920466,0.0103248714377658
-0.003734830397920466,0.009567859609412364
-0.003734660397920466,0.009600773167166921
-0.003734490397920466,0.009732427398184671
-0.003734320397920466,0.009469118936148692
-0.003734150397920466,0.009271637589621349
-0.003733980397920466,0.009534946051658347
-0.003733810397920466,0.00983116807144882
-0.003733640397920466,0.00973242739818515
-0.003733470397920466,0.01009447653348444
-0.003733300397920466,0.009633686724921478
-0.003733130397920466,0.009995735860221606
-0.003732960397920466,0.0093703782628858
-0.003732790397920466,0.009798254513694264
-0.003732620397920466,0.009567859609412364
-0.003732450397920466,0.009962822302466989
-0.003732280397920466,0.009929908744712493
-0.003732110397920466,0.009896995186957936
-0.003731940397920466,0.01019321720674859
-0.003731770397920466,0.009995735860221606
-0.003731600397920466,0.009929908744712493
-0.003731430397920467,0.009831168071449001
-0.003731260397920466,0.009765340955939707
-0.003731090397920466,0.01012739009123984
-0.003730920397920467,0.01009447653348534
-0.003730750397920466,0.009929908744712493
-0.003730580397920466,0.009567859609412364
-0.003730410397920467,0.009831168071448342
-0.003730240397920466,0.009765340955939707
-0.003730070397920466,0.009962822302467049
-0.003729900397920467,0.00973242739818557
-0.003729730397920466,0.009633686724921478
-0.003729560397920466,0.009995735860221606
-0.003729390397920467,0.00996282230246711
-0.003729220397920466,0.009962822302467049
-0.003729050397920466,0.009534946051657807
-0.003728880397920466,0.009337464705130824
-0.003728710397920466,0.00950203249390325
-0.003728540397920466,0.009403291820639578
-0.003728370397920466,0.009600773167166562
-0.003728200397920466,0.00950203249390325
-0.003728030397920466,0.009995735860221606
-0.003727860397920466,0.009633686724922137
-0.003727690397920466,0.01002864941797616
-0.003727520397920466,0.01002864941797616
-0.003727350397920466,0.01220094422977298
-0.003727180397920466,0.009864081629203377
-0.003727010397920466,0.009403291820639578
-0.003726840397920466,0.009666600282676035
-0.003726670397920466,0.009074156243094007
-0.003726500397920466,0.008975415569830336
-0.003726330397920466,0.008613366434530208
-0.003726160397920466,0.008843761338812107
-0.003725990397920466,0.008777934223302994
-0.003725820397920466,0.008481712203511979
-0.003725650397920466,0.008745020665548437
-0.003725480397920466,0.00904124268533945
-0.003725310397920466,0.009304551147375908
-0.003725140397920466,0.009370378262886099
-0.003724970397920466,0.009962822302467049
-0.003724800397920466,0.01019321720674895
-0.003724630397920466,0.01009447653348534
-0.003724460397920466,0.01012739009123984
-0.003724290397920466,0.00983116807144882
-0.003724120397920466,0.009831168071449658
-0.003723950397920466,0.01029195788001262
-0.003723780397920466,0.01019321720674895
-0.003723610397920466,0.01025904432225794
-0.003723440397920466,0.01019321720674895
-0.003723270397920466,0.009995735860221606
-0.003723100397920466,0.01025904432225824
-0.003722930397920466,0.01035778499552173
-0.003722760397920466,0.01045652566878541
-0.003722590397920466,0.01045652566878517
-0.003722420397920466,0.01032487143776718
-0.003722250397920466,0.01039069855327629
-0.003722080397920466,0.01025904432225806
-0.003721910397920466,0.01025904432225806
-0.003721740397920466,0.01022613076450351
-0.003721570397920466,0.009469118936148812
-0.003721400397920466,0.009534946051657807
-0.003721230397920466,0.009436205378394135
-0.003721060397920466,0.009831168071449299
-0.003720890397920466,0.01009447653348528
-0.003720720397920466,0.009896995186957936
-0.003720550397920467,0.01006156297573042
-0.003720380397920466,0.00983116807144882
-0.003720210397920466,0.00983116807144882
-0.003720040397920467,0.009534946051658347
-0.003719870397920466,0.00950203249390325
-0.003719700397920466,0.00973242739818515
-0.003719530397920467,0.01006156297573012
