Analysis/New Tests_CMB/wrd01_d2s01/cmb06_ch34.csv

#Digilent WaveForms Oscilloscope Acquisition
#Device Name: ADP3450
#Serial Number: SN:210018B9D9B0
#Date Time: 2024-06-21 15:45:48.069.842.780
#Sample rate: 2.5e+07Hz
#Samples: 32768
#Trigger: Source: Channel 3 Type: Edge Condition: Rising Level: 200 mV Hyst.: Auto HoldOff: 0 s
#Channel 1: Range: 100 mV/div Offset: -370 mV Attenuation: 1 X Coupling: DC Bandwidth: 0 Hz Sample Mode: Average
#Channel 3: Range: 100 mV/div Offset: 0 V Attenuation: 1 X Coupling: DC Bandwidth: 0 Hz Sample Mode: Average

Time (s),Channel 1 (V),Channel 3 (V)
-0.0006553319587628866,0.0006950353492422012,-0.01399824774285052
-0.0006552919587628866,0.000760672480672242,-0.01393242062734141
-0.0006552519587628865,0.0006950353492424997,-0.0134058037032682
-0.0006552119587628865,0.0008591281778173032,-0.01324123591449571
-0.0006551719587628865,0.0007934910463872624,-0.01360328504979584
-0.0006551319587628866,7.148260065692469e-05,-0.01330706303000483
-0.0006550919587628866,0.00059657965209714,-0.01278044610593191
-0.0006550519587628866,0.00059657965209714,-0.01231965629736895
-0.0006550119587628865,0.0004981239549529701,-0.01264879187491284
-0.0006549719587628865,0.0009575838749623089,-0.01218800206634988
-0.0006549319587628866,3.866403494190429e-05,-0.01159555802676786
-0.0006548919587628866,0.0004324868235220936,-0.01192469360431343
-0.0006548519587628866,0.0002027568635174242,-0.01185886648880443
-0.0006548119587628865,0.0007606724806714063,-0.01152973091125802
-0.0006547719587628865,0.0003012125606620675,-0.01113476821820406
-0.0006547319587628866,0.0004324868235220936,-0.01278044610593191
-0.0006546919587628866,-0.0003223401879232091,-0.009785312350267215
-0.0006546519587628866,0.001056039572104863,-0.01241839697062699
-0.0006546119587628865,0.001154495269251596,-0.01037775638985122
-0.0006545719587628865,0.0006950353492422012,-0.01146390379574963
-0.0006545319587628865,-0.0002895216222081887,-0.01231965629736811
-0.0006544919587628866,0.0007278539149572216,-0.01057523773637659
-0.0006544519587628866,0.0001699382978019859,-0.01129933600697684
-0.0006544119587628865,0.0003996682578076104,-0.01136516312248464
-0.0006543719587628865,0.0006950353492422012,-0.0106410648518857
-0.0006543319587628865,0.0005637610863821751,-0.0111018546604495
-0.0006542919587628866,0.00059657965209714,-0.01090437331392216
-0.0006542519587628866,0.0003996682578070732,-0.01037775638984924
-0.0006542119587628866,0.0005637610863818767,-0.0109043733139212
-0.0006541719587628865,0.0004981239549521344,-0.01057523773637659
-0.0006541319587628865,0.0004981239549521344,-0.01077271908290393
-0.0006540919587628866,0.0003340311263770324,-0.01080563264065849
-0.0006540519587628866,0.0003668496920920528,-0.01050941062086747
-0.0006540119587628866,0.0003996682578070135,-0.01106894110269392
-0.0006539719587628865,0.0007934910463875609,-0.01146390379574849
-0.0006539319587628865,0.0009575838749623089,-0.01083854619841304
-0.0006538919587628866,0.0009247653092472885,-0.01031192927434013
-0.0006538519587628866,0.0009904024406773293,-0.01047649706311291
-0.0006538119587628866,0.000859128177817542,-0.01083854619841238
-0.0006537719587628865,0.0007934910463875012,-0.01077271908290309
-0.0006537319587628865,0.0009247653092472885,-0.01031192927434013
-0.0006536919587628865,0.0009575838749623089,-0.01080563264065849
-0.0006536519587628866,0.0006950353492422012,-0.01090437331392216
-0.0006536119587628866,0.0004981239549524926,-0.01027901571658671
-0.0006535719587628865,0.001056039572106654,-0.01041066994760338
-0.0006535319587628865,0.0006622167835271808,-0.0101802750433219
-0.0006534919587628865,0.0009575838749623089,-0.01050941062086747
-0.0006534519587628866,0.00108885813782239,-0.01047649706311291
-0.0006534119587628866,0.001252950966397437,-0.009949880139040001
-0.0006533719587628866,0.000530942520668468,-0.01011444792781249
-0.0006533319587628865,0.0008919467435322681,-0.01021318860107646
-0.0006532919587628865,0.0008919467435322681,-0.01027901571658557
-0.0006532519587628866,0.0001699382978019859,-0.009785312350267215
-0.0006532119587628866,0.0008919467435322681,-0.0106410648518857
-0.0006531719587628866,0.0006950353492425594,-0.00968657167700528
-0.0006531319587628865,0.0003012125606633211,-0.009719485234757682
-0.0006530919587628865,0.0009904024406773293,-0.009489090330476201
-0.0006530519587628866,0.0008591281778173032,-0.009423263214967087
-0.0006530119587628866,0.0004981239549521344,-0.009192868310685188
-0.0006529719587628866,0.0007934910463867251,-0.009949880139038624
-0.0006529319587628865,0.0007606724806713466,-0.009192868310683571
-0.0006528919587628865,0.0002683939949470471,-0.008304202251312145
-0.0006528519587628865,0.001121676703537411,-0.01008153437005823
-0.0006528119587628866,0.0004981239549521344,-0.008238375135803031
-0.0006527719587628866,0.000530942520667095,-0.009291608983946943
-0.0006527319587628865,0.0009904024406764936,-0.009159954752929434
-0.0006526919587628865,0.0005309425206671547,-0.008501683597839487
-0.0006526519587628865,0.0009247653092472885,-0.009127041195176074
-0.0006526119587628866,0.0009575838749623089,-0.00860042427110316
-0.0006525719587628866,0.00108885813782239,-0.008040893789275689
-0.0006525319587628866,0.0009904024406775084,-0.008139634462539179
-0.0006524919587628865,0.0005309425206671547,-0.007711758211730118
-0.0006524519587628865,0.00102322100639235,-0.008337115809066702
-0.0006524119587628866,0.0009575838749623089,-0.007711758211730118
-0.0006523719587628866,0.0006950353492422012,-0.007250968403166318
-0.0006523319587628866,0.001088858137821674,-0.007316795518675313
-0.0006522919587628865,0.0004324868235234666,-0.006921832825621645
-0.0006522519587628865,0.001187313834967396,-0.007415536191939104
-0.0006522119587628866,0.00105603957210737,-0.007053487056638975
-0.0006521719587628866,0.00102322100639235,-0.006625610805829733
-0.0006521319587628866,0.0005309425206680502,-0.006757265036847722
-0.0006520919587628865,0.0008919467435322084,-0.006263561670530383
-0.0006520519587628865,0.0008591281778173032,-0.006691437921338847
-0.0006520119587628865,0.0007278539149572216,-0.006592697248075176
-0.0006519719587628866,0.0009247653092472885,-0.006395215901547833
-0.0006519319587628866,0.0006293982178126978,-0.006362302343793336
-0.0006518919587628865,0.0006622167835275987,-0.006329388786038
-0.0006518519587628865,0.0008919467435322681,-0.005934426092984033
-0.0006518119587628865,0.0001699382978019859,-0.00619773455502049
-0.0006517719587628866,0.0008263096121022828,-0.006066080324002262
-0.0006517319587628866,0.0003996682578070732,-0.005539463399929348
-0.0006516919587628865,0.0003012125606615899,-0.005868598977474142
-0.0006516519587628865,3.866403494190429e-05,-0.005440722726665677
-0.0006516119587628865,0.0003996682578070732,-0.005539463399929348
-0.0006515719587628866,0.0009575838749623089,-0.005835685419720362
-0.0006515319587628866,0.000465305389237114,-0.005506549842174791
-0.0006514919587628866,0.0004324868235221532,-0.004947019360348338
-0.0006514519587628865,0.0001699382978024634,-0.00544072272666406
-0.0006514119587628865,0.0004324868235220936,-0.004552056667292635
-0.0006513719587628866,0.0003996682578070732,-0.004650797340556306
-0.0006513319587628866,0.0004324868235220936,-0.005210327822383777
-0.0006512919587628866,0.0003340311263772115,-0.004979932918102297
-0.0006512519587628865,0.0003340311263773905,-0.004782451571574176
-0.0006512119587628865,0.0005309425206671547,-0.004584970225047193
-0.0006511719587628866,0.000760672480672242,-0.004453315994028964
-0.0006511319587628866,0.0008919467435322681,-0.00438748887851985
-0.0006510919587628866,0.000859128177817363,-0.004683710898310325
-0.0006510519587628865,0.0009904024406778068,-0.004222921089746885
-0.0006510119587628865,0.001252950966397437,-0.004124180416483393
-0.0006509719587628865,0.0007934910463872624,-0.003893785512201493
-0.0006509319587628866,0.0008919467435322681,-0.003663390607919593
-0.0006508919587628866,0.00102322100639235,-0.00369630416567415
-0.0006508519587628865,0.00144986236068744,-0.004025439743219303
-0.0006508119587628865,0.001384225229257519,-0.003795044838937822
-0.0006507719587628865,0.0008591281778173032,-0.003202600799355794
-0.0006507319587628866,0.0009247653092472885,-0.003400082145883136
-0.0006506919587628866,0.00105603957210737,-0.003630477050165036
-0.0006506519587628866,0.00105603957210737,-0.002445588971003136
-0.0006506119587628865,0.001220132400682417,-0.00369630416567415
-0.0006505719587628865,0.001187313834967396,-0.003038033010583008
-0.0006505319587628866,0.0006950353492422012,-0.003038033010583008
-0.0006504919587628866,0.00102322100639235,-0.003268427914864908
-0.0006504519587628866,0.0006950353492427982,-0.003301341472619405
-0.0006504119587628865,0.001220132400681879,-0.002807638106300809
-0.0006503719587628865,0.0009247653092472885,-0.002643070317528323
-0.0006503319587628866,0.00059657965209714,-0.002939292337319337
-0.0006502919587628866,0.0007278539149572216,-0.002972205895073894
-0.0006502519587628866,0.0003668496920927094,-0.002445588971001938
-0.0006502119587628865,0.0004981239549529701,-0.00254432964426525
-0.0006501719587628865,0.0009575838749623089,-0.002873465221810222
-0.0006501319587628865,0.0009247653092472885,-0.002511416086510094
-0.0006500919587628866,0.00108885813782239,-0.002313934739982752
-0.0006500519587628866,0.001023221006392469,-0.003367168588126664
-0.0006500119587628865,0.001023221006393484,-0.002050626277947672
-0.0006499719587628865,0.001646773754977626,-0.002807638106301108
-0.0006499319587628865,0.001154495269252431,-0.003531736376901365
-0.0006498919587628866,0.001318588097827478,-0.002840551664055666
-0.0006498519587628866,0.001482680926402524,-0.004354575320765292
-0.0006498119587628866,0.001154495269253028,-0.003038033010585403
-0.0006497719587628865,0.001384225229257519,-0.002708897433037437
-0.0006497319587628865,0.001285769532112457,-0.003103860126092122
-0.0006496919587628866,0.000465305389237114,-0.002313934739982752
-0.0006496519587628866,0.001843685149267693,-0.003038033010583008
-0.0006496119587628866,0.001515499492118142,-0.003103860126092003
-0.0006495719587628865,0.0009247653092486615,-0.002972205895074014
-0.0006495319587628865,0.001679592320692647,-0.003038033010583008
-0.0006494919587628866,0.0005309425206671547,-0.002972205895073894
-0.0006494519587628866,0.0007278539149572216,-0.002807638106301108
-0.0006494119587628866,0.001088858137821734,-0.002577243202019627
-0.0006493719587628865,0.001088858137822211,-0.002906378779563822
-0.0006493319587628865,0.0009904024406773293,-0.002379761855491866
-0.0006492919587628865,0.0009904024406773293,-0.002741810990791994
-0.0006492519587628866,0.001220132400682417,-0.00244558897100098
-0.0006492119587628866,0.000629398217813235,-0.003169687241599919
-0.0006491719587628865,0.00138422522925716,-0.00280763810630039
-0.0006491319587628865,0.001187313834967396,-0.002412675413246423
-0.0006490919587628865,0.0008919467435322681,-0.002741810990791994
-0.0006490519587628866,0.001318588097827478,-0.003070946568337565
-0.0006490119587628866,0.001449862360687559,-0.002511416086510094
-0.0006489719587628865,0.0003340311263788232,-0.002741810990791516
-0.0006489319587628865,0.001318588097827478,-0.002478502528755537
-0.0006488919587628865,0.00105603957210737,-0.002807638106301108
-0.0006488519587628866,0.001220132400682417,-0.002741810990791994
-0.0006488119587628866,0.001252950966397437,-0.001984799162437181
-0.0006487719587628866,0.0005637610863834288,-0.002675983875281623
-0.0006487319587628865,0.000859128177817363,-0.003432995703636795
-0.0006486919587628865,0.0008919467435322681,-0.002939292337319337
-0.0006486519587628866,0.0009575838749623089,-0.002972205895073894
-0.0006486119587628866,0.00108885813782239,-0.003235514357110351
-0.0006485719587628866,0.0005637610863831303,-0.002840551664056384
-0.0006485319587628865,0.0006950353492421415,-0.002215194066719021
-0.0006484919587628865,0.0006622167835271808,-0.002182280508964523
-0.0006484519587628865,0.0005637610863821751,-0.003169687241601236
-0.0006484119587628866,0.001745229452122632,-0.002643070317528323
-0.0006483719587628866,0.0005309425206693635,-0.001951885604683881
-0.0006483319587628865,0.0008919467435319696,-0.002248107624472141
-0.0006482919587628865,0.0007278539149572216,-0.00142526868060971
-0.0006482519587628865,0.0008263096121022828,-0.002708897433037437
-0.0006482119587628866,0.000760672480672242,-0.002017712720191738
-0.0006481719587628866,0.001515499492117545,-0.001392355122855153
-0.0006481319587628865,0.0004324868235234666,-0.002313934739978801
-0.0006480919587628865,0.001187313834967396,-0.0001416399281819828
-0.0006480519587628865,0.0009904024406773293,-0.002149366951209966
-0.0006480119587628866,0.0007278539149572216,-0.002215194066719081
-0.0006479719587628866,0.0008263096121022828,-0.0003391212747093254
-0.0006479319587628866,0.0004653053892377706,-0.002017712720188684
-0.0006478919587628865,0.000859128177817363,-0.0005695161789910456
-0.0006478519587628865,0.0008919467435322681,-0.0004707755057275538
-0.0006478119587628866,0.0003340311263770324,-0.00165566358489161
-0.0006477719587628866,0.00059657965209714,-0.001096133103064139
-0.0006477319587628866,0.0003668496920924706,-0.001392355122854614
-0.0006476919587628865,0.0006293982178117426,-0.0004049483902193377
-0.0006476519587628865,0.0003996682578070732,-0.0008986517565367963
-0.0006476119587628866,0.0007278539149572216,-0.001129046660818696
-0.0006475719587628866,0.0007934910463872624,-0.0006024297367457822
-0.0006475319587628866,0.0003012125606629629,-0.001129046660817738
-0.0006474919587628865,0.0006622167835268823,-0.0001745534859365399
-0.0006474519587628865,0.0004981239549521344,-0.0001745534859365399
-0.0006474119587628865,0.001187313834967396,-0.0003720348324638825
-0.0006473719587628866,0.0006950353492422012,-0.0002403806014456541
-0.0006473319587628866,0.0008919467435322681,0.0007470261311910591
-0.0006472919587628865,0.0006950353492423803,0.000549544784663956
-0.0006472519587628865,0.0007934910463872624,0.0006811990156819448
-0.0006472119587628865,0.0009904024406773293,0.0006153719001728307
-0.0006471719587628866,0.00059657965209714,0.0006153719001728307
-0.0006471319587628866,0.0003012125606620675,0.001273643055263973
-0.0006470919587628866,0.000793491046386367,0.001076161708736989
-0.0006470519587628865,0.0009247653092472885,0.001668605748318658
-0.0006470119587628865,0.0009904024406773293,0.001866087094846001
-0.0006469719587628866,0.0006293982178121604,0.001964827768109672
-0.0006469319587628866,0.0006293982178121604,0.001569865075054987
-0.0006468919587628866,0.0006293982178121604,0.002524358249935407
-0.0006468519587628865,0.0009247653092462737,0.002228136230147446
-0.0006468119587628865,0.0003668496920920528,0.002952234500746385
-0.0006467719587628866,0.0009904024406773293,0.002886407385237271
-0.0006467319587628866,0.0004981239549521344,0.002458531134428029
-0.0006466919587628866,0.0009904024406764337,0.003248456520535963
-0.0006466519587628865,0.0008263096121023426,0.002853493827483193
-0.0006466119587628865,0.0008591281778173032,0.003116802289519171
-0.0006465719587628865,0.0006293982178121604,0.003347197193801071
-0.0006465319587628866,0.0003996682578070732,0.003478851424819299
-0.0006464919587628866,0.0003012125606622466,0.003018061616256338
-0.0006464519587628865,0.0005965796520974385,0.003939641233382739
-0.0006464119587628865,0.000760672480672242,0.003742159886855756
-0.0006463719587628865,0.0005309425206671547,0.003840900560119427
-0.0006463319587628866,0.0007934910463872624,0.003248456520537399
-0.0006462919587628866,0.00102322100639235,0.0030180616162555
-0.0006462519587628866,0.000727853914957759,0.003906727675626925
-0.0006462119587628865,0.000760672480672242,0.003643419213592085
-0.0006461719587628865,0.00059657965209714,0.00380798700236487
-0.0006461319587628866,0.0007278539149572216,0.004137122579910441
-0.0006460919587628866,0.0006622167835271808,0.003314283636046514
-0.0006460519587628866,0.000859128177816945,0.004038381906645452
-0.0006460119587628865,0.001351406663540827,0.004334603926436706
-0.0006459719587628865,0.0004324868235220936,0.003742159886855756
-0.0006459319587628866,0.001252950966397437,0.004959961523774369
-0.0006458919587628866,0.0005309425206671547,0.004762480177247026
-0.0006458519587628866,0.001154495269251297,0.003939641233384595
-0.0006458119587628865,0.0006622167835273002,0.005157442870300274
-0.0006457719587628865,0.0007278539149572216,0.004367517484192341
-0.0006457319587628865,0.0006622167835271808,0.00426877681092867
-0.0006456919587628866,0.001121676703537411,0.00482830729275614
-0.0006456519587628866,0.0006293982178130559,0.004038381906648207
-0.0006456119587628865,0.000596579652098334,0.004729566619493067
-0.0006455719587628865,0.001252950966397437,0.00505870219703804
-0.0006455319587628865,0.00102322100639235,0.004630825946228797
-0.0006454919587628866,0.0009247653092472885,0.004499171715210569
-0.0006454519587628866,0.0009247653092472885,0.004729566619492469
-0.0006454119587628865,0.0007606724806727792,0.005289097101318982
-0.0006453719587628865,0.00105603957210737,0.004762480177247026
-0.0006453319587628865,0.00108885813782239,0.005387837774583611
-0.0006452919587628866,7.148260065692469e-05,0.007099342777820581
-0.0006452519587628866,-0.0002567030564932238,0.001504037959545873
-0.0006452119587628866,0.0007606724806703915,0.007362651239846382
-0.0006451719587628865,0.00184368514926632,0.005716973352127206
-0.0006451319587628865,0.00108885813782239,0.004630825946228797
-0.0006450919587628866,0.0009247653092472885,0.00574988690988374
-0.0006450519587628866,0.0008263096121022828,0.005354924216829054
-0.0006450119587628866,0.0007278539149574007,0.005486578447847043
-0.0006449719587628865,0.001056039572106475,0.005256183543565084
-0.0006449319587628865,0.0005637610863821751,0.005091615754792597
-0.0006448919587628865,0.0006293982178121604,0.005618232678865511
-0.0006448519587628866,0.0004324868235220936,0.005124529312547154
-0.0006448119587628866,0.0006293982178118022,0.005519492005601121
-0.0006447719587628865,0.0007606724806717644,0.005354924216828276
-0.0006447319587628865,0.0004981239549521344,0.004927047966019811
-0.0006446919587628865,-0.000191065925063183,0.006013195371920196
-0.0006446519587628866,0.0007934910463872624,0.005585319121110954
-0.0006446119587628866,0.0005309425206671547,0.005256183543565383
-0.0006445719587628865,0.001417043794971345,0.005749886909881644
-0.0006445319587628865,0.000760672480672242,0.004597912388474241
-0.0006444919587628865,0.001154495269252431,0.005223269985810825
-0.0006444519587628866,0.0005309425206671547,0.005618232678865511
-0.0006444119587628866,0.0007278539149572216,0.005453664890092726
-0.0006443719587628866,0.0007278539149572216,0.005354924216829234
-0.0006443319587628865,0.00092476530924699,0.005980281814164502
-0.0006442919587628865,0.000760672480672242,0.005354924216829054
-0.0006442519587628866,0.0007934910463872624,0.005519492005601839
-0.0006442119587628866,0.001252950966397437,0.005486578447847282
-0.0006441719587628866,0.0001371197320889951,0.005453664890092785
-0.0006441319587628865,0.0004653053892374124,0.005684059794374625
-0.0006440919587628865,0.0006293982178121604,0.005684059794374625
-0.0006440519587628866,0.001154495269252431,0.005223269985810825
-0.0006440119587628866,0.0006950353492422012,0.005486578447847282
-0.0006439719587628866,0.000990402440676792,0.005223269985811304
-0.0006439319587628865,0.0004653053892364573,0.005223269985811484
-0.0006438919587628865,0.0001043011663719451,0.005585319121110954
-0.0006438519587628865,0.0009247653092472885,0.005914454698656525
-0.0006438119587628866,0.0003996682578070732,0.005124529312547154
-0.0006437719587628866,0.000760672480672242,0.004992875081528926
-0.0006437319587628865,0.0004324868235214966,0.005519492005601899
-0.0006436919587628865,0.0001043011663719451,0.005552405563356397
-0.0006436519587628865,0.0004324868235220936,0.005651146236620068
-0.0006436119587628866,0.0008591281778173032,0.005387837774583611
