Analysis/New Tests_CMB/wrd01_d2s01/cmb07_ch44.csv

#Digilent WaveForms Oscilloscope Acquisition
#Device Name: ADP3450
#Serial Number: SN:210018B9D9B0
#Date Time: 2024-08-15 12:39:06.559.248.530
#Sample rate: 5.88235e+06Hz
#Samples: 32768
#Trigger: Source: Channel 3 Type: Edge Condition: Rising Level: 40 mV Hyst.: Auto HoldOff: 0 s
#Channel 3: Range: 100 mV/div Offset: 0 V Attenuation: 1 X Coupling: DC Bandwidth: 0 Hz Sample Mode: Average

Time (s),Channel 3 (V)
-0.003168884244646319,0.02302950473102622
-0.003168714244646318,0.0228320233845002
-0.003168544244646319,0.02319407251979864
-0.003168374244646319,0.02309533184653641
-0.003168204244646319,0.02368777588611736
-0.003168034244646319,0.02368777588611736
-0.003167864244646319,0.02401691146366293
-0.003167694244646318,0.02395108434815346
-0.003167524244646319,0.02385234367488775
-0.003167354244646319,0.02319407251979859
-0.003167184244646319,0.02296367761551788
-0.003167014244646319,0.02339155386632635
-0.003166844244646319,0.02368777588611736
-0.003166674244646318,0.02342446742407959
-0.003166504244646319,0.02306241828877862
-0.003166334244646319,0.02246997424919809
-0.003166164244646319,0.02210792511389754
-0.003165994244646319,0.02151548107431659
-0.003165824244646319,0.02151548107431659
-0.003165654244646318,0.02121925905452546
-0.003165484244646318,0.02118634549677018
-0.003165314244646319,0.02095595059248972
-0.003165144244646319,0.02128508617003505
-0.003164974244646319,0.02148256751656204
-0.003164804244646319,0.0210546912657528
-0.003164634244646319,0.02075846924596232
-0.003164464244646318,0.02072555568820495
-0.003164294244646319,0.02010019809087136
-0.003164124244646319,0.02049516078392455
-0.003163954244646319,0.02006728453311608
-0.003163784244646319,0.01980397607107963
-0.003163614244646319,0.02000145741760661
-0.003163444244646318,0.01947484049353274
-0.003163274244646319,0.01911279135823309
-0.003163104244646319,0.01865200154966971
-0.003162934244646319,0.01842160664538823
-0.003162764244646319,0.01842160664538823
-0.003162594244646319,0.01822412529886125
-0.003162424244646318,0.01809247106784098
-0.003162254244646319,0.01763168125927886
-0.003162084244646319,0.01763168125927766
-0.003161914244646319,0.01697341010418771
-0.003161744244646319,0.0166771880843967
-0.003161574244646319,0.01641387962236072
-0.003161404244646318,0.01611765760256791
-0.003161234244646319,0.0157556084672694
-0.003161064244646319,0.01592017625604165
-0.003160894244646319,0.01578852202502366
-0.003160724244646319,0.01565686779400543
-0.003160554244646319,0.01578852202502366
-0.003160384244646318,0.01592017625604284
-0.003160214244646319,0.01618348471807882
-0.003160044244646319,0.01644679318011516
-0.003159874244646319,0.01664427452664214
-0.003159704244646319,0.01638096606460569
-0.003159534244646319,0.01677592875766037
-0.003159364244646318,0.01710506433520678
-0.003159194244646319,0.01733545923948808
-0.003159024244646319,0.01746711347050547
-0.003158854244646319,0.01713797789296247
-0.003158684244646319,0.01822412529886088
-0.003158514244646319,0.01730254568173328
-0.003158344244646318,0.01730254568173089
-0.003158174244646319,0.01664427452664142
-0.003158004244646319,0.01624931183358674
-0.003157834244646319,0.01585434914053343
-0.003157664244646319,0.0162163982758329
-0.003157494244646319,0.01513025086993251
-0.003157324244646318,0.01513025086993012
-0.003157154244646319,0.01447197971484113
-0.003156984244646319,0.01440615259933064
-0.003156814244646319,0.01351748653995928
-0.003156644244646319,0.01355040009771377
-0.003156474244646319,0.01256299336507706
-0.003156304244646318,0.01256299336507634
-0.003156134244646319,0.01236551201854828
-0.003155964244646319,0.01197054932549425
-0.003155794244646319,0.01154267307468537
-0.003155624244646319,0.01131227817040389
-0.003155454244646319,0.01104896970836743
-0.003155284244646318,0.01088440191959561
-0.003155114244646318,0.01114771038163122
-0.003154944244646319,0.0111806239393859
-0.003154774244646319,0.01131227817040425
-0.003154604244646319,0.01150975951693123
-0.003154434244646319,0.01157558663244035
-0.003154264244646319,0.01137810528591336
-0.003154094244646318,0.01157558663243939
-0.003153924244646319,0.01131227817040473
-0.003153754244646319,0.01177306797896775
-0.003153584244646319,0.01180598153672225
-0.003153414244646319,0.01210220355651326
-0.003153244244646319,0.01229968490304024
-0.003153074244646318,0.01276047471160452
-0.003152904244646319,0.01279338826935902
-0.003152734244646319,0.0128263018271134
-0.003152564244646319,0.0127604747116044
-0.003152394244646319,0.01341874586669555
-0.003152224244646319,0.01371496788648602
-0.003152054244646318,0.01410993057954148
-0.003151884244646319,0.01417575769505102
-0.003151714244646319,0.01453780683035031
-0.003151544244646319,0.01443906615708682
-0.003151374244646319,0.01404410346403213
-0.003151204244646319,0.01394536279076864
-0.003151034244646318,0.0132870916356754
-0.003150864244646319,0.0127604747116041
-0.003150694244646319,0.01259590692283168
-0.003150524244646319,0.01262882048058617
-0.003150354244646319,0.01210220355651326
-0.003150184244646319,0.01236551201854972
-0.003150014244646318,0.01233259846079504
-0.003149844244646319,0.01229968490304048
-0.003149674244646319,0.01223385778753263
-0.003149504244646319,0.01285921538486808
-0.003149334244646319,0.01239842557630427
-0.003149164244646319,0.01295795605813175
-0.003148994244646318,0.01279338826936052
-0.003148824244646319,0.01322126452016964
-0.003148654244646319,0.01401118990627656
-0.003148484244646319,0.01345165942444992
-0.003148314244646319,0.01335291875118643
-0.003148144244646319,0.01420867125280492
-0.003147974244646318,0.01397827634852086
-0.003147804244646319,0.01338583230894165
-0.003147634244646319,0.01374788144424064
-0.003147464244646319,0.013484572982204
-0.003147294244646319,0.01312252384690453
-0.003147124244646319,0.01295795605813175
-0.003146954244646318,0.0125959069228321
-0.003146784244646319,0.01272756115385068
-0.003146614244646319,0.01295795605813163
-0.003146444244646319,0.01289212894262221
-0.003146274244646319,0.01266173403834073
-0.003146104244646319,0.01256299336507706
-0.003145934244646318,0.01269464759609302
-0.003145764244646319,0.01206928999875823
-0.003145594244646319,0.01193763576774078
-0.003145424244646319,0.01210220355651248
-0.003145254244646319,0.01167432730570402
-0.003145084244646319,0.0118388950944768
-0.003144914244646318,0.01206928999875763
-0.003144744244646318,0.01177306797896685
-0.003144574244646319,0.01154267307468537
-0.003144404244646319,0.01131227817040407
-0.003144234244646319,0.01141101884366756
-0.003144064244646319,0.01121353749714022
-0.003143894244646319,0.01131227817040371
-0.003143724244646318,0.01088440191959477
-0.003143554244646319,0.01091731547734897
-0.003143384244646319,0.01078566124633014
-0.003143214244646319,0.01032487143776718
-0.003143044244646319,0.01042361211103085
-0.003142874244646319,0.01042361211103085
-0.003142704244646318,0.01315543740464173
-0.003142534244646319,0.008382971530250223
-0.003142364244646319,0.00943620537839689
-0.003142194244646319,0.01095022903510376
-0.003142024244646319,0.01114771038163111
-0.003141854244646319,0.01134519172815809
-0.003141684244646318,0.01144393240142475
-0.003141514244646319,0.01216803067202238
-0.003141344244646319,0.01216803067202309
-0.003141174244646319,0.01256299336507706
-0.003141004244646319,0.01328709163567732
-0.003140834244646319,0.01328709163567732
-0.003140664244646318,0.01345165942445202
-0.003140494244646319,0.01397827634852248
-0.003140324244646319,0.01368205432873206
-0.003140154244646319,0.01371496788648656
-0.003139984244646319,0.01394536279076846
-0.003139814244646319,0.01378079500199567
-0.003139644244646318,0.01364914077097733
-0.003139474244646319,0.01361622721322277
-0.003139304244646319,0.01355040009771252
-0.003139134244646319,0.01285921538486808
-0.003138964244646319,0.01325417807792276
-0.003138794244646319,0.01259590692283162
-0.003138624244646318,0.01197054932549312
-0.003138454244646319,0.0114439324014208
-0.003138284244646319,0.01071983413082091
-0.003138114244646319,0.01019321720674805
-0.003137944244646319,0.009699513840430593
-0.003137774244646319,0.009534946051657807
-0.003137604244646318,0.009436205378394614
-0.003137434244646319,0.009567859609413441
-0.003137264244646319,0.01016030364899445
-0.003137094244646319,0.01019321720674931
-0.003136924244646319,0.01039069855327629
-0.003136754244646319,0.01101605615061288
-0.003136584244646318,0.01157558663244286
-0.003136414244646319,0.01226677134528641
-0.003136244244646319,0.01236551201854984
-0.003136074244646319,0.01243133913406051
-0.003135904244646319,0.01335291875118643
-0.003135734244646319,0.01361622721322289
-0.003135564244646318,0.01371496788648728
-0.003135394244646319,0.01391244923301294
-0.003135224244646319,0.01364914077097691
-0.003135054244646319,0.01335291875118703
-0.003134884244646319,0.013682054328732
-0.003134714244646319,0.01351748653995922
-0.003134544244646318,0.0132870916356772
-0.003134374244646318,0.01325417807792096
-0.003134204244646319,0.01276047471160374
-0.003134034244646319,0.01239842557630362
-0.003133864244646319,0.01203637644100415
-0.003133694244646319,0.01180598153672225
-0.003133524244646319,0.01127936461265029
-0.003133354244646318,0.01111479682387463
-0.003133184244646319,0.01058817989980304
-0.003133014244646319,0.01025904432225794
-0.003132844244646319,0.01019321720674895
-0.003132674244646319,0.01025904432225806
-0.003132504244646319,0.01025904432225806
-0.003132334244646318,0.01006156297573072
-0.003132164244646319,0.01006156297572982
-0.003131994244646319,0.009567859609412364
-0.003131824244646319,0.009567859609412364
-0.003131654244646319,0.009074156243094007
-0.003131484244646319,0.009172896916357498
-0.003131314244646318,0.009502032493901934
-0.003131144244646319,0.009139983358603361
-0.003130974244646319,0.009271637589621589
-0.003130804244646319,0.009403291820639578
-0.003130634244646319,0.009205810474112236
-0.003130464244646319,0.01019321720674715
-0.003130294244646318,0.009633686724923752
-0.003130124244646319,0.01025904432225866
-0.003129954244646319,0.01058817989980519
-0.003129784244646319,0.01144393240142212
-0.003129614244646319,0.01111479682387655
-0.003129444244646319,0.01131227817040353
-0.003129274244646318,0.01137810528591468
-0.003129104244646319,0.01183889509447752
-0.003128934244646319,0.01223385778753179
-0.003128764244646319,0.01239842557630427
-0.003128594244646319,0.01262882048058617
-0.003128424244646319,0.01233259846079516
-0.003128254244646318,0.01292504250037755
-0.003128084244646319,0.0130237831736408
-0.003127914244646319,0.0129908696158875
-0.003127744244646319,0.01364914077097787
-0.003127574244646319,0.01387953567525935
-0.003127404244646319,0.01420867125280492
-0.003127234244646318,0.01453780683034941
-0.003127064244646319,0.01424158481055977
-0.003126894244646319,0.01440615259933262
-0.003126724244646319,0.01460363394586002
-0.003126554244646319,0.0148340288501415
-0.003126384244646319,0.01480111529238694
-0.003126214244646318,0.01420867125280504
-0.003126044244646319,0.01424158481055612
-0.003125874244646319,0.01332000519343128
-0.003125704244646319,0.012990869615886
-0.003125534244646319,0.01282630182711352
-0.003125364244646319,0.01256299336507706
-0.003125194244646318,0.01183889509447597
-0.003125024244646319,0.01160850019019335
-0.003124854244646319,0.01118062393938506
-0.003124684244646319,0.01085148836183913
-0.003124514244646319,0.01032487143776718
-0.003124344244646319,0.01025904432225806
-0.003124174244646318,0.009831168071447863
-0.003124004244646318,0.009567859609410569
-0.003123834244646319,0.009074156243092988
-0.003123664244646319,0.008514625761266657
-0.003123494244646319,0.008580452876775651
-0.003123324244646319,0.008481712203511979
-0.003123154244646319,0.008613366434529968
-0.003122984244646318,0.008086749510458131
-0.003122814244646319,0.008317144414739373
-0.003122644244646319,0.008415885088002626
-0.003122474244646319,0.008284230856984636
-0.003122304244646319,0.00811966306821185
-0.003122134244646319,0.008909588454319786
-0.003121964244646318,0.009107069800848924
-0.003121794244646319,0.009205810474113792
-0.003121624244646319,0.0100615629757291
-0.003121454244646319,0.009172896916357679
-0.003121284244646319,0.01058817989980363
-0.003121114244646319,0.01032487143776766
-0.003120944244646318,0.0107198341308221
-0.003120774244646319,0.01078566124633164
-0.003120604244646319,0.01114771038163188
-0.003120434244646319,0.01157558663244035
-0.003120264244646319,0.01124645105489478
-0.003120094244646319,0.01180598153672123
-0.003119924244646318,0.01233259846079624
-0.003119754244646319,0.01262882048058653
-0.003119584244646319,0.01282630182711412
-0.003119414244646319,0.01315543740465909
-0.003119244244646319,0.0132212645201682
-0.003119074244646319,0.01272756115385074
-0.003118904244646318,0.01289212894262191
-0.003118734244646319,0.01269464759609487
-0.003118564244646319,0.01246425269181297
-0.003118394244646319,0.01223385778753149
-0.003118224244646319,0.01249716624956795
-0.003118054244646319,0.01246425269181339
-0.003117884244646318,0.01229968490304276
-0.003117714244646319,0.01289212894262197
-0.003117544244646319,0.01253007980732256
-0.003117374244646319,0.01256299336507706
-0.003117204244646319,0.01262882048058617
-0.003117034244646319,0.01292504250037719
-0.003116864244646318,0.0127933882693598
-0.003116694244646319,0.01302378317364086
-0.003116524244646319,0.01302378317364206
-0.003116354244646319,0.01368205432873104
-0.003116184244646319,0.01315543740465909
-0.003116014244646319,0.01292504250037719
-0.003115844244646318,0.01239842557630511
-0.003115674244646319,0.01262882048058617
-0.003115504244646319,0.01262882048058713
-0.003115334244646319,0.01315543740465951
-0.003115164244646319,0.01338583230894099
-0.003114994244646319,0.01381370855975023
-0.003114824244646318,0.01361622721322349
-0.003114654244646319,0.01378079500199735
-0.003114484244646319,0.01424158481055971
-0.003114314244646319,0.01437323904157824
-0.003114144244646319,0.01466946106136872
-0.003113974244646319,0.01434032548382314
-0.003113804244646318,0.0147023746191216
-0.003113634244646319,0.01424158481055792
-0.003113464244646319,0.01381370855974891
-0.003113294244646319,0.0130896102891486
-0.003113124244646319,0.01233259846079516
-0.003112954244646319,0.01305669673139542
-0.003112784244646318,0.01118062393938913
-0.003112614244646318,0.01213511711426494
-0.003112444244646319,0.01134519172815839
-0.003112274244646319,0.01131227817040407
-0.003112104244646319,0.01141101884366756
-0.003111934244646319,0.01141101884366756
-0.003111764244646319,0.01164141374794904
-0.003111594244646318,0.01213511711426806
-0.003111424244646319,0.01220094422977747
-0.003111254244646319,0.01249716624956765
-0.003111084244646319,0.01233259846079516
-0.003110914244646319,0.01256299336507706
-0.003110744244646319,0.01253007980732256
-0.003110574244646318,0.01200346288324959
-0.003110404244646319,0.01200346288324881
-0.003110234244646319,0.01157558663243963
-0.003110064244646319,0.01118062393938566
-0.003109894244646319,0.01098314259285832
-0.003109724244646319,0.01055526634204986
-0.003109554244646318,0.01025904432225651
-0.003109384244646319,0.009831168071448161
-0.003109214244646319,0.009469118936148152
-0.003109044244646319,0.009172896916357679
-0.003108874244646319,0.00904124268533945
-0.003108704244646319,0.00894250201207596
-0.003108534244646318,0.009107069800849403
-0.003108364244646319,0.009337464705129866
-0.003108194244646319,0.009008329127585611
-0.003108024244646319,0.009403291820639578
-0.003107854244646319,0.009337464705130465
-0.003107684244646319,0.009205810474112236
-0.003107514244646318,0.009304551147377464
-0.003107344244646319,0.009732427398185211
-0.003107174244646319,0.009765340955940904
-0.003107004244646319,0.01042361211103085
-0.003106834244646319,0.01045652566878541
-0.003106664244646319,0.01065400701531275
-0.003106494244646318,0.01045652566878469
-0.003106324244646319,0.01025904432225878
-0.003106154244646319,0.01065400701531305
-0.003105984244646319,0.01081857480408553
-0.003105814244646319,0.01081857480408553
-0.003105644244646319,0.01124645105489478
-0.003105474244646318,0.01134519172815881
-0.003105304244646319,0.01144393240142272
-0.003105134244646319,0.01177306797896781
-0.003104964244646319,0.01183889509447752
-0.003104794244646319,0.01223385778753149
-0.003104624244646319,0.01193763576774048
-0.003104454244646318,0.01213511711427177
-0.003104284244646319,0.01322126452016497
-0.003104114244646319,0.0123325984607951
-0.003103944244646319,0.01229968490304096
-0.003103774244646319,0.01249716624956795
-0.003103604244646319,0.0125300798073225
-0.003103434244646318,0.01216803067202154
-0.003103264244646319,0.01193763576773928
-0.003103094244646319,0.01160850019019634
-0.003102924244646319,0.01239842557630421
-0.003102754244646319,0.01236551201854972
-0.003102584244646319,0.01312252384690453
-0.003102414244646318,0.01197054932549623
-0.003102244244646318,0.01229968490304013
-0.003102074244646319,0.01216803067202172
-0.003101904244646319,0.01180598153672237
-0.003101734244646319,0.01187180865223136
-0.003101564244646319,0.01197054932549503
-0.003101394244646319,0.01154267307468657
-0.003101224244646318,0.01134519172815701
-0.003101054244646319,0.01095022903510322
-0.003100884244646319,0.01065400701531167
-0.003100714244646319,0.01006156297573072
-0.003100544244646319,0.009798254513694264
-0.003100374244646319,0.009567859609412784
-0.003100204244646318,0.008876674896565826
-0.003100034244646319,0.008646279992284405
-0.003099864244646319,0.008448798645756943
-0.003099694244646319,0.008185490183720966
-0.003099524244646319,0.007955095279439066
-0.003099354244646319,0.01098314259285281
-0.003099184244646318,0.006342330949472712
-0.003099014244646319,0.008251317299232234
-0.003098844244646319,0.009436205378395452
-0.003098674244646319,0.01016030364899439
-0.003098504244646319,0.01058817989980363
-0.003098334244646319,0.01150975951692956
-0.003098164244646318,0.01262882048058773
-0.003097994244646319,0.01305669673139721
-0.003097824244646319,0.01404410346403321
-0.003097654244646319,0.01463654750361416
-0.003097484244646319,0.01453780683035049
-0.003097314244646319,0.01463654750361416
-0.003097144244646318,0.01489985596565062
-0.003096974244646319,0.01489985596565038
-0.003096804244646319,0.01476820173463173
-0.003096634244646319,0.01440615259933226
-0.003096464244646319,0.01407701702178669
-0.003096294244646319,0.01374788144424112
-0.003096124244646318,0.01203637644100702
-0.003095954244646319,0.01282630182711118
-0.003095784244646319,0.01154267307468477
-0.003095614244646319,0.01098314259285754
-0.003095444244646319,0.01055526634204908
-0.003095274244646319,0.01025904432225806
-0.003095104244646318,0.009567859609411047
-0.003094934244646319,0.00920581047411056
-0.003094764244646319,0.008284230856983738
-0.003094594244646319,0.007790527490665682
-0.003094424244646319,0.007461391913120709
-0.003094254244646319,0.006934774989047795
-0.003094084244646318,0.006704380084761346
-0.003093914244646319,0.00545366489009536
-0.003093744244646319,0.006177763160692323
-0.003093574244646319,0.005815714025392913
-0.003093404244646319,0.005848627583147411
-0.003093234244646319,0.005980281814165639
-0.003093064244646318,0.005618232678866828
-0.003092894244646319,0.005980281814164562
-0.003092724244646319,0.005684059794374685
-0.003092554244646319,0.005716973352130619
-0.003092384244646319,0.006506898738238553
-0.003092214244646319,0.007263910566593366
-0.003092044244646318,0.007625959701894093
-0.003091874244646318,0.007790527490668077
-0.003091704244646319,0.008284230856985176
-0.003091534244646319,0.00858045287677619
-0.003091364244646319,0.008876674896566664
-0.003091194244646319,0.008876674896566664
-0.003091024244646319,0.009304551147375129
-0.003090854244646318,0.00887667489656834
-0.003090684244646319,0.009337464705130704
-0.003090514244646319,0.009469118936148692
-0.003090344244646319,0.009469118936148692
-0.003090174244646319,0.009699513840430593
-0.003090004244646319,0.009995735860221067
