Analysis/New Tests_CMB/wrd01_d2s01/cmb06_ch02.csv

#Digilent WaveForms Oscilloscope Acquisition
#Device Name: ADP3450
#Serial Number: SN:210018B9D9B0
#Date Time: 2024-08-14 15:34:14.698.855.950
#Sample rate: 5.88235e+06Hz
#Samples: 32768
#Trigger: Source: Channel 3 Type: Edge Condition: Rising Level: 30 mV Hyst.: Auto HoldOff: 0 s
#Channel 3: Range: 100 mV/div Offset: 0 V Attenuation: 1 X Coupling: DC Bandwidth: 0 Hz Sample Mode: Average

Time (s),Channel 3 (V)
-0.003798527011863955,0.1426373736110867
-0.003798357011863955,0.1599828185477978
-0.003798187011863955,0.176340856751815
-0.003798017011863955,0.1933242525531307
-0.003797847011863955,0.20764165017636
-0.003797677011863955,0.220280456354087
-0.003797507011863955,0.232392645607764
-0.003797337011863955,0.2427275027427311
-0.003797167011863955,0.2526673971845985
-0.003796997011863955,0.2601716883526213
-0.003796827011863955,0.2662936100949662
-0.003796657011863955,0.2709015081805958
-0.003796487011863955,0.2739953826095242
-0.003796317011863955,0.275871455401535
-0.003796147011863955,0.2761676774213251
-0.003795977011863955,0.2762335045368317
-0.003795807011863955,0.2749498757844036
-0.003795637011863955,0.2734358521276967
-0.003795467011863955,0.2714610386624233
-0.003795297011863955,0.2680051150981853
-0.003795127011863955,0.2654049440355746
-0.003794957011863955,0.2626072916264412
-0.003794787011863955,0.2591842816199674
-0.003794617011863955,0.2558270987290086
-0.003794447011863955,0.2527003107423257
-0.003794277011863956,0.248882338042804
-0.003794107011863955,0.2455251551518201
-0.003793937011863955,0.2421679722608608
-0.003793767011863955,0.2385474809078594
-0.003793597011863955,0.2348282488816012
-0.003793427011863955,0.2310761032975817
-0.003793257011863956,0.227455611944587
-0.003793087011863955,0.2239996883803387
-0.003792917011863955,0.2203791970273445
-0.003792747011863955,0.2170220141363789
-0.003792577011863955,0.2132369549946117
-0.003792407011863955,0.2098797721036469
-0.003792237011863956,0.2073454281565506
-0.003792067011863955,0.2014539013184701
-0.003791897011863955,0.1986562489093363
-0.003791727011863955,0.1950028439985803
-0.003791557011863955,0.1912506984145676
-0.003791387011863955,0.1878276884080937
-0.003791217011863956,0.183943888593063
-0.003791047011863955,0.1805537921443222
-0.003790877011863955,0.1766041652137845
-0.003790707011863955,0.1737735992468918
-0.003790537011863955,0.1705151570291966
-0.003790367011863955,0.1680795537553594
-0.003790197011863955,0.1637349641317578
-0.003790027011863955,0.1612006201846466
-0.003789857011863955,0.1583700542177602
-0.003789687011863955,0.155704056039641
-0.003789517011863955,0.1530051443037722
-0.003789347011863955,0.1499112698748438
-0.003789177011863955,0.1470807039079519
-0.003789007011863955,0.1446780141918568
-0.003788837011863955,0.1412550041853911
-0.003788667011863955,0.1388852280270627
-0.003788497011863955,0.1364167111954708
-0.003788327011863955,0.13384945369062
-0.003788157011863955,0.1317100724365738
-0.003787987011863955,0.1293732098359914
-0.003787817011863955,0.1269376065621585
-0.003787647011863955,0.124469089730567
-0.003787477011863955,0.1221651406877488
-0.003787307011863955,0.1202561543379879
-0.003787137011863955,0.1176888968331325
-0.003786967011863955,0.1163065274074335
-0.003786797011863955,0.1142329732688968
-0.003786627011863955,0.1122581598036282
-0.003786457011863955,0.1109745310511994
-0.003786287011863955,0.1091313718169476
-0.003786117011863955,0.1074856939292197
-0.003785947011863955,0.1061033245035224
-0.003785777011863955,0.1044576466157967
-0.003785607011863955,0.1034044127676535
-0.003785437011863955,0.1027461416125607
-0.003785267011863955,0.1011992043980993
-0.003785097011863955,0.1005080196852537
-0.003784927011863955,0.09948769939485795
-0.003784757011863955,0.09826989775794052
-0.003784587011863955,0.0973812316985679
-0.003784417011863955,0.09583429448410517
-0.003784247011863955,0.09507728265575172
-0.003784077011863955,0.09372782678781488
-0.003783907011863956,0.0922467166888625
-0.003783737011863955,0.09132513707172636
-0.003783567011863955,0.08971237274175628
-0.003783397011863955,0.08826417620055571
-0.003783227011863955,0.08678306610160333
-0.003783057011863955,0.08510447465612092
-0.003782887011863956,0.08342588321064157
-0.003782717011863955,0.08089153926352972
-0.003782547011863955,0.0787192444517342
-0.003782377011863955,0.07727104791053237
-0.003782207011863955,0.07509875309873557
-0.003782037011863955,0.07365055655753505
-0.003781867011863956,0.07144534818798375
-0.003781697011863955,0.0700300652045278
-0.003781527011863955,0.06838438731680309
-0.003781357011863955,0.06683745010233892
-0.003781187011863955,0.06529051288787754
-0.003781017011863955,0.06417145192422261
-0.003780847011863956,0.06236120624772526
-0.003780677011863955,0.06213081134343874
-0.003780507011863955,0.06176876220813766
-0.003780337011863955,0.06051804701346659
-0.003780167011863955,0.06041930634020309
-0.003779997011863955,0.06015599787816664
-0.003779827011863955,0.06025473855143031
-0.003779657011863955,0.06012308432041064
-0.003779487011863955,0.05972812162735698
-0.003779317011863955,0.05949772672307675
-0.003779147011863955,0.06018891143592119
-0.003778977011863955,0.0599585165316393
-0.003778807011863955,0.05979394874286651
-0.003778637011863955,0.05880654201022968
-0.003778467011863955,0.05877362845247344
-0.003778297011863955,0.05778622171983787
-0.003778127011863955,0.05742417258453744
-0.003777957011863955,0.05689755566046548
-0.003777787011863955,0.05551518623477408
-0.003777617011863955,0.05446195238662311
-0.003777447011863955,0.05304666940317919
-0.003777277011863955,0.05133516439994312
-0.003777107011863955,0.0501173627630251
-0.003776937011863955,0.04922869670365368
-0.003776767011863955,0.04794506795122595
-0.003776597011863955,0.04689183410307557
-0.003776427011863955,0.04564111890840265
-0.003776257011863955,0.04445623082924128
-0.003776087011863955,0.04356756476986842
-0.003775917011863955,0.04277763938376049
-0.003775747011863955,0.04208645467091478
-0.003775577011863955,0.04113196149602975
-0.003775407011863955,0.04034203610991943
-0.003775237011863955,0.03928880226177617
-0.003775067011863955,0.0385976175489306
-0.003774897011863955,0.03797225995159514
-0.003774727011863955,0.03761021081629502
-0.003774557011863955,0.03754438370078674
-0.003774387011863955,0.03777477860506936
-0.003774217011863955,0.03820265485587675
-0.003774047011863955,0.03803808706710528
-0.003773877011863955,0.03859761754893173
-0.003773707011863955,0.0391571480307592
-0.003773537011863956,0.0391900615885137
-0.003773367011863955,0.0421193682286618
-0.003773197011863955,0.04004581409013512
-0.003773027011863955,0.04162566486235087
-0.003772857011863955,0.04155983774684188
-0.003772687011863955,0.04149401063133275
-0.003772517011863956,0.04162566486235075
-0.003772347011863955,0.04116487505378551
-0.003772177011863955,0.04070408524522135
-0.003772007011863955,0.03958502428156772
-0.003771837011863955,0.03919006158851376
-0.003771667011863955,0.03784060572057692
-0.003771497011863956,0.03747855658527745
-0.003771327011863955,0.03533917533122902
-0.003771157011863955,0.03491129908041948
-0.003770987011863955,0.03389097879002869
-0.003770817011863955,0.03313396696167525
-0.003770647011863955,0.03296939917290247
-0.003770477011863956,0.03234404157556702
-0.003770307011863955,0.03152120263170016
-0.003770137011863955,0.03102749926538354
-0.003769967011863955,0.03099458570762707
-0.003769797011863955,0.02990843830172865
-0.003769627011863955,0.03013883320601056
-0.003769457011863955,0.0296451298396922
-0.003769287011863955,0.02905268580010837
-0.003769117011863955,0.02855898243379182
-0.003768947011863955,0.02855898243379032
-0.003768777011863955,0.02773614348992789
-0.003768607011863955,0.02763740281666422
-0.003768437011863955,0.02753866214340054
-0.003768267011863955,0.02720952656585389
-0.003768097011863955,0.0269133045460636
-0.003767927011863955,0.02671582319953686
-0.003767757011863955,0.02684747743055359
-0.003767587011863955,0.02615629271770915
-0.003767417011863955,0.02612337915995459
-0.003767247011863955,0.02553093512037076
-0.003767077011863955,0.02503723175405367
-0.003766907011863955,0.02474100973426205
-0.003766737011863955,0.02411565213692583
-0.003766567011863955,0.02368777588611736
-0.003766397011863955,0.02329281319306268
-0.003766227011863955,0.02312824540428822
-0.003766057011863955,0.02266745559572573
-0.003765887011863955,0.02256871492246194
-0.003765717011863955,0.02230540646042507
-0.003765547011863955,0.02181170309410761
-0.003765377011863955,0.02187753020961672
-0.003765207011863955,0.02207501155614179
-0.003765037011863955,0.02144965395880808
-0.003764867011863955,0.02161422174758026
-0.003764697011863955,0.02161422174757997
-0.003764527011863955,0.02144965395880748
-0.003764357011863955,0.02168004886308938
-0.003764187011863955,0.02194335732512631
-0.003764017011863955,0.02207501155614514
-0.003763847011863955,0.02237123357593879
-0.003763677011863955,0.02441187415671612
-0.003763507011863955,0.02358903521285369
-0.003763337011863955,0.02414856569468116
-0.003763167011863956,0.02398399790590867
-0.003762997011863955,0.02431313348345215
-0.003762827011863955,0.02381943011713481
-0.003762657011863955,0.02339155386632545
-0.003762487011863955,0.02289785050000799
-0.003762317011863955,0.02200918444063495
-0.003762147011863956,0.02112051838126353
-0.003761977011863955,0.0211205183812576
-0.003761807011863955,0.01993563030209732
-0.003761637011863955,0.01963940828230558
-0.003761467011863955,0.01894822356946114
-0.003761297011863955,0.01822412529886088
-0.003761127011863956,0.01786207616356142
-0.003760957011863955,0.01763168125927742
-0.003760787011863955,0.01723671856622453
-0.003760617011863955,0.01743419991275146
-0.003760447011863955,0.01740128635499695
-0.003760277011863955,0.01786207616356076
-0.003760107011863956,0.01759876770152478
-0.003759937011863955,0.01792790327906975
-0.003759767011863955,0.01789498972131519
-0.003759597011863955,0.01782916260580716
-0.003759427011863955,0.01835577952987911
-0.003759257011863955,0.01842160664538823
-0.003759087011863955,0.01861908799191521
-0.003758917011863955,0.01852034731865166
-0.003758747011863955,0.01845452020314338
-0.003758577011863955,0.01878365578068764
-0.003758407011863955,0.01838869308763367
-0.003758237011863955,0.01815829818335177
-0.003758067011863955,0.01845452020314278
-0.003757897011863955,0.01861908799191617
-0.003757727011863955,0.01878365578068889
-0.003757557011863955,0.01907987780047889
-0.003757387011863955,0.01881656933844207
-0.003757217011863955,0.01835577952987911
-0.003757047011863955,0.01809247106784265
-0.003756877011863955,0.01792790327906879
-0.003756707011863955,0.0176316812592782
-0.003756537011863955,0.01726963212397813
-0.003756367011863955,0.01694049654643226
-0.003756197011863955,0.0164467931801148
-0.003756027011863955,0.01595308981379644
-0.003755857011863955,0.01526190510094835
-0.003755687011863955,0.01460363394585745
-0.003755517011863955,0.01401118990627703
-0.003755347011863955,0.01371496788648632
-0.003755177011863955,0.01358331365546833
-0.003755007011863955,0.01341874586669555
-0.003754837011863955,0.01332000519343499
-0.003754667011863955,0.01417575769504892
-0.003754497011863955,0.01378079500199891
-0.003754327011863955,0.01555812712073972
-0.003754157011863955,0.01443906615708682
-0.003753987011863955,0.01588726269828733
-0.003753817011863955,0.01572269490951765
-0.003753647011863955,0.01657844741113075
-0.003753477011863955,0.01595308981379734
-0.003753307011863955,0.01644679318011432
-0.003753137011863955,0.01618348471807834
-0.003752967011863955,0.015986003371551
-0.003752797011863956,0.01562395423625153
-0.003752627011863955,0.01552521356298576
-0.003752457011863955,0.01513025086993144
-0.003752287011863955,0.01453780683034959
-0.003752117011863955,0.01404410346403213
-0.003751947011863955,0.01404410346403213
-0.003751777011863956,0.01397827634852314
-0.003751607011863955,0.01364914077097733
-0.003751437011863955,0.01361622721322325
-0.003751267011863955,0.01381370855975035
-0.003751097011863955,0.01387953567525935
-0.003750927011863955,0.01384662211750479
-0.003750757011863956,0.0137149678864868
-0.003750587011863955,0.013714967886488
-0.003750417011863955,0.0141099305795419
-0.003750247011863955,0.01447197971484239
-0.003750077011863955,0.01503151019666884
-0.003749907011863955,0.01572269490951454
-0.003749737011863956,0.01631513894909549
-0.003749567011863955,0.01703923721970006
-0.003749397011863955,0.01792790327907089
-0.003749227011863955,0.01848743376089782
-0.003749057011863955,0.0187507422229338
-0.003748887011863955,0.01884948289619747
-0.003748717011863955,0.01947484049353292
-0.003748547011863955,0.01931027270476127
-0.003748377011863955,0.01931027270476091
-0.003748207011863955,0.0191127913582338
-0.003748037011863955,0.01904696424272481
-0.003747867011863955,0.01868491510742468
-0.003747697011863955,0.01858617443416101
-0.003747527011863955,0.01842160664538823
-0.003747357011863955,0.01842160664538727
-0.003747187011863955,0.01789498972131531
-0.003747017011863955,0.01789498972131531
-0.003746847011863955,0.01799373039457898
-0.003746677011863955,0.01753294058601518
-0.003746507011863955,0.01756585414376986
-0.003746337011863955,0.01759876770152406
-0.003746167011863955,0.01746711347050475
-0.003745997011863955,0.01674301519990629
-0.003745827011863955,0.01700632366194227
-0.003745657011863955,0.01651262029562391
-0.003745487011863955,0.01661136096888375
-0.003745317011863955,0.01555812712073912
-0.003745147011863955,0.01483402885013917
-0.003744977011863955,0.01355040009771898
-0.003744807011863955,0.01641387962236024
-0.003744637011863955,0.013682054328732
-0.003744467011863955,0.01322126452016952
-0.003744297011863955,0.01358331365546618
-0.003744127011863955,0.01299086961588696
-0.003743957011863955,0.01335291875118691
-0.003743787011863955,0.01361622721322289
-0.003743617011863955,0.01348457298220466
-0.003743447011863955,0.01335291875118571
-0.003743277011863955,0.01315543740465909
-0.003743107011863955,0.01315543740466023
-0.003742937011863955,0.01378079500199579
-0.003742767011863955,0.01384662211750479
-0.003742597011863955,0.01424158481055947
-0.003742427011863955,0.01447197971484054
-0.003742257011863955,0.01424158481055959
-0.003742087011863955,0.01427449836831391
-0.003741917011863955,0.01420867125280456
-0.003741747011863955,0.01401118990627757
-0.003741577011863955,0.0141428441372958
-0.003741407011863956,0.01391244923301432
-0.003741237011863955,0.01368205432873248
-0.003741067011863955,0.01381370855975017
-0.003740897011863955,0.01378079500199525
-0.003740727011863955,0.01355040009771377
-0.003740557011863955,0.0139124492330139
-0.003740387011863956,0.01434032548382237
-0.003740217011863955,0.01473528817687903
-0.003740047011863955,0.01506442375442442
-0.003739877011863955,0.01562395423625243
-0.003739707011863955,0.01647970673786936
-0.003739537011863955,0.01779624904805164
-0.003739367011863956,0.01861908799191407
-0.003739197011863955,0.01888239645395394
-0.003739027011863955,0.01940901337802614
-0.003738857011863955,0.02006728453311548
-0.003738687011863955,0.01973814895557051
-0.003738517011863955,0.01977106251332507
-0.003738347011863956,0.01993563030209755
-0.003738177011863955,0.01963940828230456
-0.003738007011863955,0.01901405068496996
-0.003737837011863955,0.01884948289619699
-0.003737667011863955,0.01858617443416101
-0.003737497011863955,0.01773042193254253
-0.003737327011863955,0.01730254568173328
-0.003737157011863955,0.01690758298867525
-0.003736987011863955,0.01598600337154867
-0.003736817011863955,0.01470237461912237
-0.003736647011863955,0.01420867125280492
-0.003736477011863955,0.01341874586669555
-0.003736307011863955,0.01358331365546833
-0.003736137011863955,0.01312252384690453
-0.003735967011863955,0.01312252384690399
-0.003735797011863955,0.01282630182711292
-0.003735627011863955,0.0124971662495625
-0.003735457011863955,0.00950203249390325
-0.003735287011863955,0.01312252384690453
-0.003735117011863955,0.01289212894262622
-0.003734947011863955,0.01387953567525946
-0.003734777011863955,0.01394536279076876
-0.003734607011863955,0.0141099305795419
-0.003734437011863955,0.01447197971484137
-0.003734267011863955,0.01486694240789606
-0.003734097011863955,0.01526190510095446
-0.003733927011863955,0.01628222539134225
-0.003733757011863955,0.01634805250684951
-0.003733587011863955,0.01545938644747946
-0.003733417011863955,0.0162163982758329
-0.003733247011863955,0.01601891692930556
-0.003733077011863955,0.015558127120742
-0.003732907011863955,0.01562395423624932
-0.003732737011863955,0.01519607798544043
-0.003732567011863955,0.01453780683035049
-0.003732397011863955,0.01453780683035049
-0.003732227011863955,0.0143732390415777
-0.003732057011863955,0.01397827634852098
-0.003731887011863955,0.01341874586669411
-0.003731717011863955,0.01302378317364026
-0.003731547011863955,0.01269464759609421
-0.003731377011863955,0.01210220355651326
-0.003731207011863955,0.01213511711426782
-0.003731037011863956,0.01167432730570486
-0.003730867011863955,0.01200346288325031
-0.003730697011863955,0.01220094422977699
-0.003730527011863955,0.01223385778753125
-0.003730357011863955,0.01210220355651326
-0.003730187011863955,0.01272756115384985
-0.003730017011863956,0.01292504250037683
-0.003729847011863955,0.01332000519343391
-0.003729677011863955,0.01387953567526036
-0.003729507011863955,0.01443906615708748
-0.003729337011863955,0.01480111529238694
-0.003729167011863955,0.01555812712074176
-0.003728997011863956,0.01611765760256821
-0.003728827011863955,0.01671010164215293
-0.003728657011863955,0.01717089145071559
-0.003728487011863955,0.01746711347050625
-0.003728317011863955,0.01756585414376974
-0.003728147011863955,0.01838869308763367
-0.003727977011863956,0.01825703885661568
-0.003727807011863955,0.01838869308763199
-0.003727637011863955,0.01792790327906921
-0.003727467011863955,0.0175658541437692
-0.003727297011863955,0.01726963212397873
-0.003727127011863955,0.01723671856622417
-0.003726957011863955,0.01680884231541493
-0.003726787011863955,0.01634805250685041
-0.003726617011863955,0.01615057116032271
-0.003726447011863955,0.01555812712074176
-0.003726277011863955,0.01555812712074176
-0.003726107011863955,0.01387953567525935
-0.003725937011863955,0.01615057116032378
-0.003725767011863955,0.01420867125280324
-0.003725597011863955,0.01374788144424076
-0.003725427011863955,0.01355040009771329
-0.003725257011863955,0.01328709163567708
-0.003725087011863955,0.01315543740465909
-0.003724917011863955,0.01302378317364086
-0.003724747011863955,0.01318835096241137
-0.003724577011863955,0.0125629933650767
-0.003724407011863955,0.01236551201854948
-0.003724237011863955,0.01223385778752969
-0.003724067011863955,0.01124645105489478
-0.003723897011863955,0.01170724086345858
-0.003723727011863955,0.01141101884366684
-0.003723557011863955,0.01121353749713986
-0.003723387011863955,0.01111479682387685
-0.003723217011863955,0.01127936461264939
-0.003723047011863955,0.01131227817040389
-0.003722877011863955,0.01167432730570402
-0.003722707011863955,0.01203637644100618
-0.003722537011863955,0.01259590692283377
-0.003722367011863955,0.01318835096241406
-0.003722197011863955,0.01341874586669656
-0.003722027011863955,0.01397827634852302
-0.003721857011863955,0.01443906615708682
-0.003721687011863955,0.01503151019666896
-0.003721517011863955,0.01506442375442376
-0.003721347011863955,0.01516316442768749
-0.003721177011863955,0.01539355933196909
-0.003721007011863955,0.01545938644747809
-0.003720837011863955,0.015986003371551
-0.003720667011863956,0.01605183048705999
-0.003720497011863955,0.01631513894909909
-0.003720327011863955,0.01700632366194263
-0.003720157011863955,0.01720380500847081
-0.003719987011863955,0.01786207616356076
-0.003719817011863955,0.01766459481703341
-0.003719647011863956,0.01809247106784188
-0.003719477011863955,0.01815829818335285
-0.003719307011863955,0.01845452020314087
-0.003719137011863955,0.01740128635499851
-0.003718967011863955,0.01825703885661544
