Analysis/New Tests_CMB/wrd01_d2s01/cmb08_ch18.csv

#Digilent WaveForms Oscilloscope Acquisition
#Device Name: ADP3450
#Serial Number: SN:210018B9D9B0
#Date Time: 2024-08-14 17:30:49.073.117.200
#Sample rate: 5.88235e+06Hz
#Samples: 32768
#Trigger: Source: Channel 3 Type: Edge Condition: Rising Level: 60 mV Hyst.: Auto HoldOff: 0 s
#Channel 3: Range: 100 mV/div Offset: 0 V Attenuation: 1 X Coupling: DC Bandwidth: 0 Hz Sample Mode: Average

Time (s),Channel 3 (V)
-0.003798415958555007,0.2108342652785291
-0.003798245958555007,0.223999688380395
-0.003798075958555007,0.2358485691720292
-0.003797905958555007,0.2459530314026571
-0.003797735958555007,0.2545434699765937
-0.003797565958555007,0.2615540577783016
-0.003797395958555007,0.2668531405767853
-0.003797225958555007,0.2710331624116237
-0.003797055958555007,0.2736991605897386
-0.003796885958555007,0.2752131842464441
-0.003796715958555007,0.2759701960747978
-0.003796545958555007,0.2761018503058158
-0.003796375958555007,0.2751144435731791
-0.003796205958555007,0.2731067165501438
-0.003796035958555007,0.2710989895271137
-0.003795865958555007,0.2684988184645075
-0.003795695958555007,0.2653720304778244
-0.003795525958555007,0.2622123289333927
-0.003795355958555007,0.2585589240226369
-0.003795185958555007,0.254378902187794
-0.003795015958555007,0.250495102372757
-0.003794845958555007,0.2468087839042523
-0.003794675958555007,0.242595848511669
-0.003794505958555007,0.2383829131190934
-0.003794335958555007,0.2347295082083375
-0.003794165958555007,0.2313723253173788
-0.003793995958555007,0.2270606492515135
-0.003793825958555007,0.2237034663605539
-0.003793655958555007,0.2198525801032711
-0.003793485958555007,0.2161991751925219
-0.003793315958555007,0.2129407329748207
-0.003793145958555007,0.2092873280640715
-0.003792975958555007,0.2052718740179972
-0.003792805958555007,0.202046345358055
-0.003792635958555007,0.1980308913120019
-0.003792465958555007,0.1955952880381691
-0.003792295958555007,0.19032911879744
-0.003792125958555007,0.1870377630219903
-0.003791955958555007,0.1835489258999886
-0.003791785958555007,0.1800930023357676
-0.003791615958555007,0.177295349926629
-0.003791445958555007,0.1738065128046523
-0.003791275958555007,0.1711734281842877
-0.003791105958555007,0.1680466401976105
-0.003790935958555007,0.1654464691349851
-0.003790765958555007,0.1627804709568707
-0.003790595958555007,0.1600157321054886
-0.003790425958555007,0.1576459559471648
-0.003790255958555007,0.1549799577690457
-0.003790085958555007,0.152577268052963
-0.003789915958555007,0.1510961579539999
-0.003789745958555007,0.1488909495844489
-0.003789575958555007,0.1468832225614209
-0.003789405958555007,0.1448754955383966
-0.003789235958555007,0.1431310769774051
-0.003789065958555007,0.1411562635121317
-0.003788895958555007,0.1388523144693051
-0.003788725958555007,0.1367787603307722
-0.003788555958555007,0.1349026875387622
-0.003788385958555007,0.1328949605157349
-0.003788215958555007,0.13124928262801
-0.003788045958555007,0.1291757284894729
-0.003787875958555007,0.1274642234862273
-0.003787705958555007,0.1250944473279039
-0.003787535958555007,0.1229221525161033
-0.003787365958555007,0.1208485983775663
-0.003787195958555007,0.118840871354542
-0.003787025958555007,0.1163394409651956
-0.003786855958555007,0.1135747021138072
-0.003786685958555007,0.1120277648993395
-0.003786515958555007,0.1095263345099973
-0.003786345958555007,0.106761595658615
-0.003786175958555007,0.1042930788270277
-0.003786005958555007,0.1019562162264542
-0.003785835958555007,0.09909273670180109
-0.003785665958555007,0.09728249102530036
-0.003785495958555007,0.09543933179104826
-0.003785325958555007,0.0934645183257746
-0.003785155958555007,0.09135805062948676
-0.003784985958555007,0.08997568120379537
-0.003784815958555007,0.0878362999497439
-0.003784645958555007,0.08638810340854519
-0.003784475958555007,0.08543361023366422
-0.003784305958555007,0.08418289503899086
-0.003784135958555007,0.08283343917105648
-0.003783965958555007,0.08187894599617432
-0.003783795958555007,0.08122067484108439
-0.003783625958555007,0.07993704608865222
-0.003783455958555007,0.07904838002928062
-0.003783285958555007,0.07806097329664506
-0.003783115958555007,0.07769892416134558
-0.003782945958555007,0.07572411069607216
-0.003782775958555007,0.07578993781158115
-0.003782605958555007,0.07490127175220679
-0.003782435958555007,0.07450630905915227
-0.003782265958555007,0.07381512434630687
-0.003782095958555007,0.07328850742223492
-0.003781925958555007,0.07256440915163467
-0.003781755958555007,0.07167574309226324
-0.003781585958555007,0.07128078039920323
-0.003781415958555007,0.07026046010881423
-0.003781245958555007,0.06947053472270505
-0.003781075958555007,0.0687793500098606
-0.003780905958555007,0.06729823991090553
-0.003780735958555007,0.06585004336970765
-0.003780565958555007,0.06453350105951987
-0.003780395958555007,0.0637435756734103
-0.003780225958555007,0.06206498422792849
-0.003780055958555007,0.06071552835999411
-0.003779885958555007,0.0594977267230755
-0.003779715958555007,0.05824701152840232
-0.003779545958555007,0.05712795056474331
-0.003779375958555007,0.05600888960109041
-0.003779205958555007,0.05488982863743577
-0.003779035958555007,0.05393533546255534
-0.003778865958555007,0.0532770643074642
-0.003778695958555007,0.05202634911279103
-0.003778525958555007,0.05169721353524306
-0.003778355958555007,0.05103894238015264
-0.003778185958555007,0.0501173627630257
-0.003778015958555007,0.049557832281199
-0.003777845958555007,0.04942617805018102
-0.003777675958555007,0.04847168487529886
-0.003777505958555007,0.04827420352876685
-0.003777335958555007,0.04699057477634314
-0.003777165958555007,0.04662852564104289
-0.003776995958555007,0.04620064939023377
-0.003776825958555007,0.0458386002549343
-0.003776655958555007,0.04567403246616151
-0.003776485958555007,0.04494993419556161
-0.003776315958555007,0.04504867486882397
-0.003776145958555007,0.04478536640678847
-0.003775975958555007,0.04478536640678763
-0.003775805958555007,0.04432457659822467
-0.003775635958555007,0.04323842919232428
-0.003775465958555007,0.0436333918853761
-0.003775295958555007,0.04284346649926817
-0.003775125958555007,0.04244850380621384
-0.003774955958555007,0.0418560597666324
-0.003774785958555007,0.04159275130459643
-0.003774615958555007,0.04126361572705086
-0.003774445958555007,0.04103322082276824
-0.003774275958555007,0.0408357394762415
-0.003774105958555007,0.0408028259184867
-0.003773935958555007,0.04060534457195912
-0.003773765958555007,0.04027620899441414
-0.003773595958555007,0.03974959207034123
-0.003773425958555007,0.04037494966767668
-0.003773255958555007,0.03928880226177456
-0.003773085958555007,0.0384988768756671
-0.003772915958555007,0.03797225995159478
-0.003772745958555007,0.0377747786050678
-0.003772575958555007,0.03658989052590375
-0.003772405958555007,0.03573413802428682
-0.003772235958555007,0.03474673129164484
-0.003772065958555007,0.03372641100125555
-0.003771895958555007,0.03277191782637339
-0.003771725958555007,0.03181742465149297
-0.003771555958555007,0.0305667094568198
-0.003771385958555007,0.02967804339744837
-0.003771215958555007,0.02898685868459938
-0.003771045958555007,0.02852606887603708
-0.003770875958555007,0.02842732820277353
-0.003770705958555007,0.02839441464501903
-0.003770535958555007,0.02839441464501903
-0.003770365958555007,0.02822984685624654
-0.003770195958555007,0.02839441464501843
-0.003770025958555007,0.02822984685624684
-0.003769855958555007,0.02855898243379116
-0.003769685958555007,0.02819693329849169
-0.003769515958555007,0.02767031637441877
-0.003769345958555007,0.02770322993217333
-0.003769175958555007,0.0276374028166635
-0.003769005958555007,0.02743992147013627
-0.003768835958555007,0.02711078589259166
-0.003768665958555007,0.02730826723911865
-0.003768495958555007,0.02681456387280029
-0.003768325958555007,0.0268803909883094
-0.003768155958555007,0.02651834185300988
-0.003767985958555007,0.0266829096417814
-0.003767815958555007,0.02632086050648133
-0.003767645958555007,0.02599172492893564
-0.003767475958555007,0.02559676223588167
-0.003767305958555007,0.02543219444710889
-0.003767135958555007,0.02520179954282495
-0.003766965958555007,0.02464226906099856
-0.003766795958555007,0.02411565213692535
-0.003766625958555007,0.02342446742408061
-0.003766455958555007,0.02325989963530812
-0.003766285958555007,0.02270036915348065
-0.003766115958555007,0.02194335732512344
-0.003765945958555007,0.02128508617003385
-0.003765775958555007,0.02105469126575214
-0.003765605958555007,0.02069264213045129
-0.003765435958555007,0.01993563030209785
-0.003765265958555007,0.01986980318658874
-0.003765095958555007,0.0198368896288349
-0.003764925958555007,0.02003437097536476
-0.003764755958555007,0.0209230370347351
-0.003764585958555007,0.0212192590545266
-0.003764415958555007,0.02177878953635305
-0.003764245958555007,0.02158130818982571
-0.003764075958555007,0.02342446742408151
-0.003763905958555007,0.02358903521285561
-0.003763735958555007,0.02411565213692852
-0.003763565958555007,0.02516888598507249
-0.003763395958555007,0.02520179954282699
-0.003763225958555007,0.02556384867812712
-0.003763055958555007,0.02553093512037262
-0.003762885958555007,0.02533345377384498
-0.003762715958555007,0.02526762665833592
-0.003762545958555007,0.02516888598507165
-0.003762375958555007,0.02474100973426319
-0.003762205958555007,0.02444478771447217
-0.003762035958555007,0.02395108434815472
-0.003761865958555007,0.02345738098183343
-0.003761695958555007,0.02289785050000733
-0.003761525958555007,0.02253580136470763
-0.003761355958555007,0.02240414713368964
-0.003761185958555007,0.02187753020961672
-0.003761015958555007,0.02184461665186222
-0.003760845958555007,0.02177878953636107
-0.003760675958555007,0.02398399790590239
-0.003760505958555007,0.02069264213045231
-0.003760335958555007,0.02049516078392532
-0.003760165958555007,0.02151548107431659
-0.003759995958555007,0.02115343193901712
-0.003759825958555007,0.0211863454967703
-0.003759655958555007,0.02098886415024416
-0.003759485958555007,0.02125217261228032
-0.003759315958555007,0.02135091328554381
-0.003759145958555007,0.02148256751656204
-0.003758975958555007,0.02164713530533452
-0.003758805958555007,0.02184461665186277
-0.003758635958555007,0.02200918444063459
-0.003758465958555007,0.02181170309410899
-0.003758295958555007,0.02256871492246242
-0.003758125958555007,0.02270036915348065
-0.003757955958555007,0.02263454203797154
-0.003757785958555007,0.02286493694225475
-0.003757615958555007,0.02322698607755248
-0.003757445958555007,0.02263454203797207
-0.003757275958555007,0.02293076405776147
-0.003757105958555007,0.02233832001818052
-0.003756935958555007,0.02197627088288039
-0.003756765958555007,0.02158130818982271
-0.003756595958555007,0.02075846924596082
-0.003756425958555007,0.02023185232188803
-0.003756255958555007,0.01977106251332405
-0.003756085958555007,0.0192115320314976
-0.003755915958555007,0.01884948289619747
-0.003755745958555007,0.01875074222293464
-0.003755575958555007,0.01898113712721677
-0.003755405958555007,0.01927735914700605
-0.003755235958555007,0.01891531001170658
-0.003755065958555007,0.01891531001170658
-0.003754895958555007,0.01848743376089734
-0.003754725958555007,0.01700632366194778
-0.003754555958555007,0.01852034731864986
-0.003754385958555007,0.01796081683682353
-0.003754215958555007,0.01746711347050541
-0.003754045958555007,0.01710506433520594
-0.003753875958555007,0.0166771880843967
-0.003753705958555007,0.01631513894909514
-0.003753535958555007,0.01592017625604165
-0.003753365958555007,0.01585434914053205
-0.003753195958555007,0.01545938644747797
-0.003753025958555007,0.01539355933196897
-0.003752855958555007,0.01466946106136872
-0.003752685958555007,0.01457072038810522
-0.003752515958555007,0.01447197971484113
-0.003752345958555007,0.01440615259933298
-0.003752175958555007,0.0148011152923876
-0.003752005958555007,0.01516316442768707
-0.003751835958555007,0.01509733731217796
-0.003751665958555007,0.01568978135175891
-0.003751495958555007,0.01572269490951574
-0.003751325958555007,0.01605183048706071
-0.003751155958555007,0.01638096606460611
-0.003750985958555007,0.01661136096888758
-0.003750815958555007,0.01624931183358745
-0.003750645958555007,0.01647970673786894
-0.003750475958555007,0.01684175587316936
-0.003750305958555007,0.01680884231541487
-0.003750135958555007,0.01677592875766067
-0.003749965958555007,0.01694049654643316
-0.003749795958555007,0.01700632366194227
-0.003749625958555007,0.0166442745266428
-0.003749455958555007,0.01680884231541409
-0.003749285958555007,0.01657844741113339
-0.003749115958555007,0.01677592875766061
-0.003748945958555007,0.0169075829886786
-0.003748775958555007,0.01726963212397873
-0.003748605958555007,0.01730254568173322
-0.003748435958555007,0.01710506433520462
-0.003748265958555007,0.01674301519990504
-0.003748095958555007,0.01631513894909532
-0.003747925958555007,0.01562395423625087
-0.003747755958555007,0.01562395423625087
-0.003747585958555007,0.01509733731217796
-0.003747415958555007,0.01506442375442352
-0.003747245958555007,0.01509733731217784
-0.003747075958555007,0.01503151019666842
-0.003746905958555007,0.01480111529238694
-0.003746735958555007,0.01404410346403213
-0.003746565958555007,0.01401118990627757
-0.003746395958555007,0.01394536279076774
-0.003746225958555007,0.0137478814442413
-0.003746055958555007,0.01384662211750491
-0.003745885958555007,0.0139124492330151
-0.003745715958555007,0.01457072038810504
-0.003745545958555007,0.01463654750361416
-0.003745375958555007,0.01476820173463155
-0.003745205958555007,0.01453780683035408
-0.003745035958555007,0.0155252135629875
-0.003744865958555007,0.0156897813517607
-0.003744695958555007,0.01608474404481467
-0.003744525958555007,0.01615057116032378
-0.003744355958555007,0.01664427452664358
-0.003744185958555007,0.01703923721969815
-0.003744015958555007,0.01740128635499683
-0.003743845958555007,0.01733545923948778
-0.003743675958555007,0.01730254568173328
-0.003743505958555007,0.01710506433520594
-0.003743335958555007,0.01763168125927946
-0.003743165958555007,0.01779624904805248
-0.003742995958555007,0.01802664395233378
-0.003742825958555007,0.01815829818335177
-0.003742655958555007,0.01815829818335177
-0.003742485958555007,0.01884948289619747
-0.003742315958555007,0.01898113712721689
-0.003742145958555007,0.01931027270476246
-0.003741975958555007,0.01963940828230756
-0.003741805958555007,0.02003437097536218
-0.003741635958555007,0.02039642011066165
-0.003741465958555007,0.02079138280371634
-0.003741295958555007,0.02131799972778829
-0.003741125958555007,0.02125217261227954
-0.003740955958555007,0.02108760482350699
-0.003740785958555007,0.02089012347697929
-0.003740615958555007,0.02049516078392532
-0.003740445958555007,0.02026476587964342
-0.003740275958555007,0.02010019809087094
-0.003740105958555007,0.01954066760904185
-0.003739935958555007,0.01917861847374202
-0.003739765958555007,0.01861908799191545
-0.003739595958555007,0.01855326087640645
-0.003739425958555007,0.01809247106784265
-0.003739255958555007,0.01815829818335165
-0.003739085958555007,0.01779624904804996
-0.003738915958555007,0.01733545923948826
-0.003738745958555007,0.0175658541437689
-0.003738575958555007,0.01710506433520594
-0.003738405958555007,0.01641387962236024
-0.003738235958555007,0.01628222539134225
-0.003738065958555007,0.01611765760257007
-0.003737895958555007,0.01634805250684993
-0.003737725958555007,0.01568978135175999
-0.003737555958555007,0.01568978135175999
-0.003737385958555007,0.0155252135629872
-0.003737215958555007,0.01526190510095074
-0.003737045958555007,0.01539355933196981
-0.003736875958555007,0.01562395423625009
-0.003736705958555007,0.01519607798544151
-0.003736535958555007,0.01513025086993251
-0.003736365958555007,0.01496568308115973
-0.003736195958555007,0.01513025086993251
-0.003736025958555007,0.01536064577421741
-0.003735855958555007,0.01618348471807643
-0.003735685958555007,0.01513025086993221
-0.003735515958555007,0.01496568308115955
-0.003735345958555007,0.01486694240789606
-0.003735175958555007,0.01519607798544163
-0.003735005958555007,0.01562395423625075
-0.003734835958555007,0.01559104067849602
-0.003734665958555007,0.01542647288972281
-0.003734495958555007,0.01503151019666842
-0.003734325958555007,0.01480111529238694
-0.003734155958555007,0.01430741192606859
-0.003733985958555007,0.01407701702178753
-0.003733815958555007,0.01430741192606966
-0.003733645958555007,0.01460363394585924
-0.003733475958555007,0.0144061525993325
-0.003733305958555007,0.01453780683035049
-0.003733135958555007,0.01443906615708682
-0.003732965958555007,0.01480111529238718
-0.003732795958555007,0.01486694240789833
-0.003732625958555007,0.01549230000523318
-0.003732455958555007,0.01578852202502402
-0.003732285958555007,0.015986003371551
-0.003732115958555007,0.01651262029562391
-0.003731945958555007,0.01703923721969551
-0.003731775958555007,0.01667718808439538
-0.003731605958555007,0.01631513894909699
-0.003731435958555007,0.01654553385337787
-0.003731265958555007,0.0162163982758329
-0.003731095958555007,0.01624931183358745
-0.003730925958555007,0.01618348471807846
-0.003730755958555007,0.01618348471807942
-0.003730585958555007,0.01647970673787002
-0.003730415958555007,0.01684175587316996
-0.003730245958555007,0.01710506433520594
-0.003730075958555007,0.01743419991275151
-0.003729905958555007,0.01766459481703299
-0.003729735958555007,0.01848743376089315
-0.003729565958555007,0.01733545923949018
-0.003729395958555007,0.01861908799191443
-0.003729225958555007,0.01799373039457898
-0.003729055958555007,0.01822412529886088
-0.003728885958555007,0.01878365578068734
-0.003728715958555007,0.01898113712721677
-0.003728545958555007,0.01927735914700755
-0.003728375958555007,0.01973814895556997
-0.003728205958555007,0.0194419269357795
-0.003728035958555007,0.01957358116679772
-0.003727865958555007,0.01921153203149826
-0.003727695958555007,0.01894822356945922
-0.003727525958555007,0.01842160664538715
-0.003727355958555007,0.01782916260580464
-0.003727185958555007,0.01697341010418771
-0.003727015958555007,0.01608474404481467
-0.003726845958555007,0.01532773221645986
-0.003726675958555007,0.01407701702178489
-0.003726505958555007,0.0135833136554651
-0.003726335958555007,0.01180598153672428
-0.003726165958555007,0.01292504250037719
-0.003725995958555007,0.01262882048058617
-0.003725825958555007,0.01213511711426782
-0.003725655958555007,0.01223385778753149
-0.003725485958555007,0.01223385778753245
-0.003725315958555007,0.01276047471160434
-0.003725145958555007,0.01272756115385051
-0.003724975958555007,0.01308961028914997
-0.003724805958555007,0.0129908696158863
-0.003724635958555007,0.01299086961588654
-0.003724465958555007,0.01305669673139524
-0.003724295958555007,0.01295795605813252
-0.003724125958555007,0.01338583230894218
-0.003723955958555007,0.01404410346403213
-0.003723785958555007,0.01417575769505036
-0.003723615958555007,0.01526190510095158
-0.003723445958555007,0.01549230000523552
-0.003723275958555007,0.01628222539134267
-0.003723105958555007,0.01664427452664358
-0.003722935958555007,0.01743419991275151
-0.003722765958555007,0.01740128635499695
-0.003722595958555007,0.01769750837478605
-0.003722425958555007,0.01717089145071422
-0.003722255958555007,0.01694049654643352
-0.003722085958555007,0.01713797789295942
-0.003721915958555007,0.01654553385337847
-0.003721745958555007,0.01677592875766037
-0.003721575958555007,0.01707215077745139
-0.003721405958555007,0.01707215077744959
-0.003721235958555007,0.01657844741113273
-0.003721065958555007,0.01641387962236144
-0.003720895958555007,0.01707215077745139
-0.003720725958555007,0.01733545923948784
-0.003720555958555007,0.01763168125927832
-0.003720385958555007,0.01792790327907119
-0.003720215958555007,0.01828995241436994
-0.003720045958555007,0.0182570388566155
-0.003719875958555007,0.01828995241437
-0.003719705958555007,0.01825703885661544
-0.003719535958555007,0.01835577952987893
-0.003719365958555007,0.01789498972131436
-0.003719195958555007,0.01763168125927886
-0.003719025958555007,0.01763168125927802
-0.003718855958555007,0.01717089145071506
