Analysis/New Tests_CMB/wrd01_d2s01/cmb02_ch22.csv

#Digilent WaveForms Oscilloscope Acquisition
#Device Name: ADP3450
#Serial Number: SN:210018B9D9B0
#Date Time: 2024-08-06 12:45:22.177.883.490
#Sample rate: 2.94118e+06Hz
#Samples: 32768
#Trigger: Source: Channel 3 Type: Edge Condition: Rising Level: 20 mV Hyst.: Auto HoldOff: 0 s
#Channel 3: Range: 200 mV/div Offset: 0 V Attenuation: 1 X Coupling: DC Bandwidth: 0 Hz Sample Mode: Average

Time (s),Channel 3 (V)
-0.005570414784394251,0.01358331365546833
-0.00557007478439425,0.01308961028915009
-0.005569734784394251,0.01315543740465909
-0.005569394784394251,0.01305669673139542
-0.00556905478439425,0.01282630182711196
-0.005568714784394251,0.01197054932549503
-0.005568374784394251,0.01065400701531275
-0.00556803478439425,0.009469118936146896
-0.005567694784394251,0.008481712203511979
-0.005567354784394251,0.007724700375157166
-0.00556701478439425,0.006934774989048095
-0.005566674784394251,0.007099342777820581
-0.005566334784394251,0.007263910566593366
-0.00556599478439425,0.007329737682103259
-0.005565654784394251,0.007757613932911723
-0.005565314784394251,0.008251317299230079
-0.00556497478439425,0.00835005797249435
-0.005564634784394251,0.008679193550039321
-0.005564294784394251,0.009337464705130465
-0.00556395478439425,0.009567859609412484
-0.005563614784394251,0.009633686724921478
-0.005563274784394251,0.009139983358603122
-0.005562934784394251,0.00844879864575868
-0.005562594784394251,0.00677020720027501
-0.005562254784394251,0.005256183543565383
-0.005561914784394251,0.003939641233385493
-0.005561574784394251,0.003281370078291956
-0.005561234784394251,0.003182629405028285
-0.005560894784394251,0.002985148058501301
-0.005560554784394251,0.002261049787900686
-0.005560214784394251,0.00130655661301853
-0.005559874784394251,0.0003520634381381101
-0.005559534784394251,-0.0003062077169547683
-0.005559194784394251,-0.0001087263704274257
-0.005558854784394251,0.0004508041113990274
-0.005558514784394251,0.00153695151730043
-0.005558174784394251,0.002820580269728157
-0.005557834784394251,0.003413024309309107
-0.005557494784394251,0.003742159886855756
-0.005557154784394251,0.003709246329101199
-0.005556814784394251,0.003248456520538238
-0.005556474784394251,0.002623098923200814
-0.005556134784394251,0.002030654883618786
-0.005555794784394251,0.001109075266492864
-0.005555454784394251,0.0005824583424182735
-0.005555114784394251,8.875497609991696e-05
-0.005554774784394251,-7.581281267256924e-05
-0.005554434784394251,-7.581281267286857e-05
-0.005554094784394251,-0.0003062077169547683
-0.005553754784394251,-0.0005695161789912252
-0.005553414784394251,-0.001129046660818696
-0.005553074784394251,-0.001853144931418952
-0.005552734784394251,-0.001984799162437181
-0.005552394784394251,-0.00165566358489161
-0.005552054784394251,-0.001951885604682624
-0.005551714784394251,-0.001491095796118824
-0.00555137478439425,-0.001589836469382555
-0.005551034784394251,-0.001622750027137053
-0.005550694784394251,-0.001787317815909838
-0.00555035478439425,-0.002248107624475374
-0.005550014784394251,-0.003202600799355794
-0.005549674784394251,-0.003432995703637694
-0.00554933478439425,-0.002840551664054289
-0.005548994784394251,-0.002083539835700852
-0.005548654784394251,-0.001260700891836924
-0.00554831478439425,-7.581281267179093e-05
-0.005547974784394251,0.0005166312269091594
-0.005547634784394251,0.001800259979336887
-0.00554729478439425,0.002293963345655542
-0.005546954784394251,0.002458531134428029
-0.005546614784394251,0.002261049787900686
-0.00554627478439425,0.002623098923200754
-0.005545934784394251,0.002590185365446257
-0.005545594784394251,0.002656012480955371
-0.00554525478439425,0.002359790461163339
-0.005544914784394251,0.001800259979336887
-0.005544574784394251,0.00130655661301853
-0.00554423478439425,0.001076161708735433
-0.005543894784394251,0.000417890553645488
-0.005543554784394251,-0.0005695161789912252
-0.00554321478439425,-0.001359441565101733
-0.005542874784394251,-0.001984799162437181
-0.005542534784394251,-0.002577243202019209
-0.005542194784394251,-0.002939292337318679
-0.005541854784394251,-0.002840551664055666
-0.005541514784394251,-0.002610156759773766
-0.005541174784394251,-0.002313934739983291
-0.005540834784394251,-0.00188605848917351
-0.005540494784394251,-0.001622750027137053
-0.005540154784394251,-0.001392355122855572
-0.005539814784394251,-0.001161960218573253
-0.005539474784394251,-0.002083539835700852
-0.005539134784394251,-0.00234684829773683
-0.005538794784394251,-0.002346848297737309
-0.005538454784394251,-0.001984799162437181
-0.005538114784394251,-0.00152400935387422
-0.005537774784394251,-0.0005695161789912252
-0.005537434784394251,0.000714112573436502
-0.005537094784394251,0.001109075266490469
-0.005536754784394251,0.0007799396889456162
-0.005536414784394251,-0.0003062077169547683
-0.005536074784394251,-0.0008328246410267241
-0.005535734784394251,-0.002182280508964523
-0.005535394784394251,-0.00336716858812858
-0.005535054784394251,-0.004255834647500004
-0.005534714784394251,-0.004782451571574535
-0.005534374784394251,-0.004782451571574535
-0.005534034784394251,-0.005045760033610513
-0.005533694784394251,-0.004815365129329092
-0.005533354784394251,-0.004519143109538078
-0.005533014784394251,-0.003827958396692379
-0.005532674784394251,-0.003498822819146808
-0.005532334784394251,-0.003959612627710607
-0.005531994784394251,-0.00369630416567415
-0.005531654784394251,-0.003893785512201493
-0.005531314784394251,-0.004190007531992507
-0.005530974784394251,-0.003334255030374022
-0.00553063478439425,-0.002511416086510094
-0.005530294784394251,-0.001984799162437181
-0.005529954784394251,-0.0009973924298004675
-0.00552961478439425,-0.0006024297367441658
-0.005529274784394251,0.0002862363226272596
-0.005528934784394251,0.0007799396889456162
-0.00552859478439425,0.0003191498803809187
-0.005528254784394251,-0.0001745534859365399
-0.005527914784394251,-0.0006682568522548965
-0.00552757478439425,-0.001326528007347954
-0.005527234784394251,-0.002379761855491866
-0.005526894784394251,-0.00290637877956478
-0.00552655478439425,-0.003367168588127801
-0.005526214784394251,-0.002939292337319337
-0.005525874784394251,-0.002544329644264652
-0.00552553478439425,-0.001820231373663677
-0.005525194784394251,-0.00142526868060971
-0.005524854784394251,-0.001129046660818696
-0.00552451478439425,-0.001491095796120919
-0.005524174784394251,-0.002643070317528323
-0.005523834784394251,-0.003860871954446936
-0.00552349478439425,-0.00481536512932993
-0.005523154784394251,-0.005276154937892892
-0.005522814784394251,-0.004979932918101878
-0.00552247478439425,-0.004387488878517156
-0.005522134784394251,-0.00290637877956478
-0.005521794784394251,-0.001820231373664395
-0.00552145478439425,-0.0007011704100087352
-0.005521114784394251,-0.0003062077169547683
-0.005520774784394251,2.292786059080275e-05
-0.005520434784394251,0.0001874956493632889
-0.005520094784394251,-0.0002732941592002112
-0.005519754784394251,-0.0007340839677640107
-0.005519414784394251,-0.0009315653142909941
-0.005519074784394251,-0.002050626277946295
-0.005518734784394251,-0.002873465221810222
-0.005518394784394251,-0.003367168588127681
-0.005518054784394251,-0.003860871954446936
-0.005517714784394251,-0.003465909261392251
-0.005517374784394251,-0.003498822819146748
-0.005517034784394251,-0.003235514357110351
-0.005516694784394251,-0.003827958396692379
-0.005516354784394251,-0.003827958396692379
-0.005516014784394251,-0.004519143109538078
-0.005515674784394251,-0.004058353300974278
-0.005515334784394251,-0.002939292337321373
-0.005514994784394251,-0.001458182238364267
-0.005514654784394251,-0.000832824641027682
-0.005514314784394251,-0.0001416399281832401
-0.005513974784394251,-0.0004378619479729968
-0.005513634784394251,-0.001030305987555025
-0.005513294784394251,-0.00191897204692645
-0.005512954784394251,-0.002577243202019209
-0.005512614784394251,-0.003630477050165036
-0.005512274784394251,-0.00415709397423795
-0.005511934784394251,-0.004288748205256179
-0.005511594784394251,-0.003729217723428708
-0.005511254784394251,-0.00313677368384668
-0.005510914784394251,-0.002215194066719081
-0.005510574784394251,-0.001721490700400724
-0.005510234784394251,-0.001096133103064139
-0.00550989478439425,-0.0005695161789912252
-0.005509554784394251,5.584141834535986e-05
-0.005509214784394251,0.0004837176691546022
-0.00550887478439425,0.001372383728527524
-0.005508534784394251,0.00130655661301853
-0.005508194784394251,0.001141988824245744
-0.00550785478439425,0.00031914988038032
-0.005507514784394251,-0.0005036890634821109
-0.005507174784394251,-0.00188605848917351
-0.00550683478439425,-0.002939292337321552
-0.005506494784394251,-0.00415709397423795
-0.005506154784394251,-0.005835685419720362
-0.00550581478439425,-0.006790178594603177
-0.005505474784394251,-0.007152227729902647
-0.005505134784394251,-0.006954746383375304
-0.00550479478439425,-0.006724351479092027
-0.005504454784394251,-0.005967339650738591
-0.005504114784394251,-0.005243241380138334
-0.00550377478439425,-0.0040912668587268
-0.005503434784394251,-0.002972205895073894
-0.005503094784394251,-0.001524009353873381
-0.00550275478439425,-0.0007011704100086154
-0.005502414784394251,-0.0002403806014456541
-0.005502074784394251,0.0006482854579273878
-0.00550173478439425,0.001043248150982073
-0.005501394784394251,0.001043248150982073
-0.005501054784394251,0.001174902382000301
-0.00550071478439425,0.001076161708735253
-0.005500374784394251,0.0003191498803818167
-0.005500034784394251,-0.0009644788720459105
-0.005499694784394251,-0.001491095796117866
-0.005499354784394251,-0.002182280508964523
-0.005499014784394251,-0.00244558897100098
-0.005498674784394251,-0.002577243202018969
-0.005498334784394251,-0.003005119452828451
-0.005497994784394251,-0.002774724548546551
-0.005497654784394251,-0.003301341472618507
-0.005497314784394251,-0.002972205895073894
-0.005496974784394251,-0.00244558897100098
-0.005496634784394251,-0.00185314493142003
-0.005496294784394251,-0.0009315653142913533
-0.005495954784394251,-0.0005366026212366681
-0.005495614784394251,-0.0007669975255181487
-0.005495274784394251,-0.0003391212747093254
-0.005494934784394251,-7.581281267286857e-05
-0.005494594784394251,-9.985697163874096e-06
-0.005494254784394251,-0.0001416399281819828
-0.005493914784394251,-0.001096133103064139
-0.005493574784394251,-0.00191897204692657
-0.005493234784394251,-0.002050626277946295
-0.005492894784394251,-0.002873465221810222
-0.005492554784394251,-0.003465909261391173
-0.005492214784394251,-0.003301341472619465
-0.005491874784394251,-0.003301341472619465
-0.005491534784394251,-0.00336716858812846
-0.005491194784394251,-0.003400082145883136
-0.005490854784394251,-0.003498822819146808
-0.005490514784394251,-0.003202600799355794
-0.005490174784394251,-0.003005119452828451
-0.005489834784394251,-0.002248107624473638
-0.005489494784394251,-0.002643070317528323
-0.005489154784394251,-0.002116453393455409
-0.005488814784394251,-0.002346848297737309
-0.005488474784394251,-0.00188605848917351
-0.00548813478439425,-0.001622750027134179
-0.005487794784394251,-4.289925491831147e-05
-0.005487454784394251,0.0008128532467001733
-0.00548711478439425,0.002162309114637493
-0.005486774784394251,0.002425617576673472
-0.005486434784394251,0.001931914210355115
-0.00548609478439425,0.0008128532466978982
-0.005485754784394251,-0.0004378619479729968
-0.005485414784394251,-0.00119487377632781
-0.00548507478439425,-0.001589836469383274
-0.005484734784394251,-0.002017712720191738
-0.005484394784394251,-0.001359441565100596
-0.00548405478439425,-0.0008328246410261853
-0.005483714784394251,-9.985697163754359e-06
-0.005483374784394251,0.0004508041114000451
-0.00548303478439425,0.0009445074777184018
-0.005482694784394251,0.0009445074777184018
-0.005482354784394251,0.0002204092071181454
-0.00548201478439425,-0.001030305987557
-0.005481674784394251,-0.002116453393455409
-0.005481334784394251,-0.003038033010583008
-0.00548099478439425,-0.002939292337320714
-0.005480654784394251,-0.00369630416567415
-0.005480314784394251,-0.003531736376901365
-0.00547997478439425,-0.00372921772342739
-0.005479634784394251,-0.003005119452828451
-0.005479294784394251,-0.003038033010583008
-0.005478954784394251,-0.003992526185463428
-0.005478614784394251,-0.009357436099457973
-0.005478274784394251,-0.0210746626600803
-0.005477934784394251,-0.04088862442828764
-0.005477594784394251,-0.06833853159562431
-0.005477254784394251,-0.1007254724261085
-0.005476914784394251,-0.1351201402795581
-0.005476574784394251,-0.1682970064962143
-0.005476234784394251,-0.1969976288581881
-0.005475894784394251,-0.2196421565932822
-0.005475554784394251,-0.2354406643155108
-0.005475214784394251,-0.2454134723151415
-0.005474874784394251,-0.2499226297275077
-0.005474534784394251,-0.2501530246317978
-0.005474194784394251,-0.2468945824140966
-0.005473854784394251,-0.2412992775958321
-0.005473514784394251,-0.2346178253716468
-0.005473174784394251,-0.2276730646854353
-0.005472834784394251,-0.2212878344810628
-0.005472494784394251,-0.2147051229301398
-0.005472154784394251,-0.2091756452273742
-0.005471814784394251,-0.2027904150230017
-0.005471474784394251,-0.1964710119341151
-0.005471134784394251,-0.1895591648056582
-0.005470794784394251,-0.1824498363306867
-0.005470454784394251,-0.1749784587203893
-0.005470114784394251,-0.1678033031298959
-0.005469774784394251,-0.1611876780212299
-0.005469434784394251,-0.1552632376254096
-0.005469094784394251,-0.1500958090579442
-0.005468754784394251,-0.1455537380878153
-0.005468414784394251,-0.1414395433684957
-0.005468074784394251,-0.137325348649176
-0.005467734784394251,-0.1329807590255745
-0.00546739478439425,-0.1283070338244274
-0.005467054784394251,-0.1241599255473532
-0.005466714784394251,-0.1192558054419242
-0.00546637478439425,-0.1145820802407686
-0.005466034784394251,-0.1099412685973845
-0.005465694784394251,-0.1055637654160284
-0.00546535478439425,-0.1013837435811931
-0.005465014784394251,-0.09776325222819837
-0.005464674784394251,-0.09486685914579734
-0.00546433478439425,-0.09233251519869161
-0.005463994784394251,-0.08966651702057732
-0.005463654784394251,-0.08732965442000376
-0.00546331478439425,-0.08459782912637072
-0.005462974784394251,-0.08196474450601096
-0.005462634784394251,-0.07873921584606436
-0.00546229478439425,-0.07492124314652879
-0.005461954784394251,-0.07110327044700709
-0.005461614784394251,-0.06817396380685153
-0.00546127478439425,-0.06514591649342681
-0.005460934784394251,-0.06215078273776757
-0.005460594784394251,-0.0604392777345306
-0.00546025478439425,-0.05836572359599021
-0.005459914784394251,-0.05655547791949286
-0.005459574784394251,-0.05471231868523767
-0.00545923478439425,-0.05313246791301587
-0.005458894784394251,-0.05145387646753651
-0.005458554784394251,-0.0502360748306179
-0.00545821478439425,-0.0494132358867517
-0.005457874784394251,-0.0481625206920808
-0.005457534784394251,-0.04671432415088029
-0.005457194784394251,-0.04566109030273638
-0.005456854784394251,-0.04348879549093369
-0.005456514784394251,-0.04174437692994216
-0.005456174784394251,-0.04003287192670831
-0.005455834784394251,-0.03858467538550468
-0.005455494784394251,-0.03687317038226771
-0.005455154784394251,-0.03578702297636931
-0.005454814784394251,-0.0342729993196577
-0.005454474784394251,-0.03282480277845719
-0.005454134784394251,-0.03137660623725932
-0.005453794784394251,-0.02963218767626515
-0.005453454784394251,-0.02828273180832831
-0.005453114784394251,-0.02765737421099286
-0.005452774784394251,-0.02676870815161868
-0.005452434784394251,-0.02716367084467337
-0.005452094784394251,-0.02739406574895485
-0.005451754784394251,-0.02739406574895527
-0.005451414784394251,-0.02690036238263691
-0.005451074784394251,-0.02666996747835543
-0.005450734784394251,-0.02588004209224564
-0.005450394784394251,-0.0245305862243088
-0.005450054784394251,-0.02288490833658394
-0.005449714784394251,-0.02160127958415322
-0.005449374784394251,-0.02110757621783486
-0.005449034784394251,-0.02025182371621793
-0.005448694784394251,-0.01972520679214346
-0.005448354784394251,-0.0185403187129794
-0.005448014784394251,-0.01768456621136092
-0.005447674784394251,-0.01696046794076066
-0.005447334784394251,-0.01574266630384205
-0.005446994784394251,-0.01515022226426002
-0.00544665478439425,-0.01429446976264154
-0.005446314784394251,-0.01324123591449571
-0.005445974784394251,-0.01278044610593191
-0.00544563478439425,-0.01301084101021483
-0.005445294784394251,-0.01357037149204128
-0.005444954784394251,-0.01495274091773268
-0.00544461478439425,-0.0158084934193517
-0.005444274784394251,-0.01610471543914218
-0.005443934784394251,-0.01656550524770598
-0.00544359478439425,-0.01617054255465111
-0.005443254784394251,-0.01607180188138762
-0.005442914784394251,-0.01544644428405104
-0.00544257478439425,-0.01482108668671374
-0.005442234784394251,-0.01442612399365977
-0.005441894784394251,-0.01347163081877761
-0.00544155478439425,-0.01281335966368599
-0.005441214784394251,-0.01255005120165001
-0.005440874784394251,-0.01182595293104976
-0.00544053478439425,-0.01215508850859551
-0.005440194784394251,-0.012253829181859
-0.005439854784394251,-0.01199052071982254
-0.00543951478439425,-0.01156264446901276
-0.005439174784394251,-0.01126642244922228
-0.005438834784394251,-0.01080563264065849
-0.00543849478439425,-0.0108385461984119
-0.005438154784394251,-0.01021318860107646
-0.005437814784394251,-0.009061214079666959
-0.00543747478439425,-0.008271288693555793
-0.005437134784394251,-0.007283881960920875
-0.005436794784394251,-0.005506549842174791
-0.005436454784394251,-0.004749538013821355
-0.005436114784394251,-0.004190007531992507
-0.005435774784394251,-0.003860871954446936
-0.005435434784394251,-0.003860871954446936
-0.005435094784394251,-0.003860871954446936
-0.005434754784394251,-0.004190007531992507
-0.005434414784394251,-0.005045760033609435
-0.005434074784394251,-0.005901512535229476
-0.005433734784394251,-0.006098993881756819
-0.005433394784394251,-0.006428129459301792
-0.005433054784394251,-0.00688891926786619
-0.005432714784394251,-0.007415536191939104
-0.005432374784394251,-0.007810498884993071
-0.005432034784394251,-0.008468770040084931
-0.005431694784394251,-0.009028300521912402
-0.005431354784394251,-0.009554917445984358
-0.005431014784394251,-0.01057523773637659
-0.005430674784394251,-0.01054232417862203
-0.005430334784394251,-0.009686571677005099
-0.005429994784394251,-0.00869916494436683
-0.005429654784394251,-0.007349709076429989
-0.005429314784394251,-0.005605290515441635
-0.005428974784394251,-0.004222921089747064
-0.005428634784394251,-0.003531736376901365
-0.005428294784394251,-0.003169687241601895
-0.005427954784394251,-0.004091266858728836
-0.005427614784394251,-0.00517741426462922
-0.005427274784394251,-0.00517741426462922
-0.005426934784394251,-0.004584970225047193
-0.005426594784394251,-0.004321661763010735
-0.005426254784394251,-0.003827958396692379
-0.005425914784394251,-0.003301341472619465
-0.005425574784394251,-0.002544329644264652
-0.005425234784394251,-0.002577243202019209
-0.00542489478439425,-0.003038033010583008
-0.005424554784394251,-0.003038033010583008
-0.005424214784394251,-0.003103860126092122
-0.00542387478439425,-0.003400082145884214
-0.005423534784394251,-0.003992526185465165
-0.005423194784394251,-0.004321661763010735
-0.00542285478439425,-0.004815365129330888
-0.005422514784394251,-0.005802771861965805
-0.005422174784394251,-0.006493956574811504
-0.00542183478439425,-0.006033166766247465
-0.005421494784394251,-0.005901512535229476
-0.005421154784394251,-0.00517741426462922
-0.00542081478439425,-0.004321661763009478
-0.005420474784394251,-0.003630477050165036
-0.005420134784394251,-0.002346848297737309
-0.00541979478439425,-0.001293614449589985
-0.005419454784394251,-0.0004707755057275538
-0.005419114784394251,0.0003520634381363738
-0.00541877478439425,0.0006482854579269088
-0.005418434784394251,0.0003849769958909309
-0.005418094784394251,0.0001545820916090312
-0.00541775478439425,5.584141834344404e-05
-0.005417414784394251,-0.0009973924298004675
-0.005417074784394251,-0.00165566358489161
