Analysis/New Tests_CMB/wrd01_d2s01/cmb01_ch45.csv

#Digilent WaveForms Oscilloscope Acquisition
#Device Name: ADP3450
#Serial Number: SN:210018B9D9B0
#Date Time: 2024-08-14 15:06:57.776.005.950
#Sample rate: 5.88235e+06Hz
#Samples: 32768
#Trigger: Source: Channel 3 Type: Edge Condition: Rising Level: 90 mV Hyst.: Auto HoldOff: 0 s
#Channel 3: Range: 100 mV/div Offset: 0 V Attenuation: 1 X Coupling: DC Bandwidth: 0 Hz Sample Mode: Average

Time (s),Channel 3 (V)
-0.003798429465086408,0.2342358048420192
-0.003798259465086408,0.2440440450528915
-0.003798089465086408,0.2519103853562163
-0.003797919465086408,0.2582297884450913
-0.003797749465086408,0.2631009949927734
-0.003797579465086408,0.2673139303853491
-0.003797409465086408,0.2699470150057136
-0.003797239465086408,0.2714939522201794
-0.003797069465086408,0.2723826182795508
-0.003796899465086408,0.2723826182795508
-0.003796729465086408,0.2717243471244573
-0.003796559465086408,0.2704078048142775
-0.003796389465086408,0.2686304726955314
-0.003796219465086408,0.2660961287484251
-0.003796049465086408,0.2631668221082749
-0.003795879465086408,0.2597767256595555
-0.003795709465086408,0.2561891478643024
-0.003795539465086408,0.2526673971845712
-0.003795369465086408,0.2483557211187242
-0.003795199465086408,0.2445706619769422
-0.003795029465086408,0.2402260723533486
-0.003794859465086408,0.2362435318650472
-0.003794689465086409,0.231931855799208
-0.003794519465086408,0.2278505746376351
-0.003794349465086408,0.2241313426113701
-0.003794179465086409,0.2203133699118485
-0.003794009465086408,0.2167916192321039
-0.003793839465086408,0.214257275285003
-0.003793669465086409,0.2112621415293437
-0.003793499465086408,0.2078391315228644
-0.003793329465086408,0.2049756519982179
-0.003793159465086409,0.1987879031403724
-0.003792989465086408,0.1976030150611971
-0.003792819465086408,0.1939496101504413
-0.003792649465086409,0.1905266001439735
-0.003792479465086408,0.1870706765797388
-0.003792309465086408,0.1834830987844921
-0.003792139465086409,0.179500558296198
-0.003791969465086408,0.175616758481153
-0.003791799465086408,0.1724241433789609
-0.003791629465086409,0.1677175046200678
-0.003791459465086408,0.1659730860590677
-0.003791289465086408,0.1616943235509753
-0.003791119465086409,0.1585017084487891
-0.003790949465086408,0.1556053153663823
-0.003790779465086408,0.1522481324754174
-0.003790609465086409,0.1494833936240396
-0.003790439465086408,0.1467844818881609
-0.003790269465086408,0.1443159650565692
-0.003790099465086409,0.1419791024559956
-0.003789929465086408,0.1394118449511401
-0.003789759465086408,0.1368775010040393
-0.003789589465086409,0.1346064655189748
-0.003789419465086408,0.132434170707174
-0.003789249465086408,0.1296694318557912
-0.003789079465086409,0.1273325692552177
-0.003788909465086408,0.1250944473279039
-0.003788739465086408,0.1229221525161071
-0.003788569465086408,0.1212106475128701
-0.003788399465086408,0.1197953645294211
-0.003788229465086408,0.1181167730839417
-0.003788059465086408,0.1160432189454046
-0.003787889465086408,0.1134759614405487
-0.003787719465086408,0.1132455665362672
-0.003787549465086408,0.1118302835528213
-0.003787379465086408,0.1108428768201819
-0.003787209465086408,0.1093617667212295
-0.003787039465086408,0.1078806566222744
-0.003786869465086408,0.1067286821008614
-0.003786699465086408,0.1047867821933461
-0.003786529465086408,0.1032069314211273
-0.003786359465086408,0.1012321179558509
-0.003786189465086408,0.0995535265103715
-0.003786019465086408,0.09787493506488909
-0.003785849465086408,0.09609760294613899
-0.003785679465086408,0.09389239457658768
-0.003785509465086408,0.09227963024661437
-0.003785339465086408,0.08971237274175514
-0.003785169465086408,0.08763881860322181
-0.003784999465086408,0.08497282042510271
-0.003784829465086408,0.08322840186410699
-0.003784659465086408,0.08092445282129218
-0.003784489465086408,0.07878507156724596
-0.003784319465086409,0.07740270214155708
-0.003784149465086408,0.07618490050463594
-0.003783979465086408,0.07526332088750834
-0.003783809465086409,0.0711491261681962
-0.003783639465086408,0.07286063117142569
-0.003783469465086408,0.07213653290082542
-0.003783299465086409,0.07167574309226246
-0.003783129465086408,0.07062250924411581
-0.003782959465086408,0.07003006520453378
-0.003782789465086409,0.06930596693393483
-0.003782619465086408,0.06845021443231503
-0.003782449465086408,0.06726532635315097
-0.003782279465086409,0.06617917894725256
-0.003782109465086408,0.06466515529054095
-0.003781939465086408,0.06433601971299538
-0.003781769465086409,0.06278908249853403
-0.003781599465086408,0.06163710797712171
-0.003781429465086408,0.06048513345571221
-0.003781259465086409,0.05870780133696936
-0.003781089465086408,0.05758874037331118
-0.003780919465086408,0.05683172854495637
-0.003780749465086409,0.05607471671660293
-0.003780579465086408,0.05508730998396484
-0.003780409465086408,0.05446195238662826
-0.003780239465086409,0.05367202700052032
-0.003780069465086408,0.05344163209623699
-0.003779899465086408,0.05298084228767319
-0.003779729465086409,0.0530466694031823
-0.003779559465086408,0.05268462026788218
-0.003779389465086408,0.05291501517216408
-0.003779219465086409,0.05248713892135483
-0.003779049465086408,0.05205926267054559
-0.003778879465086408,0.0512035101689271
-0.003778709465086409,0.05110476949566344
-0.003778539465086408,0.0502819305517995
-0.003778369465086408,0.04998570853200849
-0.003778199465086409,0.04929452381916279
-0.003778029465086408,0.04876790689508976
-0.003777859465086408,0.04870207977958076
-0.003777689465086408,0.04787924083571684
-0.003777519465086408,0.04718805612286904
-0.003777349465086408,0.04603608160146164
-0.003777179465086408,0.04501576131107037
-0.003777009465086408,0.04366630544313179
-0.003776839465086408,0.04271181226825137
-0.003776669465086408,0.04165857842010554
-0.003776499465086408,0.04060534457195852
-0.003776329465086408,0.03994707341686857
-0.003776159465086408,0.03853179043342262
-0.003775989465086408,0.03761021081629316
-0.003775819465086408,0.03658989052590375
-0.003775649465086408,0.03543791600449425
-0.003775479465086408,0.03464799061838416
-0.003775309465086408,0.03425302792533019
-0.003775139465086408,0.03372641100125728
-0.003774969465086408,0.03300231273065601
-0.003774799465086408,0.03244278224882955
-0.003774629465086408,0.03178451109373841
-0.003774459465086408,0.03306813984616345
-0.003774289465086408,0.03158702974721107
-0.003774119465086408,0.03036922811029246
-0.003773949465086408,0.0292172535888823
-0.003773779465086408,0.02885520445358283
-0.003773609465086408,0.0289539451268465
-0.003773439465086409,0.02875646378031952
-0.003773269465086408,0.02793362483645523
-0.003773099465086408,0.0280323655097189
-0.003772929465086409,0.026913304546066
-0.003772759465086408,0.0266499960840275
-0.003772589465086408,0.02566258935139079
-0.003772419465086409,0.02516888598507333
-0.003772249465086408,0.02460935550324496
-0.003772079465086408,0.02381943011713559
-0.003771909465086409,0.02381943011713559
-0.003771739465086408,0.02335864030857179
-0.003771569465086408,0.02286493694225343
-0.003771399465086409,0.0221079251139
-0.003771229465086408,0.02207501155614406
-0.003771059465086408,0.02168004886308938
-0.003770889465086409,0.02154839463207139
-0.003770719465086408,0.02135091328554381
-0.003770549465086408,0.02158130818982571
-0.003770379465086409,0.0216471353053347
-0.003770209465086408,0.02210792511389862
-0.003770039465086408,0.02207501155614406
-0.003769869465086409,0.02207501155614406
-0.003769699465086408,0.02246997424919875
-0.003769529465086408,0.02293076405776255
-0.003769359465086409,0.02286493694225343
-0.003769189465086408,0.02329281319306268
-0.003769019465086408,0.02335864030857179
-0.003768849465086409,0.02339155386632635
-0.003768679465086408,0.02283202338449888
-0.003768509465086408,0.02233832001818052
-0.003768339465086409,0.02220666578716229
-0.003768169465086408,0.0217458759785985
-0.003767999465086408,0.02125217261228014
-0.003767829465086409,0.02085720991922545
-0.003767659465086408,0.020495160783924
-0.003767489465086408,0.01977106251332507
-0.003767319465086408,0.01977106251332507
-0.003767149465086408,0.01924444558925197
-0.003766979465086408,0.01914570491598848
-0.003766809465086408,0.01894822356946114
-0.003766639465086408,0.01868491510742439
-0.003766469465086408,0.0185203473186519
-0.003766299465086408,0.01865200154967013
-0.003766129465086408,0.01838869308763403
-0.003765959465086408,0.01858617443416101
-0.003765789465086408,0.01855326087640645
-0.003765619465086408,0.01819121174110579
-0.003765449465086408,0.01789498972131531
-0.003765279465086408,0.0175987677015243
-0.003765109465086408,0.01697341010419184
-0.003764939465086408,0.01924444558925215
-0.003764769465086408,0.0139124492330139
-0.003764599465086408,0.01608474404481335
-0.003764429465086408,0.01536064577421441
-0.003764259465086408,0.01522899154319619
-0.003764089465086408,0.01483402885014096
-0.003763919465086408,0.01453780683035049
-0.003763749465086408,0.01447197971484137
-0.003763579465086408,0.01443906615708712
-0.003763409465086408,0.0146036339458596
-0.003763239465086408,0.0143732390415777
-0.003763069465086409,0.01473528817687717
-0.003762899465086408,0.01381370855975023
-0.003762729465086408,0.01397827634852302
-0.003762559465086409,0.01368205432873254
-0.003762389465086408,0.01348457298220466
-0.003762219465086408,0.01338583230894099
-0.003762049465086409,0.01358331365546797
-0.003761879465086408,0.01381370855975023
-0.003761709465086408,0.01447197971484137
-0.003761539465086409,0.01434032548382338
-0.003761369465086408,0.01473528817687783
-0.003761199465086408,0.01496568308115973
-0.003761029465086409,0.01473528817687825
-0.003760859465086408,0.01453780683035049
-0.003760689465086408,0.01466946106136872
-0.003760519465086409,0.01440615259933274
-0.003760349465086408,0.01361622721322289
-0.003760179465086408,0.01381370855975023
-0.003760009465086409,0.01308961028915129
-0.003759839465086408,0.01341874586669555
-0.003759669465086408,0.01351748653995922
-0.003759499465086409,0.01302378317364176
-0.003759329465086408,0.01295795605813175
-0.003759159465086408,0.01282630182711352
-0.003758989465086409,0.013056696731395
-0.003758819465086408,0.01243133913405883
-0.003758649465086408,0.0122996849030406
-0.003758479465086409,0.01226677134528605
-0.003758309465086408,0.01220094422977693
-0.003758139465086408,0.01233259846079516
-0.003757969465086409,0.01239842557630427
-0.003757799465086408,0.0125300798073225
-0.003757629465086408,0.01213511711426782
-0.003757459465086409,0.01190472220998592
-0.003757289465086408,0.01193763576774006
-0.003757119465086408,0.01170724086345858
-0.003756949465086409,0.0116085001901949
-0.003756779465086408,0.01121353749714052
-0.003756609465086408,0.011378105285913
-0.003756439465086408,0.01131227817040389
-0.003756269465086408,0.01108188326612145
-0.003756099465086408,0.01078566124633098
-0.003755929465086408,0.01068692057306731
-0.003755759465086408,0.01025904432225812
-0.003755589465086408,0.01029195788001262
-0.003755419465086408,0.01193763576774048
-0.003755249465086408,0.01091731547734753
-0.003755079465086408,0.009995735860221606
-0.003754909465086408,0.01052235278429452
-0.003754739465086408,0.01068692057306737
-0.003754569465086408,0.01071983413082186
-0.003754399465086408,0.01104896970836743
-0.003754229465086408,0.0109502290351043
-0.003754059465086408,0.01124645105489478
-0.003753889465086408,0.01098314259285832
-0.003753719465086408,0.01144393240142092
-0.003753549465086408,0.01078566124633098
-0.003753379465086408,0.01075274768857642
-0.003753209465086408,0.01039069855327605
-0.003753039465086408,0.01025904432225806
-0.003752869465086408,0.01009447653348528
-0.003752699465086409,0.01009447653348528
-0.003752529465086408,0.01058817989980363
-0.003752359465086408,0.01098314259285832
-0.003752189465086409,0.01164141374794826
-0.003752019465086408,0.01197054932549503
-0.003751849465086408,0.01203637644100415
-0.003751679465086409,0.01223385778753113
-0.003751509465086408,0.0122996849030406
-0.003751339465086408,0.01269464759609529
-0.003751169465086409,0.01282630182711328
-0.003750999465086408,0.01305669673139542
-0.003750829465086408,0.01295795605813175
-0.003750659465086409,0.01295795605813175
-0.003750489465086408,0.01272756115384985
-0.003750319465086408,0.01266173403834073
-0.003750149465086409,0.01193763576774179
-0.003749979465086408,0.01193763576774048
-0.003749809465086408,0.01091731547734921
-0.003749639465086409,0.01055526634204974
-0.003749469465086408,0.009699513840430593
-0.003749299465086408,0.009929908744712493
-0.003749129465086409,0.009436205378395034
-0.003748959465086408,0.009139983358603122
-0.003748789465086408,0.00881084778105755
-0.003748619465086409,0.008679193550039561
-0.003748449465086408,0.008415885088002865
-0.003748279465086408,0.008317144414739193
-0.003748109465086409,0.008053835952702737
-0.003747939465086408,0.007724700375157166
-0.003747769465086408,0.007856354606175394
-0.003747599465086409,0.007296824124347924
-0.003747429465086408,0.00756013258638438
-0.003747259465086408,0.007198083451084253
-0.003747089465086409,0.007428478355366152
-0.003746919465086408,0.007165169893329695
-0.003746749465086408,0.007099342777820581
-0.003746579465086409,0.007658873259648051
-0.003746409465086408,0.008152576625967667
-0.003746239465086408,0.008843761338812107
-0.003746069465086408,0.01144393240142212
-0.003745899465086408,0.01144393240142056
-0.003745729465086408,0.01058817989980363
-0.003745559465086408,0.01029195788001262
-0.003745389465086408,0.01157558663243951
-0.003745219465086408,0.01111479682387655
-0.003745049465086408,0.01141101884366756
-0.003744879465086408,0.01180598153672177
-0.003744709465086408,0.01154267307468579
-0.003744539465086408,0.0116085001901949
-0.003744369465086408,0.01071983413082174
-0.003744199465086408,0.01065400701531275
-0.003744029465086408,0.01022613076450351
-0.003743859465086408,0.01029195788001268
-0.003743689465086408,0.01032487143776718
-0.003743519465086408,0.01062109345755819
-0.003743349465086408,0.01078566124633032
-0.003743179465086408,0.01042361211103085
-0.003743009465086408,0.01078566124633098
-0.003742839465086408,0.01078566124633176
-0.003742669465086408,0.01121353749714022
-0.003742499465086408,0.01104896970836743
-0.003742329465086408,0.0109502290351037
-0.003742159465086408,0.01091731547734921
-0.003741989465086408,0.01124645105489478
-0.003741819465086409,0.009929908744714888
-0.003741649465086408,0.00904124268533945
-0.003741479465086408,0.008448798645757422
-0.003741309465086409,0.008876674896565885
-0.003741139465086408,0.008415885088002865
-0.003740969465086408,0.008448798645757422
-0.003740799465086409,0.008481712203511918
-0.003740629465086408,0.008481712203511979
-0.003740459465086408,0.008350057972493751
-0.003740289465086409,0.008876674896565706
-0.003740119465086408,0.008745020665548437
-0.003739949465086408,0.009238724031866792
-0.003739779465086409,0.00963368672492076
-0.003739609465086408,0.01025904432225806
-0.003739439465086408,0.01052235278429452
-0.003739269465086409,0.01101605615061198
-0.003739099465086408,0.01141101884366756
-0.003738929465086408,0.01157558663244035
-0.003738759465086409,0.01183889509447632
-0.003738589465086408,0.01226677134528605
-0.003738419465086408,0.01259590692283162
-0.003738249465086409,0.01243133913405913
-0.003738079465086408,0.01249716624956795
-0.003737909465086408,0.01233259846079516
-0.003737739465086409,0.01229968490304066
-0.003737569465086408,0.01197054932549503
-0.003737399465086408,0.01190472220998592
-0.003737229465086409,0.0125300798073225
-0.003737059465086408,0.0120692899987587
-0.003736889465086408,0.01289212894262263
-0.003736719465086409,0.01259590692283162
-0.003736549465086408,0.01592017625604189
-0.003736379465086408,0.01338583230894099
-0.003736209465086409,0.01289212894262263
-0.003736039465086408,0.01289212894262257
-0.003735869465086408,0.01285921538486808
-0.003735699465086408,0.01285921538486808
-0.003735529465086408,0.01305669673139386
-0.003735359465086408,0.01220094422977693
-0.003735189465086408,0.01200346288324959
-0.003735019465086408,0.01160850019019419
-0.003734849465086408,0.01121353749714022
-0.003734679465086408,0.01078566124633098
-0.003734509465086408,0.01048943922653972
-0.003734339465086408,0.01035778499552173
-0.003734169465086408,0.009436205378394135
-0.003733999465086408,0.008745020665547838
-0.003733829465086408,0.008415885088002865
-0.003733659465086408,0.008350057972493751
-0.003733489465086408,0.007955095279439127
-0.003733319465086408,0.007988008837193623
-0.003733149465086408,0.007823441048420837
-0.003732979465086408,0.00775761393291268
-0.003732809465086408,0.008284230856984636
-0.003732639465086408,0.008382971530248308
-0.003732469465086408,0.0084158850880052
-0.003732299465086408,0.009699513840430593
-0.003732129465086408,0.009896995186957936
-0.003731959465086408,0.0103248714377676
-0.003731789465086408,0.01055526634204908
-0.003731619465086408,0.01055526634204908
-0.003731449465086409,0.01104896970836653
-0.003731279465086408,0.01085148836184009
-0.003731109465086408,0.01055526634204908
-0.003730939465086409,0.01052235278429458
-0.003730769465086408,0.01009447653348528
-0.003730599465086408,0.009370378262885021
-0.003730429465086409,0.009205810474112536
-0.003730259465086408,0.008745020665548437
-0.003730089465086408,0.008382971530248308
-0.003729919465086409,0.007889268163930849
-0.003729749465086408,0.007395564797611595
-0.003729579465086408,0.007132256335575138
-0.003729409465086409,0.006770207200275668
-0.003729239465086408,0.006572725853747667
-0.003729069465086408,0.006408158064974882
-0.003728899465086409,0.006473985180483876
-0.003728729465086408,0.006473985180483996
-0.003728559465086408,0.006506898738238553
-0.003728389465086409,0.006375244507220564
-0.003728219465086408,0.006375244507220324
-0.003728049465086408,0.006243590276202096
-0.003727879465086409,0.006506898738238075
-0.003727709465086408,0.006803120758029567
-0.003727539465086408,0.007066429220066024
-0.003727369465086409,0.00759304614413798
-0.003727199465086408,0.008350057972493751
-0.003727029465086408,0.006934774989047795
-0.003726859465086409,0.009534946051657807
-0.003726689465086408,0.01045652566878541
-0.003726519465086408,0.01177306797896769
-0.003726349465086409,0.01213511711426782
-0.003726179465086408,0.0125300798073225
-0.003726009465086408,0.0129908696158863
-0.003725839465086409,0.0132212645201682
-0.003725669465086408,0.01335291875118643
-0.003725499465086408,0.01292504250037719
-0.003725329465086409,0.01397827634852302
-0.003725159465086408,0.01332000519343223
-0.003724989465086408,0.01351748653995922
-0.003724819465086408,0.01315543740465909
-0.003724649465086408,0.01259590692283144
-0.003724479465086408,0.01249716624956795
-0.003724309465086408,0.01256299336507706
-0.003724139465086408,0.01193763576774041
-0.003723969465086408,0.01190472220998592
-0.003723799465086408,0.01170724086345858
-0.003723629465086408,0.01111479682387763
-0.003723459465086408,0.01170724086345858
-0.003723289465086408,0.01141101884366756
-0.003723119465086408,0.01114771038163129
-0.003722949465086408,0.01124645105489478
-0.003722779465086408,0.01081857480408553
-0.003722609465086408,0.01062109345755849
-0.003722439465086408,0.01078566124633098
-0.003722269465086408,0.01075274768857642
-0.003722099465086408,0.01055526634204872
-0.003721929465086408,0.01035778499552173
-0.003721759465086408,0.00973242739818515
-0.003721589465086408,0.009798254513694923
-0.003721419465086408,0.01016030364899439
-0.003721249465086408,0.01065400701531275
-0.003721079465086408,0.01025904432225848
-0.003720909465086408,0.01048943922653996
-0.003720739465086408,0.01058817989980363
-0.003720569465086409,0.01039069855327665
-0.003720399465086408,0.01048943922653996
-0.003720229465086408,0.01039069855327629
-0.003720059465086409,0.01081857480408475
-0.003719889465086408,0.01131227817040389
-0.003719719465086408,0.01071983413082186
-0.003719549465086409,0.01071983413082186
-0.003719379465086408,0.01075274768857642
-0.003719209465086408,0.01068692057306731
