Analysis/New Tests_CMB/wrd01_d2s01/cmb07_ch26.csv

#Digilent WaveForms Oscilloscope Acquisition
#Device Name: ADP3450
#Serial Number: SN:210018B9D9B0
#Date Time: 2024-08-07 10:32:27.627.326.240
#Sample rate: 2.94118e+06Hz
#Samples: 32768
#Trigger: Source: Channel 3 Type: Edge Condition: Rising Level: 0 V Hyst.: Auto HoldOff: 0 s
#Channel 3: Range: 200 mV/div Offset: 0 V Attenuation: 1 X Coupling: DC Bandwidth: 0 Hz Sample Mode: Average

Time (s),Channel 3 (V)
-0.005570421875,0.009271637589621349
-0.005570081875,0.009074156243093707
-0.005569741875,0.008909588454321223
-0.005569401875,0.009205810474112236
-0.005569061875,0.008975415569830935
-0.005568721875,0.009304551147375908
-0.005568381875,0.009469118936148692
-0.005568041875,0.009041242685338072
-0.005567701875,0.008284230856984636
-0.005567361875,0.007955095279439066
-0.005567021875,0.008415885088002804
-0.005566681875,0.008382971530248308
-0.005566341875,0.00871210710779388
-0.005566001875,0.00904124268533987
-0.005565661875,0.009271637589621349
-0.005565321875,0.009304551147375908
-0.005564981875,0.009600773167168477
-0.005564641875,0.01045652566878541
-0.005564301875,0.01104896970836743
-0.005563961875,0.01141101884366774
-0.005563621875,0.01150975951693123
-0.005563281875,0.01164141374794946
-0.005562941875,0.0111806239393865
-0.005562601875,0.01065400701531275
-0.005562261875,0.009765340955939707
-0.005561921875,0.009337464705131244
-0.005561581875,0.009600773167166921
-0.005561241875,0.01006156297573072
-0.005560901875,0.01104896970836564
-0.005560561875,0.01226677134528605
-0.005560221875,0.01279338826935896
-0.005559881875,0.01266173403834097
-0.005559541875,0.01187180865223136
-0.005559201875,0.01121353749714022
-0.005558861875,0.009798254513696838
-0.005558521875,0.008777934223302994
-0.005558181875,0.007823441048420837
-0.005557841875,0.007395564797612373
-0.005557501875,0.00973242739818515
-0.005557161875,0.0173683727972424
-0.005556821875,0.03237695513329314
-0.005556481875,0.05643676585190169
-0.005556141875,0.08747425081444904
-0.005555801875,0.1223626220342161
-0.005555461875,0.1577117830626739
-0.005555121875,0.1903620323551946
-0.005554781875,0.2179765073112177
-0.005554441875,0.2392386656207119
-0.005554101875,0.2539181123792443
-0.005553761875,0.2627389458574656
-0.005553421875,0.2669189676922944
-0.005553081875,0.2671822761543308
-0.005552741875,0.2642200559564207
-0.005552401875,0.2590526273889552
-0.005552061875,0.2530952734353804
-0.005551721875,0.2458872042871324
-0.005551381875,0.2391399249474334
-0.005551041875,0.2310102761820726
-0.005550701875,0.2227160596279242
-0.005550361875,0.2150142871133445
-0.005550021875,0.2076745637340916
-0.005549681875,0.2005323217013527
-0.005549341875,0.1934888203418663
-0.005549001875,0.1873668985995298
-0.005548661875,0.1815741124347278
-0.005548321875,0.1756167584811415
-0.005547981875,0.169297355392278
-0.005547641875,0.1625500760525938
-0.005547301875,0.1561319322904447
-0.005546961875,0.1503720596834077
-0.005546621875,0.1454021124624695
-0.005546281875,0.1407283872613154
-0.005545941875,0.1368775010040393
-0.005545601875,0.1330595283045106
-0.005545261875,0.1295377776247644
-0.005544921875,0.1247982253081168
-0.005544581875,0.1201903272224788
-0.005544241875,0.1155824291368319
-0.005543901875,0.1107112225891664
-0.005543561875,0.1061691516190375
-0.005543221875,0.1017916484376757
-0.005542881875,0.09866486045099845
-0.005542541875,0.09514310977126084
-0.005542201875,0.09181884043805663
-0.005541861875,0.08911992870217689
-0.005541521875,0.08675015254384877
-0.005541181875,0.08461077128980646
-0.005540841875,0.08233973580473813
-0.005540501875,0.07970665118437356
-0.005540161875,0.07756726993033122
-0.005539821875,0.0754608022340357
-0.005539481875,0.07328850742223492
-0.005539141875,0.07141243463022859
-0.005538801875,0.06927305337617895
-0.005538461875,0.06706784500662363
-0.005538121875,0.06427019259749138
-0.005537781875,0.06170293509263082
-0.005537441875,0.0588065420102298
-0.005537101875,0.05548227267702557
-0.005536761875,0.05334289142297332
-0.005536421875,0.05146681863096356
-0.005536081875,0.04952491872344823
-0.005535741875,0.04876790689508988
-0.005535401875,0.04801089506673507
-0.005535061875,0.04768175948919009
-0.005534721875,0.04725388323838025
-0.005534381875,0.04656269852553455
-0.005534041875,0.04534489688861815
-0.005533701875,0.04452205794475201
-0.005533361875,0.04369921900088809
-0.005533021875,0.04264598515274225
-0.005532681875,0.04195480043989656
-0.005532341875,0.04027620899441414
-0.005532001875,0.03922297514626832
-0.005531661875,0.03714942100773122
-0.005531321875,0.03589870581305805
-0.005530981875,0.03510878042694868
-0.005530641875,0.03398971946329374
-0.005530301875,0.03362767032799361
-0.005529961875,0.03349601609697538
-0.005529621875,0.03290357205739156
-0.005529281875,0.03191616532475664
-0.005528941875,0.03036922811029246
-0.005528601875,0.02908559935786299
-0.005528261875,0.02813110618298257
-0.005527921875,0.02770322993217333
-0.005527581875,0.02688039098830803
-0.005527241875,0.02612337915995459
-0.005526901875,0.02493849108079053
-0.005526561875,0.02395108434815178
-0.005526221875,0.02283202338449888
-0.005525881875,0.02204209799838951
-0.005525541875,0.0214167404010537
-0.005525201875,0.02184461665186217
-0.005524861875,0.02158130818982571
-0.005524521875,0.02138382684329699
-0.005524181875,0.02062681501494355
-0.005523841875,0.02000145741760697
-0.005523501875,0.01986980318658778
-0.005523161875,0.01934318626251582
-0.005522821875,0.01904696424272481
-0.005522481875,0.01858617443416071
-0.005522141875,0.01842160664538823
-0.005521801875,0.01865200154967013
-0.005521461875,0.01881656933844417
-0.005521121875,0.01950775405128861
-0.005520781875,0.01947484049353405
-0.005520441875,0.01927735914700707
-0.005520101875,0.01842160664538823
-0.005519761875,0.01726963212397873
-0.005519421875,0.01575560846727185
-0.005519081875,0.01493276952340517
-0.005518741875,0.01513025086993251
-0.005518401875,0.01522899154319601
-0.005518061875,0.01585434914053277
-0.005517721875,0.01618348471807834
-0.005517381875,0.01631513894909633
-0.005517041875,0.01588726269828733
-0.005516701875,0.01526190510095074
-0.005516361875,0.01526190510095074
-0.005516021875,0.01513025086993251
-0.005515681875,0.01509733731217796
-0.005515341875,0.01542647288972293
-0.005515001875,0.01519607798544163
-0.005514661875,0.01447197971484137
-0.005514321875,0.01305669673139799
-0.005513981875,0.01147684595917668
-0.005513641875,0.01029195788001262
-0.005513301875,0.009107069800850721
-0.005512961875,0.008481712203511979
-0.005512621875,0.008152576625966409
-0.005512281875,0.009107069800848565
-0.005511941875,0.009238724031866792
-0.005511601875,0.009995735860221606
-0.005511261875,0.01078566124633098
-0.005510921875,0.01174015442121313
-0.005510581875,0.0118388950944768
-0.005510241875,0.01187180865223136
-0.005509901875,0.01190472220998592
-0.005509561875,0.01236551201854972
-0.005509221875,0.01269464759609529
-0.005508881875,0.012562993365077
-0.005508541875,0.0125300798073225
-0.005508201875,0.01197054932549503
-0.005507861875,0.01131227817040281
-0.005507521875,0.01071983413082186
-0.005507181875,0.01035778499552173
-0.005506841875,0.01012739009124037
-0.005506501875,0.01042361211103085
-0.005506161875,0.01065400701531275
-0.005505821875,0.01121353749714148
-0.005505481875,0.01190472220998592
-0.005505141875,0.01256299336507706
-0.005504801875,0.01285921538486778
-0.005504461875,0.01269464759609529
-0.005504121875,0.01318835096241365
-0.005503781875,0.01295795605812977
-0.005503441875,0.01187180865223136
-0.005503101875,0.01081857480408553
-0.005502761875,0.00946911893614959
-0.005502421875,0.009962822302467049
-0.005502081875,0.009699513840430593
-0.005501741875,0.00979825451369558
-0.005501401875,0.01052235278429452
-0.005501061875,0.01075274768857642
-0.005500721875,0.01068692057306761
-0.005500381875,0.01085148836184009
-0.005500041875,0.01095022903510376
-0.005499701875,0.01068692057306778
-0.005499361875,0.01052235278429452
-0.005499021875,0.01002864941797616
-0.005498681875,0.009732427398185689
-0.005498341875,0.009337464705130465
-0.005498001875,0.009304551147375908
-0.005497661875,0.009139983358603422
-0.005497321875,0.009633686724921478
-0.005496981875,0.01065400701531275
-0.005496641875,0.01045652566878576
-0.005496301875,0.01058817989980363
-0.005495961875,0.01035778499552173
-0.005495621875,0.009896995186958774
-0.005495281875,0.009567859609412364
-0.005494941875,0.009798254513694264
-0.005494601875,0.00973242739818527
-0.005494261875,0.01002864941797616
-0.005493921875,0.01104896970836743
-0.005493581875,0.01114771038163092
-0.005493241875,0.01111479682387655
-0.005492901875,0.0118388950944768
-0.005492561875,0.01177306797896781
-0.005492221875,0.01190472220998592
-0.005491881875,0.01154267307468579
-0.005491541875,0.01045652566878738
-0.005491201875,0.009699513840430593
-0.005490861875,0.00871210710779388
-0.005490521875,0.008382971530248308
-0.005490181875,0.00802092239494818
-0.005489841875,0.008284230856984636
-0.005489501875,0.008547539319021094
-0.005489161875,0.008580452876775651
-0.005488821875,0.009107069800848565
-0.005488481875,0.009699513840430593
-0.005488141875,0.009567859609412184
-0.005487801875,0.009469118936148692
-0.005487461875,0.009205810474112236
-0.005487121875,0.008777934223302693
-0.005486781875,0.008613366434530208
-0.005486441875,0.008876674896566664
-0.005486101875,0.009304551147378123
-0.005485761875,0.01052235278429452
-0.005485421875,0.01111479682387655
-0.005485081875,0.01134519172815815
-0.005484741875,0.01118062393938566
-0.005484401875,0.01039069855327629
-0.005484061875,0.01002864941797688
-0.005483721875,0.01042361211103085
-0.005483381875,0.01006156297573072
-0.005483041875,0.01009447653348558
-0.005482701875,0.01025904432225806
-0.005482361875,0.01035778499552173
-0.005482021875,0.01052235278429494
-0.005481681875,0.01075274768857642
-0.005481341875,0.01121353749714022
-0.005481001875,0.01223385778753227
-0.005480661875,0.01266173403834073
-0.005480321875,0.01279338826935896
-0.005479981875,0.01259590692283012
-0.005479641875,0.01177306797896769
-0.005479301875,0.01091731547734921
-0.005478961875,0.009469118936151325
-0.005478621875,0.008382971530248308
-0.005478281875,0.007625959701893495
-0.005477941875,0.008382971530246931
-0.005477601875,0.008843761338812107
-0.005477261875,0.009139983358603122
-0.005476921875,0.01002864941797455
-0.005476581875,0.01071983413082186
-0.005476241875,0.01144393240142212
-0.005475901875,0.01154267307468561
-0.005475561875,0.01200346288324959
-0.005475221875,0.0116085001901949
-0.005474881875,0.01068692057306898
-0.005474541875,0.009929908744712493
-0.005474201875,0.008975415569830336
-0.005473861875,0.009304551147375309
-0.005473521875,0.00871210710779388
-0.005473181875,0.008218403741475522
-0.005472841875,0.008382971530248008
-0.005472501875,0.009008329127584893
-0.005472161875,0.009469118936148692
-0.005471821875,0.009271637589621708
-0.005471481875,0.009666600282676035
-0.005471141875,0.009469118936148692
-0.005470801875,0.00841588508800478
-0.005470461875,0.007691786817402609
-0.005470121875,0.007724700375157166
-0.005469781875,0.007132256335575138
-0.005469441875,0.007296824124347924
-0.005469101875,0.007757613932911723
-0.005468761875,0.008448798645757422
-0.005468421875,0.00950203249390325
-0.005468081875,0.01062109345755819
-0.005467741875,0.01131227817040389
-0.005467401875,0.01266173403834073
-0.005467061875,0.0134516594244501
-0.005466721875,0.01335291875118643
-0.005466381875,0.01243133913405704
-0.005466041875,0.01144393240142212
-0.005465701875,0.01085148836184009
-0.005465361875,0.01055526634204896
-0.005465021875,0.01048943922653996
-0.005464681875,0.009962822302467049
-0.005464341875,0.009798254513693785
-0.005464001875,0.009534946051657807
-0.005463661875,0.008646279992284765
-0.005463321875,0.008317144414739132
-0.005462981875,0.008284230856984636
-0.005462641875,0.007889268163929951
-0.005462301875,0.007593046144140854
-0.005461961875,0.008646279992284765
-0.005461621875,0.009600773167166921
-0.005461281875,0.01058817989980561
-0.005460941875,0.01167432730570402
-0.005460601875,0.0125300798073225
-0.005460261875,0.01190472220998346
-0.005459921875,0.01055526634204908
-0.005459581875,0.008613366434530208
-0.005459241875,0.007230997008836654
-0.005458901875,0.006046108929674754
-0.005458561875,0.005223269985810825
-0.005458221875,0.005519492005602079
-0.005457881875,0.005651146236620068
-0.005457541875,0.006605639411502225
-0.005457201875,0.007099342777819683
-0.005456861875,0.008284230856984636
-0.005456521875,0.009436205378394135
-0.005456181875,0.01029195788001106
-0.005455841875,0.01104896970836743
-0.005455501875,0.01131227817040389
-0.005455161875,0.01180598153672135
-0.005454821875,0.0118388950944768
-0.005454481875,0.01114771038163111
-0.005454141875,0.01058817989980465
-0.005453801875,0.01048943922653996
-0.005453461875,0.009765340955939707
-0.005453121875,0.009666600282676215
-0.005452781875,0.009271637589621349
-0.005452441875,0.009337464705130465
-0.005452101875,0.009567859609411944
-0.005451761875,0.008909588454321223
-0.005451421875,0.008547539319021094
-0.005451081875,0.008415885088003104
-0.005450741875,0.00779052749066628
-0.005450401875,0.007066429220066024
-0.005450061875,0.006934774989048035
-0.005449721875,0.007230997008838809
-0.005449381875,0.007856354606175394
-0.005449041875,0.00861336643452883
-0.005448701875,0.009666600282676035
-0.005448361875,0.01091731547734921
-0.005448021875,0.01200346288324959
-0.005447681875,0.01272756115384985
-0.005447341875,0.01269464759609529
-0.005447001875,0.01315543740465909
-0.005446661875,0.01332000519343187
-0.005446321875,0.01315543740465909
-0.005445981875,0.01338583230894099
-0.005445641875,0.01361622721322319
-0.005445301875,0.01378079500199567
-0.005444961875,0.01279338826935896
-0.005444621875,0.011970549325493
-0.005444281875,0.01085148836184009
-0.005443941875,0.01002864941797616
-0.005443601875,0.009469118936146716
-0.005443261875,0.008382971530248308
-0.005442921875,0.00802092239494818
-0.005442581875,0.007988008837193623
-0.005442241875,0.007988008837193623
-0.005441901875,0.008251317299230079
-0.005441561875,0.008745020665549275
-0.005441221875,0.009205810474112236
-0.005440881875,0.00973242739818515
-0.005440541875,0.009699513840431611
-0.005440201875,0.01025904432225806
-0.005439861875,0.01032487143776718
-0.005439521875,0.01078566124633193
-0.005439181875,0.01131227817040389
-0.005438841875,0.01203637644100415
-0.005438501875,0.01243133913405949
-0.005438161875,0.01279338826935896
-0.005437821875,0.01243133913405883
-0.005437481875,0.01206928999875787
-0.005437141875,0.0116085001901949
-0.005436801875,0.01127936461264933
-0.005436461875,0.01078566124633188
-0.005436121875,0.009798254513694264
-0.005435781875,0.008514625761266537
-0.005435441875,0.005585319121116282
-0.005435101875,-0.001853144931418952
-0.005434761875,-0.01636802390117864
-0.005434421875,-0.0394404278870812
-0.005434081875,-0.06968798746356114
-0.005433741875,-0.1043788773368644
-0.005433401875,-0.1396951248074399
-0.005433061875,-0.1720491520802337
-0.005432721875,-0.1986762203036705
-0.005432381875,-0.2186218363028958
-0.005432041875,-0.2317214322892458
-0.005431701875,-0.2385345387444391
-0.005431361875,-0.240246043747673
-0.005431021875,-0.2386003658599482
-0.005430681875,-0.2345849118138923
-0.005430341875,-0.2287921256491008
-0.005430001875,-0.2226702039067426
-0.005429661875,-0.2157912703360401
-0.005429321875,-0.2090769045541227
-0.005428981875,-0.2023296252144263
-0.005428641875,-0.1960102221255513
-0.005428301875,-0.1899212139409693
-0.005427961875,-0.1835688972943287
-0.005427621875,-0.1769861857434173
-0.005427281875,-0.1702718199614877
-0.005426941875,-0.1642486388924037
-0.005426601875,-0.1573367917639467
-0.005426261875,-0.1512806971371082
-0.005425921875,-0.1456853923188335
-0.005425581875,-0.1401559146160679
-0.005425241875,-0.1347910047020751
-0.005424901875,-0.1292944405570641
-0.005424561875,-0.124620715355917
-0.005424221875,-0.1204406935210882
-0.005423881875,-0.1161619310129882
-0.005423541875,-0.111981909178167
-0.005423201875,-0.1077031466700746
-0.005422861875,-0.1035889519507468
-0.005422521875,-0.0991127080961352
-0.005422181875,-0.09503142693457012
-0.005421841875,-0.0911476271195258
-0.005421501875,-0.08752713576653109
-0.005421161875,-0.08367624950924793
-0.005420821875,-0.08025323950276884
-0.005420481875,-0.07742267353588206
-0.005420141875,-0.07396674997165356
-0.005419801875,-0.07041208573415554
-0.005419461875,-0.06718655707421481
-0.005419121875,-0.06373063350998631
-0.005418781875,-0.060603845523298
-0.005418441875,-0.05764162532539325
-0.005418101875,-0.05527184916706514
-0.005417761875,-0.05379073906810695
-0.005417421875,-0.0520792340648731
-0.005417081875,-0.05010442059959967
-0.005416741875,-0.04816252069207661
-0.005416401875,-0.0458585716492618
-0.005416061875,-0.04365336327970648
-0.005415721875,-0.04111901933260103
-0.005415381875,-0.03861758894325924
-0.005415041875,-0.0365769483624767
-0.005414701875,-0.03588576364963226
-0.005414361875,-0.03496418403250341
-0.005414021875,-0.03424008576190315
-0.005413681875,-0.03335141970253172
-0.005413341875,-0.03180448248806592
-0.005413001875,-0.03012589104258351
-0.005412661875,-0.02788776911527769
-0.005412321875,-0.02588004209224564
-0.005411981875,-0.02410270997349956
-0.005411641875,-0.0224241185280202
-0.005411301875,-0.02114048977558942
-0.005410961875,-0.02054804573600739
-0.005410621875,-0.01982394746540845
-0.005410281875,-0.0192315034258251
-0.005409941875,-0.01883654073277042
-0.005409601875,-0.01745417130708154
-0.005409261875,-0.01686172726749699
-0.005408921875,-0.01570975274608749
-0.005408581875,-0.01521604937977004
-0.005408241875,-0.01534770361078737
-0.005407901875,-0.01498565447548724
-0.005407561875,-0.01439321043590629
-0.005407221875,-0.01310958168347748
-0.005406881875,-0.01215508850859533
-0.005406541875,-0.01021318860107999
-0.005406201875,-0.008435856482330374
-0.005405861875,-0.006625610805829733
-0.005405521875,-0.005309068495647449
-0.005405181875,-0.004519143109538078
-0.005404841875,-0.00392669906995605
-0.005404501875,-0.00415709397423795
-0.005404161875,-0.004321661763010735
-0.005403821875,-0.004584970225047193
-0.005403481875,-0.004782451571574535
-0.005403141875,-0.005309068495647449
-0.005402801875,-0.005309068495647449
-0.005402461875,-0.005835685419720362
-0.005402121875,-0.006395215901549091
-0.005401781875,-0.007086400614393532
-0.005401441875,-0.007448449749693661
-0.005401101875,-0.006954746383373029
-0.005400761875,-0.005704031188702134
-0.005400421875,-0.003992526185465165
-0.005400081875,-0.001886058489169438
-0.005399741875,0.0003520634381363738
-0.005399401875,0.001800259979336887
-0.005399061875,0.002524358249937442
-0.005398721875,0.002688926038709928
-0.005398381875,0.002491444692182586
-0.005398041875,0.00199774132586381
-0.005397701875,0.00176734642158233
-0.005397361875,0.001569865075054987
-0.005397021875,0.00130655661301853
-0.005396681875,0.00130655661301853
-0.005396341875,0.001471124401791315
-0.005396001875,0.001602778632810442
-0.005395661875,0.002096481999127901
-0.005395321875,0.002162309114637015
-0.005394981875,0.002623098923201653
-0.005394641875,0.003083888731764614
-0.005394301875,0.003840900560119427
-0.005393961875,0.004499171715209372
-0.005393621875,0.004927047966019811
-0.005393281875,0.005651146236620068
-0.005392941875,0.005815714025392554
-0.005392601875,0.006276503833956653
-0.005392261875,0.006342330949465767
-0.005391921875,0.006342330949465767
-0.005391581875,0.006046108929674754
-0.005391241875,0.005651146236620068
-0.005390901875,0.005091615754793615
-0.005390561875,0.005223269985810825
-0.005390221875,0.005453664890092726
-0.005389881875,0.005618232678865211
-0.005389541875,0.006210676718447538
-0.005389201875,0.006605639411502225
-0.005388861875,0.00713225633557418
-0.005388521875,0.007724700375157166
-0.005388181875,0.00779052749066628
-0.005387841875,0.007461391913121307
-0.005387501875,0.007362651239857037
