Analysis/New Tests_CMB/wrd01_d2s01/cmb07_ch15.csv

#Digilent WaveForms Oscilloscope Acquisition
#Device Name: ADP3450
#Serial Number: SN:210018B9D9B0
#Date Time: 2024-08-07 10:27:40.164.175.970
#Sample rate: 2.94118e+06Hz
#Samples: 32768
#Trigger: Source: Channel 3 Type: Edge Condition: Rising Level: 0 V Hyst.: Auto HoldOff: 0 s
#Channel 3: Range: 200 mV/div Offset: 0 V Attenuation: 1 X Coupling: DC Bandwidth: 0 Hz Sample Mode: Average

Time (s),Channel 3 (V)
-0.005570492000000001,0.005980281814165639
-0.005570152,0.006210676718448916
-0.005569812,0.006967688546802352
-0.005569472000000001,0.008218403741475522
-0.005569132,0.009534946051661639
-0.005568792,0.01164141374794946
-0.005568452000000001,0.01335291875118643
-0.005568112,0.01450489327259659
-0.005567772,0.01486694240789606
-0.005567432000000001,0.01447197971484137
-0.005567092,0.01404410346403075
-0.005566752,0.01328709163567732
-0.005566412000000001,0.01282630182711352
-0.005566072,0.01170724086345672
-0.005565732,0.01068692057306731
-0.005565392000000001,0.009864081629203377
-0.005565052,0.008679193550036508
-0.005564712,0.007132256335575138
-0.005564372000000001,0.005881541140901968
-0.005564032,0.005223269985810825
-0.005563692,0.005223269985810825
-0.005563352000000001,0.005486578447847282
-0.005563012000000001,0.006046108929673736
-0.005562672,0.007230997008838809
-0.005562332000000001,0.007955095279439066
-0.005561992000000001,0.00811966306821155
-0.005561652,0.00802092239494818
-0.005561312000000001,0.007395564797611595
-0.005560972000000001,0.007560132586384081
-0.005560632,0.007362651239857037
-0.005560292000000001,0.007889268163929951
-0.005559952000000001,0.00779052749066646
-0.005559612,0.00779052749066628
-0.005559272000000001,0.007658873259648051
-0.005558932000000001,0.007527219028630063
-0.005558592,0.007263910566593366
-0.005558252000000001,0.007395564797611595
-0.005557912000000001,0.007362651239857097
-0.005557572,0.007461391913120709
-0.005557232,0.007922181721684508
-0.005556892000000001,0.009765340955936353
-0.005556552,0.01532773221645986
-0.005556212,0.027801970605437
-0.005555872000000001,0.04893247468382423
-0.005555532,0.07720522079502723
-0.005555192,0.110513741242639
-0.005554852000000001,0.1458299887132146
-0.005554512,0.1797309532004726
-0.005554172,0.2097810314303832
-0.005553832000000001,0.2346636810928284
-0.005553492,0.2524699158380438
-0.005553152,0.2647137593227391
-0.005552812000000001,0.2719876555864962
-0.005552472,0.2745878266491062
-0.005552132,0.2738308148207514
-0.005551792000000001,0.2709344217383504
-0.005551452,0.2652732898045528
-0.005551112,0.2577031715210184
-0.005550772000000001,0.2489481651583062
-0.005550432,0.2395678011982398
-0.005550092,0.2298912152184176
-0.005549752000000001,0.2208399868359144
-0.005549412,0.2126445109550152
-0.005549072,0.2046465164206723
-0.005548732000000001,0.1974713608301789
-0.005548392,0.1901645510086555
-0.005548052,0.183713493688774
-0.005547712000000001,0.1772295228111262
-0.005547372,0.1709101197222406
-0.005547032,0.1650515064419401
-0.005546692000000001,0.1592587202771381
-0.005546352,0.1537950696898714
-0.005546012,0.1481997648716069
-0.005545672000000001,0.1433943854394416
-0.005545332,0.1387535737960416
-0.005544992,0.1346722926344839
-0.005544652000000001,0.1305910114729188
-0.005544312,0.1268388658888926
-0.005543972,0.1231525474203889
-0.005543632000000001,0.118840871354542
-0.005543292,0.114891244423989
-0.005542952,0.1115340615330303
-0.005542612000000001,0.1081110515265563
-0.005542272000000001,0.1049513499821246
-0.005541932,0.1024828331505271
-0.005541592000000001,0.09905982314405315
-0.005541252000000001,0.09566972669533991
-0.005540912,0.09191758111131423
-0.005540572000000001,0.08780338639199461
-0.005540232000000001,0.0841499814812454
-0.005539892,0.08069405791701026
-0.005539552000000001,0.07792931906562747
-0.005539212000000001,0.07516458021424971
-0.005538872,0.07292645828693481
-0.005538532000000001,0.0710832990526796
-0.005538192000000001,0.06851604154782881
-0.005537852,0.06558673490766856
-0.005537512000000001,0.06232829268996741
-0.005537172000000001,0.05900402335676318
-0.005536832,0.05610763027435611
-0.005536492,0.05347454565399155
-0.005536152000000001,0.05186178132402118
-0.005535812,0.05094020170689065
-0.005535472,0.04978822718548115
-0.005535132000000001,0.04863625266407375
-0.005534792,0.04847168487529886
-0.005534452,0.04712222900736202
-0.005534112000000001,0.0461677358324816
-0.005533772,0.04524615621535227
-0.005533432,0.04416000880945188
-0.005533092000000001,0.04258015803723314
-0.005532752,0.04179023265112377
-0.005532412,0.04050660389869604
-0.005532072000000001,0.03928880226177743
-0.005531732,0.03849887687566806
-0.005531392,0.03761021081629502
-0.005531052000000001,0.03675445831467653
-0.005530712,0.03622784139060362
-0.005530372,0.03497712619593045
-0.005530032000000001,0.03359475677023905
-0.005529692,0.03171868397822552
-0.005529352,0.0296451298396922
-0.005529012000000001,0.02846024176052814
-0.005528672,0.02783488416318976
-0.005528332,0.02684747743055485
-0.005527992000000001,0.02559676223588167
-0.005527652,0.02464226906099784
-0.005527312,0.02372068944387192
-0.005526972000000001,0.02296367761551711
-0.005526632,0.02233832001817837
-0.005526292,0.02115343193901647
-0.005525952000000001,0.02079138280371634
-0.005525612,0.02098886415024236
-0.005525272,0.02026476587964342
-0.005524932000000001,0.02092303703473456
-0.005524592,0.0207255556882071
-0.005524252,0.02065972857269811
-0.005523912000000001,0.02052807434167988
-0.005523572,0.02019893876413299
-0.005523232,0.01947484049353405
-0.005522892000000001,0.01865200154967013
-0.005522552,0.01822412529886076
-0.005522212,0.01815829818335177
-0.005521872000000001,0.01815829818335177
-0.005521532,0.01786207616355986
-0.005521192,0.0173683727972424
-0.005520852000000001,0.01730254568173328
-0.005520512000000001,0.01690758298867932
-0.005520172,0.01657844741113303
-0.005519832000000001,0.01605183048706011
-0.005519492000000001,0.01516316442768869
-0.005519152,0.01470237461912327
-0.005518812000000001,0.01440615259933226
-0.005518472000000001,0.01410993057954178
-0.005518132,0.01384662211750479
-0.005517792000000001,0.01443906615708682
-0.005517452000000001,0.01328709163567941
-0.005517112,0.01262882048058617
-0.005516772000000001,0.01131227817040389
-0.005516432000000001,0.009304551147379559
-0.005516092,0.008481712203511979
-0.005515752000000001,0.009107069800848565
-0.005515412000000001,0.009798254513693006
-0.005515072,0.01101605615061288
-0.005514732,0.01272756115384985
-0.005514392000000001,0.01410993057953873
-0.005514052,0.01489985596565062
-0.005513712,0.01440615259933226
-0.005513372000000001,0.01401118990627829
-0.005513032,0.01272756115384985
-0.005512692,0.01144393240142212
-0.005512352000000001,0.01032487143776718
-0.005512012,0.009469118936148692
-0.005511672,0.009864081629203377
-0.005511332000000001,0.01114771038163111
-0.005510992,0.01236551201854972
-0.005510652,0.01305669673139542
-0.005510312000000001,0.013682054328732
-0.005509972,0.01335291875118643
-0.005509632,0.01243133913405883
-0.005509292000000001,0.01144393240142212
-0.005508952,0.009831168071446666
-0.005508612,0.008646279992284765
-0.005508272000000001,0.008415885088002865
-0.005507932,0.007856354606176471
-0.005507592,0.008448798645757422
-0.005507252000000001,0.008481712203511979
-0.005506912,0.008448798645758081
-0.005506572,0.00881084778105755
-0.005506232000000001,0.008876674896566664
-0.005505892,0.008185490183721444
-0.005505552,0.008448798645757422
-0.005505212000000001,0.009107069800848565
-0.005504872,0.0104894392265423
-0.005504532,0.01177306797896769
-0.005504192000000001,0.01332000519343187
-0.005503852,0.01473528817687915
-0.005503512,0.01545938644747809
-0.005503172000000001,0.015986003371551
-0.005502832,0.01605183048705844
-0.005502492,0.01513025086993251
-0.005502152000000001,0.01355040009771377
-0.005501812,0.0120034628832463
-0.005501472,0.01019321720674895
-0.005501132000000001,0.008547539319021094
-0.005500792,0.007560132586383602
-0.005500452,0.007132256335575138
-0.005500112000000001,0.007263910566593366
-0.005499772000000001,0.007033515662311886
-0.005499432,0.00700060210455691
-0.005499092000000001,0.006934774989047795
-0.005498752000000001,0.006704380084766315
-0.005498412,0.007527219028629823
-0.005498072000000001,0.008251317299230079
-0.005497732000000001,0.008679193550038542
-0.005497392,0.008909588454321223
-0.005497052000000001,0.009271637589621349
-0.005496712000000001,0.01045652566878325
-0.005496372,0.01002864941797616
-0.005496032000000001,0.009666600282676035
-0.005495692000000001,0.009304551147376567
-0.005495352,0.00871210710779388
-0.005495012000000001,0.008350057972493751
-0.005494672000000001,0.007494305470876823
-0.005494332,0.006572725853747667
-0.005493992,0.00574988690988374
-0.005493652000000001,0.006079022487428712
-0.005493312,0.006210676718447538
-0.005492972,0.00630941739171121
-0.005492632000000001,0.00667146652701068
-0.005492292,0.007395564797611595
-0.005491952,0.007856354606175394
-0.005491612000000001,0.00874502066554682
-0.005491272,0.009403291820639578
-0.005490932,0.01045652566878541
-0.005490592000000001,0.01144393240142212
-0.005490252,0.01200346288324959
-0.005489912,0.01302378317364086
-0.005489572000000001,0.01341874586669555
-0.005489232,0.01302378317364086
-0.005488892,0.01269464759609529
-0.005488552000000001,0.01233259846079516
-0.005488212,0.01167432730570175
-0.005487872,0.01042361211103085
-0.005487532000000001,0.009139983358603122
-0.005487192,0.007494305470874788
-0.005486852,0.007230997008838809
-0.005486512000000001,0.006737293642520453
-0.005486172,0.00686894787353898
-0.005485832,0.007033515662311467
-0.005485492000000001,0.007132256335575138
-0.005485152,0.008514625761267854
-0.005484812,0.009238724031866792
-0.005484472000000001,0.009929908744712493
-0.005484132,0.009995735860220768
-0.005483792,0.009534946051657807
-0.005483452000000001,0.009172896916357679
-0.005483112,0.008843761338811448
-0.005482772,0.008481712203511979
-0.005482432000000001,0.008086749510457293
-0.005482092,0.008053835952703276
-0.005481752,0.008350057972493751
-0.005481412000000001,0.009238724031866792
-0.005481072,0.01042361211103205
-0.005480732,0.01108188326612199
-0.005480392000000001,0.01127936461264933
-0.005480052,0.0114110188436663
-0.005479712,0.01071983413082186
-0.005479372000000001,0.01032487143776718
-0.005479032000000001,0.009798254513695221
-0.005478692,0.008909588454321223
-0.005478352000000001,0.008448798645757422
-0.005478012000000001,0.007625959701894992
-0.005477672,0.007263910566593366
-0.005477332000000001,0.007099342777820581
-0.005476992000000001,0.006704380084766614
-0.005476652,0.006375244507220324
-0.005476312000000001,0.007033515662311467
-0.005475972000000001,0.008580452876772837
-0.005475632,0.01012739009123984
-0.005475292000000001,0.01187180865223136
-0.005474952000000001,0.01305669673139326
-0.005474612,0.01295795605813175
-0.005474272000000001,0.01239842557630427
-0.005473932000000001,0.01131227817040587
-0.005473592,0.01039069855327629
-0.005473252,0.008942502012075779
-0.005472912000000001,0.008415885088003823
-0.005472572,0.007988008837193623
-0.005472232,0.008514625761266537
-0.005471892000000001,0.008909588454320504
-0.005471552,0.00950203249390325
-0.005471212,0.01045652566878541
-0.005470872000000001,0.01160850019019281
-0.005470532,0.01187180865223136
-0.005470192,0.01180598153672225
-0.005469852000000001,0.01127936461264933
-0.005469512,0.01039069855327629
-0.005469172,0.009699513840430593
-0.005468832000000001,0.009008329127584893
-0.005468492,0.008876674896566664
-0.005468152,0.009600773167166921
-0.005467812000000001,0.009469118936148692
-0.005467472,0.009074156243094007
-0.005467132,0.008053835952702737
-0.005466792000000001,0.00756013258638438
-0.005466452,0.007593046144139417
-0.005466112,0.007856354606175394
-0.005465772000000001,0.008350057972493751
-0.005465432,0.008909588454321882
-0.005465092,0.009271637589621349
-0.005464752000000001,0.009699513840430593
-0.005464412,0.009765340955939946
-0.005464072,0.009896995186957936
-0.005463732000000001,0.00881084778105755
-0.005463392,0.007263910566592349
-0.005463052,0.006704380084765896
-0.005462712000000001,0.006046108929674754
-0.005462372,0.006276503833957192
-0.005462032,0.006572725853747667
-0.005461692000000001,0.006803120758029567
-0.005461352,0.006704380084766315
-0.005461012,0.006934774989047795
-0.005460672000000001,0.007198083451084253
-0.005460332,0.007329737682102421
-0.005459992,0.007296824124347924
-0.005459652000000001,0.007362651239857037
-0.005459312,0.007198083451083355
-0.005458972,0.006704380084765896
-0.005458632000000001,0.005980281814165639
-0.005458292,0.005782800467637818
-0.005457952,0.005519492005601839
-0.005457612000000001,0.005585319121110954
-0.005457272000000001,0.005914454698655926
-0.005456932,0.00630941739171121
-0.005456592000000001,0.006572725853747667
-0.005456252000000001,0.00690186143129264
-0.005455912,0.008152576625966409
-0.005455572000000001,0.008777934223302994
-0.005455232000000001,0.00940329182063844
-0.005454892,0.00983116807144882
-0.005454552000000001,0.009436205378394135
-0.005454212000000001,0.008580452876777207
-0.005453872,0.008317144414739193
-0.005453532000000001,0.007856354606175394
-0.005453192000000001,0.008152576625965869
-0.005452852,0.008086749510457293
-0.005452512000000001,0.008679193550039321
-0.005452172000000001,0.008942502012075301
-0.005451832,0.008876674896566664
-0.005451492,0.008679193550039321
-0.005451152000000001,0.008185490183721864
-0.005450812,0.007691786817402609
-0.005450472,0.007132256335575138
-0.005450132000000001,0.007132256335575138
-0.005449792,0.007625959701893495
-0.005449452,0.007625959701893495
-0.005449112000000001,0.007724700375156986
-0.005448772,0.007955095279439066
-0.005448432,0.008152576625966409
-0.005448092000000001,0.008547539319021094
-0.005447752,0.008514625761266537
-0.005447412,0.008152576625966409
-0.005447072000000001,0.008152576625966409
-0.005446732,0.008876674896566664
-0.005446392,0.009798254513694264
-0.005446052000000001,0.01002864941797616
-0.005445712,0.01048943922653996
-0.005445372,0.01048943922653996
-0.005445032000000001,0.009929908744712493
-0.005444692,0.009567859609412244
-0.005444352,0.00950203249390325
-0.005444012000000001,0.009107069800848565
-0.005443672,0.008876674896564449
-0.005443332,0.007658873259648051
-0.005442992000000001,0.007527219028629823
-0.005442652,0.007362651239857277
-0.005442312,0.007494305470875266
-0.005441972000000001,0.00779052749066628
-0.005441632,0.007625959701894452
-0.005441292,0.008152576625966409
-0.005440952000000001,0.007889268163929951
-0.005440612,0.007428478355363997
-0.005440272,0.006243590276202096
-0.005439932000000001,0.004927047966019811
-0.005439592,0.004433344599700737
-0.005439252,0.00403838190664677
-0.005438912000000001,0.004301690368683227
-0.005438572,0.005025788639286177
-0.005438232,0.006506898738238553
-0.005437892000000001,0.007263910566593366
-0.005437552,0.008514625761268274
-0.005437212,0.009469118936148692
-0.005436872000000001,0.01025904432225806
-0.005436532000000001,0.01193763576773742
-0.005436192,0.01157558663244035
-0.005435852000000001,0.01243133913405883
-0.005435512000000001,0.01233259846079534
-0.005435172,0.0118388950944768
-0.005434832000000001,0.00973242739818515
-0.005434492000000001,0.003511764982585172
-0.005434152,-0.008995386964157845
-0.005433812000000001,-0.03038919950461997
-0.005433472000000001,-0.05938604388633204
-0.005433132,-0.09355031683561504
-0.005432792000000001,-0.1296235761346096
-0.005432452000000001,-0.1637549355260233
-0.005432112,-0.1933113103896777
-0.005431772000000001,-0.2173711211082589
-0.005431432000000001,-0.2339595542165255
-0.005431092,-0.2439981893316956
-0.005430752,-0.2483427789552971
-0.005430412000000001,-0.2485073467440696
-0.005430072,-0.2455780401039143
-0.005429732,-0.2406080928829762
-0.005429392000000001,-0.2337949864277953
-0.005429052,-0.2271793613191169
-0.005428712,-0.2200700328441326
-0.005428372000000001,-0.2128290501381432
-0.005428032,-0.2053905860856001
-0.005427692,-0.1977875542442974
-0.005427352000000001,-0.1908427935580859
-0.005427012,-0.1836018108520833
-0.005426672,-0.1770190993011719
-0.005426332000000001,-0.1702718199614877
-0.005425992,-0.1634257999485398
-0.005425652,-0.1566785206088556
-0.005425312000000001,-0.1501945497312079
-0.005424972,-0.1448625533749696
-0.005424632,-0.139333075672204
-0.005424292000000001,-0.1344618691245295
-0.005423952,-0.1301172795009214
-0.005423612,-0.1264967881479267
-0.005423272000000001,-0.122316766313098
-0.005422932,-0.1178405224584702
-0.005422592,-0.1134630192771221
-0.005422252000000001,-0.1088880347492387
-0.005421912,-0.1040497417593106
-0.005421572,-0.09957349790469899
-0.005421232000000001,-0.09545930318537937
-0.005420892,-0.09157550337033384
-0.005420552,-0.0872967408622492
-0.005420212000000001,-0.08344585460496601
-0.005419872,-0.07989119036746811
-0.005419532,-0.07673148882303638
-0.005419192000000001,-0.0740984042026718
-0.005418852,-0.07189319583311356
-0.005418512,-0.07028043150314317
-0.005418172000000001,-0.06847018582664255
-0.005417832,-0.06633080457259052
-0.005417492,-0.06313818947040428
-0.005417152000000001,-0.06024179638800326
-0.005416812,-0.057115008401315
-0.005416472,-0.05418570176116475
-0.005416132000000001,-0.05145387646753651
-0.005415792,-0.04914992742471284
-0.005415452,-0.04658266991986206
-0.005415112000000001,-0.04391667174174294
-0.005414772000000001,-0.04161272269892813
-0.005414432,-0.03983539058017786
-0.005414092000000001,-0.03789349067265899
-0.005413752000000001,-0.03637946701595211
-0.005413412,-0.03486544335923973
-0.005413072000000001,-0.03318685191375732
-0.005412732000000001,-0.03190322316133193
-0.005412392,-0.03088290287093832
-0.005412052000000001,-0.02989549613830161
-0.005411712000000001,-0.02900683007893018
-0.005411372,-0.02828273180832831
-0.005411032000000001,-0.0261433505542821
-0.005410692000000001,-0.02416853708901226
-0.005410352,-0.02331278458739018
-0.005410012000000001,-0.02239120497026259
-0.005409672000000001,-0.02166710669966365
-0.005409332,-0.02160127958415322
-0.005408992,-0.02091009487130752
-0.005408652000000001,-0.01929733054133715
-0.005408312,-0.01827701025094295
-0.005407972,-0.01679590015198788
-0.005407632000000001,-0.01567683918833497
-0.005407292,-0.0143273833203961
-0.005406952,-0.01310958168347748
-0.005406612000000001,-0.01199052071982458
-0.005406272,-0.01169429870003153
-0.005405932,-0.01097020042943127
-0.005405592000000001,-0.01050941062086747
-0.005405252,-0.009884053023530886
-0.005404912,-0.009225781868439744
-0.005404572000000001,-0.008995386964157845
-0.005404232,-0.008962473406403288
-0.005403892,-0.00790923955825746
-0.005403552000000001,-0.007547190422957332
-0.005403212,-0.007283881960919497
-0.005402872,-0.006526870132566062
-0.005402532000000001,-0.006131907439511376
-0.005402192,-0.005276154937890557
-0.005401852,-0.003992526185465165
-0.005401512000000001,-0.003564649934655922
-0.005401172,-0.002412675413245465
-0.005400832,-0.00188605848917351
-0.005400492000000001,-0.001161960218573253
-0.005400152,-0.00155692291162722
-0.005399812,-0.001161960218573253
-0.005399472000000001,-0.0006682568522548965
-0.005399132,5.584141834595855e-05
-0.005398792,0.0003849769958909309
-0.005398452000000001,0.0002533227648727025
-0.005398112,-0.0003391212747094452
-0.005397772,-0.0004049483902184396
-0.005397432000000001,0.0001216685338544741
-0.005397092,0.001174902382001499
-0.005396752,0.001833173537091444
-0.005396412000000001,0.001504037959545873
-0.005396072,0.00124072949750744
-0.005395732,0.0001545820916090312
-0.005395392000000001,-0.001392355122855153
-0.005395052,-0.002511416086511471
-0.005394712,-0.003268427914864908
-0.005394372000000001,-0.004025439743219721
-0.005394032000000001,-0.0042887482052557
-0.005393692,-0.003465909261392251
-0.005393352000000001,-0.002807638106301108
-0.005393012000000001,-0.001425268680612224
-0.005392672,0.0002204092071181454
-0.005392332000000001,0.0007799396889456162
