Analysis/New Tests_CMB/wrd01_d2s01/cmb11_ch26.csv

#Digilent WaveForms Oscilloscope Acquisition
#Device Name: ADP3450
#Serial Number: SN:210018B9D9B0
#Date Time: 2024-06-28 13:22:10.664.998.350
#Sample rate: 2.5e+07Hz
#Samples: 32768
#Trigger: Source: Channel 3 Type: Edge Condition: Rising Level: 60 mV Hyst.: Auto HoldOff: 0 s
#Channel 1: Range: 100 mV/div Offset: -370 mV Attenuation: 1 X Coupling: DC Bandwidth: 0 Hz Sample Mode: Average
#Channel 3: Range: 100 mV/div Offset: 0 V Attenuation: 1 X Coupling: DC Bandwidth: 0 Hz Sample Mode: Average

Time (s),Channel 1 (V),Channel 3 (V)
-0.0006553410101010101,0.002598512160713051,-0.00860042427110316
-0.0006553010101010101,0.00246723789785297,-0.008172548020293918
-0.0006552610101010101,0.001974959412126999,-0.009587831003740652
-0.0006552210101010101,0.001548318057832565,-0.01001570725454911
-0.0006551810101010101,0.003714343395023523,-0.0106410648518857
-0.0006551410101010101,0.00059657965209714,-0.003992526185465165
-0.0006551010101010101,0.00105603957210737,-0.008633337828857716
-0.0006550610101010102,0.003090790646434545,-0.01189178004655294
-0.0006550210101010101,0.002007777977843034,0.001010334593199138
-0.0006549810101010101,0.002139052240702821,-0.01459069178243255
-0.0006549410101010101,0.0003668496920920528,-0.002807638106301108
-0.0006549010101010101,0.002893879252148179,-0.00142526868060971
-0.0006548610101010102,0.002729786423573376,-0.0111347682181864
-0.0006548210101010101,0.001613955189264098,-0.002379761855491627
-0.0006547810101010101,0.002434419332137949,-0.002248107624473638
-0.0006547410101010101,0.002106233674987801,-0.003103860126092122
-0.0006547010101010101,0.00246723789785297,-0.004354575320765292
-0.0006546610101010102,0.002401600766423048,-0.003400082145884872
-0.0006546210101010101,0.001974959412130222,-0.001589836469389799
-0.0006545810101010101,0.003320520606443333,-0.005605290515438462
-0.0006545410101010101,0.003156427777868287,-0.003959612627710607
-0.0006545010101010101,0.002696967857858057,-0.002610156759773766
-0.0006544610101010102,0.002861060686433159,-0.004749538013819977
-0.0006544210101010101,0.003583069132163083,-0.002083539835703067
-0.0006543810101010101,0.003386157737873374,-0.003301341472619465
-0.0006543410101010101,0.002926697817863144,-0.004716624456065421
-0.0006543010101010101,0.002992334949293185,-0.003992526185465165
-0.0006542610101010101,0.003353339172158354,-0.005078673591365549
-0.0006542210101010102,0.003156427777868645,-0.005868598977473482
-0.0006541810101010101,0.003254883475013293,-0.005078673591365549
-0.0006541410101010101,0.002861060686433159,-0.004815365129329092
-0.0006541010101010101,0.003222064909298272,-0.004815365129329092
-0.0006540610101010101,0.003025153515008205,-0.003630477050165036
-0.0006540210101010102,0.003583069132162426,-0.007283881960914229
-0.0006539810101010101,0.002729786423572838,-0.00593442609298092
-0.0006539410101010101,0.002598512160713051,-0.004222921089747064
-0.0006539010101010101,0.003287702040728313,-0.005934426092984033
-0.0006538610101010101,0.002959516383578165,-0.006987659941129861
-0.0006538210101010102,0.002434419332138904,-0.002248107624482259
-0.0006537810101010101,0.003057972080721972,-0.003630477050166952
-0.0006537410101010101,0.002368782200707908,-0.004683710898310864
-0.0006537010101010101,0.002007777977842795,-0.004453315994028964
-0.0006536610101010101,0.001843685149267693,-0.00244558897100098
-0.0006536210101010102,0.002532875029281757,-0.005539463399923721
-0.0006535810101010101,0.002303145069277625,-0.004848278687081254
-0.0006535410101010101,0.002139052240702821,-0.003531736376901365
-0.0006535010101010101,0.002171870806417842,-0.005704031188702134
-0.0006534610101010101,0.001778048017837652,-0.006823092152357076
-0.0006534210101010101,0.002335963634992888,-0.005111587149120106
-0.0006533810101010102,0.002532875029282652,-0.009291608983941255
-0.0006533410101010101,0.002171870806417842,-0.008896646290894173
-0.0006533010101010101,0.001974959412127775,-0.005078673591365549
-0.0006532610101010101,0.001843685149267693,-0.01807952890441561
-0.0006532210101010101,0.002007777977842795,-0.0004378619479729968
-0.0006531810101010102,0.002959516383576433,-0.01682881370971262
-0.0006531410101010101,0.001876503714984624,-0.0154135307262708
-0.0006531010101010101,0.002926697817863144,-0.001293614449591481
-0.0006530610101010101,0.002335963634992888,-0.02110757621783486
-0.0006530210101010101,0.002631330726428016,-0.001293614449591481
-0.0006529810101010102,0.003681524829306592,-0.009916966581269757
-0.0006529410101010101,0.002762604989288158,-0.00958783100372706
-0.0006529010101010101,0.002795423555003118,-0.002544329644264652
-0.0006528610101010101,0.003681524829308502,-0.006329388786038719
-0.0006528210101010101,0.003287702040728313,-0.003038033010583008
-0.0006527810101010102,0.003747161960737707,-0.003992526185463428
-0.0006527410101010101,0.003222064909297795,-0.005210327822383059
-0.0006527010101010101,0.002959516383578165,-0.004815365129329092
-0.0006526610101010101,0.002631330726428016,-0.00790923955825746
-0.0006526210101010101,0.002598512160713051,-0.005835685419720362
-0.0006525810101010101,0.003222064909298272,-0.005045760033610991
-0.0006525410101010102,0.002500056463569303,-0.004815365129329511
-0.0006525010101010101,0.002631330726428016,-0.005638204073193019
-0.0006524610101010101,0.002565693594998031,-0.004321661763010735
-0.0006524210101010101,0.00207341510927278,-0.004255834647501621
-0.0006523810101010101,0.002106233674987801,-0.005769858304211248
-0.0006523410101010102,0.001843685149268171,-0.005967339650738232
-0.0006523010101010101,0.001909322280697376,-0.005835685419719943
-0.0006522610101010101,0.001712410886407667,-0.005605290515438462
-0.0006522210101010101,0.001778048017837652,-0.005078673591365549
-0.0006521810101010101,0.001745229452122632,-0.004749538013819977
-0.0006521410101010102,0.001974959412127357,-0.005835685419718386
-0.0006521010101010101,0.001810866583552076,-0.004420402436275424
-0.0006520610101010101,0.001482680926402524,-0.004979932918101878
-0.0006520210101010101,0.001810866583552673,-0.00494701936034732
-0.0006519810101010101,0.001646773754977626,-0.00711931417214809
-0.0006519410101010102,0.001515499492117783,-0.004914105802596774
-0.0006519010101010101,0.001876503714982773,-0.005111587149120166
-0.0006518610101010101,0.001909322280697734,-0.005144500706874663
-0.0006518210101010101,0.001942140846412754,-0.006954746383375304
-0.0006517810101010101,0.002270326503562903,-0.007448449749693661
-0.0006517410101010101,0.001974959412127775,-0.006856005710111633
-0.0006517010101010101,0.00213905224070306,-0.008501683597840865
-0.0006516610101010101,0.002270326503562903,-0.009258695426194301
-0.0006516210101010101,0.002335963634992888,-0.007810498884993789
-0.0006515810101010101,0.002335963634992888,-0.009291608983948858
-0.0006515410101010101,0.003123609212153267,-0.009192868310685188
-0.0006515010101010102,0.002139052240704612,-0.008699164944367729
-0.0006514610101010101,0.00302515351500743,-0.009785312350268053
-0.0006514210101010101,0.002598512160713051,-0.01024610215883101
-0.0006513810101010101,0.003025153515008205,-0.01182595293104976
-0.0006513410101010101,0.002729786423573077,-0.0120234342775771
-0.0006513010101010102,0.002500056463568408,-0.00998279369679827
-0.0006512610101010101,0.001974959412129387,-0.01113476821820436
-0.0006512210101010101,0.002861060686433159,-0.01129933600697684
-0.0006511810101010101,0.002664149292143037,-0.01050941062086747
-0.0006511410101010101,0.002007777977842795,-0.01014736148556734
-0.0006511010101010102,0.002204689372132504,-0.01001570725454935
-0.0006510610101010101,0.002171870806417961,-0.01100311398718595
-0.0006510210101010101,0.002237507937847882,-0.01106894110269494
-0.0006509810101010101,0.001810866583552673,-0.009554917445985316
-0.0006509410101010101,0.001778048017837652,-0.01021318860107646
-0.0006509010101010102,0.001942140846412754,-0.009357436099457973
-0.0006508610101010101,0.001679592320692945,-0.009587831003739873
-0.0006508210101010101,0.001843685149267693,-0.009587831003739873
-0.0006507810101010101,0.001810866583552673,-0.01011444792781279
-0.0006507410101010101,0.001974959412127775,-0.01050941062086747
-0.0006507010101010101,0.001581136623547585,-0.01004862081230367
-0.0006506610101010102,0.002007777977842019,-0.009291608983950235
-0.0006506210101010101,0.001942140846412754,-0.01008153437005823
-0.0006505810101010101,0.001843685149267693,-0.009423263214967087
-0.0006505410101010101,0.001843685149267693,-0.009949880139040001
-0.0006505010101010101,0.001843685149267693,-0.008567510713348603
-0.0006504610101010102,0.002598512160711678,-0.009357436099456537
-0.0006504210101010101,0.001942140846412575,-0.01248422408613713
-0.0006503810101010101,0.001843685149267693,-0.0104106699476038
-0.0006503410101010101,0.00250005646356799,-0.008830819175385059
-0.0006503010101010101,0.001515499492117545,-0.01176012581554064
-0.0006502610101010102,0.002467237897851238,-0.009982793696797792
-0.0006502210101010101,0.002500056463567692,-0.01097020042943379
-0.0006501810101010101,0.002335963634992888,-0.01235256985512267
-0.0006501410101010101,0.002762604989288098,-0.0113322495647314
-0.0006501010101010101,0.002598512160713051,-0.01274753254817735
-0.0006500610101010102,0.00253287502928313,-0.01139807668024297
-0.0006500210101010101,0.002631330726428494,-0.01159555802676774
-0.0006499810101010101,0.002893879252148179,-0.01152973091125874
-0.0006499410101010101,0.002565693594998031,-0.01162847158452241
-0.0006499010101010101,0.002861060686433159,-0.01143099023799507
-0.0006498610101010101,0.002335963634992888,-0.01310958168347748
-0.0006498210101010102,0.002500056463567692,-0.01113476821820765
-0.0006497810101010101,0.002631330726428016,-0.0129450138947047
-0.0006497410101010101,0.002401600766422929,-0.01261587831715913
-0.0006497010101010101,0.002598512160713051,-0.01169429870003153
-0.0006496610101010101,0.002270326503562903,-0.01176012581554064
-0.0006496210101010102,0.002270326503562903,-0.01067397840964223
-0.0006495810101010101,0.00213905224070294,-0.01073980552515045
-0.0006495410101010101,0.002204689372132862,-0.0113322495647314
-0.0006495010101010101,0.00250005646356799,-0.01129933600697684
-0.0006494610101010101,0.002270326503562903,-0.01149681735350419
-0.0006494210101010102,0.002073415109273139,-0.01110185466045022
-0.0006493810101010101,0.002106233674987025,-0.01047649706311327
-0.0006493410101010101,0.001679592320692647,-0.01067397840964026
-0.0006493010101010101,0.001613955189262606,-0.0101802750433219
-0.0006492610101010101,0.002007777977842795,-0.009916966581285444
-0.0006492210101010102,0.001548318057833401,-0.01133224956472883
-0.0006491810101010101,0.002073415109272005,-0.01018027504332316
-0.0006491410101010101,0.001646773754977626,-0.0108714597561676
-0.0006491010101010101,0.001909322280697734,-0.01057523773637659
-0.0006490610101010101,0.001810866583552673,-0.008830819175385059
-0.0006490210101010101,0.001679592320692647,-0.0104106699476038
-0.0006489810101010101,0.001712410886407787,-0.00771175821173359
-0.0006489410101010101,0.001778048017837652,-0.00962074456149443
-0.0006489010101010101,0.001581136623547585,-0.009489090330476201
-0.0006488610101010101,0.002204689372132862,-0.01008153437005823
-0.0006488210101010101,0.002204689372132862,-0.01093728687167671
-0.0006487810101010102,0.002565693594997374,-0.01041066994760476
-0.0006487410101010101,0.00184368514926823,-0.009620744561494549
-0.0006487010101010101,0.002139052240702821,-0.009686571677003543
-0.0006486610101010101,0.002992334949293185,-0.01093728687167671
-0.0006486210101010101,0.002795423555003118,-0.01027901571658557
-0.0006485810101010102,0.002434419332138606,-0.008929559848651186
-0.0006485410101010101,0.002368782200709043,-0.01034484283209684
-0.0006485010101010101,0.002992334949293185,-0.01152973091125874
-0.0006484610101010101,0.002861060686433159,-0.01080563264065849
-0.0006484210101010101,0.002401600766422929,-0.008962473406403288
-0.0006483810101010102,0.002532875029282771,-0.007645931096223398
-0.0006483410101010101,0.002696967857857102,-0.01103602754493326
-0.0006483010101010101,0.002171870806417842,-0.00711931417214809
-0.0006482610101010101,0.002565693594998031,-0.007415536191939104
-0.0006482210101010101,0.00246723789785297,-0.009291608983948858
-0.0006481810101010102,0.00250005646356799,-0.009785312350267215
-0.0006481410101010101,0.002204689372132802,-0.007283881960924946
-0.0006481010101010101,0.002171870806417842,-0.009522003888230759
-0.0006480610101010101,0.002664149292143037,-0.007020573498884419
-0.0006480210101010101,0.001876503714982714,-0.008633337828857716
-0.0006479810101010101,0.001482680926402524,-0.007580103980711889
-0.0006479410101010102,0.001909322280696958,-0.009719485234754211
-0.0006479010101010101,0.001548318057833162,-0.009752398792511401
-0.0006478610101010101,0.001876503714982714,-0.009061214079666959
-0.0006478210101010101,0.001646773754977626,-0.01143099023799507
-0.0006477810101010101,0.001942140846412754,-0.01004862081230367
-0.0006477410101010102,0.001810866583552911,-0.0109372868716751
-0.0006477010101010101,0.001515499492116888,-0.01100311398718361
-0.0006476610101010101,0.001154495269252431,-0.009785312350267215
-0.0006476210101010101,0.001974959412127775,-0.012253829181859
-0.0006475810101010101,0.0007934910463872624,-0.01287918677919558
-0.0006475410101010102,0.001417043794971405,-0.009423263214973374
-0.0006475010101010101,0.001449862360686604,-0.01100311398718804
-0.0006474610101010101,0.0009247653092472885,-0.01222091562410444
-0.0006474210101010101,0.001646773754977626,-0.007185141287657204
-0.0006473810101010101,0.001581136623547585,-0.009489090330476201
-0.0006473410101010102,0.001646773754977626,-0.01097020042943127
-0.0006473010101010101,0.001712410886408025,-0.008271288693558247
-0.0006472610101010101,0.001909322280697734,-0.008633337828857716
-0.0006472210101010101,0.00204059654355776,-0.01192469360431343
-0.0006471810101010101,0.001745229452122632,-0.01139807668024051
-0.0006471410101010101,0.001876503714982714,-0.007711758211730118
-0.0006471010101010102,0.002303145069277147,-0.008468770040083553
-0.0006470610101010101,0.001646773754977626,-0.01024610215883101
-0.0006470210101010101,0.002139052240702821,-0.009719485234758102
-0.0006469810101010101,0.002106233674987801,-0.009357436099457973
-0.0006469410101010101,0.001449862360687559,-0.0106410648518857
-0.0006469010101010102,0.002073415109271646,-0.01133224956473014
-0.0006468610101010101,0.00243441933213777,-0.01248422408613707
-0.0006468210101010101,0.002335963634992888,-0.01037775638984924
-0.0006467810101010101,0.001942140846412754,-0.009949880139040001
-0.0006467410101010101,0.002368782200707908,-0.01120059533371317
-0.0006467010101010102,0.001745229452123766,-0.0108714597561682
-0.0006466610101010101,0.002106233674987801,-0.01169429870003284
-0.0006466210101010101,0.002106233674987801,-0.01241839697063178
-0.0006465810101010101,0.002139052240702821,-0.01192469360431343
-0.0006465410101010101,0.002171870806417842,-0.01291210033695014
-0.0006465010101010102,0.002139052240702881,-0.01159555802677025
-0.0006464610101010101,0.003254883475008756,-0.01225382918185792
-0.0006464210101010101,0.000760672480672242,-0.01166138514227697
-0.0006463810101010101,0.002237507937847882,-0.006526870132566062
-0.0006463410101010101,0.002598512160713051,-0.01656550524770598
-0.0006463010101010101,0.0008263096121022828,-0.005671117630947577
-0.0006462610101010102,0.003189246343578954,-0.01666424592094965
-0.0006462210101010101,0.0009904024406773293,-0.01166138514227697
-0.0006461810101010101,0.001679592320692647,-0.004420402436274407
-0.0006461410101010101,0.001810866583552673,-0.01419572908937787
-0.0006461010101010101,0.001121676703537411,-0.009587831003739873
-0.0006460610101010102,0.001220132400682237,-0.007744671769488027
-0.0006460210101010101,0.001581136623547705,-0.009423263214967986
-0.0006459810101010101,0.001646773754977626,-0.009916966581285444
-0.0006459410101010101,0.002204689372132862,-0.01097020042943127
-0.0006459010101010101,0.001679592320692647,-0.009653658119248986
-0.0006458610101010102,0.001548318057832804,-0.007909239558260632
-0.0006458210101010101,0.002696967857858117,-0.01060815129412198
-0.0006457810101010101,0.002729786423573077,-0.005572376957683906
-0.0006457410101010101,0.001515499492117545,-0.01419572908937787
-0.0006457010101010101,0.002664149292143037,-0.006921832825620747
-0.0006456610101010102,0.001942140846414067,-0.008567510713345609
-0.0006456210101010101,0.002861060686431846,-0.01123350889146653
-0.0006455810101010101,0.002139052240702821,-0.01057523773637659
-0.0006455410101010101,0.002171870806417842,-0.009489090330476201
-0.0006455010101010101,0.002959516383578165,-0.01136516312248596
-0.0006454610101010101,0.002631330726428016,-0.009192868310685188
-0.0006454210101010101,0.002762604989289113,-0.009719485234757682
-0.0006453810101010101,0.003320520606443333,-0.009489090330476201
-0.0006453410101010101,0.002598512160713051,-0.01268170543266824
-0.0006453010101010101,0.003418976303588395,-0.01011444792781279
-0.0006452610101010101,0.002992334949293185,-0.008402942924575817
-0.0006452210101010102,0.002664149292143633,-0.008896646290893274
-0.0006451810101010101,0.002598512160713529,-0.007777585327240609
-0.0006451410101010101,0.002861060686433159,-0.008534597155594046
-0.0006451010101010101,0.00250005646356799,-0.009456176772721644
-0.0006450610101010101,0.002664149292143037,-0.008007980231521132
-0.0006450210101010102,0.002729786423572958,-0.007613017538467165
-0.0006449810101010101,0.003156427777867451,-0.01238548341287268
-0.0006449410101010101,0.002696967857858057,-0.009884053023530886
-0.0006449010101010101,0.00207341510927278,-0.007218054845411761
-0.0006448610101010101,0.002204689372132862,-0.009061214079666959
-0.0006448210101010102,0.002532875029282414,-0.008764992059876485
-0.0006447810101010101,0.002171870806416946,-0.009390349657214685
-0.0006447410101010101,0.001679592320692647,-0.01057523773637659
-0.0006447010101010101,0.001745229452122632,-0.008863732733139616
-0.0006446610101010101,0.002139052240702821,-0.01152973091125874
-0.0006446210101010102,0.001646773754977626,-0.0127146189904228
-0.0006445810101010101,0.001581136623548481,-0.006658524363601772
-0.0006445410101010101,0.00207341510927278,-0.01626928322791496
-0.0006445010101010101,0.0006293982178121604,-0.004255834647501621
-0.0006444610101010101,0.002631330726428016,-0.005473636284420234
-0.0006444210101010101,0.001909322280697734,-0.01988977458091625
-0.0006443810101010102,0.001876503714982773,0.001800259979297433
-0.0006443410101010101,0.003156427777863929,-0.01893528140601793
-0.0006443010101010101,0.000760672480672242,-0.01004862081230367
-0.0006442610101010101,0.002926697817863144,-0.004190007531992507
-0.0006442210101010101,0.002762604989288098,-0.01251713764389546
-0.0006441810101010102,0.00259851216071335,-0.006823092152367433
-0.0006441410101010101,0.00295951638357721,-0.007415536191941499
-0.0006441010101010101,0.002434419332137949,-0.008732078502121389
-0.0006440610101010101,0.002959516383578165,-0.009554917445985316
-0.0006440210101010101,0.003254883475013293,-0.00860042427110316
-0.0006439810101010102,0.003156427777868466,-0.008271288693558186
-0.0006439410101010101,0.003615887697878043,-0.01044358350535524
-0.0006439010101010101,0.003386157737873374,-0.008732078502121389
-0.0006438610101010101,0.002893879252148179,-0.009225781868439744
-0.0006438210101010101,0.002992334949293185,-0.0104106699476038
-0.0006437810101010102,0.003189246343583252,-0.01057523773637659
-0.0006437410101010101,0.003189246343582954,-0.01281335966368455
-0.0006437010101010101,0.003025153515008205,-0.01176012581554064
-0.0006436610101010101,0.003189246343583252,-0.01123350889146773
-0.0006436210101010101,0.00348461343501838,-0.01231965629736811
-0.0006435810101010101,0.002828242120718139,-0.01215508850859533
-0.0006435410101010102,0.003320520606442438,-0.01185886648880485
-0.0006435010101010101,0.003156427777868287,-0.01258296475940457
