Analysis/New Tests_CMB/wrd01_d2s01/cmb11_ch46.csv

#Digilent WaveForms Oscilloscope Acquisition
#Device Name: ADP3450
#Serial Number: SN:210018B9D9B0
#Date Time: 2024-06-28 13:33:03.866.131.290
#Sample rate: 2.5e+07Hz
#Samples: 32768
#Trigger: Source: Channel 3 Type: Edge Condition: Rising Level: 60 mV Hyst.: Auto HoldOff: 0 s
#Channel 1: Range: 100 mV/div Offset: -370 mV Attenuation: 1 X Coupling: DC Bandwidth: 0 Hz Sample Mode: Average
#Channel 3: Range: 100 mV/div Offset: 0 V Attenuation: 1 X Coupling: DC Bandwidth: 0 Hz Sample Mode: Average

Time (s),Channel 1 (V),Channel 3 (V)
-0.0006553442253521127,0.001909322280697734,-0.00688891926786619
-0.0006553042253521127,0.002401600766422929,-0.007382622634184546
-0.0006552642253521126,0.001810866583552553,-0.007152227729903844
-0.0006552242253521127,0.001745229452122632,-0.007810498884993789
-0.0006551842253521127,0.001252950966397437,-0.007613017538466446
-0.0006551442253521127,0.002303145069277923,-0.007843412442748346
-0.0006551042253521127,0.002303145069277923,-0.00790923955825746
-0.0006550642253521127,0.001778048017838607,-0.006428129459305085
-0.0006550242253521127,0.001942140846412456,-0.007843412442748885
-0.0006549842253521127,0.001778048017837652,-0.008139634462539359
-0.0006549442253521127,0.002007777977842795,-0.007975066673766575
-0.0006549042253521127,0.002007777977842795,-0.006428129459302391
-0.0006548642253521127,0.00177804801783807,-0.007580103980709793
-0.0006548242253521127,0.001712410886407548,-0.00702057349888406
-0.0006547842253521127,0.001646773754977626,-0.006823092152357076
-0.0006547442253521127,0.001843685149267693,-0.006625610805829733
-0.0006547042253521127,0.001613955189262606,-0.006033166766247705
-0.0006546642253521127,0.001548318057832685,-0.007119314172146114
-0.0006546242253521126,0.001318588097827955,-0.006230648112775346
-0.0006545842253521127,0.001581136623547585,-0.006395215901547833
-0.0006545442253521127,0.001384225229257519,-0.005605290515438462
-0.0006545042253521127,0.001712410886407667,-0.005704031188702134
-0.0006544642253521127,0.001548318057832565,-0.007283881960920875
-0.0006544242253521126,0.001548318057833222,-0.00623064811277367
-0.0006543842253521127,0.001909322280697734,-0.005473636284420234
-0.0006543442253521127,0.001121676703537411,-0.006428129459302391
-0.0006543042253521127,0.001417043794972539,-0.00586859897747492
-0.0006542642253521127,0.001121676703537411,-0.005440722726665677
-0.0006542242253521127,0.001974959412126223,-0.006263561670528108
-0.0006541842253521127,0.001515499492117545,-0.006790178594602518
-0.0006541442253521127,0.001613955189262606,-0.006921832825620747
-0.0006541042253521127,0.001548318057832565,-0.006296475228284162
-0.0006540642253521127,0.001712410886407667,-0.005934426092984033
-0.0006540242253521127,0.001712410886407667,-0.007349709076427415
-0.0006539842253521127,0.001712410886406891,-0.005506549842176707
-0.0006539442253521127,0.001285769532112457,-0.006559783690320619
-0.0006539042253521127,0.001515499492117545,-0.005341982053402005
-0.0006538642253521127,0.001482680926402524,-0.005835685419720362
-0.0006538242253521127,0.001843685149267037,-0.005374895611157401
-0.0006537842253521126,0.001384225229258832,-0.005309068495645652
-0.0006537442253521127,0.002106233674987801,-0.004321661763010735
-0.0006537042253521127,0.001449862360687559,-0.004190007531992507
-0.0006536642253521127,0.001778048017837652,-0.00369630416567415
-0.0006536242253521127,0.001712410886407787,-0.00465079734055457
-0.0006535842253521126,0.002303145069277267,-0.003103860126092063
-0.0006535442253521127,0.001942140846412754,-0.003070946568337565
-0.0006535042253521127,0.002007777977842795,-0.003959612627710607
-0.0006534642253521127,0.002106233674987801,-0.003400082145883136
-0.0006534242253521127,0.002335963634992888,-0.003663390607919593
-0.0006533842253521127,0.002335963634992888,-0.003367168588129119
-0.0006533442253521127,0.001646773754977626,-0.003498822819146808
-0.0006533042253521127,0.002270326503562903,-0.002807638106301108
-0.0006532642253521127,0.002335963634992888,-0.002610156759773766
-0.0006532242253521127,0.002270326503562903,-0.004354575320765292
-0.0006531842253521127,0.002007777977843273,-0.003301341472621381
-0.0006531442253521127,0.002040596543558417,-0.003860871954447655
-0.0006531042253521127,0.002401600766422929,-0.004255834647501621
-0.0006530642253521127,0.002139052240702821,-0.004255834647501621
-0.0006530242253521127,0.001778048017837652,-0.004749538013819977
-0.0006529842253521127,0.001449862360688156,-0.004584970225047492
-0.0006529442253521127,0.00135140666354208,-0.004058353300974578
-0.0006529042253521127,0.001121676703537411,-0.004222921089747064
-0.0006528642253521127,0.001778048017837652,-0.004453315994028964
-0.0006528242253521127,0.001220132400682417,-0.004519143109538078
-0.0006527842253521127,0.001187313834967456,-0.003992526185466122
-0.0006527442253521126,0.001285769532112995,-0.003038033010583607
-0.0006527042253521127,0.001581136623547585,-0.00336716858812858
-0.0006526642253521127,0.001252950966397437,-0.003038033010583008
-0.0006526242253521127,0.001449862360687559,-0.002972205895073894
-0.0006525842253521127,0.001220132400682417,-0.003103860126092122
-0.0006525442253521127,0.00164677375497685,-0.001754404258157736
-0.0006525042253521127,0.001252950966397437,-0.001326528007346039
-0.0006524642253521127,0.001515499492117545,-0.004288748205256179
-0.0006524242253521127,0.001515499492117545,-0.002116453393455409
-0.0006523842253521127,0.001778048017837652,-0.001392355122855153
-0.0006523442253521127,0.001646773754977865,-0.0020177127201906
-0.0006523042253521127,0.002303145069276968,-0.00478245157156783
-0.0006522642253521127,0.001778048017837652,-0.001096133103064139
-0.0006522242253521127,0.002434419332137949,-0.002281021182228195
-0.0006521842253521127,0.002237507937847882,-0.003992526185465165
-0.0006521442253521127,0.002467237897852552,-0.004420402436273629
-0.0006521042253521127,0.002467237897853567,-0.003005119452830307
-0.0006520642253521127,0.002795423555003118,-0.004025439743219721
-0.0006520242253521127,0.002368782200707908,-0.006230648112775047
-0.0006519842253521127,0.002664149292143037,-0.003531736376901365
-0.0006519442253521127,0.002729786423572958,-0.005012846475853741
-0.0006519042253521126,0.002467237897853447,-0.005177414264628023
-0.0006518642253521127,0.002729786423573077,-0.004519143109538078
-0.0006518242253521127,0.002270326503562903,-0.005539463399929348
-0.0006517842253521127,0.00204059654355776,-0.004453315994028964
-0.0006517442253521127,0.002729786423573077,-0.005341982053402005
-0.0006517042253521126,0.002696967857858296,-0.003597563492413472
-0.0006516642253521127,0.002828242120718139,-0.005243241380138334
-0.0006516242253521127,0.002762604989288098,-0.003860871954446936
-0.0006515842253521127,0.002335963634992888,-0.002873465221810222
-0.0006515442253521127,0.002762604989288098,-0.004091266858728836
-0.0006515042253521127,0.002335963634993664,-0.004914105802591266
-0.0006514642253521127,0.0020734151092729,-0.002577243202021125
-0.0006514242253521127,0.002139052240702821,-0.003630477050165036
-0.0006513842253521127,0.001712410886407667,-0.005144500706874663
-0.0006513442253521127,0.001909322280697734,-0.004979932918101878
-0.0006513042253521127,0.001810866583552852,-0.003367168588131513
-0.0006512642253521127,0.002368782200705401,-0.003827958396695372
-0.0006512242253521127,0.0009904024406773293,-0.005473636284420234
-0.0006511842253521127,0.001778048017837652,-0.004683710898310864
-0.0006511442253521127,0.001646773754977626,-0.004617883782801749
-0.0006511042253521127,0.002040596543557044,-0.005868598977472645
-0.0006510642253521126,0.002073415109272721,-0.005276154937893131
-0.0006510242253521127,0.00204059654355776,-0.00540780916891112
-0.0006509842253521127,0.001613955189262606,-0.005802771861965805
-0.0006509442253521127,0.00204059654355776,-0.005210327822383777
-0.0006509042253521127,0.002565693594998031,-0.005374895611156563
-0.0006508642253521126,0.001974959412127894,-0.004914105802592105
-0.0006508242253521127,0.00204059654355776,-0.004552056667292635
-0.0006507842253521127,0.002106233674987801,-0.005440722726665677
-0.0006507442253521127,0.00253287502928301,-0.006559783690320619
-0.0006507042253521127,0.00253287502928301,-0.005769858304211248
-0.0006506642253521127,0.002171870806418498,-0.004617883782803845
-0.0006506242253521127,0.002401600766422929,-0.00586859897747492
-0.0006505842253521127,0.002762604989288098,-0.005012846475856435
-0.0006505442253521127,0.002270326503562903,-0.00392669906995605
-0.0006505042253521127,0.00253287502928301,-0.004815365129329092
-0.0006504642253521127,0.002861060686432562,-0.003597563492412694
-0.0006504242253521127,0.002598512160713051,-0.003334255030378333
-0.0006503842253521127,0.002598512160713051,-0.005704031188702134
-0.0006503442253521127,0.002204689372132862,-0.004091266858728836
-0.0006503042253521127,0.00207341510927278,-0.002873465221810222
-0.0006502642253521127,0.002434419332137293,-0.005276154937888521
-0.0006502242253521126,0.00210623367498792,-0.003827958396692798
-0.0006501842253521127,0.002171870806417842,-0.004058353300974278
-0.0006501442253521127,0.001974959412127775,-0.003038033010583008
-0.0006501042253521127,0.001482680926402524,-0.00665852436358429
-0.0006500642253521127,0.002368782200706297,-0.001820231373673196
-0.0006500242253521126,0.001121676703538903,-0.003235514357122385
-0.0006499842253521127,0.001942140846412754,-0.009851139465776329
-0.0006499442253521127,0.0009904024406773293,-0.003762131281183265
-0.0006499042253521127,0.001745229452122632,0.004466258157456012
-0.0006498642253521127,0.003057972080723226,-0.01445903755141432
-0.0006498242253521127,0.0004324868235268692,-0.003696304165693729
-0.0006497842253521127,0.002139052240702821,0.004894134408265255
-0.0006497442253521127,0.00105603957210737,-0.01449195110916888
-0.0006497042253521127,0.001515499492117545,0.003149715847273728
-0.0006496642253521127,0.002598512160713051,-0.00586859897747492
-0.0006496242253521127,0.001679592320694318,-0.003268427914869638
-0.0006495842253521127,0.002434419332138069,8.875497609069706e-05
-0.0006495442253521127,0.00250005646356799,-0.004979932918101878
-0.0006495042253521127,0.002007777977842795,-0.0007011704100094536
-0.0006494642253521127,0.002565693594998031,-0.0001416399281819828
-0.0006494242253521127,0.002368782200708267,-0.0007999110832719275
-0.0006493842253521127,0.002171870806419095,-0.001622750027140226
-0.0006493442253521127,0.002861060686433159,-0.00336716858812858
-0.0006493042253521127,0.002434419332137949,-0.0002732941592002112
-0.0006492642253521127,0.002565693594998031,-0.001984799162437181
-0.0006492242253521127,0.00253287502928307,-0.002511416086509136
-0.0006491842253521126,0.002893879252146687,-0.001787317815912892
-0.0006491442253521127,0.00207341510927278,-0.003465909261392251
-0.0006491042253521127,0.002959516383578165,-0.003432995703637694
-0.0006490642253521127,0.00250005646356799,-0.00517741426462922
-0.0006490242253521127,0.002171870806417842,-0.009324522541703417
-0.0006489842253521126,0.002106233674987801,-0.002675983875295812
-0.0006489442253521127,0.002106233674987801,-0.009785312350267215
-0.0006489042253521127,0.001613955189262606,-0.007185141287657204
-0.0006488642253521127,0.00207341510927278,-0.006592697248075176
-0.0006488242253521127,0.001745229452122632,-0.005802771861965805
-0.0006487842253521127,0.001515499492117962,-0.006164820997265275
-0.0006487442253521127,0.002040596543557223,-0.00402543974321553
-0.0006487042253521127,0.001745229452122632,-0.001721490700400724
-0.0006486642253521127,0.002664149292143037,-0.0006682568522548965
-0.0006486242253521127,0.002631330726428016,-0.002774724548546551
-0.0006485842253521127,0.001974959412128969,0.001273643055256609
-0.0006485442253521127,0.002303145069278819,0.002063568441372325
-0.0006485042253521127,0.002795423555003118,0.001504037959545873
-0.0006484642253521127,0.001646773754977626,-0.00267598387528288
-0.0006484242253521127,0.001942140846412754,0.00153695151730043
-0.0006483842253521127,0.001876503714982833,-0.001392355122849825
-0.0006483442253521126,0.002007777977843631,-0.0006024297367471593
-0.0006483042253521127,0.00246723789785297,-0.001359441565100596
-0.0006482642253521127,0.002106233674987801,-0.001227787334082367
-0.0006482242253521127,0.001351406663542498,-0.0003391212747093254
-0.0006481842253521127,0.002237507937847882,0.001504037959545873
-0.0006481442253521126,0.002204689372132922,-0.00126070089183878
-0.0006481042253521127,0.002237507937847882,-0.002281021182228195
-0.0006480642253521127,0.002171870806417842,0.003873814117873984
-0.0006480242253521127,0.001843685149267693,-0.009949880139040001
-0.0006479842253521127,0.002007777977842795,0.009864081629203377
-0.0006479442253521127,0.003484613435015694,-0.004716624456038898
-0.0006479042253521127,0.002532875029283548,-0.004683710898281109
-0.0006478642253521127,0.002828242120718139,0.01167432730570402
-0.0006478242253521127,0.002696967857858057,-0.0106410648518857
-0.0006477842253521127,0.002565693594998031,0.008876674896566664
-0.0006477442253521127,0.003254883475012039,0.0002204092071338912
-0.0006477042253521127,0.002762604989288217,-0.002149366951199968
-0.0006476642253521127,0.002828242120718139,0.003347197193801071
-0.0006476242253521127,0.003057972080723226,-0.001392355122855153
-0.0006475842253521127,0.002303145069277923,-0.0002403806014456541
-0.0006475442253521127,0.002500056463567632,-0.001754404258152527
-0.0006475042253521126,0.002631330726428076,-0.001622750027135616
-0.0006474642253521127,0.002664149292143037,-0.000832824641027682
-0.0006474242253521127,0.002565693594998031,-0.002939292337319337
-0.0006473842253521127,0.002270326503562903,-0.002050626277946295
-0.0006473442253521127,0.002368782200707908,-0.002643070317528323
-0.0006473042253521126,0.001778048017837473,-0.005374895611154827
-0.0006472642253521127,0.001679592320692647,-0.004420402436274407
-0.0006472242253521127,0.001810866583552673,-0.004288748205256179
-0.0006471842253521127,0.001843685149267693,-0.005045760033610991
-0.0006471442253521127,0.002106233674987801,-0.004552056667292635
-0.0006471042253521127,0.001942140846413053,-0.005243241380137077
-0.0006470642253521127,0.001712410886407667,-0.004288748205256179
-0.0006470242253521127,0.001449862360687559,-0.004617883782801749
-0.0006469842253521127,0.002007777977842795,-0.004058353300974278
-0.0006469442253521127,0.001876503714982714,-0.003268427914864908
-0.0006469042253521127,0.001646773754978044,-0.005177414264625748
-0.0006468642253521127,0.002106233674987025,-0.003992526185464806
-0.0006468242253521127,0.001679592320692647,-0.003795044838937822
-0.0006467842253521127,0.001909322280697734,-0.002873465221810222
-0.0006467442253521127,0.001712410886407667,-0.00336716858812858
-0.0006467042253521127,0.001810866583552494,-0.00336716858812858
-0.0006466642253521126,0.002237507937847882,-0.003630477050163719
-0.0006466242253521127,0.002237507937847882,-0.00290637877956478
-0.0006465842253521127,0.00204059654355776,-0.003893785512201493
-0.0006465442253521127,0.001876503714982714,-0.004420402436274407
-0.0006465042253521127,0.001810866583552792,-0.003762131281184462
-0.0006464642253521126,0.002500056463569363,-0.002675983875281742
-0.0006464242253521127,0.003254883475013293,-0.002050626277946295
-0.0006463842253521127,0.002237507937847882,-0.003663390607919593
-0.0006463442253521127,0.002861060686433159,-0.002939292337319337
-0.0006463042253521127,0.003254883475013293,-0.003103860126092122
-0.0006462642253521127,0.002795423555003954,-0.002906378779565139
-0.0006462242253521127,0.002729786423573077,-0.004124180416483393
-0.0006461842253521127,0.002893879252148179,-0.003005119452828451
-0.0006461442253521127,0.003057972080723226,-0.003202600799355794
-0.0006461042253521127,0.003222064909298272,-0.004321661763010735
-0.0006460642253521127,0.003189246343583312,-0.00379504483893878
-0.0006460242253521127,0.003025153515008385,-0.003630477050164857
-0.0006459842253521127,0.003123609212153267,-0.003531736376901365
-0.0006459442253521127,0.002237507937847882,-0.005210327822383777
-0.0006459042253521127,0.002368782200707908,-0.005572376957683906
-0.0006458642253521127,0.00243441933213783,-0.005506549842174911
-0.0006458242253521127,0.002303145069277446,-0.005835685419723236
-0.0006457842253521127,0.00204059654355776,-0.007415536191939104
-0.0006457442253521127,0.002368782200707908,-0.005374895611156563
-0.0006457042253521127,0.001318588097827478,0.004466258157456012
-0.0006456642253521127,0.00243441933213592,-0.005243241380120674
-0.0006456242253521126,0.002762604989287501,-0.006000253208479796
-0.0006455842253521127,0.002434419332137949,0.001339470170773087
-0.0006455442253521127,0.002598512160713051,0.000417890553645488
-0.0006455042253521127,0.00250005646356799,-0.002182280508964523
-0.0006454642253521127,0.002434419332137949,-0.001556922911627938
-0.0006454242253521126,0.001876503714982654,0.0004508041113896278
-0.0006453842253521127,0.001843685149267693,-0.005276154937892892
-0.0006453442253521127,0.001712410886407667,-0.01468943245569622
-0.0006453042253521127,0.001679592320692647,-0.01146390379574963
-0.0006452642253521127,0.00250005646356799,-0.002972205895073894
-0.0006452242253521127,0.002368782200708147,-0.006263561670523618
-0.0006451842253521127,0.002664149292142022,-0.006987659941121239
-0.0006451442253521127,0.002106233674987801,-0.002248107624473638
-0.0006451042253521127,0.002204689372132862,-0.007876326000502903
-0.0006450642253521127,0.002106233674987801,-0.008073807347030245
-0.0006450242253521127,0.002696967857856982,-0.007086400614395329
-0.0006449842253521127,0.002861060686432263,-0.006362302343797168
-0.0006449442253521127,0.002368782200707908,-0.008501683597839487
-0.0006449042253521127,0.002631330726428016,-0.007876326000502903
-0.0006448642253521127,0.002335963634992888,-0.004881192244838206
-0.0006448242253521127,0.002729786423572361,-0.006757265036844548
-0.0006447842253521126,0.002795423555002879,-0.008271288693548907
-0.0006447442253521127,0.002664149292143037,-0.003498822819146808
-0.0006447042253521127,0.00246723789785297,-0.00790923955825746
-0.0006446642253521127,0.002106233674987801,-0.008106720904784802
-0.0006446242253521127,0.001646773754977626,-0.006691437921338847
-0.0006445842253521126,0.001876503714982296,-0.006592697248078289
-0.0006445442253521127,0.001646773754977626,-0.008304202251312145
-0.0006445042253521127,0.001843685149267693,-0.005802771861965805
-0.0006444642253521127,0.001810866583552673,-0.007283881960920875
-0.0006444242253521127,0.001613955189262606,-0.006823092152357076
-0.0006443842253521127,0.001548318057832685,-0.008073807347027971
-0.0006443442253521127,0.001515499492117186,-0.007645931096219986
-0.0006443042253521127,0.001318588097827478,-0.007086400614393532
-0.0006442642253521127,0.001548318057832565,-0.008962473406403288
-0.0006442242253521127,0.001318588097827478,-0.007250968403166318
-0.0006441842253521127,0.001646773754977029,-0.005769858304213942
-0.0006441442253521127,0.001646773754977567,-0.006987659941128963
-0.0006441042253521127,0.001613955189262606,-0.006493956574811504
-0.0006440642253521127,0.001810866583552673,-0.006461043017056948
-0.0006440242253521127,0.001942140846412754,-0.007613017538466446
-0.0006439842253521127,0.001449862360688455,-0.006098993881759573
-0.0006439442253521126,0.001056039572108266,-0.006066080324003399
-0.0006439042253521127,0.001548318057832565,-0.006691437921338847
-0.0006438642253521127,0.001778048017837652,-0.007283881960920875
-0.0006438242253521127,0.001876503714982714,-0.006296475228284162
-0.0006437842253521127,0.00204059654355776,-0.005967339650738591
-0.0006437442253521126,0.001581136623547824,-0.006790178594601621
-0.0006437042253521127,0.001712410886407667,-0.006296475228284162
-0.0006436642253521127,0.001909322280697734,-0.007613017538466446
-0.0006436242253521127,0.002368782200707908,-0.008271288693557588
-0.0006435842253521127,0.001745229452122632,-0.007218054845411761
