Analysis/New Tests_CMB/wrd01_d2s01/cmb13_ch02.csv

#Digilent WaveForms Oscilloscope Acquisition
#Device Name: ADP3450
#Serial Number: SN:210018B9D9B0
#Date Time: 2024-08-06 17:50:24.176.193.360
#Sample rate: 2.94118e+06Hz
#Samples: 32768
#Trigger: Source: Channel 3 Type: Edge Condition: Rising Level: 60 mV Hyst.: Auto HoldOff: 0 s
#Channel 3: Range: 200 mV/div Offset: -20 mV Attenuation: 1 X Coupling: DC Bandwidth: 0 Hz Sample Mode: Average

Time (s),Channel 3 (V)
-0.005570360453400505,0.03099848276511872
-0.005570020453400504,0.03040603872553549
-0.005569680453400504,0.02974776757044555
-0.005569340453400505,0.02918823708861808
-0.005569000453400504,0.02816791679822681
-0.005568660453400504,0.02816791679822681
-0.005568320453400505,0.02737799141211743
-0.005567980453400504,0.02708176939232534
-0.005567640453400504,0.02648932535274439
-0.005567300453400504,0.02586396775540781
-0.005566960453400504,0.02461325256073296
-0.005566620453400504,0.02369167294360704
-0.005566280453400504,0.02286883399974311
-0.005565940453400504,0.02290174755749761
-0.005565600453400504,0.02286883399974311
-0.005565260453400504,0.02240804419117931
-0.005564920453400504,0.02260552553770689
-0.005564580453400504,0.02273717976872488
-0.005564240453400504,0.02247387130668842
-0.005563900453400504,0.02214473572914225
-0.005563560453400504,0.02181560015159728
-0.005563220453400504,0.02161811880506994
-0.005562880453400505,0.02125606966977047
-0.005562540453400504,0.02135481034303348
-0.005562200453400504,0.02138772390078804
-0.005561860453400505,0.02161811880506952
-0.005561520453400504,0.02191434082486095
-0.005561180453400504,0.02184851370935184
-0.005560840453400505,0.02155229168956136
-0.005560500453400504,0.02079527986120601
-0.005560160453400504,0.02066362563018779
-0.005559820453400505,0.0204990578414153
-0.005559480453400504,0.02030157649488766
-0.005559140453400504,0.01984078668632386
-0.005558800453400505,0.01974204601306036
-0.005558460453400504,0.01961039178204196
-0.005558120453400504,0.01914960197347816
-0.005557780453400505,0.01852424437614271
-0.005557440453400504,0.01822802235635056
-0.005557100453400504,0.01799762745206866
-0.005556760453400505,0.01701022071943374
-0.005556420453400504,0.01697730716167739
-0.005556080453400504,0.01717478850820473
-0.005555740453400505,0.01793180033655817
-0.005555400453400504,0.01776723254778676
-0.005555060453400504,0.01737226985473207
-0.005554720453400505,0.01658234446862414
-0.005554380453400504,0.01582533264026789
-0.005554040453400504,0.01480501234987662
-0.005553700453400505,0.01431130898355826
-0.005553360453400504,0.01362012427071256
-0.005553020453400504,0.01342264292418522
-0.005552680453400505,0.01365303782846712
-0.005552340453400504,0.01388343273274902
-0.005552000453400504,0.01480501234987662
-0.005551660453400505,0.01503540725415852
-0.005551320453400504,0.01490375302313903
-0.005550980453400504,0.01421256831029459
-0.005550640453400505,0.01365303782846712
-0.005550300453400504,0.01355429715520339
-0.005549960453400504,0.01352138359744889
-0.005549620453400505,0.01358721071295801
-0.005549280453400504,0.01411382763703206
-0.005548940453400504,0.0147391852343675
-0.005548600453400505,0.01506832081191307
-0.005548260453400504,0.01526580215844228
-0.005547920453400504,0.01628612244883169
-0.005547580453400505,0.01622029533332257
-0.005547240453400504,0.01612155466006046
-0.005546900453400504,0.01697730716167739
-0.005546560453400504,0.0165823444686227
-0.005546220453400504,0.01582533264026621
-0.005545880453400504,0.01490375302314029
-0.005545540453400504,0.01408091407927636
-0.005545200453400504,0.01381760561723865
-0.005544860453400504,0.01312642090439421
-0.005544520453400504,0.01319224801990332
-0.005544180453400504,0.01306059378888491
-0.005543840453400504,0.01296185311562142
-0.005543500453400504,0.01332390225092155
-0.005543160453400504,0.01365303782846754
-0.005542820453400504,0.01388343273274902
-0.005542480453400504,0.01437713609906738
-0.005542140453400505,0.01464044456110335
-0.005541800453400504,0.01519997504293131
-0.005541460453400504,0.01562785129374055
-0.005541120453400505,0.01566076485149505
-0.005540780453400504,0.01579241908251333
-0.005540440453400504,0.01519997504293131
-0.005540100453400505,0.0140809140792784
-0.005539760453400504,0.01296185311562142
-0.005539420453400504,0.01200735994073926
-0.005539080453400505,0.01115160743912234
-0.005538740453400504,0.01108578032361167
-0.005538400453400504,0.01151365657442091
-0.005538060453400505,0.01213901417175636
-0.005537720453400504,0.01269854465358496
-0.005537380453400504,0.01322516157765788
-0.005537040453400505,0.01283019888460391
-0.005536700453400504,0.01276437176909408
-0.005536360453400504,0.01309350734663965
-0.005536020453400505,0.01322516157765764
-0.005535680453400504,0.01279728532684864
-0.005535340453400504,0.01381760561723991
-0.005535000453400505,0.01417965475253937
-0.005534660453400504,0.01480501234987662
-0.005534320453400504,0.01569367840924966
-0.005533980453400505,0.01595698687128564
-0.005533640453400504,0.0161215546600589
-0.005533300453400504,0.01631903600658625
-0.005532960453400505,0.01615446821781346
-0.005532620453400504,0.0156607648514951
-0.005532280453400504,0.01589115975577701
-0.005531940453400505,0.01529871571619498
-0.005531600453400504,0.01582533264026789
-0.005531260453400504,0.01536454283170409
-0.005530920453400505,0.01490375302314029
-0.005530580453400504,0.01447587677233105
-0.005530240453400504,0.01447587677233105
-0.005529900453400505,0.01408091407927636
-0.005529560453400504,0.01417965475254147
-0.005529220453400504,0.0149695801386494
-0.005528880453400505,0.0154303699472132
-0.005528540453400504,0.01562785129374055
-0.005528200453400504,0.01562785129374055
-0.005527860453400505,0.0161215546600589
-0.005527520453400504,0.01687856648841467
-0.005527180453400504,0.01740518341248663
-0.005526840453400505,0.01816219524084144
-0.005526500453400504,0.01875463928042335
-0.005526160453400504,0.01868881216491436
-0.005525820453400505,0.0175039240857503
-0.005525480453400504,0.01697730716167691
-0.005525140453400504,0.01671399869964093
-0.005524800453400504,0.01605572754454979
-0.005524460453400504,0.01549619706271974
-0.005524120453400504,0.01408091407927636
-0.005523780453400504,0.01332390225092155
-0.005523440453400504,0.01243523619154701
-0.005523100453400504,0.01161239724768458
-0.005522760453400504,0.01144782945891179
-0.005522420453400504,0.01141491590115814
-0.005522080453400504,0.01190861926747559
-0.005521740453400504,0.01283019888460319
-0.005521400453400504,0.01335681580867575
-0.005521060453400504,0.01315933446214876
-0.005520720453400504,0.01312642090439421
-0.005520380453400505,0.0132580751354122
-0.005520040453400504,0.01362012427071256
-0.005519700453400504,0.01394925984825813
-0.005519360453400505,0.01427839542580311
-0.005519020453400504,0.01447587677233105
-0.005518680453400504,0.01480501234987662
-0.005518340453400505,0.01493666658089461
-0.005518000453400504,0.0147391852343675
-0.005517660453400504,0.0142783954258037
-0.005517320453400505,0.01408091407927672
-0.005516980453400504,0.01408091407927636
-0.005516640453400504,0.01388343273274902
-0.005516300453400505,0.01431130898355748
-0.005515960453400504,0.01444296321457649
-0.005515620453400504,0.01516706148517675
-0.005515280453400505,0.01536454283170373
-0.005514940453400504,0.01441004965682193
-0.005514600453400504,0.01444296321457649
-0.005514260453400505,0.01414674119478602
-0.005513920453400504,0.01378469205948535
-0.005513580453400504,0.01371886494397623
-0.005513240453400505,0.01454170388783867
-0.005512900453400504,0.01490375302314029
-0.005512560453400504,0.0154303699472132
-0.005512220453400505,0.01546328350496776
-0.005511880453400504,0.01533162927394953
-0.005511540453400504,0.0147391852343675
-0.005511200453400505,0.01437713609906738
-0.005510860453400504,0.01447587677233105
-0.005510520453400504,0.01444296321457649
-0.005510180453400505,0.01457461744559472
-0.005509840453400504,0.01487083946538573
-0.005509500453400504,0.0142783954258037
-0.005509160453400505,0.01342264292418522
-0.005508820453400504,0.01292893955786854
-0.005508480453400504,0.01385051917499446
-0.005508140453400505,0.01431130898355826
-0.005507800453400504,0.01447587677233278
-0.005507460453400504,0.0154303699472132
-0.005507120453400505,0.01526580215844042
-0.005506780453400504,0.01496958013864851
-0.005506440453400504,0.01447587677233105
-0.005506100453400505,0.0142783954258037
-0.005505760453400504,0.01332390225092053
-0.005505420453400504,0.01276437176909408
-0.005505080453400505,0.01151365657442091
-0.005504740453400504,0.01095412609259218
-0.005504400453400504,0.01026294137974774
-0.005504060453400504,0.01023002782199318
-0.005503720453400504,0.0108224718615776
-0.005503380453400504,0.01213901417175749
-0.005503040453400504,0.01368595138622168
-0.005502700453400504,0.01506832081191475
-0.005502360453400504,0.01598990042904068
-0.005502020453400504,0.01661525802637726
-0.005501680453400504,0.01608864110230273
-0.005501340453400504,0.01519997504293131
-0.005501000453400504,0.01434422254131282
-0.005500660453400504,0.01319224801990134
-0.005500320453400504,0.01210610061400294
-0.005499980453400504,0.01105286676585711
-0.005499640453400505,0.01055916339953965
-0.005499300453400504,0.01105286676585711
-0.005498960453400504,0.01131617522789356
-0.005498620453400505,0.01167822436319303
-0.005498280453400504,0.01246814974930307
-0.005497940453400504,0.01335681580867611
-0.005497600453400505,0.01454170388783801
-0.005497260453400504,0.01549619706272232
-0.005496920453400504,0.01661525802637726
-0.005496580453400505,0.0173064427392217
-0.005496240453400504,0.01783305966329587
-0.005495900453400504,0.01710896139269562
-0.005495560453400505,0.0160886411023062
-0.005495220453400504,0.01510123436966763
-0.005494880453400504,0.01454170388784016
-0.005494540453400505,0.01394925984825921
-0.005494200453400504,0.01368595138622168
-0.005493860453400504,0.01375177850173079
-0.005493520453400505,0.0148708394653837
-0.005493180453400504,0.01539745638945865
-0.005492840453400504,0.01503540725415852
-0.005492500453400505,0.01519997504293101
-0.005492160453400504,0.01575950552475877
-0.005491820453400504,0.01608864110230435
-0.005491480453400505,0.01615446821781334
-0.005491140453400504,0.01671399869964093
-0.005490800453400504,0.01737226985473207
-0.005490460453400505,0.01766849187452309
-0.005490120453400504,0.01747101052799575
-0.005489780453400504,0.0172735291814684
-0.005489440453400505,0.01631903600658625
-0.005489100453400504,0.01552911062047688
-0.005488760453400504,0.01503540725415852
-0.005488420453400505,0.01536454283170409
-0.005488080453400504,0.01467335811885809
-0.005487740453400504,0.01450879033008561
-0.005487400453400505,0.01506832081191307
-0.005487060453400504,0.01549619706272286
-0.005486720453400504,0.01579241908251333
-0.005486380453400505,0.01556202417823143
-0.005486040453400504,0.01543036994721165
-0.005485700453400504,0.01457461744559472
-0.005485360453400505,0.01388343273274902
-0.005485020453400504,0.01312642090439337
-0.005484680453400504,0.01266563109583041
-0.005484340453400505,0.01273145821133952
-0.005484000453400504,0.01322516157765752
-0.005483660453400504,0.01302768023113053
-0.005483320453400505,0.01302768023113053
-0.005482980453400504,0.01315933446214882
-0.005482640453400504,0.01319224801990332
-0.005482300453400504,0.01329098869316699
-0.005481960453400504,0.01358721071295932
-0.005481620453400504,0.01431130898355826
-0.005481280453400504,0.01490375302314029
-0.005480940453400504,0.01487083946538549
-0.005480600453400504,0.0147391852343675
-0.005480260453400504,0.0147391852343675
-0.005479920453400504,0.01513414792742087
-0.005479580453400504,0.01441004965682193
-0.005479240453400504,0.01381760561723991
-0.005478900453400505,0.01236940907604203
-0.005478560453400504,0.007169066950819369
-0.005478220453400504,-0.004613986725312075
-0.005477880453400505,-0.0245266891667829
-0.005477540453400504,-0.05191076921861063
-0.005477200453400504,-0.08489015408867687
-0.005476860453400505,-0.1204038829057794
-0.005476520453400504,-0.1545681558550743
-0.005476180453400504,-0.1848157154315122
-0.005475840453400505,-0.2102908091334931
-0.005475500453400504,-0.2291502777269007
-0.005475160453400504,-0.2416903432313869
-0.005474820453400505,-0.2484047090133044
-0.005474480453400504,-0.250675744498381
-0.005474140453400504,-0.249194634399426
-0.005473800453400505,-0.2451133532378683
-0.005473460453400504,-0.2393863941885679
-0.005473120453400504,-0.2323099792713382
-0.005472780453400505,-0.2253323050273847
-0.005472440453400504,-0.2175976189550511
-0.005472100453400504,-0.2100604142292576
-0.005471760453400505,-0.2015358027708428
-0.005471420453400504,-0.1933732404476971
-0.005471080453400504,-0.1852765052400761
-0.005470740453400505,-0.1775418191677692
-0.005470400453400504,-0.1705312313660345
-0.005470060453400504,-0.1637181249108411
-0.005469720453400505,-0.1569708455711569
-0.005469380453400504,-0.1511122322908458
-0.005469040453400504,-0.1454840139148165
-0.005468700453400505,-0.1402178446740873
-0.005468360453400504,-0.135116243222131
-0.005468020453400504,-0.1300475553279292
-0.005467680453400505,-0.1249459538759729
-0.005467340453400504,-0.1197456117507529
-0.005467000453400504,-0.114676923856551
-0.005466660453400505,-0.1093120139425582
-0.005466320453400504,-0.1041116718173307
-0.005465980453400504,-0.09999747709801857
-0.005465640453400505,-0.09660738064929919
-0.005465300453400504,-0.09321728420057311
-0.005464960453400504,-0.08953096573206942
-0.005464620453400505,-0.08617378284110458
-0.005464280453400504,-0.08261911860360482
-0.005463940453400504,-0.07843909676878366
-0.005463600453400505,-0.07432490204946401
-0.005463260453400504,-0.07083606492747439
-0.005462920453400504,-0.06721557357447969
-0.005462580453400505,-0.06379256356800575
-0.005462240453400504,-0.06069868913907223
-0.005461900453400504,-0.05786812317218547
-0.005461560453400504,-0.05553126057161192
-0.005461220453400504,-0.05342479287531614
-0.005460880453400504,-0.05115375739025583
-0.005460540453400504,-0.04967264729130075
-0.005460200453400504,-0.04805988296132303
-0.005459860453400504,-0.04562427968749023
-0.005459520453400504,-0.04404442891527149
-0.005459180453400504,-0.04226709679652331
-0.005458840453400504,-0.04111512227511591
-0.005458500453400504,-0.03956818506065173
-0.005458160453400504,-0.0382845563082207
-0.005457820453400504,-0.03647431063172336
-0.005457480453400504,-0.03502611409052284
-0.005457140453400505,-0.03272216504770804
-0.005456800453400504,-0.0306815244669213
-0.005456460453400504,-0.02860797032838421
-0.005456120453400505,-0.02660024330535988
-0.005455780453400504,-0.02478999762885558
-0.005455440453400504,-0.02281518416358216
-0.005455100453400505,-0.02179486387319274
-0.005454760453400504,-0.01991879108118113
-0.005454420453400504,-0.0179439776159077
-0.005454080453400505,-0.01593625059288337
-0.005453740453400504,-0.01409309135862452
-0.005453400453400504,-0.01224993212436933
-0.005453060453400505,-0.01188788298906986
-0.005452720453400504,-0.01178914231580552
-0.005452380453400504,-0.01182205587356008
-0.005452040453400505,-0.01129543894948812
-0.005451700453400504,-0.0102751186590959
-0.005451360453400504,-0.009320625484213741
-0.005451020453400505,-0.008168650962806338
-0.005450680453400504,-0.006885022210376516
-0.005450340453400504,-0.005733047688967017
-0.005450000453400505,-0.00425193759001464
-0.005449660453400504,-0.003462012203902576
-0.005449320453400504,-0.00296830883758422
-0.005448980453400505,-0.002803741048811732
-0.005448640453400504,-0.003264530857375231
-0.005448300453400504,-0.003725320665939034
-0.005447960453400505,-0.004087369801239162
-0.005447620453400504,-0.00421902403225739
-0.005447280453400504,-0.003889888454711818
-0.005446940453400505,-0.003856974896957261
-0.005446600453400504,-0.003527839319411689
-0.005446260453400504,-0.002672086817793205
-0.005445920453400505,-0.001816334316174721
-0.005445580453400504,-0.0007960140257814138
-0.005445240453400504,0.0003230469378714927
-0.005444900453400505,0.001442107901526435
-0.005444560453400504,0.001771243479072242
-0.005444220453400504,0.001902897710090234
-0.005443880453400505,0.001902897710090234
-0.005443540453400504,0.002297860403146535
-0.005443200453400504,0.00318652646251796
-0.005442860453400505,0.004206846752909232
-0.005442520453400504,0.005457561947583778
-0.005442180453400504,0.006214573775937213
-0.005441840453400505,0.006444968680219114
-0.005441500453400504,0.006082919544917309
-0.005441160453400504,0.005161339927791386
-0.005440820453400504,0.0052271670433005
-0.005440480453400504,0.005260080601055956
-0.005440140453400504,0.005753783967373414
-0.005439800453400504,0.006247487333691772
-0.005439460453400504,0.006872844931029973
-0.005439120453400504,0.007761510990401397
-0.005438780453400504,0.008288127914474312
-0.005438440453400504,0.009209707531602869
-0.005438100453400504,0.009736324455674824
-0.005437760453400504,0.009966719359956725
-0.005437420453400504,0.01009837359097459
-0.005437080453400504,0.009900892244447609
-0.005436740453400504,0.01036168205301141
-0.005436400453400505,0.01003254647546644
-0.005436060453400504,0.009637583782411153
-0.005435720453400504,0.009505929551392924
-0.005435380453400505,0.009736324455674404
-0.005435040453400504,0.009835065128938496
-0.005434700453400504,0.01049333628402964
-0.005434360453400505,0.01101995320810159
-0.005434020453400504,0.01223775484502116
-0.005433680453400504,0.01296185311562142
-0.005433340453400505,0.01421256831029231
-0.005433000453400504,0.01523288860068586
-0.005432660453400504,0.01582533264026789
-0.005432320453400505,0.01628612244883085
-0.005431980453400504,0.01562785129374055
-0.005431640453400504,0.01457461744559472
-0.005431300453400505,0.01394925984825927
-0.005430960453400504,0.01338972936643066
-0.005430620453400504,0.01230358196053028
-0.005430280453400505,0.01227066840277578
-0.005429940453400504,0.01250106330705762
-0.005429600453400504,0.01263271753807585
-0.005429260453400505,0.0132909886931658
-0.005428920453400504,0.01342264292418522
-0.005428580453400504,0.01315933446214876
-0.005428240453400505,0.01312642090439427
-0.005427900453400504,0.01322516157765788
-0.005427560453400504,0.01342264292418522
-0.005427220453400505,0.01424548186804915
-0.005426880453400504,0.01454170388784016
-0.005426540453400504,0.01421256831029459
-0.005426200453400505,0.01404800052152181
-0.005425860453400504,0.01378469205948535
-0.005425520453400504,0.01292893955786686
-0.005425180453400505,0.01180987859421192
-0.005424840453400504,0.01121743455462989
-0.005424500453400504,0.01046042272627508
-0.005424160453400505,0.01026294137974774
-0.005423820453400504,0.0102300278219942
-0.005423480453400504,0.01078955830382065
-0.005423140453400505,0.01101995320810255
-0.005422800453400504,0.01138200234340478
-0.005422460453400504,0.01253397686481218
-0.005422120453400505,0.01322516157765788
-0.005421780453400504,0.01417965475254069
-0.005421440453400504,0.01454170388784016
-0.005421100453400505,0.0142783954258037
-0.005420760453400504,0.01417965475253896
-0.005420420453400504,0.01358721071295801
-0.005420080453400505,0.01286311244235775
-0.005419740453400504,0.01253397686481158
-0.005419400453400504,0.01220484128726661
-0.005419060453400504,0.01250106330705762
-0.005418720453400504,0.01210610061400306
-0.005418380453400504,0.01217192772951205
-0.005418040453400504,0.01197444638298471
-0.005417700453400504,0.0118427921519672
-0.005417360453400504,0.01223775484502116
-0.005417020453400504,0.01240232263379395
-0.005416680453400504,0.01292893955786776
-0.005416340453400504,0.01342264292418522
-0.005416000453400504,0.01398217340601269
-0.005415660453400504,0.01424548186804981
-0.005415320453400504,0.01460753100334928
-0.005414980453400504,0.01503540725415852
-0.005414640453400505,0.01526580215844
-0.005414300453400504,0.01559493773598599
-0.005413960453400504,0.01559493773598599
-0.005413620453400505,0.0154303699472135
-0.005413280453400504,0.01506832081191307
-0.005412940453400504,0.01510123436966763
