Analysis/New Tests_CMB/wrd01_d2s01/cmb10_ch21.csv

#Digilent WaveForms Oscilloscope Acquisition
#Device Name: ADP3450
#Serial Number: SN:210018B9D9B0
#Date Time: 2024-08-07 11:48:59.598.189.620
#Sample rate: 2.94118e+06Hz
#Samples: 32768
#Trigger: Source: Channel 3 Type: Edge Condition: Rising Level: 0 V Hyst.: Auto HoldOff: 0 s
#Channel 3: Range: 200 mV/div Offset: 0 V Attenuation: 1 X Coupling: DC Bandwidth: 0 Hz Sample Mode: Average

Time (s),Channel 3 (V)
-0.00557047052631579,0.004597912388474241
-0.005570130526315789,0.003676332771344726
-0.005569790526315789,0.002623098923200814
-0.00556945052631579,0.002359790461164357
-0.005569110526315789,0.002293963345655542
-0.005568770526315789,0.002458531134428029
-0.00556843052631579,0.003083888731764614
-0.005568090526315789,0.003380110751556705
-0.005567750526315789,0.003972554791137656
-0.00556741052631579,0.004235863253174112
-0.005567070526315789,0.004433344599702472
-0.005566730526315789,0.004992875081528926
-0.00556639052631579,0.005486578447847282
-0.005566050526315789,0.006572725853748684
-0.005565710526315789,0.007132256335575138
-0.00556537052631579,0.008053835952702737
-0.005565030526315789,0.008547539319020794
-0.005564690526315789,0.008382971530248308
-0.00556435052631579,0.007658873259648051
-0.005564010526315789,0.005947368256408867
-0.005563670526315789,0.004729566619492469
-0.00556333052631579,0.003610505655837527
-0.00556299052631579,0.00239270401892113
-0.005562650526315789,0.002228136230146129
-0.00556231052631579,0.002392704018918914
-0.00556197052631579,0.00328137007829034
-0.005561630526315789,0.004762480177247026
-0.00556129052631579,0.007494305470875266
-0.00556095052631579,0.01572269490949958
-0.005560610526315789,0.03076419080334714
-0.00556027052631579,0.05347454565399155
-0.00555993052631579,0.08339296965282952
-0.005559590526315789,0.1175901561598688
-0.00555925052631579,0.1531038849770359
-0.00555891052631579,0.1867415410021321
-0.005558570526315789,0.214849719324585
-0.00555823052631579,0.2374613335019658
-0.00555789052631579,0.2529307056465795
-0.005557550526315789,0.2620477611446199
-0.005557210526315789,0.2657340796131303
-0.00555687052631579,0.2651087220157948
-0.005556530526315789,0.2617515391248289
-0.005556190526315789,0.2559916665177814
-0.00555585052631579,0.2491785600626005
-0.005555510526315789,0.2416742688945491
-0.005555170526315789,0.2346307675350739
-0.00555483052631579,0.2276860068488749
-0.005554490526315789,0.2199184072187868
-0.005554150526315789,0.2121837211464659
-0.00555381052631579,0.2049756519982179
-0.005553470526315789,0.198425854005061
-0.005553130526315789,0.1921393644739406
-0.00555279052631579,0.1857541342695566
-0.005552450526315789,0.1795005582961907
-0.005552110526315789,0.1735432043426159
-0.00555177052631579,0.166993406349459
-0.005551430526315789,0.1607398303760809
-0.005551090526315789,0.1540254645941635
-0.00555075052631579,0.1480681106405887
-0.005550410526315789,0.1420778431292486
-0.005550070526315789,0.1361863162911935
-0.00554973052631579,0.1306239250306734
-0.005549390526315789,0.1256868913674821
-0.005549050526315789,0.1214081288593974
-0.00554871052631579,0.1175243290443597
-0.005548370526315789,0.1136405292293156
-0.005548030526315789,0.1101516921073389
-0.00554769052631579,0.1067615956586195
-0.005547350526315789,0.1036018941141757
-0.005547010526315789,0.100113056992199
-0.00554667052631579,0.09715083679428882
-0.005546330526315789,0.09402404880759992
-0.005545990526315789,0.0907326930321502
-0.00554565052631579,0.08740842369893992
-0.005545310526315789,0.08355753744165047
-0.005544970526315789,0.08010161387742826
-0.00554463052631579,0.0766127767554452
-0.005544290526315789,0.07272897694040122
-0.005543950526315789,0.06930596693393351
-0.00554361052631579,0.06561964846542312
-0.005543270526315789,0.06265742826750902
-0.005542930526315789,0.06048513345571221
-0.00554259052631579,0.05785204883534764
-0.00554225052631579,0.05535061844600585
-0.005541910526315789,0.05363911344276433
-0.00554157052631579,0.05228965757482749
-0.00554123052631579,0.05182886776626453
-0.005540890526315789,0.051433905073209
-0.00554055052631579,0.051433905073209
-0.00554021052631579,0.05117059661117303
-0.005539870526315789,0.04962365939670836
-0.00553953052631579,0.04903121535712634
-0.00553919052631579,0.04672726631431153
-0.005538850526315789,0.04458788506026112
-0.00553851052631579,0.0421522817864239
-0.00553817052631579,0.0397166785125911
-0.005537830526315789,0.03764312437404958
-0.00553749052631579,0.03622784139060362
-0.00553715052631579,0.03398971946329781
-0.005536810526315789,0.03132372128517461
-0.005536470526315789,0.02901977224235561
-0.00553613052631579,0.02770322993217572
-0.005535790526315789,0.02668290964178206
-0.005535450526315789,0.0257284164668999
-0.00553511052631579,0.02586007069791789
-0.005534770526315789,0.02638668762199104
-0.005534430526315789,0.02609046560220003
-0.00553409052631579,0.02490557752303813
-0.005533750526315789,0.0243460470412085
-0.005533410526315789,0.02451061482998129
-0.00553307052631579,0.02404982502141749
-0.005532730526315789,0.02424730636794483
-0.005532390526315789,0.02411565213692661
-0.00553205052631579,0.02381943011713559
-0.005531710526315789,0.02368777588611736
-0.005531370526315789,0.02322698607755356
-0.00553103052631579,0.02256871492246242
-0.005530690526315789,0.0217458759785985
-0.005530350526315789,0.0210546912657528
-0.00553001052631579,0.01993563030209785
-0.005529670526315789,0.01875074222293176
-0.005529330526315789,0.01763168125927886
-0.00552899052631579,0.01631513894909657
-0.005528650526315789,0.0159530898137968
-0.005528310526315789,0.01615057116032378
-0.00552797052631579,0.01585434914053277
-0.005527630526315789,0.0159860033715504
-0.005527290526315789,0.01565686779400543
-0.00552695052631579,0.01522899154319619
-0.005526610526315789,0.01483402885013935
-0.005526270526315789,0.01364914077097745
-0.00552593052631579,0.01312252384690453
-0.005525590526315789,0.01289212894262173
-0.005525250526315789,0.01239842557630427
-0.00552491052631579,0.0118388950944768
-0.005524570526315789,0.01091731547734903
-0.005524230526315789,0.01081857480408553
-0.00552389052631579,0.01065400701531275
-0.005523550526315789,0.01019321720674859
-0.005523210526315789,0.009995735860221606
-0.00552287052631579,0.01002864941797616
-0.005522530526315789,0.01002864941797628
-0.005522190526315789,0.01009447653348528
-0.00552185052631579,0.00973242739818515
-0.005521510526315789,0.009469118936147016
-0.005521170526315789,0.008547539319021094
-0.00552083052631579,0.007889268163929951
-0.00552049052631579,0.006671466527013553
-0.005520150526315789,0.005815714025392853
-0.00551981052631579,0.005322010659074497
-0.00551947052631579,0.005124529312547513
-0.005519130526315789,0.006013195371920196
-0.00551879052631579,0.007296824124347924
-0.00551845052631579,0.008909588454318289
-0.005518110526315789,0.009962822302467049
-0.00551777052631579,0.01042361211103085
-0.00551743052631579,0.01118062393938428
-0.005517090526315789,0.01154267307468579
-0.00551675052631579,0.01121353749714022
-0.00551641052631579,0.01091731547734975
-0.005516070526315789,0.009765340955939707
-0.00551573052631579,0.008448798645757422
-0.00551539052631579,0.007658873259649489
-0.005515050526315789,0.00653981229599311
-0.005514710526315789,0.005585319121110954
-0.00551437052631579,0.004729566619494026
-0.005514030526315789,0.003939641233383098
-0.005513690526315789,0.003742159886855756
-0.00551335052631579,0.004005468348891734
-0.005513010526315789,0.00403838190664677
-0.005512670526315789,0.004663739503983355
-0.00551233052631579,0.004992875081528926
-0.005511990526315789,0.004992875081528926
-0.005511650526315789,0.005387837774583611
-0.00551131052631579,0.004663739503983355
-0.005510970526315789,0.004597912388474241
-0.005510630526315789,0.004170036137664999
-0.00551029052631579,0.00380798700236487
-0.005509950526315789,0.003544678540328413
-0.005509610526315789,0.00357759209808297
-0.00550927052631579,0.003610505655837527
-0.005508930526315789,0.003445937867064802
-0.005508590526315789,0.003478851424819299
-0.00550825052631579,0.003742159886855756
-0.005507910526315789,0.00446625815745697
-0.005507570526315789,0.004992875081528926
-0.00550723052631579,0.005453664890092726
-0.005506890526315789,0.005848627583147531
-0.005506550526315789,0.005914454698656525
-0.00550621052631579,0.005815714025392853
-0.005505870526315789,0.006408158064975181
-0.005505530526315789,0.006572725853747667
-0.00550519052631579,0.006013195371920196
-0.005504850526315789,0.005651146236618452
-0.005504510526315789,0.004762480177247026
-0.00550417052631579,0.00403838190664677
-0.005503830526315789,0.003347197193797957
-0.005503490526315789,0.001635692190564101
-0.00550315052631579,0.0001874956493635883
-0.005502810526315789,-0.0006024297367456026
-0.005502470526315789,-0.0005036890634821109
-0.00550213052631579,0.000714112573436502
-0.005501790526315789,0.001635692190565897
-0.005501450526315789,0.002623098923200814
-0.00550111052631579,0.003742159886855756
-0.005500770526315789,0.004499171715211527
-0.005500430526315789,0.005025788639283483
-0.00550009052631579,0.005651146236620068
-0.00549975052631579,0.005552405563356577
-0.005499410526315789,0.00528909710131994
-0.00549907052631579,0.004400431041946898
-0.00549873052631579,0.00354467854032997
-0.005498390526315789,0.0027876667119736
-0.00549805052631579,0.002458531134428029
-0.00549771052631579,0.003413024309308448
-0.005497370526315789,0.004104209022155884
-0.00549703052631579,0.006210676718447538
-0.00549669052631579,0.008053835952699383
-0.005496350526315789,0.008448798645757422
-0.00549601052631579,0.008646279992284765
-0.00549567052631579,0.008415885088003285
-0.005495330526315789,0.007099342777820581
-0.00549499052631579,0.005848627583147411
-0.00549465052631579,0.004005468348895565
-0.005494310526315789,0.003380110751555628
-0.005493970526315789,0.003380110751555628
-0.00549363052631579,0.00275475315422018
-0.005493290526315789,0.004071295464401327
-0.005492950526315789,0.004729566619492469
-0.00549261052631579,0.004992875081528447
-0.005492270526315789,0.004630825946228797
-0.005491930526315789,0.003775073444610313
-0.00549159052631579,0.00285349382748439
-0.005491250526315789,0.002063568441373343
-0.005490910526315789,0.001635692190564101
-0.00549057052631579,0.001438210844036758
-0.005490230526315789,0.001635692190564101
-0.005489890526315789,0.0023268769034098
-0.00548955052631579,0.003511764982573856
-0.005489210526315789,0.004433344599701455
-0.005488870526315789,0.006046108929674754
-0.00548853052631579,0.00756013258638438
-0.005488190526315789,0.008942502012078414
-0.005487850526315789,0.01039069855327629
-0.00548751052631579,0.01091731547734921
-0.005487170526315789,0.01091731547734807
-0.005486830526315789,0.01029195788001262
-0.00548649052631579,0.009337464705130465
-0.005486150526315789,0.007823441048417364
-0.005485810526315789,0.005914454698656525
-0.00548547052631579,0.004992875081528926
-0.005485130526315789,0.004202949695418538
-0.005484790526315789,0.003643419213592085
-0.00548445052631579,0.003248456520537399
-0.005484110526315789,0.003149715847274386
-0.005483770526315789,0.003511764982573856
-0.00548343052631579,0.003775073444610313
-0.005483090526315789,0.003511764982573796
-0.005482750526315789,0.003478851424819299
-0.00548241052631579,0.003380110751555628
-0.005482070526315789,0.002787666711971983
-0.005481730526315789,0.001899000652600558
-0.00548139052631579,0.001734432863827772
-0.005481050526315789,0.001471124401792513
-0.005480710526315789,0.002129395556882458
-0.00548037052631579,0.002754753154219042
-0.005480030526315789,0.003248456520537699
-0.005479690526315789,0.003413024309310185
-0.00547935052631579,0.004071295464401327
-0.00547901052631579,0.004367517484191803
-0.005478670526315789,0.004992875081528926
-0.00547833052631579,0.004992875081528926
-0.00547799052631579,0.004828307292756439
-0.005477650526315789,0.004137122579910441
-0.00547731052631579,0.003544678540328413
-0.00547697052631579,0.002688926038711485
-0.005476630526315789,0.001931914210355115
-0.00547629052631579,0.001569865075054987
-0.00547595052631579,0.00176734642158197
-0.005475610526315789,0.001833173537091444
-0.00547527052631579,0.002359790461164357
-0.00547493052631579,0.003050975174008799
-0.005474590526315789,0.003511764982573856
-0.00547425052631579,0.003840900560119427
-0.00547391052631579,0.004466258157454875
-0.005473570526315789,0.004663739503983355
-0.005473230526315789,0.005651146236620068
-0.00547289052631579,0.005716973352129062
-0.005472550526315789,0.005486578447847282
-0.005472210526315789,0.004729566619492469
-0.00547187052631579,0.004795393735001464
-0.005471530526315789,0.004334603926437783
-0.005471190526315789,0.003972554791137656
-0.00547085052631579,0.004367517484191623
-0.005470510526315789,0.004301690368683227
-0.005470170526315789,0.004466258157456012
-0.00546983052631579,0.00482830729275614
-0.005469490526315789,0.005256183543565383
-0.005469150526315789,0.005815714025392853
-0.00546881052631579,0.005782800467638296
-0.005468470526315789,0.005354924216829054
-0.005468130526315789,0.004499171715210569
-0.00546779052631579,0.003676332771346642
-0.005467450526315789,0.003281370078291956
-0.005467110526315789,0.002952234500746385
-0.00546677052631579,0.0025572718076917
-0.005466430526315789,0.002425617576673891
-0.005466090526315789,0.002656012480955371
-0.00546575052631579,0.003972554791137656
-0.005465410526315789,0.004564998830721241
-0.005465070526315789,0.005420751332338168
-0.00546473052631579,0.005782800467638296
-0.005464390526315789,0.006079022487427993
-0.005464050526315789,0.005354924216829054
-0.00546371052631579,0.004729566619492469
-0.005463370526315789,0.004137122579909483
-0.005463030526315789,0.003610505655837527
-0.00546269052631579,0.003248456520537399
-0.005462350526315789,0.00347885142481894
-0.005462010526315789,0.003281370078291956
-0.00546167052631579,0.003314283636046514
-0.005461330526315789,0.003742159886856714
-0.005460990526315789,0.00426877681092867
-0.00546065052631579,0.004235863253174112
-0.005460310526315789,0.004499171715211467
-0.005459970526315789,0.004992875081528926
-0.00545963052631579,0.004894134408265255
-0.005459290526315789,0.004828307292756918
-0.005458950526315789,0.005256183543565383
-0.00545861052631579,0.005420751332338168
-0.005458270526315789,0.005453664890092546
-0.005457930526315789,0.005354924216829054
-0.00545759052631579,0.005486578447847282
-0.00545725052631579,0.005354924216829294
-0.005456910526315789,0.004532085272965126
-0.00545657052631579,0.004005468348892213
-0.00545623052631579,0.003577592098083749
-0.005455890526315789,0.003083888731764614
-0.00545555052631579,0.002886407385237271
-0.00545521052631579,0.002919320942991768
-0.005454870526315789,0.003182629405028285
-0.00545453052631579,0.003116802289519171
-0.00545419052631579,0.00324845652053716
-0.005453850526315789,0.003610505655837527
-0.00545351052631579,0.004235863253174112
-0.00545317052631579,0.003972554791138135
-0.005452830526315789,0.003840900560119427
-0.00545249052631579,0.003676332771346642
-0.00545215052631579,0.003775073444610133
-0.005451810526315789,0.00426877681092867
-0.005451470526315789,0.004894134408265255
-0.00545113052631579,0.005716973352127685
-0.005450790526315789,0.006605639411502225
-0.005450450526315789,0.006473985180483996
-0.00545011052631579,0.005684059794376062
-0.005449770526315789,0.004301690368683227
-0.005449430526315789,0.002985148058500942
-0.00544909052631579,0.001833173537093539
-0.005448750526315789,0.001372383728527644
-0.005448410526315789,0.001668605748318658
-0.00544807052631579,0.002162309114637015
-0.005447730526315789,0.003445937867064742
-0.005447390526315789,0.003643419213592085
-0.00544705052631579,0.004729566619492469
-0.005446710526315789,0.005190356428056269
-0.005446370526315789,0.00528909710131994
-0.00544603052631579,0.005420751332338168
-0.005445690526315789,0.005453664890093863
-0.005445350526315789,0.00607902248742931
-0.00544501052631579,0.00607902248742931
-0.005444670526315789,0.005980281814164741
-0.005444330526315789,0.005486578447847282
-0.00544399052631579,0.004466258157456012
-0.005443650526315789,0.003906727675627044
-0.005443310526315789,0.003083888731764614
-0.00544297052631579,0.001997741325864229
-0.005442630526315789,0.001569865075056005
-0.005442290526315789,0.002129395556882458
-0.00544195052631579,0.002491444692182586
-0.005441610526315789,0.003380110751557783
-0.005441270526315789,0.004564998830719684
-0.00544093052631579,0.004729566619492469
-0.005440590526315789,0.004729566619492349
-0.005440250526315789,0.004663739503983355
-0.00543991052631579,0.004433344599701455
-0.005439570526315789,0.003577592098079378
-0.005439230526315789,0.001602778632809544
-0.00543889052631579,-0.004058353300974278
-0.005438550526315789,-0.01669715947876247
-0.005438210526315789,-0.0377289228838862
-0.00543787052631579,-0.06557379274424152
-0.005437530526315789,-0.09799364713254037
-0.005437190526315789,-0.1310388591180556
-0.00543685052631579,-0.1627017016779395
-0.00543651052631579,-0.1909086206735437
-0.005436170526315789,-0.2128948772536391
-0.00543583052631579,-0.2291541747843903
-0.00543549052631579,-0.2400814759588834
-0.005435150526315789,-0.246565446836551
-0.00543481052631579,-0.2489023094371246
-0.00543447052631579,-0.2479807298199987
-0.005434130526315789,-0.2448210282755595
-0.00543379052631579,-0.2391598963417757
-0.00543345052631579,-0.2324784441176128
-0.005433110526315789,-0.2246779309297706
-0.00543277052631579,-0.216548282164395
-0.00543243052631579,-0.2084515469567887
-0.005432090526315789,-0.200716860884453
-0.00543175052631579,-0.1929492612543775
-0.00543141052631579,-0.1850500073932982
-0.005431070526315789,-0.1777431975717721
-0.005430730526315789,-0.1705022148657696
-0.00543039052631579,-0.1635903677373252
-0.005430050526315789,-0.1573038782061922
-0.005429710526315789,-0.1517085733879175
-0.00542937052631579,-0.1462120092429164
-0.005429030526315789,-0.1410774942331955
-0.005428690526315789,-0.1359429792234846
-0.00542835052631579,-0.131071772675819
-0.005428010526315789,-0.1264309610324176
-0.005427670526315789,-0.1214281002537249
-0.00542733052631579,-0.1169189428413506
-0.005426990526315789,-0.1131667972573311
-0.005426650526315789,-0.1092171703267842
-0.00542631052631579,-0.1051358891652192
-0.005425970526315789,-0.1013508300234451
-0.005425630526315789,-0.09664419126454343
-0.00542529052631579,-0.09164133048585074
-0.005424950526315789,-0.0869017781691945
-0.005424610526315789,-0.08275466989212032
-0.00542427052631579,-0.07887087007708257
-0.005423930526315789,-0.07574408209039414
-0.005423590526315789,-0.07271603477698041
-0.00542325052631579,-0.06998420948335216
-0.005422910526315789,-0.06768026044052987
-0.005422570526315789,-0.06587001476403254
-0.00542223052631579,-0.06442181822283202
-0.005421890526315789,-0.06280905389285674
-0.005421550526315789,-0.06172290648695833
-0.00542121052631579,-0.05994557436821225
-0.005420870526315789,-0.05826698292272582
-0.005420530526315789,-0.05606177455317451
-0.00542019052631579,-0.05365908483709184
-0.005419850526315789,-0.05128930867875924
-0.005419510526315789,-0.04882079184717195
-0.00541917052631579,-0.04730676819046232
-0.005418830526315789,-0.0446407700123393
-0.005418490526315789,-0.04250138875829698
-0.00541815052631579,-0.04062531596628723
-0.005417810526315789,-0.03901255163631051
-0.005417470526315789,-0.03713647884430417
-0.00541713052631579,-0.0361161585539129
-0.005416790526315789,-0.03463504845495585
-0.005416450526315789,-0.03354890104905744
-0.00541611052631579,-0.03213361806561149
-0.005415770526315789,-0.03071833508216296
-0.005415430526315789,-0.02930305209871958
-0.00541509052631579,-0.02732823863344615
-0.00541475052631579,-0.02541925228368531
-0.005414410526315789,-0.02354317949167209
-0.00541407052631579,-0.0224570320857717
-0.00541373052631579,-0.02186458804619075
-0.005413390526315789,-0.02137088467987132
-0.00541305052631579,-0.02094300842906207
-0.00541271052631579,-0.02044930506274462
