Analysis/New Tests_CMB/wrd01_d2s01/cmb10_ch43.csv

#Digilent WaveForms Oscilloscope Acquisition
#Device Name: ADP3450
#Serial Number: SN:210018B9D9B0
#Date Time: 2024-08-07 11:59:04.471.523.690
#Sample rate: 2.94118e+06Hz
#Samples: 32768
#Trigger: Source: Channel 3 Type: Edge Condition: Rising Level: 0 V Hyst.: Auto HoldOff: 0 s
#Channel 3: Range: 200 mV/div Offset: 0 V Attenuation: 1 X Coupling: DC Bandwidth: 0 Hz Sample Mode: Average

Time (s),Channel 3 (V)
-0.005570415757575758,0.01114771038163111
-0.005570075757575757,0.01174015442121397
-0.005569735757575757,0.01220094422977693
-0.005569395757575758,0.01226677134528605
-0.005569055757575757,0.01177306797896643
-0.005568715757575757,0.01108188326612199
-0.005568375757575758,0.01032487143776718
-0.005568035757575757,0.009074156243091552
-0.005567695757575757,0.007724700375157166
-0.005567355757575758,0.006803120758029567
-0.005567015757575757,0.0066385529692575
-0.005566675757575757,0.007033515662311467
-0.005566335757575758,0.007461391913120709
-0.005565995757575757,0.008119663068212869
-0.005565655757575757,0.008679193550039321
-0.005565315757575758,0.008843761338812107
-0.005564975757575757,0.009074156243094546
-0.005564635757575757,0.009370378262885021
-0.005564295757575758,0.01006156297573072
-0.005563955757575757,0.01039069855327761
-0.005563615757575757,0.01111479682387655
-0.005563275757575758,0.01279338826935896
-0.005562935757575758,0.01322126452016742
-0.005562595757575757,0.01374788144424112
-0.005562255757575758,0.01338583230894099
-0.005561915757575758,0.01292504250037803
-0.005561575757575757,0.01210220355651326
-0.005561235757575758,0.01134519172815845
-0.005560895757575758,0.01085148836184099
-0.005560555757575757,0.01022613076450351
-0.005560215757575758,0.008613366434530208
-0.005559875757575758,0.007296824124350319
-0.005559535757575757,0.007494305470875266
-0.005559195757575758,0.01101605615061288
-0.005558855757575758,0.01944192693576417
-0.005558515757575757,0.03603036004407627
-0.005558175757575758,0.06071552835999411
-0.005557835757575758,0.09178592688023951
-0.005557495757575757,0.1265755574268629
-0.005557155757575758,0.1611677066269024
-0.005556815757575758,0.1934888203418187
-0.005556475757575757,0.2202475427963324
-0.005556135757575758,0.2414109604325126
-0.005555795757575758,0.2558600122867369
-0.005555455757575757,0.2639567474943842
-0.005555115757575758,0.2668531405767853
-0.005554775757575758,0.2659973880751683
-0.005554435757575757,0.2623439831644109
-0.005554095757575758,0.2565511969996089
-0.005553755757575758,0.2490139922738153
-0.005553415757575757,0.2429249840892223
-0.005553075757575758,0.2353548658056741
-0.005552735757575758,0.227488525502335
-0.005552395757575757,0.2204450241428597
-0.005552055757575758,0.2124799431662569
-0.005551715757575758,0.2058314044998364
-0.005551375757575757,0.1989524709291215
-0.005551035757575758,0.1921393644739406
-0.005550695757575758,0.1862478376358749
-0.005550355757575757,0.180882927721871
-0.005550015757575757,0.174793919537289
-0.005549675757575758,0.1688694791414687
-0.005549335757575757,0.1634716556697125
-0.005548995757575757,0.1586004491220469
-0.005548655757575758,0.1538279832476362
-0.005548315757575757,0.1492859122774994
-0.005547975757575757,0.1449413226539057
-0.005547635757575758,0.1404979923570405
-0.005547295757575757,0.1355280451360933
-0.005546955757575757,0.1305580979151643
-0.005546615757575758,0.1263122489648264
-0.005546275757575757,0.1219018322257085
-0.005545935757575757,0.1179192917374144
-0.005545595757575758,0.1140684054801312
-0.005545255757575757,0.1107112225891592
-0.005544915757575757,0.1067945092163741
-0.005544575757575758,0.1029765365168454
-0.005544235757575757,0.09994848920341709
-0.005543895757575757,0.0949456284247335
-0.005543555757575758,0.0909630879364321
-0.005543215757575757,0.08740842369893428
-0.005542875757575757,0.08431454927001156
-0.005542535757575758,0.08194477311168344
-0.005542195757575758,0.08056240368599456
-0.005541855757575757,0.07845593598970038
-0.005541515757575758,0.07539497511852658
-0.005541175757575758,0.07246566847837632
-0.005540835757575757,0.06933888049168807
-0.005540495757575758,0.06614626538949603
-0.005540155757575758,0.06361192144239974
-0.005539815757575757,0.06163710797712171
-0.005539475757575758,0.06005725720490297
-0.005539135757575758,0.05821409797065112
-0.005538795757575757,0.05660133364067447
-0.005538455757575758,0.0551202235417194
-0.005538115757575758,0.05354037276950353
-0.005537775757575757,0.05196052199728192
-0.005537435757575758,0.05047941189832685
-0.005537095757575758,0.04922869670365596
-0.005536755757575757,0.04689183410308012
-0.005536415757575758,0.04508158842657949
-0.005536075757575758,0.04290929361478266
-0.005535735757575757,0.04182314620887833
-0.005535395757575758,0.0400787276478868
-0.005535055757575758,0.03869635822219791
-0.005534715757575757,0.03691902610344932
-0.005534375757575758,0.03698485321895843
-0.005534035757575758,0.03629366850611399
-0.005533695757575757,0.03612910071733995
-0.005533355757575758,0.0352404346579669
-0.005533015757575758,0.03398971946329374
-0.005532675757575757,0.03267317715311145
-0.005532335757575758,0.03119206705415638
-0.005531995757575758,0.02974387051295587
-0.005531655757575757,0.02865772310705549
-0.005531315757575758,0.02819693329849169
-0.005530975757575758,0.02763740281666422
-0.005530635757575757,0.02727535368136409
-0.005530295757575758,0.02753866214340054
-0.005529955757575758,0.0275715757011551
-0.005529615757575757,0.02720952656585521
-0.005529275757575757,0.0273411807968732
-0.005528935757575758,0.02697913166157307
-0.005528595757575757,0.02684747743055467
-0.005528255757575757,0.02674873675729117
-0.005527915757575758,0.0261892062754637
-0.005527575757575757,0.02572841646689996
-0.005527235757575757,0.02576133002465446
-0.005526895757575758,0.02497140463854509
-0.005526555757575757,0.02497140463854479
-0.005526215757575757,0.0248068368497723
-0.005525875757575758,0.02500431819629965
-0.005525535757575757,0.02526762665833682
-0.005525195757575757,0.02566258935139079
-0.005524855757575758,0.02362194877060825
-0.005524515757575757,0.02187753020961331
-0.005524175757575757,0.02000145741760697
-0.005523835757575758,0.0185203473186519
-0.005523495757575757,0.01664427452664112
-0.005523155757575757,0.01608474404481467
-0.005522815757575758,0.01509733731217796
-0.005522475757575757,0.01430741192606984
-0.005522135757575757,0.01499859663891429
-0.005521795757575758,0.01466946106136872
-0.005521455757575757,0.01387953567525749
-0.005521115757575757,0.01285921538486808
-0.005520775757575758,0.0118388950944768
-0.005520435757575758,0.01104896970836887
-0.005520095757575757,0.01088440191959465
-0.005519755757575758,0.01091731547734921
-0.005519415757575758,0.01144393240142116
-0.005519075757575757,0.01216803067202238
-0.005518735757575758,0.01282630182711352
-0.005518395757575758,0.01368205432873045
-0.005518055757575757,0.01427449836831403
-0.005517715757575758,0.01450489327259593
-0.005517375757575758,0.01414284413729646
-0.005517035757575757,0.01394536279076846
-0.005516695757575758,0.01427449836831403
-0.005516355757575758,0.0145707203881045
-0.005516015757575757,0.01440615259933226
-0.005515675757575758,0.0143732390415777
-0.005515335757575758,0.01565686779400309
-0.005514995757575757,0.01611765760256923
-0.005514655757575758,0.01631513894909657
-0.005514315757575758,0.01601891692930609
-0.005513975757575757,0.01588726269828733
-0.005513635757575758,0.0148340288501415
-0.005513295757575758,0.01322126452017114
-0.005512955757575757,0.01144393240142212
-0.005512615757575758,0.01019321720674895
-0.005512275757575758,0.008679193550039321
-0.005511935757575757,0.008152576625966409
-0.005511595757575758,0.007955095279439066
-0.005511255757575758,0.008843761338812107
-0.005510915757575757,0.01009447653348528
-0.005510575757575758,0.01071983413082186
-0.005510235757575758,0.01147684595917668
-0.005509895757575757,0.01187180865223136
-0.005509555757575758,0.01180598153672225
-0.005509215757575758,0.01124645105489478
-0.005508875757575757,0.01108188326612199
-0.005508535757575758,0.01108188326612199
-0.005508195757575758,0.01078566124633098
-0.005507855757575757,0.01127936461264969
-0.005507515757575757,0.01147684595917668
-0.005507175757575758,0.01170724086345858
-0.005506835757575757,0.01177306797896745
-0.005506495757575757,0.01164141374794946
-0.005506155757575758,0.01071983413082186
-0.005505815757575757,0.01095022903510334
-0.005505475757575757,0.01071983413082186
-0.005505135757575758,0.01104896970836743
-0.005504795757575757,0.01164141374795096
-0.005504455757575757,0.01246425269181339
-0.005504115757575758,0.01246425269181339
-0.005503775757575757,0.01210220355651278
-0.005503435757575757,0.0118388950944768
-0.005503095757575758,0.01124645105489478
-0.005502755757575757,0.01062109345755801
-0.005502415757575757,0.01052235278429452
-0.005502075757575758,0.01025904432225806
-0.005501735757575757,0.01121353749713926
-0.005501395757575757,0.01068692057306731
-0.005501055757575758,0.01039069855327629
-0.005500715757575757,0.01042361211103103
-0.005500375757575757,0.01052235278429452
-0.005500035757575758,0.01065400701531275
-0.005499695757575758,0.01095022903510322
-0.005499355757575757,0.01131227817040389
-0.005499015757575758,0.01111479682387655
-0.005498675757575758,0.01137810528591253
-0.005498335757575757,0.01108188326612199
-0.005497995757575758,0.01068692057306731
-0.005497655757575758,0.01019321720674985
-0.005497315757575757,0.00904124268533945
-0.005496975757575758,0.007889268163929951
-0.005496635757575758,0.007527219028630482
-0.005496295757575757,0.007263910566593366
-0.005495955757575758,0.007395564797611595
-0.005495615757575758,0.007395564797611595
-0.005495275757575757,0.007593046144138938
-0.005494935757575758,0.008382971530248308
-0.005494595757575758,0.009139983358601745
-0.005494255757575757,0.00983116807144882
-0.005493915757575758,0.009962822302467049
-0.005493575757575758,0.009666600282676574
-0.005493235757575757,0.008975415569830336
-0.005492895757575758,0.008514625761266537
-0.005492555757575758,0.008185490183721564
-0.005492215757575757,0.008415885088002865
-0.005491875757575758,0.007922181721684508
-0.005491535757575758,0.008152576625965989
-0.005491195757575757,0.007988008837193623
-0.005490855757575758,0.008448798645757422
-0.005490515757575758,0.008448798645757422
-0.005490175757575757,0.008086749510457293
-0.005489835757575758,0.007955095279439066
-0.005489495757575758,0.008218403741475522
-0.005489155757575757,0.007856354606175394
-0.005488815757575758,0.007593046144138938
-0.005488475757575758,0.007527219028629823
-0.005488135757575757,0.007856354606175873
-0.005487795757575758,0.00811966306821185
-0.005487455757575758,0.008843761338812107
-0.005487115757575757,0.007593046144138818
-0.005486775757575757,0.007527219028629823
-0.005486435757575758,0.007691786817402609
-0.005486095757575757,0.007988008837194043
-0.005485755757575757,0.008218403741475522
-0.005485415757575758,0.009107069800848565
-0.005485075757575757,0.008942502012075899
-0.005484735757575757,0.009008329127584893
-0.005484395757575758,0.008777934223302994
-0.005484055757575757,0.008284230856983918
-0.005483715757575757,0.007889268163929951
-0.005483375757575758,0.008843761338812107
-0.005483035757575757,0.009798254513697258
-0.005482695757575757,0.01144393240142212
-0.005482355757575758,0.01289212894262263
-0.005482015757575757,0.01381370855975011
-0.005481675757575757,0.01374788144424112
-0.005481335757575758,0.01371496788648656
-0.005480995757575757,0.01249716624956579
-0.005480655757575757,0.01131227817040389
-0.005480315757575758,0.01075274768857642
-0.005479975757575757,0.009831168071447682
-0.005479635757575757,0.009205810474112236
-0.005479295757575758,0.009172896916357679
-0.005478955757575758,0.00881084778105821
-0.005478615757575757,0.008613366434530208
-0.005478275757575758,0.008745020665548437
-0.005477935757575758,0.009502032493901873
-0.005477595757575757,0.00881084778105755
-0.005477255757575758,0.00871210710779388
-0.005476915757575758,0.008317144414739911
-0.005476575757575757,0.007395564797611595
-0.005476235757575758,0.006737293642520453
-0.005475895757575758,0.006210676718448496
-0.005475555757575757,0.005815714025392853
-0.005475215757575758,0.005815714025392853
-0.005474875757575758,0.007329737682099727
-0.005474535757575757,0.007955095279439066
-0.005474195757575758,0.009370378262885021
-0.005473855757575758,0.01055526634204692
-0.005473515757575757,0.01134519172815845
-0.005473175757575758,0.01210220355651326
-0.005472835757575758,0.01200346288324977
-0.005472495757575757,0.01121353749714022
-0.005472155757575758,0.009929908744712493
-0.005471815757575758,0.009008329127586569
-0.005471475757575757,0.00881084778105755
-0.005471135757575758,0.009238724031866792
-0.005470795757575758,0.01016030364899272
-0.005470455757575757,0.01071983413082186
-0.005470115757575758,0.01157558663244035
-0.005469775757575758,0.0118388950944768
-0.005469435757575757,0.01127936461264933
-0.005469095757575758,0.01091731547734921
-0.005468755757575758,0.01062109345755819
-0.005468415757575757,0.009567859609412364
-0.005468075757575758,0.009534946051657807
-0.005467735757575758,0.009534946051657807
-0.005467395757575757,0.009633686724921478
-0.005467055757575758,0.01035778499552173
-0.005466715757575758,0.01045652566878541
-0.005466375757575757,0.01154267307468579
-0.005466035757575757,0.01154267307468579
-0.005465695757575758,0.01141101884366756
-0.005465355757575757,0.01131227817040203
-0.005465015757575757,0.01029195788001262
-0.005464675757575758,0.009567859609412364
-0.005464335757575757,0.008284230856982721
-0.005463995757575757,0.007230997008838809
-0.005463655757575758,0.006605639411502225
-0.005463315757575757,0.006046108929675172
-0.005462975757575757,0.006276503833956653
-0.005462635757575758,0.006506898738238553
-0.005462295757575757,0.007494305470876883
-0.005461955757575757,0.008382971530248308
-0.005461615757575758,0.009534946051657807
-0.005461275757575757,0.01048943922654206
-0.005460935757575757,0.01164141374794946
-0.005460595757575758,0.01203637644100415
-0.005460255757575757,0.01134519172815725
-0.005459915757575757,0.01068692057306731
-0.005459575757575758,0.01048943922653996
-0.005459235757575757,0.009864081629203617
-0.005458895757575757,0.009995735860221606
-0.005458555757575758,0.01002864941797616
-0.005458215757575757,0.009896995186957696
-0.005457875757575757,0.009765340955939707
-0.005457535757575758,0.009205810474112236
-0.005457195757575758,0.008646279992285783
-0.005456855757575757,0.008646279992284765
-0.005456515757575758,0.009107069800848565
-0.005456175757575758,0.009699513840429516
-0.005455835757575757,0.01022613076450351
-0.005455495757575758,0.01055526634204908
-0.005455155757575758,0.01019321720674961
-0.005454815757575757,0.00983116807144882
-0.005454475757575758,0.009304551147375908
-0.005454135757575758,0.008251317299231994
-0.005453795757575757,0.007724700375157166
-0.005453455757575758,0.006836034315784124
-0.005453115757575758,0.006473985180484654
-0.005452775757575757,0.006111936045183867
-0.005452435757575758,0.00607902248742931
-0.005452095757575758,0.006572725853746769
-0.005451755757575757,0.006836034315784124
-0.005451415757575758,0.007362651239857037
-0.005451075757575758,0.007625959701893016
-0.005450735757575757,0.00881084778105755
-0.005450395757575758,0.01042361211103085
-0.005450055757575758,0.01104896970836629
-0.005449715757575757,0.01193763576774048
-0.005449375757575758,0.0127604747116044
-0.005449035757575758,0.01223385778753245
-0.005448695757575757,0.0120692899987587
-0.005448355757575758,0.01157558663244035
-0.005448015757575758,0.01062109345755819
-0.005447675757575757,0.009798254513694264
-0.005447335757575758,0.009864081629203377
-0.005446995757575758,0.009403291820639578
-0.005446655757575757,0.00950203249390325
-0.005446315757575758,0.009995735860221606
-0.005445975757575758,0.01068692057306731
-0.005445635757575757,0.01088440191959399
-0.005445295757575758,0.01052235278429452
-0.005444955757575758,0.009666600282676035
-0.005444615757575757,0.009107069800848026
-0.005444275757575757,0.00881084778105755
-0.005443935757575758,0.008547539319021094
-0.005443595757575757,0.008317144414739732
-0.005443255757575757,0.008613366434530208
-0.005442915757575758,0.009205810474112236
-0.005442575757575757,0.009436205378395034
-0.005442235757575757,0.009929908744712493
-0.005441895757575758,0.009995735860221606
-0.005441555757575757,0.01068692057306809
-0.005441215757575757,0.01111479682387655
-0.005440875757575758,0.01141101884366756
-0.005440535757575757,0.01134519172815851
-0.005440195757575757,0.011378105285913
-0.005439855757575758,0.01121353749714022
-0.005439515757575757,0.01193763576774018
-0.005439175757575757,0.01177306797896769
-0.005438835757575758,0.01124645105489478
-0.005438495757575757,0.01068692057306575
-0.005438155757575757,0.00983116807144882
-0.005437815757575758,0.009172896916357679
-0.005437475757575757,0.007494305470869579
-0.005437135757575757,0.004367517484192341
-0.005436795757575758,-0.003005119452828451
-0.005436455757575758,-0.01742125774929824
-0.005436115757575757,-0.03986830413793241
-0.005435775757575758,-0.06850309938439708
-0.005435435757575758,-0.1018774469474573
-0.005435095757575757,-0.1364037690320484
-0.005434755757575758,-0.1688894505357963
-0.005434415757575758,-0.195944395009993
-0.005434075757575757,-0.2165811957221495
-0.005433735757575758,-0.230371976421309
-0.005433395757575758,-0.2383041438401428
-0.005433055757575757,-0.2415296725001038
-0.005432715757575758,-0.2409372284605218
-0.005432375757575758,-0.2378762675893535
-0.005432035757575757,-0.2326100983486188
-0.005431695757575758,-0.226948966414835
-0.005431355757575758,-0.2201029464018996
-0.005431015757575757,-0.2132240128311847
-0.005430675757575758,-0.2055222403166183
-0.005430335757575758,-0.1990711829967369
-0.005429995757575757,-0.1916985460597044
-0.005429655757575758,-0.18458921758472
-0.005429315757575758,-0.1777761111295391
-0.005428975757575757,-0.1712592266941244
-0.005428635757575758,-0.1648739964897403
-0.005428295757575758,-0.1586862476318948
-0.005427955757575757,-0.1524326716585177
-0.005427615757575758,-0.1468044532824885
-0.005427275757575758,-0.1418345060615503
-0.005426935757575757,-0.1365683368208212
-0.005426595757575758,-0.1310388591180556
-0.005426255757575758,-0.1254764678575355
-0.005425915757575757,-0.1198153359237516
-0.005425575757575758,-0.1135946735081403
-0.005425235757575758,-0.1074727517657927
-0.005424895757575757,-0.1016141384854815
-0.005424555757575758,-0.0961175743404705
-0.005424215757575758,-0.09233251519869645
-0.005423875757575757,-0.08808666624835282
-0.005423535757575757,-0.08492696470392108
-0.005423195757575758,-0.08242553431457475
-0.005422855757575757,-0.08025323950277094
-0.005422515757575757,-0.07857464805729156
-0.005422175757575758,-0.07702771084282739
-0.005421835757575757,-0.07515163805081392
-0.005421495757575757,-0.07311099747003508
-0.005421155757575758,-0.07120201112027078
-0.005420815757575757,-0.06771317399828244
-0.005420475757575757,-0.06481678091588669
-0.005420135757575758,-0.06195330139124023
-0.005419795757575757,-0.05876068628904286
-0.005419455757575757,-0.05583137964889261
-0.005419115757575758,-0.05352743060607361
-0.005418775757575757,-0.04990693925306712
-0.005418435757575757,-0.04704345972842586
-0.005418095757575758,-0.04473951068560687
-0.005417755757575757,-0.04289635145134843
-0.005417415757575757,-0.04111901933260558
-0.005417075757575758,-0.03914420586733215
-0.005416735757575757,-0.03779474999939399
-0.005416395757575757,-0.03707065172879506
-0.005416055757575758,-0.035885763649631
-0.005415715757575757,-0.03535914672555665
-0.005415375757575757,-0.03456922133944872
-0.005415035757575758,-0.03371346883783023
-0.005414695757575758,-0.03239692652765034
-0.005414355757575757,-0.03111329777522022
-0.005414015757575758,-0.02976384190728338
-0.005413675757575758,-0.02749280642222307
-0.005413335757575757,-0.02541925228368184
-0.005412995757575758,-0.02331278458739018
