Analysis/New Tests_CMB/wrd01_d2s01/cmb13_ch34.csv

#Digilent WaveForms Oscilloscope Acquisition
#Device Name: ADP3450
#Serial Number: SN:210018B9D9B0
#Date Time: 2024-08-06 18:10:20.149.790.520
#Sample rate: 2.94118e+06Hz
#Samples: 32768
#Trigger: Source: Channel 3 Type: Edge Condition: Rising Level: 60 mV Hyst.: Auto HoldOff: 0 s
#Channel 3: Range: 200 mV/div Offset: -20 mV Attenuation: 1 X Coupling: DC Bandwidth: 0 Hz Sample Mode: Average

Time (s),Channel 3 (V)
-0.005570484390243903,0.02951737266616365
-0.005570144390243902,0.02991233535921797
-0.005569804390243903,0.02971485401269099
-0.005569464390243903,0.02941863199289997
-0.005569124390243902,0.02905658285759799
-0.005568784390243903,0.02803626256720858
-0.005568444390243903,0.02642349823723528
-0.005568104390243902,0.02619310333295182
-0.005567764390243903,0.02533735083133489
-0.005567424390243903,0.02487656102277109
-0.005567084390243902,0.02448159832971419
-0.005566744390243903,0.02326379669279779
-0.005566404390243903,0.02319796957728868
-0.005566064390243902,0.02319796957728844
-0.005565724390243902,0.02306631534627045
-0.005565384390243903,0.02329671025055235
-0.005565044390243902,0.02336253736606153
-0.005564704390243902,0.02339545092381603
-0.005564364390243903,0.02323088313504324
-0.005564024390243902,0.02283592044198795
-0.005563684390243902,0.02250678486444298
-0.005563344390243903,0.02174977303608817
-0.005563004390243903,0.02115732899650722
-0.005562664390243902,0.02066362563018779
-0.005562324390243903,0.0202686629371331
-0.005561984390243903,0.01990661380183363
-0.005561644390243902,0.01931416976225094
-0.005561304390243903,0.01905086130021449
-0.005560964390243903,0.01875463928042401
-0.005560624390243902,0.01845841726063246
-0.005560284390243903,0.018195108798596
-0.005559944390243903,0.01756975120126055
-0.005559604390243902,0.01694439360392283
-0.005559264390243903,0.01674691225739549
-0.005558924390243903,0.01631903600658702
-0.005558584390243902,0.01572659196700422
-0.005558244390243903,0.01552911062047688
-0.005557904390243903,0.01579241908251285
-0.005557564390243902,0.01598990042904068
-0.005557224390243903,0.01737226985473207
-0.005556884390243903,0.0182609359141035
-0.005556544390243902,0.01905086130021449
-0.005556204390243903,0.01901794774245993
-0.005555864390243903,0.01895212062695093
-0.005555524390243902,0.01859007149165069
-0.005555184390243903,0.01763557831676853
-0.005554844390243903,0.01664817158413361
-0.005554504390243902,0.01585824619802245
-0.005554164390243903,0.01536454283170409
-0.005553824390243903,0.01516706148517675
-0.005553484390243902,0.01506832081191307
-0.005553144390243903,0.01556202417823143
-0.005552804390243903,0.01651651735311359
-0.005552464390243902,0.0177343189900322
-0.005552124390243903,0.01835967658736879
-0.005551784390243903,0.01885337995368714
-0.005551444390243902,0.01878755283817659
-0.005551104390243903,0.01799762745206866
-0.005550764390243903,0.01743809697024119
-0.005550424390243902,0.0162202953333206
-0.005550084390243903,0.01513414792742219
-0.005549744390243903,0.01414674119478548
-0.005549404390243902,0.0123694090760361
-0.005549064390243903,0.01055916339953875
-0.005548724390243903,0.009275534647111025
-0.005548384390243902,0.008683090607528457
-0.005548044390243903,0.008386868587737984
-0.005547704390243903,0.008979312627320012
-0.005547364390243902,0.009999632917713257
-0.005547024390243903,0.01108578032361167
-0.005546684390243903,0.01223775484502116
-0.005546344390243902,0.01332390225092245
-0.005546004390243903,0.01381760561723991
-0.005545664390243903,0.01424548186804915
-0.005545324390243902,0.01490375302314251
-0.005544984390243902,0.0161215546600589
-0.005544644390243903,0.01674691225739549
-0.005544304390243902,0.01661525802637636
-0.005543964390243902,0.0161215546600589
-0.005543624390243903,0.01559493773598599
-0.005543284390243902,0.01496958013864767
-0.005542944390243902,0.01401508696376725
-0.005542604390243903,0.01365303782846712
-0.005542264390243903,0.01365303782846712
-0.005541924390243902,0.01391634629050358
-0.005541584390243903,0.01371886494397623
-0.005541244390243903,0.0141467411947847
-0.005540904390243902,0.01523288860068586
-0.005540564390243903,0.01668108514188637
-0.005540224390243903,0.01724061562371283
-0.005539884390243902,0.01780014610554131
-0.005539544390243903,0.01829384947185967
-0.005539204390243903,0.01868881216491364
-0.005538864390243902,0.0184255037028779
-0.005538524390243903,0.01760266475901397
-0.005538184390243903,0.01671399869964255
-0.005537844390243902,0.01625320889107713
-0.005537504390243903,0.01549619706272232
-0.005537164390243903,0.01510123436966835
-0.005536824390243902,0.01470627167661295
-0.005536484390243903,0.01483792590763118
-0.005536144390243903,0.01483792590763118
-0.005535804390243902,0.0147391852343675
-0.005535464390243903,0.01493666658089485
-0.005535124390243903,0.01450879033008638
-0.005534784390243902,0.01378469205948535
-0.005534444390243903,0.01269854465358496
-0.005534104390243903,0.01197444638298602
-0.005533764390243902,0.01115160743912078
-0.005533424390243903,0.01105286676585711
-0.005533084390243903,0.01098703965034799
-0.005532744390243902,0.01115160743912078
-0.005532404390243903,0.01138200234340268
-0.005532064390243903,0.01184279215196648
-0.005531724390243902,0.01144782945891179
-0.005531384390243903,0.01177696503645737
-0.005531044390243903,0.01177696503645737
-0.005530704390243902,0.01233649551828483
-0.005530364390243903,0.01273145821133952
-0.005530024390243903,0.01371886494397623
-0.005529684390243902,0.01411382763703206
-0.005529344390243903,0.0147391852343675
-0.005529004390243903,0.01480501234987662
-0.005528664390243902,0.01447587677233027
-0.005528324390243903,0.01404800052152181
-0.005527984390243903,0.01358721071295801
-0.005527644390243902,0.01309350734664025
-0.005527304390243903,0.01342264292418522
-0.005526964390243903,0.01342264292418522
-0.005526624390243902,0.01362012427071298
-0.005526284390243903,0.01385051917499446
-0.005525944390243903,0.01302768023113053
-0.005525604390243902,0.01164531080543686
-0.005525264390243903,0.01039459561076597
-0.005524924390243903,0.009209707531601911
-0.005524584390243902,0.008683090607527859
-0.005524244390243902,0.008057733010192412
-0.005523904390243903,0.008979312627320012
-0.005523564390243902,0.01016420070648676
-0.005523224390243902,0.01164531080543914
-0.005522884390243903,0.01263271753807585
-0.005522544390243902,0.01302768023113095
-0.005522204390243902,0.01325807513541244
-0.005521864390243903,0.01325807513541244
-0.005521524390243902,0.01302768023112976
-0.005521184390243902,0.01259980398032129
-0.005520844390243903,0.01256689042256674
-0.005520504390243903,0.01210610061400377
-0.005520164390243902,0.01204027349849382
-0.005519824390243903,0.01131617522789356
-0.005519484390243903,0.01052624984178563
-0.005519144390243902,0.009900892244447609
-0.005518804390243903,0.009867978686693053
-0.005518464390243903,0.01023002782199252
-0.005518124390243902,0.01092121253483888
-0.005517784390243903,0.01187570570972104
-0.005517444390243903,0.01279728532684696
-0.005517104390243902,0.01365303782846712
-0.005516764390243903,0.01394925984825813
-0.005516424390243903,0.01398217340601263
-0.005516084390243902,0.01342264292418522
-0.005515744390243903,0.01312642090439421
-0.005515404390243903,0.01227066840277728
-0.005515064390243902,0.01210610061400294
-0.005514724390243903,0.01177696503645737
-0.005514384390243903,0.0125998039803198
-0.005514044390243902,0.01210610061400294
-0.005513704390243903,0.01296185311562142
-0.005513364390243903,0.01378469205948385
-0.005513024390243902,0.01447587677233105
-0.005512684390243903,0.01549619706272232
-0.005512344390243903,0.01575950552475877
-0.005512004390243902,0.01559493773598599
-0.005511664390243903,0.01513414792742219
-0.005511324390243903,0.01464044456110383
-0.005510984390243902,0.01398217340601269
-0.005510644390243903,0.01312642090439421
-0.005510304390243903,0.01276437176909408
-0.005509964390243902,0.01227066840277572
-0.005509624390243903,0.01246814974930307
-0.005509284390243903,0.01230358196053028
-0.005508944390243902,0.01204027349849418
-0.005508604390243903,0.01223775484502116
-0.005508264390243903,0.01227066840277572
-0.005507924390243902,0.0118098785942112
-0.005507584390243903,0.01141491590115724
-0.005507244390243903,0.0107566447460661
-0.005506904390243902,0.01049333628402946
-0.005506564390243903,0.01039459561076597
-0.005506224390243903,0.01078955830382065
-0.005505884390243902,0.01055916339953905
-0.005505544390243903,0.01072373118831154
-0.005505204390243903,0.01085538541932977
-0.005504864390243902,0.01157948368993182
-0.005504524390243903,0.01256689042256674
-0.005504184390243903,0.01319224801990332
-0.005503844390243902,0.01450879033008579
-0.005503504390243903,0.01460753100334928
-0.005503164390243903,0.01404800052152181
-0.005502824390243902,0.01355429715520309
-0.005502484390243902,0.01335681580867611
-0.005502144390243903,0.01365303782846712
-0.005501804390243902,0.01427839542580454
-0.005501464390243902,0.0147391852343675
-0.005501124390243903,0.01483792590763118
-0.005500784390243902,0.01450879033008369
-0.005500444390243902,0.01345555648193978
-0.005500104390243903,0.01250106330705762
-0.005499764390243903,0.01141491590115921
-0.005499424390243902,0.01095412609259344
-0.005499084390243903,0.01088829897708432
-0.005498744390243903,0.0111516074391203
-0.005498404390243902,0.01164531080543914
-0.005498064390243903,0.01144782945891179
-0.005497724390243903,0.0113490887856483
-0.005497384390243902,0.01227066840277572
-0.005497044390243903,0.01253397686481218
-0.005496704390243903,0.01302768023112964
-0.005496364390243902,0.01279728532684864
-0.005496024390243903,0.01289602600011231
-0.005495684390243903,0.01263271753807633
-0.005495344390243902,0.01253397686481218
-0.005495004390243903,0.01250106330705762
-0.005494664390243903,0.01289602600011159
-0.005494324390243902,0.01378469205948535
-0.005493984390243903,0.01408091407927636
-0.005493644390243903,0.01608864110230069
-0.005493304390243902,0.01766849187452309
-0.005492964390243903,0.01905086130021449
-0.005492624390243903,0.01928125620449597
-0.005492284390243902,0.01878755283817803
-0.005491944390243903,0.01776723254778676
-0.005491604390243903,0.01654943091087036
-0.005491264390243902,0.01510123436966763
-0.005490924390243903,0.01368595138622168
-0.005490584390243903,0.01299476667337598
-0.005490244390243902,0.01325807513541244
-0.005489904390243903,0.01342264292418522
-0.005489564390243903,0.01394925984825813
-0.005489224390243902,0.01431130898355826
-0.005488884390243903,0.01362012427071256
-0.005488544390243903,0.01246814974930307
-0.005488204390243902,0.01180987859421007
-0.005487864390243903,0.01078955830382065
-0.005487524390243903,0.009999632917711282
-0.005487184390243902,0.00914388041609124
-0.005486844390243903,0.008288127914474312
-0.005486504390243903,0.00795899233692874
-0.005486164390243902,0.007893165221419866
-0.005485824390243903,0.008024819452437855
-0.005485484390243903,0.008485609261001654
-0.005485144390243902,0.008979312627321628
-0.005484804390243903,0.009867978686693053
-0.005484464390243903,0.01101995320810255
-0.005484124390243902,0.01256689042256931
-0.005483784390243903,0.01398217340601269
-0.005483444390243903,0.01477209879212206
-0.005483104390243902,0.01562785129374169
-0.005482764390243903,0.01625320889107713
-0.005482424390243903,0.01615446821781346
-0.005482084390243902,0.01566076485149391
-0.005481744390243902,0.01500249369640396
-0.005481404390243903,0.01503540725415852
-0.005481064390243902,0.0150354072541581
-0.005480724390243902,0.01480501234987662
-0.005480384390243903,0.01470627167661295
-0.005480044390243902,0.0145417038878398
-0.005479704390243902,0.01434422254131282
-0.005479364390243903,0.01378469205948535
-0.005479024390243903,0.01190861926747901
-0.005478684390243902,0.007662770317137727
-0.005478344390243903,-0.001026408930065351
-0.005478004390243903,-0.01685783020997852
-0.005477664390243902,-0.04072015958206122
-0.005477324390243903,-0.07070441069646274
-0.005476984390243903,-0.1046382887413494
-0.005476644390243902,-0.1392962650569598
-0.005476304390243903,-0.1716173787719348
-0.005475964390243903,-0.1991989401702035
-0.005475624390243902,-0.2202636171331702
-0.005475284390243903,-0.2346797554296662
-0.005474944390243903,-0.2429739719837996
-0.005474604390243902,-0.2461336735282522
-0.005474264390243903,-0.2446196498715425
-0.005473924390243903,-0.2403738009212124
-0.005473584390243902,-0.2343506198521207
-0.005473244390243903,-0.2273071184926455
-0.005472904390243903,-0.2197040866513566
-0.005472564390243902,-0.2121339683677946
-0.005472224390243903,-0.2049258992195466
-0.005471884390243903,-0.1982773605531382
-0.005471544390243902,-0.191003464289369
-0.005471204390243903,-0.1841903578341757
-0.005470864390243903,-0.1772455971479767
-0.005470524390243902,-0.1698729602109433
-0.005470184390243903,-0.16305985375575
-0.005469844390243903,-0.1567733642246296
-0.005469504390243902,-0.1510134916175821
-0.005469164390243903,-0.1450232241062527
-0.005468824390243903,-0.1397570548655236
-0.005468484390243902,-0.1349845889911128
-0.005468144390243903,-0.1301792095589474
-0.005467804390243903,-0.1254396572422912
-0.005467464390243902,-0.1206013642523713
-0.005467124390243903,-0.115499762800415
-0.005466784390243903,-0.110595642694986
-0.005466444390243902,-0.1054282141275107
-0.005466104390243903,-0.1000303906557731
-0.005465764390243903,-0.09545540612788969
-0.005465424390243902,-0.0916703469861091
-0.005465084390243903,-0.08808276919086891
-0.005464744390243903,-0.08469267274214951
-0.005464404390243902,-0.08117092206240581
-0.005464064390243903,-0.07781373917144707
-0.005463724390243903,-0.07462112406925503
-0.005463384390243902,-0.0715272496403211
-0.005463044390243903,-0.06846628876915287
-0.005462704390243903,-0.06530658722471538
-0.005462364390243902,-0.06237728058455549
-0.005462024390243903,-0.06000750442623169
-0.005461684390243903,-0.05813143163422193
-0.005461344390243902,-0.05641992663098185
-0.005461004390243903,-0.05470842162774799
-0.005460664390243903,-0.05223990479615621
-0.005460324390243902,-0.04898146257844925
-0.005459984390243902,-0.04578884747626302
-0.005459644390243903,-0.0427278866050892
-0.005459304390243902,-0.03937070371411767
-0.005458964390243902,-0.03568438524561399
-0.005458624390243903,-0.03265633793219473
-0.005458284390243902,-0.03028656177386375
-0.005457944390243902,-0.02870671100164788
-0.005457604390243903,-0.02696229244065635
-0.005457264390243903,-0.02590905859251244
-0.005456924390243902,-0.02548118234170128
-0.005456584390243903,-0.02432920782029178
-0.005456244390243903,-0.02334180108765686
-0.005455904390243902,-0.02156446896890898
-0.005455564390243903,-0.02005044531219936
-0.005455224390243903,-0.01791106405815704
-0.005454884390243902,-0.0161008183816525
-0.005454544390243903,-0.01491593030248845
-0.005454204390243903,-0.01297403039497311
-0.005453864390243902,-0.01159166096927818
-0.005453524390243903,-0.01093338981418704
-0.005453184390243903,-0.01070299490990556
-0.005452844390243902,-0.01126252539173261
-0.005452504390243903,-0.01182205587356008
-0.005452164390243903,-0.01172331520029659
-0.005451824390243902,-0.01159166096927818
-0.005451484390243903,-0.01080173558316881
-0.005451144390243903,-0.01073590846765982
-0.005450804390243902,-0.009978896639304884
-0.005450464390243903,-0.009814328850532097
-0.005450124390243903,-0.01053842712113104
-0.005449784390243902,-0.00968267461951387
-0.005449444390243903,-0.008168650962804242
-0.005449104390243903,-0.006852108652624354
-0.005448764390243902,-0.004976035860612203
-0.005448424390243903,-0.00237586479800219
-0.005448084390243903,-0.000697273352519779
-0.005447744390243902,0.001211712997244534
-0.005447404390243903,0.002166206172126688
-0.005447064390243903,0.00259408242293593
-0.005446724390243902,0.003384007809045304
-0.005446384390243903,0.003844797617609103
-0.005446044390243903,0.004371414541682016
-0.005445704390243902,0.00489803146575505
-0.005445364390243903,0.004963858581264044
-0.005445024390243903,0.004799290792491258
-0.005444684390243902,0.004305587426172543
-0.005444344390243903,0.004108106079645558
-0.005444004390243903,0.003581489155572645
-0.005443664390243902,0.003482748482309094
-0.005443324390243903,0.003548575597818088
-0.005442984390243903,0.003910624733118217
-0.005442644390243902,0.003943538290873552
-0.005442304390243903,0.004371414541682016
-0.005441964390243903,0.004733463676982144
-0.005441624390243902,0.00532590771656519
-0.005441284390243903,0.005885438198391643
-0.005440944390243903,0.005951265313900757
-0.005440604390243902,0.006247487333693807
-0.005440264390243903,0.007366548297346712
-0.005439924390243903,0.007794424548155956
-0.005439584390243902,0.007761510990401337
-0.005439244390243902,0.00772859743264684
-0.005438904390243903,0.007366548297346712
-0.005438564390243902,0.006938672046535973
-0.005438224390243902,0.006115833102673543
-0.005437884390243903,0.005358821274318729
-0.005437544390243902,0.004898031465754212
-0.005437204390243902,0.004503068772700245
-0.005436864390243903,0.004535982330454802
-0.005436524390243903,0.004865117907999775
-0.005436184390243902,0.005786697525127971
-0.005435844390243903,0.006774104257764684
-0.005435504390243903,0.008057733010190077
-0.005435164390243902,0.009440102435883811
-0.005434824390243903,0.01059207695729331
-0.005434484390243903,0.01177696503645521
-0.005434144390243902,0.01227066840277572
-0.005433804390243903,0.01253397686481218
-0.005433464390243903,0.01236940907603969
-0.005433124390243902,0.01204027349849382
-0.005432784390243903,0.01167822436319369
-0.005432444390243903,0.01121743455463073
-0.005432104390243902,0.01177696503645737
-0.005431764390243903,0.01246814974930307
-0.005431424390243903,0.01371886494397396
-0.005431084390243902,0.01414674119478548
-0.005430744390243903,0.01457461744559472
-0.005430404390243903,0.01427839542580424
-0.005430064390243902,0.01329098869316699
-0.005429724390243903,0.01345555648193978
-0.005429384390243903,0.01213901417175989
-0.005429044390243902,0.01072373118831154
-0.005428704390243903,0.009604670224656596
-0.005428364390243903,0.00907805330058464
-0.005428024390243902,0.008716004165283554
-0.005427684390243903,0.008814744838547226
-0.005427344390243903,0.009538843109147481
-0.005427004390243902,0.009867978686693053
-0.005426664390243903,0.01036168205301141
-0.005426324390243903,0.01042750916852052
-0.005425984390243902,0.01036168205301141
-0.005425644390243903,0.01092121253483888
-0.005425304390243903,0.01154657013217547
-0.005424964390243902,0.01180987859421192
-0.005424624390243903,0.01164531080543914
-0.005424284390243903,0.01138200234340268
-0.005423944390243902,0.01072373118831094
-0.005423604390243903,0.01039459561076597
-0.005423264390243903,0.009736324455674824
-0.005422924390243902,0.009012226185073909
-0.005422584390243903,0.00865017704977444
-0.005422244390243903,0.009275534647111025
-0.005421904390243902,0.00996671935995864
-0.005421564390243903,0.01101995320810255
-0.005421224390243903,0.01207318705624838
-0.005420884390243902,0.01266563109583124
-0.005420544390243903,0.01312642090439421
-0.005420204390243903,0.01358721071295801
-0.005419864390243902,0.01450879033008656
-0.005419524390243903,0.01503540725415852
-0.005419184390243903,0.01503540725415852
-0.005418844390243902,0.01483792590763016
-0.005418504390243902,0.0142783954258037
-0.005418164390243903,0.01411382763703092
-0.005417824390243902,0.01424548186804861
-0.005417484390243902,0.01394925984825813
-0.005417144390243903,0.01414674119478548
-0.005416804390243902,0.01401508696376713
-0.005416464390243902,0.01394925984825813
-0.005416124390243903,0.01431130898355826
-0.005415784390243902,0.01467335811885863
-0.005415444390243902,0.01480501234987662
-0.005415104390243903,0.01536454283170409
-0.005414764390243903,0.01552911062047658
-0.005414424390243902,0.01575950552475877
-0.005414084390243903,0.01575950552475877
-0.005413744390243903,0.01602281398679475
-0.005413404390243902,0.01605572754454979
-0.005413064390243903,0.01552911062047688
