Analysis/New Tests_CMB/wrd01_d2s01/cmb10_ch26.csv

#Digilent WaveForms Oscilloscope Acquisition
#Device Name: ADP3450
#Serial Number: SN:210018B9D9B0
#Date Time: 2024-08-14 17:09:29.478.131.070
#Sample rate: 5.88235e+06Hz
#Samples: 32768
#Trigger: Source: Channel 3 Type: Edge Condition: Rising Level: 60 mV Hyst.: Auto HoldOff: 0 s
#Channel 3: Range: 100 mV/div Offset: 0 V Attenuation: 1 X Coupling: DC Bandwidth: 0 Hz Sample Mode: Average

Time (s),Channel 3 (V)
-0.00379843110413103,0.2006968894901255
-0.003798261104131029,0.2146193244203478
-0.003798091104131029,0.2268960814627937
-0.003797921104131029,0.2380866910993184
-0.00379775110413103,0.2469075245775377
-0.00379758110413103,0.25460929709209
-0.00379741110413103,0.2613236628740196
-0.003797241104131029,0.2665240049992521
-0.003797071104131029,0.269947015005722
-0.003796901104131029,0.2722509640485337
-0.00379673110413103,0.2728763216458698
-0.00379656110413103,0.2731725436656602
-0.00379639110413103,0.2730079758768875
-0.003796221104131029,0.2708685946228351
-0.003796051104131029,0.2691900031773474
-0.003795881104131029,0.2660632151906698
-0.00379571110413103,0.2627389458574592
-0.00379554110413103,0.259217195177728
-0.00379537110413103,0.255728358055745
-0.003795201104131029,0.2521736938182384
-0.003795031104131029,0.2482240668876914
-0.003794861104131029,0.2442415263993972
-0.00379469110413103,0.2402260723533423
-0.00379452110413103,0.2368030623468746
-0.00379435110413103,0.2328205218585732
-0.00379418110413103,0.229298771178842
-0.003794011104131029,0.2255137120370478
-0.003793841104131029,0.2217286528952814
-0.00379367110413103,0.2184043835620708
-0.00379350110413103,0.2148826328823396
-0.00379333110413103,0.2111634008560746
-0.00379316110413103,0.2074112552720619
-0.003792991104131029,0.2034287147837415
-0.003792821104131029,0.200071531892782
-0.00379265110413103,0.1962864727510086
-0.00379248110413103,0.1928305491867863
-0.00379231110413103,0.1892758849492941
-0.00379214110413103,0.1849312953257005
-0.003791971104131029,0.1806196192598286
-0.003791801104131029,0.1759458940586912
-0.003791631104131029,0.1719304400126357
-0.00379146110413103,0.1681453808708685
-0.00379129110413103,0.1643274081713399
-0.00379112110413103,0.1612664473001716
-0.003790951104131029,0.1581725728712269
-0.003790781104131029,0.1552103526733229
-0.003790611104131029,0.1526430951684674
-0.00379044110413103,0.1500429241058621
-0.00379027110413103,0.1472123581389702
-0.00379010110413103,0.1447438413073784
-0.003789931104131029,0.1424069787067969
-0.003789761104131029,0.1402346838950011
-0.003789591104131029,0.1386219195650279
-0.00378942110413103,0.137042068792812
-0.00378925110413103,0.1348368604232567
-0.00378908110413103,0.1316113317633101
-0.003788911104131029,0.1315784182055509
-0.003788741104131029,0.1302947894531252
-0.003788571104131029,0.1288465929119243
-0.00378840110413103,0.1271680014664422
-0.00378823110413103,0.1256868913674898
-0.00378806110413103,0.12344876944018
-0.003787891104131029,0.1225271898230441
-0.003787721104131029,0.1202561543379846
-0.003787551104131029,0.1184129951037289
-0.00378738110413103,0.1163394409651917
-0.00378721110413103,0.1141671461533948
-0.00378704110413103,0.1114682344175212
-0.003786871104131029,0.1085060142196015
-0.003786701104131029,0.1058729295992371
-0.003786531104131029,0.1033056720943857
-0.00378636110413103,0.1003763654542311
-0.00378619110413103,0.0980065892959073
-0.00378602110413103,0.09524185044452452
-0.003785851104131029,0.09362908611454378
-0.003785681104131029,0.09158844553376271
-0.003785511104131029,0.08994276764603848
-0.00378534110413103,0.08865913889361172
-0.00378517110413103,0.08790212706525827
-0.00378500110413103,0.08704637456363978
-0.003784831104131029,0.08609188138875454
-0.003784661104131029,0.0852361288871358
-0.003784491104131029,0.0843145492700097
-0.00378432110413103,0.08329422897961866
-0.00378415110413103,0.08240556292024726
-0.00378398110413103,0.08141815618761053
-0.00378381110413103,0.08029909522395763
-0.003783641104131029,0.07934460204906911
-0.003783471104131029,0.07815971396990751
-0.00378330110413103,0.07713939367951578
-0.00378313110413103,0.07585576492709037
-0.00378296110413103,0.07440756838588986
-0.00378279110413103,0.07332142097999145
-0.003782621104131029,0.0720377922275577
-0.003782451104131029,0.07091873126390447
-0.00378228110413103,0.06963510251147693
-0.00378211110413103,0.06845021443231503
-0.00378194110413103,0.06742989414192377
-0.00378177110413103,0.06578421625419889
-0.003781601104131029,0.0643689332707497
-0.003781431104131029,0.06430310615523738
-0.003781261104131029,0.06239411980547449
-0.00378109110413103,0.06127505884182158
-0.00378092110413103,0.06058387412897588
-0.00378075110413103,0.05976103518511345
-0.003780581104131029,0.05926733181878761
-0.003780411104131029,0.05762165393106442
-0.003780241104131029,0.0568975556604638
-0.00378007110413103,0.05597597604333789
-0.00377990110413103,0.05528479133049219
-0.00377973110413103,0.05409990325132813
-0.003779561104131029,0.05446195238662466
-0.003779391104131029,0.05347454565398927
-0.003779221104131029,0.05222383045931646
-0.00377905110413103,0.05117059661117255
-0.00377888110413103,0.05061106612934508
-0.00377871110413103,0.04982114074323571
-0.003778541104131029,0.04919578314589732
-0.003778371104131029,0.04870207977957963
-0.003778201104131029,0.04807672218224227
-0.00377803110413103,0.04702348833409794
-0.00377786110413103,0.04679309342981645
-0.00377769110413103,0.0458386002549343
-0.003777521104131029,0.04488410708005106
-0.003777351104131029,0.04458788506025927
-0.003777181104131029,0.0435675647698683
-0.00377701110413103,0.04271181226824886
-0.00377684110413103,0.04132944284255997
-0.00377667110413103,0.0405395174564506
-0.003776501104131029,0.03928880226177575
-0.003776331104131029,0.03882801245320981
-0.003776161104131029,0.03777477860506744
-0.00377599110413103,0.03757729725853932
-0.00377582110413103,0.03695193966120388
-0.00377565110413103,0.03675445831467653
-0.003775481104131029,0.0362607549483571
-0.003775311104131029,0.03596453292856704
-0.003775141104131029,0.03593161937081261
-0.00377497110413103,0.03593161937081273
-0.00377480110413103,0.03599744648632172
-0.00377463110413103,0.03668863119916742
-0.003774461104131029,0.03665571764141298
-0.003774291104131029,0.0366886311991673
-0.003774121104131029,0.03665571764141286
-0.00377395110413103,0.0366557176414128
-0.00377378110413103,0.0366228040836583
-0.00377361110413103,0.03603036004407627
-0.00377344110413103,0.03556957023551332
-0.003773271104131029,0.03520752110020912
-0.003773101104131029,0.03431885504083805
-0.00377293110413103,0.03362767032799158
-0.00377276110413103,0.03250860936433866
-0.00377259110413103,0.03152120263170195
-0.00377242110413103,0.03083001791885751
-0.003772251104131029,0.03033631455253179
-0.003772081104131029,0.02865772310705411
-0.00377191110413103,0.02790071127869906
-0.00377174110413103,0.02701204521932763
-0.00377157110413103,0.02628794694872737
-0.00377140110413103,0.02576133002465542
-0.003771231104131029,0.02562967579363204
-0.003771061104131029,0.02447770127222751
-0.003770891104131029,0.02490557752303616
-0.00377072110413103,0.02500431819629965
-0.00377055110413103,0.02500431819629965
-0.00377038110413103,0.02497140463854515
-0.003770211104131029,0.02622211983321144
-0.003770041104131029,0.02434604704120928
-0.003769871104131029,0.02477392329201721
-0.00376970110413103,0.02447770127222673
-0.00376953110413103,0.02447770127222673
-0.00376936110413103,0.02428021992569939
-0.003769191104131029,0.02342446742408043
-0.003769021104131029,0.0232928131930607
-0.003768851104131029,0.02220666578716211
-0.00376868110413103,0.02210792511389862
-0.00376851110413103,0.02135091328554381
-0.00376834110413103,0.02138382684329837
-0.003768171104131029,0.0211863454967697
-0.003768001104131029,0.02082429636147083
-0.003767831104131029,0.02079138280371622
-0.00376766110413103,0.02072555568820698
-0.00376749110413103,0.020593901457189
-0.00376732110413103,0.02029767943739798
-0.003767151104131029,0.02026476587964259
-0.003766981104131029,0.02003437097536081
-0.003766811104131029,0.01963940828230654
-0.00376664110413103,0.01947484049353334
-0.00376647110413103,0.01907987780047937
-0.00376630110413103,0.01894822356946114
-0.003766131104131029,0.01891531001170526
-0.003765961104131029,0.01855326087640729
-0.003765791104131029,0.0187836557806868
-0.00376562110413103,0.01792790327907029
-0.00376545110413103,0.01815829818335177
-0.00376528110413103,0.01835577952987911
-0.003765111104131029,0.01825703885661652
-0.003764941104131029,0.01855326087640657
-0.003764771104131029,0.01858617443415957
-0.00376460110413103,0.01779624904805326
-0.00376443110413103,0.01868491510742468
-0.00376426110413103,0.01815829818335177
-0.003764091104131029,0.017862076163561
-0.003763921104131029,0.01792790327906748
-0.003763751104131029,0.01726963212397981
-0.00376358110413103,0.01786207616356004
-0.00376341110413103,0.01746711347050607
-0.00376324110413103,0.01697341010418771
-0.00376307110413103,0.01726963212397819
-0.003762901104131029,0.01700632366193868
-0.003762731104131029,0.01601891692930598
-0.00376256110413103,0.0162493118335865
-0.00376239110413103,0.01572269490951454
-0.00376222110413103,0.01568978135175999
-0.00376205110413103,0.01542647288972401
-0.003761881104131029,0.01532773221645998
-0.003761711104131029,0.01536064577421459
-0.00376154110413103,0.01545938644747677
-0.00376137110413103,0.01473528817687783
-0.00376120110413103,0.01476820173463239
-0.00376103110413103,0.01499859663891387
-0.003760861104131029,0.01697341010418556
-0.003760691104131029,0.01638096606460521
-0.003760521104131029,0.01611765760256953
-0.00376035110413103,0.01628222539134202
-0.00376018110413103,0.01680884231541493
-0.00376001110413103,0.01687466943092392
-0.003759841104131029,0.01726963212397933
-0.003759671104131029,0.01743419991275235
-0.003759501104131029,0.01789498972131441
-0.00375933110413103,0.01740128635499695
-0.00375916110413103,0.01710506433520594
-0.00375899110413103,0.01703923721969695
-0.003758821104131029,0.0157885220250227
-0.003758651104131029,0.01552521356298588
-0.003758481104131029,0.01480111529238641
-0.00375831110413103,0.01450489327259593
-0.00375814110413103,0.01210220355651326
-0.00375797110413103,0.01332000519343187
-0.003757801104131029,0.01226677134528341
-0.003757631104131029,0.01154267307468483
-0.003757461104131029,0.01101605615061216
-0.00375729110413103,0.01062109345755771
-0.00375712110413103,0.01035778499552173
-0.00375695110413103,0.01016030364899439
-0.003756781104131029,0.01016030364899403
-0.003756611104131029,0.01006156297573072
-0.003756441104131029,0.01006156297573102
-0.00375627110413103,0.01022613076450219
-0.00375610110413103,0.00950203249390325
-0.00375593110413103,0.009896995186957936
-0.003755761104131029,0.009238724031866912
-0.003755591104131029,0.009271637589619674
-0.003755421104131029,0.008810847781056593
-0.00375525110413103,0.008284230856984097
-0.00375508110413103,0.007988008837193623
-0.00375491110413103,0.007494305470875266
-0.003754741104131029,0.008020922394945186
-0.003754571104131029,0.007198083451085809
-0.003754401104131029,0.007625959701892537
-0.00375423110413103,0.007099342777822018
-0.00375406110413103,0.007889268163929951
-0.00375389110413103,0.008646279992284765
-0.003753721104131029,0.00923872403186763
-0.003753551104131029,0.009469118936151566
-0.003753381104131029,0.01025904432226046
-0.00375321110413103,0.01157558663244089
-0.00375304110413103,0.01187180865223136
-0.00375287110413103,0.01292504250037719
-0.00375270110413103,0.01384662211750311
-0.003752531104131029,0.01361622721322492
-0.003752361104131029,0.0141757576950509
-0.00375219110413103,0.01447197971484203
-0.00375202110413103,0.0148340288501415
-0.00375185110413103,0.01493276952340517
-0.00375168110413103,0.01489985596565068
-0.003751511104131029,0.01486694240789306
-0.003751341104131029,0.01404410346403309
-0.00375117110413103,0.01457072038810421
-0.00375100110413103,0.01410993057954124
-0.00375083110413103,0.01374788144424112
-0.00375066110413103,0.01341874586669614
-0.003750491104131029,0.01279338826935669
-0.003750321104131029,0.01216803067202279
-0.003750151104131029,0.01239842557630362
-0.00374998110413103,0.01203637644100415
-0.00374981110413103,0.0118388950944768
-0.00374964110413103,0.0119376357677403
-0.003749471104131029,0.01197054932549348
-0.003749301104131029,0.01154267307468573
-0.003749131104131029,0.01150975951693177
-0.00374896110413103,0.01180598153672225
-0.00374879110413103,0.01197054932549503
-0.00374862110413103,0.01216803067202202
-0.003748451104131029,0.01210220355651362
-0.003748281104131029,0.01220094422977693
-0.003748111104131029,0.01220094422977687
-0.00374794110413103,0.01216803067202238
-0.00374777110413103,0.01187180865223136
-0.00374760110413103,0.01210220355651326
-0.003747431104131029,0.01206928999875727
-0.003747261104131029,0.01167432730570252
-0.003747091104131029,0.01085148836183913
-0.00374692110413103,0.01032487143776718
-0.00374675110413103,0.01012739009123984
-0.00374658110413103,0.01006156297573072
-0.003746411104131029,0.009831168071448342
-0.003746241104131029,0.009699513840430952
-0.003746071104131029,0.009896995186957936
-0.00374590110413103,0.009896995186957157
-0.00374573110413103,0.009469118936148692
-0.00374556110413103,0.00983116807144882
-0.003745391104131029,0.009469118936146896
-0.003745221104131029,0.008975415569830097
-0.003745051104131029,0.008909588454321523
-0.00374488110413103,0.009074156243094485
-0.00374471110413103,0.009337464705130465
-0.00374454110413103,0.01002864941797616
-0.003744371104131029,0.01032487143776694
-0.003744201104131029,0.01025904432225914
-0.003744031104131029,0.01055526634204824
-0.00374386110413103,0.01009447653348618
-0.00374369110413103,0.01058817989980363
-0.00374352110413103,0.01006156297573072
-0.003743351104131029,0.009732427398186945
-0.003743181104131029,0.01022613076450303
-0.003743011104131029,0.0100944765334851
-0.00374284110413103,0.009995735860220888
-0.00374267110413103,0.009600773167166921
-0.00374250110413103,0.00983116807144882
-0.003742331104131029,0.009732427398183474
-0.003742161104131029,0.009271637589620511
-0.003741991104131029,0.009041242685342024
-0.00374182110413103,0.01045652566878277
-0.00374165110413103,0.009008329127584893
-0.00374148110413103,0.00871210710779388
-0.00374131110413103,0.00871210710779388
-0.003741141104131029,0.008843761338813783
-0.003740971104131029,0.009304551147375668
-0.00374080110413103,0.009172896916358636
-0.00374063110413103,0.009699513840430593
-0.00374046110413103,0.009995735860221606
-0.00374029110413103,0.01042361211103007
-0.003740121104131029,0.01164141374794994
-0.003739951104131029,0.01177306797896871
-0.00373978110413103,0.01233259846079594
-0.00373961110413103,0.0127604747116044
-0.00373944110413103,0.01272756115384985
-0.00373927110413103,0.01368205432873027
-0.003739101104131029,0.01289212894262215
-0.003738931104131029,0.01276047471160428
-0.003738761104131029,0.01269464759609445
-0.00373859110413103,0.01223385778753149
-0.00373842110413103,0.01197054932549503
-0.00373825110413103,0.01180598153672255
-0.003738081104131029,0.01104896970836719
-0.003737911104131029,0.01098314259285748
-0.003737741104131029,0.01052235278429422
-0.00373757110413103,0.01035778499552173
-0.00373740110413103,0.01048943922653996
-0.00373723110413103,0.01019321720674895
-0.003737061104131029,0.009995735860221367
-0.003736891104131029,0.009929908744712793
-0.003736721104131029,0.01009447653348558
-0.00373655110413103,0.01025904432225806
-0.00373638110413103,0.01071983413082186
-0.00373621110413103,0.01078566124633098
-0.003736041104131029,0.01124645105489501
-0.003735871104131029,0.01131227817040329
-0.003735701104131029,0.0109831425928573
-0.00373553110413103,0.01042361211102977
-0.00373536110413103,0.00983116807144882
-0.00373519110413103,0.009798254513694264
-0.003735021104131029,0.00907415624309257
-0.003734851104131029,0.008679193550038723
-0.003734681104131029,0.008350057972492794
-0.00373451110413103,0.00782344104841976
-0.00373434110413103,0.007230997008838809
-0.00373417110413103,0.006572725853747667
-0.003734001104131029,0.006572725853748265
-0.003733831104131029,0.006737293642520812
-0.003733661104131029,0.006836034315783765
-0.00373349110413103,0.00663855296925732
-0.00373332110413103,0.006934774989047795
-0.00373315110413103,0.007132256335575138
-0.003732981104131029,0.007527219028629464
-0.003732811104131029,0.007428478355367349
-0.003732641104131029,0.007757613932916093
-0.00373247110413103,0.01016030364899032
-0.00373230110413103,0.007922181721684508
-0.00373213110413103,0.008284230856984636
-0.003731961104131029,0.008745020665548317
-0.003731791104131029,0.008712107107793162
-0.003731621104131029,0.008514625761266237
-0.00373145110413103,0.00835005797249435
-0.00373128110413103,0.008679193550039321
-0.00373111110413103,0.008679193550039321
-0.00373094110413103,0.009074156243093288
-0.003730771104131029,0.009469118936150607
-0.003730601104131029,0.009995735860222324
-0.00373043110413103,0.01039069855327629
-0.00373026110413103,0.01039069855327629
-0.00373009110413103,0.009962822302467049
-0.00372992110413103,0.01039069855327551
-0.003729751104131029,0.01075274768857642
-0.003729581104131029,0.01075274768857642
-0.00372941110413103,0.01075274768857606
-0.00372924110413103,0.01055526634204908
-0.00372907110413103,0.01019321720674895
-0.00372890110413103,0.009995735860221965
-0.003728731104131029,0.009534946051655772
-0.003728561104131029,0.008975415569830756
-0.003728391104131029,0.009205810474112236
-0.00372822110413103,0.009205810474112236
-0.00372805110413103,0.009107069800848565
-0.00372788110413103,0.009436205378393537
-0.003727711104131029,0.009403291820639578
-0.003727541104131029,0.009403291820640177
-0.003727371104131029,0.00973242739818545
-0.00372720110413103,0.009896995186957936
-0.00372703110413103,0.01035778499552173
-0.00372686110413103,0.01048943922653996
-0.003726691104131029,0.01127936461264826
-0.003726521104131029,0.0109831425928597
-0.003726351104131029,0.01174015442121289
-0.00372618110413103,0.0116085001901949
-0.00372601110413103,0.0116085001901949
-0.00372584110413103,0.01177306797896769
-0.003725671104131029,0.0111477103816335
-0.003725501104131029,0.01180598153672093
-0.003725331104131029,0.01108188326612259
-0.00372516110413103,0.01141101884366571
-0.00372499110413103,0.01039069855327629
-0.00372482110413103,0.01039069855327629
-0.003724651104131029,0.01045652566878421
-0.003724481104131029,0.01012739009124019
-0.003724311104131029,0.01032487143776694
-0.00372414110413103,0.01019321720674901
-0.00372397110413103,0.01022613076450351
-0.00372380110413103,0.009139983358603122
-0.003723631104131029,0.01022613076450003
-0.003723461104131029,0.009271637589619075
-0.003723291104131029,0.008646279992285962
-0.00372312110413103,0.009304551147371777
-0.00372295110413103,0.007033515662311467
-0.00372278110413103,0.008086749510457293
-0.003722611104131029,0.007757613932911723
-0.003722441104131029,0.007757613932910885
-0.003722271104131029,0.007527219028630302
-0.00372210110413103,0.007790527490665622
-0.00372193110413103,0.007428478355366152
-0.00372176110413103,0.007395564797611595
-0.003721591104131029,0.007362651239858355
-0.003721421104131029,0.007724700375155729
-0.003721251104131029,0.007329737682102241
-0.00372108110413103,0.007198083451083474
-0.00372091110413103,0.00677020720027501
-0.00372074110413103,0.007296824124347924
-0.00372057110413103,0.007230997008838929
-0.003720401104131029,0.007198083451085809
-0.003720231104131029,0.007625959701893614
-0.00372006110413103,0.007691786817402729
-0.00371989110413103,0.007757613932911723
-0.00371972110413103,0.007527219028629823
-0.00371955110413103,0.007988008837192785
-0.003719381104131029,0.007658873259647812
-0.003719211104131029,0.007593046144138878
-0.00371904110413103,0.007560132586384201
-0.00371887110413103,0.007461391913120709
-0.00371870110413103,0.007296824124347924
-0.00371853110413103,0.007230997008838929
-0.003718361104131029,0.007625959701894093
