Analysis/New Tests_CMB/wrd01_d2s01/cmb10_ch35.csv

#Digilent WaveForms Oscilloscope Acquisition
#Device Name: ADP3450
#Serial Number: SN:210018B9D9B0
#Date Time: 2024-08-07 11:56:15.782.718.500
#Sample rate: 2.94118e+06Hz
#Samples: 32768
#Trigger: Source: Channel 3 Type: Edge Condition: Rising Level: 0 V Hyst.: Auto HoldOff: 0 s
#Channel 3: Range: 200 mV/div Offset: 0 V Attenuation: 1 X Coupling: DC Bandwidth: 0 Hz Sample Mode: Average

Time (s),Channel 3 (V)
-0.005570312727272727,0.0164467931801148
-0.005569972727272727,0.01674301519990552
-0.005569632727272727,0.01657844741113303
-0.005569292727272727,0.01684175587316948
-0.005568952727272727,0.01703923721969665
-0.005568612727272727,0.01694049654643316
-0.005568272727272727,0.01726963212397873
-0.005567932727272727,0.01736837279724389
-0.005567592727272727,0.01819121174110632
-0.005567252727272727,0.01904696424272481
-0.005566912727272727,0.01990271674434336
-0.005566572727272727,0.01993563030209785
-0.005566232727272727,0.01931027270476127
-0.005565892727272727,0.01792790327906795
-0.005565552727272727,0.01687466943092404
-0.005565212727272727,0.01565686779400543
-0.005564872727272727,0.01542647288972443
-0.005564532727272727,0.01592017625604189
-0.005564192727272727,0.01769750837478797
-0.005563852727272727,0.01901405068497163
-0.005563512727272727,0.01977106251332507
-0.005563172727272727,0.02023185232188887
-0.005562832727272727,0.0198039760710804
-0.005562492727272727,0.01888239645395202
-0.005562152727272727,0.01763168125927886
-0.005561812727272727,0.01644679318011695
-0.005561472727272727,0.0152948186587053
-0.005561132727272727,0.01503151019666884
-0.005560792727272727,0.01519607798544133
-0.005560452727272727,0.01559104067849632
-0.005560112727272727,0.01618348471807834
-0.005559772727272727,0.01726963212397675
-0.005559432727272727,0.01871782866517924
-0.005559092727272727,0.01927735914700671
-0.005558752727272727,0.02049516078392311
-0.005558412727272727,0.02102177770799824
-0.005558072727272727,0.02108760482350735
-0.005557732727272727,0.02187753020961529
-0.005557392727272727,0.02220666578716229
-0.005557052727272727,0.02210792511389862
-0.005556712727272727,0.02187753020961714
-0.005556372727272727,0.02144965395880748
-0.005556032727272727,0.02079138280371634
-0.005555692727272727,0.02016602520638089
-0.005555352727272727,0.01937609982027038
-0.005555012727272727,0.01832286597212456
-0.005554672727272727,0.0177962490480526
-0.005554332727272727,0.01828995241437
-0.005553992727272727,0.01848743376089734
-0.005553652727272727,0.0185203473186519
-0.005553312727272727,0.01878365578068835
-0.005552972727272727,0.01868491510742468
-0.005552632727272727,0.01842160664538823
-0.005552292727272727,0.01812538462559721
-0.005551952727272727,0.01786207616356076
-0.005551612727272727,0.01726963212397873
-0.005551272727272727,0.01677592875766067
-0.005550932727272727,0.01694049654643316
-0.005550592727272727,0.0192115320314976
-0.005550252727272727,0.02641960117977123
-0.005549912727272727,0.04050660389869604
-0.005549572727272727,0.06232829268996741
-0.005549232727272727,0.09152261841832075
-0.005548892727272727,0.1251602744434169
-0.005548552727272727,0.1609373117226205
-0.005548212727272727,0.1950686711141506
-0.005547872727272727,0.2249541815552341
-0.005547532727272727,0.2485202889074969
-0.005547192727272727,0.2662277829794669
-0.005546852727272727,0.2762664180945886
-0.005546512727272727,0.2810388839689994
-0.005546172727272727,0.2811047110845047
-0.005545832727272727,0.2789982433882168
-0.005545492727272727,0.2747194808801244
-0.005545152727272727,0.2683342506757271
-0.005544812727272727,0.2610274408542286
-0.005544472727272727,0.2532598412241532
-0.005544132727272727,0.2454922415940629
-0.005543792727272727,0.2373296792709475
-0.005543452727272727,0.2297595609873994
-0.005543112727272727,0.2219261342418008
-0.005542772727272727,0.2142243617272485
-0.005542432727272727,0.2066213298859458
-0.005542092727272727,0.2000057047772918
-0.005541752727272727,0.1939166965926867
-0.005541412727272727,0.1873998121572844
-0.005541072727272727,0.1809487548374029
-0.005540732727272727,0.174497697517498
-0.005540392727272727,0.1681453808708685
-0.005540052727272727,0.161760150666496
-0.005539712727272727,0.1556711424818913
-0.005539372727272727,0.1494504800662801
-0.005539032727272727,0.1433943854394526
-0.005538692727272727,0.1387206602382944
-0.005538352727272727,0.134145675710411
-0.005538012727272727,0.1298010860868174
-0.005537672727272727,0.1261805947338082
-0.005537332727272727,0.1228234118428434
-0.005536992727272727,0.1187092171235312
-0.005536652727272727,0.115121639328277
-0.005536312727272727,0.1117315428795576
-0.005535972727272727,0.1085389277773714
-0.005535632727272727,0.1057083618104737
-0.005535292727272727,0.1025157467082816
-0.005534952727272727,0.0991256502595684
-0.005534612727272727,0.09491271486697894
-0.005534272727272727,0.09191758111131423
-0.005533932727272727,0.08892244735565501
-0.005533592727272727,0.08665141187058512
-0.005533252727272727,0.08431454927001156
-0.005532912727272727,0.08230682224698357
-0.005532572727272727,0.08059531724374661
-0.005532232727272727,0.07894963935601876
-0.005531892727272727,0.07638238185116328
-0.005531552727272727,0.07407843280834431
-0.005531212727272727,0.07233401424735278
-0.005530872727272727,0.06933888049168807
-0.005530532727272727,0.06782485683497844
-0.005530192727272727,0.0657183891386868
-0.005529852727272727,0.06357900788464058
-0.005529512727272727,0.06153836730385594
-0.005529172727272727,0.06038639278244854
-0.005528832727272727,0.05926733181879359
-0.005528492727272727,0.05860906066370173
-0.005528152727272727,0.05821409797064777
-0.005527812727272727,0.05758874037331118
-0.005527472727272727,0.05587723537007134
-0.005527132727272727,0.05429738459785547
-0.005526792727272727,0.05219091690156382
-0.005526452727272727,0.05008444920526875
-0.005526112727272727,0.04820837641326241
-0.005525772727272727,0.04682600698757101
-0.005525432727272727,0.04587151381268784
-0.005525092727272727,0.04531198333086138
-0.005524752727272727,0.04425874948271556
-0.005524412727272727,0.04294220717253171
-0.005524072727272727,0.04208645467091478
-0.005523732727272727,0.04136235640031453
-0.005523392727272727,0.0408028259184858
-0.005523052727272727,0.04011164120564136
-0.005522712727272727,0.03971667851258667
-0.005522372727272727,0.03925588870402186
-0.005522032727272727,0.0386963582221954
-0.005521692727272727,0.0380051735093497
-0.005521352727272727,0.03714942100772967
-0.005521012727272727,0.03629366850611274
-0.005520672727272727,0.03520752110021235
-0.005520332727272727,0.03392389234778696
-0.005519992727272727,0.03267317715311145
-0.005519652727272727,0.03231112801781132
-0.005519312727272727,0.03217947378679334
-0.005518972727272727,0.03178451109373841
-0.005518632727272727,0.03142246195843829
-0.005518292727272727,0.03076419080334834
-0.005517952727272727,0.02994135185948321
-0.005517612727272727,0.02921725358888296
-0.005517272727272727,0.02852606887603851
-0.005516932727272727,0.02786779772094612
-0.005516592727272727,0.02684747743055485
-0.005516252727272727,0.02674873675729135
-0.005515912727272727,0.02671582319953662
-0.005515572727272727,0.02707787233483674
-0.005515232727272727,0.0276703163744177
-0.005514892727272727,0.02783488416319156
-0.005514552727272727,0.02796653839420979
-0.005514212727272727,0.02790071127870079
-0.005513872727272727,0.02717661300810041
-0.005513532727272727,0.02661708252627295
-0.005513192727272727,0.02605755204444649
-0.005512852727272727,0.025498021562618
-0.005512512727272727,0.02536636733159978
-0.005512172727272727,0.02562967579363623
-0.005511832727272727,0.02632086050648193
-0.005511492727272727,0.02589298425567269
-0.005511152727272727,0.0261892062754637
-0.005510812727272727,0.02582715714016358
-0.005510472727272727,0.02457644194549041
-0.005510132727272727,0.02381943011713559
-0.005509792727272727,0.02322698607755356
-0.005509452727272727,0.02237123357593508
-0.005509112727272727,0.02161422174758026
-0.005508772727272727,0.02121925905452588
-0.005508432727272727,0.02138382684329837
-0.005508092727272727,0.02168004886308938
-0.005507752727272727,0.02158130818982714
-0.005507412727272727,0.02237123357593508
-0.005507072727272727,0.02263454203797154
-0.005506732727272727,0.0221079251138973
-0.005506392727272727,0.02138382684329837
-0.005506052727272727,0.02026476587964342
-0.005505712727272727,0.01934318626251553
-0.005505372727272727,0.01917861847374304
-0.005505032727272727,0.01927735914700671
-0.005504692727272727,0.01931027270476306
-0.005504352727272727,0.02029767943739798
-0.005504012727272727,0.02079138280371634
-0.005503672727272727,0.02105469126575219
-0.005503332727272727,0.02072555568820722
-0.005502992727272727,0.02006728453311608
-0.005502652727272727,0.01960649472455108
-0.005502312727272727,0.01894822356946114
-0.005501972727272727,0.01773042193254253
-0.005501632727272727,0.01707215077745067
-0.005501292727272727,0.0166771880843967
-0.005500952727272727,0.01657844741113303
-0.005500612727272727,0.01634805250685203
-0.005500272727272727,0.01684175587316948
-0.005499932727272727,0.01733545923948784
-0.005499592727272727,0.01756585414376932
-0.005499252727272727,0.01723671856622417
-0.005498912727272727,0.01717089145071506
-0.005498572727272727,0.0167101016421521
-0.005498232727272727,0.01641387962236024
-0.005497892727272727,0.01618348471807834
-0.005497552727272727,0.01615057116032384
-0.005497212727272727,0.01654553385337847
-0.005496872727272727,0.01710506433520594
-0.005496532727272727,0.01687466943092446
-0.005496192727272727,0.01657844741113303
-0.005495852727272727,0.01710506433520594
-0.005495512727272727,0.01730254568173292
-0.005495172727272727,0.0178291626058062
-0.005494832727272727,0.01868491510742468
-0.005494492727272727,0.02003437097535907
-0.005494152727272727,0.02092303703473456
-0.005493812727272727,0.02184461665186217
-0.005493472727272727,0.02273328271123359
-0.005493132727272727,0.02250288780695331
-0.005492792727272727,0.02204209799838951
-0.005492452727272727,0.0209888641502456
-0.005492112727272727,0.02006728453311608
-0.005491772727272727,0.01881656933844291
-0.005491432727272727,0.01726963212398154
-0.005491092727272727,0.01509733731217796
-0.005490752727272727,0.01473528817687783
-0.005490412727272727,0.01499859663891429
-0.005490072727272727,0.0155252135629872
-0.005489732727272727,0.01592017625604189
-0.005489392727272727,0.01585434914053277
-0.005489052727272727,0.01677592875766037
-0.005488712727272727,0.0175987677015243
-0.005488372727272727,0.01855326087640645
-0.005488032727272727,0.01881656933844267
-0.005487692727272727,0.01868491510742468
-0.005487352727272727,0.01842160664538823
-0.005487012727272727,0.0173354592394858
-0.005486672727272727,0.0162163982758329
-0.005486332727272727,0.01641387962236024
-0.005485992727272727,0.0163480525068531
-0.005485652727272727,0.01743419991275151
-0.005485312727272727,0.01868491510742468
-0.005484972727272727,0.01944192693578022
-0.005484632727272727,0.01983688962883418
-0.005484292727272727,0.01911279135823393
-0.005483952727272727,0.01809247106784122
-0.005483612727272727,0.01730254568173328
-0.005483272727272727,0.01700632366194227
-0.005482932727272727,0.01710506433520762
-0.005482592727272727,0.01802664395233354
-0.005482252727272727,0.01819121174110632
-0.005481912727272727,0.01954066760904449
-0.005481572727272727,0.02026476587964342
-0.005481232727272727,0.02072555568820722
-0.005480892727272727,0.02118634549677114
-0.005480552727272727,0.02125217261228014
-0.005480212727272727,0.02154839463207115
-0.005479872727272727,0.02092303703473433
-0.005479532727272727,0.02079138280371634
-0.005479192727272727,0.020593901457189
-0.005478852727272727,0.02033059299515302
-0.005478512727272727,0.02046224722617077
-0.005478172727272727,0.020593901457189
-0.005477832727272727,0.02016602520638053
-0.005477492727272727,0.01983688962883418
-0.005477152727272727,0.01973814895557051
-0.005476812727272727,0.02010019809086998
-0.005476472727272727,0.02079138280371634
-0.005476132727272727,0.02095595059248912
-0.005475792727272727,0.0211863454967706
-0.005475452727272727,0.02141674040105292
-0.005475112727272727,0.02118634549677102
-0.005474772727272727,0.02108760482350753
-0.005474432727272727,0.020593901457189
-0.005474092727272727,0.02062681501494355
-0.005473752727272727,0.01977106251332662
-0.005473412727272727,0.01937609982027038
-0.005473072727272727,0.01865200154967013
-0.005472732727272727,0.01825703885661616
-0.005472392727272727,0.01753294058601518
-0.005472052727272727,0.01654553385337847
-0.005471712727272727,0.01631513894909699
-0.005471372727272727,0.01661136096888758
-0.005471032727272727,0.01707215077745139
-0.005470692727272727,0.01733545923948736
-0.005470352727272727,0.0175987677015243
-0.005470012727272727,0.01796081683682443
-0.005469672727272727,0.01832286597212456
-0.005469332727272727,0.01868491510742468
-0.005468992727272727,0.01927735914700671
-0.005468652727272727,0.0196723218400614
-0.005468312727272727,0.02056098789943444
-0.005467972727272727,0.02089012347698001
-0.005467632727272727,0.02154839463207115
-0.005467292727272727,0.02191044376737128
-0.005466952727272727,0.02240414713368964
-0.005466612727272727,0.02227249290267141
-0.005466272727272727,0.02220666578716062
-0.005465932727272727,0.02128508617003469
-0.005465592727272727,0.02010019809087064
-0.005465252727272727,0.01927735914700515
-0.005464912727272727,0.01842160664538823
-0.005464572727272727,0.01812538462559721
-0.005464232727272727,0.01779624904805206
-0.005463892727272727,0.01802664395233354
-0.005463552727272727,0.01746711347050607
-0.005463212727272727,0.01733545923948898
-0.005462872727272727,0.01796081683682443
-0.005462532727272727,0.01884948289619747
-0.005462192727272727,0.01986980318658946
-0.005461852727272727,0.02026476587964342
-0.005461512727272727,0.01963940828230684
-0.005461172727272727,0.01881656933844213
-0.005460832727272727,0.01838869308763367
-0.005460492727272727,0.01809247106784265
-0.005460152727272727,0.01726963212397957
-0.005459812727272727,0.01773042193254253
-0.005459472727272727,0.01828995241437
-0.005459132727272727,0.0191457049159898
-0.005458792727272727,0.01986980318658874
-0.005458452727272727,0.0196723218400614
-0.005458112727272727,0.01950775405128777
-0.005457772727272727,0.01904696424272481
-0.005457432727272727,0.01819121174110632
-0.005457092727272727,0.01779624904805236
-0.005456752727272727,0.0173683727972424
-0.005456412727272727,0.01799373039457898
-0.005456072727272727,0.01861908799191443
-0.005455732727272727,0.0185203473186519
-0.005455392727272727,0.01835577952987911
-0.005455052727272727,0.01861908799191509
-0.005454712727272727,0.01855326087640645
-0.005454372727272727,0.01789498972131531
-0.005454032727272727,0.01740128635499785
-0.005453692727272727,0.0173683727972424
-0.005453352727272727,0.01707215077745139
-0.005453012727272727,0.01763168125927784
-0.005452672727272727,0.0180595575100881
-0.005452332727272727,0.01884948289619747
-0.005451992727272727,0.01947484049353292
-0.005451652727272727,0.01986980318658874
-0.005451312727272727,0.01983688962883418
-0.005450972727272727,0.02000145741760667
-0.005450632727272727,0.01947484049353405
-0.005450292727272727,0.01868491510742468
-0.005449952727272727,0.01884948289619717
-0.005449612727272727,0.01855326087640645
-0.005449272727272727,0.01914570491598848
-0.005448932727272727,0.01967232184006044
-0.005448592727272727,0.02019893876413431
-0.005448252727272727,0.02062681501494355
-0.005447912727272727,0.02075846924596178
-0.005447572727272727,0.02033059299515254
-0.005447232727272727,0.02029767943739798
-0.005446892727272727,0.02033059299515254
-0.005446552727272727,0.02065972857269811
-0.005446212727272727,0.02065972857269811
-0.005445872727272727,0.02079138280371634
-0.005445532727272727,0.02062681501494242
-0.005445192727272727,0.02000145741760697
-0.005444852727272727,0.01937609982027038
-0.005444512727272727,0.01861908799191425
-0.005444172727272727,0.01789498972131531
-0.005443832727272727,0.01792790327906987
-0.005443492727272727,0.01838869308763564
-0.005443152727272727,0.01947484049353405
-0.005442812727272727,0.01960649472455228
-0.005442472727272727,0.01875074222293056
-0.005442132727272727,0.01697341010418771
-0.005441792727272727,0.0157556084672691
-0.005441452727272727,0.01457072038810295
-0.005441112727272727,0.01341874586669555
-0.005440772727272727,0.01285921538486808
-0.005440432727272727,0.01315543740466052
-0.005440092727272727,0.01394536279076846
-0.005439752727272727,0.01526190510095074
-0.005439412727272727,0.0166113609688892
-0.005439072727272727,0.01750002702826063
-0.005438732727272727,0.01802664395233354
-0.005438392727272727,0.01796081683682407
-0.005438052727272727,0.01776333549029708
-0.005437712727272727,0.01743419991275151
-0.005437372727272727,0.01700632366194173
-0.005437032727272727,0.01671010164215126
-0.005436692727272727,0.01730254568173328
-0.005436352727272727,0.01825703885661371
-0.005436012727272727,0.01917861847374304
-0.005435672727272727,0.0194419269357795
-0.005435332727272727,0.01963940828230648
-0.005434992727272727,0.01980397607107963
-0.005434652727272727,0.02029767943739798
-0.005434312727272727,0.02079138280371544
-0.005433972727272727,0.02029767943739798
-0.005433632727272727,0.02039642011066165
-0.005433292727272727,0.02062681501494313
-0.005432952727272727,0.02006728453311608
-0.005432612727272727,0.01983688962883418
-0.005432272727272727,0.01937609982027122
-0.005431932727272727,0.01858617443416101
-0.005431592727272727,0.01710506433520594
-0.005431252727272727,0.0164138796223615
-0.005430912727272727,0.01634805250685113
-0.005430572727272727,0.01756585414376974
-0.005430232727272727,0.01957358116679407
-0.005429892727272727,0.02121925905452558
-0.005429552727272727,0.02207501155614406
-0.005429212727272727,0.02227249290267105
-0.005428872727272727,0.02164713530533482
-0.005428532727272727,0.01957358116679772
-0.005428192727272727,0.01361622721323372
-0.005427852727272727,0.001668605748318658
-0.005427512727272727,-0.01830992380869751
-0.005427172727272727,-0.04589148520701637
-0.005426832727272727,-0.0783113395952551
-0.005426492727272727,-0.1128705752375401
-0.005426152727272727,-0.1458499601076063
-0.005425812727272727,-0.1751759400669167
-0.005425472727272727,-0.1987420474191796
-0.005425132727272727,-0.2147380364878943
-0.005424792727272727,-0.2257311647779164
-0.005424452727272727,-0.2310960746919092
-0.005424112727272727,-0.2323797034443369
-0.005423772727272727,-0.2305365442100738
-0.005423432727272727,-0.2261590410287256
-0.005423092727272727,-0.22062956332596
-0.005422752727272727,-0.2133227535044329
-0.005422412727272727,-0.2048310556037726
-0.005422072727272727,-0.1957469136635149
-0.005421732727272727,-0.1870577344162986
-0.005421392727272727,-0.1798167517103092
-0.005421052727272727,-0.173069472370625
-0.005420712727272727,-0.1670792048592865
-0.005420372727272727,-0.162076344080603
-0.005420032727272727,-0.1572051375329285
-0.005419692727272727,-0.1531896834868636
-0.005419352727272727,-0.1482855633814435
-0.005419012727272727,-0.1432827026027509
-0.005418672727272727,-0.1377203113422212
-0.005418332727272727,-0.1324870556592561
-0.005417992727272727,-0.1270563186297542
-0.005417652727272727,-0.1214610138114686
-0.005417312727272727,-0.1155036598579046
-0.005416972727272727,-0.1096450465775935
-0.005416632727272727,-0.1041813959903267
-0.005416292727272727,-0.09855317761430774
-0.005415952727272727,-0.09322118125806947
-0.005415612727272727,-0.08933738144302462
-0.005415272727272727,-0.08542066807023946
-0.005414932727272727,-0.08173434960172904
-0.005414592727272727,-0.0786733887305608
-0.005414252727272727,-0.0754807736283632
-0.005413912727272727,-0.07241981275718939
-0.005413572727272727,-0.06962216034805714
-0.005413232727272727,-0.06646245880361457
-0.005412892727272727,-0.06290779456612239
-0.005412552727272727,-0.06090006754309805
-0.005412212727272727,-0.05859611850027541
-0.005411872727272727,-0.05635799657296552
-0.005411532727272727,-0.05365908483709675
