Analysis/New Tests_CMB/wrd01_d2s01/cmb13_ch19.csv

#Digilent WaveForms Oscilloscope Acquisition
#Device Name: ADP3450
#Serial Number: SN:210018B9D9B0
#Date Time: 2024-08-06 17:58:41.144.669.290
#Sample rate: 2.94118e+06Hz
#Samples: 32768
#Trigger: Source: Channel 3 Type: Edge Condition: Rising Level: 60 mV Hyst.: Auto HoldOff: 0 s
#Channel 3: Range: 200 mV/div Offset: -20 mV Attenuation: 1 X Coupling: DC Bandwidth: 0 Hz Sample Mode: Average

Time (s),Channel 3 (V)
-0.005570473988095239,0.04149790768882243
-0.005570133988095238,0.04139916701555835
-0.005569793988095238,0.04116877211127686
-0.005569453988095239,0.04064215518720395
-0.005569113988095238,0.03972057557007527
-0.005568773988095238,0.03912813153049433
-0.005568433988095239,0.03758119431603014
-0.005568093988095238,0.03619882489033616
-0.005567753988095238,0.03478354190689278
-0.005567413988095239,0.03287455555712847
-0.005567073988095238,0.03159092680470002
-0.005566733988095238,0.03119596411164606
-0.005566393988095239,0.0309326556496096
-0.005566053988095238,0.03030729805227349
-0.005565713988095238,0.03057060651430947
-0.005565373988095239,0.03103139632287327
-0.005565033988095238,0.03198588949775603
-0.005564693988095238,0.032315025075301
-0.005564353988095239,0.03201880305550998
-0.005564013988095238,0.0311959641116454
-0.005563673988095238,0.03083391497634593
-0.005563333988095239,0.03007690314799111
-0.005562993988095239,0.0302743844945181
-0.005562653988095238,0.03050477939880036
-0.005562313988095239,0.0318542352667372
-0.005561973988095239,0.03274290132610862
-0.005561633988095238,0.03310495046141037
-0.005561293988095239,0.03294038267263759
-0.005560953988095239,0.03182132170898468
-0.005560613988095238,0.03060352007206403
-0.005560273988095239,0.02922115064637263
-0.005559933988095239,0.0284312252602647
-0.005559593988095238,0.02806917612496313
-0.005559253988095239,0.02803626256720858
-0.005558913988095239,0.02813500324047206
-0.005558573988095238,0.02810208968271769
-0.005558233988095239,0.02869453372229972
-0.005557893988095239,0.02928697776188066
-0.005557553988095238,0.02964902689718187
-0.005557213988095239,0.02974776757044555
-0.005556873988095239,0.02958319978167306
-0.005556533988095238,0.02925406420412719
-0.005556193988095239,0.02843122526026326
-0.005555853988095239,0.02708176939232888
-0.005555513988095238,0.02606144910193515
-0.005555173988095238,0.02589688131316236
-0.005554833988095239,0.02589688131316236
-0.005554493988095238,0.02648932535274439
-0.005554153988095238,0.02711468295008098
-0.005553813988095239,0.02783878122068123
-0.005553473988095238,0.0279375218939449
-0.005553133988095238,0.02731216429660832
-0.005552793988095239,0.02599562198642603
-0.005552453988095238,0.02537026438908945
-0.005552113988095238,0.02458033900298008
-0.005551773988095239,0.02418537630992539
-0.005551433988095238,0.02369167294360668
-0.005551093988095238,0.0234941915970797
-0.005550753988095239,0.02379041361687071
-0.005550413988095238,0.02388915429013534
-0.005550073988095238,0.02441577121420729
-0.005549733988095239,0.02461325256073464
-0.005549393988095238,0.02484364746501725
-0.005549053988095238,0.02523861015807122
-0.005548713988095239,0.02556774573561679
-0.005548373988095238,0.02553483217786176
-0.005548033988095238,0.02527152371582578
-0.005547693988095239,0.02520569660031666
-0.005547353988095238,0.02484364746501444
-0.005547013988095238,0.02369167294360704
-0.005546673988095239,0.022803006884234
-0.005546333988095238,0.02290174755749725
-0.005545993988095238,0.02267135265321577
-0.005545653988095239,0.02332962380830691
-0.005545313988095238,0.02418537630992551
-0.005544973988095238,0.02425120342543451
-0.005544633988095239,0.02474490679175287
-0.005544293988095238,0.02477782034950593
-0.005543953988095238,0.02395498140564349
-0.005543613988095239,0.02375750005911615
-0.005543273988095238,0.02395498140564499
-0.005542933988095238,0.02477782034950742
-0.005542593988095239,0.02573231352438958
-0.005542253988095239,0.02609436265968905
-0.005541913988095238,0.02662097958376262
-0.005541573988095239,0.02619310333295338
-0.005541233988095239,0.02543609150459994
-0.005540893988095238,0.02418537630992539
-0.005540553988095239,0.02408663563666172
-0.005540213988095239,0.02444868477196119
-0.005539873988095238,0.02481073390726198
-0.005539533988095239,0.02504112881154388
-0.005539193988095239,0.02471199323399891
-0.005538853988095238,0.02365875938585248
-0.005538513988095239,0.02273717976872488
-0.005538173988095239,0.02155229168956298
-0.005537833988095238,0.02076236630345146
-0.005537493988095239,0.0209598476499788
-0.005537153988095239,0.0221447357291407
-0.005536813988095238,0.02385624073237982
-0.005536473988095239,0.02573231352438958
-0.005536133988095239,0.02648932535274301
-0.005535793988095238,0.02668680669927173
-0.005535453988095239,0.02569939996663502
-0.005535113988095239,0.02451451188747312
-0.005534773988095238,0.02290174755749767
-0.005534433988095239,0.02250678486444298
-0.005534093988095239,0.0211244154387541
-0.005533753988095238,0.02040031716815133
-0.005533413988095238,0.02066362563018779
-0.005533073988095239,0.02099276120773335
-0.005532733988095238,0.02115732899650614
-0.005532393988095238,0.02178268659384272
-0.005532053988095239,0.02191434082486095
-0.005531713988095238,0.0218814272671064
-0.005531373988095238,0.02227638996016108
-0.005531033988095239,0.02293466111525222
-0.005530693988095238,0.02375750005911615
-0.005530353988095238,0.02411954919441628
-0.005530013988095239,0.02467907967624375
-0.005529673988095238,0.02494238813828183
-0.005529333988095238,0.02583105419765325
-0.005528993988095239,0.02550191862010768
-0.005528653988095238,0.02517278304256235
-0.005528313988095238,0.02530443727358034
-0.005527973988095239,0.02533735083133489
-0.005527633988095238,0.02513986948480779
-0.005527293988095238,0.02527152371582578
-0.005526953988095239,0.02523861015807122
-0.005526613988095238,0.02540317794684371
-0.005526273988095238,0.02523861015807122
-0.005525933988095239,0.02464616611848919
-0.005525593988095238,0.02359293227034139
-0.005525253988095238,0.02250678486444298
-0.005524913988095239,0.02128898322752437
-0.005524573988095238,0.02128898322752341
-0.005524233988095238,0.02076236630345146
-0.005523893988095239,0.02043323072590588
-0.005523553988095238,0.0198737002440774
-0.005523213988095238,0.01931416976225094
-0.005522873988095239,0.01901794774245993
-0.005522533988095238,0.01918251553123224
-0.005522193988095238,0.01891920706919626
-0.005521853988095239,0.01918251553123271
-0.005521513988095238,0.01990661380183423
-0.005521173988095238,0.02059779851467867
-0.005520833988095239,0.02086110697671513
-0.005520493988095239,0.02059779851467915
-0.005520153988095238,0.02086110697671513
-0.005519813988095239,0.02125606966976981
-0.005519473988095239,0.02151937813180579
-0.005519133988095238,0.02148646457405171
-0.005518793988095239,0.0218814272671064
-0.005518453988095239,0.02227638996016037
-0.005518113988095238,0.0221118221713883
-0.005517773988095239,0.02221056284465197
-0.005517433988095239,0.02244095774893345
-0.005517093988095238,0.02247387130668842
-0.005516753988095239,0.02293466111525222
-0.005516413988095239,0.02385624073237815
-0.005516073988095238,0.02507404236929844
-0.005515733988095239,0.02652223891049895
-0.005515393988095239,0.02760838631639736
-0.005515053988095238,0.02803626256720858
-0.005514713988095239,0.02820083035598136
-0.005514373988095239,0.0277400405474184
-0.005514033988095238,0.02691720160355363
-0.005513693988095239,0.02586396775540781
-0.005513353988095239,0.0247449067917549
-0.005513013988095238,0.02375750005911615
-0.005512673988095238,0.02263843909546121
-0.005512333988095239,0.02214473572914285
-0.005511993988095238,0.0218814272671064
-0.005511653988095238,0.0218814272671064
-0.005511313988095239,0.02204599505587918
-0.005510973988095238,0.02214473572914285
-0.005510633988095238,0.02296757467300678
-0.005510293988095239,0.02293466111525222
-0.005509953988095238,0.02339545092381603
-0.005509613988095238,0.02329671025055235
-0.005509273988095239,0.02290174755749767
-0.005508933988095238,0.02181560015159537
-0.005508593988095238,0.02076236630345146
-0.005508253988095239,0.02033449005264221
-0.005507913988095238,0.01961039178204321
-0.005507573988095238,0.02030157649488766
-0.005507233988095239,0.01921542908898727
-0.005506893988095238,0.02016992226387009
-0.005506553988095238,0.02053197139916955
-0.005506213988095239,0.0216510323628245
-0.005505873988095238,0.02280300688423489
-0.005505533988095238,0.02329671025055235
-0.005505193988095239,0.02451451188747097
-0.005504853988095238,0.02533735083133615
-0.005504513988095238,0.02602853554418059
-0.005504173988095239,0.02635767112172616
-0.005503833988095238,0.02658806602600729
-0.005503493988095238,0.02616018977519882
-0.005503153988095239,0.02629184400621705
-0.005502813988095238,0.02652223891049895
-0.005502473988095238,0.02652223891049895
-0.005502133988095239,0.02619310333295338
-0.005501793988095238,0.02550191862010606
-0.005501453988095238,0.02461325256073464
-0.005501113988095239,0.02369167294360704
-0.005500773988095238,0.02398789496339883
-0.005500433988095238,0.02441577121420729
-0.005500093988095239,0.02533735083133489
-0.005499753988095239,0.02566648640887986
-0.005499413988095238,0.02592979487091692
-0.005499073988095239,0.02550191862010768
-0.005498733988095239,0.02504112881154472
-0.005498393988095238,0.02523861015807122
-0.005498053988095239,0.02550191862010768
-0.005497713988095239,0.0253044372735807
-0.005497373988095238,0.02573231352438958
-0.005497033988095239,0.02546900506235312
-0.005496693988095239,0.02513986948480815
-0.005496353988095238,0.02431703054094362
-0.005496013988095239,0.02342836448157058
-0.005495673988095239,0.0231979695772891
-0.005495333988095238,0.02277009332647944
-0.005494993988095239,0.02247387130668842
-0.005494653988095239,0.02323088313504186
-0.005494313988095238,0.02356001871258881
-0.005493973988095239,0.02398789496339805
-0.005493633988095239,0.02444868477196101
-0.005493293988095238,0.02556774573561679
-0.005492953988095239,0.02622601689070794
-0.005492613988095239,0.02704885583457037
-0.005492273988095238,0.02747673208538111
-0.005491933988095239,0.02714759650783553
-0.005491593988095239,0.02625893044846411
-0.005491253988095238,0.02471199323399831
-0.005490913988095238,0.02379041361687071
-0.005490573988095239,0.02273717976872488
-0.005490233988095238,0.02198016794037007
-0.005489893988095238,0.0216510323628245
-0.005489553988095239,0.02151937813180627
-0.005489213988095238,0.02198016794037007
-0.005488873988095238,0.02217764928689741
-0.005488533988095239,0.02293466111525222
-0.005488193988095238,0.02303340178851638
-0.005487853988095238,0.02329671025055235
-0.005487513988095239,0.02336253736606147
-0.005487173988095238,0.02323088313504204
-0.005486833988095238,0.0225726119799521
-0.005486493988095239,0.02217764928689741
-0.005486153988095238,0.02201308149812421
-0.005485813988095238,0.02178268659384272
-0.005485473988095239,0.02181560015159728
-0.005485133988095238,0.02194725438261761
-0.005484793988095238,0.02309922890402501
-0.005484453988095239,0.02339545092381603
-0.005484113988095238,0.02332962380830583
-0.005483773988095238,0.02273717976872488
-0.005483433988095239,0.02244095774893387
-0.005483093988095238,0.02188142726710526
-0.005482753988095238,0.02125606966976981
-0.005482413988095239,0.0211902425542607
-0.005482073988095238,0.0213548103430333
-0.005481733988095238,0.02125606966976981
-0.005481393988095239,0.02128898322752437
-0.005481053988095238,0.02125606966977053
-0.005480713988095238,0.0216510323628245
-0.005480373988095239,0.0221118221713883
-0.005480033988095238,0.02188142726710604
-0.005479693988095238,0.02168394592057905
-0.005479353988095239,0.02148646457405171
-0.005479013988095239,0.02109150188099775
-0.005478673988095238,0.01855715793389613
-0.005478333988095239,0.01095412609259344
-0.005477993988095239,-0.003363271530612862
-0.005477653988095238,-0.02465834339783735
-0.005477313988095239,-0.05388558268388407
-0.005476973988095239,-0.08778654717101622
-0.005476633988095238,-0.1222799556978537
-0.005476293988095239,-0.1542061067197741
-0.005475953988095239,-0.1818205816757973
-0.005475613988095238,-0.2029181721965186
-0.005475273988095239,-0.2172026562619964
-0.005474933988095239,-0.2250031694498123
-0.005474593988095238,-0.2282945252252822
-0.005474253988095239,-0.2280641303210003
-0.005473913988095239,-0.2250031694498321
-0.005473573988095238,-0.2203623578064339
-0.005473233988095239,-0.2146024851993864
-0.005472893988095239,-0.208019773648487
-0.005472553988095238,-0.2005813095959451
-0.005472213988095239,-0.1933732404476971
-0.005471873988095239,-0.1864284797614982
-0.005471533988095238,-0.1794178919597649
-0.005471193988095239,-0.1714857245409166
-0.005470853988095239,-0.1640472604884002
-0.005470513988095238,-0.1563125744160658
-0.005470173988095238,-0.1497627764229089
-0.005469833988095239,-0.1430484106409793
-0.005469493988095238,-0.1374531058227046
-0.005469153988095238,-0.13221985013973
-0.005468813988095239,-0.1272169893610373
-0.005468473988095238,-0.1221812150245901
-0.005468133988095238,-0.1171454406881428
-0.005467793988095239,-0.1126362832757685
-0.005467453988095238,-0.107699249612585
-0.005467113988095238,-0.1030255244114378
-0.005466773988095239,-0.09858219411457261
-0.005466433988095238,-0.09413886381770101
-0.005466093988095238,-0.0906171131379698
-0.005465753988095239,-0.08581173370580447
-0.005465413988095238,-0.08173045254423209
-0.005465073988095238,-0.07771499849818342
-0.005464733988095239,-0.07422616137620036
-0.005464393988095238,-0.0703752751189122
-0.005464053988095238,-0.06764344982528894
-0.005463713988095239,-0.0644508347230969
-0.005463373988095238,-0.06191649077599133
-0.005463033988095238,-0.05934923327114055
-0.005462693988095239,-0.05711111134383066
-0.005462353988095238,-0.05454385383897012
-0.005462013988095238,-0.05174620142983786
-0.005461673988095239,-0.04838901853887303
-0.005461333988095238,-0.04545971189871133
-0.005460993988095238,-0.04210252900775262
-0.005460653988095239,-0.04006188842697008
-0.005460313988095238,-0.03650722418947276
-0.005459973988095238,-0.033676658222586
-0.005459633988095239,-0.03143853629527612
-0.005459293988095238,-0.02969411773428124
-0.005458953988095238,-0.02785095850002939
-0.005458613988095239,-0.02557992301496495
-0.005458273988095238,-0.02373676378070586
-0.005457933988095238,-0.02159738252666354
-0.005457593988095239,-0.01962256906139011
-0.005457253988095239,-0.01728570646082081
-0.005456913988095238,-0.0158704234773706
-0.005456573988095239,-0.01422474558964275
-0.005456233988095239,-0.01228284568212741
-0.005455893988095238,-0.01080173558316881
-0.005455553988095239,-0.01007763731256855
-0.005455213988095239,-0.009945983081550567
-0.005454873988095238,-0.009221884810950071
-0.005454533988095239,-0.008563613655858927
-0.005454193988095239,-0.007247071345679039
-0.005453853988095238,-0.005963442593248915
-0.005453513988095239,-0.00491020874510309
-0.005453173988095239,-0.004416505378785628
-0.005452833988095238,-0.003856974896957261
-0.005452493988095239,-0.003001222395338777
-0.005452153988095239,-0.001947988547194864
-0.005451813988095238,-0.0008947546990471199
-0.005451473988095239,-0.0003681377749742074
-0.005451133988095239,0.0002901333801157385
-0.005450793988095238,0.0006521825154170643
-0.005450453988095239,0.001376280786017318
-0.005450113988095239,0.001475021459280812
-0.005449773988095238,0.001606675690299219
-0.005449433988095238,0.002956131558236059
-0.005449093988095239,0.003581489155571508
-0.005448753988095238,0.003910624733118217
-0.005448413988095238,0.004075192521891001
-0.005448073988095239,0.004832204350245815
-0.005447733988095238,0.00601709242940987
-0.005447393988095238,0.007366548297346712
-0.005447053988095239,0.008123560125701526
-0.005446713988095238,0.009110966858338239
-0.005446373988095238,0.01013128714872951
-0.005446033988095239,0.01088829897708432
-0.005445693988095238,0.01190861926747733
-0.005445353988095238,0.01286311244235775
-0.005445013988095239,0.01309350734663965
-0.005444673988095238,0.01332390225092257
-0.005444333988095238,0.01388343273274902
-0.005443993988095239,0.01408091407927636
-0.005443653988095238,0.01454170388784148
-0.005443313988095238,0.01526580215844042
-0.005442973988095239,0.01582533264026789
-0.005442633988095238,0.01651651735311425
-0.005442293988095238,0.01687856648841372
-0.005441953988095239,0.01684565293065916
-0.005441613988095238,0.01664817158413086
-0.005441273988095238,0.0161215546600589
-0.005440933988095239,0.01585824619802245
-0.005440593988095238,0.01572659196700578
-0.005440253988095238,0.0165823444686227
-0.005439913988095239,0.01714187495045017
-0.005439573988095238,0.01720770206596001
-0.005439233988095238,0.01760266475901397
-0.005438893988095239,0.01766849187452309
-0.005438553988095238,0.01819510879859552
-0.005438213988095238,0.01793180033655955
-0.005437873988095239,0.01763557831676853
-0.005437533988095238,0.0172406156237139
-0.005437193988095238,0.0172735291814684
-0.005436853988095239,0.01737226985473207
-0.005436513988095239,0.01770140543227704
-0.005436173988095238,0.0179647138943141
-0.005435833988095239,0.01803054100982322
-0.005435493988095239,0.0181621952408412
-0.005435153988095238,0.01839259014512334
-0.005434813988095239,0.01918251553123271
-0.005434473988095239,0.01924834264674171
-0.005434133988095238,0.01961039178204196
-0.005433793988095239,0.01997244091734209
-0.005433453988095239,0.02030157649488706
-0.005433113988095238,0.01974204601306018
-0.005432773988095239,0.01947873755102373
-0.005432433988095239,0.01937999687776024
-0.005432093988095238,0.01967621889755107
-0.005431753988095239,0.02056488495692411
-0.005431413988095239,0.02135481034303205
-0.005431073988095238,0.02214473572914285
-0.005430733988095239,0.02247387130668842
-0.005430393988095239,0.02293466111525138
-0.005430053988095238,0.02270426621097033
-0.005429713988095239,0.02277009332647944
-0.005429373988095239,0.02290174755749743
-0.005429033988095238,0.02267135265321577
-0.005428693988095239,0.02221056284465197
-0.005428353988095239,0.02142063745854404
-0.005428013988095238,0.02066362563018779
-0.005427673988095238,0.02040031716815133
-0.005427333988095239,0.01977495957081474
-0.005426993988095238,0.02007118159060576
-0.005426653988095238,0.01997244091734209
-0.005426313988095239,0.02033449005264221
-0.005425973988095238,0.02069653918794234
-0.005425633988095238,0.02059779851467867
-0.005425293988095239,0.02063071207243323
-0.005424953988095238,0.02089402053446968
-0.005424613988095238,0.02063071207243323
-0.005424273988095239,0.02053197139916955
-0.005423933988095238,0.02092693409222556
-0.005423593988095238,0.0216510323628245
-0.005423253988095239,0.02201308149812463
-0.005422913988095238,0.02217764928689813
-0.005422573988095238,0.0225726119799521
-0.005422233988095239,0.02306631534627045
-0.005421893988095238,0.02332962380830757
-0.005421553988095238,0.02369167294360704
-0.005421213988095239,0.02454742544522552
-0.005420873988095238,0.02507404236929916
-0.005420533988095238,0.02546900506235312
-0.005420193988095239,0.02537026438908945
-0.005419853988095238,0.02504112881154167
-0.005419513988095238,0.02382332717462527
-0.005419173988095239,0.02323088313504324
-0.005418833988095238,0.02237513063342248
-0.005418493988095238,0.02112441543875158
-0.005418153988095239,0.02076236630345146
-0.005417813988095238,0.02082819341895949
-0.005417473988095238,0.02023574937937854
-0.005417133988095239,0.0200382680328512
-0.005416793988095238,0.01984078668632356
-0.005416453988095238,0.01967621889755107
-0.005416113988095239,0.0195774782242874
-0.005415773988095238,0.02059779851468124
-0.005415433988095238,0.02201308149812463
-0.005415093988095239,0.02273717976872488
-0.005414753988095239,0.02375750005911429
-0.005414413988095238,0.02359293227034337
-0.005414073988095239,0.02352710515483425
-0.005413733988095239,0.02277009332648082
-0.005413393988095238,0.0221118221713883
-0.005413053988095239,0.02128898322752437
-0.005412713988095239,0.02128898322752437
