Analysis/New Tests_CMB/wrd01_d2s01/cmb13_ch13.csv

#Digilent WaveForms Oscilloscope Acquisition
#Device Name: ADP3450
#Serial Number: SN:210018B9D9B0
#Date Time: 2024-08-06 17:55:50.199.899.940
#Sample rate: 2.94118e+06Hz
#Samples: 32768
#Trigger: Source: Channel 3 Type: Edge Condition: Rising Level: 60 mV Hyst.: Auto HoldOff: 0 s
#Channel 3: Range: 200 mV/div Offset: -20 mV Attenuation: 1 X Coupling: DC Bandwidth: 0 Hz Sample Mode: Average

Time (s),Channel 3 (V)
-0.005570483225806452,0.0286287066067906
-0.005570143225806451,0.02862870660679018
-0.005569803225806452,0.02839831170250871
-0.005569463225806452,0.02856287949128149
-0.005569123225806451,0.02859579304903281
-0.005568783225806452,0.02681846093028996
-0.005568443225806452,0.02616018977519882
-0.005568103225806451,0.02477782034950562
-0.005567763225806452,0.02379041361687071
-0.005567423225806452,0.02250678486444298
-0.005567083225806451,0.02089402053446836
-0.005566743225806452,0.02016992226386943
-0.005566403225806452,0.01931416976225094
-0.005566063225806451,0.01924834264674261
-0.005565723225806452,0.01967621889755107
-0.005565383225806452,0.02069653918794234
-0.005565043225806451,0.02188142726710789
-0.005564703225806451,0.02270426621097033
-0.005564363225806452,0.0234941915970797
-0.005564023225806451,0.02382332717462497
-0.005563683225806451,0.02365875938585248
-0.005563343225806452,0.02300048823076134
-0.005563003225806452,0.02191434082486293
-0.005562663225806451,0.02030157649488766
-0.005562323225806452,0.01918251553123271
-0.005561983225806452,0.01799762745207081
-0.005561643225806451,0.01730644273922296
-0.005561303225806452,0.01710896139269562
-0.005560963225806452,0.01661525802637816
-0.005560623225806451,0.0165823444686227
-0.005560283225806452,0.01589115975577701
-0.005559943225806452,0.01661525802637594
-0.005559603225806451,0.01747101052799575
-0.005559263225806452,0.01855715793389613
-0.005558923225806452,0.01931416976224956
-0.005558583225806451,0.01944582399326917
-0.005558243225806452,0.01937999687776006
-0.005557903225806452,0.01934708332000556
-0.005557563225806451,0.01898503418470537
-0.005557223225806452,0.01803054100982322
-0.005556883225806452,0.01760266475901475
-0.005556543225806451,0.01707604783494106
-0.005556203225806452,0.01668108514188637
-0.005555863225806452,0.01625320889107791
-0.005555523225806451,0.01579241908251333
-0.005555183225806452,0.01519997504293131
-0.005554843225806452,0.01503540725415882
-0.005554503225806451,0.01569367840924966
-0.005554163225806452,0.01575950552475877
-0.005553823225806452,0.01559493773598599
-0.005553483225806451,0.01579241908251333
-0.005553143225806452,0.01529871571619498
-0.005552803225806452,0.01470627167661295
-0.005552463225806451,0.01302768023113053
-0.005552123225806452,0.01240232263379395
-0.005551783225806452,0.01220484128726661
-0.005551443225806451,0.01220484128726697
-0.005551103225806452,0.01240232263379395
-0.005550763225806452,0.01253397686481218
-0.005550423225806451,0.01296185311562118
-0.005550083225806452,0.01283019888460319
-0.005549743225806452,0.01315933446214876
-0.005549403225806451,0.01355429715520345
-0.005549063225806452,0.01355429715520345
-0.005548723225806452,0.01325807513541244
-0.005548383225806451,0.01315933446214828
-0.005548043225806452,0.01289602600011231
-0.005547703225806452,0.01322516157765788
-0.005547363225806451,0.01332390225092173
-0.005547023225806452,0.01342264292418522
-0.005546683225806452,0.01335681580867611
-0.005546343225806451,0.01315933446214924
-0.005546003225806452,0.01342264292418522
-0.005545663225806452,0.01338972936643066
-0.005545323225806451,0.01296185311562064
-0.005544983225806452,0.01253397686481218
-0.005544643225806452,0.01269854465358496
-0.005544303225806451,0.01273145821134036
-0.005543963225806452,0.01319224801990332
-0.005543623225806452,0.01352138359744889
-0.005543283225806451,0.01371886494397671
-0.005542943225806451,0.01398217340601269
-0.005542603225806452,0.01391634629050358
-0.005542263225806452,0.01427839542580304
-0.005541923225806451,0.01444296321457649
-0.005541583225806452,0.01358721071295801
-0.005541243225806452,0.01296185311562256
-0.005540903225806451,0.01253397686481218
-0.005540563225806452,0.01194153282523015
-0.005540223225806452,0.01141491590115819
-0.005539883225806451,0.01101995320810255
-0.005539543225806452,0.01105286676585711
-0.005539203225806452,0.01194153282522853
-0.005538863225806451,0.01302768023113053
-0.005538523225806452,0.01464044456110383
-0.005538183225806452,0.01595698687128373
-0.005537843225806451,0.01710896139269562
-0.005537503225806452,0.01799762745206866
-0.005537163225806452,0.01859007149164961
-0.005536823225806451,0.01783305966329587
-0.005536483225806452,0.0172735291814684
-0.005536143225806452,0.01684565293065994
-0.005535803225806451,0.01552911062047688
-0.005535463225806452,0.0147391852343675
-0.005535123225806452,0.0135872107129601
-0.005534783225806451,0.01263271753807585
-0.005534443225806452,0.01210610061400294
-0.005534103225806452,0.01210610061400294
-0.005533763225806451,0.01207318705624838
-0.005533423225806452,0.01213901417175749
-0.005533083225806452,0.01207318705624838
-0.005532743225806451,0.01259980398032129
-0.005532403225806452,0.01253397686481218
-0.005532063225806452,0.01210610061400294
-0.005531723225806451,0.01164531080543914
-0.005531383225806452,0.01105286676585711
-0.005531043225806452,0.01108578032361167
-0.005530703225806451,0.01078955830382065
-0.005530363225806452,0.01141491590115724
-0.005530023225806452,0.01194153282523015
-0.005529683225806451,0.01253397686481272
-0.005529343225806452,0.01283019888460319
-0.005529003225806452,0.01256689042256674
-0.005528663225806451,0.01266563109583041
-0.005528323225806452,0.01266563109583041
-0.005527983225806452,0.01217192772951205
-0.005527643225806451,0.01092121253483678
-0.005527303225806452,0.009769238013429382
-0.005526963225806452,0.008781831280792669
-0.005526623225806451,0.008321041472228568
-0.005526283225806452,0.008156473683456083
-0.005525943225806452,0.009209707531601911
-0.005525603225806451,0.01039459561076908
-0.005525263225806452,0.01210610061400294
-0.005524923225806452,0.01315933446214876
-0.005524583225806451,0.01401508696376635
-0.005524243225806452,0.01352138359744889
-0.005523903225806452,0.01381760561723991
-0.005523563225806451,0.01322516157765824
-0.005523223225806452,0.01342264292418522
-0.005522883225806452,0.01352138359744889
-0.005522543225806451,0.01335681580867479
-0.005522203225806451,0.01263271753807585
-0.005521863225806452,0.01223775484502116
-0.005521523225806451,0.01131617522789297
-0.005521183225806451,0.01098703965034799
-0.005520843225806452,0.01131617522789356
-0.005520503225806452,0.01227066840277398
-0.005520163225806451,0.01315933446214876
-0.005519823225806452,0.01391634629050358
-0.005519483225806452,0.01431130898355754
-0.005519143225806451,0.01421256831029459
-0.005518803225806452,0.01394925984825813
-0.005518463225806452,0.01348847003969517
-0.005518123225806451,0.01296185311562142
-0.005517783225806452,0.01276437176909408
-0.005517443225806452,0.01236940907604011
-0.005517103225806451,0.01289602600011231
-0.005516763225806452,0.01362012427071256
-0.005516423225806452,0.01473918523436547
-0.005516083225806451,0.01552911062047688
-0.005515743225806452,0.01648360379535903
-0.005515403225806452,0.01677982581514951
-0.005515063225806451,0.01638486312209536
-0.005514723225806452,0.01575950552475877
-0.005514383225806452,0.01513414792742333
-0.005514043225806451,0.01411382763703092
-0.005513703225806452,0.01375177850173079
-0.005513363225806452,0.01355429715520381
-0.005513023225806451,0.01325807513541244
-0.005512683225806452,0.01348847003969433
-0.005512343225806452,0.01348847003969433
-0.005512003225806451,0.01352138359744889
-0.005511663225806452,0.01296185311562142
-0.005511323225806452,0.01217192772951205
-0.005510983225806451,0.01157948368993002
-0.005510643225806452,0.01023002782199318
-0.005510303225806452,0.009604670224656596
-0.005509963225806451,0.008946399069565453
-0.005509623225806452,0.008716004165283554
-0.005509283225806452,0.008913485511810896
-0.005508943225806451,0.009110966858339556
-0.005508603225806452,0.009835065128938496
-0.005508263225806452,0.01072373118831154
-0.005507923225806451,0.01138200234340328
-0.005507583225806452,0.01171113792094825
-0.005507243225806452,0.01180987859421192
-0.005506903225806451,0.01174405147870299
-0.005506563225806452,0.01184279215196648
-0.005506223225806452,0.01236940907603939
-0.005505883225806451,0.01315933446214828
-0.005505543225806452,0.01289602600011231
-0.005505203225806452,0.01338972936643066
-0.005504863225806451,0.01401508696376803
-0.005504523225806452,0.01444296321457649
-0.005504183225806452,0.01493666658089485
-0.005503843225806451,0.01500249369640336
-0.005503503225806452,0.01467335811885839
-0.005503163225806452,0.01358721071295801
-0.005502823225806451,0.01329098869316364
-0.005502483225806452,0.01144782945891179
-0.005502143225806452,0.01121743455462989
-0.005501803225806451,0.01118452099687546
-0.005501463225806452,0.01125034811238445
-0.005501123225806452,0.01141491590115724
-0.005500783225806451,0.01105286676585663
-0.005500443225806451,0.01078955830382065
-0.005500103225806452,0.01092121253483888
-0.005499763225806452,0.01098703965034788
-0.005499423225806451,0.01082247186157521
-0.005499083225806452,0.01088829897708432
-0.005498743225806452,0.01095412609259332
-0.005498403225806451,0.01059207695729331
-0.005498063225806452,0.01082247186157521
-0.005497723225806452,0.01042750916852124
-0.005497383225806451,0.01026294137974774
-0.005497043225806452,0.01125034811238445
-0.005496703225806452,0.01154657013217493
-0.005496363225806451,0.01223775484502116
-0.005496023225806452,0.01279728532684864
-0.005495683225806452,0.01302768023113011
-0.005495343225806451,0.01365303782846712
-0.005495003225806452,0.01381760561723991
-0.005494663225806452,0.01362012427071292
-0.005494323225806451,0.01388343273274902
-0.005493983225806452,0.01355429715520345
-0.005493643225806452,0.01345555648193996
-0.005493303225806451,0.01312642090439421
-0.005492963225806452,0.01325807513541244
-0.005492623225806452,0.0136530378284664
-0.005492283225806451,0.01424548186804915
-0.005491943225806452,0.01444296321457649
-0.005491603225806452,0.01464044456110347
-0.005491263225806451,0.01477209879212206
-0.005490923225806452,0.01450879033008561
-0.005490583225806452,0.01450879033008561
-0.005490243225806451,0.01434422254131282
-0.005489903225806452,0.01385051917499446
-0.005489563225806452,0.01371886494397623
-0.005489223225806451,0.01335681580867611
-0.005488883225806452,0.01223775484502116
-0.005488543225806452,0.01105286676585711
-0.005488203225806451,0.01013128714872951
-0.005487863225806452,0.01013128714872951
-0.005487523225806452,0.01019711426423862
-0.005487183225806451,0.01003254647546674
-0.005486843225806452,0.01052624984178419
-0.005486503225806452,0.01105286676585711
-0.005486163225806451,0.01108578032361131
-0.005485823225806452,0.01088829897708432
-0.005485483225806452,0.01069081763055698
-0.005485143225806451,0.01092121253483816
-0.005484803225806452,0.01052624984178419
-0.005484463225806452,0.01026294137974774
-0.005484123225806451,0.009440102435882433
-0.005483783225806452,0.008683090607528997
-0.005483443225806452,0.008617263492019883
-0.005483103225806451,0.008452695703247097
-0.005482763225806452,0.008452695703247097
-0.005482423225806452,0.008979312627320012
-0.005482083225806451,0.01023002782199557
-0.005481743225806452,0.01154657013217547
-0.005481403225806452,0.01266563109583041
-0.005481063225806451,0.01404800052152378
-0.005480723225806452,0.01513414792742219
-0.005480383225806452,0.01589115975577701
-0.005480043225806451,0.01562785129374007
-0.005479703225806451,0.01536454283170409
-0.005479363225806452,0.01519997504293131
-0.005479023225806452,0.01368595138622443
-0.005478683225806451,0.009308448204865582
-0.005478343225806452,-0.0004668784482378778
-0.005478003225806452,-0.0181414589624029
-0.005477663225806451,-0.04378112045323503
-0.005477323225806452,-0.07620097484147378
-0.005476983225806452,-0.1117476172163308
-0.005476643225806451,-0.1471626053602989
-0.005476303225806452,-0.1795166326330286
-0.005475963225806452,-0.2064070093184528
-0.005475623225806451,-0.2261880575289905
-0.005475283225806452,-0.2395180484195862
-0.005474943225806452,-0.2476147836271924
-0.005474603225806451,-0.2502478682475718
-0.005474263225806452,-0.249787078439008
-0.005473923225806452,-0.2459032786239773
-0.005473583225806451,-0.2405054551522229
-0.005473243225806452,-0.2341531385055933
-0.005472903225806452,-0.2262867982022685
-0.005472563225806451,-0.2188812477074789
-0.005472223225806452,-0.2113769565394398
-0.005471883225806452,-0.20383975181366
-0.005471543225806451,-0.1955455352594979
-0.005471203225806452,-0.1880083305337043
-0.005470863225806452,-0.1810964834052599
-0.005470523225806451,-0.1750074752206542
-0.005470183225806452,-0.1698071330954342
-0.005469843225806452,-0.1644751367391959
-0.005469503225806451,-0.159867238653558
-0.005469163225806452,-0.1549960321058835
-0.005468823225806452,-0.1497956899806635
-0.005468483225806451,-0.1439041631425978
-0.005468143225806452,-0.1376176736114774
-0.005467803225806452,-0.1310020485028114
-0.005467463225806451,-0.1244193369518999
-0.005467123225806452,-0.1182315880940432
-0.005466783225806452,-0.1123400612559775
-0.005466443225806451,-0.107008064899731
-0.005466103225806452,-0.1024989074873649
-0.005465763225806452,-0.09947086017394566
-0.005465423225806451,-0.09621241795623953
-0.005465083225806452,-0.09348059266261627
-0.005464743225806452,-0.0906171131379698
-0.005464403225806451,-0.08686496755394178
-0.005464063225806452,-0.08219124235280317
-0.005463723225806452,-0.07778082561369251
-0.005463383225806451,-0.07304127329702666
-0.005463043225806452,-0.0677421904985526
-0.005462703225806452,-0.06306846529740551
-0.005462363225806451,-0.0589213570203252
-0.005462023225806452,-0.05556417412936648
-0.005461683225806452,-0.05388558268388407
-0.005461343225806451,-0.05368810133735684
-0.005461003225806452,-0.05375392845286584
-0.005460663225806452,-0.05378684201062039
-0.005460323225806451,-0.05365518777960036
-0.005459983225806452,-0.05266778104696545
-0.005459643225806452,-0.05168037431432874
-0.005459303225806451,-0.04934351171375081
-0.005458963225806451,-0.04694082199767251
-0.005458623225806452,-0.04440647805057162
-0.005458283225806451,-0.04177339343020202
-0.005457943225806451,-0.03900865457882425
-0.005457603225806452,-0.03614517505417778
-0.005457263225806452,-0.03370957178034499
-0.005456923225806451,-0.03074735158243042
-0.005456583225806452,-0.02719268734493825
-0.005456243225806452,-0.0266331568631118
-0.005455903225806451,-0.02432920782029178
-0.005455563225806452,-0.02380259089621887
-0.005455223225806452,-0.02327597397214691
-0.005454883225806451,-0.02271644349031848
-0.005454543225806452,-0.02251896214379114
-0.005454203225806452,-0.0217948638731922
-0.005453863225806451,-0.02064288935178139
-0.005453523225806452,-0.01942508771486277
-0.005453183225806452,-0.01853642165549135
-0.005452843225806451,-0.01758192848060757
-0.005452503225806452,-0.01580459636186149
-0.005452163225806452,-0.01429057270515462
-0.005451823225806451,-0.01254615414416034
-0.005451483225806452,-0.01182205587356008
-0.005451143225806452,-0.01086756269867966
-0.005450803225806451,-0.01024220510134134
-0.005450463225806452,-0.009024403464422726
-0.005450123225806452,-0.007642034038733844
-0.005449783225806451,-0.006490059517321831
-0.005449443225806452,-0.005502652784685116
-0.005449103225806452,-0.004679813840822685
-0.005448763225806451,-0.004449418936539287
-0.005448423225806452,-0.003955715570220932
-0.005448083225806452,-0.003824061339202704
-0.005447743225806451,-0.003429098646148019
-0.005447403225806452,-0.00237586479800219
-0.005447063225806452,-0.001849247873929278
-0.005446723225806451,-0.001882161431683835
-0.005446383225806452,-0.001816334316174721
-0.005446043225806452,-0.001717593642911051
-0.005445703225806451,-0.002277124124739658
-0.005445363225806452,-0.002902481722075106
-0.005445023225806452,-0.003067049510847891
-0.005444683225806451,-0.00286956816431863
-0.005444343225806452,-0.001816334316174721
-0.005444003225806452,-0.0002693971017105369
-0.005443663225806451,0.0007838367464384048
-0.005443323225806452,0.00249534174967226
-0.005442983225806452,0.003252353578027074
-0.005442643225806451,0.004009365406381887
-0.005442303225806452,0.004009365406381887
-0.005441963225806452,0.003548575597818088
-0.005441623225806451,0.003416921366799861
-0.005441283225806452,0.003416921366799861
-0.005440943225806452,0.003416921366799861
-0.005440603225806451,0.003614402713327202
-0.005440263225806452,0.003614402713327202
-0.005439923225806452,0.00377897050209999
-0.005439583225806451,0.003680229828835418
-0.005439243225806452,0.00318652646251796
-0.005438903225806452,0.003416921366799861
-0.005438563225806451,0.003811884059854726
-0.005438223225806452,0.003910624733118217
-0.005437883225806452,0.003943538290872774
-0.005437543225806451,0.004305587426172663
-0.005437203225806451,0.004173933195154675
-0.005436863225806452,0.004272673868418345
-0.005436523225806452,0.004239760310663848
-0.005436183225806451,0.004075192521891001
-0.005435843225806452,0.004503068772700245
-0.005435503225806452,0.005194253485544685
-0.005435163225806451,0.00601709242940987
-0.005434823225806452,0.007004499162046584
-0.005434483225806452,0.007333634739591557
-0.005434143225806451,0.008123560125701526
-0.005433803225806452,0.008979312627320012
-0.005433463225806452,0.009637583782409956
-0.005433123225806451,0.009637583782411153
-0.005432783225806452,0.009802151571183939
-0.005432443225806452,0.009012226185076005
-0.005432103225806451,0.008485609261001654
-0.005431763225806452,0.008353955029983425
-0.005431423225806452,0.008057733010192952
-0.005431083225806451,0.007893165221419626
-0.005430743225806452,0.007893165221419626
-0.005430403225806452,0.008123560125701106
-0.005430063225806451,0.009176793973847354
-0.005429723225806452,0.009900892244447609
-0.005429383225806452,0.01069081763055554
-0.005429043225806451,0.01141491590115724
-0.005428703225806452,0.01194153282523015
-0.005428363225806452,0.01220484128726613
-0.005428023225806451,0.01236940907603939
-0.005427683225806452,0.01263271753807585
-0.005427343225806452,0.01250106330705762
-0.005427003225806451,0.01184279215196648
-0.005426663225806452,0.01046042272627508
-0.005426323225806452,0.009835065128938496
-0.005425983225806451,0.008979312627320012
-0.005425643225806452,0.00874891772303811
-0.005425303225806452,0.009012226185074568
-0.005424963225806451,0.009473015993638367
-0.005424623225806452,0.009637583782411153
-0.005424283225806452,0.009999632917711282
-0.005423943225806451,0.01072373118831309
-0.005423603225806452,0.01157948368993002
-0.005423263225806452,0.01263271753807585
-0.005422923225806451,0.01345555648193996
-0.005422583225806452,0.01355429715520345
-0.005422243225806452,0.01273145821133952
-0.005421903225806451,0.011645310805438
-0.005421563225806452,0.01101995320810255
-0.005421223225806452,0.01016420070648407
-0.005420883225806451,0.01062499051504876
-0.005420543225806452,0.01111869388136622
-0.005420203225806452,0.01088829897708432
-0.005419863225806451,0.01085538541932971
-0.005419523225806452,0.01082247186157521
-0.005419183225806452,0.01049333628402964
-0.005418843225806451,0.00944010243588393
-0.005418503225806452,0.009505929551392924
-0.005418163225806452,0.009341361762620138
-0.005417823225806451,0.008847658396300525
-0.005417483225806452,0.008156473683456083
-0.005417143225806452,0.008057733010192412
-0.005416803225806451,0.008386868587737984
-0.005416463225806451,0.008386868587737984
-0.005416123225806452,0.009078053300583682
-0.005415783225806451,0.01039459561076872
-0.005415443225806451,0.01190861926747559
-0.005415103225806452,0.01246814974930307
-0.005414763225806452,0.01312642090439301
-0.005414423225806451,0.01292893955786686
-0.005414083225806452,0.01309350734663965
-0.005413743225806452,0.01236940907604071
