Analysis/New Tests_CMB/wrd01_d2s01/cmb13_ch36.csv

#Digilent WaveForms Oscilloscope Acquisition
#Device Name: ADP3450
#Serial Number: SN:210018B9D9B0
#Date Time: 2024-08-06 18:11:21.477.334.000
#Sample rate: 2.94118e+06Hz
#Samples: 32768
#Trigger: Source: Channel 3 Type: Edge Condition: Rising Level: 60 mV Hyst.: Auto HoldOff: 0 s
#Channel 3: Range: 200 mV/div Offset: -20 mV Attenuation: 1 X Coupling: DC Bandwidth: 0 Hz Sample Mode: Average

Time (s),Channel 3 (V)
-0.005570448278805122,0.03076808786083682
-0.005570108278805121,0.03034021161002614
-0.005569768278805121,0.02955028622391821
-0.005569428278805122,0.02882618795331795
-0.005569088278805121,0.02803626256720654
-0.005568748278805121,0.02691720160355363
-0.005568408278805122,0.02546900506235312
-0.005568068278805121,0.02451451188746917
-0.005567728278805121,0.02352710515483425
-0.005567388278805122,0.02277009332647944
-0.005567048278805121,0.02300048823076122
-0.005566708278805121,0.02293466111525222
-0.005566368278805122,0.0230334017885159
-0.005566028278805121,0.02356001871258905
-0.005565688278805121,0.02369167294360704
-0.005565348278805122,0.0230334017885159
-0.005565008278805121,0.02211182217138698
-0.005564668278805121,0.02138772390078804
-0.005564328278805122,0.02076236630345146
-0.005563988278805121,0.02033449005264269
-0.005563648278805121,0.02059779851467867
-0.005563308278805122,0.02109150188099703
-0.005562968278805122,0.02227638996015893
-0.005562628278805121,0.02395498140564349
-0.005562288278805122,0.02474490679175287
-0.005561948278805122,0.02507404236929784
-0.005561608278805121,0.02500821525378932
-0.005561268278805122,0.02402080852115261
-0.005560928278805122,0.0230004882307632
-0.005560588278805121,0.02214473572914285
-0.005560248278805122,0.02109150188099703
-0.005559908278805122,0.02059779851467957
-0.005559568278805121,0.02036740361039677
-0.005559228278805122,0.02023574937937854
-0.005558888278805122,0.02000535447509706
-0.005558548278805121,0.01944582399326917
-0.005558208278805122,0.0191166884157236
-0.005557868278805122,0.01852424437614265
-0.005557528278805121,0.01832676302961423
-0.005557188278805122,0.01816219524084144
-0.005556848278805122,0.01819510879859594
-0.005556508278805121,0.018195108798596
-0.005556168278805122,0.01730644273922296
-0.005555828278805122,0.01714187495045047
-0.005555488278805121,0.01737226985473207
-0.005555148278805122,0.0172735291814684
-0.005554808278805122,0.01747101052799539
-0.005554468278805121,0.01760266475901397
-0.005554128278805122,0.01806345456757777
-0.005553788278805122,0.01806345456757777
-0.005553448278805121,0.01803054100982322
-0.005553108278805122,0.01793180033655955
-0.005552768278805122,0.01753683764350486
-0.005552428278805121,0.0161215546600589
-0.005552088278805122,0.01464044456110383
-0.005551748278805122,0.01302768023113053
-0.005551408278805121,0.01151365657441935
-0.005551068278805121,0.01065790407280242
-0.005550728278805122,0.01009837359097495
-0.005550388278805121,0.01032876849525895
-0.005550048278805121,0.01148074301666635
-0.005549708278805122,0.01263271753807585
-0.005549368278805121,0.01358721071295962
-0.005549028278805121,0.01447587677233105
-0.005548688278805122,0.01467335811885839
-0.005548348278805121,0.01526580215844138
-0.005548008278805121,0.01579241908251333
-0.005547668278805122,0.0161215546600589
-0.005547328278805121,0.01625320889107599
-0.005546988278805121,0.01562785129374055
-0.005546648278805122,0.01470627167661295
-0.005546308278805121,0.01464044456110377
-0.005545968278805121,0.01460753100334928
-0.005545628278805122,0.0147391852343675
-0.005545288278805121,0.01487083946538693
-0.005544948278805121,0.01552911062047688
-0.005544608278805122,0.01622029533332257
-0.005544268278805121,0.01631903600658613
-0.005543928278805121,0.01625320889107713
-0.005543588278805122,0.01589115975577701
-0.005543248278805121,0.01579241908251255
-0.005542908278805121,0.01536454283170409
-0.005542568278805122,0.01526580215844042
-0.005542228278805122,0.01464044456110497
-0.005541888278805121,0.01447587677233105
-0.005541548278805122,0.01441004965682193
-0.005541208278805122,0.01464044456110341
-0.005540868278805121,0.01500249369640396
-0.005540528278805122,0.01585824619802245
-0.005540188278805122,0.01635194956433991
-0.005539848278805121,0.01701022071943194
-0.005539508278805122,0.01763557831676853
-0.005539168278805122,0.01789888677880451
-0.005538828278805121,0.01717478850820473
-0.005538488278805122,0.01615446821781346
-0.005538148278805122,0.0156278512937415
-0.005537808278805121,0.01510123436966763
-0.005537468278805122,0.01483792590763118
-0.005537128278805122,0.0146075310033497
-0.005536788278805121,0.01450879033008561
-0.005536448278805122,0.01441004965682193
-0.005536108278805122,0.01401508696376797
-0.005535768278805121,0.01375177850173079
-0.005535428278805122,0.01306059378888509
-0.005535088278805122,0.0129618531156216
-0.005534748278805121,0.01335681580867611
-0.005534408278805122,0.0142783954258037
-0.005534068278805122,0.01572659196700158
-0.005533728278805121,0.01575950552475877
-0.005533388278805122,0.01523288860068586
-0.005533048278805122,0.0156607648514951
-0.005532708278805121,0.01523288860068586
-0.005532368278805122,0.01401508696376725
-0.005532028278805122,0.01411382763703092
-0.005531688278805121,0.01404800052152181
-0.005531348278805122,0.01444296321457649
-0.005531008278805122,0.01519997504293131
-0.005530668278805121,0.01572659196700422
-0.005530328278805122,0.01592407331353156
-0.005529988278805122,0.01618738177556802
-0.005529648278805121,0.01595698687128588
-0.005529308278805121,0.01582533264026789
-0.005528968278805122,0.01529871571619498
-0.005528628278805121,0.01464044456110246
-0.005528288278805121,0.01388343273274902
-0.005527948278805122,0.01286311244235775
-0.005527608278805121,0.01240232263379395
-0.005527268278805121,0.01240232263379395
-0.005526928278805122,0.01269854465358496
-0.005526588278805121,0.01256689042256751
-0.005526248278805121,0.01299476667337598
-0.005525908278805122,0.01315933446214876
-0.005525568278805121,0.01391634629050322
-0.005525228278805121,0.01371886494397623
-0.005524888278805122,0.01355429715520345
-0.005524548278805121,0.0140809140792772
-0.005524208278805121,0.01454170388784016
-0.005523868278805122,0.01460753100334928
-0.005523528278805121,0.01447587677233021
-0.005523188278805121,0.01401508696376725
-0.005522848278805122,0.01362012427071256
-0.005522508278805121,0.01269854465358323
-0.005522168278805121,0.01174405147870281
-0.005521828278805122,0.01177696503645737
-0.005521488278805121,0.01315933446215122
-0.005521148278805121,0.01450879033008561
-0.005520808278805122,0.01569367840924966
-0.005520468278805122,0.01615446821781262
-0.005520128278805121,0.01651651735311359
-0.005519788278805122,0.01595698687128612
-0.005519448278805122,0.01575950552475914
-0.005519108278805121,0.01526580215844042
-0.005518768278805122,0.01552911062047688
-0.005518428278805122,0.01598990042903984
-0.005518088278805121,0.01691148004616827
-0.005517748278805122,0.01747101052799575
-0.005517408278805122,0.0179647138943132
-0.005517068278805121,0.01901794774245993
-0.005516728278805122,0.01941291043551461
-0.005516388278805122,0.01901794774246065
-0.005516048278805121,0.01826093591410511
-0.005515708278805122,0.01720770206595929
-0.005515368278805122,0.01605572754455189
-0.005515028278805121,0.01487083946538573
-0.005514688278805122,0.01391634629050358
-0.005514348278805122,0.01315933446215014
-0.005514008278805121,0.01312642090439421
-0.005513668278805122,0.01335681580867611
-0.005513328278805122,0.01365303782846658
-0.005512988278805121,0.01417965475254003
-0.005512648278805122,0.01480501234987662
-0.005512308278805122,0.0149695801386494
-0.005511968278805121,0.01598990042904068
-0.005511628278805122,0.01664817158413182
-0.005511288278805122,0.01710896139269562
-0.005510948278805121,0.01756975120125942
-0.005510608278805122,0.01766849187452309
-0.005510268278805122,0.01707604783494106
-0.005509928278805121,0.01641777667984992
-0.005509588278805122,0.0156607648514951
-0.005509248278805122,0.01447587677233105
-0.005508908278805121,0.01365303782846676
-0.005508568278805121,0.01345555648193978
-0.005508228278805122,0.01299476667337598
-0.005507888278805121,0.01243523619154665
-0.005507548278805121,0.01141491590115724
-0.005507208278805122,0.01092121253483888
-0.005506868278805121,0.01049333628402916
-0.005506528278805121,0.01023002782199318
-0.005506188278805122,0.01023002782199318
-0.005505848278805121,0.01042750916852076
-0.005505508278805121,0.01055916339953875
-0.005505168278805122,0.01095412609259344
-0.005504828278805121,0.01118452099687629
-0.005504488278805121,0.01171113792094825
-0.005504148278805122,0.01177696503645737
-0.005503808278805121,0.01246814974930426
-0.005503468278805121,0.01312642090439421
-0.005503128278805122,0.01375177850173079
-0.005502788278805121,0.0145746174455952
-0.005502448278805121,0.01483792590763118
-0.005502108278805122,0.01470627167661295
-0.005501768278805121,0.01464044456110299
-0.005501428278805121,0.01417965475254003
-0.005501088278805122,0.01358721071295801
-0.005500748278805121,0.01309350734663983
-0.005500408278805121,0.01319224801990332
-0.005500068278805122,0.01371886494397623
-0.005499728278805122,0.01431130898355719
-0.005499388278805121,0.01500249369640396
-0.005499048278805122,0.0154303699472132
-0.005498708278805122,0.01559493773598569
-0.005498368278805121,0.01579241908251333
-0.005498028278805122,0.01605572754454979
-0.005497688278805122,0.01635194956434027
-0.005497348278805121,0.01595698687128612
-0.005497008278805122,0.01556202417823143
-0.005496668278805122,0.01483792590763249
-0.005496328278805121,0.01417965475254003
-0.005495988278805122,0.01319224801990332
-0.005495648278805122,0.01253397686481338
-0.005495308278805121,0.01161239724768458
-0.005494968278805122,0.01118452099687534
-0.005494628278805122,0.01105286676585735
-0.005494288278805121,0.01134908878564812
-0.005493948278805122,0.01187570570972104
-0.005493608278805122,0.01246814974930199
-0.005493268278805121,0.01365303782846712
-0.005492928278805122,0.01464044456110383
-0.005492588278805122,0.01519997504293029
-0.005492248278805121,0.0161215546600589
-0.005491908278805122,0.01677982581515005
-0.005491568278805122,0.01760266475901248
-0.005491228278805121,0.01799762745206866
-0.005490888278805122,0.01753683764350486
-0.005490548278805122,0.01697730716167739
-0.005490208278805121,0.01648360379535903
-0.005489868278805122,0.01608864110230435
-0.005489528278805122,0.01562785129374055
-0.005489188278805121,0.01552911062047688
-0.005488848278805122,0.0156607648514951
-0.005488508278805122,0.01595698687128612
-0.005488168278805121,0.01496958013864916
-0.005487828278805122,0.01483792590763118
-0.005487488278805122,0.01483792590763118
-0.005487148278805121,0.01408091407927511
-0.005486808278805121,0.01338972936643066
-0.005486468278805122,0.01286311244235775
-0.005486128278805121,0.0121061006140021
-0.005485788278805121,0.01164531080543914
-0.005485448278805122,0.01164531080543914
-0.005485108278805121,0.01138200234340334
-0.005484768278805121,0.01174405147870281
-0.005484428278805122,0.01256689042256674
-0.005484088278805121,0.01348847003969613
-0.005483748278805121,0.01447587677233105
-0.005483408278805122,0.01487083946538573
-0.005483068278805121,0.01506832081191277
-0.005482728278805121,0.01490375302314029
-0.005482388278805122,0.01450879033008561
-0.005482048278805121,0.01503540725415798
-0.005481708278805121,0.0147391852343675
-0.005481368278805122,0.01444296321457649
-0.005481028278805121,0.01421256831029315
-0.005480688278805121,0.01342264292418522
-0.005480348278805122,0.01266563109583041
-0.005480008278805121,0.01194153282522925
-0.005479668278805121,0.01144782945891179
-0.005479328278805122,0.01082247186157521
-0.005478988278805122,0.00937427532037733
-0.005478648278805121,0.005095512812282273
-0.005478308278805122,-0.003725320665939034
-0.005477968278805122,-0.01998461819666067
-0.005477628278805121,-0.04358363910670768
-0.005477288278805122,-0.07294253262377262
-0.005476948278805122,-0.1055927819162339
-0.005476608278805121,-0.1393620921724689
-0.005476268278805122,-0.1701691822307343
-0.005475928278805122,-0.1963354606455596
-0.005475588278805121,-0.2164127308758871
-0.005475248278805122,-0.2302693386905556
-0.005474908278805122,-0.2384977281291799
-0.005474568278805121,-0.241986565251178
-0.005474228278805122,-0.2407029364987502
-0.005473888278805122,-0.2367203960104561
-0.005473548278805121,-0.2315529674429833
-0.005473208278805122,-0.2252664779118629
-0.005472868278805122,-0.2189799883807539
-0.005472528278805121,-0.2119694005790219
-0.005472188278805122,-0.2050246398928103
-0.005471848278805122,-0.1976849165135574
-0.005471508278805121,-0.190411020249787
-0.005471168278805122,-0.1826105070619569
-0.005470828278805122,-0.1748758209896501
-0.005470488278805121,-0.1671740484750696
-0.005470148278805122,-0.1599001522113125
-0.005469808278805122,-0.1533832677759102
-0.005469468278805121,-0.147524654495599
-0.005469128278805122,-0.1425547072746609
-0.005468788278805122,-0.1381772040933048
-0.005468448278805121,-0.1338984415852124
-0.005468108278805122,-0.1293563706150835
-0.005467768278805122,-0.1252092623380093
-0.005467428278805121,-0.1208975862721623
-0.005467088278805122,-0.1164871695330517
-0.005466748278805122,-0.1117147036586409
-0.005466408278805121,-0.1079954716323674
-0.005466068278805121,-0.1032888328734743
-0.005465728278805122,-0.09910881103864552
-0.005465388278805121,-0.09506044343482824
-0.005465048278805121,-0.09134121140857004
-0.005464708278805122,-0.08679914043844117
-0.005464368278805121,-0.08186210677524922
-0.005464028278805121,-0.0772542086896196
-0.005463688278805122,-0.07360080377886377
-0.005463348278805121,-0.07027653444564753
-0.005463008278805121,-0.06698517867019779
-0.005462668278805122,-0.06477997030064248
-0.005462328278805121,-0.06217979923802724
-0.005461988278805121,-0.05931631971338599
-0.005461648278805122,-0.05668323509302142
-0.005461308278805121,-0.05405015047265296
-0.005460968278805121,-0.05191076921861063
-0.005460628278805122,-0.04973847440680988
-0.005460288278805121,-0.04753326603725101
-0.005459948278805121,-0.04559136612973567
-0.005459608278805122,-0.04364946622221681
-0.005459268278805121,-0.04137843073714853
-0.005458928278805121,-0.03927196304086071
-0.005458588278805122,-0.03716549534456905
-0.005458248278805121,-0.03515776832153795
-0.005457908278805121,-0.0334462633183041
-0.005457568278805122,-0.03074735158243042
-0.005457228278805122,-0.02873962455940609
-0.005456888278805121,-0.02673189753637445
-0.005456548278805122,-0.02482291118661014
-0.005456208278805122,-0.02380259089622072
-0.005455868278805121,-0.02311140618337317
-0.005455528278805122,-0.02179486387319089
-0.005455188278805122,-0.02077454358280147
-0.005454848278805121,-0.02041249444749949
-0.005454508278805122,-0.01942508771486277
-0.005454168278805122,-0.01863516232875484
-0.005453828278805121,-0.01781232338488947
-0.005453488278805122,-0.01662743530572542
-0.005453148278805122,-0.01527797943779103
-0.005452808278805121,-0.01373104222332439
-0.005452468278805122,-0.01205245077784198
-0.005452128278805122,-0.01050551356338061
-0.005451788278805121,-0.008991489906668169
-0.005451448278805122,-0.007477466249958542
-0.005451108278805122,-0.00609509682426966
-0.005450768278805121,-0.005667220573457903
-0.005450428278805122,-0.005535566342439673
-0.005450088278805122,-0.005535566342439673
-0.005449748278805121,-0.005239344322648658
-0.005449408278805122,-0.005041862976121317
-0.005449068278805122,-0.004515246052049362
-0.005448728278805121,-0.003955715570220932
-0.005448388278805122,-0.003396185088393462
-0.005448048278805122,-0.003165790184111561
-0.005447708278805121,-0.002869568164320546
-0.005447368278805122,-0.002639173260038648
-0.005447028278805122,-0.001947988547192948
-0.005446688278805121,-0.00158593941189282
-0.005446348278805122,-0.001059322487819907
-0.005446008278805122,-0.000960581814556237
-0.005445668278805121,-0.0004997920059919556
-0.005445328278805121,-0.0002364835439559801
-0.005444988278805122,-6.088639674078911e-06
-0.005444648278805121,0.0002572198223638758
-0.005444308278805121,0.001080058766226306
-0.005443968278805122,0.002232033287635805
-0.005443628278805121,0.003186526462519576
-0.005443288278805121,0.004075192521891001
-0.005442948278805122,0.005655043294109744
-0.005442608278805121,0.006379141564710059
-0.005442268278805121,0.006412055122464556
-0.005441928278805122,0.006214573775937213
-0.005441588278805121,0.005984178871654715
-0.005441248278805121,0.005655043294109744
-0.005440908278805122,0.005095512812282273
-0.005440568278805121,0.004996772139019618
-0.005440228278805121,0.005556302620846072
-0.005439888278805122,0.006477882237973671
-0.005439548278805121,0.007399461855102348
-0.005439208278805121,0.007991905894683298
-0.005438868278805122,0.009275534647111025
-0.005438528278805121,0.01036168205301261
-0.005438188278805121,0.01101995320810255
-0.005437848278805122,0.01118452099687534
-0.005437508278805121,0.01082247186157575
-0.005437168278805121,0.01111869388136622
-0.005436828278805122,0.01101995320810255
-0.005436488278805122,0.01095412609259356
-0.005436148278805121,0.01098703965034799
-0.005435808278805122,0.01105286676585711
-0.005435468278805122,0.0111186938813661
-0.005435128278805121,0.01092121253483888
-0.005434788278805122,0.01039459561076597
-0.005434448278805122,0.01049333628402946
-0.005434108278805121,0.01128326167013901
-0.005433768278805122,0.01187570570972104
-0.005433428278805122,0.01207318705624802
-0.005433088278805121,0.01180987859421192
-0.005432748278805122,0.01101995320810255
-0.005432408278805122,0.009867978686695148
-0.005432068278805121,0.008683090607528997
-0.005431728278805122,0.007893165221419626
-0.005431388278805122,0.007300721181838676
-0.005431048278805121,0.00762985675938317
-0.005430708278805122,0.007695683874892284
-0.005430368278805122,0.008419782145491224
-0.005430028278805121,0.009637583782411153
-0.005429688278805122,0.01095412609259344
-0.005429348278805122,0.01223775484501883
-0.005429008278805121,0.01296185311562142
-0.005428668278805122,0.01329098869316699
-0.005428328278805122,0.01345555648193948
-0.005427988278805121,0.01398217340601269
-0.005427648278805122,0.01381760561723991
-0.005427308278805122,0.01335681580867611
-0.005426968278805121,0.01345555648193978
-0.005426628278805122,0.0142783954258037
-0.005426288278805122,0.01490375302314029
-0.005425948278805121,0.01454170388784016
-0.005425608278805122,0.01417965475254003
-0.005425268278805122,0.01325807513541244
-0.005424928278805121,0.01233649551828483
-0.005424588278805122,0.01138200234340268
-0.005424248278805122,0.01072373118831154
-0.005423908278805121,0.01078955830382155
-0.005423568278805121,0.01128326167013901
-0.005423228278805122,0.01190861926747559
-0.005422888278805121,0.01243523619154929
-0.005422548278805121,0.01286311244235775
-0.005422208278805122,0.01319224801990332
-0.005421868278805121,0.01342264292418636
-0.005421528278805121,0.01404800052152181
-0.005421188278805122,0.01493666658089485
-0.005420848278805121,0.01589115975577766
-0.005420508278805121,0.01625320889107713
-0.005420168278805122,0.01582533264026789
-0.005419828278805121,0.01523288860068431
-0.005419488278805121,0.01437713609906738
-0.005419148278805122,0.01414674119478548
-0.005418808278805121,0.01348847003969451
-0.005418468278805121,0.01358721071295801
-0.005418128278805122,0.01371886494397623
-0.005417788278805121,0.01338972936643
-0.005417448278805121,0.01302768023113053
-0.005417108278805122,0.01263271753807585
-0.005416768278805121,0.01131617522789165
-0.005416428278805121,0.01026294137974774
-0.005416088278805122,0.009604670224656596
-0.005415748278805121,0.009538843109146643
-0.005415408278805121,0.009078053300583682
-0.005415068278805122,0.00874891772303811
-0.005414728278805122,0.009374275320373559
-0.005414388278805121,0.01032876849525685
-0.005414048278805122,0.01115160743912078
-0.005413708278805122,0.01180987859421073
-0.005413368278805121,0.01263271753807585
-0.005413028278805122,0.01368595138622168
