Analysis/New Tests_CMB/wrd01_d2s01/cmb13_ch43.csv

#Digilent WaveForms Oscilloscope Acquisition
#Device Name: ADP3450
#Serial Number: SN:210018B9D9B0
#Date Time: 2024-08-06 18:17:47.501.190.810
#Sample rate: 2.94118e+06Hz
#Samples: 32768
#Trigger: Source: Channel 3 Type: Edge Condition: Rising Level: 60 mV Hyst.: Auto HoldOff: 0 s
#Channel 3: Range: 200 mV/div Offset: -20 mV Attenuation: 1 X Coupling: DC Bandwidth: 0 Hz Sample Mode: Average

Time (s),Channel 3 (V)
-0.005570264767309875,0.02402080852115261
-0.005569924767309875,0.02352710515483389
-0.005569584767309875,0.02332962380830691
-0.005569244767309875,0.02332962380830691
-0.005568904767309875,0.02309922890402417
-0.005568564767309875,0.02263843909546121
-0.005568224767309875,0.02260552553770665
-0.005567884767309875,0.02214473572914166
-0.005567544767309875,0.02148646457405171
-0.005567204767309875,0.02063071207243323
-0.005566864767309875,0.01977495957081223
-0.005566524767309875,0.01839259014512334
-0.005566184767309875,0.01671399869964093
-0.005565844767309875,0.01510123436966494
-0.005565504767309875,0.01362012427071256
-0.005565164767309875,0.01296185311562142
-0.005564824767309875,0.01315933446215008
-0.005564484767309875,0.01388343273274902
-0.005564144767309875,0.01480501234987662
-0.005563804767309875,0.01566076485149612
-0.005563464767309875,0.01622029533332257
-0.005563124767309875,0.0161215546600589
-0.005562784767309876,0.01641777667984938
-0.005562444767309875,0.0165823444686227
-0.005562104767309875,0.01674691225739549
-0.005561764767309876,0.01747101052799443
-0.005561424767309875,0.01740518341248663
-0.005561084767309875,0.0170431342771865
-0.005560744767309876,0.017076047834941
-0.005560404767309875,0.01638486312209536
-0.005560064767309875,0.01618738177556802
-0.005559724767309876,0.01664817158413098
-0.005559384767309875,0.01641777667984992
-0.005559044767309875,0.01628612244883169
-0.005558704767309876,0.01654943091086767
-0.005558364767309875,0.01608864110230435
-0.005558024767309875,0.0156607648514951
-0.005557684767309876,0.01539745638945913
-0.005557344767309875,0.01450879033008561
-0.005557004767309875,0.01394925984825813
-0.005556664767309876,0.0131264209043957
-0.005556324767309875,0.01269854465358496
-0.005555984767309875,0.01259980398032129
-0.005555644767309876,0.01230358196053082
-0.005555304767309875,0.01223775484502116
-0.005554964767309875,0.01177696503645737
-0.005554624767309876,0.01148074301666689
-0.005554284767309875,0.01098703965034799
-0.005553944767309875,0.01036168205301141
-0.005553604767309876,0.009736324455674824
-0.005553264767309875,0.009440102435883811
-0.005552924767309875,0.009242621089356468
-0.005552584767309876,0.009110966858338239
-0.005552244767309875,0.009176793973847354
-0.005551904767309875,0.009275534647111025
-0.005551564767309876,0.01009837359097495
-0.005551224767309875,0.01062499051504865
-0.005550884767309875,0.01105286676585711
-0.005550544767309875,0.0107566447460661
-0.005550204767309875,0.01029585493750128
-0.005549864767309875,0.009736324455674824
-0.005549524767309875,0.009440102435883811
-0.005549184767309875,0.009308448204865103
-0.005548844767309875,0.009045139742829125
-0.005548504767309875,0.009012226185074568
-0.005548164767309875,0.009571756666903177
-0.005547824767309875,0.01019711426423862
-0.005547484767309875,0.01101995320810255
-0.005547144767309875,0.01187570570972253
-0.005546804767309875,0.01269854465358496
-0.005546464767309875,0.01315933446214876
-0.005546124767309875,0.01335681580867736
-0.005545784767309875,0.01404800052152181
-0.005545444767309875,0.01365303782846712
-0.005545104767309875,0.01394925984825855
-0.005544764767309875,0.01417965475254003
-0.005544424767309875,0.01335681580867611
-0.005544084767309875,0.0125668904225659
-0.005543744767309875,0.01210610061400294
-0.005543404767309875,0.01108578032361167
-0.005543064767309875,0.01101995320810303
-0.005542724767309875,0.01128326167013901
-0.005542384767309875,0.01210610061400294
-0.005542044767309876,0.01263271753807489
-0.005541704767309875,0.01325807513541244
-0.005541364767309875,0.01302768023113053
-0.005541024767309876,0.01177696503645964
-0.005540684767309875,0.01049333628402964
-0.005540344767309875,0.009341361762620138
-0.005540004767309876,0.008683090607530194
-0.005539664767309875,0.008452695703247097
-0.005539324767309875,0.008156473683456083
-0.005538984767309876,0.007728597432647618
-0.005538644767309875,0.007465288970610384
-0.005538304767309875,0.007267807624083042
-0.005537964767309876,0.006708277142256588
-0.005537624767309875,0.005786697525127971
-0.005537284767309875,0.005786697525127971
-0.005536944767309876,0.00555630262084649
-0.005536604767309875,0.005523389063091515
-0.005536264767309875,0.006313314449200885
-0.005535924767309876,0.00660953646899136
-0.005535584767309875,0.008090646567946969
-0.005535244767309875,0.009341361762620138
-0.005534904767309876,0.01009837359097357
-0.005534564767309875,0.01046042272627508
-0.005534224767309875,0.01023002782199318
-0.005533884767309876,0.00976923801343022
-0.005533544767309875,0.009538843109147481
-0.005533204767309875,0.009176793973847354
-0.005532864767309876,0.009110966858338239
-0.005532524767309875,0.009176793973847354
-0.005532184767309875,0.009604670224656596
-0.005531844767309876,0.009999632917711282
-0.005531504767309875,0.01039459561076597
-0.005531164767309875,0.01029585493750229
-0.005530824767309876,0.01085538541932977
-0.005530484767309875,0.01101995320810255
-0.005530144767309875,0.01144782945891179
-0.005529804767309876,0.01161239724768458
-0.005529464767309875,0.01184279215196696
-0.005529124767309875,0.01210610061400294
-0.005528784767309875,0.01190861926747559
-0.005528444767309875,0.01151365657442103
-0.005528104767309875,0.01157948368993002
-0.005527764767309875,0.01134908878564812
-0.005527424767309875,0.01121743455462977
-0.005527084767309875,0.01115160743912078
-0.005526744767309875,0.01095412609259344
-0.005526404767309875,0.01059207695729307
-0.005526064767309875,0.01046042272627508
-0.005525724767309875,0.01098703965034799
-0.005525384767309875,0.0116453108054398
-0.005525044767309875,0.01200735994073926
-0.005524704767309875,0.01200735994073926
-0.005524364767309875,0.01200735994073945
-0.005524024767309875,0.01210610061400294
-0.005523684767309875,0.01210610061400294
-0.005523344767309875,0.01210610061400168
-0.005523004767309875,0.01141491590115724
-0.005522664767309875,0.01059207695729331
-0.005522324767309875,0.01055916339953791
-0.005521984767309875,0.01009837359097495
-0.005521644767309875,0.009703410897920267
-0.005521304767309875,0.01013128714872909
-0.005520964767309875,0.009900892244447609
-0.005520624767309875,0.00957175666690204
-0.005520284767309876,0.009473015993638548
-0.005519944767309875,0.008584349934265326
-0.005519604767309875,0.007564029643874055
-0.005519264767309876,0.006839931373275116
-0.005518924767309875,0.006379141564709999
-0.005518584767309875,0.005786697525127971
-0.005518244767309876,0.00605000598716395
-0.005517904767309875,0.007037412719801142
-0.005517564767309875,0.008222300798965198
-0.005517224767309876,0.008781831280791651
-0.005516884767309875,0.009012226185074568
-0.005516544767309875,0.009176793973847354
-0.005516204767309876,0.009275534647110844
-0.005515864767309875,0.009143880416092796
-0.005515524767309875,0.008452695703247097
-0.005515184767309876,0.007695683874893661
-0.005514844767309875,0.007300721181837598
-0.005514504767309875,0.007366548297346712
-0.005514164767309876,0.007531116086119199
-0.005513824767309875,0.008057733010192412
-0.005513484767309875,0.008386868587737984
-0.005513144767309876,0.008650177049773961
-0.005512804767309875,0.008913485511810896
-0.005512464767309875,0.009078053300583682
-0.005512124767309876,0.008979312627320012
-0.005511784767309875,0.009078053300583682
-0.005511444767309875,0.008814744838547226
-0.005511104767309876,0.008057733010192412
-0.005510764767309875,0.007893165221419626
-0.005510424767309875,0.007662770317137727
-0.005510084767309876,0.00693867204653747
-0.005509744767309875,0.007399461855101271
-0.005509404767309875,0.007366548297346712
-0.005509064767309876,0.007761510990401397
-0.005508724767309875,0.008485609261003151
-0.005508384767309875,0.009308448204865582
-0.005508044767309875,0.01029585493750229
-0.005507704767309875,0.01039459561076657
-0.005507364767309875,0.01072373118831154
-0.005507024767309875,0.01092121253483888
-0.005506684767309875,0.01161239724768554
-0.005506344767309875,0.01213901417175749
-0.005506004767309875,0.01227066840277572
-0.005505664767309875,0.01197444638298417
-0.005505324767309875,0.01167822436319369
-0.005504984767309875,0.01144782945891179
-0.005504644767309875,0.01085538541932863
-0.005504304767309875,0.01023002782199318
-0.005503964767309875,0.009374275320374697
-0.005503624767309875,0.008288127914473593
-0.005503284767309875,0.007893165221419626
-0.005502944767309875,0.007037412719801142
-0.005502604767309875,0.00614874666042804
-0.005502264767309875,0.006115833102673543
-0.005501924767309875,0.005951265313900757
-0.005501584767309875,0.006082919544920902
-0.005501244767309875,0.007136153393064813
-0.005500904767309875,0.007596943201628613
-0.005500564767309875,0.008452695703248954
-0.005500224767309875,0.009473015993638367
-0.005499884767309875,0.009867978686693053
-0.005499544767309876,0.01016420070648353
-0.005499204767309875,0.01009837359097495
-0.005498864767309875,0.01009837359097495
-0.005498524767309876,0.01052624984178342
-0.005498184767309875,0.01078955830382065
-0.005497844767309875,0.01101995320810255
-0.005497504767309876,0.01078955830382107
-0.005497164767309875,0.01125034811238445
-0.005496824767309875,0.01177696503645737
-0.005496484767309876,0.01187570570972086
-0.005496144767309875,0.01253397686481218
-0.005495804767309875,0.01250106330705762
-0.005495464767309876,0.01263271753807561
-0.005495124767309875,0.01210610061400294
-0.005494784767309875,0.01180987859421192
-0.005494444767309876,0.01157948368993044
-0.005494104767309875,0.01065790407280242
-0.005493764767309875,0.01042750916852052
-0.005493424767309876,0.009473015993640104
-0.005493084767309875,0.009209707531601911
-0.005492744767309875,0.009275534647111025
-0.005492404767309876,0.008946399069566052
-0.005492064767309875,0.00967049734016571
-0.005491724767309875,0.009802151571183939
-0.005491384767309876,0.01049333628402838
-0.005491044767309875,0.01049333628402964
-0.005490704767309875,0.01032876849525685
-0.005490364767309876,0.009703410897920267
-0.005490024767309875,0.00874891772303811
-0.005489684767309875,0.008452695703247097
-0.005489344767309876,0.00795899233692874
-0.005489004767309875,0.008189387241210641
-0.005488664767309875,0.008288127914474312
-0.005488324767309876,0.008485609261001654
-0.005487984767309875,0.008814744838547705
-0.005487644767309875,0.009078053300583682
-0.005487304767309876,0.009209707531601911
-0.005486964767309875,0.009308448204864863
-0.005486624767309875,0.008913485511810896
-0.005486284767309875,0.009143880416092796
-0.005485944767309875,0.009176793973847535
-0.005485604767309875,0.009275534647111025
-0.005485264767309875,0.008814744838547226
-0.005484924767309875,0.008452695703246678
-0.005484584767309875,0.008222300798965198
-0.005484244767309875,0.008452695703247097
-0.005483904767309875,0.008683090607528997
-0.005483564767309875,0.008683090607528997
-0.005483224767309875,0.008716004165283554
-0.005482884767309875,0.008386868587738702
-0.005482544767309875,0.008781831280792669
-0.005482204767309875,0.008979312627320012
-0.005481864767309875,0.009275534647109647
-0.005481524767309875,0.008518522818756211
-0.005481184767309875,0.008024819452437855
-0.005480844767309875,0.007169066950818292
-0.005480504767309875,0.006576622911237342
-0.005480164767309875,0.006609536468991898
-0.005479824767309875,0.007432375412856246
-0.005479484767309875,0.007662770317137727
-0.005479144767309875,0.007596943201628613
-0.005478804767309876,0.004930945023514336
-0.005478464767309875,-0.002803741048811433
-0.005478124767309875,-0.0174831878073439
-0.005477784767309876,-0.0400948019846835
-0.005477444767309875,-0.06942078194403503
-0.005477104767309875,-0.1021368583520648
-0.005476764767309876,-0.136169477070215
-0.005476424767309875,-0.1675360976103697
-0.005476084767309875,-0.1945581285268611
-0.005475744767309876,-0.2162810766448293
-0.005475404767309875,-0.2317504487895107
-0.005475064767309875,-0.2419536516934234
-0.005474724767309876,-0.2473514751651609
-0.005474384767309875,-0.2481743141090347
-0.005474044767309875,-0.2459361921817248
-0.005473704767309876,-0.2415257754426222
-0.005473364767309875,-0.235074718122721
-0.005473024767309875,-0.2273071184926455
-0.005472684767309876,-0.2195066053048296
-0.005472344767309875,-0.2111794751929125
-0.005472004767309875,-0.2038726653714008
-0.005471664767309876,-0.1965329419921479
-0.005471324767309875,-0.1890944779396047
-0.005470984767309875,-0.181491446098302
-0.005470644767309876,-0.1742833769500671
-0.005470304767309875,-0.1673057027060879
-0.005469964767309875,-0.1608875589439492
-0.005469624767309876,-0.1543048473930378
-0.005469284767309875,-0.1478867036308992
-0.005468944767309875,-0.142324312370379
-0.005468604767309876,-0.1375847600537228
-0.005468264767309875,-0.133108516199103
-0.005467924767309875,-0.1286322723444833
-0.005467584767309876,-0.1245509911829182
-0.005467244767309875,-0.1203380557903349
-0.005466904767309875,-0.1171454406881428
-0.005466564767309876,-0.1125046290447503
-0.005466224767309875,-0.1076992496125751
-0.005465884767309875,-0.102268512583083
-0.005465544767309875,-0.0975289602664268
-0.005465204767309875,-0.09265775371874313
-0.005464864767309875,-0.08758906582455053
-0.005464524767309875,-0.08340904398972179
-0.005464184767309875,-0.07955815773243237
-0.005463844767309875,-0.07613514772596466
-0.005463504767309875,-0.073436235990091
-0.005463164767309875,-0.07083606492747656
-0.005462824767309875,-0.06840046165364375
-0.005462484767309875,-0.06639273463061576
-0.005462144767309875,-0.06412169914554719
-0.005461804767309875,-0.06185066366048688
-0.005461464767309875,-0.05981002307970434
-0.005461124767309875,-0.05753898759463451
-0.005460784767309875,-0.05457676739672977
-0.005460444767309875,-0.0517132878720833
-0.005460104767309875,-0.04950807950252258
-0.005459764767309875,-0.04654585930461783
-0.005459424767309875,-0.04391277468425326
-0.005459084767309875,-0.04137843073714835
-0.005458744767309875,-0.03917322236759704
-0.005458404767309875,-0.03719840890232361
-0.005458064767309875,-0.03548690389908359
-0.005457724767309875,-0.03380831245360423
-0.005457384767309875,-0.03226137523914004
-0.005457044767309876,-0.03081317869794216
-0.005456704767309875,-0.02923332792572079
-0.005456364767309875,-0.02844340253961142
-0.005456024767309876,-0.02798261273104846
-0.005455684767309875,-0.02745599580697471
-0.005455344767309875,-0.02676481109412901
-0.005455004767309876,-0.02600779926577557
-0.005454664767309875,-0.02557992301496495
-0.005454324767309875,-0.02459251628232824
-0.005453984767309876,-0.02347345531867534
-0.005453644767309875,-0.02242022147052747
-0.005453304767309875,-0.02159738252666354
-0.005452964767309876,-0.01982005040792069
-0.005452624767309875,-0.01837185386671695
-0.005452284767309875,-0.01636412684368896
-0.005451944767309876,-0.0146526218404551
-0.005451604767309875,-0.01386269645434262
-0.005451264767309875,-0.01350064731904249
-0.005450924767309876,-0.01317151174149752
-0.005450584767309875,-0.01290820327946047
-0.005450244767309875,-0.01238158635538755
-0.005449904767309876,-0.01139417962275264
-0.005449564767309875,-0.01043968644786868
-0.005449224767309875,-0.008991489906668169
-0.005448884767309876,-0.007806601827506269
-0.005448544767309875,-0.007016676441394743
-0.005448204767309875,-0.006687540863849172
-0.005447864767309876,-0.006062183266512589
-0.005447524767309875,-0.00570013413121246
-0.005447184767309875,-0.005601393457948786
-0.005446844767309876,-0.005535566342439673
-0.005446504767309875,-0.005074776533875874
-0.005446164767309875,-0.004350678263275617
-0.005445824767309876,-0.003165790184111561
-0.005445484767309875,-0.002079642778210158
-0.005445144767309875,-0.001520112296383706
-0.005444804767309875,-0.0006314462370106654
-0.005444464767309875,-0.0002693971017088007
-0.005444124767309875,0.0006850960731716212
-0.005443784767309875,0.000718009630926178
-0.005443444767309875,0.0015737621325455
-0.005443104767309875,0.002034551941108461
-0.005442764767309875,0.002232033287635805
-0.005442424767309875,0.001672502805808033
-0.005442084767309875,0.001507935017035548
-0.005441744767309875,0.001771243479072003
-0.005441404767309875,0.002067465498862719
-0.005441064767309875,0.001902897710090234
-0.005440724767309875,0.002166206172126688
-0.005440384767309875,0.002166206172126808
-0.005440044767309875,0.002232033287635805
-0.005439704767309875,0.001935811267844791
-0.005439364767309875,0.00170541636356277
-0.005439024767309875,0.001639589248053776
-0.005438684767309875,0.001507935017035548
-0.005438344767309875,0.001606675690299877
-0.005438004767309875,0.001968724825599347
-0.005437664767309875,0.002462428191917703
-0.005437324767309875,0.002692823096200143
-0.005436984767309875,0.002989045115990616
-0.005436644767309875,0.003416921366799861
-0.005436304767309876,0.003581489155572346
-0.005435964767309875,0.003746056944345429
-0.005435624767309875,0.003647316271081759
-0.005435284767309876,0.00374605694434525
-0.005434944767309875,0.004667636561473031
-0.005434604767309875,0.005622129736355185
-0.005434264767309876,0.006839931373271584
-0.005433924767309875,0.007564029643874055
-0.005433584767309875,0.007662770317137727
-0.005433244767309876,0.007103239835311273
-0.005432904767309875,0.0068399313732738
-0.005432564767309875,0.006510795795728228
-0.005432224767309876,0.007037412719800185
-0.005431884767309875,0.007070326277555699
-0.005431544767309875,0.006905758488782913
-0.005431204767309876,0.006543709353483443
-0.005430864767309875,0.005852524640637086
-0.005430524767309875,0.005556302620846072
-0.005430184767309876,0.005325907716564591
-0.005429844767309875,0.006082919544918986
-0.005429504767309875,0.007432375412855827
-0.005429164767309876,0.007531116086119318
-0.005428824767309875,0.009176793973847354
-0.005428484767309875,0.009209707531601911
-0.005428144767309876,0.0104933362840273
-0.005427804767309875,0.01052624984178419
-0.005427464767309875,0.01095412609259344
-0.005427124767309876,0.01052624984178419
-0.005426784767309875,0.01032876849525685
-0.005426444767309875,0.009703410897920267
-0.005426104767309876,0.008814744838547226
-0.005425764767309875,0.007662770317137727
-0.005425424767309875,0.006642450026746457
-0.005425084767309876,0.005720870409618857
-0.005424744767309875,0.00377897050209999
-0.005424404767309875,0.003153612904763403
-0.005424064767309876,0.002758650211708718
-0.005423724767309875,0.003384007809046681
-0.005423384767309875,0.004141019637400115
-0.005423044767309875,0.004305587426172902
-0.005422704767309875,0.005095512812282811
-0.005422364767309875,0.005391734832073286
-0.005422024767309875,0.006708277142255571
-0.005421684767309875,0.008090646567949184
-0.005421344767309875,0.009308448204865582
-0.005421004767309875,0.01032876849525685
-0.005420664767309875,0.01082247186157623
-0.005420324767309875,0.01138200234340268
-0.005419984767309875,0.01174405147870281
-0.005419644767309875,0.01111869388136449
-0.005419304767309875,0.01016420070648407
-0.005418964767309875,0.009209707531601911
-0.005418624767309875,0.008650177049773243
-0.005418284767309875,0.007991905894683298
-0.005417944767309875,0.007695683874892284
-0.005417604767309875,0.007728597432647618
-0.005417264767309875,0.008156473683456083
-0.005416924767309875,0.008090646567946969
-0.005416584767309875,0.007926078779173944
-0.005416244767309875,0.007794424548155956
-0.005415904767309875,0.008716004165283554
-0.005415564767309875,0.009078053300584281
-0.005415224767309875,0.009407188878129254
-0.005414884767309875,0.009999632917711282
-0.005414544767309876,0.01009837359097477
-0.005414204767309875,0.009933805802202166
