Analysis/New Tests_CMB/wrd01_d2s01/cmb10_ch27.csv

#Digilent WaveForms Oscilloscope Acquisition
#Device Name: ADP3450
#Serial Number: SN:210018B9D9B0
#Date Time: 2024-08-14 17:09:51.278.898.520
#Sample rate: 5.88235e+06Hz
#Samples: 32768
#Trigger: Source: Channel 3 Type: Edge Condition: Rising Level: 60 mV Hyst.: Auto HoldOff: 0 s
#Channel 3: Range: 100 mV/div Offset: 0 V Attenuation: 1 X Coupling: DC Bandwidth: 0 Hz Sample Mode: Average

Time (s),Channel 3 (V)
-0.003798485113265605,0.2068188112324731
-0.003798315113265605,0.2193917902947349
-0.003798145113265605,0.2309444490665635
-0.003797975113265605,0.240193158795594
-0.003797805113265605,0.2482240668877172
-0.003797635113265605,0.2544118157455627
-0.003797465113265605,0.2593159358509917
-0.003797295113265605,0.2626402051842063
-0.003797125113265605,0.2650099813425301
-0.003796955113265605,0.2666556592302579
-0.003796785113265605,0.2677418066361562
-0.003796615113265605,0.2665569185569943
-0.003796445113265605,0.2656353389398666
-0.003796275113265605,0.2636934390323433
-0.003796105113265605,0.2612578357585106
-0.003795935113265605,0.2581968748873367
-0.003795765113265605,0.2555967038247193
-0.003795595113265605,0.2515483362209162
-0.003795425113265605,0.2486190295807606
-0.003795255113265605,0.2446035755346974
-0.003795085113265605,0.2406210350464033
-0.003794915113265605,0.2366384945581018
-0.003794745113265605,0.2330509167628616
-0.003794575113265605,0.2278505746376351
-0.003794405113265605,0.2243288239578975
-0.003794235113265605,0.2211032952979567
-0.003794065113265605,0.2163966565390492
-0.003793895113265605,0.2126445109550297
-0.003793725113265605,0.208563229793472
-0.003793555113265605,0.2047781706516906
-0.003793385113265605,0.2008614572788983
-0.003793215113265605,0.1971093116948856
-0.003793045113265605,0.1940812643814595
-0.003792875113265605,0.1899670696621399
-0.003792705113265605,0.1863465783091452
-0.003792535113265605,0.1825615191673645
-0.003792365113265605,0.1798955209892454
-0.003792195113265605,0.1760117211742147
-0.003792025113265605,0.1729836738607884
-0.003791855113265605,0.1703505892404238
-0.003791685113265605,0.1673883690425191
-0.003791515113265605,0.1648211115376582
-0.003791345113265605,0.162385508263821
-0.003791175113265605,0.1600157321054972
-0.003791005113265605,0.1571522525808464
-0.003790835113265605,0.1549470442112911
-0.003790665113265605,0.1528076629572488
-0.003790495113265605,0.1507341088187078
-0.003790325113265605,0.1486934682379253
-0.003790155113265605,0.1466199140993882
-0.003789985113265605,0.1441513972677964
-0.003789815113265605,0.14164996687845
-0.003789645113265605,0.1388523144693127
-0.003789475113265605,0.1366471060997574
-0.003789305113265605,0.1340469350371473
-0.003789135113265605,0.1316442453210647
-0.003788965113265605,0.1289453335851876
-0.003788795113265605,0.1271021743509358
-0.003788625113265605,0.1242716083840439
-0.003788455113265605,0.1222638813610118
-0.003788285113265605,0.120025759433706
-0.003788115113265605,0.1183471679882236
-0.003787945113265605,0.1158457375988722
-0.003787775113265605,0.1130480851897399
-0.003787605113265605,0.1114682344175212
-0.003787435113265605,0.1088351497971534
-0.003787265113265605,0.1070907312361651
-0.003787095113265605,0.1041285110382549
-0.003786925113265605,0.1036018941141796
-0.003786755113265605,0.1022853518039997
-0.003786585113265605,0.09991557564567163
-0.003786415113265605,0.09846737910446807
-0.003786245113265605,0.09678878765898868
-0.003786075113265605,0.09497854198248806
-0.003785905113265605,0.09372782678781214
-0.003785735113265605,0.09221380313110525
-0.003785565113265605,0.09099600149418666
-0.003785395113265605,0.08971237274175646
-0.003785225113265605,0.08836291687382208
-0.003785055113265605,0.0861906220620213
-0.003784885113265605,0.08467659840530924
-0.003784715113265605,0.08332714253737483
-0.003784545113265605,0.08181311888066523
-0.003784375113265605,0.0797395647421319
-0.003784205113265605,0.07802805973889115
-0.003784035113265605,0.07638238185116328
-0.003783865113265605,0.07424300059712097
-0.003783695113265605,0.07295937184468934
-0.003783525113265605,0.07062250924411581
-0.003783355113265605,0.06947053472270841
-0.003783185113265605,0.06851604154782415
-0.003783015113265605,0.06756154837294198
-0.003782845113265605,0.06581712981195363
-0.003782675113265605,0.06469806884829551
-0.003782505113265605,0.06407271125095892
-0.003782335113265605,0.06351318076913247
-0.003782165113265605,0.06278908249853121
-0.003781995113265605,0.06183458932364905
-0.003781825113265605,0.06101175037978662
-0.003781655113265605,0.06045221989795765
-0.003781485113265605,0.05959646739633917
-0.003781315113265605,0.05949772672307568
-0.003781145113265605,0.0594977267230755
-0.003780975113265605,0.05860906066370245
-0.003780805113265605,0.05877362845247494
-0.003780635113265605,0.05798370306636587
-0.003780465113265605,0.05725960479576561
-0.003780295113265605,0.05676590142944815
-0.003780125113265605,0.05564684046579232
-0.003779955113265605,0.0546594337331556
-0.003779785113265605,0.05314541007644597
-0.003779615113265605,0.05228965757482749
-0.003779445113265605,0.05087437459138153
-0.003779275113265605,0.04876790689508988
-0.003779105113265605,0.04827420352877152
-0.003778935113265605,0.04695766121858923
-0.003778765113265605,0.04573985958167062
-0.003778595113265605,0.0446866257335248
-0.003778425113265605,0.04323842919232428
-0.003778255113265605,0.0426130715949877
-0.003778085113265605,0.04155983774684098
-0.003777915113265605,0.04106613438052351
-0.003777745113265605,0.03991415985911401
-0.003777575113265605,0.03915714803075896
-0.003777405113265605,0.03902549379974098
-0.003777235113265605,0.03826848197138616
-0.003777065113265605,0.03767603793180318
-0.003776895113265605,0.03714942100773122
-0.003776725113265605,0.03691902610344932
-0.003776555113265605,0.03649114985263894
-0.003776385113265605,0.03586579225530349
-0.003776215113265605,0.03520752110021235
-0.003776045113265605,0.03504295331143741
-0.003775875113265605,0.03385806523227551
-0.003775705113265605,0.03415428725206653
-0.003775535113265605,0.03379223811676598
-0.003775365113265605,0.0335618432124845
-0.003775195113265605,0.03319979407718437
-0.003775025113265605,0.03234404157556463
-0.003774855113265605,0.03165285686272018
-0.003774685113265605,0.03152120263170195
-0.003774515113265605,0.03059962301457298
-0.003774345113265605,0.02984261118621954
-0.003774175113265605,0.02888811801133739
-0.003774005113265605,0.02806527906747292
-0.003773835113265605,0.02776905704768244
-0.003773665113265605,0.02691330454606396
-0.003773495113265605,0.02632086050648301
-0.003773325113265605,0.02539928088935433
-0.003773155113265605,0.02490557752303598
-0.003772985113265605,0.02441187415671852
-0.003772815113265605,0.02424730636794483
-0.003772645113265605,0.02368777588611736
-0.003772475113265605,0.02316115896204541
-0.003772305113265605,0.02243706069144419
-0.003772135113265605,0.02230540646042596
-0.003771965113265605,0.02204209799838999
-0.003771795113265605,0.02217375222940774
-0.003771625113265605,0.0217458759785985
-0.003771455113265605,0.02171296242084399
-0.003771285113265605,0.02098886415024368
-0.003771115113265605,0.02085720991922545
-0.003770945113265605,0.02069264213045297
-0.003770775113265605,0.02065972857269811
-0.003770605113265605,0.02010019809087064
-0.003770435113265605,0.02029767943739762
-0.003770265113265605,0.02033059299515254
-0.003770095113265605,0.0203635065529071
-0.003769925113265605,0.02023185232188911
-0.003769755113265605,0.01986980318658874
-0.003769585113265605,0.01983688962883418
-0.003769415113265605,0.01940901337802494
-0.003769245113265605,0.01934318626251582
-0.003769075113265605,0.01954066760904317
-0.003768905113265605,0.01963940828230684
-0.003768735113265605,0.01954066760904317
-0.003768565113265605,0.01917861847374304
-0.003768395113265605,0.01871782866517924
-0.003768225113265605,0.01828995241437
-0.003768055113265605,0.01726963212397873
-0.003767885113265605,0.01634805250685113
-0.003767715113265605,0.0159860033715489
-0.003767545113265605,0.0148340288501415
-0.003767375113265605,0.01450489327259593
-0.003767205113265605,0.01447197971484119
-0.003767035113265605,0.0143732390415777
-0.003766865113265605,0.01440615259933226
-0.003766695113265605,0.01434032548382255
-0.003766525113265605,0.01401118990627757
-0.003766355113265605,0.01312252384690453
-0.003766185113265605,0.01381370855975017
-0.003766015113265605,0.01378079500199567
-0.003765845113265605,0.01404410346403213
-0.003765675113265605,0.01404410346403207
-0.003765505113265605,0.01401118990627757
-0.003765335113265605,0.01364914077097745
-0.003765165113265605,0.01391244923301151
-0.003764995113265605,0.01259590692283162
-0.003764825113265605,0.01315543740465909
-0.003764655113265605,0.01315543740466088
-0.003764485113265605,0.0141428441372958
-0.003764315113265605,0.01341874586669555
-0.003764145113265605,0.0134845729822049
-0.003763975113265605,0.01361622721322289
-0.003763805113265605,0.01358331365546833
-0.003763635113265605,0.01410993057954142
-0.003763465113265605,0.01420867125280492
-0.003763295113265605,0.01397827634852302
-0.003763125113265605,0.01503151019666693
-0.003762955113265605,0.0146036339458596
-0.003762785113265605,0.0143732390415777
-0.003762615113265605,0.01480111529238617
-0.003762445113265605,0.0143732390415777
-0.003762275113265605,0.01407701702178669
-0.003762105113265605,0.01338583230894225
-0.003761935113265605,0.01315543740465909
-0.003761765113265605,0.01256299336507706
-0.003761595113265605,0.0121351171142686
-0.003761425113265605,0.01203637644100415
-0.003761255113265605,0.01193763576774048
-0.003761085113265605,0.011707240863459
-0.003760915113265605,0.01197054932549503
-0.003760745113265605,0.0120692899987587
-0.003760575113265605,0.01239842557630368
-0.003760405113265605,0.01285921538486808
-0.003760235113265605,0.01246425269181339
-0.003760065113265605,0.01259590692283138
-0.003759895113265605,0.01279338826935896
-0.003759725113265605,0.01295795605813175
-0.003759555113265605,0.01272756115385027
-0.003759385113265605,0.01223385778753149
-0.003759215113265605,0.01236551201854972
-0.003759045113265605,0.01213511711426824
-0.003758875113265605,0.01226677134528605
-0.003758705113265605,0.01243133913405883
-0.003758535113265605,0.01190472220998592
-0.003758365113265605,0.01213511711426782
-0.003758195113265605,0.01216803067202238
-0.003758025113265605,0.01216803067202238
-0.003757855113265605,0.01180598153672225
-0.003757685113265605,0.0122996849030406
-0.003757515113265605,0.01190472220998592
-0.003757345113265605,0.01157558663244011
-0.003757175113265605,0.01144393240142212
-0.003757005113265605,0.01236551201854972
-0.003756835113265605,0.01022613076450243
-0.003756665113265605,0.009633686724921478
-0.003756495113265605,0.00881084778105755
-0.003756325113265605,0.007658873259647872
-0.003756155113265605,0.00756013258638438
-0.003755985113265605,0.00700060210455691
-0.003755815113265605,0.007362651239855002
-0.003755645113265605,0.006243590276202096
-0.003755475113265605,0.006803120758029567
-0.003755305113265605,0.006967688546801754
-0.003755135113265605,0.006638552969256781
-0.003754965113265605,0.006704380084765896
-0.003754795113265605,0.00630941739171103
-0.003754625113265605,0.006210676718447538
-0.003754455113265605,0.00630941739171121
-0.003754285113265605,0.00667146652701074
-0.003754115113265605,0.006342330949465767
-0.003753945113265605,0.005947368256411082
-0.003753775113265605,0.006967688546801754
-0.003753605113265605,0.006638552969256781
-0.003753435113265605,0.007165169893329695
-0.003753265113265605,0.007527219028630123
-0.003753095113265605,0.007691786817402609
-0.003752925113265605,0.008547539319021094
-0.003752755113265605,0.008547539319021094
-0.003752585113265605,0.009172896916357679
-0.003752415113265605,0.009765340955939707
-0.003752245113265605,0.01052235278429314
-0.003752075113265605,0.01029195788001262
-0.003751905113265605,0.01058817989980363
-0.003751735113265605,0.01091731547734861
-0.003751565113265605,0.01104896970836743
-0.003751395113265605,0.01091731547734921
-0.003751225113265605,0.01174015442121164
-0.003751055113265605,0.01177306797896769
-0.003750885113265605,0.01144393240142212
-0.003750715113265605,0.0116414137479491
-0.003750545113265605,0.01121353749714022
-0.003750375113265605,0.01101605615061288
-0.003750205113265605,0.0107856612463314
-0.003750035113265605,0.01065400701531275
-0.003749865113265605,0.01006156297573072
-0.003749695113265605,0.01012739009123972
-0.003749525113265605,0.009567859609412364
-0.003749355113265605,0.008975415569830336
-0.003749185113265605,0.0082184037414769
-0.003749015113265605,0.007658873259648051
-0.003748845113265605,0.007362651239857037
-0.003748675113265605,0.006836034315785082
-0.003748505113265605,0.006506898738238553
-0.003748335113265605,0.006177763160692982
-0.003748165113265605,0.006046108929674754
-0.003747995113265605,0.005618232678865511
-0.003747825113265605,0.005684059794374625
-0.003747655113265605,0.005881541140901968
-0.003747485113265605,0.003873814117873984
-0.003747315113265605,0.004433344599701455
-0.003747145113265605,0.004630825946228797
-0.003746975113265605,0.003775073444610313
-0.003746805113265605,0.003413024309310185
-0.003746635113265605,0.0030180616162555
-0.003746465113265605,0.002524358249937382
-0.003746295113265605,0.002656012480955371
-0.003746125113265605,0.002886407385237271
-0.003745955113265605,0.002228136230146668
-0.003745785113265605,0.002524358249937143
-0.003745615113265605,0.003478851424819299
-0.003745445113265605,0.003413024309313358
-0.003745275113265605,0.005157442870301712
-0.003745105113265605,0.004795393735001583
-0.003744935113265605,0.005618232678866169
-0.003744765113265605,0.005980281814165639
-0.003744595113265605,0.00630941739171121
-0.003744425113265605,0.006836034315785141
-0.003744255113265605,0.007395564797611595
-0.003744085113265605,0.007494305470875266
-0.003743915113265605,0.007132256335574899
-0.003743745113265605,0.00700060210455691
-0.003743575113265605,0.006572725853747667
-0.003743405113265605,0.006309417391710791
-0.003743235113265605,0.00607902248742931
-0.003743065113265605,0.006046108929674754
-0.003742895113265605,0.00551949200560142
-0.003742725113265605,0.00528909710131994
-0.003742555113265605,0.005585319121110954
-0.003742385113265605,0.005354924216829413
-0.003742215113265605,0.005552405563356397
-0.003742045113265605,0.006046108929674754
-0.003741875113265605,0.005815714025393272
-0.003741705113265605,0.005815714025392853
-0.003741535113265605,0.005091615754792597
-0.003741365113265605,0.006638552969253968
-0.003741195113265605,0.007132256335575138
-0.003741025113265605,0.006836034315784124
-0.003740855113265605,0.007461391913119571
-0.003740685113265605,0.007066429220066024
-0.003740515113265605,0.006836034315784124
-0.003740345113265605,0.006868947873538621
-0.003740175113265605,0.007066429220066024
-0.003740005113265605,0.006836034315784124
-0.003739835113265605,0.006934774989047616
-0.003739665113265605,0.006836034315784124
-0.003739495113265605,0.007066429220066024
-0.003739325113265605,0.006967688546802532
-0.003739155113265605,0.006605639411502225
-0.003738985113265605,0.007033515662311467
-0.003738815113265605,0.007066429220065964
-0.003738645113265605,0.007691786817402609
-0.003738475113265605,0.007823441048420837
-0.003738305113265605,0.007263910566594384
-0.003738135113265605,0.006572725853747667
-0.003737965113265605,0.00779052749066628
-0.003737795113265605,0.005716973352132953
-0.003737625113265605,0.006704380084765896
-0.003737455113265605,0.006506898738238553
-0.003737285113265605,0.006111936045183867
-0.003737115113265605,0.006046108929674754
-0.003736945113265605,0.005815714025392853
-0.003736775113265605,0.005519492005601839
-0.003736605113265605,0.005815714025392853
-0.003736435113265605,0.00528909710131994
-0.003736265113265605,0.006473985180483996
-0.003736095113265605,0.006375244507220205
-0.003735925113265605,0.00630941739171121
-0.003735755113265605,0.00653981229599311
-0.003735585113265605,0.006901861431294316
-0.003735415113265605,0.007494305470875266
-0.003735245113265605,0.008185490183720966
-0.003735075113265605,0.008843761338812766
-0.003734905113265605,0.009205810474112236
-0.003734735113265605,0.009337464705130465
-0.003734565113265605,0.01009447653348654
-0.003734395113265605,0.01078566124633098
-0.003734225113265605,0.01075274768857642
-0.003734055113265605,0.01085148836183865
-0.003733885113265605,0.01006156297573072
-0.003733715113265605,0.009666600282676035
-0.003733545113265605,0.008679193550038843
-0.003733375113265605,0.008415885088002865
-0.003733205113265605,0.007691786817402609
-0.003733035113265605,0.007033515662309551
-0.003732865113265605,0.005980281814165639
-0.003732695113265605,0.005124529312547154
-0.003732525113265605,0.00486122085050992
-0.003732355113265605,0.004433344599701455
-0.003732185113265605,0.003939641233383098
-0.003732015113265605,0.003643419213592025
-0.003731845113265605,0.003610505655837527
-0.003731675113265605,0.003709246329101199
-0.003731505113265605,0.004235863253173155
-0.003731335113265605,0.004499171715210569
-0.003731165113265605,0.005025788639283483
-0.003730995113265605,0.005815714025391416
-0.003730825113265605,0.00653981229599311
-0.003730655113265605,0.006901861431293239
-0.003730485113265605,0.006704380084766255
-0.003730315113265605,0.00653981229599311
-0.003730145113265605,0.006506898738238553
-0.003729975113265605,0.006342330949466067
-0.003729805113265605,0.006013195371920196
-0.003729635113265605,0.006046108929674754
-0.003729465113265605,0.00525618354356682
-0.003729295113265605,0.005716973352129182
-0.003729125113265605,0.005815714025392853
-0.003728955113265605,0.005354924216829892
-0.003728785113265605,0.006013195371920196
-0.003728615113265605,0.005025788639283483
-0.003728445113265605,0.004861220850510997
-0.003728275113265605,0.005157442870301712
-0.003728105113265605,0.005815714025392853
-0.003727935113265605,0.006243590276201318
-0.003727765113265605,0.006342330949465767
-0.003727595113265605,0.006934774989047795
-0.003727425113265605,0.006967688546802292
-0.003727255113265605,0.007230997008838809
-0.003727085113265605,0.007889268163929951
-0.003726915113265605,0.007329737682102481
-0.003726745113265605,0.007955095279439066
-0.003726575113265605,0.007691786817402609
-0.003726405113265605,0.007988008837193623
-0.003726235113265605,0.007757613932911723
-0.003726065113265605,0.007362651239857037
-0.003725895113265605,0.006638552969256781
-0.003725725113265605,0.006671466527011338
-0.003725555113265605,0.00653981229599311
-0.003725385113265605,0.006144849602938425
-0.003725215113265605,0.005947368256410185
-0.003725045113265605,0.005453664890092726
-0.003724875113265605,0.005354924216829054
-0.003724705113265605,0.005157442870301053
-0.003724535113265605,0.004795393735001583
-0.003724365113265605,0.004927047966019811
-0.003724195113265605,0.005420751332338288
-0.003724025113265605,0.005486578447847282
-0.003723855113265605,0.005684059794374625
-0.003723685113265605,0.005651146236620188
-0.003723515113265605,0.005716973352129182
-0.003723345113265605,0.006243590276202096
-0.003723175113265605,0.006934774989048693
-0.003723005113265605,0.007428478355366152
-0.003722835113265605,0.007362651239857037
-0.003722665113265605,0.007099342777820342
-0.003722495113265605,0.006967688546802352
-0.003722325113265605,0.007099342777820581
-0.003722155113265605,0.006704380084766375
-0.003721985113265605,0.006967688546802352
-0.003721815113265605,0.007033515662311467
-0.003721645113265605,0.007428478355365972
-0.003721475113265605,0.007329737682102481
-0.003721305113265605,0.007658873259648051
-0.003721135113265605,0.007296824124349121
-0.003720965113265605,0.007955095279439066
-0.003720795113265605,0.008547539319021094
-0.003720625113265605,0.008382971530248608
-0.003720455113265605,0.008843761338812107
-0.003720285113265605,0.009074156243094007
-0.003720115113265605,0.009139983358603002
-0.003719945113265605,0.00973242739818515
-0.003719775113265605,0.009962822302467049
