Analysis/New Tests_CMB/wrd01_d2s01/cmb10_ch13.csv

#Digilent WaveForms Oscilloscope Acquisition
#Device Name: ADP3450
#Serial Number: SN:210018B9D9B0
#Date Time: 2024-08-07 11:45:14.118.990.670
#Sample rate: 2.94118e+06Hz
#Samples: 32768
#Trigger: Source: Channel 3 Type: Edge Condition: Rising Level: 0 V Hyst.: Auto HoldOff: 0 s
#Channel 3: Range: 200 mV/div Offset: 0 V Attenuation: 1 X Coupling: DC Bandwidth: 0 Hz Sample Mode: Average

Time (s),Channel 3 (V)
-0.005570538064516129,0.01216803067202238
-0.005570198064516129,0.01276047471160386
-0.005569858064516129,0.01246425269181339
-0.005569518064516129,0.0125300798073225
-0.005569178064516129,0.01220094422977579
-0.005568838064516129,0.01157558663244035
-0.005568498064516129,0.01111479682387655
-0.005568158064516129,0.01104896970836719
-0.005567818064516129,0.01091731547734921
-0.005567478064516129,0.01078566124633098
-0.005567138064516129,0.01095022903510346
-0.005566798064516129,0.01078566124633098
-0.005566458064516129,0.01085148836184009
-0.005566118064516129,0.01104896970836803
-0.005565778064516129,0.011378105285913
-0.005565438064516129,0.01144393240142212
-0.005565098064516129,0.01137810528591247
-0.005564758064516129,0.01108188326612199
-0.005564418064516129,0.01134519172815845
-0.005564078064516129,0.01174015442121223
-0.005563738064516129,0.01124645105489478
-0.005563398064516129,0.01071983413082186
-0.005563058064516129,0.01075274768857636
-0.005562718064516129,0.01039069855327629
-0.005562378064516129,0.01071983413082186
-0.005562038064516129,0.01127936461264832
-0.005561698064516129,0.01170724086345858
-0.005561358064516129,0.01220094422977693
-0.005561018064516129,0.01210220355651344
-0.005560678064516129,0.01180598153672225
-0.005560338064516129,0.0125300798073225
-0.005559998064516129,0.01295795605813097
-0.005559658064516129,0.01355040009771377
-0.005559318064516129,0.01394536279076846
-0.005558978064516129,0.01397827634852295
-0.005558638064516129,0.01420867125280492
-0.005558298064516129,0.01420867125280492
-0.005557958064516129,0.01466946106136788
-0.005557618064516129,0.01447197971484137
-0.005557278064516129,0.01394536279076846
-0.005556938064516129,0.01295795605813354
-0.005556598064516129,0.01216803067202238
-0.005556258064516129,0.01118062393938566
-0.005555918064516129,0.01052235278429572
-0.005555578064516129,0.01078566124633098
-0.005555238064516129,0.0118388950944768
-0.005554898064516129,0.01592017625603446
-0.005554558064516129,0.02694621810381852
-0.005554218064516129,0.04564111890840696
-0.005553878064516129,0.07269606338265289
-0.005553538064516129,0.1053792262329281
-0.005553198064516129,0.1401688567794949
-0.005552858064516129,0.1747280924217799
-0.005552518064516129,0.2051073062292361
-0.005552178064516129,0.2303520050269814
-0.005551838064516129,0.2490139922738153
-0.005551498064516129,0.2614224035472966
-0.005551158064516129,0.268729213368795
-0.005550818064516129,0.2710989895271231
-0.005550478064516129,0.2698482743324414
-0.005550138064516129,0.2651087220157937
-0.005549798064516129,0.2581310477718276
-0.005549458064516129,0.2504951023727565
-0.005549118064516129,0.2428262434159586
-0.005548778064516129,0.2358156556142379
-0.005548438064516129,0.2285088457927138
-0.005548098064516129,0.2216957393375329
-0.005547758064516129,0.2149155464400941
-0.005547418064516129,0.2081024399848889
-0.005547078064516129,0.201552641991744
-0.005546738064516129,0.1951344982296053
-0.005546398064516129,0.1890125764872468
-0.005546058064516129,0.1830223089759283
-0.005545718064516129,0.1770649550223535
-0.005545378064516129,0.1713050824152961
-0.005545038064516129,0.1658743453858041
-0.005544698064516129,0.1605423490295658
-0.005544358064516129,0.1556711424818822
-0.005544018064516129,0.1506353681454441
-0.005543678064516129,0.1451388040004331
-0.005543338064516129,0.1397738940864301
-0.005542998064516129,0.1341785892681656
-0.005542658064516129,0.1289124200274364
-0.005542318064516129,0.1238437321332438
-0.005541978064516129,0.1196966238561605
-0.005541638064516129,0.1159444782721409
-0.005541298064516129,0.1129164309587272
-0.005540958064516129,0.1103491734538662
-0.005540618064516129,0.1070578176784105
-0.005540278064516129,0.1037993754607153
-0.005539938064516129,0.1007713281472901
-0.005539598064516129,0.09754579948734352
-0.005539258064516129,0.09428735726964828
-0.005538918064516129,0.09148970486050501
-0.005538578064516129,0.08882370668238587
-0.005538238064516129,0.08625644917753508
-0.005537898064516129,0.08296509340207472
-0.005537558064516129,0.07980539185763724
-0.005537218064516129,0.07621781406239703
-0.005536878064516129,0.07263023626714379
-0.005536538064516129,0.06910848558740618
-0.005536198064516129,0.0664095738515374
-0.005535858064516129,0.06390814346218615
-0.005535518064516129,0.06213081134344006
-0.005535178064516129,0.06074844191775118
-0.005534838064516129,0.05926733181879359
-0.005534498064516129,0.05801661662412043
-0.005534158064516129,0.05656842008292255
-0.005533818064516129,0.05551518623477408
-0.005533478064516129,0.05413281680908269
-0.005533138064516129,0.05186178132401825
-0.005532798064516129,0.04978822718548115
-0.005532458064516129,0.04814254929775329
-0.005532118064516129,0.04662852564104367
-0.005531778064516129,0.04527906977310683
-0.005531438064516129,0.04481827996454302
-0.005531098064516129,0.04429166304047012
-0.005530758064516129,0.04392961390516999
-0.005530418064516129,0.04337008342334251
-0.005530078064516129,0.04313968851906062
-0.005529738064516129,0.04261307159498698
-0.005529398064516129,0.04221810890193301
-0.005529058064516129,0.0410003072650144
-0.005528718064516129,0.03951919716605748
-0.005528378064516129,0.03849887687566806
-0.005528038064516129,0.03708359389222211
-0.005527698064516129,0.03547082956224605
-0.005527358064516129,0.03395680590553918
-0.005527018064516129,0.03326562119269348
-0.005526678064516129,0.03217947378679142
-0.005526338064516129,0.0312578941696655
-0.005525998064516129,0.03092875859211993
-0.005525658064516129,0.03092875859211927
-0.005525318064516129,0.0305667094568198
-0.005524978064516129,0.03106041282313815
-0.005524638064516129,0.03089584503436447
-0.005524298064516129,0.03040214166804701
-0.005523958064516129,0.03000717897499233
-0.005523618064516129,0.02928308070438902
-0.005523278064516129,0.02760448925890966
-0.005522938064516129,0.02579424358240902
-0.005522598064516129,0.02441187415671576
-0.005522258064516129,0.02339155386632635
-0.005521918064516129,0.02312824540428989
-0.005521578064516129,0.02306241828878048
-0.005521238064516129,0.02289785050000799
-0.005520898064516129,0.02260162848021698
-0.005520558064516129,0.02207501155614502
-0.005520218064516129,0.01977106251332507
-0.005519878064516129,0.0187507422229338
-0.005519538064516129,0.01812538462559835
-0.005519198064516129,0.0175987677015243
-0.005518858064516129,0.0169075829886786
-0.005518518064516129,0.01671010164215162
-0.005518178064516129,0.01687466943092404
-0.005517838064516129,0.01753294058601518
-0.005517498064516129,0.01845452020314111
-0.005517158064516129,0.01927735914700671
-0.005516818064516129,0.02052807434167988
-0.005516478064516129,0.02168004886308728
-0.005516138064516129,0.02246997424919875
-0.005515798064516129,0.02266745559572609
-0.005515458064516129,0.02312824540428905
-0.005515118064516129,0.02187753020961672
-0.005514778064516129,0.01983688962883418
-0.005514438064516129,0.01809247106784583
-0.005514098064516129,0.01684175587316948
-0.005513758064516129,0.01582143558277821
-0.005513418064516129,0.01542647288972425
-0.005513078064516129,0.01562395423625087
-0.005512738064516129,0.01601891692930556
-0.005512398064516129,0.01568978135175999
-0.005512058064516129,0.01572269490951454
-0.005511718064516129,0.01542647288972353
-0.005511378064516129,0.0155252135629872
-0.005511038064516129,0.0152948186587053
-0.005510698064516129,0.01513025086993251
-0.005510358064516129,0.01532773221645986
-0.005510018064516129,0.01545938644747809
-0.005509678064516129,0.01555812712074176
-0.005509338064516129,0.0155252135629872
-0.005508998064516129,0.01565686779400567
-0.005508658064516129,0.01578852202502366
-0.005508318064516129,0.0162163982758329
-0.005507978064516129,0.01667718808439634
-0.005507638064516129,0.01647970673786936
-0.005507298064516129,0.01611765760256923
-0.005506958064516129,0.01539355933196742
-0.005506618064516129,0.01453780683035049
-0.005506278064516129,0.01404410346403213
-0.005505938064516129,0.01351748653995844
-0.005505598064516129,0.01308961028914997
-0.005505258064516129,0.01213511711426782
-0.005504918064516129,0.0119047222099849
-0.005504578064516129,0.01134519172815845
-0.005504238064516129,0.01124645105489478
-0.005503898064516129,0.01104896970836707
-0.005503558064516129,0.01085148836184009
-0.005503218064516129,0.01134519172815845
-0.005502878064516129,0.01226677134528778
-0.005502538064516129,0.0132212645201682
-0.005502198064516129,0.01407701702178669
-0.005501858064516129,0.01506442375442412
-0.005501518064516129,0.01545938644747809
-0.005501178064516129,0.01578852202502366
-0.005500838064516129,0.01565686779400357
-0.005500498064516129,0.01463654750361416
-0.005500158064516129,0.01364914077097745
-0.005499818064516129,0.01325417807792348
-0.005499478064516129,0.01338583230894099
-0.005499138064516129,0.0134516594244501
-0.005498798064516129,0.01299086961588714
-0.005498458064516129,0.0129908696158863
-0.005498118064516129,0.01289212894262263
-0.005497778064516129,0.0133200051934311
-0.005497438064516129,0.0134516594244501
-0.005497098064516129,0.013682054328732
-0.005496758064516129,0.01361622721322301
-0.005496418064516129,0.0139124492330139
-0.005496078064516129,0.01374788144424112
-0.005495738064516129,0.0127933882693607
-0.005495398064516129,0.01223385778753149
-0.005495058064516129,0.01154267307468579
-0.005494718064516129,0.01085148836184135
-0.005494378064516129,0.01002864941797616
-0.005494038064516129,0.009370378262885021
-0.005493698064516129,0.008481712203513595
-0.005493358064516129,0.007856354606175394
-0.005493018064516129,0.008350057972493751
-0.005492678064516129,0.009699513840428138
-0.005492338064516129,0.01068692057306731
-0.005491998064516129,0.01210220355651326
-0.005491658064516129,0.01276047471160321
-0.005491318064516129,0.01315543740465909
-0.005490978064516129,0.01381370855975023
-0.005490638064516129,0.01450489327259593
-0.005490298064516129,0.01470237461912327
-0.005489958064516129,0.01476820173463239
-0.005489618064516129,0.01434032548382314
-0.005489278064516129,0.01351748653995922
-0.005488938064516129,0.01312252384690453
-0.005488598064516129,0.0127604747116044
-0.005488258064516129,0.01292504250037761
-0.005487918064516129,0.01315543740465909
-0.005487578064516129,0.01328709163567732
-0.005487238064516129,0.01335291875118643
-0.005486898064516129,0.01335291875118643
-0.005486558064516129,0.01332000519343187
-0.005486218064516129,0.01368205432873428
-0.005485878064516129,0.01493276952340517
-0.005485538064516129,0.01601891692930556
-0.005485198064516129,0.01624931183358751
-0.005484858064516129,0.01628222539134202
-0.005484518064516129,0.0164467931801148
-0.005484178064516129,0.01601891692930484
-0.005483838064516129,0.01562395423625087
-0.005483498064516129,0.01549230000523264
-0.005483158064516129,0.01509733731217754
-0.005482818064516129,0.01486694240789606
-0.005482478064516129,0.01420867125280492
-0.005482138064516129,0.01335291875118607
-0.005481798064516129,0.01315543740465909
-0.005481458064516129,0.01374788144424112
-0.005481118064516129,0.01417575769505072
-0.005480778064516129,0.0143732390415777
-0.005480438064516129,0.01447197971484137
-0.005480098064516129,0.01489985596564912
-0.005479758064516129,0.01407701702178669
-0.005479418064516129,0.01348457298220466
-0.005479078064516129,0.01276047471160572
-0.005478738064516129,0.01266173403834073
-0.005478398064516129,0.01213511711426782
-0.005478058064516129,0.01223385778753131
-0.005477718064516129,0.01203637644100415
-0.005477378064516129,0.01226677134528605
-0.005477038064516129,0.01193763576774107
-0.005476698064516129,0.01226677134528605
-0.005476358064516129,0.01220094422977693
-0.005476018064516129,0.01266173403833989
-0.005475678064516129,0.01249716624956795
-0.005475338064516129,0.01259590692283162
-0.005474998064516129,0.01289212894262209
-0.005474658064516129,0.01355040009771377
-0.005474318064516129,0.01397827634852302
-0.005473978064516129,0.01417575769505
-0.005473638064516129,0.0143732390415777
-0.005473298064516129,0.01420867125280492
-0.005472958064516129,0.013155437404661
-0.005472618064516129,0.01213511711426782
-0.005472278064516129,0.01058817989980363
-0.005471938064516129,0.009962822302468187
-0.005471598064516129,0.009567859609412364
-0.005471258064516129,0.009469118936148692
-0.005470918064516129,0.01032487143776562
-0.005470578064516129,0.01035778499552173
-0.005470238064516129,0.01025904432225806
-0.005469898064516129,0.009765340955939707
-0.005469558064516129,0.009995735860221606
-0.005469218064516129,0.009798254513694264
-0.005468878064516129,0.009666600282676035
-0.005468538064516129,0.009370378262885021
-0.005468198064516129,0.008843761338812107
-0.005467858064516129,0.008613366434530208
-0.005467518064516129,0.008876674896566664
-0.005467178064516129,0.00973242739818515
-0.005466838064516129,0.011378105285913
-0.005466498064516129,0.01318835096241694
-0.005466158064516129,0.01499859663891429
-0.005465818064516129,0.0155252135629872
-0.005465478064516129,0.01565686779400561
-0.005465138064516129,0.0157556084672691
-0.005464798064516129,0.01532773221645986
-0.005464458064516129,0.01420867125280348
-0.005464118064516129,0.01341874586669555
-0.005463778064516129,0.01249716624956795
-0.005463438064516129,0.01216803067202244
-0.005463098064516129,0.01220094422977693
-0.005462758064516129,0.01259590692283162
-0.005462418064516129,0.01325417807792348
-0.005462078064516129,0.01364914077097745
-0.005461738064516129,0.01443906615708682
-0.005461398064516129,0.01503151019667004
-0.005461058064516129,0.01568978135175999
-0.005460718064516129,0.0155252135629872
-0.005460378064516129,0.01608474404481449
-0.005460038064516129,0.015986003371551
-0.005459698064516129,0.01588726269828733
-0.005459358064516129,0.01611765760256863
-0.005459018064516129,0.01578852202502366
-0.005458678064516129,0.01565686779400543
-0.005458338064516129,0.01542647288972227
-0.005457998064516129,0.01473528817687783
-0.005457658064516129,0.01394536279076846
-0.005457318064516129,0.01338583230894201
-0.005456978064516129,0.01285921538486808
-0.005456638064516129,0.01203637644100415
-0.005456298064516129,0.01111479682387822
-0.005455958064516129,0.01068692057306731
-0.005455618064516129,0.01042361211103085
-0.005455278064516129,0.01065400701531233
-0.005454938064516129,0.01131227817040389
-0.005454598064516129,0.01226677134528605
-0.005454258064516129,0.01364914077097493
-0.005453918064516129,0.01473528817687783
-0.005453578064516129,0.0148340288501415
-0.005453238064516129,0.01480111529238701
-0.005452898064516129,0.01355040009771377
-0.005452558064516129,0.01223385778753149
-0.005452218064516129,0.01147684595917805
-0.005451878064516129,0.011378105285913
-0.005451538064516129,0.01190472220998592
-0.005451198064516129,0.01282630182711184
-0.005450858064516129,0.01387953567525935
-0.005450518064516129,0.01387953567525935
-0.005450178064516129,0.01305669673139691
-0.005449838064516129,0.01157558663244035
-0.005449498064516129,0.009896995186957936
-0.005449158064516129,0.008514625761269053
-0.005448818064516129,0.007955095279439066
-0.005448478064516129,0.008086749510457293
-0.005448138064516129,0.008679193550039321
-0.005447798064516129,0.00973242739818515
-0.005447458064516129,0.01081857480408553
-0.005447118064516129,0.01190472220998592
-0.005446778064516129,0.01312252384690453
-0.005446438064516129,0.01384662211750479
-0.005446098064516129,0.01374788144424112
-0.005445758064516129,0.0132541780779218
-0.005445418064516129,0.01272756115384985
-0.005445078064516129,0.01246425269181339
-0.005444738064516129,0.01174015442121235
-0.005444398064516129,0.01131227817040389
-0.005444058064516129,0.01111479682387655
-0.005443718064516129,0.01131227817040389
-0.005443378064516129,0.01131227817040389
-0.005443038064516129,0.01157558663244035
-0.005442698064516129,0.01065400701531233
-0.005442358064516129,0.01042361211103085
-0.005442018064516129,0.01055526634204908
-0.005441678064516129,0.0111806239393865
-0.005441338064516129,0.01164141374794946
-0.005440998064516129,0.01167432730570402
-0.005440658064516129,0.01131227817040227
-0.005440318064516129,0.01042361211103085
-0.005439978064516129,0.00973242739818515
-0.005439638064516129,0.009107069800847608
-0.005439298064516129,0.008580452876775651
-0.005438958064516129,0.008745020665548437
-0.005438618064516129,0.008712107107794119
-0.005438278064516129,0.008843761338812107
-0.005437938064516129,0.00950203249390325
-0.005437598064516129,0.01002864941797562
-0.005437258064516129,0.00973242739818515
-0.005436918064516129,0.009534946051657807
-0.005436578064516129,0.009337464705130824
-0.005436238064516129,0.009436205378394135
-0.005435898064516129,0.009929908744712493
-0.005435558064516129,0.01025904432225746
-0.005435218064516129,0.01085148836184009
-0.005434878064516129,0.01180598153672225
-0.005434538064516129,0.01229968490303971
-0.005434198064516129,0.01262882048058617
-0.005433858064516129,0.01318835096241365
-0.005433518064516129,0.01332000519343163
-0.005433178064516129,0.01282630182711352
-0.005432838064516129,0.008975415569830336
-0.005432498064516129,0.0003191498803975634
-0.005432158064516129,-0.01531479005303281
-0.005431818064516129,-0.03930877365610494
-0.005431478064516129,-0.06981964169452388
-0.005431138064516129,-0.1039180875283005
-0.005430798064516129,-0.1390039400946584
-0.005430458064516129,-0.1710946589052932
-0.005430118064516129,-0.1982154304951066
-0.005429778064516129,-0.2189509718804776
-0.005429438064516129,-0.2333012830614384
-0.005429098064516129,-0.2409701420182764
-0.005428758064516129,-0.2428791283680407
-0.005428418064516129,-0.2412663640380703
-0.005428078064516129,-0.2369876015299749
-0.005427738064516129,-0.2311619018074183
-0.005427398064516129,-0.2240196597746794
-0.005427058064516129,-0.2161533194713403
-0.005426718064516129,-0.2087806825343195
-0.005426378064516129,-0.2017042676170897
-0.005426038064516129,-0.1942987171223144
-0.005425698064516129,-0.1873539564361028
-0.005425358064516129,-0.180277541518873
-0.005425018064516129,-0.1729378181396068
-0.005424678064516129,-0.1656968354336043
-0.005424338064516129,-0.1588179018629018
-0.005423998064516129,-0.1521035360809611
-0.005423658064516129,-0.1460145278963791
-0.005423318064516129,-0.140517963751368
-0.005422978064516129,-0.1357784114347036
-0.005422638064516129,-0.1312363404645829
-0.005422298064516129,-0.127517108438318
-0.005421958064516129,-0.1231725188147091
-0.005421618064516129,-0.1191570647686605
-0.005421278064516129,-0.1149112158183226
-0.005420938064516129,-0.1102374906171663
-0.005420598064516129,-0.1052017162807283
-0.005420258064516129,-0.09993554703999913
-0.005419918064516129,-0.09522890828108943
-0.005419578064516129,-0.09081849154198682
-0.005419238064516129,-0.08627642057185794
-0.005418898064516129,-0.08245844787232279
-0.005418558064516129,-0.07887087007708257
-0.005418218064516129,-0.07554660074387232
-0.005417878064516129,-0.0716298873710744
-0.005417538064516129,-0.06853601294215164
-0.005417198064516129,-0.06537631139771416
-0.005416858064516129,-0.06251283187306189
-0.005416518064516129,-0.05932021677087566
-0.005416178064516129,-0.05678587282377476
-0.005415838064516129,-0.05471231868523366
-0.005415498064516129,-0.05250711031568234
-0.005415158064516129,-0.05033481550388157
-0.005414818064516129,-0.04901827319370168
-0.005414478064516129,-0.04799795290330802
-0.005414138064516129,-0.04737259530597143
-0.005413798064516129,-0.04589148520701906
-0.005413458064516129,-0.04417998020377939
-0.005413118064516129,-0.04230390741176963
-0.005412778064516129,-0.04049366173527229
-0.005412438064516129,-0.03884798384754114
-0.005412098064516129,-0.0370377381710405
