Analysis/New Tests_CMB/wrd01_d2s01/cmb14_ch38.csv

#Digilent WaveForms Oscilloscope Acquisition
#Device Name: ADP3450
#Serial Number: SN:210018B9D9B0
#Date Time: 2024-08-06 17:36:20.707.769.930
#Sample rate: 2.94118e+06Hz
#Samples: 32768
#Trigger: Source: Channel 3 Type: Edge Condition: Rising Level: 60 mV Hyst.: Auto HoldOff: 0 s
#Channel 3: Range: 200 mV/div Offset: -20 mV Attenuation: 1 X Coupling: DC Bandwidth: 0 Hz Sample Mode: Average

Time (s),Channel 3 (V)
-0.005570352163009405,0.0107566447460661
-0.005570012163009405,0.01105286676585663
-0.005569672163009405,0.01078955830382065
-0.005569332163009405,0.01013128714872951
-0.005568992163009405,0.009966719359956305
-0.005568652163009405,0.009736324455674824
-0.005568312163009405,0.009078053300583682
-0.005567972163009405,0.007728597432645644
-0.005567632163009405,0.007070326277555699
-0.005567292163009405,0.006412055122464556
-0.005566952163009405,0.005984178871655673
-0.005566612163009405,0.006181660218182656
-0.005566272163009405,0.0068399313732738
-0.005565932163009405,0.006807017815519361
-0.005565592163009405,0.006872844931028356
-0.005565252163009405,0.006510795795728228
-0.005564912163009405,0.006280400891446149
-0.005564572163009405,0.006181660218182656
-0.005564232163009405,0.006510795795728228
-0.005563892163009405,0.006938672046537769
-0.005563552163009405,0.007103239835310256
-0.005563212163009405,0.006412055122464556
-0.005562872163009405,0.005951265313901595
-0.005562532163009405,0.005655043294109744
-0.005562192163009405,0.004601809445963915
-0.005561852163009405,0.004009365406382965
-0.005561512163009405,0.003153612904763403
-0.005561172163009405,0.002989045115990616
-0.005560832163009405,0.001869984152337712
-0.005560492163009405,0.0002572198223623791
-0.005560152163009405,-0.0008947546990471199
-0.005559812163009405,-0.001849247873927542
-0.005559472163009405,-0.002639173260038648
-0.005559132163009405,-0.003330357972884349
-0.005558792163009405,-0.003198703741866357
-0.005558452163009405,-0.002310037682493077
-0.005558112163009405,-0.001388458065365479
-0.005557772163009405,0.0001913927068503882
-0.005557432163009405,0.00114588588173542
-0.005557092163009405,0.002232033287635805
-0.005556752163009405,0.002264946845390302
-0.005556412163009405,0.001244626554999091
-0.005556072163009405,5.973847583503472e-05
-0.005555732163009405,-0.001158063161081363
-0.005555392163009405,-0.002244210566983963
-0.005555052163009405,-0.002540432586774978
-0.005554712163009405,-0.002606259702283972
-0.005554372163009405,-0.002145469893720293
-0.005554032163009405,-0.001947988547192948
-0.005553692163009405,-0.00158593941189282
-0.005553352163009405,-0.001355544507610922
-0.005553012163009405,-0.001092236045574464
-0.005552672163009405,-0.001289717392101805
-0.005552332163009405,-0.0008947546990471199
-0.005551992163009405,-0.000697273352519779
-0.005551652163009405,-0.0003352242172196505
-0.005551312163009405,-7.191575518421032e-05
-0.005550972163009405,-0.0006314462370106654
-0.005550632163009405,-0.00148719873862915
-0.005550292163009405,-0.002079642778212612
-0.005549952163009405,-0.002869568164320546
-0.005549612163009405,-0.002803741048811433
-0.005549272163009405,-0.002770827491055738
-0.005548932163009405,-0.002145469893720293
-0.005548592163009405,-0.001223890276592692
-0.005548252163009405,-0.0004339648904825427
-0.005547912163009405,-6.088639674078911e-06
-0.005547572163009405,0.000191392706853262
-0.005547232163009405,-0.0004010513327305004
-0.005546892163009405,-0.001355544507610922
-0.005546552163009405,-0.00217838345147485
-0.005546212163009405,-0.002408778355757645
-0.005545872163009405,-0.002902481722075106
-0.005545532163009405,-0.002112556335965736
-0.005545192163009405,-0.001190976718836877
-0.005544852163009405,-0.0004997920059924346
-0.005544512163009405,0.0002572198223623791
-0.005544172163009405,5.973847583491498e-05
-0.005543832163009405,-6.088639674078911e-06
-0.005543492163009405,-0.0006643597947652222
-0.005543152163009405,-0.001322630949857802
-0.005542812163009405,-0.002112556335965736
-0.005542472163009405,-0.002770827491056876
-0.005542132163009405,-0.003231617299619836
-0.005541792163009405,-0.003725320665939034
-0.005541452163009405,-0.004844381629593972
-0.005541112163009405,-0.005107690091629952
-0.005540772163009405,-0.005634307015703346
-0.005540432163009405,-0.005074776533875874
-0.005540092163009405,-0.004548159609803919
-0.005539752163009405,-0.003725320665939034
-0.005539412163009405,-0.00362657999267536
-0.005539072163009405,-0.003725320665938854
-0.005538732163009405,-0.004153196916748276
-0.005538392163009405,-0.004778554514084859
-0.005538052163009405,-0.00491020874510285
-0.005537712163009405,-0.00510769009163043
-0.005537372163009405,-0.005173517207139544
-0.005537032163009405,-0.004778554514085577
-0.005536692163009405,-0.00500894941836676
-0.005536352163009405,-0.005239344322648658
-0.005536012163009405,-0.004976035860612682
-0.005535672163009405,-0.004548159609802961
-0.005535332163009405,-0.003462012203902576
-0.005534992163009405,-0.002375864798004166
-0.005534652163009405,0.0002243062646078188
-0.005534312163009405,0.002199119729881245
-0.005533972163009405,0.003087785789252673
-0.005533632163009405,0.003713143386590873
-0.005533292163009405,0.004009365406381887
-0.005532952163009405,0.003219440020272517
-0.005532612163009405,0.002001638383353904
-0.005532272163009405,0.0006192689576625041
-0.005531932163009405,-0.001158063161083578
-0.005531592163009405,-0.00227712412473852
-0.005531252163009405,-0.003725320665939034
-0.005530912163009405,-0.005041862976121317
-0.005530572163009405,-0.005864701919985244
-0.005530232163009405,-0.006259664613039929
-0.005529892163009405,-0.006457145959567274
-0.005529552163009405,-0.006325491728548026
-0.005529212163009405,-0.005765961246721574
-0.005528872163009405,-0.004745640956330302
-0.005528532163009405,-0.003692407108183339
-0.005528192163009405,-0.003067049510847891
-0.005527852163009405,-0.002803741048811433
-0.005527512163009405,-0.002606259702283673
-0.005527172163009405,-0.00237586479800219
-0.005526832163009405,-0.00237586479800219
-0.005526492163009405,-0.002869568164320905
-0.005526152163009405,-0.003067049510847891
-0.005525812163009405,-0.003198703741866118
-0.005525472163009405,-0.003725320665938914
-0.005525132163009405,-0.003659493550429917
-0.005524792163009405,-0.003231617299620675
-0.005524452163009405,-0.003132876626356825
-0.005524112163009405,-0.003034135953093334
-0.005523772163009405,-0.003099963068602447
-0.005523432163009405,-0.002902481722075645
-0.005523092163009405,-0.003198703741866118
-0.005522752163009405,-0.003692407108184477
-0.005522412163009405,-0.004087369801239701
-0.005522072163009405,-0.004383591821030174
-0.005521732163009405,-0.00510769009163043
-0.005521392163009405,-0.004646900283065254
-0.005521052163009405,-0.003889888454711818
-0.005520712163009405,-0.003231617299620675
-0.005520372163009405,-0.00224421056698576
-0.005520032163009405,-0.001651766527401934
-0.005519692163009405,-0.001059322487819907
-0.005519352163009405,-0.0003681377749754646
-0.005519012163009405,-0.0002035699862014233
-0.005518672163009405,-0.0002693971017105369
-0.005518332163009405,-0.0009934953723094767
-0.005517992163009405,-0.001092236045574464
-0.005517652163009405,-0.0009276682568016767
-0.005517312163009405,-0.0009605818145561771
-0.005516972163009405,-0.001158063161083578
-0.005516632163009405,-0.0009934953723107938
-0.005516292163009405,-0.0008289275835383056
-0.005515952163009405,-0.001618852969647377
-0.005515612163009405,-0.002211297009229406
-0.005515272163009405,-0.003132876626355328
-0.005514932163009405,-0.004613986725312075
-0.005514592163009405,-0.005601393457948786
-0.005514252163009405,-0.006160923939775242
-0.005513912163009405,-0.006292578170794486
-0.005513572163009405,-0.005864701919985244
-0.005513232163009405,-0.005305171438158792
-0.005512892163009405,-0.00441650537878473
-0.005512552163009405,-0.003824061339202704
-0.005512212163009405,-0.003659493550429917
-0.005511872163009405,-0.003363271530638905
-0.005511532163009405,-0.003692407108184477
-0.005511192163009405,-0.003758234223693591
-0.005510852163009405,-0.004284851147766503
-0.005510512163009405,-0.005173517207139544
-0.005510172163009405,-0.005864701919985244
-0.005509832163009405,-0.006226751055285373
-0.005509492163009405,-0.007247071345676644
-0.005509152163009405,-0.007609120480976773
-0.005508812163009405,-0.007674947596484869
-0.005508472163009405,-0.007115417114658414
-0.005508132163009405,-0.006325491728549043
-0.005507792163009405,-0.005568479900193511
-0.005507452163009405,-0.005173517207139544
-0.005507112163009405,-0.004383591821030174
-0.005506772163009405,-0.003922802012465477
-0.005506432163009405,-0.003429098646148019
-0.005506092163009405,-0.002507519029020421
-0.005505752163009405,-0.001717593642909674
-0.005505412163009405,-0.000960581814556237
-0.005505072163009405,-0.0002035699862014233
-0.005504732163009405,9.265203359090867e-05
-0.005504392163009405,0.0008167503041898484
-0.005504052163009405,0.0006192689576625041
-0.005503712163009405,-0.0007301869102768503
-0.005503372163009405,-0.002112556335965736
-0.005503032163009405,-0.00362657999267536
-0.005502692163009405,-0.004811468071840973
-0.005502352163009405,-0.005667220573457903
-0.005502012163009405,-0.005963442593248915
-0.005501672163009405,-0.005436825669174445
-0.005501332163009405,-0.004581073167557518
-0.005500992163009405,-0.002935395279829663
-0.005500652163009405,-0.002639173260035835
-0.005500312163009405,-0.001092236045574464
-0.005499972163009405,-0.001026408930065351
-0.005499632163009405,-0.0009276682568018563
-0.005499292163009405,-0.0004010513327287642
-0.005498952163009405,-0.0005327055637469914
-0.005498612163009405,-0.0004339648904835006
-0.005498272163009405,-0.0004010513327287642
-0.005497932163009405,-0.0009276682568016767
-0.005497592163009405,-0.001651766527400616
-0.005497252163009405,-0.001322630949856365
-0.005496912163009405,-0.0005656191215015517
-0.005496572163009405,9.265203358839414e-05
-0.005496232163009405,0.001178799439489977
-0.005495892163009405,0.00104714520847175
-0.005495552163009405,0.00104714520847175
-0.005495212163009405,0.0006850960731716212
-0.005494872163009405,-0.001256803834347248
-0.005494532163009405,-0.0018492478739282
-0.005494192163009405,-0.003429098646148019
-0.005493852163009405,-0.005535566342439673
-0.005493512163009405,-0.007016676441392049
-0.005493172163009405,-0.007181244230167527
-0.005492832163009405,-0.006555886632830944
-0.005492492163009405,-0.006259664613040468
-0.005492152163009405,-0.005239344322648658
-0.005491812163009405,-0.004383591821030174
-0.005491472163009405,-0.003264530857377267
-0.005491132163009405,-0.002408778355756747
-0.005490792163009405,-0.001783420758420164
-0.005490452163009405,-0.002211297009229406
-0.005490112163009405,-0.001454285180874593
-0.005489772163009405,-0.0009934953723107938
-0.005489432163009405,-0.0004668784482378778
-0.005489092163009405,0.0002572198223623791
-0.005488752163009405,0.0002243062646078188
-0.005488412163009405,9.265203358959154e-05
-0.005488072163009405,0.0002572198223621995
-0.005487732163009405,0.0001584791490987052
-0.005487392163009405,-0.0004997920059924346
-0.005487052163009405,-0.001487198738629209
-0.005486712163009405,-0.001520112296383706
-0.005486372163009405,-0.001849247873929278
-0.005486032163009405,-0.001980902104947386
-0.005485692163009405,-0.001915074989438392
-0.005485352163009405,-0.002244210566983963
-0.005485012163009405,-0.002606259702285229
-0.005484672163009405,-0.003231617299620675
-0.005484332163009405,-0.003692407108184477
-0.005483992163009405,-0.003725320665937896
-0.005483652163009405,-0.003099963068602447
-0.005483312163009405,-0.002342951240247634
-0.005482972163009405,-0.001651766527400137
-0.005482632163009405,-0.0006643597947652222
-0.005482292163009405,-0.0002693971017105369
-0.005481952163009405,-6.088639673480217e-06
-0.005481612163009405,0.0003230469378714927
-0.005481272163009405,0.0002572198223623791
-0.005480932163009405,-0.0006314462370126411
-0.005480592163009405,-0.001717593642911051
-0.005480252163009405,-0.002737913933302319
-0.005479912163009405,-0.003494925761657671
-0.005479572163009405,-0.003791147781448147
-0.005479232163009405,-0.005798874804476131
-0.005478892163009405,-0.009748501735015798
-0.005478552163009405,-0.0190959521373172
-0.005478212163009405,-0.03571729880336854
-0.005477872163009405,-0.06066577558127744
-0.005477532163009405,-0.09199948256366119
-0.005477192163009405,-0.1271182486877736
-0.005476852163009405,-0.1618420521187682
-0.005476512163009405,-0.1936365489097336
-0.005476172163009405,-0.2200990493443975
-0.005475832163009405,-0.2396167890928143
-0.005475492163009405,-0.2529467799834454
-0.005475152163009405,-0.2599573677851661
-0.005474812163009405,-0.2627221066365439
-0.005474472163009405,-0.2608460338445391
-0.005474132163009405,-0.2573901102803107
-0.005473792163009405,-0.2519264596930641
-0.005473452163009405,-0.2453108345843882
-0.005473112163009405,-0.2377736298585946
-0.005472772163009405,-0.2299072895552698
-0.005472432163009405,-0.2229296153112894
-0.005472092163009405,-0.2147341394304046
-0.005471752163009405,-0.2070323669158523
-0.005471412163009405,-0.1990014588237264
-0.005471072163009405,-0.1910692914048781
-0.005470732163009405,-0.1834991731213437
-0.005470392163009405,-0.1771468564747004
-0.005470052163009405,-0.1716173787719348
-0.005469712163009405,-0.1660220739536601
-0.005469372163009405,-0.1606242504819128
-0.005469032163009405,-0.1548643778748653
-0.005468692163009405,-0.1496311221918907
-0.005468352163009405,-0.1447599156442163
-0.005468012163009405,-0.1397899684232781
-0.005467672163009405,-0.1347212805290763
-0.005467332163009405,-0.1298500739814019
-0.005466992163009405,-0.1254396572422912
-0.005466652163009405,-0.1214571167539898
-0.005466312163009405,-0.1169150457838531
-0.005465972163009405,-0.112603369718014
-0.005465632163009405,-0.1083575207676761
-0.005465292163009405,-0.104572461625895
-0.005464952163009405,-0.1007215753686188
-0.005464612163009405,-0.09726565180439034
-0.005464272163009405,-0.09407303670219357
-0.005463932163009405,-0.09147286563958829
-0.005463592163009405,-0.08893852169248739
-0.005463252163009405,-0.08604212861008091
-0.005462912163009405,-0.08304699485442166
-0.005462572163009405,-0.08021642888752975
-0.005462232163009405,-0.07722129513186025
-0.005461892163009405,-0.0745882105115005
-0.005461552163009405,-0.07238300214194515
-0.005461212163009405,-0.06978283107932957
-0.005460872163009405,-0.06672187020816134
-0.005460532163009405,-0.0644508347230969
-0.005460192163009405,-0.06211397212251825
-0.005459852163009405,-0.05931631971338599
-0.005459512163009405,-0.05697945711281243
-0.005459172163009405,-0.0546096809544802
-0.005458832163009405,-0.05233864546941987
-0.005458492163009405,-0.05069296758169203
-0.005458152163009405,-0.04921185748273372
-0.005457812163009405,-0.04743452536399088
-0.005457472163009405,-0.04578884747626302
-0.005457132163009405,-0.04381403401099319
-0.005456792163009405,-0.04160882564143426
-0.005456452163009405,-0.04111512227511591
-0.005456112163009405,-0.03907448169433708
-0.005455772163009405,-0.03798833428843298
-0.005455432163009405,-0.03749463092211462
-0.005455092163009405,-0.0366717919782522
-0.005454752163009405,-0.03630974284295057
-0.005454412163009405,-0.03548690389908664
-0.005454072163009405,-0.03430201581992474
-0.005453732163009405,-0.03311712774075853
-0.005453392163009405,-0.03150436341078523
-0.005453052163009405,-0.02952954994551539
-0.005452712163009405,-0.02811426696206585
-0.005452372163009405,-0.02715977378718369
-0.005452032163009405,-0.02653441618984825
-0.005451692163009405,-0.02660024330535622
-0.005451352163009405,-0.02633693484331977
-0.005451012163009405,-0.02604071282352929
-0.005450672163009405,-0.02538244166843761
-0.005450332163009405,-0.02475708407110103
-0.005449992163009405,-0.02347345531867564
-0.005449652163009405,-0.02192651810420911
-0.005449312163009405,-0.0207087164672905
-0.005448972163009405,-0.01909595213732013
-0.005448632163009405,-0.01820728607794416
-0.005448292163009405,-0.017252792903062
-0.005447952163009405,-0.01695657088327099
-0.005447612163009405,-0.01626538617042529
-0.005447272163009405,-0.01560711501533415
-0.005446932163009405,-0.01465262184045199
-0.005446592163009405,-0.01350064731904249
-0.005446252163009405,-0.01290820327946047
-0.005445912163009405,-0.01254615414416034
-0.005445572163009405,-0.01264489481742383
-0.005445232163009405,-0.01254615414416034
-0.005444892163009405,-0.01310568462598781
-0.005444552163009405,-0.01330316597251587
-0.005444212163009405,-0.01369812866556984
-0.005443872163009405,-0.01406017780086997
-0.005443532163009405,-0.01392852356985102
-0.005443192163009405,-0.01353356087679705
-0.005442852163009405,-0.01343482020353338
-0.005442512163009405,-0.0131715117414971
-0.005442172163009405,-0.01327025241476059
-0.005441832163009405,-0.01271072193293312
-0.005441492163009405,-0.01244741347089691
-0.005441152163009405,-0.01257906770191489
-0.005440812163009405,-0.01201953722008742
-0.005440472163009405,-0.01076882202541204
-0.005440132163009405,-0.009551020388495642
-0.005439792163009405,-0.008333218751577026
-0.005439452163009405,-0.007279984903428627
-0.005439112163009405,-0.005864701919985244
-0.005438772163009405,-0.005469739226930559
-0.005438432163009405,-0.004844381629593673
-0.005438092163009405,-0.004679813840821188
-0.005437752163009405,-0.00421902403225739
-0.005437412163009405,-0.004021542685730404
-0.005437072163009405,-0.00421902403225739
-0.005436732163009405,-0.004811468071839416
-0.005436392163009405,-0.00527225788040238
-0.005436052163009405,-0.004976035860612203
-0.005435712163009405,-0.005041862976121317
-0.005435372163009405,-0.005469739226929781
-0.005435032163009405,-0.006095096824267145
-0.005434692163009405,-0.006852108652621959
-0.005434352163009405,-0.007444552692202908
-0.005434012163009405,-0.007872428943013227
-0.005433672163009405,-0.008596527213613484
-0.005433332163009405,-0.009156057695439935
-0.005432992163009405,-0.009551020388495642
-0.005432652163009405,-0.009583933946250199
-0.005432312163009405,-0.00922188481095073
-0.005431972163009405,-0.008464872982595257
-0.005431632163009405,-0.007707861154240443
-0.005431292163009405,-0.006852108652623516
-0.005430952163009405,-0.006522973075076387
-0.005430612163009405,-0.006522973075076387
-0.005430272163009405,-0.005930529035495435
-0.005429932163009405,-0.005864701919985244
-0.005429592163009405,-0.005601393457948786
-0.005429252163009405,-0.005239344322649316
-0.005428912163009405,-0.005239344322648658
-0.005428572163009405,-0.004679813840821188
-0.005428232163009405,-0.004449418936539706
-0.005427892163009405,-0.004646900283066632
-0.005427552163009405,-0.00441650537878473
-0.005427212163009405,-0.003692407108184477
-0.005426872163009405,-0.003462012203902576
-0.005426532163009405,-0.003264530857375231
-0.005426192163009405,-0.003264530857375231
-0.005425852163009405,-0.003593666434920803
-0.005425512163009405,-0.003396185088393462
-0.005425172163009405,-0.003494925761657133
-0.005424832163009405,-0.003165790184111561
-0.005424492163009405,-0.003099963068602447
-0.005424152163009405,-0.003034135953093334
-0.005423812163009405,-0.003527839319412108
-0.005423472163009405,-0.003758234223693591
-0.005423132163009405,-0.003988629127975488
-0.005422792163009405,-0.00474564095633156
-0.005422452163009405,-0.005436825669176002
-0.005422112163009405,-0.005634307015703346
-0.005421772163009405,-0.006062183266512229
-0.005421432163009405,-0.005864701919985244
-0.005421092163009405,-0.00570013413121246
-0.005420752163009405,-0.004844381629592475
-0.005420412163009405,-0.004021542685730045
-0.005420072163009405,-0.002507519029020421
-0.005419732163009405,-0.001322630949854809
-0.005419392163009405,-0.0004668784482378778
-0.005419052163009405,2.682491808047791e-05
-0.005418712163009405,0.000257219822361481
-0.005418372163009405,-0.0002364835439559801
-0.005418032163009405,-0.0005327055637469914
