Analysis/New Tests_CMB/wrd01_d2s01/cmb14_ch12.csv

#Digilent WaveForms Oscilloscope Acquisition
#Device Name: ADP3450
#Serial Number: SN:210018B9D9B0
#Date Time: 2024-08-06 17:22:47.483.231.670
#Sample rate: 2.94118e+06Hz
#Samples: 32768
#Trigger: Source: Channel 3 Type: Edge Condition: Rising Level: 60 mV Hyst.: Auto HoldOff: 0 s
#Channel 3: Range: 200 mV/div Offset: -20 mV Attenuation: 1 X Coupling: DC Bandwidth: 0 Hz Sample Mode: Average

Time (s),Channel 3 (V)
-0.005570345432977462,0.02602853554418059
-0.005570005432977461,0.02533735083133381
-0.005569665432977462,0.02474490679175287
-0.005569325432977462,0.02434994409869818
-0.005568985432977461,0.02388915429013432
-0.005568645432977462,0.02385624073237982
-0.005568305432977462,0.02395498140564349
-0.005567965432977461,0.02398789496339889
-0.005567625432977462,0.02444868477196185
-0.005567285432977462,0.02408663563666172
-0.005566945432977461,0.02365875938585176
-0.005566605432977462,0.02326379669279779
-0.005566265432977462,0.02290174755749767
-0.005565925432977461,0.02234221707566828
-0.005565585432977462,0.02128898322752437
-0.005565245432977462,0.02082819341896057
-0.005564905432977461,0.02082819341895955
-0.005564565432977462,0.0202686629371331
-0.005564225432977462,0.02030157649488766
-0.005563885432977461,0.02092693409222502
-0.005563545432977462,0.02135481034303348
-0.005563205432977462,0.02161811880506994
-0.005562865432977462,0.02138772390078846
-0.005562525432977462,0.02158520524731538
-0.005562185432977462,0.02102567476548791
-0.005561845432977462,0.0211573289965059
-0.005561505432977462,0.0200382680328512
-0.005561165432977462,0.0188862935114417
-0.005560825432977462,0.01733935629698033
-0.005560485432977462,0.01615446821781346
-0.005560145432977462,0.01539745638945865
-0.005559805432977462,0.01506832081191367
-0.005559465432977462,0.0149695801386494
-0.005559125432977462,0.01460753100334928
-0.005558785432977462,0.01444296321457679
-0.005558445432977462,0.01401508696376725
-0.005558105432977462,0.01338972936643066
-0.005557765432977462,0.01315933446214918
-0.005557425432977462,0.01329098869316699
-0.005557085432977462,0.01312642090439421
-0.005556745432977462,0.01312642090439421
-0.005556405432977462,0.01381760561723991
-0.005556065432977462,0.01398217340601269
-0.005555725432977462,0.01444296321457565
-0.005555385432977462,0.01398217340601269
-0.005555045432977462,0.01329098869316699
-0.005554705432977462,0.01299476667337652
-0.005554365432977462,0.01296185311562142
-0.005554025432977462,0.01266563109583041
-0.005553685432977462,0.01325807513541244
-0.005553345432977462,0.01408091407927636
-0.005553005432977462,0.01467335811885839
-0.005552665432977462,0.01562785129374055
-0.005552325432977461,0.01510123436966763
-0.005551985432977462,0.01519997504293131
-0.005551645432977462,0.01519997504293131
-0.005551305432977461,0.01493666658089377
-0.005550965432977462,0.01434422254131282
-0.005550625432977462,0.01358721071295801
-0.005550285432977461,0.01253397686481158
-0.005549945432977462,0.01220484128726661
-0.005549605432977462,0.01174405147870281
-0.005549265432977461,0.01154657013217481
-0.005548925432977462,0.01118452099687534
-0.005548585432977462,0.01118452099687534
-0.005548245432977461,0.01115160743912108
-0.005547905432977462,0.01131617522789356
-0.005547565432977462,0.01227066840277572
-0.005547225432977461,0.01230358196053034
-0.005546885432977462,0.01233649551828483
-0.005546545432977462,0.01233649551828483
-0.005546205432977461,0.01220484128726697
-0.005545865432977462,0.01240232263379395
-0.005545525432977462,0.01236940907603939
-0.005545185432977461,0.01348847003969547
-0.005544845432977462,0.01411382763703092
-0.005544505432977462,0.01437713609906738
-0.005544165432977461,0.01467335811885731
-0.005543825432977462,0.01408091407927636
-0.005543485432977462,0.01306059378888509
-0.005543145432977461,0.0119086192674741
-0.005542805432977462,0.01108578032361167
-0.005542465432977462,0.01009837359097495
-0.005542125432977462,0.009209707531603528
-0.005541785432977462,0.009440102435883811
-0.005541445432977462,0.009242621089356468
-0.005541105432977462,0.009835065128937419
-0.005540765432977462,0.01055916339953875
-0.005540425432977462,0.01042750916852052
-0.005540085432977462,0.009933805802203065
-0.005539745432977462,0.009440102435883811
-0.005539405432977462,0.009999632917711282
-0.005539065432977462,0.01069081763055572
-0.005538725432977462,0.01131617522789356
-0.005538385432977462,0.01250106330705762
-0.005538045432977462,0.01332390225092005
-0.005537705432977462,0.01345555648193978
-0.005537365432977462,0.01263271753807585
-0.005537025432977462,0.01154657013217744
-0.005536685432977462,0.01023002782199318
-0.005536345432977462,0.009110966858338239
-0.005536005432977462,0.008419782145493798
-0.005535665432977462,0.008189387241210641
-0.005535325432977462,0.008683090607528997
-0.005534985432977462,0.00924262108935545
-0.005534645432977462,0.01003254647546584
-0.005534305432977462,0.01088829897708432
-0.005533965432977462,0.01174405147870125
-0.005533625432977462,0.01312642090439421
-0.005533285432977462,0.01352138359744889
-0.005532945432977462,0.01342264292418522
-0.005532605432977462,0.01332390225092155
-0.005532265432977462,0.01269854465358496
-0.005531925432977462,0.01190861926747559
-0.005531585432977461,0.01092121253483888
-0.005531245432977462,0.01016420070648407
-0.005530905432977462,0.009505929551392924
-0.005530565432977461,0.009538843109147481
-0.005530225432977462,0.01013128714872951
-0.005529885432977462,0.01105286676585711
-0.005529545432977461,0.01177696503645796
-0.005529205432977462,0.01210610061400294
-0.005528865432977462,0.01207318705624838
-0.005528525432977461,0.01141491590115664
-0.005528185432977462,0.01108578032361167
-0.005527845432977462,0.01121743455462989
-0.005527505432977461,0.0109212125348396
-0.005527165432977462,0.01131617522789356
-0.005526825432977462,0.0107566447460661
-0.005526485432977461,0.01036168205301183
-0.005526145432977462,0.01059207695729331
-0.005525805432977462,0.01134908878564812
-0.005525465432977461,0.0115794836899296
-0.005525125432977462,0.01134908878564812
-0.005524785432977462,0.01115160743912078
-0.005524445432977461,0.01128326167013937
-0.005524105432977462,0.01148074301666635
-0.005523765432977462,0.01072373118831154
-0.005523425432977461,0.01095412609259416
-0.005523085432977462,0.01134908878564812
-0.005522745432977462,0.01210610061400294
-0.005522405432977461,0.01223775484502092
-0.005522065432977462,0.01210610061400294
-0.005521725432977462,0.01167822436319369
-0.005521385432977461,0.01055916339953749
-0.005521045432977462,0.009867978686693053
-0.005520705432977462,0.009275534647111025
-0.005520365432977462,0.009308448204865521
-0.005520025432977462,0.01003254647546584
-0.005519685432977462,0.01095412609259344
-0.005519345432977462,0.01174405147870137
-0.005519005432977462,0.01246814974930307
-0.005518665432977462,0.01306059378888509
-0.005518325432977462,0.01355429715520255
-0.005517985432977462,0.01431130898355826
-0.005517645432977462,0.01513414792742219
-0.005517305432977462,0.01546328350496716
-0.005516965432977462,0.01546328350496776
-0.005516625432977462,0.01431130898355826
-0.005516285432977462,0.01312642090439636
-0.005515945432977462,0.01151365657442091
-0.005515605432977462,0.01069081763055698
-0.005515265432977462,0.00986797868669455
-0.005514925432977462,0.01029585493750229
-0.005514585432977462,0.01009837359097495
-0.005514245432977462,0.009670497340166489
-0.005513905432977462,0.009505929551392924
-0.005513565432977462,0.009867978686693053
-0.005513225432977462,0.01013128714872903
-0.005512885432977462,0.009769238013429382
-0.005512545432977462,0.009966719359956725
-0.005512205432977462,0.009999632917711282
-0.005511865432977462,0.01115160743912078
-0.005511525432977462,0.01273145821133952
-0.005511185432977462,0.01362012427071256
-0.005510845432977462,0.01454170388784016
-0.005510505432977462,0.01460753100334928
-0.005510165432977462,0.01417965475254003
-0.005509825432977461,0.01315933446214876
-0.005509485432977462,0.01266563109583041
-0.005509145432977462,0.01187570570972104
-0.005508805432977461,0.01128326167013745
-0.005508465432977462,0.01042750916852052
-0.005508125432977462,0.01039459561076597
-0.005507785432977461,0.01059207695729295
-0.005507445432977462,0.01039459561076597
-0.005507105432977462,0.01052624984178419
-0.005506765432977461,0.0106908176305562
-0.005506425432977462,0.01026294137974774
-0.005506085432977462,0.009900892244447609
-0.005505745432977461,0.00973632445567626
-0.005505405432977462,0.01052624984178419
-0.005505065432977462,0.01052624984178419
-0.005504725432977461,0.01144782945891251
-0.005504385432977462,0.01184279215196648
-0.005504045432977462,0.01289602600011231
-0.005503705432977461,0.01378469205948619
-0.005503365432977462,0.01424548186804915
-0.005503025432977462,0.01434422254131282
-0.005502685432977461,0.01394925984825879
-0.005502345432977462,0.01431130898355826
-0.005502005432977462,0.01329098869316699
-0.005501665432977461,0.01276437176909198
-0.005501325432977462,0.01161239724768458
-0.005500985432977462,0.01128326167013901
-0.005500645432977461,0.01072373118831094
-0.005500305432977462,0.01039459561076597
-0.005499965432977462,0.009966719359956725
-0.005499625432977462,0.009670497340166249
-0.005499285432977462,0.009802151571183939
-0.005498945432977462,0.009736324455674824
-0.005498605432977462,0.00957175666690234
-0.005498265432977462,0.009900892244447609
-0.005497925432977462,0.009637583782411153
-0.005497585432977462,0.009703410897920147
-0.005497245432977462,0.009966719359956725
-0.005496905432977462,0.009966719359956725
-0.005496565432977462,0.01085538541932815
-0.005496225432977462,0.01154657013217547
-0.005495885432977462,0.01306059378888509
-0.005495545432977462,0.01312642090439409
-0.005495205432977462,0.01362012427071256
-0.005494865432977462,0.01352138359744889
-0.005494525432977462,0.0134555564819399
-0.005494185432977462,0.01240232263379395
-0.005493845432977462,0.01052624984178419
-0.005493505432977462,0.009473015993640282
-0.005493165432977462,0.008913485511810896
-0.005492825432977462,0.008123560125701526
-0.005492485432977462,0.008683090607527979
-0.005492145432977462,0.01036168205301141
-0.005491805432977462,0.01148074301666635
-0.005491465432977462,0.01190861926747482
-0.005491125432977462,0.01256689042256674
-0.005490785432977462,0.01253397686481218
-0.005490445432977462,0.01217192772951205
-0.005490105432977462,0.01151365657442091
-0.005489765432977462,0.01065790407280242
-0.005489425432977462,0.009933805802202166
-0.005489085432977461,0.01052624984178419
-0.005488745432977462,0.01151365657442091
-0.005488405432977462,0.01217192772951205
-0.005488065432977461,0.0126985446535855
-0.005487725432977462,0.01299476667337598
-0.005487385432977462,0.01289602600011231
-0.005487045432977461,0.01322516157765788
-0.005486705432977462,0.01322516157765788
-0.005486365432977462,0.01273145821133952
-0.005486025432977461,0.01335681580867491
-0.005485685432977462,0.01269854465358496
-0.005485345432977462,0.01256689042256674
-0.005485005432977461,0.01263271753807639
-0.005484665432977462,0.01292893955786686
-0.005484325432977462,0.01306059378888509
-0.005483985432977461,0.01355429715520369
-0.005483645432977462,0.01368595138622168
-0.005483305432977462,0.01385051917499446
-0.005482965432977461,0.01345555648193918
-0.005482625432977462,0.01312642090439421
-0.005482285432977462,0.01299476667337598
-0.005481945432977461,0.01329098869316681
-0.005481605432977462,0.01319224801990332
-0.005481265432977462,0.01279728532684864
-0.005480925432977461,0.01157948368992769
-0.005480585432977462,0.01029585493750229
-0.005480245432977462,0.008617263492019883
-0.005479905432977461,0.007103239835308759
-0.005479565432977462,0.006280400891446328
-0.005479225432977462,0.005424648389827843
-0.005478885432977462,0.003581489155575998
-0.005478545432977462,-0.002342951240247634
-0.005478205432977462,-0.01448805405167921
-0.005477865432977462,-0.03466406495518601
-0.005477525432977462,-0.06221271279578702
-0.005477185432977462,-0.09380972824016184
-0.005476845432977462,-0.1270853351299585
-0.005476505432977462,-0.1593077081717305
-0.005476165432977462,-0.1874158864941222
-0.005475825432977462,-0.2106857718265518
-0.005475485432977462,-0.2271425507038727
-0.005475145432977462,-0.2377736298585946
-0.005474805432977462,-0.2435993295811406
-0.005474465432977462,-0.2443234278517515
-0.005474125432977462,-0.2416903432313869
-0.005473785432977462,-0.2369837044724938
-0.005473445432977462,-0.2305655607103466
-0.005473105432977462,-0.2230941831000622
-0.005472765432977462,-0.2154253241432643
-0.005472425432977462,-0.2081514278794932
-0.005472085432977462,-0.2009104451734907
-0.005471745432977462,-0.1939985980450462
-0.005471405432977462,-0.1871525780320858
-0.005471065432977462,-0.1802407309036288
-0.005470725432977462,-0.1729668346398849
-0.005470385432977462,-0.1660549875114147
-0.005470045432977462,-0.1584848692278666
-0.005469705432977462,-0.1519350712347097
-0.005469365432977462,-0.1454511003570619
-0.005469025432977462,-0.1404153260206147
-0.005468685432977462,-0.1350504161066219
-0.005468345432977461,-0.1303437773477202
-0.005468005432977462,-0.1249130403182183
-0.005467665432977462,-0.1191531677111708
-0.005467325432977461,-0.1142161340479872
-0.005466985432977462,-0.1089499648072581
-0.005466645432977462,-0.1046712022991657
-0.005466305432977461,-0.100655748253103
-0.005465965432977462,-0.09696942978459933
-0.005465625432977462,-0.09344767910486171
-0.005465285432977461,-0.08995884198287285
-0.005464945432977462,-0.08676622688068661
-0.005464605432977462,-0.08357361177849457
-0.005464265432977461,-0.08130257629342547
-0.005463925432977462,-0.07873531878857468
-0.005463585432977462,-0.07597057993719189
-0.005463245432977461,-0.07294253262376706
-0.005462905432977462,-0.06988157175259882
-0.005462565432977462,-0.06632690751510664
-0.005462225432977461,-0.06293681106638026
-0.005461885432977462,-0.05908592480910408
-0.005461545432977462,-0.05582748259140293
-0.005461205432977461,-0.05326022508654443
-0.005460865432977462,-0.05158163364106507
-0.005460525432977462,-0.05023217777312822
-0.005460185432977461,-0.0496726472912989
-0.005459845432977462,-0.04865232700090948
-0.005459505432977462,-0.04736869824848176
-0.005459165432977461,-0.04368237977996633
-0.005458825432977462,-0.04091764092858857
-0.005458485432977462,-0.03854786477026045
-0.005458145432977461,-0.03571729880336381
-0.005457805432977462,-0.03311712774075853
-0.005457465432977462,-0.03104357360222143
-0.005457125432977462,-0.02966120417653255
-0.005456785432977462,-0.02864088388613877
-0.005456445432977462,-0.02732434157595648
-0.005456105432977462,-0.02656732974760304
-0.005455765432977462,-0.02561283657271951
-0.005455425432977462,-0.02455960272457368
-0.005455085432977462,-0.02291392483684882
-0.005454745432977462,-0.02136698762238164
-0.005454405432977462,-0.01899721146405353
-0.005454065432977462,-0.01636412684369375
-0.005453725432977462,-0.01392852356985173
-0.005453385432977462,-0.01228284568212388
-0.005453045432977462,-0.01096630337194399
-0.005452705432977462,-0.01030803221685045
-0.005452365432977462,-0.009814328850532097
-0.005452025432977462,-0.009616847504005115
-0.005451685432977462,-0.009419366157477412
-0.005451345432977462,-0.009485193272986525
-0.005451005432977462,-0.01001181019705848
-0.005450665432977462,-0.01070299490990514
-0.005450325432977462,-0.01129543894948717
-0.005449985432977462,-0.01185496943131362
-0.005449645432977462,-0.01099921692969615
-0.005449305432977462,-0.01037385933235957
-0.005448965432977462,-0.009452279715233644
-0.005448625432977462,-0.007345812018940315
-0.005448285432977462,-0.005272257880403218
-0.005447945432977462,-0.003593666434920803
-0.005447605432977462,-0.002507519029020421
-0.005447265432977462,-0.002079642778211176
-0.005446925432977462,-0.001783420758420164
-0.005446585432977461,-0.001454285180874593
-0.005446245432977462,-0.001158063161083578
-0.005445905432977462,-0.0002693971017105369
-0.005445565432977461,5.973847583581302e-05
-0.005445225432977462,0.0004876147266442768
-0.005444885432977462,0.001409194343771875
-0.005444545432977461,0.00203455194110876
-0.005444205432977462,0.002199119729881245
-0.005443865432977462,0.001869984152335677
-0.005443525432977461,0.002133292614371892
-0.005443185432977462,0.002001638383353904
-0.005442845432977462,0.002034551941108461
-0.005442505432977461,0.001343367228263719
-0.005442165432977462,0.001869984152335677
-0.005441825432977462,0.002692823096199604
-0.005441485432977461,0.002495341749672799
-0.005441145432977462,0.002791563769463275
-0.005440805432977462,0.002626995980690491
-0.005440465432977461,0.002659909538444928
-0.005440125432977462,0.00259408242293593
-0.005439785432977462,0.002857390884972388
-0.005439445432977461,0.002626995980690012
-0.005439105432977462,0.002363687518654033
-0.005438765432977462,0.002626995980690491
-0.005438425432977461,0.00229786040314444
-0.005438085432977462,0.002034551941108461
-0.005437745432977462,0.002824477327217832
-0.005437405432977461,0.003713143386592429
-0.005437065432977462,0.004568895888209358
-0.005436725432977462,0.005852524640637086
-0.005436385432977462,0.007169066950816975
-0.005436045432977462,0.008452695703247097
-0.005435705432977462,0.009505929551392924
-0.005435365432977462,0.01019711426423737
-0.005435025432977462,0.01023002782199318
-0.005434685432977462,0.01078955830382065
-0.005434345432977462,0.01052624984178467
-0.005434005432977462,0.01013128714872951
-0.005433665432977462,0.009374275320374697
-0.005433325432977462,0.008683090607530254
-0.005432985432977462,0.007893165221419626
-0.005432645432977462,0.007662770317137727
-0.005432305432977462,0.007662770317137727
-0.005431965432977462,0.008123560125701526
-0.005431625432977462,0.008814744838547226
-0.005431285432977462,0.009637583782409656
-0.005430945432977462,0.009769238013429382
-0.005430605432977462,0.009473015993638367
-0.005430265432977462,0.009341361762620378
-0.005429925432977462,0.008814744838547226
-0.005429585432977462,0.008913485511810896
-0.005429245432977462,0.0088805719540564
-0.005428905432977462,0.008847658396301783
-0.005428565432977462,0.008716004165283554
-0.005428225432977462,0.008847658396301543
-0.005427885432977462,0.008683090607528997
-0.005427545432977462,0.008419782145492541
-0.005427205432977462,0.008024819452437855
-0.005426865432977462,0.008913485511810896
-0.005426525432977462,0.009473015993638367
-0.005426185432977462,0.01013128714872951
-0.005425845432977461,0.01016420070648407
-0.005425505432977462,0.01049333628402964
-0.005425165432977462,0.01111869388136622
-0.005424825432977461,0.01180987859421192
-0.005424485432977462,0.01148074301666635
-0.005424145432977462,0.01131617522789356
-0.005423805432977461,0.01151365657442121
-0.005423465432977462,0.01167822436319369
-0.005423125432977462,0.01157948368993002
-0.005422785432977461,0.01105286676585633
-0.005422445432977462,0.01062499051504787
-0.005422105432977462,0.01023002782199318
-0.005421765432977461,0.01069081763055866
-0.005421425432977462,0.01161239724768458
-0.005421085432977462,0.01217192772951205
-0.005420745432977461,0.01266563109583035
-0.005420405432977462,0.01263271753807585
-0.005420065432977462,0.01217192772951205
-0.005419725432977461,0.0116123972476835
-0.005419385432977462,0.01101995320810255
-0.005419045432977462,0.01046042272627508
-0.005418705432977461,0.01032876849525721
-0.005418365432977462,0.01052624984178419
-0.005418025432977462,0.01055916339953875
-0.005417685432977461,0.0104275091685207
-0.005417345432977462,0.01052624984178419
-0.005417005432977462,0.01055916339953875
-0.005416665432977461,0.01121743455462947
-0.005416325432977462,0.01098703965034799
-0.005415985432977462,0.01141491590115724
-0.005415645432977461,0.01167822436319411
-0.005415305432977462,0.01190861926747559
-0.005414965432977462,0.01210610061400294
-0.005414625432977462,0.01240232263379341
-0.005414285432977462,0.01250106330705762
-0.005413945432977462,0.01230358196053028
-0.005413605432977462,0.01141491590115885
