Analysis/New Tests_CMB/wrd01_d2s01/cmb12_ch42.csv

#Digilent WaveForms Oscilloscope Acquisition
#Device Name: ADP3450
#Serial Number: SN:210018B9D9B0
#Date Time: 2024-08-07 11:14:37.631.381.160
#Sample rate: 2.94118e+06Hz
#Samples: 32768
#Trigger: Source: Channel 3 Type: Edge Condition: Rising Level: 0 V Hyst.: Auto HoldOff: 0 s
#Channel 3: Range: 200 mV/div Offset: 0 V Attenuation: 1 X Coupling: DC Bandwidth: 0 Hz Sample Mode: Average

Time (s),Channel 3 (V)
-0.005570305,0.01062109345755819
-0.005569965,0.01045652566878499
-0.005569625,0.01022613076450351
-0.005569285,0.00950203249390325
-0.005568945,0.009403291820639639
-0.005568605,0.009436205378394135
-0.005568265,0.01025904432225806
-0.005567925,0.01058817989980411
-0.005567585,0.01085148836184009
-0.005567245,0.01065400701531275
-0.005566905,0.01002864941797634
-0.005566565,0.01012739009123984
-0.005566225,0.01009447653348528
-0.005565885,0.01042361211103115
-0.005565545,0.01058817989980363
-0.005565205,0.01114771038163111
-0.005564865,0.01170724086345905
-0.005564525,0.01197054932549503
-0.005564185,0.01269464759609529
-0.005563845,0.01335291875118757
-0.005563505,0.01397827634852302
-0.005563165,0.01387953567525935
-0.005562825,0.01361622721322337
-0.005562485,0.01325417807792276
-0.005562145,0.01269464759609529
-0.005561805,0.01229968490304132
-0.005561465,0.01216803067202238
-0.005561125,0.01187180865223136
-0.005560785,0.01206928999875835
-0.005560445,0.01154267307468579
-0.005560105,0.01111479682387655
-0.005559765,0.01081857480408607
-0.005559425,0.01039069855327629
-0.005559085,0.009995735860221606
-0.005558745,0.009896995186958116
-0.005558405,0.009205810474112236
-0.005558065,0.009271637589621349
-0.005557725,0.009534946051657328
-0.005557385,0.01042361211103085
-0.005557045,0.01124645105489478
-0.005556705,0.01397827634851805
-0.005556365,0.01980397607107963
-0.005556025,0.03300231273065703
-0.005555685,0.05452777950209822
-0.005555345,0.08336005609512939
-0.005555005,0.1166027494272321
-0.005554665,0.1514582070892447
-0.005554325,0.1841413699395832
-0.005553985,0.2116241906646384
-0.005553645,0.2330180032051005
-0.005553305,0.2476316228481239
-0.005552965,0.2565841105573635
-0.005552625,0.2607641323921922
-0.005552285,0.2603362561413829
-0.005551945,0.2572094681547
-0.005551605,0.2520749531449891
-0.005551265,0.2455580687095744
-0.005550925,0.2387449622543935
-0.005550585,0.2316356337794092
-0.005550245,0.224262996842375
-0.005549905,0.2168903599053676
-0.005549565,0.2095506365261013
-0.005549225,0.2023096538200846
-0.005548885,0.1945420541900233
-0.005548545,0.18772894773483
-0.005548205,0.1811133226261532
-0.005547865,0.1751559686725892
-0.005547525,0.1686719977949414
-0.005547185,0.1636691370162389
-0.005546845,0.1582383999867468
-0.005546505,0.1536963290166179
-0.005546165,0.1486934682379156
-0.005545825,0.1433943854394416
-0.005545485,0.1381940433142215
-0.005545145,0.1327962198424641
-0.005544805,0.1272667421397086
-0.005544465,0.1221980542455068
-0.005544125,0.1176230697176154
-0.005543785,0.1132784800940218
-0.005543445,0.1094275938367386
-0.005543105,0.1059387567147495
-0.005542765,0.1025815738237907
-0.005542425,0.1003105383387263
-0.005542085,0.09853320621998345
-0.005541745,0.09701918256327061
-0.005541405,0.09501145554024262
-0.005541065,0.09277333361293678
-0.005540725,0.09017316255032273
-0.005540385,0.08740842369893992
-0.005540045,0.08444620350103516
-0.005539705,0.08164855109189242
-0.005539365,0.07894963935601876
-0.005539025,0.07651403608218595
-0.005538685,0.07371638367304417
-0.005538345,0.07190613799654352
-0.005538005,0.07042502789759114
-0.005537665,0.06884517712536972
-0.005537325,0.06677162298683262
-0.005536985,0.06459932817503579
-0.005536645,0.06183458932364905
-0.005536305,0.05956355383858461
-0.005535965,0.05689755566047033
-0.005535625,0.05475817440641927
-0.005535285,0.05255296603686395
-0.005534945,0.05057815257159411
-0.005534605,0.0486033391063171
-0.005534265,0.04712222900736202
-0.005533925,0.04600316804370912
-0.005533585,0.04508158842657949
-0.005533245,0.04392961390516999
-0.005532905,0.0426130715949877
-0.005532565,0.04159275130459643
-0.005532225,0.04119778861154175
-0.005531885,0.04080282591848706
-0.005531545,0.04040786322543238
-0.005531205,0.04014455476339591
-0.005530865,0.03922297514626832
-0.005530525,0.0380051735093497
-0.005530185,0.03583287869754893
-0.005529845,0.03408846013655741
-0.005529505,0.03244278224882608
-0.005529165,0.03053379589906524
-0.005528825,0.0282627604140008
-0.005528485,0.02625503339096971
-0.005528145,0.02454352838773585
-0.005527805,0.02355612165509913
-0.005527465,0.02266745559572448
-0.005527125,0.02177878953635305
-0.005526785,0.02144965395880748
-0.005526445,0.02102177770799949
-0.005526105,0.02171296242084393
-0.005525765,0.02296367761551711
-0.005525425,0.02391817079040016
-0.005525085,0.02441187415671762
-0.005524745,0.02431313348345395
-0.005524405,0.02411565213692583
-0.005524065,0.02368777588611736
-0.005523725,0.02289785050000799
-0.005523385,0.0221079251138982
-0.005523045,0.02187753020961672
-0.005522705,0.02161422174758026
-0.005522365,0.02121925905452456
-0.005522025,0.02065972857269811
-0.005521685,0.01960649472455228
-0.005521345,0.01756585414376699
-0.005521005,0.01605183048706011
-0.005520665,0.0146036339458596
-0.005520325,0.01410993057954214
-0.005519985,0.01430741192606859
-0.005519645,0.01499859663891429
-0.005519305,0.0159860033715492
-0.005518965,0.01657844741113303
-0.005518625,0.0169075829886786
-0.005518285,0.01756585414376854
-0.005517945,0.01822412529886088
-0.005517605,0.01914570491598848
-0.005517265,0.01996854385985091
-0.005516925,0.02023185232188887
-0.005516585,0.01996854385985241
-0.005516245,0.02000145741760691
-0.005515905,0.01947484049353405
-0.005515565,0.0192115320314976
-0.005515225,0.01901405068497062
-0.005514885,0.01914570491598848
-0.005514545,0.01828995241437
-0.005514205,0.01736837279724407
-0.005513865,0.01588726269828733
-0.005513525,0.0146036339458596
-0.005513185,0.01361622721322468
-0.005512845,0.01289212894262263
-0.005512505,0.01266173403834073
-0.005512165,0.01318835096241365
-0.005511825,0.01410993057954124
-0.005511485,0.01381370855975023
-0.005511145,0.01378079500199567
-0.005510805,0.01364914077097745
-0.005510465,0.01341874586669555
-0.005510125,0.013682054328732
-0.005509785,0.01361622721322289
-0.005509445,0.01358331365546833
-0.005509105,0.01325417807792276
-0.005508765,0.01276047471160303
-0.005508425,0.01200346288324959
-0.005508085,0.01236551201854972
-0.005507745,0.01239842557630326
-0.005507405,0.0118388950944768
-0.005507065,0.01127936461264933
-0.005506725,0.01058817989980333
-0.005506385,0.01042361211103085
-0.005506045,0.01009447653348528
-0.005505705,0.0102919578800134
-0.005505365,0.01071983413082186
-0.005505025,0.01164141374794946
-0.005504685,0.01243133913406021
-0.005504345,0.01318835096241365
-0.005504005,0.01335291875118643
-0.005503665,0.0130566967313956
-0.005503325,0.01315543740465909
-0.005502985,0.01308961028914997
-0.005502645,0.01391244923301618
-0.005502305,0.01516316442768707
-0.005501965,0.01532773221645986
-0.005501625,0.01526190510094925
-0.005501285,0.01443906615708682
-0.005500945,0.01318835096241365
-0.005500605,0.01239842557630368
-0.005500265,0.0120692899987587
-0.005499925,0.0127604747116044
-0.005499585,0.0140111899062753
-0.005499245,0.0150644237544234
-0.005498905,0.01555812712074176
-0.005498565,0.01565686779400525
-0.005498225,0.01480111529238694
-0.005497885,0.01266173403834073
-0.005497545,0.01131227817040635
-0.005497205,0.009995735860221606
-0.005496865,0.00871210710779388
-0.005496525,0.008053835952703934
-0.005496185,0.008086749510457293
-0.005495845,0.008975415569830336
-0.005495505,0.01039069855327372
-0.005495165,0.01157558663244035
-0.005494825,0.01256299336507706
-0.005494485,0.01381370855974796
-0.005494145,0.01434032548382314
-0.005493805,0.01378079500199567
-0.005493465,0.01315543740466023
-0.005493125,0.01315543740465909
-0.005492785,0.01312252384690453
-0.005492445,0.01394536279076696
-0.005492105,0.01417575769505036
-0.005491765,0.01443906615708682
-0.005491425,0.0134187458666974
-0.005491085,0.01216803067202238
-0.005490745,0.01150975951693123
-0.005490405,0.01029195788001262
-0.005490065,0.01006156297573072
-0.005489725,0.009304551147375908
-0.005489385,0.00871210710779388
-0.005489045,0.008679193550039321
-0.005488705,0.008975415569830336
-0.005488365,0.009370378262885021
-0.005488025,0.01048943922654062
-0.005487685,0.01085148836184009
-0.005487345,0.01118062393938566
-0.005487005,0.01164141374794976
-0.005486665,0.01180598153672225
-0.005486325,0.01147684595917668
-0.005485985,0.01108188326612139
-0.005485645,0.01075274768857642
-0.005485305,0.01062109345755819
-0.005484965,0.01147684595917841
-0.005484625,0.01243133913405883
-0.005484285,0.01325417807792276
-0.005483945,0.01341874586669555
-0.005483605,0.01341874586669555
-0.005483265,0.0125300798073225
-0.005482925,0.01137810528591145
-0.005482585,0.01052235278429452
-0.005482245,0.009337464705130465
-0.005481905,0.00871210710779334
-0.005481565,0.008415885088002865
-0.005481225,0.008415885088002865
-0.005480885,0.008909588454323138
-0.005480545,0.009962822302467049
-0.005480205,0.01101605615061288
-0.005479865,0.01187180865223262
-0.005479525,0.01256299336507706
-0.005479185,0.01256299336507706
-0.005478845,0.01239842557630457
-0.005478505,0.01187180865223136
-0.005478165,0.01164141374794946
-0.005477825,0.01111479682387751
-0.005477485,0.01048943922653996
-0.005477145,0.009896995186957936
-0.005476805,0.0103577849955209
-0.005476465,0.01124645105489478
-0.005476125,0.01239842557630427
-0.005475785,0.01381370855974766
-0.005475445,0.01447197971484137
-0.005475105,0.01453780683035049
-0.005474765,0.01374788144424255
-0.005474425,0.01282630182711352
-0.005474085,0.01262882048058617
-0.005473745,0.01183889509447824
-0.005473405,0.011378105285913
-0.005473065,0.01104896970836743
-0.005472725,0.01058817989980447
-0.005472385,0.01039069855327629
-0.005472045,0.009929908744712493
-0.005471705,0.009732427398185509
-0.005471365,0.009798254513694264
-0.005471025,0.01002864941797616
-0.005470685,0.01035778499552114
-0.005470345,0.009896995186957936
-0.005470005,0.009370378262885021
-0.005469665,0.00871210710779388
-0.005469325,0.008448798645757422
-0.005468985,0.008185490183720966
-0.005468645,0.009271637589621349
-0.005468305,0.00973242739818515
-0.005467965,0.01025904432225806
-0.005467625,0.01098314259285832
-0.005467285,0.011378105285913
-0.005466945,0.01213511711426782
-0.005466605,0.01269464759609529
-0.005466265,0.0131554374046604
-0.005465925,0.01387953567525935
-0.005465585,0.0146036339458596
-0.005465245,0.01493276952340565
-0.005464905,0.01519607798544163
-0.005464565,0.01473528817687783
-0.005464225,0.01460363394585799
-0.005463885,0.01371496788648656
-0.005463545,0.01220094422977693
-0.005463205,0.0110818832661202
-0.005462865,0.01009447653348528
-0.005462525,0.00881084778105755
-0.005462185,0.008547539319020914
-0.005461845,0.008448798645757422
-0.005461505,0.009238724031866792
-0.005461165,0.01019321720675098
-0.005460825,0.01131227817040389
-0.005460485,0.01220094422977693
-0.005460145,0.0132541780779218
-0.005459805,0.01272756115384985
-0.005459465,0.01216803067202238
-0.005459125,0.01200346288324833
-0.005458785,0.01131227817040389
-0.005458445,0.01078566124633098
-0.005458105,0.01062109345755867
-0.005457765,0.01088440191959465
-0.005457425,0.01091731547734921
-0.005457085,0.01147684595917566
-0.005456745,0.0118388950944768
-0.005456405,0.01174015442121313
-0.005456065,0.01177306797896763
-0.005455725,0.01193763576774048
-0.005455385,0.01101605615061288
-0.005455045,0.01111479682387637
-0.005454705,0.01101605615061288
-0.005454365,0.01078566124633098
-0.005454025,0.01075274768857648
-0.005453685,0.01085148836184009
-0.005453345,0.01042361211103085
-0.005453005,0.01062109345755783
-0.005452665,0.01091731547734921
-0.005452325,0.01167432730570402
-0.005451985,0.01243133913405745
-0.005451645,0.01210220355651326
-0.005451305,0.01095022903510376
-0.005450965,0.009798254513696359
-0.005450625,0.008679193550039321
-0.005450285,0.006572725853747667
-0.005449945,0.005091615754795291
-0.005449605,0.004894134408265255
-0.005449265,0.005223269985810825
-0.005448925,0.005815714025391775
-0.005448585,0.006408158064974882
-0.005448245,0.007395564797611595
-0.005447905,0.008745020665548437
-0.005447565,0.009929908744712493
-0.005447225,0.01118062393938566
-0.005446885,0.01157558663244035
-0.005446545,0.01246425269181339
-0.005446205,0.01292504250037719
-0.005445865,0.0129908696158863
-0.005445525,0.01289212894262293
-0.005445185,0.01305669673139542
-0.005444845,0.01249716624956795
-0.005444505,0.01276047471160518
-0.005444165,0.01318835096241365
-0.005443825,0.01315543740465909
-0.005443485,0.01325417807792342
-0.005443145,0.01361622721322289
-0.005442805,0.013682054328732
-0.005442465,0.01368205432873152
-0.005442125,0.01341874586669555
-0.005441785,0.01272756115384985
-0.005441445,0.01197054932549377
-0.005441105,0.01127936461264933
-0.005440765,0.01071983413082186
-0.005440425,0.01025904432225722
-0.005440085,0.009798254513694264
-0.005439745,0.009600773167166921
-0.005439405,0.008646279992283448
-0.005439065,0.007922181721684508
-0.005438725,0.007461391913120709
-0.005438385,0.007296824124349301
-0.005438045,0.008053835952702737
-0.005437705,0.008284230856984636
-0.005437365,0.009205810474112834
-0.005437025,0.009534946051657807
-0.005436685,0.009798254513694264
-0.005436345,0.00946911893614929
-0.005436005,0.009929908744712493
-0.005435665,0.01032487143776718
-0.005435325,0.01039069855327617
-0.005434985,0.01035778499552173
-0.005434645,0.009107069800848565
-0.005434305,0.003807987002374509
-0.005433965,-0.008732078502121389
-0.005433625,-0.02867769450138299
-0.005433285,-0.05576555253333422
-0.005432945,-0.08765878999754934
-0.005432605,-0.1206710884253701
-0.005432265,-0.151840227618879
-0.005431925,-0.1785989500733906
-0.005431585,-0.1993674050165161
-0.005431245,-0.2138164568707404
-0.005430905,-0.2223081547714425
-0.005430565,-0.2261261274709711
-0.005430225,-0.226718571510552
-0.005429885,-0.2245462766987524
-0.005429545,-0.2204979090949418
-0.005429205,-0.2148696907189228
-0.005428865,-0.2089781638808468
-0.005428525,-0.2026258472342173
-0.005428185,-0.1959773085678089
-0.005427845,-0.1889338072083216
-0.005427505,-0.181692824502319
-0.005427165,-0.1745176689118255
-0.005426825,-0.168165352265196
-0.005426485,-0.1618788627340756
-0.005426145,-0.1562177308002918
-0.005425805,-0.15114904290609
-0.005425465,-0.1457841329920972
-0.005425125,-0.1401559146160679
-0.005424785,-0.1341656471047385
-0.005424445,-0.1285045151709547
-0.005424105,-0.1233700001612438
-0.005423765,-0.1188279291911071
-0.005423425,-0.1145491666830225
-0.005423085,-0.1099412685973845
-0.005422745,-0.1060903823400948
-0.005422405,-0.1025028045448546
-0.005422065,-0.09878357251858963
-0.005421725,-0.09526182183884513
-0.005421385,-0.09147676269707797
-0.005421045,-0.08831706115264049
-0.005420705,-0.0845978291263685
-0.005420365,-0.08074694286909234
-0.005420025,-0.07627069901447256
-0.005419685,-0.07265020766146459
-0.005419345,-0.0689638891929609
-0.005419005,-0.06560670630199608
-0.005418665,-0.0624470047575529
-0.005418325,-0.05932021677087566
-0.005417985,-0.05648965080398375
-0.005417645,-0.05385656618361427
-0.005417305,-0.0511576544477455
-0.005416965,-0.04859039694289004
-0.005416625,-0.04648392924659575
-0.005416285,-0.04503573270539787
-0.005415945,-0.04368627683746103
-0.005415605,-0.04187603116095674
-0.005415265,-0.03986830413793241
-0.005414925,-0.03766309576837708
-0.005414585,-0.03526040605229878
-0.005414245,-0.03246275364315706
-0.005413905,-0.03052085373563819
-0.005413565,-0.02913848430994931
-0.005413225,-0.02874352161689211
-0.005412885,-0.02841438603934654
-0.005412545,-0.02874352161689151
-0.005412205,-0.02854604027036477
-0.005411865,-0.02765737421099173
-0.005411525,-0.02637374545856633
-0.005411185,-0.02515594382164538
-0.005410845,-0.0238394015114631
-0.005410505,-0.02245703208577422
-0.005410165,-0.02137088467987132
-0.005409825,-0.0201530830429527
-0.005409485,-0.01942898477235377
-0.005409145,-0.01834283736645206
-0.005408805,-0.01712503572953345
-0.005408465,-0.01607180188138954
-0.005408125,-0.01478817312895989
-0.005407785,-0.01399824774285052
-0.005407445,-0.01357037149204206
-0.005407105,-0.0124842240861409
-0.005406765,-0.01152973091125874
-0.005406425,-0.01041066994760583
-0.005406085,-0.00869916494436683
-0.005405745,-0.006823092152357076
-0.005405405,-0.005835685419720362
-0.005405065,-0.005374895611156563
-0.005404725,-0.004914105802592763
-0.005404385,-0.00517741426462922
-0.005404045,-0.005704031188702134
-0.005403705,-0.005802771861965805
-0.005403365,-0.00540780916891112
-0.005403025,-0.004848278687082631
-0.005402685,-0.004288748205256179
-0.005402345,-0.003827958396692379
-0.005402005,-0.003136773683845901
-0.005401665,-0.002708897433037437
-0.005401325,-0.002544329644264652
-0.005400985,-0.002346848297735872
-0.005400645,-0.001556922911627938
-0.005400305,-0.0004707755057275538
-0.005399965,0.0006482854579294833
-0.005399625,0.001800259979336887
-0.005399285,0.002458531134428029
-0.005398945,0.00265601248095567
-0.005398605,0.002820580269728157
-0.005398265,0.0023268769034098
-0.005397925,0.002590185365445419
-0.005397585,0.002129395556882458
-0.005397245,0.001635692190564101
-0.005396905,0.001372383728528362
-0.005396565,0.00176734642158233
-0.005396225,0.0023268769034098
-0.005395885,0.00265601248095615
-0.005395545,0.003083888731764614
-0.005395205,0.003544678540328413
-0.005394865,0.003742159886857552
-0.005394525,0.004729566619492469
-0.005394185,0.005091615754792597
-0.005393845,0.005157442870301592
-0.005393505,0.004729566619492469
-0.005393165,0.004992875081528926
-0.005392825,0.005585319121109876
-0.005392485,0.006803120758029567
-0.005392145,0.007757613932911723
-0.005391805,0.008152576625965691
-0.005391465,0.009172896916357679
-0.005391125,0.009798254513694264
-0.005390785,0.009896995186957755
-0.005390445,0.008580452876775651
-0.005390105,0.007099342777820581
-0.005389765,0.006441071622730636
-0.005389425,0.005157442870301712
-0.005389085,0.004499171715210569
-0.005388745,0.004400431041947078
-0.005388405,0.005354924216829054
-0.005388065,0.006967688546802352
-0.005387725,0.008284230856982242
-0.005387385,0.009436205378394135
-0.005387045,0.009699513840430593
-0.005386705,0.01002864941797556
-0.005386365,0.009469118936148692
-0.005386025,0.009337464705130465
-0.005385685,0.009370378262884961
-0.005385345,0.009469118936148692
-0.005385005,0.009304551147375908
-0.005384665,0.008942502012075779
-0.005384325,0.00904124268533945
-0.005383985,0.008975415569830336
-0.005383645,0.009172896916357679
-0.005383305,0.008975415569830336
-0.005382965,0.00983116807144882
-0.005382625,0.009699513840430593
-0.005382285,0.00973242739818515
-0.005381945,0.009271637589621349
-0.005381605,0.008975415569830336
-0.005381265,0.00867919355003968
-0.005380925,0.008876674896566664
-0.005380585,0.009172896916357679
-0.005380245,0.009436205378394614
-0.005379905,0.009699513840430593
-0.005379565,0.01032487143776718
-0.005379225,0.009995735860221965
-0.005378885,0.01019321720674895
-0.005378545,0.01006156297573072
-0.005378205,0.009600773167165424
-0.005377865,0.008777934223302994
-0.005377525,0.008580452876775651
-0.005377185,0.008909588454321701
-0.005376845,0.009172896916357679
-0.005376505,0.009699513840430593
-0.005376165,0.01019321720674985
-0.005375825,0.01068692057306731
-0.005375485,0.01078566124633098
-0.005375145,0.01058817989980321
-0.005374805,0.01035778499552173
-0.005374465,0.00983116807144882
-0.005374125,0.008876674896567143
-0.005373785,0.009139983358603122
-0.005373445,0.008679193550039321
-0.005373105,0.008745020665549216
-0.005372765,0.009172896916357679
-0.005372425,0.00973242739818515
-0.005372085,0.01052235278429308
-0.005371745,0.01144393240142212
-0.005371405,0.01174015442121313
-0.005371065,0.01233259846079408
-0.005370725,0.01262882048058617
-0.005370385,0.01285921538486808
-0.005370045,0.01272756115385009
