Analysis/New Tests_CMB/wrd01_d2s01/cmb10_ch05.csv

#Digilent WaveForms Oscilloscope Acquisition
#Device Name: ADP3450
#Serial Number: SN:210018B9D9B0
#Date Time: 2024-08-07 11:42:09.610.762.450
#Sample rate: 2.94118e+06Hz
#Samples: 32768
#Trigger: Source: Channel 3 Type: Edge Condition: Rising Level: 0 V Hyst.: Auto HoldOff: 0 s
#Channel 3: Range: 200 mV/div Offset: 0 V Attenuation: 1 X Coupling: DC Bandwidth: 0 Hz Sample Mode: Average

Time (s),Channel 3 (V)
-0.005570515652173914,0.004466258157456012
-0.005570175652173913,0.005486578447849198
-0.005569835652173913,0.00653981229599311
-0.005569495652173914,0.00756013258638438
-0.005569155652173913,0.0079880088371947
-0.005568815652173913,0.008580452876775651
-0.005568475652173914,0.008448798645757422
-0.005568135652173913,0.008053835952701479
-0.005567795652173913,0.007362651239857037
-0.005567455652173914,0.006572725853747667
-0.005567115652173913,0.005947368256410065
-0.005566775652173913,0.005387837774583611
-0.005566435652173914,0.004729566619492469
-0.005566095652173913,0.004597912388475618
-0.005565755652173913,0.005354924216829054
-0.005565415652173914,0.006177763160692982
-0.005565075652173913,0.00673729364252183
-0.005564735652173913,0.007494305470875266
-0.005564395652173914,0.007691786817402609
-0.005564055652173913,0.007461391913119751
-0.005563715652173913,0.006934774989047795
-0.005563375652173914,0.006177763160692982
-0.005563035652173914,0.005552405563357534
-0.005562695652173913,0.005157442870301712
-0.005562355652173914,0.005157442870301712
-0.005562015652173914,0.005684059794373668
-0.005561675652173913,0.006803120758029567
-0.005561335652173914,0.008777934223302994
-0.005560995652173914,0.01131227817039928
-0.005560655652173913,0.01815829818335177
-0.005560315652173914,0.03112623993864727
-0.005559975652173914,0.05255296603682497
-0.005559635652173913,0.08161563753413786
-0.005559295652173914,0.1152862071170498
-0.005558955652173914,0.1504708003566073
-0.005558615652173913,0.183417271668983
-0.005558275652173914,0.2121837211464659
-0.005557935652173914,0.2341370641687155
-0.005557595652173913,0.2499026583331884
-0.005557255652173913,0.2590197138312006
-0.005556915652173914,0.2637592661478483
-0.005556575652173913,0.2640554881676479
-0.005556235652173913,0.2617186255670744
-0.005555895652173914,0.2577689986365347
-0.005555555652173913,0.2522066073760074
-0.005555215652173913,0.2457226364983596
-0.005554875652173914,0.2391070113897057
-0.005554535652173913,0.2319318557992002
-0.005554195652173913,0.2243288239578975
-0.005553855652173914,0.2164953972123129
-0.005553515652173913,0.2093860687373286
-0.005553175652173913,0.2017501233382713
-0.005552835652173914,0.1942787457279868
-0.005552495652173913,0.1868402816754569
-0.005552155652173913,0.1797309532004726
-0.005551815652173914,0.1730165874185429
-0.005551475652173913,0.1672238012537308
-0.005551135652173913,0.1616614099932208
-0.005550795652173914,0.1564281543102462
-0.005550455652173913,0.1502074918946234
-0.005550115652173913,0.1439210023635145
-0.005549775652173914,0.1378978212944305
-0.005549435652173913,0.1322696029183919
-0.005549095652173913,0.1271350879086904
-0.005548755652173914,0.1225930169385615
-0.005548415652173913,0.1186433900080075
-0.005548075652173913,0.1147595901929769
-0.005547735652173914,0.1114024073020121
-0.005547395652173913,0.1079793972955323
-0.005547055652173913,0.1047538686355915
-0.005546715652173914,0.1014625128601358
-0.005546375652173913,0.09820407064242814
-0.005546035652173913,0.09461649284718793
-0.005545695652173914,0.09086434726316842
-0.005545355652173913,0.08681597965934999
-0.005545015652173913,0.08247139003575635
-0.005544675652173914,0.07858759022071862
-0.005544335652173913,0.0756911971383125
-0.005543995652173913,0.07289354472918025
-0.005543655652173914,0.07016171943555199
-0.005543315652173913,0.06818690597027653
-0.005542975652173913,0.06706784500662363
-0.005542635652173914,0.0653234264456321
-0.005542295652173914,0.06374357567341622
-0.005541955652173913,0.06213081134344006
-0.005541615652173914,0.06094592326427601
-0.005541275652173914,0.05969520806960511
-0.005540935652173913,0.05831283864391144
-0.005540595652173914,0.0569633827759746
-0.005540255652173914,0.05528479133049524
-0.005539915652173913,0.05446195238662826
-0.005539575652173914,0.05261879315237306
-0.005539235652173914,0.05110476949566619
-0.005538895652173913,0.04972240006997204
-0.005538555652173914,0.04791215439347139
-0.005538215652173914,0.046628525641046
-0.005537875652173913,0.04458788506026112
-0.005537535652173914,0.04294220717253327
-0.005537195652173914,0.04067117168747296
-0.005536855652173913,0.03876218533770451
-0.005536515652173913,0.03747855658527679
-0.005536175652173914,0.03609618715958791
-0.005535835652173913,0.03435176859859387
-0.005535495652173913,0.03244278224882955
-0.005535155652173914,0.03125789416966766
-0.005534815652173913,0.03007300609050144
-0.005534475652173913,0.0296451298396922
-0.005534135652173914,0.02895394512684776
-0.005533795652173913,0.02852606887603726
-0.005533455652173913,0.02740700791238232
-0.005533115652173914,0.02625503339097282
-0.005532775652173913,0.02562967579363623
-0.005532435652173913,0.02543219444710889
-0.005532095652173914,0.02553093512037256
-0.005531755652173913,0.02566258935139079
-0.005531415652173913,0.02516888598507243
-0.005531075652173914,0.02444478771447217
-0.005530735652173913,0.02286493694225343
-0.005530395652173913,0.02148256751656204
-0.005530055652173914,0.02072555568820722
-0.005529715652173913,0.02006728453311578
-0.005529375652173913,0.0199027167443433
-0.005529035652173914,0.01957358116679772
-0.005528695652173913,0.01888239645395095
-0.005528355652173913,0.01828995241437
-0.005528015652173914,0.01773042193254253
-0.005527675652173913,0.01763168125927933
-0.005527335652173913,0.01789498972131531
-0.005526995652173914,0.01845452020314278
-0.005526655652173913,0.01884948289619741
-0.005526315652173913,0.01881656933844291
-0.005525975652173914,0.01825703885661544
-0.005525635652173913,0.01763168125927796
-0.005525295652173913,0.0171379778929605
-0.005524955652173914,0.01694049654643316
-0.005524615652173913,0.01674301519990629
-0.005524275652173913,0.01700632366194227
-0.005523935652173914,0.01723671856622417
-0.005523595652173913,0.01690758298867752
-0.005523255652173913,0.01631513894909657
-0.005522915652173914,0.01588726269828733
-0.005522575652173913,0.01506442375442173
-0.005522235652173913,0.0141428441372958
-0.005521895652173914,0.01292504250037719
-0.005521555652173913,0.01200346288324851
-0.005521215652173913,0.01141101884366756
-0.005520875652173914,0.01121353749714022
-0.005520535652173914,0.0114768459591762
-0.005520195652173913,0.01197054932549503
-0.005519855652173914,0.01272756115384985
-0.005519515652173914,0.01292504250037683
-0.005519175652173913,0.01239842557630427
-0.005518835652173914,0.01177306797896769
-0.005518495652173914,0.01098314259285976
-0.005518155652173913,0.01035778499552173
-0.005517815652173914,0.009765340955939707
-0.005517475652173914,0.009929908744712192
-0.005517135652173913,0.01009447653348528
-0.005516795652173914,0.01042361211103085
-0.005516455652173914,0.01052235278429434
-0.005516115652173913,0.01019321720674895
-0.005515775652173914,0.01055526634204908
-0.005515435652173914,0.01101605615061204
-0.005515095652173913,0.01095022903510376
-0.005514755652173913,0.01108188326612199
-0.005514415652173914,0.01081857480408601
-0.005514075652173913,0.01104896970836743
-0.005513735652173913,0.01134519172815845
-0.005513395652173914,0.01137810528591294
-0.005513055652173913,0.01150975951693123
-0.005512715652173913,0.01150975951693123
-0.005512375652173914,0.01174015442121313
-0.005512035652173913,0.01187180865223136
-0.005511695652173913,0.01200346288324959
-0.005511355652173914,0.01095022903510376
-0.005511015652173913,0.01042361211103085
-0.005510675652173913,0.009962822302467049
-0.005510335652173914,0.009370378262885021
-0.005509995652173913,0.008613366434530208
-0.005509655652173913,0.007625959701893495
-0.005509315652173914,0.007132256335575138
-0.005508975652173913,0.006836034315783945
-0.005508635652173913,0.006737293642520453
-0.005508295652173914,0.006934774989047795
-0.005507955652173913,0.007395564797611475
-0.005507615652173913,0.007329737682102481
-0.005507275652173914,0.007593046144138938
-0.005506935652173913,0.007165169893330114
-0.005506595652173913,0.007395564797611595
-0.005506255652173914,0.007988008837193623
-0.005505915652173913,0.009041242685339569
-0.005505575652173913,0.009107069800848565
-0.005505235652173914,0.009337464705130465
-0.005504895652173913,0.009370378262884902
-0.005504555652173913,0.009304551147375908
-0.005504215652173914,0.008547539319021094
-0.005503875652173913,0.008679193550037346
-0.005503535652173913,0.007593046144138938
-0.005503195652173914,0.006408158064974882
-0.005502855652173913,0.00594736825641204
-0.005502515652173913,0.006473985180483996
-0.005502175652173914,0.006342330949465767
-0.005501835652173913,0.006638552969255704
-0.005501495652173913,0.006046108929674754
-0.005501155652173914,0.005420751332338168
-0.005500815652173913,0.004729566619491571
-0.005500475652173913,0.004235863253174112
-0.005500135652173914,0.00357759209808297
-0.005499795652173914,0.003149715847274506
-0.005499455652173913,0.003116802289519171
-0.005499115652173914,0.003742159886855756
-0.005498775652173914,0.005453664890089613
-0.005498435652173913,0.006737293642520453
-0.005498095652173914,0.008185490183720966
-0.005497755652173914,0.008415885088002445
-0.005497415652173913,0.007889268163929951
-0.005497075652173914,0.007593046144138938
-0.005496735652173914,0.007461391913120948
-0.005496395652173913,0.006704380084765896
-0.005496055652173914,0.005881541140901968
-0.005495715652173914,0.005815714025392973
-0.005495375652173913,0.00528909710131994
-0.005495035652173914,0.004992875081528926
-0.005494695652173914,0.004696653061738451
-0.005494355652173913,0.005190356428056269
-0.005494015652173913,0.005914454698656525
-0.005493675652173914,0.006144849602938006
-0.005493335652173913,0.00677020720027501
-0.005492995652173913,0.007099342777820581
-0.005492655652173914,0.006803120758030106
-0.005492315652173913,0.006342330949465767
-0.005491975652173913,0.006111936045183867
-0.005491635652173914,0.005881541140902387
-0.005491295652173913,0.00607902248742931
-0.005490955652173913,0.006868947873538681
-0.005490615652173914,0.007296824124347924
-0.005490275652173913,0.007856354606175394
-0.005489935652173913,0.008251317299230079
-0.005489595652173914,0.008218403741475522
-0.005489255652173913,0.007856354606175394
-0.005488915652173913,0.007527219028629823
-0.005488575652173914,0.007066429220066024
-0.005488235652173913,0.006408158064973685
-0.005487895652173913,0.00574988690988374
-0.005487555652173914,0.004861220850510698
-0.005487215652173913,0.004499171715209132
-0.005486875652173913,0.003709246329101199
-0.005486535652173914,0.003248456520537399
-0.005486195652173913,0.003676332771348258
-0.005485855652173913,0.004564998830719684
-0.005485515652173914,0.005651146236620068
-0.005485175652173913,0.006079022487430688
-0.005484835652173913,0.006836034315784124
-0.005484495652173914,0.007165169893329695
-0.005484155652173913,0.007066429220066742
-0.005483815652173913,0.007461391913120709
-0.005483475652173914,0.007889268163929951
-0.005483135652173913,0.008185490183721205
-0.005482795652173913,0.008317144414739193
-0.005482455652173914,0.008745020665548437
-0.005482115652173913,0.009798254513696239
-0.005481775652173913,0.01088440191959465
-0.005481435652173914,0.01147684595917668
-0.005481095652173913,0.01223385778753143
-0.005480755652173913,0.01220094422977693
-0.005480415652173914,0.01118062393938566
-0.005480075652173913,0.00989699518695572
-0.005479735652173913,0.008679193550039321
-0.005479395652173914,0.007757613932911723
-0.005479055652173914,0.007230997008839767
-0.005478715652173913,0.00700060210455691
-0.005478375652173914,0.007099342777820581
-0.005478035652173914,0.007494305470874548
-0.005477695652173913,0.007362651239857037
-0.005477355652173914,0.006803120758029567
-0.005477015652173914,0.005782800467640153
-0.005476675652173913,0.005618232678865511
-0.005476335652173914,0.005387837774583611
-0.005475995652173914,0.005651146236619589
-0.005475655652173913,0.006013195371920196
-0.005475315652173914,0.00677020720027501
-0.005474975652173914,0.007198083451083474
-0.005474635652173913,0.007099342777820581
-0.005474295652173914,0.006638552969256781
-0.005473955652173914,0.005684059794376362
-0.005473615652173913,0.005190356428056269
-0.005473275652173913,0.004532085272965126
-0.005472935652173914,0.004038381906647667
-0.005472595652173913,0.004104209022155884
-0.005472255652173913,0.004104209022155884
-0.005471915652173914,0.004170036137664879
-0.005471575652173913,0.004499171715210569
-0.005471235652173913,0.00528909710131994
-0.005470895652173914,0.006276503833954857
-0.005470555652173913,0.006836034315784124
-0.005470215652173913,0.007362651239857037
-0.005469875652173914,0.007625959701893495
-0.005469535652173913,0.007625959701893495
-0.005469195652173913,0.007593046144138938
-0.005468855652173914,0.007428478355366152
-0.005468515652173913,0.007691786817402609
-0.005468175652173913,0.008284230856984636
-0.005467835652173914,0.008745020665548437
-0.005467495652173913,0.009074156243094007
-0.005467155652173913,0.00871210710779388
-0.005466815652173914,0.00811966306821185
-0.005466475652173913,0.00749430547087347
-0.005466135652173913,0.006506898738238553
-0.005465795652173914,0.00607902248742931
-0.005465455652173913,0.005980281814167256
-0.005465115652173913,0.006868947873538681
-0.005464775652173914,0.007362651239857037
-0.005464435652173913,0.008317144414740451
-0.005464095652173913,0.009008329127584893
-0.005463755652173914,0.00973242739818515
-0.005463415652173913,0.01042361211103073
-0.005463075652173913,0.01035778499552173
-0.005462735652173914,0.01039069855327629
-0.005462395652173913,0.009469118936147256
-0.005462055652173913,0.008679193550039321
-0.005461715652173914,0.007955095279439066
-0.005461375652173913,0.007625959701893016
-0.005461035652173913,0.007362651239857037
-0.005460695652173914,0.007066429220066024
-0.005460355652173913,0.007362651239857277
-0.005460015652173913,0.007494305470875266
-0.005459675652173914,0.00779052749066628
-0.005459335652173913,0.008119663068211911
-0.005458995652173913,0.008152576625966409
-0.005458655652173914,0.007625959701893495
-0.005458315652173913,0.006638552969255105
-0.005457975652173913,0.005716973352129182
-0.005457635652173914,0.004959961523774369
-0.005457295652173914,0.004400431041947915
-0.005456955652173913,0.004433344599701455
-0.005456615652173914,0.004696653061737912
-0.005456275652173914,0.005782800467636321
-0.005455935652173913,0.006276503833956653
-0.005455595652173914,0.006605639411502225
-0.005455255652173914,0.006934774989047197
-0.005454915652173913,0.006671466527011338
-0.005454575652173914,0.005782800467638296
-0.005454235652173914,0.005684059794374805
-0.005453895652173913,0.00607902248742931
-0.005453555652173914,0.006473985180483996
-0.005453215652173914,0.007263910566591929
-0.005452875652173913,0.007955095279439066
-0.005452535652173914,0.008382971530248308
-0.005452195652173914,0.008547539319020794
-0.005451855652173913,0.00811966306821185
-0.005451515652173913,0.007922181721684508
-0.005451175652173914,0.007329737682103559
-0.005450835652173913,0.007494305470875266
-0.005450495652173913,0.007132256335575138
-0.005450155652173914,0.007033515662311646
-0.005449815652173913,0.007593046144138938
-0.005449475652173913,0.008481712203511979
-0.005449135652173914,0.009041242685338432
-0.005448795652173913,0.008745020665548437
-0.005448455652173913,0.008843761338812107
-0.005448115652173914,0.007988008837193623
-0.005447775652173913,0.007263910566593366
-0.005447435652173913,0.006177763160692982
-0.005447095652173914,0.005914454698656525
-0.005446755652173913,0.005618232678865511
-0.005446415652173913,0.005453664890092726
-0.005446075652173914,0.005782800467638296
-0.005445735652173913,0.005947368256412159
-0.005445395652173913,0.00653981229599311
-0.005445055652173914,0.006506898738238553
-0.005444715652173913,0.00574988690988344
-0.005444375652173913,0.005585319121110954
-0.005444035652173914,0.005618232678865511
-0.005443695652173913,0.006309417391713186
-0.005443355652173913,0.007395564797611595
-0.005443015652173914,0.009600773167166921
-0.005442675652173913,0.0106540070153146
-0.005442335652173913,0.01167432730570402
-0.005441995652173914,0.01213511711426782
-0.005441655652173913,0.01167432730570192
-0.005441315652173913,0.01052235278429452
-0.005440975652173914,0.009271637589621349
-0.005440635652173913,0.007823441048418202
-0.005440295652173913,0.006375244507220324
-0.005439955652173914,0.005387837774583611
-0.005439615652173913,0.004795393735001164
-0.005439275652173913,0.004564998830719684
-0.005438935652173914,0.003215542962782842
-0.005438595652173913,-0.002116453393477142
-0.005438255652173913,-0.01406407485835964
-0.005437915652173914,-0.03460213489720328
-0.005437575652173913,-0.06294070812393736
-0.005437235652173913,-0.09615048789822506
-0.005436895652173914,-0.1306109828672464
-0.005436555652173914,-0.1636232812950071
-0.005436215652173913,-0.1919289409639862
-0.005435875652173914,-0.2141785060060669
-0.005435535652173914,-0.2300428408437345
-0.005435195652173913,-0.2394561183615667
-0.005434855652173914,-0.2436361401963955
-0.005434515652173914,-0.243274091061096
-0.005434175652173913,-0.2394890319193213
-0.005433835652173914,-0.233564591523501
-0.005433495652173914,-0.2260932139132301
-0.005433155652173913,-0.2187534905339503
-0.005432815652173914,-0.2120062111942661
-0.005432475652173914,-0.2053247589701032
-0.005432135652173913,-0.199005355881216
-0.005431795652173914,-0.1935417052939596
-0.005431455652173914,-0.1885059309575215
-0.005431115652173913,-0.1835688972943287
-0.005430775652173913,-0.1780723331493177
-0.005430435652173914,-0.1709959182321008
-0.005430095652173913,-0.1640182439881218
-0.005429755652173913,-0.1572709646484376
-0.005429415652173914,-0.1508199073285562
-0.005429075652173913,-0.1447638127017059
-0.005428735652173913,-0.138740631632622
-0.005428395652173914,-0.1332440674876209
-0.005428055652173913,-0.1279120711313727
-0.005427715652173913,-0.1230408645836982
-0.005427375652173914,-0.1188279291911149
-0.005427035652173913,-0.1150099564915863
-0.005426695652173913,-0.1115211193696032
-0.005426355652173914,-0.1075056653235473
-0.005426015652173913,-0.1040497417593188
-0.005425675652173913,-0.1008571266571267
-0.005425335652173914,-0.09687458616882533
-0.005424995652173913,-0.09236542875645098
-0.005424655652173913,-0.08782335778632211
-0.005424315652173914,-0.08344585460496601
-0.005423975652173913,-0.07870630228830273
-0.005423635652173913,-0.07482250247327205
-0.005423295652173914,-0.07100452977374344
-0.005422955652173913,-0.06787774178705519
-0.005422615652173913,-0.06494843514690493
-0.005422275652173914,-0.06284196745061327
-0.005421935652173913,-0.06113046244737397
-0.005421595652173913,-0.05984683369494857
-0.005421255652173914,-0.05853029138476629
-0.005420915652173913,-0.05701626772805307
-0.005420575652173913,-0.05504145426278324
-0.005420235652173914,-0.05211214762262766
-0.005419895652173913,-0.04947906300225705
-0.005419555652173913,-0.04615479366905282
-0.005419215652173914,-0.04355462260644281
-0.005418875652173913,-0.0412506735636204
-0.005418535652173913,-0.03937460077161405
-0.005418195652173914,-0.03776183644164076
-0.005417855652173913,-0.03667568903573846
-0.005417515652173913,-0.03562245518759454
-0.005417175652173914,-0.03417425864639403
-0.005416835652173913,-0.03289062989396337
-0.005416495652173913,-0.03127786556399301
-0.005416155652173914,-0.02933596565647414
-0.005415815652173913,-0.02752571997997026
-0.005415475652173913,-0.02574838786122741
-0.005415135652173914,-0.02390522862697221
-0.005414795652173914,-0.02304947612535529
-0.005414455652173913,-0.02239120497026259
-0.005414115652173914,-0.02216081006598069
