Analysis/New Tests_CMB/wrd01_d2s01/cmb12_ch38.csv

#Digilent WaveForms Oscilloscope Acquisition
#Device Name: ADP3450
#Serial Number: SN:210018B9D9B0
#Date Time: 2024-08-15 12:01:17.391.453.930
#Sample rate: 5.88235e+06Hz
#Samples: 32768
#Trigger: Source: Channel 3 Type: Edge Condition: Rising Level: 40 mV Hyst.: Auto HoldOff: 0 s
#Channel 3: Range: 100 mV/div Offset: 0 V Attenuation: 1 X Coupling: DC Bandwidth: 0 Hz Sample Mode: Average

Time (s),Channel 3 (V)
-0.003168856356114701,0.007922181721684508
-0.0031686863561147,0.008053835952702138
-0.0031685163561147,0.007724700375157166
-0.0031683463561147,0.007165169893329695
-0.0031681763561147,0.007527219028628746
-0.0031680063561147,0.006934774989047795
-0.0031678363561147,0.006967688546802352
-0.0031676663561147,0.007066429220066263
-0.0031674963561147,0.007198083451084253
-0.0031673263561147,0.005947368256411082
-0.0031671563561147,0.006572725853747128
-0.0031669863561147,0.006276503833956653
-0.0031668163561147,0.005420751332338168
-0.0031666463561147,0.005585319121109636
-0.0031664763561147,0.004861220850510698
-0.0031663063561147,0.004235863253174112
-0.0031661363561147,0.003149715847273069
-0.0031659663561147,0.0027876667119736
-0.0031657963561147,0.001899000652600558
-0.0031656263561147,0.001273643055263135
-0.0031654563561147,0.0008128532467001733
-0.0031652863561147,0.001833173537091444
-0.003165116356114701,-0.0003062077169508771
-0.0031649463561147,-0.001096133103064139
-0.0031647763561147,-0.0009973924298004675
-0.003164606356114701,-0.0008657381987824787
-0.0031644363561147,-0.0004049483902184396
-0.0031642663561147,-0.0002732941592002112
-0.003164096356114701,8.875497609925841e-05
-0.0031639263561147,0.0007470261311910591
-0.0031637563561147,0.001207815939754859
-0.003163586356114701,0.001372383728527345
-0.0031634163561147,0.001504037959545873
-0.0031632463561147,0.001899000652600558
-0.003163076356114701,0.002392704018918016
-0.0031629063561147,0.002688926038709928
-0.0031627363561147,0.003083888731764614
-0.003162566356114701,0.0032484565205371
-0.0031623963561147,0.003906727675628541
-0.0031622263561147,0.004334603926437783
-0.003162056356114701,0.004663739503982757
-0.0031618863561147,0.005651146236620068
-0.0031617163561147,0.006046108929674754
-0.003161546356114701,0.007165169893327659
-0.0031613763561147,0.007625959701893495
-0.0031612063561147,0.008415885088002865
-0.003161036356114701,0.008152576625966888
-0.0031608663561147,0.008185490183720966
-0.0031606963561147,0.008382971530248308
-0.003160526356114701,0.008218403741475522
-0.0031603563561147,0.00779052749066628
-0.0031601863561147,0.007395564797611595
-0.003160016356114701,0.007362651239857037
-0.0031598463561147,0.006441071622729439
-0.0031596763561147,0.005947368256411082
-0.003159506356114701,0.005519492005601839
-0.0031593363561147,0.00472956661949199
-0.0031591663561147,0.004466258157456012
-0.003158996356114701,0.004071295464401327
-0.0031588263561147,0.003906727675627763
-0.0031586563561147,0.003478851424819299
-0.003158486356114701,0.002886407385237271
-0.0031583163561147,0.002853493827481397
-0.0031581463561147,0.002129395556882458
-0.003157976356114701,0.002623098923200814
-0.0031578063561147,0.002491444692182885
-0.0031576363561147,0.002656012480955371
-0.0031574663561147,0.002392704018918914
-0.0031572963561147,0.001734432863828072
-0.0031571263561147,0.001899000652600558
-0.0031569563561147,0.001141988824245744
-0.0031567863561147,0.0006482854579264898
-0.0031566163561147,0.0001545820916090312
-0.0031564463561147,-0.001063219545309582
-0.0031562763561147,-0.0006353432945029737
-0.0031561063561147,-0.002083539835700852
-0.0031559363561147,-0.00267598387528288
-0.0031557663561147,-0.002610156759774724
-0.0031555963561147,-0.00313677368384668
-0.0031554263561147,-0.003992526185465165
-0.0031552563561147,-0.003893785512201014
-0.0031550863561147,-0.003630477050165036
-0.0031549163561147,-0.003268427914864908
-0.003154746356114701,-0.002939292337319935
-0.0031545763561147,-0.002313934739982752
-0.0031544063561147,-0.001161960218573253
-0.003154236356114701,-0.0004378619479743138
-0.0031540663561147,0.0001874956493635883
-0.0031538963561147,0.001010334593227516
-0.003153726356114701,0.001635692190562963
-0.0031535563561147,0.00176734642158233
-0.0031533863561147,0.001833173537091444
-0.003153216356114701,0.001767346421582449
-0.0031530463561147,0.001602778632809544
-0.0031528763561147,0.001504037959545873
-0.003152706356114701,0.001076161708737408
-0.0031525363561147,0.0007799396889456162
-0.0031523663561147,0.0005824583424182735
-0.003152196356114701,0.0002862363226277984
-0.0031520263561147,-0.000207467043691097
-0.0031518563561147,-0.0001745534859365399
-0.003151686356114701,0.0001216685338539352
-0.0031515163561147,0.0001545820916090312
-0.0031513463561147,0.0003849769958909309
-0.003151176356114701,0.0006153719001724116
-0.0031510063561147,0.0009115939199638446
-0.0031508363561147,0.0007799396889456162
-0.003150666356114701,0.0006482854579276273
-0.0031504963561147,0.0004837176691546022
-0.0031503263561147,-7.581281267286857e-05
-0.003150156356114701,-0.0005036890634821109
-0.0031499863561147,-0.000832824641027682
-0.0031498163561147,-0.0004049483902184396
-0.003149646356114701,-0.001161960218573253
-0.0031494763561147,-0.001030305987555025
-0.0031493063561147,-0.0009973924298004675
-0.003149136356114701,-0.001063219545309582
-0.0031489663561147,-0.001260700891836924
-0.0031487963561147,-0.001589836469382495
-0.003148626356114701,-0.001359441565100596
-0.0031484563561147,-0.001359441565100057
-0.0031482863561147,-0.001063219545309582
-0.003148116356114701,-0.001096133103064139
-0.0031479463561147,-0.001425268680607854
-0.0031477763561147,-0.0004049483902184396
-0.003147606356114701,-0.0007669975255185678
-0.0031474363561147,-0.0007669975255179093
-0.0031472663561147,-0.0004049483902184396
-0.0031470963561147,-0.0001087263704274257
-0.0031469263561147,0.0001216685338550728
-0.0031467563561147,0.0004508041114000451
-0.0031465863561147,0.0002533227648727025
-0.0031464163561147,0.0006482854579266095
-0.0031462463561147,0.0002204092071181454
-0.0031460763561147,-0.0009315653142913533
-0.0031459063561147,-0.002511416086510873
-0.0031457363561147,-0.002939292337319337
-0.0031455663561147,-0.003465909261392251
-0.0031453963561147,-0.003663390607920012
-0.0031452263561147,-0.003893785512201493
-0.0031450563561147,-0.00415709397423795
-0.0031448863561147,-0.005045760033610991
-0.0031447163561147,-0.005045760033610991
-0.0031445463561147,-0.00494701936034732
-0.0031443763561147,-0.005210327822383298
-0.0031442063561147,-0.00494701936034732
-0.0031440363561147,-0.004782451571574535
-0.003143866356114701,-0.004420402436275065
-0.0031436963561147,-0.004486229551783521
-0.0031435263561147,-0.00415709397423795
-0.003143356356114701,-0.00415709397423795
-0.0031431863561147,-0.004749538013819977
-0.0031430163561147,-0.004683710898310864
-0.003142846356114701,-0.005045760033610333
-0.0031426763561147,-0.004979932918101878
-0.0031425063561147,-0.00438748887851985
-0.003142336356114701,-0.00425583464750186
-0.0031421663561147,-0.003531736376901365
-0.0031419963561147,-0.003432995703637694
-0.003141826356114701,-0.002675983875284257
-0.0031416563561147,-0.002050626277946295
-0.0031414863561147,-0.0009315653142913533
-0.003141316356114701,-0.00168857714264479
-0.0031411463561147,0.0002533227648727025
-0.0031409763561147,-0.0002403806014456541
-0.003140806356114701,0.000319149880380799
-0.0031406363561147,-0.0006682568522548965
-0.0031404663561147,-0.001096133103064139
-0.003140296356114701,-0.0008657381987826583
-0.0031401263561147,-0.0007669975255185678
-0.0031399563561147,-0.001096133103064139
-0.003139786356114701,-0.001096133103064139
-0.0031396163561147,-0.001326528007346039
-0.0031394463561147,-0.001458182238364267
-0.003139276356114701,-0.002083539835700852
-0.0031391063561147,-0.001918972046928067
-0.0031389363561147,-0.001820231373664395
-0.003138766356114701,-0.001853144931418952
-0.0031385963561147,-0.002281021182228195
-0.0031384263561147,-0.002708897433037437
-0.003138256356114701,-0.002972205895073894
-0.0031380863561147,-0.003070946568339002
-0.0031379163561147,-0.003860871954446936
-0.003137746356114701,-0.00392669906995605
-0.0031375763561147,-0.004519143109538736
-0.0031374063561147,-0.004881192244838206
-0.003137236356114701,-0.005111587149120106
-0.0031370663561147,-0.005704031188703271
-0.0031368963561147,-0.006329388786038719
-0.0031367263561147,-0.006000253208493148
-0.0031365563561147,-0.006790178594602099
-0.0031363863561147,-0.006559783690320619
-0.0031362163561147,-0.006526870132566062
-0.0031360463561147,-0.005835685419719464
-0.0031358763561147,-0.005341982053402005
-0.0031357063561147,-0.004979932918101878
-0.0031355363561147,-0.004947019360346003
-0.0031353663561147,-0.004222921089747064
-0.0031351963561147,-0.003959612627710607
-0.0031350263561147,-0.003432995703637634
-0.0031348563561147,-0.003400082145883136
-0.0031346863561147,-0.002972205895073894
-0.0031345163561147,-0.002708897433036958
-0.0031343463561147,-0.00244558897100098
-0.0031341763561147,-0.002116453393455409
-0.0031340063561147,-0.002281021182228254
-0.0031338363561147,-0.002313934739982752
-0.0031336663561147,-0.001787317815909838
-0.003133496356114701,-0.001556922911628358
-0.0031333263561147,-0.001458182238364267
-0.0031331563561147,-0.001161960218573253
-0.003132986356114701,-0.001129046660818756
-0.0031328163561147,-0.0003720348324638825
-0.0031326463561147,-0.001293614449591481
-0.003132476356114701,-0.001260700891836984
-0.0031323063561147,-0.001096133103064139
-0.0031321363561147,-0.001589836469382495
-0.003131966356114701,-0.001129046660819534
-0.0031317963561147,-0.001458182238364267
-0.0031316263561147,-0.001721490700400724
-0.003131456356114701,-0.001227787334083266
-0.0031312863561147,-0.001688577142646167
-0.0031311163561147,-0.002577243202019209
-0.003130946356114701,-0.003564649934654126
-0.0031307763561147,-0.003729217723428708
-0.0031306063561147,-0.004453315994028964
-0.003130436356114701,-0.00497993291810092
-0.0031302663561147,-0.005374895611156563
-0.0031300963561147,-0.006461043017056948
-0.003129926356114701,-0.006592697248074936
-0.0031297563561147,-0.006625610805829733
-0.0031295863561147,-0.007020573498884419
-0.003129416356114701,-0.006461043017057965
-0.0031292463561147,-0.006395215901547833
-0.0031290763561147,-0.005967339650738591
-0.003128906356114701,-0.005572376957683906
-0.0031287363561147,-0.005045760033610991
-0.0031285663561147,-0.004321661763010735
-0.003128396356114701,-0.003630477050165036
-0.0031282263561147,-0.003235514357110351
-0.0031280563561147,-0.002939292337319337
-0.003127886356114701,-0.002807638106301108
-0.0031277163561147,-0.002939292337319576
-0.0031275463561147,-0.003070946568337565
-0.003127376356114701,-0.002412675413246423
-0.0031272063561147,-0.003663390607918755
-0.0031270363561147,-0.003202600799355794
-0.003126866356114701,-0.003202600799355794
-0.0031266963561147,-0.003268427914864968
-0.0031265263561147,-0.003301341472619465
-0.003126356356114701,-0.00290637877956478
-0.0031261863561147,-0.002511416086510753
-0.0031260163561147,-0.002873465221810222
-0.0031258463561147,-0.002511416086510094
-0.0031256763561147,-0.00277472454854721
-0.0031255063561147,-0.00313677368384668
-0.0031253363561147,-0.003301341472619465
-0.0031251663561147,-0.003465909261392011
-0.0031249963561147,-0.003334255030374022
-0.0031248263561147,-0.003630477050165036
-0.0031246563561147,-0.003663390607919893
-0.0031244863561147,-0.003827958396692379
-0.0031243163561147,-0.004058353300974278
-0.0031241463561147,-0.003301341472618746
-0.0031239763561147,-0.00290637877956478
-0.0031238063561147,-0.002313934739982752
-0.0031236363561147,-0.002116453393455469
-0.0031234663561147,-0.002149366951209966
-0.0031232963561147,-0.001063219545309582
-0.003123126356114701,-0.0008986517565370957
-0.0031229563561147,5.584141834535986e-05
-0.0031227863561147,0.0002862363226272596
-0.003122616356114701,0.0009445074777172044
-0.0031224463561147,0.001635692190564101
-0.0031222763561147,0.0009115939199638446
-0.003122106356114701,0.001602778632808287
-0.0031219363561147,0.0006482854579273878
-0.0031217663561147,0.001569865075054987
-0.003121596356114701,0.001339470170773506
-0.0031214263561147,-0.001129046660818696
-0.0031212563561147,-0.0005695161789912252
-0.003121086356114701,-0.0009315653142906948
-0.0031209163561147,-0.001458182238364267
-0.0031207463561147,-0.001622750027137053
-0.003120576356114701,-0.001951885604682025
-0.0031204063561147,-0.001622750027137053
-0.0031202363561147,-0.001524009353873381
-0.003120066356114701,-0.000799911083274442
-0.0031198963561147,-4.289925491831147e-05
-0.0031197263561147,0.0007470261311910591
-0.003119556356114701,0.001240729497508518
-0.0031193863561147,0.00153695151730043
-0.0031192163561147,0.00176734642158233
-0.003119046356114701,0.002129395556881799
-0.0031188763561147,0.002392704018918914
-0.0031187063561147,0.001931914210355115
-0.003118536356114701,0.002458531134428029
-0.0031183663561147,0.0023268769034098
-0.0031181963561147,0.00176734642158233
-0.003118026356114701,0.001109075266491187
-0.0031178563561147,0.000714112573436502
-0.0031176863561147,0.0003520634381363738
-0.003117516356114701,0.0003520634381363738
-0.0031173463561147,0.0005495447846637165
-0.0031171763561147,0.0004837176691546022
-0.003117006356114701,2.292786059080275e-05
-0.0031168363561147,-0.0004049483902189785
-0.0031166663561147,-0.0007011704100094536
-0.003116496356114701,-0.001161960218573253
-0.0031163263561147,-0.001589836469384531
-0.0031161563561147,-0.002708897433037437
-0.003115986356114701,-0.002708897433037437
-0.0031158163561147,-0.002906378779566756
-0.0031156463561147,-0.003992526185465165
-0.0031154763561147,-0.004222921089747064
-0.0031153063561147,-0.004979932918102955
-0.0031151363561147,-0.005572376957683906
-0.0031149663561147,-0.006329388786038719
-0.0031147963561147,-0.006461043017058265
-0.0031146263561147,-0.007185141287657204
-0.0031144563561147,-0.007185141287657204
-0.0031142863561147,-0.007481363307448277
-0.0031141163561147,-0.007514276865202775
-0.0031139463561147,-0.008139634462539359
-0.0031137763561147,-0.008501683597840506
-0.0031136063561147,-0.009061214079666959
-0.0031134363561147,-0.00860042427110316
-0.0031132663561147,-0.008435856482330015
-0.0031130963561147,-0.008238375135803031
-0.0031129263561147,-0.007349709076429989
-0.0031127563561147,-0.007283881960920037
-0.0031125863561147,-0.006823092152357076
-0.0031124163561147,-0.006098993881756819
-0.003112246356114701,-0.005374895611157881
-0.0031120763561147,-0.005012846475856435
-0.0031119063561147,-0.003630477050165036
-0.003111736356114701,-0.002906378779566097
-0.0031115663561147,-0.002511416086510094
-0.0031113963561147,-0.001622750027137053
-0.003111226356114701,-0.001063219545310599
-0.0031110563561147,-0.0007669975255185678
-0.0031108863561147,-0.0006024297367457822
-0.003110716356114701,-0.0004378619479732961
-0.0031105463561147,-0.0003062077169547683
-0.0031103763561147,-0.0005695161789912252
-0.003110206356114701,-0.0002732941592007501
-0.0031100363561147,-0.0006353432945003394
-0.0031098663561147,-0.0009315653142913533
-0.003109696356114701,-0.0008986517565368562
-0.0031095263561147,-0.001293614449591481
-0.0031093563561147,-0.001754404258155281
-0.003109186356114701,-0.001589836469382795
-0.0031090163561147,-0.001161960218573253
-0.0031088463561147,-0.0006353432945003394
-0.003108676356114701,-0.0001416399281828809
-0.0031085063561147,0.0004508041114000451
-0.0031083363561147,0.001240729497509416
-0.003108166356114701,0.0006811990156829626
-0.0031079963561147,0.001010334593227516
-0.0031078263561147,0.001405297286282201
-0.003107656356114701,0.001964827768109672
-0.0031074863561147,0.001569865075054987
-0.0031073163561147,0.001602778632809544
-0.003107146356114701,0.001931914210355115
-0.0031069763561147,0.00130655661301853
-0.0031068063561147,0.00107616170873663
-0.003106636356114701,0.0004508041114000451
-0.0031064663561147,-0.0003720348324638825
-0.0031062963561147,-0.0003720348324638825
-0.003106126356114701,-0.00119487377632781
-0.0031059563561147,-0.001787317815911215
-0.0031057863561147,-0.002544329644264652
-0.003105616356114701,-0.002873465221810222
-0.0031054463561147,-0.003103860126095176
-0.0031052763561147,-0.004782451571574535
-0.003105106356114701,-0.004650797340556306
-0.0031049363561147,-0.005868598977476357
-0.0031047663561147,-0.00665852436358429
-0.0031045963561147,-0.007843412442748346
-0.0031044263561147,-0.008106720904786119
-0.0031042563561147,-0.008830819175385059
-0.0031040863561147,-0.009357436099457973
-0.0031039163561147,-0.009686571677003483
-0.0031037463561147,-0.009653658119248986
-0.0031035763561147,-0.009159954752930631
-0.0031034063561147,-0.008962473406403108
-0.0031032363561147,-0.008863732733139616
-0.0031030663561147,-0.008732078502121389
-0.0031028963561147,-0.008501683597838948
-0.0031027263561147,-0.008205461578048474
-0.0031025563561147,-0.007481363307448217
-0.0031023863561147,-0.006987659941129143
-0.0031022163561147,-0.006592697248075176
-0.0031020463561147,-0.006493956574811504
-0.003101876356114701,-0.006230648112775526
-0.0031017063561147,-0.005802771861965805
-0.0031015363561147,-0.005736944746456691
-0.003101366356114701,-0.005671117630947697
-0.0031011963561147,-0.005045760033610991
-0.0031010263561147,-0.005901512535229476
-0.003100856356114701,-0.00609899388175646
-0.0031006863561147,-0.007152227729902647
-0.0031005163561147,-0.007744671769484675
-0.003100346356114701,-0.008896646290892077
-0.0031001763561147,-0.009554917445985316
-0.0031000063561147,-0.01031192927434013
-0.003099836356114701,-0.01123350889146605
-0.0030996663561147,-0.0120234342775771
-0.0030994963561147,-0.01287918677919558
-0.003099326356114701,-0.01304375456796807
-0.0030991563561147,-0.0136361986075504
-0.0030989863561147,-0.01590723409261484
-0.003098816356114701,-0.01333997658776405
-0.0030986463561147,-0.01255005120165001
-0.0030984763561147,-0.01215508850859533
-0.003098306356114701,-0.01169429870003237
-0.0030981363561147,-0.01044358350535836
-0.0030979663561147,-0.009258695426194301
-0.003097796356114701,-0.008139634462541394
-0.0030976263561147,-0.007645931096221003
-0.0030974563561147,-0.006066080324002262
-0.003097286356114701,-0.004881192244838206
-0.0030971163561147,-0.004815365129329092
-0.0030969463561147,-0.004914105802592763
-0.003096776356114701,-0.004058353300974278
-0.0030966063561147,-0.004453315994028964
-0.0030964363561147,-0.004321661763010735
-0.003096266356114701,-0.004190007531992507
-0.0030960963561147,-0.003860871954446936
-0.0030959263561147,-0.003795044838937822
-0.003095756356114701,-0.003795044838937822
-0.0030955863561147,-0.003696304165673791
-0.0030954163561147,-0.003498822819146808
-0.003095246356114701,-0.003400082145883136
-0.0030950763561147,-0.003202600799354836
-0.0030949063561147,-0.00267598387528288
-0.003094736356114701,-0.002149366951209966
-0.0030945663561147,-0.001886058489172372
-0.0030943963561147,-0.001260700891836924
-0.0030942263561147,-0.000832824641027682
-0.0030940563561147,-0.0004049483902177811
-0.0030938863561147,-4.289925491831147e-05
-0.0030937163561147,0.0003520634381363738
-0.0030935463561147,0.0005166312269091594
-0.0030933763561147,0.0005166312269091594
-0.0030932063561147,0.0005824583424182735
-0.0030930363561147,0.0006482854579274477
-0.0030928663561147,0.0006811990156819448
-0.0030926963561147,0.0004837176691546022
-0.0030925263561147,0.0008128532467005325
-0.0030923563561147,0.001010334593227516
-0.0030921863561147,0.001207815939754859
-0.0030920163561147,0.001339470170773267
-0.0030918463561147,0.001438210844036758
-0.0030916763561147,0.001899000652600558
-0.0030915063561147,0.002886407385238588
-0.0030913363561147,0.003610505655837527
-0.0030911663561147,0.003972554791137656
-0.003090996356114701,0.003906727675628661
-0.0030908263561147,0.004235863253174112
-0.0030906563561147,0.004235863253174112
-0.003090486356114701,0.00390672767562914
-0.0030903163561147,0.003709246329101199
