Analysis/New Tests_CMB/wrd01_d2s01/cmb13_ch12.csv

#Digilent WaveForms Oscilloscope Acquisition
#Device Name: ADP3450
#Serial Number: SN:210018B9D9B0
#Date Time: 2024-08-06 17:55:24.131.379.120
#Sample rate: 2.94118e+06Hz
#Samples: 32768
#Trigger: Source: Channel 3 Type: Edge Condition: Rising Level: 60 mV Hyst.: Auto HoldOff: 0 s
#Channel 3: Range: 200 mV/div Offset: -20 mV Attenuation: 1 X Coupling: DC Bandwidth: 0 Hz Sample Mode: Average

Time (s),Channel 3 (V)
-0.005570341246882793,0.02365875938585248
-0.005570001246882793,0.02257261197995228
-0.005569661246882793,0.02267135265321577
-0.005569321246882793,0.02250678486444298
-0.005568981246882793,0.02273717976872446
-0.005568641246882793,0.02250678486444298
-0.005568301246882793,0.02244095774893387
-0.005567961246882793,0.02201308149812373
-0.005567621246882793,0.02151937813180627
-0.005567281246882793,0.02086110697671513
-0.005566941246882793,0.02040031716815025
-0.005566601246882793,0.0198078731285693
-0.005566261246882793,0.01931416976225094
-0.005565921246882793,0.01957747822428842
-0.005565581246882793,0.02013700870611487
-0.005565241246882793,0.020499057841415
-0.005564901246882793,0.02063071207243341
-0.005564561246882793,0.0207294527456969
-0.005564221246882793,0.02007118159060576
-0.005563881246882793,0.01951165110877739
-0.005563541246882793,0.01901794774245993
-0.005563201246882793,0.01826093591410511
-0.005562861246882793,0.01760266475901517
-0.005562521246882793,0.01684565293065916
-0.005562181246882793,0.01631903600658625
-0.005561841246882793,0.01628612244883175
-0.005561501246882793,0.01595698687128612
-0.005561161246882793,0.01585824619802245
-0.005560821246882793,0.01589115975577695
-0.005560481246882793,0.01556202417823143
-0.005560141246882793,0.01552911062047688
-0.005559801246882793,0.01500249369640492
-0.005559461246882793,0.01454170388784016
-0.005559121246882793,0.01381760561723991
-0.005558781246882793,0.01352138359744943
-0.005558441246882793,0.01358721071295801
-0.005558101246882793,0.01322516157765788
-0.005557761246882793,0.01342264292418486
-0.005557421246882793,0.01296185311562142
-0.005557081246882793,0.01263271753807585
-0.005556741246882793,0.01223775484502188
-0.005556401246882793,0.01151365657442091
-0.005556061246882793,0.01118452099687534
-0.005555721246882793,0.01078955830382137
-0.005555381246882793,0.01088829897708432
-0.005555041246882793,0.01105286676585711
-0.005554701246882793,0.01164531080543806
-0.005554361246882793,0.01197444638298471
-0.005554021246882793,0.01243523619154851
-0.005553681246882793,0.01289602600011231
-0.005553341246882793,0.01312642090439421
-0.005553001246882793,0.01309350734663965
-0.005552661246882793,0.01385051917499446
-0.005552321246882793,0.01441004965682193
-0.005551981246882793,0.01490375302314029
-0.005551641246882793,0.01506832081191307
-0.005551301246882793,0.01454170388784016
-0.005550961246882793,0.01454170388784016
-0.005550621246882793,0.01434422254131282
-0.005550281246882793,0.01391634629050238
-0.005549941246882793,0.01325807513541244
-0.005549601246882793,0.01243523619154851
-0.005549261246882793,0.01121743455462798
-0.005548921246882793,0.01016420070648407
-0.005548581246882793,0.009505929551392924
-0.005548241246882793,0.009407188878128296
-0.005547901246882793,0.008880571954056339
-0.005547561246882793,0.007596943201628613
-0.005547221246882793,0.007695683874892104
-0.005546881246882793,0.007596943201628613
-0.005546541246882793,0.007860251663665069
-0.005546201246882793,0.008748917723039967
-0.005545861246882793,0.009769238013429382
-0.005545521246882793,0.01138200234340268
-0.005545181246882793,0.01220484128726661
-0.005544841246882793,0.01220484128726661
-0.005544501246882793,0.01220484128726661
-0.005544161246882793,0.01204027349849448
-0.005543821246882793,0.01240232263379395
-0.005543481246882793,0.01220484128726661
-0.005543141246882793,0.01194153282522967
-0.005542801246882793,0.01167822436319369
-0.005542461246882793,0.01187570570972104
-0.005542121246882793,0.01177696503645755
-0.005541781246882793,0.01148074301666635
-0.005541441246882793,0.01164531080543914
-0.005541101246882793,0.01200735994073861
-0.005540761246882793,0.01190861926747559
-0.005540421246882793,0.01131617522789356
-0.005540081246882793,0.01059207695729463
-0.005539741246882793,0.01016420070648407
-0.005539401246882793,0.009769238013429382
-0.005539061246882793,0.009440102435884409
-0.005538721246882793,0.008946399069565453
-0.005538381246882793,0.009440102435883811
-0.005538041246882793,0.009407188878129314
-0.005537701246882793,0.009900892244447609
-0.005537361246882793,0.009933805802202166
-0.005537021246882793,0.01052624984178312
-0.005536681246882793,0.01164531080543914
-0.005536341246882793,0.01269854465358496
-0.005536001246882793,0.01296185311562094
-0.005535661246882793,0.01381760561723991
-0.005535321246882793,0.01332390225092155
-0.005534981246882793,0.01312642090439456
-0.005534641246882793,0.01273145821133952
-0.005534301246882793,0.01240232263379395
-0.005533961246882793,0.01204027349849448
-0.005533621246882793,0.01246814974930307
-0.005533281246882793,0.01315933446214876
-0.005532941246882793,0.01329098869316699
-0.005532601246882793,0.01338972936643066
-0.005532261246882793,0.01319224801990332
-0.005531921246882793,0.01332390225092155
-0.005531581246882793,0.01338972936643066
-0.005531241246882793,0.01315933446214876
-0.005530901246882793,0.01250106330705762
-0.005530561246882793,0.01171113792094825
-0.005530221246882793,0.01118452099687534
-0.005529881246882793,0.01092121253483888
-0.005529541246882793,0.01098703965034811
-0.005529201246882793,0.01105286676585711
-0.005528861246882793,0.01190861926747559
-0.005528521246882793,0.01236940907603808
-0.005528181246882793,0.01164531080543914
-0.005527841246882793,0.01101995320810255
-0.005527501246882793,0.01111869388136664
-0.005527161246882793,0.01134908878564812
-0.005526821246882793,0.01115160743912078
-0.005526481246882793,0.01180987859421312
-0.005526141246882793,0.01246814974930307
-0.005525801246882793,0.01233649551828483
-0.005525461246882793,0.01233649551828412
-0.005525121246882793,0.01194153282523015
-0.005524781246882793,0.01220484128726661
-0.005524441246882793,0.01223775484502074
-0.005524101246882793,0.01200735994073926
-0.005523761246882793,0.01138200234340268
-0.005523421246882793,0.01141491590115652
-0.005523081246882793,0.01101995320810255
-0.005522741246882793,0.01101995320810255
-0.005522401246882793,0.01101995320810213
-0.005522061246882793,0.01078955830382065
-0.005521721246882793,0.01046042272627508
-0.005521381246882793,0.01052624984178431
-0.005521041246882793,0.01059207695729331
-0.005520701246882793,0.01138200234340268
-0.005520361246882793,0.0123364955182831
-0.005520021246882793,0.01299476667337598
-0.005519681246882793,0.01338972936643066
-0.005519341246882793,0.01365303782846664
-0.005519001246882793,0.01306059378888509
-0.005518661246882793,0.01246814974930307
-0.005518321246882793,0.01171113792094963
-0.005517981246882793,0.01118452099687534
-0.005517641246882793,0.01042750916852052
-0.005517301246882793,0.009966719359957563
-0.005516961246882793,0.009933805802202166
-0.005516621246882793,0.01016420070648407
-0.005516281246882793,0.009933805802202586
-0.005515941246882793,0.009900892244447609
-0.005515601246882793,0.009505929551392924
-0.005515261246882793,0.009341361762620438
-0.005514921246882793,0.009209707531601911
-0.005514581246882793,0.008584349934265326
-0.005514241246882793,0.008452695703247337
-0.005513901246882793,0.008847658396301783
-0.005513561246882793,0.00957175666690204
-0.005513221246882793,0.01039459561076447
-0.005512881246882793,0.01055916339953875
-0.005512541246882793,0.01059207695729331
-0.005512201246882793,0.01062499051504787
-0.005511861246882793,0.01019711426423862
-0.005511521246882793,0.009999632917711282
-0.005511181246882793,0.01032876849525685
-0.005510841246882793,0.009867978686693053
-0.005510501246882793,0.009999632917711282
-0.005510161246882793,0.009835065128938496
-0.005509821246882793,0.009374275320374697
-0.005509481246882793,0.009505929551392924
-0.005509141246882793,0.009341361762620138
-0.005508801246882793,0.009999632917711941
-0.005508461246882793,0.01036168205301141
-0.005508121246882793,0.01072373118831154
-0.005507781246882793,0.01085538541933054
-0.005507441246882793,0.01128326167013901
-0.005507101246882793,0.01184279215196648
-0.005506761246882793,0.01263271753807669
-0.005506421246882793,0.01309350734663965
-0.005506081246882793,0.01378469205948535
-0.005505741246882793,0.01464044456110401
-0.005505401246882793,0.0147391852343675
-0.005505061246882793,0.01381760561723991
-0.005504721246882793,0.01329098869316675
-0.005504381246882793,0.01315933446214876
-0.005504041246882793,0.01194153282523015
-0.005503701246882793,0.01167822436319399
-0.005503361246882793,0.01184279215196648
-0.005503021246882793,0.01171113792094825
-0.005502681246882793,0.01157948368992871
-0.005502341246882793,0.01085538541932977
-0.005502001246882793,0.01029585493750229
-0.005501661246882793,0.009835065128937597
-0.005501321246882793,0.009341361762620138
-0.005500981246882793,0.009209707531601911
-0.005500641246882793,0.009374275320374758
-0.005500301246882793,0.009407188878129254
-0.005499961246882793,0.009736324455674824
-0.005499621246882793,0.0100654600332198
-0.005499281246882793,0.01016420070648407
-0.005498941246882793,0.01062499051504787
-0.005498601246882793,0.01098703965034734
-0.005498261246882793,0.01141491590115724
-0.005497921246882793,0.01240232263379395
-0.005497581246882793,0.01322516157765638
-0.005497241246882793,0.01365303782846712
-0.005496901246882793,0.01401508696376725
-0.005496561246882793,0.01464044456110269
-0.005496221246882793,0.01490375302314029
-0.005495881246882793,0.01519997504293131
-0.005495541246882793,0.01490375302314083
-0.005495201246882793,0.01477209879212206
-0.005494861246882793,0.01454170388784016
-0.005494521246882793,0.01467335811885815
-0.005494181246882793,0.01487083946538573
-0.005493841246882793,0.01424548186804915
-0.005493501246882793,0.0136859513862227
-0.005493161246882793,0.01348847003969433
-0.005492821246882793,0.01312642090439421
-0.005492481246882793,0.01220484128726828
-0.005492141246882793,0.01148074301666635
-0.005491801246882793,0.01055916339953875
-0.005491461246882793,0.009900892244448806
-0.005491121246882793,0.008946399069565453
-0.005490781246882793,0.00874891772303811
-0.005490441246882793,0.009209707531601911
-0.005490101246882793,0.009275534647111025
-0.005489761246882793,0.009802151571183939
-0.005489421246882793,0.01118452099687534
-0.005489081246882793,0.01213901417175749
-0.005488741246882793,0.01230358196053028
-0.005488401246882793,0.01204027349849382
-0.005488061246882793,0.01194153282522979
-0.005487721246882793,0.01174405147870281
-0.005487381246882793,0.01141491590115724
-0.005487041246882793,0.01095412609259326
-0.005486701246882793,0.01085538541932977
-0.005486361246882793,0.01049333628402964
-0.005486021246882793,0.01023002782199228
-0.005485681246882793,0.009736324455674824
-0.005485341246882793,0.009604670224656596
-0.005485001246882793,0.009703410897918291
-0.005484661246882793,0.008617263492019883
-0.005484321246882793,0.007399461855101271
-0.005483981246882793,0.006774104257763786
-0.005483641246882793,0.006280400891446328
-0.005483301246882793,0.006313314449200885
-0.005482961246882793,0.006774104257766002
-0.005482621246882793,0.007498202528364941
-0.005482281246882793,0.008683090607528997
-0.005481941246882793,0.009769238013431178
-0.005481601246882793,0.0107566447460661
-0.005481261246882793,0.01180987859421192
-0.005480921246882793,0.01236940907604041
-0.005480581246882793,0.01292893955786686
-0.005480241246882793,0.01362012427071256
-0.005479901246882793,0.01421256831029525
-0.005479561246882793,0.01457461744559472
-0.005479221246882793,0.0147391852343675
-0.005478881246882793,0.01289602600011566
-0.005478541246882793,0.006379141564709999
-0.005478201246882793,-0.007247071345676644
-0.005477861246882793,-0.02893710590589032
-0.005477521246882793,-0.05783520961443091
-0.005477181246882793,-0.09153869275509741
-0.005476841246882793,-0.1269865944566909
-0.005476501246882793,-0.1607888182706856
-0.005476161246882793,-0.1899502304412231
-0.005475821246882793,-0.2132201157736527
-0.005475481246882793,-0.230763042056874
-0.005475141246882793,-0.2424144415019872
-0.005474801246882793,-0.2487996717063596
-0.005474461246882793,-0.2498858191122716
-0.005474121246882793,-0.2480426598780164
-0.005473781246882793,-0.2436651566966683
-0.005473441246882793,-0.2372140993767672
-0.005473101246882793,-0.22994020311301
-0.005472761246882793,-0.2222384305984577
-0.005472421246882793,-0.2144379174106136
-0.005472081246882793,-0.2070652804735928
-0.005471741246882793,-0.2000876062296394
-0.005471401246882793,-0.1934061540054516
-0.005471061246882793,-0.1866588746657674
-0.005470721246882793,-0.18060278003894
-0.005470381246882793,-0.1740529820457721
-0.005470041246882793,-0.1676348382836334
-0.005469701246882793,-0.1618420521188314
-0.005469361246882793,-0.1557530439342383
-0.005469021246882793,-0.1491703323833269
-0.005468681246882793,-0.1428509292944519
-0.005468341246882793,-0.1367948346676134
-0.005468001246882793,-0.1313640976381115
-0.005467661246882793,-0.1257358792620822
-0.005467321246882793,-0.120403882905844
-0.005466981246882793,-0.115499762800415
-0.005466641246882793,-0.1104639884639677
-0.005466301246882793,-0.1055269548007752
-0.005465961246882793,-0.1006228346953552
-0.005465621246882793,-0.09588328237869892
-0.005465281246882793,-0.09203239612140905
-0.005464941246882793,-0.08834607765290536
-0.005464601246882793,-0.08521928966622244
-0.005464261246882793,-0.08235581014157034
-0.005463921246882793,-0.07926193571264759
-0.005463581246882793,-0.07636554263024656
-0.005463241246882793,-0.07290961906601273
-0.005462901246882793,-0.0699803124258625
-0.005462561246882793,-0.06645856174612488
-0.005462221246882793,-0.06339760087494554
-0.005461881246882793,-0.06036955356153182
-0.005461541246882793,-0.05809851807646737
-0.005461201246882793,-0.05595913682241655
-0.005460861246882793,-0.05342479287532027
-0.005460521246882793,-0.05181202854534697
-0.005460181246882793,-0.0495080795025236
-0.005459841246882793,-0.0471053897864453
-0.005459501246882793,-0.04470270007036264
-0.005459161246882793,-0.04223418323876665
-0.005458821246882793,-0.03993023419595185
-0.005458481246882793,-0.0380541614039421
-0.005458141246882793,-0.03604643438091172
-0.005457801246882793,-0.03472989207073183
-0.005457461246882793,-0.03308421418300397
-0.005457121246882793,-0.03137270917977012
-0.005456781246882793,-0.02995742619632105
-0.005456441246882793,-0.02827883475083864
-0.005456101246882793,-0.02702811955616774
-0.005455761246882793,-0.0255470094572104
-0.005455421246882793,-0.02426338070478267
-0.005455081246882793,-0.0226506163748123
-0.005454741246882793,-0.02100493848708151
-0.005454401246882793,-0.01929343348384455
-0.005454061246882793,-0.01774649626938317
-0.005453721246882793,-0.01682491665225276
-0.005453381246882793,-0.01593625059287972
-0.005453041246882793,-0.01527797943778978
-0.005452701246882793,-0.01402726424311541
-0.005452361246882793,-0.01317151174149692
-0.005452021246882793,-0.01146000673826307
-0.005451681246882793,-0.01020929154358678
-0.005451341246882793,-0.009748501735022983
-0.005451001246882793,-0.009518106830741502
-0.005450661246882793,-0.009221884810950071
-0.005450321246882793,-0.008761095002386268
-0.005449981246882793,-0.008333218751577805
-0.005449641246882793,-0.007773688269749557
-0.005449301246882793,-0.007247071345676644
-0.005448961246882793,-0.006128010382023738
-0.005448621246882793,-0.005041862976121317
-0.005448281246882793,-0.003856974896957261
-0.005447941246882793,-0.003363271530638905
-0.005447601246882793,-0.002441691913511304
-0.005447261246882793,-0.001849247873929278
-0.005446921246882793,-0.00148719873862915
-0.005446581246882793,-0.0009276682568016767
-0.005446241246882793,-0.0006314462370106654
-0.005445901246882793,-0.0003023106594650937
-0.005445561246882793,-3.900219742869559e-05
-0.005445221246882793,-7.191575518319254e-05
-0.005444881246882793,-0.0004010513327287642
-0.005444541246882793,-0.001092236045576021
-0.005444201246882793,-0.001947988547192948
-0.005443861246882793,-0.002013815662702062
-0.005443521246882793,-0.0020796427782092
-0.005443181246882793,-0.0009934953723107938
-0.005442841246882793,0.0003230469378714927
-0.005442501246882793,0.002297860403148032
-0.005442161246882793,0.004009365406381887
-0.005441821246882793,0.005753783967373414
-0.005441481246882793,0.007103239835311573
-0.005441141246882793,0.007827338105910513
-0.005440801246882793,0.008090646567946969
-0.005440461246882793,0.007926078779173763
-0.005440121246882793,0.007695683874892284
-0.005439781246882793,0.007037412719801142
-0.005439441246882793,0.006181660218181459
-0.005439101246882793,0.005523389063091515
-0.005438761246882793,0.004733463676982144
-0.005438421246882793,0.004404328099436453
-0.005438081246882793,0.004338500983927459
-0.005437741246882793,0.004568895888209358
-0.005437401246882793,0.004996772139019259
-0.005437061246882793,0.005358821274318729
-0.005436721246882793,0.005819611082882528
-0.005436381246882793,0.006543709353481468
-0.005436041246882793,0.006971585604292027
-0.005435701246882793,0.006971585604292027
-0.005435361246882793,0.006839931373274039
-0.005435021246882793,0.007070326277555699
-0.005434681246882793,0.007498202528364941
-0.005434341246882793,0.008123560125700388
-0.005434001246882793,0.008156473683456083
-0.005433661246882793,0.008353955029983425
-0.005433321246882793,0.008683090607528398
-0.005432981246882793,0.009110966858338239
-0.005432641246882793,0.008880571954056339
-0.005432301246882793,0.008452695703247876
-0.005431961246882793,0.007662770317137727
-0.005431621246882793,0.007399461855101271
-0.005431281246882793,0.007169066950819788
-0.005430941246882793,0.007300721181837598
-0.005430601246882793,0.007399461855101271
-0.005430261246882793,0.007926078779173226
-0.005429921246882793,0.008321041472228868
-0.005429581246882793,0.008551436376510768
-0.005429241246882793,0.009538843109145686
-0.005428901246882793,0.01023002782199318
-0.005428561246882793,0.01088829897708432
-0.005428221246882793,0.01194153282522824
-0.005427881246882793,0.01263271753807585
-0.005427541246882793,0.01342264292418522
-0.005427201246882793,0.01368595138622168
-0.005426861246882793,0.01388343273274902
-0.005426521246882793,0.01322516157765788
-0.005426181246882793,0.01157948368993002
-0.005425841246882793,0.01065790407280242
-0.005425501246882793,0.009933805802202166
-0.005425161246882793,0.00967049734016571
-0.005424821246882793,0.009110966858338239
-0.005424481246882793,0.009275534647111025
-0.005424141246882793,0.009374275320374697
-0.005423801246882793,0.01029585493750248
-0.005423461246882793,0.01039459561076597
-0.005423121246882793,0.01105286676585711
-0.005422781246882793,0.01154657013217678
-0.005422441246882793,0.01227066840277572
-0.005422101246882793,0.01292893955786686
-0.005421761246882793,0.0134226429241857
-0.005421421246882793,0.01368595138622168
-0.005421081246882793,0.01345555648193978
-0.005420741246882793,0.01309350734663839
-0.005420401246882793,0.01240232263379395
-0.005420061246882793,0.01164531080543914
-0.005419721246882793,0.01072373118831154
-0.005419381246882793,0.01072373118831154
-0.005419041246882793,0.01059207695729331
-0.005418701246882793,0.01167822436319591
-0.005418361246882793,0.01289602600011231
-0.005418021246882793,0.01441004965682193
-0.005417681246882793,0.01559493773598713
-0.005417341246882793,0.01622029533332257
-0.005417001246882793,0.01648360379535903
-0.005416661246882793,0.01598990042903966
-0.005416321246882793,0.0154303699472132
-0.005415981246882793,0.0147391852343675
-0.005415641246882793,0.01378469205948385
-0.005415301246882793,0.01296185311562142
-0.005414961246882793,0.01289602600011231
-0.005414621246882793,0.01283019888460331
-0.005414281246882793,0.01250106330705762
-0.005413941246882793,0.01220484128726661
