Analysis/New Tests_CMB/wrd01_d2s01/cmb13_ch21.csv

#Digilent WaveForms Oscilloscope Acquisition
#Device Name: ADP3450
#Serial Number: SN:210018B9D9B0
#Date Time: 2024-08-06 17:59:53.430.295.870
#Sample rate: 2.94118e+06Hz
#Samples: 32768
#Trigger: Source: Channel 3 Type: Edge Condition: Rising Level: 60 mV Hyst.: Auto HoldOff: 0 s
#Channel 3: Range: 200 mV/div Offset: -20 mV Attenuation: 1 X Coupling: DC Bandwidth: 0 Hz Sample Mode: Average

Time (s),Channel 3 (V)
-0.005570320688216893,0.0179647138943141
-0.005569980688216893,0.01776723254778819
-0.005569640688216893,0.01855715793389613
-0.005569300688216893,0.01835967658736879
-0.005568960688216893,0.01849133081838696
-0.005568620688216893,0.01845841726063246
-0.005568280688216893,0.01835967658736879
-0.005567940688216893,0.01740518341248537
-0.005567600688216893,0.01671399869964093
-0.005567260688216893,0.01622029533332257
-0.005566920688216893,0.0159569868712866
-0.005566580688216893,0.01622029533332257
-0.005566240688216893,0.01638486312209536
-0.005565900688216893,0.0164506902376037
-0.005565560688216893,0.01602281398679523
-0.005565220688216893,0.01536454283170409
-0.005564880688216893,0.01424548186804813
-0.005564540688216893,0.01368595138622168
-0.005564200688216893,0.01283019888460319
-0.005563860688216893,0.01276437176909462
-0.005563520688216893,0.01306059378888509
-0.005563180688216893,0.01276437176909408
-0.005562840688216894,0.01325807513541154
-0.005562500688216893,0.01329098869316699
-0.005562160688216893,0.01276437176909408
-0.005561820688216894,0.01210610061400413
-0.005561480688216893,0.01134908878564812
-0.005561140688216893,0.01121743455462989
-0.005560800688216893,0.0110857803236119
-0.005560460688216893,0.01131617522789356
-0.005560120688216893,0.01118452099687534
-0.005559780688216893,0.0115794836899293
-0.005559440688216893,0.01151365657442091
-0.005559100688216893,0.01059207695729331
-0.005558760688216893,0.009473015993640402
-0.005558420688216893,0.008353955029983425
-0.005558080688216893,0.007103239835310256
-0.005557740688216893,0.006346228006956819
-0.005557400688216893,0.0059183517561462
-0.005557060688216893,0.005786697525127971
-0.005556720688216893,0.00555630262084649
-0.005556380688216893,0.005852524640637086
-0.005556040688216893,0.006379141564709999
-0.005555700688216893,0.007432375412853911
-0.005555360688216893,0.008090646567946969
-0.005555020688216893,0.008781831280792669
-0.005554680688216893,0.00924262108935563
-0.005554340688216893,0.009867978686693053
-0.005554000688216893,0.009900892244447609
-0.005553660688216893,0.009242621089356468
-0.005553320688216893,0.009143880416092796
-0.005552980688216893,0.009143880416092796
-0.005552640688216893,0.009374275320374697
-0.005552300688216893,0.009440102435883811
-0.005551960688216893,0.008617263492019883
-0.005551620688216893,0.007333634739592155
-0.005551280688216893,0.005523389063090318
-0.005550940688216893,0.004865117908000373
-0.005550600688216893,0.004470155214945688
-0.005550260688216893,0.004996772139021354
-0.005549920688216893,0.006510795795728228
-0.005549580688216893,0.008452695703247097
-0.005549240688216893,0.01023002782199546
-0.005548900688216893,0.01148074301666635
-0.005548560688216893,0.01154657013217547
-0.005548220688216893,0.01115160743911916
-0.005547880688216893,0.01026294137974774
-0.005547540688216893,0.008781831280792669
-0.005547200688216893,0.007498202528362067
-0.005546860688216893,0.0059183517561462
-0.005546520688216893,0.005062599254527716
-0.005546180688216893,0.004404328099436154
-0.005545840688216893,0.004173933195154675
-0.005545500688216893,0.004733463676982144
-0.005545160688216893,0.005161339927792523
-0.005544820688216893,0.005786697525127971
-0.005544480688216893,0.005589216178600628
-0.005544140688216893,0.005194253485545045
-0.005543800688216893,0.004700550119227587
-0.005543460688216893,0.004667636561473031
-0.005543120688216893,0.003778970502098972
-0.005542780688216893,0.003219440020272517
-0.005542440688216893,0.002528255307426817
-0.005542100688216894,0.002330773960899835
-0.005541760688216893,0.001968724825599347
-0.005541420688216893,0.002264946845390362
-0.005541080688216894,0.003186526462516283
-0.005540740688216893,0.004930945023509487
-0.005540400688216893,0.006444968680219114
-0.005540060688216893,0.008353955029979952
-0.005539720688216893,0.007860251663665069
-0.005539380688216893,0.008024819452437855
-0.005539040688216893,0.007662770317138385
-0.005538700688216893,0.0068399313732738
-0.005538360688216893,0.005687956851864301
-0.005538020688216893,0.00496385858126536
-0.005537680688216893,0.004667636561473031
-0.005537340688216893,0.004799290792491258
-0.005537000688216893,0.005358821274317711
-0.005536660688216893,0.006050005987164429
-0.005536320688216893,0.006609536468991898
-0.005535980688216893,0.006774104257764385
-0.005535640688216893,0.006971585604292027
-0.005535300688216893,0.006082919544918986
-0.005534960688216893,0.005227167043302057
-0.005534620688216893,0.004700550119227587
-0.005534280688216893,0.00489803146575493
-0.005533940688216893,0.005523389063090377
-0.005533600688216893,0.006181660218182656
-0.005533260688216893,0.007103239835310256
-0.005532920688216893,0.007564029643874055
-0.005532580688216893,0.007201980508573926
-0.005532240688216893,0.006050005987164429
-0.005531900688216893,0.005260080601055058
-0.005531560688216893,0.004338500983927459
-0.005531220688216893,0.003614402713327202
-0.005530880688216893,0.00377897050209999
-0.005530540688216893,0.004173933195154675
-0.005530200688216893,0.004799290792491258
-0.005529860688216893,0.005457561947582401
-0.005529520688216893,0.006214573775938111
-0.005529180688216893,0.006708277142255571
-0.005528840688216893,0.007070326277555699
-0.005528500688216893,0.007629856759383649
-0.005528160688216893,0.007893165221419626
-0.005527820688216893,0.007366548297346712
-0.005527480688216893,0.006313314449199268
-0.005527140688216893,0.005424648389827843
-0.005526800688216893,0.0049967721390186
-0.005526460688216893,0.005194253485545704
-0.005526120688216893,0.005062599254527716
-0.005525780688216893,0.005523389063091515
-0.005525440688216893,0.005720870409619097
-0.005525100688216893,0.005852524640637086
-0.005524760688216893,0.006115833102673543
-0.005524420688216893,0.005984178871654955
-0.005524080688216893,0.005786697525127971
-0.005523740688216893,0.005786697525127971
-0.005523400688216893,0.005227167043299483
-0.005523060688216893,0.004667636561473031
-0.005522720688216893,0.003581489155572645
-0.005522380688216893,0.002890304442727005
-0.005522040688216893,0.002923218000481502
-0.005521700688216893,0.002626995980690491
-0.005521360688216893,0.002857390884974963
-0.005521020688216893,0.004272673868418345
-0.005520680688216893,0.005128426370036829
-0.005520340688216894,0.005523389063090797
-0.005520000688216893,0.005523389063091515
-0.005519660688216893,0.005095512812282273
-0.005519320688216893,0.004535982330455819
-0.005518980688216893,0.003614402713327202
-0.005518640688216893,0.003219440020272517
-0.005518300688216893,0.003811884059853469
-0.005517960688216893,0.004733463676982144
-0.005517620688216893,0.004963858581264044
-0.005517280688216893,0.005819611082880971
-0.005516940688216893,0.006774104257764684
-0.005516600688216893,0.007432375412855827
-0.005516260688216893,0.007794424548155298
-0.005515920688216893,0.007432375412855827
-0.005515580688216893,0.006543709353482785
-0.005515240688216893,0.005786697525129348
-0.005514900688216893,0.005655043294109744
-0.005514560688216893,0.006082919544918986
-0.005514220688216893,0.006839931373272422
-0.005513880688216893,0.00693867204653747
-0.005513540688216893,0.007037412719801142
-0.005513200688216893,0.006543709353483682
-0.005512860688216893,0.005556302620846072
-0.005512520688216893,0.0049967721390186
-0.005512180688216893,0.003976451848627331
-0.005511840688216893,0.004535982330454802
-0.005511500688216893,0.005720870409618857
-0.005511160688216893,0.0068399313732738
-0.005510820688216893,0.008321041472228868
-0.005510480688216893,0.008814744838547226
-0.005510140688216893,0.009078053300583682
-0.005509800688216893,0.009440102435883811
-0.005509460688216893,0.009209707531601911
-0.005509120688216893,0.007761510990401397
-0.005508780688216893,0.006774104257762708
-0.005508440688216893,0.005687956851864301
-0.005508100688216893,0.004667636561473031
-0.005507760688216893,0.003680229828835777
-0.005507420688216893,0.003384007809045304
-0.005507080688216893,0.00308778578925429
-0.005506740688216893,0.003021958673746074
-0.005506400688216893,0.003515662040063532
-0.005506060688216893,0.004535982330454802
-0.005505720688216893,0.005227167043301817
-0.005505380688216893,0.005951265313900757
-0.005505040688216893,0.006346228006955442
-0.005504700688216893,0.006280400891445191
-0.005504360688216893,0.005655043294109744
-0.005504020688216893,0.005391734832073286
-0.005503680688216893,0.005358821274319268
-0.005503340688216893,0.005655043294109744
-0.005503000688216893,0.006247487333691772
-0.005502660688216893,0.006412055122464496
-0.005502320688216893,0.006379141564709999
-0.005501980688216893,0.006148746660428099
-0.005501640688216893,0.005260080601053502
-0.005501300688216893,0.004404328099436573
-0.005500960688216893,0.004338500983927459
-0.005500620688216893,0.004996772139019738
-0.005500280688216893,0.005622129736355185
-0.005499940688216893,0.005687956851864301
-0.005499600688216894,0.005490475505337317
-0.005499260688216893,0.005786697525127971
-0.005498920688216893,0.0059183517561462
-0.005498580688216894,0.005687956851864719
-0.005498240688216893,0.005852524640637086
-0.005497900688216893,0.005786697525127971
-0.005497560688216893,0.005128426370038026
-0.005497220688216893,0.004272673868418345
-0.005496880688216893,0.003943538290872774
-0.005496540688216893,0.003811884059854786
-0.005496200688216893,0.00387771117536366
-0.005495860688216893,0.004568895888209358
-0.005495520688216893,0.004305587426173381
-0.005495180688216893,0.004437241657191129
-0.005494840688216893,0.004601809445963915
-0.005494500688216893,0.005062599254526878
-0.005494160688216893,0.0049967721390186
-0.005493820688216893,0.005556302620846072
-0.005493480688216893,0.006017092429409033
-0.005493140688216893,0.005161339927791386
-0.005492800688216893,0.004601809445963915
-0.005492460688216893,0.00420684675290995
-0.005492120688216893,0.003219440020272517
-0.005491780688216893,0.002429514634163146
-0.005491440688216893,0.00167250280580971
-0.005491100688216893,0.001771243479072003
-0.005490760688216893,0.002001638383353904
-0.005490420688216893,0.002791563769463275
-0.005490080688216893,0.003482748482308975
-0.005489740688216893,0.003318180693536187
-0.005489400688216893,0.00328526713578163
-0.005489060688216893,0.003252353578027074
-0.005488720688216893,0.003713143386590873
-0.005488380688216893,0.004371414541682016
-0.005488040688216893,0.004667636561474168
-0.005487700688216893,0.005292994158809615
-0.005487360688216893,0.005786697525127971
-0.005487020688216893,0.00605000598716407
-0.005486680688216893,0.005852524640637086
-0.005486340688216893,0.005622129736355185
-0.005486000688216893,0.00526008060105446
-0.005485660688216893,0.004930945023509487
-0.005485320688216893,0.004404328099436573
-0.005484980688216893,0.004305587426172723
-0.005484640688216893,0.004206846752909232
-0.005484300688216893,0.004930945023509487
-0.005483960688216893,0.005095512812281914
-0.005483620688216893,0.00489803146575493
-0.005483280688216893,0.004601809445963915
-0.005482940688216893,0.004470155214946526
-0.005482600688216893,0.004930945023509487
-0.005482260688216893,0.004667636561473031
-0.005481920688216893,0.004865117908001271
-0.005481580688216893,0.005358821274318729
-0.005481240688216893,0.006576622911237342
-0.005480900688216893,0.007695683874893661
-0.005480560688216893,0.008452695703247097
-0.005480220688216893,0.009209707531601911
-0.005479880688216893,0.009143880416090402
-0.005479540688216893,0.007827338105910513
-0.005479200688216893,0.005556302620846072
-0.005478860688216894,0.0007180096309349791
-0.005478520688216893,-0.009123144137686397
-0.005478180688216893,-0.02627110772781065
-0.005477840688216894,-0.05085753537042009
-0.005477500688216893,-0.0816317118709757
-0.005477160688216893,-0.1159605526089788
-0.005476820688216893,-0.1504210475779374
-0.005476480688216893,-0.1818534952336021
-0.005476140688216893,-0.2081843414372478
-0.005475800688216893,-0.2279324760899461
-0.005475460688216893,-0.241163726307314
-0.005475120688216893,-0.2484047090133166
-0.005474780688216893,-0.2514327563267303
-0.005474440688216893,-0.2502149546898172
-0.005474100688216893,-0.2462982413170249
-0.005473760688216893,-0.2403738009212154
-0.005473420688216893,-0.2333302995617294
-0.005473080688216893,-0.2258260083936904
-0.005472740688216893,-0.2174659647240481
-0.005472400688216893,-0.209435056631921
-0.005472060688216893,-0.2017991112328637
-0.005471720688216893,-0.1939985980450478
-0.005471380688216893,-0.1868234424545402
-0.005471040688216893,-0.1799445088838378
-0.005470700688216893,-0.1729010075243754
-0.005470360688216893,-0.1668778264552786
-0.005470020688216893,-0.1611837809637403
-0.005469680688216893,-0.1555226490299564
-0.005469340688216893,-0.1502893933469818
-0.005469000688216893,-0.1449903105484981
-0.005468660688216893,-0.1403494989051056
-0.005468320688216893,-0.135708687261713
-0.005467980688216893,-0.1307387400407749
-0.005467640688216893,-0.1257358792620822
-0.005467300688216893,-0.1206342778101259
-0.005466960688216893,-0.1155985034736786
-0.005466620688216893,-0.1112210002923225
-0.005466280688216893,-0.1073701140350322
-0.005465940688216893,-0.1034204871044925
-0.005465600688216893,-0.09937211950068198
-0.005465260688216893,-0.09650863997602875
-0.005464920688216893,-0.09278940794977056
-0.005464580688216893,-0.09005758265614233
-0.005464240688216893,-0.08679914043843608
-0.005463900688216893,-0.08400148802930382
-0.005463560688216893,-0.08064430513833898
-0.005463220688216893,-0.07735294936287616
-0.005462880688216893,-0.073436235990091
-0.005462540688216893,-0.06938786838628047
-0.005462200688216893,-0.06576737703327307
-0.005461860688216893,-0.06241019414231435
-0.005461520688216893,-0.05928340615563143
-0.005461180688216893,-0.05671614865077208
-0.005460840688216893,-0.05457676739672977
-0.005460500688216893,-0.05260195393145634
-0.005460160688216893,-0.05102210315923515
-0.005459820688216893,-0.04967264729130075
-0.005459480688216893,-0.04898146257845506
-0.005459140688216893,-0.04832319142336206
-0.005458800688216893,-0.04730287113297264
-0.005458460688216893,-0.04648003218910871
-0.005458120688216893,-0.04513057632116924
-0.005457780688216893,-0.04368237977997137
-0.005457440688216893,-0.04121386294837958
-0.005457100688216894,-0.03884408679005578
-0.005456760688216893,-0.03627682928519601
-0.005456420688216893,-0.03410453447339525
-0.005456080688216894,-0.03255759725893387
-0.005455740688216893,-0.03124105494874877
-0.005455400688216893,-0.02979285840754826
-0.005455060688216893,-0.02798261273105091
-0.005454720688216893,-0.02673189753637445
-0.005454380688216893,-0.02455960272457368
-0.005454040688216893,-0.02288101127909432
-0.005453700688216893,-0.02123533339136342
-0.005453360688216893,-0.0200175317544448
-0.005453020688216893,-0.01833894030896544
-0.005452680688216893,-0.01758192848060757
-0.005452340688216893,-0.01761484203836213
-0.005452000688216893,-0.01751610136509864
-0.005451660688216893,-0.01860224877099884
-0.005451320688216893,-0.01853642165548973
-0.005450980688216893,-0.01962256906138814
-0.005450640688216893,-0.01952382838812644
-0.005450300688216893,-0.01962256906139011
-0.005449960688216893,-0.01830602675121022
-0.005449620688216893,-0.0170223979987801
-0.005449280688216893,-0.01419183203188819
-0.005448940688216893,-0.0117233152003009
-0.005448600688216893,-0.010044723754814
-0.005448260688216893,-0.008958576348913613
-0.005447920688216893,-0.008168650962804242
-0.005447580688216893,-0.007971169616276898
-0.005447240688216893,-0.00783951538525867
-0.005446900688216893,-0.007806601827504114
-0.005446560688216893,-0.007872428943013227
-0.005446220688216893,-0.007905342500767784
-0.005445880688216893,-0.008761095002386268
-0.005445540688216893,-0.008991489906669127
-0.005445200688216893,-0.009518106830741082
-0.005444860688216893,-0.01017637798583223
-0.005444520688216893,-0.01057134067888781
-0.005444180688216893,-0.01106504404520527
-0.005443840688216893,-0.0111966982762235
-0.005443500688216893,-0.01017637798583049
-0.005443160688216893,-0.009221884810950071
-0.005442820688216893,-0.007971169616276898
-0.005442480688216893,-0.006391318844054984
-0.005442140688216893,-0.004646900283066632
-0.005441800688216893,-0.003659493550429917
-0.005441460688216893,-0.002705000375546086
-0.005441120688216893,-0.001783420758420164
-0.005440780688216893,-0.001651766527401934
-0.005440440688216893,-0.001553025854138024
-0.005440100688216893,-0.001421371623120036
-0.005439760688216893,-0.001454285180874593
-0.005439420688216893,-0.001585939411893059
-0.005439080688216893,-0.001717593642911051
-0.005438740688216893,-0.002079642778211176
-0.005438400688216893,-0.001717593642910811
-0.005438060688216893,-0.00158593941189282
-0.005437720688216893,-0.000697273352519779
-0.005437380688216893,-0.0008618411412920242
-0.005437040688216893,-0.0005656191215015517
-0.005436700688216893,-0.00168468008515649
-0.005436360688216894,-0.001849247873928979
-0.005436020688216893,-0.001750507200665607
-0.005435680688216893,-0.001059322487819907
-0.005435340688216894,-0.0002364835439574768
-0.005435000688216893,0.0008496638619444052
-0.005434660688216893,0.001639589248053776
-0.005434320688216893,0.001573762132544782
-0.005433980688216893,0.001310453670508204
-0.005433640688216893,0.0007509231886807348
-0.005433300688216893,-0.001026408930062118
-0.005432960688216893,-0.001783420758420164
-0.005432620688216893,-0.002441691913511304
-0.005432280688216893,-0.00273791393330178
-0.005431940688216893,-0.002540432586774978
-0.005431600688216893,-0.002211297009229406
-0.005431260688216893,-0.001618852969648454
-0.005430920688216893,-0.0007631004680288926
-0.005430580688216893,0.0002243062646078188
-0.005430240688216893,0.001507935017033214
-0.005429900688216893,0.002791563769463275
-0.005429560688216893,0.00308778578925429
-0.005429220688216893,0.003120699347008787
-0.005428880688216893,0.002824477327217832
-0.005428540688216893,0.002363687518654033
-0.005428200688216893,0.002264946845390542
-0.005427860688216893,0.002133292614372131
-0.005427520688216893,0.002232033287635805
-0.005427180688216893,0.002232033287635805
-0.005426840688216893,0.001902897710090234
-0.005426500688216893,0.001705416363562889
-0.005426160688216893,0.001442107901526435
-0.005425820688216893,0.001935811267844791
-0.005425480688216893,0.002429514634163146
-0.005425140688216893,0.002561168865181374
-0.005424800688216893,0.003318180693536187
-0.005424460688216893,0.003647316271081759
-0.005424120688216893,0.003647316271081759
-0.005423780688216893,0.003614402713327501
-0.005423440688216893,0.00377897050209999
-0.005423100688216893,0.003680229828836316
-0.005422760688216893,0.00351566204006401
-0.005422420688216893,0.00377897050209999
-0.005422080688216893,0.00387771117536366
-0.005421740688216893,0.003976451848628588
-0.005421400688216893,0.004667636561473031
-0.005421060688216893,0.004075192521891001
-0.005420720688216893,0.002956131558234802
-0.005420380688216893,0.002264946845390362
-0.005420040688216893,0.002396601076408589
-0.005419700688216893,0.0024624281919192
-0.005419360688216893,0.00328526713578163
-0.005419020688216893,0.003910624733118217
-0.005418680688216893,0.004404328099437051
-0.005418340688216893,0.004667636561473031
-0.005418000688216893,0.004832204350245815
-0.005417660688216893,0.003811884059853169
-0.005417320688216893,0.003054872231499733
-0.005416980688216893,0.002857390884972388
-0.005416640688216893,0.002890304442727244
-0.005416300688216893,0.003054872231499733
-0.005415960688216893,0.003811884059854546
-0.005415620688216893,0.004272673868418645
-0.005415280688216893,0.004437241657191129
