Analysis/New Tests_CMB/wrd01_d2s01/cmb13_ch31.csv

#Digilent WaveForms Oscilloscope Acquisition
#Device Name: ADP3450
#Serial Number: SN:210018B9D9B0
#Date Time: 2024-08-06 18:08:41.580.644.300
#Sample rate: 2.94118e+06Hz
#Samples: 32768
#Trigger: Source: Channel 3 Type: Edge Condition: Rising Level: 60 mV Hyst.: Auto HoldOff: 0 s
#Channel 3: Range: 200 mV/div Offset: -20 mV Attenuation: 1 X Coupling: DC Bandwidth: 0 Hz Sample Mode: Average

Time (s),Channel 3 (V)
-0.005570356476079347,0.02306631534627045
-0.005570016476079347,0.02230930351791534
-0.005569676476079347,0.02214473572914285
-0.005569336476079347,0.02151937813180627
-0.005568996476079347,0.02145355101629745
-0.005568656476079347,0.02161811880506994
-0.005568316476079347,0.02135481034303348
-0.005567976476079347,0.02105858832324157
-0.005567636476079347,0.02056488495692411
-0.005567296476079347,0.01891920706919626
-0.005566956476079347,0.01839259014512125
-0.005566616476079347,0.01724061562371385
-0.005566276476079347,0.01645069023760447
-0.005565936476079347,0.01628612244883175
-0.005565596476079347,0.01631903600658625
-0.005565256476079347,0.01701022071943194
-0.005564916476079347,0.01786597322105186
-0.005564576476079347,0.0186558986071598
-0.005564236476079347,0.01895212062695081
-0.005563896476079347,0.01882046639593019
-0.005563556476079347,0.0175039240857503
-0.005563216476079347,0.01661525802637726
-0.005562876476079347,0.01572659196700583
-0.005562536476079347,0.01490375302314029
-0.005562196476079347,0.01398217340601269
-0.005561856476079347,0.01289602600011428
-0.005561516476079347,0.01233649551828483
-0.005561176476079347,0.01184279215196648
-0.005560836476079347,0.01148074301666701
-0.005560496476079347,0.01154657013217547
-0.005560156476079347,0.01157948368993002
-0.005559816476079347,0.01177696503645701
-0.005559476476079347,0.01157948368993002
-0.005559136476079347,0.01111869388136622
-0.005558796476079347,0.01085538541933024
-0.005558456476079347,0.009999632917711282
-0.005558116476079347,0.01055916339953875
-0.005557776476079347,0.01062499051504775
-0.005557436476079347,0.01095412609259344
-0.005557096476079347,0.01118452099687534
-0.005556756476079347,0.01108578032361185
-0.005556416476079347,0.009835065128938496
-0.005556076476079347,0.008551436376510768
-0.005555736476079347,0.007695683874893841
-0.005555396476079347,0.007201980508573926
-0.005555056476079347,0.007596943201628613
-0.005554716476079347,0.008584349934263531
-0.005554376476079347,0.00865017704977444
-0.005554036476079347,0.01026294137974774
-0.005553696476079347,0.01197444638298471
-0.005553356476079347,0.01342264292418522
-0.005553016476079347,0.01417965475254003
-0.005552676476079347,0.01408091407927636
-0.005552336476079347,0.01355429715520345
-0.005551996476079347,0.01217192772951205
-0.005551656476079347,0.01069081763055698
-0.005551316476079347,0.0100983735909734
-0.005550976476079347,0.009242621089356468
-0.005550636476079347,0.008617263492019883
-0.005550296476079347,0.008255214356717361
-0.005549956476079347,0.00693867204653747
-0.005549616476079347,0.007465288970610384
-0.005549276476079347,0.007893165221421541
-0.005548936476079347,0.008946399069565453
-0.005548596476079347,0.009374275320374697
-0.005548256476079347,0.01052624984178515
-0.005547916476079347,0.01105286676585711
-0.005547576476079347,0.01052624984178419
-0.005547236476079347,0.009966719359955587
-0.005546896476079347,0.009341361762620138
-0.005546556476079347,0.008880571954056339
-0.005546216476079347,0.008584349934264308
-0.005545876476079347,0.008024819452437855
-0.005545536476079347,0.008024819452437855
-0.005545196476079347,0.00835395502998133
-0.005544856476079347,0.007201980508573926
-0.005544516476079347,0.006543709353482785
-0.005544176476079347,0.005655043294108547
-0.005543836476079347,0.0049967721390186
-0.005543496476079347,0.0049967721390186
-0.005543156476079347,0.00509551281228359
-0.005542816476079347,0.005819611082882528
-0.005542476476079347,0.006971585604292027
-0.005542136476079347,0.007728597432645463
-0.005541796476079347,0.008551436376510768
-0.005541456476079347,0.009407188878129254
-0.005541116476079347,0.009867978686692215
-0.005540776476079347,0.009374275320374697
-0.005540436476079347,0.008814744838547226
-0.005540096476079347,0.008485609261002253
-0.005539756476079347,0.008156473683456083
-0.005539416476079347,0.008617263492019883
-0.005539076476079347,0.008617263492019883
-0.005538736476079347,0.009473015993638367
-0.005538396476079347,0.009407188878129254
-0.005538056476079347,0.009407188878129254
-0.005537716476079347,0.01023002782199318
-0.005537376476079347,0.01013128714872951
-0.005537036476079347,0.010230027821993
-0.005536696476079347,0.01029585493750229
-0.005536356476079347,0.009802151571183939
-0.005536016476079347,0.00953884310914796
-0.005535676476079347,0.009604670224656596
-0.005535336476079347,0.008781831280792669
-0.005534996476079347,0.008123560125702723
-0.005534656476079347,0.008090646567946969
-0.005534316476079347,0.006708277142255571
-0.005533976476079347,0.006444968680219593
-0.005533636476079347,0.006510795795728228
-0.005533296476079347,0.007169066950819369
-0.005532956476079347,0.007498202528364941
-0.005532616476079347,0.007596943201628613
-0.005532276476079347,0.007531116086119498
-0.005531936476079347,0.007695683874892284
-0.005531596476079347,0.007926078779174183
-0.005531256476079347,0.008551436376510768
-0.005530916476079347,0.009473015993638367
-0.005530576476079347,0.01115160743912078
-0.005530236476079347,0.01213901417175749
-0.005529896476079347,0.01259980398032129
-0.005529556476079347,0.01253397686481026
-0.005529216476079347,0.01148074301666635
-0.005528876476079347,0.009703410897920267
-0.005528536476079347,0.007827338105909196
-0.005528196476079347,0.007103239835310256
-0.005527856476079347,0.006543709353482785
-0.005527516476079347,0.006017092429410589
-0.005527176476079347,0.006412055122464556
-0.005526836476079347,0.006510795795728228
-0.005526496476079347,0.007103239835311693
-0.005526156476079347,0.007893165221419626
-0.005525816476079347,0.008156473683456083
-0.005525476476079347,0.008748917723039488
-0.005525136476079347,0.009505929551392924
-0.005524796476079347,0.009473015993638367
-0.005524456476079347,0.009143880416091718
-0.005524116476079347,0.008551436376510768
-0.005523776476079347,0.008255214356719755
-0.005523436476079347,0.0091109668583383
-0.005523096476079347,0.009143880416092796
-0.005522756476079347,0.008617263492019883
-0.005522416476079347,0.008321041472229288
-0.005522076476079347,0.008551436376510768
-0.005521736476079347,0.008847658396301783
-0.005521396476079347,0.00897931262732061
-0.005521056476079347,0.009308448204865582
-0.005520716476079347,0.009867978686693053
-0.005520376476079347,0.010460422726274
-0.005520036476079347,0.01115160743912078
-0.005519696476079347,0.01105286676585711
-0.005519356476079347,0.0111516074391206
-0.005519016476079347,0.01108578032361167
-0.005518676476079347,0.01095412609259344
-0.005518336476079347,0.01101995320810243
-0.005517996476079347,0.01092121253483888
-0.005517656476079347,0.01098703965034799
-0.005517316476079347,0.01118452099687498
-0.005516976476079347,0.01121743455462989
-0.005516636476079347,0.01085538541932977
-0.005516296476079347,0.01003254647546734
-0.005515956476079347,0.009143880416092796
-0.005515616476079347,0.008288127914474312
-0.005515276476079347,0.007366548297348389
-0.005514936476079347,0.007366548297346712
-0.005514596476079347,0.006872844931028356
-0.005514256476079347,0.007169066950818831
-0.005513916476079347,0.007761510990401397
-0.005513576476079347,0.007991905894683298
-0.005513236476079347,0.008419782145491762
-0.005512896476079347,0.008781831280792669
-0.005512556476079347,0.008617263492019883
-0.005512216476079347,0.008913485511810896
-0.005511876476079347,0.008683090607528997
-0.005511536476079347,0.009143880416092796
-0.005511196476079347,0.009769238013429382
-0.005510856476079347,0.009703410897920267
-0.005510516476079347,0.009703410897920267
-0.005510176476079347,0.009966719359956725
-0.005509836476079347,0.01009837359097495
-0.005509496476079347,0.01003254647546584
-0.005509156476079347,0.00957175666690204
-0.005508816476079347,0.008551436376509571
-0.005508476476079347,0.007893165221419626
-0.005508136476079347,0.007103239835310256
-0.005507796476079347,0.007366548297347849
-0.005507456476079347,0.007991905894683298
-0.005507116476079347,0.008847658396301783
-0.005506776476079347,0.01016420070648604
-0.005506436476079347,0.01125034811238445
-0.005506096476079347,0.01210610061400294
-0.005505756476079347,0.01266563109583178
-0.005505416476079347,0.01342264292418522
-0.005505076476079347,0.01263271753807585
-0.005504736476079347,0.01161239724768219
-0.005504396476079347,0.01029585493750229
-0.005504056476079347,0.008255214356719755
-0.005503716476079347,0.006412055122462221
-0.005503376476079347,0.005128426370036829
-0.005503036476079347,0.005391734832073286
-0.005502696476079347,0.006313314449202682
-0.005502356476079347,0.007300721181837598
-0.005502016476079347,0.008156473683456083
-0.005501676476079347,0.008814744838547646
-0.005501336476079347,0.009045139742829125
-0.005500996476079347,0.008090646567946969
-0.005500656476079347,0.0077615109904002
-0.005500316476079347,0.007103239835310256
-0.005499976476079347,0.00601709242940987
-0.005499636476079347,0.005622129736355903
-0.005499296476079347,0.005062599254527716
-0.005498956476079347,0.005424648389827843
-0.005498616476079347,0.006115833102672285
-0.005498276476079347,0.007695683874892284
-0.005497936476079347,0.009538843109147481
-0.005497596476079347,0.01006546003321944
-0.005497256476079347,0.01154657013217547
-0.005496916476079347,0.01197444638298471
-0.005496576476079347,0.01184279215196672
-0.005496236476079347,0.01108578032361167
-0.005495896476079347,0.009999632917711282
-0.005495556476079347,0.009176793973848851
-0.005495216476079347,0.008716004165283554
-0.005494876476079347,0.008419782145492541
-0.005494536476079347,0.007794424548157094
-0.005494196476079347,0.007761510990401397
-0.005493856476079347,0.007564029643874055
-0.005493516476079347,0.007333634739592574
-0.005493176476079347,0.0068399313732738
-0.005492836476079347,0.005589216178600628
-0.005492496476079347,0.004766377234738198
-0.005492156476079347,0.004239760310663789
-0.005491816476079347,0.003614402713327202
-0.005491476476079347,0.003449834924554717
-0.005491136476079347,0.003680229828836316
-0.005490796476079347,0.004371414541682016
-0.005490456476079347,0.005391734832073286
-0.005490116476079347,0.005786697525127971
-0.005489776476079347,0.007234894066328485
-0.005489436476079347,0.007432375412855827
-0.005489096476079347,0.007893165221419626
-0.005488756476079347,0.008189387241210641
-0.005488416476079347,0.008255214356719755
-0.005488076476079347,0.009242621089356228
-0.005487736476079347,0.009110966858338239
-0.005487396476079347,0.009736324455674824
-0.005487056476079347,0.009999632917711221
-0.005486716476079347,0.009966719359956725
-0.005486376476079347,0.009407188878129254
-0.005486036476079347,0.009045139742828527
-0.005485696476079347,0.008716004165283554
-0.005485356476079347,0.00874891772303811
-0.005485016476079347,0.008650177049773661
-0.005484676476079347,0.008222300798965198
-0.005484336476079347,0.007827338105910513
-0.005483996476079347,0.007531116086119797
-0.005483656476079347,0.007695683874892284
-0.005483316476079347,0.006872844931028356
-0.005482976476079347,0.006214573775936435
-0.005482636476079347,0.005786697525127971
-0.005482296476079347,0.005128426370036829
-0.005481956476079347,0.005424648389828022
-0.005481616476079347,0.005523389063091515
-0.005481276476079347,0.0059183517561462
-0.005480936476079347,0.0063462280069567
-0.005480596476079347,0.007037412719801142
-0.005480256476079347,0.007860251663665069
-0.005479916476079347,0.008584349934266823
-0.005479576476079347,0.009407188878129254
-0.005479236476079347,0.009176793973847354
-0.005478896476079347,0.007103239835314027
-0.005478556476079347,0.0002572198223623791
-0.005478216476079347,-0.01373104222332439
-0.005477876476079347,-0.03555273101455605
-0.005477536476079347,-0.06385839068351487
-0.005477196476079347,-0.09690360266909021
-0.005476856476079347,-0.1309691349449948
-0.005476516476079347,-0.1626319775049408
-0.005476176476079347,-0.1896210948636776
-0.005475836476079347,-0.2111794751928733
-0.005475496476079347,-0.226451365991027
-0.005475156476079347,-0.2364570875484123
-0.005474816476079347,-0.2412295534228145
-0.005474476476079347,-0.2422498737132144
-0.005474136476079347,-0.2403079738056955
-0.005473796476079347,-0.2363254333174014
-0.005473456476079347,-0.2312567454231923
-0.005473116476079347,-0.2246411203145263
-0.005472776476079347,-0.2182229765523994
-0.005472436476079347,-0.2117060921169854
-0.005472096476079347,-0.2050246398928103
-0.005471756476079347,-0.1982115334376294
-0.005471416476079347,-0.1909376371738599
-0.005471076476079347,-0.1842232713919302
-0.005470736476079347,-0.1775089056100128
-0.005470396476079347,-0.1703666635772617
-0.005470056476079347,-0.1629940266402409
-0.005469716476079347,-0.1561150930695384
-0.005469376476079347,-0.1494665544031179
-0.005469036476079347,-0.1433775462185248
-0.005468696476079347,-0.1375847600537228
-0.005468356476079347,-0.1324173314862573
-0.005468016476079347,-0.1272828164765464
-0.005467676476079347,-0.1223128692556083
-0.005467336476079347,-0.1171783542458974
-0.005466996476079347,-0.1124717154869957
-0.005466656476079347,-0.108291693652167
-0.005466316476079347,-0.1047699429724218
-0.005465976476079347,-0.1005899211376006
-0.005465636476079347,-0.09693651622684477
-0.005465296476079347,-0.09269066727649942
-0.005464956476079347,-0.08857647255718726
-0.005464616476079347,-0.08502180831969508
-0.005464276476079347,-0.08146714408219695
-0.005463936476079347,-0.07817578830674721
-0.005463596476079347,-0.07560853080189175
-0.005463256476079347,-0.07258048348846682
-0.005462916476079347,-0.06945369550178956
-0.005462576476079347,-0.06570154991777005
-0.005462236476079347,-0.06247602125781988
-0.005461896476079347,-0.06050120779255005
-0.005461556476079347,-0.05783520961443091
-0.005461216476079347,-0.05559708768711661
-0.005460876476079347,-0.05316148441328381
-0.005460536476079347,-0.05108793027474671
-0.005460196476079347,-0.04934351171375009
-0.005459856476079347,-0.04654585930461783
-0.005459516476079347,-0.04470270007036264
-0.005459176476079347,-0.04299119506712356
-0.005458836476079347,-0.04183922054571616
-0.005458496476079347,-0.04068724602430666
-0.005458156476079347,-0.03927196304085724
-0.005457816476079347,-0.03736297669109639
-0.005457476476079347,-0.03532233611031386
-0.005457136476079347,-0.03305130062525354
-0.005456796476079347,-0.03078026514018498
-0.005456456476079347,-0.02873962455940243
-0.005456116476079347,-0.0267648110941326
-0.005455776476079347,-0.02551409589945584
-0.005455436476079347,-0.02475708407110103
-0.005455096476079347,-0.02413172647376557
-0.005454756476079347,-0.02360510954969153
-0.005454416476079347,-0.02304557906786405
-0.005454076476079347,-0.02195943166196565
-0.005453736476079347,-0.02090619781381784
-0.005453396476079347,-0.01919469281058087
-0.005453056476079347,-0.01741736069183802
-0.005452716476079347,-0.01567294213084326
-0.005452376476079347,-0.01455388116718832
-0.005452036476079347,-0.0135993879923079
-0.005451696476079347,-0.01330316597251515
-0.005451356476079347,-0.01323733885700604
-0.005451016476079347,-0.01261198125967059
-0.005450676476079347,-0.01238158635538755
-0.005450336476079347,-0.01215119145110565
-0.005449996476079347,-0.01192079654682417
-0.005449656476079347,-0.01195371010457831
-0.005449316476079347,-0.0118878829890692
-0.005448976476079347,-0.01113087116071576
-0.005448636476079347,-0.01030803221685045
-0.005448296476079347,-0.00968267461951387
-0.005447956476079347,-0.008859835675649942
-0.005447616476079347,-0.008399045867086143
-0.005447276476079347,-0.007543293365467656
-0.005446936476079347,-0.006391318844058157
-0.005446596476079347,-0.005206430764894101
-0.005446256476079347,-0.003297444415129792
-0.005445916476079347,-0.002441691913511304
-0.005445576476079347,-0.0006972733525183421
-0.005445236476079347,9.265203358959154e-05
-0.005444896476079347,0.0006850960731716212
-0.005444556476079347,0.0007838367464353515
-0.005444216476079347,0.0008167503041898484
-0.005443876476079347,0.0006521825154170643
-0.005443536476079347,0.0005205282843997915
-0.005443196476079347,0.00104714520847175
-0.005442856476079347,0.001244626554999091
-0.005442516476079347,0.0008167503041900879
-0.005442176476079347,0.0009484045352080757
-0.005441836476079347,0.0007838367464352916
-0.005441496476079347,-0.0001377428706921266
-0.005441156476079347,-3.900219742863573e-05
-0.005440816476079347,-0.0007301869102743358
-0.005440476476079347,-0.0004997920059920754
-0.005440136476079347,-0.0003023106594650937
-0.005439796476079347,0.0004876147266442768
-0.005439456476079347,0.001540848574793159
-0.005439116476079347,0.003219440020272517
-0.005438776476079347,0.004141019637400115
-0.005438436476079347,0.00509551281228329
-0.005438096476079347,0.005655043294109744
-0.005437756476079347,0.005720870409618857
-0.005437416476079347,0.006148746660428159
-0.005437076476079347,0.006181660218182656
-0.005436736476079347,0.006115833102673543
-0.005436396476079347,0.005852524640637565
-0.005436056476079347,0.0059183517561462
-0.005435716476079347,0.006181660218182656
-0.005435376476079347,0.00637914156470964
-0.005435036476079347,0.006280400891446328
-0.005434696476079347,0.005885438198391643
-0.005434356476079347,0.005753783967373654
-0.005434016476079347,0.006082919544918986
-0.005433676476079347,0.006412055122464556
-0.005433336476079347,0.006379141564710059
-0.005432996476079347,0.006214573775937213
-0.005432656476079347,0.006379141564709999
-0.005432316476079347,0.006576622911236982
-0.005431976476079347,0.007103239835310256
-0.005431636476079347,0.007991905894683298
-0.005431296476079347,0.007794424548156315
-0.005430956476079347,0.006675363584501014
-0.005430616476079347,0.005753783967373414
-0.005430276476079347,0.005161339927792464
-0.005429936476079347,0.004535982330454802
-0.005429596476079347,0.004075192521891001
-0.005429256476079347,0.004173933195154495
-0.005428916476079347,0.004141019637400115
-0.005428576476079347,0.004503068772700245
-0.005428236476079347,0.004865117907999715
-0.005427896476079347,0.006379141564709999
-0.005427556476079347,0.00762985675938317
-0.005427216476079347,0.009176793973847354
-0.005426876476079347,0.01026294137974774
-0.005426536476079347,0.01111869388136622
-0.005426196476079347,0.01180987859421192
-0.005425856476079347,0.01115160743912078
-0.005425516476079347,0.01108578032361167
-0.005425176476079347,0.01085538541932977
-0.005424836476079347,0.009308448204865582
-0.005424496476079347,0.008847658396301783
-0.005424156476079347,0.008386868587737984
-0.005423816476079347,0.007629856759382033
-0.005423476476079347,0.007004499162046584
-0.005423136476079347,0.007136153393064813
-0.005422796476079347,0.00693867204653735
-0.005422456476079347,0.006872844931028356
-0.005422116476079347,0.006971585604292027
-0.005421776476079347,0.006872844931027878
-0.005421436476079347,0.006609536468991898
-0.005421096476079347,0.006905758488782913
-0.005420756476079347,0.006839931373274218
-0.005420416476079347,0.007070326277555699
-0.005420076476079347,0.00693867204653747
-0.005419736476079347,0.007761510990402954
-0.005419396476079347,0.008617263492019883
-0.005419056476079347,0.009736324455674824
-0.005418716476079347,0.01072373118831172
-0.005418376476079347,0.01082247186157521
-0.005418036476079347,0.01167822436319369
-0.005417696476079347,0.01217192772951163
-0.005417356476079347,0.01194153282523015
-0.005417016476079347,0.01141491590115724
-0.005416676476079347,0.01115160743912036
-0.005416336476079347,0.01092121253483888
-0.005415996476079347,0.01046042272627508
-0.005415656476079347,0.01052624984178395
-0.005415316476079347,0.01039459561076597
-0.005414976476079347,0.01049333628402964
-0.005414636476079347,0.01062499051504763
