Analysis/New Tests_CMB/wrd01_d2s01/cmb14_ch25.csv

#Digilent WaveForms Oscilloscope Acquisition
#Device Name: ADP3450
#Serial Number: SN:210018B9D9B0
#Date Time: 2024-08-06 17:29:40.089.033.890
#Sample rate: 2.94118e+06Hz
#Samples: 32768
#Trigger: Source: Channel 3 Type: Edge Condition: Rising Level: 60 mV Hyst.: Auto HoldOff: 0 s
#Channel 3: Range: 200 mV/div Offset: -20 mV Attenuation: 1 X Coupling: DC Bandwidth: 0 Hz Sample Mode: Average

Time (s),Channel 3 (V)
-0.005570262776572668,0.02092693409222424
-0.005569922776572668,0.02013700870611451
-0.005569582776572668,0.01993952735958753
-0.005569242776572668,0.01937999687776006
-0.005568902776572668,0.01928125620449501
-0.005568562776572668,0.01852424437614157
-0.005568222776572668,0.01793180033655955
-0.005567882776572668,0.0175039240857485
-0.005567542776572668,0.01651651735311359
-0.005567202776572668,0.01589115975577701
-0.005566862776572668,0.01510123436966661
-0.005566522776572668,0.01454170388784016
-0.005566182776572668,0.01417965475254003
-0.005565842776572668,0.013883432732748
-0.005565502776572668,0.01332390225092155
-0.005565162776572668,0.01283019888460319
-0.005564822776572668,0.0120731870562485
-0.005564482776572668,0.01213901417175749
-0.005564142776572668,0.01190861926747559
-0.005563802776572668,0.01167822436319369
-0.005563462776572668,0.01167822436319369
-0.005563122776572668,0.01180987859421192
-0.005562782776572669,0.0121061006140024
-0.005562442776572668,0.01204027349849382
-0.005562102776572668,0.01180987859421192
-0.005561762776572669,0.01161239724768494
-0.005561422776572668,0.01217192772951205
-0.005561082776572668,0.01246814974930307
-0.005560742776572669,0.0120731870562491
-0.005560402776572668,0.01128326167013901
-0.005560062776572668,0.01065790407280242
-0.005559722776572669,0.009966719359957982
-0.005559382776572668,0.009110966858338239
-0.005559042776572668,0.008716004165283554
-0.005558702776572669,0.008617263492020064
-0.005558362776572668,0.009045139742829125
-0.005558022776572668,0.009440102435883811
-0.005557682776572669,0.01006546003321926
-0.005557342776572668,0.01019711426423862
-0.005557002776572668,0.01016420070648407
-0.005556662776572669,0.009440102435885127
-0.005556322776572668,0.008617263492019883
-0.005555982776572668,0.008057733010192412
-0.005555642776572669,0.007564029643874952
-0.005555302776572668,0.007498202528364941
-0.005554962776572668,0.007662770317137727
-0.005554622776572669,0.007893165221419206
-0.005554282776572668,0.008024819452437855
-0.005553942776572668,0.00874891772303811
-0.005553602776572669,0.00957175666690204
-0.005553262776572668,0.01046042272627508
-0.005552922776572668,0.01164531080543914
-0.005552582776572669,0.01253397686481218
-0.005552242776572668,0.01148074301666635
-0.005551902776572668,0.01197444638298471
-0.005551562776572668,0.01072373118831154
-0.005551222776572668,0.009703410897918112
-0.005550882776572668,0.008518522818756211
-0.005550542776572668,0.007004499162046584
-0.005550202776572668,0.006444968680218755
-0.005549862776572668,0.006247487333691772
-0.005549522776572668,0.0068399313732738
-0.005549182776572668,0.007926078779174662
-0.005548842776572668,0.008189387241210641
-0.005548502776572668,0.008847658396301783
-0.005548162776572668,0.009045139742829545
-0.005547822776572668,0.009275534647111025
-0.005547482776572668,0.00957175666690204
-0.005547142776572668,0.009933805802201148
-0.005546802776572668,0.009374275320374697
-0.005546462776572668,0.00874891772303811
-0.005546122776572668,0.007893165221417352
-0.005545782776572668,0.006642450026746457
-0.005545442776572668,0.005720870409618857
-0.005545102776572668,0.0054575619475827
-0.005544762776572668,0.005622129736355185
-0.005544422776572668,0.006280400891446328
-0.005544082776572668,0.007234894066330221
-0.005543742776572668,0.008189387241210641
-0.005543402776572668,0.008716004165283554
-0.005543062776572668,0.008913485511810896
-0.005542722776572668,0.008913485511810896
-0.005542382776572668,0.008123560125701526
-0.005542042776572669,0.007201980508575603
-0.005541702776572668,0.006412055122464556
-0.005541362776572668,0.005589216178600628
-0.005541022776572669,0.004930945023510684
-0.005540682776572668,0.003680229828836316
-0.005540342776572668,0.002989045115990616
-0.005540002776572669,0.002232033287637182
-0.005539662776572668,0.002330773960899476
-0.005539322776572668,0.002659909538445047
-0.005538982776572669,0.002989045115990017
-0.005538642776572668,0.003021958673745176
-0.005538302776572668,0.00328526713578163
-0.005537962776572669,0.004206846752907555
-0.005537622776572668,0.004141019637400115
-0.005537282776572668,0.005753783967373414
-0.005536942776572669,0.007070326277553304
-0.005536602776572668,0.008123560125701526
-0.005536262776572668,0.00865017704977444
-0.005535922776572669,0.009407188878127876
-0.005535582776572668,0.009341361762620138
-0.005535242776572668,0.008551436376510768
-0.005534902776572669,0.008452695703247278
-0.005534562776572668,0.007662770317137727
-0.005534222776572668,0.007037412719801142
-0.005533882776572669,0.006313314449202202
-0.005533542776572668,0.005852524640637086
-0.005533202776572668,0.005819611082882528
-0.005532862776572669,0.005622129736355185
-0.005532522776572668,0.005720870409618857
-0.005532182776572668,0.005885438198391643
-0.005531842776572669,0.006444968680219114
-0.005531502776572668,0.007399461855101271
-0.005531162776572668,0.007662770317137727
-0.005530822776572668,0.007827338105910513
-0.005530482776572668,0.00693867204653747
-0.005530142776572668,0.005984178871655314
-0.005529802776572668,0.004799290792491258
-0.005529462776572668,0.003548575597816592
-0.005529122776572668,0.002725736653954161
-0.005528782776572668,0.002824477327217832
-0.005528442776572668,0.00387771117536372
-0.005528102776572668,0.003910624733118217
-0.005527762776572668,0.005391734832073286
-0.005527422776572668,0.006774104257765342
-0.005527082776572668,0.007136153393064813
-0.005526742776572668,0.007662770317137727
-0.005526402776572668,0.008222300798965677
-0.005526062776572668,0.008485609261001654
-0.005525722776572668,0.009473015993638367
-0.005525382776572668,0.01069081763055788
-0.005525042776572668,0.01118452099687534
-0.005524702776572668,0.01125034811238445
-0.005524362776572668,0.01108578032361035
-0.005524022776572668,0.01036168205301141
-0.005523682776572668,0.009308448204865582
-0.005523342776572668,0.007958992336926105
-0.005523002776572668,0.006510795795728228
-0.005522662776572668,0.004963858581264044
-0.005522322776572668,0.004206846752907854
-0.005521982776572668,0.003449834924554418
-0.005521642776572668,0.002528255307426817
-0.005521302776572668,0.002692823096199724
-0.005520962776572668,0.002758650211708718
-0.005520622776572668,0.00259408242293593
-0.005520282776572669,0.003285267135780373
-0.005519942776572668,0.004371414541682016
-0.005519602776572668,0.005325907716564172
-0.005519262776572669,0.006477882237971576
-0.005518922776572668,0.007004499162046584
-0.005518582776572668,0.007596943201628613
-0.005518242776572669,0.007827338105910093
-0.005517902776572668,0.007893165221419626
-0.005517562776572668,0.007366548297346712
-0.005517222776572669,0.007366548297346712
-0.005516882776572668,0.007794424548155956
-0.005516542776572668,0.007662770317137727
-0.005516202776572669,0.007596943201628733
-0.005515862776572668,0.007103239835310256
-0.005515522776572668,0.006905758488782913
-0.005515182776572669,0.006346228006956459
-0.005514842776572668,0.0059183517561462
-0.005514502776572668,0.005786697525127971
-0.005514162776572669,0.006675363584499397
-0.005513822776572668,0.007794424548155956
-0.005513482776572668,0.008090646567946969
-0.005513142776572669,0.008156473683455963
-0.005512802776572668,0.007893165221419626
-0.005512462776572668,0.007662770317137727
-0.005512122776572669,0.007761510990401397
-0.005511782776572668,0.00772859743264684
-0.005511442776572668,0.007695683874892284
-0.005511102776572669,0.007860251663665069
-0.005510762776572668,0.008090646567946969
-0.005510422776572668,0.007926078779174183
-0.005510082776572668,0.00772859743264684
-0.005509742776572668,0.007498202528364941
-0.005509402776572668,0.007432375412855827
-0.005509062776572668,0.007103239835310256
-0.005508722776572668,0.006346228006955861
-0.005508382776572668,0.006576622911237342
-0.005508042776572668,0.006708277142255571
-0.005507702776572668,0.00667536358450293
-0.005507362776572668,0.00772859743264684
-0.005507022776572668,0.007399461855101271
-0.005506682776572668,0.007070326277556597
-0.005506342776572668,0.007564029643874055
-0.005506002776572668,0.007037412719801142
-0.005505662776572668,0.007893165221419507
-0.005505322776572668,0.007827338105910513
-0.005504982776572668,0.007201980508573926
-0.005504642776572668,0.006280400891445011
-0.005504302776572668,0.005556302620846072
-0.005503962776572668,0.005062599254527716
-0.005503622776572668,0.004832204350246353
-0.005503282776572668,0.005128426370036829
-0.005502942776572668,0.005095512812282273
-0.005502602776572668,0.004733463676982084
-0.005502262776572668,0.004700550119227587
-0.005501922776572668,0.005062599254527716
-0.005501582776572668,0.00565504329411154
-0.005501242776572668,0.006642450026746457
-0.005500902776572668,0.007169066950819369
-0.005500562776572668,0.00726780762408352
-0.005500222776572668,0.007531116086119498
-0.005499882776572668,0.007070326277555699
-0.005499542776572669,0.006543709353483742
-0.005499202776572668,0.007169066950819369
-0.005498862776572668,0.00762985675938317
-0.005498522776572669,0.007893165221419148
-0.005498182776572668,0.008617263492019883
-0.005497842776572668,0.009110966858338239
-0.005497502776572669,0.009571756666901202
-0.005497162776572668,0.009867978686693053
-0.005496822776572668,0.01016420070648407
-0.005496482776572669,0.01013128714872957
-0.005496142776572668,0.00957175666690204
-0.005495802776572668,0.008321041472228868
-0.005495462776572669,0.007136153393066968
-0.005495122776572668,0.006050005987164429
-0.005494782776572668,0.005589216178600628
-0.005494442776572669,0.005325907716564651
-0.005494102776572668,0.005655043294109744
-0.005493762776572668,0.006708277142255571
-0.005493422776572669,0.007300721181836521
-0.005493082776572668,0.007991905894683298
-0.005492742776572668,0.008518522818756211
-0.005492402776572669,0.008156473683456742
-0.005492062776572668,0.007366548297346712
-0.005491722776572668,0.006280400891446328
-0.005491382776572669,0.005589216178601886
-0.005491042776572668,0.005194253485545943
-0.005490702776572668,0.004832204350245815
-0.005490362776572669,0.004733463676982144
-0.005490022776572668,0.005194253485545943
-0.005489682776572668,0.006082919544918986
-0.005489342776572669,0.007432375412855827
-0.005489002776572668,0.008814744838547226
-0.005488662776572668,0.009769238013429382
-0.005488322776572668,0.01078955830382065
-0.005487982776572668,0.0104933362840291
-0.005487642776572668,0.01019711426423862
-0.005487302776572668,0.009110966858338239
-0.005486962776572668,0.007958992336927184
-0.005486622776572668,0.007103239835310256
-0.005486282776572668,0.007399461855101271
-0.005485942776572668,0.007103239835309538
-0.005485602776572668,0.006708277142255571
-0.005485262776572668,0.006477882237973671
-0.005484922776572668,0.005589216178599371
-0.005484582776572668,0.00489803146575493
-0.005484242776572668,0.004799290792491258
-0.005483902776572668,0.005819611082883665
-0.005483562776572668,0.006444968680219114
-0.005483222776572668,0.006477882237973671
-0.005482882776572668,0.006214573775935776
-0.005482542776572668,0.005424648389827843
-0.005482202776572668,0.004470155214945688
-0.005481862776572668,0.003713143386589974
-0.005481522776572668,0.003219440020272517
-0.005481182776572668,0.00377897050209999
-0.005480842776572668,0.004173933195155933
-0.005480502776572668,0.004865117908000373
-0.005480162776572668,0.0049967721390186
-0.005479822776572668,0.005292994158810513
-0.005479482776572668,0.005786697525127971
-0.005479142776572668,0.004930945023509487
-0.005478802776572669,0.00131045367051479
-0.005478462776572668,-0.007247071345676644
-0.005478122776572668,-0.02307849262561861
-0.005477782776572669,-0.04809279651903652
-0.005477442776572668,-0.07827452898001089
-0.005477102776572668,-0.111484308754359
-0.005476762776572669,-0.1446611749708922
-0.005476422776572668,-0.1745466854120904
-0.005476082776572668,-0.1995280757477993
-0.005475742776572669,-0.2181242358790902
-0.005475402776572668,-0.230466820037083
-0.005475062776572668,-0.2377078027430855
-0.005474722776572669,-0.2399459246703913
-0.005474382776572668,-0.2390243450532678
-0.005474042776572668,-0.2351076316804755
-0.005473702776572669,-0.2291502777269115
-0.005473362776572668,-0.2223371712717074
-0.005473022776572668,-0.2147012258726501
-0.005472682776572669,-0.2067361448960618
-0.005472342776572668,-0.1986723232461808
-0.005472002776572668,-0.1910363778471235
-0.005471662776572669,-0.1836308273523616
-0.005471322776572668,-0.1771139429169459
-0.005470982776572668,-0.1715515516564257
-0.005470642776572669,-0.1655283705873527
-0.005470302776572668,-0.1596368437492761
-0.005469962776572668,-0.1537453169112103
-0.005469622776572669,-0.148643715459254
-0.005469282776572668,-0.1433117191030157
-0.005468942776572668,-0.1379468091890229
-0.005468602776572669,-0.133108516199103
-0.005468262776572668,-0.1282702232091831
-0.005467922776572668,-0.1240572878165998
-0.005467582776572668,-0.1191860812689254
-0.005467242776572668,-0.1142161340479872
-0.005466902776572668,-0.1095094952890856
-0.005466562776572668,-0.1050990785499749
-0.005466222776572668,-0.1013469329659488
-0.005465882776572668,-0.09769352805519957
-0.005465542776572668,-0.09463256718402577
-0.005465202776572668,-0.09134121140856358
-0.005464862776572668,-0.08778654717107789
-0.005464522776572668,-0.08561425235927711
-0.005464182776572668,-0.08284951350788899
-0.005463842776572668,-0.07992020686773874
-0.005463502776572668,-0.0762668019569829
-0.005463162776572668,-0.07300835973927491
-0.005462822776572668,-0.06925621415526223
-0.005462482776572668,-0.06655730241938854
-0.005462142776572668,-0.06379256356800019
-0.005461802776572668,-0.06073160269683194
-0.005461462776572668,-0.05852639432727661
-0.005461122776572668,-0.05579456903364256
-0.005460782776572668,-0.05260195393145634
-0.005460442776572668,-0.04954099306028253
-0.005460102776572668,-0.04621672372706789
-0.005459762776572668,-0.04381403401098959
-0.005459422776572668,-0.0434190713179349
-0.005459082776572668,-0.04239875102754226
-0.005458742776572668,-0.04164173919918882
-0.005458402776572668,-0.04072015958206122
-0.005458062776572668,-0.0396669257339127
-0.005457722776572668,-0.03818581563496033
-0.005457382776572668,-0.03640848351621424
-0.005457042776572669,-0.0345324107242079
-0.005456702776572668,-0.03282090572096751
-0.005456362776572668,-0.03101066004446688
-0.005456022776572669,-0.03005616686958645
-0.005455682776572668,-0.02890419234817522
-0.005455342776572668,-0.02755473648023838
-0.005455002776572669,-0.02613945349679499
-0.005454662776572668,-0.02409881291600988
-0.005454322776572668,-0.02222274012400013
-0.005453982776572669,-0.02031375377423928
-0.005453642776572668,-0.01883264367528074
-0.005453302776572668,-0.01764775559611669
-0.005452962776572669,-0.01666034886348177
-0.005452622776572668,-0.01547546078431592
-0.005452282776572668,-0.01432348626290642
-0.005451942776572669,-0.01386269645434346
-0.005451602776572668,-0.01425765914739731
-0.005451262776572668,-0.01429057270515186
-0.005450922776572669,-0.01498175741799631
-0.005450582776572668,-0.01531089299554313
-0.005450242776572668,-0.01527797943778858
-0.005449902776572669,-0.01458679472494413
-0.005449562776572668,-0.01359938799230617
-0.005449222776572668,-0.01231575923987844
-0.005448882776572669,-0.0115916609692795
-0.005448542776572668,-0.01155874741152362
-0.005448202776572668,-0.01146000673825995
-0.005447862776572669,-0.01093338981418704
-0.005447522776572668,-0.010044723754814
-0.005447182776572668,-0.008991489906668169
-0.005446842776572668,-0.007674947596485886
-0.005446502776572668,-0.006095096824267145
-0.005446162776572668,-0.004120283358993719
-0.005445822776572668,-0.002902481722075106
-0.005445482776572668,-0.002277124124738759
-0.005445142776572668,-0.002408778355756747
-0.005444802776572668,-0.001882161431683835
-0.005444462776572668,-0.001882161431684254
-0.005444122776572668,-0.002112556335965736
-0.005443782776572668,-0.001980902104947505
-0.005443442776572668,-0.0008947546990459823
-0.005443102776572668,-0.0002693971017105369
-0.005442762776572668,-0.0001706564284468665
-0.005442422776572668,0.0005205282843994922
-0.005442082776572668,0.0008825774196989621
-0.005441742776572668,0.001573762132544662
-0.005441402776572668,0.001573762132545141
-0.005441062776572668,0.00183707059458112
-0.005440722776572668,0.002199119729881245
-0.005440382776572668,0.002232033287636045
-0.005440042776572668,0.002363687518654033
-0.005439702776572668,0.002561168865181374
-0.005439362776572668,0.002956131558235999
-0.005439022776572668,0.002923218000481502
-0.005438682776572668,0.002692823096199604
-0.005438342776572668,0.002659909538445047
-0.005438002776572668,0.002659909538445047
-0.005437662776572668,0.002824477327217832
-0.005437322776572668,0.003120699347009385
-0.005436982776572668,0.003416921366799861
-0.005436642776572668,0.004206846752909232
-0.005436302776572669,0.004667636561472193
-0.005435962776572668,0.004700550119227587
-0.005435622776572668,0.004437241657191129
-0.005435282776572669,0.004470155214945628
-0.005434942776572668,0.004239760310663789
-0.005434602776572668,0.003482748482308975
-0.005434262776572669,0.002594082422937547
-0.005433922776572668,0.003021958673745176
-0.005433582776572668,0.00318652646251796
-0.005433242776572669,0.003318180693535948
-0.005432902776572668,0.004075192521891001
-0.005432562776572668,0.005292994158809615
-0.005432222776572669,0.005720870409618079
-0.005431882776572668,0.006247487333691772
-0.005431542776572668,0.006379141564709999
-0.005431202776572669,0.006642450026745978
-0.005430862776572668,0.006642450026746457
-0.005430522776572668,0.006510795795728228
-0.005430182776572669,0.005918351756147277
-0.005429842776572668,0.005029685696773157
-0.005429502776572668,0.004503068772700245
-0.005429162776572669,0.003614402713328818
-0.005428822776572668,0.00308778578925429
-0.005428482776572668,0.003416921366799861
-0.005428142776572669,0.003318180693536367
-0.005427802776572668,0.003384007809045304
-0.005427462776572668,0.002725736653954161
-0.005427122776572669,0.00249534174967226
-0.005426782776572668,0.002297860403144919
-0.005426442776572668,0.001738329921317446
-0.005426102776572669,0.001935811267844791
-0.005425762776572668,0.002561168865181374
-0.005425422776572668,0.003515662040063532
-0.005425082776572668,0.004733463676982144
-0.005424742776572668,0.005622129736355185
-0.005424402776572668,0.006050005987164429
-0.005424062776572668,0.006082919544918986
-0.005423722776572668,0.006741190700011085
-0.005423382776572668,0.007267807624083042
-0.005423042776572668,0.007827338105910513
-0.005422702776572668,0.00818938724121154
-0.005422362776572668,0.008683090607528997
-0.005422022776572668,0.008024819452437855
-0.005421682776572668,0.007695683874891087
-0.005421342776572668,0.007037412719801142
-0.005421002776572668,0.006412055122464556
-0.005420662776572668,0.005786697525127552
-0.005420322776572668,0.005556302620846072
-0.005419982776572668,0.0059183517561462
-0.005419642776572668,0.006148746660428937
-0.005419302776572668,0.006609536468991898
-0.005418962776572668,0.006675363584501014
-0.005418622776572668,0.006938672046537889
-0.005418282776572668,0.007169066950819369
-0.005417942776572668,0.007300721181837598
-0.005417602776572668,0.007399461855102408
-0.005417262776572668,0.008024819452437855
-0.005416922776572668,0.008222300798965198
-0.005416582776572668,0.008090646567945652
-0.005416242776572668,0.007366548297346712
-0.005415902776572668,0.00693867204653747
-0.005415562776572668,0.006708277142256229
-0.005415222776572668,0.007070326277555699
-0.005414882776572668,0.007761510990401397
