Analysis/New Tests_CMB/wrd01_d2s01/cmb10_ch34.csv

#Digilent WaveForms Oscilloscope Acquisition
#Device Name: ADP3450
#Serial Number: SN:210018B9D9B0
#Date Time: 2024-08-07 11:55:48.468.813.540
#Sample rate: 2.94118e+06Hz
#Samples: 32768
#Trigger: Source: Channel 3 Type: Edge Condition: Rising Level: 0 V Hyst.: Auto HoldOff: 0 s
#Channel 3: Range: 200 mV/div Offset: 0 V Attenuation: 1 X Coupling: DC Bandwidth: 0 Hz Sample Mode: Average

Time (s),Channel 3 (V)
-0.005570540000000001,0.01453780683035049
-0.0055702,0.0146694610613686
-0.00556986,0.0146036339458596
-0.005569520000000001,0.01496568308115973
-0.00556918,0.01463654750361284
-0.00556884,0.0139124492330139
-0.005568500000000001,0.01289212894262263
-0.00556816,0.01249716624956717
-0.00556782,0.0120692899987587
-0.005567480000000001,0.01134519172815845
-0.00556714,0.01137810528591288
-0.0055668,0.01131227817040389
-0.005566460000000001,0.01147684595917668
-0.00556612,0.01180598153672344
-0.00556578,0.01246425269181339
-0.00556544,0.01348457298220466
-0.0055651,0.01493276952340577
-0.00556476,0.01526190510095074
-0.00556442,0.01539355933196897
-0.00556408,0.01460363394585655
-0.00556374,0.01292504250037719
-0.0055634,0.01150975951693123
-0.005563060000000001,0.01029195788001484
-0.00556272,0.009995735860221606
-0.00556238,0.01022613076450351
-0.005562040000000001,0.01058817989980297
-0.0055617,0.01147684595917668
-0.00556136,0.01226677134528605
-0.005561020000000001,0.01295795605813049
-0.00556068,0.01332000519343187
-0.00556034,0.01355040009771377
-0.005560000000000001,0.01351748653995928
-0.00555966,0.01424158481055947
-0.00555932,0.01466946106136872
-0.005558980000000001,0.01499859663891369
-0.00555864,0.01513025086993251
-0.0055583,0.01578852202502366
-0.005557960000000001,0.01592017625604165
-0.00555762,0.01624931183358745
-0.00555728,0.01674301519990581
-0.005556940000000001,0.01677592875766031
-0.0055566,0.01687466943092404
-0.00555626,0.01631513894909657
-0.005555920000000001,0.01618348471807858
-0.00555558,0.01562395423625087
-0.00555524,0.01473528817687783
-0.005554900000000001,0.01430741192606937
-0.00555456,0.01351748653995922
-0.00555422,0.01305669673139542
-0.005553880000000001,0.01335291875118643
-0.00555354,0.01568978135175999
-0.0055532,0.02454352838773585
-0.005552860000000001,0.04037494966767782
-0.00555252,0.06420436548197717
-0.00555218,0.09570264025308831
-0.005551840000000001,0.1307884928194462
-0.0055515,0.1658414318281093
-0.00555116,0.1986891624670975
-0.005550820000000001,0.2268302543472438
-0.00555048,0.2481582397722241
-0.00555014,0.2631339085505203
-0.005549800000000001,0.2717243471244597
-0.00554946,0.2750815300154238
-0.00554912,0.2746865673223698
-0.005548780000000001,0.2716585200089506
-0.00554844,0.2665569185569817
-0.0055481,0.2596450714285373
-0.005547760000000001,0.2523382616070256
-0.00554742,0.2448010568812171
-0.00554708,0.2366384945581018
-0.005546740000000001,0.2287063271392536
-0.0055464,0.2207412461626368
-0.00554606,0.213072387205839
-0.005545720000000001,0.2059959722886092
-0.00554538,0.1983600268895401
-0.00554504,0.1918760560119042
-0.0055447,0.1856883071540474
-0.00554436,0.1805867057020786
-0.00554402,0.1737077721313887
-0.00554368,0.1673225419270046
-0.00554334,0.1607069168183273
-0.005543,0.1545191679604818
-0.00554266,0.1489896902577163
-0.005542320000000001,0.1438551752480147
-0.00554198,0.1393131042778765
-0.00554164,0.1348697739810113
-0.005541300000000001,0.1303935301263996
-0.00554096,0.1262464218493173
-0.00554062,0.1222638813610159
-0.005540280000000001,0.1188079577967937
-0.00553994,0.115121639328277
-0.0055396,0.1115340615330303
-0.005539260000000001,0.1086376684506345
-0.00553892,0.1058729295992465
-0.00553858,0.1032398449788819
-0.005538240000000001,0.1011992043981031
-0.0055379,0.09853320621998021
-0.00553756,0.09596594871512476
-0.005537220000000001,0.09346451832578298
-0.00553688,0.09053521168562284
-0.00553654,0.08721094235241258
-0.005536200000000001,0.08359045099941788
-0.00553586,0.0808257121480285
-0.00553552,0.07815971396990937
-0.005535180000000001,0.0754937157917951
-0.00553484,0.07253149559388011
-0.0055345,0.07052376857085213
-0.005534160000000001,0.06785777039273784
-0.00553382,0.06552090779215944
-0.00553348,0.06328278586484956
-0.005533140000000001,0.06127505884182158
-0.0055328,0.05979394874286651
-0.00553246,0.058345752201666
-0.005532120000000001,0.05666716075618358
-0.00553178,0.05554809979252864
-0.00553144,0.05423155748234636
-0.005531100000000001,0.05360619988500977
-0.00553076,0.05255296603686395
-0.00553042,0.05136807795769989
-0.005530080000000001,0.05021610343629039
-0.00552974,0.04959074583895219
-0.0055294,0.04870207977958076
-0.005529060000000001,0.04751719170041671
-0.00552872,0.04626647650574037
-0.00552838,0.04452205794475201
-0.005528040000000001,0.04244850380621491
-0.0055277,0.04030912255216517
-0.00552736,0.03836722264464983
-0.005527020000000001,0.03695193966120388
-0.00552668,0.03556957023551056
-0.00552634,0.03451633638736665
-0.005526000000000001,0.03352892965472994
-0.00552566,0.03293648561514666
-0.00552532,0.03224530090230221
-0.005524980000000001,0.03152120263170195
-0.00552464,0.03089584503436357
-0.0055243,0.02990843830172865
-0.005523960000000001,0.02931599426214663
-0.00552362,0.02895394512684602
-0.00552328,0.02869063666481004
-0.00552294,0.0289539451268465
-0.0055226,0.02885520445358355
-0.00552226,0.02925016714663752
-0.00552192,0.0294147349354103
-0.00552158,0.02885520445358062
-0.00552124,0.02763740281666422
-0.0055209,0.02671582319953662
-0.005520560000000001,0.02602463848669217
-0.00552022,0.025498021562618
-0.00551988,0.02513597242731788
-0.005519540000000001,0.0248397504075274
-0.0055192,0.0243460470412085
-0.00551886,0.02335864030857179
-0.005518520000000001,0.02214083867165539
-0.00551818,0.02112051838126191
-0.00551784,0.02128508617003469
-0.005517500000000001,0.02197627088287914
-0.00551716,0.02273328271123521
-0.00551682,0.02319407251979901
-0.005516480000000001,0.02306241828878102
-0.00551614,0.02263454203797154
-0.0055158,0.02250288780695331
-0.005515460000000001,0.02112051838126442
-0.00551512,0.02006728453311608
-0.00551478,0.0187507422229338
-0.005514440000000001,0.01736837279724491
-0.0055141,0.01664427452664214
-0.00551376,0.01631513894909657
-0.005513420000000001,0.01651262029562355
-0.00551308,0.01700632366194227
-0.00551274,0.01680884231541493
-0.005512400000000001,0.01684175587316948
-0.00551206,0.01694049654643316
-0.00551172,0.01730254568173328
-0.005511380000000001,0.01723671856622417
-0.00551104,0.01786207616356076
-0.0055107,0.01871782866517924
-0.005510360000000001,0.01907987780047937
-0.00551002,0.01888239645395202
-0.00550968,0.01861908799191557
-0.005509340000000001,0.01786207616356076
-0.005509,0.01815829818335075
-0.00550866,0.0175987677015243
-0.005508320000000001,0.0171379778929605
-0.00550798,0.01674301519990492
-0.00550764,0.01624931183358745
-0.005507300000000001,0.01585434914053277
-0.00550696,0.01529481865870386
-0.00550662,0.01450489327259593
-0.005506280000000001,0.01463654750361416
-0.00550594,0.01384662211750419
-0.0055056,0.01351748653995922
-0.005505260000000001,0.0129908696158863
-0.00550492,0.01332000519343205
-0.00550458,0.01341874586669555
-0.005504240000000001,0.01292504250037719
-0.0055039,0.01368205432873362
-0.00550356,0.01457072038810504
-0.005503220000000001,0.0150644237544234
-0.00550288,0.0161834847180799
-0.00550254,0.01703923721969683
-0.0055022,0.0171379778929605
-0.00550186,0.01631513894909585
-0.00550152,0.01592017625604189
-0.00550118,0.01549230000523264
-0.00550084,0.01493276952340272
-0.0055005,0.01358331365546833
-0.00550016,0.01282630182711352
-0.005499820000000001,0.01197054932549659
-0.00549948,0.01150975951693123
-0.00549914,0.01078566124633098
-0.005498800000000001,0.01121353749713944
-0.00549846,0.01157558663244035
-0.00549812,0.01167432730570402
-0.005497780000000001,0.01229968490303947
-0.00549744,0.0132212645201682
-0.0054971,0.01466946106136872
-0.005496760000000001,0.0148340288501412
-0.00549642,0.01489985596565062
-0.00549608,0.01486694240789606
-0.005495740000000001,0.01499859663891405
-0.0054954,0.01509733731217796
-0.00549506,0.01476820173463239
-0.005494720000000001,0.01552521356298582
-0.00549438,0.01605183048706011
-0.00549404,0.015986003371551
-0.005493700000000001,0.0159530898137965
-0.00549336,0.01536064577421441
-0.00549302,0.01420867125280492
-0.005492680000000001,0.01341874586669698
-0.00549234,0.01249716624956795
-0.005492,0.01197054932549503
-0.005491660000000001,0.01157558663244107
-0.00549132,0.01101605615061288
-0.00549098,0.01111479682387655
-0.005490640000000001,0.01108188326612199
-0.0054903,0.01164141374794946
-0.00548996,0.01200346288324959
-0.005489620000000001,0.01249716624956795
-0.00548928,0.01358331365546833
-0.00548894,0.01430741192606859
-0.005488600000000001,0.01417575769505036
-0.00548826,0.01397827634852278
-0.00548792,0.01384662211750479
-0.005487580000000001,0.01381370855975023
-0.00548724,0.01312252384690321
-0.0054869,0.01239842557630427
-0.005486560000000001,0.01236551201854972
-0.00548622,0.01233259846079594
-0.00548588,0.0127604747116044
-0.005485540000000001,0.01249716624956795
-0.0054852,0.01276047471160512
-0.00548486,0.01315543740465909
-0.005484520000000001,0.01332000519343187
-0.00548418,0.01381370855975161
-0.00548384,0.01457072038810504
-0.005483500000000001,0.01555812712074176
-0.00548316,0.01634805250685221
-0.00548282,0.01694049654643316
-0.005482480000000001,0.01789498972131531
-0.00548214,0.01812538462559685
-0.0054818,0.01792790327906987
-0.00548146,0.01730254568173328
-0.00548112,0.01644679318011366
-0.00548078,0.01582143558277821
-0.00548044,0.01486694240789606
-0.0054801,0.01394536279076744
-0.00547976,0.01338583230894099
-0.00547942,0.01243133913405883
-0.005479080000000001,0.01203637644100486
-0.00547874,0.01266173403834073
-0.0054784,0.01364914077097745
-0.005478060000000001,0.01466946106136686
-0.00547772,0.01516316442768707
-0.00547738,0.01522899154319619
-0.005477040000000001,0.01450489327259725
-0.0054767,0.01378079500199567
-0.00547636,0.01292504250037719
-0.005476020000000001,0.0127933882693592
-0.00547568,0.01292504250037719
-0.00547534,0.01338583230894099
-0.005475000000000001,0.01315543740465951
-0.00547466,0.01308961028914997
-0.00547432,0.01341874586669555
-0.005473980000000001,0.01332000519343205
-0.00547364,0.01325417807792276
-0.0054733,0.01361622721322289
-0.005472960000000001,0.01424158481055834
-0.00547262,0.0146036339458596
-0.00547228,0.0146036339458596
-0.005471940000000001,0.01447197971484161
-0.0054716,0.013682054328732
-0.00547126,0.01374788144424112
-0.005470920000000001,0.01348457298220514
-0.00547058,0.01341874586669555
-0.00547024,0.01328709163567732
-0.005469900000000001,0.01341874586669555
-0.00546956,0.01302378317364086
-0.00546922,0.01272756115384985
-0.005468880000000001,0.01226677134528605
-0.00546854,0.01220094422977693
-0.0054682,0.01180598153672225
-0.005467860000000001,0.01197054932549503
-0.00546752,0.01279338826935896
-0.00546718,0.0134516594244501
-0.005466840000000001,0.01447197971484137
-0.0054665,0.01522899154319726
-0.00546616,0.01582143558277821
-0.005465820000000001,0.01611765760256923
-0.00546548,0.01651262029562463
-0.00546514,0.0169075829886786
-0.005464800000000001,0.01671010164215126
-0.00546446,0.01654553385337703
-0.00546412,0.0157556084672691
-0.005463780000000001,0.015986003371551
-0.00546344,0.01592017625604081
-0.0054631,0.01532773221645986
-0.005462760000000001,0.01463654750361416
-0.00546242,0.01355040009771234
-0.00546208,0.0127604747116044
-0.005461740000000001,0.01239842557630427
-0.0054614,0.01315543740465891
-0.00546106,0.01305669673139542
-0.005460720000000001,0.01272756115384985
-0.00546038,0.01243133913405716
-0.00546004,0.01150975951693123
-0.0054597,0.01068692057306731
-0.00545936,0.01045652566878588
-0.00545902,0.01071983413082186
-0.00545868,0.009995735860221606
-0.00545834,0.01085148836184135
-0.005458,0.01154267307468579
-0.00545766,0.0125300798073225
-0.005457320000000001,0.01332000519343044
-0.00545698,0.01328709163567732
-0.00545664,0.01305669673139542
-0.005456300000000001,0.01233259846079648
-0.00545596,0.01157558663244035
-0.00545562,0.01127936461264933
-0.005455280000000001,0.01157558663243981
-0.00545494,0.01180598153672225
-0.0054546,0.01266173403834073
-0.005454260000000001,0.01348457298220316
-0.00545392,0.01420867125280492
-0.00545358,0.01486694240789606
-0.005453240000000001,0.01470237461912357
-0.0054529,0.01473528817687783
-0.00545256,0.01522899154319619
-0.005452220000000001,0.01539355933196867
-0.00545188,0.01503151019666884
-0.00545154,0.01457072038810504
-0.005451200000000001,0.01417575769505108
-0.00545086,0.01384662211750479
-0.00545052,0.01338583230894099
-0.005450180000000001,0.01341874586669549
-0.00544984,0.01371496788648656
-0.0054495,0.01364914077097745
-0.005449160000000001,0.01407701702178591
-0.00544882,0.01417575769505036
-0.00544848,0.01387953567525935
-0.005448140000000001,0.01335291875118643
-0.0054478,0.01355040009771377
-0.00544746,0.01371496788648656
-0.005447120000000001,0.01361622721322289
-0.00544678,0.01351748653995922
-0.00544644,0.01292504250037719
-0.005446100000000001,0.01272756115384985
-0.00544576,0.012365512018549
-0.00544542,0.01197054932549503
-0.005445080000000001,0.01197054932549503
-0.00544474,0.01239842557630637
-0.0054444,0.01355040009771377
-0.005444060000000001,0.01430741192606859
-0.00544372,0.01463654750361482
-0.00544338,0.01499859663891429
-0.005443040000000001,0.01480111529238694
-0.0054427,0.01443906615708568
-0.00544236,0.01381370855975023
-0.005442020000000001,0.01371496788648656
-0.00544168,0.01384662211750443
-0.00544134,0.01364914077097745
-0.005441000000000001,0.01355040009771377
-0.00544066,0.01233259846079402
-0.00544032,0.01170724086345858
-0.005439980000000001,0.01081857480408553
-0.00543964,0.01078566124633014
-0.0054393,0.01032487143776718
-0.00543896,0.01108188326612199
-0.00543862,0.01141101884366936
-0.00543828,0.01239842557630427
-0.00543794,0.01272756115384985
-0.0054376,0.01328709163567804
-0.00543726,0.013682054328732
-0.00543692,0.0146036339458596
-0.005436580000000001,0.01480111529238659
-0.00543624,0.01496568308115973
-0.0054359,0.01532773221645986
-0.005435560000000001,0.01532773221645986
-0.00543522,0.01565686779400543
-0.00543488,0.01536064577421441
-0.005434540000000001,0.01476820173463346
-0.0054342,0.0143732390415777
-0.00543386,0.01384662211750479
-0.005433520000000001,0.0136820543287323
-0.00543318,0.013682054328732
-0.00543284,0.0143732390415777
-0.005432500000000001,0.01348457298220628
-0.00543216,0.01355040009771377
-0.00543182,0.01285921538486808
-0.005431480000000001,0.008843761338819412
-0.00543114,0.0002533227648727025
-0.0054308,-0.01521604937976914
-0.005430460000000001,-0.0383213669234262
-0.00543012,-0.06830561803786975
-0.00542978,-0.1021407554095544
-0.005429440000000001,-0.1364695961474951
-0.0054291,-0.1676716488988777
-0.00542876,-0.1940024951025233
-0.005428420000000001,-0.2136518890819582
-0.00542808,-0.2272122748768715
-0.00542774,-0.2353419236422471
-0.005427400000000001,-0.2396206861503395
-0.00542706,-0.2395219454770758
-0.00542672,-0.2367901201834476
-0.005426380000000001,-0.2318201729625095
-0.00542604,-0.2256324241046527
-0.0054257,-0.2183585278408956
-0.005425360000000001,-0.210821323115102
-0.00542502,-0.2029549828117629
-0.00542468,-0.1955494323169875
-0.005424340000000001,-0.1882755360532304
-0.005424,-0.1809028991161964
-0.00542366,-0.1736290028524525
-0.005423320000000001,-0.1663551065886954
-0.00542298,-0.1595749136912448
-0.00542264,-0.1530909428136089
-0.005422300000000001,-0.1475285515530887
-0.00542196,-0.1424598636588786
-0.00542162,-0.137917792688758
-0.005421280000000001,-0.1329478454678199
-0.00542094,-0.1281753795933993
-0.0054206,-0.1227446425639072
-0.005420260000000001,-0.1176101275541963
-0.00541992,-0.112014822735913
-0.00541958,-0.1072752704192654
-0.005419240000000001,-0.1028977672379093
-0.0054189,-0.09934310300040967
-0.00541856,-0.09526182183885201
-0.005418220000000001,-0.09197046606339632
-0.00541788,-0.08861328317242503
-0.00541754,-0.08505861893493932
-0.0054172,-0.08203057162152005
-0.00541686,-0.07821259892198403
-0.00541652,-0.07413131776042636
-0.00541618,-0.07070830775395243
-0.00541584,-0.06646245880360858
-0.0054155,-0.06317110302815884
-0.00541516,-0.06030762350351238
-0.005414820000000001,-0.05783910667192508
-0.00541448,-0.05589720676440172
-0.00541414,-0.05359325772158272
-0.005413800000000001,-0.0515526171408039
-0.00541346,-0.04934740877124486
-0.00541312,-0.04753716309474422
-0.005412780000000001,-0.0453977818407019
-0.00541244,-0.04375210395297015
-0.0054121,-0.04266595654706976
-0.005411760000000001,-0.04131650067913538
-0.00541142,-0.03976956346466874
-0.00541108,-0.03782766355714987
-0.005410740000000001,-0.03568828230310755
-0.0054104,-0.03321976547151188
-0.00541006,-0.03061959440890186
-0.005409720000000001,-0.02811816401956008
-0.00540938,-0.02601169632326387
-0.00540904,-0.02403688285799044
-0.005408700000000001,-0.02295073545209203
-0.00540836,-0.02183167448843512
-0.00540802,-0.02077844064028929
-0.005407680000000001,-0.02005434236969035
-0.00540734,-0.0196922932343889
-0.005407,-0.01880362717501586
-0.005406660000000001,-0.01791496111564444
-0.00540632,-0.01656550524770598
-0.00540598,-0.01505148159099635
-0.005405640000000001,-0.01320832235674115
-0.0054053,-0.0111018546604495
-0.00540496,-0.00962074456149443
-0.005404620000000001,-0.008666251386612273
-0.00540428,-0.007711758211730118
-0.00540394,-0.007152227729902647
-0.005403600000000001,-0.006592697248075176
-0.00540326,-0.00590151253522768
-0.00540292,-0.004914105802592763
-0.005402580000000001,-0.004552056667292635
-0.00540224,-0.003465909261393209
-0.0054019,-0.003992526185465165
-0.005401560000000001,-0.004222921089747064
-0.00540122,-0.004683710898310445
-0.00540088,-0.004453315994028964
-0.005400540000000001,-0.004288748205256179
-0.0054002,-0.003992526185464566
-0.00539986,-0.003663390607919593
-0.005399520000000001,-0.002939292337319337
-0.00539918,-0.002248107624472321
-0.00539884,-0.001524009353873381
-0.005398500000000001,-0.0002403806014456541
-0.00539816,0.0008128532467025681
-0.00539782,0.002129395556882458
-0.005397480000000001,0.003314283636046514
-0.00539714,0.004071295464402165
-0.0053968,0.004532085272965126
-0.00539646,0.004367517484192341
-0.00539612,0.004334603926437305
-0.00539578,0.004071295464401327
-0.00539544,0.003873814117873984
-0.0053951,0.003544678540328653
-0.00539476,0.003676332771346642
-0.00539442,0.003643419213592085
-0.005394080000000001,0.003149715847274626
-0.00539374,0.0030180616162555
-0.0053934,0.003314283636046514
-0.005393060000000001,0.00311680228951953
-0.00539272,0.00357759209808297
-0.00539238,0.004696653061737912
-0.005392040000000001,0.005914454698654309
-0.0053917,0.006868947873538681
-0.00539136,0.008086749510457293
-0.005391020000000001,0.009271637589619193
-0.00539068,0.00973242739818515
-0.00539034,0.009567859609412364
-0.005390000000000001,0.009666600282675854
-0.00538966,0.00871210710779388
-0.00538932,0.008185490183720966
-0.005388980000000001,0.008053835952702976
-0.00538864,0.00811966306821185
-0.0053883,0.008481712203511979
-0.005387960000000001,0.008448798645757483
-0.00538762,0.008251317299230079
-0.00538728,0.007988008837193623
-0.005386940000000001,0.00765887325964865
-0.0053866,0.008481712203511979
-0.00538626,0.008547539319021094
-0.005385920000000001,0.009238724031865535
-0.00538558,0.01075274768857642
-0.00538524,0.01180598153672225
-0.005384900000000001,0.01279338826935896
-0.00538456,0.01364914077097745
-0.00538422,0.01463654750361416
-0.005383880000000001,0.01542647288972353
-0.00538354,0.01522899154319619
-0.0053832,0.01499859663891429
-0.005382860000000001,0.01493276952340517
-0.00538252,0.01470237461912327
-0.00538218,0.01417575769505036
-0.005381840000000001,0.01351748653995922
-0.0053815,0.01299086961588606
-0.00538116,0.01285921538486808
-0.005380820000000001,0.0129908696158863
-0.00538048,0.01335291875118679
-0.00538014,0.01355040009771377
-0.005379800000000001,0.01361622721322289
