Analysis/New Tests_CMB/wrd01_d2s01/cmb12_ch33.csv

#Digilent WaveForms Oscilloscope Acquisition
#Device Name: ADP3450
#Serial Number: SN:210018B9D9B0
#Date Time: 2024-08-07 11:11:19.962.266.160
#Sample rate: 2.94118e+06Hz
#Samples: 32768
#Trigger: Source: Channel 3 Type: Edge Condition: Rising Level: 0 V Hyst.: Auto HoldOff: 0 s
#Channel 3: Range: 200 mV/div Offset: 0 V Attenuation: 1 X Coupling: DC Bandwidth: 0 Hz Sample Mode: Average

Time (s),Channel 3 (V)
-0.005570276666666667,0.01048943922653996
-0.005569936666666666,0.01127936461265107
-0.005569596666666667,0.01223385778753149
-0.005569256666666667,0.0129908696158863
-0.005568916666666666,0.01391244923301444
-0.005568576666666667,0.01420867125280492
-0.005568236666666667,0.01358331365546833
-0.005567896666666666,0.01302378317363883
-0.005567556666666667,0.01190472220998592
-0.005567216666666667,0.01150975951693123
-0.005566876666666666,0.01091731547734861
-0.005566536666666667,0.01058817989980363
-0.005566196666666667,0.01095022903510376
-0.005565856666666666,0.01193763576774197
-0.005565516666666667,0.0127604747116044
-0.005565176666666667,0.01371496788648656
-0.005564836666666666,0.01414284413729706
-0.005564496666666667,0.0148340288501415
-0.005564156666666667,0.01519607798544163
-0.005563816666666666,0.01545938644747689
-0.005563476666666667,0.01480111529238694
-0.005563136666666667,0.01427449836831403
-0.005562796666666667,0.01308961028915213
-0.005562456666666667,0.01190472220998592
-0.005562116666666667,0.01127936461264933
-0.005561776666666667,0.01108188326612235
-0.005561436666666667,0.01098314259285832
-0.005561096666666667,0.01121353749714022
-0.005560756666666667,0.01187180865223017
-0.005560416666666667,0.01226677134528605
-0.005560076666666667,0.01272756115384985
-0.005559736666666667,0.01355040009771228
-0.005559396666666667,0.01420867125280492
-0.005559056666666667,0.01443906615708682
-0.005558716666666667,0.01414284413729634
-0.005558376666666667,0.01348457298220466
-0.005558036666666667,0.01289212894262263
-0.005557696666666667,0.01279338826935914
-0.005557356666666667,0.01295795605813175
-0.005557016666666667,0.01262882048058617
-0.005556676666666667,0.01223385778753221
-0.005556336666666667,0.01150975951693123
-0.005555996666666667,0.01108188326612199
-0.005555656666666667,0.01078566124633152
-0.005555316666666667,0.0125300798073225
-0.005554976666666667,0.0192115320314976
-0.005554636666666667,0.03234404157554199
-0.005554296666666667,0.05429738459785547
-0.005553956666666667,0.08375501878818409
-0.005553616666666667,0.1183471679882236
-0.005553276666666667,0.1535317612278451
-0.005552936666666667,0.1859516156160839
-0.005552596666666667,0.2137964854764392
-0.005552256666666667,0.2353548658056741
-0.005551916666666667,0.2503963616995067
-0.005551576666666667,0.2592501087354826
-0.005551236666666667,0.2631009949927653
-0.005550896666666667,0.2628706000884838
-0.005550556666666667,0.2594475900820099
-0.005550216666666666,0.2534573225706682
-0.005549876666666667,0.2466442161154872
-0.005549536666666667,0.2397652825447848
-0.005549196666666666,0.2332813116671248
-0.005548856666666667,0.2265669458852074
-0.005548516666666667,0.2195892716412413
-0.005548176666666666,0.2128749058593002
-0.005547836666666667,0.2066213298859458
-0.005547496666666667,0.199841136988507
-0.005547156666666666,0.1933571661108473
-0.005546816666666667,0.1867744545599478
-0.005546476666666667,0.1806196192598457
-0.005546136666666666,0.1730824145340403
-0.005545796666666667,0.1665984436564043
-0.005545456666666667,0.160377781240793
-0.005545116666666666,0.1538608968053788
-0.005544776666666667,0.1473110988122338
-0.005544436666666667,0.1417157939939591
-0.005544096666666666,0.1364825383109762
-0.005543756666666667,0.1318746402253466
-0.005543416666666667,0.1277604455060269
-0.005543076666666666,0.1239095592487378
-0.005542736666666667,0.1206511170310426
-0.005542396666666667,0.1173268476978323
-0.005542056666666667,0.1139038376913646
-0.005541716666666667,0.1107441361469209
-0.005541376666666667,0.1070578176784105
-0.005541036666666667,0.1030423636323619
-0.005540696666666667,0.09912565025956224
-0.005540356666666667,0.09537350467554273
-0.005540016666666667,0.09178592688030254
-0.005539676666666667,0.08839583043157664
-0.005539336666666667,0.08563109158019383
-0.005538996666666667,0.08319548830636105
-0.005538656666666667,0.08141815618761053
-0.005538316666666667,0.07931168849131887
-0.005537976666666667,0.07753435637257601
-0.005537636666666667,0.0754608022340357
-0.005537296666666667,0.07342016165325316
-0.005536956666666667,0.07095164482166585
-0.005536616666666667,0.06848312799006959
-0.005536276666666667,0.06673870942907806
-0.005535936666666667,0.06453350105952675
-0.005535596666666667,0.06209789778568551
-0.005535256666666667,0.05953064028083005
-0.005534916666666667,0.05762165393106921
-0.005534576666666667,0.05587723537007421
-0.005534236666666667,0.05400116257806446
-0.005533896666666667,0.05258587959462108
-0.005533556666666667,0.05117059661117255
-0.005533216666666667,0.05031484410955406
-0.005532876666666667,0.04942617805018102
-0.005532536666666667,0.04817546285550785
-0.005532196666666667,0.04676017987206189
-0.005531856666666667,0.04471953929127936
-0.005531516666666667,0.04241559024846036
-0.005531176666666667,0.04027620899441414
-0.005530836666666667,0.03840013620240439
-0.005530496666666667,0.03678737187243109
-0.005530156666666667,0.03527334821572146
-0.005529816666666667,0.03412137369431197
-0.005529476666666666,0.03323270763493737
-0.005529136666666667,0.03237695513332044
-0.005528796666666667,0.03178451109373841
-0.005528456666666666,0.03122498061191016
-0.005528116666666667,0.0307971043611017
-0.005527776666666667,0.02994135185948321
-0.005527436666666666,0.02882229089582708
-0.005527096666666667,0.02816401974073713
-0.005526756666666667,0.02753866214340054
-0.005526416666666666,0.02786779772094791
-0.005526076666666667,0.02885520445358283
-0.005525736666666667,0.02846024176052814
-0.005525396666666666,0.02780197060543551
-0.005525056666666667,0.02697913166157307
-0.005524716666666667,0.02507014531180876
-0.005524376666666666,0.02322698607755045
-0.005524036666666667,0.02151548107431659
-0.005523696666666667,0.02039642011066165
-0.005523356666666666,0.01967232184006068
-0.005523016666666667,0.01927735914700671
-0.005522676666666667,0.01963940828230684
-0.005522336666666666,0.02069264213045518
-0.005521996666666667,0.02207501155614406
-0.005521656666666667,0.02270036915348065
-0.005521316666666666,0.02332572675081825
-0.005520976666666667,0.02388525723264471
-0.005520636666666667,0.02372068944387192
-0.005520296666666667,0.02316115896204547
-0.005519956666666667,0.02312824540428989
-0.005519616666666667,0.02243706069144419
-0.005519276666666667,0.02164713530533626
-0.005518936666666667,0.0210546912657528
-0.005518596666666667,0.02016602520637975
-0.005518256666666667,0.01907987780048134
-0.005517916666666667,0.01763168125927886
-0.005517576666666667,0.01730254568173328
-0.005517236666666667,0.01736837279724228
-0.005516896666666667,0.0173683727972424
-0.005516556666666667,0.01776333549029708
-0.005516216666666667,0.01730254568173412
-0.005515876666666667,0.01710506433520594
-0.005515536666666667,0.0166771880843967
-0.005515196666666667,0.01582143558277977
-0.005514856666666667,0.01532773221645986
-0.005514516666666667,0.01513025086993251
-0.005514176666666667,0.01489985596565103
-0.005513836666666667,0.01463654750361416
-0.005513496666666667,0.01440615259933226
-0.005513156666666667,0.01437323904157776
-0.005512816666666667,0.01420867125280492
-0.005512476666666667,0.01364914077097745
-0.005512136666666667,0.01325417807792276
-0.005511796666666667,0.01332000519343187
-0.005511456666666667,0.0132212645201682
-0.005511116666666667,0.01387953567525935
-0.005510776666666667,0.01397827634852302
-0.005510436666666667,0.0139124492330139
-0.005510096666666667,0.01410993057954124
-0.005509756666666667,0.01443906615708682
-0.005509416666666667,0.01532773221645986
-0.005509076666666667,0.01588726269828733
-0.005508736666666667,0.01621639827583332
-0.005508396666666667,0.0164467931801148
-0.005508056666666667,0.01532773221645986
-0.005507716666666666,0.01493276952340326
-0.005507376666666667,0.01387953567525935
-0.005507036666666667,0.0125300798073225
-0.005506696666666666,0.01131227817040299
-0.005506356666666667,0.01081857480408553
-0.005506016666666667,0.01101605615061288
-0.005505676666666666,0.01121353749713998
-0.005505336666666667,0.01108188326612199
-0.005504996666666667,0.01088440191959465
-0.005504656666666666,0.01108188326612199
-0.005504316666666667,0.01108188326612199
-0.005503976666666667,0.01127936461264933
-0.005503636666666666,0.01137810528591396
-0.005503296666666667,0.01190472220998592
-0.005502956666666667,0.0125300798073225
-0.005502616666666666,0.01233259846079462
-0.005502276666666667,0.01203637644100415
-0.005501936666666667,0.01111479682387655
-0.005501596666666666,0.01029195788001029
-0.005501256666666667,0.009008329127584893
-0.005500916666666667,0.008053835952702737
-0.005500576666666666,0.00788926816393061
-0.005500236666666667,0.008251317299230079
-0.005499896666666667,0.008679193550039321
-0.005499556666666667,0.009008329127584295
-0.005499216666666667,0.01104896970836743
-0.005498876666666667,0.01243133913405883
-0.005498536666666667,0.01424158481055618
-0.005498196666666667,0.01526190510095074
-0.005497856666666667,0.01522899154319619
-0.005497516666666667,0.01394536279077079
-0.005497176666666667,0.01279338826935896
-0.005496836666666667,0.01190472220998592
-0.005496496666666667,0.01078566124633301
-0.005496156666666667,0.01012739009123984
-0.005495816666666667,0.01025904432225806
-0.005495476666666667,0.009864081629204095
-0.005495136666666667,0.009567859609412364
-0.005494796666666667,0.009436205378394135
-0.005494456666666667,0.00890958845432218
-0.005494116666666667,0.008481712203511979
-0.005493776666666667,0.00904124268533945
-0.005493436666666667,0.009304551147375429
-0.005493096666666667,0.009929908744712493
-0.005492756666666667,0.01088440191959465
-0.005492416666666667,0.01124645105489412
-0.005492076666666667,0.01058817989980363
-0.005491736666666667,0.009666600282676035
-0.005491396666666667,0.009041242685340588
-0.005491056666666667,0.008448798645757422
-0.005490716666666667,0.008646279992284765
-0.005490376666666667,0.008382971530248308
-0.005490036666666667,0.008514625761266537
-0.005489696666666667,0.008382971530248308
-0.005489356666666667,0.008646279992284765
-0.005489016666666667,0.00950203249390325
-0.005488676666666667,0.009864081629203377
-0.005488336666666667,0.01022613076450351
-0.005487996666666667,0.0100286494179764
-0.005487656666666667,0.01016030364899439
-0.005487316666666667,0.01062109345755819
-0.005486976666666666,0.01111479682387685
-0.005486636666666667,0.01127936461264933
-0.005486296666666667,0.01170724086345858
-0.005485956666666666,0.01183889509447614
-0.005485616666666667,0.01147684595917668
-0.005485276666666667,0.01062109345755819
-0.005484936666666666,0.009534946051655712
-0.005484596666666667,0.008382971530248308
-0.005484256666666667,0.007593046144138938
-0.005483916666666666,0.007625959701894213
-0.005483576666666667,0.00802092239494818
-0.005483236666666667,0.008909588454321223
-0.005482896666666666,0.009929908744714767
-0.005482556666666667,0.01118062393938566
-0.005482216666666667,0.01174015442121313
-0.005481876666666666,0.01206928999875781
-0.005481536666666667,0.01157558663244035
-0.005481196666666667,0.01078566124633098
-0.005480856666666666,0.009995735860220708
-0.005480516666666667,0.00950203249390325
-0.005480176666666667,0.01048943922653996
-0.005479836666666666,0.01062109345755963
-0.005479496666666667,0.01141101884366756
-0.005479156666666667,0.0116085001901949
-0.005478816666666667,0.01187180865223088
-0.005478476666666667,0.01246425269181339
-0.005478136666666667,0.0127604747116044
-0.005477796666666667,0.0139453627907663
-0.005477456666666667,0.01450489327259593
-0.005477116666666667,0.01450489327259593
-0.005476776666666667,0.01348457298220652
-0.005476436666666667,0.0122996849030406
-0.005476096666666667,0.01052235278429452
-0.005475756666666667,0.00969951384043209
-0.005475416666666667,0.00871210710779388
-0.005475076666666667,0.008086749510457293
-0.005474736666666667,0.007790527490666819
-0.005474396666666667,0.007494305470875266
-0.005474056666666667,0.007099342777820581
-0.005473716666666667,0.00759304614413804
-0.005473376666666667,0.008415885088002865
-0.005473036666666667,0.00973242739818515
-0.005472696666666667,0.01101605615061054
-0.005472356666666667,0.01174015442121313
-0.005472016666666667,0.01177306797896769
-0.005471676666666667,0.0116414137479497
-0.005471336666666667,0.01147684595917668
-0.005470996666666667,0.01187180865223136
-0.005470656666666667,0.01164141374794988
-0.005470316666666667,0.01210220355651326
-0.005469976666666667,0.01243133913405883
-0.005469636666666667,0.01308961028914997
-0.005469296666666667,0.01364914077097745
-0.005468956666666667,0.01361622721322289
-0.005468616666666667,0.01295795605813175
-0.005468276666666667,0.01243133913405883
-0.005467936666666667,0.01127936461264933
-0.005467596666666667,0.009962822302467049
-0.005467256666666667,0.009534946051657807
-0.005466916666666667,0.009238724031866792
-0.005466576666666667,0.009139983358603122
-0.005466236666666667,0.009798254513696298
-0.005465896666666667,0.01091731547734921
-0.005465556666666667,0.01282630182711352
-0.005465216666666666,0.01401118990627913
-0.005464876666666667,0.01486694240789606
-0.005464536666666667,0.01545938644747809
-0.005464196666666666,0.01470237461912046
-0.005463856666666667,0.01315543740465909
-0.005463516666666667,0.011378105285913
-0.005463176666666666,0.009699513840429694
-0.005462836666666667,0.009205810474112236
-0.005462496666666667,0.009172896916357679
-0.005462156666666666,0.00950203249390319
-0.005461816666666667,0.009469118936148692
-0.005461476666666667,0.009699513840430593
-0.005461136666666666,0.009962822302467948
-0.005460796666666667,0.01045652566878541
-0.005460456666666667,0.009896995186957936
-0.005460116666666666,0.009436205378393356
-0.005459776666666667,0.009008329127584893
-0.005459436666666667,0.008975415569830336
-0.005459096666666666,0.008679193550038542
-0.005458756666666667,0.008251317299230079
-0.005458416666666667,0.007757613932911723
-0.005458076666666666,0.007593046144139237
-0.005457736666666667,0.007757613932911723
-0.005457396666666667,0.008152576625966409
-0.005457056666666667,0.008053835952702917
-0.005456716666666667,0.008415885088002865
-0.005456376666666667,0.009139983358603122
-0.005456036666666667,0.01048943922653751
-0.005455696666666667,0.0122996849030406
-0.005455356666666667,0.01351748653995922
-0.005455016666666667,0.01417575769504916
-0.005454676666666667,0.01453780683035049
-0.005454336666666667,0.01417575769505036
-0.005453996666666667,0.01308961028915195
-0.005453656666666667,0.01154267307468579
-0.005453316666666667,0.009436205378394135
-0.005452976666666667,0.007099342777824832
-0.005452636666666667,0.005190356428056269
-0.005452296666666667,0.004532085272965126
-0.005451956666666667,0.004992875081528088
-0.005451616666666667,0.005453664890092726
-0.005451276666666667,0.007198083451084253
-0.005450936666666667,0.009337464705126574
-0.005450596666666667,0.01081857480408553
-0.005450256666666667,0.01157558663244035
-0.005449916666666667,0.01144393240142236
-0.005449576666666667,0.01078566124633098
-0.005449236666666667,0.009929908744712493
-0.005448896666666667,0.008745020665550593
-0.005448556666666667,0.00881084778105755
-0.005448216666666667,0.009304551147375908
-0.005447876666666667,0.01022613076450351
-0.005447536666666667,0.01141101884366756
-0.005447196666666667,0.01174015442121313
-0.005446856666666667,0.01177306797896769
-0.005446516666666667,0.01111479682387655
-0.005446176666666667,0.009995735860221606
-0.005445836666666667,0.009304551147375908
-0.005445496666666667,0.008876674896566425
-0.005445156666666667,0.008745020665548437
-0.005444816666666667,0.00950203249390325
-0.005444476666666666,0.01048943922654044
-0.005444136666666667,0.01075274768857642
-0.005443796666666667,0.0116085001901949
-0.005443456666666666,0.01220094422977765
-0.005443116666666667,0.01259590692283162
-0.005442776666666667,0.01312252384690453
-0.005442436666666666,0.01332000519343128
-0.005442096666666667,0.0129908696158863
-0.005441756666666667,0.01114771038163111
-0.005441416666666666,0.009666600282674119
-0.005441076666666667,0.008613366434530208
-0.005440736666666667,0.008382971530248308
-0.005440396666666666,0.008317144414739791
-0.005440056666666667,0.008646279992284765
-0.005439716666666667,0.00904124268533945
-0.005439376666666666,0.009370378262884184
-0.005439036666666667,0.008909588454321223
-0.005438696666666667,0.008909588454321223
-0.005438356666666666,0.00871210710779358
-0.005438016666666667,0.008547539319021094
-0.005437676666666667,0.009008329127584893
-0.005437336666666666,0.009469118936150487
-0.005436996666666667,0.01045652566878541
-0.005436656666666667,0.01114771038163111
-0.005436316666666667,0.01200346288324803
-0.005435976666666667,0.01243133913405883
-0.005435636666666667,0.01289212894262263
-0.005435296666666667,0.01381370855974856
-0.005434956666666667,0.01394536279076846
-0.005434616666666667,0.01417575769505036
-0.005434276666666667,0.01460363394585882
-0.005433936666666667,0.01420867125280492
-0.005433596666666667,0.01295795605813175
-0.005433256666666667,0.01006156297573599
-0.005432916666666667,0.003116802289519171
-0.005432576666666667,-0.01080563264065849
-0.005432236666666667,-0.03348307393350708
-0.005431896666666667,-0.06284196745061327
-0.005431556666666667,-0.09615048789822506
-0.005431216666666667,-0.1301831066163752
-0.005430876666666667,-0.16154972715653
-0.005430536666666667,-0.1887034123040397
-0.005430196666666667,-0.2090769045540735
-0.005429856666666667,-0.222933512368779
-0.005429516666666667,-0.2311289882496638
-0.005429176666666667,-0.234058294889814
-0.005428836666666667,-0.2326100983486188
-0.005428496666666667,-0.2288579527645993
-0.005428156666666667,-0.2234601292928618
-0.005427816666666667,-0.216252060144604
-0.005427476666666667,-0.2084515469567739
-0.005427136666666667,-0.2015726133860715
-0.005426796666666667,-0.195220296739442
-0.005426456666666667,-0.1888679800928124
-0.005426116666666667,-0.1830093668125013
-0.005425776666666667,-0.1768874450701537
-0.005425436666666667,-0.1701401657304694
-0.005425096666666667,-0.1636232812950671
-0.005424756666666667,-0.1566126934933465
-0.005424416666666667,-0.1494704514606076
-0.005424076666666667,-0.1425915178899052
-0.005423736666666666,-0.1356796707614365
-0.005423396666666667,-0.1292615269993095
-0.005423056666666667,-0.1231396052569619
-0.005422716666666666,-0.1178405224584698
-0.005422376666666667,-0.1132326243728402
-0.005422036666666667,-0.1086905534027113
-0.005421696666666666,-0.1041155688748204
-0.005421356666666667,-0.1000013741555082
-0.005421016666666667,-0.09647962347577063
-0.005420676666666666,-0.09351740327785521
-0.005420336666666667,-0.09062101019545948
-0.005419996666666667,-0.08864619673018603
-0.005419656666666666,-0.08644098836062587
-0.005419316666666667,-0.08377499018251158
-0.005418976666666667,-0.08084568354235602
-0.005418636666666666,-0.07706062440057561
-0.005418296666666667,-0.07357178727859889
-0.005417956666666667,-0.06942467900152469
-0.005417616666666666,-0.06587001476402679
-0.005417276666666667,-0.06271031321959505
-0.005416936666666667,-0.06034053706126693
-0.005416596666666666,-0.05902399475108232
-0.005416256666666667,-0.05774036599865692
-0.005415916666666667,-0.05589720676440172
-0.005415576666666666,-0.05372491195259706
-0.005415236666666667,-0.05158553069855474
-0.005414896666666667,-0.0488537054049265
-0.005414556666666667,-0.04661558347762069
-0.005414216666666667,-0.04358753616419737
-0.005413876666666667,-0.04039492106200532
-0.005413536666666667,-0.03845302115448999
-0.005413196666666667,-0.03628072634268568
-0.005412856666666667,-0.03466796201271239
-0.005412516666666667,-0.0333514197025325
