Analysis/New Tests_CMB/wrd01_d2s01/cmb12_ch12.csv

#Digilent WaveForms Oscilloscope Acquisition
#Device Name: ADP3450
#Serial Number: SN:210018B9D9B0
#Date Time: 2024-08-15 11:46:37.948.442.290
#Sample rate: 5.88235e+06Hz
#Samples: 32768
#Trigger: Source: Channel 3 Type: Edge Condition: Rising Level: 40 mV Hyst.: Auto HoldOff: 0 s
#Channel 3: Range: 100 mV/div Offset: 0 V Attenuation: 1 X Coupling: DC Bandwidth: 0 Hz Sample Mode: Average

Time (s),Channel 3 (V)
-0.003168963794711192,0.02888811801133739
-0.003168793794711191,0.02905268580010939
-0.003168623794711192,0.02862480954930093
-0.003168453794711192,0.02934890781990119
-0.003168283794711191,0.02872355022256466
-0.003168113794711192,0.02875646378031916
-0.003167943794711192,0.02832858752950991
-0.003167773794711191,0.0282956739717556
-0.003167603794711192,0.02842732820277359
-0.003167433794711192,0.0273411807968732
-0.003167263794711191,0.02717661300809946
-0.003167093794711192,0.0266499960840275
-0.003166923794711192,0.02559676223588167
-0.003166753794711191,0.02480683684976817
-0.003166583794711192,0.02253580136470787
-0.003166413794711192,0.02253580136470787
-0.003166243794711191,0.02210792511389629
-0.003166073794711192,0.02082429636147089
-0.003165903794711192,0.02052807434167988
-0.003165733794711191,0.01967232184006008
-0.003165563794711192,0.01894822356946114
-0.003165393794711192,0.01819121174110632
-0.003165223794711192,0.01736837279724389
-0.003165053794711192,0.0166771880843967
-0.003164883794711192,0.01641387962236024
-0.003164713794711192,0.01595308981379728
-0.003164543794711192,0.01611765760256923
-0.003164373794711192,0.01631513894909657
-0.003164203794711192,0.01674301519990504
-0.003164033794711192,0.01717089145071506
-0.003163863794711192,0.01779624904805164
-0.003163693794711192,0.0183557795298781
-0.003163523794711192,0.01858617443416101
-0.003163353794711192,0.01924444558925215
-0.003163183794711192,0.0198368896288331
-0.003163013794711191,0.02033059299515254
-0.003162843794711192,0.02026476587964342
-0.003162673794711192,0.0204951607839249
-0.003162503794711191,0.02089012347698001
-0.003162333794711192,0.02108760482350735
-0.003162163794711192,0.02098886415024386
-0.003161993794711191,0.02131799972778925
-0.003161823794711192,0.02108760482350735
-0.003161653794711192,0.02112051838126185
-0.003161483794711191,0.02138382684329837
-0.003161313794711192,0.02108760482350735
-0.003161143794711192,0.02135091328554333
-0.003160973794711191,0.02131799972778925
-0.003160803794711192,0.02138382684329837
-0.003160633794711192,0.02118634549677102
-0.003160463794711191,0.02148256751656204
-0.003160293794711192,0.0210546912657528
-0.003160123794711192,0.02072555568820722
-0.003159953794711191,0.02079138280371634
-0.003159783794711192,0.02023185232188887
-0.003159613794711192,0.01954066760904317
-0.003159443794711191,0.01921153203149676
-0.003159273794711192,0.0187507422229338
-0.003159103794711192,0.01799373039457898
-0.003158933794711191,0.01707215077744935
-0.003158763794711192,0.01595308981379644
-0.003158593794711192,0.01470237461912327
-0.003158423794711191,0.01394536279076816
-0.003158253794711192,0.01378079500199567
-0.003158083794711192,0.0129908696158863
-0.003157913794711191,0.01246425269181327
-0.003157743794711192,0.01239842557630427
-0.003157573794711192,0.01193763576774048
-0.003157403794711191,0.01187180865223226
-0.003157233794711192,0.01236551201854972
-0.003157063794711192,0.01239842557630427
-0.003156893794711191,0.01229968490303953
-0.003156723794711192,0.01170724086345858
-0.003156553794711192,0.0127604747116044
-0.003156383794711191,0.01378079500199543
-0.003156213794711192,0.01364914077097745
-0.003156043794711192,0.01341874586669555
-0.003155873794711191,0.01364914077097715
-0.003155703794711192,0.01348457298220466
-0.003155533794711192,0.01318835096241365
-0.003155363794711191,0.01325417807792276
-0.003155193794711192,0.01325417807792276
-0.003155023794711192,0.0134516594244501
-0.003154853794711192,0.01368205432873158
-0.003154683794711192,0.01341874586669555
-0.003154513794711192,0.013682054328732
-0.003154343794711192,0.01397827634852248
-0.003154173794711192,0.01447197971484137
-0.003154003794711192,0.01407701702178669
-0.003153833794711192,0.01371496788648722
-0.003153663794711192,0.01332000519343187
-0.003153493794711192,0.01401118990627757
-0.003153323794711192,0.01335291875118763
-0.003153153794711192,0.01312252384690453
-0.003152983794711192,0.01302378317364086
-0.003152813794711192,0.01289212894262287
-0.003152643794711191,0.01180598153672225
-0.003152473794711192,0.01193763576774048
-0.003152303794711192,0.01213511711426746
-0.003152133794711191,0.0116085001901949
-0.003151963794711192,0.01197054932549503
-0.003151793794711192,0.0123984255763035
-0.003151623794711191,0.0127604747116044
-0.003151453794711192,0.01341874586669555
-0.003151283794711192,0.01387953567525851
-0.003151113794711191,0.01457072038810504
-0.003150943794711192,0.0146036339458596
-0.003150773794711192,0.01496568308115907
-0.003150603794711191,0.01503151019666884
-0.003150433794711192,0.0150644237544234
-0.003150263794711192,0.01509733731217796
-0.003150093794711191,0.01480111529238694
-0.003149923794711192,0.01503151019666884
-0.003149753794711192,0.01526190510095074
-0.003149583794711191,0.01470237461912327
-0.003149413794711192,0.01450489327259593
-0.003149243794711192,0.01463654750361416
-0.003149073794711191,0.0146036339458596
-0.003148903794711192,0.0141428441372958
-0.003148733794711192,0.01427449836831403
-0.003148563794711191,0.01430741192606883
-0.003148393794711192,0.01443906615708682
-0.003148223794711192,0.01420867125280492
-0.003148053794711191,0.01374788144424058
-0.003147883794711192,0.0134516594244501
-0.003147713794711192,0.01312252384690453
-0.003147543794711191,0.01315543740465735
-0.003147373794711192,0.01220094422977693
-0.003147203794711192,0.01243133913405883
-0.003147033794711191,0.01328709163567834
-0.003146863794711192,0.01384662211750479
-0.003146693794711192,0.01387953567525935
-0.003146523794711191,0.01397827634852284
-0.003146353794711192,0.01387953567525935
-0.003146183794711192,0.0139124492330139
-0.003146013794711191,0.01499859663891345
-0.003145843794711192,0.01453780683035049
-0.003145673794711192,0.01420867125280492
-0.003145503794711191,0.01424158481055762
-0.003145333794711192,0.0132212645201682
-0.003145163794711192,0.01272756115384985
-0.003144993794711191,0.01243133913405823
-0.003144823794711192,0.01210220355651326
-0.003144653794711192,0.0116085001901949
-0.003144483794711191,0.01160850019019245
-0.003144313794711192,0.01025904432225806
-0.003144143794711192,0.01045652566878541
-0.003143973794711192,0.00979825451369546
-0.003143803794711192,0.00973242739818515
-0.003143633794711192,0.009008329127584893
-0.003143463794711192,0.00927163758962087
-0.003143293794711192,0.009337464705130465
-0.003143123794711192,0.009271637589621349
-0.003142953794711192,0.009765340955938808
-0.003142783794711192,0.00983116807144882
-0.003142613794711192,0.01114771038163111
-0.003142443794711192,0.009502032493906245
-0.003142273794711192,0.01101605615061288
-0.003142103794711192,0.01167432730570402
-0.003141933794711192,0.01101605615061407
-0.003141763794711191,0.01118062393938566
-0.003141593794711192,0.01164141374794946
-0.003141423794711192,0.01141101884366798
-0.003141253794711191,0.01141101884366756
-0.003141083794711192,0.0118388950944768
-0.003140913794711192,0.01206928999875828
-0.003140743794711191,0.01236551201854972
-0.003140573794711192,0.01259590692283162
-0.003140403794711192,0.01289212894262209
-0.003140233794711191,0.01279338826935896
-0.003140063794711192,0.01262882048058617
-0.003139893794711192,0.01249716624956795
-0.003139723794711191,0.01249716624956795
-0.003139553794711192,0.01216803067202238
-0.003139383794711192,0.0118388950944768
-0.003139213794711191,0.01164141374794946
-0.003139043794711192,0.01167432730570402
-0.003138873794711192,0.01164141374794946
-0.003138703794711191,0.01131227817040389
-0.003138533794711192,0.011378105285913
-0.003138363794711192,0.01190472220998592
-0.003138193794711191,0.01210220355651458
-0.003138023794711192,0.01282630182711352
-0.003137853794711192,0.01355040009771377
-0.003137683794711191,0.0135174865399588
-0.003137513794711192,0.01328709163567732
-0.003137343794711192,0.01315543740465909
-0.003137173794711191,0.014274498368312
-0.003137003794711192,0.01315543740465909
-0.003136833794711192,0.013682054328732
-0.003136663794711191,0.01302378317364014
-0.003136493794711192,0.01262882048058617
-0.003136323794711192,0.01197054932549503
-0.003136153794711191,0.01118062393938524
-0.003135983794711192,0.01095022903510376
-0.003135813794711192,0.01039069855327629
-0.003135643794711191,0.01035778499552048
-0.003135473794711192,0.009666600282676035
-0.003135303794711192,0.009798254513694264
-0.003135133794711191,0.009666600282676694
-0.003134963794711192,0.01002864941797616
-0.003134793794711192,0.009896995186957936
-0.003134623794711191,0.009534946051658107
-0.003134453794711192,0.009699513840430593
-0.003134283794711192,0.009798254513694264
-0.003134113794711191,0.0100286494179767
-0.003133943794711192,0.01032487143776718
-0.003133773794711192,0.01075274768857642
-0.003133603794711192,0.01081857480408541
-0.003133433794711192,0.01088440191959465
-0.003133263794711192,0.01114771038163111
-0.003133093794711192,0.0111806239393856
-0.003132923794711192,0.01150975951693123
-0.003132753794711192,0.01131227817040389
-0.003132583794711192,0.01177306797896685
-0.003132413794711192,0.01190472220998592
-0.003132243794711192,0.01216803067202238
-0.003132073794711192,0.01226677134528587
-0.003131903794711192,0.01226677134528605
-0.003131733794711192,0.0120692899987587
-0.003131563794711192,0.01193763576774072
-0.003131393794711191,0.01174015442121313
-0.003131223794711192,0.01177306797896769
-0.003131053794711192,0.01121353749714124
-0.003130883794711191,0.01177306797896769
-0.003130713794711192,0.011378105285913
-0.003130543794711192,0.0114768459591765
-0.003130373794711191,0.01118062393938566
-0.003130203794711192,0.01131227817040389
-0.003130033794711192,0.01088440191959543
-0.003129863794711191,0.011378105285913
-0.003129693794711192,0.01091731547734921
-0.003129523794711192,0.0109831425928582
-0.003129353794711191,0.01121353749714022
-0.003129183794711192,0.01154267307468579
-0.003129013794711192,0.01190472220998592
-0.003128843794711191,0.01249716624956795
-0.003128673794711192,0.01249716624956795
-0.003128503794711192,0.0127604747116044
-0.003128333794711191,0.01197054932549503
-0.003128163794711192,0.01338583230894099
-0.003127993794711192,0.0132212645201682
-0.003127823794711191,0.01341874586669465
-0.003127653794711192,0.01292504250037719
-0.003127483794711192,0.01266173403834073
-0.003127313794711191,0.0126288204805857
-0.003127143794711192,0.01236551201854972
-0.003126973794711192,0.0116085001901949
-0.003126803794711191,0.01154267307468555
-0.003126633794711192,0.01141101884366756
-0.003126463794711192,0.01081857480408553
-0.003126293794711191,0.01062109345755777
-0.003126123794711192,0.01039069855327629
-0.003125953794711192,0.009962822302467049
-0.003125783794711191,0.009995735860221008
-0.003125613794711192,0.009666600282676035
-0.003125443794711192,0.009205810474112236
-0.003125273794711191,0.009172896916356602
-0.003125103794711192,0.008580452876775651
-0.003124933794711192,0.00904124268533945
-0.003124763794711191,0.00894250201207554
-0.003124593794711192,0.00881084778105755
-0.003124423794711192,0.00881084778105755
-0.003124253794711191,0.00894250201207554
-0.003124083794711192,0.00881084778105755
-0.003123913794711192,0.00871210710779388
-0.003123743794711191,0.009139983358602883
-0.003123573794711192,0.009008329127584893
-0.003123403794711192,0.00904124268533945
-0.003123233794711192,0.008975415569830456
-0.003123063794711192,0.009172896916357679
-0.003122893794711192,0.009008329127584893
-0.003122723794711192,0.009337464705129866
-0.003122553794711192,0.00904124268533945
-0.003122383794711192,0.00973242739818515
-0.003122213794711192,0.009567859609412664
-0.003122043794711192,0.009798254513694264
-0.003121873794711192,0.01035778499552173
-0.003121703794711192,0.01065400701531221
-0.003121533794711192,0.01098314259285832
-0.003121363794711192,0.01131227817040389
-0.003121193794711192,0.01167432730570336
-0.003121023794711191,0.0116085001901949
-0.003120853794711192,0.01157558663244035
-0.003120683794711192,0.01183889509447632
-0.003120513794711191,0.01197054932549503
-0.003120343794711192,0.01243133913405883
-0.003120173794711192,0.01236551201854984
-0.003120003794711191,0.01220094422977693
-0.003119833794711192,0.01262882048058617
-0.003119663794711192,0.01243133913405919
-0.003119493794711191,0.0122996849030406
-0.003119323794711192,0.01187180865223136
-0.003119153794711192,0.01124645105489591
-0.003118983794711191,0.01177306797896769
-0.003118813794711192,0.01239842557630427
-0.003118643794711192,0.01200346288324959
-0.003118473794711191,0.01098314259285832
-0.003118303794711192,0.01121353749714022
-0.003118133794711192,0.01012739009123984
-0.003117963794711191,0.009403291820639578
-0.003117793794711192,0.008942502012075779
-0.003117623794711192,0.008843761338812107
-0.003117453794711191,0.00881084778105755
-0.003117283794711192,0.00881084778105755
-0.003117113794711192,0.008514625761266537
-0.003116943794711191,0.008514625761265939
-0.003116773794711192,0.008185490183720966
-0.003116603794711192,0.008218403741475522
-0.003116433794711191,0.008415885088003583
-0.003116263794711192,0.00881084778105755
-0.003116093794711192,0.009337464705130465
-0.003115923794711191,0.009896995186958834
-0.003115753794711192,0.01039069855327629
-0.003115583794711192,0.01111479682387655
-0.003115413794711191,0.01193763576774095
-0.003115243794711192,0.01220094422977693
-0.003115073794711192,0.0120692899987587
-0.003114903794711191,0.01220094422977741
-0.003114733794711192,0.01246425269181339
-0.003114563794711192,0.0120692899987587
-0.003114393794711191,0.01249716624956759
-0.003114223794711192,0.0122996849030406
-0.003114053794711192,0.0127604747116044
-0.003113883794711191,0.01203637644100397
-0.003113713794711192,0.01193763576774048
-0.003113543794711192,0.01170724086345858
-0.003113373794711191,0.01131227817040341
-0.003113203794711192,0.01104896970836743
-0.003113033794711192,0.01052235278429452
-0.003112863794711191,0.01052235278429398
-0.003112693794711192,0.01022613076450351
-0.003112523794711192,0.01012739009123984
-0.003112353794711192,0.01035778499552131
-0.003112183794711192,0.01029195788001262
-0.003112013794711192,0.01065400701531275
-0.003111843794711192,0.01062109345755825
-0.003111673794711192,0.01104896970836743
-0.003111503794711192,0.01114771038163111
-0.003111333794711192,0.01095022903510412
-0.003111163794711192,0.01177306797896769
-0.003110993794711192,0.011378105285913
-0.003110823794711192,0.01085148836184105
-0.003110653794711192,0.01164141374794946
-0.003110483794711192,0.01101605615061288
-0.003110313794711192,0.01108188326612187
-0.003110143794711191,0.01081857480408553
-0.003109973794711192,0.01131227817040389
-0.003109803794711192,0.01042361211103246
-0.003109633794711191,0.01157558663244035
-0.003109463794711192,0.01157558663244035
-0.003109293794711192,0.0121680306720213
-0.003109123794711191,0.01157558663244035
-0.003108953794711192,0.01124645105489478
-0.003108783794711192,0.01137810528591277
-0.003108613794711191,0.01111479682387655
-0.003108443794711192,0.01068692057306731
-0.003108273794711192,0.01032487143776784
-0.003108103794711191,0.01025904432225806
-0.003107933794711192,0.01019321720674895
-0.003107763794711192,0.009864081629203377
-0.003107593794711191,0.01042361211103085
-0.003107423794711192,0.009864081629203377
-0.003107253794711192,0.009600773167166921
-0.003107083794711191,0.00950203249390325
-0.003106913794711192,0.009436205378394135
-0.003106743794711192,0.009600773167166921
-0.003106573794711191,0.009962822302467169
-0.003106403794711192,0.01002864941797616
-0.003106233794711192,0.01035778499552173
-0.003106063794711191,0.01039069855327707
-0.003105893794711192,0.01081857480408553
-0.003105723794711192,0.01078566124633098
-0.003105553794711191,0.01141101884366966
-0.003105383794711192,0.01256299336507706
-0.003105213794711192,0.01285921538486808
-0.003105043794711191,0.013155437404661
-0.003104873794711192,0.01420867125280492
-0.003104703794711192,0.01443906615708682
-0.003104533794711191,0.01457072038810618
-0.003104363794711192,0.01519607798544163
-0.003104193794711192,0.01539355933196897
-0.003104023794711191,0.01552521356298714
-0.003103853794711192,0.01549230000523264
-0.003103683794711192,0.01578852202502366
-0.003103513794711191,0.01578852202502282
-0.003103343794711192,0.01532773221645986
-0.003103173794711192,0.01555812712074176
-0.003103003794711191,0.01420867125280534
-0.003102833794711192,0.01443906615708682
-0.003102663794711192,0.01440615259933226
-0.003102493794711191,0.01371496788648548
-0.003102323794711192,0.01312252384690453
-0.003102153794711192,0.01289212894262263
-0.003101983794711192,0.01187180865223322
-0.003101813794711192,0.01121353749714022
-0.003101643794711192,0.01118062393938566
-0.003101473794711192,0.01095022903510418
-0.003101303794711192,0.009666600282676035
-0.003101133794711192,0.009469118936148692
-0.003100963794711192,0.009205810474112714
-0.003100793794711192,0.008777934223302994
-0.003100623794711192,0.008152576625966409
-0.003100453794711192,0.007955095279439425
-0.003100283794711192,0.008185490183720966
-0.003100113794711192,0.007428478355366152
-0.003099943794711192,0.008218403741474086
-0.003099773794711191,0.00779052749066628
-0.003099603794711192,0.007362651239857037
-0.003099433794711192,0.00696768854680307
-0.003099263794711191,0.007527219028629823
-0.003099093794711192,0.006375244507220324
-0.003098923794711192,0.006737293642519794
-0.003098753794711191,0.007099342777820581
-0.003098583794711192,0.00700060210455691
-0.003098413794711192,0.006967688546802412
-0.003098243794711191,0.007494305470875266
-0.003098073794711192,0.008053835952702737
-0.003097903794711192,0.008745020665547179
-0.003097733794711191,0.009205810474112236
-0.003097563794711192,0.009370378262885021
-0.003097393794711192,0.009403291820639578
-0.003097223794711191,0.009896995186957936
-0.003097053794711192,0.01045652566878541
-0.003096883794711192,0.01055526634204908
-0.003096713794711191,0.01022613076450351
-0.003096543794711192,0.01071983413082186
-0.003096373794711192,0.01081857480408553
-0.003096203794711191,0.01081857480408553
-0.003096033794711192,0.01078566124633098
-0.003095863794711192,0.01118062393938566
-0.003095693794711191,0.01065400701531191
-0.003095523794711192,0.01019321720674895
-0.003095353794711192,0.01078566124633098
-0.003095183794711191,0.01121353749713902
-0.003095013794711192,0.01055526634204908
-0.003094843794711192,0.01118062393938566
-0.003094673794711191,0.009534946051660562
-0.003094503794711192,0.01104896970836743
-0.003094333794711192,0.01052235278429452
-0.003094163794711191,0.01022613076450291
-0.003093993794711192,0.009896995186957936
-0.003093823794711192,0.009370378262885021
-0.003093653794711191,0.009436205378394555
-0.003093483794711192,0.009666600282676035
-0.003093313794711192,0.009864081629203377
-0.003093143794711191,0.01025904432225884
-0.003092973794711192,0.01068692057306731
-0.003092803794711192,0.011378105285913
-0.003092633794711191,0.01075274768857774
-0.003092463794711192,0.01147684595917668
-0.003092293794711192,0.01154267307468579
-0.003092123794711191,0.0121022035565135
-0.003091953794711192,0.01223385778753149
-0.003091783794711192,0.01239842557630427
-0.003091613794711191,0.01276047471160434
-0.003091443794711192,0.01272756115384985
-0.003091273794711192,0.01269464759609529
-0.003091103794711192,0.0125300798073228
-0.003090933794711192,0.0125300798073225
-0.003090763794711192,0.01203637644100415
-0.003090593794711192,0.01187180865223166
-0.003090423794711192,0.01078566124633098
-0.003090253794711192,0.01197054932549503
-0.003090083794711192,0.01187180865223154
-0.003089913794711192,0.01150975951693123
