Analysis/New Tests_CMB/wrd01_d2s01/cmb11_ch12.csv

#Digilent WaveForms Oscilloscope Acquisition
#Device Name: ADP3450
#Serial Number: SN:210018B9D9B0
#Date Time: 2024-06-28 13:14:54.687.755.760
#Sample rate: 2.5e+07Hz
#Samples: 32768
#Trigger: Source: Channel 3 Type: Edge Condition: Rising Level: 60 mV Hyst.: Auto HoldOff: 0 s
#Channel 1: Range: 100 mV/div Offset: -370 mV Attenuation: 1 X Coupling: DC Bandwidth: 0 Hz Sample Mode: Average
#Channel 3: Range: 100 mV/div Offset: 0 V Attenuation: 1 X Coupling: DC Bandwidth: 0 Hz Sample Mode: Average

Time (s),Channel 1 (V),Channel 3 (V)
-0.0006553516883116883,0.002303145069277923,-0.01281335966368647
-0.0006553116883116884,0.001810866583552673,-0.0129450138947047
-0.0006552716883116883,0.001679592320692706,-0.01271461899042298
-0.0006552316883116883,0.001712410886407667,-0.01281335966368647
-0.0006551916883116883,0.001613955189262606,-0.0131754087989866
-0.0006551516883116883,0.001745229452122632,-0.01320832235674115
-0.0006551116883116883,0.001712410886407667,-0.0129450138947047
-0.0006550716883116884,0.001942140846412336,-0.01212217495084227
-0.0006550316883116883,0.001351406663541901,-0.01264879187491422
-0.0006549916883116883,0.00102322100639235,-0.0129450138947047
-0.0006549516883116883,0.001581136623547585,-0.0117930393732952
-0.0006549116883116883,0.001154495269252431,-0.01350454437653217
-0.0006548716883116884,0.001121676703537471,-0.01376785283856815
-0.0006548316883116883,0.001318588097826702,-0.01357037149203973
-0.0006547916883116883,0.0008919467435322681,-0.0127146189904228
-0.0006547516883116883,0.00105603957210737,-0.0134058037032685
-0.0006547116883116883,0.0008263096121022828,-0.01228674273961356
-0.0006546716883116884,0.001548318057831252,-0.01304375456796699
-0.0006546316883116883,0.001384225229257638,-0.01245131052838508
-0.0006545916883116883,0.001449862360687559,-0.01176012581554064
-0.0006545516883116883,0.001384225229257519,-0.01274753254817735
-0.0006545116883116883,0.001515499492117545,-0.01251713764389546
-0.0006544716883116884,0.001515499492117545,-0.01166138514227697
-0.0006544316883116883,0.001712410886407368,-0.009719485234758522
-0.0006543916883116883,0.001548318057832565,-0.009949880139040001
-0.0006543516883116883,0.001482680926402524,-0.009653658119248986
-0.0006543116883116883,0.001646773754977626,-0.009653658119248986
-0.0006542716883116884,0.001745229452122632,-0.009752398792512659
-0.0006542316883116884,0.001810866583552553,-0.008699164944368745
-0.0006541916883116883,0.001515499492117545,-0.01034484283209469
-0.0006541516883116883,0.001548318057832565,-0.008929559848648731
-0.0006541116883116883,0.001581136623547585,-0.01044358350535836
-0.0006540716883116883,0.001745229452122632,-0.00939034965721253
-0.0006540316883116884,0.001318588097828254,-0.009324522541703536
-0.0006539916883116883,0.0009247653092481839,-0.009686571677003064
-0.0006539516883116883,0.001417043794972539,-0.009423263214967087
-0.0006539116883116883,0.001843685149267693,-0.01146390379574963
-0.0006538716883116883,0.001548318057832565,-0.01120059533371317
-0.0006538316883116884,0.001581136623547526,-0.0108056326406592
-0.0006537916883116883,0.001613955189263501,-0.009949880139041438
-0.0006537516883116883,0.002106233674987801,-0.01073980552514937
-0.0006537116883116883,0.001581136623547585,-0.01034484283209469
-0.0006536716883116883,0.001515499492117545,-0.009686571677003543
-0.0006536316883116884,0.001285769532112875,-0.01070689196739296
-0.0006535916883116883,0.001417043794972897,-0.01176012581553885
-0.0006535516883116883,0.001613955189262606,-0.01077271908290393
-0.0006535116883116883,0.001646773754977626,-0.009324522541703417
-0.0006534716883116883,0.001843685149267693,-0.009785312350267215
-0.0006534316883116884,0.001417043794972539,-0.007711758211730118
-0.0006533916883116884,0.001482680926402405,-0.009291608983945984
-0.0006533516883116883,0.001515499492117545,-0.008896646290894173
-0.0006533116883116883,0.001942140846412754,-0.00869916494436683
-0.0006532716883116883,0.001712410886407667,-0.009258695426194301
-0.0006532316883116883,0.001220132400682417,-0.008896646290894173
-0.0006531916883116884,0.001679592320691811,-0.00988405302352909
-0.0006531516883116883,0.001810866583552135,-0.007678844653976818
-0.0006531116883116883,0.001515499492117545,-0.00837002936682126
-0.0006530716883116883,0.001318588097827478,-0.009225781868439744
-0.0006530316883116883,0.001351406663542498,-0.01014736148556734
-0.0006529916883116884,0.002106233674986428,-0.009653658119249885
-0.0006529516883116883,0.001056039572107728,-0.009785312350267455
-0.0006529116883116883,0.001252950966397437,-0.009916966581285444
-0.0006528716883116883,0.001285769532112457,-0.01126642244922228
-0.0006528316883116883,0.001679592320692647,-0.0101802750433219
-0.0006527916883116884,0.001843685149267395,-0.009522003888231956
-0.0006527516883116883,0.001646773754977984,-0.01077271908290405
-0.0006527116883116883,0.001843685149267693,-0.01083854619841304
-0.0006526716883116883,0.001909322280697734,-0.01149681735350419
-0.0006526316883116883,0.001351406663542498,-0.01176012581554064
-0.0006525916883116884,0.001384225229257519,-0.009587831003739873
-0.0006525516883116884,0.001417043794972479,-0.0104106699476023
-0.0006525116883116883,0.001745229452122632,-0.01172721225778608
-0.0006524716883116883,0.001220132400682417,-0.009159954752930631
-0.0006524316883116883,0.001417043794972539,-0.008402942924575817
-0.0006523916883116883,0.001942140846412754,-0.01027901571658557
-0.0006523516883116884,0.001778048017837951,-0.01162847158451996
-0.0006523116883116883,0.001942140846412336,-0.009554917445986034
-0.0006522716883116883,0.001712410886407667,-0.009949880139040001
-0.0006522316883116883,0.002237507937847882,-0.0120234342775771
-0.0006521916883116883,0.001778048017837652,-0.01100311398718583
-0.0006521516883116884,0.001745229452122692,-0.00932452254170647
-0.0006521116883116883,0.001876503714982893,-0.009982793696796773
-0.0006520716883116883,0.001974959412127775,-0.01120059533371317
-0.0006520316883116883,0.002171870806417842,-0.01011444792781279
-0.0006519916883116883,0.00207341510927278,-0.01149681735350419
-0.0006519516883116884,0.002467237897852253,-0.01057523773637826
-0.0006519116883116883,0.00204059654355573,-0.01047649706311465
-0.0006518716883116883,0.0009247653092472885,-0.01143099023799507
-0.0006518316883116883,0.002204689372132862,-0.01100311398718583
-0.0006517916883116883,0.00246723789785297,-0.01136516312248596
-0.0006517516883116884,0.001745229452122632,-0.01031192927434013
-0.0006517116883116883,0.0009575838749631446,-0.01047649706311902
-0.0006516716883116883,0.001417043794972539,-0.01383367995407774
-0.0006516316883116883,0.001449862360687559,-0.01459069178243255
-0.0006515916883116883,0.0009904024406773293,-0.01653259168995142
-0.0006515516883116883,0.001318588097827478,-0.01837575092420662
-0.0006515116883116884,0.0007278539149582962,-0.01307666812573257
-0.0006514716883116883,0.0009247653092469303,-0.01485400024447344
-0.0006514316883116883,0.0007278539149572216,-0.01728960351830624
-0.0006513916883116883,0.0004324868235220936,-0.01867197294399764
-0.0006513516883116883,0.0005309425206671547,-0.01577557986159661
-0.0006513116883116884,0.0004981239549521941,-0.01692755438300401
-0.0006512716883116883,0.0006622167835281956,-0.01742125774931997
-0.0006512316883116883,0.001220132400682417,-0.01495274091773268
-0.0006511916883116883,0.001351406663542498,-0.01159555802676786
-0.0006511516883116883,0.001154495269252431,-0.01166138514227697
-0.0006511116883116884,0.001318588097827179,-0.009949880139043115
-0.0006510716883116883,0.001843685149267693,-0.010706891967392
-0.0006510316883116883,0.001843685149267693,-0.009159954752930631
-0.0006509916883116883,0.002335963634992888,-0.007053487056638975
-0.0006509516883116883,0.001778048017837652,-0.006987659941129861
-0.0006509116883116884,0.002007777977842795,-0.008797905617630502
-0.0006508716883116883,0.001712410886408682,-0.008106720904789592
-0.0006508316883116883,0.002270326503562903,-0.01073980552514937
-0.0006507916883116883,0.002598512160713051,-0.009423263214967087
-0.0006507516883116883,0.001712410886407667,-0.009785312350267215
-0.0006507116883116884,0.00207341510927278,-0.008797905617630502
-0.0006506716883116884,0.001974959412127954,-0.01139807668023578
-0.0006506316883116883,0.00204059654355776,-0.01004862081230367
-0.0006505916883116883,0.00207341510927278,-0.008962473406403288
-0.0006505516883116883,0.00207341510927278,-0.008633337828857716
-0.0006505116883116883,0.002204689372132862,-0.01057523773637659
-0.0006504716883116884,0.002335963634992649,-0.009587831003741668
-0.0006504316883116883,0.001876503714982654,-0.01320832235673678
-0.0006503916883116883,0.001843685149267693,-0.01080563264065849
-0.0006503516883116883,0.001384225229257519,-0.009587831003739873
-0.0006503116883116883,0.001515499492117545,-0.0101802750433219
-0.0006502716883116884,0.001581136623547466,-0.009653658119249944
-0.0006502316883116883,0.001384225229258653,-0.007876326000500927
-0.0006501916883116883,0.002007777977842795,-0.006790178594602518
-0.0006501516883116883,0.001843685149267693,-0.007744671769484675
-0.0006501116883116883,0.002007777977842795,-0.00860042427110316
-0.0006500716883116884,0.001351406663543692,-0.01123350889146294
-0.0006500316883116883,0.001778048017835981,-0.008797905617637327
-0.0006499916883116883,0.0008591281778173032,-0.01255005120165001
-0.0006499516883116883,0.001646773754977626,-0.002017712720191738
-0.0006499116883116883,0.002171870806417842,-0.0185403187129794
-0.0006498716883116884,0.00059657965209714,-0.01422864264713243
-0.0006498316883116884,0.001745229452120542,-0.006395215901562083
-0.0006497916883116883,0.0007934910463872624,-0.02140379823762588
-0.0006497516883116883,0.001646773754977626,-0.008962473406403288
-0.0006497116883116883,0.00207341510927278,-0.0201530830429527
-0.0006496716883116883,0.0009247653092472885,-0.01679590015198788
-0.0006496316883116884,0.001482680926401509,-0.0141957290893826
-0.0006495916883116883,0.001745229452121677,-0.01807952890441297
-0.0006495516883116883,0.001220132400682417,-0.01663133236321509
-0.0006495116883116883,0.001646773754977626,-0.01643385101668775
-0.0006494716883116883,0.001482680926402524,-0.01725668996055168
-0.0006494316883116884,0.001745229452122154,-0.01505148159100036
-0.0006493916883116883,0.002139052240701508,-0.01903402207928837
-0.0006493516883116883,0.001417043794972539,-0.0138665935118323
-0.0006493116883116883,0.001909322280697734,-0.01567683918833294
-0.0006492716883116883,0.001712410886407667,-0.01508439514875091
-0.0006492316883116884,0.002040596543557163,-0.013965334185098
-0.0006491916883116883,0.001252950966397258,-0.01251713764389755
-0.0006491516883116883,0.001154495269252431,-0.01366911216530495
-0.0006491116883116883,0.001613955189262606,-0.01215508850859533
-0.0006490716883116883,0.001974959412127775,-0.01297792745245925
-0.0006490316883116884,0.001351406663542498,-0.0120234342775771
-0.0006489916883116883,0.001154495269253088,-0.01139807668024105
-0.0006489516883116883,0.001515499492117545,-0.01169429870003153
-0.0006489116883116883,0.0006950353492422012,-0.01182595293104976
-0.0006488716883116883,0.0008591281778173032,-0.01083854619841304
-0.0006488316883116883,0.001121676703537411,-0.01333997658775938
-0.0006487916883116884,0.000990402440677568,-0.01258296475940595
-0.0006487516883116883,0.001515499492115754,-0.01166138514227727
-0.0006487116883116883,0.0005309425206671547,-0.01182595293104976
-0.0006486716883116883,0.0006950353492422012,-0.01416281553162331
-0.0006486316883116883,0.0005309425206671547,-0.01123350889146773
-0.0006485916883116884,0.0008263096121017455,-0.01218800206634815
-0.0006485516883116883,0.001581136623546033,-0.01287918677919774
-0.0006485116883116883,0.0007278539149572216,-0.01406407485835964
-0.0006484716883116883,0.0003012125606620675,-0.01208926139308621
-0.0006484316883116883,0.0005309425206671547,-0.0152489629375237
-0.0006483916883116884,0.001121676703536336,-0.01409698841611629
-0.0006483516883116883,0.001351406663541483,-0.01205634783533423
-0.0006483116883116883,0.0007934910463872624,-0.01347163081877761
-0.0006482716883116883,0.0006622167835271808,-0.01291210033695014
-0.0006482316883116883,0.001154495269252431,-0.0007669975255185678
-0.0006481916883116884,0.003320520606443333,-0.01580849341935116
-0.0006481516883116883,0.0008263096121031185,-0.009851139465761242
-0.0006481116883116883,0.001285769532112457,-0.001556922911627938
-0.0006480716883116883,0.001942140846412754,-0.01656550524770598
-0.0006480316883116883,0.003189246343583252,0.002952234500746385
-0.0006479916883116884,0.003353339172158354,-0.0136361986075504
-0.0006479516883116884,0.001318588097831179,-0.007909239558267877
-0.0006479116883116883,0.003222064909294571,-0.002478502528799901
-0.0006478716883116883,0.001187313834967396,-0.02686744882488236
-0.0006478316883116883,0.001581136623547585,-0.009916966581285444
-0.0006477916883116883,0.002861060686433159,-0.01561101207282382
-0.0006477516883116884,0.001515499492119992,-0.0110689411027032
-0.0006477116883116883,0.002500056463567751,-0.009127041195179427
-0.0006476716883116883,0.002368782200707908,-0.01097020042943127
-0.0006476316883116883,0.001581136623547585,-0.01126642244922228
-0.0006475916883116883,0.001449862360687559,-0.01422864264713243
-0.0006475516883116884,0.001909322280696898,-0.01307666812572502
-0.0006475116883116883,0.001745229452122811,-0.01156264446901821
-0.0006474716883116883,0.001843685149267693,-0.01426155620488698
-0.0006474316883116883,0.001646773754977626,-0.01261587831715913
-0.0006473916883116883,0.001810866583552673,-0.01136516312248596
-0.0006473516883116884,0.001449862360687559,-0.01228674273961356
-0.0006473116883116883,0.001482680926402763,-0.01301084101020884
-0.0006472716883116883,0.001613955189262606,-0.01027901571658557
-0.0006472316883116883,0.001515499492117545,-0.0131754087989866
-0.0006471916883116883,0.001384225229257519,-0.0131754087989866
-0.0006471516883116884,0.001581136623547585,-0.01258296475940457
-0.0006471116883116884,0.001482680926402703,-0.009291608983954844
-0.0006470716883116883,0.001351406663542498,-0.01037775638984924
-0.0006470316883116883,0.001482680926402524,-0.0108714597561676
-0.0006469916883116883,0.001449862360687559,-0.008633337828857716
-0.0006469516883116883,0.001515499492117545,-0.008435856482330374
-0.0006469116883116884,0.001351406663542797,-0.008435856482330374
-0.0006468716883116883,0.001023221006393185,-0.009752398792513257
-0.0006468316883116883,0.001482680926402524,-0.01008153437005823
-0.0006467916883116883,0.001810866583552673,-0.009094127637421515
-0.0006467516883116883,0.002237507937847882,-0.009324522541703417
-0.0006467116883116884,0.002303145069277804,-0.007744671769487548
-0.0006466716883116883,0.001810866583552314,-0.008863732733142908
-0.0006466316883116883,0.001613955189262606,-0.01067397840964026
-0.0006465916883116883,0.001548318057832565,-0.009225781868439744
-0.0006465516883116883,0.00207341510927278,-0.01008153437005823
-0.0006465116883116884,0.001613955189263442,-0.01014736148556722
-0.0006464716883116883,0.001810866583552434,-0.008633337828858913
-0.0006464316883116883,0.001679592320692647,-0.009291608983948858
-0.0006463916883116883,0.001745229452122632,-0.009653658119248986
-0.0006463516883116883,0.001417043794972539,-0.01047649706311291
-0.0006463116883116884,0.001942140846412754,-0.01047649706311291
-0.0006462716883116884,0.002040596543557581,-0.009982793696795457
-0.0006462316883116883,0.001646773754977626,-0.01037775638984924
-0.0006461916883116883,0.001548318057832565,-0.009192868310685188
-0.0006461516883116883,0.001548318057832565,-0.009982793696794558
-0.0006461116883116883,0.0008919467435322681,-0.009094127637421515
-0.0006460716883116884,0.001318588097826702,-0.008962473406403527
-0.0006460316883116883,0.001745229452121498,-0.01031192927433869
-0.0006459916883116883,0.001121676703537411,-0.009522003888230759
-0.0006459516883116883,0.001220132400682417,-0.01037775638984924
-0.0006459116883116883,0.001252950966397437,-0.009258695426194301
-0.0006458716883116884,0.00115449526925261,-0.008995386964158324
-0.0006458316883116883,0.001187313834967277,-0.009818225908019677
-0.0006457916883116883,0.001121676703537411,-0.008666251386612273
-0.0006457516883116883,0.001121676703537411,-0.008073807347030245
-0.0006457116883116883,0.001121676703537411,-0.009324522541703417
-0.0006456716883116884,0.000990402440677568,-0.0094890903304759
-0.0006456316883116883,0.001581136623546988,-0.01018027504331951
-0.0006455916883116883,0.001252950966397437,-0.008863732733139616
-0.0006455516883116883,0.001384225229257519,-0.009225781868439744
-0.0006455116883116883,0.001482680926402524,-0.009785312350267215
-0.0006454716883116884,0.001417043794972539,-0.009686571677003543
-0.0006454316883116883,0.001384225229258533,-0.008830819175385059
-0.0006453916883116883,0.001942140846412754,-0.008830819175385059
-0.0006453516883116883,0.001810866583552673,-0.01083854619841304
-0.0006453116883116883,0.002204689372132862,-0.0120234342775771
-0.0006452716883116883,0.001449862360687559,-0.01139807668024051
-0.0006452316883116884,0.001810866583552016,-0.01090437331392306
-0.0006451916883116883,0.001679592320692766,-0.01139807668024003
-0.0006451516883116883,0.001745229452122632,-0.01113476821820406
-0.0006451116883116883,0.001843685149267693,-0.0108714597561676
-0.0006450716883116883,0.001810866583552673,-0.01159555802676786
-0.0006450316883116884,0.00118731383496853,-0.0122209156241033
-0.0006449916883116883,0.0019093222806966,-0.01222091562410121
-0.0006449516883116883,0.001285769532112457,-0.01044358350535836
-0.0006449116883116883,0.001778048017837652,-0.0117930393732952
-0.0006448716883116883,0.001449862360687559,-0.0108714597561676
-0.0006448316883116884,0.001482680926402465,-0.01031192927434115
-0.0006447916883116883,0.001613955189262009,-0.009423263214968823
-0.0006447516883116883,0.001285769532112457,-0.01037775638984924
-0.0006447116883116883,0.00207341510927278,-0.01008153437005823
-0.0006446716883116883,0.002171870806417842,-0.009192868310685188
-0.0006446316883116884,0.001581136623547585,-0.009949880139040001
-0.0006445916883116883,0.001876503714982475,-0.009653658119250303
-0.0006445516883116883,0.001745229452122632,-0.01037775638984924
-0.0006445116883116883,0.001613955189262606,-0.01073980552514937
-0.0006444716883116883,0.001515499492117545,-0.009324522541703417
-0.0006444316883116884,0.001449862360687559,-0.01037775638984924
-0.0006443916883116884,0.001417043794972599,-0.01152973091125665
-0.0006443516883116883,0.001449862360687977,-0.01189178004655869
-0.0006443116883116883,0.001679592320692647,-0.0117930393732952
-0.0006442716883116883,0.001515499492117545,-0.0117930393732952
-0.0006442316883116883,0.001942140846412754,-0.01241839697063178
-0.0006441916883116884,0.001810866583552911,-0.01294501389470374
-0.0006441516883116883,0.001810866583552195,-0.01159555802676923
-0.0006441116883116883,0.001548318057832565,-0.01235256985512267
-0.0006440716883116883,0.001515499492117545,-0.01278044610593191
-0.0006440316883116883,0.001745229452122632,-0.01333997658775938
-0.0006439916883116884,0.001318588097828254,-0.01083854619841759
-0.0006439516883116883,0.002237507937846927,-0.01152973091125946
-0.0006439116883116883,0.001712410886407667,-0.01192469360431343
-0.0006438716883116883,0.001548318057832565,-0.01218800206634988
-0.0006438316883116883,0.001843685149267693,-0.01080563264065849
-0.0006437916883116884,0.002139052240702821,-0.01083854619841304
-0.0006437516883116883,0.001843685149267633,-0.01050941062087071
-0.0006437116883116883,0.001810866583552673,-0.01228674273961356
-0.0006436716883116883,0.001646773754977626,-0.01129933600697684
-0.0006436316883116883,0.001646773754977626,-0.01027901571658557
-0.0006435916883116884,0.001712410886407667,-0.01162847158452241
-0.0006435516883116884,0.001220132400683312,-0.01205634783533088
-0.0006435116883116883,0.001974959412127775,-0.01139807668024051
-0.0006434716883116883,0.001942140846412754,-0.01205634783533165
