Analysis/New Tests_CMB/wrd01_d2s01/cmb14_ch08.csv

#Digilent WaveForms Oscilloscope Acquisition
#Device Name: ADP3450
#Serial Number: SN:210018B9D9B0
#Date Time: 2024-08-06 17:21:01.296.762.910
#Sample rate: 2.94118e+06Hz
#Samples: 32768
#Trigger: Source: Channel 3 Type: Edge Condition: Rising Level: 60 mV Hyst.: Auto HoldOff: 0 s
#Channel 3: Range: 200 mV/div Offset: -20 mV Attenuation: 1 X Coupling: DC Bandwidth: 0 Hz Sample Mode: Average

Time (s),Channel 3 (V)
-0.00557036074608905,0.02820083035598136
-0.005570020746089049,0.02823374391373646
-0.00556968074608905,0.02852996593352693
-0.00556934074608905,0.02866162016454516
-0.005569000746089049,0.0276083863163979
-0.005568660746089049,0.02681846093028996
-0.00556832074608905,0.02589688131316236
-0.005567980746089049,0.02537026438908778
-0.005567640746089049,0.02444868477196185
-0.00556730074608905,0.02385624073237982
-0.005566960746089049,0.02316505601953191
-0.005566620746089049,0.02194725438261551
-0.00556628074608905,0.02155229168956083
-0.005565940746089049,0.02174977303608811
-0.005565600746089049,0.02171685947833361
-0.00556526074608905,0.02221056284465197
-0.005564920746089049,0.02273717976872524
-0.005564580746089049,0.02293466111525222
-0.00556424074608905,0.02230930351791564
-0.005563900746089049,0.02174977303608571
-0.005563560746089049,0.02040031716815133
-0.00556322074608905,0.01944582399326917
-0.00556288074608905,0.01882046639593372
-0.005562540746089049,0.01832676302961423
-0.00556220074608905,0.018195108798596
-0.00556186074608905,0.01888629351144044
-0.005561520746089049,0.01977495957081474
-0.00556118074608905,0.02089402053446968
-0.00556084074608905,0.02217764928689507
-0.005560500746089049,0.02267135265321577
-0.00556016074608905,0.02240804419117931
-0.00555982074608905,0.0214206374585444
-0.005559480746089049,0.01901794774245993
-0.00555914074608905,0.0165823444686227
-0.00555880074608905,0.01496958013865234
-0.005558460746089049,0.01381760561723991
-0.00555812074608905,0.01355429715520345
-0.00555778074608905,0.01355429715520345
-0.005557440746089049,0.01378469205948535
-0.00555710074608905,0.01391634629050358
-0.00555676074608905,0.0135872107129586
-0.005556420746089049,0.01365303782846712
-0.00555608074608905,0.01388343273274902
-0.00555574074608905,0.01388343273274902
-0.005555400746089049,0.01401508696376725
-0.00555506074608905,0.01457461744559472
-0.00555472074608905,0.01513414792742117
-0.005554380746089049,0.01539745638945865
-0.00555404074608905,0.01552911062047688
-0.00555370074608905,0.01546328350496776
-0.005553360746089049,0.01533162927394953
-0.00555302074608905,0.01454170388784016
-0.00555268074608905,0.01404800052152181
-0.005552340746089049,0.01404800052152181
-0.00555200074608905,0.01477209879212206
-0.00555166074608905,0.01523288860068586
-0.005551320746089049,0.0150024936964051
-0.00555098074608905,0.01562785129374055
-0.00555064074608905,0.01539745638945865
-0.005550300746089049,0.01572659196700314
-0.00554996074608905,0.01513414792742219
-0.00554962074608905,0.0147391852343675
-0.005549280746089049,0.01464044456110264
-0.00554894074608905,0.01398217340601269
-0.00554860074608905,0.01286311244235775
-0.005548260746089049,0.01194153282522853
-0.00554792074608905,0.01105286676585711
-0.00554758074608905,0.01052624984178419
-0.005547240746089049,0.009736324455673805
-0.005546900746089049,0.009176793973847354
-0.00554656074608905,0.009341361762620138
-0.005546220746089049,0.009308448204867797
-0.005545880746089049,0.01052624984178419
-0.00554554074608905,0.01128326167013901
-0.005545200746089049,0.01213901417175971
-0.005544860746089049,0.01335681580867611
-0.00554452074608905,0.01352138359744889
-0.005544180746089049,0.01394925984825855
-0.005543840746089049,0.01417965475254003
-0.00554350074608905,0.01417965475254003
-0.005543160746089049,0.01421256831029447
-0.005542820746089049,0.01414674119478548
-0.00554248074608905,0.01450879033008561
-0.00554214074608905,0.01493666658089407
-0.005541800746089049,0.0156607648514951
-0.00554146074608905,0.0154303699472132
-0.00554112074608905,0.01566076485149468
-0.005540780746089049,0.01450879033008561
-0.00554044074608905,0.01365303782846712
-0.00554010074608905,0.01253397686481421
-0.005539760746089049,0.01194153282523015
-0.00553942074608905,0.01174405147870281
-0.00553908074608905,0.0118098785942118
-0.005538740746089049,0.01197444638298471
-0.00553840074608905,0.01230358196053028
-0.00553806074608905,0.0120731870562488
-0.005537720746089049,0.01289602600011231
-0.00553738074608905,0.01286311244235775
-0.00553704074608905,0.01325807513541172
-0.005536700746089049,0.01441004965682193
-0.00553636074608905,0.01464044456110383
-0.00553602074608905,0.01483792590763082
-0.005535680746089049,0.01431130898355826
-0.00553534074608905,0.01381760561723991
-0.00553500074608905,0.0126656310958325
-0.005534660746089049,0.01128326167013901
-0.00553432074608905,0.01019711426423862
-0.00553398074608905,0.009440102435885188
-0.005533640746089049,0.008683090607528997
-0.00553330074608905,0.008847658396301783
-0.00553296074608905,0.009209707531601911
-0.005532620746089049,0.01003254647546584
-0.00553228074608905,0.01082247186157521
-0.00553194074608905,0.01230358196053028
-0.005531600746089049,0.01306059378888509
-0.00553126074608905,0.01325807513541244
-0.00553092074608905,0.01322516157765788
-0.005530580746089049,0.01292893955786686
-0.00553024074608905,0.01283019888460319
-0.00552990074608905,0.01289602600011231
-0.005529560746089049,0.01322516157765991
-0.00552922074608905,0.01434422254131282
-0.00552888074608905,0.01533162927394953
-0.005528540746089049,0.01625320889107677
-0.00552820074608905,0.01605572754454979
-0.00552786074608905,0.01549619706272232
-0.005527520746089049,0.01460753100334622
-0.00552718074608905,0.01292893955786686
-0.00552684074608905,0.01121743455462989
-0.005526500746089049,0.009933805802199233
-0.005526160746089049,0.008321041472228868
-0.00552582074608905,0.008518522818756211
-0.005525480746089049,0.009143880416094173
-0.005525140746089049,0.009900892244447609
-0.00552480074608905,0.01055916339953875
-0.005524460746089049,0.01121743455463151
-0.005524120746089049,0.01210610061400294
-0.00552378074608905,0.01342264292418522
-0.005523440746089049,0.01408091407927678
-0.005523100746089049,0.01431130898355826
-0.00552276074608905,0.01375177850173079
-0.005522420746089049,0.01325807513541226
-0.005522080746089049,0.01315933446214876
-0.00552174074608905,0.01283019888460319
-0.005521400746089049,0.0129289395578668
-0.005521060746089049,0.01289602600011231
-0.00552072074608905,0.01292893955786686
-0.00552038074608905,0.01263271753807639
-0.005520040746089049,0.01263271753807585
-0.00551970074608905,0.01269854465358496
-0.00551936074608905,0.01200735994074052
-0.005519020746089049,0.01161239724768458
-0.00551868074608905,0.01085538541932977
-0.00551834074608905,0.01069081763055728
-0.005518000746089049,0.01049333628402964
-0.00551766074608905,0.01029585493750229
-0.00551732074608905,0.01092121253483774
-0.005516980746089049,0.01167822436319369
-0.00551664074608905,0.01204027349849382
-0.00551630074608905,0.01256689042256578
-0.005515960746089049,0.01240232263379395
-0.00551562074608905,0.01223775484502116
-0.00551528074608905,0.01197444638298519
-0.005514940746089049,0.01190861926747559
-0.00551460074608905,0.01138200234340268
-0.00551426074608905,0.01134908878564818
-0.005513920746089049,0.01105286676585711
-0.00551358074608905,0.01105286676585711
-0.00551324074608905,0.0111186938813661
-0.005512900746089049,0.01148074301666635
-0.00551256074608905,0.01184279215196648
-0.00551222074608905,0.01187570570972104
-0.005511880746089049,0.01230358196053028
-0.00551154074608905,0.01223775484502116
-0.00551120074608905,0.01236940907603939
-0.005510860746089049,0.01227066840277572
-0.00551052074608905,0.01273145821133952
-0.00551018074608905,0.01253397686481218
-0.005509840746089049,0.01236940907603939
-0.00550950074608905,0.01204027349849382
-0.00550916074608905,0.01194153282523015
-0.005508820746089049,0.01125034811238481
-0.00550848074608905,0.01144782945891179
-0.00550814074608905,0.01131617522789356
-0.005507800746089049,0.01115160743912066
-0.00550746074608905,0.01108578032361167
-0.00550712074608905,0.01138200234340268
-0.005506780746089049,0.01184279215196684
-0.00550644074608905,0.01204027349849382
-0.00550610074608905,0.01230358196053028
-0.005505760746089049,0.01256689042256823
-0.00550542074608905,0.01338972936643066
-0.00550508074608905,0.01394925984825813
-0.005504740746089049,0.01421256831029405
-0.005504400746089049,0.01391634629050358
-0.00550406074608905,0.01329098869316699
-0.005503720746089049,0.01253397686481068
-0.005503380746089049,0.01171113792094825
-0.00550304074608905,0.01105286676585711
-0.005502700746089049,0.01016420070648341
-0.005502360746089049,0.009802151571183939
-0.00550202074608905,0.01049333628402964
-0.005501680746089049,0.01032876849525643
-0.005501340746089049,0.01009837359097495
-0.00550100074608905,0.01013128714872951
-0.005500660746089049,0.009736324455674523
-0.005500320746089049,0.00957175666690204
-0.00549998074608905,0.01013128714872951
-0.00549964074608905,0.01078955830381946
-0.005499300746089049,0.01148074301666635
-0.00549896074608905,0.01236940907603939
-0.00549862074608905,0.01273145821133886
-0.005498280746089049,0.01312642090439421
-0.00549794074608905,0.01296185311562142
-0.00549760074608905,0.01223775484502248
-0.005497260746089049,0.01217192772951205
-0.00549692074608905,0.01227066840277572
-0.00549658074608905,0.01309350734663815
-0.005496240746089049,0.01286311244235775
-0.00549590074608905,0.01276437176909408
-0.00549556074608905,0.01289602600011207
-0.005495220746089049,0.01358721071295801
-0.00549488074608905,0.01322516157765788
-0.00549454074608905,0.01385051917499332
-0.005494200746089049,0.01345555648193978
-0.00549386074608905,0.01329098869316699
-0.00549352074608905,0.01220484128726858
-0.005493180746089049,0.01115160743912078
-0.00549284074608905,0.009736324455674824
-0.00549250074608905,0.008979312627321389
-0.005492160746089049,0.00874891772303811
-0.00549182074608905,0.008551436376510768
-0.00549148074608905,0.009571756666900183
-0.005491140746089049,0.01013128714872951
-0.00549080074608905,0.01013128714872951
-0.00549046074608905,0.009900892244447609
-0.005490120746089049,0.009867978686693053
-0.00548978074608905,0.01029585493750229
-0.00548944074608905,0.01092121253483888
-0.005489100746089049,0.01042750916852052
-0.00548876074608905,0.01095412609259344
-0.00548842074608905,0.01151365657442091
-0.005488080746089049,0.01164531080543902
-0.00548774074608905,0.01157948368993002
-0.00548740074608905,0.01125034811238445
-0.005487060746089049,0.01105286676585579
-0.00548672074608905,0.01032876849525685
-0.00548638074608905,0.009999632917711282
-0.005486040746089049,0.01032876849525667
-0.00548570074608905,0.01023002782199318
-0.00548536074608905,0.0107566447460661
-0.005485020746089049,0.01154657013217702
-0.00548468074608905,0.01240232263379395
-0.00548434074608905,0.01306059378888509
-0.005484000746089049,0.01325807513541274
-0.005483660746089049,0.01342264292418522
-0.00548332074608905,0.01306059378888509
-0.005482980746089049,0.01299476667337442
-0.005482640746089049,0.01213901417175749
-0.00548230074608905,0.01131617522789356
-0.005481960746089049,0.0104933362840285
-0.005481620746089049,0.009867978686693053
-0.00548128074608905,0.009209707531601911
-0.005480940746089049,0.008452695703247757
-0.005480600746089049,0.008814744838547226
-0.00548026074608905,0.009176793973847354
-0.005479920746089049,0.01023002782199522
-0.005479580746089049,0.01134908878564812
-0.00547924074608905,0.01200735994073926
-0.00547890074608905,0.0103945956107689
-0.005478560746089049,0.005029685696773157
-0.00547822074608905,-0.007115417114658414
-0.00547788074608905,-0.02768639071121919
-0.005477540746089049,-0.05536669278283913
-0.00547720074608905,-0.08821442342188712
-0.00547686074608905,-0.1224774370443188
-0.005476520746089049,-0.1555226490299564
-0.00547618074608905,-0.1843549256229484
-0.00547584074608905,-0.2076577245131325
-0.005475500746089049,-0.2242790711792262
-0.00547516074608905,-0.2349101503339482
-0.00547482074608905,-0.2401104924591587
-0.005474480746089049,-0.2416245161158778
-0.00547414074608905,-0.2397155297661135
-0.00547380074608905,-0.2359962977398553
-0.005473460746089049,-0.2297427217664827
-0.00547312074608905,-0.2223042577139528
-0.00547278074608905,-0.21430626317961
-0.005472440746089049,-0.2061107872987107
-0.00547210074608905,-0.1973886944937531
-0.00547176074608905,-0.1901477117877637
-0.005471420746089049,-0.1829725561972571
-0.00547108074608905,-0.1758303141645182
-0.00547074074608905,-0.1683918501120018
-0.005470400746089049,-0.1615787436567949
-0.00547006074608905,-0.154436501624056
-0.00546972074608905,-0.1484791476704812
-0.005469380746089049,-0.1428180157366974
-0.00546904074608905,-0.1372885380339318
-0.00546870074608905,-0.1324831586017664
-0.005468360746089049,-0.1279410876316376
-0.00546802074608905,-0.123596498008036
-0.00546768074608905,-0.1184290694405706
-0.005467340746089049,-0.113492035777387
-0.00546700074608905,-0.1084562614409398
-0.00546666074608905,-0.10398001758632
-0.005466320746089049,-0.09940503305842834
-0.00546598074608905,-0.09489587564606222
-0.00546564074608905,-0.09101207583102447
-0.005465300746089049,-0.08725993024699777
-0.00546496074608905,-0.08331030331645811
-0.00546462074608905,-0.0799531204254933
-0.005464280746089049,-0.07708964090084096
-0.00546394074608905,-0.07386411224090023
-0.00546360074608905,-0.07215260723766326
-0.005463260746089049,-0.07030944800340523
-0.005462920746089049,-0.06876251078894388
-0.00546258074608905,-0.0667547837659159
-0.005462240746089049,-0.0646154025118653
-0.005461900746089049,-0.06221271279578702
-0.00546156074608905,-0.05987585019521346
-0.005461220746089049,-0.05701237067056196
-0.005460880746089049,-0.05424763181918419
-0.00546054074608905,-0.05105501671699215
-0.005460200746089049,-0.04782948805704035
-0.005459860746089049,-0.04496600853239909
-0.00545952074608905,-0.04239875102754363
-0.005459180746089049,-0.03950235794513782
-0.005458840746089049,-0.03686927332477804
-0.00545850074608905,-0.03449949716644993
-0.005458160746089049,-0.03206389389260851
-0.005457820746089049,-0.0297599448497937
-0.00545748074608905,-0.02752182292248382
-0.00545714074608905,-0.02577740436149547
-0.005456800746089049,-0.02465834339783735
-0.00545646074608905,-0.02400007224274621
-0.00545612074608905,-0.02304557906786579
-0.005455780746089049,-0.02235439435501835
-0.00545544074608905,-0.02136698762238164
-0.00545510074608905,-0.02047832156301022
-0.005454760746089049,-0.01975422329240834
-0.00545442074608905,-0.01896429790629897
-0.00545408074608905,-0.01784523694264607
-0.005453740746089049,-0.01784523694264403
-0.00545340074608905,-0.01675908953674365
-0.00545306074608905,-0.01580459636186322
-0.005452720746089049,-0.01429057270515186
-0.00545238074608905,-0.01313859818374236
-0.00545204074608905,-0.01228284568212543
-0.005451700746089049,-0.01205245077784198
-0.00545136074608905,-0.01185496943131464
-0.00545102074608905,-0.01211827789335062
-0.005450680746089049,-0.01198662366233286
-0.00545034074608905,-0.01159166096927818
-0.00545000074608905,-0.01175622875805067
-0.005449660746089049,-0.01126252539173261
-0.00544932074608905,-0.009715588177268426
-0.00544898074608905,-0.007115417114663143
-0.005448640746089049,-0.005272257880403218
-0.00544830074608905,-0.003001222395338777
-0.00544796074608905,-0.002112556335965736
-0.005447620746089049,-0.00158593941189282
-0.00544728074608905,-0.002013815662702062
-0.00544694074608905,-0.002145469893720293
-0.005446600746089049,-0.00227712412473852
-0.00544626074608905,-0.001520112296383706
-0.00544592074608905,-0.0009934953723107938
-0.005445580746089049,-0.0002693971017080823
-0.00544524074608905,0.001080058766226306
-0.00544490074608905,0.001738329921317446
-0.005444560746089049,0.002626995980690969
-0.00544422074608905,0.002890304442726945
-0.00544388074608905,0.003054872231499733
-0.005443540746089049,0.003153612904763104
-0.00544320074608905,0.002989045115990616
-0.00544286074608905,0.002626995980690491
-0.005442520746089049,0.002594082422935452
-0.00544218074608905,0.002330773960899476
-0.00544184074608905,0.002791563769463275
-0.005441500746089049,0.003647316271084273
-0.005441160746089049,0.005029685696773157
-0.00544082074608905,0.006444968680219114
-0.005440480746089049,0.006905758488784291
-0.005440140746089049,0.007662770317137727
-0.00543980074608905,0.008321041472228868
-0.005439460746089049,0.008946399069564914
-0.005439120746089049,0.00865017704977444
-0.00543878074608905,0.008057733010192412
-0.005438440746089049,0.007596943201628733
-0.005438100746089049,0.007662770317137727
-0.00543776074608905,0.007234894066328485
-0.005437420746089049,0.007531116086121713
-0.005437080746089049,0.00874891772303811
-0.00543674074608905,0.009538843109147481
-0.00543640074608905,0.01003254647546494
-0.005436060746089049,0.01101995320810255
-0.00543572074608905,0.01095412609259344
-0.00543538074608905,0.01065790407280296
-0.005435040746089049,0.01059207695729331
-0.00543470074608905,0.009867978686693053
-0.00543436074608905,0.009440102435884589
-0.005434020746089049,0.008979312627320012
-0.00543368074608905,0.007926078779174183
-0.00543334074608905,0.007399461855102228
-0.005433000746089049,0.008222300798965198
-0.00543266074608905,0.01023002782199318
-0.00543232074608905,0.01171113792094556
-0.005431980746089049,0.01335681580867611
-0.00543164074608905,0.01450879033008561
-0.00543130074608905,0.01467335811885809
-0.005430960746089049,0.01424548186804915
-0.00543062074608905,0.01375177850173079
-0.00543028074608905,0.01348847003969481
-0.005429940746089049,0.01338972936643066
-0.00542960074608905,0.01381760561723991
-0.00542926074608905,0.0138834327327489
-0.005428920746089049,0.01421256831029459
-0.00542858074608905,0.01381760561723991
-0.00542824074608905,0.01315933446214996
-0.005427900746089049,0.01250106330705762
-0.00542756074608905,0.01246814974930307
-0.00542722074608905,0.01299476667337598
-0.005426880746089049,0.01319224801990332
-0.00542654074608905,0.01319224801990332
-0.00542620074608905,0.01348847003969433
-0.005425860746089049,0.01355429715520345
-0.00542552074608905,0.01411382763703092
-0.00542518074608905,0.01414674119478548
-0.005424840746089049,0.01450879033008561
-0.00542450074608905,0.01434422254131282
-0.00542416074608905,0.01408091407927636
-0.005423820746089049,0.01352138359744721
-0.00542348074608905,0.01259980398032129
-0.00542314074608905,0.01141491590115724
-0.005422800746089049,0.01059207695729181
-0.00542246074608905,0.009769238013429382
-0.00542212074608905,0.009867978686693053
-0.005421780746089049,0.01042750916852064
-0.00542144074608905,0.01049333628402964
-0.00542110074608905,0.01082247186157521
-0.005420760746089049,0.01101995320810357
-0.005420420746089049,0.01157948368993002
-0.00542008074608905,0.01217192772951205
-0.005419740746089049,0.0127314582113412
-0.005419400746089049,0.01365303782846712
-0.00541906074608905,0.01417965475254003
-0.005418720746089049,0.01447587677233135
-0.005418380746089049,0.01464044456110383
-0.00541804074608905,0.01460753100334928
-0.005417700746089049,0.01464044456110377
-0.005417360746089049,0.01460753100334928
-0.00541702074608905,0.01411382763703092
-0.005416680746089049,0.01421256831029447
-0.005416340746089049,0.01414674119478548
-0.00541600074608905,0.01378469205948535
-0.005415660746089049,0.01302768023113041
-0.005415320746089049,0.01296185311562142
-0.00541498074608905,0.01273145821133952
-0.00541464074608905,0.01273145821133952
-0.005414300746089049,0.01332390225092155
-0.00541396074608905,0.01477209879212206
-0.00541362074608905,0.01605572754454745
-0.005413280746089049,0.01605572754454979
-0.00541294074608905,0.01638486312209536
-0.00541260074608905,0.0158253326402689
-0.005412260746089049,0.01546328350496776
-0.00541192074608905,0.01510123436966763
-0.00541158074608905,0.01487083946538615
-0.005411240746089049,0.01434422254131282
-0.00541090074608905,0.01375177850173079
