Analysis/New Tests_CMB/wrd01_d2s01/cmb13_ch03.csv

#Digilent WaveForms Oscilloscope Acquisition
#Device Name: ADP3450
#Serial Number: SN:210018B9D9B0
#Date Time: 2024-08-06 17:50:47.990.738.400
#Sample rate: 2.94118e+06Hz
#Samples: 32768
#Trigger: Source: Channel 3 Type: Edge Condition: Rising Level: 60 mV Hyst.: Auto HoldOff: 0 s
#Channel 3: Range: 200 mV/div Offset: -20 mV Attenuation: 1 X Coupling: DC Bandwidth: 0 Hz Sample Mode: Average

Time (s),Channel 3 (V)
-0.005570444353741497,0.03287455555712847
-0.005570104353741496,0.03274290132611156
-0.005569764353741497,0.0334669995967105
-0.005569424353741497,0.03333534536569227
-0.005569084353741496,0.03333534536569227
-0.005568744353741497,0.03333534536569227
-0.005568404353741497,0.03241376574856467
-0.005568064353741496,0.0314921861314351
-0.005567724353741497,0.03040603872553669
-0.005567384353741497,0.02879327439556339
-0.005567044353741496,0.02714759650783362
-0.005566704353741497,0.02609436265968971
-0.005566364353741497,0.02513986948480755
-0.005566024353741496,0.02441577121420801
-0.005565684353741497,0.02481073390726198
-0.005565344353741497,0.02458033900298008
-0.005565004353741496,0.02458033900298092
-0.005564664353741497,0.02504112881154388
-0.005564324353741497,0.02500821525378932
-0.005563984353741496,0.02550191862010816
-0.005563644353741497,0.02576522708214413
-0.005563304353741497,0.02596270842867148
-0.005562964353741497,0.02556774573561751
-0.005562624353741497,0.02467907967624375
-0.005562284353741497,0.02408663563666172
-0.005561944353741497,0.02293466111525432
-0.005561604353741497,0.02174977303608817
-0.005561264353741497,0.02023574937937854
-0.005560924353741497,0.01908377485797114
-0.005560584353741497,0.01832676302961423
-0.005560244353741497,0.01760266475901397
-0.005559904353741497,0.01783305966329545
-0.005559564353741497,0.01855715793389613
-0.005559224353741497,0.01961039178204196
-0.005558884353741497,0.02049905784141338
-0.005558544353741496,0.02184851370935184
-0.005558204353741497,0.02352710515483425
-0.005557864353741497,0.0241195491944152
-0.005557524353741496,0.02356001871258881
-0.005557184353741497,0.02293466111525222
-0.005556844353741497,0.02125606966977286
-0.005556504353741496,0.01908377485796904
-0.005556164353741497,0.01793180033655955
-0.005555824353741497,0.01743809697024208
-0.005555484353741496,0.01701022071943194
-0.005555144353741497,0.01714187495045017
-0.005554804353741497,0.01737226985473165
-0.005554464353741496,0.01780014610554131
-0.005554124353741497,0.01832676302961423
-0.005553784353741497,0.01855715793389613
-0.005553444353741496,0.01829384947185967
-0.005553104353741497,0.01816219524084144
-0.005552764353741497,0.01770140543227764
-0.005552424353741496,0.01710896139269562
-0.005552084353741497,0.01684565293065916
-0.005551744353741497,0.01618738177556802
-0.005551404353741496,0.01635194956434128
-0.005551064353741497,0.01661525802637726
-0.005550724353741497,0.0177343189900322
-0.005550384353741496,0.01852424437614265
-0.005550044353741497,0.0191166884157236
-0.005549704353741497,0.02056488495692411
-0.005549364353741496,0.02115732899650584
-0.005549024353741497,0.02099276120773335
-0.005548684353741497,0.02105858832324247
-0.005548344353741496,0.02069653918794115
-0.005548004353741497,0.0200382680328512
-0.005547664353741497,0.01868881216491436
-0.005547324353741496,0.01737226985473088
-0.005546984353741497,0.01671399869964093
-0.005546644353741497,0.01625320889107713
-0.005546304353741496,0.01622029533332245
-0.005545964353741497,0.01615446821781346
-0.005545624353741497,0.0165823444686227
-0.005545284353741496,0.01733935629697853
-0.005544944353741497,0.01789888677880499
-0.005544604353741497,0.01756975120125942
-0.005544264353741496,0.01733935629697704
-0.005543924353741497,0.01707604783494106
-0.005543584353741497,0.01668108514188637
-0.005543244353741496,0.01648360379535945
-0.005542904353741497,0.01671399869964093
-0.005542564353741497,0.0165823444686227
-0.005542224353741497,0.01714187495044916
-0.005541884353741497,0.01799762745206866
-0.005541544353741497,0.01859007149165069
-0.005541204353741497,0.01855715793389619
-0.005540864353741497,0.0175039240857503
-0.005540524353741497,0.0161215546600589
-0.005540184353741497,0.01490375302314251
-0.005539844353741497,0.01401508696376725
-0.005539504353741497,0.01421256831029459
-0.005539164353741497,0.01447587677233057
-0.005538824353741497,0.0149695801386494
-0.005538484353741497,0.01539745638945865
-0.005538144353741497,0.01510123436966817
-0.005537804353741497,0.01519997504293131
-0.005537464353741497,0.01487083946538573
-0.005537124353741497,0.01450879033008626
-0.005536784353741496,0.01483792590763118
-0.005536444353741497,0.01467335811885839
-0.005536104353741497,0.01473918523436739
-0.005535764353741496,0.01493666658089485
-0.005535424353741497,0.01519997504293131
-0.005535084353741497,0.01628612244882971
-0.005534744353741496,0.01684565293065916
-0.005534404353741497,0.0170431342771865
-0.005534064353741497,0.0171089613926955
-0.005533724353741496,0.01763557831676853
-0.005533384353741497,0.01763557831676853
-0.005533044353741497,0.01786597322105043
-0.005532704353741496,0.01793180033655955
-0.005532364353741497,0.01839259014512334
-0.005532024353741497,0.01753683764350486
-0.005531684353741496,0.01664817158413182
-0.005531344353741497,0.01598990042904068
-0.005531004353741497,0.01562785129374055
-0.005530664353741496,0.01562785129374055
-0.005530324353741497,0.01608864110230435
-0.005529984353741497,0.01628612244883169
-0.005529644353741496,0.01710896139269795
-0.005529304353741497,0.01839259014512334
-0.005528964353741497,0.0188862935114417
-0.005528624353741496,0.01921542908898763
-0.005528284353741497,0.01941291043551461
-0.005527944353741497,0.01885337995368714
-0.005527604353741496,0.018491330818386
-0.005527264353741497,0.01793180033655955
-0.005526924353741497,0.01776723254778676
-0.005526584353741496,0.01664817158413277
-0.005526244353741497,0.01717478850820473
-0.005525904353741497,0.01661525802637726
-0.005525564353741496,0.01651651735311257
-0.005525224353741497,0.01595698687128612
-0.005524884353741497,0.01483792590763118
-0.005524544353741496,0.01385051917499291
-0.005524204353741497,0.01299476667337598
-0.005523864353741497,0.01236940907603939
-0.005523524353741496,0.0125339768648132
-0.005523184353741497,0.01309350734663965
-0.005522844353741497,0.01338972936643066
-0.005522504353741496,0.01444296321457775
-0.005522164353741497,0.01513414792742219
-0.005521824353741497,0.01569367840924966
-0.005521484353741496,0.01612155466005824
-0.005521144353741497,0.01575950552475877
-0.005520804353741497,0.01552911062047688
-0.005520464353741497,0.01559493773598587
-0.005520124353741497,0.01562785129374055
-0.005519784353741497,0.01598990042904068
-0.005519444353741497,0.01608864110230417
-0.005519104353741497,0.01615446821781346
-0.005518764353741497,0.01582533264026789
-0.005518424353741497,0.01546328350496842
-0.005518084353741497,0.01493666658089485
-0.005517744353741497,0.01437713609906738
-0.005517404353741497,0.0140809140792769
-0.005517064353741497,0.0142783954258037
-0.005516724353741497,0.01513414792742219
-0.005516384353741497,0.01562785129373965
-0.005516044353741496,0.01618738177556802
-0.005515704353741497,0.01724061562371385
-0.005515364353741497,0.01763557831676781
-0.005515024353741496,0.01760266475901397
-0.005514684353741497,0.01724061562371385
-0.005514344353741497,0.01648360379536041
-0.005514004353741496,0.0156607648514951
-0.005513664353741497,0.0154303699472132
-0.005513324353741497,0.01480501234987776
-0.005512984353741496,0.01559493773598599
-0.005512644353741497,0.01615446821781346
-0.005512304353741497,0.01720770206595929
-0.005511964353741496,0.01789888677880499
-0.005511624353741497,0.01766849187452309
-0.005511284353741497,0.01737226985473207
-0.005510944353741496,0.0170431342771865
-0.005510604353741497,0.01645069023760447
-0.005510264353741497,0.01668108514188637
-0.005509924353741496,0.01631903600658625
-0.005509584353741497,0.01608864110230435
-0.005509244353741497,0.01605572754454979
-0.005508904353741496,0.01569367840924948
-0.005508564353741497,0.01559493773598599
-0.005508224353741497,0.01523288860068586
-0.005507884353741496,0.0150024936964033
-0.005507544353741497,0.01464044456110383
-0.005507204353741497,0.01464044456110383
-0.005506864353741496,0.01510123436966799
-0.005506524353741497,0.01529871571619498
-0.005506184353741497,0.01585824619802245
-0.005505844353741496,0.01618738177556915
-0.005505504353741497,0.0168127393729046
-0.005505164353741497,0.0172735291814684
-0.005504824353741496,0.0168456529306582
-0.005504484353741497,0.01631903600658625
-0.005504144353741497,0.01579241908251333
-0.005503804353741496,0.01684565293065904
-0.005503464353741497,0.01677982581515005
-0.005503124353741497,0.0165823444686227
-0.005502784353741496,0.01628612244883109
-0.005502444353741497,0.01595698687128612
-0.005502104353741497,0.01533162927394953
-0.005501764353741496,0.01473918523436667
-0.005501424353741497,0.0142783954258037
-0.005501084353741497,0.01444296321457649
-0.005500744353741496,0.01441004965682205
-0.005500404353741497,0.01447587677233105
-0.005500064353741497,0.01513414792742219
-0.005499724353741497,0.01536454283170367
-0.005499384353741497,0.01539745638945865
-0.005499044353741497,0.01562785129374055
-0.005498704353741497,0.01602281398679451
-0.005498364353741497,0.01671399869964093
-0.005498024353741497,0.01671399869964093
-0.005497684353741497,0.01681273937290442
-0.005497344353741497,0.01677982581515005
-0.005497004353741497,0.01674691225739549
-0.005496664353741497,0.01638486312209602
-0.005496324353741497,0.01595698687128612
-0.005495984353741497,0.01529871571619498
-0.005495644353741497,0.01460753100335053
-0.005495304353741496,0.01398217340601269
-0.005494964353741497,0.01375177850173079
-0.005494624353741497,0.01375177850173079
-0.005494284353741496,0.01378469205948535
-0.005493944353741497,0.01404800052152181
-0.005493604353741497,0.01437713609906678
-0.005493264353741496,0.01526580215844042
-0.005492924353741497,0.01595698687128612
-0.005492584353741497,0.01648360379535807
-0.005492244353741496,0.01707604783494106
-0.005491904353741497,0.01714187495045017
-0.005491564353741497,0.01717478850820467
-0.005491224353741496,0.01694439360392283
-0.005490884353741497,0.01687856648841372
-0.005490544353741497,0.01664817158413182
-0.005490204353741496,0.01625320889107713
-0.005489864353741497,0.01572659196700422
-0.005489524353741497,0.01595698687128612
-0.005489184353741496,0.01608864110230435
-0.005488844353741497,0.01625320889107713
-0.005488504353741497,0.01654943091086815
-0.005488164353741496,0.01701022071943254
-0.005487824353741497,0.01733935629697752
-0.005487484353741497,0.01816219524084144
-0.005487144353741496,0.01822802235635133
-0.005486804353741497,0.0186558986071598
-0.005486464353741497,0.01868881216491436
-0.005486124353741496,0.01875463928042198
-0.005485784353741497,0.01793180033655955
-0.005485444353741497,0.01743809697024119
-0.005485104353741496,0.0168785664884124
-0.005484764353741497,0.01615446821781346
-0.005484424353741497,0.0154303699472132
-0.005484084353741496,0.01454170388783849
-0.005483744353741497,0.01362012427071256
-0.005483404353741497,0.01322516157765788
-0.005483064353741496,0.01273145821133922
-0.005482724353741497,0.01256689042256674
-0.005482384353741497,0.01223775484502116
-0.005482044353741496,0.01253397686481236
-0.005481704353741497,0.01263271753807585
-0.005481364353741497,0.01256689042256674
-0.005481024353741496,0.01371886494397887
-0.005480684353741497,0.01516706148517675
-0.005480344353741497,0.01625320889107713
-0.005480004353741496,0.01648360379535855
-0.005479664353741497,0.01622029533332257
-0.005479324353741497,0.01589115975577701
-0.005478984353741497,0.01348847003969871
-0.005478644353741497,0.008584349934265326
-0.005478304353741497,-0.001223890276592692
-0.005477964353741497,-0.01791106405812279
-0.005477624353741497,-0.04226709679652541
-0.005477284353741497,-0.07235008858419059
-0.005476944353741497,-0.1058560903782688
-0.005476604353741497,-0.1404482395783693
-0.005476264353741497,-0.1720452550227441
-0.005475924353741497,-0.1991001994969408
-0.005475584353741497,-0.219835740882361
-0.005475244353741497,-0.2343835334098752
-0.005474904353741497,-0.2428094041950266
-0.005474564353741497,-0.2461007599704976
-0.005474224353741497,-0.2456399701619338
-0.005473884353741497,-0.242677749964029
-0.005473544353741496,-0.2376090620698219
-0.005473204353741497,-0.2311580047499286
-0.005472864353741497,-0.2239828491594482
-0.005472524353741496,-0.2162481630871143
-0.005472184353741497,-0.2086780448035661
-0.005471844353741497,-0.2005813095959598
-0.005471504353741496,-0.1931428455434152
-0.005471164353741497,-0.1861322577416945
-0.005470824353741497,-0.1794837190752861
-0.005470484353741496,-0.17346053800619
-0.005470144353741497,-0.1671082213595605
-0.005469804353741497,-0.1610850402904766
-0.005469464353741496,-0.1549960321058835
-0.005469124353741497,-0.1486766290170085
-0.005468784353741497,-0.1427192750634337
-0.005468444353741496,-0.137123970245159
-0.005468104353741497,-0.1317261467734116
-0.005467764353741497,-0.1262624961861551
-0.005467424353741496,-0.1209304998299169
-0.005467084353741497,-0.1153022814538876
-0.005466744353741497,-0.1098715444243857
-0.005466404353741496,-0.104572461625893
-0.005466064353741497,-0.09963542796271843
-0.005465724353741497,-0.0952250112236078
-0.005465384353741496,-0.09140703852407246
-0.005465044353741497,-0.08772072005556877
-0.005464704353741497,-0.08413314226032204
-0.005464364353741496,-0.08067721869608893
-0.005464024353741497,-0.07814287474899265
-0.005463684353741497,-0.07455529695374594
-0.005463344353741496,-0.07129685473603932
-0.005463004353741497,-0.06830172098038007
-0.005462664353741497,-0.0654382414557336
-0.005462324353741496,-0.06303555173964645
-0.005461984353741497,-0.06056703490805915
-0.005461644353741497,-0.05819725874973105
-0.005461304353741496,-0.05484007585876083
-0.005460964353741497,-0.05187785566085609
-0.005460624353741497,-0.04884980834743683
-0.005460284353741496,-0.04608506949605038
-0.005459944353741497,-0.04407734247302605
-0.005459604353741497,-0.04226709679652541
-0.005459264353741496,-0.04042393756226722
-0.005458924353741497,-0.03877825967454235
-0.005458584353741497,-0.03670470553600525
-0.005458244353741496,-0.03496028697501193
-0.005457904353741497,-0.03397288024237701
-0.005457564353741497,-0.03219554812363093
-0.005457224353741497,-0.03074735158243305
-0.005456884353741497,-0.02824592119308408
-0.005456544353741497,-0.02557992301496495
-0.005456204353741497,-0.02327597397215014
-0.005455864353741497,-0.02090619781381784
-0.005455524353741497,-0.01889847079078986
-0.005455184353741497,-0.01712113867204701
-0.005454844353741497,-0.01593625059287972
-0.005454504353741497,-0.01501467097575212
-0.005454164353741497,-0.01396143712760821
-0.005453824353741497,-0.01320442529925148
-0.005453484353741497,-0.01251324058640578
-0.005453144353741497,-0.01146000673826187
-0.005452804353741496,-0.01109795760295982
-0.005452464353741497,-0.01080173558316881
-0.005452124353741497,-0.01027511865909685
-0.005451784353741496,-0.009978896639304884
-0.005451444353741497,-0.00968267461951387
-0.005451104353741497,-0.009287711926459902
-0.005450764353741496,-0.008629440771368041
-0.005450424353741497,-0.007872428943013227
-0.005450084353741497,-0.007642034038731749
-0.005449744353741496,-0.007214157787922088
-0.005449404353741497,-0.006391318844058157
-0.005449064353741497,-0.005864701919986202
-0.005448724353741496,-0.00510769009163043
-0.005448384353741497,-0.003824061339202704
-0.005448044353741497,-0.003198703741866118
-0.005447704353741496,-0.002639173260038648
-0.005447364353741497,-0.002013815662702062
-0.005447024353741497,-0.001125149603329021
-0.005446684353741496,-0.0006643597947652222
-0.005446344353741497,-7.191575518319254e-05
-0.005446004353741497,0.0008496638619444052
-0.005445664353741496,0.001804157036829014
-0.005445324353741497,0.003153612904763403
-0.005444984353741497,0.004173933195154675
-0.005444644353741496,0.005062599254528733
-0.005444304353741497,0.005622129736355185
-0.005443964353741497,0.005786697525127971
-0.005443624353741496,0.00605000598716419
-0.005443284353741497,0.0059183517561462
-0.005442944353741497,0.006379141564709999
-0.005442604353741496,0.006543709353484282
-0.005442264353741497,0.007366548297346712
-0.005441924353741497,0.007860251663665069
-0.005441584353741496,0.008189387241212258
-0.005441244353741497,0.009078053300583682
-0.005440904353741497,0.01019711426423862
-0.005440564353741496,0.01105286676585735
-0.005440224353741497,0.01118452099687534
-0.005439884353741497,0.01174405147870281
-0.005439544353741496,0.01177696503645802
-0.005439204353741497,0.01213901417175749
-0.005438864353741497,0.01227066840277572
-0.005438524353741496,0.01250106330705828
-0.005438184353741497,0.01286311244235775
-0.005437844353741497,0.01329098869316699
-0.005437504353741496,0.01325807513541286
-0.005437164353741497,0.01348847003969433
-0.005436824353741497,0.01250106330705762
-0.005436484353741497,0.01197444638298567
-0.005436144353741497,0.01088829897708432
-0.005435804353741497,0.01052624984178419
-0.005435464353741497,0.01026294137974822
-0.005435124353741497,0.0100654600332204
-0.005434784353741497,0.009966719359956725
-0.005434444353741497,0.009933805802202227
-0.005434104353741497,0.0100654600332204
-0.005433764353741497,0.01095412609259344
-0.005433424353741497,0.01131617522789291
-0.005433084353741497,0.01157948368993002
-0.005432744353741497,0.01138200234340268
-0.005432404353741497,0.01151365657442067
-0.005432064353741497,0.01157948368993002
-0.005431724353741497,0.01157948368993002
-0.005431384353741497,0.01200735994073849
-0.005431044353741496,0.01204027349849382
-0.005430704353741497,0.01207318705624838
-0.005430364353741497,0.01240232263379335
-0.005430024353741496,0.01243523619154851
-0.005429684353741497,0.01253397686481218
-0.005429344353741497,0.01315933446214763
-0.005429004353741496,0.01342264292418522
-0.005428664353741497,0.01355429715520345
-0.005428324353741497,0.01319224801990398
-0.005427984353741496,0.01342264292418522
-0.005427644353741497,0.01338972936643066
-0.005427304353741497,0.01276437176909408
-0.005426964353741496,0.01204027349849382
-0.005426624353741497,0.01141491590115724
-0.005426284353741497,0.01111869388136622
-0.005425944353741496,0.01148074301666635
-0.005425604353741497,0.01180987859421192
-0.005425264353741497,0.01306059378888509
-0.005424924353741496,0.01355429715520345
-0.005424584353741497,0.01391634629050358
-0.005424244353741497,0.01394925984825813
-0.005423904353741496,0.01355429715520219
-0.005423564353741497,0.01286311244235775
-0.005423224353741497,0.01207318705624838
-0.005422884353741496,0.0114149159011579
-0.005422544353741497,0.01177696503645737
-0.005422204353741497,0.01213901417175749
-0.005421864353741496,0.01236940907603999
-0.005421524353741497,0.01269854465358496
-0.005421184353741497,0.01391634629050358
-0.005420844353741496,0.01467335811885947
-0.005420504353741497,0.01526580215844042
-0.005420164353741497,0.01549619706272232
-0.005419824353741496,0.0152328886006858
-0.005419484353741497,0.01519997504293131
-0.005419144353741497,0.01506832081191307
-0.005418804353741496,0.01477209879212122
-0.005418464353741497,0.01431130898355826
-0.005418124353741497,0.01454170388784016
-0.005417784353741496,0.01441004965682241
-0.005417444353741497,0.01467335811885839
-0.005417104353741497,0.01556202417823143
-0.005416764353741496,0.01658234446862372
-0.005416424353741497,0.01714187495045017
-0.005416084353741497,0.01720770206595929
-0.005415744353741496,0.01727352918146774
-0.005415404353741497,0.01691148004616827
-0.005415064353741497,0.01684565293065916
-0.005414724353741497,0.01625320889107821
-0.005414384353741497,0.01579241908251333
-0.005414044353741497,0.01539745638945865
-0.005413704353741497,0.0148050123498777
-0.005413364353741497,0.01401508696376725
-0.005413024353741497,0.01408091407927636
