Analysis/New Tests_CMB/wrd01_d2s01/cmb12_ch15.csv

#Digilent WaveForms Oscilloscope Acquisition
#Device Name: ADP3450
#Serial Number: SN:210018B9D9B0
#Date Time: 2024-08-15 11:47:58.952.778.430
#Sample rate: 5.88235e+06Hz
#Samples: 32768
#Trigger: Source: Channel 3 Type: Edge Condition: Rising Level: 40 mV Hyst.: Auto HoldOff: 0 s
#Channel 3: Range: 100 mV/div Offset: 0 V Attenuation: 1 X Coupling: DC Bandwidth: 0 Hz Sample Mode: Average

Time (s),Channel 3 (V)
-0.003168853137067081,0.02355612165509913
-0.003168683137067081,0.02335864030857095
-0.003168513137067081,0.02289785050000799
-0.003168343137067081,0.02270036915348065
-0.003168173137067081,0.02253580136470697
-0.003168003137067081,0.02204209799838951
-0.003167833137067081,0.02161422174758026
-0.003167663137067081,0.02131799972778901
-0.003167493137067081,0.02118634549677102
-0.003167323137067081,0.02102177770799824
-0.003167153137067081,0.02049516078392407
-0.003166983137067081,0.01980397607107963
-0.003166813137067081,0.0192115320314976
-0.003166643137067081,0.01852034731864974
-0.003166473137067081,0.01733545923948784
-0.003166303137067081,0.01664427452664214
-0.003166133137067081,0.01588726269828631
-0.003165963137067081,0.01532773221645986
-0.003165793137067081,0.01486694240789606
-0.003165623137067081,0.01427449836831307
-0.003165453137067081,0.01374788144424112
-0.003165283137067081,0.01335291875118643
-0.003165113137067081,0.01299086961588696
-0.003164943137067081,0.01269464759609529
-0.003164773137067081,0.01262882048058617
-0.003164603137067081,0.01299086961588564
-0.003164433137067081,0.01292504250037719
-0.003164263137067081,0.01348457298220466
-0.003164093137067081,0.01364914077097715
-0.003163923137067081,0.01430741192606859
-0.003163753137067081,0.01489985596565062
-0.003163583137067081,0.01499859663891411
-0.003163413137067081,0.01549230000523264
-0.003163243137067081,0.01582143558277821
-0.003163073137067081,0.01628222539134118
-0.003162903137067081,0.01628222539134202
-0.003162733137067081,0.01661136096888758
-0.003162563137067081,0.0164467931801151
-0.003162393137067081,0.0164467931801148
-0.003162223137067081,0.01634805250685113
-0.003162053137067081,0.01565686779400668
-0.003161883137067081,0.015986003371551
-0.003161713137067081,0.01526190510095074
-0.003161543137067081,0.01539355933196873
-0.003161373137067081,0.0155252135629872
-0.003161203137067081,0.01549230000523264
-0.003161033137067081,0.01509733731217868
-0.003160863137067081,0.01476820173463239
-0.003160693137067081,0.01417575769505036
-0.003160523137067081,0.01397827634852302
-0.003160353137067081,0.01384662211750479
-0.003160183137067081,0.01325417807792276
-0.003160013137067081,0.01387953567525935
-0.003159843137067081,0.01522899154319619
-0.003159673137067081,0.01328709163567732
-0.003159503137067081,0.0139124492330139
-0.003159333137067081,0.01371496788648548
-0.003159163137067081,0.01312252384690453
-0.003158993137067081,0.01289212894262263
-0.003158823137067081,0.01210220355651272
-0.003158653137067081,0.01180598153672225
-0.003158483137067081,0.01167432730570402
-0.003158313137067081,0.01150975951693129
-0.003158143137067081,0.01154267307468579
-0.003157973137067081,0.01187180865223136
-0.003157803137067081,0.01124645105489501
-0.003157633137067081,0.011378105285913
-0.003157463137067081,0.0116085001901949
-0.003157293137067081,0.0105881798998083
-0.003157123137067081,0.01315543740465909
-0.003156953137067081,0.01216803067202238
-0.003156783137067081,0.01253007980732244
-0.003156613137067081,0.01249716624956795
-0.003156443137067081,0.01210220355651326
-0.003156273137067081,0.01226677134528599
-0.003156103137067081,0.01223385778753149
-0.003155933137067081,0.01239842557630427
-0.003155763137067081,0.01295795605813175
-0.003155593137067081,0.01295795605813175
-0.003155423137067081,0.01279338826935896
-0.003155253137067081,0.01285921538486897
-0.003155083137067081,0.01335291875118643
-0.003154913137067081,0.01358331365546833
-0.003154743137067081,0.01410993057954029
-0.003154573137067081,0.01417575769505036
-0.003154403137067081,0.01417575769505036
-0.003154233137067081,0.01427449836831385
-0.003154063137067081,0.01443906615708682
-0.003153893137067081,0.01539355933196897
-0.003153723137067081,0.01289212894262718
-0.003153553137067081,0.01470237461912327
-0.003153383137067081,0.0134516594244501
-0.003153213137067081,0.01236551201855169
-0.003153043137067081,0.01180598153672225
-0.003152873137067081,0.01187180865223136
-0.003152703137067081,0.01131227817040491
-0.003152533137067081,0.01085148836184009
-0.003152363137067081,0.01035778499552173
-0.003152193137067081,0.009864081629204276
-0.003152023137067081,0.009271637589621349
-0.003151853137067081,0.009074156243094007
-0.003151683137067081,0.008086749510459089
-0.003151513137067081,0.00881084778105755
-0.003151343137067081,0.008152576625966409
-0.003151173137067081,0.008152576625966409
-0.003151003137067081,0.008448798645757422
-0.003150833137067081,0.008481712203511979
-0.003150663137067081,0.008876674896565946
-0.003150493137067081,0.008876674896566664
-0.003150323137067081,0.007724700375157166
-0.003150153137067081,0.009469118936148692
-0.003149983137067081,0.00904124268533945
-0.003149813137067081,0.009074156243094007
-0.003149643137067081,0.00904124268533945
-0.003149473137067081,0.00950203249390325
-0.003149303137067081,0.01006156297573072
-0.003149133137067081,0.01078566124633098
-0.003148963137067081,0.01134519172815845
-0.003148793137067081,0.01157558663244035
-0.003148623137067081,0.01167432730570402
-0.003148453137067081,0.0116414137479506
-0.003148283137067081,0.01226677134528605
-0.003148113137067081,0.01226677134528605
-0.003147943137067081,0.01295795605813157
-0.003147773137067081,0.01285921538486808
-0.003147603137067081,0.01374788144424112
-0.003147433137067081,0.01341874586669573
-0.003147263137067081,0.01351748653995922
-0.003147093137067081,0.01374788144424112
-0.003146923137067081,0.01312252384690381
-0.003146753137067081,0.01272756115384985
-0.003146583137067081,0.01210220355651326
-0.003146413137067081,0.01183889509447585
-0.003146243137067081,0.01131227817040389
-0.003146073137067081,0.01048943922653996
-0.003145903137067081,0.009600773167166022
-0.003145733137067081,0.009107069800848565
-0.003145563137067081,0.008876674896566664
-0.003145393137067081,0.008317144414738116
-0.003145223137067081,0.007724700375157166
-0.003145053137067081,0.008218403741475522
-0.003144883137067081,0.007790527490666639
-0.003144713137067081,0.007988008837193623
-0.003144543137067081,0.008547539319021094
-0.003144373137067081,0.008152576625968026
-0.003144203137067081,0.00904124268533945
-0.003144033137067081,0.01052235278429452
-0.003143863137067081,0.01065400701531251
-0.003143693137067081,0.01098314259285832
-0.003143523137067081,0.0122996849030406
-0.003143353137067081,0.01210220355651362
-0.003143183137067081,0.01266173403834073
-0.003143013137067081,0.01246425269181339
-0.003142843137067081,0.01243133913405889
-0.003142673137067081,0.01170724086345858
-0.003142503137067081,0.01174015442121313
-0.003142333137067081,0.01141101884366816
-0.003142163137067081,0.01121353749714022
-0.003141993137067081,0.01108188326612199
-0.003141823137067081,0.01091731547734951
-0.003141653137067081,0.01022613076450351
-0.003141483137067081,0.009929908744712493
-0.003141313137067081,0.009732427398185509
-0.003141143137067081,0.009765340955939707
-0.003140973137067081,0.00904124268533945
-0.003140803137067081,0.0108514883618368
-0.003140633137067081,0.009107069800848565
-0.003140463137067081,0.008613366434530208
-0.003140293137067081,0.008218403741476241
-0.003140123137067081,0.008152576625966409
-0.003139953137067081,0.007263910566593366
-0.003139783137067081,0.007099342777820581
-0.003139613137067081,0.006276503833956653
-0.003139443137067081,0.005881541140901968
-0.003139273137067081,0.005453664890092726
-0.003139103137067081,0.005782800467638296
-0.003138933137067081,0.005980281814165639
-0.003138763137067081,0.005947368256411082
-0.003138593137067081,0.006177763160692982
-0.003138423137067081,0.006638552969256781
-0.003138253137067081,0.007296824124347924
-0.003138083137067081,0.007625959701894692
-0.003137913137067081,0.008284230856984636
-0.003137743137067081,0.008942502012075779
-0.003137573137067081,0.009370378262885261
-0.003137403137067081,0.00950203249390325
-0.003137233137067081,0.01029195788001262
-0.003137063137067081,0.01114771038163146
-0.003136893137067081,0.01134519172815845
-0.003136723137067081,0.011378105285913
-0.003136553137067081,0.0125300798073216
-0.003136383137067081,0.01203637644100415
-0.003136213137067081,0.01239842557630427
-0.003136043137067081,0.01259590692283311
-0.003135873137067081,0.01341874586669555
-0.003135703137067081,0.01351748653995922
-0.003135533137067081,0.01397827634852344
-0.003135363137067081,0.01420867125280492
-0.003135193137067081,0.01417575769505036
-0.003135023137067081,0.01391244923301312
-0.003134853137067081,0.01348457298220466
-0.003134683137067081,0.01262882048058617
-0.003134513137067081,0.01332000519343068
-0.003134343137067081,0.01266173403834073
-0.003134173137067081,0.01236551201854972
-0.003134003137067081,0.01210220355651236
-0.003133833137067081,0.0116085001901949
-0.003133663137067081,0.01091731547734921
-0.003133493137067081,0.009896995186959792
-0.003133323137067081,0.009271637589621349
-0.003133153137067081,0.009074156243094007
-0.003132983137067081,0.00831714441474057
-0.003132813137067081,0.007658873259648051
-0.003132643137067081,0.00677020720027501
-0.003132473137067081,0.006737293642520513
-0.003132303137067081,0.006342330949465767
-0.003132133137067081,0.005651146236620068
-0.003131963137067081,0.005223269985811603
-0.003131793137067081,0.005387837774583611
-0.003131623137067081,0.005453664890092726
-0.003131453137067081,0.004894134408266272
-0.003131283137067081,0.005453664890092726
-0.003131113137067081,0.005914454698656525
-0.003130943137067081,0.005716973352129541
-0.003130773137067081,0.006046108929674754
-0.003130603137067081,0.006046108929674754
-0.003130433137067081,0.006309417391710731
-0.003130263137067081,0.00700060210455691
-0.003130093137067081,0.006967688546802352
-0.003129923137067081,0.006803120758029866
-0.003129753137067081,0.007132256335575138
-0.003129583137067081,0.006836034315784124
-0.003129413137067081,0.007230997008838091
-0.003129243137067081,0.006967688546802352
-0.003129073137067081,0.007165169893329695
-0.003128903137067081,0.007428478355366152
-0.003128733137067081,0.007724700375157166
-0.003128563137067081,0.008514625761266537
-0.003128393137067081,0.008745020665548437
-0.003128223137067081,0.009172896916357679
-0.003128053137067081,0.009469118936148692
-0.003127883137067081,0.009271637589621349
-0.003127713137067081,0.008942502012077276
-0.003127543137067081,0.009765340955939707
-0.003127373137067081,0.009666600282676035
-0.003127203137067081,0.009403291820640177
-0.003127033137067081,0.00973242739818515
-0.003126863137067081,0.009699513840430593
-0.003126693137067081,0.008909588454320803
-0.003126523137067081,0.008679193550039321
-0.003126353137067081,0.007988008837193623
-0.003126183137067081,0.007658873259649129
-0.003126013137067081,0.008251317299230079
-0.003125843137067081,0.007099342777820581
-0.003125673137067081,0.00677020720027471
-0.003125503137067081,0.006605639411502225
-0.003125333137067081,0.006605639411502225
-0.003125163137067081,0.00732973768210254
-0.003124993137067081,0.007362651239857037
-0.003124823137067081,0.007033515662311467
-0.003124653137067081,0.007000602104556611
-0.003124483137067081,0.006836034315784124
-0.003124313137067081,0.006671466527011338
-0.003124143137067081,0.006441071622730157
-0.003123973137067081,0.006836034315784124
-0.003123803137067081,0.007362651239857037
-0.003123633137067081,0.008152576625965691
-0.003123463137067081,0.007757613932911723
-0.003123293137067081,0.008185490183720966
-0.003123123137067081,0.008580452876774933
-0.003122953137067081,0.008514625761266537
-0.003122783137067081,0.009074156243094007
-0.003122613137067081,0.008909588454321523
-0.003122443137067081,0.008843761338812107
-0.003122273137067081,0.009139983358603122
-0.003122103137067081,0.009205810474112116
-0.003121933137067081,0.007691786817402609
-0.003121763137067081,0.008843761338812107
-0.003121593137067081,0.00821840374147666
-0.003121423137067081,0.007955095279439066
-0.003121253137067081,0.007823441048420837
-0.003121083137067081,0.008481712203510782
-0.003120913137067081,0.007625959701893495
-0.003120743137067081,0.007691786817402609
-0.003120573137067081,0.007691786817402609
-0.003120403137067081,0.00700060210455691
-0.003120233137067081,0.006868947873538681
-0.003120063137067081,0.006111936045185245
-0.003119893137067081,0.00677020720027501
-0.003119723137067081,0.006836034315784124
-0.003119553137067081,0.007099342777820102
-0.003119383137067081,0.007494305470875266
-0.003119213137067081,0.007395564797611595
-0.003119043137067081,0.007033515662312125
-0.003118873137067081,0.007625959701893495
-0.003118703137067081,0.006671466527011338
-0.003118533137067081,0.006901861431293239
-0.003118363137067081,0.006375244507220324
-0.003118193137067081,0.006836034315784124
-0.003118023137067081,0.00677020720027501
-0.003117853137067081,0.006967688546802352
-0.003117683137067081,0.007461391913120709
-0.003117513137067081,0.008086749510457293
-0.003117343137067081,0.008547539319021094
-0.003117173137067081,0.008646279992284765
-0.003117003137067081,0.009337464705130465
-0.003116833137067081,0.009929908744713032
-0.003116663137067081,0.01022613076450351
-0.003116493137067081,0.01052235278429452
-0.003116323137067081,0.01085148836184027
-0.003116153137067081,0.01095022903510376
-0.003115983137067081,0.01098314259285832
-0.003115813137067081,0.01101605615061276
-0.003115643137067081,0.01095022903510376
-0.003115473137067081,0.01101605615061288
-0.003115303137067081,0.01157558663243957
-0.003115133137067081,0.01114771038163111
-0.003114963137067081,0.01147684595917668
-0.003114793137067081,0.01131227817040413
-0.003114623137067081,0.01144393240142212
-0.003114453137067081,0.01101605615061288
-0.003114283137067081,0.01048943922654032
-0.003114113137067081,0.01068692057306731
-0.003113943137067081,0.01022613076450351
-0.003113773137067081,0.01042361211103073
-0.003113603137067081,0.01035778499552173
-0.003113433137067081,0.00950203249390325
-0.003113263137067081,0.00953494605165673
-0.003113093137067081,0.008942502012075779
-0.003112923137067081,0.008514625761266537
-0.003112753137067081,0.007790527490664364
-0.003112583137067081,0.006737293642520453
-0.003112413137067081,0.00653981229599311
-0.003112243137067081,0.007658873259646016
-0.003112073137067081,0.007428478355366152
-0.003111903137067081,0.007428478355366152
-0.003111733137067081,0.007560132586384141
-0.003111563137067081,0.00756013258638438
-0.003111393137067081,0.007625959701893495
-0.003111223137067081,0.008086749510456456
-0.003111053137067081,0.00802092239494818
-0.003110883137067081,0.007757613932911723
-0.003110713137067081,0.007560132586384739
-0.003110543137067081,0.007230997008838809
-0.003110373137067081,0.008185490183720966
-0.003110203137067081,0.007823441048421496
-0.003110033137067081,0.008745020665548437
-0.003109863137067081,0.00973242739818515
-0.003109693137067081,0.009205810474113193
-0.003109523137067081,0.008185490183720966
-0.003109353137067081,0.009238724031866792
-0.003109183137067081,0.009732427398184251
-0.003109013137067081,0.01039069855327629
-0.003108843137067081,0.01016030364899439
-0.003108673137067081,0.009567859609413441
-0.003108503137067081,0.008909588454321223
-0.003108333137067081,0.009436205378394135
-0.003108163137067081,0.008613366434531705
-0.003107993137067081,0.009008329127584893
-0.003107823137067081,0.009139983358603122
-0.003107653137067081,0.009139983358603122
-0.003107483137067081,0.009107069800848565
-0.003107313137067081,0.009633686724921478
-0.003107143137067081,0.01012739009123984
-0.003106973137067081,0.01052235278429452
-0.003106803137067081,0.01019321720674895
-0.003106633137067081,0.01065400701531275
-0.003106463137067081,0.01035778499552245
-0.003106293137067081,0.01075274768857642
-0.003106123137067081,0.01101605615061288
-0.003105953137067081,0.01078566124633056
-0.003105783137067081,0.01055526634204908
-0.003105613137067081,0.009666600282676035
-0.003105443137067081,0.009600773167165006
-0.003105273137067081,0.008547539319021094
-0.003105103137067081,0.007691786817402609
-0.003104933137067081,0.006934774989047137
-0.003104763137067081,0.006572725853747667
-0.003104593137067081,0.006144849602938425
-0.003104423137067081,0.005914454698656405
-0.003104253137067081,0.005848627583147411
-0.003104083137067081,0.005585319121110954
-0.003103913137067081,0.005289097101320538
-0.003103743137067081,0.005618232678865511
-0.003103573137067081,0.005848627583147411
-0.003103403137067081,0.006243590276202994
-0.003103233137067081,0.006737293642520453
-0.003103063137067081,0.006934774989047795
-0.003102893137067081,0.006177763160694539
-0.003102723137067081,0.007033515662311467
-0.003102553137067081,0.007132256335575138
-0.003102383137067081,0.007230997008838989
-0.003102213137067081,0.007329737682102481
-0.003102043137067081,0.007527219028629823
-0.003101873137067081,0.008185490183719769
-0.003101703137067081,0.006638552969256781
-0.003101533137067081,0.008053835952702737
-0.003101363137067081,0.007691786817403267
-0.003101193137067081,0.007724700375157166
-0.003101023137067081,0.007362651239857037
-0.003100853137067081,0.007033515662312065
-0.003100683137067081,0.007724700375157166
-0.003100513137067081,0.006836034315784124
-0.003100343137067081,0.006605639411502644
-0.003100173137067081,0.006441071622729439
-0.003100003137067081,0.007066429220066024
-0.003099833137067081,0.006737293642521051
-0.003099663137067081,0.00653981229599311
-0.003099493137067081,0.006572725853747667
-0.003099323137067081,0.006309417391711689
-0.003099153137067081,0.006441071622729439
-0.003098983137067081,0.006177763160692982
-0.003098813137067081,0.00630941739171097
-0.003098643137067081,0.006243590276202096
-0.003098473137067081,0.006605639411502225
-0.003098303137067081,0.007230997008837671
-0.003098133137067081,0.007625959701893495
-0.003097963137067081,0.008152576625966409
-0.003097793137067081,0.008843761338810849
-0.003097623137067081,0.009403291820639578
-0.003097453137067081,0.009337464705130465
-0.003097283137067081,0.009896995186957936
-0.003097113137067081,0.01052235278429452
-0.003096943137067081,0.01104896970836743
-0.003096773137067081,0.01134519172815845
-0.003096603137067081,0.01157558663244035
-0.003096433137067081,0.01167432730570402
-0.003096263137067081,0.01154267307468579
-0.003096093137067081,0.0116085001901949
-0.003095923137067081,0.01118062393938566
-0.003095753137067081,0.01108188326612199
-0.003095583137067081,0.0110489697083666
-0.003095413137067081,0.01058817989980363
-0.003095243137067081,0.01055526634204908
-0.003095073137067081,0.01048943922653913
-0.003094903137067081,0.01002864941797616
-0.003094733137067081,0.009929908744712493
-0.003094563137067081,0.009534946051657927
-0.003094393137067081,0.009600773167166921
-0.003094223137067081,0.009370378262885021
-0.003094053137067081,0.009567859609412125
-0.003093883137067081,0.009436205378394135
-0.003093713137067081,0.008745020665548437
-0.003093543137067081,0.01058817989979968
-0.003093373137067081,0.008415885088002865
-0.003093203137067081,0.00700060210455691
-0.003093033137067081,0.00815257662596563
-0.003092863137067081,0.007724700375157166
-0.003092693137067081,0.008613366434530208
-0.003092523137067081,0.008284230856985056
-0.003092353137067081,0.008514625761266537
-0.003092183137067081,0.00904124268533945
-0.003092013137067081,0.008942502012076138
-0.003091843137067081,0.009139983358603122
-0.003091673137067081,0.009008329127584893
-0.003091503137067081,0.009534946051657148
-0.003091333137067081,0.009172896916357679
-0.003091163137067081,0.008909588454321223
-0.003090993137067081,0.00904124268533921
-0.003090823137067081,0.009172896916357679
-0.003090653137067081,0.008317144414739193
