Analysis/New Tests_CMB/wrd01_d2s01/cmb10_ch28.csv

#Digilent WaveForms Oscilloscope Acquisition
#Device Name: ADP3450
#Serial Number: SN:210018B9D9B0
#Date Time: 2024-08-07 11:53:11.426.692.390
#Sample rate: 2.94118e+06Hz
#Samples: 32768
#Trigger: Source: Channel 3 Type: Edge Condition: Rising Level: 0 V Hyst.: Auto HoldOff: 0 s
#Channel 3: Range: 200 mV/div Offset: 0 V Attenuation: 1 X Coupling: DC Bandwidth: 0 Hz Sample Mode: Average

Time (s),Channel 3 (V)
-0.005570220000000001,0.01025904432225806
-0.00556988,0.009864081629203617
-0.00556954,0.009995735860221606
-0.005569200000000001,0.01045652566878541
-0.00556886,0.01101605615061407
-0.00556852,0.01167432730570402
-0.005568180000000001,0.01213511711426782
-0.00556784,0.01229968490304168
-0.0055675,0.01289212894262263
-0.005567160000000001,0.01282630182711352
-0.00556682,0.01302378317364134
-0.00556648,0.01328709163567732
-0.005566140000000001,0.01341874586669555
-0.0055658,0.01318835096241436
-0.00556546,0.01358331365546833
-0.005565120000000001,0.0139124492330139
-0.00556478,0.01364914077097721
-0.00556444,0.01351748653995922
-0.005564100000000001,0.01335291875118643
-0.00556376,0.01312252384690399
-0.00556342,0.01282630182711352
-0.005563080000000001,0.01279338826935896
-0.005562740000000001,0.01282630182711346
-0.0055624,0.01328709163567732
-0.005562060000000001,0.01394536279076846
-0.005561720000000001,0.01499859663891237
-0.00556138,0.0157556084672691
-0.005561040000000001,0.01638096606460569
-0.005560700000000001,0.01661136096888716
-0.00556036,0.01661136096888758
-0.005560020000000001,0.01654553385337847
-0.005559680000000001,0.01605183048706101
-0.00555934,0.01539355933196897
-0.005559000000000001,0.01476820173463239
-0.005558660000000001,0.01397827634852445
-0.00555832,0.01374788144424112
-0.005557980000000001,0.01295795605813175
-0.005557640000000001,0.01305669673139524
-0.0055573,0.01272756115384985
-0.005556960000000001,0.01295795605813175
-0.005556620000000001,0.01318835096241323
-0.00555628,0.01341874586669555
-0.005555940000000001,0.0132212645201682
-0.005555600000000001,0.01295795605813222
-0.00555526,0.01279338826935896
-0.005554920000000001,0.01203637644100415
-0.005554580000000001,0.01187180865223166
-0.00555424,0.01108188326612199
-0.005553900000000001,0.01118062393938566
-0.005553560000000001,0.01124645105489478
-0.00555322,0.01095022903510376
-0.00555288,0.01068692057306731
-0.005552540000000001,0.01095022903510376
-0.0055522,0.01187180865223136
-0.00555186,0.01371496788648656
-0.005551520000000001,0.01815829818335177
-0.00555118,0.02806527906750525
-0.00555084,0.04554237823514328
-0.005550500000000001,0.06996423808902466
-0.00555016,0.1005409332430703
-0.00554982,0.1347052061922385
-0.005549480000000001,0.1696594045275781
-0.00554914,0.2020134318003582
-0.0055488,0.2297266474296449
-0.005548460000000001,0.2512850277588797
-0.00554812,0.2663923507682374
-0.00554778,0.2751473571309336
-0.005547440000000001,0.2793932060812715
-0.0055471,0.2789982433882109
-0.00554676,0.2757727147282703
-0.005546420000000001,0.2699470150057136
-0.00554608,0.2632326492237686
-0.00554574,0.2547738648808628
-0.005545400000000001,0.2458872042871324
-0.00554506,0.2376588148484778
-0.00554472,0.2292329440633265
-0.005544380000000001,0.2218273935685511
-0.00554404,0.2147509786513096
-0.0055437,0.2082999213314282
-0.005543360000000001,0.2031654063217173
-0.00554302,0.1976359286189412
-0.00554268,0.1919089695696587
-0.005542340000000001,0.1857870478273111
-0.005542000000000001,0.1796651260849746
-0.00554166,0.1732469823228248
-0.005541320000000001,0.1665326165408952
-0.005540980000000001,0.1599499049899958
-0.00554064,0.1540912917096726
-0.005540300000000001,0.1481668513138523
-0.005539960000000001,0.1420778431292704
-0.00553962,0.1364167111954754
-0.005539280000000001,0.1313480233012737
-0.005538940000000001,0.1258185455985181
-0.0055386,0.1217701779946976
-0.005538260000000001,0.117129366351305
-0.005537920000000001,0.1128506038432204
-0.00553758,0.1087034955661384
-0.005537240000000001,0.1056754482527191
-0.005536900000000001,0.1030423636323593
-0.00553656,0.1006725874740264
-0.005536220000000001,0.0982369842001892
-0.005535880000000001,0.09609760294614689
-0.00553554,0.093793653903324
-0.005535200000000001,0.09089726082092298
-0.005534860000000001,0.08800086773852722
-0.00553452,0.08510447465612092
-0.005534180000000001,0.08240556292024726
-0.005533840000000001,0.08010161387743245
-0.0055335,0.0777647512768547
-0.005533160000000001,0.07480253107894455
-0.005532820000000001,0.07230110068959822
-0.00553248,0.06920722626066983
-0.00553214,0.06677162298683262
-0.005531800000000001,0.06499429086808653
-0.00553146,0.06367774855790426
-0.00553112,0.06292073672954943
-0.005530780000000001,0.06167002153487627
-0.00553044,0.06081426903325778
-0.0055301,0.05959646739633917
-0.005529760000000001,0.05841157931717511
-0.00552942,0.05643676585189756
-0.00552908,0.05416573036683724
-0.005528740000000001,0.05156555930422723
-0.0055284,0.04926161026140422
-0.00552806,0.04705640189185291
-0.005527720000000001,0.04527906977310683
-0.00552738,0.04419292236720548
-0.00552704,0.04366630544313353
-0.005526700000000001,0.04271181226825137
-0.00552636,0.04228393601744111
-0.00552602,0.04172440553561466
-0.005525680000000001,0.04139526995806909
-0.00552534,0.04096739370725912
-0.005525,0.04057243101420516
-0.005524660000000001,0.03925588870402288
-0.00552432,0.03741272946976468
-0.00552398,0.03576705158203982
-0.005523640000000001,0.03402263302104829
-0.0055233,0.03264026359535432
-0.00552296,0.03122498061191094
-0.005522620000000001,0.03043505522580157
-0.00552228,0.02964512983969023
-0.00552194,0.02855898243379182
-0.005521600000000001,0.0280323655097189
-0.00552126,0.02684747743055407
-0.00552092,0.0264196011797456
-0.005520580000000001,0.02638668762199104
-0.005520240000000001,0.02632086050648205
-0.0055199,0.02773614348992789
-0.005519560000000001,0.02915142647337384
-0.005519220000000001,0.03007300609049977
-0.00551888,0.03036922811029246
-0.005518540000000001,0.02954638916642853
-0.005518200000000001,0.02836150108726663
-0.00551786,0.02701204521932763
-0.005517520000000001,0.02582715714016358
-0.005517180000000001,0.02503723175405564
-0.00551684,0.02464226906099952
-0.005516500000000001,0.02418147925243572
-0.005516160000000001,0.02385234367489075
-0.00551582,0.02349029453959002
-0.005515480000000001,0.02266745559572609
-0.005515140000000001,0.02191044376737266
-0.0055148,0.02082429636147089
-0.005514460000000001,0.02010019809087064
-0.005514120000000001,0.01957358116679868
-0.00551378,0.01947484049353405
-0.005513440000000001,0.01940901337802494
-0.005513100000000001,0.01917861847374346
-0.00551276,0.01907987780047937
-0.005512420000000001,0.01950775405128861
-0.005512080000000001,0.01950775405128861
-0.00551174,0.01954066760904317
-0.005511400000000001,0.01931027270476127
-0.005511060000000001,0.01861908799191557
-0.00551072,0.01812538462559721
-0.00551038,0.01710506433520594
-0.005510040000000001,0.01687466943092404
-0.0055097,0.01592017625604189
-0.00550936,0.01601891692930556
-0.005509020000000001,0.01611765760256923
-0.00550868,0.01638096606460622
-0.00550834,0.0166771880843967
-0.005508000000000001,0.01680884231541493
-0.00550766,0.0169075829886795
-0.00550732,0.01740128635499695
-0.005506980000000001,0.01779624904805164
-0.00550664,0.01822412529886125
-0.0055063,0.01842160664538823
-0.005505960000000001,0.01884948289619747
-0.00550562,0.0192115320314967
-0.00550528,0.01871782866517924
-0.005504940000000001,0.01881656933844291
-0.0055046,0.01796081683682311
-0.00550426,0.01723671856622417
-0.005503920000000001,0.01601891692930556
-0.00550358,0.01457072038810397
-0.00550324,0.01397827634852302
-0.005502900000000001,0.01364914077097745
-0.00550256,0.013254178077923
-0.00550222,0.01338583230894099
-0.005501880000000001,0.01318835096241365
-0.00550154,0.01338583230894057
-0.0055012,0.01315543740465909
-0.005500860000000001,0.01440615259933226
-0.00550052,0.01522899154319876
-0.00550018,0.01664427452664214
-0.005499840000000001,0.01756585414376974
-0.005499500000000001,0.01842160664538667
-0.00549916,0.01911279135823393
-0.005498820000000001,0.0185203473186519
-0.005498480000000001,0.01835577952987941
-0.00549814,0.01792790327906987
-0.005497800000000001,0.0175987677015243
-0.005497460000000001,0.01684175587317086
-0.00549712,0.01578852202502366
-0.005496780000000001,0.01476820173463239
-0.005496440000000001,0.01361622721322498
-0.0054961,0.0127604747116044
-0.005495760000000001,0.01233259846079516
-0.005495420000000001,0.01206928999875918
-0.00549508,0.01180598153672225
-0.005494740000000001,0.01187180865223136
-0.005494400000000001,0.01183889509447686
-0.00549406,0.011378105285913
-0.005493720000000001,0.011378105285913
-0.005493380000000001,0.01104896970836803
-0.00549304,0.01095022903510376
-0.005492700000000001,0.01114771038163111
-0.005492360000000001,0.01183889509447555
-0.00549202,0.01302378317364086
-0.005491680000000001,0.01308961028914997
-0.005491340000000001,0.01414284413729389
-0.005491,0.01493276952340517
-0.005490660000000001,0.01628222539134202
-0.005490320000000001,0.01763168125927886
-0.00548998,0.01934318626251582
-0.00548964,0.02039642011066165
-0.005489300000000001,0.02115343193901647
-0.00548896,0.02184461665186217
-0.00548862,0.02187753020961672
-0.005488280000000001,0.02056098789943444
-0.00548794,0.0191786184737416
-0.0054876,0.01838869308763367
-0.005487260000000001,0.01654553385337847
-0.00548692,0.01513025086993012
-0.00548658,0.01381370855975023
-0.005486240000000001,0.01289212894262263
-0.0054859,0.01243133913405847
-0.00548556,0.01223385778753149
-0.005485220000000001,0.01216803067202238
-0.00548488,0.01253007980732328
-0.00548454,0.01295795605813175
-0.005484200000000001,0.01315543740465909
-0.00548386,0.01279338826935872
-0.00548352,0.01266173403834073
-0.005483180000000001,0.01220094422977693
-0.00548284,0.01223385778753155
-0.0054825,0.01226677134528605
-0.005482160000000001,0.01315543740465909
-0.00548182,0.01295795605813306
-0.00548148,0.013682054328732
-0.005481140000000001,0.01424158481055947
-0.0054808,0.01483402885014216
-0.00548046,0.01519607798544163
-0.005480120000000001,0.01588726269828733
-0.00547978,0.0153606457742128
-0.00547944,0.01447197971484137
-0.005479100000000001,0.0134516594244501
-0.005478760000000001,0.01266173403834217
-0.00547842,0.01174015442121313
-0.005478080000000001,0.01121353749714022
-0.005477740000000001,0.01045652566878678
-0.0054774,0.01025904432225806
-0.005477060000000001,0.01045652566878541
-0.005476720000000001,0.01078566124633038
-0.00547638,0.01164141374794946
-0.005476040000000001,0.01262882048058617
-0.005475700000000001,0.01381370855974808
-0.00547536,0.01440615259933226
-0.005475020000000001,0.01545938644747809
-0.005474680000000001,0.01621639827583152
-0.00547434,0.01647970673786936
-0.005474000000000001,0.01680884231541493
-0.005473660000000001,0.01654553385337895
-0.00547332,0.01664427452664214
-0.005472980000000001,0.01657844741113303
-0.005472640000000001,0.01677592875766001
-0.0054723,0.0162163982758329
-0.005471960000000001,0.0164467931801148
-0.005471620000000001,0.01657844741113279
-0.00547128,0.01601891692930556
-0.005470940000000001,0.01611765760256923
-0.005470600000000001,0.01592017625604225
-0.00547026,0.0152948186587053
-0.005469920000000001,0.01503151019666884
-0.005469580000000001,0.01447197971484137
-0.00546924,0.01381370855975023
-0.0054689,0.01325417807792276
-0.005468560000000001,0.01318835096241365
-0.00546822,0.013682054328732
-0.00546788,0.01381370855975023
-0.005467540000000001,0.01420867125280492
-0.0054672,0.01430741192606859
-0.00546686,0.01427449836831403
-0.005466520000000001,0.01450489327259593
-0.00546618,0.01473528817687825
-0.00546584,0.01496568308115973
-0.005465500000000001,0.01555812712074176
-0.00546516,0.0169404965464313
-0.00546482,0.01592017625604189
-0.005464480000000001,0.01717089145071506
-0.00546414,0.01769750837478647
-0.0054638,0.01687466943092404
-0.005463460000000001,0.01697341010418771
-0.00546312,0.01615057116032187
-0.00546278,0.01509733731217796
-0.005462440000000001,0.01410993057954124
-0.0054621,0.01328709163567612
-0.00546176,0.01262882048058617
-0.005461420000000001,0.01210220355651326
-0.00546108,0.01180598153672255
-0.00546074,0.01197054932549503
-0.005460400000000001,0.01269464759609529
-0.00546006,0.01391244923301552
-0.00545972,0.01480111529238694
-0.005459380000000001,0.01582143558277821
-0.00545904,0.01697341010418789
-0.0054587,0.01707215077745139
-0.005458360000000001,0.01638096606460569
-0.00545802,0.0155910406784944
-0.00545768,0.01453780683035049
-0.005457340000000001,0.01318835096241365
-0.005457000000000001,0.01246425269181471
-0.00545666,0.01177306797896769
-0.005456320000000001,0.01134519172815845
-0.005455980000000001,0.01118062393938596
-0.00545564,0.01121353749714022
-0.005455300000000001,0.01164141374794946
-0.005454960000000001,0.01269464759609337
-0.00545462,0.01374788144424112
-0.005454280000000001,0.01486694240789606
-0.005453940000000001,0.01513025086993204
-0.0054536,0.01578852202502366
-0.005453260000000001,0.01601891692930556
-0.005452920000000001,0.01615057116032355
-0.00545258,0.015986003371551
-0.005452240000000001,0.01562395423625087
-0.005451900000000001,0.01608474404481383
-0.00545156,0.01578852202502366
-0.005451220000000001,0.01585434914053277
-0.005450880000000001,0.01506442375442484
-0.00545054,0.0148340288501415
-0.005450200000000001,0.01457072038810504
-0.005449860000000001,0.01447197971484155
-0.00544952,0.01394536279076846
-0.005449180000000001,0.01397827634852302
-0.005448840000000001,0.01391244923301402
-0.0054485,0.01430741192606859
-0.005448160000000001,0.0143732390415777
-0.005447820000000001,0.01427449836831403
-0.00544748,0.0148340288501415
-0.00544714,0.01470237461912327
-0.005446800000000001,0.01473528817687783
-0.00544646,0.01499859663891429
-0.00544612,0.0146036339458596
-0.005445780000000001,0.01424158481055947
-0.00544544,0.01387953567525827
-0.0054451,0.01328709163567732
-0.005444760000000001,0.01282630182711352
-0.00544442,0.01262882048058456
-0.00544408,0.01174015442121313
-0.005443740000000001,0.01114771038163111
-0.0054434,0.01088440191959309
-0.00544306,0.01002864941797616
-0.005442720000000001,0.01071983413082186
-0.00544238,0.01141101884366996
-0.00544204,0.01272756115384985
-0.005441700000000001,0.0139124492330139
-0.00544136,0.01476820173463239
-0.00544102,0.01476820173463239
-0.005440680000000001,0.01489985596565062
-0.00544034,0.01473528817687747
-0.00544,0.01453780683035049
-0.005439660000000001,0.01476820173463239
-0.00543932,0.01552521356298744
-0.00543898,0.01565686779400543
-0.005438640000000001,0.01588726269828733
-0.0054383,0.01621639827583368
-0.00543796,0.01664427452664214
-0.005437620000000001,0.01634805250685113
-0.00543728,0.01549230000523246
-0.00543694,0.01539355933196897
-0.005436600000000001,0.01493276952340517
-0.005436260000000001,0.01532773221645914
-0.00543592,0.015986003371551
-0.005435580000000001,0.01661136096888758
-0.005435240000000001,0.01710506433520504
-0.0054349,0.01789498972131531
-0.005434560000000001,0.01779624904805164
-0.005434220000000001,0.01661136096888974
-0.00543388,0.01480111529238694
-0.005433540000000001,0.01361622721322289
-0.005433200000000001,0.01279338826936046
-0.00543286,0.01190472220998592
-0.005432520000000001,0.01150975951693123
-0.005432180000000001,0.0118718086522307
-0.00543184,0.01223385778753149
-0.005431500000000001,0.01279338826935896
-0.005431160000000001,0.01276047471160446
-0.00543082,0.01190472220998592
-0.005430480000000001,0.01095022903510376
-0.005430140000000001,0.009995735860223343
-0.0054298,0.008415885088002865
-0.005429460000000001,0.005420751332338168
-0.005429120000000001,-0.002182280508950693
-0.00542878,-0.01610471543914218
-0.005428440000000001,-0.03753144153735886
-0.005428100000000001,-0.06590292832173548
-0.00542776,-0.09924436232715345
-0.005427420000000001,-0.1336390301806656
-0.005427080000000001,-0.1657626625491133
-0.00542674,-0.1940354086602779
-0.0054264,-0.2163837143756222
-0.005426060000000001,-0.2320834814245459
-0.00542572,-0.2409701420182764
-0.00542538,-0.2446235469290322
-0.005425040000000001,-0.244195670678223
-0.0054247,-0.2402460437476761
-0.00542436,-0.2337949864277829
-0.005424020000000001,-0.2263236088174984
-0.00542368,-0.2184901820718998
-0.00542334,-0.2107554959995929
-0.005423000000000001,-0.2028562421384992
-0.00542266,-0.194924074719638
-0.00542232,-0.1878147462446666
-0.005421980000000001,-0.180277541518873
-0.00542164,-0.1729378181395946
-0.0054213,-0.1662563659154317
-0.005420960000000001,-0.1600027899420658
-0.00542062,-0.1547366207013268
-0.00542028,-0.1493058836718348
-0.005419940000000001,-0.1440726279888602
-0.0054196,-0.139563470576476
-0.00541926,-0.134132733546984
-0.005418920000000001,-0.1293273541148186
-0.00541858,-0.1236662221810252
-0.00541824,-0.1183671393825511
-0.005417900000000001,-0.1134301057193675
-0.00541756,-0.1081968500363842
-0.00541722,-0.1033914706042276
-0.005416880000000001,-0.09884939963409875
-0.00541654,-0.09407693375968139
-0.0054162,-0.09045644240668668
-0.005415860000000001,-0.08798792557509491
-0.00541552,-0.0845978291263703
-0.00541518,-0.08173434960172904
-0.005414840000000001,-0.07916709209687359
-0.005414500000000001,-0.07580990920591488
-0.00541416,-0.07271603477698041
-0.005413820000000001,-0.06975381457907026
-0.005413480000000001,-0.06715364351646498
-0.00541314,-0.0635989792789681
-0.005412800000000001,-0.06083424042758529
-0.005412460000000001,-0.0582669829227345
-0.00541212,-0.05573263897562894
-0.005411780000000001,-0.05332994925954627
-0.005411440000000001,-0.05102600021673146
-0.0054111,-0.04832708848085359
-0.005410760000000001,-0.04622062078456193
-0.005410420000000001,-0.04437746155031009
-0.00541008,-0.04213933962299685
-0.005409740000000001,-0.04016452615772342
-0.005409400000000001,-0.03825553980796258
-0.00540906,-0.03651112124696759
-0.005408720000000001,-0.03456922133944872
-0.005408380000000001,-0.03213361806561592
-0.00540804,-0.02953344700300148
-0.005407700000000001,-0.02709784372916425
-0.005407360000000001,-0.02564964718796637
-0.00540702,-0.02397105574248133
-0.005406680000000001,-0.02278616766331727
-0.005406340000000001,-0.02140379823762839
-0.005406,-0.02035056438948005
-0.00540566,-0.01916567631031599
-0.005405320000000001,-0.01765165265360636
-0.00540498,-0.01590723409261484
-0.00540464,-0.01478817312895989
-0.005404300000000001,-0.01393242062734141
-0.00540396,-0.01337289014551394
-0.00540362,-0.0127146189904228
-0.005403280000000001,-0.01222091562410444
-0.00540294,-0.01146390379574933
-0.0054026,-0.01129933600697684
-0.005402260000000001,-0.01149681735350419
-0.00540192,-0.01136516312248536
-0.00540158,-0.01103602754494038
-0.005401240000000001,-0.01004862081230367
-0.0054009,-0.008699164944363777
-0.00540056,-0.007020573498884419
-0.005400220000000001,-0.005835685419720362
-0.00539988,-0.005243241380138394
-0.00539954,-0.005276154937892892
-0.005399200000000001,-0.005539463399929348
-0.00539886,-0.005572376957683367
-0.00539852,-0.005276154937892892
-0.005398180000000001,-0.004124180416483393
-0.00539784,-0.002675983875279826
-0.0053975,-0.0009973924298004675
-0.005397160000000001,0.001043248150982073
-0.00539682,0.002491444692183544
-0.00539648,0.0030180616162555
-0.005396140000000001,0.003413024309310185
-0.0053958,0.003807987002364151
-0.00539546,0.003413024309310185
-0.005395120000000001,0.003149715847273728
-0.00539478,0.003248456520538537
-0.00539444,0.003873814117873984
-0.005394100000000001,0.004499171715210569
-0.005393760000000001,0.004992875081528028
-0.00539342,0.004762480177247026
-0.005393080000000001,0.004564998830719684
-0.005392740000000001,0.00400546834889323
-0.0053924,0.003248456520537399
-0.005392060000000001,0.003380110751555628
-0.005391720000000001,0.003314283636046633
-0.00539138,0.003248456520537399
-0.005391040000000001,0.003840900560119427
-0.005390700000000001,0.004137122579909902
-0.00539036,0.004400431041946898
-0.005390020000000001,0.00505870219703804
-0.005389680000000001,0.006046108929672957
