Analysis/New Tests_CMB/wrd01_d2s01/cmb12_ch45.csv

#Digilent WaveForms Oscilloscope Acquisition
#Device Name: ADP3450
#Serial Number: SN:210018B9D9B0
#Date Time: 2024-08-15 12:04:00.042.313.160
#Sample rate: 5.88235e+06Hz
#Samples: 32768
#Trigger: Source: Channel 3 Type: Edge Condition: Rising Level: 40 mV Hyst.: Auto HoldOff: 0 s
#Channel 3: Range: 100 mV/div Offset: 0 V Attenuation: 1 X Coupling: DC Bandwidth: 0 Hz Sample Mode: Average

Time (s),Channel 3 (V)
-0.003168898805913897,0.02168004886308938
-0.003168728805913897,0.02171296242084423
-0.003168558805913897,0.02187753020961672
-0.003168388805913897,0.02144965395880748
-0.003168218805913897,0.02131799972778901
-0.003168048805913897,0.02118634549677102
-0.003167878805913897,0.02062681501494355
-0.003167708805913897,0.01973814895556907
-0.003167538805913897,0.01894822356946114
-0.003167368805913897,0.01819121174110632
-0.003167198805913897,0.01779624904805044
-0.003167028805913897,0.0171379778929605
-0.003166858805913897,0.01710506433520594
-0.003166688805913897,0.01634805250685119
-0.003166518805913897,0.01638096606460569
-0.003166348805913897,0.01608474404481467
-0.003166178805913897,0.01562395423625105
-0.003166008805913897,0.01572269490951454
-0.003165838805913897,0.01624931183358745
-0.003165668805913897,0.0157556084672688
-0.003165498805913897,0.01559104067849632
-0.003165328805913897,0.01539355933196897
-0.003165158805913897,0.01513025086993299
-0.003164988805913897,0.01407701702178669
-0.003164818805913897,0.0139124492330139
-0.003164648805913897,0.01364914077097792
-0.003164478805913897,0.01315543740465909
-0.003164308805913897,0.01410993057954124
-0.003164138805913897,0.01325417807792432
-0.003163968805913897,0.0134516594244501
-0.003163798805913897,0.01351748653995922
-0.003163628805913897,0.0148998559656481
-0.003163458805913897,0.01476820173463239
-0.003163288805913897,0.01545938644747809
-0.003163118805913897,0.01595308981379554
-0.003162948805913897,0.01651262029562391
-0.003162778805913897,0.0173683727972424
-0.003162608805913897,0.01697341010418843
-0.003162438805913897,0.01740128635499695
-0.003162268805913897,0.01723671856622417
-0.003162098805913897,0.01664427452664322
-0.003161928805913897,0.01674301519990581
-0.003161758805913897,0.0162163982758329
-0.003161588805913897,0.01657844741113237
-0.003161418805913897,0.01536064577421441
-0.003161248805913897,0.01513025086993251
-0.003161078805913897,0.01332000519343517
-0.003160908805913897,0.01387953567525935
-0.003160738805913897,0.01417575769505036
-0.003160568805913897,0.01410993057954124
-0.003160398805913897,0.01397827634852302
-0.003160228805913897,0.01371496788648656
-0.003160058805913897,0.01407701702178669
-0.003159888805913897,0.01394536279076846
-0.003159718805913897,0.01381370855975023
-0.003159548805913897,0.01371496788648656
-0.003159378805913897,0.01371496788648632
-0.003159208805913897,0.01358331365546833
-0.003159038805913897,0.01374788144424112
-0.003158868805913897,0.01387953567525994
-0.003158698805913897,0.01420867125280492
-0.003158528805913897,0.01397827634852302
-0.003158358805913897,0.01341874586669567
-0.003158188805913897,0.01348457298220466
-0.003158018805913897,0.01338583230894099
-0.003157848805913897,0.01341874586669471
-0.003157678805913897,0.01295795605813175
-0.003157508805913897,0.01259590692283162
-0.003157338805913897,0.01229968490304006
-0.003157168805913897,0.01200346288324959
-0.003156998805913897,0.01203637644100415
-0.003156828805913897,0.01223385778753107
-0.003156658805913897,0.01200346288324959
-0.003156488805913897,0.0120692899987587
-0.003156318805913897,0.01226677134528623
-0.003156148805913897,0.01236551201854972
-0.003155978805913897,0.0125300798073225
-0.003155808805913897,0.01282630182711376
-0.003155638805913897,0.01295795605813175
-0.003155468805913897,0.01308961028914997
-0.003155298805913897,0.01266173403834103
-0.003155128805913897,0.01282630182711352
-0.003154958805913897,0.01285921538486808
-0.003154788805913897,0.01302378317364056
-0.003154618805913897,0.0129908696158863
-0.003154448805913897,0.01279338826935896
-0.003154278805913897,0.0123655120185505
-0.003154108805913897,0.01170724086345858
-0.003153938805913897,0.01134519172815845
-0.003153768805913897,0.01108188326612247
-0.003153598805913897,0.01091731547734921
-0.003153428805913897,0.01052235278429452
-0.003153258805913897,0.01039069855327653
-0.003153088805913897,0.01019321720674895
-0.003152918805913897,0.00973242739818515
-0.003152748805913897,0.009107069800849703
-0.003152578805913897,0.009139983358603122
-0.003152408805913897,0.008679193550039321
-0.003152238805913897,0.009271637589620272
-0.003152068805913897,0.009271637589621349
-0.003151898805913897,0.009600773167166921
-0.003151728805913897,0.009337464705130943
-0.003151558805913897,0.008975415569830336
-0.003151388805913897,0.009107069800848565
-0.003151218805913897,0.009732427398184012
-0.003151048805913897,0.00881084778105755
-0.003150878805913897,0.009995735860221606
-0.003150708805913897,0.009633686724922137
-0.003150538805913897,0.009666600282676035
-0.003150368805913897,0.00950203249390325
-0.003150198805913897,0.009304551147375908
-0.003150028805913897,0.009205810474112236
-0.003149858805913897,0.009238724031866792
-0.003149688805913897,0.00871210710779388
-0.003149518805913897,0.009008329127584893
-0.003149348805913897,0.008909588454321223
-0.003149178805913897,0.009172896916357679
-0.003149008805913897,0.00904124268533945
-0.003148838805913897,0.009271637589621349
-0.003148668805913897,0.009370378262885021
-0.003148498805913897,0.009436205378394914
-0.003148328805913897,0.009864081629203377
-0.003148158805913897,0.009995735860221606
-0.003147988805913897,0.00973242739818473
-0.003147818805913897,0.00950203249390325
-0.003147648805913897,0.009798254513694264
-0.003147478805913897,0.01006156297573054
-0.003147308805913897,0.009962822302467049
-0.003147138805913897,0.009469118936148692
-0.003146968805913897,0.00996282230246627
-0.003146798805913897,0.009534946051657807
-0.003146628805913897,0.01025904432225806
-0.003146458805913897,0.01052235278429464
-0.003146288805913897,0.01058817989980363
-0.003146118805913897,0.01068692057306731
-0.003145948805913897,0.01065400701531287
-0.003145778805913897,0.01071983413082186
-0.003145608805913897,0.01071983413082186
-0.003145438805913897,0.01058817989980333
-0.003145268805913897,0.01042361211103085
-0.003145098805913897,0.01022613076450351
-0.003144928805913897,0.01016030364899367
-0.003144758805913897,0.009765340955939707
-0.003144588805913897,0.009929908744712493
-0.003144418805913897,0.009534946051658525
-0.003144248805913897,0.009929908744712493
-0.003144078805913897,0.009896995186957936
-0.003143908805913897,0.009337464705131483
-0.003143738805913897,0.008942502012075779
-0.003143568805913897,0.008843761338812107
-0.003143398805913897,0.008745020665548617
-0.003143228805913897,0.008942502012075779
-0.003143058805913897,0.008876674896566664
-0.003142888805913897,0.008843761338812168
-0.003142718805913897,0.008086749510457293
-0.003142548805913897,0.008514625761266537
-0.003142378805913897,0.007955095279440084
-0.003142208805913897,0.009534946051657807
-0.003142038805913897,0.009008329127584893
-0.003141868805913897,0.009172896916357379
-0.003141698805913897,0.008975415569830336
-0.003141528805913897,0.009469118936148692
-0.003141358805913897,0.009469118936148692
-0.003141188805913897,0.01068692057306731
-0.003141018805913897,0.01025904432225806
-0.003140848805913897,0.010983142592857
-0.003140678805913897,0.01055526634204908
-0.003140508805913897,0.01019321720674895
-0.003140338805913897,0.009699513840431492
-0.003140168805913897,0.009271637589621349
-0.003139998805913897,0.009107069800848565
-0.003139828805913897,0.009074156243094007
-0.003139658805913897,0.009172896916357679
-0.003139488805913897,0.009008329127584893
-0.003139318805913897,0.009172896916357679
-0.003139148805913897,0.009403291820639578
-0.003138978805913897,0.009600773167166921
-0.003138808805913897,0.009962822302467049
-0.003138638805913897,0.01052235278429452
-0.003138468805913897,0.01035778499552173
-0.003138298805913897,0.01078566124633098
-0.003138128805913897,0.01081857480408571
-0.003137958805913897,0.01091731547734921
-0.003137788805913897,0.01150975951693123
-0.003137618805913897,0.0108185748040847
-0.003137448805913897,0.01035778499552173
-0.003137278805913897,0.009995735860221606
-0.003137108805913897,0.009929908744713391
-0.003136938805913897,0.01042361211103085
-0.003136768805913897,0.01029195788001262
-0.003136598805913897,0.0102590443222586
-0.003136428805913897,0.01055526634204908
-0.003136258805913897,0.009798254513694264
-0.003136088805913897,0.009436205378395093
-0.003135918805913897,0.009962822302467049
-0.003135748805913897,0.00983116807144882
-0.003135578805913897,0.009633686724921238
-0.003135408805913897,0.00950203249390325
-0.003135238805913897,0.009666600282676035
-0.003135068805913897,0.008745020665548197
-0.003134898805913897,0.008613366434530208
-0.003134728805913897,0.009008329127584893
-0.003134558805913897,0.008876674896566364
-0.003134388805913897,0.00871210710779388
-0.003134218805913897,0.008382971530248308
-0.003134048805913897,0.008810847781056173
-0.003133878805913897,0.008053835952702737
-0.003133708805913897,0.008284230856984636
-0.003133538805913897,0.008712107107793101
-0.003133368805913897,0.008481712203511979
-0.003133198805913897,0.00904124268533945
-0.003133028805913897,0.009107069800848445
-0.003132858805913897,0.009370378262885021
-0.003132688805913897,0.01233259846079516
-0.003132518805913897,0.009798254513698874
-0.003132348805913897,0.008975415569830336
-0.003132178805913897,0.00871210710779388
-0.003132008805913897,0.008251317299230917
-0.003131838805913897,0.008382971530248308
-0.003131668805913897,0.00802092239494818
-0.003131498805913897,0.008251317299229659
-0.003131328805913897,0.008481712203511979
-0.003131158805913897,0.008679193550039321
-0.003130988805913897,0.00917289691635678
-0.003130818805913897,0.008942502012075779
-0.003130648805913897,0.01019321720674895
-0.003130478805913897,0.01058817989980292
-0.003130308805913897,0.01147684595917668
-0.003130138805913897,0.01170724086345858
-0.003129968805913897,0.01229968490303953
-0.003129798805913897,0.01272756115384985
-0.003129628805913897,0.01328709163567732
-0.003129458805913897,0.01368205432873128
-0.003129288805913897,0.01434032548382314
-0.003129118805913897,0.0146036339458596
-0.003128948805913897,0.01496568308115973
-0.003128778805913897,0.01499859663891429
-0.003128608805913897,0.0148340288501415
-0.003128438805913897,0.01499859663891429
-0.003128268805913897,0.01453780683035049
-0.003128098805913897,0.01450489327259593
-0.003127928805913897,0.01417575769505036
-0.003127758805913897,0.01364914077097787
-0.003127588805913897,0.01387953567525935
-0.003127418805913897,0.01332000519343187
-0.003127248805913897,0.01315543740465813
-0.003127078805913897,0.01262882048058617
-0.003126908805913897,0.0122996849030406
-0.003126738805913897,0.01118062393938488
-0.003126568805913897,0.01075274768857642
-0.003126398805913897,0.01088440191959465
-0.003126228805913897,0.01012739009123918
-0.003126058805913897,0.009765340955939707
-0.003125888805913897,0.009864081629203377
-0.003125718805913897,0.01042361211102917
-0.003125548805913897,0.00950203249390325
-0.003125378805913897,0.009205810474112236
-0.003125208805913897,0.008382971530248548
-0.003125038805913897,0.008514625761266537
-0.003124868805913897,0.008251317299230079
-0.003124698805913897,0.007593046144139117
-0.003124528805913897,0.007691786817402609
-0.003124358805913897,0.007461391913120709
-0.003124188805913897,0.007329737682101523
-0.003124018805913897,0.006803120758029567
-0.003123848805913897,0.006473985180483996
-0.003123678805913897,0.006210676718448077
-0.003123508805913897,0.006506898738238553
-0.003123338805913897,0.007099342777820581
-0.003123168805913897,0.009041242685335918
-0.003122998805913897,0.007395564797611595
-0.003122828805913897,0.007263910566593366
-0.003122658805913897,0.007428478355365853
-0.003122488805913897,0.007856354606175394
-0.003122318805913897,0.008415885088002865
-0.003122148805913897,0.00871210710779334
-0.003121978805913897,0.009172896916357679
-0.003121808805913897,0.009534946051657807
-0.003121638805913897,0.009699513840430293
-0.003121468805913897,0.01009447653348528
-0.003121298805913897,0.01052235278429452
-0.003121128805913897,0.01062109345755801
-0.003120958805913897,0.01045652566878541
-0.003120788805913897,0.01025904432225806
-0.003120618805913897,0.01019321720674907
-0.003120448805913897,0.009995735860221606
-0.003120278805913897,0.009600773167166921
-0.003120108805913897,0.009205810474112954
-0.003119938805913897,0.008547539319021094
-0.003119768805913897,0.00811966306821185
-0.003119598805913897,0.007790527490666879
-0.003119428805913897,0.007230997008838809
-0.003119258805913897,0.006276503833956653
-0.003119088805913897,0.005684059794375702
-0.003118918805913897,0.005256183543565383
-0.003118748805913897,0.005322010659074497
-0.003118578805913897,0.005782800467638296
-0.003118408805913897,0.006013195371920196
-0.003118238805913897,0.00607902248742931
-0.003118068805913897,0.006803120758029567
-0.003117898805913897,0.006177763160692982
-0.003117728805913897,0.006803120758029567
-0.003117558805913897,0.007494305470875266
-0.003117388805913897,0.008053835952702737
-0.003117218805913897,0.008284230856984636
-0.003117048805913897,0.009995735860221606
-0.003116878805913897,0.009304551147377823
-0.003116708805913897,0.01035778499552173
-0.003116538805913897,0.01141101884366756
-0.003116368805913897,0.01190472220998819
-0.003116198805913897,0.01315543740465909
-0.003116028805913897,0.01358331365546833
-0.003115858805913897,0.01394536279076924
-0.003115688805913897,0.0143732390415777
-0.003115518805913897,0.0141428441372958
-0.003115348805913897,0.01414284413729508
-0.003115178805913897,0.01374788144424112
-0.003115008805913897,0.01358331365546833
-0.003114838805913897,0.0132870916356769
-0.003114668805913897,0.01305669673139542
-0.003114498805913897,0.01272756115384985
-0.003114328805913897,0.01249716624956783
-0.003114158805913897,0.01243133913405883
-0.003113988805913897,0.01200346288324959
-0.003113818805913897,0.01272756115384871
-0.003113648805913897,0.01210220355651326
-0.003113478805913897,0.009567859609412364
-0.003113308805913897,0.009238724031864817
-0.003113138805913897,0.008152576625966409
-0.003112968805913897,0.007691786817402609
-0.003112798805913897,0.006704380084765178
-0.003112628805913897,0.00630941739171121
-0.003112458805913897,0.006111936045183867
-0.003112288805913897,0.005322010659075934
-0.003112118805913897,0.005420751332338168
-0.003111948805913897,0.004927047966019811
-0.003111778805913897,0.005354924216828276
-0.003111608805913897,0.005420751332338168
-0.003111438805913897,0.005223269985810825
-0.003111268805913897,0.005256183543565323
-0.003111098805913897,0.005025788639283483
-0.003110928805913897,0.005223269985810825
-0.003110758805913897,0.00528909710131982
-0.003110588805913897,0.005223269985810825
-0.003110418805913897,0.005651146236620068
-0.003110248805913897,0.005716973352129062
-0.003110078805913897,0.006473985180483996
-0.003109908805913897,0.007066429220066024
-0.003109738805913897,0.007856354606173958
-0.003109568805913897,0.00811966306821185
-0.003109398805913897,0.009107069800848565
-0.003109228805913897,0.009864081629202
-0.003109058805913897,0.00973242739818515
-0.003108888805913897,0.01032487143776718
-0.003108718805913897,0.01058817989980316
-0.003108548805913897,0.01025904432225806
-0.003108378805913897,0.01019321720674895
-0.003108208805913897,0.01029195788001244
-0.003108038805913897,0.01042361211103085
-0.003107868805913897,0.01009447653348528
-0.003107698805913897,0.01048943922653996
-0.003107528805913897,0.01048943922653996
-0.003107358805913897,0.01095022903510376
-0.003107188805913897,0.011378105285913
-0.003107018805913897,0.0116085001901949
-0.003106848805913897,0.01197054932549503
-0.003106678805913897,0.01174015442121313
-0.003106508805913897,0.01193763576774012
-0.003106338805913897,0.01174015442121313
-0.003106168805913897,0.01223385778753149
-0.003105998805913897,0.01272756115384991
-0.003105828805913897,0.0127604747116044
-0.003105658805913897,0.0129908696158863
-0.003105488805913897,0.01335291875118667
-0.003105318805913897,0.01348457298220466
-0.003105148805913897,0.01262882048058617
-0.003104978805913897,0.01236551201854858
-0.003104808805913897,0.01174015442121313
-0.003104638805913897,0.0116085001901949
-0.003104468805913897,0.01104896970837091
-0.003104298805913897,0.01295795605813175
-0.003104128805913897,0.01006156297573072
-0.003103958805913897,0.00973242739818485
-0.003103788805913897,0.009567859609412364
-0.003103618805913897,0.009205810474112236
-0.003103448805913897,0.008646279992284825
-0.003103278805913897,0.008679193550039321
-0.003103108805913897,0.008350057972493751
-0.003102938805913897,0.008086749510457772
-0.003102768805913897,0.008350057972493751
-0.003102598805913897,0.007889268163929951
-0.003102428805913897,0.007724700375156388
-0.003102258805913897,0.007296824124347924
-0.003102088805913897,0.007691786817402609
-0.003101918805913897,0.007593046144139117
-0.003101748805913897,0.00756013258638438
-0.003101578805913897,0.006967688546802352
-0.003101408805913897,0.007066429220065844
-0.003101238805913897,0.006868947873538681
-0.003101068805913897,0.005914454698656525
-0.003100898805913897,0.005881541140902028
-0.003100728805913897,0.006375244507220324
-0.003100558805913897,0.006441071622729439
-0.003100388805913897,0.006770207200274411
-0.003100218805913897,0.00756013258638438
-0.003100048805913897,0.006836034315784124
-0.003099878805913897,0.007198083451083594
-0.003099708805913897,0.006967688546802352
-0.003099538805913897,0.007230997008838809
-0.003099368805913897,0.007658873259647273
-0.003099198805913897,0.007856354606175394
-0.003099028805913897,0.007296824124347924
-0.003098858805913897,0.007428478355365913
-0.003098688805913897,0.007230997008838809
-0.003098518805913897,0.007691786817402609
-0.003098348805913897,0.007527219028630123
-0.003098178805913897,0.007856354606175394
-0.003098008805913897,0.007955095279439066
-0.003097838805913897,0.008514625761265519
-0.003097668805913897,0.008481712203511979
-0.003097498805913897,0.008942502012075779
-0.003097328805913897,0.009370378262885021
-0.003097158805913897,0.009896995186957936
-0.003096988805913897,0.01052235278429452
-0.003096818805913897,0.01052235278429452
-0.003096648805913897,0.01052235278429452
-0.003096478805913897,0.01091731547734921
-0.003096308805913897,0.01150975951693123
-0.003096138805913897,0.01187180865223136
-0.003095968805913897,0.01200346288324959
-0.003095798805913897,0.01210220355651326
-0.003095628805913897,0.01233259846079558
-0.003095458805913897,0.01256299336507706
-0.003095288805913897,0.01256299336507706
-0.003095118805913897,0.01243133913405853
-0.003094948805913897,0.01226677134528605
-0.003094778805913897,0.01071983413082186
-0.003094608805913897,0.01249716624956801
-0.003094438805913897,0.0125300798073225
-0.003094268805913897,0.01210220355651326
-0.003094098805913897,0.01249716624956741
-0.003093928805913897,0.01220094422977693
-0.003093758805913897,0.0125300798073225
-0.003093588805913897,0.01236551201854984
-0.003093418805913897,0.01243133913405883
-0.003093248805913897,0.01203637644100415
-0.003093078805913897,0.01216803067202214
-0.003092908805913897,0.01203637644100415
-0.003092738805913897,0.01180598153672225
-0.003092568805913897,0.01141101884367133
-0.003092398805913897,0.01348457298220466
-0.003092228805913897,0.009172896916357679
-0.003092058805913897,0.007856354606176293
-0.003091888805913897,0.008350057972493751
-0.003091718805913897,0.008547539319021094
-0.003091548805913897,0.007889268163929411
-0.003091378805913897,0.007593046144138938
-0.003091208805913897,0.007165169893329695
-0.003091038805913897,0.007165169893329695
-0.003090868805913897,0.006737293642520453
-0.003090698805913897,0.006901861431293239
-0.003090528805913897,0.007527219028628686
