Analysis/New Tests_CMB/wrd01_d2s01/cmb12_ch36.csv

#Digilent WaveForms Oscilloscope Acquisition
#Device Name: ADP3450
#Serial Number: SN:210018B9D9B0
#Date Time: 2024-08-07 11:12:34.135.683.110
#Sample rate: 2.94118e+06Hz
#Samples: 32768
#Trigger: Source: Channel 3 Type: Edge Condition: Rising Level: 0 V Hyst.: Auto HoldOff: 0 s
#Channel 3: Range: 200 mV/div Offset: 0 V Attenuation: 1 X Coupling: DC Bandwidth: 0 Hz Sample Mode: Average

Time (s),Channel 3 (V)
-0.005570234782608696,0.01124645105489478
-0.005569894782608695,0.01226677134528808
-0.005569554782608696,0.01338583230894099
-0.005569214782608696,0.01470237461912327
-0.005568874782608695,0.01513025086993263
-0.005568534782608696,0.01519607798544163
-0.005568194782608696,0.01486694240789606
-0.005567854782608695,0.01437323904157704
-0.005567514782608696,0.01401118990627757
-0.005567174782608696,0.01341874586669555
-0.005566834782608695,0.01345165942444908
-0.005566494782608696,0.01289212894262263
-0.005566154782608696,0.01318835096241365
-0.005565814782608695,0.01328709163567863
-0.005565474782608696,0.01401118990627757
-0.005565134782608696,0.0148340288501415
-0.005564794782608695,0.0145707203881054
-0.005564454782608696,0.01476820173463239
-0.005564114782608696,0.01430741192606859
-0.005563774782608695,0.01397827634852212
-0.005563434782608696,0.01348457298220466
-0.005563094782608696,0.01374788144424112
-0.005562754782608696,0.0139124492330136
-0.005562414782608696,0.01430741192606859
-0.005562074782608696,0.01457072038810504
-0.005561734782608696,0.01489985596565002
-0.005561394782608696,0.0146036339458596
-0.005561054782608696,0.01473528817687783
-0.005560714782608696,0.01522899154319529
-0.005560374782608696,0.01516316442768707
-0.005560034782608696,0.01532773221645986
-0.005559694782608696,0.01552521356298684
-0.005559354782608696,0.01605183048706011
-0.005559014782608696,0.01522899154319619
-0.005558674782608696,0.01407701702178878
-0.005558334782608696,0.01341874586669555
-0.005557994782608696,0.01315543740465909
-0.005557654782608696,0.01361622721322205
-0.005557314782608696,0.01407701702178669
-0.005556974782608696,0.01516316442768707
-0.005556634782608696,0.01647970673786696
-0.005556294782608696,0.0171379778929605
-0.005555954782608696,0.0175987677015243
-0.005555614782608696,0.01746711347050631
-0.005555274782608696,0.01730254568173328
-0.005554934782608696,0.01766459481703341
-0.005554594782608696,0.02125217261227361
-0.005554254782608696,0.03244278224882955
-0.005553914782608696,0.05212508978605471
-0.005553574782608696,0.08000287320416458
-0.005553234782608696,0.1132455665362672
-0.005552894782608696,0.1485289004491525
-0.005552554782608696,0.1826273462828736
-0.005552214782608695,0.2122824618197296
-0.005551874782608696,0.2357498284987288
-0.005551534782608696,0.2524370022802893
-0.005551194782608695,0.2620477611446272
-0.005550854782608696,0.2660632151906759
-0.005550514782608696,0.2657999067286395
-0.005550174782608695,0.2623110696066454
-0.005549834782608696,0.2562549749798179
-0.005549494782608696,0.2487177702540243
-0.005549154782608695,0.2414109604324982
-0.005548814782608696,0.2334787930136644
-0.005548474782608696,0.225480798479307
-0.005548134782608695,0.2184702106775752
-0.005547794782608696,0.2123812024929932
-0.005547454782608696,0.206160540077382
-0.005547114782608695,0.1995120014109504
-0.005546774782608696,0.1934229932263684
-0.005546434782608696,0.1878606019658482
-0.005546094782608695,0.1818045073390005
-0.005545754782608696,0.1767687330025625
-0.005545414782608696,0.1710746875110241
-0.005545074782608695,0.1651831606729488
-0.005544734782608696,0.1599499049899838
-0.005544394782608696,0.1532355392080541
-0.005544054782608695,0.1473110988122228
-0.005543714782608696,0.1412550041853954
-0.005543374782608696,0.1351659960008023
-0.005543034782608695,0.1301302216643463
-0.005542694782608696,0.1253577557899443
-0.005542354782608696,0.1208815119353245
-0.005542014782608696,0.1165369223117309
-0.005541674782608696,0.1136405292293219
-0.005541334782608696,0.111106185282221
-0.005540994782608696,0.1087364091238972
-0.005540654782608696,0.1066628549853558
-0.005540314782608696,0.1039639432494822
-0.005539974782608696,0.1011992043981044
-0.005539634782608696,0.09856611977773477
-0.005539294782608696,0.09586720804186111
-0.005538954782608696,0.09260876582416587
-0.005538614782608696,0.0886591388936131
-0.005538274782608696,0.08526904244489372
-0.005537934782608696,0.08201060022719849
-0.005537594782608696,0.07858759022071862
-0.005537254782608696,0.07536206156077202
-0.005536914782608696,0.07282771761367574
-0.005536574782608696,0.07075416347513402
-0.005536234782608696,0.06887809068312428
-0.005535894782608696,0.0672982399109084
-0.005535554782608696,0.06585004336970501
-0.005535214782608696,0.06384231634667703
-0.005534874782608696,0.0618345893236527
-0.005534534782608696,0.06012308432041208
-0.005534194782608696,0.05808244373962954
-0.005533854782608696,0.05646967940965918
-0.005533514782608696,0.05515313709947395
-0.005533174782608696,0.05340871853848243
-0.005532834782608696,0.05189469488177281
-0.005532494782608696,0.05061106612934508
-0.005532154782608696,0.04906412891488089
-0.005531814782608696,0.04731971035388936
-0.005531474782608695,0.04610190871697075
-0.005531134782608696,0.04478536640678847
-0.005530794782608696,0.04310677496130606
-0.005530454782608695,0.04195480043989656
-0.005530114782608696,0.04126361572705086
-0.005529774782608696,0.04136235640031453
-0.005529434782608695,0.04100030726501422
-0.005529094782608696,0.04090156659175073
-0.005528754782608696,0.04086865303399617
-0.005528414782608695,0.0406053445719593
-0.005528074782608696,0.04037494966767782
-0.005527734782608696,0.03935462937728654
-0.005527394782608695,0.03823556841362927
-0.005527054782608696,0.03695193966120388
-0.005526714782608696,0.0352404346579669
-0.005526374782608695,0.03313396696167166
-0.005526034782608696,0.03115915349640183
-0.005525694782608696,0.03053379589906524
-0.005525354782608695,0.03036922811029216
-0.005525014782608696,0.03020466032151967
-0.005524674782608696,0.02974387051295587
-0.005524334782608695,0.0292172535888811
-0.005523994782608696,0.02819693329849169
-0.005523654782608696,0.02727535368136409
-0.005523314782608695,0.02727535368136265
-0.005522974782608696,0.02648542829525472
-0.005522634782608696,0.02609046560220003
-0.005522294782608695,0.02576133002465189
-0.005521954782608696,0.0243460470412085
-0.005521614782608696,0.02283202338449888
-0.005521274782608695,0.02168004886308758
-0.005520934782608696,0.02069264213045267
-0.005520594782608696,0.02082429636147089
-0.005520254782608696,0.02181170309410581
-0.005519914782608696,0.02355612165509913
-0.005519574782608696,0.0252676266583361
-0.005519234782608696,0.02661708252627049
-0.005518894782608696,0.02674873675729117
-0.005518554782608696,0.02678165031504573
-0.005518214782608696,0.02648542829525526
-0.005517874782608696,0.02559676223588167
-0.005517534782608696,0.02474100973426319
-0.005517194782608696,0.02355612165510129
-0.005516854782608696,0.02273328271123521
-0.005516514782608696,0.02168004886308938
-0.005516174782608696,0.02059390145719097
-0.005515834782608696,0.02013311164862519
-0.005515494782608696,0.01917861847374304
-0.005515154782608696,0.01878365578068907
-0.005514814782608696,0.01884948289619747
-0.005514474782608696,0.01838869308763367
-0.005514134782608696,0.01815829818335219
-0.005513794782608696,0.01680884231541493
-0.005513454782608696,0.01572269490951454
-0.005513114782608696,0.0150315101966701
-0.005512774782608696,0.01466946106136872
-0.005512434782608696,0.01499859663891429
-0.005512094782608696,0.01555812712074176
-0.005511754782608696,0.01588726269828733
-0.005511414782608696,0.015986003371551
-0.005511074782608696,0.01611765760256923
-0.005510734782608696,0.01684175587316948
-0.005510394782608696,0.01746711347050607
-0.005510054782608696,0.0178291626058062
-0.005509714782608695,0.01812538462559721
-0.005509374782608696,0.01792790327906987
-0.005509034782608696,0.01819121174110632
-0.005508694782608695,0.0183228659721236
-0.005508354782608696,0.01779624904805164
-0.005508014782608696,0.0175987677015243
-0.005507674782608695,0.01789498972131573
-0.005507334782608696,0.01812538462559721
-0.005506994782608696,0.01832286597212456
-0.005506654782608695,0.01766459481703305
-0.005506314782608696,0.01746711347050607
-0.005505974782608696,0.01592017625604189
-0.005505634782608695,0.01430741192606589
-0.005505294782608696,0.01282630182711352
-0.005504954782608696,0.01213511711426782
-0.005504614782608695,0.0109831425928579
-0.005504274782608696,0.01075274768857642
-0.005503934782608696,0.01078566124633098
-0.005503594782608695,0.01127936461265047
-0.005503254782608696,0.01190472220998592
-0.005502914782608696,0.01213511711426782
-0.005502574782608695,0.01253007980732364
-0.005502234782608696,0.01315543740465909
-0.005501894782608696,0.01401118990627757
-0.005501554782608695,0.01466946106136955
-0.005501214782608696,0.01513025086993251
-0.005500874782608696,0.01545938644747809
-0.005500534782608695,0.01565686779400585
-0.005500194782608696,0.01588726269828733
-0.005499854782608696,0.01615057116032378
-0.005499514782608696,0.01644679318011426
-0.005499174782608696,0.01647970673786936
-0.005498834782608696,0.01657844741113303
-0.005498494782608696,0.01723671856622297
-0.005498154782608696,0.01809247106784265
-0.005497814782608696,0.01894822356946114
-0.005497474782608696,0.02000145741760505
-0.005497134782608696,0.01993563030209785
-0.005496794782608696,0.01931027270476127
-0.005496454782608696,0.01868491510742582
-0.005496114782608696,0.01815829818335177
-0.005495774782608696,0.01789498972131531
-0.005495434782608696,0.01753294058601584
-0.005495094782608696,0.0169075829886786
-0.005494754782608696,0.01615057116032378
-0.005494414782608696,0.01562395423625183
-0.005494074782608696,0.0148340288501415
-0.005493734782608696,0.01430741192606859
-0.005493394782608696,0.01387953567526012
-0.005493054782608696,0.01318835096241365
-0.005492714782608696,0.01335291875118643
-0.005492374782608696,0.01282630182711448
-0.005492034782608696,0.01292504250037719
-0.005491694782608696,0.01289212894262263
-0.005491354782608696,0.01364914077097607
-0.005491014782608696,0.01374788144424112
-0.005490674782608696,0.01364914077097745
-0.005490334782608696,0.01371496788648656
-0.005489994782608696,0.0129908696158863
-0.005489654782608696,0.01190472220998592
-0.005489314782608696,0.01167432730570402
-0.005488974782608695,0.01193763576774048
-0.005488634782608696,0.01243133913405883
-0.005488294782608696,0.01246425269181339
-0.005487954782608695,0.01312252384690495
-0.005487614782608696,0.01335291875118643
-0.005487274782608696,0.01305669673139542
-0.005486934782608695,0.01299086961588612
-0.005486594782608696,0.01289212894262263
-0.005486254782608696,0.01358331365546833
-0.005485914782608695,0.01434032548382452
-0.005485574782608696,0.01509733731217796
-0.005485234782608696,0.01638096606460569
-0.005484894782608695,0.0171379778929614
-0.005484554782608696,0.01763168125927886
-0.005484214782608696,0.01710506433520594
-0.005483874782608695,0.01661136096888615
-0.005483534782608696,0.01582143558277821
-0.005483194782608696,0.01526190510095074
-0.005482854782608695,0.01420867125280354
-0.005482514782608696,0.0134516594244501
-0.005482174782608696,0.01282630182711352
-0.005481834782608695,0.01308961028914967
-0.005481494782608696,0.01292504250037719
-0.005481154782608696,0.013682054328732
-0.005480814782608695,0.01447197971484161
-0.005480474782608696,0.0146036339458596
-0.005480134782608696,0.01496568308115973
-0.005479794782608695,0.01489985596564924
-0.005479454782608696,0.0141428441372958
-0.005479114782608696,0.01434032548382314
-0.005478774782608696,0.01420867125280516
-0.005478434782608696,0.01470237461912327
-0.005478094782608696,0.01522899154319619
-0.005477754782608696,0.01522899154319619
-0.005477414782608696,0.01565686779400543
-0.005477074782608696,0.01618348471807834
-0.005476734782608696,0.0167101016421503
-0.005476394782608696,0.0166771880843967
-0.005476054782608696,0.01647970673786936
-0.005475714782608696,0.01608474404481539
-0.005475374782608696,0.01542647288972353
-0.005475034782608696,0.01430741192606859
-0.005474694782608696,0.01325417807792468
-0.005474354782608696,0.0120692899987587
-0.005474014782608696,0.01062109345755819
-0.005473674782608696,0.01019321720674973
-0.005473334782608696,0.009633686724921478
-0.005472994782608696,0.009337464705130465
-0.005472654782608696,0.008942502012076498
-0.005472314782608696,0.00950203249390325
-0.005471974782608696,0.009929908744712493
-0.005471634782608696,0.01095022903510191
-0.005471294782608696,0.01256299336507706
-0.005470954782608696,0.01397827634852302
-0.005470614782608696,0.01496568308115793
-0.005470274782608696,0.01605183048706011
-0.005469934782608696,0.01684175587316948
-0.005469594782608696,0.01700632366194227
-0.005469254782608696,0.01763168125927886
-0.005468914782608696,0.01786207616356076
-0.005468574782608696,0.01789498972131531
-0.005468234782608695,0.01766459481703341
-0.005467894782608696,0.01776333549029708
-0.005467554782608696,0.01796081683682443
-0.005467214782608695,0.01832286597212456
-0.005466874782608696,0.01858617443416101
-0.005466534782608696,0.01838869308763367
-0.005466194782608695,0.01786207616355944
-0.005465854782608696,0.0171379778929605
-0.005465514782608696,0.01654553385337847
-0.005465174782608695,0.01486694240789199
-0.005464834782608696,0.01262882048058617
-0.005464494782608696,0.01075274768857642
-0.005464154782608695,0.009304551147374471
-0.005463814782608696,0.008514625761266537
-0.005463474782608696,0.009469118936148692
-0.005463134782608695,0.01068692057307168
-0.005462794782608696,0.01308961028914997
-0.005462454782608696,0.0155252135629872
-0.005462114782608695,0.01796081683682628
-0.005461774782608696,0.01898113712721569
-0.005461434782608696,0.01973814895557051
-0.005461094782608695,0.01973814895556919
-0.005460754782608696,0.01901405068497026
-0.005460414782608696,0.01697341010418771
-0.005460074782608695,0.01526190510094847
-0.005459734782608696,0.01401118990627757
-0.005459394782608696,0.01341874586669555
-0.005459054782608695,0.01276047471160434
-0.005458714782608696,0.01272756115384985
-0.005458374782608696,0.01243133913405883
-0.005458034782608695,0.01174015442121295
-0.005457694782608696,0.01164141374794946
-0.005457354782608696,0.01127936461264933
-0.005457014782608696,0.0116414137479488
-0.005456674782608696,0.0122996849030406
-0.005456334782608696,0.01384662211750479
-0.005455994782608696,0.01522899154319367
-0.005455654782608696,0.01674301519990581
-0.005455314782608696,0.01815829818335177
-0.005454974782608696,0.01861908799191473
-0.005454634782608696,0.0178291626058062
-0.005454294782608696,0.0171379778929605
-0.005453954782608696,0.01605183048706209
-0.005453614782608696,0.01549230000523264
-0.005453274782608696,0.01447197971484137
-0.005452934782608696,0.01407701702178741
-0.005452594782608696,0.01374788144424112
-0.005452254782608696,0.01417575769505036
-0.005451914782608696,0.01434032548382284
-0.005451574782608696,0.01453780683035049
-0.005451234782608696,0.01526190510095074
-0.005450894782608696,0.01552521356298672
-0.005450554782608696,0.01578852202502366
-0.005450214782608696,0.01526190510095074
-0.005449874782608696,0.01496568308116027
-0.005449534782608696,0.01401118990627757
-0.005449194782608696,0.01355040009771377
-0.005448854782608696,0.01279338826936034
-0.005448514782608696,0.01239842557630427
-0.005448174782608696,0.01187180865223136
-0.005447834782608696,0.01141101884366756
-0.005447494782608696,0.01164141374794946
-0.005447154782608696,0.01216803067202238
-0.005446814782608696,0.01289212894262263
-0.005446474782608695,0.01308961028914997
-0.005446134782608696,0.0139124492330139
-0.005445794782608696,0.0148340288501415
-0.005445454782608695,0.01522899154319613
-0.005445114782608696,0.01519607798544163
-0.005444774782608696,0.0152948186587053
-0.005444434782608695,0.01529481865870392
-0.005444094782608696,0.01453780683035049
-0.005443754782608696,0.01341874586669555
-0.005443414782608695,0.01164141374794701
-0.005443074782608696,0.01029195788001262
-0.005442734782608696,0.009403291820639578
-0.005442394782608695,0.008646279992284345
-0.005442054782608696,0.008415885088002865
-0.005441714782608696,0.009205810474112236
-0.005441374782608695,0.01019321720675086
-0.005441034782608696,0.01124645105489478
-0.005440694782608696,0.01226677134528605
-0.005440354782608695,0.01335291875118984
-0.005440014782608696,0.01522899154319619
-0.005439674782608696,0.01509733731217796
-0.005439334782608695,0.01601891692930699
-0.005438994782608696,0.01680884231541493
-0.005438654782608696,0.01687466943092404
-0.005438314782608695,0.01717089145071422
-0.005437974782608696,0.01671010164215126
-0.005437634782608696,0.0155252135629872
-0.005437294782608695,0.01437323904157537
-0.005436954782608696,0.01308961028914997
-0.005436614782608696,0.0127604747116044
-0.005436274782608696,0.01302378317364038
-0.005435934782608696,0.01358331365546833
-0.005435594782608696,0.013682054328732
-0.005435254782608696,0.01410993057954047
-0.005434914782608696,0.01453780683035049
-0.005434574782608696,0.01503151019666884
-0.005434234782608696,0.01519607798544133
-0.005433894782608696,0.0152948186587053
-0.005433554782608696,0.01466946106136872
-0.005433214782608696,0.0136820543287338
-0.005432874782608696,0.01101605615061288
-0.005432534782608696,0.004202949695419555
-0.005432194782608696,-0.007711758211708446
-0.005431854782608696,-0.02769028776874628
-0.005431514782608696,-0.05441609666544665
-0.005431174782608696,-0.08637516124506346
-0.005430834782608696,-0.1188608427488695
-0.005430494782608696,-0.1501945497312079
-0.005430154782608696,-0.1770190993011231
-0.005429814782608696,-0.1983141711683703
-0.005429474782608696,-0.2139810246595395
-0.005429134782608696,-0.2230980801575352
-0.005428794782608696,-0.2274755833389079
-0.005428454782608696,-0.2279363731474717
-0.005428114782608696,-0.225171634296094
-0.005427774782608696,-0.2203004277484145
-0.005427434782608696,-0.214244333121576
-0.005427094782608696,-0.2075628808974009
-0.005426754782608696,-0.2006839473266984
-0.005426414782608696,-0.1936733595249778
-0.005426074782608696,-0.1867944259542753
-0.005425734782608695,-0.1797180110370456
-0.005425394782608696,-0.1728390774663431
-0.005425054782608696,-0.1659272303378861
-0.005424714782608695,-0.1594103459024838
-0.005424374782608696,-0.1532225970446271
-0.005424034782608696,-0.1470677617445249
-0.005423694782608695,-0.1414066298107305
-0.005423354782608696,-0.1355809300881845
-0.005423014782608696,-0.1305122421939827
-0.005422674782608695,-0.1250156780489636
-0.005422334782608696,-0.1205723477521064
-0.005421994782608696,-0.1161290174552412
-0.005421654782608695,-0.1116527736006131
-0.005421314782608696,-0.107077789072738
-0.005420974782608696,-0.1025028045448546
-0.005420634782608695,-0.09792782001696421
-0.005420294782608696,-0.09410984731744251
-0.005419954782608696,-0.09022604750240479
-0.005419614782608695,-0.08673721038041557
-0.005419274782608696,-0.08334711393170235
-0.005418934782608696,-0.07923291921238271
-0.005418594782608695,-0.07501998381979361
-0.005418254782608696,-0.07182736871760736
-0.005417914782608696,-0.06932593832826103
-0.005417574782608695,-0.06669285370789131
-0.005417234782608696,-0.06386228774100455
-0.005416894782608696,-0.06224952341103124
-0.005416554782608695,-0.06086715398533559
-0.005416214782608696,-0.05853029138476629
-0.005415874782608696,-0.05583137964889261
-0.005415534782608695,-0.0529020730087314
-0.005415194782608696,-0.04980819857980866
-0.005414854782608696,-0.04671432415088029
-0.005414514782608696,-0.04348879549093956
-0.005414174782608696,-0.04085571087056913
-0.005413834782608696,-0.03871632961652291
-0.005413494782608696,-0.03693899749778006
-0.005413154782608696,-0.0347337891282215
-0.005412814782608696,-0.03341724681803922
-0.005412474782608696,-0.03177156893031435
-0.005412134782608696,-0.03111329777522022
-0.005411794782608696,-0.02992840969605616
