Analysis/New Tests_CMB/wrd01_d2s01/cmb11_ch33.csv

#Digilent WaveForms Oscilloscope Acquisition
#Device Name: ADP3450
#Serial Number: SN:210018B9D9B0
#Date Time: 2024-06-28 13:25:47.142.324.880
#Sample rate: 2.5e+07Hz
#Samples: 32768
#Trigger: Source: Channel 3 Type: Edge Condition: Rising Level: 60 mV Hyst.: Auto HoldOff: 0 s
#Channel 1: Range: 100 mV/div Offset: -370 mV Attenuation: 1 X Coupling: DC Bandwidth: 0 Hz Sample Mode: Average
#Channel 3: Range: 100 mV/div Offset: 0 V Attenuation: 1 X Coupling: DC Bandwidth: 0 Hz Sample Mode: Average

Time (s),Channel 1 (V),Channel 3 (V)
-0.0006553506743737958,0.002368782200707908,-0.009884053023530886
-0.0006553106743737958,0.001515499492117545,-0.01014736148556734
-0.0006552706743737957,0.002237507937848241,-0.0116284715845199
-0.0006552306743737958,0.002434419332137949,-0.01024610215883101
-0.0006551906743737958,0.002303145069277923,-0.01136516312248596
-0.0006551506743737958,0.001745229452122632,-0.009554917445985316
-0.0006551106743737958,0.001778048017837652,-0.01037775638984924
-0.0006550706743737958,0.002171870806417125,-0.0120563478353286
-0.0006550306743737958,0.002565693594997255,-0.01215508850859215
-0.0006549906743737958,0.002139052240702821,-0.0104106699476038
-0.0006549506743737958,0.001778048017837652,-0.0129450138947047
-0.0006549106743737958,0.002368782200707908,-0.01320832235674115
-0.0006548706743737958,0.001974959412128491,-0.0114639037957528
-0.0006548306743737958,0.00194214084641359,-0.01238548341287675
-0.0006547906743737958,0.002401600766422929,-0.01212217495084077
-0.0006547506743737958,0.00204059654355776,-0.01166138514227697
-0.0006547106743737958,0.002401600766422929,-0.01393242062734141
-0.0006546706743737958,0.002598512160712693,-0.01129933600698163
-0.0006546306743737958,0.002073415109273019,-0.01271461899042316
-0.0006545906743737958,0.002204689372132862,-0.01291210033695014
-0.0006545506743737958,0.001876503714982714,-0.01215508850859533
-0.0006545106743737958,0.002204689372132862,-0.01208926139308621
-0.0006544706743737958,0.002204689372132862,-0.01113476821820406
-0.0006544306743737957,0.002171870806417125,-0.01133224956473056
-0.0006543906743737958,0.001778048017837652,-0.0108714597561676
-0.0006543506743737958,0.001646773754977626,-0.01050941062086747
-0.0006543106743737958,0.002007777977842795,-0.01097020042943127
-0.0006542706743737958,0.001843685149267693,-0.01182595293104976
-0.0006542306743737958,0.002040596543557402,-0.01037775638985188
-0.0006541906743737958,0.001745229452122632,-0.01070689196739481
-0.0006541506743737958,0.001778048017837652,-0.01044358350535836
-0.0006541106743737958,0.001909322280697734,-0.01047649706311291
-0.0006540706743737958,0.001285769532112457,-0.01205634783533165
-0.0006540306743737958,0.002040596543556387,-0.0114639037957507
-0.0006539906743737958,0.001613955189263143,-0.01024610215883473
-0.0006539506743737958,0.001909322280697734,-0.01228674273961356
-0.0006539106743737958,0.001810866583552673,-0.01228674273961356
-0.0006538706743737958,0.001876503714982714,-0.01120059533371317
-0.0006538306743737958,0.002139052240702344,-0.01172721225778513
-0.0006537906743737958,0.001974959412127715,-0.01251713764389474
-0.0006537506743737958,0.001942140846412754,-0.01212217495084077
-0.0006537106743737958,0.002106233674987801,-0.01199052071982254
-0.0006536706743737958,0.002303145069277923,-0.01097020042943127
-0.0006536306743737958,0.002073415109273198,-0.01337289014550957
-0.0006535906743737957,0.002040596543557999,-0.01176012581553974
-0.0006535506743737958,0.002171870806417842,-0.01126642244922228
-0.0006535106743737958,0.00253287502928301,-0.01073980552514937
-0.0006534706743737958,0.002368782200707908,-0.01143099023799507
-0.0006534306743737958,0.001646773754977626,-0.01139807668024051
-0.0006533906743737959,0.001679592320692587,-0.01169429870003099
-0.0006533506743737958,0.001712410886407667,-0.0101802750433219
-0.0006533106743737958,0.002270326503562903,-0.01159555802676786
-0.0006532706743737958,0.002106233674987801,-0.0111018546604495
-0.0006532306743737958,0.00204059654355776,-0.009916966581285444
-0.0006531906743737958,0.001974959412127894,-0.01018027504332142
-0.0006531506743737958,0.002106233674987204,-0.01041066994760422
-0.0006531106743737958,0.001778048017837652,-0.0106410648518857
-0.0006530706743737958,0.002270326503562903,-0.01097020042943127
-0.0006530306743737958,0.00204059654355776,-0.01034484283209469
-0.0006529906743737958,0.0015154994921185,-0.01093728687167564
-0.0006529506743737958,0.001613955189262964,-0.009785312350266676
-0.0006529106743737958,0.001810866583552673,-0.009489090330476201
-0.0006528706743737958,0.001712410886407667,-0.009818225908021772
-0.0006528306743737958,0.001974959412127775,-0.0111018546604495
-0.0006527906743737958,0.001876503714982893,-0.009916966581287601
-0.0006527506743737957,0.00213905224070306,-0.009752398792514693
-0.0006527106743737958,0.002270326503562903,-0.0108714597561676
-0.0006526706743737958,0.001876503714982714,-0.01070689196739481
-0.0006526306743737958,0.002204689372132862,-0.01106894110269494
-0.0006525906743737958,0.002434419332137949,-0.009851139465776329
-0.0006525506743737959,0.002368782200708028,-0.01152973091125569
-0.0006525106743737958,0.002434419332137949,-0.01021318860107646
-0.0006524706743737958,0.002139052240702821,-0.01037775638984924
-0.0006524306743737958,0.002696967857858057,-0.01116768177595861
-0.0006523906743737958,0.003057972080723226,-0.009456176772721644
-0.0006523506743737958,0.002303145069279296,-0.01014736148556609
-0.0006523106743737958,0.002270326503563798,-0.009225781868437949
-0.0006522706743737958,0.002762604989288098,-0.008238375135803031
-0.0006522306743737958,0.002729786423573077,-0.00962074456149443
-0.0006521906743737958,0.002270326503562903,-0.008337115809066702
-0.0006521506743737958,0.00240160076642269,-0.00873207850212067
-0.0006521106743737958,0.003025153515007489,-0.008567510713352195
-0.0006520706743737958,0.002631330726428016,-0.01054232417862203
-0.0006520306743737958,0.001974959412127775,-0.01001570725454911
-0.0006519906743737958,0.002631330726428016,-0.009949880139040001
-0.0006519506743737958,0.00230314506927852,-0.008271288693560641
-0.0006519106743737957,0.002040596543557521,-0.009554917445986752
-0.0006518706743737958,0.001909322280697734,-0.01034484283209469
-0.0006518306743737958,0.001974959412127775,-0.01152973091125874
-0.0006517906743737958,0.00250005646356799,-0.01073980552514937
-0.0006517506743737958,0.002106233674987801,-0.01136516312248596
-0.0006517106743737957,0.002139052240702523,-0.01047649706311453
-0.0006516706743737958,0.001974959412127775,-0.01136516312248596
-0.0006516306743737958,0.00204059654355776,-0.01080563264065849
-0.0006515906743737958,0.002631330726428016,-0.0111018546604495
-0.0006515506743737958,0.00250005646356799,-0.009949880139040001
-0.0006515106743737958,0.002270326503563321,-0.01195760716206433
-0.0006514706743737958,0.001974959412127954,-0.01215508850859293
-0.0006514306743737958,0.00207341510927278,-0.01083854619841304
-0.0006513906743737958,0.002204689372132862,-0.01014736148556734
-0.0006513506743737958,0.002007777977842795,-0.009686571677003543
-0.0006513106743737958,0.001613955189263322,-0.008666251386614129
-0.0006512706743737958,0.001515499492117903,-0.008172548020294516
-0.0006512306743737958,0.001712410886407667,-0.008501683597839487
-0.0006511906743737958,0.001252950966397437,-0.008304202251312145
-0.0006511506743737958,0.001613955189262606,-0.007415536191939104
-0.0006511106743737958,0.001909322280697197,-0.008304202251310528
-0.0006510706743737958,0.002040596543556685,-0.008863732733139017
-0.0006510306743737958,0.001449862360687559,-0.008534597155594046
-0.0006509906743737958,0.001712410886407667,-0.007283881960920875
-0.0006509506743737958,0.001646773754977626,-0.007975066673766575
-0.0006509106743737958,0.001646773754977626,-0.008962473406403288
-0.0006508706743737957,0.002795423555001745,-0.008501683597840325
-0.0006508306743737958,0.00204059654355776,-0.008962473406403288
-0.0006507906743737958,0.002335963634992888,-0.01024610215883101
-0.0006507506743737958,0.002434419332137949,-0.009489090330476201
-0.0006507106743737958,0.002368782200707908,-0.009587831003739873
-0.0006506706743737958,0.002532875029282712,-0.008600424271104955
-0.0006506306743737958,0.002565693594998031,-0.009127041195176074
-0.0006505906743737958,0.001778048017837652,-0.008764992059875945
-0.0006505506743737958,0.002401600766422929,-0.009522003888230759
-0.0006505106743737958,0.001974959412127775,-0.012253829181859
-0.0006504706743737958,0.002204689372132444,-0.01176012581554154
-0.0006504306743737958,0.00213905224070312,-0.01297792745245608
-0.0006503906743737958,0.002303145069277923,-0.01123350889146773
-0.0006503506743737958,0.001843685149267693,-0.01073980552514937
-0.0006503106743737958,0.002204689372132862,-0.008995386964157845
-0.0006502706743737958,0.002467237897852492,-0.008534597155594884
-0.0006502306743737958,0.002532875029281876,-0.007481363307445224
-0.0006501906743737958,0.001909322280697734,-0.005835685419720362
-0.0006501506743737958,0.002368782200707908,-0.006230648112775047
-0.0006501106743737958,0.002434419332137949,-0.005276154937892892
-0.0006500706743737958,0.002598512160712753,-0.00386087195444951
-0.0006500306743737957,0.001810866583553867,-0.002346848297737848
-0.0006499906743737958,0.00246723789785297,-0.002643070317528323
-0.0006499506743737958,0.002368782200707908,-0.003038033010583008
-0.0006499106743737958,0.00204059654355776,-0.005111587149120106
-0.0006498706743737958,0.002106233674987801,-0.005440722726665677
-0.0006498306743737959,0.001843685149268171,-0.006428129459300594
-0.0006497906743737958,0.002335963634992888,-0.007053487056638975
-0.0006497506743737958,0.001417043794972539,-0.005967339650738591
-0.0006497106743737958,0.002631330726428016,-0.00540780916891112
-0.0006496706743737958,0.002598512160713051,-0.004782451571574535
-0.0006496306743737958,0.002598512160713051,-0.004683710898311043
-0.0006495906743737958,0.002664149292142559,-0.00553946339993306
-0.0006495506743737958,0.002401600766422929,-0.007580103980711889
-0.0006495106743737958,0.002795423555003118,-0.002873465221810222
-0.0006494706743737958,0.002861060686433159,-0.006559783690320619
-0.0006494306743737958,0.00315642777786775,-0.00820546157804548
-0.0006493906743737958,0.002992334949292409,-0.0007340839677699977
-0.0006493506743737958,0.002565693594998031,-0.004025439743219721
-0.0006493106743737958,0.002795423555003118,-0.003235514357110351
-0.0006492706743737958,0.003320520606443333,-0.002346848297737309
-0.0006492306743737958,0.002532875029284443,-0.004058353300971165
-0.0006491906743737957,0.003451794869302938,-0.0004378619479732363
-0.0006491506743737958,0.003189246343583252,-0.0005695161789912252
-0.0006491106743737958,0.002795423555003118,-0.002412675413246423
-0.0006490706743737958,0.003057972080723226,-0.001458182238364267
-0.0006490306743737958,0.002893879252148179,-0.001161960218573253
-0.0006489906743737957,0.002926697817862547,-0.001688577142651016
-0.0006489506743737958,0.002598512160713051,-0.004354575320765292
-0.0006489106743737958,0.002664149292143037,-0.003498822819146808
-0.0006488706743737958,0.002696967857858057,-0.00517741426462922
-0.0006488306743737958,0.002171870806417842,-0.007645931096221003
-0.0006487906743737958,0.00184368514926829,-0.007876326000502483
-0.0006487506743737958,0.002270326503562007,-0.00771175821173359
-0.0006487106743737958,0.001778048017837652,-0.00962074456149443
-0.0006486706743737958,0.001252950966397437,-0.008271288693557588
-0.0006486306743737958,0.001712410886407667,-0.01159555802676786
-0.0006485906743737958,0.001613955189262785,-0.01307666812572023
-0.0006485506743737958,0.001843685149267753,-0.01301084101021214
-0.0006485106743737958,0.001876503714982714,-0.01208926139308621
-0.0006484706743737958,0.001515499492117545,-0.01241839697063178
-0.0006484306743737958,0.002237507937847882,-0.0115626444690133
-0.0006483906743737958,0.002139052240703,-0.01215508850859425
-0.0006483506743737957,0.00240160076642281,-0.0103777563898496
-0.0006483106743737958,0.002335963634992888,-0.01057523773637659
-0.0006482706743737958,0.002237507937847882,-0.01090437331392216
-0.0006482306743737958,0.002171870806417842,-0.009423263214967087
-0.0006481906743737958,0.00246723789785297,-0.009225781868439744
-0.0006481506743737957,0.002467237897853626,-0.00771175821172874
-0.0006481106743737958,0.002828242120718139,-0.006954746383375304
-0.0006480706743737958,0.002729786423573077,-0.00767884465397556
-0.0006480306743737958,0.003156427777868287,-0.006856005710111633
-0.0006479906743737958,0.003057972080723226,-0.007415536191939104
-0.0006479506743737958,0.002664149292143753,-0.007711758211729579
-0.0006479106743737958,0.003025153515007728,-0.007744671769487369
-0.0006478706743737958,0.002762604989288098,-0.009225781868439744
-0.0006478306743737958,0.002926697817863144,-0.009982793696794558
-0.0006477906743737958,0.003123609212153267,-0.007975066673766575
-0.0006477506743737958,0.002500056463569124,-0.008304202251311546
-0.0006477106743737958,0.00286106068643304,-0.01222091562410103
-0.0006476706743737958,0.002795423555003118,-0.01034484283209469
-0.0006476306743737958,0.002893879252148179,-0.01106894110269494
-0.0006475906743737958,0.003156427777868287,-0.01449195110916888
-0.0006475506743737958,0.002828242120718735,-0.01261587831716254
-0.0006475106743737958,0.002795423555002581,-0.01251713764389767
-0.0006474706743737958,0.00250005646356799,-0.01373493928081407
-0.0006474306743737958,0.002696967857858057,-0.01333997658775938
-0.0006473906743737958,0.002762604989288098,-0.01373493928081407
-0.0006473506743737958,0.00246723789785297,-0.014557778224678
-0.0006473106743737957,0.001548318057833759,-0.01426155620488812
-0.0006472706743737958,0.002204689372132862,-0.01488691380222357
-0.0006472306743737958,0.002335963634992888,-0.01570975274608749
-0.0006471906743737958,0.00253287502928301,-0.0150185680332418
-0.0006471506743737958,0.002434419332137949,-0.01551227139956015
-0.0006471106743737958,0.00167959232069402,-0.01278044610593688
-0.0006470706743737958,0.001942140846412754,-0.01422864264713243
-0.0006470306743737958,0.00207341510927278,-0.01636802390117864
-0.0006469906743737958,0.001974959412127775,-0.01383367995407774
-0.0006469506743737958,0.002171870806417842,-0.0136361986075504
-0.0006469106743737958,0.001810866583553329,-0.0147881731289578
-0.0006468706743737958,0.002171870806417364,-0.01584140697710273
-0.0006468306743737958,0.001909322280697734,-0.01419572908937787
-0.0006467906743737958,0.00253287502928301,-0.01050941062086747
-0.0006467506743737958,0.001974959412127775,-0.01320832235674115
-0.0006467106743737958,0.001646773754978223,-0.01653259168994537
-0.0006466706743737958,0.002139052240703,-0.0136032850497938
-0.0006466306743737958,0.002237507937847882,-0.0124842240861409
-0.0006465906743737958,0.002335963634992888,-0.01531479005303281
-0.0006465506743737958,0.00207341510927278,-0.01330706303000483
-0.0006465106743737958,0.002467237897852253,-0.01149681735350748
-0.0006464706743737957,0.002237507937848241,-0.01360328504979955
-0.0006464306743737958,0.002434419332137949,-0.01564392563057838
-0.0006463906743737958,0.002171870806417842,-0.0138665935118323
-0.0006463506743737958,0.002368782200707908,-0.01538061716854192
-0.0006463106743737958,0.002664149292143037,-0.01636802390117864
-0.0006462706743737959,0.002434419332138367,-0.01511730870650774
-0.0006462306743737958,0.002598512160713051,-0.01429446976264154
-0.0006461906743737958,0.003090790646438246,-0.01498565447548724
-0.0006461506743737958,0.002631330726428016,-0.01406407485835964
-0.0006461106743737958,0.002762604989288098,-0.01574266630384205
-0.0006460706743737958,0.002696967857858176,-0.01676298659423147
-0.0006460306743737958,0.003123609212152789,-0.01317540879898977
-0.0006459906743737958,0.002861060686433159,-0.01491982735997812
-0.0006459506743737958,0.003254883475013293,-0.01478817312895989
-0.0006459106743737958,0.002762604989288098,-0.0140969884161142
-0.0006458706743737958,0.002434419332138546,-0.0116613851422814
-0.0006458306743737958,0.00286106068643298,-0.01179303937329927
-0.0006457906743737958,0.002762604989288098,-0.01403116130060508
-0.0006457506743737958,0.002270326503562903,-0.01284627322144103
-0.0006457106743737958,0.002598512160713051,-0.01278044610593191
-0.0006456706743737958,0.002598512160713051,-0.01396533418509381
-0.0006456306743737957,0.002007777977843989,-0.01333997658775831
-0.0006455906743737958,0.002664149292143037,-0.01274753254817735
-0.0006455506743737958,0.00204059654355776,-0.01373493928081407
-0.0006455106743737958,0.002204689372132862,-0.01169429870003153
-0.0006454706743737958,0.002139052240702821,-0.01324123591449571
-0.0006454306743737957,0.002335963634991455,-0.01406407485835994
-0.0006453906743737958,0.001548318057832565,-0.01422864264713243
-0.0006453506743737958,0.002106233674987801,-0.01370202572305951
-0.0006453106743737958,0.002007777977842795,-0.01465651889794167
-0.0006452706743737958,0.001515499492117545,-0.01347163081877761
-0.0006452306743737958,0.001712410886407309,-0.01176012581554376
-0.0006451906743737958,0.001942140846412754,-0.01495274091773214
-0.0006451506743737958,0.001942140846412754,-0.01465651889794167
-0.0006451106743737958,0.002237507937847882,-0.0117930393732952
-0.0006450706743737958,0.002401600766422929,-0.01261587831715913
-0.0006450306743737958,0.002139052240703299,-0.01389950706958452
-0.0006449906743737958,0.002467237897853328,-0.01185886648880611
-0.0006449506743737958,0.002664149292143037,-0.01284627322144103
-0.0006449106743737958,0.002598512160713051,-0.01100311398718583
-0.0006448706743737958,0.003156427777868287,-0.01073980552514937
-0.0006448306743737958,0.003254883475013114,-0.01149681735350281
-0.0006447906743737957,0.002762604989287441,-0.01310958168347383
-0.0006447506743737958,0.002401600766422929,-0.0111018546604495
-0.0006447106743737958,0.003090790646438246,-0.01149681735350419
-0.0006446706743737958,0.00348461343501838,-0.01258296475940457
-0.0006446306743737958,0.003222064909298272,-0.01159555802676786
-0.0006445906743737957,0.002664149292142559,-0.01110185466044711
-0.0006445506743737958,0.002401600766422929,-0.009785312350267215
-0.0006445106743737958,0.002303145069277923,-0.01538061716854192
-0.0006444706743737958,0.002795423555003118,-0.002939292337319337
-0.0006444306743737958,0.00348461343501838,-0.01877071361726131
-0.0006443906743737958,0.001252950966401496,-0.01445903755142217
-0.0006443506743737958,0.002828242120716347,-0.003630477050196168
-0.0006443106743737958,0.001843685149267693,-0.02074552708253473
-0.0006442706743737958,0.00204059654355776,-0.005374895611156563
-0.0006442306743737958,0.002992334949293185,-0.0129450138947047
-0.0006441906743737958,0.002368782200709043,-0.01330706303000417
-0.0006441506743737958,0.001843685149268529,-0.00925869542620388
-0.0006441106743737958,0.002303145069277923,-0.01452486466692344
-0.0006440706743737958,0.002303145069277923,-0.01113476821820406
-0.0006440306743737958,0.002303145069277923,-0.01070689196739481
-0.0006439906743737958,0.00161395518926386,-0.01103602754493979
-0.0006439506743737958,0.002040596543558058,-0.009159954752935899
-0.0006439106743737958,0.002204689372132862,-0.01205634783533165
-0.0006438706743737958,0.001778048017837652,-0.008238375135803031
-0.0006438306743737958,0.002335963634992888,-0.01004862081230367
-0.0006437906743737958,0.00207341510927278,-0.01116768177595861
-0.0006437506743737957,0.00184368514926823,-0.01205634783532447
-0.0006437106743737958,0.002139052240702821,-0.008106720904784802
-0.0006436706743737958,0.002270326503562903,-0.009554917445985316
-0.0006436306743737958,0.002106233674987801,-0.008073807347030245
-0.0006435906743737958,0.00250005646356799,-0.008402942924575817
-0.0006435506743737958,0.002532875029282951,-0.007777585327240369
-0.0006435106743737958,0.002696967857858057,-0.009127041195176074
-0.0006434706743737958,0.002565693594998031,-0.007580103980711889
-0.0006434306743737958,0.002861060686433159,-0.01093728687167671
