Analysis/New Tests_CMB/wrd01_d2s01/cmb12_ch06.csv

#Digilent WaveForms Oscilloscope Acquisition
#Device Name: ADP3450
#Serial Number: SN:210018B9D9B0
#Date Time: 2024-08-15 11:41:28.304.936.210
#Sample rate: 5.88235e+06Hz
#Samples: 32768
#Trigger: Source: Channel 3 Type: Edge Condition: Rising Level: 40 mV Hyst.: Auto HoldOff: 0 s
#Channel 3: Range: 100 mV/div Offset: 0 V Attenuation: 1 X Coupling: DC Bandwidth: 0 Hz Sample Mode: Average

Time (s),Channel 3 (V)
-0.0031689044811147,0.01012739009123984
-0.0031687344811147,0.01075274768857474
-0.0031685644811147,0.00983116807144882
-0.0031683944811147,0.00973242739818515
-0.0031682244811147,0.009633686724921837
-0.0031680544811147,0.00983116807144882
-0.0031678844811147,0.00973242739818515
-0.0031677144811147,0.009896995186958355
-0.0031675444811147,0.01012739009123984
-0.0031673744811147,0.009765340955939707
-0.0031672044811147,0.009436205378393955
-0.0031670344811147,0.009337464705130465
-0.0031668644811147,0.009864081629203377
-0.0031666944811147,0.009666600282676274
-0.0031665244811147,0.009798254513694264
-0.0031663544811147,0.009469118936148692
-0.0031661844811147,0.008942502012075
-0.0031660144811147,0.008514625761266537
-0.0031658444811147,0.00871210710779388
-0.0031656744811147,0.008942502012074822
-0.0031655044811147,0.008415885088002865
-0.0031653344811147,0.008646279992284765
-0.0031651644811147,0.008185490183721804
-0.0031649944811147,0.008481712203511979
-0.0031648244811147,0.008876674896566664
-0.0031646544811147,0.00881084778105767
-0.0031644844811147,0.008448798645757422
-0.0031643144811147,0.008547539319021094
-0.0031641444811147,0.008415885088003104
-0.0031639744811147,0.008547539319021094
-0.0031638044811147,0.00881084778105755
-0.0031636344811147,0.00881084778105755
-0.0031634644811147,0.008975415569830336
-0.0031632944811147,0.008876674896566664
-0.0031631244811147,0.008745020665548676
-0.0031629544811147,0.008350057972493751
-0.0031627844811147,0.007593046144138938
-0.0031626144811147,0.007132256335575976
-0.0031624444811147,0.006934774989047795
-0.0031622744811147,0.006638552969256781
-0.0031621044811147,0.006638552969256781
-0.0031619344811147,0.006111936045183867
-0.0031617644811147,0.00574988690988374
-0.0031615944811147,0.005256183543566281
-0.0031614244811147,0.004400431041946898
-0.0031612544811147,0.004202949695419555
-0.0031610844811147,0.003347197193802627
-0.0031609144811147,0.002458531134428029
-0.0031607444811147,0.002359790461164357
-0.0031605744811147,0.002063568441373343
-0.0031604044811147,0.002063568441373343
-0.0031602344811147,0.001800259979336887
-0.0031600644811147,0.0005166312269091594
-0.0031598944811147,0.0009445074777184018
-0.0031597244811147,0.0005495447846637165
-0.0031595544811147,0.00107616170873663
-0.0031593844811147,0.0005495447846644349
-0.0031592144811147,0.0009445074777184018
-0.0031590444811147,0.00153695151730043
-0.0031588744811147,0.001471124401791435
-0.0031587044811147,0.00153695151730043
-0.0031585344811147,0.001339470170773087
-0.0031583644811147,0.001602778632809125
-0.0031581944811147,0.001372383728527644
-0.0031580244811147,0.001668605748318658
-0.0031578544811147,0.001504037959546232
-0.0031576844811147,0.001701519306073215
-0.0031575144811147,0.002359790461164357
-0.0031573444811147,0.002820580269729055
-0.0031571744811147,0.003314283636046514
-0.0031570044811147,0.003610505655837527
-0.0031568344811147,0.003610505655836689
-0.0031566644811147,0.003149715847273728
-0.0031564944811147,0.002919320942991828
-0.0031563244811147,0.002754753154218564
-0.0031561544811147,0.002491444692182586
-0.0031559844811147,0.002425617576673472
-0.0031558144811147,0.002491444692182586
-0.0031556444811147,0.002491444692182586
-0.0031554744811147,0.002261049787900686
-0.0031553044811147,0.001833173537091623
-0.0031551344811147,0.001931914210355115
-0.0031549644811147,0.001833173537091444
-0.0031547944811147,0.001800259979336946
-0.0031546244811147,0.002063568441373343
-0.0031544544811147,0.001899000652600558
-0.0031542844811147,0.001899000652600558
-0.0031541144811147,0.002392704018918914
-0.0031539444811147,0.002228136230146129
-0.0031537744811147,0.002491444692182107
-0.0031536044811147,0.003083888731764614
-0.0031534344811147,0.002886407385237271
-0.0031532644811147,0.002261049787901823
-0.0031530944811147,0.003215542962782842
-0.0031529244811147,0.003413024309310185
-0.0031527544811147,0.003149715847274207
-0.0031525844811147,0.002886407385237271
-0.0031524144811147,0.002688926038709928
-0.0031522444811147,0.001899000652601995
-0.0031520744811147,0.001866087094846001
-0.0031519044811147,0.001734432863827772
-0.0031517344811147,0.001109075266492325
-0.0031515644811147,0.0004508041114000451
-0.0031513944811147,0.0005495447846637165
-0.0031512244811147,0.0002862363226277385
-0.0031510544811147,8.875497609991696e-05
-0.0031508844811147,0.0002862363226272596
-0.0031507144811147,0.0004508041113997458
-0.0031505444811147,0.0005166312269091594
-0.0031503744811147,0.0002862363226272596
-0.0031502044811147,0.0008457668044547304
-0.0031500344811147,0.001109075266491187
-0.0031498644811147,0.001438210844036758
-0.0031496944811147,0.001438210844036758
-0.0031495244811147,0.001339470170773087
-0.0031493544811147,0.0009774210354729588
-0.0031491844811147,0.001569865075054987
-0.0031490144811147,0.000714112573436502
-0.0031488444811147,0.001273643055263973
-0.0031486744811147,0.0005495447846637165
-0.0031485044811147,0.0004837176691553805
-0.0031483344811147,0.0009115939199638446
-0.0031481644811147,0.0006482854579273878
-0.0031479944811147,0.0005824583424182735
-0.0031478244811147,0.0005824583424182735
-0.0031476544811147,0.0007799396889456162
-0.0031474844811147,0.001240729497509535
-0.0031473144811147,0.00130655661301853
-0.0031471444811147,0.001569865075054987
-0.0031469744811147,0.001306556613019129
-0.0031468044811147,0.001635692190564101
-0.0031466344811147,0.001043248150982073
-0.0031464644811147,0.0003191498803815174
-0.0031462944811147,0.0001545820916090312
-0.0031461244811147,-0.0005695161789912252
-0.0031459544811147,-0.001161960218573732
-0.0031457844811147,-0.00142526868060971
-0.0031456144811147,-0.001951885604682624
-0.0031454444811147,-0.002281021182229572
-0.0031452744811147,-0.003038033010583008
-0.0031451044811147,-0.003268427914864908
-0.0031449344811147,-0.003827958396692678
-0.0031447644811147,-0.003992526185465165
-0.0031445944811147,-0.003959612627710607
-0.0031444244811147,-0.004157093974236753
-0.0031442544811147,-0.003498822819146808
-0.0031440844811147,-0.003005119452828451
-0.0031439144811147,-0.001951885604684539
-0.0031437444811147,-0.00267598387528288
-0.0031435744811147,-0.00267598387528288
-0.0031434044811147,-0.002610156759773885
-0.0031432344811147,-0.002774724548546551
-0.0031430644811147,-0.002774724548546551
-0.0031428944811147,-0.002281021182229093
-0.0031427244811147,-0.002017712720191738
-0.0031425544811147,-0.001392355122855153
-0.0031423844811147,-0.0008328246410286998
-0.0031422144811147,-0.0004049483902184396
-0.0031420444811147,0.0006153719001728307
-0.0031418744811147,0.0006153719001728307
-0.0031417044811147,0.0008786803622092876
-0.0031415344811147,0.001372383728527644
-0.0031413644811147,0.001141988824246164
-0.0031411944811147,0.001043248150982073
-0.0031410244811147,0.001372383728527644
-0.0031408544811147,0.0006482854579287049
-0.0031406844811147,-9.985697163754359e-06
-0.0031405144811147,0.001372383728527644
-0.0031403444811147,0.000253322764874738
-0.0031401744811147,0.0003520634381363738
-0.0031400044811147,0.0006153719001728307
-0.0031398344811147,0.0005824583424182735
-0.0031396644811147,0.000714112573436502
-0.0031394944811147,0.001372383728527644
-0.0031393244811147,0.001602778632809544
-0.0031391544811147,0.001504037959545873
-0.0031389844811147,0.001569865075054987
-0.0031388144811147,0.00153695151730043
-0.0031386444811147,0.001964827768109672
-0.0031384744811147,0.001997741325864229
-0.0031383044811147,0.001635692190564101
-0.0031381344811147,0.001833173537091024
-0.0031379644811147,0.001602778632809544
-0.0031377944811147,0.001569865075054987
-0.0031376244811147,0.001405297286281842
-0.0031374544811147,0.001207815939754859
-0.0031372844811147,0.001339470170773087
-0.0031371144811147,0.0008457668044544311
-0.0031369444811147,0.0006811990156819448
-0.0031367744811147,0.001207815939754859
-0.0031366044811147,0.001141988824245445
-0.0031364344811147,0.0009774210354729588
-0.0031362644811147,0.00107616170873663
-0.0031360944811147,0.001207815939755398
-0.0031359244811147,0.001504037959545873
-0.0031357544811147,0.001273643055263973
-0.0031355844811147,0.001569865075055705
-0.0031354144811147,0.001964827768109672
-0.0031352444811147,0.0023268769034098
-0.0031350744811147,0.002063568441373762
-0.0031349044811147,0.002293963345655243
-0.0031347344811147,0.001800259979336887
-0.0031345644811147,0.001405297286279866
-0.0031343944811147,0.0001216685338544741
-0.0031342244811147,0.000417890553645488
-0.0031340544811147,-0.001918972046926809
-0.0031338844811147,-0.001227787334082367
-0.0031337144811147,-0.002577243202019209
-0.0031335444811147,-0.003597563492408623
-0.0031333744811147,-0.00415709397423795
-0.0031332044811147,-0.004716624456065421
-0.0031330344811147,-0.004584970225047432
-0.0031328644811147,-0.005045760033610991
-0.0031326944811147,-0.005144500706874663
-0.0031325244811147,-0.005243241380138155
-0.0031323544811147,-0.005374895611156563
-0.0031321844811147,-0.005045760033610991
-0.0031320144811147,-0.004650797340557024
-0.0031318444811147,-0.004848278687083649
-0.0031316744811147,-0.003827958396692379
-0.0031315044811147,-0.003202600799356931
-0.0031313344811147,-0.002412675413246423
-0.0031311644811147,-0.002149366951209966
-0.0031309944811147,-0.001622750027138011
-0.0031308244811147,-0.000832824641027682
-0.0031306544811147,0.0005166312269091594
-0.0031304844811147,0.0001216685338551925
-0.0031303144811147,0.0001874956493635883
-0.0031301444811147,0.000714112573436502
-0.0031299744811147,0.001207815939753961
-0.0031298044811147,0.00176734642158233
-0.0031296344811147,0.001931914210355115
-0.0031294644811147,0.001471124401792154
-0.0031292944811147,0.001471124401791315
-0.0031291244811147,0.001405297286282201
-0.0031289544811147,0.001504037959545873
-0.0031287844811147,0.001174902382000301
-0.0031286144811147,0.0008786803622092876
-0.0031284444811147,0.0009774210354729588
-0.0031282744811147,0.0005166312269091594
-0.0031281044811147,0.0006811990156819448
-0.0031279344811147,0.0006811990156819448
-0.0031277644811147,0.0003191498803816371
-0.0031275944811147,0.0002204092071181454
-0.0031274244811147,-4.289925491831147e-05
-0.0031272544811147,8.875497609913865e-05
-0.0031270844811147,-0.0003391212747093254
-0.0031269144811147,-0.0008986517565367963
-0.0031267444811147,-0.001194873776328349
-0.0031265744811147,-0.001491095796118824
-0.0031264044811147,-0.002017712720191738
-0.0031262344811147,-0.002050626277946594
-0.0031260644811147,-0.002215194066719081
-0.0031258944811147,-0.00267598387528288
-0.0031257244811147,-0.002643070317528144
-0.0031255544811147,-0.002544329644264652
-0.0031253844811147,-0.002741810990791994
-0.0031252144811147,-0.002412675413245944
-0.0031250444811147,-0.002149366951209966
-0.0031248744811147,-0.003465909261392251
-0.0031247044811147,-0.001820231373664635
-0.0031245344811147,-0.001951885604682624
-0.0031243644811147,-0.001589836469382495
-0.0031241944811147,-0.002313934739982752
-0.0031240244811147,-0.002313934739982752
-0.0031238544811147,-0.001984799162437181
-0.0031236844811147,-0.002346848297738028
-0.0031235144811147,-0.002741810990791994
-0.0031233444811147,-0.002511416086510094
-0.0031231744811147,-0.002379761855492105
-0.0031230044811147,-0.003400082145883136
-0.0031228344811147,-0.002313934739982752
-0.0031226644811147,-0.003136773683845183
-0.0031224944811147,-0.002939292337319337
-0.0031223244811147,-0.002774724548546551
-0.0031221544811147,-0.002807638106301049
-0.0031219844811147,-0.002972205895073894
-0.0031218144811147,-0.002939292337319337
-0.0031216444811147,-0.003038033010582829
-0.0031214744811147,-0.00369630416567415
-0.0031213044811147,-0.00369630416567415
-0.0031211344811147,-0.003762131281183145
-0.0031209644811147,-0.003992526185465165
-0.0031207944811147,-0.003762131281183265
-0.0031206244811147,-0.003729217723428767
-0.0031204544811147,-0.003531736376901365
-0.0031202844811147,-0.00244558897100098
-0.0031201144811147,-0.002281021182228494
-0.0031199444811147,-0.001589836469382495
-0.0031197744811147,-0.0005036890634821109
-0.0031196044811147,0.0002533227648713255
-0.0031194344811147,0.000714112573436502
-0.0031192644811147,0.001997741325864229
-0.0031190944811147,0.002754753154217666
-0.0031189244811147,0.002623098923200814
-0.0031187544811147,0.002820580269728157
-0.0031185844811147,0.002952234500746385
-0.0031184144811147,0.002590185365446257
-0.0031182444811147,0.002491444692182586
-0.0031180744811147,0.002293963345655243
-0.0031179044811147,0.002359790461164357
-0.0031177344811147,0.002359790461164357
-0.0031175644811147,0.002425617576673472
-0.0031173944811147,0.001931914210355115
-0.0031172244811147,0.001504037959545873
-0.0031170544811147,0.001043248150982073
-0.0031168844811147,0.00107616170873669
-0.0031167144811147,0.001109075266491187
-0.0031165444811147,0.0006811990156819448
-0.0031163744811147,0.0008786803622085692
-0.0031162044811147,0.0004837176691546022
-0.0031160344811147,-0.0001745534859365399
-0.0031158644811147,-0.0001087263704279046
-0.0031156944811147,-0.0003720348324638825
-0.0031155244811147,-0.001030305987555025
-0.0031153544811147,-0.0006024297367469796
-0.0031151844811147,-0.001260700891836924
-0.0031150144811147,-0.001161960218573253
-0.0031148444811147,-0.001096133103064438
-0.0031146744811147,-0.001260700891836924
-0.0031145044811147,-0.00142526868060971
-0.0031143344811147,-0.001293614449593098
-0.0031141644811147,-0.002182280508964523
-0.0031139944811147,-0.002116453393455409
-0.0031138244811147,-0.002972205895073954
-0.0031136544811147,-0.003005119452828451
-0.0031134844811147,-0.004321661763010735
-0.0031133144811147,-0.004519143109538258
-0.0031131444811147,-0.004617883782801749
-0.0031129744811147,-0.005144500706874663
-0.0031128044811147,-0.005012846475855537
-0.0031126344811147,-0.004519143109538078
-0.0031124644811147,-0.005078673591365549
-0.0031122944811147,-0.005045760033611051
-0.0031121244811147,-0.004584970225047193
-0.0031119544811147,-0.00438748887851985
-0.0031117844811147,-0.003597563492411916
-0.0031116144811147,-0.002511416086510094
-0.0031114444811147,-0.001359441565100596
-0.0031112744811147,-0.000701170410010651
-0.0031111044811147,0.0006153719001728307
-0.0031109344811147,0.001471124401791315
-0.0031107644811147,0.00212939555688126
-0.0031105944811147,0.0030180616162555
-0.0031104244811147,0.003083888731764614
-0.0031102544811147,0.003281370078291597
-0.0031100844811147,0.003149715847273728
-0.0031099144811147,0.003083888731764614
-0.0031097444811147,0.003215542962782603
-0.0031095744811147,0.003248456520537399
-0.0031094044811147,0.003215542962782842
-0.0031092344811147,0.003215542962782842
-0.0031090644811147,0.002754753154219042
-0.0031088944811147,0.002228136230146129
-0.0031087244811147,0.002326876903409621
-0.0031085544811147,0.00176734642158233
-0.0031083844811147,0.001504037959545873
-0.0031082144811147,0.001207815939755398
-0.0031080444811147,0.0007799396889456162
-0.0031078744811147,0.0008457668044547304
-0.0031077044811147,0.0003520634381363738
-0.0031075344811147,0.0001874956493635883
-0.0031073644811147,-0.0004707755057275538
-0.0031071944811147,-0.0002732941592002112
-0.0031070244811147,-0.001293614449591481
-0.0031068544811147,-0.001129046660818696
-0.0031066844811147,-0.001556922911627938
-0.0031065144811147,-0.002182280508963985
-0.0031063444811147,-0.00188605848917351
-0.0031061744811147,-0.002116453393455409
-0.0031060044811147,-0.00152400935387404
-0.0031058344811147,-0.00188605848917351
-0.0031056644811147,-0.00165566358489161
-0.0031054944811147,-0.001984799162438677
-0.0031053244811147,-0.002807638106301108
-0.0031051544811147,-0.002544329644264652
-0.0031049844811147,-0.003169687241601835
-0.0031048144811147,-0.003498822819146808
-0.0031046444811147,-0.003762131281183265
-0.0031044744811147,-0.004255834647501681
-0.0031043044811147,-0.004288748205256179
-0.0031041344811147,-0.003860871954446936
-0.0031039644811147,-0.003860871954446757
-0.0031037944811147,-0.003762131281183265
-0.0031036244811147,-0.003465909261392251
-0.0031034544811147,-0.00280763810630045
-0.0031032844811147,-0.00244558897100098
-0.0031031144811147,-0.001820231373664395
-0.0031029444811147,-0.00188605848917327
-0.0031027744811147,-0.001754404258155281
-0.0031026044811147,-0.001853144931418952
-0.0031024344811147,-0.001787317815909659
-0.0031022644811147,-0.001688577142646167
-0.0031020944811147,-0.001359441565100596
-0.0031019244811147,-0.001030305987555623
-0.0031017544811147,-0.0005036890634821109
-0.0031015844811147,-0.0006353432945003394
-0.0031014144811147,-0.0005036890634823504
-0.0031012444811147,-0.0001087263704274257
-0.0031010744811147,0.0005166312269091594
-0.0031009044811147,0.0005824583424181538
-0.0031007344811147,0.001010334593227516
-0.0031005644811147,0.001174902382000301
-0.0031003944811147,0.0007470261311918374
-0.0031002244811147,0.0004508041114000451
-0.0031000544811147,-0.0001416399281819828
-0.0030998844811147,-0.0002732941591999718
-0.0030997144811147,-0.0004049483902184396
-0.0030995444811147,-0.0004707755057275538
-0.0030993744811147,-0.0003720348324640621
-0.0030992044811147,-0.0004378619479729968
-0.0030990344811147,-0.00119487377632781
-0.0030988644811147,-0.001721490700399766
-0.0030986944811147,-0.002017712720191738
-0.0030985244811147,-0.002643070317528323
-0.0030983544811147,-0.003070946568336787
-0.0030981844811147,-0.003597563492410479
-0.0030980144811147,-0.003827958396692379
-0.0030978444811147,-0.004354575320764335
-0.0030976744811147,-0.004552056667292635
-0.0030975044811147,-0.004815365129329092
-0.0030973344811147,-0.004584970225047193
-0.0030971644811147,-0.004683710898310864
-0.0030969944811147,-0.004453315994028964
-0.0030968244811147,-0.004124180416483393
-0.0030966544811147,-0.003432995703637694
-0.0030964844811147,-0.004979932918101878
-0.0030963144811147,-0.001556922911627938
-0.0030961444811147,-0.00165566358489161
-0.0030959744811147,-0.0007669975255185678
-0.0030958044811147,-0.0007999110832731249
-0.0030956344811147,-0.0005036890634804345
-0.0030954644811147,0.000417890553645488
-0.0030952944811147,0.0006482854579273878
-0.0030951244811147,0.001306556613017871
-0.0030949544811147,0.0009445074777184018
-0.0030947844811147,0.001734432863827772
-0.0030946144811147,0.0006482854579280464
-0.0030944444811147,0.001010334593227516
-0.0030942744811147,0.0006153719001728307
-0.0030941044811147,0.0002204092071176664
-0.0030939344811147,-4.289925491831147e-05
-0.0030937644811147,-0.0004049483902184396
-0.0030935944811147,-0.0005695161789918239
-0.0030934244811147,-0.0008986517565367963
-0.0030932544811147,-0.001129046660818696
-0.0030930844811147,-0.0009973924298010064
-0.0030929144811147,-0.001293614449591481
-0.0030927444811147,-0.00142526868060971
-0.0030925744811147,-0.001556922911627459
-0.0030924044811147,-0.001293614449591481
-0.0030922344811147,-0.001359441565100596
-0.0030920644811147,-0.0005695161789918239
-0.0030918944811147,-0.0008986517565367963
-0.0030917244811147,-0.0004049483902184396
-0.0030915544811147,2.292786059098236e-05
-0.0030913844811147,0.0001216685338544741
-0.0030912144811147,0.0003520634381363738
-0.0030910444811147,0.0006153719001723518
-0.0030908744811147,0.001010334593227516
-0.0030907044811147,0.00176734642158233
-0.0030905344811147,0.001734432863827832
-0.0030903644811147,0.001866087094846001
-0.0030901944811147,0.001635692190564101
-0.0030900244811147,0.001306556613019129
-0.0030898544811147,0.0009445074777184018
-0.0030896844811147,0.0002533227648727025
-0.0030895144811147,0.0001216685338547135
-0.0030893444811147,-0.000207467043691097
-0.0030891744811147,-0.0005366026212366681
-0.0030890044811147,-0.0008328246410271432
