Analysis/New Tests_CMB/wrd01_d2s01/cmb10_ch42.csv

#Digilent WaveForms Oscilloscope Acquisition
#Device Name: ADP3450
#Serial Number: SN:210018B9D9B0
#Date Time: 2024-08-14 17:14:58.157.224.650
#Sample rate: 5.88235e+06Hz
#Samples: 32768
#Trigger: Source: Channel 3 Type: Edge Condition: Rising Level: 60 mV Hyst.: Auto HoldOff: 0 s
#Channel 3: Range: 100 mV/div Offset: 0 V Attenuation: 1 X Coupling: DC Bandwidth: 0 Hz Sample Mode: Average

Time (s),Channel 3 (V)
-0.003798396374351443,0.214257275285003
-0.003798226374351442,0.2271593899248311
-0.003798056374351442,0.2386133080234097
-0.003797886374351443,0.2480924126567038
-0.003797716374351443,0.2569132461349204
-0.003797546374351443,0.2631997356660294
-0.003797376374351443,0.2687621269265495
-0.003797206374351442,0.2724155318373078
-0.003797036374351442,0.2730738029924032
-0.003796866374351443,0.2749169622266512
-0.003796696374351443,0.2746536537646142
-0.003796526374351443,0.2740282961672787
-0.003796356374351443,0.2723497047217963
-0.003796186374351442,0.2699470150057044
-0.003796016374351442,0.2674126710586002
-0.003795846374351442,0.2639567474943811
-0.003795676374351443,0.2622123289333848
-0.003795506374351443,0.2578348257520366
-0.003795336374351443,0.2539181123792443
-0.003795166374351442,0.2512850277588637
-0.003794996374351442,0.246874611019758
-0.003794826374351442,0.2438136501485877
-0.003794656374351443,0.2396336283137598
-0.003794486374351443,0.2359143962875016
-0.003794316374351443,0.2321622507034821
-0.003794146374351443,0.2281138830996789
-0.003793976374351442,0.2245263053044103
-0.003793806374351442,0.2205437648161173
-0.003793636374351443,0.2171865819251516
-0.003793466374351443,0.21336860922563
-0.003793296374351443,0.2084315755624464
-0.003793126374351443,0.2068517247902305
-0.003792956374351442,0.2024742216088586
-0.003792786374351442,0.198919557371373
-0.003792616374351443,0.1954307202493913
-0.003792446374351443,0.192633067840259
-0.003792276374351443,0.1891113171605214
-0.003792106374351443,0.1855895664807902
-0.003791936374351442,0.1826931733983698
-0.003791766374351442,0.1791385091608845
-0.003791596374351443,0.1757813262699196
-0.003791426374351443,0.1724241433789609
-0.003791256374351443,0.1689023926992233
-0.003791086374351443,0.1652819013462286
-0.003790916374351442,0.1621551133595289
-0.003790746374351442,0.1593574609503951
-0.003790576374351443,0.1557040560396411
-0.003790406374351443,0.1530709714192813
-0.003790236374351443,0.1497796156438256
-0.003790066374351443,0.1467515683304064
-0.003789896374351442,0.1443817921720683
-0.003789726374351442,0.1416499668784451
-0.003789556374351443,0.1389510551425727
-0.003789386374351443,0.1369433281195484
-0.003789216374351443,0.1345406384034657
-0.003789046374351443,0.1324670842649286
-0.003788876374351442,0.1308214063771932
-0.003788706374351442,0.1287478522386602
-0.003788536374351443,0.1268717794466524
-0.003788366374351443,0.1260489405027856
-0.003788196374351443,0.1236791643444619
-0.003788026374351443,0.1220005728989794
-0.003787856374351442,0.1199928458759463
-0.003787686374351442,0.1185775628925029
-0.003787516374351443,0.1171622799090559
-0.003787346374351443,0.1151545528860276
-0.003787176374351443,0.1129822580742308
-0.003787006374351443,0.11080996326243
-0.003786836374351442,0.1087034955661306
-0.003786666374351442,0.1065641143120853
-0.003786496374351443,0.1046880415200787
-0.003786326374351443,0.1026474009392959
-0.003786156374351443,0.1004751061274991
-0.003785986374351443,0.09846737910447112
-0.003785816374351442,0.09613051650389229
-0.003785646374351442,0.09468231996269226
-0.003785476374351442,0.09336577765251187
-0.003785306374351443,0.09178592688029327
-0.003785136374351443,0.09027190322358639
-0.003784966374351443,0.08862622533585854
-0.003784796374351442,0.08724385591016331
-0.003784626374351442,0.08619062206201436
-0.003784456374351442,0.08428163571225389
-0.003784286374351443,0.08257013070901842
-0.003784116374351443,0.08168146464964698
-0.003783946374351443,0.08033200878171015
-0.003783776374351443,0.07898255291377575
-0.003783606374351442,0.07829136820092521
-0.003783436374351442,0.0776330970458349
-0.003783266374351443,0.07677734454421618
-0.003783096374351443,0.07578993781158128
-0.003782926374351443,0.07480253107894455
-0.003782756374351443,0.07365055655753715
-0.003782586374351442,0.07246566847836908
-0.003782416374351442,0.07193905155429545
-0.003782246374351443,0.07049085501309584
-0.003782076374351443,0.0695363618382154
-0.003781906374351443,0.06818690597027857
-0.003781736374351443,0.06696910433336217
-0.003781566374351442,0.06601461115847411
-0.003781396374351442,0.06499429086808456
-0.003781226374351443,0.06390814346218388
-0.003781056374351443,0.06265742826751297
-0.003780886374351443,0.06183458932364905
-0.003780716374351443,0.06081426903325964
-0.003780546374351442,0.05946481316531554
-0.003780376374351442,0.05798370306636413
-0.003780206374351443,0.05702920989148257
-0.003780036374351443,0.05640385229414713
-0.003779866374351443,0.05541644556151042
-0.003779696374351443,0.05416573036683724
-0.003779526374351442,0.05426447104009517
-0.003779356374351442,0.05268462026787996
-0.003779186374351443,0.05146681863096356
-0.003779016374351443,0.05146681863096356
-0.003778846374351443,0.05008444920527216
-0.003778676374351443,0.04942617805018102
-0.003778506374351442,0.04880082045284061
-0.003778336374351442,0.04774758660469735
-0.003778166374351443,0.04705640189185213
-0.003777996374351443,0.04662852564104199
-0.003777826374351443,0.04570694602391607
-0.003777656374351443,0.04504867486882493
-0.003777486374351442,0.04475245284902804
-0.003777316374351442,0.04313968851905942
-0.003777146374351443,0.04248141736396678
-0.003776976374351443,0.04100030726501194
-0.003776806374351443,0.03965085139707756
-0.003776636374351443,0.03876218533770451
-0.003776466374351442,0.03780769216281913
-0.003776296374351442,0.03691902610344764
-0.003776126374351443,0.03645823629488486
-0.003775956374351443,0.03609618715958492
-0.003775786374351443,0.03583287869754893
-0.003775616374351443,0.03560248379326703
-0.003775446374351442,0.03514169398470228
-0.003775276374351442,0.03487838552266594
-0.003775106374351443,0.03464799061838506
-0.003774936374351443,0.03474673129164885
-0.003774766374351443,0.03491129908042134
-0.003774596374351443,0.03497712619593045
-0.003774426374351442,0.03326562119270102
-0.003774256374351442,0.03533917533122256
-0.003774086374351442,0.03313396696167459
-0.003773916374351443,0.03277191782637435
-0.003773746374351443,0.03234404157556588
-0.003773576374351443,0.03165285686272018
-0.003773406374351443,0.03171868397822918
-0.003773236374351442,0.03152120263170147
-0.003773066374351442,0.03138954840068318
-0.003772896374351443,0.03109332638089217
-0.003772726374351443,0.0307971043611017
-0.003772556374351443,0.02951347560867397
-0.003772386374351443,0.02980969762846445
-0.003772216374351442,0.02951347560867265
-0.003772046374351442,0.02915142647337384
-0.003771876374351443,0.02915142647337324
-0.003771706374351443,0.02882229089582827
-0.003771536374351443,0.02869063666481004
-0.003771366374351443,0.02911851291561851
-0.003771196374351442,0.02895394512684446
-0.003771026374351442,0.02839441464501861
-0.003770856374351443,0.02816401974073689
-0.003770686374351443,0.0280323655097189
-0.003770516374351443,0.02773614348992789
-0.003770346374351443,0.02711078589259244
-0.003770176374351442,0.02658416896851851
-0.003770006374351442,0.02661708252627205
-0.003769836374351443,0.02612337915995273
-0.003769666374351443,0.02510305886956332
-0.003769496374351443,0.02470809617650863
-0.003769326374351443,0.02421439281019028
-0.003769156374351442,0.02411565213692266
-0.003768986374351442,0.02302950473102616
-0.003768816374351443,0.02299659117326975
-0.003768646374351443,0.02194335732512584
-0.003768476374351443,0.02131799972778925
-0.003768306374351443,0.02079138280371634
-0.003768136374351442,0.02026476587964043
-0.003767966374351442,0.01944192693577932
-0.003767796374351443,0.01934318626251463
-0.003767626374351443,0.0186849151074254
-0.003767456374351443,0.01907987780047937
-0.003767286374351443,0.0192115320314976
-0.003767116374351442,0.01921153203149987
-0.003766946374351442,0.0198368896288346
-0.003766776374351443,0.02006728453311632
-0.003766606374351443,0.02019893876413443
-0.003766436374351443,0.02026476587964342
-0.003766266374351443,0.02056098789943444
-0.003766096374351442,0.02069264213045422
-0.003765926374351442,0.02112051838126299
-0.003765756374351443,0.0214167404010534
-0.003765586374351443,0.02168004886308884
-0.003765416374351443,0.02138382684329837
-0.003765246374351443,0.02102177770799824
-0.003765076374351442,0.02095595059248565
-0.003764906374351442,0.02000145741760924
-0.003764736374351443,0.02062681501494218
-0.003764566374351443,0.0198698031865885
-0.003764396374351443,0.01973814895557051
-0.003764226374351443,0.0192115320314976
-0.003764056374351442,0.01865200154966905
-0.003763886374351442,0.01835577952987815
-0.003763716374351442,0.01809247106784271
-0.003763546374351443,0.01812538462559715
-0.003763376374351443,0.01809247106784265
-0.003763206374351443,0.0178291626058062
-0.003763036374351443,0.0178620761635607
-0.003762866374351442,0.01723671856622297
-0.003762696374351442,0.01690758298867884
-0.003762526374351443,0.01703923721969653
-0.003762356374351443,0.01687466943092404
-0.003762186374351443,0.01671010164215126
-0.003762016374351443,0.01657844741113327
-0.003761846374351442,0.01671010164215006
-0.003761676374351442,0.01638096606460532
-0.003761506374351443,0.0161834847180793
-0.003761336374351443,0.01671010164215126
-0.003761166374351443,0.0169075829886786
-0.003760996374351443,0.01684175587316961
-0.003760826374351442,0.0176645948170315
-0.003760656374351442,0.01713797789296026
-0.003760486374351443,0.01700632366194095
-0.003760316374351443,0.01628222539134202
-0.003760146374351443,0.0171379778929605
-0.003759976374351443,0.01654553385337955
-0.003759806374351442,0.01697341010418711
-0.003759636374351442,0.01680884231541505
-0.003759466374351443,0.01687466943092398
-0.003759296374351443,0.01684175587316948
-0.003759126374351443,0.01677592875766037
-0.003758956374351443,0.01657844741113339
-0.003758786374351442,0.01611765760256959
-0.003758616374351442,0.01621639827583356
-0.003758446374351443,0.01657844741113315
-0.003758276374351443,0.01664427452664214
-0.003758106374351443,0.01677592875766037
-0.003757936374351443,0.01710506433520594
-0.003757766374351442,0.01671010164215305
-0.003757596374351442,0.01720380500846991
-0.003757426374351443,0.01736837279724264
-0.003757256374351443,0.01750002702825991
-0.003757086374351443,0.01710506433520594
-0.003756916374351443,0.01684175587316948
-0.003756746374351442,0.01687466943092296
-0.003756576374351442,0.01657844741113231
-0.003756406374351443,0.01618348471807786
-0.003756236374351443,0.01592017625604069
-0.003756066374351443,0.01526190510095074
-0.003755896374351443,0.01493276952340517
-0.003755726374351442,0.01447197971483754
-0.003755556374351442,0.01341874586669866
-0.003755386374351443,0.01427449836831301
-0.003755216374351443,0.01371496788648566
-0.003755046374351443,0.0132212645201682
-0.003754876374351443,0.01295795605813175
-0.003754706374351442,0.0128263018271122
-0.003754536374351442,0.01246425269181363
-0.003754366374351443,0.01253007980732268
-0.003754196374351443,0.01262882048058617
-0.003754026374351443,0.01262882048058617
-0.003753856374351443,0.01295795605813175
-0.003753686374351442,0.01282630182711172
-0.003753516374351442,0.01233259846079456
-0.003753346374351442,0.01216803067202339
-0.003753176374351443,0.01272756115384889
-0.003753006374351443,0.01220094422977693
-0.003752836374351443,0.01269464759609529
-0.003752666374351443,0.01200346288325085
-0.003752496374351442,0.0125629933650785
-0.003752326374351442,0.01295795605813163
-0.003752156374351443,0.01289212894262305
-0.003751986374351443,0.01312252384690453
-0.003751816374351443,0.01272756115384985
-0.003751646374351443,0.01282630182711334
-0.003751476374351442,0.01266173403834145
-0.003751306374351442,0.01285921538486843
-0.003751136374351443,0.013056696731395
-0.003750966374351443,0.01282630182711352
-0.003750796374351443,0.01246425269181339
-0.003750626374351443,0.01177306797896895
-0.003750456374351442,0.01118062393938554
-0.003750286374351442,0.01114771038163146
-0.003750116374351443,0.01134519172815725
-0.003749946374351443,0.01068692057306731
-0.003749776374351443,0.01088440191959465
-0.003749606374351443,0.01104896970836713
-0.003749436374351442,0.01042361211103157
-0.003749266374351442,0.01062109345755897
-0.003749096374351443,0.01104896970836773
-0.003748926374351443,0.01121353749714022
-0.003748756374351443,0.01131227817040389
-0.003748586374351443,0.01206928999875733
-0.003748416374351442,0.01223385778753209
-0.003748246374351442,0.01239842557630511
-0.003748076374351443,0.01285921538486909
-0.003747906374351443,0.01341874586669555
-0.003747736374351443,0.0139124492330139
-0.003747566374351443,0.01447197971484137
-0.003747396374351442,0.01513025086993299
-0.003747226374351442,0.0152619051009508
-0.003747056374351443,0.01529481865870554
-0.003746886374351443,0.01542647288972353
-0.003746716374351443,0.0150644237544234
-0.003746546374351443,0.01680884231541493
-0.003746376374351442,0.01417575769505132
-0.003746206374351442,0.01443906615708664
-0.003746036374351443,0.01434032548382159
-0.003745866374351443,0.01348457298220478
-0.003745696374351443,0.01355040009771377
-0.003745526374351443,0.0134516594244501
-0.003745356374351442,0.01325417807792108
-0.003745186374351442,0.01279338826935621
-0.003745016374351443,0.01203637644100355
-0.003744846374351443,0.01170724086345876
-0.003744676374351443,0.01180598153672225
-0.003744506374351443,0.011378105285913
-0.003744336374351442,0.01055526634205255
-0.003744166374351442,0.01150975951692872
-0.003743996374351443,0.01081857480408565
-0.003743826374351443,0.01088440191959513
-0.003743656374351443,0.01114771038163111
-0.003743486374351443,0.01062109345755819
-0.003743316374351442,0.01045652566878648
-0.003743146374351442,0.01075274768857522
-0.003742976374351442,0.01042361211103175
-0.003742806374351443,0.01091731547734998
-0.003742636374351443,0.01134519172815845
-0.003742466374351443,0.01190472220998592
-0.003742296374351442,0.01098314259286203
-0.003742126374351442,0.01200346288324947
-0.003741956374351442,0.01197054932549629
-0.003741786374351443,0.01266173403834139
-0.003741616374351443,0.01302378317364086
-0.003741446374351443,0.01318835096241365
-0.003741276374351443,0.01322126452016814
-0.003741106374351442,0.01305669673139554
-0.003740936374351442,0.01308961028914944
-0.003740766374351443,0.01279338826935902
-0.003740596374351443,0.01282630182711352
-0.003740426374351443,0.01236551201854972
-0.003740256374351443,0.01236551201854972
-0.003740086374351442,0.01193763576773868
-0.003739916374351442,0.01144393240142242
-0.003739746374351443,0.01160850019019472
-0.003739576374351443,0.01150975951693123
-0.003739406374351443,0.01197054932549503
-0.003739236374351443,0.01213511711426752
-0.003739066374351442,0.0124971662495689
-0.003738896374351442,0.0127604747116041
-0.003738726374351443,0.01259590692283162
-0.003738556374351443,0.01259590692283162
-0.003738386374351443,0.01262882048058617
-0.003738216374351443,0.01256299336507718
-0.003738046374351442,0.01233259846079444
-0.003737876374351442,0.01213511711426674
-0.003737706374351443,0.01154267307468489
-0.003737536374351443,0.01104896970836743
-0.003737366374351443,0.01085148836184009
-0.003737196374351443,0.01062109345755819
-0.003737026374351442,0.01006156297573
-0.003736856374351442,0.009864081629203677
-0.003736686374351443,0.01002864941797748
-0.003736516374351443,0.01075274768857642
-0.003736346374351443,0.01098314259285832
-0.003736176374351443,0.01121353749714022
-0.003736006374351442,0.01177306797896925
-0.003735836374351442,0.01220094422977759
-0.003735666374351443,0.01256299336507718
-0.003735496374351443,0.01262882048058671
-0.003735326374351443,0.01292504250037719
-0.003735156374351443,0.0129908696158863
-0.003734986374351442,0.0137149678864862
-0.003734816374351442,0.01361622721322319
-0.003734646374351443,0.01378079500199561
-0.003734476374351443,0.01374788144424142
-0.003734306374351443,0.0139124492330139
-0.003734136374351443,0.01358331365546833
-0.003733966374351442,0.01364914077097792
-0.003733796374351442,0.01378079500199412
-0.003733626374351443,0.01335291875118673
-0.003733456374351443,0.01351748653995892
-0.003733286374351443,0.01335291875118643
-0.003733116374351443,0.01302378317364086
-0.003732946374351442,0.01246425269181004
-0.003732776374351442,0.01154267307468423
-0.003732606374351442,0.01111479682387661
-0.003732436374351443,0.01114771038163039
-0.003732266374351443,0.01075274768857642
-0.003732096374351443,0.01078566124633098
-0.003731926374351442,0.01075274768857594
-0.003731756374351442,0.01062109345755915
-0.003731586374351442,0.01088440191959465
-0.003731416374351443,0.01088440191959441
-0.003731246374351443,0.01075274768857642
-0.003731076374351443,0.01062109345755819
-0.003730906374351443,0.01032487143776772
-0.003730736374351442,0.009798254513693785
-0.003730566374351442,0.009666600282675915
-0.003730396374351443,0.009600773167166681
-0.003730226374351443,0.009469118936148692
-0.003730056374351443,0.009469118936148692
-0.003729886374351443,0.009929908744711655
-0.003729716374351442,0.009666600282677112
-0.003729546374351442,0.00996282230246693
-0.003729376374351443,0.009896995186958475
-0.003729206374351443,0.01019321720674895
-0.003729036374351443,0.01042361211103085
-0.003728866374351443,0.01048943922653984
-0.003728696374351442,0.01045652566878744
-0.003728526374351442,0.01101605615061342
-0.003728356374351443,0.01131227817040479
-0.003728186374351443,0.01180598153672225
-0.003728016374351443,0.011378105285913
-0.003727846374351443,0.01150975951693099
-0.003727676374351442,0.01154267307468663
-0.003727506374351442,0.01177306797896799
-0.003727336374351443,0.01193763576774299
-0.003727166374351443,0.01332000519343187
-0.003726996374351443,0.01111479682387655
-0.003726826374351443,0.0116085001901949
-0.003726656374351442,0.01164141374794958
-0.003726486374351442,0.01167432730570384
-0.003726316374351443,0.01157558663244059
-0.003726146374351443,0.01170724086345858
-0.003725976374351443,0.01170724086345858
-0.003725806374351443,0.01157558663244035
-0.003725636374351442,0.01206928999876038
-0.003725466374351442,0.0125300798073222
-0.003725296374351443,0.01236551201855068
-0.003725126374351443,0.01289212894262215
-0.003724956374351443,0.01262882048058617
-0.003724786374351443,0.01266173403834073
-0.003724616374351442,0.01229968490303941
-0.003724446374351442,0.01197054932549336
-0.003724276374351443,0.01104896970836755
-0.003724106374351443,0.01111479682387571
-0.003723936374351443,0.01065400701531275
-0.003723766374351443,0.01025904432225806
-0.003723596374351442,0.009995735860222324
-0.003723426374351442,0.01019321720674907
-0.003723256374351443,0.01022613076450321
-0.003723086374351443,0.01006156297573156
-0.003722916374351443,0.01052235278429452
-0.003722746374351443,0.01062109345755819
-0.003722576374351442,0.01095022903510472
-0.003722406374351442,0.01121353749714046
-0.003722236374351443,0.01127936461264981
-0.003722066374351443,0.01154267307468561
-0.003721896374351443,0.01144393240142212
-0.003721726374351443,0.01154267307468579
-0.003721556374351442,0.01141101884366684
-0.003721386374351442,0.01121353749714177
-0.003721216374351442,0.01164141374794916
-0.003721046374351443,0.01147684595917638
-0.003720876374351443,0.01131227817040389
-0.003720706374351443,0.01141101884366756
-0.003720536374351443,0.0109502290351046
-0.003720366374351442,0.01124645105489454
-0.003720196374351442,0.01118062393938446
-0.003720026374351443,0.01052235278429488
-0.003719856374351443,0.01071983413082186
-0.003719686374351443,0.01078566124633098
-0.003719516374351443,0.01042361211103151
-0.003719346374351442,0.009864081629204813
-0.003719176374351442,0.01025904432225734
-0.003719006374351443,0.009864081629203976
