Analysis/New Tests_CMB/wrd01_d2s01/cmb13_ch08.csv

#Digilent WaveForms Oscilloscope Acquisition
#Device Name: ADP3450
#Serial Number: SN:210018B9D9B0
#Date Time: 2024-08-06 17:52:43.876.497.250
#Sample rate: 2.94118e+06Hz
#Samples: 32768
#Trigger: Source: Channel 3 Type: Edge Condition: Rising Level: 60 mV Hyst.: Auto HoldOff: 0 s
#Channel 3: Range: 200 mV/div Offset: -20 mV Attenuation: 1 X Coupling: DC Bandwidth: 0 Hz Sample Mode: Average

Time (s),Channel 3 (V)
-0.005570380401505646,0.02951737266616365
-0.005570040401505646,0.02866162016454241
-0.005569700401505646,0.02714759650783553
-0.005569360401505646,0.02533735083133489
-0.005569020401505646,0.02425120342543217
-0.005568680401505646,0.02296757467300678
-0.005568340401505646,0.02260552553770665
-0.005568000401505646,0.02260552553770617
-0.005567660401505646,0.0223422170756702
-0.005567320401505646,0.02244095774893387
-0.005566980401505646,0.02240804419117943
-0.005566640401505646,0.02247387130668842
-0.005566300401505646,0.02263843909546121
-0.005565960401505646,0.02188142726710544
-0.005565620401505646,0.02135481034303348
-0.005565280401505646,0.02036740361039677
-0.005564940401505646,0.01911668841572211
-0.005564600401505646,0.01829384947185967
-0.005564260401505646,0.01806345456757777
-0.005563920401505646,0.01780014610554102
-0.005563580401505646,0.01763557831676853
-0.005563240401505646,0.01720770206595929
-0.005562900401505646,0.01651651735311484
-0.005562560401505646,0.01638486312209536
-0.005562220401505646,0.01625320889107713
-0.005561880401505646,0.01631903600658613
-0.005561540401505646,0.01645069023760447
-0.005561200401505646,0.01654943091086815
-0.005560860401505646,0.01661525802637714
-0.005560520401505646,0.01724061562371385
-0.005560180401505646,0.01743809697024119
-0.005559840401505646,0.01816219524084012
-0.005559500401505646,0.01855715793389613
-0.005559160401505646,0.01875463928042347
-0.005558820401505646,0.01882046639593246
-0.005558480401505646,0.01786597322105043
-0.005558140401505646,0.01763557831676853
-0.005557800401505646,0.0168127393729061
-0.005557460401505646,0.01661525802637726
-0.005557120401505646,0.01645069023760447
-0.005556780401505646,0.01628612244883199
-0.005556440401505646,0.01589115975577701
-0.005556100401505646,0.01556202417823143
-0.005555760401505646,0.01536454283170445
-0.005555420401505646,0.01510123436966763
-0.005555080401505646,0.01513414792742219
-0.005554740401505646,0.0150024936964042
-0.005554400401505646,0.01506832081191307
-0.005554060401505646,0.0154303699472132
-0.005553720401505646,0.01552911062047688
-0.005553380401505646,0.01595698687128612
-0.005553040401505646,0.01585824619802245
-0.005552700401505646,0.01572659196700422
-0.005552360401505646,0.0154303699472132
-0.005552020401505646,0.01441004965682193
-0.005551680401505646,0.01385051917499446
-0.005551340401505646,0.01302768023113072
-0.005551000401505646,0.01312642090439421
-0.005550660401505646,0.01289602600011231
-0.005550320401505646,0.01332390225092275
-0.005549980401505646,0.01398217340601269
-0.005549640401505646,0.01493666658089485
-0.005549300401505646,0.01510123436966781
-0.005548960401505646,0.01519997504293131
-0.005548620401505646,0.01506832081191307
-0.005548280401505646,0.01477209879212224
-0.005547940401505646,0.01487083946538573
-0.005547600401505646,0.0149695801386494
-0.005547260401505646,0.0150683208119126
-0.005546920401505646,0.01480501234987662
-0.005546580401505646,0.01437713609906738
-0.005546240401505646,0.01375177850173037
-0.005545900401505646,0.01352138359744889
-0.005545560401505646,0.01368595138622168
-0.005545220401505646,0.01335681580867641
-0.005544880401505646,0.01352138359744889
-0.005544540401505646,0.01309350734663965
-0.005544200401505646,0.01276437176909384
-0.005543860401505646,0.01263271753807585
-0.005543520401505646,0.01227066840277572
-0.005543180401505646,0.01250106330705792
-0.005542840401505646,0.01266563109583041
-0.005542500401505646,0.01296185311562142
-0.005542160401505646,0.01365303782846586
-0.005541820401505646,0.01431130898355826
-0.005541480401505646,0.01467335811885839
-0.005541140401505646,0.01437713609906792
-0.005540800401505646,0.01401508696376725
-0.005540460401505646,0.01408091407927636
-0.005540120401505646,0.01381760561724038
-0.005539780401505646,0.01352138359744889
-0.005539440401505646,0.01345555648193978
-0.005539100401505646,0.01283019888460433
-0.005538760401505646,0.01236940907603939
-0.005538420401505646,0.01207318705624838
-0.005538080401505646,0.01174405147870341
-0.005537740401505646,0.01128326167013901
-0.005537400401505646,0.01171113792094825
-0.005537060401505646,0.01144782945891227
-0.005536720401505646,0.01207318705624838
-0.005536380401505646,0.01256689042256674
-0.005536040401505646,0.01286311244235721
-0.005535700401505646,0.01250106330705762
-0.005535360401505646,0.01273145821133952
-0.005535020401505646,0.01256689042256704
-0.005534680401505646,0.01276437176909408
-0.005534340401505646,0.01256689042256674
-0.005534000401505646,0.01292893955786621
-0.005533660401505646,0.01279728532684864
-0.005533320401505646,0.01335681580867611
-0.005532980401505646,0.01365303782846712
-0.005532640401505646,0.01309350734663965
-0.005532300401505646,0.01230358196053028
-0.005531960401505646,0.01194153282523015
-0.005531620401505646,0.01174405147870281
-0.005531280401505646,0.01204027349849382
-0.005530940401505646,0.01276437176909408
-0.005530600401505646,0.01322516157765788
-0.005530260401505646,0.01355429715520345
-0.005529920401505646,0.01375177850173079
-0.005529580401505646,0.01411382763703014
-0.005529240401505646,0.01368595138622168
-0.005528900401505646,0.01345555648193978
-0.005528560401505646,0.01312642090439474
-0.005528220401505646,0.01342264292418522
-0.005527880401505646,0.01319224801990332
-0.005527540401505646,0.01348847003969469
-0.005527200401505646,0.01368595138622168
-0.005526860401505646,0.01375177850173079
-0.005526520401505646,0.01381760561723991
-0.005526180401505646,0.01381760561723991
-0.005525840401505646,0.01352138359744889
-0.005525500401505646,0.01325807513541208
-0.005525160401505646,0.01306059378888509
-0.005524820401505646,0.01322516157765788
-0.005524480401505646,0.0136859513862212
-0.005524140401505646,0.01342264292418522
-0.005523800401505646,0.01263271753807585
-0.005523460401505646,0.01269854465358514
-0.005523120401505646,0.01279728532684864
-0.005522780401505646,0.01335681580867611
-0.005522440401505646,0.01352138359744949
-0.005522100401505646,0.01385051917499446
-0.005521760401505646,0.01464044456110383
-0.005521420401505646,0.01490375302313963
-0.005521080401505646,0.01454170388784016
-0.005520740401505646,0.01388343273274902
-0.005520400401505646,0.01322516157765907
-0.005520060401505646,0.01250106330705762
-0.005519720401505646,0.01164531080543914
-0.005519380401505646,0.01105286676585819
-0.005519040401505646,0.01009837359097495
-0.005518700401505646,0.008913485511810896
-0.005518360401505646,0.008024819452439472
-0.005518020401505646,0.008189387241210641
-0.005517680401505646,0.009143880416092796
-0.005517340401505646,0.009966719359955228
-0.005517000401505646,0.01128326167013901
-0.005516660401505646,0.01167822436319369
-0.005516320401505646,0.01184279215196618
-0.005515980401505646,0.01164531080543914
-0.005515640401505646,0.01078955830382065
-0.005515300401505646,0.0102300278219942
-0.005514960401505646,0.01009837359097495
-0.005514620401505646,0.00967049734016571
-0.005514280401505646,0.009835065128938196
-0.005513940401505646,0.009900892244447609
-0.005513600401505646,0.01013128714872951
-0.005513260401505646,0.01032876849525649
-0.005512920401505646,0.01016420070648407
-0.005512580401505646,0.01055916339953875
-0.005512240401505646,0.01138200234340268
-0.005511900401505646,0.01200735994073926
-0.005511560401505646,0.01223775484502116
-0.005511220401505646,0.01283019888460319
-0.005510880401505646,0.01299476667337598
-0.005510540401505646,0.01352138359744889
-0.005510200401505646,0.01342264292418522
-0.005509860401505646,0.01292893955786686
-0.005509520401505646,0.01302768023113053
-0.005509180401505646,0.01276437176909408
-0.005508840401505646,0.01256689042256751
-0.005508500401505646,0.01299476667337598
-0.005508160401505646,0.01315933446214876
-0.005507820401505646,0.01325807513541303
-0.005507480401505646,0.01358721071295801
-0.005507140401505646,0.01309350734663965
-0.005506800401505646,0.01217192772951067
-0.005506460401505646,0.01141491590115724
-0.005506120401505646,0.01009837359097495
-0.005505780401505646,0.009473015993637649
-0.005505440401505646,0.009078053300583682
-0.005505100401505646,0.008781831280792669
-0.005504760401505646,0.008551436376511906
-0.005504420401505646,0.009176793973847354
-0.005504080401505646,0.009604670224656596
-0.005503740401505646,0.01029585493750367
-0.005503400401505646,0.01105286676585711
-0.005503060401505646,0.01092121253483888
-0.005502720401505646,0.01157948368993092
-0.005502380401505646,0.01207318705624838
-0.005502040401505646,0.01207318705624838
-0.005501700401505646,0.01204027349849424
-0.005501360401505646,0.01227066840277572
-0.005501020401505646,0.01256689042256674
-0.005500680401505646,0.01236940907604053
-0.005500340401505646,0.01299476667337598
-0.005500000401505646,0.01286311244235775
-0.005499660401505646,0.01269854465358526
-0.005499320401505646,0.01263271753807585
-0.005498980401505646,0.01292893955786686
-0.005498640401505646,0.0136859513862203
-0.005498300401505646,0.01460753100334928
-0.005497960401505646,0.01552911062047688
-0.005497620401505646,0.01615446821781232
-0.005497280401505646,0.01671399869964093
-0.005496940401505646,0.01631903600658625
-0.005496600401505646,0.01543036994721482
-0.005496260401505646,0.01411382763703092
-0.005495920401505646,0.01342264292418522
-0.005495580401505646,0.01279728532684977
-0.005495240401505646,0.01263271753807585
-0.005494900401505646,0.01319224801990332
-0.005494560401505646,0.01398217340601125
-0.005494220401505646,0.01401508696376725
-0.005493880401505646,0.01417965475254003
-0.005493540401505646,0.01417965475254003
-0.005493200401505646,0.01401508696376725
-0.005492860401505646,0.01421256831029459
-0.005492520401505646,0.01467335811885755
-0.005492180401505646,0.01516706148517675
-0.005491840401505646,0.01552911062047688
-0.005491500401505646,0.01480501234987794
-0.005491160401505646,0.01434422254131282
-0.005490820401505646,0.01401508696376725
-0.005490480401505646,0.01391634629050358
-0.005490140401505646,0.01447587677233105
-0.005489800401505646,0.01454170388784016
-0.005489460401505646,0.01460753100334928
-0.005489120401505646,0.01470627167661295
-0.005488780401505646,0.01487083946538573
-0.005488440401505646,0.0154303699472132
-0.005488100401505646,0.01513414792742111
-0.005487760401505646,0.01454170388784016
-0.005487420401505646,0.01421256831029459
-0.005487080401505646,0.01296185311562082
-0.005486740401505646,0.01263271753807585
-0.005486400401505646,0.01243523619154851
-0.005486060401505646,0.01180987859421144
-0.005485720401505646,0.01154657013217547
-0.005485380401505646,0.01144782945891179
-0.005485040401505646,0.0115794836899302
-0.005484700401505646,0.01167822436319369
-0.005484360401505646,0.01161239724768458
-0.005484020401505646,0.01131617522789375
-0.005483680401505646,0.01141491590115724
-0.005483340401505646,0.01101995320810255
-0.005483000401505646,0.01052624984178497
-0.005482660401505646,0.01095412609259344
-0.005482320401505646,0.01157948368993002
-0.005481980401505646,0.01223775484502188
-0.005481640401505646,0.01263271753807585
-0.005481300401505646,0.01266563109583041
-0.005480960401505646,0.01306059378888551
-0.005480620401505646,0.01329098869316699
-0.005480280401505646,0.01283019888460319
-0.005479940401505646,0.01243523619154695
-0.005479600401505646,0.01157948368993002
-0.005479260401505646,0.01082247186157521
-0.005478920401505646,0.008518522818760402
-0.005478580401505646,0.002561168865181374
-0.005478240401505646,-0.008300305193822469
-0.005477900401505646,-0.02712686022939489
-0.005477560401505646,-0.0533260522020566
-0.005477220401505646,-0.08568007947478623
-0.005476880401505646,-0.1198772659817089
-0.005476540401505646,-0.1534161813336648
-0.005476200401505646,-0.1836637409101027
-0.005475860401505646,-0.2080856007639397
-0.005475520401505646,-0.2265171931065361
-0.005475180401505646,-0.2394851348618316
-0.005474840401505646,-0.2466932040100665
-0.005474500401505646,-0.2492604615149351
-0.005474160401505646,-0.2485692768020893
-0.005473820401505646,-0.2450146125646036
-0.005473480401505646,-0.2395509619773407
-0.005473140401505646,-0.2321454114825653
-0.005472800401505646,-0.2240486762749591
-0.005472460401505646,-0.2150632750079502
-0.005472120401505646,-0.2062424415297289
-0.005471780401505646,-0.1974874351670327
-0.005471440401505646,-0.188995737266341
-0.005471100401505646,-0.1812610511940201
-0.005470760401505646,-0.1735263651217132
-0.005470420401505646,-0.1665816044354876
-0.005470080401505646,-0.16045968269314
-0.005469740401505646,-0.1548972914326198
-0.005469400401505646,-0.1498615170961726
-0.005469060401505646,-0.1455827545880802
-0.005468720401505646,-0.1415014734265151
-0.005468380401505646,-0.1376505871692319
-0.005468040401505646,-0.1331743433146121
-0.005467700401505646,-0.1286651859022378
-0.005467360401505646,-0.124188942047618
-0.005467020401505646,-0.1194493897309618
-0.005466680401505646,-0.1142490476057418
-0.005466340401505646,-0.1088183105762304
-0.005466000401505646,-0.1035850548932653
-0.005465660401505646,-0.09871384834559085
-0.005465320401505646,-0.09456674006850928
-0.005464980401505646,-0.09051837246470612
-0.005464640401505646,-0.08643709130314103
-0.005464300401505646,-0.08232289658381554
-0.005463960401505646,-0.07909736792387481
-0.005463620401505646,-0.0762668019569829
-0.005463280401505646,-0.07392993935640432
-0.005462940401505646,-0.07116520050502653
-0.005462600401505646,-0.068828337904453
-0.005462260401505646,-0.0654053278979729
-0.005461920401505646,-0.06201523144925967
-0.005461580401505646,-0.05888844346257675
-0.005461240401505646,-0.05569582836037926
-0.005460900401505646,-0.05270069460472001
-0.005460560401505646,-0.04950807950252797
-0.005460220401505646,-0.04773074738377901
-0.005459880401505646,-0.04615089661156314
-0.005459540401505646,-0.04407734247302605
-0.005459200401505646,-0.04193796121897535
-0.005458860401505646,-0.03946944438738805
-0.005458520401505646,-0.03736297669109639
-0.005458180401505646,-0.03555273101459306
-0.005457840401505646,-0.03407162091564069
-0.005457500401505646,-0.03291964639423119
-0.005457160401505646,-0.03176767187282378
-0.005456820401505646,-0.03081317869793953
-0.005456480401505646,-0.02923332792572079
-0.005456140401505646,-0.02715977378718746
-0.005455800401505646,-0.02538244166843761
-0.005455460401505646,-0.02409881291600988
-0.005455120401505646,-0.0226177028170575
-0.005454780401505646,-0.02228856723950924
-0.005454440401505646,-0.02077454358279961
-0.005454100401505646,-0.01952382838812872
-0.005453760401505646,-0.01827311319345327
-0.005453420401505646,-0.01642995395919808
-0.005453080401505646,-0.01485010318698221
-0.005452740401505646,-0.01366521510781528
-0.005452400401505646,-0.01231575923987844
-0.005452060401505646,-0.01090047625643506
-0.005451720401505646,-0.01034094577460501
-0.005451380401505646,-0.01014346442807767
-0.005451040401505646,-0.01011055087032317
-0.005450700401505646,-0.01040677289011413
-0.005450360401505646,-0.01037385933235957
-0.005450020401505646,-0.009649761061760629
-0.005449680401505646,-0.008958576348913613
-0.005449340401505646,-0.007872428943013227
-0.005449000401505646,-0.007115417114659791
-0.005448660401505646,-0.006983762883640186
-0.005448320401505646,-0.005963442593248915
-0.005447980401505646,-0.005140603649384987
-0.005447640401505646,-0.00421902403225739
-0.005447300401505646,-0.002244210566983963
-0.005446960401505646,-0.0004010513327287642
-0.005446620401505646,0.0009154909774535189
-0.005446280401505646,0.002100379056617575
-0.005445940401505646,0.00259408242293593
-0.005445600401505646,0.002330773960898817
-0.005445260401505646,0.001968724825599347
-0.005444920401505646,0.001771243479072003
-0.005444580401505646,0.001869984152334779
-0.005444240401505646,0.001376280786017318
-0.005443900401505646,0.001869984152335677
-0.005443560401505646,0.001540848574790465
-0.005443220401505646,0.001738329921317446
-0.005442880401505646,0.002034551941108461
-0.005442540401505646,0.002561168865182032
-0.005442200401505646,0.002923218000481502
-0.005441860401505646,0.003449834924554418
-0.005441520401505646,0.004239760310665046
-0.005441180401505646,0.004930945023509487
-0.005440840401505646,0.005457561947582401
-0.005440500401505646,0.005819611082881451
-0.005440160401505646,0.0052271670433005
-0.005439820401505646,0.004733463676982144
-0.005439480401505646,0.004305587426172723
-0.005439140401505646,0.004206846752909232
-0.005438800401505646,0.004338500983927459
-0.005438460401505646,0.005424648389830058
-0.005438120401505646,0.006642450026746457
-0.005437780401505646,0.007991905894683298
-0.005437440401505646,0.009374275320374936
-0.005437100401505646,0.009505929551392924
-0.005436760401505646,0.009308448204865582
-0.005436420401505646,0.00884765839630262
-0.005436080401505646,0.009012226185074568
-0.005435740401505646,0.009209707531601911
-0.005435400401505646,0.01013128714872783
-0.005435060401505646,0.01059207695729331
-0.005434720401505646,0.01078955830382065
-0.005434380401505646,0.01111869388136562
-0.005434040401505646,0.01065790407280242
-0.005433700401505646,0.01036168205301141
-0.005433360401505646,0.01036168205301141
-0.005433020401505646,0.01042750916852052
-0.005432680401505646,0.01019711426423862
-0.005432340401505646,0.009835065128939155
-0.005432000401505646,0.009604670224656596
-0.005431660401505646,0.009473015993638367
-0.005431320401505646,0.009999632917710324
-0.005430980401505646,0.01078955830382065
-0.005430640401505646,0.01171113792094825
-0.005430300401505646,0.01266563109582867
-0.005429960401505646,0.01306059378888509
-0.005429620401505646,0.01394925984825813
-0.005429280401505646,0.01427839542580311
-0.005428940401505646,0.01404800052152181
-0.005428600401505646,0.01358721071295801
-0.005428260401505646,0.01204027349849664
-0.005427920401505646,0.01072373118831154
-0.005427580401505646,0.009473015993638367
-0.005427240401505646,0.008288127914474312
-0.005426900401505646,0.008156473683456083
-0.005426560401505646,0.007893165221419626
-0.005426220401505646,0.008353955029983425
-0.005425880401505646,0.008716004165283554
-0.005425540401505646,0.009275534647111025
-0.005425200401505646,0.01016420070648407
-0.005424860401505646,0.01101995320810255
-0.005424520401505646,0.01200735994073926
-0.005424180401505646,0.01223775484502116
-0.005423840401505646,0.01240232263379341
-0.005423500401505646,0.01210610061400294
-0.005423160401505646,0.01207318705624838
-0.005422820401505646,0.01187570570972158
-0.005422480401505646,0.01217192772951205
-0.005422140401505646,0.01217192772951205
-0.005421800401505646,0.01210610061400396
-0.005421460401505646,0.01266563109583041
-0.005421120401505646,0.01289602600011231
-0.005420780401505646,0.01263271753807603
-0.005420440401505646,0.01273145821133952
-0.005420100401505646,0.01233649551828483
-0.005419760401505646,0.0123035819605307
-0.005419420401505646,0.01253397686481218
-0.005419080401505646,0.01187570570972104
-0.005418740401505646,0.01180987859421096
-0.005418400401505646,0.01128326167013901
-0.005418060401505646,0.01052624984178419
-0.005417720401505646,0.009637583782410674
-0.005417380401505646,0.009374275320374697
-0.005417040401505646,0.009999632917711282
-0.005416700401505646,0.01049333628403107
-0.005416360401505646,0.01128326167013901
-0.005416020401505646,0.01253397686481218
-0.005415680401505646,0.01283019888460397
-0.005415340401505646,0.01325807513541244
-0.005415000401505646,0.01381760561723991
-0.005414660401505646,0.01365303782846742
-0.005414320401505646,0.01365303782846712
-0.005413980401505646,0.01368595138622168
-0.005413640401505646,0.01355429715520369
-0.005413300401505646,0.01322516157765788
