Analysis/New Tests_CMB/wrd01_d2s01/cmb10_ch24.csv

#Digilent WaveForms Oscilloscope Acquisition
#Device Name: ADP3450
#Serial Number: SN:210018B9D9B0
#Date Time: 2024-08-14 17:08:45.834.797.160
#Sample rate: 5.88235e+06Hz
#Samples: 32768
#Trigger: Source: Channel 3 Type: Edge Condition: Rising Level: 60 mV Hyst.: Auto HoldOff: 0 s
#Channel 3: Range: 100 mV/div Offset: 0 V Attenuation: 1 X Coupling: DC Bandwidth: 0 Hz Sample Mode: Average

Time (s),Channel 3 (V)
-0.003798424273908608,0.2106038703742472
-0.003798254273908609,0.2235059850140101
-0.003798084273908609,0.2352561251323891
-0.003797914273908609,0.2448997975544606
-0.003797744273908608,0.2537206310327302
-0.003797574273908608,0.2610274408542286
-0.003797404273908608,0.2666227456725034
-0.003797234273908608,0.2710002488538515
-0.003797064273908609,0.2740612097250277
-0.003796894273908609,0.2754435791507196
-0.003796724273908608,0.2766613807876425
-0.003796554273908608,0.276233504536834
-0.003796384273908608,0.2751802706886882
-0.003796214273908608,0.2728763216458734
-0.003796044273908609,0.2715268657779348
-0.003795874273908609,0.2687292133688052
-0.003795704273908608,0.2651087220157883
-0.003795534273908608,0.2621465018178836
-0.003795364273908608,0.2582627020028458
-0.003795194273908608,0.2539839394947612
-0.003795024273908609,0.2498368312176868
-0.003794854273908609,0.2456238958251112
-0.003794684273908609,0.2415097011057913
-0.003794514273908608,0.2377246419640022
-0.003794344273908608,0.233873755706719
-0.003794174273908608,0.2301545236804609
-0.003794004273908609,0.2266327730007229
-0.003793834273908609,0.2228148003012017
-0.003793664273908609,0.2192272225059542
-0.003793494273908608,0.2152446820176397
-0.003793324273908608,0.2120191533576931
-0.003793154273908608,0.2080695264271535
-0.003792984273908609,0.2049098248827145
-0.003792814273908609,0.2018817775693006
-0.003792644273908609,0.1986891624671091
-0.003792474273908608,0.1956282015959237
-0.003792304273908608,0.1921393644739406
-0.003792134273908608,0.1890784036027724
-0.003791964273908609,0.1855237393652811
-0.003791794273908609,0.1840097157085678
-0.003791624273908609,0.180093002335787
-0.003791454273908608,0.1771307821378626
-0.003791284273908608,0.1746951788640254
-0.003791114273908608,0.1715025637618391
-0.003790944273908609,0.1687378249104556
-0.003790774273908609,0.1652160742307193
-0.003790604273908609,0.1626159031681124
-0.003790434273908608,0.1596207694124382
-0.003790264273908608,0.1565927220990189
-0.003790094273908608,0.1534988476700906
-0.003789924273908609,0.1508328494919763
-0.003789754273908609,0.1480022835250847
-0.003789584273908609,0.1451717175581979
-0.003789414273908608,0.141946188898241
-0.003789244273908608,0.1389510551425764
-0.003789074273908608,0.1367787603307756
-0.003788904273908609,0.1339152808061343
-0.003788734273908609,0.1316442453210688
-0.003788564273908609,0.129109901373973
-0.003788394273908608,0.1266742981001223
-0.003788224273908608,0.1243703490573076
-0.003788054273908608,0.1225601033808069
-0.003787884273908609,0.1198611916449381
-0.003787714273908609,0.1178534646219089
-0.003787544273908609,0.1159444782721479
-0.003787374273908608,0.1138380105758487
-0.003787204273908608,0.1135088749983037
-0.003787034273908608,0.1106453954736572
-0.003786864273908608,0.1090326311436869
-0.003786694273908609,0.1070907312361686
-0.003786524273908609,0.1055437940217065
-0.003786354273908608,0.1037006347874432
-0.003786184273908608,0.1023182653617543
-0.003786014273908608,0.1012321179558539
-0.003785844273908608,0.1000143163189375
-0.003785674273908609,0.09902690958630038
-0.003785504273908609,0.09840155198896428
-0.003785334273908608,0.0972824910253046
-0.003785164273908608,0.0959330351573702
-0.003784994273908608,0.09458357928943337
-0.003784824273908608,0.09313538274823549
-0.003784654273908609,0.09165427264928047
-0.003784484273908609,0.08971237274176598
-0.003784314273908609,0.087836299949756
-0.003784144273908608,0.08615770850426674
-0.003783974273908608,0.08444620350102977
-0.003783804273908608,0.08220808157372396
-0.003783634273908609,0.08023326810845006
-0.003783464273908609,0.0785875902207246
-0.003783294273908609,0.07677734454422457
-0.003783124273908608,0.07542788867628114
-0.003782954273908608,0.07374929723079873
-0.003782784273908608,0.07239984136286433
-0.003782614273908609,0.07154408886124494
-0.003782444273908609,0.07151117530348895
-0.003782274273908609,0.06999715164678473
-0.003782104273908608,0.06970092962698821
-0.003781934273908608,0.06933888049168807
-0.003781764273908608,0.06927305337617908
-0.003781594273908609,0.06924013981842445
-0.003781424273908609,0.06927305337617889
-0.003781254273908609,0.06900974491414345
-0.003781084273908608,0.06858186866333327
-0.003780914273908608,0.06782485683497844
-0.003780744273908608,0.06746280769967898
-0.003780574273908609,0.06496137731033652
-0.003780404273908609,0.06459932817503249
-0.003780234273908609,0.06308530451832774
-0.003780064273908608,0.06143962663059437
-0.003779894273908608,0.06018891143592119
-0.003779724273908608,0.0585761471059479
-0.003779554273908609,0.05725960479576801
-0.003779384273908609,0.05594306248558572
-0.003779214273908609,0.05505439642621352
-0.003779044273908608,0.05340871853848243
-0.003778874273908608,0.05196052199728192
-0.003778704273908608,0.05087437459138153
-0.003778534273908609,0.04952491872344715
-0.003778364273908609,0.04886664756835475
-0.003778194273908609,0.04764884593143937
-0.003778024273908608,0.04692474766083366
-0.003777854273908608,0.04636521717900721
-0.003777684273908608,0.04567403246616151
-0.003777514273908609,0.04471953929128109
-0.003777344273908609,0.04485119352229734
-0.003777174273908609,0.04439040371373546
-0.003777004273908608,0.04343591053885019
-0.003776834273908608,0.04264598515274225
-0.003776664273908608,0.04175731909336922
-0.003776494273908608,0.04136235640031525
-0.003776324273908609,0.04037494966767961
-0.003776154273908609,0.03955211072381688
-0.003775984273908608,0.03863053110668569
-0.003775814273908608,0.03830139552914072
-0.003775644273908608,0.03793934639384059
-0.003775474273908608,0.03754438370078662
-0.003775304273908609,0.03734690235425892
-0.003775134273908609,0.03682028543018756
-0.003774964273908608,0.03649114985263852
-0.003774794273908608,0.03563539735102159
-0.003774624273908608,0.03550374312000337
-0.003774454273908608,0.03471381773389543
-0.003774284273908609,0.03441759571410352
-0.003774114273908609,0.03392389234778642
-0.003773944273908608,0.03356184321248438
-0.003773774273908608,0.03349601609697538
-0.003773604273908608,0.03336436186595716
-0.003773434273908608,0.03306813984616668
-0.003773264273908609,0.03273900426862116
-0.003773094273908609,0.03356184321248151
-0.003772924273908609,0.03050088234132182
-0.003772754273908608,0.03119206705415638
-0.003772584273908608,0.03115915349640183
-0.003772414273908608,0.03066545013008437
-0.003772244273908609,0.03040214166804749
-0.003772074273908609,0.03010591964825708
-0.003771904273908609,0.02977678407071162
-0.003771734273908608,0.02990843830172865
-0.003771564273908608,0.03004009253274689
-0.003771394273908608,0.02911851291562096
-0.003771224273908609,0.03046796878355367
-0.003771054273908609,0.02898685868460645
-0.003770884273908609,0.02869063666481112
-0.003770714273908608,0.0287235502225646
-0.003770544273908608,0.02816401974073713
-0.003770374273908608,0.0273411807968747
-0.003770204273908609,0.02674873675729225
-0.003770034273908609,0.02622211983321922
-0.003769864273908609,0.02579424358241058
-0.003769694273908608,0.02546510800486345
-0.003769524273908608,0.02533345377384522
-0.003769354273908608,0.0250372317540542
-0.003769184273908609,0.02441187415671876
-0.003769014273908609,0.02447770127222661
-0.003768844273908609,0.02431313348345455
-0.003768674273908608,0.02395108434815382
-0.003768504273908608,0.02352320809734458
-0.003768334273908608,0.02368777588611736
-0.003768164273908609,0.0232269860775544
-0.003767994273908609,0.02286493694225409
-0.003767824273908609,0.02210792511390137
-0.003767654273908608,0.02194335732512536
-0.003767484273908608,0.02168004886308938
-0.003767314273908608,0.02131799972778925
-0.003767144273908609,0.02138382684329825
-0.003766974273908609,0.02131799972778937
-0.003766804273908609,0.02135091328554369
-0.003766634273908608,0.02128508617003505
-0.003766464273908608,0.02148256751656204
-0.003766294273908608,0.02194335732512584
-0.003766124273908609,0.02200918444063483
-0.003765954273908609,0.02191044376737146
-0.003765784273908609,0.02217375222940678
-0.003765614273908608,0.02263454203797273
-0.003765444273908608,0.02329281319306268
-0.003765274273908608,0.02352320809734458
-0.003765104273908608,0.02401691146366203
-0.003764934273908609,0.02378651655938145
-0.003764764273908609,0.02391817079039878
-0.003764594273908608,0.02381943011713583
-0.003764424273908608,0.02395108434815382
-0.003764254273908608,0.02342446742408091
-0.003764084273908608,0.0234902945395899
-0.003763914273908609,0.02289785050000907
-0.003763744273908609,0.02246997424920031
-0.003763574273908608,0.02283202338449612
-0.003763404273908608,0.02131799972778925
-0.003763234273908608,0.01983688962883418
-0.003763064273908608,0.02042933366841513
-0.003762894273908609,0.01960649472455378
-0.003762724273908609,0.0200672845331144
-0.003762554273908609,0.01881656933844746
-0.003762384273908608,0.01881656933844291
-0.003762214273908608,0.01878365578068835
-0.003762044273908608,0.01894822356946084
-0.003761874273908609,0.01861908799191617
-0.003761704273908609,0.01855326087640669
-0.003761534273908609,0.0184216066453887
-0.003761364273908608,0.01710506433520594
-0.003761194273908608,0.01792790327906987
-0.003761024273908608,0.01730254568173442
-0.003760854273908609,0.0171708914507153
-0.003760684273908609,0.01634805250685412
-0.003760514273908609,0.01578852202502569
-0.003760344273908608,0.01565686779400543
-0.003760174273908608,0.01516316442768707
-0.003760004273908608,0.0147682017346331
-0.003759834273908609,0.01440615259933292
-0.003759664273908609,0.01427449836831427
-0.003759494273908609,0.01348457298220753
-0.003759324273908608,0.01371496788648656
-0.003759154273908608,0.01341874586669555
-0.003758984273908608,0.01295795605813258
-0.003758814273908609,0.01292504250037725
-0.003758644273908609,0.01318835096241317
-0.003758474273908609,0.01315543740465921
-0.003758304273908608,0.01351748653995922
-0.003758134273908608,0.01394536279076846
-0.003757964273908608,0.01424158481055947
-0.003757794273908609,0.01430741192606847
-0.003757624273908609,0.01437323904157758
-0.003757454273908609,0.01473528817687651
-0.003757284273908608,0.01476820173463328
-0.003757114273908608,0.01526190510095074
-0.003756944273908608,0.01522899154319619
-0.003756774273908609,0.01575560846726814
-0.003756604273908609,0.01552521356298762
-0.003756434273908609,0.0155252135629872
-0.003756264273908608,0.01545938644747767
-0.003756094273908608,0.01522899154319619
-0.003755924273908608,0.01493276952340517
-0.003755754273908609,0.01522899154319565
-0.003755584273908609,0.01489985596565121
-0.003755414273908609,0.01522899154319499
-0.003755244273908608,0.01522899154319679
-0.003755074273908608,0.01555812712074176
-0.003754904273908608,0.0155252135629872
-0.003754734273908608,0.01568978135175969
-0.003754564273908609,0.01608474404481395
-0.003754394273908609,0.01578852202502474
-0.003754224273908608,0.01506442375442352
-0.003754054273908608,0.01513025086993251
-0.003753884273908608,0.01572269490951454
-0.003753714273908608,0.01519607798544259
-0.003753544273908609,0.01529481865870512
-0.003753374273908609,0.01545938644747749
-0.003753204273908608,0.01562395423625111
-0.003753034273908608,0.0157556084672691
-0.003752864273908608,0.01605183048706011
-0.003752694273908608,0.01601891692930562
-0.003752524273908609,0.01647970673786852
-0.003752354273908609,0.01634805250685161
-0.003752184273908609,0.01585434914053457
-0.003752014273908608,0.015986003371551
-0.003751844273908608,0.0155252135629872
-0.003751674273908608,0.01532773221646022
-0.003751504273908609,0.01473528817687891
-0.003751334273908609,0.01434032548382458
-0.003751164273908609,0.01384662211750658
-0.003750994273908608,0.01358331365546833
-0.003750824273908608,0.01318835096241365
-0.003750654273908608,0.01345165942444962
-0.003750484273908609,0.01295795605813264
-0.003750314273908609,0.01318835096241281
-0.003750144273908609,0.01272756115385152
-0.003749974273908608,0.01315543740465909
-0.003749804273908608,0.01325417807792276
-0.003749634273908608,0.01308961028915027
-0.003749464273908609,0.01322126452016796
-0.003749294273908609,0.01318835096241371
-0.003749124273908609,0.01322126452016808
-0.003748954273908608,0.0134516594244501
-0.003748784273908608,0.01335291875118643
-0.003748614273908608,0.0136820543287314
-0.003748444273908609,0.01404410346403147
-0.003748274273908609,0.01424158481055911
-0.003748104273908609,0.01483402885013935
-0.003747934273908608,0.0146036339458596
-0.003747764273908608,0.01545938644747809
-0.003747594273908608,0.01486694240789606
-0.003747424273908609,0.0154923000052315
-0.003747254273908609,0.01542647288972365
-0.003747084273908609,0.01559104067849572
-0.003746914273908608,0.01496568308115973
-0.003746744273908608,0.01526190510095074
-0.003746574273908608,0.01509733731217796
-0.003746404273908609,0.01539355933196843
-0.003746234273908609,0.01516316442768749
-0.003746064273908609,0.01486694240789714
-0.003745894273908608,0.01476820173463233
-0.003745724273908608,0.01473528817687783
-0.003745554273908608,0.01489985596565062
-0.003745384273908609,0.01457072038810564
-0.003745214273908609,0.01404410346403309
-0.003745044273908609,0.01358331365547001
-0.003744874273908608,0.01266173403833995
-0.003744704273908608,0.01223385778753149
-0.003744534273908608,0.01157558663244035
-0.003744364273908608,0.01104896970836839
-0.003744194273908609,0.01065400701531347
-0.003744024273908609,0.01032487143776837
-0.003743854273908608,0.01009447653348438
-0.003743684273908608,0.009600773167166921
-0.003743514273908608,0.009798254513694264
-0.003743344273908608,0.009995735860221247
-0.003743174273908609,0.01019321720674859
-0.003743004273908609,0.01035778499552114
-0.003742834273908608,0.01045652566878564
-0.003742664273908608,0.01058817989980363
-0.003742494273908608,0.01009447653348528
-0.003742324273908608,0.01048943922653925
-0.003742154273908609,0.01042361211103097
-0.003741984273908609,0.01019321720674979
-0.003741814273908609,0.01045652566878445
-0.003741644273908608,0.01022613076450351
-0.003741474273908608,0.01029195788001262
-0.003741304273908608,0.01025904432225812
-0.003741134273908609,0.01055526634204854
-0.003740964273908609,0.01019321720675027
-0.003740794273908609,0.01029195788001226
-0.003740624273908608,0.009995735860221606
-0.003740454273908608,0.01035778499552173
-0.003740284273908608,0.01012739009124025
-0.003740114273908609,0.01029195788001232
-0.003739944273908609,0.01016030364899487
-0.003739774273908609,0.0102590443222577
-0.003739604273908608,0.009600773167166921
-0.003739434273908608,0.009403291820639578
-0.003739264273908608,0.009172896916358099
-0.003739094273908609,0.009205810474112175
-0.003738924273908609,0.009502032493902711
-0.003738754273908609,0.00923872403186775
-0.003738584273908608,0.01016030364899439
-0.003738414273908608,0.01016030364899439
-0.003738244273908608,0.01035778499552138
-0.003738074273908609,0.01062109345755771
-0.003737904273908609,0.01071983413082168
-0.003737734273908609,0.01104896970836624
-0.003737564273908608,0.01118062393938566
-0.003737394273908608,0.01131227817040389
-0.003737224273908608,0.01177306797896769
-0.003737054273908609,0.01226677134528515
-0.003736884273908609,0.012793388269358
-0.003736714273908609,0.01262882048058677
-0.003736544273908608,0.01256299336507706
-0.003736374273908608,0.01246425269181339
-0.003736204273908608,0.0125300798073225
-0.003736034273908609,0.01269464759609499
-0.003735864273908609,0.0125629933650773
-0.003735694273908609,0.01216803067202381
-0.003735524273908608,0.01210220355651278
-0.003735354273908608,0.0118388950944768
-0.003735184273908608,0.01062109345755819
-0.003735014273908609,0.01160850019019311
-0.003734844273908609,0.01137810528591342
-0.003734674273908609,0.01114771038163194
-0.003734504273908608,0.01095022903510334
-0.003734334273908608,0.01071983413082186
-0.003734164273908608,0.01062109345755819
-0.003733994273908608,0.01104896970836665
-0.003733824273908609,0.01078566124633146
-0.003733654273908609,0.01144393240141972
-0.003733484273908608,0.01216803067202202
-0.003733314273908608,0.01197054932549503
-0.003733144273908608,0.01216803067202238
-0.003732974273908608,0.01220094422977687
-0.003732804273908609,0.01289212894262137
-0.003732634273908609,0.01256299336507826
-0.003732464273908608,0.01295795605813091
-0.003732294273908608,0.01249716624956795
-0.003732124273908608,0.01282630182711352
-0.003731954273908608,0.01276047471160452
-0.003731784273908609,0.01213511711426896
-0.003731614273908609,0.01187180865223232
-0.003731444273908609,0.01141101884366924
-0.003731274273908608,0.01124645105489478
-0.003731104273908608,0.01124645105489478
-0.003730934273908608,0.01108188326612229
-0.003730764273908609,0.01170724086345744
-0.003730594273908609,0.01144393240142308
-0.003730424273908609,0.01183889509447537
-0.003730254273908608,0.01226677134528605
-0.003730084273908608,0.01213511711426782
-0.003729914273908608,0.0123655120185493
-0.003729744273908609,0.01269464759609469
-0.003729574273908609,0.0127933882693586
-0.003729404273908609,0.01289212894262227
-0.003729234273908608,0.0129908696158863
-0.003729064273908608,0.01289212894262263
-0.003728894273908608,0.01341874586669459
-0.003728724273908609,0.01318835096241406
-0.003728554273908609,0.01328709163567696
-0.003728384273908609,0.01335291875118619
-0.003728214273908608,0.01332000519343187
-0.003728044273908608,0.01315543740465909
-0.003727874273908608,0.01200346288325168
-0.003727704273908609,0.01315543740465699
-0.003727534273908609,0.01256299336507814
-0.003727364273908609,0.01183889509447944
-0.003727194273908608,0.01157558663244035
-0.003727024273908608,0.01095022903510376
-0.003726854273908608,0.01085148836184009
-0.003726684273908609,0.01035778499552263
-0.003726514273908609,0.01025904432225824
-0.003726344273908609,0.009732427398187065
-0.003726174273908608,0.009469118936148692
-0.003726004273908608,0.009995735860221606
-0.003725834273908608,0.008843761338812107
-0.003725664273908609,0.01052235278429147
-0.003725494273908609,0.01104896970836648
-0.003725324273908609,0.01141101884366624
-0.003725154273908608,0.01190472220998676
-0.003724984273908608,0.01236551201854972
-0.003724814273908608,0.01305669673139542
-0.003724644273908609,0.01387953567525785
-0.003724474273908609,0.01700632366193658
-0.003724304273908609,0.01332000519344529
-0.003724134273908608,0.01404410346403429
-0.003723964273908608,0.01522899154319619
-0.003723794273908608,0.01463654750361416
-0.003723624273908608,0.0141757576950512
-0.003723454273908609,0.01341874586669692
-0.003723284273908609,0.01351748653995886
-0.003723114273908608,0.01253007980732191
-0.003722944273908608,0.01220094422977693
-0.003722774273908608,0.01134519172815845
-0.003722604273908608,0.01045652566878702
-0.003722434273908609,0.01088440191959387
-0.003722264273908609,0.009304551147381655
-0.003722094273908608,0.00927163758962141
-0.003721924273908608,0.009304551147375908
-0.003721754273908608,0.009633686724921478
-0.003721584273908608,0.009666600282675974
-0.003721414273908609,0.009633686724921538
-0.003721244273908609,0.009962822302465852
-0.003721074273908608,0.01039069855327695
-0.003720904273908608,0.01075274768857642
-0.003720734273908608,0.01085148836184009
-0.003720564273908608,0.01101605615061258
-0.003720394273908609,0.01091731547734939
-0.003720224273908609,0.01078566124633146
-0.003720054273908609,0.01062109345755879
-0.003719884273908608,0.01058817989980363
-0.003719714273908608,0.01085148836184009
-0.003719544273908608,0.0107527476885766
-0.003719374273908609,0.01052235278429494
-0.003719204273908609,0.01048943922654008
-0.003719034273908609,0.01055526634204884
