Analysis/New Tests_CMB/wrd01_d2s01/cmb10_ch39.csv

#Digilent WaveForms Oscilloscope Acquisition
#Device Name: ADP3450
#Serial Number: SN:210018B9D9B0
#Date Time: 2024-08-07 12:01:26.993.361.170
#Sample rate: 2.94118e+06Hz
#Samples: 32768
#Trigger: Source: Channel 3 Type: Edge Condition: Rising Level: 20 mV Hyst.: Auto HoldOff: 0 s
#Channel 3: Range: 200 mV/div Offset: 0 V Attenuation: 1 X Coupling: DC Bandwidth: 0 Hz Sample Mode: Average

Time (s),Channel 3 (V)
-0.005570271182795699,0.01012739009123984
-0.005569931182795699,0.008942502012071769
-0.005569591182795699,0.006737293642520453
-0.005569251182795699,0.005815714025392853
-0.005568911182795699,0.007593046144136782
-0.005568571182795699,0.006408158064974882
-0.005568231182795699,0.00426877681092867
-0.005567891182795699,0.004433344599700137
-0.005567551182795699,0.003709246329101199
-0.005567211182795699,0.00176734642158233
-0.005566871182795699,0.001109075266491187
-0.005566531182795699,0.001109075266491187
-0.005566191182795699,0.0006482854579273878
-0.005565851182795699,0.001569865075057561
-0.005565511182795699,0.002985148058500942
-0.005565171182795699,0.001207815939754859
-0.005564831182795699,0.001438210844037656
-0.005564491182795699,0.001931914210355115
-0.005564151182795699,0.0009115939199638446
-0.005563811182795699,-0.0003062077169543492
-0.005563471182795699,-7.581281267286857e-05
-0.005563131182795699,-0.001820231373664395
-0.0055627911827957,-0.001359441565101434
-0.005562451182795699,-0.003334255030374022
-0.005562111182795699,-0.005769858304211248
-0.0055617711827957,0.0002533227648617463
-0.005561431182795699,0.001800259979336887
-0.005561091182795699,0.004235863253174112
-0.0055607511827957,0.0004178905536524331
-0.005560411182795699,-0.00119487377632781
-0.005560071182795699,0.00130655661301853
-0.0055597311827957,0.001866087094844983
-0.005559391182795699,0.002754753154219042
-0.005559051182795699,0.0009774210354729588
-0.0055587111827957,0.0002204092071195225
-0.005558371182795699,-0.0007340839677640107
-0.005558031182795699,-0.001491095796118824
-0.0055576911827957,-0.004058353300969608
-0.005557351182795699,-0.00438748887851985
-0.005557011182795699,-0.005704031188702134
-0.0055566711827957,-0.008337115809061912
-0.005556331182795699,-0.006461043017056948
-0.005555991182795699,-0.006033166766247705
-0.0055556511827957,-0.006263561670529186
-0.005555311182795699,-0.00619773455502049
-0.005554971182795699,-0.004979932918101878
-0.0055546311827957,-0.005243241380137855
-0.005554291182795699,-0.004552056667292635
-0.005553951182795699,-0.002972205895073894
-0.0055536111827957,-0.002182280508964523
-0.005553271182795699,-0.00188605848917351
-0.005552931182795699,-0.0009644788720459105
-0.0055525911827957,-0.00119487377632781
-0.005552251182795699,-0.001688577142646167
-0.005551911182795699,-0.003301341472619465
-0.0055515711827957,-0.008271288693557588
-0.005551231182795699,-0.002577243202019268
-0.005550891182795699,-0.002610156759773766
-0.0055505511827957,-0.003202600799355794
-0.005550211182795699,-0.005243241380143722
-0.005549871182795699,-0.008205461578048474
-0.005549531182795699,-0.008238375135803031
-0.005549191182795699,-0.006033166766247585
-0.005548851182795699,-0.005967339650738591
-0.005548511182795699,-0.006000253208493148
-0.005548171182795699,-0.007613017538466626
-0.005547831182795699,-0.007711758211730118
-0.005547491182795699,-0.006033166766247705
-0.005547151182795699,-0.007283881960920456
-0.005546811182795699,-0.007053487056638975
-0.005546471182795699,-0.005835685419720362
-0.005546131182795699,0.001569865075038523
-0.005545791182795699,-0.007481363307448217
-0.005545451182795699,-0.005309068495647449
-0.005545111182795699,-0.005210327822385873
-0.005544771182795699,-0.006362302343793276
-0.005544431182795699,-0.004519143109538078
-0.005544091182795699,-0.005111587149121123
-0.005543751182795699,-0.005671117630947577
-0.005543411182795699,-0.005309068495647449
-0.005543071182795699,-0.006197734555023065
-0.005542731182795699,-0.007613017538466446
-0.005542391182795699,-0.007514276865202775
-0.0055420511827957,-0.006461043017058864
-0.005541711182795699,-0.009949880139040001
-0.005541371182795699,-0.01399824774285052
-0.0055410311827957,-0.008962473406412447
-0.005540691182795699,-0.004881192244838206
-0.005540351182795699,-0.002774724548546551
-0.0055400111827957,-0.001227787334085181
-0.005539671182795699,-0.006395215901547833
-0.005539331182795699,-0.006856005710111633
-0.0055389911827957,-0.001622750027146572
-0.005538651182795699,-0.002083539835700852
-0.005538311182795699,-0.004716624456065421
-0.0055379711827957,-0.004683710898310924
-0.005537631182795699,-0.004881192244838206
-0.005537291182795699,-0.003465909261392251
-0.0055369511827957,-0.003334255030374262
-0.005536611182795699,-0.005210327822383777
-0.005536271182795699,-0.007152227729902647
-0.0055359311827957,-0.006230648112776724
-0.005535591182795699,-0.006362302343793276
-0.005535251182795699,-0.009159954752930631
-0.0055349111827957,-0.009028300521912641
-0.005534571182795699,-0.009423263214967087
-0.005534231182795699,-0.009818225908021772
-0.0055338911827957,-0.0083042022513149
-0.005533551182795699,-0.009785312350267215
-0.005533211182795699,-0.0108714597561676
-0.0055328711827957,-0.009357436099457973
-0.005532531182795699,-0.00790923955825746
-0.005532191182795699,-0.008337115809066702
-0.0055318511827957,-0.008304202251312145
-0.005531511182795699,-0.006987659941129861
-0.005531171182795699,-0.006987659941129861
-0.0055308311827957,-0.01004862081230367
-0.005530491182795699,-0.003762131281183265
-0.005530151182795699,-0.003531736376901365
-0.0055298111827957,-0.003663390607919593
-0.005529471182795699,-0.002544329644278541
-0.005529131182795699,-0.0101802750433219
-0.005528791182795699,-0.01218800206634988
-0.005528451182795699,-0.009686571677003483
-0.005528111182795699,-0.009653658119248986
-0.005527771182795699,-0.01136516312248596
-0.005527431182795699,-0.01021318860107436
-0.005527091182795699,-0.009061214079666959
-0.005526751182795699,-0.008139634462539359
-0.005526411182795699,-0.005506549842174253
-0.005526071182795699,-0.005210327822383777
-0.005525731182795699,-0.005309068495647449
-0.005525391182795699,-0.004815365129326577
-0.005525051182795699,-0.003432995703637694
-0.005524711182795699,-0.004222921089747064
-0.005524371182795699,-0.005276154937892114
-0.005524031182795699,-0.004848278687083649
-0.005523691182795699,-0.00619773455502049
-0.005523351182795699,-0.005671117630952426
-0.005523011182795699,-0.008337115809066702
-0.005522671182795699,-0.01343871726102305
-0.005522331182795699,-0.02242411852804175
-0.005521991182795699,-0.03595159076514012
-0.005521651182795699,-0.05711500840132033
-0.005521311182795699,-0.0839395579713382
-0.005520971182795699,-0.1135288463926312
-0.005520631182795699,-0.1506224259820171
-0.0055202911827957,-0.181659910944508
-0.005519951182795699,-0.203613253966854
-0.005519611182795699,-0.2283971629560355
-0.0055192711827957,-0.2453476451996016
-0.005518931182795699,-0.2579206242618732
-0.005518591182795699,-0.2678605187037495
-0.0055182511827957,-0.268354222070067
-0.005517911182795699,-0.2649641256213485
-0.005517571182795699,-0.2626272630207749
-0.0055172311827957,-0.2581839327239178
-0.005516891182795699,-0.2505150737670979
-0.005516551182795699,-0.2428462148102861
-0.0055162111827957,-0.2349798745069613
-0.005515871182795699,-0.2265869172795349
-0.005515531182795699,-0.2182927007253865
-0.0055151911827957,-0.2111504586926606
-0.005514851182795699,-0.2033499455048176
-0.005514511182795699,-0.1948582476041418
-0.0055141711827957,-0.1890983749971048
-0.005513831182795699,-0.1839638599873834
-0.005513491182795699,-0.1757025569909896
-0.0055131511827957,-0.1705680419812881
-0.005512811182795699,-0.1642815524501583
-0.005512471182795699,-0.1583241984965834
-0.0055121311827957,-0.1506882530975262
-0.005511791182795699,-0.1468044532824885
-0.005511451182795699,-0.1403533959625953
-0.0055111111827957,-0.1360417198967483
-0.005510771182795699,-0.1332440674876109
-0.005510431182795699,-0.1284716016132001
-0.0055100911827957,-0.1294260947880823
-0.005509751182795699,-0.1224813341018708
-0.005509411182795699,-0.1136605006236494
-0.0055090711827957,-0.1086905534027113
-0.005508731182795699,-0.1036876926240167
-0.005508391182795699,-0.1026344587758728
-0.0055080511827957,-0.09983680636673545
-0.005507711182795699,-0.09355031683560643
-0.005507371182795699,-0.08881076451895883
-0.005507031182795699,-0.08700051884245819
-0.005506691182795699,-0.08390664441352336
-0.005506351182795699,-0.08035198017603765
-0.005506011182795699,-0.07699479728507283
-0.005505671182795699,-0.07469084824225078
-0.005505331182795699,-0.07301225679677142
-0.005504991182795699,-0.07093870265823432
-0.005504651182795699,-0.07202485006412764
-0.005504311182795699,-0.06814105024909697
-0.005503971182795699,-0.06636371813035088
-0.005503631182795699,-0.06369771995223002
-0.005503291182795699,-0.06274322677734961
-0.005502951182795699,-0.05935313032863022
-0.005502611182795699,-0.05573263897562523
-0.005502271182795699,-0.0536919983948464
-0.005501931182795699,-0.05010442059959967
-0.005501591182795699,-0.04796503934554059
-0.005501251182795699,-0.04088862442832368
-0.005500911182795699,-0.04181020404545128
-0.005500571182795699,-0.04250138875829698
-0.005500231182795699,-0.04250138875829698
-0.005499891182795699,-0.04078988375506001
-0.0054995511827957,-0.04362044972194677
-0.005499211182795699,-0.03545788739882176
-0.005498871182795699,-0.03555662807208543
-0.0054985311827957,-0.03325267902927062
-0.005498191182795699,-0.03526040605229441
-0.005497851182795699,-0.03848593471224102
-0.0054975111827957,-0.03479961624373732
-0.005497171182795699,-0.03328559258702099
-0.005496831182795699,-0.03394386374211213
-0.0054964911827957,-0.03354890104905817
-0.005496151182795699,-0.03127786556399301
-0.005495811182795699,-0.03032337238911085
-0.0054954711827957,-0.02841438603935001
-0.005495131182795699,-0.02782194199976451
-0.005494791182795699,-0.02838147248159198
-0.0054944511827957,-0.02722949796018458
-0.005494111182795699,-0.02739406574895527
-0.005493771182795699,-0.02574838786122741
-0.0054934311827957,-0.02337861170290361
-0.005493091182795699,-0.02186458804618967
-0.005492751182795699,-0.02400396930023588
-0.0054924111827957,-0.02222663718149304
-0.005492071182795699,-0.01926441698357966
-0.005491731182795699,-0.02031765083172549
-0.0054913911827957,-0.0201859966007075
-0.005491051182795699,-0.02123923044885309
-0.005490711182795699,-0.02041639150498916
-0.0054903711827957,-0.01939607121459789
-0.005490031182795699,-0.01982394746540713
-0.005489691182795699,-0.01998851525417992
-0.0054893511827957,-0.02193041516169879
-0.005489011182795699,-0.01926441698357966
-0.005488671182795699,-0.01468943245569622
-0.0054883311827957,-0.01426155620488698
-0.005487991182795699,-0.01264879187491991
-0.005487651182795699,-0.01607180188138762
-0.0054873111827957,-0.01715794928728801
-0.005486971182795699,-0.01403116130060562
-0.005486631182795699,-0.0143273833203961
-0.005486291182795699,-0.01682881370974244
-0.005485951182795699,-0.01488691380222207
-0.005485611182795699,-0.01406407485835964
-0.005485271182795699,-0.01495274091773268
-0.005484931182795699,-0.01287918677919379
-0.005484591182795699,-0.01189178004655887
-0.005484251182795699,-0.01080563264065849
-0.005483911182795699,-0.01097020042942744
-0.005483571182795699,-0.008863732733139616
-0.005483231182795699,-0.009522003888230759
-0.005482891182795699,-0.009192868310686504
-0.005482551182795699,-0.009916966581285444
-0.005482211182795699,-0.01093728687167671
-0.005481871182795699,-0.01294501389470458
-0.005481531182795699,-0.01287918677919558
-0.005481191182795699,-0.0117930393732952
-0.005480851182795699,-0.0126817054326665
-0.005480511182795699,-0.01172721225778608
-0.005480171182795699,-0.01031192927434013
-0.005479831182795699,-0.009456176772719309
-0.005479491182795699,-0.008172548020293918
-0.005479151182795699,-0.009061214079666959
-0.0054788111827957,-0.01202343427757171
-0.005478471182795699,-0.01047649706311291
-0.005478131182795699,-0.004222921089747064
-0.0054777911827957,-0.005901512535226423
-0.005477451182795699,-0.004025439743219721
-0.005477111182795699,-0.006559783690320619
-0.0054767711827957,-0.0103777563898423
-0.005476431182795699,-0.007810498884993789
-0.005476091182795699,-0.00688891926786619
-0.0054757511827957,-0.009587831003734964
-0.005475411182795699,-0.008764992059875945
-0.005475071182795699,-0.008040893789275689
-0.0054747311827957,-0.009653658119246053
-0.005474391182795699,-0.008106720904784802
-0.005474051182795699,-0.00619773455502049
-0.0054737111827957,-0.006625610805828955
-0.005473371182795699,-0.007316795518675433
-0.005473031182795699,-0.00540780916891112
-0.0054726911827957,-0.007448449749689948
-0.005472351182795699,-0.008304202251312145
-0.005472011182795699,-0.006559783690320619
-0.0054716711827957,-0.008304202251308972
-0.005471331182795699,-0.006954746383375304
-0.005470991182795699,-0.006493956574811504
-0.0054706511827957,-0.006724351479092986
-0.005470311182795699,-0.006987659941129861
-0.005469971182795699,-0.005012846475856435
-0.0054696311827957,-0.006263561670529605
-0.005469291182795699,-0.006592697248075176
-0.005468951182795699,-0.005638204073193019
-0.0054686111827957,-0.007876326000502903
-0.005468271182795699,-0.01129933600697684
-0.005467931182795699,-0.004749538013819977
-0.0054675911827957,-0.003893785512201493
-0.005467251182795699,-0.004848278687083649
-0.005466911182795699,-0.004815365129329092
-0.0054665711827957,-0.008304202251312145
-0.005466231182795699,-0.008238375135797643
-0.005465891182795699,-0.005276154937892892
-0.0054655511827957,-0.004650797340556306
-0.005465211182795699,-0.005506549842172396
-0.005464871182795699,-0.004190007531992507
-0.005464531182795699,-0.003202600799355794
-0.005464191182795699,-0.005374895611160934
-0.005463851182795699,-0.007777585327239231
-0.005463511182795699,-0.00688891926786619
-0.005463171182795699,-0.007810498884998758
-0.005462831182795699,-0.01054232417862203
-0.005462491182795699,-0.009653658119248986
-0.005462151182795699,-0.008600424271104537
-0.005461811182795699,-0.009357436099457973
-0.005461471182795699,-0.006493956574811504
-0.005461131182795699,-0.007250968403167636
-0.005460791182795699,-0.007975066673766575
-0.005460451182795699,-0.008106720904784802
-0.005460111182795699,-0.007810498884994268
-0.005459771182795699,-0.008073807347030245
-0.005459431182795699,-0.01067397840964026
-0.005459091182795699,-0.008830819175384639
-0.005458751182795699,-0.00860042427110316
-0.005458411182795699,-0.006164820997265934
-0.005458071182795699,-0.007744671769490842
-0.005457731182795699,-0.01113476821820406
-0.005457391182795699,-0.002741810990791994
-0.0054570511827957,-0.001918972046929563
-0.005456711182795699,-0.008929559848648731
-0.005456371182795699,-0.007975066673766575
-0.0054560311827957,0.003445937867043967
-0.005455691182795699,-0.01024610215883101
-0.005455351182795699,-0.007777585327239231
-0.0054550111827957,-0.007613017538466746
-0.005454671182795699,-0.008501683597839487
-0.005454331182795699,-0.009851139465776329
-0.0054539911827957,-0.007810498884997501
-0.005453651182795699,-0.007711758211730118
-0.005453311182795699,-0.008962473406403288
-0.0054529711827957,-0.006066080324007531
-0.005452631182795699,-0.005012846475856435
-0.005452291182795699,-0.004190007531992507
-0.0054519511827957,-0.002346848297740662
-0.005451611182795699,-0.0007011704100094536
-0.005451271182795699,-0.001129046660818696
-0.0054509311827957,5.584141834320453e-05
-0.005450591182795699,-0.001622750027137053
-0.005450251182795699,-0.003630477050165036
-0.0054499111827957,-0.005177414264626407
-0.005449571182795699,-0.006691437921338847
-0.005449231182795699,-0.008929559848648731
-0.0054488911827957,-0.01113476821820005
-0.005448551182795699,-0.00369630416567415
-0.005448211182795699,-0.007415536191939104
-0.0054478711827957,-0.005144500706874663
-0.005447531182795699,-0.004881192244838206
-0.005447191182795699,-0.008106720904784802
-0.0054468511827957,-0.006461043017056948
-0.005446511182795699,-0.004782451571574535
-0.005446171182795699,-0.004552056667292635
-0.0054458311827957,-0.00438748887851985
-0.005445491182795699,-0.001227787334086379
-0.005445151182795699,-0.003432995703637694
-0.0054448111827957,-0.005078673591365549
-0.005444471182795699,-0.005177414264628921
-0.005444131182795699,-0.005012846475856435
-0.005443791182795699,-0.007185141287657204
-0.005443451182795699,-0.007744671769484136
-0.005443111182795699,-0.007448449749693661
-0.005442771182795699,-0.00790923955825746
-0.005442431182795699,-0.007086400614392515
-0.005442091182795699,-0.006526870132566062
-0.005441751182795699,-0.008337115809066702
-0.005441411182795699,-0.007218054845408708
-0.005441071182795699,-0.005539463399929348
-0.005440731182795699,-0.005934426092984033
-0.005440391182795699,-0.0070205734988837
-0.005440051182795699,-0.006625610805829733
-0.005439711182795699,-0.006131907439511376
-0.005439371182795699,-0.005704031188703571
-0.005439031182795699,-0.006493956574811504
-0.005438691182795699,-0.01268170543266824
-0.005438351182795699,-0.007909239558250814
-0.005438011182795699,-0.004255834647501621
-0.005437671182795699,-0.004519143109538078
-0.005437331182795699,-0.00537489561116255
-0.005436991182795699,-0.008666251386612273
-0.005436651182795699,-0.008073807347030245
-0.0054363111827957,-0.003926699069963594
-0.005435971182795699,-0.004650797340556306
-0.005435631182795699,-0.006329388786038719
-0.0054352911827957,-0.006329388786038719
-0.005434951182795699,-0.004486229551783521
-0.005434611182795699,-0.005210327822383777
-0.0054342711827957,-0.006625610805827159
-0.005433931182795699,-0.005309068495647449
-0.005433591182795699,-0.00267598387528288
-0.0054332511827957,-0.003663390607917798
-0.005432911182795699,-0.004255834647501621
-0.005432571182795699,-0.004519143109538078
-0.0054322311827957,-0.005769858304208973
-0.005431891182795699,-0.006131907439511376
-0.005431551182795699,-0.007185141287657204
-0.0054312111827957,-0.008962473406400055
-0.005430871182795699,-0.009785312350267215
-0.005430531182795699,-0.00790923955825746
-0.0054301911827957,-0.008863732733137879
-0.005429851182795699,-0.01047649706311291
-0.005429511182795699,-0.009192868310685188
-0.0054291711827957,-0.008600424271104237
-0.005428831182795699,-0.008995386964157845
-0.005428491182795699,-0.00869916494436683
-0.0054281511827957,-0.01241839697062502
-0.005427811182795699,-0.004749538013819977
-0.005427471182795699,-0.002281021182228195
-0.0054271311827957,-0.006526870132566062
-0.005426791182795699,-0.006230648112775047
-0.005426451182795699,-0.004124180416483393
-0.0054261111827957,-0.004124180416483393
-0.005425771182795699,-0.006131907439511376
-0.005425431182795699,-0.004453315994028964
-0.0054250911827957,-0.005934426092984033
-0.005424751182795699,-0.007185141287657204
-0.005424411182795699,-0.007152227729902647
-0.0054240711827957,-0.005473636284420234
-0.005423731182795699,-0.00616482099726785
-0.005423391182795699,-0.007218054845411761
-0.005423051182795699,-0.00494701936034732
-0.005422711182795699,-0.006230648112774748
-0.005422371182795699,-0.006066080324002262
-0.005422031182795699,-0.005341982053402005
-0.005421691182795699,-0.005572376957684325
-0.005421351182795699,-0.005802771861965805
-0.005421011182795699,-0.004124180416483393
-0.005420671182795699,-0.003498822819149801
-0.005420331182795699,-0.005144500706874663
-0.005419991182795699,-0.003070946568337565
-0.005419651182795699,-0.005309068495649843
-0.005419311182795699,-0.006625610805829733
-0.005418971182795699,-0.007086400614393532
-0.005418631182795699,-0.007185141287658581
-0.005418291182795699,-0.007942153116012016
-0.005417951182795699,-0.008435856482330374
-0.005417611182795699,-0.00734970907642047
-0.005417271182795699,-0.002116453393455409
-0.005416931182795699,0.002096481999127901
-0.005416591182795699,-0.0049470193603475
-0.005416251182795699,-0.005045760033610991
