Analysis/New Tests_CMB/wrd01_d2s01/cmb11_ch22.csv

#Digilent WaveForms Oscilloscope Acquisition
#Device Name: ADP3450
#Serial Number: SN:210018B9D9B0
#Date Time: 2024-06-28 13:19:39.812.775.080
#Sample rate: 2.5e+07Hz
#Samples: 32768
#Trigger: Source: Channel 3 Type: Edge Condition: Rising Level: 60 mV Hyst.: Auto HoldOff: 0 s
#Channel 1: Range: 100 mV/div Offset: -370 mV Attenuation: 1 X Coupling: DC Bandwidth: 0 Hz Sample Mode: Average
#Channel 3: Range: 100 mV/div Offset: 0 V Attenuation: 1 X Coupling: DC Bandwidth: 0 Hz Sample Mode: Average

Time (s),Channel 1 (V),Channel 3 (V)
-0.0006553303448275863,-0.001175622896513573,-0.001524009353873381
-0.0006552903448275863,-0.001602264250808783,0.001701519306073215
-0.0006552503448275862,-0.001175622896514468,-0.001951885604681067
-0.0006552103448275862,-0.001667901382238823,-0.001096133103064139
-0.0006551703448275862,-0.001766357079383829,0.0006482854579273878
-0.0006551303448275863,-0.001799175645098849,-0.001524009353873381
-0.0006550903448275863,-0.001897631342243911,-0.001820231373664395
-0.0006550503448275863,-0.001733538513669107,-0.001194873776328948
-0.0006550103448275862,-0.001996087039388315,-0.003597563492408743
-0.0006549703448275862,-0.001635082816523803,-0.002643070317528323
-0.0006549303448275863,-0.001667901382238823,-0.002840551664055666
-0.0006548903448275863,-0.001996087039388972,-0.004255834647501621
-0.0006548503448275863,-0.001470989987949656,-0.003268427914866704
-0.0006548103448275862,-0.002061724170817882,-0.003268427914865028
-0.0006547703448275862,-0.001470989987948701,-0.003334255030374022
-0.0006547303448275863,-0.001766357079383829,-0.002807638106301108
-0.0006546903448275863,-0.002357091262254085,-0.003992526185465165
-0.0006546503448275863,-0.001766357079384904,-0.003630477050165695
-0.0006546103448275862,-0.002258635565108125,-0.002774724548544935
-0.0006545703448275862,-0.001733538513668809,-0.00188605848917351
-0.0006545303448275863,-0.002127361302248998,-0.001556922911627938
-0.0006544903448275863,-0.002028905605103937,-0.0007669975255185678
-0.0006544503448275863,-0.001733538513668809,0.0009115939199638446
-0.0006544103448275862,-0.001963268473673056,0.0001874956493629896
-0.0006543703448275862,-0.001470989987948701,-0.0001416399281819828
-0.0006543303448275862,-0.001635082816523803,-0.0003062077169547683
-0.0006542903448275863,-0.00186481277652889,0.0006811990156819448
-0.0006542503448275863,-0.00183199421081387,0.001207815939754859
-0.0006542103448275863,-0.001470989987949358,0.001471124401790836
-0.0006541703448275862,-0.001799175645098849,0.0025572718076917
-0.0006541303448275862,-0.001503808553663721,0.001635692190564101
-0.0006540903448275863,-0.001733538513668809,0.001043248150982073
-0.0006540503448275863,-0.002028905605103937,0.002129395556882458
-0.0006540103448275863,-0.001733538513669346,0.00091159391996606
-0.0006539703448275862,-0.001339715725088735,-0.0008657381987798444
-0.0006539303448275862,-0.001372534290803695,0.0004508041114000451
-0.0006538903448275863,-0.001963268473673951,0.002228136230146129
-0.0006538503448275863,-0.001602264250808783,0.0009445074777184018
-0.0006538103448275863,-0.001339715725089152,0.0009445074777184018
-0.0006537703448275862,-0.001274078593658276,0.0002204092071202408
-0.0006537303448275862,-0.001077167199368567,0.001372383728527644
-0.0006536903448275863,-0.00183199421081387,0.0002862363226272596
-0.0006536503448275863,-0.001700719947953844,-0.0003062077169547683
-0.0006536103448275863,-0.001470989987949119,-0.0003062077169547683
-0.0006535703448275862,-0.001241260027943315,0.002919320942989912
-0.0006535303448275862,-0.001077167199368567,0.001866087094846001
-0.0006534903448275863,-0.001536627119378742,0.001997741325864229
-0.0006534503448275863,-0.001569445685093762,0.002688926038709928
-0.0006534103448275863,-0.001339715725088675,0.000714112573436502
-0.0006533703448275863,-0.001405352856518596,0.002359790461161364
-0.0006533303448275862,-0.001372534290803695,0.003281370078291956
-0.0006532903448275862,-0.001503808553663721,0.0008128532467001733
-0.0006532503448275863,-0.001208441462228593,0.004564998830719684
-0.0006532103448275863,-0.002192998433679039,0.003083888731764614
-0.0006531703448275863,-0.002291454130823921,0.003511764982573078
-0.0006531303448275862,-0.001667901382239062,0.004104209022155645
-0.0006530903448275862,-0.001799175645098849,0.003972554791137656
-0.0006530503448275863,-0.001667901382238823,0.002754753154219042
-0.0006530103448275863,-0.00186481277652889,0.005354924216829054
-0.0006529703448275863,-0.002028905605103638,0.004235863253176148
-0.0006529303448275862,-0.002127361302248938,0.004170036137668171
-0.0006528903448275862,-0.002094542736533977,0.005914454698656525
-0.0006528503448275863,-0.002258635565109079,0.003840900560119427
-0.0006528103448275863,-0.00183199421081387,0.00426877681092867
-0.0006527703448275863,-0.001930449907958752,0.005980281814162526
-0.0006527303448275862,-0.00209454273653338,0.002491444692185579
-0.0006526903448275862,-0.001766357079383829,0.004137122579910441
-0.0006526503448275863,-0.001897631342243911,0.004630825946228797
-0.0006526103448275863,-0.002127361302248998,0.003116802289519171
-0.0006525703448275863,-0.001799175645098849,0.00426877681092867
-0.0006525303448275863,-0.001733538513668928,0.004235863253174172
-0.0006524903448275862,-0.001241260027943614,0.002754753154219042
-0.0006524503448275862,-0.001569445685093762,0.003544678540328413
-0.0006524103448275863,-0.001306897159373654,0.003742159886855756
-0.0006523703448275863,-0.002192998433679039,0.003676332771346642
-0.0006523303448275863,-0.001799175645099566,0.003840900560119128
-0.0006522903448275862,-0.001799175645098969,0.004927047966021608
-0.0006522503448275862,-0.00186481277652889,0.005914454698656525
-0.0006522103448275863,-0.001963268473673951,0.006111936045183867
-0.0006521703448275863,-0.001930449907958931,0.00505870219703804
-0.0006521303448275863,-0.001996087039388853,0.005190356428056029
-0.0006520903448275862,-0.001766357079384426,0.006605639411498753
-0.0006520503448275862,-0.002094542736533977,0.004696653061737912
-0.0006520103448275863,-0.001963268473673951,0.00574988690988374
-0.0006519703448275863,-0.002094542736533977,0.005322010659074497
-0.0006519303448275863,-0.002291454130823742,0.005848627583146453
-0.0006518903448275862,-0.00199608703938927,0.00430169036868616
-0.0006518503448275862,-0.002160179867964018,0.005914454698656525
-0.0006518103448275863,-0.001963268473673951,0.004597912388474241
-0.0006517703448275863,-0.001996087039388972,0.003676332771346642
-0.0006517303448275863,-0.002094542736533977,0.003906727675628541
-0.0006516903448275862,-0.002028905605104713,0.004301690368682808
-0.0006516503448275862,-0.002455546959399146,0.004071295464401327
-0.0006516103448275862,-0.002652458353689213,0.004071295464401327
-0.0006515703448275863,-0.001996087039388972,0.00482830729275614
-0.0006515303448275863,-0.0022914541308241,0.003840900560119427
-0.0006514903448275863,-0.002586821222258635,0.004235863253173394
-0.0006514503448275862,-0.001930449907958215,0.004828307292753745
-0.0006514103448275862,-0.001536627119378742,0.003511764982573856
-0.0006513703448275863,-0.00183199421081387,0.005091615754792597
-0.0006513303448275863,-0.001799175645098849,0.005223269985810825
-0.0006512903448275863,-0.001667901382239062,0.005980281814164262
-0.0006512503448275862,-0.001733538513668988,0.005256183543564186
-0.0006512103448275862,-0.00183199421081387,0.004597912388474241
-0.0006511703448275863,-0.001372534290803695,0.005881541140901968
-0.0006511303448275863,-0.001372534290803695,0.004861220850510698
-0.0006510903448275863,-0.001602264250808365,0.003676332771348797
-0.0006510503448275862,-0.001930449907959289,0.003939641233384715
-0.0006510103448275862,-0.002127361302248998,0.00482830729275614
-0.0006509703448275863,-0.001372534290803695,0.003380110751555628
-0.0006509303448275863,-0.001339715725088675,0.004367517484192341
-0.0006508903448275863,-0.001438171422233681,0.003972554791137656
-0.0006508503448275862,-0.001864812776528055,0.003610505655835013
-0.0006508103448275862,-0.001405352856518716,0.002228136230146129
-0.0006507703448275862,-0.001175622896513573,0.002754753154219042
-0.0006507303448275863,-0.001897631342243911,0.004532085272965126
-0.0006506903448275863,-0.001470989987948701,0.0027876667119736
-0.0006506503448275863,-0.001339715725088914,0.002096481999129158
-0.0006506103448275862,-0.00186481277652889,0.004564998830719684
-0.0006505703448275862,-0.001897631342243911,0.002623098923200814
-0.0006505303448275863,-0.001667901382238823,0.004137122579910441
-0.0006504903448275863,-0.001733538513668809,0.002228136230146129
-0.0006504503448275863,-0.001766357079383769,0.001010334593229731
-0.0006504103448275862,-0.002488365525113868,0.001734432863828311
-0.0006503703448275862,-0.002324272696539065,0.002030654883618786
-0.0006503303448275863,-0.001930449907958931,0.001701519306073215
-0.0006502903448275863,-0.001963268473673951,0.0004837176691546022
-0.0006502503448275863,-0.001963268473673951,0.0002204092071186244
-0.0006502103448275862,-0.001569445685095195,0.002162309114633183
-0.0006501703448275862,-0.002357091262254085,5.584141834535986e-05
-0.0006501303448275863,-0.002488365525114167,0.0007799396889456162
-0.0006500903448275863,-0.001766357079383829,0.001207815939754859
-0.0006500503448275863,-0.002225816999393223,0.001405297286281842
-0.0006500103448275862,-0.001766357079384068,0.0007470261311930349
-0.0006499703448275862,-0.001897631342243911,0.001833173537091444
-0.0006499303448275863,-0.001799175645098849,0.001504037959545873
-0.0006498903448275863,-0.001766357079383829,0.003182629405028285
-0.0006498503448275863,-0.002192998433679039,0.002425617576673472
-0.0006498103448275863,-0.001470989987950014,0.00101033459323009
-0.0006497703448275862,-0.001602264250808783,0.001899000652600558
-0.0006497303448275862,-0.001274078593658634,0.003939641233383098
-0.0006496903448275863,-0.001339715725088675,0.001899000652600558
-0.0006496503448275863,-0.001109985765083588,-0.0004707755057275538
-0.0006496103448275863,-0.001241260027943375,0.002326876903404712
-0.0006495703448275862,-0.001011530067939661,0.001471124401787304
-0.0006495303448275862,-0.001635082816523803,-0.0007340839677640107
-0.0006494903448275863,-0.001569445685093762,-0.0006682568522548965
-0.0006494503448275863,-0.001635082816523803,0.0004837176691546022
-0.0006494103448275863,-0.001438171422234039,-0.001721490700396713
-0.0006493703448275862,-0.001536627119378384,0.0006811990156796099
-0.0006493303448275862,-0.001339715725088675,-0.0006024297367457822
-0.0006492903448275863,-0.001602264250808783,0.001141988824245744
-0.0006492503448275863,-0.001175622896513573,0.0005495447846637165
-0.0006492103448275863,-0.001963268473672519,-0.0005036890634801951
-0.0006491703448275862,-0.001766357079384008,0.0002862363226303728
-0.0006491303448275862,-0.00186481277652889,0.001997741325864229
-0.0006490903448275863,-0.001996087039388972,0.002063568441373343
-0.0006490503448275863,-0.002094542736533977,0.0023268769034098
-0.0006490103448275863,-0.001930449907958931,0.001635692190564101
-0.0006489703448275862,-0.002783732616546489,0.0008786803622188068
-0.0006489303448275862,-0.001241260027943614,0.006111936045183867
-0.0006488903448275862,-0.002324272696539065,-0.004914105802592763
-0.0006488503448275863,-0.002554002656544208,0.007132256335575138
-0.0006488103448275863,-0.001372534290803695,0.0007799396889456162
-0.0006487703448275863,-0.003210373970841106,0.001109075266490589
-0.0006487303448275862,-0.001274078593659888,0.003083888731753358
-0.0006486903448275862,-0.001963268473673951,-0.003103860126092122
-0.0006486503448275863,-0.002849369747979336,0.006868947873538681
-0.0006486103448275863,-0.001667901382238823,-0.0001745534859365399
-0.0006485703448275863,-0.002291454130822966,-0.00112904666081696
-0.0006485303448275862,-0.002028905605103698,0.003215542962775059
-0.0006484903448275862,-0.001897631342243911,-0.001063219545309582
-0.0006484503448275863,-0.001667901382238823,0.0009115939199638446
-0.0006484103448275863,-0.002061724170818957,0.0009445074777184018
-0.0006483703448275863,-0.00245554695939843,0.0004178905536464459
-0.0006483303448275862,-0.001667901382240375,0.004104209022144748
-0.0006482903448275862,-0.002521184090829187,-0.002017712720191738
-0.0006482503448275863,-0.002061724170818957,0.002656012480955371
-0.0006482103448275863,-0.001175622896513573,0.001141988824245744
-0.0006481703448275863,-0.001306897159373654,0.001207815939754859
-0.0006481303448275862,-0.001503808553662945,0.001569865075056244
-0.0006480903448275862,-0.001077167199368567,0.002261049787900686
-0.0006480503448275862,-0.001733538513668809,0.002590185365446257
-0.0006480103448275863,-0.00183199421081387,0.001701519306073215
-0.0006479703448275863,-0.000978711502223506,0.0008457668044547304
-0.0006479303448275863,-0.001109985765083349,0.004564998830712918
-0.0006478903448275862,-0.0008146186736485193,0.001602778632814693
-0.0006478503448275862,-0.0008474372393634799,0.004433344599701455
-0.0006478103448275863,-0.001175622896513573,0.002096481999127901
-0.0006477703448275863,-0.0009458929365084856,0.002524358249937143
-0.0006477303448275863,-0.001536627119377667,0.001668605748320215
-0.0006476903448275862,-0.001175622896513274,0.002721839596467539
-0.0006476503448275862,-0.001011530067938526,0.004400431041946898
-0.0006476103448275863,-0.0008146186736484595,0.001602778632809544
-0.0006475703448275863,-0.001438171422233681,0.0006811990156819448
-0.0006475303448275863,-0.001339715725088854,0.001964827768107337
-0.0006474903448275862,-0.001175622896514229,0.002129395556878925
-0.0006474503448275862,-0.001536627119378742,0.0001874956493635883
-0.0006474103448275863,-0.002061724170818957,0.0006811990156819448
-0.0006473703448275863,-0.00186481277652889,0.001438210844036758
-0.0006473303448275863,-0.002488365525114167,0.0003191498803818167
-0.0006472903448275862,-0.002357091262253667,-0.001853144931414043
-0.0006472503448275862,-0.002127361302248998,0.0008457668044547304
-0.0006472103448275862,-0.002488365525114167,-0.002643070317528323
-0.0006471703448275863,-0.002127361302248998,0.0008457668044547304
-0.0006471303448275863,-0.002258635565109079,0.0003191498803818167
-0.0006470903448275863,-0.001996087039389449,0.0002862363226273194
-0.0006470503448275862,-0.002127361302248998,0.001438210844036758
-0.0006470103448275862,-0.001077167199368567,-0.004058353300974278
-0.0006469703448275863,-0.003210373970844449,-9.985697163754359e-06
-0.0006469303448275863,-0.001306897159373654,0.008646279992284765
-0.0006468903448275863,-0.002028905605102624,-0.009094127637389246
-0.0006468503448275862,-0.002389909827965584,0.009962822302443282
-0.0006468103448275862,-0.0004536144507832907,-0.003103860126092122
-0.0006467703448275863,-0.002225816999394059,-0.001622750027137053
-0.0006467303448275863,-0.0009458929365084856,0.008646279992284765
-0.0006466903448275863,-0.001339715725087958,-0.0012936144495734
-0.0006466503448275862,-0.001569445685092986,0.001141988824246582
-0.0006466103448275862,-0.001142804330798552,0.001602778632809544
-0.0006465703448275863,-0.001274078593658634,0.0001545820916090312
-0.0006465303448275863,-0.0007818001079334391,0.0002533227648727025
-0.0006464903448275863,-0.001306897159372699,0.0003520634381361942
-0.0006464503448275862,-0.001700719947953247,0.001109075266488912
-0.0006464103448275862,-0.001372534290803695,-0.0001416399281819828
-0.0006463703448275863,-0.001700719947953844,-0.0006682568522548965
-0.0006463303448275863,-0.001635082816523803,-0.0005366026212366681
-0.0006462903448275863,-0.00186481277652889,-0.0006024297367457822
-0.0006462503448275863,-0.002094542736533559,-0.003268427914860059
-0.0006462103448275862,-0.001700719947953844,-0.002577243202019209
-0.0006461703448275862,-0.00183199421081387,-0.001622750027137053
-0.0006461303448275863,-0.002389909827969106,-0.00244558897100098
-0.0006460903448275863,-0.002389909827969106,-0.001688577142646167
-0.0006460503448275863,-0.001831994210814885,-0.0012936144495922
-0.0006460103448275862,-0.002422728393683768,-0.001721490700399826
-0.0006459703448275862,-0.002225816999394059,-0.001227787334082367
-0.0006459303448275863,-0.002324272696539065,-0.00142526868060971
-0.0006458903448275863,-0.0022914541308241,0.0001545820916090312
-0.0006458503448275863,-0.001930449907959588,0.0009774210354714619
-0.0006458103448275862,-0.001831994210813989,0.000483717669153345
-0.0006457703448275862,-0.001897631342243911,-0.000207467043691097
-0.0006457303448275863,-0.002061724170818957,-0.0001087263704274257
-0.0006456903448275863,-0.001897631342243911,-0.0009644788720459105
-0.0006456503448275863,-0.00212736130224858,0.0008457668044514377
-0.0006456103448275862,-0.00186481277652895,-0.0008986517565390114
-0.0006455703448275862,-0.001897631342243911,-0.002116453393455409
-0.0006455303448275863,-0.001897631342243911,0.0008786803622092876
-0.0006454903448275863,-0.00186481277652889,0.0003520634381363738
-0.0006454503448275863,-0.001766357079383829,0.0001216685338544741
-0.0006454103448275862,-0.001831994210813989,0.0003191498803807391
-0.0006453703448275862,-0.001897631342243911,-0.0002732941592002112
-0.0006453303448275862,-0.001930449907958931,-0.0008986517565367963
-0.0006452903448275863,-0.001930449907958931,-7.581281267286857e-05
-0.0006452503448275863,-0.002324272696539065,-0.0007669975255185678
-0.0006452103448275863,-0.001700719947954978,0.001767346421577719
-0.0006451703448275862,-0.001864812776528353,-9.985697161419452e-06
-0.0006451303448275862,-0.001569445685093762,0.001273643055263973
-0.0006450903448275863,-0.001536627119378742,0.001405297286282201
-0.0006450503448275863,-0.001963268473673951,0.0006811990156819448
-0.0006450103448275863,-0.00140535285651973,0.0003191498803824753
-0.0006449703448275862,-0.001569445685093106,0.0007470261311904604
-0.0006449303448275862,-0.001208441462228593,0.000417890553645488
-0.0006448903448275863,-0.001405352856518716,0.002359790461164357
-0.0006448503448275863,-0.001274078593658634,0.002030654883618786
-0.0006448103448275863,-0.001339715725088555,0.001043248150983869
-0.0006447703448275862,-0.001306897159373356,0.002261049787899488
-0.0006447303448275862,-0.001142804330798552,0.001602778632809544
-0.0006446903448275863,-0.001536627119378742,0.0007799396889456162
-0.0006446503448275863,-0.001339715725088675,0.0006482854579273878
-0.0006446103448275863,-0.0008802558050784448,0.002129395556882458
-0.0006445703448275862,-0.001700719947953127,0.002787666711974558
-0.0006445303448275862,-0.001306897159373654,0.003314283636046514
-0.0006444903448275862,-0.001700719947953844,0.0023268769034098
-0.0006444503448275863,-0.001208441462228593,0.00153695151730043
-0.0006444103448275863,-0.001405352856518716,0.004005468348892213
-0.0006443703448275863,-0.001996087039387897,0.002524358249939837
-0.0006443303448275862,-0.001831994210813034,0.001734432863828491
-0.0006442903448275862,-0.001372534290803695,0.002129395556882458
-0.0006442503448275863,-0.001930449907958931,0.002721839596464486
-0.0006442103448275863,-0.001799175645098849,0.001569865075054987
-0.0006441703448275863,-0.001864812776528771,0.002656012480953395
-0.0006441303448275862,-0.002127361302249058,0.001438210844032388
-0.0006440903448275862,-0.002160179867964018,-0.0009644788720459105
-0.0006440503448275863,-0.001733538513668809,-0.0001745534859365399
-0.0006440103448275863,-0.001897631342243911,0.001207815939754859
-0.0006439703448275863,-0.002258635565108423,0.001174902382000361
-0.0006439303448275862,-0.002258635565108602,0.0005166312269071836
-0.0006438903448275862,-0.001996087039388972,-0.0005695161789912252
-0.0006438503448275863,-0.002324272696539065,-9.985697163754359e-06
-0.0006438103448275863,-0.001930449907958931,-0.001063219545309582
-0.0006437703448275863,-0.002324272696539065,-0.001129046660818696
-0.0006437303448275862,-0.002160179867963839,-0.002939292337311554
-0.0006436903448275862,-0.002061724170818957,0.001339470170773087
-0.0006436503448275862,-0.001635082816523803,0.0009445074777184018
