Analysis/New Tests_CMB/wrd01_d2s01/cmb13_ch42.csv

#Digilent WaveForms Oscilloscope Acquisition
#Device Name: ADP3450
#Serial Number: SN:210018B9D9B0
#Date Time: 2024-08-06 18:17:22.595.257.950
#Sample rate: 2.94118e+06Hz
#Samples: 32768
#Trigger: Source: Channel 3 Type: Edge Condition: Rising Level: 60 mV Hyst.: Auto HoldOff: 0 s
#Channel 3: Range: 200 mV/div Offset: -20 mV Attenuation: 1 X Coupling: DC Bandwidth: 0 Hz Sample Mode: Average

Time (s),Channel 3 (V)
-0.005570492883116883,0.02471199323399831
-0.005570152883116883,0.02451451188747067
-0.005569812883116883,0.02434994409869818
-0.005569472883116883,0.02467907967624375
-0.005569132883116883,0.025304437273581
-0.005568792883116883,0.02566648640888046
-0.005568452883116883,0.02543609150459857
-0.005568112883116883,0.02484364746501558
-0.005567772883116883,0.02431703054094362
-0.005567432883116883,0.02408663563666172
-0.005567092883116883,0.02375750005911615
-0.005566752883116883,0.02375750005911615
-0.005566412883116883,0.02379041361687071
-0.005566072883116883,0.02405372207890645
-0.005565732883116883,0.02365875938585248
-0.005565392883116883,0.02346127803932514
-0.005565052883116883,0.0226713526532129
-0.005564712883116883,0.02109150188099703
-0.005564372883116883,0.01921542908898727
-0.005564032883116883,0.01737226985472956
-0.005563692883116883,0.01598990042904068
-0.005563352883116883,0.01493666658089485
-0.005563012883116883,0.01470627167661337
-0.005562672883116883,0.0142783954258037
-0.005562332883116883,0.01460753100334928
-0.005561992883116883,0.01473918523436727
-0.005561652883116883,0.0147391852343675
-0.005561312883116883,0.01536454283170409
-0.005560972883116883,0.01470627167661414
-0.005560632883116883,0.0154303699472132
-0.005560292883116883,0.01579241908251333
-0.005559952883116883,0.01684565293065724
-0.005559612883116883,0.01740518341248663
-0.005559272883116883,0.01816219524084144
-0.005558932883116883,0.01776723254778748
-0.005558592883116883,0.01776723254778676
-0.005558252883116883,0.01720770206595929
-0.005557912883116883,0.01681273937290532
-0.005557572883116883,0.01602281398679523
-0.005557232883116883,0.01526580215844042
-0.005556892883116883,0.01421256831029651
-0.005556552883116883,0.01315933446214876
-0.005556212883116883,0.01266563109583041
-0.005555872883116883,0.01263271753807591
-0.005555532883116883,0.01315933446214876
-0.005555192883116883,0.01375177850173079
-0.005554852883116883,0.01500249369640169
-0.005554512883116883,0.01579241908251333
-0.005554172883116883,0.0165823444686227
-0.005553832883116883,0.01740518341248663
-0.005553492883116883,0.01724061562371385
-0.005553152883116883,0.01651651735311359
-0.005552812883116883,0.01595698687128612
-0.005552472883116883,0.01454170388784016
-0.005552132883116883,0.01315933446214876
-0.005551792883116883,0.01217192772951205
-0.005551452883116883,0.01148074301666467
-0.005551112883116883,0.01055916339953875
-0.005550772883116883,0.009999632917711282
-0.005550432883116883,0.009736324455674404
-0.005550092883116883,0.009505929551392924
-0.005549752883116883,0.009012226185074568
-0.005549412883116883,0.008683090607530374
-0.005549072883116883,0.009440102435883811
-0.005548732883116883,0.01036168205301141
-0.005548392883116883,0.01154657013217732
-0.005548052883116883,0.01256689042256674
-0.005547712883116883,0.01338972936643066
-0.005547372883116883,0.01362012427071184
-0.005547032883116883,0.01322516157765788
-0.005546692883116883,0.01263271753807585
-0.005546352883116883,0.01200735994073903
-0.005546012883116883,0.01187570570972104
-0.005545672883116883,0.01174405147870281
-0.005545332883116883,0.01200735994073962
-0.005544992883116883,0.01220484128726661
-0.005544652883116883,0.01210610061400294
-0.005544312883116883,0.01161239724768392
-0.005543972883116883,0.01125034811238445
-0.005543632883116883,0.01121743455462989
-0.005543292883116883,0.01101995320810165
-0.005542952883116883,0.01052624984178419
-0.005542612883116883,0.01039459561076597
-0.005542272883116883,0.01032876849525697
-0.005541932883116883,0.01082247186157521
-0.005541592883116883,0.01115160743912078
-0.005541252883116883,0.01174405147870173
-0.005540912883116883,0.01246814974930307
-0.005540572883116883,0.01329098869316699
-0.005540232883116883,0.01358721071295747
-0.005539892883116883,0.01381760561723991
-0.005539552883116883,0.01437713609906738
-0.005539212883116883,0.01473918523436685
-0.005538872883116883,0.01450879033008561
-0.005538532883116883,0.01411382763703092
-0.005538192883116883,0.01335681580867748
-0.005537852883116883,0.01230358196053028
-0.005537512883116883,0.01190861926747559
-0.005537172883116883,0.01151365657442163
-0.005536832883116883,0.01157948368993002
-0.005536492883116883,0.01210610061400294
-0.005536152883116883,0.01240232263379341
-0.005535812883116883,0.01279728532684864
-0.005535472883116883,0.01362012427071256
-0.005535132883116883,0.01427839542580251
-0.005534792883116883,0.0147391852343675
-0.005534452883116883,0.01437713609906738
-0.005534112883116883,0.01329098869316897
-0.005533772883116883,0.01213901417175749
-0.005533432883116883,0.01059207695729331
-0.005533092883116883,0.008814744838547226
-0.005532752883116883,0.008090646567946969
-0.005532412883116883,0.007893165221419626
-0.005532072883116883,0.008584349934265326
-0.005531732883116883,0.009736324455674824
-0.005531392883116883,0.01105286676585711
-0.005531052883116883,0.01177696503645737
-0.005530712883116883,0.01220484128726661
-0.005530372883116883,0.01177696503645737
-0.005530032883116883,0.01197444638298471
-0.005529692883116883,0.01184279215196768
-0.005529352883116883,0.01250106330705762
-0.005529012883116883,0.01309350734663965
-0.005528672883116883,0.01338972936643198
-0.005528332883116883,0.01411382763703092
-0.005527992883116883,0.01385051917499446
-0.005527652883116883,0.01385051917499338
-0.005527312883116883,0.01325807513541244
-0.005526972883116883,0.01230358196053028
-0.005526632883116883,0.01144782945891131
-0.005526292883116883,0.01118452099687534
-0.005525952883116883,0.01121743455462989
-0.005525612883116883,0.0111845209968751
-0.005525272883116883,0.01105286676585711
-0.005524932883116883,0.01111869388136622
-0.005524592883116883,0.01111869388136508
-0.005524252883116883,0.01049333628402964
-0.005523912883116883,0.009769238013429382
-0.005523572883116883,0.009275534647110426
-0.005523232883116883,0.008946399069565453
-0.005522892883116883,0.009078053300583682
-0.005522552883116883,0.009473015993639027
-0.005522212883116883,0.009835065128938496
-0.005521872883116883,0.01059207695729331
-0.005521532883116883,0.01164531080544027
-0.005521192883116883,0.01227066840277572
-0.005520852883116883,0.01210610061400294
-0.005520512883116883,0.01200735994073945
-0.005520172883116883,0.01167822436319369
-0.005519832883116883,0.01042750916852052
-0.005519492883116883,0.009341361762622114
-0.005519152883116883,0.008551436376510768
-0.005518812883116883,0.008419782145492541
-0.005518472883116883,0.008913485511809998
-0.005518132883116883,0.009538843109147481
-0.005517792883116883,0.01039459561076597
-0.005517452883116883,0.01131617522789189
-0.005517112883116883,0.01154657013217547
-0.005516772883116883,0.01105286676585711
-0.005516432883116883,0.01125034811238409
-0.005516092883116883,0.01108578032361167
-0.005515752883116883,0.01128326167013901
-0.005515412883116883,0.01184279215196546
-0.005515072883116883,0.01273145821133952
-0.005514732883116883,0.01292893955786686
-0.005514392883116883,0.01306059378888485
-0.005514052883116883,0.01279728532684864
-0.005513712883116883,0.01187570570972104
-0.005513372883116883,0.01095412609259511
-0.005513032883116883,0.01026294137974774
-0.005512692883116883,0.009604670224656596
-0.005512352883116883,0.009209707531601911
-0.005512012883116883,0.009374275320374697
-0.005511672883116883,0.009275534647111025
-0.005511332883116883,0.01013128714872951
-0.005510992883116883,0.01092121253483888
-0.005510652883116883,0.01111869388136622
-0.005510312883116883,0.01115160743912078
-0.005509972883116883,0.01108578032361167
-0.005509632883116883,0.01072373118831154
-0.005509292883116883,0.01049333628402964
-0.005508952883116883,0.01062499051504817
-0.005508612883116883,0.01078955830382065
-0.005508272883116883,0.01101995320810255
-0.005507932883116883,0.01148074301666725
-0.005507592883116883,0.01197444638298471
-0.005507252883116883,0.01197444638298471
-0.005506912883116883,0.01128326167013877
-0.005506572883116883,0.01115160743912078
-0.005506232883116883,0.01072373118831154
-0.005505892883116883,0.01062499051504858
-0.005505552883116883,0.01101995320810255
-0.005505212883116883,0.01134908878564812
-0.005504872883116883,0.01197444638298626
-0.005504532883116883,0.01283019888460319
-0.005504192883116883,0.01276437176909408
-0.005503852883116883,0.01309350734664031
-0.005503512883116883,0.01345555648193978
-0.005503172883116883,0.01309350734663965
-0.005502832883116883,0.01266563109582849
-0.005502492883116883,0.01161239724768458
-0.005502152883116883,0.01095412609259344
-0.005501812883116883,0.009440102435882374
-0.005501472883116883,0.00865017704977444
-0.005501132883116883,0.007794424548155956
-0.005500792883116883,0.007234894066328066
-0.005500452883116883,0.007004499162046584
-0.005500112883116883,0.00762985675938317
-0.005499772883116883,0.007893165221419148
-0.005499432883116883,0.009045139742829125
-0.005499092883116883,0.009999632917711282
-0.005498752883116883,0.01111869388136419
-0.005498412883116883,0.01256689042256674
-0.005498072883116883,0.01391634629050358
-0.005497732883116883,0.014805012349875
-0.005497392883116883,0.01605572754454979
-0.005497052883116883,0.0172735291814684
-0.005496712883116883,0.01714187495045041
-0.005496372883116883,0.0168127393729046
-0.005496032883116883,0.01631903600658625
-0.005495692883116883,0.01506832081191535
-0.005495352883116883,0.01338972936643066
-0.005495012883116883,0.01174405147870281
-0.005494672883116883,0.01098703965034937
-0.005494332883116883,0.01046042272627508
-0.005493992883116883,0.01052624984178419
-0.005493652883116883,0.01055916339953869
-0.005493312883116883,0.01187570570972104
-0.005492972883116883,0.01187570570972104
-0.005492632883116883,0.01174405147870305
-0.005492292883116883,0.01164531080543914
-0.005491952883116883,0.01180987859421192
-0.005491612883116883,0.0120731870562479
-0.005491272883116883,0.01180987859421192
-0.005490932883116883,0.01125034811238445
-0.005490592883116883,0.01105286676585711
-0.005490252883116883,0.01098703965034799
-0.005489912883116883,0.01111869388136622
-0.005489572883116883,0.01121743455462989
-0.005489232883116883,0.01111869388136622
-0.005488892883116883,0.01072373118831154
-0.005488552883116883,0.01026294137974774
-0.005488212883116883,0.0095717566669021
-0.005487872883116883,0.009604670224656596
-0.005487532883116883,0.01016420070648407
-0.005487192883116883,0.01078955830382161
-0.005486852883116883,0.01131617522789356
-0.005486512883116883,0.01141491590115724
-0.005486172883116883,0.01134908878564974
-0.005485832883116883,0.01223775484502116
-0.005485492883116883,0.01263271753807585
-0.005485152883116883,0.01286311244235745
-0.005484812883116883,0.01269854465358496
-0.005484472883116883,0.01263271753807585
-0.005484132883116883,0.0118427921519645
-0.005483792883116883,0.0107566447460661
-0.005483452883116883,0.009440102435883811
-0.005483112883116883,0.009110966858339137
-0.005482772883116883,0.009604670224656596
-0.005482432883116883,0.009110966858338239
-0.005482092883116883,0.008781831280791651
-0.005481752883116883,0.008222300798965198
-0.005481412883116883,0.008419782145492541
-0.005481072883116883,0.009242621089357726
-0.005480732883116883,0.009933805802202166
-0.005480392883116883,0.01049333628402964
-0.005480052883116883,0.01108578032361167
-0.005479712883116883,0.01108578032361167
-0.005479372883116883,0.01023002782199318
-0.005479032883116883,0.00799190589468737
-0.005478692883116883,0.003021958673745176
-0.005478352883116883,-0.007444552692203985
-0.005478012883116883,-0.02469125695556054
-0.005477672883116883,-0.04967264729130075
-0.005477332883116883,-0.0804797373495662
-0.005476992883116883,-0.1138540849126264
-0.005476652883116883,-0.146932210456017
-0.005476312883116883,-0.177179770032455
-0.005475972883116883,-0.2019636790215914
-0.005475632883116883,-0.221547245885598
-0.005475292883116883,-0.2347455825451754
-0.005474952883116883,-0.2421840465976917
-0.005474612883116883,-0.2445538227560334
-0.005474272883116883,-0.2435664160233967
-0.005473932883116883,-0.239814270439384
-0.005473592883116883,-0.2346468418719117
-0.005473252883116883,-0.2282286981097731
-0.005472912883116883,-0.2208231476150112
-0.005472572883116883,-0.2138454733710316
-0.005472232883116883,-0.2055512568168832
-0.005471892883116883,-0.1981457063221213
-0.005471552883116883,-0.1900160575567323
-0.005471212883116883,-0.1821497172533931
-0.005470872883116883,-0.1740529820457868
-0.005470532883116883,-0.1660549875114147
-0.005470192883116883,-0.1591760539407123
-0.005469852883116883,-0.1531199593138738
-0.005469512883116883,-0.1472613460335626
-0.005469172883116883,-0.1422584852548699
-0.005468832883116883,-0.1375189329382137
-0.005468492883116883,-0.1329768619680848
-0.005468152883116883,-0.128796840133256
-0.005467812883116883,-0.1240572878165998
-0.005467472883116883,-0.1194823032887164
-0.005467132883116883,-0.1151048001073603
-0.005466792883116883,-0.1103323342329495
-0.005466452883116883,-0.1063827073023956
-0.005466112883116883,-0.1024989074873649
-0.005465772883116883,-0.09874676190334541
-0.005465432883116883,-0.09499461631931914
-0.005465092883116883,-0.09127538429306095
-0.005464752883116883,-0.08755615226679597
-0.005464412883116883,-0.08334321687420591
-0.005464072883116883,-0.07962398484794772
-0.005463732883116883,-0.0761022341682101
-0.005463392883116883,-0.07258048348846617
-0.005463052883116883,-0.06909164636648946
-0.005462712883116883,-0.06612942616857931
-0.005462372883116883,-0.06415461270330043
-0.005462032883116883,-0.06115947894764118
-0.005461692883116883,-0.05878970278931308
-0.005461352883116883,-0.05648575374648917
-0.005461012883116883,-0.05378684201062039
-0.005460672883116883,-0.05105501671699215
-0.005460332883116883,-0.04815862363458653
-0.005459992883116883,-0.04562427968749023
-0.005459652883116883,-0.04305702218263478
-0.005459312883116883,-0.0410163816018496
-0.005458972883116883,-0.03956818506065173
-0.005458632883116883,-0.03831746986597855
-0.005458292883116883,-0.0373629766910931
-0.005457952883116883,-0.03555273101459575
-0.005457612883116883,-0.03361083110707688
-0.005457272883116883,-0.03150436341078906
-0.005456932883116883,-0.02956246350326636
-0.005456592883116883,-0.02752182292248382
-0.005456252883116883,-0.02627110772781293
-0.005455912883116883,-0.02541535522619216
-0.005455572883116883,-0.02442794849355545
-0.005455232883116883,-0.02357219599193853
-0.005454892883116883,-0.02334180108765507
-0.005454552883116883,-0.0225518757015457
-0.005454212883116883,-0.0225518757015457
-0.005453872883116883,-0.02225565368175468
-0.005453532883116883,-0.02159738252666354
-0.005453192883116883,-0.02103785204483708
-0.005452852883116883,-0.01998461819669024
-0.005452512883116883,-0.01853642165548973
-0.005452172883116883,-0.0165616081902199
-0.005451832883116883,-0.01432348626290642
-0.005451492883116883,-0.01152583385376907
-0.005451152883116883,-0.009682674619517223
-0.005450812883116883,-0.008201564520558799
-0.005450472883116883,-0.007279984903431201
-0.005450132883116883,-0.007214157787922207
-0.005449792883116883,-0.00783951538525867
-0.005449452883116883,-0.008662354329122598
-0.005449112883116883,-0.009715588177266511
-0.005448772883116883,-0.009847242408286654
-0.005448432883116883,-0.009583933946250199
-0.005448092883116883,-0.009320625484213741
-0.005447752883116883,-0.007576206923222212
-0.005447412883116883,-0.005469739226930559
-0.005447072883116883,-0.002639173260038648
-0.005446732883116883,-0.0006643597947652222
-0.005446392883116883,0.0008496638619444052
-0.005446052883116883,0.002232033287635805
-0.005445712883116883,0.003416921366801477
-0.005445372883116883,0.004305587426172902
-0.005445032883116883,0.004404328099436573
-0.005444692883116883,0.004404328099436513
-0.005444352883116883,0.004371414541682016
-0.005444012883116883,0.003581489155572645
-0.005443672883116883,0.002956131558234742
-0.005443332883116883,0.002232033287635805
-0.005442992883116883,0.00183707059458112
-0.005442652883116883,0.001540848574789566
-0.005442312883116883,0.001244626554999091
-0.005441972883116883,0.0008825774196989621
-0.005441632883116883,0.001014231650717728
-0.005441292883116883,0.001310453670508204
-0.005440952883116883,0.002100379056617575
-0.005440612883116883,0.002363687518656906
-0.005440272883116883,0.003943538290872774
-0.005439932883116883,0.004503068772700245
-0.005439592883116883,0.005029685696773995
-0.005439252883116883,0.005490475505336958
-0.005438912883116883,0.005095512812282273
-0.005438572883116883,0.004535982330454024
-0.005438232883116883,0.004108106079645558
-0.005437892883116883,0.003943538290872774
-0.005437552883116883,0.004667636561474887
-0.005437212883116883,0.005687956851864301
-0.005436872883116883,0.007070326277555699
-0.005436532883116883,0.008419782145490086
-0.005436192883116883,0.009012226185074568
-0.005435852883116883,0.008946399069565453
-0.005435512883116883,0.008024819452439531
-0.005435172883116883,0.00772859743264684
-0.005434832883116883,0.007761510990401397
-0.005434492883116883,0.0077285974326469
-0.005434152883116883,0.007860251663665069
-0.005433812883116883,0.008090646567946969
-0.005433472883116883,0.008518522818755432
-0.005433132883116883,0.00874891772303811
-0.005432792883116883,0.008979312627320012
-0.005432452883116883,0.009538843109146463
-0.005432112883116883,0.00967049734016571
-0.005431772883116883,0.01013128714872951
-0.005431432883116883,0.009966719359957025
-0.005431092883116883,0.01016420070648407
-0.005430752883116883,0.009802151571183939
-0.005430412883116883,0.009670497340165949
-0.005430072883116883,0.008913485511810896
-0.005429732883116883,0.008913485511810896
-0.005429392883116883,0.008255214356720952
-0.005429052883116883,0.008156473683456083
-0.005428712883116883,0.008518522818756211
-0.005428372883116883,0.008584349934265207
-0.005428032883116883,0.009341361762620138
-0.005427692883116883,0.01013128714872951
-0.005427352883116883,0.01128326167013901
-0.005427012883116883,0.01266563109583041
-0.005426672883116883,0.01309350734663965
-0.005426332883116883,0.01335681580867611
-0.005425992883116883,0.01306059378888509
-0.005425652883116883,0.01289602600011231
-0.005425312883116883,0.01217192772951205
-0.005424972883116883,0.01174405147870281
-0.005424632883116883,0.01138200234340268
-0.005424292883116883,0.01125034811238445
-0.005423952883116883,0.01078955830382035
-0.005423612883116883,0.01062499051504787
-0.005423272883116883,0.009802151571183939
-0.005422932883116883,0.00924262108935545
-0.005422592883116883,0.008683090607528997
-0.005422252883116883,0.008090646567946969
-0.005421912883116883,0.008123560125701706
-0.005421572883116883,0.008222300798965198
-0.005421232883116883,0.008518522818756211
-0.005420892883116883,0.008716004165284511
-0.005420552883116883,0.009242621089356468
-0.005420212883116883,0.009999632917711282
-0.005419872883116883,0.009933805802201807
-0.005419532883116883,0.009736324455674824
-0.005419192883116883,0.008979312627320012
-0.005418852883116883,0.008518522818756272
-0.005418512883116883,0.008551436376510768
-0.005418172883116883,0.009078053300583682
-0.005417832883116883,0.008979312627320969
-0.005417492883116883,0.009505929551392924
-0.005417152883116883,0.009835065128938496
-0.005416812883116883,0.01065790407280284
-0.005416472883116883,0.01088829897708432
-0.005416132883116883,0.01180987859421192
-0.005415792883116883,0.01269854465358538
-0.005415452883116883,0.01292893955786686
-0.005415112883116883,0.01315933446214876
-0.005414772883116883,0.01306059378888527
-0.005414432883116883,0.01223775484502116
-0.005414092883116883,0.01230358196053028
-0.005413752883116883,0.01197444638298531
