Analysis/New Tests_CMB/wrd01_d2s01/cmb14_ch05.csv

#Digilent WaveForms Oscilloscope Acquisition
#Device Name: ADP3450
#Serial Number: SN:210018B9D9B0
#Date Time: 2024-08-06 17:20:13.311.074.060
#Sample rate: 2.94118e+06Hz
#Samples: 32768
#Trigger: Source: Channel 3 Type: Edge Condition: Rising Level: 60 mV Hyst.: Auto HoldOff: 0 s
#Channel 3: Range: 200 mV/div Offset: -20 mV Attenuation: 1 X Coupling: DC Bandwidth: 0 Hz Sample Mode: Average

Time (s),Channel 3 (V)
-0.005570526408544727,0.02418537630992539
-0.005570186408544726,0.02319796957728688
-0.005569846408544727,0.02221056284465197
-0.005569506408544727,0.0207294527456969
-0.005569166408544726,0.02053197139916836
-0.005568826408544727,0.01987370024407841
-0.005568486408544727,0.01947873755102373
-0.005568146408544726,0.01957747822428525
-0.005567806408544726,0.01839259014512334
-0.005567466408544727,0.0177343189900322
-0.005567126408544726,0.01710896139269502
-0.005566786408544726,0.01677982581515005
-0.005566446408544727,0.01579241908251333
-0.005566106408544726,0.01595698687128737
-0.005565766408544726,0.01664817158413182
-0.005565426408544727,0.01701022071943194
-0.005565086408544726,0.0176026647590141
-0.005564746408544726,0.01766849187452309
-0.005564406408544727,0.01737226985473207
-0.005564066408544726,0.01691148004616761
-0.005563726408544726,0.01654943091086815
-0.005563386408544727,0.01556202417823143
-0.005563046408544727,0.01490375302314149
-0.005562706408544726,0.01417965475254003
-0.005562366408544727,0.01325807513541244
-0.005562026408544727,0.01266563109583148
-0.005561686408544726,0.01190861926747559
-0.005561346408544727,0.01141491590115724
-0.005561006408544727,0.01108578032361226
-0.005560666408544726,0.01055916339953875
-0.005560326408544727,0.01052624984178419
-0.005559986408544727,0.01095412609259266
-0.005559646408544726,0.01161239724768458
-0.005559306408544727,0.01204027349849382
-0.005558966408544727,0.01259980398032027
-0.005558626408544726,0.01276437176909408
-0.005558286408544727,0.01273145821133952
-0.005557946408544727,0.01151365657442312
-0.005557606408544726,0.009604670224656596
-0.005557266408544727,0.008847658396301783
-0.005556926408544727,0.008683090607529297
-0.005556586408544726,0.008321041472228868
-0.005556246408544727,0.009143880416092796
-0.005555906408544727,0.009473015993637769
-0.005555566408544726,0.009999632917711282
-0.005555226408544727,0.01036168205301141
-0.005554886408544727,0.01052624984178389
-0.005554546408544726,0.01023002782199318
-0.005554206408544727,0.01026294137974774
-0.005553866408544727,0.01118452099687534
-0.005553526408544726,0.01131617522789356
-0.005553186408544727,0.01227066840277572
-0.005552846408544727,0.01207318705624838
-0.005552506408544726,0.01184279215196648
-0.005552166408544727,0.01062499051504787
-0.005551826408544727,0.009736324455674824
-0.005551486408544726,0.00822230079896436
-0.005551146408544727,0.007761510990401397
-0.005550806408544727,0.00772859743264684
-0.005550466408544726,0.0079260787791755
-0.005550126408544727,0.00865017704977444
-0.005549786408544727,0.009637583782411153
-0.005549446408544726,0.01003254647546542
-0.005549106408544727,0.009802151571183939
-0.005548766408544727,0.009242621089356468
-0.005548426408544726,0.009176793973846875
-0.005548086408544727,0.008913485511810896
-0.005547746408544727,0.009176793973847354
-0.005547406408544726,0.00920970753160215
-0.005547066408544726,0.009341361762620138
-0.005546726408544727,0.009012226185074568
-0.005546386408544726,0.008847658396302142
-0.005546046408544726,0.009045139742829125
-0.005545706408544727,0.009012226185074568
-0.005545366408544726,0.009275534647111384
-0.005545026408544726,0.009473015993638367
-0.005544686408544727,0.009736324455674824
-0.005544346408544726,0.009802151571184298
-0.005544006408544726,0.009999632917711282
-0.005543666408544727,0.009802151571183939
-0.005543326408544726,0.009012226185072952
-0.005542986408544726,0.008123560125701526
-0.005542646408544727,0.007136153393064813
-0.005542306408544727,0.006115833102675399
-0.005541966408544726,0.005490475505336958
-0.005541626408544727,0.004667636561473031
-0.005541286408544727,0.004470155214946047
-0.005540946408544726,0.005095512812282273
-0.005540606408544727,0.006082919544918986
-0.005540266408544727,0.007564029643871361
-0.005539926408544726,0.008288127914474312
-0.005539586408544727,0.008419782145492541
-0.005539246408544727,0.008551436376510528
-0.005538906408544726,0.008716004165283554
-0.005538566408544727,0.007926078779174183
-0.005538226408544727,0.008057733010192173
-0.005537886408544726,0.008288127914474312
-0.005537546408544727,0.008880571954056339
-0.005537206408544727,0.009143880416092317
-0.005536866408544726,0.009900892244447609
-0.005536526408544727,0.0100654600332204
-0.005536186408544727,0.0100325464754659
-0.005535846408544726,0.01013128714872951
-0.005535506408544727,0.0100654600332204
-0.005535166408544727,0.009703410897920926
-0.005534826408544726,0.009078053300583682
-0.005534486408544727,0.008683090607528997
-0.005534146408544727,0.00815647368345704
-0.005533806408544726,0.006807017815519241
-0.005533466408544727,0.005358821274318729
-0.005533126408544727,0.004568895888209358
-0.005532786408544726,0.004305587426172902
-0.005532446408544727,0.004075192521891001
-0.005532106408544727,0.00377897050209999
-0.005531766408544726,0.004141019637400115
-0.005531426408544727,0.004766377234736701
-0.005531086408544727,0.00693867204653747
-0.005530746408544726,0.00874891772303811
-0.005530406408544727,0.01105286676585711
-0.005530066408544727,0.01263271753807585
-0.005529726408544726,0.0138176056172414
-0.005529386408544727,0.01464044456110383
-0.005529046408544727,0.01421256831029459
-0.005528706408544726,0.01427839542580245
-0.005528366408544727,0.01358721071295801
-0.005528026408544727,0.01250106330705762
-0.005527686408544726,0.01131617522789165
-0.005527346408544727,0.01026294137974774
-0.005527006408544727,0.009473015993638367
-0.005526666408544726,0.008716004165283254
-0.005526326408544727,0.008551436376510768
-0.005525986408544727,0.007761510990401397
-0.005525646408544726,0.007004499162043949
-0.005525306408544726,0.005556302620846072
-0.005524966408544727,0.004733463676982144
-0.005524626408544726,0.004503068772699706
-0.005524286408544726,0.004206846752909232
-0.005523946408544727,0.004042278964136444
-0.005523606408544726,0.004042278964136384
-0.005523266408544726,0.004009365406381887
-0.005522926408544727,0.003943538290872774
-0.005522586408544726,0.004206846752909471
-0.005522246408544726,0.004338500983927459
-0.005521906408544727,0.004470155214945688
-0.005521566408544726,0.004865117908000373
-0.005521226408544726,0.004865117908000373
-0.005520886408544727,0.005062599254527716
-0.005520546408544727,0.00572087040961766
-0.005520206408544726,0.006872844931028356
-0.005519866408544727,0.007432375412855827
-0.005519526408544727,0.008353955029981749
-0.005519186408544726,0.008321041472228868
-0.005518846408544727,0.007893165221419626
-0.005518506408544727,0.007893165221419626
-0.005518166408544726,0.00874891772303811
-0.005517826408544727,0.009176793973847354
-0.005517486408544727,0.009933805802200789
-0.005517146408544726,0.01082247186157521
-0.005516806408544727,0.01148074301666635
-0.005516466408544727,0.01171113792094783
-0.005516126408544726,0.01200735994073926
-0.005515786408544727,0.01125034811238445
-0.005515446408544727,0.01006546003322255
-0.005515106408544726,0.009078053300583682
-0.005514766408544727,0.008288127914474312
-0.005514426408544727,0.007531116086120875
-0.005514086408544726,0.007201980508573926
-0.005513746408544727,0.006313314449200885
-0.005513406408544727,0.006576622911236863
-0.005513066408544726,0.006214573775937213
-0.005512726408544727,0.006148746660428099
-0.005512386408544727,0.006708277142255571
-0.005512046408544726,0.007004499162046584
-0.005511706408544727,0.007201980508573926
-0.005511366408544727,0.007169066950819369
-0.005511026408544726,0.00772859743264684
-0.005510686408544727,0.008518522818756211
-0.005510346408544727,0.00967049734016571
-0.005510006408544726,0.009637583782411153
-0.005509666408544727,0.01003254647546584
-0.005509326408544727,0.009867978686693053
-0.005508986408544726,0.008847658396300107
-0.005508646408544727,0.007926078779174183
-0.005508306408544727,0.007366548297346712
-0.005507966408544726,0.006938672046537649
-0.005507626408544727,0.007037412719801142
-0.005507286408544727,0.007169066950819369
-0.005506946408544726,0.007728597432648218
-0.005506606408544727,0.008485609261001654
-0.005506266408544727,0.009078053300583682
-0.005505926408544726,0.008452695703246259
-0.005505586408544727,0.007991905894683298
-0.005505246408544727,0.008057733010192412
-0.005504906408544726,0.008255214356719935
-0.005504566408544726,0.008353955029983425
-0.005504226408544727,0.008255214356719755
-0.005503886408544726,0.007926078779173944
-0.005503546408544726,0.007794424548155956
-0.005503206408544727,0.00762985675938317
-0.005502866408544726,0.007234894066327288
-0.005502526408544726,0.006576622911237342
-0.005502186408544727,0.005819611082882528
-0.005501846408544726,0.005194253485544207
-0.005501506408544726,0.004239760310663789
-0.005501166408544727,0.003449834924554418
-0.005500826408544726,0.003581489155572346
-0.005500486408544726,0.003416921366799861
-0.005500146408544727,0.004371414541682016
-0.005499806408544727,0.0057537839673709
-0.005499466408544726,0.006280400891446328
-0.005499126408544727,0.006708277142255571
-0.005498786408544727,0.007465288970609007
-0.005498446408544726,0.007300721181837598
-0.005498106408544727,0.0068399313732738
-0.005497766408544727,0.00670827714225581
-0.005497426408544726,0.006313314449200885
-0.005497086408544727,0.0059183517561462
-0.005496746408544727,0.005490475505337736
-0.005496406408544726,0.005292994158809615
-0.005496066408544727,0.005029685696773157
-0.005495726408544727,0.005984178871653577
-0.005495386408544726,0.006642450026746457
-0.005495046408544727,0.008090646567946969
-0.005494706408544727,0.009209707531599876
-0.005494366408544726,0.01065790407280242
-0.005494026408544727,0.01049333628402964
-0.005493686408544727,0.01039459561076615
-0.005493346408544726,0.01029585493750229
-0.005493006408544727,0.009440102435883811
-0.005492666408544727,0.008518522818757887
-0.005492326408544726,0.00795899233692874
-0.005491986408544727,0.007234894066328485
-0.005491646408544727,0.006313314449202562
-0.005491306408544726,0.006247487333691772
-0.005490966408544727,0.006741190700010127
-0.005490626408544727,0.006510795795728228
-0.005490286408544726,0.006444968680219114
-0.005489946408544727,0.006247487333691772
-0.005489606408544727,0.006115833102673543
-0.005489266408544726,0.0059183517561462
-0.005488926408544727,0.006050005987164429
-0.005488586408544727,0.006181660218182656
-0.005488246408544726,0.007004499162047841
-0.005487906408544727,0.007695683874892284
-0.005487566408544727,0.008452695703247097
-0.005487226408544726,0.009110966858338419
-0.005486886408544727,0.009209707531601911
-0.005486546408544727,0.009538843109147481
-0.005486206408544726,0.009933805802200669
-0.005485866408544727,0.009110966858338239
-0.005485526408544727,0.008518522818756211
-0.005485186408544726,0.008057733010191574
-0.005484846408544727,0.007596943201628613
-0.005484506408544727,0.0068399313732738
-0.005484166408544726,0.006872844931028835
-0.005483826408544726,0.007136153393064813
-0.005483486408544727,0.007201980508573926
-0.005483146408544726,0.007333634739590658
-0.005482806408544726,0.006510795795728228
-0.005482466408544727,0.005753783967373414
-0.005482126408544726,0.005424648389826046
-0.005481786408544726,0.004437241657191129
-0.005481446408544727,0.003581489155572645
-0.005481106408544726,0.003219440020271439
-0.005480766408544726,0.002626995980690491
-0.005480426408544727,0.002659909538445047
-0.005480086408544726,0.002692823096200023
-0.005479746408544726,0.002923218000481502
-0.005479406408544727,0.003416921366799861
-0.005479066408544727,0.003680229828835837
-0.005478726408544726,0.0005863553999079472
-0.005478386408544727,-0.008859835675649942
-0.005478046408544727,-0.02666607042083294
-0.005477706408544726,-0.05283234883573824
-0.005477366408544727,-0.08492306764643143
-0.005477026408544727,-0.1201405744437435
-0.005476686408544726,-0.1544694151818106
-0.005476346408544727,-0.1853752459133397
-0.005476006408544727,-0.2105870311532846
-0.005475666408544726,-0.2285907472450732
-0.005475326408544727,-0.2407358500565048
-0.005474986408544727,-0.2474831293961767
-0.005474646408544726,-0.2490958937261623
-0.005474306408544727,-0.2470552531453797
-0.005473966408544727,-0.2430727126570855
-0.005473626408544726,-0.2372140993767672
-0.005473286408544727,-0.22994020311301
-0.005472946408544727,-0.2230941831000746
-0.005472606408544726,-0.2157215461630414
-0.005472266408544727,-0.2091059210543754
-0.005471926408544727,-0.2029181721965299
-0.005471586408544726,-0.1971582995894711
-0.005471246408544727,-0.19129968630916
-0.005470906408544727,-0.1855069001443685
-0.005470566408544726,-0.1786937936891646
-0.005470226408544727,-0.171979427907235
-0.005469886408544727,-0.1650346672210234
-0.005469546408544726,-0.1581886472080755
-0.005469206408544727,-0.1509147509443184
-0.005468866408544727,-0.144035817373616
-0.005468526408544726,-0.138012636304532
-0.005468186408544727,-0.1323844179285028
-0.005467846408544727,-0.1277765198428648
-0.005467506408544726,-0.122707831948663
-0.005467166408544727,-0.1175404033811975
-0.005466826408544727,-0.1123400612559775
-0.005466486408544726,-0.1063827073023945
-0.005466146408544727,-0.1019064634477829
-0.005465806408544727,-0.09798975007499058
-0.005465466408544726,-0.09430343160647403
-0.005465126408544727,-0.09091333515776082
-0.005464786408544727,-0.08762197938230509
-0.005464446408544726,-0.08489015408867208
-0.005464106408544727,-0.08225706946831229
-0.005463766408544727,-0.07893280013510201
-0.005463426408544726,-0.0759047528216778
-0.005463086408544727,-0.07317292752805452
-0.005462746408544727,-0.07034236156116261
-0.005462406408544726,-0.06777510405630315
-0.005462066408544726,-0.06556989568675184
-0.005461726408544727,-0.06343051443270561
-0.005461386408544726,-0.06066577558131695
-0.005461046408544726,-0.05744024692137623
-0.005460706408544727,-0.05385266912612951
-0.005460366408544726,-0.05092336248596997
-0.005460026408544726,-0.04875106767417315
-0.005459686408544727,-0.04641420507359961
-0.005459346408544726,-0.04394568824200477
-0.005459006408544726,-0.04226709679652541
-0.005458666408544727,-0.04048976467777932
-0.005458326408544726,-0.03825164275046705
-0.005457986408544726,-0.03693510044028715
-0.005457646408544727,-0.0352894225525593
-0.005457306408544727,-0.03449949716645136
-0.005456966408544726,-0.03364374466483144
-0.005456626408544727,-0.03262342437444017
-0.005456286408544727,-0.03117522783324229
-0.005455946408544726,-0.02943080927224814
-0.005455606408544727,-0.02748890936472927
-0.005455266408544727,-0.02561283657272292
-0.005454926408544726,-0.0243950349358009
-0.005454586408544727,-0.0232430604143914
-0.005454246408544727,-0.02225565368175648
-0.005453906408544726,-0.02084037069830873
-0.005453566408544727,-0.02034666733199037
-0.005453226408544727,-0.0199846181966909
-0.005452886408544726,-0.0197871368501629
-0.005452546408544727,-0.01985296396567202
-0.005452206408544727,-0.01919469281058207
-0.005451866408544726,-0.01827311319345327
-0.005451526408544727,-0.01761484203836213
-0.005451186408544727,-0.01583750991961928
-0.005450846408544726,-0.01448805405167921
-0.005450506408544727,-0.01317151174149692
-0.005450166408544727,-0.01155874741152656
-0.005449826408544726,-0.01063716779439602
-0.005449486408544727,-0.009419366157477412
-0.005449146408544727,-0.008464872982596993
-0.005448806408544726,-0.007938256058522341
-0.005448466408544727,-0.006983762883640186
-0.005448126408544727,-0.006621713748340058
-0.005447786408544726,-0.006522973075076387
-0.005447446408544727,-0.007247071345676644
-0.005447106408544727,-0.00714833067241297
-0.005446766408544726,-0.007477466249958542
-0.005446426408544727,-0.006983762883640186
-0.005446086408544727,-0.006819195094867402
-0.005445746408544726,-0.006095096824265529
-0.005445406408544727,-0.005206430764894101
-0.005445066408544727,-0.004153196916748276
-0.005444726408544726,-0.003067049510846095
-0.005444386408544727,-0.002079642778211176
-0.005444046408544727,-0.001388458065365479
-0.005443706408544726,-0.0006314462370106055
-0.005443366408544727,-0.0005985326792561085
-0.005443026408544727,-0.0008289275835380062
-0.005442686408544726,-0.001223890276592692
-0.005442346408544727,-0.001223890276592692
-0.005442006408544727,-0.0009276682568016767
-0.005441666408544726,-0.0006314462370104857
-0.005441326408544726,-0.0005327055637469914
-0.005440986408544727,-0.0003352242172196505
-0.005440646408544726,0.000553441842154528
-0.005440306408544726,0.001178799439489977
-0.005439966408544727,0.001507935017035548
-0.005439626408544726,0.001310453670507845
-0.005439286408544726,0.001112972323980863
-0.005438946408544727,0.0006850960731716212
-0.005438606408544726,0.000652182515416286
-0.005438266408544726,0.0002243062646078188
-0.005437926408544727,9.265203358959154e-05
-0.005437586408544726,2.68249180810766e-05
-0.005437246408544726,0.0003559604956260495
-0.005436906408544727,0.0006192689576625041
-0.005436566408544727,0.0002901333801175346
-0.005436226408544726,9.265203358959154e-05
-0.005435886408544727,0.0003888740533806063
-0.005435546408544727,0.0003888740533806063
-0.005435206408544726,0.0003230469378714927
-0.005434866408544727,0.0007509231886807348
-0.005434526408544727,0.0009484045352077165
-0.005434186408544726,0.0008496638619444052
-0.005433846408544727,0.00104714520847175
-0.005433506408544727,0.001145885881735241
-0.005433166408544726,0.001606675690299219
-0.005432826408544727,0.002100379056617575
-0.005432486408544727,0.002264946845390063
-0.005432146408544726,0.003416921366799861
-0.005431806408544727,0.004108106079645558
-0.005431466408544727,0.004898031465753493
-0.005431126408544726,0.0052271670433005
-0.005430786408544727,0.0052271670433005
-0.005430446408544727,0.004700550119228545
-0.005430106408544726,0.004733463676982144
-0.005429766408544727,0.004733463676982144
-0.005429426408544727,0.004996772139018122
-0.005429086408544726,0.005029685696773157
-0.005428746408544727,0.005457561947582401
-0.005428406408544727,0.005655043294109385
-0.005428066408544726,0.00601709242940987
-0.005427726408544727,0.006510795795728228
-0.005427386408544727,0.007366548297346712
-0.005427046408544726,0.007893165221419626
-0.005426706408544727,0.008288127914474312
-0.005426366408544727,0.008353955029983425
-0.005426026408544726,0.008321041472228868
-0.005425686408544727,0.008419782145492541
-0.005425346408544727,0.008386868587737984
-0.005425006408544726,0.00772859743264684
-0.005424666408544727,0.007234894066328485
-0.005424326408544727,0.006642450026746457
-0.005423986408544726,0.005523389063090378
-0.005423646408544727,0.00489803146575493
-0.005423306408544727,0.004963858581264044
-0.005422966408544726,0.003844797617611318
-0.005422626408544727,0.005062599254527716
-0.005422286408544727,0.004568895888209358
-0.005421946408544726,0.00466763656147315
-0.005421606408544727,0.004733463676982144
-0.005421266408544727,0.004667636561473031
-0.005420926408544726,0.004503068772699766
-0.005420586408544727,0.004239760310663789
-0.005420246408544727,0.004272673868418345
-0.005419906408544726,0.004667636561474587
-0.005419566408544726,0.005523389063091515
-0.005419226408544727,0.005951265313900757
-0.005418886408544726,0.007169066950820747
-0.005418546408544726,0.007926078779174183
-0.005418206408544727,0.008584349934265326
-0.005417866408544726,0.008156473683455723
-0.005417526408544726,0.00795899233692874
-0.005417186408544727,0.007893165221419626
-0.005416846408544726,0.007596943201629032
-0.005416506408544726,0.007827338105910513
-0.005416166408544727,0.008222300798965198
-0.005415826408544726,0.008551436376511427
-0.005415486408544726,0.008913485511810896
-0.005415146408544727,0.009374275320374697
