Analysis/New Tests_CMB/wrd01_d2s01/cmb12_ch02.csv

#Digilent WaveForms Oscilloscope Acquisition
#Device Name: ADP3450
#Serial Number: SN:210018B9D9B0
#Date Time: 2024-08-07 10:55:07.038.186.740
#Sample rate: 2.94118e+06Hz
#Samples: 32768
#Trigger: Source: Channel 3 Type: Edge Condition: Rising Level: 0 V Hyst.: Auto HoldOff: 0 s
#Channel 3: Range: 200 mV/div Offset: 0 V Attenuation: 1 X Coupling: DC Bandwidth: 0 Hz Sample Mode: Average

Time (s),Channel 3 (V)
-0.005570455384615385,0.01355040009771377
-0.005570115384615384,0.013682054328732
-0.005569775384615385,0.013682054328732
-0.005569435384615385,0.0132212645201682
-0.005569095384615384,0.01276047471160345
-0.005568755384615385,0.01223385778753149
-0.005568415384615385,0.01259590692283162
-0.005568075384615384,0.01318835096241406
-0.005567735384615385,0.01341874586669555
-0.005567395384615385,0.01394536279076846
-0.005567055384615384,0.01450489327259731
-0.005566715384615385,0.01526190510095074
-0.005566375384615385,0.0150644237544234
-0.005566035384615384,0.01473528817687633
-0.005565695384615385,0.0139124492330139
-0.005565355384615385,0.01295795605813175
-0.005565015384615384,0.01213511711426662
-0.005564675384615385,0.01147684595917668
-0.005564335384615385,0.01055526634204908
-0.005563995384615384,0.01058817989980567
-0.005563655384615384,0.01170724086345858
-0.005563315384615385,0.01289212894262263
-0.005562975384615385,0.0132541780779221
-0.005562635384615384,0.01361622721322289
-0.005562295384615385,0.0129908696158863
-0.005561955384615385,0.01249716624956885
-0.005561615384615384,0.01197054932549503
-0.005561275384615385,0.01134519172815845
-0.005560935384615385,0.0119047222099849
-0.005560595384615384,0.01295795605813175
-0.005560255384615385,0.01417575769505036
-0.005559915384615385,0.01562395423624824
-0.005559575384615384,0.01674301519990581
-0.005559235384615385,0.01680884231541493
-0.005558895384615385,0.01700632366194191
-0.005558555384615384,0.0164467931801148
-0.005558215384615385,0.01585434914053277
-0.005557875384615385,0.01532773221646081
-0.005557535384615384,0.01457072038810504
-0.005557195384615385,0.01374788144424112
-0.005556855384615385,0.01341874586669614
-0.005556515384615384,0.01328709163567732
-0.005556175384615385,0.01295795605813175
-0.005555835384615385,0.01246425269181429
-0.005555495384615384,0.01259590692283162
-0.005555155384615385,0.01355040009771377
-0.005554815384615385,0.01420867125280372
-0.005554475384615384,0.01572269490951454
-0.005554135384615385,0.02039642011066165
-0.005553795384615385,0.03096167214987448
-0.005553455384615384,0.04870207977958076
-0.005553115384615385,0.0743088277126262
-0.005552775384615385,0.105313399117419
-0.005552435384615384,0.1389839687003309
-0.005552095384615385,0.1719962671281517
-0.005551755384615385,0.2025071351666261
-0.005551415384615384,0.2277189204066516
-0.005551075384615385,0.24680878390426
-0.005550735384615385,0.2603691696991375
-0.005550395384615384,0.2686962998110468
-0.005550055384615385,0.272152223375269
-0.005549715384615385,0.2720863962597598
-0.005549375384615384,0.2693874845238779
-0.005549035384615385,0.2648454135537573
-0.005548695384615385,0.2585589240226369
-0.005548355384615384,0.2511533735278483
-0.005548015384615385,0.2438794772641044
-0.005547675384615385,0.2364410132115745
-0.005547335384615384,0.2285417593504669
-0.005546995384615385,0.2209058139514235
-0.005546655384615385,0.2136319176876664
-0.005546315384615384,0.2063580214238963
-0.005545975384615385,0.1991828658334159
-0.005545635384615385,0.1923697593782225
-0.005545295384615384,0.1861161834048452
-0.005544955384615385,0.1797967803159817
-0.005544615384615385,0.1732469823228248
-0.005544275384615384,0.1671250605804664
-0.005543935384615385,0.1611677066269024
-0.005543595384615385,0.1554407475776095
-0.005543255384615384,0.1512278121850169
-0.005542915384615385,0.1461591242908243
-0.005542575384615385,0.1415183126474318
-0.005542235384615385,0.1374699450436286
-0.005541895384615384,0.1325987384959468
-0.005541555384615385,0.1280566675258179
-0.005541215384615385,0.1237449914599788
-0.005540875384615384,0.1196966238561605
-0.005540535384615385,0.1153849477903135
-0.005540195384615385,0.1106783090314204
-0.005539855384615384,0.1066957685431104
-0.005539515384615385,0.1026803144970544
-0.005539175384615385,0.09925730449058671
-0.005538835384615384,0.09606468938838844
-0.005538495384615385,0.09336577765251475
-0.005538155384615385,0.09086434726317297
-0.005537815384615384,0.0884287439893312
-0.005537475384615385,0.08592731359998484
-0.005537135384615385,0.08352462388390657
-0.005536795384615384,0.08099027993680127
-0.005536455384615385,0.07934460204907343
-0.005536115384615385,0.07651403608218667
-0.005535775384615384,0.07381512434630783
-0.005535435384615385,0.07144534818797973
-0.005535095384615385,0.06845021443232048
-0.005534755384615384,0.06604752471623235
-0.005534415384615385,0.0636448350001497
-0.005534075384615385,0.06173584865038885
-0.005533735384615384,0.06041930634020309
-0.005533395384615385,0.05913567758777537
-0.005533055384615385,0.05860906066370245
-0.005532715384615384,0.0581153572973841
-0.005532375384615385,0.05689755566046548
-0.005532035384615385,0.0555810133502832
-0.005531695384615384,0.05380368123153711
-0.005531355384615385,0.05146681863096356
-0.005531015384615385,0.04880082045284444
-0.005530675384615384,0.04577277313942518
-0.005530335384615385,0.04383087323190631
-0.005529995384615385,0.04258015803723314
-0.005529655384615384,0.04179023265112389
-0.005529315384615385,0.04185605976663288
-0.005528975384615385,0.04244850380621491
-0.005528635384615384,0.04218519534417935
-0.005528295384615385,0.04267889871049681
-0.005527955384615385,0.04162566486235099
-0.005527615384615384,0.04103322082276746
-0.005527275384615385,0.04021038187890503
-0.005526935384615385,0.03981541918585035
-0.005526595384615384,0.03925588870402204
-0.005526255384615385,0.03879509889545908
-0.005525915384615385,0.03767603793180414
-0.005525575384615384,0.03612910071733755
-0.005525235384615385,0.03481255840715766
-0.005524895384615385,0.0335618432124845
-0.005524555384615384,0.03234404157556468
-0.005524215384615385,0.03168577042047474
-0.005523875384615385,0.0305667094568198
-0.005523535384615384,0.03023757387927357
-0.005523195384615385,0.0298755247439741
-0.005522855384615385,0.02938182137765574
-0.005522515384615384,0.02849315531828145
-0.005522175384615385,0.027801970605437
-0.005521835384615385,0.02701204521932763
-0.005521495384615384,0.02638668762199057
-0.005521155384615384,0.02612337915995459
-0.005520815384615385,0.02612337915995459
-0.005520475384615385,0.02641960117974506
-0.005520135384615384,0.02638668762199104
-0.005519795384615385,0.02632086050648193
-0.005519455384615385,0.02618920627546394
-0.005519115384615384,0.02566258935139079
-0.005518775384615385,0.02493849108079053
-0.005518435384615385,0.02401691146366461
-0.005518095384615384,0.02388525723264471
-0.005517755384615385,0.02352320809734458
-0.005517415384615385,0.02283202338450013
-0.005517075384615384,0.02260162848021698
-0.005516735384615385,0.02220666578716229
-0.005516395384615385,0.02138382684329986
-0.005516055384615384,0.02006728453311608
-0.005515715384615385,0.01894822356946114
-0.005515375384615385,0.01805955751008971
-0.005515035384615384,0.01750002702826063
-0.005514695384615385,0.01726963212397873
-0.005514355384615385,0.01710506433520624
-0.005514015384615384,0.01789498972131531
-0.005513675384615385,0.01838869308763367
-0.005513335384615385,0.01937609982026858
-0.005512995384615384,0.02016602520637975
-0.005512655384615385,0.0203635065529071
-0.005512315384615385,0.02042933366841621
-0.005511975384615384,0.02042933366841621
-0.005511635384615385,0.02082429636147089
-0.005511295384615385,0.02115343193901647
-0.005510955384615384,0.02197627088288039
-0.005510615384615385,0.02227249290267141
-0.005510275384615385,0.02233832001818052
-0.005509935384615384,0.02240414713368964
-0.005509595384615385,0.02210792511389862
-0.005509255384615385,0.0217458759785985
-0.005508915384615384,0.02062681501494188
-0.005508575384615385,0.01970523539781595
-0.005508235384615385,0.01884948289619747
-0.005507895384615384,0.01842160664538583
-0.005507555384615385,0.01710506433520594
-0.005507215384615385,0.01592017625604189
-0.005506875384615384,0.01499859663891177
-0.005506535384615385,0.01361622721322289
-0.005506195384615385,0.01220094422977693
-0.005505855384615384,0.01085148836183889
-0.005505515384615385,0.01019321720674895
-0.005505175384615385,0.009962822302467049
-0.005504835384615384,0.01075274768857833
-0.005504495384615385,0.01180598153672225
-0.005504155384615385,0.01374788144424112
-0.005503815384615384,0.01608474404481785
-0.005503475384615385,0.0178291626058062
-0.005503135384615385,0.01970523539781595
-0.005502795384615384,0.02006728453311578
-0.005502455384615385,0.0199027167443433
-0.005502115384615385,0.01865200154967013
-0.005501775384615384,0.01809247106784116
-0.005501435384615385,0.01726963212397873
-0.005501095384615385,0.0164467931801148
-0.005500755384615384,0.01601891692930472
-0.005500415384615384,0.01555812712074176
-0.005500075384615385,0.01516316442768707
-0.005499735384615385,0.01499859663891459
-0.005499395384615384,0.0146036339458596
-0.005499055384615385,0.01440615259933226
-0.005498715384615385,0.01453780683035025
-0.005498375384615384,0.01457072038810504
-0.005498035384615385,0.01417575769505036
-0.005497695384615385,0.01397827634852337
-0.005497355384615384,0.01371496788648656
-0.005497015384615385,0.01328709163567732
-0.005496675384615385,0.01276047471160536
-0.005496335384615384,0.01266173403834073
-0.005495995384615385,0.01282630182711352
-0.005495655384615385,0.012990869615886
-0.005495315384615384,0.01348457298220466
-0.005494975384615385,0.013682054328732
-0.005494635384615385,0.01427449836831295
-0.005494295384615384,0.0148340288501415
-0.005493955384615385,0.01496568308115973
-0.005493615384615385,0.01542647288972269
-0.005493275384615384,0.01592017625604189
-0.005492935384615385,0.01582143558277821
-0.005492595384615385,0.01582143558277821
-0.005492255384615384,0.01611765760256923
-0.005491915384615385,0.01585434914053277
-0.005491575384615385,0.01565686779400579
-0.005491235384615384,0.01526190510095074
-0.005490895384615385,0.0152948186587053
-0.005490555384615385,0.01539355933196897
-0.005490215384615384,0.01549230000523264
-0.005489875384615385,0.01496568308115973
-0.005489535384615385,0.01463654750361416
-0.005489195384615384,0.01420867125280492
-0.005488855384615385,0.01407701702178669
-0.005488515384615385,0.01394536279076846
-0.005488175384615384,0.01420867125280599
-0.005487835384615385,0.01480111529238694
-0.005487495384615385,0.01536064577421441
-0.005487155384615384,0.0152289915431975
-0.005486815384615385,0.01595308981379644
-0.005486475384615385,0.01634805250685113
-0.005486135384615384,0.01651262029562403
-0.005485795384615385,0.01657844741113303
-0.005485455384615385,0.01687466943092404
-0.005485115384615384,0.01717089145071362
-0.005484775384615385,0.01638096606460569
-0.005484435384615385,0.01664427452664214
-0.005484095384615384,0.01615057116032342
-0.005483755384615385,0.01595308981379644
-0.005483415384615385,0.01578852202502366
-0.005483075384615384,0.01542647288972347
-0.005482735384615385,0.01539355933196897
-0.005482395384615385,0.01578852202502366
-0.005482055384615384,0.01621639827583332
-0.005481715384615385,0.0164467931801148
-0.005481375384615385,0.01694049654643316
-0.005481035384615384,0.01694049654643196
-0.005480695384615385,0.01628222539134202
-0.005480355384615385,0.01519607798544163
-0.005480015384615384,0.01384662211750395
-0.005479675384615385,0.01338583230894099
-0.005479335384615385,0.01272756115384985
-0.005478995384615385,0.01256299336507736
-0.005478655384615384,0.01259590692283162
-0.005478315384615385,0.01302378317364086
-0.005477975384615385,0.01341874586669483
-0.005477635384615384,0.01394536279076846
-0.005477295384615385,0.01450489327259593
-0.005476955384615385,0.01476820173463191
-0.005476615384615384,0.0148340288501415
-0.005476275384615385,0.01434032548382314
-0.005475935384615385,0.0137149678864877
-0.005475595384615384,0.01381370855975023
-0.005475255384615385,0.01364914077097745
-0.005474915384615385,0.01378079500199543
-0.005474575384615384,0.01394536279076846
-0.005474235384615385,0.01420867125280492
-0.005473895384615385,0.0144061525993319
-0.005473555384615384,0.01496568308115973
-0.005473215384615385,0.01545938644747809
-0.005472875384615385,0.01539355933196909
-0.005472535384615384,0.01470237461912327
-0.005472195384615385,0.01355040009771377
-0.005471855384615385,0.0132870916356778
-0.005471515384615384,0.01279338826935896
-0.005471175384615385,0.01289212894262263
-0.005470835384615385,0.01378079500199406
-0.005470495384615384,0.01450489327259593
-0.005470155384615385,0.01545938644747809
-0.005469815384615385,0.01618348471807834
-0.005469475384615384,0.01595308981379644
-0.005469135384615385,0.01568978135175999
-0.005468795384615385,0.01516316442768707
-0.005468455384615384,0.01447197971484137
-0.005468115384615385,0.01453780683035049
-0.005467775384615385,0.01522899154319619
-0.005467435384615384,0.015986003371551
-0.005467095384615385,0.01684175587316948
-0.005466755384615385,0.01720380500846961
-0.005466415384615384,0.01736837279724108
-0.005466075384615385,0.01664427452664214
-0.005465735384615385,0.0162163982758329
-0.005465395384615384,0.01522899154319523
-0.005465055384615385,0.01470237461912327
-0.005464715384615385,0.01417575769505036
-0.005464375384615384,0.01318835096241191
-0.005464035384615385,0.01223385778753149
-0.005463695384615385,0.01223385778753149
-0.005463355384615384,0.01262882048058755
-0.005463015384615385,0.01338583230894099
-0.005462675384615385,0.01434032548382314
-0.005462335384615384,0.01526190510095104
-0.005461995384615385,0.01542647288972353
-0.005461655384615385,0.01509733731217796
-0.005461315384615384,0.01466946106136812
-0.005460975384615385,0.01434032548382314
-0.005460635384615385,0.01410993057954124
-0.005460295384615384,0.01351748653995922
-0.005459955384615385,0.01351748653995922
-0.005459615384615385,0.01325417807792276
-0.005459275384615384,0.01276047471160279
-0.005458935384615385,0.01187180865223136
-0.005458595384615385,0.01121353749714022
-0.005458255384615384,0.01141101884366786
-0.005457915384615384,0.01157558663244035
-0.005457575384615385,0.01243133913405883
-0.005457235384615385,0.01315543740465777
-0.005456895384615384,0.01381370855975023
-0.005456555384615385,0.01427449836831403
-0.005456215384615385,0.01480111529238599
-0.005455875384615384,0.01539355933196897
-0.005455535384615385,0.01536064577421441
-0.005455195384615385,0.01536064577421441
-0.005454855384615384,0.0155252135629872
-0.005454515384615385,0.01582143558277821
-0.005454175384615385,0.01641387962235916
-0.005453835384615384,0.01664427452664214
-0.005453495384615385,0.015986003371551
-0.005453155384615385,0.0147682017346346
-0.005452815384615384,0.01427449836831403
-0.005452475384615385,0.01434032548382314
-0.005452135384615385,0.01424158481055965
-0.005451795384615384,0.01424158481055947
-0.005451455384615385,0.0141428441372958
-0.005451115384615385,0.01427449836831379
-0.005450775384615384,0.01427449836831403
-0.005450435384615385,0.01401118990627757
-0.005450095384615385,0.01443906615708604
-0.005449755384615384,0.01486694240789606
-0.005449415384615385,0.01526190510095074
-0.005449075384615385,0.01559104067849572
-0.005448735384615384,0.01522899154319619
-0.005448395384615385,0.0146036339458596
-0.005448055384615385,0.01378079500199567
-0.005447715384615384,0.01308961028914997
-0.005447375384615385,0.01282630182711352
-0.005447035384615385,0.01187180865223136
-0.005446695384615384,0.01157558663244035
-0.005446355384615385,0.011378105285913
-0.005446015384615385,0.01108188326612199
-0.005445675384615384,0.01197054932549587
-0.005445335384615385,0.01243133913405883
-0.005444995384615385,0.01210220355651326
-0.005444655384615384,0.01279338826935866
-0.005444315384615385,0.01262882048058617
-0.005443975384615385,0.0125300798073225
-0.005443635384615384,0.01289212894262347
-0.005443295384615385,0.01335291875118643
-0.005442955384615385,0.01427449836831403
-0.005442615384615384,0.01552521356298972
-0.005442275384615385,0.0169075829886786
-0.005441935384615385,0.01779624904805164
-0.005441595384615384,0.01848743376089578
-0.005441255384615385,0.01763168125927886
-0.005440915384615385,0.0169075829886786
-0.005440575384615384,0.0157556084672676
-0.005440235384615385,0.01493276952340517
-0.005439895384615385,0.01341874586669555
-0.005439555384615384,0.01259590692283096
-0.005439215384615385,0.01223385778753149
-0.005438875384615385,0.01226677134528605
-0.005438535384615384,0.01239842557630469
-0.005438195384615385,0.01262882048058617
-0.005437855384615385,0.01259590692283162
-0.005437515384615384,0.01236551201854984
-0.005437175384615385,0.01243133913405883
-0.005436835384615385,0.01262882048058617
-0.005436495384615385,0.01308961028914914
-0.005436155384615384,0.0134516594244501
-0.005435815384615385,0.013682054328732
-0.005435475384615385,0.01378079500199549
-0.005435135384615384,0.0134516594244501
-0.005434795384615385,0.01351748653995922
-0.005434455384615385,0.01364914077097721
-0.005434115384615384,0.01381370855975023
-0.005433775384615385,0.01440615259933226
-0.005433435384615385,0.01466946106136824
-0.005433095384615384,0.0143732390415777
-0.005432755384615385,0.01325417807792276
-0.005432415384615385,0.01210220355651536
-0.005432075384615384,0.007889268163929951
-0.005431735384615385,-0.0004378619479729968
-0.005431395384615385,-0.01686172726746712
-0.005431055384615384,-0.04131650067913292
-0.005430715384615385,-0.0721894178529075
-0.005430375384615385,-0.1065182585908481
-0.005430035384615384,-0.1410116671176864
-0.005429695384615385,-0.1725428554465521
-0.005429355384615385,-0.1983141711683234
-0.005429015384615384,-0.2181939600521228
-0.005428675384615385,-0.2314910373849639
-0.005428335384615385,-0.2382712302823903
-0.005427995384615384,-0.2403118708631852
-0.005427655384615385,-0.2388636743219847
-0.005427315384615385,-0.2345190846983831
-0.005426975384615384,-0.2283971629560355
-0.005426635384615385,-0.2206624768837146
-0.005426295384615385,-0.2132898399466938
-0.005425955384615384,-0.2058842894519185
-0.005425615384615385,-0.1981825169373521
-0.005425275384615385,-0.1907440528848222
-0.005424935384615384,-0.1836018108520833
-0.005424595384615385,-0.1773153213209629
-0.005424255384615385,-0.1707326097700515
-0.005423915384615384,-0.1648081693742202
-0.005423575384615385,-0.1587849883051473
-0.005423235384615385,-0.1526301530050451
-0.005422895384615384,-0.1468044532824774
-0.005422555384615385,-0.1407483586556499
-0.005422215384615385,-0.1344618691245295
-0.005421875384615384,-0.1292615269993
-0.005421535384615385,-0.1240282713163349
-0.005421195384615385,-0.1188279291911149
-0.005420855384615384,-0.1137921548546586
-0.005420515384615385,-0.108789294075975
-0.005420175384615385,-0.1043788773368644
-0.005419835384615384,-0.09990263348223601
-0.005419495384615385,-0.09519599472334292
-0.005419155384615385,-0.09137802202381429
-0.005418815384615384,-0.0872638273044883
-0.005418475384615385,-0.08377499018251158
-0.005418135384615385,-0.07989119036747386
-0.005417795384615384,-0.07669857526527583
-0.005417455384615385,-0.07340721948982609
-0.005417115384615385,-0.07031334506089773
-0.005416775384615384,-0.06738403842073568
-0.005416435384615385,-0.06382937418324999
-0.005416095384615385,-0.06096589465860352
-0.005415755384615384,-0.05829989648047978
-0.005415415384615384,-0.05576555253338349
-0.005415075384615385,-0.05362617127933728
-0.005414735384615385,-0.05224380185364839
-0.005414395384615384,-0.05072977819693626
-0.005414055384615385,-0.0495448901177722
-0.005413715384615385,-0.04806378001881982
-0.005413375384615384,-0.04658266991986206
-0.005413035384615385,-0.04470659712785231
-0.005412695384615385,-0.04256721587380999
-0.005412355384615384,-0.04009869904221431
-0.005412015384615385,-0.03667568903574037
-0.005411675384615385,-0.03345016037579965
