Analysis/New Tests_CMB/wrd01_d2s01/cmb10_ch29.csv

#Digilent WaveForms Oscilloscope Acquisition
#Device Name: ADP3450
#Serial Number: SN:210018B9D9B0
#Date Time: 2024-08-07 11:53:36.014.431.940
#Sample rate: 2.94118e+06Hz
#Samples: 32768
#Trigger: Source: Channel 3 Type: Edge Condition: Rising Level: 0 V Hyst.: Auto HoldOff: 0 s
#Channel 3: Range: 200 mV/div Offset: 0 V Attenuation: 1 X Coupling: DC Bandwidth: 0 Hz Sample Mode: Average

Time (s),Channel 3 (V)
-0.005570333333333333,0.01305669673139542
-0.005569993333333333,0.01315543740465975
-0.005569653333333333,0.01351748653995922
-0.005569313333333333,0.0134516594244501
-0.005568973333333333,0.01371496788648806
-0.005568633333333333,0.01453780683035049
-0.005568293333333333,0.01397827634852302
-0.005567953333333333,0.01387953567525809
-0.005567613333333333,0.01318835096241365
-0.005567273333333333,0.0127604747116044
-0.005566933333333333,0.01236551201854882
-0.005566593333333333,0.01187180865223136
-0.005566253333333333,0.01157558663244035
-0.005565913333333333,0.01203637644100504
-0.005565573333333333,0.0125300798073225
-0.005565233333333333,0.01332000519343187
-0.005564893333333333,0.0136820543287323
-0.005564553333333333,0.01384662211750479
-0.005564213333333333,0.01407701702178669
-0.005563873333333333,0.01496568308116075
-0.005563533333333333,0.0155252135629872
-0.005563193333333333,0.01595308981379644
-0.005562853333333334,0.01549230000523348
-0.005562513333333333,0.01539355933196897
-0.005562173333333333,0.01410993057954124
-0.005561833333333334,0.01259590692283437
-0.005561493333333333,0.01114771038163111
-0.005561153333333333,0.01025904432225806
-0.005560813333333334,0.009732427398186107
-0.005560473333333333,0.01002864941797616
-0.005560133333333333,0.01032487143776718
-0.005559793333333334,0.01098314259285712
-0.005559453333333333,0.01131227817040389
-0.005559113333333333,0.01213511711426782
-0.005558773333333334,0.01213511711426782
-0.005558433333333333,0.01174015442121313
-0.005558093333333333,0.01127936461264933
-0.005557753333333334,0.01088440191959537
-0.005557413333333333,0.01075274768857642
-0.005557073333333333,0.01101605615061288
-0.005556733333333333,0.01114771038163087
-0.005556393333333333,0.01177306797896769
-0.005556053333333333,0.01213511711426782
-0.005555713333333333,0.01276047471160326
-0.005555373333333333,0.01289212894262263
-0.005555033333333333,0.01325417807792276
-0.005554693333333333,0.01443906615708466
-0.005554353333333333,0.0185203473186519
-0.005554013333333333,0.02948056205091941
-0.005553673333333333,0.04794506795122595
-0.005553333333333333,0.07424300059711708
-0.005552993333333333,0.1058071024837373
-0.005552653333333333,0.1414853990896772
-0.005552313333333333,0.1772624363688808
-0.005551973333333333,0.2093202416218194
-0.005551633333333333,0.2348611624393558
-0.005551293333333333,0.2534244090129485
-0.005550953333333333,0.265832820286394
-0.005550613333333333,0.2721193098175144
-0.005550273333333333,0.2743574317448214
-0.005549933333333333,0.2727775809726056
-0.005549593333333333,0.2691900031773588
-0.005549253333333333,0.2638580068211089
-0.005548913333333333,0.2574398630589819
-0.005548573333333333,0.2498368312176792
-0.005548233333333333,0.242365453607381
-0.005547893333333333,0.2347624217660921
-0.005547553333333333,0.2270935628092803
-0.005547213333333333,0.2196880123144915
-0.005546873333333333,0.2122824618197296
-0.005546533333333333,0.2042515537276176
-0.005546193333333333,0.1958915100579452
-0.005545853333333333,0.1876631206193209
-0.005545513333333333,0.1795334718539452
-0.005545173333333333,0.1728849331875132
-0.005544833333333333,0.1665326165408952
-0.005544493333333333,0.1607727439338477
-0.005544153333333333,0.1564610678679937
-0.005543813333333333,0.152577268052963
-0.005543473333333333,0.1483643326603797
-0.005543133333333333,0.1456325073667465
-0.005542793333333333,0.1429006820731232
-0.005542453333333333,0.1402675974527586
-0.005542113333333334,0.1365154518687459
-0.005541773333333333,0.1324999978226832
-0.005541433333333333,0.1277604455060269
-0.005541093333333334,0.1220334864567444
-0.005540753333333333,0.1161748731764228
-0.005540413333333333,0.1099542107608115
-0.005540073333333334,0.104358905942547
-0.005539733333333333,0.09863194689324389
-0.005539393333333333,0.0940240488076059
-0.005539053333333334,0.09040355745461122
-0.005538713333333333,0.08793504062301283
-0.005538373333333333,0.08602605427324853
-0.005538033333333334,0.08467659840531415
-0.005537693333333333,0.08355753744165675
-0.005537353333333333,0.08224099513147445
-0.005537013333333334,0.08095736637904907
-0.005536673333333333,0.07927877493356431
-0.005536333333333333,0.07733687502604544
-0.005535993333333333,0.07440756838589518
-0.005535653333333333,0.07177448376552531
-0.005535313333333333,0.06874643645210604
-0.005534973333333333,0.06598169760072828
-0.005534633333333333,0.06331569942260412
-0.005534293333333333,0.0608800961487669
-0.005533953333333333,0.05801661662412564
-0.005533613333333333,0.05541644556151042
-0.005533273333333333,0.05340871853848243
-0.005532933333333333,0.05156555930422723
-0.005532593333333333,0.0500515356475176
-0.005532253333333333,0.04850459843305342
-0.005531913333333333,0.04781341372020773
-0.005531573333333333,0.04620064939023442
-0.005531233333333333,0.04521324265759771
-0.005530893333333333,0.04429166304047012
-0.005530553333333333,0.04363339188537897
-0.005530213333333333,0.04320551563456973
-0.005529873333333333,0.0430738614035515
-0.005529533333333333,0.04317260207681469
-0.005529193333333333,0.04290929361477872
-0.005528853333333333,0.0421522817864239
-0.005528513333333333,0.04109904793827657
-0.005528173333333333,0.04027620899441414
-0.005527833333333333,0.03922297514626832
-0.005527493333333333,0.03833430908689216
-0.005527153333333333,0.0366228040836583
-0.005526813333333333,0.03543791600449425
-0.005526473333333333,0.03412137369430927
-0.005526133333333333,0.0326402635953569
-0.005525793333333333,0.0312578941696655
-0.005525453333333333,0.03027048743702783
-0.005525113333333333,0.02974387051295587
-0.005524773333333333,0.02977678407071043
-0.005524433333333333,0.03050088234131086
-0.005524093333333333,0.03059962301457436
-0.005523753333333333,0.03020466032151967
-0.005523413333333333,0.02951347560867169
-0.005523073333333333,0.0282627604140008
-0.005522733333333333,0.02671582319953662
-0.005522393333333333,0.0253992808893526
-0.005522053333333333,0.02444478771447217
-0.005521713333333333,0.02289785050000799
-0.005521373333333333,0.02125217261227672
-0.005521033333333333,0.01937609982027038
-0.005520693333333333,0.01832286597212456
-0.005520353333333334,0.01815829818335207
-0.005520013333333333,0.0187507422229338
-0.005519673333333333,0.01970523539781595
-0.005519333333333334,0.02089012347697785
-0.005518993333333333,0.02210792511389862
-0.005518653333333333,0.02256871492246242
-0.005518313333333334,0.02227249290267195
-0.005517973333333333,0.02148256751656204
-0.005517633333333333,0.02019893876413431
-0.005517293333333334,0.01871782866518194
-0.005516953333333333,0.01720380500846961
-0.005516613333333333,0.01677592875766037
-0.005516273333333334,0.01605183048706143
-0.005515933333333333,0.01687466943092404
-0.005515593333333333,0.01789498972131531
-0.005515253333333334,0.01848743376089626
-0.005514913333333333,0.01878365578068835
-0.005514573333333333,0.0192115320314976
-0.005514233333333333,0.01898113712721611
-0.005513893333333333,0.01868491510742468
-0.005513553333333333,0.01796081683682443
-0.005513213333333333,0.01763168125927946
-0.005512873333333333,0.01723671856622417
-0.005512533333333333,0.01717089145071506
-0.005512193333333333,0.01697341010418771
-0.005511853333333333,0.01634805250685113
-0.005511513333333333,0.0157556084672691
-0.005511173333333333,0.01513025086993251
-0.005510833333333333,0.0146036339458596
-0.005510493333333333,0.01378079500199567
-0.005510153333333333,0.01325417807792276
-0.005509813333333333,0.01285921538486808
-0.005509473333333333,0.01157558663244035
-0.005509133333333333,0.01095022903510376
-0.005508793333333333,0.01012739009123995
-0.005508453333333333,0.01019321720674895
-0.005508113333333333,0.01048943922653996
-0.005507773333333333,0.01127936461265083
-0.005507433333333333,0.01210220355651326
-0.005507093333333333,0.01325417807792276
-0.005506753333333333,0.01387953567526144
-0.005506413333333333,0.01503151019666884
-0.005506073333333333,0.01592017625604189
-0.005505733333333333,0.01661136096888896
-0.005505393333333333,0.0173683727972424
-0.005505053333333333,0.01815829818335177
-0.005504713333333333,0.01819121174110441
-0.005504373333333333,0.0171379778929605
-0.005504033333333333,0.01638096606460569
-0.005503693333333333,0.01588726269828631
-0.005503353333333333,0.01532773221645986
-0.005503013333333333,0.01522899154319619
-0.005502673333333333,0.014603633945859
-0.005502333333333333,0.01427449836831403
-0.005501993333333333,0.0134516594244501
-0.005501653333333333,0.01299086961588594
-0.005501313333333333,0.01279338826935896
-0.005500973333333333,0.01266173403834073
-0.005500633333333333,0.01246425269181237
-0.005500293333333333,0.01190472220998592
-0.005499953333333333,0.01118062393938566
-0.005499613333333334,0.01035778499552323
-0.005499273333333333,0.00904124268533945
-0.005498933333333333,0.008350057972493751
-0.005498593333333334,0.007922181721685287
-0.005498253333333333,0.008448798645757422
-0.005497913333333333,0.009666600282676035
-0.005497573333333334,0.01098314259285593
-0.005497233333333333,0.0127604747116044
-0.005496893333333333,0.01397827634852302
-0.005496553333333334,0.01503151019666693
-0.005496213333333333,0.0155252135629872
-0.005495873333333333,0.01568978135175999
-0.005495533333333334,0.01578852202502348
-0.005495193333333333,0.01522899154319619
-0.005494853333333333,0.01397827634852302
-0.005494513333333334,0.01368205432873254
-0.005494173333333333,0.01259590692283162
-0.005493833333333333,0.01154267307468579
-0.005493493333333333,0.01104896970836833
-0.005493153333333333,0.01068692057306731
-0.005492813333333333,0.01062109345755819
-0.005492473333333333,0.01081857480408517
-0.005492133333333333,0.01164141374794946
-0.005491793333333333,0.01246425269181339
-0.005491453333333333,0.01341874586669381
-0.005491113333333333,0.01404410346403213
-0.005490773333333333,0.01499859663891429
-0.005490433333333333,0.01522899154319619
-0.005490093333333333,0.01526190510095074
-0.005489753333333333,0.01545938644747809
-0.005489413333333333,0.01463654750361416
-0.005489073333333333,0.0143732390415777
-0.005488733333333333,0.01407701702178669
-0.005488393333333333,0.01394536279076846
-0.005488053333333333,0.01401118990627781
-0.005487713333333333,0.0141428441372958
-0.005487373333333333,0.01289212894262263
-0.005487033333333333,0.01282630182711118
-0.005486693333333333,0.01154267307468579
-0.005486353333333333,0.01071983413082186
-0.005486013333333333,0.0102590443222586
-0.005485673333333333,0.01055526634204908
-0.005485333333333333,0.01134519172815845
-0.005484993333333333,0.01285921538486975
-0.005484653333333333,0.01378079500199567
-0.005484313333333333,0.01447197971484137
-0.005483973333333333,0.01522899154319714
-0.005483633333333333,0.0157556084672691
-0.005483293333333333,0.01568978135175999
-0.005482953333333333,0.01555812712074122
-0.005482613333333333,0.01526190510095074
-0.005482273333333333,0.01473528817687783
-0.005481933333333333,0.0138137085597476
-0.005481593333333333,0.01236551201854972
-0.005481253333333333,0.01091731547734921
-0.005480913333333333,0.0105223527842956
-0.005480573333333333,0.01111479682387655
-0.005480233333333333,0.01174015442121313
-0.005479893333333333,0.01269464759609637
-0.005479553333333333,0.01328709163567732
-0.005479213333333333,0.01371496788648656
-0.005478873333333334,0.0132212645201691
-0.005478533333333333,0.0129908696158863
-0.005478193333333333,0.01213511711426782
-0.005477853333333334,0.01144393240142338
-0.005477513333333333,0.01068692057306731
-0.005477173333333333,0.01006156297573072
-0.005476833333333334,0.009699513840431252
-0.005476493333333333,0.01012739009123984
-0.005476153333333333,0.01075274768857642
-0.005475813333333334,0.01104896970836689
-0.005475473333333333,0.01114771038163111
-0.005475133333333333,0.01121353749714022
-0.005474793333333334,0.01200346288324815
-0.005474453333333333,0.01266173403834073
-0.005474113333333333,0.01387953567525935
-0.005473773333333334,0.01503151019666675
-0.005473433333333333,0.01555812712074176
-0.005473093333333333,0.01578852202502366
-0.005472753333333333,0.01545938644747868
-0.005472413333333333,0.01496568308115973
-0.005472073333333333,0.0139124492330139
-0.005471733333333333,0.01279338826936099
-0.005471393333333333,0.01249716624956795
-0.005471053333333333,0.0120692899987587
-0.005470713333333333,0.01220094422977669
-0.005470373333333333,0.01226677134528605
-0.005470033333333333,0.01239842557630427
-0.005469693333333333,0.01272756115384985
-0.005469353333333333,0.01259590692283162
-0.005469013333333333,0.0120692899987587
-0.005468673333333333,0.01167432730570402
-0.005468333333333333,0.01098314259285832
-0.005467993333333333,0.01095022903510376
-0.005467653333333333,0.01141101884366756
-0.005467313333333333,0.01200346288324959
-0.005466973333333333,0.0134516594244501
-0.005466633333333333,0.01470237461912327
-0.005466293333333333,0.01519607798544271
-0.005465953333333333,0.01578852202502366
-0.005465613333333333,0.0162163982758329
-0.005465273333333333,0.01585434914053175
-0.005464933333333333,0.0152948186587053
-0.005464593333333333,0.01427449836831403
-0.005464253333333333,0.0137149678864862
-0.005463913333333333,0.01351748653995922
-0.005463573333333333,0.01358331365546833
-0.005463233333333333,0.01424158481055971
-0.005462893333333333,0.0143732390415777
-0.005462553333333333,0.01559104067849632
-0.005462213333333333,0.01568978135175981
-0.005461873333333333,0.01559104067849632
-0.005461533333333333,0.0155252135629872
-0.005461193333333333,0.01503151019666896
-0.005460853333333333,0.01509733731217796
-0.005460513333333333,0.01473528817687783
-0.005460173333333333,0.01427449836831463
-0.005459833333333333,0.0146036339458596
-0.005459493333333333,0.0148340288501415
-0.005459153333333333,0.01509733731217784
-0.005458813333333333,0.01503151019666884
-0.005458473333333333,0.01480111529238694
-0.005458133333333333,0.013945362790769
-0.005457793333333333,0.01424158481055947
-0.005457453333333333,0.01404410346403213
-0.005457113333333334,0.01341874586669668
-0.005456773333333333,0.0125300798073225
-0.005456433333333333,0.01174015442121313
-0.005456093333333334,0.01078566124633271
-0.005455753333333333,0.01019321720674895
-0.005455413333333333,0.009896995186957936
-0.005455073333333334,0.009929908744712432
-0.005454733333333333,0.01022613076450351
-0.005454393333333333,0.01078566124633098
-0.005454053333333334,0.01183889509447489
-0.005453713333333333,0.01249716624956795
-0.005453373333333333,0.01341874586669555
-0.005453033333333334,0.01325417807792306
-0.005452693333333333,0.01269464759609529
-0.005452353333333333,0.01220094422977693
-0.005452013333333334,0.01177306797896847
-0.005451673333333333,0.011378105285913
-0.005451333333333333,0.01095022903510376
-0.005450993333333333,0.01085148836184027
-0.005450653333333333,0.01114771038163111
-0.005450313333333333,0.0122996849030406
-0.005449973333333333,0.01328709163567552
-0.005449633333333333,0.01443906615708682
-0.005449293333333333,0.01539355933196897
-0.005448953333333333,0.01608474404481341
-0.005448613333333333,0.0166771880843967
-0.005448273333333333,0.015986003371551
-0.005447933333333333,0.01562395423625087
-0.005447593333333333,0.01453780683035049
-0.005447253333333333,0.0134516594244501
-0.005446913333333333,0.0122996849030406
-0.005446573333333333,0.01193763576774048
-0.005446233333333333,0.01154267307468579
-0.005445893333333333,0.01157558663244035
-0.005445553333333333,0.01190472220998676
-0.005445213333333333,0.01236551201854972
-0.005444873333333333,0.01302378317364086
-0.005444533333333333,0.01322126452016946
-0.005444193333333333,0.0139124492330139
-0.005443853333333333,0.01420867125280492
-0.005443513333333333,0.01443906615708628
-0.005443173333333333,0.0141428441372958
-0.005442833333333333,0.01450489327259593
-0.005442493333333333,0.01420867125280354
-0.005442153333333333,0.0134516594244501
-0.005441813333333333,0.01285921538486808
-0.005441473333333333,0.01249716624956866
-0.005441133333333333,0.01289212894262263
-0.005440793333333333,0.01358331365546833
-0.005440453333333333,0.0145378068303515
-0.005440113333333333,0.01509733731217796
-0.005439773333333333,0.01486694240789606
-0.005439433333333333,0.01345165942444861
-0.005439093333333333,0.01262882048058617
-0.005438753333333333,0.0116085001901949
-0.005438413333333333,0.01124645105489478
-0.005438073333333333,0.01124645105489478
-0.005437733333333333,0.0118388950944768
-0.005437393333333333,0.01157558663244005
-0.005437053333333333,0.01141101884366756
-0.005436713333333333,0.01157558663244035
-0.005436373333333334,0.01124645105489537
-0.005436033333333333,0.01088440191959465
-0.005435693333333333,0.01062109345755819
-0.005435353333333334,0.01022613076450422
-0.005435013333333333,0.01009447653348528
-0.005434673333333333,0.01002864941797616
-0.005434333333333334,0.01025904432225764
-0.005433993333333333,0.01029195788001262
-0.005433653333333333,0.01068692057306731
-0.005433313333333334,0.01160850019019323
-0.005432973333333333,0.01193763576774048
-0.005432633333333333,0.01141101884366756
-0.005432293333333334,0.008020922394954347
-0.005431953333333333,-0.0006353432945003394
-0.005431613333333333,-0.01686172726749699
-0.005431273333333334,-0.04105319221705246
-0.005430933333333333,-0.0712678382357799
-0.005430593333333333,-0.1053333705117465
-0.005430253333333333,-0.1392672485566332
-0.005429913333333333,-0.1704034741925059
-0.005429573333333333,-0.1965368390496242
-0.005429233333333333,-0.2155608754317236
-0.005428893333333333,-0.2287921256490902
-0.005428553333333333,-0.2360660219128473
-0.005428213333333333,-0.2390611556685066
-0.005427873333333333,-0.2380408353781208
-0.005427533333333333,-0.233860813543292
-0.005427193333333333,-0.2279363731474717
-0.005426853333333333,-0.222044846309406
-0.005426513333333333,-0.214836777161158
-0.005426173333333333,-0.207036263973328
-0.005425833333333333,-0.1996307134785526
-0.005425493333333333,-0.1917643731752135
-0.005425153333333333,-0.1847208718157382
-0.005424813333333333,-0.1776115433407539
-0.005424473333333333,-0.1708971775588243
-0.005424133333333333,-0.1642815524501583
-0.005423793333333333,-0.1572380510906721
-0.005423453333333333,-0.1512148700215991
-0.005423113333333333,-0.1454879109723062
-0.005422773333333333,-0.1398926061540218
-0.005422433333333333,-0.1345935233555478
-0.005422093333333333,-0.1299527117121552
-0.005421753333333333,-0.1250156780489633
-0.005421413333333333,-0.1204077799633337
-0.005421073333333333,-0.1156682276466774
-0.005420733333333333,-0.1111590702342956
-0.005420393333333333,-0.1070448755149835
-0.005420053333333333,-0.1027002858913819
-0.005419713333333333,-0.09884939963409163
-0.005419373333333333,-0.09493268626130646
-0.005419033333333333,-0.09160841692809618
-0.005418693333333333,-0.08831706115263468
-0.005418353333333333,-0.08512444605044844
-0.005418013333333333,-0.08104316488888336
-0.005417673333333333,-0.07699479728506564
-0.005417333333333333,-0.07304517035452598
-0.005416993333333333,-0.06939176544377013
-0.005416653333333333,-0.06679159438115491
-0.005416313333333333,-0.06392811485651365
-0.005415973333333333,-0.06129503023614909
-0.005415633333333333,-0.05869485917353345
-0.005415293333333333,-0.05560098474461071
-0.005414953333333333,-0.0530008136820007
-0.005414613333333334,-0.05023607483062293
-0.005414273333333333,-0.04773464444127156
-0.005413933333333333,-0.04575983097599813
-0.005413593333333334,-0.04388375818399179
-0.005413253333333333,-0.04269887010482432
-0.005412913333333333,-0.04105319221709647
-0.005412573333333334,-0.0395391685603896
-0.005412233333333333,-0.03739978730634063
-0.005411893333333333,-0.03479961624373062
-0.005411553333333334,-0.0326273214319338
