Analysis/New Tests_CMB/wrd01_d2s01/cmb10_ch40.csv

#Digilent WaveForms Oscilloscope Acquisition
#Device Name: ADP3450
#Serial Number: SN:210018B9D9B0
#Date Time: 2024-08-07 11:57:51.697.101.020
#Sample rate: 2.94118e+06Hz
#Samples: 32768
#Trigger: Source: Channel 3 Type: Edge Condition: Rising Level: 0 V Hyst.: Auto HoldOff: 0 s
#Channel 3: Range: 200 mV/div Offset: 0 V Attenuation: 1 X Coupling: DC Bandwidth: 0 Hz Sample Mode: Average

Time (s),Channel 3 (V)
-0.005570305,0.01124645105489478
-0.005569965,0.01045652566878427
-0.005569625,0.00983116807144882
-0.005569285,0.009534946051657807
-0.005568945,0.009074156243093347
-0.005568605,0.00871210710779388
-0.005568265,0.008350057972493751
-0.005567925,0.007955095279438646
-0.005567585,0.007724700375157166
-0.005567245,0.007625959701893495
-0.005566905,0.007757613932913579
-0.005566565,0.008777934223302994
-0.005566225,0.009765340955939707
-0.005565885,0.009962822302469084
-0.005565545,0.01108188326612199
-0.005565205,0.01131227817040389
-0.005564865,0.01150975951693022
-0.005564525,0.01095022903510376
-0.005564185,0.009962822302467049
-0.005563845,0.008876674896566185
-0.005563505,0.008613366434530208
-0.005563165,0.009074156243094007
-0.005562825,0.009469118936147974
-0.005562485,0.01016030364899439
-0.005562145,0.01052235278429452
-0.005561805,0.01045652566878552
-0.005561465,0.01025904432225806
-0.005561125,0.009929908744712493
-0.005560785,0.009205810474113552
-0.005560445,0.008843761338812107
-0.005560105,0.008547539319021094
-0.005559765,0.008909588454320563
-0.005559425,0.009370378262885021
-0.005559085,0.01058817989980363
-0.005558745,0.01154267307468405
-0.005558405,0.01272756115384985
-0.005558065,0.01447197971484137
-0.005557725,0.01865200154966253
-0.005557385,0.02869063666481004
-0.005557045,0.04518032909984315
-0.005556705,0.06993132453122508
-0.005556365,0.1008042417050447
-0.005556025,0.1351001688852932
-0.005555685,0.1698568858740422
-0.005555345,0.2016184691072531
-0.005555005,0.2281138830996715
-0.005554665,0.2488165109272503
-0.005554325,0.2624756373954292
-0.005553985,0.2698811878902045
-0.005553645,0.2725142725105691
-0.005553305,0.2714939522201778
-0.005552965,0.2675114117318764
-0.005552625,0.2614553171050379
-0.005552285,0.2541814208412808
-0.005551945,0.2462821669801871
-0.005551605,0.2384158266768479
-0.005551265,0.2311090168553222
-0.005550925,0.2234072443407699
-0.005550585,0.2163308294235401
-0.005550245,0.2096493771993531
-0.005549905,0.2030995792062081
-0.005549565,0.1965497812130513
-0.005549225,0.1906253408172203
-0.005548885,0.1847338139791653
-0.005548545,0.1786118922368177
-0.005548205,0.1722924891479314
-0.005547865,0.1660718267323314
-0.005547525,0.1605423490295658
-0.005547185,0.1551774391155629
-0.005546845,0.1496150478550528
-0.005546505,0.1445792735186056
-0.005546165,0.1400372025484677
-0.005545825,0.1351001688852932
-0.005545485,0.1298998267600731
-0.005545145,0.1249627930968798
-0.005544805,0.1195978831828968
-0.005544465,0.1146279359619586
-0.005544125,0.1102504327805953
-0.005543785,0.1062349787345466
-0.005543445,0.1025815738237907
-0.005543105,0.09945478583710218
-0.005542765,0.09636091140817946
-0.005542425,0.093793653903324
-0.005542085,0.09093017437868274
-0.005541745,0.08809960841178563
-0.005541405,0.08513738821387548
-0.005541065,0.08237264936249772
-0.005540725,0.07996995964641002
-0.005540385,0.07779766483460926
-0.005540045,0.07578993781158493
-0.005539705,0.07345307521100772
-0.005539365,0.0706883363596249
-0.005539025,0.06785777039273815
-0.005538685,0.06486263663706832
-0.005538345,0.06265742826751297
-0.005538005,0.06074844191775214
-0.005537665,0.05785204883534764
-0.005537325,0.05617345738986523
-0.005536985,0.05528479133049381
-0.005536645,0.05393533546255534
-0.005536305,0.05265170671012762
-0.005535965,0.05133516439994773
-0.005535625,0.04998570853200849
-0.005535285,0.04942617805018102
-0.005534945,0.04843877131754611
-0.005534605,0.04771467304694405
-0.005534265,0.04662852564104367
-0.005533925,0.04521324265760029
-0.005533585,0.04392961390516999
-0.005533245,0.04182314620887833
-0.005532905,0.04027620899441414
-0.005532565,0.03820265485587705
-0.005532225,0.03672154475692198
-0.005531885,0.03537208888898514
-0.005531545,0.03461507706063032
-0.005531205,0.03425302792533019
-0.005530865,0.0335618432124845
-0.005530525,0.03191616532475664
-0.005530185,0.0305667094568198
-0.005529845,0.02885520445358283
-0.005529505,0.02750574858564455
-0.005529165,0.02671582319953662
-0.005528825,0.02592589781342725
-0.005528485,0.02569550290914475
-0.005528145,0.02536636733159978
-0.005527805,0.025498021562618
-0.005527465,0.02539928088935553
-0.005527125,0.02605755204444548
-0.005526785,0.02586007069791813
-0.005526445,0.02559676223588125
-0.005526105,0.02536636733159978
-0.005525765,0.02477392329201775
-0.005525425,0.0239510843481519
-0.005525085,0.02289785050000799
-0.005524745,0.02233832001818052
-0.005524405,0.02207501155614418
-0.005524065,0.02214083867165318
-0.005523725,0.02184461665186217
-0.005523385,0.02227249290267231
-0.005523045,0.02276619626898976
-0.005522705,0.02342446742408091
-0.005522365,0.02365486232836304
-0.005522025,0.02378651655938104
-0.005521685,0.02375360300162648
-0.005521345,0.02260162848021477
-0.005521005,0.02138382684329837
-0.005520665,0.02079138280371634
-0.005520325,0.01983688962883592
-0.005519985,0.01842160664538823
-0.005519645,0.01789498972131531
-0.005519305,0.01707215077745288
-0.005518965,0.01700632366194227
-0.005518625,0.01674301519990581
-0.005518285,0.01641387962236084
-0.005517945,0.01624931183358745
-0.005517605,0.01631513894909657
-0.005517265,0.01615057116032408
-0.005516925,0.01611765760256923
-0.005516585,0.01611765760256923
-0.005516245,0.01624931183358722
-0.005515905,0.01611765760256923
-0.005515565,0.01651262029562391
-0.005515225,0.01615057116032444
-0.005514885,0.01595308981379644
-0.005514545,0.01545938644747809
-0.005514205,0.01486694240789714
-0.005513865,0.0148340288501415
-0.005513525,0.01443906615708682
-0.005513185,0.0133858323089429
-0.005512845,0.01216803067202238
-0.005512505,0.01213511711426782
-0.005512165,0.01200346288324959
-0.005511825,0.01223385778753149
-0.005511485,0.01262882048058617
-0.005511145,0.01279338826935896
-0.005510805,0.01269464759609529
-0.005510465,0.01243133913405883
-0.005510125,0.0120692899987587
-0.005509785,0.01134519172815845
-0.005509445,0.01147684595917668
-0.005509105,0.01062109345755819
-0.005508765,0.01022613076450393
-0.005508425,0.01045652566878541
-0.005508085,0.01062109345755819
-0.005507745,0.01078566124633098
-0.005507405,0.01078566124633098
-0.005507065,0.01012739009123984
-0.005506725,0.009666600282675556
-0.005506385,0.009403291820639578
-0.005506045,0.009962822302467049
-0.005505705,0.01052235278429482
-0.005505365,0.01068692057306731
-0.005505025,0.01095022903510376
-0.005504685,0.01088440191959423
-0.005504345,0.01065400701531275
-0.005504005,0.01032487143776718
-0.005503665,0.00973242739818491
-0.005503325,0.009600773167166921
-0.005502985,0.009534946051657807
-0.005502645,0.009469118936148931
-0.005502305,0.009600773167166921
-0.005501965,0.01025904432225806
-0.005501625,0.01108188326612193
-0.005501285,0.01104896970836743
-0.005500945,0.01091731547734921
-0.005500605,0.01098314259285928
-0.005500265,0.01150975951693123
-0.005499925,0.01127936461264933
-0.005499585,0.01216803067202076
-0.005499245,0.01246425269181339
-0.005498905,0.01358331365546833
-0.005498565,0.01368205432873182
-0.005498225,0.0139124492330139
-0.005497885,0.01397827634852302
-0.005497545,0.01368205432873254
-0.005497205,0.01381370855975023
-0.005496865,0.01328709163567732
-0.005496525,0.01279338826935986
-0.005496185,0.01236551201854972
-0.005495845,0.01210220355651326
-0.005495505,0.01137810528591432
-0.005495165,0.01035778499552173
-0.005494825,0.009600773167166921
-0.005494485,0.008843761338813485
-0.005494145,0.008350057972493751
-0.005493805,0.008218403741475522
-0.005493465,0.008350057972493512
-0.005493125,0.008745020665548437
-0.005492785,0.009633686724921478
-0.005492445,0.01022613076450243
-0.005492105,0.01104896970836743
-0.005491765,0.01147684595917668
-0.005491425,0.01177306797896715
-0.005491085,0.01220094422977693
-0.005490745,0.01259590692283162
-0.005490405,0.01305669673139542
-0.005490065,0.01315543740465909
-0.005489725,0.0132212645201682
-0.005489385,0.01292504250037719
-0.005489045,0.01361622721322289
-0.005488705,0.013682054328732
-0.005488365,0.013682054328732
-0.005488025,0.01295795605813067
-0.005487685,0.01236551201854972
-0.005487345,0.01220094422977693
-0.005487005,0.01160850019019311
-0.005486665,0.01062109345755819
-0.005486325,0.009864081629203377
-0.005485985,0.009172896916358038
-0.005485645,0.009370378262885021
-0.005485305,0.009008329127584893
-0.005484965,0.009436205378395034
-0.005484625,0.009929908744712493
-0.005484285,0.01039069855327629
-0.005483945,0.01108188326612271
-0.005483605,0.01147684595917668
-0.005483265,0.0116085001901949
-0.005482925,0.01157558663244005
-0.005482585,0.01141101884366756
-0.005482245,0.01157558663244035
-0.005481905,0.01203637644100415
-0.005481565,0.01203637644100415
-0.005481225,0.01150975951693123
-0.005480885,0.01134519172815767
-0.005480545,0.01091731547734921
-0.005480205,0.009962822302467049
-0.005479865,0.009304551147375368
-0.005479525,0.009008329127584893
-0.005479185,0.008745020665548437
-0.005478845,0.008745020665548437
-0.005478505,0.009074156243094007
-0.005478165,0.009469118936148692
-0.005477825,0.01012739009123864
-0.005477485,0.01078566124633098
-0.005477145,0.01164141374794946
-0.005476805,0.01170724086345846
-0.005476465,0.01164141374794946
-0.005476125,0.01167432730570402
-0.005475785,0.01127936461265005
-0.005475445,0.01035778499552173
-0.005475105,0.01055526634204908
-0.005474765,0.01006156297573162
-0.005474425,0.00983116807144882
-0.005474085,0.009699513840430593
-0.005473745,0.009962822302466571
-0.005473405,0.01042361211103085
-0.005473065,0.01065400701531275
-0.005472725,0.01058817989980375
-0.005472385,0.01055526634204908
-0.005472045,0.01048943922653996
-0.005471705,0.0112464510548934
-0.005471365,0.011378105285913
-0.005471025,0.01180598153672225
-0.005470685,0.01164141374794976
-0.005470345,0.01068692057306731
-0.005470005,0.01009447653348528
-0.005469665,0.009600773167166921
-0.005469325,0.008613366434530208
-0.005468985,0.008415885088002865
-0.005468645,0.008152576625966409
-0.005468305,0.007856354606175394
-0.005467965,0.007625959701893495
-0.005467625,0.007955095279439066
-0.005467285,0.00811966306821185
-0.005466945,0.008745020665548437
-0.005466605,0.009205810474112236
-0.005466265,0.009831168071449839
-0.005465925,0.01039069855327629
-0.005465585,0.01055526634204908
-0.005465245,0.0107198341308212
-0.005464905,0.01035778499552173
-0.005464565,0.009403291820639578
-0.005464225,0.008745020665547658
-0.005463885,0.008317144414739193
-0.005463545,0.00811966306821185
-0.005463205,0.008053835952703635
-0.005462865,0.008547539319021094
-0.005462525,0.009962822302467049
-0.005462185,0.01131227817040533
-0.005461845,0.01210220355651326
-0.005461505,0.0127604747116044
-0.005461165,0.01328709163567839
-0.005460825,0.01387953567525935
-0.005460485,0.01384662211750479
-0.005460145,0.01292504250037593
-0.005459805,0.01223385778753149
-0.005459465,0.01075274768857642
-0.005459125,0.009534946051655233
-0.005458785,0.00811966306821185
-0.005458445,0.006934774989047795
-0.005458105,0.00607902248742937
-0.005457765,0.006111936045183867
-0.005457425,0.006803120758029567
-0.005457085,0.007922181721682473
-0.005456745,0.008876674896566664
-0.005456405,0.009403291820639578
-0.005456065,0.009962822302466031
-0.005455725,0.009666600282676035
-0.005455385,0.009765340955939707
-0.005455045,0.009732427398185211
-0.005454705,0.00983116807144882
-0.005454365,0.009205810474112236
-0.005454025,0.008646279992285783
-0.005453685,0.008448798645757422
-0.005453345,0.008317144414739193
-0.005453005,0.008350057972493691
-0.005452665,0.008876674896566664
-0.005452325,0.009469118936148692
-0.005451985,0.009732427398184671
-0.005451645,0.009995735860221606
-0.005451305,0.01062109345755819
-0.005450965,0.01108188326612115
-0.005450625,0.01098314259285832
-0.005450285,0.01075274768857642
-0.005449945,0.01002864941797748
-0.005449605,0.01032487143776718
-0.005449265,0.01055526634204908
-0.005448925,0.0102261307645041
-0.005448585,0.01045652566878541
-0.005448245,0.01101605615061288
-0.005447905,0.01111479682387655
-0.005447565,0.011378105285913
-0.005447225,0.01150975951693123
-0.005446885,0.01150975951693123
-0.005446545,0.01078566124633098
-0.005446205,0.01025904432225806
-0.005445865,0.009962822302467049
-0.005445525,0.009699513840430354
-0.005445185,0.009567859609412364
-0.005444845,0.009798254513694264
-0.005444505,0.01025904432225758
-0.005444165,0.009995735860221606
-0.005443825,0.00973242739818515
-0.005443485,0.009436205378394015
-0.005443145,0.009370378262885021
-0.005442805,0.008909588454321223
-0.005442465,0.008679193550039202
-0.005442125,0.008613366434530208
-0.005441785,0.008251317299230079
-0.005441445,0.008415885088003405
-0.005441105,0.00871210710779388
-0.005440765,0.008679193550039321
-0.005440425,0.008382971530248848
-0.005440085,0.008679193550039321
-0.005439745,0.008876674896566664
-0.005439405,0.009995735860223282
-0.005439065,0.01091731547734921
-0.005438725,0.01167432730570402
-0.005438385,0.01183889509447674
-0.005438045,0.01180598153672225
-0.005437705,0.01127936461264933
-0.005437365,0.01058817989980268
-0.005437025,0.01006156297573072
-0.005436685,0.01045652566878541
-0.005436345,0.01101605615061186
-0.005436005,0.01124645105489478
-0.005435665,0.008251317299230079
-0.005435325,0.0002862363226417489
-0.005434985,-0.01554518495731471
-0.005434645,-0.03960499567589595
-0.005434305,-0.0700171230410514
-0.005433965,-0.1041155688748279
-0.005433625,-0.1389381129791493
-0.005433285,-0.1703047335191852
-0.005432945,-0.1979521220330702
-0.005432605,-0.2186547498606866
-0.005432265,-0.2328734068106294
-0.005431925,-0.2417271538466312
-0.005431585,-0.245676780777178
-0.005431245,-0.2461704841434955
-0.005430905,-0.243076609714568
-0.005430565,-0.2376129591273115
-0.005430225,-0.2302074086325496
-0.005429885,-0.2223739818869516
-0.005429545,-0.2137835433130122
-0.005429205,-0.2050614505080704
-0.005428865,-0.196701406838397
-0.005428525,-0.1883742767264941
-0.005428185,-0.1807383313274507
-0.005427845,-0.1736619164102071
-0.005427505,-0.166980464186032
-0.005427165,-0.1607927153281752
-0.005426825,-0.1551974105099005
-0.005426485,-0.1494046243450985
-0.005426145,-0.1435460110647873
-0.005425805,-0.1381811011507945
-0.005425465,-0.1337048572961747
-0.005425125,-0.1294590083458369
-0.005424785,-0.1255752085307991
-0.005424445,-0.1217572358312705
-0.005424105,-0.11770886822746
-0.005423765,-0.113561759950377
-0.005423425,-0.1087563805182204
-0.005423085,-0.103885173970546
-0.005422745,-0.09881648607633695
-0.005422405,-0.09483394558804278
-0.005422065,-0.09078557798423226
-0.005421725,-0.08696760528469734
-0.005421385,-0.08351168172047513
-0.005421045,-0.08068111575358322
-0.005420705,-0.0780480311332129
-0.005420365,-0.07488832958878117
-0.005420025,-0.07146531958230723
-0.005419685,-0.06893097563520149
-0.005419345,-0.0662649774570872
-0.005419005,-0.06379646062549543
-0.005418665,-0.06040636417676988
-0.005418325,-0.05701626772805667
-0.005417985,-0.05408696108790108
-0.005417645,-0.0517171849295698
-0.005417305,-0.04997276636858144
-0.005416965,-0.047701730883517
-0.005416625,-0.04585857164925809
-0.005416285,-0.04381793106847926
-0.005415945,-0.04167854981443305
-0.005415605,-0.03904546519406513
-0.005415265,-0.03720230595981328
-0.005414925,-0.03503001114801252
-0.005414585,-0.03374638239558712
-0.005414245,-0.03259440787417529
-0.005413905,-0.03104747065971111
-0.005413565,-0.02950053344524974
-0.005413225,-0.02811816401955552
-0.005412885,-0.02690036238263691
-0.005412545,-0.02591295565000199
-0.005412205,-0.02459641333981791
-0.005411865,-0.0238394015114631
-0.005411525,-0.02291782189433718
-0.005411185,-0.0219962422772079
-0.005410845,-0.02097592198681663
-0.005410505,-0.01952772544561875
-0.005410165,-0.01817826957767928
-0.005409825,-0.01630219678566952
-0.005409485,-0.01462360534019016
-0.005409145,-0.01284627322144103
-0.005408805,-0.01228674273961356
-0.005408465,-0.01202343427757758
-0.005408125,-0.01172721225778608
-0.005407785,-0.01120059533371317
-0.005407445,-0.01093728687167719
-0.005407105,-0.01077271908290393
-0.005406765,-0.01004862081230367
-0.005406425,-0.009225781868441241
-0.005406085,-0.00869916494436683
-0.005405745,-0.007876326000502903
-0.005405405,-0.007283881960920875
-0.005405065,-0.006263561670529605
-0.005404725,-0.005704031188702134
-0.005404385,-0.005309068495647449
-0.005404045,-0.004255834647501621
-0.005403705,-0.003202600799355794
-0.005403365,-0.002544329644264652
-0.005403025,-0.002116453393454212
-0.005402685,-0.001458182238364267
-0.005402345,-0.0006682568522548965
-0.005402005,8.87549761009946e-05
-0.005401665,0.0006811990156819448
-0.005401325,0.0006153719001728307
-0.005400985,0.0008786803622085092
-0.005400645,0.0004508041114000451
-0.005400305,-9.985697163754359e-06
-0.005399965,0.0002533227648738999
-0.005399625,0.0009115939199638446
-0.005399285,0.002228136230146129
-0.005398945,0.003050975174012331
-0.005398605,0.004301690368683227
-0.005398265,0.005585319121110954
-0.005397925,0.005980281814165699
-0.005397585,0.006013195371920196
-0.005397245,0.005947368256411082
-0.005396905,0.005684059794374326
-0.005396565,0.005519492005601839
-0.005396225,0.005322010659074497
-0.005395885,0.005552405563355679
-0.005395545,0.005157442870301712
-0.005395205,0.004959961523774369
-0.005394865,0.004532085272965186
-0.005394525,0.004564998830719684
-0.005394185,0.004202949695419555
-0.005393845,0.003478851424820616
-0.005393505,0.003478851424819299
-0.005393165,0.003840900560119427
-0.005392825,0.00463082594622736
-0.005392485,0.005815714025392853
-0.005392145,0.00700060210455691
-0.005391805,0.008382971530245795
-0.005391465,0.009238724031866792
-0.005391125,0.009929908744712493
-0.005390785,0.01022613076450297
-0.005390445,0.009600773167166921
-0.005390105,0.009238724031866792
-0.005389765,0.008382971530249864
-0.005389425,0.007230997008838809
-0.005389085,0.006967688546802352
-0.005388745,0.006934774989047855
-0.005388405,0.007329737682102481
-0.005388065,0.007988008837193623
-0.005387725,0.008712107107792563
-0.005387385,0.009304551147375908
-0.005387045,0.01029195788001262
-0.005386705,0.0105223527842941
-0.005386365,0.01009447653348528
-0.005386025,0.00983116807144882
-0.005385685,0.008547539319023429
-0.005385345,0.00756013258638438
-0.005385005,0.006901861431293239
-0.005384665,0.006375244507220324
-0.005384325,0.00630941739171121
-0.005383985,0.006506898738238553
-0.005383645,0.007724700375157166
-0.005383305,0.008942502012075779
-0.005382965,0.01016030364899439
-0.005382625,0.01167432730570402
-0.005382285,0.01239842557630427
-0.005381945,0.01226677134528605
-0.005381605,0.01213511711426782
-0.005381265,0.01193763576773904
-0.005380925,0.01114771038163111
-0.005380585,0.01058817989980363
-0.005380245,0.009304551147374471
-0.005379905,0.008514625761266537
-0.005379565,0.008218403741475522
-0.005379225,0.007527219028629524
-0.005378885,0.007362651239857037
-0.005378545,0.007296824124347924
-0.005378205,0.007165169893330473
-0.005377865,0.007593046144138938
-0.005377525,0.007922181721684508
-0.005377185,0.007691786817403746
-0.005376845,0.008317144414739193
-0.005376505,0.008415885088002865
-0.005376165,0.008415885088003344
-0.005375825,0.008679193550039321
-0.005375485,0.009205810474112236
-0.005375145,0.01012739009124091
-0.005374805,0.01071983413082186
-0.005374465,0.01134519172815845
-0.005374125,0.01147684595917656
-0.005373785,0.01141101884366756
-0.005373445,0.01052235278429452
-0.005373105,0.01019321720674817
-0.005372765,0.009765340955939707
-0.005372425,0.009962822302467049
-0.005372085,0.01002864941797604
-0.005371745,0.01002864941797616
-0.005371405,0.00950203249390325
-0.005371065,0.009567859609412244
-0.005370725,0.01022613076450351
