Analysis/New Tests_CMB/wrd01_d2s01/cmb12_ch16.csv

#Digilent WaveForms Oscilloscope Acquisition
#Device Name: ADP3450
#Serial Number: SN:210018B9D9B0
#Date Time: 2024-08-07 11:04:02.050.466.120
#Sample rate: 2.94118e+06Hz
#Samples: 32768
#Trigger: Source: Channel 3 Type: Edge Condition: Rising Level: 0 V Hyst.: Auto HoldOff: 0 s
#Channel 3: Range: 200 mV/div Offset: 0 V Attenuation: 1 X Coupling: DC Bandwidth: 0 Hz Sample Mode: Average

Time (s),Channel 3 (V)
-0.005570341886792453,0.0007470261311910591
-0.005570001886792453,0.001964827768111708
-0.005569661886792453,0.003083888731764614
-0.005569321886792453,0.004334603926437783
-0.005568981886792453,0.005387837774585348
-0.005568641886792453,0.006342330949465767
-0.005568301886792453,0.007362651239857037
-0.005567961886792453,0.008382971530249566
-0.005567621886792453,0.009074156243094007
-0.005567281886792453,0.009139983358603122
-0.005566941886792453,0.009238724031866014
-0.005566601886792453,0.00881084778105755
-0.005566261886792453,0.008086749510457293
-0.005565921886792453,0.007033515662309371
-0.005565581886792453,0.005881541140901968
-0.005565241886792453,0.00482830729275614
-0.005564901886792453,0.004334603926437963
-0.005564561886792453,0.004433344599701455
-0.005564221886792453,0.004729566619492469
-0.005563881886792453,0.005190356428057646
-0.005563541886792453,0.005947368256411082
-0.005563201886792453,0.00653981229599311
-0.005562861886792453,0.00690186143129258
-0.005562521886792453,0.007033515662311467
-0.005562181886792453,0.006868947873538681
-0.005561841886792453,0.006539812295993709
-0.005561501886792453,0.006671466527011338
-0.005561161886792453,0.006210676718447538
-0.005560821886792453,0.006375244507220025
-0.005560481886792453,0.006243590276202096
-0.005560141886792453,0.006605639411502225
-0.005559801886792453,0.009337464705125496
-0.005559461886792453,0.01789498972131531
-0.005559121886792453,0.03290357205739335
-0.005558781886792453,0.05591014892778692
-0.005558441886792453,0.08599314071549397
-0.005558101886792453,0.1205852899155335
-0.005557761886792453,0.156230672963654
-0.005557421886792453,0.1893417120648033
-0.005557081886792453,0.2172194954829131
-0.005556741886792453,0.2392715791784263
-0.005556401886792453,0.2546422106498446
-0.005556061886792453,0.2636934390323478
-0.005555721886792453,0.267215189712079
-0.005555381886792453,0.2668860541345398
-0.005555041886792453,0.2632984763392931
-0.005554701886792453,0.2574069495012381
-0.005554361886792453,0.2506267566037886
-0.005554021886792453,0.2435503416865588
-0.005553681886792453,0.2357498284987288
-0.005553341886792453,0.2279164017531442
-0.005553001886792453,0.2200171478920505
-0.005552661886792453,0.2129407329748207
-0.005552321886792453,0.2059301451731001
-0.005551981886792453,0.1983600268895519
-0.005551641886792453,0.1915140068766041
-0.005551301886792453,0.1843388512860992
-0.005550961886792453,0.1780852753127447
-0.005550621886792453,0.1720291806859062
-0.005550281886792453,0.1669604927916953
-0.005549941886792453,0.1619247184552572
-0.005549601886792453,0.1569876847920736
-0.005549261886792453,0.1519189968978624
-0.005548921886792453,0.1467515683304064
-0.005548581886792453,0.1422094973602775
-0.005548241886792453,0.1379965619676863
-0.005547901886792453,0.1336848859018472
-0.005547561886792453,0.1295706911825276
-0.005547221886792453,0.1252590151166718
-0.005546881886792453,0.1204536356845153
-0.005546541886792453,0.1158786511566318
-0.005546201886792453,0.1114682344175143
-0.005545861886792453,0.1077160888335016
-0.005545521886792453,0.1035360669986729
-0.005545181886792453,0.09945478583710009
-0.005544841886792453,0.09520893688676996
-0.005544501886792453,0.09129222351397767
-0.005544161886792453,0.0872438559101608
-0.005543821886792453,0.08375501878818409
-0.005543481886792453,0.08062823080150117
-0.005543141886792453,0.07815971396990391
-0.005542801886792453,0.07516458021424469
-0.005542461886792453,0.07203779222756176
-0.005542121886792453,0.06940470760720198
-0.005541781886792453,0.06604752471623235
-0.005541441886792453,0.06390814346218615
-0.005541101886792453,0.06190041643916181
-0.005540761886792453,0.06032056566693942
-0.005540421886792453,0.05844449287492967
-0.005540081886792453,0.05676590142945031
-0.005539741886792453,0.05406698969357357
-0.005539401886792453,0.051433905073209
-0.005539061886792453,0.04975531362772964
-0.005538721886792453,0.04810963573999873
-0.005538381886792453,0.04728679679613481
-0.005538041886792453,0.04610190871697291
-0.005537701886792453,0.04488410708005214
-0.005537361886792453,0.04383087323190631
-0.005537021886792453,0.04244850380621742
-0.005536681886792453,0.04109904793827807
-0.005536341886792453,0.03945337005055022
-0.005536001886792453,0.03813682774037033
-0.005535661886792453,0.03695193966120388
-0.005535321886792453,0.03579996513979438
-0.005534981886792453,0.03530626177347692
-0.005534641886792453,0.03441759571410298
-0.005534301886792453,0.0333314483082026
-0.005533961886792453,0.03204781955577721
-0.005533621886792453,0.03050088234131068
-0.005533281886792453,0.02836150108726447
-0.005532941886792453,0.02730826723911865
-0.005532601886792453,0.02507014531180876
-0.005532261886792453,0.02352320809734458
-0.005531921886792453,0.02240414713368964
-0.005531581886792453,0.02164713530533482
-0.005531241886792453,0.02121925905452558
-0.005530901886792453,0.02121925905452558
-0.005530561886792453,0.02158130818982571
-0.005530221886792453,0.02200918444063495
-0.005529881886792453,0.02191044376737128
-0.005529541886792453,0.02260162848021758
-0.005529201886792453,0.02293076405776255
-0.005528861886792453,0.02276619626898976
-0.005528521886792453,0.02299659117327196
-0.005528181886792453,0.02316115896204445
-0.005527841886792453,0.02279910982674432
-0.005527501886792453,0.02210792511389629
-0.005527161886792453,0.02082429636147089
-0.005526821886792453,0.01937609982027038
-0.005526481886792453,0.01713797789295631
-0.005526141886792453,0.0148340288501415
-0.005525801886792453,0.01295795605813175
-0.005525461886792453,0.01226677134528593
-0.005525121886792453,0.01220094422977693
-0.005524781886792453,0.01243133913405883
-0.005524441886792453,0.01279338826935944
-0.005524101886792453,0.01305669673139542
-0.005523761886792453,0.01318835096241365
-0.005523421886792453,0.01322126452016772
-0.005523081886792453,0.01295795605813175
-0.005522741886792453,0.01285921538486808
-0.005522401886792453,0.01341874586669609
-0.005522061886792453,0.01371496788648656
-0.005521721886792453,0.013682054328732
-0.005521381886792453,0.0139782763485214
-0.005521041886792453,0.01308961028914997
-0.005520701886792453,0.01213511711426782
-0.005520361886792453,0.01190472220998634
-0.005520021886792453,0.01141101884366756
-0.005519681886792453,0.01104896970836743
-0.005519341886792453,0.01016030364899601
-0.005519001886792453,0.009896995186957936
-0.005518661886792453,0.009929908744712493
-0.005518321886792453,0.009962822302466989
-0.005517981886792453,0.01032487143776718
-0.005517641886792453,0.01029195788001262
-0.005517301886792453,0.01071983413082108
-0.005516961886792453,0.01114771038163111
-0.005516621886792453,0.01243133913405883
-0.005516281886792453,0.01289212894262179
-0.005515941886792453,0.01351748653995922
-0.005515601886792453,0.0132212645201682
-0.005515261886792453,0.01272756115385074
-0.005514921886792453,0.01180598153672225
-0.005514581886792453,0.01058817989980363
-0.005514241886792453,0.009403291820641733
-0.005513901886792453,0.007658873259648051
-0.005513561886792453,0.006111936045183867
-0.005513221886792453,0.005387837774584929
-0.005512881886792453,0.005124529312547154
-0.005512541886792453,0.004729566619492469
-0.005512201886792453,0.004301690368683227
-0.005511861886792453,0.00380798700236487
-0.005511521886792453,0.003511764982573856
-0.005511181886792453,0.0030180616162555
-0.005510841886792453,0.002392704018918914
-0.005510501886792453,0.002656012480955371
-0.005510161886792453,0.003709246329101199
-0.005509821886792453,0.004663739503983355
-0.005509481886792453,0.00574988690988374
-0.005509141886792453,0.006868947873538681
-0.005508801886792453,0.007757613932912501
-0.005508461886792453,0.008185490183720966
-0.005508121886792453,0.008876674896566664
-0.005507781886792453,0.008481712203512039
-0.005507441886792453,0.008514625761266537
-0.005507101886792453,0.008152576625966409
-0.005506761886792453,0.008185490183721385
-0.005506421886792453,0.008415885088002865
-0.005506081886792453,0.008218403741475522
-0.005505741886792453,0.007000602104555713
-0.005505401886792453,0.006342330949465767
-0.005505061886792453,0.005190356428056269
-0.005504721886792453,0.004137122579910381
-0.005504381886792453,0.004104209022155884
-0.005504041886792453,0.004071295464401327
-0.005503701886792453,0.004071295464402645
-0.005503361886792453,0.004795393735001583
-0.005503021886792453,0.005486578447847282
-0.005502681886792453,0.006803120758030106
-0.005502341886792453,0.007099342777820581
-0.005502001886792453,0.008152576625966409
-0.005501661886792453,0.008547539319021514
-0.005501321886792453,0.008777934223302994
-0.005500981886792453,0.009008329127584893
-0.005500641886792453,0.00838297153024717
-0.005500301886792453,0.007757613932911723
-0.005499961886792453,0.007066429220066024
-0.005499621886792453,0.006934774989048035
-0.005499281886792453,0.006704380084765896
-0.005498941886792453,0.007362651239857037
-0.005498601886792453,0.006473985180485612
-0.005498261886792453,0.006375244507220324
-0.005497921886792453,0.006046108929674754
-0.005497581886792453,0.006243590276201737
-0.005497241886792453,0.005947368256411082
-0.005496901886792453,0.005519492005601839
-0.005496561886792453,0.006013195371919298
-0.005496221886792453,0.006111936045183867
-0.005495881886792453,0.006144849602938425
-0.005495541886792453,0.006836034315782866
-0.005495201886792453,0.006901861431293239
-0.005494861886792453,0.006441071622729439
-0.005494521886792453,0.006309417391711449
-0.005494181886792453,0.006704380084765896
-0.005493841886792453,0.006506898738238553
-0.005493501886792453,0.006210676718448077
-0.005493161886792453,0.006046108929674754
-0.005492821886792453,0.006572725853747667
-0.005492481886792453,0.006079022487430208
-0.005492141886792453,0.005519492005601839
-0.005491801886792453,0.004894134408265255
-0.005491461886792453,0.004564998830720282
-0.005491121886792453,0.004696653061737912
-0.005490781886792453,0.004301690368683227
-0.005490441886792453,0.004071295464401327
-0.005490101886792453,0.00426877681092867
-0.005489761886792453,0.004301690368683227
-0.005489421886792453,0.004762480177247026
-0.005489081886792453,0.005025788639283483
-0.005488741886792453,0.005684059794374625
-0.005488401886792453,0.006441071622729439
-0.005488061886792453,0.007033515662313083
-0.005487721886792453,0.007922181721684508
-0.005487381886792453,0.008284230856984636
-0.005487041886792453,0.008580452876773975
-0.005486701886792453,0.007658873259648051
-0.005486361886792453,0.006836034315784124
-0.005486021886792453,0.006309417391709952
-0.005485681886792453,0.005618232678865511
-0.005485341886792453,0.005157442870301712
-0.005485001886792453,0.004795393735001703
-0.005484661886792453,0.004861220850510698
-0.005484321886792453,0.004729566619492469
-0.005483981886792453,0.00393964123338232
-0.005483641886792453,0.003511764982573856
-0.005483301886792453,0.003511764982573856
-0.005482961886792453,0.003709246329102097
-0.005482621886792453,0.004202949695419555
-0.005482281886792453,0.004861220850510698
-0.005481941886792453,0.005091615754794214
-0.005481601886792453,0.005980281814165639
-0.005481261886792453,0.006737293642520453
-0.005480921886792453,0.006868947873540477
-0.005480581886792453,0.007856354606175394
-0.005480241886792453,0.008251317299230079
-0.005479901886792453,0.008415885088002206
-0.005479561886792453,0.008053835952702737
-0.005479221886792453,0.007362651239857037
-0.005478881886792453,0.00650689873824011
-0.005478541886792453,0.005651146236620068
-0.005478201886792453,0.004992875081528926
-0.005477861886792453,0.004795393735001942
-0.005477521886792453,0.004663739503983355
-0.005477181886792453,0.004433344599701455
-0.005476841886792453,0.00449917171521045
-0.005476501886792453,0.004729566619492469
-0.005476161886792453,0.004696653061737912
-0.005475821886792453,0.00459791238847442
-0.005475481886792453,0.004367517484192341
-0.005475141886792453,0.004466258157456012
-0.005474801886792453,0.004597912388474001
-0.005474461886792453,0.00528909710131994
-0.005474121886792453,0.005552405563356397
-0.005473781886792453,0.005980281814164861
-0.005473441886792453,0.00607902248742931
-0.005473101886792453,0.006111936045183867
-0.005472761886792453,0.006013195371920375
-0.005472421886792453,0.005947368256411082
-0.005472081886792453,0.005947368256411082
-0.005471741886792453,0.005289097101321137
-0.005471401886792453,0.004630825946228797
-0.005471061886792453,0.004071295464401327
-0.005470721886792453,0.00272183959646694
-0.005470381886792453,0.002293963345655243
-0.005470041886792453,0.002129395556882458
-0.005469701886792453,0.002392704018918914
-0.005469361886792453,0.002458531134428029
-0.005469021886792453,0.003215542962782842
-0.005468681886792453,0.003939641233383098
-0.005468341886792453,0.004466258157456012
-0.005468001886792453,0.00482830729275614
-0.005467661886792453,0.004992875081528926
-0.005467321886792453,0.005256183543565383
-0.005466981886792453,0.005585319121110954
-0.005466641886792453,0.005519492005601839
-0.005466301886792453,0.006243590276202754
-0.005465961886792453,0.006605639411502225
-0.005465621886792453,0.007033515662311467
-0.005465281886792453,0.007428478355366511
-0.005464941886792453,0.007625959701893495
-0.005464601886792453,0.007461391913120709
-0.005464261886792453,0.007099342777819923
-0.005463921886792453,0.006737293642520453
-0.005463581886792453,0.006408158064974882
-0.005463241886792453,0.005453664890092367
-0.005462901886792453,0.005256183543565383
-0.005462561886792453,0.004795393735001583
-0.005462221886792453,0.004861220850512075
-0.005461881886792453,0.005618232678865511
-0.005461541886792453,0.005815714025392853
-0.005461201886792453,0.005947368256411741
-0.005460861886792453,0.00630941739171121
-0.005460521886792453,0.006572725853747667
-0.005460181886792453,0.007099342777820581
-0.005459841886792453,0.007099342777820581
-0.005459501886792453,0.007230997008838809
-0.005459161886792453,0.007362651239856738
-0.005458821886792453,0.007198083451084253
-0.005458481886792453,0.006737293642520453
-0.005458141886792453,0.006605639411502763
-0.005457801886792453,0.006901861431293239
-0.005457461886792453,0.007198083451084253
-0.005457121886792453,0.008119663068210175
-0.005456781886792453,0.00779052749066628
-0.005456441886792453,0.007889268163929951
-0.005456101886792453,0.007889268163929951
-0.005455761886792453,0.008053835952702737
-0.005455421886792453,0.008152576625966409
-0.005455081886792453,0.008415885088002386
-0.005454741886792453,0.008415885088002865
-0.005454401886792453,0.007395564797611595
-0.005454061886792453,0.006704380084767153
-0.005453721886792453,0.005585319121110954
-0.005453381886792453,0.004696653061737912
-0.005453041886792453,0.004202949695420453
-0.005452701886792453,0.004400431041946898
-0.005452361886792453,0.004696653061737912
-0.005452021886792453,0.005157442870300874
-0.005451681886792453,0.005486578447847282
-0.005451341886792453,0.005354924216829054
-0.005451001886792453,0.005914454698655507
-0.005450661886792453,0.006111936045183867
-0.005450321886792453,0.005519492005601839
-0.005449981886792453,0.004795393735002901
-0.005449641886792453,0.004400431041946898
-0.005449301886792453,0.00426877681092867
-0.005448961886792453,0.004202949695419675
-0.005448621886792453,0.004301690368683227
-0.005448281886792453,0.004499171715210569
-0.005447941886792453,0.004466258157456012
-0.005447601886792453,0.005782800467638296
-0.005447261886792453,0.005782800467638296
-0.005446921886792453,0.005025788639283483
-0.005446581886792453,0.004927047966019811
-0.005446241886792453,0.004861220850510698
-0.005445901886792453,0.00505870219703804
-0.005445561886792453,0.005716973352129361
-0.005445221886792453,0.005815714025392853
-0.005444881886792453,0.005651146236620068
-0.005444541886792453,0.005453664890091948
-0.005444201886792453,0.005025788639283483
-0.005443861886792453,0.004071295464401327
-0.005443521886792453,0.002853493827482055
-0.005443181886792453,0.002491444692182586
-0.005442841886792453,0.002458531134428029
-0.005442501886792453,0.0027876667119736
-0.005442161886792453,0.0027876667119736
-0.005441821886792453,0.002952234500746385
-0.005441481886792453,0.003215542962783561
-0.005441141886792453,0.003610505655837527
-0.005440801886792453,0.004170036137664999
-0.005440461886792453,0.00446625815745709
-0.005440121886792453,0.00505870219703804
-0.005439781886792453,0.005322010659074497
-0.005439441886792453,0.005914454698657063
-0.005439101886792453,0.006210676718447538
-0.005438761886792453,0.006408158064974882
-0.005438421886792453,0.006013195371920375
-0.005438081886792453,0.006111936045183867
-0.005437741886792453,0.003182629405028285
-0.005437401886792453,-0.004058353300999303
-0.005437061886792453,-0.01781622044237915
-0.005436721886792453,-0.03914420586733215
-0.005436381886792453,-0.0671207299586548
-0.005436041886792453,-0.09924436232715345
-0.005435701886792453,-0.1322895743127288
-0.005435361886792453,-0.1628991830244112
-0.005435021886792453,-0.1904478308650312
-0.005434681886792453,-0.2129277908113937
-0.005434341886792453,-0.2285288171870254
-0.005434001886792453,-0.2389295014374938
-0.005433661886792453,-0.2438336215429228
-0.005433321886792453,-0.2444260655825038
-0.005432981886792453,-0.2414638453845947
-0.005432641886792453,-0.2366584659524294
-0.005432301886792453,-0.2309973340186558
-0.005431961886792453,-0.2248095851607888
-0.005431621886792453,-0.2182597871676319
-0.005431281886792453,-0.2119403840787685
-0.005430941886792453,-0.2053576725278456
-0.005430601886792453,-0.198709133861425
-0.005430261886792453,-0.1922251629837891
-0.005429921886792453,-0.1855766243173567
-0.005429581886792453,-0.1789280856509362
-0.005429241886792453,-0.1721808063112643
-0.005428901886792453,-0.164972737163004
-0.005428561886792453,-0.15894955609392
-0.005428221886792453,-0.1526301530050566
-0.005427881886792453,-0.1464094905894338
-0.005427541886792453,-0.1400571739428043
-0.005427201886792453,-0.1348239182598297
-0.005426861886792453,-0.130117279500928
-0.005426521886792453,-0.1254764678575355
-0.005426181886792453,-0.1210989646761793
-0.005425841886792453,-0.115997363224223
-0.005425501886792453,-0.1111590702343031
-0.005425161886792453,-0.1068803077262107
-0.005424821886792453,-0.1023382367560818
-0.005424481886792453,-0.09799364713248027
-0.005424141886792453,-0.09457063712600633
-0.005423801886792453,-0.09111471356177304
-0.005423461886792453,-0.08848162894141326
-0.005423121886792453,-0.08588145787880325
-0.005422781886792453,-0.08288632412313388
-0.005422441886792453,-0.08031906661828309
-0.005422101886792453,-0.07778472267118219
-0.005421761886792453,-0.07600739055243264
-0.005421421886792453,-0.0740984042026718
-0.005421081886792453,-0.07159697381332547
-0.005420741886792453,-0.0687993214041823
-0.005420401886792453,-0.06560670630199608
-0.005420061886792453,-0.06231535052654036
-0.005419721886792453,-0.05892525407781594
-0.005419381886792453,-0.05616051522643818
-0.005419041886792453,-0.05458066445421944
-0.005418701886792453,-0.05240836964241634
-0.005418361886792453,-0.05112474088999094
-0.005418021886792453,-0.0495448901177722
-0.005417681886792453,-0.04720802751719475
-0.005417341886792453,-0.04506864626315243
-0.005417001886792453,-0.04200768539197863
-0.005416661886792453,-0.03924294654059038
-0.005416321886792453,-0.03624781278493113
-0.005415981886792453,-0.03377929595333935
-0.005415641886792453,-0.03121203844848072
-0.005415301886792453,-0.02946761988749236
-0.005414961886792453,-0.02838147248159198
-0.005414621886792453,-0.02752571997997505
-0.005414281886792453,-0.02657122680509134
-0.005413941886792453,-0.02594586920775475
