Analysis/New Tests_CMB/wrd01_d2s01/cmb10_ch34.csv

#Digilent WaveForms Oscilloscope Acquisition
#Device Name: ADP3450
#Serial Number: SN:210018B9D9B0
#Date Time: 2024-08-14 17:12:28.423.021.880
#Sample rate: 5.88235e+06Hz
#Samples: 32768
#Trigger: Source: Channel 3 Type: Edge Condition: Rising Level: 60 mV Hyst.: Auto HoldOff: 0 s
#Channel 3: Range: 100 mV/div Offset: 0 V Attenuation: 1 X Coupling: DC Bandwidth: 0 Hz Sample Mode: Average

Time (s),Channel 3 (V)
-0.003798419995647739,0.2136319176876664
-0.003798249995647739,0.2270606492515469
-0.003798079995647739,0.238712048696639
-0.003797909995647739,0.2486190295807606
-0.003797739995647739,0.2569790732504303
-0.003797569995647739,0.2636934390323478
-0.003797399995647739,0.2684988184645131
-0.003797229995647739,0.2721522233752737
-0.003797059995647739,0.2747853079956336
-0.003796889995647739,0.2759043689592885
-0.003796719995647739,0.2761018503058142
-0.003796549995647739,0.2752460978041973
-0.003796379995647739,0.2736991605897331
-0.003796209995647739,0.2716585200089466
-0.003796039995647739,0.2694533116393953
-0.003795869995647739,0.2666227456725034
-0.003795699995647739,0.2634959576858144
-0.003795529995647739,0.2601716883526102
-0.003795359995647739,0.2564195427685906
-0.003795189995647739,0.2529307056466007
-0.003795019995647739,0.249112732947079
-0.003794849995647739,0.2457555500561142
-0.003794679995647739,0.2422008858186284
-0.003794509995647739,0.2387449622543935
-0.003794339995647739,0.2353877793634287
-0.003794169995647739,0.23137232531738
-0.003793999995647739,0.2277518339643714
-0.003793829995647739,0.2237363799183155
-0.003793659995647739,0.2207412461626562
-0.003793489995647739,0.2168245327898585
-0.003793319995647739,0.2134673498988936
-0.003793149995647739,0.2103076483544619
-0.003792979995647739,0.2069833790212459
-0.003792809995647739,0.2042186401698631
-0.003792639995647739,0.2000715318927964
-0.003792469995647739,0.1977017557344608
-0.003792299995647739,0.194640794863287
-0.003792129995647739,0.1914810933188552
-0.003791959995647739,0.1877618612925845
-0.003791789995647739,0.1851616902299745
-0.003791619995647739,0.1822982107053333
-0.003791449995647739,0.1792372498341542
-0.003791279995647739,0.1759458940586985
-0.003791109995647739,0.1719962671281589
-0.003790939995647739,0.1698568858741055
-0.003790769995647739,0.1663680487521224
-0.003790599995647739,0.1631096065344272
-0.003790429995647739,0.1596207694124382
-0.003790259995647739,0.1564939814257553
-0.003790089995647739,0.153465934112336
-0.003789919995647739,0.1509974172807443
-0.003789749995647739,0.1478048021785522
-0.003789579995647739,0.1453362853469604
-0.003789409995647739,0.1429335956308778
-0.003789239995647739,0.1403663381260223
-0.003789069995647739,0.1383586111029943
-0.003788899995647739,0.1363179705222083
-0.003788729995647739,0.1344089841724475
-0.003788559995647739,0.1322037758028921
-0.003788389995647739,0.1301631352221056
-0.003788219995647739,0.1279579268525543
-0.003788049995647739,0.1261805947338082
-0.003787879995647739,0.123876645690986
-0.003787709995647739,0.1221322271299977
-0.003787539995647739,0.1198941052026878
-0.003787369995647739,0.1183471679882201
-0.003787199995647739,0.1164381816384593
-0.003787029995647739,0.1148912444239951
-0.003786859995647739,0.1131468258630007
-0.003786689995647739,0.1115340615330303
-0.003786519995647739,0.1098883836453024
-0.003786349995647739,0.1078148295067628
-0.003786179995647739,0.1064324600810739
-0.003786009995647739,0.1048855228666097
-0.003785839995647739,0.1032069314211245
-0.003785669995647739,0.1016599942066632
-0.003785499995647739,0.09971809429914427
-0.003785329995647739,0.09840155198895931
-0.003785159995647739,0.09692044189000693
-0.003784989995647739,0.09514310977126084
-0.003784819995647739,0.09385948101883025
-0.003784649995647739,0.09227963024661437
-0.003784479995647739,0.09069977947439564
-0.003784309995647739,0.08895536091340729
-0.003784139995647739,0.08707928812139434
-0.003783969995647739,0.08569691869570295
-0.003783799995647739,0.08375501878818763
-0.003783629995647739,0.081977686669438
-0.003783459995647739,0.08099027993680127
-0.003783289995647739,0.07990413253090287
-0.003783119995647739,0.07865341733622774
-0.003782949995647739,0.07720522079502723
-0.003782779995647739,0.07542788867628437
-0.003782609995647739,0.07444048194364442
-0.003782439995647739,0.07286063117142569
-0.003782269995647739,0.07164282953450929
-0.003782099995647739,0.07065542280187034
-0.003781929995647739,0.06907557202965162
-0.003781759995647739,0.06706784500662728
-0.003781589995647739,0.06789068395048756
-0.003781419995647739,0.06598169760072325
-0.003781249995647739,0.06450058750177087
-0.003781079995647739,0.063249872307095
-0.003780909995647739,0.06226246557445829
-0.003780739995647739,0.06127505884182338
-0.003780569995647739,0.06084718259101234
-0.003780399995647739,0.06012308432041208
-0.003780229995647739,0.05959646739634013
-0.003780059995647739,0.05930024537654816
-0.003779889995647739,0.05910276403002081
-0.003779719995647739,0.05870780133696613
-0.003779549995647739,0.05854323354819334
-0.003779379995647739,0.05827992508615688
-0.003779209995647739,0.05772039460432941
-0.003779039995647739,0.0574241725845384
-0.003778869995647739,0.05633802517863801
-0.003778699995647739,0.05594306248558333
-0.003778529995647739,0.0548898286374375
-0.003778359995647739,0.0541986439245918
-0.003778189995647739,0.05347454565399155
-0.003778019995647739,0.0526846202678814
-0.003777849995647739,0.05225674401707293
-0.003777679995647739,0.05163138641973634
-0.003777509995647739,0.05140099151545277
-0.003777339995647739,0.05047941189832685
-0.003777169995647739,0.05044649834057229
-0.003776999995647739,0.04991988141649842
-0.003776829995647739,0.04939326449242647
-0.003776659995647739,0.04880082045284444
-0.003776489995647739,0.04814254929775161
-0.003776319995647739,0.0472209696806257
-0.003776149995647739,0.04656269852553455
-0.003775979995647739,0.04524615621535011
-0.003775809995647739,0.04406126813618821
-0.003775639995647739,0.04234976313295125
-0.003775469995647739,0.04093448014950247
-0.003775299995647739,0.0393875429350411
-0.003775129995647739,0.03816974129812249
-0.003774959995647739,0.03668863119916526
-0.003774789995647739,0.03550374312000337
-0.003774619995647739,0.03415428725206653
-0.003774449995647739,0.03336436186595572
-0.003774279995647739,0.03257443647984778
-0.003774109995647739,0.03171868397822929
-0.003773939995647739,0.03158702974721053
-0.003773769995647739,0.03129080772742005
-0.003773599995647739,0.03138954840068373
-0.003773429995647739,0.03122498061191124
-0.003773259995647739,0.03135663484292917
-0.003773089995647739,0.03168577042047474
-0.003772919995647739,0.0321794737867922
-0.003772749995647739,0.03221238734454766
-0.003772579995647739,0.032409868691075
-0.003772409995647739,0.03257443647984749
-0.003772239995647739,0.03316688051942981
-0.003772069995647739,0.03211364667128398
-0.003771899995647739,0.03168577042047552
-0.003771729995647739,0.03129080772742005
-0.003771559995647739,0.03152120263170195
-0.003771389995647739,0.02997426541724059
-0.003771219995647739,0.03000717897499233
-0.003771049995647739,0.02997426541723777
-0.003770879995647739,0.02895394512684836
-0.003770709995647739,0.02822984685624624
-0.003770539995647739,0.0280323655097189
-0.003770369995647739,0.02664999608403002
-0.003770199995647739,0.02589298425567269
-0.003770029995647739,0.02566258935139079
-0.003769859995647739,0.0255638486781273
-0.003769689995647739,0.02579424358240902
-0.003769519995647739,0.02582715714016358
-0.003769349995647739,0.02576133002465446
-0.003769179995647739,0.02632086050648193
-0.003769009995647739,0.02635377406423649
-0.003768839995647739,0.02645251473750016
-0.003768669995647739,0.02661708252627295
-0.003768499995647739,0.0271107858925913
-0.003768329995647739,0.02938182137765574
-0.003768159995647739,0.02691330454606396
-0.003767989995647739,0.02694621810381852
-0.003767819995647739,0.0271107858925913
-0.003767649995647739,0.02730826723911607
-0.003767479995647739,0.02589298425567269
-0.003767309995647739,0.02536636733159978
-0.003767139995647739,0.02434604704120838
-0.003766969995647739,0.02428021992569939
-0.003766799995647739,0.02302950473102622
-0.003766629995647739,0.02197627088287979
-0.003766459995647739,0.02164713530533482
-0.003766289995647739,0.02079138280371634
-0.003766119995647739,0.02026476587964313
-0.003765949995647739,0.02010019809087064
-0.003765779995647739,0.01996854385985241
-0.003765609995647739,0.01983688962883454
-0.003765439995647739,0.02003437097536152
-0.003765269995647739,0.02069264213045267
-0.003765099995647739,0.0207584692459631
-0.003764929995647739,0.02148256751656204
-0.003764759995647739,0.02240414713368964
-0.003764589995647739,0.02237123357593616
-0.003764419995647739,0.02296367761551711
-0.003764249995647739,0.02296367761551711
-0.003764079995647739,0.02329281319306273
-0.003763909995647739,0.02332572675081724
-0.003763739995647739,0.02312824540428989
-0.003763569995647739,0.02319407251979811
-0.003763399995647739,0.02270036915348065
-0.003763229995647739,0.02233832001818052
-0.003763059995647739,0.02214083867165354
-0.003762889995647739,0.02168004886308938
-0.003762719995647739,0.02256871492246242
-0.003762549995647739,0.02154839463207301
-0.003762379995647739,0.02118634549677102
-0.003762209995647739,0.02135091328554381
-0.003762039995647739,0.02131799972778931
-0.003761869995647739,0.02079138280371634
-0.003761699995647739,0.02069264213045267
-0.003761529995647739,0.02046224722617119
-0.003761359995647739,0.02003437097536152
-0.003761189995647739,0.01940901337802494
-0.003761019995647739,0.01927735914700695
-0.003760849995647739,0.0187507422229338
-0.003760679995647739,0.01848743376089734
-0.003760509995647739,0.01799373039457988
-0.003760339995647739,0.01763168125927886
-0.003760169995647739,0.01710506433520594
-0.003759999995647739,0.01677592875766097
-0.003759829995647739,0.01684175587316948
-0.003759659995647739,0.01651262029562391
-0.003759489995647739,0.01601891692930646
-0.003759319995647739,0.01582143558277821
-0.003759149995647739,0.01592017625604189
-0.003758979995647739,0.0157885220250239
-0.003758809995647739,0.01661136096888758
-0.003758639995647739,0.01657844741113303
-0.003758469995647739,0.01697341010418771
-0.003758299995647739,0.01750002702826063
-0.003758129995647739,0.01865200154967013
-0.003757959995647739,0.01907987780047937
-0.003757789995647739,0.01980397607107963
-0.003757619995647739,0.02023185232188887
-0.003757449995647739,0.02033059299515254
-0.003757279995647739,0.02046224722617166
-0.003757109995647739,0.02095595059248912
-0.003756939995647739,0.02125217261228014
-0.003756769995647739,0.02075846924596268
-0.003756599995647739,0.02125217261228014
-0.003756429995647739,0.02131799972778925
-0.003756259995647739,0.02158130818982523
-0.003756089995647739,0.02131799972778925
-0.003755919995647739,0.02089012347698001
-0.003755749995647739,0.02095595059248894
-0.003755579995647739,0.02085720991922545
-0.003755409995647739,0.02065972857269811
-0.003755239995647739,0.0207913828037158
-0.003755069995647739,0.02049516078392532
-0.003754899995647739,0.02006728453311608
-0.003754729995647739,0.02003437097536044
-0.003754559995647739,0.0194419269357795
-0.003754389995647739,0.01914570491598848
-0.003754219995647739,0.01848743376089638
-0.003754049995647739,0.01796081683682443
-0.003753879995647739,0.01720380500846961
-0.003753709995647739,0.01690758298867806
-0.003753539995647739,0.01661136096888758
-0.003753369995647739,0.0173683727972424
-0.003753199995647739,0.01585434914053331
-0.003753029995647739,0.01615057116032378
-0.003752859995647739,0.01568978135175999
-0.003752689995647739,0.015492300005233
-0.003752519995647739,0.01522899154319619
-0.003752349995647739,0.01522899154319619
-0.003752179995647739,0.01549230000523216
-0.003752009995647739,0.01651262029562391
-0.003751839995647739,0.01638096606460569
-0.003751669995647739,0.01759876770152208
-0.003751499995647739,0.01789498972131531
-0.003751329995647739,0.01815829818335177
-0.003751159995647739,0.01848743376089674
-0.003750989995647739,0.0185203473186519
-0.003750819995647739,0.0187507422229338
-0.003750649995647739,0.01848743376089782
-0.003750479995647739,0.01881656933844291
-0.003750309995647739,0.0178291626058062
-0.003750139995647739,0.01773042193254271
-0.003749969995647739,0.01710506433520594
-0.003749799995647739,0.01700632366194227
-0.003749629995647739,0.01690758298867878
-0.003749459995647739,0.01694049654643316
-0.003749289995647739,0.01703923721969683
-0.003749119995647739,0.01684175587316985
-0.003748949995647739,0.01700632366194227
-0.003748779995647739,0.01671010164215126
-0.003748609995647739,0.0162163982758338
-0.003748439995647739,0.01677592875766037
-0.003748269995647739,0.01631513894909657
-0.003748099995647739,0.01578852202502366
-0.003747929995647739,0.01562395423625087
-0.003747759995647739,0.01532773221645986
-0.003747589995647739,0.01509733731217796
-0.003747419995647739,0.01427449836831403
-0.003747249995647739,0.01397827634852302
-0.003747079995647739,0.01292504250037719
-0.003746909995647739,0.01285921538486808
-0.003746739995647739,0.0122996849030406
-0.003746569995647739,0.01216803067202238
-0.003746399995647739,0.01150975951693207
-0.003746229995647739,0.01197054932549503
-0.003746059995647739,0.01177306797896769
-0.003745889995647739,0.0120692899987587
-0.003745719995647739,0.0120692899987587
-0.003745549995647739,0.01216803067202238
-0.003745379995647739,0.01262882048058641
-0.003745209995647739,0.0127604747116044
-0.003745039995647739,0.01308961028914997
-0.003744869995647739,0.01308961028915147
-0.003744699995647739,0.0139124492330139
-0.003744529995647739,0.01387953567525935
-0.003744359995647739,0.01401118990627895
-0.003744189995647739,0.01476820173463239
-0.003744019995647739,0.01430741192606859
-0.003743849995647739,0.01568978135175891
-0.003743679995647739,0.01509733731217796
-0.003743509995647739,0.01519607798544163
-0.003743339995647739,0.01466946106136782
-0.003743169995647739,0.01417575769505036
-0.003742999995647739,0.0134516594244501
-0.003742829995647739,0.01335291875118571
-0.003742659995647739,0.01295795605813175
-0.003742489995647739,0.01236551201854972
-0.003742319995647739,0.01197054932549449
-0.003742149995647739,0.01167432730570402
-0.003741979995647739,0.01095022903510376
-0.003741809995647739,0.01131227817040323
-0.003741639995647739,0.01108188326612199
-0.003741469995647739,0.0116085001901949
-0.003741299995647739,0.01233259846079384
-0.003741129995647739,0.01236551201854972
-0.003740959995647739,0.0129908696158863
-0.003740789995647739,0.0130566967313953
-0.003740619995647739,0.01351748653995922
-0.003740449995647739,0.01315543740465909
-0.003740279995647739,0.01387953567525803
-0.003740109995647739,0.01325417807792276
-0.003739939995647739,0.01381370855975023
-0.003739769995647739,0.01322126452016928
-0.003739599995647739,0.01335291875118643
-0.003739429995647739,0.01289212894262263
-0.003739259995647739,0.01308961028914962
-0.003739089995647739,0.01269464759609529
-0.003738919995647739,0.01289212894262263
-0.003738749995647739,0.01276047471160464
-0.003738579995647739,0.01315543740465909
-0.003738409995647739,0.0132212645201682
-0.003738239995647739,0.01368205432873116
-0.003738069995647739,0.01404410346403213
-0.003737899995647739,0.01427449836831403
-0.003737729995647739,0.0146365475036135
-0.003737559995647739,0.0148340288501415
-0.003737389995647739,0.01542647288972353
-0.003737219995647739,0.01542647288972353
-0.003737049995647739,0.015986003371551
-0.003736879995647739,0.01671010164215126
-0.003736709995647739,0.01707215077745139
-0.003736539995647739,0.01687466943092404
-0.003736369995647739,0.01687466943092404
-0.003736199995647739,0.01657844741113303
-0.003736029995647739,0.0161834847180775
-0.003735859995647739,0.01572269490951454
-0.003735689995647739,0.01522899154319619
-0.003735519995647739,0.01453780683034977
-0.003735349995647739,0.0141428441372958
-0.003735179995647739,0.01315543740465909
-0.003735009995647739,0.01233259846079378
-0.003734839995647739,0.01157558663244035
-0.003734669995647739,0.01091731547734921
-0.003734499995647739,0.01104896970836552
-0.003734329995647739,0.009995735860221606
-0.003734159995647739,0.01039069855327629
-0.003733989995647739,0.01035778499552323
-0.003733819995647739,0.01118062393938566
-0.003733649995647739,0.01147684595917668
-0.003733479995647739,0.01210220355651464
-0.003733309995647739,0.01285921538486808
-0.003733139995647739,0.0132212645201682
-0.003732969995647739,0.01355040009771497
-0.003732799995647739,0.01420867125280492
-0.003732629995647739,0.01417575769505036
-0.003732459995647739,0.014373239041578
-0.003732289995647739,0.01453780683035049
-0.003732119995647739,0.01450489327259593
-0.003731949995647739,0.01470237461912213
-0.003731779995647739,0.01407701702178669
-0.003731609995647739,0.01447197971484137
-0.003731439995647739,0.01397827634852391
-0.003731269995647739,0.01374788144424112
-0.003731099995647739,0.01364914077097745
-0.003730929995647739,0.01361622721322295
-0.003730759995647739,0.01348457298220466
-0.003730589995647739,0.01361622721322289
-0.003730419995647739,0.01332000519343241
-0.003730249995647739,0.01374788144424112
-0.003730079995647739,0.01341874586669555
-0.003729909995647739,0.01374788144424052
-0.003729739995647739,0.01374788144424112
-0.003729569995647739,0.01394536279076846
-0.003729399995647739,0.01391244923301396
-0.003729229995647739,0.01381370855975023
-0.003729059995647739,0.01341874586669555
-0.003728889995647739,0.01322126452016856
-0.003728719995647739,0.01374788144424112
-0.003728549995647739,0.01341874586669555
-0.003728379995647739,0.01345165942445004
-0.003728209995647739,0.01355040009771377
-0.003728039995647739,0.0132212645201682
-0.003727869995647739,0.01338583230894069
-0.003727699995647739,0.01341874586669555
-0.003727529995647739,0.0132212645201682
-0.003727359995647739,0.0132541780779227
-0.003727189995647739,0.0132212645201682
-0.003727019995647739,0.01371496788648656
-0.003726849995647739,0.01361622721322289
-0.003726679995647739,0.01348457298220466
-0.003726509995647739,0.013682054328732
-0.003726339995647739,0.01328709163567732
-0.003726169995647739,0.0134516594244501
-0.003725999995647739,0.0134516594244501
-0.003725829995647739,0.013682054328732
-0.003725659995647739,0.01315543740465909
-0.003725489995647739,0.01315543740465909
-0.003725319995647739,0.01315543740465909
-0.003725149995647739,0.01355040009771323
-0.003724979995647739,0.01325417807792276
-0.003724809995647739,0.01312252384690453
-0.003724639995647739,0.01269464759609487
-0.003724469995647739,0.01246425269181339
-0.003724299995647739,0.01272756115384985
-0.003724129995647739,0.01259590692283228
-0.003723959995647739,0.01295795605813175
-0.003723789995647739,0.01246425269181339
-0.003723619995647739,0.01220094422977687
-0.003723449995647739,0.01216803067202238
-0.003723279995647739,0.01315543740465909
-0.003723109995647739,0.01210220355651949
-0.003722939995647739,0.0155252135629872
-0.003722769995647739,0.01147684595917668
-0.003722599995647739,0.01236551201855133
-0.003722429995647739,0.01325417807792276
-0.003722259995647739,0.01378079500199567
-0.003722089995647739,0.01394536279076846
-0.003721919995647739,0.01394536279076846
-0.003721749995647739,0.01378079500199567
-0.003721579995647739,0.01361622721322295
-0.003721409995647739,0.01364914077097745
-0.003721239995647739,0.01394536279076846
-0.003721069995647739,0.01394536279076972
-0.003720899995647739,0.01463654750361416
-0.003720729995647739,0.01519607798544163
-0.003720559995647739,0.0155581271207411
-0.003720389995647739,0.01651262029562391
-0.003720219995647739,0.01684175587316948
-0.003720049995647739,0.01756585414376842
-0.003719879995647739,0.01828995241437
-0.003719709995647739,0.01914570491598848
-0.003719539995647739,0.01960649472455144
-0.003719369995647739,0.02016602520637975
-0.003719199995647739,0.0203635065529071
-0.003719029995647739,0.02046224722617059
-0.003718859995647739,0.02046224722617077
