Analysis/New Tests_CMB/wrd01_d2s01/cmb12_ch34.csv

#Digilent WaveForms Oscilloscope Acquisition
#Device Name: ADP3450
#Serial Number: SN:210018B9D9B0
#Date Time: 2024-08-15 11:59:50.313.382.280
#Sample rate: 5.88235e+06Hz
#Samples: 32768
#Trigger: Source: Channel 3 Type: Edge Condition: Rising Level: 40 mV Hyst.: Auto HoldOff: 0 s
#Channel 3: Range: 100 mV/div Offset: 0 V Attenuation: 1 X Coupling: DC Bandwidth: 0 Hz Sample Mode: Average

Time (s),Channel 3 (V)
-0.003168943468125497,0.02372068944387192
-0.003168773468125496,0.02345738098183456
-0.003168603468125497,0.02296367761551711
-0.003168433468125497,0.02273328271123521
-0.003168263468125496,0.02260162848021656
-0.003168093468125497,0.02237123357593508
-0.003167923468125497,0.02158130818982571
-0.003167753468125496,0.02121925905452534
-0.003167583468125497,0.02108760482350735
-0.003167413468125497,0.02075846924596178
-0.003167243468125496,0.02056098789943438
-0.003167073468125497,0.02052807434167988
-0.003166903468125497,0.02042933366841621
-0.003166733468125496,0.02036350655290691
-0.003166563468125497,0.02026476587964342
-0.003166393468125497,0.01842160664538823
-0.003166223468125496,0.02042933366841723
-0.003166053468125497,0.02098886415024368
-0.003165883468125497,0.0210546912657528
-0.003165713468125496,0.02131799972778937
-0.003165543468125497,0.02138382684329837
-0.003165373468125497,0.02158130818982571
-0.003165203468125497,0.02131799972778973
-0.003165033468125497,0.02148256751656204
-0.003164863468125497,0.0217458759785985
-0.003164693468125497,0.02154839463207151
-0.003164523468125497,0.02194335732512584
-0.003164353468125497,0.02276619626898976
-0.003164183468125497,0.02128508617003739
-0.003164013468125497,0.02237123357593508
-0.003163843468125497,0.02194335732512584
-0.003163673468125497,0.02197627088288033
-0.003163503468125497,0.02246997424919875
-0.003163333468125497,0.02125217261228014
-0.003163163468125497,0.02121925905452564
-0.003162993468125496,0.02049516078392532
-0.003162823468125497,0.01973814895557051
-0.003162653468125497,0.01940901337802554
-0.003162483468125496,0.01878365578068835
-0.003162313468125497,0.0192115320314976
-0.003162143468125497,0.01861908799191665
-0.003161973468125496,0.0187507422229338
-0.003161803468125497,0.01868491510742468
-0.003161633468125497,0.01855326087640669
-0.003161463468125496,0.01871782866517924
-0.003161293468125497,0.01891531001170658
-0.003161123468125497,0.01924444558925155
-0.003160953468125496,0.0192115320314976
-0.003160783468125497,0.01977106251332507
-0.003160613468125497,0.02026476587964342
-0.003160443468125496,0.02082429636147089
-0.003160273468125497,0.02056098789943444
-0.003160103468125497,0.02164713530533482
-0.003159933468125496,0.02214083867165318
-0.003159763468125497,0.02052807434167988
-0.003159593468125497,0.02102177770799824
-0.003159423468125496,0.02065972857269697
-0.003159253468125497,0.02003437097536152
-0.003159083468125497,0.01904696424272481
-0.003158913468125496,0.01779624904805002
-0.003158743468125497,0.0169075829886786
-0.003158573468125497,0.0162163982758329
-0.003158403468125496,0.01549230000523055
-0.003158233468125497,0.01434032548382314
-0.003158063468125497,0.01374788144424112
-0.003157893468125496,0.01361622721322277
-0.003157723468125497,0.01355040009771377
-0.003157553468125497,0.0134516594244501
-0.003157383468125496,0.01345165942445034
-0.003157213468125497,0.01358331365546833
-0.003157043468125497,0.01335291875118643
-0.003156873468125496,0.01282630182711591
-0.003156703468125497,0.0141428441372958
-0.003156533468125497,0.01466946106136872
-0.003156363468125496,0.01486694240789618
-0.003156193468125497,0.01493276952340517
-0.003156023468125497,0.01466946106136872
-0.003155853468125496,0.01430741192606745
-0.003155683468125497,0.013682054328732
-0.003155513468125497,0.01394536279076846
-0.003155343468125496,0.01394536279076762
-0.003155173468125497,0.01348457298220466
-0.003155003468125497,0.01282630182711352
-0.003154833468125497,0.0130896102891495
-0.003154663468125497,0.01325417807792276
-0.003154493468125497,0.01364914077097745
-0.003154323468125497,0.01381370855974993
-0.003154153468125497,0.01466946106136872
-0.003153983468125497,0.01447197971484137
-0.003153813468125497,0.01486694240789534
-0.003153643468125497,0.01476820173463239
-0.003153473468125497,0.01555812712074176
-0.003153303468125497,0.01588726269828673
-0.003153133468125497,0.01608474404481467
-0.003152963468125497,0.01601891692930556
-0.003152793468125497,0.01582143558277857
-0.003152623468125496,0.01536064577421441
-0.003152453468125497,0.01466946106136872
-0.003152283468125497,0.01443906615708724
-0.003152113468125496,0.01417575769505036
-0.003151943468125497,0.01361622721322289
-0.003151773468125497,0.01335291875118691
-0.003151603468125496,0.01285921538486808
-0.003151433468125497,0.0127604747116044
-0.003151263468125497,0.01233259846079594
-0.003151093468125496,0.01213511711426782
-0.003150923468125497,0.01193763576774048
-0.003150753468125497,0.01141101884366852
-0.003150583468125496,0.01081857480408553
-0.003150413468125497,0.01068692057306731
-0.003150243468125497,0.01124645105489478
-0.003150073468125496,0.01134519172815845
-0.003149903468125497,0.01121353749714022
-0.003149733468125497,0.0118388950944768
-0.003149563468125496,0.01223385778753149
-0.003149393468125497,0.01272756115384985
-0.003149223468125497,0.01285921538486808
-0.003149053468125496,0.01315543740465909
-0.003148883468125497,0.01371496788648656
-0.003148713468125497,0.01355040009771377
-0.003148543468125496,0.01374788144424088
-0.003148373468125497,0.01361622721322289
-0.003148203468125497,0.01381370855975023
-0.003148033468125496,0.01332000519343128
-0.003147863468125497,0.0129908696158863
-0.003147693468125497,0.01348457298220466
-0.003147523468125496,0.0137807950019943
-0.003147353468125497,0.01302378317364086
-0.003147183468125497,0.01397827634852302
-0.003147013468125496,0.01513025086993275
-0.003146843468125497,0.01526190510095074
-0.003146673468125497,0.01588726269828733
-0.003146503468125496,0.0165455338533802
-0.003146333468125497,0.01750002702826063
-0.003146163468125497,0.01812538462559721
-0.003145993468125496,0.01865200154967073
-0.003145823468125497,0.01898113712721569
-0.003145653468125497,0.01911279135823393
-0.003145483468125496,0.01907987780047925
-0.003145313468125497,0.01901405068497026
-0.003145143468125497,0.01835577952987911
-0.003144973468125496,0.01776333549029475
-0.003144803468125497,0.01647970673786936
-0.003144633468125497,0.01572269490951454
-0.003144463468125496,0.01542647288972095
-0.003144293468125497,0.01401118990627757
-0.003144123468125497,0.01404410346403213
-0.003143953468125497,0.01292504250037922
-0.003143783468125497,0.01223385778753149
-0.003143613468125497,0.01187180865223136
-0.003143443468125497,0.01177306797896787
-0.003143273468125497,0.01177306797896769
-0.003143103468125497,0.01114771038163111
-0.003142933468125497,0.0111806239393856
-0.003142763468125497,0.01134519172815845
-0.003142593468125497,0.01150975951693123
-0.003142423468125497,0.01160850019019472
-0.003142253468125496,0.01193763576774048
-0.003142083468125497,0.01213511711426782
-0.003141913468125497,0.01187180865223184
-0.003141743468125496,0.01203637644100415
-0.003141573468125497,0.0120692899987587
-0.003141403468125497,0.01187180865223172
-0.003141233468125496,0.01249716624956795
-0.003141063468125497,0.01262882048058617
-0.003140893468125497,0.01289212894262215
-0.003140723468125496,0.01269464759609529
-0.003140553468125497,0.01335291875118643
-0.003140383468125497,0.01351748653995892
-0.003140213468125496,0.01430741192606859
-0.003140043468125497,0.01509733731217796
-0.003139873468125497,0.01539355933196897
-0.003139703468125496,0.01522899154319619
-0.003139533468125497,0.0157556084672691
-0.003139363468125497,0.01582143558277821
-0.003139193468125496,0.01562395423625087
-0.003139023468125497,0.01516316442768707
-0.003138853468125497,0.01466946106136872
-0.003138683468125496,0.01378079500199567
-0.003138513468125497,0.01361622721322289
-0.003138343468125497,0.01282630182711352
-0.003138173468125496,0.01157558663244178
-0.003138003468125497,0.01236551201854972
-0.003137833468125497,0.01025904432225806
-0.003137663468125496,0.01012739009123894
-0.003137493468125497,0.009633686724921478
-0.003137323468125497,0.009962822302467049
-0.003137153468125496,0.00996282230246681
-0.003136983468125497,0.00983116807144882
-0.003136813468125497,0.01012739009123984
-0.003136643468125496,0.01039069855327707
-0.003136473468125497,0.01081857480408553
-0.003136303468125497,0.01114771038163111
-0.003136133468125496,0.01190472220998568
-0.003135963468125497,0.01177306797896769
-0.003135793468125497,0.01187180865223136
-0.003135623468125496,0.01243133913405937
-0.003135453468125497,0.01272756115384985
-0.003135283468125497,0.01351748653995922
-0.003135113468125496,0.0141428441372982
-0.003134943468125497,0.01545938644747809
-0.003134773468125497,0.01516316442768707
-0.003134603468125496,0.01608474404481581
-0.003134433468125497,0.01671010164215126
-0.003134263468125497,0.01753294058601518
-0.003134093468125496,0.01802664395233498
-0.003133923468125497,0.01881656933844291
-0.003133753468125497,0.01861908799191557
-0.003133583468125497,0.01868491510742456
-0.003133413468125497,0.01766459481703341
-0.003133243468125497,0.01723671856622417
-0.003133073468125497,0.0169075829886792
-0.003132903468125497,0.01588726269828733
-0.003132733468125497,0.01513025086993251
-0.003132563468125497,0.01430741192607008
-0.003132393468125497,0.01358331365546833
-0.003132223468125497,0.01335291875118643
-0.003132053468125497,0.01318835096241395
-0.003131883468125497,0.01279338826935896
-0.003131713468125497,0.01289212894262263
-0.003131543468125497,0.01312252384690411
-0.003131373468125496,0.01325417807792276
-0.003131203468125497,0.01364914077097745
-0.003131033468125497,0.01397827634852242
-0.003130863468125496,0.01424158481055947
-0.003130693468125497,0.01457072038810504
-0.003130523468125497,0.01447197971484155
-0.003130353468125496,0.01430741192606859
-0.003130183468125497,0.01424158481055947
-0.003130013468125497,0.01457072038810444
-0.003129843468125496,0.01434032548382314
-0.003129673468125497,0.01440615259933226
-0.003129503468125497,0.01443906615708676
-0.003129333468125496,0.01443906615708682
-0.003129163468125497,0.01434032548382314
-0.003128993468125497,0.01401118990627757
-0.003128823468125496,0.01381370855975023
-0.003128653468125497,0.013682054328732
-0.003128483468125497,0.01348457298220466
-0.003128313468125496,0.01335291875118643
-0.003128143468125497,0.01371496788648656
-0.003127973468125497,0.01328709163567732
-0.003127803468125496,0.01315543740465861
-0.003127633468125497,0.01289212894262263
-0.003127463468125497,0.01249716624956795
-0.003127293468125496,0.01213511711426716
-0.003127123468125497,0.01177306797896769
-0.003126953468125497,0.01187180865223136
-0.003126783468125496,0.01206928999876038
-0.003126613468125497,0.0129908696158863
-0.003126443468125497,0.01223385778753149
-0.003126273468125496,0.01262882048058563
-0.003126103468125497,0.01233259846079516
-0.003125933468125497,0.01308961028914997
-0.003125763468125496,0.0125959069228324
-0.003125593468125497,0.01302378317364086
-0.003125423468125497,0.01338583230894099
-0.003125253468125496,0.01295795605813217
-0.003125083468125497,0.01318835096241365
-0.003124913468125497,0.01374788144424112
-0.003124743468125496,0.01371496788648626
-0.003124573468125497,0.01355040009771377
-0.003124403468125497,0.01407701702178669
-0.003124233468125496,0.01292504250037863
-0.003124063468125497,0.01371496788648656
-0.003123893468125497,0.01249716624956795
-0.003123723468125496,0.01226677134528551
-0.003123553468125497,0.01197054932549503
-0.003123383468125497,0.01134519172815845
-0.003123213468125497,0.01131227817040395
-0.003123043468125497,0.01088440191959465
-0.003122873468125497,0.01101605615061288
-0.003122703468125497,0.01085148836184039
-0.003122533468125497,0.01104896970836743
-0.003122363468125497,0.01131227817040389
-0.003122193468125497,0.01164141374794886
-0.003122023468125497,0.01187180865223136
-0.003121853468125497,0.01197054932549503
-0.003121683468125497,0.0123325984607945
-0.003121513468125497,0.0125300798073225
-0.003121343468125497,0.01239842557630427
-0.003121173468125497,0.01249716624956777
-0.003121003468125496,0.01239842557630427
-0.003120833468125497,0.0122996849030406
-0.003120663468125497,0.01253007980732208
-0.003120493468125496,0.01266173403834073
-0.003120323468125497,0.01302378317364086
-0.003120153468125497,0.01325417807792234
-0.003119983468125496,0.01348457298220466
-0.003119813468125497,0.01308961028914997
-0.003119643468125497,0.01259590692283252
-0.003119473468125496,0.01315543740465909
-0.003119303468125497,0.01256299336507706
-0.003119133468125497,0.01315543740465801
-0.003118963468125496,0.01358331365546833
-0.003118793468125497,0.01407701702178669
-0.003118623468125497,0.01440615259933226
-0.003118453468125496,0.01539355933196897
-0.003118283468125497,0.01542647288972353
-0.003118113468125497,0.015986003371551
-0.003117943468125496,0.01526190510095074
-0.003117773468125497,0.01489985596565062
-0.003117603468125497,0.01539355933196897
-0.003117433468125496,0.0146036339458596
-0.003117263468125497,0.01450489327259593
-0.003117093468125497,0.01430741192606859
-0.003116923468125496,0.01374788144423908
-0.003116753468125497,0.01262882048058617
-0.003116583468125497,0.01193763576774048
-0.003116413468125496,0.01177306797896733
-0.003116243468125497,0.01157558663244035
-0.003116073468125497,0.01114771038163111
-0.003115903468125496,0.01104896970836648
-0.003115733468125497,0.01052235278429452
-0.003115563468125497,0.01052235278429452
-0.003115393468125496,0.00963368672492076
-0.003115223468125497,0.009238724031866792
-0.003115053468125497,0.00950203249390325
-0.003114883468125496,0.009403291820641015
-0.003114713468125497,0.01019321720674895
-0.003114543468125497,0.009337464705130465
-0.003114373468125496,0.008843761338812227
-0.003114203468125497,0.008909588454321223
-0.003114033468125497,0.00950203249390325
-0.003113863468125496,0.009534946051658107
-0.003113693468125497,0.009699513840430593
-0.003113523468125497,0.00973242739818515
-0.003113353468125496,0.01009447653348522
-0.003113183468125497,0.01006156297573072
-0.003113013468125497,0.01052235278429452
-0.003112843468125496,0.01137810528591444
-0.003112673468125497,0.01216803067202238
-0.003112503468125497,0.01285921538486808
-0.003112333468125497,0.0137478814442395
-0.003112163468125497,0.01476820173463239
-0.003111993468125497,0.0148340288501415
-0.003111823468125497,0.01519607798544097
-0.003111653468125497,0.0155252135629872
-0.003111483468125497,0.01513025086993251
-0.003111313468125497,0.01486694240789654
-0.003111143468125497,0.01499859663891429
-0.003110973468125497,0.01463654750361416
-0.003110803468125497,0.0141099305795422
-0.003110633468125497,0.0139124492330139
-0.003110463468125497,0.01394536279076846
-0.003110293468125497,0.01361622721322349
-0.003110123468125496,0.01371496788648656
-0.003109953468125497,0.013682054328732
-0.003109783468125497,0.01348457298220502
-0.003109613468125496,0.01470237461912327
-0.003109443468125497,0.01249716624956795
-0.003109273468125497,0.01328709163567588
-0.003109103468125496,0.01351748653995922
-0.003108933468125497,0.01358331365546833
-0.003108763468125497,0.01338583230894135
-0.003108593468125496,0.01328709163567732
-0.003108423468125497,0.0134516594244501
-0.003108253468125497,0.01312252384690513
-0.003108083468125496,0.01302378317364086
-0.003107913468125497,0.01355040009771377
-0.003107743468125497,0.0127604747116044
-0.003107573468125496,0.0127604747116044
-0.003107403468125497,0.01174015442121313
-0.003107233468125497,0.01174015442121313
-0.003107063468125496,0.01111479682387655
-0.003106893468125497,0.01068692057306731
-0.003106723468125497,0.01062109345755819
-0.003106553468125496,0.01006156297573108
-0.003106383468125497,0.01025904432225806
-0.003106213468125497,0.01032487143776718
-0.003106043468125496,0.0104894392265405
-0.003105873468125497,0.01078566124633098
-0.003105703468125497,0.01091731547734921
-0.003105533468125496,0.01137810528591384
-0.003105363468125497,0.0118388950944768
-0.003105193468125497,0.01220094422977693
-0.003105023468125496,0.01239842557630481
-0.003104853468125497,0.01269464759609529
-0.003104683468125497,0.01341874586669555
-0.003104513468125496,0.01364914077097745
-0.003104343468125497,0.01364914077097745
-0.003104173468125497,0.01394536279076846
-0.003104003468125496,0.01430741192606685
-0.003103833468125497,0.01335291875118643
-0.003103663468125497,0.0132212645201682
-0.003103493468125496,0.01253007980732196
-0.003103323468125497,0.01223385778753149
-0.003103153468125497,0.01150975951693123
-0.003102983468125496,0.01127936461264898
-0.003102813468125497,0.01108188326612199
-0.003102643468125497,0.01078566124633098
-0.003102473468125496,0.01065400701531299
-0.003102303468125497,0.01078566124633098
-0.003102133468125497,0.01121353749714022
-0.003101963468125497,0.01160850019019419
-0.003101793468125497,0.01150975951693123
-0.003101623468125497,0.0120692899987587
-0.003101453468125497,0.01249716624956717
-0.003101283468125497,0.01289212894262263
-0.003101113468125497,0.01384662211750479
-0.003100943468125497,0.01417575769504976
-0.003100773468125497,0.01430741192606859
-0.003100603468125497,0.01480111529238694
-0.003100433468125497,0.01493276952340493
-0.003100263468125497,0.01489985596565062
-0.003100093468125497,0.01526190510095074
-0.003099923468125497,0.01592017625604069
-0.003099753468125496,0.01615057116032378
-0.003099583468125497,0.01585434914053277
-0.003099413468125497,0.01572269490951478
-0.003099243468125496,0.01509733731217796
-0.003099073468125497,0.0152948186587053
-0.003098903468125497,0.01499859663891483
-0.003098733468125496,0.01473528817687783
-0.003098563468125497,0.01417575769505036
-0.003098393468125497,0.01427449836831385
-0.003098223468125496,0.01378079500199567
-0.003098053468125497,0.01348457298220466
-0.003097883468125497,0.01253007980732424
-0.003097713468125496,0.0125300798073225
-0.003097543468125497,0.01249716624956795
-0.003097373468125497,0.01269464759609529
-0.003097203468125496,0.01262882048058617
-0.003097033468125497,0.01289212894262263
-0.003096863468125497,0.0134516594244501
-0.003096693468125496,0.013682054328732
-0.003096523468125497,0.01397827634852302
-0.003096353468125497,0.01420867125280492
-0.003096183468125496,0.01374788144424112
-0.003096013468125497,0.01374788144424112
-0.003095843468125497,0.01381370855975023
-0.003095673468125496,0.0136820543287329
-0.003095503468125497,0.01417575769505036
-0.003095333468125497,0.01387953567525935
-0.003095163468125496,0.0142086712528048
-0.003094993468125497,0.0141428441372958
-0.003094823468125497,0.0139124492330139
-0.003094653468125496,0.01450489327259569
-0.003094483468125497,0.0143732390415777
-0.003094313468125497,0.0146036339458596
-0.003094143468125496,0.01483402885014126
-0.003093973468125497,0.01470237461912327
-0.003093803468125497,0.0150644237544234
-0.003093633468125496,0.01496568308115955
-0.003093463468125497,0.01486694240789606
-0.003093293468125497,0.01384662211750479
-0.003093123468125496,0.01391244923301384
-0.003092953468125497,0.01387953567525935
-0.003092783468125497,0.01341874586669555
-0.003092613468125496,0.0134845729822046
-0.003092443468125497,0.0134516594244501
-0.003092273468125497,0.01292504250037719
-0.003092103468125496,0.01272756115384919
-0.003091933468125497,0.01236551201854972
-0.003091763468125497,0.01223385778753149
-0.003091593468125496,0.0121680306720192
-0.003091423468125497,0.01042361211103085
-0.003091253468125497,0.011378105285913
-0.003091083468125497,0.01071983413082306
-0.003090913468125497,0.01025904432225806
-0.003090743468125497,0.00983116807144882
-0.003090573468125497,0.009205810474113374
-0.003090403468125497,0.009765340955939707
-0.003090233468125497,0.008613366434530208
-0.003090063468125497,0.008514625761266718
-0.003089893468125497,0.007691786817402609
-0.003089723468125497,0.008613366434530208
