Analysis/New Tests_CMB/wrd01_d2s01/cmb12_test05.csv

#Digilent WaveForms Oscilloscope Acquisition
#Device Name: ADP3450
#Serial Number: SN:210018B9D9B0
#Date Time: 2024-08-15 11:10:21.431.654.920
#Sample rate: 1.42857e+07Hz
#Samples: 32768
#Trigger: Source: Channel 4 Type: Edge Condition: Rising Level: 160 mV Hyst.: Auto HoldOff: 0 s
#Channel 4: Range: 300 mV/div Offset: -860 mV Attenuation: 1 X Coupling: DC Bandwidth: 0 Hz Sample Mode: Average

Time (s),Channel 4 (V)
-0.001530515403676542,1.219199803767949
-0.001530445403676542,1.205371622489755
-0.001530375403676542,1.202931355205368
-0.001530305403676542,1.206998467346013
-0.001530235403676542,1.18259579450214
-0.001530165403676542,1.179342104789624
-0.001530095403676542,1.179342104789624
-0.001530025403676542,1.176088415077089
-0.001529955403676542,1.166327345939531
-0.001529885403676542,1.151685742233241
-0.001529815403676542,1.155752854373872
-0.001529745403676542,1.148432052520731
-0.001529675403676542,1.136230716098781
-0.001529605403676542,1.141924673095685
-0.001529535403676542,1.128909914245619
-0.001529465403676542,1.127283069389361
-0.001529395403676542,1.119962267536199
-0.001529325403676542,1.121589112392457
-0.001529255403676542,1.108574353542392
-0.001529185403676542,1.108574353542377
-0.001529115403676542,1.10044012926109
-0.001529045403676542,1.094746172264212
-0.001528975403676542,1.102880396545473
-0.001528905403676542,1.093932749836084
-0.001528835403676542,1.09230590497981
-0.001528765403676542,1.086611947982906
-0.001528695403676542,1.090679060123551
-0.001528625403676542,1.07359718913284
-0.001528555403676542,1.07359718913284
-0.001528485403676542,1.071970344276582
-0.001528415403676542,1.059769007854646
-0.001528345403676542,1.046754249004565
-0.001528275403676542,1.038620024723296
-0.001528205403676542,1.042687136863892
-0.001528135403676542,1.019097886448233
-0.001528065403676542,1.015030774307552
-0.001527995403676542,1.012590507023158
-0.001527925403676542,1.016657619163803
-0.001527855403676542,1.021538153732578
-0.001527785403676542,1.012590507023158
-0.001527715403676542,1.013403929451287
-0.001527645403676542,1.009336817310641
-0.001527575403676542,0.9930683687480593
-0.001527505403676542,0.9987623257449645
-0.001527435403676542,0.9995757481730774
-0.001527365403676542,0.9914415238917907
-0.001527295403676542,0.9857475668949077
-0.001527225403676542,0.9759864977573659
-0.001527155403676542,0.9719193856167027
-0.001527085403676542,0.9784267650417355
-0.001527015403676542,0.9678522734760572
-0.001526945403676542,0.9597180491947661
-0.001526875403676542,0.9629717389072825
-0.001526805403676542,0.9515838249134752
-0.001526735403676542,0.9483301352009588
-0.001526665403676542,0.9410093333478071
-0.001526595403676542,0.9467032903446858
-0.001526525403676542,0.9385690660634065
-0.001526455403676542,0.9369422212071543
-0.001526385403676542,0.9231140399289818
-0.001526315403676542,0.9239274623570857
-0.001526245403676542,0.9279945744977312
-0.001526175403676542,0.9092858586507618
-0.001526105403676542,0.9141663932195364
-0.001526035403676542,0.9084724362226327
-0.001525965403676542,0.8930174100881798
-0.001525895403676542,0.8913905652319216
-0.001525825403676542,0.8905771428037925
-0.001525755403676542,0.8832563409506203
-0.001525685403676542,0.8775623839537402
-0.001525615403676542,0.8848831858068755
-0.001525545403676542,0.869428159672464
-0.001525475403676542,0.8710550045286911
-0.001525405403676542,0.8653610475317903
-0.001525335403676542,0.8710550045286941
-0.001525265403676542,0.8596670905348867
-0.001525195403676542,0.8490925989692083
-0.001525125403676542,0.8490925989692083
-0.001525055403676542,0.8417717971160464
-0.001524985403676542,0.8311973055503681
-0.001524915403676542,0.8425852195441622
-0.001524845403676542,0.8352644176909974
-0.001524775403676542,0.8263167709816098
-0.001524705403676542,0.8320107279784869
-0.001524635403676542,0.8311973055503695
-0.001524565403676542,0.8124885897033988
-0.001524495403676542,0.8124885897033988
-0.001524425403676542,0.8100483224190115
-0.001524355403676542,0.8108617448471406
-0.001524285403676542,0.8084214775627533
-0.001524215403676542,0.798660408425204
-0.001524145403676542,0.7937798738564295
-0.001524075403676542,0.7921530290001521
-0.001524005403676542,0.7815785374344915
-0.001523935403676542,0.7807651150063653
-0.001523865403676542,0.7742577355813429
-0.001523795403676542,0.7758845804375862
-0.001523725403676542,0.7710040458688145
-0.001523655403676542,0.750668485165587
-0.001523585403676542,0.7490416403093288
-0.001523515403676542,0.7466013730249416
-0.001523445403676542,0.7457879505968125
-0.001523375403676542,0.7425342608842961
-0.001523305403676542,0.7490416403093288
-0.001523235403676542,0.7441611057405395
-0.001523165403676542,0.7360268814592706
-0.001523095403676542,0.7400939935999014
-0.001523025403676542,0.7409074160280364
-0.001522955403676542,0.7205718553248472
-0.001522885403676542,0.7352134590311341
-0.001522815403676542,0.7165047431841648
-0.001522745403676542,0.7116242086153902
-0.001522675403676542,0.7165047431841648
-0.001522605403676542,0.718131588040423
-0.001522535403676542,0.7116242086153902
-0.001522465403676542,0.7002362946215828
-0.001522395403676542,0.7002362946215606
-0.001522325403676542,0.6880349581996418
-0.001522255403676542,0.6855946909152634
-0.001522185403676542,0.679087311490238
-0.001522115403676542,0.6847812684871195
-0.001522045403676542,0.6847812684871298
-0.001521975403676542,0.6725799320651933
-0.001521905403676542,0.6725799320651933
-0.001521835403676542,0.6693262423526769
-0.001521765403676542,0.6717665096370642
-0.001521695403676542,0.6554980610744822
-0.001521625403676542,0.6563114835026113
-0.001521555403676542,0.6628188629276205
-0.001521485403676542,0.6498041040775948
-0.001521415403676542,0.6587517507869823
-0.001521345403676542,0.6620054404995092
-0.001521275403676542,0.6563114835026216
-0.001521205403676542,0.6449235695088039
-0.001521135403676542,0.6408564573681583
-0.001521065403676542,0.6327222330868674
-0.001520995403676542,0.6229611639493181
-0.001520925403676542,0.6310953882306092
-0.001520855403676542,0.6237745863774472
-0.001520785403676542,0.6197074742368017
-0.001520715403676542,0.6164537845242779
-0.001520645403676542,0.6123866723836486
-0.001520575403676542,0.6172672069524056
-0.001520505403676542,0.6164537845242868
-0.001520435403676542,0.6066927153867538
-0.001520365403676542,0.5863571546835086
-0.001520295403676542,0.5831034649709922
-0.001520225403676542,0.5798497752584757
-0.001520155403676542,0.5863571546835086
-0.001520085403676542,0.589610844396025
-0.001520015403676542,0.5831034649709922
-0.001519945403676542,0.5814766201147339
-0.001519875403676542,0.5757826631178377
-0.001519805403676542,0.5798497752584565
-0.001519735403676542,0.569275283692796
-0.001519665403676542,0.5684618612646698
-0.001519595403676542,0.5660215939802855
-0.001519525403676542,0.55788736969899
-0.001519455403676542,0.5530068351302154
-0.001519385403676542,0.565208171552152
-0.001519315403676542,0.5570739472708609
-0.001519245403676542,0.5432457659926662
-0.001519175403676542,0.5432457659926662
-0.001519105403676542,0.5448726108489244
-0.001519035403676542,0.5399920762801483
-0.001518965403676542,0.5391786538520192
-0.001518895403676542,0.5383652314238871
-0.001518825403676542,0.5359249641395087
-0.001518755403676542,0.530231007142611
-0.001518685403676542,0.5286041622863424
-0.001518615403676542,0.5220967828613096
-0.001518545403676542,0.5220967828613096
-0.001518475403676542,0.509895446439373
-0.001518405403676542,0.509895446439373
-0.001518335403676542,0.5164028258644058
-0.001518265403676542,0.5025746445862111
-0.001518195403676542,0.5098954464393716
-0.001518125403676542,0.5090820240112395
-0.001518055403676542,0.506641756726833
-0.001517985403676542,0.4936269978768146
-0.001517915403676542,0.4985075324455567
-0.001517845403676542,0.5050149118705984
-0.001517775403676542,0.4920001530205328
-0.001517705403676542,0.4928135754486619
-0.001517635403676542,0.4846793511673709
-0.001517565403676542,0.4830525063111127
-0.001517495403676542,0.4757317044579508
-0.001517425403676542,0.470037747461047
-0.001517355403676542,0.4781719717423129
-0.001517285403676542,0.4643437904641656
-0.001517215403676542,0.4765451268860695
-0.001517145403676542,0.4708511698891866
-0.001517075403676542,0.4700377474610485
-0.001517005403676542,0.4659706353204016
-0.001516935403676542,0.4610901007516269
-0.001516865403676542,0.4667840577485307
-0.001516795403676542,0.4570229886109815
-0.001516725403676542,0.4570229886109815
-0.001516655403676542,0.4627169456078852
-0.001516585403676542,0.4594632558953687
-0.001516515403676542,0.4529558764703182
-0.001516445403676542,0.4431948073327749
-0.001516375403676542,0.4366874279077672
-0.001516305403676542,0.4440082297609025
-0.001516235403676542,0.435060583051512
-0.001516165403676542,0.4358740054796248
-0.001516095403676542,0.4350605830514957
-0.001516025403676542,0.4285532036264629
-0.001515955403676542,0.4285532036264629
-0.001515885403676542,0.4285532036264629
-0.001515815403676542,0.421232401773301
-0.001515745403676542,0.4236726690576883
-0.001515675403676542,0.4187921344889107
-0.001515605403676542,0.4171652896326466
-0.001515535403676542,0.4122847550638749
-0.001515465403676542,0.4090310653513704
-0.001515395403676542,0.4106579102076197
-0.001515325403676542,0.4147250223482682
-0.001515255403676542,0.4008968410700735
-0.001515185403676542,0.4025236859263316
-0.001515115403676542,0.4114713326357518
-0.001515045403676542,0.3943894616450406
-0.001514975403676542,0.405777375638848
-0.001514905403676542,0.4025236859263316
-0.001514835403676542,0.408217642923222
-0.001514765403676542,0.400896841070069
-0.001514695403676542,0.3984565737856802
-0.001514625403676542,0.3952028840731757
-0.001514555403676542,0.3895089270762764
-0.001514485403676542,0.3886955046481369
-0.001514415403676542,0.381374702794975
-0.001514345403676542,0.3830015476512332
-0.001514275403676542,0.3830015476512332
-0.001514205403676542,0.3789344355105877
-0.001514135403676542,0.3748673233699422
-0.001514065403676542,0.3699867888011676
-0.001513995403676542,0.3683599439449094
-0.001513925403676542,0.3642928318042402
-0.001513855403676542,0.3512780729542115
-0.001513785403676542,0.3585988748073469
-0.001513715403676542,0.3651062542323811
-0.001513645403676542,0.3553451850948616
-0.001513575403676542,0.3504646505260691
-0.001513505403676542,0.3529049178104564
-0.001513435403676542,0.3529049178104564
-0.001513365403676542,0.3472109608135527
-0.001513295403676542,0.3577854523792311
-0.001513225403676542,0.3504646505260691
-0.001513155403676542,0.3423304262447782
-0.001513085403676542,0.3569720299510872
-0.001513015403676542,0.3488378056697887
-0.001512945403676542,0.3366364692478966
-0.001512875403676542,0.3431438486728954
-0.001512805403676542,0.3382633141041416
-0.001512735403676542,0.3309425122509707
-0.001512665403676542,0.3276888225384543
-0.001512595403676542,0.3285022449665834
-0.001512525403676542,0.3325693571072289
-0.001512455403676542,0.325248555254067
-0.001512385403676542,0.3203680206852924
-0.001512315403676542,0.3195545982571633
-0.001512245403676542,0.3179277534008962
-0.001512175403676542,0.3130472188321394
-0.001512105403676542,0.3179277534008962
-0.001512035403676542,0.3195545982571603
-0.001511965403676542,0.3252485552540567
-0.001511895403676542,0.3203680206852924
-0.001511825403676542,0.3260619776821961
-0.001511755403676542,0.3106069515477432
-0.001511685403676542,0.3138606412602596
-0.001511615403676542,0.3203680206852924
-0.001511545403676542,0.301659304838323
-0.001511475403676542,0.3024727272664521
-0.001511405403676542,0.3000324599820722
-0.001511335403676542,0.3040995721227103
-0.001511265403676542,0.3040995721227103
-0.001511195403676542,0.2943385029851789
-0.001511125403676542,0.2845774338476297
-0.001511055403676542,0.2845774338476119
-0.001510985403676542,0.2878311235601283
-0.001510915403676542,0.285390856275741
-0.001510845403676542,0.285390856275741
-0.001510775403676542,0.285390856275741
-0.001510705403676542,0.2805103217069664
-0.001510635403676542,0.292711658128903
-0.001510565403676542,0.2886445459882381
-0.001510495403676542,0.2780700544225954
-0.001510425403676542,0.2870177011319829
-0.001510355403676542,0.2862042787038716
-0.001510285403676542,0.278070054422594
-0.001510215403676542,0.2748163647100628
-0.001510145403676542,0.2780700544225791
-0.001510075403676542,0.2723760974256754
-0.001510005403676542,0.2748163647100628
-0.001509935403676542,0.260988183431868
-0.001509865403676542,0.260988183431868
-0.001509795403676542,0.260988183431868
-0.001509725403676542,0.2577344937193441
-0.001509655403676542,0.2536673815786972
-0.001509585403676542,0.2487868470099404
-0.001509515403676542,0.2569210712912076
-0.001509445403676542,0.25773449371935
-0.001509375403676542,0.2504136918661897
-0.001509305403676542,0.2512271142943188
-0.001509235403676542,0.2593613385756098
-0.001509165403676542,0.2463465797255442
-0.001509095403676542,0.2382123554442531
-0.001509025403676542,0.2487868470099315
-0.001508955403676542,0.2398392003005113
-0.001508885403676542,0.2382123554442561
-0.001508815403676542,0.2398392003005172
-0.001508745403676542,0.2430928900130219
-0.001508675403676542,0.2398392003005172
-0.001508605403676542,0.2349586657317456
-0.001508535403676542,0.2365855105879949
-0.001508465403676542,0.2317049760192204
-0.001508395403676542,0.2341452433036076
-0.001508325403676542,0.2251975965941875
-0.001508255403676542,0.2317049760192204
-0.001508185403676542,0.2292647087348331
-0.001508115403676542,0.2325183984473495
-0.001508045403676542,0.2349586657317279
-0.001507975403676542,0.2300781311629607
-0.001507905403676542,0.2292647087348331
-0.001507835403676542,0.2292647087348331
-0.001507765403676542,0.2162499498847911
-0.001507695403676542,0.2170633723128965
-0.001507625403676542,0.2203170620254129
-0.001507555403676542,0.2195036395972838
-0.001507485403676542,0.2219439068816711
-0.001507415403676542,0.2260110190223166
-0.001507345403676542,0.212996260172251
-0.001507275403676542,0.2154365274566383
-0.001507205403676542,0.2268244414504369
-0.001507135403676542,0.2219439068816459
-0.001507065403676542,0.2081157256034911
-0.001506995403676542,0.2162499498847526
-0.001506925403676542,0.2097425704597464
-0.001506855403676542,0.2195036395972838
-0.001506785403676542,0.1991680788940563
-0.001506715403676542,0.2016083461784436
-0.001506645403676542,0.2064888807472182
-0.001506575403676542,0.2056754583190891
-0.001506505403676542,0.2032351910347018
-0.001506435403676542,0.196727811609669
-0.001506365403676542,0.1942875443252817
-0.001506295403676542,0.1942875443252817
-0.001506225403676542,0.1942875443252847
-0.001506155403676542,0.1959143891815369
-0.001506085403676542,0.1877801649002636
-0.001506015403676542,0.1845264751877325
-0.001505945403676542,0.1877801649002488
-0.001505875403676542,0.1828996303314743
-0.001505805403676542,0.189407009756507
-0.001505735403676542,0.1877801649002488
-0.001505665403676542,0.1788325181908288
-0.001505595403676542,0.1828996303314743
-0.001505525403676542,0.18778016490024
-0.001505455403676542,0.1828996303314876
-0.001505385403676542,0.1902204321846347
-0.001505315403676542,0.1894070097565085
-0.001505245403676542,0.189407009756507
-0.001505175403676542,0.1828996303314743
-0.001505105403676542,0.1902204321846361
-0.001505035403676542,0.180459363047087
-0.001504965403676542,0.1828996303314743
-0.001504895403676542,0.173138561193925
-0.001504825403676542,0.1723251387657959
-0.001504755403676542,0.1674446041970213
-0.001504685403676542,0.1690714490532781
-0.001504615403676542,0.1682580266251416
-0.001504545403676542,0.1633774920563773
-0.001504475403676542,0.1641909144845035
-0.001504405403676542,0.168258026625143
-0.001504335403676542,0.1690714490532795
-0.001504265403676542,0.1666311817688922
-0.001504195403676542,0.1674446041970213
-0.001504125403676542,0.1747654060501832
-0.001504055403676542,0.1706982939095377
-0.001503985403676542,0.1584969574876012
-0.001503915403676542,0.1633774920563759
-0.001503845403676542,0.1658177593407602
-0.001503775403676542,0.1641909144844916
-0.001503705403676542,0.1568701126313371
-0.001503635403676542,0.1536164229188325
-0.001503565403676542,0.1519895780625714
-0.001503495403676542,0.1584969574876012
-0.001503425403676542,0.1471090434937938
-0.001503355403676542,0.1601238023438594
-0.001503285403676542,0.1552432677750848
-0.001503215403676542,0.1601238023438594
-0.001503145403676542,0.156870112631343
-0.001503075403676542,0.1601238023438594
-0.001503005403676542,0.1617506472001176
-0.001502935403676542,0.1617506472001309
-0.001502865403676542,0.1690714490532588
-0.001502795403676542,0.1576835350594928
-0.001502725403676542,0.1601238023438549
-0.001502655403676542,0.1576835350594721
-0.001502585403676542,0.1584969574876012
-0.001502515403676542,0.1454821986375355
-0.001502445403676542,0.1536164229188266
-0.001502375403676542,0.1446687762094064
-0.001502305403676542,0.140601664068761
-0.001502235403676542,0.1462956210656647
-0.001502165403676542,0.1381613967843737
-0.001502095403676542,0.1389748192125087
-0.001502025403676542,0.1422285089250191
-0.001501955403676542,0.1422285089250191
-0.001501885403676542,0.1349077070718706
-0.001501815403676542,0.1340942846437297
-0.001501745403676542,0.1357211294999864
-0.001501675403676542,0.1381613967843737
-0.001501605403676542,0.1357211294999864
-0.001501535403676542,0.1349077070718573
-0.001501465403676542,0.1414150864968901
-0.001501395403676542,0.1422285089250191
-0.001501325403676542,0.1349077070718573
-0.001501255403676542,0.13409428464374
-0.001501185403676542,0.140601664068755
-0.001501115403676542,0.1373479743562505
-0.001501045403676542,0.1349077070718617
-0.001500975403676542,0.139788241640623
-0.001500905403676542,0.1357211294999864
-0.001500835403676542,0.1316540173593409
-0.001500765403676542,0.1349077070718573
-0.001500695403676542,0.1316540173593409
-0.001500625403676542,0.1284003276468244
-0.001500555403676542,0.1284003276468244
-0.001500485403676542,0.1284003276468244
-0.001500415403676542,0.1218929482217976
-0.001500345403676542,0.125146637934308
-0.001500275403676542,0.125146637934308
-0.001500205403676542,0.125146637934308
-0.001500135403676542,0.1243332155061804
-0.001500065403676542,0.1284003276468244
-0.001499995403676542,0.1243332155061789
-0.001499925403676542,0.1202661033655334
-0.001499855403676542,0.1218929482217916
-0.001499785403676542,0.1259600603624371
-0.001499715403676542,0.1178258360811462
-0.001499645403676542,0.125146637934308
-0.001499575403676542,0.122706370649903
-0.001499505403676542,0.1129453015123744
-0.001499435403676542,0.1145721463686268
-0.001499365403676542,0.1186392585092679
-0.001499295403676542,0.1186392585092753
-0.001499225403676542,0.1227063706499207
-0.001499155403676542,0.125146637934308
-0.001499085403676542,0.1284003276468244
-0.001499015403676542,0.1129453015123715
-0.001498945403676542,0.1145721463686298
-0.001498875403676542,0.1113184566561133
-0.001498805403676542,0.1186392585092753
-0.001498735403676542,0.1088781893717497
-0.001498665403676542,0.1218929482217709
-0.001498595403676542,0.1105050342280049
-0.001498525403676542,0.11538556879675
-0.001498455403676542,0.1170124136530141
-0.001498385403676542,0.1096916117998551
-0.001498315403676542,0.1080647669435969
-0.001498245403676542,0.108878189371726
-0.001498175403676542,0.108878189371726
-0.001498105403676542,0.1113184566561133
-0.001498035403676542,0.1194526809374044
-0.001497965403676542,0.1145721463686298
-0.001497895403676542,0.1194526809373836
-0.001497825403676542,0.1080647669436028
-0.001497755403676542,0.1113184566561074
-0.001497685403676542,0.1153855687967515
-0.001497615403676542,0.1113184566561207
-0.001497545403676542,0.1121318790842424
-0.001497475403676542,0.1113184566561133
-0.001497405403676542,0.1113184566561133
-0.001497335403676542,0.1031842323748223
-0.001497265403676542,0.1129453015123715
-0.001497195403676542,0.09830369780604775
-0.001497125403676542,0.09993054266230594
-0.001497055403676542,0.1072513445154693
-0.001496985403676542,0.108064766943591
