Analysis/New Tests_CMB/wrd01_d2s01/cmb11_ch30.csv

#Digilent WaveForms Oscilloscope Acquisition
#Device Name: ADP3450
#Serial Number: SN:210018B9D9B0
#Date Time: 2024-06-28 13:24:08.173.164.720
#Sample rate: 2.5e+07Hz
#Samples: 32768
#Trigger: Source: Channel 3 Type: Edge Condition: Rising Level: 60 mV Hyst.: Auto HoldOff: 0 s
#Channel 1: Range: 100 mV/div Offset: -370 mV Attenuation: 1 X Coupling: DC Bandwidth: 0 Hz Sample Mode: Average
#Channel 3: Range: 100 mV/div Offset: 0 V Attenuation: 1 X Coupling: DC Bandwidth: 0 Hz Sample Mode: Average

Time (s),Channel 1 (V),Channel 3 (V)
-0.00065532,0.003615887697878462,-0.007152227729902647
-0.0006552800000000001,0.003681524829308502,-0.007185141287657204
-0.00065524,0.003583069132162605,-0.007086400614395448
-0.0006552,0.003123609212153267,-0.008139634462539359
-0.00065516,0.0035174320007334,-0.0101802750433219
-0.00065512,0.003714343395023523,-0.01116768177595861
-0.0006550800000000001,0.003583069132163441,-0.009653658119248986
-0.0006550400000000001,0.003353339172158772,-0.009159954752931529
-0.000655,0.003714343395023344,-0.008106720904782826
-0.00065496,0.003615887697878462,-0.007020573498884419
-0.00065492,0.003648706263593482,-0.005243241380138334
-0.00065488,0.00397689192074363,-0.004552056667292635
-0.0006548400000000001,0.003287702040729567,-0.003564649934657718
-0.0006548,0.003615887697878999,-0.002083539835699595
-0.00065476,0.00391125478931359,-0.001392355122855153
-0.00065472,0.003254883475013293,-0.0004378619479729968
-0.00065468,0.003025153515008205,0.0002533227648727025
-0.0006546400000000001,0.003583069132162426,-0.001589836469379143
-0.0006546,0.003123609212153565,-0.002577243202017053
-0.00065456,0.003287702040728313,-0.001392355122855153
-0.00065452,0.003648706263593482,0.0001874956493635883
-0.00065448,0.0035174320007334,-0.00165566358489161
-0.0006544400000000001,0.003648706263593482,0.0006811990156819448
-0.0006544,0.004042529052173611,0.00143821084403592
-0.00065436,0.004009710486458651,0.0009774210354729588
-0.00065432,0.003747161960738543,0.0002862363226272596
-0.00065428,0.004042529052173671,0.0007470261311910591
-0.0006542400000000001,0.004108166183603656,0.0003191498803818167
-0.0006542000000000001,0.004206621880748539,-0.0007999110832710895
-0.00065416,0.004534807537898866,-0.001030305987555025
-0.00065412,0.004469170406468825,0.0009774210354729588
-0.00065408,0.004764537497903953,0.001043248150982073
-0.00065404,0.004600444669328907,0.0005166312269091594
-0.0006540000000000001,0.004009710486459725,0.001668605748316563
-0.00065396,0.004501988972182951,0.0007799396889430417
-0.00065392,0.004009710486458651,-0.0006353432945003394
-0.00065388,0.00394407335502861,-0.0001745534859365399
-0.00065384,0.004469170406468825,-0.001820231373664395
-0.0006538000000000001,0.003779980526454762,-0.002313934739981854
-0.00065376,0.003779980526453806,-0.002379761855493363
-0.00065372,0.00394407335502861,-0.003202600799355794
-0.00065368,0.003550250566448421,-0.003498822819146808
-0.00065364,0.00397689192074363,-0.005276154937892892
-0.0006536000000000001,0.003353339172159488,-0.004354575320766969
-0.00065356,0.003583069132162725,-0.006823092152355999
-0.00065352,0.003189246343583252,-0.006230648112775047
-0.00065348,0.003648706263593482,-0.005605290515438462
-0.00065344,0.003189246343583252,-0.005967339650738591
-0.0006534000000000001,0.003320520606443333,-0.006033166766247705
-0.0006533600000000001,0.003156427777868585,-0.004716624456067815
-0.00065332,0.002893879252148179,-0.006395215901547833
-0.00065328,0.002795423555003118,-0.005078673591365549
-0.00065324,0.003156427777868287,-0.00438748887851985
-0.0006532,0.003320520606443333,-0.004420402436274407
-0.0006531600000000001,0.003254883475013412,-0.004354575320765412
-0.00065312,0.002631330726429389,-0.002478502528757034
-0.00065308,0.003386157737873374,-0.003301341472619465
-0.00065304,0.003090790646438246,-0.003038033010583008
-0.000653,0.003057972080723226,-0.004124180416483393
-0.0006529600000000001,0.003944073355026998,-0.003465909261393448
-0.00065292,0.003517432000732386,-0.004124180416482375
-0.00065288,0.002959516383578165,-0.003564649934655922
-0.00065284,0.003714343395023523,-0.004025439743219721
-0.0006528,0.003648706263593482,-0.003103860126092122
-0.0006527600000000001,0.003681524829308442,-0.00409126685872704
-0.00065272,0.003944073355028849,-0.003630477050167251
-0.00065268,0.004075347617888636,-0.004848278687083649
-0.00065264,0.003615887697878462,-0.005210327822383777
-0.0006526,0.003615887697878462,-0.004321661763010735
-0.0006525600000000001,0.004009710486458651,-0.005276154937892892
-0.0006525200000000001,0.004009710486458651,-0.004255834647503477
-0.00065248,0.003812799092168528,-0.004519143109538078
-0.00065244,0.004140984749318677,-0.002708897433037437
-0.0006524,0.003714343395023523,-0.002017712720191738
-0.00065236,0.004173803315033697,-0.005210327822383777
-0.0006523200000000001,0.003911254789314068,-0.003367168588131932
-0.00065228,0.00387843622359845,-0.00188605848917782
-0.00065224,0.003812799092168528,-0.004255834647501621
-0.0006522,0.00397689192074363,-0.006395215901547833
-0.00065216,0.003747161960738543,-0.004288748205256179
-0.0006521200000000001,0.003812799092168409,-0.002182280508968355
-0.00065208,0.003681524829308861,-0.004716624456069313
-0.00065204,0.003878436223598569,-0.006856005710111633
-0.000652,0.003681524829308502,-0.004650797340556306
-0.00065196,0.003812799092168528,-0.004124180416483393
-0.0006519200000000001,0.003714343395023702,-0.007349709076424122
-0.00065188,0.003845617657882594,-0.005901512535230734
-0.00065184,0.003320520606443333,-0.006592697248075176
-0.0006518,0.003353339172158354,-0.006493956574811504
-0.00065176,0.002861060686433159,-0.004848278687083649
-0.0006517200000000001,0.003254883475013293,-0.008139634462539359
-0.00065168,0.003550250566449436,-0.006559783690319781
-0.00065164,0.004108166183603656,-0.006098993881756819
-0.0006516,0.003812799092168528,-0.005440722726665677
-0.00065156,0.003714343395023523,-0.00540780916891112
-0.0006515200000000001,0.004469170406468825,-0.004848278687083649
-0.0006514800000000001,0.004075347617889353,-0.006954746383371473
-0.00065144,0.00381279909216823,-0.004881192244837728
-0.0006514,0.003648706263593482,-0.004617883782801749
-0.00065136,0.003353339172158354,-0.00790923955825746
-0.00065132,0.003878436223598569,-0.005243241380138334
-0.0006512800000000001,0.004108166183603238,-0.005901512535228279
-0.00065124,0.004075347617887442,-0.006526870132563368
-0.0006512,0.003418976303588395,-0.005045760033610991
-0.00065116,0.004403533275038785,-0.00517741426462922
-0.00065112,0.003057972080723226,-0.007876326000502903
-0.0006510800000000001,0.005027086023620479,-0.00231393473999287
-0.00065104,0.003747161960736931,-0.004255834647515212
-0.000651,0.002861060686433159,-0.01172721225778608
-0.00065096,0.004731718932188933,-0.00244558897100098
-0.00065092,0.004797356063618974,-0.003005119452828451
-0.0006508800000000001,0.003583069132163441,-0.006296475228284162
-0.00065084,0.003911254789314485,-0.004288748205253425
-0.0006508,0.004403533275038785,-0.002774724548546551
-0.00065076,0.004469170406468825,-0.00586859897747492
-0.00065072,0.003681524829308502,-0.006691437921338847
-0.0006506800000000001,0.004436351840753805,-0.005967339650738591
-0.0006506400000000001,0.003812799092169662,-0.007020573498882503
-0.0006506,0.00394407335502861,-0.007481363307448217
-0.00065056,0.00391125478931359,-0.006066080324002262
-0.00065052,0.003615887697878462,-0.007744671769484675
-0.00065048,0.003779980526453508,-0.008633337828857716
-0.0006504400000000001,0.003714343395023642,-0.006856005710114865
-0.0006504,0.003418976303588872,-0.00725096840317027
-0.00065036,0.003681524829308502,-0.009423263214967087
-0.00065032,0.003583069132163441,-0.008040893789275689
-0.00065028,0.003550250566448421,-0.006954746383375304
-0.0006502400000000001,0.00351743200073346,-0.006263561670530863
-0.0006502,0.003812799092168946,-0.005111587149123758
-0.00065016,0.004042529052173671,-0.00711931417214809
-0.00065012,0.003845617657883549,-0.00540780916891112
-0.00065008,0.00394407335502861,-0.005078673591365549
-0.0006500400000000001,0.004075347617888398,-0.006954746383371891
-0.00065,0.004272259012177445,-0.006724351479091489
-0.00064996,0.003550250566448421,-0.005671117630947577
-0.00064992,0.003779980526453508,-0.006856005710111633
-0.00064988,0.00391125478931359,-0.007185141287657204
-0.0006498400000000001,0.003845617657883549,-0.009357436099457973
-0.0006498000000000001,0.003320520606444288,0.001010334593208657
-0.00064976,0.004797356063618974,-0.01287918677919558
-0.00064972,0.003222064909298272,-0.01320832235674115
-0.00064968,0.004173803315033697,0.0009774210354729588
-0.00064964,0.003681524829308502,-0.01972520679214346
-0.0006496000000000001,0.003189246343584147,-0.001293614449625006
-0.00064956,0.004206621880746986,-0.008896646290898723
-0.00064952,0.003254883475013293,-0.01139807668024051
-0.00064948,0.003714343395023523,-0.005276154937892892
-0.00064944,0.003747161960738543,-0.00939034965721253
-0.0006494000000000001,0.003747161960738543,-0.009456176772721524
-0.00064936,0.003747161960738424,-0.009258695426191009
-0.00064932,0.003681524829308502,-0.007448449749693661
-0.00064928,0.00394407335502861,-0.006559783690320619
-0.00064924,0.003812799092168528,-0.009127041195176074
-0.0006492000000000001,0.00335333917215919,-0.007152227729906238
-0.00064916,0.003517432000733998,-0.004683710898321041
-0.00064912,0.003845617657883549,-0.01027901571658557
-0.00064908,0.003222064909298272,-0.007580103980711889
-0.00064904,0.003550250566448421,-0.01011444792781279
-0.0006490000000000001,0.00391125478931359,-0.008929559848648731
-0.00064896,0.0036487062635939,-0.008567510713347345
-0.00064892,0.003878436223598569,-0.007876326000502903
-0.00064888,0.003779980526453508,-0.009258695426194301
-0.00064884,0.003747161960738543,-0.008732078502121389
-0.0006488,0.003779980526453508,-0.009028300521912402
-0.0006487600000000001,0.004272259012177863,-0.009752398792511342
-0.00064872,0.003779980526453806,-0.00962074456149419
-0.00064868,0.00394407335502861,-0.009489090330476201
-0.00064864,0.003615887697878462,-0.009982793696794558
-0.0006486,0.003583069132163441,-0.007185141287657204
-0.0006485600000000001,0.004403533275037292,-0.005868598977477314
-0.00064852,0.003779980526453687,-0.01064106485187929
-0.00064848,0.003878436223598569,-0.00711931417214809
-0.00064844,0.003714343395023523,-0.00688891926786619
-0.0006484,0.003681524829308502,-0.008666251386612273
-0.0006483600000000001,0.004173803315032802,-0.00991696658128317
-0.00064832,0.003944073355029147,-0.00428874820526013
-0.00064828,0.004239440446463738,-0.006461043017056948
-0.00064824,0.003714343395023523,-0.008007980231521132
-0.0006482,0.004469170406468825,-0.006230648112775047
-0.0006481600000000001,0.004534807537898866,-0.006000253208493148
-0.00064812,0.004140984749318975,-0.007415536191933476
-0.00064808,0.004305077577893779,-0.004321661763010735
-0.00064804,0.004370714709323764,-0.006823092152357076
-0.000648,0.004140984749318677,-0.005934426092984033
-0.0006479600000000001,0.004370714709323764,-0.0005695161789912252
-0.0006479200000000001,0.004370714709323764,-0.01327414947222716
-0.00064788,0.003451794869306519,0.00486122085049148
-0.00064784,0.005158360286484143,-0.005704031188702134
-0.0006478,0.003812799092168528,-0.01399824774285052
-0.00064776,0.004042529052173671,0.007132256335575138
-0.0006477200000000001,0.003648706263594198,-0.01722377640275282
-0.00064768,0.002959516383580672,0.002326876903398784
-0.00064764,0.004337896143608799,-0.003729217723428708
-0.0006476,0.003845617657883549,-0.008896646290894173
-0.00064756,0.003714343395023523,-0.002478502528755537
-0.0006475200000000001,0.004173803315032861,-0.006362302343786212
-0.00064748,0.003615887697878641,-0.005144500706876878
-0.00064744,0.003714343395023523,-0.006362302343793276
-0.0006474,0.003583069132163441,-0.004881192244838206
-0.00064736,0.004108166183603656,-0.004354575320765292
-0.0006473200000000001,0.00348461343501838,-0.005506549842174791
-0.00064728,0.003156427777869421,-0.004091266858729434
-0.00064724,0.003779980526453508,-0.004420402436274407
-0.0006472,0.003353339172158354,-0.004815365129329092
-0.00064716,0.00391125478931359,-0.004190007531992507
-0.0006471200000000001,0.004009710486458651,-0.005276154937892892
-0.0006470800000000001,0.002893879252150209,-0.003465909261395544
-0.00064704,0.004009710486458651,-0.001227787334082367
-0.000647,0.0035174320007334,-0.003992526185465165
-0.00064696,0.003812799092168528,-0.002083539835700852
-0.00064692,0.004009710486458651,-0.001227787334082367
-0.0006468800000000001,0.003911254789313768,-0.003663390607915163
-0.00064684,0.003812799092169006,-0.002050626277949229
-0.0006468,0.004075347617888636,-0.003663390607919593
-0.00064676,0.003747161960738543,-0.00438748887851985
-0.00064672,0.003779980526453508,-0.002544329644264652
-0.0006466800000000001,0.004075347617888099,-0.00267598387528264
-0.00064664,0.003944073355029028,-0.002116453393458043
-0.0006466,0.004173803315033697,-0.003564649934655922
-0.00064656,0.004272259012178758,-0.004321661763010735
-0.00064652,0.003714343395023523,-0.003729217723428708
-0.0006464800000000001,0.00384561765788331,-0.004914105802590608
-0.00064644,0.003976891920744048,-0.005671117630945841
-0.0006464,0.004206621880748718,-0.004716624456065421
-0.00064636,0.00394407335502861,-0.004354575320765292
-0.00064632,0.004075347617888636,-0.004848278687083649
-0.0006462800000000001,0.004206621880748718,-0.004255834647501621
-0.0006462400000000001,0.003648706263594497,-0.005802771861962991
-0.0006462,0.003779980526453508,-0.006691437921338847
-0.00064616,0.004436351840753805,-0.006296475228284162
-0.00064612,0.003714343395023523,-0.004617883782801749
-0.00064608,0.003747161960738543,-0.005276154937892892
-0.0006460400000000001,0.00358306913216374,-0.005243241380138394
-0.000646,0.003812799092168528,-0.004716624456064403
-0.00064596,0.003812799092168528,-0.00415709397423795
-0.00064592,0.003583069132163441,-0.004749538013819977
-0.00064588,0.003418976303588395,-0.005210327822383777
-0.0006458400000000001,0.004009710486457576,-0.005605290515437744
-0.0006458,0.00361588769787888,-0.004848278687082811
-0.00064576,0.003845617657883549,-0.00438748887851985
-0.00064572,0.003222064909298272,-0.004058353300974278
-0.00064568,0.003714343395023523,-0.004420402436274407
-0.0006456400000000001,0.003418976303588932,-0.005638204073190804
-0.0006456,0.003583069132162785,-0.004552056667293832
-0.00064556,0.003222064909298272,-0.005210327822383777
-0.00064552,0.003681524829308502,-0.006164820997265934
-0.00064548,0.003648706263593482,-0.005934426092984033
-0.0006454400000000001,0.003779980526453508,-0.005473636284420234
-0.0006454,0.004272259012177922,-0.005934426092984452
-0.00064536,0.003812799092168528,-0.006164820997265934
-0.00064532,0.004140984749318677,-0.006559783690320619
-0.00064528,0.004009710486458651,-0.007020573498884419
-0.00064524,0.004436351840753805,-0.007975066673766575
-0.0006452000000000001,0.004206621880749136,-0.008370029366820542
-0.00064516,0.004239440446463977,-0.007382622634184247
-0.00064512,0.004370714709323764,-0.007218054845411761
-0.00064508,0.00397689192074363,-0.006954746383375304
-0.00064504,0.004173803315033697,-0.007448449749693661
-0.0006450000000000001,0.004337896143608501,-0.008962473406400533
-0.00064496,0.004009710486458531,-0.009357436099460489
-0.00064492,0.00394407335502861,-0.01073980552514937
-0.00064488,0.003878436223598569,-0.0115626444690133
-0.00064484,0.00397689192074363,-0.01054232417862203
-0.0006448000000000001,0.003386157737874449,-0.01110185466044848
-0.00064476,0.003517432000732684,-0.009719485234761394
-0.00064472,0.003123609212153267,-0.01152973091125874
-0.00064468,0.002434419332137949,-0.01169429870003153
-0.00064464,0.003287702040728313,-0.01228674273961356
-0.0006446000000000001,0.003057972080723226,-0.01172721225778608
-0.00064456,0.003025153515008444,-0.01018027504331992
-0.00064452,0.003156427777868287,-0.009094127637421515
-0.00064448,0.003353339172158354,-0.00665852436358429
-0.00064444,0.0035174320007334,-0.006033166766247705
-0.0006444000000000001,0.003451794869303415,-0.00369630416567415
-0.0006443600000000001,0.003583069132163202,-0.003630477050165156
-0.00064432,0.003353339172158354,-0.003103860126095535
-0.00064428,0.003353339172158354,-0.004979932918101878
-0.00064424,0.003648706263593482,-0.005111587149120106
-0.0006442,0.004075347617888636,-0.005210327822383777
-0.0006441600000000001,0.003681524829309219,-0.005736944746455733
-0.00064412,0.0035502505664486,-0.004157093974238129
-0.00064408,0.003648706263593482,-0.004255834647501621
-0.00064404,0.003615887697878462,-0.004025439743219721
-0.000644,0.00391125478931359,-0.003465909261392251
-0.0006439600000000001,0.003517432000734117,-0.00323551435711077
-0.00064392,0.004403533275038844,-0.003860871954446637
-0.00064388,0.004436351840753805,-0.00369630416567415
-0.00064384,0.004108166183603656,-0.003400082145883136
-0.0006438,0.003615887697878462,-0.001951885604682624
-0.0006437600000000001,0.00397689192074363,-0.002412675413246423
-0.00064372,0.004698900366473614,-0.003663390607918336
-0.00064368,0.004534807537898866,-0.002972205895073894
-0.00064364,0.004698900366473913,-0.002248107624473638
-0.0006436,0.004337896143608799,-0.0008986517565367963
-0.0006435600000000001,0.004797356063618974,-0.002313934739982752
-0.0006435200000000001,0.004337896143609635,-0.002281021182228254
-0.00064348,0.00394407335502861,0.0004508041114000451
-0.00064344,0.004994267457909041,-0.0001416399281819828
-0.0006434,0.004403533275038785,-0.004420402436274407
-0.00064336,0.003878436223598569,-0.001556922911627938
-0.0006433200000000001,0.004009710486458412,-0.002577243202017352
-0.00064328,0.003648706263592765,-0.005901512535224807
-0.00064324,0.003254883475013293,-0.003334255030374022
-0.0006432,0.003714343395023523,-0.005967339650738591
-0.00064316,0.003287702040728313,-0.005901512535229476
-0.0006431200000000001,0.003583069132162904,-0.005374895611157521
-0.00064308,0.003189246343583729,-0.008764992059873071
-0.00064304,0.003451794869303415,-0.007185141287657204
-0.000643,0.0035174320007334,-0.007053487056638975
-0.00064296,0.004108166183603656,-0.009949880139040001
-0.0006429200000000001,0.003386157737874687,-0.006724351479099272
-0.00064288,0.003287702040729268,-0.006197734555021928
-0.00064284,0.003812799092168528,-0.006987659941129861
-0.0006428,0.003320520606443333,-0.003762131281183265
-0.00064276,0.004140984749318677,-0.00586859897747492
-0.0006427200000000001,0.004009710486458651,-0.004453315994028964
-0.0006426800000000001,0.003550250566449256,-0.002840551664058599
-0.00064264,0.004567626103613887,-0.00392669906995605
-0.0006426,0.004239440446463738,-0.004222921089747064
-0.00064256,0.003812799092168528,-0.0003720348324638825
-0.00064252,0.004567626103613887,-0.001030305987555025
-0.0006424800000000001,0.004567626103613887,-0.0025114160865074
-0.00064244,0.004206621880748718,-0.0009973924298014854
-0.0006424,0.004206621880748718,-0.001556922911627938
-0.00064236,0.004140984749318677,-0.003498822819146808
-0.00064232,0.004239440446463738,-0.003038033010583008
-0.0006422800000000001,0.003812799092169305,-0.000931565314295185
-0.00064224,0.004305077577892824,-0.003169687241602254
-0.0006422,0.003779980526453508,-0.003729217723428708
-0.00064216,0.004436351840753805,-0.001096133103064139
-0.00064212,0.004108166183603656,-0.003465909261392251
-0.0006420800000000001,0.004140984749318617,-0.004947019360344626
-0.00064204,0.004108166183603418,-0.004058353300974338
-0.000642,0.00397689192074363,-0.004091266858728836
-0.00064196,0.004206621880748718,-0.004420402436274407
-0.00064192,0.003845617657883549,-0.003860871954446936
-0.0006418800000000001,0.004370714709323764,-0.002873465221810222
-0.00064184,0.004206621880748837,-0.002610156759774125
-0.0006418,0.004272259012178758,-0.002807638106301108
-0.00064176,0.004173803315033697,-0.003564649934655922
-0.00064172,0.003714343395023523,-0.002050626277946295
