Analysis/New Tests_CMB/wrd01_d2s01/cmb12_ch41.csv

#Digilent WaveForms Oscilloscope Acquisition
#Device Name: ADP3450
#Serial Number: SN:210018B9D9B0
#Date Time: 2024-08-15 12:02:03.392.761.870
#Sample rate: 5.88235e+06Hz
#Samples: 32768
#Trigger: Source: Channel 3 Type: Edge Condition: Rising Level: 40 mV Hyst.: Auto HoldOff: 0 s
#Channel 3: Range: 100 mV/div Offset: 0 V Attenuation: 1 X Coupling: DC Bandwidth: 0 Hz Sample Mode: Average

Time (s),Channel 3 (V)
-0.00316889610204966,0.01848743376089734
-0.00316872610204966,0.01822412529886136
-0.00316855610204966,0.01828995241436988
-0.00316838610204966,0.01819121174110669
-0.003168216102049659,0.01911279135823429
-0.003168046102049659,0.01931027270476127
-0.00316787610204966,0.02016602520637975
-0.00316770610204966,0.02026476587964324
-0.00316753610204966,0.0205609878994339
-0.00316736610204966,0.02135091328554094
-0.003167196102049659,0.02098886415024356
-0.003167026102049659,0.02092303703473456
-0.00316685610204966,0.02039642011066165
-0.00316668610204966,0.02026476587964366
-0.00316651610204966,0.02006728453311644
-0.00316634610204966,0.01954066760904508
-0.003166176102049659,0.01917861847374244
-0.003166006102049659,0.01884948289619747
-0.00316583610204966,0.01809247106784265
-0.00316566610204966,0.01776333549029768
-0.00316549610204966,0.01750002702826111
-0.00316532610204966,0.01733545923948844
-0.00316515610204966,0.01628222539134585
-0.003164986102049659,0.01769750837478797
-0.00316481610204966,0.01730254568173328
-0.00316464610204966,0.01700632366194281
-0.00316447610204966,0.01694049654643328
-0.00316430610204966,0.01664427452664322
-0.00316413610204966,0.01674301519990545
-0.003163966102049659,0.01618348471807834
-0.003163796102049659,0.01578852202502366
-0.00316362610204966,0.0152289915431972
-0.00316345610204966,0.01473528817687873
-0.00316328610204966,0.01394536279077133
-0.00316311610204966,0.01295795605813534
-0.003162946102049659,0.01259590692283162
-0.003162776102049659,0.0116085001901949
-0.00316260610204966,0.01065400701531448
-0.00316243610204966,0.01062109345755825
-0.00316226610204966,0.01045652566878571
-0.00316209610204966,0.01012739009124103
-0.003161926102049659,0.01062109345755819
-0.003161756102049659,0.01006156297573072
-0.00316158610204966,0.01012739009123972
-0.00316141610204966,0.009962822302467349
-0.00316124610204966,0.01048943922653901
-0.00316107610204966,0.01022613076450446
-0.003160906102049659,0.01164141374794946
-0.003160736102049659,0.01134519172815845
-0.00316056610204966,0.0118388950944768
-0.00316039610204966,0.01206928999875828
-0.00316022610204966,0.01262882048058516
-0.00316005610204966,0.01312252384690274
-0.003159886102049659,0.0134516594244501
-0.003159716102049659,0.01355040009771377
-0.00315954610204966,0.01328709163567732
-0.00315937610204966,0.01302378317364134
-0.00315920610204966,0.01299086961588636
-0.00315903610204966,0.01266173403834193
-0.003158866102049659,0.01285921538486826
-0.003158696102049659,0.01295795605813175
-0.00315852610204966,0.01282630182711352
-0.00315835610204966,0.01262882048058653
-0.00315818610204966,0.01262882048058617
-0.00315801610204966,0.01302378317363942
-0.003157846102049659,0.01312252384690483
-0.003157676102049659,0.01328709163567732
-0.00315750610204966,0.01361622721322289
-0.00315733610204966,0.01384662211750437
-0.00315716610204966,0.01407701702178627
-0.00315699610204966,0.014702374619121
-0.003156826102049659,0.014866942407896
-0.003156656102049659,0.0148340288501415
-0.00315648610204966,0.0146036339458596
-0.00315631610204966,0.01483402885014108
-0.00315614610204966,0.01424158481056055
-0.00315597610204966,0.01384662211750622
-0.003155806102049659,0.01308961028914812
-0.003155636102049659,0.0120692899987587
-0.00315546610204966,0.01124645105489478
-0.00315529610204966,0.0109173154773498
-0.00315512610204966,0.01009447653348678
-0.00315495610204966,0.009896995186958654
-0.00315478610204966,0.009205810474114749
-0.003154616102049659,0.008777934223302994
-0.00315444610204966,0.00950203249390325
-0.00315427610204966,0.008975415569831294
-0.00315410610204966,0.009304551147375309
-0.00315393610204966,0.009370378262884782
-0.00315376610204966,0.009995735860219332
-0.003153596102049659,0.009699513840430593
-0.003153426102049659,0.00983116807144882
-0.00315325610204966,0.0100615629757303
-0.00315308610204966,0.0103577849955212
-0.00315291610204966,0.01022613076450398
-0.00315274610204966,0.01088440191959225
-0.003152576102049659,0.01035778499552173
-0.003152406102049659,0.01068692057306731
-0.00315223610204966,0.01104896970836677
-0.00315206610204966,0.01098314259285844
-0.00315189610204966,0.0112464510548943
-0.00315172610204966,0.01141101884366696
-0.003151556102049659,0.01190472220998592
-0.003151386102049659,0.01216803067202238
-0.00315121610204966,0.01233259846079486
-0.00315104610204966,0.01348457298220256
-0.00315087610204966,0.01355040009771365
-0.00315070610204966,0.01318835096241496
-0.003150536102049659,0.013682054328732
-0.003150366102049659,0.01374788144424112
-0.00315019610204966,0.01453780683035049
-0.00315002610204966,0.01447197971484149
-0.00314985610204966,0.01374788144424243
-0.00314968610204966,0.0136491407709778
-0.003149516102049659,0.0127604747116044
-0.003149346102049659,0.01279338826935896
-0.00314917610204966,0.01210220355651326
-0.00314900610204966,0.01213511711426776
-0.00314883610204966,0.0111147968238784
-0.00314866610204966,0.01141101884366648
-0.003148496102049659,0.01114771038163063
-0.003148326102049659,0.01088440191959465
-0.00314815610204966,0.009995735860221606
-0.00314798610204966,0.009864081629203617
-0.00314781610204966,0.00923872403186793
-0.00314764610204966,0.008317144414742546
-0.003147476102049659,0.007955095279438048
-0.003147306102049659,0.007395564797611595
-0.00314713610204966,0.007362651239857037
-0.00314696610204966,0.006803120758030585
-0.00314679610204966,0.006836034315784064
-0.00314662610204966,0.006276503833958689
-0.003146456102049659,0.006539812295992571
-0.003146286102049659,0.006243590276202096
-0.00314611610204966,0.007955095279439066
-0.00314594610204966,0.006704380084768171
-0.00314577610204966,0.007988008837191288
-0.00314560610204966,0.007691786817403686
-0.003145436102049659,0.008448798645757483
-0.003145266102049659,0.008481712203511979
-0.00314509610204966,0.008580452876775651
-0.00314492610204966,0.009074156243093108
-0.00314475610204966,0.009041242685339511
-0.00314458610204966,0.008909588454321701
-0.003144416102049659,0.00884376133881091
-0.003144246102049659,0.008185490183720966
-0.00314407610204966,0.00904124268533945
-0.00314390610204966,0.00821840374147702
-0.00314373610204966,0.008317144414739013
-0.00314356610204966,0.007922181721685944
-0.00314339610204966,0.007000602104560262
-0.003143226102049659,0.006934774989047795
-0.003143056102049659,0.00653981229599311
-0.00314288610204966,0.00653981229599311
-0.00314271610204966,0.006473985180484115
-0.00314254610204966,0.006836034315782807
-0.00314237610204966,0.007461391913118434
-0.003142206102049659,0.007889268163929951
-0.003142036102049659,0.008942502012075779
-0.00314186610204966,0.009271637589620751
-0.00314169610204966,0.01006156297572928
-0.00314152610204966,0.01045652566878397
-0.00314135610204966,0.01104896970836528
-0.003141186102049659,0.01131227817040389
-0.003141016102049659,0.01134519172815845
-0.00314084610204966,0.01137810528591294
-0.00314067610204966,0.01167432730570348
-0.00314050610204966,0.01177306797896751
-0.00314033610204966,0.01141101884366888
-0.003140166102049659,0.01104896970836743
-0.003139996102049659,0.01114771038163111
-0.00313982610204966,0.01124645105489478
-0.00313965610204966,0.01121353749714028
-0.00313948610204966,0.01111479682387673
-0.00313931610204966,0.01118062393938542
-0.003139146102049659,0.01088440191959465
-0.003138976102049659,0.01081857480408553
-0.00313880610204966,0.01058817989980363
-0.00313863610204966,0.01065400701531263
-0.00313846610204966,0.009995735860222803
-0.00313829610204966,0.009403291820641733
-0.003138126102049659,0.00950203249390361
-0.003137956102049659,0.009699513840430593
-0.00313778610204966,0.009304551147375908
-0.00313761610204966,0.008942502012076439
-0.00313744610204966,0.009337464705129746
-0.00313727610204966,0.008679193550041715
-0.003137106102049659,0.00802092239494794
-0.003136936102049659,0.007889268163929951
-0.00313676610204966,0.007625959701893495
-0.00313659610204966,0.008152576625965451
-0.00313642610204966,0.007000602104559005
-0.00313625610204966,0.007625959701891219
-0.003136086102049659,0.007856354606175633
-0.003135916102049659,0.007988008837193623
-0.00313574610204966,0.007625959701893495
-0.00313557610204966,0.008218403741474445
-0.00313540610204966,0.008086749510457533
-0.00313523610204966,0.008712107107791606
-0.003135066102049659,0.008777934223302275
-0.003134896102049659,0.008382971530248308
-0.00313472610204966,0.008580452876775651
-0.00313455610204966,0.008284230856985176
-0.00313438610204966,0.008185490183721146
-0.00313421610204966,0.008152576625966529
-0.003134046102049659,0.007560132586385577
-0.003133876102049659,0.008218403741475522
-0.00313370610204966,0.006967688546802352
-0.00313353610204966,0.00604610892967643
-0.00313336610204966,0.006638552969255704
-0.00313319610204966,0.005848627583150284
-0.00313302610204966,0.005453664890094163
-0.003132856102049659,0.00528909710131994
-0.003132686102049659,0.004795393735001583
-0.00313251610204966,0.005354924216828037
-0.00313234610204966,0.005091615754793076
-0.00313217610204966,0.005289097101319222
-0.00313200610204966,0.00528909710131994
-0.003131836102049659,0.005947368256411082
-0.003131666102049659,0.005716973352129182
-0.00313149610204966,0.006243590276201139
-0.00313132610204966,0.006770207200274052
-0.00313115610204966,0.007033515662310509
-0.00313098610204966,0.00736265123985584
-0.003130816102049659,0.007691786817402609
-0.003130646102049659,0.007757613932911723
-0.00313047610204966,0.008119663068211191
-0.00313030610204966,0.007922181721684867
-0.00313013610204966,0.008317144414738475
-0.00312996610204966,0.00785635460617707
-0.003129796102049659,0.00756013258638438
-0.003129626102049659,0.007329737682102481
-0.00312945610204966,0.007461391913120469
-0.00312928610204966,0.007165169893330233
-0.00312911610204966,0.006704380084766734
-0.00312894610204966,0.006704380084765896
-0.003128776102049659,0.006342330949465767
-0.003128606102049659,0.005947368256411082
-0.00312843610204966,0.005980281814165639
-0.00312826610204966,0.006013195371920136
-0.00312809610204966,0.005815714025393212
-0.00312792610204966,0.006803120758025975
-0.003127756102049659,0.00723099700883845
-0.003127586102049659,0.007033515662311467
-0.00312741610204966,0.007362651239857037
-0.00312724610204966,0.008448798645755446
-0.00312707610204966,0.009896995186955301
-0.00312690610204966,0.01025904432225675
-0.003126736102049659,0.01108188326612385
-0.003126566102049659,0.01210220355651326
-0.00312639610204966,0.0118388950944768
-0.00312622610204966,0.01210220355651278
-0.00312605610204966,0.0128263018271122
-0.00312588610204966,0.01272756115385021
-0.003125716102049659,0.01253007980732202
-0.003125546102049659,0.01226677134528605
-0.00312537610204966,0.0120692899987587
-0.00312520610204966,0.01183889509447722
-0.00312503610204966,0.01118062393938686
-0.00312486610204966,0.01035778499552473
-0.003124696102049659,0.009732427398183833
-0.003124526102049659,0.009008329127584893
-0.00312435610204966,0.008185490183720966
-0.00312418610204966,0.007165169893331551
-0.00312401610204966,0.006375244507221762
-0.00312384610204966,0.005848627583149327
-0.003123676102049659,0.005223269985810466
-0.003123506102049659,0.005025788639283483
-0.00312333610204966,0.004433344599701455
-0.00312316610204966,0.004696653061737433
-0.00312299610204966,0.004532085272965425
-0.00312282610204966,0.005025788639281686
-0.00312265610204966,0.005157442870301233
-0.003122486102049659,0.005387837774583611
-0.00312231610204966,0.005782800467638296
-0.00312214610204966,0.006177763160692263
-0.00312197610204966,0.006737293642519435
-0.00312180610204966,0.006836034315783765
-0.00312163610204966,0.007329737682100684
-0.003121466102049659,0.007165169893329695
-0.003121296102049659,0.007099342777820581
-0.00312112610204966,0.007988008837192006
-0.00312095610204966,0.0082513172992296
-0.00312078610204966,0.008646279992283328
-0.00312061610204966,0.009403291820636824
-0.003120446102049659,0.01019321720674895
-0.003120276102049659,0.01042361211103085
-0.00312010610204966,0.01104896970836629
-0.00311993610204966,0.0115097595169304
-0.00311976610204966,0.01091731547735028
-0.00311959610204966,0.01111479682387583
-0.003119426102049659,0.01085148836184009
-0.003119256102049659,0.01042361211103085
-0.00311908610204966,0.009436205378395931
-0.00311891610204966,0.008152576625968744
-0.00311874610204966,0.007230997008840486
-0.00311857610204966,0.005289097101327004
-0.003118406102049659,0.005190356428056269
-0.003118236102049659,0.003478851424819299
-0.00311806610204966,0.0027876667119736
-0.00311789610204966,0.003248456520536561
-0.00311772610204966,0.002359790461165974
-0.00311755610204966,0.002787666711972043
-0.003117386102049659,0.002754753154219042
-0.003117216102049659,0.002359790461164357
-0.00311704610204966,0.002853493827482714
-0.00311687610204966,0.003445937867063664
-0.00311670610204966,0.004005468348891195
-0.00311653610204966,0.004499171715208773
-0.003116366102049659,0.005749886909884937
-0.003116196102049659,0.006408158064974882
-0.00311602610204966,0.007230997008838809
-0.00311585610204966,0.007988008837192246
-0.00311568610204966,0.00861336643452907
-0.00311551610204966,0.009074156243092331
-0.003115346102049659,0.008745020665548197
-0.003115176102049659,0.008613366434530208
-0.00311500610204966,0.00881084778105755
-0.00311483610204966,0.00881084778105755
-0.00311466610204966,0.008745020665548556
-0.00311449610204966,0.009271637589619434
-0.003114326102049659,0.00950203249390391
-0.003114156102049659,0.009864081629203377
-0.00311398610204966,0.009633686724921478
-0.00311381610204966,0.009436205378394494
-0.00311364610204966,0.008613366434531705
-0.00311347610204966,0.008843761338811269
-0.003113306102049659,0.008613366434530508
-0.003113136102049659,0.008777934223302994
-0.00311296610204966,0.009337464705130465
-0.00311279610204966,0.009172896916357979
-0.00311262610204966,0.009567859609411646
-0.00311245610204966,0.01025904432225555
-0.00311228610204966,0.01088440191959237
-0.003112116102049659,0.01085148836184009
-0.00311194610204966,0.01239842557630427
-0.00311177610204966,0.01246425269181327
-0.00311160610204966,0.01266173403834037
-0.00311143610204966,0.01233259846079636
-0.00311126610204966,0.01233259846079516
-0.003111096102049659,0.01203637644100415
-0.003110926102049659,0.01104896970836743
-0.00311075610204966,0.01091731547734945
-0.00311058610204966,0.01052235278429524
-0.00311041610204966,0.009502032493906963
-0.00311024610204966,0.008448798645761254
-0.003110076102049659,0.008284230856984636
-0.003109906102049659,0.007527219028629823
-0.00310973610204966,0.007230997008839348
-0.00310956610204966,0.006934774989048334
-0.00310939610204966,0.006144849602939862
-0.00310922610204966,0.005651146236621865
-0.003109056102049659,0.005354924216829054
-0.003108886102049659,0.005486578447847282
-0.00310871610204966,0.005289097101320299
-0.00310854610204966,0.005552405563355918
-0.00310837610204966,0.005552405563356397
-0.00310820610204966,0.005815714025391896
-0.003108036102049659,0.006243590276202096
-0.003107866102049659,0.005782800467638296
-0.00310769610204966,0.006177763160692982
-0.00310752610204966,0.00630941739171097
-0.00310735610204966,0.006342330949465708
-0.00310718610204966,0.006605639411501267
-0.003107016102049659,0.006836034315784124
-0.003106846102049659,0.007033515662311467
-0.00310667610204966,0.007099342777820581
-0.00310650610204966,0.007494305470874548
-0.00310633610204966,0.007757613932911244
-0.00310616610204966,0.007823441048420598
-0.003105996102049659,0.007066429220064766
-0.003105826102049659,0.006375244507220324
-0.00310565610204966,0.005782800467638296
-0.00310548610204966,0.005651146236620308
-0.00310531610204966,0.005289097101320598
-0.00310514610204966,0.004729566619494504
-0.003104976102049659,0.004334603926437963
-0.003104806102049659,0.004433344599701455
-0.00310463610204966,0.004400431041946898
-0.00310446610204966,0.004564998830719385
-0.00310429610204966,0.00472956661949217
-0.00310412610204966,0.004992875081527968
-0.003103956102049659,0.005519492005602677
-0.003103786102049659,0.005980281814165639
-0.00310361610204966,0.007066429220066024
-0.00310344610204966,0.005947368256413118
-0.00310327610204966,0.007000602104554994
-0.00310310610204966,0.006836034315784723
-0.003102936102049659,0.007955095279438348
-0.003102766102049659,0.00756013258638438
-0.00310259610204966,0.007724700375157166
-0.00310242610204966,0.008119663068211132
-0.00310225610204966,0.007263910566594923
-0.00310208610204966,0.006901861431294556
-0.00310191610204966,0.005980281814168991
-0.003101746102049659,0.00630941739171121
-0.00310157610204966,0.005354924216829054
-0.00310140610204966,0.006572725853745452
-0.00310123610204966,0.007000602104556132
-0.00310106610204966,0.00749430547087347
-0.00310089610204966,0.007560132586384141
-0.003100726102049659,0.008251317299230079
-0.003100556102049659,0.00881084778105755
-0.00310038610204966,0.009139983358602524
-0.00310021610204966,0.01002864941797455
-0.00310004610204966,0.01068692057306491
-0.00309987610204966,0.01150975951692824
-0.003099706102049659,0.0118388950944768
-0.003099536102049659,0.01157558663244035
-0.00309936610204966,0.01154267307468585
-0.00309919610204966,0.01190472220998526
-0.00309902610204966,0.01229968490303917
-0.00309885610204966,0.0130896102891471
-0.003098686102049659,0.01279338826935896
-0.003098516102049659,0.01249716624956795
-0.00309834610204966,0.01256299336507694
-0.00309817610204966,0.01272756115384955
-0.00309800610204966,0.01315543740465831
-0.00309783610204966,0.01332000519343128
-0.003097666102049659,0.0132212645201682
-0.003097496102049659,0.01348457298220466
-0.00309732610204966,0.01335291875118643
-0.00309715610204966,0.01322126452016844
-0.00309698610204966,0.01341874586669519
-0.00309681610204966,0.01243133913406242
-0.003096646102049659,0.01174015442121313
-0.003096476102049659,0.01114771038163111
-0.00309630610204966,0.01012739009123984
-0.00309613610204966,0.009403291820640895
-0.00309596610204966,0.008777934223304132
-0.00309579610204966,0.008317144414740869
-0.003095626102049659,0.007757613932911304
-0.003095456102049659,0.007527219028629823
-0.00309528610204966,0.007230997008838809
-0.00309511610204966,0.007132256335575318
-0.00309494610204966,0.007033515662311646
-0.00309477610204966,0.007658873259645776
-0.003094606102049659,0.007461391913120469
-0.003094436102049659,0.007329737682102481
-0.00309426610204966,0.007198083451084253
-0.00309409610204966,0.007494305470874728
-0.00309392610204966,0.008350057972492195
-0.00309375610204966,0.008448798645757063
-0.003093586102049659,0.008613366434530747
-0.003093416102049659,0.008909588454321223
-0.00309324610204966,0.009337464705130465
-0.00309307610204966,0.009534946051657448
-0.00309290610204966,0.00913998335860384
-0.00309273610204966,0.00890958845432206
-0.003092566102049659,0.00848171220351132
-0.003092396102049659,0.00811966306821185
-0.00309222610204966,0.007066429220066024
-0.00309205610204966,0.00841588508800041
-0.00309188610204966,0.008580452876775351
-0.00309171610204966,0.007889268163932466
-0.003091546102049659,0.007691786817402011
-0.003091376102049659,0.007362651239857037
-0.00309120610204966,0.006836034315784124
-0.00309103610204966,0.007296824124347086
-0.00309086610204966,0.005914454698659039
-0.00309069610204966,0.006737293642517459
-0.00309052610204966,0.006572725853748265
-0.003090356102049659,0.00574988690988374
-0.003090186102049659,0.006342330949465767
-0.00309001610204966,0.006111936045184286
-0.00308984610204966,0.006605639411501327
-0.00308967610204966,0.006836034315783286
-0.00308950610204966,0.007296824124346247
