Analysis/New Tests_CMB/wrd01_d2s01/cmb11_ch18.csv

#Digilent WaveForms Oscilloscope Acquisition
#Device Name: ADP3450
#Serial Number: SN:210018B9D9B0
#Date Time: 2024-06-28 13:17:53.598.086.120
#Sample rate: 2.5e+07Hz
#Samples: 32768
#Trigger: Source: Channel 3 Type: Edge Condition: Rising Level: 60 mV Hyst.: Auto HoldOff: 0 s
#Channel 1: Range: 100 mV/div Offset: -370 mV Attenuation: 1 X Coupling: DC Bandwidth: 0 Hz Sample Mode: Average
#Channel 3: Range: 100 mV/div Offset: 0 V Attenuation: 1 X Coupling: DC Bandwidth: 0 Hz Sample Mode: Average

Time (s),Channel 1 (V),Channel 3 (V)
-0.0006553323076923077,-0.0006505258450733575,-0.01310958168347748
-0.0006552923076923077,-0.0005520701479283519,-0.007744671769484675
-0.0006552523076923077,-0.001044348633653905,-0.01403116130060951
-0.0006552123076923077,-0.001241260027943614,-0.01646676457444231
-0.0006551723076923077,-0.0007489815422184187,-0.008205461578048474
-0.0006551323076923077,-9.261022791812179e-05,-0.00962074456149443
-0.0006550923076923077,-0.0004207958850682703,-0.01103602754494038
-0.0006550523076923078,-0.001011530067937452,-0.01231965629736578
-0.0006550123076923077,-0.0006505258450725218,-0.01222091562410492
-0.0006549723076923077,-0.000191065925063183,-0.0124842240861409
-0.0006549323076923077,-0.0005520701479283519,-0.01083854619841304
-0.0006548923076923077,0.0003996682578070732,-0.01261587831715913
-0.0006548523076923078,-2.697309648730492e-05,-0.01373493928081203
-0.0006548123076923077,-5.979166220316109e-05,-0.01185886648880353
-0.0006547723076923077,-9.261022791812179e-05,-0.01143099023799507
-0.0006547323076923077,0.0004324868235220936,-0.01235256985512267
-0.0006546923076923077,-0.0003551587536382295,-0.01215508850859533
-0.0006546523076923078,0.0001043011663711093,-0.01110185466045142
-0.0006546123076923077,0.0005637610863820558,-0.01172721225778537
-0.0006545723076923077,0.0004981239549521344,-0.0113322495647314
-0.0006545323076923077,3.866403494190429e-05,-0.009949880139040001
-0.0006544923076923077,-0.0001582473593481626,-0.01159555802676786
-0.0006544523076923078,-2.697309648808099e-05,-0.01172721225778608
-0.0006544123076923077,7.148260065692469e-05,-0.01100311398718876
-0.0006543723076923077,7.148260065692469e-05,-0.01261587831715913
-0.0006543323076923077,-0.0004207958850682703,-0.01146390379574963
-0.0006542923076923077,-9.261022791812179e-05,-0.01126642244922228
-0.0006542523076923077,-0.001044348633653547,-0.01278044610593191
-0.0006542123076923078,-0.0008802558050787433,-0.01235256985512345
-0.0006541723076923077,-0.0006177072793583371,-0.01199052071982254
-0.0006541323076923077,-0.001241260027943614,-0.01324123591449571
-0.0006540923076923077,-0.001766357079383829,-0.01330706303000483
-0.0006540523076923077,-0.001077167199368567,-0.01281335966368647
-0.0006540123076923078,-0.001667901382237749,-0.01212217495084203
-0.0006539723076923077,-0.0006177072793610832,-0.01561101207281849
-0.0006539323076923077,-0.002127361302248998,-0.01268170543266824
-0.0006538923076923077,-0.001569445685093762,-0.008896646290894173
-0.0006538523076923077,-0.0007818001079334391,-0.01896819496378865
-0.0006538123076923078,-0.001831994210811959,-0.00869916494438551
-0.0006537723076923077,-0.0004536144507857979,-0.01965937967662447
-0.0006537323076923077,-0.00183199421081387,-0.01422864264713243
-0.0006536923076923077,-0.001470989987948701,-0.007250968403166318
-0.0006536523076923077,-0.0002567030564932238,-0.01844157803971573
-0.0006536123076923078,-0.0005848887136427198,-0.01393242062734961
-0.0006535723076923077,-0.0004207958850688672,-0.01195760716207194
-0.0006535323076923077,-0.0007489815422184187,-0.01412990197386875
-0.0006534923076923077,-0.0008474372393634799,-0.01462360534018711
-0.0006534523076923077,-0.0002238844907782034,-0.01491982735997812
-0.0006534123076923077,-0.0004864330164983111,-0.01429446976264154
-0.0006533723076923078,-0.0006505258450730591,-0.01686172726749232
-0.0006533323076923077,-5.979166220310139e-05,-0.01659841880546054
-0.0006532923076923077,-0.0002238844907782034,-0.01462360534018711
-0.0006532523076923077,-0.0009130743707934652,-0.01775039332687003
-0.0006532123076923077,-0.0003879773193532499,-0.01620345611240585
-0.0006531723076923078,-0.0003551587536382891,-0.0180137017889032
-0.0006531323076923077,-0.0003879773193536677,-0.01636802390118247
-0.0006530923076923077,-0.0006177072793583371,-0.01847449159747029
-0.0006530523076923077,-0.0003223401879232091,-0.01794787467339738
-0.0006530123076923077,-0.0005520701479283519,-0.01863905938624308
-0.0006529723076923078,-0.0002238844907788003,-0.01979103390765048
-0.0006529323076923077,-0.000716162976502682,-0.01946189833010958
-0.0006528923076923077,-0.0003223401879232091,-0.02087718131355296
-0.0006528523076923077,-0.001274078593658634,-0.01949481188786156
-0.0006528123076923077,-0.0009130743707934652,-0.01952772544561612
-0.0006527723076923078,-0.001044348633653308,-0.02084426775579601
-0.0006527323076923077,-0.001142804330798791,-0.02091009487130422
-0.0006526923076923077,-0.001274078593658634,-0.01909984919480688
-0.0006526523076923077,-0.001175622896513573,-0.021765847372926
-0.0006526123076923077,-0.001339715725088675,-0.02156836602639866
-0.0006525723076923077,-0.001733538513668809,-0.02064678640927106
-0.0006525323076923078,-0.0005848887136454062,-0.02044930506274408
-0.0006524923076923077,-0.0008474372393634799,-0.02239120497026259
-0.0006524523076923077,-0.001372534290803695,-0.01794787467339738
-0.0006524123076923077,-0.0004864330164983111,-0.01903402207929776
-0.0006523723076923077,-0.001503808553663721,-0.02077844064028929
-0.0006523323076923078,-0.001109985765084304,-0.01985686102316337
-0.0006522923076923077,-0.0008146186736492952,-0.02048221862049743
-0.0006522523076923077,-0.001274078593658634,-0.02002142881193448
-0.0006522123076923077,-0.000978711502223506,-0.01811244246217016
-0.0006521723076923077,-0.0002895216222081887,-0.02117340333334397
-0.0006521323076923078,-0.001044348633652174,-0.02291782189433232
-0.0006520923076923077,-0.0006177072793576804,-0.01459069178245865
-0.0006520523076923077,-0.0002567030564932238,-0.02894100296341945
-0.0006520123076923077,-0.001044348633653547,-0.01442612399365977
-0.0006519723076923077,0.0006293982178121604,-0.01722377640279712
-0.0006519323076923078,-0.0008802558050756987,-0.02973092834950607
-0.0006518923076923077,0.0003012125606606944,-0.009489090330516313
-0.0006518523076923077,-0.0004536144507832907,-0.03154117402602946
-0.0006518123076923077,-0.002160179867964018,-0.01784913400013371
-0.0006517723076923077,0.0003012125606620675,-0.01883654073277042
-0.0006517323076923077,-0.0008802558050784448,-0.02485972180185437
-0.0006516923076923077,-0.001241260027940808,-0.01863905938624655
-0.0006516523076923077,0.0003012125606620675,-0.02054804573600739
-0.0006516123076923077,-0.0007161629765033983,-0.02064678640927106
-0.0006515723076923077,-0.0007818001079334391,-0.02025182371621638
-0.0006515323076923077,-0.0003551587536382295,-0.0210746626600803
-0.0006514923076923078,-0.001044348633652293,-0.01952772544561893
-0.0006514523076923077,-0.0006177072793584565,-0.02186458804618518
-0.0006514123076923077,-0.0006833444107883779,-0.01939607121459789
-0.0006513723076923077,-0.0008146186736484595,-0.01962646611887979
-0.0006513323076923077,-0.001011530067938526,-0.02008725592744359
-0.0006512923076923078,-0.0007161629765039357,-0.02012016948519809
-0.0006512523076923077,-0.0005848887136440928,-0.01890236784828432
-0.0006512123076923077,-0.001011530067938526,-0.0215354524686441
-0.0006511723076923077,-0.0008146186736484595,-0.02137088467987132
-0.0006511323076923077,-0.001602264250808783,-0.02308238968310829
-0.0006510923076923078,-0.0015038085536639,-0.02453058622430617
-0.0006510523076923077,-0.001306897159372699,-0.0222924642969952
-0.0006510123076923077,-0.0007818001079334391,-0.02025182371621638
-0.0006509723076923077,-0.0009458929365084856,-0.02074552708253473
-0.0006509323076923077,-0.001077167199368567,-0.02002142881193448
-0.0006508923076923078,-0.001011530067938526,-0.01946189833010701
-0.0006508523076923077,-0.0009458929365078886,-0.01824409669318654
-0.0006508123076923077,-0.0006177072793583371,-0.01722377640279712
-0.0006507723076923077,-0.0002238844907782034,-0.01755291198034269
-0.0006507323076923077,-0.0005520701479283519,-0.01696046794076066
-0.0006506923076923077,-0.0008146186736484595,-0.01781622044237915
-0.0006506523076923078,-0.0008802558050783254,-0.01883654073276856
-0.0006506123076923077,-0.0008474372393634799,-0.01824409669318839
-0.0006505723076923077,-0.0006505258450733575,-0.01883654073277042
-0.0006505323076923077,-0.0005848887136433167,-0.02031765083172549
-0.0006504923076923077,-0.0005520701479283519,-0.01939607121459789
-0.0006504523076923078,-0.0005520701479283519,-0.01788204755789102
-0.0006504123076923077,-0.0005192515822131523,-0.01728960351830618
-0.0006503723076923077,-0.0004207958850682703,-0.01725668996055168
-0.0006503323076923077,-0.000191065925063183,-0.01679590015198788
-0.0006502923076923077,-0.0006177072793583371,-0.01686172726749699
-0.0006502523076923078,-0.00074898154221818,-0.0168288137097425
-0.0006502123076923077,-0.0002567030564929253,-0.01626928322791472
-0.0006501723076923077,-9.261022791812179e-05,-0.01613762899689674
-0.0006501323076923077,-0.0005848887136433167,-0.01620345611240585
-0.0006500923076923077,-0.0004536144507832907,-0.01659841880546054
-0.0006500523076923078,5.845469226103646e-06,-0.01498565447549017
-0.0006500123076923077,0.0001043011663714675,-0.01455777822467793
-0.0006499723076923077,-0.0001582473593481626,-0.01452486466692344
-0.0006499323076923077,-2.697309648808099e-05,-0.01416281553162331
-0.0006498923076923077,-0.0001254287936331422,-0.01478817312895989
-0.0006498523076923077,-9.261022791812179e-05,-0.01462360534018711
-0.0006498123076923078,-0.0002238844907779646,-0.0147552595712051
-0.0006497723076923077,-0.0004864330164983111,-0.01771747976911548
-0.0006497323076923077,-0.0005848887136433167,-0.01528187649527825
-0.0006496923076923077,-0.0005192515822133315,-0.01653259168995142
-0.0006496523076923077,-0.0004864330164983111,-0.01778330688462459
-0.0006496123076923078,-0.0003551587536384683,-0.01834283736645105
-0.0006495723076923077,-0.00045361445078341,-0.0180795289044186
-0.0006495323076923077,-0.0005192515822133315,-0.01972520679214346
-0.0006494923076923077,-0.0009458929365084856,-0.02002142881193448
-0.0006494523076923077,-0.0008474372393634799,-0.01942898477235245
-0.0006494123076923078,-0.0009787115022232673,-0.01982394746540642
-0.0006493723076923077,-0.0006833444107876019,-0.02015308304295204
-0.0006493323076923077,-0.0002567030564932238,-0.01979103390765257
-0.0006492923076923077,-0.0006833444107883779,-0.02064678640927106
-0.0006492523076923077,-0.0003551587536382295,-0.01936315765684333
-0.0006492123076923078,-0.0003223401879232688,-0.01956063900337032
-0.0006491723076923077,-0.000781800107931887,-0.02005434236968544
-0.0006491323076923077,7.148260065692469e-05,-0.01807952890441561
-0.0006490923076923077,-0.0005520701479283519,-0.01751999842258814
-0.0006490523076923077,-0.0002895216222081887,-0.01676298659423332
-0.0006490123076923077,7.148260065692469e-05,-0.01748708486483358
-0.0006489723076923077,-0.0007818001079327824,-0.01587432053486339
-0.0006489323076923077,-0.0004207958850682703,-0.01758582553809725
-0.0006488923076923077,-0.0004536144507832907,-0.0152489629375237
-0.0006488523076923077,-0.0006177072793583371,-0.01640093745893319
-0.0006488123076923077,-0.0006177072793583371,-0.01561101207282382
-0.0006487723076923078,-0.0009130743707929279,-0.01574266630384181
-0.0006487323076923077,-0.0009458929365087841,-0.01528187649527825
-0.0006486923076923077,-0.001109985765083588,-0.01528187649527825
-0.0006486523076923077,-0.0004864330164983111,-0.01577557986159661
-0.0006486123076923077,-0.0004207958850682703,-0.01468943245569622
-0.0006485723076923078,-0.001011530067937452,-0.01577557986159463
-0.0006485323076923077,-0.0006505258450732382,-0.01636802390117918
-0.0006484923076923077,-0.0005848887136433167,-0.01666424592096965
-0.0006484523076923077,-0.0007818001079334391,-0.01511730870650547
-0.0006484123076923077,-0.0007489815422184187,-0.01659841880546054
-0.0006483723076923078,-0.0009130743707931667,-0.01656550524770604
-0.0006483323076923077,-0.0004536144507833503,-0.01640093745893367
-0.0006482923076923077,-0.0004864330164983111,-0.01666424592096965
-0.0006482523076923077,-0.0006505258450733575,-0.01656550524770598
-0.0006482123076923077,-0.0006505258450733575,-0.01633511034342408
-0.0006481723076923077,-0.0006177072793583371,-0.01600597476587851
-0.0006481323076923077,-0.000913074370792928,-0.01554518495731603
-0.0006480923076923077,-0.0006177072793583371,-0.01626928322791496
-0.0006480523076923077,-0.0006505258450733575,-0.01603888832363307
-0.0006480123076923077,-0.0006177072793583371,-0.01538061716854192
-0.0006479723076923077,-0.001438171422233681,-0.01567683918833294
-0.0006479323076923078,-0.001274078593658932,-0.01620345611240489
-0.0006478923076923077,-0.000847437239364256,-0.01600597476587809
-0.0006478523076923077,-0.001274078593658634,-0.01577557986159661
-0.0006478123076923077,-0.001109985765083588,-0.01521604937976914
-0.0006477723076923077,-0.000978711502223506,-0.01659841880546054
-0.0006477323076923078,-0.001044348633653427,-0.0158743205348616
-0.0006476923076923077,-0.001503808553662945,-0.01613762899689853
-0.0006476523076923077,-0.001077167199368567,-0.01712503572953345
-0.0006476123076923077,-0.0008802558050784448,-0.01702629505626978
-0.0006475723076923077,-0.001077167199368567,-0.01696046794076066
-0.0006475323076923078,-0.0009130743707937637,-0.01725668996055114
-0.0006474923076923077,-0.0004864330164989677,-0.01597306120812407
-0.0006474523076923077,-0.0008474372393634799,-0.01603888832363307
-0.0006474123076923077,-0.0007161629765033983,-0.01778330688462459
-0.0006473723076923077,-0.0001582473593481626,-0.01498565447548724
-0.0006473323076923078,-0.0003551587536382295,-0.01623636967016041
-0.0006472923076923077,-0.0003551587536378116,-0.01748708486483143
-0.0006472523076923077,-0.0001254287936331422,-0.01630219678566952
-0.0006472123076923077,-0.0007161629765033983,-0.01590723409261484
-0.0006471723076923077,-0.0004536144507832907,-0.01633511034342408
-0.0006471323076923077,-0.0003551587536382295,-0.01459069178243255
-0.0006470923076923078,-0.0004207958850681509,-0.01557809851506747
-0.0006470523076923077,-0.0001582473593481626,-0.01626928322791496
-0.0006470123076923077,-2.697309648808099e-05,-0.01518313582201458
-0.0006469723076923077,-0.0005848887136433167,-0.01564392563057838
-0.0006469323076923077,-0.0003551587536382295,-0.01719086284504256
-0.0006468923076923078,-0.000519251582213033,-0.01617054255465315
-0.0006468523076923077,-0.000519251582213033,-0.01475525957120911
-0.0006468123076923077,-0.0003551587536382295,-0.01682881370974244
-0.0006467723076923077,-0.0008146186736484595,-0.01725668996055168
-0.0006467323076923077,-0.0007489815422184187,-0.01653259168995142
-0.0006466923076923078,-0.0003879773193539065,-0.01673007303647841
-0.0006466523076923077,-0.000519251582213033,-0.0171250357295374
-0.0006466123076923077,-0.0003551587536382295,-0.01929733054133422
-0.0006465723076923077,-0.0007818001079334391,-0.01801370178890649
-0.0006465323076923077,-0.001044348633653547,-0.01709212217177889
-0.0006464923076923078,-0.0006833444107890345,-0.01830992380869529
-0.0006464523076923077,-0.00078180010793326,-0.01956063900336613
-0.0006464123076923077,-0.0006833444107883779,-0.01705920861402434
-0.0006463723076923077,-0.0007818001079334391,-0.01893528140603409
-0.0006463323076923077,-0.001208441462228593,-0.01781622044237915
-0.0006462923076923077,-0.0009130743707934652,-0.01821118313543383
-0.0006462523076923078,-0.0009458929365084259,-0.01761873909585289
-0.0006462123076923077,-0.0008474372393634799,-0.01745417130707902
-0.0006461723076923077,-0.001044348633653547,-0.01673007303647877
-0.0006461323076923077,-0.001339715725088675,-0.01607180188138762
-0.0006460923076923077,-0.001372534290803695,-0.01778330688462459
-0.0006460523076923078,-0.0008474372393644351,-0.01587432053486375
-0.0006460123076923077,-0.0006177072793580387,-0.01528187649528196
-0.0006459723076923077,-0.0004536144507832907,-0.01732251707606079
-0.0006459323076923077,-0.0002895216222081887,-0.01521604937976914
-0.0006458923076923077,-0.0008474372393634799,-0.01485400024446901
-0.0006458523076923078,-0.0002895216222092035,-0.01870488650174519
-0.0006458123076923077,-0.0002895216222077708,-0.01189178004656426
-0.0006457723076923077,-5.979166220310139e-05,-0.01485400024446901
-0.0006457323076923077,-0.0004207958850682703,-0.01821118313543383
-0.0006456923076923077,0.0001371197320869655,-0.01337289014551394
-0.0006456523076923078,7.148260065704409e-05,-0.01561101207281975
-0.0006456123076923077,-2.697309648760342e-05,-0.01623636967015801
-0.0006455723076923077,0.0002355754292320267,-0.01491982735997812
-0.0006455323076923077,0.0003340311263770324,-0.01297792745245925
-0.0006454923076923077,0.0001043011663719451,-0.01478817312895989
-0.0006454523076923077,-0.0006505258450733575,-0.01886945429052498
-0.0006454123076923077,-9.261022791812179e-05,-0.01409698841611593
-0.0006453723076923077,-9.261022791812179e-05,-0.01505148159099635
-0.0006453323076923077,-0.0001254287936331422,-0.01715794928728801
-0.0006452923076923077,-0.0009130743707934652,-0.01508439514875091
-0.0006452523076923077,-0.0003879773193532499,-0.01531479005303281
-0.0006452123076923078,-0.0002895216222083678,-0.01636802390117672
-0.0006451723076923077,-0.0004864330164982514,-0.01439321043590772
-0.0006451323076923077,-0.0004536144507832907,-0.01577557986159661
-0.0006450923076923077,-0.001077167199368567,-0.01515022226426002
-0.0006450523076923077,-0.0007161629765033983,-0.01478817312895989
-0.0006450123076923078,-0.0008146186736482804,-0.0147552595712054
-0.0006449723076923077,-0.0005192515822143463,-0.01432738332039514
-0.0006449323076923077,-0.001077167199368567,-0.01380076639632318
-0.0006448923076923077,-0.001175622896513573,-0.01403116130060508
-0.0006448523076923077,-0.001077167199368567,-0.01445903755141432
-0.0006448123076923078,-0.0006505258450741336,-0.01452486466692332
-0.0006447723076923077,-0.001503808553661453,-0.01393242062733962
-0.0006447323076923077,-0.0002567030564932238,-0.0129450138947047
-0.0006446923076923077,-0.001175622896513573,-0.01998851525417992
-0.0006446523076923077,-0.0008146186736484595,-0.009522003888230759
-0.0006446123076923078,0.0001699382978019859,-0.01715794928728801
-0.0006445723076923077,-0.001372534290801009,-0.01412990197387187
-0.0006445323076923077,0.0001043011663719451,-0.01584140697710572
-0.0006444923076923077,-0.0006177072793583371,-0.01936315765684333
-0.0006444523076923077,-0.0006505258450733575,-0.0106410648518857
-0.0006444123076923077,0.0004981239549521344,-0.01867197294399764
-0.0006443723076923078,-0.0003223401879217167,-0.01844157803971615
-0.0006443323076923077,-0.0004864330164974753,-0.0132412359145032
-0.0006442923076923077,-2.697309648808099e-05,-0.01735543063381535
-0.0006442523076923077,-0.0003879773193532499,-0.01643385101668775
-0.0006442123076923077,-0.0006833444107883779,-0.01607180188138762
-0.0006441723076923078,-0.000289521622208905,-0.01679590015198656
-0.0006441323076923077,0.0003012125606620078,-0.01577557986160188
-0.0006440923076923077,0.0002683939949470471,-0.01867197294399764
-0.0006440523076923077,-0.0001582473593481626,-0.01511730870650547
-0.0006440123076923077,-0.0002238844907782034,-0.01692755438300611
-0.0006439723076923078,-0.0005520701479277549,-0.01564392563058072
-0.0006439323076923077,-0.0004207958850693448,-0.01633511034342612
-0.0006438923076923077,-0.001011530067938526,-0.01745417130707902
-0.0006438523076923077,-0.001044348633653547,-0.01830992380869751
-0.0006438123076923077,-0.0004207958850682703,-0.01528187649527825
-0.0006437723076923078,-0.0008802558050784448,-0.01913276275256143
-0.0006437323076923077,-0.001044348633654562,-0.01860614582848696
-0.0006436923076923077,-0.001602264250808783,-0.01775039332687003
