Analysis/New Tests_CMB/wrd01_d2s01/cmb13_ch41.csv

#Digilent WaveForms Oscilloscope Acquisition
#Device Name: ADP3450
#Serial Number: SN:210018B9D9B0
#Date Time: 2024-08-06 18:16:45.199.658.860
#Sample rate: 2.94118e+06Hz
#Samples: 32768
#Trigger: Source: Channel 3 Type: Edge Condition: Rising Level: 60 mV Hyst.: Auto HoldOff: 0 s
#Channel 3: Range: 200 mV/div Offset: -20 mV Attenuation: 1 X Coupling: DC Bandwidth: 0 Hz Sample Mode: Average

Time (s),Channel 3 (V)
-0.005570465167095117,0.02332962380830691
-0.005570125167095116,0.02227638996015941
-0.005569785167095116,0.02135481034303348
-0.005569445167095117,0.02079527986120601
-0.005569105167095116,0.02036740361039623
-0.005568765167095116,0.02007118159060576
-0.005568425167095117,0.0198078731285693
-0.005568085167095116,0.01885337995368547
-0.005567745167095116,0.01793180033655955
-0.005567405167095116,0.01697730716167739
-0.005567065167095116,0.01579241908251088
-0.005566725167095116,0.01444296321457649
-0.005566385167095116,0.01398217340601269
-0.005566045167095116,0.01427839542580436
-0.005565705167095116,0.01464044456110383
-0.005565365167095116,0.01513414792742219
-0.005565025167095116,0.01595698687128678
-0.005564685167095116,0.01631903600658625
-0.005564345167095116,0.0165823444686227
-0.005564005167095116,0.01628612244882935
-0.005563665167095116,0.01500249369640396
-0.005563325167095116,0.01394925984825813
-0.005562985167095117,0.0130935073466412
-0.005562645167095116,0.01217192772951205
-0.005562305167095116,0.01174405147870281
-0.005561965167095117,0.01171113792094831
-0.005561625167095116,0.01164531080543914
-0.005561285167095116,0.01194153282523015
-0.005560945167095117,0.01204027349849364
-0.005560605167095116,0.01312642090439421
-0.005560265167095116,0.01408091407927636
-0.005559925167095117,0.0148379259076298
-0.005559585167095116,0.01523288860068586
-0.005559245167095116,0.01559493773598599
-0.005558905167095117,0.01506832081191403
-0.005558565167095116,0.01447587677233105
-0.005558225167095116,0.01342264292418522
-0.005557885167095117,0.0125010633070593
-0.005557545167095116,0.01174405147870281
-0.005557205167095116,0.01141491590115724
-0.005556865167095117,0.01174405147870221
-0.005556525167095116,0.01180987859421192
-0.005556185167095116,0.01217192772951205
-0.005555845167095117,0.012764371769093
-0.005555505167095116,0.01365303782846712
-0.005555165167095116,0.01365303782846712
-0.005554825167095117,0.0138834327327486
-0.005554485167095116,0.01362012427071256
-0.005554145167095116,0.01296185311562142
-0.005553805167095117,0.01240232263379395
-0.005553465167095116,0.01180987859421192
-0.005553125167095116,0.01105286676585711
-0.005552785167095117,0.01026294137974774
-0.005552445167095116,0.009999632917711282
-0.005552105167095116,0.009999632917711282
-0.005551765167095117,0.009999632917711282
-0.005551425167095116,0.01019711426423904
-0.005551085167095116,0.01042750916852052
-0.005550745167095117,0.01052624984178419
-0.005550405167095116,0.0111516074391206
-0.005550065167095116,0.01105286676585711
-0.005549725167095117,0.01092121253483888
-0.005549385167095116,0.01095412609259236
-0.005549045167095116,0.01036168205301141
-0.005548705167095117,0.009703410897920267
-0.005548365167095116,0.008913485511810058
-0.005548025167095116,0.008452695703247097
-0.005547685167095117,0.007169066950819369
-0.005547345167095116,0.006971585604289632
-0.005547005167095116,0.005655043294109744
-0.005546665167095116,0.005194253485545943
-0.005546325167095116,0.004733463676981965
-0.005545985167095116,0.004634723003718472
-0.005545645167095116,0.004272673868418345
-0.005545305167095116,0.004371414541685488
-0.005544965167095116,0.006280400891446328
-0.005544625167095116,0.00772859743264684
-0.005544285167095116,0.009571756666904734
-0.005543945167095116,0.01105286676585711
-0.005543605167095116,0.01167822436319369
-0.005543265167095116,0.0120073599407395
-0.005542925167095116,0.01213901417175749
-0.005542585167095116,0.01184279215196648
-0.005542245167095117,0.01154657013217601
-0.005541905167095116,0.01138200234340268
-0.005541565167095116,0.009802151571183939
-0.005541225167095117,0.009703410897920447
-0.005540885167095116,0.009407188878129254
-0.005540545167095116,0.009110966858338239
-0.005540205167095117,0.008946399069565753
-0.005539865167095116,0.008518522818756211
-0.005539525167095116,0.008189387241210641
-0.005539185167095117,0.007728597432647678
-0.005538845167095116,0.007498202528364941
-0.005538505167095116,0.007498202528364941
-0.005538165167095117,0.00786025166366441
-0.005537825167095116,0.008353955029983425
-0.005537485167095116,0.008880571954056339
-0.005537145167095117,0.009736324455673268
-0.005536805167095116,0.01009837359097495
-0.005536465167095116,0.0107566447460661
-0.005536125167095117,0.01131617522789255
-0.005535785167095116,0.01128326167013901
-0.005535445167095116,0.01115160743912078
-0.005535105167095117,0.01029585493750385
-0.005534765167095116,0.009407188878129254
-0.005534425167095116,0.008847658396301783
-0.005534085167095117,0.008123560125702842
-0.005533745167095116,0.00772859743264684
-0.005533405167095116,0.00762985675938317
-0.005533065167095117,0.008123560125701526
-0.005532725167095116,0.00772859743264684
-0.005532385167095116,0.007201980508573926
-0.005532045167095117,0.007234894066328485
-0.005531705167095116,0.007333634739592155
-0.005531365167095116,0.007333634739592155
-0.005531025167095117,0.007300721181837598
-0.005530685167095116,0.007761510990401397
-0.005530345167095116,0.008156473683456083
-0.005530005167095117,0.008189387241210641
-0.005529665167095116,0.007333634739590538
-0.005529325167095116,0.006444968680219114
-0.005528985167095117,0.00601709242940987
-0.005528645167095116,0.006082919544920243
-0.005528305167095116,0.006774104257764684
-0.005527965167095117,0.008386868587737984
-0.005527625167095116,0.009341361762621396
-0.005527285167095116,0.01003254647546584
-0.005526945167095117,0.01023002782199318
-0.005526605167095116,0.01036168205301069
-0.005526265167095116,0.009966719359956725
-0.005525925167095116,0.009473015993638367
-0.005525585167095116,0.00930844820486606
-0.005525245167095116,0.00957175666690204
-0.005524905167095116,0.009933805802202166
-0.005524565167095116,0.009473015993637588
-0.005524225167095116,0.009045139742829125
-0.005523885167095116,0.008946399069565453
-0.005523545167095116,0.008584349934264308
-0.005523205167095116,0.008024819452437855
-0.005522865167095116,0.007695683874892284
-0.005522525167095116,0.007662770317138026
-0.005522185167095116,0.007827338105910513
-0.005521845167095116,0.007564029643874055
-0.005521505167095116,0.007465288970610683
-0.005521165167095116,0.00762985675938317
-0.005520825167095116,0.007695683874892284
-0.005520485167095117,0.008057733010191753
-0.005520145167095116,0.008683090607528997
-0.005519805167095116,0.009308448204865582
-0.005519465167095117,0.01003254647546452
-0.005519125167095116,0.01078955830382065
-0.005518785167095116,0.01078955830382065
-0.005518445167095117,0.0114478294589106
-0.005518105167095116,0.01078955830382065
-0.005517765167095116,0.01065790407280242
-0.005517425167095117,0.01019711426423946
-0.005517085167095116,0.009933805802202166
-0.005516745167095116,0.009802151571183939
-0.005516405167095117,0.009473015993638966
-0.005516065167095116,0.008518522818756211
-0.005515725167095116,0.007366548297346712
-0.005515385167095117,0.007399461855101211
-0.005515045167095116,0.007070326277555699
-0.005514705167095116,0.006346228006955442
-0.005514365167095117,0.006412055122464436
-0.005514025167095116,0.007366548297346712
-0.005513685167095116,0.007794424548155956
-0.005513345167095117,0.007893165221419446
-0.005513005167095116,0.008189387241210641
-0.005512665167095116,0.008288127914474312
-0.005512325167095117,0.008353955029983425
-0.005511985167095116,0.008617263492019883
-0.005511645167095116,0.008090646567946969
-0.005511305167095117,0.007366548297346712
-0.005510965167095116,0.006543709353482785
-0.005510625167095116,0.005095512812282273
-0.005510285167095117,0.005029685696773157
-0.005509945167095116,0.005194253485545943
-0.005509605167095116,0.005589216178600628
-0.005509265167095117,0.007070326277555699
-0.005508925167095116,0.007860251663666686
-0.005508585167095116,0.00874891772303811
-0.005508245167095117,0.00874891772303811
-0.005507905167095116,0.00845269570324572
-0.005507565167095116,0.007695683874892284
-0.005507225167095117,0.007366548297346712
-0.005506885167095116,0.007465288970610504
-0.005506545167095116,0.007531116086119498
-0.005506205167095117,0.007399461855101271
-0.005505865167095116,0.007399461855100911
-0.005505525167095116,0.007201980508573926
-0.005505185167095117,0.00772859743264684
-0.005504845167095116,0.008123560125702903
-0.005504505167095116,0.008880571954056339
-0.005504165167095116,0.009440102435883811
-0.005503825167095116,0.00990089224444767
-0.005503485167095116,0.009933805802202166
-0.005503145167095116,0.01032876849525685
-0.005502805167095116,0.009802151571183878
-0.005502465167095116,0.009769238013429382
-0.005502125167095116,0.008518522818756211
-0.005501785167095116,0.008189387241209503
-0.005501445167095116,0.007564029643874055
-0.005501105167095116,0.006774104257764684
-0.005500765167095116,0.006247487333691413
-0.005500425167095116,0.006050005987164429
-0.005500085167095116,0.006082919544918986
-0.005499745167095117,0.006477882237972953
-0.005499405167095116,0.007366548297346712
-0.005499065167095116,0.009110966858338239
-0.005498725167095117,0.01059207695729062
-0.005498385167095116,0.01184279215196648
-0.005498045167095116,0.01312642090439421
-0.005497705167095117,0.0131922480199032
-0.005497365167095116,0.01246814974930307
-0.005497025167095116,0.01207318705624838
-0.005496685167095117,0.009867978686697063
-0.005496345167095116,0.008584349934265326
-0.005496005167095116,0.00693867204653747
-0.005495665167095117,0.00611583310267504
-0.005495325167095116,0.005951265313900757
-0.005494985167095116,0.006379141564709999
-0.005494645167095117,0.007596943201626398
-0.005494305167095116,0.00874891772303811
-0.005493965167095116,0.0100654600332204
-0.005493625167095117,0.01072373118831034
-0.005493285167095116,0.01115160743912078
-0.005492945167095116,0.01078955830382065
-0.005492605167095117,0.01013128714873071
-0.005492265167095116,0.009473015993638367
-0.005491925167095116,0.009143880416092796
-0.005491585167095117,0.009374275320374277
-0.005491245167095116,0.009802151571183939
-0.005490905167095116,0.01059207695729331
-0.005490565167095117,0.01082247186157521
-0.005490225167095116,0.01088829897708432
-0.005489885167095116,0.01042750916852052
-0.005489545167095117,0.009703410897920267
-0.005489205167095116,0.008222300798965198
-0.005488865167095116,0.007004499162046584
-0.005488525167095117,0.006280400891446328
-0.005488185167095116,0.005720870409618019
-0.005487845167095116,0.005260080601055058
-0.005487505167095117,0.005325907716564172
-0.005487165167095116,0.005786697525129408
-0.005486825167095116,0.006576622911237342
-0.005486485167095117,0.007103239835310256
-0.005486145167095116,0.007169066950819968
-0.005485805167095116,0.007498202528364941
-0.005485465167095117,0.007926078779174183
-0.005485125167095116,0.007629856759381912
-0.005484785167095116,0.00693867204653747
-0.005484445167095117,0.006774104257764684
-0.005484105167095116,0.005918351756145661
-0.005483765167095116,0.005622129736355185
-0.005483425167095116,0.004700550119227587
-0.005483085167095116,0.004404328099436513
-0.005482745167095116,0.004371414541682016
-0.005482405167095116,0.004733463676982144
-0.005482065167095116,0.00499677213901878
-0.005481725167095116,0.005095512812282273
-0.005481385167095116,0.005062599254527716
-0.005481045167095116,0.004667636561471534
-0.005480705167095116,0.003844797617609103
-0.005480365167095116,0.003844797617609103
-0.005480025167095116,0.003647316271082657
-0.005479685167095116,0.004141019637400115
-0.005479345167095116,0.004832204350245815
-0.005479005167095117,0.004568895888209837
-0.005478665167095116,0.0003230469378714927
-0.005478325167095116,-0.01024220510134134
-0.005477985167095117,-0.02900293302140477
-0.005477645167095116,-0.05487298941652078
-0.005477305167095116,-0.08627252351436826
-0.005476965167095117,-0.1202064015592549
-0.005476625167095116,-0.1532186999871374
-0.005476285167095116,-0.182083890137884
-0.005475945167095117,-0.20591330595214
-0.005475605167095116,-0.2241803305059625
-0.005475265167095116,-0.2370495315879944
-0.005474925167095117,-0.2443892549672473
-0.005474585167095116,-0.2466273768945705
-0.005474245167095116,-0.2454095752576519
-0.005473905167095117,-0.2416903432313937
-0.005473565167095116,-0.2358975570665849
-0.005473225167095116,-0.2285907472450732
-0.005472885167095117,-0.2215801594433653
-0.005472545167095116,-0.2142075225063317
-0.005472205167095116,-0.2069336262425746
-0.005471865167095117,-0.1996597299788307
-0.005471525167095116,-0.1923200065995513
-0.005471185167095116,-0.1860664306261854
-0.005470845167095117,-0.1796812004218129
-0.005470505167095116,-0.1735921922372083
-0.005470165167095116,-0.1674702704948607
-0.005469825167095117,-0.161644570772304
-0.005469485167095116,-0.1546998100860925
-0.005469145167095116,-0.1477550493998809
-0.005468805167095117,-0.141139424291215
-0.005468465167095116,-0.1346554534135672
-0.005468125167095116,-0.1289614079220288
-0.005467785167095117,-0.123892720027827
-0.005467445167095116,-0.11958104396198
-0.005467105167095116,-0.1159605526089788
-0.005466765167095117,-0.1128008510645413
-0.005466425167095116,-0.1096411495200974
-0.005466085167095116,-0.1061193988403662
-0.005465745167095117,-0.1020052041210465
-0.005465405167095116,-0.09756187382417328
-0.005465065167095116,-0.09311854352731613
-0.005464725167095117,-0.08890560813473283
-0.005464385167095116,-0.08439645072235215
-0.005464045167095116,-0.08090761360037546
-0.005463705167095117,-0.07722129513186504
-0.005463365167095116,-0.07389702579864987
-0.005463025167095116,-0.07119811406278109
-0.005462685167095116,-0.06853211588466199
-0.005462345167095116,-0.06616233972632878
-0.005462005167095116,-0.06336468731719652
-0.005461665167095116,-0.06046829423479549
-0.005461325167095116,-0.0578022960566715
-0.005460985167095116,-0.05513629787855723
-0.005460645167095116,-0.05220699123840165
-0.005460305167095116,-0.05029800488863453
-0.005459965167095116,-0.04875106767417315
-0.005459625167095116,-0.04720413045970897
-0.005459285167095116,-0.04595341526503473
-0.005458945167095116,-0.04536097122545377
-0.005458605167095116,-0.04466978651260808
-0.005458265167095116,-0.04305702218263256
-0.005457925167095116,-0.04183922054571616
-0.005457585167095116,-0.04006188842697008
-0.005457245167095117,-0.03798833428843676
-0.005456905167095116,-0.03581603947663221
-0.005456565167095116,-0.03354500399156777
-0.005456225167095117,-0.03153727696854344
-0.005455885167095116,-0.02943080927224814
-0.005455545167095116,-0.02748890936472927
-0.005455205167095117,-0.02600779926577688
-0.005454865167095116,-0.02413172647376444
-0.005454525167095116,-0.02156446896890898
-0.005454185167095117,-0.01922760636833968
-0.005453845167095116,-0.0174831878073439
-0.005453505167095116,-0.01570585568859782
-0.005453165167095117,-0.01485010318698089
-0.005452825167095116,-0.01501467097575212
-0.005452485167095116,-0.01508049809126123
-0.005452145167095117,-0.01682491665224959
-0.005451805167095116,-0.01623247261267073
-0.005451465167095116,-0.01629829972817985
-0.005451125167095117,-0.01491593030249097
-0.005450785167095116,-0.01323733885700604
-0.005450445167095116,-0.01142709318050539
-0.005450105167095117,-0.009978896639307518
-0.005449765167095116,-0.008958576348913613
-0.005449425167095116,-0.008168650962804242
-0.005449085167095117,-0.007642034038732287
-0.005448745167095116,-0.006588800190585501
-0.005448405167095116,-0.005996356151003471
-0.005448065167095117,-0.005765961246721574
-0.005447725167095116,-0.006226751055285373
-0.005447385167095116,-0.006062183266512589
-0.005447045167095117,-0.005765961246721574
-0.005446705167095116,-0.005996356151003471
-0.005446365167095116,-0.005963442593248915
-0.005446025167095117,-0.006062183266512589
-0.005445685167095116,-0.006259664613039929
-0.005445345167095116,-0.006259664613039929
-0.005445005167095117,-0.005568479900194229
-0.005444665167095116,-0.00514060364938349
-0.005444325167095116,-0.00431776470552106
-0.005443985167095117,-0.003165790184111561
-0.005443645167095116,-0.002013815662701224
-0.005443305167095116,-0.001553025854138263
-0.005442965167095117,-0.001059322487819907
-0.005442625167095116,-0.0008618411412910663
-0.005442285167095116,-3.900219742863573e-05
-0.005441945167095117,0.0003888740533806063
-0.005441605167095116,0.0008825774196998601
-0.005441265167095116,0.001376280786017318
-0.005440925167095116,0.002626995980690491
-0.005440585167095116,0.003252353578028451
-0.005440245167095116,0.004009365406381887
-0.005439905167095116,0.004173933195154675
-0.005439565167095116,0.0049967721390189
-0.005439225167095116,0.005161339927791386
-0.005438885167095116,0.005062599254527716
-0.005438545167095116,0.004568895888205706
-0.005438205167095116,0.002561168865181374
-0.005437865167095116,0.0006192689576625041
-0.005437525167095116,-0.000730186910276072
-0.005437185167095116,-0.00168468008515649
-0.005436845167095116,-0.001980902104947505
-0.005436505167095117,-0.001388458065366557
-0.005436165167095116,-0.0004997920059924346
-0.005435825167095116,-0.0001377428706923062
-0.005435485167095117,0.0002572198223616606
-0.005435145167095116,0.000191392706853262
-0.005434805167095116,0.0001584791490987052
-0.005434465167095117,-6.088639673779562e-06
-0.005434125167095116,0.0005534418421533904
-0.005433785167095116,0.001935811267844791
-0.005433445167095117,0.002923218000479706
-0.005433105167095116,0.003943538290872774
-0.005432765167095116,0.004667636561473031
-0.005432425167095117,0.004634723003718532
-0.005432085167095116,0.003844797617609103
-0.005431745167095116,0.003416921366799861
-0.005431405167095117,0.002594082422937427
-0.005431065167095116,0.002232033287635805
-0.005430725167095116,0.00180415703682656
-0.005430385167095117,0.002594082422934494
-0.005430045167095116,0.004108106079645558
-0.005429705167095116,0.005457561947582401
-0.005429365167095117,0.006510795795726312
-0.005429025167095116,0.007498202528364941
-0.005428685167095116,0.007432375412855827
-0.005428345167095117,0.007136153393065351
-0.005428005167095116,0.006708277142255571
-0.005427665167095116,0.006379141564709999
-0.005427325167095117,0.006346228006955442
-0.005426985167095116,0.006543709353482785
-0.005426645167095116,0.006576622911237342
-0.005426305167095117,0.006115833102673543
-0.005425965167095116,0.005852524640637086
-0.005425625167095116,0.0059183517561462
-0.005425285167095117,0.005852524640637086
-0.005424945167095116,0.006082919544918986
-0.005424605167095116,0.006872844931028356
-0.005424265167095117,0.006872844931028356
-0.005423925167095116,0.006115833102672944
-0.005423585167095116,0.005786697525127971
-0.005423245167095117,0.005260080601055058
-0.005422905167095116,0.005391734832073226
-0.005422565167095116,0.005358821274318729
-0.005422225167095117,0.0049967721390186
-0.005421885167095116,0.005457561947583719
-0.005421545167095116,0.006181660218182656
-0.005421205167095117,0.0068399313732738
-0.005420865167095116,0.006938672046538728
-0.005420525167095116,0.00762985675938317
-0.005420185167095116,0.008123560125701526
-0.005419845167095116,0.008748917723039488
-0.005419505167095116,0.009505929551392924
-0.005419165167095116,0.009867978686693053
-0.005418825167095116,0.01016420070648365
-0.005418485167095116,0.009933805802202166
-0.005418145167095116,0.01003254647546584
-0.005417805167095116,0.0102629413797487
-0.005417465167095116,0.01078955830382065
-0.005417125167095116,0.01052624984178419
-0.005416785167095116,0.009736324455674465
-0.005416445167095116,0.009538843109147481
-0.005416105167095116,0.008847658396301783
-0.005415765167095116,0.007958992336927841
-0.005415425167095116,0.007465288970610384
-0.005415085167095116,0.006313314449200885
