Analysis/New Tests_CMB/wrd01_d2s01/cmb10_ch33.csv

#Digilent WaveForms Oscilloscope Acquisition
#Device Name: ADP3450
#Serial Number: SN:210018B9D9B0
#Date Time: 2024-08-07 11:55:25.939.457.730
#Sample rate: 2.94118e+06Hz
#Samples: 32768
#Trigger: Source: Channel 3 Type: Edge Condition: Rising Level: 0 V Hyst.: Auto HoldOff: 0 s
#Channel 3: Range: 200 mV/div Offset: 0 V Attenuation: 1 X Coupling: DC Bandwidth: 0 Hz Sample Mode: Average

Time (s),Channel 3 (V)
-0.005570390000000001,0.01348457298220466
-0.00557005,0.01299086961588475
-0.00556971,0.01213511711426782
-0.005569370000000001,0.0118388950944768
-0.00556903,0.01157558663243879
-0.00556869,0.01071983413082186
-0.005568350000000001,0.01091731547734921
-0.00556801,0.01098314259285814
-0.00556767,0.01088440191959465
-0.005567330000000001,0.01121353749714022
-0.00556699,0.01180598153672315
-0.00556665,0.0122996849030406
-0.005566310000000001,0.01269464759609529
-0.00556597,0.01229968490303965
-0.00556563,0.01177306797896769
-0.005565290000000001,0.0120692899987587
-0.00556495,0.0118388950944768
-0.00556461,0.0118388950944768
-0.005564270000000001,0.0122996849030406
-0.00556393,0.01269464759609649
-0.00556359,0.01335291875118643
-0.00556325,0.01282630182711352
-0.005562910000000001,0.01210220355651458
-0.00556257,0.01170724086345858
-0.00556223,0.01193763576774048
-0.005561890000000001,0.01249716624956693
-0.00556155,0.01289212894262263
-0.00556121,0.0132212645201682
-0.005560870000000001,0.01341874586669519
-0.00556053,0.01355040009771377
-0.00556019,0.01315543740465909
-0.005559850000000001,0.01249716624956914
-0.00555951,0.01154267307468579
-0.00555917,0.01085148836184009
-0.005558830000000001,0.01095022903510358
-0.00555849,0.01134519172815845
-0.00555815,0.01203637644100415
-0.005557810000000001,0.01249716624956711
-0.00555747,0.01216803067202238
-0.00555713,0.01249716624956795
-0.005556790000000001,0.01394536279076582
-0.00555645,0.01796081683682443
-0.00555611,0.0289539451268465
-0.005555770000000001,0.04722096968059247
-0.00555543,0.07351890232651681
-0.00555509,0.105017177097628
-0.005554750000000001,0.1395764127398501
-0.00555441,0.1735761179003704
-0.00555407,0.2046794299784269
-0.005553730000000001,0.2304507457002451
-0.00555339,0.2499684854486975
-0.00555305,0.263528871243575
-0.005552710000000001,0.2712635573158959
-0.00555237,0.2738966419362605
-0.00555203,0.2725800996260782
-0.005551690000000001,0.2688937811575678
-0.00555135,0.2632655627815251
-0.00555101,0.2558600122867632
-0.005550670000000001,0.2484873753497424
-0.00555033,0.2405222943731269
-0.00554999,0.233577533686928
-0.005549650000000001,0.226961908578262
-0.00554931,0.2195234445257195
-0.00554897,0.2125786838395206
-0.005548630000000001,0.2042515537276176
-0.00554829,0.1967143490018089
-0.00554795,0.1883543053321666
-0.005547610000000001,0.1809816683951458
-0.00554727,0.1739052534779033
-0.00554693,0.1669275792339499
-0.005546590000000001,0.1610031388381296
-0.00554625,0.1555394882508641
-0.00554591,0.1506024545876896
-0.005545570000000001,0.1461920378485789
-0.00554523,0.1413537448586515
-0.00554489,0.1372395501393394
-0.005544550000000001,0.1332899232087925
-0.00554421,0.1289453335851828
-0.00554387,0.1244690897305712
-0.005543530000000001,0.1197953645294241
-0.00554319,0.1154507749058153
-0.00554285,0.1114353208597666
-0.00554251,0.1083085328730837
-0.005542170000000001,0.1052804855596699
-0.00554183,0.102417006035018
-0.00554149,0.0993889587215987
-0.005541150000000001,0.09655839275471194
-0.00554081,0.09356325899904211
-0.00554047,0.09017316255032273
-0.005540130000000001,0.08635518985080104
-0.00553979,0.08322840186411118
-0.00553945,0.08023326810844647
-0.005539110000000001,0.07713939367952374
-0.00553877,0.07421008703936252
-0.00553843,0.07164282953450707
-0.005538090000000001,0.06947053472271027
-0.00553775,0.06700201789111451
-0.00553741,0.06476389596380464
-0.005537070000000001,0.06196624355467237
-0.00553673,0.05913567758777537
-0.00553639,0.05630511162088345
-0.005536050000000001,0.05406698969357764
-0.00553571,0.05245422536360028
-0.00553537,0.05117059661117255
-0.005535030000000001,0.05008444920527414
-0.00553469,0.04975531362772659
-0.00553435,0.04922869670365368
-0.005534010000000001,0.04912995603039019
-0.00553367,0.04876790689508988
-0.00553333,0.04870207977958076
-0.005532990000000001,0.04794506795122595
-0.00553265,0.04676017987206189
-0.00553231,0.04550946467738873
-0.005531970000000001,0.04363339188537897
-0.00553163,0.04172440553561466
-0.00553129,0.04001290053237769
-0.005530950000000001,0.03820265485587705
-0.00553061,0.03682028543018565
-0.00553027,0.03612910071733995
-0.005529930000000001,0.03563539735102159
-0.00552959,0.0353391753312286
-0.00552925,0.03425302792533019
-0.005528910000000001,0.03326562119269348
-0.00552857,0.03264026359535457
-0.00552823,0.03135663484292917
-0.005527890000000001,0.03083001791885626
-0.00552755,0.03013883320600816
-0.00552721,0.02882229089582827
-0.005526870000000001,0.02829567397175536
-0.00552653,0.02760448925890768
-0.00552619,0.02651834185300928
-0.005525850000000001,0.0257284164668999
-0.00552551,0.02490557752303442
-0.00552517,0.02404982502141749
-0.005524830000000001,0.02385234367489015
-0.00552449,0.02391817079039908
-0.00552415,0.02381943011713559
-0.005523810000000001,0.02352320809734458
-0.00552347,0.02286493694225367
-0.00552313,0.02299659117327166
-0.005522790000000001,0.02276619626898976
-0.00552245,0.02289785050000931
-0.00552211,0.02362194877060825
-0.00552177,0.02352320809734458
-0.00552143,0.02401691146366263
-0.00552109,0.02385234367489015
-0.00552075,0.0236548623283628
-0.005520410000000001,0.02349029453959032
-0.00552007,0.02306241828878078
-0.00551973,0.02191044376737128
-0.005519390000000001,0.02092303703473636
-0.00551905,0.01934318626251582
-0.00551871,0.01842160664538823
-0.005518370000000001,0.01684175587317236
-0.00551803,0.01519607798544163
-0.00551769,0.01364914077097745
-0.005517350000000001,0.01190472220998909
-0.00551701,0.01131227817040389
-0.00551667,0.01068692057306731
-0.005516330000000001,0.01098314259285778
-0.00551599,0.01223385778753149
-0.00551565,0.0132212645201682
-0.005515310000000001,0.0144719797148391
-0.00551497,0.0150644237544234
-0.00551463,0.01595308981379644
-0.005514290000000001,0.01578852202502395
-0.00551395,0.01555812712074176
-0.00551361,0.01503151019666884
-0.005513270000000001,0.01466946106136937
-0.00551293,0.01447197971484137
-0.00551259,0.01457072038810504
-0.005512250000000001,0.0146036339458596
-0.00551191,0.01440615259933226
-0.00551157,0.01351748653995922
-0.005511230000000001,0.01289212894262263
-0.00551089,0.01262882048058617
-0.00551055,0.01210220355651326
-0.005510210000000001,0.0127604747116044
-0.00550987,0.01358331365546833
-0.00550953,0.01585434914053277
-0.005509190000000001,0.01631513894909657
-0.00550885,0.01766459481703479
-0.00550851,0.01842160664538823
-0.005508170000000001,0.01815829818335177
-0.00550783,0.01773042193254169
-0.00550749,0.01726963212397873
-0.005507150000000001,0.01680884231541493
-0.00550681,0.01657844741113428
-0.00550647,0.01726963212397873
-0.005506130000000001,0.01651262029562391
-0.00550579,0.01582143558277624
-0.00550545,0.01473528817687783
-0.005505110000000001,0.0132212645201682
-0.00550477,0.01197054932549318
-0.00550443,0.01095022903510376
-0.005504090000000001,0.01032487143776718
-0.00550375,0.01058817989980309
-0.00550341,0.01029195788001262
-0.005503070000000001,0.01019321720674895
-0.00550273,0.01009447653348552
-0.00550239,0.01022613076450351
-0.005502050000000001,0.01042361211103085
-0.00550171,0.01078566124633068
-0.00550137,0.01062109345755819
-0.005501030000000001,0.01085148836184009
-0.00550069,0.01058817989980351
-0.00550035,0.01052235278429452
-0.00550001,0.01042361211103085
-0.005499670000000001,0.01032487143776736
-0.00549933,0.01081857480408553
-0.00549899,0.01118062393938566
-0.005498650000000001,0.01114771038163117
-0.00549831,0.01035778499552173
-0.00549797,0.009798254513694264
-0.005497630000000001,0.009238724031867811
-0.00549729,0.008745020665548437
-0.00549695,0.008350057972493751
-0.005496610000000001,0.008909588454320204
-0.00549627,0.009798254513694264
-0.00549593,0.01048943922653996
-0.005495590000000001,0.01081857480408493
-0.00549525,0.01121353749714022
-0.00549491,0.0116085001901949
-0.005494570000000001,0.01134519172815893
-0.00549423,0.01114771038163111
-0.00549389,0.01124645105489478
-0.005493550000000001,0.01150975951693075
-0.00549321,0.01190472220998592
-0.00549287,0.0120692899987587
-0.005492530000000001,0.01197054932549521
-0.00549219,0.01200346288324959
-0.00549185,0.01174015442121313
-0.005491510000000001,0.01170724086345864
-0.00549117,0.01167432730570402
-0.00549083,0.01144393240142212
-0.005490490000000001,0.01104896970836743
-0.00549015,0.01131227817040389
-0.00548981,0.01055526634204908
-0.005489470000000001,0.01022613076450351
-0.00548913,0.009666600282676035
-0.00548879,0.009107069800848565
-0.005488450000000001,0.00881084778105755
-0.00548811,0.009205810474111696
-0.00548777,0.008909588454321223
-0.005487430000000001,0.009666600282676035
-0.00548709,0.009732427398184551
-0.00548675,0.009403291820639578
-0.005486410000000001,0.009403291820639578
-0.00548607,0.008942502012075181
-0.00548573,0.008613366434530208
-0.005485390000000001,0.008613366434530208
-0.00548505,0.009107069800849642
-0.00548471,0.009699513840430593
-0.005484370000000001,0.01062109345755819
-0.00548403,0.01223385778753436
-0.00548369,0.01381370855975023
-0.005483350000000001,0.0148340288501415
-0.00548301,0.0157556084672688
-0.00548267,0.01559104067849632
-0.005482330000000001,0.01519607798544163
-0.00548199,0.01430741192606583
-0.00548165,0.01279338826935896
-0.005481310000000001,0.01091731547734921
-0.00548097,0.00841588508800077
-0.00548063,0.007263910566593366
-0.005480290000000001,0.006144849602938425
-0.00547995,0.006309417391712886
-0.00547961,0.007230997008838809
-0.00547927,0.008448798645757422
-0.005478930000000001,0.00943620537839234
-0.00547859,0.01006156297573072
-0.00547825,0.01075274768857642
-0.005477910000000001,0.01104896970836689
-0.00547757,0.01081857480408553
-0.00547723,0.01114771038163111
-0.005476890000000001,0.01150975951693057
-0.00547655,0.01200346288324959
-0.00547621,0.01239842557630427
-0.005475870000000001,0.01285921538486724
-0.00547553,0.01325417807792276
-0.00547519,0.0129908696158863
-0.005474850000000001,0.01210220355651488
-0.00547451,0.01141101884366756
-0.00547417,0.01108188326612199
-0.005473830000000001,0.01131227817040347
-0.00547349,0.01226677134528605
-0.00547315,0.01285921538486808
-0.005472810000000001,0.01246425269181411
-0.00547247,0.01180598153672225
-0.00547213,0.01071983413082186
-0.005471790000000001,0.009995735860222923
-0.00547145,0.009567859609412364
-0.00547111,0.009008329127584893
-0.005470770000000001,0.008843761338812407
-0.00547043,0.008909588454321223
-0.00547009,0.009436205378394135
-0.005469750000000001,0.01029195788001262
-0.00546941,0.01174015442121313
-0.00546907,0.01312252384690453
-0.005468730000000001,0.01410993057954124
-0.00546839,0.0146036339458596
-0.00546805,0.01542647288972353
-0.005467710000000001,0.01522899154319619
-0.00546737,0.01401118990627757
-0.00546703,0.01302378317364086
-0.005466690000000001,0.01193763576774048
-0.00546635,0.01078566124632906
-0.00546601,0.00973242739818515
-0.005465670000000001,0.009370378262885021
-0.00546533,0.008745020665548197
-0.00546499,0.008613366434530208
-0.005464650000000001,0.008415885088002865
-0.00546431,0.008975415569831235
-0.00546397,0.009469118936148692
-0.005463630000000001,0.009337464705130465
-0.00546329,0.008613366434528112
-0.00546295,0.007461391913120709
-0.005462610000000001,0.006967688546802352
-0.00546227,0.006441071622730636
-0.00546193,0.007099342777820581
-0.005461590000000001,0.007922181721684508
-0.00546125,0.008679193550040579
-0.00546091,0.009370378262885021
-0.005460570000000001,0.009864081629203377
-0.00546023,0.009699513840429995
-0.00545989,0.009370378262885021
-0.005459550000000001,0.008514625761266537
-0.00545921,0.007988008837193025
-0.00545887,0.007658873259648051
-0.00545853,0.00802092239494818
-0.00545819,0.009304551147379022
-0.00545785,0.01101605615061288
-0.00545751,0.01239842557630427
-0.005457170000000001,0.01371496788648417
-0.00545683,0.01450489327259593
-0.00545649,0.01516316442768707
-0.005456150000000001,0.01496568308116009
-0.00545581,0.01443906615708682
-0.00545547,0.01430741192606859
-0.005455130000000001,0.01430741192606859
-0.00545479,0.01450489327259593
-0.00545445,0.0143732390415777
-0.005454110000000001,0.01410993057954172
-0.00545377,0.01292504250037719
-0.00545343,0.01187180865223136
-0.005453090000000001,0.01124645105489591
-0.00545275,0.01075274768857642
-0.00545241,0.009929908744712493
-0.005452070000000001,0.009436205378395034
-0.00545173,0.009205810474112236
-0.00545139,0.00950203249390325
-0.005451050000000001,0.0100944765334842
-0.00545071,0.01088440191959465
-0.00545037,0.01164141374794946
-0.005450030000000001,0.01154267307468597
-0.00544969,0.01104896970836743
-0.00544935,0.009896995186957936
-0.005449010000000001,0.008909588454323018
-0.00544867,0.007988008837193623
-0.00544833,0.007823441048420837
-0.005447990000000001,0.008284230856984636
-0.00544765,0.00904124268533945
-0.00544731,0.009962822302467049
-0.005446970000000001,0.01078566124633098
-0.00544663,0.01085148836184009
-0.00544629,0.01081857480408553
-0.005445950000000001,0.01108188326612199
-0.00544561,0.01154267307468651
-0.00544527,0.01193763576774048
-0.005444930000000001,0.0127604747116044
-0.00544459,0.01332000519343032
-0.00544425,0.01246425269181339
-0.005443910000000001,0.01203637644100415
-0.00544357,0.01134519172815731
-0.00544323,0.01071983413082186
-0.005442890000000001,0.01078566124633098
-0.00544255,0.01098314259285934
-0.00544221,0.01154267307468579
-0.005441870000000001,0.01302378317364086
-0.00544153,0.01397827634852493
-0.00544119,0.01503151019666884
-0.005440850000000001,0.01532773221645986
-0.00544051,0.0155581271207405
-0.00544017,0.01486694240789606
-0.005439830000000001,0.01401118990627757
-0.00543949,0.01249716624956597
-0.00543915,0.01141101884366756
-0.005438810000000001,0.01035778499552173
-0.00543847,0.01032487143776837
-0.00543813,0.01098314259285832
-0.005437790000000001,0.01180598153672225
-0.00543745,0.01308961028915189
-0.00543711,0.0141428441372958
-0.00543677,0.01513025086993251
-0.005436430000000001,0.01562395423624997
-0.00543609,0.01585434914053277
-0.00543575,0.01555812712074176
-0.005435410000000001,0.01463654750361583
-0.00543507,0.0134516594244501
-0.00543473,0.011378105285913
-0.005434390000000001,0.006046108929684452
-0.00543405,-0.004519143109538078
-0.00543371,-0.02216081006598069
-0.005433370000000001,-0.04776755799897954
-0.00543303,-0.07850882094178246
-0.00543269,-0.111981909178167
-0.005432350000000001,-0.1455537380877542
-0.00543201,-0.1748138909316166
-0.00543167,-0.1994661456897798
-0.005431330000000001,-0.2182597871675978
-0.00543099,-0.2310960746919092
-0.00543065,-0.2382383167246481
-0.005430310000000001,-0.2410688826915349
-0.00542997,-0.2399169081701305
-0.00542963,-0.2362635032593747
-0.005429290000000001,-0.2320834814245535
-0.00542895,-0.226652744395044
-0.00542861,-0.2206624768837146
-0.005428270000000001,-0.2140468517750607
-0.00542793,-0.2073653995508735
-0.00542759,-0.2001573304026255
-0.005427250000000001,-0.1927188663500956
-0.00542691,-0.1851158345087929
-0.00542657,-0.1780723331493177
-0.005426230000000001,-0.1708313504433152
-0.00542589,-0.1636561948528217
-0.00542555,-0.1564481257045737
-0.005425210000000001,-0.1500628955001896
-0.00542487,-0.143644751738051
-0.00542453,-0.1378519655732489
-0.005424190000000001,-0.1332111539298564
-0.00542385,-0.127912071131365
-0.00542351,-0.1236991357387894
-0.005423170000000001,-0.1197495088082425
-0.00542283,-0.1151086971648422
-0.00542249,-0.1108628482145121
-0.005422150000000001,-0.106485345033156
-0.00542181,-0.10237115031383
-0.00542147,-0.09888231319185331
-0.005421130000000001,-0.09519599472334292
-0.00542079,-0.09183881183237179
-0.00542045,-0.08838288826814958
-0.005420110000000001,-0.08430160710658452
-0.00541977,-0.08041780729153851
-0.00541943,-0.07587573632141789
-0.005419090000000001,-0.07149823314006179
-0.00541875,-0.06810813669133768
-0.00541841,-0.0655079656287324
-0.005418070000000001,-0.06340149793244074
-0.00541773,-0.06175582004470936
-0.00541739,-0.05981392013719402
-0.005417050000000001,-0.05856320494252085
-0.00541671,-0.0569175270547894
-0.00541637,-0.05494271358951957
-0.00541603,-0.05247419675792778
-0.00541569,-0.05030190194612234
-0.00541535,-0.04773464444127156
-0.00541501,-0.04467368357009775
-0.005414670000000001,-0.04246847520054643
-0.00541433,-0.04032909394649621
-0.00541399,-0.03832136692346823
-0.005413650000000001,-0.03605033143840791
-0.00541331,-0.03453630778169416
-0.00541297,-0.03285771633621175
-0.005412630000000001,-0.03117912489073239
-0.00541229,-0.02976384190728338
-0.00541195,-0.02808525046180097
-0.005411610000000001,-0.02617626411204013
-0.00541127,-0.02433310487778146
-0.00541093,-0.02278616766331727
-0.005410590000000001,-0.02156836602640087
-0.00541025,-0.0201530830429527
-0.00540991,-0.01890236784827953
-0.005409570000000001,-0.0169275543830097
-0.00540923,-0.01600597476587851
-0.00540889,-0.01505148159099635
-0.005408550000000001,-0.01419572908937942
-0.00540821,-0.01399824774285052
-0.00540787,-0.01416281553162331
-0.005407530000000001,-0.01495274091773124
-0.00540719,-0.01567683918833294
-0.00540685,-0.01561101207282382
-0.005406510000000001,-0.01462360534018891
-0.00540617,-0.01278044610593191
-0.00540583,-0.01129933600697684
-0.005405490000000001,-0.00962074456149443
-0.00540515,-0.007415536191939104
-0.00540481,-0.006131907439511376
-0.005404470000000001,-0.005111587149120106
-0.00540413,-0.004584970225047193
-0.00540379,-0.004025439743219721
-0.005403450000000001,-0.003564649934655922
-0.00540311,-0.002939292337319157
-0.00540277,-0.002840551664055666
-0.005402430000000001,-0.002248107624473638
-0.00540209,-0.001688577142645389
-0.00540175,-0.001260700891836924
-0.005401410000000001,-0.00142526868060971
-0.00540107,-0.0008986517565357186
-0.00540073,-0.0003062077169547683
-0.005400390000000001,-9.985697163754359e-06
-0.00540005,0.0002204092071199415
-0.00539971,0.001207815939754859
-0.005399370000000001,0.001602778632809544
-0.00539903,0.00203065488361741
-0.00539869,0.001273643055263973
-0.005398350000000001,0.0006811990156819448
-0.00539801,-0.0003062077169557861
-0.00539767,-0.0008657381987822392
-0.005397330000000001,-0.001326528007346039
-0.00539699,-0.001129046660817678
-0.00539665,-0.0005695161789912252
-0.005396310000000001,-0.0002403806014456541
-0.00539597,2.292786059217975e-05
-0.00539563,0.0007799396889456162
-0.005395290000000001,0.0023268769034098
-0.00539495,0.003840900560122181
-0.00539461,0.005354924216829054
-0.00539427,0.00630941739171121
-0.005393930000000001,0.006737293642519675
-0.00539359,0.006572725853747667
-0.00539325,0.006046108929674754
-0.005392910000000001,0.005749886909884278
-0.00539257,0.006013195371920196
-0.00539223,0.006572725853747667
-0.005391890000000001,0.007165169893328617
-0.00539155,0.007889268163929951
-0.00539121,0.008777934223302994
-0.005390870000000001,0.009962822302464893
-0.00539053,0.01048943922653996
-0.00539019,0.01029195788001262
-0.005389850000000001,0.009929908744713152
-0.00538951,0.009074156243094007
-0.00538917,0.007362651239857037
-0.005388830000000001,0.006276503833958629
-0.00538849,0.005322010659074497
-0.00538815,0.005190356428056269
-0.005387810000000001,0.005618232678864733
-0.00538747,0.006638552969256781
-0.00538713,0.008317144414739193
-0.005386790000000001,0.009633686724919082
-0.00538645,0.01039069855327629
-0.00538611,0.01131227817040389
-0.005385770000000001,0.01058817989980495
-0.00538543,0.009929908744712493
-0.00538509,0.008350057972493751
-0.005384750000000001,0.007296824124347924
-0.00538441,0.007198083451084253
-0.00538407,0.007395564797611595
-0.005383730000000001,0.007889268163929951
-0.00538339,0.008646279992284765
-0.00538305,0.009107069800848565
