Analysis/New Tests_CMB/wrd01_d2s01/cmb10_ch06.csv

#Digilent WaveForms Oscilloscope Acquisition
#Device Name: ADP3450
#Serial Number: SN:210018B9D9B0
#Date Time: 2024-08-14 17:02:26.284.240.760
#Sample rate: 5.88235e+06Hz
#Samples: 32768
#Trigger: Source: Channel 3 Type: Edge Condition: Rising Level: 60 mV Hyst.: Auto HoldOff: 0 s
#Channel 3: Range: 100 mV/div Offset: 0 V Attenuation: 1 X Coupling: DC Bandwidth: 0 Hz Sample Mode: Average

Time (s),Channel 3 (V)
-0.003798492224219168,0.2033628876682446
-0.003798322224219167,0.2163308294235604
-0.003798152224219167,0.2275214390600895
-0.003797982224219168,0.2368688894623837
-0.003797812224219167,0.2450314517855248
-0.003797642224219167,0.2510217192968433
-0.003797472224219168,0.2555637902669722
-0.003797302224219167,0.2585918375803947
-0.003797132224219167,0.2603691696991375
-0.003796962224219168,0.2612907493162651
-0.003796792224219167,0.2608299595076993
-0.003796622224219167,0.2597438121018009
-0.003796452224219168,0.2581639613295822
-0.003796282224219167,0.2559587529600218
-0.003796112224219167,0.2531940141086441
-0.003795942224219168,0.2508571515080705
-0.003795772224219167,0.2457555500561051
-0.003795602224219167,0.240785602835176
-0.003795432224219168,0.2367701487891201
-0.003795262224219167,0.2326888676275463
-0.003795092224219167,0.2279164017531442
-0.003794922224219168,0.2240326019381065
-0.003794752224219168,0.2203462834696028
-0.003794582224219167,0.2161991751925219
-0.003794412224219168,0.2124141160507478
-0.003794242224219168,0.2083657484469446
-0.003794072224219167,0.2052389604602544
-0.003793902224219168,0.201848864011535
-0.003793732224219168,0.1986562489093487
-0.003793562224219167,0.1954636338071509
-0.003793392224219168,0.1921064509161861
-0.003793222224219168,0.1888150951407364
-0.003793052224219167,0.1854579122497655
-0.003792882224219168,0.1825615191673645
-0.003792712224219168,0.1792043362764058
-0.003792542224219167,0.1757484127121712
-0.003792372224219168,0.1722924891479427
-0.003792202224219168,0.1689682198147385
-0.003792032224219167,0.1654793826927494
-0.003791862224219168,0.1623196811483119
-0.003791692224219168,0.1587321033530717
-0.003791522224219167,0.1553420069043458
-0.003791352224219168,0.1519189968978718
-0.003791182224219168,0.1490884309309851
-0.003791012224219167,0.1460932971753152
-0.003790842224219168,0.1436906074592326
-0.003790672224219168,0.1412550041853998
-0.003790502224219167,0.1385890060072762
-0.003790332224219168,0.1366800196575119
-0.003790162224219168,0.1341127621526564
-0.003789992224219167,0.1316442453210647
-0.003789822224219168,0.1296694318557912
-0.003789652224219168,0.1277933590637815
-0.003789482224219167,0.1258843727140172
-0.003789312224219168,0.1238437321332346
-0.003789142224219168,0.1218030915524521
-0.003788972224219167,0.1199270187604386
-0.003788802224219168,0.1178863781796598
-0.003788632224219168,0.1156811698101045
-0.003788462224219167,0.1137721834603339
-0.003788292224219167,0.1103491734538662
-0.003788122224219168,0.1087693226816475
-0.003787952224219167,0.1060704109457688
-0.003787782224219167,0.1033385856521456
-0.003787612224219168,0.1012650315136085
-0.003787442224219167,0.09886234179752112
-0.003787272224219167,0.09629508429267034
-0.003787102224219168,0.09356325899904211
-0.003786932224219167,0.09112765572520032
-0.003786762224219167,0.08862622533585854
-0.003786592224219168,0.08474242552082079
-0.003786422224219167,0.08309674763309126
-0.003786252224219167,0.08217516801596533
-0.003786082224219168,0.07964082406886444
-0.003785912224219167,0.07746852925706159
-0.003785742224219167,0.07631655473565419
-0.003785572224219168,0.07519749377199925
-0.003785402224219167,0.07407843280834191
-0.003785232224219167,0.07276189049816201
-0.003785062224219168,0.07164282953450707
-0.003784892224219167,0.07091873126390535
-0.003784722224219167,0.07012880587779743
-0.003784552224219168,0.06891100424087881
-0.003784382224219168,0.06785777039273491
-0.003784212224219167,0.06726532635315097
-0.003784042224219168,0.0668703636600963
-0.003783872224219168,0.06604752471623385
-0.003783702224219167,0.06568547558093224
-0.003783532224219168,0.0645664146172773
-0.003783362224219168,0.06344735365362437
-0.003783192224219167,0.06216372490119462
-0.003783022224219168,0.06328278586484956
-0.003782852224219168,0.05788496239311201
-0.003782682224219167,0.05818118441289321
-0.003782512224219168,0.05788496239310219
-0.003782342224219168,0.05591014892783237
-0.003782172224219167,0.05528479133049219
-0.003782002224219168,0.05409990325132813
-0.003781832224219168,0.0532770643074657
-0.003781662224219167,0.05232257113258205
-0.003781492224219168,0.05202634911279103
-0.003781322224219168,0.05136807795770109
-0.003781152224219167,0.05074272036036331
-0.003780982224219168,0.04995279497425394
-0.003780812224219168,0.04906412891488251
-0.003780642224219167,0.04781341372020773
-0.003780472224219168,0.04689183410308012
-0.003780302224219168,0.04564111890840923
-0.003780132224219167,0.04462079861801568
-0.003779962224219168,0.04346882409660618
-0.003779792224219168,0.04251433092172403
-0.003779622224219167,0.04132944284255997
-0.003779452224219168,0.04014455476339591
-0.003779282224219168,0.03899258024198642
-0.003779112224219167,0.03787351927833148
-0.003778942224219168,0.03675445831467653
-0.003778772224219168,0.03593161937081261
-0.003778602224219167,0.03514169398470324
-0.003778432224219168,0.0335618432124845
-0.003778262224219168,0.03277191782637513
-0.003778092224219167,0.0319819924402648
-0.003777922224219168,0.03145537551619284
-0.003777752224219168,0.0307971043611017
-0.003777582224219167,0.03059962301457322
-0.003777412224219167,0.02997426541723777
-0.003777242224219168,0.02911851291561928
-0.003777072224219167,0.02816401974073803
-0.003776902224219167,0.02865772310705549
-0.003776732224219168,0.02770322993217333
-0.003776562224219167,0.02780197060543503
-0.003776392224219167,0.02671582319953662
-0.003776222224219168,0.02543219444710889
-0.003776052224219167,0.02493849108078892
-0.003775882224219167,0.02404982502141749
-0.003775712224219168,0.02319407251979901
-0.003775542224219167,0.02237123357593454
-0.003775372224219167,0.02207501155614406
-0.003775202224219168,0.02168004886308938
-0.003775032224219167,0.02079138280371598
-0.003774862224219167,0.020593901457189
-0.003774692224219168,0.02033059299515254
-0.003774522224219167,0.02013311164862483
-0.003774352224219167,0.01993563030209785
-0.003774182224219168,0.01931027270476127
-0.003774012224219167,0.01937609982026936
-0.003773842224219167,0.01881656933844291
-0.003773672224219168,0.01884948289619747
-0.003773502224219168,0.01855326087640699
-0.003773332224219167,0.01815829818335177
-0.003773162224219168,0.01812538462559721
-0.003772992224219168,0.01858617443416017
-0.003772822224219167,0.01855326087640645
-0.003772652224219168,0.01878365578068835
-0.003772482224219168,0.01858617443416137
-0.003772312224219167,0.0185203473186519
-0.003772142224219168,0.01878365578068835
-0.003771972224219168,0.01868491510742486
-0.003771802224219167,0.01809247106784265
-0.003771632224219168,0.0173683727972424
-0.003771462224219168,0.01700632366194293
-0.003771292224219167,0.01638096606460569
-0.003771122224219168,0.01516316442768707
-0.003770952224219168,0.01496568308116009
-0.003770782224219167,0.01434032548382314
-0.003770612224219168,0.01361622721322289
-0.003770442224219168,0.01292504250037845
-0.003770272224219167,0.0120692899987587
-0.003770102224219168,0.01124645105489478
-0.003769932224219168,0.01075274768857732
-0.003769762224219167,0.01012739009123984
-0.003769592224219168,0.009238724031866792
-0.003769422224219168,0.009074156243094007
-0.003769252224219167,0.008382971530248308
-0.003769082224219168,0.007625959701893495
-0.003768912224219168,0.007263910566593366
-0.003768742224219167,0.007362651239857037
-0.003768572224219168,0.007494305470875266
-0.003768402224219168,0.007263910566593366
-0.003768232224219167,0.007625959701893495
-0.003768062224219168,0.007889268163929951
-0.003767892224219168,0.008185490183720966
-0.003767722224219167,0.00838297153024771
-0.003767552224219168,0.008053835952702737
-0.003767382224219168,0.008876674896566664
-0.003767212224219167,0.008876674896567203
-0.003767042224219167,0.009172896916357679
-0.003766872224219168,0.009403291820639578
-0.003766702224219167,0.009139983358603361
-0.003766532224219167,0.009271637589621349
-0.003766362224219168,0.009008329127584893
-0.003766192224219167,0.009074156243094067
-0.003766022224219167,0.009107069800848565
-0.003765852224219168,0.007856354606175394
-0.003765682224219167,0.008580452876773736
-0.003765512224219167,0.007527219028629823
-0.003765342224219168,0.007823441048420837
-0.003765172224219167,0.00759304614413804
-0.003765002224219167,0.007099342777820581
-0.003764832224219168,0.006737293642520453
-0.003764662224219167,0.006539812295991434
-0.003764492224219167,0.005618232678865511
-0.003764322224219168,0.005124529312547154
-0.003764152224219167,0.004696653061737313
-0.003763982224219167,0.004367517484192341
-0.003763812224219168,0.003840900560119427
-0.003763642224219167,0.003215542962782543
-0.003763472224219167,0.003050975174010056
-0.003763302224219168,0.002162309114637015
-0.003763132224219168,0.001931914210355534
-0.003762962224219167,0.001602778632809544
-0.003762792224219168,0.001635692190564101
-0.003762622224219168,0.001668605748318598
-0.003762452224219167,0.001635692190564101
-0.003762282224219168,0.001800259979336887
-0.003762112224219168,0.002195222672390853
-0.003761942224219167,0.002261049787900686
-0.003761772224219168,0.002754753154219042
-0.003761602224219168,0.002656012480955551
-0.003761432224219167,0.002754753154219042
-0.003761262224219168,0.003116802289519171
-0.003761092224219168,0.003083888731764674
-0.003760922224219167,0.003215542962782842
-0.003760752224219168,0.003215542962782842
-0.003760582224219168,0.003215542962782842
-0.003760412224219167,0.0030180616162555
-0.003760242224219168,0.003248456520537399
-0.003760072224219168,0.003248456520537399
-0.003759902224219167,0.00380798700236487
-0.003759732224219168,0.003511764982573856
-0.003759562224219168,0.004005468348891315
-0.003759392224219167,0.003906727675628541
-0.003759222224219168,0.004137122579910441
-0.003759052224219168,0.003643419213592983
-0.003758882224219167,0.003643419213592085
-0.003758712224219168,0.003676332771346642
-0.003758542224219168,0.003314283636046514
-0.003758372224219167,0.002129395556882458
-0.003758202224219168,0.003676332771346642
-0.003758032224219168,0.002425617576673472
-0.003757862224219167,0.002261049787900686
-0.003757692224219168,0.001734432863827772
-0.003757522224219168,0.00153695151730043
-0.003757352224219167,0.00120781593975444
-0.003757182224219168,0.0009774210354729588
-0.003757012224219168,0.0001545820916090312
-0.003756842224219167,0.0004178905536446498
-0.003756672224219168,-4.289925491831147e-05
-0.003756502224219168,0.0003191498803818167
-0.003756332224219167,-0.0003391212747100439
-0.003756162224219167,-0.0007340839677640107
-0.003755992224219168,-0.0006682568522548965
-0.003755822224219167,-0.0004707755057286315
-0.003755652224219167,-0.001063219545309582
-0.003755482224219168,-0.0007011704100094536
-0.003755312224219167,-0.0009644788720450124
-0.003755142224219167,-0.0004707755057275538
-0.003754972224219168,-0.000832824641027682
-0.003754802224219167,-0.0007011704100089746
-0.003754632224219167,-0.0004378619479729968
-0.003754462224219168,-0.0003720348324638825
-0.003754292224219167,-0.0004707755057272545
-0.003754122224219167,-0.0003062077169547683
-0.003753952224219168,-0.0006353432945003394
-0.003753782224219167,-0.0004707755057282124
-0.003753612224219167,-0.000832824641027682
-0.003753442224219168,-0.0005366026212366681
-0.003753272224219167,-0.0004707755057276736
-0.003753102224219167,-0.0005366026212366681
-0.003752932224219168,-0.0005036890634821109
-0.003752762224219168,-0.0006682568522545972
-0.003752592224219167,-0.0006682568522548965
-0.003752422224219168,-0.001096133103064139
-0.003752252224219168,-0.001161960218573133
-0.003752082224219167,-0.001787317815909838
-0.003751912224219168,-0.001754404258155281
-0.003751742224219168,-0.0015240093538738
-0.003751572224219167,-0.001820231373664395
-0.003751402224219168,-0.00188605848917351
-0.003751232224219168,-0.001918972046928007
-0.003751062224219167,-0.001820231373664395
-0.003750892224219168,-0.001754404258155281
-0.003750722224219168,-0.002083539835700253
-0.003750552224219167,-0.001688577142646167
-0.003750382224219168,-0.001524009353873381
-0.003750212224219168,-0.001359441565100895
-0.003750042224219167,-0.0009973924298004675
-0.003749872224219168,-0.001096133103064139
-0.003749702224219168,-0.0008657381987826583
-0.003749532224219167,-0.0005366026212366681
-0.003749362224219168,-0.0005036890634821109
-0.003749192224219168,-0.0001416399281826414
-0.003749022224219167,-4.289925491831147e-05
-0.003748852224219168,0.0004837176691546022
-0.003748682224219168,0.0002862363226276188
-0.003748512224219167,0.001141988824245744
-0.003748342224219168,0.001240729497509416
-0.003748172224219168,0.001174902382000301
-0.003748002224219167,0.001899000652600558
-0.003747832224219168,0.001504037959545873
-0.003747662224219168,0.001833173537091444
-0.003747492224219167,0.001800259979336887
-0.003747322224219168,0.001372383728527644
-0.003747152224219168,0.001372383728527644
-0.003746982224219167,0.0008786803622092876
-0.003746812224219168,0.001109075266491187
-0.003746642224219168,0.0001874956493635883
-0.003746472224219167,-0.0001416399281833598
-0.003746302224219168,-0.0008986517565367963
-0.003746132224219168,-0.001820231373664395
-0.003745962224219167,-0.002511416086511052
-0.003745792224219167,-0.003038033010583008
-0.003745622224219168,-0.003235514357110351
-0.003745452224219167,-0.003531736376901724
-0.003745282224219167,-0.003729217723428708
-0.003745112224219168,-0.003334255030374022
-0.003744942224219167,-0.003136773683845841
-0.003744772224219167,-0.00267598387528288
-0.003744602224219168,-0.001984799162437181
-0.003744432224219167,-0.001589836469381717
-0.003744262224219167,-0.001161960218573253
-0.003744092224219168,-0.001491095796118824
-0.003743922224219167,-0.001063219545309402
-0.003743752224219167,-0.0009644788720459105
-0.003743582224219168,-0.0004707755057275538
-0.003743412224219167,-0.0005695161789909857
-0.003743242224219167,-0.0004378619479729968
-0.003743072224219168,-0.0002403806014456541
-0.003742902224219167,-4.289925491956872e-05
-0.003742732224219167,-0.0007340839677640107
-0.003742562224219168,-0.0002403806014456541
-0.003742392224219167,0.0002533227648725827
-0.003742222224219167,0.0001874956493635883
-0.003742052224219168,5.584141834535986e-05
-0.003741882224219168,0.0005824583424173156
-0.003741712224219167,0.0006811990156819448
-0.003741542224219168,0.001207815939754859
-0.003741372224219168,0.0009445074777188808
-0.003741202224219167,0.000714112573436502
-0.003741032224219168,0.0009445074777184018
-0.003740862224219168,0.00120781593975438
-0.003740692224219167,0.001174902382000301
-0.003740522224219168,0.00130655661301853
-0.003740352224219168,0.00130655661301853
-0.003740182224219167,0.001635692190564101
-0.003740012224219168,0.001372383728527644
-0.003739842224219168,0.001997741325863092
-0.003739672224219167,0.001602778632809544
-0.003739502224219168,0.002886407385237271
-0.003739332224219168,0.003215542962782244
-0.003739162224219167,0.002656012480955371
-0.003738992224219168,0.002754753154219042
-0.003738822224219168,0.002261049787901584
-0.003738652224219167,0.0025572718076917
-0.003738482224219168,0.002623098923200814
-0.003738312224219168,0.002458531134428328
-0.003738142224219167,0.002293963345655243
-0.003737972224219168,0.002030654883618786
-0.003737802224219168,0.001734432863828311
-0.003737632224219167,0.001043248150982073
-0.003737462224219168,5.584141834535986e-05
-0.003737292224219168,0.0001216685338544741
-0.003737122224219167,-0.0003062077169547683
-0.003736952224219168,-0.0004707755057275538
-0.003736782224219168,-0.0004049483902184396
-0.003736612224219167,-0.0004049483902184396
-0.003736442224219168,-0.0007669975255185678
-0.003736272224219168,-0.001030305987555025
-0.003736102224219167,-0.0009973924298011261
-0.003735932224219168,-0.001359441565100596
-0.003735762224219168,-0.001227787334082367
-0.003735592224219167,-0.000865738198782778
-0.003735422224219167,-0.001161960218573253
-0.003735252224219168,-0.0006024297367457822
-0.003735082224219167,-0.0007340839677636515
-0.003734912224219167,-0.0005366026212366681
-0.003734742224219168,-0.0007011704100094536
-0.003734572224219167,-0.0003062077169550677
-0.003734402224219167,-0.0004707755057275538
-0.003734232224219168,-0.0001087263704274257
-0.003734062224219167,2.292786059104222e-05
-0.003733892224219167,0.0001545820916090312
-0.003733722224219168,0.0002204092071181454
-0.003733552224219167,-0.0002732941592012889
-0.003733382224219167,-0.0008657381987822392
-0.003733212224219168,-0.001161960218573253
-0.003733042224219167,-0.001458182238364866
-0.003732872224219167,-0.001787317815909838
-0.003732702224219168,-0.002379761855491866
-0.003732532224219167,-0.00267598387528294
-0.003732362224219167,-0.002708897433037437
-0.003732192224219168,-0.00290637877956478
-0.003732022224219167,-0.003070946568336547
-0.003731852224219167,-0.002511416086510094
-0.003731682224219168,-0.002313934739982752
-0.003731512224219168,-0.001886058489174288
-0.003731342224219167,-0.002182280508964523
-0.003731172224219168,-0.002281021182228195
-0.003731002224219168,-0.002050626277946714
-0.003730832224219167,-0.00188605848917351
-0.003730662224219168,-0.001984799162437181
-0.003730492224219168,-0.001951885604682683
-0.003730322224219167,-0.002313934739982752
-0.003730152224219168,-0.002182280508964523
-0.003729982224219168,-0.001886058489174048
-0.003729812224219167,-0.001161960218573253
-0.003729642224219168,-0.001721490700400724
-0.003729472224219168,-0.002215194066718182
-0.003729302224219167,-0.002281021182228195
-0.003729132224219168,-0.002544329644264652
-0.003728962224219168,-0.00280763810630063
-0.003728792224219167,-0.003103860126092122
-0.003728622224219168,-0.003531736376901365
-0.003728452224219168,-0.004124180416482316
-0.003728282224219167,-0.003729217723428708
-0.003728112224219168,-0.004321661763010735
-0.003727942224219168,-0.00343299570363931
-0.003727772224219167,-0.002840551664055666
-0.003727602224219168,-0.002248107624473638
-0.003727432224219168,-0.001194873776329726
-0.003727262224219167,-0.0004049483902184396
-0.003727092224219168,0.0001545820916090312
-0.003726922224219168,0.0004508041114000451
-0.003726752224219167,0.0007799396889456162
-0.003726582224219168,0.000714112573436502
-0.003726412224219168,0.0003520634381363738
-0.003726242224219167,0.0001216685338544741
-0.003726072224219168,-0.0008986517565367963
-0.003725902224219168,-0.001458182238364267
-0.003725732224219167,-0.002215194066719081
-0.003725562224219168,-0.00290637877956478
-0.003725392224219168,-0.003465909261392251
-0.003725222224219167,-0.004025439743220081
-0.003725052224219168,-0.004222921089747064
-0.003724882224219168,-0.003860871954446936
-0.003724712224219167,-0.003893785512201194
-0.003724542224219167,-0.003729217723428708
-0.003724372224219168,-0.003959612627710607
-0.003724202224219167,-0.003498822819146329
-0.003724032224219167,-0.003235514357110351
-0.003723862224219168,-0.003202600799355794
-0.003723692224219167,-0.003432995703638352
-0.003723522224219167,-0.003795044838937822
-0.003723352224219168,-0.003893785512201493
-0.003723182224219167,-0.00425583464750192
-0.003723012224219167,-0.004420402436274407
-0.003722842224219168,-0.004552056667292635
-0.003722672224219167,-0.004190007531992328
-0.003722502224219167,-0.004091266858728836
-0.003722332224219168,-0.00369630416567415
-0.003722162224219167,-0.003531736376900886
-0.003721992224219167,-0.003268427914864908
-0.003721822224219168,-0.002840551664055666
-0.003721652224219167,-0.002313934739982213
-0.003721482224219167,-0.002017712720191738
-0.003721312224219168,-0.001820231373664395
-0.003721142224219167,-0.002017712720191379
