Analysis/New Tests_CMB/wrd01_d2s01/cmb10_ch27.csv

#Digilent WaveForms Oscilloscope Acquisition
#Device Name: ADP3450
#Serial Number: SN:210018B9D9B0
#Date Time: 2024-08-07 11:52:47.493.955.740
#Sample rate: 2.94118e+06Hz
#Samples: 32768
#Trigger: Source: Channel 3 Type: Edge Condition: Rising Level: 0 V Hyst.: Auto HoldOff: 0 s
#Channel 3: Range: 200 mV/div Offset: 0 V Attenuation: 1 X Coupling: DC Bandwidth: 0 Hz Sample Mode: Average

Time (s),Channel 3 (V)
-0.00557044,0.005322010659074497
-0.0055701,0.004433344599699479
-0.00556976,0.003347197193801071
-0.00556942,0.0030180616162555
-0.00556908,0.003281370078293094
-0.00556874,0.003906727675628541
-0.0055684,0.005322010659074497
-0.00556806,0.006572725853748565
-0.00556772,0.007066429220066024
-0.00556738,0.007527219028629823
-0.00556704,0.00802092239494776
-0.0055667,0.00779052749066628
-0.00556636,0.007296824124347924
-0.00556602,0.006737293642518716
-0.00556568,0.005782800467638296
-0.00556534,0.004992875081528926
-0.005565,0.004532085272965126
-0.00556466,0.004532085272965126
-0.00556432,0.004367517484192341
-0.00556398,0.004202949695419855
-0.00556364,0.004367517484192341
-0.0055633,0.004499171715210569
-0.00556296,0.004861220850510039
-0.00556262,0.005618232678865511
-0.00556228,0.005980281814165639
-0.00556194,0.006671466527010081
-0.0055616,0.006934774989047795
-0.00556126,0.006408158064974882
-0.00556092,0.006473985180483876
-0.00556058,0.006704380084765896
-0.00556024,0.00653981229599311
-0.0055599,0.007263910566592049
-0.00555956,0.00756013258638438
-0.00555922,0.008777934223302994
-0.00555888,0.01397827634851356
-0.00555854,0.02635377406423649
-0.0055582,0.04646395785227088
-0.00555786,0.07453922261685703
-0.00555752,0.108506014219611
-0.00555718,0.1441513972677964
-0.00555684,0.179072682045318
-0.0055565,0.2101101670079288
-0.00555616,0.2346636810928284
-0.00555582,0.251976212471694
-0.00555548,0.2638580068211206
-0.00555514,0.26984827433245
-0.0055548,0.2708027675073304
-0.00555446,0.2683342506757403
-0.00555412,0.2634301305703113
-0.00555378,0.2568145054616454
-0.00555344,0.2492773007358518
-0.0055531,0.2416413553367945
-0.00555276,0.2334129658981552
-0.00555242,0.2251187493440069
-0.00555208,0.2170549276941404
-0.00555174,0.2098797721036469
-0.0055514,0.2029350114174235
-0.00555106,0.1964181269820331
-0.00555072,0.1899341561043853
-0.00555038,0.1838780614775349
-0.00555004,0.1773282634843899
-0.0055497,0.1709759468377604
-0.00554936,0.1644590624023456
-0.00554902,0.1576130423894102
-0.00554868,0.1507670223764623
-0.00554834,0.1447767548651217
-0.005548,0.1385890060072762
-0.00554766,0.1338165401328654
-0.00554732,0.1299985674333308
-0.00554698,0.1267072116578811
-0.00554664,0.1232842016514072
-0.0055463,0.119499142509625
-0.00554596,0.1150558122127679
-0.00554562,0.1109745310512028
-0.00554528,0.1067945092163676
-0.00554494,0.1032398449788819
-0.0055446,0.09968518074138971
-0.00554426,0.09685461477449284
-0.00554392,0.09412278948086958
-0.00554358,0.09168718620703234
-0.00554324,0.08806669485402473
-0.0055429,0.08457785773204801
-0.00554256,0.08141815618761053
-0.00554222,0.0781926275276698
-0.00554188,0.07552662934954479
-0.00554154,0.07243275492061643
-0.0055412,0.07022754655106513
-0.00554086,0.06805525173926033
-0.00554052,0.06631083317826883
-0.00554018,0.06456641461728048
-0.00553984,0.06269034182526753
-0.0055395,0.0599585165316393
-0.00553916,0.05739125902678851
-0.00553882,0.0544290388288737
-0.00553848,0.05179595420850913
-0.00553814,0.0497882271854848
-0.0055378,0.0483729442020352
-0.00553746,0.04784632727796228
-0.00553712,0.04534489688862049
-0.00553678,0.04531198333086138
-0.00553644,0.04452205794475201
-0.0055361,0.0435346512121171
-0.00553576,0.04139526995806909
-0.00553542,0.03968376495483212
-0.00553508,0.03843304976016122
-0.00553474,0.03655697696814919
-0.0055344,0.03547082956224881
-0.00553406,0.03362767032799696
-0.00553372,0.03211364667128398
-0.00553338,0.0307971043611017
-0.00553304,0.03027048743702878
-0.0055327,0.02944764849316486
-0.00553236,0.0289539451268465
-0.00553202,0.02822984685624624
-0.00553168,0.02832858752950991
-0.00553134,0.02842732820277359
-0.005531,0.02875646378031916
-0.00553066,0.02875646378031916
-0.00553032,0.02865772310705549
-0.00552998,0.02862480954930093
-0.00552964,0.02753866214339857
-0.0055293,0.02645251473750016
-0.00552896,0.02520179954282699
-0.00552862,0.02372068944386893
-0.00552828,0.02207501155614406
-0.00552794,0.02108760482350735
-0.0055276,0.02065972857269817
-0.00552726,0.02069264213045267
-0.00552692,0.02135091328554381
-0.00552658,0.02164713530533428
-0.00552624,0.02135091328554381
-0.0055259,0.02138382684329837
-0.00552556,0.02052807434167754
-0.00552522,0.01924444558925215
-0.00552488,0.01815829818335177
-0.00552454,0.01684175587316739
-0.0055242,0.01568978135175999
-0.00552386,0.01420867125280492
-0.00552352,0.01285921538486664
-0.00552318,0.0120692899987587
-0.00552284,0.01157558663244035
-0.0055225,0.01150975951693237
-0.00552216,0.01213511711426782
-0.00552182,0.01259590692283162
-0.00552148,0.01371496788648776
-0.00552114,0.0143732390415777
-0.0055208,0.01489985596565062
-0.00552046,0.01549230000523157
-0.00552012,0.01542647288972353
-0.00551978,0.01486694240789606
-0.00551944,0.01427449836831511
-0.0055191,0.01358331365546833
-0.00551876,0.0129908696158863
-0.00551842,0.01282630182711382
-0.00551808,0.01332000519343187
-0.00551774,0.0132212645201682
-0.0055174,0.01262882048058725
-0.00551706,0.01220094422977693
-0.00551672,0.01118062393938566
-0.00551638,0.01039069855327773
-0.00551604,0.009929908744712493
-0.0055157,0.008942502012075779
-0.00551536,0.008415885088003823
-0.00551502,0.007988008837193623
-0.00551468,0.008382971530248308
-0.00551434,0.008152576625966829
-0.005514,0.008613366434530208
-0.00551366,0.00983116807144882
-0.00551332,0.01032487143776628
-0.00551298,0.009633686724921478
-0.00551264,0.00904124268533945
-0.0055123,0.008415885088002865
-0.00551196,0.007889268163929951
-0.00551162,0.008218403741475522
-0.00551128,0.008909588454321223
-0.00551094,0.009337464705130465
-0.0055106,0.009864081629203377
-0.00551026,0.01016030364899439
-0.00550992,0.01029195788001262
-0.00550958,0.01078566124633098
-0.00550924,0.01022613076450351
-0.0055089,0.009469118936146896
-0.00550856,0.008481712203511979
-0.00550822,0.007296824124347924
-0.00550788,0.006473985180483098
-0.00550754,0.005980281814165639
-0.0055072,0.005848627583147411
-0.00550686,0.005749886909883799
-0.00550652,0.005782800467638296
-0.00550618,0.005716973352129182
-0.00550584,0.005749886909885895
-0.0055055,0.006934774989047795
-0.00550516,0.007691786817402609
-0.00550482,0.007461391913121786
-0.00550448,0.008053835952702737
-0.00550414,0.00802092239494818
-0.0055038,0.008152576625966289
-0.00550346,0.008086749510457293
-0.00550312,0.008382971530248308
-0.00550278,0.008580452876776789
-0.00550244,0.009205810474112236
-0.0055021,0.009469118936148692
-0.00550176,0.009534946051657387
-0.00550142,0.009304551147375908
-0.00550108,0.008876674896566664
-0.00550074,0.007988008837191647
-0.0055004,0.006901861431293239
-0.00550006,0.005914454698656525
-0.00549972,0.004992875081530602
-0.00549938,0.004400431041946898
-0.00549904,0.00380798700236487
-0.0054987,0.003445937867065401
-0.00549836,0.003413024309310185
-0.00549802,0.003050975174010056
-0.00549768,0.00265601248095609
-0.00549734,0.002623098923200814
-0.005497,0.003182629405028285
-0.00549666,0.003775073444609235
-0.00549632,0.004729566619492469
-0.00549598,0.006046108929674754
-0.00549564,0.007428478355363637
-0.0054953,0.008514625761266537
-0.00549496,0.009633686724921478
-0.00549462,0.0105881798998019
-0.00549428,0.01098314259285832
-0.00549394,0.01144393240142212
-0.0054936,0.01029195788001472
-0.00549326,0.01006156297573072
-0.00549292,0.008745020665548437
-0.00549258,0.006836034315787597
-0.00549224,0.00505870219703804
-0.0054919,0.003742159886855756
-0.00549156,0.002656012480957347
-0.00549122,0.002820580269728157
-0.00549088,0.004104209022155884
-0.00549054,0.006013195371920196
-0.0054902,0.007461391913120709
-0.00548986,0.009139983358603122
-0.00548952,0.01009447653348528
-0.00548918,0.01012739009123984
-0.00548884,0.00973242739818515
-0.0054885,0.009172896916357679
-0.00548816,0.007757613932910046
-0.00548782,0.006836034315784124
-0.00548748,0.005980281814165639
-0.00548714,0.005782800467638296
-0.0054868,0.005782800467638296
-0.00548646,0.006013195371920196
-0.00548612,0.006342330949465229
-0.00548578,0.006046108929674754
-0.00548544,0.00607902248742931
-0.0054851,0.005815714025391057
-0.00548476,0.00482830729275614
-0.00548442,0.004301690368683227
-0.00548408,0.004170036137664699
-0.00548374,0.004005468348892213
-0.0054834,0.004202949695419555
-0.00548306,0.004334603926438861
-0.00548272,0.004927047966019811
-0.00548238,0.005618232678865511
-0.00548204,0.006013195371921213
-0.0054817,0.006572725853747667
-0.00548136,0.00630941739171121
-0.00548102,0.006276503833957192
-0.00548068,0.006572725853747667
-0.00548034,0.006934774989047795
-0.00548,0.007198083451084253
-0.00547966,0.007198083451084253
-0.00547932,0.006144849602938425
-0.00547898,0.005420751332339485
-0.00547864,0.004992875081528926
-0.0054783,0.004729566619492469
-0.00547796,0.004564998830719983
-0.00547762,0.004762480177247026
-0.00547728,0.005223269985810825
-0.00547694,0.005914454698655267
-0.0054766,0.006210676718447538
-0.00547626,0.005782800467638296
-0.00547592,0.005091615754793855
-0.00547558,0.005190356428056269
-0.00547524,0.005453664890092726
-0.0054749,0.006375244507218648
-0.00547456,0.007823441048420837
-0.00547422,0.00904124268533945
-0.00547388,0.01025904432225585
-0.00547354,0.01121353749714022
-0.0054732,0.01088440191959465
-0.00547286,0.00956785960941476
-0.00547252,0.008514625761266537
-0.00547218,0.007625959701893495
-0.00547184,0.006046108929677627
-0.0054715,0.004992875081528926
-0.00547116,0.004696653061737912
-0.00547082,0.004400431041947437
-0.00547048,0.004729566619492469
-0.00547014,0.005420751332338168
-0.0054698,0.005815714025392853
-0.00546946,0.006441071622729439
-0.00546912,0.007066429220066024
-0.00546878,0.007724700375157166
-0.00546844,0.007922181721684508
-0.0054681,0.007165169893329695
-0.00546776,0.006901861431293239
-0.00546742,0.006572725853747667
-0.00546708,0.005947368256411082
-0.00546674,0.005223269985810825
-0.0054664,0.004861220850510638
-0.00546606,0.00482830729275614
-0.00546572,0.004992875081528926
-0.00546538,0.005124529312547693
-0.00546504,0.005420751332338168
-0.0054647,0.005552405563356397
-0.00546436,0.005322010659074556
-0.00546402,0.005354924216829054
-0.00546368,0.005124529312547154
-0.00546334,0.004894134408265314
-0.005463,0.004927047966019811
-0.00546266,0.004729566619492469
-0.00546232,0.005716973352130918
-0.00546198,0.006671466527011338
-0.00546164,0.006901861431293239
-0.0054613,0.007099342777820342
-0.00546096,0.006967688546802352
-0.00546062,0.007461391913120709
-0.00546028,0.008251317299230678
-0.00545994,0.008580452876775651
-0.0054596,0.008909588454321223
-0.00545926,0.0096007731671674
-0.00545892,0.009864081629203377
-0.00545858,0.009995735860221606
-0.00545824,0.01022613076450297
-0.0054579,0.009929908744712493
-0.00545756,0.008745020665548437
-0.00545722,0.007955095279440503
-0.00545688,0.007296824124347924
-0.00545654,0.00653981229599311
-0.0054562,0.006375244507220624
-0.00545586,0.00700060210455691
-0.00545552,0.007889268163929951
-0.00545518,0.008317144414738414
-0.00545484,0.009271637589621349
-0.0054545,0.01045652566878541
-0.00545416,0.00979825451369546
-0.00545382,0.009699513840430593
-0.00545348,0.008613366434530208
-0.00545314,0.007132256335577832
-0.0054528,0.005486578447847282
-0.00545246,0.003972554791137656
-0.00545212,0.003149715847275224
-0.00545178,0.002886407385237271
-0.00545144,0.002754753154219042
-0.0054511,0.003083888731764015
-0.00545076,0.004532085272965126
-0.00545042,0.003939641233383098
-0.00545008,0.004499171715209552
-0.00544974,0.004894134408265255
-0.0054494,0.004597912388474241
-0.00544906,0.004532085272965246
-0.00544872,0.003906727675628541
-0.00544838,0.003182629405028285
-0.00544804,0.002524358249937143
-0.0054477,0.002392704018918914
-0.00544736,0.002590185365446257
-0.00544702,0.003676332771346642
-0.00544668,0.005486578447847282
-0.00544634,0.006901861431293239
-0.005446,0.008481712203511979
-0.00544566,0.009172896916358517
-0.00544532,0.009633686724921478
-0.00544498,0.009798254513694264
-0.00544464,0.009502032493902053
-0.0054443,0.008843761338812107
-0.00544396,0.008415885088002865
-0.00544362,0.008350057972492555
-0.00544328,0.007691786817402609
-0.00544294,0.006967688546802352
-0.0054426,0.006605639411501985
-0.00544226,0.006473985180483996
-0.00544192,0.006111936045183867
-0.00544158,0.00598028181416522
-0.00544124,0.00574988690988374
-0.0054409,0.004104209022155884
-0.00544056,0.003676332771344606
-0.00544022,0.0025572718076917
-0.00543988,0.001833173537091444
-0.00543954,0.001010334593227636
-0.0054392,0.00107616170873663
-0.00543886,0.001701519306073215
-0.00543852,0.003149715847276362
-0.00543818,0.004597912388474241
-0.00543784,0.005618232678865511
-0.0054375,0.006539812295994547
-0.00543716,0.007329737682102481
-0.00543682,0.003380110751555628
-0.00543648,-0.007218054845392483
-0.00543614,-0.02630791834305488
-0.0054358,-0.05352743060607361
-0.00543546,-0.08673721038036132
-0.00543512,-0.1224813341018708
-0.00543478,-0.1571393104174194
-0.00543444,-0.1881109682644013
-0.0054341,-0.2127961365803755
-0.00543376,-0.2310302475764001
-0.00543342,-0.2427803876947556
-0.00543308,-0.2488364823216155
-0.00543274,-0.2507783822291343
-0.0054324,-0.249363099245691
-0.00543206,-0.2449526825065778
-0.00543172,-0.239061155668512
-0.00543138,-0.2316226916159956
-0.00543104,-0.223756351312643
-0.0054307,-0.2151659127387036
-0.00543036,-0.2064109063760073
-0.00543002,-0.198412911841634
-0.00542968,-0.1903490901917675
-0.00542934,-0.1826473176772152
-0.005429,-0.1758012976642533
-0.00542866,-0.1688565369780417
-0.00542832,-0.1624054796581603
-0.00542798,-0.156053163011519
-0.00542764,-0.1501287226156987
-0.0054273,-0.145125861837006
-0.00542696,-0.1399913468272951
-0.00542662,-0.1357125843192027
-0.00542628,-0.1313679946956012
-0.00542594,-0.1270892321875088
-0.0054256,-0.1224484205441162
-0.00542526,-0.1177417817852145
-0.00542492,-0.1130022294685583
-0.00542458,-0.1085918127294477
-0.00542424,-0.1041484824325824
-0.0054239,-0.1000342877132556
-0.00542356,-0.0960517472249614
-0.00542322,-0.09220086096767821
-0.00542288,-0.08884367807670675
-0.00542254,-0.08519027316595754
-0.0054222,-0.08173434960172904
-0.00542186,-0.07877212940381312
-0.00542152,-0.07557951430162688
-0.00542118,-0.07238689919943483
-0.00542084,-0.06975381457906542
-0.0054205,-0.06708781640095113
-0.00542016,-0.06386228774100455
-0.00541982,-0.06211786918000876
-0.00541948,-0.05978100657943946
-0.00541914,-0.05747705753662046
-0.0054188,-0.05586429320664561
-0.00541846,-0.05500854070502868
-0.00541812,-0.05359325772158272
-0.00541778,-0.05230962896915099
-0.00541744,-0.05010442059959967
-0.0054171,-0.04806378001881713
-0.00541676,-0.04536486828293908
-0.00541642,-0.04296217856686078
-0.00541608,-0.04023035327323254
-0.00541574,-0.03792640423040941
-0.0054154,-0.0356553687453491
-0.00541506,-0.03368055528007567
-0.00541472,-0.0322323587388778
-0.00541438,-0.03071833508216553
-0.00541404,-0.02900683007892857
-0.0054137,-0.02775611488425767
-0.00541336,-0.02594586920775475
-0.00541302,-0.02436601843553601
-0.00541268,-0.02239120497026618
-0.00541234,-0.02074552708253473
-0.005412,-0.01982394746540713
-0.00541166,-0.0189681949637902
-0.00541132,-0.01850740515522485
-0.00541098,-0.01804661534666105
-0.00541064,-0.01751999842258909
-0.0054103,-0.01748708486483358
-0.00540996,-0.01768456621136092
-0.00540962,-0.01702629505627097
-0.00540928,-0.01715794928728801
-0.00540894,-0.01669715947872421
-0.0054086,-0.01603888832363426
-0.00540826,-0.01584140697710572
-0.00540792,-0.01521604937976914
-0.00540758,-0.01429446976264321
-0.00540724,-0.01304375456796837
-0.0054069,-0.01231965629736811
-0.00540656,-0.01064106485188875
-0.00540622,-0.009456176772721644
-0.00540588,-0.008172548020293918
-0.00540554,-0.007744671769484675
-0.0054052,-0.007613017538466446
-0.00540486,-0.00767884465397556
-0.00540452,-0.007876326000502903
-0.00540418,-0.008205461578048474
-0.00540384,-0.008172548020293918
-0.0054035,-0.007613017538466446
-0.00540316,-0.007678844653974962
-0.00540282,-0.007349709076429989
-0.00540248,-0.006823092152357076
-0.00540214,-0.006164820997264377
-0.0054018,-0.005309068495647449
-0.00540146,-0.005045760033610991
-0.00540112,-0.004716624456064762
-0.00540078,-0.004354575320765292
-0.00540044,-0.00369630416567415
-0.0054001,-0.003630477050164198
-0.00539976,-0.003169687241601236
-0.00539942,-0.002840551664055666
-0.00539908,-0.002313934739982213
-0.00539874,-0.002017712720191738
-0.0053984,-0.001721490700400724
-0.00539806,-0.00165566358489155
-0.00539772,-0.001622750027137053
-0.00539738,-0.0009973924298004675
-0.00539704,-0.0002074670436915161
-0.0053967,-0.0004378619479729968
-0.00539636,-0.000207467043691097
-0.00539602,0.0006482854579293036
-0.00539568,0.001701519306073215
-0.00539534,0.0025572718076917
-0.005395,0.002886407385238409
-0.00539466,0.003511764982573856
-0.00539432,0.004170036137664999
-0.00539398,0.004466258157455474
-0.00539364,0.00482830729275614
-0.0053933,0.004663739503983355
-0.00539296,0.003873814117875421
-0.00539262,0.003314283636046514
-0.00539228,0.002096481999127901
-0.00539194,0.001010334593229492
-0.0053916,0.0005495447846637165
-0.00539126,-0.0004378619479729968
-0.00539092,-0.0006682568522544774
-0.00539058,-0.0001416399281819828
-0.00539024,0.00107616170873663
-0.0053899,0.001997741325862553
-0.00538956,0.002952234500746385
-0.00538922,0.003840900560119427
-0.00538888,0.004597912388472863
-0.00538854,0.004795393735001583
-0.0053882,0.00426877681092867
-0.00538786,0.003676332771347719
-0.00538752,0.003544678540328413
-0.00538718,0.003116802289519171
-0.00538684,0.002985148058501182
-0.0053865,0.003972554791137656
-0.00538616,0.004433344599701455
-0.00538582,0.004466258157455953
-0.00538548,0.004400431041946898
-0.00538514,0.004433344599701455
-0.0053848,0.004630825946228797
-0.00538446,0.003511764982573856
-0.00538412,0.003281370078291956
-0.00538378,0.002820580269728157
-0.00538344,0.002096481999127901
-0.0053831,0.002359790461164357
-0.00538276,0.003281370078291956
-0.00538242,0.004367517484192341
-0.00538208,0.005716973352129182
-0.00538174,0.00700060210455691
-0.0053814,0.007362651239857935
-0.00538106,0.007856354606175394
-0.00538072,0.008350057972493751
-0.00538038,0.00838297153024747
-0.00538004,0.007922181721684508
-0.0053797,0.006868947873538681
-0.00537936,0.005684059794372709
-0.00537902,0.004630825946228797
-0.00537868,0.003314283636046514
-0.00537834,0.002261049787900746
-0.005378,0.002293963345655243
-0.00537766,0.002886407385237271
-0.00537732,0.003939641233384295
-0.00537698,0.004597912388474241
-0.00537664,0.005322010659074497
-0.0053763,0.005618232678864613
-0.00537596,0.005124529312547154
-0.00537562,0.004104209022155884
-0.00537528,0.003478851424819718
-0.00537494,0.003709246329101199
-0.0053746,0.003182629405028285
-0.00537426,0.003511764982575054
-0.00537392,0.004170036137664999
-0.00537358,0.00528909710131994
-0.00537324,0.006309417391711988
-0.0053729,0.006737293642520453
-0.00537256,0.007527219028629823
-0.00537222,0.007527219028629823
-0.00537188,0.007132256335575138
-0.00537154,0.006572725853747667
-0.0053712,0.006408158064975181
-0.00537086,0.006408158064974882
-0.00537052,0.00653981229599311
-0.00537018,0.006309417391711629
-0.00536984,0.006046108929674754
-0.0053695,0.005782800467638296
-0.00536916,0.005716973352129302
-0.00536882,0.005585319121110954
-0.00536848,0.005453664890092726
-0.00536814,0.005025788639284261
-0.0053678,0.004466258157456012
-0.00536746,0.003544678540328413
-0.00536712,0.003215542962783441
-0.00536678,0.0025572718076917
-0.00536644,0.002030654883618786
-0.0053661,0.002721839596463228
-0.00536576,0.003610505655837527
-0.00536542,0.004630825946228797
-0.00536508,0.005289097101318743
