Analysis/New Tests_CMB/wrd01_d2s01/cmb10_ch16.csv

#Digilent WaveForms Oscilloscope Acquisition
#Device Name: ADP3450
#Serial Number: SN:210018B9D9B0
#Date Time: 2024-08-14 17:06:06.160.300.050
#Sample rate: 5.88235e+06Hz
#Samples: 32768
#Trigger: Source: Channel 3 Type: Edge Condition: Rising Level: 60 mV Hyst.: Auto HoldOff: 0 s
#Channel 3: Range: 100 mV/div Offset: 0 V Attenuation: 1 X Coupling: DC Bandwidth: 0 Hz Sample Mode: Average

Time (s),Channel 3 (V)
-0.003798501324383371,0.2048110842094451
-0.003798331324383371,0.2176144581759445
-0.003798161324383371,0.2283113644461794
-0.003797991324383371,0.2379221233104946
-0.003797821324383371,0.2458213771716347
-0.003797651324383371,0.2521078667027437
-0.003797481324383371,0.2570119868081727
-0.003797311324383371,0.2606983052766764
-0.003797141324383371,0.2633313898970429
-0.003796971324383371,0.2652074626890506
-0.003796801324383371,0.2650758084580386
-0.003796631324383371,0.2647795864382482
-0.003796461324383371,0.2634959576858205
-0.003796291324383371,0.2616857120093231
-0.003796121324383371,0.2593817629665049
-0.003795951324383371,0.2567815919039002
-0.003795781324383371,0.2540168530525025
-0.003795611324383371,0.2510217192968433
-0.003795441324383371,0.2482898940032151
-0.003795271324383371,0.243188292551268
-0.003795101324383371,0.239436146967246
-0.003794931324383371,0.2352890386901801
-0.003794761324383372,0.2314052388751414
-0.003794591324383371,0.2278176610798805
-0.003794421324383371,0.2239009477070882
-0.003794251324383371,0.220050061449812
-0.003794081324383371,0.2162320887502834
-0.003793911324383371,0.2124141160507617
-0.003793741324383372,0.2085303162357242
-0.003793571324383371,0.2051731333447452
-0.003793401324383371,0.201552641991744
-0.003793231324383371,0.1986233353515937
-0.003793061324383371,0.1951344982296117
-0.003792891324383371,0.1921064509161971
-0.003792721324383371,0.1888150951407423
-0.003792551324383371,0.1853262580187473
-0.003792381324383371,0.1821007293588007
-0.003792211324383371,0.178414410890297
-0.003792041324383371,0.1753205364613676
-0.003791871324383371,0.1716342179928583
-0.003791701324383371,0.1683099486596534
-0.003791531324383371,0.1650515064419401
-0.003791361324383371,0.1619247184552572
-0.003791191324383371,0.1588966711418434
-0.003791021324383371,0.1550786984423163
-0.003790851324383371,0.1520835646866501
-0.003790681324383371,0.1487592953534465
-0.003790511324383371,0.1469819632346883
-0.003790341324383371,0.1434272989971961
-0.003790171324383371,0.1415183126474318
-0.003790001324383371,0.139411844951144
-0.003789831324383371,0.1376674263901518
-0.003789661324383371,0.1355938722516191
-0.003789491324383371,0.133553231670829
-0.003789321324383371,0.1313151097435191
-0.003789151324383371,0.1291757284894729
-0.003788981324383371,0.1269376065621671
-0.003788811324383371,0.1246994846348572
-0.003788641324383371,0.122132227130007
-0.003788471324383371,0.1200586729914567
-0.003788301324383371,0.1179192917374144
-0.003788131324383371,0.1153849477903135
-0.003787961324383371,0.1132455665362711
-0.003787791324383371,0.1104808276848895
-0.003787621324383371,0.1084072735463549
-0.003787451324383371,0.106564114312088
-0.003787281324383371,0.1042930788270277
-0.003787111324383371,0.102713228054809
-0.003786941324383371,0.1011333772825931
-0.003786771324383371,0.09958644006812888
-0.003786601324383371,0.09787493506489532
-0.003786431324383371,0.09636091140817671
-0.003786261324383371,0.09484688775146982
-0.003786091324383371,0.09451775217392425
-0.003785921324383371,0.09073269303215709
-0.003785751324383371,0.0895148913952338
-0.003785581324383371,0.08730968302568426
-0.003785411324383371,0.08612479494650897
-0.003785241324383371,0.08434746282776612
-0.003785071324383371,0.08247139003575635
-0.003784901324383371,0.08112193416782197
-0.003784731324383371,0.07931168849132215
-0.003784561324383371,0.0780938868544047
-0.003784391324383372,0.07641529540892394
-0.003784221324383371,0.07496709886771732
-0.003784051324383371,0.07381512434630783
-0.003783881324383371,0.07170865665002002
-0.003783711324383371,0.07114912616818973
-0.003783541324383371,0.07055668212860884
-0.003783371324383372,0.06973384318474576
-0.003783201324383371,0.06815399241252401
-0.003783031324383371,0.06726532635315097
-0.003782861324383371,0.06647540096704305
-0.003782691324383371,0.0653892535611432
-0.003782521324383371,0.06410562480871815
-0.003782351324383371,0.06344735365362474
-0.003782181324383371,0.06190041643915816
-0.003782011324383371,0.06153836730385804
-0.003781841324383371,0.06009017076266016
-0.003781671324383371,0.05906985047226811
-0.003781501324383371,0.05775330816208636
-0.003781331324383371,0.05679881498720528
-0.003781161324383371,0.0555810133502832
-0.003780991324383371,0.05525187777273763
-0.003780821324383371,0.05459360661764769
-0.003780651324383371,0.05465943373315548
-0.003780481324383371,0.05419864392459264
-0.003780311324383371,0.05344163209623974
-0.003780141324383371,0.05209217622830015
-0.003779971324383371,0.05087437459138153
-0.003779801324383371,0.05011736276302672
-0.003779631324383371,0.04889956112611032
-0.003779461324383371,0.04804380862449117
-0.003779291324383371,0.04676017987206656
-0.003779121324383371,0.04636521717900721
-0.003778951324383371,0.04537781044637049
-0.003778781324383371,0.04471953929127936
-0.003778611324383371,0.04343591053885396
-0.003778441324383371,0.04281055294151618
-0.003778271324383371,0.04248141736397067
-0.003778101324383371,0.04185605976663211
-0.003777931324383371,0.04142818351582364
-0.003777761324383371,0.04090156659175073
-0.003777591324383371,0.04057243101420575
-0.003777421324383371,0.04021038187890569
-0.003777251324383371,0.04017746832115059
-0.003777081324383371,0.03978250562809572
-0.003776911324383371,0.03974959207034123
-0.003776741324383371,0.03974959207034123
-0.003776571324383371,0.03793934639384389
-0.003776401324383371,0.03958502428156545
-0.003776231324383371,0.0391900615885152
-0.003776061324383371,0.03872927177994889
-0.003775891324383371,0.03813682774036793
-0.003775721324383371,0.0375443837007859
-0.003775551324383371,0.03741272946976792
-0.003775381324383371,0.03612910071734228
-0.003775211324383371,0.03632658206386657
-0.003775041324383371,0.03543791600449353
-0.003774871324383371,0.03504295331143956
-0.003774701324383371,0.03415428725206653
-0.003774531324383371,0.03283774494188663
-0.003774361324383371,0.03201490599802181
-0.003774191324383371,0.03099458570763275
-0.003774021324383371,0.03013883320600852
-0.003773851324383371,0.02901977224235561
-0.003773681324383371,0.02901977224235561
-0.003773511324383371,0.02704495877708578
-0.003773341324383371,0.02720952656585467
-0.003773171324383371,0.02595881137118635
-0.003773001324383372,0.02457644194549544
-0.003772831324383371,0.02316115896204445
-0.003772661324383371,0.02194335732512584
-0.003772491324383371,0.02131799972779039
-0.003772321324383371,0.02039642011066333
-0.003772151324383371,0.01914570491599303
-0.003771981324383371,0.01881656933844411
-0.003771811324383371,0.01835577952987911
-0.003771641324383371,0.01822412529886088
-0.003771471324383371,0.01815829818335189
-0.003771301324383371,0.01835577952987875
-0.003771131324383371,0.01861908799191461
-0.003770961324383371,0.01848743376089782
-0.003770791324383371,0.01865200154967013
-0.003770621324383371,0.01819121174110632
-0.003770451324383371,0.0185203473186513
-0.003770281324383371,0.01881656933844237
-0.003770111324383371,0.01931027270476037
-0.003769941324383371,0.01973814895556895
-0.003769771324383371,0.01963940828230684
-0.003769601324383371,0.01973814895557051
-0.003769431324383371,0.02023185232188887
-0.003769261324383371,0.02069264213045183
-0.003769091324383371,0.02158130818982409
-0.003768921324383371,0.02204209799838783
-0.003768751324383371,0.02184461665186217
-0.003768581324383371,0.02197627088288039
-0.003768411324383371,0.02217375222940774
-0.003768241324383371,0.02220666578716224
-0.003768071324383371,0.02158130818982685
-0.003767901324383371,0.02125217261228133
-0.003767731324383371,0.02029767943739673
-0.003767561324383371,0.01960649472455228
-0.003767391324383371,0.01884948289619747
-0.003767221324383371,0.01812538462559853
-0.003767051324383371,0.01641387962236335
-0.003766881324383371,0.01644679318011468
-0.003766711324383371,0.01572269490951454
-0.003766541324383371,0.01572269490951454
-0.003766371324383371,0.01572269490951454
-0.003766201324383371,0.01555812712074206
-0.003766031324383371,0.01572269490951424
-0.003765861324383371,0.01562395423625123
-0.003765691324383371,0.01611765760256869
-0.003765521324383371,0.01582143558277821
-0.003765351324383371,0.01585434914053277
-0.003765181324383371,0.01575560846726928
-0.003765011324383371,0.01542647288972413
-0.003764841324383371,0.01509733731217915
-0.003764671324383371,0.01457072038810403
-0.003764501324383371,0.01401118990627757
-0.003764331324383371,0.01338583230894099
-0.003764161324383371,0.01305669673139602
-0.003763991324383371,0.01308961028914991
-0.003763821324383371,0.01272756115385116
-0.003763651324383371,0.01292504250037719
-0.003763481324383371,0.01292504250037719
-0.003763311324383371,0.01262882048058617
-0.003763141324383371,0.01302378317364014
-0.003762971324383371,0.01308961028914985
-0.003762801324383371,0.01345165942444879
-0.003762631324383372,0.01615057116031397
-0.003762461324383371,0.01292504250037719
-0.003762291324383371,0.01305669673139542
-0.003762121324383371,0.01526190510094673
-0.003761951324383371,0.01480111529238778
-0.003761781324383371,0.01480111529238694
-0.003761611324383372,0.01493276952340469
-0.003761441324383371,0.01463654750361416
-0.003761271324383371,0.0141428441372958
-0.003761101324383371,0.01394536279076882
-0.003760931324383371,0.0134845729822055
-0.003760761324383371,0.0124642526918171
-0.003760591324383371,0.01206928999876014
-0.003760421324383371,0.01216803067202238
-0.003760251324383371,0.01167432730570402
-0.003760081324383371,0.01144393240142254
-0.003759911324383371,0.01203637644100307
-0.003759741324383371,0.01065400701531526
-0.003759571324383371,0.01088440191959381
-0.003759401324383371,0.01055526634204908
-0.003759231324383371,0.01012739009123984
-0.003759061324383371,0.01006156297573084
-0.003758891324383371,0.01002864941797622
-0.003758721324383371,0.009896995186958175
-0.003758551324383371,0.009436205378395811
-0.003758381324383371,0.009074156243094007
-0.003758211324383371,0.008679193550039321
-0.003758041324383371,0.007922181721684508
-0.003757871324383371,0.007461391913121547
-0.003757701324383371,0.005618232678868863
-0.003757531324383371,0.006572725853744195
-0.003757361324383371,0.005453664890092187
-0.003757191324383371,0.005157442870301712
-0.003757021324383371,0.004466258157456012
-0.003756851324383371,0.004170036137665537
-0.003756681324383371,0.003775073444611031
-0.003756511324383371,0.003544678540329252
-0.003756341324383371,0.003511764982574874
-0.003756171324383371,0.004071295464401327
-0.003756001324383371,0.003742159886855756
-0.003755831324383371,0.00380798700236475
-0.003755661324383371,0.004301690368682329
-0.003755491324383371,0.005157442870298599
-0.003755321324383371,0.006013195371921094
-0.003755151324383371,0.006506898738238553
-0.003754981324383371,0.007658873259648051
-0.003754811324383371,0.008119663068211012
-0.003754641324383371,0.008876674896565287
-0.003754471324383371,0.009304551147374352
-0.003754301324383371,0.01002864941797718
-0.003754131324383371,0.01058817989980363
-0.003753961324383371,0.01078566124633098
-0.003753791324383371,0.01108188326612145
-0.003753621324383371,0.01121353749713998
-0.003753451324383371,0.01131227817040353
-0.003753281324383371,0.01137810528591336
-0.003753111324383371,0.01157558663244035
-0.003752941324383371,0.01127936461264933
-0.003752771324383371,0.01088440191959537
-0.003752601324383371,0.01104896970836713
-0.003752431324383371,0.01095022903510412
-0.003752261324383372,0.01006156297573395
-0.003752091324383371,0.01006156297573072
-0.003751921324383371,0.009798254513694264
-0.003751751324383371,0.009172896916358817
-0.003751581324383371,0.008415885088004242
-0.003751411324383371,0.008350057972493991
-0.003751241324383372,0.007395564797615067
-0.003751071324383371,0.007362651239857037
-0.003750901324383371,0.007033515662311467
-0.003750731324383371,0.006704380084766494
-0.003750561324383371,0.006473985180484415
-0.003750391324383371,0.006243590276202934
-0.003750221324383371,0.006473985180483158
-0.003750051324383371,0.006243590276202096
-0.003749881324383371,0.006177763160692982
-0.003749711324383371,0.006243590276201976
-0.003749541324383371,0.006473985180483577
-0.003749371324383371,0.006836034315783466
-0.003749201324383371,0.006803120758029687
-0.003749031324383371,0.006572725853747667
-0.003748861324383371,0.007395564797611595
-0.003748691324383371,0.007889268163929052
-0.003748521324383371,0.008053835952702437
-0.003748351324383371,0.00706642922006782
-0.003748181324383371,0.009205810474104452
-0.003748011324383371,0.008909588454321223
-0.003747841324383371,0.009403291820639578
-0.003747671324383371,0.009172896916357679
-0.003747501324383371,0.009139983358603183
-0.003747331324383371,0.009469118936148093
-0.003747161324383371,0.009205810474113193
-0.003746991324383371,0.009271637589621349
-0.003746821324383371,0.009107069800848565
-0.003746651324383371,0.009271637589621349
-0.003746481324383371,0.009567859609411825
-0.003746311324383371,0.009074156243094905
-0.003746141324383371,0.008909588454321821
-0.003745971324383371,0.009205810474111996
-0.003745801324383371,0.009074156243094007
-0.003745631324383371,0.00881084778105755
-0.003745461324383371,0.008185490183722104
-0.003745291324383371,0.008317144414738954
-0.003745121324383371,0.00785635460617707
-0.003744951324383371,0.007461391913120948
-0.003744781324383371,0.007593046144138938
-0.003744611324383371,0.007198083451084253
-0.003744441324383371,0.006934774989048274
-0.003744271324383371,0.006704380084766315
-0.003744101324383371,0.005914454698659398
-0.003743931324383371,0.005914454698656525
-0.003743761324383371,0.005914454698656525
-0.003743591324383371,0.005387837774583611
-0.003743421324383371,0.004927047966020649
-0.003743251324383371,0.004564998830720342
-0.003743081324383371,0.004630825946228558
-0.003742911324383371,0.003972554791137057
-0.003742741324383371,0.003643419213592085
-0.003742571324383371,0.002985148058500942
-0.003742401324383371,0.00242561757667449
-0.003742231324383371,0.002425617576673472
-0.003742061324383371,0.002359790461164597
-0.003741891324383372,0.002524358249936545
-0.003741721324383371,0.0025572718076917
-0.003741551324383371,0.002590185365446257
-0.003741381324383371,0.002952234500745727
-0.003741211324383371,0.003116802289518872
-0.003741041324383371,0.003643419213590169
-0.003740871324383372,0.003906727675627584
-0.003740701324383371,0.004202949695419555
-0.003740531324383371,0.004466258157456012
-0.003740361324383371,0.004795393735000985
-0.003740191324383371,0.004894134408265075
-0.003740021324383371,0.005354924216827378
-0.003739851324383371,0.005354924216829054
-0.003739681324383371,0.005684059794374625
-0.003739511324383371,0.005716973352129182
-0.003739341324383371,0.005651146236620188
-0.003739171324383371,0.005651146236620068
-0.003739001324383371,0.006046108929674035
-0.003738831324383371,0.005025788639287194
-0.003738661324383371,0.006605639411502225
-0.003738491324383371,0.005881541140901968
-0.003738321324383371,0.00621067671844694
-0.003738151324383371,0.006243590276202036
-0.003737981324383371,0.00630941739171109
-0.003737811324383371,0.006079022487430148
-0.003737641324383371,0.005848627583147411
-0.003737471324383371,0.005387837774583611
-0.003737301324383371,0.005519492005601839
-0.003737131324383371,0.005749886909883321
-0.003736961324383371,0.005716973352129242
-0.003736791324383371,0.006046108929673557
-0.003736621324383371,0.005684059794374625
-0.003736451324383371,0.005782800467638296
-0.003736281324383371,0.005980281814165639
-0.003736111324383371,0.006737293642519075
-0.003735941324383371,0.007099342777819923
-0.003735771324383371,0.007527219028628266
-0.003735601324383371,0.007593046144139656
-0.003735431324383371,0.007988008837193623
-0.003735261324383371,0.007263910566593366
-0.003735091324383371,0.007922181721683311
-0.003734921324383371,0.007198083451085569
-0.003734751324383371,0.006375244507223318
-0.003734581324383371,0.005815714025392973
-0.003734411324383371,0.005881541140901968
-0.003734241324383371,0.004795393735001583
-0.003734071324383371,0.004762480177247086
-0.003733901324383371,0.00423586325317507
-0.003733731324383371,0.004104209022156363
-0.003733561324383371,0.003577592098082791
-0.003733391324383371,0.003478851424819299
-0.003733221324383371,0.003478851424819299
-0.003733051324383371,0.003742159886855277
-0.003732881324383371,0.004137122579909723
-0.003732711324383371,0.004861220850508064
-0.003732541324383371,0.005519492005602378
-0.003732371324383371,0.005815714025392853
-0.003732201324383371,0.005947368256411082
-0.003732031324383371,0.00584862758314759
-0.003731861324383371,0.006704380084764339
-0.003731691324383371,0.00703351566231027
-0.003731521324383372,0.007099342777820342
-0.003731351324383371,0.00700060210455691
-0.003731181324383371,0.006803120758029567
-0.003731011324383371,0.006803120758029567
-0.003730841324383371,0.006572725853748086
-0.003730671324383371,0.006177763160694419
-0.003730501324383372,0.005782800467639734
-0.003730331324383371,0.005190356428056269
-0.003730161324383371,0.004466258157456012
-0.003729991324383371,0.004564998830719504
-0.003729821324383371,0.003873814117875241
-0.003729651324383371,0.003972554791137297
-0.003729481324383371,0.004861220850507465
-0.003729311324383371,0.002754753154219042
-0.003729141324383371,0.003215542962782842
-0.003728971324383371,0.00311680228951935
-0.003728801324383371,0.004038381906645093
-0.003728631324383371,0.004367517484191143
-0.003728461324383371,0.005091615754789963
-0.003728291324383371,0.005980281814165639
-0.003728121324383371,0.006506898738238553
-0.003727951324383371,0.007132256335574001
-0.003727781324383371,0.007395564797611116
-0.003727611324383371,0.008613366434527992
-0.003727441324383371,0.008942502012074582
-0.003727271324383371,0.008679193550039321
-0.003727101324383371,0.008777934223302994
-0.003726931324383371,0.008942502012075779
-0.003726761324383371,0.0086791935500398
-0.003726591324383371,0.008251317299230858
-0.003726421324383371,0.007395564797614708
-0.003726251324383371,0.00700060210455691
-0.003726081324383371,0.00677020720027501
-0.003725911324383371,0.005651146236620068
-0.003725741324383371,0.005322010659075095
-0.003725571324383371,0.004959961523775027
-0.003725401324383371,0.004466258157457809
-0.003725231324383371,0.004663739503982278
-0.003725061324383371,0.004071295464401327
-0.003724891324383371,0.003972554791137656
-0.003724721324383371,0.003709246329101678
-0.003724551324383371,0.003610505655837707
-0.003724381324383371,0.003511764982574215
-0.003724211324383371,0.003478851424819
-0.003724041324383371,0.003314283636046514
-0.003723871324383371,0.004005468348892213
-0.003723701324383371,0.004499171715209672
-0.003723531324383371,0.004762480177246548
-0.003723361324383371,0.005618232678862398
-0.003723191324383371,0.006375244507221402
-0.003723021324383371,0.006967688546802352
-0.003722851324383371,0.007099342777820581
-0.003722681324383371,0.007889268163928514
-0.003722511324383371,0.008284230856983918
-0.003722341324383371,0.008284230856984636
-0.003722171324383371,0.008975415569831294
-0.003722001324383371,0.00950203249390325
-0.003721831324383371,0.009962822302467049
-0.003721661324383371,0.01042361211103001
-0.003721491324383371,0.01045652566878534
-0.003721321324383371,0.01071983413082091
-0.003721151324383371,0.01068692057306689
-0.003720981324383371,0.01045652566878541
-0.003720811324383371,0.01039069855327629
-0.003720641324383371,0.01016030364899481
-0.003720471324383371,0.009765340955940425
-0.003720301324383371,0.009271637589623145
-0.003720131324383372,0.008975415569831413
-0.003719961324383371,0.007856354606175394
