Analysis/New Tests_CMB/wrd01_d2s01/cmb14_ch14.csv

#Digilent WaveForms Oscilloscope Acquisition
#Device Name: ADP3450
#Serial Number: SN:210018B9D9B0
#Date Time: 2024-08-06 17:24:10.202.750.540
#Sample rate: 2.94118e+06Hz
#Samples: 32768
#Trigger: Source: Channel 3 Type: Edge Condition: Rising Level: 60 mV Hyst.: Auto HoldOff: 0 s
#Channel 3: Range: 200 mV/div Offset: -20 mV Attenuation: 1 X Coupling: DC Bandwidth: 0 Hz Sample Mode: Average

Time (s),Channel 3 (V)
-0.005570272055674519,0.0202686629371331
-0.005569932055674518,0.01947873755102331
-0.005569592055674519,0.01924834264674183
-0.005569252055674519,0.0193470833200055
-0.005568912055674518,0.01908377485796886
-0.005568572055674519,0.01898503418470537
-0.005568232055674519,0.01868881216491436
-0.005567892055674518,0.01849133081838522
-0.005567552055674519,0.0175039240857503
-0.005567212055674519,0.01654943091086815
-0.005566872055674518,0.0159240733135309
-0.005566532055674519,0.01556202417823143
-0.005566192055674519,0.01575950552475877
-0.005565852055674518,0.01510123436966739
-0.005565512055674519,0.0149695801386494
-0.005565172055674519,0.01506832081191307
-0.005564832055674518,0.01589115975577826
-0.005564492055674519,0.0165823444686227
-0.005564152055674519,0.01684565293065916
-0.005563812055674518,0.01658234446862324
-0.005563472055674519,0.01687856648841372
-0.005563132055674519,0.0168127393729046
-0.005562792055674519,0.01612155466006016
-0.005562452055674519,0.01582533264026789
-0.005562112055674519,0.01490375302314029
-0.005561772055674519,0.01408091407927786
-0.005561432055674519,0.01450879033008561
-0.005561092055674519,0.01434422254131282
-0.005560752055674519,0.01417965475254033
-0.005560412055674519,0.0142783954258037
-0.005560072055674519,0.01391634629050358
-0.005559732055674519,0.01378469205948559
-0.005559392055674519,0.01279728532684864
-0.005559052055674519,0.01092121253483888
-0.005558712055674519,0.009275534647114019
-0.005558372055674519,0.007399461855101271
-0.005558032055674519,0.005951265313900757
-0.005557692055674519,0.0054246483898288
-0.005557352055674519,0.005161339927791386
-0.005557012055674519,0.005687956851864301
-0.005556672055674519,0.006675363584499217
-0.005556332055674519,0.00795899233692874
-0.005555992055674519,0.009736324455674824
-0.005555652055674519,0.01062499051504625
-0.005555312055674519,0.01105286676585711
-0.005554972055674519,0.01108578032361167
-0.005554632055674519,0.01098703965034818
-0.005554292055674519,0.01013128714872951
-0.005553952055674519,0.009999632917711282
-0.005553612055674519,0.00957175666690204
-0.005553272055674519,0.008913485511810896
-0.005552932055674519,0.008255214356719755
-0.005552592055674519,0.00693867204653747
-0.005552252055674519,0.005194253485545943
-0.005551912055674519,0.003811884059854546
-0.005551572055674519,0.002166206172126688
-0.005551232055674519,0.001211712997243935
-0.005550892055674519,0.0008825774196989621
-0.005550552055674519,0.001442107901526435
-0.005550212055674518,0.002462428191919499
-0.005549872055674519,0.003449834924554418
-0.005549532055674519,0.004470155214945688
-0.005549192055674518,0.005457561947584556
-0.005548852055674519,0.006642450026746457
-0.005548512055674519,0.007531116086119498
-0.005548172055674518,0.007300721181839275
-0.005547832055674519,0.008222300798965198
-0.005547492055674519,0.007926078779174183
-0.005547152055674518,0.008321041472228089
-0.005546812055674519,0.007893165221419626
-0.005546472055674519,0.007893165221419626
-0.005546132055674518,0.007267807624081964
-0.005545792055674519,0.006675363584501014
-0.005545452055674519,0.006181660218182656
-0.005545112055674518,0.006115833102673303
-0.005544772055674519,0.005984178871655314
-0.005544432055674519,0.006050005987164429
-0.005544092055674518,0.006313314449201783
-0.005543752055674519,0.006807017815519241
-0.005543412055674519,0.00693867204653747
-0.005543072055674518,0.007037412719801082
-0.005542732055674519,0.007004499162046584
-0.005542392055674519,0.007399461855101271
-0.005542052055674519,0.007695683874891745
-0.005541712055674519,0.00772859743264684
-0.005541372055674519,0.008123560125701526
-0.005541032055674519,0.008156473683456022
-0.005540692055674519,0.007827338105910513
-0.005540352055674519,0.008090646567946969
-0.005540012055674519,0.00855143637650993
-0.005539672055674519,0.009176793973847354
-0.005539332055674519,0.009637583782411153
-0.005538992055674519,0.01013128714872861
-0.005538652055674519,0.009966719359956725
-0.005538312055674519,0.009275534647111025
-0.005537972055674519,0.008222300798967113
-0.005537632055674519,0.007234894066328485
-0.005537292055674519,0.0059183517561462
-0.005536952055674519,0.004996772139020277
-0.005536612055674519,0.004371414541682016
-0.005536272055674519,0.004437241657191129
-0.005535932055674519,0.004206846752909651
-0.005535592055674519,0.004766377234736701
-0.005535252055674519,0.005424648389827843
-0.005534912055674519,0.006214573775935776
-0.005534572055674519,0.006214573775937213
-0.005534232055674519,0.006379141564709999
-0.005533892055674519,0.006313314449201005
-0.005533552055674519,0.006050005987164429
-0.005533212055674519,0.005523389063091515
-0.005532872055674519,0.005589216178600628
-0.005532532055674519,0.005358821274318729
-0.005532192055674519,0.005161339927791386
-0.005531852055674519,0.005161339927791386
-0.005531512055674519,0.00489803146575493
-0.005531172055674519,0.0052271670433005
-0.005530832055674519,0.005161339927791386
-0.005530492055674519,0.005622129736355185
-0.005530152055674519,0.005556302620846072
-0.005529812055674519,0.006247487333691772
-0.005529472055674519,0.006313314449201065
-0.005529132055674519,0.006412055122464556
-0.005528792055674519,0.006247487333691772
-0.005528452055674518,0.00647788223797391
-0.005528112055674519,0.006609536468991898
-0.005527772055674519,0.006510795795728228
-0.005527432055674518,0.005885438198390506
-0.005527092055674519,0.005260080601055058
-0.005526752055674519,0.004766377234736701
-0.005526412055674518,0.004371414541682674
-0.005526072055674519,0.004733463676982144
-0.005525732055674519,0.004832204350245815
-0.005525392055674518,0.005260080601056255
-0.005525052055674519,0.0059183517561462
-0.005524712055674519,0.006905758488782913
-0.005524372055674518,0.007201980508574345
-0.005524032055674519,0.007432375412855827
-0.005523692055674519,0.007399461855101271
-0.005523352055674518,0.006872844931028536
-0.005523012055674519,0.006971585604292027
-0.005522672055674519,0.006905758488782913
-0.005522332055674518,0.007201980508574465
-0.005521992055674519,0.007498202528364941
-0.005521652055674519,0.008386868587737984
-0.005521312055674518,0.008748917723037991
-0.005520972055674519,0.008683090607528997
-0.005520632055674519,0.008353955029983425
-0.005520292055674519,0.007070326277558034
-0.005519952055674519,0.006313314449200885
-0.005519612055674519,0.005161339927791386
-0.005519272055674519,0.004898031465755409
-0.005518932055674519,0.005095512812282273
-0.005518592055674519,0.005490475505336958
-0.005518252055674519,0.005391734832073465
-0.005517912055674519,0.006082919544918986
-0.005517572055674519,0.005984178871655314
-0.005517232055674519,0.00519425348554738
-0.005516892055674519,0.005358821274318729
-0.005516552055674519,0.004766377234736701
-0.005516212055674519,0.004470155214946227
-0.005515872055674519,0.00377897050209999
-0.005515532055674519,0.003351094251290744
-0.005515192055674519,0.003581489155572226
-0.005514852055674519,0.004535982330454802
-0.005514512055674519,0.0052271670433005
-0.005514172055674519,0.006609536468989384
-0.005513832055674519,0.007596943201628613
-0.005513492055674519,0.008156473683456083
-0.005513152055674519,0.008748917723037033
-0.005512812055674519,0.009045139742829125
-0.005512472055674519,0.008913485511810896
-0.005512132055674519,0.008814744838547226
-0.005511792055674519,0.007860251663665069
-0.005511452055674519,0.00693867204653747
-0.005511112055674519,0.006050005987164429
-0.005510772055674519,0.005292994158809615
-0.005510432055674519,0.004338500983927459
-0.005510092055674519,0.003515662040063532
-0.005509752055674519,0.003515662040063532
-0.005509412055674519,0.003581489155572645
-0.005509072055674519,0.003515662040063532
-0.005508732055674519,0.003548575597818328
-0.005508392055674519,0.003680229828836316
-0.005508052055674519,0.003515662040063532
-0.005507712055674518,0.003021958673744817
-0.005507372055674519,0.002824477327217832
-0.005507032055674519,0.002297860403144919
-0.005506692055674518,0.001837070594581539
-0.005506352055674519,0.002067465498863018
-0.005506012055674519,0.00259408242293593
-0.005505672055674518,0.003713143386593686
-0.005505332055674519,0.005260080601055058
-0.005504992055674519,0.007399461855101271
-0.005504652055674518,0.008979312627321389
-0.005504312055674519,0.009736324455674824
-0.005503972055674519,0.00967049734016571
-0.005503632055674518,0.009440102435881175
-0.005503292055674519,0.007991905894683298
-0.005502952055674519,0.007333634739592155
-0.005502612055674518,0.005095512812282692
-0.005502272055674519,0.005325907716564172
-0.005501932055674519,0.005358821274318729
-0.005501592055674518,0.004996772139017463
-0.005501252055674519,0.004371414541682016
-0.005500912055674519,0.003811884059854546
-0.005500572055674518,0.003680229828836316
-0.005500232055674519,0.003680229828836316
-0.005499892055674519,0.003515662040063532
-0.005499552055674519,0.003482748482309035
-0.005499212055674519,0.004206846752909232
-0.005498872055674519,0.004733463676982144
-0.005498532055674519,0.005325907716563095
-0.005498192055674519,0.005457561947582401
-0.005497852055674519,0.005128426370036829
-0.005497512055674519,0.004404328099437889
-0.005497172055674519,0.004042278964136444
-0.005496832055674519,0.003910624733118217
-0.005496492055674519,0.004865117907998637
-0.005496152055674519,0.006412055122464556
-0.005495812055674519,0.007399461855101271
-0.005495472055674519,0.008288127914472695
-0.005495132055674519,0.008617263492019883
-0.005494792055674519,0.008518522818756211
-0.005494452055674519,0.007629856759384787
-0.005494112055674519,0.007860251663665069
-0.005493772055674519,0.007103239835310256
-0.005493432055674519,0.006872844931028775
-0.005493092055674519,0.006774104257764684
-0.005492752055674519,0.006477882237973671
-0.005492412055674519,0.006313314449201184
-0.005492072055674519,0.0059183517561462
-0.005491732055674519,0.005490475505336958
-0.005491392055674519,0.005128426370037488
-0.005491052055674519,0.005292994158809615
-0.005490712055674519,0.005457561947582401
-0.005490372055674519,0.006082919544918986
-0.005490032055674519,0.006247487333691772
-0.005489692055674519,0.006576622911237342
-0.005489352055674519,0.0068399313732738
-0.005489012055674519,0.007498202528364941
-0.005488672055674519,0.008156473683456083
-0.005488332055674519,0.008946399069565453
-0.005487992055674519,0.009703410897919608
-0.005487652055674519,0.009341361762620138
-0.005487312055674519,0.008716004165283554
-0.005486972055674518,0.008222300798963342
-0.005486632055674519,0.007201980508573926
-0.005486292055674519,0.006774104257764684
-0.005485952055674518,0.005819611082881869
-0.005485612055674519,0.005457561947582401
-0.005485272055674519,0.005490475505336958
-0.005484932055674518,0.005490475505337856
-0.005484592055674519,0.005984178871655314
-0.005484252055674519,0.006379141564709999
-0.005483912055674518,0.00739946185510157
-0.005483572055674519,0.007564029643874055
-0.005483232055674519,0.007201980508573926
-0.005482892055674518,0.007465288970609067
-0.005482552055674519,0.006741190700010127
-0.005482212055674519,0.006050005987164429
-0.005481872055674518,0.005128426370035392
-0.005481532055674519,0.004338500983927459
-0.005481192055674519,0.003976451848627331
-0.005480852055674518,0.004009365406382007
-0.005480512055674519,0.004075192521891001
-0.005480172055674519,0.004305587426172902
-0.005479832055674518,0.004503068772700364
-0.005479492055674519,0.004568895888209358
-0.005479152055674519,0.003021958673745176
-0.005478812055674519,-0.001388458065357457
-0.005478472055674519,-0.01142709318050539
-0.005478132055674519,-0.02906876013694801
-0.005477792055674519,-0.05507047076300082
-0.005477452055674519,-0.08637126418763194
-0.005477112055674519,-0.120700104925635
-0.005476772055674519,-0.1548314643170486
-0.005476432055674519,-0.1851777645668124
-0.005476092055674519,-0.2101591549025212
-0.005475752055674519,-0.2286894879183032
-0.005475412055674519,-0.2409333314030321
-0.005475072055674519,-0.2484705361288257
-0.005474732055674519,-0.2509061394026585
-0.005474392055674519,-0.2490958937261623
-0.005474052055674519,-0.2450804396801063
-0.005473712055674519,-0.2393863941885783
-0.005473372055674519,-0.2319808436937926
-0.005473032055674519,-0.2237524542551533
-0.005472692055674519,-0.2158202868363195
-0.005472352055674519,-0.2076577245131749
-0.005472012055674519,-0.1994293350745356
-0.005471672055674519,-0.1916617354444743
-0.005471332055674519,-0.184387839180703
-0.005470992055674519,-0.1778051276297916
-0.005470652055674519,-0.1712882431944011
-0.005470312055674519,-0.1657916790493782
-0.005469972055674519,-0.1606900775974219
-0.005469632055674519,-0.1555884761454655
-0.005469292055674519,-0.150651442482282
-0.005468952055674519,-0.1454511003570619
-0.005468612055674519,-0.1397570548655236
-0.005468272055674519,-0.1341617500472489
-0.005467932055674519,-0.1278094334006193
-0.005467592055674519,-0.1221812150245901
-0.005467252055674519,-0.1171125271303883
-0.005466912055674519,-0.1124717154869957
-0.005466572055674519,-0.1084233478831852
-0.005466232055674519,-0.1047370294146693
-0.005465892055674519,-0.1017089821012555
-0.005465552055674519,-0.09861510767232717
-0.005465212055674518,-0.09608076372522083
-0.005464872055674519,-0.09308562996956157
-0.005464532055674519,-0.08982718775186044
-0.005464192055674518,-0.08640417774538037
-0.005463852055674519,-0.08304699485442166
-0.005463512055674519,-0.07936067638591127
-0.005463172055674518,-0.07570727147514963
-0.005462832055674519,-0.07251465637296339
-0.005462492055674519,-0.06965117684831693
-0.005462152055674518,-0.06708391934345788
-0.005461812055674519,-0.06510910587818805
-0.005461472055674519,-0.06290389750863271
-0.005461132055674518,-0.06020498577275496
-0.005460792055674519,-0.05796686384544914
-0.005460452055674519,-0.05589330970691205
-0.005460112055674518,-0.0534247928753153
-0.005459772055674519,-0.05069296758169203
-0.005459432055674519,-0.04822445075010024
-0.005459092055674518,-0.04628255084257821
-0.005458752055674519,-0.04453813228158985
-0.005458412055674519,-0.04285954083610743
-0.005458072055674518,-0.0417733934302037
-0.005457732055674519,-0.03993023419595185
-0.005457392055674519,-0.03808707496169665
-0.005457052055674519,-0.03565147168786385
-0.005456712055674519,-0.03334752264504043
-0.005456372055674519,-0.03140562273752156
-0.005456032055674519,-0.02992451263856918
-0.005455692055674519,-0.02883836523266611
-0.005455352055674519,-0.02765347715350205
-0.005455012055674519,-0.02689646532514861
-0.005454672055674519,-0.0255470094572104
-0.005454332055674519,-0.02459251628232824
-0.005453992055674519,-0.02403298580050179
-0.005453652055674519,-0.02327597397214595
-0.005453312055674519,-0.02268352993256393
-0.005452972055674519,-0.02153155541115653
-0.005452632055674519,-0.0204783215630086
-0.005452292055674519,-0.01988587752342657
-0.005451952055674519,-0.01896429790630065
-0.005451612055674519,-0.01768066915387125
-0.005451272055674519,-0.01666034886347997
-0.005450932055674519,-0.01567294213084506
-0.005450592055674519,-0.01481718962922478
-0.005450252055674519,-0.01389561001209718
-0.005449912055674519,-0.01300694395272575
-0.005449572055674519,-0.01224993212436933
-0.005449232055674519,-0.0118878829890692
-0.005448892055674519,-0.01080173558317079
-0.005448552055674519,-0.009814328850532097
-0.005448212055674519,-0.008925662791159056
-0.005447872055674519,-0.008333218751577026
-0.005447532055674519,-0.0084319594248407
-0.005447192055674519,-0.008695267886877155
-0.005446852055674519,-0.008892749233404499
-0.005446512055674519,-0.008728181444631711
-0.005446172055674519,-0.008004083174031458
-0.005445832055674519,-0.006555886632830944
-0.005445492055674519,-0.004679813840818794
-0.005445152055674519,-0.003363271530638905
-0.005444812055674519,-0.002112556335965736
-0.005444472055674518,-0.001223890276592392
-0.005444132055674519,-0.001059322487819907
-0.005443792055674519,-0.001190976718838135
-0.005443452055674518,-0.0008618411412923834
-0.005443112055674519,-0.0007631004680288926
-0.005442772055674519,-0.001322630949856365
-0.005442432055674518,-0.002277124124739598
-0.005442092055674519,-0.002869568164320546
-0.005441752055674519,-0.003593666434920803
-0.005441412055674518,-0.003922802012466375
-0.005441072055674519,-0.003922802012466375
-0.005440732055674519,-0.003462012203902576
-0.005440392055674518,-0.003099963068600352
-0.005440052055674519,-0.001947988547192948
-0.005439712055674519,-0.001322630949856365
-0.005439372055674518,0.0001584791491009203
-0.005439032055674519,0.001376280786017318
-0.005438692055674519,0.002330773960899476
-0.005438352055674518,0.002594082422936469
-0.005438012055674519,0.002890304442726945
-0.005437672055674519,0.002857390884972388
-0.005437332055674518,0.002989045115990436
-0.005436992055674519,0.002890304442726945
-0.005436652055674519,0.003021958673745176
-0.005436312055674519,0.002857390884972688
-0.005435972055674519,0.002824477327217832
-0.005435632055674519,0.002462428191917703
-0.005435292055674519,0.002297860403145218
-0.005434952055674519,0.002133292614372131
-0.005434612055674519,0.002264946845390362
-0.005434272055674519,0.001014231650719464
-0.005433932055674519,0.00045470116888972
-0.005433592055674519,0.0003888740533806063
-0.005433252055674519,0.0007180096309255793
-0.005432912055674519,0.001178799439489977
-0.005432572055674519,0.001968724825599347
-0.005432232055674519,0.002495341749671302
-0.005431892055674519,0.002528255307426817
-0.005431552055674519,0.00249534174967226
-0.005431212055674519,0.002528255307426757
-0.005430872055674519,0.00328526713578163
-0.005430532055674519,0.00387771117536366
-0.005430192055674519,0.003976451848627151
-0.005429852055674519,0.004733463676982144
-0.005429512055674519,0.005325907716564172
-0.005429172055674519,0.005457561947582162
-0.005428832055674519,0.005720870409618857
-0.005428492055674519,0.005292994158809615
-0.005428152055674519,0.005029685696773636
-0.005427812055674519,0.004930945023509487
-0.005427472055674519,0.004766377234736701
-0.005427132055674519,0.004733463676982144
-0.005426792055674519,0.004338500983927459
-0.005426452055674519,0.005029685696773157
-0.005426112055674519,0.006247487333691772
-0.005425772055674519,0.006313314449200885
-0.005425432055674519,0.006708277142255571
-0.005425092055674519,0.006905758488782913
-0.005424752055674519,0.006807017815519241
-0.005424412055674519,0.006477882237973671
-0.005424072055674519,0.005720870409618857
-0.005423732055674518,0.004568895888207742
-0.005423392055674519,0.003680229828836316
-0.005423052055674519,0.003416921366799861
-0.005422712055674518,0.003449834924556154
-0.005422372055674519,0.004404328099436573
-0.005422032055674519,0.0049967721390186
-0.005421692055674518,0.005358821274319208
-0.005421352055674519,0.005622129736355185
-0.005421012055674519,0.006214573775937213
-0.005420672055674518,0.006346228006955322
-0.005420332055674519,0.006280400891446328
-0.005419992055674519,0.006214573775937213
-0.005419652055674518,0.005786697525127732
-0.005419312055674519,0.005655043294109744
-0.005418972055674519,0.005786697525127971
-0.005418632055674518,0.006280400891447106
-0.005418292055674519,0.006708277142255571
-0.005417952055674519,0.006807017815519241
-0.005417612055674518,0.006741190700009768
-0.005417272055674519,0.006543709353482785
-0.005416932055674519,0.006247487333691772
-0.005416592055674518,0.005852524640636009
-0.005416252055674519,0.005260080601055058
-0.005415912055674519,0.005655043294109744
-0.005415572055674518,0.006247487333691353
-0.005415232055674519,0.00601709242940987
