Analysis/New Tests_CMB/wrd01_d2s01/cmb10_ch00.csv

#Digilent WaveForms Oscilloscope Acquisition
#Device Name: ADP3450
#Serial Number: SN:210018B9D9B0
#Date Time: 2024-08-07 11:39:42.694.116.170
#Sample rate: 2.94118e+06Hz
#Samples: 32768
#Trigger: Source: Channel 3 Type: Edge Condition: Rising Level: 0 V Hyst.: Auto HoldOff: 0 s
#Channel 3: Range: 200 mV/div Offset: 0 V Attenuation: 1 X Coupling: DC Bandwidth: 0 Hz Sample Mode: Average

Time (s),Channel 3 (V)
-0.005570312727272727,0.003676332771346642
-0.005569972727272727,0.003050975174009997
-0.005569632727272727,0.0030180616162555
-0.005569292727272727,0.003709246329101199
-0.005568952727272727,0.005025788639285758
-0.005568612727272727,0.006276503833956653
-0.005568272727272727,0.007461391913120709
-0.005567932727272727,0.008448798645757542
-0.005567592727272727,0.008514625761266537
-0.005567252727272727,0.008909588454321223
-0.005566912727272727,0.009008329127585313
-0.005566572727272727,0.009238724031866792
-0.005566232727272727,0.00881084778105755
-0.005565892727272727,0.008679193550038423
-0.005565552727272727,0.008185490183720966
-0.005565212727272727,0.007691786817402609
-0.005564872727272727,0.007362651239856619
-0.005564532727272727,0.007132256335575138
-0.005564192727272727,0.007395564797611595
-0.005563852727272727,0.007922181721687023
-0.005563512727272727,0.009304551147375908
-0.005563172727272727,0.01062109345755819
-0.005562832727272727,0.01177306797896559
-0.005562492727272727,0.0116085001901949
-0.005562152727272727,0.01121353749714022
-0.005561812727272727,0.01068692057306826
-0.005561472727272727,0.00983116807144882
-0.005561132727272727,0.01032487143776718
-0.005560792727272727,0.01532773221645076
-0.005560452727272727,0.02697913166157307
-0.005560112727272727,0.04666143919879823
-0.005559772727272727,0.07397969213503093
-0.005559432727272727,0.1069590770051468
-0.005559092727272727,0.1423082380335412
-0.005558752727272727,0.1763737703094458
-0.005558412727272727,0.2065884163281912
-0.005558072727272727,0.2314052388751273
-0.005557732727272727,0.2492443871780648
-0.005557392727272727,0.2603362561413829
-0.005557052727272727,0.2655695118243576
-0.005556712727272727,0.2661619558639385
-0.005556372727272727,0.2639567474943842
-0.005556032727272727,0.2589538867156916
-0.005555692727272727,0.2523382616070377
-0.005555352727272727,0.2446364890924592
-0.005555012727272727,0.2364410132115745
-0.005554672727272727,0.2285746729082497
-0.005554332727272727,0.2203133699118415
-0.005553992727272727,0.2130065600903298
-0.005553652727272727,0.2052389604602544
-0.005553312727272727,0.1974055337146698
-0.005552972727272727,0.1908228221637583
-0.005552632727272727,0.1836147530155103
-0.005552292727272727,0.1765383380982806
-0.005551952727272727,0.1700872807783874
-0.005551612727272727,0.1640640997093034
-0.005551272727272727,0.1579421779669453
-0.005550932727272727,0.1521493918021538
-0.005550592727272727,0.1466857412148973
-0.005550252727272727,0.1418474482249686
-0.005549912727272727,0.137042068792812
-0.005549572727272727,0.132730392726965
-0.005549232727272727,0.127925013294791
-0.005548892727272727,0.1231196338626344
-0.005548552727272727,0.1186763035657692
-0.005548212727272727,0.1140025783646139
-0.005547872727272727,0.1094934209522477
-0.005547532727272727,0.1048855228666097
-0.005547192727272727,0.1003763654542295
-0.005546852727272727,0.09711792323653426
-0.005546512727272727,0.09504436909799718
-0.005546172727272727,0.09310246919047464
-0.005545832727272727,0.09109474216745031
-0.005545492727272727,0.08872496600912222
-0.005545152727272727,0.0858944000422249
-0.005544812727272727,0.08293217984432016
-0.005544472727272727,0.07947625628009167
-0.005544132727272727,0.07664569031319401
-0.005543792727272727,0.07348598876876228
-0.005543452727272727,0.0706883363596249
-0.005543112727272727,0.06766028904620028
-0.005542772727272727,0.06469806884829551
-0.005542432727272727,0.06229537913221285
-0.005542092727272727,0.05972812162736207
-0.005541752727272727,0.05732543191127473
-0.005541412727272727,0.05567975402354687
-0.005541072727272727,0.05354037276950455
-0.005540732727272727,0.05159847286198179
-0.005540392727272727,0.04926161026140823
-0.005540052727272727,0.04741845102715639
-0.005539712727272727,0.04613482227472531
-0.005539372727272727,0.04452205794475201
-0.005539032727272727,0.04399544102068006
-0.005538692727272727,0.0435346512121153
-0.005538352727272727,0.04320551563456973
-0.005538012727272727,0.04218519534418031
-0.005537672727272727,0.04060534457195972
-0.005537332727272727,0.03886092601096819
-0.005536992727272727,0.03695193966120735
-0.005536652727272727,0.03540500244673969
-0.005536312727272727,0.03451633638736665
-0.005535972727272727,0.0339568059055402
-0.005535632727272727,0.03372641100125728
-0.005535292727272727,0.03234404157556588
-0.005534952727272727,0.03102749926538599
-0.005534612727272727,0.02915142647337384
-0.005534272727272727,0.02790071127870067
-0.005533932727272727,0.02711078589259274
-0.005533592727272727,0.02691330454606396
-0.005533252727272727,0.02714369945034586
-0.005532912727272727,0.02658416896851839
-0.005532572727272727,0.02556384867812712
-0.005532232727272727,0.0250372317540542
-0.005531892727272727,0.02391817079039926
-0.005531552727272727,0.02253580136470787
-0.005531212727272727,0.02194335732512584
-0.005530872727272727,0.0217458759785985
-0.005530532727272727,0.02095595059248912
-0.005530192727272727,0.02049516078392532
-0.005529852727272727,0.01973814895557051
-0.005529512727272727,0.01855326087640502
-0.005529172727272727,0.01776333549029708
-0.005528832727272727,0.01694049654643316
-0.005528492727272727,0.01608474404481395
-0.005528152727272727,0.01568978135175999
-0.005527812727272727,0.01545938644747809
-0.005527472727272727,0.016183484718079
-0.005527132727272727,0.01654553385337847
-0.005526792727272727,0.0171379778929605
-0.005526452727272727,0.0173025456817331
-0.005526112727272727,0.01720380500846961
-0.005525772727272727,0.0171379778929605
-0.005525432727272727,0.01720380500847003
-0.005525092727272727,0.01743419991275151
-0.005524752727272727,0.01773042193254253
-0.005524412727272727,0.01756585414376932
-0.005524072727272727,0.01733545923948784
-0.005523732727272727,0.01697341010418771
-0.005523392727272727,0.01631513894909514
-0.005523052727272727,0.0155252135629872
-0.005522712727272727,0.01493276952340517
-0.005522372727272727,0.01332000519342786
-0.005522032727272727,0.01111479682387655
-0.005521692727272727,0.009074156243094007
-0.005521352727272727,0.007691786817402549
-0.005521012727272727,0.007658873259648051
-0.005520672727272727,0.008975415569830336
-0.005520332727272727,0.01045652566878271
-0.005519992727272727,0.01239842557630427
-0.005519652727272727,0.0139124492330139
-0.005519312727272727,0.01447197971484035
-0.005518972727272727,0.01364914077097745
-0.005518632727272727,0.01279338826935896
-0.005518292727272727,0.01137810528591558
-0.005517952727272727,0.01019321720674895
-0.005517612727272727,0.009633686724921478
-0.005517272727272727,0.008679193550041058
-0.005516932727272727,0.007988008837193623
-0.005516592727272727,0.008185490183720966
-0.005516252727272727,0.008448798645756943
-0.005515912727272727,0.009271637589621349
-0.005515572727272727,0.01062109345755819
-0.005515232727272727,0.01157558663243861
-0.005514892727272727,0.0118388950944768
-0.005514552727272727,0.01213511711426782
-0.005514212727272727,0.01213511711426782
-0.005513872727272727,0.01170724086345858
-0.005513532727272727,0.01111479682387655
-0.005513192727272727,0.01035778499552311
-0.005512852727272727,0.009107069800848565
-0.005512512727272727,0.008152576625966409
-0.005512172727272727,0.007132256335575138
-0.005511832727272727,0.00630941739171121
-0.005511492727272727,0.005651146236620068
-0.005511152727272727,0.005552405563356397
-0.005510812727272727,0.005420751332338168
-0.005510472727272727,0.005782800467638296
-0.005510132727272727,0.006638552969256781
-0.005509792727272727,0.006868947873538681
-0.005509452727272727,0.006671466527011338
-0.005509112727272727,0.006276503833956653
-0.005508772727272727,0.00653981229599329
-0.005508432727272727,0.006638552969256781
-0.005508092727272727,0.006868947873538681
-0.005507752727272727,0.007066429220066921
-0.005507412727272727,0.00756013258638438
-0.005507072727272727,0.007395564797611595
-0.005506732727272727,0.007000602104556611
-0.005506392727272727,0.006836034315784124
-0.005506052727272727,0.006868947873538681
-0.005505712727272727,0.007230997008839288
-0.005505372727272727,0.007494305470875266
-0.005505032727272727,0.007955095279439066
-0.005504692727272727,0.008415885088002565
-0.005504352727272727,0.008251317299230079
-0.005504012727272727,0.007889268163929951
-0.005503672727272727,0.007296824124346606
-0.005503332727272727,0.006572725853747667
-0.005502992727272727,0.005453664890092726
-0.005502652727272727,0.004762480177246727
-0.005502312727272727,0.004597912388474241
-0.005501972727272727,0.004433344599701455
-0.005501632727272727,0.004795393735002541
-0.005501292727272727,0.005322010659074497
-0.005500952727272727,0.005815714025392853
-0.005500612727272727,0.00627650383395821
-0.005500272727272727,0.007132256335575138
-0.005499932727272727,0.007165169893329695
-0.005499592727272727,0.007395564797611176
-0.005499252727272727,0.007625959701893495
-0.005498912727272727,0.007724700375157166
-0.005498572727272727,0.007922181721684149
-0.005498232727272727,0.008185490183720966
-0.005497892727272727,0.007889268163929951
-0.005497552727272727,0.007296824124349002
-0.005497212727272727,0.006473985180483996
-0.005496872727272727,0.006013195371920196
-0.005496532727272727,0.006046108929674694
-0.005496192727272727,0.005716973352129182
-0.005495852727272727,0.006210676718447538
-0.005495512727272727,0.006638552969256003
-0.005495172727272727,0.006177763160692982
-0.005494832727272727,0.005914454698656525
-0.005494492727272727,0.005387837774584569
-0.005494152727272727,0.005552405563356397
-0.005493812727272727,0.00607902248742931
-0.005493472727272727,0.006836034315782747
-0.005493132727272727,0.007461391913120709
-0.005492792727272727,0.008185490183720966
-0.005492452727272727,0.008580452876774933
-0.005492112727272727,0.008646279992284765
-0.005491772727272727,0.008185490183720966
-0.005491432727272727,0.007658873259649009
-0.005491092727272727,0.007494305470875266
-0.005490752727272727,0.007099342777820581
-0.005490412727272727,0.006473985180483996
-0.005490072727272727,0.006605639411502225
-0.005489732727272727,0.006506898738238553
-0.005489392727272727,0.00653981229599311
-0.005489052727272727,0.006144849602938425
-0.005488712727272727,0.005848627583147411
-0.005488372727272727,0.005519492005601839
-0.005488032727272727,0.00551949200560172
-0.005487692727272727,0.005453664890092726
-0.005487352727272727,0.005881541140901968
-0.005487012727272727,0.005322010659074676
-0.005486672727272727,0.005420751332338168
-0.005486332727272727,0.005256183543565383
-0.005485992727272727,0.005486578447847642
-0.005485652727272727,0.005684059794374625
-0.005485312727272727,0.005322010659074497
-0.005484972727272727,0.005025788639284321
-0.005484632727272727,0.005486578447847282
-0.005484292727272727,0.006276503833956653
-0.005483952727272727,0.006704380084766614
-0.005483612727272727,0.007099342777820581
-0.005483272727272727,0.007691786817402609
-0.005482932727272727,0.007823441048420239
-0.005482592727272727,0.007494305470875266
-0.005482252727272727,0.007132256335575138
-0.005481912727272727,0.00657272585374665
-0.005481572727272727,0.006013195371920196
-0.005481232727272727,0.005782800467638296
-0.005480892727272727,0.005387837774582054
-0.005480552727272727,0.004532085272965126
-0.005480212727272727,0.004597912388474241
-0.005479872727272727,0.004696653061737732
-0.005479532727272727,0.004597912388474241
-0.005479192727272727,0.004499171715210569
-0.005478852727272727,0.004499171715210569
-0.005478512727272727,0.004466258157456012
-0.005478172727272727,0.004235863253174112
-0.005477832727272727,0.003939641233383637
-0.005477492727272727,0.004170036137664999
-0.005477152727272727,0.004104209022155884
-0.005476812727272727,0.004729566619491331
-0.005476472727272727,0.005552405563356397
-0.005476132727272727,0.005947368256411082
-0.005475792727272727,0.006177763160692563
-0.005475452727272727,0.006506898738238553
-0.005475112727272727,0.007461391913120709
-0.005474772727272727,0.008481712203510123
-0.005474432727272727,0.009074156243094007
-0.005474092727272727,0.00950203249390325
-0.005473752727272727,0.009896995186957218
-0.005473412727272727,0.009469118936148692
-0.005473072727272727,0.009567859609412364
-0.005472732727272727,0.009041242685340407
-0.005472392727272727,0.008284230856984636
-0.005472052727272727,0.007494305470875266
-0.005471712727272727,0.006901861431294317
-0.005471372727272727,0.005420751332338168
-0.005471032727272727,0.004861220850510698
-0.005470692727272727,0.004268776810929747
-0.005470352727272727,0.00403838190664677
-0.005470012727272727,0.004202949695419555
-0.005469672727272727,0.005354924216829054
-0.005469332727272727,0.006276503833956653
-0.005468992727272727,0.006803120758029567
-0.005468652727272727,0.007823441048420837
-0.005468312727272727,0.008514625761266537
-0.005467972727272727,0.008679193550039321
-0.005467632727272727,0.008547539319021094
-0.005467292727272727,0.008086749510457293
-0.005466952727272727,0.007461391913120709
-0.005466612727272727,0.006605639411502225
-0.005466272727272727,0.005618232678863116
-0.005465932727272727,0.004301690368683227
-0.005465592727272727,0.003083888731764614
-0.005465252727272727,0.001899000652598343
-0.005464912727272727,0.0006811990156819448
-0.005464572727272727,-4.289925491831147e-05
-0.005464232727272727,0.0005824583424195906
-0.005463892727272727,0.00130655661301853
-0.005463552727272727,0.003083888731764614
-0.005463212727272727,0.004828307292757697
-0.005462872727272727,0.005684059794374625
-0.005462532727272727,0.006506898738238553
-0.005462192727272727,0.006967688546802292
-0.005461852727272727,0.006934774989047795
-0.005461512727272727,0.00811966306821185
-0.005461172727272727,0.009205810474114151
-0.005460832727272727,0.01025904432225806
-0.005460492727272727,0.01045652566878541
-0.005460152727272727,0.01062109345755675
-0.005459812727272727,0.00983116807144882
-0.005459472727272727,0.008876674896566664
-0.005459132727272727,0.00762595970189098
-0.005458792727272727,0.006243590276202096
-0.005458452727272727,0.005354924216829054
-0.005458112727272727,0.004104209022155166
-0.005457772727272727,0.003709246329101199
-0.005457432727272727,0.003610505655837527
-0.005457092727272727,0.003544678540328533
-0.005456752727272727,0.003215542962782842
-0.005456412727272727,0.003281370078291956
-0.005456072727272727,0.003939641233381901
-0.005455732727272727,0.004663739503983355
-0.005455392727272727,0.005256183543565383
-0.005455052727272727,0.005947368256409825
-0.005454712727272727,0.007132256335575138
-0.005454372727272727,0.008547539319021094
-0.005454032727272727,0.009436205378392518
-0.005453692727272727,0.01032487143776718
-0.005453352727272727,0.01048943922653996
-0.005453012727272727,0.01098314259285742
-0.005452672727272727,0.01124645105489478
-0.005452332727272727,0.01045652566878541
-0.005451992727272727,0.009864081629204454
-0.005451652727272727,0.008942502012075779
-0.005451312727272727,0.007922181721684508
-0.005450972727272727,0.007230997008840067
-0.005450632727272727,0.006506898738238553
-0.005450292727272727,0.006276503833956653
-0.005449952727272727,0.006111936045184166
-0.005449612727272727,0.00653981229599311
-0.005449272727272727,0.006868947873538681
-0.005448932727272727,0.007593046144137621
-0.005448592727272727,0.00811966306821185
-0.005448252727272727,0.00802092239494818
-0.005447912727272727,0.007889268163929951
-0.005447572727272727,0.007428478355366152
-0.005447232727272727,0.006934774989047795
-0.005446892727272727,0.006737293642520453
-0.005446552727272727,0.006473985180483996
-0.005446212727272727,0.006342330949465767
-0.005445872727272727,0.006704380084765896
-0.005445532727272727,0.006803120758028729
-0.005445192727272727,0.006342330949465767
-0.005444852727272727,0.005519492005601839
-0.005444512727272727,0.004927047966018494
-0.005444172727272727,0.004202949695419555
-0.005443832727272727,0.004104209022155884
-0.005443492727272727,0.003873814117875421
-0.005443152727272727,0.004663739503983355
-0.005442812727272727,0.005651146236620068
-0.005442472727272727,0.006572725853749463
-0.005442132727272727,0.00756013258638438
-0.005441792727272727,0.007757613932911723
-0.005441452727272727,0.007823441048421018
-0.005441112727272727,0.007922181721684508
-0.005440772727272727,0.008251317299230079
-0.005440432727272727,0.007856354606175514
-0.005440092727272727,0.007922181721684508
-0.005439752727272727,0.008053835952702737
-0.005439412727272727,0.0069676885467984
-0.005439072727272727,0.004795393735001583
-0.005438732727272727,-0.00142526868060971
-0.005438392727272727,-0.01462360534022573
-0.005438052727272727,-0.03585285009187644
-0.005437712727272727,-0.06405976908753189
-0.005437372727272727,-0.09717080818867783
-0.005437032727272727,-0.1309730320025465
-0.005436692727272727,-0.1627675287934487
-0.005436352727272727,-0.1905794850959988
-0.005436012727272727,-0.2115454213857023
-0.005435672727272727,-0.2264223494907621
-0.005435332727272727,-0.2358685405663028
-0.005434992727272727,-0.240476438651958
-0.005434652727272727,-0.2408055742295035
-0.005434312727272727,-0.2386661929754612
-0.005433972727272727,-0.2342886897941013
-0.005433632727272727,-0.22806802737849
-0.005433292727272727,-0.2214194887120815
-0.005432952727272727,-0.2135202348509757
-0.005432612727272727,-0.2055222403166183
-0.005432272727272727,-0.197952122033084
-0.005431932727272727,-0.1905794850960494
-0.005431592727272727,-0.1829106261392376
-0.005431252727272727,-0.1753075942979487
-0.005430912727272727,-0.1683628336117234
-0.005430572727272727,-0.1619776034073393
-0.005430232727272727,-0.1562506443580567
-0.005429892727272727,-0.1506553395397716
-0.005429552727272727,-0.1463107499161701
-0.005429212727272727,-0.1419661602925765
-0.005428872727272727,-0.1374899164379488
-0.005428532727272727,-0.1340339928737203
-0.005428192727272727,-0.1299197981544082
-0.005427852727272727,-0.1253119000687627
-0.005427512727272727,-0.1203748664055791
-0.005427172727272727,-0.1144833395675134
-0.005426832727272727,-0.109085516095766
-0.005426492727272727,-0.1043130502213552
-0.005426152727272727,-0.09983680636673545
-0.005425812727272727,-0.0958871794361886
-0.005425472727272727,-0.09200337962115088
-0.005425132727272727,-0.0882183204793768
-0.005424792727272727,-0.0842357799910754
-0.005424452727272727,-0.08084568354235602
-0.005424112727272727,-0.07702771084282739
-0.005423772727272727,-0.07340721948982022
-0.005423432727272727,-0.07018169082987952
-0.005423092727272727,-0.06731821130523305
-0.005422752727272727,-0.06425725043405557
-0.005422412727272727,-0.06224952341103124
-0.005422072727272727,-0.0604392777345306
-0.005421732727272727,-0.05876068628904597
-0.005421392727272727,-0.05754288465212958
-0.005421052727272727,-0.05596303387991083
-0.005420712727272727,-0.05428444243442573
-0.005420372727272727,-0.05280333233547335
-0.005420032727272727,-0.05125639512100917
-0.005419692727272727,-0.04885370540492243
-0.005419352727272727,-0.04661558347761662
-0.005419012727272727,-0.04467368357009775
-0.005418672727272727,-0.04220516673850178
-0.005418332727272727,-0.03990121769568697
-0.005417992727272727,-0.03805805846143177
-0.005417652727272727,-0.03687317038226622
-0.005417312727272727,-0.03605033143840378
-0.005416972727272727,-0.03479961624373062
-0.005416632727272727,-0.03328559258701686
-0.005416292727272727,-0.03101455710195655
-0.005415952727272727,-0.02887517584791034
-0.005415612727272727,-0.02637374545855867
-0.005415272727272727,-0.02344443881840842
-0.005414932727272727,-0.02091009487130752
-0.005414592727272727,-0.01880362717501969
-0.005414252727272727,-0.01679590015198788
-0.005413912727272727,-0.01547935784180559
