Analysis/New Tests_CMB/wrd01_d2s01/cmb14_ch13.csv

#Digilent WaveForms Oscilloscope Acquisition
#Device Name: ADP3450
#Serial Number: SN:210018B9D9B0
#Date Time: 2024-08-06 17:23:40.786.463.810
#Sample rate: 2.94118e+06Hz
#Samples: 32768
#Trigger: Source: Channel 3 Type: Edge Condition: Rising Level: 60 mV Hyst.: Auto HoldOff: 0 s
#Channel 3: Range: 200 mV/div Offset: -20 mV Attenuation: 1 X Coupling: DC Bandwidth: 0 Hz Sample Mode: Average

Time (s),Channel 3 (V)
-0.005570412666666667,0.0290894964153544
-0.005570072666666667,0.02879327439556285
-0.005569732666666667,0.02849705237577237
-0.005569392666666667,0.02777295410517212
-0.005569052666666667,0.02714759650783476
-0.005568712666666667,0.02671972025702629
-0.005568372666666667,0.02592979487091692
-0.005568032666666667,0.02425120342543164
-0.005567692666666667,0.02267135265321577
-0.005567352666666667,0.02122315611201525
-0.005567012666666667,0.02036740361039509
-0.005566672666666667,0.01944582399326917
-0.005566332666666667,0.01868881216491436
-0.005565992666666667,0.01845841726063294
-0.005565652666666667,0.01872172572266892
-0.005565312666666667,0.01878755283817803
-0.005564972666666667,0.01862298504940428
-0.005564632666666667,0.01809636812533233
-0.005564292666666667,0.01793180033655955
-0.005563952666666667,0.01776723254778532
-0.005563612666666667,0.01697730716167739
-0.005563272666666667,0.0161215546600589
-0.005562932666666668,0.01552911062047795
-0.005562592666666667,0.01552911062047688
-0.005562252666666667,0.01605572754454979
-0.005561912666666668,0.01618738177556778
-0.005561572666666667,0.01684565293065916
-0.005561232666666667,0.01717478850820473
-0.005560892666666668,0.01789888677880367
-0.005560552666666667,0.01882046639593259
-0.005560212666666667,0.0195774782242874
-0.005559872666666668,0.0195774782242874
-0.005559532666666667,0.01924834264674183
-0.005559192666666667,0.01878755283817803
-0.005558852666666668,0.01803054100982459
-0.005558512666666667,0.01661525802637726
-0.005558172666666667,0.01562785129374055
-0.005557832666666668,0.0150024936964051
-0.005557492666666667,0.01447587677233105
-0.005557152666666667,0.01408091407927636
-0.005556812666666668,0.01447587677233033
-0.005556472666666667,0.0154303699472132
-0.005556132666666667,0.0161215546600589
-0.005555792666666668,0.01714187495044832
-0.005555452666666667,0.0175039240857503
-0.005555112666666667,0.01760266475901397
-0.005554772666666668,0.01704313427718752
-0.005554432666666667,0.01605572754454979
-0.005554092666666667,0.01500249369640396
-0.005553752666666668,0.01385051917499446
-0.005553412666666667,0.01329098869316699
-0.005553072666666667,0.01240232263379395
-0.005552732666666668,0.01164531080543914
-0.005552392666666667,0.01141491590115724
-0.005552052666666667,0.01092121253483888
-0.005551712666666667,0.01078955830382065
-0.005551372666666667,0.01121743455463055
-0.005551032666666667,0.01157948368993002
-0.005550692666666667,0.01253397686481218
-0.005550352666666667,0.01371886494397767
-0.005550012666666667,0.01450879033008561
-0.005549672666666667,0.01526580215844042
-0.005549332666666667,0.01579241908251279
-0.005548992666666667,0.01549619706272232
-0.005548652666666667,0.01503540725415852
-0.005548312666666667,0.01464044456110257
-0.005547972666666667,0.01394925984825813
-0.005547632666666667,0.01279728532684864
-0.005547292666666667,0.01184279215196486
-0.005546952666666667,0.01095412609259344
-0.005546612666666667,0.009999632917711282
-0.005546272666666667,0.009966719359957623
-0.005545932666666667,0.01046042272627508
-0.005545592666666667,0.01125034811238445
-0.005545252666666667,0.01315933446215044
-0.005544912666666667,0.01408091407927636
-0.005544572666666667,0.01454170388784016
-0.005544232666666667,0.01431130898355689
-0.005543892666666667,0.01355429715520345
-0.005543552666666667,0.01276437176909408
-0.005543212666666667,0.01253397686481236
-0.005542872666666667,0.01263271753807585
-0.005542532666666667,0.01246814974930307
-0.005542192666666668,0.01240232263379407
-0.005541852666666667,0.01213901417175749
-0.005541512666666667,0.01138200234340268
-0.005541172666666668,0.0099338058022048
-0.005540832666666667,0.008551436376510768
-0.005540492666666667,0.007103239835310256
-0.005540152666666668,0.006379141564711316
-0.005539812666666667,0.0068399313732738
-0.005539472666666667,0.007498202528364941
-0.005539132666666668,0.008518522818754355
-0.005538792666666667,0.009505929551392924
-0.005538452666666667,0.01065790407280242
-0.005538112666666668,0.01157948368992835
-0.005537772666666667,0.01269854465358496
-0.005537432666666667,0.01398217340601269
-0.005537092666666668,0.01490375302313861
-0.005536752666666667,0.01523288860068586
-0.005536412666666667,0.01585824619802245
-0.005536072666666668,0.01615446821781292
-0.005535732666666667,0.01625320889107713
-0.005535392666666667,0.01579241908251333
-0.005535052666666668,0.01510123436966889
-0.005534712666666667,0.01388343273274902
-0.005534372666666667,0.01309350734663965
-0.005534032666666668,0.01227066840277722
-0.005533692666666667,0.01174405147870281
-0.005533352666666667,0.01213901417175749
-0.005533012666666668,0.01154657013217547
-0.005532672666666667,0.01217192772951205
-0.005532332666666667,0.01279728532684864
-0.005531992666666668,0.01306059378888509
-0.005531652666666667,0.01315933446214876
-0.005531312666666667,0.01283019888460319
-0.005530972666666668,0.01289602600011231
-0.005530632666666667,0.01259980398032129
-0.005530292666666667,0.01220484128726661
-0.005529952666666667,0.01240232263379395
-0.005529612666666667,0.01217192772951313
-0.005529272666666667,0.01276437176909408
-0.005528932666666667,0.01273145821133952
-0.005528592666666667,0.01348847003969553
-0.005528252666666667,0.01414674119478548
-0.005527912666666667,0.01411382763703092
-0.005527572666666667,0.01375177850173109
-0.005527232666666667,0.01391634629050358
-0.005526892666666667,0.01319224801990332
-0.005526552666666667,0.01246814974930181
-0.005526212666666667,0.01177696503645737
-0.005525872666666667,0.01072373118831154
-0.005525532666666667,0.009538843109145087
-0.005525192666666667,0.008222300798965198
-0.005524852666666667,0.007366548297346712
-0.005524512666666667,0.006379141564710956
-0.005524172666666667,0.006905758488782913
-0.005523832666666667,0.007893165221419626
-0.005523492666666667,0.009143880416096269
-0.005523152666666667,0.01105286676585711
-0.005522812666666667,0.01266563109583041
-0.005522472666666667,0.01437713609906983
-0.005522132666666667,0.01572659196700422
-0.005521792666666667,0.0165823444686227
-0.005521452666666667,0.01684565293065952
-0.005521112666666667,0.0170431342771865
-0.005520772666666667,0.01628612244883169
-0.005520432666666668,0.01562785129374174
-0.005520092666666667,0.01510123436966763
-0.005519752666666667,0.01421256831029459
-0.005519412666666668,0.01362012427071364
-0.005519072666666667,0.01266563109583041
-0.005518732666666667,0.01210610061400294
-0.005518392666666668,0.01115160743912252
-0.005518052666666667,0.01101995320810255
-0.005517712666666667,0.0107566447460661
-0.005517372666666668,0.01029585493750313
-0.005517032666666667,0.00957175666690204
-0.005516692666666667,0.009473015993638367
-0.005516352666666668,0.009966719359955826
-0.005516012666666667,0.009867978686693053
-0.005515672666666667,0.01069081763055698
-0.005515332666666668,0.01105286676585645
-0.005514992666666667,0.01184279215196648
-0.005514652666666667,0.01250106330705762
-0.005514312666666668,0.01243523619154863
-0.005513972666666667,0.01263271753807585
-0.005513632666666667,0.01220484128726661
-0.005513292666666668,0.01194153282523063
-0.005512952666666667,0.01154657013217547
-0.005512612666666667,0.01148074301666635
-0.005512272666666668,0.01230358196053028
-0.005511932666666667,0.01319224801990332
-0.005511592666666667,0.01352138359744889
-0.005511252666666668,0.01447587677233105
-0.005510912666666667,0.01523288860068586
-0.005510572666666667,0.01549619706272232
-0.005510232666666668,0.0154303699472132
-0.005509892666666667,0.01536454283170409
-0.005509552666666667,0.01546328350496776
-0.005509212666666667,0.01536454283170409
-0.005508872666666667,0.01526580215843946
-0.005508532666666667,0.0147391852343675
-0.005508192666666667,0.01444296321457649
-0.005507852666666667,0.01460753100334748
-0.005507512666666667,0.01362012427071256
-0.005507172666666667,0.01342264292418522
-0.005506832666666667,0.01345555648193936
-0.005506492666666667,0.01322516157765788
-0.005506152666666667,0.01309350734663965
-0.005505812666666667,0.0121061006140021
-0.005505472666666667,0.01164531080543914
-0.005505132666666667,0.01128326167013901
-0.005504792666666667,0.01148074301666761
-0.005504452666666667,0.01217192772951205
-0.005504112666666667,0.01302768023113053
-0.005503772666666667,0.01398217340601377
-0.005503432666666667,0.01457461744559472
-0.005503092666666667,0.01467335811885839
-0.005502752666666667,0.0137188649439754
-0.005502412666666667,0.01325807513541244
-0.005502072666666667,0.01207318705624838
-0.005501732666666667,0.01105286676585579
-0.005501392666666667,0.01032876849525685
-0.005501052666666667,0.009769238013429382
-0.005500712666666667,0.009802151571184178
-0.005500372666666667,0.009933805802202166
-0.005500032666666667,0.01055916339953875
-0.005499692666666668,0.0112174345546287
-0.005499352666666667,0.01197444638298471
-0.005499012666666667,0.01220484128726661
-0.005498672666666668,0.0123035819605301
-0.005498332666666667,0.01263271753807585
-0.005497992666666667,0.01227066840277572
-0.005497652666666668,0.01230358196053022
-0.005497312666666667,0.01213901417175749
-0.005496972666666667,0.01177696503645737
-0.005496632666666668,0.01177696503645737
-0.005496292666666667,0.01069081763055698
-0.005495952666666667,0.01062499051504787
-0.005495612666666668,0.01078955830382035
-0.005495272666666667,0.01134908878564812
-0.005494932666666667,0.01197444638298471
-0.005494592666666668,0.01230358196052968
-0.005494252666666667,0.01250106330705762
-0.005493912666666667,0.01273145821133952
-0.005493572666666668,0.01312642090439349
-0.005493232666666667,0.01322516157765788
-0.005492892666666667,0.01342264292418522
-0.005492552666666668,0.01286311244235877
-0.005492212666666667,0.01204027349849382
-0.005491872666666667,0.01207318705624838
-0.005491532666666668,0.01253397686481134
-0.005491192666666667,0.01223775484502116
-0.005490852666666667,0.01174405147870281
-0.005490512666666668,0.01125034811238445
-0.005490172666666667,0.01115160743912078
-0.005489832666666667,0.01023002782199318
-0.005489492666666668,0.009966719359956725
-0.005489152666666667,0.009736324455674824
-0.005488812666666667,0.009966719359956725
-0.005488472666666667,0.009835065128938496
-0.005488132666666667,0.0103945956107674
-0.005487792666666667,0.01118452099687534
-0.005487452666666667,0.01213901417175749
-0.005487112666666667,0.01269854465358628
-0.005486772666666667,0.01342264292418522
-0.005486432666666667,0.01375177850173079
-0.005486092666666667,0.01365303782846586
-0.005485752666666667,0.01296185311562142
-0.005485412666666667,0.01325807513541244
-0.005485072666666667,0.0141138276370284
-0.005484732666666667,0.01273145821133952
-0.005484392666666667,0.01338972936643066
-0.005484052666666667,0.01283019888460289
-0.005483712666666667,0.01266563109583041
-0.005483372666666667,0.01194153282523015
-0.005483032666666667,0.01131617522789225
-0.005482692666666667,0.01059207695729331
-0.005482352666666667,0.01032876849525685
-0.005482012666666667,0.01029585493750187
-0.005481672666666667,0.0100654600332204
-0.005481332666666667,0.009275534647111025
-0.005480992666666667,0.009933805802202106
-0.005480652666666667,0.009900892244447609
-0.005480312666666667,0.01003254647546584
-0.005479972666666667,0.01055916339954013
-0.005479632666666667,0.01131617522789356
-0.005479292666666667,0.01207318705624838
-0.005478952666666668,0.01092121253484097
-0.005478612666666667,0.005819611082882528
-0.005478272666666667,-0.006259664613039929
-0.005477932666666668,-0.02594197215022928
-0.005477592666666667,-0.05309565729777469
-0.005477252666666667,-0.08538385745499522
-0.005476912666666668,-0.1196797846351813
-0.005476572666666667,-0.1525604288320463
-0.005476232666666667,-0.1818864087913567
-0.005475892666666668,-0.2056170839323492
-0.005475552666666667,-0.2229296153112894
-0.005475212666666667,-0.2340214842745751
-0.005474872666666668,-0.2401434060169116
-0.005474532666666667,-0.2422498737132144
-0.005474192666666667,-0.2410320720762958
-0.005473852666666668,-0.2373457536077921
-0.005473512666666667,-0.231651708116247
-0.005473172666666667,-0.2253981321428812
-0.005472832666666668,-0.2179596680903648
-0.005472492666666667,-0.2107186853843487
-0.005472152666666667,-0.2035435297938552
-0.005471812666666668,-0.1962038064146024
-0.005471472666666667,-0.1888311694775682
-0.005471132666666667,-0.1818864087913567
-0.005470792666666668,-0.1745795989698583
-0.005470452666666667,-0.1676019247258789
-0.005470112666666667,-0.1600647200000853
-0.005469772666666668,-0.1533503542181557
-0.005469432666666667,-0.1466030748784714
-0.005469092666666667,-0.1407115480404057
-0.005468752666666668,-0.1351820703376401
-0.005468412666666667,-0.1304425180209839
-0.005468072666666667,-0.1259991877241187
-0.005467732666666668,-0.1215229438694989
-0.005467392666666667,-0.1169150457838609
-0.005467052666666667,-0.1129325052955595
-0.005466712666666667,-0.1092461868270491
-0.005466372666666667,-0.105033251434459
-0.005466032666666667,-0.1012811058504463
-0.005465692666666667,-0.09719982468888122
-0.005465352666666667,-0.09318437064281807
-0.005465012666666667,-0.08923474371227841
-0.005464672666666667,-0.08489015408867687
-0.005464332666666667,-0.08041391023404935
-0.005463992666666667,-0.07616806128371922
-0.005463652666666667,-0.07238300214194515
-0.005463312666666667,-0.06905873280872867
-0.005462972666666667,-0.06563572280226096
-0.005462632666666667,-0.06273932971985993
-0.005462292666666667,-0.06036955356152715
-0.005461952666666667,-0.05780229605667635
-0.005461612666666667,-0.05589330970691205
-0.005461272666666667,-0.05368810133735259
-0.005460932666666667,-0.05141706585229228
-0.005460592666666667,-0.04990304219558265
-0.005460252666666667,-0.04812571007683328
-0.005459912666666667,-0.04631546440033592
-0.005459572666666667,-0.04437356449281706
-0.005459232666666667,-0.04193796121897535
-0.005458892666666667,-0.03946944438738805
-0.005458552666666667,-0.03670470553600525
-0.005458212666666667,-0.03476280562848225
-0.005457872666666667,-0.03249177014342194
-0.005457532666666667,-0.0316031040840489
-0.005457192666666668,-0.03061569735141399
-0.005456852666666667,-0.02995742619632105
-0.005456512666666667,-0.02913458725245712
-0.005456172666666668,-0.0282130076353312
-0.005455832666666667,-0.02679772465188356
-0.005455492666666667,-0.02534952811068305
-0.005455152666666668,-0.02376967733846718
-0.005454812666666667,-0.02228856723950924
-0.005454472666666667,-0.02018209954321758
-0.005454132666666668,-0.01833894030896574
-0.005453792666666667,-0.01685783021000732
-0.005453452666666667,-0.01577168280410694
-0.005453112666666668,-0.015047584533508
-0.005452772666666667,-0.01468553539820655
-0.005452432666666667,-0.01382978289658807
-0.005452092666666668,-0.01294111683721664
-0.005451752666666667,-0.01261198125966945
-0.005451412666666667,-0.0118878829890692
-0.005451072666666668,-0.0105713406788893
-0.005450732666666667,-0.010044723754814
-0.005450392666666667,-0.009978896639304884
-0.005450052666666668,-0.008859835675651977
-0.005449712666666667,-0.008004083174031458
-0.005449372666666667,-0.006786281537112842
-0.005449032666666668,-0.005864701919986921
-0.005448692666666667,-0.005370998553666888
-0.005448352666666667,-0.004383591821030174
-0.005448012666666668,-0.003758234223693591
-0.005447672666666667,-0.003856974896957261
-0.005447332666666667,-0.004482332494293848
-0.005446992666666668,-0.004449418936539287
-0.005446652666666667,-0.004021542685730045
-0.005446312666666667,-0.003527839319411689
-0.005445972666666667,-0.00237586479800219
-0.005445632666666667,-0.001092236045572908
-0.005445292666666667,-0.0002364835439559801
-0.005444952666666667,0.0002572198223623791
-0.005444612666666667,0.0005534418421539293
-0.005444272666666667,0.0008496638619444052
-0.005443932666666667,0.001738329921317446
-0.005443592666666667,0.001771243479071823
-0.005443252666666667,0.001672502805808333
-0.005442912666666667,0.001705416363562889
-0.005442572666666667,0.001672502805808153
-0.005442232666666667,0.001573762132544662
-0.005441892666666667,0.00183707059458112
-0.005441552666666667,0.001507935017035968
-0.005441212666666667,0.001738329921317446
-0.005440872666666667,0.002659909538445047
-0.005440532666666667,0.004206846752910968
-0.005440192666666667,0.005161339927791386
-0.005439852666666667,0.006609536468991898
-0.005439512666666667,0.007564029643874115
-0.005439172666666667,0.007596943201628613
-0.005438832666666667,0.007267807624083042
-0.005438492666666667,0.007169066950817573
-0.005438152666666667,0.006181660218182656
-0.005437812666666667,0.005589216178600628
-0.005437472666666667,0.004996772139018301
-0.005437132666666667,0.004832204350245815
-0.005436792666666667,0.004667636561473031
-0.005436452666666668,0.004996772139018002
-0.005436112666666667,0.005622129736355185
-0.005435772666666667,0.006543709353482785
-0.005435432666666668,0.007465288970608708
-0.005435092666666667,0.007926078779174183
-0.005434752666666667,0.00772859743264684
-0.005434412666666668,0.006938672046538907
-0.005434072666666667,0.005885438198391643
-0.005433732666666667,0.004535982330454802
-0.005433392666666668,0.004865117907999775
-0.005433052666666667,0.005095512812282273
-0.005432712666666667,0.005556302620846072
-0.005432372666666668,0.006872844931025962
-0.005432032666666667,0.008057733010192412
-0.005431692666666667,0.008781831280792669
-0.005431352666666668,0.00947301599363711
-0.005431012666666667,0.009966719359956725
-0.005430672666666667,0.01029585493750229
-0.005430332666666668,0.01003254647546632
-0.005429992666666667,0.00967049734016571
-0.005429652666666667,0.009275534647111025
-0.005429312666666668,0.009538843109147002
-0.005428972666666667,0.01016420070648407
-0.005428632666666667,0.01016420070648407
-0.005428292666666668,0.01026294137974756
-0.005427952666666667,0.01016420070648407
-0.005427612666666667,0.009242621089356468
-0.005427272666666668,0.008716004165283554
-0.005426932666666667,0.008321041472228868
-0.005426592666666667,0.008452695703247097
-0.005426252666666668,0.008880571954056339
-0.005425912666666667,0.008814744838547226
-0.005425572666666667,0.009045139742829125
-0.005425232666666668,0.009505929551392924
-0.005424892666666667,0.009802151571183939
-0.005424552666666667,0.009900892244447609
-0.005424212666666667,0.01026294137974774
-0.005423872666666667,0.01108578032361113
-0.005423532666666667,0.01078955830382065
-0.005423192666666667,0.01026294137974774
-0.005422852666666667,0.01069081763055716
-0.005422512666666667,0.01078955830382065
-0.005422172666666667,0.01210610061400294
-0.005421832666666667,0.01332390225092376
-0.005421492666666667,0.01454170388784016
-0.005421152666666667,0.01546328350496776
-0.005420812666666667,0.01585824619802226
-0.005420472666666667,0.01575950552475877
-0.005420132666666667,0.01519997504293131
-0.005419792666666667,0.01398217340601119
-0.005419452666666667,0.01315933446214876
-0.005419112666666667,0.01250106330705762
-0.005418772666666667,0.01154657013217487
-0.005418432666666667,0.01121743455462989
-0.005418092666666667,0.01128326167013901
-0.005417752666666667,0.01204027349849496
-0.005417412666666667,0.01266563109583041
-0.005417072666666667,0.01362012427071256
-0.005416732666666667,0.01385051917499392
-0.005416392666666667,0.01355429715520345
-0.005416052666666667,0.01309350734663965
-0.005415712666666667,0.01174405147870119
-0.005415372666666667,0.01085538541932977
-0.005415032666666667,0.01023002782199318
-0.005414692666666668,0.009571756666903236
-0.005414352666666667,0.009802151571183939
-0.005414012666666667,0.009769238013429382
-0.005413672666666668,0.009538843109147901
