Analysis/New Tests_CMB/wrd01_d2s01/cmb12_ch46.csv

#Digilent WaveForms Oscilloscope Acquisition
#Device Name: ADP3450
#Serial Number: SN:210018B9D9B0
#Date Time: 2024-08-15 12:04:23.105.666.410
#Sample rate: 5.88235e+06Hz
#Samples: 32768
#Trigger: Source: Channel 3 Type: Edge Condition: Rising Level: 40 mV Hyst.: Auto HoldOff: 0 s
#Channel 3: Range: 100 mV/div Offset: 0 V Attenuation: 1 X Coupling: DC Bandwidth: 0 Hz Sample Mode: Average

Time (s),Channel 3 (V)
-0.003168990462540403,0.0152948186587053
-0.003168820462540403,0.01457072038810391
-0.003168650462540403,0.01394536279076846
-0.003168480462540403,0.01355040009771377
-0.003168310462540403,0.0125629933650761
-0.003168140462540403,0.01203637644100415
-0.003167970462540403,0.011378105285913
-0.003167800462540403,0.01127936461264826
-0.003167630462540403,0.01068692057306731
-0.003167460462540403,0.01078566124633098
-0.003167290462540403,0.01088440191959489
-0.003167120462540403,0.01101605615061288
-0.003166950462540403,0.01114771038163111
-0.003166780462540403,0.01101605615061383
-0.003166610462540403,0.01154267307468579
-0.003166440462540403,0.01127936461264933
-0.003166270462540403,0.01167432730570456
-0.003166100462540403,0.01197054932549503
-0.003165930462540403,0.01157558663244035
-0.003165760462540403,0.01223385778753095
-0.003165590462540403,0.01193763576774048
-0.003165420462540403,0.01197054932549503
-0.003165250462540403,0.01147684595917758
-0.003165080462540403,0.011378105285913
-0.003164910462540403,0.01101605615061288
-0.003164740462540403,0.01091731547734939
-0.003164570462540403,0.01062109345755819
-0.003164400462540403,0.01055526634204908
-0.003164230462540403,0.009732427398186647
-0.003164060462540403,0.009798254513694264
-0.003163890462540403,0.00973242739818515
-0.003163720462540403,0.009370378262885681
-0.003163550462540403,0.009699513840430593
-0.003163380462540403,0.00973242739818515
-0.003163210462540403,0.009995735860221127
-0.003163040462540403,0.009534946051657807
-0.003162870462540403,0.009370378262885021
-0.003162700462540403,0.009502032493903011
-0.003162530462540403,0.009534946051657807
-0.003162360462540403,0.009403291820639578
-0.003162190462540403,0.008810847781058628
-0.003162020462540403,0.009798254513694264
-0.003161850462540403,0.008218403741475522
-0.003161680462540403,0.009008329127583457
-0.003161510462540403,0.00904124268533945
-0.003161340462540403,0.008876674896566664
-0.003161170462540403,0.009107069800848145
-0.003161000462540403,0.009370378262885021
-0.003160830462540403,0.009864081629203377
-0.003160660462540403,0.009962822302467049
-0.003160490462540403,0.01055526634204908
-0.003160320462540403,0.01098314259285832
-0.003160150462540403,0.01055526634204908
-0.003159980462540403,0.011378105285913
-0.003159810462540403,0.0116085001901949
-0.003159640462540403,0.01147684595917668
-0.003159470462540403,0.01174015442121265
-0.003159300462540403,0.01147684595917668
-0.003159130462540403,0.01170724086345858
-0.003158960462540403,0.01111479682387553
-0.003158790462540403,0.01055526634204908
-0.003158620462540403,0.01016030364899439
-0.003158450462540403,0.009798254513694923
-0.003158280462540403,0.01016030364899439
-0.003158110462540403,0.009469118936148692
-0.003157940462540403,0.008415885088001429
-0.003157770462540403,0.007625959701893495
-0.003157600462540403,0.007198083451084253
-0.003157430462540403,0.005223269985813519
-0.003157260462540403,0.006704380084765896
-0.003157090462540403,0.005848627583147411
-0.003156920462540403,0.005749886909883261
-0.003156750462540403,0.005486578447847282
-0.003156580462540403,0.004729566619492469
-0.003156410462540403,0.004433344599701215
-0.003156240462540403,0.004301690368683227
-0.003156070462540403,0.004301690368683227
-0.003155900462540403,0.004367517484191803
-0.003155730462540403,0.004071295464401327
-0.003155560462540403,0.004104209022155884
-0.003155390462540403,0.004762480177247146
-0.003155220462540403,0.00482830729275614
-0.003155050462540403,0.00528909710131994
-0.003154880462540403,0.00565114623661941
-0.003154710462540403,0.00607902248742931
-0.003154540462540403,0.006408158064974882
-0.003154370462540403,0.007230997008837312
-0.003154200462540403,0.006901861431293239
-0.003154030462540403,0.006704380084765896
-0.003153860462540403,0.007856354606173298
-0.003153690462540403,0.006342330949465767
-0.003153520462540403,0.006737293642520453
-0.003153350462540403,0.006605639411502464
-0.003153180462540403,0.006572725853747667
-0.003153010462540403,0.005947368256411082
-0.003152840462540403,0.005980281814165579
-0.003152670462540403,0.006473985180483996
-0.003152500462540403,0.006967688546802352
-0.003152330462540403,0.006572725853748385
-0.003152160462540403,0.00653981229599311
-0.003151990462540403,0.00677020720027501
-0.003151820462540403,0.006638552969257021
-0.003151650462540403,0.006572725853747667
-0.003151480462540403,0.006704380084765896
-0.003151310462540403,0.006737293642520393
-0.003151140462540403,0.006210676718447538
-0.003150970462540403,0.005354924216829054
-0.003150800462540403,0.005354924216829054
-0.003150630462540403,0.004466258157456012
-0.003150460462540403,0.004499171715210569
-0.003150290462540403,0.003314283636046514
-0.003150120462540403,0.003709246329101199
-0.003149950462540403,0.00357759209808297
-0.003149780462540403,0.003478851424819299
-0.003149610462540403,0.003775073444610313
-0.003149440462540403,0.003873814117873984
-0.003149270462540403,0.003939641233383098
-0.003149100462540403,0.004071295464401327
-0.003148930462540403,0.004400431041946898
-0.003148760462540403,0.005091615754792597
-0.003148590462540403,0.006111936045184765
-0.003148420462540403,0.006605639411502225
-0.003148250462540403,0.006868947873538681
-0.003148080462540403,0.007625959701893914
-0.003147910462540403,0.007856354606175394
-0.003147740462540403,0.008415885088002865
-0.003147570462540403,0.008547539319021094
-0.003147400462540403,0.008547539319021094
-0.003147230462540403,0.008448798645757422
-0.003147060462540403,0.008679193550037944
-0.003146890462540403,0.007922181721684508
-0.003146720462540403,0.00756013258638438
-0.003146550462540403,0.006836034315783645
-0.003146380462540403,0.006572725853747667
-0.003146210462540403,0.006473985180483996
-0.003146040462540403,0.00574988690988362
-0.003145870462540403,0.005684059794374625
-0.003145700462540403,0.005552405563356397
-0.003145530462540403,0.00525618354356658
-0.003145360462540403,0.005914454698656525
-0.003145190462540403,0.004729566619492469
-0.003145020462540403,0.004466258157456072
-0.003144850462540403,0.004499171715210569
-0.003144680462540403,0.004400431041946898
-0.003144510462540403,0.003544678540327515
-0.003144340462540403,0.003050975174010056
-0.003144170462540403,0.002919320942991828
-0.003144000462540403,0.002524358249937862
-0.003143830462540403,0.002096481999127901
-0.003143660462540403,0.002359790461164357
-0.003143490462540403,0.001931914210355893
-0.003143320462540403,0.00176734642158233
-0.003143150462540403,0.001405297286282201
-0.003142980462540403,0.001109075266491726
-0.003142810462540403,0.0009445074777184018
-0.003142640462540403,0.0004837176691546022
-0.003142470462540403,0.0007141125734360829
-0.003142300462540403,0.0005824583424182735
-0.003142130462540403,0.0003191498803818167
-0.003141960462540403,0.000779939688944778
-0.003141790462540403,0.001010334593227516
-0.003141620462540403,0.001997741325864229
-0.003141450462540403,0.002162309114636715
-0.003141280462540403,0.001734432863827772
-0.003141110462540403,0.003709246329101199
-0.003140940462540403,0.004532085272963629
-0.003140770462540403,0.005387837774583611
-0.003140600462540403,0.005881541140901968
-0.003140430462540403,0.00621067671844694
-0.003140260462540403,0.006243590276202096
-0.003140090462540403,0.006572725853747667
-0.003139920462540403,0.006441071622729439
-0.003139750462540403,0.006572725853747667
-0.003139580462540403,0.006901861431293239
-0.003139410462540403,0.00653981229599311
-0.003139240462540403,0.006671466527011338
-0.003139070462540403,0.00779052749066628
-0.003138900462540403,0.00811966306821185
-0.003138730462540403,0.008152576625966409
-0.003138560462540403,0.008514625761266537
-0.003138390462540403,0.008448798645757422
-0.003138220462540403,0.008218403741475283
-0.003138050462540403,0.008086749510457293
-0.003137880462540403,0.007428478355366152
-0.003137710462540403,0.006901861431292101
-0.003137540462540403,0.006276503833956653
-0.003137370462540403,0.005552405563356397
-0.003137200462540403,0.004532085272965306
-0.003137030462540403,0.004630825946228797
-0.003136860462540403,0.003182629405028285
-0.003136690462540403,0.003050975174009757
-0.003136520462540403,0.002886407385237271
-0.003136350462540403,0.0030180616162555
-0.003136180462540403,0.002985148058501601
-0.003136010462540403,0.003347197193801071
-0.003135840462540403,0.003413024309310185
-0.003135670462540403,0.003577592098082851
-0.003135500462540403,0.003511764982573856
-0.003135330462540403,0.003413024309310185
-0.003135160462540403,0.002985148058501541
-0.003134990462540403,0.003314283636046514
-0.003134820462540403,0.003182629405028285
-0.003134650462540403,0.003445937867064503
-0.003134480462540403,0.003314283636046514
-0.003134310462540403,0.003676332771346642
-0.003134140462540403,0.003314283636047831
-0.003133970462540403,0.00403838190664677
-0.003133800462540403,0.004071295464401327
-0.003133630462540403,0.00463082594622778
-0.003133460462540403,0.004367517484192341
-0.003133290462540403,0.004466258157456012
-0.003133120462540403,0.004268776810929029
-0.003132950462540403,0.004400431041946898
-0.003132780462540403,0.003775073444610313
-0.003132610462540403,0.003972554791137297
-0.003132440462540403,0.003972554791137656
-0.003132270462540403,0.003906727675628541
-0.003132100462540403,0.004104209022155525
-0.003131930462540403,0.003972554791137656
-0.003131760462540403,0.002524358249937143
-0.003131590462540403,0.003709246329099043
-0.003131420462540403,0.003413024309310185
-0.003131250462540403,0.003314283636046514
-0.003131080462540403,0.002985148058501541
-0.003130910462540403,0.002392704018918914
-0.003130740462540403,0.001701519306073215
-0.003130570462540403,0.001174902382001259
-0.003130400462540403,0.0006153719001728307
-0.003130230462540403,0.0005166312269091594
-0.003130060462540403,0.000615371900172651
-0.003129890462540403,0.0007799396889456162
-0.003129720462540403,0.001109075266491187
-0.003129550462540403,0.001010334593227696
-0.003129380462540403,0.00107616170873663
-0.003129210462540403,0.001174902382000301
-0.003129040462540403,0.001438210844036758
-0.003128870462540403,0.0023268769034098
-0.003128700462540403,0.001569865075054987
-0.003128530462540403,0.00130655661301853
-0.003128360462540403,0.001141988824245744
-0.003128190462540403,0.0004508041114000451
-0.003128020462540403,-0.0003062077169547683
-0.003127850462540403,-0.0003062077169548881
-0.003127680462540403,-0.0003720348324638825
-0.003127510462540403,-0.0009644788720459105
-0.003127340462540403,-0.001129046660817139
-0.003127170462540403,-0.0002732941592002112
-0.003127000462540403,-0.0005036890634821109
-0.003126830462540403,0.0005495447846649139
-0.003126660462540403,0.001207815939754859
-0.003126490462540403,0.002458531134428029
-0.003126320462540403,0.003544678540328952
-0.003126150462540403,0.003840900560119427
-0.003125980462540403,0.004499171715210569
-0.003125810462540403,0.005552405563357774
-0.003125640462540403,0.00630941739171121
-0.003125470462540403,0.006836034315784124
-0.003125300462540403,0.00756013258638456
-0.003125130462540403,0.007658873259648051
-0.003124960462540403,0.007691786817402609
-0.003124790462540403,0.00746139191312017
-0.003124620462540403,0.007165169893329695
-0.003124450462540403,0.006836034315784124
-0.003124280462540403,0.006770207200273512
-0.003124110462540403,0.005947368256411082
-0.003123940462540403,0.005223269985810825
-0.003123770462540403,0.004861220850508662
-0.003123600462540403,0.003742159886855756
-0.003123430462540403,0.002886407385237271
-0.003123260462540403,0.002359790461165315
-0.003123090462540403,0.001635692190564101
-0.003122920462540403,0.001109075266491187
-0.003122750462540403,0.00107616170873669
-0.003122580462540403,0.001010334593227516
-0.003122410462540403,0.0004837176691546022
-0.003122240462540403,0.001372383728526028
-0.003122070462540403,0.001405297286282201
-0.003121900462540403,0.001734432863827772
-0.003121730462540403,0.002293963345654225
-0.003121560462540403,0.002623098923200814
-0.003121390462540403,0.002886407385237271
-0.003121220462540403,0.003182629405027746
-0.003121050462540403,0.003676332771346642
-0.003120880462540403,0.004104209022155884
-0.003120710462540403,0.003511764982574934
-0.003120540462540403,0.003149715847273728
-0.003120370462540403,0.0030180616162555
-0.003120200462540403,0.002919320942992008
-0.003120030462540403,0.002293963345655243
-0.003119860462540403,0.0023268769034098
-0.003119690462540403,0.001997741325864828
-0.003119520462540403,0.001504037959545873
-0.003119350462540403,0.001174902382000301
-0.003119180462540403,0.001010334593227815
-0.003119010462540403,0.0003849769958909309
-0.003118840462540403,0.0009115939199638446
-0.003118670462540403,0.001141988824245744
-0.003118500462540403,0.001701519306073215
-0.003118330462540403,0.001701519306073215
-0.003118160462540403,0.001569865075054987
-0.003117990462540403,0.002195222672391572
-0.003117820462540403,0.001701519306073215
-0.003117650462540403,0.001964827768109672
-0.003117480462540403,0.001734432863827772
-0.003117310462540403,0.002063568441373343
-0.003117140462540403,0.002293963345655243
-0.003116970462540403,0.002359790461164058
-0.003116800462540403,0.002195222672391572
-0.003116630462540403,0.001734432863827772
-0.003116460462540403,0.001306556613018171
-0.003116290462540403,0.001109075266491187
-0.003116120462540403,0.0007470261311910591
-0.003115950462540403,0.0008128532466992154
-0.003115780462540403,0.0002862363226272596
-0.003115610462540403,0.001141988824245744
-0.003115440462540403,0.001273643055264631
-0.003115270462540403,0.001635692190564101
-0.003115100462540403,0.001833173537091444
-0.003114930462540403,0.002162309114638152
-0.003114760462540403,0.0027876667119736
-0.003114590462540403,0.003347197193801071
-0.003114420462540403,0.003511764982573856
-0.003114250462540403,0.003511764982573856
-0.003114080462540403,0.003742159886855756
-0.003113910462540403,0.003445937867065281
-0.003113740462540403,0.003742159886855756
-0.003113570462540403,0.003610505655837527
-0.003113400462540403,0.003610505655836689
-0.003113230462540403,0.003149715847273728
-0.003113060462540403,0.0030180616162555
-0.003112890462540403,0.001273643055266128
-0.003112720462540403,0.002458531134428029
-0.003112550462540403,0.001899000652600558
-0.003112380462540403,0.001668605748319077
-0.003112210462540403,0.00130655661301853
-0.003112040462540403,0.0009115939199638446
-0.003111870462540403,0.0007470261311913585
-0.003111700462540403,0.001043248150982073
-0.003111530462540403,0.002261049787900686
-0.003111360462540403,0.001931914210355714
-0.003111190462540403,0.003413024309310185
-0.003111020462540403,0.003050975174010056
-0.003110850462540403,0.004334603926435449
-0.003110680462540403,0.00403838190664677
-0.003110510462540403,0.005157442870301712
-0.003110340462540403,0.006046108929673137
-0.003110170462540403,0.005947368256411082
-0.003110000462540403,0.00653981229599311
-0.003109830462540403,0.007263910566592049
-0.003109660462540403,0.007362651239857037
-0.003109490462540403,0.007658873259648051
-0.003109320462540403,0.008646279992282969
-0.003109150462540403,0.007395564797611595
-0.003108980462540403,0.008086749510457293
-0.003108810462540403,0.007329737682103858
-0.003108640462540403,0.006934774989047795
-0.003108470462540403,0.00677020720027501
-0.003108300462540403,0.005420751332340623
-0.003108130462540403,0.006506898738238553
-0.003107960462540403,0.005980281814165639
-0.003107790462540403,0.004400431041946898
-0.003107620462540403,0.004795393735001583
-0.003107450462540403,0.00528909710131994
-0.003107280462540403,0.005223269985810825
-0.003107110462540403,0.005091615754792597
-0.003106940462540403,0.004663739503983355
-0.003106770462540403,0.004663739503983355
-0.003106600462540403,0.004466258157455953
-0.003106430462540403,0.004433344599701455
-0.003106260462540403,0.004466258157456012
-0.003106090462540403,0.004367517484192521
-0.003105920462540403,0.004466258157456012
-0.003105750462540403,0.004137122579910441
-0.003105580462540403,0.004235863253174352
-0.003105410462540403,0.004367517484192341
-0.003105240462540403,0.004367517484192341
-0.003105070462540403,0.004532085272965306
-0.003104900462540403,0.004630825946228797
-0.003104730462540403,0.004564998830719684
-0.003104560462540403,0.004762480177246907
-0.003104390462540403,0.004696653061737912
-0.003104220462540403,0.004861220850510698
-0.003104050462540403,0.004367517484191683
-0.003103880462540403,0.004005468348892213
-0.003103710462540403,0.004202949695419555
-0.003103540462540403,0.004005468348894787
-0.003103370462540403,0.005420751332338168
-0.003103200462540403,0.003939641233383098
-0.003103030462540403,0.003972554791138135
-0.003102860462540403,0.004235863253174112
-0.003102690462540403,0.00380798700236487
-0.003102520462540403,0.003643419213593941
-0.003102350462540403,0.004663739503983355
-0.003102180462540403,0.003610505655837527
-0.003102010462540403,0.004235863253172975
-0.003101840462540403,0.003873814117873984
-0.003101670462540403,0.003149715847273728
-0.003101500462540403,0.00288640738523775
-0.003101330462540403,0.002063568441373343
-0.003101160462540403,0.001668605748318658
-0.003100990462540403,0.001438210844037177
-0.003100820462540403,0.00107616170873663
-0.003100650462540403,0.0006811990156819448
-0.003100480462540403,8.875497610099465e-05
-0.003100310462540403,0.0005824583424182735
-0.003100140462540403,-0.0003062077169547683
-0.003099970462540403,-0.0001416399281822821
-0.003099800462540403,0.0002204092071181454
-0.003099630462540403,0.001010334593227516
-0.003099460462540403,0.001273643055263494
-0.003099290462540403,0.002392704018918914
-0.003099120462540403,0.002853493827482714
-0.003098950462540403,0.002886407385237211
-0.003098780462540403,0.003149715847273728
-0.003098610462540403,0.003906727675628541
-0.003098440462540403,0.00417003613766452
-0.003098270462540403,0.004630825946228797
-0.003098100462540403,0.004959961523774369
-0.003097930462540403,0.005256183543564844
-0.003097760462540403,0.005486578447847282
-0.003097590462540403,0.005848627583147411
-0.003097420462540403,0.005322010659074497
-0.003097250462540403,0.005354924216829054
-0.003097080462540403,0.004861220850510698
-0.003096910462540403,0.004762480177247026
-0.003096740462540403,0.004927047966019811
-0.003096570462540403,0.004762480177247026
-0.003096400462540403,0.004894134408265255
-0.003096230462540403,0.004992875081528926
-0.003096060462540403,0.004992875081528926
-0.003095890462540403,0.00482830729275614
-0.003095720462540403,0.005058702197037262
-0.003095550462540403,0.004630825946228797
-0.003095380462540403,0.00426877681092867
-0.003095210462540403,0.004630825946228438
-0.003095040462540403,0.004433344599701455
-0.003094870462540403,0.00403838190664677
-0.003094700462540403,0.003577592098082192
-0.003094530462540403,0.003149715847273728
-0.003094360462540403,0.002195222672391572
-0.003094190462540403,0.001602778632808826
-0.003094020462540403,0.001207815939754859
-0.003093850462540403,0.0003849769958909309
-0.003093680462540403,5.584141834338417e-05
-0.003093510462540403,-0.001030305987555025
-0.003093340462540403,-0.0008986517565367963
-0.003093170462540403,-0.001129046660818816
-0.003093000462540403,-0.00119487377632781
-0.003092830462540403,-0.001392355122855153
-0.003092660462540403,-0.002149366951208889
-0.003092490462540403,-0.001556922911627938
-0.003092320462540403,-0.001820231373664395
-0.003092150462540403,-0.002050626277944978
-0.003091980462540403,-0.001326528007346039
-0.003091810462540403,-0.0004049483902184396
-0.003091640462540403,-0.001227787334080931
