Analysis/New Tests_CMB/wrd01_d2s01/cmb10_ch07.csv

#Digilent WaveForms Oscilloscope Acquisition
#Device Name: ADP3450
#Serial Number: SN:210018B9D9B0
#Date Time: 2024-08-14 17:18:05.162.831.040
#Sample rate: 5.88235e+06Hz
#Samples: 32768
#Trigger: Source: Channel 3 Type: Edge Condition: Rising Level: 60 mV Hyst.: Auto HoldOff: 0 s
#Channel 3: Range: 100 mV/div Offset: 0 V Attenuation: 1 X Coupling: DC Bandwidth: 0 Hz Sample Mode: Average

Time (s),Channel 3 (V)
-0.003798442795647739,0.2140597939384757
-0.003798272795647739,0.225447884921571
-0.003798102795647739,0.2356510878254651
-0.003797932795647739,0.2443073535149136
-0.003797762795647739,0.2518774717984719
-0.003797592795647739,0.2574727766167365
-0.003797422795647739,0.2616857120093198
-0.003797252795647739,0.2638250932633687
-0.003797082795647739,0.2653062033623211
-0.003796912795647739,0.2652732898045665
-0.003796742795647739,0.2645821050917199
-0.003796572795647739,0.2640554881676479
-0.003796402795647739,0.2620806747023745
-0.003796232795647739,0.2606324781611682
-0.003796062795647739,0.2574727766167365
-0.003795892795647739,0.2539510259369989
-0.003795722795647739,0.2501330532374632
-0.003795552795647739,0.2462163398646779
-0.003795382795647739,0.2422337993763765
-0.003795212795647739,0.2382512588880672
-0.003795042795647739,0.233873755706719
-0.003794872795647739,0.2300557830071904
-0.003794702795647739,0.2261061560766507
-0.003794532795647739,0.2224527511658877
-0.003794362795647739,0.2184372971198318
-0.003794192795647739,0.2141256210539926
-0.003794022795647739,0.2103076483544561
-0.003793852795647739,0.2066871570014549
-0.003793682795647739,0.2036920232457956
-0.003793512795647739,0.1997423963152433
-0.003793342795647739,0.1971093116948787
-0.003793172795647739,0.194147091496974
-0.003793002795647739,0.1910203035102857
-0.003792832795647739,0.1876631206193209
-0.003792662795647739,0.1842730241706076
-0.003792492795647739,0.1804221379133183
-0.003792322795647739,0.1766699923292988
-0.003792152795647739,0.1735432043426215
-0.003791982795647739,0.1697581452008418
-0.003791812795647739,0.1659072589435586
-0.003791642795647739,0.1624842489370909
-0.003791472795647739,0.159192893161629
-0.003791302795647739,0.1565268949835098
-0.003791132795647739,0.1537621561321321
-0.003790962795647739,0.1515898613203263
-0.003790792795647739,0.149680874970562
-0.003790622795647739,0.1479035428518191
-0.003790452795647739,0.1462907785218426
-0.003790282795647739,0.1446121870763602
-0.003790112795647739,0.1426702871688413
-0.003789942795647739,0.1396093262976675
-0.003789772795647739,0.1371737230238303
-0.003789602795647739,0.1346393790767294
-0.003789432795647739,0.1329278740734924
-0.003789262795647739,0.130953060608219
-0.003789092795647739,0.1280237539680634
-0.003788922795647739,0.1256210642519764
-0.003788752795647739,0.1232183745358981
-0.003788582795647739,0.1204865492422698
-0.003788412795647739,0.1179851188529189
-0.003788242795647739,0.1154507749058226
-0.003788072795647739,0.1130151716319854
-0.003787902795647739,0.110974531051199
-0.003787732795647739,0.1088680633549111
-0.003787562795647739,0.107024904120656
-0.003787392795647739,0.1057412753682254
-0.003787222795647739,0.1041943381537641
-0.003787052795647739,0.1026144873815453
-0.003786882795647739,0.1011333772825861
-0.003786712795647739,0.09886234179752579
-0.003786542795647739,0.09695335544776149
-0.003786372795647739,0.09540641823329406
-0.003786202795647739,0.0936290861145512
-0.003786032795647739,0.09162135909152322
-0.003785862795647739,0.09010733543481068
-0.003785692795647739,0.0884945711048403
-0.003785522795647739,0.08661849831283056
-0.003785352795647739,0.08451203061653488
-0.003785182795647739,0.08230682224698357
-0.003785012795647739,0.08033200878171015
-0.003784842795647739,0.07934460204907073
-0.003784672795647739,0.07786349195011835
-0.003784502795647739,0.0762178140623905
-0.003784332795647739,0.07470379040568362
-0.003784162795647739,0.07388095146181695
-0.003783992795647739,0.07259732270938923
-0.003783822795647739,0.07180739732328129
-0.003783652795647739,0.0709187312639068
-0.003783482795647739,0.06966801606923365
-0.003783312795647739,0.06818690597028126
-0.003783142795647739,0.06746280769967833
-0.003782972795647739,0.06654122808255072
-0.003782802795647739,0.06555382134991579
-0.003782632795647739,0.06446767394401362
-0.003782462795647739,0.0634802672113769
-0.003782292795647739,0.06262451470975997
-0.003782122795647739,0.06190041643915816
-0.003781952795647739,0.06084718259101234
-0.003781782795647739,0.05966229451185044
-0.003781612795647739,0.05837866575942055
-0.003781442795647739,0.05716086412250194
-0.003781272795647739,0.05633802517863951
-0.003781102795647739,0.05475817440641927
-0.003780932795647739,0.05390242190480079
-0.003780762795647739,0.05301375584542936
-0.003780592795647739,0.05222383045931837
-0.003780422795647739,0.05087437459138153
-0.003780252795647739,0.0500844492052736
-0.003780082795647739,0.04886664756835355
-0.003779912795647739,0.0483729442020352
-0.003779742795647739,0.04735262391164392
-0.003779572795647739,0.0462993900634981
-0.003779402795647739,0.04521324265759771
-0.003779232795647739,0.04458788506026112
-0.003779062795647739,0.04435749015597923
-0.003778892795647739,0.04340299698109707
-0.003778722795647739,0.04281055294151504
-0.003778552795647739,0.04205354111316023
-0.003778382795647739,0.04179023265112377
-0.003778212795647739,0.04129652928480541
-0.003778042795647739,0.04057243101420348
-0.003777872795647739,0.03965085139707756
-0.003777702795647739,0.03846596331791351
-0.003777532795647739,0.03767603793180294
-0.003777362795647739,0.03701776677671299
-0.003777192795647739,0.03708359389222211
-0.003777022795647739,0.03685319898793793
-0.003776852795647739,0.03560248379326703
-0.003776682795647739,0.03477964484940311
-0.003776512795647739,0.03375932455900998
-0.003776342795647739,0.03273900426862057
-0.003776172795647739,0.03188325176700208
-0.003776002795647739,0.03148828907394632
-0.003775832795647739,0.03089584503436537
-0.003775662795647739,0.03053379589906524
-0.003775492795647739,0.03000717897499125
-0.003775322795647739,0.0294147349354103
-0.003775152795647739,0.02865772310705549
-0.003774982795647739,0.02878937733807329
-0.003774812795647739,0.02855898243379182
-0.003774642795647739,0.02839441464501903
-0.003774472795647739,0.02806527906747316
-0.003774302795647739,0.02790071127870067
-0.003774132795647739,0.02822984685624624
-0.003773962795647739,0.02836150108726279
-0.003773792795647739,0.02743992147013687
-0.003773622795647739,0.02865772310705549
-0.003773452795647739,0.02790071127870205
-0.003773282795647739,0.02770322993217333
-0.003773112795647739,0.027801970605437
-0.003772942795647739,0.02681456387280208
-0.003772772795647739,0.02740700791238232
-0.003772602795647739,0.02786779772094612
-0.003772432795647739,0.02724244012361067
-0.003772262795647739,0.0273411807968732
-0.003772092795647739,0.02760448925890966
-0.003771922795647739,0.02730826723911918
-0.003771752795647739,0.02681456387280029
-0.003771582795647739,0.02605755204444548
-0.003771412795647739,0.02612337915995447
-0.003771242795647739,0.02645251473750016
-0.003771072795647739,0.0264196011797456
-0.003770902795647739,0.02625503339097312
-0.003770732795647739,0.02582715714016358
-0.003770562795647739,0.02553093512037256
-0.003770392795647739,0.02526762665833658
-0.003770222795647739,0.02523471310058155
-0.003770052795647739,0.02477392329201775
-0.003769882795647739,0.02444478771447278
-0.003769712795647739,0.02648542829525472
-0.003769542795647739,0.02158130818982571
-0.003769372795647739,0.02023185232188887
-0.003769202795647739,0.02069264213045267
-0.003769032795647739,0.02049516078392532
-0.003768862795647739,0.02046224722617077
-0.003768692795647739,0.01937609982027038
-0.003768522795647739,0.01822412529886088
-0.003768352795647739,0.01845452020314278
-0.003768182795647739,0.0180595575100881
-0.003768012795647739,0.01884948289619747
-0.003767842795647739,0.01769750837478797
-0.003767672795647739,0.0189811371272133
-0.003767502795647739,0.01766459481703341
-0.003767332795647739,0.01694049654643316
-0.003767162795647739,0.01559104067849572
-0.003766992795647739,0.01526190510095074
-0.003766822795647739,0.01463654750361416
-0.003766652795647739,0.01434032548382153
-0.003766482795647739,0.0134516594244501
-0.003766312795647739,0.0129908696158863
-0.003766142795647739,0.01262882048058599
-0.003765972795647739,0.0125300798073225
-0.003765802795647739,0.01226677134528605
-0.003765632795647739,0.01262882048058504
-0.003765462795647739,0.01200346288324959
-0.003765292795647739,0.01259590692283162
-0.003765122795647739,0.01233259846079492
-0.003764952795647739,0.01220094422977693
-0.003764782795647739,0.01187180865223136
-0.003764612795647739,0.0116743273057045
-0.003764442795647739,0.01193763576774048
-0.003764272795647739,0.01177306797896769
-0.003764102795647739,0.01183889509447794
-0.003763932795647739,0.01246425269181339
-0.003763762795647739,0.01289212894262263
-0.003763592795647739,0.01253007980732382
-0.003763422795647739,0.01325417807792276
-0.003763252795647739,0.01328709163567732
-0.003763082795647739,0.01276047471160536
-0.003762912795647739,0.01295795605813175
-0.003762742795647739,0.01282630182711352
-0.003762572795647739,0.013056696731395
-0.003762402795647739,0.0122996849030406
-0.003762232795647739,0.01279338826935896
-0.003762062795647739,0.01279338826935896
-0.003761892795647739,0.01210220355651326
-0.003761722795647739,0.01157558663244035
-0.003761552795647739,0.01062109345755993
-0.003761382795647739,0.01035778499552173
-0.003761212795647739,0.009929908744712493
-0.003761042795647739,0.009995735860221486
-0.003760872795647739,0.009567859609412364
-0.003760702795647739,0.009304551147375908
-0.003760532795647739,0.009041242685339929
-0.003760362795647739,0.009403291820639578
-0.003760192795647739,0.009172896916357679
-0.003760022795647739,0.009436205378393656
-0.003759852795647739,0.009534946051657807
-0.003759682795647739,0.009699513840430593
-0.003759512795647739,0.009995735860221067
-0.003759342795647739,0.01058817989980363
-0.003759172795647739,0.01085148836184009
-0.003759002795647739,0.0107527476885766
-0.003758832795647739,0.01065400701531275
-0.003758662795647739,0.01098314259285832
-0.003758492795647739,0.01210220355651326
-0.003758322795647739,0.01081857480408553
-0.003758152795647739,0.01098314259285832
-0.003757982795647739,0.0116085001901949
-0.003757812795647739,0.01141101884366756
-0.003757642795647739,0.01150975951693123
-0.003757472795647739,0.01150975951693123
-0.003757302795647739,0.01078566124633068
-0.003757132795647739,0.01062109345755819
-0.003756962795647739,0.009929908744712493
-0.003756792795647739,0.009699513840428439
-0.003756622795647739,0.008514625761266537
-0.003756452795647739,0.008415885088002865
-0.003756282795647739,0.008020922394947521
-0.003756112795647739,0.007658873259648051
-0.003755942795647739,0.00700060210455691
-0.003755772795647739,0.00680312075802867
-0.003755602795647739,0.00630941739171121
-0.003755432795647739,0.006375244507220324
-0.003755262795647739,0.006770207200275428
-0.003755092795647739,0.00700060210455691
-0.003754922795647739,0.007988008837193623
-0.003754752795647739,0.007724700375157824
-0.003754582795647739,0.008086749510457293
-0.003754412795647739,0.00756013258638438
-0.003754242795647739,0.007428478355365613
-0.003754072795647739,0.007132256335575138
-0.003753902795647739,0.005815714025392853
-0.003753732795647739,0.005947368256410304
-0.003753562795647739,0.005519492005601839
-0.003753392795647739,0.005322010659074497
-0.003753222795647739,0.005881541140901429
-0.003753052795647739,0.005585319121110954
-0.003752882795647739,0.00630941739171121
-0.003752712795647739,0.005848627583148249
-0.003752542795647739,0.005453664890092726
-0.003752372795647739,0.004762480177247026
-0.003752202795647739,0.00542075133233697
-0.003752032795647739,0.006276503833956653
-0.003751862795647739,0.00756013258638438
-0.003751692795647739,0.007625959701893375
-0.003751522795647739,0.007889268163929951
-0.003751352795647739,0.007625959701893495
-0.003751182795647739,0.007099342777821539
-0.003751012795647739,0.007033515662311467
-0.003750842795647739,0.006737293642520453
-0.003750672795647739,0.00677020720027495
-0.003750502795647739,0.007230997008838809
-0.003750332795647739,0.007955095279439066
-0.003750162795647739,0.008448798645756523
-0.003749992795647739,0.008777934223302994
-0.003749822795647739,0.008876674896566664
-0.003749652795647739,0.00867919355003968
-0.003749482795647739,0.008514625761266537
-0.003749312795647739,0.00881084778105755
-0.003749142795647739,0.008909588454321042
-0.003748972795647739,0.009962822302467049
-0.003748802795647739,0.01042361211103085
-0.003748632795647739,0.01108188326612079
-0.003748462795647739,0.01180598153672225
-0.003748292795647739,0.01246425269181339
-0.003748122795647739,0.01246425269181339
-0.003747952795647739,0.01279338826935896
-0.003747782795647739,0.01332000519343187
-0.003747612795647739,0.013682054328732
-0.003747442795647739,0.01328709163567732
-0.003747272795647739,0.01315543740465909
-0.003747102795647739,0.01236551201854972
-0.003746932795647739,0.01203637644100415
-0.003746762795647739,0.01154267307468579
-0.003746592795647739,0.01029195788001262
-0.003746422795647739,0.009304551147374411
-0.003746252795647739,0.008481712203511979
-0.003746082795647739,0.007494305470875266
-0.003745912795647739,0.00624359027620018
-0.003745742795647739,0.005190356428056269
-0.003745572795647739,0.005684059794374625
-0.003745402795647739,0.004104209022156183
-0.003745232795647739,0.00426877681092867
-0.003745062795647739,0.003939641233383098
-0.003744892795647739,0.003972554791137177
-0.003744722795647739,0.003709246329101199
-0.003744552795647739,0.004301690368683227
-0.003744382795647739,0.00413712257991092
-0.003744212795647739,0.004400431041946898
-0.003744042795647739,0.005025788639283483
-0.003743872795647739,0.005223269985811244
-0.003743702795647739,0.005453664890092726
-0.003743532795647739,0.005420751332338168
-0.003743362795647739,0.005848627583147471
-0.003743192795647739,0.005881541140901968
-0.003743022795647739,0.005881541140901968
-0.003742852795647739,0.005914454698656884
-0.003742682795647739,0.006111936045183867
-0.003742512795647739,0.00607902248742931
-0.003742342795647739,0.005749886909884398
-0.003742172795647739,0.006111936045183867
-0.003742002795647739,0.006572725853747667
-0.003741832795647739,0.006803120758029148
-0.003741662795647739,0.006868947873538681
-0.003741492795647739,0.006737293642520453
-0.003741322795647739,0.006737293642520453
-0.003741152795647739,0.006934774989047795
-0.003740982795647739,0.00700060210455691
-0.003740812795647739,0.006408158064975959
-0.003740642795647739,0.006408158064974882
-0.003740472795647739,0.006177763160692982
-0.003740302795647739,0.006506898738237955
-0.003740132795647739,0.006408158064974882
-0.003739962795647739,0.006671466527011338
-0.003739792795647739,0.006572725853747846
-0.003739622795647739,0.005914454698656525
-0.003739452795647739,0.007198083451084253
-0.003739282795647739,0.006836034315784782
-0.003739112795647739,0.006605639411502225
-0.003738942795647739,0.006572725853747667
-0.003738772795647739,0.006276503833957192
-0.003738602795647739,0.006408158064974882
-0.003738432795647739,0.006375244507220324
-0.003738262795647739,0.006506898738238314
-0.003738092795647739,0.006408158064974882
-0.003737922795647739,0.006276503833956653
-0.003737752795647739,0.005815714025393691
-0.003737582795647739,0.005848627583147411
-0.003737412795647739,0.006013195371920196
-0.003737242795647739,0.005914454698656525
-0.003737072795647739,0.006111936045183867
-0.003736902795647739,0.005947368256411082
-0.003736732795647739,0.005716973352129182
-0.003736562795647739,0.005618232678865511
-0.003736392795647739,0.005387837774583611
-0.003736222795647739,0.004959961523774369
-0.003736052795647739,0.005486578447847103
-0.003735882795647739,0.005387837774583611
-0.003735712795647739,0.005684059794374625
-0.003735542795647739,0.005684059794374924
-0.003735372795647739,0.005848627583147411
-0.003735202795647739,0.005947368256411082
-0.003735032795647739,0.006177763160693281
-0.003734862795647739,0.006342330949465767
-0.003734692795647739,0.006441071622729439
-0.003734522795647739,0.006309417391710911
-0.003734352795647739,0.006144849602938425
-0.003734182795647739,0.00607902248742931
-0.003734012795647739,0.006441071622729439
-0.003733842795647739,0.006441071622729439
-0.003733672795647739,0.006506898738238553
-0.003733502795647739,0.006572725853747368
-0.003733332795647739,0.006408158064974882
-0.003733162795647739,0.006671466527011338
-0.003732992795647739,0.007066429220066562
-0.003732822795647739,0.007362651239857037
-0.003732652795647739,0.007988008837193623
-0.003732482795647739,0.008481712203511739
-0.003732312795647739,0.008350057972493751
-0.003732142795647739,0.008481712203511979
-0.003731972795647739,0.009139983358604021
-0.003731802795647739,0.009633686724921478
-0.003731632795647739,0.009699513840430593
-0.003731462795647739,0.009666600282676095
-0.003731292795647739,0.008580452876775651
-0.003731122795647739,0.00871210710779388
-0.003730952795647739,0.008218403741476421
-0.003730782795647739,0.00779052749066628
-0.003730612795647739,0.00779052749066628
-0.003730442795647739,0.007494305470875805
-0.003730272795647739,0.00802092239494818
-0.003730102795647739,0.007099342777820581
-0.003729932795647739,0.01006156297572533
-0.003729762795647739,0.009534946051657807
-0.003729592795647739,0.009995735860221606
-0.003729422795647739,0.008942502012077694
-0.003729252795647739,0.009469118936148692
-0.003729082795647739,0.009205810474112236
-0.003728912795647739,0.009469118936148213
-0.003728742795647739,0.009074156243094007
-0.003728572795647739,0.009139983358603122
-0.003728402795647739,0.009107069800848626
-0.003728232795647739,0.008152576625966409
-0.003728062795647739,0.007922181721684508
-0.003727892795647739,0.007625959701894033
-0.003727722795647739,0.00802092239494818
-0.003727552795647739,0.007099342777820581
-0.003727382795647739,0.00795509527943751
-0.003727212795647739,0.00756013258638438
-0.003727042795647739,0.007691786817402609
-0.003726872795647739,0.007428478355366152
-0.003726702795647739,0.009896995186957936
-0.003726532795647739,0.00871210710779388
-0.003726362795647739,0.007724700375157166
-0.003726192795647739,0.007724700375157166
-0.003726022795647739,0.007922181721684508
-0.003725852795647739,0.008382971530248308
-0.003725682795647739,0.007955095279439066
-0.003725512795647739,0.007625959701893495
-0.003725342795647739,0.007988008837193623
-0.003725172795647739,0.007625959701893495
-0.003725002795647739,0.007625959701893495
-0.003724832795647739,0.007132256335575138
-0.003724662795647739,0.007165169893330892
-0.003724492795647739,0.007823441048420837
-0.003724322795647739,0.00779052749066628
-0.003724152795647739,0.007691786817402729
-0.003723982795647739,0.007757613932911723
-0.003723812795647739,0.008086749510457293
-0.003723642795647739,0.007329737682102959
-0.003723472795647739,0.007593046144138938
-0.003723302795647739,0.007625959701893495
-0.003723132795647739,0.007527219028629105
-0.003722962795647739,0.007132256335575138
-0.003722792795647739,0.006276503833956653
-0.003722622795647739,0.00621067671844694
-0.003722452795647739,0.005881541140901968
-0.003722282795647739,0.005552405563356397
-0.003722112795647739,0.004828307292755302
-0.003721942795647739,0.004367517484192341
-0.003721772795647739,0.004334603926437783
-0.003721602795647739,0.004762480177245529
-0.003721432795647739,0.003939641233383098
-0.003721262795647739,0.003544678540328413
-0.003721092795647739,0.00357759209808291
-0.003720922795647739,0.003544678540328413
-0.003720752795647739,0.003445937867064742
-0.003720582795647739,0.003215542962783261
-0.003720412795647739,0.003347197193801071
-0.003720242795647739,0.002985148058500942
-0.003720072795647739,0.003050975174009937
-0.003719902795647739,0.003610505655837527
-0.003719732795647739,0.00426877681092867
