Analysis/New Tests/wrd01_d2s01/cmb02_ch38.csv

#Digilent WaveForms Oscilloscope Acquisition
#Device Name: ADP3450
#Serial Number: SN:210018B9D9B0
#Date Time: 2024-08-06 12:52:33.764.835.900
#Sample rate: 2.94118e+06Hz
#Samples: 32768
#Trigger: Source: Channel 3 Type: Edge Condition: Rising Level: 20 mV Hyst.: Auto HoldOff: 0 s
#Channel 3: Range: 200 mV/div Offset: 0 V Attenuation: 1 X Coupling: DC Bandwidth: 0 Hz Sample Mode: Average

Time (s),Channel 3 (V)
-0.005570254671052632,0.008350057972493751
-0.005569914671052631,0.007296824124346906
-0.005569574671052632,0.006737293642520453
-0.005569234671052632,0.006210676718447538
-0.005568894671052631,0.006441071622730636
-0.005568554671052632,0.007099342777820581
-0.005568214671052632,0.007757613932911723
-0.005567874671052631,0.008942502012076976
-0.005567534671052632,0.009600773167166921
-0.005567194671052632,0.01006156297573072
-0.005566854671052631,0.009765340955939707
-0.005566514671052632,0.009765340955939707
-0.005566174671052632,0.008942502012075779
-0.005565834671052631,0.007889268163928155
-0.005565494671052632,0.006901861431293239
-0.005565154671052632,0.005716973352129182
-0.005564814671052631,0.004762480177246308
-0.005564474671052632,0.004367517484192341
-0.005564134671052632,0.004235863253174112
-0.005563794671052631,0.00426877681092867
-0.005563454671052632,0.00426877681092867
-0.005563114671052632,0.004235863253174112
-0.005562774671052632,0.004564998830719085
-0.005562434671052632,0.004927047966019811
-0.005562094671052632,0.004861220850510698
-0.005561754671052632,0.004202949695420753
-0.005561414671052632,0.003972554791137656
-0.005561074671052632,0.004104209022155884
-0.005560734671052632,0.003906727675628901
-0.005560394671052632,0.003873814117873984
-0.005560054671052632,0.003709246329101199
-0.005559714671052632,0.003676332771346701
-0.005559374671052632,0.003380110751555628
-0.005559034671052632,0.0025572718076917
-0.005558694671052632,0.002359790461164716
-0.005558354671052632,0.002228136230146129
-0.005558014671052632,0.002293963345655243
-0.005557674671052632,0.002063568441373762
-0.005557334671052632,0.00176734642158233
-0.005556994671052632,0.001504037959545873
-0.005556654671052632,0.001504037959545873
-0.005556314671052632,0.001109075266491187
-0.005555974671052632,0.0006811990156819448
-0.005555634671052632,0.0001545820916099891
-0.005555294671052632,-0.0008657381987822392
-0.005554954671052632,-0.001491095796118824
-0.005554614671052632,-0.002412675413244747
-0.005554274671052632,-0.003301341472619465
-0.005553934671052632,-0.003630477050165036
-0.005553594671052632,-0.003729217723428708
-0.005553254671052632,-0.003959612627710607
-0.005552914671052632,-0.004124180416483393
-0.005552574671052632,-0.003992526185465165
-0.005552234671052632,-0.003860871954446936
-0.005551894671052632,-0.003597563492410479
-0.005551554671052632,-0.003564649934655922
-0.005551214671052631,-0.003630477050165156
-0.005550874671052632,-0.00369630416567415
-0.005550534671052632,-0.003531736376901365
-0.005550194671052631,-0.003465909261390515
-0.005549854671052632,-0.002511416086510094
-0.005549514671052632,-0.002083539835700852
-0.005549174671052631,-0.001359441565099279
-0.005548834671052632,-0.0006353432945003394
-0.005548494671052632,-0.0001745534859365399
-0.005548154671052631,0.0002533227648735407
-0.005547814671052632,0.000714112573436502
-0.005547474671052632,0.0004508041114000451
-0.005547134671052631,-0.0006024297367482967
-0.005546794671052632,-0.001984799162437181
-0.005546454671052632,-0.00313677368384668
-0.005546114671052631,-0.004190007531993405
-0.005545774671052632,-0.004683710898310864
-0.005545434671052632,-0.004321661763010735
-0.005545094671052631,-0.003564649934652869
-0.005544754671052632,-0.00188605848917351
-0.005544414671052632,-0.0005366026212366681
-0.005544074671052631,0.000154582091610049
-0.005543734671052632,0.000714112573436502
-0.005543394671052632,0.0008457668044547304
-0.005543054671052631,0.0004508041113985484
-0.005542714671052632,-0.0003720348324638825
-0.005542374671052632,-0.001491095796118824
-0.005542034671052632,-0.002643070317526228
-0.005541694671052632,-0.003827958396692379
-0.005541354671052632,-0.004486229551783521
-0.005541014671052632,-0.00497993291810098
-0.005540674671052632,-0.004716624456065421
-0.005540334671052632,-0.004749538013819977
-0.005539994671052632,-0.005144500706873945
-0.005539654671052632,-0.005243241380138334
-0.005539314671052632,-0.004683710898310864
-0.005538974671052632,-0.004222921089747902
-0.005538634671052632,-0.003597563492410479
-0.005538294671052632,-0.002873465221810222
-0.005537954671052632,-0.001853144931420808
-0.005537614671052632,-0.001161960218573253
-0.005537274671052632,-0.0004049483902184396
-0.005536934671052632,-0.0009644788720448927
-0.005536594671052632,-0.001063219545309582
-0.005536254671052632,-0.001589836469382495
-0.005535914671052632,-0.001425268680610009
-0.005535574671052632,-0.002017712720191738
-0.005535234671052632,-0.003038033010583008
-0.005534894671052632,-0.003367168588127981
-0.005534554671052632,-0.004321661763010735
-0.005534214671052632,-0.005276154937892892
-0.005533874671052632,-0.005769858304210351
-0.005533534671052632,-0.00619773455502049
-0.005533194671052632,-0.006428129459302391
-0.005532854671052632,-0.006000253208493148
-0.005532514671052632,-0.005309068495647449
-0.005532174671052632,-0.004848278687083649
-0.005531834671052632,-0.004091266858728836
-0.005531494671052632,-0.002840551664055666
-0.005531154671052632,-0.001721490700400724
-0.005530814671052632,-0.0005366026212366681
-0.005530474671052631,0.0002862363226272596
-0.005530134671052632,0.0002533227648727025
-0.005529794671052632,-0.0001087263704274257
-0.005529454671052631,-0.0007669975255191665
-0.005529114671052632,-0.001096133103064139
-0.005528774671052632,-0.001721490700400724
-0.005528434671052631,-0.001721490700401862
-0.005528094671052632,-0.002346848297737309
-0.005527754671052632,-0.00267598387528288
-0.005527414671052631,-0.002741810990791396
-0.005527074671052632,-0.002412675413246423
-0.005526734671052632,-0.002215194066719081
-0.005526394671052631,-0.001984799162437001
-0.005526054671052632,-0.00188605848917351
-0.005525714671052632,-0.001589836469382495
-0.005525374671052631,-0.001754404258156478
-0.005525034671052632,-0.002412675413246423
-0.005524694671052632,-0.003268427914864908
-0.005524354671052631,-0.00369630416567421
-0.005524014671052632,-0.003729217723428708
-0.005523674671052632,-0.003893785512201493
-0.005523334671052631,-0.003959612627711146
-0.005522994671052632,-0.004255834647501621
-0.005522654671052632,-0.004354575320765292
-0.005522314671052631,-0.004519143109538557
-0.005521974671052632,-0.004782451571574535
-0.005521634671052632,-0.004815365129329092
-0.005521294671052631,-0.004519143109535504
-0.005520954671052632,-0.003103860126092122
-0.005520614671052632,-0.002478502528755537
-0.005520274671052632,-0.001951885604683581
-0.005519934671052632,-0.002050626277946295
-0.005519594671052632,-0.002149366951209966
-0.005519254671052632,-0.003005119452826895
-0.005518914671052632,-0.003663390607919593
-0.005518574671052632,-0.00494701936034732
-0.005518234671052632,-0.005473636284419277
-0.005517894671052632,-0.005934426092984033
-0.005517554671052632,-0.006098993881756819
-0.005517214671052632,-0.005671117630948355
-0.005516874671052632,-0.005276154937892892
-0.005516534671052632,-0.004420402436274407
-0.005516194671052632,-0.004091266858729434
-0.005515854671052632,-0.003301341472619465
-0.005515514671052632,-0.003630477050165036
-0.005515174671052632,-0.00346590926139255
-0.005514834671052632,-0.00392669906995605
-0.005514494671052632,-0.00438748887851985
-0.005514154671052632,-0.005473636284418259
-0.005513814671052632,-0.006066080324002262
-0.005513474671052632,-0.006362302343793276
-0.005513134671052632,-0.006230648112775287
-0.005512794671052632,-0.006033166766247705
-0.005512454671052632,-0.005572376957683906
-0.005512114671052632,-0.003795044838937822
-0.005511774671052632,-0.001853144931418952
-0.005511434671052632,-0.0007669975255185678
-0.005511094671052632,-0.0005695161789912252
-0.005510754671052632,-0.0006353432945003394
-0.005510414671052632,-0.001524009353873381
-0.005510074671052632,-0.003202600799355794
-0.005509734671052632,-0.00415709397423795
-0.005509394671052632,-0.004979932918101878
-0.005509054671052632,-0.005671117630947577
-0.005508714671052631,-0.0060989938817564
-0.005508374671052632,-0.00586859897747492
-0.005508034671052632,-0.00540780916891112
-0.005507694671052631,-0.004848278687082152
-0.005507354671052632,-0.004025439743219721
-0.005507014671052632,-0.00336716858812858
-0.005506674671052631,-0.002478502528755118
-0.005506334671052632,-0.002248107624473638
-0.005505994671052632,-0.001721490700400724
-0.005505654671052631,-0.001260700891836146
-0.005505314671052632,-0.000832824641027682
-0.005504974671052632,-0.000832824641027682
-0.005504634671052631,-0.00119487377632769
-0.005504294671052632,-0.001129046660818696
-0.005503954671052632,-0.001458182238364267
-0.005503614671052631,-0.00228102118223047
-0.005503274671052632,-0.003531736376901365
-0.005502934671052632,-0.004222921089747064
-0.005502594671052631,-0.004354575320765352
-0.005502254671052632,-0.00438748887851985
-0.005501914671052632,-0.003992526185465165
-0.005501574671052631,-0.004058353300974518
-0.005501234671052632,-0.004190007531992507
-0.005500894671052632,-0.00438748887851985
-0.005500554671052631,-0.004716624456066019
-0.005500214671052632,-0.005045760033610991
-0.005499874671052632,-0.004979932918101878
-0.005499534671052632,-0.004979932918101878
-0.005499194671052632,-0.004848278687083649
-0.005498854671052632,-0.005111587149120106
-0.005498514671052632,-0.004914105802593122
-0.005498174671052632,-0.005111587149120106
-0.005497834671052632,-0.004420402436274407
-0.005497494671052632,-0.00366339060792097
-0.005497154671052632,-0.00290637877956478
-0.005496814671052632,-0.001688577142646167
-0.005496474671052632,-0.001491095796119183
-0.005496134671052632,-0.001556922911627938
-0.005495794671052632,-0.001589836469382495
-0.005495454671052632,-0.001984799162436462
-0.005495114671052632,-0.002215194066719081
-0.005494774671052632,-0.00313677368384668
-0.005494434671052632,-0.003465909261391652
-0.005494094671052632,-0.003334255030374022
-0.005493754671052632,-0.004552056667292635
-0.005493414671052632,-0.004420402436274646
-0.005493074671052632,-0.005111587149120106
-0.005492734671052632,-0.005835685419720362
-0.005492394671052632,-0.00646104301705581
-0.005492054671052632,-0.006856005710111633
-0.005491714671052632,-0.006428129459302391
-0.005491374671052632,-0.005539463399930965
-0.005491034671052632,-0.005012846475856435
-0.005490694671052632,-0.003992526185465165
-0.005490354671052632,-0.00267598387528288
-0.005490014671052632,-0.00165566358489161
-0.005489674671052632,-0.0009644788720459105
-0.005489334671052632,-0.0003391212747093254
-0.005488994671052632,0.0007470261311910591
-0.005488654671052632,0.0002533227648727025
-0.005488314671052632,-0.0008657381987822392
-0.005487974671052631,-0.002511416086511831
-0.005487634671052632,-0.003465909261392251
-0.005487294671052632,-0.003729217723428708
-0.005486954671052631,-0.003630477050164737
-0.005486614671052632,-0.003465909261392251
-0.005486274671052632,-0.002972205895073894
-0.005485934671052631,-0.002281021182228314
-0.005485594671052632,-0.002346848297737309
-0.005485254671052632,-0.002511416086510094
-0.005484914671052631,-0.002741810990792833
-0.005484574671052632,-0.003202600799355794
-0.005484234671052632,-0.003663390607919593
-0.005483894671052631,-0.004025439743219303
-0.005483554671052632,-0.003795044838937822
-0.005483214671052632,-0.004025439743219721
-0.005482874671052631,-0.004124180416483572
-0.005482534671052632,-0.004222921089747064
-0.005482194671052632,-0.004354575320765292
-0.005481854671052631,-0.00415709397423783
-0.005481514671052632,-0.004091266858728836
-0.005481174671052632,-0.004288748205256179
-0.005480834671052631,-0.003795044838937343
-0.005480494671052632,-0.003531736376901365
-0.005480154671052632,-0.002873465221810222
-0.005479814671052631,-0.002248107624471363
-0.005479474671052632,-0.0009973924298004675
-0.005479134671052632,-0.001096133103064139
-0.005478794671052632,-0.003498822819142437
-0.005478454671052632,-0.01103602754494038
-0.005478114671052632,-0.02538633872592728
-0.005477774671052632,-0.04694471905512297
-0.005477434671052632,-0.07541494651285408
-0.005477094671052632,-0.1079335415743565
-0.005476754671052632,-0.1417357653882252
-0.005476414671052632,-0.1731682130438887
-0.005476074671052632,-0.2002560710758892
-0.005475734671052632,-0.2216498836163124
-0.005475394671052632,-0.2365597252791657
-0.005475054671052632,-0.2455780401039143
-0.005474714671052632,-0.24979097549649
-0.005474374671052632,-0.249988456843025
-0.005474034671052632,-0.247092063760624
-0.005473694671052632,-0.2424183385594854
-0.005473354671052632,-0.2362635032593747
-0.005473014671052632,-0.229549137477445
-0.005472674671052632,-0.2225056361179826
-0.005472334671052632,-0.2151000856231945
-0.005471994671052632,-0.2081224113792284
-0.005471654671052632,-0.2009801693465025
-0.005471314671052632,-0.1943316306800689
-0.005470974671052632,-0.1881438818222122
-0.005470634671052632,-0.1819561329643667
-0.005470294671052632,-0.1757683841064987
-0.005469954671052632,-0.1692185861133418
-0.005469614671052632,-0.162965010139976
-0.005469274671052632,-0.156645607051101
-0.005468934671052632,-0.1507540802130353
-0.005468594671052632,-0.1458499601076063
-0.005468254671052632,-0.141340802695232
-0.005467914671052632,-0.1367658181673485
-0.005467574671052632,-0.1316642167153922
-0.005467234671052632,-0.1273196270917906
-0.005466894671052632,-0.1231396052569619
-0.005466554671052632,-0.1193874596729424
-0.005466214671052631,-0.114647907356278
-0.005465874671052632,-0.1101387499439118
-0.005465534671052632,-0.1056954196470466
-0.005465194671052631,-0.1013508300234381
-0.005464854671052632,-0.09749994376616192
-0.005464514671052632,-0.09345157616235139
-0.005464174671052631,-0.09009439327138218
-0.005463834671052632,-0.0876917035553039
-0.005463494671052632,-0.08601311210982149
-0.005463154671052631,-0.08370916306699956
-0.005462814671052632,-0.08209639873702917
-0.005462474671052632,-0.08022032594501943
-0.005462134671052631,-0.07798220401770461
-0.005461794671052632,-0.07528329228183586
-0.005461454671052632,-0.07215650429515294
-0.005461114671052631,-0.06926011121274664
-0.005460774671052632,-0.06636371813035088
-0.005460434671052632,-0.06336858437468618
-0.005460094671052631,-0.06090006754309153
-0.005459754671052632,-0.05932021677087566
-0.005459414671052632,-0.05806950157620249
-0.005459074671052631,-0.05639091013071762
-0.005458734671052632,-0.05504145426278324
-0.005458394671052632,-0.05296790012424614
-0.005458054671052631,-0.05092725954345845
-0.005457714671052632,-0.04809669357657169
-0.005457374671052632,-0.04510155982090699
-0.005457034671052632,-0.04246847520054721
-0.005456694671052632,-0.040493661735269
-0.005456354671052632,-0.0386505025010138
-0.005456014671052632,-0.03720230595981592
-0.005455674671052632,-0.03608324499615834
-0.005455334671052632,-0.03512875182127619
-0.005454994671052632,-0.03437173999292275
-0.005454654671052632,-0.03351598749130289
-0.005454314671052632,-0.03384512306884846
-0.005453974671052632,-0.03256149431642306
-0.005453634671052632,-0.03206779095010238
-0.005453294671052632,-0.0317386553725568
-0.005452954671052632,-0.03111329777522136
-0.005452614671052632,-0.02973092834952882
-0.005452274671052632,-0.02946761988749236
-0.005451934671052632,-0.02864478094362993
-0.005451594671052632,-0.02772320132650084
-0.005451254671052632,-0.02703201661365514
-0.005450914671052632,-0.02581421497673874
-0.005450574671052632,-0.02528759805266361
-0.005450234671052632,-0.02436601843553601
-0.005449894671052632,-0.02357609304942808
-0.005449554671052632,-0.02295073545209006
-0.005449214671052632,-0.02242411852801714
-0.005448874671052632,-0.02219372362373567
-0.005448534671052632,-0.02186458804618967
-0.005448194671052632,-0.02087718131355296
-0.005447854671052632,-0.01962646611887979
-0.005447514671052632,-0.01821118313543383
-0.005447174671052632,-0.01735543063381535
-0.005446834671052632,-0.01656550524770598
-0.005446494671052632,-0.01636802390117864
-0.005446154671052632,-0.01607180188138762
-0.005445814671052632,-0.01570975274608749
-0.005445474671052631,-0.01584140697710644
-0.005445134671052632,-0.01623636967016041
-0.005444794671052632,-0.01692755438300611
-0.005444454671052631,-0.01722377640279778
-0.005444114671052632,-0.01758582553809725
-0.005443774671052632,-0.01775039332687003
-0.005443434671052631,-0.01679590015198578
-0.005443094671052632,-0.01564392563057838
-0.005442754671052632,-0.01399824774285052
-0.005442414671052631,-0.01199052071981853
-0.005442074671052632,-0.009785312350267215
-0.005441734671052632,-0.008666251386612273
-0.005441394671052631,-0.007613017538465609
-0.005441054671052632,-0.007152227729902647
-0.005440714671052632,-0.007448449749693661
-0.005440374671052631,-0.007909239558257999
-0.005440034671052632,-0.008205461578048474
-0.005439694671052632,-0.008764992059875945
-0.005439354671052631,-0.009028300521912462
-0.005439014671052632,-0.009061214079666959
-0.005438674671052632,-0.008995386964157845
-0.005438334671052631,-0.009028300521911862
-0.005437994671052632,-0.008732078502121389
-0.005437654671052632,-0.008468770040084931
-0.005437314671052631,-0.008337115809065864
-0.005436974671052632,-0.007876326000502903
-0.005436634671052632,-0.007942153116012016
-0.005436294671052632,-0.00754719042295805
-0.005435954671052632,-0.007547190422957332
-0.005435614671052632,-0.008040893789275689
-0.005435274671052632,-0.007909239558257699
-0.005434934671052632,-0.007250968403166318
-0.005434594671052632,-0.006461043017056948
-0.005434254671052632,-0.005736944746458007
-0.005433914671052632,-0.005736944746456691
-0.005433574671052632,-0.005243241380138334
-0.005433234671052632,-0.005473636284419815
-0.005432894671052632,-0.005309068495647449
-0.005432554671052632,-0.005671117630947577
-0.005432214671052632,-0.006362302343792019
-0.005431874671052632,-0.006954746383375304
-0.005431534671052632,-0.007547190422957332
-0.005431194671052632,-0.008271288693556271
-0.005430854671052632,-0.007744671769484675
-0.005430514671052632,-0.007316795518675433
-0.005430174671052632,-0.007152227729902946
-0.005429834671052632,-0.006000253208493148
-0.005429494671052632,-0.005012846475856435
-0.005429154671052632,-0.004288748205257495
-0.005428814671052632,-0.003334255030374022
-0.005428474671052632,-0.002346848297737309
-0.005428134671052632,-0.002050626277946834
-0.005427794671052632,-0.001524009353873381
-0.005427454671052632,-0.001688577142646167
-0.005427114671052632,-0.002215194066719081
-0.005426774671052632,-0.002873465221810222
-0.005426434671052632,-0.00336716858812858
-0.005426094671052632,-0.004025439743219721
-0.005425754671052632,-0.004716624456065421
-0.005425414671052632,-0.005374895611156563
-0.005425074671052632,-0.005802771861965805
-0.005424734671052631,-0.006033166766247705
-0.005424394671052632,-0.006033166766247705
-0.005424054671052632,-0.005309068495647449
-0.005423714671052631,-0.004255834647500303
-0.005423374671052632,-0.003531736376901365
-0.005423034671052632,-0.003038033010583008
-0.005422694671052631,-0.002939292337318618
-0.005422354671052632,-0.002544329644264652
-0.005422014671052632,-0.001853144931418952
-0.005421674671052631,-0.002083539835699236
-0.005421334671052632,-0.00119487377632781
-0.005420994671052632,-0.0009644788720459105
-0.005420654671052631,-0.0008657381987827182
-0.005420314671052632,-0.001129046660818696
-0.005419974671052632,-0.001392355122855153
-0.005419634671052631,-0.001886058489174168
-0.005419294671052632,-0.002248107624473638
-0.005418954671052632,-0.002050626277946295
-0.005418614671052631,-0.001556922911626861
-0.005418274671052632,-0.0009644788720459105
-0.005417934671052632,-0.000207467043691097
-0.005417594671052631,0.0002204092071173072
