Analysis/New Tests/wrd01_d2s01/cmb07_ch02.csv

#Digilent WaveForms Oscilloscope Acquisition
#Device Name: ADP3450
#Serial Number: SN:210018B9D9B0
#Date Time: 2024-08-07 10:21:57.206.094.140
#Sample rate: 2.94118e+06Hz
#Samples: 32768
#Trigger: Source: Channel 3 Type: Edge Condition: Rising Level: 0 V Hyst.: Auto HoldOff: 0 s
#Channel 3: Range: 200 mV/div Offset: 0 V Attenuation: 1 X Coupling: DC Bandwidth: 0 Hz Sample Mode: Average

Time (s),Channel 3 (V)
-0.005570548275862069,0.0139124492330139
-0.005570208275862069,0.01341874586669459
-0.005569868275862069,0.01289212894262263
-0.005569528275862069,0.01328709163567732
-0.005569188275862069,0.01292504250037731
-0.005568848275862069,0.0129908696158863
-0.005568508275862069,0.0134516594244501
-0.005568168275862069,0.01404410346403243
-0.005567828275862069,0.01420867125280492
-0.005567488275862069,0.01434032548382314
-0.005567148275862068,0.01434032548382464
-0.005566808275862069,0.01516316442768707
-0.005566468275862069,0.01355040009771377
-0.005566128275862068,0.01345165942444873
-0.005565788275862069,0.01269464759609529
-0.005565448275862069,0.01190472220998592
-0.005565108275862068,0.01098314259285724
-0.005564768275862069,0.01039069855327629
-0.005564428275862069,0.01068692057306731
-0.005564088275862068,0.01154267307468711
-0.005563748275862069,0.01226677134528605
-0.005563408275862069,0.01410993057954124
-0.005563068275862069,0.01450489327259521
-0.005562728275862069,0.01443906615708682
-0.005562388275862069,0.01407701702178669
-0.005562048275862069,0.01305669673139727
-0.005561708275862069,0.01197054932549503
-0.005561368275862069,0.01085148836184009
-0.005561028275862069,0.009929908744714168
-0.005560688275862069,0.009567859609412364
-0.005560348275862069,0.00950203249390325
-0.005560008275862069,0.00960077316716674
-0.005559668275862069,0.01002864941797616
-0.005559328275862069,0.01045652566878541
-0.005558988275862069,0.01127936461264784
-0.005558648275862069,0.0118388950944768
-0.005558308275862069,0.01272756115384985
-0.005557968275862069,0.01364914077097577
-0.005557628275862069,0.01443906615708682
-0.005557288275862069,0.01559104067849632
-0.005556948275862069,0.01631513894909525
-0.005556608275862069,0.01697341010418771
-0.005556268275862069,0.01776333549029708
-0.005555928275862069,0.01894822356945898
-0.005555588275862069,0.02256871492246242
-0.005555248275862069,0.03211364667128398
-0.005554908275862069,0.04919578314586805
-0.005554568275862069,0.07355181588427137
-0.005554228275862069,0.1039968568072367
-0.005553888275862069,0.1379307348521851
-0.005553548275862069,0.1722924891479427
-0.005553208275862069,0.2041198994965994
-0.005552868275862069,0.2308457083932998
-0.005552528275862069,0.2516799904519345
-0.005552188275862069,0.2663265236527124
-0.005551848275862069,0.2754764927084792
-0.005551508275862069,0.2796894281010626
-0.005551168275862069,0.2797552552165716
-0.005550828275862069,0.2767601214609069
-0.005550488275862069,0.2716256064511845
-0.005550148275862069,0.2652732898045665
-0.005549808275862069,0.2579335664253003
-0.005549468275862069,0.2501988803529663
-0.005549128275862069,0.2429908112047314
-0.005548788275862069,0.2356510878254651
-0.005548448275862069,0.2281797102151679
-0.005548108275862069,0.22116912241346
-0.005547768275862069,0.2133356956678754
-0.005547428275862069,0.2044819486318845
-0.005547088275862069,0.1961877320777511
-0.005546748275862069,0.1885517866786939
-0.005546408275862068,0.1812449768571709
-0.005546068275862069,0.1750572279993255
-0.005545728275862069,0.1697581452008418
-0.005545388275862068,0.1648869386531585
-0.005545048275862069,0.1600157321054929
-0.005544708275862069,0.1557369695974005
-0.005544368275862068,0.1510303308384903
-0.005544028275862069,0.1463236920795971
-0.005543688275862069,0.1415512262051864
-0.005543348275862068,0.1368775010040294
-0.005543008275862069,0.1314796775322919
-0.005542668275862069,0.1264109896380901
-0.005542328275862069,0.121243561070634
-0.005541988275862069,0.1160432189454046
-0.005541648275862069,0.1117644564373122
-0.005541308275862069,0.1076831752757545
-0.005540968275862069,0.1047538686355915
-0.005540628275862069,0.1018903891109451
-0.005540288275862069,0.09984974853016622
-0.005539948275862069,0.09738123169857071
-0.005539608275862069,0.09550515890656097
-0.005539268275862069,0.09379365390332711
-0.005538928275862069,0.09234545736212349
-0.005538588275862069,0.09089726082092298
-0.005538248275862069,0.08800086773852722
-0.005537908275862069,0.08684889321711245
-0.005537568275862069,0.08441328994327524
-0.005537228275862069,0.08194477311168794
-0.005536888275862069,0.07927877493356431
-0.005536548275862069,0.0766127767554452
-0.005536208275862069,0.07312393963346848
-0.005535868275862069,0.0706883363596249
-0.005535528275862069,0.06845021443231503
-0.005535188275862069,0.06585004336970975
-0.005534848275862069,0.06374357567341335
-0.005534508275862069,0.06147254018834892
-0.005534168275862069,0.05920150470328861
-0.005533828275862069,0.05722669123801106
-0.005533488275862069,0.05610763027435611
-0.005533148275862069,0.05472526084866471
-0.005532808275862069,0.05340871853848243
-0.005532468275862069,0.05176304065075458
-0.005532128275862069,0.05024901699404495
-0.005531788275862069,0.04893247468386266
-0.005531448275862069,0.04735262391164392
-0.005531108275862069,0.04550946467738873
-0.005530768275862069,0.04435749015597923
-0.005530428275862069,0.04323842919232428
-0.005530088275862069,0.04267889871049681
-0.005529748275862069,0.04152692418908492
-0.005529408275862069,0.04021038187890503
-0.005529068275862069,0.03830139552914072
-0.005528728275862069,0.03603036004407616
-0.005528388275862069,0.03596453292856716
-0.005528048275862069,0.03570122446653071
-0.005527708275862069,0.03606327360183138
-0.005527368275862069,0.03635949562162185
-0.005527028275862069,0.03652406341039464
-0.005526688275862069,0.03662280408365771
-0.005526348275862069,0.03629366850611274
-0.005526008275862069,0.03527334821572146
-0.005525668275862069,0.0339897194632911
-0.005525328275862069,0.03254152292209322
-0.005524988275862069,0.03138954840068373
-0.005524648275862068,0.03007300609049929
-0.005524308275862069,0.02888811801133739
-0.005523968275862069,0.02862480954930093
-0.005523628275862068,0.02865772310705585
-0.005523288275862069,0.02885520445358283
-0.005522948275862069,0.02892103156909194
-0.005522608275862068,0.02925016714663757
-0.005522268275862069,0.02928308070439207
-0.005521928275862069,0.02862480954930093
-0.005521588275862068,0.02767031637441722
-0.005521248275862069,0.02681456387280029
-0.005520908275862069,0.02582715714016358
-0.005520568275862069,0.02483975040752866
-0.005520228275862069,0.02345738098183546
-0.005519888275862069,0.02273328271123521
-0.005519548275862069,0.02217375222940875
-0.005519208275862069,0.02233832001818052
-0.005518868275862069,0.02368777588611736
-0.005518528275862069,0.02434604704120731
-0.005518188275862069,0.02493849108079053
-0.005517848275862069,0.02454352838773585
-0.005517508275862069,0.02411565213692738
-0.005517168275862069,0.02358903521285369
-0.005516828275862069,0.02312824540428989
-0.005516488275862069,0.02237123357593646
-0.005516148275862069,0.02148256751656204
-0.005515808275862069,0.02085720991922545
-0.005515468275862069,0.02042933366841699
-0.005515128275862069,0.02006728453311608
-0.005514788275862069,0.01957358116679772
-0.005514448275862069,0.01947484049353423
-0.005514108275862069,0.01924444558925215
-0.005513768275862069,0.01924444558925215
-0.005513428275862069,0.01947484049353363
-0.005513088275862069,0.01947484049353405
-0.005512748275862069,0.01881656933844291
-0.005512408275862069,0.01838869308763367
-0.005512068275862069,0.01796081683682443
-0.005511728275862069,0.01743419991275151
-0.005511388275862069,0.01700632366194227
-0.005511048275862069,0.01647970673786936
-0.005510708275862069,0.01647970673786936
-0.005510368275862069,0.01654553385337847
-0.005510028275862069,0.01671010164215126
-0.005509688275862069,0.01756585414376974
-0.005509348275862069,0.01707215077745139
-0.005509008275862069,0.01723671856622471
-0.005508668275862069,0.01753294058601518
-0.005508328275862069,0.01796081683682443
-0.005507988275862069,0.01805955751008684
-0.005507648275862069,0.0173683727972424
-0.005507308275862069,0.01717089145071506
-0.005506968275862069,0.0173683727972409
-0.005506628275862069,0.01654553385337847
-0.005506288275862069,0.01601891692930556
-0.005505948275862069,0.01493276952340344
-0.005505608275862069,0.01397827634852302
-0.005505268275862069,0.01364914077097745
-0.005504928275862069,0.01364914077097787
-0.005504588275862069,0.01387953567525935
-0.005504248275862069,0.0150644237544234
-0.005503908275862068,0.01559104067849691
-0.005503568275862069,0.01592017625604189
-0.005503228275862069,0.01657844741113303
-0.005502888275862068,0.0171379778929605
-0.005502548275862069,0.0171379778929605
-0.005502208275862069,0.0173683727972424
-0.005501868275862068,0.01815829818335237
-0.005501528275862069,0.01848743376089734
-0.005501188275862069,0.01888239645395202
-0.005500848275862068,0.01852034731865148
-0.005500508275862069,0.01828995241437
-0.005500168275862069,0.01753294058601518
-0.005499828275862069,0.01773042193254216
-0.005499488275862069,0.01684175587316948
-0.005499148275862069,0.01605183048706011
-0.005498808275862069,0.01578852202502413
-0.005498468275862069,0.01565686779400543
-0.005498128275862069,0.01516316442768707
-0.005497788275862069,0.01496568308116009
-0.005497448275862069,0.01476820173463239
-0.005497108275862069,0.01430741192606859
-0.005496768275862069,0.01368205432873314
-0.005496428275862069,0.01358331365546833
-0.005496088275862069,0.01361622721322289
-0.005495748275862069,0.01394536279076786
-0.005495408275862069,0.01457072038810504
-0.005495068275862069,0.0152948186587053
-0.005494728275862069,0.01641387962235821
-0.005494388275862069,0.0171379778929605
-0.005494048275862069,0.0180595575100881
-0.005493708275862069,0.01848743376089656
-0.005493368275862069,0.01809247106784265
-0.005493028275862069,0.01769750837478797
-0.005492688275862069,0.01786207616356046
-0.005492348275862069,0.01796081683682443
-0.005492008275862069,0.01773042193254253
-0.005491668275862069,0.01769750837478803
-0.005491328275862069,0.01756585414376974
-0.005490988275862069,0.01773042193254253
-0.005490648275862069,0.01720380500846961
-0.005490308275862069,0.01664427452664214
-0.005489968275862069,0.01605183048706011
-0.005489628275862069,0.01582143558277821
-0.005489288275862069,0.01532773221645986
-0.005488948275862069,0.01470237461912327
-0.005488608275862069,0.01420867125280492
-0.005488268275862069,0.01387953567525911
-0.005487928275862069,0.01374788144424112
-0.005487588275862069,0.01430741192606859
-0.005487248275862069,0.0148669424078972
-0.005486908275862069,0.01549230000523264
-0.005486568275862069,0.01631513894909657
-0.005486228275862069,0.01717089145071577
-0.005485888275862069,0.01756585414376974
-0.005485548275862069,0.0169075829886786
-0.005485208275862069,0.01598600337155034
-0.005484868275862069,0.01562395423625087
-0.005484528275862069,0.01473528817687783
-0.005484188275862069,0.01480111529238802
-0.005483848275862069,0.01539355933196897
-0.005483508275862069,0.01549230000523264
-0.005483168275862069,0.01611765760256959
-0.005482828275862069,0.01631513894909657
-0.005482488275862069,0.01677592875766037
-0.005482148275862068,0.01759876770152388
-0.005481808275862069,0.0173683727972424
-0.005481468275862069,0.0171379778929605
-0.005481128275862068,0.01611765760256989
-0.005480788275862069,0.01647970673786936
-0.005480448275862069,0.01562395423625087
-0.005480108275862068,0.01450489327259348
-0.005479768275862069,0.01315543740465909
-0.005479428275862069,0.01223385778753149
-0.005479088275862069,0.01180598153672303
-0.005478748275862069,0.01170724086345858
-0.005478408275862069,0.01233259846079516
-0.005478068275862069,0.01387953567525653
-0.005477728275862069,0.01424158481055947
-0.005477388275862069,0.0148340288501415
-0.005477048275862069,0.0148998559656505
-0.005476708275862069,0.01526190510095074
-0.005476368275862069,0.01516316442768707
-0.005476028275862069,0.01466946106136961
-0.005475688275862069,0.01420867125280492
-0.005475348275862069,0.01364914077097745
-0.005475008275862069,0.01272756115385152
-0.005474668275862069,0.01193763576774048
-0.005474328275862069,0.01170724086345858
-0.005473988275862069,0.01210220355651254
-0.005473648275862069,0.01282630182711352
-0.005473308275862069,0.01289212894262263
-0.005472968275862069,0.0133200051934311
-0.005472628275862069,0.0141428441372958
-0.005472288275862069,0.01453780683035049
-0.005471948275862069,0.01526190510094943
-0.005471608275862069,0.0146036339458596
-0.005471268275862069,0.01526190510095074
-0.005470928275862069,0.01516316442768725
-0.005470588275862069,0.01532773221645986
-0.005470248275862069,0.01486694240789606
-0.005469908275862069,0.01496568308115973
-0.005469568275862069,0.01516316442768707
-0.005469228275862069,0.0155252135629872
-0.005468888275862069,0.01624931183358745
-0.005468548275862069,0.01647970673786936
-0.005468208275862069,0.01733545923948784
-0.005467868275862069,0.01746711347050607
-0.005467528275862069,0.01753294058601518
-0.005467188275862069,0.01819121174110632
-0.005466848275862069,0.01822412529886088
-0.005466508275862069,0.0174671134705041
-0.005466168275862069,0.01638096606460569
-0.005465828275862069,0.01592017625604189
-0.005465488275862069,0.01539355933196855
-0.005465148275862069,0.01516316442768707
-0.005464808275862069,0.01499859663891429
-0.005464468275862069,0.01483402885014246
-0.005464128275862069,0.01536064577421441
-0.005463788275862069,0.01618348471807834
-0.005463448275862069,0.01598600337154992
-0.005463108275862069,0.01539355933196897
-0.005462768275862069,0.01555812712074176
-0.005462428275862069,0.01578852202502353
-0.005462088275862069,0.01572269490951454
-0.005461748275862069,0.01447197971484137
-0.005461408275862068,0.0140111899062768
-0.005461068275862069,0.01358331365546833
-0.005460728275862069,0.01328709163567732
-0.005460388275862068,0.01328709163567839
-0.005460048275862069,0.01387953567525935
-0.005459708275862069,0.01371496788648656
-0.005459368275862068,0.01450489327259815
-0.005459028275862069,0.01572269490951454
-0.005458688275862069,0.01608474404481467
-0.005458348275862068,0.01657844741113297
-0.005458008275862069,0.01654553385337847
-0.005457668275862069,0.01618348471807834
-0.005457328275862069,0.01582143558277887
-0.005456988275862069,0.0152948186587053
-0.005456648275862069,0.01470237461912327
-0.005456308275862069,0.0143732390415783
-0.005455968275862069,0.01417575769505036
-0.005455628275862069,0.01420867125280492
-0.005455288275862069,0.01427449836831391
-0.005454948275862069,0.0146036339458596
-0.005454608275862069,0.01582143558277821
-0.005454268275862069,0.01674301519990414
-0.005453928275862069,0.01809247106784265
-0.005453588275862069,0.01881656933844291
-0.005453248275862069,0.01848743376089794
-0.005452908275862069,0.01812538462559721
-0.005452568275862069,0.01710506433520594
-0.005452228275862069,0.01733545923948742
-0.005451888275862069,0.01657844741113303
-0.005451548275862069,0.01624931183358745
-0.005451208275862069,0.01605183048706047
-0.005450868275862069,0.015986003371551
-0.005450528275862069,0.01568978135175999
-0.005450188275862069,0.01611765760256845
-0.005449848275862069,0.01572269490951454
-0.005449508275862069,0.01578852202502366
-0.005449168275862069,0.0153277322164607
-0.005448828275862069,0.01493276952340517
-0.005448488275862069,0.01466946106136872
-0.005448148275862069,0.01401118990627757
-0.005447808275862069,0.01335291875118643
-0.005447468275862069,0.0129908696158863
-0.005447128275862069,0.01246425269181339
-0.005446788275862069,0.01177306797896769
-0.005446448275862069,0.01216803067202238
-0.005446108275862069,0.0127604747116044
-0.005445768275862069,0.01345165942445202
-0.005445428275862069,0.01450489327259593
-0.005445088275862069,0.01516316442768707
-0.005444748275862069,0.01545938644747863
-0.005444408275862069,0.0157556084672691
-0.005444068275862069,0.01582143558277821
-0.005443728275862069,0.0162163982758326
-0.005443388275862069,0.01605183048706011
-0.005443048275862069,0.01601891692930556
-0.005442708275862069,0.01522899154319427
-0.005442368275862069,0.01417575769505036
-0.005442028275862069,0.01351748653995922
-0.005441688275862069,0.01213511711426716
-0.005441348275862069,0.01177306797896769
-0.005441008275862069,0.01174015442121313
-0.005440668275862068,0.01216803067202327
-0.005440328275862069,0.01266173403834073
-0.005439988275862069,0.0132212645201682
-0.005439648275862068,0.01368205432873302
-0.005439308275862069,0.01424158481055947
-0.005438968275862069,0.01473528817687783
-0.005438628275862068,0.01483402885014156
-0.005438288275862069,0.01486694240789606
-0.005437948275862069,0.01539355933196897
-0.005437608275862068,0.01565686779400555
-0.005437268275862069,0.01572269490951454
-0.005436928275862069,0.01503151019666884
-0.005436588275862069,0.01424158481056091
-0.005436248275862069,0.01305669673139542
-0.005435908275862069,0.01295795605813175
-0.005435568275862069,0.01272756115385027
-0.005435228275862069,0.01266173403834073
-0.005434888275862069,0.0127604747116044
-0.005434548275862069,0.01305669673139488
-0.005434208275862069,0.01397827634852302
-0.005433868275862069,0.0132212645201682
-0.005433528275862069,0.008547539319029596
-0.005433188275862069,-0.003827958396692379
-0.005432848275862069,-0.02393814218472677
-0.005432508275862069,-0.05171718492952244
-0.005432168275862069,-0.08410412576005716
-0.005431828275862069,-0.1187291885178512
-0.005431488275862069,-0.1517744005033665
-0.005431148275862069,-0.181396602482528
-0.005430808275862069,-0.2057197216631457
-0.005430468275862069,-0.2241184004479096
-0.005430128275862069,-0.236460984605902
-0.005429788275862069,-0.2428791283680407
-0.005429448275862069,-0.244886855391065
-0.005429108275862069,-0.2431424368300771
-0.005428768275862069,-0.2388636743219847
-0.005428428275862069,-0.2332683695037202
-0.005428088275862069,-0.2261590410287256
-0.005427748275862069,-0.2179306515900864
-0.005427408275862069,-0.2094060401316561
-0.005427068275862069,-0.2007826879999621
-0.005426728275862069,-0.1931467426009049
-0.005426388275862069,-0.1863336361457116
-0.005426048275862069,-0.1800142330568366
-0.005425708275862069,-0.174484755354071
-0.005425368275862069,-0.1690540183245691
-0.005425028275862069,-0.1631624914865033
-0.005424688275862069,-0.1576659273414923
-0.005424348275862069,-0.1512477835793537
-0.005424008275862069,-0.1444017635663962
-0.005423668275862069,-0.1391355943256767
-0.005423328275862069,-0.1332111539298564
-0.005422988275862069,-0.1275171084383095
-0.005422648275862069,-0.1228433832371709
-0.005422308275862069,-0.1173139055344053
-0.005421968275862069,-0.111916082062649
-0.005421628275862069,-0.1070119619572289
-0.005421288275862069,-0.1025357181026091
-0.005420948275862069,-0.09776325222819059
-0.005420608275862069,-0.09348448972010595
-0.005420268275862069,-0.09012730682914111
-0.005419928275862069,-0.08614476634083294
-0.005419588275862069,-0.08242553431457475
-0.005419248275862069,-0.07877212940381892
-0.005418908275862068,-0.07452628045347465
-0.005418568275862069,-0.07100452977374344
-0.005418228275862069,-0.06794356890256961
-0.005417888275862068,-0.06527757072444733
-0.005417548275862069,-0.06353315216345898
-0.005417208275862069,-0.06188747427573112
-0.005416868275862068,-0.06017596927249103
-0.005416528275862069,-0.05846446426925718
-0.005416188275862069,-0.05602886099541995
-0.005415848275862068,-0.05326412214403171
-0.005415508275862069,-0.05026898838837246
-0.005415168275862069,-0.04687889193965308
-0.005414828275862069,-0.04342296837543087
-0.005414488275862069,-0.03996704481119608
-0.005414148275862069,-0.03710356528654962
-0.005413808275862069,-0.03493127047475279
-0.005413468275862069,-0.0331210247982482
-0.005413128275862069,-0.03206779095010238
-0.005412788275862069,-0.03131077912174893
-0.005412448275862069,-0.03094872998644744
-0.005412108275862069,-0.03032337238911085
