Analysis/New Tests/wrd01_d2s01/cmb08_ch32.csv

#Digilent WaveForms Oscilloscope Acquisition
#Device Name: ADP3450
#Serial Number: SN:210018B9D9B0
#Date Time: 2024-08-06 16:58:20.730.747.360
#Sample rate: 2.94118e+06Hz
#Samples: 32768
#Trigger: Source: Channel 3 Type: Edge Condition: Rising Level: 60 mV Hyst.: Auto HoldOff: 0 s
#Channel 3: Range: 200 mV/div Offset: -20 mV Attenuation: 1 X Coupling: DC Bandwidth: 0 Hz Sample Mode: Average

Time (s),Channel 3 (V)
-0.005570349562130178,0.01862298504940524
-0.005570009562130177,0.01809636812533209
-0.005569669562130178,0.0179647138943141
-0.005569329562130178,0.01852424437614157
-0.005568989562130177,0.01895212062695117
-0.005568649562130178,0.01914960197347816
-0.005568309562130178,0.01947873755102373
-0.005567969562130177,0.01921542908898637
-0.005567629562130178,0.01872172572266892
-0.005567289562130178,0.01789888677880499
-0.005566949562130177,0.01707604783493962
-0.005566609562130178,0.01628612244883169
-0.005566269562130178,0.01585824619802245
-0.005565929562130177,0.01519997504293059
-0.005565589562130178,0.01480501234987662
-0.005565249562130178,0.01457461744559472
-0.005564909562130177,0.01467335811885749
-0.005564569562130178,0.01417965475254003
-0.005564229562130178,0.01375177850173079
-0.005563889562130177,0.01342264292418408
-0.005563549562130178,0.01279728532684864
-0.005563209562130178,0.01213901417175749
-0.005562869562130178,0.01118452099687707
-0.005562529562130178,0.01055916339953875
-0.005562189562130178,0.01026294137974774
-0.005561849562130178,0.009933805802202765
-0.005561509562130178,0.009802151571183939
-0.005561169562130178,0.009966719359956725
-0.005560829562130178,0.01101995320810064
-0.005560489562130178,0.01151365657442091
-0.005560149562130178,0.01246814974930307
-0.005559809562130178,0.01118452099687767
-0.005559469562130178,0.01177696503645737
-0.005559129562130178,0.01078955830382065
-0.005558789562130178,0.01085538541932965
-0.005558449562130178,0.01039459561076597
-0.005558109562130178,0.01072373118831154
-0.005557769562130178,0.01072373118831154
-0.005557429562130177,0.01049333628402964
-0.005557089562130178,0.01036168205301141
-0.005556749562130178,0.01029585493750241
-0.005556409562130177,0.009374275320374697
-0.005556069562130178,0.009209707531601911
-0.005555729562130178,0.009275534647110905
-0.005555389562130177,0.009045139742829125
-0.005555049562130178,0.008090646567946969
-0.005554709562130178,0.007662770317138505
-0.005554369562130177,0.007366548297346712
-0.005554029562130178,0.007333634739592155
-0.005553689562130178,0.007300721181837598
-0.005553349562130177,0.008419782145492541
-0.005553009562130178,0.009275534647111025
-0.005552669562130178,0.01016420070648407
-0.005552329562130177,0.01042750916852052
-0.005551989562130178,0.01052624984178419
-0.005551649562130178,0.009769238013429382
-0.005551309562130177,0.009110966858336981
-0.005550969562130178,0.008419782145492541
-0.005550629562130178,0.007662770317137727
-0.005550289562130177,0.007267807624082264
-0.005549949562130178,0.0068399313732738
-0.005549609562130178,0.006346228006955442
-0.005549269562130177,0.005786697525127193
-0.005548929562130178,0.005358821274318729
-0.005548589562130178,0.006313314449200885
-0.005548249562130177,0.007860251663666626
-0.005547909562130178,0.008716004165283554
-0.005547569562130178,0.00967049734016571
-0.005547229562130177,0.009867978686692992
-0.005546889562130178,0.009835065128938496
-0.005546549562130178,0.008814744838547226
-0.005546209562130177,0.00743237541285481
-0.005545869562130178,0.006872844931028356
-0.005545529562130178,0.006576622911237342
-0.005545189562130177,0.006872844931028177
-0.005544849562130178,0.006774104257764684
-0.005544509562130178,0.006379141564709999
-0.005544169562130177,0.005720870409618079
-0.005543829562130178,0.005292994158809615
-0.005543489562130178,0.00377897050209999
-0.005543149562130177,0.003219440020270661
-0.005542809562130178,0.002199119729881245
-0.005542469562130178,0.001573762132544662
-0.005542129562130178,0.002100379056616617
-0.005541789562130178,0.003351094251290744
-0.005541449562130178,0.005391734832073286
-0.005541109562130178,0.006313314449199209
-0.005540769562130178,0.006905758488782913
-0.005540429562130178,0.0068399313732738
-0.005540089562130178,0.005819611082884384
-0.005539749562130178,0.005292994158809615
-0.005539409562130178,0.005457561947582401
-0.005539069562130178,0.005556302620845892
-0.005538729562130178,0.005819611082882528
-0.005538389562130178,0.005984178871655314
-0.005538049562130178,0.006543709353481767
-0.005537709562130178,0.006642450026746457
-0.005537369562130178,0.006741190700010127
-0.005537029562130178,0.006872844931028117
-0.005536689562130177,0.0068399313732738
-0.005536349562130178,0.007004499162046584
-0.005536009562130178,0.006609536468992617
-0.005535669562130177,0.006280400891446328
-0.005535329562130178,0.006971585604292027
-0.005534989562130178,0.00776151099039996
-0.005534649562130177,0.008222300798965198
-0.005534309562130178,0.009012226185074568
-0.005533969562130178,0.009736324455673507
-0.005533629562130177,0.009440102435883811
-0.005533289562130178,0.009341361762620138
-0.005532949562130178,0.008288127914474312
-0.005532609562130177,0.0068399313732738
-0.005532269562130178,0.005424648389827843
-0.005531929562130178,0.004173933195154675
-0.005531589562130177,0.002989045115990616
-0.005531249562130178,0.002791563769463275
-0.005530909562130178,0.002824477327217832
-0.005530569562130177,0.003153612904763403
-0.005530229562130178,0.004009365406381887
-0.005529889562130178,0.004371414541682016
-0.005529549562130177,0.0052271670433005
-0.005529209562130178,0.0052271670433005
-0.005528869562130178,0.005260080601055058
-0.005528529562130177,0.005786697525129229
-0.005528189562130178,0.006477882237973671
-0.005527849562130178,0.006741190700010127
-0.005527509562130177,0.00674119070000911
-0.005527169562130178,0.006181660218182656
-0.005526829562130178,0.006444968680219114
-0.005526489562130177,0.006050005987164369
-0.005526149562130178,0.00601709242940987
-0.005525809562130178,0.006313314449200885
-0.005525469562130177,0.006313314449201364
-0.005525129562130178,0.006576622911237342
-0.005524789562130178,0.005852524640637086
-0.005524449562130177,0.005523389063090856
-0.005524109562130178,0.005161339927791386
-0.005523769562130178,0.005589216178600628
-0.005523429562130177,0.006181660218184632
-0.005523089562130178,0.007267807624083042
-0.005522749562130178,0.008222300798965198
-0.005522409562130177,0.008650177049775038
-0.005522069562130178,0.008979312627320012
-0.005521729562130178,0.009012226185074568
-0.005521389562130177,0.008847658396299987
-0.005521049562130178,0.007860251663665069
-0.005520709562130178,0.006543709353482785
-0.005520369562130178,0.005457561947584377
-0.005520029562130178,0.005194253485545943
-0.005519689562130178,0.00489803146575493
-0.005519349562130178,0.004470155214946466
-0.005519009562130178,0.005523389063091515
-0.005518669562130178,0.005753783967373414
-0.005518329562130178,0.006214573775936375
-0.005517989562130178,0.006412055122464556
-0.005517649562130178,0.007070326277555699
-0.005517309562130178,0.007037412719801202
-0.005516969562130178,0.007201980508573926
-0.005516629562130178,0.006807017815519241
-0.005516289562130178,0.006774104257764744
-0.005515949562130178,0.00693867204653747
-0.005515609562130178,0.005819611082882528
-0.005515269562130178,0.006576622911235964
-0.005514929562130177,0.007596943201628613
-0.005514589562130178,0.008288127914474312
-0.005514249562130178,0.008979312627318754
-0.005513909562130177,0.008485609261001654
-0.005513569562130178,0.008123560125701526
-0.005513229562130178,0.007662770317138565
-0.005512889562130177,0.006280400891446328
-0.005512549562130178,0.00489803146575493
-0.005512209562130178,0.003548575597818088
-0.005511869562130177,0.003054872231499733
-0.005511529562130178,0.00249534174967226
-0.005511189562130178,0.002890304442726945
-0.005510849562130177,0.004206846752909232
-0.005510509562130178,0.005655043294109744
-0.005510169562130178,0.007103239835310256
-0.005509829562130177,0.007761510990401397
-0.005509489562130178,0.008222300798965198
-0.005509149562130178,0.008386868587737984
-0.005508809562130177,0.008419782145491043
-0.005508469562130178,0.007596943201628613
-0.005508129562130178,0.007333634739592155
-0.005507789562130177,0.006741190700009289
-0.005507449562130178,0.006280400891446328
-0.005507109562130178,0.0059183517561462
-0.005506769562130177,0.005260080601052544
-0.005506429562130178,0.00387771117536366
-0.005506089562130178,0.002923218000481502
-0.005505749562130177,0.001771243479071823
-0.005505409562130178,0.001672502805808333
-0.005505069562130178,0.002330773960899476
-0.005504729562130177,0.003581489155574681
-0.005504389562130178,0.004700550119227587
-0.005504049562130178,0.006576622911237342
-0.005503709562130177,0.007958992336930955
-0.005503369562130178,0.009176793973847354
-0.005503029562130178,0.01013128714872951
-0.005502689562130177,0.01065790407280194
-0.005502349562130178,0.01039459561076597
-0.005502009562130178,0.00967049734016571
-0.005501669562130177,0.00858434993426401
-0.005501329562130178,0.007860251663665069
-0.005500989562130178,0.007037412719801142
-0.005500649562130177,0.00713615339306625
-0.005500309562130178,0.007926078779174183
-0.005499969562130178,0.009275534647111025
-0.005499629562130178,0.01088829897708139
-0.005499289562130178,0.01184279215196648
-0.005498949562130178,0.01220484128726661
-0.005498609562130178,0.01151365657442216
-0.005498269562130178,0.01082247186157521
-0.005497929562130178,0.009538843109147481
-0.005497589562130178,0.0081235601257041
-0.005497249562130178,0.007366548297346712
-0.005496909562130178,0.0068399313732738
-0.005496569562130178,0.006774104257764804
-0.005496229562130178,0.007399461855101271
-0.005495889562130178,0.007564029643874055
-0.005495549562130178,0.008485609260999978
-0.005495209562130178,0.009110966858338239
-0.005494869562130178,0.009209707531601911
-0.005494529562130178,0.008847658396302442
-0.005494189562130177,0.008419782145492541
-0.005493849562130178,0.00772859743264684
-0.005493509562130178,0.0070044991620479
-0.005493169562130177,0.005687956851864301
-0.005492829562130178,0.004799290792491258
-0.005492489562130178,0.004173933195155813
-0.005492149562130177,0.003811884059854546
-0.005491809562130178,0.00328526713578163
-0.005491469562130178,0.00354857559781761
-0.005491129562130177,0.004108106079645558
-0.005490789562130178,0.00489803146575493
-0.005490449562130178,0.006379141564709999
-0.005490109562130177,0.00762985675938317
-0.005489769562130178,0.009078053300583682
-0.005489429562130178,0.009637583782411153
-0.005489089562130177,0.009933805802202166
-0.005488749562130178,0.01016420070648407
-0.005488409562130178,0.009835065128938496
-0.005488069562130177,0.008748917723035956
-0.005487729562130178,0.007564029643874055
-0.005487389562130178,0.006313314449200885
-0.005487049562130177,0.005227167043298404
-0.005486709562130178,0.004075192521891001
-0.005486369562130178,0.003416921366799861
-0.005486029562130177,0.003021958673745415
-0.005485689562130178,0.003153612904763403
-0.005485349562130178,0.003746056944345429
-0.005485009562130177,0.004173933195156471
-0.005484669562130178,0.005161339927791386
-0.005484329562130178,0.005292994158809615
-0.005483989562130177,0.00489803146575487
-0.005483649562130178,0.004865117908000373
-0.005483309562130178,0.004799290792491258
-0.005482969562130177,0.005029685696773875
-0.005482629562130178,0.005424648389827843
-0.005482289562130178,0.005819611082882528
-0.005481949562130177,0.005589216178600748
-0.005481609562130178,0.005655043294109744
-0.005481269562130178,0.005819611082882528
-0.005480929562130177,0.005852524640637805
-0.005480589562130178,0.006247487333691772
-0.005480249562130178,0.006576622911237342
-0.005479909562130177,0.006741190700010127
-0.005479569562130178,0.006741190700010127
-0.005479229562130178,0.006313314449200885
-0.005478889562130178,0.004404328099440045
-0.005478549562130178,-0.001980902104947505
-0.005478209562130178,-0.01534380655329769
-0.005477869562130178,-0.03729714957554735
-0.005477529562130178,-0.06566863636001552
-0.005477189562130178,-0.09831888565253616
-0.005476849562130178,-0.1315615789845784
-0.005476509562130178,-0.161644570772304
-0.005476169562130178,-0.1878766763026861
-0.005475829562130178,-0.2082830821104744
-0.005475489562130178,-0.2225675661759892
-0.005475149562130178,-0.2318491894627743
-0.005474809562130178,-0.2361608655286135
-0.005474469562130178,-0.2373457536077854
-0.005474129562130178,-0.2344493605253843
-0.005473789562130178,-0.2301376844595452
-0.005473449562130177,-0.2244765525257535
-0.005473109562130178,-0.217235569819751
-0.005472769562130178,-0.2098300193249891
-0.005472429562130177,-0.2023915552724457
-0.005472089562130178,-0.1947226963156339
-0.005471749562130178,-0.187777935629435
-0.005471409562130177,-0.1805698664811744
-0.005471069562130178,-0.1734934515639446
-0.005470729562130178,-0.1665157773199912
-0.005470389562130177,-0.1602622013466126
-0.005470049562130178,-0.1539098846999831
-0.005469709562130178,-0.1485449747859903
-0.005469369562130177,-0.1442332987201433
-0.005469029562130178,-0.1400532768853146
-0.005468689562130178,-0.1362682177435405
-0.005468349562130177,-0.1313970111958661
-0.005468009562130178,-0.1275461249385829
-0.005467669562130178,-0.1229711404106994
-0.005467329562130177,-0.1181986745362887
-0.005466989562130178,-0.1128008510645413
-0.005466649562130178,-0.1081271258633942
-0.005466309562130177,-0.1030913515269397
-0.005465969562130178,-0.09914172459640008
-0.005465629562130178,-0.09529083833911692
-0.005465289562130177,-0.09246027237222056
-0.005464949562130178,-0.09002466909838777
-0.005464609562130178,-0.08706244890047762
-0.005464269562130177,-0.08393566091378811
-0.005463929562130178,-0.08031516956079343
-0.005463589562130178,-0.07662885109228301
-0.005463249562130177,-0.07294253262376628
-0.005462909562130178,-0.06945369550178956
-0.005462569562130178,-0.06616233972633387
-0.005462229562130177,-0.06359508222147225
-0.005461889562130178,-0.06020498577275903
-0.005461549562130178,-0.05780229605667635
-0.005461209562130177,-0.05556417412936229
-0.005460869562130178,-0.05326022508654748
-0.005460529562130178,-0.05079170825495569
-0.005460189562130177,-0.04868524055866021
-0.005459849562130178,-0.04657877286237238
-0.005459509562130178,-0.04542679834096289
-0.005459169562130177,-0.04427482381955166
-0.005458829562130178,-0.04332033064467123
-0.005458489562130178,-0.04187213410347072
-0.005458149562130177,-0.04025936977349311
-0.005457809562130178,-0.03788959361516931
-0.005457469562130178,-0.03532233611031386
-0.005457129562130178,-0.03305130062525354
-0.005456789562130178,-0.03117522783323966
-0.005456449562130178,-0.02923332792572079
-0.005456109562130178,-0.02821300763533138
-0.005455769562130178,-0.02765347715350205
-0.005455429562130178,-0.02689646532514724
-0.005455089562130178,-0.02620528061230279
-0.005454749562130178,-0.02482291118661014
-0.005454409562130178,-0.0234734553186733
-0.005454069562130178,-0.02238730791277489
-0.005453729562130178,-0.02136698762238164
-0.005453389562130178,-0.02064288935178139
-0.005453049562130178,-0.0204783215630089
-0.005452709562130178,-0.01942508771486277
-0.005452369562130178,-0.01837185386671695
-0.005452029562130178,-0.01731862001857303
-0.005451689562130177,-0.01564002857308871
-0.005451349562130178,-0.01422474558964275
-0.005451009562130178,-0.01254615414416339
-0.005450669562130177,-0.01086756269867793
-0.005450329562130178,-0.009452279715231968
-0.005449989562130178,-0.008859835675651019
-0.005449649562130177,-0.008728181444631711
-0.005449309562130178,-0.008695267886877155
-0.005448969562130178,-0.009386452599721597
-0.005448629562130177,-0.009616847504004756
-0.005448289562130178,-0.009616847504004756
-0.005447949562130178,-0.01001181019705944
-0.005447609562130177,-0.01017637798583223
-0.005447269562130178,-0.009386452599722855
-0.005446929562130178,-0.008366132309331583
-0.005446589562130177,-0.006885022210376516
-0.005446249562130178,-0.005502652784685116
-0.005445909562130178,-0.003955715570220932
-0.005445569562130177,-0.001980902104943733
-0.005445229562130178,9.265203358959154e-05
-0.005444889562130178,0.001442107901526435
-0.005444549562130177,0.001507935017035189
-0.005444209562130178,0.001310453670508204
-0.005443869562130178,0.0004217876111351632
-0.005443529562130177,-0.0007960140257858442
-0.005443189562130178,-0.002112556335965736
-0.005442849562130178,-0.002639173260038648
-0.005442509562130177,-0.003099963068603046
-0.005442169562130178,-0.003429098646148019
-0.005441829562130178,-0.003429098646148019
-0.005441489562130177,-0.00333035797288375
-0.005441149562130178,-0.003001222395338777
-0.005440809562130178,-0.002639173260038648
-0.005440469562130177,-0.00204672922045614
-0.005440129562130178,-0.001783420758420164
-0.005439789562130178,-0.001520112296383706
-0.005439449562130177,-0.001684680085154634
-0.005439109562130178,-0.0006643597947652222
-0.005438769562130178,0.0005534418421533904
-0.005438429562130177,0.001606675690301075
-0.005438089562130178,0.002626995980690491
-0.005437749562130178,0.003746056944345429
-0.005437409562130177,0.004371414541681896
-0.005437069562130178,0.004305587426172902
-0.005436729562130178,0.004009365406381887
-0.005436389562130178,0.00397645184862739
-0.005436049562130178,0.003680229828836316
-0.005435709562130178,0.00328526713578163
-0.005435369562130178,0.003647316271081101
-0.005435029562130178,0.003548575597818088
-0.005434689562130178,0.00318652646251796
-0.005434349562130178,0.002758650211709496
-0.005434009562130178,0.002923218000481502
-0.005433669562130178,0.002857390884972388
-0.005433329562130178,0.003087785789253871
-0.005432989562130178,0.002956131558236059
-0.005432649562130178,0.003021958673745176
-0.005432309562130178,0.003351094251290146
-0.005431969562130178,0.004141019637400115
-0.005431629562130178,0.004239760310663789
-0.005431289562130178,0.004766377234735743
-0.005430949562130177,0.004404328099436573
-0.005430609562130178,0.004568895888209358
-0.005430269562130178,0.005161339927790309
-0.005429929562130177,0.005523389063091515
-0.005429589562130178,0.005852524640637086
-0.005429249562130178,0.007103239835307981
-0.005428909562130177,0.007234894066328485
-0.005428569562130178,0.006971585604292027
-0.005428229562130178,0.006839931373274039
-0.005427889562130177,0.004963858581264044
-0.005427549562130178,0.003976451848627331
-0.005427209562130178,0.002528255307426817
-0.005426869562130177,0.001178799439489977
-0.005426529562130178,0.0001584791490987052
-0.005426189562130178,-0.0004997920059924346
-0.005425849562130177,-0.0006643597947652222
-0.005425509562130178,9.265203358959154e-05
-0.005425169562130178,0.0009154909774535189
-0.005424829562130177,0.001178799439489977
-0.005424489562130178,0.001705416363562889
-0.005424149562130178,0.002001638383353904
-0.005423809562130177,0.003054872231501469
-0.005423469562130178,0.004009365406381887
-0.005423129562130178,0.005457561947582401
-0.005422789562130177,0.007070326277557376
-0.005422449562130178,0.007991905894683298
-0.005422109562130178,0.009143880416092796
-0.005421769562130177,0.009078053300584281
-0.005421429562130178,0.009407188878129254
-0.005421089562130178,0.009473015993638367
-0.005420749562130177,0.009505929551391248
-0.005420409562130178,0.008584349934265326
-0.005420069562130178,0.008123560125701526
-0.005419729562130177,0.008090646567947628
-0.005419389562130178,0.008452695703247097
-0.005419049562130178,0.008386868587737984
-0.005418709562130177,0.00832104147222815
-0.005418369562130178,0.007926078779174183
-0.005418029562130178,0.007201980508573926
-0.005417689562130177,0.006379141564707724
-0.005417349562130178,0.005128426370036829
-0.005417009562130178,0.004108106079645558
-0.005416669562130177,0.003943538290873552
-0.005416329562130178,0.004371414541682016
-0.005415989562130178,0.005062599254527716
-0.005415649562130177,0.005161339927791745
-0.005415309562130178,0.005358821274318729
