Analysis/New Tests/wrd01_d2s01/cmb03_ch36.csv

#Digilent WaveForms Oscilloscope Acquisition
#Device Name: ADP3450
#Serial Number: SN:210018B9D9B0
#Date Time: 2024-08-06 11:15:01.130.622.760
#Sample rate: 5.88235e+06Hz
#Samples: 32768
#Trigger: Source: Channel 3 Type: Edge Condition: Rising Level: 20 mV Hyst.: Auto HoldOff: 0 s
#Channel 3: Range: 200 mV/div Offset: 0 V Attenuation: 1 X Coupling: DC Bandwidth: 0 Hz Sample Mode: Average

Time (s),Channel 3 (V)
-0.002785250921052632,0.1039639432494822
-0.002785080921052631,0.1020549568997138
-0.002784910921052632,0.09984974853016251
-0.002784740921052632,0.09777619439162541
-0.002784570921052631,0.09566972669533189
-0.002784400921052632,0.09464940640494249
-0.002784230921052632,0.09204923534233247
-0.002784060921052631,0.09046938457011079
-0.002783890921052632,0.08885662024014043
-0.002783720921052632,0.08714511523690346
-0.002783550921052631,0.0853019560026458
-0.002783380921052632,0.08395250013471142
-0.002783210921052632,0.08303092051758382
-0.002783040921052631,0.08141815618760874
-0.002782870921052632,0.0804307494549738
-0.002782700921052632,0.07970665118437356
-0.002782530921052631,0.07901546647152617
-0.002782360921052632,0.07809388685440027
-0.002782190921052632,0.07815971396990937
-0.002782020921052631,0.07720522079502622
-0.002781850921052632,0.07664569031319976
-0.002781680921052632,0.07598741915810861
-0.002781510921052632,0.07549371579179116
-0.002781340921052632,0.07463796329017178
-0.002781170921052632,0.07407843280834431
-0.002781000921052632,0.07361764299978132
-0.002780830921052631,0.07302519896019846
-0.002780660921052632,0.07203779222756176
-0.002780490921052632,0.07105038549492683
-0.002780320921052631,0.06986549741576098
-0.002780150921052632,0.06881226356761516
-0.002779980921052632,0.06798942462375274
-0.002779810921052631,0.06683745010234174
-0.002779640921052632,0.06585004336970501
-0.002779470921052632,0.06469806884829761
-0.002779300921052631,0.06344735365362233
-0.002779130921052632,0.06213081134344006
-0.002778960921052632,0.06101175037978716
-0.002778790921052631,0.05939898604981182
-0.002778620921052632,0.05837866575942055
-0.002778450921052632,0.05716086412250415
-0.002778280921052631,0.05614054383211067
-0.002778110921052632,0.05528479133049219
-0.002777940921052632,0.05446195238662976
-0.002777770921052631,0.05377076767378256
-0.002777600921052632,0.05347454565399155
-0.002777430921052632,0.05225674401707515
-0.002777260921052631,0.05215800334380926
-0.002777090921052632,0.05186178132401825
-0.002776920921052632,0.05130225084219078
-0.002776750921052631,0.05110476949566344
-0.002776580921052632,0.05080854747587242
-0.002776410921052632,0.0500515356475176
-0.002776240921052631,0.04975531362772659
-0.002776070921052632,0.04922869670365368
-0.002775900921052632,0.04794506795122595
-0.002775730921052631,0.04797798150897829
-0.002775560921052632,0.04676017987206189
-0.002775390921052632,0.04603608160146164
-0.002775220921052631,0.04511450198433194
-0.002775050921052632,0.04396252746292454
-0.002774880921052632,0.04323842919232428
-0.002774710921052631,0.04202062755540351
-0.002774540921052632,0.04083573947624162
-0.002774370921052632,0.04024329543665959
-0.002774200921052631,0.03928880226177504
-0.002774030921052632,0.03797225995159514
-0.002773860921052632,0.03698485321895843
-0.002773690921052631,0.03589870581305685
-0.002773520921052632,0.0352404346579669
-0.002773350921052632,0.03408846013655741
-0.002773180921052631,0.03339727542370997
-0.002773010921052632,0.03244278224882955
-0.002772840921052632,0.032409868691075
-0.002772670921052631,0.03158702974721107
-0.002772500921052632,0.03158702974721107
-0.002772330921052632,0.03099458570762904
-0.002772160921052631,0.03109332638089265
-0.002771990921052632,0.03106041282313815
-0.002771820921052632,0.03119206705415638
-0.002771650921052631,0.03168577042047504
-0.002771480921052632,0.03185033820924753
-0.002771310921052632,0.03211364667128398
-0.002771140921052632,0.03155411618945753
-0.002770970921052632,0.0312578941696655
-0.002770800921052632,0.03109332638089271
-0.002770630921052632,0.03115915349640171
-0.002770460921052631,0.03106041282313815
-0.002770290921052632,0.03142246195843829
-0.002770120921052632,0.03099458570762982
-0.002769950921052631,0.03040214166804701
-0.002769780921052632,0.03027048743702878
-0.002769610921052632,0.02980969762846582
-0.002769440921052631,0.02977678407071043
-0.002769270921052632,0.02911851291561928
-0.002769100921052632,0.02859189599154733
-0.002768930921052631,0.02832858752950991
-0.002768760921052632,0.027801970605437
-0.002768590921052632,0.02717661300810155
-0.002768420921052631,0.0266499960840275
-0.002768250921052632,0.02622211983321826
-0.002768080921052632,0.02559676223588281
-0.002767910921052631,0.02566258935139079
-0.002767740921052632,0.02579424358240902
-0.002767570921052632,0.02556384867812754
-0.002767400921052631,0.02579424358240902
-0.002767230921052632,0.0257284164668999
-0.002767060921052632,0.02586007069791789
-0.002766890921052631,0.0261892062754637
-0.002766720921052632,0.02648542829525472
-0.002766550921052632,0.02628794694872737
-0.002766380921052631,0.02661708252627295
-0.002766210921052632,0.02674873675729117
-0.002766040921052632,0.02592589781342725
-0.002765870921052631,0.02576133002465446
-0.002765700921052632,0.0252676266583361
-0.002765530921052632,0.02500431819629965
-0.002765360921052631,0.02378651655938104
-0.002765190921052632,0.02339155386632635
-0.002765020921052632,0.02276619626898976
-0.002764850921052631,0.02207501155614358
-0.002764680921052632,0.02181170309410761
-0.002764510921052632,0.02158130818982571
-0.002764340921052631,0.02128508617003433
-0.002764170921052632,0.02108760482350735
-0.002764000921052632,0.02049516078392532
-0.002763830921052631,0.02138382684329585
-0.002763660921052632,0.02000145741760697
-0.002763490921052632,0.02000145741760697
-0.002763320921052631,0.0200343709753611
-0.002763150921052632,0.01980397607107963
-0.002762980921052632,0.0196723218400614
-0.002762810921052631,0.0198698031865885
-0.002762640921052632,0.01973814895557051
-0.002762470921052632,0.01960649472455228
-0.002762300921052631,0.01990271674434443
-0.002762130921052632,0.02052807434167988
-0.002761960921052632,0.02013311164862519
-0.002761790921052631,0.02105469126575303
-0.002761620921052632,0.02118634549677102
-0.002761450921052632,0.02112051838126191
-0.002761280921052631,0.02171296242084441
-0.002761110921052632,0.02197627088288039
-0.002760940921052632,0.02246997424919875
-0.002760770921052631,0.02256871492246236
-0.002760600921052632,0.02253580136470787
-0.002760430921052632,0.02263454203797154
-0.002760260921052632,0.02266745559572603
-0.002760090921052631,0.02263454203797154
-0.002759920921052632,0.02306241828878078
-0.002759750921052632,0.02293076405776279
-0.002759580921052631,0.02256871492246242
-0.002759410921052632,0.02227249290267141
-0.002759240921052632,0.02184461665186294
-0.002759070921052631,0.0217458759785985
-0.002758900921052632,0.02148256751656204
-0.002758730921052632,0.02098886415024458
-0.002758560921052631,0.01983688962883418
-0.002758390921052632,0.0199027167443433
-0.002758220921052632,0.01914570491598986
-0.002758050921052631,0.01855326087640645
-0.002757880921052632,0.01796081683682443
-0.002757710921052632,0.017006323661944
-0.002757540921052631,0.01654553385337847
-0.002757370921052632,0.01572269490951454
-0.002757200921052632,0.01536064577421507
-0.002757030921052631,0.01503151019666884
-0.002756860921052632,0.01522899154319619
-0.002756690921052632,0.01522899154319619
-0.002756520921052631,0.01522899154319619
-0.002756350921052632,0.01562395423625087
-0.002756180921052632,0.01595308981379644
-0.002756010921052631,0.01631513894909657
-0.002755840921052632,0.01684175587316948
-0.002755670921052632,0.0175987677015243
-0.002755500921052631,0.01838869308763367
-0.002755330921052632,0.01963940828230684
-0.002755160921052632,0.0178291626058062
-0.002754990921052631,0.02065972857269811
-0.002754820921052632,0.02082429636147089
-0.002754650921052632,0.02135091328554381
-0.002754480921052631,0.02171296242084346
-0.002754310921052632,0.02144965395880748
-0.002754140921052632,0.02144965395880748
-0.002753970921052631,0.02141674040105208
-0.002753800921052632,0.02095595059248912
-0.002753630921052632,0.02102177770799824
-0.002753460921052631,0.02013311164862472
-0.002753290921052632,0.01986980318658874
-0.002753120921052632,0.0192115320314976
-0.002752950921052631,0.01898113712721569
-0.002752780921052632,0.01898113712721569
-0.002752610921052632,0.01825703885661544
-0.002752440921052631,0.01802664395233234
-0.002752270921052632,0.0173683727972424
-0.002752100921052632,0.0171379778929605
-0.002751930921052631,0.01631513894909477
-0.002751760921052632,0.01532773221645986
-0.002751590921052632,0.01470237461912327
-0.002751420921052631,0.01414284413729466
-0.002751250921052632,0.01351748653995922
-0.002751080921052632,0.0134516594244501
-0.002750910921052631,0.01289212894262311
-0.002750740921052632,0.01315543740465909
-0.002750570921052632,0.01305669673139542
-0.002750400921052631,0.01348457298220532
-0.002750230921052632,0.01384662211750479
-0.002750060921052632,0.01440615259933226
-0.002749890921052632,0.01463654750361374
-0.002749720921052632,0.01545938644747809
-0.002749550921052632,0.0155252135629872
-0.002749380921052632,0.01585434914053217
-0.002749210921052631,0.01578852202502366
-0.002749040921052632,0.01592017625604189
-0.002748870921052632,0.0157885220250239
-0.002748700921052631,0.01595308981379644
-0.002748530921052632,0.01555812712074176
-0.002748360921052632,0.01542647288972377
-0.002748190921052631,0.0150644237544234
-0.002748020921052632,0.01450489327259593
-0.002747850921052632,0.01414284413729646
-0.002747680921052631,0.01338583230894099
-0.002747510921052632,0.01282630182711352
-0.002747340921052632,0.01269464759609553
-0.002747170921052631,0.0125300798073225
-0.002747000921052632,0.0125300798073225
-0.002746830921052632,0.01220094422977753
-0.002746660921052631,0.0120692899987587
-0.002746490921052632,0.01177306797896769
-0.002746320921052632,0.0128263018271116
-0.002746150921052631,0.01187180865223136
-0.002745980921052632,0.01246425269181339
-0.002745810921052632,0.01266173403834037
-0.002745640921052631,0.01387953567525935
-0.002745470921052632,0.01443906615708682
-0.002745300921052632,0.01499859663891429
-0.002745130921052631,0.01555812712074176
-0.002744960921052632,0.01628222539134202
-0.002744790921052632,0.01664427452664214
-0.002744620921052631,0.01694049654643316
-0.002744450921052632,0.01720380500846961
-0.002744280921052632,0.01730254568173328
-0.002744110921052631,0.01746711347050565
-0.002743940921052632,0.01723671856622417
-0.002743770921052632,0.01703923721969683
-0.002743600921052631,0.01641387962235976
-0.002743430921052632,0.01615057116032378
-0.002743260921052632,0.01578852202502366
-0.002743090921052631,0.01559104067849608
-0.002742920921052632,0.01545938644747809
-0.002742750921052632,0.01539355933196897
-0.002742580921052631,0.01549230000523324
-0.002742410921052632,0.01582143558277821
-0.002742240921052632,0.01585434914053277
-0.002742070921052631,0.01555812712074331
-0.002741900921052632,0.01641387962236024
-0.002741730921052632,0.01680884231541493
-0.002741560921052631,0.0168746694309247
-0.002741390921052632,0.01723671856622417
-0.002741220921052632,0.01720380500846961
-0.002741050921052631,0.01753294058601489
-0.002740880921052632,0.0173683727972424
-0.002740710921052632,0.01730254568173328
-0.002740540921052631,0.01707215077745097
-0.002740370921052632,0.01684175587316948
-0.002740200921052632,0.01631513894909657
-0.002740030921052631,0.01595308981379554
-0.002739860921052632,0.01545938644747809
-0.002739690921052632,0.01526190510095074
-0.002739520921052632,0.01526190510095074
-0.002739350921052632,0.01394536279076846
-0.002739180921052632,0.01312252384690453
-0.002739010921052632,0.01223385778753311
-0.002738840921052631,0.01210220355651326
-0.002738670921052632,0.01121353749714022
-0.002738500921052632,0.01104896970836773
-0.002738330921052631,0.01025904432225806
-0.002738160921052632,0.01002864941797616
-0.002737990921052632,0.009633686724922196
-0.002737820921052631,0.01085148836184009
-0.002737650921052632,0.01006156297573072
-0.002737480921052632,0.01048943922653918
-0.002737310921052631,0.01065400701531275
-0.002737140921052632,0.01101605615061288
-0.002736970921052632,0.01118062393938536
-0.002736800921052631,0.01144393240142212
-0.002736630921052632,0.01177306797896769
-0.002736460921052632,0.01220094422977615
-0.002736290921052631,0.01312252384690453
-0.002736120921052632,0.01361622721322289
-0.002735950921052632,0.01417575769504934
-0.002735780921052631,0.01447197971484137
-0.002735610921052632,0.0152948186587053
-0.002735440921052632,0.01555812712074128
-0.002735270921052631,0.0162163982758329
-0.002735100921052632,0.01671010164215126
-0.002734930921052632,0.01740128635499695
-0.002734760921052631,0.01766459481703341
-0.002734590921052632,0.0175987677015243
-0.002734420921052632,0.01822412529886088
-0.002734250921052631,0.01819121174110632
-0.002734080921052632,0.01789498972131531
-0.002733910921052632,0.01786207616356076
-0.002733740921052631,0.0178291626058062
-0.002733570921052632,0.01753294058601518
-0.002733400921052632,0.01730254568173328
-0.002733230921052631,0.01723671856622315
-0.002733060921052632,0.0166771880843967
-0.002732890921052632,0.01601891692930556
-0.002732720921052631,0.01526190510094991
-0.002732550921052632,0.01480111529238694
-0.002732380921052632,0.01473528817687783
-0.002732210921052631,0.01493276952340523
-0.002732040921052632,0.01496568308115973
-0.002731870921052632,0.0148340288501415
-0.002731700921052631,0.01493276952340589
-0.002731530921052632,0.01532773221645986
-0.002731360921052632,0.01519607798544163
-0.002731190921052631,0.0152619051009508
-0.002731020921052632,0.0152948186587053
-0.002730850921052632,0.01526190510095074
-0.002730680921052631,0.01545938644747827
-0.002730510921052632,0.01555812712074176
-0.002730340921052632,0.01522899154319619
-0.002730170921052631,0.01559104067849554
-0.002730000921052632,0.01516316442768707
-0.002729830921052632,0.01526190510095074
-0.002729660921052631,0.01555812712074218
-0.002729490921052632,0.01578852202502366
-0.002729320921052632,0.01545938644747809
-0.002729150921052631,0.0159860033715507
-0.002728980921052632,0.01582143558277821
-0.002728810921052632,0.01638096606460569
-0.002728640921052632,0.0162822253913422
-0.002728470921052632,0.01601891692930556
-0.002728300921052632,0.01624931183358745
-0.002728130921052632,0.01638096606460545
-0.002727960921052631,0.01657844741113303
-0.002727790921052632,0.0164467931801148
-0.002727620921052632,0.01608474404481533
-0.002727450921052631,0.0157556084672691
-0.002727280921052632,0.01532773221645986
-0.002727110921052632,0.01466946106136991
-0.002726940921052631,0.01364914077097745
-0.002726770921052632,0.01315543740465909
-0.002726600921052632,0.01190472220998819
-0.002726430921052631,0.0116085001901949
-0.002726260921052632,0.01071983413082186
-0.002726090921052632,0.01019321720674991
-0.002725920921052631,0.009995735860221606
-0.002725750921052632,0.01029195788001262
-0.002725580921052632,0.01035778499552161
-0.002725410921052631,0.01068692057306731
-0.002725240921052632,0.01127936461264933
-0.002725070921052632,0.01183889509447579
-0.002724900921052631,0.01239842557630427
-0.002724730921052632,0.01305669673139542
-0.002724560921052632,0.01341874586669489
-0.002724390921052631,0.0139124492330139
-0.002724220921052632,0.0139124492330139
-0.002724050921052632,0.01417575769505036
-0.002723880921052631,0.01397827634852302
-0.002723710921052632,0.01358331365546833
-0.002723540921052632,0.01302378317364086
-0.002723370921052631,0.01302378317364086
-0.002723200921052632,0.01318835096241365
-0.002723030921052632,0.01335291875118643
-0.002722860921052631,0.01345165942444998
-0.002722690921052632,0.01338583230894099
-0.002722520921052632,0.013682054328732
-0.002722350921052631,0.01417575769504964
-0.002722180921052632,0.01378079500199567
-0.002722010921052632,0.01424158481055947
-0.002721840921052631,0.01417575769505078
-0.002721670921052632,0.01440615259933226
-0.002721500921052632,0.01443906615708682
-0.002721330921052631,0.01457072038810558
-0.002721160921052632,0.01486694240789606
-0.002720990921052632,0.01457072038810504
-0.002720820921052631,0.01466946106136865
-0.002720650921052632,0.01463654750361416
-0.002720480921052632,0.01434032548382314
-0.002720310921052631,0.01473528817687801
-0.002720140921052632,0.0148340288501415
-0.002719970921052632,0.01457072038810504
-0.002719800921052631,0.01450489327259635
-0.002719630921052632,0.01473528817687783
-0.002719460921052632,0.01417575769505036
-0.002719290921052631,0.01420867125280444
-0.002719120921052632,0.01394536279076846
-0.002718950921052632,0.01338583230894099
-0.002718780921052631,0.0130566967313947
-0.002718610921052632,0.01266173403834073
-0.002718440921052632,0.01269464759609529
-0.002718270921052632,0.0125959069228318
-0.002718100921052632,0.01236551201854972
-0.002717930921052632,0.01213511711426782
-0.002717760921052632,0.01187180865223184
-0.002717590921052631,0.011378105285913
-0.002717420921052632,0.01174015442121313
-0.002717250921052632,0.01160850019019514
-0.002717080921052631,0.0118388950944768
-0.002716910921052632,0.01174015442121313
-0.002716740921052632,0.01220094422977609
-0.002716570921052631,0.01223385778753149
-0.002716400921052632,0.01236551201854972
-0.002716230921052632,0.01285921538486718
-0.002716060921052631,0.01355040009771377
-0.002715890921052632,0.01378079500199567
-0.002715720921052632,0.01410993057954065
-0.002715550921052631,0.01457072038810504
-0.002715380921052632,0.01572269490951454
-0.002715210921052632,0.01634805250684999
-0.002715040921052631,0.01684175587316948
-0.002714870921052632,0.01717089145071506
-0.002714700921052632,0.01756585414376902
-0.002714530921052631,0.01779624904805164
-0.002714360921052632,0.01815829818335177
-0.002714190921052632,0.01815829818335177
-0.002714020921052631,0.01809247106784265
-0.002713850921052632,0.01802664395233354
-0.002713680921052632,0.01750002702826063
-0.002713510921052631,0.01700632366194227
-0.002713340921052632,0.01674301519990581
-0.002713170921052632,0.01638096606460569
-0.002713000921052631,0.0157556084672691
-0.002712830921052632,0.01493276952340517
-0.002712660921052632,0.01424158481055947
-0.002712490921052631,0.01341874586669555
-0.002712320921052632,0.01332000519343187
-0.002712150921052632,0.01318835096241365
-0.002711980921052631,0.01341874586669543
-0.002711810921052632,0.01335291875118643
-0.002711640921052632,0.01332000519343187
-0.002711470921052631,0.01318835096241418
-0.002711300921052632,0.01348457298220466
-0.002711130921052632,0.01401118990627757
-0.002710960921052631,0.01374788144424201
-0.002710790921052632,0.01424158481055947
-0.002710620921052632,0.0146036339458596
-0.002710450921052631,0.0144390661570876
-0.002710280921052632,0.01486694240789606
-0.002710110921052632,0.01480111529238694
-0.002709940921052631,0.01489985596565031
-0.002709770921052632,0.01473528817687783
-0.002709600921052632,0.01473528817687783
-0.002709430921052631,0.0146365475036141
-0.002709260921052632,0.0146036339458596
-0.002709090921052632,0.01470237461912327
-0.002708920921052631,0.01486694240789576
-0.002708750921052632,0.01470237461912327
-0.002708580921052632,0.01513025086993251
-0.002708410921052631,0.01539355933196873
-0.002708240921052632,0.01526190510095074
-0.002708070921052632,0.01585434914053277
-0.002707900921052631,0.0164797067378702
-0.002707730921052632,0.01694049654643316
-0.002707560921052632,0.0173683727972424
-0.002707390921052632,0.01776333549029636
-0.002707220921052631,0.01845452020314278
-0.002707050921052632,0.01842160664538823
-0.002706880921052632,0.01812538462559775
-0.002706710921052631,0.01822412529886088
-0.002706540921052632,0.01842160664538823
-0.002706370921052632,0.01819121174110674
-0.002706200921052631,0.01832286597212456
-0.002706030921052632,0.01776333549029708
