Analysis/New Tests/wrd01_d2s01/cmb07_ch09.csv

#Digilent WaveForms Oscilloscope Acquisition
#Device Name: ADP3450
#Serial Number: SN:210018B9D9B0
#Date Time: 2024-08-07 10:25:03.767.604.430
#Sample rate: 2.94118e+06Hz
#Samples: 32768
#Trigger: Source: Channel 3 Type: Edge Condition: Rising Level: 0 V Hyst.: Auto HoldOff: 0 s
#Channel 3: Range: 200 mV/div Offset: 0 V Attenuation: 1 X Coupling: DC Bandwidth: 0 Hz Sample Mode: Average

Time (s),Channel 3 (V)
-0.005570220000000001,0.007625959701893495
-0.00556988,0.007922181721683968
-0.00556954,0.007625959701893495
-0.005569200000000001,0.007099342777820581
-0.00556886,0.006309417391709773
-0.00556852,0.005519492005601839
-0.005568180000000001,0.004170036137664999
-0.00556784,0.002853493827481397
-0.0055675,0.002129395556882458
-0.005567160000000001,0.002030654883618786
-0.00556682,0.002425617576674849
-0.00556648,0.003182629405028285
-0.005566140000000001,0.004170036137664999
-0.0055658,0.004828307292757517
-0.00556546,0.005585319121110954
-0.005565120000000001,0.006243590276202096
-0.00556478,0.006375244507220743
-0.00556444,0.006605639411502225
-0.005564100000000001,0.005387837774583611
-0.00556376,0.004630825946228199
-0.00556342,0.004301690368683227
-0.005563080000000001,0.003413024309310185
-0.005562740000000001,0.003083888731765213
-0.0055624,0.00380798700236487
-0.005562060000000001,0.006901861431293239
-0.005561720000000001,0.0144719797148276
-0.00556138,0.02878937733807371
-0.005561040000000001,0.05044649834057229
-0.005560700000000001,0.07954208339554783
-0.00556036,0.1125872953811761
-0.005560020000000001,0.1473110988122338
-0.005559680000000001,0.1804550514710126
-0.00555934,0.2098139449881378
-0.005559000000000001,0.2340054099377373
-0.005558660000000001,0.2518445582406748
-0.00555832,0.2634301305703113
-0.005557980000000001,0.2694862251971498
-0.005557640000000001,0.2711319030848747
-0.0055573,0.2691570896196043
-0.005556960000000001,0.2642858830719298
-0.005556620000000001,0.2576702579632759
-0.00555628,0.2505280159305249
-0.005555940000000001,0.2425300213961676
-0.005555600000000001,0.2344661997463157
-0.00555526,0.2262707238654164
-0.005554920000000001,0.2183385564465681
-0.005554580000000001,0.2105709568165067
-0.00555424,0.2041198994965994
-0.005553900000000001,0.1978663235232336
-0.005553560000000001,0.1904607730284582
-0.00555322,0.1826931733983827
-0.00555288,0.1748926602105527
-0.005552540000000001,0.1674541961580228
-0.0055522,0.1598840778744747
-0.00555186,0.1528076629572449
-0.005551520000000001,0.1470148767924429
-0.00555118,0.1419791024559881
-0.00555084,0.137864907736676
-0.005550500000000001,0.1325658249381923
-0.00555016,0.1277933590637737
-0.00554982,0.1235145965556891
-0.005549480000000001,0.1195320560673876
-0.00554914,0.1153520342325516
-0.0055488,0.1113365801865029
-0.005548460000000001,0.1073869532559561
-0.00554812,0.1036018941141756
-0.00554778,0.1000801434344444
-0.005547440000000001,0.09642673852368858
-0.0055471,0.09339869121026367
-0.00554676,0.09030481678134095
-0.005546420000000001,0.08747425081444904
-0.00554608,0.08464368484755366
-0.00554574,0.0827346984977928
-0.005545400000000001,0.08115484772557408
-0.00554506,0.07911420714478669
-0.00554472,0.0764482089666724
-0.005544380000000001,0.07427591415487164
-0.00554404,0.07174157020776632
-0.0055437,0.06930596693393351
-0.005543360000000001,0.0668703636600963
-0.00554302,0.06420436548197166
-0.00554268,0.06117631816855791
-0.005542340000000001,0.05860906066370245
-0.005542000000000001,0.05591014892783368
-0.00554166,0.05370494055827345
-0.005541320000000001,0.05225674401707293
-0.005540980000000001,0.05034775766731209
-0.00554064,0.04903121535712634
-0.005540300000000001,0.04741845102715304
-0.005539960000000001,0.04570694602391918
-0.00553962,0.04366630544313353
-0.005539280000000001,0.04228393601744213
-0.005538940000000001,0.04093448014950774
-0.0055386,0.0393875429350411
-0.005538260000000001,0.03767603793180414
-0.005537920000000001,0.03612910071734277
-0.00553758,0.03501003975368501
-0.005537240000000001,0.03405554657880285
-0.005536900000000001,0.03316688051943142
-0.00553656,0.03234404157556588
-0.005536220000000001,0.03178451109373841
-0.005535880000000001,0.03148828907394794
-0.00553554,0.03063253657232891
-0.005535200000000001,0.03013883320601056
-0.005534860000000001,0.02997426541723807
-0.00553452,0.02901977224235561
-0.005534180000000001,0.02855898243379182
-0.005533840000000001,0.02790071127870187
-0.0055335,0.02763740281666422
-0.005533160000000001,0.02704495877708219
-0.005532820000000001,0.02589298425567269
-0.00553248,0.02467518261875408
-0.00553214,0.02342446742408091
-0.005531800000000001,0.02237123357593508
-0.00553146,0.02125217261228014
-0.00553112,0.02019893876413431
-0.005530780000000001,0.01957358116679772
-0.00553044,0.01845452020314278
-0.0055301,0.01710506433520594
-0.005529760000000001,0.01601891692930556
-0.00552942,0.01434032548382057
-0.00552908,0.01292504250037719
-0.005528740000000001,0.0125300798073225
-0.0055284,0.01216803067202166
-0.00552806,0.01177306797896769
-0.005527720000000001,0.01177306797896769
-0.00552738,0.01131227817040479
-0.00552704,0.01180598153672225
-0.005526700000000001,0.01193763576774048
-0.00552636,0.01174015442121451
-0.00552602,0.01249716624956795
-0.005525680000000001,0.01236551201854972
-0.00552534,0.01220094422977609
-0.005525,0.01174015442121313
-0.005524660000000001,0.01124645105489478
-0.00552432,0.01085148836184021
-0.00552398,0.01091731547734921
-0.005523640000000001,0.01141101884366756
-0.0055233,0.01174015442121367
-0.00552296,0.01203637644100415
-0.005522620000000001,0.0118388950944768
-0.00552228,0.01118062393938548
-0.00552194,0.01108188326612199
-0.005521600000000001,0.01048943922653996
-0.00552126,0.01025904432225776
-0.00552092,0.01009447653348528
-0.005520580000000001,0.01022613076450351
-0.005520240000000001,0.010259044322258
-0.0055199,0.01025904432225806
-0.005519560000000001,0.01052235278429452
-0.005519220000000001,0.010752747688576
-0.00551888,0.01114771038163111
-0.005518540000000001,0.01124645105489478
-0.005518200000000001,0.01111479682387679
-0.00551786,0.01118062393938566
-0.005517520000000001,0.01127936461264933
-0.005517180000000001,0.01160850019019431
-0.00551684,0.01104896970836743
-0.005516500000000001,0.01078566124633098
-0.005516160000000001,0.009864081629205053
-0.00551582,0.008942502012075779
-0.005515480000000001,0.007988008837193623
-0.005515140000000001,0.006967688546804208
-0.0055148,0.006408158064974882
-0.005514460000000001,0.005684059794374625
-0.005514120000000001,0.005848627583147112
-0.00551378,0.005980281814165639
-0.005513440000000001,0.006934774989047795
-0.005513100000000001,0.007527219028628745
-0.00551276,0.008777934223302994
-0.005512420000000001,0.009139983358603122
-0.005512080000000001,0.00904124268533945
-0.00551174,0.007856354606175394
-0.005511400000000001,0.006342330949465767
-0.005511060000000001,0.004861220850510698
-0.00551072,0.003742159886855756
-0.00551038,0.003610505655837527
-0.005510040000000001,0.003083888731764614
-0.0055097,0.003149715847273728
-0.00550936,0.003643419213592085
-0.005509020000000001,0.004334603926437783
-0.00550868,0.004367517484193059
-0.00550834,0.004762480177247026
-0.005508000000000001,0.004762480177247026
-0.00550766,0.004729566619491032
-0.00550732,0.003939641233383098
-0.005506980000000001,0.00403838190664677
-0.00550664,0.003906727675628661
-0.0055063,0.003972554791137656
-0.005505960000000001,0.004301690368683227
-0.00550562,0.004894134408266871
-0.00550528,0.005782800467638296
-0.005504940000000001,0.006506898738238553
-0.0055046,0.006737293642521051
-0.00550426,0.007066429220066024
-0.005503920000000001,0.00700060210455691
-0.00550358,0.007132256335575377
-0.00550324,0.007263910566593366
-0.005502900000000001,0.007395564797611595
-0.00550256,0.006836034315783526
-0.00550222,0.006506898738238553
-0.005501880000000001,0.005914454698656525
-0.00550154,0.005848627583148669
-0.0055012,0.00653981229599311
-0.005500860000000001,0.006836034315784124
-0.00550052,0.007593046144139895
-0.00550018,0.00811966306821185
-0.005499840000000001,0.007988008837193623
-0.005499500000000001,0.007823441048421137
-0.00549916,0.00700060210455691
-0.005498820000000001,0.006342330949465767
-0.005498480000000001,0.005453664890094342
-0.00549814,0.005091615754792597
-0.005497800000000001,0.004235863253174112
-0.005497460000000001,0.004466258157455594
-0.00549712,0.004104209022155884
-0.005496780000000001,0.00482830729275614
-0.005496440000000001,0.00542075133233709
-0.0054961,0.006013195371920196
-0.005495760000000001,0.006506898738238553
-0.005495420000000001,0.006408158064975062
-0.00549508,0.006934774989047795
-0.005494740000000001,0.007230997008838809
-0.005494400000000001,0.007560132586383782
-0.00549406,0.007988008837193623
-0.005493720000000001,0.007955095279439066
-0.005493380000000001,0.007461391913121606
-0.00549304,0.006144849602938425
-0.005492700000000001,0.005157442870301712
-0.005492360000000001,0.003215542962786375
-0.00549202,0.001833173537091444
-0.005491680000000001,0.001504037959545873
-0.005491340000000001,0.001109075266491906
-0.005491,0.001569865075054987
-0.005490660000000001,0.002359790461164357
-0.005490320000000001,0.003380110751555628
-0.00548998,0.003544678540328413
-0.00548964,0.004202949695419555
-0.005489300000000001,0.00403838190664677
-0.00548896,0.004630825946228797
-0.00548862,0.005552405563356397
-0.005488280000000001,0.006210676718447538
-0.00548794,0.007395564797611954
-0.0054876,0.007593046144138938
-0.005487260000000001,0.007428478355366152
-0.00548692,0.007362651239855361
-0.00548658,0.006441071622729439
-0.005486240000000001,0.005552405563356397
-0.0054859,0.004927047966019333
-0.00548556,0.004663739503983355
-0.005485220000000001,0.004466258157456012
-0.00548488,0.004104209022156303
-0.00548454,0.004334603926437783
-0.005484200000000001,0.004334603926437783
-0.00548386,0.004466258157455893
-0.00548352,0.004400431041946898
-0.005483180000000001,0.004762480177247026
-0.00548284,0.005651146236621326
-0.0054825,0.006342330949465767
-0.005482160000000001,0.007296824124347924
-0.00548182,0.007625959701893973
-0.00548148,0.007889268163929951
-0.005481140000000001,0.007132256335575138
-0.0054808,0.00657272585374611
-0.00548046,0.005716973352129182
-0.005480120000000001,0.004992875081528926
-0.00547978,0.004499171715209312
-0.00547944,0.00380798700236487
-0.005479100000000001,0.003314283636046514
-0.005478760000000001,0.003050975174010535
-0.00547842,0.00426877681092867
-0.005478080000000001,0.004762480177247026
-0.005477740000000001,0.005453664890091468
-0.0054774,0.005453664890092726
-0.005477060000000001,0.005848627583147411
-0.005476720000000001,0.005716973352129421
-0.00547638,0.005124529312547154
-0.005476040000000001,0.004894134408265255
-0.005475700000000001,0.00423586325317531
-0.00547536,0.004466258157456012
-0.005475020000000001,0.005124529312547154
-0.005474680000000001,0.005420751332337629
-0.00547434,0.00653981229599311
-0.005474000000000001,0.007066429220066024
-0.005473660000000001,0.006671466527012056
-0.00547332,0.005881541140901968
-0.005472980000000001,0.004202949695419555
-0.005472640000000001,0.00331428363604813
-0.0054723,0.0025572718076917
-0.005471960000000001,0.001997741325864229
-0.005471620000000001,0.001899000652600737
-0.00547128,0.002623098923200814
-0.005470940000000001,0.003281370078291956
-0.005470600000000001,0.003939641233381901
-0.00547026,0.003972554791137656
-0.005469920000000001,0.00505870219703804
-0.005469580000000001,0.005980281814165639
-0.00546924,0.006671466527011338
-0.0054689,0.006704380084765896
-0.005468560000000001,0.006243590276202096
-0.00546822,0.005585319121110954
-0.00546788,0.004959961523774369
-0.005467540000000001,0.004532085272965126
-0.0054672,0.00357759209808297
-0.00546686,0.002656012480955371
-0.005466520000000001,0.001504037959545873
-0.00546618,0.0002533227648731814
-0.00546584,0.0005166312269091594
-0.005465500000000001,0.0006482854579273878
-0.00546516,0.001372383728529021
-0.00546482,0.002129395556882458
-0.005464480000000001,0.003347197193801071
-0.00546414,0.004268776810929508
-0.0054638,0.004729566619492469
-0.005463460000000001,0.005025788639283483
-0.00546312,0.005552405563356397
-0.00546278,0.005552405563356397
-0.005462440000000001,0.005124529312547154
-0.0054621,0.005058702197037921
-0.00546176,0.004992875081528926
-0.005461420000000001,0.004367517484192341
-0.00546108,0.004597912388475438
-0.00546074,0.005256183543565383
-0.005460400000000001,0.005190356428056269
-0.00546006,0.005387837774583731
-0.00545972,0.005453664890092726
-0.005459380000000001,0.006111936045183867
-0.00545904,0.006572725853748026
-0.0054587,0.00677020720027501
-0.005458360000000001,0.007099342777820581
-0.00545802,0.006901861431293478
-0.00545768,0.007033515662311467
-0.005457340000000001,0.006276503833956653
-0.005457000000000001,0.006375244507220145
-0.00545666,0.006144849602938425
-0.005456320000000001,0.006046108929674754
-0.005455980000000001,0.005519492005602797
-0.00545564,0.005025788639283483
-0.005455300000000001,0.00528909710131994
-0.005454960000000001,0.005552405563355918
-0.00545462,0.005815714025392853
-0.005454280000000001,0.00630941739171121
-0.005453940000000001,0.006144849602938724
-0.0054536,0.006013195371920196
-0.005453260000000001,0.005716973352129182
-0.005452920000000001,0.006243590276201139
-0.00545258,0.00700060210455691
-0.005452240000000001,0.007362651239857037
-0.005451900000000001,0.007757613932911005
-0.00545156,0.007889268163929951
-0.005451220000000001,0.00811966306821185
-0.005450880000000001,0.007922181721684867
-0.00545054,0.007329737682102481
-0.005450200000000001,0.007395564797611595
-0.005449860000000001,0.006737293642521651
-0.00544952,0.006671466527011338
-0.005449180000000001,0.006836034315784124
-0.005448840000000001,0.006836034315784124
-0.0054485,0.006342330949465767
-0.005448160000000001,0.005684059794374625
-0.005447820000000001,0.004894134408265255
-0.00544748,0.003972554791137656
-0.00544714,0.003610505655837527
-0.005446800000000001,0.003478851424819299
-0.00544646,0.002754753154219042
-0.00544612,0.001833173537091444
-0.005445780000000001,0.001471124401791315
-0.00544544,0.002096481999128859
-0.0054451,0.002623098923200814
-0.005444760000000001,0.002820580269728157
-0.00544442,0.003972554791139392
-0.00544408,0.004927047966019811
-0.005443740000000001,0.005519492005601839
-0.0054434,0.006111936045184166
-0.00544306,0.006276503833956653
-0.005442720000000001,0.005947368256411082
-0.00544238,0.005486578447846205
-0.00544204,0.004894134408265255
-0.005441700000000001,0.004466258157456012
-0.00544136,0.004202949695420453
-0.00544102,0.004696653061737912
-0.005440680000000001,0.005716973352129182
-0.00544034,0.005585319121106045
-0.00544,0.002886407385237271
-0.005439660000000001,-0.005374895611156563
-0.00543932,-0.02110757621787767
-0.00543898,-0.04464077001234319
-0.005438640000000001,-0.07475667535776295
-0.0054383,-0.1085588991717551
-0.00543796,-0.1426573450054143
-0.005437620000000001,-0.1743531011230527
-0.00543728,-0.2016055269438653
-0.00543694,-0.223163907273061
-0.005436600000000001,-0.2385016251866846
-0.005436260000000001,-0.2478161620312073
-0.00543592,-0.2520949245393166
-0.005435580000000001,-0.2515683076152437
-0.005435240000000001,-0.24854026030183
-0.0054349,-0.2433070046188499
-0.005434560000000001,-0.2372509099920114
-0.005434220000000001,-0.2306681984411119
-0.00543388,-0.2235917835238702
-0.005433540000000001,-0.216844504184186
-0.005433200000000001,-0.2093072994584061
-0.00543286,-0.2018030082903534
-0.005432520000000001,-0.1939366679870142
-0.005432180000000001,-0.1859386734526714
-0.00543184,-0.1782698144958451
-0.005431500000000001,-0.1707326097700515
-0.005431160000000001,-0.1638207626416071
-0.00543082,-0.1571722239751739
-0.005430480000000001,-0.1511819564638446
-0.005430140000000001,-0.1452575160680351
-0.0054298,-0.1400571739428043
-0.005429460000000001,-0.1349555724908479
-0.005429120000000001,-0.1299527117121643
-0.00542878,-0.12550938141529
-0.005428440000000001,-0.1215268409269886
-0.005428100000000001,-0.1177746953429759
-0.00542776,-0.1141542039899678
-0.005427420000000001,-0.110500799079212
-0.005427080000000001,-0.1074398382080382
-0.00542674,-0.1039839146438097
-0.0054264,-0.1003963368485629
-0.005426060000000001,-0.09624922857148874
-0.00542572,-0.09216794740992365
-0.00542538,-0.08884367807671339
-0.005425040000000001,-0.08509153249269388
-0.0054247,-0.08183309027499272
-0.00542436,-0.07926583277013727
-0.005424020000000001,-0.07580990920590877
-0.00542368,-0.07278186189248433
-0.00542334,-0.06991838236784306
-0.005423000000000001,-0.06652828591912366
-0.00542266,-0.06261157254632496
-0.00542232,-0.05908982186659376
-0.005421980000000001,-0.05642382368847464
-0.00542164,-0.05448192378095271
-0.0054213,-0.05280333233547335
-0.005420960000000001,-0.05142096290978196
-0.00542062,-0.05010442059959662
-0.00542028,-0.04842582915411726
-0.005419940000000001,-0.0465497563621075
-0.0054196,-0.04414706664602124
-0.00541926,-0.04217225318075141
-0.005418920000000001,-0.04029618038874165
-0.00541858,-0.03871632961652016
-0.00541824,-0.03720230595981328
-0.005417900000000001,-0.03605033143840378
-0.00541756,-0.03486544335923775
-0.00541722,-0.03377929595333935
-0.005416880000000001,-0.03259440787417529
-0.00541654,-0.0316070011415369
-0.0054162,-0.03068542152441098
-0.005415860000000001,-0.02927013854096502
-0.00541552,-0.02871060805913713
-0.00541518,-0.02848021315485565
-0.005414840000000001,-0.02828273180832831
-0.005414500000000001,-0.02798650978853783
-0.00541416,-0.02772320132650084
-0.005413820000000001,-0.02666996747835501
-0.005413480000000001,-0.02541925228368412
-0.00541314,-0.02324695747188107
-0.005412800000000001,-0.0208442677557984
-0.005412460000000001,-0.01840866448196561
-0.00541212,-0.01659841880546054
-0.005411780000000001,-0.01472234601345078
-0.005411440000000001,-0.01386659351183385
-0.0054111,-0.01370202572305951
-0.005410760000000001,-0.01373493928081407
-0.005410420000000001,-0.01353745793428708
-0.00541008,-0.01337289014551394
-0.005409740000000001,-0.01284627322144103
-0.005409400000000001,-0.01222091562410558
-0.00540906,-0.01185886648880431
-0.005408720000000001,-0.01152973091125874
-0.005408380000000001,-0.01129933600697726
-0.00540804,-0.01106894110269494
-0.005407700000000001,-0.01027901571658557
-0.005407360000000001,-0.00958783100374113
-0.00540702,-0.008797905617630502
-0.005406680000000001,-0.007843412442748346
-0.005406340000000001,-0.006888919267867926
-0.005406,-0.005934426092984033
-0.00540566,-0.004617883782801749
-0.005405320000000001,-0.003959612627710607
-0.00540498,-0.003630477050165036
-0.00540464,-0.002643070317528323
-0.005404300000000001,-0.002149366951209966
-0.00540396,-0.002017712720191738
-0.00540362,-0.001787317815909838
-0.005403280000000001,-0.002017712720191738
-0.00540294,-0.002215194066719799
-0.0054026,-0.002610156759773766
-0.005402260000000001,-0.00336716858812858
-0.00540192,-0.004025439743221159
-0.00540158,-0.004815365129329092
-0.005401240000000001,-0.004914105802592763
-0.0054009,-0.004486229551782324
-0.00540056,-0.003827958396692379
-0.005400220000000001,-0.003235514357110351
-0.00539988,-0.002675983875282161
-0.00539954,-0.002281021182228195
-0.005399200000000001,-0.001853144931418952
-0.00539886,-0.001721490700401263
-0.00539852,-0.002017712720191738
-0.005398180000000001,-0.00188605848917351
-0.00539784,-0.00165566358489143
-0.0053975,-0.001556922911627938
-0.005397160000000001,-0.0009644788720459105
-0.00539682,-0.0007999110832725262
-0.00539648,-0.0004707755057275538
-0.005396140000000001,-0.0004049483902184396
-0.0053958,5.58414183470362e-05
-0.00539546,0.0009774210354729588
-0.005395120000000001,0.001800259979336887
-0.00539478,0.002030654883618068
-0.00539444,0.001635692190564101
-0.005394100000000001,0.001997741325864229
-0.005393760000000001,0.002030654883618727
-0.00539342,0.001668605748318658
-0.005393080000000001,0.001833173537091444
-0.005392740000000001,0.002261049787899907
-0.0053924,0.002228136230146129
