Analysis/New Tests/wrd01_d2s01/cmb06_ch18.csv

#Digilent WaveForms Oscilloscope Acquisition
#Device Name: ADP3450
#Serial Number: SN:210018B9D9B0
#Date Time: 2024-06-21 15:20:04.315.300.030
#Sample rate: 2.5e+07Hz
#Samples: 32768
#Trigger: Source: Channel 3 Type: Edge Condition: Rising Level: 60 mV Hyst.: Auto HoldOff: 0 s
#Channel 3: Range: 100 mV/div Offset: 0 V Attenuation: 1 X Coupling: DC Bandwidth: 0 Hz Sample Mode: Average

Time (s),Channel 3 (V)
-0.0006553476595744681,-0.02509011670613627
-0.0006553076595744681,-0.02367483372269031
-0.000655267659574468,-0.02453058622430497
-0.000655227659574468,-0.02242411852801714
-0.0006551876595744681,-0.02327987102963563
-0.0006551476595744681,-0.02364192016493576
-0.0006551076595744681,-0.02252285920128081
-0.0006550676595744681,-0.02183167448843637
-0.000655027659574468,-0.02439893199328566
-0.0006549876595744681,-0.02170002025741689
-0.0006549476595744681,-0.01956063900337068
-0.0006549076595744681,-0.02239120497026259
-0.0006548676595744681,-0.02173293381517264
-0.000654827659574468,-0.02074552708253354
-0.0006547876595744681,-0.02008725592744359
-0.0006547476595744681,-0.0210746626600803
-0.0006547076595744681,-0.02048221862049827
-0.0006546676595744681,-0.0201530830429533
-0.000654627659574468,-0.02021891015846074
-0.0006545876595744681,-0.01962646611887979
-0.0006545476595744681,-0.01946189833010701
-0.0006545076595744681,-0.01942898477235245
-0.0006544676595744681,-0.01926441698357966
-0.000654427659574468,-0.0190998491948064
-0.000654387659574468,-0.01883654073277042
-0.0006543476595744681,-0.01824409669318839
-0.0006543076595744681,-0.01817826957767928
-0.0006542676595744681,-0.01817826957767928
-0.0006542276595744681,-0.01751999842258933
-0.000654187659574468,-0.01705920861402434
-0.0006541476595744681,-0.01722377640279712
-0.0006541076595744681,-0.01771747976911548
-0.0006540676595744681,-0.01623636967016041
-0.0006540276595744681,-0.0163351103434239
-0.000653987659574468,-0.01590723409261394
-0.0006539476595744681,-0.01541353072629648
-0.0006539076595744681,-0.01574266630384205
-0.0006538676595744681,-0.01547935784180559
-0.0006538276595744681,-0.01491982735997914
-0.000653787659574468,-0.0147223460134497
-0.0006537476595744681,-0.01412990197386875
-0.0006537076595744681,-0.01412990197386875
-0.0006536676595744681,-0.0140969884161142
-0.0006536276595744681,-0.01416281553162319
-0.000653587659574468,-0.01314249524123342
-0.000653547659574468,-0.01389950706958685
-0.0006535076595744681,-0.01274753254817735
-0.0006534676595744681,-0.01304375456796837
-0.0006534276595744681,-0.0134058037032685
-0.0006533876595744681,-0.01231965629737009
-0.000653347659574468,-0.01314249524123204
-0.0006533076595744681,-0.01208926139308621
-0.0006532676595744681,-0.01103602754494038
-0.0006532276595744681,-0.01195760716206798
-0.0006531876595744681,-0.01225382918185846
-0.000653147659574468,-0.01034484283209654
-0.0006531076595744681,-0.01136516312248596
-0.0006530676595744681,-0.01136516312248596
-0.0006530276595744681,-0.01073980552514937
-0.0006529876595744681,-0.01021318860107742
-0.000652947659574468,-0.01031192927433941
-0.0006529076595744681,-0.009916966581285444
-0.0006528676595744681,-0.009094127637421515
-0.0006528276595744681,-0.009357436099457973
-0.0006527876595744681,-0.009653658119248447
-0.000652747659574468,-0.009225781868438667
-0.0006527076595744681,-0.008633337828857716
-0.0006526676595744681,-0.008666251386612273
-0.0006526276595744681,-0.008106720904784802
-0.0006525876595744681,-0.008402942924575817
-0.0006525476595744681,-0.007711758211731375
-0.000652507659574468,-0.007942153116012016
-0.0006524676595744681,-0.007744671769484675
-0.0006524276595744681,-0.007316795518675433
-0.0006523876595744681,-0.007316795518675433
-0.0006523476595744681,-0.007744671769483897
-0.000652307659574468,-0.00721805484541218
-0.0006522676595744681,-0.007448449749693661
-0.0006522276595744681,-0.006921832825620747
-0.0006521876595744681,-0.006329388786038719
-0.0006521476595744681,-0.007218054845410144
-0.000652107659574468,-0.00702057349888376
-0.0006520676595744681,-0.00665852436358429
-0.0006520276595744681,-0.00619773455502049
-0.0006519876595744681,-0.006625610805829733
-0.0006519476595744681,-0.006592697248075235
-0.000651907659574468,-0.00725096840316566
-0.0006518676595744681,-0.00688891926786619
-0.0006518276595744681,-0.006592697248075176
-0.0006517876595744681,-0.00665852436358429
-0.0006517476595744681,-0.00688891926786619
-0.000651707659574468,-0.006197734555022347
-0.000651667659574468,-0.007218054845411761
-0.0006516276595744681,-0.006954746383375304
-0.0006515876595744681,-0.006428129459302391
-0.0006515476595744681,-0.006757265036847961
-0.0006515076595744681,-0.006428129459302989
-0.000651467659574468,-0.006691437921338248
-0.0006514276595744681,-0.006362302343793276
-0.0006513876595744681,-0.006790178594602518
-0.0006513476595744681,-0.006493956574811504
-0.0006513076595744681,-0.00642812945930251
-0.000651267659574468,-0.006691437921337949
-0.0006512276595744681,-0.00619773455502049
-0.0006511876595744681,-0.006230648112775047
-0.0006511476595744681,-0.006592697248075176
-0.0006511076595744681,-0.006625610805829673
-0.000651067659574468,-0.005967339650738711
-0.0006510276595744681,-0.006033166766247705
-0.0006509876595744681,-0.006000253208493148
-0.0006509476595744681,-0.00619773455502049
-0.0006509076595744681,-0.006362302343793276
-0.000650867659574468,-0.00596733965073877
-0.000650827659574468,-0.006066080324002262
-0.0006507876595744681,-0.00586859897747492
-0.0006507476595744681,-0.00586859897747492
-0.0006507076595744681,-0.005671117630947577
-0.0006506676595744681,-0.005704031188702074
-0.000650627659574468,-0.005539463399929348
-0.0006505876595744681,-0.005111587149120106
-0.0006505476595744681,-0.005144500706874663
-0.0006505076595744681,-0.00517741426462922
-0.0006504676595744681,-0.005473636284419696
-0.000650427659574468,-0.005309068495647089
-0.0006503876595744681,-0.005111587149120106
-0.0006503476595744681,-0.00517741426462922
-0.0006503076595744681,-0.004716624456065421
-0.0006502676595744681,-0.004881192244837907
-0.000650227659574468,-0.005045760033610572
-0.0006501876595744681,-0.004815365129329092
-0.0006501476595744681,-0.004749538013819977
-0.0006501076595744681,-0.004190007531992507
-0.0006500676595744681,-0.004091266858729016
-0.000650027659574468,-0.004124180416483572
-0.0006499876595744681,-0.004222921089747064
-0.0006499476595744681,-0.004091266858728836
-0.0006499076595744681,-0.003663390607919593
-0.0006498676595744681,-0.00369630416567415
-0.0006498276595744681,-0.003795044838937642
-0.000649787659574468,-0.003827958396692379
-0.0006497476595744681,-0.003235514357110351
-0.0006497076595744681,-0.003070946568337565
-0.0006496676595744681,-0.003235514357110351
-0.0006496276595744681,-0.002939292337319876
-0.000649587659574468,-0.002708897433037976
-0.0006495476595744681,-0.003005119452828451
-0.0006495076595744681,-0.002248107624473638
-0.0006494676595744681,-0.002149366951209966
-0.0006494276595744681,-0.002610156759772927
-0.000649387659574468,-0.002643070317526287
-0.0006493476595744681,-0.001524009353873381
-0.0006493076595744681,-0.00165566358489161
-0.0006492676595744681,-0.00119487377632781
-0.0006492276595744681,-0.00191897204692675
-0.000649187659574468,-0.001326528007346398
-0.0006491476595744681,-0.001524009353873381
-0.0006491076595744681,-0.001129046660818696
-0.0006490676595744681,-0.0006682568522548965
-0.0006490276595744681,-0.001359441565100596
-0.000648987659574468,-0.001161960218572834
-0.000648947659574468,-0.0009315653142913533
-0.0006489076595744681,-0.001161960218573253
-0.0006488676595744681,-0.0007999110832731249
-0.0006488276595744681,-0.000832824641027682
-0.0006487876595744681,-0.0005695161789917042
-0.000648747659574468,-0.0004049483902186791
-0.0006487076595744681,-0.0005366026212366681
-0.0006486676595744681,-0.0007340839677640107
-0.0006486276595744681,-0.0006353432945003394
-0.0006485876595744681,5.584141834410257e-05
-0.000648547659574468,-0.0001416399281813841
-0.0006485076595744681,0.0001874956493635883
-0.0006484676595744681,0.0002204092071181454
-0.0006484276595744681,-0.0006024297367457822
-0.0006483876595744681,0.0003191498803801403
-0.000648347659574468,5.584141834547959e-05
-0.0006483076595744681,0.0001216685338544741
-0.0006482676595744681,0.0004837176691546022
-0.0006482276595744681,0.0003849769958909309
-0.0006481876595744681,0.0002862363226272596
-0.000648147659574468,0.0004178905536451288
-0.000648107659574468,0.0002204092071181454
-0.0006480676595744681,0.0009445074777184018
-0.0006480276595744681,0.0009445074777184018
-0.0006479876595744681,0.00107616170873663
-0.0006479476595744681,0.0008457668044551496
-0.000647907659574468,0.001306556613017752
-0.0006478676595744681,0.0008786803622092876
-0.0006478276595744681,0.001043248150982073
-0.0006477876595744681,0.001141988824245744
-0.0006477476595744681,0.0008457668044552693
-0.000647707659574468,0.001141988824246702
-0.0006476676595744681,0.001668605748318658
-0.0006476276595744681,0.001043248150982073
-0.0006475876595744681,0.001569865075054987
-0.0006475476595744681,0.001438210844036998
-0.000647507659574468,0.001240729497509595
-0.0006474676595744681,0.001339470170773087
-0.0006474276595744681,0.0009445074777184018
-0.0006473876595744681,0.0004508041114000451
-0.0006473476595744681,0.001405297286282201
-0.000647307659574468,0.0005824583424186327
-0.000647267659574468,0.0007799396889456162
-0.0006472276595744681,0.000714112573436502
-0.0006471876595744681,0.0006811990156819448
-0.0006471476595744681,0.0006811990156819448
-0.0006471076595744681,0.001306556613017392
-0.000647067659574468,0.000714112573436502
-0.0006470276595744681,0.0005166312269091594
-0.0006469876595744681,0.0005166312269091594
-0.0006469476595744681,0.001043248150982073
-0.0006469076595744681,0.001668605748317521
-0.000646867659574468,0.0009445074777203775
-0.0006468276595744681,0.002030654883618786
-0.0006467876595744681,0.0001545820916090312
-0.0006467476595744681,0.001668605748318658
-0.0006467076595744681,0.001866087094845642
-0.000646667659574468,0.001109075266491307
-0.0006466276595744681,0.001174902382000301
-0.0006465876595744681,0.002096481999127901
-0.0006465476595744681,0.001569865075054987
-0.0006465076595744681,0.001339470170773506
-0.000646467659574468,0.002096481999125985
-0.0006464276595744681,0.001043248150982073
-0.0006463876595744681,0.001602778632809544
-0.0006463476595744681,0.002491444692182586
-0.0006463076595744681,0.001471124401791315
-0.0006462676595744681,0.001240729497509835
-0.000646227659574468,0.002063568441373343
-0.0006461876595744681,0.002129395556882458
-0.0006461476595744681,0.001504037959545873
-0.0006461076595744681,0.002853493827482714
-0.0006460676595744681,0.002853493827482714
-0.000646027659574468,0.002392704018918914
-0.0006459876595744681,0.002392704018918914
-0.0006459476595744681,0.003182629405028285
-0.0006459076595744681,0.002820580269728157
-0.0006458676595744681,0.003116802289518632
-0.000645827659574468,0.003281370078292555
-0.0006457876595744681,0.003610505655837527
-0.0006457476595744681,0.003511764982573856
-0.0006457076595744681,0.003314283636046514
-0.0006456676595744681,0.004400431041944922
-0.000645627659574468,0.003314283636050944
-0.0006455876595744681,0.00574988690988374
-0.0006455476595744681,0.00574988690988374
-0.0006455076595744681,0.0030180616162555
-0.0006454676595744681,0.004466258157456012
-0.000645427659574468,0.005223269985810047
-0.000645387659574468,0.004795393735001583
-0.0006453476595744681,0.00482830729275614
-0.0006453076595744681,0.004499171715210569
-0.0006452676595744681,0.004696653061737912
-0.0006452276595744681,0.005223269985809868
-0.000645187659574468,0.005256183543565503
-0.0006451476595744681,0.005322010659074497
-0.0006451076595744681,0.005486578447847282
-0.0006450676595744681,0.004235863253174112
-0.0006450276595744681,0.00653981229598892
-0.000644987659574468,0.005585319121110415
-0.0006449476595744681,0.00528909710131994
-0.0006449076595744681,0.006276503833956653
-0.0006448676595744681,0.005256183543565383
-0.0006448276595744681,0.005815714025391836
-0.000644787659574468,0.006506898738237176
-0.0006447476595744681,0.00574988690988374
-0.0006447076595744681,0.006111936045183867
-0.0006446676595744681,0.006046108929674754
-0.0006446276595744681,0.005585319121110954
-0.000644587659574468,0.005289097101321557
-0.000644547659574468,0.006177763160692982
-0.0006445076595744681,0.005486578447847282
-0.0006444676595744681,0.005552405563356397
-0.0006444276595744681,0.005716973352129182
-0.0006443876595744681,0.005651146236620188
-0.000644347659574468,0.005289097101320838
-0.0006443076595744681,0.005782800467638296
-0.0006442676595744681,0.005848627583147411
-0.0006442276595744681,0.006046108929674754
-0.0006441876595744681,0.005618232678866289
-0.000644147659574468,0.005289097101320419
-0.0006441076595744681,0.005552405563356397
-0.0006440676595744681,0.00528909710131994
-0.0006440276595744681,0.005947368256411082
-0.0006439876595744681,0.00584862758314759
-0.000643947659574468,0.00551949200560148
-0.0006439076595744681,0.005322010659074497
-0.0006438676595744681,0.00574988690988374
-0.0006438276595744681,0.005256183543565383
-0.0006437876595744681,0.005881541140901968
-0.000643747659574468,0.004235863253176447
-0.000643707659574468,0.005519492005601839
-0.0006436676595744681,0.005025788639283483
-0.0006436276595744681,0.005486578447847282
-0.0006435876595744681,0.004663739503983355
-0.0006435476595744681,0.004861220850510339
-0.000643507659574468,0.005025788639283483
-0.0006434676595744681,0.004663739503983355
-0.0006434276595744681,0.004499171715210569
-0.0006433876595744681,0.004137122579910441
-0.0006433476595744681,0.004992875081527369
-0.000643307659574468,0.004532085272964587
-0.0006432676595744681,0.004235863253174112
-0.0006432276595744681,0.004499171715210569
-0.0006431876595744681,0.003873814117873984
-0.0006431476595744681,0.004959961523772393
-0.000643107659574468,0.003939641233383397
-0.0006430676595744681,0.004104209022155884
-0.0006430276595744681,0.003972554791137656
-0.0006429876595744681,0.004301690368683227
-0.0006429476595744681,0.003775073444611271
-0.000642907659574468,0.003643419213592623
-0.0006428676595744681,0.003939641233383098
-0.0006428276595744681,0.004762480177247026
-0.0006427876595744681,0.003840900560119427
-0.0006427476595744681,0.004005468348892213
-0.0006427076595744681,0.003742159886856235
-0.000642667659574468,0.003972554791137656
-0.0006426276595744681,0.004400431041946898
-0.0006425876595744681,0.004532085272965126
-0.0006425476595744681,0.004202949695419555
-0.0006425076595744681,0.004137122579910561
-0.000642467659574468,0.004564998830719025
-0.0006424276595744681,0.004202949695419555
-0.0006423876595744681,0.004466258157456012
-0.0006423476595744681,0.004630825946228797
-0.0006423076595744681,0.005091615754791759
-0.000642267659574468,0.004861220850510159
-0.0006422276595744681,0.004564998830719684
-0.0006421876595744681,0.004861220850510698
-0.0006421476595744681,0.004992875081528926
-0.0006421076595744681,0.004729566619492948
-0.000642067659574468,0.005157442870301712
-0.0006420276595744681,0.005157442870301712
-0.0006419876595744681,0.005585319121110954
-0.0006419476595744681,0.005420751332338168
-0.0006419076595744681,0.00574988690988374
-0.000641867659574468,0.005815714025392554
-0.000641827659574468,0.005651146236620068
-0.0006417876595744681,0.006177763160692982
-0.0006417476595744681,0.005947368256411082
-0.0006417076595744681,0.006111936045183867
-0.0006416676595744681,0.006572725853746829
-0.000641627659574468,0.006704380084765716
-0.0006415876595744681,0.006605639411502225
-0.0006415476595744681,0.006605639411502225
-0.0006415076595744681,0.006408158064974882
-0.0006414676595744681,0.006441071622729379
-0.000641427659574468,0.006836034315784603
-0.0006413876595744681,0.007099342777820581
-0.0006413476595744681,0.00700060210455691
-0.0006413076595744681,0.006934774989047795
-0.0006412676595744681,0.00663855296925732
-0.000641227659574468,0.007000602104556611
-0.0006411876595744681,0.006836034315784124
-0.0006411476595744681,0.007823441048420837
-0.0006411076595744681,0.007527219028629823
-0.0006410676595744681,0.008251317299230079
-0.000641027659574468,0.007593046144140315
-0.000640987659574468,0.008350057972493751
-0.0006409476595744681,0.007856354606175394
-0.0006409076595744681,0.00802092239494818
-0.0006408676595744681,0.007955095279439066
-0.0006408276595744681,0.00825131729922954
-0.000640787659574468,0.00825131729923014
-0.0006407476595744681,0.008284230856984636
-0.0006407076595744681,0.008053835952702737
-0.0006406676595744681,0.008580452876775651
-0.0006406276595744681,0.008514625761266657
-0.000640587659574468,0.008745020665548017
-0.0006405476595744681,0.008514625761266537
-0.0006405076595744681,0.00802092239494818
-0.0006404676595744681,0.008777934223302994
-0.0006404276595744681,0.008481712203512518
-0.000640387659574468,0.008876674896566066
-0.0006403476595744681,0.008547539319021094
-0.0006403076595744681,0.009403291820639578
-0.0006402676595744681,0.008777934223302994
-0.0006402276595744681,0.008185490183722043
-0.000640187659574468,0.009436205378393776
-0.000640147659574468,0.009238724031866792
-0.0006401076595744681,0.009107069800848565
-0.0006400676595744681,0.008415885088002865
-0.0006400276595744681,0.008547539319021094
-0.0006399876595744681,0.008152576625967127
-0.000639947659574468,0.008876674896566664
-0.0006399076595744681,0.00904124268533945
-0.0006398676595744681,0.008843761338812107
-0.0006398276595744681,0.008876674896566664
-0.0006397876595744681,0.008777934223303174
-0.000639747659574468,0.008679193550039621
-0.0006397076595744681,0.008843761338812107
-0.0006396676595744681,0.00881084778105755
-0.0006396276595744681,0.008843761338812107
-0.0006395876595744681,0.009929908744710517
-0.000639547659574468,0.009798254513693724
-0.0006395076595744681,0.00950203249390325
-0.0006394676595744681,0.00802092239494818
-0.0006394276595744681,0.009238724031866792
-0.0006393876595744681,0.009666600282675256
-0.000639347659574468,0.009271637589621889
-0.0006393076595744681,0.009567859609412364
-0.0006392676595744681,0.009271637589621349
-0.0006392276595744681,0.009567859609412364
-0.0006391876595744681,0.009370378262885021
-0.0006391476595744681,0.009436205378394015
-0.000639107659574468,0.009798254513694264
-0.0006390676595744681,0.01029195788001262
-0.0006390276595744681,0.01039069855327629
-0.0006389876595744681,0.01042361211103085
-0.0006389476595744681,0.009896995186958893
-0.000638907659574468,0.01022613076450279
-0.0006388676595744681,0.00983116807144882
-0.0006388276595744681,0.01022613076450351
-0.0006387876595744681,0.01052235278429452
-0.0006387476595744681,0.01095022903510298
-0.000638707659574468,0.01095022903510316
-0.0006386676595744681,0.01062109345755819
-0.0006386276595744681,0.01075274768857642
-0.0006385876595744681,0.01078566124633098
-0.0006385476595744681,0.01091731547734897
-0.000638507659574468,0.01154267307468483
-0.0006384676595744681,0.01101605615061288
-0.0006384276595744681,0.01055526634204908
-0.0006383876595744681,0.01144393240142212
-0.0006383476595744681,0.01108188326612199
-0.000638307659574468,0.01081857480408595
-0.000638267659574468,0.01104896970836743
-0.0006382276595744681,0.01108188326612199
-0.0006381876595744681,0.01081857480408553
-0.0006381476595744681,0.01144393240142212
-0.0006381076595744681,0.01088440191959567
-0.000638067659574468,0.01118062393938548
-0.0006380276595744681,0.01108188326612199
-0.0006379876595744681,0.01121353749714022
-0.0006379476595744681,0.01111479682387655
-0.0006379076595744681,0.01078566124633158
-0.000637867659574468,0.0119376357677406
-0.0006378276595744681,0.01200346288324959
-0.0006377876595744681,0.01170724086345858
-0.0006377476595744681,0.01124645105489478
-0.0006377076595744681,0.0109502290351043
-0.000637667659574468,0.01170724086345762
-0.0006376276595744681,0.01118062393938566
-0.0006375876595744681,0.01177306797896769
-0.0006375476595744681,0.0120692899987587
