Analysis/New Tests/wrd01_d2s01/cmb08_ch42.csv

#Digilent WaveForms Oscilloscope Acquisition
#Device Name: ADP3450
#Serial Number: SN:210018B9D9B0
#Date Time: 2024-08-06 17:03:13.779.400.200
#Sample rate: 2.94118e+06Hz
#Samples: 32768
#Trigger: Source: Channel 3 Type: Edge Condition: Rising Level: 60 mV Hyst.: Auto HoldOff: 0 s
#Channel 3: Range: 200 mV/div Offset: -20 mV Attenuation: 1 X Coupling: DC Bandwidth: 0 Hz Sample Mode: Average

Time (s),Channel 3 (V)
-0.005570553425414365,0.03080100141859137
-0.005570213425414364,0.02974776757044237
-0.005569873425414365,0.02800334900945402
-0.005569533425414365,0.02586396775540781
-0.005569193425414364,0.02425120342543313
-0.005568853425414365,0.0234941915970797
-0.005568513425414365,0.02296757467300678
-0.005568173425414364,0.02280300688423382
-0.005567833425414365,0.02270426621097033
-0.005567493425414365,0.02214473572914285
-0.005567153425414364,0.02155229168955855
-0.005566813425414365,0.02030157649488766
-0.005566473425414365,0.0191166884157236
-0.005566133425414364,0.01835967658736819
-0.005565793425414365,0.01803054100982322
-0.005565453425414365,0.01839259014512334
-0.005565113425414364,0.01888629351144236
-0.005564773425414365,0.01924834264674183
-0.005564433425414365,0.01905086130021449
-0.005564093425414364,0.01862298504940309
-0.005563753425414365,0.01743809697024119
-0.005563413425414365,0.01654943091086815
-0.005563073425414365,0.01549619706272423
-0.005562733425414365,0.01585824619802245
-0.005562393425414365,0.01641777667984992
-0.005562053425414365,0.01753683764350282
-0.005561713425414365,0.01789888677880499
-0.005561373425414365,0.01763557831676853
-0.005561033425414365,0.01638486312209764
-0.005560693425414365,0.01559493773598599
-0.005560353425414365,0.01506832081191307
-0.005560013425414365,0.01493666658089509
-0.005559673425414365,0.01506832081191307
-0.005559333425414365,0.0154303699472132
-0.005558993425414365,0.01539745638945871
-0.005558653425414365,0.0156607648514951
-0.005558313425414365,0.01483792590763118
-0.005557973425414365,0.0145087903300862
-0.005557633425414365,0.01378469205948535
-0.005557293425414365,0.01315933446214876
-0.005556953425414365,0.01296185311562178
-0.005556613425414365,0.01217192772951205
-0.005556273425414365,0.01207318705624838
-0.005555933425414365,0.01151365657442193
-0.005555593425414364,0.01069081763055698
-0.005555253425414365,0.009966719359956725
-0.005554913425414365,0.009341361762621276
-0.005554573425414364,0.00967049734016571
-0.005554233425414365,0.009933805802202166
-0.005553893425414365,0.01115160743912078
-0.005553553425414364,0.01105286676585711
-0.005553213425414365,0.01138200234340268
-0.005552873425414365,0.01194153282523015
-0.005552533425414364,0.01289602600011231
-0.005552193425414365,0.01375177850173079
-0.005551853425414365,0.01441004965682193
-0.005551513425414364,0.01431130898355874
-0.005551173425414365,0.01457461744559472
-0.005550833425414365,0.01506832081191307
-0.005550493425414364,0.01467335811885803
-0.005550153425414365,0.01447587677233105
-0.005549813425414365,0.01414674119478548
-0.005549473425414364,0.01348847003969308
-0.005549133425414365,0.01279728532684864
-0.005548793425414365,0.01266563109583041
-0.005548453425414364,0.01240232263379353
-0.005548113425414365,0.01217192772951205
-0.005547773425414365,0.01184279215196648
-0.005547433425414364,0.01167822436319381
-0.005547093425414365,0.01174405147870281
-0.005546753425414365,0.01138200234340268
-0.005546413425414364,0.01115160743912114
-0.005546073425414365,0.01134908878564812
-0.005545733425414365,0.01118452099687534
-0.005545393425414364,0.0113490887856492
-0.005545053425414365,0.01194153282523015
-0.005544713425414365,0.01279728532684864
-0.005544373425414364,0.01394925984825939
-0.005544033425414365,0.01464044456110383
-0.005543693425414365,0.01480501234987662
-0.005543353425414364,0.01467335811885815
-0.005543013425414365,0.01454170388784016
-0.005542673425414365,0.01437713609906738
-0.005542333425414365,0.0140809140792769
-0.005541993425414365,0.01411382763703092
-0.005541653425414365,0.01434422254131282
-0.005541313425414365,0.01470627167661229
-0.005540973425414365,0.01437713609906738
-0.005540633425414365,0.01450879033008561
-0.005540293425414365,0.0145746174455946
-0.005539953425414365,0.01394925984825813
-0.005539613425414365,0.01424548186804915
-0.005539273425414365,0.01421256831029465
-0.005538933425414365,0.01441004965682193
-0.005538593425414365,0.01417965475254003
-0.005538253425414365,0.01368595138622258
-0.005537913425414365,0.01263271753807585
-0.005537573425414365,0.01197444638298471
-0.005537233425414365,0.01118452099687677
-0.005536893425414365,0.009933805802202166
-0.005536553425414365,0.008485609261001654
-0.005536213425414365,0.007662770317139224
-0.005535873425414365,0.007136153393064813
-0.005535533425414365,0.006905758488782913
-0.005535193425414365,0.007103239835309897
-0.005534853425414364,0.008189387241210641
-0.005534513425414365,0.00967049734016571
-0.005534173425414365,0.01082247186157311
-0.005533833425414364,0.01180987859421192
-0.005533493425414365,0.01279728532684864
-0.005533153425414365,0.01289602600011231
-0.005532813425414364,0.01194153282523015
-0.005532473425414365,0.01069081763055698
-0.005532133425414365,0.01003254647546584
-0.005531793425414364,0.009604670224656596
-0.005531453425414365,0.009703410897920267
-0.005531113425414365,0.009867978686693053
-0.005530773425414364,0.01013128714872951
-0.005530433425414365,0.01059207695729331
-0.005530093425414365,0.01115160743912078
-0.005529753425414364,0.01144782945891125
-0.005529413425414365,0.01115160743912078
-0.005529073425414365,0.01131617522789356
-0.005528733425414364,0.01131617522789255
-0.005528393425414365,0.0107566447460661
-0.005528053425414365,0.01049333628402964
-0.005527713425414364,0.01003254647546518
-0.005527373425414365,0.00967049734016571
-0.005527033425414365,0.009802151571183939
-0.005526693425414364,0.009900892244447309
-0.005526353425414365,0.009736324455674824
-0.005526013425414365,0.01016420070648407
-0.005525673425414364,0.009966719359956964
-0.005525333425414365,0.01009837359097495
-0.005524993425414365,0.01003254647546584
-0.005524653425414364,0.009999632917711162
-0.005524313425414365,0.009933805802202166
-0.005523973425414365,0.0100654600332204
-0.005523633425414364,0.01006546003321902
-0.005523293425414365,0.009308448204865582
-0.005522953425414365,0.008847658396301783
-0.005522613425414364,0.009275534647110905
-0.005522273425414365,0.009209707531601911
-0.005521933425414365,0.009703410897920267
-0.005521593425414364,0.01052624984178419
-0.005521253425414365,0.01052624984178419
-0.005520913425414365,0.01046042272627508
-0.005520573425414365,0.01059207695729307
-0.005520233425414365,0.01052624984178419
-0.005519893425414365,0.01101995320810255
-0.005519553425414365,0.011645310805438
-0.005519213425414365,0.01210610061400294
-0.005518873425414365,0.01207318705624838
-0.005518533425414365,0.01210610061400288
-0.005518193425414365,0.01213901417175749
-0.005517853425414365,0.01194153282523015
-0.005517513425414365,0.01144782945891269
-0.005517173425414365,0.01131617522789356
-0.005516833425414365,0.01177696503645737
-0.005516493425414365,0.01210610061400234
-0.005516153425414365,0.01283019888460319
-0.005515813425414365,0.01368595138622168
-0.005515473425414365,0.01434422254131162
-0.005515133425414365,0.01434422254131282
-0.005514793425414365,0.01338972936643066
-0.005514453425414365,0.01184279215196929
-0.005514113425414364,0.009900892244447609
-0.005513773425414365,0.008353955029983425
-0.005513433425414365,0.006905758488785547
-0.005513093425414364,0.007201980508573926
-0.005512753425414365,0.008288127914474312
-0.005512413425414365,0.01039459561076597
-0.005512073425414364,0.01256689042256674
-0.005511733425414365,0.01342264292418522
-0.005511393425414365,0.01368595138622168
-0.005511053425414364,0.01315933446214876
-0.005510713425414365,0.01240232263379395
-0.005510373425414365,0.01167822436319369
-0.005510033425414364,0.01101995320810255
-0.005509693425414365,0.01088829897708432
-0.005509353425414365,0.01046042272627508
-0.005509013425414364,0.01052624984178467
-0.005508673425414365,0.01078955830382065
-0.005508333425414365,0.01072373118831154
-0.005507993425414364,0.01118452099687636
-0.005507653425414365,0.01174405147870281
-0.005507313425414365,0.01227066840277572
-0.005506973425414364,0.01263271753807687
-0.005506633425414365,0.01319224801990332
-0.005506293425414365,0.01388343273274902
-0.005505953425414364,0.01391634629050292
-0.005505613425414365,0.01355429715520345
-0.005505273425414365,0.01312642090439421
-0.005504933425414364,0.01292893955786603
-0.005504593425414365,0.01246814974930307
-0.005504253425414365,0.01194153282523015
-0.005503913425414364,0.01171113792094801
-0.005503573425414365,0.01157948368993002
-0.005503233425414365,0.01111869388136622
-0.005502893425414364,0.0104933362840297
-0.005502553425414365,0.01052624984178419
-0.005502213425414365,0.01065790407280242
-0.005501873425414364,0.01141491590115861
-0.005501533425414365,0.01217192772951205
-0.005501193425414365,0.01306059378888509
-0.005500853425414364,0.01348847003969439
-0.005500513425414365,0.01352138359744889
-0.005500173425414365,0.01342264292418522
-0.005499833425414365,0.01283019888460427
-0.005499493425414365,0.01174405147870281
-0.005499153425414365,0.01055916339953875
-0.005498813425414365,0.009473015993640343
-0.005498473425414365,0.008288127914474312
-0.005498133425414365,0.008321041472228868
-0.005497793425414365,0.008781831280791831
-0.005497453425414365,0.009473015993638367
-0.005497113425414365,0.01065790407280242
-0.005496773425414365,0.01240232263379078
-0.005496433425414365,0.01358721071295801
-0.005496093425414365,0.01398217340601269
-0.005495753425414365,0.01434422254131216
-0.005495413425414365,0.01414674119478548
-0.005495073425414365,0.01391634629050358
-0.005494733425414365,0.01371886494397659
-0.005494393425414365,0.01289602600011231
-0.005494053425414365,0.01259980398032129
-0.005493713425414365,0.01230358196053082
-0.005493373425414365,0.01220484128726661
-0.005493033425414365,0.01253397686481218
-0.005492693425414365,0.0134226429241836
-0.005492353425414364,0.01289602600011231
-0.005492013425414365,0.01220484128726661
-0.005491673425414365,0.01134908878564968
-0.005491333425414364,0.01088829897708432
-0.005490993425414365,0.01069081763055698
-0.005490653425414365,0.01009837359097495
-0.005490313425414364,0.0100654600332204
-0.005489973425414365,0.01003254647546584
-0.005489633425414365,0.009835065128938496
-0.005489293425414364,0.009900892244447609
-0.005488953425414365,0.01026294137974774
-0.005488613425414365,0.01171113792094825
-0.005488273425414364,0.0133897293664327
-0.005487933425414365,0.01450879033008561
-0.005487593425414365,0.01533162927394953
-0.005487253425414364,0.01566076485149439
-0.005486913425414365,0.01526580215844042
-0.005486573425414365,0.01441004965682193
-0.005486233425414364,0.01332390225091993
-0.005485893425414365,0.01243523619154851
-0.005485553425414365,0.01141491590115724
-0.005485213425414364,0.01069081763055536
-0.005484873425414365,0.009802151571183939
-0.005484533425414365,0.009538843109147481
-0.005484193425414364,0.009242621089356109
-0.005483853425414365,0.009045139742829125
-0.005483513425414365,0.009275534647111025
-0.005483173425414364,0.009637583782412291
-0.005482833425414365,0.01026294137974774
-0.005482493425414365,0.01105286676585711
-0.005482153425414364,0.01184279215196726
-0.005481813425414365,0.01227066840277572
-0.005481473425414365,0.01223775484502116
-0.005481133425414364,0.01230358196052986
-0.005480793425414365,0.01207318705624838
-0.005480453425414365,0.01144782945891179
-0.005480113425414364,0.0115794836899299
-0.005479773425414365,0.01151365657442091
-0.005479433425414365,0.01141491590115724
-0.005479093425414365,0.01118452099687576
-0.005478753425414365,0.008057733010192412
-0.005478413425414365,-0.0004010513327287642
-0.005478073425414365,-0.01642995395916892
-0.005477733425414365,-0.04085181381307945
-0.005477393425414365,-0.07179055810236312
-0.005477053425414365,-0.1056586090317408
-0.005476713425414365,-0.1399216226542964
-0.005476373425414365,-0.1706628855970527
-0.005476033425414365,-0.196763336896369
-0.005475693425414365,-0.2160506817405869
-0.005475353425414365,-0.2289857099381279
-0.005475013425414365,-0.2359633841820813
-0.005474673425414365,-0.2381027654361402
-0.005474333425414365,-0.2367533095682033
-0.005473993425414365,-0.2328036826376637
-0.005473653425414365,-0.2269779829150999
-0.005473313425414365,-0.2199344815556247
-0.005472973425414365,-0.2121339683678088
-0.005472633425414365,-0.2039055789291554
-0.005472293425414365,-0.1948214369888976
-0.005471953425414365,-0.1864943068770098
-0.005471613425414364,-0.1786608801314101
-0.005471273425414365,-0.1721769092537623
-0.005470933425414365,-0.1668119993397793
-0.005470593425414364,-0.1619078792343405
-0.005470253425414365,-0.1570037591289115
-0.005469913425414365,-0.151243886521864
-0.005469573425414364,-0.1450890512217618
-0.005469233425414365,-0.139427919287978
-0.005468893425414365,-0.1334376517766486
-0.005468553425414364,-0.127908174073883
-0.005468213425414365,-0.1227736590641721
-0.005467873425414365,-0.1193177354999436
-0.005467533425414364,-0.1153351950116422
-0.005467193425414365,-0.111484308754359
-0.005466853425414365,-0.1076005089393213
-0.005466513425414364,-0.1040129311440673
-0.005466173425414365,-0.1000633042135277
-0.005465833425414365,-0.09604785016747172
-0.005465493425414364,-0.09104498938877077
-0.005465153425414365,-0.08650291841865015
-0.005464813425414365,-0.08252037793034875
-0.005464473425414364,-0.07804413407572336
-0.005464133425414365,-0.0749502596468006
-0.005463793425414365,-0.07202095300664502
-0.005463453425414364,-0.06981574463708455
-0.005463113425414365,-0.06698517867019779
-0.005462773425414365,-0.06458248895411511
-0.005462433425414364,-0.0616860958717087
-0.005462093425414365,-0.05872387567380396
-0.005461753425414365,-0.05566291480263014
-0.005461413425414364,-0.05312857085552632
-0.005461073425414365,-0.05151580652555595
-0.005460733425414365,-0.04927768459824607
-0.005460393425414364,-0.04680916776664944
-0.005460053425414365,-0.04414316958853515
-0.005459713425414365,-0.04216835612326173
-0.005459373425414364,-0.04039102400451289
-0.005459033425414365,-0.03887700034780602
-0.005458693425414365,-0.03752754447986918
-0.005458353425414364,-0.03621100216968504
-0.005458013425414365,-0.03519068187929562
-0.005457673425414365,-0.03440075649318625
-0.005457333425414365,-0.03229428879689843
-0.005456993425414365,-0.03025364821611206
-0.005456653425414365,-0.02768639071125661
-0.005456313425414365,-0.02505330609089683
-0.005455973425414365,-0.02291392483684582
-0.005455633425414365,-0.02037958088974493
-0.005455293425414365,-0.01886555723303806
-0.005454953425414365,-0.01761484203836213
-0.005454613425414365,-0.01636412684368896
-0.005454273425414365,-0.01567294213084452
-0.005453933425414365,-0.01517923876452491
-0.005453593425414365,-0.01478427607147022
-0.005453253425414365,-0.01438931337841625
-0.005452913425414365,-0.01445514049392465
-0.005452573425414365,-0.01438931337841554
-0.005452233425414365,-0.01452096760943352
-0.005451893425414365,-0.01373104222332439
-0.005451553425414365,-0.01356647443455161
-0.005451213425414365,-0.01224993212437172
-0.005450873425414365,-0.0109663033719416
-0.005450533425414365,-0.009485193272986525
-0.005450193425414365,-0.008629440771369597
-0.005449853425414364,-0.006786281537112842
-0.005449513425414365,-0.005897615477739801
-0.005449173425414365,-0.005008949418368377
-0.005448833425414364,-0.005074776533875874
-0.005448493425414365,-0.004745640956330302
-0.005448153425414365,-0.004515246052048404
-0.005447813425414364,-0.004778554514084859
-0.005447473425414365,-0.004548159609802961
-0.005447133425414365,-0.003429098646148019
-0.005446793425414364,-0.002342951240247634
-0.005446453425414365,-0.001520112296383706
-0.005446113425414365,-0.000697273352519779
-0.005445773425414364,-0.0005656191215011925
-0.005445433425414365,-0.0003681377749742074
-0.005445093425414365,-0.0001706564284468665
-0.005444753425414364,-0.0006643597947652222
-0.005444413425414365,-0.0006643597947652222
-0.005444073425414365,-0.000433964890483321
-0.005443733425414364,0.000355960495626289
-0.005443393425414365,0.0004876147266442768
-0.005443053425414365,0.0004217876111351632
-0.005442713425414364,0.00068509607317216
-0.005442373425414365,0.0009813180929626325
-0.005442033425414365,0.001540848574790105
-0.005441693425414364,0.002166206172129862
-0.005441353425414365,0.003910624733118217
-0.005441013425414365,0.005095512812282273
-0.005440673425414364,0.006050005987165626
-0.005440333425414365,0.006708277142255571
-0.005439993425414365,0.006510795795728228
-0.005439653425414364,0.007498202528366078
-0.005439313425414365,0.008123560125701526
-0.005438973425414365,0.008288127914474312
-0.005438633425414364,0.00865017704977444
-0.005438293425414365,0.00865017704977444
-0.005437953425414365,0.008321041472228868
-0.005437613425414364,0.008189387241209923
-0.005437273425414365,0.007794424548155956
-0.005436933425414365,0.007761510990401397
-0.005436593425414365,0.008288127914473354
-0.005436253425414365,0.008386868587737984
-0.005435913425414365,0.008321041472228868
-0.005435573425414365,0.008123560125701885
-0.005435233425414365,0.00762985675938317
-0.005434893425414365,0.007234894066328485
-0.005434553425414365,0.007432375412855468
-0.005434213425414365,0.007432375412855827
-0.005433873425414365,0.007169066950819369
-0.005433533425414365,0.007695683874891326
-0.005433193425414365,0.008189387241210641
-0.005432853425414365,0.008386868587737984
-0.005432513425414365,0.008485609261001474
-0.005432173425414365,0.008123560125701526
-0.005431833425414365,0.008024819452437855
-0.005431493425414365,0.008650177049773302
-0.005431153425414365,0.008485609261001654
-0.005430813425414365,0.008551436376510768
-0.005430473425414365,0.009176793973846216
-0.005430133425414365,0.0100654600332204
-0.005429793425414365,0.0107566447460661
-0.005429453425414365,0.01157948368992853
-0.005429113425414364,0.01286311244235775
-0.005428773425414365,0.01342264292418522
-0.005428433425414365,0.01269854465358628
-0.005428093425414364,0.01197444638298471
-0.005427753425414365,0.01121743455462989
-0.005427413425414365,0.01032876849525685
-0.005427073425414364,0.009900892244447609
-0.005426733425414365,0.009275534647111025
-0.005426393425414365,0.008090646567946969
-0.005426053425414364,0.007893165221419626
-0.005425713425414365,0.007234894066328485
-0.005425373425414365,0.006872844931028356
-0.005425033425414364,0.00772859743264684
-0.005424693425414365,0.008814744838547226
-0.005424353425414365,0.009473015993638367
-0.005424013425414364,0.01085538541933126
-0.005423673425414365,0.01167822436319369
-0.005423333425414365,0.01230358196053028
-0.005422993425414364,0.01164531080543938
-0.005422653425414365,0.01177696503645737
-0.005422313425414365,0.01141491590115724
-0.005421973425414364,0.01154657013217618
-0.005421633425414365,0.01194153282523015
-0.005421293425414365,0.01263271753807585
-0.005420953425414364,0.01345555648194049
-0.005420613425414365,0.01385051917499446
-0.005420273425414365,0.01315933446214876
-0.005419933425414364,0.01233649551828202
-0.005419593425414365,0.01078955830382065
-0.005419253425414365,0.009835065128938496
-0.005418913425414364,0.009242621089357904
-0.005418573425414365,0.01003254647546584
-0.005418233425414365,0.01062499051504787
-0.005417893425414364,0.01105286676585759
-0.005417553425414365,0.01131617522789356
-0.005417213425414365,0.01098703965034799
-0.005416873425414364,0.01082247186157413
-0.005416533425414365,0.01023002782199318
-0.005416193425414365,0.009473015993638367
-0.005415853425414364,0.009242621089357186
-0.005415513425414365,0.009637583782411153
-0.005415173425414365,0.01039459561076597
-0.005414833425414365,0.01101995320810141
-0.005414493425414365,0.01131617522789356
-0.005414153425414365,0.01161239724768458
-0.005413813425414365,0.01151365657442109
