Analysis/New Tests/wrd01_d2s01/cmb07_ch16.csv

#Digilent WaveForms Oscilloscope Acquisition
#Device Name: ADP3450
#Serial Number: SN:210018B9D9B0
#Date Time: 2024-08-07 10:28:19.002.857.270
#Sample rate: 2.94118e+06Hz
#Samples: 32768
#Trigger: Source: Channel 3 Type: Edge Condition: Rising Level: 0 V Hyst.: Auto HoldOff: 0 s
#Channel 3: Range: 200 mV/div Offset: 0 V Attenuation: 1 X Coupling: DC Bandwidth: 0 Hz Sample Mode: Average

Time (s),Channel 3 (V)
-0.005570488837209303,0.005914454698656525
-0.005570148837209302,0.006506898738238733
-0.005569808837209303,0.006605639411502225
-0.005569468837209303,0.006046108929674754
-0.005569128837209302,0.006408158064974523
-0.005568788837209303,0.006210676718447538
-0.005568448837209303,0.006572725853747667
-0.005568108837209302,0.006473985180484415
-0.005567768837209303,0.006704380084765896
-0.005567428837209303,0.006408158064974882
-0.005567088837209302,0.006046108929674694
-0.005566748837209303,0.006013195371920196
-0.005566408837209303,0.006111936045183867
-0.005566068837209302,0.006539812295993589
-0.005565728837209303,0.006803120758029567
-0.005565388837209303,0.00756013258638438
-0.005565048837209302,0.007527219028630242
-0.005564708837209303,0.007757613932911723
-0.005564368837209303,0.007593046144138938
-0.005564028837209302,0.007099342777819863
-0.005563688837209303,0.006704380084765896
-0.005563348837209303,0.007198083451084253
-0.005563008837209303,0.007033515662311766
-0.005562668837209303,0.007066429220066024
-0.005562328837209303,0.006836034315784124
-0.005561988837209303,0.006934774989047616
-0.005561648837209303,0.006506898738238553
-0.005561308837209303,0.006111936045183867
-0.005560968837209303,0.005552405563357414
-0.005560628837209303,0.005552405563356397
-0.005560288837209303,0.005322010659074497
-0.005559948837209303,0.005354924216828994
-0.005559608837209302,0.005716973352129182
-0.005559268837209303,0.005716973352129182
-0.005558928837209303,0.005519492005602198
-0.005558588837209302,0.005782800467638296
-0.005558248837209303,0.00574988690988374
-0.005557908837209303,0.005552405563356756
-0.005557568837209302,0.004959961523774369
-0.005557228837209303,0.003775073444610313
-0.005556888837209303,0.004137122579909783
-0.005556548837209302,0.008086749510457293
-0.005556208837209303,0.01825703885661544
-0.005555868837209303,0.03701776677667887
-0.005555528837209302,0.06318404519158588
-0.005555188837209303,0.09557098602207009
-0.005554848837209303,0.1304264436840827
-0.005554508837209302,0.1644261488446035
-0.005554168837209303,0.1958915100579601
-0.005553828837209303,0.2216957393375329
-0.005553488837209302,0.2415426146635309
-0.005553148837209303,0.2545434699765809
-0.005552808837209303,0.2613894899895288
-0.005552468837209302,0.2636276119168386
-0.005552128837209303,0.2619490204713563
-0.005551788837209303,0.2579006528675457
-0.005551448837209302,0.25174581756743
-0.005551108837209303,0.2442744399571591
-0.005550768837209303,0.2360131369607653
-0.005550428837209302,0.2282784508884312
-0.005550088837209303,0.2210374681824418
-0.005549748837209303,0.2142901888427576
-0.005549408837209302,0.2079707857538714
-0.005549068837209303,0.2018159504537804
-0.005548728837209303,0.196121904962242
-0.005548388837209302,0.1899999832198848
-0.005548048837209303,0.1847009004214107
-0.005547708837209303,0.178513151563554
-0.005547368837209302,0.1718316993393667
-0.005547028837209303,0.1651173335574493
-0.005546688837209303,0.1587650169108197
-0.005546348837209302,0.1529393171882518
-0.005546008837209303,0.1467186547726518
-0.005545668837209303,0.1411891770698862
-0.005545328837209302,0.1360546620601656
-0.005544988837209303,0.1306897521461825
-0.005544648837209303,0.1256210642519807
-0.005544308837209302,0.1204536356845084
-0.005543968837209303,0.1167014901004957
-0.005543628837209303,0.112225246245876
-0.005543288837209302,0.1084072735463403
-0.005542948837209303,0.1045234737313096
-0.005542608837209303,0.101297945071363
-0.005542268837209303,0.09836863843121277
-0.005541928837209303,0.09547224534880641
-0.005541588837209303,0.09310246919047829
-0.005541248837209303,0.09050229812787301
-0.005540908837209303,0.08809960841178563
-0.005540568837209303,0.08497282042510271
-0.005540228837209303,0.08194477311168895
-0.005539888837209303,0.07878507156724596
-0.005539548837209303,0.07578993781158128
-0.005539208837209303,0.07335433453774846
-0.005538868837209302,0.07160991597675251
-0.005538528837209303,0.06920722626066983
-0.005538188837209303,0.06690327721785502
-0.005537848837209302,0.06486263663706832
-0.005537508837209303,0.06255868759424932
-0.005537168837209303,0.05989268941613503
-0.005536828837209302,0.05762165393106574
-0.005536488837209303,0.05439612527111914
-0.005536148837209303,0.05202634911279534
-0.005535808837209302,0.04919578314589912
-0.005535468837209303,0.04679309342981645
-0.005535128837209303,0.04455497150251064
-0.005534788837209302,0.04304094784579694
-0.005534448837209303,0.04211936822866934
-0.005534108837209303,0.0414281835158249
-0.005533768837209302,0.04083573947624162
-0.005533428837209303,0.03988124630135946
-0.005533088837209303,0.03928880226177743
-0.005532748837209302,0.03843304976015895
-0.005532408837209303,0.03701776677671299
-0.005532068837209303,0.03586579225530349
-0.005531728837209302,0.03435176859859387
-0.005531388837209303,0.03319979407718437
-0.005531048837209303,0.03204781955577487
-0.005530708837209302,0.03119206705415638
-0.005530368837209303,0.02994135185948321
-0.005530028837209303,0.02901977224235561
-0.005529688837209302,0.02806527906747244
-0.005529348837209303,0.02750574858564599
-0.005529008837209303,0.02691330454606396
-0.005528668837209302,0.02678165031504627
-0.005528328837209303,0.02707787233483674
-0.005527988837209303,0.02697913166157307
-0.005527648837209302,0.02688039098830887
-0.005527308837209303,0.02658416896851839
-0.005526968837209303,0.02556384867812712
-0.005526628837209302,0.0247080961765069
-0.005526288837209303,0.02375360300162648
-0.005525948837209303,0.02253580136470787
-0.005525608837209302,0.02108760482350562
-0.005525268837209303,0.02013311164862519
-0.005524928837209303,0.01855326087640645
-0.005524588837209302,0.0176316812592776
-0.005524248837209303,0.01694049654643316
-0.005523908837209303,0.01687466943092404
-0.005523568837209302,0.01615057116032199
-0.005523228837209303,0.01516316442768707
-0.005522888837209303,0.01397827634852302
-0.005522548837209302,0.0132541780779218
-0.005522208837209303,0.01272756115384985
-0.005521868837209303,0.01325417807792276
-0.005521528837209302,0.01410993057954196
-0.005521188837209303,0.01450489327259593
-0.005520848837209303,0.01526190510095074
-0.005520508837209303,0.01496568308116027
-0.005520168837209303,0.0143732390415777
-0.005519828837209303,0.013682054328732
-0.005519488837209303,0.01322126452016904
-0.005519148837209303,0.01332000519343187
-0.005518808837209303,0.01355040009771377
-0.005518468837209303,0.01299086961588732
-0.005518128837209303,0.0120692899987587
-0.005517788837209303,0.01197054932549503
-0.005517448837209303,0.01150975951693207
-0.005517108837209302,0.01111479682387655
-0.005516768837209303,0.01095022903510376
-0.005516428837209303,0.01111479682387625
-0.005516088837209302,0.01134519172815845
-0.005515748837209303,0.0118388950944768
-0.005515408837209303,0.01220094422977627
-0.005515068837209302,0.01226677134528605
-0.005514728837209303,0.01190472220998592
-0.005514388837209303,0.01147684595917746
-0.005514048837209302,0.01078566124633098
-0.005513708837209303,0.009469118936148692
-0.005513368837209303,0.008942502012076737
-0.005513028837209302,0.008679193550039321
-0.005512688837209303,0.009205810474112236
-0.005512348837209303,0.009995735860221606
-0.005512008837209302,0.01058817989980363
-0.005511668837209303,0.01104896970836743
-0.005511328837209303,0.01141101884366756
-0.005510988837209302,0.01134519172815845
-0.005510648837209303,0.01088440191959465
-0.005510308837209303,0.01065400701531275
-0.005509968837209302,0.01006156297573072
-0.005509628837209303,0.009403291820639578
-0.005509288837209303,0.01012739009123984
-0.005508948837209302,0.01078566124633229
-0.005508608837209303,0.01150975951693123
-0.005508268837209303,0.01233259846079516
-0.005507928837209302,0.01121353749713926
-0.005507588837209303,0.01068692057306731
-0.005507248837209303,0.009469118936148692
-0.005506908837209302,0.008712107107792803
-0.005506568837209303,0.00811966306821185
-0.005506228837209303,0.007494305470875266
-0.005505888837209302,0.00647398518048184
-0.005505548837209303,0.00528909710131994
-0.005505208837209303,0.004137122579910441
-0.005504868837209302,0.003380110751554729
-0.005504528837209303,0.002886407385237271
-0.005504188837209303,0.002656012480955371
-0.005503848837209302,0.003544678540330509
-0.005503508837209303,0.004696653061737912
-0.005503168837209303,0.005091615754792597
-0.005502828837209302,0.005782800467639254
-0.005502488837209303,0.00630941739171121
-0.005502148837209303,0.006671466527011338
-0.005501808837209302,0.006967688546802412
-0.005501468837209303,0.00700060210455691
-0.005501128837209303,0.007395564797611595
-0.005500788837209302,0.007494305470874967
-0.005500448837209303,0.007329737682102481
-0.005500108837209303,0.00677020720027501
-0.005499768837209303,0.006375244507221042
-0.005499428837209303,0.006276503833956653
-0.005499088837209303,0.006342330949465767
-0.005498748837209303,0.006868947873537723
-0.005498408837209303,0.007658873259648051
-0.005498068837209303,0.007823441048420837
-0.005497728837209303,0.008053835952702317
-0.005497388837209303,0.007988008837193623
-0.005497048837209303,0.008086749510457293
-0.005496708837209303,0.008218403741475283
-0.005496368837209302,0.007527219028629823
-0.005496028837209303,0.006704380084765896
-0.005495688837209303,0.006539812295993409
-0.005495348837209302,0.006473985180483996
-0.005495008837209303,0.005552405563356397
-0.005494668837209303,0.004861220850511955
-0.005494328837209302,0.004663739503983355
-0.005493988837209303,0.005025788639283483
-0.005493648837209303,0.004992875081528986
-0.005493308837209302,0.005157442870301712
-0.005492968837209303,0.00528909710131994
-0.005492628837209303,0.005058702197038459
-0.005492288837209302,0.005157442870301712
-0.005491948837209303,0.004696653061737912
-0.005491608837209303,0.005091615754791879
-0.005491268837209302,0.005618232678865511
-0.005490928837209303,0.005848627583147411
-0.005490588837209303,0.006177763160692982
-0.005490248837209302,0.006243590276202096
-0.005489908837209303,0.006506898738238553
-0.005489568837209303,0.006605639411502225
-0.005489228837209302,0.006868947873538681
-0.005488888837209303,0.00677020720027501
-0.005488548837209303,0.006177763160692982
-0.005488208837209302,0.005486578447846145
-0.005487868837209303,0.004861220850510698
-0.005487528837209303,0.00482830729275614
-0.005487188837209302,0.005091615754793855
-0.005486848837209303,0.005782800467638296
-0.005486508837209303,0.006473985180483996
-0.005486168837209302,0.006704380084766375
-0.005485828837209303,0.006967688546802352
-0.005485488837209303,0.007132256335575138
-0.005485148837209302,0.007230997008837852
-0.005484808837209303,0.006704380084765896
-0.005484468837209303,0.006638552969256781
-0.005484128837209302,0.006342330949466486
-0.005483788837209303,0.006737293642520453
-0.005483448837209303,0.007165169893329695
-0.005483108837209302,0.00713225633557388
-0.005482768837209303,0.006441071622729439
-0.005482428837209303,0.005519492005601839
-0.005482088837209302,0.005289097101319282
-0.005481748837209303,0.004927047966019811
-0.005481408837209303,0.005124529312547154
-0.005481068837209302,0.005091615754794154
-0.005480728837209303,0.005947368256411082
-0.005480388837209303,0.006408158064974882
-0.005480048837209302,0.00673729364252165
-0.005479708837209303,0.007395564797611595
-0.005479368837209303,0.008415885088002865
-0.005479028837209303,0.009436205378392279
-0.005478688837209303,0.009600773167166921
-0.005478348837209303,0.008909588454321223
-0.005478008837209303,0.008086749510458791
-0.005477668837209303,0.006934774989047795
-0.005477328837209303,0.006013195371920196
-0.005476988837209303,0.005124529312548771
-0.005476648837209303,0.004499171715210569
-0.005476308837209303,0.003873814117873984
-0.005475968837209303,0.00321554296278404
-0.005475628837209302,0.003083888731764614
-0.005475288837209303,0.003281370078291956
-0.005474948837209303,0.003248456520537459
-0.005474608837209302,0.00403838190664677
-0.005474268837209303,0.004861220850510698
-0.005473928837209303,0.005716973352127625
-0.005473588837209302,0.006704380084765896
-0.005473248837209303,0.007988008837193623
-0.005472908837209303,0.008185490183720607
-0.005472568837209302,0.008382971530248308
-0.005472228837209303,0.008448798645757422
-0.005471888837209303,0.008382971530248428
-0.005471548837209302,0.008382971530248308
-0.005471208837209303,0.008777934223302994
-0.005470868837209303,0.008679193550039502
-0.005470528837209302,0.007889268163929951
-0.005470188837209303,0.007625959701893495
-0.005469848837209303,0.006868947873538681
-0.005469508837209302,0.005552405563356397
-0.005469168837209303,0.004301690368683227
-0.005468828837209303,0.003050975174010056
-0.005468488837209302,0.002425617576673472
-0.005468148837209303,0.001602778632809544
-0.005467808837209303,0.001569865075054987
-0.005467468837209302,0.001833173537091444
-0.005467128837209303,0.003215542962782842
-0.005466788837209303,0.004729566619492469
-0.005466448837209302,0.00617776316069382
-0.005466108837209303,0.006638552969256781
-0.005465768837209303,0.007362651239857037
-0.005465428837209302,0.007625959701893854
-0.005465088837209303,0.007823441048420837
-0.005464748837209303,0.007362651239857037
-0.005464408837209302,0.007165169893329635
-0.005464068837209303,0.007132256335575138
-0.005463728837209303,0.006836034315784124
-0.005463388837209302,0.006309417391711389
-0.005463048837209303,0.006408158064974882
-0.005462708837209303,0.006605639411502225
-0.005462368837209302,0.006210676718447299
-0.005462028837209303,0.00607902248742931
-0.005461688837209303,0.00630941739171121
-0.005461348837209302,0.00653981229599329
-0.005461008837209303,0.006638552969256781
-0.005460668837209303,0.006276503833956653
-0.005460328837209302,0.006046108929674993
-0.005459988837209303,0.006177763160692982
-0.005459648837209303,0.006506898738238553
-0.005459308837209302,0.006375244507220205
-0.005458968837209303,0.00630941739171121
-0.005458628837209303,0.006210676718447538
-0.005458288837209302,0.006243590276201079
-0.005457948837209303,0.005684059794374625
-0.005457608837209303,0.005519492005601839
-0.005457268837209303,0.005289097101320359
-0.005456928837209303,0.004762480177247026
-0.005456588837209303,0.004696653061737912
-0.005456248837209303,0.004564998830719923
-0.005455908837209303,0.004005468348892213
-0.005455568837209303,0.003676332771346642
-0.005455228837209303,0.003314283636047172
-0.005454888837209303,0.0025572718076917
-0.005454548837209303,0.002392704018918914
-0.005454208837209303,0.00232687690340992
-0.005453868837209302,0.002228136230146129
-0.005453528837209303,0.002853493827482714
-0.005453188837209303,0.003577592098081653
-0.005452848837209302,0.003775073444610313
-0.005452508837209303,0.003676332771346642
-0.005452168837209303,0.004104209022155106
-0.005451828837209302,0.003972554791137656
-0.005451488837209303,0.003939641233383098
-0.005451148837209303,0.004137122579910082
-0.005450808837209302,0.003840900560119427
-0.005450468837209303,0.003709246329101199
-0.005450128837209303,0.003939641233382679
-0.005449788837209302,0.004466258157456012
-0.005449448837209303,0.004927047966019811
-0.005449108837209303,0.005322010659073778
-0.005448768837209302,0.005322010659074497
-0.005448428837209303,0.00528909710131994
-0.005448088837209303,0.005157442870301712
-0.005447748837209302,0.005519492005601839
-0.005447408837209303,0.00482830729275614
-0.005447068837209303,0.004959961523774369
-0.005446728837209302,0.005091615754792597
-0.005446388837209303,0.005552405563356397
-0.005446048837209303,0.005651146236620068
-0.005445708837209302,0.005157442870302131
-0.005445368837209303,0.005387837774583611
-0.005445028837209303,0.005651146236620068
-0.005444688837209302,0.005881541140902626
-0.005444348837209303,0.006243590276202096
-0.005444008837209303,0.006836034315784124
-0.005443668837209302,0.007296824124347565
-0.005443328837209303,0.007099342777820581
-0.005442988837209303,0.006967688546802352
-0.005442648837209302,0.007329737682102062
-0.005442308837209303,0.007099342777820581
-0.005441968837209303,0.007099342777820581
-0.005441628837209302,0.006737293642519615
-0.005441288837209303,0.006276503833956653
-0.005440948837209303,0.006046108929674754
-0.005440608837209302,0.005519492005601301
-0.005440268837209303,0.005223269985810825
-0.005439928837209303,0.004861220850510698
-0.005439588837209302,0.005124529312546556
-0.005439248837209303,0.004795393735001583
-0.005438908837209303,0.004663739503983355
-0.005438568837209302,0.004400431041946479
-0.005438228837209303,0.004170036137664999
-0.005437888837209303,0.003314283636046514
-0.005437548837209302,0.00308388873176623
-0.005437208837209303,0.003972554791137656
-0.005436868837209303,0.004597912388474241
-0.005436528837209303,0.005782800467636141
-0.005436188837209303,0.00630941739171121
-0.005435848837209303,0.007099342777820581
-0.005435508837209303,0.007000602104557089
-0.005435168837209303,0.006111936045183867
-0.005434828837209303,0.004367517484192341
-0.005434488837209303,0.0002533227648801864
-0.005434148837209303,-0.01037775638984924
-0.005433808837209303,-0.02824981825057375
-0.005433468837209303,-0.0538894797413271
-0.005433128837209302,-0.08542066807023946
-0.005432788837209303,-0.1184987936135694
-0.005432448837209303,-0.1512477835792941
-0.005432108837209302,-0.1800142330568366
-0.005431768837209303,-0.2026916743497264
-0.005431428837209303,-0.2199712921708375
-0.005431088837209302,-0.2315897780582276
-0.005430748837209303,-0.2378104404738389
-0.005430408837209303,-0.2400814759588992
-0.005430068837209302,-0.2398181674968669
-0.005429728837209303,-0.2375142184540479
-0.005429388837209303,-0.2334987644079992
-0.005429048837209302,-0.2287592120913357
-0.005428708837209303,-0.2221765005404242
-0.005428368837209303,-0.2152975669697343
-0.005428028837209302,-0.208517374072283
-0.005427688837209303,-0.2016384405015806
-0.005427348837209303,-0.1945620255843508
-0.005427008837209302,-0.18718938864733
-0.005426668837209303,-0.1796521839215365
-0.005426328837209303,-0.1724112012155339
-0.005425988837209302,-0.1649398236052494
-0.005425648837209303,-0.1573367917639467
-0.005425308837209303,-0.1502274632889624
-0.005424968837209302,-0.1438093195268238
-0.005424628837209303,-0.1380823604775308
-0.005424288837209303,-0.1326845370057834
-0.005423948837209302,-0.1280437253623819
-0.005423608837209303,-0.1231066916992073
-0.005423268837209303,-0.1184987936135694
-0.005422928837209302,-0.1138908955279239
-0.005422588837209303,-0.1098096143663663
-0.005422248837209303,-0.1060245552245922
-0.005421908837209302,-0.1023053231983198
-0.005421568837209303,-0.0981911284790076
-0.005421228837209303,-0.09384653885540606
-0.005420888837209302,-0.09022604750239785
-0.005420548837209303,-0.08640807480287616
-0.005420208837209303,-0.08275466989212032
-0.005419868837209302,-0.07992410392522399
-0.005419528837209303,-0.07748850065139118
-0.005419188837209303,-0.07580990920590877
-0.005418848837209302,-0.07363761439410442
-0.005418508837209303,-0.07166280092883456
-0.005418168837209303,-0.06926011121275191
-0.005417828837209302,-0.06705490284319079
-0.005417488837209303,-0.06386228774100455
-0.005417148837209303,-0.0609000675430944
-0.005416808837209302,-0.05757579820987922
-0.005416468837209303,-0.05487688647401046
-0.005416128837209303,-0.05181592560283664
-0.005415788837209302,-0.04908410030920307
-0.005415448837209303,-0.04615479366905282
-0.005415108837209303,-0.04404832597276116
-0.005414768837209303,-0.04266595654707227
-0.005414428837209303,-0.0414152413523966
-0.005414088837209303,-0.04009869904221431
