Analysis/New Tests/wrd01_d2s01/cmb01_ch45.csv

#Digilent WaveForms Oscilloscope Acquisition
#Device Name: ADP3450
#Serial Number: SN:210018B9D9B0
#Date Time: 2024-08-06 15:24:44.366.827.080
#Sample rate: 2.94118e+06Hz
#Samples: 32768
#Trigger: Source: Channel 3 Type: Edge Condition: Rising Level: 80 mV Hyst.: Auto HoldOff: 0 s
#Channel 3: Range: 200 mV/div Offset: 0 V Attenuation: 1 X Coupling: DC Bandwidth: 0 Hz Sample Mode: Average

Time (s),Channel 3 (V)
-0.005570375195195196,0.02500431819629965
-0.005570035195195195,0.02388525723264315
-0.005569695195195195,0.02302950473102622
-0.005569355195195196,0.02204209799838951
-0.005569015195195195,0.02108760482350693
-0.005568675195195195,0.02085720991922545
-0.005568335195195196,0.02075846924596178
-0.005567995195195195,0.02118634549677216
-0.005567655195195195,0.02181170309410761
-0.005567315195195196,0.02260162848021698
-0.005566975195195195,0.02349029453958954
-0.005566635195195195,0.02322698607755356
-0.005566295195195196,0.02243706069144419
-0.005565955195195195,0.02121925905452259
-0.005565615195195195,0.01957358116679772
-0.005565275195195196,0.01789498972131531
-0.005564935195195195,0.01684175587316733
-0.005564595195195195,0.01565686779400543
-0.005564255195195196,0.01473528817687783
-0.005563915195195195,0.01434032548382302
-0.005563575195195195,0.01427449836831403
-0.005563235195195196,0.01447197971484137
-0.005562895195195196,0.01437323904157788
-0.005562555195195195,0.01404410346403213
-0.005562215195195196,0.0134516594244501
-0.005561875195195196,0.01315543740465963
-0.005561535195195195,0.01305669673139542
-0.005561195195195196,0.01338583230894099
-0.005560855195195196,0.01368205432873146
-0.005560515195195195,0.01378079500199567
-0.005560175195195196,0.01434032548382314
-0.005559835195195196,0.01404410346403267
-0.005559495195195195,0.01410993057954124
-0.005559155195195196,0.01447197971484137
-0.005558815195195196,0.0141757576950509
-0.005558475195195195,0.01420867125280492
-0.005558135195195196,0.01384662211750479
-0.005557795195195196,0.01355040009771431
-0.005557455195195195,0.01302378317364086
-0.005557115195195196,0.01262882048058617
-0.005556775195195196,0.01285921538486766
-0.005556435195195195,0.01282630182711352
-0.005556095195195196,0.01302378317364086
-0.005555755195195196,0.01355040009771282
-0.005555415195195195,0.01341874586669555
-0.005555075195195196,0.01295795605813175
-0.005554735195195196,0.01259590692283228
-0.005554395195195195,0.01210220355651326
-0.005554055195195196,0.01213511711426782
-0.005553715195195196,0.0118388950944768
-0.005553375195195195,0.01147684595917668
-0.005553035195195196,0.01121353749714022
-0.005552695195195196,0.01075274768857642
-0.005552355195195195,0.01055526634204908
-0.005552015195195195,0.01062109345755819
-0.005551675195195196,0.01157558663244035
-0.005551335195195195,0.01229968490304168
-0.005550995195195195,0.01289212894262263
-0.005550655195195196,0.01308961028914997
-0.005550315195195195,0.01318835096241275
-0.005549975195195195,0.01269464759609529
-0.005549635195195196,0.01213511711426782
-0.005549295195195195,0.01183889509447698
-0.005548955195195195,0.01193763576774048
-0.005548615195195196,0.01174015442121313
-0.005548275195195195,0.01193763576773952
-0.005547935195195195,0.01141101884366756
-0.005547595195195196,0.01157558663244035
-0.005547255195195195,0.01104896970836671
-0.005546915195195195,0.01065400701531275
-0.005546575195195196,0.009666600282676035
-0.005546235195195195,0.009107069800848565
-0.005545895195195195,0.009107069800848565
-0.005545555195195196,0.008876674896566664
-0.005545215195195195,0.009172896916359535
-0.005544875195195195,0.01019321720674895
-0.005544535195195196,0.01048943922653996
-0.005544195195195195,0.01025904432225812
-0.005543855195195195,0.01029195788001262
-0.005543515195195196,0.01025904432225806
-0.005543175195195195,0.0106869205730679
-0.005542835195195195,0.01101605615061288
-0.005542495195195196,0.01164141374794946
-0.005542155195195196,0.01246425269181189
-0.005541815195195195,0.01335291875118643
-0.005541475195195196,0.01443906615708682
-0.005541135195195196,0.0146036339458593
-0.005540795195195195,0.01434032548382314
-0.005540455195195196,0.01295795605813175
-0.005540115195195196,0.01167432730570635
-0.005539775195195195,0.01058817989980363
-0.005539435195195196,0.01052235278429452
-0.005539095195195196,0.009962822302468068
-0.005538755195195195,0.01006156297573072
-0.005538415195195196,0.01009447653348528
-0.005538075195195196,0.01006156297573078
-0.005537735195195195,0.009962822302467049
-0.005537395195195196,0.009896995186957936
-0.005537055195195196,0.009534946051658466
-0.005536715195195195,0.008909588454321223
-0.005536375195195196,0.009271637589621349
-0.005536035195195196,0.009172896916357859
-0.005535695195195195,0.009238724031866792
-0.005535355195195196,0.009403291820639578
-0.005535015195195196,0.009041242685340109
-0.005534675195195195,0.009139983358603122
-0.005534335195195196,0.009337464705130465
-0.005533995195195196,0.008382971530250045
-0.005533655195195195,0.008152576625966409
-0.005533315195195196,0.007691786817402609
-0.005532975195195196,0.007625959701893495
-0.005532635195195195,0.00802092239494818
-0.005532295195195196,0.008350057972493751
-0.005531955195195196,0.00881084778105755
-0.005531615195195195,0.009205810474112236
-0.005531275195195196,0.009896995186957936
-0.005530935195195196,0.01104896970836743
-0.005530595195195195,0.01101605615061288
-0.005530255195195195,0.01167432730570402
-0.005529915195195196,0.01131227817040389
-0.005529575195195195,0.01101605615061084
-0.005529235195195195,0.009896995186957936
-0.005528895195195196,0.009205810474112236
-0.005528555195195195,0.008448798645756704
-0.005528215195195195,0.008053835952702737
-0.005527875195195196,0.007625959701893495
-0.005527535195195195,0.007428478355366391
-0.005527195195195195,0.00756013258638438
-0.005526855195195196,0.008218403741475522
-0.005526515195195195,0.008646279992285722
-0.005526175195195195,0.009172896916357679
-0.005525835195195196,0.009534946051657807
-0.005525495195195195,0.009534946051658525
-0.005525155195195195,0.009929908744712493
-0.005524815195195196,0.009929908744712493
-0.005524475195195195,0.01055526634204932
-0.005524135195195195,0.01068692057306731
-0.005523795195195196,0.01075274768857642
-0.005523455195195195,0.01091731547734968
-0.005523115195195195,0.01118062393938566
-0.005522775195195196,0.01081857480408553
-0.005522435195195195,0.01055526634204854
-0.005522095195195195,0.01025904432225806
-0.005521755195195196,0.01022613076450351
-0.005521415195195195,0.01032487143776754
-0.005521075195195195,0.01052235278429452
-0.005520735195195196,0.01022613076450351
-0.005520395195195196,0.010259044322258
-0.005520055195195195,0.009798254513694264
-0.005519715195195196,0.009074156243094007
-0.005519375195195196,0.008020922394950095
-0.005519035195195195,0.007132256335575138
-0.005518695195195196,0.006737293642520453
-0.005518355195195196,0.00677020720027495
-0.005518015195195195,0.00677020720027501
-0.005517675195195196,0.00700060210455691
-0.005517335195195196,0.00723099700883839
-0.005516995195195195,0.00779052749066628
-0.005516655195195196,0.00802092239494818
-0.005516315195195196,0.0089754155698286
-0.005515975195195195,0.009962822302467049
-0.005515635195195196,0.01088440191959465
-0.005515295195195196,0.01213511711426554
-0.005514955195195195,0.01315543740465909
-0.005514615195195196,0.01335291875118643
-0.005514275195195196,0.01282630182711448
-0.005513935195195195,0.01203637644100415
-0.005513595195195196,0.01131227817040389
-0.005513255195195196,0.01071983413082294
-0.005512915195195195,0.00973242739818515
-0.005512575195195196,0.00904124268533945
-0.005512235195195196,0.008679193550039321
-0.005511895195195195,0.008777934223302994
-0.005511555195195196,0.009929908744712493
-0.005511215195195196,0.01062109345755819
-0.005510875195195195,0.01187180865223136
-0.005510535195195196,0.0122996849030406
-0.005510195195195196,0.01243133913405883
-0.005509855195195195,0.01239842557630427
-0.005509515195195195,0.01246425269181339
-0.005509175195195196,0.01213511711426782
-0.005508835195195195,0.01223385778753155
-0.005508495195195195,0.01226677134528605
-0.005508155195195196,0.01190472220998592
-0.005507815195195195,0.01170724086345684
-0.005507475195195195,0.01075274768857642
-0.005507135195195196,0.009205810474112236
-0.005506795195195195,0.008251317299229481
-0.005506455195195195,0.007922181721684508
-0.005506115195195196,0.007724700375157166
-0.005505775195195195,0.007922181721686603
-0.005505435195195195,0.009074156243094007
-0.005505095195195196,0.00904124268533945
-0.005504755195195195,0.008712107107794119
-0.005504415195195195,0.008843761338812107
-0.005504075195195196,0.008613366434530208
-0.005503735195195195,0.008317144414738534
-0.005503395195195195,0.007955095279439066
-0.005503055195195196,0.008218403741475522
-0.005502715195195195,0.009008329127586569
-0.005502375195195195,0.009929908744712493
-0.005502035195195196,0.01006156297573072
-0.005501695195195195,0.01032487143776736
-0.005501355195195195,0.01042361211103085
-0.005501015195195196,0.01029195788001262
-0.005500675195195195,0.009929908744712793
-0.005500335195195195,0.01009447653348528
-0.005499995195195196,0.01012739009123984
-0.005499655195195196,0.0105223527842938
-0.005499315195195195,0.009962822302467049
-0.005498975195195196,0.009370378262885021
-0.005498635195195196,0.008975415569831054
-0.005498295195195195,0.00904124268533945
-0.005497955195195196,0.009271637589621349
-0.005497615195195196,0.01035778499551976
-0.005497275195195195,0.01118062393938566
-0.005496935195195196,0.01200346288324959
-0.005496595195195196,0.01262882048058504
-0.005496255195195195,0.01318835096241365
-0.005495915195195196,0.01315543740465909
-0.005495575195195196,0.01164141374795222
-0.005495235195195195,0.01022613076450351
-0.005494895195195196,0.008580452876775651
-0.005494555195195196,0.0079880088371947
-0.005494215195195195,0.007263910566593366
-0.005493875195195196,0.007263910566593366
-0.005493535195195196,0.008218403741473786
-0.005493195195195195,0.009172896916357679
-0.005492855195195196,0.009864081629203377
-0.005492515195195196,0.0108185748040838
-0.005492175195195195,0.01095022903510376
-0.005491835195195196,0.01127936461264933
-0.005491495195195196,0.01068692057306838
-0.005491155195195195,0.01022613076450351
-0.005490815195195196,0.009765340955939707
-0.005490475195195196,0.00871210710779388
-0.005490135195195195,0.007856354606175394
-0.005489795195195196,0.007691786817402609
-0.005489455195195196,0.007823441048420837
-0.005489115195195195,0.008086749510457293
-0.005488775195195196,0.007955095279439066
-0.005488435195195196,0.008745020665548437
-0.005488095195195195,0.008810847781058808
-0.005487755195195195,0.00950203249390325
-0.005487415195195196,0.009699513840430593
-0.005487075195195195,0.01006156297573066
-0.005486735195195195,0.01002864941797616
-0.005486395195195196,0.01002864941797616
-0.005486055195195195,0.009995735860221127
-0.005485715195195195,0.00973242739818515
-0.005485375195195196,0.009238724031866792
-0.005485035195195195,0.009172896916356961
-0.005484695195195195,0.008777934223302994
-0.005484355195195196,0.008053835952702737
-0.005484015195195195,0.008646279992285663
-0.005483675195195195,0.009139983358603122
-0.005483335195195196,0.009896995186957936
-0.005482995195195195,0.01121353749714184
-0.005482655195195195,0.01210220355651326
-0.005482315195195196,0.01239842557630427
-0.005481975195195195,0.01236551201854888
-0.005481635195195195,0.01190472220998592
-0.005481295195195196,0.01131227817040389
-0.005480955195195195,0.01101605615061222
-0.005480615195195195,0.01065400701531275
-0.005480275195195196,0.01042361211103085
-0.005479935195195195,0.01075274768857708
-0.005479595195195195,0.01111479682387655
-0.005479255195195196,0.01078566124633098
-0.005478915195195196,0.006671466527018822
-0.005478575195195195,-0.003400082145883136
-0.005478235195195196,-0.02081135419804385
-0.005477895195195196,-0.04664849703532418
-0.005477555195195195,-0.07854173449953702
-0.005477215195195196,-0.1126401803332582
-0.005476875195195196,-0.1471006753022168
-0.005476535195195195,-0.1788293449776725
-0.005476195195195196,-0.2051931047390728
-0.005475855195195196,-0.2251387207382981
-0.005475515195195195,-0.2382383167246481
-0.005475175195195196,-0.2458413485659508
-0.005474835195195196,-0.2476515942424481
-0.005474495195195195,-0.2461046570279873
-0.005474155195195196,-0.2425170792327405
-0.005473815195195196,-0.236987601529985
-0.005473475195195195,-0.2302403221902907
-0.005473135195195196,-0.2232626479463246
-0.005472795195195196,-0.2155608754317723
-0.005472455195195195,-0.2083198927257557
-0.005472115195195196,-0.2011776506930168
-0.005471775195195196,-0.1937391866405004
-0.005471435195195195,-0.186893166627539
-0.005471095195195196,-0.1798825788258183
-0.005470755195195196,-0.17257576900432
-0.005470415195195195,-0.1647752558164766
-0.005470075195195196,-0.1581267171500561
-0.005469735195195196,-0.1516098327146538
-0.005469395195195195,-0.1456195652033244
-0.005469055195195196,-0.1395963841342404
-0.005468715195195196,-0.1340998199892294
-0.005468375195195195,-0.1287349100752366
-0.005468035195195196,-0.1240611848740895
-0.005467695195195196,-0.1190254105376423
-0.005467355195195195,-0.1139238090856859
-0.005467015195195195,-0.109085516095766
-0.005466675195195196,-0.104773840029919
-0.005466335195195195,-0.1004292504063105
-0.005465995195195195,-0.09657836414903431
-0.005465655195195196,-0.09351740327786048
-0.005465315195195195,-0.09045644240668159
-0.005464975195195195,-0.08765878999754934
-0.005464635195195196,-0.08449908845311185
-0.005464295195195195,-0.08051654796480548
-0.005463955195195195,-0.07778472267118219
-0.005463615195195196,-0.07436171266470826
-0.005463275195195195,-0.07087287554271897
-0.005462935195195195,-0.06744986553625126
-0.005462595195195196,-0.06405976908753189
-0.005462255195195195,-0.06057093196554236
-0.005461915195195195,-0.05701626772805667
-0.005461575195195196,-0.05425152887667387
-0.005461235195195195,-0.05102600021672158
-0.005460895195195195,-0.04789921223004435
-0.005460555195195196,-0.04572691741824358
-0.005460215195195195,-0.04398249885724989
-0.005459875195195195,-0.042797610778088
-0.005459535195195196,-0.04220516673850597
-0.005459195195195195,-0.04102027865933945
-0.005458855195195195,-0.03967082279140507
-0.005458515195195196,-0.03838719403897734
-0.005458175195195195,-0.03670860259349181
-0.005457835195195195,-0.03499709759025796
-0.005457495195195196,-0.03321976547151188
-0.005457155195195196,-0.03163991469929601
-0.005456815195195195,-0.02950053344524692
-0.005456475195195196,-0.02769028776874628
-0.005456135195195196,-0.02578130141898544
-0.005455795195195195,-0.02351026593391753
-0.005455455195195196,-0.02120631689109853
-0.005455115195195196,-0.01870488650175674
-0.005454775195195195,-0.01692755438300611
-0.005454435195195196,-0.01630219678566952
-0.005454095195195196,-0.01636802390117852
-0.005453755195195195,-0.01590723409261484
-0.005453415195195196,-0.01584140697710572
-0.005453075195195196,-0.01617054255465069
-0.005452735195195195,-0.01541353072629648
-0.005452395195195196,-0.01416281553162331
-0.005452055195195196,-0.01274753254817993
-0.005451715195195195,-0.0111018546604495
-0.005451375195195196,-0.009884053023530886
-0.005451035195195196,-0.008797905617632478
-0.005450695195195195,-0.007975066673766575
-0.005450355195195196,-0.007580103980711889
-0.005450015195195196,-0.006559783690322475
-0.005449675195195195,-0.005572376957683906
-0.005449335195195196,-0.005341982053402005
-0.005448995195195196,-0.004025439743222116
-0.005448655195195195,-0.002972205895073894
-0.005448315195195196,-0.002083539835700852
-0.005447975195195196,-0.001359441565100596
-0.005447635195195195,-0.0003062077169547683
-0.005447295195195196,-0.0004707755057275538
-0.005446955195195196,-0.0006024297367457822
-0.005446615195195195,-0.0008657381987822392
-0.005446275195195195,-0.001161960218573253
-0.005445935195195196,-0.0007999110832731249
-0.005445595195195195,-0.0007340839677635317
-0.005445255195195195,-0.0004707755057275538
-0.005444915195195196,-0.00142526868060971
-0.005444575195195195,-0.001458182238363848
-0.005444235195195195,-0.001227787334082367
-0.005443895195195196,-0.0007999110832731249
-0.005443555195195195,-0.0005695161789881719
-0.005443215195195195,0.001109075266491187
-0.005442875195195196,0.000417890553645488
-0.005442535195195195,0.002590185365448053
-0.005442195195195195,0.00357759209808297
-0.005441855195195196,0.005223269985810825
-0.005441515195195195,0.005684059794374984
-0.005441175195195195,0.005881541140901968
-0.005440835195195196,0.006144849602938425
-0.005440495195195195,0.006572725853747128
-0.005440155195195195,0.006276503833956653
-0.005439815195195196,0.005322010659074497
-0.005439475195195195,0.004499171715209132
-0.005439135195195195,0.003709246329101199
-0.005438795195195196,0.003182629405028285
-0.005438455195195195,0.003314283636047172
-0.005438115195195195,0.003676332771346642
-0.005437775195195196,0.004137122579910441
-0.005437435195195195,0.005091615754794034
-0.005437095195195195,0.005881541140901968
-0.005436755195195196,0.005947368256411082
-0.005436415195195196,0.005782800467638596
-0.005436075195195195,0.005815714025392853
-0.005435735195195196,0.005782800467638296
-0.005435395195195196,0.006441071622728242
-0.005435055195195195,0.006506898738238553
-0.005434715195195196,0.006671466527011338
-0.005434375195195196,0.006638552969256841
-0.005434035195195195,0.006441071622729439
-0.005433695195195196,0.00630941739171121
-0.005433355195195196,0.006770207200274172
-0.005433015195195195,0.007230997008838809
-0.005432675195195196,0.007988008837193623
-0.005432335195195196,0.00838297153024759
-0.005431995195195195,0.008909588454321223
-0.005431655195195196,0.009107069800848565
-0.005431315195195196,0.009271637589621049
-0.005430975195195195,0.009995735860221606
-0.005430635195195196,0.01052235278429452
-0.005430295195195196,0.0107856612463305
-0.005429955195195195,0.01071983413082186
-0.005429615195195196,0.01065400701531275
-0.005429275195195196,0.01022613076450428
-0.005428935195195195,0.009337464705130465
-0.005428595195195196,0.008514625761266537
-0.005428255195195196,0.007625959701895111
-0.005427915195195195,0.007988008837193623
-0.005427575195195196,0.008514625761266537
-0.005427235195195196,0.009107069800848565
-0.005426895195195195,0.00983116807144882
-0.005426555195195196,0.01091731547734921
-0.005426215195195196,0.01078566124633098
-0.005425875195195195,0.01111479682387655
-0.005425535195195196,0.01012739009123984
-0.005425195195195196,0.00983116807144882
-0.005424855195195195,0.008745020665548437
-0.005424515195195195,0.007889268163929951
-0.005424175195195196,0.007889268163929951
-0.005423835195195195,0.008745020665550472
-0.005423495195195195,0.009864081629203377
-0.005423155195195196,0.01075274768857642
-0.005422815195195195,0.01147684595917746
-0.005422475195195195,0.01190472220998592
-0.005422135195195196,0.0122996849030406
-0.005421795195195195,0.01177306797896583
-0.005421455195195195,0.01075274768857642
-0.005421115195195196,0.009403291820639578
-0.005420775195195195,0.00861336643452937
-0.005420435195195195,0.008152576625966409
-0.005420095195195196,0.008415885088002865
-0.005419755195195195,0.00877793422330431
-0.005419415195195195,0.00950203249390325
-0.005419075195195196,0.01009447653348528
-0.005418735195195195,0.01108188326612265
-0.005418395195195195,0.01144393240142212
-0.005418055195195196,0.011378105285913
-0.005417715195195195,0.01114771038163087
-0.005417375195195195,0.01101605615061288
-0.005417035195195196,0.01055526634204908
-0.005416695195195195,0.01081857480408362
-0.005416355195195195,0.009765340955939707
-0.005416015195195196,0.009074156243094007
-0.005415675195195195,0.009172896916357618
-0.005415335195195195,0.009139983358603122
-0.005414995195195196,0.009995735860221606
-0.005414655195195196,0.01068692057306605
-0.005414315195195195,0.01213511711426782
-0.005413975195195196,0.01272756115384985
