Analysis/New Tests/wrd01_d2s01/cmb06_ch19.csv

#Digilent WaveForms Oscilloscope Acquisition
#Device Name: ADP3450
#Serial Number: SN:210018B9D9B0
#Date Time: 2024-06-21 15:20:51.200.142.600
#Sample rate: 2.5e+07Hz
#Samples: 32768
#Trigger: Source: Channel 3 Type: Edge Condition: Rising Level: 60 mV Hyst.: Auto HoldOff: 0 s
#Channel 3: Range: 100 mV/div Offset: 0 V Attenuation: 1 X Coupling: DC Bandwidth: 0 Hz Sample Mode: Average

Time (s),Channel 3 (V)
-0.0006553415053763441,-0.01199052071982254
-0.0006553015053763441,-0.01235256985512267
-0.000655261505376344,-0.01218800206634875
-0.0006552215053763441,-0.0115626444690133
-0.0006551815053763441,-0.01205634783533165
-0.0006551415053763441,-0.01159555802676786
-0.0006551015053763441,-0.01044358350535836
-0.0006550615053763441,-0.01097020042943031
-0.0006550215053763441,-0.01133224956473086
-0.0006549815053763441,-0.01103602754494038
-0.0006549415053763441,-0.01021318860107646
-0.0006549015053763441,-0.01014736148556734
-0.0006548615053763441,-0.01083854619841178
-0.0006548215053763441,-0.01083854619841232
-0.0006547815053763441,-0.01044358350535836
-0.0006547415053763441,-0.009423263214967087
-0.0006547015053763441,-0.0101802750433219
-0.0006546615053763441,-0.009324522541704973
-0.0006546215053763441,-0.01011444792781105
-0.0006545815053763441,-0.009159954752930631
-0.0006545415053763441,-0.008863732733139616
-0.0006545015053763441,-0.008238375135803031
-0.0006544615053763441,-0.008995386964157845
-0.000654421505376344,-0.008797905617630383
-0.0006543815053763441,-0.008732078502121389
-0.0006543415053763441,-0.008073807347030245
-0.0006543015053763441,-0.007777585327239231
-0.0006542615053763441,-0.008172548020293918
-0.0006542215053763441,-0.00813963446253942
-0.0006541815053763441,-0.00767884465397556
-0.0006541415053763441,-0.007283881960920875
-0.0006541015053763441,-0.007185141287657204
-0.0006540615053763441,-0.007580103980711889
-0.0006540215053763441,-0.00721805484541242
-0.0006539815053763441,-0.006823092152356956
-0.0006539415053763441,-0.006757265036847961
-0.0006539015053763441,-0.006428129459302391
-0.0006538615053763441,-0.006757265036847961
-0.0006538215053763441,-0.006329388786039497
-0.0006537815053763441,-0.006131907439511555
-0.0006537415053763441,-0.006230648112775047
-0.0006537015053763441,-0.006131907439511376
-0.0006536615053763441,-0.005539463399929348
-0.0006536215053763441,-0.005901512535228818
-0.000653581505376344,-0.004914105802592225
-0.0006535415053763441,-0.004617883782801749
-0.0006535015053763441,-0.004519143109538078
-0.0006534615053763441,-0.004354575320765292
-0.0006534215053763441,-0.004354575320765292
-0.0006533815053763442,-0.005045760033609735
-0.0006533415053763441,-0.00415709397423795
-0.0006533015053763441,-0.00494701936034732
-0.0006532615053763441,-0.004321661763010735
-0.0006532215053763441,-0.003630477050165036
-0.0006531815053763441,-0.004288748205254982
-0.0006531415053763441,-0.004124180416481956
-0.0006531015053763441,-0.003334255030374022
-0.0006530615053763441,-0.00415709397423795
-0.0006530215053763441,-0.003531736376901365
-0.0006529815053763441,-0.003893785512200834
-0.0006529415053763441,-0.003893785512200655
-0.0006529015053763441,-0.003432995703637694
-0.0006528615053763441,-0.003729217723428708
-0.0006528215053763441,-0.003827958396692379
-0.0006527815053763441,-0.003202600799356931
-0.000652741505376344,-0.003531736376901425
-0.0006527015053763441,-0.003564649934655922
-0.0006526615053763441,-0.003597563492410479
-0.0006526215053763441,-0.003762131281183265
-0.0006525815053763441,-0.003301341472619465
-0.0006525415053763442,-0.003564649934655443
-0.0006525015053763441,-0.003531736376901365
-0.0006524615053763441,-0.003038033010583008
-0.0006524215053763441,-0.002511416086510094
-0.0006523815053763441,-0.002840551664055666
-0.0006523415053763441,-0.001918972046929743
-0.0006523015053763441,-0.00409126685872225
-0.0006522615053763441,-0.0004707755057275538
-0.0006522215053763441,-0.003564649934655922
-0.0006521815053763441,-0.00267598387528288
-0.0006521415053763441,-0.001918972046929444
-0.0006521015053763441,-0.001524009353875237
-0.0006520615053763441,-0.002544329644264652
-0.0006520215053763441,-0.002643070317528323
-0.0006519815053763441,-0.002215194066719081
-0.0006519415053763441,-0.001491095796120141
-0.000651901505376344,-0.002182280508963326
-0.0006518615053763441,-0.001524009353873381
-0.0006518215053763441,-0.001359441565100596
-0.0006517815053763441,-0.001622750027137053
-0.0006517415053763441,-0.00188605848917351
-0.000651701505376344,-0.001491095796118405
-0.0006516615053763441,-0.001260700891836924
-0.0006516215053763441,-0.0006353432945003394
-0.0006515815053763441,-0.001721490700400724
-0.0006515415053763441,-0.001458182238364267
-0.0006515015053763441,-0.00142526868060977
-0.0006514615053763441,-0.0007999110832730052
-0.0006514215053763441,-0.0007340839677640107
-0.0006513815053763441,-0.0007669975255185678
-0.0006513415053763441,-0.0003062077169547683
-0.0006513015053763441,-0.0009315653142902158
-0.0006512615053763441,-0.0002074670436917556
-0.0006512215053763441,-0.0005695161789912252
-0.0006511815053763441,-0.0003062077169547683
-0.0006511415053763441,-0.0007340839677640107
-0.0006511015053763441,-0.0009315653142909941
-0.0006510615053763441,-0.0002403806014446962
-0.0006510215053763441,0.0002862363226272596
-0.0006509815053763441,-0.0002732941592002112
-0.0006509415053763441,0.0002204092071181454
-0.0006509015053763441,0.0001545820916090312
-0.000650861505376344,-9.985697163574751e-06
-0.0006508215053763441,8.875497609991696e-05
-0.0006507815053763441,0.000417890553645488
-0.0006507415053763441,0.0002533227648727025
-0.0006507015053763441,0.0009774210354729588
-0.0006506615053763441,0.001273643055263434
-0.0006506215053763441,0.0006153719001728307
-0.0006505815053763441,0.0007799396889456162
-0.0006505415053763441,0.001471124401791315
-0.0006505015053763441,0.0008786803622092876
-0.0006504615053763441,0.0009445074777182821
-0.0006504215053763441,0.001668605748318838
-0.0006503815053763441,0.00176734642158233
-0.0006503415053763441,0.001866087094846001
-0.0006503015053763441,0.002129395556882458
-0.0006502615053763441,0.002063568441373463
-0.0006502215053763441,0.001471124401792273
-0.0006501815053763441,0.001997741325864229
-0.0006501415053763441,0.001997741325864229
-0.0006501015053763441,0.002063568441373343
-0.0006500615053763441,0.002195222672391332
-0.000650021505376344,0.001635692190564161
-0.0006499815053763441,0.001668605748318658
-0.0006499415053763441,0.002030654883618786
-0.0006499015053763441,0.001800259979336887
-0.0006498615053763441,0.001800259979336887
-0.0006498215053763442,0.001964827768109373
-0.0006497815053763441,0.002129395556882458
-0.0006497415053763441,0.00176734642158233
-0.0006497015053763441,0.002063568441373343
-0.0006496615053763441,0.001635692190564101
-0.0006496215053763441,0.002293963345654046
-0.0006495815053763441,0.002096481999127122
-0.0006495415053763441,0.001668605748318658
-0.0006495015053763441,0.001405297286282201
-0.0006494615053763441,0.001997741325864229
-0.0006494215053763441,0.0006482854579298424
-0.0006493815053763441,0.001866087094845402
-0.0006493415053763441,0.00153695151730043
-0.0006493015053763441,0.001800259979336887
-0.0006492615053763441,0.001997741325864229
-0.0006492215053763441,0.001141988824247301
-0.000649181505376344,0.001405297286283039
-0.0006491415053763441,0.001866087094846001
-0.0006491015053763441,0.001800259979336887
-0.0006490615053763441,0.001372383728527644
-0.0006490215053763441,0.002392704018918914
-0.000648981505376344,0.001899000652601875
-0.0006489415053763441,0.002623098923200814
-0.0006489015053763441,0.001964827768109672
-0.0006488615053763441,0.002524358249937143
-0.0006488215053763441,0.003116802289519171
-0.0006487815053763441,0.003116802289519171
-0.0006487415053763441,0.003347197193800053
-0.0006487015053763441,0.0027876667119736
-0.0006486615053763441,0.002590185365446257
-0.0006486215053763441,0.003248456520537399
-0.0006485815053763441,0.00347885142481888
-0.0006485415053763441,0.003775073444610073
-0.0006485015053763441,0.003643419213592085
-0.0006484615053763441,0.00403838190664677
-0.0006484215053763441,0.003775073444610313
-0.0006483815053763441,0.004301690368682269
-0.000648341505376344,0.004959961523773471
-0.0006483015053763441,0.004466258157456012
-0.0006482615053763441,0.004433344599701455
-0.0006482215053763441,0.004499171715210569
-0.0006481815053763441,0.004959961523774369
-0.000648141505376344,0.005223269985811364
-0.0006481015053763441,0.005519492005601839
-0.0006480615053763441,0.005618232678865511
-0.0006480215053763441,0.006046108929674754
-0.0006479815053763441,0.005881541140901968
-0.0006479415053763441,0.005585319121111492
-0.0006479015053763441,0.006506898738238673
-0.0006478615053763441,0.006572725853747667
-0.0006478215053763441,0.006506898738238553
-0.0006477815053763441,0.006737293642520453
-0.0006477415053763441,0.0073626512398559
-0.0006477015053763441,0.007329737682102361
-0.0006476615053763441,0.007263910566593366
-0.0006476215053763441,0.007362651239857037
-0.0006475815053763441,0.007823441048420837
-0.0006475415053763441,0.00815257662596581
-0.0006475015053763441,0.007724700375158543
-0.0006474615053763441,0.008481712203511979
-0.0006474215053763441,0.008251317299230079
-0.0006473815053763441,0.008646279992284765
-0.0006473415053763441,0.008251317299230079
-0.000647301505376344,0.008975415569829379
-0.0006472615053763441,0.008448798645757422
-0.0006472215053763441,0.009139983358603122
-0.0006471815053763441,0.008975415569830336
-0.0006471415053763441,0.00950203249390325
-0.0006471015053763441,0.0100944765334842
-0.0006470615053763441,0.01002864941797616
-0.0006470215053763441,0.009929908744712493
-0.0006469815053763441,0.009666600282676035
-0.0006469415053763441,0.01025904432225806
-0.0006469015053763441,0.009995735860222085
-0.0006468615053763441,0.01035778499552197
-0.0006468215053763441,0.01048943922653996
-0.0006467815053763441,0.01039069855327629
-0.0006467415053763441,0.01012739009123984
-0.0006467015053763441,0.01029195788001232
-0.0006466615053763441,0.01012739009124037
-0.0006466215053763441,0.01042361211103085
-0.0006465815053763441,0.01042361211103085
-0.0006465415053763441,0.01078566124633098
-0.0006465015053763441,0.01078566124633098
-0.000646461505376344,0.01095022903510466
-0.0006464215053763441,0.01144393240142212
-0.0006463815053763441,0.01101605615061288
-0.0006463415053763441,0.01147684595917668
-0.0006463015053763441,0.01111479682387655
-0.0006462615053763442,0.01091731547734956
-0.0006462215053763441,0.01108188326612199
-0.0006461815053763441,0.01114771038163111
-0.0006461415053763441,0.01167432730570402
-0.0006461015053763441,0.01170724086345858
-0.0006460615053763441,0.01197054932549455
-0.0006460215053763441,0.01203637644100462
-0.0006459815053763441,0.0122996849030406
-0.0006459415053763441,0.01216803067202238
-0.0006459015053763441,0.01187180865223136
-0.0006458615053763441,0.01236551201854882
-0.0006458215053763441,0.01177306797896817
-0.0006457815053763441,0.01203637644100415
-0.0006457415053763441,0.01246425269181339
-0.0006457015053763441,0.01246425269181339
-0.0006456615053763441,0.01220094422977741
-0.000645621505376344,0.01203637644100498
-0.0006455815053763441,0.01249716624956795
-0.0006455415053763441,0.01236551201854972
-0.0006455015053763441,0.01295795605813175
-0.0006454615053763441,0.01282630182711352
-0.000645421505376344,0.01088440191959692
-0.0006453815053763441,0.01213511711426782
-0.0006453415053763441,0.01371496788648656
-0.0006453015053763441,0.01378079500199567
-0.0006452615053763441,0.01233259846079516
-0.0006452215053763441,0.01328709163567558
-0.0006451815053763441,0.01282630182711364
-0.0006451415053763441,0.01289212894262263
-0.0006451015053763441,0.01279338826935896
-0.0006450615053763441,0.01243133913405883
-0.0006450215053763441,0.01332000519343026
-0.0006449815053763441,0.0135504000977127
-0.0006449415053763441,0.01295795605813175
-0.0006449015053763441,0.01348457298220466
-0.0006448615053763441,0.01351748653995922
-0.0006448215053763441,0.01345165942445022
-0.0006447815053763441,0.01325417807792372
-0.0006447415053763441,0.01378079500199567
-0.0006447015053763441,0.01371496788648656
-0.0006446615053763441,0.01407701702178669
-0.0006446215053763441,0.0141428441372958
-0.000644581505376344,0.01404410346403297
-0.0006445415053763441,0.01450489327259593
-0.0006445015053763441,0.0143732390415777
-0.0006444615053763441,0.01397827634852302
-0.0006444215053763441,0.01476820173463239
-0.0006443815053763441,0.01453780683035091
-0.0006443415053763441,0.01453780683035067
-0.0006443015053763441,0.01463654750361416
-0.0006442615053763441,0.01513025086993251
-0.0006442215053763441,0.01430741192606859
-0.0006441815053763441,0.01440615259933208
-0.0006441415053763441,0.01473528817687777
-0.0006441015053763441,0.01470237461912327
-0.0006440615053763441,0.01434032548382314
-0.0006440215053763441,0.01486694240789606
-0.0006439815053763441,0.01503151019666854
-0.0006439415053763441,0.0141757576950509
-0.0006439015053763441,0.01447197971484137
-0.0006438615053763441,0.01457072038810504
-0.0006438215053763441,0.01427449836831403
-0.0006437815053763441,0.01410993057954124
-0.000643741505376344,0.01483402885014114
-0.0006437015053763441,0.01463654750361416
-0.0006436615053763441,0.01443906615708682
-0.0006436215053763441,0.01489985596565062
-0.0006435815053763441,0.01447197971484137
-0.0006435415053763442,0.01447197971484137
-0.0006435015053763441,0.01476820173463239
-0.0006434615053763441,0.0143732390415777
-0.0006434215053763441,0.01486694240789606
-0.0006433815053763441,0.01404410346403213
-0.0006433415053763441,0.01457072038810409
-0.0006433015053763441,0.01368205432873284
-0.0006432615053763441,0.0141428441372958
-0.0006432215053763441,0.01410993057954124
-0.0006431815053763441,0.01371496788648656
-0.0006431415053763441,0.01394536279076804
-0.0006431015053763441,0.01450489327259389
-0.0006430615053763441,0.01338583230894099
-0.0006430215053763441,0.01364914077097745
-0.0006429815053763441,0.01302378317364086
-0.0006429415053763441,0.01565686779400064
-0.000642901505376344,0.01213511711427333
-0.0006428615053763441,0.01516316442768707
-0.0006428215053763441,0.01259590692283162
-0.0006427815053763441,0.01328709163567732
-0.0006427415053763441,0.01325417807792276
-0.0006427015053763442,0.01338583230894075
-0.0006426615053763441,0.01262882048058617
-0.0006426215053763441,0.01262882048058617
-0.0006425815053763441,0.01302378317364086
-0.0006425415053763441,0.0127604747116044
-0.0006425015053763441,0.0127604747116044
-0.0006424615053763441,0.01233259846079522
-0.0006424215053763441,0.01236551201854972
-0.0006423815053763441,0.01223385778753149
-0.0006423415053763441,0.01262882048058617
-0.0006423015053763441,0.01220094422977771
-0.0006422615053763441,0.0121351171142683
-0.0006422215053763441,0.01239842557630427
-0.0006421815053763441,0.01236551201854972
-0.0006421415053763441,0.01200346288324959
-0.0006421015053763441,0.01177306797896811
-0.000642061505376344,0.01200346288324881
-0.0006420215053763441,0.01157558663244035
-0.0006419815053763441,0.01203637644100415
-0.0006419415053763441,0.01144393240142212
-0.0006419015053763441,0.01101605615061288
-0.000641861505376344,0.01127936461265029
-0.0006418215053763441,0.01180598153672225
-0.0006417815053763441,0.01157558663244035
-0.0006417415053763441,0.01121353749714022
-0.0006417015053763441,0.01101605615061288
-0.0006416615053763441,0.01144393240142134
-0.0006416215053763441,0.01075274768857744
-0.0006415815053763441,0.01131227817040389
-0.0006415415053763441,0.01108188326612199
-0.0006415015053763441,0.01114771038163111
-0.0006414615053763441,0.01111479682387661
-0.0006414215053763441,0.01131227817040377
-0.0006413815053763441,0.01124645105489478
-0.0006413415053763441,0.01101605615061288
-0.0006413015053763441,0.0116085001901949
-0.0006412615053763441,0.01108188326612295
-0.0006412215053763441,0.01124645105489513
-0.0006411815053763441,0.01144393240142212
-0.0006411415053763441,0.01144393240142212
-0.0006411015053763441,0.01032487143776718
-0.0006410615053763441,0.0116085001901949
-0.000641021505376344,0.0113781052859136
-0.0006409815053763441,0.01170724086345858
-0.0006409415053763441,0.0116085001901949
-0.0006409015053763441,0.01220094422977693
-0.0006408615053763441,0.01180598153672225
-0.0006408215053763441,0.01210220355651272
-0.0006407815053763441,0.01223385778753071
-0.0006407415053763441,0.01180598153672225
-0.0006407015053763441,0.01216803067202238
-0.0006406615053763441,0.01220094422977693
-0.0006406215053763441,0.01206928999875894
-0.0006405815053763441,0.01256299336507634
-0.0006405415053763441,0.01216803067202238
-0.0006405015053763441,0.01246425269181339
-0.0006404615053763441,0.0125300798073225
-0.0006404215053763441,0.0125959069228315
-0.0006403815053763441,0.01262882048058737
-0.0006403415053763441,0.01328709163567732
-0.0006403015053763441,0.01308961028914997
-0.0006402615053763441,0.01355040009771377
-0.0006402215053763441,0.01348457298220478
-0.000640181505376344,0.01364914077097738
-0.0006401415053763441,0.01361622721322289
-0.0006401015053763441,0.01378079500199567
-0.0006400615053763441,0.0143732390415777
-0.0006400215053763441,0.01351748653995922
-0.0006399815053763442,0.01424158481055816
-0.0006399415053763441,0.01424158481055947
-0.0006399015053763441,0.01430741192606859
-0.0006398615053763441,0.01427449836831403
-0.0006398215053763441,0.01434032548382314
-0.0006397815053763441,0.01457072038810462
-0.0006397415053763441,0.01480111529238694
-0.0006397015053763441,0.01480111529238694
-0.0006396615053763441,0.01493276952340517
-0.0006396215053763441,0.01450489327259593
-0.0006395815053763441,0.01496568308115889
-0.0006395415053763441,0.01519607798544049
-0.0006395015053763441,0.01457072038810504
-0.0006394615053763441,0.01519607798544163
-0.0006394215053763441,0.01489985596565062
-0.0006393815053763441,0.01489985596565062
-0.000639341505376344,0.01539355933196975
-0.0006393015053763441,0.01582143558277821
-0.0006392615053763441,0.0157556084672691
-0.0006392215053763441,0.01526190510095074
-0.0006391815053763441,0.01542647288972353
-0.0006391415053763442,0.01552521356298702
-0.0006391015053763441,0.01562395423625087
-0.0006390615053763441,0.0155252135629872
-0.0006390215053763441,0.01516316442768707
-0.0006389815053763441,0.0162163982758329
-0.0006389415053763441,0.0162493118335874
-0.0006389015053763441,0.0160189169293058
-0.0006388615053763441,0.01615057116032378
-0.0006388215053763441,0.0162163982758329
-0.0006387815053763441,0.01585434914053277
-0.0006387415053763441,0.01585434914053277
-0.0006387015053763441,0.01588726269828787
-0.0006386615053763441,0.01618348471807834
-0.0006386215053763441,0.01680884231541493
-0.0006385815053763441,0.01638096606460569
-0.0006385415053763441,0.0161834847180787
-0.000638501505376344,0.01680884231541499
-0.0006384615053763441,0.01684175587316948
-0.0006384215053763441,0.01694049654643316
-0.0006383815053763441,0.01763168125927886
-0.0006383415053763441,0.01726963212397873
-0.000638301505376344,0.01743419991275175
-0.0006382615053763441,0.01756585414376974
-0.0006382215053763441,0.01743419991275151
-0.0006381815053763441,0.01733545923948784
-0.0006381415053763441,0.01773042193254253
-0.0006381015053763441,0.01776333549029702
-0.0006380615053763441,0.01776333549029696
-0.0006380215053763441,0.01769750837478797
-0.0006379815053763441,0.01769750837478797
-0.0006379415053763441,0.0185203473186519
-0.0006379015053763441,0.01759876770152597
-0.0006378615053763441,0.01756585414377136
-0.0006378215053763441,0.01845452020314278
-0.0006377815053763441,0.0185203473186519
-0.0006377415053763441,0.01871782866517924
-0.0006377015053763441,0.01848743376089776
-0.0006376615053763441,0.01875074222293452
-0.0006376215053763441,0.01914570491598848
-0.0006375815053763441,0.01898113712721569
-0.0006375415053763441,0.0187507422229338
-0.0006375015053763441,0.01917861847374304
-0.000637461505376344,0.01947484049353447
-0.0006374215053763441,0.01970523539781595
