Analysis/New Tests/wrd01_d2s01/cmb02_ch12.csv

#Digilent WaveForms Oscilloscope Acquisition
#Device Name: ADP3450
#Serial Number: SN:210018B9D9B0
#Date Time: 2024-08-06 12:39:10.007.083.520
#Sample rate: 2.94118e+06Hz
#Samples: 32768
#Trigger: Source: Channel 3 Type: Edge Condition: Rising Level: 20 mV Hyst.: Auto HoldOff: 0 s
#Channel 3: Range: 200 mV/div Offset: 0 V Attenuation: 1 X Coupling: DC Bandwidth: 0 Hz Sample Mode: Average

Time (s),Channel 3 (V)
-0.005570302108843538,0.02974387051295587
-0.005569962108843537,0.03007300609050036
-0.005569622108843537,0.02948056205091941
-0.005569282108843538,0.02799945195196434
-0.005568942108843537,0.02704495877708123
-0.005568602108843537,0.02651834185300928
-0.005568262108843538,0.02605755204444548
-0.005567922108843537,0.02559676223588167
-0.005567582108843537,0.02559676223588167
-0.005567242108843538,0.02513597242731788
-0.005566902108843537,0.02447770127222631
-0.005566562108843537,0.02424730636794483
-0.005566222108843537,0.02270036915348065
-0.005565882108843537,0.02141674040105184
-0.005565542108843537,0.02082429636147089
-0.005565202108843537,0.0203635065529071
-0.005564862108843537,0.02003437097536075
-0.005564522108843537,0.01960649472455228
-0.005564182108843537,0.01917861847374304
-0.005563842108843537,0.0186849151074242
-0.005563502108843537,0.01842160664538823
-0.005563162108843537,0.0175987677015243
-0.005562822108843538,0.01687466943092536
-0.005562482108843537,0.01647970673786936
-0.005562142108843537,0.0164467931801148
-0.005561802108843538,0.01671010164215078
-0.005561462108843537,0.01746711347050607
-0.005561122108843537,0.01789498972131531
-0.005560782108843538,0.01819121174110579
-0.005560442108843537,0.01861908799191557
-0.005560102108843537,0.01868491510742468
-0.005559762108843538,0.01855326087640669
-0.005559422108843537,0.01845452020314278
-0.005559082108843537,0.01868491510742468
-0.005558742108843538,0.01858617443416119
-0.005558402108843537,0.01799373039457898
-0.005558062108843537,0.01687466943092404
-0.005557722108843538,0.01608474404481611
-0.005557382108843537,0.01605183048706011
-0.005557042108843537,0.015986003371551
-0.005556702108843538,0.01568978135176052
-0.005556362108843537,0.01585434914053277
-0.005556022108843537,0.01539355933196897
-0.005555682108843538,0.01460363394586104
-0.005555342108843537,0.01407701702178669
-0.005555002108843537,0.01378079500199567
-0.005554662108843538,0.01378079500199567
-0.005554322108843537,0.01394536279076846
-0.005553982108843537,0.01453780683035049
-0.005553642108843538,0.01509733731217796
-0.005553302108843537,0.01532773221645986
-0.005552962108843537,0.01611765760256923
-0.005552622108843538,0.01624931183358745
-0.005552282108843537,0.0155252135629872
-0.005551942108843537,0.01453780683035049
-0.005551602108843538,0.0125300798073225
-0.005551262108843537,0.01101605615061126
-0.005550922108843537,0.01012739009123984
-0.005550582108843538,0.009370378262885021
-0.005550242108843537,0.008942502012075719
-0.005549902108843537,0.008909588454321223
-0.005549562108843538,0.01058817989980363
-0.005549222108843537,0.01091731547735142
-0.005548882108843537,0.01213511711426782
-0.005548542108843538,0.0122996849030406
-0.005548202108843537,0.01282630182711448
-0.005547862108843537,0.01335291875118643
-0.005547522108843538,0.0134516594244501
-0.005547182108843537,0.01394536279077031
-0.005546842108843537,0.01496568308115973
-0.005546502108843538,0.015986003371551
-0.005546162108843537,0.01611765760256917
-0.005545822108843537,0.01608474404481467
-0.005545482108843537,0.0155252135629872
-0.005545142108843537,0.01539355933196718
-0.005544802108843537,0.01440615259933226
-0.005544462108843537,0.01361622721322289
-0.005544122108843537,0.01299086961588516
-0.005543782108843537,0.01236551201854972
-0.005543442108843537,0.01200346288324959
-0.005543102108843537,0.01220094422977777
-0.005542762108843537,0.01266173403834073
-0.005542422108843537,0.0129908696158863
-0.005542082108843538,0.01348457298220376
-0.005541742108843537,0.01351748653995922
-0.005541402108843537,0.01394536279076846
-0.005541062108843538,0.01447197971484042
-0.005540722108843537,0.01407701702178669
-0.005540382108843537,0.01374788144424112
-0.005540042108843538,0.01384662211750461
-0.005539702108843537,0.01256299336507706
-0.005539362108843537,0.01157558663244035
-0.005539022108843538,0.01075274768857792
-0.005538682108843537,0.009765340955939707
-0.005538342108843537,0.009436205378394135
-0.005538002108843538,0.009567859609412125
-0.005537662108843537,0.009765340955939707
-0.005537322108843537,0.01025904432225806
-0.005536982108843538,0.01118062393938399
-0.005536642108843537,0.0118388950944768
-0.005536302108843537,0.01233259846079516
-0.005535962108843538,0.01253007980732214
-0.005535622108843537,0.01305669673139542
-0.005535282108843537,0.01272756115384985
-0.005534942108843538,0.01282630182711334
-0.005534602108843537,0.01358331365546833
-0.005534262108843537,0.01424158481055947
-0.005533922108843538,0.01434032548382296
-0.005533582108843537,0.01417575769505036
-0.005533242108843537,0.01351748653995922
-0.005532902108843538,0.01315543740465909
-0.005532562108843537,0.01216803067202238
-0.005532222108843537,0.01111479682387655
-0.005531882108843538,0.01035778499552173
-0.005531542108843537,0.009666600282676035
-0.005531202108843537,0.008547539319021094
-0.005530862108843538,0.008514625761266537
-0.005530522108843537,0.008350057972493751
-0.005530182108843537,0.008415885088002865
-0.005529842108843538,0.008876674896566664
-0.005529502108843537,0.009502032493905346
-0.005529162108843537,0.01065400701531275
-0.005528822108843538,0.011378105285913
-0.005528482108843537,0.01213511711426854
-0.005528142108843537,0.0125300798073225
-0.005527802108843538,0.01256299336507706
-0.005527462108843537,0.012562993365077
-0.005527122108843537,0.0125300798073225
-0.005526782108843538,0.01216803067202238
-0.005526442108843537,0.01203637644100355
-0.005526102108843537,0.01170724086345858
-0.005525762108843538,0.01078566124633098
-0.005525422108843537,0.00996282230246627
-0.005525082108843537,0.009534946051657807
-0.005524742108843538,0.009534946051657807
-0.005524402108843537,0.00953494605165685
-0.005524062108843537,0.009008329127584893
-0.005523722108843537,0.008777934223302994
-0.005523382108843537,0.008843761338813544
-0.005523042108843537,0.009633686724921478
-0.005522702108843537,0.01078566124633098
-0.005522362108843537,0.01170724086346031
-0.005522022108843537,0.01266173403834073
-0.005521682108843537,0.01269464759609529
-0.005521342108843537,0.01246425269181183
-0.005521002108843537,0.0116085001901949
-0.005520662108843537,0.011378105285913
-0.005520322108843538,0.01078566124633205
-0.005519982108843537,0.01052235278429452
-0.005519642108843537,0.01055526634204908
-0.005519302108843538,0.01065400701531257
-0.005518962108843537,0.01127936461264933
-0.005518622108843537,0.01154267307468579
-0.005518282108843538,0.01203637644100325
-0.005517942108843537,0.0120692899987587
-0.005517602108843537,0.01236551201854972
-0.005517262108843538,0.01210220355651374
-0.005516922108843537,0.01157558663244035
-0.005516582108843537,0.01075274768857642
-0.005516242108843538,0.01025904432225896
-0.005515902108843537,0.01012739009123984
-0.005515562108843537,0.01039069855327629
-0.005515222108843538,0.01048943922653978
-0.005514882108843537,0.01052235278429452
-0.005514542108843537,0.01065400701531275
-0.005514202108843538,0.009962822302468307
-0.005513862108843537,0.009205810474112236
-0.005513522108843537,0.009567859609412364
-0.005513182108843538,0.009271637589621889
-0.005512842108843537,0.009107069800848565
-0.005512502108843537,0.009074156243094007
-0.005512162108843538,0.009469118936148692
-0.005511822108843537,0.009205810474112236
-0.005511482108843537,0.008942502012075779
-0.005511142108843538,0.009205810474112236
-0.005510802108843537,0.009139983358603122
-0.005510462108843537,0.009600773167166921
-0.005510122108843538,0.01032487143776718
-0.005509782108843537,0.011378105285913
-0.005509442108843537,0.01233259846079516
-0.005509102108843538,0.01302378317364086
-0.005508762108843537,0.01345165942444992
-0.005508422108843537,0.01335291875118643
-0.005508082108843538,0.01312252384690453
-0.005507742108843537,0.01315543740465897
-0.005507402108843537,0.01308961028914997
-0.005507062108843538,0.01302378317364086
-0.005506722108843537,0.01292504250037659
-0.005506382108843537,0.01259590692283162
-0.005506042108843538,0.01226677134528605
-0.005505702108843537,0.01203637644100241
-0.005505362108843537,0.01108188326612199
-0.005505022108843538,0.01098314259285832
-0.005504682108843537,0.01012739009123977
-0.005504342108843537,0.01009447653348528
-0.005504002108843538,0.009436205378394135
-0.005503662108843537,0.009436205378393417
-0.005503322108843537,0.00904124268533945
-0.005502982108843537,0.009008329127584893
-0.005502642108843537,0.009172896916357918
-0.005502302108843537,0.009304551147375908
-0.005501962108843537,0.009765340955939707
-0.005501622108843537,0.01029195788001268
-0.005501282108843537,0.01032487143776718
-0.005500942108843537,0.01078566124633098
-0.005500602108843537,0.01114771038163164
-0.005500262108843537,0.01144393240142212
-0.005499922108843537,0.01180598153672225
-0.005499582108843538,0.01213511711426722
-0.005499242108843537,0.01266173403834073
-0.005498902108843537,0.01259590692283162
-0.005498562108843538,0.01239842557630463
-0.005498222108843537,0.01157558663244035
-0.005497882108843537,0.01085148836184009
-0.005497542108843538,0.01108188326612157
-0.005497202108843537,0.0116085001901949
-0.005496862108843537,0.01220094422977693
-0.005496522108843538,0.01276047471160338
-0.005496182108843537,0.013682054328732
-0.005495842108843537,0.01361622721322289
-0.005495502108843538,0.01437323904157632
-0.005495162108843537,0.01473528817687783
-0.005494822108843537,0.01463654750361416
-0.005494482108843538,0.01401118990627871
-0.005494142108843537,0.01335291875118643
-0.005493802108843537,0.01302378317364086
-0.005493462108843538,0.01269464759609589
-0.005493122108843537,0.01266173403834073
-0.005492782108843537,0.01305669673139542
-0.005492442108843538,0.01381370855974885
-0.005492102108843537,0.0139124492330139
-0.005491762108843537,0.01355040009771377
-0.005491422108843538,0.01236551201855187
-0.005491082108843537,0.01114771038163111
-0.005490742108843537,0.01019321720674895
-0.005490402108843538,0.009271637589621349
-0.005490062108843537,0.008514625761266537
-0.005489722108843537,0.008218403741475522
-0.005489382108843538,0.00881084778105755
-0.005489042108843537,0.00973242739818515
-0.005488702108843537,0.01104896970836743
-0.005488362108843538,0.01246425269181339
-0.005488022108843537,0.01351748653996023
-0.005487682108843537,0.01407701702178669
-0.005487342108843538,0.01394536279076846
-0.005487002108843537,0.01315543740465849
-0.005486662108843537,0.01282630182711352
-0.005486322108843538,0.01239842557630427
-0.005485982108843537,0.01308961028915129
-0.005485642108843537,0.01381370855975023
-0.005485302108843538,0.01447197971484137
-0.005484962108843537,0.01506442375442358
-0.005484622108843537,0.01516316442768707
-0.005484282108843538,0.01463654750361416
-0.005483942108843537,0.01374788144424016
-0.005483602108843537,0.0132212645201682
-0.005483262108843538,0.01239842557630427
-0.005482922108843537,0.01226677134528599
-0.005482582108843537,0.01223385778753149
-0.005482242108843537,0.01246425269181339
-0.005481902108843537,0.01262882048058617
-0.005481562108843537,0.01262882048058617
-0.005481222108843537,0.01266173403834073
-0.005480882108843537,0.01276047471160458
-0.005480542108843537,0.01285921538486808
-0.005480202108843537,0.01220094422977693
-0.005479862108843537,0.01081857480408344
-0.005479522108843537,0.009666600282676035
-0.005479182108843537,0.009139983358603122
-0.005478842108843538,0.008843761338812647
-0.005478502108843537,0.007033515662311467
-0.005478162108843537,0.00130655661301853
-0.005477822108843538,-0.009884053023510531
-0.005477482108843537,-0.02887517584791034
-0.005477142108843537,-0.05487688647401046
-0.005476802108843538,-0.08584854432099234
-0.005476462108843537,-0.1189595834221331
-0.005476122108843537,-0.1501945497312079
-0.005475782108843538,-0.1783685551690575
-0.005475442108843537,-0.2010459964619986
-0.005475102108843537,-0.2183256142831411
-0.005474762108843538,-0.2296478781506881
-0.005474422108843537,-0.2356710592197926
-0.005474082108843537,-0.2373496506652751
-0.005473742108843538,-0.2359014541240772
-0.005473402108843537,-0.231853086520264
-0.005473062108843537,-0.2263894359330075
-0.005472722108843538,-0.2197738108243536
-0.005472382108843537,-0.2127632230226209
-0.005472042108843537,-0.2054893267588638
-0.005471702108843538,-0.1986433067459284
-0.005471362108843537,-0.1915668918286861
-0.005471022108843537,-0.1844904769114563
-0.005470682108843538,-0.1772165806477125
-0.005470342108843537,-0.1705022148657696
-0.005470002108843537,-0.1643802931234219
-0.005469662108843538,-0.1589824696516746
-0.005469322108843537,-0.1542758308927729
-0.005468982108843537,-0.1495691921338713
-0.005468642108843538,-0.1442701093353876
-0.005468302108843537,-0.1387735451903765
-0.005467962108843537,-0.1315654760421285
-0.005467622108843538,-0.1254764678575355
-0.005467282108843537,-0.1193216325574333
-0.005466942108843537,-0.1141542039899678
-0.005466602108843538,-0.1095792194620844
-0.005466262108843537,-0.1050371484919487
-0.005465922108843537,-0.1013179164656905
-0.005465582108843538,-0.0970391539575981
-0.005465242108843537,-0.09295787279602559
-0.005464902108843537,-0.08887659163446796
-0.005464562108843538,-0.08492696470392108
-0.005464222108843537,-0.08163560892845982
-0.005463882108843537,-0.07857464805729156
-0.005463542108843538,-0.07554660074387232
-0.005463202108843537,-0.07317682458554109
-0.005462862108843537,-0.07146531958230723
-0.005462522108843538,-0.06958924679029749
-0.005462182108843537,-0.06751569265175721
-0.005461842108843537,-0.06577127409076886
-0.005461502108843538,-0.06356606572121354
-0.005461162108843537,-0.06103172177410784
-0.005460822108843537,-0.05839863715374806
-0.005460482108843537,-0.05560098474461071
-0.005460142108843537,-0.05296790012424219
-0.005459802108843537,-0.05079560531244537
-0.005459462108843537,-0.04882079184717195
-0.005459122108843537,-0.04651684280435008
-0.005458782108843537,-0.04493699203213421
-0.005458442108843537,-0.04302800568236989
-0.005458102108843537,-0.04052657529301913
-0.005457762108843537,-0.03809097201918633
-0.005457422108843537,-0.03591867720738556
-0.005457082108843538,-0.03433882643516969
-0.005456742108843537,-0.03269314854743896
-0.005456402108843537,-0.03108038421746566
-0.005456062108843538,-0.02887517584791435
-0.005455722108843537,-0.0272953250756916
-0.005455382108843537,-0.02532051161041817
-0.005455042108843538,-0.02420145064676527
-0.005454702108843537,-0.02252285920128081
-0.005454362108843537,-0.02166710669966233
-0.005454022108843538,-0.0208113541980454
-0.005453682108843537,-0.0196922932343889
-0.005453342108843537,-0.01916567631031599
-0.005453002108843538,-0.01775039332687261
-0.005452662108843537,-0.01676298659423332
-0.005452322108843537,-0.01636802390117864
-0.005451982108843538,-0.01547935784180721
-0.005451642108843537,-0.01442612399365977
-0.005451302108843537,-0.01241839697063178
-0.005450962108843538,-0.01044358350536195
-0.005450622108843537,-0.008797905617630502
-0.005450282108843537,-0.007415536191939104
-0.005449942108843538,-0.006658524363585668
-0.005449602108843537,-0.006329388786038719
-0.005449262108843537,-0.006954746383375304
-0.005448922108843538,-0.007514276865201758
-0.005448582108843537,-0.007876326000502903
-0.005448242108843537,-0.00837002936682126
-0.005447902108843538,-0.008402942924575817
-0.005447562108843537,-0.00790923955825746
-0.005447222108843537,-0.006263561670529605
-0.005446882108843538,-0.004453315994028964
-0.005446542108843537,-0.002972205895073894
-0.005446202108843537,-0.001491095796118824
-0.005445862108843538,0.0001874956493635883
-0.005445522108843537,0.0005166312269090995
-0.005445182108843537,0.0004837176691546022
-0.005444842108843538,-7.581281267286857e-05
-0.005444502108843537,-0.0002403806014471508
-0.005444162108843537,-0.001063219545309582
-0.005443822108843538,-0.001622750027137053
-0.005443482108843537,-0.001951885604682204
-0.005443142108843537,-0.001721490700400724
-0.005442802108843538,-0.0006024297367457822
-0.005442462108843537,0.0001545820916120247
-0.005442122108843537,0.001800259979336887
-0.005441782108843538,0.003676332771346642
-0.005441442108843537,0.005289097101322215
-0.005441102108843537,0.00653981229599311
-0.005440762108843538,0.007165169893329695
-0.005440422108843537,0.006901861431292879
-0.005440082108843537,0.006704380084765896
-0.005439742108843537,0.006046108929674754
-0.005439402108843537,0.005716973352128643
-0.005439062108843537,0.005420751332338168
-0.005438722108843537,0.005190356428056269
-0.005438382108843537,0.005289097101320119
-0.005438042108843537,0.005387837774583611
-0.005437702108843537,0.005091615754792597
-0.005437362108843537,0.004400431041947496
-0.005437022108843537,0.004729566619492469
-0.005436682108843537,0.004597912388474241
-0.005436342108843538,0.004466258157456252
-0.005436002108843537,0.004235863253174112
-0.005435662108843537,0.005486578447847282
-0.005435322108843538,0.006046108929673736
-0.005434982108843537,0.007296824124347924
-0.005434642108843537,0.009139983358603122
-0.005434302108843538,0.01006156297572904
-0.005433962108843537,0.009469118936148692
-0.005433622108843537,0.009370378262885021
-0.005433282108843538,0.008613366434531585
-0.005432942108843537,0.008053835952702737
-0.005432602108843537,0.007955095279439066
-0.005432262108843538,0.00765887325964859
-0.005431922108843537,0.007658873259648051
-0.005431582108843537,0.007856354606175394
-0.005431242108843538,0.00861336643452883
-0.005430902108843537,0.009534946051657807
-0.005430562108843537,0.01042361211103085
-0.005430222108843538,0.01137810528591127
-0.005429882108843537,0.01216803067202238
-0.005429542108843537,0.01243133913405883
-0.005429202108843538,0.01187180865223238
-0.005428862108843537,0.01081857480408553
-0.005428522108843537,0.009666600282676035
-0.005428182108843538,0.008942502012077096
-0.005427842108843537,0.008053835952702737
-0.005427502108843537,0.007263910566593366
-0.005427162108843538,0.00700060210455691
-0.005426822108843537,0.007033515662311467
-0.005426482108843537,0.007099342777820581
-0.005426142108843538,0.006704380084765896
-0.005425802108843537,0.00677020720027501
-0.005425462108843537,0.006605639411502225
-0.005425122108843538,0.006375244507220324
-0.005424782108843537,0.006177763160692982
-0.005424442108843537,0.006441071622729439
-0.005424102108843538,0.006638552969256781
-0.005423762108843537,0.007033515662312604
-0.005423422108843537,0.007658873259648051
-0.005423082108843538,0.009304551147375908
-0.005422742108843537,0.01118062393938949
-0.005422402108843537,0.01328709163567732
-0.005422062108843538,0.0148340288501415
-0.005421722108843537,0.01621639827583368
-0.005421382108843537,0.01664427452664214
-0.005421042108843538,0.01647970673786936
-0.005420702108843537,0.01536064577421136
-0.005420362108843537,0.013682054328732
-0.005420022108843538,0.01190472220998592
-0.005419682108843537,0.01032487143776502
-0.005419342108843537,0.009139983358603122
-0.005419002108843538,0.007856354606175394
-0.005418662108843537,0.007033515662310029
-0.005418322108843537,0.006243590276202096
-0.005417982108843537,0.006177763160692982
-0.005417642108843537,0.007132256335576456
-0.005417302108843537,0.007856354606175394
-0.005416962108843537,0.007955095279439066
-0.005416622108843537,0.008481712203512338
-0.005416282108843537,0.008679193550039321
-0.005415942108843537,0.008350057972493751
-0.005415602108843537,0.008646279992284645
-0.005415262108843537,0.008580452876775651
-0.005414922108843537,0.008185490183720966
-0.005414582108843538,0.007823441048421496
-0.005414242108843537,0.007955095279439066
-0.005413902108843537,0.007856354606175394
-0.005413562108843538,0.008481712203510841
