Analysis/New Tests/wrd01_d2s01/cmb12_ch15.csv

#Digilent WaveForms Oscilloscope Acquisition
#Device Name: ADP3450
#Serial Number: SN:210018B9D9B0
#Date Time: 2024-08-07 11:03:23.247.270.990
#Sample rate: 2.94118e+06Hz
#Samples: 32768
#Trigger: Source: Channel 3 Type: Edge Condition: Rising Level: 0 V Hyst.: Auto HoldOff: 0 s
#Channel 3: Range: 200 mV/div Offset: 0 V Attenuation: 1 X Coupling: DC Bandwidth: 0 Hz Sample Mode: Average

Time (s),Channel 3 (V)
-0.005570365714285715,0.007691786817402609
-0.005570025714285714,0.006473985180482558
-0.005569685714285714,0.005684059794374625
-0.005569345714285715,0.00574988690988374
-0.005569005714285714,0.006013195371920734
-0.005568665714285714,0.00630941739171121
-0.005568325714285715,0.006901861431293239
-0.005567985714285714,0.007625959701893794
-0.005567645714285714,0.00779052749066628
-0.005567305714285715,0.00811966306821185
-0.005566965714285714,0.007922181721684568
-0.005566625714285714,0.007955095279439066
-0.005566285714285715,0.008251317299230079
-0.005565945714285714,0.008646279992285124
-0.005565605714285714,0.008843761338812107
-0.005565265714285715,0.008580452876775651
-0.005564925714285714,0.008777934223303772
-0.005564585714285714,0.009205810474112236
-0.005564245714285715,0.009995735860221606
-0.005563905714285714,0.01118062393938818
-0.005563565714285714,0.01256299336507706
-0.005563225714285715,0.01233259846079516
-0.005562885714285715,0.01210220355651368
-0.005562545714285714,0.01121353749714022
-0.005562205714285715,0.01058817989980363
-0.005561865714285715,0.00969951384043221
-0.005561525714285714,0.009172896916357679
-0.005561185714285715,0.008613366434530208
-0.005560845714285715,0.007955095279440263
-0.005560505714285714,0.007494305470875266
-0.005560165714285715,0.007329737682102481
-0.005559825714285715,0.009765340955935276
-0.005559485714285714,0.01651262029562391
-0.005559145714285714,0.03040214166804701
-0.005558805714285715,0.05245422536356016
-0.005558465714285714,0.08138524262985597
-0.005558125714285714,0.1141013190378857
-0.005557785714285715,0.1482655919870539
-0.005557445714285714,0.1813108039726913
-0.005557105714285714,0.2105709568164926
-0.005556765714285715,0.2344332861885031
-0.005556425714285714,0.2518116446829526
-0.005556085714285714,0.2629693407617475
-0.005555745714285715,0.2691900031773475
-0.005555405714285714,0.2704736319297866
-0.005555065714285714,0.2680051150981947
-0.005554725714285715,0.2628706000884932
-0.005554385714285714,0.2559258394022723
-0.005554045714285714,0.2483228075609696
-0.005553705714285715,0.2407526892774215
-0.005553365714285714,0.2331825709938734
-0.005553025714285714,0.2258099340568525
-0.005552685714285715,0.2191943089481866
-0.005552345714285714,0.2121508075887114
-0.005552005714285714,0.2056339231533091
-0.005551665714285715,0.1991499522756613
-0.005551325714285714,0.1917444017808723
-0.005550985714285714,0.1842401106128469
-0.005550645714285715,0.1767029058870533
-0.005550305714285714,0.1693960960655299
-0.005549965714285714,0.1629121251878939
-0.005549625714285715,0.1570535119075828
-0.005549285714285714,0.1512607257427708
-0.005548945714285714,0.1458299887132788
-0.005548605714285715,0.1400701161062313
-0.005548265714285714,0.1343760706146831
-0.005547925714285714,0.1290111607007001
-0.005547585714285715,0.1241728677107802
-0.005547245714285714,0.1203219814534906
-0.005546905714285714,0.1168002307737594
-0.005546565714285715,0.1130480851897399
-0.005546225714285714,0.1097567294142793
-0.005545885714285714,0.1070578176784105
-0.005545545714285715,0.1043589059425368
-0.005545205714285714,0.1015612535333936
-0.005544865714285714,0.09833572487345288
-0.005544525714285715,0.09481397419371526
-0.005544185714285714,0.09145679130274439
-0.005543845714285714,0.08813252196954019
-0.005543505714285715,0.0852032153293846
-0.005543165714285714,0.08326131542186287
-0.005542825714285714,0.08168146464964698
-0.005542485714285715,0.0789167257982642
-0.005542145714285715,0.0765469496399404
-0.005541805714285714,0.07348598876876228
-0.005541465714285715,0.07075416347513402
-0.005541125714285715,0.06687036366010336
-0.005540785714285714,0.06328278586484956
-0.005540445714285715,0.06018891143592119
-0.005540105714285715,0.05742417258454343
-0.005539765714285714,0.05577849469681054
-0.005539425714285715,0.05416573036683724
-0.005539085714285715,0.05275044738339386
-0.005538745714285714,0.05149973218871812
-0.005538405714285714,0.05103894238015432
-0.005538065714285715,0.05034775766730987
-0.005537725714285714,0.05018318987853584
-0.005537385714285714,0.04942617805018102
-0.005537045714285715,0.04824128997101913
-0.005536705714285714,0.04725388323838025
-0.005536365714285714,0.04560820535065239
-0.005536025714285715,0.04383087323190955
-0.005535685714285714,0.04221810890193301
-0.005535345714285714,0.04073699880297794
-0.005535005714285715,0.03951919716606155
-0.005534665714285714,0.03761021081629502
-0.005534325714285714,0.03563539735102159
-0.005533985714285715,0.03326562119269779
-0.005533645714285714,0.03106041282313815
-0.005533305714285714,0.02954638916642853
-0.005532965714285715,0.02842732820277359
-0.005532625714285714,0.027801970605437
-0.005532285714285714,0.0273411807968732
-0.005531945714285715,0.02707787233483674
-0.005531605714285714,0.02645251473750016
-0.005531265714285714,0.02589298425567269
-0.005530925714285715,0.0250372317540542
-0.005530585714285714,0.02451061482998129
-0.005530245714285714,0.02451061482998129
-0.005529905714285715,0.02408273857917205
-0.005529565714285714,0.02411565213692661
-0.005529225714285714,0.02411565213692661
-0.005528885714285715,0.02381943011713559
-0.005528545714285714,0.02325989963530728
-0.005528205714285714,0.02279910982674432
-0.005527865714285715,0.02240414713368964
-0.005527525714285714,0.02200918444063303
-0.005527185714285714,0.02095595059248912
-0.005526845714285715,0.02052807434167988
-0.005526505714285714,0.0201001980908692
-0.005526165714285714,0.01931027270476127
-0.005525825714285715,0.01842160664538823
-0.005525485714285714,0.01822412529886196
-0.005525145714285714,0.01881656933844291
-0.005524805714285715,0.01917861847374304
-0.005524465714285714,0.01934318626251511
-0.005524125714285714,0.01894822356946114
-0.005523785714285715,0.01809247106784265
-0.005523445714285714,0.01730254568173352
-0.005523105714285714,0.01743419991275151
-0.005522765714285715,0.01671010164215126
-0.005522425714285714,0.01664427452664178
-0.005522085714285714,0.0164467931801148
-0.005521745714285715,0.01631513894909657
-0.005521405714285714,0.01572269490951317
-0.005521065714285714,0.01496568308115973
-0.005520725714285715,0.01417575769505036
-0.005520385714285715,0.01355040009771491
-0.005520045714285714,0.01272756115384985
-0.005519705714285715,0.01187180865223136
-0.005519365714285715,0.01121353749714142
-0.005519025714285714,0.01065400701531275
-0.005518685714285715,0.01022613076450351
-0.005518345714285715,0.009864081629204036
-0.005518005714285714,0.009864081629203377
-0.005517665714285714,0.009995735860221606
-0.005517325714285715,0.01104896970836552
-0.005516985714285714,0.01085148836184009
-0.005516645714285714,0.0116085001901949
-0.005516305714285715,0.01108188326612295
-0.005515965714285714,0.01098314259285832
-0.005515625714285714,0.01058817989980363
-0.005515285714285715,0.01009447653348618
-0.005514945714285714,0.01025904432225806
-0.005514605714285714,0.01016030364899439
-0.005514265714285715,0.01058817989980286
-0.005513925714285714,0.01052235278429452
-0.005513585714285714,0.01045652566878541
-0.005513245714285715,0.01134519172815683
-0.005512905714285714,0.01213511711426782
-0.005512565714285714,0.01226677134528605
-0.005512225714285715,0.01302378317364086
-0.005511885714285714,0.0132212645201682
-0.005511545714285714,0.01269464759609529
-0.005511205714285715,0.01190472220998592
-0.005510865714285714,0.01009447653348528
-0.005510525714285714,0.008580452876775651
-0.005510185714285715,0.007198083451084253
-0.005509845714285714,0.00677020720027501
-0.005509505714285714,0.006901861431293239
-0.005509165714285715,0.007296824124347924
-0.005508825714285714,0.009139983358604978
-0.005508485714285714,0.01016030364899439
-0.005508145714285715,0.01131227817040389
-0.005507805714285714,0.01210220355651434
-0.005507465714285714,0.01269464759609529
-0.005507125714285715,0.0127604747116044
-0.005506785714285714,0.01266173403834037
-0.005506445714285714,0.01246425269181339
-0.005506105714285715,0.01177306797896769
-0.005505765714285714,0.01016030364899254
-0.005505425714285714,0.009139983358603122
-0.005505085714285715,0.008284230856984636
-0.005504745714285714,0.008185490183721385
-0.005504405714285714,0.008415885088002865
-0.005504065714285715,0.008843761338812107
-0.005503725714285714,0.009765340955940784
-0.005503385714285714,0.01035778499552173
-0.005503045714285715,0.01131227817040389
-0.005502705714285714,0.01167432730570528
-0.005502365714285714,0.01236551201854972
-0.005502025714285715,0.0120692899987587
-0.005501685714285714,0.01160850019019484
-0.005501345714285714,0.01157558663244035
-0.005501005714285715,0.01081857480408553
-0.005500665714285714,0.01022613076450363
-0.005500325714285714,0.01029195788001262
-0.005499985714285715,0.009962822302467049
-0.005499645714285715,0.009699513840431072
-0.005499305714285714,0.009370378262885021
-0.005498965714285715,0.008909588454321223
-0.005498625714285715,0.008745020665548737
-0.005498285714285714,0.008514625761266537
-0.005497945714285715,0.008613366434530208
-0.005497605714285715,0.008284230856985235
-0.005497265714285714,0.008481712203511979
-0.005496925714285715,0.009074156243094007
-0.005496585714285715,0.009205810474111996
-0.005496245714285714,0.009765340955939707
-0.005495905714285714,0.009600773167166921
-0.005495565714285715,0.01019321720674787
-0.005495225714285714,0.009864081629203377
-0.005494885714285714,0.008975415569830336
-0.005494545714285715,0.007988008837195418
-0.005494205714285714,0.007165169893329695
-0.005493865714285714,0.006671466527011338
-0.005493525714285715,0.005782800467639913
-0.005493185714285714,0.005914454698656525
-0.005492845714285714,0.006111936045183867
-0.005492505714285715,0.006046108929674873
-0.005492165714285714,0.006803120758029567
-0.005491825714285714,0.007955095279439066
-0.005491485714285715,0.009403291820636945
-0.005491145714285714,0.01091731547734921
-0.005490805714285714,0.01141101884366756
-0.005490465714285715,0.01134519172815845
-0.005490125714285714,0.009962822302467049
-0.005489785714285714,0.009238724031866792
-0.005489445714285715,0.007889268163929951
-0.005489105714285714,0.007099342777820581
-0.005488765714285714,0.006704380084765896
-0.005488425714285715,0.006671466527011338
-0.005488085714285714,0.006803120758029507
-0.005487745714285714,0.00677020720027501
-0.005487405714285715,0.006967688546802352
-0.005487065714285714,0.006836034315782807
-0.005486725714285714,0.006111936045183867
-0.005486385714285715,0.005782800467638296
-0.005486045714285714,0.005618232678866828
-0.005485705714285714,0.006342330949465767
-0.005485365714285715,0.007494305470875266
-0.005485025714285714,0.008514625761267436
-0.005484685714285714,0.009008329127584893
-0.005484345714285715,0.009765340955939707
-0.005484005714285714,0.01012739009123954
-0.005483665714285714,0.009962822302467049
-0.005483325714285715,0.01009447653348528
-0.005482985714285714,0.01055526634204974
-0.005482645714285714,0.01091731547734921
-0.005482305714285715,0.01058817989980363
-0.005481965714285714,0.01029195788001214
-0.005481625714285714,0.01002864941797616
-0.005481285714285715,0.01006156297573072
-0.005480945714285714,0.01025904432225609
-0.005480605714285714,0.009172896916357679
-0.005480265714285715,0.009666600282676035
-0.005479925714285714,0.009403291820638621
-0.005479585714285714,0.008876674896566664
-0.005479245714285715,0.008382971530248308
-0.005478905714285715,0.007461391913122385
-0.005478565714285714,0.006901861431293239
-0.005478225714285715,0.006441071622729439
-0.005477885714285715,0.006342330949465947
-0.005477545714285714,0.006506898738238553
-0.005477205714285715,0.00677020720027501
-0.005476865714285715,0.007362651239855959
-0.005476525714285714,0.00756013258638438
-0.005476185714285715,0.007395564797611595
-0.005475845714285715,0.007593046144138579
-0.005475505714285714,0.007362651239857037
-0.005475165714285714,0.007296824124347924
-0.005474825714285715,0.007296824124347924
-0.005474485714285714,0.007955095279439066
-0.005474145714285714,0.008481712203511979
-0.005473805714285715,0.008745020665547958
-0.005473465714285714,0.009600773167166921
-0.005473125714285714,0.01002864941797616
-0.005472785714285715,0.01062109345755711
-0.005472445714285714,0.01114771038163111
-0.005472105714285714,0.01091731547734921
-0.005471765714285715,0.01081857480408571
-0.005471425714285714,0.01029195788001262
-0.005471085714285714,0.00983116807144882
-0.005470745714285715,0.007823441048424489
-0.005470405714285714,0.006868947873538681
-0.005470065714285714,0.005519492005601839
-0.005469725714285715,0.004762480177247026
-0.005469385714285714,0.004663739503983355
-0.005469045714285714,0.004795393735001583
-0.005468705714285715,0.00607902248742931
-0.005468365714285714,0.007362651239857037
-0.005468025714285714,0.008317144414739193
-0.005467685714285715,0.009337464705130465
-0.005467345714285714,0.01029195788001262
-0.005467005714285714,0.01108188326612199
-0.005466665714285715,0.01197054932549503
-0.005466325714285714,0.01233259846079606
-0.005465985714285714,0.01282630182711352
-0.005465645714285715,0.01289212894262263
-0.005465305714285714,0.01279338826935698
-0.005464965714285714,0.01170724086345858
-0.005464625714285715,0.01071983413082186
-0.005464285714285714,0.009962822302465193
-0.005463945714285714,0.008942502012075779
-0.005463605714285715,0.008218403741475522
-0.005463265714285714,0.008317144414739672
-0.005462925714285714,0.008580452876775651
-0.005462585714285715,0.00904124268533945
-0.005462245714285714,0.009074156243093288
-0.005461905714285714,0.008679193550039321
-0.005461565714285715,0.008514625761266537
-0.005461225714285714,0.007658873259648051
-0.005460885714285714,0.007658873259648051
-0.005460545714285715,0.007527219028629823
-0.005460205714285714,0.007198083451083415
-0.005459865714285714,0.006737293642520453
-0.005459525714285715,0.006836034315784124
-0.005459185714285714,0.007625959701895231
-0.005458845714285714,0.008580452876775651
-0.005458505714285715,0.009337464705130465
-0.005458165714285714,0.01029195788001298
-0.005457825714285714,0.01048943922653996
-0.005457485714285715,0.01085148836184009
-0.005457145714285715,0.01095022903510358
-0.005456805714285714,0.01071983413082186
-0.005456465714285715,0.01019321720674895
-0.005456125714285715,0.01091731547734789
-0.005455785714285714,0.01095022903510376
-0.005455445714285715,0.01104896970836743
-0.005455105714285715,0.01111479682387643
-0.005454765714285714,0.01075274768857642
-0.005454425714285715,0.009798254513694264
-0.005454085714285715,0.009139983358604319
-0.005453745714285714,0.007922181721684508
-0.005453405714285714,0.007263910566593366
-0.005453065714285715,0.006506898738239931
-0.005452725714285714,0.006572725853747667
-0.005452385714285714,0.007099342777820581
-0.005452045714285715,0.006836034315784603
-0.005451705714285714,0.006605639411502225
-0.005451365714285714,0.006210676718447538
-0.005451025714285715,0.005486578447848599
-0.005450685714285714,0.005256183543565383
-0.005450345714285714,0.00482830729275614
-0.005450005714285715,0.004795393735001643
-0.005449665714285714,0.005914454698656525
-0.005449325714285714,0.006243590276202096
-0.005448985714285715,0.007560132586381985
-0.005448645714285714,0.008942502012075779
-0.005448305714285714,0.01016030364899439
-0.005447965714285715,0.01085148836184009
-0.005447625714285714,0.011378105285913
-0.005447285714285714,0.01088440191959465
-0.005446945714285715,0.01062109345755819
-0.005446605714285714,0.009699513840430593
-0.005446265714285714,0.008646279992284765
-0.005445925714285715,0.008218403741475522
-0.005445585714285714,0.00709934277782088
-0.005445245714285714,0.007263910566593366
-0.005444905714285715,0.007362651239857037
-0.005444565714285714,0.006737293642519735
-0.005444225714285714,0.006342330949465767
-0.005443885714285715,0.005848627583147411
-0.005443545714285714,0.005947368256410963
-0.005443205714285714,0.005881541140901968
-0.005442865714285715,0.00653981229599311
-0.005442525714285714,0.007790527490668376
-0.005442185714285714,0.008942502012075779
-0.005441845714285715,0.009633686724921478
-0.005441505714285714,0.01052235278429572
-0.005441165714285714,0.01118062393938566
-0.005440825714285715,0.01127936461264933
-0.005440485714285714,0.01150975951692968
-0.005440145714285714,0.01065400701531275
-0.005439805714285715,0.01006156297573072
-0.005439465714285714,0.009699513840429455
-0.005439125714285714,0.009074156243094007
-0.005438785714285715,0.00871210710779388
-0.005438445714285714,0.008185490183719708
-0.005438105714285714,0.007494305470875266
-0.005437765714285715,0.005387837774583611
-0.005437425714285714,5.584141832458517e-05
-0.005437085714285714,-0.01136516312248596
-0.005436745714285715,-0.03032337238911085
-0.005436405714285715,-0.05583137964884621
-0.005436065714285714,-0.08726382730449464
-0.005435725714285715,-0.1202102986168063
-0.005435385714285715,-0.1520706225231596
-0.005435045714285714,-0.1813307753670189
-0.005434705714285715,-0.2058513758941639
-0.005434365714285715,-0.2241842275634189
-0.005434025714285714,-0.2361976761438656
-0.005433685714285715,-0.2420892029819313
-0.005433345714285715,-0.2431424368300752
-0.005433005714285714,-0.2402460437476761
-0.005432665714285714,-0.234979874506947
-0.005432325714285715,-0.2278047189164666
-0.005431985714285714,-0.2203662548639236
-0.005431645714285714,-0.2127961365803755
-0.005431305714285715,-0.2056209809898951
-0.005430965714285714,-0.1991370101122343
-0.005430625714285714,-0.1927188663500956
-0.005430285714285715,-0.1867944259542861
-0.005429945714285714,-0.1807712448851914
-0.005429605714285714,-0.1752746807401803
-0.005429265714285715,-0.1694489810176344
-0.005428925714285714,-0.1633270592752761
-0.005428585714285714,-0.15634938503131
-0.005428245714285715,-0.150589512424273
-0.005427905714285714,-0.1444346771241604
-0.005427565714285714,-0.1387077180748674
-0.005427225714285715,-0.1335732030651565
-0.005426885714285714,-0.1280437253623909
-0.005426545714285714,-0.1234358272767529
-0.005426205714285715,-0.118893756306624
-0.005425865714285714,-0.1144833395675134
-0.005425525714285714,-0.1101058363861573
-0.005425185714285715,-0.1058270738780649
-0.005424845714285714,-0.101877446947518
-0.005424505714285714,-0.09779616578595293
-0.005424165714285715,-0.0935832303933696
-0.005423825714285714,-0.09006147971362505
-0.005423485714285714,-0.08624350701410338
-0.005423145714285715,-0.08354459527822969
-0.005422805714285714,-0.08058237508031374
-0.005422465714285714,-0.07738975997812753
-0.005422125714285715,-0.07406549064491724
-0.005421785714285714,-0.07113618400475699
-0.005421445714285714,-0.0685689264999062
-0.005421105714285715,-0.06481678091588669
-0.005420765714285714,-0.06172290648695229
-0.005420425714285714,-0.05839863715374806
-0.005420085714285715,-0.05593012032215628
-0.005419745714285714,-0.05273750521996005
-0.005419405714285714,-0.05043355617714524
-0.005419065714285715,-0.04819543424983536
-0.005418725714285714,-0.04645101568884162
-0.005418385714285714,-0.04523321405192522
-0.005418045714285715,-0.04388375818398838
-0.005417705714285714,-0.04286343789359597
-0.005417365714285714,-0.04223808029626052
-0.005417025714285715,-0.04098736510158735
-0.005416685714285714,-0.03930877365610147
-0.005416345714285714,-0.03739978730634063
-0.005416005714285715,-0.03552371451433087
-0.005415665714285714,-0.03384512306884451
-0.005415325714285714,-0.03167282825704769
-0.005414985714285715,-0.03009297748482895
-0.005414645714285715,-0.02818399113506811
-0.005414305714285714,-0.02653831324733678
-0.005413965714285715,-0.02515594382164538
-0.005413625714285715,-0.02367483372269301
-0.005413285714285714,-0.02242411852801714
