Analysis/New Tests/wrd01_d2s01/cmb12_ch03.csv

#Digilent WaveForms Oscilloscope Acquisition
#Device Name: ADP3450
#Serial Number: SN:210018B9D9B0
#Date Time: 2024-08-07 10:55:31.543.935.480
#Sample rate: 2.94118e+06Hz
#Samples: 32768
#Trigger: Source: Channel 3 Type: Edge Condition: Rising Level: 0 V Hyst.: Auto HoldOff: 0 s
#Channel 3: Range: 200 mV/div Offset: 0 V Attenuation: 1 X Coupling: DC Bandwidth: 0 Hz Sample Mode: Average

Time (s),Channel 3 (V)
-0.005570467272727273,0.01694049654643316
-0.005570127272727272,0.01671010164215054
-0.005569787272727273,0.01631513894909657
-0.005569447272727273,0.01588726269828733
-0.005569107272727272,0.0153277322164595
-0.005568767272727273,0.01513025086993251
-0.005568427272727273,0.01493276952340517
-0.005568087272727272,0.01503151019666926
-0.005567747272727273,0.01526190510095074
-0.005567407272727273,0.01582143558277821
-0.005567067272727272,0.01628222539134267
-0.005566727272727273,0.01664427452664214
-0.005566387272727273,0.01687466943092404
-0.005566047272727272,0.01720380500846991
-0.005565707272727273,0.0173683727972424
-0.005565367272727273,0.01796081683682443
-0.005565027272727272,0.01805955751008786
-0.005564687272727273,0.01792790327906987
-0.005564347272727273,0.01789498972131531
-0.005564007272727272,0.01763168125927844
-0.005563667272727273,0.01740128635499695
-0.005563327272727273,0.01740128635499695
-0.005562987272727273,0.01753294058601495
-0.005562647272727273,0.01776333549029708
-0.005562307272727273,0.01799373039457898
-0.005561967272727273,0.01766459481703401
-0.005561627272727273,0.01832286597212456
-0.005561287272727273,0.01858617443416101
-0.005560947272727273,0.01924444558925096
-0.005560607272727273,0.01871782866517924
-0.005560267272727273,0.01769750837478797
-0.005559927272727273,0.01651262029562607
-0.005559587272727273,0.01526190510095074
-0.005559247272727273,0.01417575769505036
-0.005558907272727273,0.01351748653996041
-0.005558567272727273,0.01332000519343187
-0.005558227272727273,0.01351748653995922
-0.005557887272727273,0.01394536279076768
-0.005557547272727273,0.01447197971484137
-0.005557207272727273,0.01559104067849632
-0.005556867272727273,0.01595308981379578
-0.005556527272727273,0.01634805250685113
-0.005556187272727273,0.01664427452664214
-0.005555847272727273,0.01700632366194161
-0.005555507272727273,0.01723671856622417
-0.005555167272727273,0.01717089145071506
-0.005554827272727273,0.01720380500846955
-0.005554487272727273,0.01723671856622417
-0.005554147272727273,0.0169075829886786
-0.005553807272727273,0.01661136096888758
-0.005553467272727272,0.01615057116032378
-0.005553127272727273,0.01585434914053277
-0.005552787272727273,0.01585434914053277
-0.005552447272727272,0.01700632366194227
-0.005552107272727273,0.02194335732512584
-0.005551767272727273,0.03231112801781132
-0.005551427272727272,0.05001862208980981
-0.005551087272727273,0.07572411069607216
-0.005550747272727273,0.1077490023912562
-0.005550407272727272,0.1432627312084878
-0.005550067272727273,0.1786777193523268
-0.005549727272727273,0.21076843816302
-0.005549387272727272,0.2370992843667015
-0.005549047272727273,0.2568145054616454
-0.005548707272727273,0.2694862251971498
-0.005548367272727272,0.2765297265566274
-0.005548027272727273,0.2778462688668074
-0.005547687272727273,0.275937282517043
-0.005547347272727272,0.2717243471244483
-0.005547007272727273,0.2654378575933393
-0.005546667272727273,0.2579664799830548
-0.005546327272727272,0.2503634481417379
-0.005545987272727273,0.2425629349539221
-0.005545647272727273,0.2347295082083375
-0.005545307272727272,0.2267644272317209
-0.005544967272727273,0.2191943089481866
-0.005544627272727273,0.2120520669154477
-0.005544287272727272,0.204416121516377
-0.005543947272727273,0.1970105710216151
-0.005543607272727273,0.1902962052396854
-0.005543267272727272,0.1831868767646892
-0.005542927272727273,0.1766370787715442
-0.005542587272727273,0.1708113790489876
-0.005542247272727273,0.1653477284617411
-0.005541907272727273,0.1600157321054929
-0.005541567272727273,0.1550786984423093
-0.005541227272727273,0.1508657630497337
-0.005540887272727273,0.1460603836175607
-0.005540547272727273,0.1418145346672228
-0.005540207272727273,0.1374370314858747
-0.005539867272727273,0.1320392080141194
-0.005539527272727273,0.1276946183905178
-0.005539187272727273,0.1234487694401877
-0.005538847272727273,0.119433315394124
-0.005538507272727273,0.1166685765427412
-0.005538167272727273,0.1146937630774714
-0.005537827272727273,0.112225246245876
-0.005537487272727273,0.1090326311436839
-0.005537147272727273,0.1057083618104797
-0.005536807272727273,0.1027790551703181
-0.005536467272727273,0.09767745371836173
-0.005536127272727273,0.0945506657316845
-0.005535787272727273,0.0909630879364321
-0.005535447272727273,0.08777047283424005
-0.005535107272727273,0.08513738821388027
-0.005534767272727273,0.08217516801596533
-0.005534427272727273,0.07931168849131887
-0.005534087272727273,0.07618490050464163
-0.005533747272727273,0.07378221078855329
-0.005533407272727273,0.07118203972594328
-0.005533067272727273,0.06825273308578769
-0.005532727272727272,0.06598169760072325
-0.005532387272727273,0.06410562480871349
-0.005532047272727273,0.0620320706701764
-0.005531707272727272,0.06058387412897588
-0.005531367272727273,0.05926733181879359
-0.005531027272727273,0.05745708614229295
-0.005530687272727272,0.05538353200375586
-0.005530347272727273,0.0532770643074642
-0.005530007272727273,0.05156555930422723
-0.005529667272727272,0.05087437459138064
-0.005529327272727273,0.05038067122506318
-0.005528987272727273,0.05057815257159052
-0.005528647272727272,0.05057815257158968
-0.005528307272727273,0.05011736276302672
-0.005527967272727273,0.04886664756835355
-0.005527627272727272,0.04708931544960489
-0.005527287272727273,0.04567403246616151
-0.005526947272727273,0.04439040371373378
-0.005526607272727272,0.0427118122682491
-0.005526267272727273,0.0414610970735782
-0.005525927272727273,0.04080282591848706
-0.005525587272727272,0.04053951745644994
-0.005525247272727273,0.04017746832115048
-0.005524907272727273,0.03919006158851376
-0.005524567272727272,0.03767603793180138
-0.005524227272727273,0.03616201427509451
-0.005523887272727273,0.03517460754245779
-0.005523547272727272,0.03366058388574595
-0.005523207272727273,0.03244278224882955
-0.005522867272727273,0.03152120263170195
-0.005522527272727272,0.03099458570762814
-0.005522187272727273,0.03050088234131068
-0.005521847272727273,0.02980969762846498
-0.005521507272727272,0.02944764849316408
-0.005521167272727273,0.02901977224235561
-0.005520827272727273,0.02790071127870067
-0.005520487272727273,0.02694621810382025
-0.005520147272727273,0.0261892062754637
-0.005519807272727273,0.02497140463854509
-0.005519467272727273,0.02437896059896414
-0.005519127272727273,0.0243460470412085
-0.005518787272727273,0.02437896059896306
-0.005518447272727273,0.02460935550324454
-0.005518107272727273,0.02444478771447217
-0.005517767272727273,0.02546510800486345
-0.005517427272727273,0.0260575520444444
-0.005517087272727273,0.02635377406423649
-0.005516747272727273,0.02714369945034586
-0.005516407272727273,0.0278348841631903
-0.005516067272727273,0.02799945195196434
-0.005515727272727273,0.0275715757011551
-0.005515387272727273,0.02655125541076569
-0.005515047272727273,0.02487266396528142
-0.005514707272727273,0.02243706069144419
-0.005514367272727273,0.02092303703473732
-0.005514027272727273,0.0194419269357795
-0.005513687272727273,0.01907987780047937
-0.005513347272727273,0.01911279135823387
-0.005513007272727273,0.02023185232188887
-0.005512667272727273,0.02115343193901647
-0.005512327272727273,0.02210792511389862
-0.005511987272727272,0.02266745559572609
-0.005511647272727273,0.02256871492246242
-0.005511307272727273,0.0217458759785985
-0.005510967272727272,0.0217458759785985
-0.005510627272727273,0.02151548107431659
-0.005510287272727273,0.02164713530533482
-0.005509947272727272,0.02168004886308938
-0.005509607272727273,0.02144965395880748
-0.005509267272727273,0.02144965395880748
-0.005508927272727272,0.0212192590545257
-0.005508587272727273,0.02128508617003469
-0.005508247272727273,0.02121925905452558
-0.005507907272727272,0.02112051838126143
-0.005507567272727273,0.02085720991922545
-0.005507227272727273,0.02029767943739798
-0.005506887272727272,0.0192115320314955
-0.005506547272727273,0.0180595575100881
-0.005506207272727273,0.01766459481703341
-0.005505867272727272,0.01680884231541445
-0.005505527272727273,0.01654553385337847
-0.005505187272727273,0.01651262029562391
-0.005504847272727272,0.01532773221645884
-0.005504507272727273,0.01476820173463239
-0.005504167272727273,0.01473528817687783
-0.005503827272727272,0.01486694240789737
-0.005503487272727273,0.01559104067849632
-0.005503147272727273,0.01615057116032378
-0.005502807272727272,0.01651262029562373
-0.005502467272727273,0.01641387962236024
-0.005502127272727273,0.01654553385337847
-0.005501787272727272,0.01671010164215114
-0.005501447272727273,0.01664427452664214
-0.005501107272727273,0.01641387962236024
-0.005500767272727272,0.0157885220250236
-0.005500427272727273,0.0157556084672691
-0.005500087272727273,0.01565686779400543
-0.005499747272727273,0.01615057116032289
-0.005499407272727273,0.01638096606460569
-0.005499067272727273,0.01615057116032378
-0.005498727272727273,0.01634805250685077
-0.005498387272727273,0.01674301519990581
-0.005498047272727273,0.01601891692930556
-0.005497707272727273,0.01529481865870662
-0.005497367272727273,0.01542647288972353
-0.005497027272727273,0.01555812712074176
-0.005496687272727273,0.01592017625604123
-0.005496347272727273,0.01651262029562391
-0.005496007272727273,0.01697341010418771
-0.005495667272727273,0.01750002702825967
-0.005495327272727273,0.01707215077745139
-0.005494987272727273,0.0171379778929605
-0.005494647272727273,0.01618348471808008
-0.005494307272727273,0.0152948186587053
-0.005493967272727273,0.01424158481055947
-0.005493627272727273,0.01338583230894254
-0.005493287272727273,0.01338583230894099
-0.005492947272727273,0.01378079500199567
-0.005492607272727273,0.01391244923301366
-0.005492267272727273,0.01480111529238694
-0.005491927272727273,0.01647970673786936
-0.005491587272727273,0.01769750837478575
-0.005491247272727273,0.01773042193254253
-0.005490907272727273,0.01796081683682443
-0.005490567272727273,0.01815829818335177
-0.005490227272727272,0.01773042193254253
-0.005489887272727273,0.01740128635499695
-0.005489547272727273,0.01720380500846961
-0.005489207272727272,0.0169075829886786
-0.005488867272727273,0.0162163982758329
-0.005488527272727273,0.01559104067849632
-0.005488187272727272,0.01496568308115835
-0.005487847272727273,0.01420867125280492
-0.005487507272727273,0.01312252384690453
-0.005487167272727272,0.01216803067202178
-0.005486827272727273,0.0118388950944768
-0.005486487272727273,0.01154267307468579
-0.005486147272727272,0.01167432730570354
-0.005485807272727273,0.01141101884366756
-0.005485467272727273,0.01167432730570402
-0.005485127272727272,0.0122338577875334
-0.005484787272727273,0.01328709163567732
-0.005484447272727273,0.01424158481055947
-0.005484107272727272,0.01493276952340763
-0.005483767272727273,0.01628222539134202
-0.005483427272727273,0.01687466943092404
-0.005483087272727272,0.01773042193254295
-0.005482747272727273,0.01796081683682443
-0.005482407272727273,0.01776333549029708
-0.005482067272727272,0.01697341010418663
-0.005481727272727273,0.01638096606460569
-0.005481387272727273,0.01532773221645986
-0.005481047272727272,0.01460363394585888
-0.005480707272727273,0.01420867125280492
-0.005480367272727273,0.01440615259933226
-0.005480027272727272,0.01489985596565145
-0.005479687272727273,0.01536064577421441
-0.005479347272727273,0.01605183048706011
-0.005479007272727273,0.01710506433520403
-0.005478667272727273,0.01792790327906987
-0.005478327272727273,0.0187507422229338
-0.005477987272727273,0.01947484049353274
-0.005477647272727273,0.01917861847374304
-0.005477307272727273,0.01871782866517924
-0.005476967272727273,0.0180266439523348
-0.005476627272727273,0.0166771880843967
-0.005476287272727273,0.01671010164215126
-0.005475947272727273,0.01631513894909729
-0.005475607272727273,0.01624931183358745
-0.005475267272727273,0.01631513894909657
-0.005474927272727273,0.01703923721969551
-0.005474587272727273,0.01743419991275151
-0.005474247272727273,0.01819121174110632
-0.005473907272727273,0.01855326087640579
-0.005473567272727273,0.01819121174110632
-0.005473227272727273,0.01773042193254253
-0.005472887272727273,0.0168417558731711
-0.005472547272727273,0.0162163982758329
-0.005472207272727273,0.01608474404481467
-0.005471867272727273,0.01684175587316811
-0.005471527272727273,0.01763168125927886
-0.005471187272727273,0.01868491510742468
-0.005470847272727273,0.01960649472455061
-0.005470507272727273,0.01950775405128861
-0.005470167272727273,0.01891531001170658
-0.005469827272727273,0.01769750837478797
-0.005469487272727272,0.01634805250685113
-0.005469147272727273,0.01516316442768707
-0.005468807272727273,0.01463654750361416
-0.005468467272727272,0.0141428441372958
-0.005468127272727273,0.01401118990627757
-0.005467787272727273,0.01427449836831403
-0.005467447272727272,0.01424158481055947
-0.005467107272727273,0.01424158481055947
-0.005466767272727273,0.013682054328732
-0.005466427272727272,0.01401118990627787
-0.005466087272727273,0.01417575769505036
-0.005465747272727273,0.013682054328732
-0.005465407272727272,0.01371496788648674
-0.005465067272727273,0.01381370855975023
-0.005464727272727273,0.01420867125280492
-0.005464387272727272,0.01473528817687909
-0.005464047272727273,0.01542647288972353
-0.005463707272727273,0.01618348471807834
-0.005463367272727272,0.0171050643352078
-0.005463027272727273,0.01812538462559721
-0.005462687272727273,0.01911279135823393
-0.005462347272727272,0.01993563030209929
-0.005462007272727273,0.02072555568820722
-0.005461667272727273,0.02135091328554381
-0.005461327272727272,0.02161422174757961
-0.005460987272727273,0.02125217261228014
-0.005460647272727273,0.02042933366841621
-0.005460307272727272,0.0198698031865867
-0.005459967272727273,0.0187507422229338
-0.005459627272727273,0.01750002702826063
-0.005459287272727272,0.01680884231541355
-0.005458947272727273,0.01605183048706011
-0.005458607272727273,0.01562395423625087
-0.005458267272727272,0.01552521356298738
-0.005457927272727273,0.01562395423625087
-0.005457587272727273,0.01496568308115973
-0.005457247272727273,0.01420867125280629
-0.005456907272727273,0.01374788144424112
-0.005456567272727273,0.01381370855975023
-0.005456227272727273,0.01447197971484018
-0.005455887272727273,0.01559104067849632
-0.005455547272727273,0.01654553385337847
-0.005455207272727273,0.01753294058601339
-0.005454867272727273,0.01819121174110632
-0.005454527272727273,0.01740128635499695
-0.005454187272727273,0.01615057116032606
-0.005453847272727273,0.0148340288501415
-0.005453507272727273,0.01361622721322289
-0.005453167272727273,0.012233857787534
-0.005452827272727273,0.01170724086345858
-0.005452487272727273,0.01121353749714022
-0.005452147272727273,0.01127936461264921
-0.005451807272727273,0.01200346288324959
-0.005451467272727273,0.01358331365546833
-0.005451127272727273,0.01532773221645668
-0.005450787272727273,0.0164467931801148
-0.005450447272727273,0.01684175587316948
-0.005450107272727273,0.01690758298867848
-0.005449767272727273,0.01647970673786936
-0.005449427272727273,0.01638096606460569
-0.005449087272727273,0.01562395423625225
-0.005448747272727273,0.01519607798544163
-0.005448407272727273,0.01536064577421441
-0.005448067272727273,0.01608474404481467
-0.005447727272727272,0.01608474404481467
-0.005447387272727273,0.01687466943092404
-0.005447047272727273,0.01707215077745139
-0.005446707272727272,0.0173683727972424
-0.005446367272727273,0.01786207616356076
-0.005446027272727273,0.01680884231541493
-0.005445687272727272,0.01605183048705736
-0.005445347272727273,0.01453780683035049
-0.005445007272727273,0.01279338826935896
-0.005444667272727272,0.01180598153672063
-0.005444327272727273,0.01091731547734921
-0.005443987272727273,0.01114771038163111
-0.005443647272727272,0.01236551201855319
-0.005443307272727273,0.01427449836831403
-0.005442967272727273,0.01624931183358745
-0.005442627272727272,0.01769750837478899
-0.005442287272727273,0.01825703885661544
-0.005441947272727273,0.01858617443416101
-0.005441607272727272,0.01792790327906772
-0.005441267272727273,0.01674301519990581
-0.005440927272727273,0.01608474404481467
-0.005440587272727272,0.01522899154319529
-0.005440247272727273,0.01473528817687783
-0.005439907272727273,0.01476820173463239
-0.005439567272727272,0.01483402885014216
-0.005439227272727273,0.01519607798544163
-0.005438887272727273,0.01582143558277821
-0.005438547272727272,0.01671010164214982
-0.005438207272727273,0.01592017625604189
-0.005437867272727273,0.01638096606460569
-0.005437527272727272,0.01674301519990689
-0.005437187272727273,0.01733545923948784
-0.005436847272727273,0.01789498972131531
-0.005436507272727273,0.01828995241436928
-0.005436167272727273,0.01815829818335177
-0.005435827272727273,0.01750002702826063
-0.005435487272727273,0.01671010164215269
-0.005435147272727273,0.01651262029562391
-0.005434807272727273,0.0164467931801148
-0.005434467272727273,0.01694049654643226
-0.005434127272727273,0.0169075829886786
-0.005433787272727273,0.01720380500846961
-0.005433447272727273,0.01720380500846961
-0.005433107272727273,0.01703923721969683
-0.005432767272727273,0.01677592875766037
-0.005432427272727273,0.01651262029562439
-0.005432087272727273,0.01687466943092404
-0.005431747272727273,0.01647970673786936
-0.005431407272727273,0.01615057116032438
-0.005431067272727273,0.0157556084672691
-0.005430727272727273,0.01542647288972353
-0.005430387272727273,0.01466946106137009
-0.005430047272727273,0.00950203249390325
-0.005429707272727273,-0.001030305987555025
-0.005429367272727273,-0.02005434236965443
-0.005429027272727273,-0.04681306482414396
-0.005428687272727273,-0.07857464805729156
-0.005428347272727273,-0.1129364023529867
-0.005428007272727273,-0.1464424041471883
-0.005427667272727273,-0.1760316925685352
-0.005427327272727273,-0.2006839473266984
-0.005426987272727272,-0.2185230956296684
-0.005426647272727273,-0.2300099272860088
-0.005426307272727273,-0.2354077507577562
-0.005425967272727272,-0.2364938981636566
-0.005425627272727273,-0.2342557762363467
-0.005425287272727273,-0.2291212612266358
-0.005424947272727272,-0.2221435869826697
-0.005424607272727273,-0.2143759873525942
-0.005424267272727273,-0.2064438199337459
-0.005423927272727272,-0.198511652514884
-0.005423587272727273,-0.1909744477891041
-0.005423247272727273,-0.1840296871028926
-0.005422907272727272,-0.1774469755519688
-0.005422567272727273,-0.1706667826545424
-0.005422227272727273,-0.1641169846613855
-0.005421887272727272,-0.1579950629190277
-0.005421547272727273,-0.1524326716585177
-0.005421207272727273,-0.1471006753022795
-0.005420867272727272,-0.1421636416390878
-0.005420527272727273,-0.1377203113422307
-0.005420187272727273,-0.1333757217186292
-0.005419847272727272,-0.1281424660356435
-0.005419507272727273,-0.1220534578510615
-0.005419167272727273,-0.1163923259172777
-0.005418827272727272,-0.1104678855214475
-0.005418487272727273,-0.1050371484919555
-0.005418147272727273,-0.1002646826175447
-0.005417807272727272,-0.09595300655169035
-0.005417467272727273,-0.0919046389478872
-0.005417127272727273,-0.08811957980611312
-0.005416787272727272,-0.08482822403065204
-0.005416447272727273,-0.08186600383274728
-0.005416107272727273,-0.0794633141166646
-0.005415767272727272,-0.07729101930485906
-0.005415427272727273,-0.07465793468449927
-0.005415087272727273,-0.07199193650638014
-0.005414747272727273,-0.06955633323254735
-0.005414407272727273,-0.06659411303463278
-0.005414067272727273,-0.06432307754956834
-0.005413727272727273,-0.06211786918001703
-0.005413387272727273,-0.05895816763557554
-0.005413047272727273,-0.05576555253338349
-0.005412707272727273,-0.05254002387344277
-0.005412367272727273,-0.04891953252043561
-0.005412027272727273,-0.04506864626315243
-0.005411687272727273,-0.0418102040454572
