Analysis/files/wrd01_d2s01/cmb06_ch25.csv

#Digilent WaveForms Oscilloscope Acquisition
#Device Name: ADP3450
#Serial Number: SN:210018B9D9B0
#Date Time: 2024-06-21 15:26:14.743.837.710
#Sample rate: 2.5e+07Hz
#Samples: 32768
#Trigger: Source: Channel 3 Type: Edge Condition: Rising Level: 60 mV Hyst.: Auto HoldOff: 0 s
#Channel 3: Range: 100 mV/div Offset: 0 V Attenuation: 1 X Coupling: DC Bandwidth: 0 Hz Sample Mode: Average

Time (s),Channel 3 (V)
-0.0006553229166666667,-0.02867769450138299
-0.0006552829166666667,-0.02867769450138299
-0.0006552429166666666,-0.0281510775773105
-0.0006552029166666666,-0.02838147248159198
-0.0006551629166666667,-0.0277561148842554
-0.0006551229166666667,-0.02798650978853729
-0.0006550829166666667,-0.02824981825057375
-0.0006550429166666667,-0.02683453526713037
-0.0006550029166666666,-0.027789028442009
-0.0006549629166666667,-0.02726241151793704
-0.0006549229166666667,-0.02666996747835501
-0.0006548829166666667,-0.02699910305590058
-0.0006548429166666667,-0.02643957257407413
-0.0006548029166666666,-0.02640665901631819
-0.0006547629166666666,-0.02620917766979121
-0.0006547229166666667,-0.02617626411203666
-0.0006546829166666667,-0.02627500478530033
-0.0006546429166666667,-0.0253863387259289
-0.0006546029166666666,-0.02555090651469953
-0.0006545629166666666,-0.02525468449490905
-0.0006545229166666667,-0.0247609811285907
-0.0006544829166666667,-0.02459641333981791
-0.0006544429166666667,-0.02469515401308158
-0.0006544029166666666,-0.02423436420451874
-0.0006543629166666666,-0.0247609811285907
-0.0006543229166666667,-0.02374066083819943
-0.0006542829166666667,-0.02370774728044487
-0.0006542429166666667,-0.02354317949167209
-0.0006542029166666667,-0.0234115252606541
-0.0006541629166666666,-0.02370774728044487
-0.0006541229166666667,-0.02341152526065386
-0.0006540829166666667,-0.02354317949167209
-0.0006540429166666667,-0.02311530324086284
-0.0006540029166666667,-0.02304947612535385
-0.0006539629166666666,-0.02380648795370741
-0.0006539229166666666,-0.02318113035637196
-0.0006538829166666667,-0.02262159987454449
-0.0006538429166666667,-0.0233786117028993
-0.0006538029166666667,-0.02298364900984533
-0.0006537629166666666,-0.02281908122107195
-0.0006537229166666666,-0.02288490833658094
-0.0006536829166666667,-0.02272034054780816
-0.0006536429166666667,-0.02242411852801714
-0.0006536029166666667,-0.02202915583496318
-0.0006535629166666666,-0.02229246429699814
-0.0006535229166666666,-0.02186458804618967
-0.0006534829166666667,-0.02232537785475347
-0.0006534429166666667,-0.02170002025741689
-0.0006534029166666667,-0.0215354524686441
-0.0006533629166666667,-0.0215025389108896
-0.0006533229166666666,-0.02120631689109853
-0.0006532829166666667,-0.02081135419804385
-0.0006532429166666667,-0.02058095929376194
-0.0006532029166666667,-0.02051513217825283
-0.0006531629166666667,-0.01956063900337241
-0.0006531229166666666,-0.02002142881193388
-0.0006530829166666667,-0.0196922932343889
-0.0006530429166666667,-0.02018599660070726
-0.0006530029166666667,-0.01870488650175219
-0.0006529629166666667,-0.01913276275256066
-0.0006529229166666666,-0.01906693563705142
-0.0006528829166666666,-0.01857323227073396
-0.0006528429166666667,-0.01830992380869751
-0.0006528029166666667,-0.01804661534666105
-0.0006527629166666667,-0.01883654073276898
-0.0006527229166666666,-0.01761873909585199
-0.0006526829166666666,-0.01771747976911548
-0.0006526429166666667,-0.01751999842258814
-0.0006526029166666667,-0.01761873909585181
-0.0006525629166666667,-0.01722377640279712
-0.0006525229166666667,-0.01715794928728813
-0.0006524829166666666,-0.01676298659423332
-0.0006524429166666667,-0.01630219678566952
-0.0006524029166666667,-0.01692755438300611
-0.0006523629166666667,-0.01613762899689674
-0.0006523229166666667,-0.01626928322791472
-0.0006522829166666666,-0.01626928322791425
-0.0006522429166666667,-0.01587432053486028
-0.0006522029166666667,-0.01570975274608749
-0.0006521629166666667,-0.01584140697710572
-0.0006521229166666667,-0.01587432053486022
-0.0006520829166666666,-0.01521604937976866
-0.0006520429166666666,-0.01495274091773268
-0.0006520029166666667,-0.01468943245569622
-0.0006519629166666667,-0.01518313582201458
-0.0006519229166666667,-0.0149527409177331
-0.0006518829166666666,-0.01475525957120468
-0.0006518429166666666,-0.01439321043590521
-0.0006518029166666667,-0.01472234601345078
-0.0006517629166666667,-0.01442612399365977
-0.0006517229166666667,-0.01468943245569622
-0.0006516829166666666,-0.01409698841611366
-0.0006516429166666666,-0.01380076639632318
-0.0006516029166666667,-0.01376785283856862
-0.0006515629166666667,-0.01366911216530495
-0.0006515229166666667,-0.01347163081877761
-0.0006514829166666667,-0.01353745793428661
-0.0006514429166666666,-0.01347163081877785
-0.0006514029166666667,-0.01360328504979584
-0.0006513629166666667,-0.01360328504979584
-0.0006513229166666667,-0.01343871726102305
-0.0006512829166666667,-0.01310958168347808
-0.0006512429166666666,-0.01350454437653271
-0.0006512029166666666,-0.01380076639632318
-0.0006511629166666667,-0.01380076639632318
-0.0006511229166666667,-0.01287918677919558
-0.0006510829166666667,-0.01169429870003368
-0.0006510429166666666,-0.01521604937976632
-0.0006510029166666666,-0.01366911216530495
-0.0006509629166666667,-0.01297792745245925
-0.0006509229166666667,-0.01297792745245925
-0.0006508829166666667,-0.01304375456796837
-0.0006508429166666666,-0.01294501389470589
-0.0006508029166666666,-0.01360328504979584
-0.0006507629166666667,-0.01327414947225027
-0.0006507229166666667,-0.0131754087989866
-0.0006506829166666667,-0.01370202572305951
-0.0006506429166666667,-0.01274753254817909
-0.0006506029166666666,-0.01307666812572293
-0.0006505629166666667,-0.0136361986075504
-0.0006505229166666667,-0.01291210033695014
-0.0006504829166666667,-0.01320832235674115
-0.0006504429166666667,-0.01310958168347766
-0.0006504029166666666,-0.01278044610593287
-0.0006503629166666666,-0.01330706303000483
-0.0006503229166666667,-0.01333997658775938
-0.0006502829166666667,-0.01301084101021381
-0.0006502429166666667,-0.01278044610593233
-0.0006502029166666666,-0.01281335966368689
-0.0006501629166666666,-0.01304375456796837
-0.0006501229166666667,-0.0124842240861409
-0.0006500829166666667,-0.0129450138947047
-0.0006500429166666667,-0.01271461899042322
-0.0006500029166666666,-0.0122209156241057
-0.0006499629166666666,-0.01291210033695014
-0.0006499229166666667,-0.01251713764389546
-0.0006498829166666667,-0.01261587831715913
-0.0006498429166666667,-0.01297792745245925
-0.0006498029166666667,-0.0124513105283873
-0.0006497629166666666,-0.0127146189904228
-0.0006497229166666667,-0.01261587831715913
-0.0006496829166666667,-0.01291210033695014
-0.0006496429166666667,-0.01274753254817735
-0.0006496029166666667,-0.01294501389470434
-0.0006495629166666666,-0.0124183969706331
-0.0006495229166666667,-0.01314249524123204
-0.0006494829166666667,-0.01251713764389546
-0.0006494429166666667,-0.01261587831715913
-0.0006494029166666667,-0.01261587831715913
-0.0006493629166666666,-0.01241839697063322
-0.0006493229166666666,-0.01320832235674115
-0.0006492829166666667,-0.01218800206634988
-0.0006492429166666667,-0.0124842240861409
-0.0006492029166666667,-0.0124183969706319
-0.0006491629166666666,-0.01258296475940337
-0.0006491229166666666,-0.01192469360431343
-0.0006490829166666667,-0.01231965629736811
-0.0006490429166666667,-0.01228674273961356
-0.0006490029166666667,-0.01238548341287723
-0.0006489629166666666,-0.01205634783533267
-0.0006489229166666666,-0.01261587831715913
-0.0006488829166666667,-0.01212217495084077
-0.0006488429166666667,-0.01152973091125874
-0.0006488029166666667,-0.01166138514227697
-0.0006487629166666667,-0.01172721225778597
-0.0006487229166666666,-0.01199052071982015
-0.0006486829166666667,-0.01067397840964026
-0.0006486429166666667,-0.01192469360431343
-0.0006486029166666667,-0.01228674273961356
-0.0006485629166666667,-0.01080563264066118
-0.0006485229166666666,-0.01159555802676534
-0.0006484829166666666,-0.01021318860107646
-0.0006484429166666667,-0.01106894110269494
-0.0006484029166666667,-0.01149681735350419
-0.0006483629166666667,-0.009982793696797313
-0.0006483229166666666,-0.0109702004294281
-0.0006482829166666666,-0.009225781868439744
-0.0006482429166666667,-0.01162847158452241
-0.0006482029166666667,-0.008468770040084931
-0.0006481629166666667,-0.01044358350535836
-0.0006481229166666666,-0.01034484283209379
-0.0006480829166666666,-0.009851139465776329
-0.0006480429166666667,-0.009587831003739873
-0.0006480029166666667,-0.01047649706311291
-0.0006479629166666667,-0.01011444792781279
-0.0006479229166666667,-0.009324522541704853
-0.0006478829166666666,-0.01024610215882838
-0.0006478429166666667,-0.008797905617630502
-0.0006478029166666667,-0.008830819175385059
-0.0006477629166666667,-0.009192868310685188
-0.0006477229166666667,-0.009192868310685188
-0.0006476829166666666,-0.008896646290894292
-0.0006476429166666666,-0.008962473406403288
-0.0006476029166666667,-0.008764992059875945
-0.0006475629166666667,-0.008830819175385059
-0.0006475229166666667,-0.0083371158090676
-0.0006474829166666666,-0.007843412442748226
-0.0006474429166666666,-0.007777585327239231
-0.0006474029166666667,-0.008073807347030245
-0.0006473629166666667,-0.008337115809066702
-0.0006473229166666667,-0.007975066673766575
-0.0006472829166666666,-0.007645931096220584
-0.0006472429166666666,-0.007415536191939104
-0.0006472029166666667,-0.007250968403166318
-0.0006471629166666667,-0.006921832825620747
-0.0006471229166666667,-0.00711931417214809
-0.0006470829166666667,-0.007053487056639095
-0.0006470429166666666,-0.006724351479093405
-0.0006470029166666667,-0.006987659941129861
-0.0006469629166666667,-0.00586859897747492
-0.0006469229166666667,-0.006098993881756819
-0.0006468829166666667,-0.005835685419720841
-0.0006468429166666666,-0.006197734555019653
-0.0006468029166666667,-0.005736944746456691
-0.0006467629166666667,-0.004486229551783521
-0.0006467229166666667,-0.005736944746456691
-0.0006466829166666667,-0.006757265036846105
-0.0006466429166666666,-0.005177414264630837
-0.0006466029166666666,-0.006066080324002262
-0.0006465629166666667,-0.005309068495647449
-0.0006465229166666667,-0.003992526185465165
-0.0006464829166666667,-0.005407809168908546
-0.0006464429166666666,-0.004025439743221578
-0.0006464029166666666,-0.005045760033610991
-0.0006463629166666667,-0.004749538013819977
-0.0006463229166666667,-0.004519143109538078
-0.0006462829166666667,-0.00392669906995605
-0.0006462429166666667,-0.003630477050165575
-0.0006462029166666666,-0.003992526185465165
-0.0006461629166666667,-0.003564649934655922
-0.0006461229166666667,-0.003498822819146808
-0.0006460829166666667,-0.003432995703637694
-0.0006460429166666667,-0.003762131281182666
-0.0006460029166666666,-0.003630477050165216
-0.0006459629166666667,-0.003729217723428708
-0.0006459229166666667,-0.003564649934655922
-0.0006458829166666667,-0.003432995703637694
-0.0006458429166666667,-0.003038033010583727
-0.0006458029166666666,-0.002643070317529042
-0.0006457629166666666,-0.003038033010583008
-0.0006457229166666667,-0.002511416086510094
-0.0006456829166666667,-0.002610156759773766
-0.0006456429166666667,-0.002511416086510274
-0.0006456029166666666,-0.002412675413246842
-0.0006455629166666666,-0.002643070317528323
-0.0006455229166666667,-0.002313934739982752
-0.0006454829166666667,-0.001918972046928067
-0.0006454429166666667,-0.002478502528755537
-0.0006454029166666666,-0.002675983875281383
-0.0006453629166666666,-0.001853144931418952
-0.0006453229166666667,-0.001787317815909838
-0.0006452829166666667,-0.001524009353873381
-0.0006452429166666667,-0.001491095796118824
-0.0006452029166666667,-0.00106321954531036
-0.0006451629166666666,-0.001984799162437001
-0.0006451229166666667,-0.00188605848917351
-0.0006450829166666667,-0.0009644788720459105
-0.0006450429166666667,-0.001359441565100596
-0.0006450029166666667,-0.001161960218573612
-0.0006449629166666666,-0.0009973924298005274
-0.0006449229166666666,-0.001030305987555025
-0.0006448829166666667,-0.001129046660818696
-0.0006448429166666667,-0.0007999110832731249
-0.0006448029166666667,-0.0009644788720456111
-0.0006447629166666666,-0.001030305987554845
-0.0006447229166666666,-0.0009315653142913533
-0.0006446829166666667,-0.000207467043691097
-0.0006446429166666667,-0.0007999110832731249
-0.0006446029166666667,-0.0006024297367457822
-0.0006445629166666666,-0.0002732941592015882
-0.0006445229166666666,-0.001030305987555025
-0.0006444829166666667,-0.0008986517565367963
-0.0006444429166666667,-0.001063219545309582
-0.0006444029166666667,-0.0009315653142913533
-0.0006443629166666667,-0.0007340839677643699
-0.0006443229166666666,-0.000306207716954469
-0.0006442829166666667,-0.0001416399281819828
-0.0006442429166666667,-0.0006682568522548965
-0.0006442029166666667,-0.0006353432945003394
-0.0006441629166666667,-0.0007669975255183283
-0.0006441229166666666,-0.0007011704100091542
-0.0006440829166666666,-0.0005366026212366681
-0.0006440429166666667,-0.0006682568522548965
-0.0006440029166666667,-0.0007999110832731249
-0.0006439629166666667,-0.0009973924298001082
-0.0006439229166666666,-0.001194873776327092
-0.0006438829166666666,-0.0007999110832731249
-0.0006438429166666667,-0.001293614449591481
-0.0006438029166666667,-0.0001745534859365399
-0.0006437629166666667,-0.0005036890634821109
-0.0006437229166666666,-0.0001087263704280244
-0.0006436829166666666,-0.0004378619479729968
-0.0006436429166666667,-0.0003720348324638825
-0.0006436029166666667,-0.0007011704100094536
-0.0006435629166666667,-0.0002732941592002112
-0.0006435229166666667,-0.000240380601445714
-0.0006434829166666666,-0.0007999110832731249
-0.0006434429166666667,-0.0007340839677640107
-0.0006434029166666667,-0.0001087263704274257
-0.0006433629166666667,-0.0001416399281819828
-0.0006433229166666667,-0.0005036890634814524
-0.0006432829166666666,-0.0001416399281821025
-0.0006432429166666667,-0.000207467043691097
-0.0006432029166666667,-9.985697163754359e-06
-0.0006431629166666667,-0.00119487377632781
-0.0006431229166666667,-0.0009644788720463296
-0.0006430829166666666,-0.0008986517565370358
-0.0006430429166666666,-0.001030305987555025
-0.0006430029166666667,-0.0007011704100094536
-0.0006429629166666667,-0.0005366026212366681
-0.0006429229166666667,-0.001326528007344602
-0.0006428829166666666,-0.0004707755057279729
-0.0006428429166666666,-0.0007011704100094536
-0.0006428029166666667,-0.00119487377632781
-0.0006427629166666667,-0.001096133103064139
-0.0006427229166666667,-0.001063219545309582
-0.0006426829166666667,-0.0008657381987825984
-0.0006426429166666666,-0.001524009353873381
-0.0006426029166666667,-0.0007011704100094536
-0.0006425629166666667,-0.001129046660818696
-0.0006425229166666667,-0.0009644788720459105
-0.0006424829166666667,-0.00132652800734538
-0.0006424429166666666,-0.0007011704100103516
-0.0006424029166666667,-0.00119487377632781
-0.0006423629166666667,-0.001622750027137053
-0.0006423229166666667,-0.001161960218573253
-0.0006422829166666667,-0.001326528007345739
-0.0006422429166666666,-0.001556922911627819
-0.0006422029166666666,-0.001491095796118824
-0.0006421629166666667,-0.0009315653142913533
-0.0006421229166666667,-0.001392355122855153
-0.0006420829166666667,-0.0008986517565376943
-0.0006420429166666666,-0.002182280508964344
-0.0006420029166666666,-0.002083539835700852
-0.0006419629166666667,-0.001161960218573253
-0.0006419229166666667,-0.001293614449591481
-0.0006418829166666667,-0.001589836469382495
-0.0006418429166666666,-0.00247850252875434
-0.0006418029166666666,-0.001820231373664395
-0.0006417629166666667,-0.001754404258155281
-0.0006417229166666667,-0.00244558897100098
-0.0006416829166666667,-0.001260700891836924
-0.0006416429166666667,-0.00178731781590888
-0.0006416029166666666,-0.001589836469383333
-0.0006415629166666667,-0.002050626277946295
-0.0006415229166666667,-0.001359441565100596
-0.0006414829166666667,-0.0007340839677640107
-0.0006414429166666667,-0.001918972046925911
-0.0006414029166666666,-0.001359441565100536
-0.0006413629166666666,-0.001326528007346039
-0.0006413229166666667,-0.001359441565100596
-0.0006412829166666667,-0.0008986517565367963
-0.0006412429166666667,-0.0006024297367463211
-0.0006412029166666666,-0.0008986517565376345
-0.0006411629166666666,-0.001359441565100596
-0.0006411229166666667,-0.0003391212747093254
-0.0006410829166666667,-0.0005036890634821109
-0.0006410429166666667,-0.001326528007346039
-0.0006410029166666666,-0.0005366026212361891
-0.0006409629166666666,-0.0002732941592002112
-0.0006409229166666667,0.0001545820916090312
-0.0006408829166666667,-0.0005036890634821109
-0.0006408429166666667,-0.000207467043691097
-0.0006408029166666667,0.0002204092071173671
-0.0006407629166666666,0.0001874956493625705
-0.0006407229166666667,-0.0003720348324638825
-0.0006406829166666667,-0.0003720348324638825
-0.0006406429166666667,8.875497609991696e-05
-0.0006406029166666667,8.875497609991696e-05
-0.0006405629166666666,-0.0001745534859358215
-0.0006405229166666666,0.0002204092071181454
-0.0006404829166666667,0.0003849769958909309
-0.0006404429166666667,-0.0001745534859365399
-0.0006404029166666667,0.0001874956493629297
-0.0006403629166666666,-0.0002074670436902588
-0.0006403229166666666,0.0002533227648727025
-0.0006402829166666667,-0.0005036890634821109
-0.0006402429166666667,0.001471124401791315
-0.0006402029166666667,0.0004837176691563983
-0.0006401629166666666,-0.0005366026212348121
-0.0006401229166666666,0.0004837176691546022
-0.0006400829166666667,-0.001556922911627938
-0.0006400429166666667,0.0006811990156819448
-0.0006400029166666667,0.00107616170873663
-0.0006399629166666667,-7.581281267077331e-05
-0.0006399229166666666,0.0003520634381363738
-0.0006398829166666667,0.001207815939754859
-0.0006398429166666667,0.0004508041114000451
-0.0006398029166666667,0.0006811990156819448
-0.0006397629166666667,0.001240729497508398
-0.0006397229166666666,0.0008128532467005325
-0.0006396829166666667,0.001010334593227516
-0.0006396429166666667,0.0005824583424182735
-0.0006396029166666667,0.001504037959545873
-0.0006395629166666667,0.0008457668044559278
-0.0006395229166666666,0.001504037959546292
-0.0006394829166666666,0.001734432863827772
-0.0006394429166666667,0.00107616170873663
-0.0006394029166666667,0.001734432863827772
-0.0006393629166666667,0.001701519306073275
-0.0006393229166666666,0.001043248150984168
-0.0006392829166666666,0.002195222672391572
-0.0006392429166666667,0.00130655661301853
-0.0006392029166666667,0.0009774210354729588
-0.0006391629166666667,0.001635692190564101
-0.0006391229166666667,0.001964827768109073
-0.0006390829166666666,0.001141988824245744
-0.0006390429166666667,0.001668605748318658
-0.0006390029166666667,0.00176734642158233
-0.0006389629166666667,0.001339470170773087
-0.0006389229166666667,0.002886407385234457
-0.0006388829166666666,-0.0001416399281817433
-0.0006388429166666667,-9.985697163754359e-06
-0.0006388029166666667,0.0025572718076917
-0.0006387629166666667,0.001174902382000301
-0.0006387229166666667,0.001306556613018291
-0.0006386829166666666,0.0008128532466995148
-0.0006386429166666666,0.0004508041114000451
-0.0006386029166666667,0.001569865075054987
-0.0006385629166666667,0.001043248150982073
-0.0006385229166666667,0.00107616170873657
-0.0006384829166666666,0.0001874956493653844
-0.0006384429166666666,0.001174902382000301
-0.0006384029166666667,0.001174902382000301
-0.0006383629166666667,-7.581281267286857e-05
-0.0006383229166666667,0.002524358249937143
-0.0006382829166666666,0.0008786803622071921
-0.0006382429166666666,-0.0002732941592002112
-0.0006382029166666667,0.00153695151730043
-0.0006381629166666667,5.584141834535986e-05
-0.0006381229166666667,0.0002533227648727025
-0.0006380829166666667,0.00124072949750762
-0.0006380429166666666,-0.0005366026212349917
-0.0006380029166666667,0.0003849769958909309
-0.0006379629166666667,0.0003191498803818167
-0.0006379229166666667,0.0002533227648727025
-0.0006378829166666667,-0.0002074670436902588
-0.0006378429166666666,-0.0008986517565361976
-0.0006378029166666666,-0.0005695161789912252
