Analysis/files/wrd01_d2s01/cmb02_ch19.csv

#Digilent WaveForms Oscilloscope Acquisition
#Device Name: ADP3450
#Serial Number: SN:210018B9D9B0
#Date Time: 2024-08-14 16:36:23.801.615.050
#Sample rate: 5.88235e+06Hz
#Samples: 32768
#Trigger: Source: Channel 3 Type: Edge Condition: Rising Level: 60 mV Hyst.: Auto HoldOff: 0 s
#Channel 3: Range: 100 mV/div Offset: 0 V Attenuation: 1 X Coupling: DC Bandwidth: 0 Hz Sample Mode: Average

Time (s),Channel 3 (V)
-0.003798403683931118,0.2069833790212459
-0.003798233683931117,0.2213666037600338
-0.003798063683931117,0.2341370641687969
-0.003797893683931118,0.2455251551518504
-0.003797723683931118,0.2554979631514785
-0.003797553683931118,0.2639896610521388
-0.003797383683931118,0.270440718372032
-0.003797213683931117,0.2757398011705298
-0.003797043683931117,0.279623600985562
-0.003796873683931118,0.2819933771438833
-0.003796703683931118,0.282980783876519
-0.003796533683931118,0.2834086601273275
-0.003796363683931118,0.2828491296455
-0.003796193683931117,0.2809072297379708
-0.003796023683931117,0.2780766637710795
-0.003795853683931118,0.2754106655929643
-0.003795683683931118,0.2722180504907714
-0.003795513683931118,0.2685646455800222
-0.003795343683931118,0.2646150186494754
-0.003795173683931117,0.2609616137387042
-0.003795003683931117,0.256748678346123
-0.003794833683931118,0.2530952734353741
-0.003794663683931118,0.2496064363133904
-0.003794493683931118,0.2457555500561142
-0.003794323683931118,0.242200885818622
-0.003794153683931118,0.2384816537923638
-0.003793983683931117,0.2350586437858717
-0.003793813683931118,0.2319318557991944
-0.003793643683931118,0.2287392406970006
-0.003793473683931118,0.2245921324199339
-0.003793303683931118,0.2208070732781599
-0.003793133683931118,0.2163637429813027
-0.003792963683931117,0.2142572752849829
-0.003792793683931118,0.2087277975822302
-0.003792623683931118,0.2047781706516832
-0.003792453683931118,0.20072980304788
-0.003792283683931118,0.1973067930414061
-0.003792113683931118,0.1939166965926929
-0.003791943683931117,0.1905266001439539
-0.003791773683931117,0.1868402816754507
-0.003791603683931118,0.1833843581112232
-0.003791433683931118,0.180520878586582
-0.003791263683931118,0.1770320414645989
-0.003791093683931118,0.1732140687650772
-0.003790923683931117,0.1711076010687691
-0.003790753683931117,0.1684745164484088
-0.003790583683931118,0.1655781233660091
-0.003790413683931118,0.1634058285542123
-0.003790243683931118,0.1604106947985476
-0.003790073683931118,0.1583042271022559
-0.003789903683931117,0.158073832197949
-0.003789733683931117,0.1511948986272692
-0.003789563683931118,0.1498783563170868
-0.003789393683931118,0.1484959868913979
-0.003789223683931118,0.1457312480400151
-0.003789053683931118,0.1433285583239324
-0.003788883683931117,0.1403334245682591
-0.003788713683931117,0.1379636484099354
-0.003788543683931118,0.1356267858093617
-0.003788373683931118,0.1332240960932786
-0.003788203683931118,0.1305910114729188
-0.003788033683931118,0.1288136793541728
-0.003787863683931117,0.1267072116578758
-0.003787693683931117,0.1252590151166775
-0.003787523683931118,0.1235475101134401
-0.003787353683931118,0.1216385237636767
-0.003787183683931118,0.1202232407802334
-0.003787013683931118,0.1189725255855602
-0.003786843683931117,0.1179851188529193
-0.003786673683931117,0.1168331443315109
-0.003786503683931118,0.1159773918298938
-0.003786333683931118,0.1150558122127658
-0.003786163683931118,0.1139038376913584
-0.003785993683931118,0.1125872953811761
-0.003785823683931117,0.1110732717244646
-0.003785653683931117,0.110546654800389
-0.003785483683931118,0.1092959396057181
-0.003785313683931118,0.1080452244110456
-0.003785143683931118,0.1071565583516742
-0.003784973683931118,0.1054121397906827
-0.003784803683931117,0.1042930788270236
-0.003784633683931117,0.1031740178633697
-0.003784463683931118,0.1023182653617527
-0.003784293683931118,0.101429599302379
-0.003784123683931118,0.1002117976654626
-0.003783953683931118,0.09935604516384416
-0.003783783683931118,0.09820407064243676
-0.003783613683931117,0.09721666390979794
-0.003783443683931118,0.09721666390979178
-0.003783273683931118,0.09382656746107564
-0.003783103683931118,0.09221380313110525
-0.003782933683931118,0.09106182860969575
-0.003782763683931118,0.0895807185107434
-0.003782593683931117,0.08800086773851667
-0.003782423683931118,0.08655267119731885
-0.003782253683931118,0.0851373882138716
-0.003782083683931118,0.08299800695982926
-0.003781913683931118,0.08178020532291067
-0.003781743683931118,0.07993704608865881
-0.003781573683931117,0.07825845464316634
-0.003781403683931117,0.07641529540891497
-0.003781233683931118,0.07483544463669684
-0.003781063683931118,0.07358472944202593
-0.003780893683931118,0.07187322443878896
-0.003780723683931118,0.07108329905268104
-0.003780553683931117,0.06924013981842092
-0.003780383683931117,0.06828564664353998
-0.003780213683931118,0.06703493144886817
-0.003780043683931118,0.06654122808255072
-0.003779873683931118,0.06552090779215944
-0.003779703683931118,0.06502720442584109
-0.003779533683931117,0.06400688413544851
-0.003779363683931117,0.06364483500014796
-0.003779193683931118,0.06269034182526663
-0.003779023683931118,0.06219663845894918
-0.003778853683931118,0.06078135547550322
-0.003778683683931118,0.0597281216273574
-0.003778513683931117,0.05900402335675415
-0.003778343683931117,0.05818118441289213
-0.003778173683931118,0.05758874037330998
-0.003778003683931118,0.05693046921821897
-0.003777833683931118,0.05633802517863801
-0.003777663683931118,0.05577849469681054
-0.003777493683931117,0.05531770488824615
-0.003777323683931117,0.05515313709947425
-0.003777153683931118,0.05531770488824674
-0.003776983683931118,0.05531770488824662
-0.003776813683931118,0.05525187777273763
-0.003776643683931118,0.05594306248558333
-0.003776473683931117,0.05538353200375574
-0.003776303683931117,0.05535061844600071
-0.003776133683931118,0.05518605065722815
-0.003775963683931118,0.05498856931069932
-0.003775793683931118,0.0539682490203099
-0.003775623683931118,0.0528162744989004
-0.003775453683931117,0.05189469488177029
-0.003775283683931117,0.05120351016892195
-0.003775113683931118,0.04978822718547912
-0.003774943683931118,0.04866916622182352
-0.003774773683931118,0.04718805612287114
-0.003774603683931118,0.04646395785227088
-0.003774433683931117,0.04557529179289485
-0.003774263683931117,0.04475245284902708
-0.003774093683931118,0.04287638005702343
-0.003773923683931118,0.04248141736396929
-0.003773753683931118,0.0423826766907058
-0.003773583683931118,0.04142818351582364
-0.003773413683931118,0.04113196149603317
-0.003773243683931117,0.04093448014950492
-0.003773073683931118,0.04083573947624084
-0.003772903683931118,0.04040786322543262
-0.003772733683931118,0.0405395174564506
-0.003772563683931118,0.04017746832115048
-0.003772393683931118,0.04011164120564148
-0.003772223683931117,0.04030912255216811
-0.003772053683931118,0.04014455476339669
-0.003771883683931118,0.04057243101420588
-0.003771713683931118,0.04096739370725985
-0.003771543683931118,0.04067117168746883
-0.003771373683931118,0.04067117168746883
-0.003771203683931117,0.04063825812971463
-0.003771033683931117,0.0407369988029777
-0.003770863683931118,0.04060534457195984
-0.003770693683931118,0.04067117168746883
-0.003770523683931118,0.04083573947624162
-0.003770353683931118,0.0398154191858522
-0.003770183683931117,0.03948628360830286
-0.003770013683931117,0.03895966668423145
-0.003769843683931118,0.03872927177994966
-0.003769673683931118,0.03856470399117717
-0.003769503683931118,0.03863053110668629
-0.003769333683931118,0.03856470399117717
-0.003769163683931117,0.0386963582221954
-0.003768993683931117,0.03869635822219451
-0.003768823683931118,0.03820265485587663
-0.003768653683931118,0.03797225995159514
-0.003768483683931118,0.03774186504731325
-0.003768313683931118,0.03714942100773122
-0.003768143683931117,0.03668863119916562
-0.003767973683931117,0.03619492783284751
-0.003767803683931118,0.03533917533122974
-0.003767633683931118,0.03487838552266637
-0.003767463683931118,0.03464799061838488
-0.003767293683931118,0.03415428725206653
-0.003767123683931117,0.03356184321248545
-0.003766953683931117,0.03382515167452083
-0.003766783683931118,0.03375932455901225
-0.003766613683931118,0.03398971946329332
-0.003766443683931118,0.03375932455901184
-0.003766273683931118,0.03398971946329374
-0.003766103683931117,0.03343018898146603
-0.003765933683931117,0.03336436186595572
-0.003765763683931118,0.03296939917290151
-0.003765593683931118,0.03244278224882877
-0.003765423683931118,0.03201490599802031
-0.003765253683931118,0.03158702974721107
-0.003765083683931117,0.03132372128517365
-0.003764913683931117,0.03106041282313779
-0.003764743683931118,0.03096167214987825
-0.003764573683931118,0.03303522628840518
-0.003764403683931118,0.02951347560867397
-0.003764233683931118,0.03092875859211993
-0.003764063683931117,0.03033631455253838
-0.003763893683931117,0.03046796878355637
-0.003763723683931118,0.03053379589906524
-0.003763553683931118,0.03053379589906572
-0.003763383683931118,0.0307971043611017
-0.003763213683931118,0.0310274992653836
-0.003763043683931118,0.03152120263170106
-0.003762873683931117,0.0316199433049679
-0.003762703683931118,0.03224530090230149
-0.003762533683931118,0.03185033820924729
-0.003762363683931118,0.03171868397822929
-0.003762193683931118,0.03135663484292917
-0.003762023683931118,0.03204781955577361
-0.003761853683931117,0.03148828907394752
-0.003761683683931118,0.03152120263170189
-0.003761513683931118,0.03148828907394603
-0.003761343683931118,0.03073127724559258
-0.003761173683931118,0.03083001791885626
-0.003761003683931118,0.03050088234131128
-0.003760833683931117,0.03010591964825492
-0.003760663683931117,0.02980969762846498
-0.003760493683931118,0.02980969762846385
-0.003760323683931118,0.0291843400311284
-0.003760153683931118,0.02921725358888296
-0.003759983683931118,0.02882229089582899
-0.003759813683931117,0.02892103156909218
-0.003759643683931117,0.02898685868460112
-0.003759473683931118,0.02901977224235555
-0.003759303683931118,0.02898685868460106
-0.003759133683931118,0.02948056205091941
-0.003758963683931118,0.02997426541723687
-0.003758793683931117,0.02980969762846594
-0.003758623683931117,0.03007300609050282
-0.003758453683931118,0.03083001791885613
-0.003758283683931118,0.03076419080334714
-0.003758113683931118,0.03086293147661081
-0.003757943683931118,0.03086293147661081
-0.003757773683931117,0.03109332638089235
-0.003757603683931117,0.03099458570762796
-0.003757433683931118,0.03040214166804683
-0.003757263683931118,0.03030340099478292
-0.003757093683931118,0.03007300609050144
-0.003756923683931118,0.02925016714663752
-0.003756753683931117,0.0286906366648098
-0.003756583683931117,0.02862480954930021
-0.003756413683931118,0.0282298468562469
-0.003756243683931118,0.02859189599154625
-0.003756073683931118,0.02852606887603726
-0.003755903683931118,0.02855898243379182
-0.003755733683931117,0.0289868586846007
-0.003755563683931117,0.02888811801133715
-0.003755393683931118,0.02882229089582983
-0.003755223683931118,0.02967804339744376
-0.003755053683931118,0.0280323655097189
-0.003754883683931118,0.02822984685624624
-0.003754713683931117,0.02770322993217046
-0.003754543683931117,0.02691330454606288
-0.003754373683931118,0.02661708252627187
-0.003754203683931118,0.02602463848668966
-0.003754033683931118,0.02533345377384522
-0.003753863683931118,0.02500431819629965
-0.003753693683931117,0.02477392329201811
-0.003753523683931117,0.02487266396528237
-0.003753353683931118,0.02513597242731572
-0.003753183683931118,0.02395108434815334
-0.003753013683931118,0.02368777588611736
-0.003752843683931118,0.02395108434815382
-0.003752673683931118,0.02395108434815382
-0.003752503683931117,0.02444478771447278
-0.003752333683931118,0.0246093555032467
-0.003752163683931118,0.02556384867812748
-0.003751993683931118,0.02576133002465446
-0.003751823683931118,0.02605755204444548
-0.003751653683931118,0.02651834185300844
-0.003751483683931117,0.02684747743055425
-0.003751313683931118,0.02668290964178236
-0.003751143683931118,0.02684747743055515
-0.003750973683931118,0.02701204521932763
-0.003750803683931118,0.02704495877708219
-0.003750633683931118,0.02750574858564515
-0.003750463683931117,0.02724244012360989
-0.003750293683931117,0.02734118079687236
-0.003750123683931118,0.02688039098830928
-0.003749953683931118,0.02681456387280029
-0.003749783683931118,0.02671582319953662
-0.003749613683931118,0.02648542829525514
-0.003749443683931117,0.02628794694872725
-0.003749273683931117,0.0262550333909718
-0.003749103683931118,0.02569550290914493
-0.003748933683931118,0.02546510800486345
-0.003748763683931118,0.02444478771447217
-0.003748593683931118,0.02474100973426265
-0.003748423683931117,0.02368777588611712
-0.003748253683931117,0.02362194877060813
-0.003748083683931118,0.02355612165509985
-0.003747913683931118,0.02395108434815382
-0.003747743683931118,0.02411565213692661
-0.003747573683931118,0.02411565213692661
-0.003747403683931117,0.02395108434815286
-0.003747233683931117,0.02368777588611832
-0.003747063683931118,0.0242143928101901
-0.003746893683931118,0.02411565213692661
-0.003746723683931118,0.0243460470412085
-0.003746553683931118,0.02418147925243572
-0.003746383683931117,0.02401691146366269
-0.003746213683931117,0.02395108434815346
-0.003746043683931118,0.0237536030016257
-0.003745873683931118,0.02332572675082053
-0.003745703683931118,0.02513597242731788
-0.003745533683931118,0.02177878953635305
-0.003745363683931117,0.02293076405775908
-0.003745193683931117,0.02197627088287896
-0.003745023683931118,0.02158130818982655
-0.003744853683931118,0.02204209799838957
-0.003744683683931118,0.02207501155614406
-0.003744513683931118,0.02240414713368964
-0.003744343683931117,0.02210792511390054
-0.003744173683931117,0.02263454203797178
-0.003744003683931118,0.02270036915348047
-0.003743833683931118,0.02260162848021931
-0.003743663683931118,0.02388525723264471
-0.003743493683931118,0.02378651655938104
-0.003743323683931117,0.02414856569468176
-0.003743153683931117,0.02431313348345574
-0.003742983683931118,0.02480683684977206
-0.003742813683931118,0.02467518261875426
-0.003742643683931118,0.02477392329201775
-0.003742473683931118,0.02447770127222673
-0.003742303683931117,0.02437896059896462
-0.003742133683931117,0.02480683684977111
-0.003741963683931118,0.02447770127222649
-0.003741793683931118,0.02434604704120838
-0.003741623683931118,0.02428021992569939
-0.003741453683931118,0.02414856569468116
-0.003741283683931118,0.02418147925243566
-0.003741113683931117,0.02395108434815514
-0.003740943683931118,0.02431313348345329
-0.003740773683931118,0.02395108434815334
-0.003740603683931118,0.02368777588611736
-0.003740433683931118,0.02404982502141749
-0.003740263683931118,0.02480683684977093
-0.003740093683931117,0.02404982502141713
-0.003739923683931118,0.0239510843481534
-0.003739753683931118,0.02372068944387126
-0.003739583683931118,0.02335864030857179
-0.003739413683931118,0.02335864030857179
-0.003739243683931118,0.02349029453958978
-0.003739073683931117,0.0236877758861182
-0.003738903683931117,0.02391817079039932
-0.003738733683931118,0.02395108434815322
-0.003738563683931118,0.02362194877060825
-0.003738393683931118,0.02385234367489015
-0.003738223683931118,0.0245106148299801
-0.003738053683931117,0.02474100973426534
-0.003737883683931117,0.02533345377384618
-0.003737713683931118,0.02586007069791927
-0.003737543683931118,0.02648542829525472
-0.003737373683931118,0.02740700791238232
-0.003737203683931118,0.02783488416319156
-0.003737033683931117,0.02846024176053018
-0.003736863683931117,0.02901977224235525
-0.003736693683931118,0.02882229089582935
-0.003736523683931118,0.0294147349354103
-0.003736353683931118,0.02954638916642853
-0.003736183683931118,0.03036922811029246
-0.003736013683931117,0.02813110618298317
-0.003735843683931117,0.0282956739717535
-0.003735673683931118,0.02727535368136259
-0.003735503683931118,0.02645251473749849
-0.003735333683931118,0.02553093512037256
-0.003735163683931118,0.02510305886956332
-0.003734993683931117,0.02474100973426115
-0.003734823683931117,0.024181479252435
-0.003734653683931118,0.02378651655937954
-0.003734483683931118,0.02296367761551777
-0.003734313683931118,0.02332572675081724
-0.003734143683931118,0.02270036915348065
-0.003733973683931117,0.02243706069144371
-0.003733803683931117,0.02230540646042549
-0.003733633683931118,0.02217375222940792
-0.003733463683931118,0.02227249290267111
-0.003733293683931118,0.02210792511389862
-0.003733123683931118,0.02184461665186217
-0.003732953683931117,0.021943357325125
-0.003732783683931117,0.02171296242084346
-0.003732613683931118,0.02158130818982595
-0.003732443683931118,0.0217129624208443
-0.003732273683931118,0.02191044376737128
-0.003732103683931118,0.02237123357593508
-0.003731933683931117,0.02263454203797214
-0.003731763683931117,0.02279910982674384
-0.003731593683931118,0.02266745559572711
-0.003731423683931118,0.02322698607755338
-0.003731253683931118,0.02312824540428989
-0.003731083683931118,0.02299659117327166
-0.003730913683931118,0.0237206894438706
-0.003730743683931117,0.02365486232836496
-0.003730573683931118,0.02424730636794627
-0.003730403683931118,0.02503723175405498
-0.003730233683931118,0.02546510800486345
-0.003730063683931118,0.0259588113711818
-0.003729893683931118,0.02579424358240932
-0.003729723683931117,0.02595881137118061
-0.003729553683931118,0.02562967579363617
-0.003729383683931118,0.02559676223588209
-0.003729213683931118,0.02582715714016358
-0.003729043683931118,0.02602463848669092
-0.003728873683931118,0.02559676223588245
-0.003728703683931117,0.02536636733159942
-0.003728533683931117,0.02526762665833496
-0.003728363683931118,0.02464226906099988
-0.003728193683931118,0.02483975040752686
-0.003728023683931118,0.02483975040752686
-0.003727853683931118,0.02444478771447289
-0.003727683683931117,0.02451061482998069
-0.003727513683931117,0.02434604704120827
-0.003727343683931118,0.02421439281019076
-0.003727173683931118,0.02447770127222673
-0.003727003683931118,0.02457644194549041
-0.003726833683931118,0.02243706069144419
-0.003726663683931117,0.02678165031504046
-0.003726493683931117,0.02533345377384516
-0.003726323683931118,0.02530054021609138
-0.003726153683931118,0.02569550290914535
-0.003725983683931118,0.02582715714016358
-0.003725813683931118,0.02576133002465446
-0.003725643683931117,0.02566258935139031
-0.003725473683931117,0.0255309351203728
-0.003725303683931118,0.02566258935139055
-0.003725133683931118,0.02553093512037256
-0.003724963683931118,0.02553093512037256
-0.003724793683931118,0.02536636733159978
-0.003724623683931117,0.0252676266583361
-0.003724453683931117,0.02526762665833467
-0.003724283683931118,0.02447770127222685
-0.003724113683931118,0.02454352838773579
-0.003723943683931118,0.02451061482998129
-0.003723773683931118,0.02431313348345395
-0.003723603683931117,0.02408273857917372
-0.003723433683931117,0.02454352838773681
-0.003723263683931118,0.02480683684977278
-0.003723093683931118,0.02507014531180978
-0.003722923683931118,0.02562967579363623
-0.003722753683931118,0.02625503339097282
-0.003722583683931117,0.02645251473750327
-0.003722413683931117,0.02730826723911901
-0.003722243683931118,0.02740700791238303
-0.003722073683931118,0.02780197060543712
-0.003721903683931118,0.02786779772094612
-0.003721733683931118,0.02806527906747346
-0.003721563683931117,0.02816401974073545
-0.003721393683931117,0.02770322993217213
-0.003721223683931118,0.02737409435462662
-0.003721053683931118,0.02674873675729027
-0.003720883683931118,0.02625503339097282
-0.003720713683931118,0.02576133002465446
-0.003720543683931118,0.02474100973426505
-0.003720373683931117,0.02467518261875156
-0.003720203683931118,0.02398399790590825
-0.003720033683931118,0.02391817079039914
-0.003719863683931118,0.02385234367489015
-0.003719693683931118,0.02345738098183546
-0.003719523683931118,0.02368777588611694
-0.003719353683931117,0.02270036915348029
-0.003719183683931118,0.02260162848021614
-0.003719013683931118,0.02214083867165324
-0.003718843683931118,0.02217375222940774
