Analysis/files/wrd01_d2s01/cmb08_ch47.csv

#Digilent WaveForms Oscilloscope Acquisition
#Device Name: ADP3450
#Serial Number: SN:210018B9D9B0
#Date Time: 2024-08-14 17:47:58.679.315.230
#Sample rate: 5.88235e+06Hz
#Samples: 32768
#Trigger: Source: Channel 3 Type: Edge Condition: Rising Level: 60 mV Hyst.: Auto HoldOff: 0 s
#Channel 3: Range: 100 mV/div Offset: 0 V Attenuation: 1 X Coupling: DC Bandwidth: 0 Hz Sample Mode: Average

Time (s),Channel 3 (V)
-0.003798539625922968,0.2055351824800454
-0.003798369625922968,0.2179106801957786
-0.003798199625922968,0.2287721542547627
-0.003798029625922968,0.2371980250399293
-0.003797859625922968,0.2444390077459415
-0.003797689625922968,0.249705176986661
-0.003797519625922968,0.2534902361284351
-0.003797349625922968,0.2566828512306268
-0.003797179625922968,0.2565182834418543
-0.003797009625922968,0.2572752952702091
-0.003796839625922968,0.256485369884096
-0.003796669625922968,0.2544447293033172
-0.003796499625922968,0.2522066073760074
-0.003796329625922968,0.2496393498711463
-0.003796159625922968,0.2465783889999781
-0.003795989625922968,0.2429249840892223
-0.003795819625922968,0.2392715791784606
-0.003795649625922968,0.2360789640762744
-0.003795479625922968,0.231800201568182
-0.003795309625922968,0.2281138830996651
-0.003795139625922968,0.2245592188621794
-0.003794969625922968,0.2208399868359144
-0.003794799625922969,0.2176802852914827
-0.003794629625922968,0.2138293990341938
-0.003794459625922968,0.2107026110475108
-0.003794289625922969,0.2071808603677796
-0.003794119625922968,0.2036591096880356
-0.003793949625922968,0.1999727912195252
-0.003793779625922969,0.1967472625595845
-0.003793609625922968,0.1935875610151411
-0.003793439625922968,0.1896379340845943
-0.003793269625922969,0.1859187020583361
-0.003793099625922968,0.1823640378208372
-0.003792929625922968,0.1788752006988541
-0.003792759625922969,0.1752547093458594
-0.003792589625922968,0.1720291806859062
-0.003792419625922968,0.1678162452933229
-0.003792249625922969,0.1649856793264362
-0.003792079625922968,0.1618259777819935
-0.003791909625922968,0.1586991897953106
-0.003791739625922969,0.1557698831551604
-0.003791569625922968,0.1539596374786544
-0.003791399625922968,0.150569541029935
-0.003791229625922969,0.1483643326603837
-0.003791059625922968,0.1465211734261245
-0.003790889625922968,0.1444147057298328
-0.003790719625922969,0.1417816211094731
-0.003790549625922968,0.1395764127399129
-0.003790379625922968,0.1378319941789214
-0.003790209625922969,0.1354951315783479
-0.003790039625922968,0.1331582689777743
-0.003789869625922968,0.1306239250306734
-0.003789699625922969,0.1280237539680634
-0.003789529625922968,0.1251931880011715
-0.003789359625922968,0.1224284491497887
-0.003789189625922969,0.1198282780871787
-0.003789019625922968,0.1169977121202832
-0.003788849625922968,0.1150558122127679
-0.003788679625922968,0.1126531224966852
-0.003788509625922968,0.1101846056650898
-0.003788339625922968,0.1081768786420655
-0.003788169625922968,0.1063337194078103
-0.003787999625922968,0.1042930788270247
-0.003787829625922968,0.1026144873815453
-0.003787659625922968,0.1007713281472901
-0.003787489625922968,0.09899399602854163
-0.003787319625922968,0.09767745371836173
-0.003787149625922968,0.096097602946143
-0.003786979625922968,0.09435318438514824
-0.003786809625922968,0.09257585226640538
-0.003786639625922968,0.09093017437867754
-0.003786469625922968,0.0891528422599287
-0.003786299625922968,0.08763881860322181
-0.003786129625922968,0.08586148648447575
-0.003785959625922968,0.0844791170587814
-0.003785789625922968,0.08286635272881104
-0.003785619625922968,0.08092445282129218
-0.003785449625922968,0.07983830541538908
-0.003785279625922968,0.07835719531643673
-0.003785109625922968,0.07707356656400899
-0.003784939625922968,0.0754278886762785
-0.003784769625922968,0.07397969213508063
-0.003784599625922968,0.07282771761367113
-0.003784429625922969,0.0718732244387907
-0.003784259625922968,0.07042502789758845
-0.003784089625922968,0.06989841097351554
-0.003783919625922969,0.06884517712537164
-0.003783749625922968,0.06736406702641465
-0.003783579625922968,0.06680453654458718
-0.003783409625922969,0.06456641461728137
-0.003783239625922968,0.06377648923116791
-0.003783069625922968,0.0620320706701764
-0.003782899625922969,0.06038639278245153
-0.003782729625922968,0.05910276403002081
-0.003782559625922968,0.05788496239310219
-0.003782389625922969,0.05679881498720379
-0.003782219625922968,0.05482400152192839
-0.003782049625922968,0.05255296603686395
-0.003781879625922969,0.05225674401707348
-0.003781709625922968,0.05038067122506318
-0.003781539625922968,0.04919578314589912
-0.003781369625922969,0.04834003064428219
-0.003781199625922968,0.0472209696806257
-0.003781029625922968,0.04623356294798898
-0.003780859625922969,0.046036081601462
-0.003780689625922968,0.04518032909984315
-0.003780519625922968,0.04389670034741543
-0.003780349625922969,0.04320551563457099
-0.003780179625922968,0.04264598515274225
-0.003780009625922968,0.04119778861154175
-0.003779839625922969,0.04090156659175073
-0.003779669625922968,0.0405395174564506
-0.003779499625922968,0.04004581409013225
-0.003779329625922969,0.03981541918585035
-0.003779159625922968,0.03961793783932301
-0.003778989625922968,0.03935462937728654
-0.003778819625922969,0.03866344466444085
-0.003778649625922968,0.03836722264464983
-0.003778479625922968,0.0380051735093497
-0.003778309625922968,0.03767603793180414
-0.003778139625922968,0.03761021081629322
-0.003777969625922968,0.0366228040836583
-0.003777799625922968,0.03501003975368501
-0.003777629625922968,0.03382515167451874
-0.003777459625922968,0.03260735003760234
-0.003777289625922968,0.03185033820924753
-0.003777119625922968,0.03069836368783683
-0.003776949625922968,0.03004009253274689
-0.003776779625922968,0.02892103156909194
-0.003776609625922968,0.0278348841631903
-0.003776439625922968,0.02714369945034586
-0.003776269625922968,0.02615629271770915
-0.003776099625922968,0.02576133002465356
-0.003775929625922968,0.0252676266583361
-0.003775759625922968,0.02510305886956332
-0.003775589625922968,0.02480683684977224
-0.003775419625922968,0.02477392329201775
-0.003775249625922968,0.02507014531180876
-0.003775079625922968,0.02546510800486321
-0.003774909625922968,0.02533345377384522
-0.003774739625922968,0.0257284164668999
-0.003774569625922968,0.02569550290914457
-0.003774399625922968,0.0252676266583361
-0.003774229625922968,0.02536636733159978
-0.003774059625922968,0.02536636733159954
-0.003773889625922968,0.02523471310058155
-0.003773719625922968,0.02467518261875408
-0.003773549625922969,0.02395108434815514
-0.003773379625922968,0.02299659117327166
-0.003773209625922968,0.02210792511389862
-0.003773039625922969,0.02082429636147323
-0.003772869625922968,0.02026476587964342
-0.003772699625922968,0.01868491510742468
-0.003772529625922969,0.01884948289619717
-0.003772359625922968,0.0173683727972424
-0.003772189625922968,0.01726963212397873
-0.003772019625922969,0.01667718808439778
-0.003771849625922968,0.0164467931801148
-0.003771679625922968,0.01634805250685113
-0.003771509625922969,0.01638096606460563
-0.003771339625922968,0.01651262029562391
-0.003771169625922968,0.0166771880843967
-0.003770999625922969,0.01651262029562421
-0.003770829625922968,0.01680884231541493
-0.003770659625922968,0.01674301519990581
-0.003770489625922969,0.01674301519990581
-0.003770319625922968,0.01710506433520594
-0.003770149625922968,0.01720380500846961
-0.003769979625922969,0.01671010164215216
-0.003769809625922968,0.01638096606460569
-0.003769639625922968,0.01585434914053277
-0.003769469625922969,0.01489985596565062
-0.003769299625922968,0.01401118990627757
-0.003769129625922968,0.01289212894262263
-0.003768959625922969,0.01226677134528605
-0.003768789625922968,0.0116085001901949
-0.003768619625922968,0.01091731547734921
-0.003768449625922969,0.01045652566878541
-0.003768279625922968,0.01042361211103085
-0.003768109625922968,0.01035778499552173
-0.003767939625922969,0.01088440191959465
-0.003767769625922968,0.01118062393938548
-0.003767599625922968,0.01108188326612199
-0.003767429625922968,0.01114771038163111
-0.003767259625922968,0.01137810528591265
-0.003767089625922968,0.01118062393938566
-0.003766919625922968,0.01088440191959465
-0.003766749625922968,0.01111479682387619
-0.003766579625922968,0.01091731547734921
-0.003766409625922968,0.01006156297573072
-0.003766239625922968,0.009633686724920999
-0.003766069625922968,0.009370378262885021
-0.003765899625922968,0.008876674896566664
-0.003765729625922968,0.008843761338811448
-0.003765559625922968,0.008481712203511979
-0.003765389625922968,0.008382971530248308
-0.003765219625922968,0.008152576625967427
-0.003765049625922968,0.00871210710779388
-0.003764879625922968,0.009107069800848565
-0.003764709625922968,0.009534946051657807
-0.003764539625922968,0.009534946051657807
-0.003764369625922968,0.01016030364899439
-0.003764199625922968,0.01025904432225938
-0.003764029625922968,0.01098314259285832
-0.003763859625922968,0.01144393240142212
-0.003763689625922968,0.01104896970836713
-0.003763519625922968,0.01088440191959465
-0.003763349625922968,0.01055526634204908
-0.003763179625922969,0.01154267307468399
-0.003763009625922968,0.009600773167166921
-0.003762839625922968,0.009995735860221606
-0.003762669625922969,0.009469118936149649
-0.003762499625922968,0.008613366434530208
-0.003762329625922968,0.007691786817402609
-0.003762159625922969,0.00696768854680367
-0.003761989625922968,0.006506898738238553
-0.003761819625922968,0.005782800467638296
-0.003761649625922969,0.005354924216829832
-0.003761479625922968,0.004762480177247026
-0.003761309625922968,0.004137122579910441
-0.003761139625922969,0.004038381906646949
-0.003760969625922968,0.003248456520537399
-0.003760799625922968,0.002820580269728157
-0.003760629625922969,0.002886407385237151
-0.003760459625922968,0.002820580269728157
-0.003760289625922968,0.002919320942991828
-0.003760119625922969,0.003116802289518812
-0.003759949625922968,0.002853493827482714
-0.003759779625922968,0.003413024309310185
-0.003759609625922969,0.003873814117873146
-0.003759439625922968,0.004466258157456012
-0.003759269625922968,0.004433344599701455
-0.003759099625922969,0.004894134408264417
-0.003758929625922968,0.00482830729275614
-0.003758759625922968,0.004795393735001583
-0.003758589625922969,0.005190356428056269
-0.003758419625922968,0.004959961523774369
-0.003758249625922968,0.004729566619492469
-0.003758079625922969,0.004367517484192341
-0.003757909625922968,0.003840900560119427
-0.003757739625922968,0.003742159886855756
-0.003757569625922969,0.003972554791137656
-0.003757399625922968,0.003742159886855995
-0.003757229625922968,0.003873814117873984
-0.003757059625922968,0.002656012480955371
-0.003756889625922968,0.002886407385236912
-0.003756719625922968,0.002688926038709928
-0.003756549625922968,0.003182629405028285
-0.003756379625922968,0.003413024309310185
-0.003756209625922968,0.003413024309310185
-0.003756039625922968,0.004137122579910441
-0.003755869625922968,0.003906727675628302
-0.003755699625922968,0.003775073444610313
-0.003755529625922968,0.003478851424819299
-0.003755359625922968,0.00407129546440001
-0.003755189625922968,0.003347197193801071
-0.003755019625922968,0.003709246329101199
-0.003754849625922968,0.003511764982578646
-0.003754679625922968,0.006144849602938425
-0.003754509625922968,0.001273643055263973
-0.003754339625922968,0.001734432863829269
-0.003754169625922968,0.0025572718076917
-0.003753999625922968,0.002491444692182586
-0.003753829625922968,0.002096481999128379
-0.003753659625922968,0.002359790461164357
-0.003753489625922968,0.001043248150982073
-0.003753319625922968,0.001109075266490229
-0.003753149625922968,0.0005824583424182735
-0.003752979625922968,0.0002204092071181454
-0.003752809625922969,0.0002862363226271398
-0.003752639625922968,0.0003520634381363738
-0.003752469625922968,0.0001874956493635883
-0.003752299625922969,0.0005166312269085607
-0.003752129625922968,0.0003520634381363738
-0.003751959625922968,0.0002533227648727025
-0.003751789625922969,0.0004178905536451887
-0.003751619625922968,-0.0001745534859365399
-0.003751449625922968,0.0002533227648727025
-0.003751279625922969,5.584141834571909e-05
-0.003751109625922968,5.584141834535986e-05
-0.003750939625922968,0.0001874956493635883
-0.003750769625922969,0.0003520634381360745
-0.003750599625922968,0.0003849769958909309
-0.003750429625922968,0.0008457668044547304
-0.003750259625922969,0.001109075266490708
-0.003750089625922968,0.00176734642158233
-0.003749919625922968,0.002129395556882458
-0.003749749625922969,0.002721839596463408
-0.003749579625922968,0.003314283636046514
-0.003749409625922968,0.003840900560119427
-0.003749239625922969,0.004696653061736355
-0.003749069625922968,0.005486578447847282
-0.003748899625922968,0.005881541140901968
-0.003748729625922969,0.006177763160692443
-0.003748559625922968,0.006836034315784124
-0.003748389625922968,0.006737293642520453
-0.003748219625922969,0.00756013258638438
-0.003748049625922968,0.007132256335575138
-0.003747879625922968,0.007132256335575138
-0.003747709625922969,0.006243590276202096
-0.003747539625922968,0.005881541140901968
-0.003747369625922968,0.005025788639283483
-0.003747199625922969,0.003742159886855756
-0.003747029625922968,0.0025572718076917
-0.003746859625922968,0.001931914210355115
-0.003746689625922968,0.0007799396889456162
-0.003746519625922968,8.875497610135382e-05
-0.003746349625922968,0.0008786803622092876
-0.003746179625922968,0.0001874956493635883
-0.003746009625922968,0.0004508041114007037
-0.003745839625922968,0.0008128532467001733
-0.003745669625922968,0.001240729497509416
-0.003745499625922968,0.001207815939755158
-0.003745329625922968,0.001372383728527644
-0.003745159625922968,0.001635692190564101
-0.003744989625922968,0.00186608709484618
-0.003744819625922968,0.001964827768109672
-0.003744649625922968,0.00176734642158233
-0.003744479625922968,0.002392704018922028
-0.003744309625922968,0.004104209022155884
-0.003744139625922968,0.001931914210355115
-0.003743969625922968,0.002853493827481875
-0.003743799625922968,0.002392704018918914
-0.003743629625922968,0.002195222672391572
-0.003743459625922968,0.002623098923200695
-0.003743289625922968,0.0025572718076917
-0.003743119625922968,0.002688926038709928
-0.003742949625922968,0.002425617576673352
-0.003742779625922968,0.002359790461164357
-0.003742609625922968,0.002359790461164357
-0.003742439625922968,0.001964827768108774
-0.003742269625922968,0.001471124401791315
-0.003742099625922968,0.001339470170773087
-0.003741929625922969,0.0007799396889466339
-0.003741759625922968,0.0005824583424182735
-0.003741589625922968,0.0002533227648727025
-0.003741419625922969,-0.0003062077169537506
-0.003741249625922968,0.0001545820916090312
-0.003741079625922968,-0.0003720348324638825
-0.003740909625922969,-0.0004707755057273742
-0.003740739625922968,-0.0007669975255185678
-0.003740569625922968,-0.0006353432945003394
-0.003740399625922969,-0.0003720348324643615
-0.003740229625922968,2.292786059080275e-05
-0.003740059625922968,0.0008128532467001733
-0.003739889625922969,0.00156986507505361
-0.003739719625922968,0.001866087094846001
-0.003739549625922968,0.0027876667119736
-0.003739379625922969,0.003281370078291058
-0.003739209625922968,0.003149715847273728
-0.003739039625922968,0.003149715847273728
-0.003738869625922969,0.002919320942992247
-0.003738699625922968,0.002392704018918914
-0.003738529625922968,0.002425617576673472
-0.003738359625922969,0.002787666711972941
-0.003738189625922968,0.002886407385237271
-0.003738019625922968,0.002096481999127901
-0.003737849625922969,0.002096481999127901
-0.003737679625922968,0.001602778632809544
-0.003737509625922968,0.001602778632809544
-0.003737339625922969,0.001800259979336887
-0.003737169625922968,0.002129395556882458
-0.003736999625922968,0.002261049787900686
-0.003736829625922969,0.002261049787900686
-0.003736659625922968,0.002458531134428029
-0.003736489625922968,0.002820580269728157
-0.003736319625922969,0.002985148058500942
-0.003736149625922968,0.003939641233383577
-0.003735979625922968,0.004202949695419555
-0.003735809625922968,0.004696653061737912
-0.003735639625922968,0.004729566619492469
-0.003735469625922968,0.004729566619492469
-0.003735299625922968,0.004861220850510698
-0.003735129625922968,0.004729566619492289
-0.003734959625922968,0.004630825946228797
-0.003734789625922968,0.005190356428056269
-0.003734619625922968,0.003775073444610672
-0.003734449625922968,0.003972554791137656
-0.003734279625922968,0.003083888731764614
-0.003734109625922968,0.003413024309309945
-0.003733939625922968,0.003281370078291956
-0.003733769625922968,0.003182629405028285
-0.003733599625922968,0.003018061616256038
-0.003733429625922968,0.003314283636046514
-0.003733259625922968,0.003149715847273728
-0.003733089625922968,0.003577592098082671
-0.003732919625922968,0.003413024309310185
-0.003732749625922968,0.003380110751555628
-0.003732579625922968,0.003347197193802089
-0.003732409625922968,0.003906727675628541
-0.003732239625922968,0.003873814117873984
-0.003732069625922968,0.003873814117873206
-0.003731899625922968,0.003445937867064742
-0.003731729625922968,0.003478851424819299
-0.003731559625922969,0.003380110751555807
-0.003731389625922968,0.003248456520537399
-0.003731219625922968,0.003314283636046514
-0.003731049625922969,0.002919320942992547
-0.003730879625922968,0.002623098923200814
-0.003730709625922968,0.002359790461164357
-0.003730539625922969,0.001866087094846899
-0.003730369625922968,0.0006811990156819448
-0.003730199625922968,0.0008128532467001733
-0.003730029625922969,-0.0003062077169527329
-0.003729859625922968,2.292786059080275e-05
-0.003729689625922968,-0.000832824641027682
-0.003729519625922969,-0.001063219545309163
-0.003729349625922968,-0.0007340839677640107
-0.003729179625922968,-0.0005695161789912252
-0.003729009625922969,0.0001874956493622112
-0.003728839625922968,0.0006153719001728307
-0.003728669625922968,0.001438210844036758
-0.003728499625922969,0.002195222672390195
-0.003728329625922968,0.002952234500746385
-0.003728159625922968,0.003380110751555628
-0.003727989625922969,0.004038381906645572
-0.003727819625922968,0.004104209022155884
-0.003727649625922968,0.004861220850510698
-0.003727479625922969,0.005519492005600642
-0.003727309625922968,0.005354924216829054
-0.003727139625922968,0.005585319121110954
-0.003726969625922969,0.005322010659074497
-0.003726799625922968,0.005453664890092726
-0.003726629625922968,0.005716973352129182
-0.003726459625922969,0.005354924216829054
-0.003726289625922968,0.005453664890092726
-0.003726119625922968,0.004861220850510698
-0.003725949625922969,0.004729566619492469
-0.003725779625922968,0.004433344599701455
-0.003725609625922968,0.003643419213592085
-0.003725439625922968,0.001602778632809544
-0.003725269625922968,0.00318262940502601
-0.003725099625922968,0.001931914210355115
-0.003724929625922968,0.001471124401791315
-0.003724759625922968,0.0008128532467000536
-0.003724589625922968,0.0007470261311910591
-0.003724419625922968,0.0005824583424182735
-0.003724249625922968,0.0004837176691535246
-0.003724079625922968,-0.0001087263704274257
-0.003723909625922968,-0.0002732941592002112
-0.003723739625922968,-7.581281267256923e-05
-0.003723569625922968,8.875497609991696e-05
-0.003723399625922968,-0.0001745534859365399
-0.003723229625922968,0.0005495447846633573
-0.003723059625922968,0.0003520634381363738
-0.003722889625922968,0.0007799396889456162
-0.003722719625922968,0.001043248150982073
-0.003722549625922968,0.001043248150982073
-0.003722379625922968,0.001141988824245744
-0.003722209625922968,0.000911593919963665
-0.003722039625922968,0.0008128532467001733
-0.003721869625922968,0.0005824583424182735
-0.003721699625922968,0.0004837176691556799
-0.003721529625922968,0.00107616170873663
-0.003721359625922968,0.0005166312269091594
-0.003721189625922968,0.0008457668044537726
-0.003721019625922968,0.0003191498803818167
-0.003720849625922968,0.0002204092071181454
-0.003720679625922969,0.0002533227648726427
-0.003720509625922968,0.0003520634381363738
