Analysis/files/wrd01_d2s01/cmb07_ch33.csv

#Digilent WaveForms Oscilloscope Acquisition
#Device Name: ADP3450
#Serial Number: SN:210018B9D9B0
#Date Time: 2024-08-15 12:35:30.022.155.800
#Sample rate: 5.88235e+06Hz
#Samples: 32768
#Trigger: Source: Channel 3 Type: Edge Condition: Rising Level: 40 mV Hyst.: Auto HoldOff: 0 s
#Channel 3: Range: 100 mV/div Offset: 0 V Attenuation: 1 X Coupling: DC Bandwidth: 0 Hz Sample Mode: Average

Time (s),Channel 3 (V)
-0.003168835449681952,0.02240414713368964
-0.003168665449681952,0.02250288780695307
-0.003168495449681952,0.02237123357593508
-0.003168325449681952,0.02214083867165318
-0.003168155449681952,0.02296367761551561
-0.003167985449681952,0.02214083867165318
-0.003167815449681952,0.02309533184653534
-0.003167645449681952,0.02250288780695331
-0.003167475449681952,0.02250288780695331
-0.003167305449681952,0.02306241828878078
-0.003167135449681952,0.02270036915348065
-0.003166965449681952,0.02270036915348065
-0.003166795449681952,0.02243706069144419
-0.003166625449681952,0.02187753020961481
-0.003166455449681952,0.02082429636147089
-0.003166285449681952,0.02072555568820722
-0.003166115449681952,0.01963940828230744
-0.003165945449681952,0.01996854385985241
-0.003165775449681952,0.01907987780047937
-0.003165605449681952,0.01878365578068674
-0.003165435449681952,0.01789498972131531
-0.003165265449681952,0.01819121174110632
-0.003165095449681952,0.01776333549029786
-0.003164925449681952,0.01894822356946114
-0.003164755449681952,0.01901405068497026
-0.003164585449681952,0.01868491510742528
-0.003164415449681952,0.01832286597212456
-0.003164245449681952,0.01861908799191557
-0.003164075449681952,0.0181912117411071
-0.003163905449681952,0.01815829818335177
-0.003163735449681952,0.01819121174110632
-0.003163565449681952,0.01763168125927987
-0.003163395449681952,0.01756585414376974
-0.003163225449681952,0.01720380500846961
-0.003163055449681952,0.01641387962236168
-0.003162885449681952,0.01628222539134202
-0.003162715449681952,0.01628222539134202
-0.003162545449681952,0.01611765760256953
-0.003162375449681952,0.01631513894909657
-0.003162205449681952,0.01651262029562391
-0.003162035449681952,0.0167101016421509
-0.003161865449681952,0.01710506433520594
-0.003161695449681952,0.01763168125927886
-0.003161525449681952,0.01782916260580584
-0.003161355449681952,0.01789498972131531
-0.003161185449681952,0.01865200154967013
-0.003161015449681952,0.01898113712721509
-0.003160845449681952,0.01894822356946114
-0.003160675449681952,0.01914570491598848
-0.003160505449681952,0.01954066760904317
-0.003160335449681952,0.01894822356946114
-0.003160165449681952,0.01904696424272481
-0.003159995449681952,0.01904696424272481
-0.003159825449681952,0.01891531001170658
-0.003159655449681952,0.01911279135823393
-0.003159485449681952,0.01894822356946114
-0.003159315449681952,0.01855326087640675
-0.003159145449681952,0.01871782866517924
-0.003158975449681952,0.01904696424272481
-0.003158805449681952,0.01881656933844267
-0.003158635449681952,0.01868491510742468
-0.003158465449681952,0.01815829818335177
-0.003158295449681952,0.01799373039457785
-0.003158125449681952,0.0173683727972424
-0.003157955449681952,0.01674301519990581
-0.003157785449681952,0.01608474404481395
-0.003157615449681952,0.01568978135175999
-0.003157445449681952,0.01476820173463239
-0.003157275449681952,0.01401118990627698
-0.003157105449681952,0.013682054328732
-0.003156935449681952,0.01351748653995922
-0.003156765449681952,0.01312252384690477
-0.003156595449681952,0.01325417807792276
-0.003156425449681952,0.01269464759609529
-0.003156255449681952,0.01246425269181411
-0.003156085449681952,0.01285921538486808
-0.003155915449681952,0.01246425269181339
-0.003155745449681952,0.01305669673139452
-0.003155575449681952,0.01256299336507706
-0.003155405449681952,0.01355040009771377
-0.003155235449681952,0.01262882048058558
-0.003155065449681952,0.0122996849030406
-0.003154895449681952,0.0118388950944768
-0.003154725449681952,0.01203637644100379
-0.003154555449681952,0.01177306797896769
-0.003154385449681952,0.01180598153672225
-0.003154215449681952,0.01170724086345876
-0.003154045449681952,0.01164141374794946
-0.003153875449681952,0.01210220355651326
-0.003153705449681952,0.01236551201854924
-0.003153535449681952,0.01213511711426782
-0.003153365449681952,0.01220094422977693
-0.003153195449681952,0.01243133913405841
-0.003153025449681952,0.01223385778753149
-0.003152855449681952,0.01233259846079516
-0.003152685449681952,0.01193763576774119
-0.003152515449681952,0.01200346288324959
-0.003152345449681952,0.01154267307468579
-0.003152175449681952,0.01121353749714082
-0.003152005449681952,0.01114771038163111
-0.003151835449681952,0.01098314259285832
-0.003151665449681952,0.01095022903510382
-0.003151495449681952,0.01104896970836743
-0.003151325449681952,0.01150975951693123
-0.003151155449681952,0.01170724086345822
-0.003150985449681952,0.01262882048058617
-0.003150815449681952,0.01236551201854972
-0.003150645449681952,0.01276047471160368
-0.003150475449681952,0.0132212645201682
-0.003150305449681952,0.0139124492330139
-0.003150135449681952,0.01450489327259593
-0.003149965449681952,0.01473528817687783
-0.003149795449681952,0.01473528817687783
-0.003149625449681952,0.01466946106136872
-0.003149455449681952,0.01404410346403213
-0.003149285449681952,0.01384662211750479
-0.003149115449681952,0.01348457298220466
-0.003148945449681952,0.01315543740465909
-0.003148775449681952,0.0129908696158863
-0.003148605449681952,0.01249716624956795
-0.003148435449681952,0.01243133913405865
-0.003148265449681952,0.01233259846079516
-0.003148095449681952,0.01197054932549503
-0.003147925449681952,0.01233259846079552
-0.003147755449681952,0.0125300798073225
-0.003147585449681952,0.01236551201854972
-0.003147415449681952,0.01266173403834139
-0.003147245449681952,0.01302378317364086
-0.003147075449681952,0.01302378317364086
-0.003146905449681952,0.01341874586669567
-0.003146735449681952,0.01348457298220466
-0.003146565449681952,0.013682054328732
-0.003146395449681952,0.01368205432873272
-0.003146225449681952,0.01407701702178669
-0.003146055449681952,0.01355040009771377
-0.003145885449681952,0.01496568308115614
-0.003145715449681952,0.0129908696158863
-0.003145545449681952,0.01272756115384985
-0.003145375449681952,0.01210220355651278
-0.003145205449681952,0.0118388950944768
-0.003145035449681952,0.01118062393938566
-0.003144865449681952,0.01048943922653859
-0.003144695449681952,0.00973242739818515
-0.003144525449681952,0.009337464705130465
-0.003144355449681952,0.009139983358602223
-0.003144185449681952,0.008646279992284765
-0.003144015449681952,0.008613366434530208
-0.003143845449681952,0.008218403741476241
-0.003143675449681952,0.008185490183720966
-0.003143505449681952,0.008086749510457293
-0.003143335449681952,0.007856354606175814
-0.003143165449681952,0.008152576625966409
-0.003142995449681952,0.008843761338812107
-0.003142825449681952,0.008975415569830097
-0.003142655449681952,0.009666600282676035
-0.003142485449681952,0.01035778499552173
-0.003142315449681952,0.01104896970836618
-0.003142145449681952,0.01121353749714022
-0.003141975449681952,0.01193763576774048
-0.003141805449681952,0.01229968490303994
-0.003141635449681952,0.01318835096241365
-0.003141465449681952,0.013682054328732
-0.003141295449681952,0.01434032548382195
-0.003141125449681952,0.01539355933196897
-0.003140955449681952,0.01588726269828733
-0.003140785449681952,0.01605183048705982
-0.003140615449681952,0.01601891692930556
-0.003140445449681952,0.01684175587316948
-0.003140275449681952,0.01615057116032504
-0.003140105449681952,0.01657844741113303
-0.003139935449681952,0.01611765760256923
-0.003139765449681952,0.01568978135175999
-0.003139595449681952,0.01536064577421441
-0.003139425449681952,0.0148340288501415
-0.003139255449681952,0.01410993057954124
-0.003139085449681952,0.01325417807792276
-0.003138915449681952,0.01289212894262263
-0.003138745449681952,0.01210220355651326
-0.003138575449681952,0.01134519172815845
-0.003138405449681952,0.01062109345755819
-0.003138235449681952,0.01068692057306731
-0.003138065449681952,0.01052235278429404
-0.003137895449681952,0.01025904432225806
-0.003137725449681952,0.009962822302467049
-0.003137555449681952,0.009929908744711535
-0.003137385449681952,0.009403291820639578
-0.003137215449681952,0.00973242739818515
-0.003137045449681952,0.009962822302467408
-0.003136875449681952,0.01016030364899439
-0.003136705449681952,0.01052235278429452
-0.003136535449681952,0.01012739009124121
-0.003136365449681952,0.01088440191959465
-0.003136195449681952,0.01144393240142212
-0.003136025449681952,0.01124645105489496
-0.003135855449681952,0.01134519172815845
-0.003135685449681952,0.01101605615061288
-0.003135515449681952,0.01081857480408583
-0.003135345449681952,0.01098314259285832
-0.003135175449681952,0.01101605615061288
-0.003135005449681952,0.01088440191959381
-0.003134835449681952,0.01042361211103085
-0.003134665449681952,0.01045652566878541
-0.003134495449681952,0.009765340955938449
-0.003134325449681952,0.009074156243094007
-0.003134155449681952,0.009534946051657807
-0.003133985449681952,0.009534946051657089
-0.003133815449681952,0.009139983358603122
-0.003133645449681952,0.008876674896566664
-0.003133475449681952,0.008909588454321162
-0.003133305449681952,0.00904124268533945
-0.003133135449681952,0.008942502012075779
-0.003132965449681952,0.008942502012075779
-0.003132795449681952,0.009271637589621349
-0.003132625449681952,0.009370378262885021
-0.003132455449681952,0.009337464705130525
-0.003132285449681952,0.009403291820639578
-0.003132115449681952,0.009403291820639578
-0.003131945449681952,0.009699513840430054
-0.003131775449681952,0.009600773167166921
-0.003131605449681952,0.00973242739818515
-0.003131435449681952,0.009929908744712133
-0.003131265449681952,0.01006156297573072
-0.003131095449681952,0.01022613076450351
-0.003130925449681952,0.01045652566878499
-0.003130755449681952,0.01243133913405883
-0.003130585449681952,0.01039069855327629
-0.003130415449681952,0.01131227817040222
-0.003130245449681952,0.01141101884366756
-0.003130075449681952,0.01223385778753149
-0.003129905449681952,0.01262882048058546
-0.003129735449681952,0.01216803067202238
-0.003129565449681952,0.01226677134528605
-0.003129395449681952,0.01190472220998658
-0.003129225449681952,0.0116085001901949
-0.003129055449681952,0.011378105285913
-0.003128885449681952,0.01124645105489478
-0.003128715449681952,0.01068692057306731
-0.003128545449681952,0.01055526634204908
-0.003128375449681952,0.01019321720674895
-0.003128205449681952,0.01048943922653996
-0.003128035449681952,0.01032487143776718
-0.003127865449681952,0.01039069855327629
-0.003127695449681952,0.01068692057306767
-0.003127525449681952,0.01088440191959465
-0.003127355449681952,0.01150975951693123
-0.003127185449681952,0.01233259846079768
-0.003127015449681952,0.01371496788648656
-0.003126845449681952,0.01269464759609529
-0.003126675449681952,0.01276047471160428
-0.003126505449681952,0.01269464759609529
-0.003126335449681952,0.01249716624956795
-0.003126165449681952,0.01243133913405775
-0.003125995449681952,0.0118388950944768
-0.003125825449681952,0.01131227817040389
-0.003125655449681952,0.01098314259285772
-0.003125485449681952,0.01065400701531275
-0.003125315449681952,0.01009447653348528
-0.003125145449681952,0.009600773167165304
-0.003124975449681952,0.00871210710779388
-0.003124805449681952,0.008350057972493751
-0.003124635449681952,0.008251317299230379
-0.003124465449681952,0.008415885088002865
-0.003124295449681952,0.008514625761266537
-0.003124125449681952,0.008580452876775831
-0.003123955449681952,0.008679193550039321
-0.003123785449681952,0.008745020665548437
-0.003123615449681952,0.008646279992285424
-0.003123445449681952,0.009008329127584893
-0.003123275449681952,0.009107069800848565
-0.003123105449681952,0.009600773167166022
-0.003122935449681952,0.00983116807144882
-0.003122765449681952,0.01002864941797616
-0.003122595449681952,0.01048943922653913
-0.003122425449681952,0.011378105285913
-0.003122255449681952,0.01174015442121313
-0.003122085449681952,0.01253007980732107
-0.003121915449681952,0.01246425269181339
-0.003121745449681952,0.01338583230894099
-0.003121575449681952,0.01338583230894099
-0.003121405449681952,0.01374788144424112
-0.003121235449681952,0.01381370855975023
-0.003121065449681952,0.01394536279076822
-0.003120895449681952,0.01387953567525935
-0.003120725449681952,0.01410993057954124
-0.003120555449681952,0.01407701702178675
-0.003120385449681952,0.01404410346403213
-0.003120215449681952,0.01384662211750479
-0.003120045449681952,0.01338583230894183
-0.003119875449681952,0.01325417807792276
-0.003119705449681952,0.01305669673139542
-0.003119535449681952,0.01243133913405997
-0.003119365449681952,0.01203637644100415
-0.003119195449681952,0.01216803067202238
-0.003119025449681952,0.0119376357677409
-0.003118855449681952,0.0118388950944768
-0.003118685449681952,0.01210220355651326
-0.003118515449681952,0.0118388950944768
-0.003118345449681952,0.01243133913405883
-0.003118175449681952,0.01249716624956795
-0.003118005449681952,0.01285921538486808
-0.003117835449681952,0.01285921538486808
-0.003117665449681952,0.01295795605813175
-0.003117495449681952,0.01499859663891429
-0.003117325449681952,0.0127604747116044
-0.003117155449681952,0.01285921538486808
-0.003116985449681952,0.01285921538486808
-0.003116815449681952,0.01259590692283084
-0.003116645449681952,0.01216803067202238
-0.003116475449681952,0.01239842557630427
-0.003116305449681952,0.01229968490304024
-0.003116135449681952,0.01210220355651326
-0.003115965449681952,0.01236551201854972
-0.003115795449681952,0.0119705493254936
-0.003115625449681952,0.01118062393938566
-0.003115455449681952,0.01101605615061288
-0.003115285449681952,0.01091731547734968
-0.003115115449681952,0.01118062393938566
-0.003114945449681952,0.01088440191959465
-0.003114775449681952,0.01081857480408493
-0.003114605449681952,0.01048943922653996
-0.003114435449681952,0.01058817989980363
-0.003114265449681952,0.01052235278429458
-0.003114095449681952,0.01055526634204908
-0.003113925449681952,0.01022613076450351
-0.003113755449681952,0.009666600282676694
-0.003113585449681952,0.01002864941797616
-0.003113415449681952,0.009107069800848565
-0.003113245449681952,0.009403291820639998
-0.003113075449681952,0.009633686724921478
-0.003112905449681952,0.009139983358603122
-0.003112735449681952,0.009666600282676574
-0.003112565449681952,0.009962822302467049
-0.003112395449681952,0.01048943922653996
-0.003112225449681952,0.01052235278429446
-0.003112055449681952,0.01111479682387655
-0.003111885449681952,0.01111479682387655
-0.003111715449681952,0.01029195788001412
-0.003111545449681952,0.01101605615061288
-0.003111375449681952,0.01035778499552173
-0.003111205449681952,0.01052235278429422
-0.003111035449681952,0.009995735860221606
-0.003110865449681952,0.009699513840430593
-0.003110695449681952,0.009469118936149112
-0.003110525449681952,0.008843761338812107
-0.003110355449681952,0.00779052749066628
-0.003110185449681952,0.007724700375157286
-0.003110015449681952,0.007527219028629823
-0.003109845449681952,0.007889268163929951
-0.003109675449681952,0.00811966306821143
-0.003109505449681952,0.00811966306821185
-0.003109335449681952,0.008382971530248308
-0.003109165449681952,0.008152576625966829
-0.003108995449681952,0.008448798645757422
-0.003108825449681952,0.008876674896566664
-0.003108655449681952,0.009139983358602643
-0.003108485449681952,0.009469118936148692
-0.003108315449681952,0.00983116807144882
-0.003108145449681952,0.00913998335860438
-0.003107975449681952,0.009699513840430593
-0.003107805449681952,0.01088440191959465
-0.003107635449681952,0.01091731547734921
-0.003107465449681952,0.01118062393938566
-0.003107295449681952,0.01114771038163111
-0.003107125449681952,0.01108188326612199
-0.003106955449681952,0.01114771038163111
-0.003106785449681952,0.01098314259285832
-0.003106615449681952,0.01042361211103085
-0.003106445449681952,0.01016030364899379
-0.003106275449681952,0.00983116807144882
-0.003106105449681952,0.009666600282676035
-0.003105935449681952,0.009534946051657627
-0.003105765449681952,0.009436205378394135
-0.003105595449681952,0.00983116807144882
-0.003105425449681952,0.009765340955939587
-0.003105255449681952,0.009699513840430593
-0.003105085449681952,0.01032487143776718
-0.003104915449681952,0.010291957880014
-0.003104745449681952,0.01104896970836743
-0.003104575449681952,0.01101605615061288
-0.003104405449681952,0.01170724086345876
-0.003104235449681952,0.01180598153672225
-0.003104065449681952,0.01220094422977693
-0.003103895449681952,0.01276047471160506
-0.003103725449681952,0.01312252384690453
-0.003103555449681952,0.01364914077097745
-0.003103385449681952,0.01335291875118589
-0.003103215449681952,0.01305669673139542
-0.003103045449681952,0.0125300798073225
-0.003102875449681952,0.0121351171142671
-0.003102705449681952,0.01174015442121313
-0.003102535449681952,0.01108188326612199
-0.003102365449681952,0.01058817989980304
-0.003102195449681952,0.01025904432225806
-0.003102025449681952,0.009929908744712493
-0.003101855449681952,0.009534946051658525
-0.003101685449681952,0.00904124268533945
-0.003101515449681952,0.009370378262885021
-0.003101345449681952,0.009370378262885021
-0.003101175449681952,0.00973242739818515
-0.003101005449681952,0.01016030364899439
-0.003100835449681952,0.0112464510548928
-0.003100665449681952,0.01154267307468579
-0.003100495449681952,0.01193763576774048
-0.003100325449681952,0.01266173403833942
-0.003100155449681952,0.01302378317364086
-0.003099985449681952,0.01292504250037719
-0.003099815449681952,0.01243133913405973
-0.003099645449681952,0.01177306797896769
-0.003099475449681952,0.01150975951693123
-0.003099305449681952,0.01055526634205081
-0.003099135449681952,0.009896995186957936
-0.003098965449681952,0.00904124268533945
-0.003098795449681952,0.008580452876776489
-0.003098625449681952,0.00973242739818515
-0.003098455449681952,0.007988008837193623
-0.003098285449681952,0.0070664292200677
-0.003098115449681952,0.006868947873538681
-0.003097945449681952,0.007066429220066024
-0.003097775449681952,0.007560132586383482
-0.003097605449681952,0.007922181721684508
-0.003097435449681952,0.008580452876775651
-0.003097265449681952,0.009304551147375908
-0.003097095449681952,0.009534946051657807
-0.003096925449681952,0.00973242739818515
-0.003096755449681952,0.01009447653348528
-0.003096585449681952,0.01042361211103085
-0.003096415449681952,0.01121353749714022
-0.003096245449681952,0.01144393240142212
-0.003096075449681952,0.01154267307468579
-0.003095905449681952,0.01197054932549503
-0.003095735449681952,0.01150975951693123
-0.003095565449681952,0.01160850019019532
-0.003095395449681952,0.0118388950944768
-0.003095225449681952,0.01121353749714022
-0.003095055449681952,0.01065400701531305
-0.003094885449681952,0.01081857480408553
-0.003094715449681952,0.01114771038163111
-0.003094545449681952,0.0105223527842956
-0.003094375449681952,0.01111479682387655
-0.003094205449681952,0.01121353749714022
-0.003094035449681952,0.01098314259285886
-0.003093865449681952,0.01127936461264933
-0.003093695449681952,0.0118388950944768
-0.003093525449681952,0.01190472220998682
-0.003093355449681952,0.01239842557630427
-0.003093185449681952,0.01259590692283162
-0.003093015449681952,0.01272756115384961
-0.003092845449681952,0.01259590692283162
-0.003092675449681952,0.01266173403834073
-0.003092505449681952,0.01259590692283257
-0.003092335449681952,0.01312252384690453
-0.003092165449681952,0.01338583230894099
-0.003091995449681952,0.01391244923301414
-0.003091825449681952,0.01404410346403213
-0.003091655449681952,0.01410993057954124
-0.003091485449681952,0.01443906615708628
-0.003091315449681952,0.0141428441372958
-0.003091145449681952,0.01384662211750479
-0.003090975449681952,0.0137478814442413
-0.003090805449681952,0.01361622721322289
-0.003090635449681952,0.01328709163567732
-0.003090465449681952,0.01299086961588684
-0.003090295449681952,0.0125300798073225
-0.003090125449681952,0.01223385778753149
-0.003089955449681952,0.01177306797896853
