Analysis/files/wrd01_d2s01/cmb02_ch12.csv

#Digilent WaveForms Oscilloscope Acquisition
#Device Name: ADP3450
#Serial Number: SN:210018B9D9B0
#Date Time: 2024-08-14 16:33:18.844.385.450
#Sample rate: 5.88235e+06Hz
#Samples: 32768
#Trigger: Source: Channel 3 Type: Edge Condition: Rising Level: 60 mV Hyst.: Auto HoldOff: 0 s
#Channel 3: Range: 100 mV/div Offset: 0 V Attenuation: 1 X Coupling: DC Bandwidth: 0 Hz Sample Mode: Average

Time (s),Channel 3 (V)
-0.003798534155022739,0.2017830368960259
-0.003798364155022739,0.2163637429813172
-0.003798194155022739,0.2287392406970081
-0.003798024155022739,0.2400615045645758
-0.003797854155022739,0.2492773007358666
-0.003797684155022739,0.2574069495012274
-0.003797514155022739,0.2639567474943842
-0.003797344155022739,0.268169682886975
-0.003797174155022739,0.2722509640485326
-0.003797004155022739,0.2726788402993419
-0.003796834155022739,0.2738637283785049
-0.003796664155022739,0.2733041978966785
-0.003796494155022739,0.2727775809726056
-0.003796324155022739,0.2704736319297825
-0.003796154155022739,0.2682355100024766
-0.003795984155022739,0.2652074626890574
-0.003795814155022739,0.2618173662403321
-0.003795644155022739,0.2585589240226369
-0.003795474155022739,0.2545763835343355
-0.003795304155022739,0.2506596701615362
-0.003795134155022739,0.24680878390426
-0.003794964155022739,0.2422337993763765
-0.003794794155022739,0.2379221233105374
-0.003794624155022739,0.2337421014757008
-0.003794454155022739,0.2299241287761722
-0.003794284155022739,0.226402378096441
-0.003794114155022739,0.2224856647236423
-0.003793944155022739,0.2191284818326775
-0.003793774155022739,0.2156396447107008
-0.003793604155022739,0.2121508075887114
-0.003793434155022739,0.2083328348891827
-0.003793264155022739,0.204975651998224
-0.003793094155022739,0.2016184691072531
-0.003792924155022739,0.1985904217938338
-0.003792754155022739,0.1951015846718571
-0.003792584155022739,0.1915469204343586
-0.003792414155022739,0.1880580833123756
-0.003792244155022739,0.1848654682101893
-0.003792074155022739,0.1810145819529003
-0.003791904155022739,0.1786118922368177
-0.003791734155022739,0.175057227999332
-0.003791564155022739,0.1723254027056972
-0.003791394155022739,0.169297355392278
-0.003791224155022739,0.1667630114451817
-0.003791054155022739,0.1636362234584942
-0.003790884155022739,0.1607727439338477
-0.003790714155022739,0.1581067457557334
-0.003790544155022739,0.1549141306535365
-0.003790374155022739,0.1521164782443992
-0.003790204155022739,0.1489238631422072
-0.003790034155022739,0.1466857412148973
-0.003789864155022739,0.1444805328453419
-0.003789694155022739,0.1420449295715047
-0.003789524155022739,0.139642239855422
-0.003789354155022739,0.1377003399479032
-0.003789184155022739,0.1349356010965204
-0.003789014155022739,0.1324670842649255
-0.003788844155022739,0.1307555792616916
-0.003788674155022739,0.1289782471429455
-0.003788504155022739,0.1263122489648216
-0.003788334155022739,0.1236462507867073
-0.003788164155022739,0.1220005728989794
-0.003787994155022739,0.1188408713545386
-0.003787824155022739,0.1169977121202868
-0.003787654155022739,0.1143975410576767
-0.003787484155022739,0.1126531224966813
-0.003787314155022739,0.110513741242639
-0.003787144155022739,0.1087034955661384
-0.003786974155022739,0.1065312007543348
-0.003786804155022739,0.1049842635398734
-0.003786634155022739,0.1028777958435818
-0.003786464155022739,0.1015941670911505
-0.003786294155022739,0.09965226718363518
-0.003786124155022739,0.09850029266222568
-0.003785954155022739,0.09665713342796765
-0.003785784155022739,0.09511019621350628
-0.003785614155022739,0.09395822169209678
-0.003785444155022739,0.09274042005517495
-0.003785274155022739,0.0909630879364321
-0.003785104155022739,0.08977819985726804
-0.003784934155022739,0.08813252196953773
-0.003784764155022739,0.08678306610160333
-0.003784594155022739,0.08559817802243927
-0.003784424155022739,0.08444620350103187
-0.003784254155022739,0.08280052561330192
-0.003784084155022739,0.08135232907210141
-0.003783914155022739,0.07990413253090353
-0.003783744155022739,0.07855467666296406
-0.003783574155022739,0.07763309704583646
-0.003783404155022739,0.07611907338912957
-0.003783234155022739,0.07490127175220823
-0.003783064155022739,0.07404551925058975
-0.003782894155022739,0.07272897694040985
-0.003782724155022739,0.07160991597675251
-0.003782554155022739,0.07197196511205264
-0.003782384155022739,0.06986549741576481
-0.003782214155022739,0.06818690597027857
-0.003782044155022739,0.0676273754884511
-0.003781874155022739,0.06634374673602569
-0.003781704155022739,0.06598169760072325
-0.003781534155022739,0.06410562480871349
-0.003781364155022739,0.06331569942260556
-0.003781194155022739,0.06245994692098564
-0.003781024155022739,0.06137379951508525
-0.003780854155022739,0.06009017076265986
-0.003780684155022739,0.05926733181879359
-0.003780514155022739,0.0581153572973841
-0.003780344155022739,0.05673298787169521
-0.003780174155022739,0.056041803158847
-0.003780004155022739,0.0558114082545651
-0.003779834155022739,0.05541644556151042
-0.003779664155022739,0.0555810133502832
-0.003779494155022739,0.05528479133049219
-0.003779324155022739,0.05502148286845573
-0.003779154155022739,0.05495565575294661
-0.003778984155022739,0.0548898286374375
-0.003778814155022739,0.05449486594438282
-0.003778644155022739,0.05400116257806446
-0.003778474155022739,0.05307958296093686
-0.003778304155022739,0.05232257113258205
-0.003778134155022739,0.05110476949566086
-0.003777964155022739,0.04968948651221747
-0.003777794155022739,0.04886664756835355
-0.003777624155022739,0.04748427814266035
-0.003777454155022739,0.04649687141002544
-0.003777284155022739,0.04521324265759771
-0.003777114155022739,0.04369921900088623
-0.003776944155022739,0.04267889871049681
-0.003776774155022739,0.04129652928480541
-0.003776604155022739,0.04057243101420276
-0.003776434155022739,0.03925588870402288
-0.003776264155022739,0.03882801245321364
-0.003776094155022739,0.03800517350934863
-0.003775924155022739,0.03741272946976767
-0.003775754155022739,0.03672154475692198
-0.003775584155022739,0.03635949562162101
-0.003775414155022739,0.03589870581305805
-0.003775244155022739,0.03530626177347602
-0.003775074155022739,0.03481255840715718
-0.003774904155022739,0.03454924994512121
-0.003774734155022739,0.03369349744350272
-0.003774564155022739,0.03356184321248336
-0.003774394155022739,0.03293648561514791
-0.003774224155022739,0.03257443647984778
-0.003774054155022739,0.03217947378679208
-0.003773884155022739,0.03161994330496563
-0.003773714155022739,0.03132372128517461
-0.003773544155022739,0.03125789416966562
-0.003773374155022739,0.03201490599802031
-0.003773204155022739,0.03244278224882955
-0.003773034155022739,0.03323270763493748
-0.003772864155022739,0.03211364667128398
-0.003772694155022739,0.032409868691075
-0.003772524155022739,0.03247569580658399
-0.003772354155022739,0.03310105340392069
-0.003772184155022739,0.03280483138412968
-0.003772014155022739,0.03283774494188418
-0.003771844155022739,0.03224530090230221
-0.003771674155022739,0.03194907888251119
-0.003771504155022739,0.03194907888251119
-0.003771334155022739,0.0314882890739474
-0.003771164155022739,0.0305667094568198
-0.003770994155022739,0.02997426541723885
-0.003770824155022739,0.02954638916642853
-0.003770654155022739,0.02875646378031916
-0.003770484155022739,0.02911851291561863
-0.003770314155022739,0.02799945195196434
-0.003770144155022739,0.02961221628193764
-0.003769974155022739,0.0265512554107694
-0.003769804155022739,0.02737409435462776
-0.003769634155022739,0.02760448925890966
-0.003769464155022739,0.02763740281666422
-0.003769294155022739,0.02767031637441877
-0.003769124155022739,0.02773614348992789
-0.003768954155022739,0.0273411807968732
-0.003768784155022739,0.02730826723911865
-0.003768614155022739,0.02648542829525472
-0.003768444155022739,0.02609046560220003
-0.003768274155022739,0.02612337915995459
-0.003768104155022739,0.02592589781342725
-0.003767934155022739,0.02592589781342725
-0.003767764155022739,0.0257942435824092
-0.003767594155022739,0.02589298425567269
-0.003767424155022739,0.02576133002465446
-0.003767254155022739,0.02615629271770801
-0.003767084155022739,0.02553093512037256
-0.003766914155022739,0.02539928088935433
-0.003766744155022739,0.02500431819629797
-0.003766574155022739,0.02408273857917205
-0.003766404155022739,0.02332572675081724
-0.003766234155022739,0.0226674555957246
-0.003766064155022739,0.02184461665186217
-0.003765894155022739,0.02112051838126191
-0.003765724155022739,0.02036350655290608
-0.003765554155022739,0.01980397607107963
-0.003765384155022739,0.01924444558925215
-0.003765214155022739,0.01904696424272445
-0.003765044155022739,0.01884948289619747
-0.003764874155022739,0.01894822356946114
-0.003764704155022739,0.01888239645395173
-0.003764534155022739,0.01871782866517924
-0.003764364155022739,0.01927735914700671
-0.003764194155022739,0.01911279135823477
-0.003764024155022739,0.01957358116679772
-0.003763854155022739,0.0194419269357795
-0.003763684155022739,0.02296367761550957
-0.003763514155022739,0.01881656933844291
-0.003763344155022739,0.01993563030209785
-0.003763174155022739,0.01960649472455288
-0.003763004155022739,0.02016602520637975
-0.003762834155022739,0.01996854385985241
-0.003762664155022739,0.01977106251332543
-0.003762494155022739,0.01907987780047937
-0.003762324155022739,0.01914570491598848
-0.003762154155022739,0.01884948289619801
-0.003761984155022739,0.01792790327906987
-0.003761814155022739,0.01789498972131531
-0.003761644155022739,0.01792790327906981
-0.003761474155022739,0.01838869308763367
-0.003761304155022739,0.01789498972131531
-0.003761134155022739,0.01792790327906981
-0.003760964155022739,0.01763168125927886
-0.003760794155022739,0.01786207616356076
-0.003760624155022739,0.01769750837478827
-0.003760454155022739,0.01730254568173328
-0.003760284155022739,0.01694049654643316
-0.003760114155022739,0.01680884231541517
-0.003759944155022739,0.01697341010418771
-0.003759774155022739,0.01697341010418771
-0.003759604155022739,0.0171379778929602
-0.003759434155022739,0.01654553385337847
-0.003759264155022739,0.01654553385337847
-0.003759094155022739,0.016183484718079
-0.003758924155022739,0.01634805250685113
-0.003758754155022739,0.01559104067849632
-0.003758584155022739,0.015986003371551
-0.003758414155022739,0.01519607798544163
-0.003758244155022739,0.01536064577421441
-0.003758074155022739,0.01443906615708682
-0.003757904155022739,0.01417575769505036
-0.003757734155022739,0.01381370855975023
-0.003757564155022739,0.013682054328732
-0.003757394155022739,0.01407701702178723
-0.003757224155022739,0.0143732390415777
-0.003757054155022739,0.01457072038810504
-0.003756884155022739,0.0148011152923885
-0.003756714155022739,0.01565686779400543
-0.003756544155022739,0.01542647288972353
-0.003756374155022739,0.01601891692930646
-0.003756204155022739,0.01651262029562391
-0.003756034155022739,0.01723671856622417
-0.003755864155022739,0.01756585414377064
-0.003755694155022739,0.0180595575100881
-0.003755524155022739,0.01789498972131531
-0.003755354155022739,0.01815829818335267
-0.003755184155022739,0.01865200154967013
-0.003755014155022739,0.01871782866517924
-0.003754844155022739,0.01904696424272451
-0.003754674155022739,0.01888239645395202
-0.003754504155022739,0.0187507422229338
-0.003754334155022739,0.01878365578068542
-0.003754164155022739,0.01717089145071506
-0.003753994155022739,0.01792790327906987
-0.003753824155022739,0.01812538462559661
-0.003753654155022739,0.01779624904805164
-0.003753484155022739,0.01717089145071506
-0.003753314155022739,0.01753294058601435
-0.003753144155022739,0.01707215077745139
-0.003752974155022739,0.01710506433520594
-0.003752804155022739,0.01687466943092446
-0.003752634155022739,0.01671010164215126
-0.003752464155022739,0.0164467931801148
-0.003752294155022739,0.01592017625604284
-0.003752124155022739,0.0157556084672691
-0.003751954155022739,0.01473528817687783
-0.003751784155022739,0.01460363394585984
-0.003751614155022739,0.01394536279076846
-0.003751444155022739,0.01341874586669555
-0.003751274155022739,0.01325417807792306
-0.003751104155022739,0.01262882048058617
-0.003750934155022739,0.01216803067202238
-0.003750764155022739,0.0119047222099864
-0.003750594155022739,0.01177306797896769
-0.003750424155022739,0.0116085001901949
-0.003750254155022739,0.01157558663244041
-0.003750084155022739,0.01150975951693123
-0.003749914155022739,0.01127936461264933
-0.003749744155022739,0.01114771038163134
-0.003749574155022739,0.01134519172815845
-0.003749404155022739,0.01197054932549503
-0.003749234155022739,0.01213511711426752
-0.003749064155022739,0.01256299336507706
-0.003748894155022739,0.01318835096241365
-0.003748724155022739,0.01289212894262317
-0.003748554155022739,0.0129908696158863
-0.003748384155022739,0.01292504250037719
-0.003748214155022739,0.01295795605813175
-0.003748044155022739,0.01282630182711352
-0.003747874155022739,0.0134516594244501
-0.003747704155022739,0.01289212894262263
-0.003747534155022739,0.01269464759609529
-0.003747364155022739,0.01243133913405883
-0.003747194155022739,0.01262882048058617
-0.003747024155022739,0.01210220355651326
-0.003746854155022739,0.01213511711426782
-0.003746684155022739,0.01187180865223136
-0.003746514155022739,0.01174015442121307
-0.003746344155022739,0.01170724086345858
-0.003746174155022739,0.01118062393938566
-0.003746004155022739,0.01154267307468561
-0.003745834155022739,0.01144393240142212
-0.003745664155022739,0.01144393240142212
-0.003745494155022739,0.0112793646126482
-0.003745324155022739,0.01065400701531275
-0.003745154155022739,0.01071983413082186
-0.003744984155022739,0.01071983413081617
-0.003744814155022739,0.007593046144138938
-0.003744644155022739,0.01131227817040389
-0.003744474155022739,0.01088440191959225
-0.003744304155022739,0.009567859609412364
-0.003744134155022739,0.01032487143776718
-0.003743964155022739,0.01035778499552299
-0.003743794155022739,0.01104896970836743
-0.003743624155022739,0.01098314259285832
-0.003743454155022739,0.01137810528591277
-0.003743284155022739,0.01124645105489478
-0.003743114155022739,0.01167432730570402
-0.003742944155022739,0.01183889509447746
-0.003742774155022739,0.01220094422977693
-0.003742604155022739,0.01233259846079516
-0.003742434155022739,0.01269464759609559
-0.003742264155022739,0.01285921538486808
-0.003742094155022739,0.01305669673139542
-0.003741924155022739,0.0132541780779224
-0.003741754155022739,0.01266173403834073
-0.003741584155022739,0.01282630182711352
-0.003741414155022739,0.01249716624956855
-0.003741244155022739,0.01246425269181339
-0.003741074155022739,0.01197054932549503
-0.003740904155022739,0.01216803067202202
-0.003740734155022739,0.01216803067202238
-0.003740564155022739,0.01236551201854972
-0.003740394155022739,0.01266173403834019
-0.003740224155022739,0.01236551201854972
-0.003740054155022739,0.01279338826935896
-0.003739884155022739,0.01318835096241293
-0.003739714155022739,0.01374788144424112
-0.003739544155022739,0.01424158481055947
-0.003739374155022739,0.0139124492330145
-0.003739204155022739,0.01361622721322289
-0.003739034155022739,0.013682054328732
-0.003738864155022739,0.01318835096241454
-0.003738694155022739,0.0129908696158863
-0.003738524155022739,0.01269464759609529
-0.003738354155022739,0.01223385778753233
-0.003738184155022739,0.01187180865223136
-0.003738014155022739,0.01118062393938566
-0.003737844155022739,0.01108188326612217
-0.003737674155022739,0.01088440191959465
-0.003737504155022739,0.01111479682387655
-0.003737334155022739,0.01124645105489478
-0.003737164155022739,0.01177306797896769
-0.003736994155022739,0.01203637644100415
-0.003736824155022739,0.01193763576774048
-0.003736654155022739,0.01197054932549503
-0.003736484155022739,0.01193763576774048
-0.003736314155022739,0.01141101884366756
-0.003736144155022739,0.01160850019019448
-0.003735974155022739,0.011378105285913
-0.003735804155022739,0.01200346288324959
-0.003735634155022739,0.01150975951693435
-0.003735464155022739,0.0132212645201682
-0.003735294155022739,0.01220094422977693
-0.003735124155022739,0.01190472220998801
-0.003734954155022739,0.01305669673139542
-0.003734784155022739,0.01226677134528605
-0.003734614155022739,0.01308961028915051
-0.003734444155022739,0.01338583230894099
-0.003734274155022739,0.01394536279076846
-0.003734104155022739,0.01391244923301378
-0.003733934155022739,0.01384662211750479
-0.003733764155022739,0.01401118990627757
-0.003733594155022739,0.01450489327259491
-0.003733424155022739,0.01394536279076846
-0.003733254155022739,0.01404410346403213
-0.003733084155022739,0.01384662211750515
-0.003732914155022739,0.01404410346403213
-0.003732744155022739,0.01401118990627757
-0.003732574155022739,0.01374788144424148
-0.003732404155022739,0.01394536279076846
-0.003732234155022739,0.01384662211750479
-0.003732064155022739,0.01430741192606889
-0.003731894155022739,0.01447197971484137
-0.003731724155022739,0.0150644237544234
-0.003731554155022739,0.01539355933196837
-0.003731384155022739,0.01611765760256923
-0.003731214155022739,0.01651262029562391
-0.003731044155022739,0.01674301519990539
-0.003730874155022739,0.01628222539134202
-0.003730704155022739,0.01624931183358745
-0.003730534155022739,0.01559104067849751
-0.003730364155022739,0.01499859663891429
-0.003730194155022739,0.01466946106136872
-0.003730024155022739,0.01430741192606925
-0.003729854155022739,0.01384662211750479
-0.003729684155022739,0.01312252384690453
-0.003729514155022739,0.0122667713452876
-0.003729344155022739,0.01236551201854972
-0.003729174155022739,0.01124645105489478
-0.003729004155022739,0.0109173154773498
-0.003728834155022739,0.01048943922653996
-0.003728664155022739,0.009864081629203377
-0.003728494155022739,0.009732427398185389
-0.003728324155022739,0.009370378262885021
-0.003728154155022739,0.01002864941797616
-0.003727984155022739,0.009666600282676694
-0.003727814155022739,0.01006156297573072
-0.003727644155022739,0.009995735860221606
-0.003727474155022739,0.009798254513694623
-0.003727304155022739,0.009864081629203377
-0.003727134155022739,0.009370378262885021
-0.003726964155022739,0.009567859609412364
-0.003726794155022739,0.009633686724921478
-0.003726624155022739,0.009172896916357679
-0.003726454155022739,0.00950203249390325
-0.003726284155022739,0.01167432730570402
-0.003726114155022739,0.008317144414739193
-0.003725944155022739,0.01147684595917668
-0.003725774155022739,0.009436205378394135
-0.003725604155022739,0.01095022903510376
-0.003725434155022739,0.01085148836184009
-0.003725264155022739,0.01104896970836695
-0.003725094155022739,0.01078566124633098
-0.003724924155022739,0.01134519172815845
-0.003724754155022739,0.01137810528591288
-0.003724584155022739,0.01131227817040389
-0.003724414155022739,0.01157558663244035
-0.003724244155022739,0.01154267307468435
-0.003724074155022739,0.01075274768857642
-0.003723904155022739,0.01118062393938566
-0.003723734155022739,0.01134519172815779
-0.003723564155022739,0.01098314259285832
-0.003723394155022739,0.01118062393938566
-0.003723224155022739,0.01127936461264903
-0.003723054155022739,0.01111479682387655
-0.003722884155022739,0.01098314259285832
-0.003722714155022739,0.01101605615061192
-0.003722544155022739,0.01048943922653996
-0.003722374155022739,0.01042361211103085
-0.003722204155022739,0.0103248714377682
-0.003722034155022739,0.01088440191959465
-0.003721864155022739,0.01068692057306731
-0.003721694155022739,0.01032487143776706
-0.003721524155022739,0.01025904432225806
-0.003721354155022739,0.009864081629203377
-0.003721184155022739,0.009666600282675675
-0.003721014155022739,0.009469118936148692
-0.003720844155022739,0.009403291820639578
-0.003720674155022739,0.009074156243094605
-0.003720504155022739,0.009172896916357679
-0.003720334155022739,0.009107069800848565
-0.003720164155022739,0.009172896916357559
-0.003719994155022739,0.00950203249390325
-0.003719824155022739,0.00983116807144882
-0.003719654155022739,0.0100615629757303
-0.003719484155022739,0.01045652566878541
-0.003719314155022739,0.01078566124633098
-0.003719144155022739,0.01137810528591193
