Analysis/files/wrd01_d2s01/cmb08_ch07.csv

#Digilent WaveForms Oscilloscope Acquisition
#Device Name: ADP3450
#Serial Number: SN:210018B9D9B0
#Date Time: 2024-08-14 17:49:19.896.446.620
#Sample rate: 5.88235e+06Hz
#Samples: 32768
#Trigger: Source: Channel 3 Type: Edge Condition: Rising Level: 60 mV Hyst.: Auto HoldOff: 0 s
#Channel 3: Range: 100 mV/div Offset: 0 V Attenuation: 1 X Coupling: DC Bandwidth: 0 Hz Sample Mode: Average

Time (s),Channel 3 (V)
-0.003798394909122916,0.2144876701892849
-0.003798224909122916,0.2265011187697182
-0.003798054909122916,0.2374613335019658
-0.003797884909122916,0.2458213771716233
-0.003797714909122916,0.2527661378578446
-0.003797544909122916,0.2581639613295822
-0.003797374909122916,0.2624098102799201
-0.003797204909122916,0.2651745491313048
-0.003797034909122916,0.2662606965372032
-0.003796864909122916,0.2666227456725034
-0.003796694909122916,0.2657011660553742
-0.003796524909122916,0.2648454135537573
-0.003796354909122916,0.2626072916264474
-0.003796184909122916,0.2608957866232039
-0.003796014909122916,0.2573082088279637
-0.003795844909122916,0.2554321360359539
-0.003795674909122916,0.2508571515080658
-0.003795504909122916,0.2482569804454605
-0.003795334909122916,0.2428920705314677
-0.003795164909122916,0.2419046637988226
-0.003794994909122916,0.237296765713193
-0.003794824909122916,0.2338408421489645
-0.003794654909122916,0.2303849185847422
-0.003794484909122916,0.22636946453868
-0.003794314909122916,0.2224198376081332
-0.003794144909122916,0.218832259812893
-0.003793974909122916,0.2153105091331488
-0.003793804909122916,0.2117558448956567
-0.003793634909122916,0.207872045080626
-0.003793464909122916,0.2044819486318996
-0.003793294909122916,0.2006968894901255
-0.003793124909122916,0.1973726201569213
-0.003792954909122916,0.1938179559194231
-0.003792784909122916,0.1901316374509127
-0.003792614909122916,0.1871365036952534
-0.003792444909122916,0.1832856174379648
-0.003792274909122916,0.1800271752202636
-0.003792104909122916,0.1764066838672689
-0.003791934909122916,0.1726874518409974
-0.003791764909122916,0.1690340469302415
-0.003791594909122916,0.1655122962505103
-0.003791424909122916,0.1625171624948392
-0.003791254909122916,0.1595878558546837
-0.003791084909122916,0.1562965000792339
-0.003790914909122916,0.1530709714192813
-0.003790744909122916,0.1502404054523894
-0.003790574909122916,0.1477060615052931
-0.003790404909122916,0.1445792735186056
-0.003790234909122916,0.1418474482249774
-0.003790064909122916,0.1391814500468583
-0.003789894909122916,0.1363837976377209
-0.003789724909122916,0.1336519723440927
-0.003789554909122916,0.1314138504167828
-0.003789384909122916,0.1296365182980367
-0.003789214909122916,0.1276287912750087
-0.003789044909122916,0.1253248422321897
-0.003788874909122916,0.1241728677107757
-0.003788704909122916,0.1216714373214339
-0.003788534909122916,0.1206182034732881
-0.003788364909122916,0.1197624509716687
-0.003788194909122916,0.1192687476053512
-0.003788024909122916,0.118018032410678
-0.003787854909122916,0.1166356629849843
-0.003787684909122916,0.1153520342325589
-0.003787514909122916,0.1136734427870765
-0.003787344909122916,0.1117315428795546
-0.003787174909122916,0.1100529514340752
-0.003787004909122916,0.1067615956586195
-0.003786834909122916,0.105181744886397
-0.003786664909122916,0.1031081907478637
-0.003786494909122916,0.1008042417050447
-0.003786324909122916,0.09882942823976673
-0.003786154909122916,0.09636091140817946
-0.003785984909122916,0.09369491323006032
-0.003785814909122916,0.0918188404380452
-0.003785644909122916,0.08885662024014043
-0.003785474909122916,0.08777047283424005
-0.003785304909122916,0.08572983225345469
-0.003785134909122916,0.08418289503899332
-0.003784964909122916,0.08257013070902003
-0.003784794909122916,0.08082571214802568
-0.003784624909122916,0.07927877493356431
-0.003784454909122916,0.07766601060359102
-0.003784284909122916,0.07628364117790214
-0.003784114909122916,0.07506583954098101
-0.003783944909122916,0.0731568531912167
-0.003783774909122916,0.07164282953450982
-0.003783604909122916,0.06996423808902466
-0.003783434909122916,0.06848312799006959
-0.003783264909122916,0.06733115346866218
-0.003783094909122916,0.06621209250500515
-0.003782924909122916,0.06529051288787754
-0.003782754909122916,0.06506011798359607
-0.003782584909122916,0.06446767394401362
-0.003782414909122916,0.06400688413544983
-0.003782244909122916,0.06344735365362335
-0.003782074909122916,0.06351318076913146
-0.003781904909122916,0.06295365028730399
-0.003781734909122916,0.06242703336323203
-0.003781564909122916,0.06107757749529424
-0.003781394909122916,0.06018891143592119
-0.003781224909122916,0.05920150470328628
-0.003781054909122916,0.05837866575942055
-0.003780884909122916,0.05729251835352017
-0.003780714909122916,0.05627219806313075
-0.003780544909122916,0.05528479133049219
-0.003780374909122916,0.05386950834704623
-0.003780204909122916,0.05294792872992031
-0.003780034909122916,0.05110476949566344
-0.003779864909122916,0.0502819305517995
-0.003779694909122916,0.04909704247263545
-0.003779524909122916,0.04761593237368038
-0.003779354909122916,0.04712222900736202
-0.003779184909122916,0.04557529179289784
-0.003779014909122916,0.04462079861801568
-0.003778844909122916,0.04264598515274225
-0.003778674909122916,0.04218519534417846
-0.003778504909122916,0.0407699123607325
-0.003778334909122916,0.03948628360830477
-0.003778164909122916,0.04037494966767782
-0.003777994909122916,0.03905840735749416
-0.003777824909122916,0.03830139552914072
-0.003777654909122916,0.03767603793180414
-0.003777484909122916,0.03714942100773116
-0.003777314909122916,0.03711650744997666
-0.003777144909122916,0.03616201427509451
-0.003776974909122916,0.03606327360182994
-0.003776804909122916,0.03556957023551248
-0.003776634909122916,0.03537208888898514
-0.003776464909122916,0.03464799061838883
-0.003776294909122916,0.03682028543018565
-0.003776124909122916,0.03537208888898514
-0.003775954909122916,0.03484547196491156
-0.003775784909122916,0.03448342282961209
-0.003775614909122916,0.03372641100125728
-0.003775444909122916,0.03616201427508816
-0.003775274909122916,0.03267317715311145
-0.003775104909122916,0.03191616532475664
-0.003774934909122916,0.03227821446005456
-0.003774764909122916,0.03106041282313815
-0.003774594909122916,0.03165285686272018
-0.003774424909122916,0.03063253657232837
-0.003774254909122916,0.0303363145525379
-0.003774084909122916,0.03030340099478334
-0.003773914909122916,0.02990843830172913
-0.003773744909122916,0.03017174676376511
-0.003773574909122916,0.03030340099478334
-0.003773404909122916,0.03004009253274736
-0.003773234909122916,0.03027048743702878
-0.003773064909122916,0.0298755247439741
-0.003772894909122916,0.02961221628193812
-0.003772724909122916,0.02967804339744676
-0.003772554909122916,0.02948056205091941
-0.003772384909122916,0.02895394512684746
-0.003772214909122916,0.02846024176052814
-0.003772044909122916,0.02783488416319156
-0.003771874909122916,0.02720952656585611
-0.003771704909122916,0.02701204521932763
-0.003771534909122916,0.0268803909883094
-0.003771364909122916,0.02533345377384803
-0.003771194909122916,0.02536636733159978
-0.003771024909122916,0.02414856569468116
-0.003770854909122916,0.02339155386632773
-0.003770684909122916,0.02306241828878078
-0.003770514909122916,0.02286493694225343
-0.003770344909122916,0.02237123357593598
-0.003770174909122916,0.02148256751656204
-0.003770004909122916,0.02121925905452558
-0.003769834909122916,0.02112051838126209
-0.003769664909122916,0.01973814895557051
-0.003769494909122916,0.02039642011066165
-0.003769324909122916,0.01931027270476127
-0.003769154909122916,0.01977106251332507
-0.003768984909122916,0.01917861847374304
-0.003768814909122916,0.01868491510742468
-0.003768644909122916,0.01756585414376974
-0.003768474909122916,0.01723671856622417
-0.003768304909122916,0.01812538462559721
-0.003768134909122916,0.01842160664538823
-0.003767964909122916,0.01815829818335177
-0.003767794909122916,0.01828995241437
-0.003767624909122916,0.01786207616356058
-0.003767454909122916,0.01776333549029708
-0.003767284909122916,0.01812538462559721
-0.003767114909122916,0.01713797789295853
-0.003766944909122916,0.01605183048706011
-0.003766774909122916,0.01703923721969683
-0.003766604909122916,0.01733545923948814
-0.003766434909122916,0.01750002702826063
-0.003766264909122916,0.01750002702826063
-0.003766094909122916,0.01717089145071254
-0.003765924909122916,0.01578852202502366
-0.003765754909122916,0.01489985596565062
-0.003765584909122916,0.01361622721322223
-0.003765414909122916,0.01325417807792276
-0.003765244909122916,0.01289212894262263
-0.003765074909122916,0.01322126452016754
-0.003764904909122916,0.01285921538486808
-0.003764734909122916,0.01249716624956795
-0.003764564909122916,0.01246425269181165
-0.003764394909122916,0.01150975951693123
-0.003764224909122916,0.01164141374794946
-0.003764054909122916,0.01164141374794952
-0.003763884909122916,0.01167432730570402
-0.003763714909122916,0.01187180865223136
-0.003763544909122916,0.01269464759609589
-0.003763374909122916,0.01302378317364086
-0.003763204909122916,0.01335291875118643
-0.003763034909122916,0.01328709163567744
-0.003762864909122916,0.01351748653995922
-0.003762694909122916,0.01401118990627757
-0.003762524909122916,0.01407701702178657
-0.003762354909122916,0.01434032548382314
-0.003762184909122916,0.01430741192606859
-0.003762014909122916,0.0153606457742125
-0.003761844909122916,0.01562395423625087
-0.003761674909122916,0.01582143558277821
-0.003761504909122916,0.01582143558277821
-0.003761334909122916,0.0157556084672691
-0.003761164909122916,0.01509733731217796
-0.003760994909122916,0.01374788144424357
-0.003760824909122916,0.01440615259933226
-0.003760654909122916,0.01223385778753149
-0.003760484909122916,0.01226677134528599
-0.003760314909122916,0.01216803067202238
-0.003760144909122916,0.01111479682387655
-0.003759974909122916,0.01081857480408607
-0.003759804909122916,0.01039069855327629
-0.003759634909122916,0.01032487143776718
-0.003759464909122916,0.01032487143776718
-0.003759294909122916,0.01048943922653996
-0.003759124909122916,0.01068692057306731
-0.003758954909122916,0.01104896970836677
-0.003758784909122916,0.01131227817040389
-0.003758614909122916,0.01177306797896769
-0.003758444909122916,0.0116085001901949
-0.003758274909122916,0.01197054932549503
-0.003758104909122916,0.01210220355651326
-0.003757934909122916,0.01170724086345858
-0.003757764909122916,0.0116085001901949
-0.003757594909122916,0.01220094422977693
-0.003757424909122916,0.01085148836184009
-0.003757254909122916,0.0116414137479491
-0.003757084909122916,0.01144393240142212
-0.003756914909122916,0.01098314259285832
-0.003756744909122916,0.01071983413082204
-0.003756574909122916,0.01081857480408553
-0.003756404909122916,0.01048943922653996
-0.003756234909122916,0.01085148836183889
-0.003756064909122916,0.01019321720674895
-0.003755894909122916,0.009929908744712493
-0.003755724909122916,0.009864081629203197
-0.003755554909122916,0.009765340955939707
-0.003755384909122916,0.009337464705130465
-0.003755214909122916,0.009074156243094126
-0.003755044909122916,0.009139983358603122
-0.003754874909122916,0.008843761338812107
-0.003754704909122916,0.008810847781058808
-0.003754534909122916,0.00950203249390325
-0.003754364909122916,0.009798254513694264
-0.003754194909122916,0.009699513840431431
-0.003754024909122916,0.01016030364899439
-0.003753854909122916,0.01042361211103085
-0.003753684909122916,0.009831168071449179
-0.003753514909122916,0.01002864941797616
-0.003753344909122916,0.01022613076450351
-0.003753174909122916,0.01025904432225591
-0.003753004909122916,0.009074156243094007
-0.003752834909122916,0.00950203249390325
-0.003752664909122916,0.009271637589621769
-0.003752494909122916,0.009469118936148692
-0.003752324909122916,0.009600773167166921
-0.003752154909122916,0.009107069800849464
-0.003751984909122916,0.008777934223302994
-0.003751814909122916,0.008481712203511979
-0.003751644909122916,0.008646279992284464
-0.003751474909122916,0.008876674896566664
-0.003751304909122916,0.009107069800848565
-0.003751134909122916,0.009370378262884543
-0.003750964909122916,0.009666600282676035
-0.003750794909122916,0.009107069800848565
-0.003750624909122916,0.00881084778105809
-0.003750454909122916,0.008317144414739193
-0.003750284909122916,0.007988008837193623
-0.003750114909122916,0.007889268163930131
-0.003749944909122916,0.00756013258638438
-0.003749774909122916,0.007955095279439066
-0.003749604909122916,0.00825131729922954
-0.003749434909122916,0.008317144414739193
-0.003749264909122916,0.008613366434530208
-0.003749094909122916,0.008843761338811687
-0.003748924909122916,0.008448798645757422
-0.003748754909122916,0.008580452876775651
-0.003748584909122916,0.008448798645757661
-0.003748414909122916,0.008086749510457293
-0.003748244909122916,0.007461391913120709
-0.003748074909122916,0.008646279992284765
-0.003747904909122916,0.008415885088002865
-0.003747734909122916,0.008514625761266537
-0.003747564909122916,0.007593046144138938
-0.003747394909122916,0.005914454698656525
-0.003747224909122916,0.004663739503983355
-0.003747054909122916,0.004104209022155884
-0.003746884909122916,0.004104209022155884
-0.003746714909122916,0.003643419213592085
-0.003746544909122916,0.003742159886855756
-0.003746374909122916,0.003281370078291358
-0.003746204909122916,0.002952234500746385
-0.003746034909122916,0.0030180616162555
-0.003745864909122916,0.003445937867064981
-0.003745694909122916,0.00357759209808297
-0.003745524909122916,0.004795393735001583
-0.003745354909122916,0.005486578447849378
-0.003745184909122916,0.006638552969256781
-0.003745014909122916,0.007889268163929951
-0.003744844909122916,0.008679193550040638
-0.003744674909122916,0.009403291820639578
-0.003744504909122916,0.009403291820639578
-0.003744334909122916,0.009995735860222146
-0.003744164909122916,0.01029195788001262
-0.003743994909122916,0.01065400701531275
-0.003743824909122916,0.01088440191959465
-0.003743654909122916,0.01088440191959465
-0.003743484909122916,0.01071983413082186
-0.003743314909122916,0.0102590443222568
-0.003743144909122916,0.009567859609412364
-0.003742974909122916,0.009469118936148692
-0.003742804909122916,0.008909588454319366
-0.003742634909122916,0.007889268163929951
-0.003742464909122916,0.007461391913120709
-0.003742294909122916,0.006506898738237416
-0.003742124909122916,0.005881541140901968
-0.003741954909122916,0.005420751332338168
-0.003741784909122916,0.00515744287030219
-0.003741614909122916,0.005025788639283483
-0.003741444909122916,0.004927047966019811
-0.003741274909122916,0.00482830729275632
-0.003741104909122916,0.00482830729275614
-0.003740934909122916,0.005124529312547154
-0.003740764909122916,0.006210676718445563
-0.003740594909122916,0.00700060210455691
-0.003740424909122916,0.007395564797611595
-0.003740254909122916,0.00769178681740207
-0.003740084909122916,0.008481712203511979
-0.003739914909122916,0.009008329127584893
-0.003739744909122916,0.009732427398183833
-0.003739574909122916,0.009929908744712493
-0.003739404909122916,0.009798254513694264
-0.003739234909122916,0.009699513840430773
-0.003739064909122916,0.01032487143776718
-0.003738894909122916,0.01068692057306731
-0.003738724909122916,0.01022613076450434
-0.003738554909122916,0.01104896970836743
-0.003738384909122916,0.01055526634204908
-0.003738214909122916,0.0103248714377676
-0.003738044909122916,0.009469118936148692
-0.003737874909122916,0.008876674896566664
-0.003737704909122916,0.008481712203512697
-0.003737534909122916,0.008415885088002865
-0.003737364909122916,0.007757613932911723
-0.003737194909122916,0.007625959701893495
-0.003737024909122916,0.007263910566593366
-0.003736854909122916,0.006408158064974882
-0.003736684909122916,0.006408158064974882
-0.003736514909122916,0.005618232678865511
-0.003736344909122916,0.005585319121110954
-0.003736174909122916,0.005091615754792597
-0.003736004909122916,0.0050916157547914
-0.003735834909122916,0.004433344599701455
-0.003735664909122916,0.004235863253174112
-0.003735494909122916,0.003906727675628541
-0.003735324909122916,0.003906727675628541
-0.003735154909122916,0.003840900560119427
-0.003734984909122916,0.004400431041947257
-0.003734814909122916,0.004597912388474241
-0.003734644909122916,0.004729566619492469
-0.003734474909122916,0.005058702197038459
-0.003734304909122916,0.00528909710131994
-0.003734134909122916,0.006013195371920196
-0.003733964909122916,0.005716973352129421
-0.003733794909122916,0.005848627583147411
-0.003733624909122916,0.00574988690988374
-0.003733454909122916,0.00607902248742937
-0.003733284909122916,0.006111936045183867
-0.003733114909122916,0.00700060210455691
-0.003732944909122916,0.007296824124348702
-0.003732774909122916,0.007724700375157166
-0.003732604909122916,0.007428478355366152
-0.003732434909122916,0.007691786817401532
-0.003732264909122916,0.007099342777820581
-0.003732094909122916,0.008086749510457293
-0.003731924909122916,0.008382971530248728
-0.003731754909122916,0.008613366434530208
-0.003731584909122916,0.009008329127584893
-0.003731414909122916,0.009074156243093887
-0.003731244909122916,0.008415885088002865
-0.003731074909122916,0.007395564797611595
-0.003730904909122916,0.0073297376821026
-0.003730734909122916,0.007593046144138938
-0.003730564909122916,0.007955095279439066
-0.003730394909122916,0.007527219028630601
-0.003730224909122916,0.007296824124347924
-0.003730054909122916,0.006868947873538681
-0.003729884909122916,0.006770207200275189
-0.003729714909122916,0.006342330949465767
-0.003729544909122916,0.005585319121110954
-0.003729374909122916,0.004532085272967042
-0.003729204909122916,0.0027876667119736
-0.003729034909122916,0.003939641233383098
-0.003728864909122916,0.007066429220060335
-0.003728694909122916,0.003281370078291956
-0.003728524909122916,0.002952234500746385
-0.003728354909122916,0.002688926038710407
-0.003728184909122916,0.0023268769034098
-0.003728014909122916,0.002886407385237271
-0.003727844909122916,0.003149715847273249
-0.003727674909122916,0.003840900560119427
-0.003727504909122916,0.004433344599701455
-0.003727334909122916,0.005025788639282405
-0.003727164909122916,0.004861220850510698
-0.003726994909122916,0.00574988690988374
-0.003726824909122916,0.006408158064974882
-0.003726654909122916,0.006704380084765896
-0.003726484909122916,0.007296824124347924
-0.003726314909122916,0.007099342777820581
-0.003726144909122916,0.007230997008838809
-0.003725974909122916,0.00756013258638438
-0.003725804909122916,0.007625959701893495
-0.003725634909122916,0.007494305470875266
-0.003725464909122916,0.007625959701893495
-0.003725294909122916,0.007856354606175394
-0.003725124909122916,0.00861336643452937
-0.003724954909122916,0.008152576625966409
-0.003724784909122916,0.008909588454321223
-0.003724614909122916,0.008679193550039741
-0.003724444909122916,0.008909588454321223
-0.003724274909122916,0.00881084778105755
-0.003724104909122916,0.009139983358601864
-0.003723934909122916,0.008448798645757422
-0.003723764909122916,0.00904124268533945
-0.003723594909122916,0.008843761338811209
-0.003723424909122916,0.008350057972493751
-0.003723254909122916,0.00802092239494818
-0.003723084909122916,0.008152576625965989
-0.003722914909122916,0.007922181721684508
-0.003722744909122916,0.007889268163929951
-0.003722574909122916,0.007988008837193562
-0.003722404909122916,0.007955095279439066
-0.003722234909122916,0.007395564797611595
-0.003722064909122916,0.006836034315782807
-0.003721894909122916,0.006111936045183867
-0.003721724909122916,0.005716973352129182
-0.003721554909122916,0.005684059794373967
-0.003721384909122916,0.005322010659074497
-0.003721214909122916,0.005091615754792597
-0.003721044909122916,0.004202949695419017
-0.003720874909122916,0.003906727675628541
-0.003720704909122916,0.004235863253174112
-0.003720534909122916,0.004499171715210091
-0.003720364909122916,0.004235863253174112
-0.003720194909122916,0.004334603926437783
-0.003720024909122916,0.004367517484192281
-0.003719854909122916,0.004071295464401327
-0.003719684909122916,0.005815714025392853
