Analysis/files/wrd01_d2s01/cmb06_ch47.csv

#Digilent WaveForms Oscilloscope Acquisition
#Device Name: ADP3450
#Serial Number: SN:210018B9D9B0
#Date Time: 2024-08-14 15:55:05.635.324.080
#Sample rate: 5.88235e+06Hz
#Samples: 32768
#Trigger: Source: Channel 3 Type: Edge Condition: Rising Level: 60 mV Hyst.: Auto HoldOff: 0 s
#Channel 3: Range: 100 mV/div Offset: 0 V Attenuation: 1 X Coupling: DC Bandwidth: 0 Hz Sample Mode: Average

Time (s),Channel 3 (V)
-0.003798457868818471,0.2096164636416105
-0.00379828786881847,0.221991961357361
-0.00379811786881847,0.2321951642612682
-0.003797947868818471,0.2408843435084512
-0.003797777868818471,0.2472037465973247
-0.003797607868818471,0.2527003107423257
-0.003797437868818471,0.2560904071910451
-0.00379726786881847,0.2589868002734521
-0.00379709786881847,0.2606324781611757
-0.003796927868818471,0.2611261815274911
-0.003796757868818471,0.2604349968146441
-0.003796587868818471,0.2590526273889552
-0.003796417868818471,0.2567157647883817
-0.00379624786881847,0.25411559372576
-0.00379607786881847,0.2509229786235679
-0.003795907868818471,0.2476974499636269
-0.003795737868818471,0.2443073535149063
-0.003795567868818471,0.2402918994688577
-0.003795397868818471,0.2365068403270836
-0.00379522786881847,0.2325901269542765
-0.00379505786881847,0.2285088457927129
-0.003794887868818471,0.2248554408819639
-0.003794717868818471,0.2213007766444717
-0.003794547868818471,0.2177131988492315
-0.003794377868818471,0.2137306583609301
-0.003794207868818471,0.2098797721036539
-0.00379403786881847,0.2061605400773686
-0.003793867868818471,0.2024742216088656
-0.003793697868818471,0.1992157793911644
-0.003793527868818471,0.1958915100579601
-0.003793357868818471,0.1921722780316952
-0.003793187868818471,0.1886176137942095
-0.00379301786881847,0.1857870478272977
-0.003792847868818471,0.1821007293587951
-0.003792677868818471,0.1790068549298676
-0.003792507868818471,0.1764066838672623
-0.003792337868818471,0.1727203653987519
-0.003792167868818471,0.1697252316430927
-0.00379199786881847,0.1668946656761872
-0.003791827868818471,0.1646565437488799
-0.003791657868818471,0.1615955828777064
-0.003791487868818471,0.1587321033530652
-0.003791317868818471,0.1569218576765645
-0.003791147868818471,0.1536305019011148
-0.00379097786881847,0.1513594664160324
-0.00379080786881847,0.1480681106405839
-0.003790637868818471,0.1454679395779733
-0.003790467868818471,0.1425057193800685
-0.003790297868818471,0.1393789313933856
-0.003790127868818471,0.1366800196575119
-0.00378995786881847,0.1333557503242878
-0.00378978786881847,0.1295377776247679
-0.003789617868818471,0.1267401252156298
-0.003789447868818471,0.1235145965556891
-0.003789277868818471,0.1210131661663427
-0.003789107868818471,0.1179851188529235
-0.00378893786881847,0.1154178613480608
-0.00378876786881847,0.1134430478827905
-0.003788597868818471,0.1112049259554794
-0.003788427868818471,0.1083085328730815
-0.003788257868818471,0.1070907312361651
-0.003788087868818471,0.1055437940217009
-0.00378791786881847,0.104029770364986
-0.00378774786881847,0.1025815738237883
-0.003787577868818471,0.1012321179558517
-0.003787407868818471,0.1000143163189329
-0.003787237868818471,0.09869777400875301
-0.003787067868818471,0.09731540458306162
-0.00378689786881847,0.09636091140817395
-0.00378672786881847,0.09484688775146252
-0.003786557868818471,0.09283916072843944
-0.003786387868818471,0.09152261841825646
-0.003786217868818471,0.0898111134150226
-0.003786047868818471,0.0882641762005584
-0.00378587786881847,0.08628936273527887
-0.00378570786881847,0.08461077128979455
-0.003785537868818471,0.08240556292024438
-0.003785367868818471,0.08082571214802514
-0.003785197868818471,0.07898255291377329
-0.003785027868818471,0.07694191233299078
-0.00378485786881847,0.07503292598322057
-0.00378468786881847,0.07342016165324788
-0.003784517868818471,0.0719719651120499
-0.003784347868818471,0.07045794145534026
-0.003784177868818471,0.06894391779863338
-0.003784007868818471,0.06825273308578769
-0.003783837868818471,0.06617917894725436
-0.00378366786881847,0.06479680952155213
-0.003783497868818471,0.0628549096140374
-0.003783327868818471,0.06124214528406373
-0.003783157868818471,0.05943189960756638
-0.003782987868818471,0.05788496239310219
-0.003782817868818471,0.05600888960109585
-0.00378264786881847,0.05462652017539685
-0.003782477868818471,0.05347454565398945
-0.003782307868818471,0.05232257113258127
-0.003782137868818471,0.05189469488177281
-0.003781967868818471,0.05130225084219078
-0.003781797868818471,0.05087437459138231
-0.00378162786881847,0.050117362763026
-0.003781457868818471,0.0499198814164986
-0.003781287868818471,0.04949200516568828
-0.003781117868818471,0.04847168487529886
-0.003780947868818471,0.0502819305517995
-0.003780777868818471,0.04768175948919422
-0.00378060786881847,0.04929452381915884
-0.00378043786881847,0.04820837641326211
-0.003780267868818471,0.04804380862448908
-0.003780097868818471,0.04774758660469861
-0.003779927868818471,0.0472209696806257
-0.003779757868818471,0.04682600698757101
-0.00377958786881847,0.0464639578522692
-0.00377941786881847,0.04600316804370565
-0.003779247868818471,0.04521324265759699
-0.003779077868818471,0.04481827996454302
-0.003778907868818471,0.04432457659822467
-0.003778737868818471,0.04317260207681517
-0.00377856786881847,0.04261307159498435
-0.00377839786881847,0.04169149197785812
-0.003778227868818471,0.04060534457195852
-0.003778057868818471,0.03994707341686726
-0.003777887868818471,0.03922297514626832
-0.003777717868818471,0.03899258024198642
-0.00377754786881847,0.03747855658527367
-0.00377737786881847,0.03662280408365867
-0.003777207868818471,0.03682028543018499
-0.003777037868818471,0.03645823629488475
-0.003776867868818471,0.03603036004407627
-0.003776697868818471,0.0349442126381759
-0.00377652786881847,0.03474673129164795
-0.00377635786881847,0.03458216350287385
-0.003776187868818471,0.03405554657880124
-0.003776017868818471,0.03316688051942885
-0.003775847868818471,0.0326402635953569
-0.003775677868818471,0.03211364667128398
-0.00377550786881847,0.03089584503436226
-0.00377533786881847,0.03004009253274581
-0.003775167868818471,0.02974387051295515
-0.003774997868818471,0.02934890781989897
-0.003774827868818471,0.02813110618298257
-0.003774657868818471,0.02770322993217333
-0.00377448786881847,0.02648542829525352
-0.00377431786881847,0.02615629271770819
-0.003774147868818471,0.02589298425567107
-0.003773977868818471,0.02500431819629887
-0.003773807868818471,0.02457644194549041
-0.003773637868818471,0.02381943011713559
-0.003773467868818471,0.02296367761551867
-0.00377329786881847,0.02227249290266746
-0.003773127868818471,0.02118634549677084
-0.003772957868818471,0.02108760482350616
-0.003772787868818471,0.02042933366841621
-0.003772617868818471,0.01973814895557051
-0.003772447868818471,0.01947484049353453
-0.00377227786881847,0.01924444558925107
-0.003772107868818471,0.01894822356946048
-0.003771937868818471,0.01858617443416113
-0.003771767868818471,0.01865200154967013
-0.003771597868818471,0.01842160664538823
-0.003771427868818471,0.0186849151074242
-0.00377125786881847,0.01499859663892758
-0.003771087868818471,0.01865200154966845
-0.003770917868818471,0.01773042193254247
-0.003770747868818471,0.01769750837478797
-0.003770577868818471,0.01769750837478797
-0.003770407868818471,0.01671010164215305
-0.00377023786881847,0.01618348471807523
-0.003770067868818471,0.01532773221645776
-0.003769897868818471,0.01417575769504988
-0.003769727868818471,0.0139124492330139
-0.003769557868818471,0.01312252384690453
-0.003769387868818471,0.01289212894262263
-0.00376921786881847,0.0130237831736423
-0.00376904786881847,0.01341874586669644
-0.003768877868818471,0.01391244923301516
-0.003768707868818471,0.0146036339458596
-0.003768537868818471,0.01526190510095074
-0.003768367868818471,0.0155252135629872
-0.00376819786881847,0.01565686779400687
-0.00376802786881847,0.01605183048706209
-0.003767857868818471,0.01713797789296002
-0.003767687868818471,0.01687466943092482
-0.003767517868818471,0.01730254568173328
-0.003767347868818471,0.01723671856622417
-0.00376717786881847,0.01700632366194203
-0.00376700786881847,0.01694049654643279
-0.003766837868818471,0.01674301519990474
-0.003766667868818471,0.01615057116032247
-0.003766497868818471,0.01542647288972353
-0.003766327868818471,0.01496568308115973
-0.00376615786881847,0.01493276952340182
-0.00376598786881847,0.01401118990627662
-0.003765817868818471,0.01374788144424004
-0.003765647868818471,0.01315543740465903
-0.003765477868818471,0.01312252384690453
-0.003765307868818471,0.01190472220998592
-0.00376513786881847,0.01160850019019466
-0.00376496786881847,0.01154267307468376
-0.003764797868818471,0.01098314259285862
-0.003764627868818471,0.01114771038163003
-0.003764457868818471,0.01055526634204908
-0.003764287868818471,0.01039069855327629
-0.00376411786881847,0.01042361211103025
-0.00376394786881847,0.01025904432225914
-0.003763777868818471,0.01055526634204908
-0.003763607868818471,0.01055526634204932
-0.003763437868818471,0.01068692057306731
-0.003763267868818471,0.01016030364899439
-0.003763097868818471,0.01039069855327587
-0.00376292786881847,0.01019321720674787
-0.003762757868818471,0.009896995186957636
-0.003762587868818471,0.00973242739818527
-0.003762417868818471,0.009798254513694264
-0.003762247868818471,0.009205810474112236
-0.003762077868818471,0.00917289691635774
-0.00376190786881847,0.008053835952707047
-0.003761737868818471,0.009238724031865056
-0.003761567868818471,0.008284230856985833
-0.003761397868818471,0.008942502012075779
-0.003761227868818471,0.00779052749066628
-0.003761057868818471,0.007658873259648291
-0.00376088786881847,0.006934774989045281
-0.003760717868818471,0.006243590276201378
-0.003760547868818471,0.005848627583146513
-0.003760377868818471,0.005354924216829054
-0.003760207868818471,0.004762480177247026
-0.003760037868818471,0.004729566619492529
-0.00375986786881847,0.004268776810928311
-0.003759697868818471,0.004170036137666915
-0.003759527868818471,0.005223269985809209
-0.003759357868818471,0.004334603926437783
-0.003759187868818471,0.004433344599701455
-0.003759017868818471,0.005420751332336372
-0.00375884786881847,0.004828307292757936
-0.00375867786881847,0.005322010659074377
-0.003758507868818471,0.005256183543564904
-0.003758337868818471,0.004992875081528926
-0.003758167868818471,0.004532085272965126
-0.003757997868818471,0.004301690368683227
-0.00375782786881847,0.004137122579907328
-0.00375765786881847,0.003281370078292735
-0.003757487868818471,0.003709246329100181
-0.003757317868818471,0.003149715847273189
-0.003757147868818471,0.002853493827482714
-0.003756977868818471,0.002129395556882458
-0.00375680786881847,0.002524358249937382
-0.00375663786881847,0.002590185365446856
-0.003756467868818471,0.002919320942991768
-0.003756297868818471,0.002886407385236074
-0.003756127868818471,0.002228136230146129
-0.003755957868818471,0.002392704018918914
-0.00375578786881847,0.002524358249937502
-0.00375561786881847,0.002623098923201173
-0.003755447868818471,0.002721839596464306
-0.003755277868818471,0.002623098923200874
-0.003755107868818471,0.002656012480955371
-0.003754937868818471,0.002425617576673472
-0.00375476786881847,0.002261049787900207
-0.00375459786881847,0.00212939555688138
-0.003754427868818471,0.001833173537090665
-0.003754257868818471,0.001405297286281662
-0.003754087868818471,0.001109075266491187
-0.003753917868818471,0.001010334593227516
-0.00375374786881847,0.001569865075055945
-0.00375357786881847,0.001833173537091563
-0.003753407868818471,0.00186608709484636
-0.003753237868818471,0.00206356844137466
-0.003753067868818471,0.0027876667119736
-0.003752897868818471,0.002623098923200814
-0.003752727868818471,0.002721839596464306
-0.00375255786881847,0.003380110751551437
-0.003752387868818471,0.002228136230145231
-0.003752217868818471,0.001734432863830167
-0.003752047868818471,0.003050975174010056
-0.003751877868818471,0.002392704018918914
-0.003751707868818471,0.002228136230146428
-0.00375153786881847,0.001899000652598762
-0.003751367868818471,0.001405297286281962
-0.003751197868818471,0.001273643055263913
-0.003751027868818471,0.001240729497509416
-0.003750857868818471,0.001372383728527644
-0.003750687868818471,0.001767346421581611
-0.00375051786881847,0.002524358249937741
-0.003750347868818471,0.002688926038712443
-0.003750177868818471,0.004071295464402464
-0.003750007868818471,0.004696653061737912
-0.003749837868818471,0.005322010659074497
-0.003749667868818471,0.006046108929673437
-0.00374949786881847,0.006605639411503901
-0.003749327868818471,0.007066429220065605
-0.003749157868818471,0.006836034315785861
-0.003748987868818471,0.00779052749066628
-0.003748817868818471,0.007099342777820581
-0.003748647868818471,0.007000602104557089
-0.00374847786881847,0.007000602104554754
-0.00374830786881847,0.006408158064974284
-0.003748137868818471,0.006079022487428891
-0.003747967868818471,0.005848627583147411
-0.003747797868818471,0.005025788639283483
-0.003747627868818471,0.004400431041946898
-0.00374745786881847,0.00413712257991092
-0.00374728786881847,0.004268776810928191
-0.003747117868818471,0.004005468348892093
-0.003746947868818471,0.003939641233383098
-0.003746777868818471,0.003544678540328413
-0.003746607868818471,0.003116802289519171
-0.00374643786881847,0.002919320942990391
-0.00374626786881847,0.002524358249936904
-0.003746097868818471,0.002392704018918795
-0.003745927868818471,0.002326876903409022
-0.003745757868818471,0.001899000652600558
-0.003745587868818471,0.002063568441373343
-0.00374541786881847,0.001964827768109073
-0.00374524786881847,0.001800259979337006
-0.003745077868818471,0.001833173537091623
-0.003744907868818471,0.001931914210355654
-0.003744737868818471,0.002228136230146129
-0.003744567868818471,0.002096481999127901
-0.00374439786881847,0.002228136230146848
-0.00374422786881847,0.002425617576673113
-0.003744057868818471,0.0023268769034098
-0.003743887868818471,0.002326876903410639
-0.003743717868818471,0.0027876667119736
-0.003743547868818471,0.0030180616162555
-0.00374337786881847,0.003413024309311741
-0.00374320786881847,0.003840900560120385
-0.003743037868818471,0.004104209022157381
-0.003742867868818471,0.004927047966018374
-0.003742697868818471,0.004137122579910441
-0.003742527868818471,0.004729566619492469
-0.00374235786881847,0.005420751332338168
-0.00374218786881847,0.005420751332338766
-0.003742017868818471,0.005585319121110894
-0.003741847868818471,0.00555240556335496
-0.003741677868818471,0.004762480177247026
-0.003741507868818471,0.004663739503983355
-0.003741337868818471,0.004466258157456372
-0.00374116786881847,0.004894134408259986
-0.003740997868818471,0.003445937867064862
-0.003740827868818471,0.003511764982573437
-0.003740657868818471,0.003281370078291956
-0.003740487868818471,0.003182629405028285
-0.003740317868818471,0.003018061616255799
-0.00374014786881847,0.002228136230144692
-0.003739977868818471,0.001833173537091204
-0.003739807868818471,0.001701519306072317
-0.003739637868818471,0.001207815939754859
-0.003739467868818471,0.00130655661301853
-0.003739297868818471,0.00153695151730001
-0.00373912786881847,0.0007799396889470531
-0.003738957868818471,0.001174902382000002
-0.003738787868818471,0.001010334593228115
-0.003738617868818471,0.001339470170773087
-0.003738447868818471,0.001569865075054987
-0.003738277868818471,0.001405297286282501
-0.00373810786881847,0.001273643055262656
-0.00373793786881847,0.0009115939199629466
-0.003737767868818471,0.0004178905536445301
-0.003737597868818471,-0.0001087263704274257
-0.003737427868818471,-0.0004049483902184396
-0.003737257868818471,-0.0006682568522548965
-0.00373708786881847,-0.0006024297367456626
-0.00373691786881847,-0.0005695161789917042
-0.003736747868818471,-0.0008328246410270235
-0.003736577868818471,-0.0004707755057275538
-0.003736407868818471,0.0001874956493635883
-0.003736237868818471,-9.985697163754359e-06
-0.00373606786881847,0.0008128532467028076
-0.00373589786881847,0.001536951517299172
-0.003735727868818471,0.0008457668044572449
-0.003735557868818471,0.002228136230146189
-0.003735387868818471,0.002261049787900686
-0.003735217868818471,0.002458531134428029
-0.00373504786881847,0.003149715847272291
-0.00373487786881847,0.002754753154219342
-0.003734707868818471,0.002919320942991768
-0.003734537868818471,0.002886407385237331
-0.003734367868818471,0.002919320942991828
-0.003734197868818471,0.002853493827482714
-0.00373402786881847,0.002919320942994582
-0.00373385786881847,0.003676332771343049
-0.003733687868818471,0.002688926038713042
-0.003733517868818471,0.004400431041947736
-0.003733347868818471,0.004861220850510698
-0.003733177868818471,0.00357759209808297
-0.00373300786881847,0.003643419213593162
-0.00373283786881847,0.003939641233385254
-0.003732667868818471,0.004532085272965126
-0.003732497868818471,0.004532085272965665
-0.003732327868818471,0.00482830729275614
-0.003732157868818471,0.00505870219703804
-0.00373198786881847,0.004861220850510698
-0.00373181786881847,0.004861220850508901
-0.003731647868818471,0.004367517484191982
-0.003731477868818471,0.00417003613766446
-0.003731307868818471,0.003873814117873984
-0.003731137868818471,0.00357759209808297
-0.003730967868818471,0.00298514805850202
-0.00373079786881847,0.003248456520531053
-0.003730627868818471,0.001504037959545693
-0.003730457868818471,0.001405297286283159
-0.003730287868818471,0.001931914210355115
-0.003730117868818471,0.00107616170873663
-0.003729947868818471,0.001141988824245625
-0.00372977786881847,0.001866087094847198
-0.003729607868818471,0.002195222672391153
-0.003729437868818471,0.00196482776811069
-0.003729267868818471,0.002524358249937143
-0.003729097868818471,0.002392704018918914
-0.003728927868818471,0.002293963345655423
-0.00372875786881847,0.001701519306073096
-0.003728587868818471,0.001668605748317401
-0.003728417868818471,0.0009774210354721207
-0.003728247868818471,0.0005166312269091594
-0.003728077868818471,0.0003849769958909309
-0.003727907868818471,5.584141834595857e-05
-0.00372773786881847,-9.985697164832009e-06
-0.00372756786881847,-0.0003062077169547683
-0.003727397868818471,-0.0003062077169556065
-0.003727227868818471,-0.0007669975255185678
-0.003727057868818471,-0.0007999110832731249
-0.003726887868818471,-0.0007669975255185678
-0.00372671786881847,-0.0007011704100081365
-0.00372654786881847,-0.0003391212747087267
-0.003726377868818471,-9.985697162856318e-06
-0.003726207868818471,0.0004837176691546022
-0.003726037868818471,-9.985697163754359e-06
-0.003725867868818471,0.0001874956493635883
-0.00372569786881847,0.0005166312269085607
-0.00372552786881847,0.0003520634381366133
-0.003725357868818471,0.0004837176691544825
-0.003725187868818471,0.0004178905536456078
-0.003725017868818471,0.0004837176691546022
-0.003724847868818471,0.001043248150982073
-0.00372467786881847,0.001471124401792632
-0.00372450786881847,0.001833173537092581
-0.003724337868818471,0.002458531134428747
-0.003724167868818471,0.002853493827488761
-0.003723997868818471,0.006177763160692982
-0.003723827868818471,0.004466258157456012
-0.00372365786881847,0.004663739503985151
-0.00372348786881847,0.00515744287030219
-0.003723317868818471,0.005289097101320478
-0.003723147868818471,0.005585319121111193
-0.003722977868818471,0.005716973352129182
-0.003722807868818471,0.005684059794374625
-0.00372263786881847,0.005453664890093204
-0.00372246786881847,0.005585319121110116
-0.003722297868818471,0.00535492421682648
-0.003722127868818471,0.003939641233383757
-0.003721957868818471,0.004301690368683227
-0.003721787868818471,0.003413024309310185
-0.00372161786881847,0.002787666711970726
-0.00372144786881847,0.001997741325863511
-0.003721277868818471,0.001800259979336168
-0.003721107868818471,0.001405297286281363
-0.003720937868818471,0.0009445074777184018
-0.003720767868818471,0.00176734642158233
-0.003720597868818471,0.001536951517300849
-0.00372042786881847,0.002063568441374421
-0.003720257868818471,0.002359790461164238
-0.003720087868818471,0.002293963345655183
-0.003719917868818471,0.002261049787900686
-0.003719747868818471,0.001833173537091444
