Analysis/files/wrd01_d2s01/cmb01_ch27.csv

#Digilent WaveForms Oscilloscope Acquisition
#Device Name: ADP3450
#Serial Number: SN:210018B9D9B0
#Date Time: 2024-08-14 14:57:16.475.785.600
#Sample rate: 5.88235e+06Hz
#Samples: 32768
#Trigger: Source: Channel 3 Type: Edge Condition: Rising Level: 50 mV Hyst.: Auto HoldOff: 0 s
#Channel 3: Range: 100 mV/div Offset: 0 V Attenuation: 1 X Coupling: DC Bandwidth: 0 Hz Sample Mode: Average

Time (s),Channel 3 (V)
-0.00379846026933195,0.1978992370809881
-0.003798290269331949,0.2131053007636191
-0.003798120269331949,0.2271593899247894
-0.00379795026933195,0.239304492736221
-0.003797780269331949,0.2496393498711682
-0.003797610269331949,0.2585918375803914
-0.00379744026933195,0.2663594372104669
-0.003797270269331949,0.2723826182795585
-0.003797100269331949,0.2765955536721342
-0.00379693026933195,0.2798210823320808
-0.003796760269331949,0.2816642415663372
-0.003796590269331949,0.2823225127214271
-0.00379642026933195,0.281664241566336
-0.003796250269331949,0.2805780941604315
-0.003796080269331949,0.2783399722331257
-0.00379591026933195,0.2753777520352155
-0.003795740269331949,0.2714610386624177
-0.003795570269331949,0.2683671642334949
-0.00379540026933195,0.2645162779762117
-0.003795230269331949,0.2601387747948479
-0.003795060269331949,0.2559258394022723
-0.00379489026933195,0.2516470768941799
-0.00379472026933195,0.2477303635213947
-0.003794550269331949,0.2435832552443134
-0.00379438026933195,0.2388107893699026
-0.00379421026933195,0.2351244709013989
-0.003794040269331949,0.2314381524328818
-0.00379387026933195,0.227784747522126
-0.00379370026933195,0.2245921324199397
-0.003793530269331949,0.2202475427963324
-0.003793360269331949,0.2178448530802497
-0.00379319026933195,0.2140597939384825
-0.003793020269331949,0.2107026110475108
-0.003792850269331949,0.2069504654634913
-0.00379268026933195,0.2035603690147781
-0.003792510269331949,0.1999398776617707
-0.003792340269331949,0.1967472625595786
-0.00379217026933195,0.1936863016884104
-0.003792000269331949,0.1904278594707036
-0.003791830269331949,0.1876302070615663
-0.00379166026933195,0.1821665564743198
-0.003791490269331949,0.1797309532004726
-0.003791320269331949,0.1771966092533717
-0.00379115026933195,0.1746951788640299
-0.003790980269331949,0.1717658722238698
-0.003790810269331949,0.1688036520259596
-0.00379064026933195,0.1658085182703004
-0.003790470269331949,0.1631096065344213
-0.003790300269331949,0.1600486456632474
-0.00379013026933195,0.1573497339273738
-0.003789960269331949,0.1549470442112911
-0.003789790269331949,0.1520506511288901
-0.00378962026933195,0.1489896902577163
-0.003789450269331949,0.1463566056373517
-0.003789280269331949,0.1439210023635145
-0.00378911026933195,0.1416170533206955
-0.003788940269331949,0.1394118449511352
-0.003788770269331949,0.1367129332152665
-0.00378860026933195,0.134441897730202
-0.003788430269331949,0.1323025164761512
-0.003788260269331949,0.1297352589713004
-0.00378809026933195,0.1278920997370452
-0.003787920269331949,0.1259501998295222
-0.003787750269331949,0.1237120779022164
-0.00378758026933195,0.1216385237636793
-0.003787410269331949,0.1198611916449299
-0.003787240269331949,0.118018032410678
-0.00378707026933195,0.1146608495197132
-0.003786900269331949,0.1136405292293185
-0.003786730269331949,0.1117315428795576
-0.00378656026933195,0.1095592480677569
-0.003786390269331949,0.1077819159490068
-0.003786220269331949,0.10560962113721
-0.00378605026933195,0.1034702398831638
-0.003785880269331949,0.1015283399756423
-0.003785710269331949,0.100113056992199
-0.00378554026933195,0.09833572487345288
-0.003785370269331949,0.09596594871512416
-0.003785200269331949,0.09563681313757921
-0.00378503026933195,0.09290498784395096
-0.003784860269331949,0.09152261841825675
-0.003784690269331949,0.08997568120379537
-0.00378452026933195,0.08800086773852195
-0.00378435026933195,0.08638810340855159
-0.003784180269331949,0.08530195600264825
-0.00378401026933195,0.08444620350102977
-0.00378384026933195,0.08336005609513136
-0.003783670269331949,0.08260304426677459
-0.00378350026933195,0.08178020532291067
-0.00378333026933195,0.08069405791701223
-0.003783160269331949,0.08029909522395559
-0.00378299026933195,0.07927877493356431
-0.00378282026933195,0.07878507156724686
-0.003782650269331949,0.07789640550787291
-0.003782480269331949,0.07717230723727267
-0.00378231026933195,0.07615198694688324
-0.003782140269331949,0.07272897694040745
-0.003781970269331949,0.07371638367304417
-0.00378180026933195,0.07295937184469072
-0.003781630269331949,0.07177448376552531
-0.003781460269331949,0.07118203972594328
-0.00378129026933195,0.07012880587779935
-0.003781120269331949,0.06887809068312428
-0.003780950269331949,0.06782485683497844
-0.00378078026933195,0.06617917894725359
-0.003780610269331949,0.06476389596380464
-0.003780440269331949,0.06367774855790426
-0.00378027026933195,0.06163710797712542
-0.003780100269331949,0.06111049105304879
-0.003779930269331949,0.06005725720490297
-0.00377976026933195,0.05916859114552993
-0.003779590269331949,0.05804953018187498
-0.003779420269331949,0.05729251835352017
-0.00377925026933195,0.05653550652516535
-0.003779080269331949,0.0558114082545651
-0.003778910269331949,0.05508730998396484
-0.00377874026933195,0.053737854116028
-0.003778570269331949,0.05268462026788218
-0.003778400269331949,0.0528162744989004
-0.00377823026933195,0.05113768305341799
-0.003778060269331949,0.05005153564751653
-0.003777890269331949,0.04945909160793558
-0.00377772026933195,0.04906412891488089
-0.003777550269331949,0.04755010525817049
-0.003777380269331949,0.04712222900736202
-0.00377721026933195,0.04679309342981645
-0.003777040269331949,0.04620064939023424
-0.003776870269331949,0.04610190871697075
-0.00377670026933195,0.04570694602391607
-0.003776530269331949,0.04485119352229806
-0.003776360269331949,0.04511450198433404
-0.00377619026933195,0.04452205794475201
-0.003776020269331949,0.04439040371373306
-0.003775850269331949,0.0439954410206791
-0.00377568026933195,0.04406126813618821
-0.003775510269331949,0.04425874948271448
-0.003775340269331949,0.04366630544313353
-0.00377517026933195,0.04340299698109707
-0.003775000269331949,0.0431067749613048
-0.003774830269331949,0.04241559024846036
-0.00377466026933195,0.04202062755540567
-0.003774490269331949,0.04159275130459493
-0.003774320269331949,0.0407699123607325
-0.00377415026933195,0.04063825812971427
-0.003773980269331949,0.04021038187890419
-0.003773810269331949,0.03974959207034123
-0.00377364026933195,0.03895966668423186
-0.00377347026933195,0.03836722264465091
-0.003773300269331949,0.03774186504731325
-0.00377313026933195,0.03675445831467653
-0.00377296026933195,0.03612910071734109
-0.003772790269331949,0.0337922381167664
-0.00377262026933195,0.03596453292856716
-0.00377245026933195,0.03343018898147088
-0.003772280269331949,0.03257443647984778
-0.003772110269331949,0.03194907888251119
-0.00377194026933195,0.03155411618945723
-0.003771770269331949,0.03106041282313815
-0.003771600269331949,0.03092875859211993
-0.00377143026933195,0.03069836368783845
-0.003771260269331949,0.03017174676376511
-0.003771090269331949,0.02994135185948321
-0.00377092026933195,0.03020466032151919
-0.003770750269331949,0.0298755247439741
-0.003770580269331949,0.02931599426214663
-0.00377041026933195,0.02925016714663764
-0.003770240269331949,0.0289539451268465
-0.003770070269331949,0.02885520445358283
-0.00376990026933195,0.02852606887603786
-0.003769730269331949,0.02846024176052814
-0.003769560269331949,0.02901977224235561
-0.00376939026933195,0.0271107858925913
-0.003769220269331949,0.02776905704768244
-0.003769050269331949,0.02727535368136409
-0.00376888026933195,0.02671582319953662
-0.003768710269331949,0.0261892062754637
-0.003768540269331949,0.02533345377384522
-0.00376837026933195,0.02447770127222673
-0.003768200269331949,0.02372068944387192
-0.003768030269331949,0.02316115896204445
-0.00376786026933195,0.02270036915348065
-0.003767690269331949,0.02207501155614406
-0.003767520269331949,0.02207501155614406
-0.00376735026933195,0.0217458759785985
-0.003767180269331949,0.02184461665186217
-0.003767010269331949,0.02184461665186217
-0.00376684026933195,0.02227249290267141
-0.003766670269331949,0.02246997424919947
-0.003766500269331949,0.02286493694225343
-0.00376633026933195,0.02309533184653534
-0.003766160269331949,0.02302950473102622
-0.003765990269331949,0.02302950473102622
-0.00376582026933195,0.02316115896204445
-0.003765650269331949,0.02260162848021716
-0.003765480269331949,0.02270036915348065
-0.00376531026933195,0.02230540646042596
-0.003765140269331949,0.02243706069144323
-0.003764970269331949,0.02191044376737128
-0.00376480026933195,0.02210792511389862
-0.003764630269331949,0.02250288780695373
-0.003764460269331949,0.02273328271123521
-0.00376429026933195,0.02279910982674432
-0.003764120269331949,0.02316115896204481
-0.003763950269331949,0.02335864030857179
-0.00376378026933195,0.02335864030857179
-0.003763610269331949,0.02352320809734446
-0.003763440269331949,0.02345738098183546
-0.00376327026933195,0.02539928088935433
-0.00376310026933195,0.02335864030857551
-0.003762930269331949,0.02283202338449888
-0.00376276026933195,0.02246997424919875
-0.00376259026933195,0.02233832001818076
-0.003762420269331949,0.02276619626898976
-0.00376225026933195,0.02279910982674432
-0.00376208026933195,0.02335864030857078
-0.003761910269331949,0.02322698607755356
-0.00376174026933195,0.02325989963530812
-0.00376157026933195,0.0234573809818351
-0.003761400269331949,0.02322698607755356
-0.003761230269331949,0.02322698607755356
-0.00376106026933195,0.02260162848021812
-0.003760890269331949,0.02302950473102622
-0.003760720269331949,0.0217458759785985
-0.00376055026933195,0.02079138280371807
-0.003760380269331949,0.02062681501494355
-0.003760210269331949,0.0192115320314976
-0.00376004026933195,0.01805955751009019
-0.003759870269331949,0.01776333549029708
-0.003759700269331949,0.01730254568173328
-0.00375953026933195,0.0171050643352063
-0.003759360269331949,0.01647970673786936
-0.003759190269331949,0.01776333549029708
-0.00375902026933195,0.01667718808439867
-0.003758850269331949,0.01687466943092404
-0.003758680269331949,0.01638096606460569
-0.00375851026933195,0.01634805250685113
-0.003758340269331949,0.01647970673786936
-0.003758170269331949,0.01664427452664214
-0.00375800026933195,0.01638096606460569
-0.003757830269331949,0.01618348471807834
-0.003757660269331949,0.01588726269828733
-0.00375749026933195,0.015986003371551
-0.003757320269331949,0.01555812712074152
-0.003757150269331949,0.01542647288972353
-0.00375698026933195,0.01601891692930556
-0.003756810269331949,0.01582143558277827
-0.003756640269331949,0.01585434914053277
-0.00375647026933195,0.01618348471807834
-0.003756300269331949,0.01674301519990767
-0.003756130269331949,0.01776333549029708
-0.00375596026933195,0.01684175587316948
-0.003755790269331949,0.01509733731217981
-0.003755620269331949,0.01611765760256923
-0.00375545026933195,0.01677592875766037
-0.003755280269331949,0.01671010164215024
-0.003755110269331949,0.01615057116032378
-0.00375494026933195,0.01565686779400543
-0.003754770269331949,0.01592017625604219
-0.003754600269331949,0.01608474404481467
-0.00375443026933195,0.01638096606460569
-0.003754260269331949,0.01657844741113345
-0.003754090269331949,0.01680884231541493
-0.00375392026933195,0.01720380500846961
-0.003753750269331949,0.01986980318658527
-0.003753580269331949,0.01796081683682443
-0.00375341026933195,0.01786207616356076
-0.003753240269331949,0.01789498972131454
-0.003753070269331949,0.01746711347050607
-0.00375290026933195,0.01694049654643316
-0.00375273026933195,0.01657844741113369
-0.003752560269331949,0.015986003371551
-0.00375239026933195,0.01536064577421441
-0.00375222026933195,0.01575560846726838
-0.003752050269331949,0.01394536279076846
-0.00375188026933195,0.01410993057954124
-0.00375171026933195,0.01351748653996029
-0.003751540269331949,0.01364914077097745
-0.00375137026933195,0.01401118990627757
-0.00375120026933195,0.01384662211750509
-0.003751030269331949,0.01394536279076846
-0.003750860269331949,0.01401118990627757
-0.00375069026933195,0.01417575769505006
-0.003750520269331949,0.01374788144424112
-0.003750350269331949,0.0139124492330139
-0.00375018026933195,0.01434032548382237
-0.003750010269331949,0.01384662211750479
-0.003749840269331949,0.01394536279076846
-0.00374967026933195,0.0134187458666965
-0.003749500269331949,0.01266173403834073
-0.003749330269331949,0.01266173403834073
-0.00374916026933195,0.01197054932549629
-0.003748990269331949,0.01131227817040389
-0.003748820269331949,0.01134519172815845
-0.00374865026933195,0.01098314259285898
-0.003748480269331949,0.01075274768857642
-0.003748310269331949,0.01098314259285832
-0.00374814026933195,0.01127936461264933
-0.003747970269331949,0.01127936461264933
-0.003747800269331949,0.01210220355651326
-0.00374763026933195,0.0125300798073225
-0.003747460269331949,0.0134516594244501
-0.003747290269331949,0.01364914077097745
-0.00374712026933195,0.01427449836831403
-0.003746950269331949,0.01427449836831403
-0.003746780269331949,0.01430741192606859
-0.00374661026933195,0.01447197971484137
-0.003746440269331949,0.01457072038810438
-0.003746270269331949,0.01420867125280492
-0.00374610026933195,0.01463654750361416
-0.003745930269331949,0.01470237461912279
-0.003745760269331949,0.01443906615708682
-0.00374559026933195,0.0143732390415777
-0.003745420269331949,0.01410993057954065
-0.003745250269331949,0.01378079500199567
-0.00374508026933195,0.01355040009771377
-0.003744910269331949,0.0127933882693583
-0.003744740269331949,0.01243133913405883
-0.00374457026933195,0.01203637644100415
-0.003744400269331949,0.01022613076450823
-0.003744230269331949,0.01282630182711352
-0.00374406026933195,0.01164141374794946
-0.003743890269331949,0.01131227817040353
-0.003743720269331949,0.01111479682387655
-0.00374355026933195,0.01091731547734921
-0.003743380269331949,0.01101605615061234
-0.003743210269331949,0.01071983413082186
-0.00374304026933195,0.01213511711426782
-0.003742870269331949,0.01243133913405889
-0.003742700269331949,0.01246425269181339
-0.00374253026933195,0.0129908696158863
-0.003742360269331949,0.01378079500199585
-0.003742190269331949,0.01387953567525935
-0.00374202026933195,0.01489985596565062
-0.00374185026933195,0.01513025086993209
-0.003741680269331949,0.01519607798544163
-0.00374151026933195,0.01545938644747809
-0.00374134026933195,0.01470237461912465
-0.003741170269331949,0.01522899154319619
-0.00374100026933195,0.01443906615708682
-0.00374083026933195,0.01414284413729634
-0.003740660269331949,0.01387953567525935
-0.003740490269331949,0.01361622721322289
-0.00374032026933195,0.01315543740465993
-0.003740150269331949,0.0129908696158863
-0.003739980269331949,0.0129908696158863
-0.00373981026933195,0.01295795605813181
-0.003739640269331949,0.01315543740465909
-0.003739470269331949,0.01312252384690453
-0.00373930026933195,0.01338583230894051
-0.003739130269331949,0.01355040009771377
-0.003738960269331949,0.01374788144424112
-0.00373879026933195,0.01384662211750461
-0.003738620269331949,0.01430741192606859
-0.003738450269331949,0.01407701702178669
-0.00373828026933195,0.01401118990627769
-0.003738110269331949,0.01463654750361416
-0.003737940269331949,0.0148340288501415
-0.00373777026933195,0.01526190510094996
-0.003737600269331949,0.01578852202502366
-0.003737430269331949,0.01549230000523264
-0.00373726026933195,0.01536064577421441
-0.003737090269331949,0.01588726269828733
-0.003736920269331949,0.01588726269828733
-0.00373675026933195,0.01572269490951454
-0.003736580269331949,0.01608474404481467
-0.003736410269331949,0.01624931183358745
-0.00373624026933195,0.01618348471807834
-0.003736070269331949,0.01601891692930562
-0.003735900269331949,0.01605183048706011
-0.00373573026933195,0.01615057116032378
-0.003735560269331949,0.01608474404481497
-0.003735390269331949,0.01624931183358745
-0.00373522026933195,0.01638096606460569
-0.003735050269331949,0.0159860033715492
-0.003734880269331949,0.01499859663891429
-0.00373471026933195,0.01516316442768707
-0.003734540269331949,0.01427449836831409
-0.003734370269331949,0.01430741192606859
-0.00373420026933195,0.01381370855975023
-0.003734030269331949,0.01351748653996053
-0.003733860269331949,0.01424158481055947
-0.00373369026933195,0.01447197971484137
-0.003733520269331949,0.0141428441372961
-0.003733350269331949,0.01430741192606859
-0.00373318026933195,0.01394536279076846
-0.003733010269331949,0.01430741192606709
-0.003732840269331949,0.01348457298220466
-0.00373267026933195,0.01305669673139542
-0.003732500269331949,0.01289212894262389
-0.003732330269331949,0.01358331365546833
-0.00373216026933195,0.01318835096241365
-0.003731990269331949,0.01276047471160452
-0.003731820269331949,0.01282630182711352
-0.00373165026933195,0.01262882048058617
-0.00373148026933195,0.01262882048058617
-0.003731310269331949,0.01236551201854972
-0.00373114026933195,0.01305669673139542
-0.00373097026933195,0.0132541780779224
-0.003730800269331949,0.01335291875118643
-0.00373063026933195,0.01355040009771377
-0.00373046026933195,0.01351748653995928
-0.003730290269331949,0.01308961028914997
-0.00373012026933195,0.01332000519343187
-0.00372995026933195,0.01341874586669537
-0.003729780269331949,0.01295795605813175
-0.003729610269331949,0.01312252384690453
-0.00372944026933195,0.01289212894262305
-0.003729270269331949,0.01312252384690453
-0.003729100269331949,0.01295795605813175
-0.00372893026933195,0.01341874586669471
-0.003728760269331949,0.01318835096241365
-0.003728590269331949,0.013682054328732
-0.00372842026933195,0.01434032548382195
-0.003728250269331949,0.01499859663891429
-0.003728080269331949,0.01522899154319619
-0.00372791026933195,0.01578852202502264
-0.003727740269331949,0.01582143558277821
-0.003727570269331949,0.01631513894909657
-0.00372740026933195,0.01624931183358758
-0.003727230269331949,0.01601891692930556
-0.003727060269331949,0.01634805250685113
-0.00372689026933195,0.015986003371551
-0.003726720269331949,0.01608474404481467
-0.003726550269331949,0.01585434914053277
-0.00372638026933195,0.0157556084672691
-0.003726210269331949,0.01522899154319619
-0.003726040269331949,0.01516316442768707
-0.00372587026933195,0.0157556084672691
-0.003725700269331949,0.01434032548382314
-0.003725530269331949,0.01450489327259593
-0.00372536026933195,0.01631513894909657
-0.003725190269331949,0.01509733731217987
-0.003725020269331949,0.01615057116032378
-0.00372485026933195,0.01634805250685113
-0.003724680269331949,0.01585434914053307
-0.003724510269331949,0.01601891692930556
-0.00372434026933195,0.01582143558277821
-0.003724170269331949,0.0153277322164595
-0.003724000269331949,0.01513025086993251
-0.00372383026933195,0.01480111529238694
-0.003723660269331949,0.01509733731217556
-0.003723490269331949,0.01378079500199567
-0.00372332026933195,0.01351748653995922
-0.003723150269331949,0.01318835096241334
-0.003722980269331949,0.01302378317364086
-0.00372281026933195,0.01295795605813175
-0.003722640269331949,0.0128263018271128
-0.003722470269331949,0.01243133913405883
-0.00372230026933195,0.01223385778753149
-0.003722130269331949,0.01170724086345792
-0.003721960269331949,0.01134519172815845
-0.00372179026933195,0.01124645105489478
-0.003721620269331949,0.0110160561506127
-0.003721450269331949,0.01091731547734921
-0.00372128026933195,0.01052235278429452
-0.003721110269331949,0.01095022903510322
-0.003720940269331949,0.01065400701531275
-0.00372077026933195,0.01091731547734921
-0.00372060026933195,0.01134519172815767
-0.003720430269331949,0.01177306797896769
-0.00372026026933195,0.01210220355651326
-0.00372009026933195,0.01239842557630374
-0.003719920269331949,0.01249716624956795
-0.00371975026933195,0.01203637644100415
-0.00371958026933195,0.01190472220998616
-0.003719410269331949,0.01167432730570402
-0.003719240269331949,0.01150975951693123
-0.00371907026933195,0.01220094422977567
-0.003718900269331949,0.01203637644100415
-0.003718730269331949,0.01190472220998592
-0.00371856026933195,0.01226677134528539
-0.003718390269331949,0.01180598153672225
-0.003718220269331949,0.01236551201854972
