Analysis/files/wrd01_d2s01/cmb08_ch10.csv

#Digilent WaveForms Oscilloscope Acquisition
#Device Name: ADP3450
#Serial Number: SN:210018B9D9B0
#Date Time: 2024-08-14 17:27:54.721.175.010
#Sample rate: 5.88235e+06Hz
#Samples: 32768
#Trigger: Source: Channel 3 Type: Edge Condition: Rising Level: 60 mV Hyst.: Auto HoldOff: 0 s
#Channel 3: Range: 100 mV/div Offset: 0 V Attenuation: 1 X Coupling: DC Bandwidth: 0 Hz Sample Mode: Average

Time (s),Channel 3 (V)
-0.003798400866402456,0.2132040414368572
-0.003798230866402456,0.2247896137665036
-0.003798060866402456,0.2364080996538521
-0.003797890866402456,0.2452618466898094
-0.003797720866402456,0.2527332243000903
-0.003797550866402456,0.2582627020028458
-0.003797380866402456,0.2632655627815386
-0.003797210866402456,0.2657999067286471
-0.003797040866402456,0.2679063744249354
-0.003796870866402456,0.2690912625040941
-0.003796700866402456,0.2684988184645117
-0.003796530866402456,0.2677418066361583
-0.003796360866402456,0.266425264325976
-0.003796190866402455,0.2645491915339594
-0.003796020866402456,0.2626731187419471
-0.003795850866402456,0.2600729476793418
-0.003795680866402456,0.2574727766167313
-0.003795510866402456,0.2546422106498446
-0.003795340866402456,0.2512521142011252
-0.003795170866402455,0.2478291041946384
-0.003795000866402456,0.2443073535148993
-0.003794830866402456,0.2403577265843597
-0.003794660866402456,0.2364739267693219
-0.003794490866402456,0.2325572133965368
-0.003794320866402456,0.2287721542547627
-0.003794150866402456,0.224954181555241
-0.003793980866402456,0.221070381740183
-0.003793810866402456,0.2174169768294335
-0.003793640866402456,0.2135660905721507
-0.003793470866402456,0.2099126856614015
-0.003793300866402456,0.2065555027704366
-0.003793130866402456,0.202869184301933
-0.003792960866402456,0.1994132607376856
-0.003792790866402456,0.1960889914044816
-0.003792620866402456,0.1928634627445344
-0.003792450866402456,0.1892758849492941
-0.003792280866402456,0.1856553935962929
-0.003792110866402456,0.1823640378208432
-0.003791940866402456,0.178546065121296
-0.003791770866402456,0.1750901415570744
-0.003791600866402456,0.1719633535703918
-0.003791430866402456,0.1690340469302415
-0.003791260866402456,0.1658085182702949
-0.003791090866402456,0.1627475573991267
-0.003790920866402456,0.1577117830626684
-0.003790750866402456,0.1561977594059572
-0.003790580866402456,0.1523139595909204
-0.003790410866402456,0.1489238631422072
-0.003790240866402456,0.1457312480400151
-0.003790070866402456,0.1428348549576141
-0.003789900866402456,0.1396751534131662
-0.003789730866402456,0.1368116738885268
-0.003789560866402456,0.13496851465427
-0.003789390866402456,0.1322696029184013
-0.003789220866402456,0.1300314809910914
-0.003789050866402456,0.1275958777172541
-0.003788880866402456,0.1255881506942191
-0.003788710866402456,0.1236462507867046
-0.003788540866402456,0.1221651406877492
-0.003788370866402456,0.1205194628000204
-0.003788200866402456,0.1183142544304691
-0.003788030866402456,0.1166685765427412
-0.003787860866402456,0.1151216393282714
-0.003787690866402456,0.1135747021138098
-0.003787520866402456,0.111896110668328
-0.003787350866402456,0.1105466548003912
-0.003787180866402456,0.1092301124902113
-0.003787010866402456,0.1074856939292197
-0.003786840866402456,0.1063666329655585
-0.003786670866402456,0.1046222144045681
-0.003786500866402456,0.1032069314211239
-0.003786330866402456,0.101330858629115
-0.003786160866402456,0.09988266208791707
-0.003785990866402456,0.09807241641141642
-0.003785820866402455,0.09659130631245441
-0.003785650866402456,0.09468231996269022
-0.003785480866402456,0.09280624717068381
-0.003785310866402456,0.09089726082091998
-0.003785140866402456,0.08925158293319513
-0.003784970866402456,0.0871122016791489
-0.003784800866402455,0.08536778311815008
-0.003784630866402456,0.08336005609512233
-0.003784460866402456,0.08141815618760861
-0.003784290866402456,0.08036492233946202
-0.003784120866402456,0.07888381224050964
-0.003783950866402456,0.07789640550787291
-0.003783780866402456,0.07677734454422001
-0.003783610866402456,0.07529623444526135
-0.003783440866402456,0.07486835819445158
-0.003783270866402456,0.07371638367304321
-0.003783100866402456,0.07318976674897126
-0.003782930866402456,0.07233401424735278
-0.003782760866402456,0.0719061379965443
-0.003782590866402456,0.07075416347513092
-0.003782420866402456,0.06989841097351303
-0.003782250866402456,0.06851604154782295
-0.003782080866402456,0.067857770392733
-0.003781910866402456,0.06660705519805982
-0.003781740866402456,0.06538925356114345
-0.003781570866402456,0.06357900788464034
-0.003781400866402456,0.06351318076912835
-0.003781230866402456,0.06180167576589312
-0.003781060866402456,0.06104466393753968
-0.003780890866402456,0.06045221989795765
-0.003780720866402456,0.05966229451184972
-0.003780550866402456,0.05841157931717523
-0.003780380866402456,0.05844449287492817
-0.003780210866402456,0.05762165393106532
-0.003780040866402456,0.05739125902678384
-0.003779870866402456,0.05689755566046548
-0.003779700866402456,0.05637093873639257
-0.003779530866402456,0.05614054383210852
-0.003779360866402456,0.05554809979252673
-0.003779190866402456,0.05449486594438186
-0.003779020866402456,0.0539682490203099
-0.003778850866402456,0.05288210161440952
-0.003778680866402456,0.0523554846903366
-0.003778510866402456,0.0508414610336241
-0.003778340866402456,0.05005153564751497
-0.003778170866402456,0.0486033391063156
-0.003778000866402456,0.04778050016245173
-0.003777830866402456,0.0469905747763438
-0.003777660866402456,0.04600316804370708
-0.003777490866402456,0.0453778104463675
-0.003777320866402456,0.04455497150250549
-0.003777150866402456,0.04396252746292269
-0.003776980866402456,0.04294220717253231
-0.003776810866402456,0.04241559024846036
-0.003776640866402456,0.04195480043989656
-0.003776470866402456,0.0412307021692945
-0.003776300866402456,0.04073699880297639
-0.003776130866402456,0.04030912255216733
-0.003775960866402456,0.03955211072381179
-0.003775790866402456,0.03840013620240439
-0.003775620866402456,0.0377747786050678
-0.003775450866402455,0.03714942100772894
-0.003775280866402456,0.03652406341039152
-0.003775110866402456,0.03566831090877526
-0.003774940866402456,0.03517460754245635
-0.003774770866402456,0.03438468215634842
-0.003774600866402456,0.03372641100125728
-0.003774430866402455,0.03277191782637297
-0.003774260866402456,0.03217947378679262
-0.003774090866402456,0.03204781955577493
-0.003773920866402456,0.03208073311352888
-0.003773750866402456,0.03178451109373841
-0.003773580866402456,0.03208073311352942
-0.003773410866402456,0.03201490599802043
-0.003773240866402456,0.03158702974721071
-0.003773070866402456,0.03148828907394585
-0.003772900866402456,0.03063253657232801
-0.003772730866402456,0.03013883320601056
-0.003772560866402456,0.02948056205091941
-0.003772390866402456,0.02898685868460196
-0.003772220866402456,0.02882229089582516
-0.003772050866402456,0.02796653839421128
-0.003771880866402456,0.0287893773380718
-0.003771710866402456,0.02773614348992789
-0.003771540866402456,0.02681456387280029
-0.003771370866402456,0.02615629271771034
-0.003771200866402456,0.02572841646689715
-0.003771030866402456,0.02497140463854395
-0.003770860866402456,0.02434604704120845
-0.003770690866402456,0.02431313348345395
-0.003770520866402456,0.02421439281019028
-0.003770350866402456,0.02454352838773525
-0.003770180866402456,0.02428021992569831
-0.003770010866402456,0.0239839979059082
-0.003769840866402456,0.02388525723264542
-0.003769670866402456,0.02428021992569939
-0.003769500866402456,0.02460935550324496
-0.003769330866402456,0.02441187415671762
-0.003769160866402456,0.02428021992569939
-0.003768990866402456,0.02428021992569855
-0.003768820866402456,0.02381943011713613
-0.003768650866402456,0.02411565213692661
-0.003768480866402456,0.02404982502141749
-0.003768310866402456,0.0236548623283628
-0.003768140866402456,0.02362194877060729
-0.003767970866402456,0.02335864030857084
-0.003767800866402456,0.02283202338449816
-0.003767630866402456,0.02243706069144407
-0.003767460866402456,0.02237123357593508
-0.003767290866402456,0.02194335732512584
-0.003767120866402456,0.02197627088288111
-0.003766950866402456,0.0221737522294075
-0.003766780866402456,0.02204209799839011
-0.003766610866402456,0.02237123357593508
-0.003766440866402456,0.02237123357593508
-0.003766270866402456,0.0217458759785985
-0.003766100866402456,0.0224699742491942
-0.003765930866402456,0.02121925905452618
-0.003765760866402456,0.02138382684329903
-0.003765590866402456,0.02174587597859748
-0.003765420866402456,0.02118634549677102
-0.003765250866402456,0.02112051838126191
-0.003765080866402455,0.02062681501494247
-0.003764910866402456,0.02033059299515278
-0.003764740866402456,0.02039642011066064
-0.003764570866402456,0.01983688962883262
-0.003764400866402456,0.01898113712721569
-0.003764230866402456,0.01835577952987911
-0.003764060866402455,0.01782916260580428
-0.003763890866402456,0.01730254568172909
-0.003763720866402456,0.01615057116032217
-0.003763550866402456,0.0152619051009505
-0.003763380866402456,0.01513025086993251
-0.003763210866402456,0.0150644237544234
-0.003763040866402456,0.01483402885014192
-0.003762870866402456,0.01486694240789893
-0.003762700866402456,0.01565686779400495
-0.003762530866402456,0.01539355933196801
-0.003762360866402456,0.01486694240789606
-0.003762190866402456,0.01592017625604189
-0.003762020866402456,0.0157226949095149
-0.003761850866402456,0.01634805250685257
-0.003761680866402456,0.01674301519990576
-0.003761510866402456,0.01671010164215102
-0.003761340866402456,0.01657844741113303
-0.003761170866402456,0.01680884231541493
-0.003761000866402456,0.01671010164215144
-0.003760830866402456,0.01677592875766025
-0.003760660866402456,0.01674301519990569
-0.003760490866402456,0.01667718808439706
-0.003760320866402456,0.01687466943092404
-0.003760150866402456,0.01657844741113303
-0.003759980866402456,0.01631513894909705
-0.003759810866402456,0.01638096606460461
-0.003759640866402456,0.01608474404481341
-0.003759470866402456,0.01539355933196819
-0.003759300866402456,0.01496568308115973
-0.003759130866402456,0.01420867125280492
-0.003758960866402456,0.01427449836831391
-0.003758790866402456,0.01374788144423908
-0.003758620866402456,0.01318835096241334
-0.003758450866402456,0.01302378317363936
-0.003758280866402456,0.01220094422977693
-0.003758110866402456,0.0116085001901949
-0.003757940866402456,0.01091731547734921
-0.003757770866402456,0.01081857480408529
-0.003757600866402456,0.0107527476885766
-0.003757430866402456,0.01085148836183991
-0.003757260866402456,0.01075274768857756
-0.003757090866402456,0.011378105285913
-0.003756920866402456,0.01197054932549503
-0.003756750866402456,0.01246425269181554
-0.003756580866402456,0.01305669673139626
-0.003756410866402456,0.01351748653995916
-0.003756240866402456,0.01348457298220472
-0.003756070866402456,0.01351748653995922
-0.003755900866402456,0.0141428441372958
-0.003755730866402456,0.01470237461912279
-0.003755560866402456,0.01457072038810732
-0.003755390866402456,0.01519607798544199
-0.003755220866402456,0.01539355933196849
-0.003755050866402456,0.01513025086993251
-0.003754880866402456,0.01493276952340517
-0.003754710866402456,0.01480111529238874
-0.003754540866402456,0.01529481865870638
-0.003754370866402456,0.01559104067849554
-0.003754200866402456,0.01516316442768659
-0.003754030866402456,0.01489985596565062
-0.003753860866402456,0.01440615259933226
-0.003753690866402455,0.01457072038810456
-0.003753520866402456,0.01443906615708442
-0.003753350866402456,0.01378079500199316
-0.003753180866402456,0.01239842557630661
-0.003753010866402456,0.013682054328732
-0.003752840866402456,0.01256299336507706
-0.003752670866402456,0.01239842557630457
-0.003752500866402456,0.01190472220998424
-0.003752330866402456,0.01144393240142134
-0.003752160866402456,0.0110160561506115
-0.003751990866402456,0.01025904432225806
-0.003751820866402456,0.01006156297573072
-0.003751650866402456,0.009502032493904269
-0.003751480866402456,0.009238724031866553
-0.003751310866402456,0.009172896916357798
-0.003751140866402456,0.009238724031867511
-0.003750970866402456,0.009633686724921478
-0.003750800866402456,0.009896995186957936
-0.003750630866402456,0.009896995186957936
-0.003750460866402456,0.01048943922654176
-0.003750290866402456,0.01098314259285928
-0.003750120866402456,0.01150975951693213
-0.003749950866402456,0.01200346288324959
-0.003749780866402456,0.01233259846079516
-0.003749610866402456,0.01279338826935812
-0.003749440866402456,0.01295795605813294
-0.003749270866402456,0.0132870916356778
-0.003749100866402456,0.01355040009771443
-0.003748930866402456,0.0139124492330139
-0.003748760866402456,0.01394536279076846
-0.003748590866402456,0.01381370855975047
-0.003748420866402456,0.01384662211750491
-0.003748250866402456,0.01387953567525887
-0.003748080866402456,0.01361622721322241
-0.003747910866402456,0.01335291875118643
-0.003747740866402456,0.01312252384690453
-0.003747570866402456,0.01312252384690453
-0.003747400866402456,0.0125629933650767
-0.003747230866402456,0.01246425269181387
-0.003747060866402456,0.01272756115384991
-0.003746890866402456,0.0127604747116044
-0.003746720866402456,0.01279338826935896
-0.003746550866402456,0.01305669673139542
-0.003746380866402456,0.01325417807792192
-0.003746210866402456,0.0130237831736414
-0.003746040866402456,0.01332000519343199
-0.003745870866402456,0.01338583230894069
-0.003745700866402456,0.0132212645201682
-0.003745530866402456,0.01332000519343187
-0.003745360866402456,0.01295795605812995
-0.003745190866402456,0.01246425269181195
-0.003745020866402456,0.01206928999875799
-0.003744850866402456,0.0116743273057036
-0.003744680866402456,0.01144393240142212
-0.003744510866402456,0.01127936461264933
-0.003744340866402456,0.01114771038163111
-0.003744170866402456,0.01114771038163051
-0.003744000866402456,0.01098314259285862
-0.003743830866402456,0.01114771038162991
-0.003743660866402456,0.01048943922653996
-0.003743490866402456,0.01210220355651326
-0.003743320866402455,0.01177306797896901
-0.003743150866402456,0.01213511711426818
-0.003742980866402456,0.01223385778753227
-0.003742810866402456,0.01266173403834085
-0.003742640866402456,0.01272756115384985
-0.003742470866402456,0.0127604747116044
-0.003742300866402455,0.01292504250037815
-0.003742130866402456,0.01318835096241568
-0.003741960866402456,0.01374788144424159
-0.003741790866402456,0.01401118990627691
-0.003741620866402456,0.01364914077097745
-0.003741450866402456,0.01387953567525935
-0.003741280866402456,0.01351748653995988
-0.003741110866402456,0.01348457298220382
-0.003740940866402456,0.01325417807792228
-0.003740770866402456,0.01299086961588738
-0.003740600866402456,0.01358331365546833
-0.003740430866402456,0.01315543740465909
-0.003740260866402456,0.0130566967313956
-0.003740090866402456,0.01299086961588774
-0.003739920866402456,0.01338583230894045
-0.003739750866402456,0.01308961028914997
-0.003739580866402456,0.01308961028914997
-0.003739410866402456,0.0132212645201682
-0.003739240866402456,0.01312252384690471
-0.003739070866402456,0.01341874586669447
-0.003738900866402456,0.01312252384690411
-0.003738730866402456,0.01289212894262263
-0.003738560866402456,0.01289212894262263
-0.003738390866402456,0.01269464759609529
-0.003738220866402456,0.01276047471160428
-0.003738050866402456,0.01292504250037886
-0.003737880866402456,0.01338583230894189
-0.003737710866402456,0.01387953567525953
-0.003737540866402456,0.01397827634852302
-0.003737370866402456,0.0139124492330139
-0.003737200866402456,0.01401118990627757
-0.003737030866402456,0.0139453627907669
-0.003736860866402456,0.01351748653995874
-0.003736690866402456,0.01325417807792264
-0.003736520866402456,0.01318835096241365
-0.003736350866402456,0.01272756115384985
-0.003736180866402456,0.01259590692283162
-0.003736010866402456,0.01197054932549216
-0.003735840866402456,0.01118062393938506
-0.003735670866402456,0.01085148836183853
-0.003735500866402456,0.009995735860220409
-0.003735330866402456,0.009337464705130465
-0.003735160866402456,0.008909588454321223
-0.003734990866402456,0.008514625761264981
-0.003734820866402456,0.008086749510456815
-0.003734650866402456,0.007823441048420417
-0.003734480866402456,0.007593046144140015
-0.003734310866402456,0.008185490183720966
-0.003734140866402456,0.006901861431293239
-0.003733970866402456,0.006572725853747188
-0.003733800866402456,0.006441071622732911
-0.003733630866402456,0.007395564797611954
-0.003733460866402456,0.007593046144139656
-0.003733290866402456,0.007988008837193623
-0.003733120866402456,0.008909588454321223
-0.003732950866402455,0.009403291820641733
-0.003732780866402456,0.009995735860223641
-0.003732610866402456,0.0105552663420498
-0.003732440866402456,0.01095022903510316
-0.003732270866402456,0.01062109345755819
-0.003732100866402456,0.01088440191959465
-0.003731930866402455,0.01127936461264898
-0.003731760866402456,0.01118062393938399
-0.003731590866402456,0.01071983413082222
-0.003731420866402456,0.01091731547734843
-0.003731250866402456,0.01048943922653996
-0.003731080866402456,0.01012739009123984
-0.003730910866402456,0.009666600282676872
-0.003730740866402456,0.009436205378391861
-0.003730570866402456,0.00881084778105779
-0.003730400866402456,0.008942502012075719
-0.003730230866402456,0.008909588454321223
-0.003730060866402456,0.009666600282676035
-0.003729890866402456,0.009502032493903551
-0.003729720866402456,0.01002864941797628
-0.003729550866402456,0.01006156297573138
-0.003729380866402456,0.01042361211103139
-0.003729210866402456,0.01071983413082186
-0.003729040866402456,0.01118062393938566
-0.003728870866402456,0.01127936461264915
-0.003728700866402456,0.01131227817040353
-0.003728530866402456,0.0112135374971401
-0.003728360866402456,0.01114771038163092
-0.003728190866402456,0.01104896970836743
-0.003728020866402456,0.01091731547734921
-0.003727850866402456,0.01081857480408571
-0.003727680866402456,0.01095022903510316
-0.003727510866402456,0.01078566124633104
-0.003727340866402456,0.01081857480408547
-0.003727170866402456,0.01078566124633098
-0.003727000866402456,0.01065400701531275
-0.003726830866402456,0.01042361211103085
-0.003726660866402456,0.009732427398184192
-0.003726490866402456,0.009469118936146836
-0.003726320866402456,0.008448798645756643
-0.003726150866402456,0.00802092239494818
-0.003725980866402456,0.00802092239494818
-0.003725810866402456,0.007922181721684508
-0.003725640866402456,0.007922181721685106
-0.003725470866402456,0.008086749510457474
-0.003725300866402456,0.008185490183721684
-0.003725130866402456,0.00858045287677631
-0.003724960866402456,0.008942502012075779
-0.003724790866402456,0.01068692057306731
-0.003724620866402456,0.009666600282679986
-0.003724450866402456,0.01075274768857726
-0.003724280866402456,0.01121353749714148
-0.003724110866402456,0.01190472220998658
-0.003723940866402456,0.01226677134528605
-0.003723770866402456,0.01269464759609529
-0.003723600866402456,0.0130896102891495
-0.003723430866402456,0.01295795605813414
-0.003723260866402456,0.01361622721322259
-0.003723090866402456,0.01345165942444974
-0.003722920866402456,0.01325417807792276
-0.003722750866402456,0.01269464759609529
-0.003722580866402455,0.01279338826935908
-0.003722410866402456,0.01282630182711292
-0.003722240866402456,0.01266173403834127
-0.003722070866402456,0.01295795605813222
-0.003721900866402456,0.0132212645201682
-0.003721730866402456,0.01351748653995922
-0.003721560866402455,0.01371496788648728
-0.003721390866402456,0.01391244923301857
-0.003721220866402456,0.01519607798544205
-0.003721050866402456,0.01542647288972413
-0.003720880866402456,0.0157556084672691
-0.003720710866402456,0.01601891692930556
-0.003720540866402456,0.01631513894909603
-0.003720370866402456,0.01631513894909681
-0.003720200866402456,0.01638096606460509
-0.003720030866402456,0.01605183048706035
-0.003719860866402456,0.01618348471807834
-0.003719690866402456,0.01611765760256923
-0.003719520866402456,0.01601891692930574
-0.003719350866402456,0.01598600337155028
-0.003719180866402456,0.01578852202502318
-0.003719010866402456,0.01552521356298678
