Analysis/files/wrd01_d2s01/cmb06_ch46.csv

#Digilent WaveForms Oscilloscope Acquisition
#Device Name: ADP3450
#Serial Number: SN:210018B9D9B0
#Date Time: 2024-06-21 16:10:03.148.369.590
#Sample rate: 2.5e+07Hz
#Samples: 32768
#Trigger: Source: Channel 3 Type: Edge Condition: Rising Level: 200 mV Hyst.: Auto HoldOff: 0 s
#Channel 1: Range: 100 mV/div Offset: -370 mV Attenuation: 1 X Coupling: DC Bandwidth: 0 Hz Sample Mode: Average
#Channel 3: Range: 100 mV/div Offset: 0 V Attenuation: 1 X Coupling: DC Bandwidth: 0 Hz Sample Mode: Average

Time (s),Channel 1 (V),Channel 3 (V)
-0.000655330693069307,0.0005637610863821751,-0.0229178218943355
-0.000655290693069307,0.0006293982178121604,-0.02212789650822613
-0.0006552506930693069,0.0006293982178121007,-0.02199624227720712
-0.000655210693069307,0.00059657965209714,-0.02156836602639866
-0.000655170693069307,0.00105603957210737,-0.02146962535313499
-0.000655130693069307,0.00102322100639235,-0.02183167448843512
-0.000655090693069307,0.0006622167835271808,-0.0219962422772079
-0.000655050693069307,0.001023221006391693,-0.02186458804618991
-0.0006550106930693069,0.001088858137822032,-0.02127214400660806
-0.000654970693069307,0.0008919467435322681,-0.02150253891088955
-0.000654930693069307,0.0003340311263770324,-0.02146962535313499
-0.000654890693069307,0.00108885813782239,-0.02110757621783486
-0.000654850693069307,0.0004653053892382481,-0.0205480457360084
-0.0006548106930693069,0.0008919467435319099,-0.02091009487130836
-0.000654770693069307,0.0006950353492422012,-0.02137088467987132
-0.000654730693069307,0.0009247653092472885,-0.0210746626600803
-0.000654690693069307,0.000760672480672242,-0.02100883554457119
-0.000654650693069307,0.001121676703536754,-0.0209100948713077
-0.0006546106930693069,0.0003668496920926497,-0.02137088467987048
-0.000654570693069307,0.0006950353492422012,-0.02091009487130752
-0.000654530693069307,0.0008591281778173032,-0.02087718131355296
-0.000654490693069307,0.001154495269252431,-0.02100883554457119
-0.000654450693069307,0.0009575838749623089,-0.02041639150498916
-0.0006544106930693069,0.000859128177817363,-0.02140379823762462
-0.000654370693069307,0.0008919467435322681,-0.02071261352478018
-0.000654330693069307,0.0007278539149572216,-0.02077844064028929
-0.000654290693069307,0.001187313834967396,-0.02120631689109853
-0.000654250693069307,0.001548318057832565,-0.02071261352478018
-0.000654210693069307,0.001285769532112935,-0.02035056438948071
-0.0006541706930693069,0.001548318057832565,-0.0203834779472346
-0.000654130693069307,0.00108885813782239,-0.02048221862049827
-0.000654090693069307,0.0008919467435322681,-0.01982394746540713
-0.000654050693069307,0.0009904024406773293,-0.01998851525417992
-0.000654010693069307,0.000629398217812817,-0.02031765083172489
-0.0006539706930693069,0.00128576953211198,-0.02005434236968861
-0.000653930693069307,0.00102322100639235,-0.01982394746540713
-0.000653890693069307,0.000465305389237114,-0.01942898477235245
-0.000653850693069307,0.00102322100639235,-0.01962646611887979
-0.000653810693069307,0.00131858809782694,-0.0195277254456163
-0.0006537706930693069,0.001154495269251954,-0.0194948118878615
-0.000653730693069307,0.0008919467435322681,-0.01946189833010701
-0.000653690693069307,0.0007934910463872624,-0.01956063900337068
-0.000653650693069307,0.001351406663542498,-0.01939607121459789
-0.000653610693069307,0.0006950353492433952,-0.01952772544561588
-0.0006535706930693069,0.0007934910463875012,-0.0190998491948082
-0.000653530693069307,0.0009247653092472885,-0.01982394746540713
-0.000653490693069307,0.0003996682578070732,-0.01936315765684333
-0.000653450693069307,0.0008591281778173032,-0.01890236784827953
-0.000653410693069307,0.001187313834967396,-0.01916567631031599
-0.000653370693069307,0.0007278539149580573,-0.01942898477235197
-0.0006533306930693069,0.0009575838749623089,-0.01896819496378865
-0.000653290693069307,0.0008263096121022828,-0.01867197294399764
-0.000653250693069307,0.0009904024406773293,-0.01933024409908878
-0.000653210693069307,0.0007278539149572216,-0.01867197294399764
-0.000653170693069307,0.0006293982178123395,-0.01936315765684208
-0.0006531306930693069,0.0009575838749606374,-0.01916567631031551
-0.000653090693069307,3.866403494190429e-05,-0.01890236784827953
-0.000653050693069307,0.0008919467435322681,-0.01893528140603409
-0.000653010693069307,0.0008919467435322681,-0.0185403187129794
-0.000652970693069307,0.0009904024406771502,-0.0186061458284884
-0.0006529306930693069,0.0005637610863823543,-0.01900110852154183
-0.000652890693069307,0.0006622167835271808,-0.01824409669318839
-0.000652850693069307,0.0008263096121022828,-0.01873780005950675
-0.000652810693069307,0.0006293982178121604,-0.01798078823115194
-0.000652770693069307,0.001088858137821555,-0.01850740515522389
-0.0006527306930693069,0.0005309425206675726,-0.0187048865017498
-0.000652690693069307,0.000760672480672242,-0.01738834419156991
-0.000652650693069307,0.00105603957210737,-0.01788204755788826
-0.000652610693069307,0.00102322100639235,-0.01830992380869751
-0.000652570693069307,0.001252950966397437,-0.01781622044237915
-0.000652530693069307,0.0007606724806731375,-0.01784913400013365
-0.000652490693069307,0.00108885813782239,-0.01804661534666105
-0.000652450693069307,0.0008919467435322681,-0.01686172726749699
-0.000652410693069307,0.0006293982178121604,-0.01728960351830624
-0.000652370693069307,0.0007278539149572216,-0.01775039332687003
-0.000652330693069307,0.000695035349242261,-0.01728960351830707
-0.0006522906930693069,0.001023221006390857,-0.01719086284504233
-0.000652250693069307,0.0002027568635170063,-0.01705920861402434
-0.000652210693069307,0.001252950966397437,-0.01607180188138762
-0.000652170693069307,0.0003012125606620675,-0.01607180188138762
-0.000652130693069307,0.0003340311263769727,-0.01903402207929238
-0.0006520906930693069,0.0005309425206678711,-0.01426155620489297
-0.000652050693069307,0.0009247653092472885,-0.01755291198034269
-0.000652010693069307,0.001121676703537411,-0.01663133236321509
-0.000651970693069307,0.0009247653092472885,-0.01663133236321509
-0.000651930693069307,0.0006293982178126978,-0.01699338149851456
-0.0006518906930693069,0.0003340311263785248,-0.01636802390117924
-0.000651850693069307,0.001154495269252431,-0.01669715947872421
-0.000651810693069307,0.001482680926402524,-0.01617054255465129
-0.000651770693069307,0.001154495269252431,-0.01551227139956015
-0.000651730693069307,0.001187313834967396,-0.01633511034342408
-0.0006516906930693069,0.001121676703538127,-0.0155780985150695
-0.000651650693069307,0.001515499492117545,-0.01570975274608749
-0.000651610693069307,0.0008591281778173032,-0.01554518495731471
-0.000651570693069307,0.001285769532112457,-0.01561101207282382
-0.000651530693069307,0.001351406663542498,-0.01528187649527825
-0.000651490693069307,0.001220132400682655,-0.01521604937976926
-0.0006514506930693069,0.0007934910463876803,-0.01544644428405026
-0.000651410693069307,0.00102322100639235,-0.0150185680332418
-0.000651370693069307,0.0008263096121022828,-0.01436029687815065
-0.000651330693069307,0.00102322100639235,-0.0143273833203961
-0.000651290693069307,0.0009247653092474676,-0.01455777822467758
-0.0006512506930693069,0.001121676703538127,-0.01459069178243124
-0.000651210693069307,0.001515499492117545,-0.0138665935118323
-0.000651170693069307,0.001252950966397437,-0.01399824774285052
-0.000651130693069307,0.001318588097827478,-0.01366911216530495
-0.000651090693069307,0.001449862360687321,-0.01337289014551448
-0.0006510506930693069,0.000826309612102641,-0.0131424952412312
-0.000651010693069307,0.00102322100639235,-0.01268170543266824
-0.000650970693069307,0.00102322100639235,-0.01268170543266824
-0.000650930693069307,0.001121676703537411,-0.01268170543266824
-0.000650890693069307,0.00102322100639235,-0.01278044610593191
-0.0006508506930693069,0.0004981239549538059,-0.01192469360431241
-0.000650810693069307,0.001417043794972539,-0.01136516312248596
-0.000650770693069307,0.000760672480672242,-0.0115626444690133
-0.000650730693069307,0.0008591281778173032,-0.0120234342775771
-0.000650690693069307,0.0008591281778173032,-0.0111018546604495
-0.000650650693069307,0.0005637610863827125,-0.01169429870003045
-0.0006506106930693069,0.0008919467435322681,-0.01159555802676786
-0.000650570693069307,0.000760672480672242,-0.01093728687167671
-0.000650530693069307,0.0006622167835271808,-0.01139807668024051
-0.000650490693069307,0.0006293982178121604,-0.01139807668024051
-0.000650450693069307,0.001056039572106594,-0.011562644469013
-0.0006504106930693069,0.0003668496920930079,-0.01083854619841334
-0.000650370693069307,0.0008919467435322681,-0.01100311398718583
-0.000650330693069307,0.00059657965209714,-0.009982793696794558
-0.000650290693069307,0.0005309425206671547,-0.0108714597561676
-0.000650250693069307,0.0009247653092465722,-0.01001570725455067
-0.0006502106930693069,0.001088858137821495,-0.009982793696794917
-0.000650170693069307,0.00059657965209714,-0.0101802750433219
-0.000650130693069307,0.000760672480672242,-0.01001570725454911
-0.000650090693069307,0.0008919467435322681,-0.01008153437005823
-0.000650050693069307,0.0007606724806724808,-0.01004862081230373
-0.0006500106930693069,0.0009904024406775084,-0.009423263214967925
-0.000649970693069307,0.00108885813782239,-0.009884053023530886
-0.000649930693069307,0.000760672480672242,-0.0104106699476038
-0.000649890693069307,0.0009247653092472885,-0.01024610215883101
-0.000649850693069307,0.0007278539149572216,-0.009982793696794558
-0.000649810693069307,0.001712410886405876,-0.01011444792781255
-0.0006497706930693069,0.0006950353492422012,-0.009982793696794558
-0.000649730693069307,0.001351406663542498,-0.01008153437005823
-0.000649690693069307,0.00102322100639235,-0.009949880139040001
-0.000649650693069307,0.001581136623547585,-0.01004862081230367
-0.000649610693069307,0.001285769532112995,-0.01050941062086663
-0.0006495706930693069,0.001482680926401927,-0.01027901571658749
-0.000649530693069307,0.001154495269252431,-0.0113322495647314
-0.000649490693069307,0.001318588097827478,-0.009851139465776329
-0.000649450693069307,0.001581136623547585,-0.01057523773637659
-0.000649410693069307,0.001384225229257877,-0.01018027504332262
-0.0006493706930693069,0.001252950966396482,-0.01120059533371287
-0.000649330693069307,0.0007278539149572216,-0.01103602754494038
-0.000649290693069307,0.0008263096121022828,-0.01103602754494038
-0.000649250693069307,0.000760672480672242,-0.01073980552514937
-0.000649210693069307,0.001515499492116172,-0.01083854619841286
-0.0006491706930693069,0.001449862360686604,-0.01057523773637736
-0.000649130693069307,0.0009247653092472885,-0.01100311398718583
-0.000649090693069307,0.00105603957210737,-0.01054232417862203
-0.000649050693069307,0.0009575838749623089,-0.01083854619841304
-0.000649010693069307,0.0007934910463872624,-0.01116768177595861
-0.0006489706930693069,0.0008919467435316114,-0.01113476821820298
-0.000648930693069307,0.0005309425206671547,-0.01054232417862203
-0.000648890693069307,0.001220132400682417,-0.01093728687167671
-0.000648850693069307,0.0008919467435322681,-0.01166138514227697
-0.000648810693069307,0.001187313834967396,-0.01021318860107646
-0.000648770693069307,0.0009247653092477661,-0.0109043733139209
-0.0006487306930693069,0.0001371197320881594,-0.01077271908290225
-0.000648690693069307,0.0007934910463872624,-0.009851139465776329
-0.000648650693069307,0.0005309425206671547,-0.01031192927434013
-0.000648610693069307,3.866403494190429e-05,-0.009587831003739873
-0.000648570693069307,0.00108885813782048,-0.01021318860107532
-0.0006485306930693069,0.0006622167835265241,-0.01011444792781105
-0.000648490693069307,0.0003012125606620675,-0.009159954752930631
-0.000648450693069307,0.0006622167835271808,-0.008830819175385059
-0.000648410693069307,0.0003996682578070732,-0.009028300521912402
-0.000648370693069307,0.0006950353492416639,-0.009225781868439385
-0.0006483306930693069,0.000334031126377689,-0.00942326321496559
-0.000648290693069307,0.0006950353492422012,-0.00860042427110316
-0.000648250693069307,0.0005637610863821751,-0.008468770040084931
-0.000648210693069307,0.00059657965209714,-0.00860042427110316
-0.000648170693069307,0.0001699382978019859,-0.008501683597839487
-0.0006481306930693069,0.001056039572106355,-0.007975066673767234
-0.000648090693069307,0.0004981239549521344,-0.008337115809066702
-0.000648050693069307,0.0006622167835271808,-0.008271288693557588
-0.000648010693069307,0.0005637610863821751,-0.00837002936682126
-0.000647970693069307,0.0006293982178121604,-0.007942153116012016
-0.000647930693069307,0.0008591281778168854,-0.006790178594604614
-0.0006478906930693069,0.000530942520667095,-0.007810498884994029
-0.000647850693069307,0.0004981239549521344,-0.007942153116012016
-0.000647810693069307,0.0005637610863821751,-0.007185141287657204
-0.000647770693069307,0.0006950353492422012,-0.007020573498884419
-0.000647730693069307,0.001121676703536635,-0.007415536191938386
-0.0006476906930693069,0.000859128177817363,-0.006921832825622783
-0.000647650693069307,0.0008919467435322681,-0.008040893789275689
-0.000647610693069307,0.0005309425206671547,-0.006856005710111633
-0.000647570693069307,0.0009247653092472885,-0.006164820997265934
-0.000647530693069307,0.0003996682578080283,-0.007744671769481801
-0.0006474906930693069,0.0005637610863821751,-0.005605290515443013
-0.000647450693069307,0.0005637610863821751,-0.008106720904784802
-0.000647410693069307,0.0008919467435322681,-0.007942153116012016
-0.000647370693069307,0.0009247653092472885,-0.005769858304211248
-0.000647330693069307,0.0003996682578070732,-0.007053487056638975
-0.0006472906930693069,0.001023221006391514,-0.006954746383373209
-0.000647250693069307,0.0005637610863821751,-0.005802771861965805
-0.000647210693069307,0.0001043011663719451,-0.006691437921338847
-0.000647170693069307,-5.979166220310139e-05,-0.00688891926786619
-0.000647130693069307,0.0007278539149572216,-0.006164820997265934
-0.000647090693069307,0.0007934910463871431,-0.006296475228283922
-0.0006470506930693069,0.0006950353492422012,-0.007053487056638975
-0.000647010693069307,0.0006293982178121604,-0.005901512535229476
-0.000646970693069307,5.845469226939404e-06,-0.006362302343793276
-0.000646930693069307,0.0001371197320869655,-0.006724351479093405
-0.000646890693069307,0.0004981239549514778,-0.00688891926786589
-0.0006468506930693069,-5.979166220238503e-05,-0.006428129459303049
-0.000646810693069307,0.0003340311263770324,-0.006790178594602518
-0.000646770693069307,0.0004324868235220936,-0.006395215901547833
-0.000646730693069307,0.00105603957210737,-0.00665852436358429
-0.000646690693069307,0.0005637610863830706,-0.007152227729901749
-0.0006466506930693069,0.0006293982178122202,-0.006131907439512573
-0.000646610693069307,0.0006622167835271808,-0.006790178594602518
-0.000646570693069307,0.0007934910463872624,-0.00665852436358429
-0.000646530693069307,0.0004981239549521344,-0.007152227729902647
-0.000646490693069307,0.0007606724806717644,-0.006197734555022227
-0.0006464506930693069,0.0003996682578073716,-0.00688891926786607
-0.000646410693069307,0.0005637610863821751,-0.006823092152357076
-0.000646370693069307,0.0009904024406773293,-0.007349709076429989
-0.000646330693069307,0.000760672480672242,-0.007020573498884419
-0.000646290693069307,0.0009575838749623089,-0.006921832825620747
-0.000646250693069307,0.0006622167835277182,-0.006625610805830272
-0.000646210693069307,0.0005309425206671547,-0.006921832825620747
-0.000646170693069307,0.0005309425206671547,-0.006856005710111633
-0.000646130693069307,0.0005309425206671547,-0.006823092152357076
-0.000646090693069307,0.0002355754292320267,-0.006428129459302391
-0.000646050693069307,7.148260065722317e-05,-0.006164820997266412
-0.0006460106930693069,0.0002683939949477037,-0.006493956574810786
-0.000645970693069307,0.0006293982178121604,-0.006098993881756819
-0.000645930693069307,0.0008591281778173032,-0.006329388786038719
-0.000645890693069307,0.000760672480672242,-0.006131907439511376
-0.000645850693069307,0.0005965796520974385,-0.00596733965073889
-0.0006458106930693069,0.0006293982178122202,-0.005572376957683547
-0.000645770693069307,0.0006622167835271808,-0.005374895611156563
-0.000645730693069307,0.0004324868235220936,-0.00586859897747492
-0.000645690693069307,0.0001699382978019859,-0.005144500706874663
-0.000645650693069307,0.000596579652096364,-0.004683710898311702
-0.0006456106930693069,0.0009575838749629059,-0.00547363628441778
-0.000645570693069307,0.001285769532112457,-0.004124180416483393
-0.000645530693069307,0.0009904024406773293,-0.004617883782801749
-0.000645490693069307,0.0004324868235220936,-0.004190007531992507
-0.000645450693069307,0.0008263096121022828,-0.00392669906995605
-0.0006454106930693069,0.0007278539149577588,-0.003893785512201433
-0.000645370693069307,0.00102322100639235,-0.003860871954446936
-0.000645330693069307,0.0006622167835271808,-0.003334255030374022
-0.000645290693069307,0.0006293982178121604,-0.003564649934655922
-0.000645250693069307,0.0006622167835271808,-0.003169687241601236
-0.000645210693069307,0.0004981239549524328,-0.002807638106301767
-0.0006451706930693069,0.0006293982178125187,-0.002774724548546551
-0.000645130693069307,0.0008263096121022828,-0.002774724548546551
-0.000645090693069307,0.0004981239549521344,-0.002610156759773766
-0.000645050693069307,0.0003340311263770324,-0.002741810990791994
-0.000645010693069307,0.0002683939949471664,-0.003103860126091464
-0.0006449706930693069,0.0008263096121015665,-0.002544329644264712
-0.000644930693069307,0.0004324868235220936,-0.002577243202019209
-0.000644890693069307,0.0003668496920920528,-0.003169687241601236
-0.000644850693069307,0.001187313834967396,-0.002478502528755537
-0.000644810693069307,0.0003340311263785845,-0.002313934739983051
-0.0006447706930693069,0.0003668496920923512,-0.002807638106299492
-0.000644730693069307,0.0005309425206671547,-0.001918972046928067
-0.000644690693069307,0.0004981239549521344,-0.002610156759773766
-0.000644650693069307,0.0004981239549521344,-0.002412675413246423
-0.000644610693069307,0.0002683939949470471,-0.002050626277946295
-0.0006445706930693069,0.0005309425206670354,-0.002544329644264053
-0.000644530693069307,0.000465305389237114,-0.002215194066719081
-0.000644490693069307,0.0008919467435322681,-0.001951885604682624
-0.000644450693069307,0.0002027568635170063,-0.002478502528755537
-0.000644410693069307,0.00059657965209714,-0.001918972046928067
-0.000644370693069307,0.001220132400681282,-0.001293614449592619
-0.0006443306930693069,0.0003012125606635599,-0.00234684829773689
-0.000644290693069307,0.001121676703537411,-0.002116453393455409
-0.000644250693069307,0.0004981239549521344,-0.001721490700400724
-0.000644210693069307,0.0008591281778173032,-0.002840551664055666
-0.000644170693069307,0.0007278539149574604,-0.002412675413247202
-0.0006441306930693069,0.0006950353492428579,-0.002511416086510454
-0.000644090693069307,0.00105603957210737,-0.002708897433037437
-0.000644050693069307,0.0008263096121022828,-0.002708897433037437
-0.000644010693069307,0.0006293982178121604,-0.002346848297737309
-0.000643970693069307,0.0007278539149570425,-0.002741810990791276
-0.0006439306930693069,0.0005965796520980355,-0.003038033010581871
-0.000643890693069307,0.00108885813782239,-0.002412675413246423
-0.000643850693069307,0.0004324868235220936,-0.003103860126092122
-0.000643810693069307,0.0002027568635170063,-0.003564649934655922
-0.000643770693069307,0.0009904024406773293,-0.003893785512201493
-0.0006437306930693069,0.0007934910463867848,-0.003498822819146987
-0.000643690693069307,0.0005309425206671547,-0.003597563492410479
-0.000643650693069307,0.0008263096121022828,-0.003465909261392251
-0.000643610693069307,0.0008263096121022828,-0.003564649934655922
-0.000643570693069307,0.0007934910463872624,-0.003959612627710607
-0.000643530693069307,0.0007606724806723018,-0.004321661763010077
-0.0006434906930693069,0.00059657965209714,-0.004288748205256179
-0.000643450693069307,0.0009904024406773293,-0.003762131281183265
-0.000643410693069307,0.0009247653092472885,-0.004190007531992507
