Analysis/files/wrd01_d2s01/cmb08_ch31.csv

#Digilent WaveForms Oscilloscope Acquisition
#Device Name: ADP3450
#Serial Number: SN:210018B9D9B0
#Date Time: 2024-08-14 17:42:24.199.890.870
#Sample rate: 5.88235e+06Hz
#Samples: 32768
#Trigger: Source: Channel 3 Type: Edge Condition: Rising Level: 60 mV Hyst.: Auto HoldOff: 0 s
#Channel 3: Range: 100 mV/div Offset: 0 V Attenuation: 1 X Coupling: DC Bandwidth: 0 Hz Sample Mode: Average

Time (s),Channel 3 (V)
-0.003798380149714725,0.2143560159582667
-0.003798210149714724,0.2270935628092988
-0.003798040149714724,0.2372638521554384
-0.003797870149714725,0.2461505127491689
-0.003797700149714724,0.2530952734353914
-0.003797530149714724,0.2591513680622189
-0.003797360149714725,0.2627389458574656
-0.003797190149714724,0.2655036847088507
-0.003797020149714724,0.266721486345767
-0.003796850149714725,0.2672481032698399
-0.003796680149714724,0.2670177083655559
-0.003796510149714724,0.265832820286394
-0.003796340149714725,0.264121315283157
-0.003796170149714724,0.2616527984515598
-0.003796000149714724,0.258624751138146
-0.003795830149714725,0.2551359140161629
-0.003795660149714724,0.2523382616070197
-0.003795490149714724,0.249112732947079
-0.003795320149714725,0.2457884636138687
-0.003795150149714724,0.2424312807228962
-0.003794980149714724,0.2382183453303206
-0.003794810149714725,0.2349599031126194
-0.003794640149714725,0.2309773626243252
-0.003794470149714724,0.2265998594429619
-0.003794300149714725,0.2234072443407699
-0.003794130149714725,0.2189968276016672
-0.003793960149714724,0.2158371260572217
-0.003793790149714725,0.2117887584534112
-0.003793620149714725,0.2079707857538895
-0.003793450149714724,0.2044161215163904
-0.003793280149714725,0.2011905928564438
-0.003793110149714725,0.1976359286189581
-0.003792940149714724,0.1945420541900233
-0.003792770149714725,0.1915469204343586
-0.003792600149714725,0.1878606019658549
-0.003792430149714724,0.1848654682101835
-0.003792260149714725,0.1823640378208372
-0.003792090149714725,0.1789410278143694
-0.003791920149714724,0.1763408567517532
-0.003791750149714725,0.1726216247254883
-0.003791580149714725,0.1691986147190205
-0.003791410149714724,0.1657756047125404
-0.003791240149714725,0.1625500760525938
-0.003791070149714725,0.1593245473926531
-0.003790900149714724,0.1572509932541101
-0.003790730149714725,0.1522481324754174
-0.003790560149714725,0.1492529987197582
-0.003790390149714724,0.1457312480400151
-0.003790220149714725,0.1430323363041414
-0.003790050149714725,0.1399384618752131
-0.003789880149714724,0.1372724636970939
-0.003789710149714725,0.1341127621526564
-0.003789540149714725,0.1318088131098374
-0.003789370149714724,0.1290111607007001
-0.003789200149714725,0.1272996556974631
-0.003789030149714725,0.1239753863642529
-0.003788860149714724,0.1218689186679589
-0.003788690149714724,0.1206182034732881
-0.003788520149714725,0.1189396120278056
-0.003788350149714724,0.1168002307737555
-0.003788180149714724,0.1146279359619586
-0.003788010149714725,0.1128835174009671
-0.003787840149714724,0.1105795683581454
-0.003787670149714724,0.1090984582591931
-0.003787500149714725,0.1077819159490108
-0.003787330149714724,0.1062349787345432
-0.003787160149714724,0.1043589059425368
-0.003786990149714725,0.1025486602660362
-0.003786820149714724,0.1005080196852497
-0.003786650149714724,0.09833572487345288
-0.003786480149714725,0.09652547919695223
-0.003786310149714724,0.09468231996269351
-0.003786140149714724,0.09274042005517819
-0.003785970149714725,0.09060103880113196
-0.003785800149714724,0.08974528629950911
-0.003785630149714724,0.0873425965834308
-0.003785460149714725,0.08599314071549397
-0.003785290149714724,0.08510447465611901
-0.003785120149714724,0.0840512408079751
-0.003784950149714725,0.08220808157371989
-0.003784780149714724,0.08220808157371876
-0.003784610149714724,0.0815827239763833
-0.003784440149714725,0.08112193416781951
-0.003784270149714725,0.08026618166620259
-0.003784100149714724,0.07894963935601876
-0.003783930149714725,0.07845593598970038
-0.003783760149714725,0.07733687502604748
-0.003783590149714724,0.07611907338912682
-0.003783420149714725,0.07513166665649013
-0.003783250149714725,0.07424300059711869
-0.003783080149714724,0.07286063117142569
-0.003782910149714725,0.07177448376552531
-0.003782740149714725,0.07062250924411791
-0.003782570149714724,0.06910848558740618
-0.003782400149714725,0.06825273308578769
-0.003782230149714725,0.06654122808255383
-0.003782060149714724,0.06565256202317768
-0.003781890149714725,0.0644018468285045
-0.003781720149714725,0.06311821807607912
-0.003781550149714724,0.05979394874286651
-0.003781380149714725,0.06111049105304879
-0.003781210149714725,0.05949772672307843
-0.003781040149714724,0.05860906066370245
-0.003780870149714725,0.05752291325780207
-0.003780700149714725,0.05646967940965816
-0.003780530149714724,0.05508730998396484
-0.003780360149714725,0.05436321171336458
-0.003780190149714725,0.05330997786522067
-0.003780020149714724,0.05311249651869142
-0.003779850149714725,0.05182886776626369
-0.003779680149714725,0.05176304065075458
-0.003779510149714724,0.05070980680260875
-0.003779340149714725,0.05070980680260875
-0.003779170149714725,0.05038067122506318
-0.003779000149714724,0.05077563391811786
-0.003778830149714725,0.05057815257159052
-0.003778660149714725,0.0500515356475176
-0.003778490149714724,0.04962365939670836
-0.003778320149714725,0.04932743737691735
-0.003778150149714725,0.04787924083571684
-0.003777980149714724,0.04685892054532389
-0.003777810149714724,0.04593734092819797
-0.003777640149714725,0.04498284775331581
-0.003777470149714724,0.04389670034741399
-0.003777300149714724,0.04310677496130606
-0.003777130149714725,0.0421522817864239
-0.003776960149714724,0.04109904793827622
-0.003776790149714724,0.0400787276478868
-0.003776620149714725,0.03988124630135946
-0.003776450149714724,0.03909132091524895
-0.003776280149714724,0.03846596331791351
-0.003776110149714725,0.03770895148955869
-0.003775940149714724,0.03751147014303015
-0.003775770149714724,0.03685319898794021
-0.003775600149714725,0.03563539735102159
-0.003775430149714724,0.03527334821572009
-0.003775260149714724,0.03451633638736665
-0.003775090149714725,0.03431885504083931
-0.003774920149714724,0.03352892965472928
-0.003774750149714724,0.03316688051942981
-0.003774580149714725,0.03254152292209322
-0.003774410149714724,0.03198199244026462
-0.003774240149714724,0.03135663484292917
-0.003774070149714725,0.03076419080334714
-0.003773900149714724,0.03092875859211903
-0.003773730149714724,0.03043505522580157
-0.003773560149714725,0.02997426541723777
-0.003773390149714725,0.0295793027241838
-0.003773220149714724,0.02934890781990119
-0.003773050149714725,0.02892103156909194
-0.003772880149714725,0.02875646378031945
-0.003772710149714724,0.0289539451268465
-0.003772540149714725,0.02885520445358283
-0.003772370149714725,0.02865772310705585
-0.003772200149714724,0.02707787233483674
-0.003772030149714725,0.02967804339744676
-0.003771860149714725,0.02743992147014094
-0.003771690149714724,0.02704495877708219
-0.003771520149714725,0.0268803909883094
-0.003771350149714725,0.02645251473750094
-0.003771180149714724,0.02622211983321826
-0.003771010149714725,0.02576133002465446
-0.003770840149714725,0.02487266396528303
-0.003770670149714724,0.02447770127222673
-0.003770500149714725,0.02368777588611736
-0.003770330149714725,0.02299659117327292
-0.003770160149714724,0.02273328271123521
-0.003769990149714725,0.02270036915348065
-0.003769820149714725,0.02260162848021716
-0.003769650149714724,0.02230540646042596
-0.003769480149714725,0.02302950473102622
-0.003769310149714725,0.02260162848021698
-0.003769140149714724,0.02266745559572609
-0.003768970149714725,0.02306241828878078
-0.003768800149714725,0.02302950473102622
-0.003768630149714724,0.02332572675081724
-0.003768460149714725,0.02276619626898976
-0.003768290149714725,0.02253580136470787
-0.003768120149714724,0.02253580136470787
-0.003767950149714725,0.02207501155614406
-0.003767780149714725,0.02223957934491685
-0.003767610149714724,0.02177878953635287
-0.003767440149714724,0.02168004886308938
-0.003767270149714725,0.02069264213045267
-0.003767100149714724,0.02046224722616957
-0.003766930149714724,0.01980397607107963
-0.003766760149714725,0.01911279135823393
-0.003766590149714724,0.01845452020314159
-0.003766420149714724,0.01779624904805164
-0.003766250149714725,0.01756585414376974
-0.003766080149714724,0.01690758298867818
-0.003765910149714724,0.0166771880843967
-0.003765740149714725,0.0157556084672691
-0.003765570149714724,0.01522899154319487
-0.003765400149714724,0.01450489327259593
-0.003765230149714725,0.0146036339458596
-0.003765060149714724,0.01417575769505078
-0.003764890149714724,0.01440615259933226
-0.003764720149714725,0.01443906615708682
-0.003764550149714724,0.01470237461912315
-0.003764380149714724,0.01463654750361416
-0.003764210149714725,0.01473528817687783
-0.003764040149714724,0.01499859663891357
-0.003763870149714724,0.0146036339458596
-0.003763700149714725,0.01430741192606859
-0.003763530149714724,0.01483402885014246
-0.003763360149714724,0.01536064577421441
-0.003763190149714725,0.01555812712074176
-0.003763020149714725,0.01608474404481371
-0.003762850149714724,0.0157556084672691
-0.003762680149714725,0.01493276952340517
-0.003762510149714725,0.0158214355827766
-0.003762340149714724,0.01522899154319619
-0.003762170149714725,0.01499859663891429
-0.003762000149714725,0.0148669424078963
-0.003761830149714724,0.01420867125280492
-0.003761660149714725,0.01443906615708682
-0.003761490149714725,0.01368205432873338
-0.003761320149714724,0.01358331365546833
-0.003761150149714725,0.01341874586669555
-0.003760980149714725,0.01315543740465957
-0.003760810149714724,0.0129908696158863
-0.003760640149714725,0.01279338826935896
-0.003760470149714725,0.01289212894262245
-0.003760300149714724,0.01285921538486808
-0.003760130149714725,0.01279338826935896
-0.003759960149714725,0.01289212894262245
-0.003759790149714724,0.01289212894262263
-0.003759620149714725,0.01272756115384985
-0.003759450149714725,0.01295795605813133
-0.003759280149714724,0.01233259846079516
-0.003759110149714725,0.0120692899987587
-0.003758940149714725,0.01124645105489627
-0.003758770149714724,0.01127936461264933
-0.003758600149714725,0.01098314259285832
-0.003758430149714725,0.01091731547734921
-0.003758260149714724,0.01095022903510376
-0.003758090149714725,0.01029195788001262
-0.003757920149714725,0.009995735860221606
-0.003757750149714724,0.00973242739818515
-0.003757580149714725,0.009666600282676035
-0.003757410149714725,0.009534946051657807
-0.003757240149714724,0.009074156243094187
-0.003757070149714724,0.009172896916357679
-0.003756900149714725,0.00950203249390325
-0.003756730149714724,0.009765340955940126
-0.003756560149714724,0.009995735860221606
-0.003756390149714725,0.01025904432225806
-0.003756220149714724,0.01035778499552203
-0.003756050149714724,0.01052235278429452
-0.003755880149714725,0.01052235278429452
-0.003755710149714724,0.01032487143776754
-0.003755540149714724,0.01052235278429452
-0.003755370149714725,0.00973242739818515
-0.003755200149714724,0.01062109345755717
-0.003755030149714724,0.01006156297573072
-0.003754860149714725,0.01039069855327629
-0.003754690149714724,0.01114771038163039
-0.003754520149714724,0.01075274768857642
-0.003754350149714725,0.01098314259285832
-0.003754180149714724,0.01121353749713968
-0.003754010149714724,0.01091731547734921
-0.003753840149714725,0.01075274768857642
-0.003753670149714724,0.01088440191959411
-0.003753500149714724,0.01058817989980363
-0.003753330149714725,0.01111479682387655
-0.003753160149714724,0.01249716624956411
-0.003752990149714724,0.01039069855327629
-0.003752820149714725,0.01098314259285832
-0.003752650149714725,0.01045652566878636
-0.003752480149714724,0.01029195788001262
-0.003752310149714725,0.01019321720674895
-0.003752140149714725,0.01006156297573096
-0.003751970149714724,0.01032487143776718
-0.003751800149714725,0.01029195788001262
-0.003751630149714725,0.009798254513695162
-0.003751460149714724,0.01009447653348528
-0.003751290149714725,0.01002864941797616
-0.003751120149714725,0.01035778499552114
-0.003750950149714724,0.01022613076450351
-0.003750780149714725,0.01006156297573072
-0.003750610149714725,0.009864081629203736
-0.003750440149714724,0.009205810474112236
-0.003750270149714725,0.009436205378394135
-0.003750100149714725,0.009041242685340168
-0.003749930149714724,0.009271637589621349
-0.003749760149714725,0.009107069800848565
-0.003749590149714725,0.008942502012076079
-0.003749420149714724,0.009304551147375908
-0.003749250149714725,0.009370378262885021
-0.003749080149714725,0.009436205378394015
-0.003748910149714724,0.00904124268533945
-0.003748740149714725,0.008382971530248308
-0.003748570149714725,0.008514625761266298
-0.003748400149714724,0.008481712203511979
-0.003748230149714725,0.008415885088002865
-0.003748060149714725,0.009205810474112236
-0.003747890149714724,0.009172896916357679
-0.003747720149714725,0.008284230856984636
-0.003747550149714725,0.009172896916357679
-0.003747380149714724,0.009403291820639578
-0.003747210149714725,0.009929908744712493
-0.003747040149714725,0.009995735860221606
-0.003746870149714724,0.01006156297573072
-0.003746700149714725,0.009929908744712493
-0.003746530149714725,0.00950203249390325
-0.003746360149714724,0.009205810474111337
-0.003746190149714724,0.00871210710779388
-0.003746020149714725,0.008547539319021094
-0.003745850149714724,0.008317144414738834
-0.003745680149714724,0.00811966306821185
-0.003745510149714725,0.007889268163929951
-0.003745340149714724,0.007922181721685824
-0.003745170149714724,0.008646279992284765
-0.003745000149714725,0.007428478355366152
-0.003744830149714724,0.008415885088002386
-0.003744660149714724,0.008152576625966409
-0.003744490149714725,0.008481712203511979
-0.003744320149714724,0.008777934223303892
-0.003744150149714724,0.009271637589621349
-0.003743980149714725,0.009370378262885021
-0.003743810149714724,0.01075274768857516
-0.003743640149714724,0.01006156297573072
-0.003743470149714725,0.00950203249390325
-0.003743300149714724,0.009271637589621708
-0.003743130149714724,0.009469118936148692
-0.003742960149714725,0.009403291820639578
-0.003742790149714724,0.009600773167167759
-0.003742620149714724,0.01006156297573072
-0.003742450149714725,0.009929908744712493
-0.003742280149714724,0.01045652566878522
-0.003742110149714724,0.01035778499552173
-0.003741940149714725,0.01042361211103085
-0.003741770149714725,0.01012739009124037
-0.003741600149714724,0.00983116807144882
-0.003741430149714725,0.009567859609412364
-0.003741260149714725,0.009172896916358397
-0.003741090149714724,0.009107069800848565
-0.003740920149714725,0.00881084778105755
-0.003740750149714725,0.00881084778105755
-0.003740580149714724,0.008843761338812107
-0.003740410149714725,0.008843761338812107
-0.003740240149714725,0.008975415569830097
-0.003740070149714724,0.009403291820639578
-0.003739900149714725,0.009798254513694264
-0.003739730149714725,0.01009447653348474
-0.003739560149714724,0.01006156297573072
-0.003739390149714725,0.01048943922653996
-0.003739220149714725,0.01075274768857594
-0.003739050149714724,0.01101605615061288
-0.003738880149714725,0.01118062393938566
-0.003738710149714725,0.01134519172815815
-0.003738540149714724,0.01081857480408553
-0.003738370149714725,0.01157558663244035
-0.003738200149714725,0.01157558663244035
-0.003738030149714724,0.01141101884366756
-0.003737860149714725,0.01127936461264933
-0.003737690149714725,0.01124645105489484
-0.003737520149714724,0.00983116807144882
-0.003737350149714725,0.009798254513694264
-0.003737180149714725,0.009403291820639578
-0.003737010149714724,0.008745020665548437
-0.003736840149714725,0.008514625761266537
-0.003736670149714725,0.00756013258638438
-0.003736500149714724,0.00756013258638438
-0.003736330149714725,0.006046108929674754
-0.003736160149714725,0.005716973352129182
-0.003735990149714724,0.005190356428056448
-0.003735820149714724,0.00528909710131994
-0.003735650149714725,0.005256183543565383
-0.003735480149714724,0.005223269985811304
-0.003735310149714724,0.005486578447847282
-0.003735140149714725,0.006013195371920196
-0.003734970149714724,0.006473985180484594
-0.003734800149714724,0.006803120758029567
-0.003734630149714725,0.007494305470875266
-0.003734460149714724,0.008942502012077934
-0.003734290149714724,0.01012739009123984
-0.003734120149714725,0.00871210710779388
-0.003733950149714724,0.009271637589621589
-0.003733780149714724,0.009403291820639578
-0.003733610149714725,0.009995735860221606
-0.003733440149714724,0.009831168071449001
-0.003733270149714724,0.009929908744712493
-0.003733100149714725,0.009929908744712493
-0.003732930149714724,0.01045652566878576
-0.003732760149714724,0.01065400701531275
-0.003732590149714725,0.011378105285913
-0.003732420149714724,0.0105223527842947
-0.003732250149714724,0.01062109345755819
-0.003732080149714725,0.01071983413082186
-0.003731910149714724,0.01045652566878522
-0.003731740149714724,0.01035778499552173
-0.003731570149714725,0.00973242739818515
-0.003731400149714725,0.009304551147376687
-0.003731230149714724,0.009074156243094007
-0.003731060149714725,0.00802092239494818
-0.003730890149714725,0.007790527490666699
-0.003730720149714724,0.007198083451084253
-0.003730550149714725,0.006934774989047795
-0.003730380149714725,0.006803120758029807
-0.003730210149714724,0.007198083451084253
-0.003730040149714725,0.006737293642520453
-0.003729870149714725,0.006737293642520453
-0.003729700149714724,0.006901861431293239
-0.003729530149714725,0.007494305470875266
-0.003729360149714725,0.008086749510456216
-0.003729190149714724,0.008745020665548437
-0.003729020149714725,0.009995735860221606
-0.003728850149714725,0.01081857480408404
-0.003728680149714724,0.01174015442121313
-0.003728510149714725,0.01200346288324959
-0.003728340149714725,0.01249716624956705
-0.003728170149714724,0.01338583230894099
-0.003728000149714725,0.01328709163567732
-0.003727830149714725,0.01397827634852176
-0.003727660149714724,0.01315543740465909
-0.003727490149714725,0.01335291875118643
-0.003727320149714725,0.01361622721322241
-0.003727150149714724,0.01308961028914997
-0.003726980149714725,0.0127604747116044
-0.003726810149714725,0.01239842557630427
-0.003726640149714724,0.01190472220998592
-0.003726470149714725,0.01101605615061288
-0.003726300149714725,0.01012739009123984
-0.003726130149714724,0.009699513840430593
-0.003725960149714725,0.009633686724921478
-0.003725790149714725,0.009139983358603122
-0.003725620149714724,0.009271637589621349
-0.003725450149714725,0.008514625761266537
-0.003725280149714725,0.008251317299230079
-0.003725110149714724,0.007625959701889423
-0.003724940149714724,0.005387837774583611
-0.003724770149714725,0.007263910566593366
-0.003724600149714724,0.006243590276201258
-0.003724430149714724,0.005782800467638296
-0.003724260149714725,0.005486578447847282
-0.003724090149714724,0.00519035642805561
-0.003723920149714724,0.00482830729275614
-0.003723750149714725,0.004597912388474241
-0.003723580149714724,0.004696653061738271
-0.003723410149714724,0.004894134408265255
-0.003723240149714725,0.004992875081528926
-0.003723070149714724,0.005157442870302071
-0.003722900149714724,0.005354924216829054
-0.003722730149714725,0.005618232678865511
-0.003722560149714724,0.006079022487429251
-0.003722390149714724,0.006046108929674754
-0.003722220149714725,0.006605639411502225
-0.003722050149714724,0.007165169893330293
-0.003721880149714724,0.007494305470875266
-0.003721710149714725,0.008350057972493751
-0.003721540149714724,0.008415885088003464
-0.003721370149714724,0.008745020665548437
-0.003721200149714725,0.009403291820639578
-0.003721030149714724,0.009896995186957755
-0.003720860149714724,0.009798254513694264
-0.003720690149714725,0.01078566124633098
-0.003720520149714725,0.01025904432225902
-0.003720350149714724,0.01055526634204908
-0.003720180149714725,0.01062109345755819
-0.003720010149714725,0.01058817989980369
-0.003719840149714724,0.01068692057306731
-0.003719670149714725,0.01055526634204908
-0.003719500149714725,0.01052235278429458
