Analysis/files/wrd01_d2s01/cmb02_ch02.csv

#Digilent WaveForms Oscilloscope Acquisition
#Device Name: ADP3450
#Serial Number: SN:210018B9D9B0
#Date Time: 2024-08-14 16:29:58.429.517.470
#Sample rate: 5.88235e+06Hz
#Samples: 32768
#Trigger: Source: Channel 3 Type: Edge Condition: Rising Level: 60 mV Hyst.: Auto HoldOff: 0 s
#Channel 3: Range: 100 mV/div Offset: 0 V Attenuation: 1 X Coupling: DC Bandwidth: 0 Hz Sample Mode: Average

Time (s),Channel 3 (V)
-0.003798403375500319,0.2214982579910056
-0.003798233375500319,0.2346307675350934
-0.003798063375500319,0.245393500920814
-0.003797893375500319,0.2546422106498446
-0.003797723375500319,0.2622452424911554
-0.003797553375500319,0.266721486345767
-0.003797383375500319,0.2742916046293152
-0.003797213375500319,0.2756081469395004
-0.003797043375500319,0.2771879977117162
-0.003796873375500319,0.2783070586753711
-0.003796703375500319,0.2775500468470157
-0.003796533375500319,0.2772209112694707
-0.003796363375500319,0.2756739740550065
-0.003796193375500319,0.2735345928009563
-0.003796023375500319,0.2712964708736505
-0.003795853375500319,0.2679063744249311
-0.003795683375500319,0.2645162779762045
-0.003795513375500319,0.2605666510456648
-0.003795343375500319,0.257505690174491
-0.003795173375500319,0.2534902361284272
-0.003795003375500319,0.2491456465048335
-0.003794833375500319,0.2451960195742867
-0.003794663375500319,0.2406210350464116
-0.003794493375500319,0.2365726674425927
-0.003794323375500319,0.2324913862810276
-0.003794153375500319,0.2283113644462065
-0.003793983375500319,0.2246250459776885
-0.003793813375500319,0.2201488021230687
-0.003793643375500319,0.216396656539056
-0.003793473375500319,0.2127761651860479
-0.003793303375500319,0.2092544145063103
-0.003793133375500319,0.2056668367110701
-0.003792963375500319,0.2017501233382713
-0.003792793375500319,0.1982612862162882
-0.003792623375500319,0.1943116592857486
-0.003792453375500319,0.1907240814904947
-0.003792283375500319,0.1875314663883026
-0.003792113375500319,0.183713493688781
-0.003791943375500319,0.1800930023357727
-0.003791773375500319,0.1770649550223535
-0.003791603375500319,0.1735102907848678
-0.003791433375500319,0.1703176756826693
-0.003791263375500319,0.1672567148114955
-0.003791093375500319,0.1643603217290997
-0.003790923375500319,0.1619576320130118
-0.003790753375500319,0.1590283253728562
-0.003790583375500319,0.1567243763300414
-0.003790413375500319,0.1544862544027273
-0.003790243375500319,0.1519189968978718
-0.003790073375500319,0.1499441834325984
-0.003789903375500319,0.1478377157363068
-0.003789733375500319,0.145665420924506
-0.003789563375500319,0.1438880888057599
-0.003789393375500319,0.1415512262051864
-0.003789223375500319,0.1394776720666493
-0.003789053375500319,0.1377332535056577
-0.003788883375500319,0.1350014282120264
-0.003788713375500319,0.1332899232087925
-0.003788543375500319,0.1306239250306734
-0.003788373375500319,0.1285503708921322
-0.003788203375500319,0.1263122489648264
-0.003788033375500319,0.1236462507867073
-0.003787863375500319,0.1217372644369382
-0.003787693375500319,0.1191041798165784
-0.003787523375500319,0.1172939341400778
-0.003787353375500319,0.1151545528860285
-0.003787183375500319,0.1134430478827946
-0.003787013375500319,0.1112707530709938
-0.003786843375500319,0.1094275938367352
-0.003786673375500319,0.1075186074869743
-0.003786503375500319,0.1054450533484372
-0.003786333375500319,0.1038652025762151
-0.003786163375500319,0.1019891297842087
-0.003785993375500319,0.09971809429914427
-0.003785823375500319,0.09820407064243131
-0.003785653375500319,0.09636091140817946
-0.003785483375500319,0.09405696236536046
-0.003785313375500319,0.09389239457658259
-0.003785143375500319,0.09109474216745031
-0.003784973375500319,0.09007442187705905
-0.003784803375500319,0.0885933117781014
-0.003784633375500319,0.08717802879465802
-0.003784463375500319,0.08645393052405775
-0.003784293375500319,0.0849399068673509
-0.003784123375500319,0.08398541369246598
-0.003783953375500319,0.08257013070902003
-0.003783783375500319,0.08148398330312162
-0.003783613375500319,0.07993704608865546
-0.003783443375500319,0.07865341733622774
-0.003783273375500319,0.07779766483461081
-0.003783103375500319,0.0764482089666724
-0.003782933375500319,0.07496709886771732
-0.003782763375500319,0.07371638367304645
-0.003782593375500319,0.07272897694040745
-0.003782423375500319,0.07177448376552531
-0.003782253375500319,0.07114912616818986
-0.003782083375500319,0.07049085501309757
-0.003781913375500319,0.06963510251147909
-0.003781743375500319,0.06897683135638913
-0.003781573375500319,0.06874643645210604
-0.003781403375500319,0.06779194327722388
-0.003781233375500319,0.06687036366009798
-0.003781063375500319,0.06601461115847782
-0.003780893375500319,0.06482972307931376
-0.003780723375500319,0.06351318076913386
-0.003780553375500319,0.06213081134344006
-0.003780383375500319,0.06058387412897588
-0.003780213375500319,0.05880654201023303
-0.003780043375500319,0.05699629633372916
-0.003779873375500319,0.05554809979252864
-0.003779703375500319,0.05386950834704623
-0.003779533375500319,0.05192760843952736
-0.003779363375500319,0.05113768305341799
-0.003779193375500319,0.04949200516569013
-0.003779023375500319,0.04883373401059899
-0.003778853375500319,0.04870207977958076
-0.003778683375500319,0.04748427814266215
-0.003778513375500319,0.0474513645849076
-0.003778343375500319,0.04725388323838025
-0.003778173375500319,0.04695766121858923
-0.003778003375500319,0.04603608160146068
-0.003777833375500319,0.04550946467738873
-0.003777663375500319,0.04508158842657949
-0.003777493375500319,0.04379795967415134
-0.003777323375500319,0.04356756476986986
-0.003777153375500319,0.04267889871049681
-0.003776983375500319,0.04165857842010579
-0.003776813375500319,0.04179023265112377
-0.003776643375500319,0.04034203610992326
-0.003776473375500319,0.040210381878903
-0.003776303375500319,0.03909132091525009
-0.003776133375500319,0.03853179043342262
-0.003775963375500319,0.03764312437404916
-0.003775793375500319,0.03741272946976767
-0.003775623375500319,0.03737981591201312
-0.003775453375500319,0.03688611254569399
-0.003775283375500319,0.03645823629488552
-0.003775113375500319,0.03593161937081261
-0.003774943375500319,0.03537208888898526
-0.003774773375500319,0.03543791600449425
-0.003774603375500319,0.03474673129164855
-0.003774433375500319,0.03454924994512079
-0.003774263375500319,0.03431885504083931
-0.003774093375500319,0.03402263302104829
-0.003773923375500319,0.03398971946329326
-0.003773753375500319,0.03372641100125728
-0.003773583375500319,0.03385806523227551
-0.003773413375500319,0.03385806523227551
-0.003773243375500319,0.03385806523227551
-0.003773073375500319,0.03352892965472994
-0.003772903375500319,0.03329853475044845
-0.003772733375500319,0.03346310253922082
-0.003772563375500319,0.0335618432124845
-0.003772393375500319,0.03343018898146651
-0.003772223375500319,0.03221238734454766
-0.003772053375500319,0.03287065849963879
-0.003771883375500319,0.03224530090230335
-0.003771713375500319,0.03208073311352942
-0.003771543375500319,0.03168577042047474
-0.003771373375500319,0.03152120263170225
-0.003771203375500319,0.03119206705415638
-0.003771033375500319,0.03013883320601056
-0.003770863375500319,0.0296451298396931
-0.003770693375500319,0.02885520445358283
-0.003770523375500319,0.02836150108726447
-0.003770353375500319,0.02849315531828246
-0.003770183375500319,0.02829567397175536
-0.003770013375500319,0.02862480954930093
-0.003769843375500319,0.02793362483645648
-0.003769673375500319,0.02773614348992789
-0.003769503375500319,0.02684747743055485
-0.003769333375500319,0.02697913166157307
-0.003769163375500319,0.02628794694872737
-0.003768993375500319,0.02536636733159978
-0.003768823375500319,0.02763740281666422
-0.003768653375500319,0.02385234367489015
-0.003768483375500319,0.02428021992569939
-0.003768313375500319,0.02556384867812712
-0.003768143375500319,0.02447770127222673
-0.003767973375500319,0.02474100973426319
-0.003767803375500319,0.02510305886956332
-0.003767633375500319,0.02523471310058077
-0.003767463375500319,0.0248068368497723
-0.003767293375500319,0.02516888598507243
-0.003767123375500319,0.02539928088935427
-0.003766953375500319,0.02536636733159978
-0.003766783375500319,0.02589298425567269
-0.003766613375500319,0.02553093512037322
-0.003766443375500319,0.02589298425567269
-0.003766273375500319,0.02589298425567269
-0.003766103375500319,0.0259917249289354
-0.003765933375500319,0.02546510800486345
-0.003765763375500319,0.02566258935139079
-0.003765593375500319,0.02520179954282609
-0.003765423375500319,0.02470809617650863
-0.003765253375500319,0.02418147925243572
-0.003765083375500319,0.02381943011713523
-0.003764913375500319,0.02362194877060825
-0.003764743375500319,0.02319407251979901
-0.003764573375500319,0.02256871492246134
-0.003764403375500319,0.02197627088288039
-0.003764233375500319,0.0210546912657528
-0.003764063375500319,0.02006728453311524
-0.003763893375500319,0.01960649472455228
-0.003763723375500319,0.01878365578068835
-0.003763553375500319,0.01855326087640621
-0.003763383375500319,0.01842160664538823
-0.003763213375500319,0.01815829818335177
-0.003763043375500319,0.01822412529886076
-0.003762873375500319,0.01763168125927886
-0.003762703375500319,0.01750002702826063
-0.003762533375500319,0.01687466943092518
-0.003762363375500319,0.01680884231541493
-0.003762193375500319,0.01687466943092404
-0.003762023375500319,0.01634805250685209
-0.003761853375500319,0.01647970673786936
-0.003761683375500319,0.01611765760256923
-0.003761513375500319,0.01628222539134172
-0.003761343375500319,0.01595308981379644
-0.003761173375500319,0.01657844741113303
-0.003761003375500319,0.01624931183358806
-0.003760833375500319,0.01677592875766037
-0.003760663375500319,0.01756585414376974
-0.003760493375500319,0.01812538462559619
-0.003760323375500319,0.01848743376089734
-0.003760153375500319,0.01917861847374304
-0.003759983375500319,0.01894822356946156
-0.003759813375500319,0.01848743376089734
-0.003759643375500319,0.02003437097536152
-0.003759473375500319,0.01894822356946311
-0.003759303375500319,0.02046224722617077
-0.003759133375500319,0.02000145741760697
-0.003758963375500319,0.01973814895557099
-0.003758793375500319,0.0203635065529071
-0.003758623375500319,0.02016602520637975
-0.003758453375500319,0.0199027167443433
-0.003758283375500319,0.0196723218400614
-0.003758113375500319,0.0194419269357795
-0.003757943375500319,0.01947484049353405
-0.003757773375500319,0.0185203473186519
-0.003757603375500319,0.01855326087640645
-0.003757433375500319,0.01832286597212456
-0.003757263375500319,0.01796081683682377
-0.003757093375500319,0.0175987677015243
-0.003756923375500319,0.01779624904805164
-0.003756753375500319,0.0177633354902975
-0.003756583375500319,0.01799373039457898
-0.003756413375500319,0.01750002702826063
-0.003756243375500319,0.0171379778929599
-0.003756073375500319,0.01680884231541493
-0.003755903375500319,0.01641387962236024
-0.003755733375500319,0.01585434914053295
-0.003755563375500319,0.01595308981379644
-0.003755393375500319,0.01595308981379644
-0.003755223375500319,0.01578852202502324
-0.003755053375500319,0.01555812712074176
-0.003754883375500319,0.01493276952340517
-0.003754713375500319,0.01450489327259599
-0.003754543375500319,0.01453780683035049
-0.003754373375500319,0.01440615259933226
-0.003754203375500319,0.01410993057954148
-0.003754033375500319,0.01424158481055947
-0.003753863375500319,0.01424158481055947
-0.003753693375500319,0.0146036339458602
-0.003753523375500319,0.01493276952340517
-0.003753353375500319,0.01549230000523264
-0.003753183375500319,0.01552521356298864
-0.003753013375500319,0.01631513894909657
-0.003752843375500319,0.01677592875766037
-0.003752673375500319,0.01631513894909741
-0.003752503375500319,0.01687466943092404
-0.003752333375500319,0.01677592875766037
-0.003752163375500319,0.01661136096888788
-0.003751993375500319,0.01707215077745139
-0.003751823375500319,0.01703923721969683
-0.003751653375500319,0.01638096606460688
-0.003751483375500319,0.0162163982758329
-0.003751313375500319,0.01618348471807834
-0.003751143375500319,0.01611765760256935
-0.003750973375500319,0.01624931183358745
-0.003750803375500319,0.01654553385337847
-0.003750633375500319,0.0161505711603245
-0.003750463375500319,0.01651262029562391
-0.003750293375500319,0.01697341010418771
-0.003750123375500319,0.01684175587316972
-0.003749953375500319,0.0164467931801148
-0.003749783375500319,0.01677592875766037
-0.003749613375500319,0.0164138796223609
-0.003749443375500319,0.01624931183358745
-0.003749273375500319,0.01588726269828733
-0.003749103375500319,0.01595308981379632
-0.003748933375500319,0.01539355933196897
-0.003748763375500319,0.01539355933196897
-0.003748593375500319,0.01522899154319649
-0.003748423375500319,0.01470237461912327
-0.003748253375500319,0.01522899154319619
-0.003748083375500319,0.01526190510095074
-0.003747913375500319,0.01476820173463239
-0.003747743375500319,0.01486694240789606
-0.003747573375500319,0.01509733731217796
-0.003747403375500319,0.01496568308115973
-0.003747233375500319,0.01509733731217796
-0.003747063375500319,0.01526190510095074
-0.003746893375500319,0.0155252135629872
-0.003746723375500319,0.01588726269828733
-0.003746553375500319,0.01608474404481467
-0.003746383375500319,0.01611765760256971
-0.003746213375500319,0.01638096606460569
-0.003746043375500319,0.01628222539134202
-0.003745873375500319,0.01611765760256905
-0.003745703375500319,0.01601891692930556
-0.003745533375500319,0.01526190510095074
-0.003745363375500319,0.01503151019666848
-0.003745193375500319,0.0148340288501415
-0.003745023375500319,0.0148340288501415
-0.003744853375500319,0.01466946106136794
-0.003744683375500319,0.01424158481055947
-0.003744513375500319,0.01447197971484137
-0.003744343375500319,0.01387953567525899
-0.003744173375500319,0.013682054328732
-0.003744003375500319,0.01318835096241365
-0.003743833375500319,0.01285921538486766
-0.003743663375500319,0.01262882048058617
-0.003743493375500319,0.01246425269181339
-0.003743323375500319,0.01262882048058635
-0.003743153375500319,0.01272756115384985
-0.003742983375500319,0.01302378317364086
-0.003742813375500319,0.01351748653995838
-0.003742643375500319,0.01305669673139542
-0.003742473375500319,0.01292504250037719
-0.003742303375500319,0.01315543740465951
-0.003742133375500319,0.01338583230894099
-0.003741963375500319,0.0132212645201682
-0.003741793375500319,0.01364914077097667
-0.003741623375500319,0.01305669673139542
-0.003741453375500319,0.01318835096241365
-0.003741283375500319,0.01318835096241365
-0.003741113375500319,0.01318835096241365
-0.003740943375500319,0.01424158481055947
-0.003740773375500319,0.01289212894262509
-0.003740603375500319,0.01371496788648656
-0.003740433375500319,0.01335291875118643
-0.003740263375500319,0.01345165942444992
-0.003740093375500319,0.01387953567525935
-0.003739923375500319,0.01440615259933226
-0.003739753375500319,0.01503151019666771
-0.003739583375500319,0.01588726269828733
-0.003739413375500319,0.01585434914053277
-0.003739243375500319,0.01611765760256875
-0.003739073375500319,0.01585434914053277
-0.003738903375500319,0.0169075829886786
-0.003738733375500319,0.01644679318011564
-0.003738563375500319,0.01707215077745139
-0.003738393375500319,0.01674301519990581
-0.003738223375500319,0.01667718808439682
-0.003738053375500319,0.01657844741113303
-0.003737883375500319,0.01615057116032378
-0.003737713375500319,0.01638096606460527
-0.003737543375500319,0.0164467931801148
-0.003737373375500319,0.01631513894909657
-0.003737203375500319,0.01634805250685113
-0.003737033375500319,0.015986003371551
-0.003736863375500319,0.01605183048706011
-0.003736693375500319,0.01578852202502366
-0.003736523375500319,0.01592017625604189
-0.003736353375500319,0.01628222539134202
-0.003736183375500319,0.01605183048706011
-0.003736013375500319,0.01644679318011444
-0.003735843375500319,0.01624931183358745
-0.003735673375500319,0.01595308981379644
-0.003735503375500319,0.01575560846726904
-0.003735333375500319,0.01572269490951454
-0.003735163375500319,0.01559104067849632
-0.003734993375500319,0.01575560846726766
-0.003734823375500319,0.01496568308115973
-0.003734653375500319,0.01568978135175999
-0.003734483375500319,0.01552521356298798
-0.003734313375500319,0.01595308981379644
-0.003734143375500319,0.01536064577421441
-0.003733973375500319,0.01545938644747916
-0.003733803375500319,0.01605183048706011
-0.003733633375500319,0.01615057116032378
-0.003733463375500319,0.01631513894909621
-0.003733293375500319,0.01611765760256923
-0.003733123375500319,0.01684175587316948
-0.003732953375500319,0.01657844741113249
-0.003732783375500319,0.01628222539134202
-0.003732613375500319,0.01582143558277821
-0.003732443375500319,0.01519607798544031
-0.003732273375500319,0.01447197971484137
-0.003732103375500319,0.01364914077097745
-0.003731933375500319,0.01289212894262102
-0.003731763375500319,0.01200346288324959
-0.003731593375500319,0.01147684595917668
-0.003731423375500319,0.01131227817040419
-0.003731253375500319,0.01016030364899439
-0.003731083375500319,0.01075274768857642
-0.003730913375500319,0.01025904432225896
-0.003730743375500319,0.01055526634204908
-0.003730573375500319,0.01048943922653996
-0.003730403375500319,0.0112135374971389
-0.003730233375500319,0.01144393240142212
-0.003730063375500319,0.01174015442121313
-0.003729893375500319,0.0121022035565126
-0.003729723375500319,0.01249716624956795
-0.003729553375500319,0.01272756115384985
-0.003729383375500319,0.01364914077097577
-0.003729213375500319,0.01387953567525935
-0.003729043375500319,0.01401118990627757
-0.003728873375500319,0.01407701702178657
-0.003728703375500319,0.01447197971484137
-0.003728533375500319,0.01463654750361416
-0.003728363375500319,0.01499859663891363
-0.003728193375500319,0.0152948186587053
-0.003728023375500319,0.01526190510095074
-0.003727853375500319,0.0157226949095137
-0.003727683375500319,0.01582143558277821
-0.003727513375500319,0.015986003371551
-0.003727343375500319,0.01684175587316793
-0.003727173375500319,0.01717089145071506
-0.003727003375500319,0.01694049654643316
-0.003726833375500319,0.01799373039457898
-0.003726663375500319,0.01845452020314278
-0.003726493375500319,0.01894822356946114
-0.003726323375500319,0.01901405068497026
-0.003726153375500319,0.01901405068497026
-0.003725983375500319,0.01904696424272481
-0.003725813375500319,0.01907987780047937
-0.003725643375500319,0.01980397607107963
-0.003725473375500319,0.01927735914700671
-0.003725303375500319,0.01934318626251582
-0.003725133375500319,0.01888239645395179
-0.003724963375500319,0.0187507422229338
-0.003724793375500319,0.01842160664538823
-0.003724623375500319,0.01812538462559565
-0.003724453375500319,0.01726963212397873
-0.003724283375500319,0.01657844741113303
-0.003724113375500319,0.01651262029562259
-0.003723943375500319,0.01578852202502366
-0.003723773375500319,0.01539355933196897
-0.003723603375500319,0.01493276952340433
-0.003723433375500319,0.01447197971484137
-0.003723263375500319,0.0141428441372958
-0.003723093375500319,0.0137149678864862
-0.003722923375500319,0.01351748653995922
-0.003722753375500319,0.013682054328732
-0.003722583375500319,0.01368205432873093
-0.003722413375500319,0.01308961028914997
-0.003722243375500319,0.0129908696158863
-0.003722073375500319,0.01345165942444813
-0.003721903375500319,0.01236551201854972
-0.003721733375500319,0.0122996849030406
-0.003721563375500319,0.01295795605813205
-0.003721393375500319,0.01312252384690453
-0.003721223375500319,0.0132212645201682
-0.003721053375500319,0.01318835096241323
-0.003720883375500319,0.01295795605813175
-0.003720713375500319,0.01285921538486808
-0.003720543375500319,0.0125959069228321
-0.003720373375500319,0.01266173403834073
-0.003720203375500319,0.01200346288324959
-0.003720033375500319,0.01223385778753107
-0.003719863375500319,0.01213511711426782
-0.003719693375500319,0.0120692899987587
-0.003719523375500319,0.01229968490304018
-0.003719353375500319,0.01203637644100415
-0.003719183375500319,0.01210220355651326
-0.003719013375500319,0.01210220355651326
-0.003718843375500319,0.01256299336507706
