Analysis/files/wrd01_d2s01/cmb06_ch20.csv

#Digilent WaveForms Oscilloscope Acquisition
#Device Name: ADP3450
#Serial Number: SN:210018B9D9B0
#Date Time: 2024-08-14 15:42:32.667.952.400
#Sample rate: 5.88235e+06Hz
#Samples: 32768
#Trigger: Source: Channel 3 Type: Edge Condition: Rising Level: 60 mV Hyst.: Auto HoldOff: 0 s
#Channel 3: Range: 100 mV/div Offset: 0 V Attenuation: 1 X Coupling: DC Bandwidth: 0 Hz Sample Mode: Average

Time (s),Channel 3 (V)
-0.003798399128981072,0.212249548261975
-0.003798229128981072,0.2253162306905544
-0.003798059128981072,0.2364410132115745
-0.003797889128981072,0.2455580687095868
-0.003797719128981072,0.252996532762128
-0.003797549128981072,0.2591842816199735
-0.003797379128981072,0.2639567474943842
-0.003797209128981072,0.2672810168275989
-0.003797039128981072,0.2696507929859226
-0.003796869128981072,0.2703090641410137
-0.003796699128981072,0.2702761505832575
-0.003796529128981072,0.2693545709661316
-0.003796359128981072,0.2677418066361583
-0.003796189128981072,0.2649441542270159
-0.003796019128981072,0.2622123289333927
-0.003795849128981072,0.258920973157937
-0.003795679128981072,0.2552675682471749
-0.003795509128981072,0.2518116446829526
-0.003795339128981072,0.247993671983424
-0.003795169128981072,0.2442086128416431
-0.003794999128981072,0.2404235536998759
-0.003794829128981072,0.2365397538848382
-0.003794659128981072,0.232359732050017
-0.003794489128981072,0.2290683762745537
-0.003794319128981072,0.2251187493440069
-0.003794149128981072,0.2213007766444852
-0.003793979128981072,0.2181739886577953
-0.003793809128981072,0.215442163364167
-0.003793639128981072,0.2112621415293459
-0.003793469128981072,0.2086290569089737
-0.003793299128981072,0.2052060469024998
-0.003793129128981072,0.2021121724735771
-0.003792959128981072,0.1991170387179067
-0.003792789128981072,0.1962206456355057
-0.003792619128981072,0.192797635629038
-0.003792449128981072,0.1897695883156125
-0.003792279128981072,0.1862149240781203
-0.003792109128981072,0.1829564818604251
-0.003791939128981072,0.1791714227186451
-0.003791769128981072,0.1764725109827714
-0.003791599128981072,0.1718975264548963
-0.003791429128981072,0.1686390842371868
-0.003791259128981072,0.1647881979799037
-0.003791089128981072,0.1618588913397534
-0.003790919128981072,0.1588966711418379
-0.003790749128981072,0.1555065746931186
-0.003790579128981072,0.1523797867064413
-0.003790409128981072,0.1491213444887345
-0.003790239128981072,0.1474427530432521
-0.003790069128981072,0.1463566056373517
-0.003789899128981072,0.1434602125549507
-0.003789729128981072,0.1409587821656043
-0.003789559128981072,0.1383256975452398
-0.003789389128981072,0.1360217485024208
-0.003789219128981072,0.1336519723440927
-0.003789049128981072,0.1312163690702554
-0.003788879128981072,0.1285174573343776
-0.003788709128981072,0.1262135082915627
-0.003788539128981072,0.1244690897305712
-0.003788369128981072,0.1221980542455037
-0.003788199128981072,0.1204865492422698
-0.003788029128981072,0.1184459086614873
-0.003787859128981072,0.1166027494272291
-0.003787689128981072,0.1149570715395042
-0.003787519128981072,0.1133443072095309
-0.003787349128981072,0.1119948513415904
-0.003787179128981072,0.1099871243185661
-0.003787009128981072,0.1087034955661384
-0.003786839128981072,0.1073540396981986
-0.003786669128981072,0.1057412753682282
-0.003786499128981072,0.1042272517115186
-0.003786329128981072,0.1027132280548063
-0.003786159128981072,0.1012650315136085
-0.003785989128981072,0.09935604516384416
-0.003785819128981072,0.09741414525632222
-0.003785649128981072,0.09573555381084287
-0.003785479128981072,0.09389239457658768
-0.003785309128981072,0.09191758111130999
-0.003785139128981072,0.0895807185107407
-0.003784969128981072,0.08793504062301283
-0.003784799128981072,0.0856310915801921
-0.003784629128981072,0.08467659840531169
-0.003784459128981072,0.0827346984977928
-0.003784289128981072,0.08122067484108594
-0.003784119128981072,0.07993704608865546
-0.003783949128981072,0.07842302243194582
-0.003783779128981072,0.07700773944850245
-0.003783609128981072,0.07585576492709037
-0.003783439128981072,0.07480253107894455
-0.003783269128981072,0.07342016165325567
-0.003783099128981072,0.07226818713184366
-0.003782929128981072,0.07144534818797973
-0.003782759128981072,0.0704579414553448
-0.003782589128981072,0.06963510251147909
-0.003782419128981072,0.06868060933659692
-0.003782249128981072,0.0679894246237525
-0.003782079128981072,0.06739698058416921
-0.003781909128981072,0.06608043827398691
-0.003781739128981072,0.06529051288787899
-0.003781569128981072,0.06446767394401362
-0.003781399128981072,0.06357900788464058
-0.003781229128981072,0.06255868759425118
-0.003781059128981072,0.06502720442584109
-0.003780889128981072,0.06058387412897588
-0.003780719128981072,0.06018891143592191
-0.003780549128981072,0.05910276403002081
-0.003780379128981072,0.058345752201666
-0.003780209128981072,0.05689755566046812
-0.003780039128981072,0.05597597604333789
-0.003779869128981072,0.0548898286374375
-0.003779699128981072,0.05409990325132813
-0.003779529128981072,0.05291501517216408
-0.003779359128981072,0.05225674401707293
-0.003779189128981072,0.05215800334380926
-0.003779019128981072,0.05107185593790887
-0.003778849128981072,0.04998570853200849
-0.003778679128981072,0.04886664756835355
-0.003778509128981072,0.04843877131754431
-0.003778339128981072,0.04695766121858923
-0.003778169128981072,0.04613482227472531
-0.003777999128981072,0.04514741554208716
-0.003777829128981072,0.04435749015597923
-0.003777659128981072,0.04281055294151504
-0.003777489128981072,0.04195480043989494
-0.003777319128981072,0.04106613438052351
-0.003777149128981072,0.04011164120564136
-0.003776979128981072,0.03909132091524877
-0.003776809128981072,0.03836722264464983
-0.003776639128981072,0.0377747786050678
-0.003776469128981072,0.03754438370078374
-0.003776299128981072,0.03635949562162185
-0.003776129128981072,0.03757729725854046
-0.003775959128981072,0.03672154475692174
-0.003775789128981072,0.03658989052590375
-0.003775619128981072,0.03635949562162185
-0.003775449128981072,0.03655697696814931
-0.003775279128981072,0.0366228040836583
-0.003775109128981072,0.03649114985264008
-0.003774939128981072,0.03589870581305697
-0.003774769128981072,0.03530626177347602
-0.003774599128981072,0.03477964484940311
-0.003774429128981072,0.0343846821563465
-0.003774259128981072,0.0333314483082026
-0.003774089128981072,0.03290357205739335
-0.003773919128981072,0.03204781955577391
-0.003773749128981072,0.03152120263170195
-0.003773579128981072,0.03096167214987448
-0.003773409128981072,0.03050088234131152
-0.003773239128981072,0.030105919648256
-0.003773069128981072,0.03000717897499233
-0.003772899128981072,0.02967804339744736
-0.003772729128981072,0.02898685868460106
-0.003772559128981072,0.02948056205091941
-0.003772389128981072,0.02882229089582947
-0.003772219128981072,0.02869063666481004
-0.003772049128981072,0.02819693329849169
-0.003771879128981072,0.02737409435462925
-0.003771709128981072,0.0266499960840275
-0.003771539128981072,0.02869063666481004
-0.003771369128981072,0.02490557752304286
-0.003771199128981072,0.0250372317540542
-0.003771029128981072,0.02444478771447217
-0.003770859128981072,0.02362194877060974
-0.003770689128981072,0.02332572675081724
-0.003770519128981072,0.02332572675081724
-0.003770349128981072,0.02276619626899078
-0.003770179128981072,0.02273328271123521
-0.003770009128981072,0.02240414713368964
-0.003769839128981072,0.02220666578716265
-0.003769669128981072,0.0217458759785985
-0.003769499128981072,0.02207501155614406
-0.003769329128981072,0.02168004886308938
-0.003769159128981072,0.02177878953635305
-0.003768989128981072,0.02214083867165318
-0.003768819128981072,0.02184461665186217
-0.003768649128981072,0.02200918444063495
-0.003768479128981072,0.02214083867165318
-0.003768309128981072,0.02240414713368964
-0.003768139128981072,0.02240414713368964
-0.003767969128981072,0.02283202338449888
-0.003767799128981072,0.02332572675081724
-0.003767629128981072,0.02355612165509884
-0.003767459128981072,0.02339155386632635
-0.003767289128981072,0.02398399790590838
-0.003767119128981072,0.0232928131930631
-0.003766949128981072,0.02352320809734458
-0.003766779128981072,0.02335864030857179
-0.003766609128981072,0.02293076405776195
-0.003766439128981072,0.02260162848021698
-0.003766269128981072,0.02194335732512584
-0.003766099128981072,0.02138382684329711
-0.003765929128981072,0.02069264213045267
-0.003765759128981072,0.01996854385985241
-0.003765589128981072,0.0192444455892491
-0.003765419128981072,0.01756585414376974
-0.003765249128981072,0.01720380500846961
-0.003765079128981072,0.01608474404481377
-0.003764909128981072,0.01559104067849632
-0.003764739128981072,0.01499859663891429
-0.003764569128981072,0.01473528817687819
-0.003764399128981072,0.01493276952340517
-0.003764229128981072,0.01516316442768707
-0.003764059128981072,0.01568978135176035
-0.003763889128981072,0.01588726269828733
-0.003763719128981072,0.01631513894909657
-0.003763549128981072,0.01694049654643345
-0.003763379128981072,0.01710506433520594
-0.003763209128981072,0.01654553385337847
-0.003763039128981072,0.01667718808439646
-0.003762869128981072,0.01631513894909657
-0.003762699128981072,0.01585434914053277
-0.003762529128981072,0.01595308981379626
-0.003762359128981072,0.01568978135175999
-0.003762189128981072,0.01295795605813175
-0.003762019128981072,0.01582143558277301
-0.003761849128981072,0.0146036339458596
-0.003761679128981072,0.01420867125280492
-0.003761509128981072,0.01404410346403243
-0.003761339128981072,0.01394536279076846
-0.003761169128981072,0.01430741192606859
-0.003760999128981072,0.0142086712528051
-0.003760829128981072,0.013682054328732
-0.003760659128981072,0.01351748653995922
-0.003760489128981072,0.01358331365546821
-0.003760319128981072,0.0141428441372958
-0.003760149128981072,0.01295795605813175
-0.003759979128981072,0.01315543740465873
-0.003759809128981072,0.01302378317364086
-0.003759639128981072,0.01318835096241365
-0.003759469128981072,0.01302378317364116
-0.003759299128981072,0.01328709163567732
-0.003759129128981072,0.0129908696158863
-0.003758959128981072,0.01312252384690429
-0.003758789128981072,0.01338583230894099
-0.003758619128981072,0.01328709163567732
-0.003758449128981072,0.013682054328732
-0.003758279128981072,0.0146036339458596
-0.003758109128981072,0.01430741192606859
-0.003757939128981072,0.01473528817687783
-0.003757769128981072,0.01473528817687783
-0.003757599128981072,0.01526190510095074
-0.003757429128981072,0.01526190510095074
-0.003757259128981072,0.01529481865870584
-0.003757089128981072,0.01559104067849632
-0.003756919128981072,0.01536064577421441
-0.003756749128981072,0.01608474404481431
-0.003756579128981072,0.01588726269828733
-0.003756409128981072,0.0155252135629872
-0.003756239128981072,0.01592017625604177
-0.003756069128981072,0.01585434914053277
-0.003755899128981072,0.01615057116032378
-0.003755729128981072,0.01615057116032205
-0.003755559128981072,0.01519607798544163
-0.003755389128981072,0.01549230000523264
-0.003755219128981072,0.01516316442768617
-0.003755049128981072,0.01466946106136872
-0.003754879128981072,0.01440615259933226
-0.003754709128981072,0.01387953567525893
-0.003754539128981072,0.01364914077097745
-0.003754369128981072,0.01348457298220466
-0.003754199128981072,0.01315543740465843
-0.003754029128981072,0.01279338826935896
-0.003753859128981072,0.01262882048058617
-0.003753689128981072,0.01210220355651296
-0.003753519128981072,0.01193763576774048
-0.003753349128981072,0.01108188326612199
-0.003753179128981072,0.01078566124633146
-0.003753009128981072,0.01104896970836743
-0.003752839128981072,0.01118062393938566
-0.003752669128981072,0.01095022903510418
-0.003752499128981072,0.01269464759609529
-0.003752329128981072,0.01285921538486808
-0.003752159128981072,0.01312252384690405
-0.003751989128981072,0.013682054328732
-0.003751819128981072,0.01387953567525935
-0.003751649128981072,0.01434032548382231
-0.003751479128981072,0.01453780683035049
-0.003751309128981072,0.01489985596565062
-0.003751139128981072,0.01486694240789612
-0.003750969128981072,0.01447197971484137
-0.003750799128981072,0.01480111529238694
-0.003750629128981072,0.01489985596565043
-0.003750459128981072,0.01496568308115973
-0.003750289128981072,0.01493276952340517
-0.003750119128981072,0.01545938644747713
-0.003749949128981072,0.0152948186587053
-0.003749779128981072,0.01572269490951454
-0.003749609128981072,0.01526190510095158
-0.003749439128981072,0.01526190510095074
-0.003749269128981072,0.01499859663891429
-0.003749099128981072,0.01466946106136931
-0.003748929128981072,0.01447197971484137
-0.003748759128981072,0.01341874586669555
-0.003748589128981072,0.01292504250037809
-0.003748419128981072,0.01243133913405883
-0.003748249128981072,0.01164141374794946
-0.003748079128981072,0.01071983413082186
-0.003747909128981072,0.009469118936148692
-0.003747739128981072,0.008909588454321223
-0.003747569128981072,0.008481712203511979
-0.003747399128981072,0.007823441048420837
-0.003747229128981072,0.006605639411502225
-0.003747059128981072,0.005684059794374625
-0.003746889128981072,0.005157442870301712
-0.003746719128981072,0.004959961523774369
-0.003746549128981072,0.004696653061737912
-0.003746379128981072,0.004564998830720222
-0.003746209128981072,0.004861220850510698
-0.003746039128981072,0.005387837774583611
-0.003745869128981072,0.005420751332339126
-0.003745699128981072,0.005947368256411082
-0.003745529128981072,0.006441071622729439
-0.003745359128981072,0.007000602104557987
-0.003745189128981072,0.007593046144138938
-0.003745019128981072,0.008777934223302994
-0.003744849128981072,0.009205810474113254
-0.003744679128981072,0.009765340955939707
-0.003744509128981072,0.01055526634204908
-0.003744339128981072,0.01042361211103091
-0.003744169128981072,0.01045652566878541
-0.003743999128981072,0.01032487143776718
-0.003743829128981072,0.01068692057306695
-0.003743659128981072,0.01048943922653996
-0.003743489128981072,0.01025904432225806
-0.003743319128981072,0.01200346288324438
-0.003743149128981072,0.009139983358603122
-0.003742979128981072,0.01091731547734921
-0.003742809128981072,0.01045652566878571
-0.003742639128981072,0.01062109345755819
-0.003742469128981072,0.01042361211103085
-0.003742299128981072,0.01104896970836761
-0.003742129128981072,0.01114771038163111
-0.003741959128981072,0.0116085001901949
-0.003741789128981072,0.01180598153672189
-0.003741619128981072,0.01203637644100415
-0.003741449128981072,0.01180598153672225
-0.003741279128981072,0.01243133913405769
-0.003741109128981072,0.01174015442121313
-0.003740939128981072,0.01104896970836743
-0.003740769128981072,0.01127936461264891
-0.003740599128981072,0.01068692057306731
-0.003740429128981072,0.01062109345755819
-0.003740259128981072,0.01032487143776772
-0.003740089128981072,0.01025904432225806
-0.003739919128981072,0.01009447653348528
-0.003739749128981072,0.01002864941797628
-0.003739579128981072,0.01006156297573072
-0.003739409128981072,0.01039069855327629
-0.003739239128981072,0.01075274768857576
-0.003739069128981072,0.01048943922653996
-0.003738899128981072,0.01091731547734921
-0.003738729128981072,0.01065400701531323
-0.003738559128981072,0.01071983413082186
-0.003738389128981072,0.01068692057306731
-0.003738219128981072,0.01029195788001334
-0.003738049128981072,0.01012739009123984
-0.003737879128981072,0.009962822302467049
-0.003737709128981072,0.01012739009123954
-0.003737539128981072,0.01052235278429452
-0.003737369128981072,0.009995735860221606
-0.003737199128981072,0.01009447653348528
-0.003737029128981072,0.01019321720674895
-0.003736859128981072,0.00983116807144882
-0.003736689128981072,0.009436205378394135
-0.003736519128981072,0.00973242739818515
-0.003736349128981072,0.008876674896566664
-0.003736179128981072,0.008382971530248308
-0.003736009128981072,0.008448798645757542
-0.003735839128981072,0.008514625761266537
-0.003735669128981072,0.008053835952702737
-0.003735499128981072,0.007790527490666699
-0.003735329128981072,0.00802092239494818
-0.003735159128981072,0.008185490183720966
-0.003734989128981072,0.008481712203511798
-0.003734819128981072,0.008382971530248308
-0.003734649128981072,0.008284230856984636
-0.003734479128981072,0.008086749510457953
-0.003734309128981072,0.008448798645757422
-0.003734139128981072,0.008185490183720966
-0.003733969128981072,0.008218403741471451
-0.003733799128981072,0.005980281814165639
-0.003733629128981072,0.008547539319021094
-0.003733459128981072,0.00825131729923026
-0.003733289128981072,0.008350057972493751
-0.003733119128981072,0.008152576625966409
-0.003732949128981072,0.008317144414739193
-0.003732779128981072,0.008317144414739193
-0.003732609128981072,0.008350057972493751
-0.003732439128981072,0.009172896916357139
-0.003732269128981072,0.008876674896566664
-0.003732099128981072,0.009896995186957936
-0.003731929128981072,0.009732427398187724
-0.003731759128981072,0.01114771038163111
-0.003731589128981072,0.01124645105489478
-0.003731419128981072,0.01203637644100271
-0.003731249128981072,0.01233259846079516
-0.003731079128981072,0.01302378317364086
-0.003730909128981072,0.01361622721322181
-0.003730739128981072,0.01384662211750479
-0.003730569128981072,0.01305669673139542
-0.003730399128981072,0.01312252384690441
-0.003730229128981072,0.01272756115384985
-0.003730059128981072,0.01282630182711352
-0.003729889128981072,0.01213511711426908
-0.003729719128981072,0.01256299336507706
-0.003729549128981072,0.01068692057306731
-0.003729379128981072,0.01019321720674985
-0.003729209128981072,0.01009447653348528
-0.003729039128981072,0.009666600282676035
-0.003728869128981072,0.00913998335860408
-0.003728699128981072,0.009172896916357679
-0.003728529128981072,0.009469118936148692
-0.003728359128981072,0.009666600282675675
-0.003728189128981072,0.009633686724921478
-0.003728019128981072,0.009798254513694264
-0.003727849128981072,0.01016030364899373
-0.003727679128981072,0.01045652566878541
-0.003727509128981072,0.01071983413082186
-0.003727339128981072,0.01071983413082186
-0.003727169128981072,0.01088440191959465
-0.003726999128981072,0.01091731547734921
-0.003726829128981072,0.01078566124633098
-0.003726659128981072,0.01068692057306731
-0.003726489128981072,0.01088440191959465
-0.003726319128981072,0.01032487143776718
-0.003726149128981072,0.01075274768857642
-0.003725979128981072,0.01104896970836743
-0.003725809128981072,0.01101605615061288
-0.003725639128981072,0.01091731547734921
-0.003725469128981072,0.01108188326612199
-0.003725299128981072,0.01081857480408553
-0.003725129128981072,0.01081857480408535
-0.003724959128981072,0.01071983413082186
-0.003724789128981072,0.01025904432225806
-0.003724619128981072,0.01025904432225663
-0.003724449128981072,0.009469118936148692
-0.003724279128981072,0.01058817989980363
-0.003724109128981072,0.009699513840432928
-0.003723939128981072,0.01098314259285832
-0.003723769128981072,0.01088440191959465
-0.003723599128981072,0.01167432730570456
-0.003723429128981072,0.01197054932549503
-0.003723259128981072,0.01223385778753149
-0.003723089128981072,0.01312252384690519
-0.003722919128981072,0.01348457298220466
-0.003722749128981072,0.01378079500199567
-0.003722579128981072,0.01437323904157788
-0.003722409128981072,0.01447197971484137
-0.003722239128981072,0.01503151019666884
-0.003722069128981072,0.0146694610613683
-0.003721899128981072,0.01443906615708682
-0.003721729128981072,0.01470237461912327
-0.003721559128981072,0.01378079500199465
-0.003721389128981072,0.0132212645201682
-0.003721219128981072,0.0120692899987587
-0.003721049128981072,0.01150975951692974
-0.003720879128981072,0.01068692057306731
-0.003720709128981072,0.009765340955939707
-0.003720539128981072,0.008942502012077276
-0.003720369128981072,0.008448798645757422
-0.003720199128981072,0.00802092239494818
-0.003720029128981072,0.007560132586385218
-0.003719859128981072,0.007263910566593366
-0.003719689128981072,0.007362651239857037
-0.003719519128981072,0.006868947873539579
-0.003719349128981072,0.006737293642520453
-0.003719179128981072,0.006737293642520453
