Analysis/files/wrd01_d2s01/cmb06_ch16.csv

#Digilent WaveForms Oscilloscope Acquisition
#Device Name: ADP3450
#Serial Number: SN:210018B9D9B0
#Date Time: 2024-06-21 15:18:45.080.669.130
#Sample rate: 2.5e+07Hz
#Samples: 32768
#Trigger: Source: Channel 3 Type: Edge Condition: Rising Level: 60 mV Hyst.: Auto HoldOff: 0 s
#Channel 3: Range: 100 mV/div Offset: 0 V Attenuation: 1 X Coupling: DC Bandwidth: 0 Hz Sample Mode: Average

Time (s),Channel 3 (V)
-0.0006553568627450981,-0.02894100296341945
-0.0006553168627450981,-0.02927013854096502
-0.000655276862745098,-0.02897391652117341
-0.000655236862745098,-0.02864478094362844
-0.0006551968627450981,-0.02884226229015578
-0.0006551568627450981,-0.02913848430994679
-0.0006551168627450981,-0.02907265719443768
-0.0006550768627450981,-0.02848021315485673
-0.000655036862745098,-0.02867769450138239
-0.000654996862745098,-0.02834855892383742
-0.0006549568627450981,-0.02851312671261021
-0.0006549168627450981,-0.02831564536608287
-0.0006548768627450981,-0.02844729959710086
-0.000654836862745098,-0.02821690469281956
-0.000654796862745098,-0.02841438603934654
-0.0006547568627450981,-0.02792068267302818
-0.0006547168627450981,-0.02719658440242792
-0.0006546768627450981,-0.02765737421099089
-0.000654636862745098,-0.02703201661365526
-0.000654596862745098,-0.02709784372916425
-0.0006545568627450981,-0.02749280642221894
-0.0006545168627450981,-0.0272953250756916
-0.0006544768627450981,-0.02657122680509134
-0.000654436862745098,-0.02696618949814525
-0.000654396862745098,-0.02653831324733678
-0.0006543568627450981,-0.02693327594039147
-0.0006543168627450981,-0.0259129556500002
-0.0006542768627450981,-0.026373745458564
-0.0006542368627450981,-0.02584712853449204
-0.000654196862745098,-0.02505720314838171
-0.000654156862745098,-0.02578130141898197
-0.0006541168627450981,-0.02489263535960893
-0.0006540768627450981,-0.02535342516817273
-0.0006540368627450981,-0.02495846247511876
-0.000653996862745098,-0.02489263535960809
-0.000653956862745098,-0.02443184555104513
-0.0006539168627450981,-0.02446475910879968
-0.0006538768627450981,-0.02397105574248133
-0.0006538368627450981,-0.02406979641574482
-0.000653796862745098,-0.02341152526065494
-0.000653756862745098,-0.02400396930023588
-0.0006537168627450981,-0.0236090066071812
-0.0006536768627450981,-0.02351026593391753
-0.0006536368627450981,-0.02331278458739055
-0.000653596862745098,-0.0231811303563707
-0.000653556862745098,-0.02248994564352626
-0.0006535168627450981,-0.02219372362373525
-0.0006534768627450981,-0.02193041516169879
-0.0006534368627450981,-0.02281908122107183
-0.0006533968627450981,-0.02183167448843691
-0.000653356862745098,-0.02193041516169879
-0.0006533168627450981,-0.02248994564352626
-0.0006532768627450981,-0.01893528140603409
-0.0006532368627450981,-0.02189750160394423
-0.0006531968627450981,-0.02173293381517174
-0.000653156862745098,-0.02054804573600685
-0.000653116862745098,-0.02025182371621638
-0.0006530768627450981,-0.02074552708253473
-0.0006530368627450981,-0.02054804573600739
-0.0006529968627450981,-0.02025182371621691
-0.000652956862745098,-0.02035056438947939
-0.000652916862745098,-0.01998851525417992
-0.0006528768627450981,-0.02028473727397093
-0.0006528368627450981,-0.01916567631031599
-0.0006527968627450981,-0.01926441698357948
-0.000652756862745098,-0.01936315765684297
-0.000652716862745098,-0.01916567631031599
-0.0006526768627450981,-0.01936315765684333
-0.0006526368627450981,-0.01903402207929776
-0.0006525968627450981,-0.01880362717501586
-0.0006525568627450981,-0.01880362717501586
-0.000652516862745098,-0.01883654073277042
-0.0006524768627450981,-0.01834283736645206
-0.0006524368627450981,-0.01791496111564282
-0.0006523968627450981,-0.01909984919480688
-0.0006523568627450981,-0.01768456621136349
-0.000652316862745098,-0.01768456621136152
-0.000652276862745098,-0.01801370178890649
-0.0006522368627450981,-0.01827701025094295
-0.0006521968627450981,-0.01755291198034269
-0.0006521568627450981,-0.01817826957767814
-0.000652116862745098,-0.01755291198034239
-0.000652076862745098,-0.01738834419156991
-0.0006520368627450981,-0.01719086284504256
-0.0006519968627450981,-0.01771747976911548
-0.0006519568627450981,-0.01705920861402553
-0.000651916862745098,-0.01732251707606061
-0.000651876862745098,-0.01722377640279712
-0.0006518368627450981,-0.01755291198034269
-0.0006517968627450981,-0.01725668996055168
-0.0006517568627450981,-0.01669715947872421
-0.000651716862745098,-0.01742125774932434
-0.000651676862745098,-0.01735543063381535
-0.0006516368627450981,-0.01712503572953345
-0.0006515968627450981,-0.01725668996055168
-0.0006515568627450981,-0.01600597476587851
-0.0006515168627450981,-0.01821118313542982
-0.000651476862745098,-0.01653259168995058
-0.000651436862745098,-0.01607180188138762
-0.0006513968627450981,-0.01630219678566952
-0.0006513568627450981,-0.01656550524770598
-0.0006513168627450981,-0.01574266630384355
-0.000651276862745098,-0.01580849341935212
-0.000651236862745098,-0.01633511034342408
-0.0006511968627450981,-0.01564392563057838
-0.0006511568627450981,-0.01541353072629648
-0.0006511168627450981,-0.01508439514875151
-0.000651076862745098,-0.0159401476503694
-0.000651036862745098,-0.0159401476503694
-0.0006509968627450981,-0.01541353072629648
-0.0006509568627450981,-0.0143273833203961
-0.0006509168627450981,-0.01541353072629648
-0.000650876862745098,-0.01498565447548808
-0.000650836862745098,-0.01544644428405104
-0.0006507968627450981,-0.01511730870650547
-0.0006507568627450981,-0.0150185680332418
-0.0006507168627450981,-0.01482108668671445
-0.0006506768627450981,-0.01449195110916948
-0.000650636862745098,-0.0150185680332418
-0.000650596862745098,-0.01445903755141432
-0.0006505568627450981,-0.01495274091773268
-0.0006505168627450981,-0.01468943245569622
-0.0006504768627450981,-0.01439321043590575
-0.000650436862745098,-0.01436029687815053
-0.000650396862745098,-0.01429446976264154
-0.0006503568627450981,-0.01475525957120534
-0.0006503168627450981,-0.01472234601345078
-0.0006502768627450981,-0.01393242062734285
-0.000650236862745098,-0.01419572908937882
-0.000650196862745098,-0.01472234601345078
-0.0006501568627450981,-0.0140969884161142
-0.0006501168627450981,-0.014557778224678
-0.0006500768627450981,-0.01445903755141451
-0.000650036862745098,-0.01389950706958679
-0.000649996862745098,-0.0138665935118323
-0.0006499568627450981,-0.01436029687815065
-0.0006499168627450981,-0.01416281553162331
-0.0006498768627450981,-0.01399824774285052
-0.0006498368627450981,-0.01370202572306005
-0.000649796862745098,-0.01399824774285052
-0.0006497568627450981,-0.01347163081877761
-0.0006497168627450981,-0.01380076639632318
-0.0006496768627450981,-0.01360328504979584
-0.0006496368627450981,-0.01370202572305933
-0.000649596862745098,-0.01357037149204074
-0.000649556862745098,-0.01327414947225027
-0.0006495168627450981,-0.01297792745245925
-0.0006494768627450981,-0.01245131052838634
-0.0006494368627450981,-0.01314249524123078
-0.000649396862745098,-0.01330706303000381
-0.000649356862745098,-0.01274753254817735
-0.0006493168627450981,-0.01284627322144103
-0.0006492768627450981,-0.01264879187491368
-0.0006492368627450981,-0.01156264446901527
-0.000649196862745098,-0.01225382918185936
-0.000649156862745098,-0.01245131052838634
-0.0006491168627450981,-0.01212217495084077
-0.0006490768627450981,-0.01301084101021381
-0.0006490368627450981,-0.01169429870003153
-0.000648996862745098,-0.01113476821820585
-0.000648956862745098,-0.01212217495084077
-0.0006489168627450981,-0.01185886648880431
-0.0006488768627450981,-0.01116768177595861
-0.0006488368627450981,-0.0117930393732952
-0.0006487968627450981,-0.01139807668024123
-0.000648756862745098,-0.01073980552515033
-0.000648716862745098,-0.01126642244922228
-0.0006486768627450981,-0.01166138514227697
-0.0006486368627450981,-0.009851139465776329
-0.0006485968627450981,-0.01044358350535728
-0.000648556862745098,-0.01014736148556668
-0.000648516862745098,-0.009785312350267215
-0.0006484768627450981,-0.01024610215883101
-0.0006484368627450981,-0.01021318860107646
-0.0006483968627450981,-0.009028300521914556
-0.000648356862745098,-0.009554917445986215
-0.000648316862745098,-0.01004862081230367
-0.0006482768627450981,-0.009094127637421515
-0.0006482368627450981,-0.009061214079666959
-0.0006481968627450981,-0.009258695426194301
-0.000648156862745098,-0.009159954752930691
-0.000648116862745098,-0.009192868310685188
-0.0006480768627450981,-0.009061214079666959
-0.0006480368627450981,-0.008764992059875945
-0.0006479968627450981,-0.008567510713348603
-0.0006479568627450981,-0.008633337828857597
-0.000647916862745098,-0.008402942924575997
-0.000647876862745098,-0.008501683597839487
-0.0006478368627450981,-0.007876326000502903
-0.0006477968627450981,-0.008304202251312145
-0.0006477568627450981,-0.008238375135803151
-0.000647716862745098,-0.008238375135803092
-0.000647676862745098,-0.008271288693557588
-0.0006476368627450981,-0.008040893789275689
-0.0006475968627450981,-0.008106720904784802
-0.0006475568627450981,-0.007744671769485333
-0.000647516862745098,-0.007810498884994208
-0.000647476862745098,-0.008040893789275689
-0.0006474368627450981,-0.008040893789275689
-0.0006473968627450981,-0.007876326000502903
-0.0006473568627450981,-0.007185141287657204
-0.000647316862745098,-0.006230648112777681
-0.000647276862745098,-0.00767884465397556
-0.0006472368627450981,-0.007415536191939104
-0.0006471968627450981,-0.006987659941129861
-0.0006471568627450981,-0.007481363307448217
-0.0006471168627450981,-0.006856005710112771
-0.000647076862745098,-0.006987659941129861
-0.000647036862745098,-0.006724351479093405
-0.0006469968627450981,-0.007316795518675433
-0.0006469568627450981,-0.00767884465397556
-0.0006469168627450981,-0.006790178594604135
-0.000646876862745098,-0.007382622634184247
-0.000646836862745098,-0.007218054845411761
-0.0006467968627450981,-0.007283881960920875
-0.0006467568627450981,-0.007481363307448217
-0.0006467168627450981,-0.007744671769484196
-0.000646676862745098,-0.007415536191940421
-0.000646636862745098,-0.008139634462539359
-0.0006465968627450981,-0.007580103980711889
-0.0006465568627450981,-0.007547190422957332
-0.0006465168627450981,-0.00744844974969384
-0.000646476862745098,-0.007580103980712607
-0.000646436862745098,-0.007975066673766575
-0.0006463968627450981,-0.007744671769484675
-0.0006463568627450981,-0.007942153116012016
-0.0006463168627450981,-0.007349709076429989
-0.0006462768627450981,-0.007547190422956973
-0.000646236862745098,-0.007086400614393532
-0.0006461968627450981,-0.007613017538466446
-0.0006461568627450981,-0.007283881960920875
-0.0006461168627450981,-0.007152227729902647
-0.0006460768627450981,-0.007645931096220106
-0.000646036862745098,-0.007382622634184426
-0.000645996862745098,-0.007316795518675433
-0.0006459568627450981,-0.006856005710111633
-0.0006459168627450981,-0.006987659941129861
-0.0006458768627450981,-0.006691437921339386
-0.000645836862745098,-0.006362302343793216
-0.000645796862745098,-0.006329388786038719
-0.0006457568627450981,-0.006724351479093405
-0.0006457168627450981,-0.006461043017056948
-0.0006456768627450981,-0.006921832825619909
-0.000645636862745098,-0.006329388786038539
-0.000645596862745098,-0.006230648112775047
-0.0006455568627450981,-0.006395215901547833
-0.0006455168627450981,-0.006164820997265934
-0.0006454768627450981,-0.006461043017056948
-0.000645436862745098,-0.00609899388175658
-0.000645396862745098,-0.005967339650738591
-0.0006453568627450981,-0.005341982053402005
-0.0006453168627450981,-0.005572376957683906
-0.0006452768627450981,-0.005901512535229476
-0.0006452368627450981,-0.005374895611157521
-0.000645196862745098,-0.005177414264629101
-0.000645156862745098,-0.005111587149120106
-0.0006451168627450981,-0.004881192244838206
-0.0006450768627450981,-0.004288748205256179
-0.0006450368627450981,-0.004584970225046654
-0.000644996862745098,-0.004486229551783042
-0.000644956862745098,-0.004222921089747064
-0.0006449168627450981,-0.004255834647501621
-0.0006448768627450981,-0.003959612627710607
-0.0006448368627450981,-0.003498822819147646
-0.000644796862745098,-0.003729217723429067
-0.000644756862745098,-0.00392669906995605
-0.0006447168627450981,-0.003597563492410479
-0.0006446768627450981,-0.003169687241601236
-0.0006446368627450981,-0.00369630416567415
-0.000644596862745098,-0.002873465221809684
-0.000644556862745098,-0.002577243202019209
-0.0006445168627450981,-0.002248107624473638
-0.0006444768627450981,-0.002708897433037437
-0.0006444368627450981,-0.002412675413246423
-0.0006443968627450981,-0.002281021182228434
-0.000644356862745098,-0.002083539835699834
-0.000644316862745098,-0.001524009353873381
-0.0006442768627450981,-0.001951885604682624
-0.0006442368627450981,-0.001918972046928067
-0.0006441968627450981,-0.001556922911628597
-0.000644156862745098,-0.002017712720190062
-0.000644116862745098,-0.001096133103064139
-0.0006440768627450981,-0.00142526868060971
-0.0006440368627450981,-0.001721490700400724
-0.0006439968627450981,0.0001874956493601158
-0.000643956862745098,-0.002281021182227177
-0.000643916862745098,-0.001721490700400724
-0.0006438768627450981,-0.0007999110832731249
-0.0006438368627450981,0.0001874956493635883
-0.0006437968627450981,0.0001216685338544741
-0.000643756862745098,-0.0006353432944987828
-0.000643716862745098,0.0002204092071181454
-0.0006436768627450981,0.0001216685338544741
-0.0006436368627450981,0.0003520634381363738
-0.0006435968627450981,0.0001545820916090312
-0.0006435568627450981,5.584141834553947e-05
-0.000643516862745098,5.584141834535986e-05
-0.000643476862745098,-0.0002732941592002112
-0.0006434368627450981,-0.0005695161789912252
-0.0006433968627450981,0.0001874956493635883
-0.0006433568627450981,0.0003520634381360745
-0.000643316862745098,-0.0002732941591996724
-0.000643276862745098,2.292786059080275e-05
-0.0006432368627450981,2.292786059080275e-05
-0.0006431968627450981,-0.0001087263704274257
-0.0006431568627450981,-0.0001745534859364202
-0.000643116862745098,-0.0001416399281821624
-0.000643076862745098,-0.0002403806014456541
-0.0006430368627450981,-0.0006682568522548965
-0.0006429968627450981,-0.0005036890634821109
-0.0006429568627450981,-0.0007340839677635917
-0.000642916862745098,-0.0002403806014458337
-0.000642876862745098,-0.0003391212747093254
-0.0006428368627450981,-0.0005695161789912252
-0.0006427968627450981,-9.985697163754359e-06
-0.0006427568627450981,-0.0006682568522548965
-0.0006427168627450981,-0.0005366026212369076
-0.000642676862745098,-0.001161960218573253
-0.0006426368627450981,-0.001096133103064139
-0.0006425968627450981,-0.001458182238364267
-0.0006425568627450981,-0.000832824641027682
-0.0006425168627450981,-0.001129046660818157
-0.000642476862745098,-0.001589836469381298
-0.000642436862745098,-0.0009315653142913533
-0.0006423968627450981,-0.001293614449591481
-0.0006423568627450981,-0.001754404258155281
-0.0006423168627450981,-0.001194873776328828
-0.000642276862745098,-0.00201771272019084
-0.000642236862745098,-0.001524009353873381
-0.0006421968627450981,-0.001918972046928067
-0.0006421568627450981,-0.001820231373664395
-0.0006421168627450981,-0.002972205895071798
-0.000642076862745098,-0.001392355122857128
-0.000642036862745098,-0.002478502528755537
-0.0006419968627450981,-0.002083539835700852
-0.0006419568627450981,-0.002379761855491866
-0.0006419168627450981,-0.002577243202019209
-0.000641876862745098,-0.002478502528756136
-0.000641836862745098,-0.002807638106301108
-0.0006417968627450981,-0.002840551664055666
-0.0006417568627450981,-0.002610156759773766
-0.0006417168627450981,-0.003301341472619465
-0.0006416768627450981,-0.003070946568337984
-0.000641636862745098,-0.003169687241601296
-0.000641596862745098,-0.003202600799355794
-0.0006415568627450981,-0.00336716858812858
-0.0006415168627450981,-0.003564649934655922
-0.0006414768627450981,-0.003663390607919414
-0.000641436862745098,-0.003334255030373962
-0.000641396862745098,-0.003301341472619465
-0.0006413568627450981,-0.004124180416483393
-0.0006413168627450981,-0.004190007531992507
-0.0006412768627450981,-0.003762131281184043
-0.000641236862745098,-0.004124180416482435
-0.000641196862745098,-0.003597563492410479
-0.0006411568627450981,-0.003762131281183265
-0.0006411168627450981,-0.003729217723428708
-0.0006410768627450981,-0.003827958396692379
-0.000641036862745098,-0.004025439743219721
-0.000640996862745098,-0.004025439743219721
-0.0006409568627450981,-0.004255834647501621
-0.0006409168627450981,-0.003564649934655922
-0.0006408768627450981,-0.004025439743219721
-0.0006408368627450981,-0.004321661763010197
-0.000640796862745098,-0.003926699069955392
-0.000640756862745098,-0.003564649934655922
-0.0006407168627450981,-0.004683710898310864
-0.0006406768627450981,-0.00313677368384668
-0.0006406368627450981,-0.002906378779565199
-0.000640596862745098,-0.00349882281914579
-0.000640556862745098,-0.002939292337319337
-0.0006405168627450981,-0.003169687241601236
-0.0006404768627450981,-0.003465909261392251
-0.0006404368627450981,-0.003432995703637753
-0.000640396862745098,-0.002708897433037198
-0.000640356862745098,-0.002577243202019209
-0.0006403168627450981,-0.002774724548546551
-0.0006402768627450981,-0.002807638106301108
-0.0006402368627450981,-0.001886058489175186
-0.000640196862745098,-0.002643070317527844
-0.000640156862745098,-0.002379761855491866
-0.0006401168627450981,-0.002281021182228195
-0.0006400768627450981,-0.002577243202019209
-0.0006400368627450981,-0.001688577142646167
-0.0006399968627450981,-0.00188605848917315
-0.000639956862745098,-0.001853144931418952
-0.000639916862745098,-0.001458182238364267
-0.0006398768627450981,-0.001721490700400724
-0.0006398368627450981,-0.001030305987555025
-0.0006397968627450981,-0.001589836469381478
-0.000639756862745098,-0.0002403806014470311
-0.000639716862745098,-0.0009973924298004675
-0.0006396768627450981,-0.0009644788720459105
-0.0006396368627450981,-0.0002732941592002112
-0.0006395968627450981,-0.0007999110832721669
-0.000639556862745098,-0.0006353432944989623
-0.000639516862745098,0.0001216685338544741
-0.0006394768627450981,-0.0003720348324638825
-0.0006394368627450981,-0.001161960218573253
-0.0006393968627450981,-0.000865738198782778
-0.000639356862745098,-0.0005695161789915246
-0.000639316862745098,-0.0007340839677640107
-0.0006392768627450981,-0.0006024297367457822
-0.0006392368627450981,-0.0005695161789912252
-0.0006391968627450981,-0.0002732941592002112
-0.0006391568627450981,2.292786059026388e-05
-0.000639116862745098,-0.0004049483902184396
-0.0006390768627450981,-0.0002403806014456541
-0.0006390368627450981,-0.0007011704100094536
-0.0006389968627450981,-0.0003720348324638825
-0.0006389568627450981,-0.0002074670436913963
-0.000638916862745098,-0.0001416399281824617
-0.000638876862745098,-0.0004049483902184396
-0.0006388368627450981,-0.0006682568522548965
-0.0006387968627450981,0.0002862363226272596
-0.0006387568627450981,0.0001874956493637679
-0.000638716862745098,0.0001874956493646659
-0.000638676862745098,0.0007799396889456162
-0.0006386368627450981,-0.0003391212747093254
-0.0006385968627450981,5.584141834535986e-05
-0.0006385568627450981,0.001504037959543238
-0.000638516862745098,0.0004508041113997458
-0.000638476862745098,0.0002862363226272596
-0.0006384368627450981,0.001109075266491187
-0.0006383968627450981,0.001043248150982073
-0.0006383568627450981,0.001043248150982073
-0.000638316862745098,0.0009445074777194195
-0.000638276862745098,0.001504037959545873
-0.0006382368627450981,0.001339470170773087
-0.0006381968627450981,0.001504037959545873
-0.0006381568627450981,0.001273643055263973
-0.0006381168627450981,0.001207815939754978
-0.000638076862745098,0.0005824583424192314
-0.000638036862745098,0.001109075266491187
-0.0006379968627450981,0.001471124401791315
-0.0006379568627450981,0.001635692190564101
-0.0006379168627450981,0.001471124401791615
-0.000637876862745098,0.001405297286282022
-0.000637836862745098,0.00130655661301853
-0.0006377968627450981,0.001504037959545873
-0.0006377568627450981,0.002096481999127901
-0.0006377168627450981,0.001800259979337425
