Analysis/files/wrd01_d2s01/cmb12_ch23.csv

#Digilent WaveForms Oscilloscope Acquisition
#Device Name: ADP3450
#Serial Number: SN:210018B9D9B0
#Date Time: 2024-08-15 12:05:43.933.803.420
#Sample rate: 5.88235e+06Hz
#Samples: 32768
#Trigger: Source: Channel 3 Type: Edge Condition: Rising Level: 40 mV Hyst.: Auto HoldOff: 0 s
#Channel 3: Range: 100 mV/div Offset: 0 V Attenuation: 1 X Coupling: DC Bandwidth: 0 Hz Sample Mode: Average

Time (s),Channel 3 (V)
-0.003168972072077142,0.02006728453311608
-0.003168802072077142,0.02003437097536068
-0.003168632072077142,0.01957358116679772
-0.003168462072077142,0.01934318626251582
-0.003168292072077142,0.01750002702826003
-0.003168122072077142,0.01717089145071506
-0.003167952072077142,0.01766459481703341
-0.003167782072077142,0.01957358116679898
-0.003167612072077142,0.02026476587964342
-0.003167442072077142,0.02016602520637975
-0.003167272072077142,0.01977106251332393
-0.003167102072077142,0.01914570491598848
-0.003166932072077142,0.01898113712721569
-0.003166762072077142,0.01822412529886023
-0.003166592072077142,0.01786207616356076
-0.003166422072077142,0.01697341010418771
-0.003166252072077142,0.01710506433520564
-0.003166082072077142,0.01694049654643316
-0.003165912072077142,0.01763168125927886
-0.003165742072077142,0.01680884231541355
-0.003165572072077142,0.01605183048706011
-0.003165402072077142,0.01542647288972353
-0.003165232072077142,0.01420867125280713
-0.003165062072077142,0.01308961028914997
-0.003164892072077142,0.01355040009771377
-0.003164722072077142,0.01361622721322277
-0.003164552072077142,0.01318835096241365
-0.003164382072077142,0.01243133913405883
-0.003164212072077142,0.01127936461265143
-0.003164042072077142,0.01025904432225806
-0.003163872072077142,0.01019321720674895
-0.003163702072077142,0.01019321720674895
-0.003163532072077142,0.009567859609412364
-0.003163362072077142,0.009929908744712493
-0.003163192072077142,0.009798254513694503
-0.003163022072077142,0.00973242739818515
-0.003162852072077142,0.01039069855327629
-0.003162682072077142,0.01068692057306677
-0.003162512072077142,0.01078566124633098
-0.003162342072077142,0.01022613076450351
-0.003162172072077142,0.01085148836183895
-0.003162002072077142,0.01078566124633098
-0.003161832072077142,0.01118062393938566
-0.003161662072077142,0.01150975951693064
-0.003161492072077142,0.01187180865223136
-0.003161322072077142,0.01220094422977693
-0.003161152072077142,0.0125629933650764
-0.003160982072077142,0.01226677134528605
-0.003160812072077142,0.01262882048058617
-0.003160642072077142,0.01325417807792276
-0.003160472072077142,0.0134516594244501
-0.003160302072077142,0.01325417807792276
-0.003160132072077142,0.01341874586669555
-0.003159962072077142,0.01407701702178669
-0.003159792072077142,0.01430741192606859
-0.003159622072077142,0.0143732390415777
-0.003159452072077142,0.01397827634852212
-0.003159282072077142,0.01348457298220466
-0.003159112072077142,0.0132212645201682
-0.003158942072077142,0.01253007980732238
-0.003158772072077142,0.01246425269181339
-0.003158602072077142,0.01197054932549503
-0.003158432072077142,0.01213511711426554
-0.003158262072077142,0.01088440191959465
-0.003158092072077142,0.01006156297573072
-0.003157922072077142,0.009962822302467828
-0.003157752072077142,0.01039069855327629
-0.003157582072077142,0.009864081629203377
-0.003157412072077142,0.009831168071443491
-0.003157242072077142,0.006901861431293239
-0.003157072072077142,0.007593046144138938
-0.003156902072077142,0.008613366434529729
-0.003156732072077142,0.008350057972493751
-0.003156562072077142,0.008909588454321223
-0.003156392072077142,0.00640815806497554
-0.003156222072077142,0.00677020720027501
-0.003156052072077142,0.007263910566593366
-0.003155882072077142,0.008415885088002027
-0.003155712072077142,0.007955095279439066
-0.003155542072077142,0.008350057972493751
-0.003155372072077142,0.007889268163928514
-0.003155202072077142,0.007099342777820581
-0.003155032072077142,0.007132256335575138
-0.003154862072077142,0.007165169893329635
-0.003154692072077142,0.00630941739171121
-0.003154522072077142,0.007296824124347924
-0.003154352072077142,0.007296824124347924
-0.003154182072077142,0.007461391913120709
-0.003154012072077142,0.007395564797611595
-0.003153842072077142,0.0132541780779121
-0.003153672072077142,0.00871210710779388
-0.003153502072077142,0.005618232678865511
-0.003153332072077142,0.006737293642518417
-0.003153162072077142,0.00653981229599311
-0.003152992072077142,0.00630941739171121
-0.003152822072077142,0.006836034315783166
-0.003152652072077142,0.007625959701893495
-0.003152482072077142,0.007889268163929951
-0.003152312072077142,0.008350057972492914
-0.003152142072077142,0.008317144414739193
-0.003151972072077142,0.008745020665548437
-0.003151802072077142,0.008481712203512458
-0.003151632072077142,0.008415885088002865
-0.003151462072077142,0.007823441048420837
-0.003151292072077142,0.007889268163929831
-0.003151122072077142,0.008053835952702737
-0.003150952072077142,0.008547539319021094
-0.003150782072077142,0.008119663068212629
-0.003150612072077142,0.007922181721684508
-0.003150442072077142,0.007889268163929951
-0.003150272072077142,0.007988008837193623
-0.003150102072077142,0.008547539319021094
-0.003149932072077142,0.008613366434530208
-0.003149762072077142,0.008777934223302994
-0.003149592072077142,0.008843761338812107
-0.003149422072077142,0.009238724031866792
-0.003149252072077142,0.009337464705130465
-0.003149082072077142,0.00950203249390325
-0.003148912072077142,0.01012739009123984
-0.003148742072077142,0.01019321720674895
-0.003148572072077142,0.01042361211103097
-0.003148402072077142,0.01048943922653996
-0.003148232072077142,0.01019321720674895
-0.003148062072077142,0.007823441048424669
-0.003147892072077142,0.009929908744712493
-0.003147722072077142,0.01091731547734921
-0.003147552072077142,0.009995735860221965
-0.003147382072077142,0.01019321720674895
-0.003147212072077142,0.008218403741475522
-0.003147042072077142,0.007132256335576036
-0.003146872072077142,0.007625959701893495
-0.003146702072077142,0.007329737682102481
-0.003146532072077142,0.00677020720027501
-0.003146362072077142,0.00677020720027501
-0.003146192072077142,0.006441071622729439
-0.003146022072077142,0.005716973352128643
-0.003145852072077142,0.005420751332338168
-0.003145682072077142,0.00505870219703804
-0.003145512072077142,0.003742159886855457
-0.003145342072077142,0.00357759209808297
-0.003145172072077142,0.003083888731764614
-0.003145002072077142,0.003413024309310484
-0.003144832072077142,0.00357759209808297
-0.003144662072077142,0.003544678540328413
-0.003144492072077142,0.002886407385236552
-0.003144322072077142,0.002491444692182586
-0.003144152072077142,0.001701519306073215
-0.003143982072077142,0.001602778632809723
-0.003143812072077142,0.001931914210355115
-0.003143642072077142,0.002359790461164357
-0.003143472072077142,0.003149715847272291
-0.003143302072077142,0.003347197193801071
-0.003143132072077142,0.003347197193801071
-0.003142962072077142,0.003511764982573557
-0.003142792072077142,0.003083888731764614
-0.003142622072077142,0.002820580269728157
-0.003142452072077142,0.003610505655836091
-0.003142282072077142,0.00403838190664677
-0.003142112072077142,0.005190356428056269
-0.003141942072077142,0.006441071622727164
-0.003141772072077142,0.007494305470875266
-0.003141602072077142,0.007724700375157166
-0.003141432072077142,0.007889268163929651
-0.003141262072077142,0.007099342777820581
-0.003141092072077142,0.007527219028629823
-0.003140922072077142,0.008448798645755746
-0.003140752072077142,0.008876674896566664
-0.003140582072077142,0.009929908744712493
-0.003140412072077142,0.0110160561506109
-0.003140242072077142,0.01150975951693123
-0.003140072072077142,0.01118062393938566
-0.003139902072077142,0.01111479682387655
-0.003139732072077142,0.01045652566878541
-0.003139562072077142,0.01039069855327629
-0.003139392072077142,0.009567859609412364
-0.003139222072077142,0.01098314259285832
-0.003139052072077142,0.01006156297573072
-0.003138882072077142,0.01006156297573072
-0.003138712072077142,0.009403291820639578
-0.003138542072077142,0.008580452876775651
-0.003138372072077142,0.007593046144138938
-0.003138202072077142,0.006375244507218947
-0.003138032072077142,0.005618232678865511
-0.003137862072077142,0.005651146236620068
-0.003137692072077142,0.007132256335575976
-0.003137522072077142,0.007593046144138938
-0.003137352072077142,0.007494305470875266
-0.003137182072077142,0.007593046144139237
-0.003137012072077142,0.007757613932911723
-0.003136842072077142,0.006671466527011338
-0.003136672072077142,0.005848627583147052
-0.003136502072077142,0.005651146236620068
-0.003136332072077142,0.005914454698656525
-0.003136162072077142,0.006934774989049652
-0.003135992072077142,0.007955095279439066
-0.003135822072077142,0.00779052749066628
-0.003135652072077142,0.007625959701892537
-0.003135482072077142,0.007099342777820581
-0.003135312072077142,0.005914454698656525
-0.003135142072077142,0.006079022487428951
-0.003134972072077142,0.005881541140901968
-0.003134802072077142,0.005519492005601839
-0.003134632072077142,0.004630825946229575
-0.003134462072077142,0.00505870219703804
-0.003134292072077142,0.005157442870301712
-0.003134122072077142,0.005716973352126189
-0.003133952072077142,0.004071295464401327
-0.003133782072077142,0.0023268769034098
-0.003133612072077142,0.001174902382002397
-0.003133442072077142,0.001273643055263973
-0.003133272072077142,0.002590185365446257
-0.003133102072077142,0.003083888731763716
-0.003132932072077142,0.004137122579910441
-0.003132762072077142,0.004005468348892213
-0.003132592072077142,0.004466258157455175
-0.003132422072077142,0.004630825946228797
-0.003132252072077142,0.00505870219703804
-0.003132082072077142,0.005354924216828516
-0.003131912072077142,0.005420751332338168
-0.003131742072077142,0.00630941739171121
-0.003131572072077142,0.008251317299226547
-0.003131402072077142,0.008975415569830336
-0.003131232072077142,0.009600773167166921
-0.003131062072077142,0.009238724031867452
-0.003130892072077142,0.007296824124347924
-0.003130722072077142,0.006836034315784124
-0.003130552072077142,0.005881541140903704
-0.003130382072077142,0.006441071622729439
-0.003130212072077142,0.006671466527011338
-0.003130042072077142,0.007296824124346787
-0.003129872072077142,0.007395564797611595
-0.003129702072077142,0.00700060210455691
-0.003129532072077142,0.006704380084766435
-0.003129362072077142,0.006276503833956653
-0.003129192072077142,0.005519492005601839
-0.003129022072077142,0.006704380084765896
-0.003128852072077142,0.006704380084765896
-0.003128682072077142,0.008876674896566664
-0.003128512072077142,0.009172896916357679
-0.003128342072077142,0.008350057972493751
-0.003128172072077142,0.008547539319021094
-0.003128002072077142,0.008843761338812107
-0.003127832072077142,0.008415885088002745
-0.003127662072077142,0.008350057972493751
-0.003127492072077142,0.007988008837193623
-0.003127322072077142,0.007724700375157525
-0.003127152072077142,0.007922181721684508
-0.003126982072077142,0.007362651239857037
-0.003126812072077142,0.006934774989046778
-0.003126642072077142,0.006375244507220324
-0.003126472072077142,0.00630941739171121
-0.003126302072077142,0.005947368256410663
-0.003126132072077142,0.005716973352129182
-0.003125962072077142,0.00574988690988374
-0.003125792072077142,0.005322010659074018
-0.003125622072077142,0.00505870219703804
-0.003125452072077142,0.00528909710131994
-0.003125282072077142,0.0050587021970381
-0.003125112072077142,0.005091615754792597
-0.003124942072077142,0.004729566619492469
-0.003124772072077142,0.004466258157455055
-0.003124602072077142,0.003939641233383098
-0.003124432072077142,0.004202949695419555
-0.003124262072077142,0.004038381906647069
-0.003124092072077142,0.004202949695419555
-0.003123922072077142,0.004235863253174112
-0.003123752072077142,0.003807987002364211
-0.003123582072077142,0.003445937867064742
-0.003123412072077142,0.003413024309310185
-0.003123242072077142,0.003676332771346163
-0.003123072072077142,0.003083888731764614
-0.003122902072077142,0.002721839596464486
-0.003122732072077142,0.002293963345656022
-0.003122562072077142,0.002261049787900686
-0.003122392072077142,0.002195222672391572
-0.003122222072077142,0.002293963345655064
-0.003122052072077142,0.003643419213592085
-0.003121882072077142,0.004564998830719684
-0.003121712072077142,0.006111936045181053
-0.003121542072077142,0.006276503833956653
-0.003121372072077142,0.006836034315784124
-0.003121202072077142,0.007527219028628566
-0.003121032072077142,0.008218403741475522
-0.003120862072077142,0.008415885088002865
-0.003120692072077142,0.008514625761266357
-0.003120522072077142,0.007823441048420837
-0.003120352072077142,0.00756013258638438
-0.003120182072077142,0.007889268163929352
-0.003120012072077142,0.01035778499552173
-0.003119842072077142,0.009567859609412364
-0.003119672072077142,0.009995735860220827
-0.003119502072077142,0.009370378262885021
-0.003119332072077142,0.008975415569830336
-0.003119162072077142,0.008876674896566844
-0.003118992072077142,0.008613366434530208
-0.003118822072077142,0.009370378262885021
-0.003118652072077142,0.008679193550039321
-0.003118482072077142,0.008317144414739193
-0.003118312072077142,0.007889268163929951
-0.003118142072077142,0.007296824124347924
-0.003117972072077142,0.007099342777820581
-0.003117802072077142,0.006934774989047795
-0.003117632072077142,0.006836034315784124
-0.003117462072077142,0.006836034315784124
-0.003117292072077142,0.007165169893329695
-0.003117122072077142,0.006243590276202096
-0.003116952072077142,0.006046108929674933
-0.003116782072077142,0.006144849602938425
-0.003116612072077142,0.00630941739171121
-0.003116442072077142,0.007000602104557329
-0.003116272072077142,0.007230997008838809
-0.003116102072077142,0.007691786817402609
-0.003115932072077142,0.008119663068211611
-0.003115762072077142,0.007988008837193623
-0.003115592072077142,0.008251317299230079
-0.003115422072077142,0.007955095279438766
-0.003115252072077142,0.00779052749066628
-0.003115082072077142,0.007955095279439066
-0.003114912072077142,0.008053835952701718
-0.003114742072077142,0.007494305470875266
-0.003114572072077142,0.00700060210455691
-0.003114402072077142,0.006638552969255764
-0.003114232072077142,0.00607902248742931
-0.003114062072077142,0.005519492005601839
-0.003113892072077142,0.00272183959646712
-0.003113722072077142,0.004170036137664999
-0.003113552072077142,0.004202949695419555
-0.003113382072077142,0.003182629405027626
-0.003113212072077142,0.002820580269728157
-0.003113042072077142,0.002623098923200814
-0.003112872072077142,0.002820580269727798
-0.003112702072077142,0.002623098923200814
-0.003112532072077142,0.002359790461164357
-0.003112362072077142,0.002491444692182346
-0.003112192072077142,0.00176734642158233
-0.003112022072077142,0.0009445074777184018
-0.003111852072077142,0.002787666711970247
-0.003111682072077142,0.004663739503983355
-0.003111512072077142,0.004630825946228797
-0.003111342072077142,0.005124529312546256
-0.003111172072077142,0.005782800467638296
-0.003111002072077142,0.005716973352129182
-0.003110832072077142,0.007033515662309072
-0.003110662072077142,0.006671466527011338
-0.003110492072077142,0.01150975951693123
-0.003110322072077142,0.0071322563355831
-0.003110152072077142,0.006243590276202096
-0.003109982072077142,0.006572725853747667
-0.003109812072077142,0.0073626512398556
-0.003109642072077142,0.009238724031866792
-0.003109472072077142,0.009699513840430593
-0.003109302072077142,0.009041242685340647
-0.003109132072077142,0.009139983358603122
-0.003108962072077142,0.008481712203511979
-0.003108792072077142,0.008679193550038962
-0.003108622072077142,0.007889268163929951
-0.003108452072077142,0.007856354606175394
-0.003108282072077142,0.007230997008839947
-0.003108112072077142,0.006836034315784124
-0.003107942072077142,0.005947368256411082
-0.003107772072077142,0.004894134408265255
-0.003107602072077142,0.003347197193801071
-0.003107432072077142,0.002129395556882458
-0.003107262072077142,0.001800259979336887
-0.003107092072077142,0.001339470170773087
-0.003106922072077142,0.00130655661301853
-0.003106752072077142,0.001010334593227516
-0.003106582072077142,0.0007141125734377592
-0.003106412072077142,0.001405297286282201
-0.003106242072077142,0.001635692190564101
-0.003106072072077142,0.001635692190565119
-0.003105902072077142,0.002195222672391572
-0.003105732072077142,0.002623098923200814
-0.003105562072077142,0.002820580269728816
-0.003105392072077142,0.003182629405028285
-0.003105222072077142,0.003775073444610313
-0.003105052072077142,0.004038381906647069
-0.003104882072077142,0.004202949695419555
-0.003104712072077142,0.004334603926437783
-0.003104542072077142,0.003314283636047172
-0.003104372072077142,0.003676332771346642
-0.003104202072077142,0.003676332771346642
-0.003104032072077142,0.00314971584727253
-0.003103862072077142,0.002491444692182586
-0.003103692072077142,0.003116802289519171
-0.003103522072077142,0.003413024309312759
-0.003103352072077142,0.00482830729275614
-0.003103182072077142,0.006737293642520453
-0.003103012072077142,0.007889268163929052
-0.003102842072077142,0.007395564797611595
-0.003102672072077142,0.00871210710779388
-0.003102502072077142,0.008185490183720487
-0.003102332072077142,0.007922181721684508
-0.003102162072077142,0.008185490183720966
-0.003101992072077142,0.008876674896565406
-0.003101822072077142,0.01124645105489478
-0.003101652072077142,0.0134516594244501
-0.003101482072077142,0.01417575769504904
-0.003101312072077142,0.01384662211750479
-0.003101142072077142,0.01305669673139542
-0.003100972072077142,0.01246425269181447
-0.003100802072077142,0.01210220355651326
-0.003100632072077142,0.01095022903510376
-0.003100462072077142,0.0104565256687863
-0.003100292072077142,0.009008329127584893
-0.003100122072077142,0.01012739009123984
-0.003099952072077142,0.0104894392265393
-0.003099782072077142,0.01042361211103085
-0.003099612072077142,0.00983116807144882
-0.003099442072077142,0.008481712203514433
-0.003099272072077142,0.006506898738238553
-0.003099102072077142,0.005618232678865511
-0.003098932072077142,0.005354924216829533
-0.003098762072077142,0.005256183543565383
-0.003098592072077142,0.005552405563356397
-0.003098422072077142,0.004828307292757458
-0.003098252072077142,0.004202949695419555
-0.003098082072077142,0.003347197193801071
-0.003097912072077142,0.002787666711974618
-0.003097742072077142,0.001997741325864229
-0.003097572072077142,0.001833173537091444
-0.003097402072077142,0.002195222672391572
-0.003097232072077142,0.002195222672391572
-0.003097062072077142,0.002425617576673472
-0.003096892072077142,0.002754753154219042
-0.003096722072077142,0.002853493827482714
-0.003096552072077142,0.0025572718076917
-0.003096382072077142,0.002820580269728157
-0.003096212072077142,0.002754753154219042
-0.003096042072077142,0.003314283636046514
-0.003095872072077142,0.004301690368683227
-0.003095702072077142,0.005618232678867427
-0.003095532072077142,0.006671466527011338
-0.003095362072077142,0.006803120758029567
-0.003095192072077142,0.0075601325863845
-0.003095022072077142,0.007625959701893495
-0.003094852072077142,0.007856354606175394
-0.003094682072077142,0.008514625761266598
-0.003094512072077142,0.008547539319021094
-0.003094342072077142,0.009238724031866792
-0.003094172072077142,0.009864081629203138
-0.003094002072077142,0.00973242739818515
-0.003093832072077142,0.009139983358603122
-0.003093662072077142,0.008448798645757483
-0.003093492072077142,0.008481712203511979
-0.003093322072077142,0.00756013258638438
-0.003093152072077142,0.007362651239856678
-0.003092982072077142,0.007165169893329695
-0.003092812072077142,0.006704380084765896
-0.003092642072077142,0.006803120758030585
-0.003092472072077142,0.007362651239857037
-0.003092302072077142,0.005618232678865511
-0.003092132072077142,0.004367517484191024
-0.003091962072077142,0.003643419213592085
-0.003091792072077142,0.004235863253174112
-0.003091622072077142,0.005585319121111373
-0.003091452072077142,0.005815714025392853
-0.003091282072077142,0.006243590276202096
