Analysis/files/wrd01_d2s01/cmb14_ch40.csv

#Digilent WaveForms Oscilloscope Acquisition
#Device Name: ADP3450
#Serial Number: SN:210018B9D9B0
#Date Time: 2024-08-06 17:36:46.405.495.910
#Sample rate: 2.94118e+06Hz
#Samples: 32768
#Trigger: Source: Channel 3 Type: Edge Condition: Rising Level: 60 mV Hyst.: Auto HoldOff: 0 s
#Channel 3: Range: 200 mV/div Offset: -20 mV Attenuation: 1 X Coupling: DC Bandwidth: 0 Hz Sample Mode: Average

Time (s),Channel 3 (V)
-0.005570393848202397,0.02892492862658162
-0.005570053848202396,0.02820083035597873
-0.005569713848202397,0.02675263381478085
-0.005569373848202397,0.02546900506235312
-0.005569033848202396,0.02388915429013217
-0.005568693848202397,0.02267135265321577
-0.005568353848202397,0.0216510323628245
-0.005568013848202396,0.02069653918794198
-0.005567673848202397,0.020499057841415
-0.005567333848202397,0.01944582399326917
-0.005566993848202396,0.01901794774245969
-0.005566653848202397,0.0188862935114417
-0.005566313848202397,0.01898503418470537
-0.005565973848202396,0.02020283582162674
-0.005565633848202397,0.02171685947833361
-0.005565293848202397,0.02313214246177957
-0.005564953848202396,0.02425120342543475
-0.005564613848202397,0.02438285765645274
-0.005564273848202397,0.02359293227034337
-0.005563933848202396,0.02247387130668615
-0.005563593848202397,0.02122315611201525
-0.005563253848202397,0.01947873755102373
-0.005562913848202397,0.01852424437614331
-0.005562573848202397,0.0172735291814684
-0.005562233848202397,0.01605572754454979
-0.005561893848202397,0.01549619706272334
-0.005561553848202397,0.01552911062047688
-0.005561213848202397,0.01526580215844042
-0.005560873848202397,0.01447587677233248
-0.005560533848202397,0.01467335811885839
-0.005560193848202397,0.01450879033008561
-0.005559853848202397,0.01487083946538507
-0.005559513848202397,0.01529871571619498
-0.005559173848202397,0.01579241908251333
-0.005558833848202397,0.01658234446862127
-0.005558493848202397,0.01691148004616827
-0.005558153848202397,0.01605572754454979
-0.005557813848202397,0.01496958013865138
-0.005557473848202397,0.01408091407927636
-0.005557133848202397,0.01338972936643066
-0.005556793848202397,0.01273145821134072
-0.005556453848202397,0.01289602600011231
-0.005556113848202397,0.01299476667337598
-0.005555773848202397,0.01292893955786698
-0.005555433848202397,0.01243523619154851
-0.005555093848202397,0.01240232263379395
-0.005554753848202397,0.01253397686481194
-0.005554413848202397,0.01266563109583041
-0.005554073848202397,0.01273145821133952
-0.005553733848202397,0.01266563109583041
-0.005553393848202397,0.01236940907603939
-0.005553053848202397,0.01177696503645737
-0.005552713848202397,0.01052624984178419
-0.005552373848202397,0.0100654600332204
-0.005552033848202397,0.009769238013429382
-0.005551693848202397,0.008946399069565453
-0.005551353848202397,0.008419782145492841
-0.005551013848202397,0.008584349934265326
-0.005550673848202397,0.00874891772303811
-0.005550333848202397,0.00917679397384933
-0.005549993848202397,0.01026294137974774
-0.005549653848202397,0.01151365657442091
-0.005549313848202397,0.01250106330706068
-0.005548973848202397,0.01417965475254003
-0.005548633848202397,0.01457461744559472
-0.005548293848202396,0.01441004965682187
-0.005547953848202397,0.01437713609906738
-0.005547613848202397,0.01302768023113053
-0.005547273848202396,0.01256689042256548
-0.005546933848202397,0.01187570570972104
-0.005546593848202397,0.01177696503645737
-0.005546253848202396,0.01200735994073926
-0.005545913848202397,0.01200735994073926
-0.005545573848202397,0.01204027349849382
-0.005545233848202396,0.01174405147870257
-0.005544893848202397,0.01161239724768458
-0.005544553848202397,0.01131617522789356
-0.005544213848202396,0.01131617522789422
-0.005543873848202397,0.01167822436319369
-0.005543533848202397,0.01187570570972104
-0.005543193848202396,0.01157948368992907
-0.005542853848202397,0.01105286676585711
-0.005542513848202397,0.01138200234340268
-0.005542173848202397,0.01174405147870215
-0.005541833848202397,0.01197444638298471
-0.005541493848202397,0.01240232263379395
-0.005541153848202397,0.01210610061400348
-0.005540813848202397,0.01134908878564812
-0.005540473848202397,0.01039459561076597
-0.005540133848202397,0.009110966858340574
-0.005539793848202397,0.008024819452437855
-0.005539453848202397,0.006412055122464556
-0.005539113848202397,0.006379141564710059
-0.005538773848202397,0.006477882237973671
-0.005538433848202397,0.007004499162046584
-0.005538093848202397,0.007695683874891026
-0.005537753848202397,0.008781831280792669
-0.005537413848202397,0.01013128714872951
-0.005537073848202397,0.01161239724768189
-0.005536733848202397,0.01259980398032129
-0.005536393848202397,0.01338972936643066
-0.005536053848202397,0.01368595138622114
-0.005535713848202397,0.01302768023113053
-0.005535373848202397,0.01184279215196648
-0.005535033848202397,0.01069081763055908
-0.005534693848202397,0.009867978686693053
-0.005534353848202397,0.009012226185074568
-0.005534013848202397,0.008814744838547585
-0.005533673848202397,0.008255214356719755
-0.005533333848202397,0.008057733010192412
-0.005532993848202397,0.007991905894683298
-0.005532653848202397,0.008189387241210641
-0.005532313848202397,0.00762985675938317
-0.005531973848202397,0.007596943201628613
-0.005531633848202397,0.006971585604292027
-0.005531293848202397,0.006609536468991898
-0.005530953848202397,0.006675363584501014
-0.005530613848202397,0.00693867204653747
-0.005530273848202397,0.007004499162046584
-0.005529933848202397,0.008123560125701526
-0.005529593848202397,0.007267807624083101
-0.005529253848202397,0.007300721181837598
-0.005528913848202397,0.007432375412855827
-0.005528573848202397,0.007300721181837957
-0.005528233848202397,0.007498202528364941
-0.005527893848202397,0.008057733010192412
-0.005527553848202396,0.008683090607530074
-0.005527213848202397,0.009275534647111025
-0.005526873848202397,0.01029585493750229
-0.005526533848202396,0.01105286676585741
-0.005526193848202397,0.01121743455462989
-0.005525853848202397,0.01134908878564812
-0.005525513848202396,0.01177696503645695
-0.005525173848202397,0.01154657013217547
-0.005524833848202397,0.01118452099687534
-0.005524493848202396,0.01141491590115712
-0.005524153848202397,0.01134908878564812
-0.005523813848202397,0.01118452099687534
-0.005523473848202396,0.01128326167013877
-0.005523133848202397,0.01115160743912078
-0.005522793848202397,0.01088829897708432
-0.005522453848202396,0.01036168205300931
-0.005522113848202397,0.009209707531601911
-0.005521773848202397,0.008353955029983425
-0.005521433848202396,0.007564029643873995
-0.005521093848202397,0.007531116086119498
-0.005520753848202397,0.007564029643874055
-0.005520413848202397,0.008321041472227491
-0.005520073848202397,0.008716004165283554
-0.005519733848202397,0.00967049734016571
-0.005519393848202397,0.01065790407280063
-0.005519053848202397,0.01042750916852052
-0.005518713848202397,0.009933805802202166
-0.005518373848202397,0.009736324455675183
-0.005518033848202397,0.009209707531601911
-0.005517693848202397,0.008880571954056339
-0.005517353848202397,0.008321041472229887
-0.005517013848202397,0.007695683874892284
-0.005516673848202397,0.007300721181837598
-0.005516333848202397,0.007103239835310615
-0.005515993848202397,0.007794424548155956
-0.005515653848202397,0.008452695703247097
-0.005515313848202397,0.009242621089355032
-0.005514973848202397,0.01026294137974774
-0.005514633848202397,0.01092121253483888
-0.005514293848202397,0.01111869388136586
-0.005513953848202397,0.01125034811238445
-0.005513613848202397,0.01157948368993002
-0.005513273848202397,0.01131617522789404
-0.005512933848202397,0.01187570570972104
-0.005512593848202397,0.01253397686481218
-0.005512253848202397,0.01299476667337598
-0.005511913848202397,0.01279728532684864
-0.005511573848202397,0.01240232263379395
-0.005511233848202397,0.01180987859421192
-0.005510893848202397,0.01049333628402964
-0.005510553848202397,0.009933805802202166
-0.005510213848202397,0.008946399069565453
-0.005509873848202397,0.008288127914474312
-0.005509533848202397,0.00762985675938317
-0.005509193848202397,0.007201980508573926
-0.005508853848202397,0.007596943201629931
-0.005508513848202397,0.008321041472228868
-0.005508173848202397,0.009900892244447609
-0.005507833848202397,0.0112832616701411
-0.005507493848202397,0.01243523619154851
-0.005507153848202397,0.01299476667337598
-0.005506813848202396,0.01398217340601413
-0.005506473848202397,0.01477209879212206
-0.005506133848202397,0.01506832081191307
-0.005505793848202396,0.01460753100334838
-0.005505453848202397,0.01411382763703092
-0.005505113848202397,0.01371886494397623
-0.005504773848202396,0.0132580751354119
-0.005504433848202397,0.01296185311562142
-0.005504093848202397,0.01299476667337598
-0.005503753848202396,0.01302768023113
-0.005503413848202397,0.01273145821133952
-0.005503073848202397,0.01240232263379395
-0.005502733848202396,0.01177696503645725
-0.005502393848202397,0.01171113792094825
-0.005502053848202397,0.01069081763055698
-0.005501713848202396,0.01078955830382011
-0.005501373848202397,0.01049333628402964
-0.005501033848202397,0.01013128714872951
-0.005500693848202396,0.009440102435882433
-0.005500353848202397,0.008683090607528997
-0.005500013848202397,0.008419782145492541
-0.005499673848202397,0.007958992336929578
-0.005499333848202397,0.008518522818756211
-0.005498993848202397,0.009078053300583682
-0.005498653848202397,0.009703410897919129
-0.005498313848202397,0.01009837359097495
-0.005497973848202397,0.01026294137974774
-0.005497633848202397,0.01049333628402922
-0.005497293848202397,0.01092121253483888
-0.005496953848202397,0.01098703965034799
-0.005496613848202397,0.01141491590115646
-0.005496273848202397,0.01092121253483888
-0.005495933848202397,0.01078955830382065
-0.005495593848202397,0.01036168205301219
-0.005495253848202397,0.009999632917711282
-0.005494913848202397,0.009637583782411153
-0.005494573848202397,0.009341361762620678
-0.005494233848202397,0.009176793973847354
-0.005493893848202397,0.009143880416092796
-0.005493553848202397,0.009275534647110785
-0.005493213848202397,0.009505929551392924
-0.005492873848202397,0.009308448204865582
-0.005492533848202397,0.009440102435883571
-0.005492193848202397,0.00967049734016571
-0.005491853848202397,0.009900892244447609
-0.005491513848202397,0.01016420070648359
-0.005491173848202397,0.01055916339953875
-0.005490833848202397,0.01072373118831154
-0.005490493848202397,0.01154657013217547
-0.005490153848202397,0.01125034811238445
-0.005489813848202397,0.01157948368993002
-0.005489473848202397,0.01177696503645737
-0.005489133848202397,0.01157948368993002
-0.005488793848202397,0.01154657013217547
-0.005488453848202397,0.01138200234340268
-0.005488113848202397,0.01088829897708289
-0.005487773848202397,0.01009837359097495
-0.005487433848202397,0.00967049734016571
-0.005487093848202397,0.008683090607528518
-0.005486753848202397,0.008419782145492541
-0.005486413848202397,0.008518522818756211
-0.005486073848202397,0.009341361762622893
-0.005485733848202397,0.01085538541932977
-0.005485393848202397,0.01197444638298471
-0.005485053848202396,0.01256689042256704
-0.005484713848202397,0.01273145821133952
-0.005484373848202397,0.01302768023113053
-0.005484033848202396,0.01315933446214828
-0.005483693848202397,0.01289602600011231
-0.005483353848202397,0.01243523619154851
-0.005483013848202396,0.01200735994073735
-0.005482673848202397,0.01095412609259344
-0.005482333848202397,0.01016420070648407
-0.005481993848202396,0.009571756666900843
-0.005481653848202397,0.008913485511810896
-0.005481313848202397,0.008024819452437855
-0.005480973848202396,0.007958992336928381
-0.005480633848202397,0.007761510990401397
-0.005480293848202397,0.00795899233692874
-0.005479953848202396,0.008485609261003032
-0.005479613848202397,0.009242621089356468
-0.005479273848202397,0.00957175666690204
-0.005478933848202397,0.008913485511812093
-0.005478593848202397,0.003581489155572645
-0.005478253848202397,-0.007543293365467656
-0.005477913848202397,-0.02613945349675859
-0.005477573848202397,-0.05233864546941987
-0.005477233848202397,-0.0841660558180766
-0.005476893848202397,-0.1185936372292807
-0.005476553848202397,-0.1522971203700098
-0.005476213848202397,-0.1824130257154296
-0.005475873848202397,-0.2076248109553745
-0.005475533848202397,-0.226451365991027
-0.005475193848202397,-0.238563555244704
-0.005474853848202397,-0.2457387108351844
-0.005474513848202397,-0.2479110056469982
-0.005474173848202397,-0.2464957226635522
-0.005473833848202397,-0.2420853059244496
-0.005473493848202397,-0.2363583468751487
-0.005473153848202397,-0.2296768946509736
-0.005472813848202397,-0.2211851967503133
-0.005472473848202397,-0.2134834242357315
-0.005472133848202397,-0.2053208619126013
-0.005471793848202397,-0.1974545216092765
-0.005471453848202397,-0.1905097609230506
-0.005471113848202397,-0.1835320866790845
-0.005470773848202397,-0.177607646283275
-0.005470433848202397,-0.1713540703098984
-0.005470093848202397,-0.1657258519338691
-0.005469753848202397,-0.1594064488449942
-0.005469413848202397,-0.1534820084491739
-0.005469073848202397,-0.1477879629576355
-0.005468733848202397,-0.1428180157366974
-0.005468393848202397,-0.1372556244761772
-0.005468053848202397,-0.1309033078295477
-0.005467713848202397,-0.1250776081069911
-0.005467373848202397,-0.1189227728068889
-0.005467033848202397,-0.1137224306816689
-0.005466693848202397,-0.1087195699029762
-0.005466353848202397,-0.1042762396061049
-0.005466013848202397,-0.1009519702729007
-0.005465673848202397,-0.09736439247765399
-0.005465333848202397,-0.09423760449096538
-0.005464993848202397,-0.09111081650428815
-0.005464653848202397,-0.08719410313149586
-0.005464313848202396,-0.08317864908543224
-0.005463973848202397,-0.07896571369285657
-0.005463633848202397,-0.07478569185802783
-0.005463293848202396,-0.07136268185154582
-0.005462953848202397,-0.06691935155468867
-0.005462613848202397,-0.06273932971985993
-0.005462273848202396,-0.059711282406436
-0.005461933848202397,-0.05714402490158522
-0.005461593848202397,-0.05457676739672977
-0.005461253848202396,-0.05256904037369987
-0.005460913848202397,-0.05151580652555595
-0.005460573848202397,-0.0505613133506738
-0.005460233848202396,-0.04977138796456215
-0.005459893848202397,-0.04852067276989126
-0.005459553848202397,-0.04654585930461783
-0.005459213848202396,-0.04443939160832246
-0.005458873848202397,-0.04239875102754363
-0.005458533848202397,-0.04002897486921552
-0.005458193848202396,-0.03858077832801303
-0.005457853848202397,-0.03749463092211462
-0.005457513848202397,-0.0364413970739688
-0.005457173848202397,-0.03542107678357938
-0.005456833848202397,-0.03380831245360423
-0.005456493848202397,-0.03196515321934903
-0.005456153848202397,-0.0311423142754866
-0.005455813848202397,-0.02794969917329306
-0.005455473848202397,-0.02636984840107432
-0.005455133848202397,-0.02406589935825951
-0.005454793848202397,-0.02215691300849101
-0.005454453848202397,-0.02159738252666354
-0.005454113848202397,-0.02047832156301064
-0.005453773848202397,-0.01985296396567202
-0.005453433848202397,-0.0190959521373172
-0.005453093848202397,-0.01843768098222726
-0.005452753848202397,-0.0174831878073439
-0.005452413848202397,-0.01741736069183479
-0.005452073848202397,-0.01685783021000834
-0.005451733848202397,-0.01646286751695263
-0.005451393848202397,-0.01593625059287972
-0.005451053848202397,-0.01531089299554427
-0.005450713848202397,-0.01452096760943376
-0.005450373848202397,-0.01336899308802426
-0.005450033848202397,-0.01215119145110787
-0.005449693848202397,-0.01132835250724173
-0.005449353848202397,-0.0102751186590959
-0.005449013848202397,-0.00928771192646098
-0.005448673848202397,-0.008300305193822469
-0.005448333848202397,-0.007543293365467656
-0.005447993848202397,-0.006720454421603728
-0.005447653848202397,-0.005798874804476131
-0.005447313848202397,-0.005041862976121317
-0.005446973848202397,-0.004186110474502833
-0.005446633848202397,-0.003165790184111561
-0.005446293848202397,-0.002474605471265861
-0.005445953848202397,-0.00158593941189282
-0.005445613848202397,-0.0008947546990453836
-0.005445273848202397,5.973847583503472e-05
-0.005444933848202397,0.0003888740533806063
-0.005444593848202397,0.00144210790152841
-0.005444253848202397,0.002528255307426817
-0.005443913848202397,0.002857390884972388
-0.005443573848202397,0.002791563769463873
-0.005443233848202397,0.003120699347008846
-0.005442893848202397,0.002758650211708718
-0.005442553848202396,0.002791563769465071
-0.005442213848202397,0.00377897050209999
-0.005441873848202397,0.004766377234736701
-0.005441533848202396,0.005490475505337197
-0.005441193848202397,0.005622129736355185
-0.005440853848202397,0.005786697525127971
-0.005440513848202396,0.005720870409618498
-0.005440173848202397,0.005523389063091515
-0.005439833848202397,0.005161339927791386
-0.005439493848202396,0.004766377234736103
-0.005439153848202397,0.004437241657191129
-0.005438813848202397,0.004832204350245815
-0.005438473848202396,0.005457561947584197
-0.005438133848202397,0.006444968680219114
-0.005437793848202397,0.007399461855101271
-0.005437453848202396,0.007432375412856186
-0.005437113848202397,0.00762985675938317
-0.005436773848202397,0.006774104257764684
-0.005436433848202397,0.006017092429411248
-0.005436093848202397,0.005029685696773157
-0.005435753848202397,0.004338500983927459
-0.005435413848202397,0.003778970502101007
-0.005435073848202397,0.003943538290872774
-0.005434733848202397,0.004470155214945688
-0.005434393848202397,0.004601809445963676
-0.005434053848202397,0.004568895888209358
-0.005433713848202397,0.004799290792491258
-0.005433373848202397,0.005194253485545225
-0.005433033848202397,0.005720870409618857
-0.005432693848202397,0.006214573775937213
-0.005432353848202397,0.006313314449200706
-0.005432013848202397,0.005852524640637086
-0.005431673848202397,0.005391734832073286
-0.005431333848202397,0.005556302620845772
-0.005430993848202397,0.00601709242940987
-0.005430653848202397,0.006642450026746457
-0.005430313848202397,0.007333634739590898
-0.005429973848202397,0.008156473683456083
-0.005429633848202397,0.009407188878129254
-0.005429293848202397,0.009835065128937717
-0.005428953848202397,0.009637583782411153
-0.005428613848202397,0.009012226185074568
-0.005428273848202397,0.008123560125703142
-0.005427933848202397,0.007695683874892284
-0.005427593848202397,0.007366548297346712
-0.005427253848202397,0.008123560125701526
-0.005426913848202397,0.008090646567946969
-0.005426573848202397,0.008288127914474312
-0.005426233848202397,0.008551436376510768
-0.005425893848202397,0.00874891772303811
-0.005425553848202397,0.008584349934265326
-0.005425213848202397,0.008057733010192412
-0.005424873848202397,0.007893165221419626
-0.005424533848202397,0.008222300798965198
-0.005424193848202397,0.00874891772303811
-0.005423853848202397,0.009407188878129613
-0.005423513848202397,0.009604670224656596
-0.005423173848202397,0.0100654600332204
-0.005422833848202397,0.01055916339953851
-0.005422493848202397,0.01042750916852052
-0.005422153848202397,0.01029585493750229
-0.005421813848202396,0.0101971142642382
-0.005421473848202397,0.009966719359956725
-0.005421133848202397,0.009604670224656596
-0.005420793848202396,0.009637583782412111
-0.005420453848202397,0.01016420070648407
-0.005420113848202397,0.01016420070648407
-0.005419773848202396,0.01029585493750385
-0.005419433848202397,0.01115160743912078
-0.005419093848202397,0.01194153282523015
-0.005418753848202396,0.01233649551828513
-0.005418413848202397,0.01250106330705762
-0.005418073848202397,0.01207318705624838
-0.005417733848202396,0.01128326167013697
-0.005417393848202397,0.01016420070648407
-0.005417053848202397,0.009209707531601911
-0.005416713848202396,0.008321041472228509
-0.005416373848202397,0.008123560125701526
-0.005416033848202397,0.007267807624083042
-0.005415693848202396,0.006971585604292266
-0.005415353848202397,0.007103239835310256
-0.005415013848202397,0.007794424548155956
-0.005414673848202397,0.00858434993426389
-0.005414333848202397,0.008946399069565453
-0.005413993848202397,0.009769238013429382
