Analysis/files/wrd01_d2s01/cmb10_ch09.csv

#Digilent WaveForms Oscilloscope Acquisition
#Device Name: ADP3450
#Serial Number: SN:210018B9D9B0
#Date Time: 2024-08-14 17:03:18.426.086.050
#Sample rate: 5.88235e+06Hz
#Samples: 32768
#Trigger: Source: Channel 3 Type: Edge Condition: Rising Level: 60 mV Hyst.: Auto HoldOff: 0 s
#Channel 3: Range: 100 mV/div Offset: 0 V Attenuation: 1 X Coupling: DC Bandwidth: 0 Hz Sample Mode: Average

Time (s),Channel 3 (V)
-0.003798492009775774,0.2073783417143006
-0.003798322009775774,0.2202146292385984
-0.003798152009775774,0.2315368931061455
-0.003797982009775774,0.2406539486041578
-0.003797812009775774,0.2477961906369076
-0.003797642009775774,0.2537864581482261
-0.003797472009775774,0.2587893189269188
-0.003797302009775774,0.2612578357585137
-0.003797132009775774,0.2629693407617475
-0.003796962009775774,0.2636276119168386
-0.003796792009775774,0.2630022543194999
-0.003796622009775774,0.261817366240338
-0.003796452009775774,0.2597767256595555
-0.003796282009775774,0.2570449003659215
-0.003796112009775774,0.2538851988214897
-0.003795942009775774,0.2499684854486975
-0.003795772009775774,0.2464467347689527
-0.003795602009775774,0.2425300213961676
-0.003795432009775774,0.2385803944656207
-0.003795262009775774,0.2344003726307853
-0.003795092009775774,0.2307140541622816
-0.003794922009775774,0.2265340323274528
-0.003794752009775775,0.2231110223209851
-0.003794582009775774,0.219984234334296
-0.003794412009775774,0.2170220141363858
-0.003794242009775775,0.2134673498989001
-0.003794072009775774,0.212545770281766
-0.003793902009775774,0.2067858976747186
-0.003793732009775775,0.2049098248827122
-0.003793562009775774,0.2000057047772798
-0.003793392009775774,0.1990182980446431
-0.003793222009775775,0.1949370168830854
-0.003793052009775774,0.1913165255300767
-0.003792882009775774,0.1885188731209393
-0.003792712009775775,0.1856553935962981
-0.003792542009775774,0.1823640378208372
-0.003792372009775774,0.1792043362763997
-0.003792202009775775,0.1761433754052315
-0.003792032009775774,0.1730165874185429
-0.003791862009775774,0.1693960960655417
-0.003791692009775775,0.1663022216366189
-0.003791522009775774,0.1628792116301394
-0.003791352009775774,0.1592916338348926
-0.003791182009775775,0.1561648458482154
-0.003791012009775774,0.1531038849770359
-0.003790842009775774,0.1503391461256531
-0.003790672009775775,0.1473110988122393
-0.003790502009775774,0.1447109277496239
-0.003790332009775774,0.1420449295715047
-0.003790162009775775,0.1401359432217404
-0.003789992009775774,0.1375686857168849
-0.003789822009775774,0.1352318231163114
-0.003789652009775774,0.1329937011890015
-0.003789482009775774,0.1308214063772007
-0.003789312009775774,0.1288136793541728
-0.003789142009775774,0.1268717794466539
-0.003788972009775774,0.1250615337701501
-0.003788802009775774,0.1233171152091617
-0.003788632009775774,0.1213423017438883
-0.003788462009775774,0.1191041798165745
-0.003788292009775774,0.1169647985625322
-0.003788122009775774,0.1146937630774678
-0.003787952009775774,0.1120935920148532
-0.003787782009775774,0.1095921616255114
-0.003787612009775774,0.107321126140447
-0.003787442009775774,0.1050171770976247
-0.003787272009775774,0.1032069314211273
-0.003787102009775774,0.100705501031781
-0.003786932009775774,0.09905982314404961
-0.003786762009775774,0.09711792323653426
-0.003786592009775774,0.09474814707820617
-0.003786422009775774,0.09283916072843848
-0.003786252009775774,0.09099600149418666
-0.003786082009775774,0.08928449649094969
-0.003785912009775774,0.08750716437220031
-0.003785742009775774,0.08569691869570295
-0.003785572009775774,0.08438037638552068
-0.003785402009775774,0.08306383407533641
-0.003785232009775774,0.081977686669438
-0.003785062009775774,0.08036492233946471
-0.003784892009775774,0.07947625628008957
-0.003784722009775774,0.07832428175868217
-0.003784552009775774,0.07710648012176355
-0.003784382009775775,0.07628364117790112
-0.003784212009775774,0.07506583954098101
-0.003784042009775774,0.0741442599238534
-0.003783872009775775,0.07292645828693703
-0.003783702009775774,0.0720707057853163
-0.003783532009775774,0.07105038549492504
-0.003783362009775775,0.07003006520453564
-0.003783192009775774,0.06904265847189706
-0.003783022009775774,0.06798942462375124
-0.003782852009775775,0.06644248740928986
-0.003782682009775774,0.06469806884829551
-0.003782512009775774,0.0634802672113769
-0.003782342009775775,0.0622624655744605
-0.003782172009775774,0.06104466393753968
-0.003782002009775774,0.05966229451184828
-0.003781832009775775,0.05795078950861442
-0.003781662009775774,0.0567329878716927
-0.003781492009775774,0.05548227267701953
-0.003781322009775775,0.05390242190480366
-0.003781152009775774,0.05307958296093686
-0.003780982009775774,0.05176304065075458
-0.003780812009775775,0.05113768305341913
-0.003780642009775774,0.05011736276302672
-0.003780472009775774,0.04939326449242647
-0.003780302009775775,0.04906412891488149
-0.003780132009775774,0.04824128997101697
-0.003779962009775774,0.04731971035388936
-0.003779792009775775,0.04649687141002544
-0.003779622009775774,0.0460689951592162
-0.003779452009775774,0.04531198333086138
-0.003779282009775775,0.04452205794475201
-0.003779112009775774,0.04462079861801568
-0.003778942009775774,0.04350173765436074
-0.003778772009775774,0.04300803428804238
-0.003778602009775774,0.04248141736396947
-0.003778432009775774,0.0421522817864239
-0.003778262009775774,0.04182314620887833
-0.003778092009775774,0.04132944284255902
-0.003777922009775774,0.04080282591848706
-0.003777752009775774,0.04050660389869604
-0.003777582009775774,0.04047369034094185
-0.003777412009775774,0.04067117168746883
-0.003777242009775774,0.04093448014950529
-0.003777072009775774,0.04057243101420491
-0.003776902009775774,0.04044077678318693
-0.003776732009775774,0.03981541918585035
-0.003776562009775774,0.03991415985911288
-0.003776392009775774,0.03928880226177743
-0.003776222009775774,0.03889383956872275
-0.003776052009775774,0.0376760379318024
-0.003775882009775774,0.03672154475692198
-0.003775712009775774,0.03537208888898514
-0.003775542009775774,0.03441759571410052
-0.003775372009775774,0.03306813984616614
-0.003775202009775774,0.03201490599802031
-0.003775032009775774,0.03112623993864619
-0.003774862009775774,0.03053379589906524
-0.003774692009775774,0.02836150108726447
-0.003774522009775774,0.02967804339744328
-0.003774352009775774,0.02776905704768244
-0.003774182009775774,0.02681456387280029
-0.003774012009775774,0.02599172492893397
-0.003773842009775774,0.02467518261875408
-0.003773672009775774,0.02395108434815382
-0.003773502009775775,0.02293076405776441
-0.003773332009775774,0.02256871492246242
-0.003773162009775774,0.02184461665186217
-0.003772992009775775,0.02121925905452672
-0.003772822009775774,0.02082429636147089
-0.003772652009775774,0.02052807434167988
-0.003772482009775775,0.02072555568820686
-0.003772312009775774,0.02079138280371634
-0.003772142009775774,0.02082429636147089
-0.003771972009775775,0.02056098789943491
-0.003771802009775774,0.0210546912657528
-0.003771632009775774,0.0210546912657528
-0.003771462009775775,0.02138382684329777
-0.003771292009775774,0.02204209799838951
-0.003771122009775774,0.02164713530533482
-0.003770952009775775,0.02197627088287979
-0.003770782009775774,0.02210792511389862
-0.003770612009775774,0.02138382684329837
-0.003770442009775775,0.0210217777079989
-0.003770272009775774,0.02052807434167988
-0.003770102009775774,0.02016602520637975
-0.003769932009775775,0.01980397607108028
-0.003769762009775774,0.01904696424272481
-0.003769592009775774,0.0180595575100881
-0.003769422009775775,0.01789498972131531
-0.003769252009775774,0.01733545923948784
-0.003769082009775774,0.01700632366194227
-0.003768912009775775,0.01651262029562391
-0.003768742009775774,0.01641387962236024
-0.003768572009775774,0.01641387962236024
-0.003768402009775774,0.01641387962236024
-0.003768232009775774,0.01618348471807834
-0.003768062009775774,0.01628222539134202
-0.003767892009775774,0.01694049654643316
-0.003767722009775774,0.01700632366194299
-0.003767552009775774,0.01740128635499695
-0.003767382009775774,0.0175987677015243
-0.003767212009775774,0.01736837279724383
-0.003767042009775774,0.01815829818335177
-0.003766872009775774,0.01756585414376974
-0.003766702009775774,0.01710506433520648
-0.003766532009775774,0.01740128635499695
-0.003766362009775774,0.01651262029562391
-0.003766192009775774,0.01671010164214982
-0.003766022009775774,0.01592017625604189
-0.003765852009775774,0.01542647288972353
-0.003765682009775774,0.01473528817687735
-0.003765512009775774,0.01447197971484137
-0.003765342009775774,0.01328709163567732
-0.003765172009775774,0.01203637644100558
-0.003765002009775774,0.01282630182711352
-0.003764832009775774,0.01157558663244035
-0.003764662009775774,0.01127936461264886
-0.003764492009775774,0.01101605615061288
-0.003764322009775774,0.01114771038163111
-0.003764152009775774,0.0107527476885763
-0.003763982009775774,0.01068692057306731
-0.003763812009775774,0.01101605615061288
-0.003763642009775774,0.01131227817040437
-0.003763472009775774,0.01157558663244035
-0.003763302009775774,0.01147684595917668
-0.003763132009775775,0.01164141374794916
-0.003762962009775774,0.01220094422977693
-0.003762792009775774,0.01282630182711352
-0.003762622009775775,0.01285921538486801
-0.003762452009775774,0.01381370855975023
-0.003762282009775774,0.01394536279076846
-0.003762112009775775,0.01447197971484042
-0.003761942009775774,0.0146036339458596
-0.003761772009775774,0.01489985596565062
-0.003761602009775775,0.01480111529238713
-0.003761432009775774,0.01457072038810504
-0.003761262009775774,0.01404410346403213
-0.003761092009775775,0.01338583230894218
-0.003760922009775774,0.01262882048058617
-0.003760752009775774,0.01164141374794946
-0.003760582009775775,0.01170724086345846
-0.003760412009775774,0.01095022903510376
-0.003760242009775774,0.01029195788001262
-0.003760072009775775,0.009600773167168179
-0.003759902009775774,0.008876674896566664
-0.003759732009775774,0.008909588454321223
-0.003759562009775775,0.008547539319021753
-0.003759392009775774,0.007922181721684508
-0.003759222009775774,0.007625959701893495
-0.003759052009775775,0.0075601325863845
-0.003758882009775774,0.007263910566593366
-0.003758712009775774,0.006704380084765896
-0.003758542009775775,0.007165169893329695
-0.003758372009775774,0.007066429220066024
-0.003758202009775774,0.007099342777820581
-0.003758032009775774,0.00700060210455691
-0.003757862009775774,0.00700060210455691
-0.003757692009775774,0.007263910566593366
-0.003757522009775774,0.007099342777820581
-0.003757352009775774,0.007263910566594384
-0.003757182009775774,0.007823441048420837
-0.003757012009775774,0.008547539319021094
-0.003756842009775774,0.007856354606177011
-0.003756672009775774,0.008745020665548437
-0.003756502009775774,0.008613366434530208
-0.003756332009775774,0.009107069800848086
-0.003756162009775774,0.008843761338812107
-0.003755992009775774,0.009107069800848565
-0.003755822009775774,0.01078566124632834
-0.003755652009775774,0.009337464705130465
-0.003755482009775774,0.01039069855327629
-0.003755312009775774,0.01104896970836779
-0.003755142009775774,0.01124645105489478
-0.003754972009775774,0.01154267307468579
-0.003754802009775774,0.01183889509447722
-0.003754632009775774,0.0120692899987587
-0.003754462009775774,0.01197054932549503
-0.003754292009775774,0.01203637644100433
-0.003754122009775774,0.01213511711426782
-0.003753952009775774,0.01200346288324959
-0.003753782009775774,0.01131227817040341
-0.003753612009775774,0.01104896970836743
-0.003753442009775774,0.009864081629203377
-0.003753272009775774,0.009238724031865415
-0.003753102009775774,0.008481712203511979
-0.003752932009775774,0.00756013258638438
-0.003752762009775775,0.006704380084767453
-0.003752592009775774,0.005980281814165639
-0.003752422009775774,0.005322010659074497
-0.003752252009775775,0.004663739503984552
-0.003752082009775774,0.00426877681092867
-0.003751912009775774,0.00403838190664677
-0.003751742009775775,0.004202949695419256
-0.003751572009775774,0.004433344599701455
-0.003751402009775774,0.004532085272965126
-0.003751232009775775,0.004564998830719624
-0.003751062009775774,0.004729566619492469
-0.003750892009775774,0.00482830729275614
-0.003750722009775775,0.004894134408265135
-0.003750552009775774,0.005684059794374625
-0.003750382009775774,0.006177763160692982
-0.003750212009775775,0.006111936045183987
-0.003750042009775774,0.006638552969256781
-0.003749872009775774,0.007724700375157166
-0.003749702009775775,0.007856354606175155
-0.003749532009775774,0.008415885088002865
-0.003749362009775774,0.009403291820639578
-0.003749192009775775,0.009995735860220529
-0.003749022009775774,0.01045652566878541
-0.003748852009775774,0.01068692057306731
-0.003748682009775775,0.01052235278429482
-0.003748512009775774,0.01052235278429452
-0.003748342009775774,0.009896995186957936
-0.003748172009775775,0.00950203249390325
-0.003748002009775774,0.009337464705130465
-0.003747832009775774,0.008580452876775651
-0.003747662009775775,0.008053835952702737
-0.003747492009775774,0.007263910566593366
-0.003747322009775774,0.007066429220066024
-0.003747152009775774,0.006803120758029567
-0.003746982009775774,0.006276503833956653
-0.003746812009775774,0.006605639411502225
-0.003746642009775774,0.006638552969256781
-0.003746472009775774,0.005223269985814357
-0.003746302009775774,0.007165169893329695
-0.003746132009775774,0.005716973352129182
-0.003745962009775774,0.006408158064974762
-0.003745792009775774,0.006342330949465767
-0.003745622009775774,0.006473985180483996
-0.003745452009775774,0.007099342777820821
-0.003745282009775774,0.007230997008838809
-0.003745112009775774,0.007296824124347924
-0.003744942009775774,0.00769178681740213
-0.003744772009775774,0.007428478355366152
-0.003744602009775774,0.007823441048420837
-0.003744432009775774,0.007099342777820222
-0.003744262009775774,0.006901861431293239
-0.003744092009775774,0.006704380084765896
-0.003743922009775774,0.006539812295992332
-0.003743752009775774,0.006111936045183867
-0.003743582009775774,0.006144849602938425
-0.003743412009775774,0.006111936045183568
-0.003743242009775774,0.005947368256411082
-0.003743072009775774,0.006046108929674754
-0.003742902009775774,0.00519035642805585
-0.003742732009775774,0.004959961523774369
-0.003742562009775774,0.005256183543565383
-0.003742392009775774,0.005256183543565084
-0.003742222009775774,0.005091615754792597
-0.003742052009775774,0.00505870219703804
-0.003741882009775775,0.004630825946229575
-0.003741712009775774,0.003906727675628541
-0.003741542009775774,0.003972554791137656
-0.003741372009775775,0.004104209022155645
-0.003741202009775774,0.004334603926437783
-0.003741032009775774,0.004170036137664999
-0.003740862009775775,0.004301690368682987
-0.003740692009775774,0.00482830729275614
-0.003740522009775774,0.004663739503983355
-0.003740352009775775,0.004729566619492349
-0.003740182009775774,0.005552405563356397
-0.003740012009775774,0.005848627583147411
-0.003739842009775775,0.005782800467638416
-0.003739672009775774,0.006375244507220324
-0.003739502009775774,0.006276503833956653
-0.003739332009775775,0.00644107162272914
-0.003739162009775774,0.006441071622729439
-0.003738992009775774,0.006177763160692982
-0.003738822009775775,0.006243590276201976
-0.003738652009775774,0.006605639411502225
-0.003738482009775774,0.006375244507220324
-0.003738312009775775,0.005848627583148368
-0.003738142009775774,0.005914454698656525
-0.003737972009775774,0.005881541140901968
-0.003737802009775775,0.006276503833955935
-0.003737632009775774,0.005914454698656525
-0.003737462009775774,0.006111936045183867
-0.003737292009775775,0.006111936045183867
-0.003737122009775774,0.00574988690988374
-0.003736952009775774,0.006276503833956653
-0.003736782009775774,0.004630825946228797
-0.003736612009775774,0.005684059794374625
-0.003736442009775774,0.004795393735001583
-0.003736272009775774,0.004696653061737912
-0.003736102009775774,0.004762480177245949
-0.003735932009775774,0.004170036137664999
-0.003735762009775774,0.003544678540328413
-0.003735592009775774,0.003116802289518752
-0.003735422009775774,0.002886407385237271
-0.003735252009775774,0.0025572718076917
-0.003735082009775774,0.002228136230147326
-0.003734912009775774,0.002886407385237271
-0.003734742009775774,0.001899000652600558
-0.003734572009775774,0.003149715847273249
-0.003734402009775774,0.002886407385237271
-0.003734232009775774,0.003182629405028285
-0.003734062009775774,0.002886407385236732
-0.003733892009775774,0.002590185365446257
-0.003733722009775774,0.002392704018918914
-0.003733552009775774,0.002359790461164297
-0.003733382009775774,0.0023268769034098
-0.003733212009775774,0.002919320942991828
-0.003733042009775774,0.00295223450074854
-0.003732872009775774,0.004137122579910441
-0.003732702009775774,0.003709246329101199
-0.003732532009775774,0.004202949695420692
-0.003732362009775774,0.00482830729275614
-0.003732192009775774,0.005124529312547154
-0.003732022009775774,0.005815714025393512
-0.003731852009775774,0.006177763160692982
-0.003731682009775774,0.006638552969256781
-0.003731512009775775,0.006737293642520273
-0.003731342009775774,0.006934774989047795
-0.003731172009775774,0.007428478355366152
-0.003731002009775775,0.007428478355366152
-0.003730832009775774,0.006901861431293239
-0.003730662009775774,0.006967688546802352
-0.003730492009775775,0.007165169893329336
-0.003730322009775774,0.007263910566593366
-0.003730152009775774,0.00677020720027501
-0.003729982009775775,0.00640815806497554
-0.003729812009775774,0.006342330949465767
-0.003729642009775774,0.005947368256411082
-0.003729472009775775,0.005716973352129601
-0.003729302009775774,0.005552405563356397
-0.003729132009775774,0.005453664890092726
-0.003728962009775775,0.00515744287030225
-0.003728792009775774,0.005420751332338168
-0.003728622009775774,0.005585319121110954
-0.003728452009775775,0.005684059794374446
-0.003728282009775774,0.006572725853747667
-0.003728112009775774,0.006243590276202096
-0.003727942009775775,0.006605639411501566
-0.003727772009775774,0.006836034315784124
-0.003727602009775774,0.007593046144138938
-0.003727432009775775,0.006144849602941059
-0.003727262009775774,0.00871210710779388
-0.003727092009775774,0.008382971530248308
-0.003726922009775775,0.00802092239494818
-0.003726752009775774,0.007691786817402609
-0.003726582009775774,0.007362651239857037
-0.003726412009775775,0.007494305470875266
-0.003726242009775774,0.006671466527011338
-0.003726072009775774,0.006671466527011338
-0.003725902009775774,0.005815714025392853
-0.003725732009775774,0.006013195371920196
-0.003725562009775774,0.00505870219703804
-0.003725392009775774,0.004532085272965126
-0.003725222009775774,0.004301690368682868
-0.003725052009775774,0.004104209022155884
-0.003724882009775774,0.003676332771346642
-0.003724712009775774,0.003380110751554191
-0.003724542009775774,0.002590185365446257
-0.003724372009775774,0.002261049787900686
-0.003724202009775774,0.001668605748317401
-0.003724032009775774,0.0009774210354729588
-0.003723862009775774,0.0008457668044547304
-0.003723692009775774,0.0003849769958911704
-0.003723522009775774,0.0005166312269091594
-0.003723352009775774,0.0005824583424182735
-0.003723182009775774,0.001010334593228294
-0.003723012009775774,0.001438210844036758
-0.003722842009775774,0.001899000652600558
-0.003722672009775774,0.002359790461165196
-0.003722502009775774,0.002820580269728157
-0.003722332009775774,0.003380110751555628
-0.003722162009775774,0.004268776810929627
-0.003721992009775774,0.004795393735001583
-0.003721822009775774,0.005256183543565383
-0.003721652009775774,0.005684059794374685
-0.003721482009775774,0.005716973352129182
-0.003721312009775774,0.005980281814165639
-0.003721142009775774,0.005914454698656285
-0.003720972009775774,0.005782800467638296
-0.003720802009775774,0.005552405563356397
-0.003720632009775775,0.005420751332338407
-0.003720462009775774,0.005618232678865511
-0.003720292009775774,0.005256183543565383
-0.003720122009775775,0.00492704796602041
-0.003719952009775774,0.005223269985810825
