Analysis/files/wrd01_d2s01/cmb14_ch46.csv

#Digilent WaveForms Oscilloscope Acquisition
#Device Name: ADP3450
#Serial Number: SN:210018B9D9B0
#Date Time: 2024-08-06 17:39:30.828.346.400
#Sample rate: 2.94118e+06Hz
#Samples: 32768
#Trigger: Source: Channel 3 Type: Edge Condition: Rising Level: 60 mV Hyst.: Auto HoldOff: 0 s
#Channel 3: Range: 200 mV/div Offset: -20 mV Attenuation: 1 X Coupling: DC Bandwidth: 0 Hz Sample Mode: Average

Time (s),Channel 3 (V)
-0.005570429414519907,0.01931416976225094
-0.005570089414519907,0.01750392408574874
-0.005569749414519907,0.01664817158413182
-0.005569409414519907,0.01651651735311359
-0.005569069414519907,0.01694439360392379
-0.005568729414519907,0.01747101052799575
-0.005568389414519907,0.0172735291814684
-0.005568049414519907,0.01724061562371355
-0.005567709414519907,0.01707604783494106
-0.005567369414519907,0.01687856648841372
-0.005567029414519906,0.01575950552475776
-0.005566689414519907,0.01519997504293131
-0.005566349414519907,0.01414674119478548
-0.005566009414519906,0.01368595138622006
-0.005565669414519907,0.01279728532684864
-0.005565329414519907,0.01243523619154851
-0.005564989414519906,0.01236940907603849
-0.005564649414519907,0.01187570570972104
-0.005564309414519907,0.01220484128726661
-0.005563969414519906,0.01243523619154875
-0.005563629414519907,0.01256689042256674
-0.005563289414519907,0.01263271753807585
-0.005562949414519907,0.01210610061400389
-0.005562609414519907,0.01138200234340268
-0.005562269414519907,0.01055916339953875
-0.005561929414519907,0.009538843109149337
-0.005561589414519907,0.008584349934265326
-0.005561249414519907,0.008057733010192412
-0.005560909414519907,0.007662770317138445
-0.005560569414519907,0.007169066950819369
-0.005560229414519907,0.006971585604292027
-0.005559889414519907,0.006510795795729066
-0.005559549414519907,0.006280400891446328
-0.005559209414519907,0.005589216178600628
-0.005558869414519907,0.005687956851864121
-0.005558529414519907,0.005984178871655314
-0.005558189414519907,0.007004499162046584
-0.005557849414519907,0.008123560125699491
-0.005557509414519907,0.009078053300583682
-0.005557169414519907,0.009637583782411153
-0.005556829414519907,0.009703410897920147
-0.005556489414519907,0.009308448204865582
-0.005556149414519907,0.009078053300583682
-0.005555809414519907,0.008288127914475748
-0.005555469414519907,0.007926078779174183
-0.005555129414519907,0.006609536468991898
-0.005554789414519907,0.005984178871656452
-0.005554449414519907,0.0052271670433005
-0.005554109414519907,0.004865117908000373
-0.005553769414519907,0.004338500983927459
-0.005553429414519907,0.003844797617609103
-0.005553089414519907,0.00308778578925429
-0.005552749414519907,0.002791563769463275
-0.005552409414519907,0.002758650211708718
-0.005552069414519907,0.002199119729881245
-0.005551729414519907,0.002232033287635805
-0.005551389414519907,0.001672502805807015
-0.005551049414519907,0.0009484045352080757
-0.005550709414519907,-3.900219742863573e-05
-0.005550369414519907,-0.0008289275835393233
-0.005550029414519907,-0.001553025854138263
-0.005549689414519907,-0.00217838345147485
-0.005549349414519907,-0.002277124124736544
-0.005549009414519907,-0.001190976718838135
-0.005548669414519907,0.000191392706853262
-0.005548329414519907,0.001442107901528111
-0.005547989414519907,0.002363687518654033
-0.005547649414519907,0.003844797617609103
-0.005547309414519907,0.004865117908000613
-0.005546969414519907,0.0049967721390186
-0.005546629414519907,0.004503068772700245
-0.005546289414519907,0.004470155214945269
-0.005545949414519907,0.004239760310663789
-0.005545609414519907,0.004239760310663789
-0.005545269414519906,0.004568895888210196
-0.005544929414519907,0.005029685696773157
-0.005544589414519907,0.005490475505336958
-0.005544249414519906,0.004898031465754631
-0.005543909414519907,0.004733463676982144
-0.005543569414519907,0.003614402713327202
-0.005543229414519906,0.002462428191914949
-0.005542889414519907,0.0009484045352080757
-0.005542549414519907,-0.0005985326792561085
-0.005542209414519907,-0.001651766527400018
-0.005541869414519907,-0.001750507200665607
-0.005541529414519907,-0.00158593941189282
-0.005541189414519907,-0.0005327055637489072
-0.005540849414519907,0.0002243062646078188
-0.005540509414519907,0.001573762132544662
-0.005540169414519907,0.003021958673742542
-0.005539829414519907,0.004141019637400115
-0.005539489414519907,0.003976451848627331
-0.005539149414519907,0.004996772139016744
-0.005538809414519907,0.004832204350245815
-0.005538469414519907,0.004206846752909232
-0.005538129414519907,0.003910624733118756
-0.005537789414519907,0.003680229828836316
-0.005537449414519907,0.003680229828836316
-0.005537109414519907,0.003548575597818328
-0.005536769414519907,0.003680229828836316
-0.005536429414519907,0.004206846752909232
-0.005536089414519907,0.00470055011922669
-0.005535749414519907,0.005095512812282273
-0.005535409414519907,0.004733463676982144
-0.005535069414519907,0.004338500983928177
-0.005534729414519907,0.004700550119227587
-0.005534389414519907,0.004733463676982144
-0.005534049414519907,0.004535982330455161
-0.005533709414519907,0.004568895888209358
-0.005533369414519907,0.004206846752909232
-0.005533029414519907,0.003219440020272517
-0.005532689414519907,0.002232033287635805
-0.005532349414519907,0.001409194343771875
-0.005532009414519907,0.001014231650717189
-0.005531669414519907,0.00045470116888972
-0.005531329414519907,0.0005863553999079472
-0.005530989414519907,0.00104714520847175
-0.005530649414519907,0.001869984152335677
-0.005530309414519907,0.003021958673745176
-0.005529969414519907,0.003482748482308975
-0.005529629414519907,0.004535982330455101
-0.005529289414519907,0.004700550119227587
-0.005528949414519907,0.005062599254527716
-0.005528609414519907,0.005622129736356023
-0.005528269414519907,0.006082919544918986
-0.005527929414519907,0.006642450026746457
-0.005527589414519907,0.006576622911237102
-0.005527249414519907,0.006444968680219114
-0.005526909414519907,0.006313314449200885
-0.005526569414519907,0.00595126531389962
-0.005526229414519907,0.005325907716564172
-0.005525889414519907,0.004470155214945688
-0.005525549414519907,0.003384007809044646
-0.005525209414519907,0.003021958673745176
-0.005524869414519907,0.002001638383353904
-0.005524529414519906,0.001540848574790584
-0.005524189414519907,0.00180415703682656
-0.005523849414519907,0.002528255307426817
-0.005523509414519906,0.003581489155573663
-0.005523169414519907,0.004141019637400115
-0.005522829414519907,0.005161339927791386
-0.005522489414519906,0.005819611082882109
-0.005522149414519907,0.005589216178600628
-0.005521809414519907,0.005984178871655314
-0.005521469414519906,0.005720870409617061
-0.005521129414519907,0.004733463676982144
-0.005520789414519907,0.003449834924554418
-0.005520449414519907,0.00256116886518299
-0.005520109414519907,0.001902897710090234
-0.005519769414519907,0.001540848574790105
-0.005519429414519907,0.001047145208472648
-0.005519089414519907,0.0009813180929626325
-0.005518749414519907,0.0009813180929626325
-0.005518409414519907,0.0009813180929626325
-0.005518069414519907,0.00104714520847175
-0.005517729414519907,0.001244626554999091
-0.005517389414519907,0.001507935017035069
-0.005517049414519907,0.001409194343771875
-0.005516709414519907,0.001014231650717189
-0.005516369414519907,0.001738329921316129
-0.005516029414519907,0.002067465498863018
-0.005515689414519907,0.002758650211708718
-0.005515349414519907,0.002824477327217712
-0.005515009414519907,0.003416921366799861
-0.005514669414519907,0.003746056944345429
-0.005514329414519907,0.003877711175363421
-0.005513989414519907,0.003548575597818088
-0.005513649414519907,0.00387771117536366
-0.005513309414519907,0.003680229828836675
-0.005512969414519907,0.003482748482308975
-0.005512629414519907,0.003351094251290744
-0.005512289414519907,0.003384007809045304
-0.005511949414519907,0.003844797617609103
-0.005511609414519907,0.004272673868418345
-0.005511269414519907,0.004437241657191129
-0.005510929414519907,0.004667636561473031
-0.005510589414519907,0.00489803146575493
-0.005510249414519907,0.005786697525127971
-0.005509909414519907,0.006543709353482785
-0.005509569414519907,0.006543709353482785
-0.005509229414519907,0.006642450026746457
-0.005508889414519907,0.006642450026745918
-0.005508549414519907,0.006346228006955442
-0.005508209414519907,0.006214573775937213
-0.005507869414519907,0.005490475505336359
-0.005507529414519907,0.005161339927791386
-0.005507189414519907,0.004733463676982144
-0.005506849414519907,0.005161339927791506
-0.005506509414519907,0.0052271670433005
-0.005506169414519907,0.005062599254527716
-0.005505829414519907,0.005260080601055178
-0.005505489414519907,0.005325907716564172
-0.005505149414519907,0.005029685696773157
-0.005504809414519907,0.004766377234734127
-0.005504469414519907,0.003351094251290744
-0.005504129414519907,0.002561168865181374
-0.005503789414519906,0.002133292614371653
-0.005503449414519907,0.001869984152335677
-0.005503109414519907,0.002001638383353904
-0.005502769414519906,0.002396601076409667
-0.005502429414519907,0.002989045115990616
-0.005502089414519907,0.002890304442726945
-0.005501749414519906,0.003416921366801298
-0.005501409414519907,0.004206846752909232
-0.005501069414519907,0.004733463676982144
-0.005500729414519906,0.004963858581264642
-0.005500389414519907,0.005292994158809615
-0.005500049414519907,0.005424648389827843
-0.005499709414519907,0.005457561947582341
-0.005499369414519907,0.005029685696773157
-0.005499029414519907,0.004272673868418345
-0.005498689414519907,0.003219440020274433
-0.005498349414519907,0.002100379056617575
-0.005498009414519907,0.00180415703682656
-0.005497669414519907,0.00147502145928159
-0.005497329414519907,0.001540848574790105
-0.005496989414519907,0.001310453670508204
-0.005496649414519907,0.001080058766226726
-0.005496309414519907,0.001475021459280992
-0.005495969414519907,0.001310453670508204
-0.005495629414519907,0.00196872482559815
-0.005495289414519907,0.00249534174967226
-0.005494949414519907,0.002956131558236059
-0.005494609414519907,0.003581489155571508
-0.005494269414519907,0.003943538290872774
-0.005493929414519907,0.004272673868418345
-0.005493589414519907,0.004667636561472312
-0.005493249414519907,0.004832204350245815
-0.005492909414519907,0.004930945023509487
-0.005492569414519907,0.005161339927790967
-0.005492229414519907,0.0052271670433005
-0.005491889414519907,0.005260080601055058
-0.005491549414519907,0.004667636561474108
-0.005491209414519907,0.004437241657191129
-0.005490869414519907,0.004206846752909232
-0.005490529414519907,0.00387771117536366
-0.005490189414519907,0.004042278964136444
-0.005489849414519907,0.004206846752909232
-0.005489509414519907,0.004667636561473031
-0.005489169414519907,0.005260080601055058
-0.005488829414519907,0.005391734832073286
-0.005488489414519907,0.005819611082882528
-0.005488149414519907,0.004898031465755229
-0.005487809414519907,0.005062599254527716
-0.005487469414519907,0.003844797617609103
-0.005487129414519907,0.002264946845390243
-0.005486789414519907,0.002199119729881245
-0.005486449414519907,0.0009154909774535189
-0.005486109414519907,0.0009154909774533392
-0.005485769414519907,0.0008167503041898484
-0.005485429414519907,0.0008167503041898484
-0.005485089414519907,0.001902897710092329
-0.005484749414519907,0.003054872231499733
-0.005484409414519907,0.004338500983927459
-0.005484069414519907,0.005325907716566687
-0.005483729414519907,0.006708277142255571
-0.005483389414519907,0.007333634739592155
-0.005483049414519907,0.007958992336928081
-0.005482709414519907,0.007596943201628613
-0.005482369414519907,0.007366548297346712
-0.005482029414519906,0.006839931373272243
-0.005481689414519907,0.005984178871655314
-0.005481349414519907,0.005128426370036829
-0.005481009414519906,0.004371414541681417
-0.005480669414519907,0.004042278964136444
-0.005480329414519907,0.004206846752909232
-0.005479989414519906,0.004305587426172723
-0.005479649414519907,0.004206846752909232
-0.005479309414519907,0.003811884059854546
-0.005478969414519907,0.0006521825154228119
-0.005478629414519907,-0.00764203403873133
-0.005478289414519907,-0.02251896214379114
-0.005477949414519907,-0.04536097122541222
-0.005477609414519907,-0.07462112406925503
-0.005477269414519907,-0.1080612987478851
-0.005476929414519907,-0.1422255716970532
-0.005476589414519907,-0.1741517227190357
-0.005476249414519907,-0.2014699756553181
-0.005475909414519907,-0.2227321339647234
-0.005475569414519907,-0.2380040247628765
-0.005475229414519907,-0.2476147836272072
-0.005474889414519907,-0.2525518172903818
-0.005474549414519907,-0.2531771748877273
-0.005474209414519907,-0.2512352749802085
-0.005473869414519907,-0.2475160429539503
-0.005473529414519907,-0.2423815279442326
-0.005473189414519907,-0.2365887417794306
-0.005472849414519907,-0.2295781539777227
-0.005472509414519907,-0.2225675661759892
-0.005472169414519907,-0.2156228054897777
-0.005471829414519907,-0.2087109583613333
-0.005471489414519907,-0.2015028892130727
-0.005471149414519907,-0.1939327709295246
-0.005470809414519907,-0.1869880102433256
-0.005470469414519907,-0.1792533241709921
-0.005470129414519907,-0.1719136007917259
-0.005469789414519907,-0.1648371858744961
-0.005469449414519907,-0.1577607709572663
-0.005469109414519907,-0.1508489238288093
-0.005468769414519907,-0.144035817373616
-0.005468429414519907,-0.1379468091890229
-0.005468089414519907,-0.131923628119939
-0.005467749414519907,-0.1271182486877736
-0.005467409414519907,-0.1228394861796812
-0.005467069414519907,-0.1190544270379071
-0.005466729414519907,-0.1158947254934697
-0.005466389414519907,-0.1128666781800451
-0.005466049414519907,-0.1099702850976494
-0.005465709414519907,-0.1063497937446481
-0.005465369414519907,-0.1027951295071483
-0.005465029414519907,-0.09861510767232717
-0.005464689414519907,-0.09397429602893462
-0.005464349414519907,-0.08962970640532632
-0.005464009414519907,-0.08591047437906812
-0.005463669414519907,-0.08265203216136699
-0.005463329414519907,-0.07949233061692379
-0.005462989414519907,-0.07636554263024656
-0.005462649414519907,-0.07353497666335465
-0.005462309414519907,-0.0700790530991207
-0.005461969414519907,-0.06708391934346147
-0.005461629414519907,-0.06389130424126943
-0.005461289414519906,-0.06069868913907271
-0.005460949414519907,-0.05813143163422193
-0.005460609414519907,-0.05503755720529357
-0.005460269414519906,-0.05200950989187048
-0.005459929414519907,-0.04990304219558265
-0.005459589414519907,-0.04802696940357289
-0.005459249414519906,-0.04565719324524203
-0.005458909414519907,-0.04414316958853515
-0.005458569414519907,-0.04220126968101629
-0.005458229414519906,-0.04019354265798555
-0.005457889414519907,-0.03867951900127868
-0.005457549414519907,-0.0375933715953783
-0.005457209414519907,-0.03617808861193492
-0.005456869414519907,-0.03466406495522271
-0.005456529414519907,-0.03354500399156777
-0.005456189414519907,-0.03252468370117836
-0.005455849414519907,-0.03137270917976701
-0.005455509414519907,-0.03054987023590307
-0.005455169414519907,-0.02979285840754964
-0.005454829414519907,-0.0295295499455118
-0.005454489414519907,-0.02900293302143889
-0.005454149414519907,-0.02811426696206747
-0.005453809414519907,-0.02673189753637445
-0.005453469414519907,-0.02528370099517394
-0.005453129414519907,-0.0233747146454131
-0.005452789414519907,-0.02202525877747279
-0.005452449414519907,-0.02051123512076316
-0.005452109414519907,-0.01909595213731977
-0.005451769414519907,-0.01754901492285302
-0.005451429414519907,-0.01712113867204378
-0.005451089414519907,-0.01583750991961838
-0.005450749414519907,-0.01448805405167921
-0.005450409414519907,-0.01396143712760629
-0.005450069414519907,-0.01313859818374386
-0.005449729414519907,-0.01294111683721502
-0.005449389414519907,-0.01336899308802426
-0.005449049414519907,-0.01386269645434172
-0.005448709414519907,-0.01455388116718832
-0.005448369414519907,-0.01475136251371566
-0.005448029414519907,-0.01537672011105225
-0.005447689414519907,-0.01458679472494288
-0.005447349414519907,-0.01359938799230617
-0.005447009414519907,-0.01317151174149692
-0.005446669414519907,-0.01241449991314211
-0.005446329414519907,-0.01129543894948717
-0.005445989414519907,-0.010044723754814
-0.005445649414519907,-0.007938256058519826
-0.005445309414519907,-0.006555886632830944
-0.005444969414519907,-0.005140603649384987
-0.005444629414519907,-0.004054456243482207
-0.005444289414519907,-0.002737913933302319
-0.005443949414519907,-0.002145469893720293
-0.005443609414519907,-0.002145469893720053
-0.005443269414519907,-0.002013815662702062
-0.005442929414519907,-0.001355544507610922
-0.005442589414519907,-0.0007301869102740963
-0.005442249414519907,-0.0005985326792561085
-0.005441909414519907,-0.0007301869102743358
-0.005441569414519907,-0.0008618411412927427
-0.005441229414519907,-0.000960581814556237
-0.005440889414519907,-0.001651766527401934
-0.005440549414519907,-0.002836654606568025
-0.005440209414519907,-0.003955715570220932
-0.005439869414519907,-0.004877295187348533
-0.005439529414519906,-0.005206430764893084
-0.005439189414519907,-0.004646900283066632
-0.005438849414519907,-0.003527839319411689
-0.005438509414519906,-0.002803741048808619
-0.005438169414519907,-0.001256803834347248
-0.005437829414519907,-0.0001377428706923062
-0.005437489414519906,0.0007838367464357107
-0.005437149414519907,0.001014231650717189
-0.005436809414519907,0.0006521825154170643
-0.005436469414519907,9.265203359060928e-05
-0.005436129414519907,0.0003888740533806063
-0.005435789414519907,0.0007509231886807348
-0.005435449414519907,0.001112972323980205
-0.005435109414519907,0.001343367228262761
-0.005434769414519907,0.001178799439489977
-0.005434429414519907,0.001343367228262462
-0.005434089414519907,0.0006192689576625041
-0.005433749414519907,0.0003559604956260495
-0.005433409414519907,5.973847583557357e-05
-0.005433069414519907,0.0003888740533806063
-0.005432729414519907,0.0006192689576625041
-0.005432389414519907,0.001178799439488959
-0.005432049414519907,0.00183707059458112
-0.005431709414519907,0.002330773960899476
-0.005431369414519907,0.003252353578025397
-0.005431029414519907,0.00318652646251796
-0.005430689414519907,0.003416921366799861
-0.005430349414519907,0.003384007809045364
-0.005430009414519907,0.002396601076408589
-0.005429669414519907,0.001935811267844791
-0.005429329414519907,0.002133292614371772
-0.005428989414519907,0.001310453670508204
-0.005428649414519907,0.002067465498863018
-0.005428309414519907,0.002067465498863018
-0.005427969414519907,0.002528255307426817
-0.005427629414519907,0.002330773960899476
-0.005427289414519907,0.002363687518654033
-0.005426949414519907,0.001475021459280992
-0.005426609414519907,0.001376280786017318
-0.005426269414519907,0.001343367228262761
-0.005425929414519907,0.001409194343771875
-0.005425589414519907,0.002199119729881245
-0.005425249414519907,0.002692823096199604
-0.005424909414519907,0.003153612904763403
-0.005424569414519907,0.00377897050209999
-0.005424229414519907,0.004568895888209358
-0.005423889414519907,0.004700550119228246
-0.005423549414519907,0.005062599254527716
-0.005423209414519907,0.004930945023509487
-0.005422869414519907,0.00423976031066313
-0.005422529414519907,0.00387771117536366
-0.005422189414519907,0.003120699347008846
-0.005421849414519907,0.002824477327217472
-0.005421509414519907,0.002626995980690491
-0.005421169414519907,0.002001638383353904
-0.005420829414519907,0.002199119729881425
-0.005420489414519907,0.002297860403144919
-0.005420149414519907,0.003021958673745176
-0.005419809414519907,0.003680229828835897
-0.005419469414519907,0.003449834924554418
-0.005419129414519907,0.003713143386590873
-0.005418789414519906,0.003384007809043868
-0.005418449414519907,0.00259408242293593
-0.005418109414519907,0.00249534174967226
-0.005417769414519906,0.002791563769463933
-0.005417429414519907,0.003153612904763403
-0.005417089414519907,0.004075192521891001
-0.005416749414519906,0.00473346367698412
-0.005416409414519907,0.005819611082882528
-0.005416069414519907,0.006543709353482785
-0.005415729414519906,0.007103239835310854
