Analysis/files/wrd01_d2s01/cmb12_ch07.csv

#Digilent WaveForms Oscilloscope Acquisition
#Device Name: ADP3450
#Serial Number: SN:210018B9D9B0
#Date Time: 2024-08-15 12:06:16.008.261.240
#Sample rate: 5.88235e+06Hz
#Samples: 32768
#Trigger: Source: Channel 3 Type: Edge Condition: Rising Level: 40 mV Hyst.: Auto HoldOff: 0 s
#Channel 3: Range: 100 mV/div Offset: 0 V Attenuation: 1 X Coupling: DC Bandwidth: 0 Hz Sample Mode: Average

Time (s),Channel 3 (V)
-0.003168924515318681,0.01746711347050607
-0.00316875451531868,0.0166442745266416
-0.00316858451531868,0.01634805250685113
-0.003168414515318681,0.01717089145071506
-0.00316824451531868,0.01684175587316912
-0.00316807451531868,0.01664427452664214
-0.003167904515318681,0.01671010164215126
-0.00316773451531868,0.01565686779400687
-0.00316756451531868,0.0164467931801148
-0.003167394515318681,0.01605183048706011
-0.00316722451531868,0.01565686779400483
-0.00316705451531868,0.01532773221645986
-0.003166884515318681,0.01509733731217796
-0.00316671451531868,0.01466946106136902
-0.00316654451531868,0.0148340288501415
-0.003166374515318681,0.01526190510095074
-0.00316620451531868,0.01608474404481431
-0.00316603451531868,0.01588726269828733
-0.003165864515318681,0.01634805250685113
-0.00316569451531868,0.01726963212397849
-0.00316552451531868,0.0171379778929605
-0.003165354515318681,0.01733545923948784
-0.003165184515318681,0.01832286597212276
-0.00316501451531868,0.01848743376089734
-0.003164844515318681,0.01894822356946114
-0.003164674515318681,0.01927735914700611
-0.00316450451531868,0.01861908799191557
-0.003164334515318681,0.01812538462559721
-0.003164164515318681,0.01805955751008822
-0.00316399451531868,0.01746711347050607
-0.00316382451531868,0.01671010164215126
-0.003163654515318681,0.01664427452664226
-0.00316348451531868,0.01615057116032378
-0.00316331451531868,0.01631513894909657
-0.003163144515318681,0.01565686779400663
-0.00316297451531868,0.01585434914053277
-0.00316280451531868,0.01364914077097745
-0.003162634515318681,0.012957956058133
-0.00316246451531868,0.01259590692283162
-0.00316229451531868,0.01351748653995922
-0.003162124515318681,0.0149327695234026
-0.00316195451531868,0.0150644237544234
-0.00316178451531868,0.01473528817687783
-0.003161614515318681,0.01427449836831487
-0.00316144451531868,0.01381370855975023
-0.00316127451531868,0.01312252384690453
-0.003161104515318681,0.01206928999876062
-0.00316093451531868,0.01131227817040389
-0.00316076451531868,0.01200346288324959
-0.003160594515318681,0.01246425269181339
-0.00316042451531868,0.01387953567525935
-0.00316025451531868,0.01470237461912327
-0.003160084515318681,0.01466946106136872
-0.00315991451531868,0.01453780683035049
-0.00315974451531868,0.01420867125280492
-0.003159574515318681,0.01387953567525935
-0.00315940451531868,0.01328709163567953
-0.00315923451531868,0.01450489327259593
-0.003159064515318681,0.01424158481055947
-0.00315889451531868,0.01404410346403159
-0.00315872451531868,0.01374788144424112
-0.003158554515318681,0.01292504250037719
-0.00315838451531868,0.01164141374794838
-0.00315821451531868,0.01104896970836743
-0.003158044515318681,0.01032487143776718
-0.00315787451531868,0.009929908744712793
-0.00315770451531868,0.01009447653348528
-0.003157534515318681,0.01055526634204908
-0.00315736451531868,0.01019321720674829
-0.00315719451531868,0.00983116807144882
-0.003157024515318681,0.009370378262885021
-0.00315685451531868,0.008547539319019717
-0.00315668451531868,0.00779052749066628
-0.003156514515318681,0.007395564797611595
-0.00315634451531868,0.007000602104556311
-0.00315617451531868,0.006671466527011338
-0.003156004515318681,0.007362651239857037
-0.00315583451531868,0.007691786817403088
-0.00315566451531868,0.007955095279439066
-0.003155494515318681,0.007362651239857037
-0.00315532451531868,0.008975415569829198
-0.00315515451531868,0.008350057972493751
-0.003154984515318681,0.007625959701893495
-0.003154814515318681,0.008119663068210952
-0.00315464451531868,0.00881084778105755
-0.003154474515318681,0.008777934223302994
-0.003154304515318681,0.00881084778105749
-0.00315413451531868,0.008777934223302994
-0.003153964515318681,0.008613366434530208
-0.003153794515318681,0.008152576625967247
-0.00315362451531868,0.007856354606175394
-0.003153454515318681,0.007198083451084253
-0.003153284515318681,0.006737293642521291
-0.00315311451531868,0.006572725853747667
-0.00315294451531868,0.006671466527011338
-0.003152774515318681,0.007000602104556311
-0.00315260451531868,0.006638552969256781
-0.00315243451531868,0.00653981229599311
-0.003152264515318681,0.005716973352130679
-0.00315209451531868,0.006934774989047795
-0.00315192451531868,0.006506898738238553
-0.003151754515318681,0.007625959701891459
-0.00315158451531868,0.008086749510457293
-0.00315141451531868,0.007625959701893495
-0.003151244515318681,0.007362651239857516
-0.00315107451531868,0.007395564797611595
-0.00315090451531868,0.007988008837193623
-0.003150734515318681,0.007132256335576695
-0.00315056451531868,0.007922181721684508
-0.00315039451531868,0.007461391913120709
-0.003150224515318681,0.007527219028629823
-0.00315005451531868,0.008086749510457293
-0.00314988451531868,0.008448798645757422
-0.003149714515318681,0.008843761338812107
-0.00314954451531868,0.009469118936148692
-0.00314937451531868,0.009896995186957936
-0.003149204515318681,0.01029195788001262
-0.00314903451531868,0.01045652566878541
-0.00314886451531868,0.01052235278429452
-0.003148694515318681,0.01098314259285832
-0.00314852451531868,0.01114771038163194
-0.00314835451531868,0.0116085001901949
-0.003148184515318681,0.01154267307468579
-0.00314801451531868,0.01114771038163075
-0.00314784451531868,0.01095022903510376
-0.003147674515318681,0.01009447653348528
-0.00314750451531868,0.009205810474111039
-0.00314733451531868,0.008547539319021094
-0.003147164515318681,0.008547539319021094
-0.00314699451531868,0.008580452876775111
-0.00314682451531868,0.008284230856984636
-0.003146654515318681,0.007988008837193623
-0.00314648451531868,0.007428478355365613
-0.00314631451531868,0.007132256335575138
-0.003146144515318681,0.00677020720027501
-0.00314597451531868,0.007132256335576575
-0.00314580451531868,0.007922181721684508
-0.003145634515318681,0.007658873259648051
-0.00314546451531868,0.00788926816393043
-0.00314529451531868,0.008152576625966409
-0.003145124515318681,0.008218403741475522
-0.00314495451531868,0.008646279992284645
-0.00314478451531868,0.008580452876775651
-0.003144614515318681,0.008415885088002865
-0.00314444451531868,0.008350057972492254
-0.00314427451531868,0.007527219028629823
-0.003144104515318681,0.007329737682102481
-0.003143934515318681,0.008086749510455916
-0.00314376451531868,0.006868947873538681
-0.003143594515318681,0.00528909710131994
-0.003143424515318681,0.004202949695421531
-0.00314325451531868,0.003347197193801071
-0.003143084515318681,0.002886407385237271
-0.003142914515318681,0.002721839596464785
-0.00314274451531868,0.001668605748318658
-0.00314257451531868,0.0009115939199638446
-0.003142404515318681,0.001141988824245325
-0.00314223451531868,0.002425617576673472
-0.00314206451531868,0.003050975174010056
-0.003141894515318681,0.003939641233381481
-0.00314172451531868,0.004367517484192341
-0.00314155451531868,0.004696653061737912
-0.003141384515318681,0.005322010659073359
-0.00314121451531868,0.005716973352129182
-0.00314104451531868,0.006375244507220324
-0.003140874515318681,0.007527219028627728
-0.00314070451531868,0.008481712203511979
-0.00314053451531868,0.009304551147375908
-0.003140364515318681,0.009831168071447863
-0.00314019451531868,0.01025904432225806
-0.00314002451531868,0.01032487143776718
-0.003139854515318681,0.01078566124633098
-0.00313968451531868,0.01095022903510376
-0.00313951451531868,0.01127936461264933
-0.003139344515318681,0.0116085001901949
-0.00313917451531868,0.01144393240142212
-0.00313900451531868,0.01048943922653996
-0.003138834515318681,0.01016030364899439
-0.00313866451531868,0.009304551147375908
-0.00313849451531868,0.008218403741475522
-0.003138324515318681,0.008053835952702737
-0.00313815451531868,0.007033515662310389
-0.00313798451531868,0.006441071622729439
-0.003137814515318681,0.006210676718447538
-0.00313764451531868,0.006375244507221702
-0.00313747451531868,0.007132256335575138
-0.003137304515318681,0.006572725853747667
-0.00313713451531868,0.00723099700883863
-0.00313696451531868,0.007132256335575138
-0.003136794515318681,0.007494305470875266
-0.00313662451531868,0.007889268163929651
-0.00313645451531868,0.007724700375157166
-0.003136284515318681,0.008284230856984636
-0.00313611451531868,0.008613366434530327
-0.00313594451531868,0.008679193550039321
-0.003135774515318681,0.008646279992284765
-0.00313560451531868,0.00851462576126558
-0.00313543451531868,0.007988008837193623
-0.003135264515318681,0.007527219028629823
-0.00313509451531868,0.007033515662310389
-0.00313492451531868,0.006441071622729439
-0.003134754515318681,0.00607902248742931
-0.00313458451531868,0.005815714025390578
-0.00313441451531868,0.004564998830719684
-0.003134244515318681,0.003511764982573856
-0.00313407451531868,0.002754753154219761
-0.00313390451531868,0.003149715847273728
-0.003133734515318681,0.003248456520537399
-0.003133564515318681,0.002228136230147985
-0.00313339451531868,0.0023268769034098
-0.003133224515318681,0.001734432863827772
-0.003133054515318681,0.001833173537091264
-0.00313288451531868,0.00153695151730043
-0.003132714515318681,0.00130655661301853
-0.003132544515318681,0.0006482854579285852
-0.00313237451531868,0.001043248150982073
-0.003132204515318681,0.001339470170773087
-0.003132034515318681,0.002820580269725463
-0.00313186451531868,0.00403838190664677
-0.00313169451531868,0.004334603926437783
-0.003131524515318681,0.004630825946228259
-0.00313135451531868,0.004861220850510698
-0.00313118451531868,0.005387837774583611
-0.003131014515318681,0.005618232678865092
-0.00313084451531868,0.006046108929674754
-0.00313067451531868,0.006572725853747667
-0.003130504515318681,0.006967688546801634
-0.00313033451531868,0.006737293642520453
-0.00313016451531868,0.007461391913120709
-0.003129994515318681,0.007494305470875207
-0.00312982451531868,0.005815714025392853
-0.00312965451531868,0.006836034315784124
-0.003129484515318681,0.006441071622730157
-0.00312931451531868,0.006276503833956653
-0.00312914451531868,0.006046108929674754
-0.003128974515318681,0.005947368256411082
-0.00312880451531868,0.006441071622729439
-0.00312863451531868,0.005914454698656525
-0.003128464515318681,0.005420751332338168
-0.00312829451531868,0.005354924216829054
-0.00312812451531868,0.005684059794374625
-0.003127954515318681,0.004532085272965126
-0.00312778451531868,0.005025788639282465
-0.00312761451531868,0.004466258157456012
-0.003127444515318681,0.004137122579910441
-0.00312727451531868,0.002754753154220838
-0.00312710451531868,0.003742159886855756
-0.003126934515318681,0.005256183543565383
-0.00312676451531868,0.005190356428057885
-0.00312659451531868,0.00607902248742931
-0.003126424515318681,0.006342330949465767
-0.00312625451531868,0.006342330949466665
-0.00312608451531868,0.006836034315784124
-0.003125914515318681,0.007329737682102481
-0.00312574451531868,0.0075601325863845
-0.00312557451531868,0.007625959701893495
-0.003125404515318681,0.007658873259648051
-0.00312523451531868,0.007658873259647992
-0.00312506451531868,0.007625959701893495
-0.003124894515318681,0.007428478355366152
-0.00312472451531868,0.007428478355366032
-0.00312455451531868,0.007362651239857037
-0.003124384515318681,0.007099342777820581
-0.00312421451531868,0.007033515662311347
-0.00312404451531868,0.006967688546802352
-0.003123874515318681,0.01121353749714022
-0.00312370451531868,0.009995735860216098
-0.00312353451531868,0.006967688546802352
-0.003123364515318681,0.008317144414739193
-0.003123194515318681,0.007658873259649248
-0.00312302451531868,0.007625959701893495
-0.003122854515318681,0.007691786817402609
-0.003122684515318681,0.007494305470875626
-0.00312251451531868,0.006803120758029567
-0.003122344515318681,0.006572725853747667
-0.003122174515318681,0.006309417391711689
-0.00312200451531868,0.006836034315784124
-0.003121834515318681,0.00700060210455691
-0.003121664515318681,0.007296824124347385
-0.00312149451531868,0.006342330949465767
-0.00312132451531868,0.006473985180483996
-0.003121154515318681,0.004927047966022625
-0.00312098451531868,0.005091615754792597
-0.00312081451531868,0.004762480177247026
-0.003120644515318681,0.004466258157456551
-0.00312047451531868,0.004104209022155884
-0.00312030451531868,0.004367517484192341
-0.003120134515318681,0.004433344599701335
-0.00311996451531868,0.004597912388474241
-0.00311979451531868,0.004532085272965126
-0.003119624515318681,0.005322010659073059
-0.00311945451531868,0.004861220850510698
-0.00311928451531868,0.005519492005601839
-0.003119114515318681,0.005453664890092845
-0.00311894451531868,0.005223269985810825
-0.00311877451531868,0.005124529312547154
-0.003118604515318681,0.005322010659074497
-0.00311843451531868,0.005980281814165639
-0.00311826451531868,0.005585319121110954
-0.003118094515318681,0.005322010659074497
-0.00311792451531868,0.005256183543565383
-0.00311775451531868,0.004992875081528926
-0.003117584515318681,0.005124529312547154
-0.00311741451531868,0.005091615754792597
-0.00311724451531868,0.006177763160692982
-0.003117074515318681,0.005782800467638296
-0.00311690451531868,0.005782800467637698
-0.00311673451531868,0.005453664890092726
-0.003116564515318681,0.006243590276202096
-0.00311639451531868,0.006868947873539698
-0.00311622451531868,0.007428478355366152
-0.003116054515318681,0.007132256335575138
-0.00311588451531868,0.006704380084765357
-0.00311571451531868,0.006408158064974882
-0.003115544515318681,0.005815714025392853
-0.00311537451531868,0.005322010659074856
-0.00311520451531868,0.005519492005601839
-0.003115034515318681,0.005947368256411082
-0.00311486451531868,0.005782800467639793
-0.00311469451531868,0.006605639411502225
-0.003114524515318681,0.00677020720027501
-0.00311435451531868,0.005749886909882602
-0.00311418451531868,0.005124529312547154
-0.003114014515318681,0.004729566619492469
-0.00311384451531868,0.005519492005603755
-0.00311367451531868,0.006572725853747667
-0.003113504515318681,0.00677020720027501
-0.00311333451531868,0.007132256335575138
-0.00311316451531868,0.007132256335575138
-0.003112994515318681,0.006737293642520453
-0.00311282451531868,0.006901861431291981
-0.00311265451531868,0.006210676718447538
-0.003112484515318681,0.005387837774583611
-0.003112314515318681,0.005782800467637578
-0.00311214451531868,0.005453664890092726
-0.003111974515318681,0.00607902248742931
-0.003111804515318681,0.007593046144136184
-0.00311163451531868,0.007494305470875266
-0.003111464515318681,0.007066429220066024
-0.003111294515318681,0.006704380084766554
-0.00311112451531868,0.00677020720027501
-0.00311095451531868,0.005782800467638296
-0.003110784515318681,0.006309417391710252
-0.00311061451531868,0.00607902248742931
-0.00311044451531868,0.00677020720027501
-0.003110274515318681,0.006638552969257021
-0.00311010451531868,0.007132256335575138
-0.00310993451531868,0.006901861431293239
-0.003109764515318681,0.006605639411502763
-0.00310959451531868,0.006111936045183867
-0.00310942451531868,0.005420751332338168
-0.003109254515318681,0.004762480177248224
-0.00310908451531868,0.005322010659074497
-0.00310891451531868,0.005124529312547154
-0.003108744515318681,0.005157442870301652
-0.00310857451531868,0.00528909710131994
-0.00310840451531868,0.005354924216829054
-0.003108234515318681,0.00528909710132006
-0.00310806451531868,0.006441071622729439
-0.00310789451531868,0.007099342777820581
-0.003107724515318681,0.006473985180483996
-0.00310755451531868,0.006605639411502225
-0.00310738451531868,0.007198083451084253
-0.003107214515318681,0.007461391913120709
-0.00310704451531868,0.007658873259648051
-0.00310687451531868,0.008382971530248308
-0.003106704515318681,0.008053835952702737
-0.00310653451531868,0.008152576625966169
-0.00310636451531868,0.00802092239494818
-0.003106194515318681,0.007428478355366152
-0.00310602451531868,0.007625959701891758
-0.00310585451531868,0.006671466527011338
-0.003105684515318681,0.006704380084765896
-0.00310551451531868,0.006868947873538142
-0.00310534451531868,0.006572725853747667
-0.003105174515318681,0.006144849602938425
-0.00310500451531868,0.00584862758314771
-0.00310483451531868,0.006013195371920196
-0.003104664515318681,0.005914454698656525
-0.00310449451531868,0.00548657844784824
-0.00310432451531868,0.006013195371920196
-0.003104154515318681,0.005782800467638296
-0.00310398451531868,0.005716973352129601
-0.00310381451531868,0.005947368256411082
-0.003103644515318681,0.005914454698656525
-0.00310347451531868,0.006276503833958988
-0.00310330451531868,0.00756013258638438
-0.003103134515318681,0.007165169893329695
-0.00310296451531868,0.007000602104557568
-0.00310279451531868,0.007362651239857037
-0.003102624515318681,0.008613366434530208
-0.00310245451531868,0.007757613932912142
-0.00310228451531868,0.007988008837193623
-0.003102114515318681,0.007461391913120709
-0.003101944515318681,0.00792218172168367
-0.00310177451531868,0.007724700375157166
-0.003101604515318681,0.008185490183720966
-0.003101434515318681,0.008350057972493451
-0.00310126451531868,0.007757613932911723
-0.003101094515318681,0.007428478355366152
-0.003100924515318681,0.007066429220066682
-0.00310075451531868,0.006210676718447538
-0.003100584515318681,0.005486578447847282
-0.003100414515318681,0.005618232678865271
-0.00310024451531868,0.005091615754792597
-0.00310007451531868,0.004894134408265255
-0.003099904515318681,0.004433344599702293
-0.00309973451531868,0.004367517484192341
-0.00309956451531868,0.004433344599701455
-0.003099394515318681,0.004762480177246428
-0.00309922451531868,0.004663739503983355
-0.00309905451531868,0.004466258157456012
-0.003098884515318681,0.004170036137665537
-0.00309871451531868,0.004104209022155884
-0.00309854451531868,0.005552405563356397
-0.003098374515318681,0.00456499883072148
-0.00309820451531868,0.004334603926437783
-0.00309803451531868,0.004433344599701455
-0.003097864515318681,0.004202949695419974
-0.00309769451531868,0.003939641233383098
-0.00309752451531868,0.003906727675628541
-0.003097354515318681,0.00380798700236487
-0.00309718451531868,0.00380798700236487
-0.00309701451531868,0.004301690368683227
-0.003096844515318681,0.004597912388474241
-0.00309667451531868,0.00482830729275614
-0.00309650451531868,0.004367517484192341
-0.003096334515318681,0.004729566619492469
-0.00309616451531868,0.004927047966019811
-0.00309599451531868,0.005025788639283483
-0.003095824515318681,0.005782800467638296
-0.00309565451531868,0.005157442870302789
-0.00309548451531868,0.00574988690988374
-0.003095314515318681,0.006868947873538681
-0.00309514451531868,0.006506898738239092
-0.00309497451531868,0.006803120758029567
-0.003094804515318681,0.007329737682102481
-0.00309463451531868,0.006803120758029208
-0.00309446451531868,0.006605639411502225
-0.003094294515318681,0.007230997008838809
-0.00309412451531868,0.007823441048419101
-0.00309395451531868,0.006868947873538681
-0.003093784515318681,0.006803120758029567
-0.00309361451531868,0.00706642922006764
-0.00309344451531868,0.007955095279439066
-0.003093274515318681,0.007823441048420837
-0.00309310451531868,0.007198083451083175
-0.00309293451531868,0.006605639411502225
-0.003092764515318681,0.005848627583147411
-0.00309259451531868,0.005782800467637339
-0.00309242451531868,0.005256183543565383
-0.003092254515318681,0.004762480177247026
-0.00309208451531868,0.004104209022155824
-0.00309191451531868,0.004071295464401327
-0.003091744515318681,0.004630825946228797
-0.00309157451531868,0.005618232678864852
-0.00309140451531868,0.005256183543565383
-0.003091234515318681,0.005651146236620068
-0.003091064515318681,0.005782800467638057
-0.00309089451531868,0.006046108929674754
-0.003090724515318681,0.006046108929674754
-0.003090554515318681,0.005651146236620786
-0.00309038451531868,0.006111936045183867
-0.003090214515318681,0.00630941739171121
-0.003090044515318681,0.006276503833956713
