Analysis/files/wrd01_d2s01/cmb14_ch32.csv

#Digilent WaveForms Oscilloscope Acquisition
#Device Name: ADP3450
#Serial Number: SN:210018B9D9B0
#Date Time: 2024-08-06 17:33:42.042.457.190
#Sample rate: 2.94118e+06Hz
#Samples: 32768
#Trigger: Source: Channel 3 Type: Edge Condition: Rising Level: 60 mV Hyst.: Auto HoldOff: 0 s
#Channel 3: Range: 200 mV/div Offset: -20 mV Attenuation: 1 X Coupling: DC Bandwidth: 0 Hz Sample Mode: Average

Time (s),Channel 3 (V)
-0.005570457240473062,0.02158520524731538
-0.005570117240473062,0.02043323072590331
-0.005569777240473062,0.01901794774245993
-0.005569437240473062,0.01743809697024119
-0.005569097240473062,0.01618738177556694
-0.005568757240473062,0.01559493773598599
-0.005568417240473062,0.01533162927394953
-0.005568077240473062,0.01575950552476027
-0.005567737240473062,0.0165823444686227
-0.005567397240473062,0.01766849187452309
-0.005567057240473062,0.01832676302961477
-0.005566717240473062,0.01862298504940524
-0.005566377240473062,0.01756975120125942
-0.005566037240473062,0.01694439360392044
-0.005565697240473062,0.01562785129374055
-0.005565357240473062,0.01490375302314029
-0.005565017240473062,0.01424548186804825
-0.005564677240473062,0.01375177850173079
-0.005564337240473062,0.01315933446214876
-0.005563997240473062,0.0123364955182837
-0.005563657240473062,0.01171113792094825
-0.005563317240473062,0.01204027349849382
-0.005562977240473063,0.01253397686481128
-0.005562637240473062,0.01348847003969433
-0.005562297240473062,0.01467335811885839
-0.005561957240473063,0.01516706148517585
-0.005561617240473062,0.01510123436966763
-0.005561277240473062,0.01503540725415852
-0.005560937240473063,0.01421256831029609
-0.005560597240473062,0.01286311244235775
-0.005560257240473062,0.01210610061400294
-0.005559917240473063,0.01062499051505056
-0.005559577240473062,0.00957175666690204
-0.005559237240473062,0.008847658396301783
-0.005558897240473063,0.008353955029984324
-0.005558557240473062,0.008024819452437855
-0.005558217240473062,0.00762985675938317
-0.005557877240473063,0.007728597432646661
-0.005557537240473062,0.007695683874892284
-0.005557197240473062,0.007860251663665069
-0.005556857240473063,0.007662770317138086
-0.005556517240473062,0.008123560125701526
-0.005556177240473062,0.00772859743264684
-0.005555837240473063,0.007531116086119857
-0.005555497240473062,0.007333634739592155
-0.005555157240473062,0.007037412719801142
-0.005554817240473063,0.007267807624082623
-0.005554477240473062,0.007399461855101271
-0.005554137240473062,0.008485609261001654
-0.005553797240473063,0.009012226185074568
-0.005553457240473062,0.009440102435883811
-0.005553117240473062,0.009703410897920267
-0.005552777240473063,0.009769238013429382
-0.005552437240473062,0.009275534647111025
-0.005552097240473062,0.009110966858338239
-0.005551757240473063,0.009045139742829125
-0.005551417240473062,0.008683090607529656
-0.005551077240473062,0.009045139742829125
-0.005550737240473063,0.008847658396301783
-0.005550397240473062,0.008748917723036554
-0.005550057240473062,0.007893165221419626
-0.005549717240473062,0.007498202528364941
-0.005549377240473062,0.007432375412855229
-0.005549037240473062,0.007103239835310256
-0.005548697240473062,0.006971585604292027
-0.005548357240473062,0.006017092429408973
-0.005548017240473062,0.005523389063091515
-0.005547677240473062,0.005457561947582401
-0.005547337240473062,0.005918351756147217
-0.005546997240473062,0.006477882237973671
-0.005546657240473062,0.007432375412855827
-0.005546317240473062,0.00851852281875711
-0.005545977240473062,0.009012226185074568
-0.005545637240473062,0.009637583782411153
-0.005545297240473062,0.009966719359956366
-0.005544957240473062,0.009769238013429382
-0.005544617240473062,0.009407188878129254
-0.005544277240473062,0.008650177049772943
-0.005543937240473062,0.007827338105910513
-0.005543597240473062,0.00762985675938317
-0.005543257240473062,0.00762985675938335
-0.005542917240473062,0.00772859743264684
-0.005542577240473062,0.008716004165283554
-0.005542237240473063,0.01013128714872693
-0.005541897240473062,0.01082247186157521
-0.005541557240473062,0.01174405147870281
-0.005541217240473063,0.01236940907603826
-0.005540877240473062,0.01217192772951205
-0.005540537240473062,0.01171113792094825
-0.005540197240473063,0.01082247186157683
-0.005539857240473062,0.009703410897920267
-0.005539517240473062,0.008419782145492541
-0.005539177240473063,0.00674119070001318
-0.005538837240473062,0.005325907716564172
-0.005538497240473062,0.004239760310663789
-0.005538157240473063,0.003713143386591831
-0.005537817240473062,0.003021958673745176
-0.005537477240473062,0.002396601076408589
-0.005537137240473063,0.001837070594582138
-0.005536797240473062,0.002100379056617575
-0.005536457240473062,0.001639589248053776
-0.005536117240473063,0.002199119729880227
-0.005535777240473062,0.002561168865181374
-0.005535437240473062,0.003746056944345429
-0.005535097240473063,0.004832204350243839
-0.005534757240473062,0.005556302620846072
-0.005534417240473062,0.006050005987164429
-0.005534077240473063,0.006543709353481887
-0.005533737240473062,0.007169066950819369
-0.005533397240473062,0.007893165221419626
-0.005533057240473063,0.008452695703247097
-0.005532717240473062,0.008189387241210641
-0.005532377240473062,0.008518522818756211
-0.005532037240473063,0.008288127914474312
-0.005531697240473062,0.008452695703247097
-0.005531357240473062,0.007827338105910513
-0.005531017240473063,0.008024819452437855
-0.005530677240473062,0.007432375412855827
-0.005530337240473062,0.006905758488782913
-0.005529997240473063,0.006050005987164429
-0.005529657240473062,0.005161339927790069
-0.005529317240473062,0.004437241657191129
-0.005528977240473062,0.003746056944345429
-0.005528637240473062,0.003746056944345369
-0.005528297240473062,0.003713143386590873
-0.005527957240473062,0.004042278964136444
-0.005527617240473062,0.00420684675290971
-0.005527277240473062,0.004470155214945688
-0.005526937240473062,0.004503068772700245
-0.005526597240473062,0.004338500983927638
-0.005526257240473062,0.004437241657191129
-0.005525917240473062,0.005391734832073286
-0.005525577240473062,0.006346228006957179
-0.005525237240473062,0.007300721181837598
-0.005524897240473062,0.008288127914474312
-0.005524557240473062,0.008946399069565273
-0.005524217240473062,0.008847658396301783
-0.005523877240473062,0.008419782145492541
-0.005523537240473062,0.007926078779172747
-0.005523197240473062,0.007136153393064813
-0.005522857240473062,0.006905758488782913
-0.005522517240473062,0.006905758488783571
-0.005522177240473062,0.007267807624083042
-0.005521837240473062,0.008024819452437855
-0.005521497240473062,0.009440102435885427
-0.005521157240473062,0.01032876849525685
-0.005520817240473062,0.01118452099687534
-0.005520477240473063,0.01128326167013883
-0.005520137240473062,0.01052624984178419
-0.005519797240473062,0.009769238013429382
-0.005519457240473063,0.008847658396303458
-0.005519117240473062,0.00762985675938317
-0.005518777240473062,0.007004499162046584
-0.005518437240473063,0.00657662291123812
-0.005518097240473062,0.007136153393064813
-0.005517757240473062,0.00762985675938317
-0.005517417240473063,0.007761510990401158
-0.005517077240473062,0.008057733010192412
-0.005516737240473062,0.008452695703247097
-0.005516397240473063,0.008419782145492601
-0.005516057240473062,0.008189387241210641
-0.005515717240473062,0.00762985675938317
-0.005515377240473063,0.0072678076240837
-0.005515037240473062,0.0068399313732738
-0.005514697240473062,0.006214573775937213
-0.005514357240473063,0.005292994158811292
-0.005514017240473062,0.004568895888209358
-0.005513677240473062,0.003811884059854546
-0.005513337240473063,0.003910624733118037
-0.005512997240473062,0.004404328099436573
-0.005512657240473062,0.004930945023509487
-0.005512317240473063,0.005720870409618857
-0.005511977240473062,0.00601709242940987
-0.005511637240473062,0.005984178871655314
-0.005511297240473063,0.006708277142255571
-0.005510957240473062,0.006971585604292027
-0.005510617240473062,0.007103239835310256
-0.005510277240473063,0.006971585604292027
-0.005509937240473062,0.006971585604292027
-0.005509597240473062,0.007037412719801142
-0.005509257240473063,0.006379141564709999
-0.005508917240473062,0.005852524640636548
-0.005508577240473062,0.005556302620846072
-0.005508237240473062,0.005720870409618857
-0.005507897240473062,0.006247487333692909
-0.005507557240473062,0.006872844931028356
-0.005507217240473062,0.007234894066328485
-0.005506877240473062,0.007399461855101211
-0.005506537240473062,0.007366548297346712
-0.005506197240473062,0.00693867204653747
-0.005505857240473062,0.005918351756143386
-0.005505517240473062,0.004371414541682016
-0.005505177240473062,0.003416921366799861
-0.005504837240473062,0.002758650211709496
-0.005504497240473062,0.00318652646251796
-0.005504157240473062,0.004338500983927459
-0.005503817240473062,0.005622129736358238
-0.005503477240473062,0.007300721181837598
-0.005503137240473062,0.008353955029983425
-0.005502797240473062,0.009308448204866659
-0.005502457240473062,0.009900892244447609
-0.005502117240473062,0.0107566447460661
-0.005501777240473062,0.01105286676585519
-0.005501437240473062,0.009999632917711282
-0.005501097240473062,0.009308448204865582
-0.005500757240473062,0.008222300798963102
-0.005500417240473062,0.007070326277555699
-0.005500077240473062,0.005655043294109744
-0.005499737240473063,0.004568895888211334
-0.005499397240473062,0.003416921366799861
-0.005499057240473062,0.003384007809045304
-0.005498717240473063,0.003910624733117259
-0.005498377240473062,0.004930945023509487
-0.005498037240473062,0.005655043294109744
-0.005497697240473063,0.006642450026744661
-0.005497357240473062,0.007695683874892284
-0.005497017240473062,0.008946399069565453
-0.005496677240473063,0.009407188878128416
-0.005496337240473062,0.009045139742829125
-0.005495997240473062,0.008288127914474312
-0.005495657240473063,0.007465288970611881
-0.005495317240473062,0.006082919544918986
-0.005494977240473062,0.004799290792491258
-0.005494637240473063,0.004042278964137822
-0.005494297240473062,0.004141019637400115
-0.005493957240473062,0.004206846752909232
-0.005493617240473063,0.00433850098392722
-0.005493277240473062,0.005062599254527716
-0.005492937240473062,0.005556302620846072
-0.005492597240473063,0.006379141564708502
-0.005492257240473062,0.007004499162046584
-0.005491917240473062,0.007564029643874055
-0.005491577240473063,0.007564029643874055
-0.005491237240473062,0.007827338105910513
-0.005490897240473062,0.007564029643874055
-0.005490557240473063,0.007136153393064813
-0.005490217240473062,0.006576622911237342
-0.005489877240473062,0.005786697525127971
-0.005489537240473063,0.005786697525127971
-0.005489197240473062,0.005786697525127971
-0.005488857240473062,0.006510795795728228
-0.005488517240473063,0.00772859743264684
-0.005488177240473062,0.009012226185074629
-0.005487837240473062,0.009045139742829125
-0.005487497240473063,0.009703410897920267
-0.005487157240473062,0.009933805802203185
-0.005486817240473062,0.01049333628402964
-0.005486477240473062,0.009999632917711282
-0.005486137240473062,0.009571756666900603
-0.005485797240473062,0.008781831280792669
-0.005485457240473062,0.007794424548155956
-0.005485117240473062,0.006807017815517265
-0.005484777240473062,0.005720870409618857
-0.005484437240473062,0.005622129736355185
-0.005484097240473062,0.005720870409619157
-0.005483757240473062,0.005885438198391643
-0.005483417240473062,0.005885438198391643
-0.005483077240473062,0.005720870409618379
-0.005482737240473062,0.005457561947582401
-0.005482397240473062,0.005358821274318729
-0.005482057240473062,0.005292994158810214
-0.005481717240473062,0.005622129736355185
-0.005481377240473062,0.006082919544918986
-0.005481037240473062,0.005885438198390805
-0.005480697240473062,0.005424648389827843
-0.005480357240473062,0.004865117908000373
-0.005480017240473062,0.004206846752908035
-0.005479677240473062,0.003548575597818088
-0.005479337240473062,0.003153612904763403
-0.005478997240473063,0.001837070594583515
-0.005478657240473062,-0.003363271530638905
-0.005478317240473062,-0.01445514049392465
-0.005477977240473063,-0.03347917687602405
-0.005477637240473062,-0.05948088750215878
-0.005477297240473062,-0.09068294025347892
-0.005476957240473063,-0.1246168182983656
-0.005476617240473062,-0.1570695862444206
-0.005476277240473062,-0.186395566203731
-0.005475937240473063,-0.2114427836549034
-0.005475597240473062,-0.2311250911921741
-0.005475257240473062,-0.2444879956405243
-0.005474917240473063,-0.2518935461352861
-0.005474577240473062,-0.2535063104652729
-0.005474237240473062,-0.2507744851716447
-0.005473897240473063,-0.2455083159309251
-0.005473557240473062,-0.2383660738981767
-0.005473217240473062,-0.2295123268622008
-0.005472877240473063,-0.221251023865822
-0.005472537240473062,-0.2138454733710316
-0.005472197240473062,-0.2064399228762563
-0.005471857240473063,-0.1994951621900573
-0.005471517240473062,-0.1938011166985063
-0.005471177240473062,-0.1878766763026861
-0.005470837240473063,-0.1821497172534035
-0.005470497240473062,-0.1760936226265546
-0.005470157240473062,-0.1695438246333977
-0.005469817240473063,-0.1622370148118861
-0.005469477240473062,-0.15525934056792
-0.005469137240473062,-0.1485120612282358
-0.005468797240473063,-0.1421597445816062
-0.005468457240473062,-0.1371568838029135
-0.005468117240473062,-0.1328452077370666
-0.005467777240473063,-0.1283031367669377
-0.005467437240473062,-0.1236294115657906
-0.005467097240473062,-0.1195481304042255
-0.005466757240473063,-0.1153022814538876
-0.005466417240473062,-0.111517222312107
-0.005466077240473062,-0.1079296445168668
-0.005465737240473062,-0.1043091531638655
-0.005465397240473062,-0.1006557482531025
-0.005465057240473062,-0.09670612132256287
-0.005464717240473062,-0.0929210621807888
-0.005464377240473062,-0.08851064544167053
-0.005464037240473062,-0.0843306236068494
-0.005463697240473062,-0.08021642888752975
-0.005463357240473062,-0.07623388839922242
-0.005463017240473062,-0.07297544618152718
-0.005462677240473062,-0.06974991752158058
-0.005462337240473062,-0.06629399395734765
-0.005461997240473062,-0.06385839068351487
-0.005461657240473062,-0.06165318231395955
-0.005461317240473062,-0.0593163197133812
-0.005460977240473062,-0.05668323509302142
-0.005460637240473062,-0.05388558268388407
-0.005460297240473062,-0.05174620142983474
-0.005459957240473062,-0.05003469642660088
-0.005459617240473062,-0.04809279651908201
-0.005459277240473062,-0.04671042709338732
-0.005458937240473062,-0.04490018141688997
-0.005458597240473062,-0.04364946622221681
-0.005458257240473062,-0.04256331881631342
-0.005457917240473062,-0.04091764092858857
-0.005457577240473062,-0.03881117323229691
-0.005457237240473063,-0.03703384111355406
-0.005456897240473062,-0.0345982378397136
-0.005456557240473062,-0.0320638938926127
-0.005456217240473063,-0.02946372283000742
-0.005455877240473062,-0.02732434157595648
-0.005455537240473062,-0.02525078743741938
-0.005455197240473063,-0.02426338070478447
-0.005454857240473062,-0.02400007224274621
-0.005454517240473062,-0.02442794849355545
-0.005454177240473063,-0.02446086205130995
-0.005453837240473062,-0.02409881291600988
-0.005453497240473062,-0.02357219599193697
-0.005453157240473063,-0.02281518416358353
-0.005452817240473062,-0.0220910858929819
-0.005452477240473062,-0.02057706223627227
-0.005452137240473063,-0.01893138434854741
-0.005451797240473062,-0.01745027424958934
-0.005451457240473062,-0.01498175741799757
-0.005451117240473063,-0.01373104222332667
-0.005450777240473062,-0.01215119145110565
-0.005450437240473062,-0.01076882202541425
-0.005450097240473063,-0.0102422051013423
-0.005449757240473062,-0.01037385933235957
-0.005449417240473062,-0.01116378471846894
-0.005449077240473063,-0.01218410500885836
-0.005448737240473062,-0.01241449991314211
-0.005448397240473062,-0.01231575923987844
-0.005448057240473063,-0.01221701856661477
-0.005447717240473062,-0.0116574880847873
-0.005447377240473062,-0.01060425423664147
-0.005447037240473063,-0.009518106830741082
-0.005446697240473062,-0.008069910289540572
-0.005446357240473062,-0.006983762883640186
-0.005446017240473063,-0.005634307015703346
-0.005445677240473062,-0.005041862976120778
-0.005445337240473062,-0.004745640956330302
-0.005444997240473063,-0.004482332494293848
-0.005444657240473062,-0.004054456243483764
-0.005444317240473062,-0.003593666434920803
-0.005443977240473062,-0.003593666434920803
-0.005443637240473062,-0.003560752877164091
-0.005443297240473062,-0.00237586479800219
-0.005442957240473062,-0.003659493550429917
-0.005442617240473062,-0.002375864798000933
-0.005442277240473062,-0.00168468008515649
-0.005441937240473062,-0.0005985326792561085
-0.005441597240473062,0.0004217876111371389
-0.005441257240473062,0.001507935017035548
-0.005440917240473062,0.002330773960899476
-0.005440577240473062,0.002626995980689413
-0.005440237240473062,0.002034551941108461
-0.005439897240473062,0.001014231650717189
-0.005439557240473062,0.0003559604956264087
-0.005439217240473062,0.0005534418421533904
-0.005438877240473062,0.00045470116888972
-0.005438537240473062,0.0006192689576625639
-0.005438197240473062,0.0006521825154170643
-0.005437857240473062,0.0008496638619444052
-0.005437517240473062,0.001211712997244713
-0.005437177240473062,0.001310453670508204
-0.005436837240473062,0.001014231650717189
-0.005436497240473063,0.0003559604956272469
-0.005436157240473062,-0.0002693971017105369
-0.005435817240473062,-0.00148719873862915
-0.005435477240473063,-0.002079642778210098
-0.005435137240473062,-0.001947988547192948
-0.005434797240473062,-0.0007301869102743358
-0.005434457240473063,0.0003230469378695769
-0.005434117240473062,0.00180415703682656
-0.005433777240473062,0.002363687518654033
-0.005433437240473063,0.002824477327216993
-0.005433097240473062,0.003351094251290744
-0.005432757240473062,0.00259408242293593
-0.005432417240473063,0.001935811267845988
-0.005432077240473062,0.001409194343771875
-0.005431737240473062,0.002100379056617575
-0.005431397240473063,0.002396601076408051
-0.005431057240473062,0.002626995980690491
-0.005430717240473062,0.002429514634163146
-0.005430377240473063,0.002462428191917643
-0.005430037240473062,0.002396601076408589
-0.005429697240473062,0.002264946845390362
-0.005429357240473063,0.002561168865180835
-0.005429017240473062,0.003482748482308975
-0.005428677240473062,0.004799290792491258
-0.005428337240473063,0.006017092429407655
-0.005427997240473062,0.006444968680219114
-0.005427657240473062,0.006609536468991898
-0.005427317240473063,0.006708277142255571
-0.005426977240473062,0.006774104257764684
-0.005426637240473062,0.007037412719801142
-0.005426297240473063,0.006708277142255571
-0.005425957240473062,0.006774104257764684
-0.005425617240473062,0.006905758488782913
-0.005425277240473063,0.007037412719801142
-0.005424937240473062,0.006181660218182656
-0.005424597240473062,0.005457561947582401
-0.005424257240473063,0.004799290792491258
-0.005423917240473062,0.003844797617608145
-0.005423577240473062,0.003318180693536187
-0.005423237240473062,0.003219440020272517
-0.005422897240473062,0.003120699347009086
-0.005422557240473062,0.003252353578027074
-0.005422217240473062,0.003844797617609103
-0.005421877240473062,0.004272673868419842
-0.005421537240473062,0.005095512812282273
-0.005421197240473062,0.005753783967373414
-0.005420857240473062,0.006412055122465214
-0.005420517240473062,0.006774104257764684
-0.005420177240473062,0.007103239835310256
-0.005419837240473062,0.007136153393064394
-0.005419497240473062,0.006905758488782913
-0.005419157240473062,0.006905758488782913
-0.005418817240473062,0.006510795795727151
-0.005418477240473062,0.0059183517561462
-0.005418137240473062,0.005951265313900757
-0.005417797240473062,0.006313314449201963
-0.005417457240473062,0.006905758488782913
-0.005417117240473062,0.006741190700010127
-0.005416777240473062,0.007136153393064274
-0.005416437240473062,0.0068399313732738
-0.005416097240473062,0.006543709353482785
-0.005415757240473062,0.006412055122463359
-0.005415417240473062,0.005753783967373414
