Analysis/files/wrd01_d2s01/cmb12_ch09.csv

#Digilent WaveForms Oscilloscope Acquisition
#Device Name: ADP3450
#Serial Number: SN:210018B9D9B0
#Date Time: 2024-08-15 11:45:16.022.313.660
#Sample rate: 5.88235e+06Hz
#Samples: 32768
#Trigger: Source: Channel 3 Type: Edge Condition: Rising Level: 40 mV Hyst.: Auto HoldOff: 0 s
#Channel 3: Range: 100 mV/div Offset: 0 V Attenuation: 1 X Coupling: DC Bandwidth: 0 Hz Sample Mode: Average

Time (s),Channel 3 (V)
-0.00316895518407169,0.01740128635499695
-0.003168785184071689,0.01733545923948616
-0.003168615184071689,0.01641387962236024
-0.00316844518407169,0.01595308981379644
-0.003168275184071689,0.01539355933196783
-0.003168105184071689,0.01476820173463239
-0.00316793518407169,0.01410993057954124
-0.003167765184071689,0.01420867125280444
-0.003167595184071689,0.01394536279076846
-0.00316742518407169,0.01417575769505036
-0.003167255184071689,0.01430741192606793
-0.003167085184071689,0.01394536279076846
-0.003166915184071689,0.01424158481055947
-0.003166745184071689,0.01447197971484143
-0.003166575184071689,0.01450489327259593
-0.003166405184071689,0.01493276952340517
-0.003166235184071689,0.01536064577421519
-0.003166065184071689,0.01578852202502366
-0.003165895184071689,0.01651262029562391
-0.003165725184071689,0.01664427452664268
-0.003165555184071689,0.01694049654643316
-0.003165385184071689,0.01694049654643316
-0.00316521518407169,0.01720380500846913
-0.003165045184071689,0.0169075829886786
-0.003164875184071689,0.01710506433520594
-0.00316470518407169,0.01674301519990647
-0.003164535184071689,0.01631513894909657
-0.003164365184071689,0.0162163982758329
-0.00316419518407169,0.01585434914053343
-0.003164025184071689,0.01565686779400543
-0.003163855184071689,0.01499859663891429
-0.00316368518407169,0.01470237461912381
-0.003163515184071689,0.01440615259933226
-0.003163345184071689,0.01420867125280492
-0.00316317518407169,0.01394536279076894
-0.003163005184071689,0.01430741192606859
-0.003162835184071689,0.01410993057954124
-0.00316266518407169,0.01496568308115817
-0.003162495184071689,0.01493276952340517
-0.003162325184071689,0.01493276952340517
-0.00316215518407169,0.01503151019666866
-0.003161985184071689,0.01503151019666884
-0.003161815184071689,0.01513025086993251
-0.00316164518407169,0.01522899154319601
-0.003161475184071689,0.01565686779400543
-0.003161305184071689,0.01447197971484137
-0.00316113518407169,0.01493276952340433
-0.003160965184071689,0.0141428441372958
-0.003160795184071689,0.01355040009771377
-0.00316062518407169,0.01226677134528605
-0.003160455184071689,0.01210220355651326
-0.003160285184071689,0.01147684595917668
-0.00316011518407169,0.01081857480408553
-0.003159945184071689,0.01016030364899439
-0.003159775184071689,0.009699513840430593
-0.00315960518407169,0.00950203249390325
-0.003159435184071689,0.009436205378393596
-0.003159265184071689,0.009139983358603122
-0.00315909518407169,0.008745020665548437
-0.003158925184071689,0.008712107107793641
-0.003158755184071689,0.008580452876775651
-0.00315858518407169,0.008745020665548437
-0.003158415184071689,0.008975415569830815
-0.003158245184071689,0.009238724031866792
-0.00315807518407169,0.009205810474112236
-0.003157905184071689,0.008909588454321283
-0.003157735184071689,0.008942502012075779
-0.00315756518407169,0.008975415569830336
-0.003157395184071689,0.00894250201207584
-0.003157225184071689,0.008975415569830336
-0.00315705518407169,0.008382971530248308
-0.003156885184071689,0.007790527490665323
-0.003156715184071689,0.007263910566593366
-0.003156545184071689,0.006243590276202096
-0.003156375184071689,0.005322010659073059
-0.003156205184071689,0.004532085272965126
-0.003156035184071689,0.004202949695419555
-0.003155865184071689,0.003413024309310723
-0.003155695184071689,0.003709246329101199
-0.003155525184071689,0.003478851424819299
-0.003155355184071689,0.00413712257991068
-0.003155185184071689,0.00426877681092867
-0.003155015184071689,0.004795393735001583
-0.00315484518407169,0.005058702197037562
-0.003154675184071689,0.005354924216829054
-0.003154505184071689,0.005782800467638296
-0.00315433518407169,0.006111936045183269
-0.003154165184071689,0.00700060210455691
-0.003153995184071689,0.007230997008838809
-0.00315382518407169,0.007527219028629285
-0.003153655184071689,0.008745020665548437
-0.003153485184071689,0.00904124268533945
-0.00315331518407169,0.009831168071447384
-0.003153145184071689,0.01048943922653996
-0.003152975184071689,0.01121353749714022
-0.00315280518407169,0.01200346288324815
-0.003152635184071689,0.01170724086345858
-0.003152465184071689,0.0127604747116044
-0.00315229518407169,0.01285921538486789
-0.003152125184071689,0.0129908696158863
-0.003151955184071689,0.01318835096241365
-0.00315178518407169,0.01226677134528772
-0.003151615184071689,0.01177306797896769
-0.003151445184071689,0.01081857480408553
-0.00315127518407169,0.01071983413082204
-0.003151105184071689,0.009469118936148692
-0.003150935184071689,0.008679193550039321
-0.00315076518407169,0.007757613932913399
-0.003150595184071689,0.007099342777820581
-0.003150425184071689,0.006375244507220324
-0.00315025518407169,0.005782800467638296
-0.003150085184071689,0.005157442870301712
-0.003149915184071689,0.004433344599701455
-0.00314974518407169,0.003873814117873984
-0.003149575184071689,0.003149715847273728
-0.003149405184071689,0.002820580269728157
-0.00314923518407169,0.002952234500746385
-0.003149065184071689,0.003083888731764614
-0.003148895184071689,0.003413024309310185
-0.00314872518407169,0.003281370078291956
-0.003148555184071689,0.003347197193800712
-0.003148385184071689,0.003149715847273728
-0.00314821518407169,0.002952234500746385
-0.003148045184071689,0.002952234500746804
-0.003147875184071689,0.003182629405028285
-0.00314770518407169,0.003413024309310185
-0.003147535184071689,0.00367633277134718
-0.003147365184071689,0.003972554791137656
-0.00314719518407169,0.00403838190664677
-0.003147025184071689,0.004466258157456192
-0.003146855184071689,0.004564998830719684
-0.00314668518407169,0.004367517484192341
-0.003146515184071689,0.004301690368683047
-0.003146345184071689,0.004202949695419555
-0.00314617518407169,0.005025788639283483
-0.003146005184071689,0.004992875081528686
-0.003145835184071689,0.004861220850510698
-0.003145665184071689,0.005124529312547154
-0.003145495184071689,0.005749886909884577
-0.003145325184071689,0.006210676718447538
-0.003145155184071689,0.006408158064974882
-0.003144985184071689,0.007165169893331252
-0.003144815184071689,0.00802092239494818
-0.003144645184071689,0.008382971530248308
-0.003144475184071689,0.009271637589620272
-0.003144305184071689,0.008679193550039321
-0.003144135184071689,0.009666600282676035
-0.00314396518407169,0.009436205378394555
-0.003143795184071689,0.009469118936148692
-0.003143625184071689,0.009469118936148692
-0.00314345518407169,0.009436205378394196
-0.003143285184071689,0.009271637589621349
-0.003143115184071689,0.009074156243094007
-0.00314294518407169,0.008810847781058029
-0.003142775184071689,0.008777934223302994
-0.003142605184071689,0.008218403741475522
-0.00314243518407169,0.008350057972493512
-0.003142265184071689,0.007922181721684508
-0.003142095184071689,0.007691786817402609
-0.00314192518407169,0.008613366434528532
-0.003141755184071689,0.007527219028629823
-0.003141585184071689,0.00653981229599311
-0.00314141518407169,0.006309417391711629
-0.003141245184071689,0.005980281814165639
-0.003141075184071689,0.00574988690988374
-0.00314090518407169,0.00598028181416522
-0.003140735184071689,0.005354924216829054
-0.003140565184071689,0.005354924216829054
-0.00314039518407169,0.005453664890092546
-0.003140225184071689,0.005552405563356397
-0.003140055184071689,0.005256183543565383
-0.00313988518407169,0.004301690368683227
-0.003139715184071689,0.004367517484192341
-0.003139545184071689,0.004367517484192341
-0.00313937518407169,0.003676332771346642
-0.003139205184071689,0.003676332771346642
-0.003139035184071689,0.003478851424819299
-0.00313886518407169,0.002754753154219042
-0.003138695184071689,0.0023268769034098
-0.003138525184071689,0.002063568441373343
-0.00313835518407169,0.001734432863827772
-0.003138185184071689,0.00130655661301871
-0.003138015184071689,0.001405297286282201
-0.00313784518407169,0.001635692190564101
-0.003137675184071689,0.001833173537093
-0.003137505184071689,0.002688926038709928
-0.00313733518407169,0.002293963345655243
-0.003137165184071689,0.002886407385239187
-0.003136995184071689,0.003939641233383098
-0.00313682518407169,0.004466258157456012
-0.003136655184071689,0.004894134408266452
-0.003136485184071689,0.005552405563356397
-0.00313631518407169,0.005519492005601839
-0.003136145184071689,0.005453664890092666
-0.003135975184071689,0.005420751332338168
-0.00313580518407169,0.005354924216829054
-0.003135635184071689,0.005453664890093145
-0.003135465184071689,0.005684059794374625
-0.003135295184071689,0.00505870219703804
-0.003135125184071689,0.004927047966019931
-0.003134955184071689,0.004992875081528926
-0.003134785184071689,0.005025788639283483
-0.003134615184071689,0.004927047966019572
-0.003134445184071689,0.004795393735001583
-0.003134275184071689,0.003445937867064742
-0.003134105184071689,0.005420751332336791
-0.003133935184071689,0.004663739503983355
-0.003133765184071689,0.004927047966019811
-0.00313359518407169,0.005025788639283303
-0.003133425184071689,0.005354924216829054
-0.003133255184071689,0.005387837774583611
-0.00313308518407169,0.006243590276200539
-0.003132915184071689,0.006934774989047795
-0.003132745184071689,0.006737293642520453
-0.00313257518407169,0.00772470037515537
-0.003132405184071689,0.008053835952702737
-0.003132235184071689,0.008415885088002865
-0.00313206518407169,0.008481712203511859
-0.003131895184071689,0.008350057972493751
-0.003131725184071689,0.008415885088002865
-0.00313155518407169,0.008448798645757361
-0.003131385184071689,0.008679193550039321
-0.003131215184071689,0.008580452876775651
-0.00313104518407169,0.008448798645757661
-0.003130875184071689,0.011378105285913
-0.003130705184071689,0.006046108929674754
-0.00313053518407169,0.007296824124345649
-0.003130365184071689,0.007724700375157166
-0.003130195184071689,0.006408158064974882
-0.00313002518407169,0.00594736825641192
-0.003129855184071689,0.00528909710131994
-0.003129685184071689,0.005091615754792597
-0.00312951518407169,0.004301690368684664
-0.003129345184071689,0.003676332771346642
-0.003129175184071689,0.003248456520537399
-0.00312900518407169,0.002721839596464486
-0.003128835184071689,0.002853493827482714
-0.003128665184071689,0.0027876667119736
-0.00312849518407169,0.002886407385237271
-0.003128325184071689,0.003511764982573856
-0.003128155184071689,0.003840900560119427
-0.00312798518407169,0.003840900560119427
-0.003127815184071689,0.003676332771347719
-0.003127645184071689,0.00426877681092867
-0.00312747518407169,0.004597912388474241
-0.003127305184071689,0.00472956661949199
-0.003127135184071689,0.004466258157456012
-0.00312696518407169,0.004795393735001583
-0.003126795184071689,0.004762480177247445
-0.003126625184071689,0.004992875081528926
-0.00312645518407169,0.005552405563356397
-0.003126285184071689,0.005420751332338766
-0.003126115184071689,0.00574988690988374
-0.00312594518407169,0.006177763160692982
-0.003125775184071689,0.006506898738238493
-0.003125605184071689,0.006473985180483996
-0.00312543518407169,0.006506898738238553
-0.003125265184071689,0.006375244507221102
-0.003125095184071689,0.006803120758029567
-0.003124925184071689,0.006243590276202096
-0.003124755184071689,0.006408158064974882
-0.003124585184071689,0.006408158064974882
-0.003124415184071689,0.006276503833956653
-0.003124245184071689,0.006704380084764879
-0.003124075184071689,0.006144849602938425
-0.003123905184071689,0.006572725853747667
-0.003123735184071689,0.006836034315783645
-0.003123565184071689,0.006572725853747667
-0.003123395184071689,0.006967688546802352
-0.00312322518407169,0.006243590276203413
-0.003123055184071689,0.007165169893329695
-0.003122885184071689,0.007263910566593366
-0.00312271518407169,0.006572725853748924
-0.003122545184071689,0.006375244507220324
-0.003122375184071689,0.006803120758029567
-0.00312220518407169,0.006671466527011578
-0.003122035184071689,0.006934774989047795
-0.003121865184071689,0.007329737682102481
-0.00312169518407169,0.008086749510455916
-0.003121525184071689,0.007922181721684508
-0.003121355184071689,0.007658873259648051
-0.00312118518407169,0.007494305470875566
-0.003121015184071689,0.00677020720027501
-0.003120845184071689,0.006473985180483996
-0.00312067518407169,0.006111936045184525
-0.003120505184071689,0.005782800467638296
-0.003120335184071689,0.004861220850510698
-0.00312016518407169,0.004334603926438741
-0.003119995184071689,0.003840900560119427
-0.003119825184071689,0.003116802289519171
-0.00311965518407169,0.002985148058501182
-0.003119485184071689,0.002886407385237271
-0.003119315184071689,0.003314283636046514
-0.00311914518407169,0.003413024309310005
-0.003118975184071689,0.003511764982573856
-0.003118805184071689,0.003939641233383098
-0.00311863518407169,0.004202949695419555
-0.003118465184071689,0.004202949695419555
-0.003118295184071689,0.00482830729275614
-0.00311812518407169,0.004795393735001583
-0.003117955184071689,0.005223269985810825
-0.003117785184071689,0.005848627583147411
-0.00311761518407169,0.006441071622729439
-0.003117445184071689,0.007625959701893495
-0.003117275184071689,0.008415885088002865
-0.00311710518407169,0.008909588454321223
-0.003116935184071689,0.008646279992285004
-0.003116765184071689,0.008777934223302994
-0.00311659518407169,0.008481712203511979
-0.003116425184071689,0.00894250201207554
-0.003116255184071689,0.00881084778105755
-0.00311608518407169,0.008350057972493751
-0.003115915184071689,0.007527219028628985
-0.003115745184071689,0.007066429220066024
-0.00311557518407169,0.006737293642520453
-0.003115405184071689,0.005453664890090271
-0.003115235184071689,0.004104209022155884
-0.00311506518407169,0.003248456520537399
-0.003114895184071689,0.002162309114635697
-0.003114725184071689,0.001438210844036758
-0.00311455518407169,0.00130655661301853
-0.003114385184071689,0.001043248150981714
-0.003114215184071689,0.0008457668044547304
-0.003114045184071689,-4.289925491831147e-05
-0.003113875184071689,-4.289925491801212e-05
-0.003113705184071689,0.0001216685338544741
-0.003113535184071689,0.001010334593227516
-0.003113365184071689,0.001405297286279926
-0.003113195184071689,0.0001545820916090312
-0.003113025184071689,0.0003849769958909309
-0.003112855184071689,0.001010334593226857
-0.003112685184071689,0.0006482854579273878
-0.003112515184071689,0.001174902382000301
-0.00311234518407169,0.001207815939754799
-0.003112175184071689,0.001833173537091444
-0.003112005184071689,0.0023268769034098
-0.00311183518407169,0.002524358249936784
-0.003111665184071689,0.002623098923200814
-0.003111495184071689,0.002952234500746385
-0.00311132518407169,0.00324845652053686
-0.003111155184071689,0.003116802289519171
-0.003110985184071689,0.003511764982573856
-0.00311081518407169,0.003413024309310364
-0.003110645184071689,0.00357759209808297
-0.003110475184071689,0.003478851424819299
-0.00311030518407169,0.003413024309310305
-0.003110135184071689,0.003742159886855756
-0.003109965184071689,0.004104209022155884
-0.00310979518407169,0.004597912388473343
-0.003109625184071689,0.004894134408265255
-0.003109455184071689,0.004762480177247026
-0.00310928518407169,0.004992875081528507
-0.003109115184071689,0.004597912388474241
-0.003108945184071689,0.004992875081528926
-0.00310877518407169,0.004959961523774429
-0.003108605184071689,0.00505870219703804
-0.003108435184071689,0.005618232678865511
-0.00310826518407169,0.005190356428057047
-0.003108095184071689,0.005585319121110954
-0.003107925184071689,0.005322010659074497
-0.00310775518407169,0.005782800467638296
-0.003107585184071689,0.005782800467638296
-0.003107415184071689,0.006276503833956653
-0.00310724518407169,0.006836034315784124
-0.003107075184071689,0.006704380084765896
-0.003106905184071689,0.007625959701893495
-0.00310673518407169,0.007988008837193623
-0.003106565184071689,0.007790527490666161
-0.003106395184071689,0.007724700375157166
-0.00310622518407169,0.007165169893329695
-0.003106055184071689,0.008251317299229899
-0.003105885184071689,0.008152576625966409
-0.00310571518407169,0.008317144414739193
-0.003105545184071689,0.008382971530248428
-0.003105375184071689,0.008448798645757422
-0.00310520518407169,0.008481712203511979
-0.003105035184071689,0.008086749510456036
-0.003104865184071689,0.007395564797611595
-0.00310469518407169,0.007198083451084253
-0.003104525184071689,0.007000602104556012
-0.003104355184071689,0.006506898738238553
-0.00310418518407169,0.006046108929674754
-0.003104015184071689,0.007362651239853506
-0.003103845184071689,0.005420751332338168
-0.003103675184071689,0.004499171715210569
-0.003103505184071689,0.004630825946228438
-0.003103335184071689,0.004433344599701455
-0.003103165184071689,0.004532085272965126
-0.003102995184071689,0.004367517484193179
-0.003102825184071689,0.00482830729275614
-0.003102655184071689,0.004959961523774369
-0.003102485184071689,0.004894134408265973
-0.003102315184071689,0.00528909710131994
-0.003102145184071689,0.005190356428056269
-0.00310197518407169,0.005716973352128224
-0.003101805184071689,0.006046108929674754
-0.003101635184071689,0.006441071622729439
-0.00310146518407169,0.006803120758028909
-0.003101295184071689,0.007230997008838809
-0.003101125184071689,0.007625959701893495
-0.00310095518407169,0.007593046144138998
-0.003100785184071689,0.007593046144138938
-0.003100615184071689,0.007395564797611595
-0.00310044518407169,0.007230997008839109
-0.003100275184071689,0.006934774989047795
-0.003100105184071689,0.006441071622729439
-0.00309993518407169,0.005716973352130499
-0.003099765184071689,0.005354924216829054
-0.003099595184071689,0.005585319121110954
-0.00309942518407169,0.004762480177248524
-0.003099255184071689,0.00528909710131994
-0.003099085184071689,0.004894134408265255
-0.00309891518407169,0.005322010659073719
-0.003098745184071689,0.005552405563356397
-0.003098575184071689,0.005651146236620068
-0.00309840518407169,0.006441071622728002
-0.003098235184071689,0.007198083451084253
-0.003098065184071689,0.007856354606175394
-0.00309789518407169,0.007132256335576456
-0.003097725184071689,0.008382971530248308
-0.003097555184071689,0.006934774989047795
-0.00309738518407169,0.007494305470875266
-0.003097215184071689,0.007165169893329695
-0.003097045184071689,0.007230997008838809
-0.00309687518407169,0.006671466527011338
-0.003096705184071689,0.006836034315784124
-0.003096535184071689,0.006836034315784124
-0.00309636518407169,0.006868947873538681
-0.003096195184071689,0.00677020720027501
-0.003096025184071689,0.006836034315784124
-0.00309585518407169,0.006671466527011338
-0.003095685184071689,0.006605639411501626
-0.003095515184071689,0.006276503833956653
-0.00309534518407169,0.006243590276202096
-0.003095175184071689,0.005519492005601061
-0.003095005184071689,0.005091615754792597
-0.00309483518407169,0.004334603926437783
-0.003094665184071689,0.00403838190664653
-0.003094495184071689,0.003906727675628541
-0.00309432518407169,0.002853493827482714
-0.003094155184071689,0.003083888731764614
-0.003093985184071689,0.003083888731764614
-0.00309381518407169,0.003511764982573856
-0.003093645184071689,0.003182629405028883
-0.003093475184071689,0.003511764982573856
-0.00309330518407169,0.004071295464401327
-0.003093135184071689,0.004104209022156064
-0.003092965184071689,0.004202949695419555
-0.003092795184071689,0.004959961523774369
-0.003092625184071689,0.005519492005601779
-0.003092455184071689,0.005486578447847282
-0.003092285184071689,0.005618232678865511
-0.003092115184071689,0.00630941739171097
-0.003091945184071689,0.006177763160692982
-0.003091775184071689,0.00607902248742931
-0.003091605184071689,0.006046108929674335
-0.003091435184071689,0.005815714025392853
-0.003091265184071689,0.005420751332338168
-0.00309109518407169,0.004597912388475738
-0.003090925184071689,0.005025788639283483
