Analysis/files/wrd01_d2s01/cmb10_ch38.csv

#Digilent WaveForms Oscilloscope Acquisition
#Device Name: ADP3450
#Serial Number: SN:210018B9D9B0
#Date Time: 2024-08-14 17:13:53.836.910.280
#Sample rate: 5.88235e+06Hz
#Samples: 32768
#Trigger: Source: Channel 3 Type: Edge Condition: Rising Level: 60 mV Hyst.: Auto HoldOff: 0 s
#Channel 3: Range: 100 mV/div Offset: 0 V Attenuation: 1 X Coupling: DC Bandwidth: 0 Hz Sample Mode: Average

Time (s),Channel 3 (V)
-0.003798382913774012,0.2124799431662569
-0.003798212913774012,0.223111022320997
-0.003798042913774012,0.2330838303206097
-0.003797872913774012,0.2411476519704762
-0.003797702913774012,0.2477303635213974
-0.003797532913774012,0.2531281869931349
-0.003797362913774012,0.2565182834418543
-0.003797192913774012,0.2593817629665037
-0.003797022913774012,0.2609616137387196
-0.003796852913774012,0.2613236628740196
-0.003796682913774012,0.2609945272964713
-0.003796512913774012,0.2594805036397645
-0.003796342913774012,0.2576373444055093
-0.003796172913774012,0.2556296173824741
-0.003796002913774012,0.2516799904519345
-0.003795832913774012,0.2485202889074969
-0.003795662913774012,0.2451631060165244
-0.003795492913774012,0.2409172570661943
-0.003795322913774012,0.2367372352313655
-0.003795152913774012,0.2325242998387738
-0.003794982913774012,0.2279164017531442
-0.003794812913774012,0.2239667748225974
-0.003794642913774012,0.2196221851990037
-0.003794472913774012,0.2154750769219216
-0.003794302913774012,0.2114267093181111
-0.003794132913774012,0.2070162925790085
-0.003793962913774012,0.2030666656484536
-0.003793792913774012,0.1989853844868885
-0.003793622913774012,0.1950028439985944
-0.003793452913774012,0.1908557357215129
-0.003793282913774012,0.1872023308107571
-0.003793112913774012,0.1828906547449179
-0.003792942913774012,0.179698039642718
-0.003792772913774012,0.1762750296362441
-0.003792602913774012,0.1725228840522314
-0.003792432913774012,0.1694290096232962
-0.003792262913774012,0.1661376538478405
-0.003792092913774012,0.1633729149964628
-0.003791922913774012,0.1603119541252839
-0.003791752913774012,0.1579750915247103
-0.003791582913774012,0.1554078340198596
-0.003791412913774012,0.1528076629572449
-0.003791242913774012,0.1501416647791258
-0.003791072913774012,0.1470807039079575
-0.003790902913774012,0.1451058904426785
-0.003790732913774012,0.1425715464955776
-0.003790562913774012,0.1403992516837808
-0.003790392913774012,0.1375357721591304
-0.003790222913774012,0.1351659960008023
-0.003790052913774012,0.1323683435916649
-0.003789882913774012,0.1303277030108824
-0.003789712913774012,0.1273654828129722
-0.003789542913774012,0.125226101558926
-0.003789372913774012,0.1229550660738616
-0.003789202913774012,0.1202890678957425
-0.003789032913774012,0.1187750442390328
-0.003788862913774012,0.1155824291368369
-0.003788692913774012,0.1134430478827946
-0.003788522913774012,0.1115998886485394
-0.003788352913774012,0.109295939605716
-0.003788182913774012,0.1068932498896377
-0.003788012913774012,0.1043589059425368
-0.003787842913774012,0.1020549568997131
-0.003787672913774012,0.09945478583710782
-0.003787502913774012,0.09695335544776149
-0.003787332913774012,0.09435318438514734
-0.003787162913774012,0.09208214890008704
-0.003786992913774012,0.08987694053053172
-0.003786822913774012,0.08711220167914663
-0.003786652913774012,0.08586148648447575
-0.003786482913774012,0.08243847647800179
-0.003786312913774012,0.08043074945497039
-0.003786142913774012,0.07855467666296406
-0.003785972913774012,0.07733687502604544
-0.003785802913774012,0.07555954290729612
-0.003785632913774012,0.07378221078855329
-0.003785462913774012,0.07272897694040745
-0.003785292913774012,0.07167574309226062
-0.003785122913774012,0.07111621261043416
-0.003784952913774012,0.07009589232004287
-0.003784782913774012,0.06937179404944185
-0.003784612913774012,0.06894391779863338
-0.003784442913774012,0.06821981952803313
-0.003784272913774012,0.06756154837294318
-0.003784102913774012,0.06706784500662363
-0.003783932913774012,0.06617917894725059
-0.003783762913774012,0.06561964846542413
-0.003783592913774012,0.06492846375257741
-0.003783422913774012,0.06397397057769527
-0.003783252913774012,0.06288782317179684
-0.003783082913774012,0.06213081134344006
-0.003782912913774012,0.06068261480223955
-0.003782742913774012,0.05959646739634115
-0.003782572913774012,0.05870780133696613
-0.003782402913774012,0.05663424719842903
-0.003782232913774012,0.05512022354172216
-0.003782062913774012,0.05337580498072787
-0.003781892913774012,0.05163138641973634
-0.003781722913774012,0.04991988141650249
-0.003781552913774012,0.04853751199080798
-0.003781382913774012,0.04705640189185291
-0.003781212913774012,0.04587151381269101
-0.003781042913774012,0.04465371217577024
-0.003780872913774012,0.04343591053885162
-0.003780702913774012,0.04238267669070771
-0.003780532913774012,0.04175731909336922
-0.003780362913774012,0.04116487505378719
-0.003780192913774012,0.04017746832115227
-0.003780022913774012,0.03988124630135946
-0.003779852913774012,0.03889383956872275
-0.003779682913774012,0.03807100062485882
-0.003779512913774012,0.03635949562162185
-0.003779342913774012,0.03570122446653071
-0.003779172913774012,0.03438468215634842
-0.003779002913774012,0.03349601609697538
-0.003778832913774012,0.03257443647984778
-0.003778662913774012,0.03155411618945651
-0.003778492913774012,0.03083001791885626
-0.003778322913774012,0.02990843830172865
-0.003778152913774012,0.02931599426214663
-0.003777982913774012,0.02892103156909158
-0.003777812913774012,0.0287235502225646
-0.003777642913774012,0.02839441464501903
-0.003777472913774012,0.02763740281666392
-0.003777302913774012,0.02747283502789143
-0.003777132913774012,0.02605755204444548
-0.003776962913774012,0.02592589781342533
-0.003776792913774012,0.02487266396528142
-0.003776622913774012,0.02388525723264471
-0.003776452913774012,0.0232598996353068
-0.003776282913774012,0.02253580136470787
-0.003776112913774012,0.02181170309410761
-0.003775942913774012,0.02128508617003445
-0.003775772913774012,0.02115343193901647
-0.003775602913774012,0.02052807434167988
-0.003775432913774012,0.02023185232188815
-0.003775262913774012,0.01983688962883418
-0.003775092913774012,0.01950775405128861
-0.003774922913774012,0.01904696424272397
-0.003774752913774012,0.01858617443416101
-0.003774582913774012,0.01815829818335177
-0.003774412913774012,0.01740128635499689
-0.003774242913774012,0.0173683727972424
-0.003774072913774012,0.01680884231541493
-0.003773902913774012,0.01664427452664202
-0.003773732913774012,0.01657844741113303
-0.003773562913774012,0.01624931183358745
-0.003773392913774012,0.015689781351761
-0.003773222913774012,0.01549230000523264
-0.003773052913774012,0.01499859663891429
-0.003772882913774012,0.01499859663891429
-0.003772712913774012,0.01457072038810504
-0.003772542913774012,0.01499859663891429
-0.003772372913774012,0.01519607798544127
-0.003772202913774012,0.01542647288972353
-0.003772032913774012,0.01542647288972353
-0.003771862913774012,0.01522899154319655
-0.003771692913774012,0.01480111529238694
-0.003771522913774012,0.01440615259933226
-0.003771352913774012,0.0139453627907693
-0.003771182913774012,0.01364914077097745
-0.003771012913774012,0.01312252384690453
-0.003770842913774012,0.01282630182711406
-0.003770672913774012,0.01256299336507706
-0.003770502913774012,0.01180598153672225
-0.003770332913774012,0.01180598153672225
-0.003770162913774012,0.01200346288324959
-0.003769992913774012,0.01177306797896769
-0.003769822913774012,0.01174015442121319
-0.003769652913774012,0.01197054932549503
-0.003769482913774012,0.01174015442121313
-0.003769312913774012,0.01233259846079516
-0.003769142913774012,0.0122996849030406
-0.003768972913774012,0.0118388950944768
-0.003768802913774012,0.01220094422977693
-0.003768632913774012,0.01177306797896769
-0.003768462913774012,0.01164141374794946
-0.003768292913774012,0.01170724086345858
-0.003768122913774012,0.01187180865223136
-0.003767952913774012,0.01239842557630427
-0.003767782913774012,0.01164141374794946
-0.003767612913774012,0.01134519172815779
-0.003767442913774012,0.01098314259285832
-0.003767272913774012,0.01111479682387655
-0.003767102913774012,0.01065400701531329
-0.003766932913774012,0.01095022903510376
-0.003766762913774012,0.01085148836184009
-0.003766592913774012,0.01101605615061132
-0.003766422913774012,0.01016030364899439
-0.003766252913774012,0.009534946051657807
-0.003766082913774012,0.008679193550038483
-0.003765912913774012,0.008218403741475522
-0.003765742913774012,0.00779052749066628
-0.003765572913774012,0.007263910566590732
-0.003765402913774012,0.005815714025392853
-0.003765232913774012,0.005322010659074497
-0.003765062913774012,0.004367517484190545
-0.003764892913774012,0.003380110751555628
-0.003764722913774012,0.002359790461164357
-0.003764552913774012,0.001997741325864229
-0.003764382913774012,0.001997741325864229
-0.003764212913774012,0.001734432863827772
-0.003764042913774012,0.002129395556882877
-0.003763872913774012,0.002359790461164357
-0.003763702913774012,0.002853493827482714
-0.003763532913774012,0.003413024309310903
-0.003763362913774012,0.00380798700236487
-0.003763192913774012,0.00403838190664677
-0.003763022913774012,0.004597912388473223
-0.003762852913774012,0.004992875081528926
-0.003762682913774012,0.005387837774583611
-0.003762512913774012,0.005420751332338108
-0.003762342913774012,0.004992875081528926
-0.003762172913774012,0.004729566619492469
-0.003762002913774012,0.004532085272965485
-0.003761832913774012,0.004202949695419555
-0.003761662913774012,0.003709246329101199
-0.003761492913774012,0.003775073444610193
-0.003761322913774012,0.003380110751555628
-0.003761152913774012,0.003281370078291956
-0.003760982913774012,0.002952234500746984
-0.003760812913774012,0.003050975174010056
-0.003760642913774012,0.003149715847273728
-0.003760472913774012,0.003149715847273728
-0.003760302913774012,0.002392704018918914
-0.003760132913774012,0.0027876667119736
-0.003759962913774012,0.002228136230147147
-0.003759792913774012,0.001964827768109672
-0.003759622913774012,0.001668605748318658
-0.003759452913774012,0.001800259979336647
-0.003759282913774012,0.0009774210354729588
-0.003759112913774012,0.0006153719001728307
-0.003758942913774012,0.000253322764873361
-0.003758772913774012,-0.0001745534859365399
-0.003758602913774012,-0.0003062077169547683
-0.003758432913774012,-0.001853144931418952
-0.003758262913774012,0.0003191498803818167
-0.003758092913774012,-0.001293614449591481
-0.003757922913774012,-0.001458182238364267
-0.003757752913774012,-0.002182280508964523
-0.003757582913774012,-0.001984799162437181
-0.003757412913774012,-0.002050626277946295
-0.003757242913774012,-0.00198479916243742
-0.003757072913774012,-0.002116453393455409
-0.003756902913774012,-0.001458182238364267
-0.003756732913774012,-0.001359441565099398
-0.003756562913774012,-0.0007011704100094536
-0.003756392913774012,-0.0007340839677640107
-0.003756222913774012,-0.0003720348324630443
-0.003756052913774012,8.875497609991696e-05
-0.003755882913774012,-9.985697163754359e-06
-0.003755712913774012,0.0006153719001722918
-0.003755542913774012,0.0003191498803818167
-0.003755372913774012,0.0005824583424182735
-0.003755202913774012,0.001602778632809544
-0.003755032913774012,0.001602778632809544
-0.003754862913774012,0.00176734642158233
-0.003754692913774012,0.001734432863827054
-0.003754522913774012,0.001339470170773087
-0.003754352913774012,0.001668605748318658
-0.003754182913774012,0.001339470170772369
-0.003754012913774012,0.0009445074777184018
-0.003753842913774012,0.0001874956493635883
-0.003753672913774012,-0.0004378619479741942
-0.003753502913774012,-0.001096133103064139
-0.003753332913774012,-0.0007340839677640107
-0.003753162913774012,-0.0006682568522554952
-0.003752992913774012,-0.0009973924298004675
-0.003752822913774012,-0.001491095796118824
-0.003752652913774012,-0.001589836469382316
-0.003752482913774012,-0.002741810990791994
-0.003752312913774012,-0.003301341472619465
-0.003752142913774012,-0.003498822819146449
-0.003751972913774012,-0.004255834647501621
-0.003751802913774012,-0.00494701936034732
-0.003751632913774012,-0.004519143109538856
-0.003751462913774012,-0.004354575320765292
-0.003751292913774012,-0.004617883782801749
-0.003751122913774012,-0.004650797340556246
-0.003750952913774012,-0.004683710898310864
-0.003750782913774012,-0.004321661763010735
-0.003750612913774012,-0.004782451571573697
-0.003750442913774012,-0.004058353300974278
-0.003750272913774012,-0.003827958396692379
-0.003750102913774012,-0.003005119452829948
-0.003749932913774012,-0.002708897433037437
-0.003749762913774012,-0.002281021182228195
-0.003749592913774012,-0.001655663584892747
-0.003749422913774012,-0.000832824641027682
-0.003749252913774012,-0.001589836469382495
-0.003749082913774012,-0.001030305987556043
-0.003748912913774012,-0.0007340839677640107
-0.003748742913774012,0.0001545820916090312
-0.003748572913774012,-0.0003720348324629246
-0.003748402913774012,0.0001874956493635883
-0.003748232913774012,-0.0001416399281819828
-0.003748062913774012,-0.0004707755057275538
-0.003747892913774012,-0.000207467043691097
-0.003747722913774012,-0.0007340839677640107
-0.003747552913774012,-0.0006024297367457822
-0.003747382913774012,-0.0009973924298004675
-0.003747212913774012,-0.001458182238364267
-0.003747042913774012,-0.001063219545309582
-0.003746872913774012,-0.001754404258155281
-0.003746702913774012,-0.001721490700400724
-0.003746532913774012,-0.001984799162437181
-0.003746362913774012,-0.001886058489172372
-0.003746192913774012,-0.001260700891836924
-0.003746022913774012,-0.003400082145883136
-0.003745852913774012,-0.002807638106301049
-0.003745682913774012,-0.002774724548546551
-0.003745512913774012,-0.003301341472619465
-0.003745342913774012,-0.003136773683847338
-0.003745172913774012,-0.003498822819146808
-0.003745002913774012,-0.003465909261392251
-0.003744832913774012,-0.004288748205256897
-0.003744662913774012,-0.004683710898310864
-0.003744492913774012,-0.005440722726665677
-0.003744322913774012,-0.006066080324002202
-0.003744152913774012,-0.006033166766247705
-0.003743982913774012,-0.006856005710111633
-0.003743812913774012,-0.006230648112775466
-0.003743642913774012,-0.006461043017056948
-0.003743472913774012,-0.005967339650738591
-0.003743302913774012,-0.005835685419719165
-0.003743132913774012,-0.00517741426462922
-0.003742962913774012,-0.003959612627710607
-0.003742792913774012,-0.003367168588126484
-0.003742622913774012,-0.002215194066719081
-0.003742452913774012,-0.001524009353873381
-0.003742282913774012,-0.001260700891835368
-0.003742112913774012,-0.0004049483902184396
-0.003741942913774012,-0.0001416399281819828
-0.003741772913774012,0.0007141125734349454
-0.003741602913774012,0.001339470170773087
-0.003741432913774012,0.001569865075054987
-0.003741262913774012,0.001964827768108953
-0.003741092913774012,0.001800259979336887
-0.003740922913774012,0.001833173537091444
-0.003740752913774012,0.001668605748318958
-0.003740582913774012,0.001504037959545873
-0.003740412913774012,0.0008786803622092876
-0.003740242913774012,0.0001216685338558511
-0.003740072913774012,-0.0004707755057275538
-0.003739902913774012,-0.001458182238364267
-0.003739732913774012,-0.002346848297735693
-0.003739562913774012,-0.004321661763010735
-0.003739392913774012,-0.002840551664055666
-0.003739222913774012,-0.004782451571571002
-0.003739052913774012,-0.005440722726665677
-0.003738882913774012,-0.006098993881756819
-0.003738712913774012,-0.006461043017056289
-0.003738542913774012,-0.006987659941129861
-0.003738372913774012,-0.007250968403166318
-0.003738202913774012,-0.007119314172148329
-0.003738032913774012,-0.006954746383375304
-0.003737862913774012,-0.006625610805829733
-0.003737692913774012,-0.005835685419721799
-0.003737522913774012,-0.006033166766247705
-0.003737352913774012,-0.005671117630947577
-0.003737182913774012,-0.005572376957683906
-0.003737012913774012,-0.005210327822383777
-0.003736842913774012,-0.005506549842174791
-0.003736672913774012,-0.005736944746456691
-0.003736502913774012,-0.005440722726665677
-0.003736332913774012,-0.005769858304211248
-0.003736162913774012,-0.00586859897747492
-0.003735992913774012,-0.005835685419721499
-0.003735822913774012,-0.006461043017056948
-0.003735652913774012,-0.00665852436358429
-0.003735482913774012,-0.006921832825620209
-0.003735312913774012,-0.006625610805829733
-0.003735142913774012,-0.006691437921338847
-0.003734972913774012,-0.006066080324001783
-0.003734802913774012,-0.005802771861965805
-0.003734632913774012,-0.005078673591365549
-0.003734462913774012,-0.004848278687081553
-0.003734292913774012,-0.00369630416567415
-0.003734122913774012,-0.002708897433037437
-0.003733952913774012,-0.002478502528754819
-0.003733782913774012,-0.002083539835700852
-0.003733612913774012,-0.001984799162437181
-0.003733442913774012,-0.0007999110832751605
-0.003733272913774012,-0.001918972046928067
-0.003733102913774012,-0.0007999110832731249
-0.003732932913774012,-0.0007340839677641304
-0.003732762913774012,-0.0007999110832731249
-0.003732592913774012,-0.000832824641027682
-0.003732422913774012,-0.001392355122856051
-0.003732252913774012,-0.00188605848917351
-0.003732082913774012,-0.002116453393455409
-0.003731912913774012,-0.002675983875281742
-0.003731742913774012,-0.002050626277946295
-0.003731572913774012,-0.002050626277946295
-0.003731402913774012,-0.002610156759772748
-0.003731232913774012,-0.002313934739982752
-0.003731062913774012,-0.002708897433037437
-0.003730892913774012,-0.003202600799354896
-0.003730722913774012,-0.003432995703637694
-0.003730552913774012,-0.003531736376901365
-0.003730382913774012,-0.003597563492410359
-0.003730212913774012,-0.003860871954446936
-0.003730042913774012,-0.002478502528755537
-0.003729872913774012,-0.003959612627707913
-0.003729702913774012,-0.003498822819146808
-0.003729532913774012,-0.003465909261392251
-0.003729362913774012,-0.003367168588128759
-0.003729192913774012,-0.003400082145883136
-0.003729022913774012,-0.002939292337319337
-0.003728852913774012,-0.003070946568337326
-0.003728682913774012,-0.002544329644264652
-0.003728512913774012,-0.002149366951209966
-0.003728342913774012,-0.001721490700401502
-0.003728172913774012,-0.001491095796118824
-0.003728002913774012,-0.001293614449591481
-0.003727832913774012,-0.0005036890634835478
-0.003727662913774012,-0.0005695161789912252
-0.003727492913774012,-9.985697163754359e-06
-0.003727322913774012,-0.0001416399281817433
-0.003727152913774012,0.0004837176691546022
-0.003726982913774012,0.0005495447846637165
-0.003726812913774012,0.0005495447846637165
-0.003726642913774012,0.000714112573436502
-0.003726472913774012,0.0006811990156819448
-0.003726302913774012,-0.0002732941592002112
-0.003726132913774012,-0.0006682568522548965
-0.003725962913774012,-0.0006024297367457822
-0.003725792913774012,-0.001754404258155281
-0.003725622913774012,-0.001721490700400724
-0.003725452913774012,-0.002379761855491866
-0.003725282913774012,-0.002544329644264652
-0.003725112913774012,-0.002774724548548048
-0.003724942913774012,-0.003597563492410479
-0.003724772913774012,-0.00290637877956478
-0.003724602913774012,-0.002675983875282042
-0.003724432913774012,-0.002215194066719081
-0.003724262913774012,-0.002313934739982752
-0.003724092913774012,-0.00224810762447274
-0.003723922913774012,-0.001754404258155281
-0.003723752913774012,-0.001984799162437181
-0.003723582913774012,-0.002017712720192037
-0.003723412913774012,-0.002182280508964523
-0.003723242913774012,-0.002182280508964523
-0.003723072913774012,-0.002577243202019388
-0.003722902913774012,-0.00267598387528288
-0.003722732913774012,-0.002643070317528323
-0.003722562913774012,-0.002445588971001519
-0.003722392913774012,-0.002741810990791994
-0.003722222913774012,-0.002774724548546551
-0.003722052913774012,-0.002511416086510334
-0.003721882913774012,-0.002643070317528323
-0.003721712913774012,-0.003038033010583008
-0.003721542913774012,-0.003959612627710906
-0.003721372913774012,-0.004124180416483393
-0.003721202913774012,-0.005111587149120106
-0.003721032913774012,-0.005506549842175749
