Analysis/files/wrd01_d2s01/cmb10_ch23.csv

#Digilent WaveForms Oscilloscope Acquisition
#Device Name: ADP3450
#Serial Number: SN:210018B9D9B0
#Date Time: 2024-08-14 17:17:42.537.271.760
#Sample rate: 5.88235e+06Hz
#Samples: 32768
#Trigger: Source: Channel 3 Type: Edge Condition: Rising Level: 60 mV Hyst.: Auto HoldOff: 0 s
#Channel 3: Range: 100 mV/div Offset: 0 V Attenuation: 1 X Coupling: DC Bandwidth: 0 Hz Sample Mode: Average

Time (s),Channel 3 (V)
-0.003798525770395214,0.2053047875757635
-0.003798355770395214,0.217877766638025
-0.003798185770395214,0.229265857621081
-0.003798015770395214,0.239304492736221
-0.003797845770395214,0.2481582397722099
-0.003797675770395214,0.2553663089204448
-0.003797505770395214,0.2605666510456648
-0.003797335770395214,0.2649441542270255
-0.003797165770395214,0.2674455846163673
-0.003796995770395214,0.2688608675998133
-0.003796825770395214,0.2698482743324492
-0.003796655770395214,0.2694203980816407
-0.003796485770395214,0.267840547309422
-0.003796315770395214,0.2655036847088457
-0.003796145770395214,0.2640225746098934
-0.003795975770395214,0.2608299595077013
-0.003795805770395214,0.2578348257520303
-0.003795635770395214,0.2543459886300536
-0.003795465770395214,0.2508900650658251
-0.003795295770395214,0.2473024872705714
-0.003795125770395214,0.2434845145710497
-0.003794955770395214,0.2382841724458297
-0.003794785770395214,0.2362106183072964
-0.003794615770395214,0.2316356337794092
-0.003794445770395214,0.2275543526178441
-0.003794275770395214,0.2235059850140409
-0.003794105770395214,0.219457617410223
-0.003793935770395214,0.2154750769219216
-0.003793765770395214,0.2122495482619809
-0.003793595770395214,0.2081353535426554
-0.003793425770395214,0.2043173808431268
-0.003793255770395214,0.200960197952168
-0.003793085770395214,0.1973067930414061
-0.003792915770395214,0.1937192152461594
-0.003792745770395214,0.1901316374509192
-0.003792575770395214,0.1868731952332115
-0.003792405770395214,0.183713493688774
-0.003792235770395214,0.1806196192598513
-0.003792065770395214,0.1778877939662174
-0.003791895770395214,0.1744318704019889
-0.003791725770395214,0.1716013044351021
-0.003791555770395214,0.1691657011612598
-0.003791385770395214,0.1667959250029317
-0.003791215770395214,0.1643603217290989
-0.003791045770395214,0.1624184218215756
-0.003790875770395214,0.159192893161629
-0.003790705770395214,0.1572180796963591
-0.003790535770395214,0.1539925510364089
-0.003790365770395214,0.1510961579540079
-0.003790195770395214,0.1487592953534344
-0.003790025770395214,0.1460274700598061
-0.003789855770395214,0.1434272989971961
-0.003789685770395214,0.140465078799286
-0.003789515770395214,0.1375686857168849
-0.003789345770395214,0.1348039468655021
-0.003789175770395214,0.131841726667592
-0.003789005770395214,0.1295377776247693
-0.003788835770395214,0.1274971370439905
-0.003788665770395214,0.1256868913674898
-0.003788495770395214,0.1232183745358944
-0.003788325770395214,0.1212106475128701
-0.003788155770395214,0.119729537413915
-0.003787985770395214,0.1182155137572039
-0.003787815770395214,0.117425588371096
-0.003787645770395214,0.1166027494272321
-0.003787475770395214,0.1184129951037205
-0.003787305770395214,0.1116986293218031
-0.003787135770395214,0.1115998886485394
-0.003786965770395214,0.10896680402817
-0.003786795770395214,0.1063337194078103
-0.003786625770395214,0.1038322890184639
-0.003786455770395214,0.1019233026686958
-0.003786285770395214,0.09984974853016251
-0.003786115770395214,0.0980065892959073
-0.003785945770395214,0.09553807246431183
-0.003785775770395214,0.09349743188353299
-0.003785605770395214,0.09119348284071399
-0.003785435770395214,0.08954780495298141
-0.003785265770395214,0.08694763389037613
-0.003785095770395214,0.08549943734917562
-0.003784925770395214,0.0835246238838989
-0.003784755770395214,0.08171437820740154
-0.003784585770395214,0.08013452743518279
-0.003784415770395214,0.07865341733623044
-0.003784245770395214,0.07763309704583646
-0.003784075770395214,0.07532914800301746
-0.003783905770395214,0.0736176429997836
-0.003783735770395214,0.07203779222756176
-0.003783565770395214,0.07029337366657024
-0.003783395770395214,0.06943762116495331
-0.003783225770395214,0.06864769577884236
-0.003783055770395214,0.06775902971946932
-0.003782885770395214,0.06608043827398996
-0.003782715770395214,0.06522468577236842
-0.003782545770395214,0.06374357567341335
-0.003782375770395214,0.06311821807607793
-0.003782205770395214,0.06213081134344006
-0.003782035770395214,0.06114340461080335
-0.003781865770395214,0.06015599787816844
-0.003781695770395214,0.05985977585837562
-0.003781525770395214,0.05874071489472068
-0.003781355770395214,0.05837866575942121
-0.003781185770395214,0.05656842008291992
-0.003781015770395214,0.05551518623477408
-0.003780845770395214,0.0540999032513307
-0.003780675770395214,0.05311249651869142
-0.003780505770395214,0.05179595420850913
-0.003780335770395214,0.0521909169015631
-0.003780165770395214,0.05176304065075458
-0.003779995770395214,0.05064397968709963
-0.003779825770395214,0.04991988141649938
-0.003779655770395214,0.04847168487529886
-0.003779485770395214,0.04731971035388936
-0.003779315770395214,0.04593734092819797
-0.003779145770395214,0.04471953929127936
-0.003778975770395214,0.04323842919232428
-0.003778805770395214,0.04221810890193301
-0.003778635770395214,0.04149401063133275
-0.003778465770395214,0.0400787276478868
-0.003778295770395214,0.04014455476339591
-0.003778125770395214,0.03965085139707553
-0.003777955770395214,0.03853179043342262
-0.003777785770395214,0.03767603793180414
-0.003777615770395214,0.03655697696814949
-0.003777445770395214,0.03672154475692198
-0.003777275770395214,0.03678737187243109
-0.003777105770395214,0.03668863119916718
-0.003776935770395214,0.03655697696814919
-0.003776765770395214,0.0363924091793764
-0.003776595770395214,0.0360303600440749
-0.003776425770395214,0.03527334821572146
-0.003776255770395214,0.03504295331143956
-0.003776085770395214,0.03362767032799541
-0.003775915770395214,0.03461507706063032
-0.003775745770395214,0.03267317715311145
-0.003775575770395214,0.03250860936433819
-0.003775405770395214,0.03224530090230221
-0.003775235770395214,0.03185033820924753
-0.003775065770395214,0.03158702974721005
-0.003774895770395214,0.0310274992653836
-0.003774725770395214,0.03059962301457436
-0.003774555770395214,0.03023757387927357
-0.003774385770395214,0.0298755247439741
-0.003774215770395214,0.02954638916642853
-0.003774045770395214,0.02865772310705441
-0.003773875770395214,0.02806527906747346
-0.003773705770395214,0.02786779772094612
-0.003773535770395214,0.02661708252627522
-0.003773365770395214,0.02605755204444548
-0.003773195770395214,0.02500431819629965
-0.003773025770395214,0.0243131334834552
-0.003772855770395214,0.02352320809734458
-0.003772685770395214,0.02237123357593508
-0.003772515770395214,0.02118634549677318
-0.003772345770395214,0.02125217261228014
-0.003772175770395214,0.02177878953635305
-0.003772005770395214,0.02184461665186204
-0.003771835770395214,0.02164713530533482
-0.003771665770395214,0.02118634549677102
-0.003771495770395214,0.02042933366841759
-0.003771325770395214,0.02052807434167988
-0.003771155770395214,0.02006728453311608
-0.003770985770395214,0.0198368896288346
-0.003770815770395214,0.02000145741760697
-0.003770645770395214,0.02010019809087064
-0.003770475770395214,0.02065972857269709
-0.003770305770395214,0.02042933366841621
-0.003770135770395214,0.02062681501494355
-0.003769965770395214,0.02046224722617106
-0.003769795770395214,0.020593901457189
-0.003769625770395214,0.01970523539781595
-0.003769455770395214,0.02046224722617077
-0.003769285770395214,0.0203635065529071
-0.003769115770395214,0.02033059299515254
-0.003768945770395214,0.02023185232188887
-0.003768775770395214,0.02010019809087064
-0.003768605770395214,0.01973814895557051
-0.003768435770395214,0.01996854385985241
-0.003768265770395214,0.0199027167443433
-0.003768095770395214,0.01947484049353405
-0.003767925770395214,0.01927735914700671
-0.003767755770395214,0.01901405068496882
-0.003767585770395214,0.01822412529886088
-0.003767415770395214,0.01769750837478797
-0.003767245770395214,0.0162822253913407
-0.003767075770395214,0.01555812712074176
-0.003766905770395214,0.01496568308115973
-0.003766735770395214,0.01437323904157549
-0.003766565770395214,0.01315543740465909
-0.003766395770395214,0.0134516594244501
-0.003766225770395214,0.0133200051934302
-0.003766055770395214,0.01239842557630427
-0.003765885770395214,0.01220094422977693
-0.003765715770395214,0.01160850019019401
-0.003765545770395214,0.01111479682387655
-0.003765375770395214,0.01048943922653996
-0.003765205770395214,0.01022613076450344
-0.003765035770395214,0.01019321720674895
-0.003764865770395214,0.01029195788001262
-0.003764695770395214,0.009765340955938928
-0.003764525770395214,0.009337464705130465
-0.003764355770395214,0.009534946051657807
-0.003764185770395214,0.009995735860222085
-0.003764015770395214,0.01025904432225806
-0.003763845770395214,0.01052235278429452
-0.003763675770395214,0.0102590443222577
-0.003763505770395214,0.01006156297573072
-0.003763335770395214,0.01045652566878541
-0.003763165770395214,0.01104896970836636
-0.003762995770395214,0.01101605615061288
-0.003762825770395214,0.01088440191959465
-0.003762655770395214,0.01118062393938512
-0.003762485770395214,0.01071983413082186
-0.003762315770395214,0.01071983413082186
-0.003762145770395214,0.01081857480408535
-0.003761975770395214,0.01111479682387655
-0.003761805770395214,0.0118388950944768
-0.003761635770395214,0.01243133913405775
-0.003761465770395214,0.01200346288324959
-0.003761295770395214,0.0118388950944768
-0.003761125770395214,0.01131227817040485
-0.003760955770395214,0.01052235278429452
-0.003760785770395214,0.01071983413082186
-0.003760615770395214,0.009041242685342503
-0.003760445770395214,0.00871210710779388
-0.003760275770395214,0.008745020665548437
-0.003760105770395214,0.00821840374147648
-0.003759935770395214,0.008975415569830336
-0.003759765770395214,0.008218403741475522
-0.003759595770395214,0.008152576625966529
-0.003759425770395214,0.007527219028629823
-0.003759255770395214,0.007230997008838809
-0.003759085770395214,0.007033515662311826
-0.003758915770395214,0.006934774989047795
-0.003758745770395214,0.00677020720027501
-0.003758575770395214,0.006901861431293239
-0.003758405770395214,0.00677020720027501
-0.003758235770395214,0.006901861431293239
-0.003758065770395214,0.006901861431293239
-0.003757895770395214,0.007033515662311467
-0.003757725770395214,0.007329737682102481
-0.003757555770395214,0.007658873259648051
-0.003757385770395214,0.007362651239858475
-0.003757215770395214,0.008152576625966409
-0.003757045770395214,0.009139983358603122
-0.003756875770395214,0.008448798645756882
-0.003756705770395214,0.008152576625966409
-0.003756535770395214,0.007988008837193623
-0.003756365770395214,0.00811966306821167
-0.003756195770395214,0.00802092239494818
-0.003756025770395214,0.008415885088002865
-0.003755855770395214,0.008350057972494589
-0.003755685770395214,0.00881084778105755
-0.003755515770395214,0.008942502012075779
-0.003755345770395214,0.009995735860221186
-0.003755175770395214,0.009765340955939707
-0.003755005770395214,0.01055526634204908
-0.003754835770395214,0.01078566124633229
-0.003754665770395214,0.01150975951693123
-0.003754495770395214,0.01131227817040389
-0.003754325770395214,0.01124645105489525
-0.003754155770395214,0.01150975951693123
-0.003753985770395214,0.01065400701531275
-0.003753815770395214,0.01068692057306557
-0.003753645770395214,0.00973242739818515
-0.003753475770395214,0.009139983358603122
-0.003753305770395214,0.008350057972493392
-0.003753135770395214,0.008152576625966409
-0.003752965770395214,0.007099342777820581
-0.003752795770395214,0.006967688546802592
-0.003752625770395214,0.006441071622729439
-0.003752455770395214,0.005618232678865511
-0.003752285770395214,0.005124529312548052
-0.003752115770395214,0.004630825946228797
-0.003751945770395214,0.004499171715210569
-0.003751775770395214,0.005157442870300514
-0.003751605770395214,0.005618232678865511
-0.003751435770395214,0.005651146236620068
-0.003751265770395214,0.005980281814165041
-0.003751095770395214,0.005782800467638296
-0.003750925770395214,0.006177763160692982
-0.003750755770395214,0.007066429220064407
-0.003750585770395214,0.007066429220066024
-0.003750415770395214,0.00756013258638438
-0.003750245770395214,0.007856354606174855
-0.003750075770395214,0.00802092239494818
-0.003749905770395214,0.008613366434530208
-0.003749735770395214,0.008415885088003224
-0.003749565770395214,0.008481712203511979
-0.003749395770395214,0.008613366434530208
-0.003749225770395214,0.008481712203512218
-0.003749055770395214,0.00802092239494818
-0.003748885770395214,0.007230997008838809
-0.003748715770395214,0.007428478355365793
-0.003748545770395214,0.006704380084765896
-0.003748375770395214,0.00677020720027501
-0.003748205770395214,0.006342330949465767
-0.003748035770395214,0.006210676718447538
-0.003747865770395214,0.006210676718447538
-0.003747695770395214,0.006934774989047795
-0.003747525770395214,0.006243590276202096
-0.003747355770395214,0.006441071622729439
-0.003747185770395214,0.006243590276202096
-0.003747015770395214,0.006210676718447538
-0.003746845770395214,0.006473985180483996
-0.003746675770395214,0.00653981229599311
-0.003746505770395214,0.006572725853747966
-0.003746335770395214,0.006737293642520453
-0.003746165770395214,0.006638552969256781
-0.003745995770395214,0.006309417391711329
-0.003745825770395214,0.006375244507220324
-0.003745655770395214,0.005980281814165639
-0.003745485770395214,0.005420751332336971
-0.003745315770395214,0.004762480177247026
-0.003745145770395214,0.005453664890092726
-0.003744975770395214,0.004170036137664879
-0.003744805770395214,0.004104209022155884
-0.003744635770395214,0.003413024309310185
-0.003744465770395214,0.003380110751555209
-0.003744295770395214,0.003149715847273728
-0.003744125770395214,0.002886407385237271
-0.003743955770395214,0.003083888731765212
-0.003743785770395214,0.003413024309310185
-0.003743615770395214,0.003610505655837527
-0.003743445770395214,0.003873814117875002
-0.003743275770395214,0.004433344599701455
-0.003743105770395214,0.005256183543565383
-0.003742935770395214,0.005848627583148608
-0.003742765770395214,0.006506898738238553
-0.003742595770395214,0.007066429220066024
-0.003742425770395214,0.006770207200275369
-0.003742255770395214,0.006967688546802352
-0.003742085770395214,0.006671466527011338
-0.003741915770395214,0.006704380084765836
-0.003741745770395214,0.007691786817402609
-0.003741575770395214,0.007691786817402609
-0.003741405770395214,0.007362651239857636
-0.003741235770395214,0.007329737682102481
-0.003741065770395214,0.006967688546802352
-0.003740895770395214,0.007395564797610817
-0.003740725770395214,0.007362651239857037
-0.003740555770395214,0.006836034315784124
-0.003740385770395214,0.006704380084766135
-0.003740215770395214,0.006605639411502225
-0.003740045770395214,0.009699513840430593
-0.003739875770395214,0.007428478355370282
-0.003739705770395214,0.006375244507220324
-0.003739535770395214,0.006473985180483996
-0.003739365770395214,0.006046108929675532
-0.003739195770395214,0.00574988690988374
-0.003739025770395214,0.005124529312547154
-0.003738855770395214,0.005124529312547154
-0.003738685770395214,0.00505870219703804
-0.003738515770395214,0.004992875081528926
-0.003738345770395214,0.004927047966019931
-0.003738175770395214,0.005585319121110954
-0.003738005770395214,0.004597912388474241
-0.003737835770395214,0.005091615754791699
-0.003737665770395214,0.004861220850510698
-0.003737495770395214,0.004762480177247026
-0.003737325770395214,0.004992875081528926
-0.003737155770395214,0.00528909710131994
-0.003736985770395214,0.005651146236620068
-0.003736815770395214,0.005716973352129182
-0.003736645770395214,0.006046108929674754
-0.003736475770395214,0.005980281814165639
-0.003736305770395214,0.006737293642520453
-0.003736135770395214,0.00617776316069364
-0.003735965770395214,0.00653981229599311
-0.003735795770395214,0.006638552969256781
-0.003735625770395214,0.006737293642519555
-0.003735455770395214,0.006243590276202096
-0.003735285770395214,0.006408158064974882
-0.003735115770395214,0.005914454698657063
-0.003734945770395214,0.006210676718447538
-0.003734775770395214,0.006210676718447538
-0.003734605770395214,0.005914454698655267
-0.003734435770395214,0.005223269985810825
-0.003734265770395214,0.005585319121110954
-0.003734095770395214,0.005157442870301532
-0.003733925770395214,0.00505870219703804
-0.003733755770395214,0.004992875081528926
-0.003733585770395214,0.004992875081528268
-0.003733415770395214,0.004630825946228797
-0.003733245770395214,0.003939641233383098
-0.003733075770395214,0.004466258157456072
-0.003732905770395214,0.004499171715210569
-0.003732735770395214,0.004762480177247026
-0.003732565770395214,0.005453664890093264
-0.003732395770395214,0.00574988690988374
-0.003732225770395214,0.004696653061737912
-0.003732055770395214,0.005124529312547992
-0.003731885770395214,0.005585319121110954
-0.003731715770395214,0.006506898738238553
-0.003731545770395214,0.00690186143129252
-0.003731375770395214,0.007198083451084253
-0.003731205770395214,0.007230997008838809
-0.003731035770395214,0.00746139191312029
-0.003730865770395214,0.007198083451084253
-0.003730695770395214,0.007428478355366152
-0.003730525770395214,0.007230997008839168
-0.003730355770395214,0.007395564797611595
-0.003730185770395214,0.006408158064974882
-0.003730015770395214,0.006177763160693401
-0.003729845770395214,0.005585319121110954
-0.003729675770395214,0.005552405563356397
-0.003729505770395214,0.005618232678865391
-0.003729335770395214,0.005486578447847282
-0.003729165770395214,0.005025788639283483
-0.003728995770395214,0.004828307292756499
-0.003728825770395214,0.004170036137664999
-0.003728655770395214,0.004301690368683227
-0.003728485770395214,0.003972554791138254
-0.003728315770395214,0.003939641233383098
-0.003728145770395214,0.004235863253174112
-0.003727975770395214,0.004630825946228079
-0.003727805770395214,0.003709246329101199
-0.003727635770395214,0.004104209022155884
-0.003727465770395214,0.003511764982574934
-0.003727295770395214,0.003906727675628541
-0.003727125770395214,0.003544678540328413
-0.003726955770395214,0.003215542962782842
-0.003726785770395214,0.004301690368683227
-0.003726615770395214,0.004729566619492469
-0.003726445770395214,0.005519492005601839
-0.003726275770395214,0.006210676718447538
-0.003726105770395214,0.007428478355366152
-0.003725935770395214,0.007198083451084253
-0.003725765770395214,0.008415885088002865
-0.003725595770395214,0.008876674896566664
-0.003725425770395214,0.009139983358603122
-0.003725255770395214,0.009534946051658586
-0.003725085770395214,0.009962822302467049
-0.003724915770395214,0.01029195788001262
-0.003724745770395214,0.01025904432225788
-0.003724575770395214,0.01016030364899439
-0.003724405770395214,0.009765340955939707
-0.003724235770395214,0.008547539319020435
-0.003724065770395214,0.008185490183720966
-0.003723895770395214,0.007593046144138938
-0.003723725770395214,0.006737293642519195
-0.003723555770395214,0.006046108929674754
-0.003723385770395214,0.00630941739171121
-0.003723215770395214,0.006539812295992332
-0.003723045770395214,0.006111936045183867
-0.003722875770395214,0.005256183543565383
-0.003722705770395214,0.004696653061736056
-0.003722535770395214,0.003676332771346642
-0.003722365770395214,0.003643419213592085
-0.003722195770395214,0.003742159886855457
-0.003722025770395214,0.00357759209808297
-0.003721855770395214,0.003544678540328413
-0.003721685770395214,0.003083888731765152
-0.003721515770395214,0.003380110751555628
-0.003721345770395214,0.003676332771346642
-0.003721175770395214,0.004137122579911039
-0.003721005770395214,0.004466258157456012
-0.003720835770395214,0.005124529312547154
-0.003720665770395214,0.005585319121110116
-0.003720495770395214,0.005914454698656525
-0.003720325770395214,0.006441071622729439
-0.003720155770395214,0.006901861431292401
-0.003719985770395214,0.006934774989047795
