Analysis/files/wrd01_d2s01/cmb14_ch02.csv

#Digilent WaveForms Oscilloscope Acquisition
#Device Name: ADP3450
#Serial Number: SN:210018B9D9B0
#Date Time: 2024-08-06 17:18:45.609.407.300
#Sample rate: 2.94118e+06Hz
#Samples: 32768
#Trigger: Source: Channel 3 Type: Edge Condition: Rising Level: 60 mV Hyst.: Auto HoldOff: 0 s
#Channel 3: Range: 200 mV/div Offset: -20 mV Attenuation: 1 X Coupling: DC Bandwidth: 0 Hz Sample Mode: Average

Time (s),Channel 3 (V)
-0.005570476834532374,0.02925406420412719
-0.005570136834532374,0.02774004054741613
-0.005569796834532374,0.02695011516130819
-0.005569456834532374,0.02639058467948072
-0.005569116834532374,0.02655515246825399
-0.005568776834532374,0.02681846093028996
-0.005568436834532374,0.02724633718109921
-0.005568096834532374,0.02833248458700019
-0.005567756834532374,0.02866162016454516
-0.005567416834532374,0.02915532353086352
-0.005567076834532374,0.02918823708861676
-0.005566736834532374,0.02846413881801782
-0.005566396834532374,0.02760838631639933
-0.005566056834532374,0.02619310333295182
-0.005565716834532374,0.02533735083133489
-0.005565376834532374,0.02411954919441628
-0.005565036834532374,0.02365875938585122
-0.005564696834532374,0.02296757467300678
-0.005564356834532374,0.02224347640240653
-0.005564016834532374,0.02155229168956095
-0.005563676834532374,0.02161811880506994
-0.005563336834532374,0.0218814272671064
-0.005562996834532374,0.02217764928689687
-0.005562656834532374,0.02267135265321577
-0.005562316834532374,0.02293466111525222
-0.005561976834532374,0.02260552553770725
-0.005561636834532374,0.02161811880506994
-0.005561296834532374,0.02040031716815133
-0.005560956834532374,0.01918251553123493
-0.005560616834532374,0.01862298504940524
-0.005560276834532374,0.01852424437614157
-0.005559936834532374,0.01898503418470453
-0.005559596834532374,0.01898503418470537
-0.005559256834532374,0.01901794774245993
-0.005558916834532374,0.01954456466653189
-0.005558576834532374,0.01977495957081474
-0.005558236834532374,0.0195774782242874
-0.005557896834532374,0.01918251553123343
-0.005557556834532374,0.01855715793389613
-0.005557216834532374,0.01895212062695081
-0.005556876834532374,0.01898503418470531
-0.005556536834532374,0.01885337995368714
-0.005556196834532374,0.01855715793389613
-0.005555856834532374,0.01783305966329719
-0.005555516834532374,0.01737226985473207
-0.005555176834532374,0.0170431342771865
-0.005554836834532374,0.017076047834941
-0.005554496834532374,0.01763557831676853
-0.005554156834532374,0.01849133081838701
-0.005553816834532374,0.01868881216491436
-0.005553476834532374,0.01947873755102373
-0.005553136834532374,0.02016992226386943
-0.005552796834532374,0.01984078668632386
-0.005552456834532374,0.01908377485796904
-0.005552116834532374,0.01766849187452309
-0.005551776834532374,0.01677982581515005
-0.005551436834532374,0.01562785129373839
-0.005551096834532374,0.01444296321457649
-0.005550756834532374,0.01358721071295801
-0.005550416834532374,0.01417965475253997
-0.005550076834532374,0.01414674119478548
-0.005549736834532374,0.01454170388784016
-0.005549396834532374,0.01552911062047699
-0.005549056834532374,0.01559493773598599
-0.005548716834532374,0.01572659196700422
-0.005548376834532374,0.01608864110230429
-0.005548036834532374,0.01605572754454979
-0.005547696834532374,0.01598990042904068
-0.005547356834532374,0.01605572754455057
-0.005547016834532374,0.01648360379535903
-0.005546676834532374,0.01661525802637726
-0.005546336834532374,0.01710896139269568
-0.005545996834532374,0.01714187495045017
-0.005545656834532374,0.01701022071943194
-0.005545316834532374,0.0177343189900319
-0.005544976834532374,0.01756975120125942
-0.005544636834532374,0.01724061562371385
-0.005544296834532374,0.01668108514188589
-0.005543956834532374,0.01641777667984992
-0.005543616834532374,0.01661525802637726
-0.005543276834532374,0.01661525802637714
-0.005542936834532374,0.01654943091086815
-0.005542596834532374,0.01625320889107713
-0.005542256834532374,0.01569367840925068
-0.005541916834532374,0.01490375302314029
-0.005541576834532374,0.01437713609906738
-0.005541236834532374,0.0140809140792769
-0.005540896834532374,0.0142783954258037
-0.005540556834532374,0.01348847003969433
-0.005540216834532374,0.01279728532684989
-0.005539876834532374,0.01223775484502116
-0.005539536834532374,0.01171113792094825
-0.005539196834532374,0.01101995320810381
-0.005538856834532374,0.01144782945891179
-0.005538516834532374,0.01227066840277572
-0.005538176834532374,0.01289602600011117
-0.005537836834532374,0.01362012427071256
-0.005537496834532374,0.01421256831029459
-0.005537156834532374,0.01477209879212104
-0.005536816834532374,0.01510123436966763
-0.005536476834532374,0.01526580215844042
-0.005536136834532374,0.01582533264026687
-0.005535796834532374,0.01641777667984992
-0.005535456834532374,0.01691148004616827
-0.005535116834532374,0.01766849187452171
-0.005534776834532374,0.01826093591410511
-0.005534436834532374,0.01914960197347816
-0.005534096834532374,0.01954456466653213
-0.005533756834532374,0.01898503418470537
-0.005533416834532374,0.01868881216491436
-0.005533076834532374,0.01783305966329587
-0.005532736834532374,0.01691148004616827
-0.005532396834532374,0.01562785129374055
-0.005532056834532374,0.01549619706272232
-0.005531716834532374,0.01500249369640396
-0.005531376834532374,0.01477209879212206
-0.005531036834532374,0.01398217340601269
-0.005530696834532374,0.01365303782846712
-0.005530356834532374,0.01388343273274902
-0.005530016834532374,0.01421256831029459
-0.005529676834532374,0.0141796547525392
-0.005529336834532374,0.01371886494397623
-0.005528996834532374,0.01292893955786686
-0.005528656834532374,0.01256689042256524
-0.005528316834532374,0.01174405147870281
-0.005527976834532374,0.01164531080543914
-0.005527636834532374,0.01194153282523135
-0.005527296834532374,0.01259980398032129
-0.005526956834532374,0.01362012427071256
-0.005526616834532374,0.01477209879212428
-0.005526276834532374,0.01598990042904068
-0.005525936834532374,0.01743809697024119
-0.005525596834532374,0.01803054100982346
-0.005525256834532374,0.01816219524084144
-0.005524916834532374,0.018195108798596
-0.005524576834532374,0.01816219524084282
-0.005524236834532374,0.01891920706919626
-0.005523896834532374,0.0191166884157236
-0.005523556834532374,0.01928125620449615
-0.005523216834532374,0.01914960197347816
-0.005522876834532374,0.01789888677880499
-0.005522536834532374,0.01589115975577347
-0.005522196834532374,0.01394925984825813
-0.005521856834532374,0.01210610061400294
-0.005521516834532374,0.01098703965034698
-0.005521176834532374,0.01042750916852052
-0.005520836834532374,0.0100654600332204
-0.005520496834532374,0.01042750916851986
-0.005520156834532374,0.01085538541932977
-0.005519816834532374,0.01144782945891179
-0.005519476834532374,0.01292893955786417
-0.005519136834532374,0.01335681580867611
-0.005518796834532374,0.01431130898355826
-0.005518456834532374,0.01526580215843868
-0.005518116834532374,0.0154303699472132
-0.005517776834532374,0.0154303699472132
-0.005517436834532374,0.01622029533332114
-0.005517096834532374,0.01625320889107713
-0.005516756834532374,0.01628612244883169
-0.005516416834532374,0.01622029533332269
-0.005516076834532374,0.01661525802637726
-0.005515736834532374,0.01648360379535903
-0.005515396834532374,0.01651651735311353
-0.005515056834532374,0.01625320889107713
-0.005514716834532374,0.01546328350496776
-0.005514376834532374,0.01490375302314131
-0.005514036834532374,0.01493666658089485
-0.005513696834532374,0.01441004965682193
-0.005513356834532374,0.01401508696376797
-0.005513016834532374,0.01352138359744889
-0.005512676834532374,0.01312642090439421
-0.005512336834532374,0.01315933446214876
-0.005511996834532374,0.01381760561723991
-0.005511656834532374,0.01454170388784016
-0.005511316834532374,0.01615446821781346
-0.005510976834532374,0.01720770206595929
-0.005510636834532374,0.01776723254778676
-0.005510296834532374,0.01737226985473207
-0.005509956834532374,0.01717478850820473
-0.005509616834532374,0.01701022071943194
-0.005509276834532374,0.01671399869964093
-0.005508936834532374,0.017076047834941
-0.005508596834532374,0.0170431342771865
-0.005508256834532374,0.01674691225739549
-0.005507916834532374,0.0164506902376025
-0.005507576834532374,0.01536454283170409
-0.005507236834532374,0.01421256831029459
-0.005506896834532374,0.01312642090439271
-0.005506556834532374,0.01230358196053028
-0.005506216834532374,0.01167822436319369
-0.005505876834532374,0.01213901417175761
-0.005505536834532374,0.01220484128726661
-0.005505196834532374,0.01246814974930307
-0.005504856834532374,0.01312642090439636
-0.005504516834532374,0.01431130898355826
-0.005504176834532374,0.01513414792742219
-0.005503836834532374,0.01556202417823293
-0.005503496834532374,0.01638486312209536
-0.005503156834532374,0.01684565293065916
-0.005502816834532374,0.01681273937290376
-0.005502476834532374,0.0163519495643408
-0.005502136834532374,0.01575950552475877
-0.005501796834532374,0.01493666658089335
-0.005501456834532374,0.01411382763703092
-0.005501116834532374,0.01375177850173079
-0.005500776834532374,0.01371886494397719
-0.005500436834532374,0.01424548186804915
-0.005500096834532374,0.01480501234987662
-0.005499756834532374,0.01487083946538561
-0.005499416834532374,0.01483792590763118
-0.005499076834532374,0.01483792590763118
-0.005498736834532374,0.0145417038878407
-0.005498396834532374,0.0149695801386494
-0.005498056834532374,0.01447587677233105
-0.005497716834532374,0.01394925984825909
-0.005497376834532374,0.01404800052152181
-0.005497036834532374,0.01434422254131282
-0.005496696834532374,0.01493666658089377
-0.005496356834532374,0.01631903600658625
-0.005496016834532374,0.01714187495045017
-0.005495676834532374,0.01760266475901313
-0.005495336834532374,0.01743809697024119
-0.005494996834532374,0.01710896139269562
-0.005494656834532374,0.01648360379536017
-0.005494316834532374,0.01572659196700422
-0.005493976834532374,0.01483792590763118
-0.005493636834532374,0.01467335811885869
-0.005493296834532374,0.01424548186804915
-0.005492956834532374,0.01444296321457649
-0.005492616834532374,0.01529871571619342
-0.005492276834532374,0.01654943091086815
-0.005491936834532374,0.01753683764350486
-0.005491596834532374,0.01793180033655883
-0.005491256834532374,0.01868881216491436
-0.005490916834532374,0.01924834264674183
-0.005490576834532374,0.0184255037028779
-0.005490236834532374,0.01832676302961423
-0.005489896834532374,0.01760266475901397
-0.005489556834532374,0.01684565293065916
-0.005489216834532374,0.01579241908251333
-0.005488876834532374,0.01500249369640396
-0.005488536834532374,0.01477209879212206
-0.005488196834532374,0.01434422254131216
-0.005487856834532374,0.01398217340601269
-0.005487516834532374,0.01329098869316699
-0.005487176834532374,0.01236940907603915
-0.005486836834532374,0.01223775484502116
-0.005486496834532374,0.01204027349849382
-0.005486156834532374,0.01187570570972193
-0.005485816834532374,0.01236940907603939
-0.005485476834532374,0.01299476667337598
-0.005485136834532374,0.01302768023113101
-0.005484796834532374,0.01329098869316699
-0.005484456834532374,0.01368595138622168
-0.005484116834532374,0.0136859513862212
-0.005483776834532374,0.01342264292418522
-0.005483436834532374,0.01375177850173079
-0.005483096834532374,0.01391634629050316
-0.005482756834532374,0.01368595138622168
-0.005482416834532374,0.0142783954258037
-0.005482076834532374,0.01447587677233201
-0.005481736834532374,0.01500249369640396
-0.005481396834532374,0.01556202417823143
-0.005481056834532374,0.01539745638945817
-0.005480716834532374,0.01513414792742219
-0.005480376834532374,0.0149695801386494
-0.005480036834532374,0.01470627167661271
-0.005479696834532374,0.01457461744559472
-0.005479356834532374,0.01434422254131282
-0.005479016834532374,0.01325807513541441
-0.005478676834532374,0.009308448204865582
-0.005478336834532374,-0.0006314462370106654
-0.005477996834532374,-0.01889847079075663
-0.005477656834532374,-0.04536097122545377
-0.005477316834532374,-0.07810996119123809
-0.005476976834532374,-0.1132945544307956
-0.005476636834532374,-0.1482158392084447
-0.005476296834532374,-0.1794508055175194
-0.005475956834532374,-0.2039384924868654
-0.005475616834532374,-0.2226333932914984
-0.005475276834532374,-0.2346139283141572
-0.005474936834532374,-0.2398142704393677
-0.005474596834532374,-0.2412295534228232
-0.005474256834532374,-0.2386293823602131
-0.005473916834532374,-0.233988570716829
-0.005473576834532374,-0.2278337354167184
-0.005473236834532374,-0.2210535425192796
-0.005472896834532374,-0.2140758682753262
-0.005472556834532374,-0.2076906380709294
-0.005472216834532374,-0.2012395807510362
-0.005471876834532374,-0.1945581285268733
-0.005471536834532374,-0.1880412440914588
-0.005471196834532374,-0.1809319156164745
-0.005470856834532374,-0.1734605380062036
-0.005470516834532374,-0.1660549875114147
-0.005470176834532374,-0.159044399709694
-0.005469836834532374,-0.1526262559475554
-0.005469496834532374,-0.1466689019939806
-0.005469156834532374,-0.1409419429446876
-0.005468816834532374,-0.135412465241922
-0.005468476834532374,-0.1304425180209839
-0.005468136834532374,-0.1257029657043277
-0.005467796834532374,-0.1214571167539898
-0.005467456834532374,-0.1173758355924247
-0.005467116834532374,-0.1130641595265778
-0.005466776834532374,-0.1080942123056396
-0.005466436834532374,-0.1024659939296022
-0.005466096834532374,-0.09798975007499058
-0.005465756834532374,-0.09301980285405245
-0.005465416834532374,-0.08801694207535177
-0.005465076834532374,-0.08360652533624913
-0.005464736834532374,-0.07978855263672049
-0.005464396834532374,-0.07616806128371263
-0.005464056834532374,-0.07254756993071795
-0.005463716834532374,-0.06869668367343476
-0.005463376834532374,-0.06550406857123744
-0.005463036834532374,-0.06260767548884169
-0.005462696834532374,-0.059612541733177
-0.005462356834532374,-0.05744024692137342
-0.005462016834532374,-0.05589330970691205
-0.005461676834532374,-0.05464259451223887
-0.005461336834532374,-0.05316148441328076
-0.005460996834532374,-0.05148289296780139
-0.005460656834532374,-0.04950807950252797
-0.005460316834532374,-0.04746743892173998
-0.005459976834532374,-0.04447230516608073
-0.005459636834532374,-0.04305702218263478
-0.005459296834532374,-0.04121386294837628
-0.005458956834532374,-0.03940361727187894
-0.005458616834532374,-0.0378237664996602
-0.005458276834532374,-0.03558564457234738
-0.005457936834532374,-0.03397288024237701
-0.005457596834532374,-0.03189932610383991
-0.005457256834532374,-0.02989159908081558
-0.005456916834532374,-0.02847631609736598
-0.005456576834532374,-0.02646858907433799
-0.005456236834532374,-0.02488873830212213
-0.005455896834532374,-0.02297975195235494
-0.005455556834532374,-0.0220910858929819
-0.005455216834532374,-0.02031375377423904
-0.005454876834532374,-0.01837185386671695
-0.005454536834532374,-0.01669326242123453
-0.005454196834532374,-0.01547546078431814
-0.005453856834532374,-0.01491593030248845
-0.005453516834532374,-0.01386269645434262
-0.005453176834532374,-0.01376395578107913
-0.005452836834532374,-0.01313859818374236
-0.005452496834532374,-0.01231575923987844
-0.005452156834532374,-0.01136126606499802
-0.005451816834532374,-0.0102751186590959
-0.005451476834532374,-0.008563613655858927
-0.005451136834532374,-0.006457145959571106
-0.005450796834532374,-0.004581073167557518
-0.005450456834532374,-0.00296830883758422
-0.005450116834532374,-0.001915074989440307
-0.005449776834532374,-0.00158593941189282
-0.005449436834532374,-0.002342951240247634
-0.005449096834532374,-0.003264530857373555
-0.005448756834532374,-0.00421902403225739
-0.005448416834532374,-0.00441650537878473
-0.005448076834532374,-0.004383591821030174
-0.005447736834532374,-0.003264530857375231
-0.005447396834532374,-0.001980902104947505
-0.005447056834532374,-0.0004668784482378778
-0.005446716834532374,0.001112972323980863
-0.005446376834532374,0.002659909538445047
-0.005446036834532374,0.00377897050209999
-0.005445696834532374,0.003877711175364917
-0.005445356834532374,0.004568895888209358
-0.005445016834532374,0.0049967721390186
-0.005444676834532374,0.004667636561472133
-0.005444336834532374,0.004173933195154675
-0.005443996834532374,0.004141019637400115
-0.005443656834532374,0.003778970502100708
-0.005443316834532374,0.004173933195154675
-0.005442976834532374,0.004766377234736701
-0.005442636834532374,0.005720870409620414
-0.005442296834532374,0.006576622911237342
-0.005441956834532374,0.007596943201628613
-0.005441616834532374,0.007991905894683118
-0.005441276834532374,0.007893165221419626
-0.005440936834532374,0.007498202528364941
-0.005440596834532374,0.006971585604289752
-0.005440256834532374,0.005720870409618857
-0.005439916834532374,0.004700550119227587
-0.005439576834532374,0.003976451848627869
-0.005439236834532374,0.004272673868418345
-0.005438896834532374,0.005292994158809615
-0.005438556834532374,0.006082919544921321
-0.005438216834532374,0.007366548297346712
-0.005437876834532374,0.009045139742829125
-0.005437536834532374,0.00993380580220516
-0.005437196834532374,0.01157948368993002
-0.005436856834532374,0.01286311244235775
-0.005436516834532374,0.01401508696376515
-0.005436176834532374,0.01506832081191307
-0.005435836834532374,0.01519997504293131
-0.005435496834532374,0.01490375302314083
-0.005435156834532374,0.01487083946538573
-0.005434816834532374,0.01437713609906738
-0.005434476834532374,0.01365303782846844
-0.005434136834532374,0.01236940907603939
-0.005433796834532374,0.01092121253483888
-0.005433456834532374,0.01029585493750343
-0.005433116834532374,0.009176793973847354
-0.005432776834532374,0.008913485511810896
-0.005432436834532374,0.009308448204864863
-0.005432096834532374,0.009703410897920267
-0.005431756834532374,0.009966719359956725
-0.005431416834532374,0.009867978686693233
-0.005431076834532374,0.009802151571183939
-0.005430736834532374,0.009900892244447609
-0.005430396834532374,0.009933805802202106
-0.005430056834532374,0.01042750916852052
-0.005429716834532374,0.01059207695729331
-0.005429376834532374,0.01138200234340124
-0.005429036834532374,0.01210610061400294
-0.005428696834532374,0.01283019888460319
-0.005428356834532374,0.01375177850172912
-0.005428016834532374,0.01480501234987662
-0.005427676834532374,0.0154303699472132
-0.005427336834532374,0.01585824619802245
-0.005426996834532374,0.01651651735311359
-0.005426656834532374,0.01569367840924966
-0.005426316834532374,0.01417965475254003
-0.005425976834532374,0.01263271753807585
-0.005425636834532374,0.01154657013217547
-0.005425296834532374,0.01052624984178419
-0.005424956834532374,0.01023002782199318
-0.005424616834532374,0.01052624984178419
-0.005424276834532374,0.01138200234340268
-0.005423936834532374,0.01187570570972295
-0.005423596834532374,0.01292893955786686
-0.005423256834532374,0.01381760561723991
-0.005422916834532374,0.0147720987921223
-0.005422576834532374,0.01490375302314029
-0.005422236834532374,0.01526580215844042
-0.005421896834532374,0.01575950552475865
-0.005421556834532374,0.01569367840924966
-0.005421216834532374,0.01480501234987662
-0.005420876834532374,0.01385051917499315
-0.005420536834532374,0.01312642090439421
-0.005420196834532374,0.01207318705624838
-0.005419856834532374,0.01095412609259302
-0.005419516834532374,0.01072373118831154
-0.005419176834532374,0.01029585493750229
-0.005418836834532374,0.01072373118831291
-0.005418496834532374,0.01148074301666635
-0.005418156834532374,0.01190861926747559
-0.005417816834532374,0.01263271753807585
-0.005417476834532374,0.01263271753807585
-0.005417136834532374,0.01256689042256674
-0.005416796834532374,0.01220484128726661
-0.005416456834532374,0.01220484128726661
-0.005416116834532374,0.01217192772951205
-0.005415776834532374,0.01240232263379443
-0.005415436834532374,0.01266563109583041
-0.005415096834532374,0.01289602600011231
-0.005414756834532374,0.01358721071295675
-0.005414416834532374,0.01358721071295801
-0.005414076834532374,0.01338972936643066
-0.005413736834532374,0.01338972936643066
-0.005413396834532374,0.01342264292418522
-0.005413056834532374,0.01319224801990332
