Analysis/files/wrd01_d2s01/cmb14_ch04.csv

#Digilent WaveForms Oscilloscope Acquisition
#Device Name: ADP3450
#Serial Number: SN:210018B9D9B0
#Date Time: 2024-08-06 17:19:48.202.341.410
#Sample rate: 2.94118e+06Hz
#Samples: 32768
#Trigger: Source: Channel 3 Type: Edge Condition: Rising Level: 60 mV Hyst.: Auto HoldOff: 0 s
#Channel 3: Range: 200 mV/div Offset: -20 mV Attenuation: 1 X Coupling: DC Bandwidth: 0 Hz Sample Mode: Average

Time (s),Channel 3 (V)
-0.005570258113207547,0.02714759650783553
-0.005569918113207547,0.02629184400621537
-0.005569578113207547,0.02537026438908945
-0.005569238113207547,0.02415246275217084
-0.005568898113207547,0.0228359204419858
-0.005568558113207547,0.02132189678527893
-0.005568218113207547,0.01984078668632386
-0.005567878113207547,0.01898503418470417
-0.005567538113207547,0.01832676302961423
-0.005567198113207547,0.0177343189900322
-0.005566858113207547,0.01763557831676895
-0.005566518113207547,0.01786597322105043
-0.005566178113207547,0.01809636812533233
-0.005565838113207547,0.01796471389431512
-0.005565498113207547,0.01852424437614157
-0.005565158113207547,0.01859007149165069
-0.005564818113207547,0.01816219524084072
-0.005564478113207547,0.01776723254778676
-0.005564138113207547,0.01760266475901397
-0.005563798113207547,0.01717478850820419
-0.005563458113207547,0.01687856648841372
-0.005563118113207547,0.01645069023760447
-0.005562778113207547,0.01641777667984998
-0.005562438113207547,0.01664817158413182
-0.005562098113207547,0.01648360379535903
-0.005561758113207547,0.01654943091086802
-0.005561418113207547,0.01710896139269562
-0.005561078113207547,0.01753683764350486
-0.005560738113207547,0.01760266475901385
-0.005560398113207547,0.01776723254778676
-0.005560058113207547,0.01786597322105043
-0.005559718113207547,0.01793180033655942
-0.005559378113207547,0.01714187495045017
-0.005559038113207547,0.01645069023760447
-0.005558698113207547,0.01529871571619707
-0.005558358113207547,0.01385051917499446
-0.005558018113207547,0.01227066840277572
-0.005557678113207547,0.0113820023434043
-0.005557338113207547,0.01029585493750229
-0.005556998113207547,0.01023002782199318
-0.005556658113207547,0.009867978686693712
-0.005556318113207547,0.009505929551392924
-0.005555978113207547,0.009736324455674824
-0.005555638113207547,0.01052624984178276
-0.005555298113207547,0.01184279215196648
-0.005554958113207547,0.01371886494397623
-0.005554618113207547,0.01549619706271908
-0.005554278113207547,0.01664817158413182
-0.005553938113207547,0.01724061562371385
-0.005553598113207547,0.01740518341248663
-0.005553258113207547,0.01717478850820473
-0.005552918113207547,0.01694439360392283
-0.005552578113207547,0.01589115975577701
-0.005552238113207547,0.01434422254131282
-0.005551898113207547,0.01286311244235775
-0.005551558113207547,0.01213901417175749
-0.005551218113207547,0.01174405147870335
-0.005550878113207547,0.01204027349849382
-0.005550538113207547,0.01236940907603939
-0.005550198113207547,0.01243523619154737
-0.005549858113207547,0.01180987859421192
-0.005549518113207547,0.01078955830382065
-0.005549178113207547,0.009802151571182742
-0.005548838113207547,0.009143880416092796
-0.005548498113207547,0.008716004165283554
-0.005548158113207547,0.00894639906956677
-0.005547818113207547,0.00967049734016571
-0.005547478113207547,0.01078955830382065
-0.005547138113207547,0.01121743455463073
-0.005546798113207547,0.01167822436319369
-0.005546458113207547,0.01184279215196648
-0.005546118113207547,0.01174405147870311
-0.005545778113207547,0.01190861926747559
-0.005545438113207547,0.01197444638298471
-0.005545098113207547,0.01227066840277464
-0.005544758113207547,0.01167822436319369
-0.005544418113207547,0.01115160743912078
-0.005544078113207547,0.0109870396503468
-0.005543738113207547,0.01032876849525685
-0.005543398113207547,0.009867978686693053
-0.005543058113207547,0.009440102435883212
-0.005542718113207547,0.009110966858338239
-0.005542378113207547,0.008683090607528997
-0.005542038113207548,0.00818938724121154
-0.005541698113207547,0.007991905894683298
-0.005541358113207547,0.008781831280792669
-0.005541018113207547,0.009571756666900603
-0.005540678113207547,0.01046042272627508
-0.005540338113207547,0.01082247186157521
-0.005539998113207547,0.01131617522789267
-0.005539658113207547,0.01180987859421192
-0.005539318113207547,0.01217192772951205
-0.005538978113207547,0.01217192772951205
-0.005538638113207547,0.01171113792094825
-0.005538298113207547,0.01108578032361167
-0.005537958113207547,0.009802151571186274
-0.005537618113207547,0.009110966858338239
-0.005537278113207547,0.008847658396301783
-0.005536938113207547,0.008090646567948346
-0.005536598113207547,0.00795899233692874
-0.005536258113207547,0.008057733010192412
-0.005535918113207547,0.008518522818755373
-0.005535578113207547,0.009473015993638367
-0.005535238113207547,0.01046042272627508
-0.005534898113207547,0.01157948368992799
-0.005534558113207547,0.01227066840277572
-0.005534218113207547,0.01292893955786686
-0.005533878113207547,0.01342264292418432
-0.005533538113207547,0.01279728532684864
-0.005533198113207547,0.01266563109583041
-0.005532858113207547,0.01250106330705762
-0.005532518113207547,0.01269854465358496
-0.005532178113207547,0.01279728532684864
-0.005531838113207547,0.01259980398032129
-0.005531498113207547,0.01273145821133952
-0.005531158113207547,0.01207318705624838
-0.005530818113207547,0.01088829897708432
-0.005530478113207547,0.009900892244447609
-0.005530138113207547,0.00957175666690204
-0.005529798113207547,0.009209707531601911
-0.005529458113207547,0.009440102435884709
-0.005529118113207547,0.009933805802202166
-0.005528778113207547,0.009802151571183939
-0.005528438113207547,0.009703410897919727
-0.005528098113207547,0.009407188878129254
-0.005527758113207547,0.009407188878129254
-0.005527418113207547,0.009769238013429922
-0.005527078113207547,0.0100654600332204
-0.005526738113207547,0.01049333628402964
-0.005526398113207547,0.01059207695729355
-0.005526058113207547,0.01072373118831154
-0.005525718113207547,0.01078955830382065
-0.005525378113207547,0.01092121253483828
-0.005525038113207547,0.01059207695729331
-0.005524698113207547,0.01065790407280242
-0.005524358113207547,0.01069081763055668
-0.005524018113207547,0.01052624984178419
-0.005523678113207547,0.01003254647546584
-0.005523338113207547,0.009999632917710742
-0.005522998113207547,0.009703410897920267
-0.005522658113207547,0.009703410897920267
-0.005522318113207547,0.009637583782411752
-0.005521978113207547,0.009966719359956725
-0.005521638113207547,0.01062499051504787
-0.005521298113207547,0.01128326167013925
-0.005520958113207547,0.01141491590115724
-0.005520618113207547,0.01177696503645737
-0.005520278113207547,0.01069081763055896
-0.005519938113207547,0.009933805802202166
-0.005519598113207547,0.008946399069565453
-0.005519258113207547,0.008255214356721012
-0.005518918113207547,0.00772859743264684
-0.005518578113207547,0.006675363584501014
-0.005518238113207547,0.006543709353483024
-0.005517898113207547,0.006477882237973671
-0.005517558113207547,0.007070326277555699
-0.005517218113207547,0.007728597432645644
-0.005516878113207547,0.008090646567946969
-0.005516538113207547,0.008419782145492541
-0.005516198113207547,0.00878183128079201
-0.005515858113207547,0.008979312627320012
-0.005515518113207547,0.00957175666690204
-0.005515178113207547,0.009999632917710503
-0.005514838113207547,0.01072373118831154
-0.005514498113207547,0.01174405147870281
-0.005514158113207547,0.01223775484502027
-0.005513818113207547,0.01263271753807585
-0.005513478113207547,0.01250106330705762
-0.005513138113207547,0.01174405147870419
-0.005512798113207547,0.01032876849525685
-0.005512458113207547,0.009473015993638367
-0.005512118113207547,0.008584349934265326
-0.005511778113207547,0.00865017704977444
-0.005511438113207547,0.008518522818756211
-0.005511098113207547,0.008946399069565453
-0.005510758113207547,0.009209707531601911
-0.005510418113207547,0.009308448204865582
-0.005510078113207547,0.009374275320374697
-0.005509738113207547,0.009143880416092796
-0.005509398113207547,0.008913485511810896
-0.005509058113207547,0.008156473683456083
-0.005508718113207547,0.008189387241210641
-0.005508378113207547,0.008189387241210641
-0.005508038113207547,0.009012226185074568
-0.005507698113207547,0.009505929551395379
-0.005507358113207547,0.01085538541932977
-0.005507018113207547,0.01213901417175749
-0.005506678113207547,0.01329098869316897
-0.005506338113207547,0.01437713609906738
-0.005505998113207547,0.01464044456110383
-0.005505658113207547,0.01411382763702942
-0.005505318113207547,0.01329098869316699
-0.005504978113207547,0.01194153282523015
-0.005504638113207547,0.01101995320810171
-0.005504298113207547,0.01055916339953875
-0.005503958113207547,0.01009837359097495
-0.005503618113207547,0.01026294137974804
-0.005503278113207547,0.01042750916852052
-0.005502938113207547,0.01052624984178419
-0.005502598113207547,0.01078955830382047
-0.005502258113207547,0.01069081763055698
-0.005501918113207547,0.01003254647546584
-0.005501578113207547,0.009209707531600235
-0.005501238113207547,0.008288127914474312
-0.005500898113207547,0.008222300798965198
-0.005500558113207547,0.008716004165285229
-0.005500218113207547,0.009637583782411153
-0.005499878113207547,0.01046042272627508
-0.005499538113207547,0.01167822436319148
-0.005499198113207547,0.01286311244235775
-0.005498858113207547,0.01362012427071256
-0.005498518113207547,0.01427839542580251
-0.005498178113207547,0.01388343273274902
-0.005497838113207547,0.01345555648193978
-0.005497498113207547,0.01217192772951439
-0.005497158113207547,0.01072373118831154
-0.005496818113207547,0.009769238013429382
-0.005496478113207547,0.008880571954057956
-0.005496138113207547,0.008255214356719755
-0.005495798113207547,0.008452695703247097
-0.005495458113207547,0.008979312627319054
-0.005495118113207547,0.009473015993638367
-0.005494778113207547,0.00957175666690204
-0.005494438113207547,0.009374275320375056
-0.005494098113207547,0.009275534647111025
-0.005493758113207547,0.009275534647111025
-0.005493418113207547,0.009045139742829545
-0.005493078113207547,0.008847658396301783
-0.005492738113207547,0.008880571954056339
-0.005492398113207547,0.009045139742828825
-0.005492058113207547,0.00957175666690204
-0.005491718113207547,0.01029585493750229
-0.005491378113207547,0.01078955830381975
-0.005491038113207547,0.01131617522789356
-0.005490698113207547,0.01187570570972104
-0.005490358113207547,0.01184279215196648
-0.005490018113207547,0.01151365657442091
-0.005489678113207547,0.01115160743912078
-0.005489338113207547,0.01151365657442091
-0.005488998113207547,0.01171113792094825
-0.005488658113207547,0.01151365657442091
-0.005488318113207547,0.01240232263379395
-0.005487978113207547,0.01187570570972062
-0.005487638113207547,0.01164531080543914
-0.005487298113207547,0.01131617522789356
-0.005486958113207547,0.01088829897708318
-0.005486618113207547,0.01026294137974774
-0.005486278113207547,0.009176793973847354
-0.005485938113207547,0.008781831280792789
-0.005485598113207547,0.008847658396301783
-0.005485258113207547,0.009505929551392924
-0.005484918113207547,0.009999632917710922
-0.005484578113207547,0.009802151571183939
-0.005484238113207547,0.01023002782199318
-0.005483898113207547,0.01036168205301099
-0.005483558113207547,0.01013128714872951
-0.005483218113207547,0.01019711426423862
-0.005482878113207547,0.01019711426423964
-0.005482538113207547,0.0107566447460661
-0.005482198113207547,0.01108578032361167
-0.005481858113207547,0.01075664474606574
-0.005481518113207547,0.01055916339953875
-0.005481178113207547,0.01026294137974774
-0.005480838113207547,0.01003254647546476
-0.005480498113207547,0.009440102435883811
-0.005480158113207547,0.008617263492019883
-0.005479818113207547,0.007958992336928501
-0.005479478113207547,0.007827338105910513
-0.005479138113207547,0.006313314449200885
-0.005478798113207548,0.003021958673751163
-0.005478458113207547,-0.005436825669176002
-0.005478118113207547,-0.02169612319992721
-0.005477778113207547,-0.04605215593825517
-0.005477438113207547,-0.07705672734309227
-0.005477098113207547,-0.11178053077415
-0.005476758113207547,-0.1465043342051446
-0.005476418113207547,-0.1779696954185644
-0.005476078113207547,-0.2043663687377192
-0.005475738113207547,-0.224147416948172
-0.005475398113207547,-0.2377407163008401
-0.005475058113207547,-0.2450804396801063
-0.005474718113207547,-0.2475160429539391
-0.005474378113207547,-0.2471210802608889
-0.005474038113207547,-0.2441588600629787
-0.005473698113207547,-0.2397484433238761
-0.005473358113207547,-0.2339885707168206
-0.005473018113207547,-0.2272742049348909
-0.005472678113207547,-0.2200990493444105
-0.005472338113207547,-0.2122985361565674
-0.005471998113207547,-0.2042676280644555
-0.005471658113207547,-0.1956113623750227
-0.005471318113207547,-0.1877450220716678
-0.005470978113207547,-0.1800103359993469
-0.005470638113207547,-0.1719465143494951
-0.005470298113207547,-0.1644093096236868
-0.005469958113207547,-0.1572341540331934
-0.005469618113207547,-0.1505197882512637
-0.005469278113207547,-0.1440029038158614
-0.005468938113207547,-0.1381442905355503
-0.005468598113207547,-0.1326477263905392
-0.005468258113207547,-0.1273815571498101
-0.005467918113207547,-0.1221483014668355
-0.005467578113207547,-0.1171783542458974
-0.005467238113207547,-0.1125704561602594
-0.005466898113207547,-0.1086208292297125
-0.005466558113207547,-0.1044078938371292
-0.005466218113207547,-0.1000303906557679
-0.005465878113207547,-0.09716691113112666
-0.005465538113207547,-0.09318437064282525
-0.005465198113207547,-0.09009049621389115
-0.005464858113207547,-0.08693079466945941
-0.005464518113207547,-0.0839356609137947
-0.005464178113207547,-0.08077595936935135
-0.005463838113207547,-0.07755043070941062
-0.005463498113207547,-0.07406159358742756
-0.005463158113207547,-0.07116520050502144
-0.005462818113207547,-0.06836754809588919
-0.005462478113207547,-0.06589903126429741
-0.005462138113207547,-0.06323303308617355
-0.005461798113207547,-0.06063286202356827
-0.005461458113207547,-0.05747316047913079
-0.005461118113207547,-0.05428054537693228
-0.005460778113207547,-0.05072588113944659
-0.005460438113207547,-0.04802696940357289
-0.005460098113207547,-0.04562427968748693
-0.005459758113207547,-0.04381403401098959
-0.005459418113207547,-0.04269497304733465
-0.005459078113207547,-0.04180630698796028
-0.005458738113207547,-0.04108220871736135
-0.005458398113207547,-0.04045685112002476
-0.005458058113207547,-0.03953527150289615
-0.005457718113207547,-0.0389757410210697
-0.005457378113207547,-0.03765919871088741
-0.005457038113207547,-0.03598060726540805
-0.005456698113207547,-0.03341334976054954
-0.005456358113207547,-0.0311423142754851
-0.005456018113207547,-0.02850922965512532
-0.005455678113207547,-0.02620528061230153
-0.005455338113207547,-0.02485582474436469
-0.005454998113207547,-0.02330888752990333
-0.005454658113207547,-0.02202525877747279
-0.005454318113207547,-0.02077454358279961
-0.005453978113207547,-0.01939217415711073
-0.005453638113207547,-0.01777940982713492
-0.005453298113207547,-0.01636412684368896
-0.005452958113207547,-0.01537672011105404
-0.005452618113207547,-0.01491593030248845
-0.005452278113207547,-0.01511341164901579
-0.005451938113207547,-0.01540963366880627
-0.005451598113207547,-0.01508049809126123
-0.005451258113207547,-0.01514632520677035
-0.005450918113207547,-0.01471844895596188
-0.005450578113207547,-0.01415891847413363
-0.005450238113207547,-0.01284237616395135
-0.005449898113207547,-0.01155874741152596
-0.005449558113207547,-0.01001181019705944
-0.005449218113207547,-0.008695267886877155
-0.005448878113207547,-0.007642034038733246
-0.005448538113207547,-0.006128010382021702
-0.005448198113207547,-0.00500894941836676
-0.005447858113207547,-0.003725320665939034
-0.005447518113207547,-0.00227712412473852
-0.005447178113207547,-0.001223890276592692
-0.005446838113207547,-0.0007301869102743358
-0.005446498113207547,-0.0008618411412925631
-0.005446158113207547,-0.001256803834347248
-0.005445818113207547,-0.001980902104947505
-0.005445478113207547,-0.002737913933303756
-0.005445138113207547,-0.003527839319411689
-0.005444798113207547,-0.004021542685730045
-0.005444458113207547,-0.003165790184109705
-0.005444118113207547,-0.002145469893720293
-0.005443778113207547,-0.001125149603329021
-0.005443438113207547,-0.0004668784482362015
-0.005443098113207547,0.00045470116888972
-0.005442758113207547,0.001178799439489977
-0.005442418113207547,0.001080058766228761
-0.005442078113207547,0.002429514634163146
-0.005441738113207547,0.003120699347008846
-0.005441398113207547,0.004239760310664686
-0.005441058113207547,0.004733463676982144
-0.005440718113207547,0.005128426370036829
-0.005440378113207547,0.004996772139017583
-0.005440038113207547,0.004437241657191129
-0.005439698113207547,0.004338500983927459
-0.005439358113207547,0.004535982330454442
-0.005439018113207547,0.004338500983927459
-0.005438678113207547,0.004437241657191129
-0.005438338113207547,0.004733463676983042
-0.005437998113207547,0.0052271670433005
-0.005437658113207547,0.005753783967373414
-0.005437318113207547,0.006181660218182237
-0.005436978113207547,0.005951265313900757
-0.005436638113207547,0.005556302620846072
-0.005436298113207548,0.005325907716564591
-0.005435958113207547,0.005029685696773157
-0.005435618113207547,0.004437241657191129
-0.005435278113207547,0.004963858581263086
-0.005434938113207547,0.005325907716564172
-0.005434598113207547,0.005852524640637086
-0.005434258113207547,0.006313314449200047
-0.005433918113207547,0.007827338105910513
-0.005433578113207547,0.008419782145492541
-0.005433238113207547,0.008683090607528518
-0.005432898113207547,0.009209707531601911
-0.005432558113207547,0.009473015993638367
-0.005432218113207547,0.009374275320374877
-0.005431878113207547,0.008584349934265326
-0.005431538113207547,0.007893165221419626
-0.005431198113207547,0.007596943201629152
-0.005430858113207547,0.007399461855101271
-0.005430518113207547,0.007531116086119498
-0.005430178113207547,0.007695683874891984
-0.005429838113207547,0.007761510990401397
-0.005429498113207547,0.007893165221419626
-0.005429158113207547,0.008222300798964599
-0.005428818113207547,0.009176793973847354
-0.005428478113207547,0.009736324455674824
-0.005428138113207547,0.009703410897920327
-0.005427798113207547,0.00967049734016571
-0.005427458113207547,0.009703410897920267
-0.005427118113207547,0.009473015993638367
-0.005426778113207547,0.009604670224656596
-0.005426438113207547,0.009473015993638367
-0.005426098113207547,0.008847658396301783
-0.005425758113207547,0.008946399069565453
-0.005425418113207547,0.009637583782411153
-0.005425078113207547,0.009473015993638367
-0.005424738113207547,0.009440102435883811
-0.005424398113207547,0.009341361762620138
-0.005424058113207547,0.009012226185074568
-0.005423718113207547,0.008321041472227312
-0.005423378113207547,0.007465288970610384
-0.005423038113207547,0.006412055122464556
-0.005422698113207547,0.005589216178600509
-0.005422358113207547,0.005523389063091515
-0.005422018113207547,0.006050005987164429
-0.005421678113207547,0.006412055122466113
-0.005421338113207547,0.007267807624083042
-0.005420998113207547,0.008189387241210641
-0.005420658113207547,0.008979312627321987
-0.005420318113207547,0.0100654600332204
-0.005419978113207547,0.01098703965034799
-0.005419638113207547,0.01134908878564824
-0.005419298113207547,0.01141491590115724
-0.005418958113207547,0.01207318705624838
-0.005418618113207547,0.01309350734664049
-0.005418278113207547,0.01355429715520345
-0.005417938113207547,0.01342264292418522
-0.005417598113207547,0.01296185311561915
-0.005417258113207547,0.01171113792094825
-0.005416918113207547,0.009703410897920267
-0.005416578113207547,0.008551436376509031
-0.005416238113207547,0.007596943201628613
-0.005415898113207547,0.006741190700010127
-0.005415558113207547,0.006214573775936854
-0.005415218113207547,0.00601709242940987
-0.005414878113207547,0.006214573775937213
-0.005414538113207547,0.00720198050857213
-0.005414198113207547,0.008847658396301783
