Analysis/files/wrd01_d2s01/cmb14_ch34.csv

#Digilent WaveForms Oscilloscope Acquisition
#Device Name: ADP3450
#Serial Number: SN:210018B9D9B0
#Date Time: 2024-08-06 17:34:31.559.330.860
#Sample rate: 2.94118e+06Hz
#Samples: 32768
#Trigger: Source: Channel 3 Type: Edge Condition: Rising Level: 60 mV Hyst.: Auto HoldOff: 0 s
#Channel 3: Range: 200 mV/div Offset: -20 mV Attenuation: 1 X Coupling: DC Bandwidth: 0 Hz Sample Mode: Average

Time (s),Channel 3 (V)
-0.005570356515151515,0.02606144910193515
-0.005570016515151515,0.02550191862010612
-0.005569676515151515,0.02464616611848919
-0.005569336515151515,0.02405372207890717
-0.005568996515151515,0.02356001871258911
-0.005568656515151515,0.02372458650136159
-0.005568316515151515,0.02365875938585248
-0.005567976515151515,0.02352710515483485
-0.005567636515151515,0.02385624073237982
-0.005567296515151515,0.02415246275217084
-0.005566956515151515,0.0248107339072636
-0.005566616515151515,0.02569939996663502
-0.005566276515151515,0.02583105419765325
-0.005565936515151515,0.02609436265969055
-0.005565596515151515,0.02655515246825351
-0.005565256515151515,0.02731216429660832
-0.005564916515151515,0.02714759650783469
-0.005564576515151515,0.02668680669927173
-0.005564236515151515,0.02576522708214413
-0.005563896515151515,0.0242182898676778
-0.005563556515151515,0.0230334017885159
-0.005563216515151515,0.0216510323628245
-0.005562876515151516,0.0204332307259081
-0.005562536515151515,0.01984078668632386
-0.005562196515151515,0.01990661380183297
-0.005561856515151516,0.01997244091734196
-0.005561516515151515,0.01967621889755107
-0.005561176515151515,0.01964330533979651
-0.005560836515151516,0.01967621889755101
-0.005560496515151515,0.01974204601306018
-0.005560156515151515,0.01947873755102373
-0.005559816515151516,0.01865589860716129
-0.005559476515151515,0.01776723254778676
-0.005559136515151515,0.01829384947185967
-0.005558796515151516,0.01865589860715914
-0.005558456515151515,0.01921542908898727
-0.005558116515151515,0.0191166884157236
-0.005557776515151516,0.01882046639593312
-0.005557436515151515,0.01839259014512334
-0.005557096515151515,0.01780014610554131
-0.005556756515151516,0.01704313427718788
-0.005556416515151515,0.01661525802637726
-0.005556076515151515,0.01605572754454979
-0.005555736515151516,0.01543036994721434
-0.005555396515151515,0.01533162927394953
-0.005555056515151515,0.01546328350496776
-0.005554716515151516,0.01582533264026723
-0.005554376515151515,0.01523288860068586
-0.005554036515151515,0.01546328350496776
-0.005553696515151516,0.01510123436966763
-0.005553356515151515,0.01441004965682193
-0.005553016515151515,0.01401508696376725
-0.005552676515151516,0.01411382763703092
-0.005552336515151515,0.0149695801386494
-0.005551996515151515,0.01503540725415852
-0.005551656515151515,0.01559493773598599
-0.005551316515151515,0.01612155466005896
-0.005550976515151515,0.01615446821781346
-0.005550636515151515,0.01631903600658625
-0.005550296515151515,0.0165823444686236
-0.005549956515151515,0.01707604783494106
-0.005549616515151515,0.01776723254778676
-0.005549276515151515,0.0175039240857494
-0.005548936515151515,0.01701022071943194
-0.005548596515151515,0.01677982581515005
-0.005548256515151515,0.01625320889107569
-0.005547916515151515,0.01546328350496776
-0.005547576515151515,0.0154303699472132
-0.005547236515151515,0.01510123436966691
-0.005546896515151515,0.01470627167661295
-0.005546556515151515,0.01460753100334928
-0.005546216515151515,0.01421256831029315
-0.005545876515151515,0.01342264292418522
-0.005545536515151515,0.01269854465358496
-0.005545196515151515,0.01197444638298543
-0.005544856515151515,0.01236940907603939
-0.005544516515151515,0.01332390225092155
-0.005544176515151515,0.01394925984825993
-0.005543836515151515,0.01493666658089485
-0.005543496515151515,0.01562785129374055
-0.005543156515151515,0.0159899004290405
-0.005542816515151515,0.01589115975577701
-0.005542476515151515,0.01510123436966763
-0.005542136515151516,0.01460753100335017
-0.005541796515151515,0.01394925984825813
-0.005541456515151515,0.01378469205948535
-0.005541116515151516,0.01394925984825783
-0.005540776515151515,0.01411382763703092
-0.005540436515151515,0.01398217340601269
-0.005540096515151516,0.01378469205948571
-0.005539756515151515,0.01348847003969433
-0.005539416515151515,0.01283019888460319
-0.005539076515151516,0.01256689042256721
-0.005538736515151515,0.01220484128726661
-0.005538396515151515,0.01148074301666635
-0.005538056515151516,0.0120402734984928
-0.005537716515151515,0.01273145821133952
-0.005537376515151515,0.01312642090439421
-0.005537036515151516,0.0144100496568196
-0.005536696515151515,0.01460753100334928
-0.005536356515151515,0.01500249369640396
-0.005536016515151516,0.01506832081191295
-0.005535676515151515,0.01477209879212206
-0.005535336515151515,0.01375177850173079
-0.005534996515151516,0.01345555648194032
-0.005534656515151515,0.01329098869316699
-0.005534316515151515,0.01236940907603939
-0.005533976515151516,0.01266563109582987
-0.005533636515151515,0.01184279215196648
-0.005533296515151515,0.01184279215196648
-0.005532956515151516,0.01230358196053028
-0.005532616515151515,0.01309350734663965
-0.005532276515151515,0.01404800052152181
-0.005531936515151516,0.01500249369640396
-0.005531596515151515,0.01595698687128612
-0.005531256515151515,0.0161215546600589
-0.005530916515151516,0.0161215546600589
-0.005530576515151515,0.01602281398679523
-0.005530236515151515,0.01572659196700422
-0.005529896515151515,0.01585824619802245
-0.005529556515151515,0.01566076485149486
-0.005529216515151515,0.01552911062047688
-0.005528876515151515,0.01519997504293131
-0.005528536515151515,0.01464044456110293
-0.005528196515151515,0.01414674119478548
-0.005527856515151515,0.01362012427071256
-0.005527516515151515,0.01348847003969505
-0.005527176515151515,0.01388343273274902
-0.005526836515151515,0.01447587677233105
-0.005526496515151515,0.01519997504293208
-0.005526156515151515,0.01562785129374055
-0.005525816515151515,0.01622029533332257
-0.005525476515151515,0.01658234446862318
-0.005525136515151515,0.01684565293065916
-0.005524796515151515,0.0170431342771865
-0.005524456515151515,0.01668108514188577
-0.005524116515151515,0.0163519495643408
-0.005523776515151515,0.01605572754454979
-0.005523436515151515,0.01434422254131174
-0.005523096515151515,0.01375177850173079
-0.005522756515151515,0.01322516157765788
-0.005522416515151515,0.01309350734663929
-0.005522076515151515,0.01289602600011231
-0.005521736515151515,0.01269854465358496
-0.005521396515151515,0.01312642090439516
-0.005521056515151515,0.01365303782846712
-0.005520716515151515,0.01325807513541244
-0.005520376515151516,0.01220484128726852
-0.005520036515151515,0.01148074301666635
-0.005519696515151515,0.01092121253483888
-0.005519356515151516,0.01078955830382089
-0.005519016515151515,0.01111869388136622
-0.005518676515151515,0.01180987859421192
-0.005518336515151516,0.01315933446214631
-0.005517996515151515,0.01381760561723991
-0.005517656515151515,0.01487083946538573
-0.005517316515151516,0.01598990042903864
-0.005516976515151515,0.01733935629697752
-0.005516636515151515,0.01816219524084144
-0.005516296515151516,0.01964330533979382
-0.005515956515151515,0.0200382680328512
-0.005515616515151515,0.0200382680328512
-0.005515276515151516,0.01875463928042581
-0.005514936515151515,0.01720770206595929
-0.005514596515151515,0.01579241908251333
-0.005514256515151516,0.01421256831029746
-0.005513916515151515,0.01335681580867611
-0.005513576515151515,0.01302768023113053
-0.005513236515151516,0.01259980398032207
-0.005512896515151515,0.01236940907603939
-0.005512556515151515,0.01256689042256674
-0.005512216515151516,0.01227066840277572
-0.005511876515151515,0.01253397686481218
-0.005511536515151515,0.01240232263379395
-0.005511196515151516,0.01177696503645737
-0.005510856515151515,0.01184279215196648
-0.005510516515151515,0.01194153282523015
-0.005510176515151516,0.01217192772951205
-0.005509836515151515,0.01194153282523015
-0.005509496515151515,0.01164531080543914
-0.005509156515151515,0.01085538541932977
-0.005508816515151515,0.01088829897708432
-0.005508476515151515,0.01088829897708432
-0.005508136515151515,0.01125034811238445
-0.005507796515151515,0.01174405147870443
-0.005507456515151515,0.01263271753807585
-0.005507116515151515,0.01309350734663965
-0.005506776515151515,0.01394925984825909
-0.005506436515151515,0.01447587677233105
-0.005506096515151515,0.01470627167661295
-0.005505756515151515,0.01434422254131186
-0.005505416515151515,0.01381760561723991
-0.005505076515151515,0.01394925984825813
-0.005504736515151515,0.01404800052152157
-0.005504396515151515,0.01391634629050358
-0.005504056515151515,0.01408091407927636
-0.005503716515151515,0.01421256831029459
-0.005503376515151515,0.01421256831029459
-0.005503036515151515,0.01368595138622168
-0.005502696515151515,0.01368595138622054
-0.005502356515151515,0.01306059378888509
-0.005502016515151515,0.01289602600011231
-0.005501676515151515,0.01190861926747404
-0.005501336515151515,0.01105286676585711
-0.005500996515151515,0.01049333628402964
-0.005500656515151515,0.01019711426423838
-0.005500316515151515,0.0100654600332204
-0.005499976515151515,0.01052624984178419
-0.005499636515151516,0.01082247186157467
-0.005499296515151515,0.01180987859421192
-0.005498956515151515,0.01227066840277572
-0.005498616515151516,0.01266563109582969
-0.005498276515151515,0.01302768023113053
-0.005497936515151515,0.01342264292418522
-0.005497596515151516,0.01375177850173019
-0.005497256515151515,0.01434422254131282
-0.005496916515151515,0.01447587677233105
-0.005496576515151516,0.01411382763703158
-0.005496236515151515,0.01388343273274902
-0.005495896515151515,0.01335681580867611
-0.005495556515151516,0.01299476667337664
-0.005495216515151515,0.01233649551828483
-0.005494876515151515,0.01161239724768458
-0.005494536515151516,0.01108578032361262
-0.005494196515151515,0.01046042272627508
-0.005493856515151515,0.009966719359956725
-0.005493516515151516,0.01006546003322021
-0.005493176515151515,0.009769238013429382
-0.005492836515151515,0.01052624984178419
-0.005492496515151516,0.01128326167013763
-0.005492156515151515,0.01197444638298471
-0.005491816515151515,0.01240232263379395
-0.005491476515151516,0.01309350734663839
-0.005491136515151515,0.01315933446214876
-0.005490796515151515,0.01365303782846712
-0.005490456515151516,0.01441004965682193
-0.005490116515151515,0.01506832081191307
-0.005489776515151515,0.01536454283170409
-0.005489436515151516,0.01569367840924966
-0.005489096515151515,0.01562785129374055
-0.005488756515151515,0.01500249369640396
-0.005488416515151515,0.01487083946538573
-0.005488076515151515,0.01450879033008507
-0.005487736515151515,0.01421256831029459
-0.005487396515151515,0.01434422254131282
-0.005487056515151515,0.01460753100334999
-0.005486716515151515,0.01500249369640396
-0.005486376515151515,0.01493666658089485
-0.005486036515151515,0.01510123436966596
-0.005485696515151515,0.01417965475254003
-0.005485356515151515,0.01358721071295801
-0.005485016515151515,0.01368595138622186
-0.005484676515151515,0.01378469205948535
-0.005484336515151515,0.01424548186804915
-0.005483996515151515,0.01496958013865108
-0.005483656515151515,0.01589115975577701
-0.005483316515151515,0.01671399869964093
-0.005482976515151515,0.01733935629697943
-0.005482636515151515,0.01839259014512334
-0.005482296515151515,0.01849133081838701
-0.005481956515151515,0.01875463928042263
-0.005481616515151515,0.01829384947185967
-0.005481276515151515,0.01806345456757777
-0.005480936515151515,0.01717478850820174
-0.005480596515151515,0.01552911062047688
-0.005480256515151515,0.01411382763703092
-0.005479916515151515,0.01302768023112886
-0.005479576515151515,0.01210610061400294
-0.005479236515151515,0.01062499051504787
-0.005478896515151516,0.007728597432652109
-0.005478556515151515,0.001409194343771875
-0.005478216515151515,-0.01090047625643248
-0.005477876515151516,-0.0308790058134123
-0.005477536515151515,-0.0579997774032037
-0.005477196515151515,-0.09005758265614233
-0.005476856515151516,-0.1234319302192025
-0.005476516515151515,-0.1562467473005567
-0.005476176515151515,-0.185803122164149
-0.005475836515151516,-0.2102908091334949
-0.005475496515151515,-0.227636254070191
-0.005475156515151515,-0.2390901721687769
-0.005474816515151516,-0.2450475261223409
-0.005474476515151515,-0.2464298955480431
-0.005474136515151515,-0.2449158718913335
-0.005473796515151516,-0.2409333314030394
-0.005473456515151515,-0.2347455825451754
-0.005473116515151515,-0.227932476089982
-0.005472776515151516,-0.2205269255952202
-0.005472436515151515,-0.212923893753904
-0.005472096515151515,-0.2052550347970922
-0.005471756515151516,-0.1979153114178393
-0.005471416515151515,-0.1905426744808052
-0.005471076515151515,-0.1832687782170481
-0.005470736515151516,-0.1762252768575857
-0.005470396515151515,-0.1698071330954342
-0.005470056515151515,-0.1634877300065593
-0.005469716515151516,-0.1572670675909479
-0.005469376515151515,-0.1514413678683913
-0.005469036515151515,-0.1454511003570619
-0.005468696515151516,-0.1397899684232781
-0.005468356515151515,-0.1344579720670399
-0.005468016515151515,-0.1286980994599924
-0.005467676515151516,-0.1233661031037541
-0.005467336515151515,-0.1180011931897613
-0.005466996515151515,-0.1129325052955595
-0.005466656515151515,-0.108587915671958
-0.005466316515151515,-0.1049345107611956
-0.005465976515151515,-0.1013469329659554
-0.005465636515151515,-0.09782518228621781
-0.005465296515151515,-0.09397429602892768
-0.005464956515151515,-0.09015632332940599
-0.005464616515151515,-0.08594338793682268
-0.005464276515151515,-0.08182919321749592
-0.005463936515151515,-0.07791247984471075
-0.005463596515151515,-0.07439072916497314
-0.005463256515151515,-0.07080315136972008
-0.005462916515151515,-0.06731431424774337
-0.005462576515151515,-0.06425335337656957
-0.005462236515151515,-0.06152152808293754
-0.005461896515151515,-0.05944797394440422
-0.005461556515151515,-0.05747316047913079
-0.005461216515151515,-0.05549834701385376
-0.005460876515151515,-0.05352353354858393
-0.005460536515151515,-0.05098918960148304
-0.005460196515151515,-0.04855358632764139
-0.005459856515151515,-0.04611798305380859
-0.005459516515151515,-0.04397860179976238
-0.005459176515151515,-0.04164173919918457
-0.005458836515151515,-0.03930487659861526
-0.005458496515151515,-0.03713258178681449
-0.005458156515151515,-0.03545399034132993
-0.005457816515151515,-0.03426910226216803
-0.005457476515151515,-0.03377539889584967
-0.005457136515151516,-0.03328169552953221
-0.005456796515151515,-0.03295255995198575
-0.005456456515151515,-0.03216263456587638
-0.005456116515151516,-0.03054987023590601
-0.005455776515151515,-0.02900293302143889
-0.005455436515151515,-0.02702811955616546
-0.005455096515151516,-0.0241646400315242
-0.005454756515151515,-0.02149864185339987
-0.005454416515151515,-0.01939217415710821
-0.005454076515151516,-0.01761484203836537
-0.005453736515151515,-0.01623247261267073
-0.005453396515151515,-0.01475136251371566
-0.005453056515151516,-0.01346773376129027
-0.005452716515151515,-0.01267780837517857
-0.005452376515151515,-0.01159166096927818
-0.005452036515151516,-0.01053842712113427
-0.005451696515151515,-0.009847242408286654
-0.005451356515151515,-0.009386452599722855
-0.005451016515151516,-0.009024403464423385
-0.005450676515151515,-0.008761095002386268
-0.005450336515151515,-0.008662354329122598
-0.005449996515151516,-0.008333218751577625
-0.005449656515151515,-0.00764203403873133
-0.005449316515151515,-0.006457145959567274
-0.005448976515151516,-0.005239344322650873
-0.005448636515151515,-0.004087369801239162
-0.005448296515151515,-0.002507519029020421
-0.005447956515151516,-0.001355544507610922
-0.005447616515151515,-0.0005656191215015517
-0.005447276515151515,0.000191392706853262
-0.005446936515151516,0.0005534418421533904
-0.005446596515151515,0.000718009630926178
-0.005446256515151515,0.0006192689576625041
-0.005445916515151515,9.265203358959154e-05
-0.005445576515151515,-0.0002364835439570577
-0.005445236515151515,-0.0008289275835380062
-0.005444896515151515,-0.001388458065365479
-0.005444556515151515,-0.0008947546990461021
-0.005444216515151515,-0.0003352242172196505
-0.005443876515151515,0.0006850960731716212
-0.005443536515151515,0.001902897710092688
-0.005443196515151515,0.003252353578027074
-0.005442856515151515,0.004667636561473031
-0.005442516515151515,0.005358821274317652
-0.005442176515151515,0.004766377234736701
-0.005441836515151515,0.004108106079645558
-0.005441496515151515,0.003318180693535409
-0.005441156515151515,0.002890304442726945
-0.005440816515151515,0.003054872231499733
-0.005440476515151515,0.00371314338659201
-0.005440136515151515,0.004338500983927459
-0.005439796515151515,0.005161339927791386
-0.005439456515151515,0.005424648389827124
-0.005439116515151515,0.005029685696773157
-0.005438776515151515,0.005753783967373414
-0.005438436515151515,0.0054246483898291
-0.005438096515151515,0.006115833102673543
-0.005437756515151515,0.006708277142255571
-0.005437416515151515,0.007564029643874653
-0.005437076515151515,0.007893165221419626
-0.005436736515151515,0.007498202528364941
-0.005436396515151516,0.007201980508574465
-0.005436056515151515,0.006247487333691772
-0.005435716515151515,0.005819611082882528
-0.005435376515151516,0.005622129736355544
-0.005435036515151515,0.006576622911237342
-0.005434696515151515,0.007531116086119498
-0.005434356515151516,0.008880571954053885
-0.005434016515151515,0.009538843109147481
-0.005433676515151515,0.009769238013429382
-0.005433336515151516,0.009999632917710862
-0.005432996515151515,0.01026294137974774
-0.005432656515151515,0.01036168205301141
-0.005432316515151516,0.01059207695729289
-0.005431976515151515,0.01134908878564812
-0.005431636515151515,0.01223775484502116
-0.005431296515151516,0.01312642090439259
-0.005430956515151515,0.01342264292418522
-0.005430616515151515,0.01309350734663965
-0.005430276515151516,0.01233649551828621
-0.005429936515151515,0.01157948368993002
-0.005429596515151515,0.01098703965034799
-0.005429256515151516,0.01049333628403054
-0.005428916515151515,0.01078955830382065
-0.005428576515151515,0.01069081763055698
-0.005428236515151516,0.01092121253483846
-0.005427896515151515,0.01082247186157521
-0.005427556515151515,0.01223775484502116
-0.005427216515151516,0.01329098869316699
-0.005426876515151515,0.01470627167661295
-0.005426536515151515,0.01552911062047688
-0.005426196515151516,0.01589115975577701
-0.005425856515151515,0.01556202417823143
-0.005425516515151515,0.0147391852343675
-0.005425176515151515,0.01348847003969433
-0.005424836515151515,0.01273145821133952
-0.005424496515151515,0.01250106330705762
-0.005424156515151515,0.01286311244235775
-0.005423816515151515,0.01286311244235805
-0.005423476515151515,0.01302768023113053
-0.005423136515151515,0.01269854465358496
-0.005422796515151515,0.01161239724768242
-0.005422456515151515,0.01042750916852052
-0.005422116515151515,0.00967049734016571
-0.005421776515151515,0.009637583782411573
-0.005421436515151515,0.009867978686693053
-0.005421096515151515,0.01085538541932977
-0.005420756515151515,0.01167822436319513
-0.005420416515151515,0.01246814974930307
-0.005420076515151515,0.01335681580867611
-0.005419736515151515,0.01450879033008728
-0.005419396515151515,0.0154303699472132
-0.005419056515151515,0.01625320889107713
-0.005418716515151515,0.01622029533332167
-0.005418376515151515,0.01572659196700422
-0.005418036515151515,0.0147391852343675
-0.005417696515151515,0.01431130898355712
-0.005417356515151515,0.01368595138622168
-0.005417016515151515,0.01296185311562142
-0.005416676515151515,0.01312642090439462
-0.005416336515151515,0.01335681580867611
-0.005415996515151515,0.01421256831029459
-0.005415656515151515,0.01493666658089646
-0.005415316515151515,0.01582533264026789
-0.005414976515151515,0.01589115975577701
-0.005414636515151516,0.01618738177556748
-0.005414296515151515,0.01589115975577701
-0.005413956515151515,0.01546328350496776
-0.005413616515151516,0.01552911062047676
-0.005413276515151515,0.01523288860068586
