Analysis/New Tests/wrd01_d2s01_new/cmb06_ch25.csv

#Digilent WaveForms Oscilloscope Acquisition
#Device Name: ADP3450
#Serial Number: SN:210018B9D9B0
#Date Time: 2024-08-14 15:45:10.861.663.400
#Sample rate: 5.88235e+06Hz
#Samples: 32768
#Trigger: Source: Channel 3 Type: Edge Condition: Rising Level: 60 mV Hyst.: Auto HoldOff: 0 s
#Channel 3: Range: 100 mV/div Offset: 0 V Attenuation: 1 X Coupling: DC Bandwidth: 0 Hz Sample Mode: Average

Time (s),Channel 3 (V)
-0.003798478385737829,0.2083328348891827
-0.003798308385737829,0.2208070732781372
-0.003798138385737829,0.2324255591654974
-0.003797968385737829,0.2405552079308645
-0.003797798385737829,0.2480594990989442
-0.003797628385737829,0.2541155937257716
-0.003797458385737829,0.2585918375803914
-0.003797288385737829,0.2617186255670687
-0.003797118385737829,0.2638909203788712
-0.003796948385737829,0.2651745491312982
-0.003796778385737829,0.265437857593339
-0.003796608385737829,0.265240376246812
-0.003796438385737829,0.2647795864382482
-0.003796268385737829,0.2627389458574693
-0.003796098385737829,0.2612907493162677
-0.003795928385737829,0.2588222324846823
-0.003795758385737829,0.2563537156530761
-0.003795588385737829,0.2533585818974168
-0.003795418385737829,0.2500343125642066
-0.003795248385737829,0.2466113025577389
-0.003795078385737829,0.2431224654357559
-0.003794908385737829,0.2396336283137792
-0.003794738385737829,0.2361777047495506
-0.003794568385737829,0.2315698066639
-0.003794398385737829,0.2276201797333532
-0.003794228385737829,0.2230122816477236
-0.003794058385737829,0.2185360377931036
-0.003793888385737829,0.2138293990342109
-0.003793718385737829,0.2092215009485725
-0.003793548385737829,0.205041479113727
-0.003793378385737829,0.2024083944933625
-0.003793208385737829,0.1969118303483614
-0.003793038385737829,0.1934229932263747
-0.003792868385737829,0.1892100578338004
-0.003792698385737829,0.1852604309032526
-0.003792528385737829,0.1823640378208372
-0.003792358385737829,0.1786448057945722
-0.003792188385737829,0.1756167584811585
-0.003792018385737829,0.1728191060720207
-0.003791848385737829,0.1699227129896199
-0.003791678385737829,0.1672238012537507
-0.003791508385737829,0.16468945730664
-0.003791338385737829,0.1615955828777116
-0.003791168385737829,0.1590941524883698
-0.003790998385737829,0.1560002780594426
-0.003790828385737829,0.1530709714192867
-0.003790658385737829,0.1506024545876986
-0.003790488385737829,0.1478706292940613
-0.003790318385737829,0.1448754955383966
-0.003790148385737829,0.1420449295715047
-0.003789978385737829,0.1399055483174624
-0.003789808385737829,0.1371078959083262
-0.003789638385737829,0.1346393790767384
-0.003789468385737829,0.1327633062847196
-0.003789298385737829,0.1298998267600731
-0.003789128385737829,0.1279250132947997
-0.003788958385737829,0.1259501998295299
-0.003788788385737829,0.124008299922011
-0.003788618385737829,0.1217043508791968
-0.003788448385737829,0.1198282780871741
-0.003788278385737829,0.1172939341400778
-0.003788108385737829,0.1152203800015407
-0.003787938385737829,0.1133443072095343
-0.003787768385737829,0.1111720123977341
-0.003787598385737829,0.1096250751832716
-0.003787428385737829,0.1073869532559526
-0.003787258385737829,0.1054779669061918
-0.003787088385737829,0.1037335483452002
-0.003786918385737829,0.1014954264178944
-0.003786748385737829,0.09994848920342901
-0.003786578385737829,0.09790784862265108
-0.003786408385737829,0.09632799785042262
-0.003786238385737829,0.09507728265575172
-0.003786068385737829,0.09356325899904211
-0.003785898385737829,0.09142387774499977
-0.003785728385737829,0.09010733543481601
-0.003785558385737829,0.08803378129628406
-0.003785388385737829,0.08645393052405434
-0.003785218385737829,0.08457785773204801
-0.003785048385737829,0.08280052561330192
-0.003784878385737829,0.08062823080150512
-0.003784708385737829,0.07875215800949481
-0.003784538385737829,0.07694191233299737
-0.003784368385737829,0.07536206156077777
-0.003784198385737829,0.07394677857732607
-0.003784028385737829,0.07266314982489833
-0.003783858385737829,0.07032628722432904
-0.003783688385737829,0.0714782617457322
-0.003783518385737829,0.07006297876229346
-0.003783348385737829,0.06937179404944514
-0.003783178385737829,0.06910848558740618
-0.003783008385737829,0.06818690597027857
-0.003782838385737829,0.06739698058417065
-0.003782668385737829,0.06690327721785173
-0.003782498385737829,0.06598169760072661
-0.003782328385737829,0.06502720442584456
-0.003782158385737829,0.06430310615524085
-0.003781988385737829,0.06338152653811324
-0.003781818385737829,0.06269034182526879
-0.003781648385737829,0.06173584865038712
-0.003781478385737829,0.06051804701346898
-0.003781308385737829,0.05985977585837802
-0.003781138385737829,0.05860906066370245
-0.003780968385737829,0.05768748104657485
-0.003780798385737829,0.05702920989148491
-0.003780628385737829,0.05591014892783081
-0.003780458385737829,0.05485691507968486
-0.003780288385737829,0.05380368123154095
-0.003780118385737829,0.05222383045931837
-0.003779948385737829,0.05153264574647268
-0.003779778385737829,0.05107185593790887
-0.003779608385737829,0.04998570853201047
-0.003779438385737829,0.04899830179937358
-0.003779268385737829,0.04870207977958184
-0.003779098385737829,0.04810963573999873
-0.003778928385737829,0.04712222900736202
-0.003778758385737829,0.04755010525817126
-0.003778588385737829,0.0459044273704464
-0.003778418385737829,0.04557529179289844
-0.003778248385737829,0.04491702063780909
-0.003778078385737829,0.04425874948271394
-0.003777908385737829,0.04337008342334251
-0.003777738385737829,0.04290929361477872
-0.003777568385737829,0.04192188688214379
-0.003777398385737829,0.04063825812971661
-0.003777228385737829,0.04004581409013441
-0.003777058385737829,0.03889383956872095
-0.003776888385737829,0.03790643283608603
-0.003776718385737829,0.03761021081629502
-0.003776548385737829,0.03649114985264211
-0.003776378385737829,0.0362278413906041
-0.003776208385737829,0.0352404346579705
-0.003776038385737829,0.03448342282961054
-0.003775868385737829,0.03362767032799361
-0.003775698385737829,0.03339727542371171
-0.003775528385737829,0.03310105340392124
-0.003775358385737829,0.03280483138413022
-0.003775188385737829,0.03231112801781312
-0.003775018385737829,0.03231112801781073
-0.003774848385737829,0.03198199244026576
-0.003774678385737829,0.03191616532475664
-0.003774508385737829,0.03145537551619368
-0.003774338385737829,0.03092875859212088
-0.003774168385737829,0.03069836368783887
-0.003773998385737829,0.03198199244026534
-0.003773828385737829,0.03175159753598385
-0.003773658385737829,0.03158702974721107
-0.003773488385737829,0.03152120263170207
-0.003773318385737829,0.03125789416966598
-0.003773148385737829,0.03155411618945544
-0.003772978385737829,0.03148828907394764
-0.003772808385737829,0.03099458570762904
-0.003772638385737829,0.03043505522580157
-0.003772468385737829,0.02957930272418464
-0.003772298385737829,0.02951347560867409
-0.003772128385737829,0.02862480954930416
-0.003771958385737829,0.0280652790674755
-0.003771788385737829,0.0275715757011551
-0.003771618385737829,0.0268803909883094
-0.003771448385737829,0.02651834185300993
-0.003771278385737829,0.02546510800486536
-0.003771108385737829,0.0250701453118102
-0.003770938385737829,0.02414856569468452
-0.003770768385737829,0.02339155386632635
-0.003770598385737829,0.02237123357593508
-0.003770428385737829,0.02187753020961762
-0.003770258385737829,0.02144965395880826
-0.003770088385737829,0.02131799972778949
-0.003769918385737829,0.02026476587964725
-0.003769748385737829,0.01963940828230684
-0.003769578385737829,0.01828995241437
-0.003769408385737829,0.01819121174110632
-0.003769238385737829,0.01782916260580686
-0.003769068385737829,0.01733545923948874
-0.003768898385737829,0.01753294058601447
-0.003768728385737829,0.01687466943092404
-0.003768558385737829,0.01674301519990581
-0.003768388385737829,0.01674301519990581
-0.003768218385737829,0.0168417558731693
-0.003768048385737829,0.01723671856622345
-0.003767878385737829,0.01687466943092536
-0.003767708385737829,0.01740128635499785
-0.003767538385737829,0.01789498972131531
-0.003767368385737829,0.01786207616356076
-0.003767198385737829,0.01842160664538721
-0.003767028385737829,0.01805955751008876
-0.003766858385737829,0.0189482235694579
-0.003766688385737829,0.01786207616356136
-0.003766518385737829,0.01819121174110632
-0.003766348385737829,0.01842160664538823
-0.003766178385737829,0.01805955751008876
-0.003766008385737829,0.01838869308763307
-0.003765838385737829,0.01809247106784373
-0.003765668385737829,0.0175987677015243
-0.003765498385737829,0.0175987677015243
-0.003765328385737829,0.01717089145071506
-0.003765158385737829,0.01707215077745157
-0.003764988385737829,0.01773042193254133
-0.003764818385737829,0.01776333549029696
-0.003764648385737829,0.01585434914053139
-0.003764478385737829,0.01509733731217796
-0.003764308385737829,0.01493276952340517
-0.003764138385737829,0.01480111529238718
-0.003763968385737829,0.01463654750361446
-0.003763798385737829,0.0146694610613686
-0.003763628385737829,0.01453780683034983
-0.003763458385737829,0.01417575769505036
-0.003763288385737829,0.01410993057954124
-0.003763118385737829,0.0134516594244513
-0.003762948385737829,0.01374788144424058
-0.003762778385737829,0.01341874586669674
-0.003762608385737829,0.01292504250037898
-0.003762438385737829,0.01243133913405883
-0.003762268385737829,0.01236551201854972
-0.003762098385737829,0.01229968490304072
-0.003761928385737829,0.01226677134528611
-0.003761758385737829,0.01200346288325055
-0.003761588385737829,0.01164141374795078
-0.003761418385737829,0.01114771038163111
-0.003761248385737829,0.01131227817040389
-0.003761078385737829,0.01055526634205045
-0.003760908385737829,0.0102919578800131
-0.003760738385737829,0.01045652566878481
-0.003760568385737829,0.009798254513696657
-0.003760398385737829,0.00973242739818515
-0.003760228385737829,0.009567859609412364
-0.003760058385737829,0.01002864941797533
-0.003759888385737829,0.009995735860221667
-0.003759718385737829,0.009995735860221606
-0.003759548385737829,0.01016030364899379
-0.003759378385737829,0.01048943922653996
-0.003759208385737829,0.01075274768857642
-0.003759038385737829,0.01062109345755843
-0.003758868385737829,0.00992990874471375
-0.003758698385737829,0.01019321720674847
-0.003758528385737829,0.009732427398186826
-0.003758358385737829,0.009864081629203377
-0.003758188385737829,0.009864081629203377
-0.003758018385737829,0.009929908744712493
-0.003757848385737829,0.01048943922653895
-0.003757678385737829,0.01052235278429446
-0.003757508385737829,0.01098314259285664
-0.003757338385737829,0.01081857480408452
-0.003757168385737829,0.01025904432225806
-0.003756998385737829,0.01065400701531275
-0.003756828385737829,0.009995735860222803
-0.003756658385737829,0.009896995186958116
-0.003756488385737829,0.009732427398185748
-0.003756318385737829,0.009008329127583816
-0.003756148385737829,0.008415885088002865
-0.003755978385737829,0.00779052749066628
-0.003755808385737829,0.007329737682103319
-0.003755638385737829,0.006868947873539519
-0.003755468385737829,0.008876674896559359
-0.003755298385737829,0.006046108929675771
-0.003755128385737829,0.006605639411502225
-0.003754958385737829,0.006901861431293239
-0.003754788385737829,0.007461391913119691
-0.003754618385737829,0.007625959701893195
-0.003754448385737829,0.008382971530245554
-0.003754278385737829,0.008810847781058987
-0.003754108385737829,0.009600773167166921
-0.003753938385737829,0.01022613076450351
-0.003753768385737829,0.010259044322258
-0.003753598385737829,0.01055526634204854
-0.003753428385737829,0.01058817989980351
-0.003753258385737829,0.01085148836183979
-0.003753088385737829,0.01068692057306731
-0.003752918385737829,0.01062109345755819
-0.003752748385737829,0.01062109345755819
-0.003752578385737829,0.01029195788001322
-0.003752408385737829,0.01019321720674931
-0.003752238385737829,0.01009447653348564
-0.003752068385737829,0.009995735860221606
-0.003751898385737829,0.009896995186957936
-0.003751728385737829,0.009699513840430952
-0.003751558385737829,0.00950203249390361
-0.003751388385737829,0.008876674896568938
-0.003751218385737829,0.008745020665548916
-0.003751048385737829,0.008613366434530208
-0.003750878385737829,0.008086749510457293
-0.003750708385737829,0.008481712203511261
-0.003750538385737829,0.008218403741476001
-0.003750368385737829,0.008284230856984397
-0.003750198385737829,0.008020922394949137
-0.003750028385737829,0.008086749510457293
-0.003749858385737829,0.008317144414739193
-0.003749688385737829,0.008415885088002685
-0.003749518385737829,0.008086749510457892
-0.003749348385737829,0.008415885088002267
-0.003749178385737829,0.008712107107792803
-0.003749008385737829,0.008646279992284765
-0.003748838385737829,0.008613366434530208
-0.003748668385737829,0.008547539319021214
-0.003748498385737829,0.008218403741476121
-0.003748328385737829,0.007922181721685047
-0.003748158385737829,0.007790527490666759
-0.003747988385737829,0.007724700375157166
-0.003747818385737829,0.007593046144138938
-0.003747648385737829,0.007428478355366152
-0.003747478385737829,0.007230997008839168
-0.003747308385737829,0.007263910566593306
-0.003747138385737829,0.006868947873540118
-0.003746968385737829,0.006868947873538681
-0.003746798385737829,0.006737293642520453
-0.003746628385737829,0.006803120758029567
-0.003746458385737829,0.007099342777820043
-0.003746288385737829,0.007000602104557089
-0.003746118385737829,0.005256183543571729
-0.003745948385737829,0.006309417391712407
-0.003745778385737829,0.006967688546802352
-0.003745608385737829,0.008514625761266537
-0.003745438385737829,0.008218403741476062
-0.003745268385737829,0.007856354606176053
-0.003745098385737829,0.008086749510456456
-0.003744928385737829,0.008481712203512518
-0.003744758385737829,0.008777934223302994
-0.003744588385737829,0.008942502012075779
-0.003744418385737829,0.008942502012075779
-0.003744248385737829,0.00858045287677631
-0.003744078385737829,0.00910706980084665
-0.003743908385737829,0.00881084778105779
-0.003743738385737829,0.008942502012075779
-0.003743568385737829,0.008679193550039321
-0.003743398385737829,0.008317144414739852
-0.003743228385737829,0.008613366434529668
-0.003743058385737829,0.00910706980084677
-0.003742888385737829,0.008843761338812527
-0.003742718385737829,0.009074156243094007
-0.003742548385737829,0.008876674896566664
-0.003742378385737829,0.008218403741476719
-0.003742208385737829,0.006506898738241666
-0.003742038385737829,0.00667146652701074
-0.003741868385737829,0.006605639411502464
-0.003741698385737829,0.00653981229599311
-0.003741528385737829,0.006046108929674754
-0.003741358385737829,0.006046108929674754
-0.003741188385737829,0.005289097101321317
-0.003741018385737829,0.00528909710131994
-0.003740848385737829,0.00528909710131994
-0.003740678385737829,0.005354924216829054
-0.003740508385737829,0.005519492005601839
-0.003740338385737829,0.005749886909883321
-0.003740168385737829,0.006079022487428712
-0.003739998385737829,0.006309417391710372
-0.003739828385737829,0.006408158064974523
-0.003739658385737829,0.006803120758029567
-0.003739488385737829,0.006836034315784124
-0.003739318385737829,0.006836034315784124
-0.003739148385737829,0.006704380084766135
-0.003738978385737829,0.006408158064975421
-0.003738808385737829,0.006111936045184944
-0.003738638385737829,0.005914454698656525
-0.003738468385737829,0.005519492005601839
-0.003738298385737829,0.005190356428056867
-0.003738128385737829,0.004564998830720821
-0.003737958385737829,0.004202949695420214
-0.003737788385737829,0.00364341921359412
-0.003737618385737829,0.003248456520537399
-0.003737448385737829,0.003281370078291956
-0.003737278385737829,0.003149715847273728
-0.003737108385737829,0.003347197193800712
-0.003736938385737829,0.003248456520537579
-0.003736768385737829,0.003676332771345085
-0.003736598385737829,0.001339470170773087
-0.003736428385737829,0.003775073444610313
-0.003736258385737829,0.004894134408265255
-0.003736088385737829,0.005289097101319222
-0.003735918385737829,0.00492704796602047
-0.003735748385737829,0.005124529312546436
-0.003735578385737829,0.005420751332337151
-0.003735408385737829,0.004861220850510698
-0.003735238385737829,0.004927047966019811
-0.003735068385737829,0.005091615754792298
-0.003734898385737829,0.00446625815745715
-0.003734728385737829,0.004795393735000385
-0.003734558385737829,0.005322010659075514
-0.003734388385737829,0.005881541140901968
-0.003734218385737829,0.006144849602938425
-0.003734048385737829,0.006276503833956414
-0.003733878385737829,0.006770207200274112
-0.003733708385737829,0.006967688546801634
-0.003733538385737829,0.007691786817403387
-0.003733368385737829,0.00811966306821185
-0.003733198385737829,0.008975415569830336
-0.003733028385737829,0.008876674896566844
-0.003732858385737829,0.00858045287677619
-0.003732688385737829,0.009271637589618836
-0.003732518385737829,0.008712107107794119
-0.003732348385737829,0.008843761338812107
-0.003732178385737829,0.008481712203511979
-0.003732008385737829,0.008481712203511979
-0.003731838385737829,0.008415885088002985
-0.003731668385737829,0.008317144414739552
-0.003731498385737829,0.008580452876774693
-0.003731328385737829,0.008646279992284765
-0.003731158385737829,0.008942502012075779
-0.003730988385737829,0.009107069800848265
-0.003730818385737829,0.009304551147375549
-0.003730648385737829,0.009403291820639219
-0.003730478385737829,0.009403291820639578
-0.003730308385737829,0.008777934223302994
-0.003730138385737829,0.008942502012075779
-0.003729968385737829,0.008053835952704353
-0.003729798385737829,0.007593046144139776
-0.003729628385737829,0.00630941739171588
-0.003729458385737829,0.006013195371921273
-0.003729288385737829,0.004795393735001583
-0.003729118385737829,0.003775073444610313
-0.003728948385737829,0.00285349382748439
-0.003728778385737829,0.002261049787901764
-0.003728608385737829,0.001668605748320813
-0.003728438385737829,0.00114198882424766
-0.003728268385737829,0.001207815939754859
-0.003728098385737829,0.001471124401791315
-0.003727928385737829,0.001833173537090785
-0.003727758385737829,0.002919320942989852
-0.003727588385737829,0.00361050565583627
-0.003727418385737829,0.004301690368680712
-0.003727248385737829,0.006836034315784124
-0.003727078385737829,0.006803120758029567
-0.003726908385737829,0.007527219028629823
-0.003726738385737829,0.007988008837192785
-0.003726568385737829,0.008415885088002086
-0.003726398385737829,0.008679193550038364
-0.003726228385737829,0.008745020665548437
-0.003726058385737829,0.008580452876775651
-0.003725888385737829,0.008415885088002865
-0.003725718385737829,0.007856354606176412
-0.003725548385737829,0.00802092239494788
-0.003725378385737829,0.006408158064980749
-0.003725208385737829,0.006342330949465947
-0.003725038385737829,0.006441071622729439
-0.003724868385737829,0.00574988690988374
-0.003724698385737829,0.005585319121111253
-0.003724528385737829,0.004762480177248524
-0.003724358385737829,0.005519492005599085
-0.003724188385737829,0.005256183543565383
-0.003724018385737829,0.005256183543565383
-0.003723848385737829,0.005190356428056269
-0.003723678385737829,0.00505870219703828
-0.003723508385737829,0.005716973352127985
-0.003723338385737829,0.005453664890093683
-0.003723168385737829,0.005947368256410963
-0.003722998385737829,0.005881541140901968
-0.003722828385737829,0.006177763160692982
-0.003722658385737829,0.005947368256411501
-0.003722488385737829,0.005716973352129601
-0.003722318385737829,0.005190356428058185
-0.003722148385737829,0.004597912388473522
-0.003721978385737829,0.004202949695419555
-0.003721808385737829,0.003676332771346642
-0.003721638385737829,0.00334719719380167
-0.003721468385737829,0.002853493827483612
-0.003721298385737829,0.002754753154219402
-0.003721128385737829,0.002524358249937622
-0.003720958385737829,0.0027876667119736
-0.003720788385737829,0.0030180616162555
-0.003720618385737829,0.003083888731764494
-0.003720448385737829,0.0032484565205371
-0.003720278385737829,0.003775073444608397
-0.003720108385737829,0.004466258157453498
-0.003719938385737829,0.005387837774583611
-0.003719768385737829,0.005914454698656525
