Analysis/New Tests/wrd01_d2s01_new/cmb02_ch34.csv

#Digilent WaveForms Oscilloscope Acquisition
#Device Name: ADP3450
#Serial Number: SN:210018B9D9B0
#Date Time: 2024-08-14 16:41:36.365.484.900
#Sample rate: 5.88235e+06Hz
#Samples: 32768
#Trigger: Source: Channel 3 Type: Edge Condition: Rising Level: 60 mV Hyst.: Auto HoldOff: 0 s
#Channel 3: Range: 100 mV/div Offset: 0 V Attenuation: 1 X Coupling: DC Bandwidth: 0 Hz Sample Mode: Average

Time (s),Channel 3 (V)
-0.003798424925000973,0.209945599219156
-0.003798254925000973,0.2238022070338468
-0.003798084925000973,0.2360131369607653
-0.003797914925000973,0.2467429567887509
-0.003797744925000973,0.2550371733429148
-0.003797574925000973,0.2635946983590841
-0.003797404925000973,0.2682025964447221
-0.003797234925000973,0.2718889149132377
-0.003797064925000973,0.2747194808801244
-0.003796894925000973,0.2757727147282703
-0.003796724925000973,0.2759701960747951
-0.003796554925000973,0.2746207402068607
-0.003796384925000973,0.2728763216458692
-0.003796214925000973,0.2705065454875358
-0.003796044925000973,0.2675772388473855
-0.003795874925000973,0.2637263525901024
-0.003795704925000973,0.2604679103723946
-0.003795534925000973,0.2568474190193999
-0.003795364925000973,0.2530623598776258
-0.003795194925000973,0.2489810787160536
-0.003795024925000973,0.2450314517855139
-0.003794854925000973,0.2412793062014944
-0.003794684925000973,0.2377246419640087
-0.003794514925000973,0.2333142252248916
-0.003794344925000973,0.2294633389676084
-0.003794174925000973,0.2257111933835957
-0.003794004925000973,0.2214324308754965
-0.003793834925000973,0.2175815446182133
-0.003793664925000973,0.2137964854764461
-0.003793494925000973,0.2100443398924197
-0.003793324925000973,0.2063251078661547
-0.003793154925000973,0.202836270744178
-0.003792984925000973,0.1994790878532069
-0.003792814925000973,0.1961548185199966
-0.003792644925000973,0.1933242525531098
-0.003792474925000973,0.1900658103354035
-0.003792304925000973,0.1868731952332115
-0.003792134925000973,0.1841413699395882
-0.003791964925000973,0.1815741124347278
-0.003791794925000973,0.1785460651213086
-0.003791624925000973,0.1760446347319668
-0.003791454925000973,0.1729178467452793
-0.003791284925000973,0.1701531078938965
-0.003791114925000973,0.1679808130820997
-0.003790944925000973,0.165281901346222
-0.003790774925000973,0.1625171624948392
-0.003790604925000973,0.159390374508162
-0.003790434925000973,0.1572180796963555
-0.003790264925000973,0.1545191679604818
-0.003790094925000973,0.1513923799737989
-0.003789924925000973,0.1483643326603797
-0.003789754925000973,0.1452375446736968
-0.003789584925000973,0.1427032007265959
-0.003789414925000973,0.1398397212019494
-0.003789244925000973,0.1376345128323941
-0.003789074925000973,0.134738119749993
-0.003788904925000973,0.1324999978226791
-0.003788734925000973,0.1302947894531278
-0.003788564925000973,0.1283199759878544
-0.003788394925000973,0.1269376065621595
-0.003788224925000973,0.1249957066546441
-0.003788054925000973,0.1244361761728167
-0.003787884925000973,0.1209802526085858
-0.003787714925000973,0.1196637102984059
-0.003787544925000973,0.1177876375063961
-0.003787374925000973,0.1157469969256104
-0.003787204925000973,0.1140025783646221
-0.003787034925000973,0.1119619377838395
-0.003786864925000973,0.1101516921073356
-0.003786694925000973,0.1083414464308382
-0.003786524925000973,0.1063008058500557
-0.003786354925000973,0.1043259923847787
-0.003786184925000973,0.1023511789195088
-0.003786014925000973,0.1004421925697445
-0.003785844925000973,0.09856611977773154
-0.003785674925000973,0.09678878765898868
-0.003785504925000973,0.09557098602207009
-0.003785334925000973,0.09438609794290406
-0.003785164925000973,0.09329995053700565
-0.003784994925000973,0.09227963024661437
-0.003784824925000973,0.09102891505193984
-0.003784654925000973,0.09027190322358639
-0.003784484925000973,0.08931741004870422
-0.003784314925000973,0.08833000331606931
-0.003784144925000973,0.08747425081444904
-0.003783974925000973,0.08655267119732143
-0.003783804925000973,0.08523612888714156
-0.003783634925000973,0.08431454927001156
-0.003783464925000973,0.08316257474860206
-0.003783294925000973,0.08181311888066768
-0.003783124925000973,0.08066114435925573
-0.003782954925000973,0.07888381224050964
-0.003782784925000973,0.07773183771910223
-0.003782614925000973,0.07618490050463594
-0.003782444925000973,0.07496709886771732
-0.003782274925000973,0.07345307521101047
-0.003782104925000973,0.07197196511205264
-0.003781934925000973,0.07045794145534301
-0.003781764925000973,0.0693717940494446
-0.003781594925000973,0.0676273754884511
-0.003781424925000973,0.06650831452479616
-0.003781254925000973,0.06506011798359829
-0.003781084925000973,0.06354609432688602
-0.003780914925000973,0.0636448350001497
-0.003780744925000973,0.06170293509263435
-0.003780574925000973,0.06097883682203056
-0.003780404925000973,0.06005725720490297
-0.003780234925000973,0.05867488777921408
-0.003780064925000973,0.05804953018187498
-0.003779894925000973,0.05768748104657485
-0.003779724925000973,0.05702920989148371
-0.003779554925000973,0.05660133364067447
-0.003779384925000973,0.05620637094761979
-0.003779214925000973,0.05561392690803776
-0.003779044925000973,0.05554809979252864
-0.003778874925000973,0.0544290388288737
-0.003778704925000973,0.05337580498072787
-0.003778534925000973,0.05462652017540105
-0.003778364925000973,0.05347454565399155
-0.003778194925000973,0.05314541007644597
-0.003778024925000973,0.05232257113258079
-0.003777854925000973,0.05163138641973634
-0.003777684925000973,0.05070980680260875
-0.003777514925000973,0.05034775766730724
-0.003777344925000973,0.04959074583895381
-0.003777174925000973,0.04804380862448962
-0.003777004925000973,0.04787924083571547
-0.003776834925000973,0.04712222900736202
-0.003776664925000973,0.04616773583247986
-0.003776494925000973,0.04573985958166912
-0.003776324925000973,0.0449170206378067
-0.003776154925000973,0.04366630544313353
-0.003775984925000973,0.04307386140355012
-0.003775814925000973,0.04231684957519669
-0.003775644925000973,0.04159275130459643
-0.003775474925000973,0.04159275130459541
-0.003775304925000973,0.04103322082276896
-0.003775134925000973,0.04070408524522338
-0.003774964925000973,0.04004581409013105
-0.003774794925000973,0.0393875429350411
-0.003774624925000973,0.03872927177994996
-0.003774454925000973,0.03797225995159449
-0.003774284925000973,0.03761021081629502
-0.003774114925000973,0.03705068033446755
-0.003773944925000973,0.03603036004407448
-0.003773774925000973,0.03504295331143956
-0.003773604925000973,0.03491129908042134
-0.003773434925000973,0.0341213736943134
-0.003773264925000973,0.03362767032799361
-0.003773094925000973,0.03293648561514791
-0.003772924925000973,0.03254152292209395
-0.003772754925000973,0.03194907888251119
-0.003772584925000973,0.0312578941696655
-0.003772414925000973,0.03142246195843799
-0.003772244925000973,0.03066545013008347
-0.003772074925000973,0.03083001791885626
-0.003771904925000973,0.0302704874370298
-0.003771734925000973,0.03083001791885626
-0.003771564925000973,0.0303363145525379
-0.003771394925000973,0.03086293147660986
-0.003771224925000973,0.0303363145525379
-0.003771054925000973,0.03069836368783803
-0.003770884925000973,0.03069836368783803
-0.003770714925000973,0.03063253657232891
-0.003770544925000973,0.03059962301457436
-0.003770374925000973,0.0301059196482569
-0.003770204925000973,0.03013883320601056
-0.003770034925000973,0.02951347560867397
-0.003769864925000973,0.02898685868460201
-0.003769694925000973,0.02885520445358283
-0.003769524925000973,0.02822984685624624
-0.003769354925000973,0.02984261118621954
-0.003769184925000973,0.02767031637441877
-0.003769014925000973,0.02767031637441877
-0.003768844925000973,0.02776905704768244
-0.003768674925000973,0.02743992147013687
-0.003768504925000973,0.02694621810381852
-0.003768334925000973,0.02681456387280029
-0.003768164925000973,0.02605755204444548
-0.003767994925000973,0.02536636733159978
-0.003767824925000973,0.02493849108079053
-0.003767654925000973,0.02454352838773525
-0.003767484925000973,0.02421439281019028
-0.003767314925000973,0.02385234367489015
-0.003767144925000973,0.02352320809734488
-0.003766974925000973,0.02368777588611736
-0.003766804925000973,0.02408273857917205
-0.003766634925000973,0.02375360300162684
-0.003766464925000973,0.02395108434815382
-0.003766294925000973,0.0236548623283628
-0.003766124925000973,0.02362194877060789
-0.003765954925000973,0.02342446742408091
-0.003765784925000973,0.02342446742408091
-0.003765614925000973,0.02273328271123509
-0.003765444925000973,0.02266745559572609
-0.003765274925000973,0.02214083867165318
-0.003765104925000973,0.02200918444063501
-0.003764934925000973,0.02204209799838951
-0.003764764925000973,0.02148256751656204
-0.003764594925000973,0.02194335732512536
-0.003764424925000973,0.02168004886308938
-0.003764254925000973,0.02121925905452558
-0.003764084925000973,0.02177878953635263
-0.003763914925000973,0.02154839463207115
-0.003763744925000973,0.02118634549677102
-0.003763574925000973,0.02112051838126245
-0.003763404925000973,0.02141674040105292
-0.003763234925000973,0.02082429636147089
-0.003763064925000973,0.02023185232188995
-0.003762894925000973,0.02069264213045267
-0.003762724925000973,0.02079138280371634
-0.003762554925000973,0.02075846924596184
-0.003762384925000973,0.020593901457189
-0.003762214925000973,0.02042933366841621
-0.003762044925000973,0.01996854385985325
-0.003761874925000973,0.01940901337802494
-0.003761704925000973,0.01907987780047937
-0.003761534925000973,0.01901405068497038
-0.003761364925000973,0.01842160664538823
-0.003761194925000973,0.01796081683682443
-0.003761024925000973,0.01809247106784241
-0.003760854925000973,0.01838869308763367
-0.003760684925000973,0.01769750837478797
-0.003760514925000973,0.01756585414376998
-0.003760344925000973,0.01743419991275151
-0.003760174925000973,0.01733545923948784
-0.003760004925000973,0.01740128635499683
-0.003759834925000973,0.01898113712721569
-0.003759664925000973,0.01730254568173328
-0.003759494925000973,0.01723671856622429
-0.003759324925000973,0.01723671856622417
-0.003759154925000973,0.0173683727972424
-0.003758984925000973,0.0173683727972424
-0.003758814925000973,0.01746711347050607
-0.003758644925000973,0.01746711347050607
-0.003758474925000973,0.01703923721969683
-0.003758304925000973,0.0171379778929605
-0.003758134925000973,0.01684175587316948
-0.003757964925000973,0.01661136096888758
-0.003757794925000973,0.01694049654643316
-0.003757624925000973,0.01697341010418771
-0.003757454925000973,0.01641387962236024
-0.003757284925000973,0.01595308981379638
-0.003757114925000973,0.01592017625604189
-0.003756944925000973,0.01562395423625087
-0.003756774925000973,0.01572269490951556
-0.003756604925000973,0.01628222539134202
-0.003756434925000973,0.01671010164215126
-0.003756264925000973,0.0166442745266419
-0.003756094925000973,0.01651262029562391
-0.003755924925000973,0.01631513894909657
-0.003755754925000973,0.01585434914053361
-0.003755584925000973,0.01631513894909657
-0.003755414925000973,0.01618348471807834
-0.003755244925000973,0.01657844741113231
-0.003755074925000973,0.01618348471807834
-0.003754904925000973,0.01631513894909657
-0.003754734925000973,0.01674301519990605
-0.003754564925000973,0.01687466943092404
-0.003754394925000973,0.0175987677015243
-0.003754224925000973,0.01822412529886214
-0.003754054925000973,0.01891531001170658
-0.003753884925000973,0.01924444558925215
-0.003753714925000973,0.01924444558925257
-0.003753544925000973,0.01947484049353405
-0.003753374925000973,0.02006728453311608
-0.003753204925000973,0.02065972857269799
-0.003753034925000973,0.020593901457189
-0.003752864925000973,0.02065972857269811
-0.003752694925000973,0.02092303703473409
-0.003752524925000973,0.02046224722617077
-0.003752354925000973,0.02016602520637975
-0.003752184925000973,0.02023185232188875
-0.003752014925000973,0.01960649472455228
-0.003751844925000973,0.01865200154967013
-0.003751674925000973,0.01884948289619711
-0.003751504925000973,0.01789498972131531
-0.003751334925000973,0.01730254568173328
-0.003751164925000973,0.01684175587317032
-0.003750994925000973,0.01592017625604189
-0.003750824925000973,0.0157556084672691
-0.003750654925000973,0.01493276952340667
-0.003750484925000973,0.01302378317364086
-0.003750314925000973,0.01466946106136872
-0.003750144925000973,0.01374788144424279
-0.003749974925000973,0.01410993057954124
-0.003749804925000973,0.0141428441372958
-0.003749634925000973,0.01453780683034977
-0.003749464925000973,0.01496568308115973
-0.003749294925000973,0.01588726269828733
-0.003749124925000973,0.01601891692930532
-0.003748954925000973,0.01654553385337847
-0.003748784925000973,0.01710506433520594
-0.003748614925000973,0.01746711347050541
-0.003748444925000973,0.01743419991275151
-0.003748274925000973,0.01789498972131531
-0.003748104925000973,0.01786207616356076
-0.003747934925000973,0.01809247106784265
-0.003747764925000973,0.01802664395233354
-0.003747594925000973,0.01809247106784265
-0.003747424925000973,0.01769750837478797
-0.003747254925000973,0.01717089145071506
-0.003747084925000973,0.01680884231541493
-0.003746914925000973,0.01628222539134202
-0.003746744925000973,0.01572269490951454
-0.003746574925000973,0.01509733731217796
-0.003746404925000973,0.01434032548382189
-0.003746234925000973,0.01364914077097745
-0.003746064925000973,0.01341874586669555
-0.003745894925000973,0.01279338826935866
-0.003745724925000973,0.01262882048058617
-0.003745554925000973,0.01223385778753149
-0.003745384925000973,0.01187180865223076
-0.003745214925000973,0.01154267307468579
-0.003745044925000973,0.01144393240142212
-0.003744874925000973,0.01157558663244017
-0.003744704925000973,0.01147684595917668
-0.003744534925000973,0.01180598153672225
-0.003744364925000973,0.01193763576774119
-0.003744194925000973,0.01233259846079516
-0.003744024925000973,0.01308961028914997
-0.003743854925000973,0.01387953567526126
-0.003743684925000973,0.01493276952340517
-0.003743514925000973,0.01499859663891429
-0.003743344925000973,0.01549230000523294
-0.003743174925000973,0.01565686779400543
-0.003743004925000973,0.01532773221645986
-0.003742834925000973,0.01526190510095086
-0.003742664925000973,0.01532773221645986
-0.003742494925000973,0.01499859663891429
-0.003742324925000973,0.01509733731217634
-0.003742154925000973,0.01420867125280492
-0.003741984925000973,0.0143732390415777
-0.003741814925000973,0.01453780683035019
-0.003741644925000973,0.01440615259933226
-0.003741474925000973,0.01407701702178669
-0.003741304925000973,0.01364914077097822
-0.003741134925000973,0.01305669673139542
-0.003740964925000973,0.01114771038163111
-0.003740794925000973,0.01249716624956549
-0.003740624925000973,0.01203637644100415
-0.003740454925000973,0.01157558663244035
-0.003740284925000973,0.01167432730570384
-0.003740114925000973,0.0116085001901949
-0.003739944925000973,0.01170724086345858
-0.003739774925000973,0.01259590692283
-0.003739604925000973,0.01305669673139542
-0.003739434925000973,0.01434032548382314
-0.003739264925000973,0.01542647288972155
-0.003739094925000973,0.01624931183358745
-0.003738924925000973,0.01697341010418771
-0.003738754925000973,0.01743419991275067
-0.003738584925000973,0.01835577952987911
-0.003738414925000973,0.01871782866517924
-0.003738244925000973,0.01888239645395173
-0.003738074925000973,0.01907987780047937
-0.003737904925000973,0.0192115320314976
-0.003737734925000973,0.01911279135823411
-0.003737564925000973,0.01904696424272481
-0.003737394925000973,0.01822412529886088
-0.003737224925000973,0.01766459481703341
-0.003737054925000973,0.01730254568173328
-0.003736884925000973,0.01634805250685113
-0.003736714925000973,0.01568978135175999
-0.003736544925000973,0.01516316442768707
-0.003736374925000973,0.0146036339458596
-0.003736204925000973,0.01522899154319619
-0.003736034925000973,0.01387953567525946
-0.003735864925000973,0.01394536279076846
-0.003735694925000973,0.01420867125280492
-0.003735524925000973,0.01374788144424154
-0.003735354925000973,0.01397827634852302
-0.003735184925000973,0.0148340288501415
-0.003735014925000973,0.01470237461912261
-0.003734844925000973,0.01434032548382314
-0.003734674925000973,0.01526190510095074
-0.003734504925000973,0.01447197971484365
-0.003734334925000973,0.01572269490951454
-0.003734164925000973,0.01545938644747809
-0.003733994925000973,0.01549230000523216
-0.003733824925000973,0.01522899154319619
-0.003733654925000973,0.01473528817687783
-0.003733484925000973,0.01447197971484065
-0.003733314925000973,0.01407701702178669
-0.003733144925000973,0.01361622721322289
-0.003732974925000973,0.01312252384690291
-0.003732804925000973,0.01223385778753149
-0.003732634925000973,0.01220094422977693
-0.003732464925000973,0.01170724086345738
-0.003732294925000973,0.01104896970836743
-0.003732124925000973,0.01124645105489478
-0.003731954925000973,0.01131227817040395
-0.003731784925000973,0.01134519172815845
-0.003731614925000973,0.01081857480408553
-0.003731444925000973,0.01381370855974478
-0.003731274925000973,0.01223385778753149
-0.003731104925000973,0.01374788144424112
-0.003730934925000973,0.01371496788648662
-0.003730764925000973,0.01358331365546833
-0.003730594925000973,0.01450489327259593
-0.003730424925000973,0.01473528817687741
-0.003730254925000973,0.01513025086993251
-0.003730084925000973,0.01519607798544163
-0.003729914925000973,0.01565686779400459
-0.003729744925000973,0.01611765760256923
-0.003729574925000973,0.01605183048706011
-0.003729404925000973,0.01575560846726964
-0.003729234925000973,0.01568978135175999
-0.003729064925000973,0.0157556084672691
-0.003728894925000973,0.01565686779400561
-0.003728724925000973,0.0155252135629872
-0.003728554925000973,0.0152948186587053
-0.003728384925000973,0.01559104067849578
-0.003728214925000973,0.0152948186587053
-0.003728044925000973,0.01555812712074176
-0.003727874925000973,0.0150644237544243
-0.003727704925000973,0.01476820173463239
-0.003727534925000973,0.01476820173463239
-0.003727364925000973,0.01450489327259641
-0.003727194925000973,0.01447197971484137
-0.003727024925000973,0.01394536279076846
-0.003726854925000973,0.0141428441372958
-0.003726684925000973,0.01443906615708682
-0.003726514925000973,0.01463654750361416
-0.003726344925000973,0.01470237461912327
-0.003726174925000973,0.0152948186587053
-0.003726004925000973,0.01466946106136872
-0.003725834925000973,0.01489985596565062
-0.003725664925000973,0.01453780683035049
-0.003725494925000973,0.01404410346403213
-0.003725324925000973,0.01378079500199567
-0.003725154925000973,0.01338583230893895
-0.003724984925000973,0.01226677134528605
-0.003724814925000973,0.01210220355651326
-0.003724644925000973,0.01137810528591145
-0.003724474925000973,0.01052235278429452
-0.003724304925000973,0.01025904432225806
-0.003724134925000973,0.009798254513693604
-0.003723964925000973,0.009436205378394135
-0.003723794925000973,0.009403291820639578
-0.003723624925000973,0.009074156243093707
-0.003723454925000973,0.008909588454321223
-0.003723284925000973,0.009074156243094007
-0.003723114925000973,0.009205810474113254
-0.003722944925000973,0.009765340955939707
-0.003722774925000973,0.01032487143776718
-0.003722604925000973,0.01101605615061425
-0.003722434925000973,0.01177306797896769
-0.003722264925000973,0.01233259846079516
-0.003722094925000973,0.01213511711427057
-0.003721924925000973,0.01364914077097745
-0.003721754925000973,0.01364914077097745
-0.003721584925000973,0.01394536279076888
-0.003721414925000973,0.01417575769505036
-0.003721244925000973,0.0143732390415777
-0.003721074925000973,0.01470237461912321
-0.003720904925000973,0.01466946106136872
-0.003720734925000973,0.01457072038810504
-0.003720564925000973,0.0139453627907696
-0.003720394925000973,0.01361622721322289
-0.003720224925000973,0.01364914077097745
-0.003720054925000973,0.01355040009771395
-0.003719884925000973,0.01335291875118643
-0.003719714925000973,0.01325417807792276
-0.003719544925000973,0.01308961028915027
-0.003719374925000973,0.01332000519343187
-0.003719204925000973,0.01295795605813175
-0.003719034925000973,0.01249716624956878
