Analysis/New Tests/wrd01_d2s01_new/cmb07_ch27.csv

#Digilent WaveForms Oscilloscope Acquisition
#Device Name: ADP3450
#Serial Number: SN:210018B9D9B0
#Date Time: 2024-08-15 12:30:02.527.245.420
#Sample rate: 5.88235e+06Hz
#Samples: 32768
#Trigger: Source: Channel 3 Type: Edge Condition: Rising Level: 40 mV Hyst.: Auto HoldOff: 0 s
#Channel 3: Range: 100 mV/div Offset: 0 V Attenuation: 1 X Coupling: DC Bandwidth: 0 Hz Sample Mode: Average

Time (s),Channel 3 (V)
-0.003168881167708903,0.02253580136470787
-0.003168711167708903,0.02197627088288033
-0.003168541167708903,0.02194335732512584
-0.003168371167708903,0.02131799972778925
-0.003168201167708903,0.01842160664539026
-0.003168031167708903,0.01954066760904317
-0.003167861167708903,0.01891531001170658
-0.003167691167708903,0.01838869308763265
-0.003167521167708903,0.0178291626058062
-0.003167351167708903,0.01700632366194227
-0.003167181167708903,0.0161834847180775
-0.003167011167708903,0.01572269490951454
-0.003166841167708903,0.01509733731217796
-0.003166671167708903,0.01453780683034941
-0.003166501167708903,0.01394536279076846
-0.003166331167708903,0.01335291875118643
-0.003166161167708903,0.01315543740466017
-0.003165991167708903,0.01374788144424112
-0.003165821167708903,0.01378079500199567
-0.003165651167708903,0.01391244923301408
-0.003165481167708903,0.01401118990627757
-0.003165311167708903,0.01351748653995922
-0.003165141167708903,0.01338583230894123
-0.003164971167708903,0.01289212894262263
-0.003164801167708903,0.01256299336507706
-0.003164631167708903,0.01285921538486754
-0.003164461167708903,0.01282630182711352
-0.003164291167708903,0.01266173403834073
-0.003164121167708903,0.01259590692283174
-0.003163951167708903,0.01200346288324959
-0.003163781167708903,0.01223385778753149
-0.003163611167708903,0.01216803067202249
-0.003163441167708903,0.01174015442121313
-0.003163271167708903,0.01193763576774048
-0.003163101167708903,0.01174015442121349
-0.003162931167708903,0.01216803067202238
-0.003162761167708903,0.01203637644100415
-0.003162591167708903,0.01223385778753113
-0.003162421167708903,0.01164141374794946
-0.003162251167708903,0.0120692899987587
-0.003162081167708903,0.0121351171142677
-0.003161911167708903,0.01236551201854972
-0.003161741167708903,0.01289212894262263
-0.003161571167708903,0.01318835096241311
-0.003161401167708903,0.01358331365546833
-0.003161231167708903,0.01417575769505036
-0.003161061167708903,0.01450489327259533
-0.003160891167708903,0.01473528817687783
-0.003160721167708903,0.01532773221645986
-0.003160551167708903,0.01588726269828733
-0.003160381167708903,0.01585434914053277
-0.003160211167708903,0.01585434914053277
-0.003160041167708903,0.01592017625604189
-0.003159871167708903,0.01549230000523264
-0.003159701167708903,0.01526190510095074
-0.003159531167708903,0.01480111529238694
-0.003159361167708903,0.01410993057953981
-0.003159191167708903,0.01332000519343187
-0.003159021167708903,0.01239842557630427
-0.003158851167708903,0.01154267307468334
-0.003158681167708903,0.01019321720674895
-0.003158511167708903,0.009798254513694264
-0.003158341167708903,0.008975415569828301
-0.003158171167708903,0.007856354606175394
-0.003158001167708903,0.007395564797611595
-0.003157831167708903,0.007099342777820222
-0.003157661167708903,0.006901861431293239
-0.003157491167708903,0.007329737682102481
-0.003157321167708903,0.007988008837194163
-0.003157151167708903,0.008284230856984636
-0.003156981167708903,0.00871210710779388
-0.003156811167708903,0.009929908744712732
-0.003156641167708903,0.01006156297573072
-0.003156471167708903,0.01068692057306731
-0.003156301167708903,0.01078566124633235
-0.003156131167708903,0.01154267307468579
-0.003155961167708903,0.01174015442121313
-0.003155791167708903,0.01111479682387601
-0.003155621167708903,0.01081857480408553
-0.003155451167708903,0.01006156297573072
-0.003155281167708903,0.009403291820639578
-0.003155111167708903,0.009403291820639578
-0.003154941167708903,0.008745020665548437
-0.003154771167708903,0.008185490183721984
-0.003154601167708903,0.007757613932911723
-0.003154431167708903,0.007625959701893495
-0.003154261167708903,0.007856354606174974
-0.003154091167708903,0.007625959701893495
-0.003153921167708903,0.007724700375157166
-0.003153751167708903,0.007889268163929651
-0.003153581167708903,0.007922181721684508
-0.003153411167708903,0.008415885088002865
-0.003153241167708903,0.008284230856984875
-0.003153071167708903,0.008448798645757422
-0.003152901167708903,0.008646279992284765
-0.003152731167708903,0.009139983358602223
-0.003152561167708903,0.009534946051657807
-0.003152391167708903,0.009469118936148692
-0.003152221167708903,0.009238724031867212
-0.003152051167708903,0.008942502012075779
-0.003151881167708903,0.008679193550039321
-0.003151711167708903,0.008152576625967366
-0.003151541167708903,0.007296824124347924
-0.003151371167708903,0.007099342777820581
-0.003151201167708903,0.006605639411503122
-0.003151031167708903,0.007099342777820581
-0.003150861167708903,0.006967688546802352
-0.003150691167708903,0.00686894787353886
-0.003150521167708903,0.006441071622729439
-0.003150351167708903,0.006046108929674754
-0.003150181167708903,0.005651146236620068
-0.003150011167708903,0.00505870219703804
-0.003149841167708903,0.005124529312547154
-0.003149671167708903,0.004762480177247026
-0.003149501167708903,0.004301690368683227
-0.003149331167708903,0.003873814117873984
-0.003149161167708903,0.002886407385237271
-0.003148991167708903,0.003050975174010056
-0.003148821167708903,0.003347197193801071
-0.003148651167708903,0.001339470170773087
-0.003148481167708903,0.002853493827481756
-0.003148311167708903,0.0023268769034098
-0.003148141167708903,0.003182629405028285
-0.003147971167708903,0.00331428363604789
-0.003147801167708903,0.004071295464401327
-0.003147631167708903,0.005157442870301712
-0.003147461167708903,0.005815714025393751
-0.003147291167708903,0.00630941739171121
-0.003147121167708903,0.006473985180483996
-0.003146951167708903,0.006770207200277644
-0.003146781167708903,0.008218403741475522
-0.003146611167708903,0.007625959701893495
-0.003146441167708903,0.007922181721684268
-0.003146271167708903,0.00779052749066628
-0.003146101167708903,0.007362651239857037
-0.003145931167708903,0.007132256335575018
-0.003145761167708903,0.007066429220066024
-0.003145591167708903,0.006868947873538681
-0.003145421167708903,0.006836034315784483
-0.003145251167708903,0.007033515662311467
-0.003145081167708903,0.007296824124347924
-0.003144911167708903,0.00742847835536675
-0.003144741167708903,0.007757613932911723
-0.003144571167708903,0.008086749510457293
-0.003144401167708903,0.008284230856984516
-0.003144231167708903,0.008218403741475522
-0.003144061167708903,0.008251317299230079
-0.003143891167708903,0.008547539319020555
-0.003143721167708903,0.008942502012075779
-0.003143551167708903,0.00871210710779388
-0.003143381167708903,0.008613366434530388
-0.003143211167708903,0.008284230856984636
-0.003143041167708903,0.007724700375157166
-0.003142871167708903,0.007560132586384679
-0.003142701167708903,0.00756013258638438
-0.003142531167708903,0.006836034315784124
-0.003142361167708903,0.006704380084766135
-0.003142191167708903,0.00653981229599311
-0.003142021167708903,0.006441071622729439
-0.003141851167708903,0.006901861431292401
-0.003141681167708903,0.007527219028629823
-0.003141511167708903,0.008152576625966409
-0.003141341167708903,0.008745020665547359
-0.003141171167708903,0.009864081629203377
-0.003141001167708903,0.01075274768857642
-0.003140831167708903,0.01131227817040287
-0.003140661167708903,0.01154267307468579
-0.003140491167708903,0.01210220355651326
-0.003140321167708903,0.01180598153672279
-0.003140151167708903,0.01203637644100415
-0.003139981167708903,0.01167432730570402
-0.003139811167708903,0.01108188326612199
-0.003139641167708903,0.01180598153672225
-0.003139471167708903,0.01025904432225806
-0.003139301167708903,0.00983116807144882
-0.003139131167708903,0.009074156243094007
-0.003138961167708903,0.008218403741475522
-0.003138791167708903,0.007658873259648051
-0.003138621167708903,0.006473985180483996
-0.003138451167708903,0.006605639411502225
-0.003138281167708903,0.005519492005601839
-0.003138111167708903,0.004894134408264536
-0.003137941167708903,0.004499171715210569
-0.003137771167708903,0.003149715847273728
-0.003137601167708903,0.004400431041944264
-0.003137431167708903,0.002952234500746385
-0.003137261167708903,0.002886407385237271
-0.003137091167708903,0.00245853113442719
-0.003136921167708903,0.001997741325864229
-0.003136751167708903,0.001602778632809544
-0.003136581167708903,0.001372383728527943
-0.003136411167708903,0.00153695151730043
-0.003136241167708903,0.001273643055263973
-0.003136071167708903,0.001207815939755697
-0.003135901167708903,0.001668605748318658
-0.003135731167708903,0.001833173537091444
-0.003135561167708903,0.002195222672392829
-0.003135391167708903,0.002886407385237271
-0.003135221167708903,0.003413024309310185
-0.003135051167708903,0.004170036137666016
-0.003134881167708903,0.004729566619492469
-0.003134711167708903,0.005420751332338168
-0.003134541167708903,0.005980281814167076
-0.003134371167708903,0.00677020720027501
-0.003134201167708903,0.00677020720027501
-0.003134031167708903,0.00742847835536741
-0.003133861167708903,0.00811966306821185
-0.003133691167708903,0.007889268163929951
-0.003133521167708903,0.00815257662596593
-0.003133351167708903,0.008481712203511979
-0.003133181167708903,0.008218403741475522
-0.003133011167708903,0.008086749510457533
-0.003132841167708903,0.008218403741475522
-0.003132671167708903,0.00811966306821185
-0.003132501167708903,0.008613366434529309
-0.003132331167708903,0.008218403741475522
-0.003132161167708903,0.008350057972493751
-0.003131991167708903,0.007988008837194282
-0.003131821167708903,0.007428478355366152
-0.003131651167708903,0.006704380084765896
-0.003131481167708903,0.00677020720027489
-0.003131311167708903,0.006836034315784124
-0.003131141167708903,0.006144849602938425
-0.003130971167708903,0.005651146236620966
-0.003130801167708903,0.004861220850510698
-0.003130631167708903,0.005354924216829054
-0.003130461167708903,0.003775073444613187
-0.003130291167708903,0.004729566619492469
-0.003130121167708903,0.004564998830719684
-0.003129951167708903,0.004202949695420214
-0.003129781167708903,0.004005468348892213
-0.003129611167708903,0.004499171715210569
-0.003129441167708903,0.003972554791138613
-0.003129271167708903,0.004235863253174112
-0.003129101167708903,0.004400431041946898
-0.003128931167708903,0.004894134408265255
-0.003128761167708903,0.004959961523774369
-0.003128591167708903,0.005585319121110954
-0.003128421167708903,0.00505870219703804
-0.003128251167708903,0.005420751332338168
-0.003128081167708903,0.005453664890092726
-0.003127911167708903,0.004400431041946898
-0.003127741167708903,0.006704380084765178
-0.003127571167708903,0.00630941739171121
-0.003127401167708903,0.006408158064974882
-0.003127231167708903,0.006046108929674634
-0.003127061167708903,0.005980281814165639
-0.003126891167708903,0.00630941739171121
-0.003126721167708903,0.006473985180484833
-0.003126551167708903,0.006934774989047795
-0.003126381167708903,0.007066429220066024
-0.003126211167708903,0.007165169893331252
-0.003126041167708903,0.00802092239494818
-0.003125871167708903,0.008152576625966409
-0.003125701167708903,0.009107069800849105
-0.003125531167708903,0.009403291820639578
-0.003125361167708903,0.009864081629203377
-0.003125191167708903,0.01012739009123936
-0.003125021167708903,0.009864081629203377
-0.003124851167708903,0.01012739009123984
-0.003124681167708903,0.009929908744709439
-0.003124511167708903,0.008251317299230079
-0.003124341167708903,0.01025904432225806
-0.003124171167708903,0.01009447653348145
-0.003124001167708903,0.007988008837193623
-0.003123831167708903,0.00811966306821185
-0.003123661167708903,0.008218403741474624
-0.003123491167708903,0.007724700375157166
-0.003123321167708903,0.007198083451084253
-0.003123151167708903,0.006868947873539279
-0.003122981167708903,0.006572725853747667
-0.003122811167708903,0.005914454698656525
-0.003122641167708903,0.006046108929674514
-0.003122471167708903,0.005486578447847282
-0.003122301167708903,0.005387837774583611
-0.003122131167708903,0.004959961523775147
-0.003121961167708903,0.004532085272965126
-0.003121791167708903,0.004729566619492469
-0.003121621167708903,0.00423586325317501
-0.003121451167708903,0.004400431041946898
-0.003121281167708903,0.005025788639283483
-0.003121111167708903,0.004762480177247505
-0.003120941167708903,0.005420751332338168
-0.003120771167708903,0.004729566619492469
-0.003120601167708903,0.00578280046763638
-0.003120431167708903,0.006144849602938425
-0.003120261167708903,0.00630941739171121
-0.003120091167708903,0.006868947873537663
-0.003119921167708903,0.007165169893329695
-0.003119751167708903,0.008152576625966409
-0.003119581167708903,0.008152576625966409
-0.003119411167708903,0.008350057972493751
-0.003119241167708903,0.008514625761266537
-0.003119071167708903,0.008415885088003046
-0.003118901167708903,0.008218403741475522
-0.003118731167708903,0.007296824124347924
-0.003118561167708903,0.007165169893329695
-0.003118391167708903,0.006737293642520453
-0.003118221167708903,0.006671466527011338
-0.003118051167708903,0.005684059794374625
-0.003117881167708903,0.004663739503983355
-0.003117711167708903,0.004005468348892213
-0.003117541167708903,0.00357759209808297
-0.003117371167708903,0.002985148058500942
-0.003117201167708903,0.002590185365446257
-0.003117031167708903,0.00176734642158233
-0.003116861167708903,0.001931914210355594
-0.003116691167708903,0.002195222672391572
-0.003116521167708903,0.002129395556882458
-0.003116351167708903,0.002261049787901584
-0.003116181167708903,0.002754753154219042
-0.003116011167708903,0.003413024309310185
-0.003115841167708903,0.003709246329102037
-0.003115671167708903,0.004170036137664999
-0.003115501167708903,0.004597912388474241
-0.003115331167708903,0.004367517484192341
-0.003115161167708903,0.004367517484192341
-0.003114991167708903,0.004663739503983355
-0.003114821167708903,0.005256183543565323
-0.003114651167708903,0.005223269985810825
-0.003114481167708903,0.006013195371920196
-0.003114311167708903,0.005815714025393093
-0.003114141167708903,0.005947368256411082
-0.003113971167708903,0.006342330949465767
-0.003113801167708903,0.006572725853747487
-0.003113631167708903,0.006473985180483996
-0.003113461167708903,0.006737293642520453
-0.003113291167708903,0.006506898738239391
-0.003113121167708903,0.006967688546802352
-0.003112951167708903,0.007395564797611595
-0.003112781167708903,0.007461391913121008
-0.003112611167708903,0.007625959701893495
-0.003112441167708903,0.006704380084765896
-0.003112271167708903,0.006144849602939442
-0.003112101167708903,0.005223269985810825
-0.003111931167708903,0.004992875081528926
-0.003111761167708903,0.00446625815745697
-0.003111591167708903,0.004334603926437783
-0.003111421167708903,0.004400431041946898
-0.003111251167708903,0.004104209022156423
-0.003111081167708903,0.004202949695419555
-0.003110911167708903,0.003972554791137656
-0.003110741167708903,0.00403838190664665
-0.003110571167708903,0.00380798700236487
-0.003110401167708903,0.004301690368683227
-0.003110231167708903,0.004597912388473702
-0.003110061167708903,0.004762480177247026
-0.003109891167708903,0.00482830729275614
-0.003109721167708903,0.005716973352127565
-0.003109551167708903,0.005651146236620068
-0.003109381167708903,0.006177763160692982
-0.003109211167708903,0.006276503833956473
-0.003109041167708903,0.006506898738238553
-0.003108871167708903,0.00700060210455691
-0.003108701167708903,0.007132256335574899
-0.003108531167708903,0.00653981229599311
-0.003108361167708903,0.006967688546802352
-0.003108191167708903,0.006473985180484893
-0.003108021167708903,0.005881541140901968
-0.003107851167708903,0.006046108929674754
-0.003107681167708903,0.005684059794374625
-0.003107511167708903,0.005420751332338168
-0.003107341167708903,0.005256183543565383
-0.003107171167708903,0.004630825946228797
-0.003107001167708903,0.004696653061737912
-0.003106831167708903,0.004894134408265255
-0.003106661167708903,0.004597912388474241
-0.003106491167708903,0.00492704796602047
-0.003106321167708903,0.00528909710131994
-0.003106151167708903,0.005486578447847282
-0.003105981167708903,0.005256183543566281
-0.003105811167708903,0.00574988690988374
-0.003105641167708903,0.006210676718447538
-0.003105471167708903,0.007296824124348582
-0.003105301167708903,0.007658873259648051
-0.003105131167708903,0.008415885088002865
-0.003104961167708903,0.008580452876775771
-0.003104791167708903,0.008646279992284765
-0.003104621167708903,0.008843761338812107
-0.003104451167708903,0.009139983358603183
-0.003104281167708903,0.009172896916357679
-0.003104111167708903,0.008777934223302994
-0.003103941167708903,0.008580452876774872
-0.003103771167708903,0.008152576625966409
-0.003103601167708903,0.008053835952702737
-0.003103431167708903,0.007988008837192605
-0.003103261167708903,0.007428478355366152
-0.003103091167708903,0.007033515662311467
-0.003102921167708903,0.007362651239857875
-0.003102751167708903,0.007823441048420837
-0.003102581167708903,0.00811966306821185
-0.003102411167708903,0.007823441048420478
-0.003102241167708903,0.007625959701893495
-0.003102071167708903,0.006967688546802352
-0.003101901167708903,0.006144849602939922
-0.003101731167708903,0.005585319121110954
-0.003101561167708903,0.005848627583147411
-0.003101391167708903,0.004828307292757996
-0.003101221167708903,0.005091615754792597
-0.003101051167708903,0.004729566619492469
-0.003100881167708903,0.00459791238847448
-0.003100711167708903,0.004400431041946898
-0.003100541167708903,0.004334603926437783
-0.003100371167708903,0.003676332771347839
-0.003100201167708903,0.003742159886855756
-0.003100031167708903,0.003413024309310185
-0.003099861167708903,0.004137122579909124
-0.003099691167708903,0.003347197193801071
-0.003099521167708903,0.004894134408265255
-0.003099351167708903,0.004367517484193299
-0.003099181167708903,0.005322010659074497
-0.003099011167708903,0.005881541140901968
-0.003098841167708903,0.00621067671844694
-0.003098671167708903,0.006572725853747667
-0.003098501167708903,0.006868947873538681
-0.003098331167708903,0.006836034315784184
-0.003098161167708903,0.006901861431293239
-0.003097991167708903,0.006934774989047795
-0.003097821167708903,0.006934774989047795
-0.003097651167708903,0.007033515662311467
-0.003097481167708903,0.006803120758029567
-0.003097311167708903,0.006638552969256781
-0.003097141167708903,0.006506898738238553
-0.003096971167708903,0.006210676718447538
-0.003096801167708903,0.006111936045183867
-0.003096631167708903,0.006342330949465767
-0.003096461167708903,0.005684059794374625
-0.003096291167708903,0.005552405563356397
-0.003096121167708903,0.004663739503983355
-0.003095951167708903,0.004334603926437783
-0.003095781167708903,0.003906727675628541
-0.003095611167708903,0.003577592098082491
-0.003095441167708903,0.003314283636046514
-0.003095271167708903,0.003413024309310185
-0.003095101167708903,0.003116802289519111
-0.003094931167708903,0.003083888731764614
-0.003094761167708903,0.003544678540328413
-0.003094591167708903,0.004071295464402585
-0.003094421167708903,0.004762480177247026
-0.003094251167708903,0.005157442870301712
-0.003094081167708903,0.005749886909884577
-0.003093911167708903,0.006210676718447538
-0.003093741167708903,0.007033515662311467
-0.003093571167708903,0.007428478355367529
-0.003093401167708903,0.008185490183720966
-0.003093231167708903,0.008448798645757422
-0.003093061167708903,0.009074156243093767
-0.003092891167708903,0.008942502012075779
-0.003092721167708903,0.009172896916357679
-0.003092551167708903,0.008942502012077995
-0.003092381167708903,0.01016030364899439
-0.003092211167708903,0.009436205378394135
-0.003092041167708903,0.008514625761265758
-0.003091871167708903,0.008086749510457293
-0.003091701167708903,0.007461391913120709
-0.003091531167708903,0.007198083451083175
-0.003091361167708903,0.006605639411502225
-0.003091191167708903,0.006046108929674754
