Analysis/New Tests/wrd01_d2s01_new/cmb07_ch39.csv

#Digilent WaveForms Oscilloscope Acquisition
#Device Name: ADP3450
#Serial Number: SN:210018B9D9B0
#Date Time: 2024-08-15 12:41:01.148.626.070
#Sample rate: 5.88235e+06Hz
#Samples: 32768
#Trigger: Source: Channel 3 Type: Edge Condition: Rising Level: 40 mV Hyst.: Auto HoldOff: 0 s
#Channel 3: Range: 100 mV/div Offset: 0 V Attenuation: 1 X Coupling: DC Bandwidth: 0 Hz Sample Mode: Average

Time (s),Channel 3 (V)
-0.003168918488246832,0.02227249290267141
-0.003168748488246832,0.02214083867165072
-0.003168578488246832,0.02079138280371634
-0.003168408488246832,0.02049516078392532
-0.003168238488246832,0.0198698031865885
-0.003168068488246832,0.01973814895557051
-0.003167898488246832,0.02026476587964342
-0.003167728488246832,0.02098886415024458
-0.003167558488246832,0.02148256751656204
-0.003167388488246832,0.02194335732512584
-0.003167218488246832,0.02131799972778829
-0.003167048488246832,0.02079138280371634
-0.003166878488246832,0.01973814895557051
-0.003166708488246832,0.01868491510742223
-0.003166538488246832,0.01733545923948784
-0.003166368488246832,0.01697341010418771
-0.003166198488246832,0.01671010164215036
-0.003166028488246832,0.0162163982758329
-0.003165858488246832,0.01756585414376974
-0.003165688488246832,0.0148998559656487
-0.003165518488246832,0.01384662211750479
-0.003165348488246832,0.01226677134528605
-0.003165178488246833,0.01187180865223208
-0.003165008488246832,0.01157558663244035
-0.003164838488246832,0.01174015442121313
-0.003164668488246833,0.0121022035565126
-0.003164498488246832,0.01259590692283162
-0.003164328488246832,0.01318835096241365
-0.003164158488246833,0.01272756115385068
-0.003163988488246832,0.01341874586669555
-0.003163818488246832,0.0120692899987587
-0.003163648488246833,0.01104896970836929
-0.003163478488246832,0.01019321720674895
-0.003163308488246832,0.01210220355651326
-0.003163138488246833,0.01384662211750162
-0.003162968488246832,0.0148340288501415
-0.003162798488246832,0.01562395423625087
-0.003162628488246833,0.01539355933196939
-0.003162458488246832,0.01499859663891429
-0.003162288488246832,0.0146036339458596
-0.003162118488246833,0.01378079500199717
-0.003161948488246832,0.01236551201854972
-0.003161778488246832,0.01200346288324959
-0.003161608488246833,0.013089610289148
-0.003161438488246832,0.01496568308115973
-0.003161268488246832,0.01605183048706011
-0.003161098488246832,0.01638096606460509
-0.003160928488246832,0.01480111529238694
-0.003160758488246832,0.01338583230894099
-0.003160588488246832,0.01233259846079516
-0.003160418488246832,0.01193763576774048
-0.003160248488246832,0.01226677134528605
-0.003160078488246832,0.01193763576774048
-0.003159908488246832,0.01170724086345858
-0.003159738488246832,0.01197054932549503
-0.003159568488246832,0.01085148836184009
-0.003159398488246832,0.009699513840428558
-0.003159228488246832,0.008580452876775651
-0.003159058488246832,0.007461391913120709
-0.003158888488246832,0.007691786817401951
-0.003158718488246832,0.007329737682102481
-0.003158548488246832,0.007625959701893495
-0.003158378488246832,0.007461391913121547
-0.003158208488246832,0.007922181721684508
-0.003158038488246832,0.00677020720027501
-0.003157868488246832,0.006309417391710731
-0.003157698488246832,0.006046108929674754
-0.003157528488246832,0.00630941739171121
-0.003157358488246832,0.008382971530246931
-0.003157188488246832,0.007625959701893495
-0.003157018488246832,0.008580452876775651
-0.003156848488246832,0.009008329127584593
-0.003156678488246832,0.008843761338812107
-0.003156508488246832,0.009403291820639578
-0.003156338488246832,0.0100286494179755
-0.003156168488246832,0.009666600282676035
-0.003155998488246832,0.009567859609412364
-0.003155828488246832,0.0087121071077943
-0.003155658488246832,0.008942502012075779
-0.003155488488246832,0.009271637589621349
-0.003155318488246832,0.009699513840431192
-0.003155148488246832,0.01002864941797616
-0.003154978488246832,0.009765340955939707
-0.003154808488246833,0.009436205378394734
-0.003154638488246832,0.008646279992284765
-0.003154468488246832,0.01016030364899439
-0.003154298488246833,0.01078566124632984
-0.003154128488246832,0.01131227817040389
-0.003153958488246832,0.01193763576774048
-0.003153788488246833,0.01131227817040503
-0.003153618488246832,0.01012739009123984
-0.003153448488246832,0.009633686724921478
-0.003153278488246833,0.01131227817040084
-0.003153108488246832,0.01262882048058617
-0.003152938488246832,0.0122996849030406
-0.003152768488246833,0.01009447653348929
-0.003152598488246832,0.007691786817402609
-0.003152428488246832,0.005716973352129182
-0.003152258488246833,0.006243590276201139
-0.003152088488246832,0.007165169893329695
-0.003151918488246832,0.00756013258638438
-0.003151748488246833,0.007296824124348403
-0.003151578488246832,0.006441071622729439
-0.003151408488246832,0.005618232678865511
-0.003151238488246833,0.005848627583146992
-0.003151068488246832,0.006046108929674754
-0.003150898488246832,0.00607902248742931
-0.003150728488246832,0.007263910566591211
-0.003150558488246832,0.007230997008838809
-0.003150388488246832,0.007428478355366152
-0.003150218488246832,0.007230997008838809
-0.003150048488246832,0.008284230856984636
-0.003149878488246832,0.008382971530248308
-0.003149708488246832,0.008909588454321223
-0.003149538488246832,0.009304551147375908
-0.003149368488246832,0.009666600282676035
-0.003149198488246832,0.009666600282676035
-0.003149028488246832,0.01075274768857642
-0.003148858488246832,0.01065400701531275
-0.003148688488246832,0.01022613076450351
-0.003148518488246832,0.009995735860221606
-0.003148348488246832,0.009995735860221606
-0.003148178488246832,0.00950203249390325
-0.003148008488246832,0.00946911893614953
-0.003147838488246832,0.009929908744712493
-0.003147668488246832,0.01029195788001262
-0.003147498488246832,0.009633686724919084
-0.003147328488246832,0.008317144414739193
-0.003147158488246832,0.007263910566593366
-0.003146988488246832,0.00690186143129252
-0.003146818488246832,0.006506898738238553
-0.003146648488246832,0.005782800467638296
-0.003146478488246832,0.005354924216829234
-0.003146308488246832,0.005453664890092726
-0.003146138488246832,0.005190356428056269
-0.003145968488246832,0.004762480177247266
-0.003145798488246832,0.004894134408265255
-0.003145628488246832,0.004630825946228797
-0.003145458488246832,0.004532085272965725
-0.003145288488246832,0.004861220850510698
-0.003145118488246832,0.00505870219703804
-0.003144948488246832,0.004400431041951089
-0.003144778488246832,0.006704380084765896
-0.003144608488246832,0.009008329127584893
-0.003144438488246832,0.007494305470875626
-0.003144268488246832,0.007691786817402609
-0.003144098488246832,0.007033515662311467
-0.003143928488246833,0.008020922394946384
-0.003143758488246832,0.008284230856984636
-0.003143588488246832,0.007625959701893495
-0.003143418488246833,0.006210676718450113
-0.003143248488246832,0.005256183543565383
-0.003143078488246832,0.004466258157456012
-0.003142908488246833,0.004499171715210509
-0.003142738488246832,0.004927047966019811
-0.003142568488246832,0.005684059794374625
-0.003142398488246833,0.005190356428057166
-0.003142228488246832,0.004301690368683227
-0.003142058488246832,0.003478851424819299
-0.003141888488246833,0.003050975174010835
-0.003141718488246832,0.0027876667119736
-0.003141548488246832,0.002590185365446257
-0.003141378488246833,0.002656012480955251
-0.003141208488246832,0.002359790461164357
-0.003141038488246832,0.001800259979336887
-0.003140868488246833,0.001438210844037417
-0.003140698488246832,0.001635692190564101
-0.003140528488246832,0.001800259979336887
-0.003140358488246832,0.002392704018917837
-0.003140188488246832,0.003281370078291956
-0.003140018488246832,0.003742159886855756
-0.003139848488246832,0.003775073444610313
-0.003139678488246832,0.004104209022155884
-0.003139508488246832,0.004894134408265255
-0.003139338488246832,0.005585319121110954
-0.003139168488246832,0.006046108929674754
-0.003138998488246832,0.006704380084765896
-0.003138828488246832,0.00700060210455691
-0.003138658488246832,0.006671466527011338
-0.003138488488246832,0.007922181721684508
-0.003138318488246832,0.008317144414739193
-0.003138148488246832,0.008745020665549155
-0.003137978488246832,0.009139983358603122
-0.003137808488246832,0.009304551147375908
-0.003137638488246832,0.00973242739818527
-0.003137468488246832,0.009798254513694264
-0.003137298488246832,0.01095022903510376
-0.003137128488246832,0.01127936461264867
-0.003136958488246832,0.01091731547734921
-0.003136788488246832,0.01088440191959465
-0.003136618488246832,0.009929908744711953
-0.003136448488246832,0.009633686724921478
-0.003136278488246832,0.009436205378394135
-0.003136108488246832,0.008876674896565826
-0.003135938488246832,0.008415885088002865
-0.003135768488246832,0.008514625761266537
-0.003135598488246832,0.007625959701893674
-0.003135428488246832,0.007724700375157166
-0.003135258488246832,0.006506898738238553
-0.003135088488246832,0.004992875081527249
-0.003134918488246832,0.004071295464401327
-0.003134748488246832,0.005387837774583611
-0.003134578488246832,0.006572725853747727
-0.003134408488246832,0.006605639411502225
-0.003134238488246832,0.006342330949465767
-0.003134068488246832,0.006342330949465887
-0.003133898488246832,0.006408158064974882
-0.003133728488246832,0.005914454698656525
-0.003133558488246833,0.001602778632817386
-0.003133388488246832,0.002754753154219042
-0.003133218488246832,0.004433344599701455
-0.003133048488246833,0.004630825946228438
-0.003132878488246832,0.006177763160692982
-0.003132708488246832,0.007362651239857037
-0.003132538488246833,0.008448798645755446
-0.003132368488246832,0.008053835952702737
-0.003132198488246832,0.008053835952702737
-0.003132028488246833,0.007922181721684747
-0.003131858488246832,0.007955095279439066
-0.003131688488246832,0.008152576625966409
-0.003131518488246833,0.008185490183720905
-0.003131348488246832,0.007625959701893495
-0.003131178488246832,0.007165169893329695
-0.003131008488246833,0.007099342777820701
-0.003130838488246832,0.00653981229599311
-0.003130668488246832,0.006210676718447538
-0.003130498488246833,0.005684059794375583
-0.003130328488246832,0.006375244507220324
-0.003130158488246832,0.006803120758029567
-0.003129988488246833,0.01322126452015653
-0.003129818488246832,0.007033515662311467
-0.003129648488246832,0.005651146236620068
-0.003129478488246832,0.005782800467638057
-0.003129308488246832,0.006441071622729439
-0.003129138488246832,0.00677020720027501
-0.003128968488246832,0.00677020720027501
-0.003128798488246832,0.007066429220066024
-0.003128628488246832,0.006737293642520453
-0.003128458488246832,0.006013195371920196
-0.003128288488246832,0.00630941739171121
-0.003128118488246832,0.005354924216829054
-0.003127948488246832,0.00528909710131994
-0.003127778488246832,0.005124529312547094
-0.003127608488246832,0.005091615754792597
-0.003127438488246832,0.004433344599701455
-0.003127268488246832,0.004005468348891554
-0.003127098488246832,0.003643419213592085
-0.003126928488246832,0.003445937867064742
-0.003126758488246832,0.003676332771347659
-0.003126588488246832,0.004235863253174112
-0.003126418488246832,0.004663739503983355
-0.003126248488246832,0.004301690368685083
-0.003126078488246832,0.005322010659074497
-0.003125908488246832,0.005453664890092726
-0.003125738488246832,0.00551949200560154
-0.003125568488246832,0.005354924216829054
-0.003125398488246832,0.004927047966019811
-0.003125228488246832,0.004696653061738032
-0.003125058488246832,0.004762480177247026
-0.003124888488246832,0.003972554791137656
-0.003124718488246832,0.003281370078291058
-0.003124548488246832,0.0027876667119736
-0.003124378488246832,0.004861220850510698
-0.003124208488246832,0.006375244507219367
-0.003124038488246832,0.005848627583147411
-0.003123868488246832,0.005585319121110954
-0.003123698488246832,0.005618232678865511
-0.003123528488246832,0.005618232678865511
-0.003123358488246832,0.00528909710131994
-0.003123188488246833,0.003413024309313597
-0.003123018488246832,0.002656012480955371
-0.003122848488246832,0.0025572718076917
-0.003122678488246833,0.003742159886853601
-0.003122508488246832,0.005684059794374625
-0.003122338488246832,0.006967688546802352
-0.003122168488246833,0.00700060210455685
-0.003121998488246832,0.006605639411502225
-0.003121828488246832,0.005190356428056269
-0.003121658488246833,0.003972554791139871
-0.003121488488246832,0.004630825946228797
-0.003121318488246832,0.006408158064974882
-0.003121148488246833,0.007691786817400274
-0.003120978488246832,0.009238724031866792
-0.003120808488246832,0.008580452876775651
-0.003120638488246833,0.009271637589620092
-0.003120468488246832,0.00779052749066628
-0.003120298488246832,0.007165169893329695
-0.003120128488246833,0.006375244507221762
-0.003119958488246832,0.006737293642520453
-0.003119788488246832,0.007263910566593366
-0.003119618488246833,0.007724700375156328
-0.003119448488246832,0.008679193550039321
-0.003119278488246832,0.009172896916357679
-0.003119108488246832,0.009370378262884662
-0.003118938488246832,0.00881084778105755
-0.003118768488246832,0.007988008837193623
-0.003118598488246832,0.006441071622729439
-0.003118428488246832,0.006177763160692982
-0.003118258488246832,0.006836034315784124
-0.003118088488246832,0.007230997008838809
-0.003117918488246832,0.007230997008838809
-0.003117748488246832,0.007132256335575138
-0.003117578488246832,0.006671466527011338
-0.003117408488246832,0.005387837774583611
-0.003117238488246832,0.004597912388474241
-0.003117068488246832,0.004433344599701455
-0.003116898488246832,0.004202949695420154
-0.003116728488246832,0.004532085272965126
-0.003116558488246832,0.005947368256411082
-0.003116388488246832,0.006803120758029866
-0.003116218488246832,0.006967688546802352
-0.003116048488246832,0.006868947873538681
-0.003115878488246832,0.00611193604518231
-0.003115708488246832,0.005256183543565383
-0.003115538488246832,0.004235863253174112
-0.003115368488246832,0.004104209022157021
-0.003115198488246832,0.004729566619492469
-0.003115028488246832,0.005618232678865511
-0.003114858488246832,0.004729566619489356
-0.003114688488246832,0.0030180616162555
-0.003114518488246832,0.002688926038709928
-0.003114348488246832,0.00397255479114041
-0.003114178488246832,0.005486578447847282
-0.003114008488246832,0.005651146236620068
-0.003113838488246832,0.006342330949466306
-0.003113668488246832,0.006638552969256781
-0.003113498488246832,0.007132256335575138
-0.003113328488246832,0.007428478355365913
-0.003113158488246832,0.007296824124347924
-0.003112988488246832,0.006473985180483996
-0.003112818488246832,0.006079022487430688
-0.003112648488246832,0.006836034315784124
-0.003112478488246832,0.007625959701893495
-0.003112308488246833,0.009008329127582378
-0.003112138488246832,0.008547539319021094
-0.003111968488246832,0.008942502012075779
-0.003111798488246833,0.00785635460617737
-0.003111628488246832,0.008185490183720966
-0.003111458488246832,0.007066429220066024
-0.003111288488246833,0.006473985180485073
-0.003111118488246832,0.005519492005601839
-0.003110948488246832,0.004861220850510698
-0.003110778488246833,0.00519035642805567
-0.003110608488246832,0.005223269985810825
-0.003110438488246832,0.005322010659074497
-0.003110268488246833,0.005552405563355978
-0.003110098488246832,0.00528909710131994
-0.003109928488246832,0.005322010659074497
-0.003109758488246833,0.005124529312547513
-0.003109588488246832,0.004795393735001583
-0.003109418488246832,0.004696653061737912
-0.003109248488246833,0.004992875081528387
-0.003109078488246832,0.005420751332338168
-0.003108908488246832,0.005486578447847282
-0.003108738488246833,0.006111936045182729
-0.003108568488246832,0.006342330949465767
-0.003108398488246832,0.005947368256411082
-0.003108228488246832,0.005322010659075635
-0.003108058488246832,0.004532085272965126
-0.003107888488246832,0.003939641233383098
-0.003107718488246832,0.004104209022155884
-0.003107548488246832,0.004894134408265255
-0.003107378488246832,0.005124529312547154
-0.003107208488246832,0.00505870219703804
-0.003107038488246832,0.004466258157456012
-0.003106868488246832,0.004170036137664999
-0.003106698488246832,0.002886407385237271
-0.003106528488246832,0.003281370078291597
-0.003106358488246832,0.003083888731764614
-0.003106188488246832,0.003478851424819299
-0.003106018488246832,0.004202949695419496
-0.003105848488246832,0.004170036137664999
-0.003105678488246832,0.004137122579910441
-0.003105508488246832,0.004235863253175908
-0.003105338488246832,0.005223269985810825
-0.003105168488246832,0.00482830729275614
-0.003104998488246832,0.004597912388474181
-0.003104828488246832,0.004564998830719684
-0.003104658488246832,0.004466258157456012
-0.003104488488246832,0.005157442870308776
-0.003104318488246832,0.00904124268533945
-0.003104148488246832,0.01002864941797616
-0.003103978488246832,0.01002864941797514
-0.003103808488246832,0.009469118936148692
-0.003103638488246832,0.009172896916357679
-0.003103468488246832,0.009107069800848805
-0.003103298488246832,0.009238724031866792
-0.003103128488246832,0.007823441048420837
-0.003102958488246832,0.006572725853746709
-0.003102788488246832,0.006046108929674754
-0.003102618488246832,0.006671466527011338
-0.003102448488246832,0.007494305470876284
-0.003102278488246832,0.008053835952702737
-0.003102108488246832,0.00881084778105755
-0.003101938488246833,0.00808674951045861
-0.003101768488246832,0.006934774989047795
-0.003101598488246832,0.006342330949465767
-0.003101428488246833,0.006441071622729259
-0.003101258488246832,0.006605639411502225
-0.003101088488246832,0.007757613932911723
-0.003100918488246833,0.007099342777821779
-0.003100748488246832,0.006836034315784124
-0.003100578488246832,0.006375244507220324
-0.003100408488246833,0.006144849602938844
-0.003100238488246832,0.005716973352129182
-0.003100068488246832,0.00607902248742931
-0.003099898488246833,0.006013195371920316
-0.003099728488246832,0.005618232678865511
-0.003099558488246832,0.005782800467638296
-0.003099388488246833,0.00561823267886581
-0.003099218488246832,0.005190356428056269
-0.003099048488246832,0.004795393735001583
-0.003098878488246833,0.004992875081528567
-0.003098708488246832,0.004959961523774369
-0.003098538488246832,0.004894134408265255
-0.003098368488246833,0.005091615754792238
-0.003098198488246832,0.004894134408265255
-0.003098028488246832,0.004959961523774369
-0.003097858488246832,0.004795393735001882
-0.003097688488246832,0.005914454698656525
-0.003097518488246832,0.005420751332338168
-0.003097348488246832,0.004696653061737912
-0.003097178488246832,0.005157442870301712
-0.003097008488246832,0.005420751332338168
-0.003096838488246832,0.006144849602938425
-0.003096668488246832,0.005519492005601839
-0.003096498488246832,0.005486578447847282
-0.003096328488246832,0.006144849602938425
-0.003096158488246832,0.006111936045183867
-0.003095988488246832,0.00574988690988374
-0.003095818488246832,0.005256183543565383
-0.003095648488246832,0.005322010659073898
-0.003095478488246832,0.004992875081528926
-0.003095308488246832,0.005124529312547154
-0.003095138488246832,0.005025788639284201
-0.003094968488246832,0.005420751332338168
-0.003094798488246832,0.00426877681092867
-0.003094628488246832,0.004137122579910022
-0.003094458488246832,0.003906727675628541
-0.003094288488246832,0.006375244507220324
-0.003094118488246832,0.00775761393291286
-0.003093948488246832,0.008382971530248308
-0.003093778488246832,0.009008329127584893
-0.003093608488246832,0.009172896916358397
-0.003093438488246832,0.009567859609412364
-0.003093268488246832,0.008481712203511979
-0.003093098488246832,0.007560132586380488
-0.003092928488246832,0.005420751332338168
-0.003092758488246832,0.00574988690988374
-0.003092588488246832,0.005980281814167555
-0.003092418488246832,0.007033515662311467
-0.003092248488246832,0.007889268163929951
-0.003092078488246832,0.007658873259646494
-0.003091908488246832,0.006803120758029567
-0.003091738488246832,0.006342330949465767
-0.003091568488246832,0.005881541140902626
-0.003091398488246832,0.006243590276202096
-0.003091228488246832,0.006671466527011338
