Analysis/New Tests/wrd01_d2s01_new/cmb06_ch36.csv

#Digilent WaveForms Oscilloscope Acquisition
#Device Name: ADP3450
#Serial Number: SN:210018B9D9B0
#Date Time: 2024-08-14 15:51:05.863.677.800
#Sample rate: 5.88235e+06Hz
#Samples: 32768
#Trigger: Source: Channel 3 Type: Edge Condition: Rising Level: 60 mV Hyst.: Auto HoldOff: 0 s
#Channel 3: Range: 100 mV/div Offset: 0 V Attenuation: 1 X Coupling: DC Bandwidth: 0 Hz Sample Mode: Average

Time (s),Channel 3 (V)
-0.003798418529637887,0.21596878028824
-0.003798248529637887,0.2288050678125374
-0.003798078529637887,0.239896936775803
-0.003797908529637887,0.2491785600625881
-0.003797738529637887,0.2566499376728833
-0.003797568529637887,0.2625414645109383
-0.003797398529637887,0.2668531405767853
-0.003797228529637887,0.2701444963522448
-0.003797058529637887,0.2722509640485326
-0.003796888529637887,0.273633333474224
-0.003796718529637887,0.2736991605897315
-0.003796548529637887,0.2727775809726056
-0.003796378529637887,0.2712306437581414
-0.003796208529637887,0.2691900031773526
-0.003796038529637887,0.2657669931708849
-0.003795868529637887,0.2649770677847755
-0.003795698529637887,0.2609616137387136
-0.003795528529637887,0.2577031715210184
-0.003795358529637887,0.2537864581482261
-0.003795188529637887,0.2502317939107271
-0.003795018529637887,0.2464796483267144
-0.003794848529637887,0.2420363180298492
-0.003794678529637887,0.238317086003591
-0.003794508529637887,0.2340383234954918
-0.003794338529637887,0.2300557830071904
-0.003794168529637887,0.2254478849215608
-0.003793998529637887,0.2218932206840603
-0.003793828529637887,0.2170549276941404
-0.003793658529637887,0.2126115973972832
-0.003793488529637887,0.2081024399849008
-0.003793318529637887,0.2041857266121085
-0.003793148529637887,0.1991499522756704
-0.003792978529637887,0.1953978066916418
-0.003792808529637887,0.1906582543749856
-0.003792638529637887,0.1872352443685179
-0.003792468529637887,0.1835160123422467
-0.003792298529637887,0.1801917430090364
-0.003792128529637887,0.1769003872335867
-0.003791958529637887,0.1743002161709707
-0.003791788529637887,0.1716342179928516
-0.003791618529637887,0.1694290096233003
-0.003791448529637887,0.1668288385606862
-0.003791278529637887,0.1656768640392767
-0.003791108529637887,0.163043779418917
-0.003790938529637887,0.1619247184552572
-0.003790768529637887,0.1595549422969291
-0.003790598529637887,0.1569876847920783
-0.003790428529637887,0.1549470442112911
-0.003790258529637887,0.1520835646866446
-0.003790088529637887,0.1498783563170893
-0.003789918529637887,0.1474427530432521
-0.003789748529637887,0.1457641615977697
-0.003789578529637887,0.143361471881687
-0.003789408529637887,0.1415183126474318
-0.003789238529637887,0.139346017835631
-0.003789068529637887,0.1373053772548485
-0.003788898529637887,0.1352318231163072
-0.003788728529637887,0.1328949605157378
-0.003788558529637887,0.1311834555125009
-0.003788388529637887,0.1281224946413237
-0.003788218529637887,0.1263122489648264
-0.003788048529637887,0.1232512880936526
-0.003787878529637887,0.1207498577043015
-0.003787708529637887,0.1181496866416963
-0.003787538529637887,0.1161748731764228
-0.003787368529637887,0.1136734427870725
-0.003787198529637887,0.1114682344175212
-0.003787028529637887,0.1092301124902113
-0.003786858529637887,0.1069590770051432
-0.003786688529637887,0.1049513499821189
-0.003786518529637887,0.1036348076719366
-0.003786348529637887,0.1016599942066604
-0.003786178529637887,0.1001459705499535
-0.003786008529637887,0.09889525535528035
-0.003785838529637887,0.09751288592958668
-0.003785668529637887,0.09626217073491578
-0.003785498529637887,0.09547224534880641
-0.003785328529637887,0.09438609794290376
-0.003785158529637887,0.09313538274823285
-0.003784988529637887,0.09195049466906879
-0.003784818529637887,0.09099600149418539
-0.003784648529637887,0.09030481678134095
-0.003784478529637887,0.08839583043157664
-0.003784308529637887,0.08740842369894171
-0.003784138529637887,0.08612479494651221
-0.003783968529637887,0.08510447465612092
-0.003783798529637887,0.08365627811492304
-0.003783628529637887,0.08247139003575635
-0.003783458529637887,0.08131941551434685
-0.003783288529637887,0.08039783589722095
-0.003783118529637887,0.07918003426030065
-0.003782948529637887,0.07783057839236379
-0.003782778529637887,0.07766601060359132
-0.003782608529637887,0.07552662934954479
-0.003782438529637887,0.07509875309873557
-0.003782268529637887,0.07361764299978318
-0.003782098529637887,0.07253149559388011
-0.003781928529637887,0.07128078039920693
-0.003781758529637887,0.06999715164678155
-0.003781588529637887,0.06861478222108783
-0.003781418529637887,0.06729823991090553
-0.003781248529637887,0.06608043827398913
-0.003781078529637887,0.06413853836646805
-0.003780908529637887,0.06357900788464058
-0.003780738529637887,0.06265742826751465
-0.003780568529637887,0.06180167576589449
-0.003780398529637887,0.06104466393753968
-0.003780228529637887,0.06018891143592275
-0.003780058529637887,0.05877362845247524
-0.003779888529637887,0.05837866575942055
-0.003779718529637887,0.05643676585190169
-0.003779548529637887,0.05538353200375586
-0.003779378529637887,0.0546594337331556
-0.003779208529637887,0.053737854116028
-0.003779038529637887,0.05252005247910939
-0.003778868529637887,0.05202634911279103
-0.003778698529637887,0.05094020170689065
-0.003778528529637887,0.05057815257159052
-0.003778358529637887,0.04972240006997204
-0.003778188529637887,0.04926161026140823
-0.003778018529637887,0.04847168487529569
-0.003777848529637887,0.04672726631430734
-0.003777678529637887,0.04886664756835355
-0.003777508529637887,0.04797798150897602
-0.003777338529637887,0.04550946467738873
-0.003777168529637887,0.04580568669717974
-0.003776998529637887,0.04564111890840534
-0.003776828529637887,0.04475245284903391
-0.003776658529637887,0.04383087323190631
-0.003776488529637887,0.04320551563456818
-0.003776318529637887,0.04234976313295125
-0.003776148529637887,0.04211936822866934
-0.003775978529637887,0.04202062755540447
-0.003775808529637887,0.04136235640031453
-0.003775638529637887,0.04159275130459643
-0.003775468529637887,0.04119778861154145
-0.003775298529637887,0.04103322082276896
-0.003775128529637887,0.04103322082276896
-0.003774958529637887,0.0407040852452238
-0.003774788529637887,0.04093448014950529
-0.003774618529637887,0.04024329543665959
-0.003774448529637887,0.04037494966767722
-0.003774278529637887,0.04004581409013225
-0.003774108529637887,0.03988124630135946
-0.003773938529637887,0.03895966668423097
-0.003773768529637887,0.03846596331791351
-0.003773598529637887,0.03774186504731325
-0.003773428529637887,0.0371494210077323
-0.003773258529637887,0.03599744648632172
-0.003773088529637887,0.03520752110021235
-0.003772918529637887,0.03484547196491288
-0.003772748529637887,0.03398971946329374
-0.003772578529637887,0.03316688051942981
-0.003772408529637887,0.03273900426862134
-0.003772238529637887,0.03257443647984778
-0.003772068529637887,0.03152120263170195
-0.003771898529637887,0.03083001791885751
-0.003771728529637887,0.0303363145525379
-0.003771558529637887,0.0298755247439741
-0.003771388529637887,0.02918434003112965
-0.003771218529637887,0.02908559935786473
-0.003771048529637887,0.02875646378031916
-0.003770878529637887,0.02849315531828318
-0.003770708529637887,0.02806527906747346
-0.003770538529637887,0.02846024176052814
-0.003770368529637887,0.02846024176052814
-0.003770198529637887,0.02822984685624624
-0.003770028529637887,0.02865772310705549
-0.003769858529637887,0.0285260688760375
-0.003769688529637887,0.0284931553182827
-0.003769518529637887,0.02839441464501903
-0.003769348529637887,0.02869063666481004
-0.003769178529637887,0.02796653839420979
-0.003769008529637887,0.02859189599154637
-0.003768838529637887,0.02813110618298257
-0.003768668529637887,0.02750574858564599
-0.003768498529637887,0.02684747743055485
-0.003768328529637887,0.02661708252627295
-0.003768158529637887,0.02589298425567269
-0.003767988529637887,0.02507014531180876
-0.003767818529637887,0.02464226906099952
-0.003767648529637887,0.02474100973426025
-0.003767478529637887,0.02312824540428989
-0.003767308529637887,0.02306241828878078
-0.003767138529637887,0.02286493694225272
-0.003766968529637887,0.02246997424919875
-0.003766798529637887,0.02184461665186217
-0.003766628529637887,0.02197627088287938
-0.003766458529637887,0.02141674040105292
-0.003766288529637887,0.02108760482350735
-0.003766118529637887,0.02214083867165067
-0.003765948529637887,0.02075846924596178
-0.003765778529637887,0.02079138280371634
-0.003765608529637887,0.02121925905452528
-0.003765438529637887,0.0210546912657528
-0.003765268529637887,0.02151548107431659
-0.003765098529637887,0.02138382684329873
-0.003764928529637887,0.02158130818982571
-0.003764758529637887,0.02121925905452558
-0.003764588529637887,0.02161422174757931
-0.003764418529637887,0.02108760482350735
-0.003764248529637887,0.02131799972778925
-0.003764078529637887,0.02151548107431623
-0.003763908529637887,0.02131799972778925
-0.003763738529637887,0.02131799972778925
-0.003763568529637887,0.02131799972779009
-0.003763398529637887,0.02177878953635305
-0.003763228529637887,0.02148256751656204
-0.003763058529637887,0.02148256751656204
-0.003762888529637887,0.02128508617003469
-0.003762718529637887,0.02102177770799824
-0.003762548529637887,0.02092303703473474
-0.003762378529637887,0.02072555568820722
-0.003762208529637887,0.02098886415024368
-0.003762038529637887,0.02131799972778865
-0.003761868529637887,0.02148256751656204
-0.003761698529637887,0.02210792511389862
-0.003761528529637887,0.02253580136470709
-0.003761358529637887,0.02237123357593508
-0.003761188529637887,0.02220666578716229
-0.003761018529637887,0.02250288780695277
-0.003760848529637887,0.02214083867165318
-0.003760678529637887,0.02168004886308938
-0.003760508529637887,0.02154839463207139
-0.003760338529637887,0.02098886415024368
-0.003760168529637887,0.02006728453311608
-0.003759998529637887,0.01973814895557111
-0.003759828529637887,0.01881656933844291
-0.003759658529637887,0.01828995241437
-0.003759488529637887,0.0171050643352081
-0.003759318529637887,0.01634805250685113
-0.003759148529637887,0.01582143558277821
-0.003758978529637887,0.01503151019667028
-0.003758808529637887,0.01466946106136872
-0.003758638529637887,0.0143732390415777
-0.003758468529637887,0.01394536279076846
-0.003758298529637887,0.01457072038810504
-0.003758128529637887,0.01335291875118643
-0.003757958529637887,0.0139124492330139
-0.003757788529637887,0.013682054328732
-0.003757618529637887,0.01355040009771377
-0.003757448529637887,0.01394536279076846
-0.003757278529637887,0.01404410346403279
-0.003757108529637887,0.01440615259933226
-0.003756938529637887,0.01394536279076846
-0.003756768529637887,0.01430741192606966
-0.003756598529637887,0.01489985596565062
-0.003756428529637887,0.013682054328732
-0.003756258529637887,0.01513025086993317
-0.003756088529637887,0.01549230000523264
-0.003755918529637887,0.01532773221645986
-0.003755748529637887,0.01545938644747773
-0.003755578529637887,0.01526190510095074
-0.003755408529637887,0.01565686779400543
-0.003755238529637887,0.01529481865870524
-0.003755068529637887,0.01526190510095074
-0.003754898529637887,0.01539355933196897
-0.003754728529637887,0.01496568308116164
-0.003754558529637887,0.01601891692930556
-0.003754388529637887,0.01519607798544163
-0.003754218529637887,0.0154923000052321
-0.003754048529637887,0.01519607798544163
-0.003753878529637887,0.01526190510095074
-0.003753708529637887,0.01549230000523294
-0.003753538529637887,0.01565686779400543
-0.003753368529637887,0.01595308981379644
-0.003753198529637887,0.01588726269828739
-0.003753028529637887,0.01592017625604189
-0.003752858529637887,0.01585434914053277
-0.003752688529637887,0.01601891692930526
-0.003752518529637887,0.01588726269828733
-0.003752348529637887,0.01578852202502366
-0.003752178529637887,0.01585434914053265
-0.003752008529637887,0.01582143558277821
-0.003751838529637887,0.01572269490951454
-0.003751668529637887,0.01519607798544259
-0.003751498529637887,0.01539355933196897
-0.003751328529637887,0.01545938644747809
-0.003751158529637887,0.01493276952340613
-0.003750988529637887,0.01516316442768707
-0.003750818529637887,0.0146036339458596
-0.003750648529637887,0.0146036339458596
-0.003750478529637887,0.01466946106136872
-0.003750308529637887,0.01427449836831403
-0.003750138529637887,0.01414284413729604
-0.003749968529637887,0.01447197971484137
-0.003749798529637887,0.01401118990627757
-0.003749628529637887,0.0136820543287326
-0.003749458529637887,0.01361622721322289
-0.003749288529637887,0.0134516594244501
-0.003749118529637887,0.01308961028915063
-0.003748948529637887,0.01335291875118643
-0.003748778529637887,0.01450489327259593
-0.003748608529637887,0.01295795605813456
-0.003748438529637887,0.01282630182711352
-0.003748268529637887,0.01335291875118643
-0.003748098529637887,0.01335291875118643
-0.003747928529637887,0.01387953567525935
-0.003747758529637887,0.01381370855975023
-0.003747588529637887,0.01387953567525935
-0.003747418529637887,0.01401118990627757
-0.003747248529637887,0.01410993057954124
-0.003747078529637887,0.01410993057954124
-0.003746908529637887,0.01447197971484137
-0.003746738529637887,0.01404410346403213
-0.003746568529637887,0.01401118990627757
-0.003746398529637887,0.01361622721322235
-0.003746228529637887,0.01332000519343187
-0.003746058529637887,0.01420867125280492
-0.003745888529637887,0.01266173403834241
-0.003745718529637887,0.01358331365546833
-0.003745548529637887,0.01305669673139542
-0.003745378529637887,0.01292504250037701
-0.003745208529637887,0.01282630182711352
-0.003745038529637887,0.01364914077097745
-0.003744868529637887,0.01338583230894237
-0.003744698529637887,0.0141428441372958
-0.003744528529637887,0.01430741192606859
-0.003744358529637887,0.01420867125280552
-0.003744188529637887,0.01453780683035049
-0.003744018529637887,0.01470237461912327
-0.003743848529637887,0.01489985596565085
-0.003743678529637887,0.01503151019666884
-0.003743508529637887,0.0155252135629872
-0.003743338529637887,0.01562395423625165
-0.003743168529637887,0.01605183048706011
-0.003742998529637887,0.01680884231541493
-0.003742828529637887,0.01723671856622441
-0.003742658529637887,0.0173683727972424
-0.003742488529637887,0.0180595575100881
-0.003742318529637887,0.01842160664538876
-0.003742148529637887,0.01871782866517924
-0.003741978529637887,0.01898113712721569
-0.003741808529637887,0.01858617443416173
-0.003741638529637887,0.01819121174110632
-0.003741468529637887,0.01769750837478797
-0.003741298529637887,0.01707215077745252
-0.003741128529637887,0.0164467931801148
-0.003740958529637887,0.01572269490951454
-0.003740788529637887,0.01496568308116111
-0.003740618529637887,0.01450489327259593
-0.003740448529637887,0.01374788144424112
-0.003740278529637887,0.0139453627907681
-0.003740108529637887,0.01430741192606859
-0.003739938529637887,0.01424158481055947
-0.003739768529637887,0.01457072038810444
-0.003739598529637887,0.01476820173463239
-0.003739428529637887,0.01568978135175999
-0.003739258529637887,0.01621639827583194
-0.003739088529637887,0.01697341010418771
-0.003738918529637887,0.01624931183358745
-0.003738748529637887,0.01611765760256947
-0.003738578529637887,0.01641387962236024
-0.003738408529637887,0.01631513894909657
-0.003738238529637887,0.01578852202502461
-0.003738068529637887,0.01585434914053277
-0.003737898529637887,0.0150644237544234
-0.003737728529637887,0.01480111529238742
-0.003737558529637887,0.01453780683035049
-0.003737388529637887,0.01480111529238694
-0.003737218529637887,0.01371496788648656
-0.003737048529637887,0.01407701702178669
-0.003736878529637887,0.01434032548382314
-0.003736708529637887,0.01453780683035049
-0.003736538529637887,0.0150644237544234
-0.003736368529637887,0.0150644237544234
-0.003736198529637887,0.01539355933196897
-0.003736028529637887,0.01575560846726946
-0.003735858529637887,0.01595308981379644
-0.003735688529637887,0.01605183048706011
-0.003735518529637887,0.01631513894909777
-0.003735348529637887,0.01697341010418771
-0.003735178529637887,0.01595308981379644
-0.003735008529637887,0.01628222539134088
-0.003734838529637887,0.01565686779400543
-0.003734668529637887,0.0155252135629872
-0.003734498529637887,0.01522899154319589
-0.003734328529637887,0.0150644237544234
-0.003734158529637887,0.01486694240789606
-0.003733988529637887,0.01443906615708592
-0.003733818529637887,0.01394536279076846
-0.003733648529637887,0.01318835096241365
-0.003733478529637887,0.01269464759609517
-0.003733308529637887,0.01262882048058617
-0.003733138529637887,0.01246425269181339
-0.003732968529637887,0.01253007980732202
-0.003732798529637887,0.01226677134528605
-0.003732628529637887,0.01269464759609529
-0.003732458529637887,0.01262882048058773
-0.003732288529637887,0.01348457298220466
-0.003732118529637887,0.01180598153672225
-0.003731948529637887,0.01266173403834061
-0.003731778529637887,0.01259590692283162
-0.003731608529637887,0.0120692899987587
-0.003731438529637887,0.01183889509447722
-0.003731268529637887,0.01131227817040389
-0.003731098529637887,0.01101605615061288
-0.003730928529637887,0.01065400701531341
-0.003730758529637887,0.01058817989980363
-0.003730588529637887,0.01002864941797616
-0.003730418529637887,0.009962822302467169
-0.003730248529637887,0.01022613076450351
-0.003730078529637887,0.01012739009123984
-0.003729908529637887,0.01197054932549168
-0.003729738529637887,0.009798254513694264
-0.003729568529637887,0.01197054932549503
-0.003729398529637887,0.01220094422977651
-0.003729228529637887,0.01295795605813175
-0.003729058529637887,0.01348457298220466
-0.003728888529637887,0.01437323904157608
-0.003728718529637887,0.0150644237544234
-0.003728548529637887,0.01532773221645986
-0.003728378529637887,0.01542647288972335
-0.003728208529637887,0.01592017625604189
-0.003728038529637887,0.01631513894909657
-0.003727868529637887,0.0159201762560426
-0.003727698529637887,0.01588726269828733
-0.003727528529637887,0.01562395423625087
-0.003727358529637887,0.01549230000523288
-0.003727188529637887,0.0152948186587053
-0.003727018529637887,0.01519607798544163
-0.003726848529637887,0.01549230000523264
-0.003726678529637887,0.0148340288501415
-0.003726508529637887,0.01493276952340517
-0.003726338529637887,0.01489985596565062
-0.003726168529637887,0.01463654750361416
-0.003725998529637887,0.0148340288501415
-0.003725828529637887,0.01473528817687783
-0.003725658529637887,0.0146036339458596
-0.003725488529637887,0.01480111529238694
-0.003725318529637887,0.01476820173463239
-0.003725148529637887,0.01486694240789696
-0.003724978529637887,0.01536064577421441
-0.003724808529637887,0.01539355933196897
-0.003724638529637887,0.01493276952340499
-0.003724468529637887,0.0148340288501415
-0.003724298529637887,0.01424158481055947
-0.003724128529637887,0.01397827634852344
-0.003723958529637887,0.01420867125280492
-0.003723788529637887,0.01387953567525935
-0.003723618529637887,0.01358331365546809
-0.003723448529637887,0.0134516594244501
-0.003723278529637887,0.01285921538486808
-0.003723108529637887,0.01256299336507634
-0.003722938529637887,0.01216803067202238
-0.003722768529637887,0.01180598153672225
-0.003722598529637887,0.01134519172815881
-0.003722428529637887,0.01154267307468579
-0.003722258529637887,0.01108188326612199
-0.003722088529637887,0.01144393240142302
-0.003721918529637887,0.01193763576774048
-0.003721748529637887,0.01243133913405883
-0.003721578529637887,0.01246425269181471
-0.003721408529637887,0.01318835096241365
-0.003721238529637887,0.01295795605813175
-0.003721068529637887,0.01361622721322421
-0.003720898529637887,0.01434032548382314
-0.003720728529637887,0.01447197971484137
-0.003720558529637887,0.01480111529238635
-0.003720388529637887,0.01611765760256923
-0.003720218529637887,0.01532773221645986
-0.003720048529637887,0.01549230000523234
-0.003719878529637887,0.01559104067849632
-0.003719708529637887,0.01542647288972353
-0.003719538529637887,0.015722694909514
-0.003719368529637887,0.01572269490951454
-0.003719198529637887,0.01611765760256923
-0.003719028529637887,0.01657844741113219
-0.003718858529637887,0.01694049654643316
