Analysis/New Tests/wrd01_d2s01_new/cmb02_ch10.csv

#Digilent WaveForms Oscilloscope Acquisition
#Device Name: ADP3450
#Serial Number: SN:210018B9D9B0
#Date Time: 2024-08-14 16:32:27.526.332.280
#Sample rate: 5.88235e+06Hz
#Samples: 32768
#Trigger: Source: Channel 3 Type: Edge Condition: Rising Level: 60 mV Hyst.: Auto HoldOff: 0 s
#Channel 3: Range: 100 mV/div Offset: 0 V Attenuation: 1 X Coupling: DC Bandwidth: 0 Hz Sample Mode: Average

Time (s),Channel 3 (V)
-0.003798411006420573,0.2199184072187868
-0.003798241006420572,0.2316356337794496
-0.003798071006420572,0.2427604163004812
-0.003797901006420573,0.251482509105419
-0.003797731006420573,0.2580323070985749
-0.003797561006420573,0.2640554881676479
-0.003797391006420573,0.2679722015404402
-0.003797221006420572,0.2706381997185648
-0.003797051006420572,0.2721522233752695
-0.003796881006420573,0.2722838776062858
-0.003796711006420573,0.2714939522201747
-0.003796541006420573,0.2697824472169408
-0.003796371006420573,0.2675114117318764
-0.003796201006420572,0.2644504508606909
-0.003796031006420572,0.2612249222007429
-0.003795861006420573,0.257637344405503
-0.003795691006420573,0.2541485072835196
-0.003795521006420573,0.2504951023727704
-0.003795351006420573,0.2466113025577326
-0.003795181006420572,0.2429578976469643
-0.003795011006420572,0.2395348876404909
-0.003794841006420573,0.2362435318650409
-0.003794671006420573,0.2327876083008167
-0.003794501006420573,0.2317343744526728
-0.003794331006420573,0.224888354439725
-0.003794161006420573,0.2224198376081377
-0.003793991006420572,0.2186676920241014
-0.003793821006420573,0.2153105091331427
-0.003793651006420573,0.211920412684423
-0.003793481006420573,0.2083986620046918
-0.003793311006420573,0.2051731333447452
-0.003793141006420573,0.2018817775692955
-0.003792971006420572,0.1985575082360698
-0.003792801006420573,0.195957337173462
-0.003792631006420573,0.1919747966851627
-0.003792461006420573,0.1891442307182759
-0.003792291006420573,0.1856883071540474
-0.003792121006420573,0.1824627784941067
-0.003791951006420572,0.1789739413721043
-0.003791781006420573,0.1752547093458466
-0.003791611006420573,0.1717987857816183
-0.003791441006420573,0.1685074300061686
-0.003791271006420573,0.1650844199996947
-0.003791101006420573,0.1621221998017899
-0.003790931006420572,0.1586333626797888
-0.003790761006420573,0.1551445255578126
-0.003790591006420573,0.15195191045562
-0.003790421006420573,0.1484630733336433
-0.003790251006420573,0.1456325073667514
-0.003790081006420573,0.1424069787068049
-0.003789911006420572,0.1394118449511302
-0.003789741006420573,0.1366800196575068
-0.003789571006420573,0.1338823672483694
-0.003789401006420573,0.1310518012814826
-0.003789231006420573,0.1286161980076454
-0.003789061006420573,0.1261147676182991
-0.003788891006420572,0.1246007439615804
-0.003788721006420573,0.12209931357224
-0.003788551006420573,0.1204207221267567
-0.003788381006420573,0.1182155137572032
-0.003788211006420573,0.1170306256780413
-0.003788041006420573,0.1152532935592952
-0.003787871006420572,0.114232973268897
-0.003787701006420572,0.1123239869191379
-0.003787531006420573,0.1113694937442542
-0.003787361006420573,0.1095592480677561
-0.003787191006420573,0.1091642853747022
-0.003787021006420573,0.1072882125826924
-0.003786851006420572,0.1061033245035236
-0.003786681006420572,0.1047867821933419
-0.003786511006420573,0.1036348076719344
-0.003786341006420573,0.1024499195927697
-0.003786171006420573,0.1008700688205538
-0.003786001006420573,0.09965226718363518
-0.003785831006420572,0.09761162660284509
-0.003785661006420572,0.09553807246430823
-0.003785491006420573,0.09353034544128426
-0.003785321006420573,0.0917200997647811
-0.003785151006420573,0.08852748466259486
-0.003784981006420573,0.08905410158666777
-0.003784811006420572,0.08717802879465252
-0.003784641006420572,0.08566400513794205
-0.003784471006420573,0.08391958657695422
-0.003784301006420573,0.0824713900357536
-0.003784131006420573,0.08095736637904674
-0.003783961006420573,0.07957499695335532
-0.003783791006420573,0.07862050377847492
-0.003783621006420572,0.07733687502604161
-0.003783451006420573,0.07628364117789843
-0.003783281006420573,0.0756253700228056
-0.003783111006420573,0.07404551925058975
-0.003782941006420573,0.07279480405591657
-0.003782771006420573,0.07184031088103614
-0.003782601006420572,0.0711820397259379
-0.003782431006420573,0.06970092962698593
-0.003782261006420573,0.06845021443231269
-0.003782091006420573,0.06716658567988731
-0.003781921006420573,0.0653234264456321
-0.003781751006420573,0.0640727112509612
-0.003781581006420572,0.06255868759424536
-0.003781411006420573,0.06147254018834659
-0.003781241006420573,0.06018891143591802
-0.003781071006420573,0.05844449287492967
-0.003780901006420573,0.05729251835352017
-0.003780731006420573,0.05607471671660377
-0.003780561006420572,0.05472526084866029
-0.003780391006420573,0.05350745921174425
-0.003780221006420573,0.05248713892135351
-0.003780051006420573,0.05176304065075458
-0.003779881006420573,0.05110476949566344
-0.003779711006420573,0.05070980680260875
-0.003779541006420572,0.05051232545607997
-0.003779371006420573,0.0501173627630263
-0.003779201006420573,0.04988696785874512
-0.003779031006420573,0.0500515356475176
-0.003778861006420573,0.04988696785874482
-0.003778691006420573,0.05061106612934508
-0.003778521006420572,0.05067689324485324
-0.003778351006420573,0.05041358478281755
-0.003778181006420573,0.05031484410955359
-0.003778011006420573,0.05005153564751712
-0.003777841006420573,0.04978822718548115
-0.003777671006420573,0.04952491872344469
-0.003777501006420572,0.04853751199080426
-0.003777331006420572,0.04751719170041521
-0.003777161006420573,0.04669435275655057
-0.003776991006420573,0.04547655111963213
-0.003776821006420573,0.04435749015597923
-0.003776651006420573,0.04244850380621491
-0.003776481006420572,0.04106613438051884
-0.003776311006420572,0.03978250562808968
-0.003776141006420573,0.03810391418261224
-0.003775971006420573,0.03747855658527439
-0.003775801006420573,0.03616201427509451
-0.003775631006420573,0.03705068033446755
-0.003775461006420572,0.03415428725206593
-0.003775291006420572,0.03398971946329171
-0.003775121006420573,0.03343018898146615
-0.003774951006420573,0.03336436186595722
-0.003774781006420573,0.03339727542371171
-0.003774611006420573,0.03323270763493892
-0.003774441006420572,0.03356184321248425
-0.003774271006420572,0.0334960160969749
-0.003774101006420573,0.03336436186595704
-0.003773931006420573,0.03329853475044899
-0.003773761006420573,0.03382515167452095
-0.003773591006420573,0.03398971946329374
-0.003773421006420573,0.03398971946329374
-0.003773251006420572,0.03372641100125717
-0.003773081006420573,0.03369349744350297
-0.003772911006420573,0.03382515167451922
-0.003772741006420573,0.03287065849963879
-0.003772571006420573,0.03227821446005677
-0.003772401006420573,0.03158702974721232
-0.003772231006420572,0.03138954840067917
-0.003772061006420573,0.03013883320600978
-0.003771891006420573,0.02971095695519988
-0.003771721006420573,0.02892103156909194
-0.003771551006420573,0.02875646378031916
-0.003771381006420573,0.02757157570115725
-0.003771211006420572,0.02714369945034322
-0.003771041006420573,0.02641960117974446
-0.003770871006420573,0.02579424358241003
-0.003770701006420573,0.02635377406423649
-0.003770531006420573,0.02599172492893636
-0.003770361006420573,0.02543219444710991
-0.003770191006420572,0.02562967579363875
-0.003770021006420573,0.02632086050648109
-0.003769851006420573,0.02586007069791765
-0.003769681006420573,0.02559676223588167
-0.003769511006420573,0.02520179954282699
-0.003769341006420573,0.02520179954282699
-0.003769171006420572,0.02474100973426307
-0.003769001006420573,0.02470809617650755
-0.003768831006420573,0.02411565213692637
-0.003768661006420573,0.02398399790590838
-0.003768491006420573,0.02378651655938104
-0.003768321006420573,0.02352320809734458
-0.003768151006420572,0.022832023384499
-0.003767981006420573,0.02286493694225307
-0.003767811006420573,0.02266745559572543
-0.003767641006420573,0.02230540646042609
-0.003767471006420573,0.02237123357593508
-0.003767301006420573,0.02207501155614406
-0.003767131006420572,0.02181170309410833
-0.003766961006420573,0.02200918444063375
-0.003766791006420573,0.02135091328554279
-0.003766621006420573,0.02079138280371592
-0.003766451006420573,0.02056098789943444
-0.003766281006420573,0.01894822356946114
-0.003766111006420572,0.0193102727047645
-0.003765941006420572,0.02019893876413335
-0.003765771006420573,0.01993563030209797
-0.003765601006420573,0.02000145741760739
-0.003765431006420573,0.02023185232188887
-0.003765261006420573,0.02026476587964342
-0.003765091006420572,0.02105469126575363
-0.003764921006420572,0.02128508617003493
-0.003764751006420573,0.02135091328554525
-0.003764581006420573,0.02214083867165318
-0.003764411006420573,0.02214083867165318
-0.003764241006420573,0.02273328271123521
-0.003764071006420572,0.02243706069144467
-0.003763901006420572,0.0225687149224617
-0.003763731006420573,0.02237123357593406
-0.003763561006420573,0.02181170309410689
-0.003763391006420573,0.02141674040105292
-0.003763221006420573,0.02065972857269811
-0.003763051006420573,0.02006728453311716
-0.003762881006420572,0.01819121174110261
-0.003762711006420573,0.01717089145071332
-0.003762541006420573,0.01621639827583134
-0.003762371006420573,0.01536064577421441
-0.003762201006420573,0.0143732390415777
-0.003762031006420573,0.01368205432873326
-0.003761861006420572,0.01299086961588475
-0.003761691006420573,0.0125629933650779
-0.003761521006420573,0.0130237831736405
-0.003761351006420573,0.01282630182711352
-0.003761181006420573,0.0132212645201682
-0.003761011006420573,0.0132541780779227
-0.003760841006420572,0.01348457298220681
-0.003760671006420573,0.01407701702178771
-0.003760501006420573,0.01463654750361554
-0.003760331006420573,0.01539355933196897
-0.003760161006420573,0.01572269490951454
-0.003759991006420573,0.016216398275832
-0.003759821006420572,0.01684175587316948
-0.003759651006420573,0.01684175587317014
-0.003759481006420573,0.01720380500846991
-0.003759311006420573,0.0173683727972424
-0.003759141006420573,0.01750002702826063
-0.003758971006420573,0.01733545923948814
-0.003758801006420572,0.01671010164214982
-0.003758631006420573,0.01631513894909573
-0.003758461006420573,0.01585434914053121
-0.003758291006420573,0.01499859663891429
-0.003758121006420573,0.01486694240789606
-0.003757951006420573,0.01443906615708682
-0.003757781006420572,0.01420867125280575
-0.003757611006420573,0.01443906615708574
-0.003757441006420573,0.01384662211750527
-0.003757271006420573,0.01410993057954094
-0.003757101006420573,0.01394536279076846
-0.003756931006420573,0.01387953567525935
-0.003756761006420572,0.01322126452016928
-0.003756591006420573,0.01351748653995874
-0.003756421006420573,0.01325417807792306
-0.003756251006420573,0.01341874586669591
-0.003756081006420573,0.01361622721322289
-0.003755911006420573,0.01328709163567732
-0.003755741006420572,0.01285921538486724
-0.003755571006420572,0.01262882048058462
-0.003755401006420573,0.01220094422977675
-0.003755231006420573,0.01210220355651284
-0.003755061006420573,0.01187180865223136
-0.003754891006420573,0.01180598153672225
-0.003754721006420572,0.0117072408634563
-0.003754551006420572,0.01108188326612271
-0.003754381006420573,0.01127936461264945
-0.003754211006420573,0.01134519172815815
-0.003754041006420573,0.01118062393938566
-0.003753871006420573,0.01111479682387655
-0.003753701006420572,0.01085148836183961
-0.003753531006420572,0.0107198341308233
-0.003753361006420573,0.01111479682387637
-0.003753191006420573,0.01101605615061258
-0.003753021006420573,0.01085148836184009
-0.003752851006420573,0.01068692057306731
-0.003752681006420573,0.01025904432225884
-0.003752511006420572,0.01048943922654044
-0.003752341006420573,0.01062109345755849
-0.003752171006420573,0.01078566124633134
-0.003752001006420573,0.01098314259285832
-0.003751831006420573,0.01091731547734921
-0.003751661006420573,0.01157558663243915
-0.003751491006420572,0.01154267307468711
-0.003751321006420573,0.01190472220998628
-0.003751151006420573,0.01210220355651326
-0.003750981006420573,0.01210220355651326
-0.003750811006420573,0.01203637644100415
-0.003750641006420573,0.01216803067202214
-0.003750471006420572,0.01243133913405859
-0.003750301006420573,0.01236551201854948
-0.003750131006420573,0.01223385778753125
-0.003749961006420573,0.01210220355651326
-0.003749791006420573,0.01226677134528605
-0.003749621006420573,0.01190472220998658
-0.003749451006420572,0.01174015442121301
-0.003749281006420573,0.01170724086345786
-0.003749111006420573,0.01131227817040353
-0.003748941006420573,0.01111479682387655
-0.003748771006420573,0.01095022903510376
-0.003748601006420573,0.01065400701531329
-0.003748431006420572,0.01039069855327845
-0.003748261006420573,0.01098314259285856
-0.003748091006420573,0.01111479682387703
-0.003747921006420573,0.011378105285913
-0.003747751006420573,0.01144393240142212
-0.003747581006420573,0.01157558663244035
-0.003747411006420572,0.01262882048058043
-0.003747241006420573,0.01104896970837037
-0.003747071006420573,0.01266173403834115
-0.003746901006420573,0.01289212894262263
-0.003746731006420573,0.0132212645201682
-0.003746561006420573,0.01378079500199567
-0.003746391006420572,0.01348457298220454
-0.003746221006420573,0.0134516594244495
-0.003746051006420573,0.01312252384690351
-0.003745881006420573,0.01256299336507658
-0.003745711006420573,0.0122996849030406
-0.003745541006420573,0.01147684595917668
-0.003745371006420572,0.01137810528591013
-0.003745201006420572,0.01058817989980423
-0.003745031006420573,0.0107527476885754
-0.003744861006420573,0.01019321720674895
-0.003744691006420573,0.01019321720674895
-0.003744521006420573,0.01002864941797616
-0.003744351006420572,0.01029195788001238
-0.003744181006420572,0.01022613076450482
-0.003744011006420573,0.01058817989980316
-0.003743841006420573,0.01032487143776754
-0.003743671006420573,0.01052235278429452
-0.003743501006420573,0.01052235278429452
-0.003743331006420572,0.01101605615061359
-0.003743161006420572,0.01121353749714094
-0.003742991006420573,0.01141101884366834
-0.003742821006420573,0.01183889509447668
-0.003742651006420573,0.01177306797896769
-0.003742481006420573,0.01190472220998592
-0.003742311006420572,0.01177306797896721
-0.003742141006420572,0.01164141374795054
-0.003741971006420573,0.01193763576774012
-0.003741801006420573,0.011740154421212
-0.003741631006420573,0.01111479682387655
-0.003741461006420573,0.01058817989980363
-0.003741291006420573,0.01052235278429464
-0.003741121006420572,0.009995735860219332
-0.003740951006420573,0.009370378262884602
-0.003740781006420573,0.009139983358603002
-0.003740611006420573,0.009074156243094007
-0.003740441006420573,0.008942502012075779
-0.003740271006420573,0.008876674896566784
-0.003740101006420572,0.0088766748965681
-0.003739931006420573,0.009271637589621589
-0.003739761006420573,0.009403291820639039
-0.003739591006420573,0.009107069800848565
-0.003739421006420573,0.009534946051657807
-0.003739251006420573,0.009896995186957276
-0.003739081006420572,0.01032487143776897
-0.003738911006420573,0.01081857480408661
-0.003738741006420573,0.01141101884366792
-0.003738571006420573,0.0116085001901949
-0.003738401006420573,0.01177306797896769
-0.003738231006420573,0.01183889509447668
-0.003738061006420572,0.01200346288325977
-0.003737891006420573,0.01480111529237958
-0.003737721006420573,0.01075274768857833
-0.003737551006420573,0.01180598153672225
-0.003737381006420573,0.01118062393938566
-0.003737211006420573,0.011378105285913
-0.003737041006420572,0.01134519172815737
-0.003736871006420573,0.01104896970836785
-0.003736701006420573,0.01127936461264993
-0.003736531006420573,0.0116085001901949
-0.003736361006420573,0.01180598153672225
-0.003736191006420573,0.0118388950944768
-0.003736021006420572,0.0116414137479515
-0.003735851006420573,0.01220094422977741
-0.003735681006420573,0.01246425269181357
-0.003735511006420573,0.0125629933650764
-0.003735341006420573,0.01220094422977693
-0.003735171006420573,0.01243133913405883
-0.003735001006420572,0.01213511711426746
-0.003734831006420572,0.01203637644100409
-0.003734661006420573,0.01200346288324905
-0.003734491006420573,0.01170724086345888
-0.003734321006420573,0.01187180865223136
-0.003734151006420573,0.01124645105489478
-0.003733981006420572,0.01137810528591121
-0.003733811006420572,0.01088440191959525
-0.003733641006420573,0.01104896970836749
-0.003733471006420573,0.01108188326612211
-0.003733301006420573,0.01114771038163111
-0.003733131006420573,0.01101605615061288
-0.003732961006420572,0.01118062393938458
-0.003732791006420572,0.01088440191959345
-0.003732621006420573,0.0105552663420495
-0.003732451006420573,0.0107856612463302
-0.003732281006420573,0.01035778499552173
-0.003732111006420573,0.01039069855327629
-0.003731941006420572,0.009995735860223162
-0.003731771006420572,0.01042361211102929
-0.003731601006420573,0.009995735860221726
-0.003731431006420573,0.01006156297573048
-0.003731261006420573,0.009929908744712493
-0.003731091006420573,0.009929908744712493
-0.003730921006420573,0.009304551147377046
-0.003730751006420572,0.009534946051659363
-0.003730581006420573,0.009962822302465313
-0.003730411006420573,0.009008329127585851
-0.003730241006420573,0.009534946051657807
-0.003730071006420573,0.009139983358603122
-0.003729901006420573,0.009205810474112116
-0.003729731006420572,0.009172896916358756
-0.003729561006420573,0.009469118936148931
-0.003729391006420573,0.00960077316716716
-0.003729221006420573,0.00973242739818515
-0.003729051006420573,0.009896995186957936
-0.003728881006420573,0.009995735860221426
-0.003728711006420572,0.01101605615061431
-0.003728541006420573,0.01141101884366349
-0.003728371006420573,0.009172896916362229
-0.003728201006420573,0.01167432730570402
-0.003728031006420573,0.01190472220998592
-0.003727861006420573,0.0121022035565129
-0.003727691006420572,0.01193763576774083
-0.003727521006420573,0.01203637644100474
-0.003727351006420573,0.01236551201854942
-0.003727181006420573,0.01220094422977693
-0.003727011006420573,0.0120692899987587
-0.003726841006420573,0.01193763576774048
-0.003726671006420572,0.01213511711426686
-0.003726501006420573,0.0118718086522313
-0.003726331006420573,0.01183889509447543
-0.003726161006420573,0.01108188326612199
-0.003725991006420573,0.01098314259285832
-0.003725821006420573,0.01068692057306731
-0.003725651006420572,0.01042361211102953
-0.003725481006420573,0.01006156297573042
-0.003725311006420573,0.009896995186957875
-0.003725141006420573,0.00986408162920218
-0.003724971006420573,0.009205810474112236
-0.003724801006420573,0.008646279992284765
-0.003724631006420572,0.008218403741473727
-0.003724461006420572,0.007724700375158424
-0.003724291006420573,0.00841588508800053
-0.003724121006420573,0.007132256335575916
-0.003723951006420573,0.00756013258638438
-0.003723781006420573,0.00756013258638438
-0.003723611006420572,0.007395564797610038
-0.003723441006420572,0.00696768854680331
-0.003723271006420573,0.007230997008838749
-0.003723101006420573,0.007198083451084133
-0.003722931006420573,0.007132256335575138
-0.003722761006420573,0.007527219028629823
-0.003722591006420572,0.007856354606176711
-0.003722421006420572,0.008218403741475762
-0.003722251006420573,0.008284230856986013
-0.003722081006420573,0.00904124268533933
-0.003721911006420573,0.008975415569830336
-0.003721741006420573,0.009172896916357679
-0.003721571006420572,0.009534946051658525
-0.003721401006420572,0.009732427398185988
-0.003721231006420573,0.009962822302467049
-0.003721061006420573,0.009962822302466869
-0.003720891006420573,0.009864081629203377
-0.003720721006420573,0.01029195788001262
-0.003720551006420573,0.01042361211103061
-0.003720381006420572,0.01062109345755939
-0.003720211006420573,0.01095022903510382
-0.003720041006420573,0.01098314259285856
-0.003719871006420573,0.01111479682387655
-0.003719701006420573,0.01174015442121313
-0.003719531006420573,0.01157558663244065
-0.003719361006420572,0.01170724086346037
-0.003719191006420573,0.01220094422978029
-0.003719021006420573,0.01404410346402638
