Analysis/New Tests/wrd01_d2s01_new/cmb06_ch30.csv

#Digilent WaveForms Oscilloscope Acquisition
#Device Name: ADP3450
#Serial Number: SN:210018B9D9B0
#Date Time: 2024-08-14 15:47:36.130.914.390
#Sample rate: 5.88235e+06Hz
#Samples: 32768
#Trigger: Source: Channel 3 Type: Edge Condition: Rising Level: 60 mV Hyst.: Auto HoldOff: 0 s
#Channel 3: Range: 100 mV/div Offset: 0 V Attenuation: 1 X Coupling: DC Bandwidth: 0 Hz Sample Mode: Average

Time (s),Channel 3 (V)
-0.003798469237508204,0.2066542434437003
-0.003798299237508204,0.2203791970273707
-0.003798129237508204,0.2314052388751273
-0.003797959237508204,0.2412134790859853
-0.003797789237508204,0.2494089549668826
-0.003797619237508204,0.256320802095327
-0.003797449237508204,0.2614882306627925
-0.003797279237508204,0.2651087220157983
-0.003797109237508204,0.2676430659628946
-0.003796939237508204,0.2682025964447221
-0.003796769237508204,0.2681367693292114
-0.003796599237508204,0.2672810168275945
-0.003796429237508204,0.265536598266603
-0.003796259237508204,0.2630022543194961
-0.003796089237508204,0.2597438121018009
-0.003795919237508204,0.2559258394022723
-0.003795749237508204,0.2515483362209116
-0.003795579237508204,0.2489810787160608
-0.003795409237508204,0.2439123908218589
-0.003795239237508204,0.2400285910068148
-0.003795069237508204,0.236473926769329
-0.003794899237508204,0.2309115355088089
-0.003794729237508204,0.2276201797333592
-0.003794559237508204,0.2235388985717881
-0.003794389237508204,0.2193917902947139
-0.003794219237508204,0.2158042124994737
-0.003794049237508204,0.2119862397999386
-0.003793879237508204,0.2076745637340916
-0.003793709237508204,0.2047781706516958
-0.003793539237508204,0.2009272843944074
-0.003793369237508204,0.197240965925897
-0.003793199237508204,0.1938508694771838
-0.003793029237508204,0.1899670696621399
-0.003792859237508204,0.1864453189824022
-0.003792689237508204,0.1824627784941081
-0.003792519237508204,0.178809373583345
-0.003792349237508204,0.1754851042501347
-0.003792179237508204,0.171996267128158
-0.003792009237508204,0.1686390842371868
-0.003791839237508204,0.1653148149039766
-0.003791669237508204,0.1623196811483173
-0.003791499237508204,0.1596207694124382
-0.003791329237508204,0.1562635865214734
-0.003791159237508204,0.1536305019011136
-0.003790989237508204,0.1509974172807443
-0.003790819237508204,0.1483314191026251
-0.003790649237508204,0.1457312480400198
-0.003790479237508204,0.1429335956308778
-0.003790309237508204,0.141353744858659
-0.003790139237508204,0.1388523144693127
-0.003789969237508204,0.1367129332152665
-0.003789799237508204,0.1342115028259201
-0.003789629237508204,0.1320721215718739
-0.003789459237508204,0.1301960487798642
-0.003789289237508204,0.1286820251231545
-0.003789119237508204,0.1268388658888993
-0.003788949237508204,0.1253577557899416
-0.003788779237508204,0.1238766456909892
-0.003788609237508204,0.1216056102059248
-0.003788439237508204,0.1199270187604395
-0.003788269237508204,0.1183471679882236
-0.003788099237508204,0.1164710951962138
-0.003787929237508204,0.1144304546154271
-0.003787759237508204,0.1120935920148577
-0.003787589237508204,0.1100529514340752
-0.003787419237508204,0.1077819159490061
-0.003787249237508204,0.1052146584441553
-0.003787079237508204,0.1032398449788819
-0.003786909237508204,0.100837155262795
-0.003786739237508204,0.09850029266222568
-0.003786569237508204,0.0963279978504249
-0.003786399237508204,0.09511019621350053
-0.003786229237508204,0.09195049466906879
-0.003786059237508204,0.0907326930321502
-0.003785889237508204,0.08796795418076361
-0.003785719237508204,0.08589440004223028
-0.003785549237508204,0.08385375946144774
-0.003785379237508204,0.08197768666943518
-0.003785209237508204,0.0804307494549738
-0.003785039237508204,0.07934460204907343
-0.003784869237508204,0.07756726993032506
-0.003784699237508204,0.07631655473565419
-0.003784529237508204,0.07440756838588986
-0.003784359237508204,0.07496709886771631
-0.003784189237508204,0.07355181588427137
-0.003784019237508204,0.07282771761367113
-0.003783849237508204,0.07210361934307218
-0.003783679237508204,0.07141243463022517
-0.003783509237508204,0.07049085501309757
-0.003783339237508204,0.06989841097351662
-0.003783169237508204,0.06937179404944263
-0.003782999237508204,0.06821981952803313
-0.003782829237508204,0.0674628076996797
-0.003782659237508204,0.06640957385153248
-0.003782489237508204,0.06522468577236842
-0.003782319237508204,0.06403979769320652
-0.003782149237508204,0.06285490961404033
-0.003781979237508204,0.06239411980547652
-0.003781809237508204,0.06190041643915906
-0.003781639237508204,0.06150545374610348
-0.003781469237508204,0.05933315893430271
-0.003781299237508204,0.05844449287493129
-0.003781129237508204,0.05689755566046548
-0.003780959237508204,0.05538353200375586
-0.003780789237508204,0.0547910879641749
-0.003780619237508204,0.0532770643074642
-0.003780449237508204,0.05252005247910939
-0.003780279237508204,0.05149973218871997
-0.003780109237508204,0.05031484410955406
-0.003779939237508204,0.04912995603039001
-0.003779769237508204,0.04787924083571684
-0.003779599237508204,0.04797798150898051
-0.003779429237508204,0.04649687141002544
-0.003779259237508204,0.04620064939023442
-0.003779089237508204,0.04531198333086138
-0.003778919237508204,0.0444562308292429
-0.003778749237508204,0.04363339188537897
-0.003778579237508204,0.04274472582600593
-0.003778409237508204,0.04208645467091478
-0.003778239237508204,0.04185605976663288
-0.003778069237508204,0.04119778861154223
-0.003777899237508204,0.0414610970735782
-0.003777729237508204,0.04073699880297794
-0.003777559237508204,0.04080282591848706
-0.003777389237508204,0.04080282591848706
-0.003777219237508204,0.04090156659175073
-0.003777049237508204,0.04017746832114646
-0.003776879237508204,0.03797225995159514
-0.003776709237508204,0.03925588870402288
-0.003776539237508204,0.03899258024198534
-0.003776369237508204,0.03840013620240439
-0.003776199237508204,0.0375443837007859
-0.003776029237508204,0.03741272946976576
-0.003775859237508204,0.03635949562162185
-0.003775689237508204,0.03560248379326703
-0.003775519237508204,0.03477964484940245
-0.003775349237508204,0.03441759571410298
-0.003775179237508204,0.03405554657880285
-0.003775009237508204,0.03356184321248324
-0.003774839237508204,0.03287065849963879
-0.003774669237508204,0.03221238734454766
-0.003774499237508204,0.03119206705415471
-0.003774329237508204,0.03027048743702878
-0.003774159237508204,0.02951347560867397
-0.003773989237508204,0.02819693329849037
-0.003773819237508204,0.02747283502789143
-0.003773649237508204,0.02704495877708219
-0.003773479237508204,0.02681456387280071
-0.003773309237508204,0.02681456387280029
-0.003773139237508204,0.0266499960840275
-0.003772969237508204,0.02681456387279999
-0.003772799237508204,0.02622211983321826
-0.003772629237508204,0.02658416896851839
-0.003772459237508204,0.02697913166157236
-0.003772289237508204,0.02671582319953662
-0.003772119237508204,0.02628794694872737
-0.003771949237508204,0.02615629271770939
-0.003771779237508204,0.02569550290914535
-0.003771609237508204,0.02487266396528142
-0.003771439237508204,0.02428021992570047
-0.003771269237508204,0.02414856569468116
-0.003771099237508204,0.02227249290267141
-0.003770929237508204,0.02256871492246188
-0.003770759237508204,0.02194335732512584
-0.003770589237508204,0.02131799972778925
-0.003770419237508204,0.02026476587964534
-0.003770249237508204,0.02010019809087064
-0.003770079237508204,0.01931027270476127
-0.003769909237508204,0.01934318626251576
-0.003769739237508204,0.01947484049353405
-0.003769569237508204,0.01947484049353405
-0.003769399237508204,0.01894822356946114
-0.003769229237508204,0.01950775405128861
-0.003769059237508204,0.01970523539781595
-0.003768889237508204,0.01957358116679772
-0.003768719237508204,0.01924444558925215
-0.003768549237508204,0.01907987780047937
-0.003768379237508204,0.01868491510742468
-0.003768209237508204,0.01868491510742468
-0.003768039237508204,0.01868491510742468
-0.003767869237508204,0.0185203473186519
-0.003767699237508204,0.01812538462559703
-0.003767529237508204,0.01802664395233354
-0.003767359237508204,0.01802664395233354
-0.003767189237508204,0.0165784474111338
-0.003767019237508204,0.01700632366194227
-0.003766849237508204,0.0162163982758329
-0.003766679237508204,0.01578852202502294
-0.003766509237508204,0.01539355933196897
-0.003766339237508204,0.01473528817687783
-0.003766169237508204,0.01434032548382183
-0.003765999237508204,0.01361622721322289
-0.003765829237508204,0.01394536279076846
-0.003765659237508204,0.01457072038810403
-0.003765489237508204,0.01401118990627757
-0.003765319237508204,0.01430741192606859
-0.003765149237508204,0.01453780683035109
-0.003764979237508204,0.01486694240789606
-0.003764809237508204,0.01532773221645986
-0.003764639237508204,0.01513025086993233
-0.003764469237508204,0.01503151019666884
-0.003764299237508204,0.01578852202502366
-0.003764129237508204,0.01522899154319649
-0.003763959237508204,0.01539355933196897
-0.003763789237508204,0.01522899154319619
-0.003763619237508204,0.01499859663891453
-0.003763449237508204,0.01513025086993251
-0.003763279237508204,0.01480111529238694
-0.003763109237508204,0.01470237461912345
-0.003762939237508204,0.01447197971484137
-0.003762769237508204,0.01397827634852302
-0.003762599237508204,0.01335291875118757
-0.003762429237508204,0.01308961028914997
-0.003762259237508204,0.01266173403834073
-0.003762089237508204,0.01236551201855026
-0.003761919237508204,0.01220094422977693
-0.003761749237508204,0.01170724086345858
-0.003761579237508204,0.01134519172815911
-0.003761409237508204,0.01101605615061288
-0.003761239237508204,0.01098314259285832
-0.003761069237508204,0.01085148836184033
-0.003760899237508204,0.01081857480408553
-0.003760729237508204,0.01085148836184009
-0.003760559237508204,0.01114771038163057
-0.003760389237508204,0.01141101884366756
-0.003760219237508204,0.01144393240142212
-0.003760049237508204,0.01203637644100307
-0.003759879237508204,0.01213511711426782
-0.003759709237508204,0.01246425269181339
-0.003759539237508204,0.01203637644100492
-0.003759369237508204,0.01197054932549503
-0.003759199237508204,0.01164141374794946
-0.003759029237508204,0.01177306797896745
-0.003758859237508204,0.01164141374794946
-0.003758689237508204,0.01095022903510376
-0.003758519237508204,0.01039069855327629
-0.003758349237508204,0.009567859609412364
-0.003758179237508204,0.00950203249390325
-0.003758009237508204,0.01078566124633098
-0.003757839237508204,0.00653981229599311
-0.003757669237508204,0.008580452876775651
-0.003757499237508204,0.007296824124347924
-0.003757329237508204,0.006967688546802352
-0.003757159237508204,0.006967688546802352
-0.003756989237508204,0.00677020720027501
-0.003756819237508204,0.00719808345108509
-0.003756649237508204,0.007658873259648051
-0.003756479237508204,0.007527219028629823
-0.003756309237508204,0.008185490183719769
-0.003756139237508204,0.007527219028629823
-0.003755969237508204,0.008415885088002865
-0.003755799237508204,0.009074156243093528
-0.003755629237508204,0.00881084778105755
-0.003755459237508204,0.009107069800848565
-0.003755289237508204,0.008218403741475882
-0.003755119237508204,0.008415885088002865
-0.003754949237508204,0.007625959701893495
-0.003754779237508204,0.008448798645757542
-0.003754609237508204,0.008514625761266537
-0.003754439237508204,0.008152576625966409
-0.003754269237508204,0.008514625761266117
-0.003754099237508204,0.008284230856984636
-0.003753929237508204,0.008942502012075779
-0.003753759237508204,0.008975415569830995
-0.003753589237508204,0.009337464705130465
-0.003753419237508204,0.009469118936148692
-0.003753249237508204,0.01012739009124025
-0.003753079237508204,0.01035778499552173
-0.003752909237508204,0.01095022903510376
-0.003752739237508204,0.01088440191959477
-0.003752569237508204,0.011378105285913
-0.003752399237508204,0.01144393240142212
-0.003752229237508204,0.01101605615061365
-0.003752059237508204,0.01243133913405883
-0.003751889237508204,0.0116085001901949
-0.003751719237508204,0.01187180865223088
-0.003751549237508204,0.01170724086345858
-0.003751379237508204,0.01141101884366756
-0.003751209237508204,0.01101605615061359
-0.003751039237508204,0.01048943922653996
-0.003750869237508204,0.01025904432225806
-0.003750699237508204,0.009896995186958595
-0.003750529237508204,0.009995735860221606
-0.003750359237508204,0.009074156243094007
-0.003750189237508204,0.008810847781058029
-0.003750019237508204,0.008382971530248308
-0.003749849237508204,0.007625959701893495
-0.003749679237508204,0.007329737682103019
-0.003749509237508204,0.007066429220066024
-0.003749339237508204,0.00630941739171121
-0.003749169237508204,0.006013195371920734
-0.003748999237508204,0.005782800467638296
-0.003748829237508204,0.005387837774583611
-0.003748659237508204,0.005980281814164561
-0.003748489237508204,0.004433344599701455
-0.003748319237508204,0.00505870219703804
-0.003748149237508204,0.006177763160692982
-0.003747979237508204,0.006177763160692982
-0.003747809237508204,0.006737293642520453
-0.003747639237508204,0.006704380084765896
-0.003747469237508204,0.006868947873538681
-0.003747299237508204,0.00756013258638438
-0.003747129237508204,0.007625959701893495
-0.003746959237508204,0.007494305470875266
-0.003746789237508204,0.00779052749066628
-0.003746619237508204,0.00871210710779388
-0.003746449237508204,0.007724700375157884
-0.003746279237508204,0.00811966306821185
-0.003746109237508204,0.007922181721684508
-0.003745939237508204,0.008646279992285004
-0.003745769237508204,0.008777934223302994
-0.003745599237508204,0.008942502012075779
-0.003745429237508204,0.009633686724921597
-0.003745259237508204,0.009699513840430593
-0.003745089237508204,0.009798254513694264
-0.003744919237508204,0.01006156297573258
-0.003744749237508204,0.01108188326612199
-0.003744579237508204,0.01016030364899439
-0.003744409237508204,0.01085148836183997
-0.003744239237508204,0.01078566124633098
-0.003744069237508204,0.01088440191959465
-0.003743899237508204,0.01042361211103001
-0.003743729237508204,0.009962822302467049
-0.003743559237508204,0.009370378262885021
-0.003743389237508204,0.009074156243093347
-0.003743219237508204,0.00871210710779388
-0.003743049237508204,0.008415885088002865
-0.003742879237508204,0.007560132586383722
-0.003742709237508204,0.007198083451084253
-0.003742539237508204,0.006868947873538681
-0.003742369237508204,0.006506898738237715
-0.003742199237508204,0.006046108929674754
-0.003742029237508204,0.005815714025392853
-0.003741859237508204,0.006111936045183329
-0.003741689237508204,0.005881541140901968
-0.003741519237508204,0.006046108929674754
-0.003741349237508204,0.005782800467638775
-0.003741179237508204,0.006408158064974882
-0.003741009237508204,0.006144849602938425
-0.003740839237508204,0.006408158064974403
-0.003740669237508204,0.006836034315784124
-0.003740499237508204,0.006934774989047795
-0.003740329237508204,0.007856354606173718
-0.003740159237508204,0.008086749510457293
-0.003739989237508204,0.008514625761266537
-0.003739819237508204,0.008679193550039021
-0.003739649237508204,0.008975415569830336
-0.003739479237508204,0.008843761338812107
-0.003739309237508204,0.009008329127584593
-0.003739139237508204,0.009008329127584893
-0.003738969237508204,0.009271637589621349
-0.003738799237508204,0.008679193550040399
-0.003738629237508204,0.007757613932911723
-0.003738459237508204,0.007362651239857037
-0.003738289237508204,0.006836034315785082
-0.003738119237508204,0.006046108929674754
-0.003737949237508204,0.005091615754792597
-0.003737779237508204,0.005519492005601061
-0.003737609237508204,0.00528909710131994
-0.003737439237508204,0.00607902248742931
-0.003737269237508204,0.005256183543565383
-0.003737099237508204,0.006276503833956653
-0.003736929237508204,0.006144849602938425
-0.003736759237508204,0.006441071622729439
-0.003736589237508204,0.006572725853747667
-0.003736419237508204,0.006803120758029567
-0.003736249237508204,0.007198083451084253
-0.003736079237508204,0.006375244507221461
-0.003735909237508204,0.00700060210455691
-0.003735739237508204,0.007329737682102481
-0.003735569237508204,0.007362651239857516
-0.003735399237508204,0.007625959701893495
-0.003735229237508204,0.007494305470875266
-0.003735059237508204,0.00782344104841976
-0.003734889237508204,0.007230997008838809
-0.003734719237508204,0.007132256335575138
-0.003734549237508204,0.007099342777820581
-0.003734379237508204,0.007099342777820581
-0.003734209237508204,0.006901861431293239
-0.003734039237508204,0.006868947873538382
-0.003733869237508204,0.006704380084765896
-0.003733699237508204,0.006605639411502225
-0.003733529237508204,0.006309417391710432
-0.003733359237508204,0.005881541140901968
-0.003733189237508204,0.005815714025392853
-0.003733019237508204,0.005684059794374206
-0.003732849237508204,0.005453664890092726
-0.003732679237508204,0.005684059794374625
-0.003732509237508204,0.005289097101320179
-0.003732339237508204,0.005420751332338168
-0.003732169237508204,0.004959961523774369
-0.003731999237508204,0.004597912388474121
-0.003731829237508204,0.004532085272965126
-0.003731659237508204,0.004235863253174112
-0.003731489237508204,0.00413712257991062
-0.003731319237508204,0.00426877681092867
-0.003731149237508204,0.003775073444610313
-0.003730979237508204,0.003873814117873805
-0.003730809237508204,0.003906727675628541
-0.003730639237508204,0.003643419213592085
-0.003730469237508204,0.003676332771346582
-0.003730299237508204,0.003972554791137656
-0.003730129237508204,0.003445937867064742
-0.003729959237508204,0.003939641233382201
-0.003729789237508204,0.003906727675628541
-0.003729619237508204,0.006737293642520453
-0.003729449237508204,0.003050975174016762
-0.003729279237508204,0.004137122579910441
-0.003729109237508204,0.004005468348892213
-0.003728939237508204,0.003577592098083749
-0.003728769237508204,0.003610505655837527
-0.003728599237508204,0.002886407385237271
-0.003728429237508204,0.002985148058500763
-0.003728259237508204,0.0030180616162555
-0.003728089237508204,0.003445937867064742
-0.003727919237508204,0.002886407385238289
-0.003727749237508204,0.003215542962782842
-0.003727579237508204,0.003939641233383098
-0.003727409237508204,0.00403838190664659
-0.003727239237508204,0.004532085272965126
-0.003727069237508204,0.004630825946228797
-0.003726899237508204,0.004532085272965126
-0.003726729237508204,0.004532085272965126
-0.003726559237508204,0.004729566619492469
-0.003726389237508204,0.004729566619492469
-0.003726219237508204,0.005157442870301712
-0.003726049237508204,0.004959961523774369
-0.003725879237508204,0.005453664890092726
-0.003725709237508204,0.005157442870301712
-0.003725539237508204,0.00482830729275614
-0.003725369237508204,0.004729566619492469
-0.003725199237508204,0.004663739503984193
-0.003725029237508204,0.005124529312547154
-0.003724859237508204,0.004992875081528926
-0.003724689237508204,0.005322010659074437
-0.003724519237508204,0.00528909710131994
-0.003724349237508204,0.005453664890092726
-0.003724179237508204,0.005519492005602198
-0.003724009237508204,0.005716973352129182
-0.003723839237508204,0.005782800467638296
-0.003723669237508204,0.005881541140901848
-0.003723499237508204,0.005815714025392853
-0.003723329237508204,0.005256183543565383
-0.003723159237508204,0.005256183543564904
-0.003722989237508204,0.004992875081528926
-0.003722819237508204,0.004630825946228797
-0.003722649237508204,0.004334603926437365
-0.003722479237508204,0.004104209022155884
-0.003722309237508204,0.003873814117873984
-0.003722139237508204,0.003544678540328773
-0.003721969237508204,0.003742159886855756
-0.003721799237508204,0.003478851424819299
-0.003721629237508204,0.003248456520537759
-0.003721459237508204,0.003445937867064742
-0.003721289237508204,0.003281370078291956
-0.003721119237508204,0.004170036137662424
-0.003720949237508204,0.002754753154219042
-0.003720779237508204,0.004499171715210569
-0.003720609237508204,0.004499171715210569
-0.003720439237508204,0.004729566619492469
-0.003720269237508204,0.004597912388474241
-0.003720099237508204,0.005947368256408628
-0.003719929237508204,0.004630825946228797
-0.003719759237508204,0.006572725853747667
