Analysis/New Tests/wrd01_d2s01_new/cmb02_ch36.csv

#Digilent WaveForms Oscilloscope Acquisition
#Device Name: ADP3450
#Serial Number: SN:210018B9D9B0
#Date Time: 2024-08-14 16:42:29.074.722.830
#Sample rate: 5.88235e+06Hz
#Samples: 32768
#Trigger: Source: Channel 3 Type: Edge Condition: Rising Level: 60 mV Hyst.: Auto HoldOff: 0 s
#Channel 3: Range: 100 mV/div Offset: 0 V Attenuation: 1 X Coupling: DC Bandwidth: 0 Hz Sample Mode: Average

Time (s),Channel 3 (V)
-0.003798534482650392,0.2013880742029712
-0.003798364482650391,0.2152117684599077
-0.003798194482650391,0.2275872661755986
-0.003798024482650392,0.2385145673501116
-0.003797854482650391,0.2477961906369114
-0.003797684482650391,0.2558600122867632
-0.003797514482650392,0.2622123289333927
-0.003797344482650391,0.267215189712092
-0.003797174482650391,0.2708027675073321
-0.003797004482650392,0.2732054572234148
-0.003796834482650391,0.2742257775138064
-0.003796664482650391,0.2744232588603334
-0.003796494482650392,0.2738637283785059
-0.003796324482650391,0.2722838776062844
-0.003796154482650391,0.270736940391823
-0.003795984482650392,0.2679722015404402
-0.003795814482650391,0.2651087220157873
-0.003795644482650391,0.2615869713360561
-0.003795474482650392,0.2578019121942821
-0.003795304482650391,0.2536548039172012
-0.003795134482650391,0.250001399006452
-0.003794964482650392,0.2458542907293778
-0.003794794482650392,0.2414109604325207
-0.003794624482650391,0.2373955063864567
-0.003794454482650391,0.2330180032051005
-0.003794284482650392,0.2287721542547704
-0.003794114482650391,0.2249212679974795
-0.003793944482650391,0.220872900393669
-0.003793774482650392,0.2172524090406743
-0.003793604482650391,0.2137635719186846
-0.003793434482650391,0.2101430805656834
-0.003793264482650392,0.2067529841169702
-0.003793094482650391,0.2025400487243807
-0.003792924482650391,0.1996436556419796
-0.003792754482650392,0.1960231642889849
-0.003792584482650391,0.1926988949557681
-0.003792414482650391,0.1893087985070487
-0.003792244482650392,0.1859187020583355
-0.003792074482650391,0.1825944327251191
-0.003791904482650391,0.1795663854116998
-0.003791734482650392,0.1765712516560406
-0.003791564482650391,0.1733786365538431
-0.003791394482650391,0.1699885401051237
-0.003791224482650392,0.1673554554847639
-0.003791054482650391,0.1635374827852305
-0.003790884482650391,0.1616614099932208
-0.003790714482650392,0.1588637575840885
-0.003790544482650391,0.1562635865214734
-0.003790374482650391,0.1533342798813178
-0.003790204482650392,0.1509645037229897
-0.003790034482650391,0.1497467020860711
-0.003789864482650391,0.1456983344822605
-0.003789694482650392,0.143361471881687
-0.003789524482650391,0.1402346838950041
-0.003789354482650391,0.1383915246607489
-0.003789184482650392,0.1353963909050842
-0.003789014482650391,0.1327962198424699
-0.003788844482650391,0.1304593572419006
-0.003788674482650392,0.1279579268525543
-0.003788504482650391,0.1258185455985038
-0.003788334482650391,0.1234816829979345
-0.003788164482650392,0.122033486456734
-0.003787994482650391,0.1202890678957392
-0.003787824482650391,0.1185117357769964
-0.003787654482650392,0.116536922311723
-0.003787484482650391,0.1153520342325564
-0.003787314482650391,0.1139696648068675
-0.003787144482650392,0.1127518631699489
-0.003786974482650391,0.1115669750907834
-0.003786804482650391,0.1107770497046755
-0.003786634482650392,0.109625075183266
-0.003786464482650391,0.1084072735463484
-0.003786294482650391,0.1089668040281748
-0.003786124482650392,0.1045234737313096
-0.003785954482650391,0.1025486602660345
-0.003785784482650391,0.1016270806489086
-0.003785614482650392,0.100113056992199
-0.003785444482650391,0.09797367573814904
-0.003785274482650391,0.0959330351573702
-0.003785104482650392,0.09405696236536046
-0.003784934482650391,0.09214797601559245
-0.003784764482650391,0.09010733543481361
-0.003784594482650392,0.08816543552729472
-0.003784424482650392,0.08698054744813284
-0.003784254482650391,0.08497282042510271
-0.003784084482650392,0.08359045099941129
-0.003783914482650392,0.08187894599617743
-0.003783744482650391,0.08079279859027394
-0.003783574482650391,0.08010161387742826
-0.003783404482650392,0.07868633089398486
-0.003783234482650391,0.07783057839236379
-0.003783064482650391,0.07727104791053632
-0.003782894482650392,0.07598741915811094
-0.003782724482650391,0.07457213617466266
-0.003782554482650391,0.07358472944202593
-0.003782384482650392,0.07187322443879207
-0.003782214482650391,0.07045794145534301
-0.003782044482650391,0.06920722626066983
-0.003781874482650392,0.06752863481519047
-0.003781704482650391,0.06621209250500515
-0.003781534482650391,0.0647968095215592
-0.003781364482650392,0.06338152653811582
-0.003781194482650391,0.06236120624772196
-0.003781024482650391,0.06084718259101234
-0.003780854482650392,0.05959646739634145
-0.003780684482650391,0.06127505884182158
-0.003780514482650391,0.05752291325780207
-0.003780344482650392,0.05712795056474811
-0.003780174482650391,0.05660133364067447
-0.003780004482650391,0.05587723537007421
-0.003779834482650392,0.05485691507968295
-0.003779664482650391,0.0539682490203099
-0.003779494482650391,0.05344163209623699
-0.003779324482650392,0.05268462026788218
-0.003779154482650391,0.05209217622830015
-0.003778984482650391,0.05126933728443622
-0.003778814482650392,0.05094020170689065
-0.003778644482650391,0.05008444920527216
-0.003778474482650391,0.04942617805018102
-0.003778304482650392,0.04912995603039001
-0.003778134482650391,0.04880082045284432
-0.003777964482650391,0.04873499333733532
-0.003777794482650392,0.04903121535712634
-0.003777624482650391,0.04899830179937214
-0.003777454482650391,0.04919578314589912
-0.003777284482650392,0.04896538824161722
-0.003777114482650391,0.04886664756835331
-0.003776944482650391,0.04873499333733532
-0.003776774482650392,0.04843877131754431
-0.003776604482650391,0.04804380862448872
-0.003776434482650391,0.04755010525817126
-0.003776264482650392,0.04712222900736202
-0.003776094482650391,0.04682600698757047
-0.003775924482650391,0.04652978496777999
-0.003775754482650392,0.04567403246616151
-0.003775584482650391,0.04432457659822317
-0.003775414482650391,0.04350173765436074
-0.003775244482650392,0.04294220717253327
-0.003775074482650391,0.04205354111315855
-0.003774904482650391,0.04113196149603263
-0.003774734482650392,0.04103322082276896
-0.003774564482650391,0.04044077678318495
-0.003774394482650391,0.03935462937728654
-0.003774224482650392,0.03902549379974098
-0.003774054482650391,0.03826848197138562
-0.003773884482650391,0.03797225995159514
-0.003773714482650392,0.03823556841363161
-0.003773544482650392,0.03800517350935012
-0.003773374482650391,0.0375443837007859
-0.003773204482650391,0.03698485321895843
-0.003773034482650392,0.03603036004407801
-0.003772864482650391,0.03517460754245779
-0.003772694482650391,0.03448342282961209
-0.003772524482650392,0.03352892965473167
-0.003772354482650391,0.03254152292209322
-0.003772184482650391,0.03198199244026576
-0.003772014482650392,0.03122498061191232
-0.003771844482650391,0.03043505522580157
-0.003771674482650391,0.03013883320601056
-0.003771504482650392,0.02901977224235765
-0.003771334482650391,0.03004009253274689
-0.003771164482650391,0.02793362483645523
-0.003770994482650392,0.02790071127870073
-0.003770824482650391,0.0273411807968732
-0.003770654482650391,0.02707787233483674
-0.003770484482650392,0.02688039098830976
-0.003770314482650391,0.02691330454606396
-0.003770144482650391,0.02674873675729117
-0.003769974482650392,0.02697913166157265
-0.003769804482650391,0.02684747743055485
-0.003769634482650391,0.02724244012360953
-0.003769464482650392,0.02740700791238232
-0.003769294482650391,0.02694621810381852
-0.003769124482650391,0.02740700791238232
-0.003768954482650392,0.02743992147013687
-0.003768784482650391,0.02717661300810041
-0.003768614482650391,0.02704495877708219
-0.003768444482650392,0.02707787233483674
-0.003768274482650391,0.02658416896851839
-0.003768104482650391,0.02671582319953662
-0.003767934482650392,0.02681456387280029
-0.003767764482650391,0.02668290964177954
-0.003767594482650391,0.02530054021609066
-0.003767424482650392,0.02589298425567269
-0.003767254482650391,0.02526762665833533
-0.003767084482650391,0.02483975040752686
-0.003766914482650392,0.02510305886956332
-0.003766744482650391,0.02546510800486345
-0.003766574482650391,0.02546510800486345
-0.003766404482650392,0.02539928088935433
-0.003766234482650391,0.02566258935139025
-0.003766064482650391,0.02536636733159978
-0.003765894482650392,0.02566258935139079
-0.003765724482650391,0.02622211983321814
-0.003765554482650391,0.02615629271770915
-0.003765384482650392,0.02605755204444548
-0.003765214482650391,0.02615629271770801
-0.003765044482650391,0.02553093512037256
-0.003764874482650392,0.02523471310058155
-0.003764704482650391,0.02454352838773477
-0.003764534482650391,0.02395108434815382
-0.003764364482650392,0.02385234367489015
-0.003764194482650391,0.02345738098183438
-0.003764024482650391,0.02286493694225343
-0.003763854482650392,0.02260162848021698
-0.003763684482650391,0.02237123357593412
-0.003763514482650391,0.02184461665186217
-0.003763344482650392,0.02112051838126191
-0.003763174482650392,0.02065972857269895
-0.003763004482650391,0.02000145741760697
-0.003762834482650391,0.01950775405128861
-0.003762664482650392,0.01921153203149813
-0.003762494482650391,0.01835577952987911
-0.003762324482650391,0.01822412529886088
-0.003762154482650392,0.01815829818335189
-0.003761984482650391,0.01766459481703341
-0.003761814482650391,0.01513025086993251
-0.003761644482650392,0.0176975083747833
-0.003761474482650391,0.01753294058601518
-0.003761304482650391,0.0175987677015243
-0.003761134482650392,0.01746711347050631
-0.003760964482650391,0.01779624904805164
-0.003760794482650391,0.01825703885661544
-0.003760624482650392,0.01881656933844189
-0.003760454482650391,0.01884948289619747
-0.003760284482650391,0.0192115320314976
-0.003760114482650392,0.01990271674434204
-0.003759944482650391,0.02003437097536152
-0.003759774482650391,0.02016602520637975
-0.003759604482650392,0.02065972857269721
-0.003759434482650391,0.02171296242084393
-0.003759264482650391,0.02207501155614406
-0.003759094482650392,0.02276619626898851
-0.003758924482650391,0.02306241828878078
-0.003758754482650391,0.02246997424919875
-0.003758584482650392,0.02325989963530812
-0.003758414482650391,0.02253580136470787
-0.003758244482650391,0.02184461665186217
-0.003758074482650392,0.02184461665186217
-0.003757904482650391,0.02144965395880748
-0.003757734482650391,0.02069264213045267
-0.003757564482650392,0.02062681501494355
-0.003757394482650391,0.02121925905452235
-0.003757224482650391,0.0194419269357795
-0.003757054482650392,0.02049516078392532
-0.003756884482650391,0.01970523539781541
-0.003756714482650391,0.01940901337802494
-0.003756544482650392,0.01924444558925215
-0.003756374482650391,0.01904696424272505
-0.003756204482650391,0.01917861847374304
-0.003756034482650392,0.01898113712721569
-0.003755864482650391,0.01861908799191617
-0.003755694482650391,0.01894822356946114
-0.003755524482650392,0.01891531001170658
-0.003755354482650391,0.01911279135823453
-0.003755184482650391,0.0194419269357795
-0.003755014482650392,0.01963940828230684
-0.003754844482650391,0.01947484049353423
-0.003754674482650391,0.01957358116679772
-0.003754504482650392,0.0196723218400614
-0.003754334482650391,0.01944192693577902
-0.003754164482650391,0.01917861847374304
-0.003753994482650392,0.01898113712721569
-0.003753824482650391,0.01855326087640609
-0.003753654482650391,0.01835577952987911
-0.003753484482650392,0.01832286597212456
-0.003753314482650391,0.01805955751008816
-0.003753144482650391,0.01809247106784265
-0.003752974482650392,0.01845452020314278
-0.003752804482650392,0.01871782866517876
-0.003752634482650391,0.01865200154967013
-0.003752464482650392,0.01881656933844291
-0.003752294482650392,0.01611765760257414
-0.003752124482650391,0.01819121174110632
-0.003751954482650391,0.01763168125927886
-0.003751784482650392,0.01726963212397939
-0.003751614482650391,0.01638096606460569
-0.003751444482650391,0.01601891692930556
-0.003751274482650392,0.01526190510095212
-0.003751104482650391,0.01486694240789606
-0.003750934482650391,0.0146036339458596
-0.003750764482650392,0.01378079500199717
-0.003750594482650391,0.01440615259933226
-0.003750424482650391,0.01394536279076846
-0.003750254482650392,0.0147023746191219
-0.003750084482650391,0.01407701702178669
-0.003749914482650391,0.0139124492330139
-0.003749744482650392,0.01420867125280438
-0.003749574482650391,0.01410993057954124
-0.003749404482650391,0.01407701702178669
-0.003749234482650392,0.01457072038810414
-0.003749064482650391,0.01430741192606859
-0.003748894482650391,0.01424158481055947
-0.003748724482650392,0.01489985596564942
-0.003748554482650391,0.01476820173463239
-0.003748384482650391,0.01568978135175999
-0.003748214482650392,0.01634805250685113
-0.003748044482650391,0.01700632366194227
-0.003747874482650391,0.01740128635499695
-0.003747704482650392,0.0173683727972424
-0.003747534482650391,0.01710506433520594
-0.003747364482650391,0.01671010164215126
-0.003747194482650392,0.01664427452664214
-0.003747024482650391,0.01592017625604189
-0.003746854482650391,0.01499859663891429
-0.003746684482650392,0.01476820173463239
-0.003746514482650391,0.01434032548382225
-0.003746344482650391,0.01384662211750479
-0.003746174482650392,0.01364914077097745
-0.003746004482650391,0.01249716624956986
-0.003745834482650391,0.01355040009771377
-0.003745664482650392,0.01295795605813175
-0.003745494482650391,0.01295795605813175
-0.003745324482650391,0.01295795605813175
-0.003745154482650392,0.01338583230894099
-0.003744984482650391,0.01364914077097757
-0.003744814482650391,0.01371496788648656
-0.003744644482650392,0.0141428441372958
-0.003744474482650391,0.01424158481055959
-0.003744304482650391,0.01430741192606859
-0.003744134482650392,0.01424158481055947
-0.003743964482650391,0.01486694240789534
-0.003743794482650391,0.01447197971484137
-0.003743624482650392,0.01440615259933226
-0.003743454482650391,0.01427449836831319
-0.003743284482650391,0.01381370855975023
-0.003743114482650392,0.0134516594244501
-0.003742944482650391,0.01147684595918063
-0.003742774482650391,0.01364914077097745
-0.003742604482650392,0.01210220355651326
-0.003742434482650391,0.01269464759609487
-0.003742264482650391,0.01246425269181339
-0.003742094482650392,0.01124645105489478
-0.003741924482650392,0.01164141374794874
-0.003741754482650391,0.0120692899987587
-0.003741584482650391,0.01134519172815845
-0.003741414482650392,0.01200346288324839
-0.003741244482650391,0.01147684595917668
-0.003741074482650391,0.01177306797896769
-0.003740904482650392,0.01226677134528515
-0.003740734482650391,0.01312252384690453
-0.003740564482650391,0.01295795605813175
-0.003740394482650392,0.01312252384690423
-0.003740224482650391,0.01410993057954124
-0.003740054482650391,0.01417575769505036
-0.003739884482650392,0.01499859663891279
-0.003739714482650391,0.01526190510095074
-0.003739544482650391,0.01578852202502366
-0.003739374482650392,0.01608474404481413
-0.003739204482650391,0.01634805250685113
-0.003739034482650391,0.01611765760256923
-0.003738864482650392,0.01651262029562319
-0.003738694482650391,0.01664427452664214
-0.003738524482650391,0.01657844741113303
-0.003738354482650392,0.01677592875766001
-0.003738184482650391,0.01657844741113303
-0.003738014482650391,0.015986003371551
-0.003737844482650392,0.01578852202502402
-0.003737674482650391,0.0152948186587053
-0.003737504482650391,0.0150644237544234
-0.003737334482650392,0.0152948186587053
-0.003737164482650391,0.01470237461912327
-0.003736994482650391,0.01463654750361416
-0.003736824482650392,0.0148340288501415
-0.003736654482650391,0.01476820173463239
-0.003736484482650391,0.01539355933196897
-0.003736314482650392,0.0152948186587053
-0.003736144482650391,0.01615057116032384
-0.003735974482650391,0.01618348471807834
-0.003735804482650392,0.0162163982758329
-0.003735634482650391,0.01624931183358685
-0.003735464482650391,0.01592017625604189
-0.003735294482650392,0.01562395423625087
-0.003735124482650391,0.01509733731217802
-0.003734954482650391,0.01513025086993251
-0.003734784482650392,0.0146036339458596
-0.003734614482650391,0.01430741192606811
-0.003734444482650391,0.01404410346403213
-0.003734274482650392,0.01384662211750479
-0.003734104482650391,0.01361622721322217
-0.003733934482650391,0.0132212645201682
-0.003733764482650392,0.01315543740465909
-0.003733594482650391,0.01282630182711807
-0.003733424482650391,0.01532773221645986
-0.003733254482650392,0.01246425269181339
-0.003733084482650391,0.01315543740465807
-0.003732914482650391,0.01259590692283162
-0.003732744482650392,0.01295795605813175
-0.003732574482650391,0.01295795605813103
-0.003732404482650391,0.01256299336507706
-0.003732234482650392,0.01216803067202238
-0.003732064482650391,0.01131227817040563
-0.003731894482650391,0.01226677134528605
-0.003731724482650392,0.01131227817040389
-0.003731554482650392,0.01170724086345786
-0.003731384482650391,0.01180598153672225
-0.003731214482650392,0.01190472220998592
-0.003731044482650392,0.01220094422977639
-0.003730874482650391,0.01259590692283162
-0.003730704482650391,0.01262882048058617
-0.003730534482650392,0.01282630182711316
-0.003730364482650391,0.0134516594244501
-0.003730194482650391,0.01410993057954124
-0.003730024482650392,0.01450489327259521
-0.003729854482650391,0.0150644237544234
-0.003729684482650391,0.01559104067849632
-0.003729514482650392,0.01592017625604129
-0.003729344482650391,0.01592017625604189
-0.003729174482650391,0.01651262029562391
-0.003729004482650392,0.01615057116032444
-0.003728834482650391,0.01624931183358745
-0.003728664482650391,0.01605183048706011
-0.003728494482650392,0.01565686779400615
-0.003728324482650391,0.01549230000523264
-0.003728154482650391,0.01503151019666884
-0.003727984482650392,0.01420867125280641
-0.003727814482650391,0.01387953567525935
-0.003727644482650391,0.01332000519343187
-0.003727474482650392,0.01256299336507844
-0.003727304482650391,0.0120692899987587
-0.003727134482650391,0.01164141374794946
-0.003726964482650392,0.01114771038163111
-0.003726794482650391,0.01091731547734921
-0.003726624482650391,0.01124645105489478
-0.003726454482650392,0.01150975951693123
-0.003726284482650391,0.01177306797896769
-0.003726114482650391,0.01213511711426782
-0.003725944482650392,0.01243133913405883
-0.003725774482650391,0.01302378317364086
-0.003725604482650391,0.01328709163567732
-0.003725434482650392,0.01371496788648656
-0.003725264482650391,0.01443906615708646
-0.003725094482650391,0.01424158481055947
-0.003724924482650392,0.01476820173463239
-0.003724754482650391,0.01565686779400537
-0.003724584482650391,0.01562395423625087
-0.003724414482650392,0.01588726269828733
-0.003724244482650391,0.01621639827583781
-0.003724074482650391,0.01891531001170658
-0.003723904482650392,0.01568978135175999
-0.003723734482650391,0.01690758298867985
-0.003723564482650391,0.0175987677015243
-0.003723394482650392,0.0171379778929605
-0.003723224482650391,0.01792790327907035
-0.003723054482650391,0.01819121174110632
-0.003722884482650392,0.01779624904805164
-0.003722714482650391,0.01763168125927946
-0.003722544482650391,0.01796081683682443
-0.003722374482650392,0.01726963212397873
-0.003722204482650391,0.01657844741113356
-0.003722034482650391,0.01687466943092404
-0.003721864482650392,0.0166771880843967
-0.003721694482650391,0.0166771880843964
-0.003721524482650391,0.01651262029562391
-0.003721354482650392,0.01611765760256923
-0.003721184482650391,0.01578852202502318
-0.003721014482650391,0.0155252135629872
-0.003720844482650392,0.01526190510095074
-0.003720674482650392,0.01483402885014228
-0.003720504482650391,0.01450489327259593
-0.003720334482650391,0.01410993057954124
-0.003720164482650392,0.01404410346403225
-0.003719994482650391,0.01332000519343187
-0.003719824482650391,0.01328709163567732
-0.003719654482650392,0.0134845729822043
-0.003719484482650391,0.01315543740465909
-0.003719314482650391,0.01335291875118643
-0.003719144482650392,0.0137478814442404
-0.003718974482650391,0.01384662211750479
