Analysis/New Tests/wrd01_d2s01_new/cmb06_ch44.csv

#Digilent WaveForms Oscilloscope Acquisition
#Device Name: ADP3450
#Serial Number: SN:210018B9D9B0
#Date Time: 2024-08-14 15:53:55.052.275.190
#Sample rate: 5.88235e+06Hz
#Samples: 32768
#Trigger: Source: Channel 3 Type: Edge Condition: Rising Level: 60 mV Hyst.: Auto HoldOff: 0 s
#Channel 3: Range: 100 mV/div Offset: 0 V Attenuation: 1 X Coupling: DC Bandwidth: 0 Hz Sample Mode: Average

Time (s),Channel 3 (V)
-0.003798540350621561,0.2012235064141984
-0.003798370350621561,0.2139939668229433
-0.003798200350621561,0.2274885255023104
-0.003798030350621561,0.2385474809078259
-0.003797860350621561,0.247269573712838
-0.003797690350621561,0.2551030004584084
-0.003797520350621561,0.2613894899895288
-0.003797350350621561,0.2661948694216854
-0.003797180350621561,0.2685646455800179
-0.003797010350621561,0.269749533659182
-0.003796840350621561,0.2702432370255035
-0.003796670350621561,0.2696178794281681
-0.003796500350621561,0.2693545709661316
-0.003796330350621561,0.2666227456725084
-0.003796160350621561,0.2643187966296885
-0.003795990350621561,0.261652798451575
-0.003795820350621561,0.2582627020028401
-0.003795650350621561,0.2551030004584084
-0.003795480350621561,0.2514495955476526
-0.003795310350621561,0.2479936719834303
-0.003795140350621561,0.2441427857261479
-0.003794970350621561,0.2399627638913273
-0.003794800350621561,0.2366384945581139
-0.003794630350621561,0.2323268184922549
-0.003794460350621561,0.2287063271392536
-0.003794290350621561,0.2248225273242229
-0.003794120350621561,0.2212020359712211
-0.003793950350621561,0.2198854936610371
-0.003793780350621561,0.2133027821101448
-0.003793610350621561,0.2094518958528377
-0.003793440350621561,0.2063251078661547
-0.003793270350621561,0.2024413080511241
-0.003793100350621561,0.1987220760248588
-0.003792930350621561,0.1949370168830918
-0.003792760350621561,0.1913165255300899
-0.003792590350621561,0.18772894773483
-0.003792420350621561,0.1843717648438652
-0.003792250350621561,0.1815411988769784
-0.003792080350621561,0.1785131515635595
-0.003791910350621561,0.1757484127121762
-0.003791740350621561,0.1732798958805884
-0.003791570350621561,0.170712638375724
-0.003791400350621561,0.1686061706794323
-0.003791230350621561,0.1656768640392821
-0.003791060350621561,0.1632412607654439
-0.003790890350621561,0.1603119541252892
-0.003790720350621561,0.1582713135445088
-0.003790550350621561,0.1555724018086277
-0.003790380350621561,0.1531367985347905
-0.003790210350621561,0.1504049732411622
-0.003790040350621561,0.1476731479475389
-0.003789870350621561,0.1442501379410663
-0.003789700350621561,0.1418474482249861
-0.003789530350621561,0.1383915246607489
-0.003789360350621561,0.135560958693857
-0.003789190350621561,0.1327962198424742
-0.003789020350621561,0.1301631352221144
-0.003788850350621561,0.1276617048327678
-0.003788680350621561,0.1250615337701627
-0.003788510350621561,0.1223626220342741
-0.003788340350621561,0.1193674882786149
-0.003788170350621561,0.1171622799090596
-0.003788000350621561,0.1146937630774723
-0.003787830350621561,0.1130151716319884
-0.003787660350621561,0.1105466548004026
-0.003787490350621561,0.1084731006618538
-0.003787320350621561,0.1069919905629014
-0.003787150350621561,0.1053463126751736
-0.003786980350621561,0.1035689805564307
-0.003786810350621561,0.1018245619954391
-0.003786640350621561,0.1005080196852585
-0.003786470350621561,0.09886234179752328
-0.003786300350621561,0.09747997237183439
-0.003786130350621561,0.09557098602207009
-0.003785960350621561,0.09402404880760871
-0.003785790350621561,0.09251002515089901
-0.003785620350621561,0.09106182860970102
-0.003785450350621561,0.089811113415019
-0.003785280350621561,0.08783629994974917
-0.003785110350621561,0.08668432542833968
-0.003784940350621561,0.0851373882138783
-0.003784770350621561,0.08391958657695908
-0.003784600350621561,0.08128650195660186
-0.003784430350621561,0.0809244528212935
-0.003784260350621561,0.08089153926353762
-0.003784090350621561,0.07944334272233711
-0.003783920350621561,0.0783901088741932
-0.003783750350621561,0.07753435637257433
-0.003783580350621561,0.07690899877523849
-0.003783410350621561,0.07618490050463858
-0.003783240350621561,0.07559245646505391
-0.003783070350621561,0.07523040732975378
-0.003782900350621561,0.07427591415487338
-0.003782730350621561,0.07421008703936265
-0.003782560350621561,0.07246566847837733
-0.003782390350621561,0.07190613799654556
-0.003782220350621561,0.07062250924411581
-0.003782050350621561,0.06950344828046084
-0.003781880350621561,0.06808816529701747
-0.003781710350621561,0.06706784500662549
-0.003781540350621561,0.06571838913868926
-0.003781370350621561,0.06463224173279035
-0.003781200350621561,0.0634144400958678
-0.003781030350621561,0.06219663845894918
-0.003780860350621561,0.06153836730385924
-0.003780690350621561,0.05995851653164217
-0.003780520350621561,0.05916859114553136
-0.003780350350621561,0.05778622171984356
-0.003780180350621561,0.05758874037331118
-0.003780010350621561,0.05706212344923827
-0.003779840350621561,0.05646967940965624
-0.003779670350621561,0.0558443218123208
-0.003779500350621561,0.05449486594438527
-0.003779330350621561,0.05396824902031182
-0.003779160350621561,0.05294792872991863
-0.003778990350621561,0.05182886776626369
-0.003778820350621561,0.05084146103362697
-0.003778650350621561,0.04952491872344709
-0.003778480350621561,0.04893247468386374
-0.003778310350621561,0.04758301881593073
-0.003778140350621561,0.04708931544960531
-0.003777970350621561,0.04590442737044341
-0.003777800350621561,0.04485119352229758
-0.003777630350621561,0.04373213255864467
-0.003777460350621561,0.04264598515274423
-0.003777290350621561,0.04231684957519789
-0.003777120350621561,0.04152692418908576
-0.003776950350621561,0.04067117168746883
-0.003776780350621561,0.04070408524522338
-0.003776610350621561,0.04007872764788794
-0.003776440350621561,0.03961793783932385
-0.003776270350621561,0.03915714803076088
-0.003776100350621561,0.03895966668423097
-0.003775930350621561,0.03846596331791351
-0.003775760350621561,0.03836722264464983
-0.003775590350621561,0.03777477860506888
-0.003775420350621561,0.03741272946976833
-0.003775250350621561,0.03665571764141562
-0.003775080350621561,0.03369349744350607
-0.003774910350621561,0.03553665667775792
-0.003774740350621561,0.03451633638736665
-0.003774570350621561,0.03372641100125872
-0.003774400350621561,0.0334960160969758
-0.003774230350621561,0.03277191782637776
-0.003774060350621561,0.03244278224882848
-0.003773890350621561,0.03185033820924753
-0.003773720350621561,0.03129080772742005
-0.003773550350621561,0.03099458570762958
-0.003773380350621561,0.03050088234131158
-0.003773210350621561,0.03076419080334618
-0.003773040350621561,0.02915142647337971
-0.003772870350621561,0.02980969762846498
-0.003772700350621561,0.02921725358888296
-0.003772530350621561,0.02875646378032
-0.003772360350621561,0.02836150108726519
-0.003772190350621561,0.02790071127870235
-0.003772020350621561,0.02786779772094624
-0.003771850350621561,0.02753866214340054
-0.003771680350621561,0.02740700791238232
-0.003771510350621561,0.02740700791238232
-0.003771340350621561,0.02701204521932835
-0.003771170350621561,0.02776905704767969
-0.003771000350621561,0.0260575520444517
-0.003770830350621561,0.02658416896851839
-0.003770660350621561,0.02586007069791813
-0.003770490350621561,0.02543219444710967
-0.003770320350621561,0.02480683684977344
-0.003770150350621561,0.02470809617650881
-0.003769980350621561,0.02408273857917432
-0.003769810350621561,0.02372068944387192
-0.003769640350621561,0.02329281319306268
-0.003769470350621561,0.02243706069144419
-0.003769300350621561,0.02214083867165372
-0.003769130350621561,0.02177878953635371
-0.003768960350621561,0.02098886415024655
-0.003768790350621561,0.02158130818982571
-0.003768620350621561,0.02141674040105292
-0.003768450350621561,0.02095595059248912
-0.003768280350621561,0.0211863454967706
-0.003768110350621561,0.02095595059248954
-0.003767940350621561,0.020495160783927
-0.003767770350621561,0.02003437097536158
-0.003767600350621561,0.02006728453311608
-0.003767430350621561,0.01993563030209785
-0.003767260350621561,0.02000145741760685
-0.003767090350621561,0.02016602520637945
-0.003766920350621561,0.02039642011066081
-0.003766750350621561,0.02039642011066153
-0.003766580350621561,0.02033059299515254
-0.003766410350621561,0.02006728453311608
-0.003766240350621561,0.02033059299515206
-0.003766070350621561,0.02042933366841603
-0.003765900350621561,0.02010019809087183
-0.003765730350621561,0.01875074222293488
-0.003765560350621561,0.01934318626251582
-0.003765390350621561,0.0196723218400614
-0.003765220350621561,0.01986980318658838
-0.003765050350621561,0.01954066760904377
-0.003764880350621561,0.01924444558925323
-0.003764710350621561,0.01875074222293433
-0.003764540350621561,0.01904696424272481
-0.003764370350621561,0.01825703885661544
-0.003764200350621561,0.01796081683682496
-0.003764030350621561,0.01789498972131543
-0.003763860350621561,0.01809247106784194
-0.003763690350621561,0.01687466943092446
-0.003763520350621561,0.01710506433520594
-0.003763350350621561,0.01687466943092404
-0.003763180350621561,0.01657844741113356
-0.003763010350621561,0.01657844741113303
-0.003762840350621561,0.01723671856622178
-0.003762670350621561,0.01710506433520642
-0.003762500350621561,0.01773042193254253
-0.003762330350621561,0.01789498972131531
-0.003762160350621561,0.01766459481703383
-0.003761990350621561,0.01720380500847045
-0.003761820350621561,0.01759876770152286
-0.003761650350621561,0.01753294058601542
-0.003761480350621561,0.01717089145071506
-0.003761310350621561,0.01647970673786936
-0.003761140350621561,0.01585434914053391
-0.003760970350621561,0.0155581271207423
-0.003760800350621561,0.01519607798544295
-0.003760630350621561,0.0152619051009505
-0.003760460350621561,0.01509733731217796
-0.003760290350621561,0.01486694240789606
-0.003760120350621561,0.01503151019666854
-0.003759950350621561,0.01473528817687837
-0.003759780350621561,0.01493276952340481
-0.003759610350621561,0.01493276952340517
-0.003759440350621561,0.01519607798544163
-0.003759270350621561,0.01509733731217796
-0.003759100350621561,0.01522899154319595
-0.003758930350621561,0.01476820173463322
-0.003758760350621561,0.01671010164214773
-0.003758590350621561,0.01361622721323414
-0.003758420350621561,0.01295795605813175
-0.003758250350621561,0.0134516594244501
-0.003758080350621561,0.01440615259933226
-0.003757910350621561,0.01443906615708676
-0.003757740350621561,0.01434032548382332
-0.003757570350621561,0.01453780683034977
-0.003757400350621561,0.01466946106136902
-0.003757230350621561,0.0148340288501415
-0.003757060350621561,0.01499859663891429
-0.003756890350621561,0.01460363394586032
-0.003756720350621561,0.01503151019666807
-0.003756550350621561,0.01457072038810672
-0.003756380350621561,0.01480111529238641
-0.003756210350621561,0.01450489327259593
-0.003756040350621561,0.01476820173463239
-0.003755870350621561,0.01480111529238688
-0.003755700350621561,0.01476820173463245
-0.003755530350621561,0.0148669424078957
-0.003755360350621561,0.01470237461912285
-0.003755190350621561,0.01447197971484137
-0.003755020350621561,0.01470237461912327
-0.003754850350621561,0.01443906615708729
-0.003754680350621561,0.01447197971484131
-0.003754510350621561,0.01437323904157806
-0.003754340350621561,0.01355040009771503
-0.003754170350621561,0.01424158481055947
-0.003754000350621561,0.01361622721322289
-0.003753830350621561,0.01295795605813294
-0.003753660350621561,0.01239842557630529
-0.003753490350621561,0.0123325984607954
-0.003753320350621561,0.01197054932549533
-0.003753150350621561,0.01213511711426782
-0.003752980350621561,0.01236551201854972
-0.003752810350621561,0.01226677134528623
-0.003752640350621561,0.01187180865223208
-0.003752470350621561,0.01187180865223136
-0.003752300350621561,0.01193763576774024
-0.003752130350621561,0.01180598153672225
-0.003751960350621561,0.0116085001901949
-0.003751790350621561,0.01177306797896739
-0.003751620350621561,0.01137810528591372
-0.003751450350621561,0.01160850019019407
-0.003751280350621561,0.0116085001901949
-0.003751110350621561,0.0118388950944768
-0.003750940350621561,0.01157558663244035
-0.003750770350621561,0.01144393240142236
-0.003750600350621561,0.0116414137479491
-0.003750430350621561,0.0114110188436684
-0.003750260350621561,0.01127936461264981
-0.003750090350621561,0.01134519172815845
-0.003749920350621561,0.01114771038163111
-0.003749750350621561,0.01160850019019407
-0.003749580350621561,0.01253007980732083
-0.003749410350621561,0.01206928999875954
-0.003749240350621561,0.01236551201854864
-0.003749070350621561,0.01223385778753149
-0.003748900350621561,0.0120692899987587
-0.003748730350621561,0.01170724086345924
-0.003748560350621561,0.01157558663244059
-0.003748390350621561,0.01167432730570384
-0.003748220350621561,0.01078566124633421
-0.003748050350621561,0.011378105285913
-0.003747880350621561,0.01124645105489478
-0.003747710350621561,0.01065400701531275
-0.003747540350621561,0.01035778499552227
-0.003747370350621561,0.01035778499552173
-0.003747200350621561,0.0100615629757318
-0.003747030350621561,0.009864081629203377
-0.003746860350621561,0.01025904432225806
-0.003746690350621561,0.01236551201854972
-0.003746520350621561,0.01029195788001639
-0.003746350350621561,0.01190472220998299
-0.003746180350621561,0.01203637644100367
-0.003746010350621561,0.01239842557630589
-0.003745840350621561,0.01328709163567732
-0.003745670350621561,0.0127604747116044
-0.003745500350621561,0.0127933882693589
-0.003745330350621561,0.01335291875118541
-0.003745160350621561,0.01335291875118643
-0.003744990350621561,0.01338583230894027
-0.003744820350621561,0.0129908696158863
-0.003744650350621561,0.01341874586669555
-0.003744480350621561,0.01302378317364158
-0.003744310350621561,0.01289212894262287
-0.003744140350621561,0.01256299336507826
-0.003743970350621561,0.01229968490303923
-0.003743800350621561,0.01154267307468579
-0.003743630350621561,0.01124645105489478
-0.003743460350621561,0.01121353749714028
-0.003743290350621561,0.01095022903510424
-0.003743120350621561,0.0101932172067517
-0.003742950350621561,0.01002864941797658
-0.003742780350621561,0.01025904432225806
-0.003742610350621561,0.01075274768857642
-0.003742440350621561,0.0109831425928579
-0.003742270350621561,0.01131227817040329
-0.003742100350621561,0.01127936461264945
-0.003741930350621561,0.01180598153672033
-0.003741760350621561,0.0116085001901949
-0.003741590350621561,0.0118388950944768
-0.003741420350621561,0.01206928999875828
-0.003741250350621561,0.01226677134528569
-0.003741080350621561,0.01223385778753161
-0.003740910350621561,0.01197054932549599
-0.003740740350621561,0.01180598153672225
-0.003740570350621561,0.01177306797896769
-0.003740400350621561,0.01180598153672219
-0.003740230350621561,0.01108188326612331
-0.003740060350621561,0.01137810528591193
-0.003739890350621561,0.01131227817040413
-0.003739720350621561,0.01111479682387655
-0.003739550350621561,0.01154267307468579
-0.003739380350621561,0.0113781052859133
-0.003739210350621561,0.01249716624956591
-0.003739040350621561,0.01174015442121451
-0.003738870350621561,0.01193763576773976
-0.003738700350621561,0.011378105285913
-0.003738530350621561,0.01124645105489478
-0.003738360350621561,0.01081857480408631
-0.003738190350621561,0.01085148836184003
-0.003738020350621561,0.0107856612463311
-0.003737850350621561,0.01101605615061204
-0.003737680350621561,0.01111479682387655
-0.003737510350621561,0.01118062393938566
-0.003737340350621561,0.00881084778105755
-0.003737170350621561,0.01206928999875278
-0.003737000350621561,0.01256299336507616
-0.003736830350621561,0.01295795605813031
-0.003736660350621561,0.01341874586669555
-0.003736490350621561,0.01430741192606859
-0.003736320350621561,0.01503151019666884
-0.003736150350621561,0.01532773221645932
-0.003735980350621561,0.01568978135175933
-0.003735810350621561,0.0160518304870588
-0.003735640350621561,0.01615057116032331
-0.003735470350621561,0.01588726269828733
-0.003735300350621561,0.01526190510095074
-0.003735130350621561,0.01522899154319625
-0.003734960350621561,0.01443906615708825
-0.003734790350621561,0.01473528817687675
-0.003734620350621561,0.01443906615708598
-0.003734450350621561,0.01397827634852302
-0.003734280350621561,0.01387953567525935
-0.003734110350621561,0.0132541780779239
-0.003733940350621561,0.01299086961588678
-0.003733770350621561,0.01276047471160524
-0.003733600350621561,0.01229968490304018
-0.003733430350621561,0.0120692899987587
-0.003733260350621561,0.01216803067202238
-0.003733090350621561,0.01200346288324989
-0.003732920350621561,0.01111479682387817
-0.003732750350621561,0.01111479682387655
-0.003732580350621561,0.01068692057306677
-0.003732410350621561,0.01039069855327629
-0.003732240350621561,0.01042361211103085
-0.003732070350621561,0.01006156297573138
-0.003731900350621561,0.01006156297573072
-0.003731730350621561,0.009831168071449658
-0.003731560350621561,0.009765340955939946
-0.003731390350621561,0.01019321720674895
-0.003731220350621561,0.009995735860221606
-0.003731050350621561,0.009172896916359176
-0.003730880350621561,0.0101603036489926
-0.003730710350621561,0.009567859609414519
-0.003730540350621561,0.009962822302465613
-0.003730370350621561,0.01068692057306731
-0.003730200350621561,0.01124645105489478
-0.003730030350621561,0.01137810528591277
-0.003729860350621561,0.01111479682387703
-0.003729690350621561,0.01141101884366648
-0.003729520350621561,0.01160850019019419
-0.003729350350621561,0.01131227817040389
-0.003729180350621561,0.01098314259285832
-0.003729010350621561,0.01052235278429536
-0.003728840350621561,0.01127936461264796
-0.003728670350621561,0.01039069855327952
-0.003728500350621561,0.01085148836183841
-0.003728330350621561,0.011378105285913
-0.003728160350621561,0.01118062393938566
-0.003727990350621561,0.01183889509447561
-0.003727820350621561,0.01150975951693183
-0.003727650350621561,0.01216803067202118
-0.003727480350621561,0.01289212894262
-0.003727310350621561,0.01364914077097745
-0.003727140350621561,0.01420867125280492
-0.003726970350621561,0.01447197971484137
-0.003726800350621561,0.01493276952340433
-0.003726630350621561,0.01499859663891417
-0.003726460350621561,0.01486694240789654
-0.003726290350621561,0.01470237461912327
-0.003726120350621561,0.0148340288501415
-0.003725950350621561,0.01493276952340517
-0.003725780350621561,0.0146036339458602
-0.003725610350621561,0.01476820173463209
-0.003725440350621561,0.01414284413729808
-0.003725270350621561,0.01361622721322211
-0.003725100350621561,0.01318835096241365
-0.003724930350621561,0.0127604747116044
-0.003724760350621561,0.01210220355651446
-0.003724590350621561,0.01101605615061485
-0.003724420350621561,0.01045652566878744
-0.003724250350621561,0.009995735860220529
-0.003724080350621561,0.009403291820639578
-0.003723910350621561,0.009172896916357679
-0.003723740350621561,0.009205810474112175
-0.003723570350621561,0.008712107107794778
-0.003723400350621561,0.009041242685338253
-0.003723230350621561,0.009139983358603183
-0.003723060350621561,0.009172896916357679
-0.003722890350621561,0.009370378262885021
-0.003722720350621561,0.009567859609412005
-0.003722550350621561,0.009765340955939348
-0.003722380350621561,0.00973242739818527
-0.003722210350621561,0.009699513840430054
-0.003722040350621561,0.009403291820639578
-0.003721870350621561,0.009567859609412364
-0.003721700350621561,0.009469118936148872
-0.003721530350621561,0.009172896916358218
-0.003721360350621561,0.009337464705129866
-0.003721190350621561,0.009205810474111457
-0.003721020350621561,0.008777934223302994
-0.003720850350621561,0.008679193550039321
-0.003720680350621561,0.008712107107793819
-0.003720510350621561,0.008350057972494411
-0.003720340350621561,0.009403291820635746
-0.003720170350621561,0.009666600282675077
-0.003720000350621561,0.01009447653348528
-0.003719830350621561,0.01032487143776718
-0.003719660350621561,0.01058817989980316
-0.003719490350621561,0.01081857480408511
-0.003719320350621561,0.01124645105489322
-0.003719150350621561,0.01039069855327941
