Analysis/New Tests/wrd01_d2s01_new/cmb10_ch15.csv

#Digilent WaveForms Oscilloscope Acquisition
#Device Name: ADP3450
#Serial Number: SN:210018B9D9B0
#Date Time: 2024-08-14 17:05:36.793.813.210
#Sample rate: 5.88235e+06Hz
#Samples: 32768
#Trigger: Source: Channel 3 Type: Edge Condition: Rising Level: 60 mV Hyst.: Auto HoldOff: 0 s
#Channel 3: Range: 100 mV/div Offset: 0 V Attenuation: 1 X Coupling: DC Bandwidth: 0 Hz Sample Mode: Average

Time (s),Channel 3 (V)
-0.003798467237955431,0.2054035282490271
-0.003798297237955431,0.2188651733706165
-0.003798127237955432,0.2303520050269605
-0.003797957237955432,0.2402918994688215
-0.003797787237955431,0.2487506838117913
-0.003797617237955431,0.2555637902669722
-0.003797447237955431,0.2605008239301557
-0.003797277237955431,0.263561784801324
-0.003797107237955431,0.2657340796131264
-0.003796937237955432,0.2664910914414824
-0.003796767237955431,0.2667214863457645
-0.003796597237955431,0.2653062033623211
-0.003796427237955431,0.2635617848013296
-0.003796257237955431,0.2620806747023772
-0.003796087237955431,0.2589538867156972
-0.003795917237955432,0.2558929258445289
-0.003795747237955431,0.2526673971845671
-0.003795577237955431,0.2504292752572613
-0.003795407237955431,0.2467429567887509
-0.003795237237955431,0.2438465637063551
-0.003795067237955431,0.2408185163929361
-0.003794897237955432,0.2377246419640135
-0.003794727237955432,0.2343674590730496
-0.003794557237955431,0.2310102761820726
-0.003794387237955431,0.2278834881953896
-0.003794217237955431,0.2246908730932034
-0.003794047237955431,0.220214629238586
-0.003793877237955432,0.2168903599053797
-0.003793707237955432,0.213236954994625
-0.003793537237955431,0.209649377199365
-0.003793367237955431,0.2054364418067817
-0.003793197237955431,0.202342567377859
-0.003793027237955431,0.1985904217938406
-0.003792857237955432,0.195068671114109
-0.003792687237955432,0.1911848712990726
-0.003792517237955431,0.1876960341770754
-0.003792347237955431,0.1835489259000012
-0.003792177237955431,0.1789739413721261
-0.003792007237955431,0.1748926602105601
-0.003791837237955432,0.1707455519334861
-0.003791667237955432,0.1670592334649815
-0.003791497237955431,0.1631096065344213
-0.003791327237955431,0.1596207694124382
-0.003791157237955431,0.1561319322904615
-0.003790987237955431,0.15221521891767
-0.003790817237955432,0.1490226038154766
-0.003790647237955432,0.1460603836175715
-0.003790477237955431,0.1430981634196505
-0.003790307237955431,0.1405967330303042
-0.003790137237955431,0.138161129756467
-0.003789967237955431,0.1359230078291612
-0.003789797237955432,0.1338823672483783
-0.003789627237955432,0.1322366893606527
-0.003789457237955431,0.1296365182980367
-0.003789287237955431,0.1280566675258179
-0.003789117237955431,0.1256868913674898
-0.003788947237955431,0.123646250786711
-0.003788777237955432,0.1218689186679644
-0.003788607237955432,0.1200586729914672
-0.003788437237955431,0.1180509459684285
-0.003788267237955431,0.1157799104833681
-0.003788097237955431,0.1141671461533948
-0.003787927237955431,0.1118961106683345
-0.003787757237955432,0.1103820870116235
-0.003787587237955432,0.1077819159490202
-0.003787417237955431,0.105708361810472
-0.003787247237955431,0.1047867821933461
-0.003787077237955431,0.1023182653617543
-0.003786907237955431,0.1012979450713649
-0.003786737237955431,0.09994848920342865
-0.003786567237955432,0.09820407064244101
-0.003786397237955431,0.09688752833224931
-0.003786227237955431,0.09520893688676996
-0.003786057237955431,0.09372782678781488
-0.003785887237955431,0.092345457362126
-0.003785717237955431,0.09079852014766211
-0.003785547237955432,0.08938323716421849
-0.003785377237955431,0.08777047283423886
-0.003785207237955431,0.0871122016791489
-0.003785037237955431,0.08592731359998484
-0.003784867237955431,0.08507156109836791
-0.003784697237955431,0.08293217984432405
-0.003784527237955432,0.08224099513147697
-0.003784357237955432,0.08033200878171709
-0.003784187237955431,0.07944334272233711
-0.003784017237955431,0.07858759022071862
-0.003783847237955431,0.07799514618113768
-0.003783677237955431,0.07717230723727417
-0.003783507237955432,0.07664569031320168
-0.003783337237955432,0.07585576492709324
-0.003783167237955431,0.07516458021424469
-0.003782997237955431,0.07450630905915354
-0.003782827237955431,0.07318976674897366
-0.003782657237955431,0.07200487866980936
-0.003782487237955432,0.07105038549492851
-0.003782317237955432,0.07012880587780079
-0.003782147237955431,0.0687793500098606
-0.003781977237955431,0.06663996875581438
-0.003781807237955431,0.065224685772371
-0.003781637237955431,0.06321695874934409
-0.003781467237955432,0.06157128086161558
-0.003781297237955432,0.0594648131653286
-0.003781127237955431,0.05768748104657485
-0.003780957237955431,0.05584432181231966
-0.003780787237955431,0.05433029815561279
-0.003780617237955431,0.05314541007644813
-0.003780447237955432,0.05186178132402058
-0.003780277237955432,0.04985405430099757
-0.003780107237955431,0.04962365939670836
-0.003779937237955431,0.04857042554856254
-0.003779767237955431,0.04814254929775329
-0.003779597237955431,0.04705640189185489
-0.003779427237955432,0.04702348833409842
-0.003779257237955432,0.0468918341030806
-0.003779087237955431,0.04679309342981645
-0.003778917237955431,0.04626647650574354
-0.003778747237955431,0.04643104429451633
-0.003778577237955431,0.0466943527565523
-0.003778407237955432,0.04610190871697183
-0.003778237237955432,0.04620064939023406
-0.003778067237955431,0.04587151381268879
-0.003777897237955431,0.0458386002549343
-0.003777727237955431,0.04537781044637049
-0.003777557237955431,0.04485119352229854
-0.003777387237955432,0.0446207986180161
-0.003777217237955432,0.04369921900089144
-0.003777047237955431,0.04281055294151349
-0.003776877237955431,0.04195480043989656
-0.003776707237955431,0.04060534457195972
-0.003776537237955431,0.04004581409013327
-0.003776367237955431,0.03915714803076082
-0.003776197237955432,0.03833430908689826
-0.003776027237955431,0.03747855658527535
-0.003775857237955431,0.03668863119916742
-0.003775687237955431,0.03606327360183084
-0.003775517237955431,0.03603036004407634
-0.003775347237955431,0.03583287869754929
-0.003775177237955432,0.03524043465796906
-0.003775007237955431,0.03550374312000277
-0.003774837237955431,0.03517460754245779
-0.003774667237955431,0.03520752110021235
-0.003774497237955431,0.03494421263817638
-0.003774327237955431,0.0337264110012595
-0.003774157237955432,0.03405554657880165
-0.003773987237955431,0.0333643618659565
-0.003773817237955431,0.03300231273065703
-0.003773647237955431,0.03181742465149297
-0.003773477237955431,0.03165285686272048
-0.003773307237955431,0.03073127724559426
-0.003773137237955432,0.02987552474397721
-0.003772967237955432,0.02941473493541197
-0.003772797237955431,0.02832858752950991
-0.003772627237955431,0.02799945195196434
-0.003772457237955431,0.0273740943546289
-0.003772287237955431,0.02711078589259178
-0.003772117237955432,0.02655125541076587
-0.003771947237955432,0.0265183418530094
-0.003771777237955431,0.0259588113711818
-0.003771607237955431,0.02566258935139079
-0.003771437237955431,0.02530054021609132
-0.003771267237955431,0.02586007069791712
-0.003771097237955432,0.02566258935139151
-0.003770927237955432,0.02533345377384642
-0.003770757237955431,0.0252676266583361
-0.003770587237955431,0.02487266396528142
-0.003770417237955431,0.02451061482998195
-0.003770247237955431,0.0244118741567178
-0.003770077237955432,0.02378651655938217
-0.003769907237955432,0.02316115896204672
-0.003769737237955431,0.02299659117327166
-0.003769567237955431,0.02184461665186217
-0.003769397237955431,0.02098886415024368
-0.003769227237955431,0.01947484049353681
-0.003769057237955432,0.01855326087640813
-0.003768887237955432,0.01805955751008989
-0.003768717237955431,0.01707215077745139
-0.003768547237955431,0.01661136096888758
-0.003768377237955431,0.01641387962236024
-0.003768207237955431,0.01631513894909675
-0.003768037237955432,0.01601891692930609
-0.003767867237955432,0.01657844741113099
-0.003767697237955431,0.01720380500846961
-0.003767527237955431,0.01720380500846961
-0.003767357237955431,0.0178291626058062
-0.003767187237955431,0.01858617443415963
-0.003767017237955432,0.01858617443416101
-0.003766847237955432,0.01927735914700419
-0.003766677237955431,0.01970523539781721
-0.003766507237955431,0.02039642011066165
-0.003766337237955431,0.0203635065529071
-0.003766167237955431,0.0203635065529071
-0.003765997237955431,0.02194335732512296
-0.003765827237955432,0.01940901337803416
-0.003765657237955431,0.02010019809086992
-0.003765487237955431,0.01970523539781595
-0.003765317237955431,0.01950775405128861
-0.003765147237955431,0.01858617443416269
-0.003764977237955431,0.01763168125928059
-0.003764807237955432,0.01717089145071673
-0.003764637237955431,0.0169075829886774
-0.003764467237955431,0.01624931183358745
-0.003764297237955431,0.01628222539134202
-0.003764127237955431,0.0152948186587071
-0.003763957237955431,0.01582143558277726
-0.003763787237955432,0.01578852202502378
-0.003763617237955431,0.01575560846726904
-0.003763447237955431,0.01572269490951454
-0.003763277237955431,0.0155252135629872
-0.003763107237955431,0.01585434914053217
-0.003762937237955431,0.01611765760256875
-0.003762767237955432,0.01647970673786804
-0.003762597237955432,0.01516316442769186
-0.003762427237955431,0.01654553385337847
-0.003762257237955431,0.01687466943092404
-0.003762087237955431,0.01690758298867854
-0.003761917237955431,0.01710506433520558
-0.003761747237955432,0.01700632366194263
-0.003761577237955432,0.01726963212397777
-0.003761407237955431,0.01680884231541493
-0.003761237237955431,0.01647970673786936
-0.003761067237955431,0.01565686779400692
-0.003760897237955431,0.01545938644747845
-0.003760727237955432,0.01519607798544259
-0.003760557237955432,0.01453780683035288
-0.003760387237955431,0.01440615259933226
-0.003760217237955431,0.01430741192606859
-0.003760047237955431,0.0141099305795416
-0.003759877237955431,0.01318835096241532
-0.003759707237955432,0.01272756115385068
-0.003759537237955432,0.01210220355651554
-0.003759367237955431,0.01147684595917668
-0.003759197237955431,0.01121353749714022
-0.003759027237955431,0.0102590443222598
-0.003758857237955431,0.009699513840431611
-0.003758687237955432,0.009271637589622128
-0.003758517237955432,0.008481712203514853
-0.003758347237955431,0.008350057972493751
-0.003758177237955431,0.00779052749066628
-0.003758007237955431,0.007922181721684508
-0.003757837237955431,0.007757613932912022
-0.003757667237955432,0.007856354606175214
-0.003757497237955432,0.007988008837193144
-0.003757327237955431,0.00858045287677643
-0.003757157237955431,0.009008329127584893
-0.003756987237955431,0.01006156297573072
-0.003756817237955431,0.01062109345755717
-0.003756647237955432,0.01095022903510316
-0.003756477237955432,0.01032487143776945
-0.003756307237955431,0.01253007980732172
-0.003756137237955431,0.01210220355651326
-0.003755967237955431,0.01289212894262263
-0.003755797237955431,0.01289212894262263
-0.003755627237955431,0.01302378317364062
-0.003755457237955432,0.01312252384690417
-0.003755287237955431,0.01318835096241353
-0.003755117237955431,0.01312252384690453
-0.003754947237955431,0.01315543740465909
-0.003754777237955431,0.01308961028915009
-0.003754607237955431,0.01246425269181453
-0.003754437237955432,0.01180598153672464
-0.003754267237955431,0.01108188326612145
-0.003754097237955431,0.01078566124633098
-0.003753927237955431,0.009534946051657807
-0.003753757237955431,0.009074156243094844
-0.003753587237955431,0.008185490183722582
-0.003753417237955432,0.007658873259649967
-0.003753247237955431,0.00680312075802855
-0.003753077237955431,0.006243590276202096
-0.003752907237955431,0.006177763160692982
-0.003752737237955431,0.006408158064974463
-0.003752567237955431,0.006770207200274351
-0.003752397237955432,0.007066429220064946
-0.003752227237955432,0.007889268163926957
-0.003752057237955431,0.009172896916357679
-0.003751887237955431,0.009633686724921478
-0.003751717237955431,0.01065400701531089
-0.003751547237955431,0.01137810528591169
-0.003751377237955432,0.01236551201854613
-0.003751207237955432,0.01312252384690178
-0.003751037237955431,0.01463654750361416
-0.003750867237955431,0.01499859663891429
-0.003750697237955431,0.01621639827583068
-0.003750527237955431,0.0161834847180784
-0.003750357237955432,0.01605183048706059
-0.003750187237955432,0.01631513894909561
-0.003750017237955431,0.01605183048706011
-0.003749847237955431,0.01608474404481467
-0.003749677237955431,0.01628222539134165
-0.003749507237955431,0.01578852202502455
-0.003749337237955432,0.01499859663891572
-0.003749167237955432,0.01466946106136991
-0.003748997237955431,0.01358331365546833
-0.003748827237955431,0.01243133913405883
-0.003748657237955431,0.01183889509447788
-0.003748487237955431,0.01062109345756041
-0.003748317237955432,0.009962822302468246
-0.003748147237955432,0.009172896916360553
-0.003747977237955431,0.008481712203511979
-0.003747807237955431,0.007955095279439066
-0.003747637237955431,0.007198083451084253
-0.003747467237955431,0.006901861431293777
-0.003747297237955432,0.006934774989047736
-0.003747127237955432,0.006737293642521171
-0.003746957237955431,0.007230997008838809
-0.003746787237955431,0.007198083451084253
-0.003746617237955431,0.007263910566593366
-0.003746447237955431,0.007362651239856858
-0.003746277237955432,0.007230997008839049
-0.003746107237955432,0.007066429220066622
-0.003745937237955431,0.007132256335575437
-0.003745767237955431,0.007296824124347924
-0.003745597237955431,0.00756013258638438
-0.003745427237955431,0.008020922394947342
-0.003745257237955432,0.008317144414738653
-0.003745087237955432,0.009238724031863439
-0.003744917237955431,0.008646279992284166
-0.003744747237955431,0.008317144414739193
-0.003744577237955431,0.008251317299230079
-0.003744407237955431,0.007922181721685106
-0.003744237237955431,0.00742847835536705
-0.003744067237955432,0.007395564797611715
-0.003743897237955431,0.007099342777819743
-0.003743727237955431,0.006638552969256781
-0.003743557237955431,0.00607902248742931
-0.003743387237955431,0.006671466527010261
-0.003743217237955431,0.005749886909885416
-0.003743047237955432,0.005552405563357115
-0.003742877237955431,0.00588154114090119
-0.003742707237955431,0.005453664890092726
-0.003742537237955431,0.005486578447847282
-0.003742367237955431,0.006046108929673736
-0.003742197237955431,0.006342330949465229
-0.003742027237955432,0.006506898738237955
-0.003741857237955432,0.006770207200274052
-0.003741687237955431,0.007263910566593366
-0.003741517237955431,0.007856354606175394
-0.003741347237955431,0.00861336643452883
-0.003741177237955431,0.008481712203512218
-0.003741007237955432,0.009008329127582978
-0.003740837237955432,0.009666600282673639
-0.003740667237955431,0.009929908744712493
-0.003740497237955431,0.009896995186957936
-0.003740327237955431,0.01042361211102989
-0.003740157237955431,0.01068692057306683
-0.003739987237955432,0.01088440191959393
-0.003739817237955432,0.01042361211103252
-0.003739647237955431,0.01075274768857642
-0.003739477237955431,0.01022613076450351
-0.003739307237955431,0.009831168071449538
-0.003739137237955431,0.009600773167167341
-0.003738967237955432,0.00900832912758597
-0.003738797237955432,0.008679193550040518
-0.003738627237955431,0.007494305470875266
-0.003738457237955431,0.007066429220066024
-0.003738287237955431,0.006737293642521051
-0.003738117237955431,0.006539812295993469
-0.003737947237955432,0.006046108929675651
-0.003737777237955432,0.00558531912111263
-0.003737607237955431,0.006111936045183867
-0.003737437237955431,0.005552405563356397
-0.003737267237955431,0.006111936045183867
-0.003737097237955431,0.006704380084764818
-0.003736927237955432,0.006901861431292879
-0.003736757237955432,0.00762595970189086
-0.003736587237955431,0.008185490183720966
-0.003736417237955431,0.008547539319021094
-0.003736247237955431,0.009337464705130465
-0.003736077237955431,0.00986408162920242
-0.003735907237955432,0.0107527476885748
-0.003735737237955432,0.0105552663420498
-0.003735567237955431,0.01048943922654158
-0.003735397237955431,0.011378105285913
-0.003735227237955431,0.0116085001901949
-0.003735057237955431,0.01200346288324887
-0.003734887237955432,0.01213511711426758
-0.003734717237955432,0.01239842557630332
-0.003734547237955431,0.01193763576774161
-0.003734377237955431,0.01256299336507706
-0.003734207237955431,0.01243133913405883
-0.003734037237955431,0.01246425269181333
-0.003733867237955431,0.01292504250037635
-0.003733697237955432,0.01295795605813163
-0.003733527237955431,0.01315543740465969
-0.003733357237955431,0.01348457298220466
-0.003733187237955431,0.01279338826935896
-0.003733017237955431,0.01341874586669441
-0.003732847237955431,0.01302378317364158
-0.003732677237955432,0.01229968490304324
-0.003732507237955431,0.01345165942444741
-0.003732337237955431,0.01197054932549503
-0.003732167237955431,0.01180598153672225
-0.003731997237955431,0.01137810528591378
-0.003731827237955431,0.01091731547735004
-0.003731657237955432,0.01055526634205039
-0.003731487237955432,0.009765340955942581
-0.003731317237955431,0.009633686724921478
-0.003731147237955431,0.009271637589621349
-0.003730977237955431,0.008613366434531405
-0.003730807237955431,0.008086749510458251
-0.003730637237955432,0.007724700375158483
-0.003730467237955432,0.007000602104559544
-0.003730297237955431,0.006375244507220324
-0.003730127237955431,0.005322010659074497
-0.003729957237955431,0.004795393735002541
-0.003729787237955431,0.004433344599702113
-0.003729617237955432,0.004038381906648207
-0.003729447237955432,0.003972554791137895
-0.003729277237955431,0.00403838190664677
-0.003729107237955431,0.004301690368683227
-0.003728937237955431,0.004828307292755183
-0.003728767237955431,0.005552405563355079
-0.003728597237955432,0.006934774989042766
-0.003728427237955432,0.007856354606172041
-0.003728257237955431,0.008185490183720966
-0.003728087237955431,0.009666600282676035
-0.003727917237955431,0.01029195788001148
-0.003727747237955431,0.01114771038162955
-0.003727577237955432,0.01174015442121206
-0.003727407237955432,0.01272756115384625
-0.003727237237955431,0.01312252384690453
-0.003727067237955431,0.0132212645201682
-0.003726897237955431,0.01384662211750479
-0.003726727237955431,0.0137478814442413
-0.003726557237955432,0.01348457298220514
-0.003726387237955432,0.01332000519343247
-0.003726217237955431,0.01292504250037719
-0.003726047237955431,0.01262882048058617
-0.003725877237955431,0.01302378317364086
-0.003725707237955431,0.01200346288325145
-0.003725537237955432,0.0118388950944771
-0.003725367237955432,0.01108188326612475
-0.003725197237955431,0.0112135374971395
-0.003725027237955431,0.01081857480408553
-0.003724857237955431,0.01012739009123984
-0.003724687237955431,0.009732427398185868
-0.003724517237955432,0.009929908744712133
-0.003724347237955432,0.009337464705132619
-0.003724177237955431,0.008810847781057431
-0.003724007237955431,0.008745020665548437
-0.003723837237955431,0.008382971530248308
-0.003723667237955431,0.008251317299230319
-0.003723497237955431,0.007724700375158123
-0.003723327237955432,0.007263910566595043
-0.003723157237955431,0.007230997008837792
-0.003722987237955431,0.006671466527011338
-0.003722817237955431,0.006441071622729439
-0.003722647237955431,0.006342330949465947
-0.003722477237955431,0.005815714025393811
-0.003722307237955432,0.006046108929673916
-0.003722137237955431,0.005782800467638296
-0.003721967237955431,0.005782800467638296
-0.003721797237955431,0.005914454698656525
-0.003721627237955431,0.005782800467638536
-0.003721457237955431,0.00598028181416528
-0.003721287237955432,0.006539812295991074
-0.003721117237955431,0.007099342777820461
-0.003720947237955431,0.007033515662311467
-0.003720777237955431,0.007132256335575138
-0.003720607237955431,0.007033515662311646
-0.003720437237955431,0.007362651239856439
-0.003720267237955432,0.007362651239857037
-0.003720097237955432,0.0073297376821026
-0.003719927237955431,0.007593046144138938
-0.003719757237955431,0.00756013258638438
-0.003719587237955431,0.007724700375156867
-0.003719417237955431,0.007955095279438646
