Analysis/New Tests/wrd01_d2s01_new/cmb10_ch28.csv

#Digilent WaveForms Oscilloscope Acquisition
#Device Name: ADP3450
#Serial Number: SN:210018B9D9B0
#Date Time: 2024-08-14 17:10:12.548.871.480
#Sample rate: 5.88235e+06Hz
#Samples: 32768
#Trigger: Source: Channel 3 Type: Edge Condition: Rising Level: 60 mV Hyst.: Auto HoldOff: 0 s
#Channel 3: Range: 100 mV/div Offset: 0 V Attenuation: 1 X Coupling: DC Bandwidth: 0 Hz Sample Mode: Average

Time (s),Channel 3 (V)
-0.003798482613829557,0.2107355246052654
-0.003798312613829557,0.2244604781889373
-0.003798142613829557,0.2363422725383108
-0.003797972613829557,0.2470391788085419
-0.003797802613829557,0.2554979631514777
-0.003797632613829557,0.263528871243575
-0.003797462613829557,0.2692887438506225
-0.003797292613829557,0.2735016792432116
-0.003797122613829557,0.2766942943453978
-0.003796952613829557,0.2784716264641439
-0.003796782613829557,0.2794590331967813
-0.003796612613829557,0.2798210823320808
-0.003796442613829557,0.2786361942529167
-0.003796272613829557,0.2766284672298844
-0.003796102613829557,0.2742916046293152
-0.003795932613829557,0.271625606451196
-0.003795762613829557,0.2684988184645071
-0.003795592613829557,0.2651745491313028
-0.003795422613829557,0.2616857120093198
-0.003795252613829557,0.2572094681546923
-0.003795082613829557,0.2529636192043622
-0.003794912613829557,0.24940895496687
-0.003794742613829557,0.2453605873630668
-0.003794572613829557,0.2417071824523036
-0.003794402613829557,0.2376259012907385
-0.003794232613829557,0.2337750150334624
-0.003794062613829557,0.2303190914692269
-0.003793892613829557,0.2264682052119437
-0.003793722613829557,0.222716059627931
-0.003793552613829557,0.2193259631792048
-0.003793382613829557,0.2162320887502764
-0.003793212613829557,0.2124799431662638
-0.003793042613829557,0.2083328348891827
-0.003792872613829557,0.2045477757474086
-0.003792702613829557,0.2009601979521685
-0.003792532613829557,0.1967801761173332
-0.003792362613829557,0.1925014136092408
-0.003792192613829557,0.1882555646589106
-0.003792022613829557,0.1845363326326379
-0.003791852613829557,0.1808829277218821
-0.003791682613829557,0.1775257448309234
-0.003791512613829557,0.1738723399201614
-0.003791342613829557,0.1706138977024603
-0.003791172613829557,0.1675858503890465
-0.003791002613829557,0.1649198522109219
-0.003790832613829557,0.1625829896103483
-0.003790662613829557,0.1593574609504076
-0.003790492613829557,0.1568560305610554
-0.003790322613829557,0.1543875137294636
-0.003790152613829557,0.1525443544952084
-0.003789982613829557,0.1503062325678985
-0.003789812613829557,0.1487592953534344
-0.003789642613829557,0.1468832225614246
-0.003789472613829557,0.1474756666010066
-0.003789302613829557,0.1419132753404865
-0.003789132613829557,0.1403992516837769
-0.003788962613829557,0.1397080669709277
-0.003788792613829557,0.1378319941789214
-0.003788622613829557,0.1355280451361024
-0.003788452613829557,0.1329278740734877
-0.003788282613829557,0.1303277030108824
-0.003788112613829557,0.1283858031033635
-0.003787942613829557,0.1259501998295222
-0.003787772613829557,0.1237120779022164
-0.003787602613829557,0.1218689186679612
-0.003787432613829557,0.1196637102984018
-0.003787262613829557,0.117425588371096
-0.003787092613829557,0.1153520342325589
-0.003786922613829557,0.1130809987474912
-0.003786752613829557,0.1112707530709938
-0.003786582613829557,0.1097238158565297
-0.003786412613829557,0.1073869532559525
-0.003786242613829557,0.1054121397906827
-0.003786072613829557,0.1035360669986729
-0.003785902613829557,0.1013637721868691
-0.003785732613829557,0.09971809429914427
-0.003785562613829557,0.09741414525632527
-0.003785392613829557,0.09563681313757598
-0.003785222613829557,0.09385948101883312
-0.003785052613829557,0.09181884043805058
-0.003784882613829557,0.09014024899256499
-0.003784712613829557,0.08839583043157664
-0.003784542613829557,0.08658558475507599
-0.003784372613829557,0.08457785773205166
-0.003784202613829557,0.08286635272881104
-0.003784032613829557,0.08171437820740154
-0.003783862613829557,0.08046366301273064
-0.003783692613829557,0.07921294781805521
-0.003783522613829557,0.07819262752766393
-0.003783352613829557,0.077271047910538
-0.003783182613829557,0.07654694963993608
-0.003783012613829557,0.07463796329017178
-0.003782842613829557,0.07453922261690828
-0.003782672613829557,0.07355181588427137
-0.003782502613829557,0.07276189049816201
-0.003782332613829557,0.07174157020777261
-0.003782162613829557,0.07137952107247061
-0.003781992613829557,0.07016171943555199
-0.003781822613829557,0.06943762116495307
-0.003781652613829557,0.06845021443231503
-0.003781482613829557,0.06782485683497844
-0.003781312613829557,0.06700201789111601
-0.003781142613829557,0.06608043827398691
-0.003780972613829557,0.06496137731033197
-0.003780802613829557,0.06384231634667907
-0.003780632613829557,0.0634144400958678
-0.003780462613829557,0.06269034182526753
-0.003780292613829557,0.06150545374610564
-0.003780122613829557,0.05992560297388474
-0.003779952613829557,0.05854323354819334
-0.003779782613829557,0.05709503700699282
-0.003779612613829557,0.056041803158847
-0.003779442613829557,0.05548227267701953
-0.003779272613829557,0.05479108796417383
-0.003779102613829557,0.05423155748234636
-0.003778932613829557,0.05347454565399155
-0.003778762613829557,0.05294792872991863
-0.003778592613829557,0.05242131180584571
-0.003778422613829557,0.05242131180584571
-0.003778252613829557,0.05196052199728192
-0.003778082613829557,0.05199343555503575
-0.003777912613829557,0.05159847286198179
-0.003777742613829557,0.05133516439994534
-0.003777572613829557,0.05110476949566254
-0.003777402613829557,0.05061106612934508
-0.003777232613829557,0.04995279497425394
-0.003777062613829557,0.04906412891488005
-0.003776892613829557,0.0486033391063171
-0.003776722613829557,0.04791215439347139
-0.003776552613829557,0.04731971035388799
-0.003776382613829557,0.04656269852553455
-0.003776212613829557,0.04590442737044341
-0.003776042613829557,0.04524615621535131
-0.003775872613829557,0.04471953929127936
-0.003775702613829557,0.04422583592496099
-0.003775532613829557,0.04353465121211386
-0.003775362613829557,0.04274472582600593
-0.003775192613829557,0.04228393601744213
-0.003775022613829557,0.04188897332438655
-0.003774852613829557,0.04139526995806909
-0.003774682613829557,0.04063825812971427
-0.003774512613829557,0.03991415985911258
-0.003774342613829557,0.03912423447300464
-0.003774172613829557,0.03833430908689527
-0.003774002613829557,0.0370835938922181
-0.003773832613829557,0.03487838552266678
-0.003773662613829557,0.03672154475692198
-0.003773492613829557,0.03484547196491564
-0.003773322613829557,0.0337922381167664
-0.003773152613829557,0.03290357205739335
-0.003772982613829557,0.03181742465149495
-0.003772812613829557,0.03083001791885626
-0.003772642613829557,0.03013883320601056
-0.003772472613829557,0.02925016714663913
-0.003772302613829557,0.02839441464501903
-0.003772132613829557,0.02855898243379182
-0.003771962613829557,0.02819693329849235
-0.003771792613829557,0.027801970605437
-0.003771622613829557,0.02753866214340054
-0.003771452613829557,0.02717661300810107
-0.003771282613829557,0.02730826723911865
-0.003771112613829557,0.02724244012360953
-0.003770942613829557,0.02724244012360953
-0.003770772613829557,0.02724244012360953
-0.003770602613829557,0.02737409435462776
-0.003770432613829557,0.02743992147013675
-0.003770262613829557,0.02740700791238232
-0.003770092613829557,0.02681456387280029
-0.003769922613829557,0.02701204521932727
-0.003769752613829557,0.02668290964178206
-0.003769582613829557,0.02668290964178206
-0.003769412613829557,0.02605755204444548
-0.003769242613829557,0.02632086050648193
-0.003769072613829557,0.02658416896851839
-0.003768902613829557,0.02648542829525472
-0.003768732613829557,0.02648542829525472
-0.003768562613829557,0.02632086050648193
-0.003768392613829557,0.02645251473750016
-0.003768222613829557,0.02632086050648193
-0.003768052613829557,0.02605755204444548
-0.003767882613829557,0.02582715714016358
-0.003767712613829557,0.02549802156261747
-0.003767542613829557,0.02520179954282699
-0.003767372613829557,0.02516888598507243
-0.003767202613829557,0.02474100973426307
-0.003767032613829557,0.02467518261875408
-0.003766862613829557,0.02421439281019028
-0.003766692613829557,0.0241814792524347
-0.003766522613829557,0.02362194877060825
-0.003766352613829557,0.02339155386632635
-0.003766182613829557,0.0226345420379707
-0.003766012613829557,0.02217375222940774
-0.003765842613829557,0.02204209799838951
-0.003765672613829557,0.02144965395880682
-0.003765502613829557,0.02108760482350735
-0.003765332613829557,0.02013311164862519
-0.003765162613829557,0.01950775405128837
-0.003764992613829557,0.01937609982027038
-0.003764822613829557,0.01904696424272481
-0.003764652613829557,0.0187178286651784
-0.003764482613829557,0.01825703885661544
-0.003764312613829557,0.01940901337802494
-0.003764142613829557,0.01894822356945964
-0.003763972613829557,0.01812538462559721
-0.003763802613829557,0.01894822356946114
-0.003763632613829557,0.01868491510742444
-0.003763462613829557,0.01855326087640645
-0.003763292613829557,0.01901405068497026
-0.003763122613829557,0.01937609982026972
-0.003762952613829557,0.01911279135823393
-0.003762782613829557,0.02003437097536152
-0.003762612613829557,0.02062681501494247
-0.003762442613829557,0.02089012347698001
-0.003762272613829557,0.0210546912657528
-0.003762102613829557,0.02131799972778877
-0.003761932613829557,0.02197627088288039
-0.003761762613829557,0.02200918444063495
-0.003761592613829557,0.02168004886308998
-0.003761422613829557,0.02194335732512584
-0.003761252613829557,0.02181170309410761
-0.003761082613829557,0.02151548107431713
-0.003760912613829557,0.02158130818982571
-0.003760742613829557,0.02154839463207115
-0.003760572613829557,0.02148256751656216
-0.003760402613829557,0.02144965395880748
-0.003760232613829557,0.02112051838126191
-0.003760062613829557,0.02108760482350741
-0.003759892613829557,0.02085720991922545
-0.003759722613829557,0.02029767943739798
-0.003759552613829557,0.01983688962883502
-0.003759382613829557,0.0192115320314976
-0.003759212613829557,0.01907987780047937
-0.003759042613829557,0.01947484049353334
-0.003758872613829557,0.01940901337802494
-0.003758702613829557,0.01934318626251582
-0.003758532613829557,0.0194419269357795
-0.003758362613829557,0.01947484049353405
-0.003758192613829557,0.01950775405128861
-0.003758022613829557,0.02000145741760697
-0.003757852613829557,0.0199027167443433
-0.003757682613829557,0.02000145741760697
-0.003757512613829557,0.01934318626251582
-0.003757342613829557,0.01924444558925138
-0.003757172613829557,0.01881656933844291
-0.003757002613829557,0.01828995241437
-0.003756832613829557,0.01773042193254103
-0.003756662613829557,0.0169075829886786
-0.003756492613829557,0.01674301519990581
-0.003756322613829557,0.01595308981379674
-0.003756152613829557,0.01611765760256923
-0.003755982613829557,0.01562395423625087
-0.003755812613829557,0.01552521356298672
-0.003755642613829557,0.01526190510095074
-0.003755472613829557,0.01532773221645986
-0.003755302613829557,0.01529481865870476
-0.003755132613829557,0.01499859663891429
-0.003754962613829557,0.01374788144424112
-0.003754792613829557,0.01611765760256731
-0.003754622613829557,0.0150644237544234
-0.003754452613829557,0.01473528817687783
-0.003754282613829557,0.01486694240789708
-0.003754112613829557,0.01542647288972353
-0.003753942613829557,0.01588726269828733
-0.003753772613829557,0.01601891692930717
-0.003753602613829557,0.0169075829886786
-0.003753432613829557,0.01726963212397873
-0.003753262613829557,0.01773042193254282
-0.003753092613829557,0.01789498972131531
-0.003752922613829557,0.0180595575100881
-0.003752752613829557,0.01865200154966905
-0.003752582613829557,0.01878365578068835
-0.003752412613829557,0.01835577952987911
-0.003752242613829557,0.0184874337608971
-0.003752072613829557,0.01861908799191557
-0.003751902613829557,0.01858617443416101
-0.003751732613829557,0.01789498972131657
-0.003751562613829557,0.01779624904805164
-0.003751392613829557,0.01717089145071506
-0.003751222613829557,0.01651262029562511
-0.003751052613829557,0.01578852202502366
-0.003750882613829557,0.0152948186587053
-0.003750712613829557,0.01420867125280689
-0.003750542613829557,0.01434032548382314
-0.003750372613829557,0.01374788144424112
-0.003750202613829557,0.01335291875118715
-0.003750032613829557,0.0139124492330139
-0.003749862613829557,0.01397827634852302
-0.003749692613829557,0.01450489327259497
-0.003749522613829557,0.0148340288501415
-0.003749352613829557,0.01513025086993251
-0.003749182613829557,0.01585434914053145
-0.003749012613829557,0.01647970673786936
-0.003748842613829557,0.0175987677015243
-0.003748672613829557,0.01805955751008726
-0.003748502613829557,0.0180595575100881
-0.003748332613829557,0.01924444558925215
-0.003748162613829557,0.01927735914700671
-0.003747992613829557,0.01954066760904317
-0.003747822613829557,0.01947484049353405
-0.003747652613829557,0.01947484049353405
-0.003747482613829557,0.01927735914700671
-0.003747312613829557,0.01888239645395202
-0.003747142613829557,0.01815829818335177
-0.003746972613829557,0.01756585414376974
-0.003746802613829557,0.01730254568173328
-0.003746632613829557,0.01611765760256923
-0.003746462613829557,0.01608474404481294
-0.003746292613829557,0.01513025086993251
-0.003746122613829557,0.01496568308115973
-0.003745952613829557,0.01457072038810391
-0.003745782613829557,0.01394536279076846
-0.003745612613829557,0.01387953567525935
-0.003745442613829557,0.01269464759610092
-0.003745272613829557,0.01578852202502366
-0.003745102613829557,0.01289212894262263
-0.003744932613829557,0.01210220355651344
-0.003744762613829557,0.01220094422977693
-0.003744592613829557,0.01256299336507706
-0.003744422613829557,0.01197054932549527
-0.003744252613829557,0.01210220355651326
-0.003744082613829557,0.01157558663244035
-0.003743912613829557,0.01137810528591336
-0.003743742613829557,0.01157558663244035
-0.003743572613829557,0.01098314259285832
-0.003743402613829557,0.01062109345755831
-0.003743232613829557,0.01068692057306731
-0.003743062613829557,0.01075274768857642
-0.003742892613829557,0.01118062393938644
-0.003742722613829557,0.0116085001901949
-0.003742552613829557,0.01266173403834073
-0.003742382613829557,0.01312252384690549
-0.003742212613829557,0.01364914077097745
-0.003742042613829557,0.01447197971484137
-0.003741872613829557,0.0152948186587038
-0.003741702613829557,0.0157556084672691
-0.003741532613829557,0.01611765760256923
-0.003741362613829557,0.01601891692930574
-0.003741192613829557,0.01631513894909657
-0.003741022613829557,0.0164467931801148
-0.003740852613829557,0.01621639827583332
-0.003740682613829557,0.01595308981379644
-0.003740512613829557,0.01588726269828733
-0.003740342613829557,0.01568978135176035
-0.003740172613829557,0.01496568308115973
-0.003740002613829557,0.01447197971484137
-0.003739832613829557,0.01407701702178741
-0.003739662613829557,0.01338583230894099
-0.003739492613829557,0.01305669673139542
-0.003739322613829557,0.01299086961588642
-0.003739152613829557,0.01335291875118643
-0.003738982613829557,0.01285921538486808
-0.003738812613829557,0.01328709163567654
-0.003738642613829557,0.01318835096241365
-0.003738472613829557,0.01371496788648656
-0.003738302613829557,0.01404410346403153
-0.003738132613829557,0.01440615259933226
-0.003737962613829557,0.01480111529238694
-0.003737792613829557,0.01483402885014144
-0.003737622613829557,0.01503151019666884
-0.003737452613829557,0.01493276952340517
-0.003737282613829557,0.01526190510095074
-0.003737112613829557,0.01555812712074176
-0.003736942613829557,0.01592017625604189
-0.003736772613829557,0.01582143558277821
-0.003736602613829557,0.01624931183358745
-0.003736432613829557,0.015986003371551
-0.003736262613829557,0.01595308981379644
-0.003736092613829557,0.01440615259933735
-0.003735922613829557,0.01720380500846961
-0.003735752613829557,0.01595308981379644
-0.003735582613829557,0.01588726269828835
-0.003735412613829557,0.0164467931801148
-0.003735242613829557,0.0166771880843967
-0.003735072613829557,0.01634805250685227
-0.003734902613829557,0.01697341010418771
-0.003734732613829557,0.01651262029562391
-0.003734562613829557,0.01631513894909561
-0.003734392613829557,0.01578852202502366
-0.003734222613829557,0.01499859663891429
-0.003734052613829557,0.01473528817687867
-0.003733882613829557,0.01519607798544163
-0.003733712613829557,0.01499859663891429
-0.003733542613829557,0.01480111529238694
-0.003733372613829557,0.01480111529238694
-0.003733202613829557,0.01427449836831403
-0.003733032613829557,0.01397827634852242
-0.003732862613829557,0.01364914077097745
-0.003732692613829557,0.01335291875118643
-0.003732522613829557,0.01269464759609451
-0.003732352613829557,0.01226677134528605
-0.003732182613829557,0.01203637644100415
-0.003732012613829557,0.01229968490304072
-0.003731842613829557,0.01236551201854972
-0.003731672613829557,0.01259590692283162
-0.003731502613829557,0.01236551201855014
-0.003731332613829557,0.01269464759609529
-0.003731162613829557,0.01305669673139542
-0.003730992613829557,0.01305669673139542
-0.003730822613829557,0.01348457298220466
-0.003730652613829557,0.01351748653995922
-0.003730482613829557,0.01364914077097721
-0.003730312613829557,0.01397827634852302
-0.003730142613829557,0.0143732390415777
-0.003729972613829557,0.01463654750361368
-0.003729802613829557,0.01493276952340517
-0.003729632613829557,0.01499859663891429
-0.003729462613829557,0.0148011152923873
-0.003729292613829557,0.01486694240789606
-0.003729122613829557,0.01486694240789606
-0.003728952613829557,0.01489985596565055
-0.003728782613829557,0.01516316442768707
-0.003728612613829557,0.01499859663891429
-0.003728442613829557,0.01466946106136931
-0.003728272613829557,0.0155252135629872
-0.003728102613829557,0.01463654750361416
-0.003727932613829557,0.01493276952340463
-0.003727762613829557,0.01542647288972353
-0.003727592613829557,0.01542647288972353
-0.003727422613829557,0.01509733731217856
-0.003727252613829557,0.01503151019666884
-0.003727082613829557,0.01499859663891429
-0.003726912613829557,0.01466946106136872
-0.003726742613829557,0.0141428441372958
-0.003726572613829557,0.01536064577421441
-0.003726402613829557,0.01410993057954124
-0.003726232613829557,0.01434032548382314
-0.003726062613829557,0.01434032548382314
-0.003725892613829557,0.0146036339458596
-0.003725722613829557,0.01447197971484137
-0.003725552613829557,0.01473528817687783
-0.003725382613829557,0.01532773221645986
-0.003725212613829557,0.0152619051009502
-0.003725042613829557,0.01496568308115973
-0.003724872613829557,0.01532773221645986
-0.003724702613829557,0.01516316442768785
-0.003724532613829557,0.01559104067849632
-0.003724362613829557,0.01582143558277821
-0.003724192613829557,0.01565686779400441
-0.003724022613829557,0.01509733731217796
-0.003723852613829557,0.01559104067849632
-0.003723682613829557,0.01499859663891531
-0.003723512613829557,0.01555812712074176
-0.003723342613829557,0.01585434914053277
-0.003723172613829557,0.01552521356298666
-0.003723002613829557,0.01522899154319619
-0.003722832613829557,0.01513025086993251
-0.003722662613829557,0.01466946106136788
-0.003722492613829557,0.01420867125280492
-0.003722322613829557,0.01401118990627757
-0.003722152613829557,0.01361622721322163
-0.003721982613829557,0.01292504250037719
-0.003721812613829557,0.01295795605813175
-0.003721642613829557,0.01249716624956735
-0.003721472613829557,0.01216803067202238
-0.003721302613829557,0.01216803067202238
-0.003721132613829557,0.0123325984607948
-0.003720962613829557,0.01213511711426782
-0.003720792613829557,0.01236551201854972
-0.003720622613829557,0.0126288204805857
-0.003720452613829557,0.01233259846079516
-0.003720282613829557,0.01289212894262263
-0.003720112613829557,0.01272756115385015
-0.003719942613829557,0.01332000519343187
-0.003719772613829557,0.01325417807792276
-0.003719602613829557,0.01368205432873122
-0.003719432613829557,0.01364914077097745
-0.003719262613829557,0.01394536279076846
-0.003719092613829557,0.01401118990627745
-0.003718922613829557,0.0141428441372958
